ゲルマー・ルドルフはドイツ人化学者でホロコースト否認論者。	げるまーるどるふわどいつじんかがくしゃでほろこーすとひにんろんしゃ。	NO_LABEL
離婚するまで妻の姓「シーラー」を名乗っていた。	NO_PRONOUNCE	NO_LABEL
ルドルフは一時、ドイツの右翼政党である共和党()の党員だった。	るどるふわいちじ、どいつのうよくせいとーであるきょーわとーかっこのとーいんだった。	NO_LABEL
生まれ。	うまれ。	NO_LABEL
1983年にレムシャイトで中等教育を受けたあと、ルドルフはボンで化学を専攻し、1989年に卒業した。	せんきゅうひゃくはちじゅうさんねんにれむしゃいとでちゅーとーきょーいくをうけたあと、るどるふわぼんでかがくをせんこーし、せんきゅうひゃくはちじゅうきゅうねんにそつぎょーした。	NO_LABEL
学生時代はA.V. Tuisconia Königsberg zu BonnとK.D.St.V. Nordgau Prag zu Stuttgartに所属した。	NO_PRONOUNCE	NO_LABEL
どちらもカトリック学友会連合（）の傘下のカトリック系のドイツ人学生自治会である。	どちらもかとりっくがくゆーかいれんごーかっこのさんかのかとりっくけいのどいつじんがくせいじちかいである。	NO_LABEL
ルドルフは自らの刊行物によって所属する学生自治会の信条に背いたことを理由として、会から追放されている。	るどるふわみずからのかんこーぶつによってしょぞくするがくせいじちかいのしんじょーにそむいたことをりゆーとして、かいからついほーされている。	NO_LABEL
軍務の後に大学研究科のPh.D.コースを修了すると、ルドルフは1990年10月よりシュトゥットガルトにあるマックス・プランク固体物理学研究所に臨時雇いとなった。	ぐんむののちにだいがくけんきゅーかのぴーえっちでぃーこーすをしゅーりょーすると、るどるふわせんきゅうひゃくきゅうじゅうねんじゅーがつよりしゅとぅっとがるとにあるまっくすぷらんくこたいぶつりがくけんきゅーじょにりんじやといとなった。	NO_LABEL
この時期彼は元ドイツ空軍大佐のハヨ・ヘルマン（）のために「アウシュヴィッツのガス室のシアン化合物の組成と実証可能性に関する報告」というタイトルの論文を書いている。	NO_PRONOUNCE	NO_LABEL
ドイツの法律で犯罪に規定されている民衆扇動罪のリチャード・グリーン（）とジェイミー・マッカーシーからその正当性に疑念が投げかけられている。	NO_PRONOUNCE	NO_LABEL
1993年にルドルフは、アウシュヴィッツ＝ビルケナウ強制収容所のガス室のあった場所から採取したサンプルを分析してもらうのにマックス・プランク研究所の名前を無断で使用したとして同研究所を免職処分となっている。	NO_PRONOUNCE	NO_LABEL
彼はこの免職の決定を不服として訴えを起こしたが処分は覆らなかった。	かれわこのめんしょくのけっていをふふくとしてうったえをおこしたがしょぶんわくつがえらなかった。	NO_LABEL
それから後は、後援者から金銭的援助を得たり、出版業者として働きながら、ホロコースト否認とそれに関連する違法行為に関わる裁判で助言を行っている。	それからごわ、こーえんしゃからきんせんてきえんじょをえたり、しゅっぱんぎょーしゃとしてはたらきながら、ほろこーすとひにんとそれにかんれんするいほーこーいにかかわるさいばんでじょげんをおこなっている。	NO_LABEL
1994年、「ルドルフ報告」を理由としてテュービンゲン地方裁判所から14箇月の禁固刑が言い渡された。	NO_PRONOUNCE	NO_LABEL
ルドルフはスペイン、イングランド、そしてついにはアメリカのシカゴへ逃亡し、シカゴでは政治亡命を申請した。	るどるふわすぺいん、いんぐらんど、そしてついにわあめりかのしかごえとーぼーし、しかごでわせいじぼーめいをしんせいした。	NO_LABEL
しかし申請は拒まれた。	しかししんせいわこばまれた。	NO_LABEL
その間にもドイツでは犯罪捜査が進んでいた。	そのかんにもどいつでわはんざいそーさがすすんでいた。	NO_LABEL
2004年8月、マンハイム地方裁判所は20万ユーロが預けられていた銀行口座を差し押さえた。	にせんよねんはちがつ、まんはいむちほーさいばんしょわにじゅうまんゆーろがあずけられていたぎんこーこーざをさしおさえた。	NO_LABEL
ルドルフとその仲間はホロコーストを否認する出版物を売ることでこれだけの金を稼いでいた。	るどるふとそのなかまわほろこーすとをひにんするしゅっぱんぶつをうることでこれだけのきんをかせいでいた。	NO_LABEL
2004年9月11日、ルドルフはアメリカ市民と結婚した。	にせんよねんくがつじゅういちにち、るどるふわあめりかしみんとけっこんした。	NO_LABEL
にもかかわらず11月には、ルドルフからの亡命申請は、それが「ばかげた」ものであるということを理由に最終的に却下された。	NO_PRONOUNCE	NO_LABEL
2005年10月19日にルドルフは逮捕され、11月15日にその身柄はドイツへと強制送還された。	にせんごねんじゅーがつじゅうきゅうにちにるどるふわたいほされ、じゅーいちがつじゅうごにちにそのみがらわどいつえときょーせいそーかんされた。	NO_LABEL
ドイツに着くなり彼は警察に逮捕され、バーデン＝ヴュルテンベルク州の刑務所に送られた。	NO_PRONOUNCE	NO_LABEL
マックス・プランク研究所を解雇されると、ルドルフはホロコースト否認に関する複数の本を出版し始めた。	まっくすぷらんくけんきゅうしょをかいこされると、るどるふわほろこーすとひにんにかんするふくすーのほんをしゅっぱんしはじめた。	NO_LABEL
彼はいくつかの筆名を使った。	かれわいくつかのひつめいをつかった。	NO_LABEL
それは何人もの専門家が彼に同調して互いの研究引用し合っているとでもいうような印象を与えるためだったとされる。	それわなにびとものせんもんかがかれにどーちょーしてたがいのけんきゅーいんよーしあっているとでもいうよーないんしょーをあたえるためだったとされる。	NO_LABEL
彼はいくつもの筆名を使うことはドイツの偏向した法的状況下では正当なものだと主張した。	かれわいくつものひつめいをつかうことわどいつのへんこーしたほーてきじょーきょーかでわせいとーなものだとしゅちょーした。	NO_LABEL
1998年はイングランドのヘイスティングスという出版社を作った。	せんきゅうひゃくきゅうじゅうはちねんわいんぐらんどのへいすてぃんぐすとゆうしゅっぱんしゃをつくった。	NO_LABEL
さらに彼はベルギーの歴史修正主義組織のVrij Historisch Onderzoekの活動に深く関わった。	NO_PRONOUNCE	NO_LABEL
Dissecting the Holocaustという本がルドルフによって編纂され共著された。	NO_PRONOUNCE	NO_LABEL
ルドルフはこの時エルンスト・ガウスという筆名を使用した。	NO_PRONOUNCE	NO_LABEL
Grundlagen zur Zeitgeschichteというタイトルの付いたこのドイツ語で書かれた出版物によって、ルドルフに対しては新たに複数の公訴が行われた。	NO_PRONOUNCE	NO_LABEL
ロベール・ファウリッソン、カルロ・マットーニョ、フリードリヒ・パウル・ベルクによって書かれていた。	NO_PRONOUNCE	NO_LABEL
ゲルマー・ルドルフにはネオナチ的な思想傾向があることが言われている。	げるまーるどるふにわねおなちてきなしそーけいこーがあることがいわれている。	NO_LABEL
ルドルフはその著書「Dissecting the Holocaust」でこの問題について触れている。	NO_PRONOUNCE	NO_LABEL
この本によって彼は収監されたのだが、そこには次のように述べられている:「この研究に貢献しているどの著者も自分たちに国家社会主義的な思想があるとは思っていないことを今ここで述べておかなければならない。	NO_PRONOUNCE	NO_LABEL
」	NO_PRONOUNCE	NO_LABEL
ゲルマー・ルドルフには極右的思想傾向があるといわれる。	げるまーるどるふにわきょくーてきしそーけいこーがあるといわれる。	NO_LABEL
「Dissecting the Holocaust」においては、彼は自分が政治的に右派であると認識していることを明らかにしているが、さらには過激主義は危険で避けるべきものだともはっきりと述べている。	NO_PRONOUNCE	NO_LABEL
ホロコースト修正主義者の政治的責任に関する討論で彼は次のように述べている:	NO_PRONOUNCE	NO_LABEL
「ホロコーストに関する議論が急進派や過激派の集団でなく一般の社会的集団に広まるうように気をつけることが中庸の政治の最も重要な関心事であるべきだ。	NO_PRONOUNCE	NO_LABEL
そうすることによって、歴史記述の見直しが引き起こすであろうどのような結果でもまともな政治家や尊敬されている政治家によって確実に充分に提示され実行されることが可能となるのである。	そーすることによって、れきしきじゅつのみなおしがひきおこすであろうどのよーなけっかでもまともなせいじかやそんけいされているせいじかによってかくじつにじゅーぶんにていじされじっこーされることがかのーとなるのである。	NO_LABEL
そして科学者にとって最も重要な関心事は政治家に対しこの事実への注意を喚起し、彼ら政治家が科学的洞察の断崖へと舵を取る際に彼らに寄り添うことなのである。	そしてかがくしゃにとってもっともじゅーよーなかんしんじわせいじかにたいしこのじじつえのちゅーいをかんきし、かれらせいじかがかがくてきどーさつのだんがいえとかじをとるさいにかれらによりそうことなのである。	NO_LABEL
」	NO_PRONOUNCE	NO_LABEL
