軍服とは軍隊の構成員が着用する衣類を言う。	ぐんぷくとわぐんたいのこーせいいんがちゃくよーするいるいをいう。	NO_LABEL
オーストリアの軍服では、軍隊に制服が導入された17世紀以降現在に至るオーストリアにおける軍服の変遷について述べる。	おーすとりあのぐんぷくでわ、ぐんたいにせいふくがどーにゅーされたじゅうしちせいきいこーげんざいにいたるおーすとりあにおけるぐんぷくのへんせんについてのべる。	NO_LABEL
※以下、オーストリア＝ハンガリー帝国をオーストリア共和国時代と対比する場合は「旧帝国」、オーストリア共和国のうち1918年 - 1938年の時期を第二次世界大戦後と対比する場合には「第一共和国」という表現も用いる。	NO_PRONOUNCE	NO_LABEL
1866年の普墺戦争の結果、ドイツ統一の主導権をプロイセン王国に奪われ、中・東欧の多民族国家として位置づけられたオーストリアの軍服は、プロイセンとも多くの共通点を持っていたが、ケピ帽や竜騎兵用ヘルメット、上着等に見られるように、フランスの影響がより強く見られた。	NO_PRONOUNCE	NO_LABEL
一方で、バイエルン王国等のドイツ諸邦の制服や統一後のドイツに影響を与えている。	いっぽーで、ばいえるんおーこくとーのどいつしょくにのせいふくやとーいつごのどいつにえいきょーをあたえている。	NO_LABEL
そのため、地方政府の独立性が強いドイツでは、現在でも地方によっては警察官の制服にその影響が残っている。	そのため、ちほーせいふのどくりつせいがつよいどいつでわ、げんざいでもちほーによってわけいさつかんのせいふくにそのえいきょーがのこっている。	NO_LABEL
また、オーストリアは、かつて統治下にあったハンガリーやチェコスロバキアとも軍服について互いに影響を与え合っている。	また、おーすとりあわ、かつてとーちかにあったはんがりーやちぇこすろばきあともぐんぷくについてたがいにえいきょーをあたえあっている。	NO_LABEL
1751年に白のハーフコートが導入され、1798年に正装と野戦用の軍服を区別する規定が定められる。	せんななひゃくごじゅういちねんにしろのはーふこーとがどーにゅーされ、せんななひゃくきゅうじゅうはちねんにせいそーとやせんよーのぐんぷくをくべつするきていがさだめられる。	NO_LABEL
1909年に騎兵を除く全兵科でヘヒトグラウとなる。	せんきゅうひゃくきゅうねんにきへいをのぞくぜんへいかでへひとぐらうとなる。	NO_LABEL
立て襟であったが、後年折り返し襟となる。	たてえりであったが、こーねんおりかえしえりとなる。	NO_LABEL
騎兵はシャコーやピッケルハウベにドルマンと赤いズボンであったが、1914年にグレーの覆いのされた野戦帽が制定された。	きへいわしゃこーやぴっけるはうべにどるまんとあかいずぼんであったが、せんきゅうひゃくじゅうよねんにぐれーのおーいのされたやせんぼーがせいていされた。	NO_LABEL
第一次世界大戦の結果オーストリア＝ハンガリー帝国は崩壊し、共和国として再出発したオーストリアでは、軍服にも旧帝国時代との決別をはかるべく改変が加えられた。	だいいちじせかいたいせんのけっかおーすとりあはんがりーていこくわほーかいし、きょーわこくとしてさいしゅっぱつしたおーすとりあでわ、ぐんぷくにもきゅーていこくじだいとのけつべつをはかるべくかいへんがくわえられた。	NO_LABEL
その際、同時期のドイツ軍がモデルにされた形跡がある。	そのさい、どーじきのどいつぐんがもでるにされたけいせきがある。	NO_LABEL
軍帽は従来のケピ帽が排されてドイツ軍に近い仕立てのものが採用され、腰部に鷲の国章を柏葉で囲んだ帽章、クラウン部に赤・白・赤の円形章が配された。	NO_PRONOUNCE	NO_LABEL
この制帽はドイツ併合を時代をはさんで、現在に至るまでオーストリア軍帽の基本的スタイルとなっている。	このせいぼーわどいつへいごーをじだいをはさんで、げんざいにいたるまでおーすとりあぐんぼーのきほんてきすたいるとなっている。	NO_LABEL
また上着の仕立ては旧帝国時代のパターンを踏襲しながら、襟高がやや低くなり、また襟章や肩章にはドイツ軍の強い影響が見受けられる。	またうわぎのしたてわきゅーていこくじだいのぱたーんをとーしゅーしながら、えりだかがややひくくなり、またえりしょーやけんしょーにわどいつぐんのつよいえいきょーがみうけられる。	NO_LABEL
逆に、オーストリアで旧帝国時代から山岳部隊に、のちに全軍で用いられていたつば付きの戦闘帽は、第一次大戦後ドイツや旧領のハンガリー、またドイツ経由で中華民国の軍服でも戦闘帽として用いられるようになった。	ぎゃくに、おーすとりあできゅーていこくじだいからさんがくぶたいに、のちにぜんぐんでもちいられていたつばつきのせんとーぼーわ、だいいちじたいせんごどいつやきゅーりょーのはんがりー、またどいつけいゆでちゅーかみんこくのぐんぷくでもせんとーぼーとしてもちいられるよーになった。	NO_LABEL
