宮城県沖地震は、1978年6月12日の17時14分25秒に発生したマグニチュード7.4の地震。	みやぎけんおきじしんわ、せんきゅうひゃくななじゅうはちねんろくがつじゅうににちのじゅうしちじじゅうよんぷんにじゅうごびょーにはっせいしたまぐにちゅーどななてんよんのじしん。	NO_LABEL
最大震度は仙台市などで観測した震度5であり、東京でも震度4を記録した。	さいだいしんどわせんだいしなどでかんそくしたしんどごであり、とーきょーでもしんどよんをきろくした。	NO_LABEL
平均37.1年の間隔で複数回起きた宮城県沖地震の一つである。	NO_PRONOUNCE	NO_LABEL
震度4以上の揺れを観測した地点は以下の通り。	しんどよんいじょーのゆれをかんそくしたちてんわいかのとーり。	NO_LABEL
地震の際に、東北大学工学部建設系研究棟の1階並びに9階に併設されたSMAC強震計により、地盤と建物の揺れが計測されている。	NO_PRONOUNCE	NO_LABEL
9階南北成分の最大加速度は1040ガルを記録し、建物上の観測としては当時の世界最大であった。	NO_PRONOUNCE	NO_LABEL
東北大学工学部の研究グループはこの計測値を元に建物の応答や損傷に対する解析を行った。	とーほくだいがくこーがくぶのけんきゅーぐるーぷわこのけいそくちをもとにたてもののおーとーやそんしょーにたいするかいせきをおこなった。	NO_LABEL
都市ガスが13万戸で供給停止となった。	NO_PRONOUNCE	NO_LABEL
仙台市ガス局のガスホルダーが地震で崩壊炎上したためガス供給に支障をきたした、老朽化または手抜き工事だったブロック塀の倒壊、1960年代に造成された新興住宅街の地盤崩壊、水田地帯を開発した卸町地区では液状化現象が発生しビルの倒壊や傾斜が見られるなど、宮城県内を中心に大きな被害が生じた。	せんだいしがすきょくのがすほるだーがじしんでほーかいえんじょーしたためがすきょーきゅーにししょーをきたした、ろーきゅーかまたわてぬきこーじだったぶろっくべいのとーかい、せんきゅうひゃくろくじゅうねんだにぞーせいされたしんこーじゅーたくがいのじばんほーかい、すいでんちたいをかいはつしたおろしまちちくでわえきじょーかげんしょーがはっせいしびるのとーかいやけいしゃがみられるなど、みやぎけんないをちゅーしんにおーきなひがいがしょーじた。	NO_LABEL
仙台市内の区域を含む）の住家の被害は全半壊が4385戸、部分壊が8万6010戸に上る。	NO_PRONOUNCE	NO_LABEL
交通では、国鉄が全面運休となり運行再開に1週間程度かかっている。	こーつーでわ、こくてつがぜんめんうんきゅーとなりうんこーさいかいにいっしゅーかんていどかかっている。	NO_LABEL
仙台市営バス・宮城交通バスは地震発生直後に運行を再開していたが、停電により交通信号が機能しなくなったため、警察官による手信号が行われていたが、夕方の帰宅ラッシュとも重なり交通渋滞が激しくなり、道路交通は深夜まで麻痺状態だった。	NO_PRONOUNCE	NO_LABEL
この地震では、ライフライン等が停止し都市生活が麻痺した。	このじしんでわ、らいふらいんとーがていししとしせいかつがまひした。	NO_LABEL
これは、50万人以上の大都市が経験した初めての都市型地震災害であるとも言われている。	これわ、ごじゅうまんにんいじょーのだいとしがけいけんしたはじめてのとしがたじしんさいがいであるともいわれている。	NO_LABEL
仙台市では電気・水道・固定電話は8日目までにほぼ復旧を見たもののガスの復旧率が99％を超えたのは地震発生後27日目であった。	NO_PRONOUNCE	NO_LABEL
6月12日は宮城県では「県民防災の日」とされ、地震に備えた防災訓練がなされる。	NO_PRONOUNCE	NO_LABEL
また、東北放送ラジオでは、毎日夕方17時14分になると「1978年6月12日、宮城県沖地震が発生した時間」であることが冒頭でアナウンスされる地震防災番組が放送されている。	NO_PRONOUNCE	NO_LABEL
家屋倒壊被害が甚大であったために3年後の1981年の建築基準法の改正につながった。	かおくとーかいひがいがじんだいであったためにさんねんごのせんきゅうひゃくはちじゅういちねんのけんちくきじゅんほーのかいせいにつながった。	NO_LABEL
この改正の要旨は、建築物の耐震基準の強化で「震度5強程度の中規模地震では軽微な損傷、震度6強から7程度の大規模地震でも倒壊は免れる」強さとすることを義務づけたものである。	NO_PRONOUNCE	NO_LABEL
