腰椎症とは腰椎の退行性変性に基づく疾患で、主に脊柱の可動制限、疼痛、こり感などの局所症状を呈し、慢性的な腰痛が特徴的である。	よーついしょーとわよーついのたいこーせいへんせいにもとずくしっかんで、おもにせきちゅーのかどーせいげん、とーつー、こりかんなどのきょくしょしょーじょーをていし、まんせいてきなよーつーがとくちょーてきである。	NO_LABEL
X線撮影では椎間板腔の狭小化、椎体辺縁の骨硬化、骨棘形成、椎間関節の狭小化、反応性骨増殖などが認められる。	NO_PRONOUNCE	NO_LABEL
腰部椎間板ヘルニアや腰部脊柱管狭窄症では脊柱症状よりも神経症状が主体となることが多い。	よーぶついかんばんへるにあやよーぶせきちゅーかんきょーさくしょーでわせきちゅーしょーじょーよりもしんけいしょーじょーがしゅたいとなることがおーい。	NO_LABEL
腰椎症をはじめ腰椎疾患では腰痛や殿部の痛みといった脊柱症状と下肢の痛み、しびれ、感覚鈍麻、間歇性跛行、膀胱直腸障害といった神経症状が認められる。	よーついしょーをはじめよーついしっかんでわよーつーやとのべのいたみといったせきちゅーしょーじょーとかしのいたみ、しびれ、かんかくどんま、かんけつせいはこー、ぼーこーちょくちょーしょーがいといったしんけいしょーじょーがみとめられる。	NO_LABEL
腰椎症では慢性の腰痛が特徴であり、起床時などの動き始めや長時間の同一作業での疼痛の増強が特徴である。	よーついしょーでわまんせいのよーつーがとくちょーであり、きしょーじなどのうごきはじめやちょーじかんのどーいちさぎょーでのとーつーのぞーきょーがとくちょーである。	NO_LABEL
夜間睡眠時に疼痛が増強する場合は馬尾腫瘍や類骨骨腫が考慮される。	やかんすいみんじにとーつーがぞーきょーするばあいわばびしゅよーやるいこつこつしゅがこーりょされる。	NO_LABEL
間欠性跛行に関しては閉塞性動脈硬化症による血管性間欠性跛行との区別が必要となる。	かんけつせいはこーにかんしてわへいそくせいどーみゃくこーかしょーによるけっかんせいかんけつせいはこーとのくべつがひつよーとなる。	NO_LABEL
腰椎症では前かがみで下肢痛は軽減することが多い。	よーついしょーでわまえかがみでかしつーわけいげんすることがおーい。	NO_LABEL
すなわち腰椎症ならば自転車ならば長時間走れて、シルバーカーを使って歩くと楽になる。	すなわちよーついしょーならばじてんしゃならばちょーじかんはしれて、しるばーかーをつかってあるくとらくになる。	NO_LABEL
血管性では関係しない。	けっかんせいでわかんけいしない。	NO_LABEL
腰痛疾患において問診で確認が推奨される項目は自覚症状では腰痛、下肢痛およびしびれ、歩行能力に関してである。	よーつーしっかんにおいてもんしんでかくにんがすいしょーされるこーもくわじかくしょうじょーでわよーつー、かしつーおよびしびれ、ほこーのーりょくにかんしてである。	NO_LABEL
日常生活動作では寝返り動作、立ち上がり動作、洗顔動作、中腰姿勢または立位の持続、長時間座位、重量物の挙上または保持、歩行などである。	にちじょーせいかつどーさでわねがえりどーさ、たちあがりどーさ、せんがんどーさ、ちゅーごししせいまたわりついのじぞく、ちょーじかんざい、じゅーりょーぶつのきょじょーまたわほじ、ほこーなどである。	NO_LABEL
膀胱直腸障害に関しては遷延性排尿、頻尿、残尿感、失禁などの有無を確認する。	ぼーこーちょくちょーしょーがいにかんしてわせんえんせいはいにょー、しきにょー、ざんにょーかん、しっきんなどのうむをかくにんする。	NO_LABEL
まずは姿勢の異常として側弯および棘突突起の階段変形の有無をしらべる。	NO_PRONOUNCE	NO_LABEL
カフェオレ斑や腰の手術創、帯状疱疹など皮膚の異常も確認する。	かふぇおれむらやこしのしゅじゅつそー、たいじょーほーしんなどひふのいじょーもかくにんする。	NO_LABEL
可動域制限としては腰部椎間板症では前屈制限が起こる。	かどーいきせいげんとしてわよーぶついかんばんしょーでわまえかがみせいげんがおこる。	NO_LABEL
これは前屈位では椎間板内圧が上昇し疼痛と背筋の攣縮が起こるためである。	NO_PRONOUNCE	NO_LABEL
腰部脊柱管狭窄症では後屈位で痛みが増強する場合が多い。	よーぶせきちゅーかんきょーさくしょーではごこごめいでいたみがぞーきょーするばあいがおーい。	NO_LABEL
圧痛点の確認も重要である。	NO_PRONOUNCE	NO_LABEL
傍脊柱筋、上殿神経部や梨状筋部の圧痛点を確認する。	NO_PRONOUNCE	NO_LABEL
坐骨神経や上殿神経を構成する神経根がヘルニアなどで刺激を受けていると殿部に圧痛点が出現する。	NO_PRONOUNCE	NO_LABEL
また棘突起の叩打痛を確認する。	またきょくとっきのたたきだつーをかくにんする。	NO_LABEL
深部腱反射の反射中枢は膝蓋腱反射ではL4であり、アキレス腱反射ではS1である。	しんぶけんはんしゃのはんしゃちゅーすーわひざふたけんはんしゃでわえるふぉーであり、あきれすけんはんしゃでわえすわんである。	NO_LABEL
筋力試験では足関節背屈がL4、L5であり、母趾の背屈がL5、S1である。	NO_PRONOUNCE	NO_LABEL
母趾の底屈がL5、S1、S2である。	NO_PRONOUNCE	NO_LABEL
おおよそ踵立ちはL5、つま先立ちはS1を反映する。	NO_PRONOUNCE	NO_LABEL
膝の伸展がよわく、歩行時に膝折れをする場合は高位椎間板ヘルニアが疑われる。	ひざのしんてんがよわく、ほこーじにひざおれをするばあいわこーいついかんばんへるにあがうたがわれる。	NO_LABEL
仰臥位で膝伸展のまま下肢を他動的に挙上させる。	ぎょーがいでひざしんてんのままかしをたどーてきにきょじょーさせる。	NO_LABEL
下肢痛が出現するならば陽性であり、出現する角度も記載する。	かしつーがしゅつげんするならばよーせいであり、しゅつげんするかくどもきさいする。	NO_LABEL
坐骨神経の伸展試験である。	ざこつしんけいのしんてんしけんである。	NO_LABEL
下位腰部椎間板ヘルニアなどで陽性となる。	かいよーぶついかんばんへるにあなどでよーせいとなる。	NO_LABEL
大腿神経伸展試験では腹臥位で膝を90度に屈曲させた状態で他動的に伸展させる。	だいたいしんけいしんてんしけんでわはらがいでひざをきゅうじゅうどにくっきょくさせたじょーたいでたどーてきにしんてんさせる。	NO_LABEL
大腿前面に疼痛が出現した場合は陽性である。	だいたいぜんめんにとーつーがしゅつげんしたばあいわよーせいである。	NO_LABEL
大腿神経の伸展試験である。	だいたいしんけいのしんてんしけんである。	NO_LABEL
上位腰部椎間板ヘルニアなどで陽性となる。	じょーいよーぶついかんばんへるにあなどでよーせいとなる。	NO_LABEL
ケンプテストは立位で患側に腰椎を側屈、伸展させる。	NO_PRONOUNCE	NO_LABEL
下肢痛が誘発されたら陽性である。	かしつーがゆーはつされたらよーせいである。	NO_LABEL
腰部椎間板ヘルニアや腰部脊柱管狭窄症で陽性となる。	よーぶついかんばんへるにあやよーぶせきちゅーかんきょーさくしょーでよーせいとなる。	NO_LABEL
ラセーグ試験では仰臥位で股関節、膝関節90度屈曲した状態から他動的に膝関節を伸展させる。	らせーぐしけんでわぎょーがいでこかんせつ、しつかんせつきゅうじゅうどくっきょくしたじょーたいからたどーてきにしつかんせつをしんてんさせる。	NO_LABEL
このとき下肢痛が誘発されたら陽性である。	このときかしつーがゆーはつされたらよーせいである。	NO_LABEL
ミルグラム試験では仰臥位で下肢を伸展させたまま、両足を台より5cm挙上してもらう。	みるぐらむしけんでわぎょーがいでかしをしんてんさせたまま、りょーあしをだいよりごせんちめーとるきょじょーしてもらう。	NO_LABEL
この肢位では腸腰筋、前腹壁の筋が緊張し、髄内圧が上昇する。	このしいでわちょーようきん、ぜんふくへきのすじがきんちょーし、ずいないあつがじょーしょーする。	NO_LABEL
その位置で30秒保てなければ陽性である。	そのいちでさんじゅうびょーたもてなければよーせいである。	NO_LABEL
30秒保てなければ硬膜内の病変は除外される。	さんじゅうびょーたもてなければかたまくないのびょーへんわじょがいされる。	NO_LABEL
腰椎椎間板ヘルニアなど硬膜外または硬膜内病変、脊髄腫瘍など髄膜に病的な圧力がかかる疾患で陽性となる。	よーついついかんばんへるにあなどかたまくそとまたわかたまくないびょーへん、せきずいしゅよーなどずいまくにびょーてきなあつりょくがかかるしっかんでよーせいとなる。	NO_LABEL
ゲンスレン徴候は仰臥位で膝を抱えてもらう。	げんすれんちょーこーわぎょーがいでひざをかかえてもらう。	NO_LABEL
患側の下肢を伸ばしてもらい、ベッドの端から下垂してもらう。	NO_PRONOUNCE	NO_LABEL
この時に仙腸関節に疼痛が起これば陽性である。	このときにせんちょーかんせつにとーつーがおこればよーせいである。	NO_LABEL
陽性の場合は仙腸関節の病変を示唆する。	よーせいのばあいわせんちょーかんせつのびょーへんをしさする。	NO_LABEL
下肢ではデルマトームの信頼性が高く、表在感覚障害が下腿内側にあればL4、下腿外側から足背ならばL5、足背外側部や足底部ならばS1神経根障害を想定する。	NO_PRONOUNCE	NO_LABEL
頸部では神経根は分岐したのち椎間孔まで横走するが腰椎部では神経根は斜走するため、各椎間板レベルに2つの神経根が存在する。	NO_PRONOUNCE	NO_LABEL
L4/L5椎間板レベルではL5神経根とその外側にL4神経根が存在する。	NO_PRONOUNCE	NO_LABEL
通常L4/L5椎間板の膨隆ではL5神経根が圧迫されるが、まれに外側ヘルニアではL4神経根が圧迫される。	NO_PRONOUNCE	NO_LABEL
通常はL3/L4が罹患椎間となる。	NO_PRONOUNCE	NO_LABEL
下腿内側部の感覚障害、大腿四頭筋の筋力低下、PTR低下が診断の基本となる。	NO_PRONOUNCE	NO_LABEL
頻度が低いが股関節術後などに生じる大腿神経麻痺も同様の所見を示す。	ひんどがていーがこかんせつじゅつごなどにしょーじるだいたいしんけいまひもどーよーのしょけんをしめす。	NO_LABEL
股関節内転筋、前脛骨筋などL4支配筋の筋力や筋電図が鑑別に役立つ。	こかんせつないてんすじ、ぜんけいこつきんなどえるふぉーしはいすじのきんりょくやきんでんずがかんべつにやくだつ。	NO_LABEL
大腿四頭筋の筋力低下は膝折れの有無で確認がスクリーニングができる。	だいたいしとーきんのきんりょくていかわひざおれのうむでかくにんがすくりーにんぐができる。	NO_LABEL
通常はL4/L5が罹患椎間となる。	NO_PRONOUNCE	NO_LABEL
腰仙部神経根症で最も多い。	こしせんぶしんけいねしょーでもっともおーい。	NO_LABEL
下腿外側遠位部と足背部の感覚障害、足関節背屈、足趾背屈の筋力低下と外反筋の筋力低下が起こる。	NO_PRONOUNCE	NO_LABEL
腓骨神経麻痺との鑑別が重要となる。	ひこつしんけいまひとのかんべつがじゅーよーとなる。	NO_LABEL
側臥位で股関節外転筋筋力を評価することで鑑別ができる。	そくがいでこかんせつがいてんすじきんりょくをひょーかすることでかんべつができる。	NO_LABEL
踵立ちがスクリーニングになる。	かかとたちがすくりーにんぐになる。	NO_LABEL
通常はL5/S1が罹患椎間となる。	NO_PRONOUNCE	NO_LABEL
足背外側部や足底部の感覚障害、下腿三頭筋の筋力低下、ATR低下が基本となる。	あしせがいそくぶやあしそこぶのかんかくしょーがい、かたいさんとーきんのきんりょくていか、えーてぃーあーるていかがきほんとなる。	NO_LABEL
足根管症候群では下腿三頭筋の筋力低下やATRの低下が起こらないことが鑑別になる。	そくこんかんしょーこーぐんでわかたいさんとーきんのきんりょくていかやえーてぃーあーるのていかがおこらないことがかんべつになる。	NO_LABEL
つま先立ちがスクリーニングになる。	つまさきだちがすくりーにんぐになる。	NO_LABEL
脊髄下端は高位診断が困難なことが多い。	せきずいかたんわこーいしんだんがこんなんなことがおーい。	NO_LABEL
それは椎体と脊髄の高位が異なるからである。	それわしーたいとせきずいのこーいがことなるからである。	NO_LABEL
脊髄円錐部は円錐上部と円錐部に分けられる。	せきずいえんすいぶわえんすいじょーぶとえんすいぶにわけられる。	NO_LABEL
円錐上部第12胸椎に位置し、L4からS2髄節である。	NO_PRONOUNCE	NO_LABEL
円錐部は第１腰椎に位置し、髄節はS3以下である。	えんすいぶわだいいちよーついにいちし、ずいぶしわえすすりーまいるすぼにーあんどぶれんくしなとらいかである。	NO_LABEL
そして第2または第3腰椎以下が馬尾になる。	NO_PRONOUNCE	NO_LABEL
これらは原則であり個体差は非常に大きい。	これらわげんそくでありこたいさわひじょーにおーきい。	NO_LABEL
脊髄下端はL1/2が最も多いとされているがそれでも30％に満たないのである。	NO_PRONOUNCE	NO_LABEL
馬尾は脊髄円錐より下位にある神経根の集まりで、L2以下の神経根が1本または複数障害される。	NO_PRONOUNCE	NO_LABEL
したがって臨床症状は単神経根症状ないし複数の神経根症状を呈する。	したがってりんしょーしょーじょーわたんしんけいねしょーじょーないしふくすーのしんけいねしょーじょーをていする。	NO_LABEL
この部位の病変では腰下肢部痛を訴えることが多い。	このぶいのびょーへんでわこしかしぶつーをうったえることがおーい。	NO_LABEL
SLR、FNSTなど誘発やでおおよその局在を決めていく。	NO_PRONOUNCE	NO_LABEL
なお、バビンスキー反射の反射中枢はL4～S1であり、膝蓋腱反射ではL2～L4であり、アキレス腱反射ではS1～S2と考える。	NO_PRONOUNCE	NO_LABEL
画像検査ではX線撮影、MRI、ミエログラフィーが知られている。	がぞーけんさでわえっくすせんさつえい、えむあーるあい、みえろぐらふぃーがしられている。	NO_LABEL
神経症状がなく、腰痛や殿部痛のみならば疼痛治療を優先する。	しんけいしょーじょーがなく、よーつーやとのべつーのみならばとーつーちりょーをゆーせんする。	NO_LABEL
神経症状が認められたら速やかにMRIを撮影する。	しんけいしょーじょーがみとめられたらすみやかにえむあーるあいをさつえいする。	NO_LABEL
配列、骨の状態、脊柱管の狭窄、椎間板の狭小化、靭帯付着の変化、軟部組織の腫脹に注意する。	NO_PRONOUNCE	NO_LABEL
正面像では側湾の有無、椎弓根の消失、椎弓根の骨硬化、横突起骨折、仙腸関節硬化像、腸腰筋の陰影増大などがある。	しょーめんぞーではがわわんのうむ、しーゆみねのしょーしつ、しーゆみねのほねこーか、よことっきこっせつ、せんちょーかんせつこーかぞー、ちょーようきんのいんえいぞーだいなどがある。	NO_LABEL
椎弓根の消失は転移性腫瘍で認められ、椎弓根の骨硬化は転移性腫瘍、分離症、類骨腫などでみられる。	しーゆみねのしょーしつわてんいせいしゅよーでみとめられ、しーゆみねのほねこーかわてんいせいしゅよー、ぶんりしょー、るいぼねしゅなどでみられる。	NO_LABEL
横突起骨折は外傷時で仙腸関節硬化像は仙腸関節炎でみられる。	よことっきこっせつわがいしょーじでせんちょーかんせつこーかぞーわせんちょーかんせつえんでみられる。	NO_LABEL
腸腰筋の陰影増大は腸腰筋膿瘍、血腫などで認められる。	ちょーようきんのいんえいぞーだいわちょーようきんのーよー、けっしゅなどでみとめられる。	NO_LABEL
側面像では脊柱配列、椎体圧迫骨折、骨梁像、椎間板腔の狭小化、椎体骨棘を評価する、脊柱配列では前弯増大、直線化、後弯変形、椎体すべりを評価する、椎体圧迫骨折や骨梁像は骨粗鬆症を示唆する。	NO_PRONOUNCE	NO_LABEL
椎間板腔狭小化や椎体骨棘は椎間板変性所見である。	NO_PRONOUNCE	NO_LABEL
前後屈側面像では椎間すべり、前屈時後方開大など腰椎不安定性の評価ができる。	ぜんごくつそくめんぞーでわしーますべり、まえかがみじこーほーかいだいなどよーついふあんていせいのひょーかができる。	NO_LABEL
両斜位像では脊椎分離や椎間関節の変形が評価できる。	りょーしゃいぞーでわせきついぶんりやしーまかんせつのへんけいがひょーかできる。	NO_LABEL
その他重要な腰椎X線の所見としてはbamboo spineという強直性脊椎炎に特徴的な所見がある。	NO_PRONOUNCE	NO_LABEL
これは靭帯の骨棘形成から二次的に隣接椎体が癒合し竹筒のようにみえることである。	これわじんたいのほねとげけいせいからにじてきにりんせつしーたいがゆごーしたけずつのよーにみえることである。	NO_LABEL
胸椎から腰椎にかけて椎体は尾側にいくほど椎体の高さがすこしずつ大きくなる。	きょーついからよーついにかけてしーたいわおがわにいくほどしーたいのたかさがすこしずつおーきくなる。	NO_LABEL
一つ上位の椎体に比べて小さい場合は圧迫骨折を疑う。	ひとつじょーいのしーたいにくらべてちーさいばあいわあっぱくこっせつをうたがう。	NO_LABEL
例外としては第5腰椎だけはしばしば第4腰椎よりも小さいことがある。	NO_PRONOUNCE	NO_LABEL
消炎鎮痛薬、筋弛緩薬、胃炎治療薬を処方する、腰部脊柱管狭窄症ではリマプロストが有効である。	しょーえんちんつーやく、すじしかんやく、いえんちりょーやくをしょほーする、よーぶせきちゅーかんきょーさくしょーでわりまぷろすとがゆーこーである。	NO_LABEL
漢方薬治療も用いることがある。	かんぽーやくちりょーももちいることがある。	NO_LABEL
牛車腎気丸が下肢のしびれ、足底の違和感、腰痛、むくみに有効である。	ぎゅーしゃじんきまるがかしのしびれ、あしそこのいわかん、よーつー、むくみにゆーこーである。	NO_LABEL
冷感を伴う場合は当帰四逆加呉茱萸生姜湯が有効である。	れいかんをともなうばあいわとーきしぎゃくかごしゅゆしょうきょうとーがゆーこーである。	NO_LABEL
膝関節症を伴う場合は疎経活血湯が有効である。	しつかんせつしょーをともなうばあいわうとけいかつちゆがゆーこーである。	NO_LABEL
ぎっくり腰やこむら返りに対しては芍薬甘草湯が有効である。	ぎっくりごしやこむらがえりにたいしてわしゃくやくかんぞーとーがゆーこーである。	NO_LABEL
疼痛の部位が明らかならばトリガーポイント注射が有効である。	とーつーのぶいがあきらかならばとりがーぽいんとちゅーしゃがゆーこーである。	NO_LABEL
生理食塩水100ml+ノイロトロピン®1A+メチコバール®1Aや生理食塩水100ml+リンデロン®4mg+メチコバール®1Aの点滴を行うこともある。	NO_PRONOUNCE	NO_LABEL
腰部脊柱管狭窄症ではプロスタグランジン製剤として生理食塩水100mlとパルクス2Aを用いることがある。	NO_PRONOUNCE	NO_LABEL
ブロックの場合はリンデロン®2mgと1%キシロカイン®5mlと生理食塩水10mlなどで行うことが多い。	ぶろっくのばあいわりんでろんとうろくしょうひょうまーくにめーとるぐらむといちぱーせんときしろかいんとうろくしょうひょうまーくごみりりっとるとせいりしょくえんすいじゅうみりりっとるなどでおこなうことがおーい。	NO_LABEL
急性腰痛症ではコルセットなどを用いる。	きゅーせいよーつーしょーでわこるせっとなどをもちいる。	NO_LABEL
急性期には安静にするが1週間程度して症状が落ち着いたら理学療法を行う。	きゅーせいきにわあんせいにするがいっしゅーかんていどしてしょーじょーがおちついたらりがくりょうほーをおこなう。	NO_LABEL
体重の1/3から開始し18～30Kgを目安とする。	NO_PRONOUNCE	NO_LABEL
Williams体操が代表的である。	NO_PRONOUNCE	NO_LABEL
この体操は腰椎の前弯を減少させることを目的とし、腹筋により骨盤の前縁を持ち上げ、大殿筋により骨盤後縁を回転させ、骨盤の前傾を減じるようにする。	NO_PRONOUNCE	NO_LABEL
腰椎後方手術としては腰部脊柱管狭窄症に対する椎弓切術などがある。	よーついこーほーしゅじゅつとしてわよーぶせきちゅーかんきょーさくしょーにたいするしーゆみせつじゅつなどがある。	NO_LABEL
70歳以上の高齢者の腰痛は転倒のような受傷機転がなくとも椎体骨折を疑う必要がある。	ななじゅっさいいじょーのこーれいしゃのよーつーわてんとーのよーなじゅしょーきてんがなくともしーたいこっせつをうたがうひつよーがある。	NO_LABEL
高齢者では大腿四頭筋筋力が低下しゆっくりと腰をおろせず、ドスンと椅子に座るため椎体骨折が起こりやすい。	こーれいしゃでわだいたいしとーきんきんりょくがていかしゆっくりとこしをおろせず、どすんといすにすわるためしーたいこっせつがおこりやすい。	NO_LABEL
畑で大根を引き抜いた、孫を抱いた、背伸びをしただけでも椎体骨折を起こしえる。	はたけでだいこんをひきぬいた、まごをだいた、せのびをしただけでもしーたいこっせつをおこしえる。	NO_LABEL
また胸腰椎移行部の骨折の疼痛は臀部に感じることが多く圧迫骨折を見落とす原因になっている。	またむねよーついいこーぶのこっせつのとーつーわでんぶにかんじることがおーくあっぱくこっせつをみおとすげんいんになっている。	NO_LABEL
胸腰椎移行部の神経根後枝が臀部付近の皮膚を支配するためである。	むねよーついいこーぶのしんけいねごえだがでんぶふきんのひふをしはいするためである。	NO_LABEL
高齢者の腰痛では棘突起の打痛を胸椎から腰椎まで確認する。	こーれいしゃのよーつーでわきょくとっきのだつーをきょーついからよーついまでかくにんする。	NO_LABEL
打痛は座位よりも腹臥位の方が誘発されやすい。	だつーわざいよりもはらがいのほーがゆーはつされやすい。	NO_LABEL
高齢者の腰痛は胸椎と腰椎の両方のX線写真を撮影したほうが安全である。	こーれいしゃのよーつーわきょーついとよーついのりょーほーのえっくすせんしゃしんをさつえいしたほーがあんぜんである。	NO_LABEL
また第5胸椎より上では、骨粗鬆症による脊椎圧迫骨折は起こりにくく、もしあったら癌の骨転移を疑う。	NO_PRONOUNCE	NO_LABEL
椎体骨折では棘突起の変化は通常起こらないのでMRIで棘突起に変化があれば癌の骨転移を疑う。	しーたいこっせつでわきょくとっきのへんかわつーじょーおこらないのでえむあーるあいできょくとっきにへんかがあればがんのほねてんいをうたがう。	NO_LABEL
