スィートショップは日本のロックバンド。	すぃーとしょっぷわにっぽんのろっくばんど。	NO_LABEL
1997年に結成され、1999年にメジャーデビュー。	せんきゅうひゃくきゅうじゅうななにけっせいされ、せんきゅうひゃくきゅうじゅうきゅうねんにめじゃーでびゅー。	NO_LABEL
2003年に解散した。	にせんさんねんにかいさんした。	NO_LABEL
『スィートショップ』＝「駄菓子屋」というバンド名は、子供から大人まで、親しみやすくいつでも手軽に、色々な味わいを楽しめる音楽を届けたいという事に由来する。	NO_PRONOUNCE	NO_LABEL
愛知県出身の同級生同士だった近藤薫・今井晶規が、プロのミュージシャンを目指し高校卒業後ともに上京。	NO_PRONOUNCE	NO_LABEL
創作活動を続ける内に近藤がバイト先で知り合ったドラムの金森浩勝を誘い、その後ベースの増田智章によるバンドメンバー募集の張り紙が目に留まった事で4人によるライブ活動を開始。	そーさくかつどーをつずけるうちにこんどーがばいとさきでしりあったどらむのかなもりひろかつをさそい、そのごべーすのますだともあきによるばんどめんばーぼしゅーのはりがみがめにとまったことでよにんによるらいぶかつどーをかいし。	NO_LABEL
1999年に笹路正徳のプロデュースにより、ポリドールから『雨を見てたよ』でメジャーデビュー。	NO_PRONOUNCE	NO_LABEL
その後、2001年までにシングルを7枚、アルバムを2枚リリースした後、インディーズレーベルへ移籍。	そのご、にせんいちねんまでにしんぐるをななまい、あるばむをにまいりりーすしたのち、いんでぃーずれーべるえいせき。	NO_LABEL
2002年にアルバム1枚をリリースし、2003年に解散した。	にせんにねんにあるばむいちまいをりりーすし、にせんさんねんにかいさんした。	NO_LABEL
近藤薫　　	こんどーかおる	NO_LABEL
今井晶規　	いまいあきらただし	NO_LABEL
金森浩勝	かなもりひろかつ	NO_LABEL
増田智章	ますだともあき	NO_LABEL
