カナダの内閣一覧は、カナダの歴代内閣の一覧である。	かなだのないかくいちらんわ、かなだのれきだいないかくのいちらんである。	NO_LABEL
以下の一覧は、1867年7月1日の以降の内閣と首相の一覧を含む。	いかのいちらんわ、せんはっぴゃくろくじゅうしちねんしちがつついたちのいこーのないかくとしゅしょーのいちらんをふくむ。	NO_LABEL
カナダの内閣は、慣例により、議長を務める首相が指名されたときに組閣され、首相が自ら職を辞したときに内閣総辞職する。	かなだのないかくわ、かんれいにより、ぎちょーをつとめるしゅしょーがしめいされたときにそかくされ、しゅしょーがみずからしょくをじしたときにないかくそーじしょくする。	NO_LABEL
唯一の例外は、戦時中に首相を務めたロバート・ボーデンの政権で、同じく彼が首相を務めて率いた保守党政権とは別の内閣であるとみなされている。	ゆいいつのれいがいわ、せんじちゅーにしゅしょーをつとめたろばーとぼーでんのせいけんで、おなじくかれがしゅしょーをつとめてひきいたほしゅとーせいけんとわべつのないかくであるとみなされている。	NO_LABEL
カナダでは、政権与党が選挙で敗退する結果にならない限りは、の度に内閣が総辞職することはない。	かなだでわ、せいけんよとーがせんきょではいたいするけっかにならないかぎりわ、のたびにないかくがそーじしょくすることわない。	NO_LABEL
これはイギリスやオーストラリアなどの他の英連邦王国とは対照的である。	これわいぎりすやおーすとらりあなどのほかのえいれんぽーおーこくとわたいしょーてきである。	NO_LABEL
英豪両国では、内閣は選挙の度に、勝利した者に関係なく、新たに組閣されるものだとみなされている。	えいごーりょーこくでわ、ないかくわせんきょのたびに、しょーりしたしゃにかんけいなく、あらたにそかくされるものだとみなされている。	NO_LABEL
そのため、カナダを治めてきた全28代の内閣は、カナダの連邦化以降、これまでに26回の政権交代と1回の連立政権の成立が、その時々の現職の首相により代表して行われた。	そのため、かなだをおさめてきたぜんにじゅうはちだいのないかくわ、かなだのれんぽーかいこー、これまでににじゅうろっかいのせいけんこーたいといっかいのれんりつせいけんのせいりつが、そのときどきのげんしょくのしゅしょーによりだいひょーしておこなわれた。	NO_LABEL
