細島は、宮崎県日向市東部にある地名である。	ほそじまわ、みやざきけんひゅうがしとーぶにあるちめいである。	NO_LABEL
行政地名は大字細島で、地域内の字名には宮ノ上、高々谷、八幡、庄手向、地蔵町、吉野川、清正、八坂、伊勢がある。	ぎょーせいちめいわだいじほそしまで、ちいきないのあざなにわみやのうえ、たかだかたに、やはた、しょーとーげ、じぞーちょー、よしのがわ、きよまさ、はつさか、いせがある。	NO_LABEL
細島半島にある米ノ山北麓に位置し、北側には入江の深い天然の良港があり、東部は日向灘に面している。	ほそじまはんとーにあるこめのさんぽくふもとにいちし、きたがわにわいりえのふかいてんねんのりょーこーがあり、とーぶわひゅーがなだにめんしている。	NO_LABEL
重要港湾である細島港のうち、細島商業港が帰属する。	じゅーよーこーわんであるほそしまこーのうち、ほそしましょーぎょーこーがきぞくする。	NO_LABEL
古くは江戸時代以前から江戸や大阪と東九州を結ぶ交易の中継地として発達し、妙国寺庭園や宮崎県で現存する最古の木造住宅築）であり、西南戦争の際に有栖川征討総督宮殿下御本営が置かれた「旧摂津屋」をはじめ、有形無形の文化財が多く存在する。	NO_PRONOUNCE	NO_LABEL
日向国臼杵郡細島、東臼杵郡細島町、町村制の施行により宮崎、都城、延岡、油津と共に宮崎県で最初の町制施行）を経て、1937年同郡富高町と合併して富島町大字細島となり、1951年からは日向市大字細島となる。	NO_PRONOUNCE	NO_LABEL
地名の由来は鉾島から転訛したと伝えられ、神武天皇に関わる伝説がある。	ちめいのゆらいわほこしまからてんかしたとつたえられ、じんむてんのーにかかわるでんせつがある。	NO_LABEL
