ビルトは、1952年に社が創刊したドイツのタブロイドの日刊新聞。	びるとわ、せんきゅうひゃくごじゅうにねんにしゃがそーかんしたどいつのたぶろいどのにっかんしんぶん。	NO_LABEL
発行部数は約311万部。	NO_PRONOUNCE	NO_LABEL
ヨーロッパで1番売れている新聞で、世界でも6番目。	よーろっぱでいちばんうれているしんぶんで、せかいでもろくばんめ。	NO_LABEL
有名人のゴシップや写真を多用した紙面作りで、南ドイツ新聞など高級紙とは区別される。	ゆーめいじんのごしっぷやしゃしんをたよーしたしめんずくりで、みなみどいつしんぶんなどこーきゅーしとわくべつされる。	NO_LABEL
当初はハンブルクに拠点を置いたが、2008年3月に本部をベルリンに移した。	とーしょわはんぶるくにきょてんをおいたが、にせんはちねんさんがつにほんぶをべるりんにうつした。	NO_LABEL
32の印刷拠点を持ち、ドイツ全土で印刷されている。	NO_PRONOUNCE	NO_LABEL
また、特別版はスペイン、イタリア、ギリシャ、トルコなどでも発行されている。	また、とくべつばんわすぺいん、いたりあ、ぎりしゃ、とるこなどでもはっこーされている。	NO_LABEL
イギリスのタブロイドのデイリー・ミラーにならって作られ、煽情的な見出しの記事で読者を増やした。	いぎりすのたぶろいどのでいりーみらーにならってつくられ、せんじょーてきなみだしのきじでどくしゃをふやした。	NO_LABEL
1984年から1面に女性の水着やヌードの写真を載せていることでも知られ、女性団体から批判されたこともある。	NO_PRONOUNCE	NO_LABEL
2012年には同年3月8日の国際女性デーに合わせてヌード写真を3面に移すことを決定し、3月9日付の紙面で発表した。	NO_PRONOUNCE	NO_LABEL
1980年代の部数は500万部以上だったが、2002年には400万になり、2007年には354万部に落ちた。	NO_PRONOUNCE	NO_LABEL
