水野 久男は東京電力の第5代社長。	みずのひさおわとーきょーでんりょくのだいごだいしゃちょー。	NO_LABEL
愛知県名古屋市出身。	あいちけんなごやししゅっしん。	NO_LABEL
第八高等学校を経て、東京大学法学部を卒業。	だいはちこーとーがっこーをへて、とーきょーだいがくほーがくぶをそつぎょー。	NO_LABEL
1928年、東京電燈入社。	せんきゅうひゃくにじゅうはちねん、とーきょーでんとーにゅーしゃ。	NO_LABEL
木川田一隆は浅草営業所時代の上司であり以後親交を持つようになる。	きがわだかずたかわあさくさえいぎょーしょじだいのじょーしでありいごしんこーをもつよーになる。	NO_LABEL
1971年に社長に就任、5年務めた。	せんきゅうひゃくななじゅういちねんにしゃちょーにしゅーにん、ごねんつとめた。	NO_LABEL
ちなみに社長退任時の退職金6億円は当時の経済界史上最高額。	ちなみにしゃちょーたいにんじのたいしょくきんろくおくえんわとーじのけいざいかいしじょーさいこーがく。	NO_LABEL
1985年2月、心筋梗塞のため東京電力病院で死去。	せんきゅうひゃくはちじゅうごねんにがつ、しんきんこーそくのためとーきょーでんりょくびょーいんでしきょ。	NO_LABEL
80歳	はちじゅっさい	NO_LABEL
木川田一隆の陰に隠れた存在だったが、社内・業界での人望は厚い。	NO_PRONOUNCE	NO_LABEL
長女の水野郁子はボストン交響楽団のバイオリン奏者。	ちょーじょのみずのいくこわぼすとんこーきょーがくだんのばいおりんそーしゃ。	NO_LABEL
