『フルスタリョフ、車を!』（)は、1998年に製作されたロシア・フランス合作映画である。	NO_PRONOUNCE	NO_LABEL
ロシアの監督アレクセイ・ゲルマンの長編4作目。	NO_PRONOUNCE	NO_LABEL
1935年、赤軍の将軍にして脳外科医であるユーリー・クレンスキーは、に巻き込まれ、強制収容所で拷問を受けるも、なぜか解放され、スターリンの側近であるラヴレンチー・ベリヤからある人物の診察を頼まれた。	NO_PRONOUNCE	NO_LABEL
10年後、クレンスキーは、家族と離れ、マフィアのボスとなり、列車の中にいた。	じゅうねんご、くれんすきーわ、かぞくとはなれ、まふぃあのぼすとなり、れっしゃのなかにいた。	NO_LABEL
