松嶋 桃は、日本プロ麻雀協会に所属する女性プロ麻雀士。	まつしまももわ、にほんぷろまーじゃんきょーかいにしょぞくするじょせいぷろまーじゃんし。	NO_LABEL
愛知県名古屋市出身。	あいちけんなごやししゅっしん。	NO_LABEL
血液型O型。	けつえきがたおーがた。	NO_LABEL
愛知県名古屋市生まれ。	あいちけんなごやしうまれ。	NO_LABEL
2003年、南山高等学校女子部卒業。	にせんさんねん、なんざんこーとーがっこーじょしぶそつぎょー。	NO_LABEL
2007年、京都大学法学部卒業。	にせんななねん、きょーとだいがくほーがくぶそつぎょー。	NO_LABEL
2010年、同志社大学法科大学院修了。	にせんじゅうねん、どーししゃだいがくほーかだいがくいんしゅーりょー。	NO_LABEL
3歳下の弟がいる。	さんさいかのおとーとがいる。	NO_LABEL
日本プロ麻雀協会第9期後期プロテスト受験者中、トップの成績を収め正規合格を果たした。	にほんぷろまーじゃんきょーかいだいきゅうきこーきぷろてすとじゅけんしゃちゅー、とっぷのせいせきをおさめせいきごーかくをはたした。	NO_LABEL
可愛らしいルックスとは裏腹に、攻撃的な麻雀スタイルから付けられた愛称は「京大式小型肉食獣」。	NO_PRONOUNCE	NO_LABEL
2016年10月16日放送の『パネルクイズ アタック25』に出場し、優勝する。	NO_PRONOUNCE	NO_LABEL
2017年7月よりオスカープロモーションとマネージメント提携している。	にせんじゅうななねんしちがつよりおすかーぷろもーしょんとまねーじめんとていけいしている。	NO_LABEL
