『アラン・ドロン/私刑警察』は、1988年のフランスの犯罪映画。	NO_PRONOUNCE	NO_LABEL
アラン・ドロン、ミシェル・セロー出演。	あらんどろん、みしぇるせろーしゅつえん。	NO_LABEL
が1984年に発表した『"Clause de style"』が原作である。	NO_PRONOUNCE	NO_LABEL
本作は1976年に亡くなった俳優ジャン・ギャバンに捧げられている。	もとさくわせんきゅうひゃくななじゅうろくねんになくなったはいゆーじゃんぎゃばんにささげられている。	NO_LABEL
定年間近のロジェ・スカッティ警視は仲間と共謀し、警察や裁判に頼らない方法で証拠や証言を改ざんし容疑者や汚職刑事を始末する極右組織「正義警察」を作り上げていた。	NO_PRONOUNCE	NO_LABEL
6月6日、スカッティはリュッツに死刑執行を任せ、正義警察の容疑者第一号としてゼレム宅を訪れて彼とボディガードを殺す。	ろくがつむいか、すかってぃわりゅっつにしけいしっこーをまかせ、まさよしけいさつのよーぎしゃだいいちごーとしてぜれむたくをおとずれてかれとぼでぃがーどをころす。	NO_LABEL
その後彼らは、仲間の刑事やその身内に害を及ぼした人物たちに死刑判決を即時に下し次々と殺していった。	そのごかれらわ、なかまのけいじやそのみうちにがいをおよぼしたじんぶつたちにしけいはんけつをそくじにくだしつぎつぎところしていった。	NO_LABEL
愛人のジェニファーに起こされたウジェーヌ・グランデル警視は、電話がかかってきていることを知らされる。	NO_PRONOUNCE	NO_LABEL
電話に出たグランデルは、街のギャングが次々と殺されていることを聞き、カザリエール警視総監に会うため警察署に出向く。	でんわにでたぐらんでるわ、まちのぎゃんぐがつぎつぎところされていることをきき、かざりえーるけいしそーかんにあうためけいさつしょにでむく。	NO_LABEL
カザリエールからその件の捜査を担当するよう指示され、助手としてリュッツとペレをつけると言われるが、グランデルはリュッツが右翼の宣伝を行っているとして難色を示す。	かざりえーるからそのけんのそーさをたんとーするよーしじされ、じょしゅとしてりゅっつとぺれをつけるといわれるが、ぐらんでるわりゅっつがうよくのせんでんをおこなっているとしてなんしょくをしめす。	NO_LABEL
だがリュッツを推薦したのがスカッティで、退職する彼の顔を立てたいというカザリエールの思いを受けグランデルは了承する。	だがりゅっつをすいせんしたのがすかってぃで、たいしょくするかれのかおをたてたいとゆうかざりえーるのおもいをうけぐらんでるわりょーしょーする。	NO_LABEL
2人と顔を合せた彼は、ペレを自分のパートナーにしてリュッツを自分から距離を取らせるため連絡係につかせる。	ふたりとかおをあわせたかれわ、ぺれをじぶんのぱーとなーにしてりゅっつをじぶんからきょりをとらせるためれんらくがかりにつかせる。	NO_LABEL
グランデルが食堂でペレと談笑していると、電話がかかってきたことを報告され2人はリュッツの元に向かう。	ぐらんでるがしょくどーでぺれとだんしょーしていると、でんわがかかってきたことをほーこくされふたりわりゅっつのもとにむかう。	NO_LABEL
電話の主はリトンと名乗り、深夜に起きた事件を目撃したと話す。	でんわのあるじわりとんとなのり、しんやにおきたじけんをもくげきしたとはなす。	NO_LABEL
グランデルはリトンから情報を得るため住所を聞くが、直後彼の職場である自動車修理屋に武装した集団が乗り込み彼は射殺される。	ぐらんでるわりとんからじょーほーをえるためじゅーしょをきくが、ちょくごかれのしょくばであるじどーしゃしゅーりやにぶそーしたしゅーだんがのりこみかれわしゃさつされる。	NO_LABEL
グランデルら警察が自動車修理屋に急行すると、蜂の巣にされたリトンの死体が横たわっていた。	ぐらんでるらけいさつがじどーしゃしゅーりやにきゅーこーすると、はちのすにされたりとんのしたいがよこたわっていた。	NO_LABEL
グランデルとペレは同じ修理屋で働く黒人男性から事情を聴くが、詳しい事はわからなかった。	ぐらんでるとぺれわおなじしゅーりやではたらくこくじんだんせいからじじょーをきくが、くわしいことわわからなかった。	NO_LABEL
その夜、スカティは処刑に使った武器を溶かして鉄の塊にしたことを憲兵から報告される。	そのよる、すかてぃわしょけいにつかったぶきをとかしててつのかたまりにしたことをけんぺいからほーこくされる。	NO_LABEL
しかし彼らが憲兵隊を掌握して軍を動かすことを提案したことに、スカティは20年かけて作り上げた正義警察を崩壊させることになると非難し、彼らを正義警察の敵だと言い放つ。	しかしかれらがけんぺいたいをしょーあくしてぐんをうごかすことをていあんしたことに、すかてぃわにじゅうねんかけてつくりあげたまさよしけいさつをほーかいさせることになるとひなんし、かれらをせいぎけいさつのてきだといーはなつ。	NO_LABEL
そして憲兵たちは上層部に報告することを決め車でその場を立ち去ろうとしたとき、スカティの仲間にバズーカ砲で車を撃たれ爆発炎上する。	そしてけんぺいたちわじょーそーぶにほーこくすることをきめしゃでそのばをたちさろうとしたとき、すかてぃのなかまにばずーかほーでくるまをうたればくはつえんじょーする。	NO_LABEL
事件現場にペレと無理矢理ついてきたリュッツを連れて訪れたグランデルは、焼け焦げた車から憲兵の記章を見つける。	じけんげんばにぺれとむりやりついてきたりゅっつをつれておとずれたぐらんでるわ、やけこげたくるまからけんぺいのきしょーをみつける。	NO_LABEL
憲兵が公用以外で武器を持っていたのを不審に思うグランデルはペレたちと捜査を進める。	けんぺいがこーよーいがいでぶきをもっていたのをふしんにおもうぐらんでるわぺれたちとそーさをすすめる。	NO_LABEL
