創薬とは医学、生物工学および薬学において薬剤を発見したり設計したりするプロセスのことである。	そーやくとわいがく、せいぶつこーがくおよびやくがくにおいてやくざいをはっけんしたりせっけいしたりするぷろせすのことである。	NO_LABEL
以前は、大半の薬剤が伝統治療薬の有効性成分の同定や宝探しのようにして発見されたものであった。	いぜんわ、たいはんのやくざいがでんとーちりょーやくのゆーこーせいせいぶんのどーていやたからさがしのよーにしてはっけんされたものであった。	NO_LABEL
今日における創薬アプローチは疾病や感作が分子生物学や生理学の見地で解明された制御機序や、その見地において見出された創薬対象の特性を理解することで薬剤を発見する手法である。	きょーにおけるそーやくあぷろーちわしっぺいやかんさがぶんしせいぶつがくやせいりがくのけんちでかいめいされたせいぎょきじょや、そのけんちにおいてみいだされたそーやくたいしょーのとくせいをりかいすることでやくざいをはっけんするしゅほーである。	NO_LABEL
創薬のプロセスは、創薬標的の同定、合成、特徴付け、薬効のスクリーニングおよびアッセイの順に進展する。	そーやくのぷろせすわ、そーやくひょーてきのどーてい、ごーせい、とくちょーずけ、やっこーのすくりーにんぐおよびあっせいのじゅんにしんてんする。	NO_LABEL
これらの試験で有用性を有する化合物を見出すと、前臨床試験の医薬品開発プロセスに進む。	これらのしけんでゆーよーせいをゆーするかごーぶつをみいだすと、ぜんりんしょーしけんのいやくひんかいはつぷろせすにすすむ。	NO_LABEL
テクノロジーや生物システムの解明が進んでいるのにもかかわらず、創薬はまだ15年以上の長期間を要す上に新薬発見の成功率は低い。	てくのろじーやせいぶつしすてむのかいめいがすすんでいるのにもかかわらず、そーやくわまだじゅうごねんいじょーのちょーきかんをよーすうえにしんやくはっけんのせいこーりつわひくい。	NO_LABEL
創薬に予想もしない恩恵をもたらす可能性を秘めた暗号であるヒトゲノム情報は治療標的のボトルネックを計算機上で排除すると信じられている	そーやくによそーもしないおんけいをもたらすかのーせいをひめたあんごーであるひとげのむじょーほーわちりょーひょーてきのぼとるねっくをけいさんきじょーではいじょするとしんじられている	NO_LABEL
「標的」の定義づけ自体は製薬企業内で行われた議論によって形成される。	NO_PRONOUNCE	NO_LABEL
しかしながら、 新規と既存との標的の区分は標的がどのようなものであるかを完全に把握しなくても判別されている。	しかしながら、しんきときそんとのひょーてきのくぶんわひょーてきがどのよーなものであるかをかんぜんにはあくしなくてもはんべつされている。	NO_LABEL
このようにして判別された区分は典型的には製薬企業が創薬や開発に従事している低分子治療薬の区分になっている。	このよーにしてはんべつされたくぶんわてんけいてきにわせいやくきぎょーがそーやくやかいはつにじゅーじしているていぶんしちりょーやくのくぶんになっている。	NO_LABEL
「既存標的」は健常な状態の生理学的な標的機能も、ヒトの病理学的な標的機能も科学的な理解が良くなされており、長期にわたる発表履歴に裏打ちされている。	NO_PRONOUNCE	NO_LABEL
既存であるということは、薬剤の作用機序が標的の完全に把握された詳細を通じて作用が考察されることをほのめかすわけではない。	きそんであるとゆうことわ、やくざいのさよーきじょがひょーてきのかんぜんにはあくされたしょーさいをつーじてさよーがこーさつされることをほのめかすわけでわない。	NO_LABEL
むしろ、「既存である」ということは直接的にはそれぞれの機能に関する情報について標的を取り巻く情報の量の多い少ないに関連している。	NO_PRONOUNCE	NO_LABEL
多くのこの種の情報は利用可能であるが、それに対して各標的に対して臨床的な開発を施すための資金には限りがある。	おーくのこのたねのじょーほーわりよーかのーであるが、それにたいしてかくひょーてきにたいしてりんしょーてきなかいはつをほどこすためのしきんにわかぎりがある。	NO_LABEL
この種の機能情報を集約するプロセスは、製薬業界用語で「ターゲットバリデーション」と呼ばれる。	NO_PRONOUNCE	NO_LABEL
製薬企業が内部的に所有しているものも含めて、既存の標的は過去に医薬品開発の活動の積み重ねに経験付けられている。	せいやくきぎょーがないぶてきにしょゆーしているものもふくめて、きそんのひょーてきわかこにいやくひんかいはつのかつどーのつみかさねにけいけんつけられている。	NO_LABEL
たとえばこのような経験の積み重ねは標的に対して低分子治療薬の化学的開発実現性に関する情報を提供する。	たとえばこのよーなけいけんのつみかさねわひょーてきにたいしてていぶんしちりょーやくのかがくてきかいはつじつげんせいにかんするじょーほーをていきょーする。	NO_LABEL
そして他社へのライセンス供与の機会を提供し、低分子治療薬候補を考慮する際にその経験が選択の幅を提供する。	そしてたしゃえのらいせんすきょーよのきかいをていきょーし、ていぶんしちりょーやくこーほをこーりょするさいにそのけいけんがせんたくのはばをていきょーする。	NO_LABEL
一般には、「新規標的」は創薬活動の主題としてなった標的のうち「既存標的」以外のものすべてである。	NO_PRONOUNCE	NO_LABEL
典型的には新規標的は、新規に発見された蛋白質であったり、基礎研究により新たに機能が判明した蛋白質などが含まれる。	てんけいてきにわしんきひょーてきわ、しんきにはっけんされたたんぱくしつであったり、きそけんきゅーによりあらたにきのーがはんめいしたたんぱくしつなどがふくまれる。	NO_LABEL
創薬において今日選択される主な標的は蛋白質である。	そーやくにおいてきょーせんたくされるおもなひょーてきわたんぱくしつである。	NO_LABEL
それらの蛋白質クラスの2つの主流は次のものである:Gタンパク質共役受容体とプロテインキナーゼである。	NO_PRONOUNCE	NO_LABEL
個々の疾病毎に選択された標的に対する新薬発見のプロセスはハイスループットスクリーニングにより進展するが、それは膨大な化学物質ライブラリーに対して試験を実施し、その過程で標的に変更を促す働きも有している。	ここのしっぺいごとにせんたくされたひょーてきにたいするしんやくはっけんのぷろせすわはいするーぷっとすくりーにんぐによりしんてんするが、それわぼーだいなかがくぶっしつらいぶらりーにたいしてしけんをじっしし、そのかていでひょーてきにへんこーをうながすはたらきもゆーしている。	NO_LABEL
例えば、標的が新規GPCRであれば試験化合物は受容体を阻害あるいは刺激する性質でスクリーニングされる。	たとえば、ひょーてきがしんきじーぴーしーあーるであればしけんかごーぶつわじゅよーたいをそがいあるいわしげきするせいしつですくりーにんぐされる。	NO_LABEL
プロテインキナーゼの場合、化合物はキナーゼの酵素阻害作用で試験される。	ぷろていんきなーぜのばあい、かごーぶつわきなーぜのこーそそがいさよーでしけんされる。	NO_LABEL
HTSのもう一つの重要な機能に選択された標的に対して選択性を示すかどうかを見るという点がある。	NO_PRONOUNCE	NO_LABEL
理想的には発見された化合物は選択された標的ただ一つに影響し関連した他の標的には影響しないというものである。	りそーてきにわはっけんされたかごーぶつわせんたくされたひょーてきただひとつにえいきょーしかんれんしたほかのひょーてきにわえいきょーしないとゆうものである。	NO_LABEL
最終的にはスクリーニングの実施により、選択された標的対するヒット化合物は関連する他の標的に対する影響を試験される。	さいしゅーてきにわすくりーにんぐのじっしにより、せんたくされたひょーてきたいするひっとかごーぶつわかんれんするほかのひょーてきにたいするえいきょーをしけんされる。	NO_LABEL
このプロセスをクロススクリーニングと呼ぶ。	このぷろせすをくろすすくりーにんぐとよぶ。	NO_LABEL
クロススクリーニングは重要である。	くろすすくりーにんぐわじゅーよーである。	NO_LABEL
なぜならば関連性のない多くの標的に対してヒットする化合物は的外れの毒性を臨床段階で化合物が示すことを引き起こすからである。	なぜならばかんれんせいのないおーくのひょーてきにたいしてひっとするかごーぶつわまとはずれのどくせいをりんしょーだんかいでかごーぶつがしめすことをひきおこすからである。	NO_LABEL
早期のスクリーニングで完璧な候補化合物が出現することはほとんど起こりそうもないことである。	そーきのすくりーにんぐでかんぺきなこーほかごーぶつがしゅつげんすることわほとんどおこりそーもないことである。	NO_LABEL
たいていは、ある程度の薬理活性をもったいくつかの化合物が発見される。	たいていわ、あるていどのやくりかっせいをもったいくつかのかごーぶつがはっけんされる。	NO_LABEL
そしてそれらが共通の化学構造を持つ場合は、単一かあるいは複数のファーマコフォアが見出されることがある。	そしてそれらがきょーつーのかがくこうぞーをもつばあいわ、たんいつかあるいわふくすーのふぁーまこふぉあがみいだされることがある。	NO_LABEL
この時点で、医薬品化学者は構造活性相関を試みて幾つかの性質を改善してリード化合物を仕立てるのである。	このじてんで、いやくひんかがくしゃわこーぞーかっせいそーかんをこころみていくつかのせいしつをかいぜんしてりーどかごーぶつをしたてるのである。	NO_LABEL
その改善とは次のようなものである:	NO_PRONOUNCE	NO_LABEL
このプロセスは幾つかの試行錯誤的なスクリーニングの実施が必要となることがある。	このぷろせすわいくつかのしこーさくごてきなすくりーにんぐのじっしがひつよーとなることがある。	NO_LABEL
その過程において、望ましくは、新しい分子の性質が改良され、In vitro試験や In vivo試験を実施する上で採用された病理モデルの活性の点で好ましい化合物になっていることである。	NO_PRONOUNCE	NO_LABEL
概してHTSは、一般には新規な創薬の為の手法であるが、その目的だけに使用されるわけではない。	NO_PRONOUNCE	NO_LABEL
HTSが幾つかの望ましい特性を持つ分子から出発することもある。	NO_PRONOUNCE	NO_LABEL
その場合の分子は天然物から抽出されたり、改良された上市されている薬からであったりする。	そのばあいのぶんしわてんねんぶつからちゅーしゅつされたり、かいりょーされたかみいちされているくすりからであったりする。	NO_LABEL
HTS以外の方法としてはパーチャルスクリーニングと呼ばれる手法があり、コンピューターが機械的に発生させた分子モデルを使い創薬標的にバーチャルライブラリーをドッキングスタディを施すことでスクリーニングとすることがしばしば行われる。	NO_PRONOUNCE	NO_LABEL
他の重要な手法としては医薬品設計による創薬があげられる。	たのじゅーよーなしゅほーとしてわいやくひんせっけいによるそーやくがあげられる。	NO_LABEL
標的の生物学的、物理的特性に関して研究し、一連の化合物が活性部位に適合するか否かを予測する。	ひょーてきのせいぶつがくてき、ぶつりてきとくせいにかんしてけんきゅーし、いちれんのかごーぶつがかっせいぶいにてきごーするかいなかをよそくする。	NO_LABEL
そして新規のファーマコフォアの存在は医薬品設計の試みを迅速に達成しうる要素である。	そしてしんきのふぁーまこふぉあのそんざいわいやくひんせっけいのこころみをじんそくにたっせいしうるよーそである。	NO_LABEL
能力や選択性や薬剤に適した特性の面で十分標的を満足しうる一連のリード化合物が見つかると、一つないしは二つの化合物が医薬品開発の段階に供せられる。	のーりょくやせんたくせいややくざいにてきしたとくせいのめんでじゅーぶんひょーてきをまんぞくしうるいちれんのりーどかごーぶつがみつかると、ひとつないしわふたつのかごーぶつがいやくひんかいはつのだんかいにきょーせられる。	NO_LABEL
一連のなかでの最も適した化合物は一般にはリード化合物と呼ばれる。	いちれんのなかでのもっともてきしたかごーぶつわいっぱんにわりーどかごーぶつとよばれる。	NO_LABEL
そしてリード化合物以外の設計された化合物は「バックアップ」になる。	NO_PRONOUNCE	NO_LABEL
　　	NO_PRONOUNCE	NO_LABEL
