徳島県立城東高等学校は、徳島県徳島市中徳島町一丁目にある公立高等学校である。	とくしまけんりつじょーとーこーとーがっこーわ、とくしまけんとくしましなかとくしまちょーいっちょーめにあるこーりつこーとーがっこーである。	NO_LABEL
前身は1902年創立の徳島県立高等女学校。	ぜんしんわせんきゅうひゃくにねんそーりつのとくしまけんりつこーとーじょがっこー。	NO_LABEL
徳島県立城東高等学校は1902年徳島県徳島市に徳島県立高等女学校として創立、徳島県の進学高校群である旧総合選抜六校のうちの一校であり、2012年に創立110周年を迎えた伝統校である。	とくしまけんりつじょーとーこーとーがっこーわせんきゅうひゃくにねんとくしまけんとくしましにとくしまけんりつこーとーじょがっこーとしてそーりつ、とくしまけんのしんがくこーこーぐんであるきゅーそーごーせんばつろくこーのうちのいちこーであり、にせんじゅうにねんにそーりつひゃくじゅうしゅーねんをむかえたでんとーこーである。	NO_LABEL
これまでに4万人の卒業生を輩出している。	これまでによんまんにんのそつぎょーせいをはいしゅつしている。	NO_LABEL
当校は伝統と自由に育まれた校風のもとで文武両道を実践している。	とーこーわでんとーとじゆーにはぐくまれたこーふーのもとでぶんぶりょーどーをじっせんしている。	NO_LABEL
また、県内では県立高校として一番の進学校であり、例年、東大京大を初めとする旧帝大や、医学部医学科に多数の合格者を輩出している。	また、けんないでわけんりつこーこーとしていちばんのしんがくこーであり、れいねん、とーだいきょーだいをはじめとするきゅーていだいや、いがくぶいがくかにたすーのごーかくしゃをはいしゅつしている。	NO_LABEL
2014年度から、SGHに指定された。	NO_PRONOUNCE	NO_LABEL
徳島城東高等学校の前身である徳島高等女学校は創立時から校訓を持たず、徳島県立城東高等学校と名称が変更したあとは生徒会によって作詞された現校歌『雄々しき渭山』を校訓の代わりとしている。	NO_PRONOUNCE	NO_LABEL
卒業式時に生徒全員が大声で合唱することが恒例となっており、学期始めの際には全校集会で必ず歌唱練習が行われ、またその際の伴奏演奏はオーケストラ部が行う。	そつぎょーしきじにせいとぜんいんがおーごえでがっしょーすることがこーれいとなっており、がっきはじめのさいにわぜんこーしゅーかいでかならずかしょーれんしゅーがおこなわれ、またそのさいのばんそーえんそーわおーけすとらぶがおこなう。	NO_LABEL
旧校舎の老朽化と創立100周年にあわせ2001年から改築工事が行われていたが、埋蔵文化財の発掘や県の公共事業の見直しなどにより大幅に工期が遅れ2004年に新校舎が完成した。	きゅーこーしゃのろーきゅーかとそーりつひゃくしゅーねんにあわせにせんいちねんからかいちくこーじがおこなわれていたが、まいぞーぶんかざいのはっくつやけんのこーきょーじぎょーのみなおしなどによりおーはばにこーきがおくれにせんよねんにしんこーしゃがかんせいした。	NO_LABEL
徳島県の県立高校としてははじめて全館空調が整備されている。	とくしまけんのけんりつこーこーとしてわはじめてぜんかんくーちょーがせいびされている。	NO_LABEL
西側に体育館棟、北側に本館棟、南側に生徒館棟が三角形に配置され、中庭はウッドデッキになっている。	にしがわにたいいくかんとー、きたがわにほんかんとー、みなみがわにせいとかんとーがさんかっけいにはいちされ、なかにわわうっどでっきになっている。	NO_LABEL
体育館棟には2階4階に体育館があり、他には剣道場、柔道場、トレーニングスペース、食堂、図書館、多目的ホールがある。	たいいくかんとーにわにかいよんかいにたいいくかんがあり、たにわけんどーじょー、じゅーどーじょー、とれーにんぐすぺーす、しょくどー、としょかん、たもくてきほーるがある。	NO_LABEL
この多目的ホールは最大収容人数が300名であり徳島県内の高校の中では有数の規模である。	NO_PRONOUNCE	NO_LABEL
本館棟には職員室、保健室、事務室、理科室、被服室、調理室、書道教室などがある。	ほんかんとーにわしょくいんしつ、ほけんしつ、じむしつ、りかしつ、ひふくしつ、ちょーりしつ、しょどーきょーしつなどがある。	NO_LABEL
生徒館棟には各クラスごとの教室があり各教室は互いに段違いになるように配置されている。	せいとかんとーにわかくくらすごとのきょーしつがありかくきょーしつわたがいにだんちがいになるよーにはいちされている。	NO_LABEL
そのため各教室の前は広めにスペースがとられており各教室前には備え付けのベンチがある。	そのためかくきょーしつのまえわひろめにすぺーすがとられておりかくきょーしつまえにわそなえつけのべんちがある。	NO_LABEL
旧校舎周辺にはかつて赤レンガで建造された塀が存在していたが、全体工事の完了の際に取り壊された。	きゅーこーしゃしゅーへんにわかつてあかれんがでけんぞーされたへいがそんざいしていたが、ぜんたいこーじのかんりょーのさいにとりこわされた。	NO_LABEL
本校の同窓生を中心に保存の声が大きかったために、現在では戦災・震災を乗り越えた記念として一部分がモニュメントとして保存されている。	NO_PRONOUNCE	NO_LABEL
本校の制服はブレザータイプで特徴として男子は青色のシャツ、女子はチェックのスカートである。	ほんこーのせいふくわぶれざーたいぷでとくちょーとしてだんしわあおいろのしゃつ、じょしわちぇっくのすかーとである。	NO_LABEL
旧制服では男子は学生服、女子はジャンパースカートだった。	きゅーせいふくでわだんしわがくせいふく、じょしわじゃんぱーすかーとだった。	NO_LABEL
2004年までは入学時期の関係から旧制服の生徒と新制服の生徒が混在していたが現在は新制服で統一されている。	にせんよねんまでわにゅーがくじきのかんけいからきゅーせいふくのせいととしんせいふくのせいとがこんざいしていたがげんざいわしんせいふくでとーいつされている。	NO_LABEL
男子制服はネクタイ着用のため一見サラリーマンスーツ姿のように見えることが特徴的である。	だんしせいふくわねくたいちゃくよーのためいっけんさらりーまんすーつすがたのよーにみえることがとくちょーてきである。	NO_LABEL
なお新制服は本校創立100周年事業の一環として生徒および徳島市民の公募アンケートにより採用された。	なおしんせいふくわほんこーそーりつひゃくしゅーねんじぎょーのいっかんとしてせいとおよびとくしましみんのこーぼあんけーとによりさいよーされた。	NO_LABEL
現在は普通科の全日制のみ設置している。	げんざいわふつーかのぜんにちせいのみせっちしている。	NO_LABEL
高校入試の合格者とその保護者を対象に行われる入学説明会の時に数理、文理、人文社会の中から希望を執りそれぞれのコースに分かれる。	こーこーにゅーしのごーかくしゃとそのほごしゃをたいしょーにおこなわれるにゅーがくせつめいかいのときにすーり、ぶんり、じんぶんしゃかいのなかからきぼーをとりそれぞれのこーすにわかれる。	NO_LABEL
例年数理が1クラス、文理が6クラス、人文社会が1クラス設置されている。	NO_PRONOUNCE	NO_LABEL
文理は1年の11月～12月にかけて希望を執り2年からは理系と文系に分かれる。	NO_PRONOUNCE	NO_LABEL
また文理コースの中でも学力選抜により、英数クラスを設置する。	またぶんりこーすのなかでもがくりょくせんばつにより、えいすーくらすをせっちする。	NO_LABEL
平成24年度の1年生は、数理、人文社会がそれぞれ1クラス、文理が6クラスで、文理に英数クラスを2クラス設けている。	NO_PRONOUNCE	NO_LABEL
本校で実施されている総合学習の「ドリカムセミナー」は、生徒の夢実現に向けての手助けとなっている。	NO_PRONOUNCE	NO_LABEL
これは元来福岡県立城南高等学校で行われていたドリカムプランをモデルにしたもので、2000年度に開始された。	これわがんらいふくおかけんりつじょうなんこーとーがっこーでおこなわれていたどりかむぷらんをもでるにしたもので、にせんねんどにかいしされた。	NO_LABEL
その他学校非公認クラブも少数存在する。	そのたがっこーひこーにんくらぶもしょーすーそんざいする。	NO_LABEL
なお、過去には水泳部などの水中競技の体育部が存在したが、現行校舎および旧校舎時代にプールが存在しなかったせいか、廃止されている。	なお、かこにわすいえいぶなどのすいちゅーきょーぎのたいいくぶがそんざいしたが、げんこーこーしゃおよびきゅーこーしゃじだいにぷーるがそんざいしなかったせいか、はいしされている。	NO_LABEL
現在でも希望が多い場合でない限りは体育の授業でも水泳は行われていない。	げんざいでもきぼーがおーいばあいでないかぎりわたいいくのじゅぎょーでもすいえいわおこなわれていない。	NO_LABEL
過去存在した能楽部は資料写真こそ残っているものの、部員減の為に廃止されたが、現在和楽器という部類だけで邦楽部に継続されている。	かこそんざいしたのーがくぶわしりょーしゃしんこそのこっているものの、ぶいんげんのためにはいしされたが、げんざいわらくきとゆうぶるいだけでほーがくぶにけいぞくされている。	NO_LABEL
なお、かつては津軽三味線の同好会が存在したが、これも邦楽部に統合され、尺八、琴と同等の扱いとなり、前述の能楽部に存在した鼓の技術を応用し、現在同校の邦楽部は全国でも珍しい和楽器版フルオーケストラ編成が可能なグループとなっている。	なお、かつてわつがるしゃみせんのどーこーかいがそんざいしたが、これもほーがくぶにとーごーされ、しゃくはち、きんとどーとーのあつかいとなり、ぜんじゅつののーがくぶにそんざいしたつずみのぎじゅつをおーよーし、げんざいどーこーのほーがくぶわぜんこくでもめずらしいわがっきばんふるおーけすとらへんせいがかのーなぐるーぷとなっている。	NO_LABEL
また校内にあるグラウンドが小さいため、硬式野球をはじめとする一部の体育部は近くにある吉野川の河川敷で練習を行っている。	またこーないにあるぐらうんどがちーさいため、こーしきやきゅーをはじめとするいちぶのたいいくぶわちかくにあるよしのがわのかせんしきでれんしゅーをおこなっている。	NO_LABEL
部活動が盛んな学校でもありバスケットボール部やラグビー部、男子ソフトボール部など全国大会出場レベルの部活動も多数存在する。	ぶかつどーがさかんながっこーでもありばすけっとぼーるぶやらぐびーぶ、だんしそふとぼーるぶなどぜんこくたいかいしゅつじょーれべるのぶかつどーもたすーそんざいする。	NO_LABEL
徳島城東高等学校同窓会の愛称であり新校舎の各教室の空調設備は徳島城東高等学校同窓会からの寄附により設置された。	とくしまじょーとーこーとーがっこーどーそーかいのあいしょーでありしんこーしゃのかくきょーしつのくーちょーせつびわとくしまじょーとーこーとーがっこーどーそーかいからのきふによりせっちされた。	NO_LABEL
また『君の夢に100万円』という在校生の夢に対して資金援助する奨学金制度を同窓会組織の寄附金を財源として実施している。	NO_PRONOUNCE	NO_LABEL
なお東京都千代田区には首都圏および関東近郊の本校卒業生を対象とした城東渭山同窓会東京支部が活動している。	NO_PRONOUNCE	NO_LABEL
JR徳島駅より徒歩約15分	じぇいあーるとくしまえきよりとほやくじゅうごふん	NO_LABEL
