長宗我部 能重は室町時代初期の武士。	ちょーそかべのーじゅーわむろまちじだいしょきのぶし。	NO_LABEL
兼綱の子。	かねつなのこ。	NO_LABEL
その跡を継いで当主となる。	そのあとをついでとーしゅとなる。	NO_LABEL
実弟に常忠、寂照、明眼らがいる。	じっていにじょーちゅー、じゃくしょー、あきらめらがいる。	NO_LABEL
土佐中部に所領を持つ豪族的領主で、室町幕府黎明期に土佐へ入ってきた細川氏に従う。	とさちゅーぶにしょりょーをもつごーぞくてきりょーしゅで、むろまちばくふれいめいきにとさえはいってきたほそかわしにしたがう。	NO_LABEL
土佐岡豊付近にある坂折山に隠渓寺定光庵を開基した。	とさおかゆたかふきんにあるさかおりやまにこもけいてらじょーこーあんをかいきした。	NO_LABEL
跡を子の元親が継いだ。	あとをこのもとおやがついだ。	NO_LABEL
