『秘密結社でいこう!』は、伊豆平成による日本のライトノベル。	NO_PRONOUNCE	NO_LABEL
イラストは松本規之が担当している。	いらすとわまつもとのりゆきがたんとーしている。	NO_LABEL
角川スニーカー文庫より、2002年12月から2004年6月にかけて全3冊が刊行された。	NO_PRONOUNCE	NO_LABEL
網星学園に通う男子高校生間竜太郎は幼いころに両親を亡くしたが、ジョン・スミスに資金援助を受けて育ってきた。	あみぼしがくえんにかようだんしこーこーいくまりゅーたろーわおさないころにりょーしんをなくしたが、じょんすみすにしきんえんじょをうけてそだってきた。	NO_LABEL
ある日、そのジョン･スミスが亡くなったと告げられる。	NO_PRONOUNCE	NO_LABEL
そして、悪の秘密結社をよろしく頼むという遺言を遺された。	そして、あくのひみつけっしゃをよろしくたのむとゆうゆいごんをのこされた。	NO_LABEL
そして4人の女幹部と一つ屋根の下、世界征服していくこととなる。	そしてよにんのじょかんぶとひとつやねのした、せかいせいふくしていくこととなる。	NO_LABEL
伊豆平成、角川書店〈角川スニーカー文庫〉、全3冊	NO_PRONOUNCE	NO_LABEL
