スケバンは、中学校、高等学校において不良行為をする女子生徒のこと。	すけばんわ、ちゅーがっこー、こーとーがっこーにおいてふりょーこーいをするじょしせいとのこと。	NO_LABEL
不良少女、ヤンキー、ツッパリの事を指す俗語。	ふりょーしょーじょ、やんきー、つっぱりのことをさすぞくご。	NO_LABEL
1970年代初頭～1980年代後半、不良行為少年の態様の一つとして使用された言葉である。	NO_PRONOUNCE	NO_LABEL
スケバンという言葉の由来は幾つかあるが、「スケ」の「番長」からという説が最も流布されている。	NO_PRONOUNCE	NO_LABEL
不良少女・不良女子学生を指し、ツッパリと共に行動したり、女子学生間における番長的な存在であった。	NO_PRONOUNCE	NO_LABEL
また、ツッパリ、番長の彼女である場合もあった。	また、つっぱり、ばんちょーのかのじょであるばあいもあった。	NO_LABEL
女性により構成された暴走族グループはレディースと呼ばれ、スケバンが構成員である場合もあった。	じょせいによりこーせいされたぼーそーぞくぐるーぷわれでぃーすとよばれ、すけばんがこーせいいんであるばあいもあった。	NO_LABEL
スケバンという言葉の普及は、映像作品や漫画による部分が大きく、1970年代の東映映画「女番長シリーズ」や、実際にスケバンだったと公言している和田アキ子を主役に据えた日活映画『野良猫ロック』シリーズ、1980年代には漫画の『スケバン刑事』及び、それを実写化したテレビドラマシリーズが人気を博した。	NO_PRONOUNCE	NO_LABEL
"スケバン"という言葉を映像作品で用いたのは、東映の『女番長』シリーズ第1作『女番長ブルース 牝蜂の逆襲』で、"すけばん"と平仮名表記で用いられたのが最初の使用例。	NO_PRONOUNCE	NO_LABEL
封切り時の映画ポスターに「女番長」の下に"すけばん"とルビが振られている。	NO_PRONOUNCE	NO_LABEL
本作の監督・鈴木則文が当時の取材中に耳にした"すけばん"という言葉の鮮度は捨てがたいと"女番長"と書いて"すけばん"と読ませることを発案し、岡田茂プロデューサーが付けたタイトル『牝蜂の逆襲』に「女番長ブルース」という言葉をくっつけて、ここで初めて"すけばん"という言葉が映像作品で使用された。	NO_PRONOUNCE	NO_LABEL
"すけばん"という言葉はそれまでまだ一般的には知られていなかったという。	NO_PRONOUNCE	NO_LABEL
ところが、映画界を引退していた『女番長ブルース 牝蜂の逆襲』の助監督で脚本も担当した皆川隆之が2016年『日本不良映画年代記』（洋泉社)でのインタビューで、「新宿にツナギを着てオートバイに乗る集団がいると聞いて取材し、脚本を書き上げた。	NO_PRONOUNCE	NO_LABEL
しかしタイトルが決まらないので、東京で『不良番長』をやっていたので『女番長』にして、そのまま読んでも語呂が悪いと、いろいろ考えて『スケコマシ』の『スケ』を使って『スケバン』にした」「鈴木（則文)さんもよく知らないから、このあたりは。	NO_PRONOUNCE	NO_LABEL
ぼくの造語なんです」と話し、『スケバン』という言葉を作ったのは自分と述べている。	NO_PRONOUNCE	NO_LABEL
すけばん"が片仮名表記の"スケバン"に変更されたのは、同シリーズ三作目の『女番長ゲリラ』だった。	NO_PRONOUNCE	NO_LABEL
日活の『野良猫ロック』シリーズなど、他社の『女番長』シリーズの方が、東映の『女番長』シリーズより早く始まったが、第一作の『女番長 野良猫ロック』は、"女番長"と書いて"スケバン"と読まず、"おんなばんちょう"と読んだ。	NO_PRONOUNCE	NO_LABEL
第二作以降は『野良猫ロック＋サブタイトル』で統一し、スケバンと読むことはなかった。	NO_PRONOUNCE	NO_LABEL
他社の『女番長』シリーズも同様に"おんなばんちょう"と読んでいた。	NO_PRONOUNCE	NO_LABEL
"スケバン"という言葉は一気に波及した。	NO_PRONOUNCE	NO_LABEL
1972年7月に前原大輔が現実の女番長グループに取材しその生態をルポ。	せんきゅうひゃくななじゅうにねんしちがつにぜんはらだいすけがげんじつのすけばんぐるーぷにしゅざいしそのせいたいをるぽ。	NO_LABEL
双葉社から『スケバン』というタイトルの書籍を刊行し、40万部を売るベストセラーとなり、東映の女番長映画人気を加速させた。	NO_PRONOUNCE	NO_LABEL
この前原の著書によってスケバンは制服の女子高校生へと意味合いを変えた。	このまえはらのちょしょによってすけばんわせいふくのじょしこーこーせいえといみあいをかえた。	NO_LABEL
前原は「東映の映画に出してあげる」と未成年に手を出し、書類送検され、別の少女にも告発され表舞台から姿を消した。	NO_PRONOUNCE	NO_LABEL
大映は1971年に倒産し、日活も同年ロマンポルノに転向したため、女番長映画は東映でのみ製作が継続されていた。	だいえいわせんきゅうひゃくななじゅういちねんにとーさんし、にっかつもどーねんろまんぽるのにてんこーしたため、すけばんえいがわとーえいでのみせいさくがけいぞくされていた。	NO_LABEL
1973年1月、日活ロマンポルノが初のスケバン映画『ドキュメントポルノ スケバン』を製作し新聞にも大きな広告を出した。	NO_PRONOUNCE	NO_LABEL
これは劇映画に徹した東映の女番長映画と違い、題名通り田中小実昌をレポーターに仕立て、実在するスケバングループを隠しカメラで撮影したという触れ込みで、実録風の作品であった。	これわげきえいがにてっしたとーえいのすけばんえいがとちがい、だいめいどーりたなかこみまさをれぽーたーにしたて、じつざいするすけばんぐるーぷをかくしかめらでさつえいしたとゆうふれこみで、じつろくふーのさくひんであった。	NO_LABEL
本作は日活の製作ではなく、プリマ企画という外部製作による低予算映画で、製作企画の渡辺忠は後に代々木忠と改名した。	もとさくわにっかつのせいさくでわなく、ぷりまきかくとゆうがいぶせいさくによるていよさんえいがで、せいさくきかくのわたなべただしわごによよぎただしとかいめいした。	NO_LABEL
『ドキュメントポルノ スケバン』はヒットし、次々続編が製作された。	NO_PRONOUNCE	NO_LABEL
日活はこの外注作品のヒットに注目し、自社製作でも女番長映画を復活させ、1973年3月に片桐夕子主演で『女高生 SEX暴力』というスケバングループの抗争を描いた作品を製作し、これには"スケバン"というタイトルは付けなかったが、同年5月の『スケバン女高生 肉体暴力』で"スケバン"というタイトルを付けた。	NO_PRONOUNCE	NO_LABEL
本作には東映のスケバン映画でデビューした丘奈保美と潤ますみが日活に移籍し準主役を務めた。	もとさくにわとーえいのすけばんえいがででびゅーしたおかなおみとじゅんますみがにっかつにいせきしじゅんしゅやくをつとめた。	NO_LABEL
日活はロマンポルノ裁判の初公判が1973年6月に迫り、映倫のSEX描写の大幅な規制強化を受け、軌道修正を余儀なくされ、スケバン映画のような娯楽性の高い企画に活路を求めた。	にっかつわろまんぽるのさいばんのはつこーはんがせんきゅうひゃくななじゅうさんねんろくがつにせまり、えいりんのせっくすびょーしゃのおーはばなきせいきょーかをうけ、きどーしゅーせいをよぎなくされ、すけばんえいがのよーなごらくせいのこういきかくにかつろをもとめた。	NO_LABEL
1973年3・4合併号から、週刊少年マガジン誌上で連載が始まった梶原一騎原作による「愛と誠」は、ポルノの時代に不釣り合いな純愛物語であったが、映画やテレビドラマにもなるなど爆発的な人気を得た。	NO_PRONOUNCE	NO_LABEL
劇画版「愛と誠」は、1974年から急展開し、主人公・太賀誠が悪の花園と呼ばれる底辺高校・花園実業に転校し、誠を追って早乙女愛が同じ高校へ転校するが、この花園実業での暴力描写が『恐怖女子高校 女暴力教室』などの東映の「恐怖女子高校シリーズ」によく似ており、絶大な人気を博した"影の大番長"高原由紀のキャラクター造形にも東映のスケバン映画の影響が伺える。	NO_PRONOUNCE	NO_LABEL
高原由紀のキャラクターは東映のスケバン映画が持ち得なかった高尚な知性と美意識で貴族的な存在感を持ち、それまで接点のなかった少女漫画の世界にも受け入れられた。	たかはらゆきのきゃらくたーわとーえいのすけばんえいががもちえなかったこーしょーなちせいとびいしきできぞくてきなそんざいかんをもち、それまでせってんのなかったしょーじょまんがのせかいにもうけいれられた。	NO_LABEL
東映のスケバンたちは、荒くれ者が多いため、アイドル的スケバン像は、この高原由紀から生まれたと考えられる。	とーえいのすけばんたちわ、あらくれものがおーいため、あいどるてきすけばんぞーわ、このたかはらゆきからうまれたとかんがえられる。	NO_LABEL
1972年2月に日本でも公開されたクリント・イーストウッド主演・ドン・シーゲル監督による『ダーティハリー』は、"アウトロー刑事"というキャラクターを生み、後続の刑事物に大きな影響を与えたが、これをヒントに日活の長谷部安春が、スケバンとアウトロー刑事を結び付けた"すけばん刑事"を考案、梢ひとみ主演による『すけばん刑事 ダーティ・マリー』を1974年4月に公開した。	NO_PRONOUNCE	NO_LABEL
映画の不出来と当時急激に沸き上がったカンフー映画ブームの渦に埋もれたが、この作品と先の高原由紀像から創作されたと考えられるのが、1975年12月から少女漫画『花とゆめ』で連載された和田慎二の漫画作品『スケバン刑事』である。	NO_PRONOUNCE	NO_LABEL
これが1980年代のアイドル現象や、美少女ブームと結びつき、スケバン映画の本家・東映が1985年から斉藤由貴を主演として『スケバン刑事』の「テレビドラマ」を製作すると、南野陽子や浅香唯による続編も大きな人気を呼んだ。	NO_PRONOUNCE	NO_LABEL
"スケバン"を育てた東映が劇画作品などを経て、再び東映でスケバンを転生させたといえる。	NO_PRONOUNCE	NO_LABEL
アメリカの週刊誌「ニューズウィーク」1975年4月21日号に「Jungle classroom」というタイトルの記事が掲載され、日本のマスコミに衝撃を与えた。	NO_PRONOUNCE	NO_LABEL
内容は、日本の高校がいかに荒廃しているかを伝えたもので、1974年に於ける青少年の補導数が増加傾向にあるという真面目なレポートもあるが、目を惹いたのが"スケバンルック"を説明したイラスト。	NO_PRONOUNCE	NO_LABEL
イラストは警視庁少年一課の手で作成された「服装などから見た不良化のきざし」という手引のためのもので、これが「ニューズウィーク」の目に留まった。	NO_PRONOUNCE	NO_LABEL
線画で書かれた女子高生のイラストに、髪は長く前、横と段々に短く、眉毛は剃り細く書く、ツメをとがらせてマニキュア、ロングスカートの上が腰のあたりで長くはいっている、かばんはチョンバッグ、靴はヒールの全くない平たいものなどの説明がある。	せんがでかかれたじょしこーせいのいらすとに、かみわながくまえ、よことだんだんにみじかく、まゆげわすりほそくかく、つめをとがらせてまにきゅあ、ろんぐすかーとのうえがこしのあたりでながくはいっている、かばんわちょんばっぐ、くつわひーるのぜんくないひらたいものなどのせつめいがある。	NO_LABEL
これを記事にした「週刊読売」1975年5月10日号には「スケバンも市民権を得た」と書かれている。	NO_PRONOUNCE	NO_LABEL
日本の受験戦争が国際的に有名になり、1970年半ばに暴走族の存在もクローズアップされ、青少年犯罪の増加や凶悪化が社会問題化した。	にっぽんのじゅけんせんそーがこくさいてきにゆーめいになり、せんきゅうひゃくななじゅうねんなかばにぼーそーぞくのそんざいもくろーずあっぷされ、せいしょーねんはんざいのぞーかやきょーあくかがしゃかいもんだいかした。	NO_LABEL
東映のスケバン映画は、成人映画が多かったから、青少年に内容が届くとは考えにくいため、現実の女子高生に影響を与えたのは劇画を介したものと考えられ、『不良番長』や『女番長』の世界観はストリートファッションや劇画を介して現実世界を侵食し、東映的解釈とは全く違った世界を作り出していった。	NO_PRONOUNCE	NO_LABEL
スケバンのファッションは、女子制服であるが、上着の丈は短く、ロングスカートが特徴であり、ぺちゃんこに潰した学生鞄を携帯していた。	すけばんのふぁっしょんわ、じょしせいふくであるが、うわぎのたけわみじかく、ろんぐすかーとがとくちょーであり、ぺちゃんこにつぶしたがくせいかばんをけいたいしていた。	NO_LABEL
またマスク、皮グローブなども見受けられる。	またますく、かわぐろーぶなどもみうけられる。	NO_LABEL
一般の女子学生にはミニスカートの流行があるが、そのアンチテーゼでもあった。	いっぱんのじょしがくせいにわみにすかーとのりゅーこーがあるが、そのあんちてーぜでもあった。	NO_LABEL
1990～2000年代には廃れ、コギャルと呼ばれるファッション、ミニスカート、ルーズソックスなどの流行により殆ど絶滅した。	NO_PRONOUNCE	NO_LABEL
セーラー服の極端にロングスカートが全盛期。	せーらーふくのきょくたんにろんぐすかーとがぜんせいき。	NO_LABEL
マスクを着用しタバコも携帯することが多い。	ますくをちゃくよーしたばこもけいたいすることがおーい。	NO_LABEL
タイを外したり丈を短くしたセーラー服に長靴で、先端を研磨により尖らせた傘を携行することも。	たいをはずしたりたけをみじかくしたせーらーふくにながぐつで、せんたんをけんまによりとがらせたかさをけいこーすることも。	NO_LABEL
髪を染めたり、パーマをかけるなど、個々に多様化・個性化を志向する動きも見られる。	NO_PRONOUNCE	NO_LABEL
バイク雑誌のレディース特集などの影響もあり、ネオンカラーか紫の、特攻服が増える。	ばいくざっしのれでぃーすとくしゅーなどのえいきょーもあり、ねおんからーかむらさきの、とっこーふくがふえる。	NO_LABEL
