WCWパワープラントは、かつてジョージア州アトランタに存在したプロレスラー養成所。	だぶるしーだぶりゅーぱわーぷらんとわ、かつてじょーじあしゅーあとらんたにそんざいしたぷろれすらーよーせいじょ。	NO_LABEL
運営主体はWCWで新人プロレスラーの発掘や興行へ登場できるレベルまでプロレスのテクニックをトレーニングさせる目的で開設していた。	うんえいしゅたいわだぶるしーだぶりゅーでしんじんぷろれすらーのはっくつやこーぎょーえとーじょーできるれべるまでぷろれすのてくにっくをとれーにんぐさせるもくてきでかいせつしていた。	NO_LABEL
もともとの養成所はジョディ・ハミルトンによって運営されていたプロレスラー養成学校で、それをWCWが買収して傘下に組み込んだものである。	NO_PRONOUNCE	NO_LABEL
パワープラントとしての歴史はWCWと共に歩んでおり、1990年代には多くのプロレスラーを輩出した。	ぱわーぷらんととしてのれきしわだぶるしーだぶりゅーとともにあゆんでおり、せんきゅうひゃくきゅうじゅうねんだいにわおーくのぷろれすらーをはいしゅつした。	NO_LABEL
2001年のWCWの崩壊時にはWWFへは組み込まれず、そのまま解散している。	にせんいちねんのだぶるしーだぶりゅーのほーかいじにわせかいみずふぉーらむえわくみこまれず、そのままかいさんしている。	NO_LABEL
