古河ユニック株式会社は、東京都中央区日本橋に本社を置く古河グループの建設機械メーカーである。	ふるかわゆにっくかぶしきがいしゃわ、とーきょーとちゅーおーくにほんばしにほんしゃをおくふるかわぐるーぷのけんせつきかいめーかーである。	NO_LABEL
1946年、「共栄開発」として創業。	NO_PRONOUNCE	NO_LABEL
1961年に国産初の油圧式トラック架装用クレーン「UNIC100」を開発、日本のトラック輸送に大きな影響を与え「トラック搭載型クレーンの代名詞」と形容された。	NO_PRONOUNCE	NO_LABEL
1970年には社名を「ユニック」へ変更、「赤いクレーンのユニック」というキャッチコピーと共に広く認知され、トラック搭載型クレーンのリーディングカンパニーとしての地歩を固めた。	NO_PRONOUNCE	NO_LABEL
1987年、古河鉱業の傘下となり、1989年に現社名である「古河ユニック」へ社名変更。	NO_PRONOUNCE	NO_LABEL
今日では、古河機械金属グループのユニック事業を担う中核事業会社として、千葉県の佐倉工場を中心に、タイ、および中国に生産工場を設立し、世界70ヶ国余りで事業を展開するなどグローバル展開を加速させている。	NO_PRONOUNCE	NO_LABEL
本社：東京都中央区日本橋1-5-3	NO_PRONOUNCE	NO_LABEL
販売代理店：8箇所指定サービス工場：全国400箇所以上	NO_PRONOUNCE	NO_LABEL
