フェリーチェ・ベアトは、イタリア生まれのイギリスの写真家。	ふぇりーちぇべあとわ、いたりあうまれのいぎりすのしゃしんか。	NO_LABEL
後に英語風にフェリックス・ベアトと名乗った。	NO_PRONOUNCE	NO_LABEL
フェリス・ベアトと表記されることもある。	NO_PRONOUNCE	NO_LABEL
1863年から21年間横浜で暮らした。	せんはっぴゃくろくじゅうさんねんからにじゅういちねんかんよこはまでくらした。	NO_LABEL
東アジアの写真を撮影した初期の写真家の一人であり、また初期の従軍写真家の一人でもある。	ひがしあじあのしゃしんをさつえいしたしょきのしゃしんかのひとりであり、またしょきのじゅーぐんしゃしんかのひとりでもある。	NO_LABEL
日常写真、ポートレイト、またアジアや地中海の風景や建物のパノラマ写真で有名である。	にちじょーしゃしん、ぽーとれいと、またあじあやちちゅーかいのふーけいやたてもののぱのらましゃしんでゆーめいである。	NO_LABEL
ベアトはいくつもの国に旅行し、それらの国、人々、事件を撮影したが、遠く離れてそれらになじみの少ないヨーロッパや北アメリカの人々にとって記憶に残るものであった。	べあとわいくつものくににりょこーし、それらのくに、ひとびと、じけんをさつえいしたが、とーくはなれてそれらになじみのすくないよーろっぱやきたあめりかのひとびとにとってきおくにのこるものであった。	NO_LABEL
インド大反乱やアロー戦争の記録も撮影しており、最初期の報道写真ともいえる作品を残している。	いんどだいはんらんやあろーせんそーのきろくもさつえいしており、さいしょきのほーどーしゃしんともいえるさくひんをのこしている。	NO_LABEL
彼は他の写真家に大きな影響を与えたが、特に日本においては、非常に多くの写真家・芸術家に深く、かつ長期にわたる影響を与えた。	NO_PRONOUNCE	NO_LABEL
ベアトの出身や国籍にはいろいろと混乱があり、また没年もこれまで不明であったが、現在ではおおむね正確なことが分かっている。	べあとのしゅっしんやこくせきにわいろいろとこんらんがあり、またぼつねんもこれまでふめいであったが、げんざいでわおーむねせいかくなことがわかっている。	NO_LABEL
2009年に発見された死亡証明書によると、ベアトは1832年にヴェネツィアで生まれ、1909年1月29日にフィレンツェで死亡した。	NO_PRONOUNCE	NO_LABEL
またイギリス国籍を有しており、大学を卒業していた。	またいぎりすこくせきをゆーしており、だいがくをそつぎょーしていた。	NO_LABEL
幼少の頃に、家族と共にギリシャのケルキラ島に移住したようである。	よーしょーのころに、かぞくとともにぎりしゃのけるきらとーにいじゅーしたよーである。	NO_LABEL
当時イオニア諸島は英国の保護国であったため、イギリス国籍を取得したものと思われる。	とーじいおにあしょとーわえいこくのほごこくであったため、いぎりすこくせきをしゅとくしたものとおもわれる。	NO_LABEL
「Felice Antonio Beato」または「Felice A. Beato」と署名された写真が多数存在するために、一人の写真家があるときはエジプト、あるときは日本と離れた場所でほぼ同時期に活動していたと、長い間思われていた。	NO_PRONOUNCE	NO_LABEL
しかし、1983年にChantal Edelによって、「Felice Antonio Beato」はフェリーチェと兄アントニオ（）の連名であることが分かった。	NO_PRONOUNCE	NO_LABEL
彼らは時には一緒に活動し、同一の署名を用いていた。	かれらわときにわいっしょにかつどーし、どーいつのしょめいをもちいていた。	NO_LABEL
このため、現在でもがフェリーチェが撮影したのかアントニオが撮影したのか特定できないものがある。	このため、げんざいでもがふぇりーちぇがさつえいしたのかあんとにおがさつえいしたのかとくていできないものがある。	NO_LABEL
ベアトの写真家としての初期の活動は良く分かっていないが、最初のレンズを1851年にパリで購入したようである。	べあとのしゃしんかとしてのしょきのかつどーわよくわかっていないが、さいしょのれんずをせんはっぴゃくごじゅういちねんにぱりでこーにゅーしたよーである。	NO_LABEL
イギリスの写真家ジェームズ・ロバートソン（）と1850年頃にマルタで出会い、彼と共に1851年にイスタンブールに行った。	いぎりすのしゃしんかじぇーむずろばーとそんかっことせんはっぴゃくごじゅうねんごろにまるたでであい、かれとともにせんはっぴゃくごじゅういちねんにいすたんぶーるにいった。	NO_LABEL
ロバートソンは1843年からオスマン帝国造幣局で凹版版画技師として働いており、1840年代から写真撮影を始めていた。	ろばーとそんわせんはっぴゃくよんじゅうさんねんからおすまんていこくぞーへいきょくでおーはんはんがぎしとしてはたらいており、せんはっぴゃくよんじゅうねんだいからしゃしんさつえいをはじめていた。	NO_LABEL
1853年に2人は共同経営者として「Robertson & Beato」を設立し、その年の終わりか1854年に、イスタンブールのヨーロッパ側に写真館を開いた。	NO_PRONOUNCE	NO_LABEL
2人は、フェリーチェの兄のアントニオを伴って、1854年または1856年にマルタへ撮影旅行に行き、1857年にはギリシャとエルサレムの撮影旅行を行った。	ふたりわ、ふぇりーちぇのあにのあんとにおをともなって、せんはっぴゃくごじゅうよねんまたわせんはっぴゃくごじゅうろくねんにまるたえさつえいりょこーにいき、せんはっぴゃくごじゅうななねんにわぎりしゃとえるされむのさつえいりょこーをおこなった。	NO_LABEL
1850年代に撮影された写真には「Robertson, Beato and Co.」の署名があるが、この「and Co.」はアントニオを指すと考えられている。	NO_PRONOUNCE	NO_LABEL
1854年末か1855年初め、ロバートソンはベアトの妹と結婚し、3人の娘をもうけた。	せんはっぴゃくごじゅうよねんまつかせんはっぴゃくごじゅうごねんはじめ、ろばーとそんわべあとのいもーととけっこんし、さんにんのむすめをもーけた。	NO_LABEL
1855年、ベアトとロバートソンはクリミア半島のバラクラヴァに旅行し、そこでクリミア戦争の写真を撮影した。	NO_PRONOUNCE	NO_LABEL
1855年末のセヴァストポリ陥落に際して、60枚程度の写真を撮影している。	NO_PRONOUNCE	NO_LABEL
1858年2月に、ベアトはカルカッタに到着し、インド大反乱の後を撮影するためにヒンドスタン平野を旅行した。	せんはっぴゃくごじゅうはちねんにがつに、べあとわかるかったにとーちゃくし、いんどだいはんらんののちをさつえいするためにひんどすたんへいやをりょこーした。	NO_LABEL
このとき死体を撮影しているが、おそらく死体の写真が撮影されたのはこれが初めてである。	このときしたいをさつえいしているが、おそらくしたいのしゃしんがさつえいされたのわこれがはじめてである。	NO_LABEL
少なくとも1枚はラクナウのシカンダル庭園（）で撮影されたが、柱だけになってしまった建物は劇的な効果を上げている。	すくなくともいちまいわらくなうのしかんだるていえんかっこでさつえいされたが、はしらだけになってしまったたてものわげきてきなこーかをあげている。	NO_LABEL
その他、デリー、カーンプル、メーラト、ワーラーナシー、アムリトサル、アグラ、シムラー、ラホールを訪れた。	そのた、でりー、かーんぷる、めーらと、わーらーなしー、あむりとさる、あぐら、しむらー、らほーるをおとずれた。	NO_LABEL
1858年の7月にはアントニオが合流するも、おそらくは健康上の理由から1859年にインドを離れた。	せんはっぴゃくごじゅうはちねんのしちがつにわあんとにおがごーりゅーするも、おそらくわけんこーじょーのりゆーからせんはっぴゃくごじゅうきゅうねんにいんどをはなれた。	NO_LABEL
1860年にエジプトに渡り、1862年にテーベで写真館を開いた。	せんはっぴゃくろくじゅうねんにえじぷとにわたり、せんはっぴゃくろくじゅうにねんにてーべでしゃしんかんをひらいた。	NO_LABEL
1860年、ベアトは「Robertson & Beato」の共同経営から手を引いたが、ロバートソンは1867年まで会社の名前を使い続けた。	NO_PRONOUNCE	NO_LABEL
ベアトはアロー戦争における英仏連合軍の写真撮影のため清へ派遣された。	べあとわあろーせんそーにおけるえいふつれんごーぐんのしゃしんさつえいのためきよしえはけんされた。	NO_LABEL
3月には香港に到着、直ちに広州にまで脚を伸ばし、写真撮影を開始した。	さんがつにわほんこんにとーちゃく、ただちにこーしゅーにまであしをのばし、しゃしんさつえいをかいしした。	NO_LABEL
このときフェリーチェが撮影した写真は、中国を撮影した最も初期のものの一つである。	このときふぇりーちぇがさつえいしたしゃしんわ、ちゅーごくをさつえいしたもっともしょきのもののひとつである。	NO_LABEL
香港に滞在中、ベアトはイラストレイテド・ロンドン・ニュースの特派員で画家のチャールズ・ワーグマンと会った。	ほんこんにたいざいちゅー、べあとわいらすとれいてどろんどんにゅーすのとくはいんでがかのちゃーるずわーぐまんとあった。	NO_LABEL
2人は英仏連合軍に同行し、大連湾、北塘、海河河口の大沽砲台、北京、円明園などの写真を撮影した。	ふたりわえいふつれんごーぐんにどーこーし、だいれんわん、きたとも、かいがかこーのたいこほーだい、ぺきん、えんめいえんなどのしゃしんをさつえいした。	NO_LABEL
ワーグマンや他のイラストレイテド・ロンドン・ニュースが描いた挿絵は、フェリーチェの撮影した写真を元にしたものである。	わーぐまんやたのいらすとれいてどろんどんにゅーすがえがいたさしえわ、ふぇりーちぇのさつえいしたしゃしんをもとにしたものである。	NO_LABEL
ベアトが撮影したアロー戦争の写真は、軍事作戦の展開に伴って順次写真で追うという、最初のケースであった。	べあとがさつえいしたあろーせんそーのしゃしんわ、ぐんじさくせんのてんかいにともなってじゅんじしゃしんでおうとゆう、さいしょのけーすであった。	NO_LABEL
大沽砲台の写真はその象徴的例である。	たいこほーだいのしゃしんわそのしょーちょーてきれいである。	NO_LABEL
写真は順に、砲台への接近、外壁と要塞に対する砲撃、最後が中国人の死体を含む破壊された要塞内部、となっている。	しゃしんわじゅんに、ほーだいえのせっきん、がいへきとよーさいにたいするほーげき、さいごがちゅーごくじんのしたいをふくむはかいされたよーさいないぶ、となっている。	NO_LABEL
興味深いことに、実際には写真はこの順番で撮影されたのではない。	きょーみぶかいことに、じっさいにわしゃしんわこのじゅんばんでさつえいされたのでわない。	NO_LABEL
中国人の死体を片付けられる前に撮影し、それから砲台の内部や外部を撮影した。	ちゅーごくじんのしたいをかたずけられるまえにさつえいし、それからほーだいのないぶやがいぶをさつえいした。	NO_LABEL
アルバムでは実際の戦闘を再現できるように並べ替えられている。	あるばむでわじっさいのせんとーをさいげんできるよーにならべかえられている。	NO_LABEL
ベアトが撮影した中国人の死体とその再現方法に、彼の報道写真に対するイデオロギーを垣間見ることが出来る。	べあとがさつえいしたちゅーごくじんのしたいとそのさいげんほーほーに、かれのほーどーしゃしんにたいするいでおろぎーをかいまみることができる。	NO_LABEL
この作戦に従軍したDr. David F. Rennieは、こう思い出を語っている。	NO_PRONOUNCE	NO_LABEL
「私は西側の城壁を回って歩いた。	NO_PRONOUNCE	NO_LABEL
そこには死体がごろごろ転がっていた - 北西の方向には、大砲の周辺に13人がまとまって倒れていた。	NO_PRONOUNCE	NO_LABEL
ベアトがそこにいたが、大変興奮しているようで、それを「美しい」と称していた。	NO_PRONOUNCE	NO_LABEL
彼の写真によってそれが永久に記憶されるまで、邪魔をしないように頼んだ…」撮影された写真はイギリスの帝国主義と軍事的勝利に関する強烈な印象を与えた。	NO_PRONOUNCE	NO_LABEL
イギリスではベアトの写真はアロー戦争や他の植民地戦争を正当化するために使用され、また大衆に東洋の文化を知らしめた。	いぎりすでわべあとのしゃしんわあろーせんそーやたのしょくみんちせんそーをせいとーかするためにしよーされ、またたいしゅーにとーよーのぶんかをしらしめた。	NO_LABEL
ベアトは北京の郊外にある中国皇帝の私的公園であり、建物、寺院、人工池と庭園からなる頤和園を撮影している。	べあとわぺきんのこーがいにあるちゅーごくこーていのしてきこーえんであり、たてもの、じいん、じんこーちとていえんからなるいわえんをさつえいしている。	NO_LABEL
何枚かの写真は、1860年10月6日から18日の間に撮影されている。	なんまいかのしゃしんわ、せんはっぴゃくろくじゅうねんじゅーがつむいかからじゅうはちにちのまにさつえいされている。	NO_LABEL
10月6日には英仏連合軍の攻撃が始まり、フランス軍が金目のものを全て略奪したのち、イギリス軍の総司令であるエルギン伯爵ジェイムズ・ブルースの命令により、「捕虜が虐待されたことに対する復讐」としてイギリス軍第1師団が徹底的に破壊し、10月18日と19日に火がかけられた。	NO_PRONOUNCE	NO_LABEL
ベアトが中国で撮影した最後の写真は、北京条約に署名するために北京に到着したエルギン伯と、咸豊帝の代理として署名した愛新覚羅奕キンであった。	NO_PRONOUNCE	NO_LABEL
ベアトは1861年11月にイギリスに戻り、その冬の間にインドと中国で撮影した400枚の写真を、ロンドンの商業肖像写真家であるヘンリー・ヘリング（）に売却した。	NO_PRONOUNCE	NO_LABEL
ヘリングは写真を複製し、販売した。	へりんぐわしゃしんをふくせいし、はんばいした。	NO_LABEL
価格は写真1枚が7シリング、インドで撮影された写真全部だと54ポンド8シリング、中国の写真全部で37ポンド8シリングであった。	NO_PRONOUNCE	NO_LABEL
当時のイングランドとウェールズの一人当たり国民所得は年間32ポンドに過ぎず、写真集の価格はこれより高かったことになる。	NO_PRONOUNCE	NO_LABEL
ベアトは1863年までには横浜に移住し、1861年からそこに住んでいたチャールズ・ワーグマンと共に「Beato & Wirgman, Artists and Photographers」を設立し、1864年から1867年まで共同経営した。	NO_PRONOUNCE	NO_LABEL
ワーグマンはここでもベアトの写真を基に挿絵を描いている。	わーぐまんわここでもべあとのしゃしんをもとにさしえをえがいている。	NO_LABEL
一方、ベアトはワーグマンのスケッチや作品を撮影している。	いっぽー、べあとわわーぐまんのすけっちやさくひんをさつえいしている。	NO_LABEL
そもそも『イラストレイティッド・ロンドン・ニュース』の挿絵画家をしていたワーグマンが、1860年の北京の戦い取材中に現地で知り合った従軍写真家のベアトを招き、1863年に来日したとも言われている。	NO_PRONOUNCE	NO_LABEL
ベアトが日本で撮影したのは、軍用写真のほか、肖像写真、風俗写真、名所、都市の風景などで、特に歌川広重や葛飾北斎の浮世絵を思わせる、東海道の風景が有名である。	べあとがにっぽんでさつえいしたのわ、ぐんよーしゃしんのほか、しょーぞーしゃしん、ふーぞくしゃしん、めいしょ、としのふーけいなどで、とくにうたがわひろしげやかつしかほくさいのうきよえをおもわせる、とーかいどーのふーけいがゆーめいである。	NO_LABEL
少し前までは鎖国していただけに、日本を写真に収めるのは極めて重要なことであった。	すこしまえまでわさこくしていただけに、にっぽんをしゃしんにおさめるのわきわめてじゅーよーなことであった。	NO_LABEL
ベアトの写真は、その質だけでなく江戸時代を撮影した希少性という点でも、注目に値するものである。	べあとのしゃしんわ、そのしつだけでなくえどじだいをさつえいしたきしょーせいとゆうてんでも、ちゅーもくにあたいするものである。	NO_LABEL
ベアトは日本滞在中、非常に活動的であった。	べあとわにっぽんたいざいちゅー、ひじょーにかつどーてきであった。	NO_LABEL
1864年には下関戦争の従軍写真家を務めている。	せんはっぴゃくろくじゅうよねんにわしものせきせんそーのじゅーぐんしゃしんかをつとめている。	NO_LABEL
翌年には、長崎およびその近郊の日付入りの写真を発表。	よくねんにわ、ながさきおよびそのきんこーのひずけいりのしゃしんをはっぴょー。	NO_LABEL
1866年からはワーグマンの経営する『ジャパン・パンチ』でカリカチュアとしてしばしば登場する。	NO_PRONOUNCE	NO_LABEL
1866年、豚屋火事で横浜居留地が全焼したため、ベアトは自分の写真館とネガを失ってしまった。	せんはっぴゃくろくじゅうろくねん、ぶたやかじでよこはまきょりゅーちがぜんしょーしたため、べあとわじぶんのしゃしんかんとねがをうしなってしまった。	NO_LABEL
その後2年間、代替作品を精力的に撮影した。	そのごにねんかん、だいたいさくひんをせいりょくてきにさつえいした。	NO_LABEL
その結果、2巻の写真集、100枚の肖像写真と風俗写真からなる「Native Types」と98枚の名所と都市風景からなる「Views of Japan」が完成した。	NO_PRONOUNCE	NO_LABEL
 写真の多くは、人手により着色されたが、これは日本の水彩と木版印刷の技法を、ヨーロッパの写真に応用したものだった。	しゃしんのおーくわ、ひとでによりちゃくしょくされたが、これわにっぽんのすいさいともくはんいんさつのぎほーを、よーろっぱのしゃしんにおーよーしたものだった。	NO_LABEL
1869年から1877年にかけて、横浜で「F. Beato & Co., Photographers」を経営した。	NO_PRONOUNCE	NO_LABEL
ワーグマンとの共同経営は解消し、H. Woolettというアシスタントと、4人の写真家および4人の日本人の着色画家を雇った。	NO_PRONOUNCE	NO_LABEL
日下部金兵衛も独立前はベアトに雇用されていたと考えられている。	くさかべきむひょーえもどくりつまえわべあとにこよーされていたとかんがえられている。	NO_LABEL
ベアトは上野彦馬等と共に撮影を行った。	べあとわうえのひこまとーとともにさつえいをおこなった。	NO_LABEL
またシュティルフリート男爵に写真を教えたのもベアトであるとされている。	またしゅてぃるふりーとだんしゃくにしゃしんをおしえたのもべあとであるとされている。	NO_LABEL
1871年、ジェネラル・シャーマン号事件の報復のため、アメリカ海軍は朝鮮に遠征し、ベアトはそれに従軍した。	せんはっぴゃくななじゅういちねん、じぇねらるしゃーまんごーじけんのほーふくのため、あめりかかいぐんわちょーせんにえんせいし、べあとわそれにじゅーぐんした。	NO_LABEL
そのとき撮影された写真は、確認されている限り最初の朝鮮の写真である。	そのときさつえいされたしゃしんわ、かくにんされているかぎりさいしょのちょーせんのしゃしんである。	NO_LABEL
日本に滞在中、ベアトは写真事業に専念したわけではなく、多くの事業を手がけた。	にっぽんにたいざいちゅー、べあとわしゃしんじぎょーにせんねんしたわけでわなく、おーくのじぎょーをてがけた。	NO_LABEL
いくつかの土地と写真館を有していた他、不動産コンサルタント、横浜グランドホテルへの出資、絨毯と女性用バッグの輸入、等などである。	いくつかのとちとしゃしんかんをゆーしていたほか、ふどーさんこんさるたんと、よこはまぐらんどほてるえのしゅっし、じゅーたんとじょせいよーばっぐのゆにゅー、ひとしなどである。	NO_LABEL
また、原告、被告、さらに証人として法廷にも何度か立っている。	また、げんこく、ひこく、さらにしょーにんとしてほーていにもなんどかたっている。	NO_LABEL
1873年8月6日、ベアトは駐日ギリシャ総領事に任命されたが、おそらくはかってケルキラ島に住んでいたことがあるためと思われる。	せんはっぴゃくななじゅうさんねんはちがつむいか、べあとわちゅーにちぎりしゃそーりょーじににんめいされたが、おそらくはかってけるきらとーにすんでいたことがあるためとおもわれる。	NO_LABEL
1877年、ベアトはスタジオを閉め、写真とネガを含めたほとんどの資産をシュティルフリート男爵に売却した（男爵はシュティルフリート・アンド・アンデルセンの名で写真スタジオを始めた)。	NO_PRONOUNCE	NO_LABEL
売却後、ベアトは数年間写真の世界から離れ、投機と貿易業に専念した。	ばいきゃくご、べあとわすーねんかんしゃしんのせかいからはなれ、とーきとぼーえきぎょーにせんねんした。	NO_LABEL
1884年11月29日、ベアトは日本を離れ、エジプトのポートサイドに落ち着いた。	せんはっぴゃくはちじゅうよねんじゅーいちがつにじゅうきゅうにち、べあとわにっぽんをはなれ、えじぷとのぽーとさいどにおちついた。	NO_LABEL
日本の新聞によると、横浜での銀の取引に失敗し、ほとんどの財産を失ったとされている。	にっぽんのしんぶんによると、よこはまでのぎんのとりひきにしっぱいし、ほとんどのざいさんをうしなったとされている。	NO_LABEL
なお、シュティルフリート・アンド・アンデルセンの資産は1885年にアドルフォ・ファルサーリと日下部金兵衛に売却されたため、ベアトの写真資産はファルサーリらに引き継がれた。	なお、しゅてぃるふりーとあんどあんでるせんのしさんわせんはっぴゃくはちじゅうごねんにあどるふぉふぁるさーりとくさかべきむひょーえにばいきゃくされたため、べあとのしゃしんしさんわふぁるさーりらにひきつがれた。	NO_LABEL
ベアトの代表作「Views of Japan」は、1868年頃から撮影された。	NO_PRONOUNCE	NO_LABEL
風景を主としたものと、人物など日本の風俗文化を主としたものの2種類があり、25〜50枚綴りの写真集を作って販売するほか、顧客自らが来店して、コレクションの中から好きなものを選んでアルバムにするサービスも行なっていた。	NO_PRONOUNCE	NO_LABEL
写真にはそれぞれ150〜500語程度のキャプションが付けられていたが、間違いや誤解も少なくない。	NO_PRONOUNCE	NO_LABEL
編集には、横浜の英字紙の発行人であるジョン・レディ・ブラックが関わっていたと言われる。	NO_PRONOUNCE	NO_LABEL
写真への着色は、同業者の競争が激しくなってきたことから、差別化のため、水彩画にも詳しいワーグマンの助言で始まり、浮世絵制作によって高い技術を身につけていた日本の職人が作業にあたった。	しゃしんえのちゃくしょくわ、どーぎょーしゃのきょーそーがはげしくなってきたことから、さべつかのため、すいさいがにもくわしいわーぐまんのじょげんではじまり、うきよえせいさくによってたかいぎじゅつをみにつけていたにっぽんのしょくにんがさぎょーにあたった。	NO_LABEL
スタジオ撮りのモデルは、同一人物が違うコスチュームで登場するなど、必ずしもその職業の者ではなかった。	すたじおとりのもでるわ、どーいちじんぶつがちがうこすちゅーむでとーじょーするなど、かならずしもそのしょくぎょーのものでわなかった。	NO_LABEL
1884年から1885年にかけて、チャールズ・ゴードンの後を受け、スーダンのハルツームに遠征するウーズレー男爵（）のカメラマンとなった。	せんはっぴゃくはちじゅうよねんからせんはっぴゃくはちじゅうごねんにかけて、ちゃーるずごーどんののちをうけ、すーだんのはるつーむにえんせいするうーずれーだんしゃくかっこのかめらまんとなった。	NO_LABEL
しかし、そこで撮影された写真は現存していない。	しかし、そこでさつえいされたしゃしんわげんそんしていない。	NO_LABEL
1886年にはしばらくイギリスに戻り、ロンドンの写真学校の教師を勤めたが、1888年には再びアジアへ旅立った。	せんはっぴゃくはちじゅうろくねんにわしばらくいぎりすにもどり、ろんどんのしゃしんがっこーのきょーしをつとめたが、せんはっぴゃくはちじゅうはちねんにわふたたびあじあえたびだった。	NO_LABEL
今回の行き先はビルマで、家具と骨董品の商売をマンダレーとラングーンで営むとともに、1896年から写真館を経営している。	こんかいのゆきさきわびるまで、かぐとこっとーひんのしょーばいをまんだれーとらんぐーんでいとなむとともに、せんはっぴゃくきゅうじゅうろくねからしゃしんかんをけいえいしている。	NO_LABEL
彼の通信販売のカタログには彼が取り扱っている商品の写真と共に、少なくとも2冊の写真集が含まれている。	NO_PRONOUNCE	NO_LABEL
1899年頃までは働いていたようではあるが、1907年1月に彼の会社は清算されたが、最晩年や没年については長い間詳しいことが分かっておらず、1905年か06年頃にラングーンもしくはマンダレーで死亡したものとされていた。	NO_PRONOUNCE	NO_LABEL
2009年に発見された死亡報告書では、1909年1月29日にフィレンツェで死亡したことになっているため、その後イタリアへ帰国したものと考えられている。	にせんきゅうねんにはっけんされたしぼーほーこくしょでわ、せんきゅうひゃくきゅうねんいちがつにじゅうきゅうにちにふぃれんつぇでしぼーしたことになっているため、そのごいたりあえきこくしたものとかんがえられている。	NO_LABEL
</div>	NO_PRONOUNCE	NO_LABEL
