青少年有害社会環境対策基本法案は、日本の法律案。	せいしょーねんゆーがいしゃかいかんきょーたいさくきほんほーあんわ、にっぽんのほーりつあん。	NO_LABEL
青環法案と略される。	あおたまきほーあんとりゃくされる。	NO_LABEL
自由民主党所属の参議院議員を中心に、1999年より起案が進められ、2000年に「青少年社会環境対策基本法」の名義で第一次草案が公表された。	NO_PRONOUNCE	NO_LABEL
その後「有害」の二文字が追加され、2002年の第154回国会への法案提出が予定されていたが、個人情報保護法・人権擁護法と並ぶ「メディア規制三法」との激しい世論の批判に晒され、提出断念に追い込まれた。	NO_PRONOUNCE	NO_LABEL
その後、2004年の第159回国会では、各業界ごとの青少年有害社会環境対策センター設置や、自主規制基準制定に関する部分などを除去した「青少年健全育成基本法案」が参議院へ提出されたが、付託委員会すら決定されないまま、審議未了で廃案となった。	NO_PRONOUNCE	NO_LABEL
2014年の第186回国会では、子ども・若者育成支援推進法の改正案として、中曽根弘文ほか4名により「青少年健全育成基本法案」が参議院へ提出された。	NO_PRONOUNCE	NO_LABEL
以下、自民党案の概要と、法案を巡る議論について記す。	いか、じみんとーあんのがいよーと、ほーあんをめぐるぎろんについてしるす。	NO_LABEL
本法案に対しては、以下のような反対意見が述べられている。	ほんほーあんにたいしてわ、いかのよーなはんたいいけんがのべられている。	NO_LABEL
2000年に草案が公表されて以降、日本雑誌協会・日本書籍出版協会・日本図書館協会・日本民間放送連盟・日本ペンクラブ・日本ジャーナリスト会議・メディア総合研究所・日本弁護士連合会などが反対声明を公表したが、マスメディア側の反対は個人情報保護法・人権擁護法と並ぶ「メディア規制三法」の1つと言う位置付けであり、青環法単体での問題点を指摘する意見は余り見られなかった。	NO_PRONOUNCE	NO_LABEL
その反面、2002年に入ってからは個人単位の作家・ジャーナリストやこの法律による「保護」の対象と想定されている選挙権が発生していない年齢層を含む若年層による反対運動はインターネット上を中心に極めて活発に行われたが、これらの反対運動の中には参議院議員・田中直紀を中心に政治家へ法案提出を強く働きかけていると目されていた全国地域活動連絡協議会の掲示板を荒らして「炎上」させて閉鎖に追い込むなどの手法に問題のある行動も見受けられた。	NO_PRONOUNCE	NO_LABEL
自民党は2002年4月に法案提出を断念したが「青少年健全育成基本法の早期成立」は2005年9月11日の第44回衆議院議員総選挙におけるマニフェストでも公約されている。	NO_PRONOUNCE	NO_LABEL
なお、2006年7月に党の作業チームが行った「マニフェスト達成状況採点」では唯一、本項目のみが「取り組みが不十分」とされており、これを受けて安倍内閣で少子化対策担当大臣を歴任した高市早苗が中心となり、2008年、高市と松村龍二はインターネットを対象にした「青少年の健全な育成のためのインターネットの利用による青少年有害情報の閲覧の防止等に関する法律案」の法案提出を目指す。	NO_PRONOUNCE	NO_LABEL
この法案では、性に関する価値観形成に悪影響を与える情報や青少年の残虐性を冗長する情報、犯罪・売春・自殺を誘発する情報、麻薬や自傷行為などによる心身の危険を誘発する情報、特定の青少年に対するいじめに当たる情報、家出などによる犯罪被害を誘発する情報を有害情報と定め、各省庁や政党から独立した行政機関「青少年健全育成推進委員会」を設置する。	NO_PRONOUNCE	NO_LABEL
サイトの運営者や情報発信者には自主的な判断による有害情報の削除または会員制サイトへの移行を促す。	さいとのうんえいしゃやじょーほーはっしんしゃにわじしゅてきなはんだんによるゆーがいじょうほーのさくじょまたわかいいんせいさいとえのいこーをうながす。	NO_LABEL
プロバイダーや携帯電話各社、インターネットカフェにはフィルタリングサービスなどにより、青少年に有害情報を閲覧させないようにすることを求め、違反した場合は6ヶ月以下の懲役刑や100万円以下の罰金などの罰則規定も設けるとしていたが、野党側との協議により罰則の適用は見送られ、6月11日に「青少年が安全に安心してインターネットを利用できる環境の整備等に関する法律」が成立した。	NO_PRONOUNCE	NO_LABEL
しかし、有害図書・雑誌や劇場映画、ビデオに関する法規制は、日本国憲法第21条が禁じる事前検閲と、日本国憲法に違憲する危険性が高く、未だ成立していない。	NO_PRONOUNCE	NO_LABEL
青少年保護育成条例に基づく、現行の青少年有害指定は、地方公共団体職員によるコンビニエンスストアや書店等の現場確認による『個別指定方式』と、各種自主規制団体による『団体指定方式』、猥褻表現のページ数または割合による『包括指定方式』の3通りであるが、罰則の適用例が無く、コンビニエンスストア等では、区分陳列が形骸化しているのが現状である。	NO_PRONOUNCE	NO_LABEL
県条例による有害図書指定制度の存在しない長野県では、管下の市町村単位での条例制定による規制が進んでいる。	けんじょーれいによるゆーがいとしょしていせいどのそんざいしないながのけんでわ、かんかのしちょーそんたんいでのじょーれいせいていによるきせいがすすんでいる。	NO_LABEL
2010年、自民党は第22回参議院議員通常選挙のマニフェストで、制定を公約した。	にせんじゅうねん、じみんとーわだいにじゅうにかいさんぎーんぎーのまにふぇすとで、せいていをこーやくした。	NO_LABEL
同じく、2012年12月の衆院選においても「青少年健全育成基本法」としてその制定を言及している。	NO_PRONOUNCE	NO_LABEL
2014年6月11日には、子ども・若者育成支援推進法の改正案として、中曽根弘文ほか4名による議員立法で、青少年健全育成基本法案が提出されている。	NO_PRONOUNCE	NO_LABEL
民主党では、事実上の青環法対案である「子ども有害情報からの子どもの保護に関する法律案」を衆議院議員・水島広子らが中心になって起案したが、党内の反対意見が強く国会への提出は見送られた。	NO_PRONOUNCE	NO_LABEL
この法案では「性表現」「暴力表現」「ドラッグ」「犯罪手法の教示」などの類型に基づき内閣府所管の「子ども有害情報センター」が出版物・映画・放送・ゲームソフトなどあらゆる媒体に「v1〜v5」のレイティングを設定、放送メディアに関してはVチップなどの方法を採用することを義務付けるというものであった。	NO_PRONOUNCE	NO_LABEL
2005年には、これに「学校でのメディア・リテラシー教育の推進」などを追加したうえで「特定暴力情報からの子どもの保護に関する法律案」を改めて起案。	NO_PRONOUNCE	NO_LABEL
同年9月の総選挙における同党のマニフェストでもその成立が公約されたが、党内での反対意見がなお根強いことや中心人物である水島らの落選により、提出されるかどうかは不透明な状態と見られる。	どーねんくがつのそーせんきょにおけるどーとーのまにふぇすとでもそのせいりつがこーやくされたが、とーないでのはんたいいけんがなおねずよいことやちゅーしんじんぶつであるみずしまらのらくせんにより、ていしゅつされるかどーかわふとーめいなじょーたいとみられる。	NO_LABEL
なお、2007年の参院選に際して公表されたマニフェストでは該当する項目は削除されているが、これに対しては水島の落選により積極的に推進する議員が居なくなったからとする見方と、前年に改正された教育基本法で民主党が提出した対案「日本国教育基本法案」における「有害情報からの青少年保護」を一般国民の責務と定める条項に吸収されたからではないかとする見方が存在した。	NO_PRONOUNCE	NO_LABEL
2008年1月、党子ども政策調査会よりフィルタリング義務化等を柱とする電気通信事業法改正案原案が公表され、この法案は後に自民党案との一本化により「青少年が安全に安心してインターネットを利用できる環境の整備等に関する法律」として成立している。	NO_PRONOUNCE	NO_LABEL
憲法違反などの理由により廃止・無効化された物も含む。	NO_PRONOUNCE	NO_LABEL
