ロブバードは、1980年にデビューしたロックバンド。	ろぶばーどわ、せんきゅうひゃくはちじゅうねんにでびゅーしたろっくばんど。	NO_LABEL
五十嵐浩晃、田口清、庄野真代等のステージコーラス、スタジオでのレコーディングコーラスなどを経てフォーライフよりデビューした。	いがらしひろあき、たぐちきよし、しょーのまよとーのすてーじこーらす、すたじおでのれこーでぃんぐこーらすなどをへてふぉーらいふよりでびゅーした。	NO_LABEL
カップヌードルのCMソング「ボーンフリー・スピリット」がヒットする。	NO_PRONOUNCE	NO_LABEL
現在は解散。	げんざいわかいさん。	NO_LABEL
北海道根室市出身の幼なじみ	ほっかいどーねむろししゅっしんのおさななじみ	NO_LABEL
