ターゲット・コーポレーションは、アメリカ合衆国で売上高第5位の小売業者である。	たーげっとこーぽれーしょんわ、あめりかがっしゅーこくでうりあげだかだいごいのこーりぎょーしゃである。	NO_LABEL
ディスカウント百貨店チェーン「ターゲット」など、小売店1591店を運営している。	NO_PRONOUNCE	NO_LABEL
母体は1902年に設立されたミネソタ州ミネアポリスの会社。	ぼたいわせんきゅうひゃくにねんにせつりつされたみねそたしゅーみねあぽりすのかいしゃ。	NO_LABEL
現在もミネアポリスに本拠地を置く。	げんざいもみねあぽりすにほんきょちをおく。	NO_LABEL
登録商標の「赤い的」1962年「ターゲット」社の当初から使用していた三重丸から進化し、現在は太めの二重丸を使用している。	NO_PRONOUNCE	NO_LABEL
同じマークをオーストラリアのウェスファーマーズ社の「ターゲット」が米ターゲット社の許可を受けて使っているが、全く別の会社である	NO_PRONOUNCE	NO_LABEL
創設者ジョージ・デイトンがデイトンのデパートチェーンを設立したとき、会社のルーツはここから始まった。	NO_PRONOUNCE	NO_LABEL
ミネアポリス中心部に創業。	みねあぽりすちゅーしんぶにそーぎょー。	NO_LABEL
当時はグッドフェローと名乗っていた。	とーじわぐっどふぇろーとなのっていた。	NO_LABEL
翌年にはデイトン・ドライ・グッズと名称も何度も変えたが、1962年に初めてターゲットのディスカウントチェーンの展開を始める。	NO_PRONOUNCE	NO_LABEL
1967年にターゲット社として設立された。	せんきゅうひゃくろくじゅうななねにたーげっとしゃとしてせつりつされた。	NO_LABEL
1988年にジップコードを使用したり、1999年にtarget.com でネット販売を開始したりと経営を革新的に進める、地方の小売から、合衆国全土へと展開した。	せんきゅうひゃくはちじゅうはちねんにじっぷこーどをしよーしたり、せんきゅうひゃくきゅうじゅうきゅうねんにたーげっとこむでねっとはんばいをかいししたりとけいえいをかくしんてきにすすめる、ちほーのこうりから、がっしゅーこくぜんどえとてんかいした。	NO_LABEL
「ブルズアイ・ドッグ」は、赤い的を片目にスタンプした白いバクスター犬で、マスコットとして1999年から広告に使用している。	NO_PRONOUNCE	NO_LABEL
ターゲットは2009年11月5日現在アラスカ州、バーモント州を除き、全米に1,502店を持つ。	NO_PRONOUNCE	NO_LABEL
ターゲットは2010年までに2000店まで増やす予定。	NO_PRONOUNCE	NO_LABEL
2013年よりカナダの小売大手ハドソンズ・ベイ・カンパニー傘下のディスカウントスーパーチェーン・ゼラーズの店舗を買収し、カナダに進出。	NO_PRONOUNCE	NO_LABEL
100店から150店を出店する予定を発表している。	NO_PRONOUNCE	NO_LABEL
また、オーストラリアにもコールス・グループが運営する同名のチェーンがあるが資本関係はない。	また、おーすとらりあにもこーるすぐるーぷがうんえいするどーめいのちぇーんがあるがしほんかんけいわない。	NO_LABEL
2013年11月から12月にかけ、社のシステムがサイバー攻撃を受け、4,000万人分のクレジットカード利用データと7,000万人分の顧客情報が流出した。	NO_PRONOUNCE	NO_LABEL
小売業の顧客情報流出としては最大規模。	こーりぎょーのこきゃくじょーほーりゅーしゅつとしてわさいだいきぼ。	NO_LABEL
