ブラック川は、オーストラリア、クイーンズランド州を流れる川。	ぶらっくがわわ、おーすとらりあ、くいーんずらんどしゅーをながれるかわ。	NO_LABEL
源は、グレートディヴァイディング山脈のベン・ロモンド・イースト近くに発し、北東方向へ流れていく。	NO_PRONOUNCE	NO_LABEL
流路は、概ねハーベイ・レンジ開発道路沿いに進み、カタラクト山とブラック山を過ぎて、ボール平野を流れる。	ながれろわ、おーむねはーべいれんじかいはつどーろぞいにすすみ、かたらくとさんとぶらっくやまをすぎて、ぼーるへいやをながれる。	NO_LABEL
クルバー付近でが川を横切り、とビーチ・ホルムの間、タウンズビルの北西およそで、川は珊瑚海に注ぐ。	NO_PRONOUNCE	NO_LABEL
ブラック川は、 を流れる間にを流れ下る。	ぶらっくがわわ、をながれるまにをながれくだる。	NO_LABEL
流域面積は、で、これにはの河川湿地、の河口湿地が含まれている。	りゅーいきめんせきわ、で、これにわのかせんしっち、のかこーしっちがふくまれている。	NO_LABEL
ブラック川では、22種の魚類が確認されており、グラスフィッシュ、ハゼの一種 ""、トウゴロウイワシ目トウゴロウイワシ科クラテロケファルス亜科の一種 ""、カワアナゴ科の一種 ""、オオクチユゴイ、バラマンディ、イセゴイ、レインボーフィッシュの一種 ""、スズキ目の一種 "]"、シマイサキ科コトヒキ属コトヒキなどが生息している。	NO_PRONOUNCE	NO_LABEL
川の名は、牧畜業者、商人として活動したタウンズビルの開拓者ジョン・メルトン・ブラックに因んだものである。	かわのなわ、ぼくちくぎょーしゃ、しょーにんとしてかつどーしたたうんずびるのかいたくしゃじょんめるとんぶらっくにちなんだものである。	NO_LABEL
タウンズビル郊外のサバーブであるブラック・リバーは、この区域の北部を通るブラック川から名付けられている。	たうんずびるこーがいのさばーぶであるぶらっくりばーわ、このくいきのほくぶをとーるぶらっくがわからなずけられている。	NO_LABEL
支流であるアリス川は、でブラック川と合流する。	しりゅーであるありすがわわ、でぶらっくがわとごーりゅーする。	NO_LABEL
アリス川は、タウンズビルのサバーブのひとつであるアリス・リバーの西側の境界を成している。	NO_PRONOUNCE	NO_LABEL
