啓運寺は、東京都荒川区西日暮里にある法華宗本門流の寺院。	けいうんじわ、とーきょーとあらかわくにしにっぽりにあるほっけしゅーほんもんりゅーのじいん。	NO_LABEL
山号は法要山。	さんごーわほーよーさん。	NO_LABEL
大本山鷲山寺末。	だいほんざんじゅせんじまつ。	NO_LABEL
木造毘沙門天像や、区内唯一の延宝8年11月5日銘庚申塔を所蔵する。	もくぞーびしゃもんてんぞーや、くないゆいいつのえんぽーはちねんじゅーいちがついつかめいこーしんとーをしょぞーする。	NO_LABEL
元和元年、円住院日立を開山に寛永寺御用地に創建され、元禄11年に下谷二丁目へ移転後、明治18年に現在地へ移転したという。	がんわがんねん、えんじゅーいんひたちをかいさんにかんえいじごよーちにそーけんされ、げんろくじゅういちねんにしもたににちょーめえいてんご、めいじじゅうはちねんにげんざいちえいてんしたという。	NO_LABEL
