草凪 優は日本の官能小説家。	くさなぎゆーわにっぽんのかんのーしょーせつか。	NO_LABEL
東京都出身。	とーきょーとしゅっしん。	NO_LABEL
日本大学芸術学部中退。	にほんだいがくげいじゅつがくぶちゅーたい。	NO_LABEL
シナリオライターなどを経て、官能作家となる。	しなりおらいたーなどをへて、かんのーさっかとなる。	NO_LABEL
沖縄県在住。	おきなわけんざいじゅー。	NO_LABEL
「性春エロス」と言われる作風をもつ。	NO_PRONOUNCE	NO_LABEL
