跳腰返は、柔道の投技の一つで足技21本の一つ。	はねごしかえわ、じゅーどーのなげわざのひとつであしわざにじゅういっぽんのひとつ。	NO_LABEL
講道館では1982年に新たに名称として登録された。	こーどーかんでわせんきゅうひゃくはちじゅうにねんにあらたにめいしょーとしてとーろくされた。	NO_LABEL
名称設定の経緯については"小内返#「返」の名称"も参照のこと。	NO_PRONOUNCE	NO_LABEL
跳腰の返し技で後の先の技の一種である。	はねごしのかえしわざでごのせんのわざのいちしゅである。	NO_LABEL
お互いが右組の場合、相手が跳腰で攻めてきた時、自分は腹を突き出し相手の技を受け止め、相手の片足になっている軸足を払い上げ投げる。	おたがいがみぎぐみのばあい、あいてがはねごしでせめてきたとき、じぶんわはらをつきだしあいてのわざをうけとめ、あいてのかたあしになっているじくあしをはらいあげなげる。	NO_LABEL
形としては送足払に近い形となる。	NO_PRONOUNCE	NO_LABEL
似た動きの技としては払腰返・内股返があるが、体の捌き方やタイミングなどが異なる。	NO_PRONOUNCE	NO_LABEL
跳腰をやり返した場合は、跳腰が記録される。	はねごしをやりかえしたばあいわ、はねごしがきろくされる。	NO_LABEL
尚、「すかし」は内股に限定されており、正式な技として認められているのは内股すかしだけである。	NO_PRONOUNCE	NO_LABEL
