周捨は、南朝斉から梁にかけての学者・官僚・政治家。	NO_PRONOUNCE	NO_LABEL
字は昇逸。	じわのぼりいつ。	NO_LABEL
本貫は汝南郡安成県。	ほんがんわじょなんぐんやすなりけん。	NO_LABEL
斉の中書侍郎の周顒の子として生まれた。	NO_PRONOUNCE	NO_LABEL
幼くして聡明で、成長すると広く学問に通じ、とくに経典の解釈に詳しかった。	おさなくしてそーめいで、せいちょーするとひろくがくもんにつーじ、とくにきょーてんのかいしゃくにくわしかった。	NO_LABEL
斉の太学博士を初任とし、後軍行参軍に転じた。	ひとしのたいがくはかせをしょにんとし、こーぐんくだりさんぐんにてんじた。	NO_LABEL
建武年間、尚書僕射江祏が北魏から亡命してきた呉包を招いて儒学を講義させると、周捨は呉包と議論してその言辞がすぐれていたため、「口弁」と渾名された。	NO_PRONOUNCE	NO_LABEL
王亮が丹陽尹となると、周捨は召し出されて主簿となり、行政事務の多くを任された。	NO_PRONOUNCE	NO_LABEL
太常丞に転じた。	たいじょーすすむにてんじた。	NO_LABEL
梁国が建てられると、周捨は奉常丞となった。	NO_PRONOUNCE	NO_LABEL
武帝が即位すると、吏部尚書の范雲の推薦を受けて、尚書祠部郎に任じられた。	NO_PRONOUNCE	NO_LABEL
梁朝の儀礼の多くは、周捨が提案したものが採用された。	NO_PRONOUNCE	NO_LABEL
ほどなく後軍記室参軍・秣陵県令として出向した。	NO_PRONOUNCE	NO_LABEL
入朝して中書通事舎人となり、太子洗馬・散騎常侍・中書侍郎・鴻臚卿を歴任した。	NO_PRONOUNCE	NO_LABEL
ときに王亮が罪をえて蟄居し、旧友でかれを訪れるものもいなかったが、ひとり周捨は以前と変わらずに王亮とつき合った。	NO_PRONOUNCE	NO_LABEL
王亮が死去すると、周捨は自ら通夜や葬儀を営み、当時の人に賞賛された。	NO_PRONOUNCE	NO_LABEL
尚書吏部郎・太子右衛率・右衛将軍を歴任し、官職はたびたび変わったが、つねに省内にとどまって、休みに自邸に下がることもまれであった。	NO_PRONOUNCE	NO_LABEL
国史の編纂や儀礼・制度・法律の制定、軍事の参謀などの任務をひとりで引き受けた。	NO_PRONOUNCE	NO_LABEL
日夜武帝に近侍して、機密に参与すること20年あまり、側近を離れることがなかった。	にちやぶていにきんじして、きみつにさんよすることにじゅうねんあまり、そっきんをはなれることがなかった。	NO_LABEL
口達者でよく諧謔を飛ばしていたが、機密に関することは一言も漏らすことがなかった。	くちだっしゃでよくかいぎゃくをとばしていたが、きみつにかんすることわひとことももらすことがなかった。	NO_LABEL
生活は質素で、私室は貧者のようであり、官府に入っても、周捨のいるところは埃がたまっていた。	NO_PRONOUNCE	NO_LABEL
荻を障子代わりにして、壊れても修繕しなかった。	おぎをしょーじかわりにして、こわれてもしゅーぜんしなかった。	NO_LABEL
右衛将軍となると、母が死去したため官職を辞して喪に服したが、すぐに明威将軍・右驍騎将軍として起用された。	NO_PRONOUNCE	NO_LABEL
服喪が終わると、侍中に任じられ、歩兵校尉を兼ねた。	ふくもがおわると、じちゅーににんじられ、ほへいこーいをかねた。	NO_LABEL
着任しないうちに、員外散騎常侍・太子左衛率に転じた。	NO_PRONOUNCE	NO_LABEL
ほどなく散騎常侍・本州大中正の任を加えられ、太子詹事に転じた。	NO_PRONOUNCE	NO_LABEL
524年、南津校尉の郭祖深が武陵郡太守の白渦の手紙を入手し、周捨に銭100万を贈っていたことを、津司が奏聞した。	NO_PRONOUNCE	NO_LABEL
周捨は御史の弾劾を受けて免官された。	NO_PRONOUNCE	NO_LABEL
まもなく右驍騎将軍・知太子詹事に転じた。	NO_PRONOUNCE	NO_LABEL
この年のうちに死去した。	このとしのうちにしきょした。	NO_LABEL
享年は56。	NO_PRONOUNCE	NO_LABEL
侍中・護軍将軍の位を追贈された。	NO_PRONOUNCE	NO_LABEL
諡は簡子といった。	おくりなわかんこといった。	NO_LABEL
