時間領域電磁探査法は、物理探査手法の一つであり、ループ状の電流送信を行い、その応答として観測される磁場成分から地下構造を推定する電磁探査手法の一種である。	じかんりょーいきでんじたんさほーわ、ぶつりたんさしゅほーのひとつであり、るーぷじょーのでんりゅーそーしんをおこない、そのおーとーとしてかんそくされるじばせいぶんからちかこーぞーをすいていするでんじたんさしゅほーのいちしゅである。	NO_LABEL
本手法は、Time-domain electromagentic methodと呼ばれることもある。	NO_PRONOUNCE	NO_LABEL
TEM法は地下浅部の探査に適しており、地表数十m程度の深さを調査することができる。	NO_PRONOUNCE	NO_LABEL
そのため、地下水調査、不発弾調査などの地表浅部に存在する比抵抗異常を調査する場合に用いられることが多い。	そのため、ちかすいちょーさ、ふはつだんちょーさなどのちひょーあさべにそんざいするひていこーいじょーをちょーさするばあいにもちいられることがおーい。	NO_LABEL
本手法は陸上だけでなく、海底においても用いられる。	ほんしゅほーわりくじょーだけでなく、かいていにおいてももちいられる。	NO_LABEL
