ルキウス・アエミリウス・パプスは共和政ローマのパトリキ出身の政治家・軍人。	NO_PRONOUNCE	NO_LABEL
紀元前225年に執政官を務め、テラモンの戦いでガリア人に勝利した。	きげんぜんにひゃくにじゅうごねんにしっせいかんをつとめ、てらもんのたたかいでがりあじんにしょーりした。	NO_LABEL
紀元前220年には監察官に就任している。	きげんぜんにひゃくにじゅうねんにわかんさつかんにしゅーにんしている。	NO_LABEL
パプスが属するアエミリウス氏族は、古代の歴史家によると、ローマで最も古い家系とされている。	ぱぷすがぞくするあえみりうすしぞくわ、こだいのれきしかによると、ろーまでもっともふるいかけいとされている。	NO_LABEL
その祖先はピタゴラス、あるいは第二代ローマ王ヌマ・ポンピリウスともされる。	そのそせんわぴたごらす、あるいわだいにだいろーまおーぬまぽんぴりうすともされる。	NO_LABEL
プルタルコスが引用している一説ではアイネイアースとラウィーニアの間の娘がアエミリアで、初代ローマ王ロームルスを生んだとしている。	ぷるたるこすがいんよーしているいっせつでわあいねいあーすとらうぃーにあのまのむすめがあえみりあで、しょだいろーまおーろーむるすをうんだとしている。	NO_LABEL
カピトリヌスのファスティによると、ルキウスの父のプラエノーメンはクイントゥス、祖父はグナエウスである。	かぴとりぬすのふぁすてぃによると、るきうすのちちのぷらえのーめんわくいんとぅす、そふわぐなえうすである。	NO_LABEL
このクイントゥスは紀元前282年と紀元前278年の執政官を務めたクィントゥス・アエミリウス・パプスと思われるが、その場合50代後半あるいは60代での子供であることになり、このためクィントゥスは祖父であるとの説もある。	このくいんとぅすわきげんぜんにひゃくはちじゅうにねんときげんぜんにひゃくななじゅうはちねんのしっせいかんをつとめたくぃんとぅすあえみりうすぱぷすとおもわれるが、そのばあいごじゅうだいこーはんあるいわろくじゅうだいでのこどもであることになり、このためくぃんとぅすわそふであるとのせつもある。	NO_LABEL
パプスの名前が最初に現れるのは、紀元前225年に執政官に就任した際である。	ぱぷすのなまえがさいしょにあらわれるのわ、きげんぜんにひゃくにじゅうごねんにしっせいかんにしゅーにんしたさいである。	NO_LABEL
同僚執政官はガイウス・アティリウス・レグルスであった。	どーりょーしっせいかんわがいうすあてぃりうすれぐるすであった。	NO_LABEL
オロシウスはパプスのコグノーメンをカトゥルス、大プリニウスはパウッルスと誤記している。	おろしうすわぱぷすのこぐのーめんをかとぅるす、だいぷりにうすわぱうっるすとごきしている。	NO_LABEL
この年、キサルピナのボイイ族、インスブリ族といったガリア人が、ガリア・トランサルピナのガエサタエを傭兵として雇い入れてローマに反乱した。	NO_PRONOUNCE	NO_LABEL
ポリュビオスによれば、その兵力は歩兵50,000、騎兵20,000であった。	NO_PRONOUNCE	NO_LABEL
これに対処する任務がパプスに与えられ、レグルスはサルディニアの反乱を鎮圧することとなった。	これにたいしょするにんむがぱぷすにあたえられ、れぐるすわさるでぃにあのはんらんをちんあつすることとなった。	NO_LABEL
また、ローマはヒスパニアを支配していたカルタゴ人の将軍 ハスドルバル と不可侵条約を結ぶ事で、この脅威に集中した。	また、ろーまわひすぱにあをしはいしていたかるたごじんのしょーぐんはすどるばるとふかしんじょーやくをむすぶことで、このきょーいにしゅーちゅーした。	NO_LABEL
パプスはローマ軍主力を率い、アリミヌムに陣を置き、敵軍がウンブリアを通過することを阻止しようとした。	ぱぷすわろーまぐんしゅりょくをひきい、ありみぬむにじんをおき、てきぐんがうんぶりあをつーかすることをそししようとした。	NO_LABEL
また、法務官一人も軍を率いてエトルリアを防衛した。	また、ほーむかんひとりもぐんをひきいてえとるりあをぼーえいした。	NO_LABEL
ガリア人は進撃路として西側を選び、プラエトルの軍をフエスラエ近くで破り、丘の上に逃れたその残存部隊も包囲した。	がりあじんわしんげきろとしてにしがわをえらび、ぷらえとるのぐんをふえすらえちかくでやぶり、おかのうえにのがれたそのざんそんぶたいもほーいした。	NO_LABEL
しかし、そのときにパプスの軍が到着した。	しかし、そのときにぱぷすのぐんがとーちゃくした。	NO_LABEL
パプスの到着を知ったガリア軍は略奪品を持ち帰るために、リグーリアを通って撤退することを決定し、パプスはこれを追撃した。	ぱぷすのとーちゃくをしったがりあぐんわりゃくだつひんをもちかえるために、りぐーりあをとーっててったいすることをけっていし、ぱぷすわこれをついげきした。	NO_LABEL
大規模な戦闘が起こるとは期待できなかったが、小さな遭遇戦で損害を与えることを期待してのことであった。	だいきぼなせんとーがおこるとわきたいできなかったが、ちーさなそーぐーせんでそんがいをあたえることをきたいしてのことであった。	NO_LABEL
もう一人の執政官レグルスもサルディニアを離れてピサに上陸して、ガリア軍の退路を遮断した。	もーひとりのしっせいかんれぐるすもさるでぃにあをはなれてぴさにじょーりくして、がりあぐんのたいろをしゃだんした。	NO_LABEL
このためガリア軍は南北から挟まれることとなった。	このためがりあぐんわなんぼくからはさまれることとなった。	NO_LABEL
テラモン近くで、ローマ軍はガリア軍を挟撃した。	てらもんちかくで、ろーまぐんわがりあぐんをきょーげきした。	NO_LABEL
パプスの軍は後面に展開していたインスブリ族とガエサタエと戦うこととなった。	ぱぷすのぐんわこーめんにてんかいしていたいんすぶりぞくとがえさたえとたたかうこととなった。	NO_LABEL
序盤の高所の取り合いでは、ローマ軍騎兵が駆けつけたもののレグルスが戦死するなど激戦を極めたが、最終的にはローマ軍の完勝だった。	じょばんのこーしょのとりあいでわ、ろーまぐんきへいがかけつけたもののれぐるすがせんしするなどげきせんをきわめたが、さいしゅーてきにわろーまぐんのかんしょーだった。	NO_LABEL
ポリュビオスによると、ガリア軍の戦死者は40,000、指揮官の一人を含み10,000が捕虜となった。	NO_PRONOUNCE	NO_LABEL
更にパプスは懲罰のためにボイイ領を侵略し、大量の戦利品とともにローマに帰還した。	さらにぱぷすわちょーばつのためにぼいいりょーをしんりゃくし、たいりょーのせんりひんとともにろーまにきかんした。	NO_LABEL
この勝利を讃え、凱旋式が実施された。	このしょーりをたたえ、がいせんしきがじっしされた。	NO_LABEL
紀元前220年、パプスはプレブス出身のガイウス・フラミニウスと共に監察官に就任した。	きげんぜんにひゃくにじゅうねん、ぱぷすわぷれぶすしゅっしんのがいうすふらみにうすとともにかんさつかんにしゅーにんした。	NO_LABEL
恐らくフラミニア街道やフラミニウス競技場の建設などを担当したと思われる。	おそらくふらみにあかいどーやふらみにうすきょーぎじょーのけんせつなどをたんとーしたとおもわれる。	NO_LABEL
翌紀元前219年にはハンニバルがサグントゥムを包囲し第二次ポエニ戦争が勃発する。	よくきげんぜんにひゃくじゅうきゅうねんにわはんにばるがさぐんとぅむをほーいしだいにじぽえにせんそーがぼっぱつする。	NO_LABEL
紀元前218年には、この抗議のために5人の使節がカルタゴに派遣されるが、パプスもその一人であった。	きげんぜんにひゃくじゅうはちねんにわ、このこーぎのためにごにんのしせつがかるたごにはけんされるが、ぱぷすもそのひとりであった。	NO_LABEL
紀元前216年、カンナエの戦いの敗北後に国庫の資金が不足したこともあり、パプスはテラモンの戦いで戦死したガイウス・アティリウスの兄弟マルクス・アティリウスらと共に、資金調達のための財務担当三人委員の一人に選ばれている。	NO_PRONOUNCE	NO_LABEL
