森田 誠吾は、日本の小説家。	もりたせいごわ、にっぽんのしょーせつか。	NO_LABEL
東京出身。	とーきょーしゅっしん。	NO_LABEL
東京府立第一商業学校卒業後旧制東京商科大学中退。	とーきょーふりつだいいちしょーぎょーがっこーきんだいきそつぎょーごきゅーせいとーきょーしょーかだいがくちゅーたい。	NO_LABEL
久保栄・滝沢修・薄田研二が結成した東京芸術劇場の研究生となり、特に劇作家久保栄に師事する。	NO_PRONOUNCE	NO_LABEL
久保との関係は久保の死まで続く。	くぼとのかんけいわくぼのしまでつずく。	NO_LABEL
森田の『曲亭馬琴遺稿』には、久保の戯曲『火山灰地』や長編小説『のぼり窯』の影響が見受けられる。	NO_PRONOUNCE	NO_LABEL
東京芸術劇場解体後、実家の広告制作会社精美堂社長を務めていた。	とーきょーげいじゅつげきじょーかいたいご、じっかのこーこくせいさくがいしゃせいびどーしゃちょーをつとめていた。	NO_LABEL
1981年に『曲亭馬琴遺稿』で作家デビュー。	NO_PRONOUNCE	NO_LABEL
直木賞受賞作執筆後も青春時代を描いた作品を発表する。	なおきしょーじゅしょーさくしっぴつごもせいしゅんじだいをえがいたさくひんをはっぴょーする。	NO_LABEL
同社を経営しながら文筆活動を行っていたが、2008年10月16日、肝不全の為に逝去。	どーしゃをけいえいしながらぶんぴつかつどーをおこなっていたが、にせんはちねんじゅーがつじゅうろくにち、かんふぜんのためにせいきょ。	NO_LABEL
 。	NO_PRONOUNCE	NO_LABEL
