チキンカツ、チキンカツレツとした日本の料理。	ちきんかつ、ちきんかつれつとしたにっぽんのりょーり。	NO_LABEL
豚肉を用いる豚カツや牛肉を用いるビフカツなどと同様に、日本独自の多量の油で揚げる手法で「鶏肉」を調理したものである。	NO_PRONOUNCE	NO_LABEL
日本風のチキンカツはアメリカ合衆国のハワイで人気の惣菜となっており、プレートランチの定番メニューとして親しまれている。	にほんふーのちきんかつわあめりかがっしゅーこくのはわいでにんきのそーざいとなっており、ぷれーとらんちのていばんめにゅーとしてしたしまれている。	NO_LABEL
江戸時代の1860年に福澤諭吉が発表した『増訂華英通語』には「Fowl cullets」「吉列鶏」という語が載っており、これはチキンカツを意味するが、日本語の訳語は付けられていない。	NO_PRONOUNCE	NO_LABEL
同書には別項で「吉列 cutlet コットレト」	NO_PRONOUNCE	NO_LABEL
も立てられているが、牛肉や豚肉を使うものは記載されていない。	もたてられているが、ぎゅーにくやぶたにくをつかうものわきさいされていない。	NO_LABEL
明治時代に肉料理が食べられるようになり、牛肉から豚肉、鶏肉へと応用が広がるなかで、チキンカツも作られた。	めいじじだいににくりょーりがたべられるよーになり、ぎゅーにくからぶたにく、けいにくえとおーよーがひろがるなかで、ちきんかつもつくられた。	NO_LABEL
ただ、明治時代から昭和初期までは名称がまだ固定されておらず、例えば1931年の『料理する人の爲に』には「ヒヨコのカツレツ」の名でひな鳥に餅皮を砕いたものを付けて油で揚げるものを載せており、レモン汁をかけて食べるとしている。	NO_PRONOUNCE	NO_LABEL
チキンカツという呼称は第二次世界大戦後に広がったものである。	ちきんかつとゆうこしょーわだいにじせかいたいせんごにひろがったものである。	NO_LABEL
呼称、語源の歴史はカツレツに準じる。	こしょー、ごげんのれきしわかつれつにじゅんじる。	NO_LABEL
チキンカツの素材は、もも肉、胸肉、ささみなどが用いられる。	ちきんかつのそざいわ、ももにく、むねにく、ささみなどがもちいられる。	NO_LABEL
ささみを使用した場合は「ささみカツ」などと呼ばれる。	NO_PRONOUNCE	NO_LABEL
味付けも様々であり、味付け方法も、衣を付ける前の味付けと、衣を付けて揚げた後の味付けに分けられる。	あじつけもさまざまであり、あじつけほーほーも、ころもをつけるまえのあじつけと、ころもをつけてあげたのちのあじつけにわけられる。	NO_LABEL
衣を付ける前の味付けには、コショウ、ナツメグ、カレー粉、バジリコをはじめとするスパイス、ハーブ類などによる下味、チーズ、梅肉、紫蘇など追加する素材によるバリエーションがある。	ころもをつけるまえのあじつけにわ、こしょー、なつめぐ、かれーこ、ばじりこをはじめとするすぱいす、はーぶるいなどによるしたあじ、ちーず、ばいにく、しそなどついかするそざいによるばりえーしょんがある。	NO_LABEL
またソースもウスターソース、とんかつソース、ドミグラスソース、トマトソース、タルタルソース、レモン汁、大根おろし、 塩、コショウなどのバリエーションがある。	またそーすもうすたーそーす、とんかつそーす、どみぐらすそーす、とまとそーす、たるたるそーす、れもんじる、だいこんおろし、しおこしょーなどのばりえーしょんがある。	NO_LABEL
また、衣もパン粉以外にアーモンドスライス、白胡麻などを応用で使う場合がある。	また、ころももぱんこいがいにあーもんどすらいす、しろごまなどをおーよーでつかうばあいがある。	NO_LABEL
豚カツ店のメニューとなっている事がある。	とんかつてんのめにゅーとなっていることがある。	NO_LABEL
また、豚カツや牛カツを使用した料理にとって代わる事が多い。	また、とんかつやうしかつをしよーしたりょーりにとってかわることがおーい。	NO_LABEL
チキンカツをご飯の上に乗せててソースをかけた「チキンカツ丼」、卵とじにする「親子カツ丼」料理があり、カツサンドに使用される事もある。	NO_PRONOUNCE	NO_LABEL
同じ鶏肉を油で揚げたものでも、とり天や鶏の唐揚げは、別の料理である。	おなじけいにくをあぶらであげたものでも、とりてんやにわとりのからあげわ、べつのりょーりである。	NO_LABEL
