坂田徳男は、日本の哲学研究者、大阪市立大学名誉教授。	さかたとくおわ、にっぽんのてつがくけんきゅうしゃ、おーさかしりつだいがくめいよきょーじゅ。	NO_LABEL
兵庫県生まれ。	ひょーごけんうまれ。	NO_LABEL
京都帝国大学文学部哲学科卒。	きょーとていこくだいがくぶんがくぶてつがくかそつ。	NO_LABEL
関西学院大学教授、戦後大阪市立大学教授。	かんせいがくいんだいがくきょーじゅ、せんごおーさかしりつだいがくきょーじゅ。	NO_LABEL
61年定年退官、帝塚山大学教授。	ろくじゅういちねんていねんたいかん、てずかやまだいがくきょーじゅ。	NO_LABEL
