「め組のひと」は、1983年4月1日に発売されたラッツ&スターの1枚目のシングル。	NO_PRONOUNCE	NO_LABEL
正式なシングルタイトルは、「め」の字の外側を丸で囲っている。	NO_PRONOUNCE	NO_LABEL
グループ名を『シャネルズ』から『ラッツ&スター』へと改名した後に初めて発表されたシングルで、1983年における資生堂の夏のキャンペーンソングに起用された。	NO_PRONOUNCE	NO_LABEL
80万枚を売り上げる久々の大ヒットとなり、オリコンシングルチャートで1位を獲得した。	はちじゅうまんまいをうりあげるひさびさのだいひっととなり、おりこんしんぐるちゃーとでいちーをかくとくした。	NO_LABEL
2010年には倖田來未が、2015年にはギルドがカバーしている。	にせんじゅうねんにわこうだくみが、にせんじゅうごねんにわぎるどがかばーしている。	NO_LABEL
大瀧詠一が作曲を依頼されたがメロディが浮かばず、「ごめん、大ちゃんにやってもらって」と自ら断念した。	NO_PRONOUNCE	NO_LABEL
曲を聴いて「いなせーだね」の部分で確信したという。	NO_PRONOUNCE	NO_LABEL
