ハストン・タウメントは、オランダ出身の元同国代表サッカー選手。	はすとんたうめんとわ、おらんだしゅっしんのもとどーこくだいひょーさっかーせんしゅ。	NO_LABEL
ポジションはミッドフィールダー。	ぽじしょんわみっどふぃーるだー。	NO_LABEL
父はスリナム出身、母はインドネシア系オランダ人。	ちちわすりなむしゅっしん、ははわいんどねしあけいおらんだじん。	NO_LABEL
1988年にフェイエノールトでデビュー。	せんきゅうひゃくはちじゅうはちねんにふぇいえのーるとででびゅー。	NO_LABEL
試合経験を多く積ませたいと言うチームの意向で、1989年から1シーズンだけ同じロッテルダムを本拠とする2部エクセルシオールでプレーした。	NO_PRONOUNCE	NO_LABEL
90年代前半のフェイエノールトを支えた右ウイングで、当時左ウィングを務めていたレジ・ブリンカーとともに、長髪ウィングコンビとして人気を集めた。	NO_PRONOUNCE	NO_LABEL
1997年に初の国外移籍。	せんきゅうひゃくきゅうじゅうななにはつのこくがいいせき。	NO_LABEL
以降オランダには戻らず数クラブを渡り歩いた後、2002年に現役を引退した。	いこーおらんだにわもどらずかずくらぶをわたりあるいたのち、にせんにねんにげんえきをいんたいした。	NO_LABEL
1994年W杯アメリカ大会では、初戦のサウジアラビア戦の終了間際にこぼれ球をヘッドで押し込んで一躍ヒーローになったものの、次戦のベルギー戦では精彩を欠き、ポジションを同じ右ウィングのオーフェルマルスに明け渡すこととなった。	せんきゅうひゃくきゅうじゅうよねんわーるどかっぷあめりかたいかいでわ、しょせんのさうじあらびあせんのしゅーりょーまぎわにこぼれだまをへっどでおしこんでいちやくひーろーになったものの、じせんのべるぎーせんでわせいさいをかき、ぽじしょんをおなじみぎうぃんぐのおーふぇるまるすにあけわたすこととなった。	NO_LABEL
EURO96では、オーフェルマルスの故障欠場もあり再度代表招集された。	NO_PRONOUNCE	NO_LABEL
