ダホンガールは、米国カリフォルニア州に本社をおく折り畳み自転車ブランド「ダホン」の、日本におけるイメージガール。	NO_PRONOUNCE	NO_LABEL
ダホン日本総代理店の株式会社アキボウが国内販売におけるプロモーション活動の一環として企画、実施されていた。	だほんにっぽんそーだいりてんのかぶしきがいしゃあきぼうがこくないはんばいにおけるぷろもーしょんかつどーのいっかんとしてきかく、じっしされていた。	NO_LABEL
ダホンが2008年に発売25周年の節目を迎えたことに合わせ、ブランド認知度の向上とイメージアップのためにできたイメージガール。	だほんがにせんはちねんにはつばいにじゅうごしゅーねんのふしめをむかえたことにあわせ、ぶらんどにんちどのこーじょーといめーじあっぷのためにできたいめーじがーる。	NO_LABEL
メディアでのダホンのアピールやイベントなどへ出演した。	めでぃあでのだほんのあぴーるやいべんとなどえしゅつえんした。	NO_LABEL
2008年度から2010年度まで3年間続いたが、2011年度以降は設置されていない。	にせんはちねんどからにせんじゅうねんどまでさんねんかんつずいたが、にせんじゅういちねんどいこーわせっちされていない。	NO_LABEL
