岩城 けいは、日本の小説家。	いわきけいわ、にっぽんのしょーせつか。	NO_LABEL
大阪府大阪市生まれ。	おーさかふおーさかしうまれ。	NO_LABEL
日本の大学を卒業した後、単身オーストラリアへ渡る。	にっぽんのだいがくをそつぎょーしたのち、たんしんおーすとらりあえわたる。	NO_LABEL
ニューサウスウェールズ州のSouth West Institute of TAFEヴィジュアルアート科ディプロマを修了。	NO_PRONOUNCE	NO_LABEL
保険会社の事務、製品マニュアルの翻訳、日本語の家庭教師など様々な職務を経験した後、現地で日本人男性と結婚。	ほけんかいしゃのじむ、せいひんまにゅあるのほんやく、にほんごのかていきょーしなどさまざまなしょくむをけいけんしたのち、げんちでにほんじんだんせいとけっこん。	NO_LABEL
在豪20年。	ざいごーにじゅうねん。	NO_LABEL
ビクトリア州在住。	びくとりあしゅーざいじゅー。	NO_LABEL
2013年5月、「さようなら、オレンジ」で第29回太宰治賞を受賞。	NO_PRONOUNCE	NO_LABEL
選考委員は、加藤典洋、荒川洋治、小川洋子、三浦しをん。	せんこーいいんわ、かとーのりひろ、あらかわよーじ、おがわよーこ、みうらしおん。	NO_LABEL
小説家デビューを果たす。	しょーせつかでびゅーをはたす。	NO_LABEL
なお、受賞時ペンネームのKSは、宝貝、カウリー・シェルの頭文字とされる。	NO_PRONOUNCE	NO_LABEL
同年6月、同作を収録したムック本「太宰治賞2013」が刊行される。	NO_PRONOUNCE	NO_LABEL
好評を呼び、異例の増刷となる。	こーひょーをよび、いれいのぞーさつとなる。	NO_LABEL
2013年8月、『さようなら、オレンジ』単行本が筑摩書房から刊行される。	NO_PRONOUNCE	NO_LABEL
同年12月、同作が第150回芥川龍之介賞の候補作になる。	どーねんじゅーにがつ、どーさくがだいひゃくごじゅっかいあくたがわりゅーのすけしょーのこーほさくになる。	NO_LABEL
2014年、同作で第8回大江健三郎賞受賞、第27回三島由紀夫賞候補。	にせんじゅうよねん、どーさくでだいはっかいおーえけんざぶろーしょーじゅしょー、だいにじゅうななかいみしまゆきおしょーこーほ。	NO_LABEL
2015年、第2作『Masato』で第37回野間文芸新人賞候補。	NO_PRONOUNCE	NO_LABEL
2016年、同作で第32回坪田譲治文学賞受賞。	にせんじゅうろくねん、どーさくでだいさんじゅうにかいつぼたじょーじぶんがくしょーじゅしょー。	NO_LABEL
