ツール・ド・フランス1922は、ツール・ド・フランスとしては16回目の大会。	NO_PRONOUNCE	NO_LABEL
1922年6月25日から7月23日まで、全15ステージ、全行程5372kmで行われた。	NO_PRONOUNCE	NO_LABEL
ツール・ド・フランス1921では、ベルギー選手が優位で、フランスの観衆たちの不興を買っていた。	NO_PRONOUNCE	NO_LABEL
主催者アンリ・デグランジュはツール・ド・フランスを個々の強さの顕示とすることを望み、参加者間の協力を好まなかった。	しゅさいしゃあんりでぐらんじゅわつーるどふらんすをここのつよさのけんじとすることをのぞみ、さんかしゃかんのきょーりょくをこのまなかった。	NO_LABEL
彼は1922年の大会では、体制の変更を誓っていたが、実現に至らなかった。	かれわせんきゅうひゃくにじゅうにねんのたいかいでわ、たいせいのへんこーをちかっていたが、じつげんにいたらなかった。	NO_LABEL
数年前の第一次世界大戦の経済的影響はまだ終わってなかった。	すーねんまえのだいいちじせかいたいせんのけいざいてきえいきょーわまだおわってなかった。	NO_LABEL
自転車会社はまだニックラスポーティーの元に力を結集すし1919年、1920年1921年のように後援を行なかった。	じてんしゃかいしゃわまだにっくらすぽーてぃーのもとにちからをけっしゅーすしせんきゅうひゃくじゅうきゅうねん、せんきゅうひゃくにじゅうねんせんきゅうひゃくにじゅういちねんのよーにこーえんをくだりなかった。	NO_LABEL
選手は2つのカテゴリに分けられた。	せんしゅわふたつのかてごりにわけられた。	NO_LABEL
"1ère classe"、プロフェッショナル、"2ème classe"、アマチュアである。	NO_PRONOUNCE	NO_LABEL
フランス人選手アンリ・ペリシエとフランシス・ペリシエはアンリがタイヤを捨てるためにペナルティを受けた後、ツール·ド·フランス1920に出場していなかった。	NO_PRONOUNCE	NO_LABEL
このような理由から、ペリシエ兄弟は1921年と1922年ツアーには出場しなかった。	このよーなりゆーから、ぺりしえきょーだいわせんきゅうひゃくにじゅういちねんとせんきゅうひゃくにじゅうにねんつあーにわしゅつじょーしなかった。	NO_LABEL
