野中町は、群馬県前橋市の地名。	のなかちょーわ、ぐんまけんまえばししのちめい。	NO_LABEL
郵便番号は379-2166。	NO_PRONOUNCE	NO_LABEL
2013年現在の面積は0.81km。	NO_PRONOUNCE	NO_LABEL
桃ノ木川右岸に位置しており、町の中央を国道50号が通っている。	もものきがわうがんにいちしており、まちのちゅーおーをこくどーごじゅうごーがかよっている。	NO_LABEL
南北朝時代頃からある地名である。	なんぼくちょうじだいごろからあるちめいである。	NO_LABEL
江戸時代になると前橋藩領だった。	えどじだいになるとまえばしはんりょーだった。	NO_LABEL
2017年8月31日現在の世帯数と人口は以下の通りである。	にせんじゅうななねんはちがつさんじゅういちにちげんざいのせたいすーとじんこーわいかのとーりである。	NO_LABEL
市立小・中学校に通う場合、学区は以下の通りとなる。	しりつしょーちゅーがっこーにかようばあい、がっくわいかのとーりとなる。	NO_LABEL
鉄道駅はない。	てつどーえきわない。	NO_LABEL
国道は国道50号が通っており、県道は通っていない。	こくどーわこくどーごじゅうごーがかよっており、けんどーわかよっていない。	NO_LABEL
