和葉 みれいは、日本のAV女優。	かずはみれいわ、にっぽんのえーぶいじょゆー。	NO_LABEL
身長:169cm。	NO_PRONOUNCE	NO_LABEL
スリーサイズ:B80・W58・H88cm。	NO_PRONOUNCE	NO_LABEL
血液型:A型。	NO_PRONOUNCE	NO_LABEL
AV女優になる前は藤白まき等の芸名で着エロモデルとして活動していた。	えーぶいじょゆーになるまえわふじしろまきとーのげいめいでちゃくえろもでるとしてかつどーしていた。	NO_LABEL
神奈川県出身。	かながわけんしゅっしん。	NO_LABEL
2010年からAV女優として活動。	にせんじゅうねんからえーぶいじょゆーとしてかつどー。	NO_LABEL
一躍人気女優となり多数の作品に出演するが、2011年5月いっぱいをもって引退する旨を当時の公式ブログにて発表する。	いちやくにんきじょゆーとなりたすーのさくひんにしゅつえんするが、にせんじゅういちねんごがついっぱいをもっていんたいするむねをとーじのこーしきぶろぐにてはっぴょーする。	NO_LABEL
