あいか 瞬は、日本のAV女優。	あいかまどかわ、にっぽんのえーぶいじょゆー。	NO_LABEL
神奈川県出身。	かながわけんしゅっしん。	NO_LABEL
2004年9月、『さわって あいか瞬』でマックス・エー専属女優としてAVデビュー。	NO_PRONOUNCE	NO_LABEL
渋谷でスカウトされたのがデビューのきっかけ。	しぶやですかうとされたのがでびゅーのきっかけ。	NO_LABEL
2005年4月、『絶品BODY セル解禁』でMOODYZよりセルデビュー。	NO_PRONOUNCE	NO_LABEL
