バリナス州は、ベネズエラの州。	ばりなすしゅーわ、べねずえらのしゅー。	NO_LABEL
州都はバリナスである。	しゅーとわばりなすである。	NO_LABEL
ウーゴ・チャベス現大統領の地元で、彼の兄のアダン・チャベスが知事を務めている。	NO_PRONOUNCE	NO_LABEL
総面積は3万5200平方キロ、人口は75万6600人である。	NO_PRONOUNCE	NO_LABEL
この州は下記の12ムニシピオに分かれる。	NO_PRONOUNCE	NO_LABEL
括弧内は各ムニシピオの中心区。	かっこないわかくむにしぴおのちゅーしんく。	NO_LABEL
