田中 仁は、日本の実業家。	たなかひとしわ、にっぽんのじつぎょーか。	NO_LABEL
株式会社ジンズの創業者で代表取締役社長。	かぶしきがいしゃじんずのそーぎょーしゃでだいひょーとりしまりやくしゃちょー。	NO_LABEL
群馬県前橋市出身。	ぐんまけんまえばしししゅっしん。	NO_LABEL
1963年1月25日、群馬県前橋市生まれ。	せんきゅうひゃくろくじゅうさんねんいちがつにじゅうごにち、ぐんまけんまえばししうまれ。	NO_LABEL
1981年3月 群馬県立伊勢崎商業高等学校卒業。	せんきゅうひゃくはちじゅういちねんさんがつぐんまけんりついせさきしょーぎょーこーとーがっこーそつぎょー。	NO_LABEL
1981年4月 前橋信用金庫に入庫。	せんきゅうひゃくはちじゅういちねんしがつまえばししんよーきんこににゅーこ。	NO_LABEL
1987年4月 個人事業として雑貨の製造・卸売業を本業とするジンプロダクツを創業。	NO_PRONOUNCE	NO_LABEL
1988年7月 有限会社ジェイアイエヌを設立し、代表取締役社長に就任。	せんきゅうひゃくはちじゅうはちねんしちがつゆーげんがいしゃじぇいあいえぬをせつりつし、だいひょーとりしまりやくしゃちょーにしゅーにん。	NO_LABEL
1991年7月 有限会社ジェイアイエヌを株式会社に改組。	せんきゅうひゃくきゅうじゅういちねんしちがつゆーげんがいしゃじぇいあいえぬをかぶしきがいしゃにかいそ。	NO_LABEL
2001年4月 アイウエア事業「JINS」を開始。	NO_PRONOUNCE	NO_LABEL
20日福岡市天神に1号店をオープンする。	はつかふくおかしてんじんにいちごーてんをおーぷんする。	NO_LABEL
2006年8月 株式会社ジェイアイエヌを大証ヘラクレスに上場。	にせんろくねんはちがつかぶしきがいしゃじぇいあいえぬをだいしょーへらくれすにじょーじょー。	NO_LABEL
2011年6月 「Ernst&Young ワールド・アントレプレナー・オブ・ザ・イヤー2011」モナコ世界大会に日本代表として出場。	NO_PRONOUNCE	NO_LABEL
　	NO_PRONOUNCE	NO_LABEL
2013年5月　株式会社ジェイアイエヌを東京証券取引所第一部に上場。	にせんじゅうさんねんごがつかぶしきがいしゃじぇいあいえぬをとーきょーしょーけんとりひきしょだいいちぶにじょーじょー。	NO_LABEL
2013年12月　田中仁財団を設立し、群馬イノベーションアワードの実行委員長を務める。	にせんじゅうさんねんじゅーにがつたなかじんざいだんをせつりつし、ぐんまいのべーしょんあわーどのじっこーいーんちょーをつとめる。	NO_LABEL
2014年3月　慶應義塾大学大学院政策・メディア研究科修士課程を修了。	NO_PRONOUNCE	NO_LABEL
2017年4月　株式会社ジェイアイエヌが株式会社ジンズに商号変更。	にせんじゅうななねんしがつかぶしきがいしゃじぇいあいえぬがかぶしきがいしゃじんずにしょーごーへんこー。	NO_LABEL
