クルト・スミスは、オランダ領アンティルのキュラソー島ウィレムスタッド出身のプロ野球選手。	くるとすみすわ、おらんだりょーあんてぃるのきゅらそーとーうぃれむすたっどしゅっしんのぷろやきゅーせんしゅ。	NO_LABEL
右投げ右打ち。	みぎなげみぎうち。	NO_LABEL
現在は、独立リーグであるアメリカン・アソシエーションのリンカーン・ソルトドッグスに所属している。	げんざいわ、どくりつりーぐであるあめりかんあそしえーしょんのりんかーんそるとどっぐすにしょぞくしている。	NO_LABEL
カート・スミスとも表記される。	かーとすみすともひょーきされる。	NO_LABEL
にはにキュラソー代表で出場して優勝している。	にわにきゅらそーだいひょーでしゅつじょーしてゆーしょーしている。	NO_LABEL
この時のチームメイトにはジェイアー・ジャージェンス、シャイロン・マルティス、シャーロン・スコープらがいた。	このときのちーむめいとにわじぇいあーじゃーじぇんす、しゃいろんまるてぃす、しゃーろんすこーぷらがいた。	NO_LABEL
へ進学。	えしんがく。	NO_LABEL
2008年のMLBドラフト39巡目でセントルイス・カージナルスに入団。	NO_PRONOUNCE	NO_LABEL
開幕前の3月に開催された第2回WBCのオランダ代表に選出された	かいまくまえのさんがつにかいさいされただいにかいだぶりゅーびーしーのおらんだだいひょーにせんしゅつされた	NO_LABEL
は独立リーグであるアメリカン・アソシエーションのリンカーン・ソルトドッグスでプレーした。	わどくりつりーぐであるあめりかんあそしえーしょんのりんかーんそるとどっぐすでぷれーした。	NO_LABEL
オフの9月20日に、第39回IBAFワールドカップのオランダ代表に選出されたことが発表された。	おふのくがつはつかに、だいさんじゅうきゅうかいあいびーえーえふわーるどかっぷのおらんだだいひょーにせんしゅつされたことがはっぴょーされた。	NO_LABEL
同大会ではヨーロッパの国としては1938年大会のイギリス代表以来73年ぶりの優勝を果たした。	どーたいかいでわよーろっぱのくにとしてわせんきゅうひゃくさんじゅうはちねたいかいのいぎりすだいひょーいらいななじゅうさんねんぶりのゆーしょーをはたした。	NO_LABEL
この栄誉を称えて代表24人全員に「サー」の爵位が贈られ、スミスにも贈られた。	NO_PRONOUNCE	NO_LABEL
はマイアミ・マーリンズ傘下の2Aでプレーした。	NO_PRONOUNCE	NO_LABEL
開幕前の3月に開催された第3回WBCのオランダ代表に選出され、2大会連続2度目の選出を果たした。	NO_PRONOUNCE	NO_LABEL
シーズンではミネソタ・ツインズ傘下でプレーするも、リリースされ、ソルトドッグスに復帰した。	しーずんでわみねそたついんずさんかでぷれーするも、りりーすされ、そるとどっぐすにふっきした。	NO_LABEL
はセントルイス・カージナルスとマイナー契約した。	わせんとるいすかーじなるすとまいなーけいやくした。	NO_LABEL
オフに自由契約となった。	おふにじゆーけいやくとなった。	NO_LABEL
12月19日にソルトドッグスと契約。	じゅーにがつじゅうきゅうにちにそるとどっぐすとけいやく。	NO_LABEL
9月2日に第1回フランス国際野球大会のオランダ代表に選出された。	くがつふつかにだいいっかいふらんすこくさいやきゅーたいかいのおらんだだいひょーにせんしゅつされた。	NO_LABEL
同大会でオランダ代表は初代優勝国となった。	どーたいかいでおらんだだいひょーわしょだいゆーしょーこくとなった。	NO_LABEL
大会終了後の12日に第33回ヨーロッパ野球選手権大会のオランダ代表に選出された。	たいかいしゅーりょーごのじゅうににちにだいさんじゅうさんかいよーろっぱやきゅーせんしゅけんたいかいのおらんだだいひょーにせんしゅつされた。	NO_LABEL
同大会ではオランダ代表が大会の記録である自国の20回の優勝を塗り替える3大会振り21度目の優勝を果たした。	NO_PRONOUNCE	NO_LABEL
2月17日に「GLOBAL BASEBALL MATCH 2015 侍ジャパン 対 欧州代表」の欧州代表に選出された。	NO_PRONOUNCE	NO_LABEL
3月10日の第1戦に「3番 一塁手」で先発出場し、猛打賞を記録した。	NO_PRONOUNCE	NO_LABEL
3月11日の第2戦にも「3番 一塁手」で先発出場した。	NO_PRONOUNCE	NO_LABEL
大会終了後に古巣ソルトドッグスと契約を結んだ。	たいかいしゅーりょーごにふるすそるとどっぐすとけいやくをむすんだ。	NO_LABEL
オフの10月12日に第1回WBSCプレミア12のオランダ代表候補選手36名に選出され、10月20日に第1回WBSCプレミア12のオランダ代表選手28名に選出されたことが発表された。	NO_PRONOUNCE	NO_LABEL
打率.400、1本塁打、9打点をマーク。	NO_PRONOUNCE	NO_LABEL
9月7日に第34回ヨーロッパ野球選手権大会のオランダ代表に選出された。	くがつなのかにだいさんじゅうよんかいよーろっぱやきゅーせんしゅけんたいかいのおらんだだいひょーにせんしゅつされた。	NO_LABEL
同大会では優勝を果たした。	どーたいかいでわゆーしょーをはたした。	NO_LABEL
また、日本代表との強化試合のオランダ代表はウィンターリーグに参加するため辞退した。	また、にほんだいひょーとのきょーかしあいのおらんだだいひょーわうぃんたーりーぐにさんかするためじたいした。	NO_LABEL
開幕前の2月7日に同年のアメリカ遠征のオランダ代表に選出された。	かいまくまえのにがつなのかにどーねんのあめりかえんせいのおらんだだいひょーにせんしゅつされた。	NO_LABEL
また、2月9日には第4回WBCのオランダ代表に選出され、3大会連続3度目の選出を果たした。	NO_PRONOUNCE	NO_LABEL
