大崎 千聖は、日本の女子陸上競技選手。	おーさきちひろわ、にっぽんのじょしりくじょーきょーぎせんしゅ。	NO_LABEL
茨城県稲敷郡阿見町出身。	いばらきけんいなしきぐんあみまちしゅっしん。	NO_LABEL
聖徳大学附属聖徳高等学校卒業。	せいとくだいがくふぞくせいとくこーとーがっこーそつぎょー。	NO_LABEL
在学中に10km高校日本最高記録を出す。	ざいがくちゅーにじゅうきろめーとるこーこーにっぽんさいこーきろくをだす。	NO_LABEL
卒業後、2006年に三井住友海上に入社し女子陸上競技部所属。	そつぎょーご、にせんろくねんにみついすみともかいじょーににゅーしゃしじょしりくじょーきょーぎぶしょぞく。	NO_LABEL
トラック競技、駅伝などを中心に活躍する。	とらっくきょーぎ、えきでんなどをちゅーしんにかつやくする。	NO_LABEL
かつて同じく三井住友海上の陸上選手で、アテネオリンピック5位入賞・世界陸上選手権二大会メダリストの、土佐礼子の練習パートナーも務めていた。	NO_PRONOUNCE	NO_LABEL
現在はユニクロ女子陸上競技部に所属する。	げんざいわゆにくろじょしりくじょーきょーぎぶにしょぞくする。	NO_LABEL
