中町は、東京都目黒区の地名。	なかまちわ、とーきょーとめぐろくのちめい。	NO_LABEL
現行行政地名は中町一丁目及び中町二丁目。	げんこーぎょーせいちめいわなかまちいっちょーめおよびなかまちにちょーめ。	NO_LABEL
郵便番号は153-0065。	NO_PRONOUNCE	NO_LABEL
目黒区の北東部に位置する。	めぐろくのきたとうべにいちする。	NO_LABEL
町域北部は五本木・祐天寺にそれぞれ接する。	NO_PRONOUNCE	NO_LABEL
北東部は中目黒に接する。	きたとうべわなかめぐろにせっする。	NO_LABEL
東部は目黒に接する。	とーぶわめぐろにせっする。	NO_LABEL
南部は目黒通りに接し、これを境に下目黒に接する。	なんぶわめぐろどーりにせっし、これをさかいにしもめぐろにせっする。	NO_LABEL
西部は中央中通りに接し、これを境に中央町に接する。	せいぶわちゅーおーなかどーりにせっし、これをさかいにちゅーおーちょーにせっする。	NO_LABEL
町域北辺沿いには駒沢通りが通っている。	ちょういきほくへんぞいにわこまざわどーりがかよっている。	NO_LABEL
また町域内には中町通り、油面通りが通っている。	またちょういきないにわなかまちどーり、あぶらめんどーりがかよっている。	NO_LABEL
町域内は主に住宅地として利用される。	ちょういきないわおもにじゅーたくちとしてりよーされる。	NO_LABEL
2017年12月1日現在の世帯数と人口は以下の通りである。	にせんじゅうななねんじゅーにがつついたちげんざいのせたいすーとじんこーわいかのとーりである。	NO_LABEL
区立小・中学校に通う場合、学区は以下の通りとなる	くりつしょーちゅーがっこーにかようばあい、がっくわいかのとーりとなる	NO_LABEL
町域内に鉄道駅はない。	ちょういきないにてつどーえきわない。	NO_LABEL
北側にある東急東横線祐天寺駅や、西側にある隣の学芸大学駅、駒沢通りや目黒駅から来る目黒通りを走る路線バスなどが利用される。	きたがわにあるとーきゅーとーよこせんゆーてんじえきや、にしがわにあるとなりのがくげいだいがくえき、こまざわどーりやめぐろえきからくるめぐろどーりをはしるろせんばすなどがりよーされる。	NO_LABEL
