YOUNGSHIMは、大阪府出身の歌手。	よんしんわ、おーさかふしゅっしんのかしゅ。	NO_LABEL
在日韓国・朝鮮人。	ざいにちかんこくちょーせんじん。	NO_LABEL
ポニーキャニオン、ARTIMAGE所属。	NO_PRONOUNCE	NO_LABEL
関西R&Bシーンで活動する実力派女性シンガー。	かんさいあーるあんどびーしーんでかつどーするじつりょくはじょせいしんがー。	NO_LABEL
2008年6月18日、ミニ・アルバム『LOVE RAIN』でメジャー・デビューした。	NO_PRONOUNCE	NO_LABEL
同じく歌手のPUSHIMは姉である。	どうじくかしゅのぷしんわあねである。	NO_LABEL
