アメリカ連邦政府抵当金庫は、アメリカの金融機関。	あめりかれんぽーせいふていとーきんこわ、あめりかのきんゆーきかん。	NO_LABEL
ジニーメイの愛称が広く浸透している。	じにーめいのあいしょーがひろくしんとーしている。	NO_LABEL
1968年に住宅都市開発省の下で連邦住宅抵当公庫から分離独立し、政府全額出資企業として設立された。	せんきゅうひゃくろくじゅうはちねんにじゅーたくとしかいはつしょーのしたでれんぽーじゅーたくていとーこーこからぶんりどくりつし、せいふぜんがくしゅっしきぎょーとしてせつりつされた。	NO_LABEL
市場から住宅ローン債権の購入は行わず連邦住宅局保険や退役軍人協会の保証が付いた証券について支払保証を行うことが主要な業務である。	しじょーからじゅーたくろーんさいけんのこーにゅーわおこなわずれんぽーじゅーたくきょくほけんやたいえきぐんじんきょーかいのほしょーがついたしょーけんについてしはらいほしょーをおこなうことがしゅよーなぎょーむである。	NO_LABEL
政府の保証がついた証券に対しての支払い保証のため、連邦住宅金融抵当公庫や連邦住宅抵当公庫よりも高い健全性を持つといわれている。	せいふのほしょーがついたしょーけんにたいしてのしはらいほしょーのため、れんぽーじゅーたくきんゆーていとーこーこやれんぽーじゅーたくていとーこーこよりもたかいけんぜんせいをもつといわれている。	NO_LABEL
