藤原 帯子）は、奈良時代の女性貴族。	NO_PRONOUNCE	NO_LABEL
平城天皇の贈皇后。	へいぜいてんのーのおくこーごー。	NO_LABEL
父は藤原百川、母は藤原諸姉。	ちちわふじわらのももかわ、ははわふじわらのもろあね。	NO_LABEL
藤原旅子の同母妹。	ふじわらのたびこのどーぼいもーと。	NO_LABEL
皇太子であった安殿親王の妃となるも、平安遷都に当る延暦13年病没する。	こーたいしであったあんどのしんのーのきさきとなるも、へいあんせんとにあたるえんりゃくじゅうさんねんびょーぼつする。	NO_LABEL
子女は無し。	しじょわなし。	NO_LABEL
木蓮子院へ運ばれるとすぐに死去したという。	いたびいんえはこばれるとすぐにしきょしたという。	NO_LABEL
大同元年6月9日、平城天皇の即位におよび、皇后位を追贈されている。	だいどーがんねんろくがつここのか、へいぜいてんのーのそくいにおよび、こーごーいをついぞーされている。	NO_LABEL
平城天皇はその後、誰も皇后にすることはなかった。	へいぜいてんのーわそのご、だれもこーごーにすることわなかった。	NO_LABEL
