京哈線は中華人民共和国北京市東城区の北京駅と黒竜江省哈爾浜市南崗区のハルビン駅を結ぶ、中国鉄路総公司の鉄道路線である。	NO_PRONOUNCE	NO_LABEL
北京市と黒竜江省ハルビン市を連絡する全長1,249kmの路線。	NO_PRONOUNCE	NO_LABEL
北京〜秦皇島は京秦線と、瀋陽北〜ハルビンは哈大線との重複区間となっている。	NO_PRONOUNCE	NO_LABEL
中国国鉄の主要幹線である「八縦八横」の一つ。	NO_PRONOUNCE	NO_LABEL
京哈線は1881年6月に中国人が初めて建設を開始した鉄道路線、を東西へそれぞれ延長して完成した。	NO_PRONOUNCE	NO_LABEL
1901年に北京正陽門まで、1911年に瀋陽総駅まで開通した。	せんきゅうひゃくいちねんにぺきんせいようもんまで、せんきゅうひゃくじゅういちねんにしんよーそーえきまでかいつーした。	NO_LABEL
哈大線との重複区間に関しては東清鉄道を参考されたし。	NO_PRONOUNCE	NO_LABEL
開業後、北京〜瀋陽間は京奉線と呼ばれていたが、満州国成立に伴い北京〜山海関間を北寧線、山海関〜瀋陽間を奉山線と改称した。	NO_PRONOUNCE	NO_LABEL
日本敗戦後は再び統一され、名称も京瀋線に改められた。	NO_PRONOUNCE	NO_LABEL
近年になって所要時間短縮の為、天津経由から薊州区経由へ変更されている。	きんねんになってしょよーじかんたんしゅくのため、てんしんけいゆからけいしゅーくけいゆえへんこーされている。	NO_LABEL
2012年の秦皇島駅の改築と同時に北戴河駅-龍家営駅間を改線し、改線区間中の南大寺駅西側-秦皇島駅間は津秦旅客専用線と並行するルートになった。	NO_PRONOUNCE	NO_LABEL
