デロイト・フットボール・マネー・リーグは、サッカークラブの収入における長者番付である。	でろいとふっとぼーるまねーりーぐわ、さっかーくらぶのしゅーにゅーにおけるちょーじゃばんずけである。	NO_LABEL
世界的な監査法人であるデロイトにより、秋春制のシーズンごとに、ヨーロッパにおける売上高上位20クラブのランキングと、各クラブの経営内容分析が発表される。	NO_PRONOUNCE	NO_LABEL
レアル・マドリードがスポーツクラブとして初めて5億ユーロを超え、8シーズン連続1位となった。	NO_PRONOUNCE	NO_LABEL
これは、1996-97シーズンから2003-04シーズンまで連続で1位となったマンチェスター・ユナイテッドFCに並ぶ記録である。	NO_PRONOUNCE	NO_LABEL
FCバルセロナが4シーズン連続で2位となり、1位から6位のアーセナルFCまでは前シーズンから順位の変動がなかった。	NO_PRONOUNCE	NO_LABEL
7位には大きく順位を上げたマンチェスター・シティFCが入り、11位のボルシア・ドルトムントや15位のSSCナポリも大きく順位を上げている。	NO_PRONOUNCE	NO_LABEL
20クラブの国別内訳は、イングランドが7クラブ、イタリアが5クラブ、ドイツが4クラブ、スペインとフランスが2クラブである。	NO_PRONOUNCE	NO_LABEL
レアル・マドリードが前年度を4000万ユーロ以上上回って7年連続1位となった。	NO_PRONOUNCE	NO_LABEL
FCバルセロナが3年連続で2位となり、1位から4位のバイエルン・ミュンヘンまでは前年から順位の変動がなかった。	えふしーばるせろながさんねんれんぞくでにーとなり、いちーからよんいのばいえるんみゅんへんまでわぜんねんからじゅんいのへんどーがなかった。	NO_LABEL
全クラブ中唯一、レアル・マドリードが4億ユーロを超え、6年連続で1位となった。	ぜんくらぶちゅーゆいいつ、れあるまどりーどがよんおくゆーろをこえ、ろくねんれんぞくでいちーとなった。	NO_LABEL
これは1996-97シーズンから2003-04シーズンまで8年連続で1位となったマンチェスター・ユナイテッドFCに次ぐ記録である。	NO_PRONOUNCE	NO_LABEL
1位のレアル・マドリードから3位のFCバルセロナまでに順位の変動はない。	いちーのれあるまどりーどからさんいのえふしーばるせろなまでにじゅんいのへんどーわない。	NO_LABEL
バイエルン・ミュンヘンが前シーズンの7位から4位に急浮上するなど、シャルケ04、ハンブルガーSV、VfBシュトゥットガルトなどのドイツ勢が順位を伸ばしたが、ACミラン、インテルなどのイタリア勢は停滞が目立った。	ばいえるんみゅんへんがぜんしーずんのなないからよんいにきゅーふじょーするなど、しゃるけぬるふぃあ、はんぶるがーえすふぁう、ふぁおえふべーしゅとぅっとがるとなどのどいつぜいがじゅんいをのばしたが、えーしーみらん、いんてるなどのいたりあぜいわていたいがめだった。	NO_LABEL
レアル・マドリードやFCバルセロナのスペイン勢、マンチェスター・ユナイテッドFC、チェルシーFC、アーセナルFC、リヴァプールFCなどのイングランド勢は5年前に比べて軒並み50%以上の上昇率を記録している。	NO_PRONOUNCE	NO_LABEL
