Snapdragonは、米・クアルコムによるモバイルSoCのシリーズである。	NO_PRONOUNCE	NO_LABEL
SnapdragonのアーキテクチャはARM v7 及び v8 命令セットに基づいている。	NO_PRONOUNCE	NO_LABEL
クアルコムは、Snapdragonをスマートフォン、タブレット、スマートブックデバイス"プラットフォーム"と位置付けている。	NO_PRONOUNCE	NO_LABEL
Snapdragonプラットフォームは、一日のバッテリ動作を可能とする低消費電力のリアルタイムユビキタスコンピューティングを狙って設計されている。	すなっぷどらごんぷらっとふぉーむわ、ひといちのばってりどーさをかのーとするていしょーひでんりょくのりあるたいむゆびきたすこんぴゅーてぃんぐをねらってせっけいされている。	NO_LABEL
SnapdragonのアプリケーションプロセッサコアはScorpionとも呼ばれ、クアルコムの独自の設計である。	NO_PRONOUNCE	NO_LABEL
多くの特徴はARM Cortex-A8/9コアと類似している。	NO_PRONOUNCE	NO_LABEL
ただしSIMD命令セットであるNEONのハードウェア実装が128ビット化されており、Cortex-A8/9と比べて2倍の理論演算性能を持つため、マルチメディア処理により高い性能を発揮する。	NO_PRONOUNCE	NO_LABEL
全てのSnapdragonプロセッサはHDビデオのデコードの機能を内蔵している。	すべてのすなっぷどらごんぷろせっさわえいちでぃーびでおのでこーどのきのーをないぞーしている。	NO_LABEL
Snapdragonチップセットの種類により、720pまたは1080pの対応となる。	NO_PRONOUNCE	NO_LABEL
Snapdragonチップセットおよび他のクアルコムのチップセットに含まれている独自のGPUテクノロジのAdrenoは、AMDから買収したモバイルグラフィック技術を元に設計を行っている。	NO_PRONOUNCE	NO_LABEL
Snapdragonシリーズの最初のチップセットはQSD8650とQSD8250であり、2008年の第3四半期に供給された。	NO_PRONOUNCE	NO_LABEL
これらのチップセットは、1 GHzのアプリケーションプロセッサ、無線モデム、GPSを内蔵していた。	NO_PRONOUNCE	NO_LABEL
2012年に発売されたSnapdragon搭載端末には急速充電技術「Quick Charge 1.0」が搭載されていることを、2013年2月にクアルコムが明らかにした。	NO_PRONOUNCE	NO_LABEL
日本で発売された、以下にリストアップされている機種にも搭載されている。	にっぽんではつばいされた、いかにりすとあっぷされているきしゅにもとーさいされている。	NO_LABEL
NTTドコモ	えぬてぃてぃどこも	NO_LABEL
au	えーゆー	NO_LABEL
ソフトバンクモバイル	そふとばんくもばいる	NO_LABEL
Snapdragon 800から搭載。	NO_PRONOUNCE	NO_LABEL
Snapdragon 820, 652, 650, 617, 430から搭載。	NO_PRONOUNCE	NO_LABEL
Snapdragon 835において初対応した。	NO_PRONOUNCE	NO_LABEL
対応するSoCはSnapdragon 835, 660, 630。	NO_PRONOUNCE	NO_LABEL
Snapdragon 845に搭載。	NO_PRONOUNCE	NO_LABEL
命令セットは Snapdragon x1x 以降は ARMv8-A。	NO_PRONOUNCE	NO_LABEL
それ以前は ARMv7-A。	NO_PRONOUNCE	NO_LABEL
半導体プロセスは65nm。	NO_PRONOUNCE	NO_LABEL
半導体プロセスは45nm。	NO_PRONOUNCE	NO_LABEL
半導体プロセスは45nm。	NO_PRONOUNCE	NO_LABEL
L2キャッシュは1MB。	NO_PRONOUNCE	NO_LABEL
半導体プロセスはS4 Playが45nm、S4 Plus/S4 Pro/S4 Primeは28nm。	NO_PRONOUNCE	NO_LABEL
L2キャッシュは2コアKraitは1MB、4コアKraitは2MB。	NO_PRONOUNCE	NO_LABEL
VFPv4対応。	NO_PRONOUNCE	NO_LABEL
無線通信方式がWorld Modeとなっているものは、以下の無線通信方式に対応している。	NO_PRONOUNCE	NO_LABEL
600, 800は2013年1月7日発表、400は2013年6月4日発表、200は2013年6月21日発表、805は2013年11月21日発表。	NO_PRONOUNCE	NO_LABEL
プロセスルールはMSM8x25Qは45nmで、それ以外は28nm。	NO_PRONOUNCE	NO_LABEL
L2キャッシュは2コアKraitは1MB、4コアKraitは2MB。	NO_PRONOUNCE	NO_LABEL
600/800 はメモリがLPDDR2からLPDDR3になった。	NO_PRONOUNCE	NO_LABEL
VFPv4対応。	NO_PRONOUNCE	NO_LABEL
第5世代は名称が200/400/600/800 になり、第4世代との名称の対応関係は以下の通り。	NO_PRONOUNCE	NO_LABEL
600はS4 Proより40%高速化したと発表している。	NO_PRONOUNCE	NO_LABEL
808は十の位が0であるが、64ビットCPUのため、810の節に記載。	NO_PRONOUNCE	NO_LABEL
-->	NO_PRONOUNCE	NO_LABEL
! colspan="11" | Snapdragon 805	NO_PRONOUNCE	NO_LABEL
| rowspan="2" | 2013年Q4	NO_PRONOUNCE	NO_LABEL
無線通信方式のパターン1は以下の通り。	NO_PRONOUNCE	NO_LABEL
無線通信方式のパターン2は以下の通り。	NO_PRONOUNCE	NO_LABEL
無線通信方式のパターン3は以下の通り。	NO_PRONOUNCE	NO_LABEL
410は2013年12月10日発表、610と615は2014年2月25日発表、808と810は2014年4月7日発表、208, 210は2014年9月10日発表、212, 412は2015年7月29日発表、617は2015年9月15日発表。	NO_PRONOUNCE	NO_LABEL
208, 210, 212以外は64ビットARMプロセッサ。	NO_PRONOUNCE	NO_LABEL
プロセスルールは208, 210, 212, 410, 412, 610, 615, 617が28nm、808, 810が20nm。	NO_PRONOUNCE	NO_LABEL
x08はx10と系統が同じためx10シリーズとして扱う。	NO_PRONOUNCE	NO_LABEL
消費電力を減らすため上位モデルでは高性能CPUコアと小型の低消費電力CPUコアを組み合わせたbig.LITTLE処理を採用している。	NO_PRONOUNCE	NO_LABEL
Snapdragonのbig.LITTLEはヘテロジニアスマルチプロセッシングを採用しているため全コア全て同時に動作できる。	NO_PRONOUNCE	NO_LABEL
無線通信方式のパターン1は以下の通り。	NO_PRONOUNCE	NO_LABEL
無線通信方式のパターン2は以下の通り。	NO_PRONOUNCE	NO_LABEL
無線通信方式のパターン3は以下の通り。	NO_PRONOUNCE	NO_LABEL
無線通信方式のパターン4は以下の通り。	NO_PRONOUNCE	NO_LABEL
425, 618, 620 は2015年2月18日発表、820 は2015年3月3日発表。	NO_PRONOUNCE	NO_LABEL
CPUは全て64ビットARMプロセッサとなった。	NO_PRONOUNCE	NO_LABEL
Snapdragon x18 は x20 と同じ系列のため、こちらに記載する。	NO_PRONOUNCE	NO_LABEL
820は認識技術用のスパイキングニューラルネットワーク処理ユニットである Zeroth を搭載する。	NO_PRONOUNCE	NO_LABEL
2015年12月16日にSnapdragon 618及び620についてそれぞれSnapdragon 650、Snapdragon 652へ名称を変更することが発表された。	NO_PRONOUNCE	NO_LABEL
無線通信方式のパターン1は以下の通り。	NO_PRONOUNCE	NO_LABEL
無線通信方式のパターン2は以下の通り。	NO_PRONOUNCE	NO_LABEL
無線通信方式のパターン3は以下の通り。	NO_PRONOUNCE	NO_LABEL
無線通信方式のパターン4は以下の通り。	NO_PRONOUNCE	NO_LABEL
430 は2015年9月15日発表、435, 625 は2016年2月11日発表、835は2017年1月3日発表、630, 660 は2017年5月9日発表、450は2017年6月28日発表、636は2017年10月17日発表。	NO_PRONOUNCE	NO_LABEL
835は820に対して消費電力を25%削減、GPU性能を25%向上、パッケージサイズを30%縮小しており、Windows 10 ARM版のベース機種として採用されている。	NO_PRONOUNCE	NO_LABEL
845 は2017年12月5日発表。	NO_PRONOUNCE	NO_LABEL
