『小学生ホスト ポチ』は、紗織による日本の漫画作品。	NO_PRONOUNCE	NO_LABEL
スクウェア・エニックス刊『ガンガンパワード』のオリジナル4コマ漫画勝ち抜き企画「4ページで4コママンガをやってみないか?」で3号連続勝ち抜きを達成。	NO_PRONOUNCE	NO_LABEL
その後、同誌の2008年8月号に非4コマのコメディとして再構成された読み切り版の掲載を経て、ウェブコミック配信サイト『ガンガンONLINE』で2009年4月30日から7月30日まで全4話が連載された。	NO_PRONOUNCE	NO_LABEL
全1巻。	ぜんいちかん。	NO_LABEL
クラブで売上No.1のホストであった美華音は店長が街でスカウトした小学生ホストのポチに人気を奪われ、売上最下位に転落してしまう。	くらぶでうりあげなんばーわんのほすとであったみかおんわてんちょーがまちですかうとしたしょーがくせいほすとのぽちににんきをうばわれ、うりあげさいかいにてんらくしてしまう。	NO_LABEL
