荷車とは、荷物を運ぶために使われる、車輪の付いた輸送用の道具。	にぐるまとわ、にもつをはこぶためにつかわれる、しゃりんのついたゆそーよーのどーぐ。	NO_LABEL
車輪が2つのものが多く、人力でひくか使役動物にひかせることが多い。	しゃりんがふたつのものがおーく、じんりきでひくかしえきどーぶつにひかせることがおーい。	NO_LABEL
荷物が重い場合は、ひくと同時に後ろから人間が押す。	にもつがおもいばあいわ、ひくとどーじにうしろからにんげんがおす。	NO_LABEL
小型の手押し車は1輪の場合もあるし、大型のものは4輪のものもある。	NO_PRONOUNCE	NO_LABEL
日本の道路交通法では、荷車は一部を除いて軽車両の扱いである。	にっぽんのどーろこーつーほーでわ、にぐるまわいちぶをのぞいてけいしゃりょーのあつかいである。	NO_LABEL
荷車をひかせる動物としては、ウマ、ポニー、ウシ、スイギュウ、ロバなどがよく使われるが、ヤギや大型犬などの小さめの動物を使うこともある。	にぐるまをひかせるどーぶつとしてわ、うま、ぽにー、うし、すいぎゅー、ろばなどがよくつかわれるが、やぎやおーがたけんなどのちーさめのどーぶつをつかうこともある。	NO_LABEL
荷車を作る職人は車大工と呼ぶ。	にぐるまをつくるしょくにんわくるまだいくとよぶ。	NO_LABEL
英語の「カートライト」という姓はこれに由来する。	NO_PRONOUNCE	NO_LABEL
また、荷車で様々な物品を運ぶ職業から「カーター」という姓が生まれた。	NO_PRONOUNCE	NO_LABEL
紀元前3000年頃のインダス文明の都市遺跡から荷車の土器が発掘されていることから、荷車はインド発祥と推定されている。	きげんぜんさんぜんねんごろのいんだすぶんめいのとしいせきからにぐるまのどきがはっくつされていることから、にぐるまわいんどはっしょーとすいていされている。	NO_LABEL
文献では、紀元前1500年頃のインドの聖典リグ・ヴェーダに、男と女は荷車の2つの車輪のようなものだという記述がある。	NO_PRONOUNCE	NO_LABEL
人力の荷車は世界中で使われてきた。	じんりきのにぐるまわせかいじゅーでつかわれてきた。	NO_LABEL
例えば19世紀のモルモン開拓者はアメリカ合衆国の平原を人力の荷車をひいて移動した。	たとえばじゅうきゅうせいきのもるもんかいたくしゃわあめりかがっしゅーこくのへいげんをじんりきのにぐるまをひいていどーした。	NO_LABEL
古来、刑罰として罪人を荷車に乗せ、市中を引き回してさらし者にするということが行われてきた。	こらい、けいばつとしてざいにんをにぐるまにのせ、しちゅーをひきまわしてさらしものにするとゆうことがおこなわれてきた。	NO_LABEL
例えば、古代ローマでは戦いに負けた側のリーダーは、勝者の凱旋式の際、荷車に載せられて一緒に市中を行進させられた。	たとえば、こだいろーまでわたたかいにまけたがわのりーだーわ、しょーしゃのがいせんしきのさい、にぐるまにのせられていっしょにしちゅーをこーしんさせられた。	NO_LABEL
イングランドでは、エリザベス1世がさらし台を導入する以前は、荷車に罪人を縛りつけて公開で鞭打つという刑罰が行われていた。	いんぐらんどでわ、えりざべすいっせいがさらしだいをどーにゅーするいぜんわ、にぐるまにざいにんをしばりつけてこーかいでむちうつとゆうけいばつがおこなわれていた。	NO_LABEL
大きめの荷車はウマ、ラバ、ウシなどの動物にひかせることがある。	おーきめのにぐるまわうま、らば、うしなどのどーぶつにひかせることがある。	NO_LABEL
通常、そのような荷車は動物の名前を使い、「馬車」、「牛車」などと呼ばれるが、これらのうち主に人間を運ぶことを目的としたものは「荷車」とは呼ばない。	NO_PRONOUNCE	NO_LABEL
