ヒプノシスは、1968年に結成されたイギリスのデザイン・グループ。	NO_PRONOUNCE	NO_LABEL
メンバーはストーム・ソーガソン、オーブリー・パウエル、ピーター・クリストファーソン。	めんばーわすとーむそーがそん、おーぶりーぱうえる、ぴーたーくりすとふぁーそん。	NO_LABEL
1970年代を中心にピンク・フロイド、ジェネシス、レッド・ツェッペリンといった数々のアーティストのアルバムカヴァーを手掛ける。	NO_PRONOUNCE	NO_LABEL
ロック界においては、イエスの一連の作品で知られるロジャー・ディーンと共に、音楽ファンから親しまれている存在である。	ろっくかいにおいてわ、いえすのいちれんのさくひんでしられるろじゃーでぃーんとともに、おんがくふぁんからしたしまれているそんざいである。	NO_LABEL
1968年、ストーム・ソーガソンとオーブリー・パウエルがデザイン・チーム「ヒプノシス」を結成し、ロンドンを拠点に活動を始める。	NO_PRONOUNCE	NO_LABEL
当初は出版物のデザインなどが中心だったが、友人であったピンク・フロイドのメンバー、ロジャー・ウォーターズから2ndアルバム『神秘』のカヴァーデザインを依頼されたのを契機に、音楽アルバムのアートワークを主体とするようになった。	NO_PRONOUNCE	NO_LABEL
1974年には、ピーター・クリストファーソンが加わり3人体制となっている。	せんきゅうひゃくななじゅうよねんにわ、ぴーたーくりすとふぁーそんがくわわりさんにんたいせいとなっている。	NO_LABEL
1970年代に活動の最盛を迎えるが、1980年代からミュージック・ビデオなどの映像分野が顕著になり、それに対応した映像会社「グリーンバック・フィルムズ」を設立する為、1983年にチームは解散する。	NO_PRONOUNCE	NO_LABEL
しかし後発の起業だったのも影響して軌道に乗れず、会社は倒産した。	しかしこーはつのきぎょーだったのもえいきょーしてきどーにのれず、かいしゃわとーさんした。	NO_LABEL
その後もヒプノシスのアートワークを受け継いだ。	そのごもひぷのしすのあーとわーくをうけついだ。	NO_LABEL
ピンク・フロイドやドリーム・シアターなどを始め、多くのアーティストのアルバムカヴァーデザインを手掛け、アートスタジオ「StormStudios」を設立。	NO_PRONOUNCE	NO_LABEL
2013年に他界。	にせんじゅうさんねんにたかい。	NO_LABEL
アートディレクターも務めながら、主に映像関係の方面で活動した。	あーとでぃれくたーもつとめながら、おもにえいぞーかんけいのほーめんでかつどーした。	NO_LABEL
ソーガソン亡き後ピンク・フロイドの仕事を引き継ぎ、ラストアルバム『永遠/TOWA』のアートディレクターを担当した。	NO_PRONOUNCE	NO_LABEL
自身の音楽活動と並行して主にビデオ・ディレクターを務め、イエスやヴァン・ヘイレンなどのミュージック・ビデオをプロデュースしている。	NO_PRONOUNCE	NO_LABEL
インダストリアルバンド・Coilの主要メンバーとして永年活動した。	NO_PRONOUNCE	NO_LABEL
2010年に他界。	にせんじゅうねんにたかい。	NO_LABEL
レコード・ジャケットを芸術作品としての表現の域にまで高めた先駆者。	NO_PRONOUNCE	NO_LABEL
ただし、活動初期の頃はレコード会社側との軋轢もあったようで、1970年の『原子心母』の「牛」のジャケットを提示した際には難色を示された。	NO_PRONOUNCE	NO_LABEL
特にアルバム・タイトルもアーティスト名も表記されていないことに反対の声が挙がったが、結果的に全英1位を記録したことで「その後の仕事がやりやすくなった」という。	NO_PRONOUNCE	NO_LABEL
イマジネーションに溢れた創造的な作風が特徴で、現実なのか非現実なのか解らないようなジャケットも多い。	いまじねーしょんにあふれたそーぞーてきなさくふーがとくちょーで、げんじつなのかひげんじつなのかわからないよーなじゃけっともおーい。	NO_LABEL
「見る者に考えさせる」ということも、ひとつのコンセプトであるという。	NO_PRONOUNCE	NO_LABEL
また、矛盾や対比といった「二面性」も主要なテーマになっている。	NO_PRONOUNCE	NO_LABEL
収録された音楽を聴かずにデザインをすることもあるという。	しゅーろくされたおんがくをきかずにでざいんをすることもあるという。	NO_LABEL
