北村美術モデル紹介所は、美術モデルの紹介を行っている人材派遣の事務所である。	きたむらびじゅつもでるしょーかいしょわ、びじゅつもでるのしょーかいをおこなっているじんざいはけんのじむしょである。	NO_LABEL
1963年より現在に至るまで、美術モデルの人材派遣を行っている。	せんきゅうひゃくろくじゅうさんねんよりげんざいにいたるまで、びじゅつもでるのじんざいはけんをおこなっている。	NO_LABEL
首都圏での美術モデル派遣業では、プールヴーモデル紹介所と共に、知名度がある業界大手である。	NO_PRONOUNCE	NO_LABEL
2010年9月現在、ホームページはない。	にせんじゅうねんくがつげんざい、ほーむぺーじわない。	NO_LABEL
