因島運動公園は、広島県尾道市因島の運動公園である。	いんのしまうんどーこーえんわ、ひろしまけんおのみちしいんのしまのうんどーこーえんである。	NO_LABEL
ナイター設備を備えた多目的球技場、12面のテニスコートが設けられている。	NO_PRONOUNCE	NO_LABEL
1996年のひろしま国体ではソフトテニスの会場となった。	せんきゅうひゃくきゅうじゅうろくねんのひろしまこくたいでわそふとてにすのかいじょーとなった。	NO_LABEL
戦後65周年因島空襲記念日を記念した2010年7月28日の空襲記念日には原田真二のコンサートが開催され、この日のために作詞作曲された「アイランド・オブ・ピース因島」などが歌われた。	NO_PRONOUNCE	NO_LABEL
しなまみ海道のサイクリングイベントの尾道側起点として使用される事が多い。	しなまみかいどーのさいくりんぐいべんとのおのみちがわきてんとしてしよーされることがおーい。	NO_LABEL
