『Let'sダチ公』は、原作：積木爆、作画：木村知夫による日本の漫画作品。	NO_PRONOUNCE	NO_LABEL
『週刊少年チャンピオン』にて、1985年19号から1988年42号まで連載された。	NO_PRONOUNCE	NO_LABEL
単行本は全18巻。	たんこーぼんわぜんじゅうはちかん。	NO_LABEL
全163話。	ぜんひゃくろくじゅうさんわ。	NO_LABEL
続編として、1994年に同じく『週刊少年チャンピオン』に掲載された『I'mダチ公』、また2006年に『別冊漫画ゴラク』にて掲載された『新Let'sダチ公 極道大学金時計』がある。	NO_PRONOUNCE	NO_LABEL
また『週刊少年チャンピオン』創刊40周年企画として、同誌の2009年41号に読み切り作品が掲載された。	NO_PRONOUNCE	NO_LABEL
ツッパリ高校生コンビの秋葉瞬と森陽一がケンカに明け暮れる学生生活を描いた不良漫画。	つっぱりこーこーせいこんびのあきばまどかともりよーいちがけんかにあけくれるがくせいせいかつをえがいたふりょーまんが。	NO_LABEL
2人が私立海西学園高等学校の番長グループ内で出世しつつ、他高との縄張り争いを繰り広げていくのが主なストーリー。	ふたりがしりつもにしがくえんこーとーがっこーのばんちょーぐるーぷないでしゅっせしつつ、ただかとのなわばりあらそいをくりひろげていくのがおもなすとーりー。	NO_LABEL
タイトルにも含まれる単語「ダチ」が、重要なキーワードとしてセリフの随所に出てくる。	NO_PRONOUNCE	NO_LABEL
本項でもダチを使用する。	ほんこーでもだちをしよーする。	NO_LABEL
唐突かつ大掛かりな演出が多い。	とーとつかつおーがかりなえんしゅつがおーい。	NO_LABEL
作品内の時代は1985年。	さくひんないのじだいわせんきゅうひゃくはちじゅうごねん。	NO_LABEL
舞台となる海西高校の地理は具体的に明示されていないが、「北関東の県」と描かれている。	NO_PRONOUNCE	NO_LABEL
以下の各編の名称は、本項内のみの便宜上の呼称。	いかのかくへんのめいしょーわ、ほんこーないのみのべんぎじょーのこしょー。	NO_LABEL
作中には部や編などの明確な区分表記はない。	さくちゅーにわぶやへんなどのめいかくなくぶんひょーきわない。	NO_LABEL
地方ごと、高校ごとに記述する。	ちほーごと、こーこーごとにきじゅつする。	NO_LABEL
学年は登場時のもの。	がくねんわとーじょーじのもの。	NO_LABEL
主人公2人以降は、学年順に記述。	しゅじんこーふたりいこーわ、がくねんじゅんにきじゅつ。	NO_LABEL
静岡における梅林の本拠地。	しずおかにおけるばいりんのほんきょち。	NO_LABEL
本校の解説は番内の序列に従って記載する。	ほんこーのかいせつわばんないのじょれつにしたがってきさいする。	NO_LABEL
京都戦争編の敵。	きょーとせんそーへんのてき。	NO_LABEL
番はおろかスポーツ部すらないという、東大進学率全国一のエリート進学校。	ばんわおろかすぽーつぶすらないとゆう、とーだいしんがくりつぜんこくいちのえりーとしんがくこー。	NO_LABEL
バックには政治家や警察が付いている。	ばっくにわせいじかやけいさつがついている。	NO_LABEL
登場人物の多くが本名不詳のため、外見で呼称する。	とーじょーじんぶつのおーくがほんみょーふしょーのため、がいけんでこしょーする。	NO_LABEL
長崎の雲仙岳と思われる活火山の麓にある高校。	ながさきのうんぜんだけとおもわれるかっかざんのふもとにあるこーこー。	NO_LABEL
校舎は切妻造で2階建てと、他の高校と趣が異なる。	こーしゃわきりずまずくりでにかいだてと、たのこーこーとおもむきがことなる。	NO_LABEL
札幌にある。	さっぽろにある。	NO_LABEL
完結編で1話のみの登場。	かんけつへんでいちわのみのとーじょー。	NO_LABEL
