バーベル （）は、コイ亜科の淡水魚である。	ばーべるかっこわ、こいあかのたんすいぎょである。	NO_LABEL
バルブス属の他の種の魚と共にバーベルと呼ばれ、"Common Barbel" として知られる。	NO_PRONOUNCE	NO_LABEL
ヨーロッパから中国に分布し、モロッコやイタリアにも導入されている。	よーろっぱからちゅーごくにぶんぷし、もろっこやいたりあにもどーにゅーされている。	NO_LABEL
流れの速い水に棲み、成体は全長1.2m、体重12kgまで成長するが、通常は50-100cm、1-3kg程度である。	NO_PRONOUNCE	NO_LABEL
体は多少側扁し、色は濃茶色か灰色のまだらである。	NO_PRONOUNCE	NO_LABEL
下面は明るい色で、鰭は赤みがかっている。	かめんわあかるいいろで、ひれわあかみがかっている。	NO_LABEL
開けた水域や川底に住み、川底の岩地や砂地で餌を探す。	あけたすいいきやかわぞこにすみ、かわぞこのいわじやすなじでえさをさがす。	NO_LABEL
甲殻類や昆虫の幼虫、軟体動物などの底生生物を食べる。	こーかくるいやこんちゅーのよーちゅー、なんたいどーぶつなどのていせいせいぶつをたべる。	NO_LABEL
雄は3-4年、雌は5-8年で成熟し、5-7月に川を遡って移動し、体重1kgあたり8,000-12,000個の卵を産む。	NO_PRONOUNCE	NO_LABEL
卵は有毒である。	たまごわゆーどくである。	NO_LABEL
名前や学名に使われるバーベルとは、英語で「魚のひげ」の意味である。	NO_PRONOUNCE	NO_LABEL
英語の伝承では、バーベルはかつて豚魚と呼ばれていたとされる。	えいごのでんしょーでわ、ばーべるわかつてぶたぎょとよばれていたとされる。	NO_LABEL
