「ロケット」は、Plastic Treeのメジャー8枚目のシングル。	NO_PRONOUNCE	NO_LABEL
2000年7月12日発売。	にせんねんしちがつじゅうににちはつばい。	NO_LABEL
発売元はワーナーミュージック・ジャパン。	NO_PRONOUNCE	NO_LABEL
前作『スライド.』から約3ヶ月ぶりのシングル。	NO_PRONOUNCE	NO_LABEL
トレーディングカードが封入されていた。	とれーでぃんぐかーどがふーにゅーされていた。	NO_LABEL
アルバム『Parade』からの先行シングルとして発売された。	NO_PRONOUNCE	NO_LABEL
