ウィスピーウッズは、任天堂のゲームソフト『星のカービィシリーズ』に登場する架空のキャラクターである。	NO_PRONOUNCE	NO_LABEL
埴輪のような顔をした木のキャラクター。	はにわのよーなかおをしたきのきゃらくたー。	NO_LABEL
役割的には敵キャラで、最初のステージのボスとして登場することが多いが、シリーズによっては味方の場合もある。	やくわりてきにわてききゃらで、さいしょのすてーじのぼすとしてとーじょーすることがおーいが、しりーずによってわみかたのばあいもある。	NO_LABEL
戦法は、基本的に	せんぽーわ、きほんてきに	NO_LABEL
だが、ゲームによって違うことがある。	だが、げーむによってちがうことがある。	NO_LABEL
また、リンゴの代わりにゴルドーや毛虫を落としてくることもある。	また、りんごのかわりにごるどーやけむしをおとしてくることもある。	NO_LABEL
担当声優は細井治。	たんとーせいゆーわほそいおさむ。	NO_LABEL
プププランドのはずれに広がる森の王様の木。	ぷぷぷらんどのはずれにひろがるもりのおーさまのき。	NO_LABEL
彼の名前を取ってこの森は「ウィスピーウッズの森」と呼ばれている。	NO_PRONOUNCE	NO_LABEL
密林の中に生えているため、存在を知っている村人はフームやモソじいさん程度で極めて少ない。	みつりんのなかにはえているため、そんざいをしっているむらびとわふーむやもそじーさんていどできわめてすくない。	NO_LABEL
ムチのように振り回す根っことリンゴ落としが武器。	むちのよーにふりまわすねっことりんごおとしがぶき。	NO_LABEL
森を伐採してゴルフ場を造ろうと考えているデデデ大王と敵対し、カービィやフームたちの助けを借りながら森を守り続けている。	もりをばっさいしてごるふじょーをつくろうとかんがえているでででだいおーとてきたいし、かーびぃやふーむたちのたすけをかりながらもりをまもりつずけている。	NO_LABEL
森を慕う者に対しては歓迎の印としてリンゴをくれる優しさを持つ。	もりをしたうものにたいしてわかんげいのしるしとしてりんごをくれるやさしさをもつ。	NO_LABEL
一方で疑り深く少々強情な面があり、怒り出すと人の話をあまり聞かなくなる。	いっぽーでうたぐりぶかくしょーしょーごーじょーなめんがあり、おこりだすとひとのはなしをあまりきかなくなる。	NO_LABEL
また、デデデの事故で森が火事になったときは、道連れにしようとするなど自己犠牲も辞さない度胸を持ち合わせている。	また、でででのじこでもりがかじになったときわ、みちずれにしよーとするなどじこぎせいもじさないどきょーをもちあわせている。	NO_LABEL
