バックパス・ルール () はサッカーの競技規則第12条に記されている規則である。	NO_PRONOUNCE	NO_LABEL
バックパス・ルールは、同じチームに属するサッカー選手がゴールキーパーへと「意図的に」ボールを「蹴った」場合もしくはスローインのボールをゴールキーパーへと戻した場合に、ゴールキーパーがそのボールを手で扱うことを禁止した規則である。	NO_PRONOUNCE	NO_LABEL
バックパス・ルールでは反則を犯した選手はバックパスを出した選手ではなく、ボールを手で扱ったゴールキーパーとなる。	ばっくぱするーるでわはんそくをおかしたせんしゅわばっくぱすをだしたせんしゅでわなく、ぼーるをてであつかったごーるきーぱーとなる。	NO_LABEL
従って、ゴールキーパーがバックパスを手で扱った場所から対戦相手に間接フリーキックが与えられる。	したがって、ごーるきーぱーがばっくぱすをてであつかったばしょからたいせんあいてにかんせつふりーきっくがあたえられる。	NO_LABEL
ただ、バックパス・ルールの反則を犯してフリーキックが与えられるという実例は少ない。	ただ、ばっくぱするーるのはんそくをおかしてふりーきっくがあたえられるとゆうじつれいわすくない。	NO_LABEL
バックパス・ルールは以下の3つの節から成り立っている。	ばっくぱするーるわいかのみっつのふしからなりたっている。	NO_LABEL
バックパス・ルールには非常に重要な例外がある。	ばっくぱするーるにわひじょーにじゅーよーなれいがいがある。	NO_LABEL
プレーヤーが頭部、胸部、膝によってゴールキーパーにバックパスを送った場合はゴールキーパーはボールを手で扱うことができる。	ぷれーやーがとーぶ、きょーぶ、ひざによってごーるきーぱーにばっくぱすをおくったばあいわごーるきーぱーわぼーるをてであつかうことができる。	NO_LABEL
また、同じチームに属する選手が故意ではなくボールをゴールキーパーに戻す場合でもゴールキーパーはボールを手で扱うことができる。	また、おなじちーむにぞくするせんしゅがこいでわなくぼーるをごーるきーぱーにもどすばあいでもごーるきーぱーわぼーるをてであつかうことができる。	NO_LABEL
例えば、ディフェンダーがボールをクリアする際にキックミスなどでボールがゴールキーパーの方向へと転がった場合などである。	たとえば、でぃふぇんだーがぼーるをくりあするさいにきっくみすなどでぼーるがごーるきーぱーのほーこーえところがったばあいなどである。	NO_LABEL
この場合はゴールキーパーはボールを手で扱うことができる。	このばあいわごーるきーぱーわぼーるをてであつかうことができる。	NO_LABEL
バックパスはアイルランド代表GKパット・ボナーの時間稼ぎ行為が話題となった1990 FIFAワールドカップ終了後、時間稼ぎのプレーや、過度に守備的なプレーを減らすため1992年に導入された。	ばっくぱすわあいるらんどだいひょーごーるきーぱーぱっとぼなーのじかんかせぎこーいがわだいとなったいちきゅうきゅうまるふぃふぁわーるどかっぷしゅーりょーご、じかんかせぎのぷれーや、かどにしゅびてきなぷれーをへらすためせんきゅうひゃくきゅうじゅうにねんにどーにゅーされた。	NO_LABEL
また、リヴァプールFCのブルース・グロベラーは一度ボールを手でキャッチし、ボールを手から離した後少しドリブルをし、相手選手が接近してきた場合に再度ボールを手で扱い時間稼ぎをするといったプレーを頻繁に用いるゴールキーパーとして知られていた。	NO_PRONOUNCE	NO_LABEL
これを防ぐため、バックパス・ルールと同時にこの行為を防ぐ目的を意図したルールが導入されており、一度手から離したボールを他のプレーヤーを介さずに手で扱うことを禁止している。	これをふせぐため、ばっくぱするーるとどーじにこのこーいをふせぐもくてきをいとしたるーるがどーにゅーされており、いちどてからはなしたぼーるをたのぷれーやーをかいさずにてであつかうことをきんししている。	NO_LABEL
このルールを破り反則を犯した場合も間接フリーキックが与えられる。	このるーるをやぶりはんそくをおかしたばあいもかんせつふりーきっくがあたえられる。	NO_LABEL
2011年11月にバックパス・ルールの反則を取られ滑稽なゴールを決められた後、ストーク・シティの代表ピーター・コーツは「競技規則のあの部分は実際には全く機能していない。	NO_PRONOUNCE	NO_LABEL
私はゴールキーパーへのバックパスでフリーキックが与えられた場面を最後に見た時期を覚えていない。	わたしわごーるきーぱーえのばっくぱすでふりーきっくがあたえられたばめんをさいごにみたじきをおぼえていない。	NO_LABEL
至極当然のように無視されてきたように思う」と述べた。	NO_PRONOUNCE	NO_LABEL
