マグネトソームとは、ある種の地球上の生物が見られる。	まぐねとそーむとわ、あるたねのちきゅーじょーのせいぶつがみられる。	NO_LABEL
マグネトソームはが細胞膜の内側に抱えているもので、この中には15個から20個程度の磁力を持った鉱物が含まれている。	NO_PRONOUNCE	NO_LABEL
そしてマグネトソームはこの鉱物が脂質などでできた膜に包まれてできている。	そしてまぐねとそーむわこのこーぶつがししつなどでできたまくにつつまれてできている。	NO_LABEL
マグネトソームに含まれる鉱物は、マグネトソームを持つ生物自身が金属元素を代謝しながら体内で合成している。	まぐねとそーむにふくまれるこーぶつわ、まぐねとそーむをもつせいぶつじしんがきんぞくげんそをたいしゃしながらたいないでごーせいしている。	NO_LABEL
その鉱物の大きさは通常35nmから120nmまでの範囲で、鉱物の化学組成はほぼ均質になっている。	NO_PRONOUNCE	NO_LABEL
地球には地磁気が存在しているため、マグネトソームの中でこの鉱物は方位磁針の針のように振る舞う。	ちきゅーにわちじきがそんざいしているため、まぐねとそーむのなかでこのこーぶつわほーいじしんのはりのよーにふるまう。	NO_LABEL
なお、が利用する鉱物は1種類ではない。	なお、がりよーするこーぶつわいちしゅるいでわない。	NO_LABEL
どの鉱物を利用するかは、の種類によって異なるが、普通は酸化鉄か硫化鉄のどちらか一方を利用する。	どのこーぶつをりよーするかわ、のしゅるいによってことなるが、ふつーわさんかてつかりゅーかてつのどちらかいっぽーをりよーする。	NO_LABEL
酸化鉄を利用するタイプののマグネトソームには普通FeOが含まれていて、硫化鉄を利用するタイプののマグネトソームには普通FeSが含まれている。	NO_PRONOUNCE	NO_LABEL
ただし硫化鉄を利用するタイプのの中には、FeSを使う種類も見られる。	NO_PRONOUNCE	NO_LABEL
さらにアメリカのロードアイランド州を流れるの流域の南部では、酸化鉄と硫化鉄を両方用いるも発見されている。	さらにあめりかのろーどあいらんどしゅーをながれるのりゅーいきのなんぶでわ、さんかてつとりゅーかてつをりょーほーもちいるもはっけんされている。	NO_LABEL
はマグネトソームを自身が生育するのに最適な場所にたどりつくために利用している。	わまぐねとそーむをじしんがせいいくするのにさいてきなばしょにたどりつくためにりよーしている。	NO_LABEL
