『王子様の条件』は台湾のテレビドラマ。	NO_PRONOUNCE	NO_LABEL
2011年6月17日から2011年11月11日まで台湾の華視で放送された。	にせんじゅういちねんろくがつじゅうしちにちからにせんじゅういちねんじゅーいちがつじゅういちにちまでたいわんのはなしでほーそーされた。	NO_LABEL
日本では2012年4月30日から2012年6月25日までBSジャパンで放送された。	にっぽんでわにせんじゅうにねんしがつさんじゅうにちからにせんじゅうにねんろくがつにじゅうごにちまでびーえすじゃぱんでほーそーされた。	NO_LABEL
全33話。	ぜんさんじゅうさんわ。	NO_LABEL
アメリカのテレビドラマ『セックス・アンド・ザ・シティ』で衣装を担当したパトリシア・フィールドが衣装監督として参加し、ドラマにも出演している。	NO_PRONOUNCE	NO_LABEL
全33話	ぜんさんじゅうさんわ	NO_LABEL
販売元：エスピーオー	NO_PRONOUNCE	NO_LABEL
