エドワード・ロバート・ヒューズは、ラファエロ前派と耽美主義の影響を受けたイギリスの画家である。	えどわーどろばーとひゅーずわ、らふぁえろぜんぱとたんびしゅぎのえいきょーをうけたいぎりすのがかである。	NO_LABEL
エドワード・ロバート・ヒューズは画家のアーサー・ヒューズの甥である。	えどわーどろばーとひゅーずわがかのあーさーひゅーずのおいである。	NO_LABEL
彼はしばしば水彩/不透明水彩画を使用した。	NO_PRONOUNCE	NO_LABEL
1891年に王立水彩画協会に選出され、正会員の資格を得るための試験作品としてクリスティーナ・ロセッティの詩 "アモール・ムンディ"に触発された神秘的な作品を提出した。	NO_PRONOUNCE	NO_LABEL
彼は野心的な手法の実験を行い、完璧主義者であった。	かれわやしんてきなしゅほーのじっけんをおこない、かんぺきしゅぎしゃであった。	NO_LABEL
彼は絵画で多くの実験的手法を試み、その技術のいくつかは展示会の出品作に反映された。	かれわかいがでおーくのじっけんてきしゅほーをこころみ、そのぎじゅつのいくつかわてんじかいのしゅっぴんさくにはんえいされた。	NO_LABEL
ヒューズは一時、老齢で体力の落ちたウィリアム・ホルマン・ハントの助手としてセントポール大聖堂の"世の光"と"シャロットの女"の制作を手助けした。	NO_PRONOUNCE	NO_LABEL
彼は1914年4月23日にハートフォードシャー州セント・オールバンズの彼の別荘で死亡した。	かれわせんきゅうひゃくじゅうよねんしがつにじゅうさんにちにはーとふぉーどしゃーしゅーせんとおーるばんずのかれのべっそーでしぼーした。	NO_LABEL
エドワード・ロバート・ヒューズの著名な作品には"星たちを引き連れた夜"、"真夏の夜"、"ワルキューレの祈り"がある。	NO_PRONOUNCE	NO_LABEL
を翻訳	をほんやく	NO_LABEL
