カフカスアイベックスは、ウシ科ヤギ属に分類される偶蹄類。	NO_PRONOUNCE	NO_LABEL
別名ニシコーカサスツール。	べつめいにしこーかさすつーる。	NO_LABEL
グルジア、ロシアのカフカース山脈西部	ぐるじあ、ろしあのかふかーすさんみゃくせいぶ	NO_LABEL
体長150-165センチメートル。	NO_PRONOUNCE	NO_LABEL
肩高95-109センチメートル。	NO_PRONOUNCE	NO_LABEL
体重65-100キログラム。	NO_PRONOUNCE	NO_LABEL
基部から後方へ向かい、先端が外側下方へ向かう三日月状の角がある。	きぶからこーほーえむかい、せんたんがそとがわかほーえむかうみかずきじょーのかくがある。	NO_LABEL
角長75-100センチメートル。	NO_PRONOUNCE	NO_LABEL
角の断面は四角形。	かくのだんめんわしかっけい。	NO_LABEL
角の前面には横方向に畝のような不明瞭な隆起がある。	かくのぜんめんにわよこほうこーにうねのよーなふめいりょーなりゅーきがある。	NO_LABEL
夏季は毛衣が灰赤褐色や灰黄褐色、赤褐色。	かきわもーころもがはいせきかっしょくやはいきかっしょく、せきかっしょく。	NO_LABEL
冬季は毛衣が灰褐色、黄褐色、赤褐色で、背面正中線上に沿って暗色の縦縞が入る。	とーきわもーころもがはいかっしょく、きかっしょく、せきかっしょくで、はいめんせいちゅーせんじょーにそってあんしょくのたてじまがはいる。	NO_LABEL
オスの顎に伸長する体毛は18センチメートル以下と長く、縮れない。	おすのあごにしんちょーするたいもーわじゅうはちせんちめーとるいかとながく、ちじれない。	NO_LABEL
カフカスツールを亜種とする説もあり、分布域が一部重複し種間雑種も形成する。	かふかすつーるをあしゅとするせつもあり、ぶんぷいきがいちぶじゅーふくしたねまざっしゅもけいせいする。	NO_LABEL
山地に生息する。	さんちにせいそくする。	NO_LABEL
食性は植物食で、木の葉、草などを食べる。	しょくせいわしょくぶつしょくで、このは、くさなどをたべる。	NO_LABEL
狩猟、家畜との競合などにより生息数は減少している。	しゅりょー、かちくとのきょーごーなどによりせいそくすーわげんしょーしている。	NO_LABEL
1980年代後期における生息数は12,000頭、1997年における生息数は10,000頭と推定されている。	NO_PRONOUNCE	NO_LABEL
