三木 森彦5月21日 - 1973年7月28日）は、日本の海軍軍人。	NO_PRONOUNCE	NO_LABEL
最終階級は海軍少将。	さいしゅーかいきゅーわかいぐんしょーしょー。	NO_LABEL
東京都目黒区出身。	とーきょーとめぐろくしゅっしん。	NO_LABEL
旧制東京府立第一中学校より海軍兵学校第40期入校。	きゅーせいとーきょーふりつだいいちちゅうがっこーよりかいぐんへいがっこーだいよんじゅっきにゅーこー。	NO_LABEL
入校時成績順位は150名中第120位、卒業時成績順位は144名中第131位。	NO_PRONOUNCE	NO_LABEL
日本海軍航空界黎明期の人物として知られ、同期生には空母初着艦を行った吉良俊一や、支那事変初期に第十三航空隊司令だった千田貞敏がいる。	にっぽんかいぐんこーくーかいれいめいきのじんぶつとしてしられ、どーきせいにわくーぼはつちゃくかんをおこなったきらしゅんいちや、しなじへんしょきにだいじゅーさんこーくーたいしれいだったせんださだとしがいる。	NO_LABEL
同時期に三木も第十二航空隊司令として赴任した。	どーじきにみきもだいじゅーにこーくーたいしれいとしてふにんした。	NO_LABEL
