ロチェスター工科大学は、アメリカ合衆国ニューヨーク州ロチェスターに本部を置く私立の工科系総合大学である。	ろちぇすたーこーかだいがくわ、あめりかがっしゅーこくにゅーよーくしゅーろちぇすたーにほんぶをおくしりつのこーかけいそーごーだいがくである。	NO_LABEL
1829年創立し、1944年に現在の名称に改名された。	せんはっぴゃくにじゅうきゅうねんそーりつし、せんきゅうひゃくよんじゅうよねんにげんざいのめいしょーにかいめいされた。	NO_LABEL
RITの略称でも親しまれる。	NO_PRONOUNCE	NO_LABEL
学部生13,861人、大学院生2,633人。	NO_PRONOUNCE	NO_LABEL
校訓は"A category-of-one university"。	NO_PRONOUNCE	NO_LABEL
同じロチェスターにあるロチェスター大学と並び、地域を代表する理工学及びコンピューター系の大学である。	おなじろちぇすたーにあるろちぇすたーだいがくとならび、ちいきをだいひょーするりこーがくおよびこんぴゅーたーけいのだいがくである。	NO_LABEL
ニューヨー ク州ロチェスター市の校外ヘンリエタに1300エーカーの広大なメインキャンパスを構えている。	NO_PRONOUNCE	NO_LABEL
ロチェスター市はニューヨーク北西部のオンタリオ湖岸に位置する人口219,773人の同州第３の都市である。	NO_PRONOUNCE	NO_LABEL
同市はボシュロムやイーストマン・コダックの本社所在地、及びゼロックス創業の地として有名である。	どーしわぼしゅろむやいーすとまんこだっくのほんしゃしょざいち、およびぜろっくすそーぎょーのちとしてゆーめいである。	NO_LABEL
ロチェスターはThe World's Image Centreという別名も持っている。	NO_PRONOUNCE	NO_LABEL
ロチェスター工科大学は1829年にナサニエル・ロチェスター大佐やその共同者によって設立された文学学会Rochester Athenaeumを発端とする。	NO_PRONOUNCE	NO_LABEL
1891年には当時の職業訓練所であったMechanics Instituteと合併し、1944年に現存の大学となる。	NO_PRONOUNCE	NO_LABEL
当時はロチェスター市のダウンタウンに位置していたが、1961年のグレース・ワトソンからの予期せぬ$3.27ミリオンドルの寄付をきっかけに、現在のキャンパスが位置するヘンリエタへの移動を開始した。	NO_PRONOUNCE	NO_LABEL
1968年に現存のキャンパスの基になる設備が完成した。	せんきゅうひゃくろくじゅうはちねんにげんそんのきゃんぱすのもとになるせつびがかんせいした。	NO_LABEL
その後同大学は設備を増やし続け、特に2000年頃からは新しい運動施設、バイオ研究所、コンピューター科学研究所、マイクロ科学研究所、企業家育成所などを次々と設立している。	そのごどーだいがくわせつびをふやしつずけ、とくににせんねんごろからわあたらしいうんどーしせつ、ばいおけんきゅーじょ、こんぴゅーたーかがくけんきゅうしょ、まいくろかがくけんきゅうしょ、きぎょーかいくせいしょなどをつぎつぎとせつりつしている。	NO_LABEL
アメリカの名門工科大学の1つと評されており、特に工学、コンピューター科学、イメージ科学、写真・芸術などにおいて有名な存在である。	NO_PRONOUNCE	NO_LABEL
USNewsの2009年版大学ランキングでは北東地区9位の評価を得ている。	NO_PRONOUNCE	NO_LABEL
学部教育に力を入れており、博士課程を数多く有する他の総合大学とは一線を画している。	がくぶきょーいくにちからをいれており、はかせかていをかずおーくゆーするほかのそーごーだいがくとわいっせんをかくしている。	NO_LABEL
特筆すべきは同大学の多くの学部で必修となっているコーププログラムで、情報学や工学部では1～1.5年の実務経験を卒業以前に行うことが求められる。	NO_PRONOUNCE	NO_LABEL
これによりロチェスター工科大の就職率は非常に高くなっている。	これによりろちぇすたーこーかだいのしゅーしょくりつわひじょーにたかくなっている。	NO_LABEL
ロチェスター市はコダック、ゼロックス、ITTなどの光学機器企業が開発の本拠点を置いているため、光学に関する研究が大変盛んに行われている。	NO_PRONOUNCE	NO_LABEL
ロチェスター工科大学はイメージ科学の研究において世界をリードする位置にある。	ろちぇすたーこーかだいがくわいめーじかがくのけんきゅーにおいてせかいをりーどするいちにある。	NO_LABEL
イメージ科学の研究費用は同大学のなかで最も高く、映像技術に関するさまざまな研究が行われている。	いめーじかがくのけんきゅーひよーわどーだいがくのなかでもっともたかく、えいぞーぎじゅつにかんするさまざまなけんきゅーがおこなわれている。	NO_LABEL
また隣ロチェスター大学のThe Institute of Opticsは光学研究においてトップレベルである。	NO_PRONOUNCE	NO_LABEL
同大学は工学や情報学の分野でも著名である。	どーだいがくわこーがくやじょーほーがくのぶんやでもちょめいである。	NO_LABEL
Center for Microelectronic and Computer Engineeringでは半導体やナノテクノロジーの研究が行われている。	NO_PRONOUNCE	NO_LABEL
またCenter for Advancing the Study of CyberInfrastructureでは情報科学、イメージ科学、生物工学などの共同研究などが行われている。	NO_PRONOUNCE	NO_LABEL
2006年にはトヨタ自動車が生産システムラボを工学部内に設置した。	にせんろくねんにわとよたじどーしゃがせいさんしすてむらぼをこーがくぶないにせっちした。	NO_LABEL
ロチェスター工科大の芸術学カレッジは全米でトップレベルに位置しており、数多くの写真家や芸術家を輩出している。	ろちぇすたーこーかだいのげいじゅつがくかれっじわぜんべいでとっぷれべるにいちしており、かずおーくのしゃしんかやげいじゅつかをはいしゅつしている。	NO_LABEL
他のトップスクールは芸術専門校が多く、工学系大学のランク入りは異色である。	たのとっぷすくーるわげいじゅつせんもんこーがおーく、こーがくけいだいがくのらんくいりわいしょくである。	NO_LABEL
キャンパスの敷地内には国立のNTIDが併設されている。	NO_PRONOUNCE	NO_LABEL
これによりロチェスター工科大学では数多くのろう学生が他の学生と共に学んでいる。	これによりろちぇすたーこーかだいがくでわかずおーくのろうがくせいがたのがくせいとともにまなんでいる。	NO_LABEL
手話による翻訳やクラスノート補助などが充実しており、学習がしやすいように工夫されている。	しゅわによるほんやくやくらすのーとほじょなどがじゅーじつしており、がくしゅーがしやすいよーにくふーされている。	NO_LABEL
NTIDは同大学の多様性に大きく貢献している。	NO_PRONOUNCE	NO_LABEL
特筆すべきロチェスター工科大学の行事にイマジンRITがある。	NO_PRONOUNCE	NO_LABEL
この行事はロチェスター工科大学とその活動の公共認知を目的としており、現在の学長であるウィリアム・デスラーの号令により2008年の5月に第1回目のイマジンRITが開かれた。	NO_PRONOUNCE	NO_LABEL
同校の理工学教育と芸術教育への重視を反映して、行事のスローガンは「右脳と左脳がぶつかる時」とされた。	NO_PRONOUNCE	NO_LABEL
イマジンRITでは同大学の研究成果や卒業製作などがキャンパス中に展示され、参加者はプロトタイプの工学デザインや生徒が作ったアートなどに触れる事ができる。	NO_PRONOUNCE	NO_LABEL
イマジンRITのテーマはイノベーションとクリエーティビティとされており、これがオバマ政権の重視する経済政策と合致していたため、2009年に開かれた第２回においては学長からホワイトハウスに招待状が送られた。	NO_PRONOUNCE	NO_LABEL
しかしながら日程の関係上バラック・オバマ大統領の訪問は実現されなかった。	NO_PRONOUNCE	NO_LABEL
2008年には、アラブ首長国連邦のドバイ政府と共同でを設置した。	にせんはちねんにわ、あらぶしゅちょーこくれんぽーのどばいせいふときょーどーでをせっちした。	NO_LABEL
ロチェスター工科大には8つの教育研究組織がある。	ろちぇすたーこーかだいにわやっつのきょーいくけんきゅーそしきがある。	NO_LABEL
