ビッグ・バイユー・カノー列車事故とは、1993年9月22日午前2時53分にアムトラックのサンセット・リミテッドがアメリカ合衆国アラバマ州モービルの北東にあるCSXTのビッグ・バイユー・カノー橋で脱線し、47人が死亡、103人が負傷した事故である。	NO_PRONOUNCE	NO_LABEL
この事故はアムトラックの歴史で最悪な鉄道事故であり、アメリカ合衆国では1958年のニューアーク湾鉄道事故以来の最悪の鉄道事故である。	このじこわあむとらっくのれきしでさいあくなてつどーじこであり、あめりかがっしゅーこくでわせんきゅうひゃくごじゅうはちねんのにゅーあーくわんてつどーじこいらいのさいあくのてつどーじこである。	NO_LABEL
有名なカルヴァン主義作家・神学者のロバート・チャールズ・スプロールは事故当時乗客の1人であり、しばしばこの事故の体験談を話す。	NO_PRONOUNCE	NO_LABEL
ナショナルジオグラフィックチャンネルのドキュメンタリー番組、衝撃の瞬間の「アムトラック列車事故」でこの事故を詳細に検証している。	NO_PRONOUNCE	NO_LABEL
ロサンゼルス発マイアミ行のサンセット・リミテッドは午前2時53分にビッグ・バイユー・カノー橋を通過した。	NO_PRONOUNCE	NO_LABEL
この時、直前の事故で橋上のレールが激しく歪んでいたがブレーキが間に合わなかった。	このとき、ちょくぜんのじこではしがみのれーるがはげしくいがんでいたがぶれーきがまにあわなかった。	NO_LABEL
サンセット・リミテッドは時速70マイルで衝突し、その衝撃で橋桁が崩壊し水没した。	NO_PRONOUNCE	NO_LABEL
1両目の機関車は脱線し先頭から対岸の堤防に突っ込み、2〜3両目の機関車、貨車、寝台車、客車6両のうち2両が橋から水面に落下した。	NO_PRONOUNCE	NO_LABEL
死者47人のほとんどは溺死であったが、機関車の燃料が漏れて広範囲に飛び散って火災を起こした為、数名は火災や煙により亡くなった。	ししゃよんじゅうしちにんのほとんどわできしであったが、きかんしゃのねんりょーがもれてこーはんいにとびちってかさいをおこしたため、すーめいわかさいやけむりによりなくなった。	NO_LABEL
事故の原因は、	じこのげんいんわ、	NO_LABEL
である。	である。	NO_LABEL
列車事故8分前の午前2時45分にタグボートに推進されたはしけがビッグ・バイユー・カノー橋の橋脚と衝突する事故が発生した。	NO_PRONOUNCE	NO_LABEL
ビッグ・バイユー・カノー橋は、旋回橋への改造を見越して橋桁が回転する様に設計されていた。	NO_PRONOUNCE	NO_LABEL
しかし、可動する橋桁が適切に固定されていなかったため、はしけの衝突によって橋桁が3フィート回転し、レールが激しく歪んでしまった。	NO_PRONOUNCE	NO_LABEL
この事故では溶接されたレールが寸断されなかったため、信号は青のままになってしまった。	このじこでわよーせつされたれーるがすんだんされなかったため、しんごーわあおのままになってしまった。	NO_LABEL
もしレールが寸断されていれば信号が赤になり、列車を急停止させるか減速し事故を最少化する事が出来たと考えられている。	もしれーるがすんだんされていればしんごーがあかになり、れっしゃをきゅーていしさせるかげんそくしじこをさいしょーかすることができたとかんがえられている。	NO_LABEL
事故を起こしたタグボートの操舵士は経験不足でレーダーの見方が分からなかった上、コンパスや海図も無かった。	じこをおこしたたぐぼーとのそーだしわけいけんふそくでれーだーのみかたがわからなかったうえ、こんぱすやかいずもなかった。	NO_LABEL
それに当時出ていた濃い霧も合わさり操舵士は現在の方角を完全に見失っていた。	それにとーじでていたこいきりもあわさりそーだしわげんざいのほーがくをかんぜんにみうしなっていた。	NO_LABEL
また、このボートにはベテランの操舵士も居たが交代し睡眠中であったためミスの指摘や航行の補助などが出来なかった。	また、このぼーとにわべてらんのそーだしもいたがこーたいしすいみんちゅーであったためみすのしてきやこーこーのほじょなどができなかった。	NO_LABEL
そして本来の航行ルートであるモービル川と航行禁止の運河の分岐点で濃い霧により航路を誤り運河に進入した。	そしてほんらいのこーこーるーとであるもーびるがわとこーこーきんしのうんがのぶんきてんでこいきりによりこーろをあやまりうんがにしんにゅーした。	NO_LABEL
しかし操舵士はモービル川を正確に航行していると勘違いしていたため、レーダーに映る橋を他のタグボードと誤認しそのまま進行し橋脚に衝突した。	しかしそーだしわもーびるがわをせいかくにこーこーしているとかんちがいしていたため、れーだーにうつるはしをたのたぐぼーどとごにんしそのまましんこーしきょーきゃくにしょーとつした。	NO_LABEL
ナショナルジオグラフィックチャンネルのドキュメンタリー「衝撃の瞬間」では、「列車の運行はルイジアナ州ニューオリンズでエアコン修理の為30分遅延していた。	NO_PRONOUNCE	NO_LABEL
もし、この遅延がなかったら、列車は船が衝突する20分前に無事通過出来ていた」としている。	NO_PRONOUNCE	NO_LABEL
鉄道事故のうち、列車が橋と衝突した事故を記す。	てつどーじこのうち、れっしゃがはしとしょーとつしたじこをしるす。	NO_LABEL
