山下 敬大は福岡県田川郡出身のサッカー選手。	やましたけいたわふくおかけんたがわぐんしゅっしんのさっかーせんしゅ。	NO_LABEL
Jリーグ・所属。	NO_PRONOUNCE	NO_LABEL
ポジションはFW/MF。	NO_PRONOUNCE	NO_LABEL
九州国際大学付属高校では2年でチームのエースナンバー14を背負い、3年次には主将を務める。	NO_PRONOUNCE	NO_LABEL
卒業後は福岡大学に進学し、サッカー部に入部するが、1年生の夏に股関節手術、2年生のインカレ前に半月板損傷、3年生に軟骨の手術を行うなど相次ぐ怪我に苦しむが、大学最後の試合となった第66回全日本大学サッカー選手権大会準々決勝・流通経済大学では主将として2ゴールを挙げるなど意地を見せた。	NO_PRONOUNCE	NO_LABEL
2018年、に加入。	にせんじゅうはちねん、にかにゅー。	NO_LABEL
開幕戦で途中交代出場した。	かいまくせんでとちゅーこーたいしゅつじょーした。	NO_LABEL
 || ||colspan="2"|-|| || || ||	NO_PRONOUNCE	NO_LABEL
