ステファン・ウォーカーは、スイス・シオン出身のフィギュアスケート選手。	NO_PRONOUNCE	NO_LABEL
スイスフィギュアスケート選手権優勝4回。	すいすふぃぎゅあすけーとせんしゅけんゆーしょーよんかい。	NO_LABEL
2013-2014シーズン、世界選手権に初出場し、FS進出を果たした。	NO_PRONOUNCE	NO_LABEL
6月に右足の手術をおこない、10週間ギプスを巻いて生活した。	ろくがつにみぎあしのしゅじゅつをおこない、じゅっしゅーかんぎぷすをまいてせいかつした。	NO_LABEL
2014-2015シーズン、11月中旬に練習を再開。	NO_PRONOUNCE	NO_LABEL
欧州選手権と世界選手権に出場するも、FS進出は逃した。	おーしゅーせんしゅけんとせかいせんしゅけんにしゅつじょーするも、えふえすしんしゅつわのがした。	NO_LABEL
2015年12月、コーチをフランカ・ビアンコニに変更し、練習拠点をイタリアのセスト・サン・ジョヴァンニに移した。	NO_PRONOUNCE	NO_LABEL
