梶が谷駅は、神奈川県川崎市高津区末長一丁目にある、東京急行電鉄田園都市線の駅である。	かじがやえきわ、かながわけんかわさきしたかつくすえながいっちょーめにある、とーきょーきゅーこーでんてつでんえんとしせんのえきである。	NO_LABEL
駅番号はDT11。	NO_PRONOUNCE	NO_LABEL
島式ホーム2面4線を持つ地上駅で、ホーム上に橋上駅舎を有する。	NO_PRONOUNCE	NO_LABEL
ただし、駅の所在地が全体として谷間になっており、駅舎・改札口は駅前道路と同一平面で接し、ホームは1階分ほど低くなっている。	NO_PRONOUNCE	NO_LABEL
一部の各駅停車は当駅で急行および準急の通過待ちを行う。	いちぶのかくえきていしゃわとーえきできゅーこーおよびじゅんきゅーのつーかまちをおこなう。	NO_LABEL
下り線は、1番線は急行列車および通過待ちのない各駅停車が、2番線は通過待ちを行う各駅停車が使用する。	くだりせんわ、いちばんせんわきゅーこーれっしゃおよびつーかまちのないかくえきていしゃが、にばんせんわつーかまちをおこなうかくえきていしゃがしよーする。	NO_LABEL
上り線は、3番線はすべての各駅停車、4番線は急行・準急列車が使用する。	NO_PRONOUNCE	NO_LABEL
上下線ともにホームが大きく湾曲しているため、列車の客用扉を閉める時や発車のときには、車掌によるモニター監視ではなく、駅の信号扱所内にいる駅員がホームをモニターで監視し、車掌に戸閉め・発車の合図を送っている。	NO_PRONOUNCE	NO_LABEL
そのための表示灯設備が5両・8両・10両編成の最後尾付近の柱にある。	NO_PRONOUNCE	NO_LABEL
2007年の駅改良工事により、4番線は通過専用線に変更された。	にせんななねんのえきかいりょーこーじにより、よんばんせんわつーかせんよーせんにへんこーされた。	NO_LABEL
乗客から完全に分離するため、ホーム上には安全柵が設置されている。	じょーきゃくからかんぜんにぶんりするため、ほーむじょーにわあんぜんしがらみがせっちされている。	NO_LABEL
方面標識には「ご乗車になれません」と表記され、黄色い点字ブロックも撤去された。	NO_PRONOUNCE	NO_LABEL
列車案内表示板の4番線についての案内や自動アナウンスも廃止され、列車通過時は列車案内表示板に「4番線に電車がまいります。	NO_PRONOUNCE	NO_LABEL
」表示と警告音の鳴動のみに変更された。	NO_PRONOUNCE	NO_LABEL
宮崎台寄りには引き上げ線がある。	みやざきだいよりにわひきあげせんがある。	NO_LABEL
かつては当駅止まりの電車も設定されていたが、2009年現在は世田谷区たまがわ花火大会・川崎市制記念多摩川花火大会の臨時列車運行時と大井町線車両の留置に伴う折り返しなどに使用される。	NO_PRONOUNCE	NO_LABEL
これに先行して駅舎の拡大とバリアフリー対応工事が施工された。	これにせんこーしてえきしゃのかくだいとばりあふりーたいおーこーじがしこーされた。	NO_LABEL
駅舎が中央林間側に拡幅され、拡幅した位置にホームへのエレベーターが、また駅舎内に店舗が、駅舎下のホーム部分にトイレが新設された。	えきしゃがちゅーおーりんかんがわにかくふくされ、かくふくしたいちにほーむえのえれべーたーが、またえきしゃないにてんぽが、えきしゃかのほーむぶぶんにといれがしんせつされた。	NO_LABEL
バスターミナルは以前はバスの転回所であったものを再整備したものである。	ばすたーみなるわいぜんわばすのてんかいしょであったものをさいせいびしたものである。	NO_LABEL
二子玉川 - 溝の口間の複々線化に伴う大井町線梶が谷車庫の建設に合わせ、駅改良工事が実施された。	NO_PRONOUNCE	NO_LABEL
2007年5月2日までは上り線も下り線と同じく外側4番線が急行通過待ちのない各駅停車、内側3番線が通過待ちをする各駅停車が使用する、という形態であった。	にせんななねんごがつふつかまでわのぼりせんもくだりせんとおなじくそとがわよんばんせんがきゅーこーつーかまちのないかくえきていしゃ、うちがわさんばんせんがつーかまちをするかくえきていしゃがしよーする、とゆうけいたいであった。	NO_LABEL
大井町線の急行運転開始に伴い、4番線の宮崎台寄りに大井町線の梶が谷車庫が設置された。	おーいまちせんのきゅーこーうんてんかいしにともない、よんばんせんのみやざきだいよりにおーいまちせんのかじがやしゃこがせっちされた。	NO_LABEL
大井町線の急行用車両が留置される。	おーいまちせんのきゅーこーよーしゃりょーがりゅーちされる。	NO_LABEL
なお、この車庫の線路は4番線の中途から分岐しており、1 - 3番線からは入線できない構造になっている。	NO_PRONOUNCE	NO_LABEL
2006年6月28日、東急所属車両12編成と東京地下鉄所属車両4編成に接触痕があることが発覚した。	NO_PRONOUNCE	NO_LABEL
調査の結果、当駅の2番線に接触痕があり、ホームと接触していたことが明らかとなった。	ちょーさのけっか、とーえきのにばんせんにせっしょくこんがあり、ほーむとせっしょくしていたことがあきらかとなった。	NO_LABEL
さらに原因が追及された結果、カーブ上にある当駅2番線のカントが設定より緩いことと、レールの水平方向へのズレが原因であったことが判明した。	さらにげんいんがついきゅーされたけっか、かーぶじょーにあるとーえきにばんせんのかんとがせっていよりゆるいことと、れーるのすいへいほーこーえのずれがげんいんであったことがはんめいした。	NO_LABEL
その後、これらはすべて修正されている。	そのご、これらわすべてしゅーせいされている。	NO_LABEL
2016年度の1日平均乗降人員は39,551人である。	NO_PRONOUNCE	NO_LABEL
近年の1日平均乗降人員と乗車人員の推移は下表の通り。	きんねんのついたちへいきんじょーこーじんいんとじょーしゃじんいんのすいいわかひょーのとーり。	NO_LABEL
当駅は、多摩田園都市の入口に当たる駅である。	とーえきわ、たまがわでんえんとしのいりぐちにあたるえきである。	NO_LABEL
そのため、駅周辺には田園都市線開通以後の開発によって建てられた住宅地が広がる。	そのため、えきしゅーへんにわでんえんとしせんかいつーいごのかいはつによってたてられたじゅーたくちがひろがる。	NO_LABEL
駅周辺にはマンションも多く、全体として新興住宅地の中の駅という体をなしている。	えきしゅーへんにわまんしょんもおーく、ぜんたいとしてしんこーじゅーたくちのなかのえきとゆうからだをなしている。	NO_LABEL
駅横に小規模なバスターミナルが設けられている。	えきよこにしょーきぼなばすたーみなるがもーけられている。	NO_LABEL
1960年に免許された際の仮称駅名は「梶ヶ谷」だった。	NO_PRONOUNCE	NO_LABEL
これは古くから伝わる駅所在地の名を採ったものとされている。	これわふるくからつたわるえきしょざいちのなをとったものとされている。	NO_LABEL
そして、1965年9月の常務会で「梶が谷」に正式に決定した。	NO_PRONOUNCE	NO_LABEL
