ユダヤ民族軍事機構は、ユダヤ人の武装組織。	ゆだやみんぞくぐんじきこーわ、ゆだやじんのぶそーそしき。	NO_LABEL
ヘブライ語の略称「エツェル」と呼ばれるのが一般的。	NO_PRONOUNCE	NO_LABEL
ちなみに「イルグン」とはヘブライ語の一般名詞で「組織、機構」という意がある。	NO_PRONOUNCE	NO_LABEL
イシューブの軍事組織ハガナーから脱退した対アラブ強硬派により結成され、そのため「ハガナー・ベート」とも呼ばれた。	NO_PRONOUNCE	NO_LABEL
シオニズムの中でも領土の拡大維持を重視し理想主義的な修正主義シオニズムの流れを汲む。	しおにずむのなかでもりょーどのかくだいいじをじゅーししりそーしゅぎてきなしゅーせいしゅぎしおにずむのながれをくむ。	NO_LABEL
そのために現実的なシオニズム本流の「指導部」からは疎まれ、また危険視すらされた。	NO_PRONOUNCE	NO_LABEL
エツェルは1931年に創設。	えつぇるわせんきゅうひゃくさんじゅういちねにそーせつ。	NO_LABEL
指導者はゼエヴ・ジャボチンスキーであったが、彼の死後は後にイスラエル首相となるメナヘム・ベギンが後継者となった。	NO_PRONOUNCE	NO_LABEL
パレスチナ内戦および第一次中東戦争では主流派ハガナーによるアラブ人住民追放計画の一端を担い、デイル・ヤシーン事件などアラブ人住民の虐殺も起こした。	NO_PRONOUNCE	NO_LABEL
ハガナー主体のイスラエル国防軍への指揮系統統一に反対し、最終的に国防軍に制圧された。	はがなーしゅたいのいすらえるこくぼーぐんえのしきけいとーとーいつにはんたいし、さいしゅーてきにこくぼーぐんにせいあつされた。	NO_LABEL
