ノーマン・エリック・カークは、ニュージーランドの政治家。	NO_PRONOUNCE	NO_LABEL
第29代首相。	だいにじゅうきゅうだいしゅしょー。	NO_LABEL
ワイマテ生まれ。	わいまてうまれ。	NO_LABEL
学業が思わしくなく13歳で学校を卒業後、鉄道職員などを務める。	がくぎょーがおもわしくなくじゅうさんさいでがっこーをそつぎょーご、てつどーしょくいんなどをつとめる。	NO_LABEL
地理と歴史に興味を持ち、図書館に通い独学する。	ちりとれきしにきょーみをもち、としょかんにかよいどくがくする。	NO_LABEL
カークの地理と歴史に対する興味はその後、国際問題、外交問題への関心につながる。	かーくのちりとれきしにたいするきょーみわそのご、こくさいもんだい、がいこーもんだいえのかんしんにつながる。	NO_LABEL
1941年に兵役に就くも、健康状態が思わしくなく、その後いくつかの職に就く。	せんきゅうひゃくよんじゅういちねにへいえきにつくも、けんこーじょーたいがおもわしくなく、そのごいくつかのしょくにつく。	NO_LABEL
20歳で結婚し、その後5人の子どもをもうける。	にじゅっさいでけっこんし、そのごごにんのこどもをもーける。	NO_LABEL
同年ニュージーランド労働党へ入党し、労働党のカイアポイ事務所に勤める。	どーねんにゅーじーらんどろうどうとーえにゅーとーし、ろーどーとーのかいあぽいじむしょにつとめる。	NO_LABEL
自宅を自ら建て、井戸も自力で掘った。	じたくをみずからだて、いどもじりきでほった。	NO_LABEL
カークの建てた家は現存し、地元の名所でもある。	かーくのたてたいえわげんそんし、じもとのめいしょでもある。	NO_LABEL
1953年にカイアポイ市長に当選し、ニュージーランドの最年少市長となる。	せんきゅうひゃくごじゅうさんねんにかいあぽいしちょーにとーせんし、にゅーじーらんどのさいねんしょーしちょーとなる。	NO_LABEL
1957年にリトルトン地区から出馬し国会議員になる。	せんきゅうひゃくごじゅうしちねんにりとるとんちくからしゅつばしこっかいぎーんになる。	NO_LABEL
労働党内で次第に影響力を強め、1963年に副党首、1964年に党首に就任する。	ろーどーとーないでしだいにえいきょーりょくをつよめ、せんきゅうひゃくろくじゅうさんねんにふくとーしゅ、せんきゅうひゃくろくじゅうよねんにとーしゅにしゅーにんする。	NO_LABEL
1972年の総選挙で勝利し、第29代首相に就任する。	せんきゅうひゃくななじゅうにねんのそーせんきょでしょーりし、だいにじゅうきゅうだいしゅしょーにしゅーにんする。	NO_LABEL
首相就任後はとりわけ外交問題に尽力し、アジア諸国とアフリカ諸国との連携に力を発揮した。	しゅしょーしゅーにんごわとりわけがいこーもんだいにじんりょくし、あじあしょこくとあふりかしょこくとのれんけいにちからをはっきした。	NO_LABEL
1972年にフランスによる大気圏内核実験に反対し、ニュージーランドとオーストラリアは国際司法裁判所へ提訴する。	せんきゅうひゃくななじゅうにねんにふらんすによるたいきけんないかくじっけんにはんたいし、にゅーじーらんどとおーすとらりあわこくさいしほーさいばんしょえていそする。	NO_LABEL
1973年には南太平洋のムルロア環礁へニュージーランド海軍の艦船を派遣し、核実験に対する抗議行動を起こす。	せんきゅうひゃくななじゅうさんねんにわみなみたいへいよーのむるろあかんしょーえにゅーじーらんどかいぐんのかんせんをはけんし、かくじっけんにたいするこーぎこーどーをおこす。	NO_LABEL
また、南アフリカ共和国のアパルトヘイトに反対し、南アフリカのラグビーチーム訪問を拒否した。	また、みなみあふりかきょーわこくのあぱるとへいとにはんたいし、みなみあふりかのらぐびーちーむほーもんをきょひした。	NO_LABEL
1974年ごろから心臓に病をもち、休暇をとるようになるも仕事量は落とさなかった。	せんきゅうひゃくななじゅうよねんごろからしんぞーにやまいをもち、きゅーかをとるよーになるもしごとりょうわおとさなかった。	NO_LABEL
同年8月下旬に病状が悪化し入院するも、その3日後に死去する。	どーねんはちがつげじゅんにびょーじょーがあっかしにゅーいんするも、そのみっかごにしきょする。	NO_LABEL
同年9月6日に国葬が執り行われる。	どーねんくがつむいかにこくそーがとりおこなわれる。	NO_LABEL
ノーマンの死後、ヒュー・ワットが代理首相に就任した。	NO_PRONOUNCE	NO_LABEL
