ストラタステクノロジーは、主に無停止コンピュータを製造・販売するアメリカ合衆国の企業である。	NO_PRONOUNCE	NO_LABEL
1980年にストラタスコンピュータとして設立され、1999年に現在の社名に変更された。	せんきゅうひゃくはちじゅうねんにすとらたすこんぴゅーたとしてせつりつされ、せんきゅうひゃくきゅうじゅうきゅうねんにげんざいのしゃめいにへんこーされた。	NO_LABEL
日本法人として日本ストラタステクノロジー株式会社を持つ。	にほんほーじんとしてにっぽんすとらたすてくのろじーかぶしきがいしゃをもつ。	NO_LABEL
ストラタスコンピューターはフォールトトレラント設計のミニコンピュータ製品を製造・販売している。	NO_PRONOUNCE	NO_LABEL
当時の競合相手はタンデムコンピューターズとDECのVAXミニコンピュータであった。	NO_PRONOUNCE	NO_LABEL
また1985年から1993年まで、IBMからSystem/88の名称で再販された。	NO_PRONOUNCE	NO_LABEL
2009年現在はftServerシリーズ、Continuumシリーズなどを製造・販売している。	NO_PRONOUNCE	NO_LABEL
ストラタスコンピューターは1980年に米国マサチューセッツ州で設立され、銀行や証券会社などの金融サービス会社を伝統的な市場とした。	すとらたすこんぴゅーたーわせんきゅうひゃくはちじゅうねんにべいこくまさちゅーせっつしゅーでせつりつされ、ぎんこーやしょーけんがいしゃなどのきんゆーさーびすかいしゃをでんとーてきなしじょーとした。	NO_LABEL
1990年代の初頭にはネットワーク管理や顧客サービスなどの通信産業にも参入し、その収益は企業向けコンピュータを上回ったため、Ascend Communicationsによる買収につながった。	NO_PRONOUNCE	NO_LABEL
企業向けサーバ部門はAscendに僅かの利益したもたらさなかったため、1999年に売却され、国際投資会社のInvestcorpの出資を受け、ストラタステクノロジーとなった。	NO_PRONOUNCE	NO_LABEL
現在のストラタステクノロジーは、投資家のInvestcorpやMidOcean Partners、インテルや日本電気などが出資している。	NO_PRONOUNCE	NO_LABEL
最初の製品ラインはモトローラのMC68000プロセッサーをベースとしていたが、次にはIntel i860、最後にはヒューレット・パッカードのPA-RISCに移行した。	NO_PRONOUNCE	NO_LABEL
より最近のシステムでは、インテルのプロセッサーをベースとし、オペレーティングシステムとして独自のVOS、Microsoft Windows 2003、Linuxを稼働させている。	NO_PRONOUNCE	NO_LABEL
VOSはMulticsから多くの特徴を受け継ぎ、拡張を続けて現在のストラタスのサーバ用のオペレーティングシステムとなっている。	NO_PRONOUNCE	NO_LABEL
なおストラタスはFTXと呼ばれるオリジナルのUNIXをベースとしたUNIX製品も持っていたが、既に販売を停止している。	NO_PRONOUNCE	NO_LABEL
ストラタスはVOSを搭載したV-series ftServersを発売し、2006年8月までにRed Hat Enterprise Linuxを搭載したT-series ftServers、Windows Server 2003を搭載したW-series ftServersを発売した。	NO_PRONOUNCE	NO_LABEL
2006年にはストラタスはテキサス州のEmergent Network Solutionsを買収した。	NO_PRONOUNCE	NO_LABEL
EmergentサーバのアプリケーションであるENTICEは、ストラタスの通信ソリューションの基盤となった。	NO_PRONOUNCE	NO_LABEL
ストラタスは最近は仮想化製品であるStratus Avanceも提供している。	NO_PRONOUNCE	NO_LABEL
Avanceは高可用性のバーチャルマシンをまたがるアプリケーション開発を可能にする。	NO_PRONOUNCE	NO_LABEL
ストラタスの存在感は、フェニックス、アリゾナ州、メリーランド州、マサチューセッツ州などでは大きいが、他の州や日本を含む諸国では小さい。	すとらたすのそんざいかんわ、ふぇにっくす、ありぞなしゅー、めりーらんどしゅー、まさちゅーせっつしゅーなどでわおーきいが、たのしゅーやにっぽんをふくむしょこくでわちーさい。	NO_LABEL
ストラタスは巨大な顧客ベースを持っているが、銀行、救急センター、警察、消防署、病院、医療施設、政府、クレジットカード会社、証券会社、通信電話会社、インターネットプロバイダーなどが多い。	すとらたすわきょだいなこきゃくべーすをもっているが、ぎんこー、きゅーきゅーせんたー、けいさつ、しょーぼーしょ、びょーいん、いりょーしせつ、せいふ、くれじっとかーどがいしゃ、しょーけんがいしゃ、つーしんでんわかいしゃ、いんたーねっとぷろばいだーなどがおーい。	NO_LABEL
2009年1月現在では、主に以下のサーバーを販売している。	にせんきゅうねんいちがつげんざいでわ、おもにいかのさーばーをはんばいしている。	NO_LABEL
