シェクターはアメリカ合衆国カリフォルニア州のギターやベースを主に製造する楽器メーカー。	しぇくたーわあめりかがっしゅーこくかりふぉるにあしゅーのぎたーやべーすをおもにせいぞーするがっきめーかー。	NO_LABEL
傘下部署として日本国内にダイアモンドシリーズの輸入代理店業務と日本製シェクターギターの企画販売を行うシェクタージャパンが存在する。	かさかぶしょとしてにほんこくないにだいあもんどしりーずのゆにゅーだいりてんぎょーむとにほんせいしぇくたーぎたーのきかくはんばいをおこなうしぇくたーじゃぱんがそんざいする。	NO_LABEL
1976年にデヴィッド・シェクターにより設立され、一時期はペンサやサドウスキーのボディやネックの製造下請け会社として名を馳せていた。	NO_PRONOUNCE	NO_LABEL
1976年、デヴィッド・シェクターはカリフォルニア州ヴァンナイズにリペアショップとしてシェクター・ギター・リサーチをオープン。	NO_PRONOUNCE	NO_LABEL
質素なリペアショップで交換用のネック、ボディ、ピックアップ、ブリッジ、ピックガード、ペグ、ノブ、ポテンショメータ、その他様々なギターパーツを製造した。	しっそなりぺあしょっぷでこーかんよーのねっく、ぼでぃ、ぴっくあっぷ、ぶりっじ、ぴっくがーど、ぺぐ、のぶ、ぽてんしょめーた、そのたさまざまなぎたーぱーつをせいぞーした。	NO_LABEL
結局、ギターを作るのに必要なすべてのパーツを製造するようになり、これらの部品はフェンダーやギブソンといった大メーカー、またはシェクターのパーツでギターを組み立てる小規模なカスタムショップへと供給された。	けっきょく、ぎたーをつくるのにひつよーなすべてのぱーつをせいぞーするよーになり、これらのぶひんわふぇんだーやぎぶそんといっただいめーかー、またわしぇくたーのぱーつでぎたーをくみたてるしょーきぼなかすたむしょっぷえときょーきゅーされた。	NO_LABEL
1970年代後半までに400種類以上ものギターパーツを供給したが、完成品の楽器を供給することは無かった。	NO_PRONOUNCE	NO_LABEL
1979年、シェクターははじめて完成品のエレクトリックギターを供給した。	せんきゅうひゃくななじゅうきゅうねん、しぇくたーわはじめてかんせいひんのえれくとりっくぎたーをきょーきゅーした。	NO_LABEL
フェンダーのデザインをベースにしたカスタムショップモデルである。	ふぇんだーのでざいんをべーすにしたかすたむしょっぷもでるである。	NO_LABEL
これらは高品質かつ高価格で、全米で20の小売業者でしか取り扱われなかった。	NO_PRONOUNCE	NO_LABEL
1979年9月、ザ・フーのピート・タウンゼントのギターテック、アラン・ローガンが彼のためにシェクターカスタムショップ製のギターを入手した。	NO_PRONOUNCE	NO_LABEL
それはテレキャスタースタイルのギターに2基のハムバッカーを載せレスポールタイプのピックアップセレクターを採用したものである。	それわてれきゃすたーすたいるのぎたーににきのはむばっかーをのせれすぽーるたいぷのぴっくあっぷせれくたーをさいよーしたものである。	NO_LABEL
タウンゼントはすぐにそれが気に入り、ステージ用のメインギターにした。	たうんぜんとわすぐにそれがきにいり、すてーじよーのめいんぎたーにした。	NO_LABEL
彼はその後も類似のギターを入手したが、これはシェクター製のパーツを使い、シェクター及びイギリスのギター職人ロジャー・ギフィンが組み上げたものであった。	NO_PRONOUNCE	NO_LABEL
タウンゼントはこれらのシェクター・ギターを1985年のライヴ・エイド後まで使用した。	NO_PRONOUNCE	NO_LABEL
1980年、ダイアー・ストレイツのマーク・ノップラーはシェクターのストラトキャスタータイプのギターをバンドのアルバム『メイキング・ムーヴィーズ』の録音に使用。	NO_PRONOUNCE	NO_LABEL
ノップラーは多数のシェクター・ギターを所有している。	NO_PRONOUNCE	NO_LABEL
2004年には彼のシェクターのうちの1本、タバコサンバースト仕上げのストラトキャスタータイプがエリック・クラプトンの「クロスロード・センター」運営資金のために開催されたクリスティーズのオークションにマーク・ノップラー本人から出品され、5万ドル以上で落札された。	NO_PRONOUNCE	NO_LABEL
これはシェクターのギターに付けられた最高値である。	これわしぇくたーのぎたーにつけられたさいたかねである。	NO_LABEL
1983年までにシェクターの生産能力は限界に達し、需要に応じることが出来ない状況になっていった。	せんきゅうひゃくはちじゅうさんねんまでにしぇくたーのせいさんのーりょくわげんかいにたっし、じゅよーにおーじることができないじょーきょーになっていった。	NO_LABEL
同年、同社の名声に目をつけたテキサスの投資家グループに買収され創業者であり社長であったデヴィッド・シェクターが解雇される。	NO_PRONOUNCE	NO_LABEL
彼らによって会社はテキサス州ダラスに移されたが、トム・アンダーソンを始めとする従来からのシェクターの従業員の多くはそれについて行かなかった。	かれらによってかいしゃわてきさすしゅーだらすにうつされたが、とむあんだーそんをはじめとするじゅーらいからのしぇくたーのじゅーぎょーいんのおーくわそれについていかなかった。	NO_LABEL
結果、この時期には貧弱なデザインアイディアと製品しか産み出されなかった。	けっか、このじきにわひんじゃくなでざいんあいでぃあとせいひんしかうみだされなかった。	NO_LABEL
テキサスのオーナーの元でシェクター名義のギターが量産された期間は5年に満たない。	てきさすのおーなーのもとでしぇくたーめいぎのぎたーがりょーさんされたきかんわごねんにみたない。	NO_LABEL
同時期シェクターはすべての生産がストップしていたため、当時は公表されていなかったがボディ、ネック、ブリッジ、チューナーは日本で生産されていた。	どーじきしぇくたーわすべてのせいさんがすとっぷしていたため、とーじわこーひょーされていなかったがぼでぃ、ねっく、ぶりっじ、ちゅーなーわにっぽんでせいさんされていた。	NO_LABEL
その頃シェクターをプロデュースしていたのはハリウッドでギター・リペアショップを経営していたジョー・ユーである。	NO_PRONOUNCE	NO_LABEL
1984年のNAMMショーでシェクターは12種の新しいギターとベースを紹介、すべてフェンダーデザインを元にしたものであった。	せんきゅうひゃくはちじゅうよねんのえぬえいえむえむしょーでしぇくたーわじゅうにしゅのあたらしいぎたーとべーすをしょーかい、すべてふぇんだーでざいんをもとにしたものであった。	NO_LABEL
このうち最も有名な物はピート・タウンゼントが使ったテレキャスタータイプに似たモデルで、非公式に「ピート・タウンゼント・モデル」と呼ばれる物である。	NO_PRONOUNCE	NO_LABEL
この頃シェクターはイングヴェイ・マルムスティーンとのエンドーサー契約にこぎつけ、スキャロップド・ネックとリヴァース・ヘッドが特徴のカスタムギターをマルムスティーン用に作成した。	NO_PRONOUNCE	NO_LABEL
1985年デュランデュランを脱退しパワーステーションを結成したアンディ・テイラーがトレムロックのブリッジでボディ、ネック塗装にハードウエアもオールブラックのストラトモデルを使用していて来日公演の時もそれを使用、シェクターのスタッフがサポートした。	せんきゅうひゃくはちじゅうごねんでゅらんでゅらんをだったいしぱわーすてーしょんをけっせいしたあんでぃていらーがとれむろっくのぶりっじでぼでぃ、ねっくとそーにはーどうえあもおーるぶらっくのすとらともでるをしよーしていてらいにちこーえんのときもそれをしよー、しぇくたーのすたっふがさぽーとした。	NO_LABEL
同時期シャカタクのキース・ウィンターも来日公演の時渋谷区恵比寿にあったシェクター工房を訪れオール・ウォルナット仕様のストラトモデルをリペアしている。	NO_PRONOUNCE	NO_LABEL
中野サンプラザ公演の時にシェクタースタッフがサポートした。	なかのさんぷらざこーえんのときにしぇくたーすたっふがさぽーとした。	NO_LABEL
「ピート・タウンゼント・モデル」は最終的に「サターン」となり、ストラトキャスタータイプのギターは「スコーチャー」と呼ばれるようになる。	NO_PRONOUNCE	NO_LABEL
新デザイン、低価格、シェクターギターの生産量の多さにも関わらず、テキサスオーナーの生産する低品質ギターは幅広い興味の対象とはならなかった。	しんでざいん、ていかかく、しぇくたーぎたーのせいさんりょーのおーさにもかかわらず、てきさすおーなーのせいさんするていひんしつぎたーわはばひろいきょーみのたいしょーとわならなかった。	NO_LABEL
1985年ジョー・ユーは過去のバンドメンバーだった渡辺一歩を誘いC&Jコーポレーションとしてシェクターの日本国内製造販売をスタートさせる。	NO_PRONOUNCE	NO_LABEL
当時はまだ閉鎖されたとは言え、ダラスでは全く使用されなかったのでヴァンナイズの工房、下請けにはかなりの数量のパーツが在庫としてあった。	NO_PRONOUNCE	NO_LABEL
ジョー・ユーはそのパーツ、ピックアップ・ハードウエア等を仕入れボディ・ネックは松本の下請けに依頼しスタッフを雇いまずは都内専門店から卸売を開始した。	NO_PRONOUNCE	NO_LABEL
1987年、テキサス投資家グループは会社を日本の企業家、渋谷尚武に売却。	せんきゅうひゃくはちじゅうななね、てきさすとーしかぐるーぷわかいしゃをにっぽんのきぎょーか、しぶやしょーぶにばいきゃく。	NO_LABEL
渋谷はハリウッドにミュージシャンズ・インスティテュートを所有し、ESPのオーナーでもある。	NO_PRONOUNCE	NO_LABEL
渋谷の所有下でシェクターはカリフォルニアに戻り、徐々に名声を取り戻し始める。	しぶやのしょゆーかでしぇくたーわかりふぉるにあにもどり、じょじょにめいせいをとりもどしはじめる。	NO_LABEL
渋谷は会社を原点のカスタムショップへと戻し、全ての努力をハイエンドなカスタム楽器の製造に注ぎ込んだ。	しぶやわかいしゃをげんてんのかすたむしょっぷえともどし、すべてのどりょくをはいえんどなかすたむがっきのせいぞーにそそぎこんだ。	NO_LABEL
シェクターのギターは再び僅かな小売店のみで入手可能になった。	しぇくたーのぎたーわふたたびわずかなこうりてんのみでにゅーしゅかのーになった。	NO_LABEL
その1つにハリウッドに店を構える、渋谷所有のサンセット・カスタム・ギターがある。	NO_PRONOUNCE	NO_LABEL
この店は後にシェクターの社長になるマイケル・シラヴォロが働いていた場所である。	NO_PRONOUNCE	NO_LABEL
1995年、シェクターはSシリーズのギターとベースを発表。	NO_PRONOUNCE	NO_LABEL
平均価格1,295ドルのフェンダータイプのギターである。	NO_PRONOUNCE	NO_LABEL
1996年に渋谷はシラヴォロに対し社長として会社を経営するよう要請した。	NO_PRONOUNCE	NO_LABEL
シラヴォロは自身も経験豊富なミュージシャンであり、ストーン・テンプル・パイロッツのロバート・ディレオやホワイト・ゾンビのジェイ・イェンガーとショーン・イスルート等、何人もの有名ミュージシャンとのエンドーサー契約を会社にもたらしていた。	NO_PRONOUNCE	NO_LABEL
シラヴォロはフェンダーのデザインを全く好まず、過去のフェンダースタイルのデザインから距離を置きたかった。	NO_PRONOUNCE	NO_LABEL
このため、彼はアヴェンジャー、ヘルキャット、テンペストといった製品をシェクターのカタログに加えた。	NO_PRONOUNCE	NO_LABEL
また、彼は大手メーカーに無視された若手ミュージシャンへ手を差し伸べたかった。	また、かれわおーてめーかーにむしされたわかてみゅーじしゃんえてをさしのべたかった。	NO_LABEL
しかし当時は高価なカスタムギターしか生産しておらず、会社の生産能力は月40本であった。	しかしとーじわこーかなかすたむぎたーしかせいさんしておらず、かいしゃのせいさんのーりょくわつきよんじゅっぽんであった。	NO_LABEL
彼は理想を実現するため、高品質を保ったままで大量生産が可能な工場を探し始めた。	かれわりそーをじつげんするため、こうひんしつをたもったままでたいりょーせいさんがかのーなこーじょーをさがしはじめた。	NO_LABEL
1997年、シラヴォロは東京ミュージックフェスティバルで何人ものアジアのギター製造者と会い、最終的に韓国の仁川にある工場に決定した。	NO_PRONOUNCE	NO_LABEL
ギターは韓国で製造し、アメリカに送られた後にシェクターショップでセットアップという工程を経る。	ぎたーわかんこくでせいぞーし、あめりかにおくられたのちにしぇくたーしょっぷでせっとあっぷとゆうこーていをへる。	NO_LABEL
そして1998年のNAMMショーで、シェクターは手頃な価格で非カスタムラインのダイヤモンドシリーズを発表した。	そしてせんきゅうひゃくきゅうじゅうはちねんのえぬえいえむえむしょーで、しぇくたーわてごろなかかくでひかすたむらいんのだいやもんどしりーずをはっぴょーした。	NO_LABEL
1999年には7弦ギター「A-7 アヴェンジャー」がダイヤモンドシリーズに追加された。	NO_PRONOUNCE	NO_LABEL
また、パパ・ローチのミュージック・ビデオ、「ラスト・リゾート」でジェリー・ホートンが手にしお目見えしたC-1も発表された。	NO_PRONOUNCE	NO_LABEL
今日、シェクターは手頃な価格の非カスタムラインのギターをダイヤモンドシリーズとして量産しており、元来のシェクターのスタイルであるハンドメイド・カスタムギターの製造はカリフォルニア州のカスタムショップに於いて続けている。	NO_PRONOUNCE	NO_LABEL
アメリカのカリフォルニア州のカスタムショップ内で全てCNCで木工から組み込みまでを行うオーダーメイドシリーズ。	あめりかのかりふぉるにあしゅーのかすたむしょっぷないですべてしーえぬしーでもっこーからくみこみまでをおこなうおーだーめいどしりーず。	NO_LABEL
公式サイトでオーダーの見積もりや発注を受け付けている。	こーしきさいとでおーだーのみつもりやはっちゅーをうけつけている。	NO_LABEL
シャクタージャパンではこれらのシリーズの代理業務は行っていないため、これらの製品は日本国内では販売されていない。	しゃくたーじゃぱんでわこれらのしりーずのだいりぎょーむわおこなっていないため、これらのせいひんわにほんこくないでわはんばいされていない。	NO_LABEL
ダイヤモンドシリーズは1998年に発表され、すべて非カスタムの量産モデルから成る。	だいやもんどしりーずわせんきゅうひゃくきゅうじゅうはちねんにはっぴょーされ、すべてひかすたむのりょーさんもでるからなる。	NO_LABEL
このシリーズはデザイン的特徴を共有するさらに細かいグループに分類される。	このしりーずわでざいんてきとくちょーをきょーゆーするさらにこまかいぐるーぷにぶんるいされる。	NO_LABEL
シェクターはこのシリーズについては一切のカスタマイズ要求に応じないと公表しており、そのためダイヤモンドシリーズはすべて「あるがまま」で販売されている。	NO_PRONOUNCE	NO_LABEL
ダイヤモンド・シリーズのエレクトリックギターは以下。	NO_PRONOUNCE	NO_LABEL
ダイヤモンド・シリーズのエレクトリックベースは以下。	NO_PRONOUNCE	NO_LABEL
シェクター本社とは別にESP日本法人が手掛ける純日本製のギターシリーズ。	しぇくたーほんしゃとわべつにいーえすぴーにほんほーじんがてがけるじゅんにほんせいのぎたーしりーず。	NO_LABEL
創業当初、シェクターはワーモスやゴダンと同様で木材をギターの未塗装の状態までのボディやネックに加工し、メーカーやDIY用に販売する下請会社であった。	そーぎょーとーしょ、しぇくたーわわーもすやごだんとどーよーでもくざいをぎたーのみとそーのじょーたいまでのぼでぃやねっくにかこーし、めーかーやでぃーあいわいよーにはんばいするしたうけかいしゃであった。	NO_LABEL
こういった業者は大規模な加工施設を持たないリペアショップやエンドース契約を結んでいない駆け出しのギタリスト達に人気を博した。	こーいったぎょーしゃわだいきぼなかこーしせつをもたないりぺあしょっぷやえんどーすけいやくをむすんでいないかけだしのぎたりすとたちににんきをはくした。	NO_LABEL
そこに目をつけた株式会社ムーンギターズの制作部署のPGMが1978年にシェクターとライセンス契約を結び、	NO_PRONOUNCE	NO_LABEL
アメリカでシェクターのビルダーであったトム・アンダーソンがボディとネック、ピックアップを設計製造の元、日本のPGMで組み立てるというスタイルで『シェクター』ブランドのギターの販売を開始した。	NO_PRONOUNCE	NO_LABEL
通常のストラトではなく、ディンキーボディなどを積極的に採用し、より実用的な様々な機能を搭載していたことからスタジオミュージシャンなどの一定の層から人気を博し、シェクターブランドは買収されるまでの1983年まで続いた。	つーじょーのすとらとでわなく、でぃんきーぼでぃなどをせっきょくてきにさいよーし、よりじつよーてきなさまざまなきのーをとーさいしていたことからすたじおみゅーじしゃんなどのいっていのそーからにんきをはくし、しぇくたーぶらんどわばいしゅーされるまでのせんきゅうひゃくはちじゅうさんねんまでつずいた。	NO_LABEL
1984年以降は、新たにトム・アンダーソンと契約を結んだためシェクターからトム・アンダーソン・ジャパンブランドへと名前を変えるが、トム・アンダーソンが下請けを中止したため1987年頃に幕を閉じた。	NO_PRONOUNCE	NO_LABEL
渋谷がオーナーとなった1990年代頃から、ESP日本法人の元、再び日本市場向けに純国産シリーズのシェクタージャパンを開始する。	しぶやがおーなーとなったせんきゅうひゃくきゅうじゅうねんだいごろから、いーえすぴーにほんほーじんのもと、ふたたびにほんしじょーむけにじゅんこくさんしりーずのしぇくたーじゃぱんをかいしする。	NO_LABEL
かつてのシェクターのように主にディンキーボディを採用し、トム・アンダーソンとコラボし、ピックアップ供給を受けるなど高級ライン製品も売り出していた。	かつてのしぇくたーのよーにおもにでぃんきーぼでぃをさいよーし、とむあんだーそんとこらぼし、ぴっくあっぷきょーきゅーをうけるなどこーきゅーらいんせいひんもうりだしていた。	NO_LABEL
現在は東海楽器製造のOEMによる10万円代のギターとグループ会社のESP製造による30万円代の高級ラインを展開している。	げんざいわとーかいがっきせいぞーのおーいーえむによるじゅうまんえんだいのぎたーとぐるーぷかいしゃのいーえすぴーせいぞーによるさんじゅうまんえんだいのこーきゅーらいんをてんかいしている。	NO_LABEL
また、ESP製造によるオーダーメイドも受け付けている。	また、いーえすぴーせいぞーによるおーだーめいどもうけつけている。	NO_LABEL
エンドース契約では小林信一や凛として時雨、ナイトdeライトなどがいる。	えんどーすけいやくでわこばやししんいちやりんとしてしぐれ、ないとでらいとなどがいる。	NO_LABEL
シェクター・ジャパンシリーズの主な製品は以下の通り。	NO_PRONOUNCE	NO_LABEL
長年にわたりシェクターは多数の著名ミュージシャンを惹き付け、その多くとエンドース契約を結んできた。	ながねんにわたりしぇくたーわたすーのちょめいみゅーじしゃんをひきつけ、そのおーくとえんどーすけいやくをむすんできた。	NO_LABEL
一般的にシェクターのギターはヘヴィメタル、ハードロック、オルタナティブ・ロックのミュージシャンに支持されている。	NO_PRONOUNCE	NO_LABEL
以下にシェクターを使用/所有している著名ミュージシャンを挙げる。	NO_PRONOUNCE	NO_LABEL
