小川 和彦は、日本の英文学者。	おがわかずひこわ、にっぽんのえいぶんがくしゃ。	NO_LABEL
1960年、上智大学英文科卒。	せんきゅうひゃくろくじゅうねん、じょーちだいがくえいぶんかそつ。	NO_LABEL
1967年、東洋大学大学院博士課程中退。	せんきゅうひゃくろくじゅうななね、とーよーだいがくだいがくいんはかせかていちゅーたい。	NO_LABEL
和洋女子大学短大助教授、教授を経て、2002年に退職。	わよーじょしだいがくたんだいじょきょーじゅ、きょーじゅをへて、にせんにねんにたいしょく。	NO_LABEL
