圧着とは加圧によって接合する手法。	あっちゃくとわかあつによってせつごーするしゅほー。	NO_LABEL
金属や樹脂等を加圧することにより接合する。	きんぞくやじゅしとーをかあつすることによりせつごーする。	NO_LABEL
圧接とは異なり、必ずしも原子同士を融合させるとは限らない。	NO_PRONOUNCE	NO_LABEL
接合には専用の圧着工具を用いる。	せつごーにわせんよーのあっちゃくこーぐをもちいる。	NO_LABEL
圧着端子を使用して電線を接続する接続端子等に適用。	あっちゃくたんしをしよーしてでんせんをせつぞくするせつぞくたんしとーにてきよー。	NO_LABEL
同種または異種の材料同士を融点以下まで熱し加圧することにより塑性変形を起こさせ、双方の表面の接触によって接合・接着させる。	NO_PRONOUNCE	NO_LABEL
超音波振動の印加と加圧を併用して圧着する。	ちょーおんぱしんどーのいんかとかあつをへいよーしてあっちゃくする。	NO_LABEL
