星鹿村は、長崎県北松浦郡の星鹿半島にあった村。	ほしかむらわ、ながさきけんきたまつーらぐんのほしかはんとーにあったむら。	NO_LABEL
1941年に御厨村と合併し町制施行、新御厨町となった。	せんきゅうひゃくよんじゅういちねにみくりやむらとがっぺいしちょーせいしこー、しんみくりやちょーとなった。	NO_LABEL
免を行政区域とする。	めんをぎょーせいくいきとする。	NO_LABEL
星鹿村は1889年の町村制施行時に単独で自治体として発足したため、大字は無し。	ほしかむらわせんはっぴゃくはちじゅうきゅうねんのちょーそんせいしこーじにたんどくでじちたいとしてほっそくしたため、だいじわなし。	NO_LABEL
