『1981年の日本公開映画』は、1981年1月1日 - 同年12月31日に日本で封切り公開された映画の一覧である。	NO_PRONOUNCE	NO_LABEL
一般劇場公開のみで、映画祭などイベント上映を除く。	いっぱんげきじょーこーかいのみで、えいがさいなどいべんとじょーえいをのぞく。	NO_LABEL
日本映画だけで482作品に上る。	NO_PRONOUNCE	NO_LABEL
タイトル後のカッコ内は製作国。	たいとるごのかっこないわせいさくこく。	NO_LABEL
日本映画製作者連盟は、同年12月1日の「第26回映画の日」から、毎年同日に限り、映画館の入場料金を1,000円均一とする割引を施行し始めた。	NO_PRONOUNCE	NO_LABEL
