第9回中華民国立法委員一覧は、2016年1月16日の第9回中華民国立法委員選挙にて選出された立法委員の一覧である。	だいきゅうかいちゅーかみんこくりっぽーいいんいちらんわ、にせんじゅうろくねんいちがつじゅうろくにちのだいきゅうかいちゅーかみんこくりっぽーいーんせんきょにてせんしゅつされたりっぽーいいんのいちらんである。	NO_LABEL
中華民国立法院の定数は113議席であり、うち小選挙区選出立法委員は73議席、原住民代表立法委員6議席、比例代表及び在外国民代表立法委員34議席である。	NO_PRONOUNCE	NO_LABEL
注：	NO_PRONOUNCE	NO_LABEL
