ロン・サントは、元メジャーリーグの選手。	ろんさんとわ、もとめじゃーりーぐのせんしゅ。	NO_LABEL
アメリカ・ワシントン州シアトル出身。	NO_PRONOUNCE	NO_LABEL
右投右打。	みぎなげみぎうち。	NO_LABEL
1959年、シカゴ・カブスと契約し、1960年6月26日にメジャーデビュー。	せんきゅうひゃくごじゅうきゅうねん、しかごかぶすとけいやくし、せんきゅうひゃくろくじゅうねんろくがつにじゅうろくにちにめじゃーでびゅー。	NO_LABEL
カブスで14シーズンプレーし、1973年シーズン後にシカゴ・ホワイトソックスにトレードされ、1974年に引退。	NO_PRONOUNCE	NO_LABEL
カブスの名三塁手として活躍し、1964年には打率.313、30本塁打、114打点、リーグトップの13三塁打を記録。	NO_PRONOUNCE	NO_LABEL
1966年には当時の球団記録の28試合連続ヒットを記録した。	せんきゅうひゃくろくじゅうろくねんにわとーじのきゅーだんきろくのにじゅうはちしあいれんぞくひっとをきろくした。	NO_LABEL
1973年、アリゾナで春季トレーニング中の彼を見に行く途中の母と継父が、自動車事故で死亡するという出来事があった。	せんきゅうひゃくななじゅうさんねん、ありぞなでしゅんきとれーにんぐちゅーのかれをみにいくとちゅーのははとけいふが、じどーしゃじこでしぼーするとゆうできごとがあった。	NO_LABEL
三塁手として初めて通算300本塁打を達成し、また三塁手として初めて5年連続ゴールドグラブ賞を受賞した。	NO_PRONOUNCE	NO_LABEL
この両方の記録を持つのは、ロン・サントと殿堂入り選手マイク・シュミットだけである。	このりょーほーのきろくをもつのわ、ろんさんととでんどーいりせんしゅまいくしゅみっとだけである。	NO_LABEL
引退後はカブス専属の解説者として活動、また、18歳から糖尿病で苦しんでおり、2001年に右足の膝下を、2002年に左足の膝下を切断することを余儀なくされた。	いんたいごわかぶすせんぞくのかいせつしゃとしてかつどー、また、じゅうはっさいからとーにょーびょーでくるしんでおり、にせんいちねんにみぎあしのひざもとを、にせんにねんにひだりあしのひざもとをせつだんすることをよぎなくされた。	NO_LABEL
2003年9月28日、背番号10がカブスの永久欠番となった。	にせんさんねんくがつにじゅうはちにち、せばんごーじゅーがかぶすのえいきゅーけつばんとなった。	NO_LABEL
2年に1度行われるベテランズ委員会による野球殿堂入りの選出投票では、毎回有力候補に挙がりながら得票率75％を得られず殿堂入りを逃していた。	NO_PRONOUNCE	NO_LABEL
2003年は12票、2005年は8票、2007年は5票足りず選に漏れた。	NO_PRONOUNCE	NO_LABEL
2010年12月2日、膀胱癌の為にアメリカ合衆国アリゾナ州の病院にて生涯を閉じた。	にせんじゅうねんじゅーにがつふつか、ぼーこーがんのためにあめりかがっしゅーこくありぞなしゅーのびょーいんにてしょーがいをとじた。	NO_LABEL
没後1年を迎えた2011年12月5日、アメリカ野球殿堂ベテランズ委員会により、ロン・サントを殿堂入り選手に選出したことが発表された。	ぼつごいちねんをむかえたにせんじゅういちねんじゅーにがついつか、あめりかやきゅーでんどーべてらんずいーんかいにより、ろんさんとをでんどーいりせんしゅにせんしゅつしたことがはっぴょーされた。	NO_LABEL
