名古屋高速都心環状線は、愛知県名古屋市の、中区、東区、昭和区、中川区、中村区、西区を環状に回る名古屋高速道路の路線である。	なごやこーそくとしんかんじょーせんわ、あいちけんなごやしの、なかく、ひがしく、しょーわく、なかがわく、なかむらく、そくをかんじょーにまわるなごやこーそくどーろのろせんである。	NO_LABEL
各放射線同士を接続する役割を担う時計回りの一方通行路線である。	かくほーしゃせんどーしをせつぞくするやくわりをになうとけいまわりのいっぽーつうこーろせんである。	NO_LABEL
また、都心部との流出入の役割も担うことから愛知県庁、名古屋市役所等の官公庁街をはじめ栄、金山、名古屋駅付近に出入口を設置している。	また、としんぶとのりゅーしゅつにゅーのやくわりもになうことからあいちけんちょー、なごやしやくしょとーのかんこーちょーがいをはじめさかえ、かなやま、なごやえきふきんにでいりぐちをせっちしている。	NO_LABEL
車線は概ね3車線で、一部区間で4車線も存在する。	NO_PRONOUNCE	NO_LABEL
ただし、ジャンクションのカーブ区間では山王JCTを除いて2車線に減少する。	NO_PRONOUNCE	NO_LABEL
路線は日本における他の都市高速道路の環状線と異なり、すべて既存の平面街路の上部に施工されている。	ろせんわにっぽんにおけるたのとしこーそくどーろのかんじょーせんとことなり、すべてきそんのへいめんがいろのじょーぶにしこーされている。	NO_LABEL
英語での表示はC1である。	えいごでのひょーじわしーわんである。	NO_LABEL
これは中京圏を取り巻く高速道路ナンバリングの整合性に配慮したものである。	これわちゅーきょーけんをとりまくこーそくどーろなんばりんぐのせいごーせいにはいりょしたものである。	NO_LABEL
当該路線を1番目に数え、その外周の環状高速道路を2番目として名古屋第二環状自動車道と命名、その外周の東海環状自動車道は3番目としてC3が割り振られている。	とーがいろせんをいちばんめにかぞえ、そのがいしゅーのかんじょーこーそくどーろをにばんめとしてなごやだいにかんじょーじどーしゃどーとめいめい、そのがいしゅーのとーかいかんじょーじどーしゃどーわさんばんめとしてしーきゅーぶがわりふられている。	NO_LABEL
上空から見た場合の路線形状は四角に近く、これは都心環状線が直線と急カーブの両極端の組み合わせであることの反映である。	じょーくーからみたばあいのろせんけいじょーわしかくにちかく、これわとしんかんじょーせんがちょくせんときゅーかーぶのりょーきょくたんのくみあわせであることのはんえいである。	NO_LABEL
このため、直線感覚のまま急カーブのジャンクションに高速進入して事故に至るケースが多発しているが、これについてはジャンクションカーブ節で後述する。	このため、ちょくせんかんかくのままきゅーかーぶのじゃんくしょんにこーそくしんにゅーしてじこにいたるけーすがたはつしているが、これについてわじゃんくしょんかーぶぶしでこーじゅつする。	NO_LABEL
朝夕は錦橋出口付近の渋滞が慢性化しており、この打開策として新洲崎JCT付近に名古屋駅方面に連絡するための新たな出入口を設置する予定である。	あさゆーわにしきばしでぐちふきんのじゅーたいがまんせいかしており、このだかいさくとしてしんすさきじゃんくしょんふきんになごやえきほーめんにれんらくするためのあらたなでいりぐちをせっちするよていである。	NO_LABEL
この計画は2027年に予定されているリニア中央新幹線の名古屋乗入れによるアクセス向上の一環である。	このけいかくわにせんにじゅうななねんによていされているりにあちゅーおーしんかんせんのなごやのりーれによるあくせすこーじょーのいっかんである。	NO_LABEL
また、渋滞は丸田町JCTや明道町JCT付近でも発生しており、理由はジャンクションで都心環状線に合流した直後に別のジャンクションまたは出口で分流があることから、合流した車両と分岐しようとする車両が交差する『織り込み交通』が生じることである。	NO_PRONOUNCE	NO_LABEL
道路法上は、愛知県道高速名古屋朝日線・愛知県道高速名古屋新宝線・名古屋市道高速2号の各一部と、名古屋市道高速分岐2号・名古屋市道高速分岐3号のそれぞれ全部からなる。	NO_PRONOUNCE	NO_LABEL
都心環状線は、原初計画案では双方向式の片側3車線で考案された。	NO_PRONOUNCE	NO_LABEL
その内訳は、高架2層式として、上層と下層で3車線ずつ、合わせて6車線という内容で、明道町JCT - 東片端JCT間と浅間町交差点から清水口交差点との間で計画された高速分岐1号が高架1層の片側一方通行式2車線、鶴舞南JCT - 山王JCT間が高架2層式片側2車線とされた。	NO_PRONOUNCE	NO_LABEL
しかしながら、1970年代半ばに高まりを見せていた都市高速建設反対運動のうねりは都心部の環状ルートの在り方まで再検討を迫ることになった。	しかしながら、せんきゅうひゃくななじゅうねんだいなかばにたかまりをみせていたとしこーそくけんせつはんたいうんどーのうねりわとしんぶのかんじょーるーとのありかたまでさいけんとーをせまることになった。	NO_LABEL
もっとも、名古屋市の道路事情は年々交通渋滞が慢性化し、一刻も早い渋滞解消を望む高速道路建設促進派が多数を占めることで、名古屋市としては反対派と促進派の陳情を天秤にかけることになった。	もっとも、なごやしのどーろじじょーわねんねんこーつーじゅーたいがまんせいかし、いっこくもはやいじゅーたいかいしょーをのぞむこーそくどーろけんせつそくしんはがたすーをしめることで、なごやしとしてわはんたいはとそくしんはのちんじょーをてんびんにかけることになった。	NO_LABEL
その結果、建設は続行とするが、地域住民に配慮して環境保全に万全を期する意図から可能な限り地下、半地下方式を採用することになった。	そのけっか、けんせつわぞっこーとするが、ちーきじゅーみんにはいりょしてかんきょーほぜんにばんぜんをきするいとからかのーなかぎりちか、はんじかほーしきをさいよーすることになった。	NO_LABEL
また、交通量の将来予測を再検討した結果、当初予測の4分の3程度に下回ることが予見されたことに加え、環状部のダブルデッキによるジャンクションが複雑化して建設の難易度が高いことも加味され、これらを検討した結果、環状部の大幅な簡略化を断行することになった。	NO_PRONOUNCE	NO_LABEL
環状部の構造変更案は2案出され、1つは都心ループの全面廃止、もう1案が双方向式を止めて右回り一方通行方式として高速分岐1号を廃止する案であった。	NO_PRONOUNCE	NO_LABEL
前者は分岐線が無いぶん工費は安いが、南北路線2本を連結する2号東山線の新洲崎JCT - 丸田町JCT間が最低3層必要で構造が複雑、後者は工費は高いが高架構造やJCTをシンプルにできるうえに日照、排気ガス、テレビ障害等の克服に有利で、公社も当案を腹案として練っていた。	NO_PRONOUNCE	NO_LABEL
結果的に後者が採用され、時計回りの3車線一方通行方式として、高速分岐2号とそれに接続する高速1号と高速3号の一部が地下構造に変更された。	NO_PRONOUNCE	NO_LABEL
併せて構造変更に伴う建設費増大を抑制するために4号東海線と6号清須線は整備計画から除外され、これらは1976年11月に都市計画決定された。	あわせてこーぞーへんこーにともなうけんせつひぞーだいをよくせいするためによんごーとーかいせんとろくごーきよすせんわせいびけいかくからじょがいされ、これらわせんきゅうひゃくななじゅうろくねんじゅーいちがつにとしけいかくけっていされた。	NO_LABEL
高架式に比べ半地下、地下方式は工事費が2倍以上になることは変更時点で既に判明していたことであるが、1982年にもなっていよいよ採算性が悪化することで将来の償還計画に影響することが認識され、地下鉄や河川を跨ぐことで工事の難易度が増し工期も長期化することが問題となった。	こーかしきにくらべはんちか、ちかほーしきわこーじひがにばいいじょーになることわへんこーじてんですでにはんめいしていたことであるが、せんきゅうひゃくはちじゅうにねんにもなっていよいよさいさんせいがあっかすることでしょーらいのしょーかんけいかくにえいきょーすることがにんしきされ、ちかてつやかせんをまたぐことでこーじのなんいどがましこーきもちょーきかすることがもんだいとなった。	NO_LABEL
特に外堀通は地表近くを市営地下鉄名城線が横断することから、この直上を半地下式で構築すれば付近の平面道路を300mに渡って約2mのかさ上げを要することで工期が長引くことが問題視された。	とくにそとぼりどーりわちひょーちかくをしえいちかてつめいじょーせんがおーだんすることから、このちょくじょーをはんじかしきでこーちくすればふきんのへいめんどーろをさんびゃくめーとるにわたってやくにめーとるのかさあげをよーすることでこーきがながびくことがもんだいしされた。	NO_LABEL
そして、この半地下区間を挟む明道町と東片端の区間はトンネル式であることから排気ガスを外へ出すための換気所が必要となる。	そして、このはんじかくかんをはさむめいどうちょーとひがしかたはのくかんわとんねるしきであることからはいきがすをそとえだすためのかんきしょがひつよーとなる。	NO_LABEL
これは景雲橋と東片端の2か所に計画されたが、これによるさらなる事業費の増大が懸念された。	NO_PRONOUNCE	NO_LABEL
公社は利用者が支払う通行料金で建設に係る借金を返済する償還方式を採用することから、利用台数が伸びなければ料金収入が減り、借金返済が厳しさを増すうえに、営業収支の赤字を賄うための新たな借金を背負う悪循環に陥る。	こーしゃわりよーしゃがしはらうつーこーりょーきんでけんせつにかかるしゃっきんをへんさいするしょーかんほーしきをさいよーすることから、りよーだいすーがのびなければりょーきんしゅーにゅーがへり、しゃっきんへんさいがきびしさをますうえに、えいぎょーしゅーしのあかじをまかなうためのあらたなしゃっきんをせおうあくじゅんかんにおちいる。	NO_LABEL
さらに通行料金を値上げすれば利用台数が減少することから大幅な値上げは出来ない。	さらにつーこーりょーきんをねあげすればりよーだいすーがげんしょーすることからおーはばなねあげわできない。	NO_LABEL
よって、通行台数を上げるには建設が滞っている路線を一刻も早く開通させ、路線ネットワークを拡大することが急務となるが、この半地下、地下方式では工期の長期化と工事の停滞が相まってネットワーク構築の大きな障害となっていた。	よって、つーこーだいすーをあげるにわけんせつがとどこーっているろせんをいっこくもはやくかいつーさせ、ろせんねっとわーくをかくだいすることがきゅーむとなるが、このはんじか、ちかほーしきでわこーきのちょーきかとこーじのていたいがあいまってねっとわーくこーちくのおーきなしょーがいとなっていた。	NO_LABEL
また、年数を重ねるごとに建設費用が高騰することと路線ネットワークが未構築のために通行台数が予定を下回ることは、建設工事に要する支出ばかりが増長して通行料金収入が伸び悩むことを意味し、結果、増大する借金のみならず利息さえ払うに難儀する状況にも置かれた。	また、ねんすーをかさねるごとにけんせつひよーがこーとーすることとろせんねっとわーくがみこーちくのためにつーこーだいすーがよていをしたまわることわ、けんせつこーじによーするししゅつばかりがぞーちょーしてつーこーりょーきんしゅーにゅーがのびなやむことをいみし、けっか、ぞーだいするしゃっきんのみならずりそくさえはらうになんぎするじょーきょーにもおかれた。	NO_LABEL
なお、この当時の公社の財務状況は通行料金収入36億円に対し、借金の返済は48億円で、日換算で600万円の赤字経営となっていた。	なお、このとーじのこーしゃのざいむじょーきょーわつーこーりょーきんしゅーにゅーさんじゅうろくおくえんにたいし、しゃっきんのへんさいわよんじゅうはちおくえんで、にちかんさんでろっぴゃくまんえんのあかじけいけいとなっていた。	NO_LABEL
このため、公社は環状部とそれに連結する道路を高架式に戻すことを名古屋市に持ち掛け、これを基に協議した結果、高架式に戻すことを決定、1987年8月に都市計画変更された。	このため、こーしゃわかんじょーぶとそれにれんけつするどーろをこーかしきにもどすことをなごやしにもちかけ、これをもとにきょーぎしたけっか、こーかしきにもどすことをけってい、せんきゅうひゃくはちじゅうななねはちがつにとしけいかくへんこーされた。	NO_LABEL
 これ以後、障害のなくなった都心環状線と1号楠線は全線開業に向けて工事のスピードを速め、1995年9月に全線の供用に漕ぎ着けた。	これいご、しょーがいのなくなったとしんかんじょーせんといちごーくすのきせんわぜんせんかいぎょーにむけてこーじのすぴーどをはやめ、せんきゅうひゃくきゅうじゅうごねんくがつにぜんせんのきょーよーにこぎつけた。	NO_LABEL
都心環状線は5段階に分けた部分開通によって路線を延伸のうえ全線開通を見ている。	NO_PRONOUNCE	NO_LABEL
第1期は東新町入口 - 鶴舞南JCT - 東別院出口、第2期は新洲崎JCT - 名駅出口、第3期は東別院出口 - 新洲崎JCT、第4期は名駅出口 - 丸の内出口、第5期が丸の内出口 - 東新町入口間開通による全線開通である。	NO_PRONOUNCE	NO_LABEL
なお、全線開通を機に路線名を「都心環状線」と制定し、路線番号を「R」(Ringの頭文字）とした。	NO_PRONOUNCE	NO_LABEL
都心環状線の延伸はそのまま通行台数の向上となって現れ、放射道路が都心で繋がることの重要性が如実に示されることになった。	としんかんじょーせんのえんしんわそのままつーこーだいすーのこーじょーとなってあらわれ、ほーしゃどーろがとしんでつながることのじゅーよーせいがにょじつにしめされることになった。	NO_LABEL
放射道路の単体で開通した3号大高線の通行台数が長らく伸び悩んでいたものが、都心環状線の一部分にせよ接続したことでその利便性から利用台数が上昇に転じ、東名阪自動車道と接続する5号万場線が3号大高線と都心小ループで接続されるとさらに上昇した。	ほーしゃどーろのたんたいでかいつーしたさんごーおだかせんのつーこーだいすーがながらくのびなやんでいたものが、としんかんじょーせんのいちぶぶんにせよせつぞくしたことでそのりべんせいからりよーだいすーがじょーしょーにてんじ、ひがしめいはんじどーしゃどーとせつぞくするごごーばんばせんがさんごーおだかせんととしんしょーるーぷでせつぞくされるとさらにじょーしょーした。	NO_LABEL
公社の経営も赤字から黒字に転換し、1995年の都心環状線全線開業では1号楠線とも接続されたことで2万8千台増の15万4千台まで増加している。	NO_PRONOUNCE	NO_LABEL
なお、新洲崎JCTは将来のリニア開通を見据えて、名古屋駅付近へ乗入れるための出入口の増設が決定している。	なお、しんすさきじゃんくしょんわしょーらいのりにあかいつーをみすえて、なごやえきふきんえのりいれるためのでいりぐちのぞーせつがけっていしている。	NO_LABEL
2017年12月には高速道路ナンバリングとの整合性に配慮して、都心環状線の路線番号を「R」から「C1」に変更すると発表、準備完了後に順次変更した。	NO_PRONOUNCE	NO_LABEL
24時間交通量　道路交通センサス	にじゅうよじかんこーつーりょーどーろこーつーせんさす	NO_LABEL
外堀通直上を通過する高速分岐2号は半地下式で計画されたものを高架式に再変更したことで、名古屋城外堀の景観との融合が課題となった。	そとぼりどーりちょくじょーをつーかするこーそくぶんきにごーわはんちかしきでけいかくされたものをこーかしきにさいへんこーしたことで、なごやじょーそとぼりのけいかんとのゆーごーがかだいとなった。	NO_LABEL
これについては名古屋市の専門委員のほか、建築家の黒川紀章のアドバイスを取り入れながらデザインを決定した。	これについてわなごやしのせんもんいいんのほか、けんちくかのくろかわきしょーのあどばいすをとりいれながらでざいんをけっていした。	NO_LABEL
このため、都心環状線においてこの区間のみ外観が異なり、色彩はオフホワイトで統一され、張出し桁部は化粧板で覆い、柱も威圧感低減の意図から大きく面取りされた八角形の1本柱を特徴とする。	このため、としんかんじょーせんにおいてこのくかんのみがいかんがことなり、しきさいわおふほわいとでとーいつされ、はりだしけたぶわけしょーいたでおおい、はしらもいあつかんていげんのいとからおーきくめんとりされたはちかくけいのいっぽんはしらをとくちょーとする。	NO_LABEL
そして橋脚は梁を省略して橋桁と剛結した。	そしてきょーきゃくわやなをしょーりゃくしてはしげたとつよしゆいした。	NO_LABEL
また、後述のパイプ照明とは別に名古屋城外堀区間以外では従来仕様の柱式道路照明を用いたが、一般的なポールタイプでは都市景観に向かないことから四角柱によるシンプルな照明とした。	また、こーじゅつのぱいぷしょーめいとわべつになごやじょーそとぼりくかんいがいでわじゅーらいしよーのはしらしきどーろしょーめいをもちいたが、いっぱんてきなぽーるたいぷでわとしけいかんにむかないことからよんかくちゅーによるしんぷるなしょーめいとした。	NO_LABEL
中央分離帯については周辺環境との調和を図るために円形に盛り土して、そこに地被植物を植樹した。	ちゅーおーぶんりたいについてわしゅーへんかんきょーとのちょーわをはかるためにえんけいにもりつちして、そこにちひしょくぶつをしょくじゅした。	NO_LABEL
東新町入口 - 高辻出入口間における建設では、地域住民の理解を得るために都市景観に配慮したデザインを行った。	NO_PRONOUNCE	NO_LABEL
特に高架が与える無機質な印象を払拭するためにルーバーを設置のうえ、沿道にはカラータイルを貼るなどして対応した。	とくにこーかがあたえるむきしつないんしょーをふっしょくするためにるーばーをせっちのうえ、えんどーにわからーたいるをはるなどしてたいおーした。	NO_LABEL
また、住民側は、高架による地域分断イメージの払拭、商店街はシンボルタワーを制作するための空間の確保のため、橋脚の高さを13 mから18 mに上げるよう要望した。	NO_PRONOUNCE	NO_LABEL
だが、現実問題として、全線18 mに変更するには再度の都市計画変更を要し、ジャンクションにおける合流ランプの構成上の問題、および原則的に立体構造によって鉄道や道路を超える場合など公共的な理由によらず必要以上の高さで建設することはできないとされた。	NO_PRONOUNCE	NO_LABEL
しかしながら、微量の変更ならば公社の裁量で決定できることから、都市計画変更の必要がない15 mという条件で変更することになった。	NO_PRONOUNCE	NO_LABEL
これは着工済みであったにも係わらず実施された。	これわちゃっこーずみであったにもかかわらずじっしされた。	NO_LABEL
道路高欄上に取り付ける遮音壁は、大高線では吸音タイプを全面に取り付けたが、日照遮断の問題があることから、透光性の遮音壁を試験的に取り付けることになった。	NO_PRONOUNCE	NO_LABEL
素材はポリカーボネートで、透過率85％の縦じま入とされた。	NO_PRONOUNCE	NO_LABEL
完全透明は、ヘッドライトや太陽光によるドライバーへの影響および、住民のプライバシー保護を理由として不採用とした。	かんぜんとーめいわ、へっどらいとやたいよーこーによるどらいばーえのえいきょーおよび、じゅーみんのぷらいばしーほごをりゆーとしてふさいよーとした。	NO_LABEL
取り付け区間は、鶴舞南JCT - 東別院出口間1.1kmの北側である。	NO_PRONOUNCE	NO_LABEL
防音壁は住民要望によって東新町入口においても取り付けを行った。	ぼーおんかべわじゅーみんよーぼーによってひがししんまちいりぐちにおいてもとりつけをおこなった。	NO_LABEL
透光性パネルは、これ以後に建設された路線では改良を加えて採用している。	とーるひかりせいぱねるわ、これいごにけんせつされたろせんでわかいりょーをくわえてさいよーしている。	NO_LABEL
名古屋高速として最初に開通した3号大高線は、当初コンクリート製の橋脚が無塗装であった。	なごやこーそくとしてさいしょにかいつーしたさんごーおだかせんわ、とーしょこんくりーとせいのきょーきゃくがむとそーであった。	NO_LABEL
これが沿線住民には大変不評で、公社に対し修景するように要望した。	これがえんせんじゅーみんにわたいへんふひょーで、こーしゃにたいしおさむけいするよーによーぼーした。	NO_LABEL
公社はこれに応じ、幾つかの色を挙げて社内投票した結果、薄緑と決定した。	こーしゃわこれにおーじ、いくつかのいろをあげてしゃないとーひょーしたけっか、うすみどりとけっていした。	NO_LABEL
公社のシンボルカラーの緑であることと、名古屋が目指すところの「グリーン名古屋」のイメージに合うことが理由であった。	NO_PRONOUNCE	NO_LABEL
なお、住民側は、淡い青を期待していた。	なお、じゅーみんがわわ、あわいあおをきたいしていた。	NO_LABEL
ところが、スペースデザイナーに意見を聞いたところ、薄緑では力が強すぎ、周りの環境の自由を奪う、人によっては抵抗が強い色として反対を表明し、たまたま鋼製橋脚のさび止めに塗っているグレーに目を止めて、環境に溶け込み、周囲を引き立たせる色、材質を表す色としてグレーを推薦した。	ところが、すぺーすでざいなーにいけんをきいたところ、うすきみどりではりょくがつよすぎ、まわりのかんきょーのじゆーをうばう、ひとによってわていこーがつよいいろとしてはんたいをひょーめいし、たまたまはがねせいきょーきゃくのさびどめにぬっているぐれーにめをとめて、かんきょーにとけこみ、しゅーいをひきたたせるいろ、ざいしつをあらわすいろとしてぐれーをすいせんした。	NO_LABEL
別のデザイナーにも意見を募ったところ、全く同じ主張であった。	べつのでざいなーにもいけんをつのったところ、まったくおなじしゅちょーであった。	NO_LABEL
住民はコンクリートと代り映えしないと不平を漏らしたが、専門家の意見ということもあって最終的に納得した。	じゅーみんわこんくりーととかわりばえしないとふへいをもらしたが、せんもんかのいけんとゆうこともあってさいしゅーてきになっとくした。	NO_LABEL
塗装対象区間は1985年5月に開通する都心環状線と大高線の円上 - 鶴舞南JCT間とされた。	NO_PRONOUNCE	NO_LABEL
このカラーはその後、他線区にも波及している。	このからーわそのご、たせんくにもはきゅーしている。	NO_LABEL
外堀通の上部を通る高速分岐2号は、名古屋城外堀跡に生息するヒメボタルの生態系保護のため、ヒメボタル生息区域を照射しない照明を要された。	そとぼりどーりのじょーぶをとーるこーそくぶんきにごーわ、なごやじょーそとぼりあとにせいそくするひめぼたるのせいたいけいほごのため、ひめぼたるせいそくくいきをしょーしゃしないしょーめいをよーされた。	NO_LABEL
しかしながら、道路照明基準に適合する照度を確保する必要もあって、この2点を両立出来る照明方式が模索された。	しかしながら、どーろしょーめいきじゅんにてきごーするしょーどをかくほするひつよーもあって、このにてんをりょーりつできるしょーめいほーしきがもさくされた。	NO_LABEL
名古屋高速は原則的にポール照明が採用されているが、景観上の配慮が求められる場合や、外部に光が漏れる光害の恐れがある場合は、別の照明方式が検討される。	なごやこーそくわげんそくてきにぽーるしょーめいがさいよーされているが、けいかんじょーのはいりょがもとめられるばあいや、がいぶにひかりがもれるこうがいのおそれがあるばあいわ、べつのしょーめいほーしきがけんとーされる。	NO_LABEL
特に名古屋城外堀区間では、上述の生態系への配慮と共に、外堀の景観とマッチする照明方式が検討された。	とくになごやじょーそとぼりくかんでわ、じょーじゅつのせいたいけいえのはいりょとともに、そとぼりのけいかんとまっちするしょーめいほーしきがけんとーされた。	NO_LABEL
こうしたことから、道路両脇の高欄に直接照明を載せ、道路に対して長手方向に配列する方式が考案された。	こーしたことから、どーろりょーわきのこーらんにちょくせつしょーめいをのせ、どーろにたいしてながてほーこーにはいれつするほーしきがこーあんされた。	NO_LABEL
この方式では、ポール式と比べて照明高さが極端に低いことから通常の道路照明が使えないなど、照明器具の種類が限定されることになる。	このほーしきでわ、ぽーるしきとくらべてしょーめいたかさがきょくたんにひくいことからつーじょーのどーろしょーめいがつかえないなど、しょーめいきぐのしゅるいがげんていされることになる。	NO_LABEL
さらに、高所から強い光源で照射する場合に比べて、高欄上に載る程度の照明では光源も弱く、光の届く範囲が狭いことから、必然的に照明装置の数が増加する問題もあった。	さらに、こーしょからつよいこーげんでしょーしゃするばあいにくらべて、こーらんじょーにのるていどのしょーめいでわこーげんもよわく、ひかりのとどくはんいがせまいことから、ひつざんてきにしょーめいそーちのかずがぞーかするもんだいもあった。	NO_LABEL
これらの高欄式照明の弱点を補うべく、プリズムフィルムを使用して光を乱反射のうえ均等発光できるパイプ照明器具を採用することになった。	これらのこーらんしきしょーめいのじゃくてんをおぎなうべく、ぷりずむふぃるむをしよーしてひかりをらんはんしゃのうえきんとーはっこーできるぱいぷしょーめいきぐをさいよーすることになった。	NO_LABEL
また、蛍光管に比べて長さが12 mあるため照明装置数を抑制できることや、間隔を開けずに連続設置することで夜間における視線誘導性が良いことも理由の一つである。	NO_PRONOUNCE	NO_LABEL
採用区間は元町橋 - 大津橋間の500 mである。	NO_PRONOUNCE	NO_LABEL
ただし、高欄上に直接据え付けるとグレアの影響が懸念されたことから、その対策として高欄上の防音壁上端に設置した。	ただし、こーらんじょーにちょくせつすえつけるとぐれあのえいきょーがけねんされたことから、そのたいさくとしてこーらんじょーのぼーおんかべじょーたんにせっちした。	NO_LABEL
発光開口部は90°で、全て路面側を向いているが、残る270°を被覆したのは、外堀に光を漏らさないためである。	NO_PRONOUNCE	NO_LABEL
なお、パイプ照明は黒川出入口のループ区間でも採用され、ポール照明の乱立による景観問題を解消している。	なお、ぱいぷしょーめいわくろかわでいりぐちのるーぷくかんでもさいよーされ、ぽーるしょーめいのらんりつによるけいかんもんだいをかいしょーしている。	NO_LABEL
環状ルートが全線開業していなかった時代、環状線が時計回りの一方通行方式である制約から5号万場線から3号大高線へ直通することは不可能であった。	かんじょーるーとがぜんせんかいぎょーしていなかったじだい、かんじょーせんがとけいまわりのいっぽーつうこーほーしきであるせいやくからごごーばんばせんからさんごーおだかせんえちょくつーすることわふかのーであった。	NO_LABEL
そこで、吹上まで延伸した2号東山線を吹上にてUターンさせたうえで丸田町JCT経由で3号大高線に直通させることとして、吹上暫定連絡路が開設された。	そこで、ふきあげまでえんしんしたにごーひがしやませんをふきあげにてゆーたーんさせたうえでまるたちょーじゃんくしょんけいゆでさんごーおだかせんにちょくつーさせることとして、ふきあげざんていれんらくろがかいせつされた。	NO_LABEL
これが都心部における最初の環状形態であり、都心小ループと称された。	これがとしんぶにおけるさいしょのかんじょーけいたいであり、としんしょーるーぷとしょーされた。	NO_LABEL
その後、吹上暫定連絡路は環状ルート全通により廃止された。	そのご、ふきあげざんていれんらくろわかんじょーるーとぜんつーによりはいしされた。	NO_LABEL
都心環状線は既設の直線状の大通りに建設されたこともあって直線区間が多勢となっている。	としんかんじょーせんわきせつのちょくせんじょーのおーどーりにけんせつされたこともあってちょくせんくかんがたぜいとなっている。	NO_LABEL
このことは用地の制約から既設の道路上しか建設できない都市高速道路特有の問題をも浮き彫りにしている。	このことわよーちのせいやくからきせつのどーろじょーしかけんせつできないとしこーそくどーろとくゆーのもんだいをもうきぼりにしている。	NO_LABEL
つまり、高速道路の向きを変える場合に十字に交わる既設の道路上をカーブすることから、勢いカーブ半径も小さくなり、半径90 mの急カーブとならざるを得ないことである。	NO_PRONOUNCE	NO_LABEL
1985年に東新町入口 - 東別院出口が都心環状線として初めて開通して以降、3号大高線と高速分岐3号を繋ぐ鶴舞南JCTでスピード超過によりカーブを曲がり切れずに側壁に激突する利用者が続出したことから、公社としては路面の表示変更やカーブ部分の点滅灯を黄色から赤色にするなど様々な対策を取ってきた。	NO_PRONOUNCE	NO_LABEL
現状では都心環状線に存在する6つのジャンクション全てに急カーブが存在し、この区間の最高速度は50 km/hに規制されている。	NO_PRONOUNCE	NO_LABEL
なお、その後も同様の事故が頻発し、材木および金属を積載したトラックが激突のうえ材料落下によって民家に甚大な被害を与えて以降はカーブ箇所に落下防止用フェンスが設置され、ジャンクションカーブに特有の印象を付与している。	なお、そのごもどーよーのじこがひんぱつし、ざいもくおよびきんぞくをせきさいしたとらっくがげきとつのうえざいりょーらっかによってみんかにじんだいなひがいをあたえていこーわかーぶかしょにらっかぼーしよーふぇんすがせっちされ、じゃんくしょんかーぶにとくゆーのいんしょーをふよしている。	NO_LABEL
都心環状線直線区間の基本3車線に対して、ジャンクションカーブ区間は2車線に減少する。	NO_PRONOUNCE	NO_LABEL
このことから、かつて山王JCTでは渋滞が多発し、それを先頭として3号大高線全線に渡って渋滞が発生していた。	このことから、かつてさんのーじゃんくしょんでわじゅーたいがたはつし、それをせんとーとしてさんごーおだかせんぜんせんにわたってじゅーたいがはっせいしていた。	NO_LABEL
この対策として、4号東海線が接続する直前に都市計画変更のうえ、当該ジャンクションを3車線に拡幅、併せてカーブ最小半径も拡大された。	NO_PRONOUNCE	NO_LABEL
全て名古屋高速道路との接続である。	すべてなごやこーそくどーろとのせつぞくである。	NO_LABEL
ただし、都心環状線は時計回りの一方通行方式であることから、走行経路によっては各路線の接続距離に差異が生じる。	ただし、としんかんじょーせんわとけいまわりのいっぽーつうこーほーしきであることから、そーこーけいろによってわかくろせんのせつぞくきょりにさいがしょーじる。	NO_LABEL
一例を挙げると、1号楠線から3号大高線に接続する場合は短距離の直線連絡となるが、反対に3号大高線から1号楠線に接続する場合は、東別院、名駅を経て大きく迂回しなければならない。	いちれいをあげると、いちごーくすのきせんからさんごーおだかせんにせつぞくするばあいわたんきょりのちょくせんれんらくとなるが、はんたいにさんごーおだかせんからいちごーくすのきせんにせつぞくするばあいわ、ひがしべついん、めいえきをへておーきくうかいしなければならない。	NO_LABEL
この場合、直線移動と比較すると約4 kmの大回りである。	NO_PRONOUNCE	NO_LABEL
特に3号大高線から2号東山線に直通する場合、鶴舞南JCT - 丸田町JCT間は直線距離にして1.2 kmであるにもかかわらず、実際の走行は環状ルートの4分の3以上、9.1 kmを走行しての連絡である。	NO_PRONOUNCE	NO_LABEL
なお、都心環状線のほぼ中央を東西に貫通する2号東山線の新洲崎JCT - 丸田町JCT間は都心環状線の走行ルートとして使用することは出来ない。	NO_PRONOUNCE	NO_LABEL
これは、ジャンクションの渡り線が環状ルートの外側に設けられ、内側には無いためである。	これわ、じゃんくしょんのわたりせんがかんじょーるーとのそとがわにもーけられ、うちがわにわないためである。	NO_LABEL
従って、新洲崎JCTは5号万場線のみと連絡、丸田町JCTは2号東山線の吹上、高針方面のみの連絡であり、その内側の2.2 km区間に直接乗り入れることは出来ない。	NO_PRONOUNCE	NO_LABEL
逆も同様で、5号万場線から都心環状線に乗り入れできるのは新洲崎JCTのみで丸田町JCTで合流することはできない。	ぎゃくもどーよーで、ごごーばんばせんからとしんかんじょーせんにのりいれできるのわしんすさきじゃんくしょんのみでまるたちょーじゃんくしょんでごーりゅーすることわできない。	NO_LABEL
また、2号東山線吹上方面から環状ルートに合流できるのは丸田町JCTのみで新洲崎JCTで合流することはできない。	また、にごーひがしやませんふきあげほーめんからかんじょーるーとにごーりゅーできるのわまるたちょーじゃんくしょんのみでしんすさきじゃんくしょんでごーりゅーすることわできない。	NO_LABEL
