抜き打ち解散は、1952年8月28日に行われた衆議院解散の通称。	ぬきうちかいさんわ、せんきゅうひゃくごじゅうにねんはちがつにじゅうはちにちにおこなわれたしゅーぎーんかいさんのつーしょー。	NO_LABEL
1946年、GHQ統治下のもと、第1次吉田内閣が誕生した。	せんきゅうひゃくよんじゅうろくね、じーえいちきゅーとーちかのもと、だいいちじよしだないかくがたんじょーした。	NO_LABEL
1951年に、サンフランシスコ講和条約締結によってGHQの占領が終了し、GHQによって公職追放されていた鳩山一郎らが追放を解除されると、鳩山を支持する鳩山系議員が吉田茂首相の辞任を要求した。	せんきゅうひゃくごじゅういちねんに、さんふらんしすここーわじょーやくていけつによってじーえいちきゅーのせんりょーがしゅーりょーし、じーえいちきゅーによってこーしょくついほーされていたはとやまいちろーらがついほーをかいじょされると、はとやまをしじするはとさんけいぎいんがよしだしげるしゅしょーのじにんをよーきゅーした。	NO_LABEL
こうして再び政局は混乱してきた。	こーしてふたたびせいきょくわこんらんしてきた。	NO_LABEL
さらには吉田派の派内で広川弘禅と増田甲子七の派内抗争が表面化した。	さらにわよしだはのはないでひろかわこうぜんとますだかねしちのはないこーそーがひょーめんかした。	NO_LABEL
1952年7月、吉田は自身の側近であった1年生議員の福永健司を、増田に代わる自由党幹事長にすべく、議員総会において抜き打ちで指名を敢行したが、反対派が激しく抵抗し失敗に終わる。	せんきゅうひゃくごじゅうにねんしちがつ、よしだわじしんのそっきんであったいちねんせいぎいんのふくながけんじを、ますだにかわるじゆーとーかんじちょーにすべく、ぎーんそーかいにおいてぬきうちでしめいをかんこーしたが、はんたいはがはげしくていこーししっぱいにおわる。	NO_LABEL
吉田はこのような事態を打開するために、松野鶴平からの助言を受け、第14通常国会が召集された3日後の8月28日に不意をつく形で解散を断行する。	NO_PRONOUNCE	NO_LABEL
この解散は、池田勇人、岡崎勝男、佐藤栄作、保利茂、党内の松野などを中心に側近集団のみで決定された。	このかいさんわ、いけだはやと、おかざきかつお、さとーえいさく、ほりしげる、とーないのまつのなどをちゅーしんにそっきんしゅーだんのみでけっていされた。	NO_LABEL
吉田派は密かに選挙の準備を進めておき、準備の整っていない鳩山派に打撃を与えようという目的であった。	よしだはわひそかにせんきょのじゅんびをすすめておき、じゅんびのととのっていないはとやまはにだげきをあたえようとゆうもくてきであった。	NO_LABEL
大野伴睦は、第14通常国会初日の8月26日の衆議院本会議にて衆議院議長に選出されて就任していたが、わずか2日後に衆議院解散が行われたため、在職期間わずか3日間で議長失職となった。	NO_PRONOUNCE	NO_LABEL
この解散を受けて、10月1日に第25回衆議院議員総選挙が行われ、466議席中、自由党吉田派199議席、自由党鳩山派35議席という結果となり、自由党そのものは大きく議席を減らした。	NO_PRONOUNCE	NO_LABEL
この解散は日本国憲法下初めての第7条のみによる衆議院解散になった。	このかいさんわにほんこくけんぽーかはじめてのだいななじょーのみによるしゅーぎーんかいさんになった。	NO_LABEL
日本国憲法は第7条第3号で衆議院の解散を天皇の国事行為として定めるが、天皇は国政に関する権能を有しないとされており、憲法7条3号の天皇の権能は衆議院解散を形式的に外部へ公示する形式的宣示権ということになる。	にほんこくけんぽーわだいななじょーだいさんごーでしゅーぎいんのかいさんをてんのーのこくじこーいとしてさだめるが、てんのーわこくせいにかんするけんのーをゆーしないとされており、けんぽーななじょーさんごーのてんのーのけんのーわしゅーぎーんかいさんをけいしきてきにがいぶえこーじするけいしきてきせんしめけんとゆうことになる。	NO_LABEL
そこで衆議院解散の実質的決定権の所在が問題となるが、これについては諸説がある。	そこでしゅーぎーんかいさんのじっしつてきけっていけんのしょざいがもんだいとなるが、これについてわしょせつがある。	NO_LABEL
抜き打ち解散は、憲法7条が定める「内閣の助言と承認」を解散権の実質的根拠とする解散であり、その是非をめぐって野党・国民民主党の議員であった苫米地義三が衆議院議員資格の確認と歳費請求を求めて裁判を提起したが、最高裁大法廷は、高度の政治性があり裁判所の審査権外であることを理由に憲法判断をしなかった。	NO_PRONOUNCE	NO_LABEL
この解散以降、実務上、天皇の国事行為に責任を負う内閣が衆議院解散についての実質的決定権を有するとされている。	このかいさんいこー、じつむじょー、てんのーのこくじこーいにせきにんをおうないかくがしゅーぎーんかいさんについてのじっしつてきけっていけんをゆーするとされている。	NO_LABEL
なお、衆議院解散の実質的決定権という点については学説に争いがあるものの、少なくとも衆議院解散の形式的宣示権は憲法上天皇にある。	なお、しゅーぎーんかいさんのじっしつてきけっていけんとゆうてんについてわがくせつにあらそいがあるものの、すくなくともしゅーぎーんかいさんのけいしきてきせんしめけんわけんぽーじょーてんのーにある。	NO_LABEL
今日、解散詔書の文言については日本国憲法第69条により、内閣不信任決議が可決あるいは内閣信任決議が否決された場合か否かを問わず「日本国憲法第七条により、衆議院を解散する。	NO_PRONOUNCE	NO_LABEL
」との表現が確立している。	NO_PRONOUNCE	NO_LABEL
これは、衆議院解散は詔書をもって行われるが、詔書の直接の根拠は日本国憲法第7条にあり、またこの文言は解散の理由を問わないため、一般的にはいかなる場合の衆議院解散についても適用しうるものと解されているためである。	これわ、しゅーぎーんかいさんわしょーしょをもっておこなわれるが、しょーしょのちょくせつのこんきょわにほんこくけんぽーだいななじょーにあり、またこのもんごんわかいさんのりゆーをとわないため、いっぱんてきにわいかなるばあいのしゅーぎーんかいさんについてもてきよーしうるものとほぐされているためである。	NO_LABEL
