岡 薫は、瀬戸内海放送の高松本社報道制作ユニット所属の元アナウンサーで報道記者を兼務していた。	おかかおるわ、せとないかいほーそーのたかまつほんしゃほーどーせいさくゆにっとしょぞくのもとあなうんさーでほーどーきしゃをけんむしていた。	NO_LABEL
東京都府中市出身。	とーきょーとふちゅーししゅっしん。	NO_LABEL
山形大学農学部を卒業後2003年KSBに入社。	NO_PRONOUNCE	NO_LABEL
2008年7月からは報道記者としても活躍していて、2009年1月から『KSBスーパーJチャンネル』のニュースキャスター、及び『自由人、会社人〜トップの横顔〜』のナビゲーターを担当するなど、KSBを代表するアナウンサーとなった。	NO_PRONOUNCE	NO_LABEL
2013年3月に東京支社営業ユニットへ異動。	にせんじゅうさんねんさんがつにとーきょーししゃえいぎょーゆにっとえいどー。	NO_LABEL
