ハンガリー音階は、ハンガリー以東のヨーロッパで民謡に使われる短音階のこと。	はんがりーおんかいわ、はんがりーいとーのよーろっぱでみんよーにつかわれるたんおんかいのこと。	NO_LABEL
通常の旋律的短音階、和声的短音階と異なり、増音程を複数取り入れる特徴がある。	つーじょーのせんりつてきたんおんかい、わせいてきたんおんかいとことなり、ぞーおんていをふくすーとりいれるとくちょーがある。	NO_LABEL
イを主音とした場合、	いをしゅおんとしたばあい、	NO_LABEL
であるが、ハンガリー音階は	であるが、はんがりーおんかいわ	NO_LABEL
と増二度を2つ取り入れている。	とぞーにどをふたつとりいれている。	NO_LABEL
増音程を用いると東洋的な雰囲気を演出できるので、民族主義的な作曲家が好んで用いている。	ぞーおんていをもちいるととーよーてきなふんいきをえんしゅつできるので、みんぞくしゅぎてきなさっきょくかがこのんでもちいている。	NO_LABEL
ショパン、リストの作品では作曲語法の中心に据えられており、暗譜する際に理解を欠かすことができない。	しょぱん、りすとのさくひんでわさっきょくごほーのちゅーしんにすえられており、あんぷするさいにりかいをかかすことができない。	NO_LABEL
現代の音楽作品でも「アジアンテイスト」で訴えかけたい楽曲に頻繁に登場する。	NO_PRONOUNCE	NO_LABEL
