二日市保養所は、福岡県筑紫郡二日市町にあった厚生省引揚援護庁の医療施設。	ふつかいちほよーじょわ、ふくおかけんちくしぐんふつかいちちょーにあったこーせいしょーひきあげえんごちょーのいりょーしせつ。	NO_LABEL
ここでは、レイプ被害に遭った日本人女性に堕胎手術や性病の治療を行った。	ここでわ、れいぷひがいにあったにほんじんじょせいにだたいしゅじゅつやせいびょーのちりょーをおこなった。	NO_LABEL
終戦直後より在満・在朝日本人は塗炭の苦しみを味わうことになった。	NO_PRONOUNCE	NO_LABEL
追放や財産の略奪に止まらず、強制連行や虐殺などで、祖国の地を踏むことなく無念のうちに斃れた者も少なくなかった。	NO_PRONOUNCE	NO_LABEL
これに加えて女性は、朝鮮人やソ連兵、中国人等による度重なる強姦を受けた末、心ならずも妊娠したり、性病に罹ったりしたにもかかわらず、何ら医療的治療が施されずにいた。	これにくわえてじょせいわ、ちょーせんじんやそれんへい、ちゅーごくじんとーによるたびかさなるごーかんをうけたすえ、こころならずもにんしんしたり、せいびょーにかかったりしたにもかかわらず、なんらいりょーてきちりょーがほどこされずにいた。	NO_LABEL
そして強姦により妊娠・性病罹患した女性の中には、これを苦にして自殺する者が出た。	NO_PRONOUNCE	NO_LABEL
ソウルから釜山にかけての旅程にいる引揚者の治療にあたるため、移動医療局という組織が形成されていた。	そうるからぷさんにかけてのりょていにいるひきあげしゃのちりょーにあたるため、いどーいりょーきょくとゆうそしきがけいせいされていた。	NO_LABEL
これを手掛けたのは文化人類学者の泉靖一で、のちの在外同胞援護会救療部も、一部の資料によれば泉が働きかけて資金援助をとりつけ作り上げたとされる。	これをてがけたのわぶんかじんるいがくしゃのいずみせいーちで、のちのざいがいどーほーえんごかいきゅーりょーぶも、いちぶのしりょーによればいずみがはたらきかけてしきんえんじょをとりつけつくりあげたとされる。	NO_LABEL
移動医療局は、釜山日本人世話会と共同で検診する女性を対象に1945年12月より被害調査を行っていた。	いどーいりょーきょくわ、ふさんにほんじんせわかいときょーどーでけんしんするじょせいをたいしょーにせんきゅうひゃくよんじゅうごねんじゅーにがつよりひがいちょーさをおこなっていた。	NO_LABEL
 1946年3月の調査では、調査対象者885人のうち、レイプ被害者70人、性病罹患患者19人、約1割が性犯罪の被害に遭っているという数字が示された。	せんきゅうひゃくよんじゅうろくねさんがつのちょーさでわ、ちょーさたいしょーしゃはっぴゃくはちじゅうごにんのうち、れいぷひがいしゃななじゅうにん、せいびょーりかんかんじゃじゅうくにん、やくいちわりがせいはんざいのひがいにあっているとゆうすーじがしめされた。	NO_LABEL
朝鮮に在留していた日本人を治療していた経験を持ち、継続して今度は引揚者の治療にあたりたいと志願したのが、旧京城帝国大学医学部医局員グループで、外務省に働きかけて省の外郭団体である在外同胞援護会の「救療部」]]として活動を始めていた。	NO_PRONOUNCE	NO_LABEL
引揚船に船医を派遣したが、搭乗者していた日本人の大多数は朝鮮北部からの引揚者で、特に婦女子の有様は凄惨であった。	ひきあげせんにせんいをはけんしたが、とーじょーしゃしていたにっぽんじんのだいたすーわちょーせんほくぶからのひきあげしゃで、とくにふじょしのありさまわせいさんであった。	NO_LABEL
なかには性的被害に遭った者、なおかつ性病感染や妊娠させられた女性もおり、彼女らに対しなんら救済措置も用意されていない次第を博多引揚援護局に報告し、被害者患者のための病院の設立を具申した。	なかにわせいてきひがいにあったもの、なおかつせいびょーかんせんやにんしんさせられたじょせいもおり、かのじょらにたいしなんらきゅーさいそちもよーいされていないしだいをはかたひきあげえんごきょくにほーこくし、ひがいしゃかんじゃのためのびょーいんのせつりつをぐしんした。	NO_LABEL
提案は受け入れられ、在外同胞援護会と引揚援護局の協力により、1946年3月25日に「二日市保養所」が開設されることになった。	NO_PRONOUNCE	NO_LABEL
病院の開設や人員確保の経緯はは以上の通りだが、これとは別に、医師たちがなぜ違法な中絶手術を恒常的に行う道に踏み切れたのか、そのきっかけとなったというエピソードも紹介される：このグループの仲間の一員は、朝鮮での元教え子に遭遇するが、彼女は国民学校に赴任しており、凌辱されたために妊娠して腹が大きくなっているのが目立ってきた。	NO_PRONOUNCE	NO_LABEL
両親に歎願で中絶手術を決行したが、失敗し、母子ともに死亡した。	りょーしんにたんがんでちゅーぜつしゅじゅつをけっこーしたが、しっぱいし、ぼしともにしぼーした。	NO_LABEL
二日市保養所は、かつての愛国婦人会の保養所だったところである。	ふつかいちほよーじょわ、かつてのあいこくふじんかいのほよーじょだったところである。	NO_LABEL
閑静な立地条件にあり、温泉も湧き出ており療養には最適であった。	かんせいなりっちじょーけんにあり、おんせんもわきでておりりょーよーにわさいてきであった。	NO_LABEL
木造2階建てで、上の階は14、 15室あり小さい部屋に分かれていた。	NO_PRONOUNCE	NO_LABEL
そして何よりも交通の便がよいが、人目に触れにくい場所であることから選定された。	そしてなによりもこーつーのびんがよいが、ひとめにふれにくいばしょであることからせんていされた。	NO_LABEL
以下の職員によって構成された。	いかのしょくいんによってこーせいされた。	NO_LABEL
当時の看護師、吉田ハルヨはNHK「戦争証言アーカイブス」で中絶手術について証言している。	NO_PRONOUNCE	NO_LABEL
当該女性に対して、この施設の存在をどのようにして広報するかが大きな問題であった。	とーがいじょせいにたいして、このしせつのそんざいをどのよーにしてこーほーするかがおーきなもんだいであった。	NO_LABEL
内容が内容だけに、慎重な対処が求められた。	ないよーがないよーだけに、しんちょーなたいしょがもとめられた。	NO_LABEL
そこで採られたのが、引揚船の医師を通じてのビラの配布であった。	そこでとられたのが、ひきあげせんのいしをつーじてのびらのはいふであった。	NO_LABEL
そこには「不法な暴力と脅迫で体に異常を感じつつある方は、診療所へ収容し健全なる体にする」旨が記されていた。	NO_PRONOUNCE	NO_LABEL
婉曲的表現になっているのは被害に遭った女性に対する配慮である。	えんきょくてきひょーげんになっているのわひがいにあったじょせいにたいするはいりょである。	NO_LABEL
また、すでに引揚が完了し全国に散っていった女性に対しては、有力紙に前述のビラと同様の「本人にはわかるような」婉曲的表現の広告を出し、施設の存在を知らせていた。	NO_PRONOUNCE	NO_LABEL
博多港では、博多引揚援護局が、博多検疫所および女子健康相談所を1946年4月25日に設置し、妊娠、違法妊娠、性病の検査・問診を行い、選別された対象者を国立福岡療養所や二日市保養所に送致していた。	NO_PRONOUNCE	NO_LABEL
当初は自己申告または一目で明らかな妊婦を検診していたが、それではすべてを把握できないということで、14歳以上すべての女性を検査する方針に変更になり、そのために博多の現場には婦人検診室も設けられた。	とーしょわじこしんこくまたわいちもくであきらかなにんぷをけんしんしていたが、それでわすべてをはあくできないとゆうことで、じゅうよんさいいじょーすべてのじょせいをけんさするほーしんにへんこーになり、そのためにはかたのげんばにわふじんけんしんしつももーけられた。	NO_LABEL
国から違法な妊娠中絶の施術を強制された医師はその不本意を述べている。	くにからいほーなにんしんちゅーぜつのしじゅつをきょーせいされたいしわそのふほんいをのべている。	NO_LABEL
二日市保養所の医務主任だった橋爪将の報告書によると、施設の開設から2か月間で強姦被害者の加害男性の国籍内訳は、朝鮮28人、ソ連8人、支那6人、米国3人、台湾・フィリピンが各1人だった。	NO_PRONOUNCE	NO_LABEL
1947年秋の施設閉鎖までに約400～500件の堕胎手術をおこなったと推計される。	NO_PRONOUNCE	NO_LABEL
麻酔薬が不足していたため、麻酔無しの堕胎手術が行われ、死者も少なからず出た。	ますいやくがふそくしていたため、ますいなしのだたいしゅじゅつがおこなわれ、ししゃもすくなからずでた。	NO_LABEL
二日市保養所は、優生保護法の施行にともない、1947年秋頃に閉鎖した。	ふつかいちほよーじょわ、ゆーせいほごほーのしこーにともない、せんきゅうひゃくよんじゅうななねあきごろにへいさした。	NO_LABEL
同保養所の主務官庁である引揚援護庁は1954年まで存続した。	どーほよーしょのしゅむかんちょーであるひきあげえんごちょーわせんきゅうひゃくごじゅうよねんまでそんぞくした。	NO_LABEL
その後、同敷地に済生会二日市病院が建てられた。	そのご、どーしきちにさいせいかいふつかいちびょーいんがたてられた。	NO_LABEL
なお、むさし苑の駐車場の隅には二日市保養所跡の石碑が建てられている。	なお、むさしえんのちゅーしゃじょーのすみにわふつかいちほよーじょあとのせきひがたてられている。	NO_LABEL
上坪隆『水子の譜』には、二日市保養所以外に九州帝国大学医学部、国立福岡療養所、九州高等医学専門学校が特殊婦人患者の治療にあたったとある。	NO_PRONOUNCE	NO_LABEL
また同書によると、佐世保港に上陸した満鮮引揚特殊婦人入院患者に対しては陸軍病院中原療養所が手術・治療にあたった。	NO_PRONOUNCE	NO_LABEL
<!-refsに* 戦後…博多港引き揚げ者らの体験-->	NO_PRONOUNCE	NO_LABEL
