芳野三絶は、吉野山の桜と南朝への感傷を詠った漢詩のうち、代表的な3首の七言絶句をいう総称。	NO_PRONOUNCE	NO_LABEL
芳野は吉野の雅称。	よしのわよしののがしょー。	NO_LABEL
梁川星巌の「芳野懐古」	NO_PRONOUNCE	NO_LABEL
藤井竹外の「芳野懐古」	NO_PRONOUNCE	NO_LABEL
河野鉄兜の「芳野懐古」	NO_PRONOUNCE	NO_LABEL
頼杏坪の「遊芳野」を入れることもある。	NO_PRONOUNCE	NO_LABEL
