『毛皮を着たヴィーナス』は、「小ロシアのツルゲーネフ」と謳われたウクライナ出身の小説家マゾッホが、1871年に書いた中編小説。	NO_PRONOUNCE	NO_LABEL
彼の代表作であり、そこには「マゾヒズム」の開花が見てとれる。	NO_PRONOUNCE	NO_LABEL
ポルノグラフィカルな性愛小説とみなされがちであるが、ドゥルーズは本作を「ポルノロジー」という、より次元の高いジャンルで扱うことを求めた。	NO_PRONOUNCE	NO_LABEL
毛皮を着たヴィーナスと戯れる夢をみていた「私」は、来訪していた友人宅の従僕に起こされる。	NO_PRONOUNCE	NO_LABEL
友人であるゼヴェリーンにその奇妙な夢を語りながら、「私」はふと壁にかかっていた絵がまさに「毛皮を着たヴィーナス」を描いていることに気づく。	NO_PRONOUNCE	NO_LABEL
独自の女性観を持っているゼヴェリーンは、粗相をした女中に鞭打とうとすることを制止した「私」に、夢の話への返答として、かつての自分の経験をまとめた原稿を読むことを薦めた。	NO_PRONOUNCE	NO_LABEL
それによれば、	それによれば、	NO_LABEL
退屈なカルパチアの保養地で過ごすゼヴェリーンは、そこで彫刻のように美しい女性、ワンダと出会った。	NO_PRONOUNCE	NO_LABEL
まだごく若い彼女は未亡人であった。	まだごくわかいかのじょわみぼーじんであった。	NO_LABEL
ゼヴェリーンはその美貌と奔放さに惹かれ、またワンダも知性と教養を備えた彼を愛するようになる。	NO_PRONOUNCE	NO_LABEL
自分が苦痛に快楽を見出す「超官能主義者」であることを告白した彼は、ワンダにその苦痛を与えて欲しいと頼む。	NO_PRONOUNCE	NO_LABEL
そして自分を足で踏みつけ、鞭で打つときには必ず毛皮を羽織ってくれ、とも。	そしてじぶんをあしでふみつけ、むちでうつときにわかならずけがわをはおってくれ、とも。	NO_LABEL
はじめはそれを拒絶していたワンダだが、彼への愛ゆえにそれを受け入れる。	はじめわそれをきょぜつしていたわんだだが、かれえのあいゆえにそれをうけいれる。	NO_LABEL
そして2人は契約書を交わし、奴隷と主人という関係になる。	そしてふたりわけいやくしょをかわし、どれいとしゅじんとゆうかんけいになる。	NO_LABEL
しかしワンダにとって結局それは演技でしかなかった。	しかしわんだにとってけっきょくそれわえんぎでしかなかった。	NO_LABEL
「奴隷」を連れて旅行した先のイタリアで、ワンダの前に第三の男が現れる。	NO_PRONOUNCE	NO_LABEL
ゼヴェリーンは嫉妬という苦痛に狂いそうになるが、ワンダは再び彼への愛を告げ、第三の男は意中にないと断言した。	NO_PRONOUNCE	NO_LABEL
その翌朝、ワンダの寝室を訪れたゼヴェリーンはいつものようにワンダへ鞭打ちを頼み、縄で縛りつけてもらう。	NO_PRONOUNCE	NO_LABEL
すると突然、そこに隠れていた第三の男が現れる。	するととつぜん、そこにかくれていただいさんのおとこがあらわれる。	NO_LABEL
第三の男は力の限りを尽くしてゼヴェリーンを鞭で打ちつけ、その間ワンダは笑いこけるばかりであった。	NO_PRONOUNCE	NO_LABEL
縄をほどかぬまま、2人は屋敷を出て行く。	なわをほどかぬまま、ふたりわやしきをでていく。	NO_LABEL
しばらくしてワンダからゼヴェリーンへ手紙が届いた。	NO_PRONOUNCE	NO_LABEL
そこにある、当時の行いが「治療」であったという文章に、ゼヴェリーンは心から納得するのだった。	NO_PRONOUNCE	NO_LABEL
原稿を読み終えた「私」にテーマを問われたゼヴェリーンは、「女は男の奴隷になるか暴君になるかのいずれかであって、絶対にともに肩を並べた朋輩にはなりえない」という持論を改めて述べるのだった。	NO_PRONOUNCE	NO_LABEL
この小説はマゾッホのかつての恋愛体験をなぞっていると考えられており、特に上述の「契約書」などの細部にはほぼそのまま「切子のように」に嵌め込まれている。	NO_PRONOUNCE	NO_LABEL
ワンダのモデルとして考えられている女性は、主に2人いる。	わんだのもでるとしてかんがえられているじょせいわ、おもにふたりいる。	NO_LABEL
当時愛人関係にあった人妻ファニー・ピストールと、この小説を書いた後に出会い、伴侶としたワンダ・フォン・マゾッホである。	NO_PRONOUNCE	NO_LABEL
マゾッホはワンダ・マゾッホとともに本作の筋を追うような生活を送り、第三者からの「寝取られ」によって関係が破綻するという点まで小説と同じであった。	NO_PRONOUNCE	NO_LABEL
マゾッホは小説の構図にあえて重ねるかのように、ワンダにこんな手紙を送っている。	まぞっほわしょーせつのこーずにあえてかさねるかのよーに、わんだにこんなてがみをおくっている。	NO_LABEL
「"私の労に対して、あなたは鞭で報いてくれるのでしょうね、いいですか?あなたは、ビロードと絹と、それから装身具のたぐいが好きだそうですが、毛皮もお好みではないのですか?あなたも―それだけのお金があれば、の話ですが―毛皮の縁取りをしたジャケットを、家の中で着てみる気はありませんか?"……」。	NO_PRONOUNCE	NO_LABEL
平野嘉彦はこういった「時系列の狂い」「複製性」が、マゾッホの倒錯の本質であると指摘している。	NO_PRONOUNCE	NO_LABEL
例えば、この小説におけるワンダのイメージである「ヴィーナス」は、彼女が登場する前に「『私』の夢」や「ティッツァーノの絵」、「大理石の彫刻」として何度も繰り返し現れ、その後にやっとワンダ本人が登場する。	NO_PRONOUNCE	NO_LABEL
しかし、その後も彼女は「彫刻」「鏡」「肖像画」として反復、複製される。	NO_PRONOUNCE	NO_LABEL
また極めて象徴的に描かれる「ティッツァーノの絵」も、そもそもが複製画であり、「大理石の彫刻」もレプリカなのである。	NO_PRONOUNCE	NO_LABEL
平野はこれらのモチーフについて、「この小説に、いわば自己言及的な性格を与え」ており、「この物語は、そのまま『金の額縁におさめられ』た図像であるかのような」状況をもたらしている、と指摘している。	NO_PRONOUNCE	NO_LABEL
またこのような反復にある単調さ、退屈さは、それ自体が作者の「マゾヒズム」の一部であり、意図的なものだと平野はいう。	NO_PRONOUNCE	NO_LABEL
またドゥルーズは同様の点における未決定の宙吊り状態に着目し、小説に純粋な技巧としての宙吊りを取り入れたのはマゾッホが嚆矢であるとしている。	またどぅるーずわどーよーのてんにおけるみけっていのちゅーずりじょーたいにちゃくもくし、しょーせつにじゅんすいなぎこーとしてのちゅーずりをとりいれたのわまぞっほがこーしであるとしている。	NO_LABEL
彼によれば、「宙吊り」は単にゼヴェーリンが吊るされ、磔にされるということだけでなく、中心的な場面でワンダの仕草が彫刻や絵画、鏡などの「写真的場面」において凝固し、時間が停止することでもある。	NO_PRONOUNCE	NO_LABEL
そしてドゥルーズによれば、この未決定性はマゾッホになぜか猥褻な直接的描写が存在しないこととも関わっている。	そしてどぅるーずによれば、このみけっていせいわまぞっほになぜかわいせつなちょくせつてきびょーしゃがそんざいしないことともかかわっている。	NO_LABEL
そういった描写そのものが宙吊りにされ、否認されてしまうからだ。	そういったびょーしゃそのものがちゅーずりにされ、ひにんされてしまうからだ。	NO_LABEL
ワンダはゼヴェリーンと出会った頃から奔放な女性であるが、サディスティックな人間ではなかった。	NO_PRONOUNCE	NO_LABEL
ゼヴェーリンが「"とうとうその足を持ち上げて自分の頸の上にのせ"」ると、「"彼女はすばやくその足を引っ込め、ほとんど激怒の表情を浮かべながら立ち上が"」り、拒絶する。	NO_PRONOUNCE	NO_LABEL
しかし、ゼヴェーリンによって「教育」されたワンダは「契約」を結び、ついには彼を愛人である第三の男に鞭打たせるまでサディスティックな人間に変貌する。	NO_PRONOUNCE	NO_LABEL
この「教育」と「契約」こそ、ドゥルーズがマゾヒズムの本質としたものだ。	NO_PRONOUNCE	NO_LABEL
それは、サディズムの本質である「命令」と「破棄」とは全く対照的である。	NO_PRONOUNCE	NO_LABEL
ドゥルーズによれば、マゾッホは「人格的訓育者」であり、マゾヒズムの享受者は専制的な人間を「養成せねばならない。	NO_PRONOUNCE	NO_LABEL
説得し、契約に『署名』させなければならない」のである。	NO_PRONOUNCE	NO_LABEL
つまり、マゾッホの小説には、「悦楽を覚える拷問者」は存在しない。	NO_PRONOUNCE	NO_LABEL
あくまで犠牲者が拷問者を説得し、訓育するのである。	あくまでぎせいしゃがごーもんしゃをせっとくし、くんいくするのである。	NO_LABEL
ドゥルーズによれば汎スラヴ主義に駆り立てられていたマゾッホは、この作品に「東と西」という対立項を持ち込んだ。	NO_PRONOUNCE	NO_LABEL
小説の舞台こそドイツやイタリアであるが、ゼヴェリーンのマゾヒステリックな愉楽は「殉教者」のそれに比せられるし、ワンダは自分自身や2人の関係を古代ギリシャの価値観によって定位し、また異教徒だと自称する。	NO_PRONOUNCE	NO_LABEL
またワンダには「エカチェリーナ2世のような」という形容が繰り返されるれ、しかも彼女が新たな愛人に選んだ第三の男を「ギリシャ人」という名で語り手は呼ぶ。	NO_PRONOUNCE	NO_LABEL
さらにはゼヴェリーンが奴隷契約に相応しい場所がコンスタンティノープルだと考えているように、本作の時空間はつねに西欧・近代からずらされていく。	NO_PRONOUNCE	NO_LABEL
ドゥルーズはワンダを「ギリシャ風娼婦」と「サディスト」に分類しつつ、最も重要なのは、その中間において「宙吊り状態」にある彼女の動揺なのだとしている。	NO_PRONOUNCE	NO_LABEL
ワンダは毛皮のドレスと共に、「カツァバイカ」をしばしばまとう。	NO_PRONOUNCE	NO_LABEL
そこでは、「契約」などが生み出す西欧の近代的な権力・暴力が、「毛皮」によって東欧の一地方と結びつけられることになる、と平野はいう。	NO_PRONOUNCE	NO_LABEL
