徐州駅は中華人民共和国江蘇省徐州市泉山区津浦西路に位置する中国鉄路総公司上海鉄路局が管轄する駅である。	じょしゅーえきわちゅーかじんみんきょーわこくこうそしょーじょしゅうしいずみやまくつのうらにしろにいちするちゅーごくてつろそーこーししゃんはいてつろきょくがかんかつするえきである。	NO_LABEL
京滬、隴海の二大幹線が交差する中国鉄道の要衝である。	NO_PRONOUNCE	NO_LABEL
単式ホーム1面、島式ホーム4面の地上駅である。	NO_PRONOUNCE	NO_LABEL
北側に大規模な操車場のある徐州北駅が隣接し、北駅を含めて環状線が有り各方向へ発着可能である。	きたがわにだいきぼなそーしゃじょーのあるじょしゅーきたえきがりんせつし、きたえきをふくめてかんじょーせんがありかくほーこーえはっちゃくかのーである。	NO_LABEL
各種別を含め毎日190本余りの列車が発着する。	NO_PRONOUNCE	NO_LABEL
