酒井 忠直は、若狭小浜藩の第2代藩主。	さかいただなおわ、わかさおばまはんのだいにだいはんしゅ。	NO_LABEL
小浜藩酒井家3代。	おばまはんさかいかさんだい。	NO_LABEL
寛永7年3月23日、初代藩主・酒井忠勝の4男として生まれる。	NO_PRONOUNCE	NO_LABEL
正保元年、従五位下、修理大夫に叙任する。	しょーほーがんねん、じゅうごいのげ、しゅりのだいぶにじょにんする。	NO_LABEL
慶安2年、兄・忠朝が廃嫡されたため嫡子となり、明暦2年5月26日、父の隠居により家督を継いだ。	NO_PRONOUNCE	NO_LABEL
寛文8年、甥の忠国に1万石を分与して支藩である安房勝山藩を立藩した。	NO_PRONOUNCE	NO_LABEL
寛文12年、元下総佐倉藩主であった甥の堀田正信を預かる。	ひろふみじゅうにねん、もとしたそーさくらはんしゅであったおいのほったまさのぶをあずかる。	NO_LABEL
延宝元年には従四位下、侍従に昇進する。	えんぽーがんねんにわじゅうしーのげ、じじゅーにしょーしんする。	NO_LABEL
しかし延宝5年、正信が密かに上洛し、清水寺や石清水八幡宮に参拝したため、忠直は閉門、正信は阿波徳島藩主・蜂須賀綱通に預け替えられた。	NO_PRONOUNCE	NO_LABEL
藩政においては父の政策を受け継いで、藩の諸制度の確立と整備、新田開発、浦見川治水工事、文学の奨励などを行なって藩政を確立した。	はんせいにおいてわちちのせいさくをうけついで、はんのしょせいどのかくりつとせいび、にったかいはつ、うらみがわちすいこーじ、ぶんがくのしょーれいなどをおこなってはんせいをかくりつした。	NO_LABEL
天和2年7月10日、小浜で死去。	てんわにねんしちがつとおか、おばまでしきょ。	NO_LABEL
享年53。	NO_PRONOUNCE	NO_LABEL
跡を長男の忠隆が継いだ。	あとをちょーなんのただたかがついだ。	NO_LABEL
父の政策を受け継いで藩政を確立したのは、忠直が実直で守成の名君だったからだと言われている。	ちちのせいさくをうけついではんせいをかくりつしたのわ、ただなおがじっちょくでしゅせいのめいくんだったからだといわれている。	NO_LABEL
