学芸図書は、教育、心理、福祉関係の図書及び心理・性格検査のソフトウェアを発行を中心とした出版業者。	NO_PRONOUNCE	NO_LABEL
学芸図書株式会社は、教育・心理・福祉関係の図書及び心理・性格検査のソフトウェアを発行し、大学・短期大学などの教職課程講座の教科書として多く採択されている。	NO_PRONOUNCE	NO_LABEL
教師や教師を目指す方々は一度は学芸図書の本を開いたことがあるといわれている。	きょーしやきょーしをめざすかたがたわいちどわがくげいとしょのほんをひらいたことがあるといわれている。	NO_LABEL
また、学芸図書が発行する心理・性格検査等は、研究者をはじめ病院、教育現場、人事管理者、個人の心の健康管理などに広く用いられている。	NO_PRONOUNCE	NO_LABEL
教育に主眼をおいて一貫して教師養成のための教科書・参考書を発行してきた。	NO_PRONOUNCE	NO_LABEL
1961年に「教育原理」の初版を発行以来、毎年多くの教職講座で採用され、最新版「教育原理 十訂版」にいたるまで、50年近くにわたり改訂を施し版を重ねている。	NO_PRONOUNCE	NO_LABEL
1991年に教職課程講座全7巻を発行し、その後の教育関係法規の改正や学習指導要領の改訂等に合わせ、順次改訂をし充実を図っている。	せんきゅうひゃくきゅうじゅういちねんにきょーしょくかていこーざぜんななかんをはっこーし、そのごのきょーいくかんけいほーきのかいせいやがくしゅーしどーようりょーのかいていとーにあわせ、じゅんじかいていをしじゅーじつをはかっている。	NO_LABEL
さらに、今日では、大きな課題である社会福祉関係の書籍の発行にも努め「教育と福祉」という二本柱を中心に出版業務を展開している。	NO_PRONOUNCE	NO_LABEL
