アクションゲームツクールは、エンターブレインから発売されている2Dアクションゲーム製作用ソフトウェア。	あくしょんげーむつくーるわ、えんたーぶれいんからはつばいされているつーでぃーあくしょんげーむせいさくよーそふとうぇあ。	NO_LABEL
製作会社はスマイルブーム。	せいさくがいしゃわすまいるぶーむ。	NO_LABEL
『アクツク』が主な略称。	NO_PRONOUNCE	NO_LABEL
ツクールシリーズとしては新基軸となる、2Dアクションゲーム制作専用ツクールである。	つくーるしりーずとしてわしんきじくとなる、つーでぃーあくしょんげーむせいさくせんよーつくーるである。	NO_LABEL
すでにコンテストパークが休止していた2008年9月、何の前触れも無く発売が発表された。	すでにこんてすとぱーくがきゅーししていたにせんはちねんくがつ、なにのまえぶれもなくはつばいがはっぴょーされた。	NO_LABEL
名称こそ「アクション」と冠してはいるが、純粋なアクションゲーム以外にも、多様なシステムに対応している。	NO_PRONOUNCE	NO_LABEL
具体的に言えば、同梱された「ジャンプアクション」「アクションRPG」「シューティング」「デモ」の全4種類が用意されているプラグインによって、成長要素のあるアクションRPGや面によって進行方向の違うシューティングゲーム、あるいはそれらを自由に組合せたゲームを制作することが可能である。	NO_PRONOUNCE	NO_LABEL
解像度の選択の幅は大きく広がり、従来のツクールで主流だった縦横比が4:3である320×240、640×480の他、ワイドサイズのモニターやテレビに対応した1280×720など、全部で10種類の中から選択できる。	NO_PRONOUNCE	NO_LABEL
さらに、これらは縦横比を入れ替えることができるので、アーケード版縦スクロールシューティングによく見られる縦長画面の再現も容易である。	さらに、これらわじゅーおーひをいれかえることができるので、あーけーどばんたてすくろーるしゅーてぃんぐによくみられるたてなががめんのさいげんもよーいである。	NO_LABEL
制作した作品は、これまでのツクールシリーズと同じWindows上で動作する実行ファイルの他、Microsoft XNA テンプレート形式として書き出すことができる。	せいさくしたさくひんわ、これまでのつくーるしりーずとおなじうぃんどうずじょーでどーさするじっこーふぁいるのほか、まいくろそふとえっくすえぬえーてんぷれーとけいしきとしてかきだすことができる。	NO_LABEL
また、事前に専用の開発環境を用意しておくことで、SWF形式として出力することも可能である。	また、じぜんにせんよーのかいはつかんきょーをよーいしておくことで、えすだぶりゅーえふけいしきとしてしゅつりょくすることもかのーである。	NO_LABEL
しかしこうした出力を行った際、仕様上ゲームパッドが使えなくなるなど一部のゲームシステムが変更されるので、制作時にこの点を留意しておかないとゲーム性が大きく変わってしまう恐れがある。	しかしこーしたしゅつりょくをおこなったさい、しよーじょーげーむぱっどがつかえなくなるなどいちぶのげーむしすてむがへんこーされるので、せいさくじにこのてんをりゅーいしておかないとげーむせいがおーきくかわってしまうおそれがある。	NO_LABEL
ネットワーク認証を採用している。	ねっとわーくにんしょーをさいよーしている。	NO_LABEL
これは著作権保護のためにRPGツクールXP、VXにも使われているもので、現行の版ではインストール時、及びそれ以降も定期的にインターネットに接続しての認証作業が必要となる。	NO_PRONOUNCE	NO_LABEL
本作では体験版に到るまでネットワーク認証が必要であり、プロジェクトの保存回数が50回までという制限がある。	もとさくではたいけんばんにいたるまでねっとわーくにんしょーがひつよーであり、ぷろじぇくとのほぞんかいすーがごじゅっかいまでとゆうせいげんがある。	NO_LABEL
選択可能な解像度	せんたくかのーなかいぞーど	NO_LABEL
さらに、縦と横のサイズの交換も可能。	さらに、たてとよこのさいずのこーかんもかのー。	NO_LABEL
発売当初の特別企画として、『秘密結社 鷹の爪』とのコラボレーション企画が実施された。	NO_PRONOUNCE	NO_LABEL
その内容は、『鷹の爪』の登場キャラクターによるゲーム制作の紹介という形でのPV、及びその結果完成したという設定の『山陰国獲り物語』をモチーフとした短編アクションゲーム『山陰国獲りゲーム』の期間限定公開というものであった。	NO_PRONOUNCE	NO_LABEL
発売当初、従来のツクールとはエディターの仕様など編集方法が大幅に変更されていることが、以前からの方式に慣れたツクラーに不便さを感じさせ不評を生む事態となり、アマゾンのカスタマーレビューには数件の批判的なコメントと低評価が寄せられた。	はつばいとーしょ、じゅーらいのつくーるとわえでぃたーのしよーなどへんしゅーほーほーがおーはばにへんこーされていることが、いぜんからのほーしきになれたつくらーにふべんさをかんじさせふひょーをうむじたいとなり、あまぞんのかすたまーれびゅーにわすーけんのひはんてきなこめんととていひょーかがよせられた。	NO_LABEL
発売後約5ヶ月が経過した8月19日からは、ファミ通.comの無料ゲームコーナーにほぼ毎週、一般のツクラーが手掛けた新作フリーゲームがアップロードされている。	NO_PRONOUNCE	NO_LABEL
その中には、『フェナックむら ものがたり』や『じぇてぃるじぇな』のように、かつてのコンテストパークで上位入賞したツクラーの手による作品もある。	NO_PRONOUNCE	NO_LABEL
