Polarisは、日本のポップ・バンドである。	NO_PRONOUNCE	NO_LABEL
2000年11月にオオヤユウスケと柏原譲によって結成された。	にせんねんじゅーいちがつにおおやゆうすけとかしわばらゆずるによってけっせいされた。	NO_LABEL
2001年3月に坂田学が加入。	にせんいちねんさんがつにさかたまなぶがかにゅー。	NO_LABEL
フィッシュマンズ風のヴォーカルと浮遊感の漂うサウンドや、10分近くの長さの曲はダブポップと呼ばれる。	NO_PRONOUNCE	NO_LABEL
9月。	くがつ。	NO_LABEL
Nathalie Wiseと共にレーベルFamily Songを設立。	NO_PRONOUNCE	NO_LABEL
11月に『Polaris』でデビュー。	NO_PRONOUNCE	NO_LABEL
外資系CDショップでトップ5に、J-WAVEの「TOKIO HOT 100」では20位圏内にチャートインする。	NO_PRONOUNCE	NO_LABEL
2002年2月に東京・大阪でレーベル設立イベントを開催。	NO_PRONOUNCE	NO_LABEL
日本のみならずアジア各国からもインターネットでチケットを購入したファンが訪れた。	にっぽんのみならずあじあかっこくからもいんたーねっとでちけっとをこーにゅーしたふぁんがおとずれた。	NO_LABEL
6月にセカンド・ミニ・アルバム『Tide』をリリース。	NO_PRONOUNCE	NO_LABEL
初のセルフ・レコーディング、セルフ・エンジニアリング。	NO_PRONOUNCE	NO_LABEL
7月、8月。	しちがつ、はちがつ。	NO_LABEL
FUJI ROCK FESTIVAL、ROCK IN JAPAN FESTIVALに出演。	ふじろっくふぇすてぃばる、ろっくいんじゃぱんふぇすてぃばるにしゅつえん。	NO_LABEL
フル・アルバムのレコーディングに着手。	NO_PRONOUNCE	NO_LABEL
サポート・エンジニアは中野正之。	NO_PRONOUNCE	NO_LABEL
11月フル・アルバム『Home』をリリース。	NO_PRONOUNCE	NO_LABEL
初のワンマン・ツアー。	NO_PRONOUNCE	NO_LABEL
パーティー、continuityをスタート。	NO_PRONOUNCE	NO_LABEL
第一回目はDRY&HEAVYを迎えた。	NO_PRONOUNCE	NO_LABEL
