シュールド・ウェーブは日本のコンピュータゲーム開発会社。	しゅーるどうぇーぶわにっぽんのこんぴゅーたげーむかいはつかいしゃ。	NO_LABEL
「シュールド・ウェーブ」はブランド名であり、正式な商号は「株式会社タケル」である。	NO_PRONOUNCE	NO_LABEL
セピア調のグラフィックスと1900年代初頭の世界観、タイタニック号をモチーフにしたアドベンチャーゲーム『ノスタルジア1907』で話題になる。	NO_PRONOUNCE	NO_LABEL
家庭用ゲーム機の互換ACアダプタや連射機能付きコントローラー「ブラスター」シリーズなどの周辺機器も多く発売していた。	NO_PRONOUNCE	NO_LABEL
1994年頃に倒産に至る。	せんきゅうひゃくきゅうじゅうよねんごろにとーさんにいたる。	NO_LABEL
ちなみに、1990年代初頭にブラザー工業株式会社が展開していたゲームソフト自動販売機「ソフトベンダーTAKERU」と本項の会社は全く無関係である。	NO_PRONOUNCE	NO_LABEL
