千葉県文化会館は、千葉県千葉市中央区市場町にある文化施設。	ちばけんぶんかかいかんわ、ちばけんちばしちゅうおうくいちばちょーにあるぶんかしせつ。	NO_LABEL
千葉都市モノレール1号線県庁前駅の東400メートルの丘陵地に建つ。	ちばとしものれーるいちごーせんけんちょーまええきのひがしよんひゃくめーとるのきゅーりょーちにたつ。	NO_LABEL
本館と別館があり、本館には大ホール、小ホール、練習室5室、レストラン、別館には会議室4室、公益財団法人千葉交響楽団の事務局がある。	NO_PRONOUNCE	NO_LABEL
本館の玄関は東西に1つずつあり、ロビーをはさんで南側が大ホール、北側が小ホールとなっている。	ほんかんのげんかんわとーざいにひとつずつあり、ろびーをはさんでみなみがわがだいほーる、きたがわがしょーほーるとなっている。	NO_LABEL
別館は本館の北東側に隣接。	べっかんわほんかんのほくとーがわにりんせつ。	NO_LABEL
この地にはもともと千葉大学教育学部があったが1962年西千葉キャンパスに移転し、跡地は千葉県に払い下げられた。	このちにわもともとちばだいがくきょーいくがくぶがあったがせんきゅうひゃくろくじゅうにねんにしちばきゃんぱすにいてんし、あとちわちばけんにはらいさげられた。	NO_LABEL
建物は大高正人が設計、戸田建設の施工により1967年2月に竣工、同年4月1日に営業を開始。	たてものわおーたかまさとがせっけい、とだけんせつのしこーによりせんきゅうひゃくろくじゅうななねにがつにしゅんこー、どーねんしがつついたちにえいぎょーをかいし。	NO_LABEL
日本建築学会賞作品賞とBCS賞を受賞した。	NO_PRONOUNCE	NO_LABEL
大ホールの屋根のテントのような外観、リズミカルに張り出したバルコニー席などにデザイン上の特徴がある。	だいほーるのやねのてんとのよーながいかん、りずみかるにはりだしたばるこにーせきなどにでざいんじょーのとくちょーがある。	NO_LABEL
管理運営は公益財団法人千葉県文化振興財団が行っている。	かんりうんえいわこーえきざいだんほーじんちばけんぶんかしんこーざいだんがおこなっている。	NO_LABEL
2013年3月に、一般社団法人日本音響家協会の優良ホール100選に認定される。	にせんじゅうさんねんさんがつに、いっぱんしゃだんほーじんにほんおんきょーかきょーかいのゆーりょーほーるひゃくせんににんていされる。	NO_LABEL
千葉県少年少女オーケストラがこのホールを本拠地として活動を行っている。	ちばけんしょーねんしょーじょおーけすとらがこのほーるをほんきょちとしてかつどーをおこなっている。	NO_LABEL
また、毎年千葉県吹奏楽コンクールA・B部門の予選及び本選の会場にもなっている。	NO_PRONOUNCE	NO_LABEL
2012年度より、隔年で日本学校合奏コンクールグランドコンテストの会場となっており、その予選にあたる千葉県大会が毎年この会場で開催されている。	にせんじゅうにねんどより、かくねんでにっぽんがっこーがっそーこんくーるぐらんどこんてすとのかいじょーとなっており、そのよせんにあたるちばけんたいかいがまいとしこのかいじょーでかいさいされている。	NO_LABEL
