武藤 正史は、日本の男性声優。	むとーせいしわ、にっぽんのだんせいせいゆー。	NO_LABEL
東京都出身。	とーきょーとしゅっしん。	NO_LABEL
桐朋学園芸術短期大学芸術科演劇専攻卒業。	とーほーがくえんげいじゅつたんきげいじゅつかえんげきせんこーそつぎょー。	NO_LABEL
以前はオフィスPACに所属していたが、2013年1月よりアミュレート所属。	いぜんわおふぃすぱっくにしょぞくしていたが、にせんじゅうさんねんいちがつよりあみゅれーとしょぞく。	NO_LABEL
