禁断の刺青は、スコーピオンズが1984年に発表したアルバム。	きんだんのたとぅーわ、すこーぴおんずがせんきゅうひゃくはちじゅうよねんにはっぴょーしたあるばむ。	NO_LABEL
スタジオ・アルバムとしては9作目。	NO_PRONOUNCE	NO_LABEL
前作『蠍魔宮〜ブラックアウト』の成功を引き継ぐ、世界的なヒット・アルバムとなった。	NO_PRONOUNCE	NO_LABEL
第1弾シングル「ハリケーン」は全米25位に達し、後に『ハード・キャンディ』、『リトル★ニッキー』といった映画で使用された。	NO_PRONOUNCE	NO_LABEL
また、同曲は音楽ゲームの『ギターヒーロー3 レジェンド オブ ロック』でも使用された。	NO_PRONOUNCE	NO_LABEL
第2弾シングル「スティル・ラヴィング・ユー」は本国ドイツで14位、アメリカで64位に達した。	NO_PRONOUNCE	NO_LABEL
特記なき楽曲はルドルフ・シェンカーとクラウス・マイネの共作。	とっきなきがっきょくわるどるふしぇんかーとくらうすまいねのきょうさく。	NO_LABEL
