以下は、メジャーリーグベースボールにおける1923年のできごとを記す。	いかわ、めじゃーりーぐべーすぼーるにおけるせんきゅうひゃくにじゅうさんねんのできごとをしるす。	NO_LABEL
1923年4月17日に開幕し10月15日に全日程を終え、ナショナルリーグはニューヨーク・ジャイアンツが3年連続11度目のリーグ優勝を、アメリカンリーグはニューヨーク・ヤンキースが同じく3年連続3度目のリーグ優勝をした。	せんきゅうひゃくにじゅうさんねんしがつじゅうしちにちにかいまくしじゅーがつじゅうごにちにぜんにっていをおえ、なしょなるりーぐわにゅーよーくじゃいあんつがさんねんれんぞくじゅういちどめのりーぐゆうしょーを、あめりかんりーぐわにゅーよーくやんきーすがどうじくさんねんれんぞくさんどめのりーぐゆうしょーをした。	NO_LABEL
ワールドシリーズはニューヨーク・ヤンキースが、ニューヨーク・ジャイアンツを4勝2敗で破り初制覇した。	わーるどしりーずわにゅーよーくやんきーすが、にゅーよーくじゃいあんつをよんしょーにはいでやぶりはつせいはした。	NO_LABEL
ナショナルリーグはニューヨーク・ジャイアンツがフランキー・フリッシュ、ロス・ヤングス 、アイリッシュ・ミューゼルの打線が好調でペナントレースを3連覇した。	NO_PRONOUNCE	NO_LABEL
一方アメリカンリーグではこの年に新球場ヤンキースタジアムに移ったニューヨーク・ヤンキースのベーブ・ルース が本塁打41本、打点131の二冠に輝き、打率も.393の自己最高打率で活躍して、ジャイアンツと同じくリーグ3連覇となった。	NO_PRONOUNCE	NO_LABEL
そしてワールドシリーズでは前年極端な不振に終わったルースが名誉を挽回して打率.368で本塁打3本打ち、第4戦以降ヤンキースが3連勝して初の世界一となった。	NO_PRONOUNCE	NO_LABEL
前年までジャイアンツの本拠地ポロ・グラウンズを借りていたヤンキースだが、マグロー監督に追い出される形となり、ポロ・グラウンズのハーレム川対岸のブロンクス地区に新しい球場ヤンキー・スタジアムを建設し、この年4月18日の開幕戦でオープンした。	ぜんねんまでじゃいあんつのほんきょちぽろぐらうんずをかりていたやんきーすだが、まぐろーかんとくにおいだされるかたちとなり、ぽろぐらうんずのはーれむがわたいがんのぶろんくすちくにあたらしいきゅーじょーやんきーすたじあむをけんせつし、このとししがつじゅうはちにちのかいまくせんでおーぷんした。	NO_LABEL
当時としては最大規模を誇り、始球式には当時のニューヨーク州知事アル・スミスが招かれ、試合は3回裏にルースが記念すべき球場第1号の本塁打を打って、4-1でヤンキースが快勝した。	とーじとしてわさいだいきぼをほこり、しきゅーしきにわとーじのにゅーよーくしゅーちじあるすみすがまねかれ、しあいわさんかいうらにるーすがきねんすべききゅーじょーだいいちごーのほんるいだをうって、しっぴんでやんきーすがかいしょーした。	NO_LABEL
一方ワールドシリーズの球場第1号はルースではなく、ニューヨーク・ジャイアンツの選手が第1戦9回表に左中間へランニングホームランを打っている。	いっぽーわーるどしりーずのきゅーじょーだいいちごーわるーすではなく、にゅーよーくじゃいあんつのせんしゅがだいいちせんきゅうかいひょーにさちゅーかんえらんにんぐほーむらんをうっている。	NO_LABEL
このシリーズ第1号を打ったジャイアンツの選手の名前はケーシー・ステンゲル。	このしりーずだいいちごーをうったじゃいあんつのせんしゅのなまえわけーしーすてんげる。	NO_LABEL
後のヤンキース黄金時代の名監督となった人物である。	ごのやんきーすおーごんじだいのめいかんとくとなったじんぶつである。	NO_LABEL
シーズンMVP	しーずんえむぶいぴー	NO_LABEL
