ラッペンとは、スイスの補助通貨単位で100ラッペンが1スイス・フランにあたる。	NO_PRONOUNCE	NO_LABEL
「ラッペン」という言葉は、13世紀のフライブルク・イム・ブライスガウで鋳造されたペニヒ硬貨に由来する。	NO_PRONOUNCE	NO_LABEL
この硬貨にはワシが刻印されていたが、人々はこれを馬鹿にしてカラスと呼んだ。	このこーかにわわしがこくいんされていたが、ひとびとわこれをばかにしてからすとよんだ。	NO_LABEL
長く鋳造されるにつれて、本物のカラスの絵が刻印されるようになった。	ながくちゅーぞーされるにつれて、ほんもののからすのえがこくいんされるよーになった。	NO_LABEL
別な説として、「ラッペン」とは本来「黒いペニヒ」を意味し、銀が多少含まれているために酸化によりすぐに真っ黒に変色してしまうことからこう呼ばれたという。	NO_PRONOUNCE	NO_LABEL
ラッペンは主にドイツ語圏で使われる言葉であり、フランス語ではサンチーム、イタリア語ではチェンテジモ、ロマンシュ語ではラップと呼ぶ。	らっぺんわおもにどいつごけんでつかわれることばであり、ふらんすごでわさんちーむ、いたりあごでわちぇんてじも、ろまんしゅごでわらっぷとよぶ。	NO_LABEL
リヒテンシュタインの通貨もスイス・フランであるが、この国ではドイツ語圏ということもあり、ラッペンが正式な呼称である。	りひてんしゅたいんのつーかもすいすふらんであるが、このくにでわどいつごけんとゆうこともあり、らっぺんがせいしきなこしょーである。	NO_LABEL
スイスでは5、10、20ラッペン硬貨が発行されている。	NO_PRONOUNCE	NO_LABEL
50ラッペンの硬貨もあるが「フラン」が正式名称である。	NO_PRONOUNCE	NO_LABEL
1ラッペンは2007年に正式に廃止された。	NO_PRONOUNCE	NO_LABEL
なお、10ラッペンのことをBatzenというが、これもかつての補助通貨単位で古来は4クロイツァーに相当した。	NO_PRONOUNCE	NO_LABEL
ラッペンと異なり現在では使われなくなったが、1850年頃まで、バッツェン表記の硬貨が多数製造された。	らっぺんとことなりげんざいでわつかわれなくなったが、せんはっぴゃくごじゅうねんごろまで、ばっつぇんひょーきのこーかがたすーせいぞーされた。	NO_LABEL
