油井 亜衣は、フリーアナウンサー。	ゆいあいわ、ふりーあなうんさー。	NO_LABEL
東京都出身。	とーきょーとしゅっしん。	NO_LABEL
東横学園女子短期大学卒業後、圭三プロダクションの「圭三塾」17期生として学び、ジェイ・アキュートに所属してモデルとして活動していた。	NO_PRONOUNCE	NO_LABEL
2005年、NHK和歌山放送局に契約キャスターとして採用され、2年間勤務。	にせんごねん、えぬえいちけいわかやまほーそーきょくにけいやくきゃすたーとしてさいよーされ、にねんかんきんむ。	NO_LABEL
その後2007年から秋田朝日放送、2009年から瀬戸内海放送で契約アナウンサーとして2年ずつ活動した。	そのごにせんななねんからあきたあさひほうそー、にせんきゅうねんからせとないかいほーそーでけいやくあなうんさーとしてにねんずつかつどーした。	NO_LABEL
瀬戸内海放送退社後はテレビ朝日アスクのアナウンサー派遣部門「アスクマネージメント」に登録し、フリーアナウンサーとして活動した。	NO_PRONOUNCE	NO_LABEL
2011年10月、NHK水戸放送局に契約キャスターとして採用され、4年半ぶりにNHKでの活動を再開した。	にせんじゅういちねんじゅーがつ、えぬえいちけいみとほーそーきょくにけいやくきゃすたーとしてさいよーされ、よんねんはんぶりにえぬえいちけいでのかつどーをさいかいした。	NO_LABEL
2014年3月、水戸放送局を退局。	にせんじゅうよねんさんがつ、みとほーそーきょくをしさきょく。	NO_LABEL
