オラフ・トーンは、ドイツ・ゲルゼンキルヒェン出身の元サッカー選手。	NO_PRONOUNCE	NO_LABEL
選手時代のポジションはミッドフィルダー、ディフェンダー。	せんしゅじだいのぽじしょんわみっどふぃるだー、でぃふぇんだー。	NO_LABEL
地元の有力クラブであるシャルケ04の下部組織を経て、1983年に16歳でプロデビュー。	じもとのゆーりょくくらぶであるしゃるけぬるふぃあのかぶそしきをへて、せんきゅうひゃくはちじゅうさんねんにじゅうろっさいでぷろでびゅー。	NO_LABEL
当時ブンデスリーガ1部と2部を行き来していたクラブにあって、10代にして主力選手として活躍。	とーじぶんですりーがいちぶとにぶをいききしていたくらぶにあって、じゅうだいにしてしゅりょくせんしゅとしてかつやく。	NO_LABEL
身長170 cmと小柄ながら、攻撃的MFとして優れた状況判断力と豊富な運動量でチームを牽引した。	NO_PRONOUNCE	NO_LABEL
程なく西ドイツ代表にも選出され、1984年12月16日の対マルタ戦で代表デビューを果たした。	ほどなくにしどいつだいひょーにもせんしゅつされ、せんきゅうひゃくはちじゅうよねんじゅーにがつじゅうろくにちのたいまるたせんでだいひょーでびゅーをはたした。	NO_LABEL
1986年のワールドカップメキシコ大会や、地元開催となった1988年のUEFA欧州選手権に臨む代表メンバーにも名を連ねている。	せんきゅうひゃくはちじゅうろくねんのわーるどかっぷめきしこたいかいや、じもとかいさいとなったせんきゅうひゃくはちじゅうはちねんのうえふぁおーしゅーせんしゅけんにのぞむだいひょーめんばーにもめいをつらねている。	NO_LABEL
1988年に強豪バイエルン・ミュンヘンに移籍。	せんきゅうひゃくはちじゅうはちねんにきょーごーばいえるんみゅんへんにいせき。	NO_LABEL
ゲームメーカーとして攻撃陣の中核を担い、移籍初年度から2シーズン連続でリーグ優勝を成し遂げた。	NO_PRONOUNCE	NO_LABEL
1990年にはワールドカップイタリア大会の代表メンバーに選ばれ、自身は2試合の出場に留まったものの同国の3度目のワールドカップ優勝を経験した。	せんきゅうひゃくきゅうじゅうねんにわわーるどかっぷいたりあたいかいのだいひょーめんばーにえらばれ、じしんわにしあいのしゅつじょーにとまったもののどーこくのさんどめのわーるどかっぷゆーしょーをけいけんした。	NO_LABEL
なお準決勝のイングランド戦ではPK戦の4人目のキッカーとして登場。	なおじゅんけっしょーのいんぐらんどせんでわぴーけーせんのよにんめのきっかーとしてとーじょー。	NO_LABEL
これを確実に決め2大会連続の決勝進出に貢献している。	NO_PRONOUNCE	NO_LABEL
1994年からは故郷に戻りシャルケ04に復帰。	せんきゅうひゃくきゅうじゅうよねんからわこきょーにもどりしゃるけぬるふぃあにふっき。	NO_LABEL
この頃からリベロにポジション転向し、積極果敢な守備と前線への正確なパス供給、好機時の鋭い攻め上がりでチームを牽引した。	このころからりべろにぽじしょんてんこーし、せっきょくかかんなしゅびとぜんせんえのせいかくなぱすきょーきゅー、こーきじのするどいせめあがりでちーむをけんいんした。	NO_LABEL
1997年にはクラブ初の国際タイトルとなるUEFAカップの獲得に貢献した。	せんきゅうひゃくきゅうじゅうななにわくらぶはつのこくさいたいとるとなるうえふぁかっぷのかくとくにこーけんした。	NO_LABEL
また1998年にはワールドカップフランス大会において自身3度目となる代表選出を受け、負傷のため出場できなかったマティアス・ザマーに替わってリベロ役を務めた。	またせんきゅうひゃくきゅうじゅうはちねんにわわーるどかっぷふらんすたいかいにおいてじしんさんどめとなるだいひょーせんしゅつをうけ、ふしょーのためしゅつじょーできなかったまてぃあすざまーにかわってりべろやくをつとめた。	NO_LABEL
2002年に36歳で引退。	にせんにねんにさんじゅうろっさいでいんたい。	NO_LABEL
翌2003年1月にシャルケのホームスタジアム、アレーナ・アウフシャルケで行われた引退試合には6万席以上の客席が満員となるほどのファンが詰めかけた。	NO_PRONOUNCE	NO_LABEL
引退後はシャルケ04の監査役を経て、2010-2011シーズンにノルトライン＝ヴェストファーレン州リーグのヒュルスの監督を務めた。	NO_PRONOUNCE	NO_LABEL
