八幡テレビ中継局は、京都府八幡市に置かれているテレビ中継局。	やわたてれびちゅーけいきょくわ、きょーとふやわたしにおかれているてれびちゅーけいきょく。	NO_LABEL
当テレビ中継局には、京都府域テレビ局であるNHK京都放送局総合テレビと京都放送が中継局を置き、八幡市内などへ電波を発射している。	とーてれびちゅーけいきょくにわ、きょーとふいきてれびきょくであるえぬえいちけいきょーとほーそーきょくそーごーてれびときょーとほうそーがちゅーけいきょくをおき、やわたしないなどえでんぱをはっしゃしている。	NO_LABEL
八幡市八幡荒神塚の鳩ヶ峰	NO_PRONOUNCE	NO_LABEL
