愛媛県立中山高等学校は愛媛県伊予市中山町にあった高等学校。	えひめけんりつなかやまこうとうがっこーわえひめけんいよしちゅーざんちょーにあったこーとーがっこー。	NO_LABEL
伊予市中山地区で唯一の高校であった。	いよしちゅーざんちくでゆいいつのこーこーであった。	NO_LABEL
中山地区には大洲、内子、松山の高校に通う生徒もおり、近年は生徒数が減り続けていた。	なかやまちくにわおーす、うちこ、まつやまのこーこーにかようせいともおり、きんねんわせいとすーがへりつずけていた。	NO_LABEL
中山地区の住民が一体となって県に対して存続を要望したが、高校配置再編計画によって、2011年度は普通科・特用林産科ともに募集は行われず、2012年度末で廃校となった。	NO_PRONOUNCE	NO_LABEL
愛媛県立高校本校で、改組や分校化を伴わずに廃止された学校は中山高校が初めて。	えひめけんりつこーこーほんこーで、かいそやぶんこーかをともなわずにはいしされたがっこーわなかやまこーこーがはじめて。	NO_LABEL
なお、特用林産科は愛媛県立伊予農業高等学校へ統合される形で存続している。	なお、とくよーりんさんかわえひめけんりついよのーぎょーこーとーがっこーえとーごーされるかたちでそんぞくしている。	NO_LABEL
