ポデモスは、スペインの左翼政党である。	ぽでもすわ、すぺいんのさよくせいとーである。	NO_LABEL
党名は英語で「We can」、日本語で「私たちはできる」「われわれには可能だ」の意味。	NO_PRONOUNCE	NO_LABEL
政治思想は左翼大衆主義、反体制主義、欧州懐疑主義。	せいじしそーわさよくたいしゅーしゅぎ、はんたいせいしゅぎ、おーしゅーかいぎしゅぎ。	NO_LABEL
2014年1月に結党され、5月の欧州議会議員選挙では結党4か月にして第4党に躍進した。	NO_PRONOUNCE	NO_LABEL
11月からパブロ・イグレシアスが党首を務めている。	じゅーいちがつからぱぶろいぐれしあすがとーしゅをつとめている。	NO_LABEL
インターネットを基盤にした選挙活動や、マスメディアでの公開討論などを特色としている。	いんたーねっとをきばんにしたせんきょかつどーや、ますめでぃあでのこーかいとーろんなどをとくしょくとしている。	NO_LABEL
バスク語ではAhal Dugu、ガリシア語ではPodemos()と表記される。	NO_PRONOUNCE	NO_LABEL
2011年5月22日に行われた期間中の5月15日に首都マドリードのプエルタ・デル・ソル広場で行われたデモ活動を発端として、スペイン各地に既存政党への抗議運動が広がった。	にせんじゅういちねんごがつにじゅうににちにおこなわれたきかんちゅーのごがつじゅうごにちにしゅとまどりーどのぷえるたでるそるひろばでおこなわれたでもかつどーをほったんとして、すぺいんかくちにきそんせいとーえのこーぎうんどーがひろがった。	NO_LABEL
ポデモスは、この不平等や腐敗に反発する「インディグナードス」という市民運動に源流を持つ。	NO_PRONOUNCE	NO_LABEL
4か月後の9月には占拠による抗議運動が大西洋の対岸に飛び火し、アメリカ合衆国のニューヨークで「ウォール街を占拠せよ」が発生したが、プエルタ・デル・ソル広場のデモはこれらの占拠運動の先駆けとされている。	NO_PRONOUNCE	NO_LABEL
11月の2011年スペイン議会総選挙では社会労働党が敗北し、国民党が7年ぶりに政権を奪ったが、二大政党の得票率や議席数は2008年スペイン議会総選挙を下回り、スペイン共産党が中核となる政党連合統一左翼が躍進するなど、二大政党への反発がうかがえた。	じゅーいちがつのにせんじゅういちねんすぺいんぎかいそーせんきょでわしゃかいろーどーとーがはいぼくし、こくみんとーがななねんぶりにせいけんをうばったが、にだいせいとーのとくひょーりつやぎせきすーわにせんはちねんすぺいんぎかいそーせんきょをしたまわり、すぺいんきょうさんとーがちゅーかくとなるせいとーれんごーとーいつさよくがやくしんするなど、にだいせいとーえのはんぱつがうかがえた。	NO_LABEL
与党の国民党は財政赤字削減のために緊縮財政措置を進めたが、スペインの失業率は過去最高水準に上昇したため、総選挙時に44.6%だった国民党の支持率は11か月後に29.9%にまで下落し、莫大な財政赤字を生み出した主因とされた社会労働党の支持率も同様に下落した。	よとーのこくみんとーわざいせいあかじさくげんのためにきんしゅくざいせいそちをすすめたが、すぺいんのしつぎょーりつわかこさいこーすいじゅんにじょーしょーしたため、そーせんきょじによんじゅうよんてんろくぱーせんとだったこくみんとーのしじりつわじゅういっかげつごににじゅうきゅうてんきゅうぱーせんとにまでげらくし、ばくだいなざいせいあかじをうみだしたしゅいんとされたしゃかいろーどーとーのしじりつもどーよーにげらくした。	NO_LABEL
2013年1月にエル・パイス紙が国民党のヤミ献金疑惑を報じると、国民党の支持率は約20%にまで落ち込み、マリアーノ・ラホイ首相の不支持率は急上昇した。	NO_PRONOUNCE	NO_LABEL
ポデモスの原点は、2014年1月12日・13日の週末に発表され、30人の知識人や著名人が署名した「Mover ficha: convertir la indignación en cambio político」というマニフェストに見つけることができる。	NO_PRONOUNCE	NO_LABEL
この中にはコンプルテンセ大学の政治学教授の、俳優のアルベルト・サン・フアン、の政治学教授のハイメ・パストール、著作家で哲学者のサンティアゴ・アルバ・リコ、のメンバーで元党首のカンディド・ゴンサーレス・カルネーロ、コンプルテンセ大学の応用経済学教授のビビアーナ・メディアルデアなどが含まれる。	NO_PRONOUNCE	NO_LABEL
このマニフェストは、左翼の立場からの欧州連合の政治への反対を目的とし、2014年に行われる欧州議会議員選挙に向けた新政党結成の必要性を訴えた。	このまにふぇすとわ、さよくのたちばからのおーしゅーれんごーのせいじえのはんたいをもくてきとし、にせんじゅうよねんにおこなわれるおーしゅーぎかいぎーんせんきょにむけたしんせいとーけっせいのひつよーせいをうったえた。	NO_LABEL
1月14日、コンプルテンセ大学で政治学の教授であり、テレビの政治討論番組の司会者であるパブロ・イグレシアスが、マニフェストへの署名者ではなかったものの、ポデモス運動のリーダーとなることが発表された。	いちがつじゅうよっか、こんぷるてんせだいがくでせいじがくのきょーじゅであり、てれびのせいじとーろんばんぐみのしかいしゃであるぱぶろいぐれしあすが、まにふぇすとえのしょめいしゃでわなかったものの、ぽでもすうんどーのりーだーとなることがはっぴょーされた。	NO_LABEL
イグレシアスによって強調された点には、憲法135条の免除、憲法第128条の完全な適用、中絶権の維持などがある。	NO_PRONOUNCE	NO_LABEL
また、スペインの北大西洋条約機構からの撤退を要求し、自己決定権を支持した。	また、すぺいんのきたたいせいよーじょーやくきこーからのてったいをよーきゅーし、じこけっていけんをしじした。	NO_LABEL
1月16日には、マドリードのラバピエス地区にあるバリオ劇場でポデモス運動が正式に発表され、この日が新政党の結党日とされている。	いちがつじゅうろくにちにわ、まどりーどのらばぴえすちくにあるばりおげきじょーでぽでもすうんどーがせいしきにはっぴょーされ、このひがしんせいとーのけっとーびとされている。	NO_LABEL
数百人の記者を前にして記者会見が行われ、イグレシアス、モネデーロ、アンダルシア教員組合、の活動家、のメンバーであるテレサ・ロドリゲス、精神科医でマレーア・ブランカのメンバーであるアナ・カスターニョ、研究者でアナリストの、社会活動家の、2011年の総選挙でマドリード選挙区から出馬した反資本主義左翼の闘士やリーダーなどが顔をそろえた。	NO_PRONOUNCE	NO_LABEL
ポデモスの根本的な目的は、国民党によって実施されていた緊縮政策に反対することだった。	ぽでもすのこんぽんてきなもくてきわ、こくみんとーによってじっしされていたきんしゅくせいさくにはんたいすることだった。	NO_LABEL
計画を実行するため、また欧州議会議員選挙に参加するため、ポデモスの屋台骨となるメンバーは3つの条件を設定した。	けいかくをじっこーするため、またおーしゅーぎかいぎーんせんきょにさんかするため、ぽでもすのやたいぼねとなるめんばーわみっつのじょーけんをせっていした。	NO_LABEL
少なくとも50,000人の支持を受けること、選挙名簿とプログラムの双方を公開参加によって精緻化すること、例えば統一左翼、人民統一候補、X党、アンダルシア労働組合、Anovaやマレーアス・シウダダーノスなどの他政党や左派運動と団結すること、の3点である。	NO_PRONOUNCE	NO_LABEL
24時間以内に50,000人の署名が集まり、ポデモスのウェブサイトはその通信量の多さでクラッシュした。	NO_PRONOUNCE	NO_LABEL
2014年4月3日の公開予備選挙で、選挙名簿筆頭がイグレシアスに決定した。	にせんじゅうよねんしがつみっかのこーかいよびせんきょで、せんきょめいぼひっとーがいぐれしあすにけっていした。	NO_LABEL
5月25日に2014年欧州議会議員選挙が行われ、ポデモスは失業中の人物を含む候補者を送りこんだ。	ごがつにじゅうごにちににせんじゅうよんねんおーしゅーぎかいぎーんせんきょがおこなわれ、ぽでもすわしつぎょーちゅーのじんぶつをふくむこーほしゃをおくりこんだ。	NO_LABEL
得票率7.98%となる1,253,837票、54議席中5議席を獲得し、国民党、社会労働党、統一左翼などが中心となった選挙連合のイスキエルダ・プルラルに次ぐ第4党となった。	NO_PRONOUNCE	NO_LABEL
イグレシアスは、「我々はこの欧州議会議員選挙で敗北した。	NO_PRONOUNCE	NO_LABEL
勝利したのは国民党だ。	しょーりしたのわこくみんとーだ。	NO_LABEL
この結果では満足できない」と述べ、エル・パイス紙によって悲観的であるとされた。	NO_PRONOUNCE	NO_LABEL
イグレシアスは自身の目的が「国民党と社会労働党を追い出すまで前進すること」であるとし、「我々はヨーロッパ南部の他政党と協力して活動する。	NO_PRONOUNCE	NO_LABEL
明らかなことは、ドイツの植民地にはしたくないということだ」と述べた。	NO_PRONOUNCE	NO_LABEL
標準的な欧州議会議員の給料は月額8,000ユーロ以上に及ぶが、イグレシアスはポデモスの欧州議会議員がこの給料を受け取らないと述べ、「我々の欧州議会議員は誰ひとりとして、月額1,930ユーロ、つまりスペインの最低賃金3倍分以上を稼がない」と発言した。	NO_PRONOUNCE	NO_LABEL
この欧州議会議員選挙では、イギリスでイギリス独立党が、フランスで国民戦線が、ギリシャで急進左派連合が、デンマークでデンマーク国民党が第1党となり、スペインのポデモスも含め、各国で欧州懐疑主義政党が躍進した。	このおーしゅーぎかいぎーんせんきょでわ、いぎりすでいぎりすどくりつとーが、ふらんすでこくみんせんせんが、ぎりしゃできゅーしんさはれんごーが、でんまーくででんまーくこくみんとーがだいいっとーとなり、すぺいんのぽでもすもふくめ、かっこくでおーしゅーかいぎしゅぎせいとーがやくしんした。	NO_LABEL
ポデモスは欧州議会で欧州統一左派・北方緑の左派同盟に加入した。	ぽでもすわおーしゅーぎかいでおーしゅーとーいつさはほっぽーみどりのさはどーめいにかにゅーした。	NO_LABEL
GUE/NGLは改選前に比べて約1.5倍の勢力となった。	NO_PRONOUNCE	NO_LABEL
2014年5月の欧州議会議員選挙でポデモスが第4党になると、その躍進に関するニュースが盛んに報じられるようになった。	NO_PRONOUNCE	NO_LABEL
選挙翌日のスペインのTwitterでは、「#Pablo Iglesias」というハッシュタグがトレンドトピックの第1位となり、有力紙数紙の一面にイグレシアスの写真が登場した。	NO_PRONOUNCE	NO_LABEL
選挙前の時点ですでにソーシャルネットワーク上では筆頭勢力だったが、公式Facebook上の「いいね!」回数は、5月から7月の間に100,000回から600,000万回に増加した。	NO_PRONOUNCE	NO_LABEL
社会学研究センターによる四半期調査によると、選挙2か月後の7月の世論調査では、ポデモスへの直接投票意思は社会労働党を上回り、国民党とわずか0.9%差の2位となった。	しゃかいがくけんきゅーせんたーによるしはんきちょーさによると、せんきょにかげつごのしちがつのよろんちょーさでわ、ぽでもすえのちょくせつとーひょーいしわしゃかいろーどーとーをうわまわり、こくみんとーとわずかれいてんきゅうぱーせんとさのにーとなった。	NO_LABEL
7月末、ポデモスは新たに個人の党員加盟を認め、受付開始からの48時間で32,000人が、公式ウェブサイトを通じて会費無料の党員となった。	NO_PRONOUNCE	NO_LABEL
受付開始から20日後には党員数が100,000人に達し、統一左翼、連合・進歩・民主主義、集中と統一、バスク民族主義党を上回って、スペインで3番目に党員数の多い政党となった。	NO_PRONOUNCE	NO_LABEL
公式Facebookは8月だけで442,000回の「いいね!」を集め、YouTubeの公式チャンネルは、260万回以上の再生回数を記録した。	NO_PRONOUNCE	NO_LABEL
9月に放送されたテレビ番組「ビアハンド・コン・チェステル」では、イグレシアスのインタビューが約300万人の視聴者を獲得し、その時間に放送中の番組中最高の14.5%の占有率を記録した。	NO_PRONOUNCE	NO_LABEL
10月、イグレシアスは政治討論番組の「ラ・セスタ・ノーチェ」に出演してインタビューも受け、番組史上最高の16.2%の占有率を記録した。	NO_PRONOUNCE	NO_LABEL
情報番組の「サルバードス」でのイグレシアスのインタビューは、番組史上最高の23.8%の占有率・500万人の視聴者を獲得した。	NO_PRONOUNCE	NO_LABEL
10月末、ポデモスの党員数は200,000人に達した。	NO_PRONOUNCE	NO_LABEL
11月2日に[エル・パイスが発表した世論調査結果で、ポデモスは27.7%の支持率を獲得し、社会労働党の26.2%、国民党の20.7%を上回った。	NO_PRONOUNCE	NO_LABEL
直接投票意思では、ポデモスが22.2%、社会労働党が13.1%、国民党が10.4%だった。	ちょくせつとーひょーいしでわ、ぽでもすがにじゅうにてんにぱーせんと、しゃかいろーどーとーがじゅうさんてんいちぱーせんと、こくみんとーがじゅうてんよんぱーせんとだった。	NO_LABEL
2014年6月5日、イグレシアスは同年秋に「Asamblea Ciudadana "Sí se puede」という党大会を開催することを発表した。	NO_PRONOUNCE	NO_LABEL
また、非公開名簿による公開選挙によって党首を選出するために、25人の人物からなるチームが党大会の準備に責任を負うこと、提示できうる名簿の数に制限がいないことなどを発表した。	また、ひこーかいめいぼによるこーかいせんきょによってとーしゅをせんしゅつするために、にじゅうごにんのじんぶつからなるちーむがとーたいかいのじゅんびにせきにんをおうこと、ていじできうるめいぼのかずにせいげんがいないことなどをはっぴょーした。	NO_LABEL
6月8日にはマドリードでポデモスの主体者による会合が開催され、党の政治的・組織的な原則を決定する文書の決議について議論がなされた。	NO_PRONOUNCE	NO_LABEL
全党員が文書を提示することができるとされ、全党員が参加する投票によって採択される文書が決定される。	ぜんとーいんがぶんしょをていじすることができるとされ、ぜんとーいんがさんかするとーひょーによってさいたくされるぶんしょがけっていされる。	NO_LABEL
その後、再び全党員が参加する内部選挙が行われ、この選挙によって文書で定義された役職が埋められることが決定した。	そのご、ふたたびぜんとーいんがさんかするないぶせんきょがおこなわれ、このせんきょによってぶんしょでていぎされたやくしょくがうめられることがけっていした。	NO_LABEL
党大会まで指導的地位に立つ人物を決めるため、6月12日と13日にはインターネット投票が行われた。	とーたいかいまでしどーてきちいにたつじんぶつをきめるため、ろくがつじゅうににちとじゅうさんにちにわいんたーねっととーひょーがおこなわれた。	NO_LABEL
ふたつの名簿が提示され、片方の名簿はイグレシアスが筆頭となり、もう片方は「シルクロ・デ・エンフェルメリーア」が推進した。	NO_PRONOUNCE	NO_LABEL
投票には55,000人が参加し、86.8%の得票を集めたイグレシアスが勝利した。	NO_PRONOUNCE	NO_LABEL
10月18日・19日にはマドリードで、ポデモス初の物理的な党大会が開催された。	NO_PRONOUNCE	NO_LABEL
10月19日には党員数が130,000人となり、10月22日には170,000人となった。	NO_PRONOUNCE	NO_LABEL
この党大会では全党員が5つの決議に投票することができ、ポデモス自身が提案した決議のうち、得票上位の5つ、公共教育の改善、腐敗防止対策、居住権、公的医療の改善、負債の監査と再構築が採択された。	このとーたいかいでわぜんとーいんがいつつのけつぎにとーひょーすることができ、ぽでもすじしんがていあんしたけつぎのうち、とくひょーじょーいのいつつ、こーきょーきょーいくのかいぜん、ふはいぼーしたいさく、きょじゅーけん、こーてきいりょーのかいぜん、ふさいのかんさとさいこーちくがさいたくされた。	NO_LABEL
構造文書の投票では、ルイス・アレグレ、カロリーナ・ベスカンサ、イニゴ・エレホン、イグレシアス、モネデーロなどの「Claro que Podemos」によって提案された、倫理的・社会的・構造的な文書が80.7%の得票を得て、欧州議会議員のパブロ・エチェニケ、テレサ・ロドリゲス、ロラ・サンチェスなどによる「Sumando Podemos」を上回って承認された。	NO_PRONOUNCE	NO_LABEL
2015年3月、同年12月に予定されている総選挙の前哨戦とされたにおいて州政府与党のアンダルシーア社会労働党、国政与党の国民党の支部政党アンダルシーア国民党に次いで第三党となった。	にせんじゅうごねんさんがつ、どーねんじゅーにがつによていされているそーせんきょのぜんしょーせんとされたにおいてしゅーせいふよとーのあんだるしーあしゃかいろーどーとー、こくせいよとーのこくみんとーのしぶせいとーあんだるしーあこくみんとーについでだいさんとーとなった。	NO_LABEL
そして同年5月に行われたと自治州議会選挙では国民党が大半の地域で安定多数を失う中で躍進。	そしてどーねんごがつにおこなわれたとじちしゅーぎかいせんきょでわこくみんとーがたいはんのちいきであんていたすーをうしなうなかでやくしん。	NO_LABEL
首都マドリードではポデモスと左派諸政党と市民グループによって構成された左派のアオーラ・マドリードが57議席中20議席を獲得し、国民党に次ぐ第2党となり、第3党となったマドリード社会労働党と連立協議を行い、6月11日に合意が成立したことを受け、AMのマヌエラ・カルメーナ・カストリージョが市長となった。	NO_PRONOUNCE	NO_LABEL
また第2の都市であるバルセロナではポデモスと左派諸政党と市民グループによって構成されたバルサローナ・アン・クムーが民族主義政党連合の集中と統一を押さえ第1党になり、BComúのアダ・クラウが市長に選出された。	NO_PRONOUNCE	NO_LABEL
その他、サラゴサ、カディス、ア・コルーニャやサンティアゴ・デ・コンポステーラなどでポデモスと左派諸政党と市民グループが設立したローカル政党が躍進し、左派の市長が誕生した。	そのた、さらごさ、かでぃす、あこるーにゃやさんてぃあごでこんぽすてーらなどでぽでもすとさはしょせいとーとしみんぐるーぷがせつりつしたろーかるせいとーがやくしんし、さはのしちょーがたんじょーした。	NO_LABEL
2015年5月の州議会選挙統一左翼での惨敗後、IU代表のアルベルト・ガルソンは12月の総選挙に向けて選挙協定を目指しパブロ・イグレシアスと会談した。	にせんじゅうごねんごがつのしゅーぎかいせんきょとーいつさよくでのざんぱいご、あいゆーだいひょーのあるべるとがるそんわじゅーにがつのそーせんきょにむけてせんきょきょーていをめざしぱぶろいぐれしあすとかいだんした。	NO_LABEL
両者の考えには一致する点は多く、合流を目指しプラットフォームが設立されたものの、イグレシアスはポデモスと、たとえガルソン自身と直接のものでなくとも、IUとの間のいかなる提携関係をも拒否した。	りょーしゃのかんがえにわいっちするてんわおーく、ごーりゅーをめざしぷらっとふぉーむがせつりつされたものの、いぐれしあすわぽでもすと、たとえがるそんじしんとちょくせつのものでなくとも、あいゆーとのまのいかなるていけいかんけいをもきょひした。	NO_LABEL
2015年7月末、ポデモスは支持者による投票によって、他党と提携して設立するすべての選挙連合の名称の中に本来の党名の使用の義務化と、立候補するすべての選挙区での候補者を予備選挙を通じて決定することを決めた。	にせんじゅうごねんしちがつまつ、ぽでもすわしじしゃによるとーひょーによって、たとーとていけいしてせつりつするすべてのせんきょれんごーのめいしょーのなかにほんらいのとーめいのしよーのぎむかと、りっこーほするすべてのせんきょくでのこーほしゃをよびせんきょをつーじてけっていすることをきめた。	NO_LABEL
この決定は他の政治勢力との間で選挙連合を設立することを可能とし、3つの自治州でそれは実現されることとなった。	このけっていわたのせいじせいりょくとのまでせんきょれんごーをせつりつすることをかのーとし、みっつのじちしゅーでそれわじつげんされることとなった。	NO_LABEL
バレンシア州での、ガリシア州でのエン・マレーア、カタルーニャ州でのアン・クムー・プデムである。	ばれんしあしゅーでの、がりしあしゅーでのえんまれーあ、かたるーにゃしゅーでのあんくむーぷでむである。	NO_LABEL
2015年総選挙後にすべての政党が組閣に失敗したことで、2016年6月26日に再選挙が行われることとなった。	にせんじゅうごねんそーせんきょごにすべてのせいとーがそかくにしっぱいしたことで、にせんじゅうろくねんろくがつにじゅうろくにちにさいせんきょがおこなわれることとなった。	NO_LABEL
5月13日、ポデモスは統一左翼やなどとともに選挙連合として総選挙に臨むことを発表した。	ごがつじゅうさんにち、ぽでもすわとーいつさよくやなどとともにせんきょれんごーとしてそーせんきょにのぞむことをはっぴょーした。	NO_LABEL
世論調査では第2党への躍進が予想されたが、実際には71議席にとどまって第3党となった。	NO_PRONOUNCE	NO_LABEL
ポデモスは2014年の欧州議会議員選挙のために共同で書かれたプログラムを提示している。	ぽでもすわにせんじゅうよねんのおーしゅーぎかいぎーんせんきょのためにきょーどーでかかれたぷろぐらむをていじしている。	NO_LABEL
主に以下のような方針を持つ。	おもにいかのよーなほーしんをもつ。	NO_LABEL
2014年5月の欧州議会議員選挙での躍進は、様々な分析や反応をもたらした。	にせんじゅうよねんごがつのおーしゅーぎかいぎーんせんきょでのやくしんわ、さまざまなぶんせきやはんのーをもたらした。	NO_LABEL
この結果を歓迎する者がいる一方で、懸念を表明する者もいた。	このけっかをかんげいするものがいるいっぽーで、けねんをひょーめいするものもいた。	NO_LABEL
7月に社会労働党書記長に就任したペドロ・サンチェスは、ポデモスが大衆主義政党であるとみなし、この発言で有権者の多くがポデモスを選択した。	しちがつにしゃかいろーどーとーしょきちょーにしゅーにんしたぺどろさんちぇすわ、ぽでもすがたいしゅーしゅぎせいとーであるとみなし、このはつげんでゆーけんしゃのおーくがぽでもすをせんたくした。	NO_LABEL
ファンダシオン・アルテルナティーバスのビセンテ・パラシオは、ポデモスが「スペインの民主主義体制を再生する上でとても有益な効果」を持つとしたが、「イタリアのベッペ・グリッロによる五つ星運動で起こっているように、大衆主義や民衆扇動に向かう」危険性も指摘している。	NO_PRONOUNCE	NO_LABEL
2014年11月時点で、社会労働党は大衆主義や極左から距離を置くかわりに、中道左派を維持することを選択している。	にせんじゅうよねんじゅーいちがつじてんで、しゃかいろーどーとーわたいしゅーしゅぎやきょくさからきょりをおくかわりに、ちゅーどーさはをいじすることをせんたくしている。	NO_LABEL
連合・進歩・民主主義の党首であるロサ・ディエスは、ギリシャの急進左派連合、イタリアの五つ星運動、さらにはフランスの極右政党であるマリーヌ・ル・ペンの国民戦線でさえも、ポデモスとの類似点を見つけることができると述べた。	NO_PRONOUNCE	NO_LABEL
国民党のスポークスマンであるマリア・ドローレス・デ・コスペダルは、世論調査結果は左派有権者の急進化を示していると述べた。	NO_PRONOUNCE	NO_LABEL
国民党の大物政治家であるエスペランサ・アギーレは、ポデモスが「カストロ主義者、チャベス主義者、バスク祖国と自由の味方である」としてイグレシアスを非難したが、イグレシアスは「誹謗中傷だ」と応じ、アギーレに対して法的措置を検討することと表明した。	NO_PRONOUNCE	NO_LABEL
結党から20日間で100,000人以上の党員を集め、この時点で3番目に多くの党員を持つ政党となっていた上に、2014年12月時点で250,000人以上の党員が在籍しており、国民党に次いでスペインで2番目に多くの党員を持つ政党である。	NO_PRONOUNCE	NO_LABEL
