ダニエル・ジョン・バトラーは、アメリカ合衆国アリゾナ州マリコパ郡フェニックス出身のプロ野球選手。	NO_PRONOUNCE	NO_LABEL
右投右打。	みぎなげみぎうち。	NO_LABEL
MLB・ボストン・レッドソックス傘下所属。	NO_PRONOUNCE	NO_LABEL
7月28日にボストン・レッドソックスと契約。	しちがつにじゅうはちにちにぼすとんれっどそっくすとけいやく。	NO_LABEL
契約後、傘下のA-級でプロデビュー。	NO_PRONOUNCE	NO_LABEL
22試合に出場して打率.179・1本塁打・10打点の成績を残した。	NO_PRONOUNCE	NO_LABEL
9月にA+級セイラム・レッドソックスへ昇格し、2試合に出場した。	NO_PRONOUNCE	NO_LABEL
はA級でプレーし、61試合に出場して打率.327・6本塁打・31打点と活躍。	NO_PRONOUNCE	NO_LABEL
7月にAAA級ポータケット・レッドソックスへ昇格し、2試合に出場したが、5打数無安打と結果を残せず、A+級セイラムへ降格した。	NO_PRONOUNCE	NO_LABEL
A+級セイラムでは35試合に出場して打率.292・1本塁打・17打点・1盗塁の成績を残した。	NO_PRONOUNCE	NO_LABEL
はまずA級セイラムでプレーし、91試合に出場して打率.247・11本塁打・66打点・4盗塁の成績を残した。	NO_PRONOUNCE	NO_LABEL
8月にAA級ポートランド・シードッグスへ昇格。	はちがつにえーえーいこーるきゅーぽーとらんどしーどっぐすえしょーかく。	NO_LABEL
AA級ポートランドでは21試合に出場して打率.212・2打点の成績を残した。	NO_PRONOUNCE	NO_LABEL
9月にAAA級ポータケットへ昇格し、1試合に出場した。	くがつにとりぷれあきゅーぽーたけっとえしょーかくし、いちしあいにしゅつじょーした。	NO_LABEL
はまずAA級ポートランドでプレーし、73試合に出場して打率.251・6本塁打・26打点の成績を残した。	NO_PRONOUNCE	NO_LABEL
8月にAAA級ポータケットへ昇格。	はちがつにとりぷれあきゅーぽーたけっとえしょーかく。	NO_LABEL
AAA級ポータケットでは22試合に出場して打率.233・3本塁打・11打点の成績を残した。	NO_PRONOUNCE	NO_LABEL
オフの11月20日にレッドソックスとメジャー契約を結んで40人枠入りした。	おふのじゅーいちがつはつかにれっどそっくすとめじゃーけいやくをむすんでよんじゅうにんわくいりした。	NO_LABEL
3月4日にレッドソックスと1年契約に合意。	さんがつよっかにれっどそっくすといちねんけいやくにごーい。	NO_LABEL
3月16日にAAA級ポータケットへ異動した。	さんがつじゅうろくにちにとりぷれあきゅーぽーたけっとえいどーした。	NO_LABEL
この年はAAA級ポータケットで84試合に出場して打率.262・14本塁打・45打点・1盗塁の成績を残した。	NO_PRONOUNCE	NO_LABEL
3月7日にレッドソックスと1年契約に合意。	さんがつなのかにれっどそっくすといちねんけいやくにごーい。	NO_LABEL
3月23日にAAA級ポータケットへ異動し、そのまま開幕を迎えた。	さんがつにじゅうさんにちにとりぷれあきゅーぽーたけっとえいどーし、そのままかいまくをむかえた。	NO_LABEL
AAA級ポータケットでは83試合に出場して打率.241・4本塁打・30打点の成績を残した。	NO_PRONOUNCE	NO_LABEL
8月2日に正捕手のデビッド・ロスが故障者リスト入りしたため、メジャーへ昇格。	はちがつふつかにせいほしゅのでびっどろすがこしょーしゃりすといりしたため、めじゃーえしょーかく。	NO_LABEL
8月10日のロサンゼルス・エンゼルス・オブ・アナハイム戦でメジャーデビュー。	はちがつとおかのろさんぜるすえんぜるすおぶあなはいむせんでめじゃーでびゅー。	NO_LABEL
9番・捕手として先発起用され、3打数無安打2三振1四球だった。	NO_PRONOUNCE	NO_LABEL
昇格後は3試合に出場したが、11打数無安打と結果を残せず、8月20日にロスが復帰したため、AAA級へ降格。	しょーかくごわさんしあいにしゅつじょーしたが、じゅういちだすーむあんだとけっかをのこせず、はちがつはつかにろすがふっきしたため、とりぷれあきゅーえこーかく。	NO_LABEL
9月3日に再昇格した。	くがつみっかにさいしょーかくした。	NO_LABEL
9月10日のボルチモア・オリオールズ戦では、2打席目に陳偉殷からメジャー初安打となる中堅への二塁打を放った。	くがつとおかのぼるちもあおりおーるずせんでわ、にだせきめにちぇんうぇいんからめじゃーはつあんだとなるちゅーけんえのにるいだをはなった。	NO_LABEL
この年メジャーでは7試合に出場して打率.211・2打点の成績を残した。	NO_PRONOUNCE	NO_LABEL
1月6日にDFAとなった。	いちがつむいかにでぃーえふえーとなった。	NO_LABEL
2015年1月14日にダニー・ローゼンバームとのトレードで、ワシントン・ナショナルズへ移籍した。	NO_PRONOUNCE	NO_LABEL
開幕から傘下のAAA級シラキュース・チーフスでプレーしていたが、メジャーでの出場はないまま7月28日にDFA、31日に40人枠外となった。	かいまくからさんかのとりぷれあきゅーしらきゅーすちーふすでぷれーしていたが、めじゃーでのしゅつじょーわないまましちがつにじゅうはちにちにでぃーえふえー、さんじゅういちにちによんじゅうにんわくがいとなった。	NO_LABEL
この年はAAA級シラキュースで83試合に出場して打率.227・1本塁打・26打点・1盗塁の成績を残した。	NO_PRONOUNCE	NO_LABEL
オフの11月6日にFAとなった。	おふのじゅーいちがつむいかにえふえいとなった。	NO_LABEL
1月16日にレッドソックスとマイナー契約を結び、スプリングトレーニングに招待選手として参加することになった。	いちがつじゅうろくにちにれっどそっくすとまいなーけいやくをむすび、すぷりんぐとれーにんぐにしょーたいせんしゅとしてさんかすることになった。	NO_LABEL
この年はAAA級ポータケットでプレーし、48試合に出場して打率.303・3本塁打・16打点の成績を残した。	NO_PRONOUNCE	NO_LABEL
オフの12月14日にレッドソックスとマイナー契約で再契約し、のスプリングトレーニングも招待選手として参加することになった。	おふのじゅーにがつじゅうよっかにれっどそっくすとまいなーけいやくでさいけいやくし、のすぷりんぐとれーにんぐもしょーたいせんしゅとしてさんかすることになった。	NO_LABEL
2017年もAAA級ポータケットでプレーし、73試合に出場して打率.259・4本塁打・34打点の成績を残した。	NO_PRONOUNCE	NO_LABEL
1月16日にレッドソックスとマイナー契約を結び、同年もスプリングトレーニングに招待選手として参加することになった。	いちがつじゅうろくにちにれっどそっくすとまいなーけいやくをむすび、どーねんもすぷりんぐとれーにんぐにしょーたいせんしゅとしてさんかすることになった。	NO_LABEL
