マルガレーテ・フォン・バーベンベルクは、名目上のオーストリア女公。	まるがれーてふぉんばーべんべるくわ、めいもくじょーのおーすとりあおんなおーやけ。	NO_LABEL
マルガレーテ・フォン・エスターライヒとも。	まるがれーてふぉんえすたーらいひとも。	NO_LABEL
バーベンベルク家のオーストリア公レオポルト6世と東ローマ帝国の皇族であるテオドラ・アンゲリナの間の長女。	NO_PRONOUNCE	NO_LABEL
弟フリードリヒ2世はバーベンベルク家最後のオーストリア公で、1246年に嗣子を残さずに死去したため、公位の継承が問題になった。	おとーとふりーどりひにせいわばーべんべるくかさいごのおーすとりあおーやけで、せんにひゃくよんじゅうろくねんにししをのこさずにしきょしたため、おーやけいのけいしょーがもんだいになった。	NO_LABEL
マルガレーテは最初、神聖ローマ皇帝フリードリヒ2世の嫡男ハインリヒと結婚した。	まるがれーてわさいしょ、しんせいろーまこーていふりーどりひにせいのちゃくなんはいんりひとけっこんした。	NO_LABEL
ハインリヒは1220年にローマ王に選ばれたが、後に父に叛いて1235年に廃位され、1242年に死去した。	NO_PRONOUNCE	NO_LABEL
マルガレーテはハインリヒとの間に2人の息子を生んだが、いずれも夭折した。	まるがれーてわはいんりひとのまにふたりのむすこをうんだが、いずれもよーせつした。	NO_LABEL
10年後の1252年、マルガレーテは新たなオーストリア公でボヘミアの王太子であるオタカルと結婚した。	じゅうねんごのせんにひゃくごじゅうにねん、まるがれーてわあらたなおーすとりあおーやけでぼへみあのおーたいしであるおたかるとけっこんした。	NO_LABEL
翌1253年にオタカルはボヘミア王オタカル2世となる。	よくせんにひゃくごじゅうさんねんにおたかるわぼへみあおーおたかるにせいとなる。	NO_LABEL
マルガレーテはオタカル2世より26歳年上であった。	まるがれーてわおたかるにせいよりにじゅうろっさいとしうえであった。	NO_LABEL
高齢であったため、世継ぎを生む可能性が無いとみたオタカル2世は1261年にローマ教皇から婚姻の無効を取り付けてマルガレーテと離婚、クンフタ・ウヘルスカーと再婚した。	こーれいであったため、よつぎをうむかのーせいがないとみたおたかるにせいわせんにひゃくろくじゅういちねんにろーまきょうこーからこんいんのむこーをとりつけてまるがれーてとりこん、くんふたうへるすかーとさいこんした。	NO_LABEL
マルガレーテはオーストリアへ戻り、1266年に没した。	まるがれーてわおーすとりあえもどり、せんにひゃくろくじゅうろくねんにぼっした。	NO_LABEL
