『少林寺伝奇』は、2008年に中国の河南テレビで放送されたテレビドラマ。	NO_PRONOUNCE	NO_LABEL
全3シーズン構成で、120話放送されている。	NO_PRONOUNCE	NO_LABEL
南北朝時代を舞台に少林寺の弟子が悪と闘う姿を描いたアクションドラマ。	なんぼくちょうじだいをぶたいにしょーりんじのでしがあくとたたかうすがたをえがいたあくしょんどらま。	NO_LABEL
ドウ・シャオ監督。	どうしゃおかんとく。	NO_LABEL
アクション監督としてチン・シウトンが参加している。	あくしょんかんとくとしてちんしうとんがさんかしている。	NO_LABEL
日本では2009年にポニーキャニオンより『少林寺伝奇 〜乱世の英雄〜』の邦題でDVD-BOXが発売された。	NO_PRONOUNCE	NO_LABEL
その後、2010年にBSフジで日本語吹替版が42話放送された。	そのご、にせんじゅうねんにびーえすふじでにほんごふきかえばんがよんじゅうにわほーそーされた。	NO_LABEL
