青木 夕夏は、東京都出身の日本の元女優、元モデル。	あおきゆかわ、とーきょーとしゅっしんのにっぽんのもとじょゆー、もともでる。	NO_LABEL
旧芸名は池本 まいか。	きゅーげいめいわいけもとまいか。	NO_LABEL
エレクトーンインストラクターの資格を持つ。	えれくとーんいんすとらくたーのしかくをもつ。	NO_LABEL
活動当時の所属事務所はビッグアンドエム内正木ルーム。	かつどーとーじのしょぞくじむしょわびっぐあんどえむないまさきるーむ。	NO_LABEL
スタイリストを夢見つつ、学生時代にアルバイトでスタイリストのアシスタントを務めていた際にスカウトされ、1993年にモデルとして芸能界入り。	すたいりすとをゆめみつつ、がくせいじだいにあるばいとですたいりすとのあしすたんとをつとめていたさいにすかうとされ、せんきゅうひゃくきゅうじゅうさんねんにもでるとしてげいのーかいいり。	NO_LABEL
雑誌、イベント、テレビ番組のアシスタント等を経た後、1998年に俳優への転身のため事務所をそれまでのブロードアベニューから現事務所へ移籍、芸名を青木 夕夏と改名した。	ざっし、いべんと、てれびばんぐみのあしすたんととーをへたのち、せんきゅうひゃくきゅうじゅうはちねんにはいゆーえのてんしんのためじむしょをそれまでのぶろーどあべにゅーからげんじむしょえいせき、げいめいをあおきゆかとかいめいした。	NO_LABEL
以来、ドラマや舞台などで活躍する。	いらい、どらまやぶたいなどでかつやくする。	NO_LABEL
2007年11月、公式ブログにて休業を宣言し、翌2008年7月5日に引退を宣言した。	にせんななねんじゅーいちがつ、こーしきぶろぐにてきゅーぎょーをせんげんし、よくにせんはちねんしちがついつかにいんたいをせんげんした。	NO_LABEL
特別な併記のないものは青木夕夏名義の作品である。	とくべつなへいきのないものわあおきゆうかめいぎのさくひんである。	NO_LABEL
