曹 昂は、中国後漢末期の武将。	そのぼるわ、ちゅーごくこーかんまっきのぶしょー。	NO_LABEL
字は子脩。	じわこおさむ。	NO_LABEL
父は曹操。	ちちわそうそー。	NO_LABEL
同母弟は曹鑠。	どーぼおとーとわそうしゃく。	NO_LABEL
同母姉妹は清河長公主。	どーぼしまいわせいかちょーこーしゅ。	NO_LABEL
異母弟は曹丕・曹沖・曹均ら。	NO_PRONOUNCE	NO_LABEL
生母の劉夫人が早くに亡くなったため、劉夫人の次に曹操の正室となった丁夫人に育てられた。	せいぼのりゅーふじんがはやくになくなったため、りゅーふじんのつぎにそうそーのせいしつとなったていふじんにそだてられた。	NO_LABEL
20歳で孝廉に推挙された。	にじゅっさいでこーれんにすいきょされた。	NO_LABEL
197年、曹操は張繍の降伏を受け容れたが、その際に張繍の叔父である張済の未亡人と密通した。	ひゃくきゅうじゅうななねん、そうそーわちょうしゅーのこーふくをうけいれたが、そのさいにちょうしゅーのおじであるちょーさいのみぼーじんとみっつーした。	NO_LABEL
これを知った張繍が激怒したため、曹操は密かに張繍殺害計画を立てた。	これをしったちょうしゅーがげきどしたため、そうそーわひそかにちょうしゅーさつがいけいかくをたてた。	NO_LABEL
しかし、それに気づいた張繍は先手を打って、宛にいた曹操に奇襲をかけてきた。	しかし、それにきずいたちょうしゅーわせんてをうって、あてにいたそうそーにきしゅーをかけてきた。	NO_LABEL
襲撃された曹昂は父を無事に逃すため、自らの馬を差し出した。	しゅーげきされたそうこーわちちをぶじにのがすため、みずからのうまをさしだした。	NO_LABEL
このため曹操は無事に逃れる事ができたといわれる。	このためそうそーわぶじにのがれることができたといわれる。	NO_LABEL
一方の曹昂は張繍軍の攻撃を受け、曹安民や典韋らとともに戦死した。	いっぽーのそうこーわちょうしゅーぐんのこーげきをうけ、そうあんみんやてんいらとともにせんしした。	NO_LABEL
曹昂の死を知った丁氏はこれを恨み、自ら離別して実家に戻った。	そうこーのしをしったちょーしわこれをうらみ、みずからりべつしてじっかにもどった。	NO_LABEL
曹操が丁氏に対し深く謝罪したが、丁氏は二度と曹操の下へ戻ろうとしなかった。	そうそーがちょーしにたいしふかくしゃざいしたが、ちょーしわにどとそうそーのしたえもどろうとしなかった。	NO_LABEL
魏王朝成立後、豊の悼公と諡された。	NO_PRONOUNCE	NO_LABEL
『三国志』の注に引く『魏略』によれば、弟の曹丕は即位後に「兄の子脩が生きていても限界があっただろうが、弟の倉舒が生きていたなら、わしは主となって天下を治められなかっただろう」と語ったという。	NO_PRONOUNCE	NO_LABEL
後に豊の悼王、豊の愍王と諡を改められた。	NO_PRONOUNCE	NO_LABEL
子がなかったので、甥の曹琬がその後を継いだ。	NO_PRONOUNCE	NO_LABEL
