『リーサル・ウェポン3』は、1992年にアメリカで公開されたアクション映画。	NO_PRONOUNCE	NO_LABEL
ロサンゼルス市警の巡査部長・リッグス&マータフは、あるビルの駐車場に仕掛けられた爆弾を爆弾処理班を待たず勝手に解体しようとしたあげく失敗し、ビルを完全に爆破するという失態を犯す。	NO_PRONOUNCE	NO_LABEL
巡査に格下げになってしまった二人は、制服でのパトロール中に輸送員に変装した強盗に遭遇、ビリーというチンピラを逮捕する。	じゅんさにかくさげになってしまったふたりわ、せいふくでのぱとろーるちゅーにゆそーいんにへんそーしたごーとーにそーぐー、びりーとゆうちんぴらをたいほする。	NO_LABEL
強盗たちは特殊徹甲弾「コップ・キラー」で武装していたと判明した。	NO_PRONOUNCE	NO_LABEL
しかし、ビリーは取調室で何者かに殺されてしまった。	しかし、びりーわとりしらべしつでなにものかにころされてしまった。	NO_LABEL
マータフとともに刑事へ復帰したものの、内務調査部が動き出したことに不満なリッグス。	まーたふとともにけいじえふっきしたものの、ないむちょーさぶがうごきだしたことにふまんなりっぐす。	NO_LABEL
ある日、若者の麻薬の取引現場を発見したリッグスは逮捕を試みるが、フルオートマチックのマシンピストルによる乱射を受ける。	あるひ、わかもののまやくのとりひきげんばをはっけんしたりっぐすわたいほをこころみるが、ふるおーとまちっくのましんぴすとるによるらんしゃをうける。	NO_LABEL
マータフが犯人を射殺したが、それはマータフの息子の親友であった。	まーたふがはんにんをしゃさつしたが、それわまーたふのむすこのしんゆーであった。	NO_LABEL
マータフとリッグスそして内務調査部のコール警部補が、未成年の銃事件とビリーを調べるうちにある人物が浮上する。	まーたふとりっぐすそしてないむちょーさぶのこーるけいぶほが、みせいねんのじゅーじけんとびりーをしらべるうちにあるじんぶつがふじょーする。	NO_LABEL
※テレビ朝日版は2013年1月14日にWOWOWで放映される際に、初回放送時にカットされた箇所を同一声優で追加録音した。	NO_PRONOUNCE	NO_LABEL
その際、ジャック役の有川博は故人のため代役として吉見一豊が追加録音部分を担当した。	そのさい、じゃっくやくのありかわひろしわこじんのためだいやくとしてよしみかずとよがついかろくおんぶぶんをたんとーした。	NO_LABEL
劇中に登場する特殊徹甲弾「コップ・キラー」は、防弾チョッキはおろかドラム缶やブルドーザーのブレード部をもきれいに貫通する威力を誇るが、現実世界において、発射薬や弾頭に限界のある通常サイズの拳銃弾にここまでの貫通力を持つ物は存在せず、あくまでもフィクションの産物である。	NO_PRONOUNCE	NO_LABEL
エンディング・ロール開始直後、またもビル爆弾事件が発生、急行したリッグスとマータフ。	NO_PRONOUNCE	NO_LABEL
しかしエンドロール後、現場に着いた途端ビルが爆発。	しかしえんどろーるご、げんばについたとたんびるがばくはつ。	NO_LABEL
また自分たちのせいにされては敵わないと、その場から逃げ去る。	またじぶんたちのせいにされてわてきわないと、そのばからにげさる。	NO_LABEL
