宮古市は、岩手県の三陸海岸に面する市。	みやこしわ、いわてけんのさんりくかいがんにめんするし。	NO_LABEL
本州最東端の地である魹ヶ崎を擁する。	ほんしゅーさいひがしばたのちであるとどがさきをよーする。	NO_LABEL
三陸海岸を代表する都市の一つであり、「本州最東端のまち」を掲げ、三陸沖の豊かな漁業資源と、三陸復興国立公園・浄土ヶ浜や早池峰国定公園を代表とする森・川・海の豊かな自然環境を背景に、漁業と観光に力を入れている。	NO_PRONOUNCE	NO_LABEL
1941年に市制を敷き、2005年に田老町と新里村を編入し、2010年の川井村の編入によって県内一の面積を有する自治体となった。	せんきゅうひゃくよんじゅういちねにしせいをしき、にせんごねんにたろーまちとにいさとむらをへんにゅーし、にせんじゅうねんのかわいむらのへんにゅーによってけんないいちのめんせきをゆーするじちたいとなった。	NO_LABEL
市域は山間部の川井・新里地区と、北部の田老地区、旧・宮古市部に大きく分けられる。	NO_PRONOUNCE	NO_LABEL
人口は岩手県沿岸部の市町村の中では最も多い。	じんこーわいわてけんえんがんぶのしちょーそんのなかでわもっともおーい。	NO_LABEL
面積は岩手県内で1位の大きさ、全国の市町村でもランキング11位の大きさを有する。	めんせきわいわてけんないでいちーのおーきさ、ぜんこくのしちょーそんでもらんきんぐじゅういちーのおーきさをゆーする。	NO_LABEL
県庁所在地である盛岡市からは北上山地を隔てて約100km離れている為、盛岡を初めとする北上盆地とは独立した地域圏を形成している。	けんちょーしょざいちであるもりおかしからわきたかみさんちをへだててやくひゃくきろめーとるはなれているため、もりおかをはじめとするきたかみぼんちとわどくりつしたちーきけんをけいせいしている。	NO_LABEL
2011年3月11日に発生した東日本大震災では大きな被害を受けた。	にせんじゅういちねんさんがつじゅういちにちにはっせいしたひがしにほんだいしんさいでわおーきなひがいをうけた。	NO_LABEL
市内中心部の被害はある程度抑えられたものの、沿岸集落は壊滅的被害となった。	しないちゅーしんぶのひがいわあるていどおさえられたものの、えんがんしゅーらくわかいめつてきひがいとなった。	NO_LABEL
宮古市は三陸海岸におけるリアス式海岸の北端に位置しており、宮古を境にして南がリアス式海岸、北が海岸段丘になっている。	みやこしわさんりくかいがんにおけるりあすしきかいがんのほくたんにいちしており、みやこをさかいにしてみなみがりあすしきかいがん、きたがかいがんだんきゅーになっている。	NO_LABEL
又、内陸や対岸との位置関係では、盛岡市と秋田市から真東に位置している。	また、ないりくやたいがんとのいちかんけいでわ、もりおかしとあきたしからまひがしにいちしている。	NO_LABEL
2010年1月の川井村の編入により、市の面積は696.82kmから1,259.89kmに拡大し、一関市を抜いて岩手県の市町村で最大の面積を有することとなった。	NO_PRONOUNCE	NO_LABEL
これは東北では鶴岡市に次いで2番目、全国でも11番目の大きさである。	これわとーほくでわつるおかしについでにばんめ、ぜんこくでもじゅういちばんめのおーきさである。	NO_LABEL
しかしその8割は山林であるため、可住地面積は約117kmと、総面積の約9%に止まり、少ない平地に人家が密集している状態である。	しかしそのはちわりわさんりんであるため、かじゅーちめんせきわやくひゃくじゅうななきろめーとると、そーめんせきのやくきゅうぱーせんとにとまり、すくないひらちにじんかがみっしゅーしているじょーたいである。	NO_LABEL
そのため総面積当たりの人口密度は小さいものの、可住地面積当たりの人口密度は約490と県内平均を上回る。	NO_PRONOUNCE	NO_LABEL
市域中央部を西から東に閉伊川が貫流し、市街地のある宮古湾へと注いでいる。	しいきちゅーおーぶをにしからひがしにへいがわがかんりゅーし、しがいちのあるみやこわんえとそそいでいる。	NO_LABEL
西部の川井地区は平地はほとんど無く、川沿いに人家が密集する地区が多い。	せいぶのかわいちくわひらちわほとんどなく、かわぞいにじんかがみっしゅーするちくがおーい。	NO_LABEL
周囲には早池峰山と青松葉山がある。	しゅーいにわはやちねさんとあおまつばやまがある。	NO_LABEL
北部の新里地区には刈屋川が南へ流れ、茂市で閉伊川に合流する。	ほくぶのあらざとちくにわかりやがわがみなみえながれ、もいちでへいがわにごーりゅーする。	NO_LABEL
閉伊川と刈屋川に沿って、国道106号と国道340号が並走する。	へいがわとかりやがわにそって、こくどーひゃくろくごーとこくどーさんびゃくよんじゅうごーがなみはしする。	NO_LABEL
市の南東部から北に向かって津軽石川が流れ、宮古湾に注いでいる。	しのなんとーぶからきたにむかってつがるいしがわがながれ、みやこわんにそそいでいる。	NO_LABEL
市街地を覆うように重茂半島が南から延び、宮古湾を形成している。	しがいちをおおうよーにおもえはんとーがみなみからのび、みやこわんをけいせいしている。	NO_LABEL
重茂半島には、月山があり、市街地への見通しが良い関係から、テレビ・ラジオの中継塔が設置されている。	NO_PRONOUNCE	NO_LABEL
山道口まではバスで行くことができる。	さんどーぐちまでわばすでいくことができる。	NO_LABEL
太平洋に突き出る重茂地区の魹ヶ崎は本州の最東端であり、観光協会が「本州最東端訪問証明書」を発行するなど「最東端の市」として観光にも力を入れている。	NO_PRONOUNCE	NO_LABEL
南に隣接する山田町との境に位置する十二神山には、自衛隊の通信施設があるため、入山に制限が設けられている。	みなみにりんせつするやまたちょーとのさかいにいちするじゅーにじんさんにわ、じえいたいのつーしんしせつがあるため、いりやまにせいげんがもーけられている。	NO_LABEL
鼻曲がり鮭が新巻鮭として正月に食される。	はなまがりさけがあらまきさけとしてしょーがつにしょくされる。	NO_LABEL
以下の諸説がある。	いかのしょせつがある。	NO_LABEL
また、京の「都」と同訓異字の「宮古」を天皇から賜ったとする、和泉式部や源義経に関連する伝説が存在する。	NO_PRONOUNCE	NO_LABEL
いずれにしても中世文書においては「宮古」と地名を記している文献は見受けられない。	NO_PRONOUNCE	NO_LABEL
鎌倉時代においては「閉河」や「閉崎」という特定の地名で呼ばれている。	NO_PRONOUNCE	NO_LABEL
公的な文献で初めて宮古の文字が登場するのは、元和4年に、盛岡藩の船員の名前を記した『浜田家文書』であり、船員の一人に「宮古衛門二郎」という人物の名が見られる。	NO_PRONOUNCE	NO_LABEL
これ以前の中世の時代に、地名及び集落としての「宮古」が存在したかは不明である。	NO_PRONOUNCE	NO_LABEL
少なくとも宮古の地名が公的な領地名として広まったのは、領内統一した南部氏が新たに町を制定し、宮古村及び宮古代官所を置いた慶長年間以後の事である。	すくなくともみやこのちめいがこーてきなりょーちめいとしてひろまったのわ、りょーないとーいつしたなんぶしがあらたにまちをせいていし、みやふるむらおよびみやふるだいかんじょをおいたけいちょーねんかんいごのことである。	NO_LABEL
ケッペンの気候区分では温暖湿潤気候だが最暖月が22.2度と日本ではかなり涼しく、西岸海洋性気候に近いような気候である。	けっぺんのきこーくぶんでわおんだんしつじゅんきこーだがさいだんつきがにじゅうにてんにどとにっぽんでわかなりすずしく、せいがんかいよーせいきこーにちかいよーなきこーである。	NO_LABEL
江戸時代初期に盛岡藩主・南部利直により藩港として開かれると、宮古街道を通じて盛岡城下と結ばれる藩の拠点となるとともに、三陸海岸の漁獲物などを江戸や上方へ移出し、また東廻り海運の要所として発展した。	NO_PRONOUNCE	NO_LABEL
明治時代になると三陸汽船により仙台・塩釜方面や北海道、東京とも結ばれ、山間部では製糸業が勃興し、生産された生糸は宮古港から横浜港へと出荷され海外へ輸出された。	NO_PRONOUNCE	NO_LABEL
昭和時代に入ると国鉄山田線の開通とラサ工業の進出により近代港湾都市として発展。	しょーわじだいにはいるとこくてつやまだせんのかいつーとらさこーぎょーのしんしゅつによりきんだいこーわんとしとしてはってん。	NO_LABEL
山間部では閉伊川筋の電力資源の開発に伴い、窯業・鉱業・木材工業関連の企業が相次いで設立された。	NO_PRONOUNCE	NO_LABEL
戦後高度経済成長期には北洋漁業やサンマ漁船の基地として賑わった。	せんごこーどけいざいせいちょーきにわほくよーぎょぎょーやさんまぎょせんのきちとしてにぎわった。	NO_LABEL
また木材港の整備により合板企業の集積が進んだ。	またもくざいみなとのせいびによりごーはんきぎょーのしゅーせきがすすんだ。	NO_LABEL
1970年代には国道45号・国道106号線の全線開通と、宮古港の公共埠頭の整備により三陸海岸の拠点都市としての地位を高め、1980年代にかけてゴルフ場や国民休暇村・グリーンピアの設置などレジャーや観光業の発展がみられた。	NO_PRONOUNCE	NO_LABEL
また1974年のヒロセ電機の進出により、コネクタ関連の日本有数の産業集積地となった。	またせんきゅうひゃくななじゅうよねんのひろせでんきのしんしゅつにより、こねくたかんれんのにっぽんゆーすーのさんぎょーしゅーせきちとなった。	NO_LABEL
1984年には第三セクター鉄道の三陸鉄道が開業した。	せんきゅうひゃくはちじゅうよねんにわだいさんせくたーてつどーのさんりくてつどーがかいぎょーした。	NO_LABEL
1992年にはJAPAN EXPOとして三陸・海の博覧会が開催され、藤原地区にパビリオンが設置された。	せんきゅうひゃくきゅうじゅうにねんにわじゃぱんえきすぽとしてさんりくうみのはくらんかいがかいさいされ、ふじわらちくにぱびりおんがせっちされた。	NO_LABEL
2011年には東日本大震災津波により甚大な被害を受け、被災した市街地の再開発と、復興道路として三陸自動車道や宮古盛岡横断道路の高速交通インフラの整備が進められている。	にせんじゅういちねんにわひがしにほんだいしんさいつなみによりじんだいなひがいをうけ、ひさいしたしがいちのさいかいはつと、ふっこーどーろとしてさんりくじどーしゃどーやみやふるもりおかおーだんどーろのこーそくこーつーいんふらのせいびがすすめられている。	NO_LABEL
現在の宮古市の発祥は、盛岡藩主・南部利直によって盛岡藩の外港として宮古の町が開かれたことに由来する。	NO_PRONOUNCE	NO_LABEL
また現在の普代村から山田町豊間根までの行政を管轄する代官所が置かれ、周辺地域の政治、経済の中心地であった。	またげんざいのふだいむらからやまだまちとよまねまでのぎょーせいをかんかつするだいかんじょがおかれ、しゅーへんちーきのせいじ、けいざいのちゅーしんちであった。	NO_LABEL
江戸時代に東北と江戸とを結ぶ海運が盛んになると、沿岸部で産出される俵物を集荷し江戸へ移出するための拠点となり、前川善兵衛や鍬ヶ崎の和泉屋などの三陸の水産物を取り扱う豪商や、廻船問屋の活動が活発となった。	NO_PRONOUNCE	NO_LABEL
また宮古は東廻り航路の要港であり、松前・東北諸藩が江戸へ米や材木などを輸送するための廻船の重要な寄港地として、料亭や遊郭が軒を連ねる奥州でも有数の商港として賑わった。	NO_PRONOUNCE	NO_LABEL
宮古は海岸の西にすぐ山地が峙えているため、平野部が狭く、また、周囲を山と海に囲まれているために「陸の孤島」になりやすく、古来、内陸からの物資輸送がとどこおることの多い土地柄であった。	NO_PRONOUNCE	NO_LABEL
飢饉ともなると、この地理的制約がゆえに被害は周辺地域と比べてもひときわ大きなものとなった。	ききんともなると、このちりてきせいやくがゆえにひがいわしゅーへんちーきとくらべてもひときわおーきなものとなった。	NO_LABEL
僧・牧庵鞭牛に代表されるような、陸の孤島になりがちな当地の交通網の整備に尽力する人材が現れた江戸時代中期には、盛岡などとの往路の大規模整備を推し進められ、これらの功績は今もって賛えられている。	NO_PRONOUNCE	NO_LABEL
宮古はまた、V字型の湾の両岸が奥に進むにつれて狭くなるリアス式海岸地形の特殊性によって津波の被害も大きく、古来より大規模な被害の出る津波に襲われている。	NO_PRONOUNCE	NO_LABEL
また、戦後もカスリーン台風やアイオン台風、三陸フェーン大火、平成28年台風第10号などの自然災害に悩まされた。	また、せんごもかすりーんたいふーやあいおんたいふー、さんりくふぇーんたいか、へいせいにじゅうはちねんたいふーだいじゅうごーなどのしぜんさいがいになやまされた。	NO_LABEL
市内の遺跡からは、8世紀のものと見られる蕨手刀や和同開珎が出土しており、それまでは須賀君古麻比留のような蝦夷の有力者が地域を治めていたと考えられている。	しないのいせきからわ、はちせいきのものとみられるわらびてとーやわどーかいちんがしゅつどしており、それまでわすかくんこまひるのよーなえぞのゆーりょくしゃがちいきをおさめていたとかんがえられている。	NO_LABEL
9世紀初めの征夷大将軍坂上田村麻呂や、文屋綿麻呂による蝦夷征伐は閉伊地方にも及んだ。	きゅうせいきはじめのせいいたいしょーぐんさかがみたむらまろや、ふんやめんまろによるえぞせいばつわへいちほーにもおよんだ。	NO_LABEL
しかしながら、鎮守府の置かれた胆沢城の勢力下にあったのは奥六郡と呼ばれた北上盆地周辺の地域が主であり、北上山地を隔てた辺境の地である閉伊地方への影響力は少なかった。	しかしながら、ちんじゅふのおかれたいさわじょーのせいりょくかにあったのわおくろくぐんとよばれたきたかみぼんちしゅーへんのちいきがおもであり、きたかみさんちをへだてたへんきょーのちであるへいちほーえのえいきょーりょくわすくなかった。	NO_LABEL
そのため11世紀後半になると、蝦夷の完全制圧を目指した後三条天皇により源頼俊、清原貞衡が派遣され延久蝦夷合戦が開始される事となる。	そのためじゅういちせいきこーはんになると、えぞのかんぜんせいあつをめざしたごさんじょーてんのーによりみなもとのよりとし、きよはらのさだひらがはけんされえんきゅうえぞかっせんがかいしされることとなる。	NO_LABEL
そして「閉伊七村山徒」は制圧されたと伝わる。	NO_PRONOUNCE	NO_LABEL
これにより力を付けた出羽清原氏であったが内紛による後三年の役で滅亡。	これによりちからをつけたでわきよはらしであったがないふんによるごさんねんのえきでめつぼー。	NO_LABEL
以後の統治は清原氏の養子で戦いに勝ち残った藤原清衡に任せられることとなる。	いごのとーちわきよはらしのよーしでたたかいにかちのこったふじわらきよひらにまかせられることとなる。	NO_LABEL
平泉に本拠地を移した清衡は中尊寺金色堂などを建立し、四代に渡る奥州藤原氏による統治が始まる。	ひらいずみにほんきょちをうつしたきよひらわちゅーそんじこんじきどーなどをこんりゅーし、よんだいにわたるおーしゅーふじわらしによるとーちがはじまる。	NO_LABEL
江戸期の盛岡藩の文書『奥南落穂集』には、奥州藤原氏の配下に「閉伊右衛門太郎武国」という武将の一族が居たと記している。	NO_PRONOUNCE	NO_LABEL
源頼朝による平泉侵攻で藤原泰衡が倒されると、閉伊地方は鎌倉幕府の御家人である閉伊氏の領地となる。	みなもとのよりともによるひらいずみしんこーでふじわらのやすひらがたおされると、へいちほーわかまくらばくふのごけにんであるへいしのりょーちとなる。	NO_LABEL
閉伊氏は地頭として鎌倉時代を通して地域を支配し、建武の新政後は鎮守府将軍北畠顕家から所領を安堵されている。	へいしわじとーとしてかまくらじだいをとーしてちいきをしはいし、けんむのしんせいごわちんじゅふしょーぐんきたばたけあきーえからしょりょーをあんどされている。	NO_LABEL
閉伊氏は南北朝時代には、北畠顕家に従い奥州武士団の一人として足利尊氏らの軍勢と戦ったが、石津の戦いに敗れ敗走した。	へいしわなんぼくちょうじだいにわ、きたばたけあきーえにしたがいおーしゅーぶしだんのひとりとしてあしかがたかうじらのぐんぜいとたたかったが、いしずのたたかいにやぶれはいそーした。	NO_LABEL
その後は北朝側に転じ、奥州総大将石塔義房に従った。	そのごわほくちょーがわにてんじ、おーしゅーそーだいしょーいしどうよしふさにしたがった。	NO_LABEL
室町時代から戦国時代になると南部氏の勢力が進出し、南部家の武将櫻庭光康らの攻撃を受けて閉伊氏系の一族は衰退していく。	むろまちじだいからせんごくじだいになるとなんぶしのせいりょくがしんしゅつし、なんぶかのぶしょーさくらばみつやすらのこーげきをうけてへいしけいのいちぞくわすいたいしていく。	NO_LABEL
豊臣秀吉から領地を安堵された南部信直は反乱分子であった九戸政実を倒して領内統治を進めていった。	とよとみひでよしからりょーちをあんどされたなんぶのぶなおわはんらんぶんしであったくのへまさざねをたおしてりょーないとーちをすすめていった。	NO_LABEL
当地の有力豪族だった田鎖氏や一戸千徳氏らもこれに従い、文禄の役に従軍した。	とーちのゆーりょくごーぞくだったたぐさりしやいちのへせんとくしらもこれにしたがい、ぶんろくのえきにじゅーぐんした。	NO_LABEL
その後閉伊地方の領地の一部は櫻庭、野田、楢山氏などの南部家の武将やその家臣に与えられ支配された。	そのごへいちほーのりょーちのいちぶわさくらば、のだ、ならやましなどのなんぶかのぶしょーやそのかしんにあたえられしはいされた。	NO_LABEL
慶長年間には南部利直に任命された最初の宮古代官である小本正吉が派遣され、以後約260年の間、盛岡藩の統治下となる。	けいちょーねんかんにわなんぶとしなおににんめいされたさいしょのみやこだいかんであるおもとしょうきちがはけんされ、いごやくにひゃくろくじゅうねんのま、もりおかはんのとーちかとなる。	NO_LABEL
戊辰戦争では奥羽越列藩同盟に加わった盛岡藩が敗れると、南部氏は仙台白石に転封となり、閉伊郡は松代藩の取締地となる。	ぼしんせんそーでわおーえつれっぱんどーめいにくわわったもりおかはんがやぶれると、なんぶしわせんだいしろいしにてんぽーとなり、へいぐんわまつしろはんのとりしまりちとなる。	NO_LABEL
半年後、盛岡に復帰した南部利恭は1870年、廃藩置県に先立ち廃藩を願い出て盛岡藩知事を辞任した。	はんとしご、もりおかにふっきしたなんぶとしゆきわせんはっぴゃくななじゅうねん、はいはんちけんにさきだちはいはんをねがいでてもりおかはんちじをじにんした。	NO_LABEL
その後閉伊郡は江刺県の管轄となり、江刺県廃止後は盛岡県に編入される。	そのごへいぐんわえさしけんのかんかつとなり、えさしけんはいしごわもりおかけんにへんにゅーされる。	NO_LABEL
盛岡県はその後岩手県と改称し、磐井県の一部を編入して現在の形となる。	もりおかけんわそのごいわてけんとかいしょーし、いわいけんのいちぶをへんにゅーしてげんざいのかたちとなる。	NO_LABEL
江戸時代末期には、東北地方最大の一揆である三閉伊一揆が勃発した。	えどじだいまっきにわ、とーほくちほーさいだいのいっきであるさんへいいっきがぼっぱつした。	NO_LABEL
これは、盛岡藩の失政のツケを宮古を始めとする閉伊郡に対して重税を課して住民から搾取しようとしたことが直接の原因であり、話の流れ自体は平凡だが、非常に大規模な一揆であった。	これわ、もりおかはんのしっせいのつけをみやこをはじめとするへいぐんにたいしてじゅーぜいをかしてじゅーみんからさくしゅしようとしたことがちょくせつのげんいんであり、はなしのながれじたいわへいぼんだが、ひじょーにだいきぼないっきであった。	NO_LABEL
弘化4年、圧制に耐えかねた一揆団は1万数千人という他に例を見ないほどの人数で、遠野城下に押しかけ、藩側に要求を呑ませた。	NO_PRONOUNCE	NO_LABEL
ただし、藩側はのちにこの要求も破り、さらなる人数での一揆へと発展する。	ただし、はんがわわのちにこのよーきゅーもやぶり、さらなるにんずーでのいっきえとはってんする。	NO_LABEL
幕末から明治にかけての戊辰戦争においては、蝦夷地にて独立を図る榎本武揚・土方歳三らの旧幕府軍艦隊が、宮古湾の鍬ヶ崎湊に停泊する新政府軍艦隊の主力艦である装甲艦「CSS Stonewall」を奪取すべくアボルダージュ作戦を決行する、いわゆる、宮古湾海戦が勃発した。	NO_PRONOUNCE	NO_LABEL
太平洋戦争末期の1945年8月9日、10日、宮古は米第3艦隊の空母エセックス及びランドルフの艦載機による空襲を受けた。	NO_PRONOUNCE	NO_LABEL
ラサ工業宮古製錬所、同田老鉱山、岩手窯業宮古工場、三井造船の木造船造船所、鉄道関連施設、湾内停泊中の輸送船、湾岸の倉庫群などが標的となった。	らさこーぎょーみやふるせいねところ、どーたろーこーざん、いわてよーぎょーみやふるこーじょー、みついぞーせんのもくぞーせんぞーせんじょ、てつどーかんれんしせつ、わんないていはくちゅーのゆそーせん、わんがんのそーこぐんなどがひょーてきとなった。	NO_LABEL
特に藤原地区は倉庫内の燃料に引火し燃え広がったため焼け野原となった。	とくにふじわらちくわそーこないのねんりょーにいんかしもえひろがったためやけのはらとなった。	NO_LABEL
　平成22年国勢調査から27年調査にかけての人口増減率は4.63％の減少で、岩手県全体の3.80％を少し上回った。	NO_PRONOUNCE	NO_LABEL
なお平成の大合併以前の区分では旧宮古市が東日本大震災に伴う津波で甚大な被害を受けながら2.23％と県全体を下回った一方で、同じく津波被害を受けた旧田老町が26.27％と27年時点の自治体区分で県内最大である大槌町の23.02％も上回る対照的な結果となった。	NO_PRONOUNCE	NO_LABEL
また直接津波被害を受けていない旧川井村は10.62％と田老町程ではないにしろ大きく減少した。	NO_PRONOUNCE	NO_LABEL
古来、水産業で栄え、特産品としては、サケ、イクラ、ウニ、アワビ、毛ガニ、ワカメなどが挙げられる。	こらい、すいさんぎょーでさかえ、とくさんひんとしてわ、さけ、いくら、うに、あわび、けがに、わかめなどがあげられる。	NO_LABEL
特にサケやサンマ、マダラは全国屈指の水揚げを誇る。	とくにさけやさんま、まだらわぜんこくくっしのみずあげをほこる。	NO_LABEL
工業では、ヒロセ電機や関連企業などによる電子部品の製造、ラサ工業宮古工場によるガリウムの生成、製造と同NCRI事業部による石油精製触媒の再生事業、片倉コープアグリ宮古工場による化学肥料製造やホクヨープライウッドによる合板加工などが主産業である。	NO_PRONOUNCE	NO_LABEL
宮古税関管内の平成28年の輸出入貿易額は、輸出が387億9千6百万円で、ドイツやベルギー、アメリカ向けのポンプ、遠心分離機等の一般機械がその8割を占める。	NO_PRONOUNCE	NO_LABEL
輸入は食料品や木材が多く、貿易額ではロシアがその半分を占める。	ゆにゅーわしょくりょーひんやもくざいがおーく、ぼーえきがくでわろしあがそのはんぶんをしめる。	NO_LABEL
平成26年の製造品出荷額は7,475で、岩手県内で8位である。	NO_PRONOUNCE	NO_LABEL
平成26年度の一人当たり市町村民所得は276万円で、復興需要により震災前より急上昇しており、県南を上回り盛岡市などの県央部に匹敵する額になっている。	へいせいにじゅうろくねんどのひとりあたりしちょーそんみんしょとくわにひゃくななじゅうろくまんえんで、ふっこーじゅよーによりしんさいまえよりきゅーじょーしょーしており、けんなんをうわまわりもりおかしなどのけんひさしぶにひってきするがくになっている。	NO_LABEL
<br>	NO_PRONOUNCE	NO_LABEL
平成28年の観光客入込数は1,117,932で、県沿岸部の市町村ではトップの数字となっている。	NO_PRONOUNCE	NO_LABEL
宮古市の東日本大震災による被害総額は2457億円と推計されており、このうち住宅被害が1496億円と全体の約61%を占めている。	NO_PRONOUNCE	NO_LABEL
また市内では1078の事業所が被災し、業種別ではサービス業が547事業所、商業が334事業所、製造業125事業所などとなっている。	NO_PRONOUNCE	NO_LABEL
公共の宿	こーきょーのやど	NO_LABEL
ホテル	ほてる	NO_LABEL
ビジネス	びじねす	NO_LABEL
旅館	りょかん	NO_LABEL
漁港：田老漁港と重茂漁港は第2種漁港、他は全て第1種漁港である。	NO_PRONOUNCE	NO_LABEL
復興庁	ふっこーちょー	NO_LABEL
警察	けいさつ	NO_LABEL
消防	しょーぼー	NO_LABEL
海上保安庁	かいじょーほあんちょー	NO_LABEL
防衛省	ぼーえいしょー	NO_LABEL
法務省	ほーむしょー	NO_LABEL
地方検察庁	ちほーけんさつちょー	NO_LABEL
厚生労働省	こーせいろうどうしょー	NO_LABEL
財務省	ざいむしょー	NO_LABEL
国税庁	こくぜいちょー	NO_LABEL
国土交通省	こくどこうつうしょー	NO_LABEL
農林水産省	のーりんすいさんしょー	NO_LABEL
林野庁	りんやちょー	NO_LABEL
環境省	かんきょーしょー	NO_LABEL
特殊法人	とくしゅほーじん	NO_LABEL
独立行政法人	どくりつぎょーせいほーじん	NO_LABEL
岩手県	いわてけん	NO_LABEL
テレビ・ラジオ等	NO_PRONOUNCE	NO_LABEL
郵便局	ゆーびんきょく	NO_LABEL
簡易郵便局	かんいゆーびんきょく	NO_LABEL
※岩手県立杜陵高等学校の宮古分室が宮古高校内に設置されている。	NO_PRONOUNCE	NO_LABEL
宮古は三陸沿岸の交通の一大拠点であり、陸路では南の仙台・水戸方面、北の八戸・青森方面、西の盛岡・秋田方面を結ぶ要衝になっている。	NO_PRONOUNCE	NO_LABEL
高規格幹線道路	こーきかくかんせんどーろ	NO_LABEL
