磐城北線は、かつてJRバス関東東北道統括支店が運行していたバス路線である。	いわきほくせんわ、かつてじぇいあーるばすかんとーとーほくどーとーかつしてんがうんこーしていたばすろせんである。	NO_LABEL
磐城石川駅と小野新町駅を結ぶ、鉄道の短絡と地域輸送を目的とした路線である。	いわきいしかわえきとおのにーまちえきをむすぶ、てつどーのたんらくとちいきゆそーをもくてきとしたろせんである。	NO_LABEL
正確には石川新町～小野新町駅が磐城北線で、磐城石川駅～石川新町は磐城南線であるが、実際の運行は磐城石川駅～小野新町駅で磐城北線としており、まとめて記述する。	NO_PRONOUNCE	NO_LABEL
運行は東北道統括支店によって行われており、新町中通には小野新町車庫があった。	うんこーわとーほくどーとーかつしてんによっておこなわれており、しんまちなかどーりにわおのにーまちしゃこがあった。	NO_LABEL
ここは以前、小野新町営業所だったが、路線の縮小とともに車庫に格下げられた。	ここわいぜん、おのにーまちえいぎょーしょだったが、ろせんのしゅくしょーとともにしゃこにかくさげられた。	NO_LABEL
小野新町から川前、宿、荻方面へ支線を抱えていたが、現在は全て廃止されている。	おのにーまちからかわまえ、やど、おぎほーめんえしせんをかかえていたが、げんざいわすべてはいしされている。	NO_LABEL
この本線となる磐城北線も利用者が減少しており、1999年には休日の運行を全て休止するなど、経費の圧縮に努めてきたが、沿線の過疎化と主たる利用者である高校生と高齢者の利用が減少していた。	このほんせんとなるいわきほくせんもりよーしゃがげんしょーしており、せんきゅうひゃくきゅうじゅうきゅうねんにわきゅーじつのうんこーをすべてきゅーしするなど、けいひのあっしゅくにつとめてきたが、えんせんのかそかとしゅたるりよーしゃであるこーこーせいとこーれいしゃのりよーがげんしょーしていた。	NO_LABEL
このため、2006年3月30日に福島県生活交通対策協議会に路線の廃止を申し出ることとなった。	このため、にせんろくねんさんがつさんじゅうにちにふくしまけんせいかつこーつーたいさくきょーぎかいにろせんのはいしをもーしでることとなった。	NO_LABEL
その後、県中地方協議会などにおける協議を経て、2007年4月1日からは、JRバス関東から周辺自治体が委託する福島交通に移管することが決まり、現在は福島交通が同区間を運行している。	そのご、けんちゅーちほーきょーぎかいなどにおけるきょーぎをへて、にせんななねんしがつついたちからわ、じぇいあーるばすかんとーからしゅーへんじちたいがいたくするふくしまこーつーにいかんすることがきまり、げんざいわふくしまこーつーがどーくかんをうんこーしている。	NO_LABEL
