ズィンミテュードは、アラビア語で字義通りには“保護された”という意味を持つ形容詞“ズィンミー”から派生し、フランス語を通じて英語に借用された新語である。	NO_PRONOUNCE	NO_LABEL
“dhimmitude”という語は、“dhimmi”に生産的な接辞である“-tude”を付加することで作られる。	NO_PRONOUNCE	NO_LABEL
これにより、元のアラビア語の名詞“ズィンマ”とは区別された意味を持つ語が作り出される。	NO_PRONOUNCE	NO_LABEL
著者によれば、この用語“dhimmitude”は“dhimma"とはいくつかの点で区別されるが、しかし関連した意味を持つ。	NO_PRONOUNCE	NO_LABEL
この用語が用いられる範囲は、歴史的事象に関してのみのこともあれば、現代の事象に関してのみのこともあり、両方に用いられることもある。	このよーごがもちいられるはんいわ、れきしてきじしょーにかんしてのみのこともあれば、げんだいのじしょーにかんしてのみのこともあり、りょーほーにもちいられることもある。	NO_LABEL
この用語は“dhimma”という制度全体を指して用いられることもあれば、その制度に服する対象の“dhimmi”のみを指すこともあり、さらには確立した制度としての“dhimma”があらゆる意味で存在しない状況においてこの用語を用いる場合もある。	NO_PRONOUNCE	NO_LABEL
この用語は、レバノンのマロン派武装組織の指導者であるバシール・ジャマイエルが1982年に行った、レバノンの比較的数の多いマイノリティーであるキリスト教徒を支配しようとするムスリム指導者の目に見える試みへの言及の中で作られた。	NO_PRONOUNCE	NO_LABEL
1982年9月14日にレバノンのダイル・アル・サリブで行われた演説で、彼は以下のように述べた。	NO_PRONOUNCE	NO_LABEL
“dhimmitude”という概念は、1983年にイタリアの雑誌である“イスラエル月報”に掲載されたフランス語の記事の中で、著述家のバート・ヨールにより欧米の議論に導入された。	NO_PRONOUNCE	NO_LABEL
 この用語は早くも1985年にはJames E. Biechler教授による、“Journal of Ecumenical Studies”に掲載された書評の中で英語として使用されており、ここで彼はヨールの業績を賞賛して、「おそらく著者のもっとも顕著なひとつの功績は、彼女による“dhimmitude”という概念の定義と展開である。	NO_PRONOUNCE	NO_LABEL
」と述べている。	NO_PRONOUNCE	NO_LABEL
ヨールは更に彼女の著書である“イスラーム統治下での東方キリスト教の没落―ジハードからズィンミテュードへ”と2003年に出されたその補論である“イスラームとズィンミテュード―文明が衝突する場所”の中で、この用語を一般化させた。	NO_PRONOUNCE	NO_LABEL
2001年9月11日のアメリカ同時多発テロ事件以降、この用語はとりわけイスラーム主義や欧米のイスラーム化に関する議論の中で、更に広く使われるようになった。	にせんいちねんくがつじゅういちにちのあめりかどーじたはつてろじけんいこー、このよーごわとりわけいすらーむしゅぎやおーべいのいすらーむかにかんするぎろんのなかで、さらにひろくつかわれるよーになった。	NO_LABEL
使用者により、この“dhimmitude”という用語の意味は異なる。	NO_PRONOUNCE	NO_LABEL
