ペトル・ネチャスは、チェコの政治家。	ぺとるねちゃすわ、ちぇこのせいじか。	NO_LABEL
市民民主党党首として同国の首相を務めた。	しみんみんしゅとーとーしゅとしてどーこくのしゅしょーをつとめた。	NO_LABEL
1991年に同党に入党。	せんきゅうひゃくきゅうじゅういちねんにどーとーににゅーとー。	NO_LABEL
2006年9月4日から2009年5月8日にかけて、副首相と労働・社会問題相を兼任。	NO_PRONOUNCE	NO_LABEL
2010年3月にミレク・トポラーネクから党首の座を引き継いた。	にせんじゅうねんさんがつにみれくとぽらーねくからとーくびのざをひきついた。	NO_LABEL
同年5月の総選挙で同党は社会民主党に次ぎ第二党に留まったが、新党TOP09およびVV（）と連立を組み、首相に選出された。	NO_PRONOUNCE	NO_LABEL
2013年6月17日、側近の汚職の責任を取る形で首相を辞任した。	にせんじゅうさんねんろくがつじゅうしちにち、そっきんのおしょくのせきにんをとるかたちでしゅしょーをじにんした。	NO_LABEL
