造形学部は、芸術のうち造形美術およびデザインやアート分野を専門的に学ぶ学部である。	ぞーけいがくぶわ、げいじゅつのうちぞーけいびじゅつおよびでざいんやあーとぶんやをせんもんてきにまなぶがくぶである。	NO_LABEL
芸術家、造形作家の養成を目指す大学等に設置されている。	げいじゅつか、ぞーけいさっかのよーせいをめざすだいがくとーにせっちされている。	NO_LABEL
造形学部をもつ大学は、通信教育課程をも含めて武蔵野美術大学や文化学園大学、愛知産業大学のほか、東京造形大学 長岡造形大学 成安造形大学 校名が変更になった名古屋造形大学などの美術大学、造形芸術大学や常葉学園大学 などにある。	ぞーけいがくぶをもつだいがくわ、つーしんきょーいくかていをもふくめてむさしのびじゅつだいがくやぶんかがくえんだいがく、あいちさんぎょーだいがくのほか、とーきょーぞーけいだいがくながおかぞーけいだいがくせいあんぞーけいだいがくこーめいがへんこーになったなごやぞーけいだいがくなどのびじゅつだいがく、ぞーけいげいじゅつだいがくやとこはがくえんだいがくなどにある。	NO_LABEL
名古屋学芸大学にはメディア造形学部があり、宝塚大学には造形芸術学部、多摩美術大学では夜間部に造形表現学部がある。	なごやがくげいだいがくにわめでぃあぞーけいがくぶがあり、たからずかだいがくにわぞーけいげいじゅつかくぶ、たまびじゅつだいがくでわやかんぶにぞーけいひょーげんがくぶがある。	NO_LABEL
神戸ファッション造形大学にはファッション造形学部がある。	こーべふぁっしょんぞーけいだいがくにわふぁっしょんぞーけいがくぶがある。	NO_LABEL
