小坂峠は、宮城県白石市と福島県伊達郡国見町とを結ぶ峠である。	こざかとーげわ、みやぎけんしろいししとふくしまけんだてぐんくにみちょーとをむすぶとーげである。	NO_LABEL
標高441m。	ひょーこーよんひゃくよんじゅういちめーとる。	NO_LABEL
宮城県道・福島県道46号白石国見線が通っている。	みやぎけんどーふくしまけんどーよんじゅうろくごーしろいしくにみせんがかよっている。	NO_LABEL
冬期も閉鎖されることはないが、道幅が狭くヘアピンカーブが多いため、大型車の通行は通年禁止である。	とーきもへいさされることわないが、みちはばがせまくへあぴんかーぶがおーいため、おーがたしゃのつーこーわつーねんきんしである。	NO_LABEL
大型車は国道4号と国道113号で大きく迂回することになる。	おーがたしゃわこくどーよんごーとこくどーひゃくじゅうさんごーでおーきくうかいすることになる。	NO_LABEL
この峠は羽州街道の一部であり、福島県側に車道化される以前の道が残されている。	このとーげわうしゅーかいどーのいちぶであり、ふくしまけんがわにしゃどーかされるいぜんのみちがのこされている。	NO_LABEL
出産の苦しみにも匹敵する難所として「産坂」と呼ばれていた。	NO_PRONOUNCE	NO_LABEL
1866年に一旦は車道化された新道が作られたが、萬世大路や奥羽本線の開通によって当路線の重要性が低下したため、廃れていった。	せんはっぴゃくろくじゅうろくねんにいったんわしゃどーかされたしんどーがつくられたが、ばんせいたいろやおーうほんせんのかいつーによってとーろせんのじゅーよーせいがていかしたため、すたれていった。	NO_LABEL
現在の県道は1972年に開通した。	げんざいのけんどーわせんきゅうひゃくななじゅうにねんにかいつーした。	NO_LABEL
旧街道は1993年10月1日に「旧羽州街道 小坂峠道跡」として国見町史跡に指定された。	NO_PRONOUNCE	NO_LABEL
羽州街道のうち小坂峠と金山峠の間の区間は、道中に7つの宿場があることから「山中七ヶ宿街道」とも呼ばれる。	NO_PRONOUNCE	NO_LABEL
宮城県刈田郡七ヶ宿町の名の由来でもある。	みやぎけんかりたぐんしちかしゅくまちのなのゆらいでもある。	NO_LABEL
また、1579年冬、米沢城の伊達政宗の下へ三春城主田村清顕の娘・愛姫が嫁いだ際、雪深い板谷峠を避けて小坂峠を経由した故事に因み、小坂峠付近は「愛姫街道」とも呼ばれる。	NO_PRONOUNCE	NO_LABEL
