『ヒトラーの忘れもの』は、監督による2015年のデンマーク・ドイツの歴史ドラマ映画である。	NO_PRONOUNCE	NO_LABEL
のプラットフォーム部門でプレミア上映された。	のぷらっとふぉーむぶもんでぷれみあじょーえいされた。	NO_LABEL
第89回アカデミー賞外国語映画賞にはデンマーク代表として出品されている。	だいはちじゅうきゅうかいあかでみーしょーがいこくごえいがしょーにわでんまーくだいひょーとしてしゅっぴんされている。	NO_LABEL
映画は史実に触発されており、後のデンマークに地雷撤去のために送られたドイツ兵が描かれる。	えいがわしじつにしょくはつされており、ごのでんまーくにじらいてっきょのためにおくられたどいつへいがえがかれる。	NO_LABEL
地雷撤去を強要された2000人以上のドイツ兵のうち約半数が命を落としたり手足を失ったといわれている。	じらいてっきょをきょーよーされたにせんにんいじょーのどいつへいのうちやくはんすーがいのちをおとしたりてあしをうしなったといわれている。	NO_LABEL
1945年5月のドイツ降伏後、若いドイツ兵の戦争捕虜の集団がデンマーク当局に引き渡され、ナチス・ドイツが砂の中に埋めた200万以上の地雷を撤去するために西海岸へと派遣される。	せんきゅうひゃくよんじゅうごねんごがつのどいつこーふくご、わかいどいつへいのせんそーほりょのしゅーだんがでんまーくとーきょくにひきわたされ、なちすどいつがすなのなかにうめたにひゃくまんいじょーのじらいをてっきょするためににしかいがんえとはけんされる。	NO_LABEL
これは戦争捕虜の強制労働を禁じるジュネーヴ条約に違反する命令であった。	NO_PRONOUNCE	NO_LABEL
少年兵たちはデンマークのカール・レオポルド・ラスムスン軍曹の指揮の下、危険な作業に身を投じる。	NO_PRONOUNCE	NO_LABEL
※括弧内は日本語吹替	NO_PRONOUNCE	NO_LABEL
ボディル賞では主演男優賞、助演男優賞、作品賞などを獲得した。	ぼでぃるしょーでわしゅえんだんゆーしょー、じょえんだんゆーしょー、さくひんしょーなどをかくとくした。	NO_LABEL
第28回東京国際映画祭では『地雷と少年兵』の題で上映され、ルイス・ホフマンとローランド・ムーラーが最優秀男優賞を獲得した。	NO_PRONOUNCE	NO_LABEL
