ヒオウギはアヤメ科アヤメ属の多年草である。	ひおーぎわあやめかあやめぞくのたねんそーである。	NO_LABEL
従来はヒオウギ属に属するとされ、"B. chinensis"の学名を与えられていたが、2005年になって分子生物学によるDNA解析の結果からアヤメ属に編入され、現在の学名となった。	NO_PRONOUNCE	NO_LABEL
ヒオウギは山野の草地や海岸に自生する多年草である。	ひおーぎわさんやのくさちやかいがんにじせいするたねんそーである。	NO_LABEL
高さ60 - 120センチ・メートル程度。	NO_PRONOUNCE	NO_LABEL
葉は長く扇状に広がり、宮廷人が持つ檜扇に似ていることから命名されたとされる。	はわながくせんじょーにひろがり、きゅーていじんがもつひおーぎににていることからめいめいされたとされる。	NO_LABEL
別名に烏扇。	べつめいにからすおーぎ。	NO_LABEL
花は8月ごろ咲き、直径5 - 6センチ・メートル程度。	NO_PRONOUNCE	NO_LABEL
花被片はオレンジ色で赤い斑点があり放射状に開く。	かひへんわおれんじいろであかいはんてんがありほーしゃじょーにひらく。	NO_LABEL
午前中に咲き夕方にはしぼむ一日花である。	ごぜんちゅーにさきゆーがたにわしぼむいちにちかである。	NO_LABEL
種子は4ミリ・メートル程度で黒く艶がある。	NO_PRONOUNCE	NO_LABEL
本州・四国・九州に分布する。	NO_PRONOUNCE	NO_LABEL
花が美しいためしばしば栽培され、生花店でも販売される。	はながうつくしいためしばしばさいばいされ、せいかてんでもはんばいされる。	NO_LABEL
関西地方中心に名古屋から広島にかけて、生け花の7月初旬の代表的な花材である。	かんさいちほーちゅーしんになごやからひろしまにかけて、いけばなのしちがつしょじゅんのだいひょーてきなはなざいである。	NO_LABEL
特に京都の祇園祭や大阪の天神祭では、床の間や軒先に飾る花として愛好されている。	とくにきょーとのぎおんまつりやおーさかのてんじんまつりでわ、とこのまやのきさきにかざるはなとしてあいこーされている。	NO_LABEL
黒い種子は俗に射干玉と呼ばれ、和歌では「黒」や「夜」にかかる枕詞としても知られる。	NO_PRONOUNCE	NO_LABEL
烏羽玉、野干玉、夜干玉などとも書く。	うばたま、のひだま、ぬばたまなどともかく。	NO_LABEL
和菓子の烏羽玉はヒオウギの実を模したもので、丸めた餡を求肥で包んで砂糖をかけたものや黒砂糖の漉し餡に寒天をかけたものなどがある。	わがしのうばたまわひおーぎのみをもしたもので、まるめたあんをぎゅーひでつつんでさとーをかけたものやくろざとーのこしあんにかんてんをかけたものなどがある。	NO_LABEL
生花はほとんどが徳島県神山町産のものである。	せいかわほとんどがとくしまけんかみやまちょーさんのものである。	NO_LABEL
神山では1955年からヒオウギの生産が始まり、1976年にウイルス病により全滅の危機に襲われたが品質向上技術の開発により、1970年代前半には70軒が栽培して最盛期となり、徳島県の特産品にもなった。	NO_PRONOUNCE	NO_LABEL
その後価格低迷や生産者の高齢化などにより2016年には10軒のみの生産に減少した。	NO_PRONOUNCE	NO_LABEL
原色日本植物図鑑	げんしょくにっぽんしょくぶつずかん	NO_LABEL
