水野 佐彩は、日本の、女性読者モデル、歌手。	みずのさあやわ、にっぽんの、じょせいどくしゃもでる、かしゅ。	NO_LABEL
学位は学士。	がくいわがくし。	NO_LABEL
千葉県出身。	ちばけんしゅっしん。	NO_LABEL
立教大学文学部史学科卒業。	りっきょーだいがくぶんがくぶしがっかそつぎょー。	NO_LABEL
身長156cm、体重41kg、シュガープラス所属。	しんちょーひゃくごじゅうろくせんちめーとる、たいじゅーよんじゅういちきろぐらむ、しゅがーぷらすしょぞく。	NO_LABEL
2004年、スマイルカンパニーが開催した「スマイル ボーカルオーディション2004」に合格。	NO_PRONOUNCE	NO_LABEL
その後読者モデルとして活動。	そのごどくしゃもでるとしてかつどー。	NO_LABEL
2009年11月、ミス立教大学2009準グランプリを獲得。	NO_PRONOUNCE	NO_LABEL
2010年5月26日、ジェネオン・ユニバーサルから「My Secret」でメジャーデビューを果たした。	NO_PRONOUNCE	NO_LABEL
