折居 彪二郎は、日本の鳥獣標本採集家。	おりいぴょーじろーわ、にっぽんのちょーじゅーひょーほんさいしゅーか。	NO_LABEL
1883年7月15日、新潟県生まれ。	せんはっぴゃくはちじゅうさんねんしちがつじゅうごにち、にーがたけんうまれ。	NO_LABEL
1899年に函館へ、次いで1913年に苫小牧へ移り住んだ。	せんはっぴゃくきゅうじゅうきゅうねんにはこだてえ、ついでせんきゅうひゃくじゅうさんねんにとまこまいえうつりすんだ。	NO_LABEL
1906年10月、大英博物館嘱託採集員マルコム・プレイフェア・アンダーソンの助手として、日本各地ならびに朝鮮中央部で標本用鳥獣の採集にあたり、以降、1936年まで、おもに山階芳麿など鳥類学者の依頼により、日本国内のみならず、当時の満州、樺太、千島、台湾、南洋諸島などで標本の採集に従事した。	せんきゅうひゃくろくねんじゅーがつ、だいえいはくぶつかんしょくたくさいしゅーいんまるこむぷれいふぇああんだーそんのじょしゅとして、にっぽんかくちならびにちょーせんちゅーおーぶでひょーほんよーちょーじゅーのさいしゅーにあたり、いこー、せんきゅうひゃくさんじゅうろくねまで、おもにやましなよしまろなどちょーるいがくしゃのいらいにより、にほんこくないのみならず、とーじのまんしゅー、からふと、ちしま、たいわん、なんよーしょとーなどでひょーほんのさいしゅーにじゅーじした。	NO_LABEL
山階芳麿は折居について、「射撃もうまく、標本作りも天才的にうまかった」と記している。	NO_PRONOUNCE	NO_LABEL
折居が採集した標本は、6000種以上に及ぶとされ、鳥類10種、哺乳類7種の学名に「Orii」の名が冠されている。	NO_PRONOUNCE	NO_LABEL
1970年4月27日逝去。	せんきゅうひゃくななじゅうねんしがつにじゅうしちにちせいきょ。	NO_LABEL
