ヴカシン・ブライッチは、ボスニア・ヘルツェゴビナ出身のポップ・ロック歌手である。	NO_PRONOUNCE	NO_LABEL
旧ユーゴスラビア連邦一円で2008年から2009年にかけて放映されたリアリティ番組・オペラツィヤ・トリユムフ（）の第1シーズンに参加し、その名が知られるようになった。	NO_PRONOUNCE	NO_LABEL
同番組は、かつてユーゴスラビア連邦に属したボスニア・ヘルツェゴビナ、クロアチア、マケドニア共和国、モンテネグロ、セルビアの5箇国で放送され、ヴライッチは2位に終わった。	NO_PRONOUNCE	NO_LABEL
ノルウェーのオスロで開催予定のユーロビジョン・ソング・コンテストの2010年大会に、ボスニア・ヘルツェゴビナ代表として出場することが決まっている。	のるうぇーのおすろでかいさいよていのゆーろびじょんそんぐこんてすとのにせんじゅうねんたいかいに、ぼすにあへるつぇごびなだいひょーとしてしゅつじょーすることがきまっている。	NO_LABEL
ユーゴスラビア社会主義連邦共和国・ボスニア・ヘルツェゴビナ社会主義共和国北西部の町サンスキ・モストにて1984年2月9日に、3人兄弟の長子として生まれた。	NO_PRONOUNCE	NO_LABEL
弟と妹が1人ずついる。	おとーとといもーとがひとりずついる。	NO_LABEL
子供の頃から音楽に興味を持ち、初等学校の3年生のときに音楽学校に行きたいと両親に請うが、当時はボスニア・ヘルツェゴビナ紛争のさなかであり、願いは叶わなかった。	こどものころからおんがくにきょーみをもち、しょとーがっこーのさんねんせいのときにおんがくがっこーにいきたいとりょーしんにこうが、とーじわぼすにあへるつぇごびなふんそーのさなかであり、ねがいわかなわなかった。	NO_LABEL
1994年、紛争から逃れるためにボスニア・ヘルツェゴビナを離れ、セルビア・ソポト市のマリ・ポジャレヴァツに移住した。	NO_PRONOUNCE	NO_LABEL
マリ・ポジャレヴァツで1年を過ごした後、家族と共にチャチャクへと移り、チャチャクにて初等教育および中等教育を終えた。	NO_PRONOUNCE	NO_LABEL
両親はヴカシンに音楽教育を受けさせられなかったが、ヴカシンは書籍やインターネットを通じて独学で音楽を学び、鍵盤楽器やギターの奏法を身につけた。	NO_PRONOUNCE	NO_LABEL
15歳のときにおじから初めてのギターを与えられたとき、家族に対して「いつか、このギターでみんなを養ってやる」と言った。	NO_PRONOUNCE	NO_LABEL
ヴカシンは合唱団でうたい、ダンス・スタジオで踊り、演劇クラブにも属し、それらでの活動を通じて音楽パフォーマンスの経験を積んでいった。	NO_PRONOUNCE	NO_LABEL
19歳のときにチャチャクからネゴティン（）に移り、教育大学に入学、本格的に音楽や歌唱を学んだ。	じゅうきゅうさいのときにちゃちゃくからねごてぃんかっこにうつり、きょーいくだいがくににゅーがく、ほんかくてきにおんがくやかしょーをまなんだ。	NO_LABEL
ヴカシンは、教育大学での子供たちとの交流を楽しみ、教え子たちは観客で、教室は舞台だと語っていた。	NO_PRONOUNCE	NO_LABEL
この当時、学位を得るためにあと卒業論文を残すのみとなっていたが、音楽活動のために延期していた。	このとーじ、がくいをえるためにあとそつぎょーろんぶんをのこすのみとなっていたが、おんがくかつどーのためにえんきしていた。	NO_LABEL
ネゴティンで同居していた友人からも音楽を教わり、ギターのスキルを向上させていた。	ねごてぃんでどーきょしていたゆーじんからもおんがくをおそわり、ぎたーのすきるをこーじょーさせていた。	NO_LABEL
大学の3年生のとき、ネゴティンからベオグラードに移住した。	だいがくのさんねんせいのとき、ねごてぃんからべおぐらーどにいじゅーした。	NO_LABEL
2003年にネゴティンにて出会った友人で、メロディックなメタル・ロックの楽曲を作っていた、ダルコ・ニコディイェヴィッチは、アフェクトという名のバンドを結成していた。	NO_PRONOUNCE	NO_LABEL
バンドにはリード・ヴォーカルがいなかったが、彼らは歌を歌いギターもひけるヴカシンをバンドに誘った。	NO_PRONOUNCE	NO_LABEL
2004年の夏、ヴカシンはこのバンドで4曲を録音した。	NO_PRONOUNCE	NO_LABEL
ヴカシンはこれらの楽曲を気に入り、そこに自分の音楽の方向性を見出していく。	NO_PRONOUNCE	NO_LABEL
2005年初頭、アフェクトはベーシストのニコラ・ディミティイェヴィッチを得てフル・メンバーとなった。	NO_PRONOUNCE	NO_LABEL
環境が十分でなかったために、2006年末までに録音できたのは10曲程度であったが、この年の夏にレコード会社のPGP-RTSのオグニェン・ウゼラツと連絡を取り、プロモーション用CDシングルの発売を打診された。	NO_PRONOUNCE	NO_LABEL
2006年秋には、PGP-RTSの第5スタジオで、「」と、「Ajde Jano」のカバー曲の2曲を、ヘヴィメタルのスタイルで録音した。	NO_PRONOUNCE	NO_LABEL
2007年4月、シングルは発売され、彼らはベオグラード以外でも活動を始めた。	にせんななねんしがつ、しんぐるわはつばいされ、かれらわべおぐらーどいがいでもかつどーをはじめた。	NO_LABEL
バンドのメンバーの中で、プロとしての音楽活動を続けたいと考えているのはヴカシン一人であったが、ダルコ・ニコディイェヴィッチやネマニャ・アンジェルコヴィッチはその後もヴカシンの活動にチームの一員として加わっている。	NO_PRONOUNCE	NO_LABEL
アフェクトでの活動の後、ヴカシンはマルコ・マリッチとして音楽活動を続けた。	NO_PRONOUNCE	NO_LABEL
ヴカシンがオペラツィヤ・トリユムフに出場するまで活動を続け、モーニング・ショーなどにも登場した。	NO_PRONOUNCE	NO_LABEL
ネゴティンでのルームメイトが電話で、オペラツィヤ・トリユムフの参加受付が始まっていることを知らせ、ヴカシンの代父が参加登録を行った。	NO_PRONOUNCE	NO_LABEL
この時ネゴティンにいた本人は、大学への貢献にと、直ちに参加の準備を始めた。	このときねごてぃんにいたほんにんわ、だいがくえのこーけんにと、ただちにさんかのじゅんびをはじめた。	NO_LABEL
ベオグラードに戻り、それまでの音楽活動で稼いだ資金をすべてつぎ込んで、3箇月にわたって歌唱指導者のターニャ・アンドレイッチ教授（）に師事した。	NO_PRONOUNCE	NO_LABEL
オーディションを通過して参加が決まった後、他のセルビアからの参加者たちとともに、セルビア各地でプロモーション・コンサートを開いた。	NO_PRONOUNCE	NO_LABEL
ショーは2008年9月22日に始まった。	しょーわにせんはちねんくがつにじゅうににちにはじまった。	NO_LABEL
初回は他の参加者とのデュエットであり、イヴァナ・ニコディイェヴィッチの「」と、メタリカの「」を歌った。	NO_PRONOUNCE	NO_LABEL
第2回では初めて脱落の候補となったが、その理由は告げられず、最終的に脱落は免れた。	だいにかいでわはじめてだつらくのこーほとなったが、そのりゆーわつげられず、さいしゅーてきにだつらくわまぬかれた。	NO_LABEL
第8回では視聴者投票によって再び脱落の候補となった。	だいはっかいでわしちょーしゃとーひょーによってふたたびだつらくのこーほとなった。	NO_LABEL
ヴカシンとともに脱落候補となったジョルジェ・ゴゴヴと共に再び脱落の候補となった。	NO_PRONOUNCE	NO_LABEL
サリッチも過去に何度か視聴者の「お気に入り」となっていたが、この時は視聴者投票によってサリッチに勝ち、次回への進出を決めた。	NO_PRONOUNCE	NO_LABEL
このため、ゴゴヴとの競合の件とあわせて、ヴカシンは「お気に入り殺し」の異名を受けた。	NO_PRONOUNCE	NO_LABEL
その後決勝まで進んだが、最終的にはアドナン・ババイッチ（）に次いで2位となった。	NO_PRONOUNCE	NO_LABEL
公式発表によると、ヴカシンは30万票ほどを獲得している。	NO_PRONOUNCE	NO_LABEL
ヴカシンはショーの中ではしっかり目立つ存在であり、あらゆる年代、そして旧ユーゴスラビア社会主義連邦共和国の全ての地域から支持を集めていた。	NO_PRONOUNCE	NO_LABEL
旧ユーゴスラビア地域を再び一つにした、と称えられ、ショーの審査員は「全ての参加者の中で最も平均レベルが高い」と評された。	NO_PRONOUNCE	NO_LABEL
また、ヴカシンのコメント「掲示板に書き込む奴らは最悪だ。	NO_PRONOUNCE	NO_LABEL
そして俺もその中の一人だ！」によって、掲示板利用者の間でも高い人気を集めた。	NO_PRONOUNCE	NO_LABEL
オペラツィヤ・トリユムフ終了後、セルビアからの同番組の参加者3人と共にOTベンド（）というバンドを結成した。	NO_PRONOUNCE	NO_LABEL
2009年2月23日、ヴカシンらOTベンドはソーニャ・バキッチ（）と共に、ジェームス・ブラントのベオグラードでのコンサートの前座を務めた。	NO_PRONOUNCE	NO_LABEL
OTベンドは、ユーロビジョン・ソング・コンテストのセルビア代表選考であるベオヴィジヤ2009に挑戦し、E.オーウェン、S.ヴクマノヴィッチ、E.ボトリッチによる楽曲「Blagoslov za Kraj」を披露した。	NO_PRONOUNCE	NO_LABEL
3月7日の準決勝では、OTベンドは24得点を得て首位で決勝進出を決めた。	さんがつなのかのじゅんけっしょーでわ、おーてぃべんどわにじゅうよんとくてんをえてしゅいでけっしょーしんしゅつをきめた。	NO_LABEL
翌日の決勝では、視聴者投票5万3550票のうち2万8521票を得て、視聴者投票では首位となり、最高得点である12点を得た。	NO_PRONOUNCE	NO_LABEL
しかし、審査員投票では5点しか得られず、総合順位では次点に終わった。	しかし、しんさいんとーひょーでわごてんしかえられず、そーごーじゅんいでわじてんにおわった。	NO_LABEL
2009年4月19日と20日、ヴカシンら、かつてのオペラツィヤ・トリユムフ参加者たちは、ベオグラードのサヴァ・センターを使用して行われた。	NO_PRONOUNCE	NO_LABEL
同国のヘルツェグ・ノヴィで開かれたスンチャネ・スカレ2009では、1日目の夜にプリンス賞（）が選ばれ、OTベンドとカロリーナ・ゴチェヴァの楽曲「Zaboravi」は「今年のブレイクスルー」賞に選ばれた。	NO_PRONOUNCE	NO_LABEL
2009年7月12日、ベオグラード・アリーナにてOTベンドはアナ・ベビッチと共に第25回夏季ユニバーシアードの閉会式でパフォーマンスを行った。	NO_PRONOUNCE	NO_LABEL
この大会には145の国から8千2百人の参加者が集まっていた。	NO_PRONOUNCE	NO_LABEL
他のオペラツィヤ・トリユムフの参加者たちも各地でコンサートを行っており、OTベンドとアナ・ベビッチがウジツェ（）で開いたコンサートでは、1万人が集まった。	NO_PRONOUNCE	NO_LABEL
オペラツィヤ・トリユムフの参加者による「さよならコンサート」はこの年の年末にベオグラードのサヴァ・センターで行われ、彼らはこれをもってオペラツィヤ・トリユムフ「生徒」としての活動を終え、それぞれのキャリアを築く道へと旅立つとされた。	NO_PRONOUNCE	NO_LABEL
ヴォイカン・ボリサヴリェヴィッチの演奏の下、ベオグラードのドム・シンディカタにてスウェーデンのバンドABBAのマンマ・ミーアと題するコンサートが行われた。	NO_PRONOUNCE	NO_LABEL
OTベンドは、マーヤ・オジャクリイェフスカ、ティヤナ・ダプチェヴィッチ、イェレナ・ヨヴィチッチ、デヤン・ルトキッチと共にコンサートに参加した。	NO_PRONOUNCE	NO_LABEL
コンサートには在セルビア・スウェーデン大使館が出資しており、また特別ゲストとしてベオグラード・オペラのプリマドンナ、ヤドランカ・ヨヴァノヴィッチ（）が招聘された。	NO_PRONOUNCE	NO_LABEL
2010年1月11日、ヴカシン・ブライッチの楽曲「」が、ノルウェーのオスロで開催予定のユーロビジョン・ソング・コンテストの2010年大会に、ボスニア・ヘルツェゴビナ代表曲として選ばれたことが発表された。	NO_PRONOUNCE	NO_LABEL
