『スージー・ウォンの世界』は、1960年に製作・公開されたイギリスとアメリカの恋愛ドラマ映画。	NO_PRONOUNCE	NO_LABEL
リチャード・クワインが監督を務めた。	りちゃーどくわいんがかんとくをつとめた。	NO_LABEL
ジョン・パトリックが、リチャード・メイソン原作の同名小説を原作とするポール・オズボーンの戯曲を基にして脚本を執筆した。	じょんぱとりっくが、りちゃーどめいそんげんさくのどーめいしょーせつをげんさくとするぽーるおずぼーんのぎきょくをもとにしてきゃくほんをしっぴつした。	NO_LABEL
ウィリアム・ホールデンとナンシー・クワンが主演した。	うぃりあむほーるでんとなんしーくわんがしゅえんした。	NO_LABEL
1957年にイギリスで発表され、1958年にブロードウェイで劇化されたリチャード・メイソンの香港を舞台とした小説『スージー・ウォンの世界』の映画化作品であり、リチャード・クワインが監督、ウィリアム・ホールデンと香港出身のナンシー・クワンが主演した。	NO_PRONOUNCE	NO_LABEL
アメリカ人建築家ロバート・ロマックスは画家を志望し香港に1年間の予定で移住する。	NO_PRONOUNCE	NO_LABEL
香港島に向かうスターフェリーの上で社会的地位の高い若い女性ミー・リンと出会う。	ほんこんとーにむかうすたーふぇりーのうえでしゃかいてきちいのたかいわかいじょせいみーりんとであう。	NO_LABEL
ミー・リンはロバートが財布を盗んだと勘違いして逮捕させようとするが、誤解が解け別々の道を行く。	みーりんわろばーとがさいふをぬすんだとかんちがいしてたいほさせようとするが、ごかいがとけべつべつのみちをいく。	NO_LABEL
資金難のためロバートは悪名高い湾仔地区の安宿を探す。	しきんなんのためろばーとわあくめいたかいわんちゃいちくのやすやどをさがす。	NO_LABEL
ロバートは偶然ミー・リンが地区内の粗末なホテルから出てくるのを見かける。	ろばーとわぐーぜんみーりんがちくないのそまつなほてるからでてくるのをみかける。	NO_LABEL
ホテル所有者アー・トンに短期間で借りるより月単位で借りた方が得だと聞き驚く。	NO_PRONOUNCE	NO_LABEL
隣のバーでセクシーな赤いチャイナドレスを着たミー・リンが水夫と仲良くしているのを見つける。	となりのばーでせくしーなあかいちゃいなどれすをきたみーりんがすいふとなかよくしているのをみつける。	NO_LABEL
しかし彼女はミー・リンではなくスージー・ウォンと名乗る。	NO_PRONOUNCE	NO_LABEL
翌日、ロバートは口座開設のため銀行に行く。	よくじつ、ろばーとわこーざかいせつのためぎんこーにいく。	NO_LABEL
支配人の娘であり秘書のケイ・オニールはロバートに一目惚れする。	NO_PRONOUNCE	NO_LABEL
ロバートはスージーに絵のモデルになってくれるよう頼む。	ろばーとわすーじーにえのもでるになってくれるよーたのむ。	NO_LABEL
互いのことをよく知るようになると、ロバートはスージーが10歳の頃から生活のために仕事をしていることを知る。	たがいのことをよくしるよーになると、ろばーとわすーじーがじゅっさいのころからせいかつのためにしごとをしていることをしる。	NO_LABEL
スージーはロバートに惹かれていくが、ロバートも惹かれながらもスージーに思いとどまらせようとする。	すーじーわろばーとにひかれていくが、ろばーともひかれながらもすーじーにおもいとどまらせようとする。	NO_LABEL
その一方ロバートはケイからパーティに招待される。	そのいっぽーろばーとわけいからぱーてぃにしょーたいされる。	NO_LABEL
ケイが主催するパーティでロバートはスージーの顧客の1人であるベン・マーロウが妻と共に参加していることを知る。	NO_PRONOUNCE	NO_LABEL
ベンはスージーに愛人になるよう説得し、スージーはロバートを嫉妬させるためにこれを受け入れる。	べんわすーじーにあいじんになるよーせっとくし、すーじーわろばーとをしっとさせるためにこれをうけいれる。	NO_LABEL
ベンが妻と仲直りをし、ベンはロバートにスージーと別れさせてくれるよう頼む。	べんがつまとなかなおりをし、べんわろばーとにすーじーとわかれさせてくれるよーたのむ。	NO_LABEL
スージーが傷心しているところに、ロバートはついに愛を告げる。	すーじーがしょーしんしているところに、ろばーとわついにあいをつげる。	NO_LABEL
最初こそうまくいっていたが、次第にうまくいかなくなってくる。	さいしょこそうまくいっていたが、しだいにうまくいかなくなってくる。	NO_LABEL
ある日、スージーが度々いなくなることを不審に思ったロバートはスージーを追跡する。	あるひ、すーじーがたびたびいなくなることをふしんにおもったろばーとわすーじーをついせきする。	NO_LABEL
するとスージーに隠し子がいることが発覚するが、ロバートは受け入れる。	するとすーじーにかくしごがいることがはっかくするが、ろばーとわうけいれる。	NO_LABEL
ロバートは絵の売却に失敗し、経済危機に陥り、ケイもスージーも援助を申し出るがロバートはプライドにかけて断る。	ろばーとわえのばいきゃくにしっぱいし、けいざいききにおちいり、けいもすーじーもえんじょをもーしでるがろばーとわぷらいどにかけてことわる。	NO_LABEL
スージーがロバートの宿泊代を支払い、彼を助けるために売春業に戻ると告げると、ロバートは怒ってスージーを追い出す。	すーじーがろばーとのしゅくはくだいをしはらい、かれをたすけるためにばいしゅんぎょーにもどるとつげると、ろばーとわおこってすーじーをおいだす。	NO_LABEL
ロバートは自分の間違いに気づき、スージーを探す。	ろばーとわじぶんのまちがいにきずき、すーじーをさがす。	NO_LABEL
ついにスージーを見つけた時、ロバートはスージーの息子が洪水で亡くなったことを知る。	ついにすーじーをみつけたとき、ろばーとわすーじーのむすこがこーずいでなくなったことをしる。	NO_LABEL
ロバートとスージーは互いに愛を誓いあう。	ろばーととすーじーわたがいにあいをちかいあう。	NO_LABEL
ブロードウェイ版『スージー・ウォンの世界』においてフランス・ニュイエンがスージー役、ウィリアム・シャトナーがロバート役を演じた。	NO_PRONOUNCE	NO_LABEL
1958年、ニュイエンは映画『南太平洋』に出演していた。	NO_PRONOUNCE	NO_LABEL
『スージー・ウォンの世界』の映画化に際し、ニュイエンがスージー役を再演する契約をした。	NO_PRONOUNCE	NO_LABEL
香港での5週間のロケの後、ジーン・ネグレスコ監督を含むスタッフおよび出演者はスタジオ撮影のためロンドンへ移動した。	ほんこんでのごしゅーかんのろけののち、じーんねぐれすこかんとくをふくむすたっふおよびしゅつえんしゃわすたじおさつえいのためろんどんえいどーした。	NO_LABEL
当時ニュイエンはマーロン・ブランドと交際しており、ブランドが女優のバーバラ・ルナと浮気をしているとの噂が流れ、ニュイエンは苦悩していた。	とーじにゅいえんわまーろんぶらんどとこーさいしており、ぶらんどがじょゆーのばーばらるなとうわきをしているとのうわさがながれ、にゅいえんわくのーしていた。	NO_LABEL
ニュイエンは過食に陥り、衣裳のチャイナドレスが合わなくなってしまった。	にゅいえんわかしょくにおちいり、いしょーのちゃいなどれすがあわなくなってしまった。	NO_LABEL
体形が戻るまで待ちきれず、製作総指揮レイ・スタークは舞台版北米ツアー公演でスージー役代役であったナンシー・クワンに交代させた。	たいけいがもどるまでまちきれず、せいさくそーしきれいすたーくわぶたいばんほくべいつあーこーえんですーじーやくだいやくであったなんしーくわんにこーたいさせた。	NO_LABEL
スタークはクワンにオーディションを受けさせたが、当時クワンは主役としての経験不足と考えられていた。	すたーくわくわんにおーでぃしょんをうけさせたが、とーじくわんわしゅやくとしてのけいけんふそくとかんがえられていた。	NO_LABEL
スタークはネグレスコ監督も解雇し、リチャード・クワイン監督と交代させた。	すたーくわねぐれすこかんとくもかいこし、りちゃーどくわいんかんとくとこーたいさせた。	NO_LABEL
先に香港で撮影したシーンについても撮影し直し、ニュイエンが登場していた『エスクァイア』誌を含む未発表の記事や写真も全てやり直した。	NO_PRONOUNCE	NO_LABEL
テーマ曲はサミー・カーンとジミー・ヴァン・ヒューゼンが作曲した。	NO_PRONOUNCE	NO_LABEL
アーティストのドン・キングマンがテクニカル・アドバイザーとなり、セットを描いた。	NO_PRONOUNCE	NO_LABEL
香港でのロケを特徴としており、ジョン・ボックス、シド・ケイン、リズ・ムーア、ロイ・ロソッティ、MGMブリティッシュ・スタジオのR.L.M.ディヴィジョンがアート・ダイレクションおよびブロダクション・デザインを担当した。	NO_PRONOUNCE	NO_LABEL
ニューヨークのラジオシティ・ミュージックホールで初上映された。	にゅーよーくのらじおしてぃみゅーじっくほーるではつじょーえいされた。	NO_LABEL
香港周辺、特に湾仔が舞台となっているが、実際と地理的に距離感が違う。	ほんこんしゅーへん、とくにわんちゃいがぶたいとなっているが、じっさいとちりてきにきょりかんがちがう。	NO_LABEL
この映画は1960年代の香港の記録映画としての側面もある。	このえいがわせんきゅうひゃくろくじゅうねんだのほんこんのきろくえいがとしてのそくめんもある。	NO_LABEL
尖沙咀、中環/上環、油麻地、"" 、香港仔、"" で撮影されたシーンが登場する。	NO_PRONOUNCE	NO_LABEL
