和詩とは、贈答の漢詩における答えの漢詩のこと。	わしとわ、ぞーとーのかんしにおけるこたえのかんしのこと。	NO_LABEL
また日本人が作った漢詩のこともこう言うが、中国の漢詩に対して作られた和歌、倭歌を指す場合もある。	またにっぽんじんがつくったかんしのこともこーいうが、ちゅーごくのかんしにたいしてつくられたわか、やまとうたをさすばあいもある。	NO_LABEL
狭義には、 江戸時代中期以降に俳諧師の各務支考によって創られた漢詩の形式に倣った、仮名交じりの詩のことを言う。	きょーぎにわ、えどじだいちゅーきいこーにはいかいしのかがみしこーによってつくられたかんしのけいしきにならった、かめいまじりのしのことをいう。	NO_LABEL
各務支考の「仮名詩」と区別して与謝蕪村の「自由詩」を和詩と呼ぶこともある。	NO_PRONOUNCE	NO_LABEL
以下ではこの狭義の和詩について解説する。	いかでわこのきょーぎのわしについてかいせつする。	NO_LABEL
松尾芭蕉の門下であった俳諧師の各務支考が江戸時代に「仮名詩」と称して中国古来の「漢詩」を自由な形の詩で著したのが起源である。	NO_PRONOUNCE	NO_LABEL
漢詩には文が四行からなる絶句や八行からなる律詩があるが、仮名詩はこれに倣って五言、七言に該当するものを十音、十四音とした。	かんしにわぶんがよんこーからなるぜっくやはちこーからなるりっしがあるが、かめいしわこれにならってごごん、しちごんにがいとーするものをじゅーおと、としおんとした。	NO_LABEL
押韻については五十音図の横列によって韻を踏んだ。	おーいんについてわごじゅーおんずのおーれつによっていんをふんだ。	NO_LABEL
江戸時代中期に俳人の間で取り扱われ、様々な門流ができた。	えどじだいちゅーきにはいじんのまでとりあつかわれ、さまざまなもんりゅーができた。	NO_LABEL
中でも、与謝蕪村は各務支考の「仮名詩」の約束事にとらわれず俳句と漢詩文を織り交ぜ、自由な詩である「自由詩」を考案した。	NO_PRONOUNCE	NO_LABEL
初期の和詩の作品は各務支考が編纂した『本朝文鑑』『和漢文操』に収められている。	NO_PRONOUNCE	NO_LABEL
