『とんがりボウシと魔法のお店』は、コナミデジタルエンタテインメントから2010年11月11日に発売されたニンテンドーDS用ゲームソフト。	NO_PRONOUNCE	NO_LABEL
前作のとんがりボウシと魔法の365にちの続編だが時系列的な繋がりはない。	ぜんさくのとんがりぼーしとまほーのさんびゃくろくじゅうごにちのぞくへんだがじけいれつてきなつながりわない。	NO_LABEL
数多くの不思議な生き物や動物が登場している。	すーおーくのふしぎないきものやどーぶつがとーじょーしている。	NO_LABEL
