大戸瀬駅は、青森県西津軽郡深浦町大字田野沢字汐千浜にある、東日本旅客鉄道五能線の駅である。	おーどせえきわ、あおもりけんにしつがるぐんふかうらまちだいじたのさわじしおせんはまにある、ひがしにほんりょかくてつどーごのーせんのえきである。	NO_LABEL
単式ホーム1面1線を有する地上駅。	NO_PRONOUNCE	NO_LABEL
もとは相対式ホーム2面2線でかつてのホームが草に埋もれて残っている。	NO_PRONOUNCE	NO_LABEL
東北新幹線の新青森駅開業などに合わせて老朽化していた駅舎の建て替えが実施された。	とーほくしんかんせんのしんあおもりえきかいぎょーなどにあわせてろーきゅーかしていたえきしゃのたてかえがじっしされた。	NO_LABEL
木造平屋建て延べ床面積9.9平方メートルで、漁師の番小屋をモチーフとしている。	NO_PRONOUNCE	NO_LABEL
駅舎の壁には、北金ヶ沢にある「日本一のイチョウ」をイメージしてイチョウの葉が描かれている。	NO_PRONOUNCE	NO_LABEL
現在は五所川原駅管理の無人駅だが、2002年までは簡易委託駅であり、旧駅舎には窓口跡が残っていた。	げんざいわごしょがわらえきかんりのむじんえきだが、にせんにねんまでわかんいいたくえきであり、きゅーえきしゃにわまどぐちあとがのこっていた。	NO_LABEL
北金ケ沢駅が直営駅だった頃は同駅が管理駅だった。	きたかねがさわえきがちょくえいえきだったころわどーえきがかんりえきだった。	NO_LABEL
