仙岩道路は、岩手県岩手郡雫石町橋場より秋田県仙北市田沢湖生保内にいたる、国道46号のバイパスである。	せんいわどーろわ、いわてけんいわてぐんしずくいしちょうはしばよりあきたけんせんぼくしたざわこおぼないにいたる、こくどーよんじゅうろくごーのばいぱすである。	NO_LABEL
盛岡市・秋田市の両県庁所在地を結ぶ重要な道路として1964年、仙岩峠を越える自動車道が、岩手・秋田両県の大きな期待を集めて開業した。	NO_PRONOUNCE	NO_LABEL
しかし、この道路は急勾配と急カーブの連続で通行しにくく、また冬季は積雪のため通行止めになってしまうなど、当初期待されていた目的を果たせない状態であった。	しかし、このどーろわきゅーこーばいときゅーかーぶのれんぞくでつーこーしにくく、またとーきわせきせつのためつーこーどめになってしまうなど、とーしょきたいされていたもくてきをはたせないじょーたいであった。	NO_LABEL
そのため、開通間もない1970年には、新たな道路の工事が始まった。	そのため、かいつーかんもないせんきゅうひゃくななじゅうねんにわ、あらたなどーろのこーじがはじまった。	NO_LABEL
こうして、当時最新鋭の技術と莫大な建設費を投入し、険しい山にとりつく桟道のような橋と、仙岩トンネルを始めとする長大トンネルを連ねた道路が1976年11月に開通。	こーして、とーじさいしんえいのぎじゅつとばくだいなけんせつひをとーにゅーし、けわしいやまにとりつくさんどーのよーなはしと、せんいわとんねるをはじめとするちょーだいとんねるをつらねたどーろがせんきゅうひゃくななじゅうろくねんじゅーいちがつにかいつー。	NO_LABEL
両県の県境は通年の通行が可能となり、当初期待されたような秋田・岩手両県を結ぶ大動脈の一部として機能するようになった。	NO_PRONOUNCE	NO_LABEL
