『解散式』は1967年4月1日に公開された日本の映画である。	NO_PRONOUNCE	NO_LABEL
監督は深作欣二。	かんとくわふかさくきんじ。	NO_LABEL
主演は鶴田浩二。	しゅえんわつるたこーじ。	NO_LABEL
製作は東映。	せいさくわとーえい。	NO_LABEL
暴力団追放の機運の中で表向き解散した暴力団が、実際には正業の傍ら社会の暗部に食い込んでいく有様を、刑期を終えて出所した幹部が新たな争いに巻き込まれていく悲劇を通して描いている。	ぼーりょくだんついほーのきうんのなかでおもてむきかいさんしたぼーりょくだんが、じっさいにわせいぎょーのかたわらしゃかいのあんぶにくいこんでいくありさまを、けいきをおえてしゅっしょしたかんぶがあらたなあらそいにまきこまれていくひげきをとーしてえがいている。	NO_LABEL
公開当時のキャッチコピーは、『俺もどろ犬 てめえもどろ犬 畜生同志の一騎討ち!』。	NO_PRONOUNCE	NO_LABEL
『続 浪曲子守唄』	NO_PRONOUNCE	NO_LABEL
