吉川 良和は、日本の中国音楽史・演劇史学者。	NO_PRONOUNCE	NO_LABEL
元一橋大学社会学部教授。	もとひとつばしだいがくしゃかいがくぶきょーじゅ。	NO_LABEL
専門は中国音楽史、演劇史。	せんもんわちゅーごくおんがくし、えんげきし。	NO_LABEL
1968年、埼玉大学文理学部人文科卒業。	せんきゅうひゃくろくじゅうはちねん、さいたまだいがくぶんりがくぶじんぶんかそつぎょー。	NO_LABEL
1980年、東京都立大学大学院人文科学研究科博士後期課程単位取得退学。	せんきゅうひゃくはちじゅうねん、とーきょーとりつだいがくだいがくいんじんぶんかがくけんきゅーかはかせこーきかていたんいしゅとくたいがく。	NO_LABEL
1987年に神奈川大学専任講師、1989年に同大学助教授、1996年に同大学教授を経て、1998年より一橋大学社会学部教授。	せんきゅうひゃくはちじゅうななねにかながわだいがくせんにんこーし、せんきゅうひゃくはちじゅうきゅうねんにどーだいがくじょきょーじゅ、せんきゅうひゃくきゅうじゅうろくねんにどーだいがくきょーじゅをへて、せんきゅうひゃくきゅうじゅうはちねんよりひとつばしだいがくしゃかいがくぶきょーじゅ。	NO_LABEL
