ドクターディーノは、フランスで生産された元競走馬である。	どくたーでぃーのわ、ふらんすでせいさんされたもときょーそーばである。	NO_LABEL
競走馬時代には、2007年のマンノウォーステークスや香港ヴァーズを制すなど各国の競走で走った経歴を持つ。	NO_PRONOUNCE	NO_LABEL
主戦騎手はオリビエ・ペリエが務め、14戦で7勝した。	しゅせんきしゅわおりびえぺりえがつとめ、じゅうよんせんでななしょーした。	NO_LABEL
2歳時の2004年に競走馬デビュー以降は自国のフランスで走り、重賞競走などで好走していたが重賞競走の勝ち鞍は5歳時の2006年に制したプロヴァンス大賞のみだった。	にさいじのにせんよねんにきょーそーばでびゅーいこーわじこくのふらんすではしり、じゅーしょーきょーそーなどでこーはししていたがじゅーしょーきょーそーのかちくらわごさいじのにせんろくねんにせいしたぷろばんすたいしょーのみだった。	NO_LABEL
6歳となった2007年は、この年初戦のガネー賞で3着となり、以降は海外遠征を繰り返し、遠征初戦の5月にシンガポール航空国際カップに出走し、勝ったシャドウゲイト、2着のコスモバルクに続く3着に入った。	ろっさいとなったにせんななねんわ、このねんしょせんのがねーしょーでさんちゃくとなり、いこーわかいがいえんせいをくりかえし、えんせいしょせんのごがつにしんがぽーるこーくーこくさいかっぷにしゅっそーし、かったしゃどうげいと、にちゃくのこすもばるくにつずくさんちゃくにはいった。	NO_LABEL
その後はアメリカ合衆国に渡り、8月のアーリントンミリオンで3着となり、9月にはオリビエ・ペリエ騎乗でマンノウォーステークスを制しG1競走初勝利を挙げた。	そのごわあめりかがっしゅーこくにわたり、はちがつのあーりんとんみりおんでさんちゃくとなり、くがつにわおりびえぺりえきじょーでまんのうぉーすてーくすをせいしぐれーどわんきょーそーはつしょーりをあげた。	NO_LABEL
以降ペリエが主戦騎手として騎乗し、イギリスのチャンピオンステークスで3着、12月には香港に渡って第14回香港ヴァーズを制してG1競走2勝目を挙げた。	NO_PRONOUNCE	NO_LABEL
7歳となった2008年は、ドバイに遠征してドバイシーマクラシックで3着となった後は自国で走り、6月にシャンティ大賞を制して重賞競走4勝目を挙げた。	ななさいとなったにせんはちねんわ、どばいにえんせいしてどばいしーまくらしっくでさんちゃくとなったのちわじこくではしり、ろくがつにしゃんてぃたいしょーをせいしてじゅーしょーきょーそーよんしょーめをあげた。	NO_LABEL
その後サンクルー大賞で3着、ドーヴィル大賞で2着となった後は再び海外遠征を行い、カナダに渡って10月にカナディアン国際ステークスにランフランコ・デットーリが初騎乗して出走したが5着、12月には2年連続で香港ヴァーズに出走し、鞍上がペリエに戻って同競走2連覇を達成した。	NO_PRONOUNCE	NO_LABEL
8歳となった2009年は、前年と同じくドバイに遠征してドバイシーマクラシックに出走したが8着だった。	はっさいとなったにせんきゅうねんわ、ぜんねんとどうじくどばいにえんせいしてどばいしーまくらしっくにしゅっそーしたがはちちゃくだった。	NO_LABEL
レース後、腱の損傷により競走馬を引退することとなり、予備登録を行い選出馬となっていた天皇賞への出走は辞退した。	れーすご、けんのそんしょーによりきょーそーばをいんたいすることとなり、よびとーろくをおこないせんしゅつばとなっていたてんのーしょーえのしゅっそーわじたいした。	NO_LABEL
その後、フランスHaras du Mesnil牧場にて種牡馬入りすることになった。	NO_PRONOUNCE	NO_LABEL
