株式会社アートゥーンは、かつて存在した日本のゲームソフト開発会社。	かぶしきがいしゃあーとぅーんわ、かつてそんざいしたにっぽんのげーむそふとかいはつかいしゃ。	NO_LABEL
2011年8月、AQインタラクティブに完全吸収された。	にせんじゅういちねんはちがつ、えーきゅういんたらくてぃぶにかんぜんきゅーしゅーされた。	NO_LABEL
1999年8月、セガ出身の石井洋児、大島直人らによって設立。	せんきゅうひゃくきゅうじゅうきゅうねんはちがつ、せがしゅっしんのいしいよーじ、おーしまなおとらによってせつりつ。	NO_LABEL
2004年5月にAQインタラクティブの子会社となり、2005年6月に完全子会社化。	にせんよねんごがつにえーきゅういんたらくてぃぶのこがいしゃとなり、にせんごねんろくがつにかんぜんこがいしゃか。	NO_LABEL
2011年4月の取締役会において、AQインタラクティブへの完全吸収が決議された。	にせんじゅういちねんしがつのとりしまりやくかいにおいて、えーきゅーいんたらくてぃぶえのかんぜんきゅーしゅーがけつぎされた。	NO_LABEL
石井は2010年6月にAQインタラクティブの役員を退任し、大島と共に『アーゼスト』を設立した。	NO_PRONOUNCE	NO_LABEL
アーゼストの所在地はアートゥーンの旧所在地にあたる。	あーぜすとのしょざいちわあーとぅーんのきゅーしょざいちにあたる。	NO_LABEL
