数学の位相空間論周辺分野において、考えたい種類の位相空間を割り出すための様々な制約条件が知られている。	すーがくのいそーくーかんろんしゅーへんぶんやにおいて、かんがえたいしゅるいのいそーくーかんをわりだすためのさまざまなせいやくじょーけんがしられている。	NO_LABEL
そういった制約のうちのいくつかが分離公理と呼ばれる条件によって与えられる。	そういったせいやくのうちのいくつかがぶんりこーりとよばれるじょーけんによってあたえられる。	NO_LABEL
に因んで、チホノフの分離公理とも呼ばれる。	にちなんで、ちほのふのぶんりこーりともよばれる。	NO_LABEL
分離公理が「公理」であるのは、位相空間に関する概念を定義するときに、これらの条件を余分な公理として追加して、位相空間がどのようなものかによってより制限された概念を得るという意味においてのみである。	NO_PRONOUNCE	NO_LABEL
現代的なアプローチでは、きっぱりと位相空間を公理化してしまってから位相空間の「種類」について述べるという形になっているが、「分離公理」の語が定着している。	NO_PRONOUNCE	NO_LABEL
いくつかの分離公理に "T" が付くのは「分離公理」を意味するドイツ語の "Trennungsaxiom" に由来する。	NO_PRONOUNCE	NO_LABEL
分離公理に関する用語の正確な意味は時とともに変化してきた。	ぶんりこーりにかんするよーごのせいかくないみわときとともにへんかしてきた。	NO_LABEL
特に、古い文献を参照する際には、そこで述べられているそれぞれの条件の定義が、自分がそうだと思っている語の意味と一致しているかどうか確認しておくべきである。	とくに、ふるいぶんけんをさんしょーするさいにわ、そこでのべられているそれぞれのじょーけんのていぎが、じぶんがそーだとおもっているかたりのいみといっちしているかどーかかくにんしておくべきである。	NO_LABEL
分離公理自体の定義をする前に、位相空間における分離集合の概念の具体的な意味を与える。	ぶんりこーりじたいのていぎをするまえに、いそーくーかんにおけるぶんりしゅーごーのがいねんのぐたいてきないみをあたえる。	NO_LABEL
分離公理は交わりを持たない集合や点を位相的な意味で区別する仕方を述べたものである。	ぶんりこーりわまじわりをもたないしゅーごーやてんをいそーてきないみでくべつするしかたをのべたものである。	NO_LABEL
位相空間の元に対して、それらが相異なるというだけでは不十分で、それらがさらに「位相的に識別可能」であってほしいし、同様に位相空間の部分集合が交わりを持たないというだけでは不十分で、それらがさらに「分離される」ことが望ましい。	NO_PRONOUNCE	NO_LABEL
種々の分離公理があれやこれやと述べるのは、それらの点や集合がある弱い意味で識別されたり分離されたりすれば、あるより強い意味でも識別されたり分離されたりするということである。	しゅじゅのぶんりこーりがあれやこれやとのべるのわ、それらのてんやしゅーごーがあるよわいいみでしきべつされたりぶんりされたりすれば、あるよりつよいいみでもしきべつされたりぶんりされたりするとゆうことである。	NO_LABEL
"X" を位相空間とし、"X" の二点 "x", "y" が位相的に識別可能とは、二点が全く同じ近傍系を持たないことである。	NO_PRONOUNCE	NO_LABEL
これはつまり、二点のうち少なくとも一方が、他方の近傍とならないような近傍を持つことを言うものである。	これわつまり、にてんのうちすくなくともいっぽーが、たほーのきんぼーとならないよーなきんぼーをもつことをいうものである。	NO_LABEL
"x" と "y" とが位相的に識別可能な点ならば一元集合 {"x"} と {"y"} とは必ず交わりを持たない。	NO_PRONOUNCE	NO_LABEL
二点 "x", "y" が分離されるとは、二点の各々一方が他方の近傍とならない近傍を持つことを言う。	NO_PRONOUNCE	NO_LABEL
これはつまり、二点の何れの一方も他方の閉包に属さないということである。	これわつまり、にてんのいずれのいっぽーもたほーのへいほーにぞくさないとゆうことである。	NO_LABEL
より一般に、"X" の二つの部分集合 "A" と "B" とが分離されるとは、各々一方が他方の閉包と交わらないことを言う。	NO_PRONOUNCE	NO_LABEL
二点 "x", "y" が分離されるための必要十分条件は単元集合 {"x"}, {"y"} が分離されることである。	NO_PRONOUNCE	NO_LABEL
以下、集合同士の間の条件について単元集合を考えることで、点同士あるいは点と集合の間の条件として適用することができる。	いか、しゅーごーどーしのまのじょーけんについてたんげんしゅーごーをかんがえることで、てんどーしあるいわてんとしゅーごーのまのじょーけんとしててきよーすることができる。	NO_LABEL
引き続き、部分集合 "A" と "B" とが、近傍で分離されるとはそれらが交わらない近傍を持つことを言い、閉近傍で分離されるとはそれらが交わりを持たない閉近傍を持つことを言う。	NO_PRONOUNCE	NO_LABEL
またそれらが函数で分離されるとは、 "X" から実数直線 R への連続函数 "f" が存在して、像 "f"が {0} に等しく、かつ "f"が {1} に等しくできることを言う。	NO_PRONOUNCE	NO_LABEL
最後に、それらが函数でちょうど分離されるとは、"X" から R への連続函数 "f" で原像 "f"が "A" に等しく、かつ "f"が "B" に等しいようなものが存在することを言う。	NO_PRONOUNCE	NO_LABEL
これらの条件は挙げた順に従ってより強い制約になっている。	これらのじょーけんわあげたじゅんにしたがってよりつよいせいやくになっている。	NO_LABEL
例えば、任意の位相的に識別可能な二点は相異なるし、任意の分離された点は位相的に識別可能である。	たとえば、にんいのいそーてきにしきべつかのーなにてんわあいことなるし、にんいのぶんりされたてんわいそーてきにしきべつかのーである。	NO_LABEL
そして、任意の分離された集合は必ず交わらないし、二つの集合が近傍で分離されるならば分離される。	そして、にんいのぶんりされたしゅーごーわかならずまじわらないし、ふたつのしゅーごーがきんぼーでぶんりされるならばぶんりされる。	NO_LABEL
他も同様である。	たもどーよーである。	NO_LABEL
これらの条件のより詳しくはおよびを見よ。	これらのじょーけんのよりくわしくわおよびをみよ。	NO_LABEL
ここでの定義は本質的に前節の用語を用いる。	ここでのていぎわほんしつてきにぜんせつのよーごをもちいる。	NO_LABEL
以下で用いる用語は文献によっては別の意味になっているものが多くある。	いかでもちいるよーごわぶんけんによってわべつのいみになっているものがおーくある。	NO_LABEL
例えば「正規」と「T」の意味が入れ替わっていたり、同様に「正則」と「T」が逆だったり。	NO_PRONOUNCE	NO_LABEL
また一つの概念に複数の名称がついている場合もある。	またひとつのがいねんにふくすーのめいしょーがついているばあいもある。	NO_LABEL
しかし最初に出てきたものが最も曖昧性が小さい。	しかしさいしょにでてきたものがもっともあいまいせいがちーさい。	NO_LABEL
分離公理のほとんどは意味は同じだが見かけの違う定義の仕方をすることがある。	ぶんりこーりのほとんどわいみわおなじだがみかけのちがうていぎのしかたをすることがある。	NO_LABEL
ここで挙げる定義は前節で定義した種々の分離の概念を用いてある程度パターンに一貫性を持たせてある。	ここであげるていぎわぜんせつでていぎしたしゅじゅのぶんりのがいねんをもちいてあるていどぱたーんにいっかんせいをもたせてある。	NO_LABEL
他にどのような定義の仕方が可能かは個々の項目に譲る。	たにどのよーなていぎのしかたがかのーかわここのこーもくにゆずる。	NO_LABEL
以下 "X" はやはり位相空間とし、函数は連続であるものと仮定する。	NO_PRONOUNCE	NO_LABEL
T-公理はある性質に加えることができるのみならず、ある性質から引くことが公明正大な意味を以てできるという意味で特別である。	NO_PRONOUNCE	NO_LABEL
分離公理を与えるとき、このことは以下の表のような関係性があることを意味する。	ぶんりこーりをあたえるとき、このことわいかのひょーのよーなかんけいせいがあることをいみする。	NO_LABEL
この表で、右側の列から左側へいくには T を要請すればよいし、左側の列から右側へ移るにはコルモゴロフ商をとって T の要請を除けばよい。	NO_PRONOUNCE	NO_LABEL
T を含むか含まないかという以外にも、分離公理間の関係性が以下の図式で与えられる。	NO_PRONOUNCE	NO_LABEL
この図式では、条件の非-T 版を斜線の左、T 版を斜線の右に書いている。	NO_PRONOUNCE	NO_LABEL
文字はそれぞれの用語の省略形で、"P" = 「完全」、"C" = 「完全/全部分」、"N" = 「正規」、"R" = 「正則」である。	NO_PRONOUNCE	NO_LABEL
黒丸はその場所にあたる空間に特に名前がないことを意味し、一番下の横棒線は何も条件を課さないことを意味する。	くろまるわそのばしょにあたるくーかんにとくになまえがないことをいみし、いちばんかのよこぼーせんわなにもじょーけんをかさないことをいみする。	NO_LABEL
二つの性質を合わせるには、図式のそれぞれの枝が交わるところまで上へ追っていけばよい。	ふたつのせいしつをあわせるにわ、ずしきのそれぞれのえだがまじわるところまでうええおっていけばよい。	NO_LABEL
例えば、全部分正規かつ完全ハウスドルフな空間を考えるなら、それぞれの枝を登って "•/T" の結点へたどり着くはずである。	NO_PRONOUNCE	NO_LABEL
完全ハウスドルフ空間は T だから、斜線の T 側を見ることになるので、結局全部分正規な完全ハウスドルフ空間は T-空間と同じ意味になる。	NO_PRONOUNCE	NO_LABEL
上の図式を見ると、正規であるという条件と R であるという条件は合わせてほかの性質の素になっていることがわかる。	NO_PRONOUNCE	NO_LABEL
実際、この二つを組み合わせると右側の枝の多くの結点を通り抜けることができる。	じっさい、このふたつをくみあわせるとみぎがわのえだのおーくのゆいてんをとーりぬけることができる。	NO_LABEL
それらの欠点の中で正則性が最も顕著な性質であるので、正規かつ R な空間は「正規正則空間」と呼ばれるのが典型的である。	NO_PRONOUNCE	NO_LABEL
これとある意味同様な理由で、正規かつ T な空間は、曖昧な "T" 記法を避ける流儀の人からは、しばしば「正規ハウスドルフ空間」と呼ばれる。	NO_PRONOUNCE	NO_LABEL
こういった規約は、ほかの正則空間やハウスドルフ空間にも一般化することができる。	こーいったきやくわ、ほかのせいそくくーかんやはうすどるふくーかんにもいっぱんかすることができる。	NO_LABEL
位相空間に関するある種の条件の中には、分離公理の一種に数えられることもあるが、完全に通常の分離公理とみなされるわけではないようなものがある。	いそーくーかんにかんするあるたねのじょーけんのなかにわ、ぶんりこーりのいっしゅにかぞえられることもあるが、かんぜんにつーじょーのぶんりこーりとみなされるわけでわないよーなものがある。	NO_LABEL
ここでは定義のみ挙げるので、詳細は個々の項目を参照されたい。	ここでわていぎのみあげるので、しょーさいわここのこーもくをさんしょーされたい。	NO_LABEL
