マルウェアとは、不正かつ有害に動作させる意図で作成された悪意のあるソフトウェアや悪質なコードの総称で、コンピュータウイルスやワームなどがある。	まるうぇあとわ、ふせいかつゆーがいにどーささせるいとでさくせいされたあくいのあるそふとうぇあやあくしつなこーどのそーしょーで、こんぴゅーたういるすやわーむなどがある。	NO_LABEL
悪意のコード、悪意のソフトウェア、悪意のある不正ソフトウェア、有害なソフトウェア、不正プログラムとも呼ばれる。	あくいのこーど、あくいのそふとうぇあ、あくいのあるふせいそふとーぇあ、ゆーがいなそふとうぇあ、ふせいぷろぐらむともよばれる。	NO_LABEL
マルウェアの行う活動としてはデータの破壊やデータの盗難などがあるが、こうした「悪意のある」行動をするソフトのみならず、ユーザの望まない広告を勝手に出すアドウェアのような「迷惑ソフト」もマルウェアの範疇に含める場合がある。	NO_PRONOUNCE	NO_LABEL
マルウェアは、「悪意のある」という意味の英語「malicious」と「software」を組み合わせて創られたかばん語である。	NO_PRONOUNCE	NO_LABEL
類義語としてクライムウェアがあり、これはマルウェアの中で特に犯罪に使われるものを指すとするものもあるが、必ずしもこれを要件としないものもあり、マルウェアとの関係は判然としない。	るいぎごとしてくらいむうぇあがあり、これわまるうぇあのなかでとくにはんざいにつかわれるものをさすとするものもあるが、かならずしもこれをよーけんとしないものもあり、まるうぇあとのかんけいわはんぜんとしない。	NO_LABEL
マルウェアの種類の代表例として以下のものがあげられる。	まるうぇあのしゅるいのだいひょーれいとしていかのものがあげられる。	NO_LABEL
なお、以下の種類は排他的ではなく、複数の種類の定義を満たすマルウェアも存在しうる。	なお、いかのしゅるいわはいたてきでわなく、ふくすーのしゅるいのていぎをみたすまるうぇあもそんざいしうる。	NO_LABEL
狭義のコンピュータウイルスあるいは単に狭義のウイルスとは他のプログラムやファイルの一部を書き換え、自己複製する機能を持つマルウェアのことである。	きょーぎのこんぴゅーたういるすあるいわたんにきょーぎのういるすとわたのぷろぐらむやふぁいるのいちぶをかきかえ、じこふくせいするきのーをもつまるうぇあのことである。	NO_LABEL
感染対象のプログラムの事をウイルスの宿主もしくはホストプログラムという。	かんせんたいしょーのぷろぐらむのことをういるすのしゅくしゅもしくわほすとぷろぐらむという。	NO_LABEL
狭義のウイルスは感染経路を秘匿するなどの目的で、プログラムなどに感染したあと一時的に潜伏し、その後しばらく経ってから活動を開始するものも多い。	きょーぎのういるすわかんせんけいろをひとくするなどのもくてきで、ぷろぐらむなどにかんせんしたあといちじてきにせんぷくし、そのごしばらくたってからかつどーをかいしするものもおーい。	NO_LABEL
広義のウイルスは文脈によって定義が様々であるが、 「コンピュータウイルス対策基準」では、自己伝染機能、潜伏機能、発病機能のいずれかをもつ加害プログラムの事をウイルスの定義として採用している。	NO_PRONOUNCE	NO_LABEL
後述するワームやトロイの木馬は狭義のウイルスではないが、この意味での広義のウイルスには属する。	こーじゅつするわーむやとろいのもくばわきょーぎのういるすでわないが、このいみでのこーぎのういるすにわぞくする。	NO_LABEL
最広義では「ウイルス」という語はマルウェアと同義であり、マスメディアなどではこの最広義の意味に用いられるが、これは誤用であるとされることもある。	NO_PRONOUNCE	NO_LABEL
ワームはウイルス同様自己増殖するが、ホストプログラムを持たず、単体で存在するプログラムの事を指す。	わーむわういるすどーよーじこぞーしょくするが、ほすとぷろぐらむをもたず、たんたいでそんざいするぷろぐらむのことをさす。	NO_LABEL
バックドアとは外部からコンピューターを操るために作られたコンピューターへの不正な侵入経路の事でRATとも呼ばれる。	ばっくどあとわがいぶからこんぴゅーたーをあやつるためにつくられたこんぴゅーたーえのふせいなしんにゅーけいろのことでらっとともよばれる。	NO_LABEL
バックドアをしかけるマルウェアをバックドア型と呼ぶ。	ばっくどあをしかけるまるうぇあをばっくどあがたとよぶ。	NO_LABEL
トロイの木馬は一見無害なファイルやプログラムに偽装した上でコンピューターに侵入したあと悪意のある振る舞いをするものを指すことが多いが、偽装を行わずにOS等の脆弱性を悪用して勝手にインストールされてしまうものもトロイの木馬に含める場合がある。	とろいのもくばわいっけんむがいなふぁいるやぷろぐらむにぎそーしたうえでこんぴゅーたーにしんにゅーしたあとあくいのあるふるまいをするものをさすことがおーいが、ぎそーをおこなわずにおーえすとーのぜいじゃくせいをあくよーしてかってにいんすとーるされてしまうものもとろいのもくばにふくめるばあいがある。	NO_LABEL
狭義のウイルスと違い自己増殖機能は持たない。	きょーぎのういるすとちがいじこぞーしょくきのーわもたない。	NO_LABEL
またトロイの木馬の定義として単体で存在し宿主を必要としないことを要件に加えるものもあるが、これを要件としない場合もある。	またとろいのもくばのていぎとしてたんたいでそんざいししゅくしゅをひつよーとしないことをよーけんにくわえるものもあるが、これをよーけんとしないばあいもある。	NO_LABEL
トロイの木馬の定義として、コンピューター内部に侵入したあと攻撃者による外部からの命令で悪意のある振る舞いをする事やバックドア型である事を要件にする場合もある。	とろいのもくばのていぎとして、こんぴゅーたーないぶにしんにゅーしたあとこーげきしゃによるがいぶからのめいれいであくいのあるふるまいをすることやばっくどあがたであることをよーけんにするばあいもある。	NO_LABEL
スパイウェアは情報収集を主な目的とし、コンピューターの内部情報を外部に勝手に送信するソフトウェアで、ユーザーが気づかないうちにパソコンにインストールしているパターンが多い。	すぱいうぇあわじょほうしゅうしゅーをおもなもくてきとし、こんぴゅーたーのないぶじょうほーをがいぶにかってにそーしんするそふとうぇあで、ゆーざーがきずかないうちにぱそこんにいんすとーるしているぱたーんがおーい。	NO_LABEL
IPAとJNSAの定義によればスパイウェアとは「利用者や管理者の意図に反してインストールされ、利用者の個人情報やアクセス履歴などの情報を収集するプログラム等」のことである。	NO_PRONOUNCE	NO_LABEL
スパイウェアはマルウェアの一種とみなすことが多いが、シマンテックはスパイウェアをマルウェアに含めていない。	すぱいうぇあわまるうぇあのいっしゅとみなすことがおーいが、しまんてっくわすぱいうぇあをまるうぇあにふくめていない。	NO_LABEL
キーロガーもしくはキーストロークロガーはキーボードからの入力を記録するプログラムのことで、キーロガーというものそれ自体はマルウェアではなく、コンピューターの所有者自身がデバッグのためにしかけるなどの使い方もあるが、パスワードや個人情報などを奪取するため悪意を持ってしかけられるなどマルウェアとして用いられることもある。	きーろがーもしくわきーすとろーくろがーわきーぼーどからのにゅーりょくをきろくするぷろぐらむのことで、きーろがーとゆうものそれじたいわまるうぇあでわなく、こんぴゅーたーのしょゆーしゃじしんがでばっぐのためにしかけるなどのつかいかたもあるが、ぱすわーどやこじんじょうほーなどをだっしゅするためあくいをもってしかけられるなどまるうぇあとしてもちいられることもある。	NO_LABEL
同様にネットワークを通るパケットを監視するスニッファも盗聴目的で使われる場合がある。	どーよーにねっとわーくをとーるぱけっとをかんしするすにっふぁもとーちょーもくてきでつかわれるばあいがある。	NO_LABEL
ボットも、その言葉自体は常駐してチャットで会話するなどといった機能を持つ任意のプログラムを指すもので、必ずしもマルウェアを指すものではない。	ぼっとも、そのことばじたいわじょーちゅーしてちゃっとでかいわするなどといったきのーをもつにんいのぷろぐらむをさすもので、かならずしもまるうぇあをさすものでわない。	NO_LABEL
マルウェアとしては、ボットネットと呼ばれる仕組みにより、IRCなどを利用して攻撃者から命令を受け取り、命令に応じてDDoS攻撃やスパムメール送信などを行うマルウェアを指す。	まるうぇあとしてわ、ぼっとねっととよばれるしくみにより、あいあーるしーなどをりよーしてこーげきしゃからめいれいをうけとり、めいれいにおーじてでぃーどすこーげきやすぱむめーるそーしんなどをおこなうまるうぇあをさす。	NO_LABEL
ボットに感染したコンピューターによって構成されたネットワークをボットネットもしくはゾンビクラスタという。	ぼっとにかんせんしたこんぴゅーたーによってこーせいされたねっとわーくをぼっとねっともしくわぞんびくらすたという。	NO_LABEL
それに対しボットネットに指令を出すサーバをC&Cサーバ（Command and Control server)という。	NO_PRONOUNCE	NO_LABEL
またボットなどの感染により攻撃者による遠隔操作が可能なコンピューターをゾンビマシンという。	またぼっとなどのかんせんによりこーげきしゃによるえんかくそーさがかのーなこんぴゅーたーをぞんびましんという。	NO_LABEL
ルートキットは攻撃者が被害者のコンピューターに侵入したあとに用いるツールを集めたパッケージで、マルウェアとして被害者のコンピューターにしかける。	るーときっとわこーげきしゃがひがいしゃのこんぴゅーたーにしんにゅーしたあとにもちいるつーるをあつめたぱっけーじで、まるうぇあとしてひがいしゃのこんぴゅーたーにしかける。	NO_LABEL
侵入の発覚を防ぐログ改ざんツール、バックドアをしかけるツール、キーロガー、パスワードやクレジットカード情報等の窃盗ツール、DDoS攻撃用のボット化ツール、セキュリティソフトの無効化ツールなどが含まれていることがある。	しんにゅーのはっかくをふせぐろぐかいざんつーる、ばっくどあをしかけるつーる、きーろがー、ぱすわーどやくれじっとかーどじょーほーとーのせっとーつーる、でぃーどすこーげきよーのぼっとかつーる、せきゅりてぃそふとのむこーかつーるなどがふくまれていることがある。	NO_LABEL
こうした攻撃を容易にするため、システムバイナリを含めたファイルを数百個単位で改ざんする。	こーしたこーげきをよーいにするため、しすてむばいなりをふくめたふぁいるをすーひゃくこたんいでかいざんする。	NO_LABEL
ルート権限を奪うなど管理者レベルのアクセス権を取得する事を定義とする場合もある。	るーとけんげんをうばうなどかんりしゃれべるのあくせすけんをしゅとくすることをていぎとするばあいもある。	NO_LABEL
ランサムウェアは、コンピューターをロックしたり重要なファイルを暗号化して読めなくするなどして被害者を困らせ，身代金を払えば元に戻すと脅迫するマルウェア。	NO_PRONOUNCE	NO_LABEL
スケアウェアとはユーザの恐怖心を煽る偽の警告メッセージを表示し、問題を解決するには所定の金額を支払うようにと脅すマルウェア。	すけあうぇあとわゆーざのきょーふしんをあおるにせのけいこくめっせーじをひょーじし、もんだいをかいけつするにわしょていのきんがくをしはらうよーにとおどすまるうぇあ。	NO_LABEL
ダウンローダーはサイズの小さなマルウェアで、攻撃者のサーバから被害者のコンピューターに実行ファイルなどをダウンロードするなどさらなる攻撃の足がかりにする。	だうんろーだーわさいずのちーさなまるうぇあで、こーげきしゃのさーばからひがいしゃのこんぴゅーたーにじっこーふぁいるなどをだうんろーどするなどさらなるこーげきのあしがかりにする。	NO_LABEL
アドウェアはユーザの望まない広告を勝手に出すソフトウェアである。	あどうぇあわゆーざののぞまないこーこくをかってにだすそふとうぇあである。	NO_LABEL
アドウェアないしその中の悪質なものもマルウェアの範疇に含める場合がある)。	NO_PRONOUNCE	NO_LABEL
不正行為を実行するために、攻撃者はマルウェアを作成するが、その不正な試みが検出されてしまっては、その目的を達成することはできない。	ふせいこーいをじっこーするために、こーげきしゃわまるうぇあをさくせいするが、そのふせいなこころみがけんしゅつされてしまってわ、そのもくてきをたっせいすることわできない。	NO_LABEL
セキュリティベンダーがセキュリティ技術を進化させると、それに合わせて攻撃者も技術を進化させる。	せきゅりてぃべんだーがせきゅりてぃぎじゅつをしんかさせると、それにあわせてこーげきしゃもぎじゅつをしんかさせる。	NO_LABEL
セキュリティベンダーと攻撃者の間では、いたちごっこが繰り返されている。	せきゅりてぃべんだーとこーげきしゃのまでわ、いたちごっこがくりかえされている。	NO_LABEL
回避技術は、検出、分析、把握を回避するためにマルウェアが使用する手段の総称である。	かいひぎじゅつわ、けんしゅつ、ぶんせき、はあくをかいひするためにまるうぇあがしよーするしゅだんのそーしょーである。	NO_LABEL
セキュリティ技術に対する回避技術は次の3つに分類できる。	せきゅりてぃぎじゅつにたいするかいひぎじゅつわつぎのみっつにぶんるいできる。	NO_LABEL
高度なマルウェアの中には、このような技術を組み合わせて利用しているものもある。	こーどなまるうぇあのなかにわ、このよーなぎじゅつをくみあわせてりよーしているものもある。	NO_LABEL
たとえば、RunPEなどの技術を使用して、マルウェア対策ソフトウェアやサンドボックス、分析を回避している。	NO_PRONOUNCE	NO_LABEL
また、仮想環境に関連する特定のレジストリキーを検出し、サンドボックスでの自動分析や仮想マシン上での動的分析を回避するマルウェアもある。	また、かそーかんきょーにかんれんするとくていのれじすとりきーをけんしゅつし、さんどぼっくすでのじどーぶんせきやかそーましんじょーでのどーてきぶんせきをかいひするまるうぇあもある。	NO_LABEL
ウイルスをはじめとしたマルウェアはセキュリティーソフトに発見されないよう、下記のようなツールや手法を用いていることがほとんどである。	ういるすをはじめとしたまるうぇあわせきゅりてぃーそふとにはっけんされないよー、かきのよーなつーるやしゅほーをもちいていることがほとんどである。	NO_LABEL
また、サイバーセキュリティの回避技術で、よく使われる用語がある。	また、さいばーせきゅりてぃのかいひぎじゅつで、よくつかわれるよーごがある。	NO_LABEL
ここで、攻撃者が使用するツール、手法や用語をいくつか紹介する。	ここで、こーげきしゃがしよーするつーる、しゅほーやよーごをいくつかしょーかいする。	NO_LABEL
Crypter: マルウェアの実行時に、マルウェア対策エンジンや静的分析による検出を回避するため、マルウェアの暗号化と復号を行う。	NO_PRONOUNCE	NO_LABEL
クリプターは、攻撃対象に合わせて作成されることが多く、闇市場で購入することもできる。	くりぷたーわ、こーげきたいしょーにあわせてさくせいされることがおーく、やみいちばでこーにゅーすることもできる。	NO_LABEL
クリプターをカスタマイズすることで、復号や逆コンパイルがさらに困難になる。	くりぷたーをかすたまいずすることで、ふくごーやぎゃくこんぱいるがさらにこんなんになる。	NO_LABEL
既知の高度なクリプターとしては、Aegisクリプター、Armadillo、RDG Tejonなどがある。	NO_PRONOUNCE	NO_LABEL
Packer: クリプターと似ているが、マルウェアファイルの暗号化ではなく圧縮を行う。	NO_PRONOUNCE	NO_LABEL
UPXが代表的なパッカーである。	NO_PRONOUNCE	NO_LABEL
Binder: 複数のマルウェアファイルを1つに結合する。	NO_PRONOUNCE	NO_LABEL
マルウェアの実行ファイルの拡張子を変更せず、JPGファイルに結合できる。	NO_PRONOUNCE	NO_LABEL
マルウェア作成者は、正規のEXEファイルにマルウェアファイルを結合しようとする。	NO_PRONOUNCE	NO_LABEL
Pumper: ファイル サイズを増やす。	NO_PRONOUNCE	NO_LABEL
これにり、マルウェア対策エンジンによる検出を回避できる場合がある。	これにり、まるうぇあたいさくえんじんによるけんしゅつをかいひできるばあいがある。	NO_LABEL
FUD: マルウェアの販売者がツールの説明やアピールに使用するもので、あらゆるマルウェア対策ソフトで完全に検出不可であることを表す。	NO_PRONOUNCE	NO_LABEL
有効なFUDプログラムは、スキャンタイムとランタイムの両方を組み合わせ、100%検出不可を実現する。	ゆーこーなえふゆーでぃーぷろぐらむわ、すきゃんたいむとらんたいむのりょーほーをくみあわせ、ひゃくぱーせんとけんしゅつふかをじつげんする。	NO_LABEL
既知のFUDとして、次の2種類が知られている。	きちのえふゆーでぃーとして、つぎのにしゅるいがしられている。	NO_LABEL
Unique stub generator: 実行中の各インスタンスに固有のスタブを作成し、検出と分析を困難にする。	NO_PRONOUNCE	NO_LABEL
に使用するルーチンが含まれる。	にしよーするるーちんがふくまれる。	NO_LABEL
）	NO_PRONOUNCE	NO_LABEL
ファイルレス マルウェア: ディスクにファイルを書き込むことはせず、自身をメモリーに挿入することでシステムに感染する。	NO_PRONOUNCE	NO_LABEL
難読化: マルウェアのコードを簡単に人が理解できないようにする。	NO_PRONOUNCE	NO_LABEL
プレーンテキストの文字列をエンコードし、マルウェアファイルに挿入したり、ジャンク関数をファイルに追加する。	ぷれーんてきすとのもじれつをえんこーどし、まるうぇあふぁいるにそーにゅーしたり、じゃんくかんすーをふぁいるについかする。	NO_LABEL
ジャンクコード: 無駄なコードや偽の命令をバイナリに追加し、逆アセンブルを欺いたり、簡単に分析されないようにする。	NO_PRONOUNCE	NO_LABEL
アンチ: 保護ツールや監視ツールの回避、無効化、終了に使用するすべての手法を指す。	NO_PRONOUNCE	NO_LABEL
地下フォーラムや闇市場で使用される。	ちかふぉーらむややみいちばでしよーされる。	NO_LABEL
Virtual machine packer: 仮想マシンの概念を取り入れた高度なパッカーである。	NO_PRONOUNCE	NO_LABEL
マルウェアのEXEファイルが圧縮されると、元のコードが仮想マシンのバイトコードに変換され、プロセッサーの動作をエミュレートする。	NO_PRONOUNCE	NO_LABEL
既知のものではVMProtect、CodeVirtualizerでこの手法が利用されている。	NO_PRONOUNCE	NO_LABEL
最も一般的な回避技術は次のとおりである。	もっともいっぱんてきなかいひぎじゅつわつぎのとーりである。	NO_LABEL
マルウェアは、下記のように、様々な感染経路によって、感染活動を行っている。	まるうぇあわ、かきのよーに、さまざまなかんせんけいろによって、かんせんかつどーをおこなっている。	NO_LABEL
 ネットワーク感染やメール添付感染等の感染手法の他に、ホームページを見ただけで感染する「Web閲覧感染型」も感染手法の一つとして確認されており、その方法も高度化・巧妙化している。	NO_PRONOUNCE	NO_LABEL
下記に感染経路の例を示す。	かきにかんせんけいろのれいをしめす。	NO_LABEL
マルウェアの検出には、マルウェア検出回避技術に対抗するために様々な技術を用いている。	まるうぇあのけんしゅつにわ、まるうぇあけんしゅつかいひぎじゅつにたいこーするためにさまざまなぎじゅつをもちいている。	NO_LABEL
下記に例を示す。	かきにれいをしめす。	NO_LABEL
ただし、いかなる方法・手段・技術を用いても未知のマルウェアを100％検出・発見できるわけではない。	NO_PRONOUNCE	NO_LABEL
また、いかなる方法・手段・技術を用いても未知のマルウェアからパソコンを100％保護してくれるわけではない。	NO_PRONOUNCE	NO_LABEL
