白石駅は、北海道札幌市白石区平和通3丁目北6にある、北海道旅客鉄道の駅。	NO_PRONOUNCE	NO_LABEL
駅番号はH03。	NO_PRONOUNCE	NO_LABEL
電報略号はシイ。	でんぽーりゃくごーわしい。	NO_LABEL
函館本線を所属線としており、千歳線を加えた2路線が乗り入れている。	NO_PRONOUNCE	NO_LABEL
当駅はJR北海道の基本計画上での千歳線の終点であるが、千歳線の列車は全て函館本線に乗り入れて札幌駅へ直通する。	とーえきわじぇいあーるほっかいどーのきほんけいかくじょーでのちとせせんのしゅーてんであるが、ちとせせんのれっしゃわすべてはこだてほんせんにのりいれてさっぽろえきえちょくつーする。	NO_LABEL
当駅から札幌駅までは複々線となっており、函館本線系統・千歳線系統がそれぞれ別々の線路を使用する。	NO_PRONOUNCE	NO_LABEL
札幌市営地下鉄東西線にも同名の白石駅があるが、両駅は約1.6 km離れた別の場所にあり、乗換駅とはなっていない。	NO_PRONOUNCE	NO_LABEL
事故・トラブル等によるJR線運転見合わせ時の振替輸送駅にも指定されていない。	NO_PRONOUNCE	NO_LABEL
同駅へ連絡するバスについては「バス路線」節を参照。	NO_PRONOUNCE	NO_LABEL
方向別の島式ホーム2面4線の他に2線を有する橋上駅。	NO_PRONOUNCE	NO_LABEL
ホームの付番は、南口側から2、3、5、6番線となっている。	NO_PRONOUNCE	NO_LABEL
直営駅でみどりの窓口、自動改札機が置かれている。	ちょくえいえきでみどりのまどぐち、じどーかいさつきがおかれている。	NO_LABEL
待合室にセブン-イレブン、自由通路内にパン屋がある。	まちあいしつにせぶんいれぶん、じゆーつーろないにぱんやがある。	NO_LABEL
駅の東側にはカートレイン発着所があったが、2008年1月に解体された。	えきのひがしがわにわかーとれいんはっちゃくしょがあったが、にせんはちねんいちがつにかいたいされた。	NO_LABEL
その後、パークアンドトレインの駐車場や、橋上駅化工事の控地として利用された。	そのご、ぱーくあんどとれいんのちゅーしゃじょーや、きょうじょうえきかこーじのひかえちとしてりよーされた。	NO_LABEL
2016年度の1日平均乗車人員は8,077人である。	NO_PRONOUNCE	NO_LABEL
利用者の増加が著しく、2013年には大麻・北広島の2駅を抜いて、現在は同社で利用者数が9番目に多い駅である。	NO_PRONOUNCE	NO_LABEL
近年の1日平均乗車人員の推移は以下のとおりである。	きんねんのついたちへいきんじょーしゃじんいんのすいいわいかのとーりである。	NO_LABEL
旧白石村の中心市街地に隣接している歴史的経緯から、商業地域として発展してきた。	きゅーしろいしむらのちゅーしんしがいちにりんせつしているれきしてきけいーから、しょーぎょーちーきとしてはってんしてきた。	NO_LABEL
駅前にはコンビニエンスストアといくつかの商店・飲食店等だけがあるほか、国道12号までの約700 mの間にはスーパーマーケットや薬局が存在している。	NO_PRONOUNCE	NO_LABEL
都市化が進む前は畑地が広がる地帯であったが、住宅街となった。	としかがすすむまえわはたちがひろがるちたいであったが、じゅーたくがいとなった。	NO_LABEL
後述のJR白石駅周辺整備事業の工事中であり、至便となる施設はみられない。	こーじゅつのじぇいあーるしろいしえきしゅーへんせいびじぎょーのこーじちゅーであり、しべんとなるしせつわみられない。	NO_LABEL
道道864号北13条北郷通までは約350 m。	NO_PRONOUNCE	NO_LABEL
札幌市によりJR白石駅周辺の整備事業が進められている。	さっぽろしによりじぇいあーるしろいしえきしゅーへんのせいびじぎょーがすすめられている。	NO_LABEL
事業案の内容は以下のとおりである。	じぎょーあんのないよーわいかのとーりである。	NO_LABEL
2005年度から翌年度は設計および周辺住民への説明・用地補償が中心で、実際の工事は2009年4月から開始した。	NO_PRONOUNCE	NO_LABEL
2011年1月30日に橋上駅舎の供用が開始された後は、旧駅舎の解体やホーム有効長の延伸が進められる予定である。	にせんじゅういちねんいちがつさんじゅうにちにきょうじょうえきしゃのきょーよーがかいしされたのちわ、きゅーえきしゃのかいたいやほーむゆーこーちょーのえんしんがすすめられるよていである。	NO_LABEL
なお、駅舎の供用を記念して硬券の記念入場券や記念オレンジカードが発売された。	なお、えきしゃのきょーよーをきねんしてこうけんのきねんにゅーじょーけんやきねんおれんじかーどがはつばいされた。	NO_LABEL
路線は2016年12月1日現在。	ろせんわにせんじゅうろくねんじゅーにがつついたちげんざい。	NO_LABEL
札幌ドームシャトルバスと2系統はジェイ・アール北海道バス、それ以外は北海道中央バス。	NO_PRONOUNCE	NO_LABEL
かつては南口のみ停留所が設けられていたが、2008年12月17日より駅北口のバスのりばの利用が開始された。	かつてわみなみぐちのみていりゅーじょがもーけられていたが、にせんはちねんじゅーにがつじゅうななにちよりえききたぐちのばすのりばのりよーがかいしされた。	NO_LABEL
