ゲオルク・アンドレアス・ガプラーは、ドイツの哲学者。	げおるくあんどれあすがぷらーわ、どいつのてつがくしゃ。	NO_LABEL
ヘーゲル右派の人物として知られている。	へーげるうはのじんぶつとしてしられている。	NO_LABEL
イェーナ大学で当時教鞭をとっていたゲオルク・ヴィルヘルム・フリードリヒ・ヘーゲルに師事する。	NO_PRONOUNCE	NO_LABEL
詩人フリードリヒ・フォン・シラーの子供の家庭教師、ギムナジウムの校長を経験。	しじんふりーどりひふぉんしらーのこどものかていきょーし、ぎむなじうむのこーちょーをけいけん。	NO_LABEL
この時勤務していたイムホーフ校の生徒に、後にヘーゲル左派のメンバーとなるマックス・シュティルナーがいた。	このとききんむしていたいむほーふこーのせいとに、のちにへーげるさはのめんばーとなるまっくすしゅてぃるなーがいた。	NO_LABEL
ヘーゲルの『精神現象学』の解説書「哲学的予備学教程」を執筆。	NO_PRONOUNCE	NO_LABEL
1835年にヘーゲルの後任として、ベルリン大学教授として迎えられた。	せんはっぴゃくさんじゅうごねんにへーげるのこーにんとして、べるりんだいがくきょーじゅとしてむかえられた。	NO_LABEL
ダーフィト・シュトラウスら左派に対抗して、ヘーゲル哲学とキリスト教との一致を主張。	だーふぃとしゅとらうすらさはにたいこーして、へーげるてつがくときりすときょーとのいっちをしゅちょー。	NO_LABEL
ヘーゲル哲学を擁護し、左派のメンバーを批判した。	へーげるてつがくをよーごし、さはのめんばーをひはんした。	NO_LABEL
