『ルドラの秘宝』は、1996年4月5日にスクウェアから発売されたSFC用RPG。	NO_PRONOUNCE	NO_LABEL
キャッチコピーは「神への挑戦、16日間。	NO_PRONOUNCE	NO_LABEL
」。	NO_PRONOUNCE	NO_LABEL
魔法にあたる「言霊」を自由に作成できる「言霊システム」が特徴的。	NO_PRONOUNCE	NO_LABEL
製作には時空の覇者 Sa・Ga3やファイナルファンタジーUSA ミスティッククエストを手がけたスクウェア大阪開発部のスタッフの多くが参加し、作曲は笹井隆司が、キャラクターデザインを雨宮慶太が行っている。	せいさくにわじくーのはしゃさがすりーやふぁいなるふぁんたじーゆーえすえーみすてぃっくくえすとをてがけたすくうぇあおーさかかいはつぶのすたっふのおーくがさんかし、さっきょくわささいりゅうじが、きゃらくたーでざいんをあめみやけいたがおこなっている。	NO_LABEL
2011年6月7日からWiiの、2015年12月2日からはWii Uのバーチャルコンソールで配信されている。	にせんじゅういちねんろくがつなのかからうぃーの、にせんじゅうごねんじゅーにがつふつかからわうぃーゆーのばーちゃるこんそーるではいしんされている。	NO_LABEL
4000年周期でそれまでの種族が消え去り、新たなる種族が栄える世界が舞台。	NO_PRONOUNCE	NO_LABEL
今までダナン神族、水棲族、爬虫類族、巨人族が生まれ、その姿を消してきた。	いままでだなんしんぞく、すいせいぞく、はちゅーるいぞく、きょじんぞくがうまれ、そのすがたをけしてきた。	NO_LABEL
そして今、人間族の時代が4000年を迎えるまであと16日となった。	NO_PRONOUNCE	NO_LABEL
残された人類には何が出来るのか。	のこされたじんるいにわなにができるのか。	NO_LABEL
シオンは師の行方と仇敵スルトを追うべく天空に向かい、サーレントは生と死の間を行き来し、リザは世界の汚染を浄化するべく各地を駆け巡る。	しおんわしのゆくえときゅーてきするとをおうべくてんくーにむかい、さーれんとわなまとしのまをいききし、りざわせかいのおせんをじょーかするべくかくちをかけめぐる。	NO_LABEL
また、デューンもやがて訪れる自身の使命も知らず、トレジャーハンティングに精を出して世界を駆け巡る。	また、でゅーんもやがておとずれるじしんのしめいもしらず、とれじゃーはんてぃんぐにせいをだしてせかいをかけめぐる。	NO_LABEL
主人公キャラクターは3人の中から選択してゲームを始める。	しゅじんこーきゃらくたーわさんにんのなかからせんたくしてげーむをはじめる。	NO_LABEL
それぞれの話の時間軸は並行しており、別の主人公が起こしたイベントを他の主人公の視点で見たり、時にパーティ同士で助け合ったりなど各章は密接にリンクしている。	それぞれのはなしのじかんじくわへいこーしており、べつのしゅじんこーがおこしたいべんとをたのしゅじんこーのしてんでみたり、ときにぱーてぃどーしでたすけあったりなどかくしょーわみっせつにりんくしている。	NO_LABEL
各主人公のシナリオを同時に進行させる事も可能であり、プレイヤーにある程度の進行の自由を与えている。	かくしゅじんこーのしなりおをどーじにしんこーさせることもかのーであり、ぷれいやーにあるていどのしんこーのじゆーをあたえている。	NO_LABEL
3人の章を全てクリアすると、それぞれの主人公ごとの終章を経て最終章に移行する。	さんにんのしょーをすべてくりあすると、それぞれのしゅじんこーごとのしゅーしょーをへてさいしゅーしょーにいこーする。	NO_LABEL
時間の概念があり、ゲームが進むたびに一定の場所・タイミングで時間が経過する。	NO_PRONOUNCE	NO_LABEL
基本的には2DのRPGである。	きほんてきにわつーでぃーのあーるぴーじーである。	NO_LABEL
戦闘はターン式で行われ、画面はサイドビューで固定されている。	せんとーわたーんしきでおこなわれ、がめんわさいどびゅーでこていされている。	NO_LABEL
本項では、他の作品には見られない奇抜なシステムである「言霊システム」の解説を行う。	NO_PRONOUNCE	NO_LABEL
この作品の最も特徴的な要素がこの言霊システムである。	このさくひんのもっともとくちょーてきなよーそがこのことだましすてむである。	NO_LABEL
言霊とは、あらゆる言葉に宿っている精霊の力を呪文として用いるものであり、「プレイヤーが魔法を作り出す」という画期的かつ斬新なアイディアが盛り込まれている。	NO_PRONOUNCE	NO_LABEL
プレイヤーはメニュー画面の「さくせい」の項目を選ぶと日本語50音に濁音、半濁音などを加えた82文字からカタカナを最大6文字まで使って好きに言葉を並べることができ、どんな単語でも何かしらの効果のある言霊となる。	NO_PRONOUNCE	NO_LABEL
入力は6文字まで、32種類までストックできる。	NO_PRONOUNCE	NO_LABEL
1文字でも言霊として成立するが、火属性はイグ、風属性はテオなどの基本言霊が存在し、単語の前や後ろに文字を加えてより便利な言霊を模索することもプレイヤーの任意で行える。	NO_PRONOUNCE	NO_LABEL
言霊の効果には一定の法則がある為、強力な言霊を作るために創意工夫するのも醍醐味の一つである。	ことだまのこーかにわいっていのほーそくがあるため、きょーりょくなことだまをつくるためにそーいくふーするのもだいごみのひとつである。	NO_LABEL
言霊はゲーム中の様々な場所・人から情報を得ることも、敵の使う言霊をそのまま引用して使うこともできる。	NO_PRONOUNCE	NO_LABEL
また、ドラゴンクエストやファイナルファンタジーなどの有名なゲームの魔法名を入力すると、元作品の効果を模した言霊になる。	また、どらごんくえすとやふぁいなるふぁんたじーなどのゆーめいなげーむのまほーめいをにゅーりょくすると、もとさくひんのこーかをもしたことだまになる。	NO_LABEL
この作品には戦闘を大きく左右する要素として属性が存在している。	このさくひんにわせんとーをおーきくさゆーするよーそとしてぞくせいがそんざいしている。	NO_LABEL
属性には、火⇔水、雷⇔風、陽⇔陰の対となる3組6種、そして地属性と無属性が存在する。	NO_PRONOUNCE	NO_LABEL
無属性の中には、入力した文字がそのまま飛んでいく効果もある。	むぞくせいのなかにわ、にゅーりょくしたもじがそのままとんでいくこーかもある。	NO_LABEL
防具が宿している属性と同じ属性の攻撃には強くなり、対となっている属性の攻撃には弱点となる。	ぼーぐがやどしているぞくせいとおなじぞくせいのこーげきにわつよくなり、たいとなっているぞくせいのこーげきにわじゃくてんとなる。	NO_LABEL
これらの属性は武器・防具・言霊や、敵の特殊攻撃に付加されており、これらを上手く組み合わせて戦略を立てる事が攻略の近道となる。	NO_PRONOUNCE	NO_LABEL
また、ステータス異常も属性に則して設定されており、以下のようなものがある。	また、すてーたすいじょーもぞくせいにそくしてせっていされており、いかのよーなものがある。	NO_LABEL
尚、ステータス異常の治療には相反する言霊や治療用の言霊をぶつけるか、「ばんのうやく」を使用する。	NO_PRONOUNCE	NO_LABEL
装備した防具の属性がトータルで同じ属性になっていれば対応する異常を防げるほか、すでにステータス異常に罹っている場合は他の異常に一切罹らなくなる。	そーびしたぼーぐのぞくせいがとーたるでおなじぞくせいになっていればたいおーするいじょーをふせげるほか、すでにすてーたすいじょーにかかっているばあいわたのいじょーにいっさいかからなくなる。	NO_LABEL
作成された言霊は、それぞれの属性の攻撃言霊となる他に、特殊な効果を持つ場合がある。	さくせいされたことだまわ、それぞれのぞくせいのこーげきことだまとなるほかに、とくしゅなこーかをもつばあいがある。	NO_LABEL
以下にそれぞれの効果を挙げる。	いかにそれぞれのこーかをあげる。	NO_LABEL
名前の後ろに「※」印が付いているキャラクターは、戦士系に属しており、戦闘中に「防御」を行なうことで、次のターンの武器攻撃で与えるダメージを2倍にすることが可能。	NO_PRONOUNCE	NO_LABEL
4人の主人公はゲーム開始時のみ名前変更可能。	よにんのしゅじんこーわげーむかいしじのみなまえへんこーかのー。	NO_LABEL
各編の主人公のパーティーキャラだが、最終章デューンの章には参加しない。	かくへんのしゅじんこーのぱーてぃーきゃらだが、さいしゅーしょーでゅーんのしょーにわさんかしない。	NO_LABEL
主にシオン編で重要な位置を占める。	おもにしおんへんでじゅーよーないちをしめる。	NO_LABEL
作中では人間族を滅ぼし次なる種族の祖となるべきルドラも誕生するが、役目を果たすことなくシオン一行に倒される。	さくちゅーでわにんげんぞくをほろぼしじなるしゅぞくのそとなるべきるどらもたんじょーするが、やくめをはたすことなくしおんいちこーにたおされる。	NO_LABEL
種族名・ルドラの名前も判明していない。	NO_PRONOUNCE	NO_LABEL
次種族の始祖となるルドラは本来、以下の6つの武具と主人公達が身に宿す事になるライフジェイド、リバイブジェイド、ホーリージェイド、デスジェイドの4つを付けて初めて完全体となる。	じしゅぞくのしそとなるるどらわほんらい、いかのむっつのぶぐとしゅじんこーたちがみにやどすことになるらいふじぇいど、りばいぶじぇいど、ほーりーじぇいど、ですじぇいどのよっつをつけてはじめてかんぜんたいとなる。	NO_LABEL
また、これらをルドラ十神宝と呼ぶ。	また、これらをるどらじゅーしんぽーとよぶ。	NO_LABEL
