湊山温泉は、兵庫県神戸市兵庫区湊山町にある温泉。	みなとやまおんせんわ、ひょーごけんこーべしひょーごくみなとやまちょーにあるおんせん。	NO_LABEL
温泉名の由来となった湊山という地名は、湊川が山中から平野部に出てすぐの、山に沿った場所に位置することから。	おんせんめいのゆらいとなったみなとやまとゆうちめいわ、みなとがわがさんちゅーからへいやぶにでてすぐの、やまにそったばしょにいちすることから。	NO_LABEL
祇園神社すぐ西に	ぎおんじんじゃすぐにしに	NO_LABEL
TEL 078-521-5839	NO_PRONOUNCE	NO_LABEL
•営業時間05:00-22:30定休日水曜日	NO_PRONOUNCE	NO_LABEL
古くからの昭和の面影を色濃く残す下町の町のはずれの湊川沿いに日帰り入浴施設である「湊山温泉」だけが存在し、宿泊施設はない。	NO_PRONOUNCE	NO_LABEL
神戸天然鉱泉の経営。	こーべてんねんこーせんのけいえい。	NO_LABEL
銭湯のような施設であるが、入浴料金は銭湯よりも高い。	せんとーのよーなしせつであるが、にゅーよくりょーきんわせんとーよりもたかい。	NO_LABEL
（2015年8月現在料金	NO_PRONOUNCE	NO_LABEL
大人680円、中学生430円、小学生230円、幼児110円	おとなろっぴゃくはちじゅうえん、ちゅーがくせいよんひゃくさんじゅうえん、しょーがくせいにひゃくさんじゅうえん、よーじひゃくじゅうえん	NO_LABEL
円）なお、南に50メートルほどのところには「天王温泉」という歴史ある建物が残る天然温泉の日帰り入浴施設もあったが、神戸市の財政悪化に伴う水道料金改定の余波により2004年に閉鎖された。	NO_PRONOUNCE	NO_LABEL
浴用加熱が必要な温泉には珍しく、すべての浴槽で掛け流しを実現している。	よくよーかねつがひつよーなおんせんにわめずらしく、すべてのよくそーでかけながしをじつげんしている。	NO_LABEL
浴室は細長く、浴槽は低温・中温・高温の3種類の浴槽があるほか、加熱前の源泉を利用した水風呂や飲泉場がある。	NO_PRONOUNCE	NO_LABEL
中温と高温の浴槽は深く、底には玉砂利が敷かれている。	ちゅーおんとこーおんのよくそーわふかく、そこにわたまじゃりがしかれている。	NO_LABEL
なお、源泉にはわずかにヒ素を含むために、1日あたりの飲用可能量は400mlまでとされている。	なお、げんせんにわわずかにひそをふくむために、ついたちあたりのいんよーかのーりょうわよんひゃくみりりっとるまでとされている。	NO_LABEL
主浴槽のほか、蛸壺という46℃の高温槽や低温槽ジャクジー、中温槽の電気風呂、38℃のぬるま湯槽、28℃の源泉浴槽がある。	しゅよくそーのほか、たこつぼとゆうよんじゅうろくどしーのこーおんそーやていおんそーじゃくじー、ちゅーおんそーのでんきぶろ、さんじゅうはちどしーのぬるまゆそー、にじゅうはちどしーのげんせんよくそーがある。	NO_LABEL
すべての浴槽に源泉をたたえ、加温かけ流し式で使用している。	すべてのよくそーにげんせんをたたえ、かゆたかかけながししきでしよーしている。	NO_LABEL
平安時代には存在し、すぐ近くにあった福原京の公家や平清盛などの武士も入浴したと言うが伝説の域を出ない。	へいあんじだいにわそんざいし、すぐちかくにあったふくはらきょーのくげやたいらのきよもりなどのぶしもにゅーよくしたというがでんせつのいきをでない。	NO_LABEL
1889年に温泉施設が開業したのが現在の湊山温泉の起源である。	せんはっぴゃくはちじゅうきゅうねんにおんせんしせつがかいぎょーしたのがげんざいのみなとやまおんせんのきげんである。	NO_LABEL
1970年代には一日平均1200～1300人の来客数があったが、昨今は360人／日程におちこんでいた。	NO_PRONOUNCE	NO_LABEL
神戸市の上下水道料金見直しに伴う負担増の影響などもあり、2015年5月10日をもって廃業することが2015年4月にいったん決定した。	こーべしのじょーげすいどーりょーきんみなおしにともなうふたんぞーのえいきょーなどもあり、にせんじゅうごねんごがつとおかをもってはいぎょーすることがにせんじゅうごねんしがつにいったんけっていした。	NO_LABEL
この報道の後、静岡県の伊豆高原ビール株式会社が新会社を設立して運営に当たることが決まり、2015年5月11 - 13日の休業を挟んで5月14日から新体制で営業することとなった。	NO_PRONOUNCE	NO_LABEL
