春日井市民球場は、愛知県春日井市にある野球場である。	かすがいしみんきゅーじょーわ、あいちけんかすがいしにあるやきゅーじょーである。	NO_LABEL
2011年4月1日より春日井市に代わり指定管理者の財団法人春日井市市民サービス公社が管理運営を行っている。	にせんじゅういちねんしがつついたちよりかすがいしにかわりしていかんりしゃのざいだんほーじんかすがいししみんさーびすこーしゃがかんりうんえいをおこなっている。	NO_LABEL
主に全国高等学校野球選手権大会愛知県予選などアマチュア野球での使用が多いが、中日ドラゴンズファームがウエスタン・リーグの試合で2010年3月26日 - 28日の福岡ソフトバンクホークスファームとの3連戦で使用した実績がある。	NO_PRONOUNCE	NO_LABEL
