板敷峠は、茨城県桜川市と同石岡市の境にある標高90mの峠。	いたじきとーげわ、いばらきけんさくらがわしとどーいしおかしのさかいにあるひょーこーきゅうじゅうめーとるのとーげ。	NO_LABEL
筑波山地北部に掛かる峠の一つで、燕山と板敷山の間に位置する。	つくばさんちほくぶにかかるとーげのひとつで、つばくろさんといたじきやまのまにいちする。	NO_LABEL
県道64号土浦笠間線が南北に走っている。	けんどーろくじゅうよんごーつちうらかさませんがなんぼくにはしっている。	NO_LABEL
かつて浄土真宗の開祖である親鸞を快く思っていない山伏弁円とその弟子たちは、彼を殺害しようと板敷峠で待ち伏せをしたが果たせなかった。	かつてじょーどしんしゅーのかいそであるしんらんをこころよくおもっていないやまぶしべんえんとそのでしたちわ、かれをさつがいしよーといたじきとーげでまちぶせをしたがはたせなかった。	NO_LABEL
この事件は「関東教化中法難」と呼ばれ、後に弁円は親鸞に帰依して、この峠の南東に大覚寺を建立した。	NO_PRONOUNCE	NO_LABEL
この事件が起こった標高112mの旧峠は、現峠の北東約300mにあり、その時弁円たちが祈願を込めた護摩壇跡が残されている。	このじけんがおこったひょーこーひゃくじゅうにめーとるのきゅーとーげわ、げんとーげのほくとーやくさんびゃくめーとるにあり、そのときべんえんたちがきがんをこめたごまだんあとがのこされている。	NO_LABEL
