2014 日本女子サッカーリーグとは、2014年3月から11月にかけて開催された第26回の日本女子サッカーリーグである。	NO_PRONOUNCE	NO_LABEL
2014年から3年計画で行われるリーグ改革 の一環として、レギュレーションが大幅に変更になっている。	にせんじゅうよねんからさんねんけいかくでおこなわれるりーぐかいかくのいっかんとして、れぎゅれーしょんがおーはばにへんこーになっている。	NO_LABEL
なでしこリーグにおいては、スプリットシステムを導入することになり、各チームが年間28試合もしくは24試合を戦う。	なでしこりーぐにおいてわ、すぷりっとしすてむをどーにゅーすることになり、かくちーむがねんかんにじゅうはちしあいもしくわにじゅうよんしあいをたたかう。	NO_LABEL
このためなでしこリーグカップは今年は行われない。	このためなでしこりーぐかっぷわことしわおこなわれない。	NO_LABEL
チャレンジリーグにおいては昨年と同様のレギュレーションで行われ、2013年シーズン成績で8チームずつ2グループに分けたうえで、以下の順序で各チームがリーグ戦22試合を戦う。	NO_PRONOUNCE	NO_LABEL
順位決定は16チーム全体での勝ち点順により決定する。	NO_PRONOUNCE	NO_LABEL
2015年度からは3部制が導入されることになり、1部については「普及を含めてサッカー活動に専念できる選手が3人以上いること」「試合や練習時のけがの治療費をチームが負担すること」「15歳以下のアカデミーチームを保有すること」などの要件を定めた「なでしこリーグガイドライン」を満たしたクラブのみが参加し、2部については1部昇格を目指すクラブのみが参加することになる。	NO_PRONOUNCE	NO_LABEL
以上を踏まえた上で、2014年シーズンのリーグ分けから以下のような組み替えが行われることになり、その上で入れ替え戦が行われることになる。	いじょーをふまえたうえで、にせんじゅうよねんしーずんのりーぐわけからいかのよーなくみかえがおこなわれることになり、そのうえでいれかえせんがおこなわれることになる。	NO_LABEL
入れ替えの詳細については後述。	いれかえのしょーさいについてわこーじゅつ。	NO_LABEL
※JFAアカデミー福島は本来は福島県が本拠地だが、東日本大震災の影響で本拠地を一時的に静岡県に移転している。	NO_PRONOUNCE	NO_LABEL
2014年8月17日全日程終了	にせんじゅうよねんはちがつじゅうしちにちぜんにっていしゅーりょー	NO_LABEL
<br>国際女子サッカークラブ選手権2014<br>出場権獲得	NO_PRONOUNCE	NO_LABEL
2014年11月24日全日程終了	にせんじゅうよねんじゅーいちがつにじゅうよっかぜんにっていしゅーりょー	NO_LABEL
2014年11月1日全日程終了	にせんじゅうよねんじゅーいちがつついたちぜんにっていしゅーりょー	NO_LABEL
, 残留	NO_PRONOUNCE	NO_LABEL
2014年11月3日全日程終了	にせんじゅうよねんじゅーいちがつみっかぜんにっていしゅーりょー	NO_LABEL
, 残留	NO_PRONOUNCE	NO_LABEL
, 残留	NO_PRONOUNCE	NO_LABEL
, 東海1部に降格	NO_PRONOUNCE	NO_LABEL
表彰式は2014年11月25日に行われた。	ひょーしょーしきわにせんじゅうよねんじゅーいちがつにじゅうごにちにおこなわれた。	NO_LABEL
2014年10月1日に、2014年なでしこリーグ所属の全10クラブと、2014年チャレンジリーグ所属クラブのうち常盤木学園高校・JFAアカデミー福島を除く14クラブがガイドラインを満たしていると発表された。	NO_PRONOUNCE	NO_LABEL
これに伴い、常盤木学園高校・JFAアカデミー福島を除くチャレンジリーグの12位までの10クラブになでしこリーグ2部への参入資格が与えられ、常盤木学園高校・JFAアカデミー福島はチャレンジリーグに参入することになった。	NO_PRONOUNCE	NO_LABEL
なでしこリーグ10位クラブとチャレンジリーグ優勝クラブは来年度のリーグ戦に自動入れ替えとなる。	なでしこりーぐじゅういくらぶとちゃれんじりーぐゆーしょーくらぶわらいねんどのりーぐせんにじどーいれかえとなる。	NO_LABEL
またなでしこリーグ9位とチャレンジリーグ2位のクラブ間はホーム・アンド・アウェーの2試合で入れ替え戦を行い、その勝者がなでしこリーグ1部、敗者がなでしこリーグ2部に配属となる。	またなでしこりーぐきゅういとちゃれんじりーぐにーのくらぶかんわほーむあんどあうぇーのにしあいでいれかえせんをおこない、そのしょーしゃがなでしこりーぐいちぶ、はいしゃがなでしこりーぐにぶにはいぞくとなる。	NO_LABEL
伊賀が2連勝により1部残留。	いががにれんしょーによりいちぶざんりゅー。	NO_LABEL
日体大はなでしこリーグ2部に配属。	にったいだいわなでしこりーぐにぶにはいぞく。	NO_LABEL
チャレンジリーグから2015年のチャレンジリーグへの参入にあたっては、ガイドラインを満たさなかった常盤木学園高校・JFAアカデミー福島と、13位の静岡産業大学磐田ボニータ・14位のセレッソ大阪堺レディースの参入が決定。	NO_PRONOUNCE	NO_LABEL
15位のバニーズ京都SCと16位の清水第八プレアデスが地域リーグ代表との入れ替え戦に出場する。	じゅうごいのばにーずきょーとえすしーとじゅうろくいのしみずだいはちぷれあですがちーきりーぐだいひょーとのいれかえせんにしゅつじょーする。	NO_LABEL
一方、地域リーグ・都道府県リーグからは、13クラブが「チャレンジリーグ加盟希望申請書」を提出。	NO_PRONOUNCE	NO_LABEL
書類審査、チーム基盤、財政面、グランド施設に関すること等のヒアリングおよび現地調査により9クラブが「チャレンジリーグ参入チーム決定戦」への参加を承認された。	NO_PRONOUNCE	NO_LABEL
この9クラブにより、以下の方法でチャレンジリーグ参入クラブを決定する。	NO_PRONOUNCE	NO_LABEL
全試合時之栖スポーツセンターで開催。	ぜんしあいときのすみかすぽーつせんたーでかいさい。	NO_LABEL
以上の結果により、各グループの上位2チーム、計6チームが2015年チャレンジリーグ昇格決定。	NO_PRONOUNCE	NO_LABEL
3位の3チームはチャレンジリーグ入れ替え戦に回る。	NO_PRONOUNCE	NO_LABEL
結果、益城ルネサンス熊本フットボールクラブ・ジュ ブリーレ 鹿児島が入替戦に進出。	NO_PRONOUNCE	NO_LABEL
ディオッサ出雲F.C.はチャレンジリーグ参入ならず。	NO_PRONOUNCE	NO_LABEL
以下、11月11日に発表された日時・会場による。	NO_PRONOUNCE	NO_LABEL
第1戦を地域リーグのチームのホームゲーム、第2戦をチャレンジリーグのチームのホームゲームで実施する。	だいいちせんをちーきりーぐのちーむのほーむげーむ、だいにせんをちゃれんじりーぐのちーむのほーむげーむでじっしする。	NO_LABEL
上記の結果により、	じょーきのけっかにより、	NO_LABEL
