左官科とは、左官技術を教える普通職業訓練の訓練科。	さかんかとわ、さかんぎじゅつをおしえるふつーしょくぎょーくんれんのくんれんか。	NO_LABEL
左官は建物外壁を関連する壁塗りなどの技術とされているが、こうした職業訓練施設の左官科は、家屋の壁・土間・外構まで全般を受け持ち、建築物の最終的な仕上げをする仕事となるため、敷地内の外構・エクステリア分野のレンガアプローチや床タイル並べやブロック積みといった工事施工技術も修得技術とされ、建築物の内壁・外壁を仕上げる他にブロック積み工事・タイル張り工事、インターロッキング工事等ができる技能者の育成を目標としている。	NO_PRONOUNCE	NO_LABEL
ブロック積み・レンガ積み・タイル張りなどを基礎訓練に、実習によっては外壁の仕上げ塗り・ブロック塀・インターロッキング・カーポートまで行い、その中で建物の外壁・内壁、エクステリア外構工事などが施工できるように訓練実施される。	NO_PRONOUNCE	NO_LABEL
応用としてエクステリア工事で天然石の加工まで、また訓練内容によっては資格取得に必要な教育訓練に併せて、建築物の内外装の壁塗り、エクステリア工事等の施工作業などの技能や知識習得もある。	おーよーとしてえくすてりあこーじでてんねんせきのかこーまで、またくんれんないよーによってわしかくしゅとくにひつよーなきょーいくくんれんにあわせて、けんちくぶつのないがいそーのかべぬり、えくすてりあこーじとーのしこーさぎょーなどのぎのーやちしきしゅーとくもある。	NO_LABEL
職業訓練施設以外に、以下の施設でも左官の学科がある。	しょくぎょーくんれんしせついがいに、いかのしせつでもさかんのがっかがある。	NO_LABEL
