小波瀬西工大前駅は、福岡県京都郡苅田町大字新津にある、九州旅客鉄道日豊本線の駅である。	おばせにしこーだいまええきわ、ふくおかけんきょーとぐんかんだまちだいじにーつにある、きゅーしゅーりょかくてつどーにっぽーほんせんのえきである。	NO_LABEL
当駅から北東へ分岐する、苅田港貨物支線のために設置された信号場がその前身である。	とーえきからほくとーえぶんきする、かんだこーかもつしせんのためにせっちされたしんごーじょーがそのぜんしんである。	NO_LABEL
貨物支線には連査閉塞装置が使用されていた。	かもつしせんにわれんまるさへいそくそーちがしよーされていた。	NO_LABEL
駅前には西日本工業大学や病院が存在し、付近は住宅も多く、朝夕の通勤時間帯には小倉方面を中心に利用客が多い。	えきまえにわにしにっぽんこーぎょーだいがくやびょーいんがそんざいし、ふきんわじゅーたくもおーく、あさゆーのつーきんじかんたいにわおぐらほーめんをちゅーしんにりよーきゃくがおーい。	NO_LABEL
駅構内東側に鉄筋コンクリート造の駅舎があり、駅舎寄りに単式ホーム1面1線、反対側に島式ホーム1面2線を配する。	NO_PRONOUNCE	NO_LABEL
駅舎寄りの1番のりばを下り本線、一番外側の3番線を上り本線、中央の2番線を待避線とする2面3線である。	NO_PRONOUNCE	NO_LABEL
信号場にホームを足したような形のためホームが狭く、そのために駅本屋と島式ホームとを結ぶ跨線橋もホーム端に設置されている。	しんごーじょーにほーむをたしたよーなかたちのためほーむがせまく、そのためにえきほんやとしましきほーむとをむすぶこせんきょーもほーむたんにせっちされている。	NO_LABEL
JR九州鉄道営業が駅業務を行う業務委託駅で、みどりの窓口が設置されている。	じぇいあーるきゅーしゅーてつどーえいぎょーがえきぎょーむをおこなうぎょーむいたくえきで、みどりのまどぐちがせっちされている。	NO_LABEL
自動改札機を備え、SUGOCAの利用が可能である。	じどーかいさつきをそなえ、すごかのりよーがかのーである。	NO_LABEL
2010年度の1日当たりの乗降客数は4,346人/日である。	NO_PRONOUNCE	NO_LABEL
北九州市通勤圏に含まれるが、苅田町の南のはずれに位置しており、日豊本線に並行する国道10号から800mほど離れているため、駅周辺は住宅地が形成され商業施設は少ない。	きたきゅーしゅーしつーきんけんにふくまれるが、かんだまちのみなみのはずれにいちしており、にっぽーほんせんにへいこーするこくどーじゅうごーからはっぴゃくめーとるほどはなれているため、えきしゅーへんわじゅーたくちがけいせいされしょーぎょーしせつわすくない。	NO_LABEL
