ヴィットリア・コロンナは、ペスカーラの侯爵夫人、イタリアの貴婦人であり詩人。	NO_PRONOUNCE	NO_LABEL
ミケランジェロと詩を交換し、芸術的な親交を深めた。	みけらんじぇろとしをこーかんし、げいじゅつてきなしんこーをふかめた。	NO_LABEL
1525年、夫の早すぎる死によって、コロンナは文学的友人との接触を維持し、発展させた。	せんごひゃくにじゅうごねん、おっとのはやすぎるしによって、ころんなわぶんがくてきゆーじんとのせっしょくをいじし、はってんさせた。	NO_LABEL
そして彼女は16世紀のイタリアで最も人気のある詩人の1人となった。	そしてかのじょわじゅうろくせいきのいたりあでもっともにんきのあるしじんのひとりとなった。	NO_LABEL
ヴィットリアコロンナはローマの近くにあるコロンナ家の領地であるマリーノで、ナポリ王国の保安官であるファブリツィオ・コロンナと、ウルビーノの侯爵の娘であるアニェーゼ・ダ・モンテフェルトロの間に生を受けた。	NO_PRONOUNCE	NO_LABEL
4歳の時、ナポリ王のフェルディナンドの主張により、ペスカーラの侯爵の息子であるフェルナンド・フランチェスコ・ダヴァロスと婚約し、英才教育を受け、早くから文学に対する愛を示した。	NO_PRONOUNCE	NO_LABEL
彼女はサヴォイやブラガンザの侯爵を含め多くの男たちに求婚されていたが、19歳の時、彼女自身の強い希望で、1509年12月27日に、イスキア島においてダヴァロスと結婚した。	NO_PRONOUNCE	NO_LABEL
そして彼女は夫のおばであるコンスタンツァ・ダバロスの文学サークルの一員となった。	NO_PRONOUNCE	NO_LABEL
二人は、ダヴァロスがフランスとの戦争に軍人として参加する1511年までイスキア島に住んだ。	NO_PRONOUNCE	NO_LABEL
彼はラヴェンナの戦いの捕虜として捕らえられ、フランスへ送られた。	NO_PRONOUNCE	NO_LABEL
拘留が続き、軍事行動を行う中で、コロンナとダヴァロスは、最も情熱的な言葉を用いて韻文や散文を文通したが、夫に送った詩の手紙は1通しか残存していない。	NO_PRONOUNCE	NO_LABEL
1516年から1522年までの間にコロンナは3人の家族を失った。	せんごひゃくじゅうろくねんからせんごひゃくにじゅうにねんまでのまにころんなわさんにんのかぞくをうしなった。	NO_LABEL
弟のフェデリコは1516年に、ファブリツィオは1520年に、アニェーゼは1522年に亡くなった。	おとーとのふぇでりこわせんごひゃくじゅうろくねんに、ふぁぶりつぃおわせんごひゃくにじゅうねんに、あにぇーぜわせんごひゃくにじゅうにねんになくなった。	NO_LABEL
コロンナとダヴァロスは滅多に会うこともなくなっていた。	NO_PRONOUNCE	NO_LABEL
なぜなら、彼は神聖ローマ皇帝カール5世配下の指揮官のうち、最も行動的で聡明な一人だったからだ。	なぜなら、かれわしんせいろーまこーていかーるごせいはいかのしきかんのうち、もっともこーどーてきでそーめいなひとりだったからだ。	NO_LABEL
しかし、コロンナの影響力はパヴィアの戦いの後の、フランスへの反逆の褒美として提案されたナポリ王の地位を捨て、皇帝への反逆を思いとどまらせるのに十分であった。	NO_PRONOUNCE	NO_LABEL
コロンナは1525年の夏をマリーノにある父の城で過ごした。	ころんなわせんごひゃくにじゅうごねんのなつをまりーのにあるちちのしろですごした。	NO_LABEL
彼女はここで病に倒れ、この後生涯を通して病気に苦しむことになる。	かのじょわここでやまいにたおれ、こののちしょーがいをとーしてびょーきにくるしむことになる。	NO_LABEL
 このころ彼女はバルダッサーレ・カスティリオーネの『宮廷人』の原稿を受け取り、ナポリに広めた。	NO_PRONOUNCE	NO_LABEL
9月21日、カスティリオーネは彼女にまだ発表されていない作品を部分的に転載できるようにしたことを嘆く手紙を送った。	くがつにじゅういちにち、かすてぃりおーねわかのじょにまだはっぴょーされていないさくひんをぶぶんてきにてんさいできるよーにしたことをなげくてがみをおくった。	NO_LABEL
そしてこの海賊版によってカスティリオーネは彼の本の出版を急いだ。	そしてこのかいぞくばんによってかすてぃりおーねわかれのほんのしゅっぱんをいそいだ。	NO_LABEL
1525年12月3日、フェルナンドはパヴィアの戦いにおいて負った傷が原因で、ミラノで死亡した。	NO_PRONOUNCE	NO_LABEL
コロンナは危篤の知らせを聞いて彼のもとへ急いだが、彼の死亡をヴィテルボで知った。	NO_PRONOUNCE	NO_LABEL
彼女はミラノへ向かうのをやめ、ローマにあるサン・シルヴェストロの修道院へひきこもった。	NO_PRONOUNCE	NO_LABEL
彼女は修道院へ入れてほしいと頼んだが、教皇クレメンス7世と、コロンナの弟であるアスカニオ・コロンナによって断られた。	NO_PRONOUNCE	NO_LABEL
その後、彼女はイスキアに戻り、そこで数年を過ごした。	そのご、かのじょわいすきあにもどり、そこですーねんをすごした。	NO_LABEL
アビゲイル・ブランディンはクレメンスとアスカニオがコロンナの要求を断ったのは、彼女が将来結婚して、政治的に望ましい同盟を作り出してくれることを期待したからかもしれないといっている。	NO_PRONOUNCE	NO_LABEL
しかし、彼女はいくつかの求婚を断り、人生を詩を書くことにささげた。	しかし、かのじょわいくつかのきゅーこんをことわり、じんせいをしをかくことにささげた。	NO_LABEL
1527年のローマ略奪は、コロンナ家がローマの人々に援助を提供することで、コロンナ家にメディチ教皇クレメンス7世との関係を改善する機会を与えた。	NO_PRONOUNCE	NO_LABEL
しかし、フランス軍がナポリを攻めだしたとき、ダヴァロスの全家はイスキア島に避難した。	NO_PRONOUNCE	NO_LABEL
ローマ教皇領地侵略の9か月後、歴史家のパオロ・ジョヴィオがコロンナに招かれてイスキアにやってきた。	NO_PRONOUNCE	NO_LABEL
そして彼は1528年まで滞在した。	そしてかれわせんごひゃくにじゅうはちねんまでたいざいした。	NO_LABEL
彼はイスキア島にいる間に、出版されていない"Dialogus de viris ac foeminis aetate nostra florentibus"という、1527年の9月の終わりから12月の初めまでのイスキアを舞台にした本を書いた。	NO_PRONOUNCE	NO_LABEL
この第3巻でジョヴィオは10ページにわたるコロンナの賛辞を書いた。	NO_PRONOUNCE	NO_LABEL
1529年に、コロンナはローマへ戻った。	せんごひゃくにじゅうきゅうねんに、ころんなわろーまえもどった。	NO_LABEL
そしてその後数年をオルヴィエートやイスキアなどの場所で過ごした。	NO_PRONOUNCE	NO_LABEL
さらに彼女はモンテカッシーノ修道院にいくつかの不当押収土地を返すようにアヴァロス家に頼むことにより、亡くなった夫の過ちを正そうとした。	NO_PRONOUNCE	NO_LABEL
1535年、彼女の義理の妹であるジョヴァンナ・ダラゴーナは、彼女の弟であるアスカニオと別れて、イスキアにやってきた。	NO_PRONOUNCE	NO_LABEL
コロンナは彼らを和解させようとし、ジョバンナはアスカニオとの仲直りは拒んだものの、コロンナとは親しい間柄になった。	ころんなわかれらをわかいさせようとし、じょばんなわあすかにおとのなかなおりわこばんだものの、ころんなとわしたしいあいだがらになった。	NO_LABEL
二人はフアン・デ・バルデスをサポートし、アスカニオが教皇パウルス3世に塩税を払うのを拒否したとき、仲裁しようとした。	NO_PRONOUNCE	NO_LABEL
1536年、46歳の時、彼女はローマにもどってきて、レジナルド・ポールとから尊敬の意を抱かれた。	せんごひゃくさんじゅうろくねん、よんじゅうろっさいのとき、かのじょわろーまにもどってきて、れじなるどぽーるとからそんけいのいをいだかれた。	NO_LABEL
そして61歳のミケランジェロと情熱的な友情を育んだ。	そしてろくじゅういっさいのみけらんじぇろとじょーねつてきなゆーじょーをはぐくんだ。	NO_LABEL
その偉大な芸術家は彼女にいくつかの立派なソネットを贈り彼女のために絵を描き、長い時間を彼女と過ごした。	そのいだいなげいじゅつかわかのじょにいくつかのりっぱなそねっとをおくりかのじょのためにえをえがき、ながいじかんをかのじょとすごした。	NO_LABEL
彼女は宗教的な詩の草稿を彼に贈った。	かのじょわしゅーきょーてきなしのそーこーをかれにおくった。	NO_LABEL
1541年、アスカニオ・コロンナの教皇パウルス3世に対する反逆に際し、彼女はオルヴィエートやヴィテルボに移住したが、そのことはミケランジェロとの関係には影響を及ぼさず、彼らは以前のようにお互いに訪問し、文通を続けた。	NO_PRONOUNCE	NO_LABEL
1537年5月8日、彼女はヴェネツィアへ、そして聖地への旅を続けるという気持ちを持ちながら、数人の女性とともにフェラーラにやってきた。	NO_PRONOUNCE	NO_LABEL
 フェラーラへやってきた目的は、ベルナルディーノ・オキノのためにカプチン会の修道院を設立することだったといわれている。	NO_PRONOUNCE	NO_LABEL
健康を考慮して、コロンナは翌年の2月までフェラーラに滞在した。	けんこーをこーりょして、ころんなわよくねんのにがつまでふぇらーらにたいざいした。	NO_LABEL
彼女は聖地巡礼をやめるように友人に説得を受け、その後1538年にローマに帰ってきた。	かのじょわせいちじゅんれいをやめるよーにゆーじんにせっとくをうけ、そのごせんごひゃくさんじゅうはちねんにろーまにかえってきた。	NO_LABEL
彼女は1544年にローマに戻ってきて、いつものようにサン・シルヴェストロ修道院に滞在し、そこで1547年2月25日に息を引き取った。	NO_PRONOUNCE	NO_LABEL
ピエトロ・ベンボ、、バルダッサーレ・カスティリオーネ、らは皆彼女の文学的友人だった。	NO_PRONOUNCE	NO_LABEL
また、彼女はピエトロ・カルネセッチやオキノのような多くのイタリア改革運動のメンバーとも親密だった。	NO_PRONOUNCE	NO_LABEL
しかし、彼女はイタリアの教会危機が深刻になる前に死亡した。	しかし、かのじょわいたりあのきょーかいききがしんこくになるまえにしぼーした。	NO_LABEL
そして、彼女は宗教改革の支持者であったが、彼女の宗教的信心がカトリック教会の教えに反していることについても、彼女がプロテスタントになったことに関しても、信じる理由はない。	そして、かのじょわしゅーきょーかいかくのしじしゃであったが、かのじょのしゅーきょーてきしんじんがかとりっくきょーかいのおしえにはんしていることについても、かのじょがぷろてすたんとになったことにかんしても、しんじるりゆーわない。	NO_LABEL
