砂糖漬けとは、砂糖を使った保存食や食品、またはその調理法を指す。	さとーずけとわ、さとーをつかったほぞんしょくやしょくひん、またわそのちょーりほーをさす。	NO_LABEL
砂糖の特性である吸水性を利用して保存したい果物などを砂糖で取り巻き、雑菌や組織内の水分と外部の糖分を細胞壁を通して交換することで組織の中の水分を減らし、殺菌して腐敗を防ぐという方法が砂糖漬けの原理である。	さとーのとくせいであるきゅーすいせいをりよーしてほぞんしたいくだものなどをさとーでとりまき、ざっきんやそしきないのすいぶんとがいぶのとーぶんをさいぼーへきをとーしてこーかんすることでそしきのなかのすいぶんをへらし、さっきんしてふはいをふせぐとゆうほーほーがさとーずけのげんりである。	NO_LABEL
ナトリウムイオンなどに比べて糖分子は重いため、塩漬けに使う塩よりも大量の砂糖が必要となる。	なとりゅーむいおんなどにくらべてとーぶんしわおもいため、しおずけにつかうしおよりもたいりょーのさとーがひつよーとなる。	NO_LABEL
一般に、砂糖漬けには保存する果実の重さの45%から55%の砂糖が必要であり、最終的には全体の重さの3分の2を砂糖が占める。	いっぱんに、さとーずけにわほぞんするかじつのおもさのよんじゅうごぱーせんとからごじゅうごぱーせんとのさとーがひつよーであり、さいしゅーてきにわぜんたいのおもさのさんぶんのにをさとーがしめる。	NO_LABEL
また、砂糖には吸収した水分を保持して保存対象の乾燥を防ぐ働きや、脂質の酸化を防ぐ働き、食品の香りを吸収して保持する働きがある。	また、さとーにわきゅーしゅーしたすいぶんをほじしてほぞんたいしょーのかんそーをふせぐはたらきや、ししつのさんかをふせぐはたらき、しょくひんのかおりをきゅーしゅーしてほじするはたらきがある。	NO_LABEL
砂糖漬け製品の消費期限は、冷蔵状態でおおむね1か月から半年くらいであり、塩漬け製品ほどの長期保存能力はない。	さとーずけせいひんのしょーひきげんわ、れいぞーじょーたいでおーむねいっかげつからはんとしくらいであり、しおずけせいひんほどのちょーきほぞんのーりょくわない。	NO_LABEL
しかし、塩漬けは塩抜きなどの処理や調理をしてからでないと食べられないが、砂糖漬けはそのまま食べられるという利点がある。	しかし、しおずけわしおぬきなどのしょりやちょーりをしてからでないとたべられないが、さとーずけわそのままたべられるとゆうりてんがある。	NO_LABEL
製法には、素材を砂糖シロップで煮詰めて乾燥させる、粉砂糖に漬けるなど、いろいろな方法がある。	せいほーにわ、そざいをさとーしろっぷでにつめてかんそーさせる、こなざとーにつけるなど、いろいろなほーほーがある。	NO_LABEL
材料は食べやすいサイズに切る場合が多いが、皮だけを利用するものや、果実を丸ごと漬けるものもある。	ざいりょーわたべやすいさいずにきるばあいがおーいが、かわだけをりよーするものや、かじつをまるごとつけるものもある。	NO_LABEL
砂糖漬けの作業過程で形を留めないゼリー状にしたものがジャムである。	さとーずけのさぎょーかていでかたちをとめないぜりーじょーにしたものがじゃむである。	NO_LABEL
ドライな砂糖漬けは飽和砂糖液を染み込ませた後に乾燥させるという作業を繰り返して作るため、ジャムと比べて完成までに時間と手間がかかる。	どらいなさとーずけわほーわさとーえきをしみこませたのちにかんそーさせるとゆうさぎょーをくりかえしてつくるため、じゃむとくらべてかんせいまでにじかんとてまがかかる。	NO_LABEL
古代ギリシアではマルメロを蜂蜜、もしくはブドウ果汁のシロップ漬けにしていた。	こだいぎりしあでわまるめろをはちみつ、もしくわぶどーかじゅーのしろっぷずけにしていた。	NO_LABEL
これがマーマレードの始まりと言われている。	これがまーまれーどのはじまりといわれている。	NO_LABEL
ヨーロッパで砂糖を使った砂糖漬けが作られ始めたのは13世紀頃からで、プロヴァンスやトゥールーズなど花や果物が豊富に取れる南フランスの特産品となり、砂糖が安価になった18世紀以降は家庭でも砂糖漬けが作られるようになった。	よーろっぱでさとーをつかったさとーずけがつくられはじめたのわじゅうさんせいきごろからで、ぷろばんすやとぅーるーずなどはなやくだものがほーふにとれるみなみふらんすのとくさんひんとなり、さとーがあんかになったじゅうはっせいきいこーわかていでもさとーずけがつくられるよーになった。	NO_LABEL
日本で砂糖漬けが作られるようになったのは、江戸時代中期のことである。	にっぽんでさとーずけがつくられるよーになったのわ、えどじだいちゅーきのことである。	NO_LABEL
当時は貴重品であり、幕府や藩の交易品や献上品として扱われることもあった。	とーじわきちょーひんであり、ばくふやはんのこーえきひんやけんじょーひんとしてあつかわれることもあった。	NO_LABEL
ザボンやカリンのような果実のほか、ショウガ、ハスの茎、ナス、ニンジンなど野菜の砂糖漬け、天門冬やハマボウフウといった薬用植物の砂糖漬けが盛んに作られており、江戸時代には豆腐や昆布まで砂糖漬けの材料として用いられていた。	ざぼんやかりんのよーなかじつのほか、しょーが、はすのくき、なす、にんじんなどやさいのさとーずけ、てんもんどーやはまぼーふーといったやくよーしょくぶつのさとーずけがさかんにつくられており、えどじだいにわとーふやこんぶまでさとーずけのざいりょーとしてもちいられていた。	NO_LABEL
また、琉球においても中国もしくは日本から砂糖漬けの製法が伝播され、キッパンやトウガンの砂糖漬けなどが作られている。	また、りゅーきゅーにおいてもちゅーごくもしくわにっぽんからさとーずけのせいほーがでんぱされ、きっぱんやとーがんのさとーずけなどがつくられている。	NO_LABEL
中世のフランスでは、フェンネルやアニスを混ぜた果物の砂糖漬けが、後年における胃薬や口臭予防のガムのような存在だった。	ちゅーせいのふらんすでわ、ふぇんねるやあにすをまぜたくだもののさとーずけが、こーねんにおけるいぐすりやこーしゅーよぼーのがむのよーなそんざいだった。	NO_LABEL
また、裁判官への心付けや謝礼として、香辛料入りの砂糖漬けやジャムを贈る風習があった。	また、さいばんかんえのこころずけやしゃれいとして、こーしんりょーいりのさとーずけやじゃむをおくるふーしゅーがあった。	NO_LABEL
当時は香辛料が貴重だったため、裁判官は貰った菓子を転売して収入を得ていたが、フランス革命によりこの賄賂性の強い風習は禁止された。	とーじわこーしんりょーがきちょーだったため、さいばんかんわもらったかしをてんばいしてしゅーにゅーをえていたが、ふらんすかくめいによりこのわいろせいのつよいふーしゅーわきんしされた。	NO_LABEL
家庭ではレモンや梅の実の短期保存に使われるほか、菓子として利用されるものが多く、マロングラッセのようにそのまま食べる場合や、アンゼリカのようにケーキやクッキーの飾り付けや風味付けに使われることも多い。	かていでわれもんやうめのみのたんきほぞんにつかわれるほか、かしとしてりよーされるものがおーく、まろんぐらっせのよーにそのままたべるばあいや、あんぜりかのよーにけーきやくっきーのかざりずけやふーみずけにつかわれることもおーい。	NO_LABEL
シトロンの皮の砂糖漬けのような発酵食品のほか、醤油などの塩分も併用した佃煮や漬物もある。	しとろんのかわのさとーずけのよーなはっこーしょくひんのほか、しょーゆなどのえんぶんもへいよーしたつくだにやつけものもある。	NO_LABEL
中国では適当な大きさに切った砂糖漬けを白湯に入れ、甘い飲料として中国茶と共に供することもある。	ちゅーごくでわてきとーなおーきさにきったさとーずけをさゆにいれ、あまいいんりょーとしてちゅーごくちゃとともにきょーすることもある。	NO_LABEL
