高松 剛太郎は、岡山県出身の元サッカー選手。	たかまつごうたろーわ、おかやまけんしゅっしんのもとさっかーせんしゅ。	NO_LABEL
ポジションは、FW。	ぽじしょんわ、ふぉわーど。	NO_LABEL
弟は、横河武蔵野FCに所属する高松健太郎。	おとーとわ、よこがわむさしのえふしーにしょぞくするたかまつけんたろー。	NO_LABEL
29||2||colspan="2"|-||||||||	NO_PRONOUNCE	NO_LABEL
colspan="2"|-||colspan="2"|-||||||||	NO_PRONOUNCE	NO_LABEL
