庵谷“出美流漫” 鷹志は、日本の男性キックボクサー、総合格闘家。	NO_PRONOUNCE	NO_LABEL
伊原道場所属の選手として新日本キックボクシング協会の興行で活躍。	いはらどーじょーしょぞくのせんしゅとしてしんにほんきっくぼくしんぐきょーかいのこーぎょーでかつやく。	NO_LABEL
Existing Break主催兼所属。	NO_PRONOUNCE	NO_LABEL
「自分にとってKO以外は勝利ではない！」と公言しており、勝利は絶対にKOに拘ることで知られる。	NO_PRONOUNCE	NO_LABEL
常にKOを狙う獰猛なファイトスタイルは非常に会場人気が高い。	つねにけいおーをねらうどーもーなふぁいとすたいるわひじょーにかいじょーにんきがたかい。	NO_LABEL
キックボクシングだけでなく、総合格闘技の経験もある。	きっくぼくしんぐだけでなく、そーごーかくとーぎのけいけんもある。	NO_LABEL
最初はシュートボクシングに所属。	さいしょわしゅーとぼくしんぐにしょぞく。	NO_LABEL
後にJ-NETWORKへ移籍。	ごにじぇいねっとわーくえいせき。	NO_LABEL
シュートボクシングとの移籍トラブルに発展し、日本で約4年間、試合が出来なくなってしまった。	しゅーとぼくしんぐとのいせきとらぶるにはってんし、にっぽんでやくよんねんかん、しあいができなくなってしまった。	NO_LABEL
2000年12月10日、新日本キックボクシング協会移籍初戦で米田克盛の弟・頼信と対戦し、3ダウンを奪いKO勝ちを収めた。	NO_PRONOUNCE	NO_LABEL
2001年3月31日、新日本キックボクシング協会・日本ウェルター級王座決定戦で米田克盛と対戦し、0-3の判定負けで王座獲得はならなかった。	NO_PRONOUNCE	NO_LABEL
2001年10月28日、新日本キックボクシング協会で頼信と再戦し、TKO勝ちを収めた。	にせんいちねんじゅーがつにじゅうはちにち、しんにほんきっくぼくしんぐきょーでよりのぶとさいせんし、てぃーけーおーがちをおさめた。	NO_LABEL
2002年1月27日、新日本キックボクシング協会で鷹山真吾と対戦し、0-3の判定負けを喫した。	NO_PRONOUNCE	NO_LABEL
2002年10月20日、新日本キックボクシング協会でメッケンナー・ソーキングスターと対戦し、KO勝ちを収めた。	NO_PRONOUNCE	NO_LABEL
当初は鷹山真吾と再戦予定であったが、鷹山の8kg以上の体重超過、負傷欠場により、試合当日に対戦相手が急遽変更となった。	とーしょわたかやましんごとさいせんよていであったが、よーざんのはちきろぐらむいじょーのたいじゅーちょーか、ふしょーけつじょーにより、しあいとーじつにたいせんあいてがきゅーきょへんこーとなった。	NO_LABEL
2003年1月26日、新日本キックボクシング協会・日本ウェルター級王者北沢勝に挑戦し、パンチ連打によるKO負けを喫し王座獲得はならなかった。	NO_PRONOUNCE	NO_LABEL
2005年1月16日、キングダム・エルガイツ「入江祭り2005」で大櫃達也とキングダム特別ルールで対戦し、ドローとなった。	NO_PRONOUNCE	NO_LABEL
2009年9月13日、リングネームを「庵谷デビルマン鷹志」として、「新☆四角いジャングル 〜ミスター格闘技降臨!!〜」に5年振りに復帰出場。	NO_PRONOUNCE	NO_LABEL
相良正幸にTKO負けを喫した。	さがらまさゆきにてぃーけーおーまけをきっした。	NO_LABEL
2010年3月、キックボクシングイベント「KICK the ROOTS」を我龍真吾、Masaru、紅闘志也と共に旗揚げすることを発表。	NO_PRONOUNCE	NO_LABEL
4月17日、旗揚げ興行に「庵谷“出美流漫”鷹志」として参戦。	NO_PRONOUNCE	NO_LABEL
SHOHEIから3ノックダウンを奪いTKO勝利を収めた。	NO_PRONOUNCE	NO_LABEL
2010年6月13日、KICK the ROOTSのWMF世界スーパーミドル級王座決定戦で再びSHOHEIと対戦。	NO_PRONOUNCE	NO_LABEL
2度のダウンを奪われた後に、カウント中SHOHEIがレフリーの制止を押しのけての反則攻撃。	にどのだうんをうばわれたのちに、かうんとちゅーしょうへいがれふりーのせいしをおしのけてのはんそくこーげき。	NO_LABEL
庵谷が試合続行不可能となった為ノーコンテストとなり、6月17日に行なわれた検証の結果「主催者預かり試合」として再戦が行われることが決定した。	NO_PRONOUNCE	NO_LABEL
2010年10月2日、「新☆四角いジャングル」でUKFキックボクシングインターナショナルスーパーミドル級王座決定戦として、バリー・ゲリンと対戦。	NO_PRONOUNCE	NO_LABEL
1Rで3ノックダウンを奪いTKO勝利、王者となった。	NO_PRONOUNCE	NO_LABEL
2010年12月23日、KICK the ROOTS 〜宇都宮キックボクシング2〜で6月に「主催者預かり試合」となっていたWMF世界スーパーミドル級王座決定戦でSHOHEIと対戦し、0-3の判定負け。	NO_PRONOUNCE	NO_LABEL
試合後のリング上で引退を示唆した。	しあいごのりんぐじょーでいんたいをしさした。	NO_LABEL
2012年7月7日、約2年振りに再度復帰を決意。	にせんじゅうにねんしちがつなのか、やくにねんふりにさいどふっきをけつい。	NO_LABEL
２階級制覇を狙いTRIBELATEライトヘビー級王座決定戦に挑むも、判定負け。	にかいきゅーせいはをねらいとりびゅれーとらいとへびーきゅーおーざけっていせんにいどむも、はんていまけ。	NO_LABEL
2012年11月10日、本来の自分の階級スーパーミドル級に落とす事を決意し、TRIBELATEスーパーミドル級王座決定戦に出場、1RTKOにより王座獲得。	NO_PRONOUNCE	NO_LABEL
2014年7月27日、試合動画を見た事から急に戦ってみたくなり、約２年振りにDBSにて試合、しかし80キロ契約を1キロオーバーしてしまい、試合には勝つものの、自分が相手選手に散々体重オーバーされて来た事を文句言っていたケジメとして、１年間の出場停止を自らに課す。	NO_PRONOUNCE	NO_LABEL
この年齢での１年と言う月日を考え、試合はもうしないだろうと思う。	このねんれいでのいちねんというつきひをかんがえ、しあいわもーしないだろうとおもう。	NO_LABEL
2016年5月15日、昵懇の方のキック団体SKKBを見に行った事をきっかけに、試合してみたい、まだ体が辛うじて動くと感じ、約2年振りに再起。	NO_PRONOUNCE	NO_LABEL
前回オーバーした80キロ契約と同じ体重で、SKKBライトヘビー級王座決定戦に挑む事を決めるも、自分へのケジメとして、前回オーバーした1キロ分マイナスにして、計量をパス。	NO_PRONOUNCE	NO_LABEL
試合はパワー負けし、判定負けをする。	しあいわぱわーまけし、はんていまけをする。	NO_LABEL
2017年7月9日、１年以上怪我等に悩まされが、SKKBスーパーミドル級王座決定戦に出場。	NO_PRONOUNCE	NO_LABEL
SKKBのスーパーミドル級が、本来のボクシングやキックボクシングのスーパーミドル級の体重より1キロ以上軽い体重設定に、減量に相当苦労するが、試合では王座奪取。	NO_PRONOUNCE	NO_LABEL
デビューからの勝ち星全KOを20に伸ばし、戦績を35戦20勝15敗20KOとする。	NO_PRONOUNCE	NO_LABEL
携帯で撮影して自身のブログで公開、オタクに対し「死ねば良いのに」と言い放ったことを書き込んだ。	NO_PRONOUNCE	NO_LABEL
これを匿名で注意してきた相手に対し、「人に意見をするなら、私は自分の名前を出してホームページをやっているのだから、先ずは自分も名乗るのが筋だろう」と意見したところ、逆恨みを受け2ちゃんねるに一方的な文を掲載され、これが2ちゃんねるで大きく取り上げられ、ブログは炎上した。	NO_PRONOUNCE	NO_LABEL
過去の日記にも飛び火し、格闘技を始める以前の少年時代の粗暴行為を、格闘家が喧嘩していると勘違いされたり、ナンパした女性との同意の出来事を、一方的にレイプだと言いがかりを付けられる等、根拠の無い事実を書き込まれ、2ちゃんねるとホームページでの炎上に発展した	かこのにっきにもとびひし、かくとーぎをはじめるいぜんのしょーねんじだいのそぼーこーいを、かくとーかおんながけんかしているとかんちがいされたり、なんぱしたじょせいとのどーいのできごとを、いっぽーてきにれいぷだといーがかりをつけられるひとし、こんきょのないじじつをかきこまれ、にちゃんねるとほーむぺーじでのえんじょーにはってんした	NO_LABEL
大量の2ちゃんねら〜がホームページの掲示板やメールに押し寄せ、謝罪を要求されたが、最後迄１度も、関係の無い誰だか解らない奴には、首の骨が折れるまで下げる頭は無い！	NO_PRONOUNCE	NO_LABEL
と、大炎上しながらも終焉迄抵抗し続けた。	と、だいえんじょーしながらもしゅーえんまでていこーしつずけた。	NO_LABEL
