小山 金七は、日本の警察官。	こやまきんしちわ、にっぽんのけいさつかん。	NO_LABEL
「落とし」の名刑事といわれる。	NO_PRONOUNCE	NO_LABEL
宮城県石巻市生まれ。	みやぎけんいしのまきしうまれ。	NO_LABEL
宮城県立飯野川高等学校定時制卒業。	みやぎけんりついーのがわこーとーがっこーていじせいそつぎょー。	NO_LABEL
1962年警視庁巡査。	せんきゅうひゃくろくじゅうにねんけいしちょーじゅんさ。	NO_LABEL
1963年上野警察署警ら係、1967年同署刑事課捜査係。	せんきゅうひゃくろくじゅうさんねんうえのけいさつしょけいらがかり、せんきゅうひゃくろくじゅうななねどーしょけいじかそーさがかり。	NO_LABEL
1973年警視庁巡査部長、尾久警察署刑事課捜査係。	せんきゅうひゃくななじゅうさんねんけいしちょーじゅんさぶちょー、おぐけいさつしょけいじかそーさがかり。	NO_LABEL
1976年刑事部捜査第一課。	せんきゅうひゃくななじゅうろくねんけいじぶそーさだいいちか。	NO_LABEL
以後、丸の内警察署刑事課捜査係長、刑事部捜査第一課主任、小松川警察署刑事課長代理、刑事部捜査第一課係長、八王子警察署刑事課長、刑事部捜査第一課管理官を歴任。	いご、まるのーちけいさつしょけいじかそーさかかりちょー、けいじぶそーさだいいちかしゅにん、こまつがわけいさつしょけいじかちょーだいり、けいじぶそーさだいいちかかかりちょー、はちおーじけいさつしょけいじかちょー、けいじぶそーさだいいちかかんりかんをれきにん。	NO_LABEL
巡査部長、警部補、警部、警視の各階級で通算17年間にわたり刑事部捜査第一課に所属し、ロス疑惑、坂本弁護士一家殺人事件、トリカブト殺人事件、地下鉄サリン事件、警察庁長官狙撃事件などを担当した。	じゅんさぶちょー、けいぶほ、けいぶ、けいしのかくかいきゅーでつーさんじゅうななねんかんにわたりけいじぶそーさだいいちかにしょぞくし、ろすぎわく、さかもとべんごしいっかさつじんじけん、とりかぶとさつじんじけん、ちかてつさりんじけん、けいさつちょーちょーかんそげきじけんなどをたんとーした。	NO_LABEL
定年退職を前に、胃癌で死去。	ていねんたいしょくをまえに、いがんでしきょ。	NO_LABEL
