『恥辱診察室』は、2002年6月21日にアトリエかぐや Berkshire Yorkshireから発売された18禁陵辱アドベンチャーゲームである。	NO_PRONOUNCE	NO_LABEL
また、2003年5月25日と同年9月25日にはミルキーレーベルから全2巻のアダルトアニメ版が発売された。	また、にせんさんねんごがつにじゅうごにちとどーねんくがつにじゅうごにちにわみるきーれーべるからぜんにかんのあだるとあにめばんがはつばいされた。	NO_LABEL
2004年5月28日には、DVD版が発売された。	にせんよねんごがつにじゅうはちにちにわ、でぃーぶいでぃーばんがはつばいされた。	NO_LABEL
声優陣が一新されているが、旧作の音声も収録されており、切り替え操作が可能となっている。	せいゆーじんがいっしんされているが、きゅーさくのおんせいもしゅーろくされており、きりかえそーさがかのーとなっている。	NO_LABEL
本作の診察シーンはミニゲームとなっており、ターゲットになる女性患者の特定の3箇所をマウスカーソルでつまんだり引っ張ったりといった行為を繰り返しながら性感を高め、部分アニメーションや喘ぎ声で臨場感を出している。	NO_PRONOUNCE	NO_LABEL
陵辱治療を得意とする闇医者、石田真治は経営難に陥った長塚病院を立て直すべく、院長に依頼されてやってくる。	りょーじょくちりょーをとくいとするやみいしゃ、いしだしんじわけいえいなんにおちいったながつかびょーいんをたてなおすべく、いんちょーにいらいされてやってくる。	NO_LABEL
真治は金持ちの女性に陵辱的な治療を行いながらも次々と女性を魅了し、病院の経営を立て直していく。	しんじわかねもちのじょせいにりょーじょくてきなちりょーをおこないながらもつぎつぎとじょせいをみりょーし、びょーいんのけいえいをたてなおしていく。	NO_LABEL
声優はDVD版/OVA版の順を表記。	NO_PRONOUNCE	NO_LABEL
18歳未満閲覧禁止	じゅうはっさいみまんえつらんきんし	NO_LABEL
