土井 利厚- 文政5年6月24日）は、江戸時代後期の大名、老中。	NO_PRONOUNCE	NO_LABEL
下総古河藩第3代藩主。	しもーさこがはんだいさんだいはんしゅ。	NO_LABEL
土井家宗家10代。	どいかそーけじゅうだい。	NO_LABEL
摂津尼崎藩主・松平忠名の四男。	NO_PRONOUNCE	NO_LABEL
正室は板倉勝清の養女。	せいしつわいたくらかつきよのよーじょ。	NO_LABEL
子に土井利之、土井利広、娘、娘。	こにどいとしゆき、どいとしひろ、むすめ、むすめ	NO_LABEL
従四位下侍従・大炊頭。	NO_PRONOUNCE	NO_LABEL
古河藩主土井利見の養嗣子となり、はじめ利和と名乗る。	ふるかわはんしゅどいとしみのよーししとなり、はじめとしかずとなのる。	NO_LABEL
利見が相続後1ヶ月足らずで没した後襲封し、その後45年の長きにわたり古河藩主となった。	NO_PRONOUNCE	NO_LABEL
この間、寺社奉行、京都所司代、老中などの重職を歴任し、1万石の加増も得た。	NO_PRONOUNCE	NO_LABEL
土井家から老中が出たのは利房以来のことであった。	どいかからろーじゅーがでたのわりぼーいらいのことであった。	NO_LABEL
利厚には跡継ぎがいなかったため、分家の三河刈谷藩主土井利徳の四男・利位を養嗣子に迎えた。	NO_PRONOUNCE	NO_LABEL
