モーションコントロールカメラ () は、コンピューターによりフレーム単位で制御される主としてSFXなどに使われる合成素材を撮影するために使われる特殊な映画用カメラ、あるいはそのシステムの総称。	もーしょんこんとろーるかめらかっこわ、こんぴゅーたーによりふれーむたんいでせいぎょされるあるじとしてえすえふえっくすなどにつかわれるごーせいそざいをさつえいするためにつかわれるとくしゅなえいがよーかめら、あるいわそのしすてむのそーしょー。	NO_LABEL
モーションコントロール撮影は、数値制御装置の一種で、コンピュータでコントロールパルスを出力しサーボモーターやステッピングモーターを動かし、カメラや被写体の位置をプログラムして撮影を行う。	もーしょんこんとろーるさつえいわ、すーちせいぎょそーちのいっしゅで、こんぴゅーたでこんとろーるぱるすをしゅつりょくしさーぼもーたーやすてっぴんぐもーたーをうごかし、かめらやひしゃたいのいちをぷろぐらむしてさつえいをおこなう。	NO_LABEL
基本的にはコンピューターでカメラのシャッター軸と移動するカメラと被写体の位置が撮影フレームごとに制御されており、何度やっても同じ場所に来るものをモーションコントロールカメラという。	きほんてきにわこんぴゅーたーでかめらのしゃったーじくといどーするかめらとひしゃたいのいちがさつえいふれーむごとにせいぎょされており、なんどやってもおなじばしょにくるものをもーしょんこんとろーるかめらという。	NO_LABEL
世界中で使われている最も有名なモーションコントロールシステムはクーパーコントロール社である。	せかいじゅーでつかわれているもっともゆーめいなもーしょんこんとろーるしすてむわくーぱーこんとろーるしゃである。	NO_LABEL
カメラボディのシャッター軸制御まで及ばないものは、たとえキャメラを動かしていても、モーションコントロールカメラではなく、モーションコントロールと呼ぶべきである。	かめらぼでぃのしゃったーじくせいぎょまでおよばないものわ、たとえきゃめらをうごかしていても、もーしょんこんとろーるかめらでわなく、もーしょんこんとろーるとよぶべきである。	NO_LABEL
理由はカメラのフィルムを動かすシャッター軸と他のモーションコントロールされた部分が無関係に動けば、撮影条件を変えて何度も反復撮影しても、フレーム単位での完全に正確な位置合わせなど不可能だからである。	りゆーわかめらのふぃるむをうごかすしゃったーじくとたのもーしょんこんとろーるされたぶぶんがむかんけいにうごけば、さつえいじょーけんをかえてなんどもはんぷくさつえいしても、ふれーむたんいでのかんぜんにせいかくないちあわせなどふかのーだからである。	NO_LABEL
モーションコントロールカメラによる撮影では、人間の手による操作と違い、動きに再現性があるため、精密な合成素材を得ることができる。	もーしょんこんとろーるかめらによるさつえいでわ、にんげんのてによるそーさとちがい、うごきにさいげんせいがあるため、せいみつなごーせいそざいをえることができる。	NO_LABEL
たとえば、ぴったり一致する「宇宙船」と「宇宙船の輪郭を切り出したマスク」を得るなどのことが可能となる。	NO_PRONOUNCE	NO_LABEL
そのため、モーションコントロールカメラの導入によって合成を前提とした映像作品のクォリティが格段にあがった。	そのため、もーしょんこんとろーるかめらのどーにゅーによってごーせいをぜんていとしたえいぞーさくひんのくぉりてぃがかくだんにあがった。	NO_LABEL
日本の場合、たいていはその都度、要求に応じて部品から組み立てて使われる。	にっぽんのばあい、たいていわそのつど、よーきゅーにおーじてぶひんからくみたててつかわれる。	NO_LABEL
クレーン・移動車などがある。	NO_PRONOUNCE	NO_LABEL
また、カメラの側ではなく被写体の側の動きを制御することや、カメラと被写体の両方を制御することなども含まれるが、ほとんどの場合カメラのシャッター軸は制御されない。	また、かめらのがわでわなくひしゃたいのがわのうごきをせいぎょすることや、かめらとひしゃたいのりょーほーをせいぎょすることなどもふくまれるが、ほとんどのばあいかめらのしゃったーじくわせいぎょされない。	NO_LABEL
撮影する被写体によってモーションコントロールカメラのタイプは大きく二つに分かれる。	さつえいするひしゃたいによってもーしょんこんとろーるかめらのたいぷわおーきくふたつにわかれる。	NO_LABEL
撮影中に形を変える事のないミニチュア等を例えば１コマ当たり１秒の露光時間で撮影する。	さつえいちゅーにかたちをかえることのないみにちゅあとーをたとえばいちこまあたりいちびょーのろこーじかんでさつえいする。	NO_LABEL
ミニチュアに熱変形等の無い低光量で、深い被写界深度を得る為に絞り込み撮影すると必然的にシャッタースピードは遅くせざるを得ないし、ゆっくり動かす事により振動などの問題からも回避する事が出来た。	みにちゅあにねつへんけいとーのないていひかりりょーで、ふかいひしゃかいしんどをえるためにしぼりこみさつえいするとひつぜんてきにしゃったーすぴーどわおそくせざるをえないし、ゆっくりうごかすことによりしんどーなどのもんだいからもかいひすることができた。	NO_LABEL
このタイプには、ダイクストラフレックス、ムースフレックス、C-CAM等がある。	NO_PRONOUNCE	NO_LABEL
人が芝居をする中、通常のカメラのように撮影出来る。	ひとがしばいをするなか、つーじょーのかめらのよーにさつえいできる。	NO_LABEL
いわゆるクレーン／移動撮影がモーションコントロールで可能なもの。	NO_PRONOUNCE	NO_LABEL
もちろんフレームレートを変えて撮影し１つの画面に納める事も出来るを内蔵した専用のパン棒を操作してリアルタイムにカメラの動きを入力できるようになっている。	もちろんふれーむれーとをかえてさつえいしひとつのがめんにおさめることもできるをないぞーしたせんよーのぱんぼーをそーさしてりあるたいむにかめらのうごきをにゅーりょくできるよーになっている。	NO_LABEL
このタイプには、MILO、ビスタグライドシステム 等がある。	このたいぷにわ、みろ、びすたぐらいどしすてむとーがある。	NO_LABEL
ビスタグライドシムテムはカメラにまったく同じ動きをさせる原理を利用し、同じ役者を1画面に複数登場させることを可能とした。	NO_PRONOUNCE	NO_LABEL
フィルムの境目をぼかしつつ、マスク処理を施すことで自然な合成が可能であった。	ふぃるむのさかいめをぼかしつつ、ますくしょりをほどこすことでしぜんなごーせいがかのーであった。	NO_LABEL
以前から1つの画面に同じ役者を登場させる技術はあったがカメラは固定しなければならず境目も直線であった。	いぜんからひとつのがめんにおなじやくしゃをとーじょーさせるぎじゅつわあったがかめらわこていしなければならずさかいめもちょくせんであった。	NO_LABEL
この技術ではカメラを動かせるようになり、演出の幅が広がった。	このぎじゅつでわかめらをうごかせるよーになり、えんしゅつのはばがひろがった。	NO_LABEL
この様に高度に発達してきた技術ではあるがマッチムーブ技術が一般的になった現在、このリアルタイムモーションコントロール撮影はCG技術に取って代わる局面が圧倒的に増えてきている。	このよーにこーどにはったつしてきたぎじゅつでわあるがまっちむーぶぎじゅつがいっぱんてきになったげんざい、このりあるたいむもーしょんこんとろーるさつえいわしーじーぎじゅつにとってかわるきょくめんがあっとーてきにふえてきている。	NO_LABEL
一般にモーションコントロール／モーションコントロールカメラはセットアップ、撤収、動きのプログラムに時間が掛かる為、一般撮影よりも余裕を持ったスケジュールを組まなければならない。	NO_PRONOUNCE	NO_LABEL
ミニチュアなどは専門のスタジオが用意されていた。	みにちゅあなどわせんもんのすたじおがよーいされていた。	NO_LABEL
従って日本では劇映画ではあまり使用される事はなく、主に比較的予算のあるコマーシャル等に利用されている。	したがってにっぽんでわげきえいがでわあまりしよーされることわなく、おもにひかくてきよさんのあるこまーしゃるとーにりよーされている。	NO_LABEL
モーションコントロール技術は日米では大きな開きが最初からあった。	もーしょんこんとろーるぎじゅつわにちべいでわおーきなひらきがさいしょからあった。	NO_LABEL
『未知との遭遇』『スター・ウォーズ』に初めて開発、採用されたモーションコントロールカメラの刺激を受けて日本国内のいくつかの劇場映画作品で模倣したが、その本質まで模倣しきれずに不完全な結果に終わった。	NO_PRONOUNCE	NO_LABEL
その理由として既存の機材＝産業ロボットの流用、ラボ＝現像所の技術的問題などがその原因であろう。	NO_PRONOUNCE	NO_LABEL
日本での利用実績は、1984年公開の東宝映画『さよならジュピター』に始まると言われる。	NO_PRONOUNCE	NO_LABEL
ここではアマダのティーチングプレイバックロボットが流用された。	ここでわあまだのてぃーちんぐぷれいばっくろぼっとがりゅーよーされた。	NO_LABEL
数年後にIMAGICA等のラボやアニメーションスタッフルーム、白組等が自社でモーションコントロールカメラシステムを開発し、少しずつ問題を解決していった。	すーねんごにいまじかとーのらぼやあにめーしょんすたっふるーむ、しろぐみとーがじしゃでもーしょんこんとろーるかめらしすてむをかいはつし、すこしずつもんだいをかいけつしていった。	NO_LABEL
ストップモーション・アニメーションは、ひとコマごとに撮影位置を決め、静止した被写体を撮影するというスタイルのものであった。	すとっぷもーしょんあにめーしょんわ、ひとこまごとにさつえいいちをきめ、せいししたひしゃたいをさつえいするとゆうすたいるのものであった。	NO_LABEL
これは、被写体ブレが生じないため、特に速い動きのアニメーションでは不自然な映像となってしまう。	これわ、ひしゃたいぶれがしょーじないため、とくにはやいうごきのあにめーしょんでわふしぜんなえいぞーとなってしまう。	NO_LABEL
そこでシャッターが開いている時間にもキャメラと被写体を動かす事が出来るモーションコントロールカメラを使うアイデアが登場した。	そこでしゃったーがひらいているじかんにもきゃめらとひしゃたいをうごかすことができるもーしょんこんとろーるかめらをつかうあいであがとーじょーした。	NO_LABEL
これを「ゴー・モーション」という。	NO_PRONOUNCE	NO_LABEL
しかし、その効果の割に大変なセットアップの手間と被写体の全ての動きをゴーモーション化出来るわけではないので、すぐに廃れてしまった。	しかし、そのこーかのわりにたいへんなせっとあっぷのてまとひしゃたいのすべてのうごきをごーもーしょんかできるわけでわないので、すぐにすたれてしまった。	NO_LABEL
　「MILO」の業務を2010年6月末日をもって終了	NO_PRONOUNCE	NO_LABEL
