マイク・ポズナーは、アメリカ合衆国の男性シンガーソングライターである。	まいくぽずなーわ、あめりかがっしゅーこくのだんせいしんがーそんぐらいたーである。	NO_LABEL
2008年から地元の友人であったラッパー、ビッグ・ショーンと共に制作活動を開始したポズナーは2009年にミックステープ『ア・マター・オブ・タイム』を発表し、音楽業界から大きな注目を浴びた。	NO_PRONOUNCE	NO_LABEL
2010年4月にはデビューシングルとして『クーラー・ザン・ミー』を発表、アメリカで年間19位、イギリスで年間33位など世界中で大ヒットを記録し、世間に一躍名を知られるようになった。	NO_PRONOUNCE	NO_LABEL
翌月にはセカンドシングル『プリーズ・ドント・ゴー』を発表、前作ほどのヒットには至らないものの多くの国でゴールド・プラチナム認定された。	NO_PRONOUNCE	NO_LABEL
同年8月にファーストアルバム『31ミニッツ・トゥ・テイクオフ』を発売、アメリカで初週に約3万枚の売り上げを記録し、8位のヒット。	NO_PRONOUNCE	NO_LABEL
その後、ヒットに恵まれない時期が続くものの、ソングライターとしての才能を発揮、ジャスティン・ビーバーの『ボーイフレンド』やマルーン5の『シュガー』等、多くのヒット作を生み出す。	NO_PRONOUNCE	NO_LABEL
2015年6月には久々の作品、『ザ・トゥルース（EP)』を発表。	NO_PRONOUNCE	NO_LABEL
翌月に『ザ・トゥルース』からのリードシングルとして『アイ・トゥック・ア・ピル・イン・イビザ』を発表、ノルウェーのDJ・SeeBによるリミックスが収録され、このリミックスがスカンディナビア半島を中心にヒット。	NO_PRONOUNCE	NO_LABEL
段々と世界中でチャートを上り、2016年4月にはイギリスで1位、アメリカで6位などの大ヒット作となり、見事カムバックを果たす。	だんだんとせかいじゅーでちゃーとをのぼり、にせんじゅうろくねんしがつにわいぎりすでいちー、あめりかでろくいなどのだいひっとさくとなり、みごとかむばっくをはたす。	NO_LABEL
またこの曲は2016年年間Billboard Hot 100で15位を記録している。	NO_PRONOUNCE	NO_LABEL
このヒットと共に初めはセールスが振るわなかった『ザ・トゥルース』もアメリカで32位、カナダで15位のヒット作となった。	NO_PRONOUNCE	NO_LABEL
2016年5月にはセカンドアルバム『アット・ナイト、アローン。	NO_PRONOUNCE	NO_LABEL
』を発売し、2016年の米年間チャートでは163位を記録。	NO_PRONOUNCE	NO_LABEL
