『プリースト』は、2011年のアメリカのホラーアクション映画。	NO_PRONOUNCE	NO_LABEL
韓国の漫画家ヒョン民友のマンファ『』を原作としている。	NO_PRONOUNCE	NO_LABEL
何世紀にもわたりバンパイアと戦い続けていた人類は、高い防壁に囲まれ、教会の司祭たちが住民を支配する都市ディストピアで暮らしていた。	なにせいきにもわたりばんぱいあとたたかいつずけていたじんるいわ、たかいぼーへきにかこまれ、きょーかいのしさいたちがじゅーみんをしはいするとしでぃすとぴあでくらしていた。	NO_LABEL
教会の司祭で伝説の戦士と名高いプリーストは、ある日、街の外で人々がバンパイアに襲われているという話を聞く。	きょーかいのしさいででんせつのせんしとなだかいぷりーすとわ、あるひ、まちのそとでひとびとがばんぱいあにおそわれているとゆうはなしをきく。	NO_LABEL
バンパイアは絶滅したと主張する教会の妨害を受けながらも、プリーストは街の外へ出てバンパイアの巣くつへと向かう。	ばんぱいあわぜつめつしたとしゅちょーするきょーかいのぼーがいをうけながらも、ぷりーすとわまちのそとえだしてばんぱいあのそーくつえとむかう。	NO_LABEL
主演ポール・ベタニーとスコット・スチュワート監督が、「レギオン」に続きタッグを組んだ3Dアクション。	NO_PRONOUNCE	NO_LABEL
