曲通村は、かつて新潟県西蒲原郡にあった村。	きょくどーりむらわ、かつてにーがたけんにしかんばらぐんにあったむら。	NO_LABEL
1906年4月1日の合併によって消滅し、現在は新潟市南区の一部となっている。	せんきゅうひゃくろくねんしがつついたちのがっぺいによってしょーめつし、げんざいわにーがたしみなみくのいちぶとなっている。	NO_LABEL
以下の記述は合併直前当時の旧曲通村に関しての記述であり、現在では名称等が異なる場合がある。	いかのきじゅつわがっぺいちょくぜんとーじのきゅーきょくどーりむらにかんしてのきじゅつであり、げんざいでわめいしょーとーがことなるばあいがある。	NO_LABEL
なお、ここに記述されていない内容に関しては新潟市などの記事を参照。	なお、ここにきじゅつされていないないよーにかんしてわにーがたしなどのきじをさんしょー。	NO_LABEL
曲通村は、合併した村名を継承する以下の大字で構成される。	きょくどーりむらわ、がっぺいしたむらなをけいしょーするいかのだいじでこーせいされる。	NO_LABEL
注釈	ちゅーしゃく	NO_LABEL
出典	しゅってん	NO_LABEL
