冨吉 榮二は、日本の政治家。	とみきちえいじわ、にっぽんのせいじか。	NO_LABEL
衆議院議員、逓信大臣などを歴任した。	しゅーぎーんぎーん、ていしんだいじんなどをれきにんした。	NO_LABEL
鹿児島県姶良郡国分町に生まれる。	かごしまけんあいらぐんこくぶちょーにうまれる。	NO_LABEL
私立研数学館高等科卒業後、私立精華学校の教師を務めていたが、2年で教師を辞職し、農民運動に従事する。	しりつすうがっかんこーとーかそつぎょーご、しりつせいかがっこーのきょーしをつとめていたが、にねんできょーしをじしょくし、のーみんうんどーにじゅーじする。	NO_LABEL
日本農民組合の鹿児島県連合会にて主事を務め、1924年には会長に就任する。	にほんのーみんくみあいとういつはのかごしまけんれんごーかいにてしゅじをつとめ、せんきゅうひゃくにじゅうよねんにわかいちょーにしゅーにんする。	NO_LABEL
県内で小作争議を指導し、たびたび検挙されたが、次第に農民の支持を集めるようになる。	けんないでこさくそーぎをしどーし、たびたびけんきょされたが、しだいにのーみんのしじをあつめるよーになる。	NO_LABEL
日本農民組合鹿児島県連合会は、労働農民党の結成にもかかわるなど、政治運動にも取り組むようになった。	にほんのーみんくみあいとういつはかごしまけんれんごーかいわ、ろーどーのーみんとーのけっせいにもかかわるなど、せいじうんどーにもとりくむよーになった。	NO_LABEL
1927年の鹿児島県会議員選挙に立候補し、当選を果たした。	せんきゅうひゃくにじゅうななねんのかごしまけんかいぎーんせんきょにりっこーほし、とーせんをはたした。	NO_LABEL
1936年の第19回衆議院議員総選挙では、鹿児島県第2区から立候補し、衆議院議員に初当選した。	せんきゅうひゃくさんじゅうろくねのだいじゅうきゅうかいしゅーぎーんぎーんそーせんきょでわ、かごしまけんだいにくからりっこーほし、しゅーぎーんぎーんにはつとーせんした。	NO_LABEL
同年に社会大衆党が創設されると、その中央執行委員および鹿児島県連合会会長に就任した。	どーねんにしゃかいたいしゅーとーがそーせつされると、そのちゅーおーしっこーいいんおよびかごしまけんれんごーかいかいちょーにしゅーにんした。	NO_LABEL
1937年の第20回衆議院議員総選挙ではトップ当選したが、1942年の第21回衆議院議員総選挙では無所属で出馬し、落選した。	せんきゅうひゃくさんじゅうななねのだいにじゅっかいしゅーぎーんぎーんそーせんきょでわとっぷとーせんしたが、せんきゅうひゃくよんじゅうにねんのだいにじゅういっかいしゅーぎーんぎーんそーせんきょでわむしょぞくでしゅつばし、らくせんした。	NO_LABEL
この選挙では、冨吉は、翼賛政治体制協議会の推薦を得ずに立候補したことから、政府から執拗な弾圧を受けたとして、大審院に選挙無効の訴えを起こし、1945年の終戦前に勝訴している。	このせんきょでわ、とみきちわ、よくさんせいじたいせいきょーぎかいのすいせんをえずにりっこーほしたことから、せいふからしつよーなだんあつをうけたとして、だいしんいんにせんきょむこーのうったえをおこし、せんきゅうひゃくよんじゅうごねんのしゅーせんまえにしょーそしている。	NO_LABEL
戦後、日本社会党から出馬し、衆議院議員に4回当選。	せんご、にっぽんしゃかいとーからしゅつばし、しゅーぎーんぎーんによんかいとーせん。	NO_LABEL
芦田内閣では逓信大臣として入閣した。	あしだないかくでわていしんだいじんとしてにゅーかくした。	NO_LABEL
1951年の日本社会党の分裂以後は、右派社会党に属し、党顧問を務めていたが、1954年9月26日、遊説先の北海道から東京への帰途、菊川忠雄と共に乗船した青函連絡船洞爺丸が折からの台風に遭遇し、函館市七重浜で沈没する海難事故の為に落命した。	せんきゅうひゃくごじゅういちねんのにっぽんしゃかいとーのぶんれついごわ、うはしゃかいとーにぞくし、とーこもんをつとめていたが、せんきゅうひゃくごじゅうよねんくがつにじゅうろくにち、ゆーぜいさきのほっかいどーからとーきょーえのきと、きくかわただおとともにじょーせんしたせいかんれんらくせんとーやまるがおりからのたいふーにそーぐーし、はこだてしななえはまでちんぼつするかいなんじこのためにらくめいした。	NO_LABEL
趣味は和歌で、「南風」という雅号を名乗って歌集も出版している。	NO_PRONOUNCE	NO_LABEL
相撲が好きで、。	NO_PRONOUNCE	NO_LABEL
