インド銀行は、インドの商業銀行の一つ。	いんどぎんこーわ、いんどのしょーぎょーぎんこーのひとつ。	NO_LABEL
1906年設立。	せんきゅうひゃくろくねんせつりつ。	NO_LABEL
インド国内に3,258支店、インド国外に29支店・営業拠点を展開。	NO_PRONOUNCE	NO_LABEL
日本では1950年5月17日に東京支店、同年10月20日に大阪支店が開設。	にっぽんでわせんきゅうひゃくごじゅうねんごがつじゅうしちにちにとーきょーしてん、どーねんじゅーがつはつかにおーさかしてんがかいせつ。	NO_LABEL
