瑤泉院- 正徳4年6月3日、生年については異説も）は、江戸時代中期の女性。	NO_PRONOUNCE	NO_LABEL
赤穂事件で知られる赤穂藩主浅野長矩の妻。	あこーじけんでしられるあこーはんしゅあさのながのりのつま。	NO_LABEL
名は阿久里、阿久理・阿久利とも。	NO_PRONOUNCE	NO_LABEL
夫の死後、落飾して瑤泉院と称した。	おっとのしご、らくしょくしてよーぜいいんとしょーした。	NO_LABEL
「ようぜいいん」と読まれることが多いが、これは冷泉家の「泉」を「ぜい」と読むことにつられた読み癖で、正しくは「ようぜんいん」と読む。	NO_PRONOUNCE	NO_LABEL
初代備後国三次藩主の浅野長治の三女。	しょだいびんごのくにみつぎはんしゅのあさのながはるのさんじょ。	NO_LABEL
父の死後、その跡を継いだ浅野長照の養女となった。	ちちのしご、そのあとをついだあさのながてるのよーじょとなった。	NO_LABEL
母は浅野長重の娘。	ははわあさのながしげのむすめ	NO_LABEL
はじめ尚姫と名づけられたが、のちに栗姫、阿久里姫と改名した。	はじめなおひめとなずけられたが、のちにくりひめ、あくりひめとかいめいした。	NO_LABEL
三次藩士の落合勝信がお付きの用人として付けられ、彼女の養育に当たった。	みつぎはんしのおちあいかつのぶがおつきのよーにんとしてつけられ、かのじょのよーいくにあたった。	NO_LABEL
生まれてすぐに播磨国赤穂藩主・浅野長矩との縁組が進められ、延宝5年9月に婚約が成立、延宝6年4月9日には婚儀に備えて長矩の屋敷へ移った。	NO_PRONOUNCE	NO_LABEL
天和3年正月に婚儀が執り行われて同年4月9日に正式に長矩室となった。	てんわさんねんしょーがつにこんぎがとりおこなわれてどーねんしがつここのかにせいしきにながのりしつとなった。	NO_LABEL
子には恵まれず元禄8年12月に長矩の弟浅野長広を養子としていた。	こにわめぐまれずげんろくはちねんじゅーにがつにながのりのおとーとあさのながひろをよーしとしていた。	NO_LABEL
しかし元禄14年3月14日、長矩が江戸城殿中で高家肝煎・吉良義央に刃傷に及ぶと、殿中抜刀の罪により即日切腹、赤穂藩は改易となる。	NO_PRONOUNCE	NO_LABEL
阿久里は16日には赤坂にある実家の三次浅野家下屋敷に引き取られ、落飾して夫の菩提を弔った。	あくりわじゅうろくにちにわあかさかにあるじっかのみつぎあさのかしもやしきにひきとられ、らくしょくしておっとのぼだいをとむらった。	NO_LABEL
元赤穂藩家老の大石良雄らが吉良邸討ち入りを決定すると、瑤泉院は自身の化粧料である赤穂の塩田から上がった運上銀を大石に託し、彼らの生活を陰ながら支えた。	もとあこーはんかろーのおーいしよしたからがきらていうちいりをけっていすると、よーぜいいんわじしんのけしょーりょーけわいりやうであるあこーのえんでんからあがったうんじょーぎんをおーいしにたくし、かれらのせいかつをかげながらささえた。	NO_LABEL
吉良を討ち取り後幕命により切腹となった赤穂浪士の遺児たちのうち、伊豆大島へ流された吉田伝内・間瀬定八・中村忠三郎・村松政右衛門の赦免運動にも尽力し、宝永3年8月将軍家綱の二十七回忌の機に前年に病死した間瀬を除く3名の恩赦を実現させた。	NO_PRONOUNCE	NO_LABEL
正徳4年、三次浅野家下屋敷で死去。	しょーとくよんねん、みつぎあさのかしもやしきでしきょ。	NO_LABEL
享年41。	NO_PRONOUNCE	NO_LABEL
夫と同じ江戸高輪泉岳寺に葬られた。	おっととおなじえどたかなわせんがくじにほーむられた。	NO_LABEL
戒名は瑤泉院殿良瑩正燈大姉。	NO_PRONOUNCE	NO_LABEL
生まれ故郷の三次の鳳源寺に、瑤泉院を供養した五輪の遺髪塔がある。	うまれこきょーのみつぎのほうげんじに、よーぜいいんをくよーしたごりんのいはつとーがある。	NO_LABEL
討ち入り直前に赤穂藩家老の大石良雄が赤坂・南部坂の瑤泉院のもとに赴くという「南部坂雪の別れ」は、『忠臣蔵』など赤穂事件を題材にした創作作品によく描かれるシーンだが、事実ではない。	NO_PRONOUNCE	NO_LABEL
浅野家改易後に大石が瑤泉院に拝謁したのは、討ち入りからだいぶ前の元禄14年11月14日の一度のみだった。	あさのかかいえきごにおーいしがよーぜいいんにはいえつしたのわ、うちいりからだいぶまえのげんろくじゅうよんねんじゅーいちがつじゅうよっかのいちどのみだった。	NO_LABEL
これは、大石が瑤泉院の結婚時の持参金を、浅野家の家名再興や討入りの運動資金として使用し、討入り直前にその収支決算書を瑤泉院の用人・落合勝信に提出したことが元になっているようである。	NO_PRONOUNCE	NO_LABEL
討ち入り前夜にこれらの書類を大石良雄の命で届けたのは、後世に「義僕」と呼ばれた近松行重の家僕の甚三郎である。	NO_PRONOUNCE	NO_LABEL
そもそも瑤泉院は当時、南部坂には住んでおらず、同じ赤坂の今井町にあるお里方の三次浅野家の下屋敷に引き取られていた。	そもそもよーぜいいんわとーじ、なんぶざかにわすんでおらず、おなじあかさかのいまいちょーにあるおさとかたのみつぎあさのかのしもやしきにひきとられていた。	NO_LABEL
この瑤泉院自前の三次領からの収益を、大石らの討ち入り費用に用立てたとする説もある。	このよーぜいいんじまえのみつぎりょーからのしゅーえきを、おーいしらのうちいりひよーによーだてたとするせつもある。	NO_LABEL
瑤泉院の生年、享年については『赤穂義士事典』の「浅野長矩年譜」、平尾孤城『人間赤穂浪士』、また瑤泉院の墓所の泉岳寺も享年41説で、延宝2年生まれということが定説となっている。	NO_PRONOUNCE	NO_LABEL
これに対し、赤穂大石神社の宮司を務め、 赤穂義士研究者でもあった飯尾精が異説を紹介している。	これにたいし、あこーおーいしじんじゃのぐーじをつとめ、あこーぎしけんきゅうしゃでもあったいーおきよしがいせつをしょーかいしている。	NO_LABEL
飯尾によると、全浅野家の記録で、浅野宗家に伝わる「三次分家済美録」では瑤泉院は寛文9年生まれであるという。	NO_PRONOUNCE	NO_LABEL
これが正しいとすれば、瑤泉院の享年は46で、夫の長矩とは2歳違いである。	NO_PRONOUNCE	NO_LABEL
他の義士研究団体『中央義士会』もこの説を踏襲している。	NO_PRONOUNCE	NO_LABEL
