イラネッチケーは、テレビジョン放送のうち日本放送協会のものだけを受信しないようにする帯域除去フィルタ機器である。	いらねっちけーわ、てれびじょんほうそーのうちにっぽんほーそーきょーかいのものだけをじゅしんしないよーにするたいいきじょきょふぃるたききである。	NO_LABEL
映像メディア工学専攻で筑波大学准教授掛谷英紀の研究室が開発した。	えいぞーめでぃあこーがくせんこーでつくばだいがくじゅんきょーじゅかけやひできのけんきゅーしつがかいはつした。	NO_LABEL
直径21mmほどの筒状の装置で、テレビ受像機のアンテナ入力端子などに取り付けると、NHKのテレビ周波数の放送波を遮断する。	ちょっけいにじゅういちみりめーとるほどのつつじょーのそーちで、てれびじゅぞーきのあんてなにゅーりょくたんしなどにとりつけると、えぬえいちけいのてれびしゅーはすーのほーそーはをしゃだんする。	NO_LABEL
作動原理は、アンテナのマッチング回路にLC回路を接続した帯域除去フィルタであり、これによりNHKの放送周波数のみ減衰できる。	さどーげんりわ、あんてなのまっちんぐかいろにえるしーかいろをせつぞくしたたいいきじょきょふぃるたであり、これによりえぬえいちけいのほーそーしゅーはすーのみげんすいできる。	NO_LABEL
NHK総合テレビジョン・NHK教育テレビジョンを対象とする関東地上波用とNHK BS1・NHK BSプレミアムを対象とするBS用が商品化され、2014年からインターネットで通信販売されている。	NO_PRONOUNCE	NO_LABEL
この機器を開発した研究室は、「NHKだけ映らないアンテナ」を開発しニコニコ超会議2015の「ニコニコ学会」ブースに出展、「研究してみたマッドネス部門」で大賞を受賞した。	NO_PRONOUNCE	NO_LABEL
現在、以下のものが市販されている。	げんざい、いかのものがしはんされている。	NO_LABEL
国会で従軍慰安婦問題に関する答弁が、中山成彬議員のみ著作権侵害を理由にNHKによってYouTubeから削除されたことを疑問視し、合法的にNHK受信料を拒否できるよう開発を決意したとしている。	こっかいでじゅーぐんいあんふもんだいにかんするとーべんが、なかやまなりあきぎいんのみちょさくけんしんがいをりゆーにえぬえいちけいによってゆーちゅーぶからさくじょされたことをぎもんしし、ごーほーてきにえぬえいちけいじゅしんりょーをきょひできるよーかいはつをけついしたとしている。	NO_LABEL
また、開発においてテレビ受像機では、NHK放送技術研究所が地上デジタル放送の特許権を所有している為、開発できないので、知的財産権の制約が少ないフィルタ回路を開発したとしている。	また、かいはつにおいててれびじゅぞーきでわ、えぬえっちけいほうそうぎじゅつけがちじょーでじたるほーそーのとっきょけんをしょゆーしているため、かいはつできないので、ちてきざいさんけんのせいやくがすくないふぃるたかいろをかいはつしたとしている。	NO_LABEL
イラネッチケーを使えば、NHKの放送が見られなくなるので、NHK受信料を払わなくても良いと、准教授の掛谷は述べている。	いらねっちけーをつかえば、えぬえいちけいのほーそーがみられなくなるので、えぬえいちけいじゅしんりょーをはらわなくてもよいと、じゅんきょーじゅのかけやわのべている。	NO_LABEL
弁護士の松浦亮介は「フィルターが着脱可能なことから、NHK受信料を支払わなくてよいという解釈は難しい」との見解を示している。	NO_PRONOUNCE	NO_LABEL
NHKも「アンテナが着脱可能なことから受信契約が必要」との見解を示している。	NO_PRONOUNCE	NO_LABEL
一方、開発者は「着脱不能にする方法もある」としている。	NO_PRONOUNCE	NO_LABEL
2015年6月1日、船橋市の元市議会議員である立花孝志がイラネッチケーを取り付けた上で、NHKとの受信契約が無いことを確認する為、東京地裁で債務不存在確認訴訟を起こした。	にせんじゅうごねんろくがつついたち、ふなばししのもとしぎかいぎーんであるたちばなたかしがいらねっちけーをとりつけたうえで、えぬえいちけいとのじゅしんけいやくがないことをかくにんするため、とーきょーちさいでさいむふそんざいかくにんそしょーをおこした。	NO_LABEL
2016年7月20日、東京地裁は、イラネッチケーを設置しても元に戻しNHKを受信できるとして、立花に対し、一か月分のNHK受信料の支払いを命じた。	にせんじゅうろくねんしちがつはつか、とーきょーちさいわ、いらねっちけーをせっちしてももとにもどしえぬえいちけいをじゅしんできるとして、りっかにたいし、いっかげつぶんのえぬえいちけいじゅしんりょーのしはらいをめいじた。	NO_LABEL
これを受けて、原告は控訴を行った。	これをうけて、げんこくわこーそをおこなった。	NO_LABEL
2017年1月19日、7月20日の判決をうけ、立花が8月にイラネッチケーを取り外せない機構を再考、設置を行ったが、NHKより8月～9月の請求を行ったため、立花は東京地裁に受信料の支払う必要がないものとして訴訟をおこした。	NO_PRONOUNCE	NO_LABEL
東京地裁は原告である立花に対し NHKがイラネッチケーを取り付けた受信機に対する取扱いについて一切の回答を行わない都度の姿勢であるため、原告に支払い義務が発生するものではないと判断できるとし、NHKの請求を不当と判断した。	とーきょーちさいわげんこくであるたちばなにたいしえぬえいちけいがいらねっちけーをとりつけたじゅしんきにたいするとりあつかいについていっさいのかいとーをおこなわないつどのしせいであるため、げんこくにしはらいぎむがはっせいするものでわないとはんだんできるとし、えぬえいちけいのせいきゅーをふとーとはんだんした。	NO_LABEL
