国際スリラー作家協会は、2004年10月9日、カナダ・トロントで開催された第35回バウチャーコンの席上で発足した、スリラー作家の団体。	NO_PRONOUNCE	NO_LABEL
6か月後、世界中で10億冊の売り上げを誇る約150名の作家が創設メンバーとして加入した。	NO_PRONOUNCE	NO_LABEL
2014年10月5日、公式サイトにて、会員数は28か国、3100名以上に上ることが発表された。	NO_PRONOUNCE	NO_LABEL
共同創設者であるとディヴィッド・マレルは、初代理事長を共同で務めた。	NO_PRONOUNCE	NO_LABEL
他の会員に、、、デイル・ブラウン、サンドラ・ブラウン、、ブライアン・ガーフィールド、デイヴィッド・リス、リー・チャイルド、、クライブ・カッスラー、、ジョセフ・ファインダー、テス・ジェリッツェン、、、フェイ・ケラーマン、ジョナサン・ケラーマン、、、、、、、R・L・スタイン、M・ダイアン・フォークト、など。	NO_PRONOUNCE	NO_LABEL
スリラー作家の団体として組織化されたのは初めてである。	すりらーさっかのだんたいとしてそしきかされたのわはじめてである。	NO_LABEL
読者向けのスリラー・フェスティバルが2006年6月にアリゾナ州スコッツデールで初めて催され、優れたスリラー作品に送られる国際スリラー作家協会賞が発表された。	NO_PRONOUNCE	NO_LABEL
ジェイムズ・パタースンは、全て新作のスリラー小説の短編アンソロジー"""" を2006年6月にから上梓した 。	NO_PRONOUNCE	NO_LABEL
以後、クライヴ・カッスラーが、シリーズ第2作"""" を2009年5月26日に、サンドラ・ブラウンがシリーズ第3作"""" を2012年5月29日に同社より上梓した。	NO_PRONOUNCE	NO_LABEL
