ときわは、防衛庁技術研究本部が保有していた実験艇。	ときわわ、ぼーえいちょーぎじゅつけんきゅーほんぶがほゆーしていたじっけんてい。	NO_LABEL
第二次世界大戦後、掃海艇は木造船とされることが多くなっていたが、木材の高騰と木船建造技術者の減少を受けて、1970年代より、ヨーロッパを中心として掃海艇のFRP化が志向されるようになっていた。	だいにじせかいたいせんご、そーかいていわもくぞーせんとされることがおーくなっていたが、もくざいのこーとーときふねけんぞーぎじゅつしゃのげんしょーをうけて、せんきゅうひゃくななじゅうねんだいより、よーろっぱをちゅーしんとしてそーかいていのえふあーるぴーかがしこーされるよーになっていた。	NO_LABEL
この趨勢を受けて防衛庁技術研究本部も、昭和48年度より「繊維強化プラスチック艇」に関する研究開発を進めており、1978年にははつしま型の機関部と同寸法の船体が試作された。	NO_PRONOUNCE	NO_LABEL
これは翌年より静的・動的強度試験に供され、特に耐爆試験においては、掃海隊群関係者に大きな感銘を与える結果となった。	NO_PRONOUNCE	NO_LABEL
これらの研究開発の集大成として、昭和55年度より、部分模型の試験と並行して実験艇の建造が開始された。	これらのけんきゅーかいはつのしゅーたいせいとして、しょーわごじゅうごねんどより、ぶぶんもけいのしけんとへいこーしてじっけんていのけんぞーがかいしされた。	NO_LABEL
これによって建造されたのが本船である。	これによってけんぞーされたのがほんせんである。	NO_LABEL
掃海艇のガラス繊維強化プラスチック化を検討するために建造された。	そーかいていのがらすせんいきょーかぷらすちっくかをけんとーするためにけんぞーされた。	NO_LABEL
外板はチョップド・ストランド・マットとロービングクロスを交互に貼りあわせたMR-FRPの単板、構造様式としては、船底を縦式構造、船側および甲板を横肋骨構造としたコンバインド構造が採用された。	NO_PRONOUNCE	NO_LABEL
船型は前後にシアの目立つ平甲板型とされている。	せんけいわぜんごにしあのめだつひらかんぱんがたとされている。	NO_LABEL
掃海艇と似た上部構造物を備えており、全体的な印象はあただ型掃海艇に似たものとなっている。	そーかいていとにたじょーぶこうぞーぶつをそなえており、ぜんたいてきないんしょーわあただがたそーかいていににたものとなっている。	NO_LABEL
兵装を除けば、艇内の配置はおおむね掃海艇と同様のものとされた。	へいそーをのぞけば、ていないのはいちわおーむねそーかいていとどーよーのものとされた。	NO_LABEL
竣工後、昭和57年度には酷暑および厳寒海域において長期運航試験を行いつつ、各種の試験を行った。	しゅんこーご、しょーわごじゅうななねんどにわこくしょおよびげんかんかいいきにおいてちょーきうんこーしけんをおこないつつ、かくしゅのしけんをおこなった。	NO_LABEL
内容は局部振動・局部強度試験、音響透過試験、振動試験、波浪中航走試験、荒天下航行試験などであった。	NO_PRONOUNCE	NO_LABEL
しかしこの実艇試験において、当時の技術では、FRPの構造的連続性に伴う水中放射雑音の大きさという宿命的な問題を克服できないことが明らかになり、この時点では採用は見送られることになった。	しかしこのみていしけんにおいて、とーじのぎじゅつでわ、えふあーるぴーのこーぞーてきれんぞくせいにともなうすいちゅーほーしゃざつおんのおーきさとゆうしゅくめいてきなもんだいをこくふくできないことがあきらかになり、このじてんでわさいよーわみおくられることになった。	NO_LABEL
実際のFRP製掃海艇の採用は、技術が成熟した21世紀に入ってからのえのしま型まで待つこととなった。	じっさいのえふあーるぴーせいそーかいていのさいよーわ、ぎじゅつがせいじゅくしたにじゅういっせいきにはいってからのえのしまがたまでまつこととなった。	NO_LABEL
なお本船は、試験終了後は練習船12号として居住区を拡充するなどの改装を受け、1983年より江田島市の海上自衛隊第1術科学校で運用されることになる。	なおほんせんわ、しけんしゅーりょーごわれんしゅーせんじゅうにごーとしてきょじゅーくをかくじゅーするなどのかいそーをうけ、せんきゅうひゃくはちじゅうさんねんよりえたじましのかいじょーじえいたいだいいちじゅっかがっこーでうんよーされることになる。	NO_LABEL
2016年3月22日に除籍され「ときわ」として生まれ33年余り、第一術科学校及び幹部候補生学校の学生延べ20900名、1574回の航海訓練に携わった。	NO_PRONOUNCE	NO_LABEL
総航程は地球約9.6周分に及ぶ208,016マイルに及んだ。	NO_PRONOUNCE	NO_LABEL
