酒井 忠吉- 寛文3年5月6日）は、江戸時代初期の幕府旗本寄合。	NO_PRONOUNCE	NO_LABEL
官位は従五位上、和泉守のち紀伊守。	かんいわじゅうごいのじょー、いずみまもるのちきいもり。	NO_LABEL
幼名は小鍋。	よーめいわこなべ。	NO_LABEL
若狭の国持大名である大老酒井忠勝の弟。	わかさのくにもちだいみょーであるたいろーさかいただかつのおとーと。	NO_LABEL
酒井忠利の次男として誕生。	さかいただとしのじなんとしてたんじょー。	NO_LABEL
母は鈴木重直の娘。	ははわすずきしげなおのむすめ	NO_LABEL
大老酒井忠勝の同母弟にあたる。	たいろーさかいただかつのどーぼおとーとにあたる。	NO_LABEL
慶長6年に13歳で徳川秀忠に召され、のち下総のうち500石を賜り、御書院番として仕えた。	NO_PRONOUNCE	NO_LABEL
元和元年5月、大坂夏の陣に従軍して初陣。	がんわがんねんごがつ、おーさかなつのじんにじゅーぐんしてういじん。	NO_LABEL
寛永元年には老衰した父忠利の大留守居役を代行した。	かんえいがんねんにわろーすいしたちちただとしのだいるすいやくをだいこーした。	NO_LABEL
寛永4年11月、父の忠利が死去し、遺領の多くは忠勝が継いだが、武蔵国川越領のうち3,000石はこの忠吉が継いだ。	NO_PRONOUNCE	NO_LABEL
寛永6年1月5日には従五位下和泉守に叙任。	かんえいろくねんいちがついつかにわじゅうごいのげいずみまもるにじょにん。	NO_LABEL
5月5日には尾張藩主徳川義直への使者として名古屋へ派遣された。	ごがついつかにわおわりはんしゅとくがわよしなおえのししゃとしてなごやえはけんされた。	NO_LABEL
寛永10年2月27日には裏門番を勤めた。	かんえいじゅうねんにがつにじゅうしちにちにわうらもんばんをつとめた。	NO_LABEL
4月23日に上総において3,000石を加増され、都合7,000石の上級旗本となる。	NO_PRONOUNCE	NO_LABEL
寛永11年、徳川家光上洛の際には相模と伊豆を巡見した。	かんえいじゅういちねん、とくがわいえみつじょーらくのさいにわさがみといずをじゅんけんした。	NO_LABEL
寛永16年冬に自宅を出火させてしまったことにより、出仕を憚ったが、翌寛永17年正月には許された。	NO_PRONOUNCE	NO_LABEL
寛永19年には大奥番となり、その後、長く大奥の財用出入を管理した。	かんえいじゅうきゅうねんにわおーおくばんとなり、そのご、ながくおーおくのざいよーしゅつにゅーをかんりした。	NO_LABEL
万治2年7月23日に老齢により職を辞した。	まんじにねんしちがつにじゅうさんにちにろーれいによりしょくをじした。	NO_LABEL
寛文2年11月25日には三男の忠経に家督を譲って隠居。	ひろふみにねんじゅーいちがつにじゅうごにちにわさんなんのちゅーきょーにかとくをゆずっていんきょ。	NO_LABEL
忠吉には養老料として800俵が支給された。	NO_PRONOUNCE	NO_LABEL
寛文3年5月6日に死去。	ひろふみさんねんごがつむいかにしきょ。	NO_LABEL
享年75。	NO_PRONOUNCE	NO_LABEL
川越の源昌寺、のち浅草の曹源寺に葬られた。	かわごえのげんしょうじ、のちあさくさのそーげんじにほーむられた。	NO_LABEL
法名は高心。	ほーみょーわこーこころ。	NO_LABEL
なお娘が4人おり、そのうち長女と三女・茂姫が高家吉良義冬に嫁いでおり、その間に赤穂事件で有名な吉良義央が生まれることになる。	NO_PRONOUNCE	NO_LABEL
