日本住血吸虫は、扁形動物門吸虫綱二生吸虫亜綱有壁吸虫目住血吸虫科住血吸虫属に属する動物。	NO_PRONOUNCE	NO_LABEL
哺乳類の門脈内に寄生する寄生虫の一種である。	ほにゅーるいのもんみゃくないにきせいするきせいちゅーのいちしゅである。	NO_LABEL
中間宿主は淡水に生息する小型の巻貝のミヤイリガイ。	ちゅーかんしゅくしゅわたんすいにせいそくするこがたのまきがいのみやいりがい。	NO_LABEL
最終宿主はヒト、ネコ、イヌ、ウシなどの様々な哺乳類である。	さいしゅーしゅくしゅわひと、ねこ、いぬ、うしなどのさまざまなほにゅーるいである。	NO_LABEL
日本住血吸虫がヒトに寄生することにより起こる疾患を、日本住血吸虫症という。	にほんじゅーけつきゅうちゅーがひとにきせいすることによりおこるしっかんを、にほんじゅーけつきゅうちゅうしょーという。	NO_LABEL
紐状の形の、細長い吸虫。	NO_PRONOUNCE	NO_LABEL
雌雄異体で、雌は黒褐色で細長く、雄は雌よりも淡い色で太くて短い。	しゆーいたいで、めすわこっかっしょくでほそながく、ゆーわめすよりもあわいいろでふとくてみじかい。	NO_LABEL
雄の腹面には抱雌管と呼ばれる溝があり、ここに雌がはさみこまれるようにして、常に雌雄一体になって生活する。	ゆーのはらめんにわかかえめすかんとよばれるみぞがあり、ここにめすがはさみこまれるよーにして、つねにしゆーいったいになってせいかつする。	NO_LABEL
体長は雄が9-18 mm、雌が15-25 mm。	NO_PRONOUNCE	NO_LABEL
虫卵の大きさは70-100×50-70 μm。	NO_PRONOUNCE	NO_LABEL
ヒトを含む哺乳類の血管内に寄生し、赤血球を栄養源にする。	ひとをふくむほにゅーるいのけっかんないにきせいし、せっけっきゅーをえいよーげんにする。	NO_LABEL
最終宿主動物の糞便とともに排出された卵は水中で孵化し、繊毛をもつミラシジウム幼生となる。	さいしゅーしゅくしゅどーぶつのふんべんとともにはいしゅつされたたまごわすいちゅーでふかし、せんもーをもつみらしじうむよーせいとなる。	NO_LABEL
ミラシジウム幼生はミヤイリガイの体表を破って体内に侵入し、そこで成長するとスポロシスト幼生となる。	みらしじうむよーせいわみやいりがいのからだひょーをやぶってたいないにしんにゅーし、そこでせいちょーするとすぽろしすとよーせいとなる。	NO_LABEL
スポロシスト幼生の体内は未分化な胚細胞で満たされており、これが分裂して胚に分化し、多数の娘スポロシスト幼生となってスポロシスト幼生の体外に出る。	すぽろしすとよーせいのたいないわみぶんかなはいさいぼーでみたされており、これがぶんれつしてはいにぶんかし、たすーのむすめすぽろしすとよーせいとなってすぽろしすとよーせいのたいがいにでる。	NO_LABEL
娘スポロシスト幼生の体内の胚細胞は、長く先端が二又に分岐した尾を持つセルカリア幼生となって娘スポロシスト幼生と宿主の貝の体表を破って水中に泳ぎ出す。	むすめすぽろしすとよーせいのたいないのはいさいぼーわ、ながくせんたんがふたまたにぶんきしたおをもつせるかりあよーせいとなってむすめすぽろしすとよーせいとしゅくしゅのかいのからだひょーをやぶってすいちゅーにおよぎだす。	NO_LABEL
ミヤイリガイは水田周辺の溝などに生息しており、その水に最終宿主が皮膚を浸けたときに、セルカリアがその皮膚から侵入し感染する。	みやいりがいわすいでんしゅーへんのみぞなどにせいそくしており、そのみずにさいしゅーしゅくしゅがひふをつけたときに、せるかりあがそのひふからしんにゅーしかんせんする。	NO_LABEL
その後肝臓の門脈付近に移動して成体となる。	そのごかんぞーのもんみゃくふきんにいどーしてせいたいとなる。	NO_LABEL
成体は成熟すると雌雄が抱き合ったまま門脈の血流をさかのぼり、消化管の細血管に至ると産卵する。	せいたいわせいじゅくするとしゆーがだきあったままもんみゃくのけつりゅーをさかのぼり、しょーかかんのほそけっかんにいたるとさんらんする。	NO_LABEL
卵は血管を塞栓するためその周囲の粘膜組織が壊死し、卵は壊死組織もろとも消化管内にこぼれ落ちる。	NO_PRONOUNCE	NO_LABEL
日本を含む東アジア、東南アジア。	にっぽんをふくむひがしあじあ、とーなんあじあ。	NO_LABEL
かつては日本が分布の北限であった。	かつてわにっぽんがぶんぷのほくげんであった。	NO_LABEL
日本では、寄生虫病予防法により、日本住血吸虫病の有病地を都道府県知事が告示していた。	にっぽんでわ、きせいちゅーびょーよぼーほーにより、にほんじゅーけつきゅうちゅーびょーのゆーびょーちをとどーふけんちじがこくじしていた。	NO_LABEL
日本の個体群が最初に医学的、生物学的に記載されたため日本住血吸虫と名付けられた。	にっぽんのこたいぐんがさいしょにいがくてき、せいぶつがくてきにきさいされたためにほんじゅーけつきゅうちゅーとなずけられた。	NO_LABEL
日本人が国外に広げた日本特有の寄生虫という訳ではない。	にっぽんじんがこくがいにひろげたにっぽんとくゆーのきせいちゅーとゆうわけでわない。	NO_LABEL
まずセルカリアが侵入した皮膚部位に皮膚炎が起こる。	まずせるかりあがしんにゅーしたひふぶいにひふえんがおこる。	NO_LABEL
次いで急性症状として、感冒様の症状が現れ、肝脾腫を認める場合もある。	NO_PRONOUNCE	NO_LABEL
慢性期には虫が腸壁に産卵することから、発熱に加え腹痛、下痢といった消化器症状が現れる。	まんせいきにわむしがちょーへきにさんらんすることから、はつねつにくわえはらいた、げりといったしょーかきしょーじょーがあらわれる。	NO_LABEL
好酸球増多も認められる。	こーさんきゅーますたもみとめられる。	NO_LABEL
虫卵は血流に乗って様々な部位に運ばれ周囲に肉芽腫を形成するが、特に肝臓と脳における炎症が問題になり、肝硬変が顕著な例では、身動きができないほどの腹水がたまる症状が出て、死に至る。	むしたまごわけつりゅーにのってさまざまなぶいにはこばれしゅーいににくがしゅをけいせいするが、とくにかんぞーとのーにおけるえんしょーがもんだいになり、かんこーへんがけんちょなれいでわ、みうごきができないほどのふくすいがたまるしょーじょーがだして、しにいたる。	NO_LABEL
このように日本住血吸虫が重篤な症状を引き起こすのは、成体が腸の細血管で産卵した卵の一部が血流に乗って流出し、肝臓や脳の血管を塞栓することによるところが大きい。	NO_PRONOUNCE	NO_LABEL
右の顕微鏡写真は、病理解剖で見つかった結腸と肝臓の住血吸虫卵の痕跡。	NO_PRONOUNCE	NO_LABEL
かつての流行地での生活履歴を物語る所見である。	かつてのりゅーこーちでのせいかつりれきをものがたるしょけんである。	NO_LABEL
戦時中に中国南方、東南アジア、フィリピンなどに従軍した折の感染であることも多い。	せんじちゅーにちゅーごくなんぽー、とーなんあじあ、ふぃりぴんなどにじゅーぐんしたおりのかんせんであることもおーい。	NO_LABEL
日本では、古くから山梨県の甲府盆地底部、福岡県・佐賀県の筑後川流域、広島県深安郡旧神辺町片山地区の風土病として知られていた。	NO_PRONOUNCE	NO_LABEL
最大の有病地である山梨県ではこれを「地方病」と呼び、古くは「流行地には娘を嫁に出すな。	NO_PRONOUNCE	NO_LABEL
」という地域差別にまで発展したことをうかがわせる話も伝わる。	NO_PRONOUNCE	NO_LABEL
同県では、日本住血吸虫対策を行ったことで、肝硬変による死亡率が約2/3にまで激減するほど、人々の生命を脅かす存在だった。	NO_PRONOUNCE	NO_LABEL
日本住血吸虫症にはプラジカンテルと言う特効薬があるが、感染を繰り返す度に肝障害が蓄積するために、感染に対する治療だけを行っても根本的な解決には至らない。	にほんじゅーけつきゅうちゅうしょーにわぷらじかんてるというとっこーやくがあるが、かんせんをくりかえすたびにかんしょーがいがちくせきするために、かんせんにたいするちりょーだけをおこなってもこんぽんてきなかいけつにわいたらない。	NO_LABEL
そこで「水田、用水路には素足で入らないこと」等の感染予防指導を行い、同時に日本住血吸虫の生活環自体を破壊することを考えた。	NO_PRONOUNCE	NO_LABEL
日本住血吸虫の中間宿主であるミヤイリガイは、水田の側溝などに生息し、特に水際の泥の上にいる。	にほんじゅーけつきゅうちゅーのちゅーかんしゅくしゅであるみやいりがいわ、すいでんのそっこーなどにせいそくし、とくにみずぎわのどろのうえにいる。	NO_LABEL
そこで、それまで素堀で作られていた水田の側溝をコンクリート製のU字溝に切り替えたり、殺貝剤を使用したりするなど、ミヤイリガイが生息できない環境を造る取り組みが行われた。	そこで、それまでもとほりでつくられていたすいでんのそっこーをこんくりーとせいのゆうじこーにきりかえたり、やかいざいをしよーしたりするなど、みやいりがいがせいそくできないかんきょーをつくるとりくみがおこなわれた。	NO_LABEL
日本では第二次世界大戦後に圃場整備が進んだことから、ミヤイリガイも日本住血吸虫病も瞬く間に減少し、1978年以降新規患者の報告はなくなった。	NO_PRONOUNCE	NO_LABEL
1996年2月、国内最大の感染地帯であった甲府盆地の富士川水系流域の有病地を持つ山梨県は、日本住血吸虫病流行の終息を宣言した。	せんきゅうひゃくきゅうじゅうろくねんにがつ、こくないさいだいのかんせんちたいであったこーふぼんちのふじがわすいけいりゅーいきのゆーびょーちをもつやまなしけんわ、にほんじゅーけつきゅうちゅーびょーりゅーこーのしゅーそくをせんげんした。	NO_LABEL
115年にわたる対策の成果であった。	ひゃくじゅうごねんにわたるたいさくのせいかであった。	NO_LABEL
また、西日本における主要な感染地帯であった筑後川流域では、筑後大堰の建設を機に、河川を管理する建設省、堰を管理する水資源開発公団、流域自治体の三者が共同して、1980年より湿地帯の埋立て等の河川整備を堰建設と同時に行い、徹底的なミヤイリガイ駆除を図った。	また、にしにほんにおけるしゅよーなかんせんちたいであったちくごがわりゅーいきでわ、ちくごおおぜきのけんせつをきに、かせんをかんりするけんせつしょー、せきをかんりするみずしげんかいはつこーだん、りゅーいきじちたいのさんしゃがきょーどーして、せんきゅうひゃくはちじゅうねんよりしっちたいのうめたててひとしのかせんせいびをせきけんせつとどーじにおこない、てっていてきなみやいりがいくじょをはかった。	NO_LABEL
この結果、1990年には福岡県が安全宣言を発表し、その後10年の追跡調査を経て新規患者が発生していないことを確認し、2000年に終息宣言を発表した。	このけっか、せんきゅうひゃくきゅうじゅうねんにわふくおかけんがあんぜんせんげんをはっぴょーし、そのごじゅうねんのついせきちょーさをへてしんきかんじゃがはっせいしていないことをかくにんし、にせんねんにしゅーそくせんげんをはっぴょーした。	NO_LABEL
ミヤイリガイの最終発見地となった久留米市には「宮入貝供養碑」が建立され、人為的に絶滅に至らしめられたミヤイリガイの霊を弔っている。	NO_PRONOUNCE	NO_LABEL
ただし、すべてのミヤイリガイが絶滅したわけではない。	ただし、すべてのみやいりがいがぜつめつしたわけでわない。	NO_LABEL
現在でも千葉県小櫃川流域及び最大の有病地であった山梨県甲府盆地北西部の釜無川流域では、継続的に生息が確認されている。	げんざいでもちばけんおびつがわりゅーいきおよびさいだいのゆーびょーちであったやまなしけんこーふぼんちほくせいぶのかまなしがわりゅーいきでわ、けいぞくてきにせいそくがかくにんされている。	NO_LABEL
中華人民共和国やフィリピンをはじめとする東南アジアではいまだに感染地域が残り、プラジカンテルに対する耐性の出現も報告されている。	ちゅーかじんみんきょーわこくやふぃりぴんをはじめとするとーなんあじあでわいまだにかんせんちいきがのこり、ぷらじかんてるにたいするたいせいのしゅつげんもほーこくされている。	NO_LABEL
またアフリカ等ではマンソン住血吸虫、ビルハルツ住血吸虫、東南アジアではメコン住血吸虫の感染も問題になっている。	NO_PRONOUNCE	NO_LABEL
ワクチン等の予防手段はないので、感染地では淡水の生水を皮膚に接触させないことが重要である。	わくちんとーのよぼーしゅだんわないので、かんせんちでわたんすいのなまみずをひふにせっしょくさせないことがじゅーよーである。	NO_LABEL
