インドのタミル・ナードゥ州の政治。	NO_PRONOUNCE	NO_LABEL
タミル・ナードゥ州議会は、1986年に二院制から一院制に移行した。	NO_PRONOUNCE	NO_LABEL
現在は234の選挙区から小選挙区制で議員が選出されている。	NO_PRONOUNCE	NO_LABEL
2006年に行なわれた州議会選挙では、前回の選挙で野党であったDMKを中心とした諸党と、州首相であるJ・ジャヤラリター率いるAIADMKを中心とした諸党との対決の構図があった。	NO_PRONOUNCE	NO_LABEL
その結果、各勢力は以下のような議席数を獲得した。	そのけっか、かくせいりょくわいかのよーなぎせきすーをかくとくした。	NO_LABEL
タミル・ナードゥ州においては、主に以下のような政党が活動している。	NO_PRONOUNCE	NO_LABEL
タミル・ナードゥ州の地域政党で最も古い政治団体は、1916年に結成された「南印度福祉協会」であり、日刊の機関紙「正義」の名から、「正義党」としても知られた。	NO_PRONOUNCE	NO_LABEL
この団体は、同様にドラヴィダ人の地位向上を目指していた自尊協会を創立していた、「タンダイ・ペリヤール」という呼び名で知られるE・V・ラーマサーミの主導で、1938年に自尊協会に吸収される形で合併した。	NO_PRONOUNCE	NO_LABEL
その後自尊協会は、1944年にドラヴィダ人協会と改称し、ドラーヴィダ・ナードゥという州の設置を要求する運動を展開したが、政党として政治に関わることはしなかった。	NO_PRONOUNCE	NO_LABEL
その後、指導的な地位にあったペリヤールとC・N・アンナードゥライとの対立により分裂し、アンナードゥライはドラーヴィダ進歩党を結成して、特に1956年以降、政党として政治に本格的に関わるようになる。	NO_PRONOUNCE	NO_LABEL
そして1967年に州議会選挙でインド国民会議に勝利し、タミル・ナードゥ州における実権を掌握して州政治を指導した。	NO_PRONOUNCE	NO_LABEL
1969年にアンナードゥライが死去、M・カルナーニディが党首となった。	NO_PRONOUNCE	NO_LABEL
「MGR」という愛称で知られるM・G・ラーマチャンディランが、アンナードゥライの死後、ドラーヴィダ進歩党内で次第に勢力を増し、1972年にMGRはドラーヴィダ進歩党を去って全インド・アンナー・ドラーヴィダ進歩党を結成した。	NO_PRONOUNCE	NO_LABEL
1977年にはMGRは州首相となり、1987年に歿するまで州首相職を務め続けた。	NO_PRONOUNCE	NO_LABEL
MGRの死後、AIADMK党内ではMGRの妻であるR・ジャーナキとJ・ジャヤラリターとの対立が激化し、両陣営の派閥に分裂した状態であったが、1989年に州議会選挙で党が敗北を喫したことを機に両派は歩み寄り、ジャヤラリターが代表として党を束ねることとなった。	NO_PRONOUNCE	NO_LABEL
インド国民会議は、全インド・アンナー・ドラーヴィダ進歩党との連携をめぐって内部対立が起き、G・K・ムーバナルを首班とする連携反対派はインド国民会議を離党し、タミル州国民会議を結党した。	NO_PRONOUNCE	NO_LABEL
ムーバナルの死後、息子のG・K・ヴァーサンが党首となったが、インド国民会議がドラーヴィダ進歩党との協力体制を築いたため、タミル州国民会議はインド国民会議に合流した。	NO_PRONOUNCE	NO_LABEL
2005年現在の州政府の閣僚は以下のようになっている。	にせんごねんげんざいのしゅーせいふのかくりょーわいかのよーになっている。	NO_LABEL
タミル・ナードゥ州には、インド連邦議会下院に39議席が充てられており、タミル・ナードゥ州内の39の選挙区から小選挙区制で議員が選出される。	NO_PRONOUNCE	NO_LABEL
2004年の選挙では、DMKが16議席、TNCCが10議席、PMKが5議席、MDMKが4議席、CPIMが2議席、CPIが2議席、IUMLが1議席を獲得し、AIADMKは議席を一つも得られなかった。	NO_PRONOUNCE	NO_LABEL
ドラーヴィダ進歩党とタミル・ナードゥ国民会議は「民主進歩同盟」という名の下に協力関係にあり、一方AIADMKとインド人民党は、「国民民主同盟」として協力関係にあったが、のちに協力を解消した。	NO_PRONOUNCE	NO_LABEL
現在のインド内務大臣である P・チダンバラムは、タミル・ナードゥ国民会議に所属している。	NO_PRONOUNCE	NO_LABEL
ドラヴィダ語話者がインド・アーリア語話者よりも早くから、北インドにおいて居住していたという学説が、19世紀から欧米の学者を中心に唱えられていた。	NO_PRONOUNCE	NO_LABEL
よって、一般的に黒い肌をもつドラヴィダ人は別個の人種であると考えられた。	NO_PRONOUNCE	NO_LABEL
この考え方は、黒い肌の人々は肌の色の白い人々よりも原始的であるという当時の人種階級論と相俟って、ドラヴィダ人はより進化したアーリア人によって排除され従属させられた、原始的なインド原住民である、と見る風潮を呼び起こしていた。	NO_PRONOUNCE	NO_LABEL
また逆に、ドラヴィダ人はインドに最も古くから居住していたので、攻撃的な侵入者であるアーリア人などの他民族からドラヴィダ人を解放しなければならないとする対立的な構図、いわゆる「タミル民族解放運動」の隆盛をもたらした。	NO_PRONOUNCE	NO_LABEL
1920年代に発見されたインダス文明が、今では滅んでしまった北方のドラヴィダ人のものであるという学説により、一部の急進的なタミル人過激派は、ドラヴィダ人こそが進んだ文明を担っていた民族であって、アーリア人はそれを破壊した非文明的な蛮族である、とまで主張するようになった。	NO_PRONOUNCE	NO_LABEL
この流れで1960年代には「反ヒンディー語運動」が展開され、これによりドラーヴィダ進歩党は躍進した。	NO_PRONOUNCE	NO_LABEL
現在では、P・ネドゥマーラン率いる「タミル民族主義者運動」のような団体が活動しているが、急進的なタミル人過激派は力を失っている。	NO_PRONOUNCE	NO_LABEL
しかし近年でも、タミル語がインドの古典語であることを中央政府に認定させる等、インドの古くからの住人としてのタミル人という自覚は、タミル・ナードゥの政治の底流に絶えることなく流れ続けており、北部西部に多い右翼的なマラタ人やアーリア人の優越感が背景にあるヒンドゥー・ナショナリズムなるものは全く影響力を持つに至っていない。	NO_PRONOUNCE	NO_LABEL
タミル・ナードゥ州では、映画界から政界入りすることが広く行われ、現在の州首相のジャヤラリターも元々は映画女優である。	NO_PRONOUNCE	NO_LABEL
日本でも1998年に上映された「ムトゥ　踊るマハラジャ」の主人公役を演じるラジニカーントも、本人は政界入りを望んでいないようではあるが、タミル・ナードゥでは政治的な影響力を持っており、2004年のインド連邦議会下院選挙の際も労働者党を批判したと報道されて騒動となっていた。	NO_PRONOUNCE	NO_LABEL
インド国外のタミル人政治家に、以下のような人物がいる。	いんどこくがいのたみるじんせいじかに、いかのよーなじんぶつがいる。	NO_LABEL
