タホ湖は、アメリカ合衆国カリフォルニア州とネバダ州の州境のシエラネヴァダ山中にある湖である。	NO_PRONOUNCE	NO_LABEL
湖岸線の2/3はカリフォルニア州に属する。	NO_PRONOUNCE	NO_LABEL
アメリカ合衆国内、とくに中西部を中心にスキーリゾートとして著名であり、ヘブンリー・マウンテンやスコーバレーといった、比較的規模の大きなスキー場が数カ所ある。	NO_PRONOUNCE	NO_LABEL
スキーヤーの間では世界的に知られる名スキーエリア。	すきーやーのまでわせかいてきにしられるめいすきーえりあ。	NO_LABEL
また、ネバダ州側にはカジノがある。	また、ねばだしゅーがわにわかじのがある。	NO_LABEL
サンフランシスコなど北部カリフォルニアからは車で日帰り圏内。	さんふらんしすこなどほくぶかりふぉるにあからわくるまでひがえりけんない。	NO_LABEL
最大水深は501mで、世界では16番目、アメリカ合衆国内ではクレーター湖に次いで2番目に深い湖である。	さいだいすいしんわごひゃくいちめーとるで、せかいでわじゅうろくばんめ、あめりかがっしゅーこくないでわくれーたーみずうみについでにばんめにふかいみずうみである。	NO_LABEL
透明度に関しても世界屈指であり、かつては世界第3位であったが近年は富栄養化が進み、年間0.25mずつ透明度が低下してきている。	NO_PRONOUNCE	NO_LABEL
トラッキー川が唯一の流出河川であり、北東へ流れてピラミッド湖へ注いでいる。	とらっきーがわがゆいいつのりゅーしゅつかせんであり、ほくとーえながれてぴらみっどみずうみえそそいでいる。	NO_LABEL
「タホ」は、この地に先住するワショー族インディアンの言葉で「大きな水」という意味。	NO_PRONOUNCE	NO_LABEL
