津田 穣8月4日 - 1955年8月12日）は、フランス文学者、翻訳家。	NO_PRONOUNCE	NO_LABEL
京都府出身。	きょーとふしゅっしん。	NO_LABEL
1935年京都帝国大学文学部仏文科卒。	せんきゅうひゃくさんじゅうごねんきょーとていこくだいがくぶんがくぶふつぶんかそつ。	NO_LABEL
第三高等学校講師、大阪高等学校教授。	だいさんこーとーがっこーこーし、おーさかこーとーがっこーきょーじゅ。	NO_LABEL
ブレーズ・パスカル『パンセ』の翻訳で知られる。	NO_PRONOUNCE	NO_LABEL
