長野県公安委員会は、長野県警察を管理するため長野県知事所轄の下に設置される行政委員会である。	ながのけんこーあんいーんかいわ、ながのけんけいさつをかんりするためながのけんちじしょかつのしたにせっちされるぎょーせいいーんかいである。	NO_LABEL
3人の委員で組織される。	さんにんのいいんでそしきされる。	NO_LABEL
所在地は長野市大字南長野字幅下692-2である。	NO_PRONOUNCE	NO_LABEL
