三重県道621号永井保々停車場線は三重県三重郡菰野町から同県四日市市に至る一般県道である。	みえけんどーろっぴゃくにじゅういちごーながいほぼていしゃじょーせんわみえけんみえぐんこものちょーからどーけんよっかいちしにいたるいっぱんけんどーである。	NO_LABEL
生活道路として利用される。	せいかつどーろとしてりよーされる。	NO_LABEL
朝明川に沿った線形をしているが、同川からは離れている。	あさけがわにそったせんけいをしているが、どーかわからわはなれている。	NO_LABEL
