ホセ・ボニージャは、ベネズエラ出身のプロボクサー。	ほせぼにーじゃわ、べねずえらしゅっしんのぷろぼくさー。	NO_LABEL
元WBA世界フライ級王者。	もとだぶりゅーびーえーせかいふらいきゅーおーじゃ。	NO_LABEL
1990年3月10日、ベネズエラでプロデビュー。	せんきゅうひゃくきゅうじゅうねんさんがつとおか、べねずえらでぷろでびゅー。	NO_LABEL
1992年11月20日、13戦目でベネズエラ・フライ級王座を獲得。	NO_PRONOUNCE	NO_LABEL
翌1993年4月17日にはWBAラテンアメリカ・フライ級王座を獲得。	NO_PRONOUNCE	NO_LABEL
同年11月、WBAラテンアメリカ王座3度目の防衛戦で元WBA世界フライ級王者でもある同国人ヘスス・ロハスに11回TKO負け。	どーねんじゅーいちがつ、だぶりゅーびーえーらてんあめりかおーざさんどめのぼーえいせんでもとだぶりゅーびーえーせかいふらいきゅーおーじゃでもあるどーこくじんへすすろはすにじゅういっかいてぃーけーおーまけ。	NO_LABEL
王座から陥落、同時にプロ初黒星を喫した。	おーざからかんらく、どーじにぷろはつくろぼしをきっした。	NO_LABEL
1996年6月15日、ベネズエラ・ライトフライ級王座を獲得。	NO_PRONOUNCE	NO_LABEL
国内王座2階級制覇を達成し、10月14日には初防衛に成功した。	こくないおーざにかいきゅーせいはをたっせいし、じゅーがつじゅうよっかにわはつぼーえいにせいこーした。	NO_LABEL
1996年11月24日、世界初挑戦。	せんきゅうひゃくきゅうじゅうろくねんじゅーいちがつにじゅうよっか、せかいはつちょーせん。	NO_LABEL
敵地・タイでWBA世界フライ級王者セーン・ソー・プルンチットに挑み、12回判定勝ち。	NO_PRONOUNCE	NO_LABEL
25戦目にして世界王者となった。	にじゅうごせんめにしてせかいおーじゃとなった。	NO_LABEL
1997年2月25日の初防衛戦で初来日。	せんきゅうひゃくきゅうじゅうななにがつにじゅうごにちのはつぼーえいせんではつらいにち。	NO_LABEL
大阪で元世界2階級王者井岡弘樹の挑戦を受け、7回TKO勝ち。	おーさかでもとせかいにかいきゅーおーじゃいおかひろきのちょーせんをうけ、ななかいてぃーけーおーがち。	NO_LABEL
同年11月22日には3度目の防衛戦で再び大阪のリングに登場。	どーねんじゅーいちがつにじゅうににちにわさんどめのぼーえいせんでふたたびおーさかのりんぐにとーじょー。	NO_LABEL
井岡の後輩にあたる元WBA世界ライトフライ級王者山口圭司に6回TKO勝ちを収めた。	いおかのこーはいにあたるもとだぶりゅーびーえーせかいらいとふらいきゅーおーじゃやまぐちけいじにろっかいてぃーけーおーがちをおさめた。	NO_LABEL
1998年5月29日、4度目の防衛戦でウーゴ・ソトに12回判定負けを喫し世界王座から陥落した。	せんきゅうひゃくきゅうじゅうはちねんごがつにじゅうきゅうにち、よんどめのぼーえいせんでうーごそとにじゅうにかいはんていまけをきっしせかいおーざからかんらくした。	NO_LABEL
1999年10月9日、WBAラテンアメリカ・スーパーフライ級王座を獲得したのを最後に現役を引退。	NO_PRONOUNCE	NO_LABEL
2002年6月14日、母国ベネズエラの首都カラカスで喘息による発作のため死去した。	にせんにねんろくがつじゅうよっか、ぼこくべねずえらのしゅとからかすでぜんそくによるほっさのためしきょした。	NO_LABEL
