赤色矮星とは、主系列星の中で特に小さい恒星のグループ。	せきしょくわいせいとわ、しゅけいれつせいのなかでとくにちーさいこーせいのぐるーぷ。	NO_LABEL
主にスペクトル型M型の主系列星を指すが、低温のK型主系列星の一部を含めることもある。	NO_PRONOUNCE	NO_LABEL
主系列星は質量が小さいものほど以下の特徴を強く示すようになる。	しゅけいれつせいわしつりょーがちーさいものほどいかのとくちょーをつよくしめすよーになる。	NO_LABEL
赤色矮星は主系列星の中でも特に質量が小さく、これらの特徴が顕著である。	せきしょくわいせいわしゅけいれつせいのなかでもとくにしつりょーがちーさく、これらのとくちょーがけんちょである。	NO_LABEL
また、赤色矮星は活発なフレア活動を示す傾向があり、閃光星と呼ばれる変光星に分類されるものが多い。	また、せきしょくわいせいわかっぱつなふれあかつどーをしめすけいこーがあり、せんこーせいとよばれるへんこーせいにぶんるいされるものがおーい。	NO_LABEL
赤色矮星のサイズや明るさは様々である。	せきしょくわいせいのさいずやあかるさわさまざまである。	NO_LABEL
太陽系に最も近い恒星のプロキシマ・ケンタウリは、質量・半径がともに太陽の7分の1程度、可視光での明るさは1万8000分の1に過ぎないが、最大級の赤色矮星であるラランド21185は、質量・半径ともに太陽の半分弱、明るさは180分の1に達する。	NO_PRONOUNCE	NO_LABEL
最小の赤色矮星の質量は太陽質量の8%程度である。	さいしょーのせきしょくわいせいのしつりょーわたいよーしつりょーのはちぱーせんとていどである。	NO_LABEL
これより質量の小さい天体は、中心部の温度が上がらず、軽水素の核融合反応を起こせない。	これよりしつりょーのちーさいてんたいわ、ちゅーしんぶのおんどがあがらず、けいすいそのかくゆーごーはんのーをおこせない。	NO_LABEL
このような天体は、恒星ではなく褐色矮星に分類される。	このよーなてんたいわ、こーせいでわなくかっしょくわいせいにぶんるいされる。	NO_LABEL
一方、最大の赤色矮星の質量は太陽質量の46%程度と考えられ、これより質量の大きい恒星は終末期に膨張して赤色巨星へと変化することが予想されている。	いっぽー、さいだいのせきしょくわいせいのしつりょーわたいよーしつりょーのよんじゅうろくぱーせんとていどとかんがえられ、これよりしつりょーのおーきいこーせいわしゅーまつきにぼーちょーしてせきしょくきょせいえとへんかすることがよそーされている。	NO_LABEL
赤色矮星は宇宙で最もありふれた恒星でもある。	せきしょくわいせいわうちゅーでもっともありふれたこーせいでもある。	NO_LABEL
個数ベースで見ると、太陽近傍にある恒星と白色矮星のうちM型の赤色矮星が6割を占め、白色矮星を除くとその割合は8割弱に達する。	NO_PRONOUNCE	NO_LABEL
赤色矮星の中心部は他の恒星よりも低温で、核融合反応は穏やかに進む。	せきしょくわいせいのちゅーしんぶわたのこーせいよりもていおんで、かくゆーごーはんのーわおだやかにすすむ。	NO_LABEL
赤色矮星は質量が小さいので核融合の燃料となる水素が少ないが、それ以上に水素の消費が遅いため、質量の大きい恒星と比べて寿命はむしろ長くなる。	せきしょくわいせいわしつりょーがちーさいのでかくゆうごーのねんりょーとなるすいそがすくないが、それいじょーにすいそのしょーひがおそいため、しつりょーのおーきいこーせいとくらべてじゅみょーわむしろながくなる。	NO_LABEL
具体的な寿命の数値は赤色矮星の質量に左右されるが、短くても1000億年、長ければ10兆年以上に及ぶと推測される。	NO_PRONOUNCE	NO_LABEL
赤色矮星の寿命は、宇宙が誕生してから現在までの時間よりも長いため、一生を終えた赤色矮星は現在の宇宙にはまだ存在していないと考えられている。	せきしょくわいせいのじゅみょーわ、うちゅーがたんじょーしてからげんざいまでのじかんよりもながいため、いっしょーをおえたせきしょくわいせいわげんざいのうちゅーにわまだそんざいしていないとかんがえられている。	NO_LABEL
また、赤色矮星は中心部がヘリウムの核融合が始まるほど高温にならないため、水素が燃え尽きても赤色巨星にはならずに、そのままヘリウム型の白色矮星になると予想されている。	また、せきしょくわいせいわちゅーしんぶがへりゅーむのかくゆうごーがはじまるほどこーおんにならないため、すいそがもえつきてもせきしょくきょせいにわならずに、そのままへりゅーむがたのはくしょくわいせいになるとよそーされている。	NO_LABEL
ただし、前述の通り赤色矮星の寿命は現在の宇宙の年齢よりも長いため、ヘリウム型の白色矮星はまだ存在していないと考えられている。	ただし、ぜんじゅつのとーりせきしょくわいせいのじゅみょーわげんざいのうちゅーのねんれいよりもながいため、へりゅーむがたのはくしょくわいせいわまだそんざいしていないとかんがえられている。	NO_LABEL
赤色矮星は恒星の大部分を占めているが、初期に太陽系外惑星が見付かった恒星の多くは太陽に似た主系列星だった。	せきしょくわいせいわこーせいのだいぶぶんをしめているが、しょきにたいよーけいがいわくせいがみつかったこーせいのおーくわたいよーににたしゅけいれつせいだった。	NO_LABEL
これは、赤色矮星の光度が暗く、彩層が活発なため精確な観測が難しいことや、系外惑星の探査が太陽に似た星を主なターゲットとして行われていたことが影響している。	これわ、せきしょくわいせいのこーどがくらく、さいそーがかっぱつなためせいかくなかんそくがむずかしいことや、けいがいわくせいのたんさがたいよーににたほしをおもなたーげっととしておこなわれていたことがえいきょーしている。	NO_LABEL
しかし2004年ごろから赤色矮星の周りを回る惑星も発見され始めた。	しかしにせんよねんごろからせきしょくわいせいのまわりをまわるわくせいもはっけんされはじめた。	NO_LABEL
2007年にグリーゼ581と呼ばれる赤色矮星の付近に発見されたグリーゼ581cは、地球質量の5倍と、それまでに発見された系外惑星の中では特に小さい上に、発見当初は、ハビタブルゾーン内の軌道を持っているのではないかと言われたため注目を集めた。	NO_PRONOUNCE	NO_LABEL
この惑星がハビタブルゾーンの範囲にあるという考えに対しては後に否定的な研究が発表されたが、2010年には完全にハビタブルゾーンに収まる惑星グリーゼ581gが発見され、再び注目を浴びた。	このわくせいがはびたぶるぞーんのはんいにあるとゆうかんがえにたいしてわごにひていてきなけんきゅーがはっぴょーされたが、にせんじゅうねんにわかんぜんにはびたぶるぞーんにおさまるわくせいぐりーぜごはちいちじーがはっけんされ、ふたたびちゅーもくをあびた。	NO_LABEL
2006年に銀河系バルジを対象に行われた太陽系外惑星の探査では、太陽の4割の質量を持つ赤色矮星とみられる恒星の周りに、公転周期10時間の惑星の候補天体が見つかっている。	にせんろくねんにぎんがけいばるじをたいしょーにおこなわれたたいよーけいがいわくせいのたんさでわ、たいよーのよんわりのしつりょーをもつせきしょくわいせいとみられるこーせいのまわりに、こーてんしゅーきじゅうじかんのわくせいのこーほてんたいがみつかっている。	NO_LABEL
この観測で発見された合計5つの周期1日以下の惑星候補はいずれも太陽より小さく暗い星を公転していた。	このかんそくではっけんされたごーけいいつつのしゅーきついたちいかのわくせいこーほわいずれもたいよーよりちーさくくらいほしをこーてんしていた。	NO_LABEL
このことから、赤色矮星のように質量が小さい恒星では超短周期の惑星が形成されやすいことが示唆されている。	このことから、せきしょくわいせいのよーにしつりょーがちーさいこーせいでわちょーたんしゅーきのわくせいがけいせいされやすいことがしさされている。	NO_LABEL
赤色矮星は活発なフレア活動を起こす閃光星である場合が多い。	せきしょくわいせいわかっぱつなふれあかつどーをおこすせんこーぼしであるばあいがおーい。	NO_LABEL
また、赤色矮星のハビタブルゾーンは太陽系よりも主星に近い。	また、せきしょくわいせいのはびたぶるぞーんわたいよーけいよりもおもぼしにちかい。	NO_LABEL
そのため、仮に赤色矮星の周りを回る惑星上に生命がいるとすれば、フレアに伴って放出されるX線などの電磁波は生命にとって脅威となるかもしれない。	そのため、かりにせきしょくわいせいのまわりをまわるわくせいじょーにせいめいがいるとすれば、ふれあにともなってほーしゅつされるえっくすせんなどのでんじはわせいめいにとってきょーいとなるかもしれない。	NO_LABEL
一方で、強いフレアは大気に厚いオゾン層をもたらし、生命に対するフレアの影響を減少させるという考え方もある。	いっぽーで、つよいふれあわたいきにあついおぞんそーをもたらし、せいめいにたいするふれあのえいきょーをげんしょーさせるとゆうかんがえかたもある。	NO_LABEL
また、フレアによって星の明るさが不規則に変化することも生命にとって不利な条件となりうる。	また、ふれあによってほしのあかるさがふきそくにへんかすることもせいめいにとってふりなじょーけんとなりうる。	NO_LABEL
しかし、こういった要素が生命にとってどれだけの制約となるかはよく分かっていない。	しかし、こーいったよーそがせいめいにとってどれだけのせいやくとなるかわよくわかっていない。	NO_LABEL
赤色矮星を回っている惑星で進化した植物は、フレアから身を護る機能を発達させるとともに、光を効率的に吸収するために地球の植物とは違う色合いになり、場合によっては黒く見えるだろうという研究が発表されている。	せきしょくわいせいをまわっているわくせいでしんかしたしょくぶつわ、ふれあからみをまもるきのーをはったつさせるとともに、ひかりをこーりつてきにきゅーしゅーするためにちきゅーのしょくぶつとわちがういろあいになり、ばあいによってわくろくみえるだろうとゆうけんきゅーがはっぴょーされている。	NO_LABEL
赤色矮星は、イギリスのSFTVドラマ『宇宙船レッド・ドワーフ号』の原題でもある。	NO_PRONOUNCE	NO_LABEL
