『クライシス・オブ・アメリカ』は、2004年のアメリカ合衆国のサスペンス映画。	NO_PRONOUNCE	NO_LABEL
原作はの小説『影なき狙撃者』であり、1962年の同名映画に続いて2度目の映画化である。	NO_PRONOUNCE	NO_LABEL
ただし、本作はコンドンの原作小説だけでなく、による1962年の映画脚本も原作としたリメイクである。	ただし、もとさくわこんどんのげんさくしょーせつだけでなく、によるせんきゅうひゃくろくじゅうにねんのえいがきゃくほんもげんさくとしたりめいくである。	NO_LABEL
名門政治一家出身で大物上院議員である母エレノア・ショーの強い後ろ盾により、党の副大統領候補に指名されることになった元軍人のレイモンド・ショーは、湾岸戦争でたったひとりで仲間を救った英雄である。	NO_PRONOUNCE	NO_LABEL
しかし、彼の元上官ベン・マルコ少佐はその英雄的行為の「記憶」に疑念を抱いていた。	NO_PRONOUNCE	NO_LABEL
そんなある日、講演を終えたマルコに部下であったアル・メルヴィンが訪れ、悪い夢の話を打ち明ける。	NO_PRONOUNCE	NO_LABEL
紙に記録された夢の内容を見せられたマルコは、奇しくもそれが自分が見る夢と同じであることを知り、真実を探すことを決意する。	かみにきろくされたゆめのないよーをみせられたまるこわ、くしくもそれがじぶんがみるゆめとおなじであることをしり、しんじつをさがすことをけついする。	NO_LABEL
マルコは自分の知らないうちに身体に埋め込まれていたカプセル状のチップを見つけると、昔なじみの科学者デルプに相談し、それが人間を自由に操るためのものであると知る。	まるこわじぶんのしらないうちにしんたいにうめこまれていたかぷせるじょーのちっぷをみつけると、むかしなじみのかがくしゃでるぷにそーだんし、それがにんげんをじゆーにあやつるためのものであるとしる。	NO_LABEL
レイモンドを同じように操ることでアメリカの政治を意のままにしようとする陰謀の存在に気付いたマルコは、真相を告発するためにエレノアと対立するジョーダン議員に接触するが、エレノアによってマインドコントロールされたレイモンドによってジョーダン議員とその娘でレイモンドが今も想いを寄せているかつての恋人ジョスリンの2人が殺される。	れいもんどをおなじよーにあやつることであめりかのせいじをいのままにしよーとするいんぼーのそんざいにきずいたまるこわ、しんそーをこくはつするためにえれのあとたいりつするじょーだんぎいんにせっしょくするが、えれのあによってまいんどこんとろーるされたれいもんどによってじょーだんぎいんとそのむすめでれいもんどがいまもおもいをよせているかつてのこいびとじょすりんのふたりがころされる。	NO_LABEL
この事態にマルコは、自分を監視するために近づいて来たFBI捜査官ユジェニーの協力の下、投票所で密かにレイモンドに接触して真相を告げる。	このじたいにまるこわ、じぶんをかんしするためにちかずいてきたえふびーあいそーさかんゆじぇにーのきょーりょくのした、とーひょーじょでひそかにれいもんどにせっしょくしてしんそーをつげる。	NO_LABEL
しかし、その場にかかってきたエレノアからの電話により、マルコは催眠状態となって大統領候補の暗殺を指示されてしまう。	しかし、そのばにかかってきたえれのあからのでんわにより、まるこわさいみんじょーたいとなってだいとーりょーこーほのあんさつをしじされてしまう。	NO_LABEL
大統領選の勝利を祝う祝賀会が執り行われる。	だいとーりょーせんのしょーりをいわうしゅくがかいがとりおこなわれる。	NO_LABEL
マルコは壇上に立った次期大統領を射殺しようとするが、レイモンドがエレノアを連れ、意図的に撃たれて母とともに死ぬ。	まるこわだんじょーにたったじきだいとうりょーをしゃさつしようとするが、れいもんどがえれのあをつれ、いとてきにうたれてははとともにしぬ。	NO_LABEL
マルコは指示通りに自殺しようとするが、すんでのところでユジェニーが止める。	まるこわしじどーりにじさつしようとするが、すんでのところでゆじぇにーがとめる。	NO_LABEL
そして当局により、ショー親子の「暗殺」にマルコが関与していたことは巧妙に隠蔽される。	NO_PRONOUNCE	NO_LABEL
※カッコ内は日本語吹替	NO_PRONOUNCE	NO_LABEL
Rotten Tomatoesでは81%が本作に肯定的な評価を下している。	NO_PRONOUNCE	NO_LABEL
