Perfumeの気になる子ちゃんとは、日本テレビで2008年10月11日から2009年3月28日まで、毎週土曜日17:30 - 18:00に放送されていたバラエティ番組である。	NO_PRONOUNCE	NO_LABEL
なお、2009年4月11日の土曜25:40から『Perfumeのシャンデリアハウス』としてリニューアルされた。	NO_PRONOUNCE	NO_LABEL
出演者がそれぞれ気になることを言い合うトークバラエティーである。	しゅつえんしゃがそれぞれきになることをいーあうとーくばらえてぃーである。	NO_LABEL
番組冒頭で「言われたら気になることを言い合う番組」と紹介している。	NO_PRONOUNCE	NO_LABEL
