レナン・ブリト・ソアレスは、ブラジル、リオグランデ・ド・スル州ヴィアモン出身のサッカー選手。	NO_PRONOUNCE	NO_LABEL
ゴイアスEC所属。	ごいあすしょぞく。	NO_LABEL
ポジションはゴールキーパー。	ぽじしょんわごーるきーぱー。	NO_LABEL
ブラジル五輪代表として2008年の北京オリンピックに正GKとして出場し、銅メダル獲得に貢献した。	ぶらじるごりんだいひょーとしてにせんはちねんのぺきんおりんぴっくにせいごーるきーぱーとしてしゅつじょーし、どーめだるかくとくにこーけんした。	NO_LABEL
決勝トーナメント1回戦ではカメルーンを破ったが、準決勝では金メダルアルゼンチンに敗れた。	けっしょーとーなめんといちかいせんでわかめるーんをやぶったが、じゅんけっしょーでわきんめだるあるぜんちんにやぶれた。	NO_LABEL
3位決定戦ではベルギーを破った。	さんいけっていせんでわべるぎーをやぶった。	NO_LABEL
2008年、スペインのバレンシアCFと4年契約を結んだ。	にせんはちねん、すぺいんのばれんしあくるぶでふとぼるとよんねんけいやくをむすんだ。	NO_LABEL
移籍金は公表されていない。	いせききんわこーひょーされていない。	NO_LABEL
チームから外されたティモ・ヒルデブラントに代わり開幕のRCDマジョルカ戦で初出場を果たし、正GKとしてゴールマウスを守っていたが2009年1月18日のアスレティック・ビルバオ戦で右足のハムストリングを痛めて途中交代した。	ちーむからはずされたてぃもひるでぶらんとにかわりかいまくのれあるくるぶでぽるてぃーぼまじょるかせんではつしゅつじょーをはたし、せいごーるきーぱーとしてごーるまうすをまもっていたがにせんきゅうねんいちがつじゅうはちにちのあすれてぃっくびるばおせんでみぎあしのはむすとりんぐをいためてとちゅーこーたいした。	NO_LABEL
春先に復帰したが、その間に移籍してきたセサル・サンチェスにポジションを奪われた。	NO_PRONOUNCE	NO_LABEL
2009年7月27日に1部復帰を果たしたヘレスCDへレンタル移籍した。	にせんきゅうねんしちがつにじゅうしちにちにいちぶふっきをはたしたへれすしーでぃーえれんたるいせきした。	NO_LABEL
2009-10シーズンは35試合に出場したが、最下位でセグンダ・ディビシオン降格が決定した。	NO_PRONOUNCE	NO_LABEL
2010年6月4日、古巣SCインテルナシオナウにレンタル移籍した。	にせんじゅうねんろくがつよっか、ふるすえすしぃいんてるなしおなうにれんたるいせきした。	NO_LABEL
同年のコパ・リベルタドーレスでは元アルゼンチン代表のロベルト・アボンダンシェリらを押しのけてレギュラーを獲得し、クラブ2度目の南米制覇に貢献した。	どーねんのこぱりべるたどーれすでわもとあるぜんちんだいひょーのろべるとあぼんだんしぇりらをおしのけてれぎゅらーをかくとくし、くらぶにどめのなんべいせいはにこーけんした。	NO_LABEL
2013年12月17日、ゴイアスECに移籍した。	にせんじゅうさんねんじゅーにがつじゅうななにち、ごいあすにいせきした。	NO_LABEL
