青葉山は、福井県大飯郡高浜町と京都府舞鶴市にまたがる山。	あおばやまわ、ふくいけんおーいぐんたかはまちょーときょーとふまいずるしにまたがるやま。	NO_LABEL
東峰と西峰の2峰からなる双耳峰であるが、国土地理院の地形図では東峰に山名の記載があるため、これに従うと標高は693mである。	NO_PRONOUNCE	NO_LABEL
いずれの山頂も高浜町に位置する。	いずれのさんちょーもたかはまちょーにいちする。	NO_LABEL
高浜町の最高峰。	たかはまちょーのさいこーほー。	NO_LABEL
若狭富士の異称を持つ。	わかさふじのいしょーをもつ。	NO_LABEL
東部海岸から眺める山容が秀麗な景観を見せる。	とーぶかいがんからながめるさんよーがしゅーれいなけいかんをみせる。	NO_LABEL
青葉山の南麓を西日本旅客鉄道小浜線、国道27号が併走する。	あおばやまのみなみふもとをにしにほんりょかくてつどーおばません、こくどーにじゅうななごーがへいそーする。	NO_LABEL
いずれも京都府と福井県を結び、青葉山へのアクセスへと利用されている。	いずれもきょーとふとふくいけんをむすび、あおばやまえのあくせすえとりよーされている。	NO_LABEL
