小嶋 亜由美は、神奈川県厚木市出身の日本のタレント、ラジオパーソナリティ。	こじまあゆみわ、かながわけんあつぎししゅっしんのにっぽんのたれんと、らじおぱーそなりてぃ。	NO_LABEL
シー・フォルダ所属。	しーふぉるだしょぞく。	NO_LABEL
4歳の時に芸能界入りし子役タレントとして活躍した。	よんさいのときにげいのーかいいりしこやくたれんととしてかつやくした。	NO_LABEL
特に1989年から1996年3月まで『あっぱれさんま大先生』のレギュラー出演で知名度をあげた。	NO_PRONOUNCE	NO_LABEL
BS朝日の『Harajukuロンチャーズ』などのバラエティ番組やCMにも多数出演した。	NO_PRONOUNCE	NO_LABEL
その後Fm yokohama、Bayfmのレポーター、NACK5『RADIO-X』火曜日のレギュラーパーソナリティなどを経て、2006年からは大宮アルディージャのオフィシャルラジオ『アルディージャホットライン』を担当している。	NO_PRONOUNCE	NO_LABEL
デビュー当時は劇団東俳、その後シーアンドティーに所属していた。	でびゅーとーじわげきだんとうはい、そのごしーあんどてぃーにしょぞくしていた。	NO_LABEL
目白大学短期大学部卒業。	めじろだいがくそつぎょー。	NO_LABEL
いきものがかりのボーカル、吉岡聖恵とは同じ厚木市立南毛利中学校出身同士である。	いきものがかりのぼーかる、よしおかきよえとわおなじあつぎしりつみなみもーりちゅーがっこーしゅっしんどーしである。	NO_LABEL
サマソニでは、横田佳織、プリーズ大津田とのユニット『バキューム』としても出演。	NO_PRONOUNCE	NO_LABEL
以後、バキュームとしての活動も行っている。	いご、ばきゅーむとしてのかつどーもおこなっている。	NO_LABEL
2010年8月26日に入籍を発表。	にせんじゅうねんはちがつにじゅうろくにちににゅーせきをはっぴょー。	NO_LABEL
芸能活動では引き続き小嶋亜由美として行う。	げいのーかつどーでわひきつずきこじまあゆみとしておこなう。	NO_LABEL
