『FNN 福井テレビみんなのニュース』は、福井テレビジョン放送で放送されていたニュース番組である。	NO_PRONOUNCE	NO_LABEL
いずれも、福井テレビアナウンサー	いずれも、ふくいてれびあなうんさー	NO_LABEL
オープニングはフジテレビと同様の為、省略。	おーぷにんぐわふじてれびとどーよーのため、しょーりゃく。	NO_LABEL
平日・週末共通でテロップにはアニメーションがあり、テロップのデザインには何度か変更がある。	NO_PRONOUNCE	NO_LABEL
BGMについては2016年現在も、フジテレビにて2015年4月～9月に使用されていたBGMを多数使用している。	NO_PRONOUNCE	NO_LABEL
