『THE 博学』はテレビ朝日系列で放送されたクイズ番組。	NO_PRONOUNCE	NO_LABEL
各界の著名人・知識人が「THE 博学」の称号をかけて、人気の著書から出題される問題に挑む。	NO_PRONOUNCE	NO_LABEL
番組では「博学」の意味を「知識量はもちろん、その知識が無くても自らの持つ『知の遺産』を駆使し答えを導き出す人」と定義されている。	NO_PRONOUNCE	NO_LABEL
第2回のみ土曜放送で、他の4回は全て木曜放送、それも20時ドラマ『木曜ミステリー』と21時ドラマ『木曜ドラマ』の双方の作品が終了後に行われる。	NO_PRONOUNCE	NO_LABEL
デイヴィッド・ギャレット 『Smooth Criminal』	NO_PRONOUNCE	NO_LABEL
