阿部 弘毅3月15日 - 1949年2月6日）は、日本の海軍軍人。	NO_PRONOUNCE	NO_LABEL
最終階級は海軍中将。	さいしゅーかいきゅーわかいぐんちゅーじょー。	NO_LABEL
海軍兵学校、海軍大学校卒業。	かいぐんへいがっこー、かいぐんだいがっこーそつぎょー。	NO_LABEL
海軍兵学校同期に伊藤整一、遠藤喜一、高木武雄、山県正郷、岡敬純、角田覚治、原忠一などがいる。	かいぐんへいがっこーどーきにいとーせいーち、えんどーよしかず、たかぎたけお、やまがたまささと、おかたかずみ、かくだかくじ、はらちゅういちなどがいる。	NO_LABEL
山形県米沢市出身。	やまがたけんよねざわししゅっしん。	NO_LABEL
1911年7月、海軍兵学校39期を148人中26位で卒業。	せんきゅうひゃくじゅういちねんしちがつ、かいぐんへいがっこーさんじゅうきゅうきをひゃくよんじゅうはちにんちゅーにじゅうろくいでそつぎょー。	NO_LABEL
1912年12月、海軍少尉任官。	せんきゅうひゃくじゅうにねんじゅーにがつ、かいぐんしょーいにんかん。	NO_LABEL
1938年11月海軍少将、海軍兵学校教頭兼監事長。	せんきゅうひゃくさんじゅうはちねじゅーいちがつかいぐんしょーしょー、かいぐんへいがっこーきょーとーけんかんじちょー。	NO_LABEL
1941年8月、重巡洋艦「利根」、「筑摩」からなる第8戦隊司令官。	NO_PRONOUNCE	NO_LABEL
第8戦隊は真珠湾攻撃、ミッドウェー海戦に参加した。	だいはちせんたいわしんじゅわんこーげき、みっどーぇーかいせんにさんかした。	NO_LABEL
1942年7月、戦艦「比叡」、「霧島」からなる第11戦隊司令官。	NO_PRONOUNCE	NO_LABEL
第二次ソロモン海戦において、機動部隊の前衛部隊指揮官を務めたが、夜戦に備えて前進命令が出たにも関わらず命令に従わずに督戦され、また南太平洋海戦でも敵から遠ざかる避退行動を続けて督戦命令を受けるなど、消極的な指揮が問題となった。	だいにじそろもんかいせんにおいて、きどーぶたいのぜんえいぶたいしきかんをつとめたが、やせんにそなえてぜんしんめいれいがでたにもかかわらずめいれいにしたがわずにとくせんされ、またみなみたいへいよーかいせんでもてきからとーざかるひたいこーどーをつずけてとくせんめいれいをうけるなど、しょーきょくてきなしきがもんだいとなった。	NO_LABEL
1942年11月1日海軍中将に昇進し、1942年11月12日～15日にソロモン海で行われた第三次ソロモン海戦において第11戦隊を中心とする挺身攻撃隊を率いたが、指揮下の戦艦2隻を喪失し、責任を問われる形で予備役に編入された。	NO_PRONOUNCE	NO_LABEL
航空母艦「信濃」の艦長でもある阿部俊雄少将は弟にあたる。	NO_PRONOUNCE	NO_LABEL
