プラチナは、漫画『ポケットモンスターSPECIAL』に登場する架空の人物である。	NO_PRONOUNCE	NO_LABEL
第7章の主人公の一人で、第8章ではメイン主人公。	NO_PRONOUNCE	NO_LABEL
フルネームは「プラチナ・ベルリッツ」。	NO_PRONOUNCE	NO_LABEL
一人称は「わたし」。	NO_PRONOUNCE	NO_LABEL
シンオウ地方に200年以上続く大財閥にして学者の家系「ベルリッツ家」の令嬢で、超高級ホテルや最高級ブティック店を自分の所有物と言うほどのセレブである。	NO_PRONOUNCE	NO_LABEL
学者の娘だけあってポケモンだけでなくあらゆる事物に関する知識が培われており、幼少期よりナナカマド博士の手伝いをする程の才女である。	がくしゃのむすめだけあってぽけもんだけでなくあらゆるじぶつにかんするちしきがつちかわれており、よーしょーきよりななかまどはかせのてつだいをするほどのさいじょである。	NO_LABEL
同時にこの膨大な知識を生かした分析能力により、バトルに限らず様々な状況で活路を見出している。	どーじにこのぼーだいなちしきをいかしたぶんせきのーりょくにより、ばとるにかぎらずさまざまなじょーきょーでかつろをみいだしている。	NO_LABEL
その反面、読んだだけの知識がほとんどの為、自転車の乗り方やテレビ番組などを知らない、世間常識に乏しい所がある。	そのはんめん、よんだだけのちしきがほとんどのため、じてんしゃののりかたやてれびばんぐみなどをしらない、せけんじょーしきにとぼしいところがある。	NO_LABEL
その世間知らずな面を嘘で誤魔化し、傲慢とも取れる態度を取ってしまう事もあり、周囲からの反発を招きやすいのが玉にキズである。	そのせけんしらずなめんをうそでごまかし、ごーまんともとれるたいどをとってしまうこともあり、しゅーいからのはんぱつをまねきやすいのがたまにきずである。	NO_LABEL
自分では出来ない事も多く、例として作者によればホテルのメイク係にお金を渡して髪を結ってもらっているとのこと。	じぶんでわできないこともおーく、れいとしてさくしゃによればほてるのめいくがかりにおかねをわたしてかみをゆってもらっているとのこと。	NO_LABEL
またプラチナの父によれば、ダイヤとパールに出会うまではきちんと人に謝った事がなかったらしい。	またぷらちなのちちによれば、だいやとぱーるにであうまでわきちんとひとにあやまったことがなかったらしい。	NO_LABEL
叱責などを受けると泣いたり感情的になることも多いが、その試練を乗り越えて得た技術を後の困難に生かしている。	しっせきなどをうけるとないたりかんじょーてきになることもおーいが、そのしれんをのりこえてえたぎじゅつをごのこんなんにいかしている。	NO_LABEL
またダイヤとパールの漫才を護衛の訓練だと思い込む等、やや天然ボケらしい一面も見せる。	まただいやとぱーるのまんざいをごえいのくんれんだとおもいこむひとし、ややてんねんぼけらしいいちめんもみせる。	NO_LABEL
好奇心は強く、自分の知らないことは積極的に吸収し、本物の知識にしようと心掛けている。	こーきしんわつよく、じぶんのしらないことわせっきょくてきにきゅーしゅーし、ほんもののちしきにしようとこころがけている。	NO_LABEL
喜ぶと両腕を上下に振る癖がある。	よろこぶとりょーうでをじょーげにふるくせがある。	NO_LABEL
当初はバトル初心者だったが、各ポケモンジムを巡りダイヤ・パールと特訓を重ねるうちに実力を高めていく。	NO_PRONOUNCE	NO_LABEL
トバリシティを訪れた際にカジノのルーレットゲームにのめり込んだ結果動体視力が鍛えられ、ルーレットの目押しや障害物を避けての的確な攻撃を身につけた。	とばりしてぃをおとずれたさいにかじののるーれっとげーむにのめりこんだけっかどーたいしりょくがきたえられ、るーれっとのめおしやしょーがいぶつをさけてのてきかくなこーげきをみにつけた。	NO_LABEL
「下々の者に軽々しく名乗ってはいけない」というセバスチャンの言いつけにより、ダイヤとパールには当初は自分の名前を教えず、トバリシティを発つ辺りまでは2人の事も名前では呼ばなかった。	NO_PRONOUNCE	NO_LABEL
ミオジムでダイヤとパールから真実を告げられ思わず2人を罵り去ってしまうが、自身もミオシティに来るまで2人に対し幾度も嘘をつき意地を張っていたことを反省し、2人のことを「私の騎士」と称え、自身の本名を告げる。	NO_PRONOUNCE	NO_LABEL
その後は、他の登場人物にも本名を名乗るようになる。	そのごわ、たのとーじょーじんぶつにもほんみょーをなのるよーになる。	NO_LABEL
『ダイヤモンド・パール・プラチナ』の女の子主人公を元にしたキャラクターだが、「靴下がニーソ丈まで伸びている」「右手に真珠の指輪」「左手にダイヤの指輪」「後ろに結んだ一房だけ髪が他より長くなっている」「目つきが鋭い」など、デザインに細かい違いが見られる。	NO_PRONOUNCE	NO_LABEL
第13章	NO_PRONOUNCE	NO_LABEL
手持ちは、第8章時のメンバーである。	NO_PRONOUNCE	NO_LABEL
ポケモンにニックネームはつけていない。	ぽけもんににっくねーむわつけていない。	NO_LABEL
ジム戦の時にはダイヤのるー・べー、パールのサルヒコ・ペラヒコを借りて挑むこともあった。	NO_PRONOUNCE	NO_LABEL
第8章では、「ポケルス」が付いており、最終局面では全員が強くなっていた。	NO_PRONOUNCE	NO_LABEL
