摂津市立第二中学校は、大阪府摂津市にある公立中学校。	せっつしりつだいにちゅうがっこーわ、おーさかふせっつしにあるこーりつちゅーがっこー。	NO_LABEL
摂津市には従来、摂津市立三島中学校1校のみが設置され、摂津市全域を校区としていた。	NO_PRONOUNCE	NO_LABEL
三島中学校の生徒数が増加したことに伴い、三島中学校の校区から安威川以南を分離する形で、1970年に摂津市で2番目の中学校・摂津市立第二中学校として開校した。	NO_PRONOUNCE	NO_LABEL
また第二中学校開校と同時に、従来の三島中学校は摂津市立第一中学校へと改称している。	まただいにちゅーがっこーかいこーとどーじに、じゅーらいのみしまちゅうがっこーわせっつしりつだいいちちゅうがっこーえとかいしょーしている。	NO_LABEL
開校当初の1年間は摂津市立第一中学校内に仮校舎を設置していたが、1971年4月に現在地に移転している。	かいこーとーしょのいちねんかんわせっつしりつだいいちちゅうがっこーないにかりこーしゃをせっちしていたが、せんきゅうひゃくななじゅういちねんしがつにげんざいちにいてんしている。	NO_LABEL
また生徒数の増加により、摂津市立第四中学校・摂津市立第五中学校の2中学校が分離開校している。	NO_PRONOUNCE	NO_LABEL
