陶山 篤太郎は詩人、実業家。	すやまとくたろーわしじん、じつぎょーか。	NO_LABEL
昭和初期に政治家としても活動した。	しょーわしょきにせいじかとしてもかつどーした。	NO_LABEL
1895年、神奈川県橘樹郡川崎町砂子生まれ。	せんはっぴゃくきゅうじゅうごねん、かながわけんたちばなぐんかわさきちょーすなごうまれ。	NO_LABEL
1913年に横浜商業学校卒業。	せんきゅうひゃくじゅうさんねんによこはましょーぎょーがっこーそつぎょー。	NO_LABEL
1919年の雑誌『太洋の周辺』の同人になり、1924年に詩集「銅牌」を刊行する。	NO_PRONOUNCE	NO_LABEL
また、労働学校の講師になり、労働者の教育に従事する。	また、ろーどーがっこーのこーしになり、ろーどーしゃのきょーいくにじゅーじする。	NO_LABEL
1932年に社会民主党から川崎市会議員選に出馬して、最高点で当選し、副議長を務める。	せんきゅうひゃくさんじゅうにねんにしゃかいみんしゅとーからかわさきしかいぎいんせんにしゅつばして、さいこーてんでとーせんし、ふくぎちょーをつとめる。	NO_LABEL
1938年に9月21日から1939年11月21日まで、川崎市会の副議長を勤める。	せんきゅうひゃくさんじゅうはちねにくがつにじゅういちにちからせんきゅうひゃくさんじゅうきゅうねんじゅーいちがつにじゅういちにちまで、かわさきしかいのふくぎちょーをつとめる。	NO_LABEL
後に神奈川県会議員に当選して、東京府と神奈川県の水利紛争でも大きな役割を果たす。	ごにかながわけんかいぎいんにとーせんして、とーきょーふとかながわけんのすいりふんそーでもおーきなやくわりをはたす。	NO_LABEL
1937年4月30日第20回衆議院議員総選挙に、神奈川2区で政治革新協議会より出馬する。	せんきゅうひゃくさんじゅうななねしがつさんじゅうにちだいにじゅっかいしゅーぎーんぎーんそーせんきょに、かながわにくでせいじかくしんきょーぎかいよりしゅつばする。	NO_LABEL
1940年、吉川節子と結婚する。	せんきゅうひゃくよんじゅうねん、よしかわせつことけっこんする。	NO_LABEL
詩人としての活動では、北原白秋、与謝野晶子らと童謡詩人会を結成したり、高村光太郎と親交を結ぶ。	しじんとしてのかつどーでわ、きたはらはくしゅー、よさのあきこらとどーよーしじんかいをけっせいしたり、たかむらこうたろーとしんこーをむすぶ。	NO_LABEL
高村は後に、陶山のために銅碑を立てている。	たかむらわごに、すやまのためにどーひをたてている。	NO_LABEL
1941年肺結核で死去する。	せんきゅうひゃくよんじゅういちねはいけっかくでしきょする。	NO_LABEL
大日本赤誠会の顧問も務める。	だいにっぽんせきせいかいのこもんもつとめる。	NO_LABEL
