『SELECTION 1978-81』は、1981年9月1日に発売されたオフコース通算2作目のベスト・アルバム。	NO_PRONOUNCE	NO_LABEL
6作目『FAIRWAY』から8作目『We are』までのオリジナル・アルバムからだけでなく、シングルのみでリリースされた作品も収録したメンバー自選によるベスト・アルバム第2弾。	NO_PRONOUNCE	NO_LABEL
A-1「風に吹かれて」はドラムが差し替えられ、ピッチも若干上げられている。	NO_PRONOUNCE	NO_LABEL
A-3「愛を止めないで」はシンセサイザーによるイントロがカットされ、コーラスが差し替えられている。	NO_PRONOUNCE	NO_LABEL
A-4「せつなくて」はフェードアウトのタイミングが若干早い。	NO_PRONOUNCE	NO_LABEL
B-1「Yes-No」は『We are』収録のアルバム・バージョンに富樫要によるフリューゲルホルンのイントロが編集で加えられている。	NO_PRONOUNCE	NO_LABEL
結果としてアルバム・バージョンより約30秒長くなり、シングル・バージョンから約20秒短くなっている。	NO_PRONOUNCE	NO_LABEL
B-2「愛の終わる時」は間奏部が約11秒ほど編集され、B-3「一億の夜を越えて」はオープニングの大間ジローによるカウントがカットされている。	NO_PRONOUNCE	NO_LABEL
全11曲中『We are』からの4曲と「I LOVE YOU」を除くA-1,2,3,5,6,B-2はビル・シュネーがミックスダウンし直している。	NO_PRONOUNCE	NO_LABEL
歌詞カードはポケットブック仕様。	かしかーどわぽけっとぶっくしよー。	NO_LABEL
各ページには歌詞の他、それぞれの曲がリリースされたのとほぼ同時期のメンバー写真や、イメージフォトがレイアウトされている。	かくぺーじにわかしのほか、それぞれのきょくがりりーすされたのとほぼどーじきのめんばーしゃしんや、いめーじふぉとがれいあうとされている。	NO_LABEL
アルバム『Three and Two』以来ジャケットにデザインされてきた“Three and Two”を併せた、すべて大文字のグループ名のロゴは、このアルバムで最後となった。	NO_PRONOUNCE	NO_LABEL
2005年、レコード・デビュー35周年にあわせ“オリジナル・アルバム15タイトル紙ジャケット・シリーズ”としてエキスプレス・レーベル在籍中のオリジナル作品がリイシュー。	NO_PRONOUNCE	NO_LABEL
24ビット・デジタル・リマスタリング、オリジナルLP装丁を復刻した紙ジャケット仕様にてリリースされた。	NO_PRONOUNCE	NO_LABEL
2009年にはSHM-CDフォーマット、通常のプラ・ケース仕様で再発された。	NO_PRONOUNCE	NO_LABEL
