この項目は日本の高校野球のうち、阪神甲子園球場で行われる選抜高等学校野球大会および全国高等学校野球選手権大会での主な記録について記述する。	このこーもくわにっぽんのこーこーやきゅーのうち、はんしんこーしえんきゅうじょーでおこなわれるせんばつこーとーがっこーやきゅーたいかいおよびぜんこくこーとーがっこーやきゅーせんしゅけんたいかいでのおもなきろくについてきじゅつする。	NO_LABEL
※上位5都道府県・第90回記念選抜高等学校野球大会 終了時点	NO_PRONOUNCE	NO_LABEL
太字 は2018年時点での現役監督。	ふとじわにせんじゅうはちねんじてんでのげんえきかんとく。	NO_LABEL
