ワッチミー!TVは、フジテレビが2006年5月17日に設立した合弁会社「フジテレビラボLLC」が運営していた無料の動画共有サイト。	NO_PRONOUNCE	NO_LABEL
2006年7月13日にベータサービスを開始した。	にせんろくねんしちがつじゅうさんにちにべーたさーびすをかいしした。	NO_LABEL
サービス内容はYouTubeに似ているが、アップロードした動画は内容がチェックされ、著作権法違反になるコンテンツや不適切なコンテンツは配信されないようになっている。	さーびすないよーわゆーちゅーぶににているが、あっぷろーどしたどーがわないよーがちぇっくされ、ちょさくけんほーいはんになるこんてんつやふてきせつなこんてんつわはいしんされないよーになっている。	NO_LABEL
2018年3月31日をもってサービス終了することが告知された。	にせんじゅうはちねんさんがつさんじゅういちにちをもってさーびすしゅーりょーすることがこくちされた。	NO_LABEL
ワッチミー!TV×TVは、BSフジで2006年7月から放送されている情報番組。	NO_PRONOUNCE	NO_LABEL
かつてのメインキャスターはマリエ、テリー伊藤など。	かつてのめいんきゃすたーわまりえ、てりーいとーなど。	NO_LABEL
2010年3月までは、若者たちの流行やファッションを徹底リサーチし、今後ブレイクするかもしれない人物や商品を先取りするエンタメ系情報番組。	にせんじゅうねんさんがつまでわ、わかものたちのりゅーこーやふぁっしょんをてっていりさーちし、こんごぶれいくするかもしれないじんぶつやしょーひんをさきどりするえんためけいじょーほーばんぐみ。	NO_LABEL
webの『ワッチミー!TV』と連動して番組を展開していた。	NO_PRONOUNCE	NO_LABEL
マリエが降板した2010年4月からおよそ2年間は、バラエティ色が濃かったそれまでの内容から一変。	まりえがこーばんしたにせんじゅうねんしがつからおよそにねんかんわ、ばらえてぃしょくがこかったそれまでのないよーからいっぺん。	NO_LABEL
少し硬派な内容のものが放送されるようになっていた。	すこしこーはなないよーのものがほーそーされるよーになっていた。	NO_LABEL
2012年4月以降は、特に進行役を置かず、ワッチミー!TVにアップロードされたさまざまなコンテンツを紹介する内容の番組となっている。	NO_PRONOUNCE	NO_LABEL
2016年3月26日に放送が終了した。	にせんじゅうろくねんさんがつにじゅうろくにちにほーそーがしゅーりょーした。	NO_LABEL
2008年4月、2008年10月にそれぞれ番組内容をリニューアル。	にせんはちねんしがつ、にせんはちねんじゅーがつにそれぞればんぐみないよーをりにゅーある。	NO_LABEL
2007年10月-2008年4月までは毎週月曜-木曜の9:15からの15分番組として放送されていたが、2008年10月からは毎週日曜深夜24:30からの75分番組となった。	NO_PRONOUNCE	NO_LABEL
これから紹介する企画は、2012年7月現在でもアーカイブ動画として、ワッチミー!TVで閲覧可能なものである。	NO_PRONOUNCE	NO_LABEL
