筑後警察署は、福岡県警察が管轄する警察署の一つで、筑後地区に属する。	ちくごけいさつしょわ、ふくおかけんけいさつがかんかつするけいさつしょのひとつで、ちくごちくにぞくする。	NO_LABEL
筑後市、大川市、三潴郡大木町の2市1町を管轄する。	NO_PRONOUNCE	NO_LABEL
2010年4月1日に大川警察署と統合する以前は筑後市のみを管轄していた。	にせんじゅうねんしがつついたちにおーかわけいさつしょととーごーするいぜんわちくごしのみをかんかつしていた。	NO_LABEL
筑後市は八女・筑後広域圏に、大川市と大木町は久留米広域圏に属しており、筑後署と大川署の統合によって、管轄区域が二つの広域圏にまたがることになった。	ちくごしわやめちくごこーいきけんに、おーかわしとおーきまちわくるめこーいきけんにぞくしており、ちくごしょとおーかわしょのとーごーによって、かんかつくいきがふたつのこーいきけんにまたがることになった。	NO_LABEL
