モンロー/ノイマン効果とは、火薬の爆発に関する現象。	もんろーのいまんこーかとわ、かやくのばくはつにかんするげんしょー。	NO_LABEL
薄い金属の内張りを付けてスリバチ状に成形した炸薬を爆発させると、爆発の衝撃波が円錐中心軸に向かって集中し、中心軸に沿って方向を変え、スリバチの上方に向かって超高速の金属の噴流が作られる現象である。	うすいきんぞくのうちばりをつけてすりばちじょーにせいけいしたさくやくをばくはつさせると、ばくはつのしょーげきはがえんすいちゅーしんじくにむかってしゅーちゅーし、ちゅーしんじくにそってほーこーをかえ、すりばちのかみがたにむかってちょーこーそくのきんぞくのふんりゅーがつくられるげんしょーである。	NO_LABEL
噴流が当たる目標物には深い穿孔がうがたれる。	ふんりゅーがあたるもくひょーぶつにわふかいせんこーがうがたれる。	NO_LABEL
モンロー効果とノイマン効果を合わせてこのように呼ばれる。	もんろーこーかとのいまんこーかをあわせてこのよーによばれる。	NO_LABEL
これは成形炸薬と呼ばれ、成形炸薬弾などには、その特性を用いた弾薬が使われている。	これわせいけいさくやくとよばれ、せいけいさくやくだんなどにわ、そのとくせいをもちいただんやくがつかわれている。	NO_LABEL
モンロー効果とは、アメリカの科学者、チャールズ・E・モンローに発見した円錐形のくぼみを持つ爆薬を後方から起爆すると、反対側の前方に強い穿孔力が生じる現象。	NO_PRONOUNCE	NO_LABEL
成形炸薬効果などとも呼ばれる。	せいけいさくやくこーかなどともよばれる。	NO_LABEL
火薬が後方から起爆されると、爆発は後方から前方に向かって進行する。	かやくがこーほーからきばくされると、ばくはつわこーほーからぜんぽーにむかってしんこーする。	NO_LABEL
爆発が円錐状のくぼみの頂点に達し、さらに前方に向かって進行すると、発生した衝撃波は前方の空洞にドーナツ状に広がり、円錐の中心軸で互いにぶつかって方向を変え、前方に噴出する。	ばくはつがえんすいじょーのくぼみのちょーてんにたっし、さらにぜんぽーにむかってしんこーすると、はっせいしたしょーげきはわぜんぽーのくーどーにどーなつじょーにひろがり、えんすいのちゅーしんじくでたがいにぶつかってほーこーをかえ、ぜんぽーにふんしゅつする。	NO_LABEL
通常、火薬の爆発による衝撃波は周囲に球形に広がり、目標に対して使用できる衝撃波は爆発で生じたものの一部に過ぎないが、モンロー効果を利用することで、衝撃波の力を一部に集中して利用できる。	つーじょー、かやくのばくはつによるしょーげきはわしゅーいにきゅーけいにひろがり、もくひょーにたいしてしよーできるしょーげきはわばくはつでしょーじたもののいちぶにすぎないが、もんろーこーかをりよーすることで、しょーげきはのちからをいちぶにしゅーちゅーしてりよーできる。	NO_LABEL
モンロー効果による影響を決める因子は以下の通りである。	もんろーこーかによるえいきょーをきめるいんしわいかのとーりである。	NO_LABEL
ノイマン効果が1910年に発見した、モンローの円錐形のくぼみに金属板で内張りをすると穿孔力がさらに強くなる現象。	のいまんこーかがせんきゅうひゃくじゅうねんにはっけんした、もんろーのえんすいがたのくぼみにきんぞくばんでうちばりをするとせんこーりょくがさらにつよくなるげんしょー。	NO_LABEL
爆轟が進行して金属の内張りに達すると、爆轟波によりライナーは動的超高圧に晒されユゴニオ弾性限界を超える圧力に達すると固体の金属でも可塑流動性を持つようになり、液体に近似した挙動を示すようになる。	NO_PRONOUNCE	NO_LABEL
これにより、融着体と呼ばれる金属塊となって前方へ超音速で飛び出していく。	これにより、とーるぎたいとよばれるきんぞくかたまりとなってぜんぽーえちょーおんそくでとびだしていく。	NO_LABEL
一般に、高温高圧で金属が蒸発して金属蒸気が飛び出すと言う誤解があるが、5000 m/sを超える速度では爆発熱が金属材料に伝わるだけの時間がないため金属は高温にはならない。	NO_PRONOUNCE	NO_LABEL
メタルジェットは「高温の金属ガス」でも「高圧の金属ガス」でもない。	NO_PRONOUNCE	NO_LABEL
メタルジェットは冷間で超音速で挙動する可塑性を持つ固体金属である。	めたるじぇっとわひやかんでちょーおんそくできょどーするかそせいをもつこたいきんぞくである。	NO_LABEL
メタルジェットが形成されるためには爆薬からライナーへ伝わる衝撃波の伝播速度が金属中の音速を超えている必要があるため、爆速が5000 m/s以下の爆薬ではメタルジェットが形成されず、効果が無い。	NO_PRONOUNCE	NO_LABEL
一般に火薬の爆発によって生じるガスの平均分子量は小さく、高速であっても持てるエネルギー量は少ない。	いっぱんにかやくのばくはつによってしょーじるがすのへいきんぶんしりょーわちーさく、こーそくであってももてるえねるぎーりょうわすくない。	NO_LABEL
ノイマン効果を利用すると重たい金属粒子が超音速で吹きつけてくるため、火薬のみの場合に比べて目標表面に与えるエネルギー量が多くなる。	のいまんこーかをりよーするとおもたいきんぞくりゅーしがちょーおんそくでふきつけてくるため、かやくのみのばあいにくらべてもくひょーひょーめんにあたえるえねるぎーりょうがおーくなる。	NO_LABEL
また融着体の衝突による運動エネルギーも利用できる。	またとーるぎたいのしょーとつによるうんどーえねるぎーもりよーできる。	NO_LABEL
穿孔の深さ"P" は以下の式で求められる。	NO_PRONOUNCE	NO_LABEL
金属板の内張りをライナーと呼ぶ、材質によって貫通力が大きく異なる。	きんぞくばんのうちばりをらいなーとよぶ、ざいしつによってかんつーりょくがおーきくことなる。	NO_LABEL
基本的に高密度な物質ほど貫通力が高くなる傾向がある。	きほんてきにこーみつどなぶっしつほどかんつーりょくがたかくなるけいこーがある。	NO_LABEL
一般的に軍用品の場合には、低コストな量産品では深絞りプレス銅板が用いられ、高性能なミサイルなどはタンタル合金を用いる。	いっぱんてきにぐんよーひんのばあいにわ、ていこすとなりょーさんひんでわふかしぼりぷれすどーばんがもちいられ、こーせいのーなみさいるなどわたんたるごーきんをもちいる。	NO_LABEL
モンロー効果とノイマン効果は同時に利用されることが多いため混同されがちである。	もんろーこーかとのいまんこーかわどーじにりよーされることがおーいためこんどーされがちである。	NO_LABEL
またモンローの業績を評価し、ノイマンの発見はその改良に過ぎないと見る向きは、単にモンロー効果とだけ呼ぶ。	またもんろーのぎょーせきをひょーかし、のいまんのはっけんわそのかいりょーにすぎないとみるむきわ、たんにもんろーこーかとだけよぶ。	NO_LABEL
日本では名前の読みにも揺らぎが多く、マンロー効果、ムンロー効果の語も見られる。	にっぽんでわなまえのよみにもゆらぎがおーく、まんろーこーか、むんろーこーかのかたりもみられる。	NO_LABEL
Monroe effectのスペルミスも多く見かける。	NO_PRONOUNCE	NO_LABEL
