広橋 兼宣－永享元年9月14日）は、室町時代の公卿。	NO_PRONOUNCE	NO_LABEL
広橋仲光の子。	ひろはしなかみつのこ。	NO_LABEL
法名は常寂、法号は後瑞雲院。	ほーみょーわつねさび、ほーごーわこーずいうんいん。	NO_LABEL
大学寮の実体が無い時代であったとはいえ、文筆を業とした広橋家の出身でなおかつ後円融天皇の生母崇賢門院の義理の甥にあたることから、3歳で学問料を与えられ、5歳で文章得業生となるなど破格の扱いを受ける。	だいがくりょーのじったいがないじだいであったとわいえ、ぶんぴつをぎょーとしたひろはしかのしゅっしんでなおかつごえんゆうてんのーのせいぼたかしけんもんいんのぎりのおいにあたることから、さんさいでがくもんりょーをあたえられ、ごさいでぶんしょーとくぎょーせいとなるなどはかくのあつかいをうける。	NO_LABEL
応安5年/文中元年に元服し、翌年にはわずか8歳で叙爵されて治部権少輔に任ぜられた。	NO_PRONOUNCE	NO_LABEL
永徳3年/弘和3年に蔵人、嘉慶2年/元中5年に右少弁兼文章博士となりその年のうちに左少弁に転じた。	NO_PRONOUNCE	NO_LABEL
明徳元年・/元中7年に右中弁となる。	NO_PRONOUNCE	NO_LABEL
南北朝合一後の応永元年には正四位下蔵人頭に任ぜられ、左中弁に転じる。	なんぼくちょーごーいつごのおおえがんねんにわしょうしーのげくろーどのとーににんぜられ、さちゅーべんにてんじる。	NO_LABEL
応永2年に右大弁、応永4年に左大弁、応永6年造東大寺長官を歴任後、応永7年に参議に任ぜられた。	おおえにねんにうだいべん、おおえよんねんにさだいべん、おおえろくねんみやつことーだいじちょーかんをれきにんご、おおえななねんにさんぎににんぜられた。	NO_LABEL
応永8年従三位権中納言となり武家伝奏に任ぜられる。	おおえはちねんじゅさんいごんのちゅーなごんとなりぶけてんそーににんぜられる。	NO_LABEL
応永14年に左兵衛督・検非違使別当を兼ね、応永15年に大宰権帥を兼ねる。	NO_PRONOUNCE	NO_LABEL
応永17年に正二位権大納言に任ぜられ、応永30年にはに従一位大納言に任ぜられた。	おおえじゅうななねんにしょうにーごんだいなごんににんぜられ、おおえさんじゅうねんにわにじゅいちーだいなごんににんぜられた。	NO_LABEL
応永32年に出家するが、その直前に准大臣に任ぜられた。	おおえさんじゅうにねんにしゅっけするが、そのちょくぜんにじゅんだいじんににんぜられた。	NO_LABEL
准大臣任命直後には、自亭に「裏築地」を造営して物議を醸した。	NO_PRONOUNCE	NO_LABEL
武家伝奏として室町幕府との交渉にあたり、その様子は日記『兼宣公記』に記されている。	NO_PRONOUNCE	NO_LABEL
また、娘は後花園天皇の乳母となった。	また、むすめわごはなぞのてんのーのおんばとなった。	NO_LABEL
没後、内大臣を贈官されている。	ぼつご、ないだいじんをぞーかんされている。	NO_LABEL
鎌倉時代末期以後、院近臣であった名家出身者が本来の家格を越えて出世する例が相次ぎ、室町時代に入ると日野流や勧修寺流の名家が治天の君や室町幕府と密接に結び付いたことで稀ではあるが大臣に任じられる者が現れ、それを例外としても従一位・准大臣が現実的な極位極官とみなされるようになった。	NO_PRONOUNCE	NO_LABEL
兼宣は同じ日野流の日野資教と激しく対立し、資教が受けることのなかった准大臣の地位に就くことを望んでいた。	かねのぶわおなじひのりゅーのひのしきょーとはげしくたいりつし、しきょーがうけることのなかったじゅんだいじんのちいにつくことをのぞんでいた。	NO_LABEL
応永28年、兼宣の息子・宣光が資教の息子・有光の任大納言拝賀への扈従を命じられたが、兼宣はこれを拒絶した。	NO_PRONOUNCE	NO_LABEL
資教の訴えを聞いた後小松院と足利義持は、兼宣を一時籠居・所領没収の処分としている。	NO_PRONOUNCE	NO_LABEL
その後、応永32年に兼宣は出家に先立って足利義持に自分の長年にわたる功労を訴えて准大臣宣下が与えられるように武家執奏をしてくれるように懇願した。	そのご、おおえさんじゅうにねんにけんせんわしゅっけにさきだってあしかがよしもちにじぶんのながねんにわたるこーろーをうったえてじゅんだいじんせんげがあたえられるよーにぶけしっそーをしてくれるよーにこんがんした。	NO_LABEL
義持はこれに動かされて執奏を行ったが、治天の君である後小松院は難色を示した。	よしもちわこれにうごかされてしっそーをおこなったが、ちてんのきみであるごこまついんわなんしょくをしめした。	NO_LABEL
だが、義持の意見に同意することになった。	だが、よしもちのいけんにどーいすることになった。	NO_LABEL
ところが、それを聞いた日野資教は後小松院に対して「自分は出家後も禁裏や院のために尽くしているのに、兼宣に地位を超越されるのは納得いかない」と訴え出た。	NO_PRONOUNCE	NO_LABEL
院はこれに動かされて義持に資教にも准大臣宣下を行うことを伝えたが、今度は義持が難色を示した。	いんわこれにうごかされてよしもちにしきょーにもじゅんだいじんせんげをおこなうことをつたえたが、こんどわよしもちがなんしょくをしめした。	NO_LABEL
そのため、両者協議の結果、兼宣が出家する4月27日に両者同時に准大臣宣下を行うこととした。	そのため、りょーしゃきょーぎのけっか、けんせんがしゅっけするしがつにじゅうしちにちにりょーしゃどーじにじゅんだいじんせんげをおこなうこととした。	NO_LABEL
事態はこれで収まらず、日野資教は5月に入ると後小松院に懇願して孫の資親への禁色宣旨が認められ、広橋兼宣は自亭に裏築地を構築した。	じたいわこれでおさまらず、ひのしきょーわごがつにはいるとごこまついんにこんがんしてまごのしおやえのきんじきせんじがみとめられ、ひろはしかねのぶわじちんにうらつきじをこーちくした。	NO_LABEL
ところが、兼宣の裏築地構築が思わぬ騒動となった。	ところが、かねのぶのうらつきじこーちくがおもわぬそーどーとなった。	NO_LABEL
裏築地とは、邸宅の築地の外側なおかつ街路に面した部分に二重に構築された築地のことで、天皇や院、親王・門跡・摂関や大臣以下の公卿などに設置が許されていた。	NO_PRONOUNCE	NO_LABEL
本来であれば、従一位である兼宣が准大臣宣下を受けて構築することは問題視されるものではないが、当時の公家社会は困窮しており摂関家ですら実際に裏築地を構築することを遠慮していた。	ほんらいであれば、じゅいちーであるけんせんがじゅんだいじんせんげをうけてこーちくすることわもんだいしされるものでわないが、とーじのくげしゃかいわこんきゅーしておりせっかんけですらじっさいにうらつきじをこーちくすることをえんりょしていた。	NO_LABEL
その中で兼宣が裏築地を構築ことで、ただでさえ兼宣と資教の争いを身分不相応と快く思っていなかった摂関家・清華家・大臣家といった上級家格の公卿を中心として批難の声が高まった。	NO_PRONOUNCE	NO_LABEL
また、兼宣が裏築地を築く際に「正親町三条公雅が“准大臣の家の前なので恐縮すると、我が家の前を通行するのを避けた”と言っているため」と足利義持に説明したという話が広まり、公雅が激怒して後小松院と義持に事実無根であると訴えたのである。	NO_PRONOUNCE	NO_LABEL
後小松院も義持に大臣亭に裏築地を設ける先例は非常に稀で、今では『内裏・院御所・入道殿』のみであると不快感を示した。	NO_PRONOUNCE	NO_LABEL
更に右大臣一条兼良も構築の直接の是非には触れなかったものの、一条家には裏築地はないこと、日野・勧修寺はといった名家は摂家の家僕である筈なのに礼節を乱していると暗に非難した。	NO_PRONOUNCE	NO_LABEL
これを受けて、義持は兼宣に対して自発的に裏築地を撤去すること、さもなくば幕府が実力で撤去することを伝えた。	これをうけて、よしもちわけんせんにたいしてじはつてきにうらつきじをてっきょすること、さもなくばばくふがじつりょくでてっきょすることをつたえた。	NO_LABEL
兼宣はこれに従って自ら撤去をした。	かねのぶわこれにしたがってみずからてっきょをした。	NO_LABEL
一連の経緯は中山定親の『薩戒記』に詳しく載せられているが、定親自身も兼宣の行動を「軽率であった」としている。	NO_PRONOUNCE	NO_LABEL
だが、公家社会全般においては、無用の混乱を避けて事態の収拾を図ることが望まれ、裏築地の撤去をもって事態は解決したものとして扱われた。	だが、くげしゃかいぜんぱんにおいてわ、むよーのこんらんをさけてじたいのしゅーしゅーをはかることがのぞまれ、うらつきじのてっきょをもってじたいわかいけつしたものとしてあつかわれた。	NO_LABEL
一条兼良が「礼節を乱す」と主張しながら、実際には兼宣の処分どころか裏築地の設置の是非自体にも意思表示を示さなかったのも、そうした風潮によるところが大きかった。	NO_PRONOUNCE	NO_LABEL
だが、広橋兼宣と日野資教の争いは思わぬ形で終わりを迎える形になる。	だが、ひろはしかねのぶとひのしきょーのあらそいわおもわぬかたちでおわりをむかえるかたちになる。	NO_LABEL
日野資教の子・有光は禁闕の変によって処刑され、代わって日野家の継承を許された広橋兼宣の子・兼郷も足利義教の不興を買って所領を奪われて一時断絶に追い込まれることになったことによる。	NO_PRONOUNCE	NO_LABEL
