靭帯損傷は靭帯が外力などにより、損傷を受けた状態である。	じんたいそんしょーわじんたいががいりょくなどにより、そんしょーをうけたじょーたいである。	NO_LABEL
代表的なものとして、膝関節の十字靭帯断裂がある。	だいひょーてきなものとして、しつかんせつのじゅーじじんたいだんれつがある。	NO_LABEL
これは、膝関節にある前十字靭帯、後十字靭帯のいずれかが単独で損傷、もしくは双方が複合的に損傷し、連続性を失うものである。	これわ、しつかんせつにあるぜんじゅーじじんたい、こーじゅーじじんたいのいずれかがたんどくでそんしょー、もしくわそーほーがふくごーてきにそんしょーし、れんぞくせいをうしなうものである。	NO_LABEL
膝関節の前側、後側、内側、外側には、前十字靭帯、後十字靭帯、内側側副靭帯、外側側副靭帯がそれぞれ配置されている。	しつかんせつのまえがわ、こーがわ、うちがわ、そとがわにわ、ぜんじゅーじじんたい、こーじゅーじじんたい、うちがわがわふくじんたい、そとがわがわふくじんたいがそれぞれはいちされている。	NO_LABEL
前十字靭帯、後十字靭帯における十字靭帯断裂では、スポーツ、交通事故による損傷が増加している。	ぜんじゅーじじんたい、こーじゅーじじんたいにおけるじゅーじじんたいだんれつでわ、すぽーつ、こーつーじこによるそんしょーがぞーかしている。	NO_LABEL
前十字靭帯の断裂はバレーボール、バスケットボールなどの着地時、ジャンプ時、また疾走中に急激に速度を緩めた時などに減速損傷 deceleration injury として発生することが多い。	NO_PRONOUNCE	NO_LABEL
一方、後十字靭帯の断裂はダッシュボード損傷 dashboard injury のように、屈曲位で上端下端に強い力が作用した時に起こりやすい。	NO_PRONOUNCE	NO_LABEL
いずれの場合も、十字靭帯の単独損傷ではなく、複合損傷となることが多い。	いずれのばあいも、じゅーじじんたいのたんどくそんしょーでわなく、ふくごーそんしょーとなることがおーい。	NO_LABEL
症状として引き出し症状や回旋不安定性などが見られるが、後十字靭帯断裂では膝屈曲位で下腿の後方への落ち込み sagging が見られる。	NO_PRONOUNCE	NO_LABEL
主に行われる以外にも 、jerk テスト、など、多種類の検査法が発表されている。	NO_PRONOUNCE	NO_LABEL
治療の前段階で正確に診断を下すことが必要で、ストレスX線、関節造影、関節鏡などを併せて総合的に行う。	ちりょーのぜんだんかいでせいかくにしんだんをくだすことがひつよーで、すとれすえっくすせん、かんせつぞーえい、かんせつきょーなどをあわせてそーごーてきにおこなう。	NO_LABEL
新鮮外傷で2週間以内に縫合すれば優れた効果が期待できるが、陳旧例になると再建術が必要になることが多く効果も低下するため、早期治療が重要である。	しんせんがいしょーでにしゅーかんいないにほーごーすればすぐれたこーかがきたいできるが、ちんきゅーれいになるとさいけんじゅつがひつよーになることがおーくこーかもていかするため、そーきちりょーがじゅーよーである。	NO_LABEL
また十字靭帯の他、内側側副靭帯は膝を外反強制された時に損傷しやすく、損傷の頻度が高い。	またじゅーじじんたいのほか、うちがわがわふくじんたいわひざをそとはんきょーせいされたときにそんしょーしやすく、そんしょーのひんどがたかい。	NO_LABEL
外側側副靭帯は膝を内反強制された時に損傷しやすいが、単独での損傷はほとんど見られない。	そとがわがわふくじんたいわひざをうちはんきょーせいされたときにそんしょーしやすいが、たんどくでのそんしょーわほとんどみられない。	NO_LABEL
引き出し症状は十字靭帯断裂時に見られる症候である。	ひきだししょーじょーわじゅーじじんたいだんれつじにみられるしょーこーである。	NO_LABEL
前十字靭帯は大腿骨に対し脛骨の前方への移動を制御しているため、断裂した場合には大腿に対して下腿が異常に前方に移動することが他覚的に確認される。	ぜんじゅーじじんたいわだいたいこつにたいしけいこつのぜんぽーえのいどーをせいぎょしているため、だんれつしたばあいにわだいたいにたいしてかたいがいじょーにぜんぽーにいどーすることがたさとしてきにかくにんされる。	NO_LABEL
これとは逆に後十字靭帯は大腿骨に対し脛骨が後方へ落ち込むのを制御しているため、断裂した場合には下腿が後方に移動することが確認される。	これとわぎゃくにこーじゅーじじんたいわだいたいこつにたいしけいこつがこーほーえおちこむのをせいぎょしているため、だんれつしたばあいにわかたいがこーほーにいどーすることがかくにんされる。	NO_LABEL
前方引き出し、後方引き出しなどの症状を検査する具体的な引き出しテストには2つの実施方法がある。	ぜんぽーひきだし、こーほーひきだしなどのしょーじょーをけんさするぐたいてきなひきだしてすとにわふたつのじっしほーほーがある。	NO_LABEL
被検者を仰臥位として股関節を45度屈曲し、膝関節は90度屈曲位にして十分に力を抜かせ、足背が動かないように固定する。	ひけんしゃをぎょーがいとしてこかんせつをよんじゅうごどくっきょくし、しつかんせつわきゅうじゅうどくっきょくいにしてじゅーぶんにちからをぬかせ、あしせがうごかないよーにこていする。	NO_LABEL
この状態で両手を下腿上方に当て、前方もしくは後方へ移動させて変位を診察する。	このじょーたいでりょーてをかたいかみがたにあて、ぜんぽーもしくわこーほーえいどーさせてへんいをしんさつする。	NO_LABEL
もう1つの方法は被検者を椅子などで座位にし、下腿を下垂させて行うものである。	もーひとつのほーほーわひけんしゃをいすなどでざいにし、かたいをかすいさせておこなうものである。	NO_LABEL
いずれの場合も必ず両側を検査して比較することが重要である。	いずれのばあいもかならずりょーがわをけんさしてひかくすることがじゅーよーである。	NO_LABEL
肘関節の内側、外側には、内側側副靭帯 、外側側副靭帯 がそれぞれ配置されている。	ちゅうかんせつのうちがわ、そとがわにわ、うちがわがわふくじんたい、そとがわがわふくじんたいがそれぞれはいちされている。	NO_LABEL
他に肘関節に位置する靭帯としては橈骨輪状靭帯 、方形靭帯 quadrate ligament of radius がある。	NO_PRONOUNCE	NO_LABEL
このうち、内側側副靭帯が断裂した際に再建手術として行われるのがトミー・ジョン手術である。	このうち、うちがわがわふくじんたいがだんれつしたさいにさいけんしゅじゅつとしておこなわれるのがとみーじょんしゅじゅつである。	NO_LABEL
