『言志四録』は、佐藤一斎が後半生の四十余年にわたって書いた語録。	NO_PRONOUNCE	NO_LABEL
指導者のためのバイブルと呼ばれ、現代まで長く読み継がれている。	しどーしゃのためのばいぶるとよばれ、げんだいまでながくよみつがれている。	NO_LABEL
2001年5月に総理大臣の小泉純一郎が衆議院での教育関連法案の審議中に触れ、知名度が上がった。	にせんいちねんごがつにそーりだいじんのこいずみじゅんいちろーがしゅーぎいんでのきょーいくかんれんほーあんのしんぎちゅーにふれ、ちめいどがあがった。	NO_LABEL
『言志録』、『言志後録』、『言志晩録』、『言志耋録』の4書の総称。	NO_PRONOUNCE	NO_LABEL
総1133条。	NO_PRONOUNCE	NO_LABEL
