片桐松川は、長野県下伊那郡の主に松川町を流れる天竜川水系の一級河川。	かたぎりまつかわわ、ながのけんしもいなぐんのおもにまつかわちょーをながれるてんりゅーがわすいけいのいっきゅーかせん。	NO_LABEL
単に松川と呼ばれることもある。	たんにまつかわとよばれることもある。	NO_LABEL
中央アルプスの念丈岳に源を発する。	ちゅーおーあるぷすのねんじょーだけにみなもとをはっする。	NO_LABEL
松川湖を経て天竜川の形成する河岸段丘を横切るようにして東に流れ、松川町上新井地先で天竜川へ合流する。	まつかわこをへててんりゅーがわのけいせいするかがんだんきゅーをよこぎるよーにしてひがしにながれ、まつかわちょーかみあらいちさきでてんりゅーがわえごーりゅーする。	NO_LABEL
河川勾配が16分の1と急流である上、流出した土砂が河床を上昇させ毎年のように水害をもたらしていたことから、長野県は治水のため上流の松川町上片桐に片桐ダムを建設、1989年に完成させている。	NO_PRONOUNCE	NO_LABEL
