クレジット・デフォルト・スワップの一種であり、一定の事由の発生時に生じるべき損失額の補塡を受ける仕組みをとるもの。	NO_PRONOUNCE	NO_LABEL
銀行の自己資本比率を高める対策の一環としても利用される。	ぎんこーのじこしほんひりつをたかめるたいさくのいっかんとしてもりよーされる。	NO_LABEL
クレジット・デフォルト・スワップは、定期的な金銭の支払と引き替えに、一定の国や企業の債務の一定の元本額に対する信用リスクのプロテクションを購入する取引である。	くれじっとでふぉるとすわっぷわ、ていきてきなきんせんのしはらいとひきかえに、いっていのくにやきぎょーのさいむのいっていのがんぽんがくにたいするしんよーりすくのぷろてくしょんをこーにゅーするとりひきである。	NO_LABEL
具体的には、プロテクションの買い手は、仮想元本額に対する一定の割合の金額を定期的に支払い、一方、プロテクションの売り手は、参照組織についての倒産その他の信用リスクの顕在化を示す一定の事由が発生した場合に、一定の方法で特定された参照組織に対する債権について、予め合意したところに従って、買い手から参照債務を元本額で購入するか、参照債務の価値の下がった部分を補う金額を買い手に支払うか、いずれかの方法によって決済を行う。	ぐたいてきにわ、ぷろてくしょんのかいてわ、かそーがんぽんがくにたいするいっていのわりあいのきんがくをていきてきにしはらい、いっぽー、ぷろてくしょんのうりてわ、さんしょーそしきについてのとーさんそのたのしんよーりすくのけんざいかをしめすいっていのじゆーがはっせいしたばあいに、いっていのほーほーでとくていされたさんしょーそしきにたいするさいけんについて、あらかじめごーいしたところにしたがって、かいてからさんしょーさいむをがんぽんがくでこーにゅーするか、さんしょーさいむのかちのさがったぶぶんをおぎなうきんがくをかいてにしはらうか、いずれかのほーほーによってけっさいをおこなう。	NO_LABEL
前述のように、決済方法には現物決済と現金決済があり、かつては前者が主流であった。	ぜんじゅつのよーに、けっさいほーほーにわげんぶつけっさいとげんきんけっさいがあり、かつてわぜんしゃがしゅりゅーであった。	NO_LABEL
現金決済の場合には参照債務の評価が必要となり、その評価の妥当性が問題となりやすかったが、現物決済ではこのような問題が生じないからである。	げんきんけっさいのばあいにわさんしょーさいむのひょーかがひつよーとなり、そのひょーかのだとーせいがもんだいとなりやすかったが、げんぶつけっさいでわこのよーなもんだいがしょーじないからである。	NO_LABEL
ところが、現物決済では、いざ信用事由が生じた場合に参照債務が不足し、決済が困難となるといった事態が生じることがあった。	ところが、げんぶつけっさいでわ、いざしんよーじゆーがしょーじたばあいにさんしょーさいむがふそくし、けっさいがこんなんとなるといったじたいがしょーじることがあった。	NO_LABEL
CDS取引の性質上、参照組織になんら関係のない第三者が、投機目的でプロテクションの「買い手」になることができ、参照組織の現実の負債総額と関係なく想定元本を設定することができるためである。	NO_PRONOUNCE	NO_LABEL
そこで、契約上は現物決済であっても、ISDAの開催するオークションにより定まる価格によって現金決済が行われるようになった。	そこで、けいやくじょーわげんぶつけっさいであっても、いすだのかいさいするおーくしょんによりさだまるかかくによってげんきんけっさいがおこなわれるよーになった。	NO_LABEL
かつては、リーマン・ブラザーズなど、個別の企業ごとにオークションが特別に行われていたが、これが一般的な形にルール化され、いわゆるBig Bang ProtocolやSmall Bang Protocolが定められるようになった。	NO_PRONOUNCE	NO_LABEL
現在ではこれらのProtocolに従った取引が市場取引の大半を占めている。	NO_PRONOUNCE	NO_LABEL
契約書は、ISDAのひな形契約書を採用するのが通例であり、本項で用いている用語も、基本的にISDAのひな形契約書の用法に従っている。	けいやくしょわ、いすだのひながたけいやくしょをさいよーするのがつーれいであり、ほんこーでもちいているよーごも、きほんてきにいすだのひながたけいやくしょのよーほーにしたがっている。	NO_LABEL
日本においては、以下の3つをクレジットイベントとするのが市場慣行である。	にっぽんにおいてわ、いかのみっつをくれじっといべんととするのがしじょーかんこーである。	NO_LABEL
参照組織の想定元本額に係る信用リスクの移転である。	さんしょーそしきのそーていがんぽんがくにかかるしんよーりすくのいてんである。	NO_LABEL
例えば、参照組織に対して貸付債権などを有する銀行がCDS取引によってプロテクションを購入することにより、貸倒れのリスクを移転することが可能となる。	たとえば、さんしょーそしきにたいしてかしつけさいけんなどをゆーするぎんこーがしーでぃーえすとりひきによってぷろてくしょんをこーにゅーすることにより、かしだおれのりすくをいてんすることがかのーとなる。	NO_LABEL
保証契約に類似しているとはいえるが、特定の被担保債権は存在せず、プロテクションの買い手は参照組織に対して参照債務を保有している必要がない点が大きく異なる。	ほしょーけいやくにるいじしているとわいえるが、とくていのひたんぽさいけんわそんざいせず、ぷろてくしょんのかいてわさんしょーそしきにたいしてさんしょーさいむをほゆーしているひつよーがないてんがおーきくことなる。	NO_LABEL
CDSの会計上の取扱いについては日本では明確な基準がなく、実務上では保証として扱う場合とオプションとして扱う場合がある。	しーでぃーえすのかいけいじょーのとりあつかいについてわにっぽんでわめいかくなきじゅんがなく、じつむじょーでわほしょーとしてあつかうばあいとおぷしょんとしてあつかうばあいがある。	NO_LABEL
保証と解する場合、保証料は発生主義に基づき貸借対照表に計上される。	ほしょーとかいするばあい、ほしょーりょーわはっせいしゅぎにもとずきたいしゃくたいしょーひょーにけいじょーされる。	NO_LABEL
デフォルトのさいCDSの売り手は通常の保証と同様に契約額を貸借対照表上に計上する必要はないが、偶発債務として開示が求められる。	でふぉるとのさいしーでぃーえすのうりてわつーじょーのほしょーとどーよーにけいやくがくをたいしゃくたいしょーひょーじょーにけいじょーするひつよーわないが、ぐーはつさいむとしてかいじがもとめられる。	NO_LABEL
銀行の場合は保証に貸借対照表能力が与えられており、偶発債務を「支払承諾」、偶発債権たる求償権を「支払承諾見返」として両建処理する。	NO_PRONOUNCE	NO_LABEL
デリバティブとして扱う場合、オプションと解されればフィーが権利行使時または消滅時まで資産ないし負債に計上され、スワップと解されれば発生主義に基づき損益に計上される。	でりばてぃぶとしてあつかうばあい、おぷしょんとかいされればふぃーがけんりこーしじまたわしょーめつじまでしさんないしふさいにけいじょーされ、すわっぷとかいされればはっせいしゅぎにもとずきそんえきにけいじょーされる。	NO_LABEL
CDSの契約額面は貸借対照表に計上されないがデリバティブに関する注記をおこなう必要がある。	しーでぃーえすのけいやくがくめんわたいしゃくたいしょーひょーにけいじょーされないがでりばてぃぶにかんするちゅーきをおこなうひつよーがある。	NO_LABEL
プレミアムの決定には金融工学的手法が利用される。	ぷれみあむのけっていにわきんゆーこーがくてきしゅほーがりよーされる。	NO_LABEL
それは単に買い手が、両者の期待値を一致させる価格を支払えばよいのではなく、売り手が引き受けるリスクに対する対価をも支払う必要があるからである。	それわたんにかいてが、りょーしゃのきたいちをいっちさせるかかくをしはらえばよいのでわなく、うりてがひきうけるりすくにたいするたいかをもしはらうひつよーがあるからである。	NO_LABEL
リスクプレミアムは通常、同じ参照企業Aが発行する社債などに織り込まれたものを使う。	NO_PRONOUNCE	NO_LABEL
CDSの売り手がデフォルトしないという仮定の下ではプレミアムの算出は容易である。	しーでぃーえすのうりてがでふぉるとしないとゆうかていのしたでわぷれみあむのさんしゅつわよーいである。	NO_LABEL
しかし、売り手もデフォルトする場合には買い手のリスクが増大する。	しかし、うりてもでふぉるとするばあいにわかいてのりすくがぞーだいする。	NO_LABEL
さらに参照企業Aと売り手のデフォルトに相関がある場合には、プライシングは容易ではない。	NO_PRONOUNCE	NO_LABEL
CDSのプレミアムを単純化して数式に表すと	しーでぃーえすのぷれみあむをたんじゅんかしてすーしきにあらわすと	NO_LABEL
formula_1	NO_PRONOUNCE	NO_LABEL
s:1年間のCDSプレミアム、d：1年デフォルト確率、r:デフォルトした際の回収率	NO_PRONOUNCE	NO_LABEL
と表せる。	とあらわせる。	NO_LABEL
左項は期待損失率、右項は期待収益率といえる。	ひだりこーわきたいそんしつりつ、みぎこーわきたいしゅーえきりつといえる。	NO_LABEL
ただし、この理論値は、カウンターパーティーリスクや流動性リスクなどを含んだプレミアムではないことに注意すべきである。	ただし、このりろんちわ、かうんたーぱーてぃーりすくやりゅーどーせいりすくなどをふくんだぷれみあむでわないことにちゅーいすべきである。	NO_LABEL
上式では、左項の方が大きく、等式ではなかった。	うえしきでわ、ひだりこーのほーがおーきく、とーしきでわなかった。	NO_LABEL
およそ、1000bpsを超える一部の銘柄について、UP front取引がなされていた。	NO_PRONOUNCE	NO_LABEL
計算は、ディールスプレッドを500bpと仮定し、その満期までの各キャッシュフローに対して累積生存確率とディスカウントファクターを掛け合わせたものの合計を、通常のフラットカーブのスプレッドで計算した満期までの各キャッシュフローに対して累積生存確率とディスカウントファクターを掛け合わせたものの合計から減じた金額を想定元本で割ることで求められる。	NO_PRONOUNCE	NO_LABEL
現在ではCDS取引の標準化に伴いほぼすべての銘柄がUP front取引されている。	NO_PRONOUNCE	NO_LABEL
日本では、1999年から個別銘柄のCDSが開始された。	にっぽんでわ、せんきゅうひゃくきゅうじゅうきゅうねんからこべつめいがらのしーでぃーえすがかいしされた。	NO_LABEL
2013年現在、主に日本の主要金融機関と外資系証券会社の合計15社程度がマーケットで値付けを行い、数社のブローカーを経由して取引を行っている。	NO_PRONOUNCE	NO_LABEL
ISDAが提供しているISDA Master Agreementと呼ばれる基本契約を相対で事前に締結することで、Confirmationと呼ばれる差入書のみを利用して取引を行うことができる。	NO_PRONOUNCE	NO_LABEL
各個別企業の信用リスクを取引する通常のCDS・インデックスCDSとして、流動性が高い主要企業50社の信用リスクを参照としたiTraxx Japan 50、プレミアムが高い企業を参照としたiTraxx Hivolがある。	NO_PRONOUNCE	NO_LABEL
インデックスのライセンスはMarkit Groupがライセンスを保有し、6カ月ごとにインデックスの見直しをおこなっている。	NO_PRONOUNCE	NO_LABEL
通常、シングルのCDSについては期間が5年で5億円単位、インデックスについては5年10億円単位で取引されている。	つーじょー、しんぐるのしーでぃーえすについてわきかんがごねんでごおくえんたんい、いんでっくすについてわごねんじゅうおくえんたんいでとりひきされている。	NO_LABEL
また、日本では取引されていないが、レバレッジローンを参照にしたLCDXや、ABSを参照にしたABXなどが海外マーケットには存在し、日本マーケットにおいてもリスクヘッジ手法として今後の発展が見込まれる。	NO_PRONOUNCE	NO_LABEL
新国際会計基準導入後は、日本においてもCDSのヘッジ対象となるローンの時価会計化に伴い、CDSのヘッジ取引の拡大が見込まれている。	しんこくさいかいけいきじゅんどーにゅーごわ、にっぽんにおいてもしーでぃーえすのへっじたいしょーとなるろーんのじかかいけいかにともない、しーでぃーえすのへっじとりひきのかくだいがみこまれている。	NO_LABEL
東京金融取引所のCDSの相場を毎日公表していた。	とーきょーきんゆーとりひきしょのしーでぃーえすのそーばをまいにちこーひょーしていた。	NO_LABEL
各社から提供された数値は気配値・参照値であるため、必ずしも当日約定された取引値とは限らない。	NO_PRONOUNCE	NO_LABEL
埼玉大学経済学部相澤教授によると「保証料率4%が危険、保証料率2%が要注意。	NO_PRONOUNCE	NO_LABEL
」という。	NO_PRONOUNCE	NO_LABEL
CDSを使い、FTD、Nth to Default、シンセティックCDOなどの金融商品をつくることができる。	NO_PRONOUNCE	NO_LABEL
時価評価されないFTDリンクローンは仕組みが非常に分かりやすいものであり、投資家側にとっては管理が非常に楽であるため、CDSスプレッドが急激に上昇した時などは好まれる傾向にある。	NO_PRONOUNCE	NO_LABEL
シンセティックCDOは、CDS取引を用いた証券化の手法によるCDOである。	しんせてぃっくしーでぃーおーわ、しーでぃーえすとりひきをもちいたしょーけんかのしゅほーによるしーでぃーおーである。	NO_LABEL
すなわち、通常のCDOとは異なり、現物の債権を購入するのではなく、CDS取引によってプロテクションを売り、これにより得られるキャッシュフローを裏付けとしてCDOを発行するのである。	すなわち、つーじょーのしーでぃーおーとわことなり、げんぶつのさいけんをこーにゅーするのでわなく、しーでぃーえすとりひきによってぷろてくしょんをうり、これによりえられるきゃっしゅふろーをうらずけとしてしーでぃーおーをはっこーするのである。	NO_LABEL
日本銀行資料とその報道によるが、数字が一致しない	にっぽんぎんこーしりょーとそのほーどーによるが、すーじがいっちしない	NO_LABEL
想定元本	そーていがんぽん	NO_LABEL
「日本経済新聞2008年10月24日 リスク見えぬ金融保証商品・金融サミットでも議論へ」などの記事のCDS金額と全く一致していない。	NO_PRONOUNCE	NO_LABEL
理由は、「対象企業・国の金額」であり、企業の保有している額ではないからである。	NO_PRONOUNCE	NO_LABEL
例えば「日本国政府、日本銀行」はCDSを保有していないと思われるが、日本のデフォルトに備える場合のCDSはあり得る。	NO_PRONOUNCE	NO_LABEL
ここでの数字は「日本のデフォルトリスクに対する保証」がどれだけの金額になっているかの数字である。	NO_PRONOUNCE	NO_LABEL
以下の数値は2008年10月末のもの。	いかのすーちわにせんはちねんじゅーがつまつのもの。	NO_LABEL
ドイツ銀行では世界の9つの主要新興国に関して数値を毎日調査発表している。	どいつぎんこーでわせかいのここのつのしゅよーしんこーこくにかんしてすーちをまいにちちょーさはっぴょーしている。	NO_LABEL
以下は2010年3月12日のデータ。	いかわにせんじゅうねんさんがつじゅうににちのでーた。	NO_LABEL
マークイットによる2010年7月1日現在の高リスク国	まーくいっとによるにせんじゅうねんしちがつついたちげんざいのこーりすくこく	NO_LABEL
2012年8月8日、単位bp。	にせんじゅうにねんはちがつようか、たんいびーぴー。	NO_LABEL
小数以下切り捨て。	しょーすーいかきりすて。	NO_LABEL
J-CDS。	NO_PRONOUNCE	NO_LABEL
かっこ内は8月7日東証終値。	かっこないわはちがつなのかとーしょーおわりね。	NO_LABEL
ベア・スターンズ、フレディマック、ファニーメイ、リーマン・ブラザーズが経営破綻の後「核のボタンに匹敵する」と言われているのが『CDS』である。	NO_PRONOUNCE	NO_LABEL
世界的投資家ウォーレン・バフェットは、CDSの事を「時限爆弾」と呼んで、自社バークシャー・ハサウェイによる投資を禁止したと語ったことがある。	NO_PRONOUNCE	NO_LABEL
この例で明らかなように、一旦結ばれたCDS契約は長い期間続く。	このれいであきらかなよーに、いったんむすばれたしーでぃーえすけいやくわながいきかんつずく。	NO_LABEL
破綻した理由を問わず保証するのがほとんどであるから、逃れるすべはない。	はたんしたりゆーをとわずほしょーするのがほとんどであるから、のがれるすべわない。	NO_LABEL
CDSの売り手は参照企業のデフォルトリスクが高まるにつれ用意しておかなければならない証拠金が高騰し、その資金を信託会社に山積みするために大量の現金を必要とすることになり、自社保有の金融商品などを健全なものまで含めて投げ売りしなければならない事態も発生する。	しーでぃーえすのうりてわさんしょーきぎょーのでふぉるとりすくがたかまるにつれよーいしておかなければならないしょーこきんがこーとーし、そのしきんをしんたくがいしゃにやまずみするためにたいりょーのげんきんをひつよーとすることになり、じしゃほゆーのきんゆーしょーひんなどをけんぜんなものまでふくめてなげうりしなければならないじたいもはっせいする。	NO_LABEL
契約単位は一本が数億円単位であり個人投資家など最終的なリスクテイカーへの販売を想定しておらず、信用不安などによりいちどCDSの流動性が損なわれれば転売は極めて困難である。	けいやくたんいわいっぽんがすーおくえんたんいでありこじんとーしかなどさいしゅーてきなりすくていかーえのはんばいをそーていしておらず、しんよーふあんなどによりいちどしーでぃーえすのりゅーどーせいがそこなわれればてんばいわきわめてこんなんである。	NO_LABEL
現実にデフォルトが生じた場合はすべて偶発債務となり損害が生じ、赤字決算におちいったり配当が支払えなくなったり、信用面でも格下げなどにより市場からの資金調達も困難となり、借り入れても金利が高くなりうる。	げんじつにでふぉるとがしょーじたばあいわすべてぐーはつさいむとなりそんがいがしょーじ、あかじけっさんにおちいったりはいとーがしはらえなくなったり、しんよーめんでもかくさげなどによりしじょーからのしきんちょーたつもこんなんとなり、かりいれてもきんりがたかくなりうる。	NO_LABEL
会計操作による粉飾決算への動機が非常に高く、市場からの信頼を呼び戻すのに時間がかかる。	かいけいそーさによるふんしょくけっさんえのどーきがひじょーにたかく、しじょーからのしんらいをよびもどすのにじかんがかかる。	NO_LABEL
これから十数年も続く危機の始まりである可能性がある。	これからじゅーすーねんもつずくききのはじまりであるかのーせいがある。	NO_LABEL
銀行がCDSの買い方でいる場合、参照企業のデフォルトリスクが上昇するとCDSの時価が高騰するため、見た目の資産効果により経営が著しく改善したようにみえる。	ぎんこーがしーでぃーえすのかいかたでいるばあい、さんしょーきぎょーのでふぉるとりすくがじょーしょーするとしーでぃーえすのじかがこーとーするため、みためのしさんこーかによりけいえいがいちじるしくかいぜんしたよーにみえる。	NO_LABEL
一方で参照企業に対して融資を持っていた場合には現実には融資資産は劣化しており、デフォルトが発生した場合CDSにより膨らんだ見た目の資産効果はすべて失われる。	いっぽーでさんしょーきぎょーにたいしてゆーしをもっていたばあいにわげんじつにわゆーししさんわれっかしており、でふぉるとがはっせいしたばあいしーでぃーえすによりふくらんだみためのしさんこーかわすべてうしなわれる。	NO_LABEL
このためCDSの利用によって銀行の会計上の損益がゆがめられ、誤った認識を投資家に与えてしまうリスクがある。	このためしーでぃーえすのりよーによってぎんこーのかいけいじょーのそんえきがゆがめられ、あやまったにんしきをとーしかにあたえてしまうりすくがある。	NO_LABEL
CDSは会計上は簿外として貸借対照表に計上されていないか、あるいは想定元本に対して非常に小額であるフィーから算出された額が記載されているため、参照企業のデフォルトリスクの拡大を財務諸表から評価するのが困難である。	しーでぃーえすわかいけいじょーわぼがいとしてたいしゃくたいしょーひょーにけいじょーされていないか、あるいわそーていがんぽんにたいしてひじょーにしょーがくであるふぃーからさんしゅつされたがくがきさいされているため、さんしょーきぎょーのでふぉるとりすくのかくだいをざいむしょひょーからひょーかするのがこんなんである。	NO_LABEL
CDOなどCDSが複合された証券化商品ではリスクの把握がなお困難である。	しーでぃーおーなどしーでぃーえすがふくごーされたしょーけんかしょーひんでわりすくのはあくがなおこんなんである。	NO_LABEL
CDSの想定元本は毎年約2倍増加して、2007年末で62.2兆$あったが、2008年6月末で54兆$と初めて減少した。	NO_PRONOUNCE	NO_LABEL
これはベア・スターンズ破綻の影響などが原因と見られる。	これわべあすたーんずはたんのえいきょーなどがげんいんとみられる。	NO_LABEL
アメリカ合衆国連邦政府がリーマン・ブラザーズを救済せずAIGを救済した理由が「CDS問題」であると言われる。	NO_PRONOUNCE	NO_LABEL
リーマンはCDSの保有額が大きくないが、米国最大の保険会社で世界中に展開するAIGはCDSに積極的に投資し、もしAIGが破綻した場合影響は、世界中に及ぶと考えられたからである。	りーまんわしーでぃーえすのほゆーがくがおーきくないが、べいこくさいだいのほけんかいしゃでせかいじゅーにてんかいするえいあいじーわしーでぃーえすにせっきょくてきにとーしし、もしえいあいじーがはたんしたばあいえいきょーわ、せかいじゅーにおよぶとかんがえられたからである。	NO_LABEL
その後10月10日にリーマンを参照企業としたCDSの清算価格は元本の8.625%に決定した。	NO_PRONOUNCE	NO_LABEL
これは市場推計の想定元本4000億ドルのうち8.625%だけがCDSの残余価値であり、残りの約3655億$の支払いをCDSの売り手が求められるということである。	NO_PRONOUNCE	NO_LABEL
関係者にCDSの危険性を知らせる出来事であった。	かんけいしゃにしーでぃーえすのきけんせいをしらせるできごとであった。	NO_LABEL
バーナンキFRB議長の議会証言で、リーマンを救済しなかった本当の理由は「証券会社にこのような多額の資金投入をすることはできなかった」だということがわかった。	NO_PRONOUNCE	NO_LABEL
法制上FRB、財務省、SEC、FDICには監督・救済権限がなかった。	NO_PRONOUNCE	NO_LABEL
また歴史上、政治上の理由で法案を提出して救済することも出来なかった。	またれきしじょー、せいじじょーのりゆーでほーあんをていしゅつしてきゅーさいすることもできなかった。	NO_LABEL
フレディマック、ファニーメイのCDS清算価格は、ファニーメイが優先債務91.51%、劣後債務99.9%、フレディマックが優先債務94%、劣後債務98%といずれも90%台であり、金額は多額だが、毀損率は大きくなかった。	NO_PRONOUNCE	NO_LABEL
AIGの場合、CDSの清算事由に該当しない為、オークションによる清算は行われなかった。	えいあいじーのばあい、しーでぃーえすのせいさんじゆーにがいとーしないため、おーくしょんによるせいさんわおこなわれなかった。	NO_LABEL
10月23日にリーマンの精算支払い額が結局52億$にとどまることが分かった。	NO_PRONOUNCE	NO_LABEL
報道によればCDS投資家の多くが売り玉と買い玉を両建てにしていたためヘッジされていないエクスポージャーは想定されたより少なかったためとしている。	ほーどーによればしーでぃーえすとーしかのおーくがうりだまとかいだまをりょーだてにしていたためへっじされていないえくすぽーじゃーわそーていされたよりすくなかったためとしている。	NO_LABEL
10月24日に米ワシントン・ミューチュアルのCDS清算価格が57%と決定した。	じゅーがつにじゅうよっかにべいわしんとんみゅーちゅあるのしーでぃーえすせいさんかかくがごじゅうななぱーせんととけっていした。	NO_LABEL
ベア・スターンズ救済も、デリバティブ持ち高が極めて多かったためと言われる。	べあすたーんずきゅーさいも、でりばてぃぶもちだかがきわめておーかったためといわれる。	NO_LABEL
想定元本が極めて多額である上に、契約数が極めて多いために厳格なリスク管理ができるかどうかの問題がある。	そーていがんぽんがきめてたがくであるうえに、けいやくすーがきわめておーいためにげんかくなりすくかんりができるかどーかのもんだいがある。	NO_LABEL
少しの計算違い・見込み違いも巨大な損失を生む。	NO_PRONOUNCE	NO_LABEL
また契約が相対であるために、上部及び外部のチェック手段が元本の金額の大きさに比べて極めて少ない。	またけいやくがそーたいであるために、じょーぶおよびがいぶのちぇっくしゅだんががんぽんのきんがくのおーきさにくらべてきわめてすくない。	NO_LABEL
引き受け時にAA格だった場合でも、期間内にデフォルトした例がある。	ひきうけじにえーえーいこーるかくだったばあいでも、きかんないにでふぉるとしたれいがある。	NO_LABEL
また大きなデフォルトにどこまで対応できるだろうか。	またおーきなでふぉるとにどこまでたいおーできるだろうか。	NO_LABEL
上層部が激励、承認、見ないふりなどをしていて、下位行員に責任を押しつけていたならば、組織全体の問題になるので事態はもっと重大である。	じょーそーぶがげきれい、しょーにん、みないふりなどをしていて、かいこーいんにせきにんをおしつけていたならば、そしきぜんたいのもんだいになるのでじたいわもっとじゅーだいである。	NO_LABEL
現在JPモルガン・チェースの想定元本は7.85兆$、シティバンクが3.2兆$である。	NO_PRONOUNCE	NO_LABEL
制度上の問題の1つは、CDSなどスワップ契約に規制の網がまったくかかっていない事である。	せいどじょーのもんだいのひとつわ、しーでぃーえすなどすわっぷけいやくにきせいのあみがまったくかかっていないことである。	NO_LABEL
規制がないので、お互いに合意すればサイン一つで巨額の保証料が手に入る。	きせいがないので、おたがいにごーいすればさいんひとつできょがくのほしょーりょーがてにはいる。	NO_LABEL
値段は特に決まっておらず、相場があるだけである。	ねだんわとくにきまっておらず、そーばがあるだけである。	NO_LABEL
保証される側は保証を盾にさらに借金を重ね、保証する側は資金がすぐ手に入る。	ほしょーされるがわわほしょーをたてにさらにしゃっきんをかさね、ほしょーするがわわしきんがすぐてにはいる。	NO_LABEL
知識がなかったり、これからのつきあいを考えたり、目の前の利益に目がくらむと手を出しやすい。	ちしきがなかったり、これからのつきあいをかんがえたり、めのまえのりえきにめがくらむとてをだしやすい。	NO_LABEL
(2008年11月20日NY州保険局のディナロ局長が規制案の撤回を発表）	NO_PRONOUNCE	NO_LABEL
銀行などのようにBIS規制で、自己資本比率維持の責任を負わないから、「想定元本」が引受会社の自己資本の数十倍以上ある。	NO_PRONOUNCE	NO_LABEL
引受会社もCDSを発行している場合が多い。	ひきうけかいしゃもしーでぃーえすをはっこーしているばあいがおーい。	NO_LABEL
ある1社が破綻し保証しきれなくなると、モノラインなどと同じように、CDSの保証がない金額は格下げやデフォルト扱いになり、その連鎖はどこまで及ぶか分からない。	NO_PRONOUNCE	NO_LABEL
誰も救済することができない金額を引き受けているからである。	だれもきゅーさいすることができないきんがくをひきうけているからである。	NO_LABEL
これから、FRB、SEC、ニューヨーク州司法省などが検査に入った段階で思わぬ結果が出るおそれもある。	これから、あーるびー、えすいーしー、にゅーよーくしゅーしほーしょーなどがけんさにはいっただんかいでおもわぬけっかがでるおそれもある。	NO_LABEL
また収益の多くをCDS保証料に頼ったり、自己資本に算入したりしている場合は、企業の破綻や貸し渋りによる倒産も考えられる。	またしゅーえきのおーくをしーでぃーえすほしょーりょーにたよったり、じこしほんにさんにゅーしたりしているばあいわ、きぎょーのはたんやかししぶりによるとーさんもかんがえられる。	NO_LABEL
解決策として、CDS自体を相互解消し、破綻時の保証は政府がするという形があるが、金額の大きさと不確定性から、極めて困難である。	かいけつさくとして、しーでぃーえすじたいをそーごかいしょーし、はたんじのほしょーわせいふがするとゆうかたちがあるが、きんがくのおーきさとふかくていせいから、きわめてこんなんである。	NO_LABEL
もう一つは、金融工学上の計算に「システミック・リスク」をほぼ排除していることである。	NO_PRONOUNCE	NO_LABEL
金融上のリスクは「過去の計算」であり、将来を全く保証していない。	NO_PRONOUNCE	NO_LABEL
企業の破綻率の計算はせいぜい10年、良くて30年であり、最近の大型5社の破綻は想定外である。	NO_PRONOUNCE	NO_LABEL
そのため、2008年9月の危機まで関係者に「にせの安心」を生んでいる。	NO_PRONOUNCE	NO_LABEL
62兆ドルは「何をしても無駄」と「なんとかなる」の両極端の思考と、同一の行動を生んでいる。	NO_PRONOUNCE	NO_LABEL
また格付け会社の問題も浮上している。	またかくずけがいしゃのもんだいもふじょーしている。	NO_LABEL
格付けが実際の破綻率とかけ離れたことが主たる問題だが、原因が経済上の大変動ではなく、実態をとらえられない格付け手法によることが問題視されている。	かくずけがじっさいのはたんりつとかけはなれたことがしゅたるもんだいだが、げんいんがけいざいじょーのだいへんどーでわなく、じったいをとらえられないかくずけしゅほーによることがもんだいしされている。	NO_LABEL
またベア・スターンズとAIG救済の教訓は『単なる「大きすぎてつぶせない Too big to fail」は間違いだが、デリバティブを大量に所持すれば大丈夫』だというモラル・ハザードを引き起こす可能性が高い。	NO_PRONOUNCE	NO_LABEL
似たような商品で、最近問題になっているのはクレジット・リンク債である。	NO_PRONOUNCE	NO_LABEL
2008年10月ソフトバンクはCDOにより、最大750億円の損害を被るおそれがあると明らかにした紙面によると、ゴールドマンサックスが作り、組成160銘柄中8銘柄がデフォルトすると全額損失になると言う。	NO_PRONOUNCE	NO_LABEL
CDOの危険性を端的に表している。	しーでぃーおーのきけんせいをたんてきにあらわしている。	NO_LABEL
2012年5月にJPモルガンの巨額評価損が発覚した、チーフ・インベストメント・オフィス部門でのクレジット・デリバティブ取引の失敗が原因となり、58億ドルの損失となった。	NO_PRONOUNCE	NO_LABEL
損失の大半は「マークイットCDX北米投資適格指数シリーズ9」というCDSであり、欧州債務危機が起こり市場が不安定になった2012年4月以降に評価損が膨らんだ。	NO_PRONOUNCE	NO_LABEL
「ロンドンの鯨」と呼ばれたロンドン支店の30代のフランス人イクシル氏がアイナ・ドリュー最高投資責任者の指揮の下に売り持ちポジション投資をふくらませた言われている。	NO_PRONOUNCE	NO_LABEL
日本におけるクレジットイベント認定は以下の5件。	にっぽんにおけるくれじっといべんとにんていわいかのごけん。	NO_LABEL
