マリー・フィルマン・ボクールはフランスの動物学者、版画家である。	まりーふぃるまんぼくーるわふらんすのどーぶつがくしゃ、はんがかである。	NO_LABEL
パリに生まれた。	ぱりにうまれた。	NO_LABEL
1861年にタイに派遣され、タイの動物の調査を行い、重要な標本を持ち帰った。	せんはっぴゃくろくじゅういちねんにたいにはけんされ、たいのどーぶつのちょーさをおこない、じゅーよーなひょーほんをもちかえった。	NO_LABEL
1864年から1866年の間、オーギュスト・デュメリルとともにメキシコや中央アメリカの調査旅行を行い、1870年、デュメリルと共著で『爬虫類·両生類の研究』を出版した。	NO_PRONOUNCE	NO_LABEL
1870年に普仏戦争でデュメリルが没した後も、レオン・ヴァイヤン、フランソワ・モッカール、フェルナン・アンジェらと編集を続けた。	NO_PRONOUNCE	NO_LABEL
1833年にヴェイヤンと共著で、『魚類の研究』を出版した。	NO_PRONOUNCE	NO_LABEL
"Callinectes bocourti"、"Phoboscincus bocourti"、"Tantilla bocourti"、"Cranopsis bocourti"、"Craugastor bocourti"などの動物にボクールの名前がつけられている。	NO_PRONOUNCE	NO_LABEL
画家としては版画を得意として、博物画だけでなく、同時代の人物の肖像画も描いた。	がかとしてわはんがをとくいとして、はくぶつがだけでなく、どーじだいのじんぶつのしょーぞーがもえがいた。	NO_LABEL
