ビスカイバスと区別される。	びすかいばすとくべつされる。	NO_LABEL
クレディトランスが使用できる。	くれでぃとらんすがしよーできる。	NO_LABEL
ビスカイバスはビスカヤ県で輸送サービスを行ういくつかの企業の集合体であり、TCSA、CAV、PESA、エンカルタシオネス、バスク鉄道、アドノル、アウトブセス・デ・ルフアなどが含まれる。	NO_PRONOUNCE	NO_LABEL
ビスカヤ県などから資金が提供され、約100路線が運行されている。	NO_PRONOUNCE	NO_LABEL
いくつかの路線は季節運航であり、例えば夏季のみ海岸地域で運行される路線がある。	いくつかのろせんわきせつうんこーであり、たとえばかきのみかいがんちいきでうんこーされるろせんがある。	NO_LABEL
ビスカイバスに参加する企業は年々増加している。	びすかいばすにさんかするきぎょーわねんねんぞーかしている。	NO_LABEL
2002年にはバスク鉄道のバス部門が参加し、2005年にはアドノルが参加し、2006年にはアウトブセス・デ・ルフアが参加した。	NO_PRONOUNCE	NO_LABEL
2006年にはビルバオとカストロ・ウルディアレスを結んでいた路線がビスカイバスから除外された。	にせんろくねんにわびるばおとかすとろうるでぃあれすをむすんでいたろせんがびすかいばすからじょがいされた。	NO_LABEL
この路線には完全にビスカヤ県が資金を提供していたが、カストロ・ウルディアレスはバスク州ではなくカンタブリア州に属する自治体であることが問題視された。	このろせんにわかんぜんにびすかやけんがしきんをていきょーしていたが、かすとろうるでぃあれすわばすくしゅーでわなくかんたぶりあしゅーにぞくするじちたいであることがもんだいしされた。	NO_LABEL
ビスカイバスは約100路線を運行しており、路線番号は地域ごとに決まりを持っている。	NO_PRONOUNCE	NO_LABEL
ウリベ・コスタの路線は21で始まり、バスク大学行きの路線は23で始まり、ビルバオ都市圏西側の路線は31で始まり、ビルバオ都市圏東側の路線は34で始まり、ネルビオンは36で始まり、エンカルタシオネスは33で始まる。	NO_PRONOUNCE	NO_LABEL
CAVによって運行される路線は35で、PESAによって運行される路線は39で始まる。	NO_PRONOUNCE	NO_LABEL
2007年の乗客数は約3,000万人であり、前年より6%減少した。	NO_PRONOUNCE	NO_LABEL
ビルバオ都市圏の西側を通るメトロ・ビルバオの延伸によって、2002年以降のビスカイバスの乗客数は緩やかに減少している。	びるばおとしけんのにしがわをとーるめとろびるばおのえんしんによって、にせんにねんいこーのびすかいばすのじょーきゃくすーわゆるやかにげんしょーしている。	NO_LABEL
2005年にはメトロがセスタオまで、2007年にはポルトゥガレテまで延伸され、やはりビスカイバスの乗客数に影響を与えた。	にせんごねんにわめとろがせすたおまで、にせんななねんにわぽるとぅがれてまでえんしんされ、やはりびすかいばすのじょーきゃくすーにえいきょーをあたえた。	NO_LABEL
