中川本町は、愛知県名古屋市港区の地名。	なかがわほんまちわ、あいちけんなごやしみなとくのちめい。	NO_LABEL
1丁目から7丁目がある。	NO_PRONOUNCE	NO_LABEL
郵便番号は455-0051。	NO_PRONOUNCE	NO_LABEL
当地域の人口は418世帯・1115人。	NO_PRONOUNCE	NO_LABEL
住居表示未実施。	じゅーきょひょーじみじっし。	NO_LABEL
名古屋市港区中央部に位置する。	なごやしみなとくちゅーおーぶにいちする。	NO_LABEL
東は河口町・熱田前新田、西はいろは町・幸町・佐野町・魁町、南は築三町、北は金船町に接する。	NO_PRONOUNCE	NO_LABEL
国勢調査による人口の推移	こくせいちょうさによるじんこーのすいい	NO_LABEL
中川運河に由来する。	なかがわうんがにゆらいする。	NO_LABEL
