＝LOVEのきっと君だ!は、FRESH!で放送されているバラエティ番組である。	NO_PRONOUNCE	NO_LABEL
放送時間は毎週水曜19:00～20:00。	NO_PRONOUNCE	NO_LABEL
初回放送日は2017年10月4日。	しょかいほうそーびわにせんじゅうななねんじゅーがつよっか。	NO_LABEL
デビュー間もない＝LOVEのメンバー各々の隠された才能を発掘すべく、メンバー同士が様々なチャレンジで競い合い、視聴者投票でNo.1メンバーを決めるバトル型イコラブ発掘番組	でびゅーかんもないいこーるらぶのめんばーおのおののかくされたさいのーをはっくつすべく、めんばーどーしがさまざまなちゃれんじできそいあい、しちょーしゃとーひょーでなんばーわんめんばーをきめるばとるがたいこらぶはっくつばんぐみ	NO_LABEL
＝LOVE<br>	NO_PRONOUNCE	NO_LABEL
謎の天の声：ラブ様	NO_PRONOUNCE	NO_LABEL
