エフレン・ラミレッツは、アメリカ合衆国カリフォルニア州ロサンゼルス生まれの俳優・プロデューサーである。	NO_PRONOUNCE	NO_LABEL
1972年にカリフォルニア州ロサンゼルスで生まれる。	せんきゅうひゃくななじゅうにねんにかりふぉるにあしゅーろさんぜるすでうまれる	NO_LABEL
サルバドール人とメキシコ人の血を引いていた。	さるばどーるじんとめきしこじんのちをひいていた。	NO_LABEL
13歳の時から演技のトレーニングを始めて、ロサンゼルスにある多くの劇場の舞台を踏む。	じゅうさんさいのときからえんぎのとれーにんぐをはじめて、ろさんぜるすにあるおーくのげきじょーのぶたいをふむ。	NO_LABEL
1994年にポール・ウォーカーら出演のSFコメディ映画に出演して映画デビュー。	せんきゅうひゃくきゅうじゅうよねんにぽーるうぉーかーらしゅつえんのえすえふこめでぃえいがにしゅつえんしてえいがでびゅー。	NO_LABEL
それ以来脇役としていくつかの映画やテレビドラマに出演。	それいらいわきやくとしていくつかのえいがやてれびどらまにしゅつえん。	NO_LABEL
2004年に映画『ナポレオン・ダイナマイト』に出演して、ジョン・ヘダー演じるオタクな主人公の親友でメキシコ人転校生のペドロ・サンチェスを演じる。	NO_PRONOUNCE	NO_LABEL
当初低予算で公開館数も少なかったが、口コミが人を呼び大ヒットにつながり、ラミレッツの名前も認知されるようになる。	とーしょていよさんでこーかいかんすーもすくなかったが、くちこみがひとをよびだいひっとにつながり、らみれっつのなまえもにんちされるよーになる。	NO_LABEL
この出演がきっかけで、ミュージック・グループのG・ラヴ&スペシャル・ソースやアシュリー・シンプソンなどのミュージック・ビデオへ出演。	NO_PRONOUNCE	NO_LABEL
なお、後者ではアシュリー・シンプソンのボーイフレンド役を演じている。	なお、こーしゃでわあしゅりーしんぷそんのぼーいふれんどやくをえんじている。	NO_LABEL
この映画の興行的な成功を受け、両親のために家を購入。	このえいがのこーぎょーてきなせいこーをうけ、りょーしんのためにいえをこーにゅー。	NO_LABEL
また、プロデューサーとしても活動している。	また、ぷろでゅーさーとしてもかつどーしている。	NO_LABEL
1998年には『バフィー 〜恋する十字架〜』に出演していた女優のIyari Limonと婚約していたが、翌年破局。	NO_PRONOUNCE	NO_LABEL
また『ナポレオン・ダイナマイト』で共演したジョン・ヘダーと同じく、ラミレッツにも双子の兄弟がいる。	NO_PRONOUNCE	NO_LABEL
