玉野市コミュニティバスは、岡山県玉野市のコミュニティバスである。	たまのしこみゅにてぃばすわ、おかやまけんたまのしのこみゅにてぃばすである。	NO_LABEL
通称シーバス。	つーしょーしーばす。	NO_LABEL
両備ホールディングスが受託運行する。	りょうびほーるでぃんぐすがじゅたくうんこーする。	NO_LABEL
岡山県共通バスカードが利用可能だったが、2008年10月1日の同カード廃止に伴い、取扱終了となった。	おかやまけんきょーつーばすかーどがりよーかのーだったが、にせんはちねんじゅーがつついたちのどーかーどはいしにともない、とりあつかいしゅーりょーとなった。	NO_LABEL
非接触式ICカードシステムHarecaが使用できる。	ひせっしょくしきあいしーかーどしすてむはれかがしよーできる。	NO_LABEL
