インターロイキン-2は、サイトカインの一つである。	いんたーろいきんまいなすにわ、さいとかいんのひとつである。	NO_LABEL
IL-2は未分化なT細胞及びインターフェロンγやIL-12の刺激を受けてナイーブT細胞から分化した1型ヘルパーT細胞によって産生され、Th1サイトカインと呼ばれるグループに分類される。	NO_PRONOUNCE	NO_LABEL
IL-2は細胞性免疫に関与している。	あいえるまいなすにわさいぼーせいめんえきにかんよしている。	NO_LABEL
IL-2の構造を右上図に示した。	あいえるまいなすにのこーぞーをみぎうえずにしめした。	NO_LABEL
また、IL-2前駆体のアミノ酸配列は以下の通りである。	また、あいえるまいなすにぜんくたいのあみのさんはいれつわいかのとーりである。	NO_LABEL
IL-2は主に活性化されたT細胞により産生され、T細胞、B細胞、マクロファージ等の細胞に対して作用する。	NO_PRONOUNCE	NO_LABEL
T細胞の細胞膜上にはT細胞受容体（）が発現しているが、マクロファージ等の抗原提示細胞からの抗原提示を受けることによりIL-2を産生するシステムが稼動する。	てぃーさいぼーのさいぼーまくじょーにわてぃーさいぼーじゅよーたいかっこがはつげんしているが、まくろふぁーじとーのこーげんていじさいぼーからのこーげんていじをうけることによりあいえるまいなすにをさんせいするしすてむがかどーする。	NO_LABEL
ヘルパーT細胞においてはTCRはCD4と呼ばれる分子と複合体を形成して存在していることが知られている。	NO_PRONOUNCE	NO_LABEL
さらにCD4はSrcチロシンキナーゼファミリーに属するLckあるいはFynと会合している。	NO_PRONOUNCE	NO_LABEL
TCRに抗原が結合すると、これらのキナーゼによりTCRのリン酸化が行われる。	てぃーしーあーるにこーげんがけつごーすると、これらのきなーぜによりてぃーしーあーるのりんさんかがおこなわれる。	NO_LABEL
このリン酸化された部位に対してSykファミリーの分子であるZAP-70が結合する。	NO_PRONOUNCE	NO_LABEL
その後、細胞膜に存在するアダプター分子LATを介してSH2ドメインを有する多くの分子を活性化する。	NO_PRONOUNCE	NO_LABEL
中でもホスホリパーゼCγは小胞体からのカルシウムイオンの放出に関与し、カルシウム依存的にカルモジュリン及びカルシニューリンの活性化が引き起こされる。	NO_PRONOUNCE	NO_LABEL
カルシニューリンは転写因子NFATの脱リン酸化を行い、核内へ移行させる。	NO_PRONOUNCE	NO_LABEL
その後NFATはDNA上のIL-2プロモーターに結合し、IL-2mRNAの産生が亢進する。	NO_PRONOUNCE	NO_LABEL
IL-2の受容体はα鎖、β鎖及びγ鎖の3つの細胞膜表面タンパク質から構成される。	あいえるまいなすにのじゅよーたいわあるふぁくさり、べーたくさりおよびがんまくさりのみっつのさいぼーまくひょーめんたんぱくしつからこーせいされる。	NO_LABEL
これらのタンパク質複合体がIL-2分子と非共有結合を形成し、細胞内へのシグナル伝達を行う。	これらのたんぱくしつふくごーたいがあいえるまいなすにぶんしとひきょーゆーけつごーをけいせいし、さいぼーないえのしぐなるでんたつをおこなう。	NO_LABEL
β及びγ鎖はタイプI インターロイキン受容体ファミリーに属する。	NO_PRONOUNCE	NO_LABEL
受容体タンパク質は二量体を形成して細胞内へシグナルを伝えるが、通常は単量体で細胞膜上を自由に移動している。	じゅよーたいたんぱくしつわにりょーたいをけいせいしてさいぼーないえしぐなるをつたえるが、つーじょーわたんりょうたいでさいぼーまくじょーをじゆーにいどーしている。	NO_LABEL
しかし、リガンドが接近すると受容体タンパク質は二量体を形成して受容体として機能しうる状態になる。	しかし、りがんどがせっきんするとじゅよーたいたんぱくしつわにりょーたいをけいせいしてじゅよーたいとしてきのーしうるじょーたいになる。	NO_LABEL
IL-2受容体α鎖は細胞内ドメインが極端に短くシグナル伝達には関与しないが、β鎖は非受容体型チロシンキナーゼであるJAK1と会合している。	NO_PRONOUNCE	NO_LABEL
またIL-2とIL-15ではIL-2受容体β鎖を共有しており、これらのサイトカインは類似の生理作用を示す。	NO_PRONOUNCE	NO_LABEL
β鎖と同様にγ鎖もJAK3と複合体を形成しており、シグナル伝達に必須である。	NO_PRONOUNCE	NO_LABEL
受容体と会合するこれらのキナーゼは受容体の細胞外ドメインにIL-2が結合することにより活性化してMAPキナーゼ経路、PI3キナーゼ-Akt経路及びJAK-STAT経路の活性化を行う。	NO_PRONOUNCE	NO_LABEL
γ鎖はIL-2のみでなくIL-4,IL-7,IL-9及びIL-15の受容体のサブユニットとしても共通に使用されていることが明らかにされていることから、共通γ鎖とも呼ばれる。	NO_PRONOUNCE	NO_LABEL
また、γ鎖遺伝子の変異によりX連鎖型重症複合免疫不全症に至ることが報告されている。	また、がんまくさりいでんしのへんいによりえっくすれんさがたじゅーしょーふくごーめんえきふぜんしょーにいたることがほーこくされている。	NO_LABEL
受容体にリガンドであるIL-2が結合すると受容体タンパク質と会合しているJAKが活性化し、受容体のチロシンリン酸化を行う。	NO_PRONOUNCE	NO_LABEL
このリン酸化を自己リン酸化と呼び、IL-2受容体のリン酸化チロシン残基がSTAT分子のSH2ドメインとの結合部位となる。	NO_PRONOUNCE	NO_LABEL
転写因子であるSTAT5はSH2ドメインを介した二量体を形成して活性化し、核内へ移行した後にDNA上の配列に結合することにより転写活性化を引き起こす。	NO_PRONOUNCE	NO_LABEL
T細胞の増殖及び活性化、B細胞の増殖と抗体産生能の亢進、単球･マクロファージの活性化、ナチュラルキラー細胞の増殖･活性化、リンホカイン活性化キラー細胞の誘導などが挙げられる。	NO_PRONOUNCE	NO_LABEL
また、IL-2は抑制性サイトカインであるIL-10を放出して免疫抑制作用を示す制御性T細胞の維持に必要であると考えられている。	NO_PRONOUNCE	NO_LABEL
免疫抑制剤であるタクロリムスおよびシクロスポリンはT細胞におけるIL-2産生を抑制する。	めんえきよくせいざいであるたくろりむすおよびしくろすぽりんわてぃーさいぼーにおけるあいえるまいなすにさんせいをよくせいする。	NO_LABEL
これらの薬物は細胞内のシクロフィリンおよびFK506結合タンパク質に結合し、薬物-タンパク質の複合体がカルシニューリンに結合する。	NO_PRONOUNCE	NO_LABEL
すでに述べたようにカルシニューリンはIL-2の転写調節において重要な分子であり、この機構によりカルシニューリン依存的な転写因子NFATの脱リン酸化が抑制され、結果として免疫抑制作用を発現する。	NO_PRONOUNCE	NO_LABEL
これらの医薬品は主に臓器移植後における拒絶反応を抑制する目的で用いられる。	これらのいやくひんわおもにぞーきいしょくごにおけるきょぜつはんのーをよくせいするもくてきでもちいられる。	NO_LABEL
また、ステロイド系抗炎症薬もIL-2の産生抑制作用を有する。	また、すてろいどけいこーえんしょーやくもあいえるまいなすにのさんせいよくせいさよーをゆーする。	NO_LABEL
さらに、ダクリズマブは抗IL-2受容体モノクローナル抗体であり、免疫抑制作用を示す。	さらに、だくりずまぶわこーあいえるまいなすにじゅよーたいものくろーなるこーたいであり、めんえきよくせいさよーをしめす。	NO_LABEL
