ジオバーニ・ガビオは、ブラジルの男子バレーボール選手。	じおばーにがびおわ、ぶらじるのだんしばれーぼーるせんしゅ。	NO_LABEL
ジュイス・デ・フォーラ出身。	じゅいすでふぉーらしゅっしん。	NO_LABEL
ポジションはウイングスパイカー。	ぽじしょんわういんぐすぱいかー。	NO_LABEL
元ブラジル代表。	もとぶらじるだいひょー。	NO_LABEL
1992年から2004年まで4度のオリンピック出場を果たし、1992年バルセロナ五輪と、2004年アテネ五輪では金メダルを獲得した。	せんきゅうひゃくきゅうじゅうにねんからにせんよねんまでよんどのおりんぴっくしゅつじょーをはたし、せんきゅうひゃくきゅうじゅうにねんばるせろなごりんと、にせんよねんあてねごりんでわきんめだるをかくとくした。	NO_LABEL
