群馬テレサービスは、かつて1980年代後半から1990年代にかけて群馬県をサービスエリアに、テレメッセージグループの一員としてポケットベルなどの事業を行っていた企業。	ぐんまてれさーびすわ、かつてせんきゅうひゃくはちじゅうねんだいこーはんからせんきゅうひゃくきゅうじゅうねんだいにかけてぐんまけんをさーびすえりあに、てれめっせーじぐるーぷのいちいんとしてぽけっとべるなどのじぎょーをおこなっていたきぎょー。	NO_LABEL
当時はテレメの通称で知られ、1990年代中盤の爆発的なポケベル人気の中でNTTドコモと並んで加入者を急増させたが、その後ポケベル人気の中核をなしていた高校生から20代前半の若者らが携帯電話やPHSに急速に移行したことから基地局などの通信設備が過剰となり、その減価償却などに苦しむこととなった。	とーじわてれめのつーしょーでしられ、せんきゅうひゃくきゅうじゅうねんだいちゅーばんのばくはつてきなぽけべるにんきのなかでえぬてぃてぃどこもとならんでかにゅーしゃをきゅーぞーさせたが、そのごぽけべるにんきのちゅーかくをなしていたこーこーせいからにじゅうだいぜんはんのわかものらがけいたいでんわやぴーえいちえすにきゅーそくにいこーしたことからきちきょくなどのつーしんせつびがかじょーとなり、そのげんかしょーきゃくなどにくるしむこととなった。	NO_LABEL
詳細はテレメッセージ内の通信端末を参照のこと。	しょーさいわてれめっせーじないのつーしんたんまつをさんしょーのこと。	NO_LABEL
