マイクロ磁気学とは物理学の一分野で、サブマイクロメートルスケールの磁気的挙動の予測を取り扱う。	まいくろじきがくとわぶつりがくのいちぶんやで、さぶまいくろめーとるすけーるのじきてききょどーのよそくをとりあつかう。	NO_LABEL
ここで取り扱われる長さスケールは材料の原子的構造を無視できる程度には大きいが、や磁気渦を取り扱える程度には小さい。	ここでとりあつかわれるながさすけーるわざいりょーのげんしてきこーぞーをむしできるていどにわおーきいが、やじきうずをとりあつかえるていどにわちーさい。	NO_LABEL
マイクロ磁気学は、磁気エネルギーを最安定化することでを、また時間依存動力学方程式を解くことにより動的挙動を扱うことができる。	まいくろじきがくわ、じきえねるぎーをさいあんていかすることでを、またじかんいぞんどうりきがくほーていしきをとくことによりどーてききょどーをあつかうことができる。	NO_LABEL
物理学の一分野としてのマイクロ磁気学磁性体のサブマイクロメートル領域における振る舞いを扱う分野）は1963年、が反平行磁壁構造についての論文を発表したことに始まる。	NO_PRONOUNCE	NO_LABEL
比較的最近まで、計算マイクロ磁気学には計算コスト的な困難が付き纏っていたが、現在では最新型のデスクトップPCで小さめの問題なら解くことが可能になってきている。	ひかくてきさいきんまで、けいさんまいくろじきがくにわけいさんこすとてきなこんなんがつきまとっていたが、げんざいでわさいしんがたのですくとっぷぴーしーでちーさめのもんだいならとくことがかのーになってきている。	NO_LABEL
静的マイクロ磁気学の目的は、力学的平衡における磁化 の空間的分布を解明することである。	せいてきまいくろじきがくのもくてきわ、りきがくてきへいこーにおけるじかのくーかんてきぶんぷをかいめいすることである。	NO_LABEL
ほとんどの場合、扱われる材料の温度はキュリー温度よりもかなり低いため、磁化係数 はいたるところ と等しい。	ほとんどのばあい、あつかわれるざいりょーのおんどわきゅりーおんどよりもかなりひくいため、じかけいすーわいたるところとひとしい。	NO_LABEL
この場合、問題は、「磁化配向ベクトル」もしくは「規格化磁化」と呼ばれる により記述される、磁化の空間的配向を解明することに帰着する。	NO_PRONOUNCE	NO_LABEL
力学的平衡は、次のように表わされる磁気エネルギーを最安定化することで達成される。	りきがくてきへいこーわ、つぎのよーにあらわされるじきえねるぎーをさいあんていかすることでたっせいされる。	NO_LABEL
ここで、拘束条件として もしくは を課す。	ここで、こーそくじょーけんとしてもしくわをかす。	NO_LABEL
このエネルギーへの寄与それぞれについて以下に説明する。	このえねるぎーえのきよそれぞれについていかにせつめいする。	NO_LABEL
交換エネルギーは、量子力学における交換相互作用を現象論的かつ連続体的に表わしたものであり、次のように書ける。	こーかんえねるぎーわ、りょーしりきがくにおけるこーかんそーごさよーをげんしょーろんてきかつれんぞくたいてきにあらわしたものであり、つぎのよーにかける。	NO_LABEL
ここで は「交換定数」、 はそれぞれ の方向成分である。	NO_PRONOUNCE	NO_LABEL
積分範囲は試料の体積全体に渡るものとする。	せきぶんはんいわしりょーのたいせきぜんたいにわたるものとする。	NO_LABEL
交換エネルギーは試料中の磁化配向ができるだけゆっくり変化することを選好するように作用する。	こーかんえねるぎーわしりょーちゅーのじかはいこーができるだけゆっくりへんかすることをせんこーするよーにさよーする。	NO_LABEL
このエネルギーは磁化が完全に一様となる際に最小となる。	このえねるぎーわじかがかんぜんにいちよーとなるさいにさいしょーとなる。	NO_LABEL
磁気異方性は結晶構造とスピン軌道相互作用の組み合わせから生じる。	じきあやかたせいわけっしょーこうぞーとすぴんきどーそーごさよーのくみあわせからしょーじる。	NO_LABEL
一般的に書くと以下のようになる。	いっぱんてきにかくといかのよーになる。	NO_LABEL
ここで、 は異方性エネルギー密度で、磁化配向の関数となる。	ここで、わあやかたせいえねるぎーみつどで、じかはいこーのかんすーとなる。	NO_LABEL
 が最低エネルギーとなるような配向が沿う軸は「磁化容易軸」と呼ばれる。	NO_PRONOUNCE	NO_LABEL
時間反転対称性により、 は の偶関数であることが保証される。	NO_PRONOUNCE	NO_LABEL
これを満たす最も単純な関数は以下のような関数である。	これをみたすもっともたんじゅんなかんすーわいかのよーなかんすーである。	NO_LABEL
ここで、 は「異方性定数」と呼ばれる。	NO_PRONOUNCE	NO_LABEL
この近似は「一軸磁気異方性」と呼ばれ、上式の場合の容易軸は 軸である。	NO_PRONOUNCE	NO_LABEL
異方性エネルギーは容易軸に沿った磁化配向が選好されるように作用する。	あやかたせいえねるぎーわよーいじくにそったじかはいこーがせんこーされるよーにさよーする。	NO_LABEL
ゼーマンエネルギーは磁化と外部磁場との相互作用エネルギーである。	ぜーまんえねるぎーわじかとがいぶじばとのそーごさよーえねるぎーである。	NO_LABEL
これは次のように書ける。	これわつぎのよーにかける。	NO_LABEL
ここで、 は外部磁場、 はである。	ここで、わがいぶじば、わである。	NO_LABEL
ゼーマンエネルギーは外部磁場と平衡な磁化配向が選好されるように作用する。	ぜーまんえねるぎーわがいぶじばとへいこーなじかはいこーがせんこーされるよーにさよーする。	NO_LABEL
反磁場とは磁性試料が自身に及ぼす磁場である。	はんじばとわじせいしりょーがじしんにおよぼすじばである。	NO_LABEL
反磁場エネルギーは以下のように書ける。	はんじばえねるぎーわいかのよーにかける。	NO_LABEL
ここで、 はである。	ここで、わである。	NO_LABEL
この場は磁化配向そのものに依存し、次の方程式系を解くことにより得られる。	このばわじかはいこーそのものにいぞんし、つぎのほーていしきけいをとくことによりえられる。	NO_LABEL
ここで、 は「磁荷密度」と呼ばれることがある。	NO_PRONOUNCE	NO_LABEL
これらを解くと、以下のようになる。	これらをとくと、いかのよーになる。	NO_LABEL
ここで、 は積分点から計算する の場所へ向うベクトルである。	ここで、わせきぶんてんからけいさんするのばしょえむかうべくとるである。	NO_LABEL
試料の端では が試料内における有限値から試料の外におけるゼロへと不連続に変化することから、磁荷密度が無限大になりうることは特筆に値する。	しりょーのはじではがしりょーないにおけるゆーげんちからしりょーのそとにおけるぜろえとふれんぞくにへんかすることから、じかみつどがむげんだいになりうることわとくひつにあたいする。	NO_LABEL
この現象は、適切な境界条件を用いることによって取り扱うことが通常は可能である。	このげんしょーわ、てきせつなきょーかいじょーけんをもちいることによってとりあつかうことがつーじょーわかのーである。	NO_LABEL
反磁場エネルギーは磁荷密度が最小となるような磁荷配向が選好されるように作用する。	はんじばえねるぎーわじかみつどがさいしょーとなるよーなじかはいこーがせんこーされるよーにさよーする。	NO_LABEL
特に、試料の端では磁荷は表面と平行となる傾向がある。	とくに、しりょーのはじでわじかわひょーめんとへいこーとなるけいこーがある。	NO_LABEL
ほとんどの場合、他のエネルギーを最低にしつつ同時にこのエネルギーを最低にすることは不可能である。	ほとんどのばあい、たのえねるぎーをさいていにしつつどーじにこのえねるぎーをさいていにすることわふかのーである。	NO_LABEL
この結果、力学的平衡は個々の項を最小化するのではなく、総磁気エネルギーを最小化するためにそれぞれの間で妥協して成り立つことになる。	このけっか、りきがくてきへいこーわここのこーをさいしょーかするのでわなく、そーじきえねるぎーをさいしょーかするためにそれぞれのまでだきょーしてなりたつことになる。	NO_LABEL
磁気弾性エネルギーとは、結晶格子の弾性変形により蓄えられるエネルギーを指す。	じきだんせいえねるぎーとわ、けっしょーこーしのだんせいへんけいによりたくわえられるえねるぎーをさす。	NO_LABEL
磁気弾性に関わる効果が無視できる場合は無視できる。	じきだんせいにかかわるこーかがむしできるばあいわむしできる。	NO_LABEL
磁荷配向 に付随する、結晶性固体の局所歪みには選好がある。	じかはいこーにふずいする、けっしょーせいこたいのきょくしょゆがみにわせんこーがある。	NO_LABEL
単純なモデルとして、この歪みを等積的で、横方向には完全に等方的であるとすると、次の偏差モデルを得る。	たんじゅんなもでるとして、このゆがみをとーせきてきで、よこほうこーにわかんぜんにひとしかたてきであるとすると、つぎのへんさもでるをえる。	NO_LABEL
formula_10	NO_PRONOUNCE	NO_LABEL
ここで、材料のパラメータ は磁気歪み定数と呼ばれる。	ここで、ざいりょーのぱらめーたわじきゆがみていすーとよばれる。	NO_LABEL
明らかに、 は磁化により の方向に誘起される歪みである。	NO_PRONOUNCE	NO_LABEL
このモデルを用いれば、弾性エネルギー密度は弾性的で応力を伴う歪みformula_11 の関数と考えることができる。	NO_PRONOUNCE	NO_LABEL
二次形式の磁気弾性エネルギーは以下のようになる。	にじけいしきのじきだんせいえねるぎーわいかのよーになる。	NO_LABEL
formula_12	NO_PRONOUNCE	NO_LABEL
ここで、formula_13 は四次の弾性テンソルである。	NO_PRONOUNCE	NO_LABEL
さらに、弾性応答は等方的であることを仮定すると、 の長さが一定であることを考慮に入れれば、次の不変量に基く表現が可能である。	さらに、だんせいおーとーわひとしかたてきであることをかていすると、のながさがいっていであることをこーりょにいれれば、つぎのふへんりょーにもとずくひょーげんがかのーである。	NO_LABEL
formula_14	NO_PRONOUNCE	NO_LABEL
このエネルギー項が磁気歪みに寄与する。	このえねるぎーこーがじきゆがみにきよする。	NO_LABEL
動的マイクロ磁気学の目的は、例えばパルス磁場や交流磁場などの非定常な条件下での試料の磁気配向の時間発展を予測することである。	どーてきまいくろじきがくのもくてきわ、たとえばぱるすじばやこーりゅーじばなどのひていじょーなじょーけんかでのしりょーのじきはいこーのじかんはってんをよそくすることである。	NO_LABEL
このためには、磁化の時間発展を試料に作用する局所「有効磁場」を用いて記述する偏微分方程式であるランダウ・リフシッツ・ギルバート方程式を解くことになる。	NO_PRONOUNCE	NO_LABEL
有効磁場とは、磁化が「感じる」局所的磁場を指す。	NO_PRONOUNCE	NO_LABEL
これは、厳密ではないが、次のように磁気エネルギーの磁化配向に関する導関数を用いて表わすことができる。	これわ、げんみつでわないが、つぎのよーにじきえねるぎーのじかはいこーにかんするどうかんすーをもちいてあらわすことができる。	NO_LABEL
ここで、 はエネルギー密度である。	ここで、わえねるぎーみつどである。	NO_LABEL
変分法を用いると、磁化の変化 に対応する磁気エネルギー変化 の関係は以下のように表わせる。	へんぶんほーをもちいると、じかのへんかにたいおーするじきえねるぎーへんかのかんけいわいかのよーにあらわせる。	NO_LABEL
磁気エネルギーに対するそれぞれの寄与項の表式を代入すると、有効磁場は次のように表わされる。	じきえねるぎーにたいするそれぞれのきよこーのひょーしきをだいにゅーすると、ゆーこーじばわつぎのよーにあらわされる。	NO_LABEL
ランダウ・リフシッツ・ギルバート方程式は磁化の運動方程式である。	NO_PRONOUNCE	NO_LABEL
有効磁場周りの磁化のラーモア歳差運動と、磁性系と環境との間の相互作用により生じる減衰を組み合わせた運動を記述する。	ゆーこーじばまわりのじかのらーもあさいさうんどーと、じせいけいとかんきょーとのまのそーごさよーによりしょーじるげんすいをくみあわせたうんどーをきじゅつする。	NO_LABEL
この方程式のいわゆる「ギルバート形式」は次のように書き下される。	NO_PRONOUNCE	NO_LABEL
ここで、 は電子の磁気回転比、 はギルバート減衰定数である。	ここで、わでんしのじきかいてんひ、わぎるばーとげんすいていすーである。	NO_LABEL
上記の形式は次の「ランダウ・リフシッツ形式」と等価であることを数学的に示すことができる。	NO_PRONOUNCE	NO_LABEL
マイクロ磁気学と力学の組み合わせにより、超音波スピーカーや高周波磁気歪みトランスデューサーなどの磁気音響共鳴の関わる産業分野への応用が可能であり興味を集めている。	まいくろじきがくとりきがくのくみあわせにより、ちょーおんぱすぴーかーやこーしゅーはじきゆがみとらんすでゅーさーなどのじきおんきょーきょーめいのかかわるさんぎょーぶんやえのおーよーがかのーでありきょーみをあつめている。	NO_LABEL
この分野では上述した磁気歪み効果を取り込んだマイクロ磁気学モデルに基づくFEMシミュレーションが重要である。	このぶんやでわじょーじゅつしたじきゆがみこーかをとりこんだまいくろじきがくもでるにもとずくえふいいえむしみゅれーしょんがじゅーよーである。	NO_LABEL
従来の磁区と磁壁の他にも、磁気渦や磁気反渦状態や、例えば磁化が全ての点で原点と逆もしくは原点に向いている配向やトポロジカルに等価な配向である三次元ブロッホ点等のトポロジカルな線状・点状配向にもマイクロ磁気学は適用されている。	NO_PRONOUNCE	NO_LABEL
このため、空間的にも、時間的にもナノスケールまで利用されている。	このため、くーかんてきにも、じかんてきにもなのすけーるまでりよーされている。	NO_LABEL
対応するトポロジカル量子数を情報担体として応用することが、最新の、既に進行中の情報技術的計画において構想されている。	たいおーするとぽろじかるりょーしすーをじょーほーたんたいとしておーよーすることが、さいしんの、すでにしんこーちゅーのじょーほーぎじゅつてきけいかくにおいてこーそーされている。	NO_LABEL
