飛田 喜佐夫は、日本の元子役、俳優である。	ひだきさおっとわ、にっぽんのもとこやく、はいゆーである。	NO_LABEL
本名は飛田 喜三。	ほんみょーわひだきぞー。	NO_LABEL
別名は飛田 喜佐雄など。	べつめいわひだきさつよしなど。	NO_LABEL
1926年3月24日、東京市浅草区千束町現在の東京都台東区千束）に生まれる。	NO_PRONOUNCE	NO_LABEL
父・喜平は会社員で、実弟は大映東京撮影所で録音技師として活躍した飛田喜美雄である。	NO_PRONOUNCE	NO_LABEL
ただし、喜佐夫の別名と誤記している資料もある。	ただし、きさおっとのべつめいとごきしているしりょーもある。	NO_LABEL
1930年、父の知人の紹介で電通映画社教育映画部に子役として入社し、1934年、本名の飛田喜三名義で『日月と共に』『昼寝も出来ない』で映画デビュー。	NO_PRONOUNCE	NO_LABEL
同年、日活多摩川撮影所に入社し、1942年に大映東京撮影所に改称後も引き続き脇役として活躍。	どーねん、にっかつたまがわさつえいしょににゅーしゃし、せんきゅうひゃくよんじゅうにねんにだいえいとーきょーさつえいしょにかいしょーごもひきつずきわきやくとしてかつやく。	NO_LABEL
この間、千束尋常小学校を経て、東京主計商業学校を卒業している。	このかん、せんぞくじんじょーしょうがっこーをへて、とーきょーしゅけいしょーぎょーがっこーをそつぎょーしている。	NO_LABEL
戦後の1947年、芸名を飛田喜佐夫に改名。	せんごのせんきゅうひゃくよんじゅうななね、げいめいをとびたきさおにかいめい。	NO_LABEL
以後も引き続き大映の専属俳優として多数の作品に出演。	いごもひきつずきだいえいのせんぞくはいゆーとしてたすーのさくひんにしゅつえん。	NO_LABEL
1971年、大映倒産に伴ってフリーとなった後も活躍を続け、1982年頃まで活躍した。	せんきゅうひゃくななじゅういちねん、だいえいとーさんにともなってふりーとなったのちもかつやくをつずけ、せんきゅうひゃくはちじゅうにねんごろまでかつやくした。	NO_LABEL
また、舞台も戦前から多数出演していた。	また、ぶたいもせんぜんからたすーしゅつえんしていた。	NO_LABEL
しかし、以後の消息は明らかになっておらず、存命であれば満90歳以上の高齢である。	しかし、いごのしょーそくわあきらかになっておらず、ぞんめいであればまんきゅうじゅっさいいじょーのこーれいである。	NO_LABEL
全て製作は「日活多摩川撮影所」、配給は「日活」、特筆以外は全てトーキーである。	NO_PRONOUNCE	NO_LABEL
特筆以外、全て製作は「大映東京撮影所」、配給は「大映」、全てトーキーである。	NO_PRONOUNCE	NO_LABEL
