鼓が丘は、愛知県名古屋市守山区にある地名。	つずみがおかわ、あいちけんなごやしもりやまくにあるちめい。	NO_LABEL
郵便番号は463-0807。	NO_PRONOUNCE	NO_LABEL
1丁目から2丁目まで存在する。	いちちょーめからにちょーめまでそんざいする。	NO_LABEL
当地域の人口は548世帯・1359人。	NO_PRONOUNCE	NO_LABEL
名古屋市守山区志段味地区に位置する。	なごやしもりやまくこころざしだんみちくにいちする。	NO_LABEL
東は泉が丘・百合が丘、西は大字吉根字太鼓ヶ根、南は大森北2丁目、北は花咲台に接する。	NO_PRONOUNCE	NO_LABEL
大字吉根の字太鼓ヶ根の名称に由来し、名称を新町名としてふさわしい語感に変えて命名されたものという。	NO_PRONOUNCE	NO_LABEL
