常楽院は、埼玉県飯能市にある真言宗智山派の寺院である。	じょーらくいんわ、さいたまけんはんのーしにあるしんごんしゅーちさんはのじいんである。	NO_LABEL
通称は高山不動。	つーしょーわたかやまふどー。	NO_LABEL
本尊は軍荼利明王。	ほんぞんわぐんだりみょうおー。	NO_LABEL
成田不動、高幡不動に加えて関東三大不動の一つとされる。	なりたふどー、たかはたふどーにくわえてかんとーさんだいふどーのひとつとされる。	NO_LABEL
飯能市郊外の山間部に位置する。	はんのーしこーがいのさんかんぶにいちする。	NO_LABEL
伝承によれば白雉5年、藤原鎌足の子の長覚坊、三輪神社の別当宝勝坊、藤原氏の臣である岩田三兄弟が創建したという。	でんしょーによればはくちごねん、ふじわらのかまたりのこのちょーさとしぼー、みわじんじゃのべっとーほうしょーぼー、ふじわらうじのしんであるいわたさんきょーだいがそーけんしたという。	NO_LABEL
その後716年、行基が五大明王像を造り、そのうちの1体が現存する軍荼利明王像であるという。	NO_PRONOUNCE	NO_LABEL
以上の草創縁起は伝承の域を出ないものであり、正確な創建時期は明らかでない。	いじょーのそーそーえんぎわでんしょーのいきをでないものであり、せいかくなそーけんじきわあきらかでない。	NO_LABEL
平安時代末期には高山氏の祖、坂東八平氏秩父党の秩父重綱の子重遠が居住し、高山氏を称した。	へいあんじだいまっきにわたかやましのそ、ばんどーはちへいしちちぶとーのちちぶしげつなのこしげとおがきょじゅーし、たかやましをしょーした。	NO_LABEL
寺は標高600メートルほどの山中に位置する。	てらわひょーこーろっぴゃくめーとるほどのさんちゅーにいちする。	NO_LABEL
不動堂からさらに1キロほど登ったところに奥の院があり、関八州見晴台と称されている。	NO_PRONOUNCE	NO_LABEL
重要文化財	じゅーよーぶんかざい	NO_LABEL
その他の文化財	そのたのぶんかざい	NO_LABEL
徒歩	とほ	NO_LABEL
車	くるま	NO_LABEL
その他	そのた	NO_LABEL
