ツインフォールズ（）は、アメリカ合衆国アイダホ州ツインフォールズ郡の都市であり、同郡の郡庁所在地かつ郡内では人口最大の都市である。	ついんふぉーるずかっこわ、あめりかがっしゅーこくあいだほしゅーついんふぉーるずぐんのとしであり、どーぐんのぐんちょーしょざいちかつぐんないでわじんこーさいだいのとしである。	NO_LABEL
2010年国勢調査での人口は44,125人だった。	NO_PRONOUNCE	NO_LABEL
マジック・バレー地域では最大の都市であり、その半径100マイル内で最大なので、アイダホ州南中部とネバダ州北東部の双方にとって商業の中心になっている。	NO_PRONOUNCE	NO_LABEL
ツインフォールズ市はツインフォールズ小都市圏の主要都市であり、この都市圏に公式にはジェローム郡とツインフォールズ郡が含まれている。	ついんふぉーるずしわついんふぉーるずしょーとしけんのしゅよーとしであり、このとしけんにこーしきにわじぇろーむぐんとついんふぉーるずぐんがふくまれている。	NO_LABEL
ネバダ州エルコ郡のリゾート地であるジャックポットは、ツインフォールズ都市圏を大きく捉えたときに、非公式だがその一部だと考えられている。	ねばだしゅーえるこぐんのりぞーとちであるじゃっくぽっとわ、ついんふぉーるずとしけんをおーきくとらえたときに、ひこーしきだがそのいちぶだとかんがえられている。	NO_LABEL
1959年、ツインフォールズ市に近いウィルソン・ビュート洞穴を発掘したとき、鏃など人間の活動の証拠が現れ、北アメリカ大陸では最古級の人工物とされた。	NO_PRONOUNCE	NO_LABEL
その後北部ショショーニ族やバノック族などインディアンがこの地域を支配した。	そのごほくぶしょしょーにぞくやばのっくぞくなどいんでぃあんがこのちいきをしはいした。	NO_LABEL
ツインフォールズ地域を最初に訪れたヨーロッパ人は、1811年と1812年にミズーリ州セントルイスから西へオレゴン州アストリアまで全て水流を辿って行き着こうとしたウィルソン・プライス・ハントが率いた1隊のメンバーだったと考えられている。	NO_PRONOUNCE	NO_LABEL
ハントの遠征隊は現在のマートーに近いカルドロン・リンと呼ばれるスネーク川の早瀬で、隊の大半が崩壊し、一人が死ぬという災難に遭遇した。	NO_PRONOUNCE	NO_LABEL
ハントと残ったメンバーはアストリアまで陸路を辿ってその旅を終えた。	はんととのこっためんばーわあすとりあまでりくろをたどってそのたびをおえた。	NO_LABEL
1812年と1813年、ロバート・スチュアートがアストリアから東にセントルイスに陸路向かう遠征を成功させ、途中でツインフォールズ地域を通過した。	NO_PRONOUNCE	NO_LABEL
スチュアートの通った経路は後のオレゴン・トレイルと呼ばれた経路の基本線になった。	すちゅあーとのとーったけいろわごのおれごんとれいるとよばれたけいろのきほんせんになった。	NO_LABEL
それから150年ほど後に、ツインフォールズ市にある中学校がロバート・スチュアート中学校と名付けられた。	NO_PRONOUNCE	NO_LABEL
この地域で最初の恒久的開拓地は現在のツインフォールズ市がある場所に近いロック・クリークで、1864年に設立された駅馬車中継所だった。	NO_PRONOUNCE	NO_LABEL
1890年までにスネーク川峡谷では一握りの成功した農場があったが、インフラの欠如と峡谷の地形のために乾燥した周辺地域を灌漑するのは難しいと考えられた。	NO_PRONOUNCE	NO_LABEL
この問題に対処するため、1900年にツインフォールズ土地水会社が地域に灌漑用運河体系を建設する目的で結成された。	NO_PRONOUNCE	NO_LABEL
3年後にスネーク川峡谷で成功した農園主かつ牧場主だったI・B・ペリンが、1894年キャリー法の規定による民間投資予算を確保し、カルドロン・リンに近いスネーク川にミルナー・ダムを建設した。	NO_PRONOUNCE	NO_LABEL
このダムと運河が1905年に完工し、スネーク川峡谷以外の灌漑を初めて実現させた。	NO_PRONOUNCE	NO_LABEL
その結果ペリンは一般にツインフォールズ市の設立者としての名誉を受けている。	そのけっかぺりんわいっぱんについんふぉーるずしのせつりつしゃとしてのめいよをうけている。	NO_LABEL
ツインフォールズ市は1904年に計画都市として設立され、著名フランス系アメリカ人建築家エマヌエル・ルイ・マスケレーが設計し、町の区画を販売した利益は灌漑用運河の建設に回された。	NO_PRONOUNCE	NO_LABEL
町の名前はスネーク川にある滝の名前から採られた。	まちのなまえわすねーくがわにあるたきのなまえからとられた。	NO_LABEL
1907年、ツインフォールズは新しく設立されたツインフォールズ郡の郡庁所在地となった。	せんきゅうひゃくななねん、ついんふぉーるずわあたらしくせつりつされたついんふぉーるずぐんのぐんちょーしょざいちとなった。	NO_LABEL
当初の町は特徴あるデザインに従っている。	とーしょのまちわとくちょーあるでざいんにしたがっている。	NO_LABEL
北東から南西に向かう道路と北西から南東に向かう道路で区切られている。	ほくとーからなんせいにむかうどーろとほくせいからなんとーにむかうどーろでくぎられている。	NO_LABEL
北西から南東に向かう道路は番号が付けられアベニューと呼ばれており、北東から南西に向かう道路も番号が付けられストリートと呼ばれている。	ほくせいからなんとーにむかうどーろわばんごーがつけられあべにゅーとよばれており、ほくとーからなんせいにむかうどーろもばんごーがつけられすとりーととよばれている。	NO_LABEL
中央の2本の道路、すなわち北西から南東に向かうメイン・アベニューと北東から南西に向かうショショーニ・ストリートのみが名前を持っている。	NO_PRONOUNCE	NO_LABEL
この配置は1日のいずれかの時点で太陽が家のどの部屋にも差し込むように工夫されたからである。	このはいちわついたちのいずれかのじてんでたいよーがいえのどのへやにもさしこむよーにくふーされたからである。	NO_LABEL
この体系によると通りの片側は反対側と異なる住所となり、また例えば「3番と3番」の交差点角は1つ以上の場所を指すことがある。	NO_PRONOUNCE	NO_LABEL
2003年、北東から南西に向かう道路の番号体系は長年の混乱を軽減するように改良された。	にせんさんねん、ほくとーからなんせいにむかうどーろのばんごーたいけいわながねんのこんらんをけいげんするよーにかいりょーされた。	NO_LABEL
また後年にできたブルーレイクス・ブールバード、アディソン・アベニューおよびワシントン・ストリートなどの市道は標準的な南北および東西方向に配置された。	NO_PRONOUNCE	NO_LABEL
ミルナー・ダムが建設された後、アイダホ州南中部の農業生産高は飛躍的に増加した。	NO_PRONOUNCE	NO_LABEL
ツインフォールズ市は農業を中心とする地域経済の中心となり、今日までその役割を保っている。	ついんふぉーるずしわのーぎょーをちゅーしんとするちーきけいざいのちゅーしんとなり、きょーまでそのやくわりをたもっている。	NO_LABEL
豆類やテンサイなど農作物の加工も行われるようになった。	まめるいやてんさいなどのーさくもつのかこーもおこなわれるよーになった。	NO_LABEL
後年にはさらに別の食品加工が地域経済を補うようになった。	こーねんにわさらにべつのしょくひんかこーがちーきけいざいをおぎなうよーになった。	NO_LABEL
1960年までにツインフォールズ市はアイダホ州内の大都市の1つになってきたが、現在でもその当初の様子が多くの者の記憶の中に生きている。	せんきゅうひゃくろくじゅうねんまでについんふぉーるずしわあいだほしゅーないのだいとしのひとつになってきたが、げんざいでもそのとーしょのよーすがおーくのもののきおくのなかにいきている。	NO_LABEL
1974年9月、イーベル・クニーベルが特別に誂えたロケット自転車でスネーク川峡谷に飛び込もうとしたとき、ツインフォールズ市は全国的な注目を浴びた。	NO_PRONOUNCE	NO_LABEL
テレビで数多い者が見守ったが、このときは強い風が吹き、クニーベルがパラシュートを早く開き過ぎたために失敗した。	てれびでかずおーいものがみまもったが、このときわつよいかぜがふき、くにーべるがぱらしゅーとをはやくひらきすぎたためにしっぱいした。	NO_LABEL
私有地にある発射台の基礎は今でも見ることができる。	しゆーちにあるはっしゃだいのきそわいまでもみることができる。	NO_LABEL
20世紀最後の四半世紀、農業を基礎とする経済が次第に多様化し、ツインフォールズ市は成長を続けた。	にじっせいきさいごのしはんせいき、のーぎょーをきそとするけいざいがしだいにたよーかし、ついんふぉーるずしわせいちょーをつずけた。	NO_LABEL
2006年時点での市内主要雇用主としては、コンピュータ・メーカーのデル、食品のグランビア、およびRV車のジェイコがある。	NO_PRONOUNCE	NO_LABEL
2009年9月、デル社は2010年1月までにツインフォールズの施設を閉鎖すると発表した。	にせんきゅうねんくがつ、でるしゃわにせんじゅうねんいちがつまでについんふぉーるずのしせつをへいさするとはっぴょーした。	NO_LABEL
近年、ツインフォールズはきわめて多様な文化になってきている。	きんねん、ついんふぉーるずわきわめてたよーなぶんかになってきている。	NO_LABEL
南アイダホ・カレッジが運営する避難民センターの寄与が大きく、1995年以来ボスニア・ヘルツェゴビナや元ソビエト連邦領内からの多くの人々が市内に移転してきた。	NO_PRONOUNCE	NO_LABEL
住民の中にはヒスパニック系もかなりいる。	じゅーみんのなかにわひすぱにっくけいもかなりいる。	NO_LABEL
ツインフォールズ市は市政委員会・シティマネジャー方式を採用している。	NO_PRONOUNCE	NO_LABEL
7人の委員による市政委員会は市内無党派選挙によって直接選ばれ、任期は4年間である。	しちにんのいいんによるしせいいーんかいわしないむとーはせんきょによってちょくせつえらばれ、にんきわよんねんかんである。	NO_LABEL
市長には執行権限があまり無く、市政委員会の中から定期的に1人が選ばれている。	しちょーにわしっこーけんげんがあまりなく、しせいいーんかいのなかからていきてきにひとりがえらばれている。	NO_LABEL
委員会の会合は通常毎週月曜日に開催されている。	いーんかいのかいごーわつーじょーまいしゅーげつよーびにかいさいされている。	NO_LABEL
市の日々の運営は市政委員会が指名するシティマネジャーが行う。	しのひびのうんえいわしせいいーんかいがしめいするしてぃまねじゃーがおこなう。	NO_LABEL
市政府は様々な市民委員会を通じて、公園とレクリエーション、企画と地区分け、衛生とゴミ収集、通りの保守、排水回収、および警察署と消防署の運営を監督している。	しせいふわさまざまなしみんいーんかいをつーじて、こーえんとれくりえーしょん、きかくとちくわけ、えいせいとごみしゅーしゅー、とーりのほしゅ、はいすいかいしゅー、およびけいさつしょとしょーぼーしょのうんえいをかんとくしている。	NO_LABEL
ツインフォールズ公共図書館、市営ゴルフコースおよびジョスリンフィールド・マジックバレー地域空港も市の司法権の下にある。	NO_PRONOUNCE	NO_LABEL
ツインフォールズ市の公立学校が含まれるアイダホ州の公立学校は、その生徒一人当たり費用が少ないわりに成果を上げている。	ついんふぉーるずしのこーりつがっこーがふくまれるあいだほしゅーのこーりつがっこーわ、そのせいといちにんあたりひよーがすくないわりにせいかをあげている。	NO_LABEL
ニューヨーク州の場合、生徒一人当たり費用が18,126ドルであるのに対し、卒業するのは73.6％に過ぎない。	NO_PRONOUNCE	NO_LABEL
一方アイダホ州では生徒一人当たり費用が7,091ドルでしかないが、卒業するのは80.6％である。	NO_PRONOUNCE	NO_LABEL
ツインフォールズ市の高校生は毎年ACT試験を受けることができる。	ついんふぉーるずしのこーこーせいわまいとしあくとしけんをうけることができる。	NO_LABEL
2010年の結果は、アイダホ州の他地域と同様ツインフォールズ市の生徒が全州の10傑に入った。	NO_PRONOUNCE	NO_LABEL
ツインフォールズ市の生徒の場合、全分野で州平均を上回った。	ついんふぉーるずしのせいとのばあい、ぜんぶんやでしゅーへいきんをうわまわった。	NO_LABEL
2010年後半、アイダホ州公立学校監督官は州の公共教育に多くの変更を提案した。	にせんじゅうねんこーはん、あいだほしゅーこーりつがっこーかんとくかんわしゅーのこーきょーきょーいくにおーくのへんこーをていあんした。	NO_LABEL
この変更案が州議会を通り、この法に従ってツインフォールズ教育学区はこれら変更案を採用した。	このへんこーあんがしゅーぎかいをとーり、このほーにしたがってついんふぉーるずきょーいくがっくわこれらへんこーあんをさいよーした。	NO_LABEL
元フロリダ州知事でジョージ・W・ブッシュの弟、ジェブ・ブッシュは、アイダホ州の教育改革は他州のモデルとなると述べた。	もとふろりだしゅーちじでじょーじうぉーかーぶっしゅのおとーと、じぇぶぶっしゅわ、あいだほしゅーのきょーいくかいかくわたしゅーのもでるとなるとのべた。	NO_LABEL
市の北西部には大型のコミュニティ・カレッジである南アイダホ・カレッジがある。	NO_PRONOUNCE	NO_LABEL
州内のボイシ州立大学、アイダホ州立大学およびアイダホ大学など幾つかの大学がこの南アイダホ・カレッジのキャンパスで授業を行っている。	NO_PRONOUNCE	NO_LABEL
看護学では最新式看護施設を建設するための2007年-2008年州予算を獲得した。	NO_PRONOUNCE	NO_LABEL
南アイダホ・カレッジのバスケットボール・チームは2011年初期のNJCAAディビジョンI選手権で優勝した。	NO_PRONOUNCE	NO_LABEL
市内にあるツインフォールズ高校、キャニオンリッジ高校、オルターナティブ教育のマジックバレー高校、2つの中学校および7つの小学校はツインフォールズ教育学区が管轄している。	しないにあるついんふぉーるずこーこー、きゃにおんりっじこーこー、おるたーなてぃぶきょーいくのまじっくばれーこーこー、ふたつのちゅーがっこーおよびななつのしょーがっこーわついんふぉーるずきょーいくがっくがかんかつしている。	NO_LABEL
またザビアー・チャーター・スクールもあり、最近ではウィングス・チャーター中学校も設立した。	NO_PRONOUNCE	NO_LABEL
2006年3月14日、有権者はさらに新しい高校を建設する資金予算を承認した。	にせんろくねんさんがつじゅうよっか、ゆーけんしゃわさらにあたらしいこーこーをけんせつするしきんよさんをしょーにんした。	NO_LABEL
この学校の愛称を決めるために市全体のコンテストが開催された。	このがっこーのあいしょーをきめるためにしぜんたいのこんてすとがかいさいされた。	NO_LABEL
2006年11月、ツインフォールズ市教育委員会は「リバーウォークス」という名前を選定し、公式にキャニオンリッジ高校リバーウォークスを誕生させた。	NO_PRONOUNCE	NO_LABEL
この資金予算では既存施設を改良し、ジュニア高校を中学校に転換する計画も認められた。	このしきんよさんでわきそんしせつをかいりょーし、じゅにあこーこーをちゅーがっこーにてんかんするけいかくもみとめられた。	NO_LABEL
これらの計画は2009年から2010年の学校年に完成された。	これらのけいかくわにせんきゅうねんからにせんじゅうねんのがっこーねんにかんせいされた。	NO_LABEL
キャニオンリッジ高校が新設されたことで、生徒は2つに分けられた。	きゃにおんりっじこーこーがしんせつされたことで、せいとわふたつにわけられた。	NO_LABEL
ツインフォールズ高校とキャニオンリッジ高校両校の運動競技はアイダホ州高校活動協会の5Aではなく、4Aに指定されている。	NO_PRONOUNCE	NO_LABEL
私立学校としては、ライトハウス・クリスチャン学校、セントエドワーズ・カトリック学校、ツインフォールズ・クリスチャン・アカデミーがある。	NO_PRONOUNCE	NO_LABEL
City-Data.com に拠れば、ツインフォールズ市の犯罪率は2003年から2009年の間に劇的に減少した。	NO_PRONOUNCE	NO_LABEL
2009年時点での犯罪率は全国平均よりも低い。	にせんきゅうねんじてんでのはんざいりつわぜんこくへいきんよりもひくい。	NO_LABEL
市内にはコネチカット州、メイン州、オレゴン州およびテキサス州で違法に運営されている非認定マスプロ大学のサフィールド大学がある。	しないにわこねちかっとしゅー、めいんしゅー、おれごんしゅーおよびてきさすしゅーでいほーにうんえいされているひにんていますぷろだいがくのさふぃーるどだいがくがある。	NO_LABEL
州内第7の都市であるツインフォールズ市は州南中部で最も成長速度の高い都市である。	NO_PRONOUNCE	NO_LABEL
2011年のツインフォールズ郡失業率は9.5％で、州平均の9.6％より低い。	NO_PRONOUNCE	NO_LABEL
1998年から2007年、失業率は着実に低下して2％以下にまでなった。	NO_PRONOUNCE	NO_LABEL
その後全国的な不況の煽りを受け、2011年4月時点で9.5％近くにまで増加してきた。	NO_PRONOUNCE	NO_LABEL
今日見られる成長の大半は最近の20年間に起こったものであり、特に2006年から2011年の間に加速された。	きょーみられるせいちょーのたいはんわさいきんのにじゅうねんかんにおこったものであり、とくににせんろくねんからにせんじゅういちねんのまにかそくされた。	NO_LABEL
しかし、長年その根幹だった事業がある。	しかし、ながねんそのこんかんだったじぎょーがある。	NO_LABEL
ツインフォールズ市には賞も取ったチーズ製造のグランビア食品がある。	ついんふぉーるずしにわしょーもとったちーずせいぞーのぐらんびあしょくひんがある。	NO_LABEL
この会社はツインフォールズが世界でも主要な農業地域の一つにあるのでこの地を選んだのであり、それほどツインフォールズの経済は農業に基づいている。	このかいしゃわついんふぉーるずがせかいでもしゅよーなのーぎょーちいきのひとつにあるのでこのちをえらんだのであり、それほどついんふぉーるずのけいざいわのーぎょーにもとずいている。	NO_LABEL
別の賞を取った食品会社のフォールズブランドが市内南部にある。	べつのしょーをとったしょくひんがいしゃのふぉーるずぶらんどがしないなんぶにある。	NO_LABEL
2011年初期、同社のオールドファッションド・バスク・チョリーゾ・ソーセージが、全国食肉協会が毎年開催している「グルメ・ソーセージ祭」で「ホールド・ザ・マスタード」賞を受賞した。	NO_PRONOUNCE	NO_LABEL
もう一つの経済の根幹は南アイダホ・カレッジである。	NO_PRONOUNCE	NO_LABEL
このコミュニティ・カレッジは学生数3,433人を誇り、4年制大学に進学する準備ができていない生徒にとっての代案を提供している。	NO_PRONOUNCE	NO_LABEL
多くの学生は州外からの者であり、カレッジの寮で生活している。	おーくのがくせいわしゅーがいからのものであり、かれっじのりょーでせいかつしている。	NO_LABEL
このカレッジは全国的にも成功した例となり、市民にも長続きする職の機会を提供している。	このかれっじわぜんこくてきにもせいこーしたれいとなり、しみんにもながつずきするしょくのきかいをていきょーしている。	NO_LABEL
その他の大規模雇用主としては、ホワイトサテン砂糖の製造者アマルガメイテド砂糖社と、市内西部にある食品加工工場を運営するラム・ウェストンがある。	NO_PRONOUNCE	NO_LABEL
少なくとも500名の市民を雇用し、年間売上高は約1億ドルである。	NO_PRONOUNCE	NO_LABEL
国内経済が不況の中でもツインフォールズ市は急速な発展を遂げてきた。	こくないけいざいがふきょーのなかでもついんふぉーるずしわきゅーそくなはってんをとげてきた。	NO_LABEL
多くの大型小売店が2006年から2011年に市内に開店してきた。	おーくのおーがたこーりてんがにせんろくねんからにせんじゅういちねんにしないにかいてんしてきた。	NO_LABEL
2009年11月、新しいウォルマート・スーパーセンターが開店し、推計100人の新たな雇用を生んだ。	NO_PRONOUNCE	NO_LABEL
それから1年足らず後の2010年10月に、コールセンターのC3が営業を始めた。	それからいちねんたらずごのにせんじゅうねんじゅーがつに、こーるせんたーのしーきゅーぶがえいぎょーをはじめた。	NO_LABEL
これは1,000人近い雇用を生み、既に繁栄している経済の大きな推進力となった。	NO_PRONOUNCE	NO_LABEL
また2011年7月にはC3が活発な事業の故にさらに300人の雇用機会を提供すると発表した。	またにせんじゅういちねんしちがつにわしーきゅーぶがかっぱつなじぎょーのゆえにさらにさんびゃくにんのこよーきかいをていきょーするとはっぴょーした。	NO_LABEL
2011年11月、チョバニ印ギリシャスタイルのヨーグルトメーカーであるアグロ・ファームズが市内に最新式の設備を建設し、ヨーグルトを製造すると発表した。	NO_PRONOUNCE	NO_LABEL
このことで、当初400人の雇用と、少なくとも1億ドルの工場建設投資、さらにはアイダホ州南部の酪農家に年間3億ドル近い収入増をもたらすと期待されている。	このことで、とーしょよんひゃくにんのこよーと、すくなくともいちおくどるのこーじょーけんせつとーし、さらにわあいだほしゅーなんぶのらくのーかにねんかんさんおくどるちかいしゅーにゅーぞーをもたらすときたいされている。	NO_LABEL
マジック・バレー14シネマはIMAXのスクリーンとD-Boxの座席を備えた新しい劇場を建設し、40ないし50人の新しい職を生むことになる。	NO_PRONOUNCE	NO_LABEL
この計画では2011年12月に開業予定である。	このけいかくでわにせんじゅういちねんじゅーにがつにかいぎょーよていである。	NO_LABEL
この新しい娯楽施設はマジック・バレーにおける前例のないような発展で実現した。	NO_PRONOUNCE	NO_LABEL
人口増に対応してツインフォールズ郡有権者は市内北西部に新しい病院を建設する案を承認した。	じんこーぞーにたいおーしてついんふぉーるずぐんゆーけんしゃわしないほくせいぶにあたらしいびょーいんをけんせつするあんをしょーにんした。	NO_LABEL
2011年春、セントルークス病院が床面積70万平方フィートの病院を開設した。	にせんじゅういちねんはる、せんとるーくすびょーいんがゆかめんせきななじゅうまんへいほーふぃーとのびょーいんをかいせつした。	NO_LABEL
この新病院の特徴の1つは186室の全病室が家族も泊まれる個室になっていることである。	NO_PRONOUNCE	NO_LABEL
その他過去5年間に始まった事業として、ファイブガイズ・バーガーズ・アンド・フライズ、バッファロー・ワイルドウィングス、およびコールドウォーター・クリークがある。	NO_PRONOUNCE	NO_LABEL
中心街では幾つかの事業をそれが始まったところに戻ってくることを期待して、中心街再生の動きが始まっている。	ちゅーしんがいでわいくつかのじぎょーをそれがはじまったところにもどってくることをきたいして、ちゅーしんがいさいせいのうごきがはじまっている。	NO_LABEL
2012年、ツインフォールズ市ではアイダホ州共和党集会が開催される予定であり、これがより積極的な経済活動を生み出すことが期待されている。	にせんじゅうにねん、ついんふぉーるずしでわあいだほしゅーきょーわとーしゅーかいがかいさいされるよていであり、これがよりせっきょくてきなけいざいかつどーをうみだすことがきたいされている。	NO_LABEL
チャイナ・マウンテン・ウィンド社が環境影響評価を行った後に30万エーカーのウィンドファームを提案しており、建設する可能性がある。	NO_PRONOUNCE	NO_LABEL
これが実現すれば、ツインフォールズ市が郡庁所在地であるツインフォールズ郡は3,340万ドルの税収入増を期待できる。	NO_PRONOUNCE	NO_LABEL
地元の学校や官庁は税収入の割り当てが得られる。	じもとのがっこーやかんちょーわぜいしゅーにゅーのわりあてがえられる。	NO_LABEL
ウィンドファームの建設は、建設期間中に396ないし749人の常駐およびパートの職を生み、施設の維持のために24ないし46人の職に繋がる。	NO_PRONOUNCE	NO_LABEL
ツインフォールズ市を本拠とする新聞としては毎日朝刊を発行する「タイムズ・ニューズ」がある。	NO_PRONOUNCE	NO_LABEL
地上波テレビ局としては全国ネットの系列局など8局がある。	NO_PRONOUNCE	NO_LABEL
ケーブルテレビの視聴者はボイシとソルトレイクシティからの放送を視聴できる。	けーぶるてれびのしちょーしゃわぼいしとそるとれいくしてぃからのほーそーをしちょーできる。	NO_LABEL
ラジオ局としてはFM局が13局ある他、AM局も幾つかある。	NO_PRONOUNCE	NO_LABEL
ツインフォールズ市では国内でも初の聴取者参加型ラジオ番組を流した。	ついんふぉーるずしでわこくないでもはつのちょーしゅしゃさんかがたらじおばんぐみをながした。	NO_LABEL
それは「パーティ・ライン」と呼ばれ、KLIXラジオでL・ジェイムズ・クートニクが司会した。	NO_PRONOUNCE	NO_LABEL
連邦通信委員会はこのプログラムを遅らせようと図ったが、司会者と彼に賛同した共謀者である局の持ち主チャーリー・トゥマは委員会の動きを阻止し、番組を続けさせた。	NO_PRONOUNCE	NO_LABEL
ツインフォールズ市は州間高速道路の体系に直接繋がれていないことではアイダホ州最大の都市という特徴があるが、アメリカ国道30号線と同93号線など主要高規格道路で他地域と繋がれている。	NO_PRONOUNCE	NO_LABEL
州間高速道路西84号線に行くには市の北約5マイル、ジェローム郡内にあるアメリカ国道93号線との交差点から行くことができる。	NO_PRONOUNCE	NO_LABEL
アイダホ州道74号線でツインフォールズ市中心街から直接南のホリスターやロジャーソンおよびネバダ州ジャックポットなど国道93号線沿いにある地点に移動できる。	NO_PRONOUNCE	NO_LABEL
南アイダホ・カレッジが運営する小さな公共輸送システムであるトランスIVも使うことができる。	NO_PRONOUNCE	NO_LABEL
ジョスリンフィールド・マジックバレー地域空港からはある程度の商業航空便を利用できる。	NO_PRONOUNCE	NO_LABEL
2008年8月時点で、スカイウェスト航空がエンブラエルEMB120ブラジリア機を使い、ソルトレイクシティ国際空港への毎日の定期便が運航している。	NO_PRONOUNCE	NO_LABEL
2010年6月時点でアレジアント航空が週2回、ラスベガスのマッカラン国際空港に定期便を往復させている。	にせんじゅうねんろくがつじてんであれじあんとこーくーがしゅーにかい、らすべがすのまっからんこくさいくうこーにていきびんをおーふくさせている。	NO_LABEL
ツインフォールズ市はに位置する。	ついんふぉーるずしわにいちする。	NO_LABEL
アメリカ合衆国国勢調査局による報告では、市域全面積は12.0平方マイルであり、すべて陸地である。	NO_PRONOUNCE	NO_LABEL
スネーク川峡谷が市の北側境界となり、その先はジェローム郡となっている。	すねーくがわきょーこくがしのきたがわきょーかいとなり、そのさきわじぇろーむぐんとなっている。	NO_LABEL
その中間に3つの滝がある。	そのちゅーかんにみっつのたきがある。	NO_LABEL
ショショーニ滝はツインフォールズ市の約5マイル東にある。	NO_PRONOUNCE	NO_LABEL
ピラー滝はペリン橋の上流約1.5マイルにあり、市名のもとになったツイン滝はショショーニ滝の上流にある。	NO_PRONOUNCE	NO_LABEL
ショショーニ滝は落差が大きく、ナイアガラ滝よりも約36フィート高い。	NO_PRONOUNCE	NO_LABEL
市のすぐ北のスネーク川峡谷に架かるペリン橋は、ベースジャンピングが合法になっていることでは世界でも数少ない人工構造物の1つである。	しのすぐきたのすねーくがわきょーこくにかかるぺりんきょーわ、べーすじゃんぴんぐがごーほーになっていることでわせかいでもかずすくないじんこーこーぞーぶつのひとつである。	NO_LABEL
2005年9月、ツインフォールズ市のマイルス・デイシャーが24時間で57度ペリン橋から跳び込むという世界記録を作った。	NO_PRONOUNCE	NO_LABEL
2006年7月、ダン・シュリングはこの橋から21時間で201度飛び込み、収益を慈善事業に寄付した。	NO_PRONOUNCE	NO_LABEL
デイシャーとは異なり、シュリングは橋の上までクレーンで釣り上げてもらった。	でいしゃーとわことなり、しゅりんぐわはしのうえまでくれーんでつりあげてもらった。	NO_LABEL
ツインフォールズ市は亜乾燥気候にある。	ついんふぉーるずしわあかんそーきこーにある。	NO_LABEL
Twin Falls experiences a semi-arid climate.	NO_PRONOUNCE	NO_LABEL
月間平均気温は1月の 34.9から7月の 85.0まで変化し、12月から3月までは氷点下を記録する。	NO_PRONOUNCE	NO_LABEL
90以上になるのは年間18.8日あるが、10を越えることは極めて希である。	NO_PRONOUNCE	NO_LABEL
冬季の降雪量は2.5インチであり、大雪になったこともあった。	NO_PRONOUNCE	NO_LABEL
しかし平均降雪量まで降った後は、通りや側道で6インチ以上の雪を見ることは希である。	しかしへいきんこーせつりょうまでふったのちわ、とーりやがわどーでろくいんちいじょーのゆきをみることわまれである。	NO_LABEL
夏と秋は大変乾燥し、6月から10月まで月間降水量は1インチに満たない。	なつとあきわたいへんかんそーし、ろくがつからじゅーがつまでげっかんこーすいりょーわいちいんちにみたない。	NO_LABEL
アメリカ合衆国南西部と同様、動きの速い激しい雷雨は希ではない。	あめりかがっしゅーこくなんせいぶとどーよー、うごきのはやいはげしいらいうわまれでわない。	NO_LABEL
以下は2009年の推計による人口統計データである。	いかわにせんきゅうねんのすいけいによるじんこーとーけいでーたである。	NO_LABEL
Livability.com は、「死に挑戦する都市10傑」の第1位にツインフォールズ市を挙げた。	NO_PRONOUNCE	NO_LABEL
ツインフォールズ市で子供時代を過ごした著名音楽家として、ゲーリー・パケット、ブラックラブのポール・ダーラム、モトリー・クルーのニッキー・シックス、およびビルト・トゥー・スピル of ダグ・マーチがいる。	NO_PRONOUNCE	NO_LABEL
