おはなしの旅は、過去にNHKラジオ第2放送とNHK-FM放送で放送された学校放送である。	おはなしのたびわ、かこにえぬえいちけいらじおだいにほうそーとえぬえいちけいえふえむほうそーでほーそーされたがっこーほうそーである。	NO_LABEL
2002年度まで放送されていた前身番組の『ことばのきょうしつ』・『ことばの教室』はおもに授業形式で、対象学年ごとに別番組となっていた。	NO_PRONOUNCE	NO_LABEL
これに対し、2003年度に開始した本番組では乳幼児・小学校低学年向け「お話でてこい」と同じように、「おはなし」を聞くことをねらいとし、日本国内外の古典、民話、童話などを題材とした朗読やラジオドラマの形式をとっている。	NO_PRONOUNCE	NO_LABEL
また、対象学年を低学年、中学年、高学年と作品ごとに区切っているものの、この枠にとらわれず、音声教材として自由に利用されることを意図している。	また、たいしょーがくねんをていがくねん、ちゅーがくねん、こーがくねんとさくひんごとにくぎっているものの、このわくにとらわれず、おんせいきょーざいとしてじゆーにりよーされることをいとしている。	NO_LABEL
江守徹、熊倉一雄、寺田農、奈良岡朋子、橋爪功、山本圭などの新劇俳優のほか、篠田三郎、仲村トオル、中村メイコ、夏木陽介、森本レオ、若山弦蔵などがたびたび出演している。	えもりとーる、くまくらかずお、てらだみのり、ならおかともこ、はしずめいさお、やまもとけいなどのしんげきはいゆーのほか、しのたさぶろー、なかむらとーる、なかむらめいこ、なつきよーすけ、もりもとれお、わかやまげんぞーなどがたびたびしゅつえんしている。	NO_LABEL
出演者のうち、幸田弘子が2003年度に、岸田今日子が2004年 - 2006年度に、番組の企画にも協力していた。	NO_PRONOUNCE	NO_LABEL
一龍斎貞友、小長谷勝彦、島津冴子、鈴木勝美、田中允貴、林玉緒、真柴摩利、向殿あさみ、矢島晶子、横田砂選などは『ことばのきょうしつ』・『ことばの教室』から継続しての出演者で、おもにラジオドラマ形式の回に出演している。	NO_PRONOUNCE	NO_LABEL
2012年度末の2013年3月29日放送分を最後に放送終了となった。	にせんじゅうにねんどまつのにせんじゅうさんねんさんがつにじゅうきゅうにちほーそーぶんをさいごにほーそーしゅーりょーとなった。	NO_LABEL
これに伴い、これまで月曜・火曜日の同じ時間に放送されていた幼児・小学校低学年向けの「お話でてこい」が水曜・木曜日にも拡大されたのと、金曜日には一般向けの国語教養番組「ことば力アップ」再放送を開始したため、事実上小学校以上のクラスを対象としたラジオ第2での学校放送の番組は当番組の終了とともに廃止となった。	NO_PRONOUNCE	NO_LABEL
