「GRADUATION」は佐久間学の4枚目のシングル。	NO_PRONOUNCE	NO_LABEL
10代最後のシングルとなった本作は卒業をテーマにして制作した。	じゅうだいさいごのしんぐるとなったもとさくわそつぎょーをてーまにしてせいさくした。	NO_LABEL
佐久間は表題曲について「卒業というタイトルが浮かんで来て、そのテーマをやったことがなかったから一度やってみようかなと思って」と、コメントしている。	NO_PRONOUNCE	NO_LABEL
編曲・サウンドプロデュースは坂井紀雄が担当した。	NO_PRONOUNCE	NO_LABEL
全曲　作詞・作曲：佐久間学　編曲：坂井紀雄	NO_PRONOUNCE	NO_LABEL
