ラピドはスペイン海軍の仮装巡洋艦。	らぴどわすぺいんかいぐんのかそーじゅんよーかん。	NO_LABEL
元は1889年に建造されたハンブルク・アメリカライン（）の客船コロンビアであり、1898年に米西戦争で仮装巡洋艦とするためスペイン海軍が購入した。	NO_PRONOUNCE	NO_LABEL
そして、武装されラピドと改名されて、アメリカアジア艦隊撃破と4000名のフィリピンへの増援部隊輸送の任を負ったManuel de Camara少将率いるフィリピン救援部隊の一員となった。	NO_PRONOUNCE	NO_LABEL
Camaraの戦隊は戦艦ペラヨ、装甲巡洋艦エンペラドル・カルロス5世、仮装巡洋艦Patiota、駆逐艦アンダズ、オサド、プロセルピナ、輸送船ブエノスアイレス、パナイ、アルフォンソ12世、アントニオ・ロペス、給炭艦4隻とラピドで構成され、1898年6月16日にカディスから出撃した。	NO_PRONOUNCE	NO_LABEL
戦隊は1898年6月17日にジブラルタルを通過し、1898年6月26日にエジプトのポートサイドに到着。	せんたいわせんはっぴゃくきゅうじゅうはちねろくがつじゅうしちにちにじぶらるたるをつーかし、せんはっぴゃくきゅうじゅうはちねろくがつにじゅうろくにちにえじぷとのぽーとさいどにとーちゃく。	NO_LABEL
Camaraは石炭積み替えの許可を求めたが、エジプトの中立に対する懸念からそれは6月30日に不許可となった。	NO_PRONOUNCE	NO_LABEL
Camaraの戦隊は1898年7月5日にスエズに着いたが、そのときすでにパスクワル・セルベラ中将の艦隊はサンチャゴ・デ・キューバ海戦で殲滅され、サンチャゴ・デ・キューバを封鎖していたアメリカ艦隊が自由になっていた。	NO_PRONOUNCE	NO_LABEL
スペイン沿岸の安全に対する不安から1898年7月7日にスペインの海軍大臣はCamaraの戦隊を呼び戻した。	NO_PRONOUNCE	NO_LABEL
そして、戦隊は1898年7月17日にスエズを離れてスペインへ向かい、1898年7月25日に戦隊は解散した8。	NO_PRONOUNCE	NO_LABEL
1898年8月に戦争が終結すると、ラピドは民間船に戻った。	せんはっぴゃくきゅうじゅうはちねはちがつにせんそーがしゅーけつすると、らぴどわみんかんせんにもどった。	NO_LABEL
日露戦争中にはロシア海軍の仮装巡洋艦テレクとなった。	にちろせんそーちゅーにわろしあかいぐんのかそーじゅんよーかんてれくとなった。	NO_LABEL
1907年解体。	せんきゅうひゃくななねんかいたい。	NO_LABEL
