『B'z LIVE-GYM 2011 -C'mon-』は、日本の音楽ユニット・B'zの14作目の映像作品。	NO_PRONOUNCE	NO_LABEL
DVDとBlu-ray Discで発売。	でぃーぶいでぃーとぶるーれいでぃすくではつばい。	NO_LABEL
2011年9月～12月に行われ、50万人を動員したライブツアー「B'z LIVE-GYM 2011 -C'mon-」より、ドーム公演の映像を収録。	NO_PRONOUNCE	NO_LABEL
映像は主に京セラドーム大阪の12月18日の公演が中心となっており、一部東京ドーム公演の映像が挿入されている。	えいぞーわおもにきょーせらどーむおーさかのじゅーにがつじゅうはちにちのこーえんがちゅーしんとなっており、いちぶとーきょーどーむこーえんのえいぞーがそーにゅーされている。	NO_LABEL
2012年4月14日に公式ファンクラブ「B'z Party」のオフィシャルサイトでリリースを発表。	NO_PRONOUNCE	NO_LABEL
追って4月16日に公式サイトでも発表され、公式YouTubeチャンネルで告知映像を公開した。	おってしがつじゅうろくにちにこーしきさいとでもはっぴょーされ、こーしきゆーちゅーぶちゃんねるでこくちえいぞーをこーかいした。	NO_LABEL
アルバム「C'mon」収録曲のうち、「Too Young」「デッドエンド」は未演奏となったが、「デッドエンド」は「B'z LIVE-GYM Pleasure 2013 -ENDLESS SUMMER-」のホール公演で初演奏され、「B'z LIVE-GYM Pleasure 2013 ENDLESS SUMMER -XXV BEST-」の完全盤に収録された。	NO_PRONOUNCE	NO_LABEL
また、「ひとしずくのアナタ」はアリーナ公演のみの演奏だったため、本作には未収録。	NO_PRONOUNCE	NO_LABEL
オリコンにおける2012年6月11日付週間DVDランキングにおいて、5.3万枚を売り上げ総合首位に初登場した。	NO_PRONOUNCE	NO_LABEL
これで8作連続での総合首位獲得となり、ミュージックDVDによる総合首位獲得作品数としては、これまで1位タイの7作で並んでいた嵐を上回り単独歴代最多を記録した。	NO_PRONOUNCE	NO_LABEL
また同日発売のBlu-ray Discも、週間BDランキングにおいて初週で5.6万枚を売り上げ総合首位を獲得。	NO_PRONOUNCE	NO_LABEL
初週売上5.6万枚は、男性アーティストの初週最多売上記録であった関ジャニ∞『KANJANI∞ 五大ドームTOUR EIGHT×EIGHTRおもんなかったらドームすいません』の4.4万枚を上回り、歴代1位となった。	NO_PRONOUNCE	NO_LABEL
その後BD盤は累計7.0万枚を売り上げ、2012年度年間音楽BDランキングにて1位を獲得した。	NO_PRONOUNCE	NO_LABEL
B'zの同部門1位は、2010年リリース『B'z LIVE-GYM 2010 "Ain't No Magic" at TOKYO DOME』以来2年ぶり2作目。	NO_PRONOUNCE	NO_LABEL
同部門年間1位2作は、2008年のBlu-ray Discランキング集計開始以来初となる。	NO_PRONOUNCE	NO_LABEL
演奏終了後、恒例のMC「おつかれ!」の後に、「Brotherhood」のリハーサル映像が流れ、エンドロールに入る。	NO_PRONOUNCE	NO_LABEL
リハーサル映像の合間に、アリーナ公演初日の仙台公演のMC、ツアー各地の円陣の模様が収録されている。	りはーさるえいぞーのあいまに、ありーなこーえんしょにちのせんだいこーえんのえむしー、つあーかくちのえんじんのもよーがしゅーろくされている。	NO_LABEL
