岡田 昭雄は、日本の政治家。	おかだあきおわ、にっぽんのせいじか。	NO_LABEL
長野県千曲市長。	ながのけんちくましちょー。	NO_LABEL
長野県千曲市出身。	ながのけんちくまししゅっしん。	NO_LABEL
1970年3月、長野県坂城高等学校卒業。	せんきゅうひゃくななじゅうねんさんがつ、ながのけんさかきこーとーがっこーそつぎょー。	NO_LABEL
同年4月、更埴市役所に入庁。	どーねんしがつ、こーしょくしやくしょににゅーちょー。	NO_LABEL
1972年、長野経済短期大学夜間部卒業。	せんきゅうひゃくななじゅうにねん、ながのけいざいたんきだいがくやかんぶそつぎょー。	NO_LABEL
2003年9月1日、更埴市・更級郡上山田町・埴科郡戸倉町が合併して千曲市が発足。	NO_PRONOUNCE	NO_LABEL
2009年4月、千曲市役所の議会事務局長に就任。	にせんきゅうねんしがつ、ちくましやくしょのぎかいじむきょくちょーにしゅーにん。	NO_LABEL
2011年4月、総務部長に就任。	にせんじゅういちねんしがつ、そーむぶちょーにしゅーにん。	NO_LABEL
2012年4月、参与に就任。	にせんじゅうにねんしがつ、さんよにしゅーにん。	NO_LABEL
2012年10月17日、近藤清一郎千曲市長が病気療養のため任期途中で辞任。	にせんじゅうにねんじゅーがつじゅうしちにち、こんどーせいいちろーちくましちょーがびょーきりょーよーのためにんきとちゅーでじにん。	NO_LABEL
同月、千曲市役所を退職し、翌11月の千曲市長選挙で初当選。	どーげつ、ちくましやくしょをたいしょくし、よくじゅーいちがつのちくましちょーせんきょではつとーせん。	NO_LABEL
2016年、再選。	にせんじゅうろくねん、さいせん。	NO_LABEL
2012年11月11日執行。	にせんじゅうにねんじゅーいちがつじゅういちにちしっこー。	NO_LABEL
会社経営者の栁町博之、市議会の共産党市議団の支援を受けた宇田川弘子ら2候補を破り初当選した。	NO_PRONOUNCE	NO_LABEL
2016年10月30日執行。	にせんじゅうろくねんじゅーがつさんじゅうにちしっこー。	NO_LABEL
北陸新幹線の新駅誘致に反対する早志圭司を250票差で破り、再選を果たした。	NO_PRONOUNCE	NO_LABEL
