シャトールーはフランス中央部、サントル＝ヴァル・ド・ロワール地域圏の都市である。	NO_PRONOUNCE	NO_LABEL
アンドル県の県庁所在地。	あんどるけんのけんちょーしょざいち。	NO_LABEL
ベリー地方内においてはブールジュに次いで2番目に大きな街である。	べりーちほーないにおいてわぶーるじゅについでにばんめにおーきなまちである。	NO_LABEL
市の面積は25.54km、人口は約4万人。	NO_PRONOUNCE	NO_LABEL
近隣市を併せた人口は約6万6千人で、シャトールー都市圏としては約9万人の人口を有する。	NO_PRONOUNCE	NO_LABEL
フランスの2部のサッカーリーグ、リーグ・ドゥに所属するLBシャトールーの本拠地である。	ふらんすのにぶのさっかーりーぐ、りーぐどぅにしょぞくするえるびーしゃとーるーのほんきょちである。	NO_LABEL
