金海国際空港は、大韓民国の釜山広域市江西区大渚洞にある国際空港である。	きめこくさいくうこーわ、だいかんみんこくのぷさんくぁんにょっくしかんそくだいなぎさほらにあるこくさいくうこーである。	NO_LABEL
1940年、旧日本軍により、釜山市海雲台区に水営飛行場が建設された。	NO_PRONOUNCE	NO_LABEL
1946年より民間定期便が運行されており、1958年には釜山飛行場という名称になった。	せんきゅうひゃくよんじゅうろくねよりみんかんていきびんがうんこーされており、せんきゅうひゃくごじゅうはちねんにわぷさんひこーじょーとゆうめいしょーになった。	NO_LABEL
1976年に閉鎖され、跡地はBEXCO、センタムシティとなっている。	NO_PRONOUNCE	NO_LABEL
金海国際空港は1976年に開港した。	きめこくさいくうこーわせんきゅうひゃくななじゅうろくねんにかいこーした。	NO_LABEL
釜山広域市に所在していながら金海国際空港と呼ばれるのは、開港当時は金海郡に所在していたためで、韓国の他の空港の例に漏れず、周辺は田畑が広がっている。	ぷさんくぁんにょっくしにしょざいしていながらきめこくさいくうこーとよばれるのわ、かいこーとーじわかなうみぐんにしょざいしていたためで、かんこくのほかのくーこーのれいにもれず、しゅーへんわたはたがひろがっている。	NO_LABEL
釜山のみならず、ソウルや済州など国内線への乗り換えも可能な、韓国南部の空の玄関口であり、日本向けの国際線は東京、大阪、名古屋、札幌、福岡、沖縄、北九州の7箇所の間に運航されている。	NO_PRONOUNCE	NO_LABEL
2001年、仁川に仁川国際空港が完成したのに伴い、ソウルでは国際線と国内線で空港が分離された。	にせんいちねん、にがわにいんちょんくっちぇこんはんがかんせいしたのにともない、そうるでわこくさいせんとこくないせんでくーこーがぶんりされた。	NO_LABEL
これを機に、金海国際空港を「国際線と国内線が同じターミナルで乗り換えできる韓国最大の空港」と位置付け、利便性の向上と利用客数の増加を図るため、ターミナルビルの建て替えが行われた。	NO_PRONOUNCE	NO_LABEL
2002年11月6日に国際線ターミナルが仮設ターミナルに移転した。	にせんにねんじゅーいちがつむいかにこくさいせんたーみなるがかせつたーみなるにいてんした。	NO_LABEL
コンパクトで機能的な新国際線ターミナルは2007年11月1日より利用されており、国際線間の乗り継ぎも最小の移動距離で済むように設計されている。	こんぱくとできのーてきなしんこくさいせんたーみなるわにせんななねんじゅーいちがつついたちよりりよーされており、こくさいせんかんののりつぎもさいしょーのいどーきょりですむよーにせっけいされている。	NO_LABEL
現在は、国際線ターミナルと国内線ターミナルは無料シャトルバスで連絡されている。	げんざいわ、こくさいせんたーみなるとこくないせんたーみなるわむりょーしゃとるばすでれんらくされている。	NO_LABEL
出国審査ゲートを通過した後の出発ロビーでは、簡単な軽食を提供する店が2つあり、デューティーフリーショップは、新世界免税店他2店舗ある。	NO_PRONOUNCE	NO_LABEL
そのほか、セブンイレブンが入居している。	そのほか、せぶんいれぶんがにゅーきょしている。	NO_LABEL
ラウンジはKALとアシアナの2つが2階に並んで入っており、共にプライオリティ・パスが使用できる。	らうんじわかるとあしあなのふたつがにかいにならんではいっており、ともにぷらいおりてぃぱすがしよーできる。	NO_LABEL
2013年内に新たな就航都市を11箇所まで増やし、また国際線の増便を行なう。	NO_PRONOUNCE	NO_LABEL
当空港はこれらの新規就航や増便に合わせ、1119億ウォンを投じてボーディングブリッジの増強と手荷物受取所のベルトコンベアを増設するなど、施設の拡張工事を行なう。	NO_PRONOUNCE	NO_LABEL
8月中に設計を終え、2015年の完成を目指して年末頃に工事の着工へ入る。	はちがつちゅーにせっけいをおえ、にせんじゅうごねんのかんせいをめざしてねんまつごろにこーじのちゃっこーえはいる。	NO_LABEL
