中妻駅は、茨城県常総市中妻町にある関東鉄道常総線の駅である。	なかつまえきわ、いばらきけんじょーそーしなかつままちにあるかんとーてつどーじょーそーせんのえきである。	NO_LABEL
相対式ホーム2面2線の地上駅で委託駅。	NO_PRONOUNCE	NO_LABEL
駅舎に社宅が併設されており、社員の家族に駅業務を委託している。	えきしゃにしゃたくがへいせつされており、しゃいんのかぞくにえきぎょーむをいたくしている。	NO_LABEL
取手方面ホームに待合室がある。	とってほーめんほーむにまちあいしつがある。	NO_LABEL
取手寄りに構内踏切がある。	とってよりにこーないふみきりがある。	NO_LABEL
単線区間のため列車交換が行われる。	たんせんくかんのためれっしゃこーかんがおこなわれる。	NO_LABEL
2014年度の一日平均乗車人員は119人である。	にせんじゅうよんねんどのひといちへいきんじょーしゃじんいんわひゃくじゅうくにんである。	NO_LABEL
近年の一日平均乗車人員の推移は下記のとおり。	きんねんのひといちへいきんじょーしゃじんいんのすいいわかきのとーり。	NO_LABEL
駅前には広場がある。	えきまえにわひろばがある。	NO_LABEL
