太閤、正式名称太閤下は、摂政または関白の職を子弟に譲った人物を指す。	たいこー、せいしきめいしょーたいこーかわ、せっしょーまたわかんぱくのしょくをしていにゆずったじんぶつをさす。	NO_LABEL
敬称は「殿下」であり、呼びかけの場合は「太閤殿下」となる。	NO_PRONOUNCE	NO_LABEL
また出家した太閤のことを禅定太閤、略して禅閤という。	またしゅっけしたたいこーのことをぜんじょーたいこー、りゃくしてぜんごーという。	NO_LABEL
摂政・関白を子弟に譲った者が「太閤」と呼ばれた例は平安時代からあった。	NO_PRONOUNCE	NO_LABEL
例えば藤原道長は後一条天皇の摂政を息子頼通に譲り、続いて任じられた太政大臣の職も辞任した後は「太閤」と呼ばれていた。	NO_PRONOUNCE	NO_LABEL
鎌倉時代の関白、二条良実は弟の一条実経に関白の地位を譲った後に引き続き内覧に任じられたことから「太閤」の名乗りを用いた。	NO_PRONOUNCE	NO_LABEL
その子孫である二条良基は13年にわたって関白を務めたことから、直接の血縁関係にない他家の当主が関白になった後も「太閤」を名乗って内覧として権勢を振い、その後3度も摂関に再任された。	NO_PRONOUNCE	NO_LABEL
しかし近世以降、「太閤」といえば関白を甥の豊臣秀次に譲った後の豊臣秀吉のことを指すことが専らで、このことから「大師は弘法に奪われ、太閤は秀吉に奪わる」という格言までできるほどだった。	NO_PRONOUNCE	NO_LABEL
秀吉のことを、史家はその姓から豊太閤と呼ぶことが多い。	ひでよしのことを、しかわそのせいからゆたかたいこーとよぶことがおーい。	NO_LABEL
その秀吉が行った全国規模の検地は古くから太閤検地と呼ばれている。	そのひでよしがおこなったぜんこくきぼのけんちわふるくからたいこーけんちとよばれている。	NO_LABEL
また秀吉が大坂城を築いて天下に号令した大坂の地は、やがて江戸時代になると「天下の台所」と呼ばれるまでの経済発展を遂げたが、地元大阪では今日でもその最大の貢献者である秀吉を敬愛して「太閤はん」と呼び親しんでいる。	NO_PRONOUNCE	NO_LABEL
明治維新で旧来の太政官制が廃止され摂政・関白がなくなると、太閤の語もやがて過去のものとなるはずだったが、百姓の身分から初代内閣総理大臣に上り詰め、その後も元老として明治日本を牽引し、艶福家の点でも共通する伊藤博文が、豊太閤に倣って今太閤と呼ばれるようになった。	NO_PRONOUNCE	NO_LABEL
さらに戦後には高等教育の学歴を持たずに内閣総理大臣まで上り詰めた田中角栄も今太閤と呼ばれるようになった。	さらにせんごにわこーとーきょーいくのがくれきをもたずにないかくそーりだいじんまでのぼりつめたたなかかくえいもこんたいこーとよばれるよーになった。	NO_LABEL
このように「今太閤」は貧しい生まれから立身出世して大きな権力を握るに至った者の代名詞として使われるようになり、この他にも保守政治家の三木武吉、阪急電鉄の小林一三、松下電器の松下幸之助、大映の永田雅一らも今太閤と、また吉本興業の吉本せいは女今太閤と呼ばれた。	NO_PRONOUNCE	NO_LABEL
