前谷地駅は、宮城県石巻市前谷地字中埣にある、東日本旅客鉄道の駅である。	まえやちえきわ、みやぎけんいしのまきしまえやちじなかぞねにある、ひがしにほんりょかくてつどーのえきである。	NO_LABEL
石巻線と気仙沼線が乗り入れ、このうち石巻線を所属線としている。	いしのまきせんとけせんぬませんがのりいれ、このうちいしのまきせんをしょぞくせんとしている。	NO_LABEL
気仙沼線は当駅を線路名称上の起点としているが、一部の列車は石巻線を通して小牛田駅まで乗り入れている。	けせんぬませんわとーえきをせんろめいしょーじょーのきてんとしているが、いちぶのれっしゃわいしのまきせんをとーしてこごたえきまでのりいれている。	NO_LABEL
単式ホーム1面1線と島式ホーム1面2線、計2面3線のホームを持つ地上駅。	NO_PRONOUNCE	NO_LABEL
互いのホームは跨線橋で連絡している。	たがいのほーむわこせんきょーでれんらくしている。	NO_LABEL
小牛田駅管理の業務委託駅で日中のみ駅員が配置されている。	こごたえきかんりのぎょーむいたくえきでにっちゅーのみえきいんがはいちされている。	NO_LABEL
自動券売機・POS端末が設置されている。	NO_PRONOUNCE	NO_LABEL
2015年には、気仙沼線BRTの当駅への延伸に伴い乗降場が駅前に設置されている。	にせんじゅうごねんにわ、けせんぬませんびーあーるてぃーのとーえきえのえんしんにともないじょーこーじょーがえきまえにせっちされている。	NO_LABEL
2015年の気仙沼線BRTの当駅への乗り入れにより、気仙沼線の統計データが石巻線を含む鉄道とBRTとに分離されることになった。	にせんじゅうごねんのけせんぬませんびーあーるてぃーのとーえきえののりいれにより、けせんぬませんのとーけいでーたがいしのまきせんをふくむてつどーとびーあーるてぃーとにぶんりされることになった。	NO_LABEL
