ヨアン・M・ルイスは、ロンドン大学人類学教授。	NO_PRONOUNCE	NO_LABEL
グラスゴー大学で化学を学んだのち、オクスフォード大学で人類学を学ぶ。	ぐらすごーだいがくでかがくをまなんだのち、おくすふぉーどだいがくでじんるいがくをまなぶ。	NO_LABEL
シャーマニズムにおいて憑依ポゼッションを重視し、ソマリアで遊牧民のフィールド調査を行ったことにより1969年博士号を取得した。	しゃーまにずむにおいてひょーいぽぜっしょんをじゅーしし、そまりあでゆーぼくみんのふぃーるどちょーさをおこなったことによりせんきゅうひゃくろくじゅうきゅうねんはくしごーをしゅとくした。	NO_LABEL
1969年からロンドン・スクール・オブ・エコノミクス人類学教授。	せんきゅうひゃくろくじゅうきゅうねんからろんどんすくーるおぶえこのみくすじんるいがくきょーじゅ。	NO_LABEL
の諮問委員も務める。	のしもんいいんもつとめる。	NO_LABEL
1969年から1974年にかけては王立人類学研究所の機関紙の編集主任を務める。	せんきゅうひゃくろくじゅうきゅうねんからせんきゅうひゃくななじゅうよねんにかけてわおーりつじんるいがくけんきゅーじょのきかんしのへんしゅーしゅにんをつとめる。	NO_LABEL
