日本聖教会はホーリネスの分裂の事件の結果、委員会側に分かれた団体。	にほんせいきょーかいわほーりねすのぶんれつのじけんのけっか、いーんかいがわにわかれただんたい。	NO_LABEL
1936年に成立して、1941年の日本基督教団の成立の際に、第6部になり、日本聖教会の組織は消滅した。	せんきゅうひゃくさんじゅうろくねにせいりつして、せんきゅうひゃくよんじゅういちねのにほんきりすときょーだんのせいりつのさいに、だいろくぶになり、にほんせいきょーかいのそしきわしょーめつした。	NO_LABEL
1932年初頭から中田重治は日ユ同祖論に、独自の聖書解釈を加えた、再臨についての自説を公に説くようになった。	せんきゅうひゃくさんじゅうにねんしょとーからなかたしげはるわにちゆどーそろんに、どくじのせいしょかいしゃくをくわえた、さいりんについてのじせつをおーやけにとくよーになった。	NO_LABEL
10月22日聖書学院の新学期の直前に、中田重治は自分の方針に従って講義してほしいと、聖書学院の五教授に書簡を送った。	じゅーがつにじゅうににちせいしょがくいんのしんがっきのちょくぜんに、なかたしげはるわじぶんのほーしんにしたがってこーぎしてほしいと、せいしょがくいんのごきょーじゅにしょかんをおくった。	NO_LABEL
車田、米田、小原と川端京五郎、板垣賛造はことの是非を問うために臨時総会を招集した。	くるまだ、よねだ、おはらとかわばたきょうごろー、いたがきさんみやつこわことのぜひをとうためにりんじそーかいをしょーしゅーした。	NO_LABEL
中田は、一旦は召集に応じたがそれを取り消し、監督の承認を経ない総会は非合法であると見なして、10月19日付けで中田重治は五教授を解任し、それに対抗して10月23日中田は全国教役者会を非常招集した。	なかたわ、いったんわしょーしゅーにおーじたがそれをとりけし、かんとくのしょーにんをへないそーかいわひごーほーであるとみなして、じゅーがつじゅうきゅうにちずけでなかたしげはるわごきょーじゅをかいにんし、それにたいこーしてじゅーがつにじゅうさんにちなかたわぜんこくきょーえきしゃかいをひじょーしょーしゅーした。	NO_LABEL
10月25日に淀橋教会で臨時総会が開かれた。	じゅーがつにじゅうごにちによどばしきょーかいでりんじそーかいがひらかれた。	NO_LABEL
翌日、10月26日に中田重治の監督解職の案が出されて、全会一致で決定された。	よくじつ、じゅーがつにじゅうろくにちになかたしげはるのかんとくかいしょくのあんがだされて、ぜんかいいっちでけっていされた。	NO_LABEL
監督の代わりに、委員会制度が設けられ、五人に委員として、車田秋次、米田豊、菅野鋭、小原十三司、一宮政吉が選ばれ、この五人によってホーリネス教会が運営されることになった。	かんとくのかわりに、いーんかいせいどがもーけられ、ごにんにいいんとして、くるまだあきじ、よねだゆたか、かんのするど、おばらとさじ、いちのみやせいきちがえらばれ、このごにんによってほーりねすきょーかいがうんえいされることになった。	NO_LABEL
しかし、中田を支持する者も、半数近くあり、ホーリネス教会は二つに分離することになった。	しかし、なかたをしじするものも、はんすーちかくあり、ほーりねすきょーかいわふたつにぶんりすることになった。	NO_LABEL
神田教会の所属をめぐる対立は新聞沙汰になった。	かんだきょーかいのしょぞくをめぐるたいりつわしんぶんさたになった。	NO_LABEL
後に、中田重治は臨時総会を無効とする民事訴訟を起こした。	ごに、なかたしげはるわりんじそーかいをむこーとするみんじそしょーをおこした。	NO_LABEL
1934年3月5日に東京地方裁判所において、赤木判事を中心として、和解談が始まった。	せんきゅうひゃくさんじゅうよねんさんがついつかにとーきょーちほーさいばんしょにおいて、あかぎはんじをちゅーしんとして、わかいだんがはじまった。	NO_LABEL
双方より三名の委員を選び、和解案を出すことになった。	そーほーよりさんめいのいいんをえらび、わかいあんをだすことになった。	NO_LABEL
1935年11月28日正午、鉄道ホテルで和協午餐会を開き、ホーリネス教団の和協分離が決定された。	せんきゅうひゃくさんじゅうごねんじゅーいちがつにじゅうはちにちしょーご、てつどーほてるでわきょーごさんかいをひらき、ほーりねすきょーだんのわきょーぶんりがけっていされた。	NO_LABEL
1936年10月に和協覚書を取り交わし和協分離が成立した。	せんきゅうひゃくさんじゅうろくねじゅーがつにわきょーおぼえがきをとりかわしわきょーぶんりがせいりつした。	NO_LABEL
委員会側は日本聖教団を名乗る事になり、車田秋次が指導者になった。	いーんかいがわわにっぽんせいきょーだんをなのることになり、くるまだあきじがしどーしゃになった。	NO_LABEL
中田側は中田を終身監督とするきよめ教会となった。	なかたがわわなかたをしゅーしんかんとくとするきよめきょーかいとなった。	NO_LABEL
1939年に政府の連絡と奉仕の必要のために、基督教連盟に加入した。	せんきゅうひゃくさんじゅうきゅうねんにせいふのれんらくとほーしのひつよーのために、きりすときょーれんめいにかにゅーした。	NO_LABEL
しかし、信仰上の相違のために福音主義の教派の連合組織として、1939年9月に東亜聖化同盟を結成した。	しかし、しんこーじょーのそーいのためにふくいんしゅぎのきょーはのれんごーそしきとして、せんきゅうひゃくさんじゅうきゅうねんくがつにとーあひじりかどーめいをけっせいした。	NO_LABEL
そして、純福音派の合同の可能性を探ったが、教派合同の中で提携を目指すことになった。	そして、じゅんふくいんはのごーどーのかのーせいをさぐったが、きょーはごーどーのなかでていけいをめざすことになった。	NO_LABEL
1940年の「皇紀二千六百年奉祝全国基督教信徒大会」の当日に、臨時総会を開いて合同参加を決定した。	NO_PRONOUNCE	NO_LABEL
日本基督教団が成立する直前の1941年3月23日に函館聖教会の牧師補小山宗祐が獄中死したが、1941年6月24日日本基督教団成立の際には、第6部として加入した。	にほんきりすときょーだんがせいりつするちょくぜんのせんきゅうひゃくよんじゅういちねさんがつにじゅうさんにちにはこだてせいきょーかいのぼくしほこやまそーすけがごくちゅーししたが、せんきゅうひゃくよんじゅういちねろくがつにじゅうよっかにほんきりすときょーだんせいりつのさいにわ、だいろくぶとしてかにゅーした。	NO_LABEL
第6部の代表は車田秋次で、常議員は車田と小原十三司と米田豊だった。	だいろくぶのだいひょーわくるまだあきじで、つねぎいんわくるまだとおばらとさじとよねだゆたかだった。	NO_LABEL
小原は教団国外伝道局長に選らばれた。	おはらわきょーだんこくがいでんどーきょくちょーによらばれた。	NO_LABEL
1942年第一次一斉検挙の時と翌1943年4月の第二次検挙あわせて、全部で134名、第6部からは60名が検挙された。	NO_PRONOUNCE	NO_LABEL
134人の内75名が起訴された。	NO_PRONOUNCE	NO_LABEL
最終的に７名が獄死した。	さいしゅーてきにななめいがごくしした。	NO_LABEL
そのうちの一人菅野鋭は1943年12月に肺結核で獄中死する。	そのうちのかずとかんのするどわせんきゅうひゃくよんじゅうさんねじゅーにがつにはいけっかくでごくちゅーしする。	NO_LABEL
車田秋次と米田豊は実刑判決を受ける。	くるまだあきじとよねだゆたかわじっけいはんけつをうける。	NO_LABEL
1943年4月に文部省から第6部と第9部の教会設立認可の取り消し処分と、教師たちの辞職の命令の通達がなされ、日本基督教団はそれを獄中にある教師たちに通達して実行される。	せんきゅうひゃくよんじゅうさんねしがつにもんぶしょーからだいろくぶとだいきゅうぶのきょーかいせつりつにんかのとりけししょぶんと、きょーしたちのじしょくのめいれいのつーたつがなされ、にほんきりすときょーだんわそれをごくちゅーにあるきょーしたちにつーたつしてじっこーされる。	NO_LABEL
教会の解散命令によってホーリネス系の信徒たちは散らされた。	きょーかいのかいさんめいれいによってほーりねすけいのしんとたちわちらされた。	NO_LABEL
空襲で淀橋教会は焼失した。	くーしゅーでよどばしきょーかいわしょーしつした。	NO_LABEL
戦後、1949年6月に、東洋宣教会からの申し出を受けて、旧日本聖教団の中で教団内にとどまっていたのでは信仰を保てないと判断した人々が、車田秋次を中心として日本ホーリネス教団を設立した。	せんご、せんきゅうひゃくよんじゅうきゅうねんろくがつに、とーよーせんきょーかいからのもーしでをうけて、きゅーにっぽんせいきょーだんのなかできょーだんないにとどまっていたのでわしんこーをたもてないとはんだんしたひとびとが、くるまだあきじをちゅーしんとしてにほんほーりねすきょーだんをせつりつした。	NO_LABEL
翌年、米田豊も加わった。	よくねん、よねだゆたかもくわわった。	NO_LABEL
しかし、日本基督教団内にとどまってホーリネスの信仰を保つ事を目指した人々は、小原十三司、一宮政吉、小出忍らがホーリネスの群を結成して教団に残った。	しかし、にほんきりすときょーだんないにとどまってほーりねすのしんこーをたもつことをめざしたひとびとわ、おばらとさじ、いちのみやせいきち、こいでしのぶらがほーりねすのぐんをけっせいしてきょーだんにのこった。	NO_LABEL
1984年に、日本基督教団は戦時中の処置の誤りを認めて、関係者とその家族を教団総会に招いて正式に謝罪した。	せんきゅうひゃくはちじゅうよねんに、にほんきりすときょーだんわせんじちゅーのしょちのあやまりをみとめて、かんけいしゃとそのかぞくをきょーだんそーかいにまねいてせいしきにしゃざいした。	NO_LABEL
