藤原 貞庭は、平安時代前期の貴族。	ふじわらさだにわわ、へいあんじだいぜんきのきぞく。	NO_LABEL
藤原式家、中納言・藤原縄主の子。	NO_PRONOUNCE	NO_LABEL
官位は従五位下。	かんいわじゅうごいのげ。	NO_LABEL
仁明朝において、春宮坊少進を務めて皇太子・恒貞親王に仕える。	NO_PRONOUNCE	NO_LABEL
しかし、承和9年承和の変が発生して恒貞親王が春宮を廃されると、春宮坊の官人らは連座して罰せられ、貞庭は佐渡権掾へ左遷された。	しかし、うけたまわわきゅうねんじょうわのへんがはっせいしてつねさだしんのーがとーぐーをはいされると、とーぐーぼーのかんにんらわれんざしてばっせられ、さだにわわさどけんじょーえさせんされた。	NO_LABEL
その後罪を赦されたらしく、清和朝に入ると貞観元年従五位下・上総介に叙任される。	NO_PRONOUNCE	NO_LABEL
翌貞観2年正月に大蔵少輔として京官に遷るが、11月には大宰少弐に転じると、貞観5年筑前守と、九州の地方官を務めた。	よくじょうかんにねんしょーがつにおーくらしょーほとしてきょーかんにせんるが、じゅーいちがつにわおおみこともちのすないすけにてんじると、じょうかんごねんちくぜんもりと、きゅーしゅーのちほーかんをつとめた。	NO_LABEL
『六国史』による。	NO_PRONOUNCE	NO_LABEL
『尊卑分脈』による。	NO_PRONOUNCE	NO_LABEL
