『やじうまプラス』は、テレビ朝日系列で2002年7月1日から2010年10月1日まで放送されていた朝の情報番組である。	NO_PRONOUNCE	NO_LABEL
通称「やじプラ」。	NO_PRONOUNCE	NO_LABEL
ハイビジョン制作。	はいびじょんせいさく。	NO_LABEL
また、テレビ朝日のみ2008年5月5日からデータ放送に対応開始した。	また、てれびあさひのみにせんはちねんごがついつかからでーたほうそーにたいおーかいしした。	NO_LABEL
土曜版は2002年7月6日から2009年9月26日まで放送され、半年間のブランクを得て、2010年4月3日から同年10月2日まで『やじうまサタデー』のタイトルで放送されていた。	NO_PRONOUNCE	NO_LABEL
長年に渡って放送された『やじうまワイド』の後継番組であり、その日の朝刊など各種新聞の紙面を紹介しながらコメンテーターの論説を交えてニュースを伝える。	NO_PRONOUNCE	NO_LABEL
複数の新聞紙面から様々な記事を紹介し、外部や自社を含めてコメンテーターを2-3名配置した。	NO_PRONOUNCE	NO_LABEL
2006年には番組拡大及びリニューアルに伴い『朝いち!!やじうま』を吸収した。	NO_PRONOUNCE	NO_LABEL
新聞紹介を核としつつもVTRを多く使用したり、ファッション・グルメ等の生活情報を扱う等、新たな視聴者層の取り込みを図るために間断なくリニューアルを敢行したが、2010年10月2日放送分を以って終了。	NO_PRONOUNCE	NO_LABEL
一部メディアでは『ヤジウマ新聞』以来25年の歴史に幕を閉じると報道されていた。	NO_PRONOUNCE	NO_LABEL
その後テレビ朝日より、10月4日から新番組『やじうまテレビ!』を放送すると発表され、『やじうま』シリーズは継続されることになった。	NO_PRONOUNCE	NO_LABEL
『やじうま』のタイトルを外せなかったのはサンリオとの契約の上で制作された本シリーズのオリジナルキャラクターがあることの兼ね合いであるとされる。	NO_PRONOUNCE	NO_LABEL
後枠『スーパーモーニング』と共に、情報番組としては異例の番宣CMを他時間帯で放送していた。	NO_PRONOUNCE	NO_LABEL
※稀に地方紙や業界紙、外国紙を紹介することもあった。	NO_PRONOUNCE	NO_LABEL
※なお、紹介する紙面は東京版なので西日本など一部地域では紙面構成だけでなく記事自体全く異なる。	NO_PRONOUNCE	NO_LABEL
※2007年4月以降、平日のMCは後半を、前半はニュースルーム進行のアナウンサーがMCを担当。	NO_PRONOUNCE	NO_LABEL
2003年9月までは『ANNニュースフレッシュ』として放送。	NO_PRONOUNCE	NO_LABEL
※2003年10月 - 2006年3月までは『朝いち!!やじうま』に内包	NO_PRONOUNCE	NO_LABEL
※2006年4月からは『やじうまプラス』から分離	NO_PRONOUNCE	NO_LABEL
2006年4月 - 2007年3月は天気予報を卒業した伊藤里絵も参加。	NO_PRONOUNCE	NO_LABEL
2009年10月から前半の曜日MCが兼務。	にせんきゅうねんじゅーがつからぜんはんのよーびえむしーがけんむ。	NO_LABEL
2003年7月 - 2006年3月の土曜日は『ANNニュース』の天気予報を兼務していた。	NO_PRONOUNCE	NO_LABEL
2007年10月 - 2009年3月は、前半・後半に分かれる。	NO_PRONOUNCE	NO_LABEL
※レギュラー降板後も不定期で出演する場合あり。	NO_PRONOUNCE	NO_LABEL
土曜版の詳細は「やじうまサタデー」を参照。	NO_PRONOUNCE	NO_LABEL
「やじプラ630」「やじプラ700」などで、タイトルがつけられる「コーナー内コーナー」。	NO_PRONOUNCE	NO_LABEL
終了時点ではほとんど全国のANN系列局で放送されていたが、5:50 - 5:59の『ANNニュース』部分を除き、全てローカルセールス枠であるため、朝日放送だけは『ANNニュース』以外全く放送されなかったほか、各々の系列局の飛び乗りや飛び降りが多いのも特徴である。	NO_PRONOUNCE	NO_LABEL
※平日の放送はANN各局によって放送時間が大きく異なる場合がある。	NO_PRONOUNCE	NO_LABEL
