松前駅は、愛媛県伊予郡松前町にある伊予鉄道郡中線の駅。	まさきえきわ、えひめけんいよぐんまさきちょーにあるいよてつどーぐんちゅーせんのえき。	NO_LABEL
数少ない直営駅の１つで、余戸駅と共に郡中線の交通結節点に指定されている主要駅。	かずすくないちょくえいえきのひとつで、よーごえきとともにぐんちゅーせんのこーつーけっせつてんにしていされているしゅよーえき。	NO_LABEL
土曜日を除く平日の朝に2便、松山市発松前行きという当駅止まりのダイヤが存在する。	NO_PRONOUNCE	NO_LABEL
この便は臨時列車扱いであるが実際には定期便として利用されている。	このびんわりんじれっしゃあつかいであるがじっさいにわていきびんとしてりよーされている。	NO_LABEL
緊急時の区間運転では折り返し駅となる。	きんきゅーじのくかんうんてんでわおりかえしえきとなる。	NO_LABEL
南予鉄道の開業時から存在する、非常に長い歴史を持つ駅である。	なんよてつどーのかいぎょーじからそんざいする、ひじょーにながいれきしをもつえきである。	NO_LABEL
松前は漁村で、かつては「おたたさん」と呼ばれる行商の女性が当駅から魚介類を天秤棒に担いで乗車し、城下へ売りに行った。	NO_PRONOUNCE	NO_LABEL
対向式2面3線のホームを持つ有人駅である。	NO_PRONOUNCE	NO_LABEL
うち1線は、貨物列車が運転されていたころに側線として使われていた。	NO_PRONOUNCE	NO_LABEL
なお、当駅のポイント線路は電動式である。	なお、とーえきのぽいんとせんろわでんどーしきである。	NO_LABEL
郡中線は緊急時に、当駅か余戸駅での折り返し運転を実施する。	ぐんちゅーせんわきんきゅーじに、とーえきかよーごえきでのおりかえしうんてんをじっしする。	NO_LABEL
現在の駅舎は南予鉄道開業時の明治29年築の可能性があるが、記録が残っていないため証明はできないという。	げんざいのえきしゃわなんよてつどーかいぎょーじのめいじにじゅうくねんちくのかのーせいがあるが、きろくがのこっていないためしょーめいわできないという。	NO_LABEL
郡中線各駅の利用客が増加傾向にある一方で、当駅の乗降人員は緩やかに減少していた。	ぐんちゅーせんかくえきのりよーきゃくがぞーかけいこーにあるいっぽーで、とーえきのじょーこーじんいんわゆるやかにげんしょーしていた。	NO_LABEL
その後、2014には増加に転じた。	NO_PRONOUNCE	NO_LABEL
