アウグスト・ヴィルヘルミはドイツのヴァイオリニスト。	NO_PRONOUNCE	NO_LABEL
アウグスト・ウィルヘルミ、オーギュスト・ヴィルヘルミとも表記される。	NO_PRONOUNCE	NO_LABEL
J.S.バッハ作曲の管弦楽組曲第3番ニ長調 BWV1068の第2楽章「アリア」をヴァイオリンとピアノのために編曲したことで有名。	NO_PRONOUNCE	NO_LABEL
弟子の中にアメリカのヴァイオリニスト、ナハン・フランコがいる。	NO_PRONOUNCE	NO_LABEL
