海上保安学校は、京都府舞鶴市に本校がある海上保安庁の文教研修施設。	かいじょーほあんがっこーわ、きょーとふまいずるしにほんこーがあるかいじょーほあんちょーのぶんきょーけんしゅーしせつ。	NO_LABEL
同庁の職員の養成を目的とする。	どーちょーのしょくいんのよーせいをもくてきとする。	NO_LABEL
略称は海保校、または保校。	りゃくしょーわかいほこー、またわほこー。	NO_LABEL
設置根拠は国土交通省組織令第二百五十四条。	せっちこんきょわこくどこーつーしょーそしきれいだいにひゃくごじゅーよんじょー。	NO_LABEL
入学資格は高校卒業もしくは卒業見込。	にゅーがくしかくわこーこーそつぎょーもしくわそつぎょーみこみ。	NO_LABEL
全寮制であり、コースにより1年から2年の寮生活となる。	ぜんりょーせいであり、こーすによりいちねんからにねんのりょーせいかつとなる。	NO_LABEL
本施設の目的は、国土交通省組織令で次のように規定されている。	ほんしせつのもくてきわ、こくどこーつーしょーそしきれいでつぎのよーにきていされている。	NO_LABEL
学生は入校と同時に一般職の国家公務員として海上保安庁の職員に採用されるため、学費などは必要なく給与が支給される1級5号俸で俸給月額138,400円）。	NO_PRONOUNCE	NO_LABEL
このように給与の支給される国土交通省所管の学校は、海上保安大学校、気象大学校、航空保安大学校などがある。	このよーにきゅーよのしきゅーされるこくどこうつうしょーしょかんのがっこーわ、かいじょーほあんだいがっこー、きしょーだいがっこー、こーくーほあんだいがっこーなどがある。	NO_LABEL
防衛省所管の特別職の学校では防衛大学校、防衛医科大学校、陸上自衛隊生徒などがある。	ぼーえいしょーしょかんのとくべつしょくのがっこーでわぼーえいだいがくこー、ぼーえいーかだいがっこー、りくじょーじえいたいせいとなどがある。	NO_LABEL
学生は卒業して海上保安官として任用されるまでは法執行を行う職務権限の階級はないが、海上保安庁の職員服制では学生を職員として含めており、海上保安官と同様に肩章、胸章、袖章があり、海上保安大学校生は金モール、金ボタン、海上保安学校生は銀モール、銀ボタンなどの規定がある。	がくせいわそつぎょーしてかいじょーほあんかんとしてにんよーされるまでわほーしっこーをおこなうしょくむけんげんのかいきゅーわないが、かいじょーほあんちょーのしょくいんふくせいでわがくせいをしょくいんとしてふくめており、かいじょーほあんかんとどーよーにけんしょー、きょうしょー、そでしょーがあり、かいじょーほあんだいがっこーせいわきんもーる、きむぼたん、かいじょーほあんがっこーせいわぎんもーる、ぎんぼたんなどのきていがある。	NO_LABEL
校務の一部を分掌させるため、下記分校が設置されている。	こーむのいちぶをぶんしょーさせるため、かきぶんこーがせっちされている。	NO_LABEL
