風味堂4は風味堂のメジャー4枚目のアルバムである。	ふーみどーふぉーわふーみどーのめじゃーよんまいめのあるばむである。	NO_LABEL
2009年3月18日発売。	にせんきゅうねんさんがつじゅうはちにちはつばい。	NO_LABEL
前作「風味堂3」から約1年半ぶりとなるオリジナルアルバム。	NO_PRONOUNCE	NO_LABEL
前作同様にアルバム名は「グループ名＋アルバム枚数」という形は受け継いでいるものの、ジャケットについては前回までの流れとは違っている。	NO_PRONOUNCE	NO_LABEL
この作品はほぼ全曲がメンバーセルフプロデュースによるもの。	このさくひんわほぼぜんきょくがめんばーせるふぷろでゅーすによるもの。	NO_LABEL
