金子 デメリンは、日本の漫画家、イラストレーターである。	かねこでめりんわ、にほんのまんがか、いらすとれーたーである。	NO_LABEL
東京都豊島区巣鴨出身。	とーきょーととしまくすがもしゅっしん。	NO_LABEL
オタク文化に対する造詣の深さから、漫画家やミュージシャンなどのインタビュアー役を務めることも多い。	おたくぶんかにたいするぞーけいのふかさから、まんがかやみゅーじしゃんなどのいんたびゅあーやくをつとめることもおーい。	NO_LABEL
父親がデザイナーであった関係で、家にはさまざまな画材があり、幼い頃から絵を描くことに熱中していたという。	ちちおやがでざいなーであったかんけいで、いえにわさまざまながざいがあり、おさないころからえをえがくことにねっちゅーしていたという。	NO_LABEL
5歳頃より絵本をつくりはじめ、6歳頃から絵画教室で学びはじめる。	ごさいごろよりえほんをつくりはじめ、ろっさいごろからかいがきょーしつでまなびはじめる。	NO_LABEL
小中学校時代を通じて絵を描きまくっており、学校の行事ごとにイラストレーターとして活躍した。	しょーちゅーがっこーじだいをつーじてえをえがきまくっており、がっこーのぎょーじごとにいらすとれーたーとしてかつやくした。	NO_LABEL
小学校4年頃、日本の性教育の第一人者である北沢杏子の本を読み、性とそれを取り巻く文化に強い関心を持つようになる。	しょーがっこーよんねんごろ、にっぽんのせいきょーいくのだいいちにんしゃであるきたざわきょーこのほんをよみ、せいとそれをとりまくぶんかにつよいかんしんをもつよーになる。	NO_LABEL
同じ頃、父親から薦められた岩谷テンホーの漫画を読み漁り、シモネタギャグ漫画に目覚める。	おなじころ、ちちおやからすすめられたいわたにてんほーのまんがをよみあさり、しもねたぎゃぐまんがにめざめる。	NO_LABEL
その一方で、小学生時代は日野日出志などのホラー漫画も熱心に読んでいたという。	そのいっぽーで、しょーがくせいじだいわひのひでしなどのほらーまんがもねっしんによんでいたという。	NO_LABEL
小学校の卒業アルバムに書いた「尊敬する人物」はウォルト・ディズニーだった。	NO_PRONOUNCE	NO_LABEL
中学校時代には、金子の描いた岩谷テンホー風のエロ４コマ漫画はクラス内で回覧されていたため、学級新聞の中で行われた「エロ人間」コンテストでは、金子が女子部門第1位を獲得したという。	NO_PRONOUNCE	NO_LABEL
同じ頃、ギター教室へ通い、つボイノリオ楽曲の弾き語りを練習する一方、美術部にも所属し油絵を描いていた。	おなじころ、ぎたーきょーしつえがよい、つぼいのりおがっきょくのひきがたりをれんしゅーするいっぽー、びじゅつぶにもしょぞくしあぶらえをえがいていた。	NO_LABEL
なお、中学1年のときには、第2回パセオTシャツデザインコンテストに入選し、イラストが商品化されている。	なお、ちゅーがくいちねんのときにわ、だいにかいぱせおてぃーしゃつでざいんこんてすとににゅーせんし、いらすとがしょーひんかされている。	NO_LABEL
2000年頃から、コミック･マーケットなどの同人誌即売会で作品を発表しはじめる。	NO_PRONOUNCE	NO_LABEL
初期には、日本アニメーションの『世界名作劇場』シリーズに関する研究本を発行していた。	NO_PRONOUNCE	NO_LABEL
2003年頃から、楳図かずお研究本を発行しはじめたが、これがきっかけとなり、2005年には、雑誌『フィギュア王』Vol.89より、4コマ漫画『楳図王国こぼれ話』の連載が始まる。	NO_PRONOUNCE	NO_LABEL
これらの活動は、後にまとめられ、ブルース・インターアクションズより発行されている『ウメゾロジー』で読むことができる。	NO_PRONOUNCE	NO_LABEL
楳図かずおの自伝を漫画化した『ウメズモ‐楳図かずお物語‐』が、2008年に小学館クリエイティブから刊行予定されていたが、いまだに発売されていない。	NO_PRONOUNCE	NO_LABEL
2009年8月より、『サルでも描けるまんが教室』を原作にした『イヤーン・エッチの助』が、『コミック・マヴォ』に連載。	NO_PRONOUNCE	NO_LABEL
2012年1月からは、ウェブ漫画雑誌の『電脳マヴォ』に連載されている。	NO_PRONOUNCE	NO_LABEL
