大森 真理子は、日本の女性J-POP歌手・フルート奏者。	NO_PRONOUNCE	NO_LABEL
岡山県岡山市生まれ。	おかやまけんおかやましうまれ。	NO_LABEL
B型。	びーがた。	NO_LABEL
うさぎボーカリストで、飼っているうさぎの名前をゴン太という。	うさぎぼーかりすとで、かっているうさぎのなまえをごんふとしという。	NO_LABEL
自称17才であり、ダジャレをこよなく愛するダジャレンジャーである。	じしょーじゅうななさいであり、だじゃれをこよなくあいするだじゃれんじゃーである。	NO_LABEL
9歳の時にフルートを始めたことで、音楽を始める。	きゅうさいのときにふるーとをはじめたことで、おんがくをはじめる。	NO_LABEL
次第に大学で声楽を勉強していた姉の影響を受け、歌に興味を持つ。	しだいにだいがくでせいがくをべんきょーしていたあねのえいきょーをうけ、うたにきょーみをもつ。	NO_LABEL
高校卒業後、歌を学ぶため上京。	こーこーそつぎょーご、うたをまなぶためじょーきょー。	NO_LABEL
専門学校1年間と短大2年間でポピュラーヴォーカルを学ぶ。	NO_PRONOUNCE	NO_LABEL
在学中はユニットを組みオリジナル曲でライブ活動をしながら、都内のバーなどでは定期的にカヴァー曲を歌い始める	NO_PRONOUNCE	NO_LABEL
2006年よりソロ活動開始。	にせんろくねんよりそろかつどーかいし。	NO_LABEL
2008年にはTVアニメ『お茶犬〜緑っとものがたり〜』EDテーマ「明日天気になぁれ」を歌う。	NO_PRONOUNCE	NO_LABEL
フルート奏者としてもアニメ『ヘタリアAxis Powers』主題歌「まるかいて地球」に参加する等、多くの作品に参加している。	NO_PRONOUNCE	NO_LABEL
2010年 アルバム『SWITCH』全国発売。	NO_PRONOUNCE	NO_LABEL
2013年2ndアルバム『I am a dreamer』全国発売	NO_PRONOUNCE	NO_LABEL
2014年3rdアルバム『sympathy』全国発売。	NO_PRONOUNCE	NO_LABEL
また、近年では多くのカヴァー作品にも参加。	NO_PRONOUNCE	NO_LABEL
MARY名義で参加のカバーアルバム『Sweet Days-Acoustic Melody-』は日本だけでなく、アジア4カ国で発売されている。	NO_PRONOUNCE	NO_LABEL
