株式会社シフレは、埼玉県越谷市に本社を置く、主にスーツケース・鞄の製造販売を行う会社。	NO_PRONOUNCE	NO_LABEL
2001年に大島直幸が埼玉県越谷市で有限会社シフレを設立。	にせんいちねんにおーしまなおゆきがさいたまけんこしがやしでゆーげんがいしゃしふれをせつりつ。	NO_LABEL
その後、2004年に株式会社に組織変更している。	そのご、にせんよねんにかぶしきがいしゃにそしきへんこーしている。	NO_LABEL
<br>	NO_PRONOUNCE	NO_LABEL
主にスーツケース・トランク・旅行用品・ビジネスバッグなどの製造販売を行っているほか、OEM生産も行っている。	NO_PRONOUNCE	NO_LABEL
<br>	NO_PRONOUNCE	NO_LABEL
2004年に放映されたオロナミンCのCM内で、上戸彩がペ・ヨンジュンに会いに行く際に使用され、一躍大ヒットしたユーラシアトランクのメーカーとして有名。	にせんよねんにほーえいされたおろなみんしーのこんぴゅーたみゅーじっくまがじんないで、うえとあやがぺよんじゅんにかいーにいくさいにしよーされ、いちやくだいひっとしたゆーらしあとらんくのめーかーとしてゆーめい。	NO_LABEL
<br>	NO_PRONOUNCE	NO_LABEL
ライセンス商品の製造販売も多く手がけており、スター・ウォーズやミッフィー、ハローキティ、スヌーピー、PANTONE、カピバラさん、リラックマ、BATMAN、トム&ジェリーなど多くのキャラクター・ライセンスと自社ブランド｢HAPI+TAS｣のコラボレーションを展開している。	NO_PRONOUNCE	NO_LABEL
<br>	NO_PRONOUNCE	NO_LABEL
千葉ロッテマリーンズのオフィシャルサプライヤーである。	ちばろってまりーんずのおふぃしゃるさぷらいやーである。	NO_LABEL
