ヘルパ()はドイツの模型メーカー。	へるぱかっこわどいつのもけいめーかー。	NO_LABEL
精巧な自動車模型と飛行機模型を供給する。	せいこーなじどーしゃもけいとひこーきもけいをきょーきゅーする。	NO_LABEL
飛行機模型のヘルパウイングは1/500スケールで製造されているが1/400、1/200、1/1000スケールもある。	NO_PRONOUNCE	NO_LABEL
ヘルパの自動車とトラックの製品は1/87スケールで製造されるが1/220と1/160スケールもある。	NO_PRONOUNCE	NO_LABEL
近年では模型だけではなく、旧東ドイツの大衆車トラバントの現代版を作る計画を発表している。	きんねんでわもけいだけでわなく、きゅうひがしどいつのたいしゅーしゃとらばんとのげんだいばんをつくるけいかくをはっぴょーしている。	NO_LABEL
