『LIVE DVD "one and zero"@Tokyo International Forum Hall A 2013.03.30』は、日本のバンドandrop2作目のライブ映像作品。	NO_PRONOUNCE	NO_LABEL
2013年8月21日発売。	にせんじゅうさんねんはちがつにじゅういちにちはつばい。	NO_LABEL
発売元はワーナーミュージック・ジャパン。	NO_PRONOUNCE	NO_LABEL
