スサビノリは、ウシケノリ科アマノリ属に分類される紅藻類の海藻で、海苔の1種。	すさびのりわ、うしけのりかあまのりぞくにぶんるいされるべにそーるいのかいそーで、のりのいちしゅ。	NO_LABEL
 海苔養殖の対象として最もよく用いられる。	のりよーしょくのたいしょーとしてもっともよくもちいられる。	NO_LABEL
葉状体は、海水〜汽水域の潮間帯から潮下帯の岩床に多く見られる。	NO_PRONOUNCE	NO_LABEL
葉状体は赤紫色をしており細胞一層からなる膜質。	よーじょーたいわあかむらさきいろをしておりさいぼーいっそーからなるまくしつ。	NO_LABEL
形は生育地により倒卵形、楕円形、倒披針形と変異に富む。	NO_PRONOUNCE	NO_LABEL
雌雄同株。	しゆーどーかぶ。	NO_LABEL
生活環は、1949年にイギリスのドリューらにより、通年で有性生殖と無性生殖を繰り返すことが発見された。	せいかつかんわ、せんきゅうひゃくよんじゅうきゅうねんにいぎりすのどりゅーらにより、つーねんでゆーせいせいしょくとむせいせいしょくをくりかえすことがはっけんされた。	NO_LABEL
春から秋にかけては無性生殖である糸状体期、秋から春にかけては有性生殖である葉状体期となる。	はるからあきにかけてわむせいせいしょくであるしじょうたいき、あきからはるにかけてわゆーせいせいしょくであるよーじょーたいきとなる。	NO_LABEL
日本から朝鮮半島にかけての東アジア。	にっぽんからちょーせんはんとーにかけてのひがしあじあ。	NO_LABEL
福島県以北の太平洋岸に自生。	ふくしまけんいほくのたいへいよーがんにじせい。	NO_LABEL
また、海苔原料として日本各地で養殖されている。	また、のりげんりょーとしてにっぽんかくちでよーしょくされている。	NO_LABEL
