唐津市立田頭小学校は東松浦郡相知町にあった小学校。	からつしりつたがしらしょうがっこーわひがしまつーらぐんおーちちょーにあったしょーがっこー。	NO_LABEL
2010年をもって閉校したが、現在も秋の運動会は毎年行われている。	にせんじゅうねんをもってへいこーしたが、げんざいもあきのうんどーかいわまいとしおこなわれている。	NO_LABEL
また、地域のバレーのチームなどの練習などにも活用されている。	また、ちいきのばれーのちーむなどのれんしゅーなどにもかつよーされている。	NO_LABEL
「徳・智・体」の向上をめざす元気な子を育てるを学校教育目標にしている。	NO_PRONOUNCE	NO_LABEL
唐津市立田頭小学校	からつしりつたがしらしょうがっこー	NO_LABEL
〒849-3214	NO_PRONOUNCE	NO_LABEL
佐賀県唐津市相知町田頭427番地2	NO_PRONOUNCE	NO_LABEL
JR岩屋駅より15分	じぇいあーるいわやえきよりじゅうごふん	NO_LABEL
