『史上最強の人間ドック ザ・快傑ドクター』は、TBS系の単発特別番組枠にて放送されていたバラエティ特番である。	NO_PRONOUNCE	NO_LABEL
人間ドックにより、芸能人の体を診断し、各分野のプロの医者が、その結果を元に深刻度の高い芸能人を挙げていく。	にんげんどっくにより、げいのーじんのからだをしんだんし、かくぶんやのぷろのいしゃが、そのけっかをもとにしんこくどのたかいげいのーじんをあげていく。	NO_LABEL
番組の最後には、全項目を総合的に算出した『芸能人寿命ランキング』が発表される。	NO_PRONOUNCE	NO_LABEL
