三重県道506号鈴鹿港線は、三重県鈴鹿市高岡町から長太町までを結ぶ一般県道。	みえけんどーごひゃくろくごーすずかこーせんわ、みえけんすずかしたかおかちょーからちょーたまちまでをむすぶいっぱんけんどー。	NO_LABEL
一ノ宮町交差点から一ノ宮町西交差点までの区間は、片側1車線の道路だが、その他区間は、対面通行の道路である。	NO_PRONOUNCE	NO_LABEL
※起点・終点において、「起点・鈴鹿港」「終点・国道23号交点」と表記する書物等が存在する。	NO_PRONOUNCE	NO_LABEL
一ノ宮町西交差点から一ノ宮町交差点内は、この書物等では、県道では無い。	いちのみやちょーにしこーさてんからいちのみやちょーこーさてんないわ、このしょもつとーでわ、けんどーでわない。	NO_LABEL
しかし、実際には、この区間内に県道標識が2箇所あり、市販されている地図は、上記の区間が該当区間と記されている。	NO_PRONOUNCE	NO_LABEL
