川崎電車は、香港の九広鉄路が保有する直流電車。	かわさきでんしゃわ、ほんこんのきゅーこうてつろがほゆーするちょくりゅーでんしゃ。	NO_LABEL
2007年12月2日から、香港鉄路に貸し出す形をとっている。	にせんななねんじゅーにがつふつかから、ほんこんてつろにかしだすかたちをとっている。	NO_LABEL
川崎重工業製のためこう呼ばれている。	かわさきじゅーこーぎょーせいのためこーよばれている。	NO_LABEL
天水囲支線の1993年9月開業にあわせて、九広鉄路が1992年に川崎重工業より30両購入し、軽軌路線で使用している。	NO_PRONOUNCE	NO_LABEL
全て電動車であるが、1071号～1090号が片運転台、1201号～1210号は運転台無しとなっている。	NO_PRONOUNCE	NO_LABEL
入線当時は橙色に塗装されていたが、1997年～2000年にかけて現在の塗装に変更されている。	NO_PRONOUNCE	NO_LABEL
行先表示機は前面の方向幕のみで、後部にはなかったのだが、2002年～2003年にかけてLED式に換装し、後部にも路線番号を表示するようになった。	NO_PRONOUNCE	NO_LABEL
この他2005年にはアコモデーションの改造が行われ、座席数を26に減じて、その空いたスペースに4組の半座位を設置し定員を254人に増やしている。	NO_PRONOUNCE	NO_LABEL
