価格操作とは経済学用語の一つ。	かかくそーさとわけいざいがくよーごのひとつ。	NO_LABEL
これは企業が競合他社と話し合ったり、談合を行うということで価格を操作するといった行為である。	これわきぎょーがきょーごーたしゃとはなしあったり、だんごーをおこなうということでかかくをそーさするといったこーいである。	NO_LABEL
これは違法行為であり行ったならば処罰を受けることとなる。	これわいほーこーいでありおこなったならばしょばつをうけることとなる。	NO_LABEL
2014年になってからは日本特殊陶業が自動車部品の価格操作を行っていたということを認め、このことで約53億円の罰金を支払うことになるといった問題が発生している。	にせんじゅうよねんになってからわにっぽんとくしゅとーぎょーがじどーしゃぶひんのかかくそーさをおこなっていたとゆうことをみとめ、このことでやくごじゅうさんおくえんのばっきんをしはらうことになるといったもんだいがはっせいしている。	NO_LABEL
