ミチェル・ジェームズ・ランゲラックは、オーストラリア・出身のプロサッカー選手。	NO_PRONOUNCE	NO_LABEL
J1リーグ・名古屋グランパス所属。	NO_PRONOUNCE	NO_LABEL
ポジションはゴールキーパー。	ぽじしょんわごーるきーぱー。	NO_LABEL
オーストラリア代表。	おーすとらりあだいひょー。	NO_LABEL
名古屋での登録名は「ランゲラック」。	NO_PRONOUNCE	NO_LABEL
2007年、Aリーグのメルボルン・ビクトリーFCとの間に初めてのプロ契約を結ぶ。	にせんななねん、えーりーぐのめるぼるんびくとりーえふしーとのまにはじめてのぷろけいやくをむすぶ。	NO_LABEL
入団後すぐ、出場時間と経験を得るため、そして余剰人員の放出のため、のサウス・メルボルンFCに期限付き移籍した。	NO_PRONOUNCE	NO_LABEL
期限付き移籍を終えると、ユージン・ガレコヴィッチがアデレード・ユナイテッドFCに移籍するまで、ランゲラクはメルボルン・ビクトリーの第3ゴールキーパーだった。	NO_PRONOUNCE	NO_LABEL
彼のメルボルン・ビクトリーでのデビューは2007-2008シーズンのシドニーFC戦で、2失点を許し試合はドローに終わった。	NO_PRONOUNCE	NO_LABEL
ガレコヴィッチがアデレード・ユナイテッドに移籍し、ランゲラクは第2ゴールキーパーとなった。	NO_PRONOUNCE	NO_LABEL
第1ゴールキーパーのが海外に移籍し、クラブはニュージーランド代表のグレン・モスをウェリントン・フェニックスFCから獲得した。	だいいちごーるきーぱーのがかいがいにいせきし、くらぶわにゅーじーらんどだいひょーのぐれんもすをうぇりんとんふぇにっくすえふしーからかくとくした。	NO_LABEL
モスが2009–10シーズンの第1ゴールキーパーとなり、ランゲラクはレギュラーの座を掴むことができなかった。	NO_PRONOUNCE	NO_LABEL
2010年4月13日、メルボルンはボルシア・ドルトムントによるランゲラク獲得オファーを断ったが、話し合いはまだ続いていると発表した。	にせんじゅうねんしがつじゅうさんにち、めるぼるんわぼるしあどるとむんとによるらんげらくかくとくおふぁーをことわったが、はなしあいわまだつずいているとはっぴょーした。	NO_LABEL
2010年5月4日、ドルトムントは再びオファーを出すものの、またしてもメルボルン側に拒否された。	にせんじゅうねんごがつよっか、どるとむんとわふたたびおふぁーをだすものの、またしてもめるぼるんがわにきょひされた。	NO_LABEL
2010年5月12日、メルボルンがドルトムントの三度目のオファーを受け入れ、ランゲラクはドルトムントと4年間の契約を結んだ。	にせんじゅうねんごがつじゅうににち、めるぼるんがどるとむんとのさんどめのおふぁーをうけいれ、らんげらくわどるとむんととよんねんかんのけいやくをむすんだ。	NO_LABEL
ドルトムント加入後、ブンデスリーガ2010-11シーズンにおいてランゲラクはクラブの第2ゴールキーパーとなり、リザーブチームではレギュラーになった。	NO_PRONOUNCE	NO_LABEL
ローマン・ヴァイデンフェラーの怪我での離脱に伴い、バイエルン・ミュンヘン戦でブンデスリーガ初出場を果たした。	NO_PRONOUNCE	NO_LABEL
試合は3-1で勝利し、ランゲラクは堅実なパフォーマンスを見せた。	NO_PRONOUNCE	NO_LABEL
ヴァイデンフェラーが復帰するまで、ランゲラクはファーストチームに初めて加わり、DFBポカール第2ラウンドの1.FCディナモ・ドレスデン戦に出場した。	NO_PRONOUNCE	NO_LABEL
ヴェストファーレンシュタディオンでは多数の発炎筒が焚かれ、影響が懸念されたが勝利し、8万人超の観客の前で初めて無失点を記録できた喜びを試合後にユルゲン・クロップ監督に見せた。	NO_PRONOUNCE	NO_LABEL
2012年5月12日、ドルトムントに移籍して丁度2年、DFBポカール決勝戦バイエルン・ミュンヘン戦にて、32分に交代出場した。	にせんじゅうにねんごがつじゅうににち、どるとむんとにいせきしてちょーどにねん、でぃえふびーぽかーるけっしょーせんばいえるんみゅんへんせんにて、さんじゅうにふんにこーたいしゅつじょーした。	NO_LABEL
これはヴァイデンフェラーの負傷によるもので、試合序盤のマリオ・ゴメスのチャレンジによるあばらの怪我が疑われた結果だった。	NO_PRONOUNCE	NO_LABEL
ドルトムントは5-2で勝利してカップを手にし、2つのリーグタイトルに加えて、ランゲラクにとっての3つ目のタイトルとなった。	NO_PRONOUNCE	NO_LABEL
2013-2014シーズンでは開幕戦のFCアウクスブルク戦に出場し、4-0のクリーンシートで勝利した。	NO_PRONOUNCE	NO_LABEL
これで、ランゲラクがブンデスリーガのリーグ戦で出場したここまで7試合全てでドルトムントが勝利したことになる。	これで、らんげらくがぶんですりーがのりーぐせんでしゅつじょーしたここまでななしあいすべてでどるとむんとがしょーりしたことになる。	NO_LABEL
2013年9月18日、ヴァイデンフェラーの退場によってチャンピオンズリーグSSCナポリ戦に出場し、これがチャンピオンズリーグデビューとなる。	NO_PRONOUNCE	NO_LABEL
この試合でランゲラクはロレンツォ・インシーニェのシュートを止めようとしてゴールポストに激突し、前歯2本を折ってしまう。	このしあいでらんげらくわろれんつぉいんしーにぇのしゅーとをとめようとしてごーるぽすとにげきとつし、まえばにほんをおってしまう。	NO_LABEL
2014年8月23日、2014-2015シーズン開幕戦のバイエル・レバークーゼン戦において、開始わずか9秒でのゴールを許してしまう。	NO_PRONOUNCE	NO_LABEL
これはブンデスリーガ史上最速得点記録で、ドルトムントは0-2で破れた。	NO_PRONOUNCE	NO_LABEL
2015年6月29日、VfBシュトゥットガルトへ2018年6月までの3年契約で完全移籍した。	にせんじゅうごねんろくがつにじゅうきゅうにち、ふぁおえふべーしゅとぅっとがるとえにせんじゅうはちねんろくがつまでのさんねんけいやくでかんぜんいせきした。	NO_LABEL
2015-16シーズンはバイエルン・ミュンヘンへ移籍したスヴェン・ウルライヒの後釜と期待されていたが開幕前に筋束を断裂し、同期に加入したプシェミスワフ・ティトンに正GKの座を奪われ、リーグ戦3試合の出場に留まりチームも2部へ降格した。	NO_PRONOUNCE	NO_LABEL
2016-17シーズンはライバルだったティトンが移籍したことに伴い正GKとなり、リーグ戦全試合フルタイム出場を果たして1シーズンでの1部復帰に貢献した。	NO_PRONOUNCE	NO_LABEL
2016-17シーズンにはこのシーズンに加入したロン＝ロベルト・ツィーラーに正GKの座を奪われたことで出場機会を求め、2017年8月30日にレバンテUDへ完全移籍した。	NO_PRONOUNCE	NO_LABEL
2018年シーズンよりJ1リーグの名古屋グランパスに移籍。	にせんじゅうはちねんしーずんよりじぇいわんりーぐのなごやぐらんぱすにいせき。	NO_LABEL
オーストラリア代表U-20に選出され、AFCユース選手権2006に参加した。	NO_PRONOUNCE	NO_LABEL
フル代表に招集されたのは2011年3月で、ドイツと戦う「17-man squad」と、ホルガー・オジェックに名付けられた一員となった。	NO_PRONOUNCE	NO_LABEL
ランゲラクがオーストラリア代表デビューをしたのは2013年10月12日のことで、フランスとの親善試合においてだった。	らんげらくがおーすとらりあだいひょーでびゅーをしたのわにせんじゅうさんねんじゅーがつじゅうににちのことで、ふらんすとのしんぜんじあいにおいてだった。	NO_LABEL
この試合では、フランク・リベリー、オリヴィエ・ジルー、ヨアン・キャバイェ、マテュー・ドゥビュシー、カリム・ベンゼマの得点を許し、6-0の大敗を喫した。	NO_PRONOUNCE	NO_LABEL
この試合はホルガー・オジェックのオーストラリア代表監督としての最後の試合となり、この試合の結果を受けてすぐに彼は解雇された。	このしあいわほるがーおじぇっくのおーすとらりあだいひょーかんとくとしてのさいごのしあいとなり、このしあいのけっかをうけてすぐにかれわかいこされた。	NO_LABEL
代表としての2度目の出場はカナダ戦で、ジョシュア・ケネディ、ダリオ・ヴィドシッチ、マシュー・レッキーの得点により、3-0で勝利した。	NO_PRONOUNCE	NO_LABEL
2014 FIFAワールドカップオーストラリア代表の23名のメンバーに選出された。	NO_PRONOUNCE	NO_LABEL
|-	NO_PRONOUNCE	NO_LABEL
 14||0||colspan="2"|-||colspan="2"|-||14||0	NO_PRONOUNCE	NO_LABEL
国際Aマッチ 6試合 0得点	こくさいえーまっちろくしあいぜろとくてん	NO_LABEL
!通算	NO_PRONOUNCE	NO_LABEL
