カッレ・ツーロスは、フィンランド、タンペレ出身のフィギュアスケート選手。	かっれつーろすわ、ふぃんらんど、たんぺれしゅっしんのふぃぎゅあすけーとせんしゅ。	NO_LABEL
1952年オスロオリンピック・1956年コルティナダンペッツォオリンピックフィンランド代表。	NO_PRONOUNCE	NO_LABEL
フィンランド選手権8連覇。	ふぃんらんどせんしゅけんはちれんぱ。	NO_LABEL
1920年アントワープオリンピックの三段跳で金メダルを獲得した陸上競技選手のビルホ・ツーロスの甥にあたる。	せんきゅうひゃくにじゅうねんあんとわーぷおりんぴっくのさんだんとびできんめだるをかくとくしたりくじょーきょーぎせんしゅのびるほつーろすのおいにあたる。	NO_LABEL
