十全大補湯とは、漢方薬の1種である。	じゅーぜんたいほとーとわ、かんぽーやくのいちしゅである。	NO_LABEL
出典は『和剤局方』。	NO_PRONOUNCE	NO_LABEL
補益剤の1つ。	ほえきざいのひとつ。	NO_LABEL
処方例	しょほーれい	NO_LABEL
病後の体力低下、疲労倦怠、食欲不振、寝汗、手足の冷え、貧血	びょーごのたいりょくていか、ひろーけんたい、しょくよくふしん、ねあせ、てあしのひえ、ひんけつ	NO_LABEL
次の事柄に留意する必要がある。	つぎのことがらにりゅーいするひつよーがある。	NO_LABEL
次の薬剤との併用により、偽アルドステロン症、ミオパシーが出現しやすくなる。	つぎのやくざいとのへいよーにより、にせあるどすてろんしょー、みおぱしーがしゅつげんしやすくなる。	NO_LABEL
次の患者には慎重に投与する。	つぎのかんじゃにわしんちょーにとーよする。	NO_LABEL
台湾では、この十全大補の材料を煮込み、こげ茶色のスープを作成。	たいわんでわ、このじゅーぜんだいほのざいりょーをにこみ、こげちゃしょくのすーぷをさくせい。	NO_LABEL
そのスープに鶏肉や、羊肉、排骨、なまずなどを入れた各メニューが存在する。	そのすーぷにけいにくや、ようにく、ぱいこー、なまずなどをいれたかくめにゅーがそんざいする。	NO_LABEL
台湾に行って、「薬膳スープ」というと、これらのものを指す場合が多い。	NO_PRONOUNCE	NO_LABEL
メニューには「十全○○」と書かれてあり、この○○の部分に、中に入っている具が鳥なのか羊なのかを指し示す漢字が書かれている。	NO_PRONOUNCE	NO_LABEL
薬用酒として販売されていたことのある薬寿の処方には、この十全大補湯と開心薯蕷腎気丸が参考にされたとされている	やくよーしゅとしてはんばいされていたことのあるやくじゅのしょほーにわ、このじゅーぜんたいほとーとひらきしんとろろじんきまるがさんこーにされたとされている	NO_LABEL
