京都ニュース845は、NHK京都放送局で放送される京都府向けのローカルニュース番組である。	きょーとにゅーすはちよんごわ、えぬえっちけーきょーとほーそーきょくでほーそーされるきょーとふむけのろーかるにゅーすばんぐみである。	NO_LABEL
これまで京都放送局では「関西845」の前半部分をNHK大阪放送局からネット受けし、後半部分から京都府向けのオリジナルで府内ニュースを放送したが、地上デジタル放送が開始されることなどから、より地域に密着したニュース番組を制作することを目指し、2005年3月28日の放送から関西845のネット受けを打ち切って、15分間すべてを京都府域ローカルニュースにすることとした。	NO_PRONOUNCE	NO_LABEL
時間的に「ニュース610 京いちにち → ニュース630 京いちにち」と近い事から、内容が重複する場合も多い。	NO_PRONOUNCE	NO_LABEL
