ここでは、日本プロ野球パシフィック・リーグ所属の東北楽天ゴールデンイーグルスの主催した地方球場の一覧を示す。	ここでわ、にほんぷろやきゅーぱしふぃっくりーぐしょぞくのとーほくらくてんごーるでんいーぐるすのしゅさいしたちほーきゅーじょーのいちらんをしめす。	NO_LABEL
宮城球場以外での一軍の主催試合を記す。	みやぎきゅうじょーいがいでのいちぐんのしゅさいしあいをしるす。	NO_LABEL
内は対戦相手。	うちわたいせんあいて。	NO_LABEL
人数はすべて主催者発表。	にんずーわすべてしゅさいしゃはっぴょー。	NO_LABEL
本拠地の宮城球場が12球団で最少の収容人員であることから、宮城球場以外の開催ではそれより多い観客数で行われることがある。	ほんきょちのみやぎきゅうじょーがじゅうにきゅーだんでさいしょーのしゅーよーじんいんであることから、みやぎきゅうじょーいがいのかいさいでわそれよりおーいかんきゃくすーでおこなわれることがある。	NO_LABEL
なお、宮城球場での最多動員は2009年10月17日、クライマックスシリーズ第1ステージ対ソフトバンク戦での21388人。	NO_PRONOUNCE	NO_LABEL
2010年4月に初めて東京ドームで行われた楽天主催試合となる対ロッテ戦では40421人、翌年の6月28日の東京ドームでの試合は前年を上回る41084人を集めた。	NO_PRONOUNCE	NO_LABEL
また、同年4月に行われた阪神甲子園球場での試合は26569人を集めている。	NO_PRONOUNCE	NO_LABEL
