平野 隆は、日本の経営学者。	ひらのたかしわ、にっぽんのけいえいがくしゃ。	NO_LABEL
専門は、経営史、産業史、消費社会論。	せんもんわ、けいえいし、さんぎょーし、しょーひしゃかいろん。	NO_LABEL
慶應義塾大学 商学部 教授。	けいおーぎじゅくだいがくしょーがくぶきょーじゅ。	NO_LABEL
1986年、慶應義塾大学 商学部 卒業。	せんきゅうひゃくはちじゅうろくねん、けいおーぎじゅくだいがくしょーがくぶそつぎょー。	NO_LABEL
1992年、慶應義塾大学大学院 商学研究科 後期博士課程 単位取得。	せんきゅうひゃくきゅうじゅうにねん、けいおーぎじゅくだいがくだいがくいんしょーがくけんきゅーかこーきはかせかていたんいしゅとく。	NO_LABEL
エクセター大学（University of Exeter、イギリス) 客員研究員などを経て、現在、慶應義塾大学 商学部 教授。	NO_PRONOUNCE	NO_LABEL
近・現代日本の経済および経営の発展過程と、それらを規定した諸要因の関係解明を研究している。	NO_PRONOUNCE	NO_LABEL
具体的には、経済団体の通商情報活動、産業調査の政策思想的文脈、小売業の発展と消費文化の変容との関係など。	ぐたいてきにわ、けいざいだんたいのつーしょーじょーほーかつどー、さんぎょーちょーさのせいさくしそーてきぶんみゃく、こーりぎょーのはってんとしょーひぶんかのへんよーとのかんけいなど。	NO_LABEL
