エティエンヌ・ジュール・アドルフ・デミエ・ド・サン＝シモン・ダルシアク子爵はフランスの地質学者、古生物学者である。	NO_PRONOUNCE	NO_LABEL
ランスで生まれた。	らんすでうまれた。	NO_LABEL
サン・シール陸軍士官学校で教育を受け、1830年までの9年間、騎兵将校と軍務についた。	さんしーるりくぐんしかんがっこーできょーいくをうけ、せんはっぴゃくさんじゅうねんまでのきゅうねんかん、きへいしょーこーとぐんむについた。	NO_LABEL
歴史小説を書いたが、地質学の研究に移った。	れきししょーせつをかいたが、ちしつがくのけんきゅーにうつった。	NO_LABEL
1835年から第三紀、白亜紀のフランス、ベルギー、イギリスの生成について、特に化石の分布や層序について記述した。	せんはっぴゃくさんじゅうごねんからだいさんき、はくあきのふらんす、べるぎー、いぎりすのせいせいについて、とくにかせきのぶんぷやそーじょについてきじゅつした。	NO_LABEL
さらにシルル紀、デボン紀、石炭紀の形成について研究した。	さらにしるるき、でぼんき、せきたんきのけいせいについてけんきゅーした。	NO_LABEL
主著に1847年から1860年をかけて発刊された8巻の『1984年から1859年の間の地質学の進歩』がある。	NO_PRONOUNCE	NO_LABEL
その他に、"Paleontologie stratigraphique"; "Geologie et paleontologie"; "de Tchihatcheff's Asie mineure"などの著書がある。	NO_PRONOUNCE	NO_LABEL
1853年にロンドン地質学会からウォラストン・メダルを受賞した。	せんはっぴゃくごじゅうさんねんにろんどんちしつがっかいからうぉらすとんめだるをじゅしょーした。	NO_LABEL
1857年にフランス科学アカデミーの会員に選ばれ、1861年にパリ自然史博物館の古生物学の教授に任命された。	せんはっぴゃくごじゅうななねんにふらんすかがくあかでみーのかいいんにえらばれ、せんはっぴゃくろくじゅういちねんにぱりしぜんしはくぶつかんのこせいぶつがくのきょーじゅににんめいされた。	NO_LABEL
晩年はうつ病になり、セーヌ川に投身自殺した。	ばんねんわうつびょーになり、せーぬがわにとーしんじさつした。	NO_LABEL
