マリア・ザンダーは、旧西ドイツの陸上競技選手。	まりあざんだーわ、きゅーにしどいつのりくじょーきょーぎせんしゅ。	NO_LABEL
1952年ヘルシンキオリンピックの銀メダリストである。	せんきゅうひゃくごじゅうにねんへるしんきおりんぴっくのぎんめだりすとである。	NO_LABEL
ザンダーは、ドイツ選手権の80mハードルでは1948年に初優勝して以来5回、100m走では1952年から4回の優勝を誇る選手である。	ざんだーわ、どいつせんしゅけんのはちじゅうめーとるはーどるでわせんきゅうひゃくよんじゅうはちねにはつゆーしょーしていらいごかい、ひゃくめーとるそーでわせんきゅうひゃくごじゅうにねんからよんかいのゆーしょーをほこるせんしゅである。	NO_LABEL
1952年ヘルシンキオリンピックには80mハードル、100m走、4×100mリレーの3種目に出場。	NO_PRONOUNCE	NO_LABEL
80mハードルはオーストラリアのシャーリー・ストリックランド、ソ連のマリア・ゴルブニチャヤに次いで銅メダルを獲得。	NO_PRONOUNCE	NO_LABEL
100m走では5位に終わったものの、4×100mリレーではウルスラ・クナブ、ヘルガ・クライン、マルガ・ペテルセンとともに銅メダルを獲得した。	NO_PRONOUNCE	NO_LABEL
