高密公主は、中国の唐の高祖李淵の四女。	こーみつこーしゅわ、ちゅーごくのとーのこーそりえんのよんじょ。	NO_LABEL
はじめ琅邪公主に封ぜられ、長孫孝政に降嫁した。	NO_PRONOUNCE	NO_LABEL
のちに段綸に降嫁した。	のちにだんりんにこーかした。	NO_LABEL
655年、自分の墓を東向きに造り、父の陵墓である献陵を望めるように遺言して没した。	ろっぴゃくごじゅうごねん、じぶんのはかをひがしむきにつくり、ちちのりょーぼであるけんりょうをのぞめるよーにゆいごんしてぼっした。	NO_LABEL
のちに段綸とともに昭陵に陪葬された。	NO_PRONOUNCE	NO_LABEL
段綸と高密公主のあいだの娘として、邳国夫人段蕑壁がいた。	NO_PRONOUNCE	NO_LABEL
