スチームトラップは、蒸気配管や蒸気使用機器の中にたまった復水を自動的に排出する弁。	すちーむとらっぷわ、じょーきはいかんやじょーきしよーききのなかにたまったふくすいをじどーてきにはいしゅつするべん。	NO_LABEL
復水のみを排出し蒸気は漏らさない。	ふくすいのみをはいしゅつしじょーきわもらさない。	NO_LABEL
JIS B 0100バルブ用語では「トラップ」は、「機器、配管などからドレンを自動的に排出する自力式のバルブの総称」と定義されている。	NO_PRONOUNCE	NO_LABEL
フロート式、バケット式、ベローズ式、バイメタル式、ディスク式などがあり、いずれも復水の水位、蒸気と復水の温度差や流体力学的特性などによって作動する。	ふろーとしき、ばけっとしき、べろーずしき、ばいめたるしき、でぃすくしきなどがあり、いずれもふくすいのすいい、じょーきとふくすいのおんどさやりゅーたいりきがくてきとくせいなどによってさどーする。	NO_LABEL
