『サイレントヒル2』は、2001年にコナミデジタルエンタテインメントが発売したコンピューターゲーム。	NO_PRONOUNCE	NO_LABEL
『サイレントヒル』シリーズの第2作目であり、前作を踏襲した3人称視点のホラーアドベンチャー。	NO_PRONOUNCE	NO_LABEL
新世代機となった事でグラフィック等の質は大幅に向上しているが、基本的なシステム、操作感は前作とほぼ同じである。	しんせだいきとなったことでぐらふぃっくとーのしつわおーはばにこーじょーしているが、きほんてきなしすてむ、そーさかんわぜんさくとほぼおなじである。	NO_LABEL
戦闘システムも共通しているが、敵の攻撃を防御してダメージを軽減するガードが可能になった。	せんとーしすてむもきょーつーしているが、てきのこーげきをぼーぎょしてだめーじをけいげんするがーどがかのーになった。	NO_LABEL
また、ゲームスタート時に戦闘難易度、謎解き難易度が変更可能になった。	また、げーむすたーとじにせんとーなんいど、なぞときなんいどがへんこーかのーになった。	NO_LABEL
本作の舞台はトルーカ湖南岸の簡素な住宅地であるサウスヴェイル地区であり、前作の舞台となったトルーカ湖北岸を訪れる事は出来ない。	NO_PRONOUNCE	NO_LABEL
登場人物やストーリーに関しても前作とのつながりは薄い。	とーじょーじんぶつやすとーりーにかんしてもぜんさくとのつながりわうすい。	NO_LABEL
2002年には、完全版にあたる『最期の詩』が発売された。	NO_PRONOUNCE	NO_LABEL
3年前に死んだはずの妻メアリーから「思い出のあの場所であなたを待っている……」という内容の手紙を受け取ったジェイムス・サンダーランドは、半信半疑ながら彼女と再会しようと、かつて新婚旅行に訪れた観光地サイレントヒルを訪れた。	NO_PRONOUNCE	NO_LABEL
しかし町は深い霧に包まれ、おぞましいクリーチャーが徘徊するゴーストタウンと化していた。	しかしまちわふかいきりにつつまれ、おぞましいくりーちゃーがはいかいするごーすとたうんとかしていた。	NO_LABEL
虚ろな雰囲気の女性アンジェラ、不審な言動を見せる青年エディー、メアリーの友達と名乗る少女ローラ、そしてメアリーと瓜二つな女性マリアとの出会いを経て、かつて宿泊したレイクサイドホテルへと辿り着いたジェイムズは、そこで自らが記憶の底の封じ込めていた「真実」に辿り着く。	NO_PRONOUNCE	NO_LABEL
余所からの来訪者。	よそからのらいほーしゃ。	NO_LABEL
ジェイムス、アンジェラ、エディーの三人には、「罪を犯した」という共通点がある。	NO_PRONOUNCE	NO_LABEL
サイレントヒルでジェイムスを苦しめる三角頭の怪物と、ジェイムスを惑わす女性マリア	さいれんとひるでじぇいむすをくるしめるさんかくあたまのかいぶつと、じぇいむすをまどわすじょせいまりあ	NO_LABEL
ジェイムスが探している今は亡き妻。	じぇいむすがさがしているいまわなきつま。	NO_LABEL
彼女を見つけ出すことがこのゲームの目的である。	かのじょをみつけだすことがこのげーむのもくてきである。	NO_LABEL
[最期の詞]に追加された、サブシナリオに登場する人物について記述する。	NO_PRONOUNCE	NO_LABEL
ジェイムスの潜在意識がサイレントヒルの力によって具現化したもの。	じぇいむすのせんざいいしきがさいれんとひるのちからによってぐげんかしたもの。	NO_LABEL
そのほとんどはジェイムスにしか見えず、また、ジェイムスにしか危害を加えない。	そのほとんどわじぇいむすにしかみえず、また、じぇいむすにしかきがいをくわえない。	NO_LABEL
そのほとんどが無数に存在する。	そのほとんどがむすーにそんざいする。	NO_LABEL
以下に記述するクリーチャーはストーリー上で非常に重要な役割を担う。	いかにきじゅつするくりーちゃーわすとーりーじょーでひじょーにじゅーよーなやくわりをになう。	NO_LABEL
新シナリオ・新武器などを追加した完全版。	NO_PRONOUNCE	NO_LABEL
2002年にコナミから廉価版が発売された。	にせんにねんにこなみかられんかばんがはつばいされた。	NO_LABEL
『2』に、マリアの謎についてのシナリオを追加したもの。	NO_PRONOUNCE	NO_LABEL
それ以外は、ほぼ『2』と同様となっているが、エンディングが1つ追加されている。	NO_PRONOUNCE	NO_LABEL
ジェイムスが主人公の本編は『LETTER FROM SILENT HEAVEN』というタイトルで、マリアが主人公のサブシナリオは『BORN FROM A WISH』となっている。	NO_PRONOUNCE	NO_LABEL
本作の北米でのタイトルは『SILENT HILL 2: Restless Dreams』。	NO_PRONOUNCE	NO_LABEL
本作では5種類の異なるエンディングが存在し、取得したアイテムや行動によってエンディングが変化する。	もとさくでわごしゅるいのことなるえんでぃんぐがそんざいし、しゅとくしたあいてむやこーどーによってえんでぃんぐがへんかする。	NO_LABEL
それぞれグッドエンド／バッドエンドかは明言されないが、プレイヤーが作品全体の意味を違って捉えられるように工夫されている。	NO_PRONOUNCE	NO_LABEL
