華山論道囲棋精鋭戦は、中国の陝西省で行われた囲碁の棋戦。	げさんろんどーかこいむくせいえいせんわ、ちゅーごくのせんせいしょーでおこなわれたいごのきせん。	NO_LABEL
2001年から華山囲棋大会の一環で、招待棋士による中国華山囲棋精鋭戦として開始。	にせんいちねんからげさんかこいむくたいかいのいっかんで、しょーたいきしによるちゅーごくげさんかこいむくせいえいせんとしてかいし。	NO_LABEL
2002年第2期から華山論道囲棋精鋭戦として2004年まで計4期行われた。	にせんにねんだいにきからげさんろんどーかこいむくせいえいせんとしてにせんよねんまでけいよんきおこなわれた。	NO_LABEL
通称華山杯。	つーしょーげさんはい。	NO_LABEL
2004年には女流棋士による全国女子囲棋挑戦戦も行われた。	にせんよねんにわじょりゅーきしによるぜんこくじょしかこいむくちょーせんせんもおこなわれた。	NO_LABEL
2005年第5期は美女棋手・影視明星ペア碁戦、2006年第6期は中韓名宿対抗戦が行われた。	NO_PRONOUNCE	NO_LABEL
馬暁春と劉小光の2名の招待棋士による三番勝負を行った。	NO_PRONOUNCE	NO_LABEL
7名の招待棋士によるトーナメント戦を行った。	NO_PRONOUNCE	NO_LABEL
4名の招待棋士によるトーナメント戦で、前年優勝者への挑戦者を決定した。	NO_PRONOUNCE	NO_LABEL
4名の招待棋士によるトーナメント戦で、前年優勝者への挑戦者を決定した。	NO_PRONOUNCE	NO_LABEL
また、全国女子囲棋挑戦戦を開催。	また、ぜんこくじょしかこいむくちょーせんせんをかいさい。	NO_LABEL
女流棋士と映画スターによるペア碁戦を実施。	じょりゅーきしとえいがすたーによるぺあごせんをじっし。	NO_LABEL
中国と韓国の招待棋士各1名が対戦。	NO_PRONOUNCE	NO_LABEL
陕西省のアマチュアによる地域対抗団体戦陝西地方囲棋団体排名戦、個人戦陝西業余囲棋棋王争覇戦、少年個人戦を開催。	NO_PRONOUNCE	NO_LABEL
団体戦は西安市が優勝。	だんたいせんわせいあんしがゆーしょー。	NO_LABEL
アマチュアの全国個人戦全国業余囲棋棋王争覇戦を開催、またその上位2名李岱春、崔前进とプロ棋士王磊、周鶴洋の対抗戦を実施。	NO_PRONOUNCE	NO_LABEL
第2回全国業余囲棋棋王争覇戦、及びアマチュア棋戦の炎黄杯名人囲棋招待戦の第6期を開催。	だいにかいぜんこくぎょーよかこいむくきおーそーはせん、およびあまちゅあきせんのほのおきはいめいじんかこいむくしょーたいせんのだいろっきをかいさい。	NO_LABEL
第3回全国業余囲棋棋王争覇戦として団体戦と個人戦、及び陝西省の団体リーグ戦陕西省業余リーグ戦を開催。	NO_PRONOUNCE	NO_LABEL
第4回全国業余囲棋棋王争覇戦として団体戦と個人戦、及び中国と韓国のアマチュアの対抗戦を開催。	だいよんかいぜんこくぎょーよかこいむくきおーそーはせんとしてだんたいせんとこじんせん、およびちゅーごくとかんこくのあまちゅあのたいこーせんをかいさい。	NO_LABEL
