『ALIVE』は、飛蘭の2枚目のオリジナルアルバム。	NO_PRONOUNCE	NO_LABEL
2011年9月21日にLantisから発売された。	にせんじゅういちねんくがつにじゅういちにちにらんてぃすからはつばいされた。	NO_LABEL
飛蘭のメジャー2作目となるオリジナルアルバム。	NO_PRONOUNCE	NO_LABEL
初回限定盤と通常盤が同時発売され、初回限定盤には2011年6月5日に大阪の心斎橋CLUB QUATTROにて行われたライブ「飛蘭 LIVE TOUR 02 -HAPPY SOUL DANCE-」の最終公演を収めたDVDが同梱されている。	NO_PRONOUNCE	NO_LABEL
2011年1月26日に発売された8枚目のシングル「終末のフラクタル」はCDには収録されておらず、DVDにライブ映像が収められている。	NO_PRONOUNCE	NO_LABEL
