心斎橋筋は、大阪府大阪市中央区の船場・島之内を南北に縦断する道路、または、島之内側の町名。	NO_PRONOUNCE	NO_LABEL
町名は1～2丁目がある。	NO_PRONOUNCE	NO_LABEL
郵便番号は542-0085。	NO_PRONOUNCE	NO_LABEL
御堂筋のひとつ東側の筋。	みどーすじのひとつひがしがわのすじ。	NO_LABEL
長堀川に架かっていた心斎橋に由来する。	ながほりがわにかかっていたしんさいばしにゆらいする。	NO_LABEL
区間は淀屋橋駅付近の土佐堀通との交点から道頓堀川に架かる戎橋までの約2.5km（）で、戎橋以南は南海難波駅に至る戎橋筋に接続する。	くかんわよどやばしえきふきんのとさぼりどおりとのこーてんからどーとんぼりがわにかかるえびすきょーまでのやくにてんごきろめーとるかっこで、えびすばしいなんわなんかいなんばえきにいたるえびすばしすじにせつぞくする。	NO_LABEL
長堀通以北の船場では南行き一方通行となる。	ながほりどーりいほくのふなばでわみなみいきいっぽーつうこーとなる。	NO_LABEL
長堀通以南の島之内では大阪ミナミの南北基軸となるため人通りが多い。	ながほりどーりいなんのしまのうちでわおーさかみなみのなんぼくきじくとなるためひとどーりがおーい。	NO_LABEL
船場では南本町通 - 順慶町通間がせんば心斎橋筋商店街、順慶町通 - 長堀通間が心斎橋筋北商店街、島之内では心斎橋筋商店街と、南本町通以南の約1.5kmはアーケード商店街となっている。	NO_PRONOUNCE	NO_LABEL
せんば心斎橋筋商店街は10時から18時まで、心斎橋筋北商店街は9時から翌1時まで、心斎橋筋商店街は終日、車両通行禁止となる。	せんばしんさいばしすじしょーてんがいわじゅうじからじゅうはちじまで、しんさいばしすじきたしょーてんがいわくじからよくいちじまで、しんさいばしすじしょーてんがいわしゅーじつ、しゃりょーつーこーきんしとなる。	NO_LABEL
現在の住居表示としての心斎橋筋は、おおむね御堂筋の東側・長堀通の南側・畳屋町筋の西側・道頓堀川の北側にあたる。	NO_PRONOUNCE	NO_LABEL
周防町筋以北が1丁目、以南が2丁目となる。	すおうちょーすじいほくがいちちょーめ、いなんがにちょーめとなる。	NO_LABEL
1丁目に大丸心斎橋店がある。	いちちょーめにだいまるしんさいばしてんがある。	NO_LABEL
江戸時代は長堀川沿いに長堀心斎町・長堀10丁目、鰻谷南通沿いに高間町・尾上町、大宝寺通沿いに南紺屋町・錺屋町、清水町筋沿いに岩田町・柳町、道頓堀川北岸に道頓堀宗右衛門町・道頓堀久左衛門町が東西方向の町割で、心斎橋筋沿いに木挽町北之丁・木挽町中之丁・木挽町南之丁・菊屋町が南北方向の町割となっていた。	NO_PRONOUNCE	NO_LABEL
1872年に心斎橋筋1～2丁目の町名が心斎橋筋沿いに誕生し、1989年に現在の町域となった。	NO_PRONOUNCE	NO_LABEL
