松平 忠茂）は、戦国時代の西三河地方の武将。	NO_PRONOUNCE	NO_LABEL
通称は甚太郎。	つーしょーわじんたろー。	NO_LABEL
東条松平家第2代目。	とーじょーまつだいらけだいにだいめ。	NO_LABEL
三河松平氏の一族・東条松平家の松平義春の次男。	NO_PRONOUNCE	NO_LABEL
父の義春は天文年間、松平宗家と共に今川氏に服属していた。	ちちのよしはるわてんもんねんかん、まつだいらそーけとともにいまがわうじにふくぞくしていた。	NO_LABEL
父の死後、兄の甚二郎が家督を継いだ。	ちちのしご、あにのいたじろーがかとくをついだ。	NO_LABEL
しかし、兄はにわかに織田氏に味方して今川氏に敵対したため、今川義元により天文20年に甚二郎の追放と忠茂の家督継承がなされた。	しかし、あにわにわかにおだしにみかたしていまがわうじにてきたいしたため、いまがわよしもとによりてんもんにじゅうねんにじんじろーのついほーとただしげのかとくけいしょーがなされた。	NO_LABEL
忠茂は若年であったため、義元は今川氏の属臣・松井忠次と山内助左衛門尉が忠茂の寄騎として同心すべきこと命じた。	NO_PRONOUNCE	NO_LABEL
なおこの時、「本知あいは」は甚二郎により東条殿に進上されているので返付を待つように今川氏の奉行から指示があり、これにより本来は東条吉良氏領と推定される吉良庄饗庭が甚二郎の本知であったことが知れる。	NO_PRONOUNCE	NO_LABEL
そのため、東条松平家は本来、青野松平家とすべきという説が現在有力であるが、この事実からは従来の東条松平家という呼称があながち誤謬ではないことがわかる。	そのため、とーじょーまつだいらけわほんらい、あおのまつへいかとすべきとゆうせつがげんざいゆーりょくであるが、このじじつからわじゅーらいのとーじょーまつだいらけとゆうこしょーがあながちごびゅーでわないことがわかる。	NO_LABEL
また、この甚二郎の家督継承を数えれば忠茂は東条松平家第2代目ではなく、第3代目にあたる。	また、このいたじろーのかとくけいしょーをかぞえればただしげわとーじょーまつだいらけだいにだいめでわなく、だいさんだいめにあたる。	NO_LABEL
当主・松平広忠が天文18年に急死して以降、松平宗家の今川氏への従属が強まり、松平党への求心力が弱まったため、庶流の松平家や有力家臣のなかには宗家とたもとを分かち尾張国の織田氏に味方するものや、逆に今川氏に直接帰属して下知を受けるものが現れた。	NO_PRONOUNCE	NO_LABEL
忠茂の東条松平家も当時は今川氏の下知を直接受けていた。	ただしげのとーじょーまつだいらけもとーじわいまがわうじのげちをちょくせつうけていた。	NO_LABEL
このため、他の有力松平分家としばしば対立し合戦に及んだ。	このため、たのゆーりょくまつだいらぶんけとしばしばたいりつしかっせんにおよんだ。	NO_LABEL
忠茂の時に以下の合戦・係争があった。	NO_PRONOUNCE	NO_LABEL
※なお、1.は織田氏への内通、2.は松平親乗の妻が桜井松平信定の娘、3.は桜井松平家次の母は織田信秀妹であるから、いずれも親織田派として今川氏と松平宗家に敵対していたと推定される。	NO_PRONOUNCE	NO_LABEL
これに対し忠茂は今川氏と松平宗家を支持してこれと争ったと考えられる。	これにたいしただしげわいまがわうじとまつだいらそーけをしじしてこれとあらそったとかんがえられる。	NO_LABEL
忠茂は、今川氏に逆心した奥平氏を討つため、その支族日近久兵衛尉の三河額田郡日近城攻めに出兵。	ただしげわ、いまがわうじにぎゃくしんしたおくだいらしをうつため、そのしぞくびちかひさひょーえじょーのみかわぬかたぐんひじかいじょーぜめにしゅっぺい。	NO_LABEL
しかし、弘治2年2月20日には、城兵の放った矢に当たり重傷、家臣・平岩権太夫らに背負われて退却中、近隣の保久大林で絶命した。	NO_PRONOUNCE	NO_LABEL
嫡子で遺児となった亀千代丸は1歳の乳児であったことから、忠茂の没年齢は不明ながらも早世であったことが想像される。	ちゃくしでいじとなったかめちよまるわいっさいのにゅーじであったことから、ただしげのぼつねんれいわふめいながらもそーせいであったことがそーぞーされる。	NO_LABEL
父は松平義春、義春は宗家5代目・松平長親の子。	NO_PRONOUNCE	NO_LABEL
母は不詳。	ははわふしょー。	NO_LABEL
兄として、松平甚二郎がある。	あにとして、まつだいらじんじろーがある。	NO_LABEL
室は松井忠次の妹。	しつわまついただつぐのいもーと。	NO_LABEL
この室に一男あり、名は家忠。	このしつにいちなんあり、なわいえただ。	NO_LABEL
