惣田 紗莉渚は、日本のアイドルであり、女性アイドルグループSKE48チームKIIのメンバーである。	NO_PRONOUNCE	NO_LABEL
埼玉県浦和市出身。	さいたまけんうらわししゅっしん。	NO_LABEL
AKS所属。	えーけいえすしょぞく。	NO_LABEL
中学2年生のとき、AKB48第3期生オーディションを受けるも最終審査で不合格。	ちゅーがくにねんせいのとき、えーけーびーふぉーてぃえいとだいさんきせいおーでぃしょんをうけるもさいしゅーしんさでふごーかく。	NO_LABEL
翌年5月にAKB48第4期生オーディション、9月にはAKB48第5期生オーディションを受けるも、いずれも不合格となる。	よくねんごがつにえーけーびーふぉーてぃえいとだいよんきせいおーでぃしょん、くがつにわえーけーびーふぉーてぃえいとだいごきせいおーでぃしょんをうけるも、いずれもふごーかくとなる。	NO_LABEL
中学時代の1年間、ティーン向けファッション雑誌『ラブベリー』の読者モデルをしていた。	NO_PRONOUNCE	NO_LABEL
高校1年から高校3年まで宝塚音楽学校を3回受験し、3回目は最終審査まで進んだ。	こーこーいちねんからこーこーさんねんまでたからずかおんがくがっこーをさんかいじゅけんし、さんかいめわさいしゅーしんさまですすんだ。	NO_LABEL
高校卒業後家にひきこもるが秋ごろから予備校に通い始め、東京都内の私立大学に合格し2012年に入学。	こーこーそつぎょーごかにひきこもるがあきごろからよびこーにかよいはじめ、とーきょーとないのしりつだいがくにごーかくしにせんじゅうにねんににゅーがく。	NO_LABEL
「本当にやりたいことは芸能活動だ」と改めて気づき1年生の終わりに休学、芸能関係の養成所に通い始め、2013年9月22日、「AKB48グループ ドラフト会議 候補生オーディション」3次審査において、ドラフト候補生となる。	NO_PRONOUNCE	NO_LABEL
11月4日、ドラフト候補生が国内のAKB48グループの劇場で公演の前座として出演、惣田はHKT48劇場に出演。	じゅーいちがつよっか、どらふとこーほせいがこくないのえーけーびーふぉーてぃーえいとぐるーぷのげきじょーでこーえんのぜんざとしてしゅつえん、そーだわえいちけーてぃーふぉーてぃーえいとげきじょーにしゅつえん。	NO_LABEL
11月10日、「第1回AKB48グループ ドラフト会議」において、SKE48チームKIIに第5巡目で指名される。	NO_PRONOUNCE	NO_LABEL
2014年1月25日、『AKB48 リクエストアワーセットリストベスト200 2014』の3日目の前座でお披露目。	NO_PRONOUNCE	NO_LABEL
2月24日、Zepp DiverCityで開催された「AKB48グループ大組閣祭り」にて、チームKIIへの所属が発表され、3月11日にチームKIIのメンバーとして正式登録。	NO_PRONOUNCE	NO_LABEL
3月20日、チームKII 4th Stage「シアターの女神」公演で劇場公演デビュー。	NO_PRONOUNCE	NO_LABEL
12月10日、この日発売された16thシングル「12月のカンガルー」に、SKE48のドラフト生としては初めて選抜入りを果たす。	NO_PRONOUNCE	NO_LABEL
2015年5月から6月にかけて実施された『AKB48 41stシングル選抜総選挙』では55位で、フューチャーガールズに選出され、ドラフト生としては初めてであり、唯一のランクインを果たした。	NO_PRONOUNCE	NO_LABEL
10月5日、劇場デビュー7周年記念特別公演において、SKE48内のユニット「キャラメルキャッツ」のメンバーに選ばれる。	NO_PRONOUNCE	NO_LABEL
2016年春、3年の休学を経て大学に復学した。	にせんじゅうろくねんはる、さんねんのきゅーがくをへてだいがくにふくがくした。	NO_LABEL
同年5月から6月にかけて実施された『AKB48 45thシングル選抜総選挙』では30位で、アンダーガールズに選出された。	NO_PRONOUNCE	NO_LABEL
2017年5月から6月にかけて実施された『AKB48 49thシングル選抜総選挙』では8位で、初の選抜入りを果たした。	NO_PRONOUNCE	NO_LABEL
2018年2月7日に自身初のソロ写真集を発売。	にせんじゅうはちねんにがつなのかにじしんはつのそろしゃしんしゅーをはつばい。	NO_LABEL
愛称は、さりー。	あいしょーわ、さりー。	NO_LABEL
キャッチフレーズは、「そうだ! さりな推そう!」。	NO_PRONOUNCE	NO_LABEL
将来の夢はミュージカル女優。	しょーらいのゆめわみゅーじかるじょゆー。	NO_LABEL
志したきっかけは、中学3年時に初めて観劇した宝塚歌劇『ME AND MY GIRL』において、初舞台生らのラインダンスに感動したことによる。	NO_PRONOUNCE	NO_LABEL
当舞台のヒロインの名前が「サリー」であることに運命を感じ、この役を演じることを目標とした。	NO_PRONOUNCE	NO_LABEL
ほかに、『レ・ミゼラブル』や『ミス・サイゴン』のようなミュージカルの舞台に立つことを目指している。	NO_PRONOUNCE	NO_LABEL
特技はクラシックバレエ。	とくぎわくらしっくばれー。	NO_LABEL
5歳の時から15年間バレエを習っていて、宝塚受験をきっかけに、高校生になってからはほ毎日バレエに通っていた。	ごさいのときからじゅうごねんかんばれーをならっていて、たからずかじゅけんをきっかけに、こーこーせいになってからわほまいにちばれーにかよっていた。	NO_LABEL
趣味は宝塚観劇、ミュージカルの歌を歌うこと、写真、アクション映画鑑賞。	しゅみわたからずかかんげき、みゅーじかるのうたをうたうこと、しゃしん、あくしょんえいがかんしょー。	NO_LABEL
好きな食べ物はカレー、チョコチップクッキー。	すきなたべものわかれー、ちょこちっぷくっきー。	NO_LABEL
得意料理はハンバーグ。	とくいりょーりわはんばーぐ。	NO_LABEL
好きな女優は永作博美で、宝塚歌劇団では元月組トップスターの瀬奈じゅん、元花組トップスターの蘭寿とむのようである。	すきなじょゆーわながさくひろみで、たからずかかげきだんでわもとつきぐみとっぷすたーのせなじゅん、もとはなぐみとっぷすたーのらんじゅとむのよーである。	NO_LABEL
埼玉西武ライオンズのファンで父がファンクラブに入っており、祖父と一緒に試合を観戦したことがある。	さいたませいぶらいおんずのふぁんでちちがふぁんくらぶにはいっており、そふといっしょにしあいをかんせんしたことがある。	NO_LABEL
栗山巧の大ファン。	くりやまたくみのだいふぁん。	NO_LABEL
第1回ドラフト候補生の中では最年長だった。	だいいっかいどらふとこーほせいのなかでわさいねんちょーだった。	NO_LABEL
同じドラフト生では川本紗矢や磯佳奈江と仲が良い。	おなじどらふとせいでわかわもとさややいそかなえとなかがよい。	NO_LABEL
山下ゆかりは、一番初めに仲が良くなった先輩メンバー。	やましたゆかりわ、いちばんはじめになかがよくなったせんぱいめんばー。	NO_LABEL
SKE48名義	えすけいいーふぉーてぃえいとめいぎ	NO_LABEL
AKB48名義	えーけーびーふぉーてぃえいとめいぎ	NO_LABEL
SKE48名義	えすけいいーふぉーてぃえいとめいぎ	NO_LABEL
AKB48名義	えーけーびーふぉーてぃえいとめいぎ	NO_LABEL
チームKII 5th Stage「ラムネの飲み方」	NO_PRONOUNCE	NO_LABEL
チームKII 6th Stage「0start」	NO_PRONOUNCE	NO_LABEL
