ブランカは、カプコンが製作した対戦型格闘ゲーム『ストリートファイター』シリーズに登場する架空の人物。	NO_PRONOUNCE	NO_LABEL
本名はジミー。	ほんみょーわじみー。	NO_LABEL
子供の頃に飛行機事故に遭い、アマゾンの奥地で育った野生児。	こどものころにひこーきじこにあい、あまぞんのおくちでそだったやせいじ。	NO_LABEL
緑色の肌とオレンジ色の髪、鋭い牙や爪など怪物じみた外見を持つが、れっきとした人間である。	りょくしょくのはだとおれんじいろのかみ、するどいきばやつめなどかいぶつじみたがいけんをもつが、れっきとしたにんげんである。	NO_LABEL
見た目だけでなく、回転しながら飛んで体当たりを喰らわせたり、体から電撃を放つなどといった常人離れした技を使う。	みためだけでなく、かいてんしながらとんでたいあたりをくらわせたり、からだからでんげきをはなつなどといったじょーじんばなれしたわざをつかう。	NO_LABEL
体色が緑に変化したのは保護色のため。	からだしょくがみどりにへんかしたのわほごしょくのため。	NO_LABEL
放電能力は電気ウナギとの格闘の際に身につけている。	ほーでんのーりょくわでんきうなぎとのかくとーのさいにみにつけている。	NO_LABEL
初登場時の『ストリートファイターII』では比喩表現まで使いこなすほどまともに言葉を話すが、それより前の時代になる『ストリートファイターZERO3』では「ウオー」と唸ったり吠えたりしかできなかった。	NO_PRONOUNCE	NO_LABEL
『CAPCOM VS. SNK』では普通に話しているが、全ての台詞に濁点が混じり、『ストII』と『ZERO3』の中間的なものになっている。	NO_PRONOUNCE	NO_LABEL
『ストII』シリーズのエンディングでは母親サマンサと感動の再会を果たす。	NO_PRONOUNCE	NO_LABEL
サマンサが息子だと確信した理由はブランカが付けていたアンクレットである。	さまんさがむすこだとかくしんしたりゆーわぶらんかがつけていたあんくれっとである。	NO_LABEL
シリーズ当初はブレスレットと表記されていたが、『スーパーストリートファイターII』でアンクレットに修正されている。	NO_PRONOUNCE	NO_LABEL
恐ろしげな外見に見合わず純真な性格と思考の持ち主で、『ストリートファイターIV』では母親に対して気遣いを見せるなど繊細な一面もあるほか、「顔を隠す奴は悪い奴」という考えからバルログやエル・フォルテを非難している。	NO_PRONOUNCE	NO_LABEL
ただし、闘いにおいては相手を威嚇するような台詞も散見される。	ただし、たたかいにおいてわあいてをいかくするよーなだいしもさんけんされる。	NO_LABEL
母親と再会した後は一緒に暮らしているようで、『ストリートファイターEX』シリーズではジャングルの危機を救うべく立ち上がる等、新たな目的を持って戦いに身を投じていて、『ストIV』では母親に誇ってもらえるような息子になるための旅に出ている。	NO_PRONOUNCE	NO_LABEL
かつてジャングルにやって来た火引弾を助けて以来、彼とは親友らしく、ダンからは本名である「ジミー」と呼ばれている。	NO_PRONOUNCE	NO_LABEL
これは中平正彦の漫画『ストリートファイターZERO』単行本巻末おまけ漫画の設定が反映されたことによるもの。	NO_PRONOUNCE	NO_LABEL
後に同じく中平による『さくらがんばる!』でも、ザンギエフが主催する格闘ショーのやられ役として登場し、その扱いに怒ったダンが乱入するというエピソードがある。	NO_PRONOUNCE	NO_LABEL
ブランカの遭った飛行機事故はシャドルーによる要人暗殺のための爆破テロが原因。	ぶらんかのあったひこーきじこわしゃどるーによるよーじんあんさつのためのばくはてろがげんいん。	NO_LABEL
『カプエス』シリーズに出場した際は、草薙京から二階堂紅丸が着ぐるみを着ているのではないかと疑われていた。	NO_PRONOUNCE	NO_LABEL
当の紅丸本人はブランカに対して、電撃を使えることで一緒にされるのが心外そうな事を勝利画面で発言したり、充電していた自分のMDプレーヤーを返してほしいとも言っている。	とーのべにまるほんにんわぶらんかにたいして、でんげきをつかえることでいっしょにされるのがしんがいそーなことをしょーりがめんではつげんしたり、じゅーでんしていたじぶんのえむでぃぷれーやーをかえしてほしいともいっている。	NO_LABEL
また、ジャングルの外をあまり知らないため、不知火舞の色仕掛けも肉塊でしかなく、キムの正義も知らない。	また、じゃんぐるのそとをあまりしらないため、しらぬいまいのいろじかけもにくかたまりでしかなく、きむのせいぎもしらない。	NO_LABEL
逆にユリ・サカザキはブランカの本名を知っている。	ぎゃくにゆりさかざきわぶらんかのほんみょーをしっている。	NO_LABEL
『ZERO3』ではザンギエフの勝利ポーズにも登場する。	NO_PRONOUNCE	NO_LABEL
ブランカが持ってきたピラルクをザンギエフがウォッカによる炎で焼く演出が行われるが、誤ってブランカまで焼かれてしまうパターンもある。	ぶらんかがもってきたぴらるくをざんぎえふがうぉっかによるほのおでやくえんしゅつがおこなわれるが、あやまってぶらんかまでやかれてしまうぱたーんもある。	NO_LABEL
『ストリートファイターV』ではSeason3の追加キャラクターとして参戦。	NO_PRONOUNCE	NO_LABEL
本人のストーリーモードでは悪質な業者によって人気者になれると吹き込まれ大量の自分の人形「アマゾンの脅威ブランカちゃん」を作ってしまう。	NO_PRONOUNCE	NO_LABEL
ブラジルの山腹の広場で売り歩きしているところでララと出会い、ララの弟のショーンが「アニメやゲームで有名な日本で売ってみるといい」というアドバイスをしたため日本のゲームセンター前で売り歩くも「ゲームセンター外にあるクレーンゲームの人形のほうが可愛い」と女子高生に言われてしまう。	NO_PRONOUNCE	NO_LABEL
偶然にもそのゲームセンターで友達のさくらが働いており、事情を聞いたさくらは店長に相談してブランカちゃん人形をクレーンゲームに置いてもらうこととなった。	ぐーぜんにもそのげーむせんたーでともだちのさくらがはたらいており、じじょーをきいたさくらわてんちょーにそーだんしてぶらんかちゃんにんぎょーをくれーんげーむにおいてもらうこととなった。	NO_LABEL
その後、女子高生からは「キモ可愛い」と言われたが流行ったかどうかは濁されている。	NO_PRONOUNCE	NO_LABEL
デザイナーの西村キヌは「獣人は知性が低いというのはありがちすぎるので、彼は教育は受けていないが結構頭が良いということになっている」と語っていて、上記のように『ストII』時点においても比喩やことわざを学習してそれを使ったセリフを使っており、キャラクターデザインを手掛けた安田朗や西村キヌによるイラストではすっかり文明人になった『ストII』後のブランカの姿が描かれている。	NO_PRONOUNCE	NO_LABEL
高い攻撃力、突進技や特殊移動のスピード、優れたジャンプ力、長いリーチを併せ持ち、初心者にとって使いやすいキャラクターである。	たかいこーげきりょく、とっしんわざやとくしゅいどーのすぴーど、すぐれたじゃんぷりょく、ながいりーちをあわせもち、しょしんしゃにとってつかいやすいきゃらくたーである。	NO_LABEL
その特性を活かして相手に対応する暇を与えず攻めまくる戦法が基本。	そのとくせいをいかしてあいてにたいおーするひまをあたえずせめまくるせんぽーがきほん。	NO_LABEL
反面、ガイルなど迎撃能力の高いキャラクターにじっくりと構えられると苦戦を強いられてしまう欠点もある。	はんめん、がいるなどげいげきのーりょくのたかいきゃらくたーにじっくりとかまえられるとくせんをしいられてしまうけってんもある。	NO_LABEL
ジャンプの滞空時間が短く、素早い跳び込みが可能なので、リュウなどの飛び道具を持つキャラクターにも対抗しやすい。	じゃんぷのたいくーじかんがみじかく、すばやいとびこみがかのーなので、りゅーなどのとびどーぐをもつきゃらくたーにもたいこーしやすい。	NO_LABEL
しかし滞空時間の短さゆえ、スピードの遅い飛び道具を垂直ジャンプで避けることが困難であるというデメリットも併せ持つ。	しかしたいくーじかんのみじかさゆえ、すぴーどのおそいとびどーぐをすいちょくじゃんぷでさけることがこんなんであるとゆうでめりっともあわせもつ。	NO_LABEL
また無敵時間の存在する技が『スパIIX』より以前の作品までは無かったため、切り返しに乏しかった。	NO_PRONOUNCE	NO_LABEL
また前進と後退でキャラクターの高さが違うため、一部の技に対しては、後退すると当たるが、前進すれば当たらずに潜り抜けることができる。	またぜんしんとこーたいできゃらくたーのたかさがちがうため、いちぶのわざにたいしてわ、こーたいするとあたるが、ぜんしんすればあたらずにくぐりぬけることができる。	NO_LABEL
『ストII』時代はベガの「サイコクラッシャーアタック」やエドモンド本田の「スーパー頭突き」でサガットの「グランドタイガーショット」を飛び越せるのに対し、ブランカの「ローリングアタック」では飛び越せなかった。	NO_PRONOUNCE	NO_LABEL
シリーズ初期においては後退する相手に追いつけないほど前後の移動速度が遅かったが、シリーズ後期では多彩な移動方法を身につけており、慣れてくると高い機動力を生かしたトリッキーな動きで相手を翻弄することも可能になる。	しりーずしょきにおいてわこーたいするあいてにおいつけないほどぜんごのいどーそくどがおそかったが、しりーずこーきでわたさいないどーほーほーをみにつけており、なれてくるとたかいきどーりょくをいかしたとりっきーなうごきであいてをほんろーすることもかのーになる。	NO_LABEL
ただし歩行速度自体は相変わらず全キャラクター中ワーストクラスである。	ただしほこーそくどじたいわあいかわらずぜんきゃらくたーちゅーわーすとくらすである。	NO_LABEL
作品によって若干差異はあるが、ここでは『スーパーストリートファイターIV』での技名称を掲載。	NO_PRONOUNCE	NO_LABEL
実写映画『ストリートファイター』では、ガイル大佐の親友「カルロス・ブランカ」、愛称チャーリーとして登場する。	NO_PRONOUNCE	NO_LABEL
チャーリーはナッシュの日本以外での名前。	ちゃーりーわなっしゅのにっぽんいがいでのなまえ。	NO_LABEL
バイソン将軍の人体実験により、緑色の肌をした怪物にされてしまう。	ばいそんしょーぐんのじんたいじっけんにより、りょくしょくのはだをしたかいぶつにされてしまう。	NO_LABEL
漫画『ストII爆笑!!4コマギャグ外伝』では、外見が動物的であるため、ケンにしばしば動物扱いされたり、本当に動物と間違えられて捕獲され連れ去られたこともあった。	NO_PRONOUNCE	NO_LABEL
ブランカの名はスペイン語 ""に由来するという設定がある。	NO_PRONOUNCE	NO_LABEL
飛行機が墜落して生き残った直後は現地人に比べ肌が白いためこう呼ばれ、そこからブランカと名乗るようになった。	ひこーきがついらくしていきのこったちょくごわげんちじんにくらべはだがしろいためこーよばれ、そこからぶらんかとなのるよーになった。	NO_LABEL
また、『映画ストリートファイターIIメモリアル公式ファンブック』では育ての親である動物のくしゃみが「ブランカ!!」に聞こえたため、それを自分の名前だと思い込んでしまったと書かれている。	NO_PRONOUNCE	NO_LABEL
『X-MEN VS. STREET FIGHTER』では山岳地帯の背景にて一人で焚き火をしており、時おりプレイヤーの方を見る。	NO_PRONOUNCE	NO_LABEL
『マーヴル・スーパーヒーローズ VS. ストリートファイター』では、同じく背景にいるがX-MENのビーストと向かい合わせになっている。	NO_PRONOUNCE	NO_LABEL
またブランカと同じ緑の肌のヒーローであるハルクのエンディングに登場し、彼に「お前もガンマ線を浴びたのか」と聞かれる。	NO_PRONOUNCE	NO_LABEL
緑色の肌は保護色のためとされているが、『カプエス』シリーズでのキャミィの台詞によると「威嚇程度の効果しか無い」とのこと。	NO_PRONOUNCE	NO_LABEL
『モンスターストライク』では通常と進化時の属性は「闇」設定である。	NO_PRONOUNCE	NO_LABEL
