武公は中国春秋時代初期の鄭の君主。	ぶこーわちゅーごくしゅんじゅーじだいしょきのていのくんしゅ。	NO_LABEL
姓は姫。	せいわひめ。	NO_LABEL
諱は掘突。	NO_PRONOUNCE	NO_LABEL
桓公友の子。	かんこーとものこ。	NO_LABEL
父の後を継いで、従子でもある周の平王を補佐して、鄭を強国にした。	ちちののちをついで、じゅうこでもあるしゅーのへいおーをほさして、ていをきょーこくにした。	NO_LABEL
申侯の娘の武姜を妻に迎え、太子寤生と公子叔段を産んだ。	NO_PRONOUNCE	NO_LABEL
武公の父の桓公は、武公の従兄である周の幽王に仕えて重きをなしたが、幽王は暗君で周が異民族の攻撃を受けたときにこれを助けようとする諸侯は桓公しかいなかった。	ぶこーのちちのかんこーわ、ぶこーのじゅーけいであるしゅーのゆうおーにつかえておもきをなしたが、ゆうおーわあんくんでしゅーがいみんぞくのこーげきをうけたときにこれをたすけようとするしょこーわかんこーしかいなかった。	NO_LABEL
桓公はあらかじめ周の敗北を予見しており、戦塵を避けるために鄭の国民を東の東虢や鄶などの諸国に預けていた。	NO_PRONOUNCE	NO_LABEL
桓公は戦死して嫡子の掘突が立って武公となった。	NO_PRONOUNCE	NO_LABEL
武公は周の平王をたすけて王室を安定させ、周王の信頼を得るとはじめて東方の諸国に自国民の返還を求めた。	ぶこーわしゅーのへいおーをたすけておーしつをあんていさせ、しゅーおーのしんらいをえるとはじめてとーほーのしょこくにじこくみんのへんかんをもとめた。	NO_LABEL
東方諸国はこれを拒絶したので、これらを攻め滅ぼした。	とーほーしょこくわこれをきょぜつしたので、これらをせめほろぼした。	NO_LABEL
鄭の国民は武公の下に集まり、武公はかれらを糾合して新しい都を新鄭に定めた。	ていのこくみんわぶこーのしたにあつまり、ぶこーわかれらをきゅーごーしてあたらしいとをしんていにさだめた。	NO_LABEL
新鄭は中原に位置し、交通の要衝を占めたので鄭はこののち大発展した。	しんていわなかはらにいちし、こーつーのよーしょーをしめたのでていわこののちだいはってんした。	NO_LABEL
また、新鄭は堅城としても名高く、幾度も難敵を退けた。	また、しんていわけんじょーとしてもなだかく、いくどもなんてきをしりぞけた。	NO_LABEL
