『おちゃらかほい!』は、やぶうち優による日本の漫画作品。	NO_PRONOUNCE	NO_LABEL
『ちゃお』にて、1997年6月号から1998年5月号まで連載。	NO_PRONOUNCE	NO_LABEL
全12話。	ぜんじゅうにわ。	NO_LABEL
その他に『ちゃおデラックス』1997年春の号・初秋の号・冬の号、1998年春の号に番外編が掲載されている。	NO_PRONOUNCE	NO_LABEL
茶道部に入部した中学1年生の女の子と茶道部の個性的な部員達が繰り広げる学園ギャグ漫画。	さどーぶににゅーぶしたちゅーがくいちねんせいのおんなのことさどーぶのこせいてきなぶいんたちがくりひろげるがくえんぎゃぐまんが。	NO_LABEL
作中にブラジャーやバストのサイズといった女性の胸に関する話、ふんどしの付け方などが載っている事もあり、後年発売された『やぶうち優ファンBOOK やぶうち優の♀♂なお話』では、やぶうち優が執筆した性教育マンガの一つとして扱われている。	NO_PRONOUNCE	NO_LABEL
中学校に入学した女の子・早乙女茶織は、おしとやかな日本女性になりたくて、茶道部に入る事を決意する。	NO_PRONOUNCE	NO_LABEL
しかし、茶道部の部員はいずれも一癖もふた癖もある面々ばかりで…。	しかし、さどーぶのぶいんわいずれもひとくせもふたくせもあるめんめんばかりでさいれんす	NO_LABEL
登場人物名は、お茶の種類にちなんでいる。	とーじょーじんぶつめいわ、おちゃのしゅるいにちなんでいる。	NO_LABEL
ちゃおフラワーコミックスから全2巻が発売され、1巻には本編5話と番外編3話、2巻には本編7話と番外編1話がそれぞれ収録されている。	ちゃおふらわーこみっくすからぜんにかんがはつばいされ、いちかんにわほんぺんごわとばんがいへんさんわ、にかんにわほんぺんななわとばんがいへんいちわがそれぞれしゅーろくされている。	NO_LABEL
単行本は現在絶版になっているが、コミックパークからオンデマンド出版で販売されている。	たんこーぼんわげんざいぜっぱんになっているが、こみっくぱーくからおんでまんどしゅっぱんではんばいされている。	NO_LABEL
電子書籍化もされ、各電子書店にて販売されている。	でんししょせきかもされ、かくでんししょてんにてはんばいされている。	NO_LABEL
