水虎様は、青森県津軽地方の水神信仰。	ようかいうぉっちのすいこさまわ、あおもりけんつがるちほーのすいじんしんこー。	NO_LABEL
水虎様は龍宮神の眷属の水の神で、岩木山のふもとの各地の小さな祠などに祀られている。	ようかいうぉっちのすいこさまわたつみやかみのけんぞくのみずのかみで、いわきやまのふもとのかくちのちーさなほこらなどにまつられている。	NO_LABEL
河童、もしくは河童の上役とされ、祀られている神像も河童の姿をしている。	かっぱ、もしくわかっぱのうわやくとされ、まつられているしんぞーもかっぱのすがたをしている。	NO_LABEL
水難除けの神として地域住民の信仰を集めていることでも知られており、旧暦の5、6月になると子供たちの水難事故がないように、胡瓜などを水虎様への供え物として、川へ流す風習がある。	NO_PRONOUNCE	NO_LABEL
明治初期。	めいじしょき。	NO_LABEL
西津軽郡旧木造町の実相寺の住職が、頻繁に川で起こる水難事故をどうにかしたいと考えていた。	にしつがるぐんきゅーきずくりちょーのじっそーじのじゅーしょくが、ひんぱんにかわでおこるすいなんじこをどーにかしたいとかんがえていた。	NO_LABEL
祈祷によって水難の原因が河童の仕業とされたため、河童に大明神としての神格を与え、男女の河童像を祀ることで祟りを鎮めるようになった。	きとーによってすいなんのげんいんがかっぱのしわざとされたため、かっぱにだいみょーじんとしてのしんかくをあたえ、だんじょのかっぱぞーをまつることでたたりをしずめるよーになった。	NO_LABEL
この信仰が後に各地に広がり、民間祈祷師たちの影響が加わった結果、水虎様の信仰が生まれたといわれている。	このしんこーがのちにかくちにひろがり、みんかんきとーしたちのえいきょーがくわわったけっか、ようかいうぉっちのすいこさまのしんこーがうまれたといわれている。	NO_LABEL
なお水虎という水の妖怪の伝承があるが、水虎様は水虎の名前を取ったのみに過ぎず、水虎との関連性はまったくない。	なおようかいうぉっちのすいことゆうみずのよーかいのでんしょーがあるが、すいこさまわようかいうぉっちのすいこのなまえをとったのみにすぎず、ようかいうぉっちのすいことのかんれんせいわまったくない。	NO_LABEL
