チャールズ・キャメロンは、スコットランド出身のロシアの建築家。	ちゃーるずきゃめろんわ、すこっとらんどしゅっしんのろしあのけんちくか。	NO_LABEL
クラシシズム様式の代表的な建築家で、個性的な表現力にあふれる作品を残している。	くらししずむよーしきのだいひょーてきなけんちくかで、こせいてきなひょーげんりょくにあふれるさくひんをのこしている。	NO_LABEL
また、一方でインテリアの設計にも長けていた他、優秀な画家としても著名であった。	また、いっぽーでいんてりあのせっけいにもたけていたほか、ゆーしゅーながかとしてもちょめいであった。	NO_LABEL
代表作として、キャメロン・ギャラリー、パヴロフスクの宮殿、友好の聖堂、などがある。	NO_PRONOUNCE	NO_LABEL
1993.11 	NO_PRONOUNCE	NO_LABEL
