若草は、大日本帝国海軍の練習用滑空機。	わかくさわ、だいにっぽんていこくかいぐんのれんしゅーよーかっくーき。	NO_LABEL
開発は日本小型飛行機が行った。	かいはつわにっぽんこがたひこーきがおこなった。	NO_LABEL
略符号は「MXJ1」、日本小型での社内名称は「K-15」。	NO_PRONOUNCE	NO_LABEL
1941年初頭、大日本飛行協会・大阪毎日新聞・東京日日新聞共催による中級滑空機設計募集が発表された。	NO_PRONOUNCE	NO_LABEL
日本小型はこれを受けて日本式雉型中級滑空機を設計し応募。	にっぽんこがたわこれをうけてにほんしききじがたちゅーきゅーかっくーきをせっけいしおーぼ。	NO_LABEL
予選を通過した後に航空局試作機として試作が行われ、1942年春に機体が完成し、石岡中央滑空訓練所でテストと審査が行われ、同年11月18日に3等を受賞した。	NO_PRONOUNCE	NO_LABEL
なお、1等を受賞した機はなく、東洋金属木工の進藤式SB-6型が2等となっている。	NO_PRONOUNCE	NO_LABEL
1942年6月、海軍航空技術廠は初歩練習生が九三式中間練習機によるもの以前の操縦訓練に用いるための滑空機として、日本小型と美津野グライダー製作所に対し「十七試初歩練習用滑空機」の競争試作を命じた。	NO_PRONOUNCE	NO_LABEL
これを受けた日本小型は、日本式雉型を基にした機体を開発。	これをうけたにっぽんこがたわ、にほんしききじがたをもとにしたきたいをかいはつ。	NO_LABEL
宮原旭技師長を主務者として設計開始から3週間で試作機を完成させ、審査終了後の1944年3月に「若草一一型」として制式採用された。	NO_PRONOUNCE	NO_LABEL
量産は日本小型を始めとして大日本滑空、大洋航空、松田航空、宮下航空、横井航空などの各社によって行われ、500機以上が各地の練習航空隊で海軍飛行予科練習生の滑空訓練に使用された。	NO_PRONOUNCE	NO_LABEL
また、若草の生産は担当各社にとっての木製機制作のための基礎実習としても機能した。	また、わかくさのせいさんわたんとーかくしゃにとってのもくせいきせいさくのためのきそじっしゅーとしてもきのーした。	NO_LABEL
機体は高翼単葉、生産性に優れた簡易な構造の全木製機で、初歩練習に用いることを前提として、失速を防ぐための大型の水平尾翼を備えている。	きたいわこーよくたんよー、せいさんせいにすぐれたかんいなこーぞーのぜんもくせいきで、しょほれんしゅーにもちいることをぜんていとして、しっそくをふせぐためのおーがたのすいへいびよくをそなえている。	NO_LABEL
操縦席は簡易的な風防を持つ開放式。	そーじゅーせきわかんいてきなふーぼーをもつかいほーしき。	NO_LABEL
翼は雉型と同様のものだったが、胴体の構造は同時期に開発されていた日本小型式K-14型初級滑空機に近いものに変更されており、部品もK-14と共通化されている。	NO_PRONOUNCE	NO_LABEL
発航はゴム索による射出、または人力やウィンチを用いた曳航によって行われる。	はつこーわごむさくによるしゃしゅつ、またわじんりきやうぃんちをもちいたえいこーによっておこなわれる。	NO_LABEL
なお、美津野が試作した十七試初歩練習用滑空機は納期に間に合わず、さらに完成した試作機も基準性能を満たしていなかったため、不合格となった。	なお、みずのがしさくしたとなこころしょほれんしゅーよーかっくーきわのーきにまにあわず、さらにかんせいしたしさくきもきじゅんせいのーをみたしていなかったため、ふごーかくとなった。	NO_LABEL
