第58師団は、大日本帝国陸軍の師団。	NO_PRONOUNCE	NO_LABEL
第58師団は、太平洋戦争開戦後に中国に在った独立混成旅団を改編し、占領地の警備と治安維持を目的に編成された治安師団の一つであり、独立混成第18旅団を改編して編成された。	NO_PRONOUNCE	NO_LABEL
前身である独立混成第18旅団は、復員した第106師団隷下の歩兵第136旅団の人員や装備を譲り受けていたので、第58師団の補充業務は熊本師管が担当した。	NO_PRONOUNCE	NO_LABEL
師団の編制は、4つの独立歩兵大隊から成る歩兵旅団を2つ持ち、砲兵力を欠いた丙師団である。	しだんのへんせいわ、よっつのどくりつほへいだいたいからなるほへいりょだんをふたつもち、ほーへいりょくをかいたひのえしだんである。	NO_LABEL
なお軍旗は連隊に下賜されるため、軍旗を持たない兵団である。	なおぐんきわれんたいにかしされるため、ぐんきをもたないへいだんである。	NO_LABEL
師団は、1942年2月2日に漢口で編成された後、司令部を応城に置き、前身であった独立混成第18旅団の任務を引き継ぎ応城付近の警備や治安維持に従事した。	NO_PRONOUNCE	NO_LABEL
1944年5月からは大陸打通作戦第二段の湘桂作戦に参加、衡陽攻略作戦や桂林作戦などでは主力を勤め、作戦終了後は第11軍司令部の置かれた柳州の北東側の桂林方面の警備を担当した。	NO_PRONOUNCE	NO_LABEL
なお南側の南寧方面は第3師団、西側の宜山方面は第13師団が担当した。	NO_PRONOUNCE	NO_LABEL
大陸打通達成後、第37師団と第22師団は仏印方面に去り、1945年4月1日に連合国軍が沖縄に上陸するなど戦局の変化から広西省方面の日本軍は撤退を開始、第3師団と第13師団は4月18日に支那派遣軍直轄師団となり、これを南京方面に撤退させる為のしんがり部隊となって追撃する中国軍と交戦、多くの犠牲を出した。	NO_PRONOUNCE	NO_LABEL
柳州の北北東約30kmの鹿寨に在った第58師団隷下の独立歩兵第94大隊は、第3師団と交代のため一旦南下し4月13日に南寧に到着、5月26日まで確保した後南寧を放棄し5月29日には賓陽まで戻った。	NO_PRONOUNCE	NO_LABEL
そのころ、第13師団司令部は5月27日に宜山から撤退、第13師団しんがりの歩兵第65連隊は6月13日宜山から撤退し、6月18日から6月28日まで柳州の北西約25kmの柳城を警備、第11軍司令部はその間の6月19日に湖南省方面に向けて撤退を開始した。	NO_PRONOUNCE	NO_LABEL
第58師団隷下の独立歩兵第106大隊は、7月4日全軍のしんがり部隊となり警備地の鹿寨から撤退、その後第58師団隷下の各隊が随時反撃し追撃を振り切りながら撤退を続け、8月16日にも白沙舗と全県の中間地点で独立歩兵第106大隊が追撃する中国軍と交戦これを撃退し、中国戦線最後の戦闘となった。	NO_PRONOUNCE	NO_LABEL
