フィーノ・モルナスコ。	ふぃーのもるなすこ。	NO_LABEL
コモ県南部のコムーネ。	こもけんなんぶのこむーね。	NO_LABEL
県都コモから南南西へ8kmの距離にある。	けんとこもからなんなんせいえはちきろめーとるのきょりにある。	NO_LABEL
隣接するコムーネは以下の通り。	りんせつするこむーねわいかのとーり。	NO_LABEL
フィーノ・モルナスコには、以下の分離集落がある。	ふぃーのもるなすこにわ、いかのぶんりしゅーらくがある。	NO_LABEL
