アギシュムバは、紀元2世紀中葉、クラウディオス・プトレマイオスの『地理学』において、アフリカのサブサハラにあると言及された土地。	NO_PRONOUNCE	NO_LABEL
プトレマイオスが提示した地理座標に基づく地図を参照すると、ヌビアを除くスーダンのほぼ全域がアギシュムバとされ、人の住む世界「エクメーネ」の南西端に位置する広大な領域である。	NO_PRONOUNCE	NO_LABEL
プトレマイオスによると、アギシュムバはフェザーンから南方へ4ヶ月かけて行ったところにあり、サヴァンナの大型動物が棲息し、大きな山がたくさんあるという。	NO_PRONOUNCE	NO_LABEL
プトレマイオスは紀元107年から115年の間に書かれたテュロスのマリノスの地理書を参考にしている。	ぷとれまいおすわきげんひゃくななねんからひゃくじゅうごねんのまにかかれたてゅろすのまりのすのちりしょをさんこーにしている。	NO_LABEL
マリノスにはレプティス・マグナの商人の旅の記録が記載されており、それによると、紀元83年から92年の間にの王がアギシュムバに進軍したという。	まりのすにわれぷてぃすまぐなのしょーにんのたびのきろくがきさいされており、それによると、きげんはちじゅうさんねんからきゅうじゅうにねんのまにのおーがあぎしゅむばにしんぐんしたという。	NO_LABEL
ガラマンテス王の軍事行動の目的は、アギシュムバの反抗的な属領に威を示し、進貢関係を再構築しようとしたものと考えられる。	がらまんてすおーのぐんじこうどーのもくてきわ、あぎしゅむばのはんこーてきなぞくりょーにいをしめし、しんこーかんけいをさいこーちくしようとしたものとかんがえられる。	NO_LABEL
後の歴史家は、アギシュムバの位置をティベスティ山地やアイル山地、チャド湖近辺などに比定しようと試みたがうまくいっていない。	ごのれきしかわ、あぎしゅむばのいちをてぃべすてぃさんちやあいるさんち、ちゃどこきんぺんなどにひていしようとこころみたがうまくいっていない。	NO_LABEL
アラブとの交易以前にもトリポリ、フェザーン、、チャド湖をつなぐサハラ交易が盛んであったことがわかっており、プトレマイオスの記述にも明らかであるため、この地をチャド湖東南域に比定する説が一定の説得力を持つ。	NO_PRONOUNCE	NO_LABEL
しかしながら、チャド湖近辺には高い山がなく、プトレマイオスの「名もない大きな山がたくさんある」という記述にはあてはまらない。	NO_PRONOUNCE	NO_LABEL
なお、さらに古い時代の歴史家によると、アギシュムバがフェニキア人の影響を受けて中央スーダンに成立した国であることが示唆され、チャド湖東南域説をとる場合、アラビア語で書かれた地理書で「カネム王国」として言及される国の前身であると見なしうるかもしれない。	NO_PRONOUNCE	NO_LABEL
