成田 弘毅は、山口放送の男性アナウンサー。	なりたこーきわ、やまぐちほーそーのだんせいあなうんさー。	NO_LABEL
福岡県糟屋郡出身。	ふくおかけんかすやぐんしゅっしん。	NO_LABEL
関西大学卒業後、2014年に山口放送に入社。	かんさいだいがくそつぎょーご、にせんじゅうよねんにやまぐちほーそーににゅーしゃ。	NO_LABEL
入社後、毎週火曜日の「熱血テレビ」に出演。	NO_PRONOUNCE	NO_LABEL
毎週水曜日の「お昼はZENKAI ラヂオな時間」でメインパーソナリティーを歴任。	NO_PRONOUNCE	NO_LABEL
2015年9月からは熱血テレビ内コーナーで「成田こーきと申します」という自身のコーナーを担当。	NO_PRONOUNCE	NO_LABEL
コーナーではガラポンによる抽選で、山口県内の市町に訪れ、自身の名刺を1万枚配る企画を行っていた。	NO_PRONOUNCE	NO_LABEL
現在は、山口放送朝の情報番組「さわやかモーニング」でメインキャスターを、「なりカル!」という自身のアニメ・ゲーム等のサブカル系バラエティ番組のパーソナリティを担当している。	NO_PRONOUNCE	NO_LABEL
2017年7月、海と日本プロジェクトinやまぐちの推進志士に任命される。	にせんじゅうななねんしちがつ、うみとにっぽんぷろじぇくといんやまぐちのすいしんししににんめいされる。	NO_LABEL
