『AKIBA'S BEAT』は、アクワイアのゲームソフト。	NO_PRONOUNCE	NO_LABEL
2016年12月15日にPlayStation 4版が発売された。	にせんじゅうろくねんじゅーにがつじゅうごにちにぷれいすてーしょんふぉーばんがはつばいされた。	NO_LABEL
2017年4月27日にPlayStation Vita版が発売された。	NO_PRONOUNCE	NO_LABEL
2011年に発売された『AKIBA'S TRIP』より始まる、アクワイアの『AKIBA'S』シリーズのひとつ。	NO_PRONOUNCE	NO_LABEL
今作は『ディバインゲート』のメインスタッフであったディレクター・高野康太とイラストレーター・UCMMを主軸として製作されている。	NO_PRONOUNCE	NO_LABEL
「リアルに再現された秋葉原の街が舞台」というシリーズの基本コンセプトを継承しつつも世界観設定は本作オリジナルのものへ一新されており、ゲームジャンルも『AKIBA'S』シリーズおよびアクワイアの開発タイトルとしては初となるアクションRPGとなっている。	NO_PRONOUNCE	NO_LABEL
作品テーマは「終わらない日曜日」と「侵食する妄想」。	NO_PRONOUNCE	NO_LABEL
の３種類がある。	のさんしゅるいがある。	NO_LABEL
