CoCoバスとは、東京都小金井市で運行するコミュニティバスである。	ここばすとわ、とーきょーとこがねいしでうんこーするこみゅにてぃばすである。	NO_LABEL
小型バスを使用する経路の他に、ワゴン車を使用した乗合タクシーに近い形態の「CoCoバス・ミニ」が運行されている。	NO_PRONOUNCE	NO_LABEL
現在5路線が運行されており、小型バスを使用する北東部循環・貫井前原循環・東町循環・中町循環の4路線は京王バス中央・府中営業所が、ワゴン車を使用するCoCoバス・ミニ野川・七軒家循環はつくば観光交通が運行受託している。	NO_PRONOUNCE	NO_LABEL
小金井市内の交通空白地帯の解消と、交通弱者の交通権確保のため、2003年の北東部循環路線を皮切りに運行が開始され、現在5路線が運行されている。	NO_PRONOUNCE	NO_LABEL
うち1路線は、マイクロバスでも対応できない狭隘区間への対応のためワゴン車による運行となっており、「CoCoバス・ミニ」の愛称がある。	NO_PRONOUNCE	NO_LABEL
「CoCoバス」の愛称は市民から公募されたもので、小金井市のCo、コミュニティバスのCo、心の通うバスを掛けている。	NO_PRONOUNCE	NO_LABEL
多くのコミュニティバスと同様、停留所には停留所番号が付されているが、CoCoバスでは2009年に東町循環ルートに「東町四丁目西交差点」停留所が新設された際、枝番の付いた停留所番号となっている。	NO_PRONOUNCE	NO_LABEL
また、起点停留所の停留所番号は「0」になっているが、例外として中町循環ルートでは途中経由地の武蔵小金井駅南口も他の発着ルートに合わせて「0」になっており、本来の起点である新小金井駅と二重付番になっている。	NO_PRONOUNCE	NO_LABEL
おとな・こどもとも100円均一。	NO_PRONOUNCE	NO_LABEL
現金と専用の回数券のみが使用できる。	げんきんとせんよーのかいすーけんのみがしよーできる。	NO_LABEL
PASMO・Suicaは利用不可で、バス共通カードは当初から対応していない。	NO_PRONOUNCE	NO_LABEL
東京都シルバーパスでの乗車は不可。	とーきょーとしるばーぱすでのじょーしゃわふか。	NO_LABEL
武蔵小金井駅南口では再開発事業が進められており、それにより2009年3月19日から中央線南側の3ルートでルート変更が行われた。	NO_PRONOUNCE	NO_LABEL
武蔵小金井駅・東小金井駅間の中央線北側を反時計回りに周回する経路。	NO_PRONOUNCE	NO_LABEL
武蔵小金井駅南口を起点とし、前原町・貫井南町を通り東八道路まで行き、ほぼ同じルートで武蔵小金井駅南口に戻る経路。	NO_PRONOUNCE	NO_LABEL
貫井南センター入口→貫井団地→貫井南センター入口間が反時計回りのループになっている。	NO_PRONOUNCE	NO_LABEL
ループ区間で市外を通り、市外区間にも停留所が設置されている。	るーぷくかんでしがいをとーり、しがいくかんにもていりゅーじょがせっちされている。	NO_LABEL
東小金井駅南口を起点とし、新小金井駅を経由して東町を時計回りに周回する経路。	ひがしこがねいえきみなみぐちをきてんとし、しんこがねいえきをけいゆしてあずままちをとけいまわりにしゅーかいするけいろ。	NO_LABEL
2009年12月12日より、「東町四丁目西交差点」停留所を新設した。	NO_PRONOUNCE	NO_LABEL
新小金井駅と小金井街道の間を、連雀通り・農工大通りを通り、8の字状に周回する経路。	NO_PRONOUNCE	NO_LABEL
2009年3月19日から、武蔵小金井駅南口新ロータリー開設に伴い、武蔵小金井駅南口を通るようになった。	にせんきゅうねんさんがつじゅうきゅうにちから、むさしこがねいえきみなみぐちしんろーたりーかいせつにともない、むさしこがねいえきみなみぐちをとーるよーになった。	NO_LABEL
武蔵小金井駅南口から武蔵野公園方面のはけの道などを通り、8の字状に周回する経路。	NO_PRONOUNCE	NO_LABEL
急な坂や幅の狭い道路があるため、通常のマイクロバスでなくワゴン車を使用して運行する「CoCoバス・ミニ」となっている。	NO_PRONOUNCE	NO_LABEL
このため、立ち席は設定されていない。	このため、たちせきわせっていされていない。	NO_LABEL
なお、このルートに限ってCoCoバス回数券は利用不可。	なお、このるーとにかぎってここばすかいすーけんわりよーふか。	NO_LABEL
小金井桜のイメージを象徴する桜色の塗色に、CoCoバスのカラフルなロゴマークを配したデザインの専用車両である。	こがねいざくらのいめーじをしょーちょーするさくらいろのとしょくに、ここばすのからふるなろごまーくをはいしたでざいんのせんよーしゃりょーである。	NO_LABEL
スタジオジブリデザインの小金井市マスコットキャラクター「こきんちゃん」のステッカーも貼られている。	NO_PRONOUNCE	NO_LABEL
リエッセとハイエースは、環境配慮としてCNG車を導入している。	りえっせとはいえーすわ、かんきょーはいりょとしてしーえぬじーしゃをどーにゅーしている。	NO_LABEL
2013年10月には、2003年のCoCoバス運行開始時から運用されてきたリエッセ3台が、新車のポンチョに置き換えられた。	NO_PRONOUNCE	NO_LABEL
さらに2015年9月には、2005年の路線新設時に追加導入されたリエッセ4台も、新車のポンチョに置き換えられ、リエッセでの運行は終了した。	NO_PRONOUNCE	NO_LABEL
