藤沢 文翁は、英国でデビューした日本人の劇作家、演出家、プロデューサー、作詞家である。	ふじさわぶんおきなわ、えいこくででびゅーしたにっぽんじんのげきさっか、えんしゅつか、ぷろでゅーさー、さくしかである。	NO_LABEL
ロンドン大学ゴールドスミス・カレッジ演劇学部卒業。	ろんどんだいがくごーるどすみすかれっじえんげきがくぶそつぎょー。	NO_LABEL
藤沢朗読劇　原作・脚本・演出	NO_PRONOUNCE	NO_LABEL
能楽・喜多流理事	NO_PRONOUNCE	NO_LABEL
祖父は本田宗一郎と共に本田技研工業を世界的な大企業に育て上げた藤沢武夫	そふわほんだそーいちろーとともにほんだぎけんこーぎょーをせかいてきなだいきぎょーにそだてあげたふじさわたけお	NO_LABEL
藤澤家は代々結城藩の御典医の家系であったが、幕末の藤澤道庵が早世したため医術の継承は途絶えた。	ふじさわかわだいだいゆーきはんのごてんいのかけいであったが、ばくまつのふじさわみちあんがそーせいしたためいじゅつのけいしょーわとだえた。	NO_LABEL
祖父の藤沢武夫は本田宗一郎と本田技研工業を起業している。	そふのふじさわたけおわほんだそーいちろーとほんだぎけんこーぎょーをきぎょーしている。	NO_LABEL
ダイエーの中内功など一族に財界人が多い。	だいえーのなかうちいさおなどいちぞくにざいかいじんがおーい。	NO_LABEL
ちなみに、藤沢武夫が作った「役員の子弟はHONDAに入社させない」という規則により、藤沢文翁をはじめ一族は誰一人として本田技研に入社しておらず、また自動車関連の仕事もしていない。	NO_PRONOUNCE	NO_LABEL
両親は離婚しており、藤澤は母方の姓である。	りょーしんわりこんしており、ふじさわわははかたのせいである。	NO_LABEL
父方の姓は冨士であり、先祖は富士浅間神社の宮司であった富士信忠とされる。	ちちかたのせいわふじであり、せんぞわふじせんげんじんじゃのぐーじであったふじのぶただとされる。	NO_LABEL
遠戚に三井八郎右衛門高公、浅野総一郎、常陸宮正仁、津軽義孝、昭和天皇、今上天皇などがいる。	えんせきにみついはちろーうえもんだかおーやけ、あさのそういちろー、ひたちのみやせいじ、つがるよしたか、しょーわてんのー、きんじょーてんのーなどがいる。	NO_LABEL
1976年4月19日、港区六本木でHONDA創業家一族として生まれる。	せんきゅうひゃくななじゅうろくねんしがつじゅうきゅうにち、みなとくろっぽんぎでほんだそーぎょーけいちぞくとしてうまれる	NO_LABEL
幼少期は晩年の藤沢武夫に預けられて育ち、啓明学園高校卒業後、20代で渡仏。	よーしょーきわばんねんのふじさわたけおにあずけられてそだち、けいめいがくえんこーこーそつぎょーご、にじゅうだいでとふつ。	NO_LABEL
パリのBassano通りにあった母親の家に移住し、パリで演劇を学んだ後、英国へ渡り、ロイヤル・ホロウェイにてファンデーションコースを修了。	NO_PRONOUNCE	NO_LABEL
ゴールドスミス・カレッジ演劇学部を卒業。	ごーるどすみすかれっじえんげきがくぶをそつぎょー。	NO_LABEL
ロンドン大学から演劇学の学士号を取得。	ろんどんだいがくからえんげきがくのがくしごーをしゅとく。	NO_LABEL
2005年、英国King's Head Theatreにてオリジナル作品HYPNAGOGIAを上演、劇作家・演出家としてデビュー。	NO_PRONOUNCE	NO_LABEL
2007年　帰国。	にせんななねんきこく。	NO_LABEL
日本での活動を開始。	にっぽんでのかつどーをかいし。	NO_LABEL
劇作家の傍ら日本テレビの日本史サスペンス劇場に藤沢大介名義で歴史監修・脚本家として参加している。	NO_PRONOUNCE	NO_LABEL
2009年より藤沢朗読劇と呼ばれる音楽朗読劇プロジェクトを開始。	にせんきゅうねんよりふじさわろーどくげきとよばれるおんがくろーどくげきぷろじぇくとをかいし。	NO_LABEL
新感覚・音楽朗読劇SOUND THEATRE創設。	NO_PRONOUNCE	NO_LABEL
2015年3月からアクロス エンタテインメントに所属。	にせんじゅうごねんさんがつからあくろすえんたていんめんとにしょぞく。	NO_LABEL
同年、プロダクションIGと「アニメーションに特化した」音楽朗読劇Theatrical-Liveを設立	NO_PRONOUNCE	NO_LABEL
2016年9月 - 東宝とのコラボレーションでクリエ プレミアム音楽朗読劇　VOICARION設立。	NO_PRONOUNCE	NO_LABEL
SOUND THEATRE脱退を表明。	NO_PRONOUNCE	NO_LABEL
2017年5月、能楽・喜多流の理事に就任。	NO_PRONOUNCE	NO_LABEL
同年、ソニー・ミュージックエンタテインメントとコラボレーションで「3.5次元朗読劇」としてREADING HIGH設立	NO_PRONOUNCE	NO_LABEL
2018年１月、山路和弘が藤沢文翁原作『江戸怪奇譚～ムカサリ～』の演技に対して、第59回毎日芸術賞を受賞。	NO_PRONOUNCE	NO_LABEL
2018年２月２７日　公益社団法人日本演劇興行協会より「従来の朗読劇の概念を打ち破る藤沢朗読劇を確立した」として助成金を授与される。	NO_PRONOUNCE	NO_LABEL
2018年5月　BUN-O FUJISAWA OFFICIAL FAN CLUB 「B.B.TEDDY CLUB」発足	NO_PRONOUNCE	NO_LABEL
現在、朗読劇を中心に活動しており、ゲームのシナリオやアニメ、落語などを手がける劇作家である。	げんざい、ろーどくげきをちゅーしんにかつどーしており、げーむのしなりおやあにめ、らくごなどをてがけるげきさっかである。	NO_LABEL
「朗読劇創作の第一人者」とされ、藤沢朗読劇とも評される独特の音楽朗読劇を上演している。	NO_PRONOUNCE	NO_LABEL
客席に風や煙を送り込んだり、劇場によっては本物の炎を使用するなど、派手な演出が持ち味であり、東京国際フォーラムのホールAや舞浜アンフィシアターなど大規模劇場を使用することが多い。	NO_PRONOUNCE	NO_LABEL
東宝,ソニー・ミュージックエンタテインメント、プロダクション・アイジー主催の作品を数多く手がけている。	NO_PRONOUNCE	NO_LABEL
フランスのパリで遊学した後、英国のロンドン大学を卒業しており英語話者であり、	ふらんすのぱりでゆーがくしたのち、えいこくのろんどんだいがくをそつぎょーしておりえいごわしゃであり、	NO_LABEL
ロンドン大学の学位を有している。	ろんどんだいがくのがくいをゆーしている。	NO_LABEL
ヨーロッパで教育を受けているものの日本文化にも造形が深く、能楽・喜多流の理事を務め、津軽三味線奏者　吉田良一郎の弟子でもある。	NO_PRONOUNCE	NO_LABEL
舞台に興味を持つきっかけとなったのは、祖父藤沢武夫が幼い藤沢をオペラや歌舞伎に連れ回していたこと、さらに死ぬ直前のクリスマスプレゼントでムソルグスキーの歌劇「ボリス・ゴドゥノフ」のチケットを与えられたことと語っている。	NO_PRONOUNCE	NO_LABEL
一般的に演劇では演出助手という職があるが「イギリスには演出助手という文化がなかったので、使い方が分からない」という理由で採用していない。	NO_PRONOUNCE	NO_LABEL
自身の舞台の出演者とはその後も仲良くなることが多く。	じしんのぶたいのしゅつえんしゃとわそのごもなかよくなることがおーく。	NO_LABEL
デビュー当時から出演を重ねている山寺宏一や林原めぐみと食事に行く様子は度々SNSに上げられている。	でびゅーとーじからしゅつえんをかさねているやまでらこういちやはやしばらめぐみとしょくじにいくよーすわたびたびえすえぬえすにあげられている。	NO_LABEL
また音楽監督として藤沢朗読劇に参加している吉田良一郎に津軽三味線を師事しており師弟関係にある。	またおんがくかんとくとしてふじさわろーどくげきにさんかしているよしだりょういちろーにつがるしゃみせんをしじしておりしていかんけいにある。	NO_LABEL
他にも石井正則、朴璐美、井上和彦、沢城みゆき、諏訪部順一、平田弘明、紫吹淳など「飲み仲間」として、業界を超えて広い交友関係を持つ。	NO_PRONOUNCE	NO_LABEL
音楽朗読劇。	おんがくろーどくげき。	NO_LABEL
自らが英国から持ち帰った朗読手法と、日本古来の話芸である落語や常磐津、声優文化、オペラやミュージカルの手法を混ぜ合わせた「藤沢朗読劇」と呼ばれる独特の朗読スタイルで、2009年から取り組んでいる。	NO_PRONOUNCE	NO_LABEL
ナレーションを用いず、テンポの速いやりとりの中で観客の想像力を刺激する手法を持ち味としている。	なれーしょんをもちいず、てんぽのはやいやりとりのなかでかんきゃくのそーぞーりょくをしげきするしゅほーをもちあじとしている。	NO_LABEL
題材もサスペンスや歴史ファンタジーなど、エンターテインメント性に富んだものを選ぶ傾向にある。	だいざいもさすぺんすやれきしふぁんたじーなど、えんたーていんめんとせいにとんだものをえらぶけいこーにある。	NO_LABEL
福岡ユタカや吉田良一郎など、ジャンルを問わず様々なミュージシャンを音楽監督に抜擢することでも知られる。	ふくおかゆたかやよしだりょういちろーなど、じゃんるをとわずさまざまなみゅーじしゃんをおんがくかんとくにばってきすることでもしられる。	NO_LABEL
「香り」「音楽」「言葉」そして、「爆発」や「炎」などの特殊効果を駆使した「手に汗握る朗読劇」をテーマに『SOUND THEATRE』を創設した。	NO_PRONOUNCE	NO_LABEL
芸術監督には映像作家で公家の近衛忠大が就任していた。	げいじゅつかんとくにわえいぞーさっかでくげのこのえただひろがしゅーにんしていた。	NO_LABEL
2017年現在は近衛忠大、藤沢文翁、共に脱退している。	にせんじゅうななねんげんざいわこのえただひろ、ふじさわぶんおー、ともにだったいしている。	NO_LABEL
東宝クリエプレミア音楽朗読劇。	とーほーくりえぷれみあおんがくろーどくげき。	NO_LABEL
東宝が「至極の声」と考えるキャストにのみを選定している。	NO_PRONOUNCE	NO_LABEL
Production I.G主催。	ぷろだくしょんあいじーしゅさい。	NO_LABEL
東映アニメーション他各社と組んだ、音楽朗読劇。	とーえいあにめーしょんたかくしゃとくんだ、おんがくろーどくげき。	NO_LABEL
2017年に発足したソニー・ミュージックエンタテインメントとコラボレーション企画で、3.5次元のエンターテインメント。	NO_PRONOUNCE	NO_LABEL
太字を藤沢文翁が担当。	ふとじをふじさわぶんおーがたんとー。	NO_LABEL
出演者など詳細の無い公演については作品記事を参照のこと。	しゅつえんしゃなどしょーさいのむいこーえんについてわさくひんきじをさんしょーのこと。	NO_LABEL
2012年	にせんじゅうにねん	NO_LABEL
2013年	にせんじゅうさんねん	NO_LABEL
2014年-2015年	NO_PRONOUNCE	NO_LABEL
2013年	にせんじゅうさんねん	NO_LABEL
2015年	にせんじゅうごねん	NO_LABEL
2016年	にせんじゅうろくねん	NO_LABEL
2017	NO_PRONOUNCE	NO_LABEL
認定NPO法人シャイン・オン・キッズの活動に参加し、ファシリティドッグの普及活動をしている。	NO_PRONOUNCE	NO_LABEL
2011年3月11日の東日本大震災を機に自らが演出する舞台で「チャリティーオークション」を行ない、その後「みやぎびっきの会」の復興支援アルバムに朗読を提供したりしている。	NO_PRONOUNCE	NO_LABEL
近衞忠大と共に、日本の伝統文化を見つめ直すイベントに参加する一方で、近年では、自身が財界で育った知識と、舞台人としての経験を融合させ「ビジネスで役立つ演出家・脚本家のスキル」を社員研修や講習会として行っている。	NO_PRONOUNCE	NO_LABEL
studio canbria　など	NO_PRONOUNCE	NO_LABEL
執事 西園寺の名推理	しつじさいおんじのめいすいり	NO_LABEL
※年の記載は賞の対象年。	NO_PRONOUNCE	NO_LABEL
