タイラー・クリストファーは、カナダ・出身で短距離走が専門の元陸上競技選手。	NO_PRONOUNCE	NO_LABEL
400mでは屋外と室内のカナダ記録保持者。	よんひゃくめーとるでわおくがいとしつないのかなだきろくほじしゃ。	NO_LABEL
2005年ヘルシンキ世界選手権男子400mの銅メダリスト、2008年バレンシア世界室内選手権男子400mの金メダリストである。	にせんごねんへるしんきせかいせんしゅけんだんしよんひゃくめーとるのどーめだりすと、にせんはちねんばれんしあせかいしつないせんしゅけんだんしよんひゃくめーとるのきんめだりすとである。	NO_LABEL
2005年5月22日に400mで44秒72のカナダ新記録を樹立し、2001年にがマークした44秒86を更新した。	NO_PRONOUNCE	NO_LABEL
2005年8月12日のヘルシンキ世界選手権男子400m決勝で44秒44のカナダ新記録を樹立し、ジェレミー・ウォリナー、に次ぐ3位に入り銅メダルを獲得した。	NO_PRONOUNCE	NO_LABEL
これは女子も含め、400mでカナダ勢が獲得した初のメダルとなった。	これわじょしもふくめ、よんひゃくめーとるでかなだぜいがかくとくしたはつのめだるとなった。	NO_LABEL
2008年2月16日に室内の400mで45秒80の新カナダ記録を樹立し、1995年にがマークした46秒73を更新した。	NO_PRONOUNCE	NO_LABEL
2008年3月9日のバレンシア世界室内選手権男子400m決勝で45秒67のカナダ新記録を樹立し、ヨハン・ウィスマン、クリス・ブラウンらに競り勝ち金メダルを獲得した。	NO_PRONOUNCE	NO_LABEL
これは、この種目においてカナダ勢が獲得した初のメダルとなった。	これわ、このしゅもくにおいてかなだぜいがかくとくしたはつのめだるとなった。	NO_LABEL
2011年に現役を引退した。	にせんじゅういちねんにげんえきをいんたいした。	NO_LABEL
記録欄の内の数字は風速で、+は追い風を意味する。	NO_PRONOUNCE	NO_LABEL
備考欄の記録は当時のもの	びこーらんのきろくわとーじのもの	NO_LABEL
