画像処理において、ガウシアンぼかし (ガウスぼかし、ガウシアンブラー、ガウシアンフィルター、ガウスフィルター、Gaussian Blur）とは、ガウス関数をもちいて画像をぼかす処理である。	NO_PRONOUNCE	NO_LABEL
デジタルカメラの撮像画像などからノイズを除去したり、アンシャープマスク処理、エッジ抽出の前処理などに応用できる。	でじたるかめらのさつぞーがぞーなどからのいずをじょきょしたり、あんしゃーぷますくしょり、えっじちゅーしゅつのぜんしょりなどにおーよーできる。	NO_LABEL
標準偏差 のガウシアンぼかしとは、 次元の入力画像 に対し 次元ガウス関数	ひょーじゅんへんさのがうしあんぼかしとわ、じげんのにゅーりょくがぞーにたいしじげんがうすかんすー	NO_LABEL
の畳み込み和	のたたみこみわ	NO_LABEL
formula_3	NO_PRONOUNCE	NO_LABEL
をとることである。	をとることである。	NO_LABEL
ガウシアンぼかしを得る最も単純な方法は畳み込み行列を用いることである。	がうしあんぼかしをえるもっともたんじゅんなほーほーわたたみこみぎょーれつをもちいることである。	NO_LABEL
ガウス関数は中心から離れるにしたがって値が小さくなるので、 程度で打ち切って行列をつくればよい。	がうすかんすーわちゅーしんからはなれるにしたがってねがちーさくなるので、ていどでうちきってぎょーれつをつくればよい。	NO_LABEL
"n"次元ガウス関数は、"n"個の1次元ガウス関数の直積によって表される。	NO_PRONOUNCE	NO_LABEL
この性質から、各方向に一度ずつガウスぼかしをかけることでも同じ結果を得ることができる。	このせいしつから、かくほーこーにいちどずつがうすぼかしをかけることでもおなじけっかをえることができる。	NO_LABEL
これによりピクセルあたりの計算量をformula_4からformula_5とできぼかし処理を高速化できる。	NO_PRONOUNCE	NO_LABEL
中心極限定理により、他の等方的なぼかし処理を繰り返し適用することでガウシアンぼかしを近似する結果を得ることもできる。	ちゅーしんきょくげんていりにより、たのひとしかたてきなぼかししょりをくりかえしてきよーすることでがうしあんぼかしをきんじするけっかをえることもできる。	NO_LABEL
