『昭和ひとけた社長対ふたけた社員 月月火水木金金』は、1971年10月30日に東宝系で公開された日本映画。	NO_PRONOUNCE	NO_LABEL
カラー。	からー。	NO_LABEL
シネマスコープ。	しねますこーぷ。	NO_LABEL
『社長シリーズ』の小林桂樹版の続編。	NO_PRONOUNCE	NO_LABEL
昭和元年生まれの奈良田が明治生まれの高松会長のもと社長として昭和ふたけた世代の若手社員たちとぶつかりながらも奮闘していく姿を描く続編。	しょーわがんねんうまれのならだがめいじうまれのたかまつかいちょーのもとしゃちょーとしてしょーわふたけたせだいのわかてしゃいんたちとぶつかりながらもふんとーしていくすがたをえがくぞくへん。	NO_LABEL
本作を持って東宝サラリーマン喜劇は終焉を迎えた。	もとさくをもってとーほーさらりーまんきげきわしゅーえんをむかえた。	NO_LABEL
さらに前後して、同年1月公開の『若大将対青大将』をもって『若大将シリーズ』が終結、そして同年12月公開の『日本一のショック男』をもってクレージー映画も終結し、既に1969年に終結した『駅前シリーズ』を含めて、東宝4大喜劇シリーズが総崩れとなった。	NO_PRONOUNCE	NO_LABEL
主演の小林桂樹の著書『役者六十年』によると、翌年の1972年にも社長シリーズ作品を公開する計画があったという。	NO_PRONOUNCE	NO_LABEL
『出所祝い』	NO_PRONOUNCE	NO_LABEL
