リュスティックは、フランスパンの一種。	りゅすてぃっくわ、ふらんすぱんのいっしゅ。	NO_LABEL
パン生地の水分量が多いため、ベタつき、成形するのが難しいため、生地を分割したそのままの形で整形せずに二次発酵させ、焼成する。	ぱんきじのすいぶんりょうがおーいため、べたつき、せいけいするのがむずかしいため、きじをぶんかつしたそのままのかたちでせいけいせずににじはっこーさせ、しょーせいする。	NO_LABEL
このため形が不定形である。	このためかたちがふていけいである。	NO_LABEL
リュスティックとはフランス語で「田舎風」という意味で、レイモン・カルヴェルが復古的なレシピとして創作したパンの一つである。	NO_PRONOUNCE	NO_LABEL
