大阪市立野里小学校は、大阪府大阪市西淀川区にある公立小学校。	おーさかしりつのざとしょうがっこーわ、おーさかふおーさかしにしよどがわくにあるこーりつしょーがっこー。	NO_LABEL
1920年に西成郡香簑第二尋常小学校として、香簑尋常高等小学校から分離開校した。	せんきゅうひゃくにじゅうねんににしなりぐんこーみのだいにじんじょーしょうがっこーとして、こーみのじんじょーこーとーしょうがっこーからぶんりかいこーした。	NO_LABEL
学校所在地周辺は、明治時代初期までは西成郡野里村となっていた。	がっこーしょざいちしゅーへんわ、めいじじだいしょきまでわにしなりぐんのざとむらとなっていた。	NO_LABEL
学制発布を受け、野里村には1874年2月、西成郡第五区第六番小学校が野里村多聞寺に設置された。	がくせいはっぷをうけ、のざとむらにわせんはっぴゃくななじゅうよねんにがつ、にしなりぐんだいごくだいろくばんしょーがっこーがのざとむらたもんじにせっちされた。	NO_LABEL
しかしこの時の野里小学校は程なく、御幣島村の田簑小学校へ統合されて廃止された。	しかしこのときののざとしょうがっこーわほどなく、みてじまむらのたみのしょーがっこーえとーごーされてはいしされた。	NO_LABEL
大正時代に入り、地域が住宅地や工業地帯へと変化していったことで児童が増加したため、1916年には野里に香蓑尋常高等小学校の分校が設置された。	たいしょーじだいにはいり、ちいきがじゅーたくちやこーぎょーちたいえとへんかしていったことでじどーがぞーかしたため、せんきゅうひゃくじゅうろくねんにわのざとにこーみのじんじょーこーとーしょうがっこーのぶんこーがせっちされた。	NO_LABEL
分校を基盤とする形で、香蓑尋常高等小学校の通学区域から大字野里を分離し、1920年に西成郡香簑第二尋常小学校が開校した。	ぶんこーをきばんとするかたちで、こーみのじんじょーこーとーしょうがっこーのつーがくくいきからだいじのざとをぶんりし、せんきゅうひゃくにじゅうねんににしなりぐんこーみのだいにじんじょーしょうがっこーがかいこーした。	NO_LABEL
なお香蓑第二校の開校に伴い、従来の香蓑校は香蓑第一校へ改称している。	なおこーみのだいにこーのかいこーにともない、じゅーらいのこーみのこーわこーみのだいいちこーえかいしょーしている。	NO_LABEL
開校当初は現在の住吉神社北西に位置したが、1928年に現在地に移転している。	かいこーとーしょわげんざいのすみよしじんじゃほくせいにいちしたが、せんきゅうひゃくにじゅうはちねんにげんざいちにいてんしている。	NO_LABEL
歌島村は1925年に大阪市に編入された。	うたじまむらわせんきゅうひゃくにじゅうごねんにおーさかしにへんにゅーされた。	NO_LABEL
編入と同時に高等科を併設し、大阪市野里尋常高等小学校へと改称した。	へんにゅーとどーじにこーとーかをへいせつし、おーさかしのざとじんじょーこーとーしょうがっこーえとかいしょーした。	NO_LABEL
1941年には国民学校令の実施により、大阪市野里国民学校と称した。	せんきゅうひゃくよんじゅういちねにわこくみんがっこーれいのじっしにより、おーさかしのざとこくみんがっこーとしょーした。	NO_LABEL
昭和時代初期には野里と姫島にまたがる一帯について、「姫ノ里」として区画整理事業が実施された。	NO_PRONOUNCE	NO_LABEL
区画整理事業で宅地化したことで野里・姫島両校の児童が増加したことや、姫ノ里地域とは阪神国道で隔てられたことで登下校時の交通面での不安が指摘され、1943年には野里・姫島両校の校区を再編し、姫ノ里地域を校区とする大阪市姫里国民学校が開校した。	NO_PRONOUNCE	NO_LABEL
姫里校の開校に伴い、従来の校区のうち阪神国道以西を姫里校の校区に変更している。	ひめさとこーのかいこーにともない、じゅーらいのこーくのうちはんしんこくどーいせいをひめさとこーのこーくにへんこーしている。	NO_LABEL
太平洋戦争に伴い、大阪市の国民学校では1944年以降、初等科児童の学童集団疎開が実施されることになった。	たいへいよーせんそーにともない、おーさかしのこくみんがっこーでわせんきゅうひゃくよんじゅうよねんいこー、しょとーかじどーのがくどーしゅーだんそかいがじっしされることになった。	NO_LABEL
疎開先の府県は各行政区ごとに割り当てられ、西淀川区の国民学校では徳島県および香川県へ疎開することになった。	そかいさきのふけんわかくぎょーせいくごとにわりあてられ、にしよどがわくのこくみんがっこーでわとくしまけんおよびかがわけんえそかいすることになった。	NO_LABEL
野里国民学校では徳島県板野郡住吉村・藍園村、応神村への疎開を実施した。	NO_PRONOUNCE	NO_LABEL
1947年の学制改革により、大阪市立野里小学校となった。	せんきゅうひゃくよんじゅうななねのがくせいかいかくにより、おーさかしりつのざとしょうがっこーとなった。	NO_LABEL
1950年代には戦災復興やベビーブームの影響で児童数が増加し、二部授業を実施していた。	せんきゅうひゃくごじゅうねんだいにわせんさいふっこーやべびーぶーむのえいきょーでじどーすーがぞーかし、にぶじゅぎょーをじっししていた。	NO_LABEL
学校過密化を解消するため、1960年に歌島町に分校を設置した。	がっこーかみつかをかいしょーするため、せんきゅうひゃくろくじゅうねんにうたじままちにぶんこーをせっちした。	NO_LABEL
分校は1965年に大阪市立歌島小学校として独立し、従来の校区のうち淀川北岸線以北を歌島小学校の校区に変更している。	ぶんこーわせんきゅうひゃくろくじゅうごねんにおーさかしりつうたじましょうがっこーとしてどくりつし、じゅーらいのこーくのうちよどがわほくがんせんいほくをうたじましょーがっこーのこーくにへんこーしている。	NO_LABEL
