Google TalkBackとは、Googleによって開発された、視覚障がい者向けのスクリーンリーダーアプリケーションである。	NO_PRONOUNCE	NO_LABEL
Android向けに提供されている。	あんどろいどむけにていきょーされている。	NO_LABEL
Google TalkBackは、視覚障がい者によるアクセシビリティが可能になるよう、音声読み上げを中心としたいくつかの機能を有している。	NO_PRONOUNCE	NO_LABEL
画面に触れた場所の音声を読み上げたり、スワイプによる選択項目の移動、マルチタッチによるスクロールなどがある。	がめんにふれたばしょのおんせいをよみあげたり、すわいぷによるせんたくこーもくのいどー、まるちたっちによるすくろーるなどがある。	NO_LABEL
これらの操作の補助として、ジェスチャー操作で呼び出すローカルコンテキストメニューを搭載する。	これらのそーさのほじょとして、じぇすちゃーそーさでよびだすろーかるこんてきすとめにゅーをとーさいする。	NO_LABEL
音声読み上げを行うには、標準のGoogle テキスト読み上げエンジンか、サードパーティ製の音声合成エンジンが利用できる。	おんせいよみあげをおこなうにわ、ひょーじゅんのぐーぐるてきすとよみあげえんじんか、さーどぱーてぃせいのおんせいごーせいえんじんがりよーできる。	NO_LABEL
