香港の教育として、この項目では香港における教育を解説する。	ほんこんのきょーいくとして、このこーもくでわほんこんにおけるきょーいくをかいせつする。	NO_LABEL
香港の教育においては無償の義務教育が実施されており、香港の全域に公立または補助金を受けている私立学校が存在する。	ほんこんのきょーいくにおいてわむしょーのぎむきょーいくがじっしされており、ほんこんのぜんいきにこーりつまたわほじょきんをうけているしりつがっこーがそんざいする。	NO_LABEL
義務教育は、初等教育および、前期中等教育の合計12年間または13年間である。	ぎむきょーいくわ、しょとーきょーいくおよび、ぜんきちゅーとーきょーいくのごーけいじゅうにねんかんまたわじゅうさんねんかんである。	NO_LABEL
香港の学年は9月に始まり、翌年7月までで1年とする。	ほんこんのがくねんわくがつにはじまり、よくねんしちがつまででいちねんとする。	NO_LABEL
2学期制であり、第1学期は9月から1月まで、第2学期は2月から7月までとなっている。	にがっきせいであり、だいいちがっきわくがつからいちがつまで、だいにがっきわにがつからしちがつまでとなっている。	NO_LABEL
2008年度まで教育制度はイギリス植民地時代からの方式を取り入れたもので、小学校6年と中学前期課程3年を含む義務教育が合計9年、その後の中学後期課程2年、大学予科2年、大学3年となっていた。	にせんはちねんどまできょーいくせいどわいぎりすしょくみんちじだいからのほーしきをとりいれたもので、しょーがっこーろくねんとちゅーがくぜんきかていさんねんをふくむぎむきょーいくがごーけいきゅうねん、そのごのちゅーがくこーきかていにねん、だいがくよかにねん、だいがくさんねんとなっていた。	NO_LABEL
学制改革により2009年度から実施された「新教育制度」は、義務教育の9年間はそのままで、中学後期課程を3年、大学を4年とする「六三三四制」と呼ばれるもので、日本と同じ。	NO_PRONOUNCE	NO_LABEL
2009年度の高校入学者から適用となり、2012年9月に最初の「四年制大学」の入学者が誕生する。	NO_PRONOUNCE	NO_LABEL
新教育制度の大学入試は中国語、英語、数学、通識教育の基本4科目と、選択科目2～3科目で実施される予定。	NO_PRONOUNCE	NO_LABEL
選択科目を要求しないとしている大学もあるが、受験するのが文系であっても数学は必須という。	せんたくかもくをよーきゅーしないとしているだいがくもあるが、じゅけんするのがぶんけいであってもすーがくわひっすという。	NO_LABEL
2009年度から「六三三四制」になったため、2011年度から予科課程が廃止される予定で、従来の予科課程へ進学するための試験「香港中學會考」や、大学へ進学するための「香港高級程度會考」を受けて入学資格を得ている人は、大学或いは専門学校などへ進学する場合、改めて「香港中學文憑考試」という試験を受け、合格しないと進学することができない。	NO_PRONOUNCE	NO_LABEL
現在の香港の学校教育において必修の科目とされているものに、以下がある。	げんざいのほんこんのがっこーきょーいくにおいてひっしゅーのかもくとされているものに、いかがある。	NO_LABEL
私立の保育所や幼稚園が就学前教育や団体生活の機会を与えている。	しりつのほいくしょやよーちえんがしゅーがくぜんきょーいくやだんたいせいかつのきかいをあたえている。	NO_LABEL
6-12歳までの6年間。	NO_PRONOUNCE	NO_LABEL
香港の中等教育は初級中学と高級中学の二段階であり、高級中学までが義務教育である。	ほんこんのちゅーとーきょーいくわしょきゅーちゅーがくとこーきゅーちゅーがくのにだんかいであり、こーきゅーちゅーがくまでがぎむきょーいくである。	NO_LABEL
香港の中学校のうち、約20％は英語で教育を行い、約80％は中国語で教育を行っている。	NO_PRONOUNCE	NO_LABEL
英語で教育を行う中学校は、「英文中学」、「英中」、「EMI学校」などと呼ばれるが、中国語、中国史は中国語で授業を行うが、その他の科目はすべて英語で授業を行い、教科書も英語で書かれているものを用いる。	NO_PRONOUNCE	NO_LABEL
厳密には、1997年以降の香港政府の教育署の認可を得て英語で教育を行う、中一から中三までの3年教育の学校をいう。	げんみつにわ、せんきゅうひゃくきゅうじゅうなないこーのほんこんせいふのきょーいくしょのにんかをえてえいごできょーいくをおこなう、なかいちからなかさんまでのさんねんきょーいくのがっこーをいう。	NO_LABEL
英語で教育を受けると、国際社会での活動の幅が広がると考えられる反面、科学技術用語なども英語で習うことになるため、中国語または広東語でどういうか知らなかったり、日常生活で知っている事項も英語の単語の意味がわからないために理解が進まなかったりする弊害もあるため、「母語教育（）」を提唱することも行われている。	NO_PRONOUNCE	NO_LABEL
中国語で教育を行う中学校は、「中文中学」、「中中」、「母語教学中学」などと呼ばれる。	NO_PRONOUNCE	NO_LABEL
広東語または普通話で授業が行われるが、広東語で授業を行う学校でも、中国語や中国史の授業では普通話を使うことがほとんどである。	かんとんごまたわふつーわでじゅぎょーがおこなわれるが、かんとんごでじゅぎょーをおこなうがっこーでも、ちゅーごくごやちゅーごくしのじゅぎょーでわふつーわをつかうことがほとんどである。	NO_LABEL
政府から大学奨学金を贈与される学生は、年間20,000人に満たないため、結果として多くの学生が外国の大学に留学している。	NO_PRONOUNCE	NO_LABEL
政府認可を受けた法定大学が8校ある。	NO_PRONOUNCE	NO_LABEL
1911年に創立された香港初の総合大学であり、香港の最高学府である香港大学や、1963年に3学院の合併により設立された香港中文大学が国際的に著名である。	NO_PRONOUNCE	NO_LABEL
長らく、香港の大学は、この2校だけであった。	NO_PRONOUNCE	NO_LABEL
その後、1984年に香港城市大学、1991年に香港科技大学、1994年に香港理工大学と香港浸会大学、1999年に嶺南大学が誕生した。	そのご、せんきゅうひゃくはちじゅうよねんにほんこんじょーしだいがく、せんきゅうひゃくきゅうじゅういちねんにほんこんかぎだいがく、せんきゅうひゃくきゅうじゅうよねんにほんこんりこーだいがくとほんこんひたかいだいがく、せんきゅうひゃくきゅうじゅうきゅうねんにれいなんだいがくがたんじょーした。	NO_LABEL
新設された香港科技大学以外は、いずれも既存の「学院」からの昇格である。	NO_PRONOUNCE	NO_LABEL
この他、市民大学である香港公開大学がある。	このほか、しみんだいがくであるほんこんこーかいだいがくがある。	NO_LABEL
さらに、2006年12月、樹仁学院が正式な大学への昇格を認可され、香港初の私立大学である香港樹仁大学となった。	さらに、にせんろくねんじゅーにがつ、みきとよがくいんがせいしきなだいがくえのしょーかくをにんかされ、ほんこんはつのしりつだいがくであるほんこんじゅじんだいがくとなった。	NO_LABEL
2016年5月、香港教育学院が正式な大学への昇格を認可され、香港教育大学になった。	にせんじゅうろくねんごがつ、ほんこんきょーいくがくいんがせいしきなだいがくえのしょーかくをにんかされ、ほんこんきょーいくだいがくになった。	NO_LABEL
大学以外の高等教育機関としては、法定学院が1校、認可専上学院が9校ある。	NO_PRONOUNCE	NO_LABEL
また、2000年から「副学士」制度が導入された。	NO_PRONOUNCE	NO_LABEL
アメリカのコミュニティー・カレッジが授与する準学士や日本の短期大学士に相当するが、香港では大学などが実施する2年もしくは3年のコースとして実施されている。	あめりかのこみゅにてぃーかれっじがじゅよするじゅんがくしやにっぽんのたんきだいがくしにそーとーするが、ほんこんでわだいがくなどがじっしするにねんもしくわさんねんのこーすとしてじっしされている。	NO_LABEL
香港の教育は暗記だけの「詰め込み教育」に偏りがちで、これまでの教育制度を見直したものの、知識偏重と批判されている。	NO_PRONOUNCE	NO_LABEL
また、批判的思考力が欠けていると指摘されている。	また、ひはんてきしこーりょくがかけているとしてきされている。	NO_LABEL
2007年、香港政府教育局は教育改革を行い、教育方針を改めた。	にせんななねん、ほんこんせいふきょーいくきょくわきょーいくかいかくをおこない、きょーいくほーしんをあらためた。	NO_LABEL
教育局は「九種の共通能力」と「四つのキーポイント」という概念を発表した。	NO_PRONOUNCE	NO_LABEL
「九種の共通能力」とは以下をいう：	NO_PRONOUNCE	NO_LABEL
「四つのキーポイント」とは以下をいう：　	NO_PRONOUNCE	NO_LABEL
中国語：	NO_PRONOUNCE	NO_LABEL
