二宮　美穂8月22日 - ）は、日本の柔道選手。	NO_PRONOUNCE	NO_LABEL
熊本県菊池郡大津町出身。	くまもとけんきくちぐんおおずまちしゅっしん。	NO_LABEL
身長167cm、体重95kg。	しんちょーひゃくろくじゅうななせんちめーとる、たいじゅーきゅうじゅうごきろぐらむ。	NO_LABEL
得意技は大内刈。	とくいわざわおーうちがり。	NO_LABEL
中学生の時に柔道を始めて、熊本県立阿蘇高等学校に入学後は全国大会でも活躍するようになり日本体育大学体育学部武道学科に進学。	ちゅーがくせいのときにじゅーどーをはじめて、くまもとけんりつあそこーとーがっこーににゅーがくごわぜんこくたいかいでもかつやくするよーになりにほんたいいくだいがくたいーくがくぶぶどーがっかにしんがく。	NO_LABEL
1995年の福岡国際では日本選手がそれまでなかなか勝てなかった中国の張穎を破り2位に入った。	せんきゅうひゃくきゅうじゅうごねんのふくおかこくさいでわにっぽんせんしゅがそれまでなかなかかてなかったちゅーごくのちょーえいをやぶりにーにはいった。	NO_LABEL
1997年の全日本選手権では高校時代からのライバルである阿武教子を実に11度目の対戦にして初めて破り、優勝を果たした。	せんきゅうひゃくきゅうじゅうななのぜんにほんせんしゅけんでわこーこーじだいからのらいばるであるあんののりこをじつにじゅういちどめのたいせんにしてはじめてやぶり、ゆーしょーをはたした。	NO_LABEL
世界選手権では2階級で代表になり、72kg超級では準決勝でオリンピックチャンピオンである中国の孫福明を見事な体落で破り、決勝でも地元フランスのクリスティーヌ・シコに技ありを奪ってリードしていたが、逆転負けを喫して2位に終わった。	せかいせんしゅけんでわにかいきゅーでだいひょーになり、ななじゅうにきろぐらむちゃおじーでわじゅんけっしょーでおりんぴっくちゃんぴおんであるちゅーごくのそんふくめいをみごとなたいおとしでやぶり、けっしょーでもじもとふらんすのくりすてぃーぬしこにわざありをうばってりーどしていたが、ぎゃくてんまけをきっしてにーにおわった。	NO_LABEL
さらに無差別でも3位に入り2階級でメダルを獲得した。	さらにむさべつでもさんいにはいりにかいきゅーでめだるをかくとくした。	NO_LABEL
1999年の全日本選手権では準々決勝で阿武に1－2の微妙な旗判定で敗れ3連覇はならなかった。	NO_PRONOUNCE	NO_LABEL
しかし世界選手権では前回に引き続いて2階級でメダルを獲得した。	しかしせかいせんしゅけんでわぜんかいにひきつずいてにかいきゅーでめだるをかくとくした。	NO_LABEL
このように実績から言えば当然シドニーオリンピック代表に一番近い存在であったが、世界選手権以降のオリンピック代表選考試合では悉く敗れ去り、その時点で最も勢いのあった山下まゆみにオリンピック代表の座を譲る格好となった。	このよーにじっせきからいえばとーぜんしどにーおりんぴっくだいひょーにいちばんちかいそんざいであったが、せかいせんしゅけんいこーのおりんぴっくだいひょーせんこーしあいでわことごとくやぶれさり、そのじてんでもっともいきおいのあったやましたまゆみにおりんぴっくだいひょーのざをゆずるかっこーとなった。	NO_LABEL
引退後は出身道場である誠道館船山塾の指導者となった。	いんたいごわしゅっしんどーじょーであるせいどーかんふなやまじゅくのしどーしゃとなった。	NO_LABEL
なお、現役時代はベンチプレスで180kgを記録したという。	なお、げんえきじだいわべんちぷれすでひゃくはちじゅうきろぐらむをきろくしたという。	NO_LABEL
