石川県庁舎は、石川県金沢市鞍月にある、広域自治体である石川県の庁舎の総称。	いしかわけんちょーしゃわ、いしかわけんかなざわしくらつきにある、こーいきじちたいであるいしかわけんのちょーしゃのそーしょー。	NO_LABEL
行政庁舎、警察本部庁舎、議会庁舎から構成される。	ぎょーせいちょーしゃ、けいさつほんぶちょーしゃ、ぎかいちょーしゃからこーせいされる。	NO_LABEL
2代目の石川県庁舎は1924年に国会議事堂の設計に携わった矢橋賢吉の設計による。	にだいめのいしかわけんちょーしゃわせんきゅうひゃくにじゅうよねんにこっかいぎじどーのせっけいにたずさわったやばしけんきちのせっけいによる。	NO_LABEL
レンガ造りを施した3階建の鉄筋コンクリート構造で、第2次世界大戦の戦災を免れて長らく石川県のランドマークに位置付けられてきた。	れんがずくりをほどこしたさんかいけんのてっきんこんくりーとこうぞーで、だいにじせかいたいせんのせんさいをまぬかれてながらくいしかわけんのらんどまーくにいちずけられてきた。	NO_LABEL
しかし、2代目庁舎が築70年以上が経ち老朽化が顕著になり、庁舎の移転構想が持ち上がるようになる。	しかし、にだいめちょーしゃがちくななじゅうねんいじょーがたちろーきゅーかがけんちょになり、ちょーしゃのいてんこーそーがもちあがるよーになる。	NO_LABEL
その後、1992年6月に県庁移転に関する基本構想特別委員会が設置され、1993年4月に石川県庁に移転対策室が設置されることになる。	そのご、せんきゅうひゃくきゅうじゅうにねんろくがつにけんちょーいてんにかんするきほんこーそーとくべついーんかいがせっちされ、せんきゅうひゃくきゅうじゅうさんねんしがつにいしかわけんちょーにいてんたいさくしつがせっちされることになる。	NO_LABEL
1996年3月に、石川県庁移転の基本構想がまとまり、1999年11月に金沢市南新保町に庁舎を着工することになった。	せんきゅうひゃくきゅうじゅうろくねんさんがつに、いしかわけんちょーいてんのきほんこーそーがまとまり、せんきゅうひゃくきゅうじゅうきゅうねんじゅーいちがつにかなざわしみなみしんぼまちにちょーしゃをちゃっこーすることになった。	NO_LABEL
新県庁舎の特徴は県民に広く開放されている点にある。	しんけんちょーしゃのとくちょーわけんみんにひろくかいほーされているてんにある。	NO_LABEL
敷地内に緑地帯を設けて、庁舎閉庁日でも気軽に入りやすくしている。	しきちないにりょくちたいをもーけて、ちょーしゃへいちょーびでもきがるにはいりやすくしている。	NO_LABEL
また、行政庁舎19階には展望ロビーと喫茶「展望」が設置され、金沢市内を全方向から見渡すことができる。	NO_PRONOUNCE	NO_LABEL
