ヘスス・フリアン・ルセンド・エレディアは、アンドラ出身の元サッカー選手、現サッカー指導者。	NO_PRONOUNCE	NO_LABEL
アンドラ代表であった。	あんどらだいひょーであった。	NO_LABEL
現役時代のポジションはDF・MF。	NO_PRONOUNCE	NO_LABEL
数多くのクラブでプレーした。	すーおーくのくらぶでぷれーした。	NO_LABEL
1989-90シーズンにはFCバルセロナのトップチームでも1試合に出場した。	NO_PRONOUNCE	NO_LABEL
2003年11月、膝の怪我により引退した。	にせんさんねんじゅーいちがつ、ひざのけがによりいんたいした。	NO_LABEL
2006年より母国のFCレンジャーズの監督を務めている。	にせんろくねんよりぼこくのえふしーれんじゃーずのかんとくをつとめている。	NO_LABEL
|1996||1||0	NO_PRONOUNCE	NO_LABEL
!通算||29||3	NO_PRONOUNCE	NO_LABEL
