大幸南は、愛知県名古屋市東区の地名。	だいこーみなみわ、あいちけんなごやしひがしくのちめい。	NO_LABEL
大幸南一丁目と大幸南二丁目がある。	だいこーみなみいっちょーめとだいこーみなみにちょーめがある。	NO_LABEL
郵便番号は461-0047。	NO_PRONOUNCE	NO_LABEL
当地域の人口は705世帯・1253人。	NO_PRONOUNCE	NO_LABEL
住居表示実施。	じゅーきょひょーじじっし。	NO_LABEL
名古屋市東区東部に位置する。	なごやしひがしくとーぶにいちする。	NO_LABEL
東は砂田橋一丁目・千種区、西は矢田南三丁目・矢田南四丁目、南は千種区・前浪町、北は大幸に接する。	NO_PRONOUNCE	NO_LABEL
国勢調査による人口の推移	こくせいちょうさによるじんこーのすいい	NO_LABEL
大幸の南側に位置することによる。	だいこーのみなみがわにいちすることによる。	NO_LABEL
