ナオリュウは、日本の女性シンガーソングライター・J-POP歌手・ギタリスト・フルート奏者・作詞家・作曲家・編曲家。	NO_PRONOUNCE	NO_LABEL
福井県鯖江市生まれ。	ふくいけんさばえしうまれ。	NO_LABEL
東京都在住。	とーきょーとざいじゅー。	NO_LABEL
ルーパー日本チャンピオン、世界大会で2位を受賞。	るーぱーにっぽんちゃんぴおん、せかいたいかいでにーをじゅしょー。	NO_LABEL
2003年THEATRE BROOK中條卓氏プロデュースでデビュー。	NO_PRONOUNCE	NO_LABEL
その後、ルーパーと出会い、世界2位を受賞。	そのご、るーぱーとであい、せかいにーをじゅしょー。	NO_LABEL
