ヨハンナ・ベルタ・ユリー・イェニー・フォン・ヴェストファーレンまたはイェニー・マルクス（）は、ドイツの思想家カール・マルクスの妻である。	NO_PRONOUNCE	NO_LABEL
父は、検事総長を務めた貴族。	ちちわ、けんじそうちょーをつとめたきぞく。	NO_LABEL
イェニーはマルクスの姉の友人で、マルクスとも幼なじみであった。	いぇにーわまるくすのあねのゆーじんで、まるくすともおさななじみであった。	NO_LABEL
1836年、マルクスと婚約。	せんはっぴゃくさんじゅうろくねん、まるくすとこんやく。	NO_LABEL
1843年6月結婚、同年10月パリに移住。	せんはっぴゃくよんじゅうさんねんろくがつけっこん、どーねんじゅーがつぱりにいじゅー。	NO_LABEL
1844年5月、長女ジェニーを出産。	せんはっぴゃくよんじゅうよんねんごがつ、ちょーじょじぇにーをしゅっさん。	NO_LABEL
1845年9月、二女ラウラを出産。	せんはっぴゃくよんじゅうごねんくがつ、じじょらうらをしゅっさん。	NO_LABEL
1847年1月、長男エドガーを出産。	せんはっぴゃくよんじゅうななねんいちがつ、ちょーなんえどがーをしゅっさん。	NO_LABEL
1849年8月、ロンドンに永住。	せんはっぴゃくよんじゅうきゅうねはちがつ、ろんどんにえいじゅー。	NO_LABEL
同年9月、二男ヘンリー・エドワード・ガイを出産したが、翌1850年11月夭折。	NO_PRONOUNCE	NO_LABEL
1851年3月、三女フランチェスカを出産したが、翌1852年4月夭折。	せんはっぴゃくごじゅういちねんさんがつ、さんじょふらんちぇすかをしゅっさんしたが、よくせんはっぴゃくごじゅうにねんしがつよーせつ。	NO_LABEL
この頃から数年間、一家は極貧生活を送った。	このころからすーねんかん、いっかわごくひんせいかつをおくった。	NO_LABEL
1855年1月、四女エリノアを出産。	せんはっぴゃくごじゅうごねんいちがつ、よんじょえりのあをしゅっさん。	NO_LABEL
同年4月、長男エドガー夭折。	どーねんしがつ、ちょーなんえどがーよーせつ。	NO_LABEL
1881年12月2日、肝癌のため死去、享年67。	NO_PRONOUNCE	NO_LABEL
1883年1月、長女ジェニー死去。	せんはっぴゃくはちじゅうさんねんいちがつ、ちょーじょじぇにーしきょ。	NO_LABEL
同年3月14日、マルクス死去。	どーねんさんがつじゅうよっか、まるくすしきょ。	NO_LABEL
夫妻はロンドンのハイゲイト墓地に葬られている。	ふさいわろんどんのはいげいとぼちにほーむられている。	NO_LABEL
