「ひとり上手」は、中島みゆきの9作目のシングル。	NO_PRONOUNCE	NO_LABEL
1980年10月21日にキャニオン・レコードよりリリース。	せんきゅうひゃくはちじゅうねんじゅーがつにじゅういちにちにきゃにおんれこーどよりりりーす。	NO_LABEL
1981年発売の8作目のアルバム『臨月』の先行シングル曲で、40万枚以上を売り上げ、中島の代表的楽曲になっている。	NO_PRONOUNCE	NO_LABEL
1985年頃からは、中島みゆきがラジオ・パーソナリティを務めていた『中島みゆきのオールナイトニッポン』内での1コーナーのタイトル及びジングルとして使用されていた。	NO_PRONOUNCE	NO_LABEL
オリジナル7インチシングル盤のジャケットは冬の北海道日高海岸で-20℃の酷寒の中撮影された。	おりじなるなないんちしんぐるばんのじゃけっとわふゆのほっかいどーひだかかいがんでまいなすにじゅうどしーのこっかんのちゅーさつえいされた。	NO_LABEL
歌詞は中島直筆のものが印刷されている。	かしわなかじまじきひつのものがいんさつされている。	NO_LABEL
