美咲 華菜、1978年12月19日 - ）は、日本の元女子プロレスラー。	NO_PRONOUNCE	NO_LABEL
身長164cm、体重63kg、血液型O型。	しんちょーひゃくろくじゅうよんせんちめーとる、たいじゅーろくじゅうさんきろぐらむ、けつえきがたおーがた。	NO_LABEL
東京都練馬区出身。	とーきょーとねりまくしゅっしん。	NO_LABEL
最美摔角手	NO_PRONOUNCE	NO_LABEL
1995年1月13日、千葉公園体育館において、対小林智美戦でデビュー。	せんきゅうひゃくきゅうじゅうごねんいちがつじゅうさんにち、ちばこーえんたいいくかんにおいて、たいこばやしともみせんででびゅー。	NO_LABEL
同期にはその小林の他、久住智子、宮口知子、天野理恵子、倉垣靖子、宮崎有妃がいる。	どーきにわそのこばやしのほか、ひさずみさとこ、みやぐちともこ、あまのりえこ、くらがきやすこ、みやざきゆきがいる。	NO_LABEL
アイドルレスラーとしてJWPの顔的存在となり活躍するが、両膝の負傷などから2001年7月29日ディファ有明における対日向あずみ、倉垣翼、カルロス天野戦戦をもって引退。	あいどるれすらーとしてじぇいだぶりゅーぴーのかおてきそんざいとなりかつやくするが、りょーひざのふしょーなどからにせんいちねんしちがつにじゅうきゅうにちでぃふぁありあけにおけるたいひゅうがあずみ、くらがきつばさ、かるろすあまのせんせんをもっていんたい。	NO_LABEL
6年半の現役生活を終えた。	ろくねんはんのげんえきせいかつをおえた。	NO_LABEL
私設ファンクラブ「本谷香名子応援部隊PureHoppe」が存在した。	NO_PRONOUNCE	NO_LABEL
名前の由来は、JWPのイメージコピーである「PURE HEART PURE WRESTLING」の「Pure」と、彼女のトレードマークである“ほっぺた”の「Hoppe」から命名された。	NO_PRONOUNCE	NO_LABEL
JWPオフィシャルからも、非公式ではあるが認められた存在のファンクラブであった。	じぇいだぶりゅーぴーおふぃしゃるからも、ひこーしきでわあるがみとめられたそんざいのふぁんくらぶであった。	NO_LABEL
本部は当時JWP代表であった山本雅俊氏の故郷である徳島にあり、ほかに主な活動拠点であった東京支部があった。	ほんぶわとーじじぇいだぶりゅーぴーだいひょーであったやまもとまさとししのこきょーであるとくしまにあり、ほかにおもなかつどーきょてんであったとーきょーしぶがあった。	NO_LABEL
