『捜査官ジーナ』は1992年に制作され、1993年に放映されたアメリカ合衆国のテレビ映画。	NO_PRONOUNCE	NO_LABEL
実際に起こった事件を基に作られている。	じっさいにおこったじけんをもとにつくられている。	NO_LABEL
日本においてテレビ放映された際は、『潜入捜査官ジーナ 美しき囮』や『ダークネス 狙われた女捜査官』の邦題が使われた。	NO_PRONOUNCE	NO_LABEL
新米婦人警察官ジーナは小さな町の小さな部署、リバーサイド警察署に勤めていた。	しんまいふじんけいさつかんじーなわちーさなまちのちーさなぶしょ、りばーさいどけいさつしょにつとめていた。	NO_LABEL
ある日、行方不明になった子供の遺体が森で発見される。	あるひ、おもかたしれずになったこどものいたいがもりではっけんされる。	NO_LABEL
事件現場に男がいたという目撃証言が得られ、その男の似顔絵を世間に公表したところ、昔行方不明になった息子と仲良くしていた男にそっくりだと名乗る夫妻が現れた。	じけんげんばにおとこがいたとゆうもくげきしょーげんがえられ、そのおとこのにがおえをせけんにこーひょーしたところ、むかしおもかたしれずになったむすことなかよくしていたおとこにそっくりだとなのるふさいがあらわれた。	NO_LABEL
男の名はカイル・ティムラー。	NO_PRONOUNCE	NO_LABEL
証拠を掴む為、ジーナは自身に盗聴器を仕掛け、おとり捜査を開始する。	しょーこをつかむため、じーなわじしんにとーちょーきをしかけ、おとりそーさをかいしする。	NO_LABEL
彼女の演技も功を奏し、カイルは徐々に心を開き事件の真相を打ち明け始めるが、同時に彼女もまた自身の暗い過去をさらけ出してしまう。	かのじょのえんぎもこーをそーし、かいるわじょじょにこころをひらきじけんのしんそーをうちあけはじめるが、どーじにかのじょもまたじしんのくらいかこをさらけだしてしまう。	NO_LABEL
