ソーダブレッドとは、膨張剤としてイースト菌の代わりに炭酸水素ナトリウムを用いたクイックブレッドの一種である。	そーだぶれっどとわ、ぼーちょーざいとしていーすときんのかわりにたんさんすいそなとりうむをもちいたくいっくぶれっどのいちしゅである。	NO_LABEL
伝統的なソーダブレッドの材料は、小麦粉、炭酸水素ナトリウム、食塩、バターミルクである。	でんとーてきなそーだぶれっどのざいりょーわ、こむぎこ、たんさんすいそなとりうむ、しょくえん、ばたーみるくである。	NO_LABEL
レーズン、鶏卵、様々なナッツ等が加えられることもある。	れーずん、けいらん、さまざまななっつとーがくわえられることもある。	NO_LABEL
ドウの中のバターミルクに含まれる乳酸は、炭酸水素ナトリウムと反応して二酸化炭素の小さな泡を作る。	どうのなかのばたーみるくにふくまれるにゅーさんわ、たんさんすいそなとりうむとはんのーしてにさんかたんそのちーさなあわをつくる。	NO_LABEL
アイルランドでは、小麦粉として薄力粉が用いられ、グルテンの多いパンに比べてケーキに近い食感を持つ。	あいるらんどでわ、こむぎことしてはくりきこがもちいられ、ぐるてんのおーいぱんにくらべてけーきにちかいしょっかんをもつ。	NO_LABEL
アイルランド中で、様々な種類のソーダブレッドが好まれている。	あいるらんどちゅーで、さまざまなしゅるいのそーだぶれっどがこのまれている。	NO_LABEL
ソーダブレッドは、全粒粉を使ったものも精白粉を使ったものもある。	そーだぶれっどわ、ぜんりゅーこをつかったものもせいはくこをつかったものもある。	NO_LABEL
アルスターでは、全粒粉を使ったものは"wheaten bread"と呼ばれ、通常甘い味が付けられている。	NO_PRONOUNCE	NO_LABEL
"soda bread"という言葉は精白粉を使ったものに限られる。	NO_PRONOUNCE	NO_LABEL
さらに南部では、全粒粉のものはbrown sodaとして知られる。	NO_PRONOUNCE	NO_LABEL
ソーダブレッドは、ローフかまたは"griddle cake"という形に作られることが多い。	NO_PRONOUNCE	NO_LABEL
ローフは球形に作られ、パンの上部が十字にカットされる。	ろーふわきゅーけいにつくられ、ぱんのじょーぶがじゅーじにかっとされる。	NO_LABEL
"griddle cake"はアルスターではfarlと呼ばれ、平たいタイプである。	NO_PRONOUNCE	NO_LABEL
鉄板で調理され、四隅から裂いて食べられる。	てっぱんでちょーりされ、よすみからさいてたべられる。	NO_LABEL
ダンパーはオーストラリアの伝統的なソーダブレッドで、アイルランドからの移民によって持ち込まれたと考えられている。	だんぱーわおーすとらりあのでんとーてきなそーだぶれっどで、あいるらんどからのいみんによってもちこまれたとかんがえられている。	NO_LABEL
ソーダブレッドの歴史は、炭酸水素ナトリウムがアイルランドに伝来した1840年頃に遡る。	そーだぶれっどのれきしわ、たんさんすいそなとりうむがあいるらんどにでんらいしたせんはっぴゃくよんじゅうねんごろにさかのぼる。	NO_LABEL
ソーダブレッドの十字の切れ目の重要性については、いくつかの説がある。	そーだぶれっどのじゅーじのきれめのじゅーよーせいについてわ、いくつかのせつがある。	NO_LABEL
この十字は悪魔を避けるためや妖精を追い出すためと信じられている。	このじゅーじわあくまをさけるためやよーせいをおいだすためとしんじられている。	NO_LABEL
しかし、実際はパンがよく膨らむように空気を循環させるためであると考えられる。	しかし、じっさいわぱんがよくふくらむよーにくーきをじゅんかんさせるためであるとかんがえられる。	NO_LABEL
またスライスする際の目安としても役に立っている。	またすらいすするさいのめやすとしてもやくにたっている。	NO_LABEL
ソーダブレッドはいつしかアイルランドの主食となり、現在でも国中の家庭で広く作られている。	そーだぶれっどわいつしかあいるらんどのしゅしょくとなり、げんざいでもくになかのかていでひろくつくられている。	NO_LABEL
アイルランドの朝食では、紅茶とポークソーセージまたはマーマレードを添えたブラウンブレッドが良く食べられる。	あいるらんどのちょーしょくでわ、こーちゃとぽーくそーせーじまたわまーまれーどをそえたぶらうんぶれっどがよくたべられる。	NO_LABEL
ソーダブレッドは、アルスターのフル・ブレックファストの重要な要素となっている。	そーだぶれっどわ、あるすたーのふるぶれっくふぁすとのじゅーよーなよーそとなっている。	NO_LABEL
