鳥形駅は、秋田県能代市坂形字鳥形にある、東日本旅客鉄道五能線の駅である。	とりがたえきわ、あきたけんのしろしさかがたじとりがたにある、ひがしにほんりょかくてつどーごのーせんのえきである。	NO_LABEL
能代市にあるが八峰町との境に近い。	のしろしにあるがはっぽうちょーとのさかいにちかい。	NO_LABEL
昭和35年開業と比較的新しい駅で設備は簡便である。	しょーわさんじゅうごねんかいぎょーとひかくてきあたらしいえきでせつびわかんべんである。	NO_LABEL
単式ホーム1面1線を有する地上駅である。	NO_PRONOUNCE	NO_LABEL
駅舎はないがホーム上に待合所がある。	えきしゃわないがほーむじょーにまちあいじょがある。	NO_LABEL
能代駅管理の無人駅。	のしろえきかんりのむじんえき。	NO_LABEL
あたりは田園地帯である。	あたりわでんえんちたいである。	NO_LABEL
