足利 義量は、室町時代中期の室町幕府第5代征夷大将軍- 応永32年2月27日）。	NO_PRONOUNCE	NO_LABEL
父は第4代将軍・足利義持で嫡男。	NO_PRONOUNCE	NO_LABEL
母は日野資康の娘で義持の正室の日野栄子で応永14年7月24日に生まれた。	ははわひのすけやすのむすめでよしもちのせいしつのひのえいしでおおえじゅうよんねんしちがつにじゅうよっかにうまれた。	NO_LABEL
応永24年12月1日、義持が加冠して元服し、正五位下右近衛中将に任じられた。	おおえにじゅうよんねんじゅーにがつついたち、よしもちがかかんしてげんぷくし、しょうごいのげうこんえちゅうじょーににんじられた。	NO_LABEL
義持は嫡子の義量をかなり寵愛していたようで、義持の参詣や参籠、遊覧の時にはほとんどにおいて義量は同行していたという。	よしもちわちゃくしのよしかずをかなりちょーあいしていたよーで、よしもちのさんけいやさんかご、ゆーらんのときにわほとんどにおいてよしかずわどーこーしていたという。	NO_LABEL
応永30年1月1日、義持・義量父子は朝廷に参内し、それから畠山満家、斯波義淳、細川満元らの屋敷にそれぞれ渡御している事から、この年初から義量への将軍職譲渡への根回しが行なわれていたと推測されている。	NO_PRONOUNCE	NO_LABEL
3月9日には9日後に義量の将軍宣下を行なうように申し入れており、3月18日、17歳で父から将軍職を譲られて第5代将軍に就任した。	さんがつここのかにわここのかごによしかずのしょーぐんせんげをおこなうよーにもーしいれており、さんがつじゅうはちにち、じゅうななさいでちちからしょーぐんしょくをゆずられてだいごだいしょーぐんにしゅーにんした。	NO_LABEL
就任の日には諸大名が、3月20日には僧俗が群参して馬や太刀を献上して祝ったという。	しゅーにんのひにわしょだいみょーが、さんがつはつかにわそーぞくがぐんさんしてうまやたちをけんじょーしていわったという。	NO_LABEL
応永31年10月13日には参議に任命されて廟堂に列した。	おおえさんじゅういちねんじゅーがつじゅうさんにちにわさんぎににんめいされてびょーどーにれつした。	NO_LABEL
大御所となった義持はまだ38歳であり、これは自らが父の義満に早くに将軍職を譲られた例を踏襲したとされている。	おーごしょとなったよしもちわまださんじゅうはっさいであり、これわみずからがちちのよしみつにはやくにしょーぐんしょくをゆずられたれいをとーしゅーしたとされている。	NO_LABEL
義量は疱瘡を患うなど生来から病弱であった上、大酒飲みでさらに健康を悪くしたと言われている。	よしかずわほーそーをわずらうなどせいらいからびょーじゃくであったうえ、だいさけのみでさらにけんこーをわるくしたといわれている。	NO_LABEL
15歳の時、父の義持に大酒を戒められ、近臣は義量に酒を勧めないよう起請文をとられたという話なども伝えられている。	じゅうごさいのとき、ちちのよしもちにおーざけをいましめられ、きんしんわよしかずにさけをすすめないよーきしょーもんをとられたとゆうはなしなどもつたえられている。	NO_LABEL
幕政においても隠居していた義持や有力管領らの存在もあって実権は無いに等しかった。	ばくせいにおいてもいんきょしていたよしもちやゆーりょくかんりょーらのそんざいもあってじっけんわむいにひとしかった。	NO_LABEL
死の2、3年ほど前から病を得て様々な治療や祈祷を受けていたが、応永32年2月27日に父に先立って急死した。	NO_PRONOUNCE	NO_LABEL
享年19。	NO_PRONOUNCE	NO_LABEL
義量には嗣子が無く、また義持に他に男子がいなかったため、義持が将軍代行として正長元年に死去するまで政務を執ることになった。	よしかずにわししがなく、またよしもちにたにだんしがいなかったため、よしもちがしょーぐんだいこーとしてしょうなががんねんにしきょするまでせいむをとることになった。	NO_LABEL
栃木県足利市の鑁阿寺が義量の木像を所蔵している。	とちぎけんあしかがしのばんなじがよしかずのもくぞーをしょぞーしている。	NO_LABEL
義量は病弱であったが、義持の実子の中で元服まで存命しているのは彼だけだったため、義持の寵愛はかなりのものだったと伝わる。	よしかずわびょーじゃくであったが、よしもちのじっしのなかでげんぷくまでぞんめいしているのわかれだけだったため、よしもちのちょーあいわかなりのものだったとつたわる。	NO_LABEL
酒飲みに関して起請文を取ったのも、我が子を心配する父親の愛情だったという。	さけのみにかんしてきしょーもんをとったのも、わがこをしんぱいするちちおやのあいじょーだったという。	NO_LABEL
また義量の死は突然だったため、義持が殺害した義量の叔父にあたる義嗣の怨霊のため、あるいは義持が義量に将軍職を譲ってから寺社統制のために石清水八幡宮の神人を数十人殺害しており、その神罰であるとする噂もあった。	またよしかずのしわとつぜんだったため、よしもちがさつがいしたよしかずのおじにあたるよしつぐのおんりょーのため、あるいわよしもちがよしかずにしょーぐんしょくをゆずってからじしゃとーせいのためにいわしみずはちまんぐーのしんじんをかずじゅーにんさつがいしており、そのしんばつであるとするうわさもあった。	NO_LABEL
※日付＝旧暦	NO_PRONOUNCE	NO_LABEL
