Sega VRとはかつてセガが開発していたヘッドマウントディスプレイを使用する仮想現実システム。	NO_PRONOUNCE	NO_LABEL
1993年にコンシューマー・エレクトロニクス・ショーでコンシューマーゲーム機用のヘッドマウントディスプレイと仮想現実システムとして発表された。	せんきゅうひゃくきゅうじゅうさんねんにこんしゅーまーえれくとろにくすしょーでこんしゅーまーげーむきよーのへっどまうんとでぃすぷれいとかそーげんじつしすてむとしてはっぴょーされた。	NO_LABEL
当時のポピュラーサイエンス誌の表紙を飾るなど、仮想現実の実用化の到来を予期させるものだった。	とーじのぽぴゅらーさいえんすしのひょーしをかざるなど、かそーげんじつのじつよーかのとーらいをよきさせるものだった。	NO_LABEL
実機試験が繰り返され、商品化されつつあったものの、健康に与える影響が懸念され、市販には至らなかった。	じっきしけんがくりかえされ、しょーひんかされつつあったものの、けんこーにあたえるえいきょーがけねんされ、しはんにわいたらなかった。	NO_LABEL
当時は技術水準が現在の視点から見れば仮想現実を実現するためには不十分だったものの、バーチャルボーイのように主にゲーム機をはじめとしてアーケードゲームのVirtuality等、各方面で開発が試みられた時代背景がある。	NO_PRONOUNCE	NO_LABEL
また1994年には並行して開発が進められていたVRアトラクション「VR-1 スペースミッション」がジョイポリスに導入された。	NO_PRONOUNCE	NO_LABEL
それらの経験は現在のZERO LATENCY VRやライド型アトラクション・ワイルドツアーシリーズの運営に活用される。	NO_PRONOUNCE	NO_LABEL
