雁屋 哲10月6日 - ）は、日本の漫画原作者、エッセイスト。	NO_PRONOUNCE	NO_LABEL
のりこえねっと共同代表。	のりこえねっときょーどーだいひょー。	NO_LABEL
本名、戸塚 哲也。	ほんみょー、とつかてつや。	NO_LABEL
別名に瀬叩 龍がある。	べつめいにせらたたきりゅーがある。	NO_LABEL
1941年10月6日、当時日本の統治下にあった中華民国北京特別市に誕生。	せんきゅうひゃくよんじゅういちねじゅーがつむいか、とーじにっぽんのとーちかにあったちゅーかみんこくぺきんとくべつしにたんじょー。	NO_LABEL
終戦後に日本に引き揚げ、東京田園調布で育つ。	しゅーせんごににっぽんにひきあげ、とーきょーでんえんちょーふでそだつ。	NO_LABEL
結核性の感染症に冒されて小中学生時代は入退院を繰り返し、医者にかかる機会が多かったことから自らも医師を志望していたが、東大病院の建物の陰気さに嫌悪感を持ち、志望を変更した。	けっかくせいのかんせんしょーにおかされてしょーちゅーがくせいじだいわにゅーたいいんをくりかえし、いしゃにかかるきかいがおーかったことからみずからもいしをしぼーしていたが、とーだいびょーいんのたてもののいんきさにけんおかんをもち、しぼーをへんこーした。	NO_LABEL
東京都立小山台高等学校を経て、東京大学教養学部基礎科学科で量子力学を専攻する。	とーきょーとりつこやまだいこーとーがっこーをへて、とーきょーだいがくきょーよーがくぶきそかがくかでりょーしりきがくをせんこーする。	NO_LABEL
大学生時代につげ義春の『ねじ式』を読み「天地がひっくり返るような衝撃を受ける」。	NO_PRONOUNCE	NO_LABEL
また、「目がくらむような人間だった」とも表現し、つげ義春全集や入手できる限りの著書を所有している。	NO_PRONOUNCE	NO_LABEL
大学入学時は学者志望だったが、大学4年の夏に「大学に残っているより、もっと生々しい人間社会の実態を知りたい」と、大学卒業後に電通へ入社して3年9ヶ月間の会社員生活を送るが、会社組織に順応できず在籍中に漫画原作者として活動を始める。	NO_PRONOUNCE	NO_LABEL
1974年に退社後はフリーランスとして本格的に活動を開始した。	せんきゅうひゃくななじゅうよねんにたいしゃごわふりーらんすとしてほんかくてきにかつどーをかいしした。	NO_LABEL
初期は男性向け雑誌、少年誌などで劇画をメインに原作を手掛け、映画化された作品もある。	しょきわだんせいむけざっし、しょーねんしなどでげきがをめいんにげんさくをてがけ、えいがかされたさくひんもある。	NO_LABEL
1983年にグルメ漫画『美味しんぼ』を花咲アキラの作画で連載を開始した。	NO_PRONOUNCE	NO_LABEL
1988年にオーストラリアのシドニーに移住。	せんきゅうひゃくはちじゅうはちねんにおーすとらりあのしどにーにいじゅー。	NO_LABEL
日本の「食」についてのエッセイも発表している。	NO_PRONOUNCE	NO_LABEL
1972年に阿月田伸也名義で池上遼一とともに講談社『週刊少年マガジン』上で連載開始し、主人公の孤児が競輪で活躍するスポーツ根性を描いた『ひとりぼっちのリン』が初作品である。	NO_PRONOUNCE	NO_LABEL
以後、男性的で反権力的な劇画作品を多く手がけ、屈強な肉体と精神を持つ若者が、人間を蹂躙する腐敗した権力と対決するものが多い。	いご、だんせいてきではんけんりょくてきなげきがさくひんをおーくてがけ、くっきょーなにくたいとせいしんをもつわかものが、にんげんをじゅーりんするふはいしたけんりょくとたいけつするものがおーい。	NO_LABEL
少年誌連載作品では『男組』『男大空』などがある。	NO_PRONOUNCE	NO_LABEL
この時期の青年誌連載作品の代表作である『野望の王国』は、男組から180度転換し、権力を手に入れようとする悪人による暴力と殺戮が中心のピカレスク的内容となり、現在でもカルト的な人気を得ている。	NO_PRONOUNCE	NO_LABEL
本作は2002年に日本文芸社より「完全版」が出版された。	NO_PRONOUNCE	NO_LABEL
雁屋は「完全版」の後書きにて「『野望の王国』は、人間社会を動かしているものの根本は暴力であることを、きれいごとなしに描いたつもりである。	NO_PRONOUNCE	NO_LABEL
」と述べている。	NO_PRONOUNCE	NO_LABEL
雁屋にとって転換点となったのは、『風の戦士ダン』である。	NO_PRONOUNCE	NO_LABEL
従来、漫画家が原作に無い要素を入れる事を好まない雁屋であるが、作画の島本和彦は本作品において原作に無いギャグを入れたのである。	じゅーらい、まんがかがげんさくにないよーそをいれることをこのまないかりやであるが、さくがのしまもとかずひこわほんさくひんにおいてげんさくにないぎゃぐをいれたのである。	NO_LABEL
だが雁屋はそれを面白いとして承諾し、さらには原作執筆時にもギャグを入れるようになった。	だがかりやわそれをおもしろいとしてしょーだくし、さらにわげんさくしっぴつじにもぎゃぐをいれるよーになった。	NO_LABEL
これが暴力漫画一辺倒であった雁屋にとっての転換点となり、『美味しんぼ』のヒットの伏線となる。	NO_PRONOUNCE	NO_LABEL
1983年、『美味しんぼ』を若手漫画家の花咲アキラとのタッグで小学館『ビッグコミックスピリッツ』誌上にて連載開始。	NO_PRONOUNCE	NO_LABEL
作中で東西新聞社が掲載する「究極のメニュー」を描き、究極という言葉が1986年度流行語大賞新語部門で金賞に選ばれた。	NO_PRONOUNCE	NO_LABEL
以後現在に至るまで連載が継続し、単行本の売上は累計1億冊を突破している。	いごげんざいにいたるまでれんさいがけいぞくし、たんこーぼんのうりあげわるいけいいちおくさつをとっぱしている。	NO_LABEL
1987年、第32回小学館漫画賞の青年一般部門を受賞した。	せんきゅうひゃくはちじゅうななね、だいさんじゅうにかいしょーがくかんまんがしょーのせいねんいっぱんぶもんをじゅしょーした。	NO_LABEL
アニメ、ゲーム、テレビドラマ、映画化もされている。	あにめ、げーむ、てれびどらま、えいがかもされている。	NO_LABEL
『美味しんぼ』は、雁屋作品では最長の連載期間・最高の単行本売り上げ部数となり、商業的に成功した漫画である。	NO_PRONOUNCE	NO_LABEL
一方で1980年代後半からは少年誌・青年誌向けの新たな作品を発表していないため、野望の王国に代表される従来のようなバイオレンス漫画の原作者としての活動はほとんど行っていない。	NO_PRONOUNCE	NO_LABEL
そのため『美味しんぼ』の連載以降については、むしろ本作品が雁屋の代表作とされる。	NO_PRONOUNCE	NO_LABEL
後に雁屋がブログを開設する際も、タイトルを「美味しんぼ日記」とし、自らもそれを認めている。	NO_PRONOUNCE	NO_LABEL
ただし、グルメ作家、食通扱いされる事に対しては嫌悪感を示し、作中でも「食通」や「グルメブーム」の虚飾と俗物振りを度々批判している。	NO_PRONOUNCE	NO_LABEL
『美味しんぼ』はグルメ以外にも食の安全や倫理に関する話題を多く取り上げており、そのため戦後の食文化に一石を投じたとして評価されることがある。	NO_PRONOUNCE	NO_LABEL
しかし、作中で実在のメーカーや特定の商品を取り上げて批判することもあり、この手法には反感を持つ人もいる。	しかし、さくちゅーでじつざいのめーかーやとくていのしょーひんをとりあげてひはんすることもあり、このしゅほーにわはんかんをもつひともいる。	NO_LABEL
また、食関係の知識について誤った認識のまま掲載したケースも数例存在し、これに対する批判もある。	また、しょくかんけいのちしきについてあやまったにんしきのままけいさいしたけーすもすーれいそんざいし、これにたいするひはんもある。	NO_LABEL
食文化や、食に絡んだ政治的なテーマを扱うことも多く、『激闘鯨合戦』では、捕鯨とそれに絡む日本文化を紹介しながら「捕鯨は文化である」と訴えた。	NO_PRONOUNCE	NO_LABEL
2009年、自身のブログである「美味しんぼ日記」において、捕鯨妨害活動を行う反捕鯨団体シーシェパードは海賊を通り越して「テロリスト」であると批判し、自衛隊艦船を送り込むのは当然であるとした上で、シーシェパードの拿捕と乗組員の逮捕拘引を主張した。	NO_PRONOUNCE	NO_LABEL
同時に、活動を黙認しているオーストラリア政府も批判した。	どーじに、かつどーをもくにんしているおーすとらりあせいふもひはんした。	NO_LABEL
1990年代後半からは論壇誌『週刊金曜日』上で漫画『蝙蝠を撃て!』『マンガ日本人と天皇』を漫画家・シュガー佐藤とともに執筆し、発表している	NO_PRONOUNCE	NO_LABEL
