D3ビターボは、ドイツの自動車メーカーアルピナが2013年9月より発売したセダンおよびステーションワゴンタイプの高級車である。	でぃーすりーびたーぼわ、どいつのじどーしゃめーかーあるぴながにせんじゅうさんねんくがつよりはつばいしたせだんおよびすてーしょんわごんたいぷのこーきゅーしゃである。	NO_LABEL
D3はBMW・3シリーズをベースとして作成したオリジナルの車である。	NO_PRONOUNCE	NO_LABEL
サイズはアルピナモデルでは一番コンパクトなモデルである。	さいずわあるぴなもでるでわいちばんこんぱくとなもでるである。	NO_LABEL
ボディそのものは3シリーズと共通であり、BMWのエンブレムも付くが、パワートレインは別設計され、大きく「ALPINA」の文字が書かれたエアロパーツやボディ側面のデコライン、特徴的な19インチのホイールが3シリーズとは別物であることを示している。	NO_PRONOUNCE	NO_LABEL
現時点で量産している4ドアリムジンのディーゼルエンジンとしては、世界最速である。	NO_PRONOUNCE	NO_LABEL
ボディーカラーはアルピナブルー、アルピナグリーンの他、3シリーズの色すべての色、他シリーズ、廃盤カラーも選べる場合がある。	ぼでぃーからーわあるぴなぶるー、あるぴなぐりーんのほか、さんしりーずのいろすべてのいろ、たしりーず、はいばんからーもえらべるばあいがある。	NO_LABEL
内装には標準装備のウッドとしてアルピナ専用ウッド“elm”が使われているが、オプションでピアノブラックやカーボン調、ボディ同色なども選ぶことができる。	NO_PRONOUNCE	NO_LABEL
標準はコンビレザーシート。	ひょーじゅんわこんびれざーしーと。	NO_LABEL
オプションのレザーシートにはダコタレザー、メリノレザー、アルピナレザーの3種類から選択することができる。	おぷしょんのれざーしーとにわだこたれざー、めりのれざー、あるぴなれざーのさんしゅるいからせんたくすることができる。	NO_LABEL
また、シートにひし形マークや、アルピナロゴを入れることもできる。	また、しーとにひしがたまーくや、あるぴなろごをいれることもできる。	NO_LABEL
19インチの大径ホイールを標準装備タイヤはMICHELIN Pilot Sport PS2 F245/35ZR19XL R265/35/ZR19XL。	NO_PRONOUNCE	NO_LABEL
0-100km/h4.6秒、0-200km/h17.9秒、最高巡航速度278km/hを誇る。	NO_PRONOUNCE	NO_LABEL
Limousineはベースが左ハンドルとなり、オプションで右ハンドルも選べる。	りむじんわべーすがひだりはんどるとなり、おぷしょんでみぎはんどるもえらべる。	NO_LABEL
Touringは標準で右ハンドル。	NO_PRONOUNCE	NO_LABEL
ちなみにオートカー2014年3月号では以下のコメントが寄せられている。	ちなみにおーとかーにせんじゅうよねんさんがつごーでわいかのこめんとがよせられている。	NO_LABEL
エンジン	えんじん	NO_LABEL
ステアリング	すてありんぐ	NO_LABEL
足回り	あしまわり	NO_LABEL
トランスミッション	とらんすみっしょん	NO_LABEL
ブレーキ	ぶれーき	NO_LABEL
マフラー	まふらー	NO_LABEL
エアロパーツ	えあろぱーつ	NO_LABEL
