レヴェン・ランビンは、アメリカ合衆国の女優。	NO_PRONOUNCE	NO_LABEL
テキサス州のヒューストンで生まれる。	てきさすしゅーのひゅーすとんでうまれる	NO_LABEL
父親ジョセフ・ハワード・ランビン3世は、ヒューストン最大の不動産会社を経営している会社経営者。	NO_PRONOUNCE	NO_LABEL
祖父J・ハワード・ランビン・ジュニアは、かつてセブンシスターズの内の一社だった米国大手石油会社テキサコの元社長兼CEO。	NO_PRONOUNCE	NO_LABEL
主に同州で育つ。	おもにどーしゅーでそだつ。	NO_LABEL
ヒューストン映画演劇学校に通い、テキサス工科大学が運営するテキサス工科大学独立学区で学ぶ。	ひゅーすとんえいがえんげきがっこーにかよい、てきさすこーかだいがくがうんえいするてきさすこーかだいがくどくりつがっくでまなぶ。	NO_LABEL
2004年から2010年まで、米国ABCのテレビドラマ『オール・マイ・チルドレン』にメインキャストで定期的に出演、ジャクソンの娘リリー・モンゴメリーを演じ、同役で2006年度と2007年度のデイタイム・エミー賞の優秀若手女優部門で2回ノミネートされた。	NO_PRONOUNCE	NO_LABEL
2008年から2009年まで、テレビドラマ『ターミネーター サラ・コナー・クロニクルズ』にレギュラーのライリー・ドーソン役で出演。	NO_PRONOUNCE	NO_LABEL
『グレイズ・アナトミー 恋の解剖学』に計5話、『』で計４話出演、また、『プライベート・プラクティス 迷えるオトナたち』、『ウェイバリー通りのウィザードたち』、『リップスティック・ジャングル』、『One Tree Hill』といったテレビドラマに出演を果たす。	NO_PRONOUNCE	NO_LABEL
2012年公開の映画『ハンガー・ゲーム』でグリマー役で、同年、映画『マーヴェリックス/波に魅せられた男たち』にキム役で出演した。	NO_PRONOUNCE	NO_LABEL
