"tert"-ブチルイソシアニドは、化学式がMeCNCの有機化合物である。	NO_PRONOUNCE	NO_LABEL
イソシアニドの一つで、官能基 C≡N-R を有する。	NO_PRONOUNCE	NO_LABEL
反応性の大きい無色の液体で、強い不快臭を持つ。	はんのーせいのおーきいむしょくのえきたいで、つよいふかいしゅーをもつ。	NO_LABEL
遷移金属元素と安定な錯体を形成し、金属-炭素結合を作ることができる 。	NO_PRONOUNCE	NO_LABEL
"tert"-ブチルイソシアニドのニトリル異性体はピバロニトリルである。	NO_PRONOUNCE	NO_LABEL
"tert"-ブチルイソシアニドは、ホフマンカルビルアミン反応で合成される。	NO_PRONOUNCE	NO_LABEL
この反応では、"tert"-ブチルアミンのジクロロメタン溶液を、触媒量の塩化ベンジルトリエチルアンモニウムの存在下、クロロホルムと水性水酸化ナトリウムで処理する。	NO_PRONOUNCE	NO_LABEL
シアニドの炭素上に非共有電子対があるため錯体の配位子になることができ、特に酸化数が0、+1、+2の金属と錯体を作る。	NO_PRONOUNCE	NO_LABEL
"tert"-ブチルイソシアニドは、Pdのような稀な酸化数で金属を安定化させることが分かっている。	NO_PRONOUNCE	NO_LABEL
"tert"-ブチルイソシアニドは大きな"tert"-ブチル基を有するにもかかわらず、八配位のホモレプティック錯体を作ることができる。	NO_PRONOUNCE	NO_LABEL
これは中心金属とtert-ブチル基との距離が直線的なM-C≡N-C結合により長くなるためである。	NO_PRONOUNCE	NO_LABEL
例えばFeとFeのように"tert"-ブチルイソシアニドが形成する錯体は、二成分金属カルボニル錯体と化学量論的にいくつかの類似点がある。	NO_PRONOUNCE	NO_LABEL
しかし、構造は類似しているものの、"tert"-ブチルイソシアニドはCOよりも優れたドナー配位子であるため異なる点もいくつかある。	NO_PRONOUNCE	NO_LABEL
例えばFeは容易にプロトン化するが、Feはしない。	NO_PRONOUNCE	NO_LABEL
一酸化炭素と同様の毒性がある。	いっさんかたんそとどーよーのどくせいがある。	NO_LABEL
