テトラリールとは山佐製のパチスロ機に搭載された演出用のリールのこと。	てとらりーるとわやまさせいのぱちすろきにとーさいされたえんしゅつよーのりーるのこと。	NO_LABEL
メインリールの右側に搭載されており、小役告知やボーナス告知などを行う。	めいんりーるのみぎがわにとーさいされており、こやくこくちやぼーなすこくちなどをおこなう。	NO_LABEL
ここでは他社の演出用リールについても説明する。	ここでわたしゃのえんしゅつよーりーるについてもせつめいする。	NO_LABEL
「テトラリール」という呼称は山佐が初搭載した「シーマスターX」から伝統的に使用している。	NO_PRONOUNCE	NO_LABEL
当初は単なる小役やボーナスの告知表示が主な機能だったが、「アラベスク」ではメインリール+テトラリールの図柄の並びでリーチ目を演出したり、「ハイパーラッシュ」ではハイパービッグ時に7の色で小役をナビしたりと演出面に活用され始めるようになっていった。	NO_PRONOUNCE	NO_LABEL
しかしキングパルサーなどで使用されたドットマトリクスや、タイムクロスなどに採用された小型液晶、そしてネオプラネットなどのEL VISIONの方が演出アニメーションも多彩に展開でき、また液晶そのものの価格も下がり始めたことから徐々に液晶に取って代わられるようになっていった。	NO_PRONOUNCE	NO_LABEL
山佐としては「メフィスト」や「関候」などが末期のモデルとなり、それ以降は液晶タイプに移行している。	NO_PRONOUNCE	NO_LABEL
なお、5号機のニューパルサーVは4本のリールを搭載しているが、4本ともメインリールでありテトラリールではない。	NO_PRONOUNCE	NO_LABEL
