本項目では、1991年の宝塚歌劇公演一覧について示す。	ほんこーもくでわ、せんきゅうひゃくきゅうじゅういちねんのたからずかかげきこーえんいちらんについてしめす。	NO_LABEL
（）内は、作者または演出者名。	かっこないわ、さくしゃまたわえんしゅつしゃめい。	NO_LABEL
参考資料は90年史。	さんこーしりょーわきゅうじゅうねんし。	NO_LABEL
（）内は、作者または演出者名。	かっこないわ、さくしゃまたわえんしゅつしゃめい。	NO_LABEL
参考資料は90年史。	さんこーしりょーわきゅうじゅうねんし。	NO_LABEL
（）内は、作者または演出者名。	かっこないわ、さくしゃまたわえんしゅつしゃめい。	NO_LABEL
参考資料は90年史。	さんこーしりょーわきゅうじゅうねんし。	NO_LABEL
（）内は、作者または演出者名。	かっこないわ、さくしゃまたわえんしゅつしゃめい。	NO_LABEL
参考資料は90年史。	さんこーしりょーわきゅうじゅうねんし。	NO_LABEL
参考資料は80年史。	さんこーしりょーわはちじゅうねんし。	NO_LABEL
