益田 元道- 寛保2年4月15日）は、益田家第27代当主。	NO_PRONOUNCE	NO_LABEL
長州藩永代家老・須佐領主益田家8代。	NO_PRONOUNCE	NO_LABEL
父は益田就賢。	ちちわますだなりかた。	NO_LABEL
母は福原広俊の娘。	ははわふくばらひろとしのむすめ	NO_LABEL
正室は堅田就宣の娘。	せいしつわかただしゅーせんのむすめ	NO_LABEL
養子に益田広尭。	よーしにますだひろたか。	NO_LABEL
幼名は梅之丞。	よーめいわうめのじょー。	NO_LABEL
通称は越中。	つーしょーわえっちゅー。	NO_LABEL
元禄15年、益田就賢の長男として生まれる。	げんろくじゅうごねん、ますだなりかたのちょーなんとしてうまれる	NO_LABEL
宝永7年、父が病により隠居したため家督を相続する。	ほーえいななねん、ちちがやまいによりいんきょしたためかとくをそーぞくする。	NO_LABEL
享保4年、大頭役に任じられ、藩主の毛利吉元、宗広の二代に亘って仕えた。	きょうほよんねん、おおずやくににんじられ、はんしゅのもーりよしもと、むねひろのにだいにわたってつかえた。	NO_LABEL
吉元からは元服の際に偏諱の授与を受けた。	よしもとからわげんぷくのさいにへんきのじゅよをうけた。	NO_LABEL
享保11年、須佐領内に唐船が漂着し、藩命により打払う。	きょうほじゅういちねん、すさりょーないにとーせんがひょーちゃくし、はんいのちによりうちはらう。	NO_LABEL
享保20年、初代館長に京の儒学者品川希明を招き、郷校育英館を創建し、家臣子弟の学問を奨励した。	きょうほにじゅうねん、しょだいかんちょーにきょーのじゅがくしゃしながわのぞみめいをまねき、さとこーいくえいかんをそーけんし、かしんしていのがくもんをしょーれいした。	NO_LABEL
育英館は幕末に人材を輩出し、育英小学校の前身となる。	いくえいかんわばくまつにじんざいをはいしゅつし、いくえいしょうがっこーのぜんしんとなる。	NO_LABEL
寛保2年4月15日没。	かんぽーにねんしがつじゅうごにちぼつ。	NO_LABEL
享年41。	NO_PRONOUNCE	NO_LABEL
笠松山麓に葬られる。	かさまつさんろくにほーむられる。	NO_LABEL
家督は益田一族である問田益田家の益田就高の二男繁沢利充が養子となって相続した。	かとくわますだいちぞくであるといたますだかのますだなりたかのじなんはんざわとしみつがよーしとなってそーぞくした。	NO_LABEL
