アランガ。	あらんが。	NO_LABEL
住民呼称はarangués/-esa。	NO_PRONOUNCE	NO_LABEL
ガリシア語話者の自治体人口に占める割合は99.17%。	NO_PRONOUNCE	NO_LABEL
アランガは、ア・コルーニャ県の東部に位置し、コマルカ・デ・ベタンソスに属する。	あらんがわ、あこるーにゃけんのとーぶにいちし、こまるかでべたんそすにぞくする。	NO_LABEL
面積は119.6kmで、北はイリショーアとモンフェーロと、東はギティリスと、南はクルティスと、西はオサ・ドス・リオスとコイロスの各自治体と接している。	NO_PRONOUNCE	NO_LABEL
自治体内をマンデオ川が流れる。	じちたいないをまんでおがわがながれる。	NO_LABEL
県都ア・コルーニャからは、南東50kmの距離にある。	けんとあこるーにゃからわ、なんとーごじゅうきろめーとるのきょりにある。	NO_LABEL
平均高度はおよそ海抜262mである。	へいきんこーどわおよそかいばつにひゃくろくじゅうにめーとるである。	NO_LABEL
アランガはベタンソス司法管轄区に属す。	あらんがわべたんそすしほーかんかつくにぞくす。	NO_LABEL
住民は6の教区の140の地区に居住する。	NO_PRONOUNCE	NO_LABEL
サン・ビトリオ礼拝堂の周辺にはドルメンやカストロなど先史時代の遺跡が残されている。	NO_PRONOUNCE	NO_LABEL
またコスタ・ド・サルにはペトログリフや古墳、その他の遺物が残されている。	NO_PRONOUNCE	NO_LABEL
フェルベンサス教区にはバジョ、カサレージョス、コトーラスの3つのカストロが残されている。	ふぇるべんさすきょーくにわばじょ、かされーじょす、ことーらすのみっつのかすとろがのこされている。	NO_LABEL
また、斧や矢じりなどの遺物も発見されている。	また、おのややじりなどのいぶつもはっけんされている。	NO_LABEL
ムニフェラル教区でもカストロが発掘されている。	むにふぇらるきょーくでもかすとろがはっくつされている。	NO_LABEL
自治体首長はガリシア国民党のアルベルト・プラータス・アルバレスが、自治体評議員はガリシア国民党：6、ガリシア社会党：4、ガリシア民族主義ブロック：1となっている。	NO_PRONOUNCE	NO_LABEL
アランガは6つの教区に分けられる。	あらんがわむっつのきょーくにわけられる。	NO_LABEL
