白澤 久則は兵庫県神戸市出身の元サッカー選手、サッカー指導者。	しらさわひさのりわひょーごけんこーべししゅっしんのもとさっかーせんしゅ、さっかーしどーしゃ。	NO_LABEL
白沢とも表記される。	しらさわともひょーきされる。	NO_LABEL
1983年にヤンマーディーゼルに加入し、守備の中心として 活躍する。	せんきゅうひゃくはちじゅうさんねんにやんまーでぃーぜるにかにゅーし、しゅびのちゅーしんとしてかつやくする。	NO_LABEL
1988年には、カタールで行われたAFCアジアカップに出場する日本代表Bのメンバーに選ばれた。	NO_PRONOUNCE	NO_LABEL
引退後は、1998年より日本プロサッカーリーグに所属するヴィッセル神戸のサッカースクールでコーチをしている。	NO_PRONOUNCE	NO_LABEL
現在はスクール統括の職にある。	げんざいわすくーるとーかつのしょくにある。	NO_LABEL
!colspan="3"|日本!!colspan="2"|リーグ!!colspan="2"|天皇杯!!colspan="2"|JSL杯!!colspan="2"|通算	NO_PRONOUNCE	NO_LABEL
その他の公式戦	そのたのこーしきせん	NO_LABEL
