網代隧道は、静岡県熱海市の国道135号の旧道にあるトンネルである。	あじろすいどーわ、しずおかけんあたみしのこくどーひゃくさんじゅうごごーのきゅーどーにあるとんねるである。	NO_LABEL
1930年に発生した北伊豆地震により海沿いを通る道路が寸断してしまったため、それに代わる道として1932年に建設され、1953年に国道に認定され、国道135号の一部となった。	せんきゅうひゃくさんじゅうねんにはっせいしたきたいずじしんによりうみぞいをとーるどーろがすんだんしてしまったため、それにかわるみちとしてせんきゅうひゃくさんじゅうにねんにけんせつされ、せんきゅうひゃくごじゅうさんねんにこくどーににんていされ、こくどーひゃくさんじゅうごごーのいちぶとなった。	NO_LABEL
しかし近年では、幅が5mほどしかないことから大型車同士のすれ違いができないため、交互通行を強いられることとなり渋滞の要因ともなっていた。	しかしきんねんでわ、はばがごめーとるほどしかないことからおーがたしゃどーしのすれちがいができないため、こーごつーこーをしいられることとなりじゅーたいのよーいんともなっていた。	NO_LABEL
そのため新道として網代バイパスが建設されることとなり、2005年に完成。	そのためしんどーとしてあじろばいぱすがけんせつされることとなり、にせんごねんにかんせい。	NO_LABEL
これにより網代隧道は国道指定を解除された。	これによりあじろすいどーわこくどーしていをかいじょされた。	NO_LABEL
現在網代隧道を含む旧道区間は、現道である網代バイパスと並行する形で残っている。	げんざいあじろすいどーをふくむきゅーどーくかんわ、げんみちであるあじろばいぱすとへいこーするかたちでのこっている。	NO_LABEL
トンネル内の照明の一部は現在でも点灯しており、通り抜けも可能である。	とんねるないのしょーめいのいちぶわげんざいでもてんとーしており、とーりぬけもかのーである。	NO_LABEL
ただし網代側の旧道区間入口には車止めが設置してあるので、四輪車での通行はできない。	ただしあじろがわのきゅーどーくかんいりぐちにわくるまどめがせっちしてあるので、よんりんしゃでのつーこーわできない。	NO_LABEL
