ノヴァヤ・ラドガはロシア・レニングラード州の中部にある都市。	NO_PRONOUNCE	NO_LABEL
ラドガ湖へヴォルホフ川が流入する場所にある。	NO_PRONOUNCE	NO_LABEL
州都サンクトペテルブルクからは東へ140キロメートル。	しゅーとさんくとぺてるぶるくからわひがしえひゃくよんじゅうきろめーとる。	NO_LABEL
人口は9,920人。	NO_PRONOUNCE	NO_LABEL
最寄りの街は20キロメートルほど離れたシャシストロイとヴォルホフ。	NO_PRONOUNCE	NO_LABEL
ヴォルホフ川の数キロメートル上流には、ロシア最初の首都ともされる古都スタラヤ・ラドガがある。	NO_PRONOUNCE	NO_LABEL
現在のノヴァヤ・ラドガの場所には、15世紀からニコロ＝メドヴェドスキー修道院があり、その付近には付属の集落もあったが、すぐ上流にはラドガの街があるため存在感は薄かった。	NO_PRONOUNCE	NO_LABEL
大北方戦争中の1702年から1704年、ピョートル1世皇帝は前線に近いこの地に造船所を築き、修道院を要塞化してスタラヤ・ラドガの住民に修道院付近に移住するよう命じた。	だいほっぽーせんそーちゅーのせんななひゃくにねんからせんななひゃくよんねん、ぴょーとるいっせいこーていわぜんせんにちかいこのちにぞーせんじょをきずき、しゅーどーいんをよーさいかしてすたらやらどがのじゅーみんにしゅーどーいんふきんにいじゅーするよーめいじた。	NO_LABEL
こうして作られたノヴァヤ・ラドガの街は、ヴォルホフ川とラドガ湖を介したモスクワとサンクトペテルブルク間の水運の中継地となり、18世紀から19世紀にかけて、ラドガ湖南岸を迂回するラドガ運河とヴォルガ・バルト水路が建設されると、ラドガ運河の通るノヴァヤ・ラドガは繁栄した。	NO_PRONOUNCE	NO_LABEL
1860年代には古いラドガ運河に並行して新しいラドガ運河が建設されたが、鉄道がヴォルホフを通って敷設されると水運の重要性は衰えた。	NO_PRONOUNCE	NO_LABEL
1941年から1945年の独ソ戦ではノヴァヤ・ラドガは赤軍の水上部隊の拠点となり、レニングラード包囲戦で孤立したレニングラード市に対して2年間にわたりラドガ湖上を経由した補給活動を続けた。	NO_PRONOUNCE	NO_LABEL
今日のノヴァヤ・ラドガの主な企業は、造船所、電子部品工場、その他繊維工場などがある。	NO_PRONOUNCE	NO_LABEL
またラドガ湖での漁業もおこなわれている。	またらどがこでのぎょぎょーもおこなわれている。	NO_LABEL
15世紀の修道院や18世紀の聖堂群、近隣にあるスタラヤ・ラドガの遺跡など、周囲には歴史的な見どころも多い。	じゅうごせいきのしゅーどーいんやじゅうはっせいきのせいどーぐん、きんりんにあるすたらやらどがのいせきなど、しゅーいにわれきしてきなみどころもおーい。	NO_LABEL
