悪意のあるソフトウェアの削除ツールとは、マイクロソフトが無料で配布しているWindows対応のコンピュータウイルス除去ツールである。	あくいのあるそふとーぇあのさくじょつーるとわ、まいくろそふとがむりょーではいふしているうぃんどうずたいおーのこんぴゅーたういるすじょきょつーるである。	NO_LABEL
初版は2005年2月13日にリリースされた。	しょはんわにせんごねんにがつじゅうさんにちにりりーすされた。	NO_LABEL
コンピューターに多種多様なマルウェアが無いかスキャンし、感染している場合は除去を試みる。	こんぴゅーたーにたしゅたよーなまるうぇあがないかすきゃんし、かんせんしているばあいわじょきょをこころみる。	NO_LABEL
Windows Updateで自動的に配布されるが、手動でダウンロードすることもできる。	うぃんどうずあっぷでーとでじどーてきにはいふされるが、しゅどーでだうんろーどすることもできる。	NO_LABEL
通常、Windows Updateによる米国向け月例パッチの配布日と同じ毎月第2火曜日にアップデートされ、Windows Updateを通して配布された後、一回バックグラウンドでスキャンされ、もし「悪意のあるソフトウェア」が見つかった場合はレポートされる。	NO_PRONOUNCE	NO_LABEL
また、ユーザーはMicrosoft ダウンロード センターから手動でダウンロードすることもできる。	また、ゆーざーわまいくろそふとだうんろーどせんたーからしゅどーでだうんろーどすることもできる。	NO_LABEL
スキャン結果は「%windir%\debug\mrt.log」にあるログファイルに記録される。	NO_PRONOUNCE	NO_LABEL
手動で起動する場合はスタートメニューからコマンドプロンプトかファイル名を指定して実行で「mrt.exe」と入力して実行する。	NO_PRONOUNCE	NO_LABEL
「悪意のあるソフトウェア」が見つかった場合、マイクロソフトに感染に関する匿名データが送信される設定にされており、この挙動はソフトウェア利用許諾契約でも明記されていて任意で無効化できる。	NO_PRONOUNCE	NO_LABEL
2006年6月にマイクロソフトは、2005年1月以降、ツールを実行した2億7千万台のWindowsコンピューターのうち感染があった570万台で1600万の「悪意のあるソフトウェア」が削除され、平均311台に1台の割合で削除されていると発表した。	NO_PRONOUNCE	NO_LABEL
さらに2009年5月19日までに859,842台のコンピューターでキーロガーをこのツールで削除したと発表している。	NO_PRONOUNCE	NO_LABEL
