畑山 四男美7月13日 - 1971年8月8日）は、日本の内務官僚、政治家、弁護士。	NO_PRONOUNCE	NO_LABEL
県知事、福岡市長。	けんちじ、ふくおかしちょー。	NO_LABEL
高知県出身。	こーちけんしゅっしん。	NO_LABEL
畑山亀喜代の四男として生まれる。	はたやまがめきよのよんおとことしてうまれる	NO_LABEL
第四高等学校を経て、1915年、東京帝国大学法科大学法律学科を卒業。	だいよんこーとーがっこーをへて、せんきゅうひゃくじゅうごねん、とーきょーていこくだいがくほーかだいがくほーりつがっかをそつぎょー。	NO_LABEL
同年10月、文官高等試験行政科試験に合格。	どーねんじゅーがつ、ぶんかんこーとーしけんぎょーせいかしけんにごーかく。	NO_LABEL
1916年、内務省に入り宮城県属となる。	せんきゅうひゃくじゅうろくねん、ないむしょーにはいりみやぎけんぞくとなる。	NO_LABEL
以後、宮城県亘理郡長、佐賀県・岩手県・長野県の各理事官、岐阜県書記官、熊本県書記官・学務部長、鹿児島県書記官・警察部長、同内務部長、大分県書記官・内務部長、北海道庁部長・土木部長などを歴任。	NO_PRONOUNCE	NO_LABEL
1933年7月、福島県知事に就任。	せんきゅうひゃくさんじゅうさんねしちがつ、ふくしまけんちじにしゅーにん。	NO_LABEL
1934年10月、福岡県知事に転任。	せんきゅうひゃくさんじゅうよねんじゅーがつ、ふくおかけんちじにてんにん。	NO_LABEL
1937年11月、同県知事を辞し退官した。	せんきゅうひゃくさんじゅうななねじゅーいちがつ、どーけんちじをじしたいかんした。	NO_LABEL
その後、東京市教育局長を経て、1939年1月から1946年5月まで福岡市長を務めた。	そのご、とーきょーしきょーいくきょくちょーをへて、せんきゅうひゃくさんじゅうきゅうねんいちがつからせんきゅうひゃくよんじゅうろくねごがつまでふくおかしちょーをつとめた。	NO_LABEL
その後、公職追放となった。	そのご、こーしょくついほーとなった。	NO_LABEL
