清水寺は長崎県 長崎市 鍛治屋町にある真言宗霊雲寺派の寺院である。	きよみずでらわながさきけんながさきしかじやちょーにあるしんごんしゅーれいうんじはのじいんである。	NO_LABEL
山名は長崎山。	やまなわながさきやま。	NO_LABEL
本尊は千手観音。	ほんぞんわせんじゅかんのん。	NO_LABEL
当寺は、京都・清水寺の僧・慶順により、元和9年に創建された。	NO_PRONOUNCE	NO_LABEL
現存する本堂は寛文8年、中国人商人の何高材の寄進によって建立されたものである。	げんそんするほんどーわひろふみはちねん、ちゅーごくじんしょーにんのなにだかざいのきしんによってこんりゅーされたものである。	NO_LABEL
重要文化財。	じゅーよーぶんかざい。	NO_LABEL
寛文8年の建立。	ひろふみはちねんのこんりゅー。	NO_LABEL
入母屋造、本瓦葺きで、屋根の上部と下部に段差を付けて葺く錣葺きとする。	NO_PRONOUNCE	NO_LABEL
平面構成は方五間で、その中央の方三間を床上部とし、その周囲の幅一間分は吹き放しの土間とする。	へいめんこーせいわかたごけんで、そのちゅーおーのほーさんけんをゆかじょーぶとし、そのしゅーいのはばいっけんぶんわふきほうしのどまとする。	NO_LABEL
建物外周には石製礎盤の上に面取角柱を立てる。	たてものがいしゅーにわいしせいそはんのうえにめんとりかくちゅーをたてる。	NO_LABEL
板張り部分は手前の梁間一間分を外陣、奥の梁間二間分を内陣とする。	いたばりぶぶんわてまえのはりまいっけんぶんをがいじん、おくのはりまにけんぶんをないじんとする。	NO_LABEL
外陣部分は当初は吹き放しであったが、現状は仮設の建具を入れている。	がいじんぶぶんわとーしょわふきほうしであったが、げんじょーわかせつのたてぐをいれている。	NO_LABEL
外陣の正面から側面にかけて切目縁を設ける。	がいじんのしょーめんからそくめんにかけてきりめえんをもーける。	NO_LABEL
建物は西側を正面とし、南側には張出しを設け、そこに座敷などの4室を田の字形に設ける。	NO_PRONOUNCE	NO_LABEL
外陣天井の輪垂木を並べた架構は、長崎の唐寺にみられる中国風のもので、黄檗天井と通称される。	がいじんてんじょーのわたるきをならべたかかまいわ、ながさきのとーでらにみられるちゅーごくふーのもので、おーばくてんじょーとつーしょーされる。	NO_LABEL
真言宗寺院の本堂であるが、開放的な構えや細部にみられる中国風の意匠などに黄檗寺院との共通性がみられる。	しんごんしゅーじいんのほんどーであるが、かいほーてきなかまえやさいぶにみられるちゅーごくふーのいしょーなどにおーばくじいんとのきょーつーせいがみられる。	NO_LABEL
内陣にある入母屋造妻入りの厨子は延宝2年の作である。	ないじんにあるいりもやずくりつまいりのずしわえんぽーにねんのさくである。	NO_LABEL
堂内には本尊千手観音立像のほか、千手観音の眷属である二十八部衆像を安置する。	どーうちにわほんぞんせんじゅかんのんりつぞーのほか、せんじゅかんのんのけんぞくであるにじゅーはちぶしゅーぞーをあんちする。	NO_LABEL
寛文8年に福建省出身の何高材と息子の兆晋・兆有によって着手された本堂再建の造営を記念した石碑は本堂の「附」として国の重要文化財に指定されている。	NO_PRONOUNCE	NO_LABEL
以下の物件が長崎市指定文化財となっている。	いかのぶっけんがながさきししていぶんかざいとなっている。	NO_LABEL
所在地：長崎県長崎市鍛治屋町8-43	NO_PRONOUNCE	NO_LABEL
