顕州は中国にかつて存在した州。	けんしゅーわちゅーごくにかつてそんざいしたしゅー。	NO_LABEL
南北朝時代、太和年間に北魏により設置された東荊州を前身とする。	なんぼくちょうじだい、たいわねんかんにほくぎによりせっちされたひがしけいしゅーをぜんしんとする。	NO_LABEL
554年、西魏により淮州と改称された。	NO_PRONOUNCE	NO_LABEL
隋朝が成立すると淮州は下部に2郡3県を管轄した。	NO_PRONOUNCE	NO_LABEL
585年に顕州と改称、607年、郡制施行に伴い顕州は淮安郡と改称され下部に7県を管轄した。	NO_PRONOUNCE	NO_LABEL
隋朝の行政区分に関しては下図を参照。	ずいちょーのぎょーせいくぶんにかんしてわしたずをさんしょー。	NO_LABEL
