松尾 興は、日本のバリトン歌手・オペラ歌手。	NO_PRONOUNCE	NO_LABEL
長崎県佐世保市出身、国立音楽大学声楽科卒業。	ながさきけんさせぼししゅっしん、くにたちおんがくだいがくせいがくかそつぎょー。	NO_LABEL
西日本新人紹介演奏会にて声楽部門第1位「福岡音楽文化協会賞」受賞。	NO_PRONOUNCE	NO_LABEL
全日本新人音楽コンクール入選。	ぜんにほんしんじんおんがくこんくーるにゅーせん。	NO_LABEL
下関国際音楽コンクール声楽部門入選「審査員長賞」受賞。	NO_PRONOUNCE	NO_LABEL
1988年ザルツブルク国際声楽コンクールファイナリスト。	せんきゅうひゃくはちじゅうはちねんざるつぶるくこくさいせいがくこんくーるふぁいなりすと。	NO_LABEL
オーストリア・ザルツブルクにてイリス・アダミ・コッラデッティ、ケルスティン・マイヤー、ルドルフ・クノール教授に師事。	NO_PRONOUNCE	NO_LABEL
イタリア・ジェノヴァにてジャンフランコ・パスティネ、エンツォ・コンスーマ、ルイザ・マラリアーノに師事。	NO_PRONOUNCE	NO_LABEL
イタリア・サルザーナ歌劇場にて歌劇「リゴレット」でイタリアデビュー。	NO_PRONOUNCE	NO_LABEL
2008～2010インペリア、ポルトフィーノ、アルベンガの国際音楽祭に出演。	NO_PRONOUNCE	NO_LABEL
「トスカ」スカルピア、「トロヴァトーレ」ルナ伯爵、「リゴレット」リゴレット、「オテロ」ヤーゴ等、イタリアオペラのドラマティックな役柄を得意とする。	NO_PRONOUNCE	NO_LABEL
九州国公立私立音楽学会に所属。	きゅーしゅーこっこーりつしりつおんがくがっかいにしょぞく。	NO_LABEL
主な研究発表は「ヴェルディの歌劇におけるrecitativoとaria の演奏解釈」、「イタリアオペラにおけるbaritono drammatico のpassaggio の位置」、「Tecnica Italiana におけるpassagioと声門の関係」。	NO_PRONOUNCE	NO_LABEL
現在は福岡大学附属大濠高等学校の音楽科教師も務める。	げんざいわふくおかだいがくふぞくおーほりこーとーがっこーのおんがくかきょーしもつとめる。	NO_LABEL
