本項目では、大阪府泉南市内に所在する九十九王子について述べる。	ほんこーもくでわ、おーさかふせんなんしないにしょざいするくじゅうくおーじについてのべる。	NO_LABEL
九十九王子とは、熊野古道、特に紀伊路沿いに在する神社のうち、主に12世紀から13世紀にかけて、皇族・貴人の熊野詣に際して先達をつとめた熊野修験の手で急速に組織された一群の神社をいい、参詣者の守護が祈願された。	NO_PRONOUNCE	NO_LABEL
しかしながら、承久3年の承久の乱以降、京からの熊野詣が下火になり、そのルートであった紀伊路が衰退するとともに、荒廃と退転がすすんだ。	しかしながら、うけたまわひささんねんのじゅうきゅうのらんいこー、きょーからのくまのまいがしたびになり、そのるーとであったきーじがすいたいするとともに、こーはいとたいてんがすすんだ。	NO_LABEL
室町時代以降、熊野詣がかつてのような卓越した地位を失うにつれ、この傾向はいっそう進み、近世紀州藩の手による顕彰も行なわれたものの、勢いをとどめるまでには至らなかった。	むろまちじだいいこー、くまのまいがかつてのよーなたくえつしたちいをうしなうにつれ、このけいこーわいっそーすすみ、きんせいきしゅーはんのてによるけんしょーもおこなわれたものの、いきおいをとどめるまでにわいたらなかった。	NO_LABEL
さらに、明治以降の神道の国家神道化とそれに伴う合祀、市街化による廃絶などにより、旧社地が失われたり、比定地が不明になったものも多い。	さらに、めいじいこーのしんとーのこっかしんとーかとそれにともなうごーし、しがいかによるはいぜつなどにより、きゅーしゃちがうしなわれたり、ひていちがふめいになったものもおーい。	NO_LABEL
本記事では、これら九十九王子のうち、比定地が大阪府泉南市内に推定される王子を扱う。	ほんきじでわ、これらくじゅうくおーじのうち、ひていちがおーさかふせんなんしないにすいていされるおーじをあつかう。	NO_LABEL
泉南市内の九十九王子は3社。	NO_PRONOUNCE	NO_LABEL
籾井王子から紀州街道旧道を西に1.5kmほど進み、海営宮池という池の近くの交差点を北に向かう脇道に入ったところに墓地があり、その北側に石碑と説明板がある。	NO_PRONOUNCE	NO_LABEL
大阪府指定史跡。	おーさかふしていしせき。	NO_LABEL
建仁元年の後鳥羽院参詣記10月7日条に「先参厩戸王子」との記述があり、籾井王子にて芸能を奉納したのちに参詣し、信達宿厩戸御所にて宿泊している。	NO_PRONOUNCE	NO_LABEL
また、承元4年の修明門院参詣記4 月23日条にも、当王子に参詣の後、宿所入りしたとある。	NO_PRONOUNCE	NO_LABEL
その後、この王子に言及する史料が途絶えるが、元文元年刊行の『和泉志』に	NO_PRONOUNCE	NO_LABEL
とあり、これに従った記述が寛政7年の『和泉名所図会』にも見られる。	NO_PRONOUNCE	NO_LABEL
明治以降も厩戸王子神社ないし筆王子神社の名で存続し、石禿倉と呼ばれる小石祠が祀られていたが、1907年12月9日に一岡神社に合祀され、市杵島神社という境内社になっている。	めいじいこーもうまやどおーじじんじゃないしひつおーじじんじゃのなでそんぞくし、いしかむろくらとよばれるこいしほこらがまつられていたが、せんきゅうひゃくななねんじゅーにがつここのかにいちおかじんじゃにごーしされ、いちきしまじんじゃとゆうけいだいしゃになっている。	NO_LABEL
厩戸王子近くの海営宮池から旧街道を約2km西南に進み、牧野を過ぎた辺りに跡地がある。	NO_PRONOUNCE	NO_LABEL
東西2間半・南北2間半、広さ約6坪の跡地に地蔵石像、馬頭観音像等が祀られている。	NO_PRONOUNCE	NO_LABEL
史料によって名称に混乱があり、信達王子だけでなく、信達一之瀬王子、一之瀬王子などの名称が知られている。	しりょーによってめいしょーにこんらんがあり、しんだちおーじだけでなく、しんだちいちのせおーじ、いちのせおーじなどのめいしょーがしられている。	NO_LABEL
後鳥羽院参詣記は「信達一之瀬王子」、修明門院参詣記は「信達王子」としている。	NO_PRONOUNCE	NO_LABEL
さらに文明6年の『王子記』には信達王子と長岡王子の2社が併記され、享保15年の「九十九王子記」に	NO_PRONOUNCE	NO_LABEL
との記述が見られる。	とのきじゅつがみられる。	NO_LABEL
『大阪府史跡名称天然記念物』は、「長岡王子」の呼称が、信達王子近辺の旧街道の坂道が長岡と呼ばれたことから生じた別称であるとしている。	NO_PRONOUNCE	NO_LABEL
明治初期まで小祠が祀られていたというが、1910年に信達神社に合祀された。	めいじしょきまでしょーしがまつられていたというが、せんきゅうひゃくじゅうねんにしんだちじんじゃにごーしされた。	NO_LABEL
泉南市内にあったと推定される王子社。	せんなんしないにあったとすいていされるおーじしゃ。	NO_LABEL
いくつかの史料や研究において実在のものとされるが詳細は明らかではない。	いくつかのしりょーやけんきゅーにおいてじつざいのものとされるがしょーさいわあきらかでわない。	NO_LABEL
信達王子の節に述べたように、近世の幾つかの史料に名が見られるほか、『紀伊名所図会』も長岡王子を信達王子とは別個の王子社として掲げている。	NO_PRONOUNCE	NO_LABEL
