コーク郡であり、同郡で人口最大の都市でもある。	こーくぐんであり、どーぐんでじんこーさいだいのとしでもある。	NO_LABEL
郡名は第15代テキサス州知事リチャード・コークに因んで名付けられた。	NO_PRONOUNCE	NO_LABEL
コーク郡は以前に禁酒郡だったが、2005年にビールとワインの販売を認める法が成立した。	こーくぐんわいぜんにきんしゅぐんだったが、にせんごねんにびーるとわいんのはんばいをみとめるほーがせいりつした。	NO_LABEL
1700年頃から1870年代に掛けて、コマンチ族、トンカワ族、リパン・アパッチ族、カイオワ族、キカプー族などインディアン部族がこの地域を動いていた。	NO_PRONOUNCE	NO_LABEL
これらの部族は川やクリークに沿った岩陰で暮らしており、その跡には人工物や種の貯蔵物、道具、墓所、岩刻絵、川の貝殻、シチメンチョウやシカの骨、火打石のナイフ、へら、やじりなどが残された 。	これらのぶぞくわかわやくりーくにそったいわかげでくらしており、そのあとにわじんこーぶつやたねのちょぞーぶつ、どーぐ、はかしょ、いわこくえ、かわのかいがら、しちめんちょーやしかのほね、ひうちいしのないふ、へら、やじりなどがのこされた。	NO_LABEL
1851年、アメリカ陸軍のシャドボーン基地がフロンティア防衛のために設置され、南北戦争が始まるまで駐屯された。	せんはっぴゃくごじゅういちねん、あめりかりくぐんのしゃどぼーんきちがふろんてぃあぼーえいのためにせっちされ、なんぼくせんそーがはじまるまでちゅーとんされた。	NO_LABEL
バターフィールド陸路郵便が1858年から1861年まで地域を抜けて運行された。	ばたーふぃーるどりくろゆーびんがせんはっぴゃくごじゅうはちねんからせんはっぴゃくろくじゅういちねんまでちいきをぬけてうんこーされた。	NO_LABEL
1860年から1880年代初期、後にコーク郡となる地域に入っていたのは、広大な牧草地に惹きつけられた牧場主だけだった。	せんはっぴゃくろくじゅうねんからせんはっぴゃくはちじゅうねんだいしょき、ごにこーくぐんとなるちいきにはいっていたのわ、こーだいなぼくそーちにひきつけられたぼくじょーぬしだけだった。	NO_LABEL
J・J・オースティンが1875年にサンコ近くに牧場を開いた。	NO_PRONOUNCE	NO_LABEL
1877年にはペイト・フランチャーが入植してきた。	NO_PRONOUNCE	NO_LABEL
1882年、テキサス・アンド・パシフィック鉄道がサンアンジェロまでの運行を開始し、地域に入ってくる開拓者の数が増え始めた。	NO_PRONOUNCE	NO_LABEL
1880年代は厳しい旱魃に見舞われ、フェンス切り戦争が続いた。	せんはっぴゃくはちじゅうねんだいわきびしいかんばつにみまわれ、ふぇんすぎりせんそーがつずいた。	NO_LABEL
州政府がこの紛争を解決することになった。	しゅーせいふがこのふんそーをかいけつすることになった。	NO_LABEL
1889年、テキサス州議会がトムグリーン郡の一部を分離してコーク郡を設立した。	せんはっぴゃくはちじゅうきゅうねん、てきさすしゅーぎかいがとむぐりーんぐんのいちぶをぶんりしてこーくぐんをせつりつした。	NO_LABEL
同年に組織かも行われ、ヘイリックが郡庁所在地に指定された。	どーねんにそしきかもおこなわれ、へいりっくがぐんちょーしょざいちにしていされた。	NO_LABEL
郡内で最初の新聞である「ヘイリック・デモクラット」が1889年に発刊されたが、後に「ラスラー」と改名された。	NO_PRONOUNCE	NO_LABEL
1891年、住民投票で新しいロバートリーの町が郡庁所在地に指定された。	せんはっぴゃくきゅうじゅういちね、じゅーみんとうひょーであたらしいろばーとりーのまちがぐんちょーしょざいちにしていされた。	NO_LABEL
南軍の将軍ロバート・E・リーはシャドボーン基地で勤務したことがあった。	NO_PRONOUNCE	NO_LABEL
同年、新聞社も新しい郡庁所在地に移転され、「ロバートリー・オブザーバー」と改名された。	NO_PRONOUNCE	NO_LABEL
D・W・キー博士が ブロンテの町を設立し、イギリスの小説家シャーロット・ブロンテに因んで名前を付けた 。	NO_PRONOUNCE	NO_LABEL
この町は当初オソ、その後ブロンコと名付けられていた。	このまちわとーしょおそ、そのごぶろんことなずけられていた。	NO_LABEL
1890年に住民がブロンテと改名した後で郵便局が認可された。	せんはっぴゃくきゅうじゅうねんにじゅーみんがぶろんてとかいめいしたのちでゆーびんきょくがにんかされた。	NO_LABEL
シルバーピーク峰に因んだシルバーの町が、牧畜業の中心として1870年から1880年まで置かれた。	しるばーぴーくほーにちなんだしるばーのまちが、ぼくちくぎょーのちゅーしんとしてせんはっぴゃくななじゅうねんからせんはっぴゃくはちじゅうねんまでおかれた。	NO_LABEL
初期開拓者にはS・M・コナー、R・B・アレン、W・G・ジェイムソン、W・R・ウォーカーなどがいた。	NO_PRONOUNCE	NO_LABEL
J・E・リード博士はこの地域で50年間唯一の医者だった。	NO_PRONOUNCE	NO_LABEL
20世紀半ばに石油が発見され、それに関わる産業でシルバーの町にもブームが訪れた。	にじっせいきなかばにせきゆがはっけんされ、それにかかわるさんぎょーでしるばーのまちにもぶーむがおとずれた。	NO_LABEL
1966年に石油開発用のキャンプが閉鎖されると、シルバーの人口も激減した。	せんきゅうひゃくろくじゅうろくねんにせきゆかいはつよーのきゃんぷがへいさされると、しるばーのじんこーもげきげんした。	NO_LABEL
1892年、テニスンの町が設立された。	せんはっぴゃくきゅうじゅうにねん、てにすんのまちがせつりつされた。	NO_LABEL
この名前はイギリスの詩人アルフレッド・テニスンに因むものだった。	このなまえわいぎりすのしじんあるふれっどてにすんにちなむものだった。	NO_LABEL
2年後には郵便局が置かれた。	にねんごにわゆーびんきょくがおかれた。	NO_LABEL
1907年、カンザスシティ・メキシコ・アンド・オリエント鉄道が、サンアンジェロから北に線を伸ばし、テニスン、ブロンテの町やフォートシャドボーンが恩恵を受けた。	NO_PRONOUNCE	NO_LABEL
1910年には綿花の作付けがピークを迎えたが、1920年代にワタミゾウムシの被害で急激に衰退した。	せんきゅうひゃくじゅうねんにわめんかのさくずけがぴーくをむかえたが、せんきゅうひゃくにじゅうねんだいにわたみぞうむしのひがいできゅーげきにすいたいした。	NO_LABEL
この頃にはトウモロコシ、コムギ、ソルガムや果樹の栽培も広がった。	このころにわとーもろこし、こむぎ、そるがむやかじゅのさいばいもひろがった。	NO_LABEL
世界恐慌では大きな影響を受け、人口も減少した。	せかいきょうこーでわおーきなえいきょーをうけ、じんこーもげんしょーした。	NO_LABEL
1942年には石油が郡内で発見され、1991年初期までに、累計の石油生産量は209,281,131 バーレルになった。	NO_PRONOUNCE	NO_LABEL
石油から上がる利潤への課税によって、郡内のインフラや公共施設が改善され、郡民へのサービスレベルが上がった。	せきゆからあがるりじゅんえのかぜいによって、ぐんないのいんふらやこーきょーしせつがかいぜんされ、ぐんみんえのさーびすれべるがあがった。	NO_LABEL
石油の生産は郡の収入の大きな比率を占めた。	せきゆのせいさんわぐんのしゅーにゅーのおーきなひりつをしめた。	NO_LABEL
アメリカ合衆国国勢調査局に拠れば、郡域全面積は928平方マイルであり、このうち陸地899平方マイル、水域は29平方マイルで水域率は3.14%である。	NO_PRONOUNCE	NO_LABEL
以下は2000年の国勢調査による人口統計データである。	いかわにせんねんのこくせいちょうさによるじんこーとーけいでーたである。	NO_LABEL
