ルパート・エヴェレットはイギリス出身の俳優である。	NO_PRONOUNCE	NO_LABEL
父親は政治家、母親はスコットランド貴族の出という上流階級に生まれる。	ちちおやわせいじか、ははおやわすこっとらんどきぞくのしゅつとゆうじょーりゅーかいきゅーにうまれる。	NO_LABEL
ドナルド・マクリーンは大叔父にあたる。	どなるどまくりーんわおーおじにあたる。	NO_LABEL
英語のほかにイタリア語とフランス語を話し、ピアノも弾く。	えいごのほかにいたりあごとふらんすごをはなし、ぴあのもひく。	NO_LABEL
ヨークシャーの私立学校で学んでいたが、俳優になるために15歳で中退してロンドンに移る。	よーくしゃーのしりつがっこーでまなんでいたが、はいゆーになるためにじゅうごさいでちゅーたいしてろんどんにうつる。	NO_LABEL
その当時は生計を立てるために男娼として働いたこともあると後に語っている。	そのとーじわせいけいをたてるためにだんしょーとしてはたらいたこともあるとごにかたっている。	NO_LABEL
その後セントラル・スクール・オブ・スピーチ・アンド・ドラマで演技を学ぶが退学になり、グラスゴーの劇場で働くようになる。	そのごせんとらるすくーるおぶすぴーちあんどどらまでえんぎをがくぶがたいがくになり、ぐらすごーのげきじょーではたらくよーになる。	NO_LABEL
1982年に『アナザー・カントリー』の舞台版でデビュー。	NO_PRONOUNCE	NO_LABEL
後に映画版にも出演した。	ごにえいがばんにもしゅつえんした。	NO_LABEL
また、歌手としてアルバムを出すなど活躍。	また、かしゅとしてあるばむをだすなどかつやく。	NO_LABEL
1989年にパリに移り、半自叙伝的小説『哀れ、ダーリンは娼夫?』を執筆、ゲイであることをカミングアウトした。	NO_PRONOUNCE	NO_LABEL
しかしカミングアウトのために一時期仕事が無くなってしまう。	しかしかみんぐあうとのためにいちじきしごとがなくなってしまう。	NO_LABEL
1995年には2作目の小説"The Hairdressers of St.Tropez"を発表。	NO_PRONOUNCE	NO_LABEL
1997年、『ベスト・フレンズ・ウェディング』でジュリア・ロバーツの親友を演じ、歌声も披露して再び注目されるようになる。	NO_PRONOUNCE	NO_LABEL
1999年にはプライベートでも友人であるマドンナの『2番目に幸せなこと』に出演、マドンナがドン・マクリーンの"American Pie"をカバーした主題歌ではバックコーラスとして歌っている。	NO_PRONOUNCE	NO_LABEL
2006年には自伝 "Red Carpets and Other Banana Skins" を発表している。	NO_PRONOUNCE	NO_LABEL
