力織機とは、機械動力式の織機のことである。	りきしょっきとわ、きかいどーりょくしきのしょっきのことである。	NO_LABEL
最初の機械動力式の織機は、1785年にイギリス人エドモンド・カートライトが製造したパワー・ルーム（）で、日本語の「力織機」はこの逐語訳である。	NO_PRONOUNCE	NO_LABEL
力織機はそれまでの手織機に代わって織物生産の主役となり、産業革命を主導した。	りきしょっきわそれまでのておりきにかわっておりものせいさんのしゅやくとなり、さんぎょーかくめいをしゅどーした。	NO_LABEL
以降、手織機の使用は工芸品や伝統的な布を作る場合に限定されるようになる。	いこー、ておりきのしよーわこーげいひんやでんとーてきなぬのをつくるばあいにげんていされるよーになる。	NO_LABEL
特殊な用途に応じた素材を扱えるような織機や、効率的に最大量 生産できるような織機も開発された。	とくしゅなよーとにおーじたそざいをあつかえるよーなしょっきや、こーりつてきにさいだいりょうせいさんできるよーなしょっきもかいはつされた。	NO_LABEL
織機はもともとシャトルを用いて緯糸を通しており、このシャトル式は20世紀に入っても標準的だったが、20世紀初めにはより速く効率的なシャトルレス織機も発明されていた。	しょっきわもともとしゃとるをもちいてよこいとをとーしており、このしゃとるしきわにじっせいきにはいってもひょーじゅんてきだったが、にじっせいきはじめにわよりはやくこーりつてきなしゃとるれすしょっきもはつめいされていた。	NO_LABEL
エアジェット織機は、空気を噴射する力で緯糸を通す織機で、天然素材などさまざまな糸に対応でき、安価な布の大量生産を行う工場や、先端的な織物工場で導入されている。	えあじぇっとしょっきわ、くーきをふんしゃするちからでよこいとをとーすしょっきで、てんねんそざいなどさまざまないとにたいおーでき、あんかなぬののたいりょーせいさんをおこなうこーじょーや、せんたんてきなおりものこーじょーでどーにゅーされている。	NO_LABEL
ウォータージェット織機は水の噴射を利用して合成繊維を織る。	うぉーたーじぇっとしょっきわみずのふんしゃをりよーしてごーせいせんいをおる。	NO_LABEL
コンピュータで操作される織機は、工業用のみならず個人用にも生産されている。	こんぴゅーたでそーさされるしょっきわ、こーぎょーよーのみならずこじんよーにもせいさんされている。	NO_LABEL
工業用の織機は、1秒で6列以上という速さで緯糸を織り込んでゆく。	NO_PRONOUNCE	NO_LABEL
ジャカード織機は、織物をパターン通り仕上げるためにパンチカードを使用した最初の力織機である。	じゃかーどしょっきわ、おりものをぱたーんどーりしあげるためにぱんちかーどをしよーしたさいしょのりきしょっきである。	NO_LABEL
それまでは複雑な文様を織ることは難しく、中国では紀元前後には提花機または花機とよばれる特殊な織機で錦を織って世界へ輸出していた。	それまでわふくざつなもんよーをおることわむずかしく、ちゅーごくでわきげんぜんごにわひさげはなきまたわはなきとよばれるとくしゅなしょっきでにしきをおってせかいえゆしゅつしていた。	NO_LABEL
この織機では、体重の軽い子供が織機の上に引き上げられ、経糸の複雑な上げ下ろしを下からの指示通り行って文様を作っていた。	このしょっきでわ、たいじゅーのかるいこどもがしょっきのうえにひきあげられ、たていとのふくざつなあげおろしをしたからのしじどーりおこなってもんよーをつくっていた。	NO_LABEL
日本には奈良時代に輸入され、桃山期以降、空引機という名で西陣など各地で使われた。	にっぽんにわならじだいにゆにゅーされ、ももやまきいこー、そらいんきとゆうなでにしじんなどかくちでつかわれた。	NO_LABEL
17世紀にはヨーロッパにも紹介され、ドロー織機とよばれる、織機の横に高いはしごが付いて職人が上に登れるものになった。	じゅうしちせいきにわよーろっぱにもしょーかいされ、どろーしょっきとよばれる、しょっきのよこにたかいはしごがついてしょくにんがうえにのぼれるものになった。	NO_LABEL
1800年代、フランス人ジョセフ・マリー・ジャカードは穴を開けたカードを使って、穴の有無で上下する金属針と一個一個のシャフトを連動させてシャフトを個別に上下させ、カードで指示された経糸だけを開口させ横糸を通してカードで指示されたとおりの模様を自動的に織ってゆく織機を開発した。	NO_PRONOUNCE	NO_LABEL
最初は人力であったが、後に力織機に応用され、一度カードをセットするとすさまじい速さで緯糸を織ってゆくことができるようになった。	さいしょわじんりきであったが、のちにりきしょっきにおーよーされ、いちどかーどをせっとするとすさまじいはやさでよこいとをおってゆくことができるよーになった。	NO_LABEL
また、このパンチカードが解析機関やタビュレーティングマシンなど、コンピュータの祖先といわれる19世紀の計算機に応用された。	また、このぱんちかーどがかいせききかんやたびゅれーてぃんぐましんなど、こんぴゅーたのそせんといわれるじゅうきゅうせいきのけいさんきにおーよーされた。	NO_LABEL
その後、ジャカード織機はパンチカードに代わりコンピュータを用いるようになる。	そのご、じゃかーどしょっきわぱんちかーどにかわりこんぴゅーたをもちいるよーになる。	NO_LABEL
水力や電力などを動力とし、縦糸を切断する時の運転停止や横糸の供給などが自動的に行われる織機を自動織機と言う。	すいりょくやでんりょくなどをどーりょくとし、たていとをせつだんするときのうんてんていしやよこいとのきょーきゅーなどがじどーてきにおこなわれるしょっきをじどーしょっきという。	NO_LABEL
