創作エイサーは、沖縄県でお盆に踊られる伝統芸能、エイサーを基にして創られたポップダンスである。	そーさくえいさーわ、おきなわけんでおぼんにおどられるでんとーげいのー、えいさーをもとにしてつくられたぽっぷだんすである。	NO_LABEL
沖縄をイメージした趣向を凝らしエイサーで使う太鼓を使用しているが、演舞の曲目にポップソングを使うなど、演舞形態は伝統芸能であるエイサーとは大きく異なり、観客を魅せるためのエイサーを取り入れた創作太鼓という形になっている。	おきなわをいめーじしたしゅこーをこらしえいさーでつかうたいこをしよーしているが、えんぶのきょくもくにぽっぷそんぐをつかうなど、えんぶけいたいわでんとーげいのーであるえいさーとわおーきくことなり、かんきゃくをみせるためのえいさーをとりいれたそーさくたいことゆうかたちになっている。	NO_LABEL
伝統的なエイサーが先祖供養の目的のために旧盆に各地区の青年会によって踊られるのに対し、創作エイサーは先祖供養の目的を持たず地域的な結びつきがなく、イベントにおいて演舞を披露するという目的のために団体結成されている。	でんとーてきなえいさーがせんぞくよーのもくてきのためにきゅーぼんにかくちくのせいねんかいによっておどられるのにたいし、そーさくえいさーわせんぞくよーのもくてきをもたずちいきてきなむすびつきがなく、いべんとにおいてえんぶをひろーするとゆうもくてきのためにだんたいけっせいされている。	NO_LABEL
したがって、季節に関係なく、テーマパークなど人の集まる場所で演舞を披露する。	したがって、きせつにかんけいなく、てーまぱーくなどひとのあつまるばしょでえんぶをひろーする。	NO_LABEL
