六卿とは、中国古代の礼書『周礼』に記された、西周王朝の行政組織における6名の最高官をいう。	NO_PRONOUNCE	NO_LABEL
同書には天官大宰、地官大司徒、春官大宗伯、夏官大司馬、秋官大司寇、冬官大司空の6人の長官に統帥される役人たちの職務が規定されている。	どーしょにわあまくらいだざい、ちかんだいしと、はるかんたいそーはく、なつかんだいしば、あきかんたいしこー、ふゆかんだいしくーのろくにんのちょーかんにとーすいされるやくにんたちのしょくむがきていされている。	NO_LABEL
これら6つの官は、理念的にはそれぞれ60の官職から成り、合計360という職務は1年の日数に対応するのだとされる。	NO_PRONOUNCE	NO_LABEL
大宰は6官の長を兼ね、その際の官名を「冢宰」という。	NO_PRONOUNCE	NO_LABEL
冢宰はのちに吏部尚書の呼称ともなった。	NO_PRONOUNCE	NO_LABEL
大宰が総覧する天官は国政を統括し、大司徒が総覧する地官は教育、人事、土地などを、大宗伯が総覧する春官は礼法、祭祀を、大司馬が総覧する夏官は軍政、兵馬を、大司寇を長とする秋官は刑罰を、大司空を長とする冬官は土木工作を司った。	だざいがそーらんするあまくらいわこくせいをとーかつし、たいしとがそーらんするちかんわきょーいく、じんじ、とちなどを、たいそーはくがそーらんするはるかんわれいほー、さいしを、だいしばがそーらんするなつかんわぐんせい、へいばを、たいしこーをちょーとするあきかんわけいばつを、たいしそらをちょーとするふゆかんわどぼくこーさくをつかさどった。	NO_LABEL
六官の思想は後世においても六部として継承されていった。	ろくかんのしそーわこーせいにおいてもろくぶとしてけいしょーされていった。	NO_LABEL
なお、6世紀に宇文泰が西魏の実権を握ると『周礼』に基づいた官名を用いた官制改革を行い、自ら大冢宰に就任するなど、六卿を任命した。	NO_PRONOUNCE	NO_LABEL
宇文泰は北周を建国すると、その制度が継承されたが、北周が隋に代わられた際に廃された。	うぶんたいわきたあまねをけんこくすると、そのせいどがけいしょーされたが、きたあまねがずいにかわられたさいにはいされた。	NO_LABEL
