デニス・シェルバンは、ルーマニア・ブカレスト出身の元サッカー選手。	NO_PRONOUNCE	NO_LABEL
ルーマニア代表である。	るーまにあだいひょーである。	NO_LABEL
ポジションはMF。	ぽじしょんわえむえふ。	NO_LABEL
FCファルル・コンスタンツァを経て、1996年にステアウア・ブカレストに入団する。	NO_PRONOUNCE	NO_LABEL
そこで有能なプレーメーカーとして、入団直後から重要な役目を任された。	そこでゆーのーなぷれーめーかーとして、にゅーだんちょくごからじゅーよーなやくめをまかされた。	NO_LABEL
1997年と1998年の2シーズン続けてルーマニア・リーグを制し、同様に続けてUEFAチャンピオンズリーグに出場した。	NO_PRONOUNCE	NO_LABEL
1999年にはスペインのバレンシアCFに入団するが、出場機会に恵まれず、ビジャレアルCFやエルチェCFなどにレンタルされる。	せんきゅうひゃくきゅうじゅうきゅうねんにわすぺいんのばれんしあくるぶでふとぼるににゅーだんするが、しゅつじょーきかいにめぐまれず、びじゃれあるくるぶでふとぼるやえるちぇくるぶでふとぼるなどにれんたるされる。	NO_LABEL
エルチェでは35試合11得点と好プレーを見せてバレンシアに引き戻されるが、結局スペインを離れることになった。	えるちぇでわさんじゅうごしあいじゅういちとくてんとこーぷれーをみせてばれんしあにひきもどされるが、けっきょくすぺいんをはなれることになった。	NO_LABEL
母国のラピド・ブカレストを経て再びスペインにやってきた彼はポリ・エヒドなどでプレーしたが、結果を残すことは出来なかった。	ぼこくのらぴどぶかれすとをへてふたたびすぺいんにやってきたかれわぽりえひどなどでぷれーしたが、けっかをのこすことわできなかった。	NO_LABEL
2005-06シーズンにはギリシャ2部のAEL 1964に移籍し、1部昇格に貢献。	NO_PRONOUNCE	NO_LABEL
ディナモ・ブカレストで1シーズン過ごした後に現役引退した。	NO_PRONOUNCE	NO_LABEL
引退後は指導者としての道を歩んでいる。	いんたいごわしどーしゃとしてのみちをあゆんでいる。	NO_LABEL
1996年から2001年までの間にルーマニア代表として13試合に出場した。	せんきゅうひゃくきゅうじゅうろくねんからにせんいちねんまでのまにるーまにあだいひょーとしてじゅうさんしあいにしゅつじょーした。	NO_LABEL
2000年11月15日のユーゴスラビアとの親善試合で代表初得点した。	にせんねんじゅーいちがつじゅうごにちのゆーごすらびあとのしんぜんじあいでだいひょーはつとくてんした。	NO_LABEL
