第13空軍はアメリカ空軍・太平洋空軍に属していた航空軍のひとつである。	NO_PRONOUNCE	NO_LABEL
司令部はハワイ州ヒッカム空軍基地に所在していた。	しれいぶわはわいしゅーひっかむくーぐんきちにしょざいしていた。	NO_LABEL
第二次世界大戦中の1943年にソロモン諸島の戦いに対応するために設立された。	だいにじせかいたいせんちゅーのせんきゅうひゃくよんじゅうさんねにそろもんしょとーのたたかいにたいおーするためにせつりつされた。	NO_LABEL
アメリカ陸軍が侵攻するに伴い、パラオの戦いやフィリピンの戦いにも投入されている。	あめりかりくぐんがしんこーするにともない、ぱらおのたたかいやふぃりぴんのたたかいにもとーにゅーされている。	NO_LABEL
第二次世界大戦後は移転を繰り返したが、1949年にフィリピン・ルソン島のクラーク空軍基地に所在することとなる。	NO_PRONOUNCE	NO_LABEL
朝鮮戦争には投入されなかったが、ベトナム戦争では前線に近い後方基地所在部隊として積極的に運用され、一部部隊はタイ王国に展開し、作戦行動を実施した。	ちょーせんせんそーにわとーにゅーされなかったが、べとなむせんそーでわぜんせんにちかいこーほーきちしょざいぶたいとしてせっきょくてきにうんよーされ、いちぶぶたいわたいおーこくにてんかいし、さくせんこーどーをじっしした。	NO_LABEL
1991年にクラーク空軍基地が閉鎖され、そこから撤退しグアム島アンダーセン空軍基地に移転する。	せんきゅうひゃくきゅうじゅういちねんにくらーくくーぐんきちがへいさされ、そこからてったいしぐあむとーあんだーせんくーぐんきちにいてんする。	NO_LABEL
2005年には作戦指揮機構の充実を図るため、ヒッカム空軍基地に移転した。	にせんごねんにわさくせんしききこーのじゅーじつをはかるため、ひっかむくーぐんきちにいてんした。	NO_LABEL
具体的には2005年6月にはケニー司令部が第13空軍に創設され、太平洋空軍全体の戦闘の指揮をとることになった。	NO_PRONOUNCE	NO_LABEL
第5と第11空軍司令部は部隊の維持管理に責任を持ち、戦時の運用は第13空軍ケニー司令部が、自己の部隊に第5と第11空軍のそれも加え統合的に行うのである。	NO_PRONOUNCE	NO_LABEL
「ケニー司令部」の名称は、アメリカ陸軍航空軍で第5軍司令を務めたジョージ・チャーチル・ケニー中将にちなむ。	NO_PRONOUNCE	NO_LABEL
さらに第13空軍第1分遣隊が2007年に日本に設立されており、これは常設の作戦指揮機構として計画立案、作戦実施、613AOCおよび第5空軍、航空自衛隊との調整を行なっていた。	NO_PRONOUNCE	NO_LABEL
2012年9月28日閉隊し、その機能とケニー司令部をはじめとした主要な部隊は太平洋空軍に移管された。	NO_PRONOUNCE	NO_LABEL
