青木 愛は、日本の実業家。	あおきあいわ、にっぽんのじつぎょーか。	NO_LABEL
ヴィリーナ ジャパン株式会社代表取締役社長。	NO_PRONOUNCE	NO_LABEL
東京都出身。	とーきょーとしゅっしん。	NO_LABEL
アシェット婦人画報社に入社。	あしぇっとふじんがほーしゃににゅーしゃ。	NO_LABEL
同社では『ヴァンサンカン』『ヴァンテーヌ』などファッション雑誌の編集に携わる。	NO_PRONOUNCE	NO_LABEL
2000年、結婚。	にせんねん、けっこん。	NO_LABEL
2003年、夫のコロンビア大学大学院の留学に伴い、渡米	にせんさんねん、おっとのころんびあだいがくだいがくいんのりゅーがくにともない、とべい	NO_LABEL
ニューヨークの『エル・ガール』編集部で働く。	NO_PRONOUNCE	NO_LABEL
NYにて長男を出産後、帰国。	にゅーよーくにてちょーなんをしゅっさんご、きこく。	NO_LABEL
エル・ジャポン編集部を経て退社。	NO_PRONOUNCE	NO_LABEL
カレン・サルマンソン著『ホットママ～私、妊婦ですが何か？』を翻訳。	NO_PRONOUNCE	NO_LABEL
マタニティの輸入販売ショップ、ヴィリーナ ジャパン株式会社を設立。	NO_PRONOUNCE	NO_LABEL
