國保 陽平は、アメリカ合衆国で活動する日本の野球選手。	こくぼよーへいわ、あめりかがっしゅーこくでかつどーするにっぽんのやきゅーせんしゅ。	NO_LABEL
岩手県盛岡市出身。	いわてけんもりおかししゅっしん。	NO_LABEL
岩手県立盛岡第一高等学校、筑波大学体育専門学群、社会人クラブチーム「Tsukuba Club」を経て2010年、アリゾナサマーリーグに参加。	NO_PRONOUNCE	NO_LABEL
同年ゴールデンベースボールリーグ“Tijuana Cimarrones”と契約した。	NO_PRONOUNCE	NO_LABEL
背番号20。	せばんごーにじゅー。	NO_LABEL
外野手としてプレーしている。	がいやしゅとしてぷれーしている。	NO_LABEL
