徳光 ゆう子は、埼玉県在住のタレント、お弁当作家。	とくみつゆーこわ、さいたまけんざいじゅーのたれんと、おべんとーさっか。	NO_LABEL
ハンドルネームは「ムク」。	NO_PRONOUNCE	NO_LABEL
エイアールリレーションズ所属。	えいあーるりれーしょんずしょぞく。	NO_LABEL
2007年3月に自らの作品を掲載するブログ「のんびり日記～ムクのキャラ弁～」を開設。	NO_PRONOUNCE	NO_LABEL
2007年8月〜2009年2月テレビ東京「ロンブーの怪傑!トリックスター」において、キャラ弁を扱ったクイズコーナー「トリックキャラ弁」の問題用キャラ弁を作る。	NO_PRONOUNCE	NO_LABEL
