伊藤 紗弥は、日本の女子キックボクサー。	いとーさやわ、にっぽんのじょしきっくぼくさー。	NO_LABEL
尚武会所属。	しょーぶかいしょぞく。	NO_LABEL
4歳の時からキックボクシングを始めムエタイの蹴り技を得意とする。	よんさいのときからきっくぼくしんぐをはじめむえたいのけりわざをとくいとする。	NO_LABEL
メディアでは「天才ムエタイ少女」と称される。	NO_PRONOUNCE	NO_LABEL
入場曲は島壽一成『Fighting girl』。	NO_PRONOUNCE	NO_LABEL
現WBCムエタイ世界女子ミニフライ級王者。	げんだぶるびーしーむえたいせかいじょしみにふらいきゅーおーじゃ。	NO_LABEL
現WMC世界女子ミニフライ級王者。	げんだぶるえむしーせかいじょしみにふらいきゅーおーじゃ。	NO_LABEL
元WPMF世界女子ピン級王者。	もとだぶるぴーえむえふせかいじょしぴんきゅーおーじゃ。	NO_LABEL
4歳の頃からムエタイ式のキックボクシングを始める。	よんさいのころからむえたいしきのきっくぼくしんぐをはじめる。	NO_LABEL
小学5年生ながらも同学年の女子ではなく年上の男子相手に51戦44勝5敗2分という戦績を残す。	しょーがくごねんせいながらもどーがくねんのじょしでわなくとしうえのだんしあいてにごじゅういちせんよんじゅうよんしょーごはいにふんとゆうせんせきをのこす。	NO_LABEL
6歳でジュニアグローブ空手道大会トーナメントで優勝し、2008年には国際ジュニアキックボクシング連盟のチャンピオンとなった。	ろっさいでじゅにあぐろーぶからてどーたいかいとーなめんとでゆーしょーし、にせんはちねんにわこくさいじゅにあきっくぼくしんぐれんめいのちゃんぴおんとなった。	NO_LABEL
『ナイナイのスポーツ絶対に負けられないガチバトル』では岡村隆史とムエタイで対決し、勝利を収めた。	NO_PRONOUNCE	NO_LABEL
中学2年生時の2012年12月にはプロのタイトルであるWPMF女子世界ピン級暫定王座を獲得。	ちゅーがくにねんせいじのにせんじゅうにねんじゅーにがつにわぷろのたいとるであるだぶるぴーえむえふじょしせかいぴんきゅーざんていおーざをかくとく。	NO_LABEL
2014年4月27日、新宿FACEで開催される「ムエローク2014 1st」にてパク・ヘヨン戦で日本でのプロデビューを果たす。	NO_PRONOUNCE	NO_LABEL
