渡辺 信綱は、江戸時代中期の大名。	わたなべのぶつなわ、えどじだいちゅーきのだいみょー。	NO_LABEL
和泉国伯太藩の第3代藩主。	いずみのくにはかたはんのだいさんだいはんしゅ。	NO_LABEL
伯太藩渡辺家5代。	はかたはんわたなべかごだい。	NO_LABEL
享保12年、第2代藩主・渡辺登綱の次男として誕生。	NO_PRONOUNCE	NO_LABEL
長兄・充綱が早世したため、世子となる。	NO_PRONOUNCE	NO_LABEL
明和4年9月10日、父の隠居により跡を継いだ。	めいわよんねんくがつとおか、ちちのいんきょによりあとをついだ。	NO_LABEL
明和9年正月22日、死去。	めいわきゅうねんしょーがつにじゅうににち、しきょ。	NO_LABEL
享年46。	NO_PRONOUNCE	NO_LABEL
跡を次男・伊綱が継いだ。	NO_PRONOUNCE	NO_LABEL
