産前産後休業は、女性労働者が母体保護のため出産の前後においてとる休業の期間である。	さんぜんさんごきゅうぎょーわ、じょせいろうどーしゃがぼたいほごのためしゅっさんのぜんごにおいてとるきゅーぎょーのきかんである。	NO_LABEL
産休とも称される。	さんきゅーともしょーされる。	NO_LABEL
産前産後休業期間中の賃金の支払については、労働基準法上は産前産後期間中の賃金保障を義務付けておらず、各企業の就業規則等による。	さんぜんさんごきゅうぎょーきかんちゅーのちんぎんのしはらいについてわ、ろーどーきじゅんほーじょーわさんぜんさんごきかんちゅーのちんぎんほしょーをぎむずけておらず、かくきぎょーのしゅーぎょーきそくとーによる。	NO_LABEL
そのために賃金の支払を受けられない者に対して、健康保険等の被保険者であって所定の要件を満たす者は、出産手当金として休業1日につき標準報酬日額の3分の2相当額が支給される。	そのためにちんぎんのしはらいをうけられないものにたいして、けんこーほけんとーのひほけんしゃであってしょていのよーけんをみたすものわ、しゅっさんてあてきんとしてきゅーぎょーついたちにつきひょーじゅんほうしゅーにちがくのさんぶんのにそーとーがくがしきゅーされる。	NO_LABEL
法改正により、平成26年4月30日以降に産前産後休業が終了となる被保険者については、 産前産後休業期間中の健康保険・厚生年金保険の保険料が、事業主の申出により、被保険者分及び事業主分とも免除される。	NO_PRONOUNCE	NO_LABEL
この申出書は、産前産後休業期間中に事業主が日本年金機構に提出する。	このもうしいでしょわ、さんぜんさんごきゅうぎょーきかんちゅーにじぎょーぬしがにっぽんねんきんこーにていしゅつする。	NO_LABEL
被保険者が産前産後休業期間を変更したとき、または産前産後休業終了予定日の前日までに産前産後休業を終了したときは、速やかに「産前産後休業取得者変更届」を日本年金機構へ提出する。	NO_PRONOUNCE	NO_LABEL
産前産後休業の終了日が平成26年4月1日以降の被保険者を対象に、産前産後休業終了日に当該産前産後休業に係る子を養育している被保険者は、一定の条件を満たす場合、産前産後休業終了日の翌日が属する月以後3ヶ月間に受けた報酬の平均額に基づき、4か月目の標準報酬月額から改定することができる。	NO_PRONOUNCE	NO_LABEL
つまり、休業による賃金の低下に即応して標準報酬月額を減額改定し、健康保険・厚生年金保険の保険料を安くできる。	NO_PRONOUNCE	NO_LABEL
被保険者が事業主を経由して、「産前産後休業終了時報酬月額変更届」を日本年金機構へ速やかに提出する。	NO_PRONOUNCE	NO_LABEL
ただし、産前産後休業終了日の翌日に育児休業を開始している場合は、この申出はできず、育児休業終了時に同様の申出を行う。	ただし、さんぜんさんごきゅうぎょーしゅーりょーびのよくじつにいくじきゅうぎょーをかいししているばあいわ、このもうしいでわできず、いくじきゅうぎょーしゅーりょーじにどーよーのもうしいでをおこなう。	NO_LABEL
またこれらの規定により標準報酬月額が減額改定されても、子が3歳になるまでは年金額の計算については、減額改定される前の標準報酬月額で計算され、保険料の負担が抑えられたまま従来の年金額が保障される。	またこれらのきていによりひょーじゅんほうしゅーげつがくがげんがくかいていされても、こがさんさいになるまでわねんきんがくのけいさんについてわ、げんがくかいていされるまえのひょーじゅんほうしゅーげつがくでけいさんされ、ほけんりょーのふたんがおさえられたままじゅーらいのねんきんがくがほしょーされる。	NO_LABEL
第19条、第65条の規定に違反した者は、6ヶ月以下の懲役又は30万円以下の罰金に処する。	NO_PRONOUNCE	NO_LABEL
労働基準法上は産前産後休業は労働者の権利として認められていて、事業主は産前産後休業の請求に応じなければならないが、日本の企業社会には、「男と女は異なる社会的役割がある。	NO_PRONOUNCE	NO_LABEL
男は社会で働き家族を養う収入を得る。	おとこわしゃかいではたらきかぞくをやしなうしゅーにゅーをえる。	NO_LABEL
女は専業主婦として家事や育児をする。	おんなわせんぎょーしゅふとしてかじやいくじをする。	NO_LABEL
」という考えや、「産前産後休業を取得されたら、同じ職場で働く人にとっても、経営者にとっても迷惑でしかない。	NO_PRONOUNCE	NO_LABEL
」という考えを持ち、法違反を承知で結婚・妊娠した女性を、様々な方法で退職に追い込む事業主も存在する。	NO_PRONOUNCE	NO_LABEL
結婚・妊娠した女性の側も、そのような職場を見限って、自分や家族の利益を守るためにやむなく退職・転職する事例も見られる。	NO_PRONOUNCE	NO_LABEL
その結果、日本では、結婚・出産以前や、子供の成長により育児負担が少なくなる以後と比較して、結婚・出産から子供が小学校低学年の育児期の女性の就業率が低くなっている。	NO_PRONOUNCE	NO_LABEL
このことは、女性の労働力率を示す指標において、いわゆる「M字カーブ」と呼ばれる現象に如実に現れている。	NO_PRONOUNCE	NO_LABEL
