エレオノーレは、ヨーロッパで用いられるプロヴァンス起源の女性名。	えれおのーれわ、よーろっぱでもちいられるぷろばんすきげんのじょせいめい。	NO_LABEL
フランス語圏ではエレオノール、エレアノール、アリエノール、イタリア語圏ではエレオノーラとなる。	ふらんすごけんでわえれおのーる、えれあのーる、ありえのーる、いたりあごけんでわえれおのーらとなる。	NO_LABEL
レオノール、レオノーラ、レオノーレ、エレアノール、エリナー、エリノアなどにも対応する。	れおのーる、れおのーら、れおのーれ、えれあのーる、えりなー、えりのあなどにもたいおーする。	NO_LABEL
