ピエール・セニエット (Pierre Seignette、1660年12月4日 - 1719年3月11日）は、フランスの医師、薬剤師である。	NO_PRONOUNCE	NO_LABEL
酒石酸カリウムナトリウムを合成し、ロッシェル塩として瀉下薬として用いた。	NO_PRONOUNCE	NO_LABEL
医薬品合成のパイオニアである。	いやくひんごーせいのぱいおにあである。	NO_LABEL
ラ・ロシェルに新教徒の家に生まれた。	らろしぇるにしんきょーとのいえにうまれた。	NO_LABEL
ラ・ロシェルの大学に入るためにカトリックに改宗した。	らろしぇるのだいがくにはいるためにかとりっくにかいしゅーした。	NO_LABEL
1672年に酒石酸カリウムナトリウムを合成した。	せんろっぴゃくななじゅうにねんにしゅせきさんかりうむなとりうむをごーせいした。	NO_LABEL
その製法を秘密とし、polychrestの名前で販売し、数年で財産を築いたが、1731年にボルデュックによって、科学アカデミーで製法を発表された。	NO_PRONOUNCE	NO_LABEL
温泉の薬効にも興味を持ち、1696年にピレネー山脈の温泉を調査した。	おんせんのやっこーにもきょーみをもち、せんろっぴゃくきゅうじゅうろくねんにぴれねーさんみゃくのおんせんをちょーさした。	NO_LABEL
セニエットの時代は化合物を医療に用いるようになった時代で、1677年にグラセルが硫酸カリウムや硝酸銀を売り出し、ルムリーやパルトレット、ミュレルらが炭酸マグネシウムや硫酸マグネシウム、酢酸カリウムを合成、精製し医薬品として用いるようになった。	せにえっとのじだいわかごーぶつをいりょーにもちいるよーになったじだいで、せんろっぴゃくななじゅうななねんにぐらせるがりゅーさんかりうむやしょーさんぎんをうりだし、るむりーやぱるとれっと、みゅれるらがたんさんまぐねしうむやりゅーさんまぐねしうむ、さくさんかりうむをごーせい、せいせいしいやくひんとしてもちいるよーになった。	NO_LABEL
