熊本北バイパスは、熊本県熊本市及び合志市を走る国道3号のバイパス道路。	くまもときたばいぱすわ、くまもとけんくまもとしおよびこーししをはしるこくどーさんごーのばいぱすどーろ。	NO_LABEL
熊本都市圏の環状道路機能を果たし、地域高規格道路である熊本環状道路の一部を形成する。	くまもととしけんのかんじょーどーろきのーをはたし、ちーきこうきかくどーろであるくまもとかんじょーどーろのいちぶをけいせいする。	NO_LABEL
国道3号と国道57号を接続する延長7.6kmの道路である。	NO_PRONOUNCE	NO_LABEL
1973年度に事業に着手して1985年度に着工した。	せんきゅうひゃくななじゅうさんねんどにじぎょーにちゃくしゅしてせんきゅうひゃくはちじゅうごねんどにちゃっこーした。	NO_LABEL
2015年3月28日に熊本市北区四方寄町の国道3号から須屋高架橋までの1.8km区間の開通により、全線開通した。	NO_PRONOUNCE	NO_LABEL
施設	しせつ	NO_LABEL
河川・湖畔	NO_PRONOUNCE	NO_LABEL
