富山大学事件とは、富山大学の学生が履修していた科目の単位修得を認められなかったことで単位不認定等の違法確認を求めた行政訴訟。	とやまだいがくじけんとわ、とやまだいがくのがくせいがりしゅーしていたかもくのたんいしゅーとくをみとめられなかったことでたんいふにんていとーのいほーかくにんをもとめたぎょーせいそしょー。	NO_LABEL
この裁判では、	このさいばんでわ、	NO_LABEL
の2つが争われた。	のふたつがあらそわれた。	NO_LABEL
最高裁判所第三小法廷昭和52年3月15日判決。	さいこーさいばんしょだいさんしょーほーていしょーわごじゅうにねんさんがつじゅうごにちはんけつ。	NO_LABEL
富山大学の学生であった原告6名は、昭和41年度のA教授の講義を受講していたところ、経済学部長は同年12月にA教授の授業担当停止の措置、及び学生への代替科目履修の指示を行った。	NO_PRONOUNCE	NO_LABEL
原告はこの指示に従わず、A教授の授業を受け続け、試験を受けた。	NO_PRONOUNCE	NO_LABEL
そしてA教授は合格の判定を行い、学部長に成績票を提出した。	NO_PRONOUNCE	NO_LABEL
ところが学部長による単位認定は行われることがなかったので、原告が学部長を被告として、単位授与・不授与未決定の違法確認の訴えを起こした。	NO_PRONOUNCE	NO_LABEL
裁判では、一審が「特別権力関係における内部事項」であるとし、訴え却下。	NO_PRONOUNCE	NO_LABEL
二審は一審を支持して控訴を棄却。	にしんわいちしんをしじしてこーそをききゃく。	NO_LABEL
原告上告。	げんこくじょーこく。	NO_LABEL
専攻科の学生もまた、教官の演習などを受講していたが、この学生もまた経済学部長に対して単位認定を求めると同時に、学長に対しても専攻科不修了の違法確認の訴えを起こしている。	せんこーかのがくせいもまた、きょーかんのえんしゅーなどをじゅこーしていたが、このがくせいもまたけいざいがくぶちょーにたいしてたんいにんていをもとめるとどーじに、がくちょーにたいしてもせんこーかふしゅーりょーのいほーかくにんのうったえをおこしている。	NO_LABEL
一審は訴えを却下したが、二審で訴えの適法性を認め、原判決をすべて破棄して富山地方裁判所へ審理を差し戻したため、学部長・学長側が上告。	NO_PRONOUNCE	NO_LABEL
上告棄却。	じょーこくききゃく。	NO_LABEL
「大学は、国公立であると私立であるとを問わず、学生の教育と学術の研究とを目的とする教育研究施設であって、……一般市民社会とは異なる特殊な部分社会を形成しているのであるから、このような特殊な部分社会である大学における法律上の係争のすべてが当然に裁判所の司法審査の対象になるものではない。	NO_PRONOUNCE	NO_LABEL
」	NO_PRONOUNCE	NO_LABEL
単位認定の請求について破棄自判、その他について上告棄却。	たんいにんていのせいきゅーについてはきじはん、そのたについてじょーこくききゃく。	NO_LABEL
「国公立の大学は公の教育研究施設として一般市民の利用に供されたものであり、学生は一般市民としてかかる公の施設である国公立大学を利用する権利を有するから、学生に対して国公立大学の利用を拒否することは、学生が一般市民として有する右公の施設を利用する権利を侵害するものとして司法審査の対象になるものというべきである。	NO_PRONOUNCE	NO_LABEL
」	NO_PRONOUNCE	NO_LABEL
この裁判で問題となったのは、「特別権力関係論」と、それに代わる「部分社会論」である。	NO_PRONOUNCE	NO_LABEL
前者は一般権力関係に対置されるもので、公務員、在監者、国立大学学生など国に服する者に対して用いられ、大日本帝国憲法以来、公権力による人権制限の法理として有力であった。	NO_PRONOUNCE	NO_LABEL
しかし日本国憲法下では修正をしないと用いることが難しくなり、下級審判決で採用した本法理を、最高裁判決では採用していないと見られる。	しかしにほんこくけんぽーかでわしゅーせいをしないともちいることがむずかしくなり、かきゅーしんはんけつでさいよーしたほんほーりを、さいこーさいはんけつでわさいよーしていないとみられる。	NO_LABEL
判旨は「一般市民社会とは異なる特殊な部分社会を形成している」として、大学について、部分社会論を採用した。	NO_PRONOUNCE	NO_LABEL
この法理は大学のみならず、地方議会、政党、宗教団体、労働組合、私企業などにも当てはまる。	このほーりわだいがくのみならず、ちほーぎかい、せいとー、しゅーきょーだんたい、ろーどーくみあい、しきぎょーなどにもあてはまる。	NO_LABEL
なおここで問題となるのは、単位認定そのものは司法審査になじまないが、「特段の事情」があるものについては司法審査の対象となる、ということである。	NO_PRONOUNCE	NO_LABEL
