『けんかえれじい』は、鈴木隆の小説作品、およびそれを原作として映像化した映画作品・TVドラマ作品。	NO_PRONOUNCE	NO_LABEL
1966年に理論社で刊行。	せんきゅうひゃくろくじゅうろくねんにりろんしゃでかんこー。	NO_LABEL
小説は上下巻に分冊されたTBS出版会版、および角川文庫版、岩波現代文庫版が刊行されている。	しょーせつわじょーげまきにぶんさつされたてぃーびーえすしゅっぱんかいばん、およびかどかわぶんこばん、いわなみげんだいぶんこばんがかんこーされている。	NO_LABEL
鈴木清順監督、高橋英樹主演で1966年に公開された。	すずきせいじゅんかんとく、たかはしひできしゅえんでせんきゅうひゃくろくじゅうろくねんにこーかいされた。	NO_LABEL
製作は日活で、鈴木清順が先に手掛けた『東京流れ者』の続編『続東京流れ者　海は真っ赤な恋の色』と2本立てで公開された。	NO_PRONOUNCE	NO_LABEL
なお同映画の脚本を含む鈴木清順『けんかえれじい』があり、のちに日本図書センターで再刊されている。	NO_PRONOUNCE	NO_LABEL
「悲歌といっても、詩情あふれる序奏のようなものはない。	NO_PRONOUNCE	NO_LABEL
さっそく喧嘩の本題に入りたい」から始まる原作は昭和10年頃の旧制中学において「バンカラ」と呼ばれた少年たちが喧嘩に明け暮れる日々を描いた、鈴木隆の同名小説が原作、新藤兼人が脚本を書いた。	NO_PRONOUNCE	NO_LABEL
鈴木清順の監督起用は、先に鈴木が『悪太郎』『悪太郎伝 悪い星の下でも』を成功させた功績を会社が見込んでのことだったが、鈴木は「脇役が面白くない」などの理由で脚本に大幅な改変を加え、更に原作にも脚本にもない、北一輝と主人公との遭遇を追加し、それでも満足できなかった場面は、撮影中に即興演出による改変を加えた。	NO_PRONOUNCE	NO_LABEL
主演の高橋英樹は「わけもわからず演技をしていたが、出来上がった作品を観て名作だと確信した」と絶賛したが、脚本の新藤兼人は「これは自分の作品ではない」と不満をあらわにした。	NO_PRONOUNCE	NO_LABEL
後半に登場する北一輝は、ケンカに明け暮れていた主人公が「もっと大きなケンカをしにいく」決意をして二・二六事件後の東京へ旅立つきっかけを作る役割を演じており、それは当時顕在化しつつあった全共闘運動のもたらしたアクティヴィズムを鈴木が敏感に感じ取った表れであるとして、観客たちに熱狂的に受け入れられた。	NO_PRONOUNCE	NO_LABEL
また、北一輝が出没するカフェのシーンは照明を極力落とし、北に給仕をするみさ子役の松尾嘉代は、絶対に手の平を見せないことで幽霊であることを暗示するなど、この場面が映画における異界であることを表現し、後の『ツィゴイネルワイゼン』や『陽炎座』につながる「清順スタイル」の原点となった。	NO_PRONOUNCE	NO_LABEL
なお、北一輝を演じた俳優・緑川宏は、『俺たちの血が許さない』の小林旭と高橋英樹の父親役、『刺青一代』の赤い靴を履いて高橋英樹を追い回す不気味な刑事役、『殺しの烙印』では片目のない男に怒鳴り散らす眼科医役など、鈴木清順作品に欠かせない名脇役として活躍したが、鈴木が解雇された後にそれを苦しんで精神を病み、自殺している。	NO_PRONOUNCE	NO_LABEL
日活を解雇された後、226事件後に主人公が急激に右傾化し、日中戦争に巻き込まれていく過程を描いた『続・けんかえれじい』の脚本が、鈴木と彼の盟友たちで結成された具流八郎グループによって執筆されるが、映画化には至らなかった。	NO_PRONOUNCE	NO_LABEL
旧制第二岡山中学校の生徒・南部麒六は夢見がちで柔らかい物腰の学生だったが、憧れの女性・道子を馬鹿にした上級生たちとケンカになり、上級生を叩きのめしてしまう。	NO_PRONOUNCE	NO_LABEL
その様子を見ていた同校OBでケンカの達人・スッポンは、麒六のケンカの才能を見込んで、麒六にケンカの極意を伝授。	NO_PRONOUNCE	NO_LABEL
麒六はたちまち学校の不良たちを制圧し、学校最大の勢力OSMS団の副団長に祭り上げられてしまう。	NO_PRONOUNCE	NO_LABEL
しかし、学校に軍事教練にやってきた教官と衝突し、岡山を出奔することとなる。	しかし、がっこーにぐんじきょーれんにやってきたきょーかんとしょーとつし、おかやまをしゅっぽんすることとなる。	NO_LABEL
会津若松の親戚の家に転がり込んだ麒六は、喜多方中学に入学し、ここでも地元のバンカラ集団昭和白虎隊と死闘を繰り広げる。	NO_PRONOUNCE	NO_LABEL
地元のカフェで出会った不気味な男が北一輝であることを二・二六事件の新聞報道で知った麒六は、道子との恋にも破れ、更に大きなケンカを求めに東京行きの列車に飛び乗るのだった。	NO_PRONOUNCE	NO_LABEL
NHK少年ドラマシリーズの一つとして1973年5月から6月まで6回放送された。	えぬえいちけいしょーねんどらましりーずのひとつとしてせんきゅうひゃくななじゅうさんねんごがつからろくがつまでろっかいほーそーされた。	NO_LABEL
