化学反応における架橋とは、主に高分子化学においてポリマー同士を連結し、物理的、化学的性質を変化させる反応のことである。	かがくはんのーにおけるかきょーとわ、おもにこーぶんしかがくにおいてぽりまーどーしをれんけつし、ぶつりてき、かがくてきせいしつをへんかさせるはんのーのことである。	NO_LABEL
柔らかく弾力性の小さいイソプレンポリマーが硫黄による架橋でタイヤなどに成型できるようになり、さらに架橋を進めることで堅いエボナイトとなるのはその好例である。	やわらかくだんりょくせいのこさいいそぷれんぽりまーがいおーによるかきょーでたいやなどにせいけいできるよーになり、さらにかきょーをすすめることでかたいえぼないととなるのわそのこーれいである。	NO_LABEL
硫黄による架橋は加硫とよばれている。	NO_PRONOUNCE	NO_LABEL
また、エポキシ樹脂接着剤の硬化はエピクロロヒドリンによる架橋を利用している。	また、えぽきしじゅしせっちゃくざいのこーかわえぴくろろひどりんによるかきょーをりよーしている。	NO_LABEL
また、生物の体毛は含硫タンパク質のシステイン同士の架橋によって「コシ」を保っている。	NO_PRONOUNCE	NO_LABEL
パーマ剤はこの架橋を一時的に断ち切ることにより髪を軟化させている。	ぱーまざいわこのかきょーをいちじてきにたちきることによりかみをなんかさせている。	NO_LABEL
