あきたこまちは、日本のイネの栽培品種の1つである。	あきたこまちわ、にっぽんのいねのさいばいひんしゅのひとつである。	NO_LABEL
1984年に秋田県の奨励品種に採用された。	せんきゅうひゃくはちじゅうよねんにあきたけんのしょーれいひんしゅにさいよーされた。	NO_LABEL
秋田県が独自の良食味品種を目指して開発した品種であるが、そもそもの由来が福井県交配種子を用いて育成されたため、種苗法による品種登録はされていない。	あきたけんがどくじのりょーしょくみひんしゅをめざしてかいはつしたひんしゅであるが、そもそものゆらいがふくいけんこーはいしゅしをもちいていくせいされたため、しゅびょーほーによるひんしゅとーろくわされていない。	NO_LABEL
そのため、知的財産としての裏付けはなく、隣県の岩手県をはじめ、関東、中四国、九州地方まで広く栽培されている。	そのため、ちてきざいさんとしてのうらずけわなく、りんけんのいわてけんをはじめ、かんとー、ちゅーしこく、きゅーしゅーちほーまでひろくさいばいされている。	NO_LABEL
1991年には作付面積10万haを越え、以降は作付面積2-4位と上位を維持している。	NO_PRONOUNCE	NO_LABEL
2005年の作付面積は約13万ha、順位は第4位である。	NO_PRONOUNCE	NO_LABEL
東北地方に限れば、ひとめぼれについで作付面積2位である。	とーほくちほーにかぎれば、ひとめぼれについでさくずけめんせきにーである。	NO_LABEL
味の特徴は、一言で言うともちもちとした粘りのある食感。	あじのとくちょーわ、ひとことでいうともちもちとしたねばりのあるしょっかん。	NO_LABEL
もち米のように粘りがあるのでおにぎりなど冷めてもおいしいと評価されている。	もちごめのよーにねばりがあるのでおにぎりなどさめてもおいしいとひょーかされている。	NO_LABEL
コシヒカリより早熟でかつコシヒカリの食味特性を持った品種を目指して育成された品種である。	こしひかりよりそーじゅくでかつこしひかりのしょくみとくせいをもったひんしゅをめざしていくせいされたひんしゅである。	NO_LABEL
地元の生産者の要望を受けて、秋田県単独予算の育種事業として品種開発が行なわれた。	じもとのせいさんしゃのよーぼーをうけて、あきたけんたんどくよさんのいくしゅじぎょーとしてひんしゅかいはつがおこなわれた。	NO_LABEL
交配組合せはコシヒカリ/奥羽292号であり、1975年に福井県農業試験場で交配が行なわれた。	NO_PRONOUNCE	NO_LABEL
1977年に雑種第一代1個体分の雑種第二代種子を秋田県農業試験場が譲り受け、その年の圃場栽培から後代の育成・選抜を行なった。	NO_PRONOUNCE	NO_LABEL
1981年に雑種第六代の選抜終了後、有望系統に「秋田31号」の地方番号が与えられた。	NO_PRONOUNCE	NO_LABEL
1982年以降の各種試験に供された。	せんきゅうひゃくはちじゅうにねんいこーのかくしゅしけんにきょーされた。	NO_LABEL
1984年に秋田県の奨励品種に採用され、秋田県湯沢市小野の小野小町生誕伝説にちなみ「あきたこまち」と命名された。	NO_PRONOUNCE	NO_LABEL
秋田県内でも冷害など回避して安全に栽培できる熟期であり、秋田県では早生の晩を示す粳品種である。	あきたけんないでもれいがいなどかいひしてあんぜんにさいばいできるじゅくきであり、あきたけんでわわせのばんをしめすうるちひんしゅである。	NO_LABEL
玄米外観品質は特に優れる程ではないが実用上問題はない。	げんまいがいかんひんしつわとくにすぐれるほどでわないがじつよーじょーもんだいわない。	NO_LABEL
炊飯米は外観はササニシキ並みの光沢を持つ。	すいはんまいわがいかんわささにしきなみのこーたくをもつ。	NO_LABEL
食味はササニシキ・コシヒカリと比較して遜色なく、強い粘りを持っている。	NO_PRONOUNCE	NO_LABEL
ちなみにいもち病に対する抵抗性には優れるものの、ササニシキと同じく耐倒伏性には弱い。	ちなみにいもちびょーにたいするていこーせいにわすぐれるものの、ささにしきとおなじくつよしとーふくせいにわよわい。	NO_LABEL
秋田県産あきたこまちの場合の一例。	あきたけんさんあきたこまちのばあいのいちれい。	NO_LABEL
