ケンブリッジ大学は、イギリスの大学都市ケンブリッジに所在する総合大学であり、イギリス伝統のカレッジ制を特徴とする世界屈指の名門大学である。	けんぶりっじだいがくわ、いぎりすのだいがくとしけんぶりっじにしょざいするそーごーだいがくであり、いぎりすでんとーのかれっじせいをとくちょーとするせかいくっしのめいもんだいがくである。	NO_LABEL
中世に創設されて以来、英語圏ではオックスフォード大学に次ぐ古い歴史をもっており、アンシャン・ユニヴァシティーに属する。	NO_PRONOUNCE	NO_LABEL
ハーバード大学、シカゴ大学、オックスフォード大学等と並び、各種の世界大学ランキングで常にトップレベルの優秀な大学として評価されており、公式のノーベル賞受賞者は96人と、世界の大学・研究機関で最多。	NO_PRONOUNCE	NO_LABEL
総長はで、副総長は。	そーちょーわで、ふくそーちょーわ。	NO_LABEL
公式サイトでは国公立大学と紹介している。	こーしきさいとでわこっこーりつだいがくとしょーかいしている。	NO_LABEL
法的根拠が国王の勅許状により設立された自治団体であること、大学財政審議会（UFC)を通じて国家から国庫補助金の配分を受けており、大学規模や文科・理科の配分比率がUFCにより決定されていること、法的性質が明らかに違うバッキンガム大学等の私立大学が近年新設されたことによる。	NO_PRONOUNCE	NO_LABEL
ただし、自然発生的な創立の歴史や高度な大学自治、独自の財産と安定収入のあるカレッジの存在、日本でいう国公立大学とは解釈が異なる。	ただし、しぜんはっせいてきなそーりつのれきしやこーどなだいがくじち、どくじのざいさんとあんていしゅーにゅーのあるかれっじのそんざい、にっぽんでいうこっこーりつだいがくとわかいしゃくがことなる。	NO_LABEL
アメリカ、ヨーロッパ、アジア、アフリカ各国からの留学生も多い。	あめりか、よーろっぱ、あじあ、あふりかかっこくからのりゅーがくせいもおーい。	NO_LABEL
2005年現在、EU外からの学生は3,000人を超え、日本からの留学生も毎年十数人～数十人規模となっている。	NO_PRONOUNCE	NO_LABEL
研究者の交流も盛んで、日本からの在外訪問研究者も多い。	けんきゅうしゃのこーりゅーもさかんで、にっぽんからのざいがいほーもんけんきゅうしゃもおーい。	NO_LABEL
13世紀初頭に、町の人々と対立してオックスフォードから逃れてきた学者たちが、この町に住み着き、研究・教育活動を始めたのを起源とする中世大学である。	NO_PRONOUNCE	NO_LABEL
彼らの活動はやがて、イングランド国王の保護なども受けて発展をはじめ、現存する最古のカレッジ、Peterhouseは1284年の創立。	NO_PRONOUNCE	NO_LABEL
13世紀にはヴァチカンからストゥディウム・ゲネラーレの認定を受けている。	NO_PRONOUNCE	NO_LABEL
アイザック・ニュートン、チャールズ・ダーウィン、ジョン・メイナード・ケインズ等、近世以降の人類史において、社会の変革に大きく貢献した数々の著名人を輩出してきた。	あいざっくにゅーとん、ちゃーるずだーうぃん、じょんめいなーどけいんずとー、きんせいいこーのじんるいしにおいて、しゃかいのへんかくにおーきくこーけんしたかずかずのちょめいじんをはいしゅつしてきた。	NO_LABEL
ケンブリッジ大学は、31のカレッジから成るカレッジ制を採る。	NO_PRONOUNCE	NO_LABEL
カレッジは「学寮」とも訳され、全ての学生は学部生・大学院生を問わず、1つのカレッジに所属する。	NO_PRONOUNCE	NO_LABEL
学部生の入学者選抜はカレッジ毎に行われ、一部の学科を除いてAレベル試験の成績の他に、面接試験で判定される。	NO_PRONOUNCE	NO_LABEL
歴史的に見れば、カレッジは教師と学生が寝食を共にし、そこで共に学ぶという修道院の形態に由来している。	れきしてきにみれば、かれっじわきょーしとがくせいがしんしょくをともにし、そこでともにまなぶとゆうしゅーどーいんのけいたいにゆらいしている。	NO_LABEL
19世紀の半ばまで、教員は英国国教会徒であること、および生涯独身であることなどが義務付けられていたが、大学改革により義務は緩和された。	じゅうきゅうせいきのなかばまで、きょーいんわえいこくこっきょーかいとであること、およびしょーがいどくしんであることなどがぎむずけられていたが、だいがくかいかくによりぎむわかんわされた。	NO_LABEL
現在では国教会に限らず、プロテスタント系、カトリックのカレッジも存在している。	げんざいでわこっきょーかいにかぎらず、ぷろてすたんとけい、かとりっくのかれっじもそんざいしている。	NO_LABEL
各カレッジは代々固有の財産と安定収入を持ち、伝統的な資産はイギリス各地の荘園、農園であり、近年では株式の割合も増えている。	かくかれっじわだいだいこゆーのざいさんとあんていしゅーにゅーをもち、でんとーてきなしさんわいぎりすかくちのしょーえん、のーえんであり、きんねんでわかぶしきのわりあいもふえている。	NO_LABEL
カレッジの資産を管理・運用するフェローのことをと呼び、経済学者のケインズはケンブリッジ大学のキングス・カレッジのバルサーであった。	NO_PRONOUNCE	NO_LABEL
学部生の教育は、伝統的にはカレッジで教員と学生の1対1で行われていた。	NO_PRONOUNCE	NO_LABEL
カレッジによるこうした指導を「チュートリアル」と呼び、チュートリアルを施す教員を「チューター」と呼ぶ。	NO_PRONOUNCE	NO_LABEL
現在ではチューターは生活面で学生の面倒を見る教員を指す。	げんざいでわちゅーたーわせいかつめんでがくせいのめんどーをみるきょーいんをさす。	NO_LABEL
ただし、「シニア・チューター」と呼ばれるチューターのリーダーは、現在でも各カレッジにおける教育の最高責任者と見なされている。	NO_PRONOUNCE	NO_LABEL
またオックスフォード大学、ダラム大学は、同種のカレッジ制を採用した大学であることから、大学間でカレッジ対抗のスポーツイベント、ドオックスブリッジが開催されている。	またおっくすふぉーどだいがく、だらむだいがくわ、どーしゅのかれっじせいをさいよーしただいがくであることから、だいがくかんでかれっじたいこーのすぽーついべんと、どおっくすぶりっじがかいさいされている。	NO_LABEL
現在の授業はカレッジではなく、学部・学科が中心となって行われる。	NO_PRONOUNCE	NO_LABEL
授業には2つの形態があり、1つは学部・学科の提供するもので多くの学生が集まって聴講する講義形式の授業、もう1つはカレッジの責任で行われる「スーパービジョン」と呼ばれる個人または少人数形式の授業である。	NO_PRONOUNCE	NO_LABEL
各カレッジには科目毎に学習指導教員がおり、学習指導教員は学部・学科から推薦された教員・研究員・大学院博士課程の学生の中から、学生ひとりひとりに「スーパーバイザー」と呼ばれる指導教員を任命する。	NO_PRONOUNCE	NO_LABEL
スーパービジョンでは文科系の場合、与えられた課題に対して小論文を事前に提出し、その小論文について指導教官が添削したものを学生と議論しながら指導していくという形式を取ることが多い。	すーぱーびじょんでわぶんかけいのばあい、あたえられたかだいにたいしてしょーろんぶんをじぜんにていしゅつし、そのしょーろんぶんについてしどーきょーかんがてんさくしたものをがくせいとぎろんしながらしどーしていくとゆうけいしきをとることがおーい。	NO_LABEL
大学院生の教育には、研究科が主に責任を担っている。	だいがくいんせいのきょーいくにわ、けんきゅーかがおもにせきにんをになっている。	NO_LABEL
大学院の入学者を選抜する権限は専門の研究科にあり、研究科からの入学許可を得た後に、属するカレッジが決定する。	だいがくいんのにゅーがくしゃをせんばつするけんげんわせんもんのけんきゅーかにあり、けんきゅーかからのにゅーがくきょかをえたのちに、ぞくするかれっじがけっていする。	NO_LABEL
大学院においても修士課程や博士課程の初年度には講義が行われる場合が多いが、その勉学・研究活動の中心は指導教官とのスーパービジョンにある。	NO_PRONOUNCE	NO_LABEL
学部生とは異なり、大学院のスーパービジョンは現在でも一対一の原則がほぼ貫かれている。	がくぶせいとわことなり、だいがくいんのすーぱーびじょんわげんざいでもいちたいいちのげんそくがほぼつらぬかれている。	NO_LABEL
また、スーパーバイザーの選択はカレッジの学習指導教員でなく、それぞれの研究科の責任で行われる。	また、すーぱーばいざーのせんたくわかれっじのがくしゅーしどーきょーいんでなく、それぞれのけんきゅーかのせきにんでおこなわれる。	NO_LABEL
ケンブリッジ大学は、1学年を3つの学期に分けている。	NO_PRONOUNCE	NO_LABEL
学則上、10月1日～12月19日をMichaelmas Term、1月5日～3月25日をLent Term、4月10日～6月18日をEaster Termと呼ばれている。	NO_PRONOUNCE	NO_LABEL
このうち授業が行われる「フル・ターム」と呼ばれる期間は、各学期8週間である。	NO_PRONOUNCE	NO_LABEL
学部と一部の大学院のコースの試験は、5月に一斉に行われる。	がくぶといちぶのだいがくいんのこーすのしけんわ、ごがつにいっせいにおこなわれる。	NO_LABEL
この学部の試験と数学の修士の試験は、「トライポス」と呼ばれる。	NO_PRONOUNCE	NO_LABEL
日の長くなる6月には各カレッジ毎にメイ・ボールあるいはジューン・イベント等と呼ばれる園遊会のシーズンを迎える。	NO_PRONOUNCE	NO_LABEL
大学院の場合は、6～7月に学年の終了するコースもある。	NO_PRONOUNCE	NO_LABEL
受験に際しては、通常の試験による。	じゅけんにさいしてわ、つーじょーのしけんによる。	NO_LABEL
外国人の場合は、IELTSの受験が義務付けられている。	がいこくじんのばあいわ、あいえるつのじゅけんがぎむずけられている。	NO_LABEL
入学基準において、GPA3.70以上に加え、IELTS7.5以上、またはTOEFL　PBT620点以上が必須。	NO_PRONOUNCE	NO_LABEL
博士号を進むにあたっては職歴も問われ、大学院の修士課程でのGPAの成績が問われる。	はくしごーをすすむにあたってわしょくれきもとわれ、だいがくいんのしゅーしかていでのじーぴーえーのせいせきがとわれる。	NO_LABEL
ケンブリッジ大学には、他の大学とは異なる慣習やルールが多数存在していた。	けんぶりっじだいがくにわ、たのだいがくとわことなるかんしゅーやるーるがたすーそんざいしていた。	NO_LABEL
かつては大学の自治警察に町内の警察権が与えられ、その他にワインや食料を独占的に販売する特権、近傍の市場の度量衡などの監督権、学生がカレッジの外に出る際にはガウンを着用する義務などがあった。	かつてわだいがくのじちけいさつにちょーないのけいさつけんがあたえられ、そのたにわいんやしょくりょーをどくせんてきにはんばいするとっけん、きんぼーのしじょーのどりょーこーなどのかんとくけん、がくせいがかれっじのそとにでるさいにわがうんをちゃくよーするぎむなどがあった。	NO_LABEL
それらは数百年にわたる大学改革によって徐々に姿を消してきたが、中世由来の慣習の一部は現在でも存在している。	それらわすーひゃくねんにわたるだいがくかいかくによってじょじょにすがたをけしてきたが、ちゅーせいゆらいのかんしゅーのいちぶわげんざいでもそんざいしている。	NO_LABEL
例えば授業期間中は大学教会であるセント・メアリー教会から2マイル以内に居住しなければならないこと、カレッジごとに「フォーマル・ホール」と呼ばれる晩餐会が設けられていること、所属するカレッジのフォーマル・ホールにおいてはガウンを着用することなどである。	NO_PRONOUNCE	NO_LABEL
ケンブリッジの学寮には「犬の飼育は禁止だが、猫は構わない」というルールがあり、女子寮を含む複数の学寮で猫が飼われている。	NO_PRONOUNCE	NO_LABEL
オックスフォード大学とは強いライバル関係にあり、両大学合わせて、「オックスブリッジ」と呼ばれる。	NO_PRONOUNCE	NO_LABEL
両校の間では、スポーツなど各種の親善試合が頻繁に行われる。	りょーこーのまでわ、すぽーつなどかくしゅのしんぜんじあいがひんぱんにおこなわれる。	NO_LABEL
中でもとりわけ有名なのは、毎年春にロンドンのテムズ川で行われるボートレースである。	なかでもとりわけゆーめいなのわ、まいとしはるにろんどんのてむずがわでおこなわれるぼーとれーすである。	NO_LABEL
両大学は、互いに「あちら」と呼び合うだけでなく、パントと呼ばれる舟遊びでも逆方向から漕ぐ徹底振りである。	NO_PRONOUNCE	NO_LABEL
市内中心部を諸カレッジの壁面が覆うことよりオックスフォード大学が「大学の中に町がある」と言われるのに対し、大学都市である、ケンブリッジ市内中心部が明るく伸びやかな雰囲気のあるケンブリッジ大学はよく「町の中に大学がある」と称される。	NO_PRONOUNCE	NO_LABEL
他にウエストミンスター・カレッジや Ridley Hall Theological Collegeなどの Cambridge Theological Federationと提携する神学校がある	NO_PRONOUNCE	NO_LABEL
今は存在しないカレッジで代表的なもの:	NO_PRONOUNCE	NO_LABEL
人文科学	じんぶんかがく	NO_LABEL
教育	きょーいく	NO_LABEL
芸術	げいじゅつ	NO_LABEL
社会科学	しゃかいかがく	NO_LABEL
理工	りこー	NO_LABEL
医学	いがく	NO_LABEL
芸術科学	げいじゅつかがく	NO_LABEL
