トラクスタン級駆逐艦（）は、アメリカ海軍の駆逐艦の艦級。	とらくすたんきゅーくちくかんかっこわ、あめりかかいぐんのくちくかんのかんきゅー。	NO_LABEL
1898年度計画で建造された400トン型駆逐艦16隻のうち、メリーランド製鋼所の設計によるものとして、1902年に3隻が竣工した。	NO_PRONOUNCE	NO_LABEL
基本構成はハーラン&ホリングスウォース社のハル級と同様で、船首楼型船首部をタートルバック状としており、機関配置を反映して煙突は2群に分離している。	NO_PRONOUNCE	NO_LABEL
ただし煙突が若干低いという相違点がある。	ただしえんとつがじゃっかんひくいとゆうそーいてんがある。	NO_LABEL
第一次世界大戦では商船団の護衛に従事した。	だいいちじせかいたいせんでわしょーせんだんのごえいにじゅーじした。	NO_LABEL
大戦後、3隻そろって1919年に除籍され、商船に改装された。	NO_PRONOUNCE	NO_LABEL
