キャンプカウンセラーとは、キャンプを通して子供たちの教育を目的としたボランティア活動を行う学生のことである。	きゃんぷかうんせらーとわ、きゃんぷをとーしてこどもたちのきょーいくをもくてきとしたぼらんてぃあかつどーをおこなうがくせいのことである。	NO_LABEL
主催キャンプを企画・運営し、子供たちと共にキャンプ活動を行う。	NO_PRONOUNCE	NO_LABEL
キャンプは教育を目的とするが、子供たちやキャンプカウンセラーが楽しめるプログラムを企画する。	きゃんぷわきょーいくをもくてきとするが、こどもたちやきゃんぷかうんせらーがたのしめるぷろぐらむをきかくする。	NO_LABEL
プログラムは、自然の中でのレクレーション、キャンプファイヤー、炊飯活動などである。	ぷろぐらむわ、しぜんのなかでのれくれーしょん、きゃんぷふぁいやー、すいはんかつどーなどである。	NO_LABEL
キャンプ参加費は、ボランティア活動であるため、施設使用料、食費などの必要最低限の費用とする。	きゃんぷさんかひわ、ぼらんてぃあかつどーであるため、しせつしよーりょー、しょくひなどのひつよーさいていげんのひよーとする。	NO_LABEL
主催キャンプの対象は、小学生、中学生、高校生である。	しゅさいきゃんぷのたいしょーわ、しょーがくせい、ちゅーがくせい、こーこーせいである。	NO_LABEL
小学生がメインとなり中学生や高校生はリーダとして活動することが多い。	しょーがくせいがめいんとなりちゅーがくせいやこーこーせいわりーだとしてかつどーすることがおーい。	NO_LABEL
キャンプカウンセラーは、大学生、短大生、専門学生が主である。	きゃんぷかうんせらーわ、だいがくせい、たんだいせい、せんもんがくせいがおもである。	NO_LABEL
また、以下のような人が好まれる。	また、いかのよーなひとがこのまれる。	NO_LABEL
1972年頃より「キャンプカウンセラー」という名称の使用をはじめた。	NO_PRONOUNCE	NO_LABEL
「キャンプカウンセラー」の先駆けとも言える。	NO_PRONOUNCE	NO_LABEL
