シルバ・ジョゼ・レイナルド・フェルナンデスは、ブラジル出身のサッカー選手、サッカー指導者。	しるばじょぜれいなるどふぇるなんですわ、ぶらじるしゅっしんのさっかーせんしゅ、さっかーしどーしゃ。	NO_LABEL
ブラジルからの留学生として渋谷幕張高校に入学し、立正大学に進む。	ぶらじるからのりゅーがくせいとしてしぶやまくはりこーこーににゅーがくし、りっしょーだいがくにすすむ。	NO_LABEL
高校時代には千葉県国体代表、大学時代には東京都大学選抜に選出された。	こーこーじだいにわちばけんこくたいだいひょー、だいがくじだいにわとーきょーとだいがくせんばつにせんしゅつされた。	NO_LABEL
専門学校のジャパン・スポーツ・サイエンス・カレッジを経て、2000年に湘南ベルマーレに入団、6月からはヴェルディ川崎に移籍。	NO_PRONOUNCE	NO_LABEL
ジーコの兄エドゥーによるエドゥー・サッカーセンターにて選手兼コーチとしてコーチ業を学んだ後、中京高校のヘッドコーチに就任、また2007年から2008年までは中京学院大学の監督も兼任した。	NO_PRONOUNCE	NO_LABEL
幼児から中学生までを対象としたサッカースクールとして、中京高校レイ・サンボーラ・サッカースクールも開講している。	NO_PRONOUNCE	NO_LABEL
2004年11月からは芸能人女子フットサルチームガッタス・ブリリャンチスH.P.のコーチも務める。	NO_PRONOUNCE	NO_LABEL
2011年2月、中京高校からの派遣という形でFC岐阜のトップチームコーチに就任した。	にせんじゅういちねんにがつ、ちゅーきょーこーこーからのはけんとゆうかたちでえふしーぎふのとっぷちーむこーちにしゅーにんした。	NO_LABEL
2012年に退任。	にせんじゅうにねんにたいにん。	NO_LABEL
