THE YOUTHは、宮城県仙台市を拠点に活動している4人組ロックバンドである。	NO_PRONOUNCE	NO_LABEL
エモーショナル・ハードコアを専攻している。	えもーしょなるはーどこあをせんこーしている。	NO_LABEL
1998年、中村維俊、相澤大樹、藤原智也、守谷悟の4人でthe youthを結成し、地元・仙台を中心に活動開始。	NO_PRONOUNCE	NO_LABEL
藤原の脱退後、翌年に三井律郎が加わる。	ふじわらのだったいご、よくねんにみついりつろーがくわわる。	NO_LABEL
2002年に東芝EMIよりメジャー・デビューした。	NO_PRONOUNCE	NO_LABEL
