ヘキサクロルヘキサヒドロメタノベンゾジオキサチエピンオキサイド、ベンゾエピン等の多様な別名を持つ。	へきさくろるへきさひどろめたのべんぞじおきさちえぴんおきさいど、べんぞえぴんとーのたよーなべつめいをもつ。	NO_LABEL
既に特許切れで世界的に段階的に廃止されている。	すでにとっきょぎれでせかいてきにだんかいてきにはいしされている。	NO_LABEL
日本においては毒物及び劇物取締法第二条によって指定されている毒物の一種である。	にっぽんにおいてわどくぶつおよびげきぶつとりしまりほーだいにじょーによってしていされているどくぶつのいちしゅである。	NO_LABEL
