木村 恵吾は、日本の映画監督、脚本家である。	きむらけいごわ、にっぽんのえいがかんとく、きゃくほんかである。	NO_LABEL
サイレント映画の時代に脚本家、ついで監督としてデビューした。	さいれんとえいがのじだいにきゃくほんか、ついでかんとくとしてでびゅーした。	NO_LABEL
1940年にオペレッタ映画『狸御殿』を創出、『オペレッタ狸御殿』につながる源流をつくった。	NO_PRONOUNCE	NO_LABEL
1903年6月19日、静岡県三島市に生まれる。	せんきゅうひゃくさんねんろくがつじゅうきゅうにち、しずおかけんみしましにうまれる。	NO_LABEL
早稲田大学附属早稲田高等学院の2年次終了で日活大将軍撮影所に入社、1926年、オリジナル脚本が採用され、伊奈精一監督、根岸東一郎主演のサイレント映画『神田の下宿』で脚本家としてデビューした。	NO_PRONOUNCE	NO_LABEL
同年、オリジナル脚本第2作『都の西北』が映画化され、伊奈監督、中野英治主演で製作されたが、これには俳優時代ののちの映画監督渡辺邦男が出演している。	NO_PRONOUNCE	NO_LABEL
同撮影所は1929年に太秦に移転したが、同年までに11本の脚本が採用されて映画化された。	どーさつえいしょわせんきゅうひゃくにじゅうきゅうねにうずまさにいてんしたが、どーねんまでにじゅういっぽんのきゃくほんがさいよーされてえいがかされた。	NO_LABEL
1930年、帝国キネマ演芸に移籍、川口松太郎の原作を自ら脚色した中野英治主演の『若き血に燃ゆる者』で監督としてデビューした。	NO_PRONOUNCE	NO_LABEL
同社で4作を監督し、オリジナル脚本を1作、松本英一監督に提供して、翌年1931年に同社が新興キネマに改組されてからは、新興キネマ京都太秦撮影所で活動した。	NO_PRONOUNCE	NO_LABEL
1940年、同社の紀元二千六百年奉祝のための大作『国姓爺合戦』の監督に抜擢され、八尋不二脚本、市川右太衛門主演で演出し、成功する。	NO_PRONOUNCE	NO_LABEL
1942年、第二次世界大戦の戦時統制による同社合併により大日本映画製作所属となり、以前日活太秦撮影所であった大映京都撮影所に異動になる。	せんきゅうひゃくよんじゅうにねん、だいにじせかいたいせんのせんじとーせいによるどーしゃがっぺいによりだいにほんえいがせいさくしょぞくとなり、いぜんにっかつうずまささつえいしょであっただいえいきょーとうさつえいじょにいどーになる。	NO_LABEL
同年、オリジナル脚本による高山廣子・宮城千賀子主演のオペレッタ映画『歌ふ狸御殿』を監督、成功する。	NO_PRONOUNCE	NO_LABEL
翌1943年、召集を受けて戦地に赴く。	よくせんきゅうひゃくよんじゅうさんね、しょーしゅーをうけてせんちにおもむく。	NO_LABEL
1945年前半には復員し、波多謙治こと西條照太郎との共同脚本、市川右太衛門主演の映画『紅顏鼓笛隊』で監督として復帰する。	NO_PRONOUNCE	NO_LABEL
終戦後も大映京都撮影所に所属し、1949年の脚本・監督作『花くらべ狸御殿』に出演した京マチ子を同年、宇野重吉との共演作『痴人の愛』のナオミ役に起用し、京の売り出しに成功する。	NO_PRONOUNCE	NO_LABEL
1950年代には、同撮影所に所属しながら、新東宝や宝塚映画、東京映画にもお呼びがかかった。	せんきゅうひゃくごじゅうねんだいにわ、どーさつえいしょにしょぞくしながら、しんとうほーやたからずかえいが、とーきょーえいがにもおよびがかかった。	NO_LABEL
1955年4月29日から始まったフランス・カンヌでの第8回カンヌ国際映画祭に、前年の京マチ子主演作品『千姫』がパルムドールにノミネートされ、コンペティション上映されたが、賞は逃した。	NO_PRONOUNCE	NO_LABEL
1965年、大映を退社後は、テレビ番組の演出をしたが、しばらくして引退した。	せんきゅうひゃくろくじゅうごねん、だいえいをたいしゃごわ、てれびばんぐみのえんしゅつをしたが、しばらくしていんたいした。	NO_LABEL
1986年1月20日、胃癌により死去した。	せんきゅうひゃくはちじゅうろくねんいちがつはつか、いがんによりしきょした。	NO_LABEL
満82歳没。	まんはちじゅうにさいぼつ。	NO_LABEL
