イ・イネは、大韓民国ソウル特別市出身の女優で学者。	いいねわ、だいかんみんこくそーるとくべつししゅっしんのじょゆーでがくしゃ。	NO_LABEL
慶星大学校デジタルメディア学部専任教授。	けいぼしだいがっこーでじたるめでぃあがくぶせんにんきょーじゅ。	NO_LABEL
平壌剣舞伝承者のイム・ヨンスンは母。	NO_PRONOUNCE	NO_LABEL
小学校5年次よりMBC児童合唱団に在籍し、ナ・フナやソテジワアイドゥルらと舞台で共演した。	NO_PRONOUNCE	NO_LABEL
合唱団在籍中、周囲から子役俳優になる事を薦められている。	がっしょーだんざいせきちゅー、しゅーいからこやくはいゆーになることをすすめられている。	NO_LABEL
1992年、KBS主催の創作童謡大会に出場、「新しい道」を歌い優秀賞を受賞した。	NO_PRONOUNCE	NO_LABEL
1992年、中学校3年の時にミュージカル『屋根の上のバイオリン弾き』が韓国で初公演された際にはテヴィエの末娘ビールケ役として出演した。	NO_PRONOUNCE	NO_LABEL
これをきっかけに俳優としてのキャリアを歩み始めた。	これをきっかけにはいゆーとしてのきゃりあをあゆみはじめた。	NO_LABEL
同年にはMBCのテレビドラマ『天使たちの歌』に出演。	NO_PRONOUNCE	NO_LABEL
その後の作品、KBSの時代劇『韓明澮』、SBSの時代劇『大王の道』等に子役として出演した。	NO_PRONOUNCE	NO_LABEL
1999年にはEBSの青少年向けドラマ『君の夢を拡げろ』にチャン・ユジン役で出演。	NO_PRONOUNCE	NO_LABEL
2000年には『学校シーズン3』にユ・ダイン役として出演した。	NO_PRONOUNCE	NO_LABEL
2005年には『快傑春香』で主人公チュニャンの友人ハン・ダニ役を、2009年にはKBS『千秋太后』で穆宗の王妃役を演じた。	NO_PRONOUNCE	NO_LABEL
2010年には『戦友』で反北ゲリラの一員チョンファ役を演じ、同年度KBS演技大賞最優秀演技賞候補となった。	NO_PRONOUNCE	NO_LABEL
イ・イネは小学生時代よりトップクラスの成績を挙げていた優等生であったが、果川文原中学校入学後、芸能活動を中断して学業に専念するようになると成績は下落した。	いいねわしょーがくせいじだいよりとっぷくらすのせいせきをあげていたゆーとーせいであったが、はてかわぶんはらちゅうがっこーにゅーがくご、げいのーかつどーをちゅーだんしてがくぎょーにせんねんするよーになるとせいせきわげらくした。	NO_LABEL
時間を持て余している事に気づいた母親が、「芸能活動のために成績が落ちたらすぐ活動をやめる」事を条件に芸能界に復帰させたところ、成績は再び全校1、2位へと戻ったというエピソードがある。	NO_PRONOUNCE	NO_LABEL
2年次には生徒会長を務めた。	にねんじにわせいとかいちょーをつとめた。	NO_LABEL
3年次に東国大学校と梨花女子大学校を受験してどちらにも合格、「演技に役に立てば」と、映画演劇科を受験していた東国大学校に入学したが、芸能活動との両立が困難な大学のシステムに失望。	NO_PRONOUNCE	NO_LABEL
果川女子高時代の担任教員に他大学受験を薦められた事もあり、大学1年次の夏より受験勉強を開始、その年の冬に一般入試で高麗大学校政治経済学部に奨学金を得て入学した。	はてかわじょしこーじだいのたんにんきょーいんにただいがくじゅけんをすすめられたこともあり、だいがくいちねんじのなつよりじゅけんべんきょーをかいし、そのとしのふゆにいっぱんにゅーしでこりょだいがっこーせいじけいざいがくぶにしょーがくきんをえてにゅーがくした。	NO_LABEL
この時の大学修学能力試験の成績は370点であったという。	このときのだいがくしゅーがくのーりょくしけんのせいせきわさんびゃくななじゅってんであったという。	NO_LABEL
後にメディア学部に転じ、同学部新聞放送学科を卒業した。	ごにめでぃあがくぶにてんじ、どーがくぶしんぶんほーそーがっかをそつぎょーした。	NO_LABEL
2009年2月、韓国芸術総合学校に兼任教授として任用され、同年6月に高麗大学校大学院言論科修士課程に合格し入学。	にせんきゅうねんにがつ、はんぐくげいじゅつそーごーがっこーにけんにんきょーじゅとしてにんよーされ、どーねんろくがつにこりょだいがっこーだいがくいんげんろんかしゅーしかていにごーかくしにゅーがく。	NO_LABEL
翌2010年から韓国芸術総合学校専任教員として1年間勤務した。	よくにせんじゅうねんからはんぐくげいじゅつそーごーがっこーせんにんきょーいんとしていちねんかんきんむした。	NO_LABEL
2012年に修士課程を修了後同学科博士課程に入学、後同課程を修了。	にせんじゅうにねんにしゅーしかていをしゅーりょーごどーがっかはかせかていににゅーがく、こーどーかていをしゅーりょー。	NO_LABEL
2013年から2015年までで専任教授として勤務した後、同年9月より慶星大学校デジタルメディア学部専任教授に就任した。	にせんじゅうさんねんからにせんじゅうごねんまででせんにんきょーじゅとしてきんむしたのち、どーねんくがつよりけいぼしだいがっこーでじたるめでぃあがくぶせんにんきょーじゅにしゅーにんした。	NO_LABEL
出演作品は、個別に注釈があるもの以外はによる:	NO_PRONOUNCE	NO_LABEL
※一部、企業名をクリックするとCFの動画ページに飛びます。	NO_PRONOUNCE	NO_LABEL
