アウルス・マンリウス・ウルソは紀元前474年の共和政ローマの執政官である。	NO_PRONOUNCE	NO_LABEL
同僚執政官はルキウス・フリウス・メドゥッリヌスであった。	NO_PRONOUNCE	NO_LABEL
殆どの現代の歴史家が、この人物を「アウルス」と呼んでいる。	NO_PRONOUNCE	NO_LABEL
これは紀元前451年の十人委員会の一人が同一人物であり、アウルスとされているためである。	これわきげんぜんよんひゃくごじゅういちねんのじゅーにんいーんかいのひとりがどーいちじんぶつであり、あうるすとされているためである。	NO_LABEL
他方、歴史家ティトゥス・リウィウスは、彼のプラエノーメンは「ガイウス」であるとしている。	NO_PRONOUNCE	NO_LABEL
しかし、この一族の年代記からは紀元前474年の執政官と紀元前451年の十人委員が同一人物であることは疑わしく、したがって彼は紀元前451年の十人委員の父であり、個人名は「ガイウス」が正しいかも知れない。	NO_PRONOUNCE	NO_LABEL
ローマ初期の記録では、「グナエウス」と「ガイウス」のプラエノーメンはしばしば取り違えられている。	NO_PRONOUNCE	NO_LABEL
このため、彼のプラエノーメンは「グナエウス」の可能性もある。	NO_PRONOUNCE	NO_LABEL
父の名前はガイウス、祖父の名前はプブリウスである。	ちちのなまえわがいうす、そふのなまえわぷぶりうすである。	NO_LABEL
執政官就任中に、マンリウスはウェイイとの戦争を担当した。	しっせいかんしゅーにんちゅーに、まんりうすわうぇいーとのせんそーをたんとーした。	NO_LABEL
しかし、実際には戦闘は一度も生じなかった。	しかし、じっさいにわせんとーわいちどもしょーじなかった。	NO_LABEL
ウェイイは講和を求め、ローマはこれを受け入れた。	うぇいーわこーわをもとめ、ろーまわこれをうけいれた。	NO_LABEL
ウェイイは穀物と賠償金をローマに渡し、40年間の停戦が合意された。	うぇいーわこくもつとばいしょーきんをろーまにわたし、よんじゅうねんかんのていせんがごーいされた。	NO_LABEL
これを讃えて、マンリウスは3月15日に小凱旋式を実施している。	これをたたえて、まんりうすわさんがつじゅうごにちにしょーがいせんしきをじっししている。	NO_LABEL
また、国勢調査が実施され、ローマ市民の人口は103,000人であった。	NO_PRONOUNCE	NO_LABEL
翌紀元前473年、マンリウスとその同僚が、護民官のグナエウス・ゲヌキウスから、公有地分配のための十人委員会を任命できなかったとして告発された。	NO_PRONOUNCE	NO_LABEL
しかし、裁判当日にゲヌキウスが死去していたことが判明し、裁判は中止された。	しかし、さいばんとーじつにげぬきうすがしきょしていたことがはんめいし、さいばんわちゅーしされた。	NO_LABEL
