ホーボーケン（）はアメリカ合衆国ニュージャージー州ハドソン郡にある都市である。	ほーぼーけんかっこわあめりかがっしゅーこくにゅーじゃーじーしゅーはどそんぐんにあるとしである。	NO_LABEL
2010年国勢調査での人口は50,005人である。	NO_PRONOUNCE	NO_LABEL
ニューヨーク都市圏に属している。	にゅーよーくとしけんにぞくしている。	NO_LABEL
ホーボーケンはに位置し、ハドソン川の西岸にあって川向こうはニューヨーク市マンハッタンである。	ほーぼーけんわにいちし、はどそんがわのせいがんにあってかわむかいこーわにゅーよーくしまんはったんである。	NO_LABEL
隣接しているのは、対岸ではウエスト・ヴィレッジやチェルシー、西岸では北のウィーホーケン・コーブやユニオンシティと南西のジャージーシティの間にある。	NO_PRONOUNCE	NO_LABEL
アメリカ合衆国統計局によると、ホーボーケン市は総面積3.3 kmである。	NO_PRONOUNCE	NO_LABEL
うち1.8 kmが陸地で残りが水域である。	NO_PRONOUNCE	NO_LABEL
総面積の35.35%が水域となっている。	NO_PRONOUNCE	NO_LABEL
ジップコードは07030、地域コードは201オーバーレイ551である。	NO_PRONOUNCE	NO_LABEL
以下は2000年の国勢調査による人口統計データである。	いかわにせんねんのこくせいちょうさによるじんこーとーけいでーたである。	NO_LABEL
ホーボーケンという名前はジョン・スティーブンス大佐がこの地域一帯の土地を購入した時に付けられた。	ほーぼーけんとゆうなまえわじょんすてぃーぶんすたいさがこのちいきいったいのとちをこーにゅーしたときにつけられた。	NO_LABEL
レナペ族がここでを集めてパイプを彫り出していたので、この地域を「タバコのパイプの土地」と呼んでおり、その言葉「ホポガン・ハッキング」が訛ったものと信じられている。	NO_PRONOUNCE	NO_LABEL
この地域に最初に住んだヨーロッパ人はニューネーデルラントに移住したオランダ人開拓者であり、レナペ族の言葉を縮めた可能性がある。	このちいきにさいしょにすんだよーろっぱじんわにゅーねーでるらんとにいじゅーしたおらんだじんかいたくしゃであり、れなぺぞくのことばをちじめたかのーせいがある。	NO_LABEL
ただし、それを確認できる文書化された記録は無い。	ただし、それをかくにんできるぶんしょかされたきろくわない。	NO_LABEL
やはり確認は出来ないが、1983年にベルギーのアントウェルペンに併合されたフランドルの町、「ホーゲ・ブーヘン」または「ホーゲ・ブーケン」一家に因んで名付けられたという説もある。	NO_PRONOUNCE	NO_LABEL
ロッテルダムには一家の名前を採った広場がある。	ろってるだむにわいっかのなまえをとったひろばがある。	NO_LABEL
18世紀と19世紀にニュージャージー北部で話されていたジャージー・ダッチというオランダ語の方言があるが、これはゼーラント語とフランドル語を基に英語とおそらくレナペ語の影響を受けた者であり、そのジャージー・ダッチでこの地域が何と呼ばれていたかも明らかでない。	NO_PRONOUNCE	NO_LABEL
北に隣接するウィーホーケンや、南のコミュニポーおよびハリシマスと同様に、ホーボーケンはその時代の話し言葉の中で変化してきた。	きたにりんせつするうぃーほーけんや、みなみのこみゅにぽーおよびはりしますとどーよーに、ほーぼーけんわそのじだいのはなしことばのなかでへんかしてきた。	NO_LABEL
高い崖を意味しキャッスル・ポイントを指す可能性のある古オランダ語の「ホーブック」は植民地時代に使われ、後に英語では「Hobuck」と綴られてきた。	NO_PRONOUNCE	NO_LABEL
ホーボーケンの非公式のニックネームは「マイル・スクェア・シティ」であるが、実際にハドソン川の水面下にある部分を含めれば2平方マイルある。	NO_PRONOUNCE	NO_LABEL
19世紀終盤から20世紀初めにかけてのホーボーケンは、人口も文化もドイツ語を話す人々が圧倒的なものになり、時には「リトル・ブレーメン」と呼ぶこともあった。	NO_PRONOUNCE	NO_LABEL
それらの人々の多くはノースバーゲンのホーボーケン墓地に埋葬されている。	それらのひとびとのおーくわのーすばーげんのほーぼーけんぼちにまいそーされている。	NO_LABEL
ホーボーケンは元々島であり、東はハドソン川、西はニュージャージー断崖の足下にある干潟であった。	ほーぼーけんわもともとしまであり、ひがしわはどそんがわ、にしわにゅーじゃーじーだんがいのあしもとにあるひがたであった。	NO_LABEL
そこはレナペ族が季節によって宿営地としていた。	そこわれなぺぞくがきせつによってしゅくえいちとしていた。	NO_LABEL
レナペ族はハドソン川とデラウェア川の間の土地に2,800年以上も住んでいたと考えられている。	NO_PRONOUNCE	NO_LABEL
この地域の領有権を主張した最初のヨーロッパ人はオランダ東インド会社のためにこの地域を航海したイギリス人ヘンリー・ハドソンであった。	このちいきのりょーゆーけんをしゅちょーしたさいしょのよーろっぱじんわおらんだひがしいんどがいしゃのためにこのちいきをこーかいしたいぎりすじんへんりーはどそんであった。	NO_LABEL
ハドソンは乗ってきた"ハーヴ・ミーン"号を1609年10月2日にウィーホーケン・コーブに停泊させた。	NO_PRONOUNCE	NO_LABEL
この新しい地域を管理するためにユナイテッド・ニューネデルラント会社が創られ、1623年6月にオランダ植民地となった。	NO_PRONOUNCE	NO_LABEL
1630年、アムステルダム市長でオランダ西インド会社の支配人でもあったミカエル・ポーウが、4年以内に50人以上の開拓村を作るという条件でノースリバーと呼ばれていた川の西岸の地主特許を得た。	NO_PRONOUNCE	NO_LABEL
3人のレナペ族が80ファソムの貝殻玉、20ファソムの布、12個の薬罐、6挺の銃、2枚の毛布、1個のダブルケトル、および半樽のビールと引き替えに、ホーボーケンとなる土地を売却した。	NO_PRONOUNCE	NO_LABEL
これらの取引は1630年7月12日から11月22日までの様々な日付が記されており、当時この地域の運搬手段の違いによるものと思われる。	これらのとりひきわせんろっぴゃくさんじゅうねんしちがつじゅうににちからじゅーいちがつにじゅうににちまでのさまざまなひずけがしるされており、とーじこのちいきのうんぱんしゅだんのちがいによるものとおもわれる。	NO_LABEL
ポーウは開拓地を作れなかったので、1633年に会社に土地を買い戻された。	ぽーうわかいたくちをつくれなかったので、せんろっぴゃくさんじゅうさんねんにかいしゃにとちをかいもどされた。	NO_LABEL
後にヘンドリック・ヴァン・ヴォルストが取得し、一部を農夫のエールト・ヴァン・プッテンに貸与した。	NO_PRONOUNCE	NO_LABEL
1643年、後にキャッスル・ポイントと呼ばれる場所の北に、ヴァン・プッテンは家と北アメリカでは最初の醸造所を建てた。	NO_PRONOUNCE	NO_LABEL
一連のインディアンとオランダ人の襲撃とその報復の中で、ヴァン・プッテンは殺され家も破壊され、パヴォニアの全ての住人はニューアムステルダムに戻るよう命令された。	NO_PRONOUNCE	NO_LABEL
レナペ族との関係が気まずくなり、この孤立した島はニューアムステルダムとの距離もあったことからそれ以上の植民が進まなかった。	れなぺぞくとのかんけいがきまずくなり、このこりつしたしまわにゅーあむすてるだむとのきょりもあったことからそれいじょーのしょくみんがすすまなかった。	NO_LABEL
1664年イギリスがほとんど抵抗も無いままにニューアムステルダムを占領し、1674年にこの地域は東ジャージー植民地の一部となった。	せんろっぴゃくろくじゅうよねんいぎりすがほとんどていこーもないままににゅーあむすてるだむをせんりょーし、せんろっぴゃくななじゅうよんねんにこのちいきわひがしじゃーじーしょくみんちのいちぶとなった。	NO_LABEL
この植民地が1675年に4つの地域区分に分けられ、ホーボーケンはバーゲン郡の一部となり、1840年2月22日にハドソン郡が創られたときにその一部となった。	このしょくみんちがせんろっぴゃくななじゅうごねんによっつのちいきくぶんにわけられ、ほーぼーけんわばーげんぐんのいちぶとなり、せんはっぴゃくよんじゅうねんにがつにじゅうににちにはどそんぐんがつくられたときにそのいちぶとなった。	NO_LABEL
ニューイングランドからやってきた英語を話す人々がオランダ人とともにこの地域にパラパラと入ったが、ほとんど人口は増えず農地のままであった。	にゅーいんぐらんどからやってきたえいごをはなすひとびとがおらんだじんとともにこのちいきにぱらぱらとはいったが、ほとんどじんこーわふえずのーちのままであった。	NO_LABEL
最終的にこの地域はウィリアム・ベイアードの所有するところとなった。	NO_PRONOUNCE	NO_LABEL
ベイアードは最初はアメリカの独立を支持していたが、1776年にハドソン川と改名された川の西岸を含みニューヨーク市がイギリス軍に陥落すると王党派に鞍替えした。	べいあーどわさいしょわあめりかのどくりつをしじしていたが、せんななひゃくななじゅうろくねんにはどそんがわとかいめいされたかわのせいがんをふくみにゅーよーくしがいぎりすぐんにかんらくするとおーとーはにくらがえした。	NO_LABEL
アメリカ独立戦争が終わった時、ベイアードの土地はニュージャージー革命政府に没収された。	あめりかどくりつせんそーがおわったとき、べいあーどのとちわにゅーじゃーじーかくめいせいふにぼっしゅーされた。	NO_LABEL
1784年「ウィリアム・ベイアードのホーバックの農地」とされる土地が競売に掛けられ、ジョン・スティーブンス大佐の手に英貨18,360ポンドで落ちた。	NO_PRONOUNCE	NO_LABEL
1800年代初期、ジョン・スティーブンス大佐は水際をマンハッタン住人のリゾート地として開発し、これが利益の上がる収入源になった。	せんはっぴゃくねんだいねんだいしょき、じょんすてぃーぶんすたいさわみずぎわをまんはったんじゅーにんのりぞーとちとしてかいはつし、これがりえきのあがるしゅーにゅーげんになった。	NO_LABEL
その金はスティーブンスが多くの機械的な発明を試すために使われた可能性がある。	そのきんわすてぃーぶんすがおーくのきかいてきなはつめいをためすためにつかわれたかのーせいがある。	NO_LABEL
1811年10月11日、スティーブンスはその持ち船"ジュリアナ"号で、マンハッタンとホーボーケンの間を世界では初めての蒸気船を使った渡しを始めた。	NO_PRONOUNCE	NO_LABEL
1825年、スティーブンスは自分の所有地を走る蒸気機関車と数両の客車を設計し作り上げた。	せんはっぴゃくにじゅうごねん、すてぃーぶんすわじぶんのしょゆーちをはしるじょーききかんしゃとすーりょーのきゃくしゃをせっけいしつくりあげた。	NO_LABEL
1832年、泉の水を呼び物とするシビルの洞窟を開き、1841年にエドガー・アラン・ポーがその場所で起こった事件を題材に「マリー・ロージェの謎」を書いた後は伝説になった。	NO_PRONOUNCE	NO_LABEL
1880年代遅くに泉は汚染されていることが分かって閉鎖され、1930年代にはコンクリートで埋められた。	せんはっぴゃくはちじゅうねんだいおそくにいずみわおせんされていることがわかってへいさされ、せんきゅうひゃくさんじゅうねんだいにわこんくりーとでうめられた。	NO_LABEL
1838年、スティーブンスが死ぬ前に、ホーボーケン土地改良会社を設立し、19世紀半ばと後半はその子孫によって運営された。	せんはっぴゃくさんじゅうはちねん、すてぃーぶんすがしぬまえに、ほーぼーけんとちかいりょーかいしゃをせつりつし、じゅうきゅうせいきなかばとこーはんわそのしそんによってうんえいされた。	NO_LABEL
この会社が道路や街区の配置を決め、家を建て、工場用地を開発した。	このかいしゃがどーろやがいくのはいちをきめ、いえをたて、こーじょーよーちをかいはつした。	NO_LABEL
一般的に住居は3階ないし5階建ての石煉瓦造りが並び、今日でも五番目状の街区と共に残っている。	いっぱんてきにじゅーきょわさんかいないしごかいだてのいしれんがずくりがならび、きょーでもごばんめじょーのがいくとともにのこっている。	NO_LABEL
ホーボーケンの港と工業地域としての利点が明白になってきた。	ほーぼーけんのみなととこーぎょーちーきとしてのりてんがめいはくになってきた。	NO_LABEL
ホーボーケンの町は1849年4月9日にノースバーゲン・タウンシップから分離してタウンシップとして設立された。	NO_PRONOUNCE	NO_LABEL
人口や雇用数が増加するにつれて、住民は本格的な市制執行の必要性を感じるようになり、1855年3月29日に住民投票が行われ、その前日に署名されたニュージャージー州議会の法律を批准して、ホーボーケン市が生まれた。	じんこーやこよーすーがぞーかするにつれて、じゅーみんわほんかくてきなしせいしっこーのひつよーせいをかんじるよーになり、せんはっぴゃくごじゅうごねんさんがつにじゅうきゅうにちにじゅーみんとうひょーがおこなわれ、そのぜんじつにしょめいされたにゅーじゃーじーしゅーぎかいのほーりつをひじゅんして、ほーぼーけんしがうまれた。	NO_LABEL
その後に行われた選挙で、コーニーリアス・V・クリックナーが初代市長になった。	NO_PRONOUNCE	NO_LABEL
1859年3月15日、ホーボーケン市とノースバーゲン・タウンシップの一部からウィーホーケン・タウンシップが創られた。	NO_PRONOUNCE	NO_LABEL
1870年、エドウィン・A・スティーブンスの遺贈に基づき、スティーブンス家の以前の土地であったキャッスル・ポイントにスティーブンス工科大学が創設された。	NO_PRONOUNCE	NO_LABEL
19世紀終わり頃までに大きな商船会社がホーボーケン港を積荷の上げ卸しに使うようになり、またデラウェア・ラッカワナ・アンド・ウェスタン鉄道が伸びて港に繋ぐ水際に鉄道駅「ホーボーケン駅」を造った。	NO_PRONOUNCE	NO_LABEL
19世紀の大半はドイツ人移民が多かったが、市内でも圧倒的多数になったのがこの時期であり、少なくともハンブルク＝アメリカ航路の主要な停泊港であったことが要因の一部であった。	NO_PRONOUNCE	NO_LABEL
主要産業である造船業に加えて、1884年には製図器のコイフェル・アンド・エッサーがティートヤン・アンド・ラング・ドライドックに3階建ての工場を構えた。	NO_PRONOUNCE	NO_LABEL
20世紀への変わり目にホーボーケンを本拠とした著名企業には、コーヒーのマクスウェル・ハウス、紅茶のリプトン・ティおよび菓子のホステスがあった。	NO_PRONOUNCE	NO_LABEL
ホーボーケンが野球の発祥地であるという主張は、1846年にホーボーケンのエリシアン球場とニューヨーク・ナインの試合が初めてのクラブ対抗戦として開催されたことを根拠としている。	NO_PRONOUNCE	NO_LABEL
11番街とワシントン・ストリートにある銘板と野球のダイアモンドに擬した舗装道路がこの出来事の記念である。	じゅういちばんがいとわしんとんすとりーとにあるめいばんとやきゅーのだいあもんどにぎしたほそーどーろがこのできごとのきねんである。	NO_LABEL
1845年、アレクサンダー・カートライトが設立したニッカーボッカー・クラブはニューヨークが本拠だったが、マンハッタンに適当なグラウンドが無かったためにエリシアン球場を使い始めた。	NO_PRONOUNCE	NO_LABEL
選手にはセントジョージズ・クリケット・クラブ()の選手でもあるハリー・ライトとジョージ・ライトの兄弟、イギリス生まれのジャーナリストで「アメリカの娯楽」という言葉を創ったヘンリー・チャドウィックが含まれていた。	NO_PRONOUNCE	NO_LABEL
1850年代までに、マンハッタンに本拠を置くナショナル野球選手協会のメンバーがエリシアン球場を本拠としている一方で、セントジョージズは同じ球場でカナダ、イギリスおよびアメリカの国際試合を開催し続けた。	せんはっぴゃくごじゅうねんだいまでに、まんはったんにほんきょをおくなしょなるやきゅーせんしゅきょーかいのめんばーがえりしあんきゅーじょーをほんきょとしているいっぽーで、せんとじょーじずわおなじきゅーじょーでかなだ、いぎりすおよびあめりかのこくさいしあいをかいさいしつずけた。	NO_LABEL
1859年、プロのクリケットチームであるジャック・パーズ・アール・イングランド・イレブンがユナイテッド・ステイツXXIIとホーボーケンで対戦して楽勝した。	NO_PRONOUNCE	NO_LABEL
サム・ライトとその息子達、ハリーとジョージが、負けたユナイテッド・ステイツXXIIの選手であり、この敗北で心ならずも地元の選手達に野球を取り上げるよう奨励することになった。	NO_PRONOUNCE	NO_LABEL
ヘンリー・チャドウィックはアマチュアのアメリカ選手はプロの選手に要求されるような高レベルのクリケット技能を鍛えるだけの時間が無いという結論を引き出し、クリケットではなく、野球がアメリカの娯楽になるべきと考えた。	へんりーちゃどうぃっくわあまちゅあのあめりかせんしゅわぷろのせんしゅによーきゅーされるよーなこーれべるのくりけっとぎのーをきたえるだけのじかんがないとゆうけつろんをひきだし、くりけっとでわなく、やきゅーがあめりかのごらくになるべきとかんがえた。	NO_LABEL
ハリーとジョージの兄弟は、1869年にアーロン・チャンピオンの出資でシンシナティ・レッド・ストッキングスを立ち上げた時に、アメリカでは最初のプロ野球選手となった。	NO_PRONOUNCE	NO_LABEL
1865年、エリシアン球場でニューヨークのミューチュアル・クラブとブルックリンのアトランティック・クラブの選手権試合が開催されおよそ2万人の観衆を集めた。	NO_PRONOUNCE	NO_LABEL
この光景が印刷屋のカリアー&アイブズのリトグラフ「アメリカの国民的野球試合」に収められた。	NO_PRONOUNCE	NO_LABEL
ブルックリンにフェンスで囲まれた野球場が2つできて、興行主は入場料を取ることが可能になり、エリシアン球場の栄光の時代は去った。	ぶるっくりんにふぇんすでかこまれたやきゅーじょーがふたつできて、こーぎょーぬしわにゅーじょーりょーをとることがかのーになり、えりしあんきゅーじょーのえいこーのじだいわさった。	NO_LABEL
1868年、マンハッタンの主導的なクラブであるミューチュアルがブルックリンのユニオン・グラウンドに本拠を移した。	NO_PRONOUNCE	NO_LABEL
1880年、ニューヨーク・メトロポリタンズとジャイアンツの創設者達が、ポロ・グラウンズとして知られることになるマンハッタンの野球場を本拠とすることができた。	せんはっぴゃくはちじゅうねん、にゅーよーくめとろぽりたんずとじゃいあんつのそーせつしゃたちが、ぽろぐらうんずとしてしられることになるまんはったんのやきゅーじょーをほんきょとすることができた。	NO_LABEL
アメリカ合衆国が第一次世界大戦への参戦を決めたとき、ホーボーケンのハンブルク＝アメリカ航路の桟橋は土地収用の対象になった。	NO_PRONOUNCE	NO_LABEL
港は連邦政府の管理下に置かれ、反ドイツ感情の高まりとともに、市内の一部は戒厳令下に置かれた。	みなとわれんぽーせいふのかんりかにおかれ、はんどいつかんじょーのたかまりとともに、しないのいちぶわかいげんれいかにおかれた。	NO_LABEL
多くのドイツ人は移民管理局があったエリスアイランドに強制移住させられるか、市から離れることになった。	おーくのどいつじんわいみんかんりきょくがあったえりすあいらんどにきょーせいいじゅーさせられるか、しからはなれることになった。	NO_LABEL
ホーボーケンはヨーロッパに出征する兵士の主要な乗船港となり、ドウボーイ()と呼ばれる300万人以上の兵士が出港した。	ほーぼーけんわよーろっぱにしゅっせいするへいしのしゅよーなじょーせんこーとなり、どうぼーいかっことよばれるさんびゃくまんにんいじょーのへいしがしゅっこーした。	NO_LABEL
兵士達は早期の帰還を期待していたので、パーシング将軍が「天国、地獄あるいはホーボーケン...クリスマスまでに」というスローガンを創った。	NO_PRONOUNCE	NO_LABEL
第一次世界大戦が終わると、アドリア海の港湾市モルフェッタからのイタリア人が市の大きな民族集団となり、アイルランドからの移民も増えるようになった。	だいいちじせかいたいせんがおわると、あどりあかいのこーわんしもるふぇったからのいたりあじんがしのおーきなみんぞくしゅーだんとなり、あいるらんどからのいみんもふえるよーになった。	NO_LABEL
ホーボーケンも不況を経験したが、造船所や工場の仕事はあり、借家は一杯になった。	ほーぼーけんもふきょーをけいけんしたが、ぞーせんじょやこーじょーのしごとわあり、しゃくやわいっぱいになった。	NO_LABEL
中央ヨーロッパのドイツ語を話すユダヤ人が移民してきて、小さな事業を営んだ。	ちゅーおーよーろっぱのどいつごをはなすゆだやじんがいみんしてきて、ちーさなじぎょーをいとなんだ。	NO_LABEL
ニューヨーク・ニュージャージー港湾公社が1921年4月30日に設立された。	にゅーよーくにゅーじゃーじーこーわんこーしゃがせんきゅうひゃくにじゅういちねんしがつさんじゅうにちにせつりつされた。	NO_LABEL
1927年にホランド・トンネル、1937年にリンカーン・トンネルが完成し、ニュージャージーとニューヨーク市が海上によらず車で通行できるようになった。	せんきゅうひゃくにじゅうななねんにほらんどとんねる、せんきゅうひゃくさんじゅうななねにりんかーんとんねるがかんせいし、にゅーじゃーじーとにゅーよーくしがかいじょーによらずくるまでつーこーできるよーになった。	NO_LABEL
第二次世界大戦はホーボーケンの活力を回復させた。	だいにじせかいたいせんわほーぼーけんのかつりょくをかいふくさせた。	NO_LABEL
市内にある多くの産業が戦争遂行に必要とされた。	しないにあるおーくのさんぎょーがせんそーすいこーにひつよーとされた。	NO_LABEL
男達が戦争に行くと多くの女性が工場で雇われ、トッド造船所を初めとする幾つかの工場では女性を職制に付けるなど動機付けを図った。	おとこたちがせんそーにいくとおーくのじょせいがこーじょーでやとわれ、とっどぞーせんしょをはじめとするいくつかのこーじょーでわじょせいをしょくせいにつけるなどどーきずけをはかった。	NO_LABEL
復員兵の中にはGIの住居手形を使う者もいたが、民族集団や家族の絆のある者は市内に留まることを選んだ。	ふくいんへいのなかにわじーあいのじゅーきょてがたをつかうものもいたが、みんぞくしゅーだんやかぞくのきずなのあるものわしないにとまることをえらんだ。	NO_LABEL
1950年代、市の経済は依然、トッド造船所、マクスウェル・ハウス、リプトン・ティ、ホステス、ベスレヘム・スチールなど大きな工場のある企業に支えられ、そこここで大きな機関設備に対する投資も衰えなかった。	NO_PRONOUNCE	NO_LABEL
労働組合が強く、給与もそこそこ良かった。	ろーどーくみあいがつよく、きゅーよもそこそこよかった。	NO_LABEL
しかし、1960年代までに事態は崩れていった。	しかし、せんきゅうひゃくろくじゅうねんだまでにじたいわくずれていった。	NO_LABEL
20世紀への変わり目に建てられた住居がみすぼらしくなりしかも混み合っていた。	にじっせいきえのかわりめにたてられたじゅーきょがみすぼらしくなりしかもこみあっていた。	NO_LABEL
造船業は外国の方が安く造れるようになった。	ぞーせんぎょーわがいこくのほーがやすくつくれるよーになった。	NO_LABEL
輻輳した市内の通りにある煉瓦造りの建物よりも駐車場に囲まれた1階建ての工場の方が製造業においても物流においても経済的になった。	ふくそーしたしないのとーりにあるれんがずくりのたてものよりもちゅーしゃじょーにかこまれたいちかいだてのこーじょーのほーがせいぞーぎょーにおいてもぶつりゅーにおいてもけいざいてきになった。	NO_LABEL
製造業は緑の多い広野に移り、港は大きな設備のあるニューアーク湾に仕事を奪われ、車、トラックおよび飛行機が従来の鉄道や船に置き換わってアメリカの輸送力において支配的になると、ホーボーケンの町は容赦ない衰退の痛みを味わうようになった。	せいぞーぎょーわみどりのおーいこーやにうつり、みなとわおーきなせつびのあるにゅーあーくわんにしごとをうばわれ、くるま、とらっくおよびひこーきがじゅーらいのてつどーやふねにおきかわってあめりかのゆそーりょくにおいてしはいてきになると、ほーぼーけんのまちわよーしゃないすいたいのいたみをあじわうよーになった。	NO_LABEL
ホーボーケン市民の多くは近郷のバーゲン郡やパセーイク郡の郊外に移住し、土地の価格が低下した。	ほーぼーけんしみんのおーくわきんごーのばーげんぐんやぱせーいくぐんのこーがいにいじゅーし、とちのかかくがていかした。	NO_LABEL
ホーボーケンは以前の活気ある港湾市の象徴的な存在から衰退の代表に変わり、しばしばパターソン、エリザベス、カムデンおよび隣のジャージーシティなど同じような現象に苦しむニュージャージー州の都市と同列に加えられた。	ほーぼーけんわいぜんのかっきあるこーわんしのしょーちょーてきなそんざいからすいたいのだいひょーにかわり、しばしばぱたーそん、えりざべす、かむでんおよびとなりのじゃーじーしてぃなどおなじよーなげんしょーにくるしむにゅーじゃーじーしゅーのとしとどーれつにくわえられた。	NO_LABEL
古い経済基盤は無くなり、新しいことは何も見えてこなかった。	ふるいけいざいきばんわなくなり、あたらしいことわなにもみえてこなかった。	NO_LABEL
リバー・ストリート沿いのいわゆるスラムを壊すこと、またマリンビュー・プラザや中心街のチャーチ・タワーズに助成金のある中程度の所得者向け住宅を建てたことにより、人口の減少を食い止める試みが行われた。	NO_PRONOUNCE	NO_LABEL
長く集められないままのゴミの山や半分野生化した犬の群れは見慣れない光景ではなくなった。	ながくあつめられないままのごみのやまやはんぶんやせいかしたいぬのむれわみなれないこーけいでわなくなった。	NO_LABEL
ホーボーケン市は今より良き時代を経験しているが、今でも決して見棄てられていることはない。	ほーぼーけんしわいまよりよきじだいをけいけんしているが、いまでもけっしてみすてられていることわない。	NO_LABEL
新しい移民の到来、多くはプエルトリコ人であるが、小規模ながら商店の営業を継続させ、放棄されていた住居が使われるようになった。	あたらしいいみんのとーらい、おーくわぷえるとりこじんであるが、しょーきぼながらしょーてんのえいぎょーをけいぞくさせ、ほーきされていたじゅーきょがつかわれるよーになった。	NO_LABEL
しかし、多くの仕事があるというわけには行かなかった。	しかし、おーくのしごとがあるとゆうわけにわいかなかった。	NO_LABEL
「ザ・アベニュー」と呼ばれるワシントン・ストリートは板で玄関が閉じられてしまうこともなく、市民であることをまだ誇りにしている多くの者達の親密な近所付き合いが残った。	NO_PRONOUNCE	NO_LABEL
スティーブンス工科大学は一級の工業系大学のままであり、マクスウェル・ハウスは製造音を出し続けており、ベスレヘム・スティールは丘に上がった水夫を労働者として雇っている。	NO_PRONOUNCE	NO_LABEL
イタリア系アメリカ人などは総菜店に「古い近所付き合い」を求めて戻ってきた。	NO_PRONOUNCE	NO_LABEL
幾つかの通りはまだ「危うい」が多くは夜でも安全である。	NO_PRONOUNCE	NO_LABEL
ホーボーケンのウォーターフロントがホーボーケンを典型的な港町として特徴付け、19世紀から20世紀半ばまでの経済力を与えた。	ほーぼーけんのうぉーたーふろんとがほーぼーけんをてんけいてきなみなとちょーとしてとくちょーずけ、じゅうきゅうせいきからにじっせいきなかばまでのけいざいりょくをあたえた。	NO_LABEL
その頃のウォーターフロントは産業のためのものであり、一般人は近付けなかった。	そのころのうぉーたーふろんとわさんぎょーのためのものであり、いっぱんじんわちかずけなかった。	NO_LABEL
リプトンの紅茶工場とマクスウェル・ハウスの大きなコーヒー工場とベスレヘム・スティールの乾ドックが長い間北側の部分を占領していた。	NO_PRONOUNCE	NO_LABEL
南側は元ハンブルク＝アメリカ航路の基地であったが第一次世界大戦勃発時に土地収用によって連邦政府に抑えられ、その後は東海岸の主要貨物船港であった。	NO_PRONOUNCE	NO_LABEL
1954年制作の映画「波止場」はアメリカの映画の中でも常に5本の指に入る名作だが、ホーボーケンで撮影され、港湾労働者の荒々しく乱雑な生活と組織犯罪による組合の浸透を劇的に描いていた。	NO_PRONOUNCE	NO_LABEL
州間高速道路網の建設とコンテナ荷役設備の導入で、ドックは時代遅れとなり、1970年代までに多くが廃棄された。	しゅーかんこーそくどーろもーのけんせつとこんてなにやくせつびのどーにゅーで、どっくわじだいおくれとなり、せんきゅうひゃくななじゅうねんだいまでにおーくがはいきされた。	NO_LABEL
リバーストリートの一帯はバーバリ・コーストと呼ばれ、昔は造船工、水夫、海の商人など船乗り達の酒場や宿屋があったが、市街地再開発計画の一部として取り上げられた。	NO_PRONOUNCE	NO_LABEL
没収された地域の管理は1950年代に市に戻されたが、港湾公社との複雑な賃貸契約によりその管理にほとんど影響を及ぼしていなかった。	ぼっしゅーされたちいきのかんりわせんきゅうひゃくごじゅうねんだいにしにもどされたが、こーわんこーしゃとのふくざつなちんたいけいやくによりそのかんりにほとんどえいきょーをおよぼしていなかった。	NO_LABEL
1980年代、ウォーターフロント問題がホーボーケンの主要政治課題になり、様々な市民団体や市政府が時には扱いにくい、時には愚かしい政策と裁判に巻き込まれた。	せんきゅうひゃくはちじゅうねんだい、うぉーたーふろんともんだいがほーぼーけんのしゅよーせいじかだいになり、さまざまなしみんだんたいやしせいふがときにわあつかいにくい、ときにわおろかしいせいさくとさいばんにまきこまれた。	NO_LABEL
1990年代、港湾公社、様々なレベルの自治体、ホーボーケン市民および私企業の開発業者が合意し、ウォーターフロントに商業ビルと住居ビルを建設し、オープンスペースを設けることになった。	せんきゅうひゃくきゅうじゅうねんだい、こーわんこーしゃ、さまざまなれべるのじちたい、ほーぼーけんしみんおよびしきぎょーのかいはつぎょーしゃがごーいし、うぉーたーふろんとにしょーぎょーびるとじゅーきょびるをけんせつし、おーぷんすぺーすをもーけることになった。	NO_LABEL
ウォーターフロントの北側部分は私企業の所有する場所であったが、これも再開発された。	うぉーたーふろんとのきたがわぶぶんわしきぎょーのしょゆーするばしょであったが、これもさいかいはつされた。	NO_LABEL
乾ドックと生産施設は削り取られて中層のアパートが造られ、その多くは投資用住居として販売された。	かんどっくとせいさんしせつわけずりとられてちゅーそーのあぱーとがつくられ、そのおーくわとーしよーじゅーきょとしてはんばいされた。	NO_LABEL
幾つかの建物は改修されて再利用に回された。	いくつかのたてものわかいしゅーされてさいりよーにまわされた。	NO_LABEL
その顕著な例がホーボーケン歴史博物館の喫茶室と機械室である。	そのけんちょなれいがほーぼーけんれきしはくぶつかんのきっさしつときかいしつである。	NO_LABEL
新しい建物は格子状の道路を守るように造られ、町の建築物の性格と河面までの視界を保つように高さ制限が設けられた。	あたらしいたてものわこーしじょーのどーろをまもるよーにつくられ、まちのけんちくぶつのせいかくとかわずらまでのしかいをたもつよーにたかさせいげんがもーけられた。	NO_LABEL
中心街のシナトラ公園とシナトラ・ドライブはホーボーケンの最も有名な息子と考えられる男フランク・シナトラに因んだものであり、山の手のマクスウェルという名前はコーヒーを焙煎する香りが町に運ばれてきたことを思い出させ、さらに「最後の一滴まで美味しい」の大きなネオンサインが長い歴史のある風景の一部となっている。	NO_PRONOUNCE	NO_LABEL
中間地区は蛇紋岩の露出部があり、その上にはスティーブンス工科大学がある。	ちゅーかんちくわじゃもんがんのろしゅつぶがあり、そのうえにわすてぃーぶんすこーかだいがくがある。	NO_LABEL
ここには唯一の未開発区域がある。	ここにわゆいいつのみかいはつくいきがある。	NO_LABEL
崖の下には長く封印されたままのシビルの洞窟があり、今は再開の計画がある。	がけのしたにわながくふーいんされたままのしびるのどーくつがあり、いまわさいかいのけいかくがある。	NO_LABEL
川堤の遊歩道はハドソン川ウォーターフロント歩道の一部であり、州が建てたマスタープランではベーヨン・ブリッジからジョージ・ワシントン・ブリッジまでを繋ぎ、どこでも水辺に降りていけるようにし、ニューヨークのスカイラインを背景にハドソン川の広々とした眺めを楽しめる帯状の都市公園になる。	NO_PRONOUNCE	NO_LABEL
1970年代から1980年代にかけて、ホーボーケンでは投機熱が高まった。	せんきゅうひゃくななじゅうねんだいからせんきゅうひゃくはちじゅうねんだいにかけて、ほーぼーけんでわとーきねつがたかまった。	NO_LABEL
これは、ニューヨークなどの住人が、20世紀の変わり目頃に造られた褐色砂岩の壁の家を購入して移り住み、中産階級が昔のままに残っていた地域に入りこんだことと、19世紀遅くのアパートを購入して借家として使うことを考えた地元や市外の不動産投機者によって加速された。	これわ、にゅーよーくなどのじゅーにんが、にじっせいきのかわりめごろにつくられたかっしょくしゃがんのかべのいえをこーにゅーしてうつりすみ、ちゅーさんかいきゅーがむかしのままにのこっていたちいきにはいりこんだことと、じゅうきゅうせいきおそくのあぱーとをこーにゅーしてしゃくやとしてつかうことをかんがえたじもとやしがいのふどーさんとーきしゃによってかそくされた。	NO_LABEL
ホーボーケンは連続した火事を経験したが、この幾つかは放火と判明した。	ほーぼーけんわれんぞくしたかじをけいけんしたが、このいくつかわほーかとはんめいした。	NO_LABEL
不動産投資会社のアプライド・ハウジングが合衆国政府の支援を利用して準標準化住宅を回収し、援助された家賃を受け取る仕組みを作った。	NO_PRONOUNCE	NO_LABEL
これで低収入者、住みかを追われた者、障害者でも町に入って来られるようになった。	これでていしゅーにゅーしゃ、すみかをおわれたもの、しょーがいしゃでもまちにはいってきたられるよーになった。	NO_LABEL
ホーボーケンには、芸術家、音楽家、高度に機動性のある通勤者、およびボヘミアンタイプの者が惹き付けられている。	ほーぼーけんにわ、げいじゅつか、おんがくか、こーどにきどーせいのあるつーきんしゃ、およびぼへみあんたいぷのものがひきつけられている。	NO_LABEL
彼らは破産したニューヨークの社会経済的可能性と挑戦に興味を持ち、ホーボーケンの住居、公共建築および商業建築の美学に価値を見出し、その地域社会の感覚、比較的安い賃貸料、および列車で直ぐに飛び出していけることに重きを置いている。	かれらわはさんしたにゅーよーくのしゃかいけいざいてきかのーせいとちょーせんにきょーみをもち、ほーぼーけんのじゅーきょ、こーきょーけんちくおよびしょーぎょーけんちくのびがくにかちをみいだし、そのちーきしゃかいのかんかく、ひかくてきやすいちんたいりょー、およびれっしゃですぐにとびだしていけることにおもきをおいている。	NO_LABEL
マクスウェルが解放されホーボーケンは「ヒップな」生活の場となった。	NO_PRONOUNCE	NO_LABEL
この社会的変革の中で、いわゆる「新参者」が市内東半分の「古顔」に置き換わった。	NO_PRONOUNCE	NO_LABEL
このジェントリフィケーション現象はブルックリンの一部やジャージーシティの中心街およびマンハッタンのイースト・ヴィレッジに似ている。	NO_PRONOUNCE	NO_LABEL
また以前は人が住んでいなかったソーホー地区やトライベッカ地区にも、規模は小さいが似ている。	またいぜんわひとがすんでいなかったそーほーちくやとらいべっかちくにも、きぼわこさいがにている。	NO_LABEL
芸術家や若い人が住むようになって町に対する認識が変わり、以前はそこに移り住もうと考えもしなかった人々が興味を持ち、安全で面白く、結果的に望ましい町だと考えるようになった。	げいじゅつかやわかいひとがすむよーになってまちにたいするにんしきがかわり、いぜんわそこにうつりすもうとかんがえもしなかったひとびとがきょーみをもち、あんぜんでおもしろく、けっかてきにのぞましいまちだとかんがえるよーになった。	NO_LABEL
多くの郊外居住者、海外企業駐在員の家族、国際人および移民で、ニューヨーク＝ニュージャージー地域のマンハッタンに近い所で機会を求めた者はハドソン川のジャージー側にその住み家を求め始め、不動産ブームも手伝って多くの者が投機機会を求めた。	NO_PRONOUNCE	NO_LABEL
空き地に建物が建ち、借家はコンドミニアムになった。	あきちにたてものがたち、しゃくやわこんどみにあむになった。	NO_LABEL
ホーボーケンはワールドトレードセンターの破壊を痛切に感じ取った。	ほーぼーけんわわーるどとれーどせんたーのはかいをつーせつにかんじとった。	NO_LABEL
新しい住民の多くはそこで働いており、ホーボーケンを不動産用の金を投資する場所に選んだ人々だったからである。	あたらしいじゅーみんのおーくわそこではたらいており、ほーぼーけんをふどーさんよーのきんをとーしするばしょにえらんだひとびとだったからである。	NO_LABEL
再開発でウォーターフロントの元工場地帯への新しい建築が奨励され、伝統的に貧困層の多い市の西側は、ハドソン＝バーゲン・ライトレールとニュージャージー州土地活用政策と相俟って、トランジット・ビレッジの計画が進んでいる。	NO_PRONOUNCE	NO_LABEL
ホーボーケンはアメリカの都心隣接生活再発見の焦点になり続けている。	ほーぼーけんわあめりかのとしんりんせつせいかつさいはっけんのしょーてんになりつずけている。	NO_LABEL
またニューヨーク都市圏に移住したいと願う者の最初の足場ともなっている。	またにゅーよーくとしけんにいじゅーしたいとねがうもののさいしょのあしばともなっている。	NO_LABEL
ホーボーケン市はフォークナー法の下で市制を布き、市長と9人の委員の市制委員会によって運営されている。	ほーぼーけんしわふぉーくなーほーのしたでしせいをしき、しちょーとくにんのいいんのしせいいいんかいによってうんえいされている。	NO_LABEL
委員会委員の3名は市全体から選ばれ、残り6人は市内6つの区を代表している。	NO_PRONOUNCE	NO_LABEL
候補者は政党に属さないことになっている。	こーほしゃわせいとーにぞくさないことになっている。	NO_LABEL
ホーボーケン市の現在の市長はデイビッド・ロバーツである。	NO_PRONOUNCE	NO_LABEL
市制委員会のメンバーは下記のようになっている。	しせいいーんかいのめんばーわかきのよーになっている。	NO_LABEL
ホーボーケンの自治都市として150年の歴史で、市長や市制委員会メンバーの選挙はホーボーケンの地域社会で運営されてきた。	ほーぼーけんのじちとしとしてひゃくごじゅうねんのれきしで、しちょーやしせいいーんかいめんばーのせんきょわほーぼーけんのちーきしゃかいでうんえいされてきた。	NO_LABEL
ホーボーケンの政治的視野はシティホールと市民の間の強い関係によって形作られてきた。	ほーぼーけんのせいじてきしやわしてぃほーるとしみんのまのつよいかんけいによってかたちずくられてきた。	NO_LABEL
市長や委員に出馬する者はホーボーケンで育った人々である。	しちょーやいいんにしゅつばするものわほーぼーけんでそだったひとびとである。	NO_LABEL
最近の市長選の結果は以下の通りであった。	さいきんのしちょーせんのけっかわいかのとーりであった。	NO_LABEL
ホーボーケンは連邦議会では第13選挙区であり、州議会では第33選挙区の一部である。	NO_PRONOUNCE	NO_LABEL
ニュージャージー州の連邦議会第13選挙区は、エセックス、ハドソン、ミドルセックスおよびユニオン各郡を含み、現在はアルビオ・シレスが議員である。	NO_PRONOUNCE	NO_LABEL
シレスは2006年1月16日以降空席となっていた議席を2006年11月7日の補選で獲得した。	しれすわにせんろくねんいちがつじゅうろくにちいこーくーせきとなっていたぎせきをにせんろくねんじゅーいちがつなのかのほせんでかくとくした。	NO_LABEL
その前の議員はボブ・メネンデスであり、ニュージャージー州知事になったジョン・コーザインの後を追って上院議員に回った。	NO_PRONOUNCE	NO_LABEL
もう一人の上院議員はフランク・ローテンバーグである。	NO_PRONOUNCE	NO_LABEL
州議会第33選挙区は上院がバーナード・ケニー、下院がブライアン・P・スタックとシルベリオ・ベガが代議員となっている。	NO_PRONOUNCE	NO_LABEL
州知事はジョン・コーザインである。	しゅーちじわじょんこーざいんである。	NO_LABEL
ハドソン郡の郡執行役はトマス・A・デガイズである。	NO_PRONOUNCE	NO_LABEL
執行役が選ばれたフリーホールダーと共に議会を構成し郡政を担当している。	しっこーやくがえらばれたふりーほーるだーとともにぎかいをこーせいしぐんせいをたんとーしている。	NO_LABEL
フリーホールダーは9人で次の通りとなっている。	ふりーほーるだーわくにんでつぎのとーりとなっている。	NO_LABEL
第1区:ドーリーン・マカンドリュー・ディドメニコ、第2区:ウィリアム・オデア、第3区:ジェフリー・ダブリン、第4区:エリュー・リベラ、第5区:モーリス・フィッツギボンズ、第6区:ティロ・リバス、第7区:ジェラルド・ランゲ・ジュニア、第8区:トマス・リッジオ、第9区:アルバート・シフェリ。	NO_PRONOUNCE	NO_LABEL
ホーボーケン市はハドソン郡と同様に人口密度が高く、多民族が住んでいる。	ほーぼーけんしわはどそんぐんとどーよーにじんこーみつどがたかく、たみんぞくがすんでいる。	NO_LABEL
近年、ベッドタウン化している。	きんねん、べっどたうんかしている。	NO_LABEL
現職州知事のジョン・コーザインはホーボーケンに住み続けているが、知事公舎のあるドラムスワケットで職務を遂行しているので、市内で見られることは希である。	げんしょくしゅーちじのじょんこーざいんわほーぼーけんにすみつずけているが、ちじこーしゃのあるどらむすわけっとでしょくむをすいこーしているので、しないでみられることわまれである。	NO_LABEL
ホーボーケンの公立学校はアボット地区のホーボーケン教育委員会が運営している。	ほーぼーけんのこーりつがっこーわあぼっとちくのほーぼーけんきょーいくいーんかいがうんえいしている。	NO_LABEL
この地区には3つの7年制小学校がある。	このちくにわみっつのななねんせいしょーがっこーがある。	NO_LABEL
第8学年を受け持つ中等学校が2校、第9から第12学年を受け持つホーボーケン高等学校1校がある。	NO_PRONOUNCE	NO_LABEL
小学校は8年制にしようとしている。	しょーがっこーわはちねんせいにしよーとしている。	NO_LABEL
さらに、次の8年制チャーター・スクールがあり、ホーボーケン教育委員会とは別にニュージャージー州教育局コミッショナーに認められた公立学校である。	さらに、つぎのはちねんせいちゃーたーすくーるがあり、ほーぼーけんきょーいくいーんかいとわべつににゅーじゃーじーしゅーきょーいくきょくこみっしょなーにみとめられたこーりつがっこーである。	NO_LABEL
19世紀の格子状街路計画で4つの公園も配置された。	じゅうきゅうせいきのこーしじょーがいろけいかくでよっつのこーえんもはいちされた。	NO_LABEL
他の公園は後に造られたが、市内南東の街路に合わせられた。	たのこーえんわごにつくられたが、しないなんとーのがいろにあわせられた。	NO_LABEL
ホーボーケン公園イニシャチブは市内に更に多くの公共空間を作る市の計画であり、私企業とのトレードオフによる寄付やニュージャージー州グリーンエーカー基金および政府の認めるものを資金計画に使っている。	ほーぼーけんこーえんいにしゃちぶわしないにさらにおーくのこーきょーくーかんをつくるしのけいかくであり、しきぎょーとのとれーどおふによるきふやにゅーじゃーじーしゅーぐりーんえーかーききんおよびせいふのみとめるものをしきんけいかくにつかっている。	NO_LABEL
これは様々な市民団体と市役所との議論の素となっている。	これわさまざまなしみんだんたいとしやくしょとのぎろんのもととなっている。	NO_LABEL
提案されている計画の中でもまだ実現されていないのがマクスウェル・プレースのものであり、その開発者は公共の歩道を造ることが義務付けられている。	NO_PRONOUNCE	NO_LABEL
他の計画は次のとおり。	たのけいかくわつぎのとーり。	NO_LABEL
