BOØWY VIDEOは、日本のロックバンドであるBOØWYの初のビデオ作品。	NO_PRONOUNCE	NO_LABEL
1986年7月2日に東芝EMIよりリリースされた。	せんきゅうひゃくはちじゅうろくねんしちがつふつかにとーしばいーえむあいよりりりーすされた。	NO_LABEL
2001年11月28日にはDVD化された。	にせんいちねんじゅーいちがつにじゅうはちにちにわでぃーぶいでぃーかされた。	NO_LABEL
BOØWY初の映像作品で、1986年5月1日高崎市文化会館でのライヴを収録したもの。	ぼういはつのえいぞーさくひんで、せんきゅうひゃくはちじゅうろくねんごがつついたちたかさきしぶんかかいかんでのらいぶをしゅーろくしたもの。	NO_LABEL
一部イメージ映像やプロモーションビデオの素材を使っているが、基本的にはライヴ・ビデオである。	NO_PRONOUNCE	NO_LABEL
監督は前嶋輝。	かんとくわまえじまあきら。	NO_LABEL
発売日の7月2日はBOØWY初の武道館公演が行われた日だった。	はつばいびのしちがつふつかわぼういはつのぶどーかんこーえんがおこなわれたひだった。	NO_LABEL
ライヴアルバム『“GIGS” JUST A HERO TOUR 1986』は公演から1ヶ月以内に発売される異例のスピードリリースだったが、ビデオも公演から僅か2ヶ月で発売された。	NO_PRONOUNCE	NO_LABEL
また、上記アルバム収録の「わがままジュリエット」はこのビデオに収録されているものと同音源となっている。	NO_PRONOUNCE	NO_LABEL
