トッド・ギレスは、アメリカ合衆国出身の男性アイスダンス選手。	とっどぎれすわ、あめりかがっしゅーこくしゅっしんのだんせいあいすだんすせんしゅ。	NO_LABEL
2009-2010シーズンアメリカナショナルチームCメンバー。	NO_PRONOUNCE	NO_LABEL
パートナーはエミリー・サミュエルソンなど。	ぱーとなーわえみりーさみゅえるそんなど。	NO_LABEL
妹はフィギュアスケート選手のアレクシ・ギレスとアイスダンス選手のパイパー・ギレス。	いもーとわふぃぎゅあすけーとせんしゅのあれくしぎれすとあいすだんすせんしゅのぱいぱーぎれす。	NO_LABEL
