舞阪郵便局は静岡県浜松市西区にある郵便局。	まいさかゆーびんきょくわしずおかけんはままつしにしくにあるゆーびんきょく。	NO_LABEL
民営化前の分類では集配普通郵便局であった。	みんえいかまえのぶんるいでわしゅーはいふつーゆーびんきょくであった。	NO_LABEL
住所：〒431-0299 静岡県浜松市西区舞阪町浜田195	NO_PRONOUNCE	NO_LABEL
1871年の郵便制度発足にあたり東海道の各宿場に設けられた郵便取扱所を前身とする、日本で最も歴史ある郵便局の一つである。	せんはっぴゃくななじゅういちねんのゆーびんせいどほっそくにあたりとーかいどーのかくしゅくばにもーけられたゆーびんとりあつかいしょをぜんしんとする、にっぽんでもっともれきしあるゆーびんきょくのひとつである。	NO_LABEL
民営化直前の集配業務再編において、多くの集配普通郵便局は統括センターとなったが、当局は配達センターとされたため、民営化後も郵便事業株式会社の支店は併設されず、集配センターが併設された。	みんえいかちょくぜんのしゅーはいぎょーむさいへんにおいて、おーくのしゅーはいふつーゆーびんきょくわとーかつせんたーとなったが、とーきょくわはいたつせんたーとされたため、みんえいかごもゆーびんじぎょーかぶしきがいしゃのしてんわへいせつされず、しゅーはいせんたーがへいせつされた。	NO_LABEL
