栄浜村は、日本の領有下において樺太に存在した村。	さかえはまむらわ、にっぽんのりょーゆーかにおいてからふとにそんざいしたむら。	NO_LABEL
当該地域の領有権に関する詳細は樺太の項目を、現状に関してはスタロドゥプスコエの項目を参照。	とーがいちいきのりょーゆーけんにかんするしょーさいわからふとのこーもくを、げんじょーにかんしてわすたろどぅぷすこえのこーもくをさんしょー。	NO_LABEL
以下の学校一覧は1945年4月1日現在のもの。	いかのがっこーいちらんわせんきゅうひゃくよんじゅうごねんしがつついたちげんざいのもの。	NO_LABEL
