1980年レークプラシッドオリンピックのスウェーデン選手団は、1980年2月13日から2月24日まで、アメリカ合衆国ニューヨーク州のレークプラシッドで開催された1980年レークプラシッドオリンピックのスウェーデン選手団、およびその競技結果。	せんきゅうひゃくはちじゅうねんれーくぷらしっどおりんぴっくのすうぇーでんせんしゅだんわ、せんきゅうひゃくはちじゅうねんにがつじゅうさんにちからにがつにじゅうよっかまで、あめりかがっしゅーこくにゅーよーくしゅーのれーくぷらしっどでかいさいされたせんきゅうひゃくはちじゅうねんれーくぷらしっどおりんぴっくのすうぇーでんせんしゅだん、およびそのきょーぎけっか。	NO_LABEL
今大会は金メダル3個、銅メダル1個、合計4個のメダルを獲得した。	NO_PRONOUNCE	NO_LABEL
アルペンスキーでは、インゲマル・ステンマルクが男子回転と男子大回転で金メダルを獲得し、2冠を達成した。	あるぺんすきーでわ、いんげまるすてんまるくがだんしかいてんとだんしだいかいてんできんめだるをかくとくし、にかんをたっせいした。	NO_LABEL
