2010年バンクーバーオリンピックのフランス選手団は、2010年2月12日から2月28日までカナダのブリティッシュコロンビア州バンクーバー市で開催された2010年バンクーバーオリンピックのフランス選手団、およびその競技結果。	にせんじゅうねんばんくーばーおりんぴっくのふらんすせんしゅだんわ、にせんじゅうねんにがつじゅうににちからにがつにじゅうはちにちまでかなだのぶりてぃっしゅころんびあしゅーばんくーばーしでかいさいされたにせんじゅうねんばんくーばーおりんぴっくのふらんすせんしゅだん、およびそのきょーぎけっか。	NO_LABEL
今大会は金メダル2個、銀メダル3個、銅メダル6個の合計11個のメダルを獲得した。	NO_PRONOUNCE	NO_LABEL
合計11個のメダルは、過去最多だった2002年ソルトレークシティオリンピックと並ぶ最多タイ。	NO_PRONOUNCE	NO_LABEL
ノルディック複合男子個人ノーマルヒルではジャゾン・ラミー＝シャプイが金メダルを獲得した。	のるでぃっくふくごーだんしこじんのーまるひるでわじゃぞんらみーしゃぷいがきんめだるをかくとくした。	NO_LABEL
フランス勢のオリンピックのノルディック複合競技での金メダル獲得は、1992年アルベールビルオリンピックのファブリス・ギー以来18年ぶり。	ふらんすぜいのおりんぴっくののるでぃっくふくごーきょーぎでのきんめだるかくとくわ、せんきゅうひゃくきゅうじゅうにねんあるべーるびるおりんぴっくのふぁぶりすぎーいらいじゅうはちねんぶり。	NO_LABEL
