コピーライト・トロールとは、ある種の個人、法人を指して揶揄する語である。	こぴーらいととろーるとわ、あるたねのこじん、ほーじんをさしてやゆするかたりである。	NO_LABEL
著作権トロールとも。	ちょさくけんとろーるとも。	NO_LABEL
コピーライト・トロールは過度に攻撃的に、もしくは"情勢を伺いつつ"訴訟を提起しその結果得る金銭的受益のために、自身が保持する著作権の権利行使を行う。	NO_PRONOUNCE	NO_LABEL
しかしながら彼らは商業頒布目的での著作物の作成または著作物の利用の為のライセンス締結を通常行わない。	しかしながらかれらわしょーぎょーはんぷもくてきでのちょさくぶつのさくせいまたわちょさくぶつのりよーのためのらいせんすていけつをつーじょーおこなわない。	NO_LABEL
批判者はコピーライト・トロールの行為に反感を持っている。	ひはんしゃわこぴーらいととろーるのこーいにはんかんをもっている。	NO_LABEL
その理由として批判者は、コピーライト・トロールの行為は創作物を生み出すことを萎縮させ、その代わり、著作物の創造を奨励することを意図し定められた著作権法を濫用し、そこに規定される高額な法定損害賠償の不衡平さとを巧みに利用し金銭を得ていると述べる。	そのりゆーとしてひはんしゃわ、こぴーらいととろーるのこーいわそーさくぶつをうみだすことをいしゅくさせ、そのかわり、ちょさくぶつのそーぞーをしょーれいすることをいとしさだめられたちょさくけんほーをらんよーし、そこにきていされるこーがくなほーていそんがいばいしょーのふこーへいさとをたくみにりよーしきんせんをえているとのべる。	NO_LABEL
コピーライト・トロールという用語とその概念は2000年代中頃に見られ始めた。	こぴーらいととろーるとゆうよーごとそのがいねんわにせんねんだいなかごろにみられはじめた。	NO_LABEL
この用語は、製品販売企業に対して特許権を金儲けの為に行使し、自身は何の製品も販売しないパテント・トロールという用語の派生である。	このよーごわ、せいひんはんばいきぎょーにたいしてとっきょけんをかねもーけのためにこーしし、じしんわなにのせいひんもはんばいしないぱてんととろーるとゆうよーごのはせいである。	NO_LABEL
コピーライト・トロールは、例えば米国の著作権管理団体の一つで、音楽著作権のライセンス管理を行うASCAPのように単に巨大な著作権ポートフォリオを持ち、著作権のライセンスや権利分配を営利目的で行うために保持する著作権者とは別物である。	NO_PRONOUNCE	NO_LABEL
評論家のイザベラ・アレクサンダーによると、世界初のコピーライト・トロールは、19世紀イギリスの戯歌歌手であるアニー・ウォールの夫、ハリー・ウォールである。	NO_PRONOUNCE	NO_LABEL
ウォールは著作権を食い物にしていたのは勿論のこと、その滑稽な人間性により評判の悪い人物である。	うぉーるわちょさくけんをくいものにしていたのわもちろんのこと、そのこっけいなにんげんせいによりひょーばんのわるいじんぶつである。	NO_LABEL
彼は「作詞家、作曲家、及び美術家の著作権保護事務所」なる会社を立ち上げた。	NO_PRONOUNCE	NO_LABEL
その目的は、多くは既に死去した作曲家の作品を「無断実演」する者に対し、の一部である「1833年演劇著作権法」の法定損害賠償の規定を利用し、訴訟の脅威をちらつかせることで、侵害者から使用料を徴収することであった。	NO_PRONOUNCE	NO_LABEL
1990年代から2000年代にかけて、フリーかつオープンなOSであるLinuxを駆逐することを目的として、SCOグループが約1,500社にライセンス・ロイヤルティーを要求する事件が起きたが、現在ではこれもコピーライト・トロール行為であると捉えられる。	NO_PRONOUNCE	NO_LABEL
SCOの主張の根拠となったUNIXの著作権は最終的にはSCOではなくノベルに帰属するとの判決を法廷は下したが、ノベルはSCOとは対照的に「侵害の嫌疑が掛けられる者」に対して同著作権を行使することに全く興味が無く、またはその意思を一切持たなかった。	NO_PRONOUNCE	NO_LABEL
Googleを個別に提訴した二つの訴訟当事者が2006年当時存在したが、これもコピーライト・トロールに当たる。	ぐーぐるをこべつにていそしたふたつのそしょーとーじしゃがにせんろくねんとーじそんざいしたが、これもこぴーらいととろーるにあたる。	NO_LABEL
訴訟行為前に彼らは自身が知っていたコンテンツをインターネット上に投稿し、その際オプトアウト型のHTMLとしては業界標準といえる、""タグを故意に省いた上で、同社のウェブ・クローラーであるGooglebotスパイダーにコンテンツを索引登録させるよう仕向けた。	NO_PRONOUNCE	NO_LABEL
の審理では次の事実が認定された。	のしんりでわつぎのじじつがにんていされた。	NO_LABEL
原告の成人男性向け雑誌社は、インターネット上のウェブサーバに画像をアップロードした。	げんこくのせいじんだんせいむけざっししゃわ、いんたーねっとじょーのうぇぶさーばにがぞーをあっぷろーどした。	NO_LABEL
その後被告はGooglebotを用いて当該画像のサムネイルを作成しそのURLを被告のGoogle画像検索サービスにインデックスした。	NO_PRONOUNCE	NO_LABEL
原告は被告の行為が著作権及びであると主張しその仮差止を申し立てた。	げんこくわひこくのこーいがちょさくけんおよびであるとしゅちょーしそのかりさしどめをもーしたてた。	NO_LABEL
審理途上においては電子フロンティア財団がアミークス・ブリーフを提出している。	NO_PRONOUNCE	NO_LABEL
審理の結果、カリフォルニア中央地区連邦地方裁判所は被告のフェアユースの抗弁を認めず、サムネイル作成行為は著作権の直接侵害行為であるとの判断を下した。	しんりのけっか、かりふぉるにあちゅーおーちくれんぽーちほーさいばんしょわひこくのふぇあゆーすのこーべんをみとめず、さむねいるさくせいこーいわちょさくけんのちょくせつしんがいこーいであるとのはんだんをくだした。	NO_LABEL
ただし法廷は原告が同時に主張していた、被告の、具体的には、直接侵害を行うと「知っていた」第三者のサイトへ利用者を招き入れるための「場所及び施設」を提供し侵害を幇助するという寄与侵害行為による法的責任及びその間接侵害を管理監督する義務があるにもかかわらずそれをしなかったことによるを認めなかった。	NO_PRONOUNCE	NO_LABEL
これを受け両者はに交差上訴した。	これをうけりょーしゃわにこーさじょーそした。	NO_LABEL
それと同時にパーフェクト10はGoogleと同様の行為をなしたした）と主張するAmazonも提訴したを持つのためにある）との観点から被告のフェアユースの抗弁を一転認めた。	NO_PRONOUNCE	NO_LABEL
しかし巡回裁判官は、寄与侵害に関し上訴審にて被告が提起したDMCAの「」に基づくについて、侵害が疑われる著作物に、検索エンジンで全世界に向けてアクセスできるようにしている被告が侵害に寄与していないとは言いづらく、この点は下級審で全く審理されていないため疑義があると述べ、これを退け、本件の一部案を原審に差し戻すと決定した。	NO_PRONOUNCE	NO_LABEL
パーフェクト10は同様の訴訟を多数提起しておりしたオンラインストレージ企業のRapidShareは「被告は業務実態がないコピーライト・トロールである」と述べている。	NO_PRONOUNCE	NO_LABEL
同様にGoogleの検索エンジンのボットによるウェブページ収集が著作権侵害であるとして訴訟提起したブレーク・A・フィールドも「コピーライト・トロール」の一例として挙げられている。	NO_PRONOUNCE	NO_LABEL
という新聞を発行する米国のメディア企業は、2010年、同紙の過去記事多数の著作権をRighthavenなる会社にライセンスする契約を締結した。	NO_PRONOUNCE	NO_LABEL
Righthavenはこの著作権を基に当該記事をサイト上に無断転載したブロガーやその他ライターらに対し法定損害賠償を求め提訴した。	NO_PRONOUNCE	NO_LABEL
このことが明らかになった後、一部の評論家は同社の行為はコピーライト・トロールの所業であると懸念を表明した。	このことがあきらかになったのち、いちぶのひょーろんかわどーしゃのこーいわこぴーらいととろーるのしょぎょーであるとけねんをひょーめいした。	NO_LABEL
この事件に対し、電子フロンティア財団が被告らを支援すると申し出たのに加え、ザ・ロサンゼルス・タイムズ、ブルームバーグ・ニュース、Wired News、、ザ・ウォール・ストリート・ジャーナル、及びザ・などその他多数の新聞、ニュース・ブログでも取り上げられた。	NO_PRONOUNCE	NO_LABEL
ラスベガス・レビュージャーナルの競合紙に当たるは、2010年9月1日までにRighthavenにより提起された全107の訴訟を同紙で報じ、ニュース記事の著作権が侵害されたとの判断を根拠に当該記事の権利を買収するという手法を用いるコピーライト・トロールとして、知りうる限りRighthavenがその最初の例であると評した。	NO_PRONOUNCE	NO_LABEL
レビュージャーナルの発行人は訴訟の正当性を弁護するためこれに応じ、同訴訟を報じたサンの報道姿勢を批判した。	れびゅーじゃーなるのはっこーにんわそしょーのせいとーせいをべんごするためこれにおーじ、どーそしょーをほーじたさんのほーどーしせいをひはんした。	NO_LABEL
2010年8月、Righthavenは同種の訴訟を提起することを目的に、アーカンソー州のメディア企業と契約を結び、更に他多数の出版社との交渉を行うと発表した。	NO_PRONOUNCE	NO_LABEL
Wired MagazineはRighthavenの行為は「パテント・トロールの受け売り」であると論じ、同社が侵害者一人頭75,000ドルの損害賠償を要求しており加えて各被告と数千ドルで和解を結ぶことを特に指摘している。	NO_PRONOUNCE	NO_LABEL
2011年冬季までに、法廷に多くのリソースをつぎ込みつつRighthavenに戦いを挑んだ被告らは、彼らによる著作物の利用はフェアユース法理に該当し、かつ、レビュージャーナルが当該著作物の所有権をRighthavenに実際には完全に譲渡していなかったという事実に基づく法廷の判断を得て訴訟を勝ち抜いた。	NO_PRONOUNCE	NO_LABEL
勝訴した被告らは訴訟費用及びの請求を法廷に申し立てたが、Righthavenはその支払いを拒否した。	NO_PRONOUNCE	NO_LABEL
2011年12月までに、Righthavenは債務超過に陥り、資産が競売に掛けられている。	NO_PRONOUNCE	NO_LABEL
