ハード・リヴェンジは、坂本龍一のアルバム『スウィート・リヴェンジ』に対するリミックス・アルバム。	NO_PRONOUNCE	NO_LABEL
1994年12月16日にリリースされた。	せんきゅうひゃくきゅうじゅうよねんじゅーにがつじゅうろくにちにりりーすされた。	NO_LABEL
のサンプラー・やGEISHA GIRLSを模したステッカーがおまけで入っていた。	NO_PRONOUNCE	NO_LABEL
