クリソライトは日本の競走馬。	くりそらいとわにっぽんのきょーそーば。	NO_LABEL
馬名の由来は、宝石の一種であるペリドットの別名。	うまめいのゆらいわ、ほーせきのいちしゅであるぺりどっとのべつめい。	NO_LABEL
おもな勝ち鞍は2013年ジャパンダートダービー、2014年日本テレビ盃、2015年 - 2017年ダイオライト記念、2016年コリアカップ。	NO_PRONOUNCE	NO_LABEL
デビューは7月7日の中京競馬場のダート1400mの2歳新馬戦。	でびゅーわしちがつなのかのちゅーきょーけいばじょーのだーとせんよんひゃくめーとるのにさいしんばせん。	NO_LABEL
中団から最速の上がりで追い込むも2着に惜敗した。	ちゅーだんからさいそくのあがりでおいこむもにちゃくにせきはいした。	NO_LABEL
2ヶ月間を空けた9月の阪神のダート1800m未勝利戦を2着に5馬身差の圧勝で初勝利をあげた。	NO_PRONOUNCE	NO_LABEL
しかしその後出走した東京のプラタナス賞、京都のもちの木賞、阪神の樅の木賞はいずれも1番人気に推されながら僅差の2着に惜敗した。	しかしそのごしゅっそーしたとーきょーのぷらたなすしょー、きょーとのもちのきしょー、はんしんのもみのきしょーわいずれもいちばんにんきにおされながらきんさのにちゃくにせきはいした。	NO_LABEL
1月の中山の黒竹賞は4戦連続で1番人気に推されながらまたも2着に惜敗した。	いちがつのなかやまのくろちくしょーわよんせんれんぞくでいちばんにんきにおされながらまたもにちゃくにせきはいした。	NO_LABEL
その後約3ヶ月の休養を挟んで迎えた阪神の500万下は2着に7馬身差の圧勝で2勝目を飾った。	NO_PRONOUNCE	NO_LABEL
5月の京都の昇竜ステークスを勝利して迎えた大井のジャパンダートダービーは4コーナーで先頭に立つと2着に7馬身差の圧勝でGI制覇を果たした。	NO_PRONOUNCE	NO_LABEL
父のゴールドアリュールもこのレースを制しており、初の親子制覇となった。	ちちのごーるどありゅーるもこのれーすをせいしており、はつのおやこせいはとなった。	NO_LABEL
短期放牧を経て、秋は古馬一線級の壁に挑んだものの、10月のJBCクラシック、12月のジャパンカップダートともに精彩を欠く走りで立て続けに惨敗、デビューからの連対記録も9戦で途絶えてしまった。	たんきほーぼくをへて、あきわふるうまいっせんきゅーのかべにいどんだものの、じゅーがつのじぇいびーしーくらしっく、じゅーにがつのじゃぱんかっぷだーとともにせいさいをかくはしりでたてつずけにざんぱい、でびゅーからのれんたいきろくもきゅうせんでとだえてしまった。	NO_LABEL
翌年は3月のマーチSから始動したものの惨敗。	よくねんわさんがつのまーちすてーくすからしどーしたもののざんぱい。	NO_LABEL
前年のJBCクラシックでトモを痛めて以降の調子落ちに加えて、JpnIを勝っているため斤量を背負うこととなり、秋のGI戦線に向けて賞金加算が大きな課題となっていた。	ぜんねんのじぇいびーしーくらしっくでともをいためていこーのちょーしおちにくわえて、じーわんをかっているためきんりょーをせおうこととなり、あきのじーあいせんせんにむけてしょーきんかさんがおーきなかだいとなっていた。	NO_LABEL
4月のアンタレスSでは59kgの斤量に加えて、前が壁になり足を余すも7着とついに復調の兆しを見せた。	しがつのあんたれすすてーくすでわごじゅうきゅうきろぐらむのきんりょーにくわえて、まえがかべになりあしをあますもななちゃくとついにふくちょーのきざしをみせた。	NO_LABEL
5月のブリリアントSでは速い上がりに対応できず4着、7月の大沼Sでは騎手の乗り替わりもあり惨敗するも、続く盛岡のマーキュリーCではレコード決着の1/2馬身差で2着。	NO_PRONOUNCE	NO_LABEL
そして、9月の日本テレビ盃では早め先頭からの強気の競馬で7馬身差の圧勝。	NO_PRONOUNCE	NO_LABEL
1年2ヶ月振りの勝利であり、重賞2勝目となった。	NO_PRONOUNCE	NO_LABEL
JBCクラシックは1番人気に支持されたが、逃げたコパノリッキーに3馬身差をつけられての2着。	NO_PRONOUNCE	NO_LABEL
続くチャンピオンズカップは14着、東京大賞典は8着に敗れた。	つずくちゃんぴおんずかっぷわじゅうよんちゃく、とーきょーだいしょうてんわはちちゃくにやぶれた。	NO_LABEL
3月のダイオライト記念から始動。	さんがつのだいおらいときねんからしどー。	NO_LABEL
2周目の向正面で先頭に立つとそのまま押し切り優勝、重賞3勝目を挙げた。	にしゅーめのむこーじょうめんでせんとーにたつとそのままおしきりゆーしょー、じゅーしょーさんしょーめをあげた。	NO_LABEL
