青葉 繁は、日本の元キックボクサー。	あおばしげるわ、にっぽんのもときっくぼくさー。	NO_LABEL
医師。	いし。	NO_LABEL
作家。	さっか。	NO_LABEL
福島県出身。	ふくしまけんしゅっしん。	NO_LABEL
身長180cm、体重73kg。	しんちょーひゃくはちじゅうせんちめーとる、たいじゅーななじゅうさんきろぐらむ。	NO_LABEL
仙台青葉ジム～サシプラパージャパン所属。	NO_PRONOUNCE	NO_LABEL
元NJKFウェルター級王者。	もとえぬじぇーけーえふうぇるたーきゅーおーじゃ。	NO_LABEL
