PLエキスとは、ダイオウウラボシより抽出されたエキスのこと。	ぴーえるえきすとわ、だいおううらぼしよりちゅーしゅつされたえきすのこと。	NO_LABEL
原料に使用されているダイオウウラボシはホンジュラス原産のシダの一種。	げんりょーにしよーされているだいおううらぼしわほんじゅらすげんさんのしだのいっしゅ。	NO_LABEL
古代マヤ人は、血液クレンジング剤として飲んでいたといわれる。	こだいまやじんわ、けつえきくれんじんぐざいとしてのんでいたといわれる。	NO_LABEL
ホンジュラスでは今なお民間療法として使用されている植物。	ほんじゅらすでわいまなおみんかんりょうほーとしてしよーされているしょくぶつ。	NO_LABEL
ハーバード・メディカル・スクールにおける光防御分野の第一人者トーマス·B·フィッツパトリックにより、15年間以上にわたり臨床研究が行なわれた。	NO_PRONOUNCE	NO_LABEL
経口投与によって紫外線防御効果、抗炎症作用、脳細胞を保護し記憶力の改善や、痴呆、アルツハイマーと言った精神疾患に対し、又、自己免疫疾患の治療や、喘息、心臓病等の治療薬としても使用されている。	けいこーとーよによってしがいせんぼーぎょこーか、こーえんしょーさよー、のーさいぼーをほごしきおくりょくのかいぜんや、ちほー、あるつはいまーといったせいしんしっかんにたいし、また、じこめんえきしっかんのちりょーや、ぜんそく、しんぞーびょーとーのちりょーやくとしてもしよーされている。	NO_LABEL
ＰＬエキスは紫外線防御に対し、抗酸化作用、免疫防御作用、細胞DNA保護作用、皮膚構造の保存の4つ効果があるといわれている。	ぴーえるえきすわしがいせんぼーぎょにたいし、こーさんかさよー、めんえきぼーぎょさよー、さいぼーでぃーえぬえーほごさよー、ひふこーぞーのほぞんのよっつこーかがあるといわれている。	NO_LABEL
紫外線は皮膚癌や日光弾性線維等の疾患の原因となるROSやフリーラジカルを発生させる。	しがいせんわひふがんやにっこーだんせいせんいとーのしっかんのげんいんとなるろすやふりーらじかるをはっせいさせる。	NO_LABEL
ＰＬエキスは強力な抗酸化作用を持ち、UV照射によって起こるフリーラジカルやROSの発生を抑制する。	ぴーえるえきすわきょーりょくなこーさんかさよーをもち、ゆーぶいしょーしゃによっておこるふりーらじかるやろすのはっせいをよくせいする。	NO_LABEL
"in vitro"で、活性酸素、脂質過酸化反応の発生に関与する光酸化ストレスに対して抗酸化作用が認められた。	NO_PRONOUNCE	NO_LABEL
また、ＰＬエキスは無毛ラットモデルでUVB／UVA照射によって誘発されるグルタチオン酸化を阻害しランゲルハンス細胞の枯渇を予防したなどの研究結果がある。	NO_PRONOUNCE	NO_LABEL
その他、ＰＬエキスはヒト皮膚細胞に対する光防御特性がある、紫外線誘発性の活性酸素種形成、脂質過酸化、紅斑及び皮膚光感作阻害する等の様々な研究が発表されている。	そのた、ぴーえるえきすわひとひふさいぼーにたいするひかりぼーぎょとくせいがある、しがいせんゆーはつせいのかっせいさんそしゅけいせい、ししつかさんか、べにむらおよびひふこーかんさそがいするひとしのさまざまなけんきゅーがはっぴょーされている。	NO_LABEL
紫外線を浴びるとランゲルハンス細胞の死及び非活性化や抗原を伴わないリンパ腺へのランゲルハンス細胞の遊走による免疫抑制が起こる。	しがいせんをあびるとらんげるはんすさいぼーのしおよびひかっせいかやこーげんをともなわないりんぱせんえのらんげるはんすさいぼーのあそびはしによるめんえきよくせいがおこる。	NO_LABEL
ＰＬエキスは経口投与72時間後にＰＬエキスを投与しなかった場合と比較して、表皮1mm当たりのランゲルハンス細胞保存数が多かった。	ぴーえるえきすわけいこーとーよななじゅうにじかんごにぴーえるえきすをとーよしなかったばあいとひかくして、ひょーひいちみりめーとるあたりのらんげるはんすさいぼーほぞんすーがおーかった。	NO_LABEL
さらに、ＰＬエキスの投与をしない状態ではランゲルハンス細胞は大きさが増大し樹状形態が失われていたのに対して、ＰＬエキス投与後の皮膚では、ランゲルハンス細胞の大きさ及び樹状突起の形が保たれていた。	さらに、ぴーえるえきすのとーよをしないじょーたいでわらんげるはんすさいぼーわおーきさがぞーだいしきじょーけいたいがうしなわれていたのにたいして、ぴーえるえきすとーよごのひふでわ、らんげるはんすさいぼーのおーきさおよびじゅじょーとっきのかたちがたもたれていた。	NO_LABEL
PLエキスはUVAおよびUVBの光誘発によるトランスウロカニン酸の光異化性を抑制するという特性もある。	NO_PRONOUNCE	NO_LABEL
つまり、皮膚免疫監視に直接関与する皮膚細胞と内因性分子の保護ができることが示唆されている。	つまり、ひふめんえきかんしにちょくせつかんよするひふさいぼーとないーんせいぶんしのほごができることがしさされている。	NO_LABEL
また、無毛ラットモデルにおいてはUVB／UVA照射によって誘発されるグルタチオン酸化を阻害し、ランゲルハンス細胞の枯渇を予防するという研究結果や、太陽光の模擬照射においてはTNF-α及びiNOSの発現、転写活性化並びにアポトーシスを阻害するとの研究結果もある。	NO_PRONOUNCE	NO_LABEL
紫外線はDNAの損傷ももたらす。	しがいせんわでぃーえぬえーのそんしょーももたらす。	NO_LABEL
紫外線は2本のDNA鎖の融合やDNA鎖の1本を切断し、蛋白質による鎖の結合をもたらす。	しがいせんわにほんのでぃーえぬえーくさりのゆーごーやでぃーえぬえーくさりのいっぽんをせつだんし、たんぱくしつによるくさりのけつごーをもたらす。	NO_LABEL
DNA損傷は、チミンダイマーと日焼け細胞の増加によって検出ができる。	でぃーえぬえーそんしょーわ、ちみんだいまーとひやけさいぼーのぞーかによってけんしゅつができる。	NO_LABEL
そして、チミンダイマーには変異原性があり、発癌の原因となる。	そして、ちみんだいまーにわへんいげんせいがあり、はつがんのげんいんとなる。	NO_LABEL
ＰＬエキスは紫外線照射によって生じる日焼け細胞数とチミンダイマー数を減少させ、DNA損傷を減少する効果がある。	ぴーえるえきすわしがいせんしょーしゃによってしょーじるひやけさいぼーすーとちみんだいまーすーをげんしょーさせ、でぃーえぬえーそんしょーをげんしょーするこーかがある。	NO_LABEL
24時間経過時点の表皮1 mm当たりの日焼け細胞数は、ＰＬエキスを投与しないときに比べ、有意に少なくまた、チミンダイマー量においても有意に少なかった。	NO_PRONOUNCE	NO_LABEL
さらに、Xpc+/-マウスに対してUVによって誘発されるCOX-2発現量を減少させ、UVによって誘発される光産物の除去を促進するという研究結果がある。	NO_PRONOUNCE	NO_LABEL
つまり、PLエキスの経口投与によって皮膚癌などの皮膚損傷を予防できる可能性があることを示唆している。	つまり、ぴーえるえきすのけいこーとーよによってひふがんなどのひふそんしょーをよぼーできるかのーせいがあることをしさしている。	NO_LABEL
紫外線を暴露し続けると「光老化」と呼ばれる皮膚の肥厚、弾力の喪失、しわやたるみといった状態に陥る。	NO_PRONOUNCE	NO_LABEL
この「光老化」は、線維芽細胞への直接的な損傷とMMP産生増加によって引き起こされる。	NO_PRONOUNCE	NO_LABEL
ＰＬエキスはこの「光老化」であるUV照射によって誘発される線維芽細胞の変化、すなわちFアクチンに基づく細胞骨格構造の破壊、チューブリン細胞骨格の癒合を減少し、UV照射によって誘発されるMMP産生を抑制する。	NO_PRONOUNCE	NO_LABEL
また、皮膚線維芽細胞、紫外線照射線維芽細胞及びメラノーマ細胞におけるマトリックスメタロプロテアーゼと阻害物質を調節することができるといわれている。	また、ひふせんいがさいぼー、しがいせんしょーしゃせんいがさいぼーおよびめらのーまさいぼーにおけるまとりっくすめたろぷろてあーぜとそがいぶっしつをちょーせつすることができるといわれている。	NO_LABEL
UVA は、既存のメラニンの酸化により、即時型色素沈着を引き起こし、 UVB は、メラニン細胞の活性化、新たなメラニンの産生促進、メラニンの角化細胞への移動促進により、遅延型色素沈着を引き起こす。	NO_PRONOUNCE	NO_LABEL
PLエキスはこの紫外線によってもたらされる赤斑の抑制についても研究がなされている。	ぴーえるえきすわこのしがいせんによってもたらされるあかむらのよくせいについてもけんきゅーがなされている。	NO_LABEL
PLエキスはUVBによって誘発されるヒト皮膚紅斑反応を効果的に防御し抑制し、太陽光の模擬照射によるTNF-α及びiNOSの発現、転写活性化並びにアポトーシスを阻害する。	NO_PRONOUNCE	NO_LABEL
さらに、紫外線誘発性の活性酸素種形成、脂質過酸化、紅斑及び皮膚光感作阻害することもわかっている。	さらに、しがいせんゆーはつせいのかっせいさんそしゅけいせい、ししつかさんか、べにむらおよびひふこーかんさそがいすることもわかっている。	NO_LABEL
また、色素性皮膚障害である白斑は表皮のメラニン細胞減少によって生じる乳白色の脱色素斑を特徴であるが、白斑のメラニン細胞減少は、自己免疫プロセスもしくはフリーラジカルやROSの増加、又は内因性抗酸化防御の減弱による酸化ストレスであるとするもの推察されており、PLエキスは免疫調節作用と抗酸化作用を持つことから、T細胞活性化に対する免疫調節作用があり、メラニン細胞に対する自己反応性T細胞の増殖を阻害又は減少させることが示唆されるため白斑の治療にも効果が期待されている	また、しきそせいひふしょーがいであるはくはんわひょーひのめらにんさいぼーげんしょーによってしょーじるにゅーはくしょくのだつしきそむらをとくちょーであるが、はくはんのめらにんさいぼーげんしょーわ、じこめんえきぷろせすもしくわふりーらじかるやろすのぞーか、またわないーんせいこーさんかぼーぎょのげんじゃくによるさんかすとれすであるとするものすいさつされており、ぴーえるえきすわめんえきちょーせつさよーとこーさんかさよーをもつことから、てぃーさいぼーかっせいかにたいするめんえきちょーせつさよーがあり、めらにんさいぼーにたいするじこはんのーせいてぃーさいぼーのぞーしょくをそがいまたわげんしょーさせることがしさされるためはくはんのちりょーにもこーかがきたいされている	NO_LABEL
このようなことから日焼け止めサプリにも配送されている。	このよーなことからひやけどめさぷりにもはいそーされている。	NO_LABEL
海外の代表的な物はHeliocare ヘリオケア: スペイン製の日焼け止めサプリメント。	NO_PRONOUNCE	NO_LABEL
日本製で有名なものはノーブがある。	にほんせいでゆーめいなものわのーぶがある。	NO_LABEL
