出石は兵庫県豊岡市にある地区で、かつての出石城の城下町。	いずしわひょーごけんとよーかしにあるちくで、かつてのいずしじょーのじょーかまち。	NO_LABEL
城下町として整備された町割が碁盤の目状であることなどから、但馬の小京都と呼ばれている。	じょーかまちとしてせいびされたまちわりがごばんのめじょーであることなどから、たじまのしょーきょーととよばれている。	NO_LABEL
豊岡市出石伝統的建造物群保存地区の名称で国の重要伝統的建造物群保存地区として選定されている。	とよーかしいずしでんとーてきけんぞーぶつぐんほぞんちくのめいしょーでくにのじゅーよーでんとーてきけんぞーぶつぐんほぞんちくとしてせんていされている。	NO_LABEL
兵庫県北部の但馬地方の東部、豊岡市の南東部の周囲を山に囲まれた盆地で、有子山の南麓、出石川と谷山川との合流部の東南に位置する。	ひょーごけんほくぶのたじまちほーのとーぶ、とよーかしのなんとーぶのしゅーいをやまにかこまれたぼんちで、うじやまのみなみふもと、いずしがわとたにやまがわとのごーりゅーぶのとーなんにいちする。	NO_LABEL
室町時代、守護大名山名氏の居城であった有子山城の南麓に慶長9年、外様大名小出吉英により出石城とその城下町が築かれた。	むろまちじだい、しゅごだいみょーやまなうじのきょじょーであったありこやまじょーのみなみふもとにけいちょーきゅうねん、とざまだいみょーこいでよしひでよしひさによりいずしじょーとそのじょーかまちがきずかれた。	NO_LABEL
江戸時代は仙石家の城下町となって発展した。	えどじだいわせんごくかのじょーかまちとなってはってんした。	NO_LABEL
江戸時代三大お家騒動の仙石騒動の舞台である。	えどじだいさんだいおいえそうどーのせんごくそうどーのぶたいである。	NO_LABEL
明治9年の大火により80％以上の建造物を焼失したが町割は文化7年の絵図の状態がほぼ完全に残り、そこに建設された明治時代の寺院や町家、および焼失を免れた武家屋敷や社寺が現存し、近世後期の城下町の歴史的風致を今日に伝えている。	NO_PRONOUNCE	NO_LABEL
近代以降も出石郡における行政経済の中心地であった。	きんだいいこーもいずしぐんにおけるぎょーせいけいざいのちゅーしんちであった。	NO_LABEL
そのため建替えが多く、1987年に最初の県指定景観形成地区に指定された後も古建築の改廃が絶えないため、重要伝統的建造物群保存地区選定の申し出をするなど、景観の保護を法的に強化している。	そのためたてかえがおーく、せんきゅうひゃくはちじゅうななねにさいしょのけんしていけいかんけいせいちくにしていされたのちもこけんちくのかいはいがたえないため、じゅーよーでんとーてきけんぞーぶつぐんほぞんちくせんていのもーしでをするなど、けいかんのほごをほーてきにきょーかしている。	NO_LABEL
