八尾市立八尾小学校は、大阪府八尾市にある公立小学校。	やおしりつやおしょうがっこーわ、おーさかふやおしにあるこーりつしょーがっこー。	NO_LABEL
八尾市役所の南隣に位置し、八尾市の中心部を校区とする。	やおしやくしょのなんりんにいちし、やおしのちゅーしんぶをこーくとする。	NO_LABEL
敷地内に「環山楼」という江戸時代中期の八尾の豪商であった石田利清が開いた私塾の建物がある。	NO_PRONOUNCE	NO_LABEL
元は別の場所にあったが、1981年に移築・復元された。	NO_PRONOUNCE	NO_LABEL
卒業生は基本的に八尾市立成法中学校に進学する。	そつぎょーせいわきほんてきにやおしりつせいほーちゅうがっこーにしんがくする。	NO_LABEL
