ミゾラム州は、インドの東部にある州の一つ。	みぞらむしゅーわ、いんどのとーぶにあるしゅーのひとつ。	NO_LABEL
その多くは丘陵地帯であり、を多数とするチベット・ビルマ系の諸族が住んでいる。	NO_PRONOUNCE	NO_LABEL
1877年に英領インド帝国が成立した段階では、まだミゾラムはインド帝国に併合されていなかった。	せんはっぴゃくななじゅうななねんにえいりょーいんどていこくがせいりつしただんかいでわ、まだみぞらむわいんどていこくにへいごーされていなかった。	NO_LABEL
イギリスがビルマのコンバウン朝を倒した際、この地域にもイギリスが進出し、19世紀末、アッサム州の一部に組み込まれる。	いぎりすがびるまのこんばうんあさをたおしたさい、このちいきにもいぎりすがしんしゅつし、じゅうきゅうせいきまつ、あっさむしゅーのいちぶにくみこまれる。	NO_LABEL
1966年、ミゾ国民戦線によるミゾ独立運動が起こったが鎮圧され、組織はのチッタゴン丘陵地帯に脱出したによるが発生した。	せんきゅうひゃくろくじゅうろくねん、みぞこくみんせんせんによるみぞどくりつうんどーがおこったがちんあつされ、そしきわのちったごんきゅーりょーちたいにだっしゅつしたによるがはっせいした。	NO_LABEL
1987年、州の一つに昇格。	せんきゅうひゃくはちじゅうななね、しゅーのひとつにしょーかく。	NO_LABEL
マニプル州、トリプラ州、バングラデシュ、ミャンマーと接している。	まにぷるしゅー、とりぷらしゅー、ばんぐらでしゅ、みゃんまーとせっしている。	NO_LABEL
が住民の多くを占め、言語も主にミゾ語が話される。	がじゅーみんのおーくをしめ、げんごもおもにみぞごがはなされる。	NO_LABEL
ただし、ミゾラム州内のマー族もミゾ族として扱われるが、ミゾラム州外に住むマー族は決してミゾ族とは名乗らない。	ただし、みぞらむしゅーないのまーぞくもみぞぞくとしてあつかわれるが、みぞらむしゅーがいにすむまーぞくわけっしてみぞぞくとわなのらない。	NO_LABEL
他のインドの州と異なり、イギリスによるキリスト教布教が成功したため、人口の9割を占めるミゾ族は100％がキリスト教徒である。	たのいんどのしゅーとことなり、いぎりすによるきりすときょーふきょーがせいこーしたため、じんこーのきゅうわりをしめるみぞぞくわひゃくぱーせんとがきりすときょーとである。	NO_LABEL
南西部はチャクマ族のエリアで多くが仏教徒。	なんせいぶわちゃくまぞくのえりあでおーくがぶっきょーと。	NO_LABEL
インドの中でも識字率の高い州であり、9割近くの人々が文字を理解する。	いんどのなかでもしきじりつのこういしゅーであり、きゅうわりちかくのひとびとがもじをりかいする。	NO_LABEL
州都の表記はAizawl、多くの地図などで「アイザウル」の表記が見られるが、Aizawl自体はミゾ語表記であり、「アイゾール」と発音する。	NO_PRONOUNCE	NO_LABEL
詳細は表中の数値を参照。	しょーさいわひょーちゅーのすーちをさんしょー。	NO_LABEL
出典:Census of India	NO_PRONOUNCE	NO_LABEL
