ケイシャ・キャッスル＝ヒューズはニュージーランドの女優。	NO_PRONOUNCE	NO_LABEL
オーストラリア・西オーストラリア州にて生まれる。	NO_PRONOUNCE	NO_LABEL
父親はイングランド系オーストラリア人、母親はマオリの血を引いている。	ちちおやわいんぐらんどけいおーすとらりあじん、ははおやわまおりのちをひいている。	NO_LABEL
ケイシャが4歳の時にニュージーランドに移住。	けいしゃがよんさいのときににゅーじーらんどにいじゅー。	NO_LABEL
2001年にニュージーランドの国籍を取得。	にせんいちねんににゅーじーらんどのこくせきをしゅとく。	NO_LABEL
3人の弟と妹がいる。	さんにんのおとーとといもーとがいる。	NO_LABEL
『ピアノ・レッスン』のキャスティング・ディレクターによって発掘され、2002年にニュージーランド映画『クジラの島の少女』でデビュー。	NO_PRONOUNCE	NO_LABEL
同作品での演技が高く評価され、アカデミー主演女優賞の史上最年少候補者となり大きな話題を集めた。	どーさくひんでのえんぎがたかくひょーかされ、あかでみーしゅえんじょゆーしょーのしじょーさいねんしょーこーほしゃとなりおーきなわだいをあつめた。	NO_LABEL
2006年10月に4歳年上のボーイフレンドとの間の子供を妊娠していると発表。	にせんろくねんじゅーがつによんさいとしうえのぼーいふれんどとのまのこどもをにんしんしているとはっぴょー。	NO_LABEL
2007年4月25日に長女を出産。	にせんななねんしがつにじゅうごにちにちょーじょをしゅっさん。	NO_LABEL
