済公会､台湾台北県三重市に本拠を置くとする黒社会組織、広域暴力団、天道盟の下部団体の一。	NO_PRONOUNCE	NO_LABEL
活動地域は主に台湾北部、総構成員は不明。	かつどーちいきわおもにたいわんほくぶ、そーこーせいいんわふめい。	NO_LABEL
済公会の会長蕭沢宏は、今天道盟の三代目総裁だ。	NO_PRONOUNCE	NO_LABEL
天道盟最初の六大下部団体の一。	てんどうめいさいしょのろくだいかぶだんたいのいち。	NO_LABEL
1984年、一清特別案件のため入獄したの角頭を逮捕されて、竹聯幇が勢力の巨大ないじめ人を頼りにしていることを不満に思って、刑務所の中で本省掛のヤクザ連盟を結んで外省掛の竹聯幇に対抗しにくることを提案している。	NO_PRONOUNCE	NO_LABEL
蕭沢宏はその時この提案に応えていた。	NO_PRONOUNCE	NO_LABEL
1987年、みんなが出獄した後に、すぐさま台湾各地で太陽会、済公会、孔雀会、不倒会、敏徳会、鴨覇会の下部団体を設立する、その時蕭沢宏は済公会の会長を担当する。	NO_PRONOUNCE	NO_LABEL
今済公会は台北県三重市一帯の勢力最大の暴力団だ。	こんさいこーかいわたいぺいけんみえしいったいのせいりょくさいだいのぼーりょくだんだ。	NO_LABEL
2005年、元老は隠居するか逝去して、天道盟それぞれ下部団体の内部闘争と自身の不安定な状況、蕭沢宏は元老としてしかも天道盟の中で全局面を左右する地位を持っていて、そのため三代目総裁の職務を受け取った。	NO_PRONOUNCE	NO_LABEL
