秋田県道111号桂瀬笹館線は、秋田県北秋田市から大館市に至る一般県道である。	あきたけんどーひゃくじゅういちごーかつらせささだてせんわ、あきたけんきたーきたしからおーだてしにいたるいっぱんけんどーである。	NO_LABEL
市境界部分に通行不能区間がある。	しきょーかいぶぶんにつーこーふのーくかんがある。	NO_LABEL
北秋田市浦田の国道105号から東へ分岐し阿仁川を渡る。	きたーきたしうらたのこくどーひゃくごごーからひがしえぶんきしあにがわをわたる。	NO_LABEL
秋田内陸縦貫鉄道 秋田内陸線と交差して桂瀬駅を通り、北秋田市立森吉中学校から山間部を東へ進み、小猿部川沿いに北秋田市明利又まで進む。	あきたないりくじゅーかんてつどーあきたないりくせんとこーさしてかつらせえきをとーり、きたーきたしりつもりよしちゅうがっこーからさんかんぶをひがしえすすみ、おさるべかわぞいにきたーきたしあきとしまたまですすむ。	NO_LABEL
ここから未舗装道路となり、さらに上流へ進むといったん路線が途切れる。	ここからみほそーどーろとなり、さらにじょーりゅーえすすむといったんろせんがとぎれる。	NO_LABEL
大館市比内町谷地中付近から未舗装区間の路線が始まり、北上し、弥助集落から改良済みの舗装区間が始まる。	おーだてしひないまちやちなかふきんからみほそーくかんのろせんがはじまり、ほくじょーし、やすけしゅーらくからかいりょーずみのほそーくかんがはじまる。	NO_LABEL
大巻集落まで北上すると終点まで田園風景が広がり、大館市比内町笹舘の水無交差点で国道285号へ接続する。	おーまきしゅーらくまでほくじょーするとしゅーてんまででんえんふーけいがひろがり、おーだてしひないまちささだてのみずなしこーさてんでこくどーにひゃくはちじゅうごごーえせつぞくする。	NO_LABEL
北秋田市明利又から分岐する仙戸石林道を進むと竜ヶ森山頂への登山口や竜ヶ森キャンプ場がある。	きたーきたしあきとしまたからぶんきするせんといしりんどーをすすむとりゅーがもりさんちょーえのとざんぐちやりゅーがもりきゃんぷじょーがある。	NO_LABEL
