『ネオ・ドーベルマン』は、清水玲子による日本の漫画作品。	NO_PRONOUNCE	NO_LABEL
1986年に、白泉社の『Wendy』SPRING号に読み切り掲載された。	NO_PRONOUNCE	NO_LABEL
人間と犬のキメラ「ショナ」は、人間にも変化するドーベルマン男。	NO_PRONOUNCE	NO_LABEL
幼い頃に研究所から逃げ出し、百合花に拾われた。	おさないころにけんきゅーじょからにげだし、ゆりかにひろわれた。	NO_LABEL
人間姿で甘い台詞を口にして、そのままメスドーベルマンの元に通うショナに、百合花の心中は穏やかではない。	にんげんすがたであまいだいしをくちにして、そのままめすどーべるまんのもとにかようしょなに、ゆりかのしんじゅーわおだやかでわない。	NO_LABEL
そんなある日、百合花はショナ確保を企む研究者に囮として捕まえられてしまった。	そんなあるひ、ゆりかわしょなかくほをたくらむけんきゅうしゃにおとりとしてつかまえられてしまった。	NO_LABEL
『天女来襲』	NO_PRONOUNCE	NO_LABEL
『天使たちの進化論』	NO_PRONOUNCE	NO_LABEL
