ファビエン・セヴィツキーは、アメリカ合衆国の指揮者。	NO_PRONOUNCE	NO_LABEL
インディアナポリス交響楽団の初代音楽監督。	いんでぃあなぽりすこーきょーがくだんのしょだいおんがくかんとく。	NO_LABEL
ボストン交響楽団で音楽監督を務めたセルゲイ・クーセヴィツキーの甥である。	NO_PRONOUNCE	NO_LABEL
本来の姓はおじと同じクーセヴィツキーであるが、混同を嫌ったおじによってセヴィツキーを名乗らされた。	NO_PRONOUNCE	NO_LABEL
