3代目三升亭 小勝4月 - 1921年10月21日）は、江戸出身の落語家。	NO_PRONOUNCE	NO_LABEL
本名は青山 吉松。	ほんみょーわあおやまきちまつ。	NO_LABEL
2代目瀧川鯉かんの門下で鯉かく、2代目三升亭小勝の門下で小常となり1874年、5年頃に2代目小勝を襲名。	にだいめたきかわりかんのもんかでこいかく、にだいめみますていこかつのもんかでしょーつねとなりせんはっぴゃくななじゅうよねん、ごねんごろににだいめおがちをしゅーめい。	NO_LABEL
1887年末頃に一旦引退し新橋で芸者屋を営んでいてそこへ娘が新吉の名で出勤しその新吉がある客との間に出来たのが有島武郎と心中した波多野秋子だという。	せんはっぴゃくはちじゅうしちねんまつごろにいったんいんたいししんばしでげいしゃやをいとなんでいてそこえむすめがしんよしのなでしゅっきんしそのしんきちがあるきゃくとのまにできたのがありしまたけおとしんじゅーしたはたのあきこだという。	NO_LABEL
20年以上ブランクの末、大正の初め頃に70歳を超えて3代目柳家小さんの門で柳家三楽となり再勤したがいくばくも活躍はしなかった。	にじゅうねんいじょーぶらんくのすえ、たいしょーのはじめごろにななじゅっさいをこえてさんだいめやなぎやこさんのもんでやなぎやさんらくとなりさいつとむしたがいくばくもかつやくわしなかった。	NO_LABEL
「セルロイドの象」というあだ名があったが由来はわかっていない。	NO_PRONOUNCE	NO_LABEL
