『ルパン三世 愛のダ・カーポ〜FUJIKO'S Unlucky Days〜』は、モンキー・パンチ原作のアニメ『ルパン三世』のTVスペシャルシリーズ第11作。	NO_PRONOUNCE	NO_LABEL
1999年7月30日に日本テレビ系の『金曜特別ロードショー』で放送された。	NO_PRONOUNCE	NO_LABEL
視聴率は20.0%。	NO_PRONOUNCE	NO_LABEL
不二子の記憶と共に消えたコロンブスファイルをめぐって、ルパン一味が活躍する。	ふふたごのきおくとともにきえたころんぶすふぁいるをめぐって、るぱんいちみがかつやくする。	NO_LABEL
この作品で監督を担当したワタナベシンイチは、よく自分を作品のどこかに出演させるというエピソードがあるが、本作も例外ではなくルパンのライバルとして登場する「ナザロフ」は監督をモデルにしたキャラクターである。	NO_PRONOUNCE	NO_LABEL
なお、本作ではテロップや後日発売のサウンドトラックにおいてテーマソングに『THEME FROM LUPIN '97』が使用されたと表示されているが、実際には『ルパン三世 ハリマオの財宝を追え!!』以来4年ぶりに'89バージョンが使用された。	NO_PRONOUNCE	NO_LABEL
テレビスペシャルのオープニングにルパンと不二子という2人だけの登場は稀である。	てれびすぺしゃるのおーぷにんぐにるぱんとふじことゆうふたりだけのとーじょーわまれである。	NO_LABEL
『ルパン三世 バビロンの黄金伝説』以来ルパンが不二子に変装する珍しいシーンがある。	NO_PRONOUNCE	NO_LABEL
不二子の依頼でスイス銀行を建物ごと盗み出したルパン。	ふふたごのいらいですいすぎんこーをたてものごとぬすみだしたるぱん。	NO_LABEL
建物内には旧ソビエト連邦の隠し財産などの大量の美術品が眠っていたが、不二子の本当の狙いは一つ。	たてものないにわきゅーそびえとれんぽーのかくしざいさんなどのたいりょーのびじゅつひんがねむっていたが、ふじこのほんとーのねらいわひとつ。	NO_LABEL
1492年、クリストファー・コロンブスがアメリカ大陸を発見した際、偶然入手した品物―無限の力を秘めると言う財宝のありかが記された「コロンブス・ファイル」と言う書類だった。	NO_PRONOUNCE	NO_LABEL
持ち逃げしようとする不二子を難なく制し、そのことを知ったルパンは不二子と手を組む条件で良いムードになるはずだったが、突然打ち込まれてきたミサイルの妨害で手に手をとり逃げ出す羽目になってしまう。	もちにげしようとするふふたごをなんなくせいし、そのことをしったるぱんわふふたごとてをくむじょーけんでよいむーどになるはずだったが、とつぜんうちこまれてきたみさいるのぼーがいでてにてをとりにげだすはめになってしまう。	NO_LABEL
軍用ヘリを操る、異様にハイテンションな襲撃者に崖っぷちまで追い詰められた不二子は、降伏したふりをしてペンダント型爆弾でファイルを焼き払ってしまう。	ぐんよーへりをあやつる、いよーにはいてんしょんなしゅーげきしゃにがけっぷちまでおいつめられたふじこわ、こーふくしたふりをしてぺんだんとがたばくだんでふぁいるをやきはらってしまう。	NO_LABEL
「暗記したから」と言う不二子だったが、その直後にハイテンションな男の攻撃により崖から落ちてしまった。	NO_PRONOUNCE	NO_LABEL
数日後、トレジャーハンターを生業とする美女、ロザリアに保護された不二子。	すーにちご、とれじゃーはんたーをなりわいとするびじょ、ろざりあにほごされたふじこ。	NO_LABEL
ところが、彼女はすべての記憶を失っていた。	ところが、かのじょわすべてのきおくをうしなっていた。	NO_LABEL
困惑する不二子の所へ、再びハイテンション男が現れる。	こんわくするふふたごのところえ、ふたたびはいてんしょんおとこがあらわれる。	NO_LABEL
男の名はナザロフ、ある人物の元で働くエージェントだ。	おとこのなわなざろふ、あるじんぶつのもとではたらくえーじぇんとだ。	NO_LABEL
抵抗するロザリアを難なく制し、不二子を連れ去ろうとするナザロフだが、今度はルパンが乱入してきて失敗。	ていこーするろざりあをなんなくせいし、ふふたごをつれさろうとするなざろふだが、こんどわるぱんがらんにゅーしてきてしっぱい。	NO_LABEL
そこからルパン/ナザロフ/ロザリアによる三つ巴の不二子争奪戦に発展してしまった。	NO_PRONOUNCE	NO_LABEL
そのころ、ナザロフのスポンサーである某国化学長官・バートンも動き出していた。	NO_PRONOUNCE	NO_LABEL
バートンの「オペレーション」により、突如竜巻が発生、その場にいた全員が巻き込まれてしまい…。	NO_PRONOUNCE	NO_LABEL
辛うじて助かったルパン一行は、ロザリアがひいきにしている古美術商の家で不二子と再会、再び襲い掛かってきたナザロフ一味を撃退するうちロザリアと共同戦線を張ることになった。	かろーじてたすかったるぱんいっこーわ、ろざりあがひいきにしているこびじゅつしょーのいえでふふたごとさいかい、ふたたびおそいかかってきたなざろふいちみをげきたいするうちろざりあときょーどーせんせんをはることになった。	NO_LABEL
少しずつ戻り始めた不二子の記憶を頼りに、ミノア文明の遺跡を訪れたルパン一行、そこで彼らは、ついに「コロンブスの卵」の正体を知る事になる。	NO_PRONOUNCE	NO_LABEL
