口部は、漢字を部首により分類したグループの一つ。	こうぶわ、かんじをぶしゅによりぶんるいしたぐるーぷのひとつ。	NO_LABEL
康熙字典214部首では30番目に置かれる。	NO_PRONOUNCE	NO_LABEL
口字は口の形に象る。	くちじわくちのかたちにかたどる。	NO_LABEL
偏旁では口の部分・口の動き・口を使った行為・感嘆の言葉などであることを示す。	NO_PRONOUNCE	NO_LABEL
口部は口を構成要素とする漢字を収めるとともに、「口」の形を筆画としてもつ漢字を分類している。	NO_PRONOUNCE	NO_LABEL
「味」「唱」など左右構造を取って偏となるものが主であるが、「和」など右部に位置、「呈」など上部に位置、「唇」など下部に位置、その他「向」「可」など中央に位置するものなど幅広い構成を取る。	NO_PRONOUNCE	NO_LABEL
身体を表す部首では「手部」と並び、非常に多くの字を集める。	NO_PRONOUNCE	NO_LABEL
日本では、ヤード・ポンド法の単位に当てる国字として、「口偏＋尺貫法での単位」というような漢字が作られた。	NO_PRONOUNCE	NO_LABEL
中国語では、外来語や擬声語の当て字に口偏のつく字がよく使われる。	ちゅーごくごでわ、がいらいごやぎせいごのあてじにくちへんのつくじがよくつかわれる。	NO_LABEL
口	くち	NO_LABEL
