諏訪地域は、長野県南信地方の諏訪市、岡谷市を中心とした地域のことを指す名称で、県を10地域に分けるときに用いられる。	NO_PRONOUNCE	NO_LABEL
旧諏訪郡全体と一致している。	きゅーすわぐんぜんたいといっちしている。	NO_LABEL
域内人口は211,318人。	NO_PRONOUNCE	NO_LABEL
諏訪市と岡谷市を中心とする複眼構造を為すが、諏訪広域連合の本部もある諏訪市のほうがやや主力となりつつある。	すわしとおかやしをちゅーしんとするふくがんこーぞーをなすが、すわこーいきれんごーのほんぶもあるすわしのほーがややしゅりょくとなりつつある。	NO_LABEL
また最も人口が多い都市は茅野市である。	またもっともじんこーがおーいとしわちのしである。	NO_LABEL
該当する自治体は、西から岡谷市、下諏訪町、諏訪市、茅野市、原村、富士見町である。	がいとーするじちたいわ、にしからおかやし、しもすわまち、すわし、ちのし、はらむら、ふじみちょーである。	NO_LABEL
西側の「湖周」3市町と東側の「八ヶ岳山麓」3市町村にゆるやかな連携が見られる。	NO_PRONOUNCE	NO_LABEL
以下は長野県の定義である。	いかわながのけんのていぎである。	NO_LABEL
東京・名古屋の二大都市圏から約200kmに位置し、中央自動車道およびJR中央本線が域内の広域交通を大きく担っている。	NO_PRONOUNCE	NO_LABEL
地域の北西に諏訪湖があり、東側に八ヶ岳連峰がそびえる。	ちいきのほくせいにすわこがあり、ひがしがわにやつがたけれんぽーがそびえる。	NO_LABEL
周囲を北東にかけては八ヶ岳に連なる山々、南西にかけては南アルプスに連なる山脈に囲まれ、それらの山々と諏訪湖の影響を受け、内陸的気候の特色を示す県内にありながら、例えば、春夏秋季の降水量は県内比で多め、冬季の降水量は圧倒的に少ないというように、内陸気候の中でも特徴的な気象環境下にある。	しゅーいをほくとーにかけてわやつがたけにつらなるやまやま、なんせいにかけてわみなみあるぷすにつらなるさんみゃくにかこまれ、それらのやまやまとすわこのえいきょーをうけ、ないりくてききこーのとくしょくをしめすけんないにありながら、たとえば、はなしゅーきのこーすいりょーわけんないひでおーめ、とーきのこーすいりょーわあっとーてきにすくないとゆうよーに、ないりくきこーのなかでもとくちょーてきなきしょーかんきょーかにある。	NO_LABEL
気候は、湖周部と八ヶ岳山麓部で異なっている。	きこーわ、みずうみしゅーぶとやつがだけさんろくぶでことなっている。	NO_LABEL
これは、諏訪湖周辺と八ヶ岳山麓の標高差が大きいことに起因するものである。	これわ、すわこしゅーへんとやつがだけさんろくのひょーこーさがおーきいことにきいんするものである。	NO_LABEL
避暑地と呼ばれる傾向にあるが、平地に限れば夏場の日中の最高気温は30度前後に達し、それほど涼しくはない。	ひしょちとよばれるけいこーにあるが、ひらちにかぎればなつばのにっちゅーのさいこーきおんわさんじゅうどぜんごにたっし、それほどすずしくわない。	NO_LABEL
ただし、夜から朝にかけては気温は下がり、すごしやすい気温になる。	ただし、よるからあさにかけてわきおんわさがり、すごしやすいきおんになる。	NO_LABEL
熱帯夜になることはめったにない。	ねったいやになることわめったにない。	NO_LABEL
ただし、諏訪地域の気候は標高差の関係から湖周部と八ヶ岳山麓部で異なっている。	ただし、すわちーきのきこーわひょーこーさのかんけいからみずうみしゅーぶとやつがだけさんろくぶでことなっている。	NO_LABEL
諏訪湖周辺では、フェーン現象の影響を受け、標高が760m近くありながら、夏場には高温になることがある。	すわこしゅーへんでわ、ふぇーんげんしょーのえいきょーをうけ、ひょーこーがななひゃくろくじゅうめーとるちかくありながら、なつばにわこーおんになることがある。	NO_LABEL
また、冬は比較的乾燥しており、雪が少ないのが特徴である。	また、ふゆわひかくてきかんそーしており、ゆきがすくないのがとくちょーである。	NO_LABEL
また、諏訪湖の影響により、周囲よりも冬季の冷え込みは幾分やわらぐが、全面氷結すると、冷え込みが強まるという特徴がある。	また、すわこのえいきょーにより、しゅーいよりもとーきのひえこみわいくぶんやわらぐが、ぜんめんひょーけつすると、ひえこみがつよまるとゆうとくちょーがある。	NO_LABEL
八ヶ岳山麓にある茅野市の大部分、原村、富士見町は、標高が800m以上となるため、北海道並みに夏は涼しく、冬は寒さが厳しい。	やつがだけさんろくにあるちのしのだいぶぶん、はらむら、ふじみちょーわ、ひょーこーがはっぴゃくめーとるいじょーとなるため、ほっかいどーなみになつわすずしく、ふゆわさむさがきびしい。	NO_LABEL
ケッペンの気候区分では亜寒帯湿潤気候に分類される。	けっぺんのきこーくぶんでわあかんたいしつじゅんきこーにぶんるいされる。	NO_LABEL
縄文、弥生時代から、霧ヶ峰を中心に人類の生活の痕跡がある。	じょーもん、やよいじだいから、きりがみねをちゅーしんにじんるいのせいかつのこんせきがある。	NO_LABEL
下諏訪の和田峠を始めとする黒曜石による石器、また、縄文・弥生時代のものと見られる土器の破片も採掘される。	NO_PRONOUNCE	NO_LABEL
戦国大名諏訪氏によって治められる。	せんごくだいみょーすわしによっておさめられる。	NO_LABEL
代表的人物に諏訪頼重がいるが、彼は武田信玄に攻め込まれ、茅野市上原城、諏訪市四賀の桑原城に立てこもるが、甲斐にて自害している。	だいひょーてきじんぶつにすわよりしげがいるが、かれわたけだしんげんにせめこまれ、ちのしうえはらじょー、すわししがのくわばらじょーにたてこもるが、かいにてじがいしている。	NO_LABEL
その従兄弟である諏訪頼忠によって諏訪氏が再興され、息子の諏訪頼水が1600年の関ヶ原の戦いにおける功よって高島藩に封じられている。	そのいとこであるすわよりただによってすわしがさいこーされ、むすこのすわよりみずがせんろっぴゃくねんのせきがはらのたたかいにおけるこーよってたかしまはんにふーじられている。	NO_LABEL
江戸時代にこの地域を支配していたのは高島藩で、藩庁は高島城。	えどじだいにこのちいきをしはいしていたのわたかしまはんで、はんちょーわたかしまじょー。	NO_LABEL
以降10代にわたって、諏訪氏により治められた。	いこーじゅうだいにわたって、すわしによりおさめられた。	NO_LABEL
甲州街道の終点で中山道と交わる下諏訪の手前の宿場町として栄える。	こーしゅーかいどーのしゅーてんでなかせんどーとまじわるしもすわのてまえのしゅくばまちとしてさかえる。	NO_LABEL
諏訪地域はひとつの観光地として認識されることが多いので、ここで諏訪地域の観光について紹介する。	すわちーきわひとつのかんこーちとしてにんしきされることがおーいので、ここですわちーきのかんこーについてしょーかいする。	NO_LABEL
諏訪湖は点在する多数の観光スポットを結びつける役割を持っている。	すわこわてんざいするたすーのかんこーすぽっとをむすびつけるやくわりをもっている。	NO_LABEL
諏訪地域には毎年2000万人近い人が訪れている。	すわちーきにわまいとしにせんまんにんちかいひとがおとずれている。	NO_LABEL
全国的に名を知られている諏訪大社がある。	ぜんこくてきになをしられているすわたいしゃがある。	NO_LABEL
諏訪大社は以前は「諏訪さま」などと呼ばれていた。	NO_PRONOUNCE	NO_LABEL
諏訪さまへの信仰は鎌倉時代にはすでに存在したとされており、初詣客の数は長野県でトップを誇る。	すわさまえのしんこーわかまくらじだいにわすでにそんざいしたとされており、はつもーできゃくのかずわながのけんでとっぷをほこる。	NO_LABEL
信濃国の一宮となっている。	しなののくにのいちのみやとなっている。	NO_LABEL
温泉寺は上諏訪温泉のそばの山間にあり、諏訪地域を治めていた高島藩主の菩提寺となっていた。	おんせんじわかみすわおんせんのそばのさんかんにあり、すわちーきをおさめていたたかしまはんしゅのぼだいじとなっていた。	NO_LABEL
高島城は日本三大湖城のひとつで毎年冬には恒例のすす払いが行われる。	たかしまじょーわにっぽんみおーこしろのひとつでまいとしふゆにわこーれいのすすはらいがおこなわれる。	NO_LABEL
NHKの大河ドラマ「武田信玄」の舞台に使われ放送されていたころは20万人近くが訪れていたが現在は4万人程度となってしまっている。	NO_PRONOUNCE	NO_LABEL
諏訪市公式ページにライブカメラが設置されている。	すわしこーしきぺーじにらいぶかめらがせっちされている。	NO_LABEL
信州は美術館や博物館が多いが、諏訪地域には1983年5月に北澤美術館が開館した以降、質の高い美術館が多い。	しんしゅーわびじゅつかんやはくぶつかんがおーいが、すわちーきにわせんきゅうひゃくはちじゅうさんねんごがつにきたざわびじゅつかんがかいかんしたいこー、しつのたかいびじゅつかんがおーい。	NO_LABEL
諏訪市原田泰治美術館は地元出身の画家原田泰治の個人美術館。	すわしはらだたいじびじゅつかんわじもとしゅっしんのがかはらだたいじのこじんびじゅつかん。	NO_LABEL
名誉館長は友人の歌手、さだまさし。	めいよかんちょーわゆーじんのかしゅ、さだまさし。	NO_LABEL
サンリツ美術館は国宝 楽焼白片身変茶碗を所蔵している。	さんりつびじゅつかんわこくほーらくやきしろかたみがわりちゃわんをしょぞーしている。	NO_LABEL
この美術館は服部時計店3代目社長の服部正次と、その長男でセイコーエプソン社長であった服部一郎のコレクションを展示するため、1995年開館した。	このびじゅつかんわはっとりとけいてんさんだいめしゃちょーのはっとりまさつぐと、そのちょーなんでせいこーえぷそんしゃちょーであったはっとりいちろーのこれくしょんをてんじするため、せんきゅうひゃくきゅうじゅうごねんかいかんした。	NO_LABEL
諏訪には温泉も多い。	すわにわおんせんもおーい。	NO_LABEL
かつて上諏訪駅にはホームに温泉があった。	かつてかみすわえきにわほーむにおんせんがあった。	NO_LABEL
駅に温泉施設があることはほかにも例があるが、ホームにあるのはここだけであった。	えきにおんせんしせつがあることわほかにもれいがあるが、ほーむにあるのわここだけであった。	NO_LABEL
しかし、近年の足湯ブームによりこの温泉は足湯になってしまった。	しかし、きんねんのあしゆぶーむによりこのおんせんわあしゆになってしまった。	NO_LABEL
湯は熱めであるが、足のみを暖める足湯としては一般的な湯加減である。	ゆわねつめであるが、あしのみをあたためるあしゆとしてわいっぱんてきなゆかげんである。	NO_LABEL
利用者には駅を利用したついでに足湯を楽しむ観光客などが多い。	りよーしゃにわえきをりよーしたついでにあしゆをたのしむかんこーきゃくなどがおーい。	NO_LABEL
足を暖めることで、血流を良くし、全身を暖める足湯は、信州の冬の厳しい寒さを凌ぐ目的での入浴にも適している。	あしをあたためることで、けつりゅーをよくし、ぜんしんをあたためるあしゆわ、しんしゅーのふゆのきびしいさむさをしのぐもくてきでのにゅーよくにもてきしている。	NO_LABEL
霧ヶ峰は八ヶ岳中信高原国定公園中部にあり、フォッサマグナ沿いに噴出した楯状火山である。	きりがみねわやつがたけちゅーしんこーげんこくていこーえんちゅーぶにあり、ふぉっさまぐなぞいにふんしゅつしたたてじょーかざんである。	NO_LABEL
最高峰は、車山。	さいこーほーわ、くるまやま。	NO_LABEL
山地帯夏緑樹林と亜高山帯針葉樹林の境界付近に存在する。	さんちたいなつみどりじゅりんとあこうざんたいしんよーじゅりんのきょーかいふきんにそんざいする。	NO_LABEL
八島ヶ原湿原、踊場湿原からは、黒曜石を用いた石器が発見されている。	やしまがはらしつげん、おどりばしつげんからわ、こくよーせきをもちいたせっきがはっけんされている。	NO_LABEL
域内を中央本線が通っている。	いきないをちゅーおーほんせんがかよっている。	NO_LABEL
西側3市町には1駅ずつしかなく、それぞれの駅の利用者数が比較的多いため、茅野駅、上諏訪駅、下諏訪駅、岡谷駅に自動改札機が取り付けられた。	NO_PRONOUNCE	NO_LABEL
普門寺信号場から岡谷駅までは、中央東線の本線区間においては唯一の単線となっている。	ふもんじしんごーじょーからおかやえきまでわ、ちゅーおーとーせんのほんせんくかんにおいてわゆいいつのたんせんとなっている。	NO_LABEL
その影響で、上下線で最大の輸送量を発揮するダイヤ編成を行ったときに10分おきに電車を発着させるのが精一杯の状況である。	そのえいきょーで、じょーげせんでさいだいのゆそーりょーをはっきするだいやへんせいをおこなったときにじゅっぷんおきにでんしゃをはっちゃくさせるのがせいいっぱいのじょーきょーである。	NO_LABEL
なお、中央東線高速化実現期成同盟会によって複線化についての質問がJR東日本になされているが、JR東日本は現状の輸送力で十分としている。	なお、ちゅーおーとーせんこーそくかじつげんきせいどーめいかいによってふくせんかについてのしつもんがじぇいあーるひがしにほんになされているが、じぇいあーるひがしにほんわげんじょーのゆそーりょくでじゅーぶんとしている。	NO_LABEL
中央自動車道、長野自動車道が通っているほか、国道20号が中核的な道路になっている。	ちゅーおーじどーしゃどー、ながのじどーしゃどーがかよっているほか、こくどーにじゅうごーがちゅーかくてきなどーろになっている。	NO_LABEL
中央自動車道と長野自動車道は岡谷JCTで接続しており、域内には中央自動車道の諏訪南ICと諏訪IC、長野自動車道の岡谷ICが存在する。	ちゅーおーじどーしゃどーとながのじどーしゃどーわおかやじゃんくしょんでせつぞくしており、いきないにわちゅーおーじどーしゃどーのすわみなみあいしーとすわあいしー、ながのじどーしゃどーのおかやあいしーがそんざいする。	NO_LABEL
国道20号は諏訪市内を中心に慢性的な渋滞に悩まされており、数十年前から、茅野市中河原北交差点より中央自動車道諏訪IC付近を経て長野自動車道岡谷ICまでを結ぶ諏訪バイパスが計画されている。	こくどーにじゅうごーわすわしないをちゅーしんにまんせいてきなじゅーたいになやまされており、すーじゅーねんまえから、ちのしなかがわらきたこーさてんよりちゅーおーじどーしゃどーすわあいしーふきんをへてながのじどーしゃどーおかやあいしーまでをむすぶすわばいぱすがけいかくされている。	NO_LABEL
このうち中河原北〜飯島が暫定供用中、下諏訪岡谷バイパスとして岡谷市内の湖北トンネル南〜岡谷ICが開通しているが、諏訪市、下諏訪町の市街地を主にトンネルで迂回する、最も重要な区間が開通するめどは立っていない。	NO_PRONOUNCE	NO_LABEL
従来、諏訪地域の自動車は松本ナンバーを取り付けていたが、知名度の向上による観光でのメリットを目指して2006年10月10日よりご当地ナンバーを導入。	じゅーらい、すわちーきのじどーしゃわまつもとなんばーをとりつけていたが、ちめいどのこーじょーによるかんこーでのめりっとをめざしてにせんろくねんじゅーがつとおかよりごとーちなんばーをどーにゅー。	NO_LABEL
しかし、登録台数が総務省の求める基準ぎりぎりの水準にとどまっているため、対象地域を拡張するなどの努力目標が課せられている。	しかし、とーろくだいすーがそーむしょーのもとめるきじゅんぎりぎりのすいじゅんにとどまっているため、たいしょーちーきをかくちょーするなどのどりょくもくひょーがかせられている。	NO_LABEL
