グージ・ストリート駅は、に面したロンドン地下鉄の駅。	ぐーじすとりーとえきわ、にめんしたろんどんちかてつのえき。	NO_LABEL
ノーザン線のトテナム・コート・ロード駅とウォーレン・ストリート駅の間にあり、運賃区分はゾーン1である。	NO_PRONOUNCE	NO_LABEL
1907年6月22日、「トテナム・コート・ロード駅」として開業したが、1908年9月3日に、それまでノーザン線とセントラル線の間で乗り換え用の通路がなく、それぞれの線の駅が別々の駅名であった現在のトテナム・コート・ロード駅に通路が開設された際に、現在の駅名に改称した。	NO_PRONOUNCE	NO_LABEL
グージ・ストリート駅の改称も同日に行なわれた。	ぐーじすとりーとえきのかいしょーもどーじつにおこなわれた。	NO_LABEL
グージ・ストリート駅は、乗り場と地上の間での乗客を昇降させる手段を、エスカレーターではなく、エレベーターに依存している数少ない古い形式の駅のひとつである。	ぐーじすとりーとえきわ、のりばとちじょーのまでのじょーきゃくをしょーこーさせるしゅだんを、えすかれーたーでわなく、えれべーたーにいぞんしているかずすくないふるいけいしきのえきのひとつである。	NO_LABEL
また、	また、	NO_LABEL
ラッシュのピーク時間帯には、極めて多数の乗降客がつめかけるが、人の流れは一方通行的である。	らっしゅのぴーくじかんたいにわ、きわめてたすーのじょーこーきゃくがつめかけるが、ひとのながれわいっぽーつうこーてきである。	NO_LABEL
グージ・ストリート駅は、第二次世界大戦当時のが設けられていた8つの地下鉄駅のひとつである。	ぐーじすとりーとえきわ、だいにじせかいたいせんとーじのがもーけられていたやっつのちかてつえきのひとつである。	NO_LABEL
1943年後半から終戦まで、グージ・ストリート駅の防空壕は、連合国遠征軍最高司令部（Supreme Headquarters Allied Expeditionary Force、SHAEF) によって使用された。	NO_PRONOUNCE	NO_LABEL
1944年6月6日に、連合国欧州遠征軍総司令官アイゼンハワー将軍によるノルマンディー上陸作戦の指令の放送が送信されたのは、ここからであった。	せんきゅうひゃくよんじゅうよねんろくがつむいかに、れんごーこくおーしゅーえんせいぐんそーしれいかんあいぜんはわーしょーぐんによるのるまんでぃーじょーりくさくせんのしれいのほーそーがそーしんされたのわ、ここからであった。	NO_LABEL
この防空壕には出入り口がふたつあり、ひとつはチェニーズ・ストリートに面しており、もうひとつはトテナム・コート・ロードに面した The American Church in London の隣にある。	NO_PRONOUNCE	NO_LABEL
進行作戦の準備において、グージ・ストリート駅はアメリカ陸軍の通信部隊が設置した通信施設としてだけ使用された。	しんこーさくせんのじゅんびにおいて、ぐーじすとりーとえきわあめりかりくぐんのつーしんぶたいがせっちしたつーしんしせつとしてだけしよーされた。	NO_LABEL
これはロンドン市内や周辺に設置された多数の通信施設群のひとつに過ぎなかった。	これわろんどんしないやしゅーへんにせっちされたたすーのつーしんしせつぐんのひとつにすぎなかった。	NO_LABEL
ほかにも、SHAEF司令部が置かれていたグロスヴナー・スクエア20番地や、オックスフォード・ストリートのセルフリッジ百貨店の地下などに同様の施設があった。	NO_PRONOUNCE	NO_LABEL
この2施設はいずれも建物が現存している。	NO_PRONOUNCE	NO_LABEL
さらに、アイゼンハワー将軍は、グージ・ストリート駅の施設から放送を行ったわけではなく、ラジオ放送を行ったわけでもない。	さらに、あいぜんはわーしょーぐんわ、ぐーじすとりーとえきのしせつからほーそーをおこなったわけでわなく、らじおほうそーをおこなったわけでもない。	NO_LABEL
アイゼンハワー将軍は、まず暗号電報をルーズベルト大統領に送り、次いでチャーチル首相に電話をかけた。	あいぜんはわーしょーぐんわ、まずあんごーでんぽーをるーずべるとだいとーりょーにおくり、ついでちゃーちるしゅしょーにでんわをかけた。	NO_LABEL
将軍による侵攻作戦実行の決断は、ポーツマス近郊の（Southwick House) に置かれた侵攻作戦本部で下された。	NO_PRONOUNCE	NO_LABEL
戦後、この防空壕は、宿泊施設として使用され、最大で8000人の兵員が収容された。	せんご、このぼーくーごーわ、しゅくはくしせつとしてしよーされ、さいだいではっせんにんのへいいんがしゅーよーされた。	NO_LABEL
1960年代のテレビドラマ『ドクター・フー』シリーズのエピソード「」には、この防空壕が舞台として登場する。	NO_PRONOUNCE	NO_LABEL
台詞の中では、第二次世界大戦中の防空壕の使われ方や、チェニーズ・ストリートの出入口が話題にされた。	NO_PRONOUNCE	NO_LABEL
グージ・ストリート駅は、シンガーソングライター、ドノヴァンの1965年のアルバム『""』に収められた、「Sunny Goodge Street」という曲の舞台になっている。	NO_PRONOUNCE	NO_LABEL
