メイコン郡であり、同郡で人口最大の都市でもある。	めいこんぐんであり、どーぐんでじんこーさいだいのとしでもある。	NO_LABEL
郡名はノースカロライナ州選出アメリカ合衆国上院議員を務めたナサニエル・メイコンに因んで名付けられた。	NO_PRONOUNCE	NO_LABEL
19世紀に綿花プランテーションが大々的に開発され、アメリカ合衆国南部のブラックベルトに入る郡の1つである。	じゅうきゅうせいきにめんかぷらんてーしょんがだいだいてきにかいはつされ、あめりかがっしゅーこくなんぶのぶらっくべるとにはいるぐんのひとつである。	NO_LABEL
郡内の大半が田園部であり、貧困率も高い。	ぐんないのたいはんがでんえんぶであり、ひんこんりつもたかい。	NO_LABEL
南北戦争の前にプランテーションで働いていた奴隷の子孫であるアフリカ系アメリカ人が人口の大半を占めている。	なんぼくせんそーのまえにぷらんてーしょんではたらいていたどれいのしそんであるあふりかけいあめりかじんがじんこーのたいはんをしめている。	NO_LABEL
1974年の映画"Macon County Line"の舞台になった。	NO_PRONOUNCE	NO_LABEL
メイコン郡となった地域には4,000年前から様々な先住民文化があった。	NO_PRONOUNCE	NO_LABEL
ヨーロッパ人探検家が入ってきた時のインディアンはミシシッピ文化の子孫であるクリーク族インディアンだった。	よーろっぱじんたんけんかがはいってきたときのいんでぃあんわみししっぴぶんかのしそんであるくりーくぞくいんでぃあんだった。	NO_LABEL
メイコン郡は、アメリカ合衆国議会がインディアン移住法を成立させた1830年の後、1832年12月18日にクリーク族から譲渡された土地に設立された。	めいこんぐんわ、あめりかがしゅうこくぎかいがいんでぃあんいじゅーほーをせいりつさせたせんはっぴゃくさんじゅうねんののち、せんはっぴゃくさんじゅうにねんじゅーにがつじゅうはちにちにくりーくぞくからじょーとされたとちにせつりつされた。	NO_LABEL
クリーク族はミシシッピ川の西にあるインディアン準州に移住させられた。	くりーくぞくわみししっぴがわのにしにあるいんでぃあんじゅんしゅーにいじゅーさせられた。	NO_LABEL
メイコン郡の開拓者は南部の東部地域から奴隷を連れてくるか、ニューオーリンズなど奴隷市場で奴隷を購入し、大規模な綿花プランテーションを開発した。	めいこんぐんのかいたくしゃわなんぶのとーぶちーきからどれいをつれてくるか、にゅーおーりんずなどどれいいちばでどれいをこーにゅーし、だいきぼなめんかぷらんてーしょんをかいはつした。	NO_LABEL
20世紀の前半、数多い黒人が郡内を出て、北部や中西部の工業都市に移住し、就職機会を求め、また法的な人種差別から逃れた。	にじっせいきのぜんはん、かずおーいこくじんがぐんないをでて、ほくぶやちゅーせいぶのこーぎょーとしにいじゅーし、しゅーしょくきかいをもとめ、またほーてきなじんしゅさべつからのがれた。	NO_LABEL
郡内に留まった者達は大半が田園部の地域で苦闘することになった。	ぐんないにとまったものたちわたいはんがでんえんぶのちいきでくとーすることになった。	NO_LABEL
アメリカ合衆国国勢調査局に拠れば、郡域全面積は613.24平方マイルであり、このうち陸地610.52平方マイル、水域は2.72平方マイルで水域率は0.44%である。	NO_PRONOUNCE	NO_LABEL
以下は2000年の国勢調査による人口統計データである。	いかわにせんねんのこくせいちょうさによるじんこーとーけいでーたである。	NO_LABEL
郡内には歴史ある黒人大学のタスキーギ大学、タスキーギ国立の森、タスキーギ湖、タスキーギ人権公民権博物館、タスキーギ・エアメンの訓練場であるモートン飛行場がある。	NO_PRONOUNCE	NO_LABEL
