「歌うたいのバラッド」は、1997年11月21日に発売された斉藤和義15枚目のシングル。	NO_PRONOUNCE	NO_LABEL
発売元はファンハウス。	はつばいもとわふぁんはうす。	NO_LABEL
表題曲「歌うたいのバラッド」は、多くの歌手にカバーされている楽曲。	NO_PRONOUNCE	NO_LABEL
また、2008年にも「歌うたいのバラッド2008」として新たに歌い直されている。	NO_PRONOUNCE	NO_LABEL
その際PVも新しいものとなった。	そのさいぴーぶいもあたらしいものとなった。	NO_LABEL
2009年9月25日にテレビ朝日系で放送された『ミュージックステーション3時間スペシャル あなたとアーティストが選んだ新国民的名曲BEST100』で第77位にランクインした。	NO_PRONOUNCE	NO_LABEL
また、ミュージシャンのゆずが同調査で本楽曲を挙げ、「歌手として言いたいことをズバリ言われちゃっている曲」と言う旨のコメントをしたVTRが番組内で紹介された。	NO_PRONOUNCE	NO_LABEL
Bank Bandが同曲を『ミュージックステーション』出演時にカバーした際、普段はほとんど楽曲にコメントをしないタモリが自ら「歌詞……いい歌ですよね」とコメントしている。	NO_PRONOUNCE	NO_LABEL
「最後のほうの歌詞なんか、うん、と思わせるような……」「あの言葉はよく出てくるんだけれど、最後に出てくるとまったく違うような意味になる」とも続けてコメントしている。	NO_PRONOUNCE	NO_LABEL
2017年には映画『夜明け告げるルーのうた』の主題歌として、この曲が起用された。	NO_PRONOUNCE	NO_LABEL
全作詞・作曲・編曲：斉藤和義	NO_PRONOUNCE	NO_LABEL
歌うたいのバラッド	うたうたいのばらっど	NO_LABEL
おやすみ	おやすみ	NO_LABEL
