ププタンとは、古来あるバリの風習で、王朝が戦闘で敗北すると自決を選び、多くの王族、貴族が殉死をすること。	ぷぷたんとわ、こらいあるばりのふーしゅーで、おーちょーがせんとーではいぼくするとじけつをえらび、おーくのおーぞく、きぞくがじゅんしをすること。	NO_LABEL
バリ語で「終焉」を意味する。	NO_PRONOUNCE	NO_LABEL
特に、 バリ戦争、ロンボク戦争、バリ侵攻、バリ侵攻など19世紀末から20世紀初頭にかけてのオランダ海上帝国東インド軍によるバリ島侵攻時に、王国のいくつかが、王を先頭に美しく着飾り、親族や家臣らが行列を作って自決覚悟でオランダ軍に向かって「死の行進」をして銃弾に倒れていった集団自決行動を指す。	NO_PRONOUNCE	NO_LABEL
さらには、インドネシア独立戦争の過程で、グスティ・ングラライ将軍率いる部隊がオランダ軍と熾烈に戦い全員玉砕した行為などをいい、反植民地、独立のシンボルとして語られている。	さらにわ、いんどねしあどくりつせんそーのかていで、ぐすてぃんぐららいしょーぐんひきいるぶたいがおらんだぐんとしれつにたたかいぜんいんぎょくさいしたこーいなどをいい、はんしょくみんち、どくりつのしんぼるとしてかたられている。	NO_LABEL
