サミュエル・ドゥシュキンはポーランド出身のアメリカ合衆国のヴァイオリニスト。	NO_PRONOUNCE	NO_LABEL
パリ音楽院に学ぶ。	ぱりおんがくいんにまなぶ。	NO_LABEL
ニューヨークでレオポルト・アウアーに、またフリッツ・クライスラーに師事した。	にゅーよーくでれおぽるとあうあーに、またふりっつくらいすらーにしじした。	NO_LABEL
ドゥシュキンは、イーゴリ・ストラヴィンスキーが自身の最初のヴァイオリン曲である《ヴァイオリン協奏曲 ニ調》を作曲するに際して密接に協力し、その米国初演で演奏した。	NO_PRONOUNCE	NO_LABEL
またストラヴィンスキーは、演奏旅行でドゥシュキンと共演できるように、ヴァイオリンとピアノのための《協奏的二重奏曲》を作曲した。	NO_PRONOUNCE	NO_LABEL
また、《プルチネルラ》をもとに《イタリア組曲》を、《妖精の接吻》をもとに《ディヴェルティメント》を編曲したり、他の自作からヴァイオリン曲を編曲する際にもドゥシュキンが手を貸した。	NO_PRONOUNCE	NO_LABEL
ドゥシュキンは2つのストラディヴァリウスと1つのグァルネリ・デル・ジェズーと、1つのグァダニーニを所蔵していた。	NO_PRONOUNCE	NO_LABEL
ドゥシュキンはまた、《パラディスのシチリアーナ》の発見者としても言及されるが、この舞曲の音楽言語が18世紀ウィーン古典派の時代様式にそぐわないことから、現在ではウェーバーの室内楽曲を改変したものと看做されている。	NO_PRONOUNCE	NO_LABEL
