セトマナ・カタラナ・デ・シクリスモは、1963年から2005年まで開催されていた自転車競技ロードレースにおけるステージレースの名称。	NO_PRONOUNCE	NO_LABEL
カタルーニャ州を舞台に例年3月頃開催されていた。	かたるーにゃしゅーをぶたいにれいねんさんがつごろかいさいされていた。	NO_LABEL
日本ではかつて、自転車競技マガジンなどの自転車競技関連雑誌において、カタロニア週間レースという名称がつけられていた。	にっぽんでわかつて、じてんしゃきょーぎまがじんなどのじてんしゃきょーぎかんれんざっしにおいて、かたろにあしゅーかんれーすとゆうめいしょーがつけられていた。	NO_LABEL
1994年まで4月から5月にかけて開催されていたブエルタ・ア・エスパーニャの前哨戦の意味合いがあった他、本格的に始まる春のロードレースシーズンを占う意味合いもあったことから、各国の著名選手が多数集結する、相対的にレベルの高いレースであったが、2005年に開始されたUCIプロツアーでは、当レースがプロツアー対象レースから外れてしまい、ワンランク下であるUCIヨーロッパツアーに組み込まれたことから、参加チーム数も激減。	せんきゅうひゃくきゅうじゅうよねんまでしがつからごがつにかけてかいさいされていたぶえるたあえすぱーにゃのぜんしょーせんのいみあいがあったほか、ほんかくてきにはじまるはるのろーどれーすしーずんをうらなういみあいもあったことから、かっこくのちょめいせんしゅがたすーしゅーけつする、そーたいてきにれべるのたかいれーすであったが、にせんごねんにかいしされたゆーしーあいぷろつあーでわ、とーれーすがぷろつあーたいしょーれーすからはずれてしまい、わんらんくかであるゆーしーあいよーろっぱつあーにくみこまれたことから、さんかちーむすーもげきげん。	NO_LABEL
翌2006年以降の開催については財政的な問題も重なって困難となったことから休止されてしまった。	よくにせんろくねんいこーのかいさいについてわざいせいてきなもんだいもかさなってこんなんとなったことからきゅーしされてしまった。	NO_LABEL
もっとも、下記に挙げる歴代優勝者の名前は錚々たる顔ぶれが多いばかりか、最後の優勝者の名前にアルベルト・コンタドールの名前も見られるが、このレースで総合優勝した後にトップクラスの選手への道を歩んでいったという、コンタドールにとって出世レースとなった。	NO_PRONOUNCE	NO_LABEL
そのようにして考えると、休止されたのが非常に惜しいレースだといえよう。	そのよーにしてかんがえると、きゅーしされたのがひじょーにおしいれーすだといえよう。	NO_LABEL
