『おとぎ話みたい』は、日本の青春映画。	NO_PRONOUNCE	NO_LABEL
監督・脚本は山戸結希。	NO_PRONOUNCE	NO_LABEL
本編は、田舎の高校に通うしほが自分に理解を示した社会科教師・新見に抱く恋心を描くドラマパートと、バンド「おとぎ話」のライブ映像が交互に登場する構成となっている。	NO_PRONOUNCE	NO_LABEL
2013年4月にMOOSIC LAB 2013で初公開され、グランプリほか三冠を獲得した。	NO_PRONOUNCE	NO_LABEL
2014年12月には再編集された「完全版」がテアトル新宿で公開され、同館での実写・レイトショー公開作品における1週目の動員記録を13年ぶりに更新した。	NO_PRONOUNCE	NO_LABEL
2015年、第24回日本映画プロフェッショナル大賞ベスト10に選出された。	にせんじゅうごねん、だいにじゅうよんかいにほんえいがぷろふぇっしょなるたべすとてんにせんしゅつされた。	NO_LABEL
6月には英語字幕つきの「インターナショナルバージョン」が公開された。	NO_PRONOUNCE	NO_LABEL
2016年6月、『おとぎ話みたい 〜LIVE FOREVER Ver.〜』がDVDとブルーレイで9月16日にリリースされることが発表された。	NO_PRONOUNCE	NO_LABEL
