柿沼　朱里は、日本の企業家、データサイエンティスト、ITコラムニスト、クリエイティブディレクター、DJ、トラックメイカー。	かきぬまじゅりわ、にっぽんのきぎょーか、でーたさいえんてぃすと、あいてぃーこらむにすと、くりえいてぃぶでぃれくたー、でぃーじぇい、とらっくめいかー。	NO_LABEL
有限会社緩急クリエイティブ代表取締役、一般社団法人データサイエンティスト協会一般会員。	ゆーげんがいしゃかんきゅーくりえいてぃぶだいひょーとりしまりやく、いっぱんしゃだんほーじんでーたさいえんてぃすときょーかいいっぱんかいいん。	NO_LABEL
政治経済から庶民風俗まで何でも数値化して解明するビジネススタイルからデータのデビルの異名を持つ。	せいじけいざいからしょみんふーぞくまでなにでもすーちかしてかいめいするびじねすすたいるからでーたのでびるのいみょーをもつ。	NO_LABEL
DJとしては有限会社F.FACTORY JAPANに所属。	NO_PRONOUNCE	NO_LABEL
1960年、埼玉県所沢市にて画家の父と洋裁業の母の間に生まれる。	せんきゅうひゃくろくじゅうねん、さいたまけんところざわしにてがかのちちとよーさいぎょーのははのまにうまれる。	NO_LABEL
兄弟なし。	きょーだいなし。	NO_LABEL
13歳の時に父、死去。	じゅうさんさいのときにちち、しきょ。	NO_LABEL
多くのバイトで生計を支えながら明星学園、文化学院を経て小規模のデザイン会社に就職、グラフィックデザイナーとなる。	おーくのばいとでせいけいをささえながらみょーじょーがくえん、ぶんかがくいんをへてしょーきぼのでざいんかいしゃにしゅーしょく、ぐらふぃっくでざいなーとなる。	NO_LABEL
退社後、長期のフリーランス期間中にアイレム傘下に出向し、『きね子』、『スーパーロードランナー』、『魔鐘』、『不如帰』など十数本のファミリーコンピュータ ディスクシステムソフトの制作リーダーをしている。	NO_PRONOUNCE	NO_LABEL
タカラの『フラワーロック』の企画開発もこの時期とに実施。	NO_PRONOUNCE	NO_LABEL
1992年法人化し、この間に『ビーダマン』、『ベイブレード』を立て続けに企画開発し、ヒット商品を連発している。	NO_PRONOUNCE	NO_LABEL
2006年にユー・エス・ジェイにヘッドハンティングされ、物販開発次長就任。	にせんろくねんにゆーえすじぇいにへっどはんてぃんぐされ、ぶっぱんかいはつじちょーしゅーにん。	NO_LABEL
翌年には退社している。	よくねんにわたいしゃしている。	NO_LABEL
在任中にコンテンツの数値化を考案し、それが現在のビジネスの中心であるビッグデータ分析につながった。	ざいにんちゅーにこんてんつのすーちかをこーあんし、それがげんざいのびじねすのちゅーしんであるびっぐでーたぶんせきにつながった。	NO_LABEL
凸版印刷、ソフトバンクテレコム等企業のほか、地域振興で実績を積んでいる。	とっぱんいんさつ、そふとばんくてれこむとーきぎょーのほか、ちーきしんこーでじっせきをつんでいる。	NO_LABEL
凸版印刷の依頼で『妖怪ウォッチ』の立ち上げに関わり、バンダイ『DX妖怪ウォッチ』を設計した。	NO_PRONOUNCE	NO_LABEL
近年では音楽活動に重点を置いている。	きんねんでわおんがくかつどーにじゅーてんをおいている。	NO_LABEL
アルバム『DJ KIMERA』収録曲である『Cloud Up』は海外で1日あたり72万ダウンロードの大ヒットとなった。	NO_PRONOUNCE	NO_LABEL
家族は母子家庭。	かぞくわぼしかてい。	NO_LABEL
亡父は山田うどんのロゴデザインをしており、また、1943年頃まで朝日映画社に所属し、1940年に木下敏治にアニメーション進出を提案している。	ぼーふわやまだうどんのろごでざいんをしており、また、せんきゅうひゃくよんじゅうさんねごろまであさひえいがしゃにしょぞくし、せんきゅうひゃくよんじゅうねんにきのしたとしはるにあにめーしょんしんしゅつをていあんしている。	NO_LABEL
　未婚か離婚かは不明。	みこんかりこんかわふめい。	NO_LABEL
DJネームは騎米羅あるいはKIMERA名義	NO_PRONOUNCE	NO_LABEL
名前の英字表記は『Shuri Kakinuma』ではなく、好んで『Shuly Kakinuma』を使用している。	NO_PRONOUNCE	NO_LABEL
クラシックギタリストの永島志基、女優の岡本真実とは明星学園で同学年であり、現在も交流がある。	くらしっくぎたりすとのながしましき、じょゆーのおかもとまみとわみょーじょーがくえんでどーがくねんであり、げんざいもこーりゅーがある。	NO_LABEL
　　　　　等 多数	とーたすー	NO_LABEL
