ジェローム・カーシーは、アメリカ合衆国バージニア州クラークスビル出身の元バスケットボール選手。	じぇろーむかーしーわ、あめりかがっしゅーこくばーじにあしゅーくらーくすびるしゅっしんのもとばすけっとぼーるせんしゅ。	NO_LABEL
北米男子プロバスケットボールNBAのポートランド・トレイルブレイザーズ、サンアントニオ・スパーズ、ロサンゼルス・レイカーズなどでプレーした。	ほくべいだんしぷろばすけっとぼーるえぬびーえーのぽーとらんどとれいるぶれいざーず、さんあんとにおすぱーず、ろさんぜるすれいかーずなどでぷれーした。	NO_LABEL
1999年のスパーズ優勝メンバー。	せんきゅうひゃくきゅうじゅうきゅうねんのすぱーずゆーしょーめんばー。	NO_LABEL
ロングウッド大学で4シーズンをプレーした後、1984年のNBAドラフト2巡目46位でポートランド・トレイルブレイザーズに指名され入団し、NBAプレーヤーとなった。	NO_PRONOUNCE	NO_LABEL
10シーズンをプレーした後、ゴールデンステイト・ウォリアーズ、ロサンゼルス・レイカーズを経てサンアントニオ・スパーズに入団し、1999年の優勝に貢献した。	NO_PRONOUNCE	NO_LABEL
NBAでの通算成績は11,825得点、6,339リバウンド、1,439スティール。	NO_PRONOUNCE	NO_LABEL
2015年2月18日、足に生じた血栓が肺血管に到達し、肺塞栓症で死亡した。	にせんじゅうごねんにがつじゅうはちにち、あしにしょーじたけっせんがはいけっかんにとーたつし、はいそくせんしょーでしぼーした。	NO_LABEL
