ベリ・チャラック。	べりちゃらっく。	NO_LABEL
1994年にスペイン・ナバーラ州で結成され、バスク語で歌っている。	NO_PRONOUNCE	NO_LABEL
1994年、17歳のゴルカ・ウルビスとアイトール・ゴイコエチェアによるプロジェクトとして、ナバーラ州で結成された。	NO_PRONOUNCE	NO_LABEL
さらにミケル・ロペスとアイトール・オレハを加え、この4人の体制が2004年まで続いた。	NO_PRONOUNCE	NO_LABEL
当初、ウルビスとゴイコエチェアは別プロジェクトとベリ・チャラックを並行していたが、1997年にはベリ・チャラックに専念するようになった。	とーしょ、うるびすとごいこえちぇあわべつぷろじぇくととべりちゃらっくをへいこーしていたが、せんきゅうひゃくきゅうじゅうななにわべりちゃらっくにせんねんするよーになった。	NO_LABEL
6曲入りのデモテープをリリースした後、バンドは別のデモテープや新人コンテストでいくつかの賞を受賞し、1997年秋に『ベリ・チャラック』をレコーディングすることが認められた。	NO_PRONOUNCE	NO_LABEL
『Lotsarik gabe』、『500 urte ta gero』、『Ardifiziala』のようなシングルのおかげでバスクのロックシーンに飛躍することができた。	NO_PRONOUNCE	NO_LABEL
バンドのメンバーによると、このアルバムは彼らの音楽の先に進むステップであり、後の作品のベースとなったという。	ばんどのめんばーによると、このあるばむわかれらのおんがくのさきにすすむすてっぷであり、ごのさくひんのべーすとなったという。	NO_LABEL
1999年には2ndアルバム『Ikasten』をリリースした。	NO_PRONOUNCE	NO_LABEL
このアルバムではベリ・チャラックのスタイルが発展し、『Ikusi arte』、『Ez』、『Ikasten』などの曲は、ライブで多く披露されている。	NO_PRONOUNCE	NO_LABEL
2000年のゼロ・レコーズの『Tributo a Judas Priest』、2001年のGORから出された『Nafarroa, Hitza Dantzan』など、多数のコンピレーションアルバムに参加している。	NO_PRONOUNCE	NO_LABEL
2年後の2001年、3rdアルバムの『Eskuak/Ukabilak』をリリースした。	NO_PRONOUNCE	NO_LABEL
『Oihu』、『Stereo』、『Biziraun』など何曲かの称賛を受けた曲が収録されており、『Biziraun』はガステア・サリア賞の年間最優秀ソングに選ばれた。	NO_PRONOUNCE	NO_LABEL
このアルバムによってベリ・チャラックはバスク地方外の公衆やメディアの注目も集めた。	このあるばむによってべりちゃらっくわばすくちほーがいのこーしゅーやめでぃあのちゅーもくもあつめた。	NO_LABEL
2003年、バンドは4thアルバムの『Libre』をリリースし、イギリス、デンマーク、ドイツをまわった初のヨーロッパツアーで好意的な批評や知名度を得た。	NO_PRONOUNCE	NO_LABEL
このアルバムはバンド史上もっともハードコアなアルバムである。	このあるばむわばんどしじょーもっともはーどこあなあるばむである。	NO_LABEL
スパニッシュ・ロック・サウンド・マガジン誌で年間最優秀ロックアルバムに選ばれ、エウスカディ・ガステア誌では最優秀スペイン・アルバムに選ばれた。	NO_PRONOUNCE	NO_LABEL
『Denak ez du balio』、『Hil nintzen eguna』、『Izena, izana, ezina』などの興味深い曲を収録しており、『Denak ez du balio』ではアメリカ合衆国のメロコアバンド、ライズ・アゲインストのティム・マクラスをボーカルのゲストに呼んでいる。	NO_PRONOUNCE	NO_LABEL
長いツアー後の2004年には、約10年間ともに活動してきた4人のメンバーのうち、ギターのアイトール・オレハが脱退した。	NO_PRONOUNCE	NO_LABEL
2005年、ゴルカ・ウルビス、アイトール・ゴイコエチェア、ミケル・ロペスはスリーピースバンドとして活動していくことを決め、5thアルバムである『Jaio.Musika.Hil』の制作に取り掛かった。	NO_PRONOUNCE	NO_LABEL
このアルバムではエド・ローズをプロデューサーに起用し、Kerrang!誌、Rockzone誌、Mondosonoro誌などで年間最優秀アルバムに選ばれた。	NO_PRONOUNCE	NO_LABEL
メキシコとニカラグアを訪れるツアーを行い、アメリカ合衆国も訪れた。	めきしことにからぐあをおとずれるつあーをおこない、あめりかがっしゅーこくもおとずれた。	NO_LABEL
2006年のヨーロッパツアーではライズ・アゲインストのサポートを得た。	にせんろくねんのよーろっぱつあーでわらいずあげいんすとのさぽーとをえた。	NO_LABEL
ツアー中には新曲も発表した。	つあーちゅーにわしんきょくもはっぴょーした。	NO_LABEL
2005年から2008年にかけて、ボーカルのウルビスはペイレマンス＋やカタマロなどのプロジェクトでも活動している。	にせんごねんからにせんはちねんにかけて、ぼーかるのうるびすわぺいれまんすたすやかたまろなどのぷろじぇくとでもかつどーしている。	NO_LABEL
2007年3月、ベリ・チャラックは台湾と日本をめぐるツアーを行い、日本では東京の六本木ロック・ファクトリーでライブを行った。	NO_PRONOUNCE	NO_LABEL
その後にはドイツやアイルランドをめぐっている。	そのごにわどいつやあいるらんどをめぐっている。	NO_LABEL
同年にレッド・ホット・チリ・ペッパーズがバスク州ビルバオで行ったライブでは前座を務めた。	どーねんにれっどほっとちりぺっぱーずがばすくしゅーびるばおでおこなったらいぶでわぜんざをつとめた。	NO_LABEL
2008年7月にはフジ・ロック・フェスティバルのために再訪日した。	NO_PRONOUNCE	NO_LABEL
2008年にはドラムのミケル・ロペスが脱退し、ダビド・ゴンサーレスがドラムとして加入した。	NO_PRONOUNCE	NO_LABEL
2008年末、2009年9月にロードランナー・レコードから新アルバムをリリースすることを発表した。	にせんはちねんまつ、にせんきゅうねんくがつにろーどらんなーれこーどからしんあるばむをりりーすすることをはっぴょーした。	NO_LABEL
レコーディングはアメリカ合衆国・シカゴのエレクトリカル・オーディオ・スタジオでスティーヴ・アルビニによって行われ、この6thアルバムには4thアルバムにも起用したティム・マクラスがゲストに迎えられた。	NO_PRONOUNCE	NO_LABEL
2009年6月29日には自身のMySpaceのページとロードランナー・レコードのウェブサイト上で、『Dortoken Mendean』という新シングルが視聴可能になった。	NO_PRONOUNCE	NO_LABEL
2010年には再度訪日し、日本のエモコアバンドであるBRAHMANと九州ツアーを行った。	にせんじゅうねんにわさいどほーにちし、にっぽんのえもこあばんどであるぶらふまんときゅーしゅーつあーをおこなった。	NO_LABEL
2010年には初期メンバーでベースのアイトール・ゴイコエチェアが脱退し、ガルデル・イサギレがベースとして加入。	NO_PRONOUNCE	NO_LABEL
このメンバー変更で、ボーカルのゴルカ・ウルビスを除くメンバーは2000年代後半以後に一新された。	NO_PRONOUNCE	NO_LABEL
2011年1月、ベリ・チャラックは『Folklore』という曲で、第10回の最優秀パンクソングにノミネートされた。	NO_PRONOUNCE	NO_LABEL
2011年は、スリップノットやコーンなどを手掛けた著名プロデューサーのロス・ロビンソンとともに、『Haria』というタイトルの7thアルバムの制作に没頭した。	NO_PRONOUNCE	NO_LABEL
『Haria』は2012年2月に発表され、様々な国をまわるツアーを行った。	NO_PRONOUNCE	NO_LABEL
2014年には8thアルバム『Denbora Da Poligrafo Bakarra』を発表した。	NO_PRONOUNCE	NO_LABEL
