ナポレオン・ディファイアンス・アンド・ウェスタン鉄道とはアメリカ合衆国の鉄道事業者および鉄道路線で、インディアナ州からオハイオ州まで結んでいる。	NO_PRONOUNCE	NO_LABEL
開業当初はトレドまで結んでいたが、この部分はに転換された。	かいぎょーとーしょわとれどまでむすんでいたが、このぶぶんわにてんかんされた。	NO_LABEL
現在、オハイオ州のディファイアンス、、ナポレオンに車両基地があり、路線は月曜日から土曜日の間にディファイアンスからナポレオンまで運行していて注文に応じてウッドバーンまで運航することが有る。	NO_PRONOUNCE	NO_LABEL
路線の大部分が上であり、線路の状態は極めて悪く、50年以上メンテナンスされていない状態である。	ろせんのだいぶぶんがうえであり、せんろのじょーたいわきめてわるく、ごじゅうねんいじょーめんてなんすされていないじょーたいである。	NO_LABEL
2012年12月28日、鉄道はに買収され、修繕や延長が行われることを発表された。	にせんじゅうにねんじゅーにがつにじゅうはちにち、てつどーわにばいしゅーされ、しゅーぜんやえんちょーがおこなわれることをはっぴょーされた。	NO_LABEL
パイオニアはこの路線に関して「再生が喫緊の課題だ」と述べた。	NO_PRONOUNCE	NO_LABEL
2013年1月より、腐食している枕木や壊れた線路を置き換える大規模な修繕を始めた。	にせんじゅうさんねんいちがつより、ふしょくしているまくらぎやこわれたせんろをおきかえるだいきぼなしゅーぜんをはじめた。	NO_LABEL
路線には2箇所の乗換駅がある:	NO_PRONOUNCE	NO_LABEL
パイオニアはセシルにあるラファージュノースアメリカが使用する鉄道路線も運営している。	ぱいおにあわせしるにあるらふぁーじゅのーすあめりかがしよーするてつどーろせんもうんえいしている。	NO_LABEL
かつてこの路線は破産したが所有していて、インディアナ州とオハイオ州トレドを結ぶウォーバッシュ鉄道第5地区の一部である主要路線だった。	NO_PRONOUNCE	NO_LABEL
ディファイアンスとウッドバーン間の路線はオハイオ州鉄道開発委員会が買収した。	でぃふぁいあんすとうっどばーんかんのろせんわおはいおしゅーてつどーかいはついーんかいがばいしゅーした。	NO_LABEL
