三宅 康信は、安土桃山時代から江戸時代前期の武将、大名。	みやけやすのぶわ、あずちももやまじだいからえどじだいぜんきのぶしょー、だいみょー。	NO_LABEL
三河挙母藩第2代藩主、のち伊勢亀山藩初代藩主。	みかわころもはんだいにだいはんしゅ、のちいせかめやまはんしょだいはんしゅ。	NO_LABEL
田原藩三宅家2代。	たはらはんみやけかにだい。	NO_LABEL
永禄6年、挙母藩初代藩主・三宅康貞の長男として遠江で生まれる。	NO_PRONOUNCE	NO_LABEL
父と共に徳川家康に仕え、小田原征伐など家康の主要な戦争の多くに参加して武功を挙げた。	ちちとともにとくがわいえやすにつかえ、おだわらせいばつなどいえやすのしゅよーなせんそーのおーくにさんかしてぶこーをあげた。	NO_LABEL
慶長5年の関ヶ原の戦いでは横須賀城番を務め、戦後は伊勢亀山城の城番を務めた。	けいちょーごねんのせきがはらのたたかいでわよこすかじょーばんをつとめ、せんごわいせかめやまじょーのじょうばんをつとめた。	NO_LABEL
慶長19年の大坂冬の陣では駿府城の守備、慶長20年の大坂夏の陣では淀城の守備を務めた。	けいちょーじゅうきゅうねんのおーさかふゆのじんでわすんぷじょーのしゅび、けいちょーにじゅうねんのおーさかなつのじんでわよどじょーのしゅびをつとめた。	NO_LABEL
元和元年に父が死去したため家督を継いだ。	がんわがんねんにちちがしきょしたためかとくをついだ。	NO_LABEL
元和3年12月、従五位下、越後守に叙位・任官した。	NO_PRONOUNCE	NO_LABEL
元和6年に第2代将軍・徳川秀忠の娘・和子が入内するときには、その警護役を務めた功績を賞されて2,000石加増の1万2,000石で伊勢亀山に移封された。	NO_PRONOUNCE	NO_LABEL
寛永9年9月27日に伊勢亀山で死去した。	かんえいきゅうねんくがつにじゅうしちにちにいせかめやまでしきょした。	NO_LABEL
享年70。	NO_PRONOUNCE	NO_LABEL
跡を長男の康盛が継いだ。	あとをちょーなんのやすもりがついだ。	NO_LABEL
