ジャン・ミッシェル・ローラン=ル・ジャンティは、ファンタスティクジャンル () の映画で最も知られるフランスの映画監督、映画製作者、俳優、小説家。	NO_PRONOUNCE	NO_LABEL
フランス・パリ、ヌイイ＝シュル＝セーヌ出身。	NO_PRONOUNCE	NO_LABEL
ローランはフランス初の吸血鬼映画とフランス初のスプラッター映画を製作したと認識されている。	ろーらんわふらんすはつのきゅーけつきえいがとふらんすはつのすぷらったーえいがをせいさくしたとにんしきされている。	NO_LABEL
また彼は、フランスの成人向映画の草分けの1人でもある。	またかれわ、ふらんすのせいじんこーえいがのくさわけのひとりでもある。	NO_LABEL
彼の父は、クロード・マルタンという芸名の俳優だった。	NO_PRONOUNCE	NO_LABEL
ローランの兄弟オリヴィエは俳優でもあり、「オリヴィエ・マルタン」の芸名で何本かローランの映画にも出演した。	NO_PRONOUNCE	NO_LABEL
彼の母、デニス・ローラン=ル・ジャンティは、ジョルジュ・バタイユの愛好者だった。	NO_PRONOUNCE	NO_LABEL
伝統的なフランスとドイツの表現主義の映画、古典的なアメリカのホラー、昔の連続物、コミック、幻想文学、シュルレアリスム芸術に影響されたローランのファンタスティク映画は、当然のように一種の視覚的な詩であると同時に、官能的な恐怖と奇怪な美に彩られていた。	でんとーてきなふらんすとどいつのひょーげんしゅぎのえいが、こてんてきなあめりかのほらー、むかしのれんぞくぶつ、こみっく、げんそーぶんがく、しゅるれありすむげいじゅつにえいきょーされたろーらんのふぁんたすてぃくえいがわ、とーぜんのよーにいっしゅのしかくてきなしであるとどーじに、かんのーてきなきょーふときかいなびにいろどられていた。	NO_LABEL
彼の詩的なイメージの多くには最小限の会話と、単純だが心に残る音楽を伴っている。	かれのしてきないめーじのおーくにわさいしょーげんのかいわと、たんじゅんだがこころにのこるおんがくをともなっている。	NO_LABEL
そしてテンポは通常ゆったりとしている。	そしててんぽわつーじょーゆったりとしている。	NO_LABEL
これらの特質の全ては、一般にシュールで夢のようであると言われる趣きに寄与している。	これらのとくしつのすべてわ、いっぱんにしゅーるでゆめのよーであるといわれるおもむきにきよしている。	NO_LABEL
限られた予算にもかかわらず、ローランは素晴らしいロケーションで撮影することができた。	かぎられたよさんにもかかわらず、ろーらんわすばらしいろけーしょんでさつえいすることができた。	NO_LABEL
岩が多いセーヌ＝マリティーム県ディエップの浜辺、壮大な城、起伏に富んだ田園地方、ゴシック的雰囲気に満ちた墓地。	NO_PRONOUNCE	NO_LABEL
彼以前のF・W・ムルナウのように、ローランは彼の特異なイメージの実現手段として、ホラージャンルの様式をよく利用した。	かれいぜんのえふだぶりゅむるなうのよーに、ろーらんわかれのとくいないめーじのじつげんしゅだんとして、ほらーじゃんるのよーしきをよくりよーした。	NO_LABEL
彼の映画においては結末、筋書、会話、物語は、視覚的な美に対して従属的になる傾向がある。	かれのえいがにおいてわけつまつ、すじがき、かいわ、ものがたりわ、しかくてきなびにたいしてじゅーぞくてきになるけいこーがある。	NO_LABEL
最初のうちはローランの映画は、観客や批評家に受け入れられなかった。	さいしょのうちわろーらんのえいがわ、かんきゃくやひひょーかにうけいれられなかった。	NO_LABEL
彼の最初の映画『The Rape of the Vampire』は、観衆が野次り、叫び、スクリーンにゴミを投げつるという醜事を引き起こした。	NO_PRONOUNCE	NO_LABEL
映画に対する反応は、ローランに映画の仕事を辞めることを考えさせる程、敵意に満ちていた。	えいがにたいするはんのーわ、ろーらんにえいがのしごとをやめることをかんがえさせるほど、てきいにみちていた。	NO_LABEL
続く数作の映画も、賛辞を得る事はできなかった。	つずくすーさくのえいがも、さんじをえることわできなかった。	NO_LABEL
辛辣なフランスの映画評論家は、彼らが俗悪で素人臭くナンセンスだと感じた、彼の独特のスタイルを表現する軽蔑的な造語「Rollinade」を編み出した。	NO_PRONOUNCE	NO_LABEL
後にファンはこの言葉を受け入れ、誇りをもって用いている。	ごにふぁんわこのことばをうけいれ、ほこりをもってもちいている。	NO_LABEL
高尚な芸術とエロチックな恐怖の入り交じる、ローランの独特な世界が商業的な成功を収められない一方で、エロチシズムを映画に取り入れる彼の能力は、フランスの成人向映画の黎明期において、成人映画監督としての安定した仕事を彼にもたらした。	こーしょーなげいじゅつとえろちっくなきょーふのいりまじる、ろーらんのどくとくなせかいがしょーぎょーてきなせいこーをおさめられないいっぽーで、えろちしずむをえいがにとりいれるかれののーりょくわ、ふらんすのせいじんこーえいがのれいめいきにおいて、せいじんえいがかんとくとしてのあんていしたしごとをかれにもたらした。	NO_LABEL
ローランはミシェル・ジャンティ、ミシェル・ガン、ロベール・ザビエルなど様々な変名を用い、1973年から1980年代後半にかけて、気軽なソフトコア／コメディ複合作品からハードコアポルノに至る多くの成人映画を監督した。	NO_PRONOUNCE	NO_LABEL
1975年の『"Phantasmes" 』は練り込まれた物語を持ち、正統的な俳優を起用した成人映画を作ろうというローランの試みであった。	NO_PRONOUNCE	NO_LABEL
しかし平均的な観衆はそのようなものには興味を示さなかった。	しかしへいきんてきなかんしゅーわそのよーなものにわきょーみをしめさなかった。	NO_LABEL
ローランは資金調達のため製作者の求めに応じ、自作のシリアスな映画の成人バージョンを何作か製作した。	ろーらんわしきんちょーたつのためせいさくしゃのもとめにおーじ、じさくのしりあすなえいがのせいじんばーじょんをなんさくかせいさくした。	NO_LABEL
『"Vibrations sensuelles" 』の製作中、ローランはフランスのアダルトスター、ブリジット・ラーエの演技力を評価し、次作のホラー映画、1978年の『殺戮謝肉祭/屍肉の晩餐』への出演を望んだ。	NO_PRONOUNCE	NO_LABEL
ラーエは役を完璧にこなし、今日まで続くローランとの仕事上の関係が始まった。	らーえわやくをかんぺきにこなし、きょーまでつずくろーらんとのしごとじょーのかんけいがはじまった。	NO_LABEL
ローランは、たびたびフランスの雑誌「Fascination」と「Sex Stars System」の編集長である、ジャン・ピエール・ブーソーと共同で仕事をした。	NO_PRONOUNCE	NO_LABEL
世界中で映画がDVD化され、ローランは新世代のファンを獲得し、批評的・学術的な注目を集めた。	NO_PRONOUNCE	NO_LABEL
現在、彼はパリに住み、2000年代に入ってからも数本の映画を監督した。	げんざい、かれわぱりにすみ、にせんねんだいにはいってからもかずもとのえいがをかんとくした。	NO_LABEL
2010年12月15日、急逝。	にせんじゅうねんじゅーにがつじゅうごにち、きゅーせい。	NO_LABEL
