『THE CLICKERS』は、2008年7月5日から2010年3月27日までJ-WAVEで放送されていたラジオ番組。	NO_PRONOUNCE	NO_LABEL
前番組のASAHI SUPER DRY SUPER LINE 'J'の流れを汲むJ-POP専門番組であった。	NO_PRONOUNCE	NO_LABEL
初代ナビゲーターは金剛地武志。	しょだいなびげーたーわこんごうちたけし。	NO_LABEL
金剛地がJ-WAVEでナビゲーターを務めるのは、2007年9月に終了した『TOMORROW』以来9ヶ月ぶりであった。	NO_PRONOUNCE	NO_LABEL
2009年10月にナビゲーターが大塚善奈に交代。	にせんきゅうねんじゅーがつになびげーたーがおーつかぜなにこーたい。	NO_LABEL
終了後、2010年4月からの後番組『SATURDAY SONIC』には大塚がナビゲーターを続投した。	NO_PRONOUNCE	NO_LABEL
番組終了時点	ばんぐみしゅーりょーじてん	NO_LABEL
