オリンピスキ・スタジアムはウクライナの首都キエフにある競技場である。	おりんぴすきすたじあむわうくらいなのしゅときえふにあるきょーぎじょーである。	NO_LABEL
ウクライナでは最大の規模を誇っており、東ヨーロッパではロシアのモスクワにあるルジニキ・スタジアムに次ぐ2番目の規模を誇っている。	うくらいなでわさいだいのきぼをほこっており、ひがしよーろっぱでわろしあのもすくわにあるるじにきすたじあむにつぐにばんめのきぼをほこっている。	NO_LABEL
1923年8月12日に供用を開始。	せんきゅうひゃくにじゅうさんねんはちがつじゅうににちにきょーよーをかいし。	NO_LABEL
サッカーのFCアルセナル・キエフの本拠地として使用されているが、FCディナモ・キエフが重要な国際試合や国内試合を開催する際は、同競技場で試合を行う。	さっかーのふっとぼりにーくるぶあるせなるきえふのほんきょちとしてしよーされているが、ふっとぼりにーくるぶでぃなもきえふがじゅーよーなこくさいしあいやこくないしあいをかいさいするさいわ、どーきょーぎじょーでしあいをおこなう。	NO_LABEL
1980年のモスクワオリンピックではサッカーの予選会場として使用された。	せんきゅうひゃくはちじゅうねんのもすくわおりんぴっくでわさっかーのよせんかいじょーとしてしよーされた。	NO_LABEL
2008年より老朽化したスタジアムの全面改築工事に着手し、2011年10月9日にヴィクトル・ヤヌコーヴィチ大統領出席の下、再び供用が開始された。	NO_PRONOUNCE	NO_LABEL
2012年7月1日、EURO 2012の決勝戦が行われた。	NO_PRONOUNCE	NO_LABEL
2018年にはUEFAチャンピオンズリーグ決勝の会場となる予定。	にせんじゅうはちねんにわうえふぁちゃんぴおんずりーぐけっしょーのかいじょーとなるよてい。	NO_LABEL
