2014年の御嶽山噴火は、2014年9月27日11時52分に発生した、長野県と岐阜県の県境に位置する御嶽山の火山噴火である。	にせんじゅうよねんのみたけさんふんかわ、にせんじゅうよねんくがつにじゅうしちにちじゅういちじごじゅうにふんにはっせいした、ながのけんとぎふけんのけんきょーにいちするみたけさんのかざんふんかである。	NO_LABEL
噴火警戒レベル1の段階で噴火したため、火口付近に居合わせた登山者ら58名が死亡した、日本における戦後最悪の火山災害である。	NO_PRONOUNCE	NO_LABEL
山頂の南西、地獄谷付近の地下にあった熱水溜まりが何らかの原因で過熱したことにより急膨張した結果、突沸し噴出に至った。	さんちょーのなんせい、じごぐだにふきんのちかにあったねつみずたまりがなんらかのげんいんでかねつしたことによりきゅーぼーちょーしたけっか、とっぷつしふんしゅつにいたった。	NO_LABEL
山頂付近で噴火に遭遇し生還した登山者によれば「最初の噴出は岩がぶつかるような音で始まり、爆発音は無かった」との証言があるが、気象庁V-net 観測点の空振計では 6Hz 以下の空振を観測している。	NO_PRONOUNCE	NO_LABEL
新たな火口は、1979年噴火の火口列の南西250 - 300m付近の位置に平行に複数個が形成され、最初の噴火では火砕流も発生し火口南西側の地獄谷を約3km程度流下、火口北西側の尺ナンゾ谷にも流れ下った事が観測された。	NO_PRONOUNCE	NO_LABEL
また、降下した火山灰を構成する粒子は大部分が変質岩片で構成され、マグマ由来の成分は検出されていないため、今回の噴火は水蒸気爆発と分析されている。	また、こーかしたかざんばいをこーせいするりゅーしわだいぶぶんがへんしついわへんでこーせいされ、まぐまゆらいのせいぶんわけんしゅつされていないため、こんかいのふんかわすいじょーきばくはつとぶんせきされている。	NO_LABEL
日本国内において噴火災害で死者を出したのは、1991年6月3日の雲仙・普賢岳の大火砕流以来となり、死者数も雲仙・普賢岳の43人を超え、戦後最悪の58人となった。	にほんこくないにおいてふんかさいがいでししゃをだしたのわ、せんきゅうひゃくきゅうじゅういちねんろくがつみっかのうんぜんふげんだけのだいかさいりゅーいらいとなり、ししゃすーもうんぜんふげんだけのよんじゅうさんにんをこえ、せんごさいあくのごじゅうはちにんとなった。	NO_LABEL
東京大学地震研究所助教授で火山学者の金子隆之は、噴石の初速を360メートル毎秒、山頂付近での速度を300メートル毎秒と推定している。	NO_PRONOUNCE	NO_LABEL
今回の噴火規模は過去に日本で死傷者を出した他の火山噴火規模と比較すると決して大規模なものではなく、火山灰噴出量も2014年現在も噴火を続けている小笠原諸島・西之島の100分の1、1991年の雲仙普賢岳の400分の1でしかない。	NO_PRONOUNCE	NO_LABEL
噴火の約2週間前から火山性地震が増加していたが、発生していた地震のタイプは2007年と異なり火山性微動は観測されていなかった。	ふんかのやくにしゅーかんまえからかざんせいじしんがぞーかしていたが、はっせいしていたじしんのたいぷわにせんななねんとことなりかざんせいびどーわかんそくされていなかった。	NO_LABEL
しかし、噴火の約11分前と噴火直後の約30分間に北東に11km 離れた高感度地震観測網の開田高感度地震観測施設では火山性微動が観測されていたほか、7分前には傾斜計で山体が盛り上がる変位も観測されていた。	しかし、ふんかのやくじゅういっぷんまえとふんかちょくごのやくさんじゅっぷんかんにほくとーにじゅういちきろめーとるはなれたこーかんどじしんかんそくもーのかいだだかかんどじしんかんそくしせつでわかざんせいびどーがかんそくされていたほか、ななふんまえにわけいしゃけいでやまたいがもりあがるへんいもかんそくされていた。	NO_LABEL
常設の地震計を設置している名古屋大学の観測チームによれば、噴火の前兆として阿蘇山などで観測される特徴的な長周期震動は観測されなかった。	じょーせつのじしんけいをせっちしているなごやだいがくのかんそくちーむによれば、ふんかのぜんちょーとしてあそさんなどでかんそくされるとくちょーてきなちょーしゅーきしんどーわかんそくされなかった。	NO_LABEL
一方、登山ガイドからは「硫化水素が普段より強かった」、山小屋従業員からは「噴気の勢いが強かった」などの証言が報道されている。	NO_PRONOUNCE	NO_LABEL
しかし、別な調査では以前から風向きにより火山ガス臭を感じることが有り、噴火前の状況からは異常を感じなかったとする証言もある。	しかし、べつなちょーさでわいぜんからかざむきによりかざんがすしゅーをかんじることがあり、ふんかまえのじょーきょーからわいじょーをかんじなかったとするしょーげんもある。	NO_LABEL
滝越カメラの記録映像解析により噴火直後の11時52分に上部斜面と西斜面の2カ所でほぼ同時に発生し、地獄谷方向に約2kmと兵衛谷方向に約1.5kmの流下が確認された。	NO_PRONOUNCE	NO_LABEL
谷筋を流下した速度は 8 - 20m/秒程度で、ある程度の温度はあったと考えられているが、通過箇所の樹木の損傷、火災、炭化が認められないことから樹木を焦がすほどの温度では無く、火砕流の初期温度は二次噴煙の上昇速度と到達高度などから100℃程度と推定されている。	NO_PRONOUNCE	NO_LABEL
なお、登山道の無い側の山腹で噴火し流下したため、火砕流による犠牲者は発生していない。	なお、とざんどーのむいがわのさんぷくでふんかしりゅーかしたため、かさいりゅーによるぎせいしゃわはっせいしていない。	NO_LABEL
この火砕流は、4つの経過を経て流下し消滅した。	このかさいりゅーわ、よっつのけいかをへてりゅーかししょーめつした。	NO_LABEL
2014年11月8日、火山噴火予知連絡会御岳山総合観測班地質チームらによる山頂付近の噴出物の現地状況調査が行われた。	にせんじゅうよねんじゅーいちがつようか、かざんふんかよちれんらくかいみたけさんそーごーかんそくはんちしつちーむらによるさんちょーふきんのふんしゅつぶつのげんちじょーきょーちょーさがおこなわれた。	NO_LABEL
調査報告書によれば、山頂付近での噴出物は粘土質火山灰を主成分として最大厚み 35cm、直径20cmから30cmの噴石は火口から北方向に、1.3kmまで到達していた。	NO_PRONOUNCE	NO_LABEL
しかし、噴石の衝突痕跡や堆積物の地質情報は台風などの降雨と捜索活動による攪乱により失われ、採集と調査は凍結により十分に行えなかった。	しかし、ふんせきのしょーとつこんせきやたいせきぶつのちしつじょーほーわたいふーなどのこーうとそーさくかつどーによるかくらんによりうしなわれ、さいしゅーとちょーさわとーけつによりじゅーぶんにおこなえなかった。	NO_LABEL
なお、現地調査の結果から、噴出量は前回1979年と同等の50万トン程度とされた。	なお、げんちちょーさのけっかから、ふんしゅつりょうわぜんかいせんきゅうひゃくななじゅうきゅうねんとどーとーのごじゅうまんとんていどとされた。	NO_LABEL
現地調査に先立った 2015年6月2日にはマルチコプター式無人機による火山性ガス濃度と温湿度調査が行われ、前回11月の無人機による調査と比較し高温火山ガスの温度低下と噴出量減少が示唆されるデータが得られていた。	げんちちょーさにさきだったにせんじゅうごねんろくがつふつかにわまるちこぷたーしきむじんきによるかざんがすのーどとゆたかしつどちょーさがおこなわれ、ぜんかいじゅーいちがつのむじんきによるちょーさとひかくしこーおんかざんがすのおんどていかとふんしゅつりょうげんしょーがしさされるでーたがえられていた。	NO_LABEL
6月10日の火山噴火予知連絡会御嶽山総合観測班地質による現地調査では、前回の2014年11月8日の調査で立ち入っていない田の原から剣ケ峰にかけての、噴出物の分布と堆積状況の調査が行われた。	ろくがつとおかのかざんふんかよちれんらくかいみたけさんそーごーかんそくはんちしつによるげんちちょーさでわ、ぜんかいのにせんじゅうよねんじゅーいちがつようかのちょーさでたちいっていないたのはらからけんがみねにかけての、ふんしゅつぶつのぶんぷとたいせきじょーきょーのちょーさがおこなわれた。	NO_LABEL
報告によれば、雪解けと風雨による噴出物の浸食が予想されたが、概ね2014年11月の状況と大きく変わらない状態で堆積物が残っていた。	ほーこくによれば、ゆきどけとふーうによるふんしゅつぶつのしんしょくがよそーされたが、おーむねにせんじゅうよねんじゅーいちがつのじょーきょーとおーきくかわらないじょーたいでたいせきぶつがのこっていた。	NO_LABEL
粘土質火山灰を主体とした噴出堆積物は王滝口9合目付近で 1.5 cm、王滝頂上および奥の院で 8 cm、八丁ダルミ周辺で急速に厚さを増し30 - 40 cmであった。	NO_PRONOUNCE	NO_LABEL
なお、八丁ダルミから剣ヶ峰間および奥の院周辺は火山岩塊サイズの噴石を多く含み、王滝頂上から奥の院間では長径45cm程度の噴石があった。	なお、はっちょーだるみからけんがみねかんおよびおくのいんしゅーへんわかざんがんかいさいずのふんせきをおーくふくみ、おーたきちょーじょーからおくのいんかんでわちょーけいよんじゅうごせんちめーとるていどのふんせきがあった。	NO_LABEL
また、八丁ダルミ付近での噴石の密度は、1mに直径10cm以上の噴石の跡が1個以上あったとする見解が報道されている。	NO_PRONOUNCE	NO_LABEL
噴火警戒レベル1への引き下げを受けて、長野・岐阜両県と山麓自治体の職員ら約20人で構成された御嶽山火山防災協議会のチームが8月29、30両日に火口付近を調査した。	NO_PRONOUNCE	NO_LABEL
火山灰が一ノ池周辺の登山道では最大70cm程度、山頂付近では10～20cm程度積り、山頂付近の半ば崩壊した山小屋内部にも入り込んでいた。	NO_PRONOUNCE	NO_LABEL
下記は特に明記しない限り全て日本時間で表記する。	かきわとくにめいきしないかぎりすべてにほんじかんでひょーきする。	NO_LABEL
当日午後に首相の安倍晋三が噴火災害に伴う救出活動のため自衛隊の派遣を指示、首相と全閣僚が出席して首相官邸で対策会議を開き、関係機関が一体で救助に取り組む方針を確認した。	とーじつごごにしゅしょーのあべしんぞーがふんかさいがいにともなうきゅーしゅつかつどーのためじえいたいのはけんをしじ、しゅしょーとぜんかくりょーがしゅっせきしてしゅしょーかんていでたいさくかいぎをひらき、かんけいきかんがいったいできゅーじょにとりくむほーしんをかくにんした。	NO_LABEL
9月27日に長野県内の消防からは地元の木曽広域消防本部から約60名と県内13消防本部から約100名が出動、愛知県、静岡県、東京都及び山梨県4都県の消防本部からは長野県の27日20時30分緊急消防援助隊出動の要請を受け、合計50隊214名体制が出動。	NO_PRONOUNCE	NO_LABEL
このうち東京都隊の東京消防庁はハイパーレスキュー隊や山岳救助隊など合わせて緊急消防援助隊51名を現地に派遣した。	NO_PRONOUNCE	NO_LABEL
岐阜県警察山岳警備隊の3人は登山客・山小屋従業員・下呂市山岳救助隊と共に山小屋の五の池小屋に残留、翌28日朝、山小屋管理人および負傷者を含む登山客と共に下山した。	NO_PRONOUNCE	NO_LABEL
飛騨頂上南にある山小屋の五の池小屋は27日の噴火直後から緊急の避難小屋として機能し、付近の子供も含む登山客を屋内避難させ、翌28日には管理人も含む26人が全員無事に下山した。	ひだちょーじょーみなみにあるやまごやのごのいけごやわにじゅうしちにちのふんかちょくごからきんきゅーのひなんこやとしてきのーし、ふきんのこどももふくむとざんきゃくをおくないひなんさせ、よくにじゅうはちにちにわかんりにんもふくむにじゅうろくにんがぜんいんぶじにげざんした。	NO_LABEL
26人の中は重傷者2名が含まれ、鎖骨を骨折した女性1名は先に岐阜県警察ヘリで救助・岐阜県高山市の病院へ搬送され、左腕を骨折した男性1名は他の24名とともに自力で下山した。	NO_PRONOUNCE	NO_LABEL
同じく山頂付近の山小屋「二ノ池本館」も逃げ込んで来た登山者約50人にヘルメットを配布、1時間後に噴火が小康状態になるのを待ち9合目の山小屋「石室避難小屋」へ誘導、既に避難していた100人近くと現場で合流した。	NO_PRONOUNCE	NO_LABEL
朝から警察・消防・自衛隊が合同550人体勢で救助を開始、昼前に山頂付近へ到着。	NO_PRONOUNCE	NO_LABEL
山頂へのヘリコプターによる救出も含め27人を救助したほか、前日山頂付近岐阜県側の山小屋に取り残されていた子供も含む登山者たち25人が朝から自力で下山を開始、岐阜県下呂市の登山口に到着した。	さんちょーえのへりこぷたーによるきゅーしゅつもふくめにじゅうしちにんをきゅーじょしたほか、ぜんじつさんちょーふきんぎふけんがわのやまごやにとりのこされていたこどももふくむとざんしゃたちにじゅうごにんがあさからじりきでげざんをかいし、ぎふけんげろしのとざんぐちにとーちゃくした。	NO_LABEL
また、長野県警察本部発表によると山頂付近で多くが火山灰に埋もれた心肺停止状態の31人を発見、山頂付近で有害な火山ガスが確認されたことから28日の捜索を14時に打ち切り、救出活動を中断した。	また、ながのけんけいさつほんぶはっぴょーによるとさんちょーふきんでおーくがかざんばいにうずもれたしんぱいていしじょーたいのさんじゅういちにんをはっけん、さんちょーふきんでゆーがいなかざんがすがかくにんされたことからにじゅうはちにちのそーさくをじゅうよじにうちきり、きゅーしゅつかつどーをちゅーだんした。	NO_LABEL
このほか、27日中から山小屋で一晩を過ごした登山者などは全て下山が完了した。	このほか、にじゅうしちにちちゅーからやまごやでひとばんをすごしたとざんしゃなどわすべてげざんがかんりょーした。	NO_LABEL
気象庁では、地震火山部が「御嶽山 火山の状況に関する解説情報 第11号」で、9月27日11時から24時までに発生した火山性地震の合計回数が353回であったことを発表。	NO_PRONOUNCE	NO_LABEL
また気象庁機動調査班が陸上自衛隊ヘリに同乗、上空から火山活動の状況を確認したほか、火山性ガスの観測を実施、16時には火山噴火予知連絡会拡大幹事会を開催、噴火を「水蒸気爆発」と判断、見解を19時頃に発表した。	NO_PRONOUNCE	NO_LABEL
また、上空からの現地調査時に樹木の焦げた痕跡などを確認出来なかったことから流れ下った噴煙の温度は低いとして火砕流とは認識していなかったが、19時30分に行った火山噴火予知連絡会での会見時にはこれを翻し、低温火砕流であるとして噴火警報に火砕流を追加、対象市町村を長野県王滝村・木曽町、岐阜県高山市・下呂市の4市町村とした。	NO_PRONOUNCE	NO_LABEL
12時41分に長野県は災害派遣精神医療チームの派遣を決定。	じゅうにじよんじゅういっぷんにながのけんわさいがいはけんせいしんいりょーちーむのはけんをけってい。	NO_LABEL
28日18時30分現在のDMATの派遣状況として、長野県側34チーム、岐阜県側2チームを報告。	NO_PRONOUNCE	NO_LABEL
17時00分に長野県庁に内閣府大臣政務官の松本洋平を本部長とする非常災害現地対策本部を設置。	NO_PRONOUNCE	NO_LABEL
政府は御嶽山噴火に関する非常災害対策本部を設置、災害対策基本法に基づき、関係省庁会議を格上げした。	せいふわみたけさんふんかにかんするひじょーさいがいたいさくほんぶをせっち、さいがいたいさくきほんほーにもとずき、かんけいしょーちょーかいぎをかくあげした。	NO_LABEL
午後には内閣府副大臣の西村康稔を団長とする調査団5名が現地をヘリで上空から視察し、長野県庁で阿部守一長野県知事に面会、全面協力を約束した。	NO_PRONOUNCE	NO_LABEL
また多数の犠牲者・行方不明者の存在に対し災害対策基本法を適用、御嶽山噴火非常対策本部を28日17時に設置、噴火に関する各省庁の対応状況の報告および今後の見通しについてを議題とした。	NO_PRONOUNCE	NO_LABEL
新聞は28日までに複数社が号外を出した。	しんぶんわにじゅうはちにちまでにふくすーしゃがごーがいをだした。	NO_LABEL
9月30日の救助隊人数は陸上自衛隊・警察・消防合同で後方支援も含めて850人体制、徒歩とヘリコプターによる空中支援で山頂の救助活動を行う予定だったが、早朝から再開していた救助作業を7時過ぎに中断。	NO_PRONOUNCE	NO_LABEL
気象庁によると29日19時20分から30日1時15分まで火山性微動の大きな振幅が続き、一旦は収まったが6時12分より再び大きくなり、この振幅は27日夜と同程度と断定、長野県災害対策本部は再び噴火が起こるおそれ有りとして救助の中断を決定した。	きしょーちょーによるとにじゅうくにちじゅうくじにじゅっぷんからさんじゅうにちいちじじゅうごふんまでかざんせいびどーのおーきなしんぷくがつずき、いったんわおさまったがろくじじゅうにふんよりふたたびおーきくなり、このしんぷくわにじゅうしちにちよるとどーていどとだんてい、ながのけんさいがいたいさくほんぶわふたたびふんかがおこるおそれゆうりとしてきゅーじょのちゅーだんをけっていした。	NO_LABEL
12時15分に地上での、14時20分にヘリでの捜索活動を中止している。	じゅうにじじゅうごふんにちじょーでの、じゅうよじにじゅっぷんにへりでのそーさくかつどーをちゅーししている。	NO_LABEL
出動していた長野県・岐阜県両県のDMAT合計27チームは30日14時に活動を終了。	NO_PRONOUNCE	NO_LABEL
10月1日は自衛隊、消防、警察合わせて1,000人規模の体制で救出救助・捜索活動を実施。	NO_PRONOUNCE	NO_LABEL
これまで発見された心肺停止の被災者については、陸自ヘリや空自救難隊によりふもとへと搬送された。	これまではっけんされたしんぱいていしのひさいしゃについてわ、りくじへりやくーじきゅーなんたいによりふもとえとはんそーされた。	NO_LABEL
土砂災害、ライフライン、通信、道路などの状況については各省庁からの報告により被害がないことが確認された。	どしゃさいがい、らいふらいん、つーしん、どーろなどのじょーきょーについてわかくしょーちょーからのほーこくによりひがいがないことがかくにんされた。	NO_LABEL
また、1日は岐阜県側でも男性1名が取り残されているとの情報から岐阜県警、下呂市消防本部、高山市消防本部、下呂市山岳救助隊が捜索するも有力な情報を得られず捜索を断念した。	NO_PRONOUNCE	NO_LABEL
気象庁地震火山部火山監視・情報センターは10月1日19時頃以降の火山性微動は検知できない程度の大きさになったことを報告している。	きしょーちょーじしんかざんぶかざんかんしじょーほーせんたーわじゅーがつついたちじゅうくじごろいこーのかざんせいびどーわけんちできないていどのおーきさになったことをほーこくしている。	NO_LABEL
10月2日はヘリサットを搭載した東京消防庁航空隊の消防ヘリコプターによる捜索救助及び情報収集を実施 。	じゅーがつふつかわへりさっとをとーさいしたとーきょーしょーぼーちょーこーくーたいのしょーぼーへりこぷたーによるそーさくきゅーじょおよびじょほうしゅうしゅーをじっし。	NO_LABEL
11時35分に雨のため捜索中止。	じゅういちじさんじゅうごふんにあめのためそーさくちゅーし。	NO_LABEL
死亡が確認された47人全員の身元が判明した。	しぼーがかくにんされたよんじゅうしちにんぜんいんのみもとがはんめいした。	NO_LABEL
平成26年台風第18号の影響で10月6・7日の捜索は2日連続で中止、一週間後の10月13・14日も平成26年台風第19号の影響で捜索は中断した。	NO_PRONOUNCE	NO_LABEL
10月15日には捜索が再開されたが天候不良のため午前11時に捜索中止、この10月15日には山頂で約1cmの初冠雪が確認された。	じゅーがつじゅうごにちにわそーさくがさいかいされたがてんこーふりょーのためごぜんじゅういちじにそーさくちゅーし、このじゅーがつじゅうごにちにわさんちょーでやくいちせんちめーとるのはつかんせつがかくにんされた。	NO_LABEL
10月16日14時28分、長野県災害対策本部及び岐阜県火山災害警戒本部は「山頂付近での積雪などにより二次災害の危険が強まった」として、同日で捜索を打ち切った。	NO_PRONOUNCE	NO_LABEL
19時30分、阿部守一長野県知事は長野県庁の記者会見で「やれることは全てやり尽くした」とのコメントを発表。	NO_PRONOUNCE	NO_LABEL
9月28日から10月3日までの救助・捜索人数の推移は次の通りであった。	NO_PRONOUNCE	NO_LABEL
2015年6月の合同調査隊による事前調査の捜索計画では、6月中旬に長野県警や火山学者などで編成する調査隊が山頂付近の火山灰の状況などを確認し、7月にまず先遣隊が現場を調査、7月中旬には長野県警と県内消防の捜索隊による捜索が再開されるとしている。	にせんじゅうごねんろくがつのごーどーちょーさたいによるじぜんちょーさのそーさくけいかくでわ、ろくがつちゅーじゅんにながのけんけいやかざんがくしゃなどでへんせいするちょーさたいがさんちょーふきんのかざんばいのじょーきょーなどをかくにんし、しちがつにまずせんけんたいがげんばをちょーさ、なながつちゅーじゅんにわながのけんけいとけんないしょーぼーのそーさくたいによるそーさくがさいかいされるとしている。	NO_LABEL
長野県で9月27日、白菜畑18ヘクタールに降灰が確認されたのを始めとして、被害調査を開始した。	NO_PRONOUNCE	NO_LABEL
同日、長野県庁農業技術課による火山灰対策に関する技術対策文書が公開。	どーじつ、ながのけんちょーのーぎょーぎじゅつかによるかざんばいたいさくにかんするぎじゅつたいさくぶんしょがこーかい。	NO_LABEL
降灰による農作物への被害は相当長い期間続くおそれがあるとして対策を指導した。	こーかいによるのーさくもつえのひがいわそーとーながいきかんつずくおそれがあるとしてたいさくをしどーした。	NO_LABEL
御嶽山に近い長野県木曽町観光協会では2014年10月4日・5日に開催を予定していた開田高原そば祭り、木曽駒高原きのこまつりの2イベントを噴火に伴う影響を原因として28日に中止を発表した。	NO_PRONOUNCE	NO_LABEL
同じく御嶽山の麓にある開田高原では噴火の影響で観光客が激減した。	どうじくみたけさんのふもとにあるかいだこーげんでわふんかのえいきょーでかんこーきゃくがげきげんした。	NO_LABEL
降灰は1ミリあった程度だが、開田高原が閉鎖されたかどうかの問い合わせが相次ぎ、風評被害を心配し急遽公式HPを更新した。	NO_PRONOUNCE	NO_LABEL
王滝村の旅館でも10月の予約客200人以上がキャンセルされた。	おーたきむらのりょかんでもじゅーがつのよやくきゃくにひゃくにんいじょーがきゃんせるされた。	NO_LABEL
スキー場のうち、チャオ御岳スノーリゾートではスキー場に被害は及んでおらず2014年11月29日にオープンした。	すきーじょーのうち、ちゃおおんたけすのーりぞーとでわすきーじょーにひがいわおよんでおらずにせんじゅうよねんじゅーいちがつにじゅうきゅうにちにおーぷんした。	NO_LABEL
おんたけ2240についてはゲレンデのほぼ半分が入山規制区域となったため2014年12月5日の営業開始を断念することを決めたが、2015年1月19日に気象庁が御嶽山立入禁止区域を火口4kmから概ね3kmに変更したことを受け、同年2月26日から営業が開始される予定となっている。	おんたけにーにーよんまるについてわげれんでのほぼはんぶんがにゅうざんきせいくいきとなったためにせんじゅうよねんじゅーにがついつかのえいぎょーかいしをだんねんすることをきめたが、にせんじゅうごねんいちがつじゅうきゅうにちにきしょーちょーがみたけさんたちーりきんしくいきをかこーよんきろめーとるからおーむねさんきろめーとるにへんこーしたことをうけ、どーねんにがつにじゅうろくにちからえいぎょーがかいしされるよていとなっている。	NO_LABEL
王滝村では住民の約7割が観光業に携わっており、影響の広がりが懸念されている。	おーたきむらでわじゅーみんのやくななわりがかんこーぎょーにたずさわっており、えいきょーのひろがりがけねんされている。	NO_LABEL
噴火警戒レベルが引き下げられて入山規制範囲が狭められるとともに、登山可能な範囲が広がった。	ふんかけいかいれべるがひきさげられてにゅうざんきせいはんいがせばめられるとともに、とざんかのーなはんいがひろがった。	NO_LABEL
これに伴い、営業を休止した山小屋の一部が2015年に営業を再開した。	これにともない、えいぎょーをきゅーししたやまごやのいちぶがにせんじゅうごねんにえいぎょーをさいかいした。	NO_LABEL
黒沢口登山道9合目上にある山小屋「覚明堂」は廃業することになった。	NO_PRONOUNCE	NO_LABEL
御嶽山は古くから霊山とされ山岳信仰の対象であり、御嶽神社に縁がある神社が全国各地に存在する。	みたけさんわふるくかられいざんとされさんがくしんこーのたいしょーであり、おんたけじんじゃにえんがあるじんじゃがぜんこくかくちにそんざいする。	NO_LABEL
今回の噴火で霊山での犠牲者が発生し信者に心痛が発生したとし、全国から義援金が集められた。	こんかいのふんかでれいざんでのぎせいしゃがはっせいししんじゃにしんつーがはっせいしたとし、ぜんこくからぎえんきんがあつめられた。	NO_LABEL
政府は2014年10月17日、今回の噴火災害と同年8月に発生した広島県での土砂災害を受け、中央防災会議に新たに2つのワーキンググループを設けて災害対策の改善を進めることを発表した。	せいふわにせんじゅうよねんじゅーがつじゅうしちにち、こんかいのふんかさいがいとどーねんはちがつにはっせいしたひろしまけんでのどしゃさいがいをうけ、ちゅーおーぼーさいかいぎにあらたにふたつのわーきんぐぐるーぷをもーけてさいがいたいさくのかいぜんをすすめることをはっぴょーした。	NO_LABEL
その中で火山情報の通知の遅れ、避難シェルターの整備の遅れや避難勧告の発表の遅れなどの対策不備について触れた。	そのなかでかざんじょーほーのつーちのおくれ、ひなんしぇるたーのせいびのおくれやひなんかんこくのはっぴょーのおくれなどのたいさくふびについてふれた。	NO_LABEL
また噴火時に登山届未提出の登山者が多く、行方不明者の把握に手間取り、捜索に支障が出た。	またふんかじにとざんとどけみていしゅつのとざんしゃがおーく、おもかたしれずしゃのはあくにてまどり、そーさくにししょーがでた。	NO_LABEL
これを教訓とし、常時監視対象となっている47火山の地元自治体に対し、登山届の提出義務化の検討を求める方針を決定した。	NO_PRONOUNCE	NO_LABEL
栃木県では御嶽山噴火を受け、栃木県警が10月9日、那須町の茶臼岳で初の火山噴火を想定した救助訓練を実施した。	とちぎけんでわみたけさんふんかをうけ、とちぎけんけいがじゅーがつここのか、なすまちのちゃうすだけではつのかざんふんかをそーていしたきゅーじょくんれんをじっしした。	NO_LABEL
静岡県・山梨県にまたがる富士山でも御嶽山の噴火を受け、噴石から逃れるための避難シェルターの整備を検討することを静岡県知事の川勝平太が10月14日の定例記者会見で明らかにした。	NO_PRONOUNCE	NO_LABEL
山梨県知事の横内正明も同案の検討を表明している。	やまなしけんちじのよこーちしょうめいもどーあんのけんとーをひょーめいしている。	NO_LABEL
また、富士山のふもとにある山梨県富士吉田市も火山防災専門対策室を新たに設置した。	また、ふじさんのふもとにあるやまなしけんふじよしだしもかざんぼーさいせんもんたいさくしつをあらたにせっちした。	NO_LABEL
東京都多摩地域の在日米軍横田基地は9月27日、降灰の影響に備えるように在日米軍に警告。	とーきょーとたまちーきのざいにちべいぐんよこたきちわくがつにじゅうしちにち、こーかいのえいきょーにそなえるよーにざいにちべいぐんにけいこく。	NO_LABEL
激しい降灰中には車両の使用を控え、火山灰を車両の空気取入口が吸入しないようにする措置を講じると共に、清掃作業に従事する際は防護具を着用しなければならないとした。	はげしいこーかいちゅーにわしゃりょーのしよーをひかえ、かざんばいをしゃりょーのくーきとりいれぐちがきゅーにゅーしないよーにするそちをこーじるとともに、せいそーさぎょーにじゅーじするさいわぼーごぐをちゃくよーしなければならないとした。	NO_LABEL
この中で、火山灰は非常に強い研磨性があり、タービンその他のエンジンに損傷を与える可能性があることを指摘、2010年のアイスランドの噴火とそれによって生じた航空機の大混乱を引き合いに出し、横田基地施設関係者および近隣住民は降灰予報が変更され影響を受ける可能性が出て来た場合、暖房器具やエアコンを止める準備をしておくべきであるとした。	このなかで、かざんばいわひじょーにつよいけんませいがあり、たーびんそのたのえんじんにそんしょーをあたえるかのーせいがあることをしてき、にせんじゅうねんのあいすらんどのふんかとそれによってしょーじたこーくーきのだいこんらんをひきあいにだし、よこたきちしせつかんけいしゃおよびきんりんじゅーみんわこうはいよほーがへんこーされえいきょーをうけるかのーせいがだしてきたばあい、だんぼーきぐやえあこんをとめるじゅんびをしておくべきであるとした。	NO_LABEL
日本国外メディアは多くが9月28日に速報を出しており、英国放送協会は「43人が死亡した1991年の雲仙・普賢岳の噴火以降初となる日本での噴火死者発生であり、噴火前になぜ警報が出されなかったのかはっきりしていない」、AP通信は「救助隊が30人以上の意識不明者を山頂付近で確認」、ABCニュースは「7人救助、32人行方不明」、ロイターは「火山噴火により死者1名、30名以上負傷」、CNNは「日本の火山で噴煙により31人が死亡」などと報じた。	NO_PRONOUNCE	NO_LABEL
9月29日、駐日アメリカ合衆国大使キャロライン・ケネディが噴火の被災者に対し犠牲者の冥福を祈る声明を発表。	くがつにじゅうきゅうにち、ちゅーにちあめりかがっしゅーこくたいしきゃろらいんけねでぃがふんかのひさいしゃにたいしぎせいしゃのめいふくをいのるせいめいをはっぴょー。	NO_LABEL
9月30日には韓国外交部長官の尹炳世が外務大臣岸田文雄に見舞いのメッセージを送った。	くがつさんじゅうにちにわかんこくがいこーぶちょーかんのゆんびょんせががいむだいじんきしだふみおにみまいのめっせーじをおくった。	NO_LABEL
噴火後、インターネット上で「民主党政権が2010年に行った事業仕分けで御嶽山が観測強化の対象から外されたことにより今回の被害が生じた」との情報が流布し、同党や火山監視に関する事業仕分けに携わった経済評論家の勝間和代が批判を受けるという事態が生じた。	NO_PRONOUNCE	NO_LABEL
しかし実際には御嶽山の監視縮小を事業仕分けで議論したことはなく、また事業仕分け後も24時間の監視体制が維持されており、上記の情報は事実と異なっていた。	しかしじっさいにわみたけさんのかんししゅくしょーをじぎょーしわけでぎろんしたことわなく、またじぎょーしわけごもにじゅうよじかんのかんしたいせいがいじされており、じょーきのじょーほーわじじつとことなっていた。	NO_LABEL
その後、これらは事実無根の捏造情報であると判明したものの、当時の自民党参議院議員片山さつきはこの事実誤認の情報に絡み自身のTwitterにて同趣旨のツイートを発信し、事実誤認を指摘する民主党と自民党の間で紛糾が発生、最終的に2014年10月2日に片山が民主党側に謝罪し問題のツイートを削除、民主党はこれを受け入れ決着した。	そのご、これらわじじつむこんのねつぞーじょーほーであるとはんめいしたものの、とーじのじみんとーさんぎーんぎーんかたやまさつきわこのじじつごにんのじょーほーにからみじしんのついったーにてどーしゅしのついーとをはっしんし、じじつごにんをしてきするみんしゅとーとじみんとーのまでふんきゅーがはっせい、さいしゅーてきににせんじゅうよねんじゅーがつふつかにかたやまがみんしゅとーがわにしゃざいしもんだいのついーとをさくじょ、みんしゅとーわこれをうけいれけっちゃくした。	NO_LABEL
2015年9月26日、麓の長野県王滝村にて犠牲者の遺族32家族が作る「山びこの会」が追悼式を行った。	NO_PRONOUNCE	NO_LABEL
また、2016年7月24日には被災者家族会により初の慰霊登山が行われ、10家族25人が長野県木曽町側から入山し8合目山小屋の女人堂で献花台に手を合わせた。	NO_PRONOUNCE	NO_LABEL
麓の王滝村にある松原スポーツ公園では、噴火3年目となる2017年9月27日に慰霊碑の除幕式と追悼式が行われた。	ふもとのおーたきむらにあるまつばらすぽーつこーえんでわ、ふんかさんねんめとなるにせんじゅうななねんくがつにじゅうしちにちにいれいひのじょまくしきとついとーしきがおこなわれた。	NO_LABEL
噴火自体は他山の例と比較した場合小規模で、1979年にほぼ同じ場所で発生した同規模の爆発では一人の死傷者も出さなかったにも関わらず、今回は日本国内では1991年の雲仙普賢岳以来、死者数は戦後最悪となる多数の人的被害を出し、登山客が巻き込まれたものとしては明治以来最悪となった。	ふんかじたいわたやまのれいとひかくしたばあいしょーきぼで、せんきゅうひゃくななじゅうきゅうねんにほぼおなじばしょではっせいしたどーきぼのばくはつでわひとりのししょーしゃもださなかったにもかかわらず、こんかいわにほんこくないでわせんきゅうひゃくきゅうじゅういちねんのうんぜんふげんだけいらい、ししゃすーわせんごさいあくとなるたすーのじんてきひがいをだし、とざんきゃくがまきこまれたものとしてわめいじいらいさいあくとなった。	NO_LABEL
これは、被害を増大する複数の要因が重なったためであった。	これわ、ひがいをぞーだいするふくすーのよーいんがかさなったためであった。	NO_LABEL
犠牲者5人の遺族は、国家賠償法に基づき国と長野県に対し総額1億5千万円の損害賠償を求める訴訟を、2017年1月25日に長野地方裁判所松本支部に起こした。	NO_PRONOUNCE	NO_LABEL
原告側は訴状で、気象庁などは噴火警戒レベルを1から2に引き上げる基準のひとつとして「火山性地震の回数が1日50回以上あったこと」を規定していたが、実際には噴火前の2014年9月10日に52回、翌11日に85回の火山性地震を観測したにも関わらず、噴火警戒レベルを引き上げることを怠ったことで、当日の噴火により山頂一帯にいた登山者が犠牲になった主原因のひとつとなったと指摘している。	NO_PRONOUNCE	NO_LABEL
また、長野県木曽建設事務所は気象庁との協定に基づいて御嶽山の火山活動の一部を適切に観測する義務を負っていたにも関わらず、御嶽山の2地点に設けた地震計の故障を知りながら放置し、故障が適切に修理されていれば噴火警戒レベルは上げられたと指摘している。	NO_PRONOUNCE	NO_LABEL
初弁論は2017年3月16日に行われ、原告側は遺族2人が意見陳述した。	はつべんろんわにせんじゅうななねんさんがつじゅうろくにちにおこなわれ、げんこくがわわいぞくふたりがいけんちんじゅつした。	NO_LABEL
一方で、国と県は2017年5月19日に提出された準備書面で「1日50回以上は目安」「噴火履歴やデータを考慮して総合的に判断した結果」「地震計の故障は放置していたわけではなく定期的な保守点検は実施していた」などとして原告側の訴えに反論し、請求の棄却を求めて行く方針を示した。	NO_PRONOUNCE	NO_LABEL
その後、2017年5月29日には噴火で負傷した負傷者2名も新たに原告団に加わり、一人当たり300万円の賠償を求める方針であることが報じられた。	NO_PRONOUNCE	NO_LABEL
