日通事件は、1968年に発覚した汚職事件。	にっつーじけんわ、せんきゅうひゃくろくじゅうはちねんにはっかくしたおしょくじけん。	NO_LABEL
日本通運が1940年以来独占輸送をしている米麦などの政府食糧について、国鉄をバックにした全国通運が新規参入を目指して猛運動を展開し、1967年4月の衆議院予算委員会で社会党の猪俣浩三、民社党の竹本孫一が「米麦輸送をなぜ日通にだけ請け負わせるのか」と攻撃した際に、社会党の大倉精一と自民党の池田正之輔に対し、議会発言をしないよう働きかける見返りとして、大倉には200万円、池田には300万円を渡したとされている。	NO_PRONOUNCE	NO_LABEL
後に検事総長になる吉永祐介が東京地検特捜部の検事として、日本通運前社長の福島敏行の取調べにあたった。	ごにけんじそうちょーになるよしながゆーすけがとーきょーちけんとくそーぶのけんじとして、にほんつーうんぜんしゃちょーのふくしまとしゆきのとりしらべにあたった。	NO_LABEL
井本台吉検事総長と東京地検次席の河井信太郎が対立した結果、河井が失脚し、東京地検特捜部がこの後8年の長い眠りについたきっかけとなる事件との評価もある。	いもとたいよしけんじそうちょーととーきょーちけんじせきのかわいのぶたろーがたいりつしたけっか、かわいがしっきゃくし、とーきょーちけんとくそーぶがこののちはちねんのながいねむりについたきっかけとなるじけんとのひょーかもある。	NO_LABEL
