中洲流は、博多祇園山笠の運営における構成単位である流の一つであり、福岡市博多区の中洲を区域とする。	なかすながれわ、はかたぎおんやまかさのうんえいにおけるこーせいたんいであるりゅーのひとつであり、ふくおかしはかたくのなかすをくいきとする。	NO_LABEL
「なかずながれ」と濁らせて発音することもある。	NO_PRONOUNCE	NO_LABEL
戦前から部分的に土居流の加勢として博多祇園山笠に参加していたものの、一つの流としての参加は戦後の昭和24年からとなる。	せんぜんからぶぶんてきにどいながれのかせいとしてはかたぎおんやまかさにさんかしていたものの、ひとつのりゅーとしてのさんかわせんごのしょーわにじゅうよねんからとなる。	NO_LABEL
統一の当番法被と水法被を着用、締め込みは紺や黒が多く見られる。	とーいつのとーばんはっぴとみずはっぴをちゃくよー、しめこみわこんやくろがおーくみられる。	NO_LABEL
舁き山と飾り山を立て、飾り山は中洲繁華街を貫く中洲大通りに毎年建てられている。	かきやまとかざりやまをたて、かざりやまわなかすはんかがいをつらぬくなかすおーどーりにまいとしたてられている。	NO_LABEL
中洲1 - 5丁目で順番に当番町を送り、山笠の運営にあたる。	NO_PRONOUNCE	NO_LABEL
中洲に本店を置く辛子明太子メーカーのふくやとは創業当時から縁が深い。	なかすにほんてんをおくからしめんたいこめーかーのふくやとわそーぎょーとーじからえんがふかい。	NO_LABEL
