世知原町は、長崎県の北部、北松浦半島内陸部にあった町である。	せちばるちょーわ、ながさきけんのほくぶ、きたまつうらはんとーないりくぶにあったまちである。	NO_LABEL
北松浦郡に属していた。	きたまつーらぐんにぞくしていた。	NO_LABEL
2005年4月1日に佐世保市に編入され自治体として消滅した。	にせんごねんしがつついたちにさせぼしにへんにゅーされじちたいとしてしょーめつした。	NO_LABEL
ここでは、現在の佐世保市の一地域としての世知原についても記述する。	ここでわ、げんざいのさせぼしのいちちいきとしてのせちばるについてもきじゅつする。	NO_LABEL
佐世保市の北隣、北松浦半島の内陸にあり、平成の大合併までは長崎県内では3町のみの海に面していない自治体であった。	NO_PRONOUNCE	NO_LABEL
町域は山間部のため、特に冬季は積雪や道路凍結が長崎県内としては多い。	ちょういきわさんかんぶのため、とくにとーきわせきせつやどーろとーけつがながさきけんないとしてわおーい。	NO_LABEL
世知原町は1889年の町村制施行時に1村単独で自治体として発足した為、大字は無し。	NO_PRONOUNCE	NO_LABEL
2005年佐世保市編入時に地名末尾の「免」の文字、及び小字を廃し、旧来の免の名称に「世知原町」を冠した町名に変更された。	NO_PRONOUNCE	NO_LABEL
公選による町長	こーせんによるちょーちょー	NO_LABEL
かつては北松炭田からの石炭産出で栄えたが、エネルギー革命の余波を受けて相次ぎ閉山、1970年には町内から炭鉱がなくなり、過疎化が進行。	かつてわほくしょうたんでんからのせきたんさんしゅつでさかえたが、えねるぎーかくめいのよはをうけてあいつぎへいざん、せんきゅうひゃくななじゅうねんにわちょーないからたんこーがなくなり、かそかがしんこー。	NO_LABEL
翌年には石炭輸送を行っていた国鉄世知原線も廃止された。	よくねんにわせきたんゆそーをおこなっていたこくてつせちばるせんもはいしされた。	NO_LABEL
その後は戦後盛んになった製茶業等の農業が産業の中心的位置を占めていた。	そのごわせんごさかんになったせいちゃぎょーとーののーぎょーがさんぎょーのちゅーしんてきいちをしめていた。	NO_LABEL
空港・鉄道なし。	NO_PRONOUNCE	NO_LABEL
かつては国鉄世知原線が通っていたが、1971年12月26日に全線廃止となった。	かつてわこくてつせちばるせんがかよっていたが、せんきゅうひゃくななじゅういちねんじゅーにがつにじゅうろくにちにぜんせんはいしとなった。	NO_LABEL
