XpanD 3Dは、スロベニアのX6D社が開発・販売するデジタル3Dシステムである。	NO_PRONOUNCE	NO_LABEL
導入の際に既存のスクリーンを流用でき、アクティブシャッター方式を採用している。	どーにゅーのさいにきそんのすくりーんをりゅーよーでき、あくてぃぶしゃったーほーしきをさいよーしている。	NO_LABEL
XpanD 3Dは、右目用と左目用の画像を交互に、高速でスクリーンへ表示する方式を採っている。	NO_PRONOUNCE	NO_LABEL
映像鑑賞時には、左右それぞれの目が意図された映像だけを見るように、アクティブシャッター型液晶（LCD)レンズを搭載した電子式眼鏡を着用する必要がある。	NO_PRONOUNCE	NO_LABEL
液晶レンズは投影されている画像に同期して曇ったり、透明になったりする。	えきしょーれんずわとーえいされているがぞーにどーきしてくもったり、とーめいになったりする。	NO_LABEL
映像とシャッターの同期を取るための信号を受け取る赤外線受信器が電子式眼鏡に内蔵される。	えいぞーとしゃったーのどーきをとるためのしんごーをうけとるせきがいせんじゅしんきがでんししきめがねにないぞーされる。	NO_LABEL
この技術はもともと米国NuVision社が開発したものであったが、X6D社が2008年に買い取った。	NO_PRONOUNCE	NO_LABEL
RealDなどの偏光方式と違い特殊なスクリーンの必要がなく、追加装置は映像と眼鏡のシャッターを同期させるためのトランスミッターだけであるため導入コストが低いというメリットがある。	りあるでぃなどのへんこーほーしきとちがいとくしゅなすくりーんのひつよーがなく、ついかそーちわえいぞーとめがねのしゃったーをどーきさせるためのとらんすみったーだけであるためどーにゅーこすとがひくいとゆうめりっとがある。	NO_LABEL
その代わり眼鏡に電子回路を内蔵するため、駆動用バッテリの寿命、洗浄や故障対応を含む保守など、眼鏡の単価が高くなるだけでなく、その維持にも費用がかかるというデメリットが生じる。	そのかわりめがねにでんしかいろをないぞーするため、くどーよーばってりのじゅみょー、せんじょーやこしょーたいおーをふくむほしゅなど、めがねのたんかがたかくなるだけでなく、そのいじにもひよーがかかるとゆうでめりっとがしょーじる。	NO_LABEL
また、必然的に内蔵部品の分だけ眼鏡が重くなってしまう。	また、ひつざんてきにないぞーぶひんのぶんだけめがねがおもくなってしまう。	NO_LABEL
使用後は指紋などで汚れた眼鏡のレンズを拭く必要があり、入場者の多い一部の劇場ではレンズ拭きが劇場スタッフだけでは間に合わず外部の清掃業者に委託している劇場もある。	しよーごわしもんなどでよごれためがねのれんずをふくひつよーがあり、にゅーじょーしゃのおーいいちぶのげきじょーでわれんずふきがげきじょーすたっふだけでわまにあわずがいぶのせいそーぎょーしゃにいたくしているげきじょーもある。	NO_LABEL
XpanDは導入コストの低さを背景に欧州およびアジアでシェアを急速に伸ばしており、特に日本では他方式の設置ベースを上回っているが、北米ではRealD・ドルビー3Dについで3番手である。	NO_PRONOUNCE	NO_LABEL
X6D社によれば、XpanDシステムを導入した映画館は50か国、2,700劇場を上回っているという。	NO_PRONOUNCE	NO_LABEL
☆印は館により、他3D方式を採用しているところもある	NO_PRONOUNCE	NO_LABEL
