オリヴィエ・クレマンは、正教に改宗したフランスの神学者。	NO_PRONOUNCE	NO_LABEL
パリの聖セルギイ正教神学院で教鞭をとった。	ぱりのひじりせるぎーせいきょーしんがくいんできょーべんをとった。	NO_LABEL
オリヴィエ・クレマンは1921年に南仏で生まれた。	NO_PRONOUNCE	NO_LABEL
若い頃は特に信仰を持っていなかった。	わかいころわとくにしんこーをもっていなかった。	NO_LABEL
成長するにつれ、ウラジーミル・ロースキイやニコライ・ベルジャーエフなどの、多くのフランス在住の正教神学者達から影響を受け、ついには、後に主教ネクタリイとなるエヴグラフ・コヴァレフスキイ神父の手で領洗した。	NO_PRONOUNCE	NO_LABEL
クレマンはパリ聖セルギイ正教神学院の教職員の一員となった。	くれまんわぱりひじりせるぎーせいきょーしんがくいんのきょーしょくいんのいちいんとなった。	NO_LABEL
膨大な著作に加えて、神学雑誌『交際』の編集にも当たった。	NO_PRONOUNCE	NO_LABEL
クレマンはまた、コンスタンディヌーポリ総主教アシナゴラス1世、ローマ教皇ヨハネ・パウロ2世、司祭であり神学者であったドゥミトル・スタニロアエ、修道士であるテゼ共同体のブラザー・ロジェなど、多くの傑出した人々と交流を行い、主要な精神的テーマについて対談を行った。	NO_PRONOUNCE	NO_LABEL
オリヴィエ・クレマンは2009年1月15日に永眠。	NO_PRONOUNCE	NO_LABEL
87歳であった。	はちじゅうななさいであった。	NO_LABEL
埋葬式はフランス、パリにて2009年1月20日に執り行われた。	まいそーしきわふらんす、ぱりにてにせんきゅうねんいちがつはつかにとりおこなわれた。	NO_LABEL
