南ベトナム解放民族戦線は、南ベトナムで1960年12月に結成された反サイゴン政権・アメリカ・反帝国主義を標榜する統一戦線組織。	NO_PRONOUNCE	NO_LABEL
略して解放戦線と呼ばれたが、越南共産を略したベトコンと通称されることも多い。	りゃくしてかいほーせんせんとよばれたが、こしなみきょーさんをりゃくしたべとこんとつーしょーされることもおーい。	NO_LABEL
「ベトコン」という名は元来アメリカ・ベトナム共和国側による蔑称だったもので、ベトナム共和国の大統領であったゴ・ディン・ジエムがその名付け親といわれる。	NO_PRONOUNCE	NO_LABEL
日本でも、報道などを通じて入ってきたものが一般化した。	にっぽんでも、ほーどーなどをつーじてはいってきたものがいっぱんかした。	NO_LABEL
中国共産党が正式な略称として「中共/チョンコン」を自称したことは無い。	NO_PRONOUNCE	NO_LABEL
政治団体―統一戦線組織としての略称は「解放戦線」、その軍事部門の通称は「解放軍」である。	NO_PRONOUNCE	NO_LABEL
「解放勢力」の訳語は、軍を意味する英語の「フォース」を勢力と訳したものである。	NO_PRONOUNCE	NO_LABEL
またベトナム戦争期を中心に「南ベトナム民族解放戦線」という表記も使われていたが、これは誤訳である。	NO_PRONOUNCE	NO_LABEL
民族戦線は、コミンテルンが創始した人民戦線という抵抗方針のベトナム版であり、共産主義者だけでなく民族主義者、愛国者も含めた統一戦線でベトナムの独立/統一を目指そうという意図があった。	NO_PRONOUNCE	NO_LABEL
アメリカ兵は「」の頭文字をとった「」、もしくはVとCのNATOフォネティックコードであるヴィクター・チャーリーの後半をとったチャーリーと呼んだが、このチャーリーもジャップのような蔑称の意味を持つ。	NO_PRONOUNCE	NO_LABEL
英語での正式な名称は「」か「」であり、その略称はNLF（）である。	NO_PRONOUNCE	NO_LABEL
1950年代後半のベトナム共和国は政情が不安定であり、貧富格差の問題や政権腐敗、仏教徒に対する弾圧などが生じていた。	せんきゅうひゃくごじゅうねんだいこーはんのべとなむきょーわこくわせいじょーがふあんていであり、ひんぷかくさのもんだいやせいけんふはい、ぶっきょーとにたいするだんあつなどがしょーじていた。	NO_LABEL
ゴ・ディン・ジエム大統領に反発する勢力も増加していた。	ごでぃんじえむだいとーりょーにはんぱつするせいりょくもぞーかしていた。	NO_LABEL
また、北ベトナムはジュネーヴ協定に基づく統一選挙が実施されなかったため、武力闘争によるベトナム統一を検討し始めた。	NO_PRONOUNCE	NO_LABEL
これらにより、1960年12月20日、タイニン省チョウタン県タンラップ村において、元ベトミン等を中心に南ベトナム政府に対する反政府組織として、南ベトナム解放民族戦線が結成された。	これらにより、せんきゅうひゃくろくじゅうねんじゅーにがつはつか、たいにんしょーちょうたんけんたんらっぷむらにおいて、もとべとみんとーをちゅーしんにみなみべとなむせいふにたいするはんせいふそしきとして、みなみべとなむかいほーみんぞくせんせんがけっせいされた。	NO_LABEL
議長の席は空席のまま、副議長兼書記長をフイン・タン・ファトが務めた。	NO_PRONOUNCE	NO_LABEL
1962年2月16日-3月3日、戦線の第1回大会が開催される。	NO_PRONOUNCE	NO_LABEL
この大会で中央委員会が設置され、31人が選出された。	このたいかいでちゅーおーいーんかいがせっちされ、さんじゅういちにんがせんしゅつされた。	NO_LABEL
また、グエン・フー・ト弁護士が中央委員会幹部会議長に選出された。	また、ぐえんふーとべんごしがちゅーおーいーんかいかんぶかいぎちょーにせんしゅつされた。	NO_LABEL
解放戦線は実質的にベトナム労働党が主導していたが、ジエム政権などに反発する仏教徒や自由主義者、華僑なども多数参加していた。	かいほーせんせんわじっしつてきにべとなむろーどーとーがしゅどーしていたが、じえむせいけんなどにはんぱつするぶっきょーとやじゆーしゅぎしゃ、かきょーなどもたすーさんかしていた。	NO_LABEL
これにより、ベトナム共和国国内に内戦状態が発生し、ベトナム戦争が始まった。	これにより、べとなむきょーわこくこくないにないせんじょーたいがはっせいし、べとなむせんそーがはじまった。	NO_LABEL
南ベトナム軍のほか、アメリカ軍・韓国軍などと戦ったが、圧倒的かつ近代的な戦力を有する敵に対してゲリラ戦で臨み、一定の損害を与えた。	NO_PRONOUNCE	NO_LABEL
弾薬や燃料以外の補給体制が極めて貧弱であったが、農村を遊撃根拠地とすることで、物資の現地調達や現地徴兵により長期戦を戦った。	だんやくやねんりょーいがいのほきゅーたいせいがきわめてひんじゃくであったが、のーそんをゆーげきこんきょちとすることで、ぶっしのげんちちょーたつやげんちちょーへいによりちょーきせんをたたかった。	NO_LABEL
しかし、捕虜となった米兵や南ベトナム兵を過酷に虐待し、サイゴン政権の情報員や密告者とみなした市民や動揺分子とみなした兵士を人民裁判で即刻処刑するなども行い、テト攻勢でフエを一時占領した際にもサイゴン政権の官吏・関係者・関係の無い民間人などを大量処刑し、無差別テロを行ったとされる。	NO_PRONOUNCE	NO_LABEL
また、南ベトナム政権に揺さぶりをかけるため、各地で一般市民を巻き込む無差別爆弾テロ事件も数多く起こした。	また、みなみべとなむせいけんにゆさぶりをかけるため、かくちでいっぱんしみんをまきこむむさべつばくだんてろじけんもかずおーくおこした。	NO_LABEL
1968年2月12日のフォンニィ・フォンニャットの虐殺はベトコンによる謀略であるとする主張が韓国軍からなされているが、韓国軍からの報告を受け取ったアメリカ軍では、アメリカ軍監察官のロバート・モレヘッド・コック大佐による調査が行われ、1970年1月10日に韓国海兵隊による虐殺事件であったことを明らかにした報告書が提出された。	NO_PRONOUNCE	NO_LABEL
ベトナム統一後、隣国のカンボジアで親中のポル・ポト政権が誕生し、中国が南部ベトナムへの干渉を図った事で、北ベトナム政府が、中国の影響力が強い南部独自の軍事力が干渉を受ける危険性を危惧して、軍事部門は北ベトナム軍に吸収し、組織は「」に合流する形で解体した。	NO_PRONOUNCE	NO_LABEL
解放戦線兵士は北の指導部から疎んじられるようになり、解放戦線議長のグエン・フー・トが僅かに名誉職である国会議長に就任した程度で、中には反発する元兵士も出た。	かいほーせんせんへいしわきたのしどーぶからうとんじられるよーになり、かいほーせんせんぎちょーのぐえんふーとがわずかにめいよしょくであるこっかいぎちょーにしゅーにんしたていどで、なかにわはんぱつするもとへいしもでた。	NO_LABEL
南ベトナムの民衆はおろかサイゴン政権の要人にも秘密メンバーを獲得していたことでも知られており、今尚メンバーだった事を公表していない人々が多数存在している。	みなみべとなむのみんしゅーわおろかさいごんせいけんのよーじんにもひみつめんばーをかくとくしていたことでもしられており、いまなおめんばーだったことをこーひょーしていないひとびとがたすーそんざいしている。	NO_LABEL
1960年12月の結成大会時は、暫定執行委員会が指導部の役割を果たし、委員長と総書記が置かれたが、議長は空席とされた。	せんきゅうひゃくろくじゅうねんじゅーにがつのけっせいたいかいじわ、ざんていしっこーいーんかいがしどーぶのやくわりをはたし、いーんちょーとそーしょきがおかれたが、ぎちょーわくーせきとされた。	NO_LABEL
1962年2-3月、第1回全国大会が開催され、52人で構成する中央委員会と、最高機関としての幹部会が設立され、幹部会議長、幹部会副議長の職が置かれた。	NO_PRONOUNCE	NO_LABEL
また、書記局が設立され、書記長職が置かれた。	また、しょききょくがせつりつされ、しょきちょーしょくがおかれた。	NO_LABEL
中央委員会の付属機関として、軍事委員会、公共保健衛生委員会、情報・文化・教育委員会、対外関係委員会、経済問題委員会、通信・電機委員会が設けられた。	NO_PRONOUNCE	NO_LABEL
戦線は、諸抵抗組織の緩やかな連合体であり、以下の政党・団体等が参加した。	NO_PRONOUNCE	NO_LABEL
