古賀 亮一は、日本の男性漫画家。	こがりょーいちわ、にっぽんのだんせいまんがか。	NO_LABEL
福岡県夜須町出身。	ふくおかけんやすちょーしゅっしん。	NO_LABEL
佐賀大学卒。	さがだいがくそつ。	NO_LABEL
東京都小金井市在住。	とーきょーとこがねいしざいじゅー。	NO_LABEL
大学では漫画研究会に所属していた。	だいがくでわまんがけんきゅーかいにしょぞくしていた。	NO_LABEL
阪神タイガースのファン。	はんしんたいがーすのふぁん。	NO_LABEL
代表作の『ニニンがシノブ伝』はアニメ化もされた。	NO_PRONOUNCE	NO_LABEL
オリジナル作品のほとんどは一話完結型のドタバタコメディである。	おりじなるさくひんのほとんどわいちわかんけつがたのどたばたこめでぃである。	NO_LABEL
作品の主人公は大抵女性であり、またエルフ、忍者、アンドロイドなど、普通の人間ではないことが多い。	さくひんのしゅじんこーわたいていじょせいであり、またえるふ、にんじゃ、あんどろいどなど、ふつーのにんげんでわないことがおーい。	NO_LABEL
作品の舞台には『桃太郎』、『西遊記』といった古典からの取材も見られる。	NO_PRONOUNCE	NO_LABEL
作中では女性同士の同性愛、いわゆる百合の描写が好んで多用されるが、トーンはあくまでギャグ調である。	さくちゅーでわじょせいどーしのどーせいあい、いわゆるゆりのびょーしゃがこのんでたよーされるが、とーんわあくまでぎゃぐちょーである。	NO_LABEL
特に『ゲノム』以降は、圧倒的なネーム量とハイテンションな台詞の掛け合いによるギャグが特徴的で、独自の作風を確立している。	NO_PRONOUNCE	NO_LABEL
漫画、アニメ、特撮、プロレスなどからのパロディも多いが、リアルタイムのものより、昭和50 - 60年頃のものからの引用が多いことが特色。	NO_PRONOUNCE	NO_LABEL
短編漫画、とりわけ8ページものを得意とする。	NO_PRONOUNCE	NO_LABEL
猿を好み、作品に頻繁に登場させている。	さるをこのみ、さくひんにひんぱんにとーじょーさせている。	NO_LABEL
絵柄は変遷があり、『新ゲノム』など近作では以前より頭身が大きくなってきている。	NO_PRONOUNCE	NO_LABEL
また多くの女性キャラクターは、丁寧でかわいらしい絵でありながら肉感的に描かれていることが特徴。	またおーくのじょせいきゃらくたーわ、ていねいでかわいらしいえでありながらにっかんてきにえがかれていることがとくちょー。	NO_LABEL
同じ九州出身の吉崎観音とはコミックマーケットで知り合い、商業誌の世界に誘われた。	おなじきゅーしゅーしゅっしんのよしざきみねとわこみっくまーけっとでしりあい、しょーぎょーしのせかいにさそわれた。	NO_LABEL
