アナス・アチャバールは、オランダ・南ホラント州デン・ハーグ出身のモロッコ系オランダ人のサッカー選手。	NO_PRONOUNCE	NO_LABEL
PECズヴォレ所属。	NO_PRONOUNCE	NO_LABEL
ポジションはフォワード。	ぽじしょんわふぉわーど。	NO_LABEL
オランダ国内でも人によってアシャバール、アハバールとも発音されるが、本人はアチャバールと発音している。	おらんだこくないでもひとによってあしゃばーる、あはばーるともはつおんされるが、ほんにんわあちゃばーるとはつおんしている。	NO_LABEL
VCSを経て8歳でフェイエノールト･ユースに移り、カリム・レキク、テレンス・コンゴロ、カイル・エベシリオ、トニー・フィリェナ、ジャン・パウル・ボエチウスと共にユースの各世代を経て2010-11シーズンにU17の国内リーグで得点王と最優秀選手になり、国外の多くのビッグクラブから関心を集める中でフェイエノールトと3年のプロ契約を結んだ。	NO_PRONOUNCE	NO_LABEL
2011-12シーズンはU19の試合に出場しながらトップチームのトレーニングにも参加し度々ベンチ入り。	NO_PRONOUNCE	NO_LABEL
2011年8月28日にSCヘーレンフェーンとのホームゲームにおいてケルヴィン・レールダムとの交代でトップチーム初出場。	NO_PRONOUNCE	NO_LABEL
9月20日のKNVBカップの AGOVVとのホームゲームでは途中出場で4点目となるゴールを決めて、トップチームでの初ゴールを記録。	NO_PRONOUNCE	NO_LABEL
2012-13シーズンは正式にトップチームに昇格。	NO_PRONOUNCE	NO_LABEL
シーズン開始前にはストライカーの補強が進まないチームにおいて ロナルド・クーマン監督は「このままならアチャバールが第1ストライカー」とコメント	NO_PRONOUNCE	NO_LABEL
しかしフェイエノールトが移籍市場の最終日にグラツィアーノ・ペッレのレンタル移籍に成功したことで、このシーズンもベンチからの途中出場が続く。	しかしふぇいえのーるとがいせきしじょーのさいしゅーびにぐらつぃあーのぺっれのれんたるいせきにせいこーしたことで、このしーずんもべんちからのとちゅーしゅつじょーがつずく。	NO_LABEL
8月23日のACスパルタ・プラハとのUEFAヨーロッパリーグ・プレイオフのホームゲームではロスタイムに右足でのヒールキックでチームを救う同点ゴールを決め、欧州戦での初ゴールを記録した。	NO_PRONOUNCE	NO_LABEL
しかし次第にクーマンの構想から外れ、2013-14シーズンはペッレ、ミチェル・テ・フレーデに続く3番手としてフェイエノールトでの出場機会の見込みがないためにドイツ2部のアルミニア・ビーレフェルトにレンタルされた。	NO_PRONOUNCE	NO_LABEL
フェイエノールトに戻り、契約最終年となった2014-15シーズンも、新加入のコリン・カジム・リチャーズとテ・フレーデの壁が厚く、トップチームでの出場機会は得られずリザーブでサイドや中盤での出場が続いた。	NO_PRONOUNCE	NO_LABEL
しかしフレッド･ルッテン監督のもとで辛抱強くトレーニングを続け、シーズン後半戦からは途中出場でプレーする機会が増加。	NO_PRONOUNCE	NO_LABEL
3月15日のFCドルドレヒトとのアウェイゲームで79分から途中出場し、ついに本来のポジションで起用されると、1-1で迎えたロスタイムにヘディングシュートを決めてエールディヴィジ初ゴール、チームに勝利をもたらした。	NO_PRONOUNCE	NO_LABEL
さらにカジム・リチャーズが怪我でスタメンを外れた3月22日のPSVアイントホーフェンとのホームゲームでスタメン起用されると、美しいボレーによる2ゴールでチームを勝利に導き、オランダの現地メディアVoetbal Internationalによってこの週のベスト･プレイヤーに選ばれている。	NO_PRONOUNCE	NO_LABEL
この試合の1点目のボレーシュートはシーズン後にフェイエノールトのシーズン･ベスト･ゴールに選ばれている。	NO_PRONOUNCE	NO_LABEL
その成長と価値が認められ、5月13日に2017年までとなる契約延長を結んだ。	そのせいちょーとかちがみとめられ、ごがつじゅうさんにちににせんじゅうななねんまでとなるけいやくえんちょーをむすんだ。	NO_LABEL
2014-15シーズン終盤、解任されたフレッド･ルテンに代わって前倒しで監督に就任したジョヴァンニ･ファン･ブロンクホルストはヘーレンフェーンとの欧州戦PO第2戦でカジム･リチャーズではなくアチャバールをスタメン起用。	NO_PRONOUNCE	NO_LABEL
アチャバールは先制ゴールを決めるもチームは2試合を通してヘーレンフェーンに敗れたが、ファン･ブロンクホルストは「アナスは良くやった。	NO_PRONOUNCE	NO_LABEL
彼はおそらく我々の持つ最高のストライカー」とそのプレーを讃えた。	NO_PRONOUNCE	NO_LABEL
だが希望を持って迎えた新シーズンもファン･ブロンクホルストの第1候補になることは無く、ディルク・カイト、ミヒル・クラーメルの加入でベンチにも入れない試合が続いた。	NO_PRONOUNCE	NO_LABEL
2016年冬にカジム・リチャーズが移籍したことでようやくベンチ入りできるようになり、2016年1月28日のsc ヘーレンフェーン戦ではオーバーヘッドキックでゴールを決め、シーズン後にフェイエノールトのシーズンベストゴールに選ばれた。	NO_PRONOUNCE	NO_LABEL
しかしその後もファン･ブロンクホルストは「もっとフィットしないといけない」とアチャバールの起用に慎重な姿勢を崩さず、結局3番手のままシーズンを終える。	NO_PRONOUNCE	NO_LABEL
「監督からは出場時間を得られないことについて説明は全くなかったし、それほど話もしていない」とアチャバール自身が語るなど、翌シーズンに向けても出場機会を得られる見込みが無かったため、契約1年を残してPEC ズヴォレへの移籍が発表された。	NO_PRONOUNCE	NO_LABEL
契約期間は4年。	けいやくきかんわよんねん。	NO_LABEL
オランダ代表の17歳以下ユース代表で9番を背負ったアチャバールはフェイエノールト･ユースを中心としたチームで得点を量産。	NO_PRONOUNCE	NO_LABEL
2011年5月にセルビアで行われた欧州選手権では数多くのアシストを記録し、欧州制覇に貢献した。	にせんじゅういちねんごがつにせるびあでおこなわれたおーしゅーせんしゅけんでわかずおーくのあしすとをきろくし、おーしゅーせいはにこーけんした。	NO_LABEL
テクニックに優れ、特に左足から繰り出されるトリッキーなヒールキックがアチャバールの代名詞である。	てくにっくにすぐれ、とくにひだりあしからくりだされるとりっきーなひーるきっくがあちゃばーるのだいめいしである。	NO_LABEL
サイドでもプレーできるドリブル能力と力強いシュート、さらにポストプレイヤーとして周りを使う視野と技術を備えているが小柄なために競り合いで力負けするシーンも多い。	さいどでもぷれーできるどりぶるのーりょくとちからずよいしゅーと、さらにぽすとぷれいやーとしてまわりをつかうしやとぎじゅつをそなえているがこがらなためにせりあいでちからまけするしーんもおーい。	NO_LABEL
2011年の17歳以下欧州選手権で与えたインパクトによって、UEFA会長 ミシェル・プラティニは表彰式でアチャバールにメダルを渡す際に「君は素晴らしいフットボール選手だ」と讃えた。	NO_PRONOUNCE	NO_LABEL
同大会後にはイタリア･メディアに「クラース・ヤン・フンテラールとロビン・ファン・ペルシの後継者としての素質を持ったFW」と書かれている。	NO_PRONOUNCE	NO_LABEL
2011-12シーズンにフェイエノールトでプレーしたヨン・グイデッティはそのシーズン後に「技術的には、欧州ではアナス以上の選手はほとんどいない」と語った。	NO_PRONOUNCE	NO_LABEL
ロナルド･クーマンはトレーニングでのアチャバールにプロとしての姿勢を感じず、デビュー後次第に冷遇していったが、ビーレフェルトでの経験を経てチームのために汗を流すハードワークの精神を身につけたアチャバールをフレッド･ルテンは評価し、2014-15シーズン後半から次第に出場機会を与えていった。	NO_PRONOUNCE	NO_LABEL
