『BUGRIGHT』は、UVERworldの2枚目のオリジナルアルバム。	NO_PRONOUNCE	NO_LABEL
2007年2月21日にgr8!recordsから発売された。	NO_PRONOUNCE	NO_LABEL
今作は当初2007年1月17日に発売が予定されていたが、諸般の事情があり発売が延期されていた作品である。	こんさくわとーしょにせんななねんいちがつじゅうしちにちにはつばいがよていされていたが、しょはんのじじょーがありはつばいがえんきされていたさくひんである。	NO_LABEL
アルバムタイトルの意味は『Bug』と『Right』を合わせて『BUGRIGHT』とした造語で、『自分が信じて選んだ夢が間違っているといわれようが、正解にするのは結局その人次第。	NO_PRONOUNCE	NO_LABEL
』という意味が込められている。	NO_PRONOUNCE	NO_LABEL
今作は店頭到着日またオリコンウィークリーチャート集計1日目である火曜日は第3位、翌日の集計2日目にして発売日である水曜日では自身初となる首位を獲得するなど、好調なスタートを切った。	こんさくわてんとーとーちゃくびまたおりこんうぃーくりーちゃーとしゅーけいついたちであるかよーびわだいさんい、よくじつのしゅーけいふつかにしてはつばいびであるすいよーびでわじしんはつとなるしゅいをかくとくするなど、こーちょーなすたーとをきった。	NO_LABEL
その際、ボーカルTAKUYA∞は公式サイト上にて喜びのコメントを発表している。	そのさい、ぼーかるたくやわこーしきさいとじょーにてよろこびのこめんとをはっぴょーしている。	NO_LABEL
週間チャートでは、第2位を記録。	しゅーかんちゃーとでわ、だいにーをきろく。	NO_LABEL
これにより、2006年に発表した1stアルバム『Timeless』の最高5位、初動売上枚数を大きく更新した。	NO_PRONOUNCE	NO_LABEL
本作は、初回生産限定盤と通常盤の2形態での発売。	NO_PRONOUNCE	NO_LABEL
ジャケットも、初回生産限定盤はイラストジャケット・通常盤はアーティスト写真とそれぞれ異なっている。	NO_PRONOUNCE	NO_LABEL
また、初回限定版のCDには6thシングル「君の好きなうた」のアコースティックバージョンを、DVDには4thシングル「Colors of the Heart」から6thシングル「君の好きなうた」までのPVと今作の製作ドキュメンタリー、また同日発売となったアーティストブック「CLASS WORD」の撮影ドキュメンタリーを収録している。	NO_PRONOUNCE	NO_LABEL
本作のジャケット裏にTAKUYA∞の「自分で選んだ夢を正解にするため、毎日“今日が人生最後の日”と想って、後悔のないよう突き進みたい。	NO_PRONOUNCE	NO_LABEL
」というTAKUYA∞自身の座右の銘が書かれてある。	NO_PRONOUNCE	NO_LABEL
前作『Timeless』が、恋愛について歌ったものが多いのに対して、今作は人生や生と死をテーマにしていると、TAKUYA∞は語っている。	NO_PRONOUNCE	NO_LABEL
また、UVERworldのアルバムでは初の年間オリコンチャートTOP100位以内を達成した。	また、うーばーわーるどのあるばむでわはつのねんかんおりこんちゃーとてぃーおーぴーひゃくいいないをたっせいした。	NO_LABEL
このアルバムの中に入っているシングル曲はすべてシングルバージョンで収録されている。	このあるばむのなかにはいっているしんぐるきょくわすべてしんぐるばーじょんでしゅーろくされている。	NO_LABEL
キャッチコピーは、『"自分が信じて選んだ夢を正解にするため、毎日“今日が人生最後の日”と想って、後悔のないよう突き進みたい。	NO_PRONOUNCE	NO_LABEL
"』	NO_PRONOUNCE	NO_LABEL
全曲作詞：TAKUYA∞、編曲：UVERworld、平出悟	NO_PRONOUNCE	NO_LABEL
