NONAGONは、大韓民国のファッションブランド。	NO_PRONOUNCE	NO_LABEL
本ブランドは2014年秋、YGエンターテインメントと第一毛織の合弁企業・NATURAL9によって立ち上げられた。	NO_PRONOUNCE	NO_LABEL
YGエンターテインメントの創業者であるヤン･ヒョンソクがビジュアルクリエーションとマーケティングを統括しており、音楽とも融合したストリートファッションを志向している。	NO_PRONOUNCE	NO_LABEL
ブランドの名前は英語で「九角形」を意味しており、多様性と無限の成長をイメージして命名された。	NO_PRONOUNCE	NO_LABEL
2014年、立ち上げ。	にせんじゅうよねん、たちあげ。	NO_LABEL
9月より、ギャラリア百貨店などにポップアップ・ストアをオープンし、商品の一部先行販売を実施する。	くがつより、ぎゃらりあひゃっかてんなどにぽっぷあっぷすとあをおーぷんし、しょーひんのいちぶせんこーはんばいをじっしする。	NO_LABEL
2015年、春夏シーズンより世界に向けて商品の販売を開始。	にせんじゅうごねん、はなしーずんよりせかいにむけてしょーひんのはんばいをかいし。	NO_LABEL
2015年、「15-16年秋冬コレクション」と銘打って、9月に東京、10月に大阪でポップアップ・ストアをオープンし、日本進出を果たす。	NO_PRONOUNCE	NO_LABEL
2016年、日本公式ECサイトを開設する。	にせんじゅうろくねん、にっぽんこーしきいーしーさいとをかいせつする。	NO_LABEL
