ザナト・ザキヤノフは、カザフスタンのプロボクサー。	ざなとざきやのふわ、かざふすたんのぷろぼくさー。	NO_LABEL
ジャンブール州ブラゴベシチェンカ出身。	じゃんぶーるしゅーぶらごべしちぇんかしゅっしん。	NO_LABEL
元WBA世界バンタム級スーパー王者。	もとだぶりゅーびーえーせかいばんたむきゅーすーぱーおーじゃ。	NO_LABEL
リッキー・ハットンのハットンプロモーションズ所属。	りっきーはっとんのはっとんぷろもーしょんずしょぞく。	NO_LABEL
2007年8月3日、シムケントでデビュー戦を行い、3-0の判定勝ちを収めた。	NO_PRONOUNCE	NO_LABEL
2008年10月4日、ラメンスコエのスポーツ・パレスでサヒブ・ウサロフと対戦し、プロ初黒星となる8回0-3の判定負けを喫した。	NO_PRONOUNCE	NO_LABEL
2010年12月11日、タシュケントでバヒト・アブドゥラヒモフとABCOコンチネンタルバンタム級王座を行い、3-0の判定勝ちを収め王座獲得に成功した。	NO_PRONOUNCE	NO_LABEL
2011年5月20日、マルティニーでベンジャミン・ピテルとEBU-EEバンタム級王座決定戦を行い、2回2分20秒TKO勝ちを収め王座獲得に成功した。	NO_PRONOUNCE	NO_LABEL
2012年1月27日、ペトロパブルのスポーツパレス“ゼニス”でルックディアウ・トー・ブワマーッと対戦し、初回2分0秒KO勝ちを収めABCOコンチネンタル王座初防衛に成功した。	NO_PRONOUNCE	NO_LABEL
2014年4月26日、シェフィールドのでEBU欧州バンタム級王者カリム・ゲルフィと対戦し、5回2分39秒KO勝ちを収め王座獲得に成功した。	NO_PRONOUNCE	NO_LABEL
2014年9月10日、ミンスクのムーラン・ルージュ・クラブでガギ・エディシェラシュヴィリとEPBCバンタム級王座決定戦を行い、初回2分29秒KO勝ちを収め王座獲得に成功した。	NO_PRONOUNCE	NO_LABEL
2015年5月9日、ヴラツァでヘクター・ローランド・グスマンとWBAインターナショナルバンタム級王座決定戦を行い、6回KO勝ちを収め王座獲得に成功した。	NO_PRONOUNCE	NO_LABEL
2015年6月5日、WBAは最新ランキングを発表し、ザキヤノフをWBA世界バンタム級2位にランクインした。	にせんじゅうごねんろくがついつか、だぶりゅーびーえーわさいしんらんきんぐをはっぴょーし、ざきやのふをだぶりゅーびーえーせかいばんたむきゅーにーにらんくいんした。	NO_LABEL
2015年11月7日、モンテカルロのサル・デゼトワールでWBA世界バンタム級暫定王者のヨンフレス・パレホと対戦し、12回2-1の判定勝ちを収め王座獲得に成功した。	NO_PRONOUNCE	NO_LABEL
2017年2月10日、オハイオ州トレドのでロバート・イースター・ジュニアVSルイス・クルスの前座で、WBA世界バンタム級スーパー王者のルーシー・ウォーレンと王座統一戦を行い、12回2-1の判定勝ちを収め王座統一に成功、ザキヤノフが1年3ヵ月保持していた暫定王座はスーパー王座を吸収する形で消滅した。	NO_PRONOUNCE	NO_LABEL
この試合でザキヤノフは3万ドル、ウォーレンは15万ドルのファイトマネーを稼いだ。	NO_PRONOUNCE	NO_LABEL
3月17日、WBAはウォーレン戦の勝利を評価しWBAの2017年2月度の月間優秀選手賞に選出した。	さんがつじゅうしちにち、だぶりゅーびーえーわうぉーれんせんのしょーりをひょーかしだぶりゅーびーえーのにせんじゅうななねんにがつどのげっかんゆーしゅーせんしゅしょーにせんしゅつした。	NO_LABEL
2017年10月21日、ベルファストのSSEアリーナでIBF世界バンタム級王者のライアン・バーネットと王座統一戦を行い、12回0-3の判定負けを喫し王座統一に失敗、WBA王座の2度目の防衛に失敗し王座をバーネットに明け渡すと共にIBF王座の獲得に失敗した。	NO_PRONOUNCE	NO_LABEL
