アソル公爵（）は、スコットランド貴族の公爵位。	あそるこーしゃくかっこわ、すこっとらんどきぞくのこーしゃくい。	NO_LABEL
タリバーディン伯爵、アソル伯爵、アソル侯爵などを前身とし、第2代アソル侯爵ジョン・マレーが1703年に叙されたのに始まる。	たりばーでぃんはくしゃく、あそるはくしゃく、あそるこーしゃくなどをぜんしんとし、だいにだいあそるこーしゃくじょんまれーがせんななひゃくさんねんにじょされたのにはじまる。	NO_LABEL
マレー家はスコットランドの氏族の一つの族長の家柄である。	まれーかわすこっとらんどのしぞくのひとつのぞくちょーのいえがらである。	NO_LABEL
マレー家が貴族に叙されたのはジョン・マレーが、1604年4月25日にタリバーディンのマレー卿、1606年7月10日にタリバーディン伯爵、マレー＝ガスク＝バルクヒダー卿という3つのスコットランド貴族爵位に叙されたのに始まる。	NO_PRONOUNCE	NO_LABEL
その息子2代タリバーディン伯ウィリアム・マレーは、第5代ジェイムズ・ステュワートの娘ドロシアと結婚した。	NO_PRONOUNCE	NO_LABEL
ウィリアムとドロシアは、タリバーディンについては弟パトリック・マレーに譲るので、アソル伯爵領を息子ジョン・マレーに欲しいと国王チャールズ1世に要求した。	NO_PRONOUNCE	NO_LABEL
国王はそれを認め、ウィリアムをタリバーディン伯爵とマレー＝ガスク＝バルクヒダー卿から解き、代わりに1628年1月30日にパトリックに対して同じ爵位を新規に与え、また同年2月17日にジョンをに叙した。	NO_PRONOUNCE	NO_LABEL
しかし結局、初代アソル伯の息子で2代アソル伯爵位を継承したが1669/70年1月に分流のタリバーディン伯爵位を継承している。	NO_PRONOUNCE	NO_LABEL
さらに1676年2月7日にアソル侯爵、タリバーディン伯爵、バルクヒダー子爵、マレー＝バルベニー＝ガスク卿という四つのスコットランド貴族爵位を新規に叙された。	NO_PRONOUNCE	NO_LABEL
その息子の2代アソル侯爵ジョン・マレーは、1703年5月6日にアソル公爵、タリバーディン侯爵、ストラステイ＝ストラスエーデル伯爵、バルクヒダー＝グレナルモンド＝グレンライオン子爵、マレー＝バルベニー＝ガスク卿という5つのスコットランド貴族爵位を与えられた。	NO_PRONOUNCE	NO_LABEL
初代公は7代ダービー伯ジェイムズ・スタンリーの娘アメリアと結婚していたため、夫妻の三男で第2代アソル公爵位を継承したは、1736年に第10代ダービー伯爵が死去した際にによるイングランド貴族爵位であるを継承している。	NO_PRONOUNCE	NO_LABEL
加えてこの際にマン島とその領主の称号も継承した。	くわえてこのさいにまんとーとそのりょーしゅのしょーごーもけいしょーした。	NO_LABEL
初代公の六男はジャコバイトの王「チャールズ3世」に与してジャコバイト軍の指揮をとったことで知られる。	NO_PRONOUNCE	NO_LABEL
2代公が死去した時、生存している男子がなかったため、このジョージ・マレー卿の息子であるジョン・マレーが3代アソル公爵位を継承した。	NO_PRONOUNCE	NO_LABEL
彼は2代公の娘で8代ストレンジ男爵位を継承したと従兄妹同士の結婚をした。	かれわにだいおーやけのむすめではちだいすとれんじだんしゃくいをけいしょーしたとじゅーけいいもーとどーしのけっこんをした。	NO_LABEL
夫妻は1765年にマン島とマン卿の称号を英国王室に売却している。	ふさいわせんななひゃくろくじゅうごねんにまんとーとまんきょーのしょーごーをえいこくおーしつにばいきゃくしている。	NO_LABEL
夫妻の長男である4代公ジョン・マレーは、1786年8月16日にグレートブリテン貴族爵位ストレンジ伯爵とグロスター州におけるスタンリーのマレー男爵に叙された。	ふさいのちょーなんであるよんだいおーやけじょんまれーわ、せんななひゃくはちじゅうろくねんはちがつじゅうろくにちにぐれーとぶりてんきぞくしゃくいすとれんじはくしゃくとぐろすたーしゅーにおけるすたんりーのまれーだんしゃくにじょされた。	NO_LABEL
4代公の死後はその長男が5代公爵位を継承したが、5代公には子供がなかったため、甥にあたるジョージ・マレーが6代公を継承した。	NO_PRONOUNCE	NO_LABEL
彼の父で4代公の次男にあたるは、1821年7月9日に連合王国貴族爵位パース州におけるグレンライオンのグレンライオン男爵に叙されており、そのためジョージは6代公を継承する前に第2代グレンライオン男爵位を継承していた。	かれのちちでよんだいおーやけのじなんにあたるわ、せんはっぴゃくにじゅういちねんしちがつここのかにれんごーおーこくきぞくしゃくいぱーすしゅーにおけるぐれんらいおんのぐれんらいおんだんしゃくにじょされており、そのためじょーじわろくだいおーやけをけいしょーするまえにだいにだいぐれんらいおんだんしゃくいをけいしょーしていた。	NO_LABEL
6代公の孫にあたる9代公の死去をもって4代公からの男系男子は絶え、ストレンジ伯爵位、スタンリーのマレー男爵、グレンライオン男爵位は廃絶し、またストレンジ男爵位は4代公の三人の娘の間で停止された。	ろくだいおーやけのまごにあたるきゅうだいおーやけのしきょをもってよんだいおーやけからのだんけいだんしわたえ、すとれんじはくしゃくい、すたんりーのまれーだんしゃく、ぐれんらいおんだんしゃくいわはいぜつし、またすとれんじだんしゃくいわよんだいおーやけのさんにんのむすめのまでていしされた。	NO_LABEL
ストレンジ男爵位については1964年に4代公の長女シャーロットの孫にあたるが継承者と確定した。	すとれんじだんしゃくいについてわせんきゅうひゃくろくじゅうよねんによんだいおーやけのちょーじょしゃーろっとのまごにあたるがけいしょーしゃとかくていした。	NO_LABEL
アソル公爵位をはじめとするそれ以外の爵位については、3代公に遡っての分流であるに継承された。	あそるこーしゃくいをはじめとするそれいがいのしゃくいについてわ、さんだいおーやけにさかのぼってのぶんりゅーであるにけいしょーされた。	NO_LABEL
10代公にも男子がなかったので10代公の死後は4代前までさかのぼっての分流が11代公を継承している。	じゅうだいおーやけにもだんしがなかったのでじゅうだいおーやけのしごわよんだいまえまでさかのぼってのぶんりゅーがじゅういちだいおーやけをけいしょーしている。	NO_LABEL
11代公の死後は、その長男が12代公を継承しており、彼が2017年現在も当主である。	じゅういちだいおーやけのしごわ、そのちょーなんがじゅうにだいおーやけをけいしょーしており、かれがにせんじゅうななねんげんざいもとーしゅである。	NO_LABEL
代々スコットランド・フリーメイソンの家系であり、とりわけ3代公ジョン、4代公ジョン、6代公ジョージ、8代公ジョンがの最高指導者であるに昇進している。	NO_PRONOUNCE	NO_LABEL
分流の貴族ダンモア伯爵家も代々フリーメイソンの家系であり、歴代当主のうち3人がグランドマスターになっている。	ぶんりゅーのきぞくだんもあはくしゃくかもだいだいふりーめいそんのかけいであり、れきだいとーしゅのうちさんにんがぐらんどますたーになっている。	NO_LABEL
公爵家の本邸はスコットランド・にあるである。	NO_PRONOUNCE	NO_LABEL
現在の当主第12代アソル公爵は、以下の爵位を保有している。	げんざいのとーしゅだいじゅうにだいあそるこーしゃくわ、いかのしゃくいをほゆーしている。	NO_LABEL
