ヌグザリ・タタラシビリはジョージアのゴリ出身の柔道選手。	ぬぐざりたたらしびりわじょーじあのごりしゅっしんのじゅーどーせんしゅ。	NO_LABEL
階級は73kg級と81㎏級。	NO_PRONOUNCE	NO_LABEL
身長180cm。	しんちょーひゃくはちじゅうせんちめーとる。	NO_LABEL
2009年のヨーロッパジュニア73kg級で3位になった。	にせんきゅうねんのよーろっぱじゅにあななじゅうさんきろぐらむきゅーでさんいになった。	NO_LABEL
2012年からはヨーロッパ選手権において3年連続でチームの優勝に貢献した。	にせんじゅうにねんからわよーろっぱせんしゅけんにおいてさんねんれんぞくでちーむのゆーしょーにこーけんした。	NO_LABEL
ロンドンオリンピックでは初戦で韓国の王己春に有効で敗れた。	ろんどんおりんぴっくでわしょせんでかんこくのわんきちゅんにゆーこーでやぶれた。	NO_LABEL
2014年の世界団体では3位になった。	にせんじゅうよねんのせかいだんたいでわさんいになった。	NO_LABEL
2015年のワールドマスターズでは準々決勝で中矢力を破るなどして決勝まで進むも、ロシアのデニス・ヤルツェフに敗れた。	にせんじゅうごねんのわーるどますたーずでわじゅんじゅんけっしょーでなかやりきをやぶるなどしてけっしょーまですすむも、ろしあのでにすやるつぇふにやぶれた。	NO_LABEL
ヨーロッパ選手権を兼ねたヨーロッパ競技大会では決勝でイスラエルのサギ・ムキに敗れた。	よーろっぱせんしゅけんをかねたよーろっぱきょーぎたいかいでわけっしょーでいすらえるのさぎむきにやぶれた。	NO_LABEL
2016年のリオデジャネイロオリンピックにはラシャ・シャフダトゥアシビリがいたために代表になれなかった。	にせんじゅうろくねんのりおでじゃねいろおりんぴっくにわらしゃしゃふだとぅあしびりがいたためにだいひょーになれなかった。	NO_LABEL
その後階級を上げると、2018年のグランドスラム・パリで3位となった。	そのごかいきゅーをあげると、にせんじゅうはちねんのぐらんどすらむぱりでさんいとなった。	NO_LABEL
IJF世界ランキングは654ポイント獲得で53位。	NO_PRONOUNCE	NO_LABEL
73㎏級での戦績	NO_PRONOUNCE	NO_LABEL
81㎏級での戦績	NO_PRONOUNCE	NO_LABEL
　	NO_PRONOUNCE	NO_LABEL
