宮下 周歩は、長野県上伊那郡中川村出身のプロサッカー選手。	みやしたかねゆきわ、ながのけんかみいなぐんなかがわむらしゅっしんのぷろさっかーせんしゅ。	NO_LABEL
関東サッカーリーグ・栃木ウーヴァFC所属。	NO_PRONOUNCE	NO_LABEL
ポジションは、ミッドフィールダー。	ぽじしょんわ、みっどふぃーるだー。	NO_LABEL
幼稚園まで都内で過ごし、中川村の小学校へ入学。	よーちえんまでとないですごし、なかがわむらのしょーがっこーえにゅーがく。	NO_LABEL
小学3年のときに飯島FCでサッカーを始め、中川中学校時代はアザリー飯田に所属した。	しょーがくさんねんのときにいーじまえふしーでさっかーをはじめ、なかがわちゅうがっこーじだいわあざりーいーだにしょぞくした。	NO_LABEL
創造学園高校では主将を務め、3年時の全国高校総体2回戦でハットトリックを記録。	そーぞーがくえんこうこーでわしゅしょーをつとめ、さんねんじのぜんこくこーこーそーたいにかいせんではっととりっくをきろく。	NO_LABEL
全国高校サッカー選手権でも同校の初出場に貢献した。	ぜんこくこーこーさっかーせんしゅけんでもどーこーのはつしゅつじょーにこーけんした。	NO_LABEL
高校在学中の2012年4月、松本山雅FCと行った練習試合で反町康治監督の目に留まり、7月から練習に参加。	こーこーざいがくちゅーのにせんじゅうにねんしがつ、まつもとやまがえふしーとおこなったれんしゅーじあいでそりまちやすはるかんとくのめにとまり、しちがつかられんしゅーにさんか。	NO_LABEL
8月、特別指定選手として松本に選手登録された。	はちがつ、とくべつしていせんしゅとしてまつもとにせんしゅとーろくされた。	NO_LABEL
最終節の大分トリニータ戦で初めてベンチ入りした。	さいしゅーせつのおーいたとりにーたせんではじめてべんちいりした。	NO_LABEL
2013年より、松本山雅FCへ正式に入団。	にせんじゅうさんねんより、まつもとやまがえふしーえせいしきににゅーだん。	NO_LABEL
2014年3月、北信越フットボールリーグのサウルコス福井に期限付き移籍。	にせんじゅうよねんさんがつ、ほくしんえつふっとぼーるりーぐのさうるこすふくいにきげんつきいせき。	NO_LABEL
2016年、栃木ウーヴァFCに完全移籍。	NO_PRONOUNCE	NO_LABEL
0||0||colspan="2"|-||0||0||0||0	NO_PRONOUNCE	NO_LABEL
35||2||colspan="2"|-||3||0||38||2	NO_PRONOUNCE	NO_LABEL
13||1||colspan="2"|-||1||0||14||1	NO_PRONOUNCE	NO_LABEL
48||3||colspan="2"|-||4||0||52||3	NO_PRONOUNCE	NO_LABEL
