『昭和とんちんかん』は、1967年2月6日から同年4月10日まで日本テレビ系列局で放送されていた日本テレビ製作のバラエティ番組である。	NO_PRONOUNCE	NO_LABEL
全10回。	ぜんじゅっかい。	NO_LABEL
放送時間は毎週月曜 21:00 - 21:30。	NO_PRONOUNCE	NO_LABEL
世相をテーマにした番組で、大正末期から昭和初期までと昭和40年代に入っていた番組放送当時との違いを、ファッション・流行語・映画・乗り物などから対比していた。	NO_PRONOUNCE	NO_LABEL
参考：	NO_PRONOUNCE	NO_LABEL
