第87回ナショナル・ボード・オブ・レビュー賞は2015年の映画を対象とした賞であり、2015年12月1日に受賞者が発表された。	だいはちじゅうななかいなしょなるぼーどおぶれびゅーしょーわにせんじゅうごねんのえいがをたいしょーとしたしょーであり、にせんじゅうごねんじゅーにがつついたちにじゅしょーしゃがはっぴょーされた。	NO_LABEL
※原題のアルファベット順	NO_PRONOUNCE	NO_LABEL
※原題のアルファベット順	NO_PRONOUNCE	NO_LABEL
※英題のアルファベット順	NO_PRONOUNCE	NO_LABEL
※原題のアルファベット順	NO_PRONOUNCE	NO_LABEL
