九州産交バス光の森営業所は、九州産交バスの営業所の一つ。	きゅーしゅーさんこーばすひかりのもりえいぎょーしょわ、きゅーしゅーさんこうばすのえいぎょーしょのひとつ。	NO_LABEL
熊本都市圏の路線バス網再編に伴い、2015年12月1日に大津営業所から移転・新設された。	NO_PRONOUNCE	NO_LABEL
光の森営業所	ひかりのもりえいぎょーしょ	NO_LABEL
大津車庫	おーつしゃこ	NO_LABEL
かつて大津営業所管轄では北区武蔵ヶ丘2丁目に駐在車庫があったが、光の森営業所管轄になった際に駐在は廃止されたが、待機場所としては現存、機能している。	かつておーつえいぎょーしょかんかつでわきたくむさしがおかにちょーめにちゅーざいしゃこがあったが、ひかりのもりえいぎょーしょかんかつになったさいにちゅーざいわはいしされたが、たいきばしょとしてわげんそん、きのーしている。	NO_LABEL
産交バス管轄では菊地営業所の廃止に伴い、大津営業所菊地車庫として駐在車両が存在する。	さんこうばすかんかつでわきくちえいぎょーしょのはいしにともない、おーつえいぎょーしょきくちしゃことしてちゅーざいしゃりょーがそんざいする。	NO_LABEL
旧大津営業所の路線を引き継いではいるものの、当営業所以東の区間については県道337号を経由する系統など一部を除き全て廃止され、当営業所発着に改められている。	NO_PRONOUNCE	NO_LABEL
なお、これまで武蔵ヶ丘団地を始終着としていた系統は全て当営業所発着に延伸したほか、楠団地線のうち、九州産交バスが受け持つ便の一部が当営業所担当に変更された。	なお、これまでむさしがおかだんちをしじゅーぎとしていたけいとーわぜんてあてえいぎょーしょはっちゃくにえんしんしたほか、くすのきだんちせんのうち、きゅーしゅーさんこうばすがうけもつびんのいちぶがとーえいぎょーしょたんとーにへんこーされた。	NO_LABEL
太字は系統記号。	ふとじわけいとーきごー。	NO_LABEL
当営業所の系統は楠団地線の西部車庫行きを除き往路・復路ともに同一の系統記号。	NO_PRONOUNCE	NO_LABEL
※子飼橋を経由する系統の熊本駅 ～ 交通センター ～ 二里木間は共通経路のため、子1・11・12の各系統を除き、途中の経由地を省略している。	NO_PRONOUNCE	NO_LABEL
旧大津営業所からの転属車がほとんどである。	きゅーおーつえいぎょーしょからのてんぞくしゃがほとんどである。	NO_LABEL
全体的に中型ロング車JP）が半数を占めている。	NO_PRONOUNCE	NO_LABEL
