『鎌倉けしや闇絵巻』は、赤石路代による日本の漫画作品。	NO_PRONOUNCE	NO_LABEL
2010年から2012年にかけて「DELETE〜鎌倉けしや覚書」のタイトルでモバフラで4話が配信された。	NO_PRONOUNCE	NO_LABEL
『姉系プチコミック』2014年9月号よりタイトルを改めて連載が再開された。	NO_PRONOUNCE	NO_LABEL
単行本は「フラワー・コミックスα」より刊行され、2018年2月の時点で既刊5巻。	NO_PRONOUNCE	NO_LABEL
昔から日本の古い都のそばに点在し、人づてにその存在を知られてきた「けしや」。	NO_PRONOUNCE	NO_LABEL
「けしや」は、依頼を受けて人の記憶を消す商売を連綿と続けてきた。	NO_PRONOUNCE	NO_LABEL
鎌倉の「鎌倉けしや」の第三十五代目にして「ケシ」の奥之院蒼は「トメ」を務めていた祖母の具合が思わしくなく休業を余儀なくされていたが、父は完璧に仕事をやり遂げたにも関わらず発作を起こして倒れた主婦・石蕗里奈を苦しめる真の原因を解き明かすも戻れなくなるが、通り掛かった少女に連れ戻され助かった。	NO_PRONOUNCE	NO_LABEL
彼女の手首に掛かった「ガムランボール」とその音色が心に刻まれ、ある日、町中で出会った女子高生・都川菜乃葉が助けてくれた人であり「トメ」の能力を持つことを知って彼女をスカウトする。	NO_PRONOUNCE	NO_LABEL
様々な事情で記憶を消したり消さなかったりするが、徐々に他の「けしや」の存在が浮かび上がり、東京の4つの内で「江戸けしや」が犯行の記憶を消して犯罪者を助けたり、ケシの仕事を強引に持ち掛けて金儲けをしていることが判明する。	NO_PRONOUNCE	NO_LABEL
更には、奥之院家にも秘密があり、旅行中とされている先代の朱門と「ゴ」の紅太郎は亡くなっていることが明らかに。	NO_PRONOUNCE	NO_LABEL
