大分県運転免許センターは、大分県大分市にある大分県警察が管理する運転免許試験場。	おーいたけんうんてんめんきょせんたーわ、おーいたけんおーいたしにあるおーいたけんけいさつがかんりするうんてんめんきょしけんじょー。	NO_LABEL
県内唯一の試験場である。	けんないゆいいつのしけんじょーである。	NO_LABEL
旧県庁内警察部前広場に試験のたびにコースを作って実施していたが、1939年に大分市新中島に運転免許試験場を設置。	きゅーけんちょーないけいさつぶぜんひろばにしけんのたびにこーすをつくってじっししていたが、せんきゅうひゃくさんじゅうきゅうねんにおーいたししんなかじまにうんてんめんきょしけんじょーをせっち。	NO_LABEL
1962年3月31日大分市荏隈に大分県自動車運転免許試験場が完成。	せんきゅうひゃくろくじゅうにねんさんがつさんじゅういちにちおーいたしえのくまにおーいたけんじどーしゃうんてんめんきょしけんじょーがかんせい。	NO_LABEL
同年6月8日から業務開始。	どーねんろくがつようかからぎょーむかいし。	NO_LABEL
2006年3月20日に大分市松岡に移転し、大分県運転免許センターとして業務開始。	にせんろくねんさんがつはつかにおーいたしまつおかにいてんし、おーいたけんうんてんめんきょせんたーとしてぎょーむかいし。	NO_LABEL
また、大分スポーツ公園の南側に位置している。	また、おーいたすぽーつこーえんのみなみがわにいちしている。	NO_LABEL
2009年には、第50回BCS賞を受賞した。	NO_PRONOUNCE	NO_LABEL
