『ちびっこ展』は、中部日本放送とテレビ愛知の2局で放送された子供向け番組。	NO_PRONOUNCE	NO_LABEL
いずれも納屋橋まんじゅう本店の一社提供。	いずれもなやばしまんじゅーほんてんのいっしゃていきょー。	NO_LABEL
この番組は毎回、番組に送られてくる6歳くらいまでの幼児が描いた絵画を1点選んで映し、洋画家の山本正英による批評のナレーションを交えながら視聴者に紹介していた。	このばんぐみわまいかい、ばんぐみにおくられてくるろっさいくらいまでのよーじがえがいたかいがをいってんえらんでうつし、よーがかのやまもとまさひでによるひひょーのなれーしょんをまじえながらしちょーしゃにしょーかいしていた。	NO_LABEL
批評のナレーションといっても決して絵の悪い点を指摘するようなことはなく、絵の優れた点や特徴的な部分などを探し出しては褒めていた。	ひひょーのなれーしょんといってもけっしてえのわるいてんをしてきするよーなことわなく、えのすぐれたてんやとくちょーてきなぶぶんなどをさがしだしてわほめていた。	NO_LABEL
番組が投稿用紙に指定していたのは4ツ切サイズの画用紙で、番組のラストで毎回表示される募集要項でそれを告知していた。	NO_PRONOUNCE	NO_LABEL
CBCでは1977年4月4日から1984年9月28日まで放送。	しーびーしーでわせんきゅうひゃくななじゅうななねんしがつよっかからせんきゅうひゃくはちじゅうよねんくがつにじゅうはちにちまでほーそー。	NO_LABEL
番組は放送開始から7年半の間、一貫して『JNNニュースコープ』終了直後の18:55枠で放送されていたが、1983年にテレビ愛知が開局すると程なくしてCBCでの放送を終了し、テレビ愛知で新番組として再開することになった。	NO_PRONOUNCE	NO_LABEL
放送局の移籍後も納屋橋まんじゅう本店はスポンサーを降りることなく、以後も番組を支援し続けた。	ほーそーきょくのいせきごもなやばしまんじゅーほんてんわすぽんさーをおりることなく、いごもばんぐみをしえんしつずけた。	NO_LABEL
テーマ音楽はリチャード・クレイダーマンの「恋はピンポン」。	NO_PRONOUNCE	NO_LABEL
テレビ愛知では1984年10月1日から1992年3月31日まで放送。	てれびあいちでわせんきゅうひゃくはちじゅうよねんじゅーがつついたちからせんきゅうひゃくきゅうじゅうにねんさんがつさんじゅういちにちまでほーそー。	NO_LABEL
同局への移籍後しばらくは『マンガのくに』が始まる直前の18:30枠で放送されていたが、その後の枠交換により、以後は『マンガのくに』終了直後の18:58枠で放送されるようになった。	NO_PRONOUNCE	NO_LABEL
しかし、この番組が存在していたことによって『マンガのくに』放送作品のオープニングとエンディングがカットされ続けていたため、最末期においては『レディス4』終了直後の16:58枠で放送されるようになった。	NO_PRONOUNCE	NO_LABEL
その1年後には同枠での放送も終了し、CBC時代から合わせて15年間にわたる放送に幕を閉じた。	そのいちねんごにわどーわくでのほーそーもしゅーりょーし、しーびーしーじだいからあわせてじゅうごねんかんにわたるほーそーにまくをとじた。	NO_LABEL
