パイク郡であり、同郡で人口最大の村でもある。	ぱいくぐんであり、どーぐんでじんこーさいだいのむらでもある。	NO_LABEL
郡名は探検家のゼブロン・パイクに因んで名付けられた。	ぐんめいわたんけんかのぜぶろんぱいくにちなんでなずけられた。	NO_LABEL
パイク郡は1815年2月1日にサイオト郡、ロス郡、アダムズ郡の一部を合わせて設立された。	ぱいくぐんわせんはっぴゃくじゅうごねんにがつついたちにさいおとぐん、ろすぐん、あだむずぐんのいちぶをあわせてせつりつされた。	NO_LABEL
郡名は探検家であり、米英戦争で戦死したばかりだったゼブロン・パイクに因んで名付けられた。	ぐんめいわたんけんかであり、べいえいせんそーでせんししたばかりだったぜぶろんぱいくにちなんでなずけられた。	NO_LABEL
アメリカ合衆国国勢調査局に拠れば、郡域全面積は443.98平方マイルであり、このうち陸地440.28平方マイル、水域は3.69平方マイルで水域率は0.83%である。	NO_PRONOUNCE	NO_LABEL
以下は2000年の国勢調査による人口統計データである。	いかわにせんねんのこくせいちょうさによるじんこーとーけいでーたである。	NO_LABEL
ガーネット・A・ウィルソン公共図書館がウェイバリーの本館とビーバー、パイクトン、パイク郡西部の支所から郡内の町にサービスを行っている。	NO_PRONOUNCE	NO_LABEL
2005年、この図書館システムは20,000人の登録利用者に238,000件以上の貸し出しを行った。	NO_PRONOUNCE	NO_LABEL
蔵書数は91,000冊以上、定期刊行物は210種以上ある。	NO_PRONOUNCE	NO_LABEL
パイク郡は下記14の郡区に分割されている。	NO_PRONOUNCE	NO_LABEL
