サビーナ・バルブーザはイタリア、ヴェネト州ヴェローナ県ヴェローナ出身の元クロスカントリースキー選手。	NO_PRONOUNCE	NO_LABEL
兄フルビオ・バルブーザもクロスカントリースキーのオリンピックメダリストである。	あにふるびおばるぶーざもくろすかんとりーすきーのおりんぴっくめだりすとである。	NO_LABEL
バルブーザは1992年12月12日に5kmクラシカルのレースでクロスカントリースキー・ワールドカップにデビュー、44位となった。	ばるぶーざわせんきゅうひゃくきゅうじゅうにねんじゅーにがつじゅうににちにごきろめーとるくらしかるのれーすでくろすかんとりーすきーわーるどかっぷにでびゅー、よんじゅうよんいとなった。	NO_LABEL
1994年のリレハンメルオリンピックにイタリア代表として出場、15kmフリーで26位となった。	せんきゅうひゃくきゅうじゅうよねんのりれはんめるおりんぴっくにいたりあだいひょーとしてしゅつじょー、じゅうごきろめーとるふりーでにじゅうろくいとなった。	NO_LABEL
自身4度目のオリンピック出場となったトリノオリンピックでガブリエラ・パルッツィ、アリアンナ・フォリス、アントネッラ・コンフォルトラとのチームで4×5kmリレー銅メダルを獲得した。	じしんよんどめのおりんぴっくしゅつじょーとなったとりのおりんぴっくでがぶりえらぱるっつぃ、ありあんなふぉりす、あんとねっらこんふぉるとらとのちーむでふぉーばいふぁいぶきろめーとるりれーどーめだるをかくとくした。	NO_LABEL
ノルディックスキー世界選手権ではいずれもリレーで1999年に銀、2001年と2005年に銅の計3個のメダルを獲得している。	NO_PRONOUNCE	NO_LABEL
クロスカントリースキー・ワールドカップでは通算1勝、2009-2010シーズン限りで第一線を退いたが以後もFISのマラソンカップでは好成績を残している。	NO_PRONOUNCE	NO_LABEL
イタリア選手権では通算15勝。	いたりあせんしゅけんでわつーさんじゅうごしょー。	NO_LABEL
2006年にはイタリア共和国功労勲章カヴァリエーレを受章した。	NO_PRONOUNCE	NO_LABEL
