伊藤杯サマーファイナル大倉山ジャンプ大会は札幌市大倉山ジャンプ競技場で開催されるスキージャンプのサマージャンプ大会である。	いとーはいさまーふぁいなるおーくらやまじゃんぷたいかいわさっぽろしおーくらやまじゃんぷきょーぎじょでかいさいされるすきーじゃんぷのさまーじゃんぷたいかいである。	NO_LABEL
2006年に翌年開催される2007年ノルディックスキー世界選手権札幌大会のPRとして行われた「世界ノルディックスキー2007 開催推進伊藤杯サマージャンプ ファイナル大会」を前身とし、翌シーズンから創設された。	NO_PRONOUNCE	NO_LABEL
第9回大会は当初2015年10月25日に予定されていたが、悪天候により順延され11月1日の第94回全日本選手権ラージヒルと兼ねて実施された。	だいきゅうかいたいかいわとーしょにせんじゅうごねんじゅーがつにじゅうごにちによていされていたが、あくてんこーによりじゅんえんされじゅーいちがつついたちのだいきゅうじゅうよんかいぜんにほんせんしゅけんらーじひるとかねてじっしされた。	NO_LABEL
