マディランは、マディランを中心に作られているAOCワイン。	までぃらんわ、までぃらんをちゅーしんにつくられているえーおーしーわいん。	NO_LABEL
赤のマディランと白のパシュラン・デュ・ヴィクビルである。	NO_PRONOUNCE	NO_LABEL
このふたつのAOCは、栽培地域は全く同じで、赤と白で名称だけが違っている。	このふたつのえーおーしーわ、さいばいちいきわまったくおなじで、あかとしろでめいしょーだけがちがっている。	NO_LABEL
アキテーヌ地方ピレネー＝ザトランティック県の28村、それにミディ＝ピレネー地方オート＝ガロンヌ県の7村、ジェール県の4村の1300haが栽培地域に指定されている。	NO_PRONOUNCE	NO_LABEL
1948年にAOCに指定されており、比較的古くから知られたワイン産地である。	せんきゅうひゃくよんじゅうはちねにえーおーしーにしていされており、ひかくてきふるくからしられたわいんさんちである。	NO_LABEL
この地方の固有品種であるタナ種を中心に、ボルドーワインなどでおなじみのカベルネ・ソーヴィニョンやカベルネ・フラン抔を混醸して作られる。	NO_PRONOUNCE	NO_LABEL
非常に色が濃く、干し杏やアメリカンチェリーのような良く熟した果物の香りを持ち、渋み・酸味ともに豊かで、こくのあるワインが多い。	NO_PRONOUNCE	NO_LABEL
あまり有名ではないが、隠れたファンの多いワインである。	あまりゆーめいでわないが、かくれたふぁんのおーいわいんである。	NO_LABEL
プティ・マンサン種のぶどうを中心に、クルビュ、アルフィアックなどピレネー地方固有の品種で造られている白ワインである。	NO_PRONOUNCE	NO_LABEL
甘口が多く、貴腐ワインもある。	あまくちがおーく、きふわいんもある。	NO_LABEL
辛口のものには、AOC名の後ろにSecの表示がある。	NO_PRONOUNCE	NO_LABEL
日本ではあまり見かけない銘柄である。	にっぽんでわあまりみかけないめいがらである。	NO_LABEL
VDQSワインのサン・モンとヴァン・ド・ペイのコード・ド・ガスコーニュも、ほぼ同じ地域が栽培範囲で、格付けだけが違っている。	NO_PRONOUNCE	NO_LABEL
