ユニオン駅は、ミズーリ州カンザスシティ ウェスト・パーシング・ロード30にある駅。	NO_PRONOUNCE	NO_LABEL
全米各地を結ぶ旅客鉄道のアムトラックが乗り入れている。	ぜんべいかくちをむすぶりょかくてつどーのあむとらっくがのりいれている。	NO_LABEL
現在の駅舎は1914年に使用が開始された。	げんざいのえきしゃわせんきゅうひゃくじゅうよねんにしよーがかいしされた。	NO_LABEL
1985年までアムトラックが使用していたが、コスト削減のため近接する小さな駅舎に移った。	せんきゅうひゃくはちじゅうごねんまであむとらっくがしよーしていたが、こすとさくげんのためきんせつするちーさなえきしゃにうつった。	NO_LABEL
1999年改修工事が終了し、2002年より再び駅舎として使用されるようになった。	せんきゅうひゃくきゅうじゅうきゅうねんかいしゅーこーじがしゅーりょーし、にせんにねんよりふたたびえきしゃとしてしよーされるよーになった。	NO_LABEL
現在、当駅には駅としての機能のほか科学博物館、プラネタリウムやレストランなどが入居し使用されている。	げんざい、とーえきにわえきとしてのきのーのほかかがくはくぶつかん、ぷらねたりうむやれすとらんなどがにゅーきょししよーされている。	NO_LABEL
アムトラックのカンザスシティ・ユニオン駅に発着する列車は下記の通り。	NO_PRONOUNCE	NO_LABEL
