株式会社トップマートは千葉県千葉市中央区を地盤にスーパーマーケットを営む小売企業である。	かぶしきがいしゃとっぷまーとわちばけんちばしちゅうおーくをじばんにすーぱーまーけっとをいとなむこーりきぎょーである。	NO_LABEL
本社は仁戸名町に置く。	ほんしゃわにとなちょーにおく。	NO_LABEL
通称『トップマート』 『トップ』。	NO_PRONOUNCE	NO_LABEL
千葉を中心とした四街道市、佐倉市、船橋市、大網白里市へ展開する生鮮卸値スーパーである。	ちばをちゅーしんとしたよつかいどーし、さくらし、ふなばしし、おーあみしらさとしえてんかいするせいせんおろしねすーぱーである。	NO_LABEL
キャッチコピーは『お値段半額！お買い物二倍！生鮮卸値市場・トップマート！』と『家計応援団』である。	NO_PRONOUNCE	NO_LABEL
1968年6月、肉の協伸として創業、1979年8月に有限会社肉の協伸を設立し、昭和59年4月東金・市原店を皮切りに店舗拡大、1997年7月本社を移転、10月に株式会社トップマートに変更。	NO_PRONOUNCE	NO_LABEL
平成24年伏見屋ホールディングスへ全株式を譲渡した。	へいせいにじゅうよんねんふしみやほーるでぃんぐすえぜんかぶしきをじょーとした。	NO_LABEL
※()内は、開店前の店舗など備考。	NO_PRONOUNCE	NO_LABEL
中央区	ちゅーおーく	NO_LABEL
若葉区	わかばく	NO_LABEL
花見川区	はなみがわく	NO_LABEL
株式会社トップマート	かぶしきがいしゃとっぷまーと	NO_LABEL
