G4 TVは、アメリカ合衆国のケーブルテレビ・チャンネル。	NO_PRONOUNCE	NO_LABEL
G4メディア傘下。	NO_PRONOUNCE	NO_LABEL
チャネルは、もともとコムキャストによって作成された。	ちゃねるわ、もともとこむきゃすとによってさくせいされた。	NO_LABEL
 チャネルは、もともと主にビデオゲームの世界に基づいて、若い男性の大人の視聴者を対象としている。	ちゃねるわ、もともとおもにびでおげーむのせかいにもとずいて、わかいだんせいのおとなのしちょーしゃをたいしょーとしている。	NO_LABEL
ビデオゲームはまだチャネルで表されるが、現在のチャンネルは、男性指向にフォーカスがある。	びでおげーむわまだちゃねるであらわされるが、げんざいのちゃんねるわ、だんせいしこーにふぉーかすがある。	NO_LABEL
G4 TVはロサンゼルス、カリフォルニア、アメリカ合衆国に本社を置き、G4メディアによって所有されていて、NBCユニバーサルが所有している、コムキャスト2011年初頭に51％を取得した。	NO_PRONOUNCE	NO_LABEL
アメリカでは、ネットワークのプログラミングに多数の変更がTechTV/G4 TVファンから批判の嵐をもたらした。	NO_PRONOUNCE	NO_LABEL
チャネルは、そのゲームと技術の根から離れすぎて迷っている、ともっぱらのような番組に頼るのではチャネルを非難していることを多くの主張：エックス・プレーとアタック・オブ・ザ・ショウ！ 。	NO_PRONOUNCE	NO_LABEL
残りのG4オリジナルの番組のほとんどは厳しく変更されたと、多くは他の男性指向のネットワークへのライバルになるようにチャネルの継続的な試みとして、これを見た。	NO_PRONOUNCE	NO_LABEL
例では、スパイクになる。	れいでわ、すぱいくになる。	NO_LABEL
