チョンブリー・スタジアムは、タイ王国のチョンブリー県にある多目的スタジアムである。	ちょんぶりーすたじあむわ、たいおーこくのちょんぶりーけんにあるたもくてきすたじあむである。	NO_LABEL
収容人数は8,600人。	NO_PRONOUNCE	NO_LABEL
チョンブリーFCは以前をホームスタジアムとして使用していたが、2010年に本スタジアムが設立されると、以降は本スタジアムをホームスタジアムとして利用している。	ちょんぶりーえふしーわいぜんをほーむすたじあむとしてしよーしていたが、にせんじゅうねんにほんすたじあむがせつりつされると、いこーわほんすたじあむをほーむすたじあむとしてりよーしている。	NO_LABEL
現在、収容人数を10,000人に増やす拡張工事を行なっている。	NO_PRONOUNCE	NO_LABEL
主にサッカーの試合に用いられる。	おもにさっかーのしあいにもちいられる。	NO_LABEL
現在、タイ・プレミアリーグのチョンブリーFCがホームスタジアムとして使用している。	げんざい、たいぷれみありーぐのちょんぶりーえふしーがほーむすたじあむとしてしよーしている。	NO_LABEL
タイランド湾に面し、海のすぐ近くに位置する。	たいらんどわんにめんし、うみのすぐちかくにいちする。	NO_LABEL
タイ国有鉄道のチョンブリー駅よりタクシーで約15分。	たいこくゆーてつどーのちょんぶりーえきよりたくしーでやくじゅうごふん。	NO_LABEL
