市川街道とは、青森県八戸市内の街道。	いちかわかいどーとわ、あおもりけんはちのへしないのかいどー。	NO_LABEL
藩政時代、八戸城惣門から新荒町を通り、盛岡藩領境 三戸郡下市川村へ至る八戸藩の脇街道。	はんせいじだい、はちのへじょーそーもんからしんあらまちをとーり、もりおかはんりょーさかいみとぐんしもいちがわむらえいたるはちのへはんのわきかいどー。	NO_LABEL
経路は北浜街道と重複する。	けいろわきたはまかいどーとじゅーふくする。	NO_LABEL
