岡崎市立恵田小学校は、愛知県岡崎市の公立小学校。	おかざきしりつえたしょうがっこーわ、あいちけんおかざきしのこーりつしょーがっこー。	NO_LABEL
岡崎市恵田町に位置する小学校。	おかざきしえたちょーにいちするしょーがっこー。	NO_LABEL
1874年4月に創立した。	せんはっぴゃくななじゅうよねんしがつにそーりつした。	NO_LABEL
岩津小学校と大樹寺小学校とともに、岡崎市立岩津中学校の学区を構成する。	いわつしょーがっこーとだいじゅーじしょーがっこーとともに、おかざきしりついわずちゅうがっこーのがっくをこーせいする。	NO_LABEL
2013年5月1日時点の児童数は、94名。	NO_PRONOUNCE	NO_LABEL
通常学級6クラス、特別支援学級1クラス。	NO_PRONOUNCE	NO_LABEL
