マウナロア観測所とは、ハワイ島、マウナ・ロア山に位置するアメリカ合衆国の気象観測所。	まうなろあかんそくじょとわ、はわいとー、まうなろあさんにいちするあめりかがっしゅーこくのきしょーかんそくしょ。	NO_LABEL
局所的な大気変動の影響を受けにくい高い標高を生かして、温室効果ガスなどの変化を長期的に観測している。	きょくしょてきなたいきへんどーのえいきょーをうけにくいこういひょーこーをいかして、おんしつこーかがすなどのへんかをちょーきてきにかんそくしている。	NO_LABEL
1957年より継続的に MLO は大気変化に関するデータを測定・収集してきた。	NO_PRONOUNCE	NO_LABEL
特に二酸化炭素濃度の長期的な計測は有名であり、そのグラフはキーリング曲線と呼ばれる。	とくににさんかたんそのーどのちょーきてきなけいそくわゆーめいであり、そのぐらふわきーりんぐきょくせんとよばれる。	NO_LABEL
この観測所はアメリカ海洋大気庁の一部であるアメリカ海洋大気庁気候監視・診断研究所の管轄下にある。	NO_PRONOUNCE	NO_LABEL
MLO で測定された最新の二酸化炭素濃度のデータはウェブサイト上で見ることができる。	NO_PRONOUNCE	NO_LABEL
MLOは五つの場所で活動している。	NO_PRONOUNCE	NO_LABEL
主要な施設はマウナ・ロア山北斜面の標高3397mのところにある（）。	しゅよーなしせつわまうなろあさんきたしゃめんのしるべこーさんさんびゃくきゅうじゅうななめーとるのところにあるかっこ。	NO_LABEL
マウナロア太陽観測所もこの場所を共有している。	まうなろあたいよーかんそくしょもこのばしょをきょーゆーしている。	NO_LABEL
管理やデータ処理はヒロにあるオフィスで行われている。	かんりやでーたしょりわひろにあるおふぃすでおこなわれている。	NO_LABEL
Kulani Maukaでは降雨を観測し、ハワイ島の最東端に位置するCape Kumukahiではサンプル収集を行っている。	NO_PRONOUNCE	NO_LABEL
旧ヒロ空港では成層圏のオゾンを測定するために毎週観測気球を放っている。	きゅーひろくーこーでわせいそーけんのおぞんをそくていするためにまいしゅーかんそくききゅーをはなっている。	NO_LABEL
なお、マイクロ波背景輻射非等方性観測アレイも隣接した場所にある。	なお、まいくろははいけいふくしゃひとーかたせいかんそくあれいもりんせつしたばしょにある。	NO_LABEL
マウナ・ロア山は当初から、COを観測する場所として選ばれた。	NO_PRONOUNCE	NO_LABEL
太平洋の中央という孤立した場所に位置し、火山起源の汚染が検知・除去される限り、大気が十分に澄んでいたからである。	NO_PRONOUNCE	NO_LABEL
すでに軍によって頂上までの道が敷設されていることもあってMLOは建設された。	NO_PRONOUNCE	NO_LABEL
