尚穆王- 1794年5月7日）は、琉球王国第二尚氏王朝の第14代国王。	NO_PRONOUNCE	NO_LABEL
寝廟御殿を創建。	ねびょーごてんをそーけん。	NO_LABEL
また、このころ琉球科律完成。	また、このころりゅーきゅーかりつかんせい。	NO_LABEL
さらに、褒章制度を整備し、国民の模範となるものに物品や役職を授けた。	さらに、ほーしょーせいどをせいびし、こくみんのもはんとなるものにぶっぴんややくしょくをさずけた。	NO_LABEL
1788年に世子の尚哲が死去している。	せんななひゃくはちじゅうはちねんにせいしのしょうてつがしきょしている。	NO_LABEL
