太閤山ランドは、富山県射水市にある富山県立の都市公園である。	たいこーやまらんどわ、とやまけんいみずしにあるとやまけんりつのとしこーえんである。	NO_LABEL
正式名称は県民公園太閤山ランドである。	せいしきめいしょーわけんみんこーえんたいこーやまらんどである。	NO_LABEL
1983年に、にっぽん新世紀博覧会の会場としてオープンした。	せんきゅうひゃくはちじゅうさんねんに、にっぽんしんせいきはくらんかいのかいじょーとしておーぷんした。	NO_LABEL
1992年にはジャパンエキスポ富山の会場になった。	せんきゅうひゃくきゅうじゅうにねんにわじゃぱんえきすぽとやまのかいじょーになった。	NO_LABEL
