日本統治時代の台湾の高等教育機関では、日本統治時代の台湾：1895年～1945年における高等教育機関を一覧にする。	NO_PRONOUNCE	NO_LABEL
日本統治時代の台湾の高等教育機関は、1945年に中華民国に編入された後もそのまま継承されたので、中華民国統治時代での経過も併せて掲載する。	にほんとーちじだいのたいわんのこーとーきょーいくきかんわ、せんきゅうひゃくよんじゅうごねんにちゅーかみんこくにへんにゅーされたのちもそのままけいしょーされたので、ちゅーかみんこくとーちじだいでのけいかもあわせてけいさいする。	NO_LABEL
本記事において、日本統治時代は「戦前」、中華民国統治時代は「戦後」という略称を用いる。	NO_PRONOUNCE	NO_LABEL
