『マリオパーティ』は、任天堂が1998年12月18日にNINTENDO64用に発売したゲームソフト。	NO_PRONOUNCE	NO_LABEL
価格は税込6,090円。	NO_PRONOUNCE	NO_LABEL
発売は任天堂が担当だが、開発はハドソンとシーエイプロダクションが担当している。	はつばいわにんてんどーがたんとーだが、かいはつわはどそんとしーえいぷろだくしょんがたんとーしている。	NO_LABEL
略称は「マリパ1」。	NO_PRONOUNCE	NO_LABEL
「初代」とも呼ばれることもある。	NO_PRONOUNCE	NO_LABEL
BGMはゲームミュージック作曲家として有名な光田康典が全曲作曲している。	びーじーえむわげーむみゅーじっくさっきょくかとしてゆーめいなみつだやすのりがぜんきょくさっきょくしている。	NO_LABEL
CMのナレーションは真地勇志が担当した。	こんぴゅーたみゅーじっくまがじんのなれーしょんわまちゆうじがたんとーした。	NO_LABEL
「マリオパーティ」はスゴロク式のボードマップとミニゲームが合体した、最大4人で遊べる対戦ゲーム。	NO_PRONOUNCE	NO_LABEL
すべてのマリオパーティシリーズに共通している下記のシステムが作られた、マリオパーティシリーズの第1弾となる作品である。	すべてのまりおぱーてぃしりーずにきょーつーしているかきのしすてむがつくられた、まりおぱーてぃしりーずのだいいちだんとなるさくひんである。	NO_LABEL
ただし、「移動中にアイテムを購入する」「移動する前にアイテムを使用する」と言った、ボードマップ上でアイテムを使うというシステムはまだ無かった。	NO_PRONOUNCE	NO_LABEL
その他、マップ上でクッパと遭遇するとクッパイベントが発生したり、スタート地点にノコノコがいて通過時にコインが貰えるなどといった、今作だけのルールもある。	そのた、まっぷじょーでくっぱとそーぐーするとくっぱいべんとがはっせいしたり、すたーとちてんにのこのこがいてつーかじにこいんがもらえるなどといった、こんさくだけのるーるもある。	NO_LABEL
他に課題をクリアしながらゴールを目指す1人用ゲーム「ミニゲームアイランド」や、スター獲得のルールがなくひたすらミニゲームで戦い、集めたコインの数を競う「ミニゲームスタジアム」もある。	NO_PRONOUNCE	NO_LABEL
「誰が1番のスーパースターか」を巡って大騒ぎをしていたマリオ、ルイージ、ピーチ、ヨッシー、ワリオ、ドンキーの6人は、キノピオの提案でキノコ村を舞台に8つのマップを冒険しながら戦う。	NO_PRONOUNCE	NO_LABEL
はじめに「キノコむら」でプレイするゲームを選択する。	NO_PRONOUNCE	NO_LABEL
以下の施設から行きたい場所を選ぶ。	いかのしせつからいきたいばしょをえらぶ。	NO_LABEL
アイテムはこの作品だけ、キノコむらの「キノコショップ」で売られている物をボードゲームで集めたコインで購入する。	NO_PRONOUNCE	NO_LABEL
購入したアイテムは一部を除き、自動的にキノコバンクに保管される。	こーにゅーしたあいてむわいちぶをのぞき、じどーてきにきのこばんくにほかんされる。	NO_LABEL
また、キノコむらやその建物内でスタートボタンを押すと、購入したアイテムの一覧が確認できる。	また、きのこむらやそのたてものないですたーとぼたんをおすと、こーにゅーしたあいてむのいちらんがかくにんできる。	NO_LABEL
一部のアイテムは、ある条件をクリアしないと購入できない。	いちぶのあいてむわ、あるじょーけんをくりあしないとこーにゅーできない。	NO_LABEL
ボードゲーム中に効果が出る。	ぼーどげーむちゅーにこーかがでる。	NO_LABEL
キノコバンク内で、ボードゲームで各アイテムを使用するかしないかを設定できる。	きのこばんくないで、ぼーどげーむでかくあいてむをしよーするかしないかをせっていできる。	NO_LABEL
※貯金箱は、コインボックス・ラッキーボックス・カジノボックスのいずれか1つしか使用できない。	NO_PRONOUNCE	NO_LABEL
キノコむらの「ワープドカン」を選ぶとボードゲームをプレイすることができる。	NO_PRONOUNCE	NO_LABEL
ワープドカン内で「参加人数」「使用するキャラ」「COMプレイヤーの強さ」「プレイするボードマップ」「ターン数」を設定する。	NO_PRONOUNCE	NO_LABEL
ボードマップに着くとノコノコからガイドを受けて、全員でサイコロブロックを叩き出た目の大きい順でターンの順番を決める。	ぼーどまっぷにつくとのこのこからがいどをうけて、ぜんいんでさいころぶろっくをはたきでためのおーきいじゅんでたーんのじゅんばんをきめる。	NO_LABEL
その後、ノコノコから10コインをもらいスターの位置を確認してからゲームスタートとなる。	NO_PRONOUNCE	NO_LABEL
4人のプレイヤーが順番に1～10の目が出る「サイコロブロック」を叩き、出た目だけマップの進行方向に従ってマスを進む。	NO_PRONOUNCE	NO_LABEL
移動が終わると止まったマスに応じてイベントが発生する。	いどーがおわるととまったますにおーじていべんとがはっせいする。	NO_LABEL
なお、サイコロブロックを叩く前にBボタンで拡大マップ、Rボタンでマップ全体を確認することができる。	NO_PRONOUNCE	NO_LABEL
4人全員の移動が終わるとミニゲームが始まり、ミニゲームで勝利するとコインがもらえたり、場合によっては負けたプレイヤーからコインを奪うことができる。	よにんぜんいんのいどーがおわるとみにげーむがはじまり、みにげーむでしょーりするとこいんがもらえたり、ばあいによってわまけたぷれいやーからこいんをうばうことができる。	NO_LABEL
プレイするミニゲームの種類は「プレイヤーパネル」の色によって決まり、「?マス」に止まった場合はランダムで青か赤に色が変わる。	NO_PRONOUNCE	NO_LABEL
この「4人が移動してミニゲームが終了する」までの流れを「1ターン」とし、設定したターン数だけゲームが続く。	NO_PRONOUNCE	NO_LABEL
また、残り5ターンになると途中経過をノコノコが発表し、その後以下のようなルールが追加される。	NO_PRONOUNCE	NO_LABEL
設定したターン数が全て終了すると結果発表の前に「3賞」が発表され、各賞に受賞するとスターを1個もらえる。	NO_PRONOUNCE	NO_LABEL
3賞の内容は以下の通り。	NO_PRONOUNCE	NO_LABEL
なお、各賞の受賞者が複数いる場合は該当者全員にスターが1個ずつ贈られるが、4人全員同率だと「該当者なし」となりスターはもらえない。	NO_PRONOUNCE	NO_LABEL
そして、最後にスターを一番多く持っていたプレイヤーが1位となり「スーパースター」が決定する。	NO_PRONOUNCE	NO_LABEL
最終結果の画面でSTARTボタンを押すと、各プレイヤーのスターの数・コインの数・ミニゲームでのコイン獲得数・最大コイン所持数・各マスの止まった回数などの詳しい成績を見ることができる。	NO_PRONOUNCE	NO_LABEL
その後、貯金箱にゲーム中に集めたスター・コインが回収される。	NO_PRONOUNCE	NO_LABEL
ただし、COMプレイヤーが集めたものは貯金箱には回収されない。	ただし、こむぷれいやーがあつめたものわちょきんばこにわかいしゅーされない。	NO_LABEL
なお、貯金箱に回収されたコインはキノコむらの「ミニゲームハウス」や「キノコショップ」で、ミニゲームやアイテムの購入に使用することができる。	NO_PRONOUNCE	NO_LABEL
スターの累積数は100個でカンストとなっているが、キノコむらや建物内でSTARTボタンを押すことで確認できる、ボードゲームの合計プレイ回数とスター獲得枚数では記録されている。	NO_PRONOUNCE	NO_LABEL
ボードマップには以下のようなマスが配置されている。	ぼーどまっぷにわいかのよーなますがはいちされている。	NO_LABEL
止まったマスに応じてイベントが起こる。	とまったますにおーじていべんとがおこる。	NO_LABEL
マップ上には、以下のような通過するときに発生するイベントも用意されている。	まっぷじょーにわ、いかのよーなつーかするときにはっせいするいべんともよーいされている。	NO_LABEL
これらのイベントが起こる場所を通過しても、残りの移動するマス数はカウントされることは無い。	これらのいべんとがおこるばしょをつーかしても、のこりのいどーするますすーわかうんとされることわない。	NO_LABEL
ここでは主なものを記す。	ここでわおもなものをしるす。	NO_LABEL
ボードマップは全部で8種類あるが、「クッパのマグママウンテン」と「えいえんのスター」は、ある条件をクリアしないとプレイできない。	NO_PRONOUNCE	NO_LABEL
ジャングルの遺跡のボードマップ。	じゃんぐるのいせきのぼーどまっぷ。	NO_LABEL
難易度「★☆☆」。	NO_PRONOUNCE	NO_LABEL
ジャングルの遺跡に隠された秘宝を手に入れることが目的。	じゃんぐるのいせきにかくされたひほーをてにいれることがもくてき。	NO_LABEL
このマップのキノピオは、誰かが20コインとスターを交換するたびに別の場所に移動する。	NO_PRONOUNCE	NO_LABEL
大きなバースデーケーキのボードマップ。	おーきなばーすでーけーきのぼーどまっぷ。	NO_LABEL
難易度「★★☆」。	NO_PRONOUNCE	NO_LABEL
大きなケーキにデコレーションをするのが目的。	おーきなけーきにでこれーしょんをするのがもくてき。	NO_LABEL
このマップのキノピオは場所が固定されており、20コインとスターを交換しても場所は変わらない。	NO_PRONOUNCE	NO_LABEL
南の島が舞台のボードマップ。	みなみのしまがぶたいのぼーどまっぷ。	NO_LABEL
難易度「★★☆」。	NO_PRONOUNCE	NO_LABEL
渦潮で引き裂かれた恋人同士のヨッシーを助けるのが目的。	うずしおでひきさかれたこいびとどーしのよっしーをたすけるのがもくてき。	NO_LABEL
このマップのキノピオは20コインとスターを交換しても場所は変わらない。	NO_PRONOUNCE	NO_LABEL
ボムへいの戦場のボードマップ。	ぼむへいのせんじょーのぼーどまっぷ。	NO_LABEL
難易度「★★☆」。	NO_PRONOUNCE	NO_LABEL
赤ボムへい対黒ボムへいの戦争を止めるのが目的。	あかぼむへいたいくろぼむへいのせんそーをとめるのがもくてき。	NO_LABEL
このマップのキノピオは、誰かが20コインとスターを交換するたびに別の場所に移動する。	NO_PRONOUNCE	NO_LABEL
何かの機関室が舞台のボードマップ。	なにかのきかんしつがぶたいのぼーどまっぷ。	NO_LABEL
難易度｢★★★」。	NO_PRONOUNCE	NO_LABEL
エンジンがエネルギー不足で動かなくなったため、新たなエネルギーを探し、再び動かすのが目的。	えんじんがえねるぎーふそくでうごかなくなったため、あらたなえねるぎーをさがし、ふたたびうごかすのがもくてき。	NO_LABEL
このマップのキノピオは、誰かが20コインとスターを交換するたびに別の場所に移動する。	NO_PRONOUNCE	NO_LABEL
天空の城が舞台のボードマップ。	てんくーのしろがぶたいのぼーどまっぷ。	NO_LABEL
難易度「★☆☆」。	NO_PRONOUNCE	NO_LABEL
天空の城にスターの力を使って虹をかけるのが目的。	てんくーのしろにすたーのちからをつかってにじをかけるのがもくてき。	NO_LABEL
このマップのキノピオはマップの終点の虹の城にいる。	このまっぷのきのぴおわまっぷのしゅーてんのにじのしろにいる。	NO_LABEL
キノコショップで「マグママウンテン」を購入するとプレイできるようになる、火山のボードマップ。	NO_PRONOUNCE	NO_LABEL
難易度「★★★」。	NO_PRONOUNCE	NO_LABEL
火山の下にいるクッパを倒すのが目的。	かざんのしたにいるくっぱをたおすのがもくてき。	NO_LABEL
このマップのキノピオは、誰かが20コインとスターを交換するたびに別の場所に移動する。	NO_PRONOUNCE	NO_LABEL
スターを全てのマップで総計100個集めると、プレイできるようになる、巨大なスターの上のボードマップ。	NO_PRONOUNCE	NO_LABEL
難易度「★★★」。	NO_PRONOUNCE	NO_LABEL
なお、条件を満たしてこのマップをはじめてプレイできるようになった時に限り、一度このマップをプレイしないと他のマップを選ぶ事ができなくなる。	なお、じょーけんをみたしてこのまっぷをはじめてぷれいできるよーになったときにかぎり、いちどこのまっぷをぷれいしないとたのまっぷをえらぶことができなくなる。	NO_LABEL
地獄から甦ったクッパにより、バラバラにされた上に落書きまでされたビッグスターを元に戻すのが目的。	じごくからよみがえったくっぱにより、ばらばらにされたうえにらくがきまでされたびっぐすたーをもとにもどすのがもくてき。	NO_LABEL
ボードゲームでは毎ターン終了後にミニゲームが発生する。	ぼーどげーむでわまいたーんしゅーりょーごにみにげーむがはっせいする。	NO_LABEL
プレーヤーが停止したマスの色によりミニゲームの種類が決定する。	ぷれーやーがていししたますのいろによりみにげーむのしゅるいがけっていする。	NO_LABEL
なお、「?マス」に止まりプレイヤーパネルが緑色になった場合には、色がランダムで青か赤に変化する。	NO_PRONOUNCE	NO_LABEL
特徴としては、ミニゲームの操作自体はさほど難しくはないが、いわゆる「成功・失敗」タイプのミニゲームでは失敗すると持っているコインが減らされたり、1vs3ミニゲームの場合はミニゲームの内容によりどちらかが有利・不利になる不公平なルール・システムが使用されていること等が挙げられる。	NO_PRONOUNCE	NO_LABEL
従って、特に初心者が上級者に相手する場合には明らかに苦戦しがちな状態に陥りやすい。	したがって、とくにしょしんしゃがじょーきゅーしゃにあいてするばあいにわあきらかにくせんしがちなじょーたいにおちいりやすい。	NO_LABEL
続編の『マリオパーティ2』以降ではルールが少し改定され、前述に対する問題はある程度抑えられている。	NO_PRONOUNCE	NO_LABEL
本作に限り、コントローラーの3Dスティックを回転させるゲームも存在したが、手のひらに肉離れを引き起こす健康上の問題や、スティックの位置が元に戻らなくなる製品上の問題が発生した影響で、『マリオパーティ2』以降ではこのような操作のミニゲームは廃止された。	NO_PRONOUNCE	NO_LABEL
ただし、廃止されたのはミニゲームのみであり、コントローラーの３Ｄスティックを回転させること自体はその後も『４』のくじ屋におけるガラガラくじで復活している。	NO_PRONOUNCE	NO_LABEL
以下のような点が挙げられる。	いかのよーなてんがあげられる。	NO_LABEL
今作のミニゲームは隠しミニゲームを含めると、全部で52種類ある。	こんさくのみにげーむわかくしみにげーむをふくめると、ぜんぶでごじゅうにしゅるいある。	NO_LABEL
以下では、ミニゲームハウスでミニゲームを購入するときに表示されるリストの順に記載する。	いかでわ、みにげーむはうすでみにげーむをこーにゅーするときにひょーじされるりすとのじゅんにきさいする。	NO_LABEL
なお、3Dスティックを回す必要があるミニゲームはタイトル名の横に☆印を表記する。	NO_PRONOUNCE	NO_LABEL
ミニゲーム名の横のカッコ内はミニゲームアイランドのコース番号を示す。	みにげーむめいのよこのかっこないわみにげーむあいらんどのこーすばんごーをしめす。	NO_LABEL
ミニゲームアイランドにおいてはクリア条件は原則勝利することだが、コインを獲得するゲームなど、それ以外の場合はミニゲーム解説内にクリア条件を併記する。	みにげーむあいらんどにおいてわくりあじょーけんわげんそくしょーりすることだが、こいんをかくとくするげーむなど、それいがいのばあいわみにげーむかいせつないにくりあじょーけんをへいきする。	NO_LABEL
一部のミニゲームは、『マリオパーティ2』『マリオパーティ100 ミニゲームコレクション』にも収録されている。	NO_PRONOUNCE	NO_LABEL
4人で競ったり、協力してクリアを目指すミニゲーム。	よにんできそったり、きょーりょくしてくりあをめざすみにげーむ。	NO_LABEL
ボードマップで全員が同じ色のマスに止まった場合に発生する。	ぼーどまっぷでぜんいんがおなじいろのますにとまったばあいにはっせいする。	NO_LABEL
全部で24種類ある。	ぜんぶでにじゅうよんしゅるいある。	NO_LABEL
なお、勝利したプレイヤーがもらえるコイン数について、特に明記されていないものについては、勝利したプレイヤーが10コインもらえるミニゲームである。	NO_PRONOUNCE	NO_LABEL
1人側と3人側に分かれてプレイするミニゲーム。	ひとりがわとさんにんがわにわかれてぷれいするみにげーむ。	NO_LABEL
ボードマップで1人だけが違う色のマスに止まった場合に発生する。	ぼーどまっぷでひとりだけがちがういろのますにとまったばあいにはっせいする。	NO_LABEL
全部で10種類ある。	ぜんぶでじゅうしゅるいある。	NO_LABEL
なお、勝利した方や負けた方の持っているコインの増減について、特に明記されていないものについては、次のようになっている。	なお、しょーりしたほーやまけたほーのもっているこいんのぞーげんについて、とくにめいきされていないものについてわ、つぎのよーになっている。	NO_LABEL
ミニゲームアイランドでは、すべてのミニゲームで1人側となる。	みにげーむあいらんどでわ、すべてのみにげーむでひとりがわとなる。	NO_LABEL
ミニゲームモードでやる場合は不利が生じないように、不平等なミニゲームの場合コインを得られない側はそのミニゲーム開始前に一定のコインが渡される。	みにげーむもーどでやるばあいわふりがしょーじないよーに、ふびょーどーなみにげーむのばあいこいんをえられないがわわそのみにげーむかいしまえにいっていのこいんがわたされる。	NO_LABEL
2人1組に分かれプレイするミニゲーム。	NO_PRONOUNCE	NO_LABEL
ボードマップで2人が違う色のマスに止まった場合に発生し、同じ色のプレイヤー同士でチームを組んでプレイする。	ぼーどまっぷでふたりがちがういろのますにとまったばあいにはっせいし、おなじいろのぷれいやーどーしでちーむをくんでぷれいする。	NO_LABEL
全部で5種類ある。	ぜんぶでごしゅるいある。	NO_LABEL
なお、勝利した方や負けた方の持っているコインの増減について、特に明記されていないものについては、勝利した方のペアは1人10コインずつもらい、負けた方のペアは1人10コインずつ支払うミニゲームである。	NO_PRONOUNCE	NO_LABEL
ボードマップの「ミニゲーム青マス」に止まった場合に発生する、1人でプレイするミニゲーム。	NO_PRONOUNCE	NO_LABEL
隠しミニゲームはミニゲームハウスでのみプレイできる。	かくしみにげーむわみにげーむはうすでのみぷれいできる。	NO_LABEL
全部で13種類ある。	ぜんぶでじゅうさんしゅるいある。	NO_LABEL
ある条件を満たすと遊べるようになる、1人用のミニゲーム。	あるじょーけんをみたすとあそべるよーになる、ひとりよーのみにげーむ。	NO_LABEL
どのミニゲームも、のっかれボールと同じ操作で、玉乗りしながら海の上の細い道を進んでいき制限時間内にゴールを目指す。	どのみにげーむも、のっかれぼーるとおなじそーさで、たまのりしながらうみのうえのほそいみちをすすんでいきせいげんじかんないにごーるをめざす。	NO_LABEL
制限時間内にゴールできなかったり、海に落ちるとミスとなる。	せいげんじかんないにごーるできなかったり、うみにおちるとみすとなる。	NO_LABEL
なお、コースは以下の3種類ある。	なお、こーすわいかのさんしゅるいある。	NO_LABEL
マップが広いためプレイヤーの表示が小さい。	まっぷがひろいためぷれいやーのひょーじがちーさい。	NO_LABEL
