北条 氏盛- 慶長13年5月18日）は、安土桃山時代の武将、江戸時代初期の大名。	NO_PRONOUNCE	NO_LABEL
河内狭山藩の初代藩主。	かわうちさやまはんのしょだいはんしゅ。	NO_LABEL
通称は助五郎。	つーしょーわすけごろー。	NO_LABEL
官位は従五位下美濃守。	かんいわじゅうごいのげみのまもる。	NO_LABEL
法名は松林院殿浄誉心徹大禅定門。	ほーみょーわしょうりんいんどのきよしほまれしんとーるだいぜんじょーもん。	NO_LABEL
墓所は専念寺。	はかしょわせんねんじ。	NO_LABEL
北条氏規の長男で、母は北条綱成の娘の高源院。	ほーじょーうじのりのちょーなんで、ははわほーじょーつなしげのむすめのこーげんいん。	NO_LABEL
従兄の後北条氏5代当主北条氏直の養子。	じゅーけいのごほーじょーしごだいとーしゅほーじょーうじなおのよーし。	NO_LABEL
正室は旗本・船越景直の娘。	NO_PRONOUNCE	NO_LABEL
子に氏信、氏利、氏重。	こにししん、しり、しじゅー。	NO_LABEL
天正18年、豊臣秀吉の小田原征伐によって後北条氏が滅亡した後、父と共に高野山に向かったが、やがて秀吉に許され、天正19年、養父氏直が病死するとその遺跡である下野4千石の所領を与えられた。	NO_PRONOUNCE	NO_LABEL
翌天正20年、朝鮮出兵で肥前名護屋に従軍した。	よくてんしょーにじゅうねん、ちょーせんしゅっぺいでひぜんなごやにじゅーぐんした。	NO_LABEL
慶長5年、実父氏規が死去すると家督を継ぎ、五大老筆頭の徳川家康からも河内狭山にあった父の遺領7千石を安堵された。	NO_PRONOUNCE	NO_LABEL
こうして氏盛は計1万1千石の大名となり、狭山藩の初代藩主となった。	NO_PRONOUNCE	NO_LABEL
同年、関ヶ原の戦いでは東軍の西尾吉次隊に属し本領安堵、家康の将軍就任後は徳川氏へ仕えた。	どーねん、せきがはらのたたかいでわとうぐんのにしおよしつぐたいにぞくしほんりょーあんど、いえやすのしょーぐんしゅーにんごわとくがわしえつかえた。	NO_LABEL
慶長13年に死去、享年31。	NO_PRONOUNCE	NO_LABEL
家督はまだ幼い嫡男の氏信が継いだ。	かとくわまだおさないちゃくなんのししんがついだ。	NO_LABEL
