コムストックは、アメリカ海軍のドック型揚陸艦。	こむすとっくわ、あめりかかいぐんのどっくがたよーりくかん。	NO_LABEL
ホイッドビー・アイランド級ドック型揚陸艦の5番艦。	ほいっどびーあいらんどきゅーどっくがたよーりくかんのごばんかん。	NO_LABEL
艦名は1859年にネバダ州で発見されたコムストック鉱床に因んで命名された。	かんめいわせんはっぴゃくごじゅうきゅうねんにねばだしゅーではっけんされたこむすとっくこーしょーにちなんでめいめいされた。	NO_LABEL
その名を持つ艦としては二隻目である。	そのなをもつかんとしてわにせきめである。	NO_LABEL
コムストックは1986年10月27日にルイジアナ州ニューオーリンズのエイボンデール造船所で起工され、1988年1月15日に進水した。	こむすとっくわせんきゅうひゃくはちじゅうろくねんじゅーがつにじゅうしちにちにるいじあなしゅーにゅーおーりんずのえいぼんでーるぞーせんじょできこーされ、せんきゅうひゃくはちじゅうはちねんいちがつじゅうごにちにしんすいした。	NO_LABEL
1990年2月3日に就役する。	せんきゅうひゃくきゅうじゅうねんにがつみっかにしゅーえきする。	NO_LABEL
コムストックは男性兵士と女性兵士が完全に統合された最初のアメリカ海軍艦艇である。	こむすとっくわだんせいへいしとじょせいへいしがかんぜんにとーごーされたさいしょのあめりかかいぐんかんていである。	NO_LABEL
2006年時点でコムストックはポール・J・ショック艦長指揮下、揚陸グループ3に所属する。	NO_PRONOUNCE	NO_LABEL
