ヘンリコ・ドロストは、オランダ・オーファーアイセル州カンペン出身のサッカー選手。	NO_PRONOUNCE	NO_LABEL
RKCヴァールヴァイク所属。	NO_PRONOUNCE	NO_LABEL
ポジションはディフェンダー。	ぽじしょんわでぃふぇんだー。	NO_LABEL
オランダ東部のカンペンという町に生まれた。	おらんだとーぶのかんぺんとゆうまちにうまれた。	NO_LABEL
2005年、SCヘーレンフェーンでプロ契約を締結。	にせんごねん、えすせーへーれんふぇーんでぷろけいやくをていけつ。	NO_LABEL
しかしながらチームの主力になることはできず、SBVエクセルシオール、デ・フラーフスハップ、VVVフェンロに期限付き移籍した。	NO_PRONOUNCE	NO_LABEL
2010年の夏、SCヘーレンフェーンと自由契約となり、RKCヴァールヴァイクに2年契約で加入した。	NO_PRONOUNCE	NO_LABEL
2013年にはNACブレダに加入し、2015年にはSVBエクセルシオールに再び加入した。	NO_PRONOUNCE	NO_LABEL
2017年、RKCヴァールヴァイクに再び加入した。	NO_PRONOUNCE	NO_LABEL
とは双子であり、彼もまたサッカー選手である。	とわふたごであり、かれもまたさっかーせんしゅである。	NO_LABEL
