TERUは、長崎県出身の俳優。	てるわ、ながさきけんしゅっしんのはいゆー。	NO_LABEL
身長128 cm、体重35 kg	NO_PRONOUNCE	NO_LABEL
林海象監督が主催する株式会社映像探偵社に所属し、同監督の作品に常連のような形で出演していたが、独立。	はやしかいぞーかんとくがしゅさいするかぶしきがいしゃえいぞーたんていしゃにしょぞくし、どーかんとくのさくひんにじょーれんのよーなかたちでしゅつえんしていたが、どくりつ。	NO_LABEL
