「NEVER FADE」は、2000年12月6日に発売されたTHE ALFEE48枚目のシングル。	NO_PRONOUNCE	NO_LABEL
THE ALFEEのシングルとしては初めてのマキシシングルである。	じあるふぃーのしんぐるとしてわはじめてのまきししんぐるである。	NO_LABEL
また、彼らにとって20世紀最後にリリースされた作品となった。	また、かれらにとってにじっせいきさいごにりりーすされたさくひんとなった。	NO_LABEL
「LOVE NEVER DIES」以降これまで6作連続で桜井がリードヴォーカルを担当した。	NO_PRONOUNCE	NO_LABEL
カップリングが2曲あり、「Wake Up」のヴォーカルは坂崎、「自由になるために」のヴォーカルは高見沢とそれぞれのヴォーカル曲がまとめられている。	NO_PRONOUNCE	NO_LABEL
