納富 信景は、戦国時代から安土桃山時代にかけての武将。	のーとみさだかげわ、せんごくじだいからあずちももやまじだいにかけてのぶしょー。	NO_LABEL
龍造寺氏の家臣。	りゅーぞーじしのかしん。	NO_LABEL
納富氏は、伊勢平氏である平教盛の子・教満の末裔を称した肥前国の国人。	NO_PRONOUNCE	NO_LABEL
龍造寺氏が少弐氏の被官であった頃から臣従していた。	りゅーぞーじしがしょーにしのひかんであったころからしんじゅーしていた。	NO_LABEL
龍造寺宗家当主・龍造寺胤栄の重臣であった納富栄房の子として誕生。	NO_PRONOUNCE	NO_LABEL
初めは、別名として伝わる家房、家景を名乗っていたものと思われる。	はじめわ、べつめいとしてつたわるかぼー、いえけいをなのっていたものとおもわれる。	NO_LABEL
天文17年、龍造寺胤栄が没し、水ケ江龍造寺氏から龍造寺隆信がその跡を継ぐと、小河信安、福地信重と共に家老となり、偏諱を受け信景と改名した。	てんもんじゅうななねん、りゅーぞーじいんえいがぼっし、みずがえりゅーぞーじしからりゅーぞーじたかのぶがそのあとをつぐと、おがわのぶやす、ふくちのぶしげとともにかろーとなり、へんきをうけさだかげとかいめいした。	NO_LABEL
永禄元年11月の江上武種攻めで戦功を挙げている。	えいろくがんねんじゅーいちがつのえがみたけたねぜめでせんこーをあげている。	NO_LABEL
永禄4年の川上峡合戦では力戦して勝利に貢献し、戦後の神代勝利との和議を主導した。	えいろくよんねんのかわかみきょうかっせんでわりきせんしてしょーりにこーけんし、せんごのくましろかつとしとのわぎをしゅどーした。	NO_LABEL
天正8年頃に家老職を辞し、家督を嫡子・賢景に譲っている。	NO_PRONOUNCE	NO_LABEL
没年は天正12年とされているが、この年の3月に起きた沖田畷の戦いにて賢景が戦死していることから、父である信景も同時に戦死した可能性が高い。	ぼつねんわてんしょーじゅうにねんとされているが、このとしのさんがつにおきたおきたなわてのたたかいにてけんけいがせんししていることから、ちちであるさだかげもどーじにせんししたかのーせいがたかい。	NO_LABEL
文武両道の名将であったという。	ぶんぶりょーどーのめいしょーであったという。	NO_LABEL
※天正12年、沖田畷の戦いにて隆信らと共に戦死。	NO_PRONOUNCE	NO_LABEL
特に賢景には嗣子がなかったため、嫡流は一時断絶。	とくにけんけいにわししがなかったため、ちゃくりゅーわいちじだんぜつ。	NO_LABEL
のちに龍造寺信周の子である納富長昭により再興され、その子孫は肥前佐賀藩の着座として続いた。	のちにりゅーぞーじのぶちかのこであるのーとみながあきによりさいこーされ、そのしそんわひぜんさがはんのちゃくざとしてつずいた。	NO_LABEL
