グロトリアン図とは、原子のエネルギー準位間の遷移のうち許容されるものを表した図形である。	ぐろとりあんずとわ、げんしのえねるぎーじゅんいかんのせんいのうちきょよーされるものをあらわしたずけいである。	NO_LABEL
一電子原子のみならず多電子原子にも用いることができる。	いちでんしげんしのみならずたでんしげんしにももちいることができる。	NO_LABEL
電子の角運動量の変化に関する特定の選択律を考慮に入れている。	でんしのかくうんどーりょーのへんかにかんするとくていのせんたくりつをこーりょにいれている。	NO_LABEL
名称は20世紀前半の物理学者の名に因む。	めいしょーわにじっせいきぜんはんのぶつりがくしゃのなにちなむ。	NO_LABEL
