ブダは、インド神話の水星の神またはリシ。	ぶだわ、いんどしんわのすいせいのかみまたわりし。	NO_LABEL
「ブダ」とは「賢い」という意味であり、この名前をもつ神または人物は何人か知られる。	NO_PRONOUNCE	NO_LABEL
『リグ・ヴェーダ』の詩人にブダという人物はふたりあり、ひとりはブダ・アートレーヤで、リグ・ヴェーダ5.1のアグニ賛歌の作者とされる。	NO_PRONOUNCE	NO_LABEL
もうひとりはブダ・サウミヤで、リグ・ヴェーダ10.101のソーマの儀式を行う神官の賛歌の作者とされる。	NO_PRONOUNCE	NO_LABEL
水星は月の子と称せられる。	すいせいわつきのことしょーせられる。	NO_LABEL
同様に火星は地球の子、土星は太陽の子と呼ばれるが、その理由は明らかでない。	どーよーにかせいわちきゅーのこ、どせいわたいよーのことよばれるが、そのりゆーわあきらかでない。	NO_LABEL
プラーナ文献では、月神ソーマがブリハスパティの妻のターラーを誘拐してブダを生ませた。	ぷらーなぶんけんでわ、げっしんそーまがぶりはすぱてぃのつまのたーらーをゆーかいしてぶだをうませた。	NO_LABEL
ブダはを妻としてプルーラヴァスを生み、その子孫が月種であるとする。	NO_PRONOUNCE	NO_LABEL
