市地 洋子は、日本の女優・歌手。	NO_PRONOUNCE	NO_LABEL
広島県東広島市出身。	ひろしまけんひがしひろしまししゅっしん。	NO_LABEL
一時期、芸名を安芸 晶子と変えて活動していた。	いちじき、げいめいをあきあきことかえてかつどーしていた。	NO_LABEL
身長は158cm	しんちょーわひゃくごじゅうはちせんちめーとる	NO_LABEL
1968年、広島県立賀茂高等学校から東京都台東区の上野学園高等学校に転校した。	せんきゅうひゃくろくじゅうはちねん、ひろしまけんりつかもこーとーがっこーからとーきょーとたいとーくのうえのがくえんこーとーがっこーにてんこーした。	NO_LABEL
翌1969年、スカウトされ松竹『ミヨちゃんのためなら 全員集合!!』でデビュー。	NO_PRONOUNCE	NO_LABEL
代表作は『三匹の牝蜂』、大信田礼子主演の『ずべ公番長シリーズ』、『ミラーマン』、安芸 晶子名義で出演した『狼の紋章』、1974年にふたたび市地 洋子に戻し、千葉真一主演の『殺人拳2』など。	NO_PRONOUNCE	NO_LABEL
太字の曲名はA面扱いを示す。	NO_PRONOUNCE	NO_LABEL
