顎動脈翼突筋枝は頭頸部の動脈。	NO_PRONOUNCE	NO_LABEL
顎動脈の枝。	がくどーみゃくのえだ。	NO_LABEL
その数と起始は不定である。	そのかずとおこしはじめわふていである。	NO_LABEL
内側翼突筋と外側翼突筋に栄養を供給する。	NO_PRONOUNCE	NO_LABEL
"この項目の一部は、現在パブリックドメインとなっているグレイの解剖学からのものです。	NO_PRONOUNCE	NO_LABEL
"	NO_PRONOUNCE	NO_LABEL
