『誓い言〜スコシだけもう一度〜』は、女性シンガーソングライター・IKUの3作目のシングルである。	NO_PRONOUNCE	NO_LABEL
2009年2月25日、ジェネオン・ユニバーサル・エンターテイメントジャパンより発売された。	にせんきゅうねんにがつにじゅうごにち、じぇねおんゆにばーさるえんたーていめんとじゃぱんよりはつばいされた。	NO_LABEL
今作のタイアップは前作同様、テレビアニメ『とある魔術の禁書目録』のエンディングテーマ。	NO_PRONOUNCE	NO_LABEL
