『西洋事情』は、福沢諭吉が幕末から明治にかけて著した書物。	NO_PRONOUNCE	NO_LABEL
当時欧米の状況を紹介したもの。	とーじおーべいのじょーきょーをしょーかいしたもの。	NO_LABEL
初編3冊、外編3冊、2編4冊の10冊からなる。	NO_PRONOUNCE	NO_LABEL
福沢は江戸幕府の命により1860年にアメリカに渡り、1862年にはヨーロッパに渡ったのち、1866年に初編3冊を刊行した。	NO_PRONOUNCE	NO_LABEL
翌年の1867年再びアメリカへ渡り、その後1868年に外編3冊を、1870年2編4冊を刊行している。	NO_PRONOUNCE	NO_LABEL
その内容は政治、税制度、国債、紙幣、会社、外交、軍事、科学技術、学校、図書館、新聞、文庫、病院、博物館、蒸気機関、電信機、ガス燈などに及び、それぞれについて個別に紹介している。	そのないよーわせいじ、ぜいせいど、こくさい、しへい、かいしゃ、がいこー、ぐんじ、かがくぎじゅつ、がっこー、としょかん、しんぶん、ぶんこ、びょーいん、はくぶつかん、じょーききかん、でんしんき、がすとーなどにおよび、それぞれについてこべつにしょーかいしている。	NO_LABEL
例えば政治については政体が君主政、貴族政、共和政の三種類の政体に区別され、イギリスではこれらの政体を組み合わせていると記している。	たとえばせいじについてわせいたいがくんしゅせい、きぞくせい、きょーわせいのさんしゅるいのせいたいにくべつされ、いぎりすでわこれらのせいたいをくみあわせているとしるしている。	NO_LABEL
さらに文明国の六つの要訣について列挙しており、それは法の下で自由が保障され、人々の宗教には介入せず、技術文学を振興し、学校で人材を教育し、安定的な政治の下で産業を営み、病院や貧院等によって貧民を救済することであると論じる。	さらにぶんめいこくのむっつのよーけつについてれっきょしており、それわほーのしたでじゆーがほしょーされ、ひとびとのしゅーきょーにわかいにゅーせず、ぎじゅつぶんがくをしんこーし、がっこーでじんざいをきょーいくし、あんていてきなせいじのしたでさんぎょーをいとなみ、びょーいんやひんいんとーによってひんみんをきゅーさいすることであるとろんじる。	NO_LABEL
また外交についても、通商や婚姻によって君主間の関係を構築し、戦争を防止するために条約を締結し、条約に基づいて大使が相互に派遣されるという外交の制度が紹介される。	またがいこーについても、つーしょーやこんいんによってくんしゅかんのかんけいをこーちくし、せんそーをぼーしするためにじょーやくをていけつし、じょーやくにもとずいてたいしがそーごにはけんされるとゆうがいこーのせいどがしょーかいされる。	NO_LABEL
このように、当時の日本には存在しなかった西洋の近代的な制度や技術を数多く紹介している。	このよーに、とーじのにっぽんにわそんざいしなかったせいよーのきんだいてきなせいどやぎじゅつをかずおーくしょーかいしている。	NO_LABEL
