機動憲兵隊は、フランス国家憲兵隊の警備警察部隊。	きどーけんぺいたいわ、ふらんすこっかけんぺいたいのけいびけいさつぶたい。	NO_LABEL
国家憲兵隊の主たる実施部隊のひとつであり、日本の警察の機動隊に相当するような集団警備力や他部門に対する増援として用いられる。	こっかけんぺいたいのしゅたるじっしぶたいのひとつであり、にっぽんのけいさつのきどーたいにそーとーするよーなしゅーだんけいびりょくやたぶもんにたいするぞーえんとしてもちいられる。	NO_LABEL
機動憲兵隊は国家憲兵隊における歴史的歩兵隊の伝統継承者にあたる。	きどーけんぺいたいわこっかけんぺいたいにおけるれきしてきほへいたいのでんとーけいしょーしゃにあたる。	NO_LABEL
起源は19世紀初めの対暴動鎮圧隊にまで遡り、1921年に現在の近代的な名称が与えられた。	きげんわじゅうきゅうせいきはじめのたいぼーどーちんあつたいにまでさかのぼり、せんきゅうひゃくにじゅういちねんにげんざいのきんだいてきなめいしょーがあたえられた。	NO_LABEL
国家憲兵隊には、地方部で一般警察活動にあたる県憲兵隊や、重要施設警備にあたる共和国親衛隊、仏本土外で活動する国外派遣憲兵隊（）など、地域・機能別に様々な部隊が設置されている。	NO_PRONOUNCE	NO_LABEL
機動憲兵隊は、これら各部隊の管内で、雑踏警備や暴動鎮圧のように、通常の体制では人手不足となる任務が生じた場合の増援部隊として投入される。	きどーけんぺいたいわ、これらかくぶたいのかんないで、ざっとーけいびやぼーどーちんあつのよーに、つーじょーのたいせいでわひとでぶそくとなるにんむがしょーじたばあいのぞーえんぶたいとしてとーにゅーされる。	NO_LABEL
県憲兵隊と違い、金色の階級章を用いるため「ジョヌ」と呼称される。	NO_PRONOUNCE	NO_LABEL
これはフランスでは伝統的に歩兵科を示す。	これわふらんすでわでんとーてきにほへいかをしめす。	NO_LABEL
機動憲兵隊は約17,000名の人員を擁し、108個機動憲兵中隊が設置されることがあり、これは4～7個中隊を隷下にもつ。	NO_PRONOUNCE	NO_LABEL
なお、GGMの番号は下記のようになっており、例えばレンヌの「」は、第3管区の1番めの機動憲兵群であることを意味している。	NO_PRONOUNCE	NO_LABEL
またEGMの番号は下記のようになっており、例えばメゾン＝アルフォールの「EGM 24/1」は、第1管区の2番めの機動憲兵群の4番めの機動憲兵中隊であることを意味している。	NO_PRONOUNCE	NO_LABEL
通常、中隊長には憲兵大尉が補職されており、約120名が4個歩兵小隊および1個騎兵小隊に編成されている。	NO_PRONOUNCE	NO_LABEL
歩兵小隊のうち1個小隊は、SWATとしての訓練を受けた介入小隊、1981年以降は軽介入分隊2両とルノーB110無線車1両が配備されている。	NO_PRONOUNCE	NO_LABEL
また、機甲憲兵群のEGMは、装甲兵員輸送車や90mm低圧砲搭載の火力支援車などの装甲戦闘車両を運用している。	NO_PRONOUNCE	NO_LABEL
また、2004年にトゥールーズの機動憲兵群に設置されたのを皮切りに、広域地域圏介入小隊で編成されており、機動憲兵群の直轄下で、PIでは対応困難な事案に対処する。	また、にせんよねんにとぅーるーずのきどーけんぺいぐんにせっちされたのをかわきりに、こーいきちーきけんかいにゅーしょーたいでへんせいされており、きどーけんぺいぐんのちょっかつかで、ぴーあいでわたいおーこんなんなじあんにたいしょする。	NO_LABEL
またPI2Gでも対処困難となった場合には、国家憲兵総局直轄の治安介入部隊が出動するが、この場合は、PI2GはGIGNの支援にあたることとなる。	NO_PRONOUNCE	NO_LABEL
2016年までに6個隊が整備される予定である。	NO_PRONOUNCE	NO_LABEL
なお、予備役部隊として機動憲兵予備中隊がある。	なお、よびえきぶたいとしてきどーけんぺいよびちゅーたいがある。	NO_LABEL
これは大規模事案や県憲兵隊の応援任務以外で招集されることは許されていない。	これわだいきぼじあんやけんけんぺいたいのおーえんにんむいがいでしょーしゅーされることわゆるされていない。	NO_LABEL
