碁会所とは、席料を支払い、有料で囲碁を打つことができる場所である。	ごかいしょとわ、せきりょーをしはらい、ゆーりょーでいごをうつことができるばしょである。	NO_LABEL
囲碁センター、サロンのような形態で、駅前などに集中していることが多く全国的に存在している。	いごせんたー、さろんのよーなけいたいで、えきまえなどにしゅーちゅーしていることがおーくぜんこくてきにそんざいしている。	NO_LABEL
日本棋院内にも有料で打てる場所がある。	にほんきいんないにもゆーりょーでうてるばしょがある。	NO_LABEL
店内に複数の碁盤を用意し、来客者同士で対局を行わせる形式が一般的である。	てんないにふくすーのごばんをよーいし、らいきゃくしゃどーしでたいきょくをおこなわせるけいしきがいっぱんてきである。	NO_LABEL
最も重要な要素は席亭によるマッチメイキング能力である。	もっともじゅーよーなよーそわせきていによるまっちめいきんぐのーりょくである。	NO_LABEL
来客者の碁打ちとしての力量の見極めはもとより、常連客においては打ち方の筋・性格などを見極め「楽しく打てる」場を作ることが求められる。	NO_PRONOUNCE	NO_LABEL
サービスは碁会所によってもさまざまであるが、その店独自の段級位システムを構築しているケースが多い。	さーびすわごかいしょによってもさまざまであるが、そのみせどくじのだんきゅーいしすてむをこーちくしているけーすがおーい。	NO_LABEL
また、初心者への指導も行っている碁会所もある。	また、しょしんしゃえのしどーもおこなっているごかいしょもある。	NO_LABEL
その他にも、大会などのイベントが催されることもある。	そのたにも、たいかいなどのいべんとがもよおされることもある。	NO_LABEL
2000年代ごろからはネット碁の普及が進み、碁会所に行かずとも対局相手を探すことが容易になったため、碁会所にとっては小さくない打撃となっている。	にせんねんだいごろからわねっとごのふきゅーがすすみ、ごかいしょにいかずともたいきょくあいてをさがすことがよーいになったため、ごかいしょにとってわちーさくないだげきとなっている。	NO_LABEL
2010年ごろには「囲碁ガール」という言葉も生まれ、女性向きの雰囲気の碁会所や、囲碁喫茶・囲碁カフェなど、多様な碁会所の在り方が模索されている。	NO_PRONOUNCE	NO_LABEL
