照度とは、物体の表面を照らす光の明るさを表す物理量である。	しょーどとわ、ぶったいのひょーめんをてらすひかりのあかるさをあらわすぶつりりょうである。	NO_LABEL
照度は人間の感じる量を表す心理物理量のひとつである。	しょーどわにんげんのかんじるりょーをあらわすしんりぶつりりょーのひとつである。	NO_LABEL
国際単位系における単位はルクスまたはルーメン毎平方メートルが用いられる。	こくさいたんいけいにおけるたんいわるくすまたわるーめんまいへいほーめーとるがもちいられる。	NO_LABEL
照度は光束発散度と同じ次元を持つが、光束発散度は平面状の光源の指標であり、照度は照射された側の指標を表す。	しょーどわこうそくはっさんどとおなじじげんをもつが、こうそくはっさんどわへいめんじょーのこーげんのしひょーであり、しょーどわしょーしゃされたがわのしひょーをあらわす。	NO_LABEL
物体表面の微小な面積 を考え、微小面積 に入射する光束を とするとき、照度は	ぶったいひょーめんのびしょーなめんせきをかんがえ、びしょーめんせきににゅーしゃするこうそくをとするとき、しょーどわ	NO_LABEL
で定義される。	でていぎされる。	NO_LABEL
文字通り、どれだけ対象物を「照らしている」かを表す指標であり、机の上や部屋などの明るさを示すのに利用される。	NO_PRONOUNCE	NO_LABEL
照度は右図のように照らされる物体が光線に対して垂直でなく斜めであった場合、照射される物体は暗くなってしまうので、法線ベクトルnをかけることによってそれを加味する。	NO_PRONOUNCE	NO_LABEL
照度と光束の違いは、照射している物体の面積を考慮するかしないかである。	しょーどとこうそくのちがいわ、しょーしゃしているぶったいのめんせきをこーりょするかしないかである。	NO_LABEL
例えば、同じ光束を放つ電灯でも近くにある本よりも、離れた場所にある本の方が暗くなる。	たとえば、おなじこうそくをはなつでんとーでもちかくにあるほんよりも、はなれたばしょにあるほんのほーがくらくなる。	NO_LABEL
これを照度が低いと呼ぶ。	これをしょーどがひくいとよぶ。	NO_LABEL
光源となる電灯が単位カンデラで表されるのに対し、机の上がどれだけ照らされているかを示すときにルクスが用いられるのはこのためである。	こーげんとなるでんとーがたんいかんでらであらわされるのにたいし、つくえのうえがどれだけてらされているかをしめすときにるくすがもちいられるのわこのためである。	NO_LABEL
目で感じる物体の単位視面積あたりの明るさは、距離には依存せず、物体の照度に正比例する。	めでかんじるぶったいのたんいしめんせきあたりのあかるさわ、きょりにわいぞんせず、ぶったいのしょーどにせいひれいする。	NO_LABEL
しかし、物体の視面積が極めて小さい場合は、同じ面積と照度の物体でも、目で感じる単位視面積あたりの明るさは、距離の増加にしたがって減衰していく。	しかし、ぶったいのみめんせきがきわめてちーさいばあいわ、おなじめんせきとしょーどのぶったいでも、めでかんじるたんいしめんせきあたりのあかるさわ、きょりのぞーかにしたがってげんすいしていく。	NO_LABEL
照度に関連する日本工業規格の規格。	しょーどにかんれんするにっぽんこーぎょーきかくのきかく。	NO_LABEL
