秋山 大地は、日本のラグビー選手。	あきやまだいちわ、にっぽんのらぐびーせんしゅ。	NO_LABEL
高校からラグビーを始めた。	こーこーかららぐびーをはじめた。	NO_LABEL
2015年、つるぎ高校卒業後、帝京大学に入学する。	にせんじゅうごねん、つるぎこーこーそつぎょーご、ていきょーだいがくににゅーがくする。	NO_LABEL
なおつるぎ高校時代、高校日本代表に選ばれたことがある。	なおつるぎこーこーじだい、こーこーにほんだいひょーにえらばれたことがある。	NO_LABEL
2018年、帝京大学ラグビー部の主将に就任した。	にせんじゅうはちねん、ていきょーだいがくらぐびーぶのしゅしょーにしゅーにんした。	NO_LABEL
