アミラ・ダスツールは、インドの女優。	あみらだすつーるわ、いんどのじょゆー。	NO_LABEL
16歳の時にモデル活動を始め、『』で映画デビューする。	NO_PRONOUNCE	NO_LABEL
『』で高い評価を得た。	NO_PRONOUNCE	NO_LABEL
『』への出演でのタミル語映画最優秀新人女優賞にノミネートされている。	NO_PRONOUNCE	NO_LABEL
を卒業後にに進学するが、女優を目指すため中退する。	をそつぎょーごににしんがくするが、じょゆーをめざすためちゅーたいする。	NO_LABEL
ダスツールはパールシーであり、英語とグジャラート語を話すことができる。	だすつーるわぱーるしーであり、えいごとぐじゃらーとごをはなすことができる。	NO_LABEL
その後はムンバイのHRカレッジで学んでいる。	そのごわむんばいのえいちあーるかれっじでまなんでいる。	NO_LABEL
コマーシャルのモデルとして女優のキャリアを開始する。	こまーしゃるのもでるとしてじょゆーのきゃりあをかいしする。	NO_LABEL
2013年公開のボリウッド映画『』でヒロイン役に起用され、映画デビューする。	NO_PRONOUNCE	NO_LABEL
2017年には中国との合作映画『カンフー・ヨガ』でジャッキー・チェンと共演している。	NO_PRONOUNCE	NO_LABEL
2018年には『Rajugadu』に出演してデビューする。	NO_PRONOUNCE	NO_LABEL
