新潟明訓中学校・高等学校は、新潟県新潟市江南区北山に所在し、中高一貫教育を提供する私立中学校・高等学校。	NO_PRONOUNCE	NO_LABEL
高等学校においては、中学校から入学した内部進学の生徒と高等学校から入学した生徒との間では、3年間別クラスになる併設型中高一貫校。	こーとーがっこーにおいてわ、ちゅーがっこーからにゅーがくしたないぶしんがくのせいととこーとーがっこーからにゅーがくしたせいととのまでわ、さんねんかんべつくらすになるへいせつがたちゅうこーいっかんこー。	NO_LABEL
夜間中学校として勉学に励みたいと思った労働者たちが近隣の公立学校の教師に依頼し、学習生活が始まったことが起源。	やかんちゅーがっこーとしてべんがくにはげみたいとおもったろーどーしゃたちがきんりんのこーりつがっこーのきょーしにいらいし、がくしゅーせいかつがはじまったことがきげん。	NO_LABEL
全国でも異例の、自治体や法人ではない有志により設置された私塾が起源となっている。	ぜんこくでもいれいの、じちたいやほーじんでわないゆーしによりせっちされたしじゅくがきげんとなっている。	NO_LABEL
通称は「明訓」で、これは廃止された地元の私学「明訓校」の名を引き継いだ事による。	NO_PRONOUNCE	NO_LABEL
2004年に旧校舎の老朽化により新潟市中央区川岸町から現在の新潟市江南区北山に新校舎が落成した。	にせんよねんにきゅーこーしゃのろーきゅーかによりにーがたしちゅーおーくかわぎしちょーからげんざいのにーがたしこーなんくきたやまにしんこーしゃがらくせいした。	NO_LABEL
2007年4月に中等部を設置し、中高一貫教育を開始した。	にせんななねんしがつにちゅーとーぶをせっちし、ちゅうこういっかんきょーいくをかいしした。	NO_LABEL
水島新司の野球漫画「ドカベン」の明訓高校は、本校から名前が採られており、作中では姉妹校と設定されている。	NO_PRONOUNCE	NO_LABEL
各学年・コースとも50分授業を実施。	NO_PRONOUNCE	NO_LABEL
土曜は原則奇数週に実施。	どよーわげんそくきすーしゅーにじっし。	NO_LABEL
曜日・コース型により異なるが、1限から7限までが展開されている。	NO_PRONOUNCE	NO_LABEL
Ⅲ類はⅠ・Ⅱ類より早く授業が終わり部活動に邁進する。	NO_PRONOUNCE	NO_LABEL
野球部は初出場以来春1回、夏7回の甲子園出場を果たしており、新潟県内では高校野球の強豪校として知られる。	やきゅーぶわはつしゅつじょーいらいはるいっかい、なつななかいのこーしえんしゅつじょーをはたしており、にーがたけんないでわこーこーやきゅーのきょーごーこーとしてしられる。	NO_LABEL
野球部以外の部活動も、2015年8月にダンス部が全国一位を獲得するなど盛んである。	やきゅーぶいがいのぶかつどーも、にせんじゅうごねんはちがつにだんすぶがぜんこくいちいをかくとくするなどさかんである。	NO_LABEL
近年では高校1年次にアメリカ合衆国やオーストラリアなどを行き先とする選択制海外研修が行われるなど、グローバル教育が盛んである。	きんねんでわこーこーいちねんじにあめりかがっしゅーこくやおーすとらりあなどをいきさきとするせんたくせいかいがいけんしゅーがおこなわれるなど、ぐろーばるきょーいくがさかんである。	NO_LABEL
全日本高校模擬国連大会に多く出場していることも特筆される。	ぜんにほんこーこーもぎこくれんたいかいにおーくしゅつじょーしていることもとくひつされる。	NO_LABEL
国公立大学志望が強く、それらへの進学者が多い。	こっこーりつだいがくしぼーがつよく、それらえのしんがくしゃがおーい。	NO_LABEL
特に新潟大学への進学が目立つほか、中高一貫の1期生が卒業した2013年以降、東京大学や国立大医学部医学科をはじめとする難関大学への進学も増加している。	とくににーがただいがくえのしんがくがめだつほか、ちゅうこういっかんのいっきせいがそつぎょーしたにせんじゅうさんねんいこー、とーきょーだいがくやこくりつだいいがくぶいがくかをはじめとするなんかんだいがくえのしんがくもぞーかしている。	NO_LABEL
