塵肺は、粉塵や微粒子を長期間吸引した結果、肺の細胞にそれらが蓄積することによって起きる肺疾患の総称。	じんはいわ、ふんじんやびりゅーしをちょーきかんきゅーいんしたけっか、はいのさいぼーにそれらがちくせきすることによっておきるはいしっかんのそーしょー。	NO_LABEL
じん肺法は「粉塵を吸入する事によって肺に生じた繊維増殖性変化を主体とする疾病」と定義している。	NO_PRONOUNCE	NO_LABEL
症状として咳、痰、息切れ、呼吸困難、動悸を起こす。	しょーじょーとしてせき、たん、いきぎれ、こきゅーこんなん、どーきをおこす。	NO_LABEL
原因となる粉塵には、	げんいんとなるふんじんにわ、	NO_LABEL
があり、鉱山や炭鉱、陶磁器製造業、製紙業、石切業、鋳物業、トンネル工事、アスベストを用いる建築や建造物の解体など粉塵の多い環境に従事する職業に見られる職業性疾患であることが多い。	があり、こーざんやたんこー、とーじきせいぞーぎょー、せいしぎょー、いしきりぎょー、いものぎょー、とんねるこーじ、あすべすとをもちいるけんちくやけんぞーぶつのかいたいなどふんじんのおーいかんきょーにじゅーじするしょくぎょーにみられるしょくぎょーせいしっかんであることがおーい。	NO_LABEL
そのため、職業性肺疾患とも呼ばれる。	そのため、しょくぎょーせいはいしっかんともよばれる。	NO_LABEL
ヒトの呼吸器には、粉塵などの異物を排除する機能が備わっており、比較的大きな粉塵は鼻で、細かな粉塵は気管や気管支のせん毛で排除される。	ひとのこきゅーきにわ、ふんじんなどのいぶつをはいじょするきのーがそなわっており、ひかくてきおーきなふんじんわはなで、こまかなふんじんわきかんやきかんしのせんもーではいじょされる。	NO_LABEL
しかし、大きさがおよそ1～5μmの粉塵は排除されずに気管・気管支に沈着し、1μm以下の粉塵は肺胞に到達する。	NO_PRONOUNCE	NO_LABEL
肺胞に到達した粉塵も多くは呼気とともに体外へ出されるが一部は排出されず残るため、粉塵の濃度の高い空気を吸入しつづけると肺胞に粉塵がたまってゆく。	NO_PRONOUNCE	NO_LABEL
このような生活が長期間続くと、肺胞やその周囲で次の変化がおこる。	NO_PRONOUNCE	NO_LABEL
初期は自覚症状がないため、気づかない間に進行し、やがて咳、痰、息切れがおこる。	しょきわじかくしょうじょーがないため、きずかないまにしんこーし、やがてせき、たん、いきぎれがおこる。	NO_LABEL
さらに進行すると呼吸困難、動悸を起こす。	さらにしんこーするとこきゅーこんなん、どーきをおこす。	NO_LABEL
また、塵肺になると肺結核などの病気を合併しやすくなる。	また、じんはいになるとはいけっかくなどのびょーきをがっぺいしやすくなる。	NO_LABEL
症状の現れ方、進行の早さは、原因となる粉塵の化学組成、粒子の大きさ、吸入量、個人差により異なる。	しょーじょーのあらわれかた、しんこーのはやさわ、げんいんとなるふんじんのかがくそせい、りゅーしのおーきさ、きゅーにゅーりょう、こじんさによりことなる。	NO_LABEL
以下に粉塵の化学組成による分類のうち主なものを列挙する。	いかにふんじんのかがくそせいによるぶんるいのうちおもなものをれっきょする。	NO_LABEL
根治の決め手は存在せず、じん肺法が規制している。	こんじのきめてわそんざいせず、じんぱいほーがきせいしている。	NO_LABEL
治療は対症療法に限られている。	ちりょーわたいしょーりょーほーにかぎられている。	NO_LABEL
気管支拡張薬、去痰剤、酸素吸入などが行われることが多い。	きかんしかくちょーやく、きょたんざい、さんそきゅうにゅーなどがおこなわれることがおーい。	NO_LABEL
結核の合併に対しては積極的に治療を行う。	けっかくのがっぺいにたいしてわせっきょくてきにちりょーをおこなう。	NO_LABEL
肺の移植手術も有効である。	はいのいしょくしゅじゅつもゆーこーである。	NO_LABEL
上述のとおり、塵肺を根治する方法はないため、予防処置をとることが非常に重要である。	じょーじゅつのとーり、じんはいをこんじするほーほーわないため、よぼーしょちをとることがひじょーにじゅーよーである。	NO_LABEL
粉塵の発生する作業現場で採りうる方法を以下に挙げる。	ふんじんのはっせいするさぎょーげんばでとりうるほーほーをいかにあげる。	NO_LABEL
じん肺法では事業者が作業者について、次の健康診断を行うよう定めている。	じんぱいほーでわじぎょーしゃがさぎょーについて、つぎのけんこーしんだんをおこなうよーさだめている。	NO_LABEL
また、作業者が事業場をやめる場合は、離職時健康診断を行うよう事業者に請求することができる。	また、さぎょーがじぎょーじょーをやめるばあいわ、りしょくじけんこーしんだんをおこなうよーじぎょーしゃにせいきゅーすることができる。	NO_LABEL
ある程度の塵肺にかかっている者は健康管理手帳を国からもらい、健康診断や肺がんに関する検査を無料で受けることができる。	あるていどのじんはいにかかっているものわけんこーかんりてちょーをくにからもらい、けんこーしんだんやはいがんにかんするけんさをむりょーでうけることができる。	NO_LABEL
