闘鳥は、鳥籠の中に入れられた小鳥と小鳥が戦う競技。	NO_PRONOUNCE	NO_LABEL
主に東南アジアをはじめとしたアジア地域で広く行われており、特にモズやシジュウカラ、ホオジロなどが多く用いられた。	おもにとーなんあじあをはじめとしたあじあちーきでひろくおこなわれており、とくにもずやしじゅーから、ほーじろなどがおーくもちいられた。	NO_LABEL
アメリカでは、カナリアやフィンチが多く用いられる。	あめりかでわ、かなりあやふぃんちがおーくもちいられる。	NO_LABEL
アフガニスタンでは、カウクと呼ばれる野鳥を使い、カウク・ボジーと呼ばれる闘鳥が盛んに行われている。	NO_PRONOUNCE	NO_LABEL
