堀江金属工業株式会社は、愛知県豊田市にかつて存在した企業。	ほりえきんぞくこーぎょーかぶしきがいしゃわ、あいちけんとよたしにかつてそんざいしたきぎょー。	NO_LABEL
燃料系部品を中心に自動車部品を製造、鋼板の加工・販売をしていた。	NO_PRONOUNCE	NO_LABEL
2008年10月1日をもって、堀江金属工業は樹脂燃料タンク製造のエフティエスと対等合併し、FTSへと社名変更した。	NO_PRONOUNCE	NO_LABEL
社名として堀江金属工業株式会社と書かれている場合もある。	しゃめいとしてほりえきんぞくこーぎょーかぶしきがいしゃとかかれているばあいもある。	NO_LABEL
