アロウズ・A21は、アロウズが2000年のF1世界選手権参戦用に開発したフォーミュラ1カー。	NO_PRONOUNCE	NO_LABEL
デザイナーはマイク・コフラン。	でざいなーわまいくこふらん。	NO_LABEL
チーム2年目のペドロ・デ・ラ・ロサと、のフットワーク時代にも所属したヨス・フェルスタッペンがドライブした。	ちーむにねんめのぺどろでらろさと、のふっとわーくじだいにもしょぞくしたよすふぇるすたっぺんがどらいぶした。	NO_LABEL
A21はマクラーレンに倣ったローノーズを持つマシンのひとつであったが、全チームの中で唯一プルロッド式のフロントサスペンションを採用していた。	NO_PRONOUNCE	NO_LABEL
プルロッドはダンパーをモノコック下側に配置するため、重心を下げられるというメリットがある。	ぷるろっどわだんぱーをものこっくかがわにはいちするため、じゅーしんをさげられるとゆうめりっとがある。	NO_LABEL
エンジンは自社製V8から、カスタマー用のスーパーテックV10に変更された。	えんじんわじしゃせいぶいえいとから、かすたまーよーのすーぱーてっくぶいじゅーにへんこーされた。	NO_LABEL
チームは新たなスポンサーとして、携帯電話キャリアのOrangeのスポンサードを得て、そのイメージカラーのオレンジでカラーリングがなされた。	ちーむわあらたなすぽんさーとして、けいたいでんわきゃりあのおれんじのすぽんさーどをえて、そのいめーじからーのおれんじでからーりんぐがなされた。	NO_LABEL
プレシーズンテストでは「スポンサー獲得のために燃料を減らしているのではないか」と疑われるほどの速さをみせた。	NO_PRONOUNCE	NO_LABEL
シーズン中も高速コースでパフォーマンスを発揮し、17戦中7戦で決勝レース中の最高速を記録した。	しーずんちゅーもこーそくこーすでぱふぉーまんすをはっきし、じゅうななせんちゅーななせんでけっしょーれーすちゅーのさいこーそくをきろくした。	NO_LABEL
他の記録者はマクラーレン・メルセデス7回、BAR・ホンダ3回である。	NO_PRONOUNCE	NO_LABEL
デ・ラ・ロサはドイツGPやオーストリアGPでは表彰台を望める位置で走行したものの、ドイツではスピンにより6位でフィニッシュ、オーストリアではギアボックストラブルでリタイアした。	でらろさわどいつげーぺーやおーすとりあげーぺーでわひょーしょーだいをのぞめるいちでそーこーしたものの、どいつでわすぴんによりろくいでふぃにっしゅ、おーすとりあでわぎあぼっくすとらぶるでりたいあした。	NO_LABEL
フェルスタッペンも印象に残るパフォーマンスを見せ、カナダGP5位、イタリアGP4位という結果を残した。	ふぇるすたっぺんもいんしょーにのこるぱふぉーまんすをみせ、かなだげーぺーごい、いたりあげーぺーよんいとゆうけっかをのこした。	NO_LABEL
しかし、信頼製不足によりリタイアを喫するレースが多く、完走率はフェルスタッペンが18位、デ・ラ・ロサは22位だった。	しかし、しんらいせいふそくによりりたいあをきっするれーすがおーく、かんそーりつわふぇるすたっぺんがじゅうはちー、でらろさわにじゅうにーだった。	NO_LABEL
チームは、結局7ポイントを得、コンストラクターズランキング7位でシーズンを終えた。	NO_PRONOUNCE	NO_LABEL
()	かっこ	NO_LABEL
