横山 順一は日本の物理学者。	よこやまじゅんいちわにっぽんのぶつりがくしゃ。	NO_LABEL
専門は初期宇宙論と宇宙構造進化論。	せんもんわしょきうちゅーろんとうちゅーこーぞーしんかろん。	NO_LABEL
東京大学大学院理学系研究科附属ビッグバン宇宙国際研究センター教授。	とーきょーだいがくだいがくいんりがくけいけんきゅーかふぞくびっぐばんうちゅーこくさいけんきゅーせんたーきょーじゅ。	NO_LABEL
東京大学数物連携宇宙研究機構併任研究員。	とーきょーだいがくかずものれんけいうちゅーけんきゅーきこーへいにんけんきゅーいん。	NO_LABEL
理学博士。	りがくはかせ。	NO_LABEL
群馬県富岡市出身。	ぐんまけんとみおかししゅっしん。	NO_LABEL
新島学園卒。	にーじまがくえんそつ。	NO_LABEL
東京大学理学部物理学科卒。	とーきょーだいがくりがくぶぶつりがっかそつ。	NO_LABEL
同大学院博士課程中途退学。	どーだいがくいんはかせかていちゅーとたいがく。	NO_LABEL
東大では佐藤勝彦に師事した。	とーだいでわさとーかつひこにしじした。	NO_LABEL
東京大学理学部物理学教室助手、米フェルミ国立加速器研究所客員研究員、京都大学基礎物理学研究所助教授、スタンフォード大学客員研究員、大阪大学大学院理学研究科助教授を経て、2005年より現職。	とーきょーだいがくりがくぶぶつりがくきょーしつじょしゅ、べいふぇるみこくりつかそくきけんきゅーじょきゃくいんけんきゅーいん、きょーとだいがくきそぶつりがくけんきゅうしょじょきょーじゅ、すたんふぉーどだいがくきゃくいんけんきゅーいん、おーさかだいがくだいがくいんりがくけんきゅーかじょきょーじゅをへて、にせんごねんよりげんしょく。	NO_LABEL
英文学者・翻訳家の横山貞子はおば、評論家・哲学者の鶴見俊輔はおばの夫、歴史学者の鶴見太郎は従兄弟。	NO_PRONOUNCE	NO_LABEL
