リアクションホイール（）は、姿勢制御装置の一種である。	りあくしょんほいーるかっこわ、しせいせいぎょそーちのいちしゅである。	NO_LABEL
フライホイールを利用して角運動量を変化させるもので、主に宇宙機で用いられる。	ふらいほいーるをりよーしてかくうんどーりょーをへんかさせるもので、おもにうちゅーきでもちいられる。	NO_LABEL
リアクションホイールはロケットやジェットを噴射せずに宇宙機の方向を変化させる姿勢制御装置の1つである。	りあくしょんほいーるわろけっとやじぇっとをふんしゃせずにうちゅーきのほーこーをへんかさせるしせいせいぎょそーちのひとつである。	NO_LABEL
特に望遠鏡が特定の星を捉えるように保つ場合など、少しだけ宇宙機を回転させるのに用いられる。	とくにぼーえんきょーがとくていのほしをとらえるよーにたもつばあいなど、すこしだけうちゅーきをかいてんさせるのにもちいられる。	NO_LABEL
この操作によってもロケット燃料などを消費せずに済む。	このそーさによってもろけっとねんりょーなどをしょーひせずにすむ。	NO_LABEL
原理的には簡素に言えば、リアクションホイール内部にあるコマが回転数の変動に伴う反作用によって宇宙機にトルクを与えることで宇宙機の回転を制御する。	げんりてきにわかんそにいえば、りあくしょんほいーるないぶにあるこまがかいてんすーのへんどーにともなうはんさよーによってうちゅーきにとるくをあたえることでうちゅーきのかいてんをせいぎょする。	NO_LABEL
ゼロモーメンタム方式による3軸安定方式を採用した宇宙機の質量を中心とする自転運動を回転、または静止させるための姿勢制御だけが可能であり、直線加速度を加えて宇宙空間を移動させる軌道制御は行えない。	NO_PRONOUNCE	NO_LABEL
宇宙機でのリアクションホイールは、姿勢制御の自由度を確保するために多軸構成になることが多い。	うちゅーきでのりあくしょんほいーるわ、しせいせいぎょのじゆーどをかくほするためにたじくこーせいになることがおーい。	NO_LABEL
1つの回転軸に対して、１つのフライホイールを電動モーターで回転駆動する。	ひとつのかいてんじくにたいして、ひとつのふらいほいーるをでんどーもーたーでかいてんくどーする。	NO_LABEL
宇宙機の角運動量をフライホイールの角運動量へ移して保存することでリアクションホイール以外の機体部分の角運動量を調節する。	うちゅーきのかくうんどーりょーをふらいほいーるのかくうんどーりょーえうつしてほぞんすることでりあくしょんほいーるいがいのきたいぶぶんのかくうんどーりょーをちょーせつする。	NO_LABEL
一般にフライホイールは電動モーターと一体として作られる。	いっぱんにふらいほいーるわでんどーもーたーといったいとしてつくられる。	NO_LABEL
フライホイールの加減速と回転数検知はすべて電気的に行われ、コンピュータで精密に制御される。	ふらいほいーるのかげんそくとかいてんすーけんちわすべてでんきてきにおこなわれ、こんぴゅーたでせいみつにせいぎょされる。	NO_LABEL
リアクションホイールの回転速度の上限値は主に回転軸のベアリングの耐久性によって決まり、回転体の質量と角速度の積から制御可能な角運動量の最大値が定まる。	りあくしょんほいーるのかいてんそくどのじょーげんちわおもにかいてんじくのべありんぐのたいきゅーせいによってきまり、かいてんたいのしつりょーとかくそくどのせきからせいぎょかのーなかくうんどーりょーのさいだいちがさだまる。	NO_LABEL
多軸構成の場合、駆動回路がリアクションホイールごとに備わるものと1つの駆動回路部に集約されているものがある。	たじくこーせいのばあい、くどーかいろがりあくしょんほいーるごとにそなわるものとひとつのくどーかいろぶにしゅーやくされているものがある。	NO_LABEL
リアクションホイールのフライホイールは、ベアリングによって回転軸に取り付けられているが、真空中でも機能するこの幾分特殊なベアリングは回転時には摩擦が生じない構造である。	りあくしょんほいーるのふらいほいーるわ、べありんぐによってかいてんじくにとりつけられているが、しんくーちゅーでもきのーするこのいくぶんとくしゅなべありんぐわかいてんじにわまさつがしょーじないこーぞーである。	NO_LABEL
回転速度ゼロの止まった状態から回転運動をはじめるのには大きな負担がかかる。	かいてんそくどぜろのとまったじょーたいからかいてんうんどーをはじめるのにわおーきなふたんがかかる。	NO_LABEL
このため、一般には回転速度ゼロとなる領域での運用は寿命を縮めるので可能ならば避けられる。	このため、いっぱんにわかいてんそくどぜろとなるりょーいきでのうんよーわじゅみょーをちじめるのでかのーならばさけられる。	NO_LABEL
リアクションホイールは、姿勢制御の開始当初から最大回転数の1/2ほどで回転させておく使用法と、姿勢制御の開始当初は回転速度ゼロである使用法がある。	NO_PRONOUNCE	NO_LABEL
前者では運用時のホイール回転数の範囲下限はゼロではなく1000rpm程度であり、停止状態やマイナス方向での回転は行わない。	NO_PRONOUNCE	NO_LABEL
後者は角運動量を保存する能力が前者より大きくできる。	こーしゃわかくうんどーりょーをほぞんするのーりょくがぜんしゃよりおーきくできる。	NO_LABEL
宇宙機は自転に対して3軸方向の姿勢制御が求められることが一般的であり、この場合、3軸3基、または4軸4基のリアクションホイールが搭載されることになる。	NO_PRONOUNCE	NO_LABEL
3軸3基の構成では、直交する X,Y,Z の各軸に対してそのまま3基が配置され、通常は各軸周りの運動に対してそれぞれ1基のリアクションホイールが対応することになるが、プログラムによって1軸の故障時に残る2軸でもモーメントの合成によって姿勢制御が可能となる。	NO_PRONOUNCE	NO_LABEL
4軸4基の構成では、4軸すべての軸方向が互いに直交することなく斜めに交差しており「フォー・スキュー」と呼ばれる。	NO_PRONOUNCE	NO_LABEL
4軸4基は3軸3基よりも冗長性がある。	NO_PRONOUNCE	NO_LABEL
リアクションホイールは宇宙機の角運動量をフライホイール内に蓄えるだけなので、宇宙機の重心に無くとも完全に機能する。	りあくしょんほいーるわうちゅーきのかくうんどーりょーをふらいほいーるないにたくわえるだけなので、うちゅーきのじゅーしんになくともかんぜんにきのーする。	NO_LABEL
しかし、回転によって振動が生じるため、その影響を小さくできる重心近くに置かれることがある。	しかし、かいてんによってしんどーがしょーじるため、そのえいきょーをちーさくできるじゅーしんちかくにおかれることがある。	NO_LABEL
太陽からの放射光が生み出す力である太陽輻射圧のようなものが宇宙機に当り、それを受ける面が重心に対して偏りがあり続けるときには、機体を回転させる外力となる。	NO_PRONOUNCE	NO_LABEL
このようなモーメントは微小でありリアクションホイールの回転数の変化によって吸収されるが、長期間に渡って同一方向にモーメントが蓄積されるとやがてはリアクションホイールの回転が限界に近づき、そのままでは「飽和」して制御が破綻する。	NO_PRONOUNCE	NO_LABEL
この蓄積されたモーメントを解消するために、多くの宇宙機ではリアクションホイールとは別の姿勢制御システムを備えている。	このちくせきされたもーめんとをかいしょーするために、おーくのうちゅーきでわりあくしょんほいーるとわべつのしせいせいぎょしすてむをそなえている。	NO_LABEL
別の姿勢制御システムの最も一般的なものには一液式ロケットがあり、二液式も採用されている。	べつのしせいせいぎょしすてむのもっともいっぱんてきなものにわいちえきしきろけっとがあり、にえきしきもさいよーされている。	NO_LABEL
一液式は触媒に吹き付けて燃焼させるものと高圧ボンベに詰めた窒素ガスなどの噴射を用いるものがある。	いちえきしきわしょくばいにふきつけてねんしょーさせるものとこーあつぼんべにつめたちっそがすなどのふんしゃをもちいるものがある。	NO_LABEL
二液式は液体燃料と液体酸化剤を用いた小型のロケットエンジンである。	にえきしきわえきたいねんりょーとえきたいさんかざいをもちいたこがたのろけっとえんじんである。	NO_LABEL
このような蓄積されたモーメントを解消する操作は「アンローディング」と呼ばれる。	NO_PRONOUNCE	NO_LABEL
姿勢制御スラスタは、正確に噴射しないと軌道まで変更させてしまうリスクがあり、機械的なバルブや燃料の化学反応に依存するロケットの噴射機構は、電磁的に制御されるリアクションホイールよりも制御誤差が大きくなる傾向がある。	しせいせいぎょすらすたわ、せいかくにふんしゃしないときどーまでへんこーさせてしまうりすくがあり、きかいてきなばるぶやねんりょーのかがくはんのーにいぞんするろけっとのふんしゃきこーわ、でんじてきにせいぎょされるりあくしょんほいーるよりもせいぎょごさがおーきくなるけいこーがある。	NO_LABEL
また、アンローディングの回数が増えるとそれだけ噴射ガスの元となる燃料が消費される。	また、あんろーでぃんぐのかいすーがふえるとそれだけふんしゃがすのもととなるねんりょーがしょーひされる。	NO_LABEL
また、地球に近い軌道など磁場が存在する場所では、磁気トルカを使って運動量を打ち消すことができる。	また、ちきゅーにちかいきどーなどじばがそんざいするばしょでわ、じきとるかをつかってうんどーりょーをうちけすことができる。	NO_LABEL
磁場のない環境では、イオンエンジンなどの高効率姿勢制御ジェットを使ったり、小さい宇宙船であれば太陽電池パネルやマストの先に軽量な太陽帆を備える場合もある。	じばのないかんきょーでわ、いおんえんじんなどのこーこーりつしせいせいぎょじぇっとをつかったり、ちーさいうちゅうせんであればたいよーでんちぱねるやますとのさきにけいりょーなたいよーほたいようはんをそなえるばあいもある。	NO_LABEL
