インドの国章は、サールナートにおける「アショーカの獅子柱頭」から受け継がれたものである。	NO_PRONOUNCE	NO_LABEL
アショーカ王は、釈迦が法を最初に説き、僧伽が見つかった場所を示した「」の先端部に、アショーカの獅子柱頭を建てた。	NO_PRONOUNCE	NO_LABEL
この獅子柱頭は、前後左右に四匹のインドライオンが居り、円柱の冠板に帯状装飾として象と駿馬、雄牛と獅子が彫られ、それぞれの間にハスを模した法輪かの車輪が彫られたものであった。	このししちゅーとーわ、ぜんごさゆーによんひきのいんどらいおんがおり、えんちゅーのかんむりばんにおびじょーそーしょくとしてぞーとしゅんめ、おうしとししがほられ、それぞれのまにはすをもしたほーりんかのしゃりんがほられたものであった。	NO_LABEL
しかしながら、国章のバージョンには四つの獅子が居ないか、柱頭の下部に描かれたハスが省略されている。	しかしながら、こくしょーのばーじょんにわよっつのししがいないか、ちゅーとーのかぶにえがかれたはすがしょーりゃくされている。	NO_LABEL
獅子の下の帯状装飾には、中央に法輪が、右に雄牛、左に駿馬、右端と左端に法輪の外郭が、それぞれ描かれている。	ししのしたのおびじょーそーしょくにわ、ちゅーおーにほーりんが、みぎにおうし、ひだりにしゅんめ、みぎはしとひだりはしにほーりんのがいかくが、それぞれえがかれている。	NO_LABEL
国章の下部にデーヴァナーガリー文字で彫られたモットーは、「」という意味である。	NO_PRONOUNCE	NO_LABEL
これはウパニシャッドと呼ばれるヒンドゥー教の経典から取られたものであり、ヒンドゥー教のヴェーダ書の教えにも繋がるものである。	これわうぱにしゃっどとよばれるひんどぅーきょーのきょーてんからとられたものであり、ひんどぅーきょーのべーだしょのおしえにもつながるものである。	NO_LABEL
国章としては、インドの共和国化に当たり、1950年の1月26日に適用された。	こくしょーとしてわ、いんどのきょーわこくかにあたり、せんきゅうひゃくごじゅうねんのいちがつにじゅうろくにちにてきよーされた。	NO_LABEL
今日では、一般的にインドの国章として様々な場所で使用され、インド政府の公文書に使用されるマークとして、またインドの通貨、パスポートなどにその姿を見ることが出来る。	きょーでわ、いっぱんてきにいんどのこくしょーとしてさまざまなばしょでしよーされ、いんどせいふのこーぶんしょにしよーされるまーくとして、またいんどのつーか、ぱすぽーとなどにそのすがたをみることができる。	NO_LABEL
また、この国章の一部分を担っている法輪は、インドの国旗の中央部に描かれている。	また、このこくしょーのいちぶぶんをになっているほーりんわ、いんどのこっきのちゅーおーぶにえがかれている。	NO_LABEL
