「ヒトリセカイ×ヒトリズム」は、日本のバンド10-FEETの16枚目のシングルである。	NO_PRONOUNCE	NO_LABEL
2017年2月1日発売。	にせんじゅうななねんにがつついたちはつばい。	NO_LABEL
発売元はユニバーサルミュージック。	はつばいもとわゆにばーさるみゅーじっく。	NO_LABEL
前作から約6ヶ月半ぶりとなるシングル。	NO_PRONOUNCE	NO_LABEL
全曲 作詞・作曲：TAKUMA、編曲：10-FEET	NO_PRONOUNCE	NO_LABEL
