冨宅 正浩は、日本の政治家。	ふけまさひろわ、にっぽんのせいじか。	NO_LABEL
大阪府柏原市長。	おーさかふかしわらしちょー。	NO_LABEL
元柏原市議会議員。	もとかしわらしぎかいぎーん。	NO_LABEL
大阪府柏原市出身。	おーさかふかしわらししゅっしん。	NO_LABEL
追手門学院小学校、同中学校、同高等学校卒業。	おうてもんがくいんしょうがっこー、どーちゅーがっこー、どーこーとーがっこーそつぎょー。	NO_LABEL
立命館大学法学部卒業。	りつめいかんだいがくほーがくぶそつぎょー。	NO_LABEL
八尾市役所に就職。	やおしやくしょにしゅーしょく。	NO_LABEL
維新政治塾の一期生修了。	いしんせいじじゅくのいっきせいしゅーりょー。	NO_LABEL
2013年9月の柏原市議会議員選挙に初当選。	にせんじゅうさんねんくがつのかしわらしぎかいぎーんせんきょにはつとーせん。	NO_LABEL
2016年12月26日、翌年に行われる柏原市長選挙に大阪維新の会の推薦を受けて出馬する意向を表明した。	にせんじゅうろくねんじゅーにがつにじゅうろくにち、よくねんにおこなわれるかしわらしちょーせんきょにおーさかいしんのかいのすいせんをうけてしゅつばするいこーをひょーめいした。	NO_LABEL
2017年2月12日、柏原市長選挙執行。	にせんじゅうななねんにがつじゅうににち、かしわらしちょーせんきょしっこー。	NO_LABEL
女性問題が大きく報道され議会から問責決議案を受けた現職の中野隆司は1期目にして出馬を断念。	じょせいもんだいがおーきくほーどーされぎかいからもんせきけつぎあんをうけたげんしょくのなかのりゅうじわいっきめにしてしゅつばをだんねん。	NO_LABEL
冨宅は自由民主党推薦の友田景ら新人3候補との戦いを制し初当選した。	NO_PRONOUNCE	NO_LABEL
投票率は43.38％だった。	NO_PRONOUNCE	NO_LABEL
3月11日、市長就任。	さんがつじゅういちにち、しちょーしゅーにん。	NO_LABEL
