崔 暁は、中華人民共和国出身のプロ野球選手。	ちぇあきらわ、ちゅーかじんみんきょーわこくしゅっしんのぷろやきゅーせんしゅ。	NO_LABEL
中国野球リーグの北京タイガース所属	ちゅーごくやきゅーりーぐのぺきんたいがーすしょぞく	NO_LABEL
北京傘下時代に、福建省棒球隊に派遣される。	ぺきんさんかじだいに、ふっけんしょーぼーきゅーたいにはけんされる。	NO_LABEL
この頃アジアAAA野球選手権の代表候補になった。	このころあじあとりぷるえーやきゅーせんしゅけんのだいひょーこーほになった。	NO_LABEL
2006年、読売ジャイアンツに育成選手として所属。	にせんろくねん、よみうりじゃいあんつにいくせいせんしゅとしてしょぞく。	NO_LABEL
同年オフ北京タイガース復帰のため、自由契約選手として公示された。	どーねんおふぺきんたいがーすふっきのため、じゆーけいやくせんしゅとしてこーじされた。	NO_LABEL
巨人時代は主に二塁手としてプレーしたが、北京復帰後はポスト孫嶺峰として期待され、本格的に外野手に転向。	きょじんじだいわおもににるいしゅとしてぷれーしたが、ぺきんふっきごわぽすとそんれいほーとしてきたいされ、ほんかくてきにがいやしゅにてんこー。	NO_LABEL
俊足と巧打でレギュラーを獲得し、2010年広州アジア大会中国代表に選出。	しゅんそくとたくみだでれぎゅらーをかくとくし、にせんじゅうねんこーしゅーあじあたいかいちゅーごくだいひょーにせんしゅつ。	NO_LABEL
