宮西 尚生は、兵庫県西宮市出身のプロ野球選手。	みやにしひさおわ、ひょーごけんにしのみやししゅっしんのぷろやきゅーせんしゅ。	NO_LABEL
左投左打。	ひだりなげひだりうち。	NO_LABEL
北海道日本ハムファイターズ所属。	ほっかいどーにっぽんはむふぁいたーずしょぞく。	NO_LABEL
小学1年から野球を始め、中学時代はボーイズリーグの尼崎ボーイズでプレーし南大阪大会で優勝する。	しょーがくいちねんからやきゅーをはじめ、ちゅーがくじだいわぼーいずりーぐのあまがさきぼーいずでぷれーしみなみおーさかたいかいでゆーしょーする。	NO_LABEL
尼崎市立尼崎高校時代は1年先輩の金刃憲人と共に注目されるが全国大会には縁がなかった。	あまがさきしりつあまがさきこうこーじだいわいちねんせんぱいのかねとのりひととともにちゅーもくされるがぜんこくたいかいにわえんがなかった。	NO_LABEL
高校卒業後、関西学生野球連盟所属の関西学院大学に進学。	こーこーそつぎょーご、かんさいがくせいやきゅーれんめいしょぞくのかんせいがくいんだいがくにしんがく。	NO_LABEL
1年先輩に清水誉、同期に荻野貴司、1学年後輩に岸敬祐がいる。	NO_PRONOUNCE	NO_LABEL
1年秋からベンチ入りし、2年春のリーグ戦では先発投手とリリーフの両方でフル回転し、48回1/3連続無失点のリーグ記録を達成。	NO_PRONOUNCE	NO_LABEL
第16回IBAFインターコンチネンタルカップや北京プレオリンピック野球日本代表など4度日本代表に選出された。	だいじゅうろっかいあいびーえーふいんたーこんちねんたるかっぷやぺきんぷれおりんぴっくやきゅーにっぽんだいひょーなどよんどにほんだいひょーにせんしゅつされた。	NO_LABEL
しかし、3年次以降は球速を上げようとしてフォームを崩したため、成績は伸び悩んだ。	しかし、さんねんじいこーわきゅーそくをあげようとしてふぉーむをくずしたため、せいせきわのびなやんだ。	NO_LABEL
リーグ戦通算46試合登板、19勝13敗、防御率1.58、奪三振291。	NO_PRONOUNCE	NO_LABEL
梨田昌孝の長男・和利とは大学の4年間チームメイトだった。	NO_PRONOUNCE	NO_LABEL
11月19日に行われた大学生・社会人ドラフト会議において北海道日本ハムファイターズから3巡目指名を受け入団。	NO_PRONOUNCE	NO_LABEL
後年、入団当時を振り返って「大学3年から思うような成績を残せず、落ち目のところで山田正雄GMに拾ってもらった。	NO_PRONOUNCE	NO_LABEL
感謝しかない」と述べている。	NO_PRONOUNCE	NO_LABEL
3月25日の埼玉西武ライオンズ戦でプロ初登板。	さんがつにじゅうごにちのさいたませいぶらいおんずせんでぷろはつとーばん。	NO_LABEL
一軍公式戦通算の防御率が4点台ながら、チームに数少ない左の中継ぎとして重宝され、一軍の戦力となった。	いちぐんこーしきせんつーさんのぼーぎょりつがよんてんだいながら、ちーむにかずすくないひだりのなかつぎとしてちょーほーされ、いちぐんのせんりょくとなった。	NO_LABEL
8月に新型インフルエンザに罹り入院したが、復帰後初登板した8月28日の試合で7勝目を挙げ、岸孝之の6連勝を超えて開幕からの連勝記録でリーグトップとなった。	はちがつにしんがたいんふるえんざにかかりにゅーいんしたが、ふっきごはつとーばんしたはちがつにじゅうはちにちのしあいでななしょーめをあげ、きしたかゆきのろくれんしょーをこえてかいまくからのれんしょーきろくでりーぐとっぷとなった。	NO_LABEL
8月29日までは防御率1点台を維持した。	はちがつにじゅうきゅうにちまでわぼーぎょりついってんだいをいじした。	NO_LABEL
閉幕時は防御率2.89まで低下したが、58登板は菊地和正と並んでチーム最多、20ホールドポイントはリーグ8位。	NO_PRONOUNCE	NO_LABEL
5月19日にプロ初セーブを挙げた。	ごがつじゅうきゅうにちにぷろはつせーぶをあげた。	NO_LABEL
8月21日に伝染性のウイルス性結膜炎に感染したため一時的に出場選手登録を外れたが、同年に記録したチーム最多の61登板、リーグ7位の25ホールドポイント、防御率1.70は前年度の成績を上回った。	NO_PRONOUNCE	NO_LABEL
また、この年で、入団1年目から一軍公式戦3年連続50試合登板を達成。	また、このとしで、にゅーだんいちねんめからいちぐんこーしきせんさんねんれんぞくごじゅうしあいとーばんをたっせい。	NO_LABEL
日本ハムの投手としては、からに金田留広が記録した以来39年振りの記録であった。	にほんはむのとーしゅとしてわ、からにかねだとめひろがきろくしたいらいさんじゅうきゅうねんふりのきろくであった。	NO_LABEL
は4月14日、5月6日に右打者に本塁打を打たれ敗戦投手となった。	わしがつじゅうよっか、ごがつむいかにみぎだしゃにほんるいだをうたれはいせんとーしゅとなった。	NO_LABEL
この年の敗戦は本塁打による得点によるものだけであった。	このとしのはいせんわほんるいだによるとくてんによるものだけであった。	NO_LABEL
一軍公式戦全体では、防御率2.21、14ホールドと前年度から成績を落としながらも、チーム最多の61試合に登板。	NO_PRONOUNCE	NO_LABEL
11月13日に札幌市在住の女性と結婚した。	じゅーいちがつじゅうさんにちにさっぽろしざいじゅーのじょせいとけっこんした。	NO_LABEL
は増井浩俊、武田久とともに勝ちパターンの一角として主に7回を任された。	わますいひろとし、たけだひさしとともにかちぱたーんのいっかくとしておもにななかいをまかされた。	NO_LABEL
後半戦はやや調子を落としたものの、登板数・ホールド数とも自己最多であった。	NO_PRONOUNCE	NO_LABEL
も前年同様勝ちパターンの一角を担い、自身3年ぶりとなる防御率1点台、さらにリーグ2位となる30ホールドを記録するなど結果を残した。	NO_PRONOUNCE	NO_LABEL
は新加入のマイケル・クロッタやアンソニー・カーターがリリーバーとして加わるも、不動のセットアッパーとして62試合に登板、自己最多となる41ホールドを記録し、引き続き勝ちパターンの一角を担った。	NO_PRONOUNCE	NO_LABEL
8月19日に国内FA権を取得するもオフの11月8日に残留を発表。	はちがつじゅうきゅうにちにこくないえふえーけんをしゅとくするもおふのじゅーいちがつようかにざんりゅーをはっぴょー。	NO_LABEL
11月22日のファン感謝祭では2015年からチームの主将に就任することが発表された。	じゅーいちがつにじゅうににちのふぁんかんしゃさいでわにせんじゅうごねんからちーむのしゅしょーにしゅーにんすることがはっぴょーされた。	NO_LABEL
には、9月22日の対福岡ソフトバンクホークス戦での救援登板で、金田正一、米田哲也、山口鉄也に並ぶNPB歴代3位の8年連続一軍公式戦シーズン50試合登板を達成。	にわ、くがつにじゅうににちのたいふくおかそふとばんくほーくすせんでのきゅーえんとーばんで、かねだまさいち、よねだてつや、やまぐちてつやにならぶえぬぴーびーれきだいさんいのはちねんれんぞくいちぐんこーしきせんしーずんごじゅうしあいとーばんをたっせい。	NO_LABEL
3勝3敗25ホールド、防御率2.70という成績を残したほか、オールスターゲームにもパシフィック・リーグの監督推薦選手として初出場を果たした。	NO_PRONOUNCE	NO_LABEL
しかし、シーズンを通じて左肘の遊離軟骨の痛みに悩まされたため、9月23日に出場選手登録を抹消。	しかし、しーずんをつーじてひだりひじのゆーりなんこつのいたみになやまされたため、くがつにじゅうさんにちにしゅつじょーせんしゅとーろくをまっしょー。	NO_LABEL
その後は戦線に復帰せず、10月19日に左肘のクリーニングおよび神経移行術を受けた。	そのごわせんせんにふっきせず、じゅーがつじゅうきゅうにちにひだりひじのくりーにんぐおよびしんけいいこーじゅつをうけた。	NO_LABEL
なお、7月16日には第1回WBSCプレミア12の日本代表第1次候補選手に選出されたが、11月開催の本大会には出場していない。	なお、しちがつじゅうろくにちにわだいいっかいだぶりゅーびーえすしーぷれみあとぅえるぶのにほんだいひょーだいいちじこーほせんしゅにせんしゅつされたが、じゅーいちがつかいさいのほんたいかいにわしゅつじょーしていない。	NO_LABEL
また、前述の手術からのリハビリに取り組んでいた12月21日には、自宅付近で転倒した際に右手の第5中骨を骨折。	NO_PRONOUNCE	NO_LABEL
全治約5週間と診断された。	ぜんちやくごしゅーかんとしんだんされた。	NO_LABEL
11月に行われたファン感謝祭で、キャプテンを大野奨太に譲ることとなった。	じゅーいちがつにおこなわれたふぁんかんしゃさいで、きゃぷてんをおーのしょうたにゆずることとなった。	NO_LABEL
は去年10月左肘の手術の影響で開幕は2軍からスタートとなった。	わきょねんじゅーがつひだりひじのしゅじゅつのえいきょーでかいまくわにぐんからすたーととなった。	NO_LABEL
しかし、4月8日大嶋匠と共に一軍に合流。	しかし、しがつようかおーしまたくみとともにいちぐんにごーりゅー。	NO_LABEL
そして次の日の9日の楽天イーグルス戦今季初登板を成した。	そしてつぎのひのここのかのらくてんいーぐるすせんこんきはつとーばんをなした。	NO_LABEL
5月14日の西武戦で史上2人目となる通算200ホールドを記録。	NO_PRONOUNCE	NO_LABEL
同年はリーグ最多の39ホールドを記録し、自身初のタイトルとなる最優秀中継ぎ投手に選ばれた。	NO_PRONOUNCE	NO_LABEL
10月18日に「侍ジャパン 野球オランダ代表 野球メキシコ代表 強化試合」の日本代表に選出された。	NO_PRONOUNCE	NO_LABEL
はWBC日本代表に選出。	わだぶりゅーびーしーにほんだいひょーにせんしゅつ。	NO_LABEL
WBCではリリーフとして4試合に登板。	だぶりゅーびーしーでわりりーふとしてよんしあいにとーばん。	NO_LABEL
シーズンでは8月3日の千葉ロッテマリーンズ戦でNPB史上2人目、パ・リーグ史上初の通算250ホールドを達成した。	NO_PRONOUNCE	NO_LABEL
9月26日のオリックス・バファローズ戦ではNPB史上2人目、パ・リーグ史上初の10年連続50試合以上登板を達成した。	くがつにじゅうろくにちのおりっくすばふぁろーずせんでわえぬぴーびーしじょーふたりめ、ぱりーぐしじょーはつのじゅうねんれんぞくごじゅうしあいいじょーとーばんをたっせいした。	NO_LABEL
この年、海外FA権を取得したが、行使せず残留した。	このとし、かいがいえふえーけんをしゅとくしたが、こーしせずざんりゅーした。	NO_LABEL
サイドスローから平均球速約140km/h、最速147km/hのストレートとスライダー、カーブを投げる。	NO_PRONOUNCE	NO_LABEL
球種の比率のほぼ全てをストレートとスライダーが占める時期もあったが、近年はシンカーも織り交ぜる。	きゅうしゅのひりつのほぼすべてをすとれーととすらいだーがしめるじきもあったが、きんねんわしんかーもおりまぜる。	NO_LABEL
2017年シーズン現在、プロ入りしてから一度も先発投手を経験していない。	にせんじゅうななねんしーずんげんざい、ぷろいりしてからいちどもせんぱつとーしゅをけいけんしていない。	NO_LABEL
2011年11月、札幌在住の女性と結婚。	にせんじゅういちねんじゅーいちがつ、さっぽろざいじゅーのじょせいとけっこん。	NO_LABEL
2012年7月長男誕生。	にせんじゅうにねんしちがつちょーなんたんじょー。	NO_LABEL
2015年7月次男誕生。	にせんじゅうごねんしちがつじなんたんじょー。	NO_LABEL
2015年5月のインタビューで、当時2歳長男が野球を始めており「長男と家でキャッチボールをする時、速い球を投げる」と自画自賛する一方、特に野球をやらせようとは思っておらず、将来は手堅くサラリーマンがいいと話している。	NO_PRONOUNCE	NO_LABEL
武田勝とは2005年IBAFワールドカップで日本代表のチームメイトだったのが出会い。	たけだまさるとわにせんごねんあいびーえーえふわーるどかっぷでにほんだいひょーのちーむめいとだったのがであい。	NO_LABEL
慣れない海外、当時大学生は宮西1人だけでストレスだらけだった時に優しく接したのが武田だった。	なれないかいがい、とーじだいがくせいわみやにしひとりだけですとれすだらけだったときにやさしくせっしたのがたけだだった。	NO_LABEL
その後日本ハムでも引き続き仲が良いチームメイトになり、2016年武田が引退する時には「俺のために優勝しろ」という言葉に応えて、「11年間お疲れさまでした。	NO_PRONOUNCE	NO_LABEL
みんなで勝さんのために優勝してやったぞ！」という言葉を自分が率先して横断幕を作るほどいれこんだ。	NO_PRONOUNCE	NO_LABEL
この言葉はTシャツ化の上11月18日から発売開始。	このことばわてぃーしゃつかのうえじゅーいちがつじゅうはちにちからはつばいかいし。	NO_LABEL
