『MINT CONDITION』は、SPACE SHOWER MUSICより2016年7月6日に発売された日本のバンドSuchmosの3作目のEP。	NO_PRONOUNCE	NO_LABEL
品番はPECF-3167。	NO_PRONOUNCE	NO_LABEL
前作『LOVE&VICE』から約5か月半ぶりのリリース。	NO_PRONOUNCE	NO_LABEL
初回生産分封入特典として、自身初のワンマンツアー「TOUR MINT CONDITION」のチケット抽選先行申込チラシが封入されている。	NO_PRONOUNCE	NO_LABEL
本作のリード曲「MINT」は、ジーンズのブランド「リーバイス」とのコラボレーションのもと、スペシャルムービーやミュージック・ビデオが制作され、同年6月24日より音楽配信サイトにて先行配信された。	NO_PRONOUNCE	NO_LABEL
また、本作のCDジャケットもジーンズにフィーチャーしたデザインとなっている。	また、もとさくのしーでぃーじゃけっともじーんずにふぃーちゃーしたでざいんとなっている。	NO_LABEL
発売を記念して、発売日当日には名古屋にてシークレットギグが開催された。	はつばいをきねんして、はつばいびとーじつにわなごやにてしーくれっとぎぐがかいさいされた。	NO_LABEL
同年10月3日に発表された「MTV VMAJ 2016」にて、「MINT」のミュージック・ビデオが最優秀邦楽新人アーティストビデオ賞を受賞した。	NO_PRONOUNCE	NO_LABEL
