『ひっとでた!』は、2010年5月1日から2013年3月30日まで熊本放送で毎週土曜 25時48分 - 26時13分に放送されていたローカルバラエティ番組である。	NO_PRONOUNCE	NO_LABEL
番組名は、「飛び出した」という意味の熊本弁から来ており、「ヒットがでた」という意味も込めている。	NO_PRONOUNCE	NO_LABEL
企画は数週かけて完結していた。	きかくわすーしゅーかけてかんけつしていた。	NO_LABEL
番組開始当初は、「熊本の美味しい湧き水で作るチキンラーメンは絶対に美味しい」などミニ番組時代に放送されていた企画を再放送していた。	NO_PRONOUNCE	NO_LABEL
パブリシティの企画も多数あり、特定の店・施設・企業を「大人の事情」という言葉で括って紹介していた。	NO_PRONOUNCE	NO_LABEL
以下に挙げるのは実施した大人の事情企画である。	いかにあげるのわじっししたおとなのじじょーきかくである。	NO_LABEL
