ダニエル・アヴラモフスキは、マケドニア共和国のサッカー選手。	NO_PRONOUNCE	NO_LABEL
マケドニア共和国代表。	まけどにあきょーわこくだいひょー。	NO_LABEL
ポジションはMF。	ぽじしょんわえむえふ。	NO_LABEL
スコピエに生まれ、FKラボトニツキでトップチームに昇格、FKマケドニヤ・ジョルチェ・ペトロフへのレンタル移籍も経験した。	NO_PRONOUNCE	NO_LABEL
ラボトニツキ時代にはヨーロッパ内の複数のクラブから興味を持たれ、2012年2月にはリヴァプールFCで10日間のトライアルに参加した。	NO_PRONOUNCE	NO_LABEL
2014年7月に3年契約でセルビア・スーペルリーガのレッドスター・ベオグラードに加入。	にせんじゅうよねんしちがつにさんねんけいやくでせるびあすーぺるりーがのれっどすたーべおぐらーどにかにゅー。	NO_LABEL
8月30日に行われたFKスパルタク・スボティツァ戦で途中出場すると10分で初得点も決める出だしになった。	NO_PRONOUNCE	NO_LABEL
しかし翌年はOFKベオグラードにレンタル移籍となった。	NO_PRONOUNCE	NO_LABEL
2016年夏にレッドスター・ベオグラードに復帰してUEFAヨーロッパリーグ 2016-17 予選へ向かったが、怪我によってこの国際大会でプレー出来ず、半年を棒に振った。	NO_PRONOUNCE	NO_LABEL
更にこの怪我によってスーペルリーガでは登録外となり契約も12月に解除された。	さらにこのけがによってすーぺるりーがでわとーろくがいとなりけいやくもじゅーにがつにかいじょされた。	NO_LABEL
2016年12月20日にNKオリンピア・リュブリャナに加入。	にせんじゅうろくねんじゅーにがつはつかにえぬけいおりんぴありゅぶりゃなにかにゅー。	NO_LABEL
2017年夏のセルビアの移籍市場最終日に買い取りオプションつきの1年のレンタル移籍でFKヴォイヴォディナ・ノヴィサドへ加入する事となった。	NO_PRONOUNCE	NO_LABEL
2014年6月18日に行われた中華人民共和国代表戦で19歳ながらA代表初出場。	にせんじゅうよねんろくがつじゅうはちにちにおこなわれたちゅーかじんみんきょーわこくだいひょーせんでじゅうきゅうさいながらえいだいひょーはつしゅつじょー。	NO_LABEL
