岸本 王晴は日本の将棋アマ強豪で、元真剣師。	きしもとおーはるわにっぽんのしょーぎあまきょーごーで、もとしんけんし。	NO_LABEL
かつて真剣師として名を馳せた。	かつてしんけんしとしてなをはせた。	NO_LABEL
その後はアマチュア強豪として1977年5月に第18回関東アマ名人戦関東大会に都下代表として出場。	そのごわあまちゅあきょーごーとしてせんきゅうひゃくななじゅうななねんごがつにだいじゅうはっかいかんとーあまめいじんせんかんとーたいかいにとかだいひょーとしてしゅつじょー。	NO_LABEL
同年8月に日本アマチュア将棋連盟創設に参画し、同年創刊された「将棋ジャーナル」の初代編集長を務めた。	NO_PRONOUNCE	NO_LABEL
2008年3月28日逝去。	にせんはちねんさんがつにじゅうはちにちせいきょ。	NO_LABEL
享年73。	NO_PRONOUNCE	NO_LABEL
『現代真剣勝師物語 賭け将棋に憑かれた男たちのロマン』	NO_PRONOUNCE	NO_LABEL
