大規模災害からの復興に関する法律は、大規模な災害からの復興のための特別の措置について定める日本の法律である。	だいきぼさいがいからのふっこーにかんするほーりつわ、だいきぼなさいがいからのふっこーのためのとくべつのそちについてさだめるにっぽんのほーりつである。	NO_LABEL
東日本大震災の経験を踏まえて平成25年6月21日に公布・施行された。	NO_PRONOUNCE	NO_LABEL
また、規定の一部は平成25年8月30日に施行された。	また、きていのいちぶわへいせいにじゅうごねんはちがつさんじゅうにちにしこーされた。	NO_LABEL
特定大規模災害が発生した際に内閣総理大臣を本部長とする「復興対策本部」を置くことができるとし、政府に「国と地方公共団体とが適切な役割分担の下に地域住民の意向を尊重しつつ協同して、当該災害を受けた地域における生活の再建及び経済の復興を図るとともに、災害に対して将来にわたって安全な地域づくりを円滑かつ迅速に推進する」ことを基本理念とした「復興基本方針」の策定を義務づけている。	NO_PRONOUNCE	NO_LABEL
また、復興対策本部が定めた復興計画を国が実行するために都市計画法、土地改良法、森林法等の規定に対する「特別の措置」を行使することが出来ることを定めているほか、被災市町村が実施すべき災害復旧事業を被災自治体の要請に基づき国が代行出来る措置などを定めている。	NO_PRONOUNCE	NO_LABEL
都市計画上の特例と災害復旧事業の権限代行措置については第2条第9号に規定する特定大規模災害等にこれらの措置を適用出来ることとしている。	としけいかくじょーのとくれいとさいがいふっきゅーじぎょーのけんげんだいこーそちについてわだいにじょーだいくごーにきていするとくていだいきぼさいがいとーにこれらのそちをてきよーできることとしている。	NO_LABEL
「平成二十八年熊本地震による災害についての非常災害の指定に関する政令」により、熊本地震による災害が第2条第9号の「非常災害」に指定され、本法律の適用第一号となった。	NO_PRONOUNCE	NO_LABEL
これに基づき、国が県道熊本高森線と南阿蘇村道栃の木〜立野線の災害復旧事業を代行することを発表している。	NO_PRONOUNCE	NO_LABEL
