旧制長崎医科大学は、1923年4月、長崎市に設立された旧制官立大学。	きゅーせいながさきいかだいがくわ、せんきゅうひゃくにじゅうさんねんしがつ、ながさきしにせつりつされたきゅーせいかんりつだいがく。	NO_LABEL
略称は「長崎医大」。	NO_PRONOUNCE	NO_LABEL
この項目では長崎医学専門学校などの源流・前身諸校についても述べる。	NO_PRONOUNCE	NO_LABEL
第五高等中学校医学部設立当時の校地は、長崎養生所以来の小島郷字稲荷岳の校地を継承していたが、1891年9月11日、県下西彼杵郡浦上山里村里郷に新校舎が建設されて移転し、在来の小島校地は分教場とされた。	だいごこーとーちゅうがっこーいがくぶせつりつとーじのこーちわ、ながさきよーじょーしょいらいのこじまさとじいなりだけのこーちをけいしょーしていたが、せんはっぴゃくきゅうじゅういちねくがつじゅういちにち、けんかにしそのぎぐんうらかみやまざとむらさとごーにしんこーしゃがけんせつされていてんし、ざいらいのこじまこーちわぶんきょーじょーとされた。	NO_LABEL
以後浦上校地は医専・医大に継承され、医大の原爆被災まで存続した。	NO_PRONOUNCE	NO_LABEL
また正門を入って右手奥にある丘は、「虞美人草の咲く路の丘」略して「グビロが丘」と呼ばれ、丘の上の広場には医学校当時の木造2階建ての洋館が小島から移築されたこともあり、この丘は新校地のシンボルとなった。	NO_PRONOUNCE	NO_LABEL
1945年8月の原爆被災で浦上校地の全校舎・病院施設が壊滅し使用不能となったため、その直後から大学本部は片渕の長崎商工会議所、長崎経済専門学校、次いで新興善国民学校に移転され、同国民学校を臨時の附属医院として膨大な数の被爆者の診療を行った。	NO_PRONOUNCE	NO_LABEL
同年9月には大村市の旧海軍病院で診療・講義が開始、翌46年にこれが諫早の旧佐世保海軍病院分院に移転した。	NO_PRONOUNCE	NO_LABEL
ついで1947年には浦上の附属医院外来本館の修理が始まり、大学本部の一部と基礎医学教室が同館に復帰した。	ついでせんきゅうひゃくよんじゅうななねにわうらかみのふぞくいいんがいらいほんかんのしゅーりがはじまり、だいがくほんぶのいちぶときそいがくきょーしつがどーかんにふっきした。	NO_LABEL
しかし諫早・新興善に残る臨床各教室が浦上に復帰し、附属病院が完全に復旧したのは新制長崎大学発足後の1950年である。	NO_PRONOUNCE	NO_LABEL
以後、浦上校地は長崎大学医学部キャンパスとして継承され、現在に至っている。	いご、うらかみこーちわながさきだいがくいがくぶきゃんぱすとしてけいしょーされ、げんざいにいたっている。	NO_LABEL
医科大学の所在地である長崎では、戦災時には医大が救援活動の中心的な役割を担うことが期待されていた。	いかだいがくのしょざいちであるながさきでわ、せんさいじにわいだいがきゅーえんかつどーのちゅーしんてきなやくわりをになうことがきたいされていた。	NO_LABEL
しかし皮肉にも原爆は長崎医大そのものを直撃することになった。	しかしひにくにもげんばくわながさきいだいそのものをちょくげきすることになった。	NO_LABEL
すなわち、1945年8月9日午前11時2分、爆心地より600 - 800mの至近距離に位置していた長崎医大は、基礎教室・臨床教室・附属医専・附属薬専・東亜風土病研究所・看護婦寄宿舎など全ての校舎・施設が一瞬のうちに倒壊・炎上し、この時点で講義・診察中であった教官・学生・看護婦・事務職員ら合計896名が犠牲となった。	NO_PRONOUNCE	NO_LABEL
これに加え多数の入院・外来患者も犠牲となり、その数は約200名とされるが実数は把握できない。	NO_PRONOUNCE	NO_LABEL
特に木造の基礎教室で受講していた医大生・附属医専生400名余は、大半が爆風で倒壊した校舎の下敷きになり火災により焼死、運良く校舎から脱出できたものも被爆後1ヶ月以内に死亡したため全滅となった。	NO_PRONOUNCE	NO_LABEL
これに対し、RC造の堅固な建物であった臨床教室で卒業試験のため出席していた医科大4年生と附属医専3年生の中には、被爆時の場所によっては九死に一生を得たケースもあった。	これにたいし、てっきんこんくりーとぞーのけんごなたてものであったりんしょーきょーしつでそつぎょーしけんのためしゅっせきしていたいかだいよんねんせいとふぞくいせんさんねんせいのなかにわ、ひばくじのばしょによってわきゅーしにいっしょーをえたけーすもあった。	NO_LABEL
角尾晋学長は、被爆の直前、東京出張からの帰途の8月7日、被爆翌日の広島を歩いて惨状を目の当たりにし、翌8日医大に帰任してその詳細を学生・教職員に報告していた。	NO_PRONOUNCE	NO_LABEL
長崎での被爆時には角尾学長は内科病棟で診察中であったが、爆心地方面に近い北側の窓から爆風の直撃を受け重傷を負い、8月22日避難先の防空壕で死去した。	ながさきでのひばくじにわかくおがくちょーわないかびょーとーでしんさつちゅーであったが、ばくしんちほーめんにちかいきたがわのまどからばくふーのちょくげきをうけじゅーしょーをおい、はちがつにじゅうににちひなんさきのぼーくーごーでしきょした。	NO_LABEL
角尾学長のほかには附属医院長が圧死、附属医専部長も重傷を負いほどなくして死去した。	かくおがくちょーのほかにわふぞくいいんちょーがあっし、ふぞくいせんぶちょーもじゅーしょーをおいほどなくしてしきょした。	NO_LABEL
同じく勤務中被爆したものの比較的軽傷で角尾から後事を託された古屋野宏平・調来助両教授は、それぞれ学長事務取扱、附属医院長となり、大学の再建および被爆者の治療が進められた。	NO_PRONOUNCE	NO_LABEL
とくに放射線科の永井隆助教授は自らも重傷を負いながら8月12日以降「救護班」を組織して傷ついた市民に対する医療活動を進め、9月20日彼自身が一時昏睡状態に陥り解散をよぎなくされるまで活動を続けた。	NO_PRONOUNCE	NO_LABEL
この活動の記録は10月、危機を脱した永井により『原子爆弾救護報告書』にまとめられて医大に提出され、被爆直後の実態や初期の医療活動を知るための貴重な資料となっている。	NO_PRONOUNCE	NO_LABEL
かろうじて即死を免れた多くの重傷者が逃げのび、命を落とした構内「グビロが丘」では、敗戦後の10月から11月にかけて数多くの学生たちの遺体が収集・埋葬された。	NO_PRONOUNCE	NO_LABEL
これによりグビロが丘は原爆の惨劇を象徴する聖地として位置づけられるようになり、1947年にはこの丘に、大講堂の玄関に用いられていた花崗岩を用いて慰霊碑が建立された。	これによりぐびろがおかわげんばくのさんげきをしょーちょーするせいちとしていちずけられるよーになり、せんきゅうひゃくよんじゅうななねにわこのおかに、だいこうどーのげんかんにもちいられていたかこーがんをもちいていれいひがこんりゅーされた。	NO_LABEL
旧医大校地内で、このほかに原爆被災を記念するモニュメントとしては、角尾晋学長の銅像、爆風により前に9cmずれ傾き台座との間で隙間が空いたまま現場保存されている旧医大正門の門柱がある。	きゅーいだいこーちないで、このほかにげんばくひさいをきねんするもにゅめんととしてわ、つのーすすむがくちょーのどーぞー、ばくふーによりまえにきゅうせんちめーとるずれかたむきだいざとのまですきまがあいたままげんばほぞんされているきゅーいだいせいもんのもんちゅーがある。	NO_LABEL
日中戦争が全面化すると、中国大陸からの感染症の侵入を防止する研究の需要が高まり、1940年秋、長崎医大には病理学教室・細菌学教室を母体にした大陸医学研究班が設置された。	NO_PRONOUNCE	NO_LABEL
翌年、同班は大陸医学研究所病理部と改称、病理・細菌2学科を設置し、1942年3月にはこれを拡充して東亜風土病研究所が開設されるに至った。	NO_PRONOUNCE	NO_LABEL
東亜風土病研究所は九州南部の風土病調査などを行う一方で、中国大陸の日本軍占領地で医療・衛生行政を担っていた同仁会と提携し、漢口などで野外調査を進めた。	NO_PRONOUNCE	NO_LABEL
また当時長崎で大流行をみたデング熱の調査も行った。	またとーじながさきでだいりゅーこーをみたでんぐねつのちょーさもおこなった。	NO_LABEL
1945年8月9日の原爆被災により、研究所は研究資料とともに一瞬のうちに焼失し、金子直教授を始めとして多くの所員が爆死するなど大きな打撃を受け、研究活動は一時頓挫した。	せんきゅうひゃくよんじゅうごねんはちがつここのかのげんばくひさいにより、けんきゅーじょわけんきゅーしりょーとともにいっしゅんのうちにしょーしつし、かねこただしきょーじゅをはじめとしておーくのしょいんがばくしするなどおーきなだげきをうけ、けんきゅーかつどーわいちじとんざした。	NO_LABEL
第二次世界大戦後の1946年4月、研究所は名称から「東亜」を削除して「風土病研究所」と改称、翌5月には諫早に移転して研究活動を再開した。	NO_PRONOUNCE	NO_LABEL
新制長崎大学の発足により風土病研究所は同大学の附置研究所となり、1960年には旧所在地である坂本町キャンパスへの復帰を実現、さらに1967年には国立学校設置法の一部改正により「熱帯医学研究所」と改称、現在に至っている。	NO_PRONOUNCE	NO_LABEL
