パオラ・アントネッリはイタリア人の作家、編集者、キュレーターである。	ぱおらあんとねっりわいたりあじんのさっか、へんしゅーしゃ、きゅれーたーである。	NO_LABEL
彼女はロンバルディア人の子である。	かのじょわろんばるでぃあじんのこである。	NO_LABEL
彼女は現在ニューヨーク近代美術館のR&D部門のディレクターと、建築・デザイン部門のシニア・キュレーターを兼任している。	NO_PRONOUNCE	NO_LABEL
2015年、アントネッリはから「新鮮で鋭い観察を共有しニューヨーク近代美術館で挑発的な展覧会を企画することで日々のデザインの影響を拡大している」と評されメダルを進呈された。	NO_PRONOUNCE	NO_LABEL
彼女はまた誌とから芸術界で最も影響力のある百人の一人として選ばれている。	かのじょわまたしとからげいじゅつかいでもっともえいきょーりょくのあるひゃくにんのひとりとしてえらばれている。	NO_LABEL
彼女は1990年ミラノ工科大学建築学部でラウレアを取得しているが、建築家としてのキャリアは無い。	かのじょわせんきゅうひゃくきゅうじゅうねんみらのこーかだいがくけんちくがくぶでらうれあをしゅとくしているが、けんちくかとしてのきゃりあわない。	NO_LABEL
イタリア、フランス、日本において、彼女は幾度か建築とデザイン展を企画してきた。	いたりあ、ふらんす、にっぽんにおいて、かのじょわいくどかけんちくとでざいんてんをきかくしてきた。	NO_LABEL
彼女は1987年から1991年の間はDomus誌の編集者として、1992年から1994年の間は誌のデザイン編集者としても働いてきた。	NO_PRONOUNCE	NO_LABEL
彼女はまた誌やハーバードデザインレビュー、、誌、誌、ハーパーズ バザー誌、誌などに寄稿経験を持つ。	NO_PRONOUNCE	NO_LABEL
2014年、ロイヤル・カレッジ・オブ・アートから名誉博士号を授与された。	にせんじゅうよねん、ろいやるかれっじおぶあーとからめいよはくしごーをじゅよされた。	NO_LABEL
1991年から1993年の間、アントネッリはカリフォルニア大学ロサンゼルス校の講師を務めており、デザイン史とデザイン理論について教鞭を取っていた。	せんきゅうひゃくきゅうじゅういちねんからせんきゅうひゃくきゅうじゅうさんねんのま、あんとねっりわかりふぉるにあだいがくろさんぜるすこーのこーしをつとめており、でざいんしとでざいんりろんについてきょーべんをとっていた。	NO_LABEL
2003年の春にはハーバード大学デザイン大学院でデザイン理論の講座を開講した。	にせんさんねんのはるにわはーばーどだいがくでざいんだいがくいんででざいんりろんのこーざをかいこーした。	NO_LABEL
彼女は他の場所でもヨーロッパとアメリカのデザイン及び建築について講演し、また国際的な建築デザインの審査員を幾度か務めている。	かのじょわたのばしょでもよーろっぱとあめりかのでざいんおよびけんちくについてこーえんし、またこくさいてきなけんちくでざいんのしんさいんをいくどかつとめている。	NO_LABEL
アントネッリは1994年2月にニューヨーク近代美術館に加わり、建築・デザイン部門のキュレーターとなった。	NO_PRONOUNCE	NO_LABEL
ニューヨーク近代美術館で彼女が企画した展示のなかで初めて注目を集めたのは1995年の "Mutant Materials in Contemporary Design"であった。	NO_PRONOUNCE	NO_LABEL
これ以後1996年の"Thresholds: Contemporary Design from the Netherlands"、1997年から1998年の": Design!"、1999年の"Projects 66: /"、2000年9月から翌年2月にかけて"Open Ends"と"Matter"を企画した。	NO_PRONOUNCE	NO_LABEL
2001年の2月8日から4月22日に開かれた "Workspheres"展は近未来の労働環境のデザインをテーマとしていた。	NO_PRONOUNCE	NO_LABEL
2005年には"Safe: Design Takes on Risk"と"Safe"というよく似たタイトルの展示会を開いた。	NO_PRONOUNCE	NO_LABEL
後者は2年前にアスペンで開かれた国際デザイン会議の彼女の発表に基づくものであった。	こーしゃわにねんまえにあすぺんでひらかれたこくさいでざいんかいぎのかのじょのはっぴょーにもとずくものであった。	NO_LABEL
彼女の近年のプロジェクトには他に、独特なデザインの例として世界中の食をとりあつかった書籍や、デザインに関するテレビ番組などがある。	かのじょのきんねんのぷろじぇくとにわたに、どくとくなでざいんのれいとしてせかいじゅーのしょくをとりあつかったしょせきや、でざいんにかんするてれびばんぐみなどがある。	NO_LABEL
キュレーターとして彼女は様々なコンピューターゲームをニューヨーク近代美術館の常設展へと加えてきた。	きゅれーたーとしてかのじょわさまざまなこんぴゅーたーげーむをにゅーよーくきんだいびじゅつかんのじょーせつてんえとくわえてきた。	NO_LABEL
アントネッリはJamer Huntと共同で、性、攻撃、体臭といった人間の最も顕著な特徴のうちのいくつかを物理的に表現することをテーマとした、オンライン上の実験的な展示会 "Design and Violence" を開催した。	NO_PRONOUNCE	NO_LABEL
例えばガラスコップ一杯の人工的に合成された汗が展示された。	たとえばがらすこっぷいちはいのじんこーてきにごーせいされたあせがてんじされた。	NO_LABEL
この展示会について彼女は「私たちは暴力と曖昧な関係を持つ展示物を求めていた」と述べている。	NO_PRONOUNCE	NO_LABEL
チョークで地面に描かれた無人攻撃機の輪郭や、自動追尾弾丸や、といったそれぞれの展示品はデザインの持つ正と負両面を強調するために選ばれた。	ちょーくでじめんにえがかれたむじんこーげききのりんかくや、じどーついびだんがんや、といったそれぞれのてんじひんわでざいんのもつせいとふりょーめんをきょーちょーするためにえらばれた。	NO_LABEL
現代ではデザインとは大変多元的なものであり、アントネッリとHuntはこれを表現しようとしていた。	NO_PRONOUNCE	NO_LABEL
アントネッリの目的は、日々の生活の中でデザインの重要性に人々が気づいていることを確認しながら、デザインの見方を変更する事だ。	あんとねっりのもくてきわ、ひびのせいかつのなかででざいんのじゅーよーせいにひとびとがきずいていることをかくにんしながら、でざいんのみかたをへんこーすることだ。	NO_LABEL
デザインは人間の創造性の素晴らしい発露であり、デザイナー達は自身が作り出した物を使用している人々に対し責任を感じるべきであると彼女は信じている。	でざいんわにんげんのそーぞーせいのすばらしいはつろであり、でざいなーたちわじしんがつくりだしたものをしよーしているひとびとにたいしせきにんをかんじるべきであるとかのじょわしんじている。	NO_LABEL
デザインがなければ誰も新しい発明を使うことができないため、イノベーションは無益なものとなるだろう。	でざいんがなければだれもあたらしいはつめいをつかうことができないため、いのべーしょんわむえきなものとなるだろう。	NO_LABEL
デザインは外観を整えるものに過ぎないという誤解に対し彼女は苛立っており、デザインとはそれ以上の概念であることを人々に気づかせることが自身の役割であると感じている	でざいんわがいかんをととのえるものにすぎないとゆうごかいにたいしかのじょわいらだっており、でざいんとわそれいじょーのがいねんであることをひとびとにきずかせることがじしんのやくわりであるとかんじている	NO_LABEL
『パックマン』、『テトリス』、『マインクラフト』といったコンピューターゲームを取り扱った展示は、こうしたゲームのインタラクションデザインを紹介する目的で、入場者が実際にゲームを遊ぶことができるよう企画されていた。	NO_PRONOUNCE	NO_LABEL
この展示に対し、例えばガーディアン紙は「ニューヨーク近代美術館よ、申し訳ないがコンピューターゲームは芸術ではない」と反応した。	NO_PRONOUNCE	NO_LABEL
