韓民求は、大韓民国の軍人。	はんみんぐわ、だいかんみんこくのぐんじん。	NO_LABEL
階級は予備役陸軍大将。	かいきゅーわよびえきりくぐんたいしょー。	NO_LABEL
第44代国防部長官を務めた。	だいよんじゅうよんだいこくぼーぶちょーかんをつとめた。	NO_LABEL
2014年6月30日から2017年7月13日までの約3年間、国防部長官を務めた。	にせんじゅうよねんろくがつさんじゅうにちからにせんじゅうななねんしちがつじゅうさんにちまでのやくさんねんかん、こくぼーぶちょーかんをつとめた。	NO_LABEL
在任中の2016年11月には、日韓軍事情報協定の締結では韓国側を代表して署名している。	ざいにんちゅーのにせんじゅうろくねんじゅーいちがつにわ、にっかんぐんじじょうほーきょーていのていけつでわかんこくがわをだいひょーしてしょめいしている。	NO_LABEL
