岸 幹太郎- ?）は、徳川家理事、家令。	NO_PRONOUNCE	NO_LABEL
日本銀行員及び横浜正金銀行員	にっぽんぎんこういんおよびよこはましょーきんぎんこーいん	NO_LABEL
紀州侯爵徳川頼倫の家令。	きしゅーこーしゃくとくがわよりゆきりんのかれい。	NO_LABEL
紀州藩の碩儒。	きしゅーはんのせきじゅ。	NO_LABEL
自修舎を経て1881年慶應義塾を卒業。	じしゅーしゃをへてせんはっぴゃくはちじゅういちねんけいおーぎじゅくをそつぎょー。	NO_LABEL
慶應義塾幼稚舎教授となり、1891年に日本銀行入行。	けいおーぎじゅくよーちしゃきょーじゅとなり、せんはっぴゃくきゅうじゅういちねににっぽんぎんこーにゅーこー。	NO_LABEL
1897年、横浜正金銀行入行。	せんはっぴゃくきゅうじゅうななね、よこはましょーきんぎんこーにゅーこー。	NO_LABEL
徳川家の顧問役および指南役として家令の職を奉ずる。	とくがわけのこもんやくおよびしなんやくとしてかれいのしょくをほーずる。	NO_LABEL
