津田 宗元は、江戸時代前期の岡山藩池田家家臣。	つだむねもとわ、えどじだいぜんきのおかやまはんいけだかかしん。	NO_LABEL
織田信長の甥・信氏の孫にあたる。	NO_PRONOUNCE	NO_LABEL
慶長4年小田井織田家の織田忠辰の三男として出生、幼い時に津田元綱の養子となる。	けいちょーよんねんおたいおだけのおだただときただたつのさんなんとしてしゅっしょー、おさないときにつだもとつなのよーしとなる。	NO_LABEL
池田輝政、利隆、光政の3代に仕えた。	いけだてるまさ、としたか、みつまさのさんだいにつかえた。	NO_LABEL
承応3年、備前にて死亡する。	NO_PRONOUNCE	NO_LABEL
享年56。	NO_PRONOUNCE	NO_LABEL
