『ラビ×ラビ』は、シルバースタージャパンより配信されているアクションパズルゲームのシリーズ。	NO_PRONOUNCE	NO_LABEL
登場キャラクターの多くは『不思議の国のアリス』をモチーフとしており、主人公のアリスを操り、変なウサギ・リリや仲間キャラの助けを受けながら、トランプ兵やトラップだらけのステージを突破していく。	NO_PRONOUNCE	NO_LABEL
2010年2月4日に配信開始されたau向け携帯アプリ『ラビット★ラビリンス』のグレードアップ移植版として、同年9月1日にニンテンドーDSiウェア『アクションパズル ラビ×ラビ』が発売された。	NO_PRONOUNCE	NO_LABEL
