1748年3月18日の海戦（）はジェンキンスの耳の戦争中の1748年3月18日に行われた、イギリス海軍の戦列艦6隻がスペインの戦船9隻で護衛された商船隊を攻撃して商船数隻を拿捕した戦闘。	NO_PRONOUNCE	NO_LABEL
率いる戦列艦6隻はサン・ヴィセンテ岬沖を巡航していた。	NO_PRONOUNCE	NO_LABEL
艦隊はスペインの護送船団に気付き、コーズは追撃を命じた。	かんたいわすぺいんのごそーせんだんにきずき、こーずわついげきをめいじた。	NO_LABEL
イギリス艦隊は護送船団の後ろに追いつき、会戦に突入した。	いぎりすかんたいわごそーせんだんのうしろにおいつき、かいせんにとつにゅーした。	NO_LABEL
スペインの護送船団9隻はソベルビオ、レオン、オリエンテ、コロラド、ブリランテ、パストラ、ロザリオ、ハビエル、ガルガだった。	NO_PRONOUNCE	NO_LABEL
商船17隻のうち、カディスからベラクルスへ向かう3隻、およびカルタヘナへ向かう2隻が拿捕された。	NO_PRONOUNCE	NO_LABEL
残りの船は暗闇に紛れて護送船とともに逃げた。	のこりのふねわくらやみにまぎれてごそーせんとともににげた。	NO_LABEL
