和賀 寿和は、日本のプロボクサー。	わがとしかずわ、にっぽんのぷろぼくさー。	NO_LABEL
神奈川県横浜市出身。	かながわけんよこはまししゅっしん。	NO_LABEL
元OPBF東洋太平洋ミニマム級チャンピオン。	もとおーぴーびーえふとーよーたいへいよーみにまむきゅーちゃんぴおん。	NO_LABEL
畑中ボクシングジム所属。	はたなかぼくしんぐじむしょぞく。	NO_LABEL
ボクシング雑誌では「やんちゃ王子」と呼ばれる。	NO_PRONOUNCE	NO_LABEL
右肩から右上腕部にかけてのタトゥーが特徴。	みぎかたからみぎじょーわんぶにかけてのたとぅーがとくちょー。	NO_LABEL
