全州ワールドカップ競技場は、韓国西南部地域・全羅北道・全州市にあるサッカー専用スタジアムである。	NO_PRONOUNCE	NO_LABEL
2002年のワールドカップの為に作られたスタジアム。	にせんにねんのわーるどかっぷのためにつくられたすたじあむ。	NO_LABEL
2002年6月、2002 FIFAワールドカップ・スペイン対パラグアイ戦などが開催された。	NO_PRONOUNCE	NO_LABEL
2005年夏には東アジアサッカー選手権、2017年5-6月には2017 FIFA U-20ワールドカップの開催地のひとつになった。	NO_PRONOUNCE	NO_LABEL
韓国Kリーグ、全北現代モータースのホームスタジアムでもある。	かんこくけいりーぐ、ちょんぶくひょんでもーたーすのほーむすたじあむでもある。	NO_LABEL
サッカー韓国代表の親善試合が開催されたこともある。	さっかーかんこくだいひょーのしんぜんじあいがかいさいされたこともある。	NO_LABEL
扇子のように折れ曲線を描いて大きく広がった屋根のデザインは全州の工芸品ハプチュクソンをイメージしたもので、扇形の屋根を支える4本の柱は豊作と村の安全を願うソッテという柱をイメージしたもの。	せんすのよーにおれきょくせんをえがいておーきくひろがったやねのでざいんわぜんしゅーちょんじゅのこーげいひんはぷちゅくそんをいめーじしたもので、せんけいのやねをささえるよんほんのはしらわほーさくとむらのあんぜんをねがうそってとゆうはしらをいめーじしたもの。	NO_LABEL
柱をつなぐケーブルはカヤグムという伝統楽器の弦をイメージしていて、韓国固有の伝統美を表現したスタジアムである。	はしらをつなぐけーぶるわかやぐむとゆうでんとーがっきのつるをいめーじしていて、かんこくこゆーのでんとーびをひょーげんしたすたじあむである。	NO_LABEL
観客席がグラウンドに近く高さもあるので臨場感がある。	かんきゃくせきがぐらうんどにちかくたかさもあるのでりんじょーかんがある。	NO_LABEL
二階席と一階席の前方以外を除き屋根が覆っているので雨でも快適に観戦できる。	にかいせきといっかいせきのぜんぽーいがいをのぞきやねがおおっているのであめでもかいてきにかんせんできる。	NO_LABEL
グラウンド内の雨水排出設備がすばらしく雨が降っていない時と同じ環境でサッカーができる。	ぐらうんどないのあまみずはいしゅつせつびがすばらしくあめがふっていないときとおなじかんきょーでさっかーができる。	NO_LABEL
全羅北道全州市徳津区半月洞763-1	NO_PRONOUNCE	NO_LABEL
