金 容雲は、東京出身の韓国人数学者。	きむひろしくもわ、とーきょーしゅっしんのかんこくにんずーがくしゃ。	NO_LABEL
漢陽大学校名誉教授。	かんよーだいがっこーめいよきょーじゅ。	NO_LABEL
数学史が専門であるが、日韓の歴史・文化に関する著作が多い。	NO_PRONOUNCE	NO_LABEL
日本語は百済語の傍流であるとするなど、日本の文化はすべて古代朝鮮が起源であるとの考えを持つ。	にほんごわくだらごのぼーりゅーであるとするなど、にほんのぶんかわすべてこだいちょーせんがきげんであるとのかんがえをもつ。	NO_LABEL
