近藤 貫太は、愛媛県今治市出身のサッカー選手。	こんどーかんたわ、えひめけんいまばりししゅっしんのさっかーせんしゅ。	NO_LABEL
ポジションは、ミッドフィールダー。	ぽじしょんわ、みっどふぃーるだー。	NO_LABEL
愛媛FCジュニアユースを経て、ユースへ昇格。	えひめえふしーじゅにあゆーすをへて、ゆーすえしょーかく。	NO_LABEL
2009年8月、高校1年でトップチームに2種登録され、「 愛媛FCユースの最高傑作」とも評された。	NO_PRONOUNCE	NO_LABEL
高校3年時にはU-18日本代表に選出され、AFC U-19選手権2012の予選に出場。	NO_PRONOUNCE	NO_LABEL
今治西高校卒業後、トップチームへ昇格することもできたが、慶應義塾大学へ進学することを選択し、ソッカー部では1年生からレギュラーとして活躍した。	いまばりにしこーこーそつぎょーご、とっぷちーむえしょーかくすることもできたが、けいおーぎじゅくだいがくえしんがくすることをせんたくし、そっかーぶでわいちねんせいかられぎゅらーとしてかつやくした。	NO_LABEL
2013年の総理大臣杯を最後に海外挑戦を決意、ソッカー部を退部。	にせんじゅうさんねんのそーりだいじんはいをさいごにかいがいちょーせんをけつい、そっかーぶをたいぶ。	NO_LABEL
2014年、大学を休学してユース時代を過ごした古巣・愛媛FCへ入団。	NO_PRONOUNCE	NO_LABEL
同年3月、Jリーグ・アンダー22選抜に選手登録された。	どーねんさんがつ、じぇいりーぐあんだーとぅえんてぃつーせんばつにせんしゅとーろくされた。	NO_LABEL
2015年をもって契約満了のため退団。	にせんじゅうごねんをもってけいやくまんりょーのためたいだん。	NO_LABEL
2016年、休学していた慶應義塾大学に復学し、ソッカー部へ復帰した。	にせんじゅうろくねん、きゅーがくしていたけいおーぎじゅくだいがくにふくがくし、そっかーぶえふっきした。	NO_LABEL
24||2||colspan="2"|-||4||0||28||2	NO_PRONOUNCE	NO_LABEL
24||2||colspan="2"|-||4||0||28||2	NO_PRONOUNCE	NO_LABEL
