オレグ・スヴャトスラヴィチはスヴャトスラフ・オリゴヴィチの子である。	NO_PRONOUNCE	NO_LABEL
プチヴリ公：1157年 - 1159年、クルスク公：1159年 - 1164年、ノヴゴロド・セヴェルスキー公：1164年 - 1180年。	NO_PRONOUNCE	NO_LABEL
オレグの誕生は1137年頃と推定される。	おれぐのたんじょーわせんひゃくさんじゅうななねんころとすいていされる。	NO_LABEL
1146年から1154年にかけてのルーシ内戦では、父と共にロストフ・スーズダリ公ユーリー、ガーリチ公ウラジーミルらの陣営につき、スモレンスク公国・ヴォルィーニ公国・チェルニゴフ公国の諸公らと戦った。	NO_PRONOUNCE	NO_LABEL
1164年に父のスヴャトスラフが没した後、オレグは当時の継承法に反して、従兄弟のヤロスラフの持つノヴゴロド・セヴェルスキー公位を奪い取った。	NO_PRONOUNCE	NO_LABEL
ゆえにヤロスラフの兄弟のスヴャトスラフによって、チェルニゴフ公位を奪われた。	NO_PRONOUNCE	NO_LABEL
オレグ自身が死亡する1180年までの間、このスヴャトスラフ、ヤロスラフらと所領をめぐって戦った。	NO_PRONOUNCE	NO_LABEL
また、1169年には、キエフを攻め落としたウラジーミル大公アンドレイの軍にも参加している。	また、せんひゃくろくじゅうきゅうねんにわ、きえふをせめおとしたうらじーみるたいこーあんどれいのぐんにもさんかしている。	NO_LABEL
子にはスヴャトスラフ、妻には以下の人物がいる。	NO_PRONOUNCE	NO_LABEL
