大崎 栄）は、江戸時代の女流漢詩人。	NO_PRONOUNCE	NO_LABEL
号は小窓、字は文姫。	ごーわしょーまど、じわあやめ。	NO_LABEL
伊能忠敬の内縁の妻として、彼の研究を助けたことが伝えられている。	いのーただたかのないえんのつまとして、かれのけんきゅーをたすけたことがつたえられている。	NO_LABEL
1795年に、佐原から江戸に出て高橋至時の弟子となった伊能忠敬は、4人目の妻を持った。	せんななひゃくきゅうじゅうごねんに、さわらからえどにでてたかはしよしときのでしとなったいのーただたかわ、よにんめのつまをもった。	NO_LABEL
この妻については、長年にわたり謎の人物とされていたが、1995年、片倉比佐子の研究により、女流漢詩人の大崎栄であることが明らかになった。	このつまについてわ、ながねんにわたりなぞのじんぶつとされていたが、せんきゅうひゃくきゅうじゅうごねん、かたくらひさこのけんきゅーにより、じょりゅーかんしじんのおーさきえいであることがあきらかになった。	NO_LABEL
栄は、漢学者久保木清淵に漢学を学んだ。	さかえわ、かんがくしゃくぼきせいえんにかんがくをまなんだ。	NO_LABEL
清淵が忠敬の友人であった関係から忠敬の内妻となったものと推測されている。	きよしふちがちゅーけいのゆーじんであったかんけいからちゅーけいのないさいとなったものとすいそくされている。	NO_LABEL
小宮山楓軒の「楓軒紀談」には栄について、北山ノ奚疑塾ニ寄宿ノ門人十七人アリ、其内ニ婦人二人アリ 一ハ文姫ト云ウ　年三十歳許　書ヲ善クシ　詩ヲ能クス　嘗テ伊能勘ケ由ノ妾タリシモノナリと書かれている。	NO_PRONOUNCE	NO_LABEL
至時は間重富に宛てた手紙の中で、栄のことを、才女と相見候。	よしときわはざましげとみにあてたてがみのなかで、さかえのことを、さいじょとあいみこー。	NO_LABEL
素読を好み、四書五経の白文を、苦もなく読候由。	そどくをこのみ、ししょごきょーのはくぶんを、くもなくさとるこーよし。	NO_LABEL
算術も出来申候。	さんじゅつもできさるこー。	NO_LABEL
絵図様のもの出来申候。	えずさまのものできさるこー。	NO_LABEL
象限儀形の目もり抔、見事に出来申候と褒め称え、忠敬は幸せ者だとつづっている。	NO_PRONOUNCE	NO_LABEL
江戸で忠敬が行った天体観測についても、一人で行える内容ではないため、栄の手助けがあったものと推測されている。	えどでちゅーけいがおこなったてんたいかんそくについても、ひとりでおこなえるないよーでわないため、さかえのてだすけがあったものとすいそくされている。	NO_LABEL
栄は後の忠敬の第一次測量のときは佐原に預けられたが、その後は忠敬の元を離れて文人として生き、忠敬と同じ1818年にこの世を去った。	さかえわごのちゅーけいのだいいちじそくりょーのときわさわらにあずけられたが、そのごわちゅーけいのもとをはなれてぶんじんとしていき、ちゅーけいとおなじせんはっぴゃくじゅうはちねんにこのよをさった。	NO_LABEL
栄を主人公とした漫画「猫暦」が「ねこぱんち」で不定期連載されている。	NO_PRONOUNCE	NO_LABEL
