「双葉社Webマガジン」とは双葉社が自社の公式ホームページ内で運営する、登録不要かつ閲覧無料のウェブコミック配信サイトである。	NO_PRONOUNCE	NO_LABEL
コミックス、小説、エッセイ、趣味・実用、アダルトの各ジャンルがある。	NO_PRONOUNCE	NO_LABEL
プラグインフリービューア形式、またはPDF形式を使って配信している。	ぷらぐいんふりーびゅーあけいしき、またわぴーでぃーえふけいしきをつかってはいしんしている。	NO_LABEL
なお、連載終了した作品でも一部が閲覧可能になっている。	なお、れんさいしゅーりょーしたさくひんでもいちぶがえつらんかのーになっている。	NO_LABEL
一部作品については同じ双葉社の『Web漫画アクション』『WEBコミックアクション』に移行しているものもある。	NO_PRONOUNCE	NO_LABEL
