金峯神社は、山形県鶴岡市にある神社である。	きんぷじんじゃわ、やまがたけんつるおかしにあるじんじゃである。	NO_LABEL
旧社格は県社。	きゅーしゃかくわけんしゃ。	NO_LABEL
明治の神仏分離までは金峯山蔵王権現と称し、修験道場となっていた。	めいじのしんぶつぶんりまでわこんごーざんざおーごんげんとしょーし、しゅげんどーじょーとなっていた。	NO_LABEL
金峯山山頂に本殿があり、金峯山全域に社殿が点在する。	こんごーざんさんちょーにほんでんがあり、こんごーざんぜんいきにしゃでんがてんざいする。	NO_LABEL
現在は少彦名神・大国主神・事代主神・安閑天皇を祭神としている。	NO_PRONOUNCE	NO_LABEL
大同年間、金峯山の山頂にはじめて社殿が創建され、承暦年間、大和国宇多郡の丹波守盛宗が出羽国に移る際に吉野の金峯山の神を勧請したと伝える。	だいどーねんかん、こんごーざんのさんちょーにはじめてしゃでんがそーけんされ、うけたまわれきねんかん、やまとのくにうだぐんのたんばまもるもりむねがでわのくににうつるさいによしののかなみねやまのかみをかんじょーしたとつたえる。	NO_LABEL
奥州藤原氏はじめ歴代の領主が崇敬し、江戸時代には庄内藩の祈願所とされた。	おーしゅーふじわらしはじめれきだいのりょーしゅがすーけいし、えどじだいにわしょーないはんのきがんじょとされた。	NO_LABEL
神仏習合の時代には真言宗の修験道場として栄えていた。	しんぶつしゅうごーのじだいにわしんごんしゅーのしゅげんどーじょーとしてさかえていた。	NO_LABEL
金峯山の周囲の虚空蔵山、熊野長峰を含めた3山が熊野三所権現となった。	NO_PRONOUNCE	NO_LABEL
さらに母狩山から摩耶山にいたる広大な山域は、逆峰修験の場となった。	さらにほかりやまからまやさんにいたるこーだいなやまいきわ、ぎゃくみねしゅげんのばとなった。	NO_LABEL
明治の神仏分離に際し、明治3年に御嶽神社、明治10年に金峯神社に改称した。	めいじのしんぶつぶんりにさいし、めいじさんねんにおんたけじんじゃ、めいじじゅうねんにきんぷじんじゃにかいしょーした。	NO_LABEL
明治9年に県社に列した。	めいじくねんにけんしゃにれつした。	NO_LABEL
神仏分離の際に、山麓の青龍寺は真言宗の寺院として金峯神社から分離した。	しんぶつぶんりのさいに、さんろくのせいりゅーじわしんごんしゅーのじいんとしてきんぷじんじゃからぶんりした。	NO_LABEL
重要文化財	じゅーよーぶんかざい	NO_LABEL
