オークランド島（）はニュージーランド南方の太平洋上に浮かぶオークランド諸島の本島。	おーくらんどとーかっこわにゅーじーらんどなんぽーのたいへいよーじょーにうかぶおーくらんどしょとーのほんとー。	NO_LABEL
無人である。	ぶにんである。	NO_LABEL
他の亜南極諸島と共にニュージーランドの亜南極諸島としてユネスコの世界遺産に登録されている。	たのあなんきょうしょとーとともににゅーじーらんどのあなんきょくしょとーとしてゆねすこのせかいいさんにとーろくされている。	NO_LABEL
陸地面積は510kmであり、島の長さは42km程である。	りくちめんせきわごひゃくじゅうきろめーとるであり、しまのながさわよんじゅうにきろめーとるほどである。	NO_LABEL
険しい崖と荒涼とした地形が特徴的であり、島の最高部は600m以上の高さになる。	けわしいがけとこーりょーとしたちけいがとくちょーてきであり、しまのさいこーぶわろっぴゃくめーとるいじょーのたかさになる。	NO_LABEL
顕著な峰としては650mの、635mのレイナル山、630mのデュルビル山、610mのイーストン山、550mほどのバベルの塔などが存在する。	けんちょなみねとしてわろっぴゃくごじゅうめーとるの、ろっぴゃくさんじゅうごめーとるのれいなるさん、ろっぴゃくさんじゅうめーとるのでゅるびるさん、ろっぴゃくじゅうめーとるのいーすとんさん、ごひゃくごじゅうめーとるほどのばべるのとーなどがそんざいする。	NO_LABEL
島は南部が広がっており26km程の幅になっている。	しまわなんぶがひろがっておりにじゅうろくきろめーとるほどのはばになっている。	NO_LABEL
さらに南のアダムズ島との間には小さな水道があり、アダムス海峡と呼ばれるほか、海峡中央部で湾のように島内に向かって入り組んでいるためカーンレイ・ハーバーとして知られる。	NO_PRONOUNCE	NO_LABEL
この海峡部はかつての火山の火口の名残と考えられており、アダムズ島とオークランド島南部は火口縁と考えられている。	このかいきょーぶわかつてのかざんのかこーのなごりとかんがえられており、あだむずとーとおーくらんどとーなんぶわかこーえんとかんがえられている。	NO_LABEL
カーンレイ・ハーバーの西端の3km程北の位置に存在するはニュージーランド最西端の地となっている。	NO_PRONOUNCE	NO_LABEL
、クリイロコガモ、、など数種類の海鳥の繁殖地群としての重要性からバードライフ・インターナショナルによって識別されたオークランド島群重要野鳥生息地の一部となっている。	NO_PRONOUNCE	NO_LABEL
ヤギは19世紀後半ににたどり着いた船乗りの食料として複数回島に持ち込まれ、最小で1匹が1865年にオークランド諸島で開放されている。	NO_PRONOUNCE	NO_LABEL
1970年代、島内北東のの北西部に定住する100匹程度の群れが唯一残った。	NO_PRONOUNCE	NO_LABEL
1986年と1987年に、60匹が島内からニュージーランド本島へ移動され、飼育下で繁殖させることになった。	NO_PRONOUNCE	NO_LABEL
残りの動物は根絶されることが決定され、1992年までに完了した。	のこりのどーぶつわこんぜつされることがけっていされ、せんきゅうひゃくきゅうじゅうにねんまでにかんりょーした。	NO_LABEL
1999年の調査で、ニュージーランド本土へ移送したヤギの集団は絶滅していたとされる。	せんきゅうひゃくきゅうじゅうきゅうねんのちょーさで、にゅーじーらんどほんどえいそーしたやぎのしゅーだんわぜつめつしていたとされる。	NO_LABEL
1955年の映画""は第2次世界大戦の始めに、英豪海軍艦船から逃げているドイツの商船が描かれている。	NO_PRONOUNCE	NO_LABEL
映画はハワイで撮影されたものであるが、話中でこの船はオークランド島に停泊し遭難者避難所から備蓄食料を奪い、ナチス寄りの将校は島内で発見した3人の遭難漁民を撃ち、その後別の舟がその死体を見つけ、ドイツ船を追いかけるという内容になっている。	えいがわはわいでさつえいされたものであるが、はなしちゅーでこのふねわおーくらんどとーにていはくしそーなんしゃひなんじょからびちくしょくりょーをうばい、なちすよりのしょーこーわとーないではっけんしたさんにんのそーなんぎょみんをうち、そのごべつのふねがそのしたいをみつけ、どいつせんをおいかけるとゆうないよーになっている。	NO_LABEL
この内容はの汽船Erlangenの失敗から着想を得ている。	NO_PRONOUNCE	NO_LABEL
