小山 知良は、神奈川県相模原市出身のオートバイレーサー。	こやまかずよしわ、かながわけんさがみはらししゅっしんのおーとばいれーさー。	NO_LABEL
2000年の全日本ロードレース選手権GP125クラスチャンピオン。	にせんねんのぜんにほんろーどれーすせんしゅけじーぴーひゃくにじゅーごくらすちゃんぴおん。	NO_LABEL
からまでロードレース世界選手権125ccクラスにフル参戦した。	NO_PRONOUNCE	NO_LABEL
愛称は「コヤマックス」。	NO_PRONOUNCE	NO_LABEL
身長155cm、体重48kg。	しんちょーひゃくごじゅうごせんちめーとる、たいじゅーよんじゅうはちきろぐらむ。	NO_LABEL
3歳でポケバイを始める。	さんさいでぽけばいをはじめる。	NO_LABEL
11歳で全日本ポケバイチャンピオン獲得。	じゅういっさいでぜんにほんぽけばいちゃんぴおんかくとく。	NO_LABEL
中学生でミニバイクに転向する。	ちゅーがくせいでみにばいくにてんこーする。	NO_LABEL
ミニバイク時代や125cc時代は自分でバイクのメンテナンスをしていた。	NO_PRONOUNCE	NO_LABEL
家族のサポートで続けてきたレースだが、1999年8月にヤマハ系名門チームのSP忠男レーシングに誘いがありチームに加入した。	かぞくのさぽーとでつずけてきたれーすだが、せんきゅうひゃくきゅうじゅうきゅうねんはちがつにやまはけいめいもんちーむのえすぴーただおれーしんぐにさそいがありちーむにかにゅーした。	NO_LABEL
1999年、全日本ロードレース選手権最終戦GP125でデビュー。	せんきゅうひゃくきゅうじゅうきゅうねん、ぜんにほんろーどれーすせんしゅけさいしゅーせんじーぴーひゃくにじゅーごででびゅー。	NO_LABEL
2000年に史上最年少で同クラスのチャンピオンを獲得した。	にせんねんにしじょーさいねんしょーでどーくらすのちゃんぴおんをかくとくした。	NO_LABEL
2001年よりGP250に転向。	にせんいちねんよりじーぴーにひゃくごじゅーにてんこー。	NO_LABEL
2002年、2003年同クラス最多勝獲得。	にせんにねん、にせんさんねんどーくらすさいたしょーかくとく。	NO_LABEL
2004年は将来のロードレース世界選手権参戦実現の為に再度GP125に参戦し、ランキング2位となった。	にせんよねんわしょーらいのろーどれーすせかいせんしゅけんさんせんじつげんのためにさいどじーぴーひゃくにじゅーごにさんせんし、らんきんぐにーとなった。	NO_LABEL
よりアジョ・モータースポーツよりロードレース世界選手権125ccクラスにフル参戦を開始。	NO_PRONOUNCE	NO_LABEL
プライベーターながら2度表彰台を獲得する好成績を残し、ルーキー・オブ・ザ・イヤー賞を獲得した。	ぷらいべーたーながらにどひょーしょーだいをかくとくするこーせいせきをのこし、るーきーおぶざいやーしょーをかくとくした。	NO_LABEL
はアジョ・モータースポーツを母体とするマラグーティワークスチーム、マラグーティ・アジョコルセより参戦。	NO_PRONOUNCE	NO_LABEL
戦闘力の低いマシンで苦戦を強いられたが、は実力を高く評価したKTMワークスチームに移籍。	せんとーりょくのていーましんでくせんをしいられたが、わじつりょくをたかくひょーかしたけーてぃーえむわーくすちーむにいせき。	NO_LABEL
トップクラスのマシンを得たことで成績は大きく向上し、第7戦カタルーニャGPで初優勝を達成した。	とっぷくらすのましんをえたことでせいせきわおーきくこーじょーし、だいななせんかたるーにゃげーぺーではつゆーしょーをたっせいした。	NO_LABEL
しかしは不振が続き、第16戦オーストラリアGPを前に突如所属チームを解雇されてしまう。	しかしわふしんがつずき、だいじゅうろくせんおーすとらりあげーぺーをまえにとつじょしょぞくちーむをかいこされてしまう。	NO_LABEL
理由はメインスポンサーであるスペインの電話会社「11888」から、シーズン残りの3戦にスペイン人選手を起用するよう求められたことによる。	NO_PRONOUNCE	NO_LABEL
第17戦からKTMワークスに起用され復帰したが、結局シリーズ17位にとどまった。	だいじゅうななせんからけーてぃーえむわーくすにきよーされふっきしたが、けっきょくしりーずじゅうなないにとどまった。	NO_LABEL
は中国メーカーのロンシンに移籍した。	わちゅーごくめーかーのろんしんにいせきした。	NO_LABEL
しかしマシンの完成度は低く、エンジンがいつ焼き付いてもおかしくなかったため常にクラッチレバーに指を掛けて走行するほどであり、完走もままならずリタイヤ続きで、シリーズ24位と結果を出せなかった。	しかしましんのかんせいどわひくく、えんじんがいつやきついてもおかしくなかったためつねにくらっちればーにゆびをかけてそーこーするほどであり、かんそーもままならずりたいやつずきで、しりーずにじゅうよんいとけっかをだせなかった。	NO_LABEL
はレーシング・チーム・ジャーマニーに移籍し、引き続き125ccクラスに参戦した。	NO_PRONOUNCE	NO_LABEL
マシンは型落ちのアプリリアRSW125、これは小山にとって全日本時代から数えると通算6つめのメーカーとなった。	NO_PRONOUNCE	NO_LABEL
最新型ファクトリーマシンのRSA125が多数参戦する中、開幕戦からシングル順位フィニッシュを続ける健闘を見せ、チームの地元レースの第8戦ドイツGPでは2位フィニッシュを果たし、2007年のマレーシアGP以来となる表彰台に立った。	NO_PRONOUNCE	NO_LABEL
この年のシリーズランキングでは8位、これはRSW勢の中ではトップ、RSA勢14人中7人を上回る成績となった。	このとしのしりーずらんきんぐでわはちー、これわらますいすうぉっちぜいのなかでわとっぷ、あーるえすえいぜいじゅうよにんちゅーしちにんをうわまわるせいせきとなった。	NO_LABEL
翌シーズンに向けて小山はレーシング・チーム・ジャーマニーに残留し、最新のRSA125を駆る方向で話が進んでいた。	NO_PRONOUNCE	NO_LABEL
しかし前年ランキング7位のサンドロ・コルテセが20万ユーロ以上のスポンサー資金を持ち込んでチームに加入した。	しかしぜんねんらんきんぐなないのさんどろこるてせがにじゅうまんゆーろいじょーのすぽんさーしきんをもちこんでちーむにかにゅーした。	NO_LABEL
小山はこの影響を受け、これまでは資金持ち込み無しで話が進んでいたが、新たに35万ユーロを要求されることとなり交渉は決裂、グランプリ参戦継続を断念することとなった。	NO_PRONOUNCE	NO_LABEL
2011年シーズン、小山は富沢祥也が生前所属していたCIPチームより、スペインロードレース選手権Moto2クラスに参戦、グランプリ復帰を目指してシリーズを戦うこととなった。	NO_PRONOUNCE	NO_LABEL
さらにCEVと並行する形で全日本ロードレースにも復帰し、J-GP2クラスに参戦している。	NO_PRONOUNCE	NO_LABEL
さらにケナン・ソフォーグルの代役として、第13戦サンマリノ、第14戦アラゴンへ、第15戦日本にはワイルドカード参戦という形で世界選手権moto2クラスにも参戦した。	さらにけなんそふぉーぐるのだいやくとして、だいじゅうさんせんさんまりの、だいじゅうよんせんあらごんえ、だいじゅうごせんにっぽんにわわいるどかーどさんせんとゆうかたちでせかいせんしゅけんめーとるおーてぃおーとぅーくらすにもさんせんした。	NO_LABEL
しかしながら自身の小柄な体型が起因すると思われるフロントのチャタリングを越えたバウンドにCEV、全日本、motoGPともに悩まされる結果となり、シーズン終盤に解決策を見出したものの満足の行く結果を残す事が出来なかった	NO_PRONOUNCE	NO_LABEL
2012年はスペインのH43へと移籍し、CEVへと継続参戦する事となった。	NO_PRONOUNCE	NO_LABEL
マシンは前年に全日本で使用していたICP製シャーシを使用する。	NO_PRONOUNCE	NO_LABEL
なおCEVでのタイトル獲得に集中したいという理由で全日本選手権には参戦しない予定である	NO_PRONOUNCE	NO_LABEL
2012年9月14日 - 16日にイタリアのサンマリノで開催されるミサノGPよりMoto2クラスに急遽参戦が決まる。	NO_PRONOUNCE	NO_LABEL
レギュラーライダーだったロベルト・ロルフォ選手の代役ということで、ミサノ以降、アラゴン・日本・マレーシア・オーストラリア・バレンシアの計6戦にCIPチームより参戦。	NO_PRONOUNCE	NO_LABEL
自身のブログでは「祥也またもミサノから俺にチャンスを与えてくれて有難う。	NO_PRONOUNCE	NO_LABEL
あの時交わした約束は忘れてないよ。	あのときかわしたやくそくわわすれてないよ。	NO_LABEL
天国から見守っててね・・・俺の走りを。	NO_PRONOUNCE	NO_LABEL
」と述べている	NO_PRONOUNCE	NO_LABEL
実家は相模原市緑区橋本にある喫茶店『イホロ』で、彼の母はこの店のオーナーでもある。	NO_PRONOUNCE	NO_LABEL
彼の母はテレビ神奈川の情報番組『みんなが出るテレビ』にもコメンテーターや情報提供者として何度か出演しており、親子そろっての出演を果たしたこともある。	NO_PRONOUNCE	NO_LABEL
また、国内限定ではあるが、父親率いる親戚多数の大応援団は様々なメディアで取り上げられるほど有名である。	また、こくないげんていでわあるが、ちちおやひきいるしんせきたすーのだいおーえんだんわさまざまなめでぃあでとりあげられるほどゆーめいである。	NO_LABEL
中学時代は卓球部に所属。	ちゅーがくじだいわたっきゅーぶにしょぞく。	NO_LABEL
これはレース中心の学校生活のため、融通の利く部活を選んだとのこと。	これわれーすちゅーしんのがっこーせいかつのため、ゆーずーのきくぶかつをえらんだとのこと。	NO_LABEL
