地球的課題の実験村構想具体化検討委員会は、成田空港問題円卓会議での隅谷調査団所見に基づいて開催された委員会。	ちきゅーてきかだいのじっけんむらこーそーぐたいかけんとーいーんかいわ、なりたくーこーもんだいえんたくかいぎでのすみやちょーさだんしょけんにもとずいてかいさいされたいーんかい。	NO_LABEL
成田空港問題円卓会議において、反対同盟がB、C滑走路の建設予定地を「地球的課題の実験村」として開放する提案を行い、「児孫のために自由を律す農的価値の回復を」で実験村の意義を発表した。	NO_PRONOUNCE	NO_LABEL
そして国にB、C滑走路の建設を断念するよう要求した。	NO_PRONOUNCE	NO_LABEL
円卓会議では構想の意義を高く評価し、円卓会議最終の所見においても運輸省に速やかに具体化のための検討を開始することが示された。	えんたくかいぎでわこーそーのいぎをたかくひょーかし、えんたくかいぎさいしゅーのしょけんにおいてもうんゆしょーにすみやかにぐたいかのためのけんとーをかいしすることがしめされた。	NO_LABEL
なお、実験村予定地については、菅澤重矩多古町長や内田裕雄芝山町長からB、C滑走路の予定地への反対や、B、C滑走路の予定地に限定せずに周辺地域を広く含めてはどうかと提案がされた。	NO_PRONOUNCE	NO_LABEL
1995年1月24日に第1回の委員会が開催され、合計22回の委員会が開催された。	せんきゅうひゃくきゅうじゅうごねんいちがつにじゅうよっかにだいいっかいのいーんかいがかいさいされ、ごーけいにじゅうにかいのいーんかいがかいさいされた。	NO_LABEL
座長は宇沢弘文が務めた。	ざちょーわうざわひろふみがつとめた。	NO_LABEL
議事録は非公開となっている。	ぎじろくわひこーかいとなっている。	NO_LABEL
1998年5月1日に開催された第22回の委員会で最終報告の「若い世代へ 農の世界から地球の未来を考える」が取りまとめられ、解散した。	NO_PRONOUNCE	NO_LABEL
その後、運輸省と空港公団では「エコ・エアポート基本構想」を発表している。	NO_PRONOUNCE	NO_LABEL
一方、最終報告で二期地区内での実験村の建設について触れられなかったことに反発する柳川秀夫世話人ら反対同盟の一部が、反対運動継続を表明してボランティア団体「地球的課題の実験村」を設立し、2017年現在も活動している。	NO_PRONOUNCE	NO_LABEL
エコ・エアポート基本構想は、地球的課題の実験村構想具体化検討委員会の結論を踏まえて新東京国際空港公団が1998年5月27日に発表した、環境問題への指針である。	NO_PRONOUNCE	NO_LABEL
構想は「地球的視野に立った循環型の空港づくり」と「空港周辺地域の農業再生への協力」の2本の柱から成り立っている。	NO_PRONOUNCE	NO_LABEL
2005年3月に「エコ・エア ポート基本計画」を策定し、以後5年程度ごとに見直しを行っている。	NO_PRONOUNCE	NO_LABEL
2011年4月に「エコ・エアポートビジョン2020」を、2016年4月に「エコ・エアポートビジョン 2030」を策定している。	NO_PRONOUNCE	NO_LABEL
また、「成田国際空港エコ・エアポート推進協議会」 も設置している。	NO_PRONOUNCE	NO_LABEL
地球的課題の実験村は、成田国際空港周辺の農民）が中心となって活動している農業に関するボランティア団体である。	NO_PRONOUNCE	NO_LABEL
「北総大地夕立計画」、「農と食　～麦･大豆畑トラストと自前の種づくり～」、「地域自立のエネルギー」の3つのプロジェクトで活動している。	NO_PRONOUNCE	NO_LABEL
木の根ペンションも活動に使用している。	きのねぺんしょんもかつどーにしよーしている。	NO_LABEL
