東莱郡は、大韓民国慶尚南道にかつて存在していた郡。	とんねぐんわ、だいかんみんこくけいしょーなんどーにかつてそんざいしていたぐん。	NO_LABEL
現在の釜山広域市の大部分を占める。	げんざいのぷさんくぁんにょっくしのだいぶぶんをしめる。	NO_LABEL
朝鮮王朝時代に慶尚道に属した東莱府をもとに編成された郡で、日本統治時代には慶尚南道に属した。	ちょーせんおーちょーじだいにきょんさんどにぞくしたとうらいふをもとにへんせいされたぐんで、にっぽんとーちじだいにわけいしょーなんどーにぞくした。	NO_LABEL
郡の歴史的な中心は現在の釜山広域市東莱区にあった。	ぐんのれきしてきなちゅーしんわげんざいのぷさんくぁんにょっくしとんねくにあった。	NO_LABEL
1895年に旧来の都護府・府・県などの名称を廃止し、一律に郡とした。	NO_PRONOUNCE	NO_LABEL
東莱府は東莱郡に改められ、広域行政単位として東莱郡を含む10郡を管轄する「東莱府」が置かれた。	NO_PRONOUNCE	NO_LABEL
しかし二十三府制は1年で廃止され、東莱府は東莱郡の名称に戻して慶尚南道の管轄下に置かれた。	しかしにじゅーさんぷせいわいちねんではいしされ、とうらいふわとんねぐんのめいしょーにもどしてけいしょーなんどーのかんかつかにおかれた。	NO_LABEL
その後、再び東莱府、さらに釜山府と名称が変遷した。	そのご、ふたたびとうらいふ、さらにぷさんふとめいしょーがへんせんした。	NO_LABEL
1914年に、釜山の中心市街が釜山府として切り離され、東莱郡が編成された。	せんきゅうひゃくじゅうよねんに、ぷさんのちゅーしんしがいがぷさんふとしてきりはなされ、とんねぐんがへんせいされた。	NO_LABEL
このとき、東北に隣接する機張郡が東莱郡に編入された。	このとき、とーほくにりんせつするきじゃんぐんがとんねぐんにへんにゅーされた。	NO_LABEL
1936年・1942年・1963年の釜山府の3度にわたる市域拡張によって東莱郡は順次釜山府に組み込まれ、1942年にはかつての中心部である東莱邑も釜山府の一部となった。	NO_PRONOUNCE	NO_LABEL
東莱郡に最後まで残っていた東北部は1973年に隣接する梁山郡に編入され、東莱郡の名称は消滅した。	とんねぐんにさいごまでのこっていたとーほくわせんきゅうひゃくななじゅうさんねんにりんせつするやんさんぐんにへんにゅーされ、とんねぐんのめいしょーわしょーめつした。	NO_LABEL
1995年3月1日、梁山郡の旧機張郡域が釜山広域市に編入されて機張郡となることで、1914年時点の東莱郡域はすべて釜山広域市の市域に入った。	せんきゅうひゃくきゅうじゅうごねんさんがつついたち、はりやまぐんのきゅーきじゃんぐんいきがぷさんくぁんにょっくしにへんにゅーされてきじゃんぐんとなることで、せんきゅうひゃくじゅうよねんじてんのとんねぐんいきわすべてぷさんくぁんにょっくしのしいきにはいった。	NO_LABEL
釜山府域の第一次拡張前の時点で、以下の邑面があった。	ぷさんふいきのだいいちじかくちょーまえのじてんで、いかのゆーめんがあった。	NO_LABEL
