『Z=One』はチャゲ&飛鳥の6枚目のオリジナル・アルバム。	NO_PRONOUNCE	NO_LABEL
1985年1月25日に発売された。	せんきゅうひゃくはちじゅうごねんいちがつにじゅうごにちにはつばいされた。	NO_LABEL
発売元はワーナー・パイオニア。	はつばいもとわわーなーぱいおにあ。	NO_LABEL
前作『INSIDE』よりおよそ10ヶ月ぶりとなるアルバムである。	NO_PRONOUNCE	NO_LABEL
前作で試みたコンピュータによる打ち込みを使った音作りをさらに追求したアルバム。	ぜんさくでこころみたこんぴゅーたによるうちこみをつかったおとずくりをさらについきゅーしたあるばむ。	NO_LABEL
飛鳥自身もコンピュータを購入し打ち込みにはまっていた時期であり、全曲わたって打ち込みが使われるという当時では画期的なアルバムとなった。	あすかじしんもこんぴゅーたをこーにゅーしうちこみにはまっていたじきであり、ぜんきょくわたってうちこみがつかわれるとゆうとーじでわかっきてきなあるばむとなった。	NO_LABEL
2月25日には、収録曲の中から｢誘惑のベルが鳴る｣・｢オンリー・ロンリー｣を同時発売でシングルカットした。	NO_PRONOUNCE	NO_LABEL
本作の発売とシングルカット2タイトルの発売を以って、チャゲ&飛鳥はワーナー・パイオニアを去り、レコード会社未定の中コンサートツアー『SHAKIN' NIGHT』を敢行する。	NO_PRONOUNCE	NO_LABEL
｢真夜中の二人｣・｢SHAKIN' NIGHT｣は、CD盤が発売される際にボーナス・トラックとして収録された。	NO_PRONOUNCE	NO_LABEL
2009年9月23日には紙ジャケット・シリーズの一環として、SHM-CD仕様でヤマハミュージックコミュニケーションズより再発売された。	NO_PRONOUNCE	NO_LABEL
