おはじきとは、玩具の一種。	おはじきとわ、おもちゃのいっしゅ。	NO_LABEL
ガラスでできた平たい玉が一般的となっており、遊戯用・学習用に用いることができる。	NO_PRONOUNCE	NO_LABEL
直径は1cm〜1.5cm程度。	NO_PRONOUNCE	NO_LABEL
ガラス玉では、透明色のものや小さい模様の入ったもの、さらに大きさにも大小あり、種類は多い。	がらすだまでわ、とーめいしょくのものやこさいもよーのはいったもの、さらにおーきさにもだいしょーあり、しゅるいわおーい。	NO_LABEL
おはじきは中国から伝わった遊びとされていて、それが最初に日本に伝わったのは奈良時代に入ってからのことであり、それ以前は貝殻や小石、また植物の実などを利用して遊ばれてきた。	おはじきわちゅーごくからつたわったあそびとされていて、それがさいしょににっぽんにつたわったのわならじだいにはいってからのことであり、それいぜんわかいがらやこいし、またしょくぶつのみなどをりよーしてあそばれてきた。	NO_LABEL
現在のおはじきのほとんどはガラス製だが、それが使われだしたのは明治時代の後期に入ってからのことである。	げんざいのおはじきのほとんどわがらすせいだが、それがつかわれだしたのわめいじじだいのこーきにはいってからのことである。	NO_LABEL
プラスチック製のおはじきも登場しはじめ、これは主に算数などの学術に使われるおはじきとして利用されている。	ぷらすちっくせいのおはじきもとーじょーしはじめ、これわおもにさんすーなどのがくじゅつにつかわれるおはじきとしてりよーされている。	NO_LABEL
自分のおはじきをひとつずつ相手のおはじきへはじき当てる方法が一般的。	じぶんのおはじきをひとつずつあいてのおはじきえわじきあてるほーほーがいっぱんてき。	NO_LABEL
はじき当てた場合、その当てたおはじきは自分のものとなり、最終的に手に入れたおはじきの数を競い合う。	はじきあてたばあい、そのあてたおはじきわじぶんのものとなり、さいしゅーてきにてにいれたおはじきのかずをきそいあう。	NO_LABEL
また、任意で決めた区画内へおはじきをはじいて入れたり、またその逆に区画外へはじき出したりして遊ぶ場合もある。	また、にんいできめたくかくないえおはじきをはじいていれたり、またそのぎゃくにくかくがいえはじきだしたりしてあそぶばあいもある。	NO_LABEL
遊び方は地方によってオリジナリティーがあり、同じような遊び方であっても、はじいたときに起こることのルールが少しずつ違うことも多い。	あそびかたわちほーによっておりじなりてぃーがあり、おなじよーなあそびかたであっても、はじいたときにおこることのるーるがすこしずつちがうこともおーい。	NO_LABEL
おはじきははじいて遊ぶものとしてだけではなく、学校において児童たちが学習の際に使用することも可能である。	おはじきわはじいてあそぶものとしてだけでわなく、がっこーにおいてじどーたちががくしゅーのさいにしよーすることもかのーである。	NO_LABEL
さんすうおはじきとも呼ばれるこの学習用おはじきは、遊戯用のおはじきとは違った、プラスチックでできた独特の形をしており、数十個単位でおはじきの色が変わってくる。	さんすーおはじきともよばれるこのがくしゅーよーおはじきわ、ゆーぎよーのおはじきとわちがった、ぷらすちっくでできたどくとくのかたちをしており、すーじゅーこたんいでおはじきのいろがかわってくる。	NO_LABEL
また、一部のおはじきの中心には小さい磁石が配置されている場合もある。	また、いちぶのおはじきのちゅーしんにわちーさいじしゃくがはいちされているばあいもある。	NO_LABEL
おはじきの形の原型は桜の花、ひまわり、四葉のクローバーなど植物系の色に合わせて模した形といわれる。	おはじきのかたちのげんけいわさくらのはな、ひまわり、よつばのくろーばーなどしょくぶつけいのいろにあわせてもしたかたちといわれる。	NO_LABEL
特に桜の花は4月に新入生が入校するという意味合いがあると言われる。	とくにさくらのはなわしがつにしんにゅーせいがにゅーこーするとゆういみあいがあるといわれる。	NO_LABEL
日本ではこのさんすうおはじきを基本的な道具として扱い、なかでも小学校1年生や2年生といった低学年の算数での足し算や引き算においては、基本的な数の増え方・減り方を分かりやすく理解してもらうために、このおはじきがよく使われる。	NO_PRONOUNCE	NO_LABEL
