ウィリアム・"ウィリー"・コラーゾは、プエルトリコ出身のプロ野球選手。	NO_PRONOUNCE	NO_LABEL
台湾球界での登録名は威力。	たいわんきゅーかいでのとーろくめいわいりょく。	NO_LABEL
のMLBドラフト10巡目でアトランタ・ブレーブスに入団。	NO_PRONOUNCE	NO_LABEL
制球力を武器に左のセットアッパーとしてマイナーで活躍。	せいきゅーりょくをぶきにひだりのせっとあっぱーとしてまいなーでかつやく。	NO_LABEL
、第一回WBCのプエルトリコ代表に選出されている。	NO_PRONOUNCE	NO_LABEL
9月5日、ニューヨーク・メッツでメジャーデビューを果たした。	くがついつか、にゅーよーくめっつでめじゃーでびゅーをはたした。	NO_LABEL
4月、台湾・中華職業棒球大聯盟の統一セブンイレブン・ライオンズに入団。	NO_PRONOUNCE	NO_LABEL
