『オリバー!』は、1960年にライオネル・バートが制作したイギリスのミュージカル。	NO_PRONOUNCE	NO_LABEL
チャールズ・ディケンズの小説『オリバー・ツイスト』が原作である。	NO_PRONOUNCE	NO_LABEL
1960年6月30日にウェストエンドのニュー劇場で初演された。	せんきゅうひゃくろくじゅうねんろくがつさんじゅうにちにうぇすとえんどのにゅーげきじょーでしょえんされた。	NO_LABEL
2618回を数えるロングラン公演となった。	NO_PRONOUNCE	NO_LABEL
1963年1月6日にブロードウェイで公演がスタート、同年のトニー賞に於いて最優秀オリジナル楽曲賞を始め3部門を受賞した。	せんきゅうひゃくろくじゅうさんねんいちがつむいかにぶろーどうぇいでこーえんがすたーと、どーねんのとにーしょーにおいてさいゆーしゅーおりじなるがっきょくしょーをはじめさんぶもんをじゅしょーした。	NO_LABEL
1968年に映画化された。	せんきゅうひゃくろくじゅうはちねんにえいがかされた。	NO_LABEL
