グラスホッパーとは、リキュールをベースとするカクテルである。	ぐらすほっぱーとわ、りきゅーるをべーすとするかくてるである。	NO_LABEL
新しい作り方によって作られたグラスホッパーは、ショートドリンクに分類される。	あたらしいつくりかたによってつくられたぐらすほっぱーわ、しょーとどりんくにぶんるいされる。	NO_LABEL
カクテル名のグラスホッパーとは、「バッタ」または「キリギリス」のこと。	NO_PRONOUNCE	NO_LABEL
昔と今とでは、作り方が変わったカクテルとして知られる。	むかしといまとでわ、つくりかたがかわったかくてるとしてしられる。	NO_LABEL
新しい作り方によるグラスポッパーは、不透明な淡い緑色に仕上げるが、この緑色はグリーン・ペパーミント・リキュールの緑色に由来し、生クリームと混ざることで淡い色彩となる。	NO_PRONOUNCE	NO_LABEL
なお、カカオ・リキュールは、ホワイト使用しないと、淡い緑色が綺麗に出ない	NO_PRONOUNCE	NO_LABEL
このため、カカオ・リキュールは、アレクサンダーを作る時などにしばしば使用される茶色のものではなく、無色透明のホワイト・カカオ・リキュールが指定されている。	NO_PRONOUNCE	NO_LABEL
なお、新旧どちらのグラスポッパーも、基本的には食後酒に分類され、その中でもとりわけ代表的なカクテルとされる	なお、しんきゅーどちらのぐらすぽっぱーも、きほんてきにわしょくごしゅにぶんるいされ、そのなかでもとりわけだいひょーてきなかくてるとされる	NO_LABEL
しかし、別に食後に飲まなければならないと決まっているわけではない。	しかし、べつにしょくごにのまなければならないときまっているわけでわない。	NO_LABEL
グリーン・ペパーミント・リキュール ： ホワイト・カカオ・リキュール ： 生クリーム ＝ 1：1：1	NO_PRONOUNCE	NO_LABEL
グリーン・ペパーミント・リキュール、ホワイト・カカオ・リキュール、生クリームをシェークして、カクテル・グラスに注げば完成である。	NO_PRONOUNCE	NO_LABEL
グラスホッパーは、誕生当時、3層のプース・カフェ・スタイルのカクテルとして作られていた。	NO_PRONOUNCE	NO_LABEL
それが、いつの頃からかは不明だが、シェークが行われ、完全に3種の材料が混合された形で作られるようになり、今に至る。	それが、いつのころからかわふめいだが、しぇーくがおこなわれ、かんぜんにさんしゅのざいりょーがこんごーされたかたちでつくられるよーになり、いまにいたる。	NO_LABEL
リキュール・グラスに、まずホワイト・カカオ・リキュールを、次にグリーン・ペパーミント・リキュールを、最後に生クリームの順番でフロートさせてゆけば完成である。	NO_PRONOUNCE	NO_LABEL
それぞれの比重の違いと色の違いにより、3層に別れ、中央のみが鮮やかな緑色となる。	NO_PRONOUNCE	NO_LABEL
なお、グリーン・ペパーミント・リキュールとホワイト・カカオ・リキュールと生クリームは、それぞれ等量ずつである。	NO_PRONOUNCE	NO_LABEL
シェーカーを使ってシェークすることには、材料を混合する以外に、材料を急速に冷却するという意味もある。	しぇーかーをつかってしぇーくすることにわ、ざいりょーをこんごーするいがいに、ざいりょーをきゅーそくにれいきゃくするとゆういみもある。	NO_LABEL
冷却が行えるのは、シェーカーの中に氷を入れるからであるが、冷却を行うことで口当たりを良くするなどの効果も得られる。	れいきゃくがおこなえるのわ、しぇーかーのなかにこーりをいれるからであるが、れいきゃくをおこなうことでくちあたりをよくするなどのこーかもえられる。	NO_LABEL
シェークが行われた後、室温などで温度が上がってしまうと、材料の冷却を行ったことで得られた効果は、当然ながら失われ、しかも、シェークの際にシェーカーの中の氷が融けて薄まってしまうという、シェークを行ったことによる欠点のみが目立つ結果となる。	しぇーくがおこなわれたのち、しつおんなどでおんどがあがってしまうと、ざいりょーのれいきゃくをおこなったことでえられたこーかわ、とーぜんながらうしなわれ、しかも、しぇーくのさいにしぇーかーのなかのこーりがとけてうすまってしまうとゆう、しぇーくをおこなったことによるけってんのみがめだつけっかとなる。	NO_LABEL
したがって、シェークを行った以上は、その後、温度が上がってしまう前に飲み切ってしまう必要が出てくるのである。	したがって、しぇーくをおこなったいじょーわ、そのご、おんどがあがってしまうまえにのみきってしまうひつよーがでてくるのである。	NO_LABEL
つまり、ショートドリンクとなるのだ。	つまり、しょーとどりんくとなるのだ。	NO_LABEL
ところで、プース・カフェ・スタイルのカクテルは、作る際、特に冷却を行ったりはしないので、一般的にはロングドリンクに分類される。	NO_PRONOUNCE	NO_LABEL
それは、この旧来のグラスホッパーも例外ではなく、やはりロングドリンクであった。	それわ、このきゅーらいのぐらすほっぱーもれいがいでわなく、やはりろんぐどりんくであった。	NO_LABEL
すなわち、グラスホッパーは、ロングドリンクからショートドリンクに変化したカクテルなのだ。	すなわち、ぐらすほっぱーわ、ろんぐどりんくからしょーとどりんくにへんかしたかくてるなのだ。	NO_LABEL
シェークが行われたことによって、カクテルが作られてから、比較的早い時間で飲み切る必要が出てきたのである。	しぇーくがおこなわれたことによって、かくてるがつくられてから、ひかくてきはやいじかんでのみきるひつよーがでてきたのである。	NO_LABEL
旧来の作り方、すなわち、プース・カフェ・スタイルのグラスホッパーには、似たカクテルとしてキューカンバーというものがある。	NO_PRONOUNCE	NO_LABEL
具体的には、旧来の作り方のグラスホッパーからホワイト・カカオ・リキュールを抜いたものであり、2層になっているカクテルをキューカンバーと呼ぶ。	NO_PRONOUNCE	NO_LABEL
なお、カクテル名のキューカンバーとは、「キュウリ」のこと。	NO_PRONOUNCE	NO_LABEL
フロート・スタイルのカクテルであり、キュウリの断面のように緑と白に分かれている。	NO_PRONOUNCE	NO_LABEL
リキュール・グラスに、適量のグリーン・ペパーミント・リキュールを注ぎ、そこにグリーン・ペパーミント・リキュールの半量程度の生クリームをフロートさせれば完成である	NO_PRONOUNCE	NO_LABEL
新しい作り方のグラスホッパーには、次のようなバリエーションがある。	あたらしいつくりかたのぐらすほっぱーにわ、つぎのよーなばりえーしょんがある。	NO_LABEL
ただし、新しい作り方のグラスホッパーのバリエーションには、それぞれの材料の混合比率として、1：1：1を標準としないカクテルが多数含まれる。	NO_PRONOUNCE	NO_LABEL
しかし、カクテルを作る際、それぞれの材料の混合比率を、飲む人の好みに応じて変えることは、しばしば行われることなので、ここでは、多少混合比率が異なるカクテルもバリエーションとして挙げてある。	しかし、かくてるをつくるさい、それぞれのざいりょーのこんごーひりつを、いんむじんのこのみにおーじてかえることわ、しばしばおこなわれることなので、ここでわ、たしょーこんごーひりつがことなるかくてるもばりえーしょんとしてあげてある。	NO_LABEL
古い作り方のグラスホッパーには、次のようなバリエーションがある。	ふるいつくりかたのぐらすほっぱーにわ、つぎのよーなばりえーしょんがある。	NO_LABEL
