ウィンドミルは、ダンスのムーブの一つ。	うぃんどみるわ、だんすのむーぶのひとつ。	NO_LABEL
ブレイクダンスの最も有名かつ代表的な動きである。	ぶれいくだんすのもっともゆーめいかつだいひょーてきなうごきである。	NO_LABEL
両足を開き、回転させその遠心力を利用して回転する。	りょーあしをひらき、かいてんさせそのえんしんりょくをりよーしてかいてんする。	NO_LABEL
ウィンドミルを変化させた技で、難易度の非常に高い技の一つ。	うぃんどみるをへんかさせたわざで、なんいどのひじょーにこういわざのひとつ。	NO_LABEL
「身体を斜めにした状態でヘッドスピンを1回転回る」と考えるとわかりやすい。	NO_PRONOUNCE	NO_LABEL
現在では、一気に2回転回る進化系も生まれている。	げんざいでわ、いっきににかいてんまわるしんかけいもうまれている。	NO_LABEL
その名の通り、床に腕をつかず、上半身の前でしっかり固めたまま回るウィンドミルのバリエーション。	そのなのとーり、ゆかにうでをつかず、じょーはんしんのまえでしっかりかためたまままわるうぃんどみるのばりえーしょん。	NO_LABEL
90年代のブレイキンシーンを代表するパワームーブ。	きゅうじゅうねんだいのぶれいきんしーんをだいひょーするぱわーむーぶ。	NO_LABEL
