神戸市職員信用組合は、兵庫県神戸市中央区に本店を置く信用組合。	こーべししょくいんしんようくみあわ、ひょーごけんこーべしちゅーおーくにほんてんをおくしんよーくみあい。	NO_LABEL
<br>	NO_PRONOUNCE	NO_LABEL
神戸市職員とその退職者及び市の関連団体などを対象とした職域の信用組合である。	こーべししょくいんとそのたいしょくしゃおよびしのかんれんだんたいなどをたいしょーとしたしょくいきのしんよーくみあいである。	NO_LABEL
