近藤 隆夫は、日本のスポーツライター。	こんどーたかおわ、にっぽんのすぽーつらいたー。	NO_LABEL
三重県松阪市出身。	みえけんまつさかししゅっしん。	NO_LABEL
上智大学文学部ドイツ文学科在学中、スポーツ誌記者となった。	じょーちだいがくぶんがくぶどいつぶんがくかざいがくちゅー、すぽーつしきしゃとなった。	NO_LABEL
アジア諸国を1年あまり放浪した後、「ゴング格闘技」の編集長に。	NO_PRONOUNCE	NO_LABEL
1991年からスポーツライターとして独立。	せんきゅうひゃくきゅうじゅういちねんからすぽーつらいたーとしてどくりつ。	NO_LABEL
現場を取材するほか、テレビ・ラジオのスポーツ番組でコメンテーターも務める。	NO_PRONOUNCE	NO_LABEL
SPORTS COMMUNICATIONSで、毎月第1木曜日、近藤隆夫「INSIDE格闘技」をWEB上で掲載している。	NO_PRONOUNCE	NO_LABEL
