土方 定一は、昭和期に活動した日本の美術評論家、美術史家。	ひじかたさだいちわ、しょーわきにかつどーしたにっぽんのびじゅつひょーろんか、びじゅつしか。	NO_LABEL
岐阜県生まれ。	ぎふけんうまれ。	NO_LABEL
水戸高等学校時代から文学活動を開始し、東京帝国大学卒。	みとこーとーがっこーじだいからぶんがくかつどーをかいしし、とーきょーていこくだいがくそつ。	NO_LABEL
1930年にドイツに留学。	せんきゅうひゃくさんじゅうねんにどいつにりゅーがく。	NO_LABEL
1935年詩誌『歴程』発足とともに同人となり、美術批評を執筆。	NO_PRONOUNCE	NO_LABEL
1938年興亜院嘱託となり、1942年燕京大学華北総合調査研究所所員。	せんきゅうひゃくさんじゅうはちねこーあいんしょくたくとなり、せんきゅうひゃくよんじゅうにねんえんけいだいがくかほくそーごーちょーさけんきゅーじょしょいん。	NO_LABEL
1949年、千葉工業大学教授に就任。	せんきゅうひゃくよんじゅうきゅうねん、ちばこーぎょーだいがくきょーじゅにしゅーにん。	NO_LABEL
1951年神奈川県立近代美術館副館長、1954年美術評論家連盟会長、1963年『ブリューゲル』で毎日出版文化賞受賞、1965年神奈川県立近代美術館館長、1968年芸術選奨文部大臣賞、1973年菊池寛賞受賞。	NO_PRONOUNCE	NO_LABEL
全国美術館会議会長を務め、現代絵画を初めとした画集解説や、美術全集などを編集・監修、新潮社「日本芸術大賞」の選考委員であるなど、長く美術評論界に君臨した。	NO_PRONOUNCE	NO_LABEL
著名な弟子に美術史学者では酒井忠康など、評論家には海野弘がいる。	ちょめいなでしにびじゅつしがくしゃでわさかいただやすなど、ひょーろんかにわうんのひろしがいる。	NO_LABEL
