吉田 靖は、東京都練馬区出身の元サッカー選手、指導者。	よしだやすしわ、とーきょーとねりまくしゅっしんのもとさっかーせんしゅ、しどーしゃ。	NO_LABEL
現役時代のポジションはフォワード。	げんえきじだいのぽじしょんわふぉわーど。	NO_LABEL
愛称は「ヤッコ」。	NO_PRONOUNCE	NO_LABEL
国学院久我山高等学校から早稲田大学教育学部へ進学しア式蹴球部へ入部。	こくがくいんくがやまこーとーがっこーからわせだだいがくきょーいくがくぶえしんがくしあしきしゅーきゅーぶえにゅーぶ。	NO_LABEL
1年次よりフォワードのレギュラーポジションを獲得し、4年次には主将を務めた。	いちねんじよりふぉわーどのれぎゅらーぽじしょんをかくとくし、よんねんじにわしゅしょーをつとめた。	NO_LABEL
また全日本学生選抜にも選出され、日韓学生代表定期戦やマラハリムカップなどの国際大会で活躍をした。	またぜんにほんがくせいせんばつにもせんしゅつされ、にっかんがくせいだいひょーていきせんやまらはりむかっぷなどのこくさいたいかいでかつやくをした。	NO_LABEL
当時の日本学生選抜のメンバーは、左ウイングに早大の関塚隆、センターフォワードに国士舘大学の柱谷幸一らがいた。	とーじのにっぽんがくせいせんばつのめんばーわ、ひだりういんぐにそーだいのせきずかたかし、せんたーふぉわーどにこくしかんだいがくのはしらたにこーいちらがいた。	NO_LABEL
1982年に日本サッカーリーグの三菱重工に入団。	せんきゅうひゃくはちじゅうにねんににほんさっかーりーぐのみつびしじゅーこーににゅーだん。	NO_LABEL
11秒台前半の俊足を生かした右ウインガーとして活躍しJSLでは1部通算146試合出場24得点を記録した。	NO_PRONOUNCE	NO_LABEL
引退後は1992年より浦和レッドダイヤモンズのコーチ、浦和レッズのユースのコーチ、監督を務め、監督として1997年のクラブユース選手権で優勝を果たしている。	いんたいごわせんきゅうひゃくきゅうじゅうにねんよりうらわれっどだいやもんずのこーち、うらわれっずのゆーすのこーち、かんとくをつとめ、かんとくとしてせんきゅうひゃくきゅうじゅうななのくらぶゆーすせんしゅけんでゆーしょーをはたしている。	NO_LABEL
その後各年代のユース日本代表のコーチを務め1999年にはJ2降格の責任を取って辞任したア・デモスの後を受けレッズの総監督を天皇杯限定で務めた。	そのごかくねんだいのゆーすにほんだいひょーのこーちをつとめせんきゅうひゃくきゅうじゅうきゅうねんにわじぇいつーこーかくのせきにんをとってじにんしたあでもすののちをうけれっずのそーかんとくをてんのーはいげんていでつとめた。	NO_LABEL
その後U-20日本代表監督を務め2006年のAFCユース選手権で準優勝、翌年のFIFA U-20ワールドカップで16強入りさせている。	NO_PRONOUNCE	NO_LABEL
2011年より再びU-18日本代表監督に就任。	NO_PRONOUNCE	NO_LABEL
2012年のAFCユース選手権に出場するも準決勝でイラクに敗れ、FIFA U-20ワールドカップ出場を逃した。	にせんじゅうにねんのえーえふしーゆーすせんしゅけんにしゅつじょーするもじゅんけっしょーでいらくにやぶれ、ふぃふぁあんだーとぅえんてぃわーるどかっぷしゅつじょーをのがした。	NO_LABEL
そののちにU-19日本代表退任が発表された。	NO_PRONOUNCE	NO_LABEL
2012年12月19日、ロアッソ熊本の監督に就任した。	にせんじゅうにねんじゅーにがつじゅうきゅうにち、ろあっそくまもとのかんとくにしゅーにんした。	NO_LABEL
2013年シーズン、第23節を終えた時点で5勝7分11敗の19位に低迷し、7月10日に退任が発表された。	NO_PRONOUNCE	NO_LABEL
2013年9月11日、浦和レッズレディースの監督に就任した。	にせんじゅうさんねんくがつじゅういちにち、うらわれっずれでぃーすのかんとくにしゅーにんした。	NO_LABEL
2016年12月、監督を退任。	にせんじゅうろくねんじゅーにがつ、かんとくをたいにん。	NO_LABEL
!colspan="4"|日本!!colspan="2"|リーグ戦!!colspan="2"|JSL杯!!colspan="2"|天皇杯!!colspan="2"|期間通算	NO_PRONOUNCE	NO_LABEL
146||24||||||||||||	NO_PRONOUNCE	NO_LABEL
29||11||1||0||||||||	NO_PRONOUNCE	NO_LABEL
その他の公式戦	そのたのこーしきせん	NO_LABEL
