ワシントン郡 () はアメリカ合衆国テキサス州に位置する郡である。	わしんとんぐんかっこわあめりかがっしゅーこくてきさすしゅーにいちするぐんである。	NO_LABEL
2000年現在、ここの人口は30,373人である。	NO_PRONOUNCE	NO_LABEL
ここの郡庁所在地はブレナムである。	ここのぐんちょーしょざいちわぶれなむである。	NO_LABEL
この郡は初代アメリカ合衆国大統領ジョージ・ワシントンの名を取って命名された。	このぐんわしょだいあめりかがっしゅーこくだいとうりょーじょーじわしんとんのなをとってめいめいされた。	NO_LABEL
アメリカ合衆国統計局によると、この郡は総面積1,609 kmである。	NO_PRONOUNCE	NO_LABEL
このうち1,578 kmが陸地で31 kmが水地域である。	NO_PRONOUNCE	NO_LABEL
総面積の1.95%は水地域となっている。	NO_PRONOUNCE	NO_LABEL
2000年現在の国勢調査で、この郡は人口30,373人、11,322世帯、及び7,936家族が暮らしている。	NO_PRONOUNCE	NO_LABEL
人口密度は19/kmである。	NO_PRONOUNCE	NO_LABEL
8/kmの平均的な密度に13,241軒の住宅が建っている。	NO_PRONOUNCE	NO_LABEL
この郡の人種的な構成は白人74.68%、アフリカン・アメリカン18.66%、先住民0.27%、アジア1.21%、太平洋諸島系0.00%、その他の人種4.02%、及び混血1.16%である。	NO_PRONOUNCE	NO_LABEL
ここの人口の8.71%はヒスパニックまたはラテン系である。	NO_PRONOUNCE	NO_LABEL
この郡内の住民は24.70%が18歳未満の未成年、18歳以上24歳以下が11.10%、25歳以上44歳以下が25.30%、45歳以上64歳以下が22.10%、及び65歳以上が16.90%にわたっている。	NO_PRONOUNCE	NO_LABEL
中央値年齢は37歳である。	ちゅーおーちねんれいわさんじゅうななさいである。	NO_LABEL
女性100人ごとに対して男性は94.70人である。	NO_PRONOUNCE	NO_LABEL
18歳以上の女性100人ごとに対して男性は92.10人である。	NO_PRONOUNCE	NO_LABEL
この郡内の世帯ごとの平均的な収入は36,760米ドルであり、家族ごとの平均的な収入は43,982米ドルである。	NO_PRONOUNCE	NO_LABEL
男性は31,698米ドルに対して女性は21,346米ドルの平均的な収入がある。	NO_PRONOUNCE	NO_LABEL
この郡の一人当たりの収入は17,384米ドルである。	NO_PRONOUNCE	NO_LABEL
人口の12.90%及び家族の9.80%は貧困線以下である。	NO_PRONOUNCE	NO_LABEL
全人口のうち18歳未満の14.80%及び65歳以上の14.50%は貧困線以下の生活を送っている。	NO_PRONOUNCE	NO_LABEL
