ケリーこと、クレズリー・エヴァンドロ・ギマランイスは、ブラジル出身の元サッカー選手。	NO_PRONOUNCE	NO_LABEL
ポジションは主にミッドフィールダー。	ぽじしょんわおもにみっどふぃーるだー。	NO_LABEL
5歳の時にサッカーを始める。	ごさいのときにさっかーをはじめる。	NO_LABEL
CAブラガンチーノのトレーナーを務める叔父の紹介を受け、15歳で親元を離れ 同クラブの下部組織へ加入。	ぶらがんちーののとれーなーをつとめるおじのしょーかいをうけ、じゅうごさいでおやもとをはなれどーくらぶのかぶそしきえかにゅー。	NO_LABEL
1992年にプロ契約を結んだ。	せんきゅうひゃくきゅうじゅうにねんにぷろけいやくをむすんだ。	NO_LABEL
ブラジル全国選手権での活躍が認められ、1997年にスペイン・CDログロニェスへ移籍。	NO_PRONOUNCE	NO_LABEL
しかし外国籍枠の制限から若手のケリーはメンバー外になることが多く、半年で移籍期間を満了した。	しかしがいこくせきわくのせいげんからわかてのけりーわめんばーがいになることがおーく、はんとしでいせききかんをまんりょーした。	NO_LABEL
1998年から所属したアトレチコ・パラナエンセではチームにフィットし実力を発揮。	せんきゅうひゃくきゅうじゅうはちねんからしょぞくしたあとれちこぱらなえんせでわちーむにふぃっとしじつりょくをはっき。	NO_LABEL
ケリーはトップ下で 背番号10を背負い、MFアドリアーノ、FW、FWルーカスと築いた攻撃陣は「quadrado mágico」と称された。	NO_PRONOUNCE	NO_LABEL
ケリー自身も州選手権制覇の原動力となる活躍で「パラナ州最高のフットボーラー」として名を馳せた。	NO_PRONOUNCE	NO_LABEL
2001年3月、同年のJリーグ開幕直前にFC東京への移籍が決定。	にせんいちねんさんがつ、どーねんのじぇいりーぐかいまくちょくぜんにえふしーとうきょーえのいせきがけってい。	NO_LABEL
卓越した個人技と周囲を活かす抜群のキープ力でチームの攻撃を掌握しトップ下に定着。	たくえつしたこじんぎとしゅーいをいかすばつぐんのきーぷりょくでちーむのこーげきをしょーあくしとっぷしたにていちゃく。	NO_LABEL
的確にスペースをつく効果的なパス、二列目から飛び出して行きゴールに球を流し込む・押し込むようなゴール、相手に囲まれた際にヒールパスやラボーナなど意表をつくプレーで「将軍」の異名をとった。	NO_PRONOUNCE	NO_LABEL
2002年はフィールドプレーヤーではチーム最長出場、2003年にはJリーグ優秀選手に選出された。	にせんにねんわふぃーるどぷれーやーでわちーむさいちょーしゅつじょー、にせんさんねんにわじぇいりーぐゆーしゅーせんしゅにせんしゅつされた。	NO_LABEL
2004年は膝、足首、脹脛と細かな負傷が続き、復帰戦でも退場処分を受けるなど 思わぬ不振に見舞われた。	NO_PRONOUNCE	NO_LABEL
シーズン後半から復帰し同年のナビスコカップ優勝にも貢献したが、ケリーの離脱中に抜擢された馬場憂太や梶山陽平が好プレーを続けたことや、クラブ首脳がケリーら外国籍助っ人頼みとなっている状況からの脱皮を試みたこと などの要因が重なり、この年限りで契約を満了。	しーずんこーはんからふっきしどーねんのなびすこかっぷゆーしょーにもこーけんしたが、けりーのりだつちゅーにばってきされたばばゆーたやかじやまよーへいがこーぷれーをつずけたことや、くらぶしゅのーがけりーらがいこくせきすけっとたのみとなっているじょーきょーからのだっぴをこころみたことなどのよーいんがかさなり、このとしかぎりでけいやくをまんりょー。	NO_LABEL
天皇杯敗退後に退団となった。	てんのーはいはいたいごにたいだんとなった。	NO_LABEL
日本でのプレー継続を望んでいたが、他クラブからの具体的なオファーは無く、2005年1月、母国ブラジル帰国後にクルゼイロECへ完全移籍。	にっぽんでのぷれーけいぞくをのぞんでいたが、たくらぶからのぐたいてきなおふぁーわなく、にせんごねんいちがつ、ぼこくぶらじるきこくごにくるぜいろえかんぜんいせき。	NO_LABEL
早々にボジションを獲得すると点取り屋としての才能も開花させ、同年のブラジル全国選手権ではチーム得点王となる16得点を挙げた。	そーそーにぼじしょんをかくとくするとてんとりやとしてのさいのーもかいかさせ、どーねんのぶらじるぜんこくせんしゅけんでわちーむとくてんおーとなるじゅうろくとくてんをあげた。	NO_LABEL
クルゼイロとの契約途中でUAEの強豪アル・アインFCから好条件のオファーが届いた事から円満移籍に至り、スペイン・日本に続く3ヶ国目の海外移籍を果たした。	NO_PRONOUNCE	NO_LABEL
2007年3月、ブラジルに帰国し名門・グレミオに移籍。	NO_PRONOUNCE	NO_LABEL
その後2008年シーズンからは古巣であるアトレチコ・パラナエンセに復帰するものの、右膝を手術するなどコンディションは悪く、同年12月いっぱいでクラブを退団。	そのごにせんはちねんしーずんからわふるすであるあとれちこぱらなえんせにふっきするものの、みぎひざをしゅじゅつするなどこんでぃしょんわわるく、どーねんじゅーにがついっぱいでくらぶをたいだん。	NO_LABEL
AAポンチ・プレッタへの移籍を図ったが、右膝はプレーに耐えられるほどには回復しなかったことから、2009年8月に引退を表明した。	ぽんちぷれったえのいせきをはかったが、みぎひざわぷれーにたえられるほどにわかいふくしなかったことから、にせんきゅうねんはちがつにいんたいをひょーめいした。	NO_LABEL
引退後は、フィジカルコーチを目指してブラジルのスポーツ大学で体育学学位を取得。	いんたいごわ、ふぃじかるこーちをめざしてぶらじるのすぽーつだいがくでたいーくがくがくいをしゅとく。	NO_LABEL
また、自身のイニシャルを取ったサッカースクール「KG10」を設立した。	NO_PRONOUNCE	NO_LABEL
12||1||||||||||||	NO_PRONOUNCE	NO_LABEL
97||30||22||4||6||2||125||36	NO_PRONOUNCE	NO_LABEL
!通算!!colspan="2"|AFC	NO_PRONOUNCE	NO_LABEL
!通算!!colspan=2|CONMEBOL	NO_PRONOUNCE	NO_LABEL
