『コックリさん2』は、2013年の韓国と中国の合作映画。	NO_PRONOUNCE	NO_LABEL
中国で2013年7月17日、韓国で2014年7月16日にそれぞれ公開された。	ちゅーごくでにせんじゅうさんねんしちがつじゅうしちにち、かんこくでにせんじゅうよねんしちがつじゅうろくにちにそれぞれこーかいされた。	NO_LABEL
中国語のタイトルは『笔仙II』。	NO_PRONOUNCE	NO_LABEL
日本未公開。	にっぽんみこーかい。	NO_LABEL
アジアホラー映画界の巨匠、アン・ビョンギ監督がおくる『コックリさん』シリーズの2作目。	NO_PRONOUNCE	NO_LABEL
主演は、韓国で“ホラークイーン”の異名を持つパク・ハンビョル。	NO_PRONOUNCE	NO_LABEL
その他の出演者は多くが辛芷蕾、章婷婷ら中国人俳優。	NO_PRONOUNCE	NO_LABEL
そのため、台詞の大部分は中国語となっている。	そのため、だいしのだいぶぶんわちゅーごくごとなっている。	NO_LABEL
大学院生のソン・チエンは、米国から戻ってきた昔の友人ナナと暮らすようになる。	NO_PRONOUNCE	NO_LABEL
だが、ナナの様子がおかしい。	だが、ななのよーすがおかしい。	NO_LABEL
ナナの行動が2年前に自殺した大学卒業前のシャオアイを連想させるものだった。	ななのこーどーがにねんまえにじさつしただいがくそつぎょーまえのしゃおあいをれんそーさせるものだった。	NO_LABEL
それとリンクするかのように、チエンの友人が連続して不審な死を遂げる。	それとりんくするかのよーに、ちえんのゆーじんがれんぞくしてふしんなしをとげる。	NO_LABEL
そして、チエンは友人の死を見つめ直し、シャオアイの自殺に隠された真相を暴く事を決意する。	そして、ちえんわゆーじんのしをみつめなおし、しゃおあいのじさつにかくされたしんそーをあばくことをけついする。	NO_LABEL
