有限会社丸由タクシーは、岩手県二戸郡一戸町に本社を置くタクシー事業者・バス事業者である。	NO_PRONOUNCE	NO_LABEL
一戸町より交通関係の委託を受けている。	いちのへまちよりこーつーかんけいのいたくをうけている。	NO_LABEL
一戸町民バスを受託運行している。	いちのへまちみんばすをじゅたくうんこーしている。	NO_LABEL
運行区間は以下の通り。	うんこーくかんわいかのとーり。	NO_LABEL
従来はバス車両を使用し、日中時間帯も運行を行っていた。	じゅーらいわばすしゃりょーをしよーし、にっちゅーじかんたいもうんこーをおこなっていた。	NO_LABEL
現在はデマンド交通「いくべ号」が設定されているので日中時間帯は運行していない。	NO_PRONOUNCE	NO_LABEL
また車両を町民バスと「いくべ号」で共通運用するようにし、ジャンボタクシーとしても使用できる車両を導入したので従来使用されていた車両は全て廃車された。	NO_PRONOUNCE	NO_LABEL
一戸町内の公共交通体系を再編し、事前に登録を行った利用者が電話予約することにより、一戸町内を移動できるシステムである。	いちのへまちないのこーきょーこーつーたいけいをさいへんし、じぜんにとーろくをおこなったりよーしゃがでんわよやくすることにより、いちのへまちないをいどーできるしすてむである。	NO_LABEL
丸由タクシーは主に小鳥谷地区を担当しており、同社含め4社で町内を分担している。	NO_PRONOUNCE	NO_LABEL
運行時間帯は平日の8時〜16時であり、それ以外の時間においては既存の路線バスが運行される。	NO_PRONOUNCE	NO_LABEL
長らく旧21条扱いで運行を行っていたが、2006年の法改正の際に路線事業者への切替を行った。	NO_PRONOUNCE	NO_LABEL
その際に所有するバス全車を路線登録に変更した為、会員事業者の中で唯一貸切バス事業を営んでいない事業者となった。	そのさいにしょゆーするばすぜんしゃをろせんとーろくにへんこーしたため、かいいんじぎょーしゃのなかでゆいいつかしきりばすじぎょーをいとなんでいないじぎょーしゃとなった。	NO_LABEL
2013年3月に大船渡線BRTの運行開始に伴い、JR東日本が路線バス事業者として岩手県バス協会に加盟した為、現在は貸切バス事業を営んでおらず乗合のみのバス事業者は2社となっている。	NO_PRONOUNCE	NO_LABEL
