浦 志強は、中華人民共和国の著名な弁護士。	うらこころざしきょーわ、ちゅーかじんみんきょーわこくのちょめいなべんごし。	NO_LABEL
北京市の華一律師事務所所属。	ぺきんしのはないちりっしじむしょしょぞく。	NO_LABEL
六四天安門事件ではハンガー・ストライキに参加した。	ろくよんてんあんもんじけんでわはんがーすとらいきにさんかした。	NO_LABEL
1965年1月17日、河北省唐山市の灤県生まれ。	NO_PRONOUNCE	NO_LABEL
1982年、南開大学歴史学部入学。	せんきゅうひゃくはちじゅうにねん、なんかいだいがくれきしがくぶにゅーがく。	NO_LABEL
1986年に卒業後、河北省の河北物資学校の歴史教師として赴任した。	せんきゅうひゃくはちじゅうろくねんにそつぎょーご、かほくしょーのかほくぶっしがっこーのれきしきょーしとしてふにんした。	NO_LABEL
1991年中国政法大学の法学修士を取得。	せんきゅうひゃくきゅうじゅういちねんちゅーごくせいほーだいがくのほーがくしゅーしをしゅとく。	NO_LABEL
1995年に弁護士資格を取得し、1997年、32歳で弁護士として起業し，金融、民事、企業破産法などの領域で活躍している。	NO_PRONOUNCE	NO_LABEL
2000年から2003年まで北京広播学院の法律学部で教鞭を執っている。	にせんねんからにせんさんねんまでぺきんひろはりがくいんのほーりつがくぶできょーべんをとっている。	NO_LABEL
