世田谷パブリックシアターは、東京都世田谷区太子堂にある公共劇場である。	せたがやぱぶりっくしあたーわ、とーきょーとせたがやくたいしどーにあるこーきょーげきじょーである。	NO_LABEL
三軒茶屋駅前のキャロットタワー内に設置されている。	さんげんじゃやえきまえのきゃろっとたわーないにせっちされている。	NO_LABEL
客席数約600席の主劇場と200席の小劇場から成る。	NO_PRONOUNCE	NO_LABEL
1997年に開場した。	せんきゅうひゃくきゅうじゅうななにかいじょーした。	NO_LABEL
現代演劇や舞踊の舞台として用いられるほか、地域の公共劇場として講座形式やワークショップ形式による教育普及事業に取り組んでいる。	げんだいえんげきやぶよーのぶたいとしてもちいられるほか、ちいきのこーきょーげきじょーとしてこーざけいしきやわーくしょっぷけいしきによるきょーいくふきゅーじぎょーにとりくんでいる。	NO_LABEL
また、芸術監督、制作・学芸・技術分野における専門スタッフを配置していることも特徴的である。	NO_PRONOUNCE	NO_LABEL
開場から2008年まで高萩宏がゼネラルプロデューサーを務めていた。	かいじょーからにせんはちねんまでたかはぎひろしがぜねらるぷろでゅーさーをつとめていた。	NO_LABEL
優良ホール100選に選ばれている。	ゆーりょーほーるひゃくせんにえらばれている。	NO_LABEL
ここでは主劇場について記載する。	ここでわしゅげきじょーについてきさいする。	NO_LABEL
小劇場についてはシアタートラムを参照のこと。	しょーげきじょーについてわしあたーとらむをさんしょーのこと。	NO_LABEL
