薬師寺とは大阪府河内長野市岩瀬621にある融通念仏宗の寺院。	NO_PRONOUNCE	NO_LABEL
本尊は薬師如来。	ほんぞんわやくしにょらい。	NO_LABEL
山号は医王山。	さんごーわいおーぜん。	NO_LABEL
創建は不詳であるが、南北朝時代は観心寺の末寺であったといわれている。	そーけんわふしょーであるが、なんぼくちょうじだいわかんしんじのまつじであったといわれている。	NO_LABEL
境内の五輪塔は大阪府指定文化財。	けいだいのごりんとーわおーさかふしていぶんかざい。	NO_LABEL
