会三帰一とは、「三乗を会して一乗に帰す」と読み、天台宗系の仏教で三乗の教えを会して一乗の教えに帰せしめること。	NO_PRONOUNCE	NO_LABEL
開三顕一、三即一などともいう。	かいぞーけんいち、さんそくいちなどともいう。	NO_LABEL
天台宗によって創始された解釈であるが、日蓮宗各派などでも引用される。	てんだいしゅーによってそーしされたかいしゃくであるが、にちれんしゅーかくはなどでもいんよーされる。	NO_LABEL
釈尊はその生涯40年余りに渡り様々な教えを説いたが、それを要約すると声聞・縁覚・菩薩のために分けてその教えを説いた。	NO_PRONOUNCE	NO_LABEL
つまり声聞の教えを求める者に声聞の教え、縁覚の教えを求める者に縁覚の教え、菩薩の教えを求める者に菩薩の教えと、それぞれ性格の異なる教えを説いた。	つまりしょーもんのおしえをもとめるものにしょーもんのおしえ、えんがくのおしえをもとめるものにえんがくのおしえ、ぼさつのおしえをもとめるものにぼさつのおしえと、それぞれせいかくのことなるおしえをといた。	NO_LABEL
これを三乗各別という。	これをみのりかくべつという。	NO_LABEL
天台宗系の教義では、『法華経』の開経である『無量義経』にある四十余年未顕真実とは、釈尊がその40年余の生涯において説いた教えが、いまだ真実をあらわしていないということであり、『法華経』の方便品に至って、それらの教えはすべて衆生を導くために説いた仮の教えであり一つの手段に過ぎなかった、とし、三乗の教えは一乗の教えを説くための方便だったのだ、と説く。	NO_PRONOUNCE	NO_LABEL
これを会三帰一、開三顕一という。	これをえさんきいち、かいぞーけんいちという。	NO_LABEL
『法華経』の方便品の前半で、十如是を説いて、ほぼ要略して三乗を開いて一乗の教えを説いた。	NO_PRONOUNCE	NO_LABEL
これを略開三顕一といい、方便品第2の後半から学無学人記品第9までで、法理や譬喩、因縁を通して広く三乗を開いて説いた。	NO_PRONOUNCE	NO_LABEL
これを広開三顕一という。	これをひろひらきさんあらわいちという。	NO_LABEL
上記のように、会三帰一は、『法華経』を最高と定めた天台宗によって創始され、それが日蓮宗各派でも採用された解釈であるが、これには異論もあった。	NO_PRONOUNCE	NO_LABEL
まず、法相宗は『解深密経』などを根拠として五性各別を説き、そもそも衆生には差別があり誰でもがすぐに成仏できるものではないとして天台宗と論争になった。	NO_PRONOUNCE	NO_LABEL
いわゆる徳一と最澄の三一権実諍論がそれである。	いわゆるとくいちとさいちょーのさんいちごんじつのそうろんがそれである。	NO_LABEL
天台宗では最澄の弟子が、最澄が徳一の主張をことごとく論破したと宣言して論争を打ち切ったとされる。	てんだいしゅーでわさいちょーのでしが、さいちょーがとくいちのしゅちょーをことごとくろんぱしたとせんげんしてろんそーをうちきったとされる。	NO_LABEL
なお、法華各宗では『法華経』で会三帰一を説いているとするが、	NO_PRONOUNCE	NO_LABEL
