「けんかをやめて」は、河合奈保子が1982年9月1日にリリースした10枚目のシングルである。	NO_PRONOUNCE	NO_LABEL
当時山下達郎と結婚し歌手活動休止中だった、シンガーソングライター・竹内まりやが河合奈保子のシングルを初めて担当した。	NO_PRONOUNCE	NO_LABEL
竹内は、以前たまたまテレビで河合が「スマイル・フォー・ミー」をはつらつと歌う様子を見て「彼女はしっとりとした歌を歌ってもきっと似合うだろうなあ」と感じ、表題曲の着想を得たという。	NO_PRONOUNCE	NO_LABEL
二人のボーイフレンドを天秤にかけるというプロットは、竹内が幼少時によく聴いていた洋楽ポップスの影響が強い。	ふたりのぼーいふれんどをてんびんにかけるとゆうぷろっとわ、たけうちがよーしょーじによくきいていたよーがくぽっぷすのえいきょーがつよい。	NO_LABEL
程なくして、河合への楽曲提供のオファーがコロムビアからタイミングよくあり、「あ、実はこんな曲があります」という流れでシングルのリリースにつながった。	NO_PRONOUNCE	NO_LABEL
竹内は「奈保子ちゃんが歌うと、ちょっとワガママな女の子の揺れてる気持ちが自然に聞こえてくる」と評し、また河合の抑揚をつけた「ごめんなさいね 私のせいよ」という歌い方から少女の心の機微が伝わってくると述べた。	NO_PRONOUNCE	NO_LABEL
作曲家・筒美京平はこの曲を高く評価している。	NO_PRONOUNCE	NO_LABEL
竹内はのちにこの曲をセルフカバーしたが「奈保子ちゃんが歌うとすごく可愛いのに、私が歌うとひどく傲慢な女性に聞こえるのはなぜだ？」と自ら解説し、歌い手による視点の変化の妙を語った。	NO_PRONOUNCE	NO_LABEL
本作は楽譜で発売される際、河合奈保子版は拍子で記譜されるのに対し、竹内まりや版は拍子で記譜されることが多い。	もとさくわがくふではつばいされるさい、かわいなおこばんわひょーしできふされるのにたいし、たけうちまりやばんわひょーしできふされることがおーい。	NO_LABEL
