門真市役所は、日本の地方公共団体である大阪府門真市の組織が入る施設。	かどましやくしょわ、にっぽんのちほーこーきょーだんたいであるおーさかふかどましのそしきがはいるしせつ。	NO_LABEL
2013年5月、隣接する旧第六中学校校舎を改修し移転、市役所本館としている。	にせんじゅうさんねんごがつ、りんせつするきゅーだいろくちゅうがっこーこーしゃをかいしゅーしいてん、しやくしょほんかんとしている。	NO_LABEL
旧本館は解体された。	きゅーほんかんわかいたいされた。	NO_LABEL
別館はそのまま使用している。	べっかんわそのまましよーしている。	NO_LABEL
