中部圏開発整備本部は、廃止された日本の行政機関。	ちゅーぶけんかいはつせいびほんぶわ、はいしされたにほんのぎょーせいきかん。	NO_LABEL
中部圏開発整備本部は、1966年7月1日、中部圏開発整備法に基づいて、総理府の機関として設置された。	ちゅーぶけんかいはつせいびほんぶわ、せんきゅうひゃくろくじゅうろくねんしちがつついたち、ちゅーぶけんかいはつせいびほーにもとずいて、そーりふのきかんとしてせっちされた。	NO_LABEL
1974年6月26日に廃止され、同日に設置された国土庁が事務を引き継いだ。	せんきゅうひゃくななじゅうよねんろくがつにじゅうろくにちにはいしされ、どーじつにせっちされたこくどちょーがじむをひきついだ。	NO_LABEL
中部圏開発整備法は、「中部圏の開発及び整備に関する総合的な計画を策定し、その実施を推進することにより、東海地方、北陸地方等相互間の産業経済等の関係の緊密化を促進するとともに、首都圏と近畿圏の中間に位する地域としての機能を高め、わが国の産業経済等において重要な地位を占めるにふさわしい中部圏の建設とその均衡ある発展を図り、あわせて社会福祉の向上に寄与すること」を目的として、中部圏開発整備本部を設置した。	NO_PRONOUNCE	NO_LABEL
中部圏開発整備本部の所掌事務は以下の通り。	ちゅーぶけんかいはつせいびほんぶのしょしょーじむわいかのとーり。	NO_LABEL
中部圏開発整備本部は、国家行政組織法8条1項の規定に基づき、総理府の機関として設置された。	NO_PRONOUNCE	NO_LABEL
中部圏開発整備本部の長である中部圏開発整備長官には国務大臣を以て充てることとされ、初代の中部圏開発整備長官には第1次佐藤内閣第1次改造内閣の国務大臣・瀬戸山三男が就任した。	NO_PRONOUNCE	NO_LABEL
また、内閣総理大臣の諮問に応じ、中部圏開発整備計画の策定及び実施に関する重要事項その他審議会の権限に属させられた事項について調査審議するため、総理府の附属機関として、中部圏開発整備審議会が置かれた。	また、ないかくそーりだいじんのしもんにおーじ、ちゅーぶけんかいはつせいびけいかくのさくていおよびじっしにかんするじゅーよーじこーそのたしんぎかいのけんげんにぞくさせられたじこーについてちょーさしんぎするため、そーりふのふぞくきかんとして、ちゅーぶけんかいはつせいびしんぎかいがおかれた。	NO_LABEL
