株式会社マテックは、北海道帯広市に本社を置く総合リサイクル業者である。	かぶしきがいしゃまてっくわ、ほっかいどーおびひろしにほんしゃをおくそーごーりさいくるぎょーしゃである。	NO_LABEL
1935年創業。	せんきゅうひゃくさんじゅうごねんそーぎょー。	NO_LABEL
自動車解体が主たる業務であり、同業者の鈴木商会と共に北海道内の各地域に支店を持ち、鉄製品及び非鉄製品の総合リサイクル、中古鋼材、自動車用中古パーツのの販売を行っている。	じどーしゃかいたいがしゅたるぎょーむであり、どーぎょーしゃのすずきしょーかいとともにほっかいどーないのかくちいきにしてんをもち、てつせいひんおよびひてつせいひんのそーごーりさいくる、ちゅーここーざい、じどーしゃよーちゅーこぱーつののはんばいをおこなっている。	NO_LABEL
自動車用中古パーツは同社のオンラインショップでも購入が可能である。	じどーしゃよーちゅーこぱーつわどーしゃのおんらいんしょっぷでもこーにゅーがかのーである。	NO_LABEL
