日本ルワンダ学生会議は、日本の学生団体。	にほんるわんだがくせいかいぎわ、にっぽんのがくせいだんたい。	NO_LABEL
日本とルワンダの学生が議論や文化交流を通じて両国が抱える社会問題への認識を高め、友好関係を構築することを主たる活動とする。	にっぽんとるわんだのがくせいがぎろんやぶんかこーりゅーをつーじてりょーこくがかかえるしゃかいもんだいえのにんしきをたかめ、ゆーこーかんけいをこーちくすることをしゅたるかつどーとする。	NO_LABEL
略称は“JRYC”。	NO_PRONOUNCE	NO_LABEL
駐日本ルワンダ大使館、アフリカ平和再建委員会、早稲田大学平山郁夫記念ボランティアセンター公認。	ちゅーにっぽんるわんだたいしかん、あふりかへいわさいけんいーんかい、わせだだいがくひらやまいくおきねんぼらんてぃあせんたーこーにん。	NO_LABEL
ルワンダに生活している人々と交流し、彼らの現状・価値観・人生を知り、相互理解・尊重に基づき信頼関係を築く。	NO_PRONOUNCE	NO_LABEL
ルワンダの‘Never again'に対し当事者意識を養い、「自由・平等・尊厳・持続可能性・寛容」の視座から真に豊かで平和な社会を考察し行動する主体を目指す。	NO_PRONOUNCE	NO_LABEL
「『偏見』を取り除き寛容な『人間同士』の関係づくりがひいては平和な社会を構築する」という信念から、学生会議という形で「相互理解」を理念に交流する。	NO_PRONOUNCE	NO_LABEL
日本・ルワンダ両国の歴史や社会問題を広く議論し、双方をより深く理解することで、両国のみならず人類の共通課題に向き合う。	NO_PRONOUNCE	NO_LABEL
