NFCチャンピオンシップゲームは、NFLの2つのカンファレンスの1つであるナショナル・フットボール・カンファレンスの優勝決定戦である。	えぬえふしーちゃんぴおんしっぷげーむわ、えぬえふえるのふたつのかんふぁれんすのひとつであるなしょなるふっとぼーるかんふぁれんすのゆーしょーけっていせんである。	NO_LABEL
例年1月の日曜日に開催されており、優勝チームには1984年からジョージ・ハラス・トロフィーが贈られる。	NO_PRONOUNCE	NO_LABEL
優勝チームはスーパーボウルの出場権を得て、アメリカン・フットボール・カンファレンスの優勝チームと激突する。	ゆーしょーちーむわすーぱーぼーるのしゅつじょーけんをえて、あめりかんふっとぼーるかんふぁれんすのゆーしょーちーむとげきとつする。	NO_LABEL
アメリカ国内では極めて注目度の高い試合であり、スーパボウルに次ぐ年間最高視聴率という座をAFCチャンピオンシップゲームと近年争っている。	あめりかこくないでわきめてちゅーもくどのこういしあいであり、すーぱぼうるにつぐねんかんさいこーしちょーりつとゆうざをえーえふしーちゃんぴおんしっぷげーむときんねんあらそっている。	NO_LABEL
AFLとNFLの統合があった1970年から始まった。	NO_PRONOUNCE	NO_LABEL
NFCには統合前のNFLに所属した大部分のチームで構成された。	えぬえふしーにわとーごーまえのえぬえふえるにしょぞくしただいぶぶんのちーむでこーせいされた。	NO_LABEL
その後NFCにはエクスパンションチームとしてタンパベイ・バッカニアーズ、カロライナ・パンサーズ、2003年にはAFCからシアトル・シーホークスが移った。	そのごえぬえふしーにわえくすぱんしょんちーむとしてたんぱべいばっかにあーず、かろらいなぱんさーず、にせんさんねんにわえーえふしーからしあとるしーほーくすがうつった。	NO_LABEL
レギュラーシーズンが終了した後、現在は地区優勝した4チームとそれに次ぐ成績のワイルドカードで出場する2チーム、合計6チームでプレーオフが争われている。	NO_PRONOUNCE	NO_LABEL
1975/1976年シーズンのプレーオフからシード制が導入されておりAFCで最高成績を収めたチームにはプレーオフでホームフィールドアドバンテージが与えられる。	NO_PRONOUNCE	NO_LABEL
ワイルドカードチームはワイルドカードチーム同士の対戦でなければホームチームとなることはない。	わいるどかーどちーむわわいるどかーどちーむどーしのたいせんでなければほーむちーむとなることわない。	NO_LABEL
