テレビ朝日系列土曜夜7時台枠のアニメは、テレビ朝日系列にて過去に土曜19:00 - 19:30および19:30 - 20:00に放送されていたテレビアニメ枠である。	NO_PRONOUNCE	NO_LABEL
この枠の移動によって、1997年から3年間存在した土曜18:00台枠のアニメも、本項で取り上げる。	NO_PRONOUNCE	NO_LABEL
なお制作枠の移動によって、1976年から1年間存在した朝日放送制作の日曜19:00のアニメに関しては、	NO_PRONOUNCE	NO_LABEL
また、後半枠の中断中に放送されたドラマに関しては、	また、こーはんわくのちゅーだんちゅーにほーそーされたどらまにかんしてわ、	NO_LABEL
腸捻転解消前は海外アニメのみを放送、解消後は長年にわたって在阪局・朝日放送制作の枠であった。	NO_PRONOUNCE	NO_LABEL
1984年に放送した『とんがり帽子のメモル』が途中で日曜8:30枠に移動するものの、そのまま東映動画制作の少女向けアニメ 放映枠となり現在まで存続している。	NO_PRONOUNCE	NO_LABEL
1986年の『聖闘士星矢』開始後は東映動画・テレビ朝日制作アニメ枠となった。	NO_PRONOUNCE	NO_LABEL
その後『美少女戦士セーラームーン』などのヒット作も生まれたが、『キューティーハニーF』がシリーズ途中で土曜18:30枠に移動後、4年半の中断を経て、2002年から金曜19:30枠で『あたしンち』が開始した影響で一時期『クレヨンしんちゃん 』がこの時間帯で放映されたのを最後にアニメ作品は途絶えている。	NO_PRONOUNCE	NO_LABEL
※この間アニメ枠を中断・音楽番組・クイズ番組などを編成。	NO_PRONOUNCE	NO_LABEL
※この間アニメ枠を中断・ボウリング番組・特撮・バラエティ番組などを編成。	NO_PRONOUNCE	NO_LABEL
※この間アニメ枠を中断・バラエティ番組を編成。	NO_PRONOUNCE	NO_LABEL
代替措置として、1976年4月－1977年3月の1年間は日曜19:00枠にアニメを編成していた。	NO_PRONOUNCE	NO_LABEL
※この間アニメ枠を中断・バラエティ番組を編成。	NO_PRONOUNCE	NO_LABEL
この間は代替枠は設けず、ABC制作のアニメ枠は約1年間中断した。	このかんわだいたいわくわもーけず、えぃびぃしぃせいさくのあにめわくわやくいちねんかんちゅーだんした。	NO_LABEL
※この間アニメ枠を中断・バラエティ番組を編成。	NO_PRONOUNCE	NO_LABEL
※1997年10月 - 2002年3月までバラエティ枠	NO_PRONOUNCE	NO_LABEL
まだ毎日放送枠だった1964年からは、かつて水曜日や火曜日や月曜日で放送した海外作品『バックス・バニー・ショー』の新作や、『おそ松くん』を始めとしたギャグアニメを放送。	NO_PRONOUNCE	NO_LABEL
その後、『奥さまは魔女』以降、石森章太郎原作の特撮、『あばれはっちゃく』シリーズといった児童向けドラマが続いていたが、1985年9月に終了後のドラマ枠の不振が続いたことにより、1987年10月に金曜19:30枠と入れ替わる形でアニメ枠に変更、『おぼっちゃまくん』『SLAM DUNK』などのヒット作を輩出した。	NO_PRONOUNCE	NO_LABEL
だが『セーラームーン』シリーズの終了により『忍ペンまん丸』は3ヶ月で枠変更となる。	NO_PRONOUNCE	NO_LABEL
その5年後の2002年10月から、半年前に枠移動した『しんちゃん』に続ける形で、映画で人気があった『釣りバカ日誌』をアニメ化して再開し高視聴率を得たが、次番組『ボボボーボ・ボーボボ』は視聴率低下により1年でローカル枠に移動して事実上終了した。	NO_PRONOUNCE	NO_LABEL
なお、ABCでは当時関西ローカルの刑事ドラマ『部長刑事』シリーズを放映していた関係で、『忍ペンまん丸』までは同日夕方に先行ネットの形で放送していた。	NO_PRONOUNCE	NO_LABEL
広島ホームテレビでは、プロ野球広島東洋カープ主催ゲームの中継をこの時間に放送した際、平日の夕方枠等での遅れネットとなっていた。	ひろしまほーむてれびでわ、ぷろやきゅーひろしまとーよーかーぷしゅさいげーむのちゅーけいをこのじかんにほーそーしたさい、へいじつのゆーがたわくとーでのおくれねっととなっていた。	NO_LABEL
通常は当枠と20:00枠のドラマが差し替え対象だったが、時折19:00枠から差し替えとなる場合もあった。	NO_PRONOUNCE	NO_LABEL
※アニメ中断。	NO_PRONOUNCE	NO_LABEL
この間は、公開コメディ『寛美の落語紳士録』、演芸番組『すきっと笑いまショー』『土曜寄席』、クイズ番組『クイズ ホップ・ステップ・ジャンプ』を放送。	NO_PRONOUNCE	NO_LABEL
※アニメ中断。	NO_PRONOUNCE	NO_LABEL
この間は、児童向けドラマの『奥さまは魔女』や『第1期仮面ライダーシリーズ』、『秘密戦隊ゴレンジャー』、『あばれはっちゃくシリーズ』などを放送。	NO_PRONOUNCE	NO_LABEL
※1997年10月 - 2002年9月までバラエティ枠	NO_PRONOUNCE	NO_LABEL
1976年4月、それまでスポーツ番組などを放送していた時間帯に『長浜ロマンロボシリーズ』が開始され1979年1月まで放送。	NO_PRONOUNCE	NO_LABEL
その後は1989年9月まで実写の『スーパー戦隊シリーズ』を放映していた時間帯であったが、ニュース番組『ザ・スクープ』が1989年10月から8年間続き、その後19時30分枠から『忍ペンまん丸』が枠移動してきたことで18年8か月ぶりに再びアニメ放送枠となった。	NO_PRONOUNCE	NO_LABEL
しかし、平均視聴率も移動前の7.8%から6.5%へ下落し、以後の作品も平均視聴率は5%台に留まり、放映期間も半年を越える作品が出ることもなく、同時に生まれた18:30枠より一足早く、わずか1年半でニュース、バラエティ枠へと戻り、以後アニメ作品は途絶えている。	NO_PRONOUNCE	NO_LABEL
※アニメ中断。	NO_PRONOUNCE	NO_LABEL
1979年2月から1989年9月まで『スーパー戦隊シリーズ』を放送。	NO_PRONOUNCE	NO_LABEL
古くからニュース枠であり 、『ザ・スクープ』の後に19時枠から『キューティーハニーF』が枠移動してきたことでアニメ放送枠となったが、平均視聴率も移動前の7.8%から5.9%へ下落し、以後の作品も平均視聴率は5%台に留まることとなる。	NO_PRONOUNCE	NO_LABEL
『神風怪盗ジャンヌ』の放送途中からはフライングスタートの導入などを試みたが視聴率の好転はみられず、『マシュランボー』において、「少年向け」、「アニメオリジナル」といった改革を行なうも、5%台を推移してきた平均視聴率はついに3.5%となってしまい、それまでの作品が1年間の放映期間をまっとうできたのに対し、わずか7か月の放映となり、その最後をもって、3年でニュース、バラエティ枠へと戻り、以後アニメ作品は途絶えている。	NO_PRONOUNCE	NO_LABEL
なお、ABCでは『部長刑事』シリーズを放映した関係で、17:00～17:30の先行放送となっていた。	NO_PRONOUNCE	NO_LABEL
いずれも東映アニメーション制作。	いずれもとーえいあにめーしょんせいさく。	NO_LABEL
19:00前半の東映枠が移動してきた形となる。	NO_PRONOUNCE	NO_LABEL
