SHADY DOLLSは、日本のロックバンド。	しぇいでぃどーるずわ、にっぽんのろっくばんど。	NO_LABEL
1983年結成、2000年解散。	せんきゅうひゃくはちじゅうさんねんけっせい、にせんねんかいさん。	NO_LABEL
1983年 	せんきゅうひゃくはちじゅうさんねん	NO_LABEL
1985年	せんきゅうひゃくはちじゅうごねん	NO_LABEL
1986年	せんきゅうひゃくはちじゅうろくねん	NO_LABEL
1987年	せんきゅうひゃくはちじゅうななね	NO_LABEL
1988年	せんきゅうひゃくはちじゅうはちねん	NO_LABEL
1989年 	せんきゅうひゃくはちじゅうきゅうねん	NO_LABEL
1990年	せんきゅうひゃくきゅうじゅうねん	NO_LABEL
1991年	せんきゅうひゃくきゅうじゅういちねん	NO_LABEL
1992年	せんきゅうひゃくきゅうじゅうにねん	NO_LABEL
1993年	せんきゅうひゃくきゅうじゅうさんねん	NO_LABEL
1994年	せんきゅうひゃくきゅうじゅうよねん	NO_LABEL
1996年	せんきゅうひゃくきゅうじゅうろくねん	NO_LABEL
1998年	せんきゅうひゃくきゅうじゅうはちねん	NO_LABEL
1999年	せんきゅうひゃくきゅうじゅうきゅうねん	NO_LABEL
2000年	にせんねん	NO_LABEL
