岡部 長住- 文化6年8月8日）は、和泉岸和田藩の第6代藩主。	NO_PRONOUNCE	NO_LABEL
岸和田藩岡部家7代。	きしわだはんおかべかななだい。	NO_LABEL
第5代藩主・岡部長著の次男。	NO_PRONOUNCE	NO_LABEL
母は松平乗邑の娘。	ははわまつだいらじょーむらのむすめ	NO_LABEL
正室は鍋島宗茂の娘。	せいしつわなべしまむねしげのむすめ	NO_LABEL
子に娘、娘。	こにむすめ、むすめ	NO_LABEL
官位は従五位下、内膳正。	かんいわじゅうごいのげ、ないぜんせい。	NO_LABEL
幼名は満弥。	よーめいわみつや。	NO_LABEL
宝暦6年5月10日、父の隠居で家督を継ぐ。	ほうれきろくねんごがつとおか、ちちのいんきょでかとくをつぐ。	NO_LABEL
藩政では法令を定めるなど、藩政によく努めている。	はんせいでわほーれいをさだめるなど、はんせいによくつとめている。	NO_LABEL
しかし生来病弱なため、明和9年4月23日に家督を弟の長修に譲って隠居した。	しかしせいらいびょーじゃくなため、めいわきゅうねんしがつにじゅうさんにちにかとくをおとーとのちょーおさむにゆずっていんきょした。	NO_LABEL
文化6年8月8日、70歳で死去した。	ぶんかろくねんはちがつようか、ななじゅっさいでしきょした。	NO_LABEL
墓所は東京都新宿区榎町の済松寺。	はかしょわとーきょーとしんじゅくくえのきちょーのさいしょうじ。	NO_LABEL
