杜陵信用組合は、岩手県盛岡市に本店を置く信用組合である。	とりょーしんよーくみあいわ、いわてけんもりおかしにほんてんをおくしんよーくみあいである。	NO_LABEL
岩手県職員や岩手県の外郭団体職員を対象とした職域信用組合である。	いわてけんしょくいんやいわてけんのがいかくだんたいしょくいんをたいしょーとしたしょくいきしんよーくみあいである。	NO_LABEL
岩手県庁の地下1階にある、杜陵信組のATMとの共同利用店舗）の稼動は平日のみ9:00～18:00である｡またセブン銀行とも提携している。	NO_PRONOUNCE	NO_LABEL
更に2008年9月22日にはイオン銀行とのATM相互出金提携にも参加している。	さらににせんはちねんくがつにじゅうににちにわいおんぎんこーとのえいてぃえむそーごしゅっきんていけいにもさんかしている。	NO_LABEL
