梅棹 忠夫は、日本の生態学者、民族学者、情報学者、未来学者。	うめさおただおわ、にっぽんのせいたいがくしゃ、みんぞくがくしゃ、じょーほーがくしゃ、みらいがくしゃ。	NO_LABEL
国立民族学博物館名誉教授、総合研究大学院大学名誉教授、京都大学名誉教授。	こくりつみんぞくがくはくぶつかんめいよきょーじゅ、そーごーけんきゅーだいがくいんだいがくめいよきょーじゅ、きょーとだいがくめいよきょーじゅ。	NO_LABEL
 理学博士。	りがくはかせ。	NO_LABEL
従三位勲一等瑞宝章。	じゅさんいくんいっとーずいほーしょー。	NO_LABEL
日本中東学会初代会長。	にほんちゅーとーがっかいしょだいかいちょー。	NO_LABEL
日本における文化人類学のパイオニアであり、梅棹文明学とも称されるユニークな文明論を展開し、多方面に多くの影響を与えている人物。	にっぽんにおけるぶんかじんるいがくのぱいおにあであり、うめさおふみあきがくともしょーされるゆにーくなぶんめいろんをてんかいし、たほーめんにおーくのえいきょーをあたえているじんぶつ。	NO_LABEL
京大では今西錦司門下の一人。	きょーだいでわいまにしきんじもんかのひとり。	NO_LABEL
生態学が出発点であったが、動物社会学を経て民族学、比較文明論に研究の中心を移す。	せいたいがくがしゅっぱつてんであったが、どーぶつしゃかいがくをへてみんぞくがく、ひかくぶんめいろんにけんきゅーのちゅーしんをうつす。	NO_LABEL
代表作『文明の生態史観』の他、数理生態学の先駆者でもあり、湯川秀樹門下の寺本英が展開した。	NO_PRONOUNCE	NO_LABEL
さらに、宗教のウィルス説をとなえ、思想・概念の伝播、精神形成を論じた。	NO_PRONOUNCE	NO_LABEL
その後も、宗教ウイルス説を展開し、後継研究もあり一定の影響を及ぼす。	そのごも、しゅーきょーういるすせつをてんかいし、こーけいけんきゅーもありいっていのえいきょーをおよぼす。	NO_LABEL
宗教ウイルス説は、文明要素が選択により遷移していくと言う遷移理論を柱にする文明の生態史観の一例であり、基礎のひとつである。	しゅーきょーういるすせつわ、ぶんめいよーそがせんたくによりせんいしていくというせんいりろんをはしらにするぶんめいのせいたいしかんのいちれいであり、きそのひとつである。	NO_LABEL
青年期より登山と探検に精を出し、数多くのフィールドワークの経験から、B6カードを使った情報整理法を考案、その方法をまとめた『知的生産の技術』はベストセラーになった。	NO_PRONOUNCE	NO_LABEL
また、モンゴルにフィールドワークに出かけた直後に原因不明の視力障害を患い、64歳で両目とも失明するが、失明後、それ以前よりも多数の著作を残した。	また、もんごるにふぃーるどわーくにでかけたちょくごにげんいんふめいのしりょくしょーがいをわずらい、ろくじゅうよんさいでりょーめともしつめいするが、しつめいご、それいぜんよりもたすーのちょさくをのこした。	NO_LABEL
京都市に父・菊次郎、母・ヱイの長男として生まれる。	NO_PRONOUNCE	NO_LABEL
1936年、京都一中から4年修了で第三高等学校に入学。	せんきゅうひゃくさんじゅうろくね、きょーといちちゅーからよんねんしゅーりょーでだいさんこーとーがっこーににゅーがく。	NO_LABEL
三高時代から山岳部の活動に熱中して学業を放棄し、2年連続で留年して退学処分を受けるも、後輩や同級生からの嘆願運動で復学を認められる。	さんこーじだいからさんがくぶのかつどーにねっちゅーしてがくぎょーをほーきし、にねんれんぞくでりゅーねんしてたいがくしょぶんをうけるも、こーはいやどーきゅーせいからのたんがんうんどーでふくがくをみとめられる。	NO_LABEL
京都帝国大学理学部動物学科在学中には今西錦司を団長、森下正明を副団長とする中国北部『大興安嶺探検隊』などの探検に参加活躍をした。	NO_PRONOUNCE	NO_LABEL
モンゴルの遊牧民と家畜群の研究を基盤に、生物地理学的な歴史観を示した『文明の生態史観』は、日本文明の世界史的位置づけにユニークな視点を持ち込み、大きな反響を呼び論争を巻き起こした。	NO_PRONOUNCE	NO_LABEL
この主著は後の一連の文明学におけるユニークな実績の嚆矢となった。	このしゅちょわごのいちれんのぶんめいがくにおけるゆにーくなじっせきのこーしとなった。	NO_LABEL
フィールドワークや京大人文研での経験から著した『知的生産の技術』はロングセラーとなり、同書で紹介された情報カードは、「京大式カード」という名で商品化された。	NO_PRONOUNCE	NO_LABEL
1963年には『情報産業論』を発表。	NO_PRONOUNCE	NO_LABEL
アルビン・トフラーの「第三の波」よりもかなり先行した時期に情報化社会のグランドフレームを提示した。	NO_PRONOUNCE	NO_LABEL
「情報産業」という言葉の名づけ親でもある。	NO_PRONOUNCE	NO_LABEL
その後の一連の文明学的ビジョンは『情報の文明学』にまとめられている。	NO_PRONOUNCE	NO_LABEL
1957年「第一次主婦論争」に「女と文明」を書いて参戦し、「妻無用論」を唱えた。	NO_PRONOUNCE	NO_LABEL
　	NO_PRONOUNCE	NO_LABEL
国立民族学博物館の設立に尽力し、1974年初代館長に就任した。	こくりつみんぞくがくはくぶつかんのせつりつにじんりょくし、せんきゅうひゃくななじゅうよねんしょだいかんちょーにしゅーにんした。	NO_LABEL
1986年3月12日に原因不明の失明をした。	せんきゅうひゃくはちじゅうろくねんさんがつじゅうににちにげんいんふめいのしつめいをした。	NO_LABEL
それ以降の著述は口述筆記による。	それいこーのちょじゅつわこーじゅつひっきによる。	NO_LABEL
闘病記『夜はまだあけぬか』に詳しい。	NO_PRONOUNCE	NO_LABEL
作家司馬遼太郎とは、モンゴル研究のつながりで長年の友人であった	さっかしばりょーたろーとわ、もんごるけんきゅーのつながりでながねんのゆーじんであった	NO_LABEL
日本語のローマ字論者で、社団法人日本ローマ字会会長でもある。	にほんごのろーまじろんしゃで、しゃだんほーじんにっぽんろーまじかいかいちょーでもある。	NO_LABEL
古くから漢字廃止論を唱えており、特に失明後は漢語に多い同音異義語を重大な欠点として主張した。	ふるくからかんじはいしろんをとなえており、とくにしつめいごわかんごにおーいどーおんいぎごをじゅーだいなけってんとしてしゅちょーした。	NO_LABEL
また、エスペラント運動家であり、世界エスペラント協会の名誉委員である。	また、えすぺらんとうんどーかであり、せかいえすぺらんときょーかいのめいよいーんである。	NO_LABEL
主な著作は、『梅棹忠夫著作集』に収録。	NO_PRONOUNCE	NO_LABEL
イスラームに対しては、人と神がマンツーマンで接することができる宗教として、共感を抱いている。	いすらーむにたいしてわ、ひととかみがまんつーまんでせっすることができるしゅーきょーとして、きょーかんをだいている。	NO_LABEL
2010年7月3日、大阪府吹田市の自宅で老衰により没した。	にせんじゅうねんしちがつみっか、おーさかふすいたしのじたくでろーすいによりぼっした。	NO_LABEL
梅棹忠夫著『行為と妄想－私の履歴書』18-21頁によれば、	NO_PRONOUNCE	NO_LABEL
儀助━━菊之助━━菊次郎━━忠夫	NO_PRONOUNCE	NO_LABEL
）	NO_PRONOUNCE	NO_LABEL
