松本 孝弘は、日本のギタリスト、作曲家、アレンジャー、音楽プロデューサーであり、ロックユニット・B'zのメンバーで、リーダーも務める。	NO_PRONOUNCE	NO_LABEL
ソロ活動では、作詞・ボーカルも担当したこともある。	NO_PRONOUNCE	NO_LABEL
クレジットは『TAK MATSUMOTO』という名義を主に使用している。	NO_PRONOUNCE	NO_LABEL
大阪府豊中市出身。	おーさかふとよなかししゅっしん。	NO_LABEL
既婚。	きこん。	NO_LABEL
所属レコード会社はビーイング、レーベルはVERMILLION RECORDS所属。	しょぞくれこーどがいしゃわびーいんぐ、れーべるわばーみりおんれこーずしょぞく。	NO_LABEL
所属事務所はVERMILLION。	しょぞくじむしょわばーみりおん。	NO_LABEL
B'zのギタリストとしての創作・ライヴ活動に並行してソロ作品のリリースや、他アーティストへの楽曲提供やギター演奏での参加も行なっている。	NO_PRONOUNCE	NO_LABEL
1999年6月にはギブソンから世界で5人目、日本人初となるギブソン・レスポールのシグネチュア・アーティストに選ばれている。	NO_PRONOUNCE	NO_LABEL
2004年にエリック・マーティン、ジャック・ブレイズらとTMGを結成して活動。	にせんよねんにえりっくまーてぃん、じゃっくぶれいずらとてぃーえむじーをけっせいしてかつどー。	NO_LABEL
また、同年にはギタリストを中心とした弦楽器奏者のためのレコードレーベル「House Of Strings」も設立している。	NO_PRONOUNCE	NO_LABEL
2010年にラリー・カールトンと共作したアルバム『TAKE YOUR PICK』は『第53回グラミー賞』最優秀ポップ・インストゥルメンタル・アルバムを受賞した。	NO_PRONOUNCE	NO_LABEL
松本のギター演奏において最も特徴的なものとしてトーンが挙げられ、本人も「今回のジャックにしてもエリックにしても今まですごいギター・ヒーローたちと一緒に仕事をしてきてるじゃないですか。	NO_PRONOUNCE	NO_LABEL
やっぱり音色のことは言いますよね。	やっぱりねいろのことわいいますよね。	NO_LABEL
僕のプレイ、たとえば『速弾きがすごい！』なんて誰も言わない。	NO_PRONOUNCE	NO_LABEL
もうね、スーパー・プレイを目の当たりにしてきてる人たちだからね、『TAKはトーンだよ』ってみんな言う。	NO_PRONOUNCE	NO_LABEL
それは最高の褒め言葉だと思ってますよ。	それわさいこーのほめことばだとおもってますよ。	NO_LABEL
」、「自分の一番のポイントはやっぱりトーンだから。	NO_PRONOUNCE	NO_LABEL
決して技術的に凄いわけではないので、僕の場合はこの音色……トーンがやっぱり絶対なんですよね。	NO_PRONOUNCE	NO_LABEL
だからチョーキングしてビブラートした感じがいちばんのポイントだと自負しています。	だからちょーきんぐしてびぶらーとしたかんじがいちばんのぽいんとだとじふしています。	NO_LABEL
」と述べている。	NO_PRONOUNCE	NO_LABEL
また、マーティ・フリードマンも自著にてギターの音を聞いただけで誰が弾いているのかがわかる日本のギタリストとして布袋寅泰、Charとともに松本の名を挙げている。	また、まーてぃふりーどまんもじちょにてぎたーのおとをきいただけでだれがひいているのかがわかるにっぽんのぎたりすととしてほていともやす、ちゃーとともにまつもとのなをあげている。	NO_LABEL
B'zのサポート・メンバーの1人であるバリー・スパークスは「すごくホットなプレイを弾いているときも、頭の中は常にクールだということかな。	NO_PRONOUNCE	NO_LABEL
イングヴェイはまるで風船が破裂したみたいに弾きまくるけど、TAKはリズムならリズム、リードならリードをきっちり弾きこむ方だ。	NO_PRONOUNCE	NO_LABEL
しかも毎晩ベスト・コンディションを保ち続ける、真のプロフェッショナルだよ。	NO_PRONOUNCE	NO_LABEL
彼のプレイからはマイケル・シェンカーやリッチー・ブラックモアの影響が聴こえてくるけど、彼らよりずっとタイトなギタリストだと思うね。	かれのぷれいからわまいけるしぇんかーやりっちーぶらっくもあのえいきょーがきこえてくるけど、かれらよりずっとたいとなぎたりすとだとおもうね。	NO_LABEL
彼がかつてスタジオ・ミュージシャンだったことも、その理由のひとつかもしれない。	かれがかつてすたじおみゅーじしゃんだったことも、そのりゆーのひとつかもしれない。	NO_LABEL
」と述べている。	NO_PRONOUNCE	NO_LABEL
生み出す楽曲は、メロウなバラード、ポップなものからハードな楽曲、ブルースまで幅広く、メロディアスな楽曲が多い。	うみだすがっきょくわ、めろーなばらーど、ぽっぷなものからはーどながっきょく、ぶるーすまではばひろく、めろでぃあすながっきょくがおーい。	NO_LABEL
また、アジア特有の音階を用いたオリエンタルなメロディの楽曲も多く作っており、ソロ作品『Thousand Wave』、『華』やB'zの「愛のままにわがままに 僕は君だけを傷つけない」等にも見られる。	NO_PRONOUNCE	NO_LABEL
また、ソロデビューアルバム『Thousand Wave』ではヘヴィメタル調で速い曲が多く、B'z初期の作品では松本本人の意向によって打ち込みを多用したデジタルサウンドであったが、B'zブレイク以後はハードロック的な音楽性へと傾倒し、現在に至る。	NO_PRONOUNCE	NO_LABEL
B'z#音楽方向性の項目も参照。	NO_PRONOUNCE	NO_LABEL
アンプやエフェクター、スイッチングなどのシステムに関しては、ビーイングのギターテックチーム「FAT」が開発したオリジナルのものを使用している。	NO_PRONOUNCE	NO_LABEL
アンプなどにデザインしている「玲」の文字は、「美しい音」という意味で使用している。	NO_PRONOUNCE	NO_LABEL
2013年には、クライベイビーからアジア人初となるワウペダルのシグネチャーモデルが数量限定で発売された。	にせんじゅうさんねんにわ、くらいべいびーからあじあじんはつとなるわうぺだるのしぐねちゃーもでるがすーりょーげんていではつばいされた。	NO_LABEL
※以下はソロでの作品の記述。	NO_PRONOUNCE	NO_LABEL
B'zとしての作品は"B'zの作品"を、TMGとしての作品は"TMG#ディスコグラフィー"を参照。	NO_PRONOUNCE	NO_LABEL
※「1st」「2nd」などの表記は、B'zのファンクラブB'z Partyの会報誌『Be with!』に掲載されている「DISCOGRAPHY」によるものである。	NO_PRONOUNCE	NO_LABEL
ラジオレギュラー番組	らじおれぎゅらーばんぐみ	NO_LABEL
テレビ番組	てれびばんぐみ	NO_LABEL
B'z	びーず	NO_LABEL
関連人物	かんれんじんぶつ	NO_LABEL
その他	そのた	NO_LABEL
注釈	ちゅーしゃく	NO_LABEL
出典	しゅってん	NO_LABEL
