引出物とは、結婚式や祝賀パーティなどの祝い事で招待客に配られる贈呈品。	ひきでものとわ、けっこんしきやしゅくがぱーてぃなどのいわいごとでしょーたいきゃくにくばられるぞーていひん。	NO_LABEL
ただし、法事など冠婚葬祭の場全般で配られるものを指してこう呼ぶ場合もあり広義には慶事以外も含まれる。	ただし、ほーじなどかんこんそーさいのばぜんぱんでくばられるものをさしてこーよぶばあいもありこーぎにわけいじいがいもふくまれる。	NO_LABEL
引出物は、もともと馬を庭先に引き出したことが名前の由来と言われている。	ひきでものわ、もともとうまをにわさきにひきだしたことがなまえのゆらいといわれている。	NO_LABEL
日本には古くからある習慣であり、主に鰹節などの食品などが配られる。	にっぽんにわふるくからあるしゅーかんであり、おもにかつおぶしなどのしょくひんなどがくばられる。	NO_LABEL
また地域・式典の規模によっても大きな差が出る。	NO_PRONOUNCE	NO_LABEL
法事のお返しにも引出物という言い方をするので、必ずしも慶事のみとは限らない。	ほーじのおかえしにもひきでものとゆういーかたをするので、かならずしもけいじのみとわかぎらない。	NO_LABEL
なお、弔事の場合のお礼の品には「通夜返礼品」、「会葬返礼品」、「香典返し」などの名称がある。	NO_PRONOUNCE	NO_LABEL
冠婚葬祭に関連するサービス業の発達とともに、こういった引出物をパッケージ化したサービスも見られ、結婚式場や冠婚葬祭業者によってはカタログから選んで利用する場合もある。	かんこんそーさいにかんれんするさーびすぎょーのはったつとともに、こーいったひきでものをぱっけーじかしたさーびすもみられ、けっこんしきじょーやかんこんそーさいぎょーしゃによってわかたろぐからえらんでりよーするばあいもある。	NO_LABEL
出席者が多岐にわたる場合では、そのいずれもが「貰って嬉しい」引出物にすることは困難である。	NO_PRONOUNCE	NO_LABEL
このため近年では、以下のような考え方も存在する。	このためきんねんでわ、いかのよーなかんがえかたもそんざいする。	NO_LABEL
新日本法規の『あたらしい家庭の冠婚葬祭』によれば、一般的な家庭の結婚式において以前は、結婚披露宴に供された料理の一部を披露宴出席者の家族へのお土産として持ち帰ってもらうものであったが、バブル景気以降に結婚披露宴が次第に華やかになっていく過程で、披露宴の記念品という意味合いが強まっている。	NO_PRONOUNCE	NO_LABEL
お祝いの多い少ないに対応して配るお返しではなく記念品であるため、出席者に一律に配られるのが通例である。	おいわいのおーいすくないにたいおーしてくばるおかえしでわなくきねんひんであるため、しゅっせきしゃにいちりつにくばられるのがつーれいである。	NO_LABEL
引出物では、前述のとおり以前は料理を折詰にして持ち帰って貰うものであったが、2000年現在では日持ちのする菓子などを引き菓子として、これに地域や家の格式によって増強される場合もあるが3～4品の物品がつく。	NO_PRONOUNCE	NO_LABEL
金額の目安は披露宴の一人当たりの飲食費の三分の一程度。	きんがくのめやすわひろーえんのひとりあたりのいんしょくひのさんぶんのいちていど。	NO_LABEL
包装の飾りには、表書きに「寿」の文字を入れ、「結び切り」の様式で紅白ないし金銀の水引を掛ける。	NO_PRONOUNCE	NO_LABEL
これに二人の名もしくは姓を書き入れる。	これにふたりのなもしくわせいをかきいれる。	NO_LABEL
持ち帰ってもらうことが目的であるため、持ち帰り用の紙袋もしくは風呂敷を用意するのが一般的。	もちかえってもらうことがもくてきであるため、もちかえりよーのかみぶくろもしくわふろしきをよーいするのがいっぱんてき。	NO_LABEL
以前は重くて量のある物品が好まれていたが、遠隔地からの出席者に配慮し、重い物品が避けられる傾向も出ている。	いぜんわおもくてりょーのあるぶっぴんがこのまれていたが、えんかくちからのしゅっせきしゃにはいりょし、おもいぶっぴんがさけられるけいこーもでている。	NO_LABEL
なお前述のとおり記念品としての意味合いが強まりパッケージサービスが登場して以降では、盛大な披露宴の場合ともなると、結婚した側の顔写真入り記念品など奇をてらったような特注のものもバブル景気のころにはみられたが、実用性の観点から貰った側としても扱いに困るなどの事情もあって、2000年代においては下火の模様である。	なおぜんじゅつのとーりきねんひんとしてのいみあいがつよまりぱっけーじさーびすがとーじょーしていこーでわ、せいだいなひろーえんのばあいともなると、けっこんしたがわのかおじゃしんいりきねんひんなどきをてらったよーなとくちゅーのものもばぶるけいきのころにわみられたが、じつよーせいのかんてんからもらったがわとしてもあつかいにこまるなどのじじょーもあって、にせんねんだいにおいてわしたびのもよーである。	NO_LABEL
これに代わって「貰った側が自由に選べる」というカタログギフトも選択肢の上で上位に挙がっている。	NO_PRONOUNCE	NO_LABEL
なお本来の意味では、すぐに使い切ってしまうもの以外には、あまり結婚する二人の名入れの記念品は適切ではないともされる。	なおほんらいのいみでわ、すぐにつかいきってしまうものいがいにわ、あまりけっこんするふたりのないれのきねんひんわてきせつでわないともされる。	NO_LABEL
旧家の多い地域では忌み言葉からの連想で、特定の物品が避けられる傾向が存在する。	きゅーかのおーいちいきでわいみことばからのれんそーで、とくていのぶっぴんがさけられるけいこーがそんざいする。	NO_LABEL
ただしこういった風習も次第に廃れる傾向があり、食器類で「切れる」などの連想で避けられていたはさみや包丁といった刃物も、日常的に使ってもらうキッチン用品の範疇で選ばれている。	NO_PRONOUNCE	NO_LABEL
このほか、古くは「割れる」から陶器やガラスの食器が避けられたり、またはお茶が弔事で使われる関係で避けられていたこともある。	NO_PRONOUNCE	NO_LABEL
しかしこういったものを厳密に適用すると贈る側が一苦労するほか、忌み言葉に拘る側も減った関係で、余り重要視されなくなっている。	しかしこーいったものをげんみつにてきよーするとおくるがわがひとくろーするほか、いみことばにかかわるがわもへったかんけいで、あまりじゅーよーしされなくなっている。	NO_LABEL
地域的な事情もあるため、結婚する者の両方の家のごく近い親族を呼んで相談することもしばしば行われる。	ちいきてきなじじょーもあるため、けっこんするもののりょーほーのいえのごくちかいしんぞくをよんでそーだんすることもしばしばおこなわれる。	NO_LABEL
韓国の結婚式にも御祝儀の風習があり、結婚式の招待客には料理がふるまわれることが多いが、引出物を渡す習慣はない。	かんこくのけっこんしきにもごしゅーぎのふーしゅーがあり、けっこんしきのしょーたいきゃくにわりょーりがふるまわれることがおーいが、ひきでものをわたすしゅーかんわない。	NO_LABEL
