『ダルク家の三姉妹』は、1988年のアメリカ映画。	NO_PRONOUNCE	NO_LABEL
ヘンテコ一家に振り回される主人公にパトリック・デンプシー、ヒロインにジェニファー・コネリーで描くコメディ青春映画。	へんてこいっかにふりまわされるしゅじんこーにぱとりっくでんぷしー、ひろいんにじぇにふぁーこねりーでえがくこめでぃせいしゅんえいが。	NO_LABEL
憧れのギャビーからの招待状で大喜びするマイケルは、勇んでケベックの彼女の家に向かう。	あこがれのぎゃびーからのしょーたいじょーでだいよろこびするまいけるわ、いさんでけべっくのかのじょのいえにむかう。	NO_LABEL
ところが彼女の態度が妙によそよそしく、しかも彼女の家族は変人一家だった。	ところがかのじょのたいどがみょーによそよそしく、しかもかのじょのかぞくわへんじんいっかだった。	NO_LABEL
