クロスグリは、小さな食用の果実をつける温帯性の落葉低木。	くろすぐりわ、ちーさなしょくよーのかじつをつけるおんたいせいのらくよーていぼく。	NO_LABEL
カシス（）とも呼ばれる。	かしすかっこともよばれる。	NO_LABEL
果実は黒に近い濃紫色で、ビタミンCやアントシアニンが豊富。	かじつわくろにちかいこむらさきしょくで、びたみんしーやあんとしあにんがほーふ。	NO_LABEL
他のスグリの仲間と同じく、スグリ科スグリ属に分類される。	たのすぐりのなかまとどうじく、すぐりかすぐりぞくにぶんるいされる。	NO_LABEL
カシスの世界最大の産地はポーランドで、毎年10万トンから14万5千トンの収穫高があり、これは世界全体の収穫高の約半分を占める。	NO_PRONOUNCE	NO_LABEL
ポーランドは同時に輸出高でも世界最大である。	ぽーらんどわどーじにゆしゅつだかでもせかいさいだいである。	NO_LABEL
またポーランドは品種改良も盛んで、頻繁に新品種を生み出している。	またぽーらんどわひんしゅかいりょーもさかんで、ひんぱんにしんひんしゅをうみだしている。	NO_LABEL
日本では青森県青森市が国内最大の産地となっている。	にっぽんでわあおもりけんあおもりしがこくないさいだいのさんちとなっている。	NO_LABEL
クロスグリの実はかすかな苦味をもち、ゼリー、ジャム、アイスクリーム、コーディアル、リキュールなどに利用される。	くろすぐりのじつわかすかなにがみをもち、ぜりー、じゃむ、あいすくりーむ、こーでぃある、りきゅーるなどにりよーされる。	NO_LABEL
イギリス、ヨーロッパ、イギリス連邦諸国では、クロスグリの風味を加えたり、干した果実を加えたクッキーなどの菓子が多数存在する。	いぎりす、よーろっぱ、いぎりすれんぽーしょこくでわ、くろすぐりのふーみをくわえたり、ほしたかじつをくわえたくっきーなどのかしがたすーそんざいする。	NO_LABEL
しかし、同じブランドの製品でも北アメリカでは、この風味が取り除かれていることが多く、代わりに利用しやすいブドウ味が使用されている。	しかし、おなじぶらんどのせいひんでもきたあめりかでわ、このふーみがとりのぞかれていることがおーく、かわりにりよーしやすいぶどーみがしよーされている。	NO_LABEL
また、クロスグリを使った飲み物は様々なものが販売されているが、国によって呼び方が異なる。	また、くろすぐりをつかったのみものわさまざまなものがはんばいされているが、くにによってよびかたがことなる。	NO_LABEL
アガサ・クリスティの創作したベルギー人の名探偵エルキュール・ポアロは、しばしばクロスグリのシロップを飲んでいる。	あがさくりすてぃのそーさくしたべるぎーじんのめいたんていえるきゅーるぽあろわ、しばしばくろすぐりのしろっぷをのんでいる。	NO_LABEL
