七つの子とは、野口雨情が作詞、本居長世が作曲した歌である。	ななつのことわ、のぐちうじょーがさくし、もとおりながよがさっきょくしたうたである。	NO_LABEL
日本の童謡の中でも、特に知られた楽曲のひとつである。	にっぽんのどーよーのなかでも、とくにしられたがっきょくのひとつである。	NO_LABEL
大正10年、児童文学雑誌『金の船』の7月号に発表された。	NO_PRONOUNCE	NO_LABEL
雨情の故郷である茨城県北茨城市の磯原駅では発車メロディに使われている。	うじょーのこきょーであるいばらきけんきたいばらきしのいそはらえきでわはっしゃめろでぃにつかわれている。	NO_LABEL
また兵庫県たつの市の童謡の小径には、全国公募した「あなたの好きな童謡」の上位8曲の一つとして歌碑が在る。	NO_PRONOUNCE	NO_LABEL
1980年代にはお笑い番組発の替え歌が流行したことでも知られる。	せんきゅうひゃくはちじゅうねんだいにわおわらいばんぐみはつのかえうたがりゅーこーしたことでもしられる。	NO_LABEL
『七つ』という言葉が「7羽」を指すのか「7歳」を指すのかは明らかになっておらず、度々論争の種となっている。	NO_PRONOUNCE	NO_LABEL
カラスは一度に7羽もの雛を育てることはなく、7年も生きたカラスはもはや「子」とは呼べないためである。	NO_PRONOUNCE	NO_LABEL
この謎を扱った作品として『天才柳沢教授の生活』があるが、作中でも明確な結論は出されなかった。	NO_PRONOUNCE	NO_LABEL
また、この歌の元歌である「山烏」という詩が、1907年頃に作られており、その中でも「可愛七つの、子があれば…」と書かれていることからも野口雨情自身の母への思慕の情や実体験からくる子供への思いが歌のなかで「七つ」という言葉が一つのキーワードとしてあてられているのではないかと思われる。	NO_PRONOUNCE	NO_LABEL
なお、日本語の「七つ」という言葉はしばしば「多い」の意味で遣われる。	NO_PRONOUNCE	NO_LABEL
雨情の母校である北茨城市立精華小学校には、昭和36年に寄贈された歌碑がある。	うじょーのぼこーであるきたいばらきしりつせいかしょうがっこーにわ、しょーわさんじゅうろくねんにきぞーされたかひがある。	NO_LABEL
歌碑自体にはひらがなを多く用いた歌詞が刻まれているが、陰に別にある副碑には原詩同様に漢字を用いて刻まれている。	かひじたいにわひらがなをおーくもちいたかしがきざまれているが、いんにべつにあるふくいしぶみにわげんしどーよーにかんじをもちいてきざまれている。	NO_LABEL
また、和歌山県すさみ町の日本童謡の園にも歌碑がある。	また、わかやまけんすさみちょーのにっぽんどーよーのえんにもかひがある。	NO_LABEL
1980年初頭にザ・ドリフターズの志村けんがTBSで放送された人気テレビ番組『8時だョ!全員集合』の中で、「カラス なぜ鳴くの カラスの勝手でしょ〜」という替え歌を歌ったことから子供達を中心に流行となった。	NO_PRONOUNCE	NO_LABEL
しかしPTAからは苦情が多数舞い込んだという。	しかしぴぃーてぃーえーからわくじょーがたすーまいこんだという。	NO_LABEL
この替え歌は前半コント･少年少女合唱隊･後半コントのいずれかの場面で登場していた。	NO_PRONOUNCE	NO_LABEL
なお、この替え歌の歌詞については志村けんの作ではなく、笑福亭鶴光がDJを務めたニッポン放送のラジオ番組『鶴光のオールナイトニッポン・サンデースペシャル』の中の替え歌コーナーがもととなっているとの説がある。	NO_PRONOUNCE	NO_LABEL
志村けんの著書では、自身の作ではなく近所の小学生が歌っていたのを番組で歌ってみたと語られている。	しむらけんのちょしょでわ、じしんのさくでわなくきんじょのしょーがくせいがうたっていたのをばんぐみでうたってみたとかたられている。	NO_LABEL
1990年代後半には、英会話教室NOVAのテレビCMで、山崎一演じる「鈴木さん」が、この歌を歌いながら会社を退勤し、ドアを出ると同時に歌詞が英訳に変わる場面が人気を呼んだ。	NO_PRONOUNCE	NO_LABEL
また、森繁久弥がかつて盲学校を訪問した際、この歌を歌うこととなり、1番はつつがなく歌ったものの、2番を歌っている最中に盲目の生徒に対して「まるい目をした」という歌詞をそのまま歌うのを憚り、その場で機転をきかせて若干の遅れはあったものの「まるい顔した、いい子だよ」と歌ったという。	NO_PRONOUNCE	NO_LABEL
ドラマ「受験の神様」の中にもこの替え歌が登場している。	NO_PRONOUNCE	NO_LABEL
北島三郎の曲「帰ろかな」では間奏に本曲を組み込んだバージョンがあり、NHK紅白歌合戦などの歌番組で披露されている。	NO_PRONOUNCE	NO_LABEL
商品化はされていない。	しょーひんかわされていない。	NO_LABEL
名探偵コナンの黒の組織に登場する「あの方」のメールアドレスは「♯969♯6261」とされており携帯音のプッシュ音が七つの子に似たメロディラインになっている。	NO_PRONOUNCE	NO_LABEL
