太田村は、香川県香川郡にあった村。	おーたむらわ、かがわけんかがわぐんにあったむら。	NO_LABEL
もともと水田の広がる純粋な農業地帯であり、特に伏石は小作争議伏石事件の舞台となったことで知られる。	もともとすいでんのひろがるじゅんすいなのーぎょーちたいであり、とくにふせいしわこさくそーぎふせいしじけんのぶたいとなったことでしられる。	NO_LABEL
その後1926年12月21日、琴平電鉄の太田駅が開業し戦後にかけて駅周辺の人口が増加し始める。	そのごせんきゅうひゃくにじゅうろくねんじゅーにがつにじゅういちにち、ことひらでんてつのおーたえきがかいぎょーしせんごにかけてえきしゅーへんのじんこーがぞーかしはじめる。	NO_LABEL
高松市編入以後は「太田」を参照。	NO_PRONOUNCE	NO_LABEL
なお、最北端の上福岡町・観光町は本庁地区に含まれるため、現在の太田地区と旧村域は一致しない。	NO_PRONOUNCE	NO_LABEL
