『リトルトウキョー殺人課』は、1991年にアメリカで製作されたアクション映画。	NO_PRONOUNCE	NO_LABEL
日本では劇場公開されずビデオスルーになった。	にっぽんでわげきじょーこーかいされずびでおするーになった。	NO_LABEL
日本育ちで武士道に精通しているアメリカ人刑事と、日系ではあるが日本文化には疎い相棒刑事の活躍を描く。	にっぽんそだちでぶしどーにせいつーしているあめりかじんけいじと、にっけいでわあるがにっぽんぶんかにわうといあいぼーけいじのかつやくをえがく。	NO_LABEL
劇中では日本文化の描写が数多くなされているが、後述するようにどれも非常に突飛で不可解なものとなっている。	げきちゅーでわにっぽんぶんかのびょーしゃがかずおーくなされているが、こーじゅつするよーにどれもひじょーにとっぴでふかかいなものとなっている。	NO_LABEL
またドルフ・ラングレン演じるケナー刑事が日本で育ったという設定であるため、ラングレンが日本語を使って台詞を言うシーンが数多く存在するが、極めて稚拙なため日本人にもほとんど聞き取れない。	またどるふらんぐれんえんじるけなーけいじがにっぽんでそだったとゆうせっていであるため、らんぐれんがにほんごをつかってだいしをいうしーんがかずおーくそんざいするが、きわめてちせつなためにっぽんじんにもほとんどききとれない。	NO_LABEL
ラングレンとケイリー＝ヒロユキ・タガワは、1999年に『ブラック・ソルジャー』で再び共演している。	NO_PRONOUNCE	NO_LABEL
ロサンゼルスの日本人街「リトルトウキョー」。	NO_PRONOUNCE	NO_LABEL
そこは麻薬ルートの拡大を図るジャパニーズ・ヤクザ「鉄の爪」による麻薬密売の拠点となっていた。	NO_PRONOUNCE	NO_LABEL
ロス市警のアジア特捜隊に所属しているケナー刑事とその相棒であるジョニー刑事は、組織を壊滅させるために奔走する。	ろすしけいのあじあとくそーたいにしょぞくしているけなーけいじとそのあいぼーであるじょにーけいじわ、そしきをかいめつさせるためにほんそーする。	NO_LABEL
だが、実は組織のボスであるヨシダとケナー刑事の間には深い因縁が隠されていた。	だが、じつわそしきのぼすであるよしだとけなーけいじのまにわふかいいんねんがかくされていた。	NO_LABEL
劇中では数多くの日本文化を紹介しているが、どれも間違ったものばかりである。	げきちゅーでわかずおーくのにっぽんぶんかをしょーかいしているが、どれもまちがったものばかりである。	NO_LABEL
以下にその一部を挙げる。	いかにそのいちぶをあげる。	NO_LABEL
また、この映画では所々俳優が日本語で台詞を言う場面があるが、そのほとんどがカタコトで非常に聞き取りづらい。	また、このえいがでわところどころはいゆーがにほんごでだいしをいうばめんがあるが、そのほとんどがかたことでひじょーにききとりずらい。	NO_LABEL
しかも、日本語を使って会話をしていた人物同士が、唐突に流暢な英語に切り替えて会話を続けるなど不自然な場面が目立つ。	しかも、にほんごをつかってかいわをしていたじんぶつどーしが、とーとつにりゅーちょーなえいごにきりかえてかいわをつずけるなどふしぜんなばめんがめだつ。	NO_LABEL
