郎来は、中国遼寧省出身の女子陸上競技選手で専門は中距離走。	ろーらいわ、ちゅーごくりょーねいしょーしゅっしんのじょしりくじょーきょーぎせんしゅでせんもんわちゅーきょりそー。	NO_LABEL
身長166cm、体重58kg。	しんちょーひゃくろくじゅうろくせんちめーとる、たいじゅーごじゅうはちきろぐらむ。	NO_LABEL
1995年4月に遼寧省のスポーツエリートチームに入り、劉琦コーチに師事する。	NO_PRONOUNCE	NO_LABEL
1997年10月に上海で開催された第8回中華人民共和国全国運動会に18歳の若さで遼寧省代表として馬俊仁コーチの下出場し、女子800mで1分57秒62の驚異的な成績で優勝を果たし、女子1500mでも3分51秒34で姜波に次ぐ第2位となった。	NO_PRONOUNCE	NO_LABEL
1500mの記録はジュニア世界記録である。	せんごひゃくめーとるのきろくわじゅにあせかいきろくである。	NO_LABEL
この大会での活躍の後は表舞台に立つことは無く、消息は杳として知れない。	NO_PRONOUNCE	NO_LABEL
