海上保安庁法は、海上保安庁の設置、組織、海上保安官の権限などを定めた日本の法律。	かいじょーほあんちょーほーわ、かいじょーほあんちょーのせっち、そしき、かいじょーほあんかんのけんげんなどをさだめたにっぽんのほーりつ。	NO_LABEL
能登半島沖不審船事件を受けて、海上保安官が武器を使用して人に危害を加えた場合の違法性阻却事由が「警察官職務執行法第7条」に定められた要件のみという状況では、不審船事案に有効に対応できないことが露呈したので、2001年に海上保安庁法の改正が行われた。	NO_PRONOUNCE	NO_LABEL
この改正では第20条2項において、一定の条件に限って、巡視船等が、停船命令を無視して逃走・抵抗する船舶に対して射撃し乗員に危害を加えても、海上保安官の違法性が阻却されることが明定された。	NO_PRONOUNCE	NO_LABEL
2001年の九州南西海域工作船事件においては、不審船の現認位置が日本の領海外の日本EEZ内であったので改正された第20条2項の要件を満たすことができず、従来と同じく船体射撃で被疑者が死傷した場合は、海上保安官の違法性を問われる恐れがあった。	NO_PRONOUNCE	NO_LABEL
しかしRFS機能のついた機関砲で被疑者に危害を与えずに船体射撃を行えると判断して、敢えて船体射撃を行った。	NO_PRONOUNCE	NO_LABEL
