ダイゼンは、チドリ目チドリ科ムナグロ属に分類される鳥類。	だいぜんわ、ちどりめちどりかむなぐろぞくにぶんるいされるちょーるい。	NO_LABEL
アフリカ大陸、オーストラリア大陸、北アメリカ大陸、南アメリカ大陸、ユーラシア大陸、イギリス、インドネシア、日本、パプアニューギニア、マダガスカル	あふりかたいりく、おーすとらりあたいりく、きたあめりかたいりく、みなみあめりかたいりく、ゆーらしあたいりく、いぎりす、いんどねしあ、にっぽん、ぱぷあにゅーぎにあ、まだがすかる	NO_LABEL
夏季にカナダ北部やロシア北部、アラスカ北部の北極海沿岸部で繁殖し、冬季になると各地の大西洋、太平洋、インド洋の沿岸部で越冬する。	かきにかなだほくぶやろしあほくぶ、あらすかほくぶのほっきょくかいえんがんぶではんしょくし、とーきになるとかくちのたいせいよー、たいへいよー、いんどよーのえんがんぶでえっとーする。	NO_LABEL
日本には渡りの途中で飛来するか、越冬のため関東地方以南に飛来する。	にっぽんにわわたりのとちゅーでひらいするか、えっとーのためかんとーちほーいなんにひらいする。	NO_LABEL
全長29-29.5cm。	NO_PRONOUNCE	NO_LABEL
腰は白い羽毛で覆われ、腋羽は黒い。	こしわしろいうもーでおおわれ、わきわわくろい。	NO_LABEL
嘴は太い。	くちばしわふとい。	NO_LABEL
嘴や後肢の色彩は黒い。	くちばしやあとあしのしきさいわくろい。	NO_LABEL
幼鳥は上面が灰褐色の羽毛で覆われ、白い斑紋が入る。	よーちょーわうわつらがはいかっしょくのうもーでおおわれ、しろいはんもんがはいる。	NO_LABEL
下面は白い羽毛で覆われ、胸部から体側面にかけて褐色の縦縞が入る。	かめんわしろいうもーでおおわれ、きょーぶからたいそくめんにかけてかっしょくのたてじまがはいる。	NO_LABEL
夏羽は額から上面にかけて白い羽毛で覆われ、黒い斑紋が入る。	なつはわがくからうわつらにかけてしろいうもーでおおわれ、くろいはんもんがはいる。	NO_LABEL
顔から下面にかけては黒い羽毛で覆われ、英名の由来になっている。	かおからかめんにかけてわくろいうもーでおおわれ、えいめいのゆらいになっている。	NO_LABEL
冬羽は上面が灰褐色の羽毛で覆われ、白い斑紋が入り英名の由来になっている。	ふゆわわうわつらがはいかっしょくのうもーでおおわれ、しろいはんもんがはいりえいめいのゆらいになっている。	NO_LABEL
下面は白い羽毛で覆われ、胸部に褐色の斑紋が入る。	かめんわしろいうもーでおおわれ、きょーぶにかっしょくのはんもんがはいる。	NO_LABEL
干潟、河口、水田などに生息する。	ひがた、かこー、すいでんなどにせいそくする。	NO_LABEL
食性は動物食の強い雑食で、主にゴカイを食べるが昆虫類、甲殻類、貝類、種子なども食べる。	しょくせいわどーぶつしょくのつよいざっしょくで、おもにごかいをたべるがこんちゅーるい、こーかくるい、かいるい、しゅしなどもたべる。	NO_LABEL
繁殖形態は卵生。	はんしょくけいたいわらんせい。	NO_LABEL
地面に木の枝や小石を集めた巣を作り、1回に3-5個の卵を産む。	NO_PRONOUNCE	NO_LABEL
種小名"squaterola"は、ヴェネツィア周辺での本種を指す呼称に由来する。	NO_PRONOUNCE	NO_LABEL
和名は平安時代には宮中での食事を司る大膳職において、特に美味であったことから食材としてしばしば用いられたことが由来とされる。	わめいわへいあんじだいにわきゅーちゅーでのしょくじをつかさどるだいぜんしきおおかしわでのつかさにおいて、とくにびみであったことからしょくざいとしてしばしばもちいられたことがゆらいとされる。	NO_LABEL
また、かつては「ダイゼンシギ」と呼称されていたこともあったが、ダイゼンはシギではなくチドリの一種であることが判明したため「シギ」の字が取れて今の名前になったのではないか、と考えられている。	NO_PRONOUNCE	NO_LABEL
