ジョーダン・195は、ジョーダン・グランプリが1995年のF1世界選手権参戦用に開発したフォーミュラ1カー。	NO_PRONOUNCE	NO_LABEL
開発責任者はゲイリー・アンダーソン。	かいはつせきにんしゃわげいりーあんだーそん。	NO_LABEL
1995年の開幕戦から最終戦まで使用された。	せんきゅうひゃくきゅうじゅうごねんのかいまくせんからさいしゅーせんまでしよーされた。	NO_LABEL
2年間使用したハートエンジンに替えて、マクラーレンとの契約を1年で終了したプジョーからV型10気筒エンジンの供給を受けることになった。	にねんかんしよーしたはーとえんじんにかえて、まくらーれんとのけいやくをいちねんでしゅーりょーしたぷじょーからぶいがたじっきとーえんじんのきょーきゅーをうけることになった。	NO_LABEL
自動車メーカー系ワークスエンジンの獲得は、チームの財政的にも好循環を生んだ。	じどーしゃめーかーけいわーくすえんじんのかくとくわ、ちーむのざいせいてきにもこーじゅんかんをうんだ。	NO_LABEL
シャシーは先端の低いローノーズを採用。	しゃしーわせんたんのひくいろーのーずをさいよー。	NO_LABEL
サイドポンツーンはフェラーリ・640〜642に似た前後長の長いデザインで、細長いラジエターインテークが特徴だった。	NO_PRONOUNCE	NO_LABEL
コンパクトな7速ギアボックスの開発により、リアエンドは細く絞り込まれた。	NO_PRONOUNCE	NO_LABEL
サソルがメインスポンサーから外れたため、カラーリングは雑多なものに変わったが、車体は滑らかな外観を有した。	さそるがめいんすぽんさーからはずれたため、からーりんぐわざったなものにかわったが、しゃたいわなめらかながいかんをゆーした。	NO_LABEL
ドライバーは前年に続きルーベンス・バリチェロとエディ・アーバインのコンビ。	どらいばーわぜんねんにつずきるーべんすばりちぇろとえでぃあーばいんのこんび。	NO_LABEL
カナダGPではバリチェロが2位、アーバインが3位となり、チーム初のダブル表彰台を獲得した。	かなだげーぺーでわばりちぇろがにー、あーばいんがさんいとなり、ちーむはつのだぶるひょーしょーだいをかくとくした。	NO_LABEL
シャシーのポテンシャルは高く、予選では3〜4列目に位置したものの、レースでは信頼性を欠きリタイアが多かった。	NO_PRONOUNCE	NO_LABEL
チームは21ポイントを獲得し、コンストラクターズランキング6位でシーズンを終えた。	NO_PRONOUNCE	NO_LABEL
()	かっこ	NO_LABEL
