北海道日高乳業株式会社は、北海道沙流郡日高町にある乳業メーカー。	ほっかいどーひだかにゅーぎょーかぶしきがいしゃわ、ほっかいどーさるぐんひだかちょーにあるにゅーぎょーめーかー。	NO_LABEL
宮崎県の南日本酪農協同株式会社のグループ会社である。	みやざきけんのみなみにほんらくのーきょーどーかぶしきがいしゃのぐるーぷかいしゃである。	NO_LABEL
本社・工場	NO_PRONOUNCE	NO_LABEL
