プラダルンガは、イタリア共和国ロンバルディア州ベルガモ県にある、人口約4700人の基礎自治体。	ぷらだるんがわ、いたりあきょーわこくろんばるでぃあしゅーべるがもけんにある、じんこーやくよんせんななひゃくにんのきそじちたい。	NO_LABEL
ベルガモ県中部、のコムーネ。	べるがもけんちゅーぶ、のこむーね。	NO_LABEL
県都ベルガモから東北東へ10km、州都ミラノから北東へ56kmの距離にある。	けんとべるがもからとーほくとーえじゅうきろめーとる、しゅーとみらのからほくとーえごじゅうろくきろめーとるのきょりにある。	NO_LABEL
隣接するコムーネは以下の通り。	りんせつするこむーねわいかのとーり。	NO_LABEL
広域行政組織である「ヴァッレ・セリアーナ山岳部共同体」を構成するコムーネである。	NO_PRONOUNCE	NO_LABEL
