塩竈市立第二小学校は、宮城県塩竈市小松崎にある公立小学校。	しおがましりつだいにしょうがっこーわ、みやぎけんしおがましこまつざきにあるこーりつしょーがっこー。	NO_LABEL
心身ともに健康で、思いやりと自主的精神に充ち、たくましく生きぬく子どもを育てる。	しんしんともにけんこーで、おもいやりとじしゅてきせいしんにみち、たくましくいきぬくこどもをそだてる。	NO_LABEL
公立中学校の場合	こーりつちゅーがっこーのばあい	NO_LABEL
