銀河娯楽は、マカオの企業。	ぎんかごらくわ、まかおのきぎょー。	NO_LABEL
カジノとホテルを運営している。	かじのとほてるをうんえいしている。	NO_LABEL
元々は建築材料会社である嘉華建材だった。	もともとわけんちくざいりょーかいしゃであるよしみはなけんざいだった。	NO_LABEL
2002年にマカオ政府からカジノライセンスを受け、カジノ、ホテル、その他娯楽施設を運営している。	にせんにねんにまかおせいふからかじのらいせんすをうけ、かじの、ほてる、そのたごらくしせつをうんえいしている。	NO_LABEL
現在第3位でマカオのカジノ市場を占めている。	げんざいだいさんいでまかおのかじのしじょーをしめている。	NO_LABEL
