トロフェオTIMは、イタリアで毎年夏のプレシーズンに開催されるサッカーの親善大会。	とろふぇおてぃあいえむわ、いたりあでまいとしなつのぷれしーずんにかいさいされるさっかーのしんぜんたいかい。	NO_LABEL
TIMトロフィーやTIMカップとも呼ばれる。	てぃあいえむとろふぃーやてぃむかっぷともよばれる。	NO_LABEL
2001年に創設されて以来、イタリアを代表する3大クラブであるインテルナツィオナーレ・ミラノ、ACミラン、ユヴェントスFCの3クラブで争われてきたが、2013年に初めてインテルナツィオナーレ・ミラノの代わりにUSサッスオーロ・カルチョが参加した。	NO_PRONOUNCE	NO_LABEL
大会スポンサーはテレコム・イタリア・モービレ。	たいかいすぽんさーわてれこむいたりあもーびれ。	NO_LABEL
参加3クラブが1試合45分間の総当たり戦を実施して順位を決定する。	NO_PRONOUNCE	NO_LABEL
引き分けの場合はPK戦を実施する。	ひきわけのばあいわぴーけーせんをじっしする。	NO_LABEL
45分間で勝利したクラブは勝ち点3、PK戦の勝者は勝ち点2、PK戦の敗者は勝ち点1を獲得する。	よんじゅうごふんかんでしょーりしたくらぶわかちてんさん、ぴーけーせんのしょーしゃわかちてんに、ぴーけーせんのはいしゃわかちてんいちをかくとくする。	NO_LABEL
順位は、1.勝ち点、2.当該クラブ間の対戦成績、3.得失点差、4.得点数で決定するが、それでも順位が決まらない場合は出場選手の平均年齢が低い方のクラブが勝者となる。	NO_PRONOUNCE	NO_LABEL
 当該チーム間の対戦成績による。	とーがいちーむかんのたいせんせいせきによる。	NO_LABEL
 当該チーム間の対戦成績による。	とーがいちーむかんのたいせんせいせきによる。	NO_LABEL
