ミニッツレーサーMR-015シャーシとは、2005年に発売された京商ミニッツレーサーのシャーシの一種である。	NO_PRONOUNCE	NO_LABEL
"MR-01シャシー"と同様のオフセット幅とシャシー幅で再設計されたミニッツレーサーシリーズシャシー。	NO_PRONOUNCE	NO_LABEL
ナローと称されることもある。	なろーとしょーされることもある。	NO_LABEL
、交換できるよう改良したもの。	NO_PRONOUNCE	NO_LABEL
搭載可能なボディのラインナップはかなり豊富である。	とーさいかのーなぼでぃのらいんなっぷわかなりほーふである。	NO_LABEL
先代MR-01シャシーとの違いを上げると、フロントセクションの構造、リアまわりのベースとなるモーターマウントは左右1mmずつワイド寄りにオフセットされ、MR-02シャシーと同様に変更された。	NO_PRONOUNCE	NO_LABEL
同じくMR-02同様MR-01では破損頻度が高かったサーボについてもサーボセイバーを搭載することによって破損頻度を大幅に下げることに成功した。	NO_PRONOUNCE	NO_LABEL
MR-01の進化シャシーと言うよりは、MR-02のナロー版と言ったニュアンスのほうが近い。	NO_PRONOUNCE	NO_LABEL
各形式の違いはモーターの位置で、型番末尾英数文字が形式の違いを表している。	かくけいしきのちがいわもーたーのいちで、かたばんまつびえいすーもじがけいしきのちがいをあらわしている。	NO_LABEL
「M」とはマウント、Mの前のアルファベットは位置を示すR=Rear・M=ミッドシップ・H=ハイ	NO_PRONOUNCE	NO_LABEL
よくMR-01と同じモーターマウントと思われ混乱を招くことがあるが、実際は左右1mmずつワイド化されている。	NO_PRONOUNCE	NO_LABEL
シャーシセット他の取扱説明書では、「トヨタ・エスティマ」がボディの例として書かれている。	NO_PRONOUNCE	NO_LABEL
