スコータイ県はタイ・北部にある県の一つ。	NO_PRONOUNCE	NO_LABEL
バンコクから北へ427キロメートル。	NO_PRONOUNCE	NO_LABEL
プレー県、ウッタラディット県、ピッサヌローク県、カムペーンペット県、ターク県、ラムパーン県と接する。	ぷれーけん、うったらでぃっとけん、ぴっさぬろーくけん、かむぺーんぺっとけん、たーくけん、らむぱーんけんとせっする。	NO_LABEL
スコータイ県内にはヨム川が流れている。	すこーたいけんないにわよむがわがながれている。	NO_LABEL
県内の主要産物は米と綿花。	けんないのしゅよーさんぶつわこめとめんか。	NO_LABEL
この都市はスコータイ王朝で有名である。	このとしわすこーたいおうちょーでゆーめいである。	NO_LABEL
現在スコータイ王朝があったところはスコータイ旧市街となっており、スコータイ歴史公園が作られ遺跡が一般に公開されている。	げんざいすこーたいおうちょーがあったところわすこーたいきゅーしがいとなっており、すこーたいれきしこーえんがつくられいせきがいっぱんにこーかいされている。	NO_LABEL
また県北部には昔はスコータイ王朝の副王の都として機能していたシーサッチャナーライ歴史公園があり、両方ともユネスコの世界遺産に登録されている。	またけんほくぶにわむかしわすこーたいおうちょーのふくおーのととしてきのーしていたしーさっちゃなーらいれきしこーえんがあり、りょーほーともゆねすこのせかいいさんにとーろくされている。	NO_LABEL
県章の人物はタイ三大王の内の一人でスコータイ王国の王であるラームカムヘーン大王である。	けんあきらのじんぶつわたいさんだいおーのうちのひとりですこーたいおーこくのおーであるらーむかむへーんだいおーである。	NO_LABEL
県花は。	けんかわ。	NO_LABEL
スコータイ県は9の郡に分かれ、その下に86の町と782の村がある。	NO_PRONOUNCE	NO_LABEL
