四条 隆英2月26日 - 1936年1月2日）は、日本の商工官僚、政治家、実業家、華族。	NO_PRONOUNCE	NO_LABEL
農商務次官、初代商工次官、貴族院男爵議員。	のーしょーむじかん、しょだいしょーこーじかん、きぞくいんだんしゃくぎいん。	NO_LABEL
旧名・二条支英。	NO_PRONOUNCE	NO_LABEL
京都府京都で、華族・二条斉敬の四男として生まれ、男爵・四条隆平の養子となる。	NO_PRONOUNCE	NO_LABEL
養父の死去に伴い家督を相続し、1911年8月1日に男爵を襲爵した。	よーふのしきょにともないかとくをそーぞくし、せんきゅうひゃくじゅういちねんはちがつついたちにだんしゃくをしゅーしゃくした。	NO_LABEL
第二高等学校を経て、1904年7月、東京帝国大学法科大学政治学科を卒業。	だいにこーとーがっこーをへて、せんきゅうひゃくよねんしちがつ、とーきょーていこくだいがくほーかだいがくせいじがっかをそつぎょー。	NO_LABEL
同年7月、農商務省に入省し山林局書記に任官。	どーねんしちがつ、のーしょうむしょーににゅーしょーしさんりんきょくしょきににんかん。	NO_LABEL
同年11月、文官高等試験行政科試験に合格。	どーねんじゅーいちがつ、ぶんかんこーとーしけんぎょーせいかしけんにごーかく。	NO_LABEL
以後、山林局監督官、山林事務官兼農商務書記官、山林局庶務課長、鉱山監督署事務官・東京鉱山監督署、農商務書記官・鉱山局鉱政課長、農商務大臣秘書官・大臣官房秘書課長、商工局工務課長、臨時博覧会事務局出品課長、工務局長兼臨時産業調査局第三部長、農商務次官、商工次官などを歴任。	NO_PRONOUNCE	NO_LABEL
1929年4月に依願免本官となり退官し、高橋是清の推薦で安田保善社理事となり、安田生命保険社長、帝国製麻社長などを務めた。	せんきゅうひゃくにじゅうきゅうねしがつにいがんめんほんかんとなりたいかんし、たかはしこれきよのすいせんでやすだほぜんしゃりじとなり、やすだせいめいほけんしゃちょー、ていこくせいあさしゃちょーなどをつとめた。	NO_LABEL
1932年5月28日、貴族院議員補欠選挙で男爵議員に選出され、公正会に所属し死去するまで在任した。	せんきゅうひゃくさんじゅうにねんごがつにじゅうはちにち、きぞくいんぎーんほけつせんきょでだんしゃくぎいんにせんしゅつされ、こーせいかいにしょぞくししきょするまでざいにんした。	NO_LABEL
その他、鉄道会議議員、航空評議会評議員、保善商工教育財団理事長、日本工業倶楽部理事、らい予防協会理事などを務めた。	そのた、てつどーかいぎぎいん、こーくーひょーぎかいひょーぎいん、やすよししょーこーきょーいくざいだんせんしゃどうれんめいのりじちょー、にほんこーぎょーくらぶりじ、らいよぼーきょーかいりじなどをつとめた。	NO_LABEL
