MITコンピュータ科学・人工知能研究所は、マサチューセッツ工科大学にある学際的研究所。	NO_PRONOUNCE	NO_LABEL
2003年7月1日、MITコンピュータ科学研究所とMIT人工知能研究所の合併により創設された。	にせんさんねんしちがつついたち、えむあいてぃーこんぴゅーたかがくけんきゅうしょとえむあいてぃーじんこーちのーけんきゅーじょのがっぺいによりそーせつされた。	NO_LABEL
CSAIL は研究領域においても研究員の人数においてもMIT最大の研究所である。	NO_PRONOUNCE	NO_LABEL
所長は教授のロドニー・ブルックス。	しょちょーわきょーじゅのろどにーぶるっくす。	NO_LABEL
その建物はフランク・ゲーリーが設計した Stata Center である。	NO_PRONOUNCE	NO_LABEL
CSAIL の研究活動は半自律的研究グループによって構成されており、各グループの責任者として1名以上の教授か研究員がいる。	NO_PRONOUNCE	NO_LABEL
研究領域は以下の7分野に分類される。	けんきゅーりょーいきわいかのななふんのにぶんるいされる。	NO_LABEL
さらに、CSAILはWorld Wide Web Consortiumの本拠地でもある。	NO_PRONOUNCE	NO_LABEL
前身となった2つの研究所の関係者も含む。	ぜんしんとなったふたつのけんきゅーじょのかんけいしゃもふくむ。	NO_LABEL
