美郷町は、宮崎県の北部にある町であり東臼杵郡に属する。	みさとちょーわ、みやざきけんのほくぶにあるまちでありひがしうすきぐんにぞくする。	NO_LABEL
九州山地の中にある自然豊かな町である。	きゅーしゅーさんちのなかにあるしぜんゆたかなまちである。	NO_LABEL
急峻な九州山地に覆われ、そこを源とする大小さまざまな河川がある。	きゅーしゅんなきゅーしゅーさんちにおおわれ、そこをみなもととするだいしょーさまざまなかせんがある。	NO_LABEL
約90％を山林が占めている。	NO_PRONOUNCE	NO_LABEL
※地籍調査の進捗率は76%。	NO_PRONOUNCE	NO_LABEL
ケッペンの気候区分において、温帯夏雨気候となっている。	けっぺんのきこーくぶんにおいて、おんたいかうきこーとなっている。	NO_LABEL
降水量の多い宮崎県内でも特に多雨な地域の一つで、年降水量は毎年2,500 - 3,500mm前後で推移しており、多い年は年降水量が4,000mmを越える事もある。	NO_PRONOUNCE	NO_LABEL
合併から2014年までは、大字の前に旧村名から「○○区」を冠していたが、現在、「区」が廃止され、村名のみを冠している。	NO_PRONOUNCE	NO_LABEL
"東臼杵郡○○村大字××→東臼杵郡美郷町○○区××→東臼杵郡美郷町○○××"	NO_PRONOUNCE	NO_LABEL
2002年5月1日南郷村・西郷村・北郷村・諸塚村・椎葉村で東臼杵南部任意合併協議会を設置したが、協議終了後椎葉村が自立を決めたため2003年12月25日椎葉村を除く4村で東臼杵南部合併協議会を設置。	NO_PRONOUNCE	NO_LABEL
諸塚村が住民説明会の結果により協議会を離脱後も3村で引き続き協議を行い、2005年2月22日合併協定調印、同じ25日に合併関連議案を3村が可決した。	NO_PRONOUNCE	NO_LABEL
現在の町長は尾畑英幸。	げんざいのちょーちょーわおばたひでゆき。	NO_LABEL
第2代町長は菊田彦市。	だいにだいちょーちょーわきくだひこいち。	NO_LABEL
初代町長・林田敦は西郷村時代から通算11期、42年間首長を務めた。	NO_PRONOUNCE	NO_LABEL
消防・救急	NO_PRONOUNCE	NO_LABEL
非常備であり火災時は消防団が活動する　救急に関しては役場救急が行われていたが南郷地区と北郷地区は支所に役場所有の救急車を置き救命業務を日本救命システムに事務委託して救急救命士二人が同乗するシステムになっている	ひじょーびでありかさいじわしょーぼーだんがかつどーするきゅーきゅーにかんしてわやくばきゅーきゅーがおこなわれていたがなんごーちくときたごーちくわししょにやくばしょゆーのきゅうきゅうしゃをおききゅーめいぎょーむをにっぽんきゅーめいしすてむにじむいたくしてきゅーきゅーきゅーめいしふたりがどーじょーするしすてむになっている	NO_LABEL
２０１８/４/１より中郷地区の役場所有の救急車にも日本救命システムの救命士が同乗して業務を行うようになった　なお役場の執務時間外は南郷地区北郷地区の救急車が全域をカバーする	NO_PRONOUNCE	NO_LABEL
衆議院小選挙区選挙では宮崎2区に属する。	しゅーぎーんしょーせんきょくせんきょでわみやざきにくにぞくする。	NO_LABEL
近年選出の議員は以下のとおり。	きんねんせんしゅつのぎいんわいかのとーり。	NO_LABEL
本町と諸塚村、椎葉村、門川町で選挙区をなす。	ほんまちともろつかそん、しーばそん、かどがわちょーでせんきょくをなす。	NO_LABEL
定数は2人。	ていすーわふたり。	NO_LABEL
近年選出の宮崎県議会議員は以下のとおり。	きんねんせんしゅつのみやざきけんぎかいぎーんわいかのとーり。	NO_LABEL
農林業が中心。	のーりんぎょーがちゅーしん。	NO_LABEL
シイタケ、ブロイラー、米、茶、肉牛、キンカン、梨、栗など。	しーたけ、ぶろいらー、べい、ちゃ、にくぎゅー、きんかん、なし、くりなど。	NO_LABEL
狭い平地を利用した施設園芸も積極的に行われている。	せまいひらちをりよーしたしせつえんげいもせっきょくてきにおこなわれている。	NO_LABEL
美郷町の発足時から2014年3月まで旧3村には地域自治区「南郷区」「西郷区」「北郷区」が設置されていた。	NO_PRONOUNCE	NO_LABEL
地域自治区の設置期間は当初合併後4年間としていたが、検討の結果、4年間延長された。	ちーきじちくのせっちきかんわとーしょがっぺいごよんねんかんとしていたが、けんとーのけっか、よんねんかんえんちょーされた。	NO_LABEL
住所については2006年の美郷町発足から2014年3月までは「合併前の住所から大字表記を省略し、地域自治区名を冠する」扱いとし、地域自治区が廃止される2014年4月以降は、旧村名「北郷」「西郷」「南郷」を大字に冠している。	NO_PRONOUNCE	NO_LABEL
旧北郷区、旧南郷区では幼小中一貫教育を実施しており、愛称はそれぞれ美郷北学園、美郷南学園。	きゅーきたごうく、きゅーなんごーくでわよーしょーちゅーいっかんきょーいくをじっししており、あいしょーわそれぞれみさときたがくえん、みさとみなみがくえん。	NO_LABEL
幼稚園	よーちえん	NO_LABEL
小学校	しょーがっこー	NO_LABEL
中学校	ちゅーがっこー	NO_LABEL
町内に高速道路はない。	ちょーないにこーそくどーろわない。	NO_LABEL
最寄りインターは東九州自動車道日向IC。	もよりいんたーわひがしきゅーしゅーじどーしゃどーひなたあいしー。	NO_LABEL
主要地方道	しゅよーちほーどー	NO_LABEL
一般県道	いっぱんけんどー	NO_LABEL
