三島 憲一は、日本のドイツ哲学者。	みしまけんいちわ、にっぽんのどいつてつがくしゃ。	NO_LABEL
博士。	はかせ。	NO_LABEL
大阪大学名誉教授、ベルリン自由大学名誉博士。	おーさかだいがくめいよきょーじゅ、べるりんじゆーだいがくめいよはくし。	NO_LABEL
東京府生まれ。	とーきょーふうまれ。	NO_LABEL
栄光学園高等学校卒、1965年東京大学教養学部教養学科ドイツ分科卒業。	えいこーがくえんこーとーがっこーそつ、せんきゅうひゃくろくじゅうごねんとーきょーだいがくきょーよーがくぶきょーよーがっかどいつぶんかそつぎょー。	NO_LABEL
同大学院比較文学比較文化専攻博士課程中退。	どーだいがくいんひかくぶんがくひかくぶんかせんこーはかせかていちゅーたい。	NO_LABEL
1968年、千葉大学専任講師、1973年、助教授。	せんきゅうひゃくろくじゅうはちねん、ちばだいがくせんにんこーし、せんきゅうひゃくななじゅうさんねん、じょきょーじゅ。	NO_LABEL
1975年、東京大学教養学部助教授、1987年、学習院大学教授、1991年、大阪大学人間科学部教授。	せんきゅうひゃくななじゅうごねん、とーきょーだいがくきょーよーがくぶじょきょーじゅ、せんきゅうひゃくはちじゅうななね、がくしゅーいんだいがくきょーじゅ、せんきゅうひゃくきゅうじゅういちねん、おーさかだいがくにんげんかがくぶきょーじゅ。	NO_LABEL
2002年よりフランクフルト大学社会研究所国際理事会理事。	にせんにねんよりふらんくふるとだいがくしゃかいけんきゅーじょこくさいりじかいりじ。	NO_LABEL
2004年、定年退職、東京経済大学教授。	にせんよねん、ていねんたいしょく、とーきょーけいざいだいがくきょーじゅ。	NO_LABEL
2013年定年退任。	にせんじゅうさんねんていねんたいにん。	NO_LABEL
2010年に、『ベンヤミン:破壊・収集・記憶』によって大阪大学より博士を授与される。	NO_PRONOUNCE	NO_LABEL
ニーチェ研究者として出発したが、以後、現代ドイツ政治に対する哲学的検討に移行する。	にーちぇけんきゅうしゃとしてしゅっぱつしたが、いご、げんだいどいつせいじにたいするてつがくてきけんとーにいこーする。	NO_LABEL
1987年、フィリップ・フランツ・フォン・ジーボルト賞受賞、2001年、オイゲン・ウント・イルゼ・ザイボルト賞受賞。	せんきゅうひゃくはちじゅうななね、ふぃりっぷふらんつふぉんじーぼるとしょーじゅしょー、にせんいちねん、おいげんうんといるぜざいぼるとしょーじゅしょー。	NO_LABEL
2011年、ベルリン自由大学から名誉博士号を与えられる。	にせんじゅういちねん、べるりんじゆーだいがくからめいよはくしごーをあたえられる。	NO_LABEL
