四日市メリノール学院中学校・高等学校は、三重県四日市市にある私立の中学校・高等学校。	NO_PRONOUNCE	NO_LABEL
平成29年度より男女共学化し、「四日市メリノール学院」に改名した。	NO_PRONOUNCE	NO_LABEL
1962年に、メリノール女子修道会がメリノール女子学院を設立。	せんきゅうひゃくろくじゅうにねんに、めりのーるじょししゅーどーかいがめりのーるじょしがくいんをせつりつ。	NO_LABEL
翌年、高等学校を設立した。	よくねん、こーとーがっこーをせつりつした。	NO_LABEL
経営上の理由から、1993年より同じカトリックの女子修道会であるエスコラピアス女子修道会が運営に協力することになり、2003年には同女子修道会に設置運営主体が移行している。	けいえいじょーのりゆーから、せんきゅうひゃくきゅうじゅうさんねんよりおなじかとりっくのじょししゅーどーかいであるえすこらぴあすじょししゅーどーかいがうんえいにきょーりょくすることになり、にせんさんねんにわどーじょししゅーどーかいにせっちうんえいしゅたいがいこーしている。	NO_LABEL
