高知ファイティングドッグスの選手一覧は、四国アイランドリーグplusの高知ファイティングドッグスに所属する選手・監督・コーチ、およびかつて所属していた主な選手の一覧である。	NO_PRONOUNCE	NO_LABEL
※選手については出場登録者と練習生の両方を含む。	NO_PRONOUNCE	NO_LABEL
※年はNPB入団前の最終所属年度。	NO_PRONOUNCE	NO_LABEL
当球団から直接入団した選手に限る。	とーきゅーだんからちょくせつにゅーだんしたせんしゅにかぎる。	NO_LABEL
