ジゴキシン毒性またはジゴキシン中毒は、医薬品のジゴキシンの過剰摂取やジゴキシンに似た成分を含むジギタリスなどの植物を食すことにより起こる中毒である。	じごきしんどくせいまたわじごきしんちゅーどくわ、いやくひんのじごきしんのかじょーせっしゅやじごきしんににたせいぶんをふくむじぎたりすなどのしょくぶつをしょくすことによりおこるちゅーどくである。	NO_LABEL
症状は一般的に不明瞭である。	しょーじょーわいっぱんてきにふめいりょーである。	NO_LABEL
症状は嘔吐、食欲不振、混乱、視界のぼやけ、知覚色の変化、体力の低下が挙げられる。	しょーじょーわおーと、しょくよくふしん、こんらん、しかいのぼやけ、ちかくしょくのへんか、たいりょくのていかがあげられる。	NO_LABEL
潜在的な性合併症として頻脈か徐脈どちらかの不整脈がおこりえる。	せんざいてきなせいがっぺいしょーとしてしきみゃくかじょみゃくどちらかのふせいみゃくがおこりえる。	NO_LABEL
中毒は過量服薬により短期間で発生する場合と長期間の治療により徐々に発生する場合がありる。	ちゅーどくわかりょーふくやくによりたんきかんではっせいするばあいとちょーきかんのちりょーによりじょじょにはっせいするばあいがありる。	NO_LABEL
リスク要因には低カリウム血症、低マグネシウム血症、高カルシウム血症が挙げられる。	りすくよーいんにわていかりうむけっしょー、ていまぐねしゅーむちしょー、こーかるしうむけっしょーがあげられる。	NO_LABEL
ジゴキシンは心不全や心房細動の治療に用いられる医薬品である。	じごきしんわしんふぜんやしんぼーさいどーのちりょーにもちいられるいやくひんである。	NO_LABEL
診断に心電図が用いられるは通常である。	しんだんにしんでんずがもちいられるわつーじょーである。	NO_LABEL
血液検査は最後の服用から6時間以上経っている場合に有効である。	けつえきけんさわさいごのふくよーからろくじかんいじょーたっているばあいにゆーこーである。	NO_LABEL
治療は服用から2時間以内の場合、活性炭が使用される。	ちりょーわふくよーからにじかんいないのばあい、かっせいたんがしよーされる。	NO_LABEL
心拍数が低い場合はアトロピンが使用され、一方、早期心室収縮を起こしている場合は硫酸マグネシウムが使用される。	しんぱくすーがひくいばあいわあとろぴんがしよーされ、いっぽー、そーきしんしつしゅーしゅくをおこしているばあいわりゅーさんまぐねしうむがしよーされる。	NO_LABEL
中毒が極めて重度の場合はジゴキシン特異的抗体フラグメントが治療に用いられる。	ちゅーどくがきめてじゅーどのばあいわじごきしんとくいてきこーたいふらぐめんとがちりょーにもちいられる。	NO_LABEL
重度の不整脈や心停止またはカリウムが5 mmol/Lを超える場合はこの治療が勧められる。	NO_PRONOUNCE	NO_LABEL
この治療により低血中カリウムやマグネシウムも修正される。	このちりょーによりていちちゅーかりゅーむやまぐねしゅーむもしゅーせいされる。	NO_LABEL
毒性は治療数日後に再発することがある。	どくせいわちりょーすーにちごにさいはつすることがある。	NO_LABEL
オーストリアでは2012年に140件のジゴキシン中毒が記録された。	NO_PRONOUNCE	NO_LABEL
この件数は1994年に記録された件数の半分であり、これはジゴキシンを用いた治療の減少に伴った結果である。	このけんすーわせんきゅうひゃくきゅうじゅうよねんにきろくされたけんすーのはんぶんであり、これわじごきしんをもちいたちりょーのげんしょーにともなったけっかである。	NO_LABEL
米国では2011年に2500件のジゴキシン中毒が報告され、その内の27人が死亡と報告された。	NO_PRONOUNCE	NO_LABEL
ジゴキシン中毒は1785年にウィリアム-ウィザリングよって解説された。	NO_PRONOUNCE	NO_LABEL
