古島 圭人は、東京都出身のプロサッカー選手。	こじまけいとわ、とーきょーとしゅっしんのぷろさっかーせんしゅ。	NO_LABEL
Jリーグ・Y.S.C.C.横浜所属。	NO_PRONOUNCE	NO_LABEL
ポジションは、ゴールキーパー。	ぽじしょんわ、ごーるきーぱー。	NO_LABEL
元プロサッカー選手、サッカー指導者の古島清人は実父。	もとぷろさっかーせんしゅ、さっかーしどーしゃのふるしまきよとわじっぷ。	NO_LABEL
湘南ベルマーレのアカデミー出身。	しょーなんべるまーれのあかでみーしゅっしん。	NO_LABEL
帝京高校を経て、東京国際大学へ進学した。	ていきょーこうこーをへて、とーきょーこくさいだいがくえしんがくした。	NO_LABEL
2018年より、Y.S.C.C.横浜へ加入。	にせんじゅうはちねんより、わいえすしーしーよこはまえかにゅー。	NO_LABEL
colspan=2|-||colspan=2|-||0||0||0||0	NO_PRONOUNCE	NO_LABEL
0||0||colspan=2|-||0||0||0||0	NO_PRONOUNCE	NO_LABEL
