北井 則行は、日本の歯学者、歯科医師。	きたいのりゆきわ、にっぽんのしがくしゃ、しかいし。	NO_LABEL
朝日大学歯学部口腔構造機能発育学講座歯科矯正学分野教授。	あさひだいがくしがくぶこーこーこーぞーきのーはついくがくこーざしかきょーせいがくぶんやきょーじゅ。	NO_LABEL
1986年大阪大学卒業、以後同大学助手、講師、助教授を務め、2004年より朝日大学教授に就任。	せんきゅうひゃくはちじゅうろくねんおーさかだいがくそつぎょー、いごどーだいがくじょしゅ、こーし、じょきょーじゅをつとめ、にせんよねんよりあさひだいがくきょーじゅにしゅーにん。	NO_LABEL
1994年に、大阪大学から　歯学博士号を得る。	せんきゅうひゃくきゅうじゅうよねんに、おーさかだいがくからしがくはくしごーをえる。	NO_LABEL
論文の題は、「成人骨格性下顎前突者の咀嚼機能について -咬合状態および食物の硬さと咀嚼機能との関連性」。	NO_PRONOUNCE	NO_LABEL
