熱伝達率または熱伝達係数とは、伝熱において、壁と空気、壁と水といった2種類の物資間での熱エネルギーの伝え易さを表す値で、単位面積、単位時間、単位温度差あたりの伝熱量である。	ねつでんたつりつまたわねつでんたつけいすーとわ、でんねつにおいて、かべとくーき、かべとみずといったにしゅるいのぶっしかんでのねつえねるぎーのつたえやすさをあらわすねで、たんいめんせき、たんいじかん、たんいおんどさあたりのでんねつりょうである。	NO_LABEL
アイザック・ニュートンが1701年に発表したニュートンの冷却法則を根拠としている。	あいざっくにゅーとんがせんななひゃくいちねんにはっぴょーしたにゅーとんのれいきゃくほーそくをこんきょとしている。	NO_LABEL
単位はW/、記号には"h" の他、αが使われることも多い。	NO_PRONOUNCE	NO_LABEL
熱伝達率は流体の速度によっても大きく異なる。	ねつでんたつりつわりゅーたいのそくどによってもおーきくことなる。	NO_LABEL
熱伝達率は、対流熱伝達、沸騰熱伝達、凝縮熱伝達など、流体と物体間の熱移動を扱うための係数である。	ねつでんたつりつわ、たいりゅーねつでんたつ、ふっとーねつでんたつ、ぎょーしゅくねつでんたつなど、りゅーたいとぶったいかんのねついどーをあつかうためのけいすーである。	NO_LABEL
まれに流体温度の代わりに環境温度などを用い、熱伝達率表現によって物体表面の温度上昇が小さい熱放射を近似的に扱うこともある。	まれにりゅーたいおんどのかわりにかんきょーおんどなどをもちい、ねつでんたつりつひょーげんによってぶったいひょーめんのおんどじょーしょーがちーさいねつほーしゃをきんじてきにあつかうこともある。	NO_LABEL
一般に、熱伝達率は物体表面で一様ではなく、流れの様相により時間的にも一定ではないが、平均値として熱の移動を扱うことが多く、工学的な係数である。	いっぱんに、ねつでんたつりつわぶったいひょーめんでいちよーでわなく、ながれのよーそーによりじかんてきにもいっていでわないが、へいきんちとしてねつのいどーをあつかうことがおーく、こーがくてきなけいすーである。	NO_LABEL
また、空間的には局所熱伝達率であっても、時間平均とすることがほとんどである。	また、くーかんてきにわきょくしょねつでんたつりつであっても、じかんへいきんとすることがほとんどである。	NO_LABEL
これは流れの時間変化に相応する速さでの物体の温度変化が問題になることが少ないためで、流体力学で乱流を扱う時間スケールと、伝熱工学での乱流の扱いには大きな隔たりがある。	これわながれのじかんへんかにそーおーするはやさでのぶったいのおんどへんかがもんだいになることがすくないためで、りゅーたいりきがくでらんりゅーをあつかうじかんすけーると、でんねつこーがくでのらんりゅーのあつかいにわおーきなへだたりがある。	NO_LABEL
熱伝達率"h" は次で定義される：	NO_PRONOUNCE	NO_LABEL
ここで	ここで	NO_LABEL
である。	である。	NO_LABEL
ヌセルト数 "Nu" は無次元化された熱伝達率であり、次の式で定義される：	NO_PRONOUNCE	NO_LABEL
ここで、	ここで、	NO_LABEL
である。	である。	NO_LABEL
強制対流の場合にはヌセルト数を無次元流速のレイノルズ数と流体の運動と温度を結びつける物性値であるプラントル数で整理し、自然対流の場合には浮力と粘性力の比であるグラスホフ数とプラントル数で整理するのが一般的である。	きょーせいたいりゅーのばあいにわぬせるとすーをむじげんりゅーそくのれいのるずすーとりゅーたいのうんどーとおんどをむすびつけるぶっせいちであるぷらんとるすーでせいりし、しぜんたいりゅーのばあいにわふりょくとねんせいりょくのひであるぐらすほふすーとぷらんとるすーでせいりするのがいっぱんてきである。	NO_LABEL
ヌセルト数は熱伝導率を用いて無次元化したが、代わりに比熱あるいは熱容量を用いることもでき、これをスタントン数 "St" という。	NO_PRONOUNCE	NO_LABEL
ここで	ここで	NO_LABEL
である。	である。	NO_LABEL
さまざまな場合に対する熱伝達率について実験的、あるいは理論的な式が導出されている。	さまざまなばあいにたいするねつでんたつりつについてじっけんてき、あるいわりろんてきなしきがどーしゅつされている。	NO_LABEL
以下ではそれらの式を、ヌセルト数や以下の無次元数を用いた式で紹介する。	いかでわそれらのしきを、ぬせるとすーやいかのむじげんすーをもちいたしきでしょーかいする。	NO_LABEL
温度が均一な板の強制対流のヌセルト数は下記の式で求めることができる。	おんどがきんいつないたのきょーせいたいりゅーのぬせるとすーわかきのしきでもとめることができる。	NO_LABEL
レイノルズ数"Re" を求めるとき、代表長さには流れ方向の長さをとる。	NO_PRONOUNCE	NO_LABEL
管の長さを"l" 、管入口からの距離を"x" とする。	NO_PRONOUNCE	NO_LABEL
また代表長さには円管直径"d" をとる。	NO_PRONOUNCE	NO_LABEL
速度場、温度場は十分に発達しているとする。	そくどじょー、おんどじょーわじゅーぶんにはったつしているとする。	NO_LABEL
厳密解としては	げんみつかいとしてわ	NO_LABEL
これは次で近似できる：	NO_PRONOUNCE	NO_LABEL
実験式として次がある。	じっけんしきとしてつぎがある。	NO_LABEL
"Gr Pr" が低い場合は層流、高い場合は乱流支配である。	NO_PRONOUNCE	NO_LABEL
または	またわ	NO_LABEL
これらの実験式を用いる場合、物性値は膜温度を用いる。	これらのじっけんしきをもちいるばあい、ぶっせいちわまくおんどをもちいる。	NO_LABEL
水平な円柱が加熱されている場合は、直径"d" を代表長さにとり、次の実験式がある：	NO_PRONOUNCE	NO_LABEL
これは鉛直平板の式において、"l" = π"d" / 2 とおいた場合に非常に近い。	NO_PRONOUNCE	NO_LABEL
縦に長い密閉空間の左右の壁面を高温および低温に保持した場合は、アスペクト比やレイリー数の範囲に応じて次のような実験式がある。	たてにながいみっぺいくーかんのさゆーのへきめんをこーおんおよびていおんにほじしたばあいわ、あすぺくとひやれいりーすーのはんいにおーじてつぎのよーなじっけんしきがある。	NO_LABEL
ただし、物性値は壁面の温度の平均値を取る。	ただし、ぶっせいちわへきめんのおんどのへいきんちをとる。	NO_LABEL
または	またわ	NO_LABEL
流体の種類による熱伝達率の値は次の程度にみつもる。	りゅーたいのしゅるいによるねつでんたつりつのねわつぎのていどにみつもる。	NO_LABEL
ただし熱伝達率は流れの形態や、固体の物性などによっても変化するため、以下はおおよその値である。	ただしねつでんたつりつわながれのけいたいや、こたいのぶっせいなどによってもへんかするため、いかわおーよそのねである。	NO_LABEL
また、単位が kcal/であることに注意。	NO_PRONOUNCE	NO_LABEL
SI単位系との関係は 1 kcal/= 1.16279 W/である。	NO_PRONOUNCE	NO_LABEL
