ブルーノ・ガマは、ポルトガル・ブラガ県ヴィラ・ヴェルデ出身のサッカー選手。	NO_PRONOUNCE	NO_LABEL
ADアルコルコン所属。	あぐるぱしおんでぽるてぃーばあるこるこんしょぞく。	NO_LABEL
ポジションはミッドフィールダー。	ぽじしょんわみっどふぃーるだー。	NO_LABEL
SCブラガの下部組織出身。	すぽるてぃんぐくるーびじぶらがのかぶそしきしゅっしん。	NO_LABEL
2004年、16歳でUDレイリア戦に出場した。	にせんよねん、じゅうろっさいでゆーでぃーれいりあせんにしゅつじょーした。	NO_LABEL
同年、75万ユーロの移籍金でFCポルトに移籍した。	NO_PRONOUNCE	NO_LABEL
1年目は主にBチームでプレーし、2年目からはレンタル移籍に出された。	NO_PRONOUNCE	NO_LABEL
レンタル先のブラガではUEFAカップのFCスロヴァン・リベレツ戦で得点した。	NO_PRONOUNCE	NO_LABEL
2007年からはヴィトーリアFCへレンタル移籍した。	NO_PRONOUNCE	NO_LABEL
2009年7月、リオ・アヴェFCに2年契約で完全移籍した。	NO_PRONOUNCE	NO_LABEL
2011年7月27日、スペインのデポルティーボ・ラ・コルーニャに移籍した。	にせんじゅういちねんしちがつにじゅうしちにち、すぺいんのでぽるてぃーぼらこるーにゃにいせきした。	NO_LABEL
2013年8月20日、ウクライナのFCドニプロに3年契約で移籍した。	にせんじゅうさんねんはちがつはつか、うくらいなのふっとぼりにーくるぶどにぷろどにぷろにさんねんけいやくでいせきした。	NO_LABEL
2003年、ポルトガルとスペインの共催で行われたUEFA U-17欧州選手権に出場し、決勝でスペインに勝利して優勝した。	にせんさんねん、ぽるとがるとすぺいんのきょーさいでおこなわれたうえふぁあんだーせぶんてぃーんおーしゅーせんしゅけんにしゅつじょーし、けっしょーですぺいんにしょーりしてゆーしょーした。	NO_LABEL
2年連続で出場した2004年にはキャプテンマークを巻きプレーし3位決定戦で勝利した。	にねんれんぞくでしゅつじょーしたにせんよねんにわきゃぷてんまーくをまきぷれーしさんいけっていせんでしょーりした。	NO_LABEL
2006年のUEFA U-19欧州選手権ではグループリーグで3位敗退するもU-20ワールドカップの出場権を得た。	にせんろくねんのうえふぁあんだーないんてぃーんおーしゅーせんしゅけんでわぐるーぷりーぐでさんいはいたいするもゆーとぇんてぃわーるどかっぷのしゅつじょーけんをえた。	NO_LABEL
2007年、カナダで開催されたFIFA U-20ワールドカップに出場し、ポルトガル唯一の勝利となったニュージーランド戦で、フリーキックとPKによる2得点を挙げた。	にせんななねん、かなだでかいさいされたふぃふぁあんだーとぅえんてぃわーるどかっぷにしゅつじょーし、ぽるとがるゆいいつのしょーりとなったにゅーじーらんどせんで、ふりーきっくとぴーけーによるにとくてんをあげた。	NO_LABEL
