『火縄銃』は、江戸川乱歩の著した短編探偵小説である。	NO_PRONOUNCE	NO_LABEL
1932年、平凡社版『江戸川乱歩全集』第11巻に掲載されたが、乱歩自身による自注自解、および角川文庫の解説によると、本作は乱歩が早稲田大学在学中の大正2年から大正3年頃に日記帳の余白に書き留めて置いたものだという。	NO_PRONOUNCE	NO_LABEL
『探偵小説四十年』では、1915年頃の執筆としている。	NO_PRONOUNCE	NO_LABEL
わたしは友人の橘と共に、林兄弟の滞在しているホテルへ遊びに来た。	わたしわゆーじんのたちばなとともに、はやしきょーだいのたいざいしているほてるえあそびにきた。	NO_LABEL
ところが、一郎は殺されていた。	ところが、いちろーわころされていた。	NO_LABEL
その嫌疑者として義弟の二郎が勾引されたが、探偵趣味のある橘は二郎は犯人ではないと主張したのであった。	そのけんぎしゃとしてぎていのじろーがこーいんされたが、たんていしゅみのあるたちばなわじろーわはんにんでわないとしゅちょーしたのであった。	NO_LABEL
一体何を根拠に橘はそういったのであろうか。	いったいなにをこんきょにたちばなわそういったのであろうか。	NO_LABEL
モーリス・ルブランの『八点鐘』中の「水壜」や、メルヴィル・デイヴィスン・ポーストの『アブナー伯父』の「ズームドルフ事件」と同じトリックが用いられている。	NO_PRONOUNCE	NO_LABEL
桃源社版『江戸川乱歩全集』の「あとがき」では「トリックだけではポーストや、ルブランに先んじていたわけである」と自慢しているが、『探偵小説四十年』では「私の着想は西洋の犯罪実話から来たのだから、余り威張れない」と述べている。	NO_PRONOUNCE	NO_LABEL
なお、「ズームドルフ事件」の初出は『サタデー・イヴニング・ポスト』1914年7月18日号である。	NO_PRONOUNCE	NO_LABEL
