塩化ジスプロシウムもしくは三塩化ジスプロシウムは、化学式DyClで表されるジスプロシウムと塩素の化合物である。	NO_PRONOUNCE	NO_LABEL
黄みがかった白色の固体であり、湿潤空気中に曝すと急速に吸湿して六水和物DyCl·6HOを形成する。	NO_PRONOUNCE	NO_LABEL
この六水和物を急加熱すると一部加水分解を起こし、オキシ塩化物となる。	このろくすいわぶつをきゅーかねつするといちぶかすいぶんかいをおこし、おきしえんかぶつとなる。	NO_LABEL
塩化ジスプロシウムは他の希土類塩化物と同様、塩化剤に塩化アンモニウムを用いた方法によって合成される。	えんかじすぷろしうむわたのきどるいえんかぶつとどーよー、えんかざいにえんかあんもにうむをもちいたほーほーによってごーせいされる。	NO_LABEL
前躯体としてはもしくは塩化ジスプロシウム六水和物、オキシ塩化ジスプロシウムが用いられ、いずれの原料を用いても、塩化ジスプロシウムと塩化アンモニウムの複塩である[DyCl]を経由する。	NO_PRONOUNCE	NO_LABEL
二段目の反応式は熱分解反応であり、中間体[DyCl]を介して反応が進行する。	NO_PRONOUNCE	NO_LABEL
酸化ジスプロシウムを塩酸で湿式処理すると塩化ジスプロシウム六水和物が得られるが、これを加熱しても無水物は得られずにオキシ塩化物となる。	さんかじすぷろしゅーむをえんさんでしっしきしょりするとえんかじすぷろしうむろくすいわぶつがえられるが、これをかねつしてもむすいぶつわえられずにおきしえんかぶつとなる。	NO_LABEL
塩化ジスプロシウムは適度に強いルイス酸であり、HSAB則による硬い酸に分類される。	NO_PRONOUNCE	NO_LABEL
塩化ジスプロシウムの水溶液は他のジスプロシウム化合物を合成する前躯体として用いられ、例えばフッ化ナトリウムとの反応によってフッ化ジスプロシウムが合成される。	えんかじすぷろしうむのすいよーえきわたのじすぷろしゅーむかごーぶつをごーせいするぜんむくろたいとしてもちいられ、たとえばふっかなとりうむとのはんのーによってふっかじすぷろしゅーむがごーせいされる。	NO_LABEL
金属ジスプロシウムは、塩化リチウムと塩化カリウムからなる共晶溶融塩中での塩化ジスプロシウムの溶融塩電解によって得られ、タングステンのカソード上でDyを経由して還元される。	NO_PRONOUNCE	NO_LABEL
