マッチ棒パズルは、マッチ棒を使ったパズルである。	まっちぼーぱずるわ、まっちぼーをつかったぱずるである。	NO_LABEL
解くには水平思考が求められる。	とくにわすいへいしこーがもとめられる。	NO_LABEL
マッチ棒は1本の直線の代用品としてのみ考えられ、爪楊枝や鉛筆など固い材質でできた均等な長さの棒状であるという点でマッチと共通するもの、さらにはマッチ棒をかたどった模型や絵をマッチ棒の代用として使っても大半の問題は成立する。	まっちぼーわいっぽんのちょくせんのだいよーひんとしてのみかんがえられ、つまよーじやえんぴつなどかたいざいしつでできたきんとーなながさのぼーじょーであるとゆうてんでまっちときょーつーするもの、さらにわまっちぼーをかたどったもけいやえをまっちぼーのだいよーとしてつかってもたいはんのもんだいわせいりつする。	NO_LABEL
しかしマッチ棒の特性を利用した問題もまれに見られる。	しかしまっちぼーのとくせいをりよーしたもんだいもまれにみられる。	NO_LABEL
必要となるのはマッチ棒のみであるため、パズルとしては手軽かつ古典的なものである。	ひつよーとなるのわまっちぼーのみであるため、ぱずるとしてわてがるかつこてんてきなものである。	NO_LABEL
マッチ棒パズルの問題は通常、最初の形を表す図と、制約条件および最終的な目的を示した文章で構成される。	まっちぼーぱずるのもんだいわつーじょー、さいしょのかたちをあらわすずと、せいやくじょーけんおよびさいしゅーてきなもくてきをしめしたぶんしょーでこーせいされる。	NO_LABEL
「マッチ棒○本で□□を作れ」など制約条件と目的のみが示される場合もある。	NO_PRONOUNCE	NO_LABEL
制約条件として記されるのは触れることのできるマッチの本数と、それをどう動かすかのみであることが多いが、特に指示が無い限り、原則として、以下のような暗黙の制約条件がある。	せいやくじょーけんとしてしるされるのわふれることのできるまっちのほんすーと、それをどーうごかすかのみであることがおーいが、とくにしじがないかぎり、げんそくとして、いかのよーなあんもくのせいやくじょーけんがある。	NO_LABEL
以上の「暗黙の制約条件」は解答が出題者の意図から逸脱するのを防いでいる。	NO_PRONOUNCE	NO_LABEL
特に「折る」についてはマッチの本数が増えることで解答が容易になることがあるため、明示される場合も多い。	NO_PRONOUNCE	NO_LABEL
ただし必ずしも絶対的なものではなく、問題によっては「マッチであること」を利用した解答や三次元的な解答、それ以外にも多分にとんちの利いた解答を求めるなど、「マッチパズルならでは」の状況もしばしば見られる。	NO_PRONOUNCE	NO_LABEL
出題される問題にはいくつかのパターンがある。	しゅつだいされるもんだいにわいくつかのぱたーんがある。	NO_LABEL
その他図形や数字の問題ほど多くはないが並べ替えて言葉を作る問題や、動物や建物などを変形する問題も出題される。	そのたずけいやすーじのもんだいほどおーくわないがならべかえてことばをつくるもんだいや、どーぶつやたてものなどをへんけいするもんだいもしゅつだいされる。	NO_LABEL
