サムルノリ（）は、朝鮮の伝統楽器であるケンガリ・チン・チャング・プクを用いた韓国の現代音楽。	NO_PRONOUNCE	NO_LABEL
プンムルノリと呼ばれる農村地帯の伝統的な農楽をもとに、1970年代末に舞台芸術としてアレンジされたパーカッション・アンサンブルである。	NO_PRONOUNCE	NO_LABEL
名称は、1978年に結成された演奏グループ「サムルノリ」に由来し、4種の伝統楽器を用いた演奏そのものを指すようになった。	NO_PRONOUNCE	NO_LABEL
韓国の農楽そのものをサムルノリと呼ぶのは誤用である。	かんこくののーがくそのものをさむるのりとよぶのわごよーである。	NO_LABEL
伝統楽器奏者として既に知られていたキム・ドクスが、1978年2月に4種の打楽器による演奏を試みたのがはじまりである。	でんとーがっきそーしゃとしてすでにしられていたきむどくすが、せんきゅうひゃくななじゅうはちねんにがつによんしゅのだがっきによるえんそーをこころみたのがはじまりである。	NO_LABEL
1980年、キム・ドクスをリーダーに、キム・ヨンベ、チェ・ジョンシル、イ・グァンスが加わって「サムルノリ」が結成された。	NO_PRONOUNCE	NO_LABEL
かれらは農村に古くから伝わる農楽をリズムごとに整理し、体系化した演奏をするようになった。	かれらわのーそんにふるくからつたわるのーがくをりずむごとにせいりし、たいけいかしたえんそーをするよーになった。	NO_LABEL
もともとの農楽では、通常立った状態で踊りながら演奏するが、このバンドは室内で座って演奏する舞台用の演奏である。	もともとののーがくでわ、つーじょーたったじょーたいでおどりながらえんそーするが、このばんどわしつないですわってえんそーするぶたいよーのえんそーである。	NO_LABEL
「サムルノリ」は韓国内外で積極的に活動も行ってる。	NO_PRONOUNCE	NO_LABEL
「サムルノリ」は「四物の遊び」という意味で、地方ごとに異なる農楽の中でも必ず用いられる4つの楽器で演奏する。	NO_PRONOUNCE	NO_LABEL
チンは風を、プクは雲を、チャングは雨を、ケンガリは雷を表現し、また、金属製の楽器は天を表し、木と皮の楽器は地を表すと言われており、4つの楽器が奏でる楽曲は、天地・宇宙を表現するものであるという。	NO_PRONOUNCE	NO_LABEL
