せんだい 宮の杜とは、仙台市宮城野区東仙台四丁目に所在する2010年に街開きをした商業施設と住宅地の複合団地。	せんだいみやのもりとわ、せんだいしみやぎのくひがしせんだいよんちょーめにしょざいするにせんじゅうねんにまちびらきをしたしょーぎょーしせつとじゅーたくちのふくごーだんち。	NO_LABEL
面積は12万2400平方メートル。	NO_PRONOUNCE	NO_LABEL
仙台市宮城野区東仙台に所在した日本たばこ産業仙台工場とJT球場の跡地を大和ハウス工業が競争入札によって落札。	せんだいしみやぎのくひがしせんだいにしょざいしたにほんたばこさんぎょーせんだいこーじょーとじぇいてぃーきゅーじょーのあとちをだいわはうすこーぎょーがきょーそーにゅーさつによってらくさつ。	NO_LABEL
同社が総事業費約95億円を投じ、整備した商業区画であるフォレオせんだい 宮の杜、住宅区画であるブルームスクエアせんだい宮の杜、マンション区画のプレミスト せんだい宮の杜からなる複合団地である。	どーしゃがそーじぎょーひやくきゅうじゅうごおくえんをとーじ、せいびしたしょーぎょーくかくであるふぉれおせんだいみやのもり、じゅーたくくかくであるぶるーむすくえあせんだいみやのもり、まんしょんくかくのぷれみすとせんだいみやのもりからなるふくごーだんちである。	NO_LABEL
当初、JTは当地にイトーヨーカドーを核としたアリオ形式によって東北最大級の大型ショッピングセンターの建設を検討していた。	とーしょ、じぇいてぃーわとーちにいとーよーかどーをかくとしたありおけいしきによってとーほくさいだいきゅーのおーがたしょっぴんぐせんたーのけんせつをけんとーしていた。	NO_LABEL
しかし、イオン仙台幸町ショッピングセンターが近隣にあるため商圏で衝突すること、また従来からの住宅地が近接しているため、交通渋滞の頻発が予想された。	しかし、いおんせんだいさいわいちょーしょっぴんぐせんたーがきんりんにあるためしょーけんでしょーとつすること、またじゅーらいからのじゅーたくちがきんせつしているため、こーつーじゅーたいのひんぱつがよそーされた。	NO_LABEL
このため、仙台市が敷地の用途変更を拒否し、梅原克彦市長も「住宅主体の土地利用が望ましい」と求めたこともあって、JTはSC建設を断念した経緯がある。	NO_PRONOUNCE	NO_LABEL
その後計画変更され、大和ハウス工業が複合団地造営の方向で土地を落札し、現在の形で造成された。	そのごけいかくへんこーされ、だいわはうすこーぎょーがふくごーだんちぞーえいのほーこーでとちをらくさつし、げんざいのかたちでぞーせいされた。	NO_LABEL
フォレオせんだい 宮の杜は、2009年11月20日に完全開業した。	ふぉれおせんだいみやのもりわ、にせんきゅうねんじゅーいちがつはつかにかんぜんかいぎょーした。	NO_LABEL
また同日には住宅分譲も開始し、入居は街開きとなる翌年から順次始まった。	またどーじつにわじゅーたくぶんじょーもかいしし、にゅーきょわまちびらきとなるよくねんからじゅんじはじまった。	NO_LABEL
また不況によってマンションの着工は見合わせていたが、2012年3月、1棟目のプレミスト せんだい宮の杜が完成し、翌年3月、2棟目のプレミスト せんだい宮の杜 FORESTIAGEが完成している。	NO_PRONOUNCE	NO_LABEL
1941年に「東京第一陸軍造兵廠仙台製造所」が仙台市の苦竹地区に設置された、1945年7月10日の仙台空襲で被災した仙台地方専売局5月に庁舎と診療所は元の場所に新築された庁舎に戻ったが、工場は当地に残り、生産が続けられた。	NO_PRONOUNCE	NO_LABEL
2003年に工場は閉鎖され、跡地は再開発されることになった。	にせんさんねんにこーじょーわへいさされ、あとちわさいかいはつされることになった。	NO_LABEL
2006年、イトーヨーカ堂が跡地を大型ショッピングセンターとシネマコンプレックスが入る延べ床面積15万平方メートルの大型商業施設として再開発することでJTと合意すると、仙台市が反対して頓挫してしまう。	NO_PRONOUNCE	NO_LABEL
学校法人南光学園が市内2ヶ所に分散しているキャンパスを集約するため当地を取得するとも言われたが、2007年に大和ハウス工業が取得し、商業施設と住宅地の複合開発がなされることになった。	NO_PRONOUNCE	NO_LABEL
なお、仙山線の引き込み線が当地まで敷設されていたが、昭和後期に廃線となっている。	なお、せんざんせんのひきこみせんがとーちまでふせつされていたが、しょーわこーきにはいせんとなっている。	NO_LABEL
