『第二ファウンデーション』は、アイザック・アシモフのSF小説。	NO_PRONOUNCE	NO_LABEL
ファウンデーションシリーズの第3巻で、『ファウンデーション対帝国』の続編にあたる。	NO_PRONOUNCE	NO_LABEL
アメリカにおいて初版は1953年に発行された。	あめりかにおいてしょはんわせんきゅうひゃくごじゅうさんねんにはっこーされた。	NO_LABEL
物語に登場する架空の集団の名称でもある。	ものがたりにとーじょーするかくーのしゅーだんのめいしょーでもある。	NO_LABEL
2編の中編からなる。	NO_PRONOUNCE	NO_LABEL
1948年と1949年に『アスタウンディング・サイエンスフィクション』誌に掲載されたもので、「今度はわかったな―」と、3回に分けて掲載された「―しかもわかっていなくもある」をまとめたもの。	NO_PRONOUNCE	NO_LABEL
銀河系の端にある惑星ターミナスに銀河百科辞典編纂者の集団「ファウンデーション」が追放されて約300年後の世界。	NO_PRONOUNCE	NO_LABEL
勢力を伸ばしていたファウンデーションが突然変異体のミュールの手に落ちて5年ほど経過した頃から物語が始まる。	せいりょくをのばしていたふぁうんでーしょんがとつぜんへんいたいのみゅーるのてにおちてごねんほどけいかしたころからものがたりがはじまる。	NO_LABEL
ファウンデーションは陥落したものの、存在だけが知られている第二ファウンデーションは発見されていなかった。	ふぁうんでーしょんわかんらくしたものの、そんざいだけがしられているだいにふぁうんでーしょんわはっけんされていなかった。	NO_LABEL
この謎の集団である第二ファウンデーションを探索する物語であり、最後にその位置が読者へと明らかにされる。	このなぞのしゅーだんであるだいにふぁうんでーしょんをたんさくするものがたりであり、さいごにそのいちがどくしゃえとあきらかにされる。	NO_LABEL
創元推理文庫版『銀河帝国の興亡』訳者の厚木淳により、形而上学における第一動者という概念が、第二ファウンデーションの長である第一発言者に当たると指摘されている。	NO_PRONOUNCE	NO_LABEL
さらにそれは登場人物の名前にも示されている。	さらにそれわとーじょーじんぶつのなまえにもしめされている。	NO_LABEL
第二ファウンデーションについてハリ・セルダンが言い残したヒントは、二つだけであった。	だいにふぁうんでーしょんについてはりせるだんがいーのこしたひんとわ、ふたつだけであった。	NO_LABEL
いわく、それはファウンデーションの反対側の端に位置し、そして「星界の果て」にある、と…。	NO_PRONOUNCE	NO_LABEL
第二ファウンデーション探索にあと一歩で失敗したミュールは、惑星カルガンに本拠地を置き覇道を目指す。	だいにふぁうんでーしょんたんさくにあといちほでしっぱいしたみゅーるわ、わくせいかるがんにほんきょちをおきはどーをめざす。	NO_LABEL
が、自分と同じ異能の力が、それも組織的に臣下の精神に干渉して使える人材を潰し国力を削いでいることに気づく。	が、じぶんとおなじいのーのちからが、それもそしきてきにしんかのせいしんにかんしょーしてつかえるじんざいをつぶしこくりょくをそいでいることにきずく。	NO_LABEL
ミュールは主敵を第二ファウンデーションと見定め、五回もの失敗にもめげずに最後の探索を命じた。	みゅーるわしゅてきをだいにふぁうんでーしょんとみさだめ、ごかいものしっぱいにもめげずにさいごのたんさくをめいじた。	NO_LABEL
将軍ハン・プリッチャーと、有能な若者ベイル・チャニスが探索行に出されたが、チャニスは独断で惑星タゼンタへと向かう。	NO_PRONOUNCE	NO_LABEL
チャニスは、第二ファウンデーションの位置についてトランターの夜空から見える「星界の果て」がタゼンタと符合することをプリッチャーに説明し、納得させる。	NO_PRONOUNCE	NO_LABEL
チャニスらはタゼンタの影響下にある惑星ロッセムに一旦着陸し、プリッチャーの精神が第二ファウンデーションの干渉を受けていることを話す。	ちゃにすらわたぜんたのえいきょーかにあるわくせいろっせむにいったんちゃくりくし、ぷりっちゃーのせいしんがだいにふぁうんでーしょんのかんしょーをうけていることをはなす。	NO_LABEL
狼狽するプリッチャーだが、そこにミュール自らが現れ、第二ファウンデーション員であったチャニスと異能の力、精神制御能力同士の戦いになる。	ろーばいするぷりっちゃーだが、そこにみゅーるみずからがあらわれ、だいにふぁうんでーしょんいんであったちゃにすといのーのちから、せいしんせいぎょのーりょくどーしのたたかいになる。	NO_LABEL
ミュールはチャニスをねじふせ、第二ファウンデーションの位置がこの惑星ロッセムであることを知り、止めを刺そうとする。	みゅーるわちゃにすをねじふせ、だいにふぁうんでーしょんのいちがこのわくせいろっせむであることをしり、とめをさそうとする。	NO_LABEL
しかしさらに第二ファウンデーションの長である第一発言者が現れ、ロッセムでさえも本当の位置ではないことを話した上にミュールが罠にかかったことを告げ、その隙にミュールの精神に手を加えることにより戦いを終結させる。	しかしさらにだいにふぁうんでーしょんのちょーであるだいいちはつげんしゃがあらわれ、ろっせむでさえもほんとーのいちでわないことをはなしたうえにみゅーるがわなにかかったことをつげ、そのひまにみゅーるのせいしんにてをくわえることによりたたかいをしゅーけつさせる。	NO_LABEL
後にチャニスは精神構造を元に戻され、真実を思い出す。	ごにちゃにすわせいしんこーぞーをもとにもどされ、しんじつをおもいだす。	NO_LABEL
ミュールの死後、再独立を果たしたファウンデーションは新しい時代を迎えていた。	みゅーるのしご、さいどくりつをはたしたふぁうんでーしょんわあたらしーじだいをむかえていた。	NO_LABEL
大衆は危機に際して第二ファウンデーションを頼りにした。	たいしゅーわききにさいしてだいにふぁうんでーしょんをたよりにした。	NO_LABEL
さらに他者の精神を意のままに操る能力を持つ第二ファウンデーションが第二銀河帝国の支配層になるのではないかと危惧し、危機感と反抗心を持つ者も出てきた。	さらにたしゃのせいしんをいのままにあやつるのーりょくをもつだいにふぁうんでーしょんがだいにぎんがていこくのしはいそーになるのでわないかときぐし、ききかんとはんこーしんをもつものもでてきた。	NO_LABEL
一方、第二ファウンデーション側でも、ミュールへの対処によって存在の一端を現してしまったことで、セルダン計画が水泡に帰することが危惧されていた。	いっぽー、だいにふぁうんでーしょんがわでも、みゅーるえのたいしょによってそんざいのいったんをあらわしてしまったことで、せるだんけいかくがすいほーにきすることがきぐされていた。	NO_LABEL
その危惧をあらわにする「学生」に対し、第一発言者は、「ある計画が遂行中だ」と教え諭してなだめる。	NO_PRONOUNCE	NO_LABEL
反第二ファウンデーション運動のリーダーにしてベイタの息子であるダレル博士は、第二ファウンデーションの資料を集めるため、惑星カルガンに図書館員のホマー・マンを送り出すが、興味を持ったダレル博士の娘アーカディが勝手について行ってしまった。	NO_PRONOUNCE	NO_LABEL
ミュールの遺命で封印されたミュールの宮殿に入って資料を調べるため、アーカディはカルガンの支配者ステッティン卿の愛人カリアを説き伏せる。	みゅーるのいめいでふーいんされたみゅーるのきゅーでんにはいってしりょーをしらべるため、あーかでぃわかるがんのしはいしゃすてってぃんきょーのあいじんかりあをときふせる。	NO_LABEL
しかし話を聞いたステッティン卿は、自らの手で第二銀河帝国を復興させることを夢想し、さらにファウンデーションの英雄ベイタの孫娘であるアーカディを己のものにしようとする。	しかしはなしをきいたすてってぃんきょーわ、みずからのてでだいにぎんがていこくをふっこーさせることをむそーし、さらにふぁうんでーしょんのえいゆーべいたのまごむすめであるあーかでぃをおのれのものにしよーとする。	NO_LABEL
カリアの手によって脱出したアーカディは宇宙空港で捕まりかけたが、惑星トランター農協の代表プリーム・パルヴァー夫妻に助けられ、一緒にトランターへ向かう。	NO_PRONOUNCE	NO_LABEL
その後、ついにカルガンとファウンデーションの間に戦争が起きる。	そのご、ついにかるがんとふぁうんでーしょんのまにせんそーがおきる。	NO_LABEL
不利な位置にあるファウンデーション側は連敗を喫したが、ついに自らの力で重要な戦闘に勝利する。	ふりないちにあるふぁうんでーしょんがわわれんぱいをきっしたが、ついにみずからのちからでじゅーよーなせんとーにしょーりする。	NO_LABEL
やがて戦争が終わった後、ダレル博士らはアーカディから「円には端がない」という伝言を受け、第二ファウンデーションがターミナスにあることをつきとめ、さらに彼らの力を封じる機械の開発にも成功し、構成員を捕らえることに成功した。	NO_PRONOUNCE	NO_LABEL
ファウンデーションは自らの力で、第二ファウンデーションにも勝利したのであった。	ふぁうんでーしょんわみずからのちからで、だいにふぁうんでーしょんにもしょーりしたのであった。	NO_LABEL
しかし、それもまた第二ファウンデーションの策であった。	しかし、それもまただいにふぁうんでーしょんのさくであった。	NO_LABEL
ファウンデーションが自助努力で、自分たちの力だけで、そう信じて危機を乗り越えて発展していくことこそが、セルダン計画の鍵であった。	ふぁうんでーしょんがじじょどりょくで、じぶんたちのちからだけで、そーしんじてききをのりこえてはってんしていくことこそが、せるだんけいかくのかぎであった。	NO_LABEL
そのためには第二ファウンデーションはあくまでも姿を隠して裏方に徹し、見つけられ滅ぼされたふりをすること、そして捨て駒として構成員を切り捨てることさえ辞さなかった。	そのためにわだいにふぁうんでーしょんわあくまでもすがたをかくしてうらかたにてっし、みつけられほろぼされたふりをすること、そしてすてごまとしてこーせいいんをきりすてることさえじさなかった。	NO_LABEL
そして最後に、第二ファウンデーションの第一発言者と「学生」の対談の中で、第二ファウンデーションの本当の位置が語られる。	NO_PRONOUNCE	NO_LABEL
第一発言者が銀河を見上げながら、セルダンの残した「星界の果て」という言葉の意味に想いを寄せるところで、物語は一旦終了する。	NO_PRONOUNCE	NO_LABEL
