2012年クリスタルスケートは、2012年にルーマニアで開催されたフィギュアスケートの国際競技会。	にせんじゅうにねんくりすたるすけーとわ、にせんじゅうにねんにるーまにあでかいさいされたふぃぎゅあすけーとのこくさいきょーぎかい。	NO_LABEL
2012年クリスタルスケートはフィギュアスケート競技会 クリスタルスケートの2012-2013年シーズン開催で、ルーマニアスケート連盟が主催し、国際スケート連盟の2012/2013年シーズンイベントカレンダーに掲載された国際大会である。	NO_PRONOUNCE	NO_LABEL
男女シングルのシニアクラス、ジュニアクラス、それ以下のクラスとアイスダンスのシニアクラスの競技が、2012年10月30日から11月4日にかけて、ルーマニア・ブラショフのオリンピックアリーナ()にて行われた。	NO_PRONOUNCE	NO_LABEL
シニアクラスの男女シングルのメダリストに授与される。	しにあくらすのだんじょしんぐるのめだりすとにじゅよされる。	NO_LABEL
1位 1000ユーロ	NO_PRONOUNCE	NO_LABEL
2位 800ユーロ	NO_PRONOUNCE	NO_LABEL
3位 500ユーロ	NO_PRONOUNCE	NO_LABEL
