妙は、青森県八戸市にある町名･地名の一つである。	NO_PRONOUNCE	NO_LABEL
23の小字がある。	NO_PRONOUNCE	NO_LABEL
八戸市役所から南東5kmのところに位置する地区である。	はちのへしやくしょからなんとーごきろめーとるのところにいちするちくである。	NO_LABEL
地内は、新井田川中流の右岸の台地に南北に2.4km、東西に5kmの広さがある。	NO_PRONOUNCE	NO_LABEL
北に新井田、東に大久保、南に松館、三戸郡階上町倉前、西に十日市が隣接する。	きたにあらいだ、ひがしにおーくぼ、みなみにまつだて、みとぐんはしかみちょーくらまえ、にしにとーかいちがりんせつする。	NO_LABEL
鉄道の駅は無い。	てつどーのえきわない。	NO_LABEL
幹線道路は八戸久慈自動車道の八戸南インターチェンジ、国道45号、青森県道251号妙売市線が通る。	かんせんどーろわはちのへくじじどーしゃどーのはちのへみなみいんたーちぇんじ、こくどーよんじゅうごごー、あおもりけんどーにひゃくごじゅういちごーみょーうるいちせんがとーる。	NO_LABEL
地内東端部には八戸工業大学、八戸工業大学第二高等学校が立地している。	じうちひがしばたぶにわはちのへこーぎょーだいがく、はちのへこーぎょーだいがくだいにこーとーがっこーがりっちしている。	NO_LABEL
地内の字蟹沢からは、縄文時代前期の土器や人骨収納の埋没時が出土した蟹沢遺跡がある。	じうちのじかにさわからわ、じょーもんじだいぜんきのどきやじんこつしゅーのーのまいぼつじがしゅつどしたかにさわいせきがある。	NO_LABEL
また、字野場からは、縄文時代後期の時を発見した野場遺跡がある。	また、じのばからわ、じょーもんじだいこーきのときをはっけんしたのばいせきがある。	NO_LABEL
中世に「めう野」と呼ばれていた。	NO_PRONOUNCE	NO_LABEL
元和4年の記録で「明村」とあるのが「妙」でないかという説もある。	NO_PRONOUNCE	NO_LABEL
糠部郡八戸の一つで、永正年間の記録では、家畜の放牧や牧草の採取のための野原が広がっており、9000匹の馬がいる糠部郡最大の牧場だった。	NO_PRONOUNCE	NO_LABEL
この牧場は根城南部氏が経営していたと考えられている。	このぼくじょーわねじろなんぶしがけいえいしていたとかんがえられている。	NO_LABEL
江戸時代になると八戸藩の二大牧場の一つとして、「妙野の牧」と言われていた。	NO_PRONOUNCE	NO_LABEL
字油久保、字市子林、字犬森、字内妙、字大開、字桶屋平、字蟹沢、字黒ケ沢、字坂中、字滝沢、字丹内、字西、字西平、字野場、字花生、字東、字藤蕪、字古戸、字分枝、字間山、字水上、字向野場、字西ノ平	じゆくぼ、じいちこりん、じいぬもり、じないみょー、じだいかい、じおけやひら、じかにさわ、じくろけさわ、じざかちゅー、じたきざわ、じたんない、じにし、じにしひら、じのば、じはないけ、じひがし、じふじかぶら、じふるど、じぶんばい、じまやま、じすいじょー、じむくのじょー、じにしのひら	NO_LABEL
2017年4月30日現在の世帯数と人口は以下の通りである。	にせんじゅうななねんしがつさんじゅうにちげんざいのせたいすーとじんこーわいかのとーりである。	NO_LABEL
妙村	みょーむら	NO_LABEL
大館村時代	おーだてむらじだい	NO_LABEL
八戸市合併後	はちのへしがっぺいご	NO_LABEL
