元町は、札幌市東区の一部を指す名称。	もとまちわ、さっぽろしひがしくのいちぶをさすめいしょー。	NO_LABEL
すでに公称町名としては消失しているが、駅や学校に用いられるなど、地区の名称として活用されている。	すでにこーしょーちょーめいとしてわしょーしつしているが、えきやがっこーにもちいられるなど、ちくのめいしょーとしてかつよーされている。	NO_LABEL
その開拓の古さから、札幌発祥の地と言われる。	そのかいたくのふるさから、さっぽろはっしょーのちといわれる。	NO_LABEL
1866年、大友亀太郎はこの地に農民20戸70人を入植させ、「元村」を作り上げた。	NO_PRONOUNCE	NO_LABEL
1870年、柏崎からの移住者22戸が「札幌新村」を形成。	NO_PRONOUNCE	NO_LABEL
翌1871年には元村と新村が合併して、ひとつの「札幌村」となった。	NO_PRONOUNCE	NO_LABEL
1910年、旧元村の一部が札幌区に編入されて「元村町」となる。	NO_PRONOUNCE	NO_LABEL
以後も地域の札幌市への編入は数度にわたり繰り返される。	いごもちいきのさっぽろしえのへんにゅーわすどーにわたりくりかえされる。	NO_LABEL
1955年、札幌村が札幌市と合併し、札幌市字元村は「元町」となる。	NO_PRONOUNCE	NO_LABEL
以降は漸次「北○条東○丁目」へと変更されていき、1981年2月2日をもって「元町」という町名は廃止される。	NO_PRONOUNCE	NO_LABEL
1988年12月2日、札幌市営地下鉄東豊線が開業し、元町駅が設置された。	せんきゅうひゃくはちじゅうはちねんじゅーにがつふつか、さっぽろしえいちかてつとーほーせんがかいぎょーし、もとまちえきがせっちされた。	NO_LABEL
