『不夜城Ⅱ 鎮魂歌』は、1997年の馳星周の小説。	NO_PRONOUNCE	NO_LABEL
前作『不夜城』にて恋人を殺して生き延びた劉健一の復讐を、裏社会で生きる二人の男を視点で描く。	NO_PRONOUNCE	NO_LABEL
第51回日本推理作家協会賞長編部門受賞作。	だいごじゅういっかいにほんすいりさっかきょーかいしょーちょーへんぶもんじゅしょーさく。	NO_LABEL
中国人マフィア同士の大抗争から2年が経過した。	ちゅーごくじんまふぃあどーしのだいこーそーからにねんがけいかした。	NO_LABEL
歌舞伎町の裏社会は香港マフィアの襲撃の痛手から立ち直った崔虎を中心にした北京マフィアと、トップ二人を同時に失いながらもNo.3の朱宏を中心にまとまった上海マフィアが縄張りを分け合う危ういバランスを保っていた。	NO_PRONOUNCE	NO_LABEL
そんな中、崔虎のもっとも信頼する部下である「四大天王」の一人、張 道明が兇手の襲撃を受け部下もろとも殺害される。	NO_PRONOUNCE	NO_LABEL
北京マフィアのボスである崔虎は張のアジトは「四大天王」以外には知りえないとして、裏切り者の洗い出しと下手人の捜索を元悪徳警官で現在は崔虎の使い走りをしている滝沢に命じた。	NO_PRONOUNCE	NO_LABEL
滝沢はジャーナリストの遠沢に張り込みと盗聴を依頼する一方、警官時代にも尻尾をつかませなかった劉 健一から情報を得ようとする。	たきざわわじゃーなりすとのえんざわにはりこみととーちょーをいらいするいっぽー、けいかんじだいにもしっぽをつかませなかったりゅーけんいちからじょーほーをえようとする。	NO_LABEL
一方で張を殺害した郭 秋生は、通常なら仕事を終えた後はすぐに帰国するところを朱宏の愛人である楽 家麗のボディーガードに充てられたことで、雇い主の楊 偉民の真意を訝しみ始める。	いっぽーでちょーをさつがいしたかくあきおわ、つーじょーならしごとをおえたのちわすぐにきこくするところをあけひろのあいじんであるらくかうららのぼでぃーがーどにあてられたことで、やといぬしのぱくいみんのしんいをいぶかしみはじめる。	NO_LABEL
　暗殺以外の権謀術数に疎い秋生もまた、情報を得るために劉 健一のもとを訪れるが…。	NO_PRONOUNCE	NO_LABEL
