カアサパ県は、パラグアイ南東部の県。	かあさぱけんわ、ぱらぐあいなんとーぶのけん。	NO_LABEL
県都は。	けんとわ。	NO_LABEL
2016年の人口は18万2039人で、18県中12位。	NO_PRONOUNCE	NO_LABEL
オレンジが特産品。	おれんじがとくさんひん。	NO_LABEL
東部は開発が少なく、熱帯雨林が残っている。	とーぶわかいはつがすくなく、ねったいうりんがのこっている。	NO_LABEL
北にYvytyrysy山脈が、南にサン・ラファエル山脈が聳える。	NO_PRONOUNCE	NO_LABEL
西部は沼地が広がり、東パラグアイ最大のが流れる。	せいぶわぬまちがひろがり、ひがしぱらぐあいさいだいのがながれる。	NO_LABEL
とを結ぶ高速道路より南の熱帯雨林に、多くの先住民社会が有る。	とをむすぶこーそくどーろよりみなみのねったいうりんに、おーくのせんじゅーみんしゃかいがある。	NO_LABEL
とは、森の中で玉蜀黍やキャッサバ、イェルバ・マテを栽培している。	とわ、もりのなかでとーもろこしやきゃっさば、いぇるばまてをさいばいしている。	NO_LABEL
彼らの土地は保護区に指定されているが、違法に伐採やブラジル人の大豆栽培がおこなわれている。	かれらのとちわほごくにしていされているが、いほーにばっさいやぶらじるじんのだいずさいばいがおこなわれている。	NO_LABEL
1607年、パラグアイで初めてフランシスコ会が訪れ、多くの町を建設した。	せんろっぴゃくななねん、ぱらぐあいではじめてふらんしすこかいがおとずれ、おーくのまちをけんせつした。	NO_LABEL
1786年、サン・ファン・ネポムセノが建設された。	NO_PRONOUNCE	NO_LABEL
19世紀、オーストラリア人が入植し、社会主義植民地を建設した。	じゅうきゅうせいき、おーすとらりあじんがにゅーしょくし、しゃかいしゅぎしょくみんちをけんせつした。	NO_LABEL
1906年、第6県に改名された。	NO_PRONOUNCE	NO_LABEL
1973年、カアサパ県に改名された。	せんきゅうひゃくななじゅうさんねん、かあさぱけんにかいめいされた。	NO_LABEL
最高気温は37℃、最低気温は1℃で、平均気温は21℃。	さいこーきおんわさんじゅうななどしー、さいていきおんわいちどしーで、へいきんきおんわにじゅういちどしー。	NO_LABEL
降水量が多い。	こーすいりょーがおーい。	NO_LABEL
