シュリンプ・スキャンピとは、海老を使ったアメリカ料理のひとつ。	しゅりんぷすきゃんぴとわ、えびをつかったあめりかりょーりのひとつ。	NO_LABEL
クルマエビなどの中大型の海老の頭胸部や殻を牛脂・豚脂等で炒めてうま味を出し、ニンニクやバターを加えて尾肉の部分を更に炒めて供する。	NO_PRONOUNCE	NO_LABEL
塩・コショウのほか、好みで赤ワインやバジル、オレガノなどのハーブ、トマトなどを加える。	しおこしょーのほか、このみであかわいんやばじる、おれがのなどのはーぶ、とまとなどをくわえる。	NO_LABEL
皿に盛る際には主食材として炊いた米や揚げたジャガイモなどを付け合せることもある。	さらにもるさいにわしゅしょくざいとしてたいたべいやあげたじゃがいもなどをつけあわせることもある。	NO_LABEL
「スキャンピ」とはイタリア語「スカンポ」の複数形で、元々はヨーロッパ北海周辺に生息するヨーロッパアカザエビのことを指す。	NO_PRONOUNCE	NO_LABEL
これがイギリスではアカザエビ類にパン粉や衣をまぶして炒め揚げした料理を指す名前となり、更にアメリカ合衆国ではザリガニ系統のアカザエビ類ではなく、クルマエビ類やテナガエビ類の総称である「シュリンプ」の範疇のエビをガーリックバターで炒めた料理を指す名前として用いられるようになった。	NO_PRONOUNCE	NO_LABEL
シュリンプ・スキャンピは、シーフードレストランチェーンレッドロブスターの人気メニューの一つであり、レッドロブスターがシュリンプ・スキャンピの普及に果たした役割は大きい。	しゅりんぷすきゃんぴわ、しーふーどれすとらんちぇーんれっどろぶすたーのにんきめにゅーのひとつであり、れっどろぶすたーがしゅりんぷすきゃんぴのふきゅーにはたしたやくわりわおーきい。	NO_LABEL
ハワイのオアフ島・ノースショアでは、地元で養殖されている淡水産のテナガエビ類を用いたシュリンプ・スキャンピの屋台が、サーファーや一般客に人気を博している。	NO_PRONOUNCE	NO_LABEL
アメリカ合衆国の一部の地域では、ガーリックバターと刻みトマトで作ったソースをかけた料理をもスキャンピと呼ぶことがある。	あめりかがっしゅーこくのいちぶのちいきでわ、がーりっくばたーときざみとまとでつくったそーすをかけたりょーりをもすきゃんぴとよぶことがある。	NO_LABEL
