『ASKA the BEST Selection 1988-1998』は、ASKAのベスト・アルバム。	NO_PRONOUNCE	NO_LABEL
1999年3月31日に発売された。	せんきゅうひゃくきゅうじゅうきゅうねんさんがつさんじゅういちにちにはつばいされた。	NO_LABEL
発売元は東芝EMI。	はつばいもとわとーしばいーえむあい。	NO_LABEL
2001年4月18日に再発売されている。	にせんいちねんしがつじゅうはちにちにさいはつばいされている。	NO_LABEL
初のベスト・アルバム。	はつのべすとあるばむ。	NO_LABEL
ソロデビューシングル「MY Mr.LONELY HEART」からアルバム『kicks』までの楽曲から14曲が選曲されている。	NO_PRONOUNCE	NO_LABEL
「止まった時計」はアコースティック・アレンジで新たに収録された。	NO_PRONOUNCE	NO_LABEL
テレビCMでは、ベスト・アルバムのタイトルコールの声をCHAGEが担当した。	てれびこんぴゅーたみゅーじっくまがじんでわ、べすとあるばむのたいとるこーるのこえをちゃげがたんとーした。	NO_LABEL
ブックレットには歌詞のほかに、"ASKA Secret History 1958-1979" として、生誕からチャゲ&飛鳥としてデビューするまでの生い立ちが書かれている。	NO_PRONOUNCE	NO_LABEL
