自衛隊兵庫地方協力本部は、兵庫県神戸市中央区脇浜海岸通1-4-3神戸防災合同庁舎4階に所在する、自衛隊地方協力本部のひとつ。	NO_PRONOUNCE	NO_LABEL
陸・海・空自衛隊共同の機関だが、通常は陸上自衛隊の中部方面総監の指揮監督下にある。	NO_PRONOUNCE	NO_LABEL
管轄する地域における防衛省・自衛隊の総合窓口として兵庫県管内で活動する。	NO_PRONOUNCE	NO_LABEL
