李 明載は、大韓民国ソウル特別市出身のプロサッカー選手。	りあきらのわ、だいかんみんこくそーるとくべつししゅっしんのぷろさっかーせんしゅ。	NO_LABEL
ポジションは、ディフェンダー。	ぽじしょんわ、でぃふぇんだー。	NO_LABEL
2014年より、弘益大学校から蔚山現代FCへ自由選抜選手で入団。	にせんじゅうよねんより、ひろえきだいがっこーからうるさんひょんでえふしーえじゆーせんばつせんしゅでにゅーだん。	NO_LABEL
3月23日、第3節の仁川ユナイテッドFC戦でプロデビューを果たした。	さんがつにじゅうさんにち、だいさんせつのいんちょんゆないてっどえふしーせんでぷろでびゅーをはたした。	NO_LABEL
同年6月、日本のJリーグ・アルビレックス新潟へ期限付き移籍。	NO_PRONOUNCE	NO_LABEL
2||0||colspan="2"|-||1||0||3||0	NO_PRONOUNCE	NO_LABEL
5||0||colspan="2"|-||0||0||5||0	NO_PRONOUNCE	NO_LABEL
7||0||colspan="2"|-||1||0||8||0	NO_PRONOUNCE	NO_LABEL
!通算!!colspan="2"|AFC	NO_PRONOUNCE	NO_LABEL
