井関 勇人(いせきはやと、1971年 - ）は、テレビ東京制作局CP制作チームのプロデューサー。	NO_PRONOUNCE	NO_LABEL
大阪府立池田高校、関西大学商学部卒業後、1993年テレビ東京に入社。	おーさかふりついけだこーこー、かんさいだいがくしょーがくぶそつぎょーご、せんきゅうひゃくきゅうじゅうさんねんてれびとーきょーににゅーしゃ。	NO_LABEL
営業局、制作局CP制作チーム、チーフプロデューサー、編成局編成部を経て、2003年には、ディレクターとして「田舎に泊まろう!スペシャル」で日本民間放送連盟賞テレビエンターテインメント部門優秀賞を受賞。	NO_PRONOUNCE	NO_LABEL
2013年8月頃から現職。	にせんじゅうさんねんはちがつごろからげんしょく。	NO_LABEL
ドキュメンタリーからバラエティ、音楽・歌謡番組、ドラマに至るまで幅広いジャンルを手がける「人情派」プロデューサーとして知られている。	NO_PRONOUNCE	NO_LABEL
プロデューサーとして手掛けた「イツザイ」「イツザイS」では、2009年にNHKの若者番組「パフォー!」と、2010年にはフジテレビのバラエティ番組「めちゃ×2イケてるッ!」とコラボレーション番組を行うなど、局の垣根を越えた取り組みにもかかわっている。	NO_PRONOUNCE	NO_LABEL
