中川 イサト、1947年1月30日 - ）は、日本のギタリスト、シンガーソングライター。	NO_PRONOUNCE	NO_LABEL
日本におけるフィンガーピッカーの草分けの一人。	にっぽんにおけるふぃんがーぴっかーのくさわけのひとり。	NO_LABEL
五つの赤い風船で、西岡たかし、長野たかし、藤原秀子らとともに活動。	いつつのあかいふーせんで、にしおかたかし、ながのたかし、ふじわらひでこらとともにかつどー。	NO_LABEL
解散後、金延幸子、瀬尾一三、松田幸一らと愚を結成した。	かいさんご、かねのぶさちこ、せおいちぞー、まつだこーいちらとぐをけっせいした。	NO_LABEL
村上律と中川イサトというフォークデュオでアルバムをリリース。	むらかみりつとなかがわいさととゆうふぉーくでゅおであるばむをりりーす。	NO_LABEL
シンガーソングライターとしては、『1970年』『お茶の時間』『黄昏気分』をリリース。	NO_PRONOUNCE	NO_LABEL
『1310』を皮切りにアコースティックギターのインストゥルメンタル作品の発表、コンサートも行っている。	NO_PRONOUNCE	NO_LABEL
1975年の中川イサト名義のオムニバスライヴ『鼻歌とお月さん』では、いとうたかお、大塚まさじ、加川良、金森幸介、シバ、西岡恭蔵をボーカルに迎えている。	NO_PRONOUNCE	NO_LABEL
泉谷しげる、西岡たかし名義のアルバムでも両者の味を引き出している。	いずみやしげる、にしおかたかしめいぎのあるばむでもりょーしゃのあじをひきだしている。	NO_LABEL
その他、参加アルバム多数。	そのた、さんかあるばむたすー。	NO_LABEL
近年はフィンガーピッカーとしての活動が主体であり、嘉門達夫、押尾コータロー、岸部眞明、ゴンチチらの後進の活動を後押しし、また代田幸子ら若手のミュージシャンとの共演にも意欲的に取り組んでいる。	きんねんわふぃんがーぴっかーとしてのかつどーがしゅたいであり、かもんたつお、おしおこーたろー、きしべまさあき、ごんちちらのこーしんのかつどーをあとおしし、またしろたさちこらわかてのみゅーじしゃんとのきょーえんにもいよくてきにとりくんでいる。	NO_LABEL
