ズーラシアンブラスは、よこはま動物園ズーラシアのマスコットキャラクターとして、園内で演奏を始めた金管五重奏の楽団。	ずーらしあんぶらすわ、よこわまどーぶつえんずーらしあのますこっときゃらくたーとして、えんないでえんそーをはじめたきんかんごじゅうそーのがくだん。	NO_LABEL
指揮者も含め全員が、ズーラシアで飼育されている希少動物に扮している。	しきしゃもふくめぜんいんが、ずーらしあでしいくされているきしょーどーぶつにふんしている。	NO_LABEL
『音楽の絵本〜親子のためのクラシックコンサート』と題した演奏会を行う際は、会場の規模等にあわせて弦楽器、打楽器、ピアノなどが加わった様々な編成をとる。	NO_PRONOUNCE	NO_LABEL
通常のクラシックコンサートと同様、男性の演奏者は黒のタキシード、女性は華やかなドレスを着用しているが、全員が動物のかぶり物をしている。	つーじょーのくらしっくこんさーととどーよー、だんせいのえんそーしゃわくろのたきしーど、じょせいわはなやかなどれすをちゃくよーしているが、ぜんいんがどーぶつのかぶりぶつをしている。	NO_LABEL
児童劇やキャラクターショーの側面も持つが、子どもに寄っては逆に大きな動物を怖がり逃げ出してしまう場合もある。	じどーげきやきゃらくたーしょーのそくめんももつが、こどもによってわぎゃくにおーきなどーぶつをこわがりにげだしてしまうばあいもある。	NO_LABEL
かぶり物のおかげで演奏者は大胆な演技が可能となり、また、複数の演奏者が分担出演できるため公演日程を組みやすいという利点もある。	かぶりぶつのおかげでえんそーしゃわだいたんなえんぎがかのーとなり、また、ふくすーのえんそーしゃがぶんたんしゅつえんできるためこーえんにっていをくみやすいとゆうりてんもある。	NO_LABEL
オフィシャルサイトには目立たない場所に「音楽の絵本　制作スタッフ」として、すべての演奏者の氏名、最終学歴、受賞歴、現在の所属などが記載されている。	NO_PRONOUNCE	NO_LABEL
多くの公演で0歳から入場可能で、客席の照明も完全には落とさない。	おーくのこーえんでぜろさいからにゅーじょーかのーで、きゃくせきのしょーめいもかんぜんにわおとさない。	NO_LABEL
周囲に迷惑となるほど泣き止まない場合の途中退出やオムツ交換、座っていられない子どもが歩き出すこと、などを想定している。	しゅーいにめいわくとなるほどなきやまないばあいのとちゅーたいしゅつやおむつこーかん、すわっていられないこどもがあるきだすこと、などをそーていしている。	NO_LABEL
パイプオルガンの入った公演や、お友達プレーヤー公演など一部の公演では、4歳以上可、未就学児不可、といった年齢制限を設けている。	ぱいぷおるがんのはいったこーえんや、おともだちぷれーやーこーえんなどいちぶのこーえんでわ、よんさいいじょーか、みしゅーがくじふか、といったねんれいせいげんをもーけている。	NO_LABEL
子どもの集中力を持続させる工夫もなされており、唯一言葉を発する司会者と指揮者・演奏者の間ではパントマイムが交わされ、演奏中にも見ていて楽しくなる演出がある。	NO_PRONOUNCE	NO_LABEL
客席登場といったサプライズも用意されている。	きゃくせきとーじょーといったさぷらいずもよーいされている。	NO_LABEL
プログラム中には、中盤に敢えて飽きさせる曲も入れてあり、親子がともに楽しめるコンサートをめざしている。	ぷろぐらむちゅーにわ、ちゅーばんにあえてあきさせるきょくもいれてあり、おやこがともにたのしめるこんさーとをめざしている。	NO_LABEL
演奏曲はクラシックの名曲が中心ではあるが、童謡、アニメ曲、ディズニー曲、マンボなどラテン曲も独自のアレンジを加えている。	えんそーきょくわくらしっくのめいきょくがちゅーしんでわあるが、どーよー、あにめきょく、でぃずにーきょく、まんぼなどらてんきょくもどくじのあれんじをくわえている。	NO_LABEL
楽譜も販売されており、アマチュア・オーケストラ、サークル、小中高校の部活動などで活用されている。	がくふもはんばいされており、あまちゅあおーけすとら、さーくる、こなかこーこーのぶかつどーなどでかつよーされている。	NO_LABEL
詳細は公式サイト内の「音楽の絵本とは…」を参照。	NO_PRONOUNCE	NO_LABEL
クラシック音楽における絵本のような役割を果たしたい、と考え制作された、親子のための本格的クラシックコンサート。	くらしっくおんがくにおけるえほんのよーなやくわりをはたしたい、とかんがえせいさくされた、おやこのためのほんかくてきくらしっくこんさーと。	NO_LABEL
0歳から入場でき、3歳未満の席を要しない子どもは入場無料のことが多い。	ぜろさいからにゅーじょーでき、さんさいみまんのせきをよーしないこどもわにゅーじょーむりょーのことがおーい。	NO_LABEL
株式会社スーパー・キッズの登録商標。	NO_PRONOUNCE	NO_LABEL
「ズーラシアンブラス」には指揮者とドラムが含まれ、最大編成は9名で、7名、7名、6名、2名のバリエーションがある。	NO_PRONOUNCE	NO_LABEL
東京オペラシティコンサートホール、オーチャードホール、サントリーホール、東京芸術劇場コンサートホール、東京文化会館	とーきょーおぺらしてぃこんさーとほーる、おーちゃーどほーる、さんとりーほーる、とーきょーげいじゅつげきじょーこんさーとほーる、とーきょーぶんかかいかん	NO_LABEL
所沢市民文化センター ミューズ、ミューザ川崎シンフォニーホール、グリーンホール相模大野、神奈川県民ホール、愛知県芸術劇場、パルテノン多摩、府中の森芸術劇場、江戸川区総合文化センター、など	ところざわしみんぶんかせんたーみゅーず、みゅーざかわさきしんふぉにーほーる、ぐりーんほーるさがみおーの、かながわけんみんほーる、あいちけんげいじゅつげきじょー、ぱるてのんたま、ふちゅーのもりげいじゅつげきじょ、えどがわくそーごーぶんかせんたー、など	NO_LABEL
スイート・ベイジル、STB139	NO_PRONOUNCE	NO_LABEL
マカオカルチャーセンター、新舞台	まかおかるちゃーせんたー、しんぶたい	NO_LABEL
ズーラシアンブラスファンクラブは、2010年4月発足の入会金・会費無料のファンクラブ。	NO_PRONOUNCE	NO_LABEL
チケットの優先予約、会員限定コンサートへの参加ができる。	ちけっとのゆーせんよやく、かいーんげんていこんさーとえのさんかができる。	NO_LABEL
年に一度会報が発行されている。	としにいちどかいほーがはっこーされている。	NO_LABEL
2012年7月、ゴールド会員発足。	にせんじゅうにねんしちがつ、ごーるどかいいんほっそく。	NO_LABEL
一般会員が、申込書にズーラシアンフィルハーモニー管弦楽団のCD1枚を含むズーラシアンブラスまたは仲間達のCD5枚分のバーコードを添えて申し込むと入会可能。	いっぱんかいいんが、もーしこみしょにずーらしあんふぃるはーもにーかんげんがくだんのきゃっしゅでぃすぺんさーいちまいをふくむずーらしあんぶらすまたわなかまたちのきゃっしゅでぃすぺんさーごまいぶんのばーこーどをそえてもーしこむとにゅーかいかのー。	NO_LABEL
一般会員同様に入会金・会費は無料。	NO_PRONOUNCE	NO_LABEL
オカピの金の徽章が送られ、ゴールド会員限定コンサートへの参加、割引価格でのグッズ購入、記念撮影権などの特典がある。	おかぴのきんのきしょーがおくられ、ごーるどかいーんげんていこんさーとえのさんか、わりびきかかくでのぐっずこーにゅー、きねんさつえいけんなどのとくてんがある。	NO_LABEL
楽譜品番との対応は公式サイト内の「株式会社スーパーキッズレコード　CD収録曲楽譜」を参照。	NO_PRONOUNCE	NO_LABEL
