『そして誰もいなくなった』は、1939年に刊行されたアガサ・クリスティの長編推理小説である。	NO_PRONOUNCE	NO_LABEL
日本語初訳は『死人島』。	NO_PRONOUNCE	NO_LABEL
孤島から出られなくなった10人が1人ずつ殺されていくというであると同時に「童謡殺人」の代表的作品とも評される。	NO_PRONOUNCE	NO_LABEL
イギリスで新聞連載、アメリカで雑誌連載の後、1939年11月6日にイギリスのコリンズ社「クライム・クラブ」より ""Ten Little Niggers""、翌年1月にアメリカのドッド・ミード社「レッド・バッジ・ミステリー」より ""And Then There Were None"" として刊行された。	NO_PRONOUNCE	NO_LABEL
全世界で1億部以上を売り上げ、評価はクリスティ作品中でも特に高く、代表作に挙げられることが多い。	ぜんせかいでいちおくぶいじょーをうりあげ、ひょーかわくりすてぃさくひんちゅーでもとくにたかく、だいひょーさくにあげられることがおーい。	NO_LABEL
作者自身により戯曲化されている。	さくしゃじしんによりぎきょくかされている。	NO_LABEL
また、ルネ・クレール監督の映画を初めとして、多数の映画化作品や舞台化作品、テレビドラマ化作品がある。	また、るねくれーるかんとくのえいがをはじめとして、たすーのえいがかさくひんやぶたいかさくひん、てれびどらまかさくひんがある。	NO_LABEL
イギリス、デヴォン州のインディアン島に、年齢も職業も異なる8人の男女が招かれた。	NO_PRONOUNCE	NO_LABEL
2人の召使が出迎えたが、招待状の差出人でこの島の主でもあるU・N・オーエンは、姿を現さないままだった。	NO_PRONOUNCE	NO_LABEL
やがてその招待状は虚偽のものであることがわかった。	やがてそのしょーたいじょーわきょぎのものであることがわかった。	NO_LABEL
不安に包まれた晩餐のさなか、彼らの過去の罪を告発する謎の声が響き渡った。	ふあんにつつまれたばんさんのさなか、かれらのかこのつみをこくはつするなぞのこえがひびきわたった。	NO_LABEL
告発された罪は事故とも事件ともつかないものだった。	こくはつされたつみわじこともじけんともつかないものだった。	NO_LABEL
その声は蓄音機からのものとすぐに知れるのだが、その直後に生意気な青年が毒薬により死亡する。	そのこえわちくおんきからのものとすぐにしれるのだが、そのちょくごになまいきなせいねんがどくやくによりしぼーする。	NO_LABEL
さらに翌朝には召使の女性が死んでしまう。	さらによくあさにわめしつかいのじょせいがしんでしまう。	NO_LABEL
残された者は、それが童謡「10人のインディアン」を連想させる死に方であること、また10個あったインディアン人形が8個に減っていることに気づく。	NO_PRONOUNCE	NO_LABEL
その上、迎えの船が来なくなったため、残された8人は島から出ることができなくなり、完全な孤立状態となってしまう。	そのうえ、むかえのふねがこなくなったため、のこされたはちにんわしまからでることができなくなり、かんぜんなこりつじょーたいとなってしまう。	NO_LABEL
さらに老将軍の撲殺された死体が発見され、人形もまた1つ減っているのを確認するに至り、皆はこれは自分たちを殺すための招待であり、犯人は島に残された7人の中の誰かなのだ、と確信する。	さらにろーしょーぐんのぼくさつされたしたいがはっけんされ、にんぎょーもまたひとつへっているのをかくにんするにいたり、みなわこれわじぶんたちをころすためのしょーたいであり、はんにんわしまにのこされたしちにんのなかのだれかなのだ、とかくしんする。	NO_LABEL
誰が犯人かわからない疑心暗鬼の中で、召使・老婦人・元判事・医師が死体となり、人形も減っていく。	NO_PRONOUNCE	NO_LABEL
そして、残された3人のうち2人が死に、最後の1人も犯人がわからないまま精神的に追いつめられて自殺、そして誰もいなくなった。	そして、のこされたさんにんのうちふたりがしに、さいごのひとりもはんにんがわからないまませいしんてきにおいつめられてじさつ、そしてだれもいなくなった。	NO_LABEL
後日、救難信号に気がついたボーイスカウトから連絡を受けた救助隊が、島で10人の死体を発見し、事件の発生が明らかとなる。	ごじつ、きゅーなんしんごーにきがついたぼーいすかうとかられんらくをうけたきゅーじょたいが、しまでじゅうにんのしたいをはっけんし、じけんのはっせいがあきらかとなる。	NO_LABEL
事件を担当するロンドン警視庁は、被害者達が残した日記やメモ、そして死体の状況などから、事件の経緯、大まかな流れをつかむ。	じけんをたんとーするろんどんけいしちょーわ、ひがいしゃたちがのこしたにっきやめも、そしてしたいのじょーきょーなどから、じけんのけいい、おーまかなながれをつかむ。	NO_LABEL
そして、当時の島の状況から、犯人が10人の中にいると考えると矛盾が生じるため11人目がいたと推理するが、それが何者で島のどこに潜んでいてどこに消えてしまったのかまではわからない。	そして、とーじのしまのじょーきょーから、はんにんがじゅうにんのなかにいるとかんがえるとむじゅんがしょーじるためじゅういちにんめがいたとすいりするが、それがなにものでしまのどこにひそんでいてどこにきえてしまったのかまでわわからない。	NO_LABEL
しかし、ある漁師がボトルに入った手紙を見つけることですべての謎が解明する。	しかし、あるりょーしがぼとるにはいったてがみをみつけることですべてのなぞがかいめいする。	NO_LABEL
ボトルの中の手紙は真犯人による告白文であった。	ぼとるのなかのてがみわしんはんにんによるこくはくぶんであった。	NO_LABEL
真犯人は被害者の1人と思われた招待客の1人、ローレンス・ウォーグレイヴ判事であり、事件で不明だった犯行方法・犯行動機などすべての謎に対する真相をボトルの中の手紙に記していた。	NO_PRONOUNCE	NO_LABEL
ウォーグレイヴ判事は幼少より生物を殺すことに快楽を感じる性質を持っていたが、同時に正義感や罪なき人間を傷付けることへの抵抗感も強かったため、判事として罪人に死刑を言い渡すという迂遠な手段で殺人願望を満たしていた。	NO_PRONOUNCE	NO_LABEL
しかし、病を患ったことを機に自らの手で人を殺したいという欲望を抑えきれなくなったウォーグレイヴ判事は、欲望を満たしかつ正義を行えることとして、法律では裁かれなかった殺人を犯した9人の人間を集めて、1人ずつ殺していく計画を実行したのである。	NO_PRONOUNCE	NO_LABEL
ウォーグレイヴ判事は作中で殺害されることになるが、それは巧妙な偽装死であり、すべてが終わった後に告白文を書き、海に流して本当に自殺した。	NO_PRONOUNCE	NO_LABEL
真犯人が最後のページで死ぬことを語ることによって『そして誰もいなくなった』はその名の通り幕を閉じる。	NO_PRONOUNCE	NO_LABEL
本作はクローズド・サークルの代表作としてよく挙げられる。	もとさくわくろーずどさーくるのだいひょーさくとしてよくあげられる。	NO_LABEL
また、同じくクリスティの代表作である『アクロイド殺し』のように叙述トリックの要素が用いられている。	NO_PRONOUNCE	NO_LABEL
本作は第三者視点で描かれ、さらに登場人物の心中も直接明らかにされるが、この中で犯人の描写は、巧妙な文章によって読者が誤解を招くように表現されている。	もとさくわだいさんしゃしてんでえがかれ、さらにとーじょーじんぶつのしんじゅーもちょくせつあきらかにされるが、このなかではんにんのびょーしゃわ、こーみょーなぶんしょーによってどくしゃがごかいをまねくよーにひょーげんされている。	NO_LABEL
最後にウォーグレイヴ判事が挙げる3つのヒントの1つ燻製にしんには、「人の気をそらすもの」という意味がある。	NO_PRONOUNCE	NO_LABEL
すなわち、アームストロング医師は誰かに欺かれたという意味を持つ。	すなわち、あーむすとろんぐいしわだれかにあざむかれたとゆういみをもつ。	NO_LABEL
また、同じくヒントの1つ「」とは、旧約聖書に登場する「カインとアベル」のカインが、神に付けられた印のことである。	NO_PRONOUNCE	NO_LABEL
これは神が、カインが誰からも殺されないように付けたものであり、ウォーグレイヴ判事は誰からも殺されていないという意味である。	NO_PRONOUNCE	NO_LABEL
登場する童謡はマザーグースの1つとして分類されるが、大元の "Ten Little Niggers" はイギリス人のフランク・グリーンが1869年に作った作品であり、 "Ten Little Indians" はアメリカ人のセプティマス・ウィナーの作詞・作曲による1868年の作品 "Ten Little Injuns"に由来し、それぞれの童謡の作者が明らかなため厳密にはマザーグースではないという見方もある。	NO_PRONOUNCE	NO_LABEL
1939年の発表当時の原題は "Ten Little Niggers"であった。	NO_PRONOUNCE	NO_LABEL
これは作中に登場する童謡を暗示したものである。	これわさくちゅーにとーじょーするどーよーをあんじしたものである。	NO_LABEL
しかし、niggerは、アフリカ系アメリカ人に対する差別用語であったため、米版では "And Then There Were None"と改題して発行された。	NO_PRONOUNCE	NO_LABEL
後に英版も "And Then There Were None" と改題される。	NO_PRONOUNCE	NO_LABEL
なお "And Then There Were None" とは、鍵となる童謡の歌詞の最後の一文である。	NO_PRONOUNCE	NO_LABEL
また米版は発行にあたって、話の鍵となる童謡 "Ten Little Niggers" も "Ten Little Indians"に改編されており、中身も黒人の少年からインディアンの少年に改編されている。	NO_PRONOUNCE	NO_LABEL
同様に舞台となる島の名前も "Nigger Island"から "Indian Island"へと変更された。	NO_PRONOUNCE	NO_LABEL
それに合わせて、タイトルも "Ten Little Indians" としたものが発行され、映像化もされた。	NO_PRONOUNCE	NO_LABEL
なお、日本の清水俊二訳クリスティー文庫版では米版に準じており、歌の名前は「10人のインディアン」であり、島の名前もインディアン島である。	NO_PRONOUNCE	NO_LABEL
また、インディアンも差別用語であるとして、近年、英米で発行されている物は童謡が "Ten Little Soldiers"と改編されている物もある。	NO_PRONOUNCE	NO_LABEL
日本においても2010年発行の青木久恵訳クリスティー文庫版では島名は兵隊島、インディアンは小さな兵隊さん、インディアン人形は兵隊人形へと変更されている。	にっぽんにおいてもにせんじゅうねんはっこーのあおきひさえやくくりすてぃーぶんこばんでわしまなわへいたいとー、いんでぃあんわちーさなへいたいさん、いんでぃあんにんぎょーわへいたいにんぎょーえとへんこーされている。	NO_LABEL
童謡には歌詞が2通りあり、1つは「首を吊る」で、もう1つは「結婚する」となっている。	NO_PRONOUNCE	NO_LABEL
クリスティはこれを利用して、自身が手がけた戯曲では小説と異なり生存者が存在する結末になっている。	くりすてぃわこれをりよーして、じしんがてがけたぎきょくでわしょーせつとことなりせいぞんしゃがそんざいするけつまつになっている。	NO_LABEL
舞台で登場人物すべてを殺すのはまずいとの配慮で結末が変更されたとされている。	ぶたいでとーじょーじんぶつすべてをころすのわまずいとのはいりょでけつまつがへんこーされたとされている。	NO_LABEL
映像化された作品も戯曲版を基にしている。	えいぞーかされたさくひんもぎきょくばんをもとにしている。	NO_LABEL
戯曲では最後に残ったヴェラに対して首吊りロープを準備したウォーグレイヴが登場し、事件の中で惹かれ合うようになったロンバードを疑心暗鬼の末に殺害した罪悪感を盾にヴェラに自殺を促すが、実はヴェラはロンバードを殺すことができず、愛し合うヴェラとロンバードを見て、ウォーグレイヴは計画の失敗を悟って自決するストーリーになる。	NO_PRONOUNCE	NO_LABEL
初訳は『死人島』という邦題で1939年に雑誌『スタア』に連載されたものである。	NO_PRONOUNCE	NO_LABEL
上記の改訳版	じょーきのかいやくばん	NO_LABEL
映像化は小説ではなく戯曲のほうをベースにしたものがほとんどである。	えいぞーかわしょーせつでわなくぎきょくのほーをべーすにしたものがほとんどである。	NO_LABEL
舞台･筋書き･登場人物が変更された作品もある。	NO_PRONOUNCE	NO_LABEL
2015年英国のテレビドラマで、BBC Oneで2015年12月26日から28日に放送された。	にせんじゅうごねんえいこくのてれびどらまで、びーびーしーわんでにせんじゅうごねんじゅーにがつにじゅうろくにちからにじゅうはちにちにほーそーされた。	NO_LABEL
『そして誰もいなくなった』のタイトルで、NHK BSプレミアムで2016年11月27日21:00 - 21:56・12月4日21:00 - 21:55・12月11日21:00 - 21:57 に放送された。	NO_PRONOUNCE	NO_LABEL
また、2018年4月14日17:00 - 18:00・4月21日17:00 - 17:55・4月28日17:00 - 18:00 に再放送された。	NO_PRONOUNCE	NO_LABEL
テレビ朝日系列にて2017年3月25日21:00 - 23:06・26日21:00 - 23:10に『二夜連続ドラマスペシャル アガサ・クリスティ そして誰もいなくなった』のタイトルで放送された。	NO_PRONOUNCE	NO_LABEL
視聴率は、第一夜15.7パーセント、第二夜13.1パーセントと2夜連続で高視聴率を記録した。	しちょーりつわ、だいいちやじゅうごてんななぱーせんと、だいにやじゅうさんてんいちぱーせんととにやれんぞくでこーしちょーりつをきろくした。	NO_LABEL
本ドラマで登場した相国寺竜也などのキャラクターは、同じくアガサ・クリスティ原作ドラマの『パディントン発4時50分～寝台特急殺人事件～』と『女優殺人事件～鏡は横にひび割れて～』（2018年3月25日)にも登場する。	NO_PRONOUNCE	NO_LABEL
本作に影響を受けた主な作品を、以下に年代順に記述する。	もとさくにえいきょーをうけたおもなさくひんを、いかにねんだいじゅんにきじゅつする。	NO_LABEL
