『まんが家デビュー物語DS 〜あこがれ!まんが家育成ゲーム〜』は、TDKコアから2005年11月10日に発売されたニンテンドーDS用ゲームソフト。	NO_PRONOUNCE	NO_LABEL
主人公は漫画家を目指す中学生となって漫画を描くために必要な知識や技術を身に着け3年間を過ごしてゆく。	しゅじんこーわまんがかをめざすちゅーがくせいとなってまんがをえがくためにひつよーなちしきやぎじゅつをみにつけさんねんかんをすごしてゆく。	NO_LABEL
エンディングは6種類以上ある。	えんでぃんぐわろくしゅるいいじょーある。	NO_LABEL
