叙爵とは、	じょしゃくとわ、	NO_LABEL
を指す。	をさす。	NO_LABEL
六位以下あるいは無位の人物が貴族として認められる従五位下に叙せられることは、古代・中世の朝廷では栄誉なこととされ、従五位下のことを栄爵と呼ぶようになり、後に叙爵と栄爵は同じ様な意味として用いられるようになった。	NO_PRONOUNCE	NO_LABEL
もっとも、12世紀に入って家格と家職が固定されるようになると、六位の諸大夫・地下人・侍の中には五位に上がることで官位相当制に基づいて官職を失うことの方を恐れるようになり、年労や巡爵によって五位に上がれる機会を得ても叙留が得られない場合には却って叙爵されないように働きかけるようになった。	NO_PRONOUNCE	NO_LABEL
毎年、寺院ないし宮司に1人分の叙爵権を付与し、寺院及び宮司は叙爵希望者より叙料を納めさせることで、従五位下に叙爵させることができるとされた。	まいとし、じいんないしぐーじにひとりぶんのじょしゃくけんをふよし、じいんおよびぐーじわじょしゃくきぼーしゃよりじょりょーをおさめさせることで、じゅうごいのげにじょしゃくさせることができるとされた。	NO_LABEL
当該制度は平安時代初期にはじまったとされる。	とーがいせいどわへいあんじだいしょきにはじまったとされる。	NO_LABEL
また、成功によって叙爵を受ける場合もあったが、これもあらかじめ成功宣旨を受けるなどの手続上の違いがあるものの、基本的には同一のものである。	また、せいこーによってじょしゃくをうけるばあいもあったが、これもあらかじめせいこーせんじをうけるなどのてつずきじょーのちがいがあるものの、きほんてきにわどーいつのものである。	NO_LABEL
院や三宮に対して叙料を納めさせる代わりに叙爵する年爵と同じく売位によるものであったが、平安時代末期から鎌倉時代にかけて栄爵・成功による昇叙が盛んとなった。	NO_PRONOUNCE	NO_LABEL
叙爵申請者が栄爵に際して納める費用を栄爵料、叙爵料といい、その額については、万寿2年の『左経記』には700石を定法とすることがみられ、弘安10年には諸国権守と同様に、最高額の1500疋と定められた。	NO_PRONOUNCE	NO_LABEL
後世において、栄誉ある地位や爵位のこと、あるいは地位の高い爵位の異称として栄爵の語が用いられたり、爵位を授与されることを叙爵と称するのはその名残である。	こーせいにおいて、えいよあるちいやしゃくいのこと、あるいわちいのたかいしゃくいのいしょーとしてえいしゃくのかたりがもちいられたり、しゃくいをじゅよされることをじょしゃくとしょーするのわそのなごりである。	NO_LABEL
明治政府では、明治17年7月7日に華族に「栄爵」を与える詔勅があり、「叙任」と題して新しく公爵・侯爵・伯爵・子爵の爵位を得た華族や維新の功臣の名簿が公布された	NO_PRONOUNCE	NO_LABEL
