ベラ・ソーン（英語: Bella Thorne、本名: アナベラ・エイブリー・ソーン 、1997年10月8日 - ) は、アメリカ合衆国の女優、歌手、モデル、ダンサー。	NO_PRONOUNCE	NO_LABEL
身長168cm	しんちょーひゃくろくじゅうはちせんちめーとる	NO_LABEL
1997年10月8日、アメリカ合衆国の東南部にあるフロリダ半島の東海岸沿いの都市であるペンブロークパインズ市でキューバ系、イタリア系及びアイルランド系の血を引く両親の間で生まれた。	せんきゅうひゃくきゅうじゅうななじゅーがつようか、あめりかがっしゅーこくのとうなんぶにあるふろりだはんとーのひがしかいがんぞいのとしであるぺんぶろーくぱいんずしできゅーばけい、いたりあけいおよびあいるらんどけいのちをひくりょーしんのまでうまれた。	NO_LABEL
スペイン語が日常的に聞こえる家庭であった。	すぺいんごがにちじょーてきにきこえるかていであった。	NO_LABEL
そのためスペイン語が母語であった。	そのためすぺいんごがぼごであった。	NO_LABEL
末っ子であり、上に3人の姉と兄がいる、長女カイリ、次女ダニー、そして長男レミーである。	すえっこであり、うえにさんにんのあねとあにがいる、ちょーじょかいり、じじょだにー、そしてちょーなんれみーである。	NO_LABEL
いずれも女優･俳優およびモデルである。	NO_PRONOUNCE	NO_LABEL
 ソーンは、幼少期よりとてもダンスとサッカーが好きな子であった。	そーんわ、よーしょーきよりとてもだんすとさっかーがすきなこであった。	NO_LABEL
2006年始めには一家でカリフォルニア州に移った。	にせんろくねんはじめにわいっかでかりふぉるにあしゅーにうつった。	NO_LABEL
ソーンは、公立学校に通っていたが、勉強が苦手であり、なおかつ、いじめをうけたこともあって、その後は主に自宅学習であった。	そーんわ、こーりつがっこーにかよっていたが、べんきょーがにがてであり、なおかつ、いじめをうけたこともあって、そのごわおもにじたくがくしゅーであった。	NO_LABEL
父親は、2007年に、自動車事故により死亡した。	ちちおやわ、にせんななねんに、じどーしゃじこによりしぼーした。	NO_LABEL
2003年クレジット無しではあるが、映画『ふたりにクギづけ』に初出演した。	NO_PRONOUNCE	NO_LABEL
その後は2006年『ジミー・キンメル・ライブ!』、『アントラージュ★オレたちのハリウッド』、2007年『ダーティ・セクシー・マネー』で注目されるようになり、テレビ・シリーズ『The O.C.』に出演し、若き日のテイラー･タウンゼント役を演じた。	NO_PRONOUNCE	NO_LABEL
これにより、ヤング・アーティスト・アワードにノミネートされた。	NO_PRONOUNCE	NO_LABEL
2008年、『ホームタウン 〜僕らの再会〜に出演』、同年、NBC製作のテレビ・シリーズ "" において、ルーシー･スパイビー役を演じた。	NO_PRONOUNCE	NO_LABEL
これによりヤング・アーティスト・アワードを受賞した。	NO_PRONOUNCE	NO_LABEL
2009年、ドラマシリーズ『』ではエミリー役を演じた。	NO_PRONOUNCE	NO_LABEL
これにより、再度2010年ヤング・アーティスト・アワードにノミネートされレッドカーペットに登場。	NO_PRONOUNCE	NO_LABEL
『ビッグ・ラブ』で準レギュラー出演をしてトレイシー役を演じた。	NO_PRONOUNCE	NO_LABEL
200年11月、ディズニー・チャンネル新コメディドラマ『ダンス・ダンス・シカゴ』、番組名変更後の『シェキラ!』のオーディションを受け、その表現力、演技力が高く評価され主役のシーシーに抜擢される。	NO_PRONOUNCE	NO_LABEL
2010年ダンスと友情がテーマのコメディドラマシリーズ『シェキラ!』のダンス好き少女シーシー役で人気が出る。	NO_PRONOUNCE	NO_LABEL
11月7日に全米で初放送され620万人が視聴し過去27年間のディズニー・チャンネルの初回放送の中で最も多い視聴者を記録した。	じゅーいちがつなのかにぜんべいではつほーそーされろっぴゃくにじゅうまんにんがしちょーしかこにじゅうななねんかんのでぃずにーちゃんねるのしょかいほうそーのなかでもっともおーいしちょーしゃをきろくした。	NO_LABEL
その他、同放送『ウェイバリー通りのウィザードたち』、『シェキラ!』とのクロスオーバーエピソード『グッドラック・チャーリー』にシーシー役で出演し、2011年、再びヤング・アーティスト・アワードを受賞した。	NO_PRONOUNCE	NO_LABEL
同年5月ディズニー・チャンネル放送番組の出演者が4つのチームに別れ運動会で競う『フレンズ・フォー・チェンジ ゲームズ』 でグリーンチームの一員として出場した。	NO_PRONOUNCE	NO_LABEL
日本では同年9月18日から4週にわたってディズニー・チャンネルで放送された。	にっぽんでわどーねんくがつじゅうはちにちからよんしゅーにわたってでぃずにーちゃんねるでほーそーされた。	NO_LABEL
2012年1月ディズニー・チャンネル・オリジナル・ムービー『フレネミーズ』に出演。	NO_PRONOUNCE	NO_LABEL
2014年、コメディ映画『子連れじゃダメかしら？』でアダム・サンドラー、ドリュー・バリモアと共演した。	NO_PRONOUNCE	NO_LABEL
同年、ウォルト・ディズニー・ピクチャーズのコメディ映画『アレクサンダーの、ヒドクて、ヒサンで、サイテー、サイアクな日』でディラン・ミネットの恋人役を演じた。	NO_PRONOUNCE	NO_LABEL
7月、『」』のゲスト出演では学園一の人気者ハンナ役を演じている。	NO_PRONOUNCE	NO_LABEL
10月、ゼンデイヤが主演を務めるコメディドラマ 『ティーン・スパイ K.C.』 にゲスト出演することが発表され、翌年4月に全米放映された。	NO_PRONOUNCE	NO_LABEL
2014年12月にテレビドラマシリーズの "" に出演することが発表され、事件の被害者役を演じた。	NO_PRONOUNCE	NO_LABEL
2015年6月のプレミア放送は約600万人の視聴者を記録した。	にせんじゅうごねんろくがつのぷれみあほーそーわやくろっぴゃくまんにんのしちょーしゃをきろくした。	NO_LABEL
11月、ドラマ "Red Band Society" でリハビリで入院するセレブを演じている。	NO_PRONOUNCE	NO_LABEL
アニメーション "Underdogs" で声の出演をし2015年4月10日より全米ほか公開。	NO_PRONOUNCE	NO_LABEL
ホラー映画 "Amityville: The Reawakening" で主演をしている。	NO_PRONOUNCE	NO_LABEL
2015年2月全米公開の "The Duff" でミーン・ガールの高校生マディソンを演じ、同月発表のテレビ映画 "Perfect High" では高校の人気ダンサーが膝の負傷により処方薬の使用を開始しその後、薬物中毒になるというのを描いている。	NO_PRONOUNCE	NO_LABEL
ABCファミリーのテレビドラマ "Famous In Love" で主役の大学生を演じる。	NO_PRONOUNCE	NO_LABEL
2006年の日本映画『タイヨウのうた』のリメイク映画『ミッドナイト・サン タイヨウのうた』では太陽の光にあたることのできない色素性乾皮症の難病を抱えた17歳の主人公ケイティを演じることが発表された。	NO_PRONOUNCE	NO_LABEL
ソーンは、キッズモデルでもあった。	そーんわ、きっずもでるでもあった。	NO_LABEL
デビューしたのは、生まれてからわずか6週間目であり、最初の舞台は育児雑誌だった。	でびゅーしたのわ、うまれてからわずかろっしゅーかんめであり、さいしょのぶたいわいくじざっしだった。	NO_LABEL
彼女は数多くのブランドの広告塔に起用されており、バービー、ラルフ・ローレン、ゲス、KFCコーポレーション、トミー・ヒルフィガー、ターゲット、ディーエルピーなど60本以上に登るコマーシャルに出演した。	かのじょわかずおーくのぶらんどのこーこくとーにきよーされており、ばーびー、らるふろーれん、げす、けーえふしーこーぽれーしょん、とみーひるふぃがー、たーげっと、でぃーえるぴーなどろくじゅっぽんいじょーにのぼるこまーしゃるにしゅつえんした。	NO_LABEL
2013年、Candie's の広告塔になる。	NO_PRONOUNCE	NO_LABEL
2014年、ニュートロジーナの広告塔になる。	にせんじゅうよねん、にゅーとろじーなのこーこくとーになる。	NO_LABEL
2011年6月21日、シングル曲「私を見て」で歌手デビューした。	NO_PRONOUNCE	NO_LABEL
ビルボードホット100チャートで最高86位、ホット・デジタル・ソング・チャートで最高64位、ヒートシーカーズ・ソングチャートで最高10位となる。	NO_PRONOUNCE	NO_LABEL
その後、50万枚を売り上げ、2013年6月17日付でアメリカレコード協会よりゴールド認定を受けている。	そのご、ごじゅうまんまいをうりあげ、にせんじゅうさんねんろくがつじゅうしちにちずけであめりかれこーどきょーかいよりごーるどにんていをうけている。	NO_LABEL
2012年3月6日シングル曲 "TTYLXOX" が発売されビルボードホット100チャートで最高97位、Canadian Hot 100チャートで最高71位、ヒートシーカーズ・ソングチャートで最高15位となる。	NO_PRONOUNCE	NO_LABEL
2013年3月ハリウッド・レコードと契約を締結。	にせんじゅうさんねんさんがつはりうっどれこーどとけいやくをていけつ。	NO_LABEL
2014年5月、"Call It Whatever" のミュージック・ビデオではウエイトレスに扮したソーンが意中の男子や女友達とダンスを披露している。	NO_PRONOUNCE	NO_LABEL
その後、5曲入りのEP "" が発売された。	NO_PRONOUNCE	NO_LABEL
10月、シャル・ウィー・ダンス・オン・アイスのイベントでパフォーマンスすることが発表。	NO_PRONOUNCE	NO_LABEL
2015年シングル曲 "Call It Whatever" はビルボード・ダンス・クラブ・ソング・チャートで最高10位となる。	NO_PRONOUNCE	NO_LABEL
2014年11月、デビュー小説『Autumn Falls』を発売。	NO_PRONOUNCE	NO_LABEL
ベラという名はニックネームで本名はアナベラ・ソーンという。	NO_PRONOUNCE	NO_LABEL
幼少時、キューバ系の父の影響でスペイン語しか話すことができなかったのに加え失読症であったが後に克服している。	よーしょーじ、きゅーばけいのちちのえいきょーですぺいんごしかはなすことができなかったのにくわえしつどくしょーであったがごにこくふくしている。	NO_LABEL
2014年、米国のバラエティが、「影響力のある10代の俳優および女優10人」を発表し4位に選ばれている。	NO_PRONOUNCE	NO_LABEL
2015年、米国 MSN 発表「30歳以下のハリウッドスター30人」の中の一人に選ばれた。	NO_PRONOUNCE	NO_LABEL
共同主演したゼンデイヤとはプライベートでも仲が良く「私たちはお互いが大好きなの」と語っている。	NO_PRONOUNCE	NO_LABEL
2011年11月から交際している同い年の恋人と付き合うようになって「キスは1か月半待った」とコメントしている。	NO_PRONOUNCE	NO_LABEL
2014年8月に破局したことが報じられ約3年の交際に終止符を打ちファンから交際しているかどうかという質問に「いいえ。	NO_PRONOUNCE	NO_LABEL
付き合っていないわ」と返信していた。	NO_PRONOUNCE	NO_LABEL
その後、10月ホームカミングの誘いがあったことを明らかにして復縁する。	そのご、じゅーがつほーむかみんぐのさそいがあったことをあきらかにしてふくえんする。	NO_LABEL
12月に一般人の恋人との交際3周年を祝っている。	じゅーにがつにいっぱんじんのこいびととのこーさいさんしゅーねんをいわっている。	NO_LABEL
2015年6月頃から俳優グレッグ・サルキンと交際している。	にせんじゅうごねんろくがつごろからはいゆーぐれっぐさるきんとこーさいしている。	NO_LABEL
