志麻 友紀は、日本の小説家・ライトノベル作家。	NO_PRONOUNCE	NO_LABEL
代表作は角川ビーンズ文庫の『ローゼンクロイツシリーズ』と『マスケティア・ルージュシリーズ』。	NO_PRONOUNCE	NO_LABEL
第1回角川ルビー小説賞ティーンズルビー部門で優秀賞・読者賞を受賞。	NO_PRONOUNCE	NO_LABEL
角川ビーンズ文庫より刊行。	かどかわびーんずぶんこよりかんこー。	NO_LABEL
B's-LOG文庫より刊行。	びーずろぐぶんこよりかんこー。	NO_LABEL
一迅社文庫アイリスより刊行。	いちじんしゃぶんこあいりすよりかんこー。	NO_LABEL
コミックビーズログ エアレイドに掲載。	こみっくびーずろぐえあれいどにけいさい。	NO_LABEL
f-Clan文庫より刊行。	NO_PRONOUNCE	NO_LABEL
角川つばさ文庫より刊行。	かどかわつばさぶんこよりかんこー。	NO_LABEL
スエカネクミコ挿絵　全10巻まで	すえかねくみこさしえぜんじゅうかんまで	NO_LABEL
キングレコードより2編が発売中	NO_PRONOUNCE	NO_LABEL
ランティスより4編	NO_PRONOUNCE	NO_LABEL
