セルヴァーンスキ・エンドレは、ハンガリーの作曲家。	NO_PRONOUNCE	NO_LABEL
子どものころよりクラリネットを演奏し、1922年から1927年までリスト音楽院で学んだ。	こどものころよりくらりねっとをえんそーし、せんきゅうひゃくにじゅうにねんからせんきゅうひゃくにじゅうななねんまでりすとおんがくいんでまなんだ。	NO_LABEL
プロの演奏家として数年間過ごしたのち、1931年に作曲を学ぶために音楽院に戻った。	ぷろのえんそーかとしてすーねんかんすごしたのち、せんきゅうひゃくさんじゅういちねにさっきょくをまなぶためにおんがくいんにもどった。	NO_LABEL
1930年代はラジオ局のオーケストレーターとして働き、後にリスト音楽院の作曲学部の教員となった。	せんきゅうひゃくさんじゅうねんだいわらじおきょくのおーけすとれーたーとしてはたらき、ごにりすとおんがくいんのさっきょくがくぶのきょーいんとなった。	NO_LABEL
作風はバルトーク・ベーラやコダーイ・ゾルターンのように民謡の影響を強く受けたものである。	さくふーわばるとーくべーらやこだーいぞるたーんのよーにみんよーのえいきょーをつよくうけたものである。	NO_LABEL
後年には十二音技法を取り入れた。	こーねんにわじゅーにおんぎほーをとりいれた。	NO_LABEL
