マイルグランプリは、特別区競馬組合が大井競馬場で施行する地方競馬の重賞競走である。	まいるぐらんぷりわ、とくべつくけいばくみあいがおーいけいばじょーでしこーするちほーけいばのじゅーしょーきょーそーである。	NO_LABEL
副賞は、特別区競馬組合管理者賞。	ふくしょーわ、とくべつくけいばくみあいかんりしゃしょー。	NO_LABEL
1995年に創設。	せんきゅうひゃくきゅうじゅうごねんにそーせつ。	NO_LABEL
設立当時は南関東のダートマイル最強馬決定戦と位置づけられ、1997年には南関東G1に格付けされた。	せつりつとーじわみなみかんとーのだーとまいるさいきょーばけっていせんといちずけられ、せんきゅうひゃくきゅうじゅうななにわみなみかんとーぐれーどわんにかくずけされた。	NO_LABEL
かしわ記念の統一GI格上げに伴い2005年からは南関東G2に格下げし、かしわ記念のトライアル競走として定着した。	かしわきねんのとーいつじーあいかくあげにともないにせんごねんからわみなみかんとーじぇねれーしょんつーにかくさげし、かしわきねんのとらいあるきょうそーとしてていちゃくした。	NO_LABEL
2011年度からはこれまでの春季施行から秋季施行に変更された。	にせんじゅういちねんどからわこれまでのしゅんきしこーからしゅーきしこーにへんこーされた。	NO_LABEL
このため2011年は3月と11月の2回行われることになっていたが、3月分の第17回は東日本大震災の影響により中止となった。	このためにせんじゅういちねんわさんがつとじゅーいちがつのにかいおこなわれることになっていたが、さんがつぶんのだいじゅうななかいわひがしにほんだいしんさいのえいきょーによりちゅーしとなった。	NO_LABEL
春季開催時は本競走の上位2着までにかしわ記念の優先出走権が与えられていた。	しゅんきかいさいじわほんきょーそーのじょーいにちゃくまでにかしわきねんのゆーせんしゅっそーけんがあたえられていた。	NO_LABEL
秋季に移行後は優勝馬に浦和記念の優先出走権が付与されていたが、2017年は浦和記念の前週施行となり、優先出走権の付与はなくなった。	しゅーきにいこーごわゆーしょーばにうらわきねんのゆーせんしゅっそーけんがふよされていたが、にせんじゅうななねんわうらわきねんのぜんしゅーしこーとなり、ゆーせんしゅっそーけんのふよわなくなった。	NO_LABEL
