キーシュ航空（）はイラン・テヘランに本拠をおく航空会社。	NO_PRONOUNCE	NO_LABEL
国際線・国内線の定期運便およびチャーター便を運航している。	NO_PRONOUNCE	NO_LABEL
拠点空港はテヘラン・メヘラーバード国際空港。	NO_PRONOUNCE	NO_LABEL
キーシュ航空は1986年12月16日設立、同年中に運航を開始した。	きーしゅこーくーわせんきゅうひゃくはちじゅうろくねんじゅーにがつじゅうろくにちせつりつ、どーねんちゅーにうんこーをかいしした。	NO_LABEL
出資元はキーシュ自由貿易地域機構、キーシュ投資開発、キーシュ開発サービスとなっている。	しゅっしもとわきーしゅじゆーぼーえきちいききこー、きーしゅとーしかいはつ、きーしゅかいはつさーびすとなっている。	NO_LABEL
2007年3月現在の従業員数は303人。	にせんななねんさんがつげんざいのじゅーぎょーいんすーわさんびゃくさんにん。	NO_LABEL
キーシュ航空は、仮運航免許の交付後、旅客運航開始のためにブルガリア航空からツポレフTu-134およびアントノフAn-24の2機をウェットリース。	NO_PRONOUNCE	NO_LABEL
これによる運航実績を民間航空当局に証明し1990年、航空運送事業許可を取得。	これによるうんこーじっせきをみんかんこーくーとーきょくにしょーめいしせんきゅうひゃくきゅうじゅうねん、こーくーうんそーじぎょーきょかをしゅとく。	NO_LABEL
イランにおいてはじめてAOCを取得する民営航空会社となった。	いらんにおいてはじめてえーおーしーをしゅとくするみんえいこーくーがいしゃとなった。	NO_LABEL
このときキーシュ航空はブルガリア航空からのウェットリース機材を返却し、ロシアのリース会社からツポレフTu-154 MSを3機ウェットリースしている。	NO_PRONOUNCE	NO_LABEL
さらに同じくロシアからヤコヴレフYak-42Dの2機のウェットリースも行っている。	NO_PRONOUNCE	NO_LABEL
1992年末、キーシュ航空は破産寸前に陥り、経営陣のほとんどが交代し、新経営陣は現在に至るまで良好に経営を続けている。	せんきゅうひゃくきゅうじゅうにねんまつ、きーしゅこーくーわはさんすんぜんにおちいり、けいえいじんのほとんどがこーたいし、しんけいえいじんわげんざいにいたるまでりょーこーにけいえいをつずけている。	NO_LABEL
1999年には充分な財務力が保障されたことから、ウェットリース機材をドライリース機材および自社購入機材への置き換えを決定。	せんきゅうひゃくきゅうじゅうきゅうねんにわじゅーぶんなざいむりょくがほしょーされたことから、うぇっとりーすきざいをどらいりーすきざいおよびじしゃこーにゅーきざいえのおきかえをけってい。	NO_LABEL
これに伴い必要な乗務員、整備士を雇用・訓練し、1年以内に2機のドライリース機材ツポレフTu-154および1機の購入機材による運航を実現している。	NO_PRONOUNCE	NO_LABEL
現在、キーシュ航空は国内線および国際線で、中型機マクドネル・ダグラスMD-83およびツポレフTu-154Mを6機、小型機フォッカー50を6機運航している。	NO_PRONOUNCE	NO_LABEL
キーシュ航空は、その名を冠する英語学校と密接な関係がある。	きーしゅこーくーわ、そのなをかんするえいごがっこーとみっせつなかんけいがある。	NO_LABEL
この英語学校はイラン主要都市で運営され、専門的で好意的な評価を受けている学校である。	このえいごがっこーわいらんしゅよーとしでうんえいされ、せんもんてきでこーいてきなひょーかをうけているがっこーである。	NO_LABEL
当初はキーシュ航空従業員のための教室として設置されたが、質の高い英語教育により需要が著しく増加し一般に公開されたものである。	とーしょわきーしゅこーくーじゅーぎょーいんのためのきょーしつとしてせっちされたが、しつのたかいえいごきょーいくによりじゅよーがいちじるしくぞーかしいっぱんにこーかいされたものである。	NO_LABEL
この学校がキーシュ航空の所有から離れたのはかなり以前であるが、名称は変更されておらず、またキーシュ航空のパイロットと客室乗務員も言語学習のためにこの学校に派遣されている。	このがっこーがきーしゅこーくーのしょゆーからはなれたのわかなりいぜんであるが、めいしょーわへんこーされておらず、またきーしゅこーくーのぱいろっとときゃくしつじょーむいんもげんごがくしゅーのためにこのがっこーにはけんされている。	NO_LABEL
キーシュ航空は下記の諸都市へ就航している。	きーしゅこーくーわかきのしょとしえしゅーこーしている。	NO_LABEL
キーシュ航空の運航する機材は2007年11月現在以下の通り。	きーしゅこーくーのうんこーするきざいわにせんななねんじゅーいちがつげんざいいかのとーり。	NO_LABEL
