ミゲル・ローゼンバーグ＝サポチニクは、イギリスの監督、である。	NO_PRONOUNCE	NO_LABEL
フィーチャー映画『レポゼッション・メン』やアメリカ合衆国のテレビシリーズのエピソードの監督で知られる。	NO_PRONOUNCE	NO_LABEL
1990年代はとして活動し、ダニー・ボイル監督の『トレインスポッティング』やアラン・リックマン監督の『』にクレジットされた。	NO_PRONOUNCE	NO_LABEL
2000年に短編映画『"The Dreamer"』の監督・脚本を務める。	NO_PRONOUNCE	NO_LABEL
またルイーズのミュージックビデオ「Beautiful Inside」を監督した。	NO_PRONOUNCE	NO_LABEL
2010年にジュード・ロウ、フォレスト・ウィテカー出演の映画『レポゼッション・メン』で長編映画監督デビューした。	NO_PRONOUNCE	NO_LABEL
2011年以降はアメリカ合衆国のテレビシリーズ『Dr.HOUSE』、『FRINGE/フリンジ』、『アウェイク 〜引き裂かれた現実』、『ゲーム・オブ・スローンズ』などのエピソードを監督した。	NO_PRONOUNCE	NO_LABEL
