プライスウォーターハウスクーパースは、ロンドンを本拠地とし、世界158カ国に180,000人のスタッフを擁する世界最大級のプロフェッショナルサービスファームである。	NO_PRONOUNCE	NO_LABEL
デロイト トウシュ トーマツ、KPMG、アーンスト・アンド・ヤングと並び、世界4大会計事務所・総合コンサルティングファーム（）の一角を占める。	NO_PRONOUNCE	NO_LABEL
対象業務として会計監査、ディールアドバイザリー、ビジネスコンサルティング、税務、法務などを総合的に手掛けている。	たいしょーぎょーむとしてかいけいかんさ、でぃーるあどばいざりー、びじねすこんさるてぃんぐ、ぜいむ、ほーむなどをそーごーてきにてがけている。	NO_LABEL
<br>	NO_PRONOUNCE	NO_LABEL
2009年には、社が発表した「最も魅力的な企業トップ50」において、世界第2位を獲得。	NO_PRONOUNCE	NO_LABEL
2013年には、BrandFinance社が発表した「Most Powerful Brand in the World」において、フェラーリ、グーグル、コカコーラに次いで世界第4位を獲得している。	NO_PRONOUNCE	NO_LABEL
またVault社が発表した「2013 Most Prestigious Accounting Firm」および「2014 Best Accounting Firm」においては第1位を獲得。	NO_PRONOUNCE	NO_LABEL
なお、2012年においては売上ベースでも4大ファームのうち315億ドルで第1位となっている。	NO_PRONOUNCE	NO_LABEL
略称はPwC。	りゃくしょーわぷらいすうぉーたーはうすくーぱーす。	NO_LABEL
1998年、プライス・ウォーターハウスとクーパース&ライブランドの合併により、プライスウォーターハウスクーパースが発足した。	NO_PRONOUNCE	NO_LABEL
この2つのファームは19世紀にその歴史をさかのぼる。	このふたつのふぁーむわじゅうきゅうせいきにそのれきしをさかのぼる。	NO_LABEL
1849年、会計士サミュエル・ローウェル・プライスはロンドンに事務所を開いた。	NO_PRONOUNCE	NO_LABEL
1865年にはプライスはウィリアム・ホーリーランドとエドウィン・ウォーターハウスとパートナーシップを結んだ。	NO_PRONOUNCE	NO_LABEL
このパートナーシップの合意書は現在でもロンドン・サザークにあるビル「サザーク・タワーズ」のPwC事務所に飾られている。	NO_PRONOUNCE	NO_LABEL
ホーリーランドは後に独立したため、このファームは1874年以降プライス・ウォーターハウス&カンパニーとして知られるようになった。	NO_PRONOUNCE	NO_LABEL
「&カンパニー」の部分は後に省略されて消える。	NO_PRONOUNCE	NO_LABEL
19世紀末にはプライス・ウォーターハウスは監査事務所として名声をほこるようになり、英米間の取引の増加で1890年にはニューヨークにも事務所を開いた。	NO_PRONOUNCE	NO_LABEL
ニューヨークのファームは巨大化したほか、イギリス本部も大英帝国各地にファームを開業していった。	にゅーよーくのふぁーむわきょだいかしたほか、いぎりすほんぶもだいえいていこくかくちにふぁーむをかいぎょーしていった。	NO_LABEL
各国のファームとは別々のパートナーシップが結ばれ、これがパートナーたちを地元企業との提携拡大へと向かわせるインセンティブになった。	かっこくのふぁーむとわべつべつのぱーとなーしっぷがむすばれ、これがぱーとなーたちをじもときぎょーとのていけいかくだいえとむかわせるいんせんてぃぶになった。	NO_LABEL
PWの世界規模の拡大は、国際的な合併よりも、各国に置いたパートナーが独自に発展していったことに基礎を置いている。	NO_PRONOUNCE	NO_LABEL
一方、1854年にはウィリアム・クーパーがロンドンに会計事務所を開き、7年後には3人の兄弟も合流しクーパー・ブラザーズとなった。	NO_PRONOUNCE	NO_LABEL
アメリカでは1898年にロバート・モンゴメリー、ウィリアム・ライブランド、アダム・ロス・ジュニアとその兄弟T・エドウィン・ロスがライブランド・ロス・ブラザーズ&モンゴメリーを開いた。	NO_PRONOUNCE	NO_LABEL
1957年、英米の両者およびカナダのマクドナルド・カリー&カンパニーは合併し、クーパー&ライブランドとなった。	NO_PRONOUNCE	NO_LABEL
1990年、英国のクーパー&ライブランドはデロイト・ハスキン＆セルズのパートナーの一部と合併したが、デロイトのパートナーのほとんどはトウシュ・ロスへ合流し、デロイト・トウシュ・トーマツを形成した。	NO_PRONOUNCE	NO_LABEL
両ファームは世界各国の大都市にファームを開いたり地元ファームと提携したりしたが、各国の提携ファームは地元のファームを吸収することもあった。	りょーふぁーむわせかいかっこくのだいとしにふぁーむをひらいたりじもとふぁーむとていけいしたりしたが、かっこくのていけいふぁーむわじもとのふぁーむをきゅーしゅーすることもあった。	NO_LABEL
こうして各国の地方都市にまでファームは行き渡り、急増する多国籍企業が世界のどこで活動してもサービスが受けられるに十分な体制が整った。	こーしてかっこくのちほーとしにまでふぁーむわいきわたり、きゅーぞーするたこくせききぎょーがせかいのどこでかつどーしてもさーびすがうけられるにじゅーぶんなたいせいがととのった。	NO_LABEL
また会計監査の需要の増加、特に1930年代の世界恐慌や税体系の複雑化にともないファームは大きくなった。	またかいけいかんさのじゅよーのぞーか、とくにせんきゅうひゃくさんじゅうねんだいのせかいきょうこーやぜいたいけいのふくざつかにともないふぁーむわおーきくなった。	NO_LABEL
会計業界は世界規模のサービスの必要性や急増する訴訟費用に対応するため、1980年代から規模の経済の優位性を求めて巨大合併を行うようになった。	かいけいぎょーかいわせかいきぼのさーびすのひつよーせいやきゅーぞーするそしょーひよーにたいおーするため、せんきゅうひゃくはちじゅうねんだいからきぼのけいざいのゆーいせいをもとめてきょだいがっぺいをおこなうよーになった。	NO_LABEL
PWはアーサー・アンダーセンとの合併を模索したが、両社の利害相反が大きく交渉は破綻した。	NO_PRONOUNCE	NO_LABEL
1997年、PWとクーパースは巨大化を求めて合併を発表し、翌1998年現在のPwCが誕生した。	NO_PRONOUNCE	NO_LABEL
さらにPwCはロンドンの中堅法人グラントソントン・インターナショナルとも合併しようとしたが、これ以上の巨大法人が誕生し寡占が進むことは独占禁止法にも触れる事であり話は流れた。	さらにぷらいすうぉーたーはうすくーぱーすわろんどんのちゅーけんほーじんぐらんとそんとんいんたーなしょなるともがっぺいしようとしたが、これいじょーのきょだいほーじんがたんじょーしかせんがすすむことわどくせんきんしほーにもふれることでありはなしわながれた。	NO_LABEL
PwCの企業形態は、LLPと呼ばれるものであり、その法的構造は通常の企業とは大きく異なる。	ぷらいすうぉーたーはうすくーぱーすのきぎょーけいたいわ、えるえるぴーとよばれるものであり、そのほーてきこーぞーわつーじょーのきぎょーとわおーきくことなる。	NO_LABEL
世界規模のファームは、実際には自律的に経営されるメンバーファームの集合体である。	せかいきぼのふぁーむわ、じっさいにわじりつてきにけいえいされるめんばーふぁーむのしゅーごーたいである。	NO_LABEL
すなわち世界各地にある大半のファームはフランチャイズ経営ということになる。	すなわちせかいかくちにあるたいはんのふぁーむわふらんちゃいずけいえいとゆうことになる。	NO_LABEL
各地のメンバーファームを経営するシニアパートナーたちが世界本部の経営陣となる。	かくちのめんばーふぁーむをけいえいするしにあぱーとなーたちがせかいほんぶのけいえいじんとなる。	NO_LABEL
またイギリスに本拠を置く「PricewaterhouseCoopers International Limited」が傘下に置かれ、各ファーム間のコーディネーションを担当する。	NO_PRONOUNCE	NO_LABEL
その他、PwCの社員のための人的資源サービスや法務部門も持つ。	そのた、ぷらいすうぉーたーはうすくーぱーすのしゃいんのためのじんてきしげんさーびすやほーむぶもんももつ。	NO_LABEL
PwCが提供するサービスは大きく次の通りである。	ぷらいすうぉーたーはうすくーぱーすがていきょーするさーびすわおーきくつぎのとーりである。	NO_LABEL
大企業に対する会計監査は世界的に大手ファームが寡占し成長の余地がなくなってきたため、各ファームは企業に対する経営コンサルティングに力を入れるようになり、ここから巨額の手数料を得るようになった。	だいきぎょーにたいするかいけいかんさわせかいてきにおーてふぁーむがかせんしせいちょーのよちがなくなってきたため、かくふぁーむわきぎょーにたいするけいえいこんさるてぃんぐにちからをいれるよーになり、ここからきょがくのてすーりょーをえるよーになった。	NO_LABEL
特に1990年代、多国籍企業がSAP R/3などに代表される経営資源管理ソフトウェアを導入するなどの理由でコンサルティングの需要は急増した。	とくにせんきゅうひゃくきゅうじゅうねんだい、たこくせききぎょーがえすえいぴーなどにだいひょーされるけいえいしげんかんりそふとうぇあをどーにゅーするなどのりゆーでこんさるてぃんぐのじゅよーわきゅーぞーした。	NO_LABEL
しかし経営の内部に関わるコンサルティングと外部からの監査を同一ファームが行うことは利益相反になるとの指摘もあった。	しかしけいえいのないぶにかかわるこんさるてぃんぐとがいぶからのかんさをどーいちふぁーむがおこなうことわりえきそーはんになるとのしてきもあった。	NO_LABEL
2002年にアーサー・アンダーセンがエンロンとワールドコムの不正会計事件で消滅し、アメリカの証券取引委員会は監査の独立性のルールを厳格化した。	にせんにねんにあーさーあんだーせんがえんろんとわーるどこむのふせいかいけいじけんでしょーめつし、あめりかのしょーけんとりひきいーんかいわかんさのどくりつせいのるーるをげんかくかした。	NO_LABEL
このため、経営コンサルティング部門とファームの中核である監査部門との分離が求められ、大手ファームはコンサルティング部門や子会社を売却した。	このため、けいえいこんさるてぃんぐぶもんとふぁーむのちゅーかくであるかんさぶもんとのぶんりがもとめられ、おーてふぁーむわこんさるてぃんぐぶもんやこがいしゃをばいきゃくした。	NO_LABEL
PwCも2000年にはヒューレット・パッカードにコンサルティング部門を売却しようとして失敗し、2002年には分社化を模索したが、結局2002年後半にIBMへの売却を発表、IBM ビジネスコンサルティング サービスとなった。	ぷらいすうぉーたーはうすくーぱーすもにせんねんにわひゅーれっとぱっかーどにこんさるてぃんぐぶもんをばいきゃくしよーとしてしっぱいし、にせんにねんにわぶんしゃかをもさくしたが、けっきょくにせんにねんこーはんにあいびーえむえのばいきゃくをはっぴょー、あいびーえむびじねすこんさるてぃんぐさーびすとなった。	NO_LABEL
IBMへ売却した後も一部のアドバイザリー業務は続けていたが、売却時の競合避止規定が失効した後にPwCはコンサルティング部門の再設を図るようになった。	NO_PRONOUNCE	NO_LABEL
2009年、PwCは連邦倒産法第11章を申請したベリングポイントの一部を買収し、北米およびアジア地域におけるコンサルティングプラクティスを拡充した。	にせんきゅうねん、ぷらいすうぉーたーはうすくーぱーすわれんぽーとーさんほーだいじゅういちしょーをしんせいしたべりんぐぽいんとのいちぶをばいしゅーし、ほくべいおよびあじあちーきにおけるこんさるてぃんぐぷらくてぃすをかくじゅーした。	NO_LABEL
2011年6月24日には、グローバルコンサルティングファームPRTMの統合を発表、2014年4月には、経営戦略コンサルティングファームブーズ・アンド・カンパニーを統合している。	NO_PRONOUNCE	NO_LABEL
一般事業会社でいう売上高に当たる業務収入ベースで2012年にシェア1位となっている。	いっぱんじぎょーがいしゃでいううりあげだかにあたるぎょーむしゅーにゅーべーすでにせんじゅうにねんにしぇあいちーとなっている。	NO_LABEL
地域別には、欧州・北米が全業務収入のおよそ8割を占め、特に欧州だけで全体の5割程度を占めている。	NO_PRONOUNCE	NO_LABEL
また、ファームの主な事業である監査業務から得た収入が全体の約50％、税務が約30%、コンサルティングが約20％となっている。	NO_PRONOUNCE	NO_LABEL
PwC Japanグループは、プライスウォーターハウスクーパースの日本におけるメンバーファーム。	ぷらいすうぉーたーはうすくーぱーすじゃぱんぐるーぷわ、ぷらいすうぉーたーはうすくーぱーすのにっぽんにおけるめんばーふぁーむ。	NO_LABEL
日本においては、監査、コンサルティング、ディールアドバイザリー、税務、法務、金融・資本市場に関する総合的な研究、サステナビリティ分野の専門サービス、サイバーセキュリティに関するサービス、コンプライアンス・テスティングに関する支援の提供・危機対応・信頼回復支援に関するサービスと、サービスごとに法人は分かれているが、PwCのブランドのもと、あらゆる業種の企業・公的組織に統合的なサービスを展開している。	NO_PRONOUNCE	NO_LABEL
英PwCがあらた監査法人を新設する以前に日本に存在していたPwCメンバーファーム「みすず監査法人」は、監査クライアントが5000社を超える巨大なファームであった。	NO_PRONOUNCE	NO_LABEL
しかし、カネボウの粉飾決算事件を引き起こし、金融庁から監査業務停止命令が下る見込みとなると、英PwCは中央青山監査法人とは別のPwCメンバーファームとしてあらた監査法人を日本に設立した。	しかし、かねぼーのふんしょくけっさんじけんをひきおこし、きんゆーちょーからかんさぎょーむていしめいれいがくだるみこみとなると、えいぷらいすうぉーたーはうすくーぱーすわちゅーおーあおやまかんさほーじんとわべつのぷらいすうぉーたーはうすくーぱーすめんばーふぁーむとしてあらたかんさほーじんをにっぽんにせつりつした。	NO_LABEL
しかし、この際に中央青山監査法人からあらた監査法人へ移管された監査クライアントはトヨタやソニーなどのごく一部であった。	しかし、このさいにちゅーおーあおやまかんさほーじんからあらたかんさほーじんえいかんされたかんさくらいあんとわとよたやそにーなどのごくいちぶであった。	NO_LABEL
後にみすず監査法人が解散した際には、クライアントのほとんどが他の競合監査法人に移管されたため、現在のPwCの日本における監査業界シェアは数パーセント程度となった。	ごにみすずかんさほーじんがかいさんしたさいにわ、くらいあんとのほとんどがたのきょーごーかんさほーじんにいかんされたため、げんざいのぷらいすうぉーたーはうすくーぱーすのにっぽんにおけるかんさぎょーかいしぇあわすーぱーせんとていどとなった。	NO_LABEL
一方、みすず監査法人が解体されていく中で、同法人の京都事務所は京都監査法人として独立した。	いっぽー、みすずかんさほーじんがかいたいされていくなかで、どーほーじんのきょーとじむしょわきょーとかんさほーじんとしてどくりつした。	NO_LABEL
京都監査法人は、当初はPwCの協力ファームという位置付けで、京都監査法人自体はPwCメンバーファームではなかったものの、2013年3月15日にPwCのメンバーファームとして加盟した。	きょーとかんさほーじんわ、とーしょわぷらいすうぉーたーはうすくーぱーすのきょーりょくふぁーむとゆういちずけで、きょーとかんさほーじんじたいわぷらいすうぉーたーはうすくーぱーすめんばーふぁーむでわなかったものの、にせんじゅうさんねんさんがつじゅうごにちにぷらいすうぉーたーはうすくーぱーすのめんばーふぁーむとしてかめいした。	NO_LABEL
プライスウォーターハウスクーパースコンサルタント株式会社は、かつて存在した日本のビジネスコンサルティング会社。	ぷらいすうぉーたーはうすくーぱーすこんさるたんとかぶしきがいしゃわ、かつてそんざいしたにっぽんのびじねすこんさるてぃんぐがいしゃ。	NO_LABEL
2009年5月、連邦倒産法第11章の適用を申請し事実上経営破綻していたベリングポイントの日本法人が、プライスウォーターハウスクーパースコンサルタント株式会社としてPwCメンバーファームに参画を発表。	にせんきゅうねんごがつ、れんぽーとーさんほーだいじゅういちしょーのてきよーをしんせいしじじつじょーけいえいはたんしていたべりんぐぽいんとのにほんほーじんが、ぷらいすうぉーたーはうすくーぱーすこんさるたんとかぶしきがいしゃとしてぷらいすうぉーたーはうすくーぱーすめんばーふぁーむにさんかくをはっぴょー。	NO_LABEL
監査・税務・アドバイザリーにビジネスコンサルティングを加えることで、PwCメンバーファームとして総合的なソリューションを提供している。	NO_PRONOUNCE	NO_LABEL
1935年に映画芸術科学アカデミーから依頼を受けて以来、長きにわたりPwCはアカデミー賞の投票集計業務を請け負っている。	せんきゅうひゃくさんじゅうごねんにえいがげいじゅつかがくあかでみーからいらいをうけていらい、ちょうきにわたりぷらいすうぉーたーはうすくーぱーすわあかでみーしょーのとーひょーしゅーけいぎょーむをうけおっている。	NO_LABEL
秘匿性を担保するため、集計作業は意図的に手作業で行い、またプレゼンターが壇上で受賞者の名前が記された封筒を開封するまで、受賞者の名前を知っているのはPwCのパートナー2人だけとなるよう、集計の作業工程を工夫している。	ひとくせいをたんぽするため、しゅーけいさぎょーわいとてきにてさぎょーでおこない、またぷれぜんたーがだんじょーでじゅしょーしゃのなまえがしるされたふーとーをかいふーするまで、じゅしょーしゃのなまえをしっているのわぷらいすうぉーたーはうすくーぱーすのぱーとなーふたりだけとなるよー、しゅーけいのさぎょーこーていをくふーしている。	NO_LABEL
