萬 あきらは、元宝塚歌劇団専科の男役。	よろずあきらわ、もとたからずかかげきだんせんかのおとこやく。	NO_LABEL
静岡県清水市、親和女子学園出身。	しずおかけんしみずし、しんわじょしがくえんしゅっしん。	NO_LABEL
身長164cm、血液型はB型。	しんちょーひゃくろくじゅうよんせんちめーとる、けつえきがたわびーがた。	NO_LABEL
愛称は「ケイ」、「バンケイ」。	NO_PRONOUNCE	NO_LABEL
