ソユーズはソビエト連邦が計画しOKB-1が開発した使い捨て型ロケット。	そゆーずわそびえとれんぽーがけいかくしおーけーびーわんがかいはつしたつかいすてがたろけっと。	NO_LABEL
アメリカ合衆国のアメリカ議会図書館は"A-2"と呼んでいた。	NO_PRONOUNCE	NO_LABEL
欧州宇宙機関の2004年の時点における記事においては、「世界でもっとも頻繁に打ち上げられているロケット」とされる。	NO_PRONOUNCE	NO_LABEL
ソユーズロケットはソユーズ計画でのソユーズの有人打ち上げに使われるほか、国際宇宙ステーションへのプログレス補給船の輸送、スターセムやアリアンスペースの商用打ち上げなどに利用されている。	そゆーずろけっとわそゆーずけいかくでのそゆーずのゆーじんうちあげにつかわれるほか、こくさいうちゅーすてーしょんえのぷろぐれすほきゅーせんのゆそー、すたーせむやありあんすぺーすのしょーよーうちあげなどにりよーされている。	NO_LABEL
ソユーズは燃料に液体酸素とRP-1を使っており、ソユーズU2は液体酸素とを使っていた。	そゆーずわねんりょーにえきたいさんそとあーるぴーまいなすいちをつかっており、そゆーずゆーつーわえきたいさんそとをつかっていた。	NO_LABEL
ソユーズはR-7の派生形である。	NO_PRONOUNCE	NO_LABEL
なお、ソユーズロケットは中心に二段構成のロケットがあり、その周りに4基のロケットが存在している。	なお、そゆーずろけっとわちゅーしんににだんこーせいのろけっとがあり、そのまわりによんきのろけっとがそんざいしている。	NO_LABEL
日本やアメリカでは周辺の4基を補助ロケットとするが、ソユーズにおいてはこれを1段目としている。	NO_PRONOUNCE	NO_LABEL
打ち上げ機はを基礎にしてボストークの派生形として1966年に導入された。	うちあげきわをきそにしてぼすとーくのはせいがたとしてせんきゅうひゃくろくじゅうろくねんにどーにゅーされた。	NO_LABEL
初期型はブロックIを上段とする3段ロケットで、後にモルニア軌道に衛星を送り込める改良型としてモルニアが開発され、さらに1970年代半ばに若干更新されたソユーズUが開発され、代替わりしている。	NO_PRONOUNCE	NO_LABEL
ソユーズの生産は1980年代前半に年産60台となりピークになった。	NO_PRONOUNCE	NO_LABEL
1990年初期、上段にフレガートを利用した再設計計画が作られた。	せんきゅうひゃくきゅうじゅうねんしょき、じょーだんにふれがーとをりよーしたさいせっけいけいかくがつくられた。	NO_LABEL
フレガートエンジンはフォボス計画の推進モジュールを基礎にラボーチキンによって開発されたものであり、衛星打ち上げの際の最終的な軌道調整に便利である。	ふれがーとえんじんわふぉぼすけいかくのすいしんもじゅーるをきそにらぼーちきんによってかいはつされたものであり、えいせいうちあげのさいのさいしゅーてきなきどーちょーせいにべんりである。	NO_LABEL
また、ロシア宇宙庁とロシア国防省は1993年にソユーズの国産化と近代化の計画を"Rus"の名称で承認し、後に計画はソユーズ2と改名された。	NO_PRONOUNCE	NO_LABEL
しかし、ソ連崩壊後の資金不足から計画の進展は遅れた。	しかし、それんほーかいごのしきんふそくからけいかくのしんてんわおくれた。	NO_LABEL
なお、フレガート以前にはを上段として利用することがあった。	なお、ふれがーといぜんにわをじょーだんとしてりよーすることがあった。	NO_LABEL
1996年7月、スターセムが設立された。	せんきゅうひゃくきゅうじゅうろくねんしちがつ、すたーせむがせつりつされた。	NO_LABEL
スターセムは欧州から商用打ち上げを受注して資金を得ており、新型の開発に当たって、より変更が少なくて済み、商用打ち上げの最終軌道投入用に便利なソユーズ/フレガートの計画に資金を提供した。	NO_PRONOUNCE	NO_LABEL
2000年2月9日と同年3月20日にソユーズ/フレガートの試験飛行が成功し、ソユーズU/フレガートでは静止トランスファ軌道に1,350kgの貨物を送り込めるようになった。	NO_PRONOUNCE	NO_LABEL
これを利用して欧州のクラスター2の商用打ち上げが2000年7月16日と同年8月9日に行われている。	NO_PRONOUNCE	NO_LABEL
現在もソユーズ/フレガート系の打ち上げ機はスターセムによって商用打ち上げに利用されている。	NO_PRONOUNCE	NO_LABEL
一方で、ソユーズ2の開発も進められた。	NO_PRONOUNCE	NO_LABEL
エンジンのRD-107・108の107A・108Aへの新型化を通じてソユーズFGが生産されたが、これはアナログ制御装置であった。	NO_PRONOUNCE	NO_LABEL
その後デジタル制御装置を装備したソユーズ2が生産された。	NO_PRONOUNCE	NO_LABEL
しかし、初期型のソユーズ2-1aは3段目エンジンに古いRD-0110を利用していた。	NO_PRONOUNCE	NO_LABEL
ソユーズ2-1aは2004年11月4日にプレセツクで弾道飛行実験が開始され、2006年10月23日にバイコヌールで軌道飛行実験が行われた。	NO_PRONOUNCE	NO_LABEL
更新型のソユーズ2-1bでは3段目も新型のRD-0124に変えられており、2006年12月27日にバイコヌール宇宙基地からCOROTを乗せて初飛行を行った。	NO_PRONOUNCE	NO_LABEL
現状では有人打ち上げにはソユーズFGが、プログレスの打ち上げではソユーズUが使われており、ソユーズ2は商用にのみ利用されているが今後はソユーズ2に置き換えることが期待されている。	NO_PRONOUNCE	NO_LABEL
現在はソユーズ2-1vが開発中であり、2段目エンジンをNK-33に変え、3段目にRD-0124を利用する計画で1段目の省略あるいは小型化が図られる見込みである。	NO_PRONOUNCE	NO_LABEL
国際宇宙ステーションの建設以降は、アメリカのスペースシャトルと並ぶISSへの輸送手段の一つであり、プログレスを利用して物資、またソユーズ宇宙船でクルーなどを運んでいる。	こくさいうちゅーすてーしょんのけんせついこーわ、あめりかのすぺーすしゃとるとならぶあいえすえすえのゆそーしゅだんのひとつであり、ぷろぐれすをりよーしてぶっし、またそゆーずうちゅうせんでくるーなどをはこんでいる。	NO_LABEL
2011年7月8日に実施された飛行プロジェクトであるSTS-135を最後にスペースシャトルが全て退役しアメリカ合衆国は有人宇宙飛行可能な機体を保有しないこととなったため、NASAは当面の間、ISSへのクルーの輸送をソユーズロケットに依存することとなった。	NO_PRONOUNCE	NO_LABEL
2005年1月19日、欧州宇宙機関とロシア宇宙庁はギアナ宇宙センターからのソユーズSTロケットの打ち上げに合意した。	にせんごねんいちがつじゅうきゅうにち、おーしゅーうちゅーきかんとろしあうちゅーちょーわぎあなうちゅーせんたーからのそゆーずえすてぃろけっとのうちあげにごーいした。	NO_LABEL
赤道に近いため、ソユーズは3段目に依存して2.7トン-4.9トンの貨物を太陽同期軌道に運べるようになった。	NO_PRONOUNCE	NO_LABEL
発射台の建設は2005年に始まり、2011年4月に完成した。	はっしゃだいのけんせつわにせんごねんにはじまり、にせんじゅういちねんしがつにかんせいした。	NO_LABEL
ソユーズは通常バイコヌールなどでは水平の状態で燃料が装填されるが、ギアナではギアナで一般的な垂直での燃料装填形式となっている。	そゆーずわつーじょーばいこぬーるなどでわすいへいのじょーたいでねんりょーがそーてんされるが、ぎあなでわぎあなでいっぱんてきなすいちょくでのねんりょーそーてんけいしきとなっている。	NO_LABEL
模擬打ち上げは2011年5月に行われ、ソユーズ2.1bST-Bの2011年10月21日の打ち上げではアリアン4の直径4mのフェアリングを備え、ガリレオ衛星を2機搭載していた。	NO_PRONOUNCE	NO_LABEL
わずか2ヶ月前にカザフスタンのバイコヌール宇宙基地から打ち上げられたソユーズUはブロックIのRD-0110エンジンが故障して搭載されていたプログレスM-12M補給船は破壊された。	NO_PRONOUNCE	NO_LABEL
これはこれまで80回の成功を収めていたソユーズUとソユーズFGの最初の失敗でソユーズは有人規格の唯一の宇宙船だったので国際宇宙ステーションに滞在する宇宙飛行士のローテーションに影響が出る可能性があった。	NO_PRONOUNCE	NO_LABEL
欧州の宇宙機関は殆ど同じソユーズ-2.1bが10月2日にロシアのGLONASS測位衛星を軌道に無事に投入して胸を撫で下ろした。	NO_PRONOUNCE	NO_LABEL
ソユーズ2.1bはブロックIのエンジンをプログレスの失敗の原因だったRD-0110からRD-0124に変更した。	NO_PRONOUNCE	NO_LABEL
推進剤の充填時に燃料の配管がロケットに接続できない問題が生じたが欧州とロシアの共同チームは24時間で修復した。	すいしんざいのじゅーてんじにねんりょーのはいかんがろけっとにせつぞくできないもんだいがしょーじたがおーしゅーとろしあのきょーどーちーむわにじゅうよじかんでしゅーふくした。	NO_LABEL
初の運用打ち上げは2011年10月21日に行われた。	はつのうんよーうちあげわにせんじゅういちねんじゅーがつにじゅういちにちにおこなわれた。	NO_LABEL
全系統を含めると1700回以上打ち上げられ他のロケットを大きく引き離し世界で最も利用されたロケットとなっている。	ぜんけいとーをふくめるとせんななひゃっかいいじょーうちあげられほかのろけっとをおーきくひきはなしせかいでもっともりよーされたろけっととなっている。	NO_LABEL
基本設計は古いが、低いコストと非常に高い安定性の両面から商用に向いている。	きほんせっけいわふるいが、ひくいこすととひじょーにたかいあんていせいのりょーめんからしょーよーにむいている。	NO_LABEL
しかし、2000年代初頭からは信頼性が下がりつつある。	しかし、にせんねんだいしょとーからわしんらいせいがさがりつつある。	NO_LABEL
ロケットは組立・試験塔で横に寝かせた状態で組み立てられる。	NO_PRONOUNCE	NO_LABEL
組み立てられたロケットは射点まで寝かせた状態で輸送され、その後立ち上げられる。	くみたてられたろけっとわいてんまでねかせたじょーたいでゆそーされ、そのごたちあげられる。	NO_LABEL
ソユーズの水平での組み立てはサターンVなどの垂直での組み立てとは違い、特徴の一つとして打ち上げの準備が安上がりで済むことがあげられる。	NO_PRONOUNCE	NO_LABEL
水平に配置されたロケットの組み立てはすべてのモジュールに近づきやすく比較的単純である。	すいへいにはいちされたろけっとのくみたてわすべてのもじゅーるにちかずきやすくひかくてきたんじゅんである。	NO_LABEL
また、垂直でのロケットの組み立てには背の高い防風格納庫が必要であるが、ロケットが設計された当時は経済的に可能と考えられなかった。	また、すいちょくでのろけっとのくみたてにわせのたかいぼーふーかくのーこがひつよーであるが、ろけっとがせっけいされたとーじわけいざいてきにかのーとかんがえられなかった。	NO_LABEL
ソユーズロケットの信頼性の高さは「燃料タンクの張力に依存しない外殻の靭性」に由来する。	NO_PRONOUNCE	NO_LABEL
サターンロケットやH-2Aロケットなどの水素燃料ロケットは旅客機と同様、風船状に膨らんだ機体に剛性を依存しており、燃料系に不具合が生じると即事故につながる。	さたーんろけっとやえいちつーえーろけっとなどのすいそねんりょーろけっとわりょかくきとどーよー、ふーせんじょーにふくらんだきたいにごーせいをいぞんしており、ねんりょーけいにふぐあいがしょーじるとそくじこにつながる。	NO_LABEL
ソユーズロケットは発射台においてロケット全体は周辺の4機のロケットの先端部の耐荷機構で発射台の打ち上げシステムのトラスに懸架されており、一段目と支柱で中央の本体を支えている。	NO_PRONOUNCE	NO_LABEL
この仕組みは打ち上げ後、一段目が本体を推し進める際の飛行状態に似ている。	このしくみわうちあげご、いちだんめがほんたいをおしすすめるさいのひこーじょーたいににている。	NO_LABEL
ロケット懸架の構想はR-7/ソユーズから導入された特徴の一つである。	NO_PRONOUNCE	NO_LABEL
発射台が除去された後、ロケットの底部分が低下させられる。	はっしゃだいがじょきょされたのち、ろけっとのそこぶぶんがていかさせられる。	NO_LABEL
強風で知られるカザフステップに位置するバイコヌール宇宙基地の発射場では強風への耐性も打ち上げシステムの重要な特徴であり、打ち上げシステムのトラスは風の力に耐えるものとなっている。	きょーふーでしられるかざふすてっぷにいちするばいこぬーるうちゅーきちのはっしゃじょーでわきょーふーえのたいせいもうちあげしすてむのじゅーよーなとくちょーであり、うちあげしすてむのとらすわかぜのちからにたえるものとなっている。	NO_LABEL
打ち上げの際、支持ブームがロケットの動きを追跡する。	うちあげのさい、しじぶーむがろけっとのうごきをついせきする。	NO_LABEL
一段目の先端部の特別支援凹部から支持ブームが頭を出すと、支持ブームとトラスがロケットのエアフレームから切断され、外側に展開されてロケットの進路を開く。	NO_PRONOUNCE	NO_LABEL
打ち上げの間ロケットと打ち上げ施設は単一の動作系統を構成する。	うちあげのまろけっととうちあげしせつわたんいつのどーさけいとーをこーせいする。	NO_LABEL
1段目のエンジンが停止した後、1段目は非爆発型分離によって分離される。	NO_PRONOUNCE	NO_LABEL
空が晴れている場合、地上の観測者はコリョロフ十字と呼ばれる落下する1段目と煙によって空に描かれる十字を見ることができる。	NO_PRONOUNCE	NO_LABEL
ソユーズLVはさまざまな無人ミッションに使われており、スターセムの商用衛星打ち上げで販売されている。	NO_PRONOUNCE	NO_LABEL
これまでに以下のようなフェアリングが利用された。	これまでにいかのよーなふぇありんぐがりよーされた。	NO_LABEL
プログレスはISSやミール向けの無人ミッションでの輸送宇宙機。	ぷろぐれすわあいえすえすやみーるむけのむじんみっしょんでのゆそーうちゅーき。	NO_LABEL
この宇宙機には専用のプラットフォームとフェアリングが利用され、ソユーズU、ソユーズFGなどで打ち上げられる	NO_PRONOUNCE	NO_LABEL
A型フェアリングは商業打ち上げのために利用される	えーがたふぇありんぐわしょーぎょーうちあげのためにりよーされる	NO_LABEL
S型フェアリングはスターセムによる商業打ち上げに利用される。	NO_PRONOUNCE	NO_LABEL
フェアリングは最大直径が3.7m、長さは7.7mほどである。	ふぇありんぐわさいだいちょっけいがさんてんななめーとる、ながさわななてんななめーとるほどである。	NO_LABEL
上段のフレガートもペイロードやペイロード接続分離機とともにフェアリング内に封入されている。	じょーだんのふれがーともぺいろーどやぺいろーどせつぞくぶんりきとともにふぇありんぐないにふーにゅーされている。	NO_LABEL
フレガート仕様のS型フェアリングはGalaxy 14、GIOVE A、Mars Express、AMOS-2、Venus Express、Clusterなどの打ち上げに使われた。	NO_PRONOUNCE	NO_LABEL
SL型フェアリングはスターセムによる商業打ち上げに利用される。	えすえるがたふぇありんぐわすたーせむによるしょーぎょーうちあげにりよーされる。	NO_LABEL
フェアリングは最大直径が3.7m、長さは8.45mほどである。	NO_PRONOUNCE	NO_LABEL
上段のフレガートはペイロードやペイロード接続分離機とともにフェアリングの中に封入されている。	じょーだんのふれがーとわぺいろーどやぺいろーどせつぞくぶんりきとともにふぇありんぐのなかにふーにゅーされている。	NO_LABEL
フレガート使用のSL型フェアリングはCOROTの打ち上げに使われている。	NO_PRONOUNCE	NO_LABEL
ST型フェアリングはスターセムによる商業打ち上げに利用される。	えすてぃがたふぇありんぐわすたーせむによるしょーぎょーうちあげにりよーされる。	NO_LABEL
最大直径が4.1m、長さは11.4mほどである。	さいだいちょっけいがよんてんいちめーとる、ながさわじゅういちてんよんめーとるほどである。	NO_LABEL
なお、大型のフェアリングの導入による空力不安定性がアナログ制御系では対処できないためソユーズ―2のみに利用されている。	NO_PRONOUNCE	NO_LABEL
カーボンプラスチック製のフェアリングはアリアンスペースのアリアン4に利用されて実証済みの形状を基礎としており、長さは1メートル増加している。	NO_PRONOUNCE	NO_LABEL
フェアリングは顧客であるスターセムの要求に応じてTsSKB-プログレスによって製造・開発された。	NO_PRONOUNCE	NO_LABEL
ギアナ宇宙基地からの打ち上げのためにスターセム/アリアンスペースによって提案されたフェアリング形式である。	NO_PRONOUNCE	NO_LABEL
ソユーズロケットは日本や米国などでブースターとみなす部分を1段目として数える。	NO_PRONOUNCE	NO_LABEL
ソユーズロケットの1段目は、ブースターロケットのように中心となるロケットの回りに取り付けられた4機の円錐形のロケットである。	NO_PRONOUNCE	NO_LABEL
それぞれのロケットには1組のターボポンプ、4個の燃焼室を備える1基のロケットエンジン、外側に2基のバーニアスラスタを備える。	NO_PRONOUNCE	NO_LABEL
初代ソユーズにはRD-107エンジンが、ソユーズUとソユーズU2にはRD-117エンジンが使われた。	NO_PRONOUNCE	NO_LABEL
ソユーズFGとソユーズ2にはRD-107Aが使われている。	NO_PRONOUNCE	NO_LABEL
ソユーズU2はロケット燃料にを用いていた。	そゆーずゆーつーわろけっとねんりょーにをもちいていた。	NO_LABEL
2段目は中央のロケットで、ロケットエンジンは1基である。	NO_PRONOUNCE	NO_LABEL
全体的には1段目ロケットと同じような構成だが、1組のターボポンプと4個の燃焼室に加え4基のバーニアスラスタがある。	NO_PRONOUNCE	NO_LABEL
2段目は1段目の4機のロケットと密着させるため底部に向かうほど細くなっている。	NO_PRONOUNCE	NO_LABEL
初代ソユーズにはRD-108（）エンジンが、ソユーズUとソユーズU2にはRD-118エンジンが使われた。	NO_PRONOUNCE	NO_LABEL
ソユーズFGとソユーズ2にはRD-108Aが使われている。	NO_PRONOUNCE	NO_LABEL
ソユーズU2ではロケット燃料にを利用していた。	そゆーずゆうつーでわろけっとねんりょーにをりよーしていた。	NO_LABEL
3段目には、RD-0110エンジンを使ったブロックIと、RD-0124エンジンを使った改良型ブロックIの2種類がある。	NO_PRONOUNCE	NO_LABEL
ソユーズ2-1bには改良型ブロックIが使われている。	NO_PRONOUNCE	NO_LABEL
段間分離部はトラス構造になっているが、これは大気圏内の飛行時には乱流が発生するが、トラスの間から燃焼ガスを逃せるので2段目を点火してから分離する事ができるので分離時に残留推力によって衝突する危険性を避けることができる。	NO_PRONOUNCE	NO_LABEL
高い信頼性を誇ってきたソユーズだったが、2000年代初頭からは失敗が相次いだ。	たかいしんらいせいをほこってきたそゆーずだったが、にせんねんだいしょとーからわしっぱいがあいついだ。	NO_LABEL
2002年10月15日にプレセツク宇宙基地で行われたソユーズUによるフォトンM衛星の打ち上げの際、発射台の近くに墜落し、打ち上げの29秒後に爆発した。	NO_PRONOUNCE	NO_LABEL
地上にいた職員の一人が死亡し、8人が重傷を負った。	ちじょーにいたしょくいんのひとりがしぼーし、はちにんがじゅーしょーをおった。	NO_LABEL
2005年6月21日にはプレセツクで行われたソユーズ系統の4段目版のモルニアMロケットによる軍事通信衛星モルニアの打ち上げが失敗した。	NO_PRONOUNCE	NO_LABEL
飛行は2段目と3段目の分離司令が実行されなかったか3段目エンジンが失敗したことで打ち上げ6分後に終了した。	NO_PRONOUNCE	NO_LABEL
ロケットの2段目と3段目はソユーズと同一であり、破壊されたペイロードはシベリアのチュメニ、Uvatski地区で発見された。	NO_PRONOUNCE	NO_LABEL
2011年8月24日、ISSへの貨物を積んだソユーズUの3段目が故障し、軌道への到達に失敗した。	NO_PRONOUNCE	NO_LABEL
2011年12月23日、軍用通信衛星メリディアン5を積んだソユーズ2.1bは、打ち上げから7分後に3段目の異常によって失敗した。	NO_PRONOUNCE	NO_LABEL
ゲームボーイ版のテトリスで得点が10万点を超えていると発射の場面のアニメーションが表示された。	げーむぼーいばんのてとりすでとくてんがじゅうまんてんをこえているとはっしゃのばめんのあにめーしょんがひょーじされた。	NO_LABEL
