ジャン・パウルはドイツの小説家。	じゃんぱうるわどいつのしょーせつか。	NO_LABEL
本名、ヨハン・パウル・フリードリヒ・リヒター。	NO_PRONOUNCE	NO_LABEL
該博な知識に基づく機知とユーモアに富んだ中長編を発表、当時のドイツ文壇におけるシュトルム・ウント・ドランクや古典主義、ロマン主義いずれとも距離を置き独自の文学世界を作り上げた。	がいはくなちしきにもとずくきちとゆーもあにとんだなかちょーへんをはっぴょー、とーじのどいつぶんだんにおけるしゅとるむうんとどらんくやこてんしゅぎ、ろまんしゅぎいずれともきょりをおきどくじのぶんがくせかいをつくりあげた。	NO_LABEL
主要作品に『ヘスペルス』『陽気なヴッツ先生』『ジーベンケース』『巨人』『生意気ざかり』『彗星』など。	NO_PRONOUNCE	NO_LABEL
当時バイロイト侯領に属していたフランケン地方の村ヴンジーデルに長男として出生。	NO_PRONOUNCE	NO_LABEL
父は学校教師兼教会のオルガン奏者で家は貧しく、1765年からはホーフ近郊ヨーディッツ村の牧師に、76年からはザーレ河畔シュヴァルツェンバッハの牧師となったが、79年に死去してより以後一家は極貧状態となった。	NO_PRONOUNCE	NO_LABEL
ヨーディッツ村時代にジャン・パウルは牧歌的な幸福を享受するとともに、自我意識の誕生を強烈な内的ヴィジョンとして体験する。	NO_PRONOUNCE	NO_LABEL
父から不十分な教育を受けたのち、76年から79年にかけて礼拝堂の牧師フェルケルから哲学と地理学の個人教授を受け、またレーハウの牧師フォーゲルの豊富な蔵書を借り旺盛な読書欲を発揮、78年から1804年まで続けられた書物からの抜き書きの習慣は彼の多彩な表現能力のもととなった。	ちちからふじゅーぶんなきょーいくをうけたのち、ななじゅうろくねんからななじゅうきゅうねんにかけてれいはいどーのぼくしふぇるけるからてつがくとちりがくのこじんきょーじゅをうけ、またれーはうのぼくしふぉーげるのほーふなぞーしょをかりおーせいなどくしょよくをはっき、ななじゅうはちねんからせんはっぴゃくよんねんまでつずけられたしょもつからのぬきがきのしゅーかんわかれのたさいなひょーげんのーりょくのもととなった。	NO_LABEL
1779年よりホーフの文科中学校に通い、81年にライプツィヒ大学の神学部に入学。	せんななひゃくななじゅうきゅうねんよりほーふのぶんかちゅーがっこーにかよい、はちじゅういちねんにらいぷつぃひだいがくのしんがくぶににゅーがく。	NO_LABEL
しかし1年で神学の勉強を中止し、読書と創作に没頭する。	しかしいちねんでしんがくのべんきょーをちゅーしし、どくしょとそーさくにぼっとーする。	NO_LABEL
エラスムスの『痴愚神礼賛』、ポープの『愚神列伝』、ヤングの諷刺詩を愛読しつつ啓蒙的な風刺文をものするが、文壇的には不成功に終わる。	NO_PRONOUNCE	NO_LABEL
またこの間にカント、ヤコービ、ヘルダーらの新しい哲学にも触れ、ことにヘルダーの人道主義的な哲学に感化を受けた。	またこのかんにかんと、やこーび、へるだーらのあたらしいてつがくにもふれ、ことにへるだーのじんどーしゅぎてきなてつがくにかんかをうけた。	NO_LABEL
家は相変わらず貧しく、1787年よりテーペンやホーフ周辺で家庭教師、1790年にはシュヴァルツェンバッハの私塾で教師をして糊口をしのぐ。	NO_PRONOUNCE	NO_LABEL
同年11月、相次ぐ知人の死を経て、死の思想に対する内的ヴィジョンを体験、これがのちの作品に通低する普遍的人間愛の基礎となる。	NO_PRONOUNCE	NO_LABEL
短編小説『フェルペル』『陽気なヴッツ先生』を経て、1793年発表の長編『見えないロッジ』で、ロレンス・スターン、ヘンリー・フィールディングを範とした自身の文体を確立。	NO_PRONOUNCE	NO_LABEL
1795年の『宵の明星』『フィクスライン』で大きな成功を収める。	NO_PRONOUNCE	NO_LABEL
1796年にヴァイマルを1ヶ月訪問、母の死後、ライプツィヒ移住を経て98年にヴァイマルに移住し、ゲーテ、ヴィーラント、ヘルダーらと交流。	NO_PRONOUNCE	NO_LABEL
特にヘルダーと親しく行き来し『批判と批判』、『カリゴーネ』などで協働、またヤコービとも往復書簡を交わし哲学上の意見交換を行う。	NO_PRONOUNCE	NO_LABEL
1800年にベルリンに移り、翌年に最高法院裁判官の娘カロリーネ・マイヤーと結婚しマイニンゲンに移住。	NO_PRONOUNCE	NO_LABEL
1802年、絶えず中断しながら書き進めていた長編『巨人』を完成。	NO_PRONOUNCE	NO_LABEL
1803-4年のコーブルク居住を経て、1804年以降バイロイトに落ち着く。	NO_PRONOUNCE	NO_LABEL
『巨人』完成後は長編小説『生意気ざかり』に取り掛かっていたが途絶し、しばらく『美学入門』や政治書『自由小書』、教育論『レヴァーナ』と理論的著作に集中する。	NO_PRONOUNCE	NO_LABEL
ジャン・パウルは政治的には民主主義の立場を堅持し、ドイツ共和国の建設を擁護しつつ極端なナショナリズムを批判した。	じゃんぱうるわせいじてきにわみんしゅしゅぎのたちばをけんじし、どいつきょーわこくのけんせつをよーごしつつきょくたんななしょなりずむをひはんした。	NO_LABEL
1817年、ハイデルベルク大学でヘーゲルから名誉哲学博士が贈られる。	せんはっぴゃくじゅうななねん、はいでるべるくだいがくでへーげるからめいよてつがくはかせがおくられる。	NO_LABEL
1811年より大作小説『彗星』に取り掛かっていたが未完に終わった。	NO_PRONOUNCE	NO_LABEL
1825年、バイロイトにて死去。	せんはっぴゃくにじゅうごねん、ばいろいとにてしきょ。	NO_LABEL
ジャン・パウルの小説はその多くが彼の生まれ故郷に似た田舎町を舞台にしており、小市民の生活が人間愛を持って語られるとともに、後進的なドイツの現実が自由奔放な空想的イメージと対比されることにより風刺・批判をこめて描かれる。	NO_PRONOUNCE	NO_LABEL
文章は該博な知識にもとづく機知や突飛な比喩が詰め込まれた饒舌・雑駁な長文が特徴で、時には物語の筋を脱線し一般的モチーフの考察や解説にページが割かれる。	NO_PRONOUNCE	NO_LABEL
前述のようにスターンやフィールディングを範とした彼の文体は、一面で当時の読者が慣れていた感傷的な通俗小説の文体にも似ているものでもあり、このこともあって読者の人気を博し一時はゲーテをしのぐと言われるほど広く読まれたが、物語の随所に詰め込まれた雑駁な知識とイメージはすぐ後代の読者を遠ざける原因ともなった。	ぜんじゅつのよーにすたーんやふぃーるでぃんぐをはんとしたかれのぶんたいわ、いちめんでとーじのどくしゃがなれていたかんしょーてきなつーぞくしょーせつのぶんたいにもにているものでもあり、このこともあってどくしゃのにんきをはくしいちじわげーてをしのぐといわれるほどひろくよまれたが、ものがたりのずいしょにつめこまれたざっぱくなちしきといめーじわすぐこーだいのどくしゃをとーざけるげんいんともなった。	NO_LABEL
文壇的にはゲーテらの古典主義を芸術主義・形式主義と見なして批判的に捉え、また資質的にはより近いといわれるロマン主義の文学とも距離を置き独自の文学的世界を保った。	NO_PRONOUNCE	NO_LABEL
ジャン・パウルの作品はE.T.A.ホフマン、ケラー、シュティフター、ラーベらに大きな影響を与えており、後世の詩人であるホーフマンスタールやシュテファン・ゲオルゲも彼の作品に高い評価を与えている。	じゃんぱうるのさくひんわいーてぃーえーほふまん、けらー、しゅてぃふたー、らーべらにおーきなえいきょーをあたえており、こーせいのしじんであるほーふまんすたーるやしゅてふぁんげおるげもかれのさくひんにたかいひょーかをあたえている。	NO_LABEL
フランスのロマン主義文学にも影響を与えた。	ふらんすのろまんしゅぎぶんがくにもえいきょーをあたえた。	NO_LABEL
主要作品はほぼすべて翻訳されている。	しゅよーさくひんわほぼすべてほんやくされている。	NO_LABEL
単刊	たんかん	NO_LABEL
叢書・著作集ほか	NO_PRONOUNCE	NO_LABEL
