五十市駅は、宮崎県都城市久保原町にある、九州旅客鉄道日豊本線の駅である。	いそいちえきわ、みやざきけんみやこのじょーしくぼばるちょーにある、きゅーしゅーりょかくてつどーにっぽーほんせんのえきである。	NO_LABEL
相対式ホーム2面2線を有する地上駅。	NO_PRONOUNCE	NO_LABEL
無人駅である。	むじんえきである。	NO_LABEL
近年の1日平均乗車人員は以下の通り。	きんねんのついたちへいきんじょーしゃじんいんわいかのとーり。	NO_LABEL
都城市の郊外であり農地と住宅が混在している。	みやこのじょーしのこーがいでありのーちとじゅーたくがこんざいしている。	NO_LABEL
