ゾンビによる世界の終末とは、SFやホラーなどのフィクション作品に見られる、いわゆる終末もの出現し、文明がその脅威にさらされるというシナリオである。	ぞんびによるせかいのしゅーまつとわ、えすえふやほらーなどのふぃくしょんさくひんにみられる、いわゆるしゅーまつものしゅつげんし、ぶんめいがそのきょーいにさらされるとゆうしなりおである。	NO_LABEL
多くの場合、ゾンビに攻撃された者もゾンビ化するため、数量は指数関数的に拡大していき、通常の軍事組織や治安維持組織が持つ掃討能力を圧倒する大発生が伝染病のように発生した結果、文明社会は孤立したわずかな生存者を残す程度にまで一挙に崩壊する。	おーくのばあい、ぞんびにこーげきされたものもぞんびかするため、すーりょーわしすーかんすーてきにかくだいしていき、つーじょーのぐんじそしきやちあんいじそしきがもつそーとーのーりょくをあっとーするだいはっせいがでんせんびょーのよーにはっせいしたけっか、ぶんめいしゃかいわこりつしたわずかなせいぞんしゃをのこすていどにまでいっきょにほーかいする。	NO_LABEL
この突然の四面楚歌の状況下で、生存者たちは食料や必需品を求めて知恵を絞りつつ、人類の命運を賭けて奮闘することとなる。	このとつぜんのしめんそかのじょーきょーかで、せいぞんしゃたちわしょくりょーやひつじゅひんをもとめてちえをしぼりつつ、じんるいのめいうんをかけてふんとーすることとなる。	NO_LABEL
ゾンビによる世界の終末を描いた作品には、いくつか共通の設定が見られる。	ぞんびによるせかいのしゅーまつをえがいたさくひんにわ、いくつかきょーつーのせっていがみられる。	NO_LABEL
物語は通常、災厄の渦中に放り込まれた少数の生存者グループの成り行きを中心に捉える。	ものがたりわつーじょー、さいやくのかちゅーにほーりこまれたしょーすーのせいぞんしゃぐるーぷのなりゆきをちゅーしんにとらえる。	NO_LABEL
まずゾンビ発生の様子を描き、当局への支援要請とその敗退、そして一挙に訪れる破局、これに続く残存者らの生き残りへの闘い、といった展開を辿るものが多い。	まずぞんびはっせいのよーすをえがき、とーきょくえのしえんよーせいとそのはいたい、そしていっきょにおとずれるはきょく、これにつずくざんそんしゃらのいきのこりえのたたかい、といったてんかいをたどるものがおーい。	NO_LABEL
破滅に直面した登場人物らがいかなる反応を示し、非常事態の中でその人格がどのように変貌するかに焦点を当てるのが典型的である。	はめつにちょくめんしたとーじょーじんぶつらがいかなるはんのーをしめし、ひじょーじたいのなかでそのじんかくがどのよーにへんぼーするかにしょーてんをあてるのがてんけいてきである。	NO_LABEL
多くの場合、彼らは通常の生活におけるよりも、恐怖や自己防衛本能といったより原始的な動機に行動を支配されるようになる。	おーくのばあい、かれらわつーじょーのせいかつにおけるよりも、きょーふやじこぼーえいほんのーといったよりげんしてきなどーきにこーどーをしはいされるよーになる。	NO_LABEL
元凶となるゾンビはゆっくりと動き回るものが多い。	げんきょーとなるぞんびわゆっくりとうごきまわるものがおーい。	NO_LABEL
これは映画『ナイト・オブ・ザ・リビングデッド』で最初にポピュラーになったゾンビ像である。	NO_PRONOUNCE	NO_LABEL
近年は伝統的なゾンビよりも強靭かつ敏捷なゾンビを描くものも現れている。	きんねんわでんとーてきなぞんびよりもきょーじんかつびんしょーなぞんびをえがくものもあらわれている。	NO_LABEL
大抵の「ゾンビによる終末もの」を通じて語られるのは、文明は真の脅威の前では根本的に脆弱であり、いかなる代償を払ってもほとんどの個人は善なる存在の恩恵に与ることができない、という世界観である。	NO_PRONOUNCE	NO_LABEL
こうした物語は、この分野の嚆矢となった映画『ナイト・オブ・ザ・リビングデッド』が製作された1960年代の不安定な世相に深く関わっていると指摘される。	NO_PRONOUNCE	NO_LABEL
また、観衆や読者は、自らが抱える「世界の終末」への不安を対象化する手がかりとして、こうした物語を享受することもできる。	NO_PRONOUNCE	NO_LABEL
『ナイト・オブ・ザ・リビングデッド』以降、「ゾンビの侵襲による社会の崩壊」という主題を扱ったゾンビ関連作品は膨大な数に上る。	NO_PRONOUNCE	NO_LABEL
キム・パフレンロスは、「いかなるモンスターに増してゾンビは完全かつ文字通りに黙示的である…彼らは我々がそれぞれ予期している通りの世界の終わりを告げてくれるのだ」と述べている。	NO_PRONOUNCE	NO_LABEL
多数の映画作品やビデオゲームを背景に、「来たるべきゾンビ・アポカリプス」に備えるべく、マニアが武器の製作、あるいはゾンビ大量発生時のサヴァイヴァルについての啓蒙ポスター販売などを行なっている。	NO_PRONOUNCE	NO_LABEL
メリーランド州バルティモアのガウチャー大学 では、マニア学生によって「人間 vs. ゾンビ」で武装し「ゾンビチーム」と対決するものであったが、2007年のヴァージニア工科大学乱射事件および2008年のの関連で銃器の危険性を軽視する兆候であると指摘されている。	NO_PRONOUNCE	NO_LABEL
特徴的なものを一部、以下に列挙する。	とくちょーてきなものをいちぶ、いかにれっきょする。	NO_LABEL
