松川インターチェンジは、長野県下伊那郡松川町大島にある中央自動車道のインターチェンジ。	まつかわいんたーちぇんじわ、ながのけんしもいなぐんまつかわまちおおじまにあるちゅーおーじどーしゃどーのいんたーちぇんじ。	NO_LABEL
松川町、高森町、豊丘村、喬木村北部、大鹿村、上伊那郡中川村、飯島町南部の最寄りICである。	まつかわちょー、たかもりちょー、とよーかむら、たかぎむらほくぶ、おおしかむら、かみーなぐんなかがわむら、いーじまちょーなんぶのもよりあいしーである。	NO_LABEL
周辺の県道にはりんご畑や梨畑の農園が多数存在する。	しゅーへんのけんどーにわりんごばたけやなしはたののーえんがたすーそんざいする。	NO_LABEL
松川インターバスストップは、松川インターチェンジに併設されている中央自動車道のバス停留所である。	まつかわいんたーばすすとっぷわ、まつかわいんたーちぇんじにへいせつされているちゅーおーじどーしゃどーのばすていりゅーじょである。	NO_LABEL
