北区 内田康夫ミステリー文学賞は、東京都北区の知名度を高めるため、北区アンバサダーである作家内田康夫の協力の下に、2002年4月に創設された文学賞である。	きたくうちだやすおみすてりーぶんがくしょーわ、とーきょーときたくのちめいどをたかめるため、きたくあんばさだーであるさっかうちだやすおのきょーりょくのしたに、にせんにねんしがつにそーせつされたぶんがくしょーである。	NO_LABEL
短編の推理小説を募集する。	たんぺんのすいりしょーせつをぼしゅーする。	NO_LABEL
主催は東京都北区で、実業之日本社が協賛する。	しゅさいわとーきょーときたくで、じつぎょーのにほんしゃがきょーさんする。	NO_LABEL
賞金は大賞が100万円、特別賞が10万円。	しょーきんわたいしょーがひゃくまんえん、とくべつしょーがじゅうまんえん。	NO_LABEL
結果は例年、文芸誌『月刊ジェイ・ノベル』4月号で発表され、選評と大賞受賞作品が掲載される。	NO_PRONOUNCE	NO_LABEL
また、受賞作は演劇化され、翌年の授賞式で上演される。	また、じゅしょーさくわえんげきかされ、よくねんのじゅしょーしきでじょーえんされる。	NO_LABEL
