『日高晤郎の北海道五十三次』は、STVラジオで放送されていたラジオ番組。	NO_PRONOUNCE	NO_LABEL
パーソナリティは日高晤郎。	ぱーそなりてぃわひだかごろー。	NO_LABEL
2003年4月～2008年3月放送。	NO_PRONOUNCE	NO_LABEL
毎回北海道に縁のある人物と対談をし、その内容を放送する。	まいかいほっかいどーにえんのあるじんぶつとたいだんをし、そのないよーをほーそーする。	NO_LABEL
初回対談者はスキーで有名な三浦雄一郎。	しょかいたいだんしゃわすきーでゆーめいなみうらゆういちろー。	NO_LABEL
