エキメキは、トルコでのパンの総称である。	えきめきわ、とるこでのぱんのそーしょーである。	NO_LABEL
リーン系で、気泡の多いふかふかのクラム、パリパリのパン皮で、クミンやゴマが入ることもある、というのが伝統的なタイプだが、形や大きさは様々である。	りーんけいで、きほーのおーいふかふかのくらむ、ぱりぱりのぱんがわで、くみんやごまがはいることもある、とゆうのがでんとーてきなたいぷだが、かたちやおーきさわさまざまである。	NO_LABEL
他にも、堅焼きの「シミット」やピザ状の「ピデ」など種類も多彩である。	NO_PRONOUNCE	NO_LABEL
エキメキはジャムやオリーブオイルを塗って食べることも多いが、軽食としてディップやケバブを挟んで食べることも多い。	えきめきわじゃむやおりーぶおいるをぬってたべることもおーいが、けいしょくとしてでぃっぷやけばぶをはさんでたべることもおーい。	NO_LABEL
イスタンブールのガラタ橋付近では、エキメキに焼いたサバとオニオンなどの野菜を挟んで、塩とレモン汁をかけた「バルク・エキメキ」が名物であり、市民や観光客に親しまれている。	NO_PRONOUNCE	NO_LABEL
