石油天然ガス公社サッカークラブはインド・マハーラーシュトラ州のムンバイを本拠地とするサッカークラブである。	NO_PRONOUNCE	NO_LABEL
2013年現在、国内最上位リーグであるIリーグに所属している。	にせんじゅうさんねんげんざい、こくないさいじょーいりーぐであるあいりーぐにしょぞくしている。	NO_LABEL
クラブのメインスポンサーは石油天然ガス公社であり、企業クラブの形態をとっている。	くらぶのめいんすぽんさーわせきゆてんねんがすこーしゃであり、きぎょーくらぶのけいたいをとっている。	NO_LABEL
2006年、ONGCはIリーグ以前の全国リーグであったナショナル・フットボールリーグ、、ネルー・カップなどインドのサッカー大会のスポンサーを務めていたが、これらの大会の発展を願って、ONGC FCと呼ばれるサッカークラブを自ら立ち上げた。	NO_PRONOUNCE	NO_LABEL
Iリーグ2部に参加した最初のシーズン、クラブは6位で1回戦のリーグを終えた。	あいりーぐにぶにさんかしたさいしょのしーずん、くらぶわろくいでいちかいせんのりーぐをおえた。	NO_LABEL
最初のシーズンの終了後、クラブは所属選手とのプロ契約を多く結んで給料を上げるとともに、若手選手を多く入団させた。	さいしょのしーずんのしゅーりょーご、くらぶわしょぞくせんしゅとのぷろけいやくをおーくむすんできゅーりょーをあげるとともに、わかてせんしゅをおーくにゅーだんさせた。	NO_LABEL
これらの変化はクラブに良い影響を与え、2009年の2部リーグでは1回戦のグループリーグを1位で突破した後、最終的に5位に入った。	これらのへんかわくらぶによいえいきょーをあたえ、にせんきゅうねんのにぶりーぐでわいちかいせんのぐるーぷりーぐをいちーでとっぱしたのち、さいしゅーてきにごいにはいった。	NO_LABEL
翌シーズンの2010年の2部リーグにおいて、ONGCは決勝ラウンドを無敗で終え、翌シーズンのIリーグへの昇格を決めた。	よくしーずんのにせんじゅうねんのにぶりーぐにおいて、おーえぬじーしーわけっしょーらうんどをむはいでおえ、よくしーずんのあいりーぐえのしょーかくをきめた。	NO_LABEL
Iリーグへの初昇格を決めた後、ONGCはナイジェリア人のデヴィッド・オパラとの契約やIリーグ2部2010得点王のBadmus Babatundeとの再契約、前サッカーインド代表GKであるRajat Ghosh Dastidarとの契約など積極的な補強を行った。	NO_PRONOUNCE	NO_LABEL
ONGCは2010-11シーズン初のIリーグの試合を2010年12月4日に行った。	NO_PRONOUNCE	NO_LABEL
対戦相手はイースト・ベンガルであり、ソルトレイク・スタジアムで行われたこの試合でONGCは0-1で敗れた。	NO_PRONOUNCE	NO_LABEL
2011年1月9日のヴィヴァ・ケーララ戦でオパラが得点を決め、ONGCはホームで初勝利を挙げた2011年2月12日、ONGCはその試合まで無敗を続けていたイースト・ベンガルとのCooperage Groundでの対戦において、58分にBabatundeが決めたゴールを守りきって1-0で勝利し、大きな話題となった。	NO_PRONOUNCE	NO_LABEL
しかし、ONGCはこのような試合を続けて勝利を重ねることはできず、最終的にクラブはIリーグで最下位の14位となり1年でのIリーグ2部への降格が決定した。	しかし、おーえぬじーしーわこのよーなしあいをつずけてしょーりをかさねることわできず、さいしゅーてきにくらぶわあいりーぐでさいかいのじゅうよんいとなりいちねんでのあいりーぐにぶえのこーかくがけっていした。	NO_LABEL
ONGCは2012年のIリーグ2部シーズンに参加、翌年のIリーグ復帰に向けてスタートを切った。	おーえぬじーしーわにせんじゅうにねんのあいりーぐにぶしーずんにさんか、よくねんのあいりーぐふっきにむけてすたーとをきった。	NO_LABEL
1回戦のグループリーグを1位で通過、決勝ラウンドへと進出した。	いちかいせんのぐるーぷりーぐをいちーでつーか、けっしょーらうんどえとしんしゅつした。	NO_LABEL
決勝ラウンド12試合はシリグリとシッキム州で行われ、2012年4月17日にONGCはアイザウルFC戦を1-1で引き分けて大会2位を確定させ、翌シーズンのIリーグ昇格を決めた。	NO_PRONOUNCE	NO_LABEL
