数学におけるビーティ列は正の無理数の整数倍の床関数をとることによって得られるである。	すーがくにおけるびーてぃれつわせいのむりすーのせいすーばいのゆかかんすーをとることによってえられるである。	NO_LABEL
ビーティ列の名称は、1926年にそれらについて著したに因む。	びーてぃれつのめいしょーわ、せんきゅうひゃくにじゅうろくねんにそれらについてあらわしたにちなむ。	NO_LABEL
レイリー卿に名を因むレイリーの定理は、ビーティ列の補集合がそれ自身別の無理数で生成されるビーティ列となることを述べる。	れいりーきょーになをちなむれいりーのていりわ、びーてぃれつのほしゅーごーがそれじしんべつのむりすーでせいせいされるびーてぃれつとなることをのべる。	NO_LABEL
ビーティ列はの生成にも用いられる。	びーてぃれつわのせいせいにももちいられる。	NO_LABEL
正の無理数 はビーティ列 を生成する。	せいのむりすーわびーてぃれつをせいせいする。	NO_LABEL
 を黄金比とすれば、 である。	をおーごんひとすれば、である。	NO_LABEL
この場合、整数列 は下ワイソフ列	このばあい、せいすーれつわしもわいそふれつ	NO_LABEL
であり、補列 は上ワイソフ列	であり、ほれつわうえわいそふれつ	NO_LABEL
である。	である。	NO_LABEL
これらの列はの最適戦略を定義し、の定義に用いられる。	これらのれつわのさいてきせんりゃくをていぎし、のていぎにもちいられる。	NO_LABEL
もう一つの例として、 の場合、数列は 	もーひとつのれいとして、のばあい、すーれつわ	NO_LABEL
あるいは に対する列は	あるいわにたいするれつわ	NO_LABEL
これら数列の対に関して、第一の列に現れるどの数も第二の列には現れず、またその逆も言えるということに注意せよ。	これらすーれつのたいにかんして、だいいちのれつにあらわれるどのかずもだいにのれつにわあらわれず、またそのぎゃくもいえるとゆうことにちゅーいせよ。	NO_LABEL
ビーティ列がその名で呼ばれるようになるのは、1926年に雑誌 "" において が提起した問題に由来する。	NO_PRONOUNCE	NO_LABEL
この問題はおそらく、その雑誌に提案された中でも最も引用される問題の一つである。	このもんだいわおそらく、そのざっしにていあんされたなかでももっともいんよーされるもんだいのひとつである。	NO_LABEL
しかし、それよりもずっと以前の1894年に、同じ数列がレイリーの著書 "The Theory of Sound" の第二版で簡単に言及されている。	NO_PRONOUNCE	NO_LABEL
レイリーの定理は与えられた任意の無理数 に対し、無理数 が存在して二つのビーティ列 は正整数全体の成す集合を分割する。	れいりーのていりわあたえられたにんいのむりすーにたいし、むりすーがそんざいしてふたつのびーてぃれつわせいせいすーぜんたいのなすしゅーごーをぶんかつする。	NO_LABEL
すなわち、各正整数はこの二つの整数列のうちちょうど一方に属する	すなわち、かくせいせいすーわこのふたつのせいすーれつのうちちょーどいっぽーにぞくする	NO_LABEL
さらに言えば、formula_3 なる条件とも同値である。	NO_PRONOUNCE	NO_LABEL
無理数 に付随するビーティ列 の第一階差 は、字母集合 上のである。	むりすーにふずいするびーてぃれつのだいいっかいさわ、じぼしゅーごーじょーのである。	NO_LABEL
はレイリーの定理を一般化するもので、整数函数およびその逆函数から定義されるより一般の列の対が、同じ整数全体の集合の分割性質を持つことを示す。	われいりーのていりをいっぱんかするもので、せいすーかんすーおよびそのぎゃくかんすーからていぎされるよりいっぱんのれつのたいが、おなじせいすーぜんたいのしゅーごーのぶんかつせいしつをもつことをしめす。	NO_LABEL
の定理は、正の実数 に対し が全ての整数をちょうど一つずつ含むならば であることを述べる。	のていりわ、せいのじっすーにたいしがすべてのせいすーをちょーどひとつずつふくむならばであることをのべる。	NO_LABEL
つまり、三つ以上のビーティ列の組に関するレイリーの定理と同等の定理は存在しない。	つまり、みっついじょーのびーてぃれつのくみにかんするれいりーのていりとどーとーのていりわそんざいしない。	NO_LABEL
