ウェスト・ケンジントン駅は、ロンドンのウェスト・ケンジントンにあるロンドン地下鉄ディストリクト線の駅である。	NO_PRONOUNCE	NO_LABEL
に属する。	にぞくする。	NO_LABEL
なお、ディストリクト線に並行してピカデリー線も走行しているが、ホームはなく停車しない。	なお、でぃすとりくとせんにへいこーしてぴかでりーせんもそーこーしているが、ほーむわなくていしゃしない。	NO_LABEL
この駅は1874年9月9日に、メトロポリタン・ディストリクト鉄道が、アールズ・コート駅からハマースミス駅までを延伸開業した際に「フラム - ノース・エンド駅」として開業した。	NO_PRONOUNCE	NO_LABEL
その時点で西側の次の駅はハマースミスであった。	そのじてんでにしがわのつぎのえきわはまーすみすであった。	NO_LABEL
1877年、駅名を「ウェスト・ケンジントン駅」に改称した。	NO_PRONOUNCE	NO_LABEL
1927年、駅舎が建て替えられた。	せんきゅうひゃくにじゅうななねん、えきしゃがたてかえられた。	NO_LABEL
によるデザインは、1926年に開業したノーザン線のモーデン駅までの延伸線でホルデンが用いたものと類似の素材の使用・仕上げである。	NO_PRONOUNCE	NO_LABEL
駅の東に少し離れた場所に地下鉄の車両基地であるリリー・ブリッジへの引き上げ線がある。	えきのひがしにすこしはなれたばしょにちかてつのしゃりょーきちであるりりーぶりっじえのひきあげせんがある。	NO_LABEL
この車両基地は1871年にMDRの列車を収容するために建設された。	NO_PRONOUNCE	NO_LABEL
しかし、1905年にMDRの路線が電化された時、イーリング・コモン駅に新しい車両基地が建設された。	NO_PRONOUNCE	NO_LABEL
車両基地はその後、1906年に開業したピカデリー線用の車両基地となった。	しゃりょーきちわそのご、せんきゅうひゃくろくねんにかいぎょーしたぴかでりーせんよーのしゃりょーきちとなった。	NO_LABEL
ピカデリー線の列車が車両基地へ向かう際には、回送列車がディストリクト線の線路を西隣のバロンズ・コート駅からウェスト・ケンジントン駅まで走行し、入場した。	ぴかでりーせんのれっしゃがしゃりょーきちえむかうさいにわ、かいそーれっしゃがでぃすとりくとせんのせんろをにしとなりのばろんずこーとえきからうぇすとけんじんとんえきまでそーこーし、にゅーじょーした。	NO_LABEL
これはピカデリー線がハマースミスより西に延伸し、新たにピカデリー線用にに新しい車両基地が整備された1932年まで継続された。	これわぴかでりーせんがはまーすみすよりにしにえんしんし、あらたにぴかでりーせんよーににあたらしいしゃりょーきちがせいびされたせんきゅうひゃくさんじゅうにねんまでけいぞくされた。	NO_LABEL
その後、車両基地は車両工場に転用されている。	そのご、しゃりょーきちわしゃりょーこーじょーにてんよーされている。	NO_LABEL
駅は・Talgarth Roadのジャンクション付近にある。	NO_PRONOUNCE	NO_LABEL
ウェスト・ケンジントン駅の東の線路に隣接してロンドン地下鉄のオフィス・ビルである、ロンドン地下鉄グループ総裁、ロンドン旅客運輸公社の委員かつロンドン交通局の先任者であるを記念して名付けられた「アシュフィールド・ハウスがある。	NO_PRONOUNCE	NO_LABEL
昼間の発車パターンは以下の通り。	ひるまのはっしゃぱたーんわいかのとーり。	NO_LABEL
本数は1時間あたりのもの。	ほんすーわいちじかんあたりのもの。	NO_LABEL
ロンドンバスの28、391系統と、深夜バスのN28系統が発着する。	NO_PRONOUNCE	NO_LABEL
