法泉寺は、山梨県甲府市にある臨済宗妙心寺派の寺院。	ほーせんじわ、やまなしけんこーふしにあるりんざいしゅーみょーしんじはのじいん。	NO_LABEL
山号は金剛福聚山。	さんごーわこんごーふくじゅやま。	NO_LABEL
本尊は弥勒菩薩。	ほんぞんわみろくぼさつ。	NO_LABEL
甲府五山のひとつ。	こーふござんのひとつ。	NO_LABEL
甲府盆地の北縁、法泉寺山の南東麓に位置。	こーふぼんちのきたえん、ほーせんてらやまのなんとーふもとにいち。	NO_LABEL
東には相川が流れる。	ひがしにわあいかわがながれる。	NO_LABEL
『甲斐国志』によれば、南北朝時代の元徳年間に、甲斐国守護・武田信武が開基となり、信武が帰依した月舟周勲を開山として創建される。	NO_PRONOUNCE	NO_LABEL
月舟は法師である夢窓疎石を開山とし、自身は二世と位置づけたという。	げっしゅーわほーしであるむそうそせきをかいさんとし、じしんわにせいといちずけたという。	NO_LABEL
寺名は境内にある金剛不動石と呼ばれる巨石に由来する。	てらなわけいだいにあるこんごーふどーせきとよばれるきょーせきにゆらいする。	NO_LABEL
信武の菩提寺となり、『甲斐国社記・寺記』によれば、甲斐守護・武田晴信は甲府五山の一つに定め、快岳周悦を住職として招き庇護したといわれ、法泉寺文書には信玄・勝頼期の寺領安堵や禁制などの文書が残されている。	NO_PRONOUNCE	NO_LABEL
また、『甲陽軍鑑』によれば快岳は武田氏滅亡に際して帯那郷へ逃れ、京都より持ち帰った勝頼の遺髪を帯那山に隠したといわれ、後に甲斐を領した徳川氏は快岳を中興開山とし勝頼の菩提寺に定めたという。	NO_PRONOUNCE	NO_LABEL
江戸時代には江戸幕府から朱印状を与えられ、武田氏に関する文書を所蔵している。	えどじだいにわえどばくふからしゅいんじょーをあたえられ、たけだしにかんするぶんしょをしょぞーしている。	NO_LABEL
法泉寺は武田勝頼ゆかりの寺院として知られ、江戸時代の文政13年に勝頼250回忌に際して制作された甲冑姿の肖像が伝来している。	ほーせんじわたけだかつよりゆかりのじいんとしてしられ、えどじだいのぶんせいじゅうさんねんにかつせにひゃくごじゅっかいきにさいしてせいさくされたかっちゅーすがたのしょーぞーがでんらいしている。	NO_LABEL
山梨県甲府市和田町2595	NO_PRONOUNCE	NO_LABEL
