ヴァートは、紋章学における緑色を表すティンクチャーであり、「原色」と呼ばれる種類のティンクチャーに属する。	NO_PRONOUNCE	NO_LABEL
なお、ティンクチャーとは紋章学における紋様の要素である原色・金属色・毛皮模様の総称である。	NO_PRONOUNCE	NO_LABEL
古典的な白黒の印刷物や硬貨の刻印をはじめとする彫刻では色を表すことができないため、ペトラ・サンクタの方法と呼ばれる手法では、ヴァートは紋章を見る側から向かって左上から右下の向きの斜め45度の平行線の領域として表される。	NO_PRONOUNCE	NO_LABEL
さもなくば vt. といった省略形で示されることがある。	NO_PRONOUNCE	NO_LABEL
ヴァートは次のものを表現するとされている。	NO_PRONOUNCE	NO_LABEL
英語のヴァートは、中期英語では verte といい、ラテン語の「緑色の」を意味する viridis を語源とし、アングロフランス語又は中期フランス語の緑を意味する vert 又は verd を経て英語に取り入れられた。	NO_PRONOUNCE	NO_LABEL
しかし、フランスの紋章学においては、このティンクチャーは少なくとも1415年以降はシノプルと呼ばれていた。	しかし、ふらんすのもんしょーがくにおいてわ、このてぃんくちゃーわすくなくともせんよんひゃくじゅうごねんいこーわしのぷるとよばれていた。	NO_LABEL
古フランス語及び初期の文書では、ヴァートが緑色ということを意味する一方で、シノプルは赤色を意味しており、その名前を得た鉱物の顔料につけられていた名前であった。	NO_PRONOUNCE	NO_LABEL
しかしなぜ、フランス語で単語の意味が変わったかは明らかになっていない。	しかしなぜ、ふらんすごでたんごのいみがかわったかわあきらかになっていない。	NO_LABEL
ヴァートの色はムスリムの信仰の象徴となっており、汎アラブ色のうちの1つである。	NO_PRONOUNCE	NO_LABEL
その結果、アラブ諸国の多くのイスラム国家の国旗は緑色のストライプを含むか、緑色を背景とする旗である。	そのけっか、あらぶしょこくのおーくのいすらむこっかのこっきわりょくしょくのすとらいぷをふくむか、りょくしょくをはいけいとするはたである。	NO_LABEL
また、ヴァートは、アフリカ諸国の国旗でも広く用いられており、汎アフリカ色のうちの1つもまた、緑色である。	NO_PRONOUNCE	NO_LABEL
その他の国は、国土の緑と彼らの国の豊かさを表現するために、国旗にヴァートを用いている。	NO_PRONOUNCE	NO_LABEL
英語による最も短い紋章記述は「ヴァート」の一言だけの記述である。	NO_PRONOUNCE	NO_LABEL
Pupellin の紋章とリビアの国旗がそれにあたる。	NO_PRONOUNCE	NO_LABEL
