柔組織は生物の組織であり、動物と植物ではそれぞれ意味が異なる。	じゅうそしきわせいぶつのそしきであり、どーぶつとしょくぶつでわそれぞれいみがことなる。	NO_LABEL
柔組織は、器官の機能的を持つ部分を指す。	じゅうそしきわ、きかんのきのーてきをもつぶぶんをさす。	NO_LABEL
組織を支えるだけの基質とは異なる。	そしきをささえるだけのきしつとわことなる。	NO_LABEL
例えば次のようなものである。	たとえばつぎのよーなものである。	NO_LABEL
柔組織は、細胞壁が木質化されていない柔細胞からなる組織を指す。	じゅうそしきわ、さいぼーへきがもくしつかされていないやわらさいぼーからなるそしきをさす。	NO_LABEL
根や芽、茎の中心にある柔細胞は髄と呼ばれる。	ねやめ、くきのちゅーしんにあるやわらさいぼーわずいとよばれる。	NO_LABEL
葉の柔細胞は葉肉で、光合成と呼吸を担っている。	はのやわらさいぼーわはにくで、こーごーせいとこきゅーをになっている。	NO_LABEL
