みうらじゅんのグレイト余生映画ショー in 日活ロマンポルノは衛星劇場で放送されているテレビ番組である。	みうらじゅんのぐれいとよせいえいがしょーいんにっかつろまんぽるのわえいせいげきじょーでほーそーされているてれびばんぐみである。	NO_LABEL
月に一度、新作が放映される。	つきにいちど、しんさくがほーえいされる。	NO_LABEL
衛星劇場は有料チャンネルであるが、この番組は無料放送されている。	えいせいげきじょーわゆーりょーちゃんねるであるが、このばんぐみわむりょーほーそーされている。	NO_LABEL
みうらじゅんが、「スケバン SEX 暴力 」、「絶倫」、「のぞき」、「タイトルの冠にTHEがつくもの」といった毎回特定のテーマに基づいて日活ロマンポルノの見どころを紹介していく。	NO_PRONOUNCE	NO_LABEL
