アブソリュートとは、室温で植物の香りを溶媒に移し抽出した香料で、高温の水蒸気蒸留で抽出する精油と区別される。	あぶそりゅーととわ、しつおんでしょくぶつのかおりをよーばいにうつしちゅーしゅつしたこーりょーで、こーおんのすいじょーきじょうりゅーでちゅーしゅつするせいゆとくべつされる。	NO_LABEL
まず、非極性化合物の抽出をするためヘキサンのような無極性有機溶媒を植物材料に添加する。	まず、ひきょくせいかごーぶつのちゅーしゅつをするためへきさんのよーなむきょくせいゆーきよーばいをしょくぶつざいりょーにてんかする。	NO_LABEL
この溶液をろ過し、蒸留により濃縮してと呼ばれるろう状の塊を造る。	このよーえきをろかし、じょーりゅーによりのーしゅくしてとよばれるろーじょーのかたまりをつくる。	NO_LABEL
ヘキサンより極性がある香り成分はコンクリートからエタノールに抽出される。	へきさんよりきょくせいがあるかおりせいぶんわこんくりーとからえたのーるにちゅーしゅつされる。	NO_LABEL
そしてエタノールを蒸発させると、油が残る。	そしてえたのーるをじょーはつさせると、あぶらがのこる。	NO_LABEL
