ラー・アンドロメダ・プロメシュームは、松本零士の作品に登場する架空の人物。	らーあんどろめだぷろめしゅーむわ、まつもとれいじのさくひんにとーじょーするかくーのじんぶつ。	NO_LABEL
正式名はプロメシュームII世だが、「II世」の呼称は省略される場合が多い。	NO_PRONOUNCE	NO_LABEL
『銀河鉄道999』ではプロメシュームとしか呼ばれておらず、また『新竹取物語 1000年女王』TV版やOVA作品でも使用されていないため、本項目では便宜上「プロメシューム」と表記する。	NO_PRONOUNCE	NO_LABEL
なお、本項目では主に初出の作品である『999』の描写を中心に解説する。	NO_PRONOUNCE	NO_LABEL
『999』劇中において、機械帝国の最高権力者・女王プロメシュームとして登場。	NO_PRONOUNCE	NO_LABEL
メーテルの母にして機械帝国の建国者であり、かつてはドクター・バンと夫婦であった。	めーてるのははにしてきかいていこくのけくこくしゃであり、かつてわどくたーばんとふーふであった。	NO_LABEL
「機械の体」による永遠の命を全宇宙に拡大すべく野望を燃やす。	NO_PRONOUNCE	NO_LABEL
2000年以降、『999』と『1000年女王』のミッシングリンクを埋める作品という位置付けがなされたOVA作品の『メーテルレジェンド』およびTVアニメ『宇宙交響詩メーテル 銀河鉄道999外伝』が発表され、『1000年女王』の雪野弥生＝『999』のプロメシュームという設定が明確なものとなった。	NO_PRONOUNCE	NO_LABEL
その結果、プロメシュームのフルネームは『1000年女王』作中で明かされた弥生のラーメタル名となり、『1000年女王』は彼女の若かりし頃を描いた作品という位置付けが明確にされた。	NO_PRONOUNCE	NO_LABEL
これに伴い『レジェンド』において、ラーメタルに帰還した弥生が機械帝国の女王プロメシュームへと変貌していく過程が描かれた。	NO_PRONOUNCE	NO_LABEL
なお、この過程は『999』映画2作目などで本人やメーテルから語られる経緯とは大きく異なる。	NO_PRONOUNCE	NO_LABEL
狂信的なまでに機械の信奉者であり、かつての夫・バン曰く「哀れな機械の女」。	NO_PRONOUNCE	NO_LABEL
TV版では、自らを「全宇宙の支配者」と称している。	NO_PRONOUNCE	NO_LABEL
メーテルに対しては並々ならぬ愛情を注いでいる。	めーてるにたいしてわなみなみならぬあいじょーをそそいでいる。	NO_LABEL
だが自分の理想を邪魔する者に対しては非情であり、たとえそれが夫や血を分けた娘であっても決して容赦はしない。	だがじぶんのりそーをじゃまするものにたいしてわひじょーであり、たとえそれがおっとやちをわけたむすめであってもけっしてよーしゃわしない。	NO_LABEL
TV版でのメーテルの台詞によれば、かつては「鉄郎のお母さんにも負けないくらい優しい母」だったという。	NO_PRONOUNCE	NO_LABEL
だが、「機械の体による永遠の命の実現を目指すようになってから母は変わってしまった」とのことであり、劇中においては人間としての温かい心は既に失われていた。	NO_PRONOUNCE	NO_LABEL
若い頃は苦節の人生を歩んできた苦労人であった。	わかいころわくせつのじんせいをあゆんできたくろーにんであった。	NO_LABEL
原作ではメーテルが連れてきた少年・星野鉄郎の前に姿を現した際に、映画2作目ではメーテルの前に姿を現わした際に、自分がこれまで歩んできた道のりを語る場面がある。	NO_PRONOUNCE	NO_LABEL
メーテル以外の生身の人間を見下しており、自分の前に現われた鉄郎に対して「おろかな生身の2足動物」と言い放ったり、しばしば「おろかな人間ども」といった表現を用いている。	NO_PRONOUNCE	NO_LABEL
なお、鉄郎に対しては接し方が原作とアニメでは異なり、先行して登場したTV版、劇場版2作品では敵愾心をむき出しにしているが、原作では前述の通り侮蔑的表現を用いる一方でメーテルと共に旅を続けてきたことに対しては礼を言い、かつての自分の姿を重ねてその人間性を評価する発言に加え、「鏡の中の自分を撃てるのか？」という警句を残している。	NO_PRONOUNCE	NO_LABEL
機械化人にとっては偉大な存在であり、映画2作目の冒頭では鉄郎らと戦う機械化人の兵士達がシュプレヒコールでその名を呼ぶ場面があるほか、この映画での側近・黒騎士ファウストが管轄する銀河鉄道のコントロールセンター内には、プロメシュームの顔を模した巨大なレリーフが配置されている。	NO_PRONOUNCE	NO_LABEL
限りある命の素晴らしさを信じて機械化人と戦う生身の人間にとっては脅威であり、倒すべき存在であった。	かぎりあるいのちのすばらしさをしんじてきかいかじんとたたかうなまみのにんげんにとってわきょーいであり、たおすべきそんざいであった。	NO_LABEL
しかし、生身の人間を見下しているがゆえの詰めの甘さと機械に対する過信が、自身と機械帝国の破滅に繋がった。	しかし、なまみのにんげんをみくだしているがゆえのつめのあまさときかいにたいするかしんが、じしんときかいていこくのはめつにつながった。	NO_LABEL
『999』映画1作目で登場した際に、目は黒目のみ、能面における女面のような白い顔と、額には歯車の意匠が施された姿で描かれ、TV版や原作などでもこの容姿を基本として描かれている。	NO_PRONOUNCE	NO_LABEL
また、映画2作目で惑星ラーメタルの古城に描かれている、生身の人間だった頃の彼女の肖像画は機械化した後の顔とそっくりに描かれている。	NO_PRONOUNCE	NO_LABEL
2000年以降のOVA作品では、人間時代の容貌をメーテルが受け継いでいるという解釈がなされているようだ。	にせんねんいこーのおーぶいえーさくひんでわ、にんげんじだいのよーぼーをめーてるがうけついでいるとゆうかいしゃくがなされているよーだ。	NO_LABEL
90年代以降の作品においてメーテルとは姉妹となり、もう一人の娘として設定されたエメラルダスは性格、行動性、正義感においてプロメシュームよりは彼女の妹セレンに似ているところがある。	きゅうじゅうねんだいいこーのさくひんにおいてめーてるとわしまいとなり、もーひとりのむすめとしてせっていされたえめらるだすわせいかく、こーどーせい、せいぎかんにおいてぷろめしゅーむよりわかのじょのいもーとせれんににているところがある。	NO_LABEL
なお、その姿は作品ごとで異なっている。	なお、そのすがたわさくひんごとでことなっている。	NO_LABEL
機械化後のそれぞれの姿を以下に記す。	きかいかごのそれぞれのすがたをいかにしるす。	NO_LABEL
時系列順では、『1000年女王』→『レジェンド』→『宇宙交響詩-』→『999』となる。	NO_PRONOUNCE	NO_LABEL
ただし、作品の発表順は『999』→『1000年女王』→『レジェンド』→『宇宙交響詩-』となっており、整合性も十分に図られていない。	NO_PRONOUNCE	NO_LABEL
時代設定が1999年から2001年となる『1000年女王』では、1000年周期で地球に接近する惑星ラーメタルにおける地球の統治者1000年女王として登場。	NO_PRONOUNCE	NO_LABEL
地球で雪野弥生と名乗って生活していく中で、地球人達との交流を育んでいった。	ちきゅーでゆきのやよいとなのってせいかつしていくなかで、ちきゅーじんたちとのこーりゅーをはぐくんでいった。	NO_LABEL
円谷映像の『レジェンド』公式サイトに掲載されていた、原作者松本の筆によるwebコミックで彼女が雪野弥生として1001年から2001年の間を地球で暮らしたことを語る場面があったため、後述の『レジェンド』及び『宇宙交響詩-』は、原作漫画からの続きとみられる。	NO_PRONOUNCE	NO_LABEL
ラーメタル帰還後は女王となり、ドクター・バンという男性と結婚、彼との間にメーテルとエメラルダスの双子を儲けている。	らーめたるきかんごわじょおーとなり、どくたーばんとゆうだんせいとけっこん、かれとのまにめーてるとえめらるだすのふたごをもーけている。	NO_LABEL
太陽系を遠く離れて寒冷化してゆくラーメタルの民を救うべく、プロメシュームは苛酷な環境にも耐えられる機械の体になることを決意。	たいよーけいをとーくはなれてかんれいかしてゆくらーめたるのみんをすくうべく、ぷろめしゅーむわかこくなかんきょーにもたえられるきかいのからだになることをけつい。	NO_LABEL
彼女は機械化人の科学者ハードギアの言に従い機械化手術を受け、額から肉体の機械化を促進するカプセルを脳に埋め込まれる。	かのじょわきかいかじんのかがくしゃはーどぎあのげんにしたがいきかいかしゅじゅつをうけ、がくからにくたいのきかいかをそくしんするかぷせるをのーにうめこまれる。	NO_LABEL
だがそれは激痛を伴って肉体を次第に機械の体へと変えてゆくものであり、ハードギアの狙いはラーメタルを機械化して自分の支配下に置くことだった。	だがそれわげきつーをともなってにくたいをしだいにきかいのからだえとかえてゆくものであり、はーどぎあのねらいわらーめたるをきかいかしてじぶんのしはいかにおくことだった。	NO_LABEL
プロメシュームは増殖していく機械に体を蝕まれながらも、ラーメタルから娘達を送り出すべく999号に向けて救難信号を送る。	ぷろめしゅーむわぞーしょくしていくきかいにからだをむしばまれながらも、らーめたるからむすめたちをおくりだすべくすりーないんごーにむけてきゅーなんしんごーをおくる。	NO_LABEL
母として娘達を999号で送り出すことはできたものの、自身は機械化人となってしまう。	ははとしてむすめたちをすりーないんごーでおくりだすことわできたものの、じしんわきかいかじんとなってしまう。	NO_LABEL
プロメシュームは自分との同化を図ってその力を吸収しようとしたハードギアを倒すと、彼に代わって惑星の機械化と生身の人間の駆逐を宣言し、機械の女王となる。	ぷろめしゅーむわじぶんとのどーかをはかってそのちからをきゅーしゅーしようとしたはーどぎあをたおすと、かれにかわってわくせいのきかいかとなまみのにんげんのくちくをせんげんし、きかいのじょおーとなる。	NO_LABEL
『レジェンド』から数年後、プロメシュームは惑星ラーメタルと人間の機械化を進めていた。	NO_PRONOUNCE	NO_LABEL
メーテルにメッセージカードを送り、999で帰還した彼女の前に機械化する以前の姿で現われ、自分の後を継いで欲しいと頼むが、それは星の内部に眠らせている何体ものクローンを利用した影武者の内の一体であり、本体はラーメタルの中枢部の機械と一体化していた。	NO_PRONOUNCE	NO_LABEL
プロメシュームは状況や相手に応じて優しい人格を持った個体や冷酷な性格を持った個体を使い分けており、エメラルダスの前にもクローンを差し向けている。	ぷろめしゅーむわじょーきょーやあいてにおーじてやさしいじんかくをもったこたいやれいこくなせいかくをもったこたいをつかいわけており、えめらるだすのまえにもくろーんをさしむけている。	NO_LABEL
その急激な機械化は市民の反発を招き、部下のレオパルド達は表向きこそ従順を装っていたが叛旗を翻して自身の艦隊で首都を攻撃、後を継ぐかに見えたメーテルも機械化人となった母を倒すべくこのラーメタルへ戻ってきたのであり、彼女が先の女王ラーレラの指示に従い惑星のコアを分離させたことで惑星ラーメタルを破壊される。	そのきゅーげきなきかいかわしみんのはんぱつをまねき、ぶかのれおぱるどたちわおもてむきこそじゅーじゅんをよそおっていたがはんきをひるがえしてじしんのかんたいでしゅとをこーげき、ごをつぐかにみえためーてるもきかいかじんとなったははをたおすべくこのらーめたるえもどってきたのであり、かのじょがさきのじょおーらーれらのしじにしたがいわくせいのこあをぶんりさせたことでわくせいらーめたるをはかいされる。	NO_LABEL
崩壊する惑星からプロメシュームの本体は脱出を図るが、そこにメーテルとエメラルダスが現われたために2人と戦うこととなる。	ほーかいするわくせいからぷろめしゅーむのほんたいわだっしゅつをはかるが、そこにめーてるとえめらるだすがあらわれたためにふたりとたたかうこととなる。	NO_LABEL
強力な再生能力で2人を圧倒するが、メーテルの「母を倒す」という強い念が込められた血を体内に注ぎ込まれた結果、機械細胞を破壊されその肉体は砂のように崩れ去った。	NO_PRONOUNCE	NO_LABEL
だが死んではおらず、宇宙塵などを取り込み自分の体を再生させると、ラーメタル内部のコアから切り離されて誕生した新惑星に機械化人の艦隊を差し向けた。	だがしんでわおらず、うちゅーじんなどをとりこみじぶんのからだをさいせいさせると、らーめたるないぶのこあからきりはなされてたんじょーしたしんわくせいにきかいかじんのかんたいをさしむけた。	NO_LABEL
艦隊はレオパルドやハーロックたちの活躍で撃退されるが、その間に惑星プロメシュームという人工の惑星を誕生させた。	かんたいわれおぱるどやはーろっくたちのかつやくでげきたいされるが、そのかんにわくせいぷろめしゅーむとゆうじんこーのわくせいをたんじょーさせた。	NO_LABEL
惑星プロメシュームの強力な自己修復能力で、プロメシュームはハーロックのデスシャドウ号とクイーン・エメラルダス号を翻弄するが、トチローの発言にヒントを得たメーテルは、999の車内で知り合った少年・ナスカを惑星を破壊するのに必要な部品に変え、彼の艦で惑星に突入。	NO_PRONOUNCE	NO_LABEL
プロメシュームはメーテルの前にアンドロイドを多数差し向けるも、最終的にメーテルの手でナスカの魂を宿したネジを埋め込まれたことで惑星プロメシュームは内部から破壊され、プロメシュームも惑星と運命を共にした。	ぷろめしゅーむわめーてるのまえにあんどろいどをたすーさしむけるも、さいしゅーてきにめーてるのてでなすかのたましーをやどしたねじをうめこまれたことでわくせいぷろめしゅーむわないぶからはかいされ、ぷろめしゅーむもわくせいとうんめいをともにした。	NO_LABEL
だがこれでも完全には滅んではおらず、プロメシュームは中核となるパーツだけの存在として復活を待つ身となるのだった。	だがこれでもかんぜんにわほろんでわおらず、ぷろめしゅーむわちゅーかくとなるぱーつだけのそんざいとしてふっかつをまつみとなるのだった。	NO_LABEL
機械化人となってからは、以下の能力が確認されている。	きかいかじんとなってからわ、いかののーりょくがかくにんされている。	NO_LABEL
『999』原作及び映画2作目では、消滅する前に母親思いのメーテルに叫び、たとえ機械化された者でも母としての娘に対する思いを持ち、愛情表現をして人間らしさがあることを見せながら死んでいったが、TV版では、実の娘でさえも自分の理想を邪魔立てしようものなら殺すことをためらわず、鉄郎が自分に銃を向けた際には彼女の体を盾にしていた。	NO_PRONOUNCE	NO_LABEL
また映画1作目では愛娘に裏切られたことへの仕返しとして、メーテルの目の前で鉄郎を絞殺しようとし、彼女が泣き叫ぶ様子を見て愉しむなど、先述の原作及び映画2作目の描写と併せ、彼女に対しては愛憎入り混じる感情を抱く姿が描かれた。	NO_PRONOUNCE	NO_LABEL
原作でのメーテルの弁によれば、彼女が幼い頃朝露が付いてキラキラと光るクモの巣が好きだったという理由で、惑星大アンドロメダの街の灯をそれに似せて配置しており、メーテルに対し相当に愛情を注いでいるのが分かる。	げんさくでのめーてるのべんによれば、かのじょがおさないころあさつゆがついてきらきらとひかるくものすがすきだったとゆうりゆーで、わくせいだいあんどろめだのまちのひをそれににせてはいちしており、めーてるにたいしそーとーにあいじょーをそそいでいるのがわかる。	NO_LABEL
『宇宙交響詩-』ではメーテルに対し異常な執着を見せており、彼女の代わりのアンドロイドを多数作り、それを「メーテル」と呼んでいた。	NO_PRONOUNCE	NO_LABEL
だが、いずれも彼女のような心を持ち合わせたものにはなり得なかった。	だが、いずれもかのじょのよーなこころをもちあわせたものにわなりえなかった。	NO_LABEL
もう一人の娘・エメラルダスについては、映画1作目が製作された時点では、2人が親子という設定はない。	NO_PRONOUNCE	NO_LABEL
『999』作中では「プロメシューム」としか名前は出ておらず、『999』連載中にサンケイ新聞で連載が開始された『1000年女王』のヒロイン・雪野弥生のラーメタル名が「ラー・アンドロメダ・プロメシューム」と明かされた後に、原作者の松本自ら『1000年女王』はメーテルの母・プロメシュームの物語と明かしたことで、雪野弥生＝『999』のプロメシュームということになった 。	NO_PRONOUNCE	NO_LABEL
が、映画化の際にキャッチコピーが「1000年女王はメーテルなのか？」というものに決まったことに加え、松本自身も後に弥生＝メーテルと発言したこともあり、「1000年女王」こと雪野弥生と『999』のプロメシュームは別の人物という線で落ち着き、メーテルとエメラルダスも『999』アンドロメダ編では「ライバル」であり「姉妹」ではなかった。	NO_PRONOUNCE	NO_LABEL
しかしその後、1990年代に発表した『ニーベルングの指環』第2部「ワルキューレ」で幼少時のメーテルとエメラルダスが登場、2人は姉妹ということとなり、第3部「ジークフリート」でメーテルが自分の母の名を「ラー・アンドロメダ・プロメシューム」と語る場面が描かれた。	NO_PRONOUNCE	NO_LABEL
さらにOVA『メーテルレジェンド』において弥生がメーテルとエメラルダスの母・プロメシュームとして登場し、機械帝国の女王へと変貌する様子が描かれた。	NO_PRONOUNCE	NO_LABEL
こうした設定の変更により、『レジェンド』で2人の母として久しぶりにプロメシュームを演じた潘恵子は、「自分も実際に母親として生活しているので、「子供を育てる母親」という苦悩の部分が彼女とダブって見えた」とコメントした一方、『レジェンド』と『宇宙交響詩-』を経て機械化世界の女王として変貌していく様子が描かれたことについては『宇宙交響詩-』DVDの映像特典のインタビューで「生身の体から機械化していく過程を、絵面で変わっていくのと一緒にやっていくべきだとは思うけど、私としては生身の人間であるところをどこかに残しておいて欲しかった」と語っている。	NO_PRONOUNCE	NO_LABEL
また、「人間の雪野弥生をもう一度やりたい」とも語っており、『1000年女王』でヒロイン・雪野弥生として演じてきた潘としては心残りな部分もあったようだ。	NO_PRONOUNCE	NO_LABEL
先述の通り、正式名にはII世と付く。	NO_PRONOUNCE	NO_LABEL
プロメシュームの2代目ということで、メーテルとの関連性をうかがわせるものとなっている。	ぷろめしゅーむのにだいめとゆうことで、めーてるとのかんれんせいをうかがわせるものとなっている。	NO_LABEL
ただし、『1000年女王』の原作で初めてラーメタル名を名乗った時には「II世」とはつけておらず、この正式名は松本の「弥生=メーテル」発言や映画化の際のキャッチコピーが決まったあたりから出てきたものである。	NO_PRONOUNCE	NO_LABEL
また、プロメシュームという名は機械帝国の女王や最高権力者としての「称号」的な意味あいもあるらしく、『999』映画2作目で娘のメーテルがその後を継いだという噂が流れた時には、彼女の故郷であるラーメタル星で機械化人たちと戦っていたパルチザン・ミャウダーの弁によればメーテルがプロメシュームと呼ばれていたという。	NO_PRONOUNCE	NO_LABEL
「プロメシューム」という名前は、元素プロメチウムに由来する。	NO_PRONOUNCE	NO_LABEL
松本によれば、この金属は原子炉の中にしかできない金属であり、非常に人工的なものなのだという。	まつもとによれば、このきんぞくわげんしろのなかにしかできないきんぞくであり、ひじょーにじんこーてきなものなのだという。	NO_LABEL
彼女の名が示す意味について、『レジェンド』冒頭のナレーションでメーテルが「アンドロメダの太陽」、自然界に存在することのない重金属・プロメシウムの名と言及している。	NO_PRONOUNCE	NO_LABEL
なお、プロメチウムの名前はギリシャ神話の神・プロメテウスに由来し、一説によれば神々とそっくりの姿をした人間を生み出し、彼らに火の使い方を教えたという。	NO_PRONOUNCE	NO_LABEL
プロメシュームも機械化文明を誕生させ、機械の体による永遠の命を宇宙に広く普及させようとしたという点で、『999』の作品世界においてこのプロメテウスのような文化英雄的キャラクターとなっている。	NO_PRONOUNCE	NO_LABEL
『松本零士999 〜Story of Galaxy Express 999〜』では、映画1作目に準じた姿をしている。	NO_PRONOUNCE	NO_LABEL
行動や言動も映画1作目と原作版を合わせたものとなっている。	NO_PRONOUNCE	NO_LABEL
なお、鉄郎とプロメシュームが直接対決するのは、この作品が唯一である。	なお、てつおとぷろめしゅーむがちょくせつたいけつするのわ、このさくひんがゆいいつである。	NO_LABEL
鉄郎を「生きたネジ」にしようとするもメノウの裏切りで失敗。	NO_PRONOUNCE	NO_LABEL
メノウを裏切り者として処刑すると、ボスキャラクターとして鉄郎に戦いを挑んでくる。	めのーをうらぎりものとしてしょけいすると、ぼすきゃらくたーとしててつおにたたかいをいどんでくる。	NO_LABEL
映画1作目で登場した際に乗っていた円盤の上からバリアで攻撃を防ぎつつエネルギー弾で攻撃してくるが、体力ゲージがなくなると頭を抱えながら後ろに倒れて円盤から落ちる。	NO_PRONOUNCE	NO_LABEL
これでも殺すことはできなかったが、メーテルから渡されたドクター・バンのカプセルを鉄郎が大アンドロメダのコアに投げ込むと、そのままコアに落下して死亡する。	これでもころすことわできなかったが、めーてるからわたされたどくたーばんのかぷせるをてつおがだいあんどろめだのこあになげこむと、そのままこあにらっかしてしぼーする。	NO_LABEL
