皇道派は、大日本帝国陸軍内にかつて存在した派閥。	こうどーはわ、だいにっぽんていこくりくぐんないにかつてそんざいしたはばつ。	NO_LABEL
北一輝らの影響を受けて、天皇親政の下での国家改造を目指し、対外的にはソビエト連邦との対決を志向した。	きたいっきらのえいきょーをうけて、てんのーしんせいのしたでのこっかかいぞーをめざし、たいがいてきにわそびえとれんぽーとのたいけつをしこーした。	NO_LABEL
名前の由来は、理論的な指導者と目される荒木貞夫が日本軍を「皇軍」と呼び、政財界を排除して天皇親政による国家改造を説いたことによる。	NO_PRONOUNCE	NO_LABEL
皇道派は統制派と対立していたとされるが、統制派の中心人物であった永田鉄山によれば、陸軍には荒木貞夫と真崎を頭首とする「皇道派」があるのみで「統制派」なる派閥は存在しなかった、と主張している。	NO_PRONOUNCE	NO_LABEL
皇道派が全盛期の時代、つまり荒木が陸軍大臣に就任した犬養内閣時に陸軍内の主導権を握ると、三月事件、十月事件の首謀者、皇道派に反する者に対して露骨な派閥人事を行い、左遷されたり疎外された者らが団結したグループは反皇道派として中央から退けられたが、この処置が露骨な皇道派優遇人事として多くの中堅幕僚層の反発を招いた。	こうどーはがぜんせいきのじだい、つまりあらきがりくぐんだいじんにしゅーにんしたいぬかいないかくじにりくぐんないのしゅどーけんをにぎると、さんがつじけん、じゅーがつじけんのしゅぼーしゃ、こうどーはにはんするものにたいしてろこつなはばつじんじをおこない、させんされたりそがいされたしゃらがだんけつしたぐるーぷわはんこうどーはとしてちゅーおーからしりぞけられたが、このしょちがろこつなこうどーはゆーぐーじんじとしておーくのちゅーけんばくりょーそーのはんぱつをまねいた。	NO_LABEL
同じく皇道派に敵対する永田が、自らの意志と関わりなく、周囲の人間から勝手に皇道派に対する統制派なる派閥の頭領にさせられていたのである。	どうじくこうどーはにてきたいするながたが、みずからのいしとかかわりなく、しゅーいのにんげんからかってにこうどーはにたいするとーせいはなるはばつのとーりょーにさせられていたのである。	NO_LABEL
これら非皇道派の中堅幕僚層は、後に永田鉄山や東條英機を中心に統制派として纏まり、陸軍中枢部から皇道派は排除されていくことになる。	これらひこうどーはのちゅーけんばくりょーそーわ、のちにながたてつざんやとーじょーひできをちゅーしんにとーせいはとしてまとまり、りくぐんちゅーすーぶからこうどーはわはいじょされていくことになる。	NO_LABEL
両派の路線対立はこの後も続くが、軍中央を押さえた統制派に対して、皇道派は若手将校による過激な暴発事件を引き起こして衰退していくことになる。	りょーはのろせんたいりつわこののちもつずくが、ぐんちゅーおーをおさえたとーせいはにたいして、こうどーはわわかてしょーこーによるかげきなぼーはつじけんをひきおこしてすいたいしていくことになる。	NO_LABEL
皇道派のメンバーを上原勇作が支援していた経緯から、旧薩摩閥も多かったとされる。	こうどーはのめんばーをうえはらゆーさくがしえんしていたけいいから、きゅーさつまばつもおーかったとされる。	NO_LABEL
荒木が真崎甚三郎と共に、皇道派をつくりあげる基盤は、宇垣一成陸相の下で、いわゆる宇垣軍縮が実施された時期に生まれたと言える。	あらきがまさきじんざぶろーとともに、こうどーはをつくりあげるきばんわ、うがきかずしげりくしょーのもとで、いわゆるうがきぐんしゅくがじっしされたじきにうまれたといえる。	NO_LABEL
宇垣は永田鉄山を陸軍省動員課長に据え、地上兵力から4個師団約9万人を削減した。	NO_PRONOUNCE	NO_LABEL
その浮いた予算で、航空機・戦車部隊を新設し、歩兵に軽機関銃・重機関銃・曲射砲を装備するなど軍の近代化を推し進めた。	NO_PRONOUNCE	NO_LABEL
永田は、第一次世界大戦の観戦武官として、ヨーロッパ諸国の軍事力のあり方や、物資の生産、資源などを組織的に戦争に集中する総力戦体制を目の当たりにし、日本の軍備や政治・経済体制の遅れを痛感した。	ながたわ、だいいちじせかいたいせんのかんせんぶかんとして、よーろっぱしょこくのぐんじりょくのありかたや、ぶっしのせいさん、しげんなどをそしきてきにせんそーにしゅーちゅーするそーりょくせんたいせいをまのあたりにし、にっぽんのぐんびやせいじけいざいたいせいのおくれをつーかんした。	NO_LABEL
宇垣軍縮は軍事予算の縮小を求める世論におされながら、この遅れを挽回しようとするものであった。	うがきぐんしゅくわぐんじよさんのしゅくしょーをもとめるせろんにおされながら、このおくれをばんかいしようとするものであった。	NO_LABEL
統制派の考え方はこの流れをくむものである。	とーせいはのかんがえかたわこのながれをくむものである。	NO_LABEL
一方、宇垣が軍の実権を握っている間、荒木・真崎らは宇垣閥外の人物として冷遇されていた。	NO_PRONOUNCE	NO_LABEL
荒木は1918年のシベリア出兵当時、シベリア派遣軍参謀であったが、この時に革命直後のロシアの混乱や後進性を見る一方で、赤軍の「鉄の規律」や勇敢さに驚かされた。	NO_PRONOUNCE	NO_LABEL
そのため荒木は反ソ・反共の右派的体質を身につけただけでなく、ソヴィエトの軍事・経済建設が進む前にこれと戦い、シベリア周辺から撃退し、ここを日本の支配下に置くべきであるという、対ソ主戦論者となった。	NO_PRONOUNCE	NO_LABEL
折から、佐官・尉官クラスの青年将校の間に『国家改造』運動が広がってきた。	NO_PRONOUNCE	NO_LABEL
その動機は、	そのどーきわ、	NO_LABEL
などである。	などである。	NO_LABEL
青年将校らは、このような状況を作り出しているのが、宇垣ら軍閥を始め、財閥・重臣・官僚閥であると考えたのである。	NO_PRONOUNCE	NO_LABEL
1931年12月、十月事件の圧力を背景に、犬養内閣で荒木が陸相に就任すると、真崎嫌いで知られる金谷範三参謀総長を軍事参議官に廻し、後任に閑院宮載仁親王を引き出す。	せんきゅうひゃくさんじゅういちねじゅーにがつ、じゅーがつじけんのあつりょくをはいけいに、いぬかいないかくであらきがりくしょーにしゅーにんすると、まさきぎらいでしられるかなやはんぞーさんぼーそうちょーをぐんじさんぎかんにまわし、こーにんにかんいんのみやのひとししんのーをひきだす。	NO_LABEL
ついで1932年1月に台湾軍司令官の真崎を参謀次長として呼び戻し、参謀本部の実権を握らせた。	ついでせんきゅうひゃくさんじゅうにねんいちがつにたいわんぐんしれいかんのまさきをさんぼーじちょーとしてよびもどし、さんぼーほんぶのじっけんをにぎらせた。	NO_LABEL
一方で杉山元、二宮治重らの宇垣側近を中央から遠ざけ、次官に柳川平助、軍務局長に山岡重厚を配する等、自派の勢力拡大を図った。	いっぽーですぎやまはじめ、にのみやはるしげらのうがきそっきんをちゅーおーからとーざけ、じかんにやながわへいすけ、ぐんむきょくちょーにやまおかしげあつをはいするひとし、じはのせいりょくかくだいをはかった。	NO_LABEL
人事局長の松浦淳六郎、軍事課長の山下奉文もこの系譜につながる。	じんじきょくちょーのまつーらじゅんろくろー、ぐんじかちょーのやましたともゆきもこのけいふにつながる。	NO_LABEL
荒木は尉官クラスに官邸で連日のように酒を振る舞うなど、武力による「維新」を企てる青年将校らを鼓舞し、その支持を集めた。	NO_PRONOUNCE	NO_LABEL
荒木や真崎は、日露戦争時期を理想化し、日本をその状態に復帰させることが、軍の拡大強化や対ソ戦を早く決行できる所以だと考えた。	あらきやまさきわ、にちろせんそーじきをりそーかし、にっぽんをそのじょーたいにふっきさせることが、ぐんのかくだいきょーかやたいそせんをはやくけっこーできるゆえんだとかんがえた。	NO_LABEL
ここから、「君側の奸」を討ち、「国体を明徴」にし、「天皇親政」を実現すべしという思想が引き出される。	NO_PRONOUNCE	NO_LABEL
このような思想を抱く荒木らに対し、青年将校らは「無私誠忠の人格」として崇敬した。	NO_PRONOUNCE	NO_LABEL
これが皇道派である。	これがこうどーはである。	NO_LABEL
この派は荒木・真崎をシンボルとし、前述の将官の他、1932年2月に参謀本部第二課長ついで第三部長となった小畑敏四郎、憲兵司令官ついで第二師団長となった秦真次、小畑の後任の作戦課長である鈴木率道、陸大教官の満井佐吉らが首脳部をなしていたが、省部の中堅将校からはほとんど孤立した存在であった。	NO_PRONOUNCE	NO_LABEL
皇道派が「国家革新」の切り札と頼む武力発動の計画に当たったのは、村中孝次・磯部浅一ら尉官クラスの青年将校団である。	NO_PRONOUNCE	NO_LABEL
皇道派青年将校がクーデター計画に狂奔したのは、彼らが陸軍省部中央に近い統制派ほどに具体的な情勢判断と方針を持たず、互いに天皇への忠誠を誓い、結果を顧みずに「捨石」たらんとしたという思想的特質にもよる。	NO_PRONOUNCE	NO_LABEL
青年将校らは自分たちの行動を起こした後は、「陛下の下に一切を挙げておまかせすること」に期待するのみであった。	NO_PRONOUNCE	NO_LABEL
永田鉄山軍務局長を斬殺した相沢三郎中佐は、法廷で検察官の質問に答え「国家革新ということは絶対にない。	NO_PRONOUNCE	NO_LABEL
いやしくも日本国民に革新はない。	いやしくもにっぽんこくみんにかくしんわない。	NO_LABEL
大御心に拠ってそのことを翼賛し奉ることである」と述べている。	NO_PRONOUNCE	NO_LABEL
したがって彼等は「革命」「クーデター」という概念すら拒絶していた。	NO_PRONOUNCE	NO_LABEL
また、彼らの信頼を集めた荒木や真崎も、自分たちが首班となって内閣をつくることを予期するだけで、その後の計画も無く、各方面の強力な支持者もいなかった。	また、かれらのしんらいをあつめたあらきやまさきも、じぶんたちがしゅはんとなってないかくをつくることをよきするだけで、そのごのけいかくもなく、かくほーめんのきょーりょくなしじしゃもいなかった。	NO_LABEL
とくに財閥や官僚には皇道派を危険視する空気が強く、彼らが政権を担当する条件そのものが欠落していたのである。	とくにざいばつやかんりょーにわこうどーはをきけんしするくーきがつよく、かれらがせいけんをたんとーするじょーけんそのものがけつらくしていたのである。	NO_LABEL
それだけに、成果の見込みの有無を問わず危険な行動に走るという特徴が表面に現れた。	それだけに、せいかのみこみのうむをとわずきけんなこーどーにはしるとゆうとくちょーがひょーめんにあらわれた。	NO_LABEL
その特徴こそ、軍部・官僚・財閥のファッショ的支配を押し進める露払いの役割を果たしたのである。	NO_PRONOUNCE	NO_LABEL
もともと荒木が陸相に就任したこと自体、三月事件・十月事件で政党首脳が恐怖を感じた結果であった。	NO_PRONOUNCE	NO_LABEL
真崎は教育総監時代、天皇機関説排斥運動の中心となり、政党政治の最後の拠り所までも粉砕する役割を果たした。	まさきわきょーいくそーかんじだい、てんのーきかんせつはいせきうんどーのちゅーしんとなり、せいとーせいじのさいごのよりどころまでもふんさいするやくわりをはたした。	NO_LABEL
五・一五事件や相沢事件の公判は、裁判所を軍国主義の扇動を行う舞台に代え、国民に排外主義、国粋主義を浸透させる有力な機会として十分に利用された。	ごいちごじけんやあいざわじけんのこーはんわ、さいばんしょをぐんこくしゅぎのせんどーをおこなうぶたいにかえ、こくみんにはいがいしゅぎ、こくすいしゅぎをしんとーさせるゆーりょくなきかいとしてじゅーぶんにりよーされた。	NO_LABEL
この直後に引き起こされた二・二六事件は更に準戦時体制へと途を開くのである。	このちょくごにひきおこされたににろくじけんわさらにじゅんせんじたいせいえととをひらくのである。	NO_LABEL
荒木は犬養内閣、さらに齋藤内閣において陸相をつとめたが、もともと軍令・教育畑が長く政治力に欠けるところがあり、高橋是清蔵相との陸軍予算折衝でも成果を挙げることが出来なかった。	NO_PRONOUNCE	NO_LABEL
また側近の多くも軍政経験が乏しく、荒木を十分に補佐したとは言い難い。	またそっきんのおーくもぐんせいけいけんがとぼしく、あらきをじゅーぶんにほさしたとわいーがたい。	NO_LABEL
このため大臣末期には省部中堅の信を失い、青年将校からは突き上げを食うなど閉塞状況に陥った。	このためだいじんまっきにわしょーぶちゅーけんのしんをうしない、せいねんしょうこーからわつきあげをくうなどへいそくじょうきょーにおちいった。	NO_LABEL
参謀本部においても、実務を切り回す真崎次長に閑院総長宮が不快感を募らせ、内部でも小畑敏四郎第三部長と永田鉄山第二部長が対ソ・支那戦略を巡り対立。	NO_PRONOUNCE	NO_LABEL
後の皇道・統制両派の抗争の端緒となる。	NO_PRONOUNCE	NO_LABEL
荒木は1934年1月、酒を飲み過ぎて風邪をこじらせ、肺炎となり陸相を辞任する。	あらきわせんきゅうひゃくさんじゅうよねんいちがつ、さけをのみすぎてかぜをこじらせ、はいえんとなりりくしょーをじにんする。	NO_LABEL
荒木は後任陸相に真崎を推薦したが、真崎の独断に閉口していた閑院宮に反対され、林銑十郎教育総監が陸相となり、真崎はその後任に回った。	あらきわこーにんりくしょーにまさきをすいせんしたが、まさきのどくだんにへいこーしていたかんいんのみやにはんたいされ、はやしせんじゅうろーきょーいくそーかんがりくしょーとなり、まさきわそのこーにんにまわった。	NO_LABEL
柳川以下の皇道派幕僚も相次いで中央を去り、さらに同年11月には青年将校らによる士官学校事件が起こり、これを契機に統制派による真崎排除の機運が高まる。	やながわいかのこうどーはばくりょーもあいついでちゅーおーをさり、さらにどーねんじゅーいちがつにわせいねんしょうこーらによるしかんがっこーじけんがおこり、これをけいきにとーせいはによるまさきはいじょのきうんがたかまる。	NO_LABEL
1935年7月、林と閑院宮は三長官会議において強引に真崎を更迭、後任に渡辺錠太郎を据えた。	せんきゅうひゃくさんじゅうごねんしちがつ、はやしとかんいんのみやわさんちょーかんかいぎにおいてごーいんにまさきをこーてつ、こーにんにわたなべじょーたろーをすえた。	NO_LABEL
荒木の辞職、真崎の更迭によって皇道派は中央での基盤を失い、8月の相沢事件を経て、1936年には青年将校を中心とした二・二六事件の暴発につながる。	NO_PRONOUNCE	NO_LABEL
その後、翌年にかけての大規模な粛軍人事によって皇道派はほぼ壊滅した。	そのご、よくねんにかけてのだいきぼなしゅくぐんじんじによってこうどーはわほぼかいめつした。	NO_LABEL
現役に残ったのは山下奉文、鈴木率道ら少数の者に過ぎなかった。	げんえきにのこったのわやましたともゆき、すずきよりみちらしょーすーのものにすぎなかった。	NO_LABEL
なお大戦末期の1944年、昭和天皇に木戸内大臣を通じて、「戦争指導に行き詰まり、経済、社会の赤化に向う東條とその側近に代えて、予備役の皇道派将官を起用すべき」と奏した近衛文麿に対し、天皇は次のように論駁している。	NO_PRONOUNCE	NO_LABEL
「第一、真崎は参謀次長の際、国内改革案のごときものを得意になりて示す。	NO_PRONOUNCE	NO_LABEL
そのなかに国家社会主義ならざるべからずという字句がありて、訂正を求めたることあり。	そのなかにこっかしゃかいしゅぎならざるべからずとゆうじくがありて、ていせいをもとめたることあり。	NO_LABEL
また彼の教育総監時代の方針により養成せられし者が、今日の共産主義的という中堅将校なり。	またかれのきょーいくそーかんじだいのほーしんによりよーせいせられししゃが、きょーのきょーさんしゅぎてきとゆうちゅーけんしょーこーなり。	NO_LABEL
第二、柳川は二・二六直前まで第1師団長たりしも、幕下将校の蠢動を遂に抑うこと能わざりき。	NO_PRONOUNCE	NO_LABEL
ただ彼は良き参謀あれば仕事を為すを得べきも、力量は方面軍司令官迄の人物にあらざるか。	ただかれわよきさんぼーあればしごとをなすをえべきも、りきりょーわほーめんぐんしれいかんまでのじんぶつにあらざるか。	NO_LABEL
第三、小畑は陸軍大学校長の折、満井佐吉をつかむことを得ず。	だいさん、おばたわりくぐんだいがっこーちょーのおり、みついさきちをつかむことをえず。	NO_LABEL
作戦家として見るべきもの有るも、軍司令官程度の人物ならん。	さくせんかとしてみるべきものあるも、ぐんしれいかんていどのじんぶつならん。	NO_LABEL
以上これらの点につき、近衛は研究しありや否や」。	NO_PRONOUNCE	NO_LABEL
