野間谷川は、徳島県名西郡神山町を流れる吉野川水系の河川である。	のまだにがわわ、とくしまけんめいせいぐんかみやまちょーをながれるよしのがわすいけいのかせんである。	NO_LABEL
名西郡神山町神領地区の水源から神領地区を経て吉野川の主要河川である鮎喰川に合流する。	めいせいぐんかみやまちょうじんりょーちくのすいげんからしんりょーちくをへてよしのがわのしゅよーかせんであるあくいがわにごーりゅーする。	NO_LABEL
流域には野間殿川内林道が走っている。	りゅーいきにわのまとのがわないりんどーがはしっている。	NO_LABEL
