西谷 雄一は、日本の俳優。	にしたにゆーいちわ、にっぽんのはいゆー。	NO_LABEL
徳島県出身。	とくしまけんしゅっしん。	NO_LABEL
血液型はA型。	けつえきがたわえーがた。	NO_LABEL
徳島県出身。	とくしまけんしゅっしん。	NO_LABEL
「DIVIDE]や「キヲクドロボウ」、「シルエット 〜Silhouetto〜」、「Dirty Heart」等の映画に出演し2005年の「DIVIDE」では初の助監督を務めた。	NO_PRONOUNCE	NO_LABEL
