曾我廼家 五九郎は、日本の喜劇俳優。	そがのやごきゅーろーわ、にっぽんのきげきはいゆー。	NO_LABEL
本名は武智 故平。	ほんみょーわたけちこたいら。	NO_LABEL
大正時代にの浅草の「喜劇王」としてしられた。	NO_PRONOUNCE	NO_LABEL
武智鉄二の父とは従兄弟どうし。	たけちてつじのちちとわいとこどーし。	NO_LABEL
またフランキー堺は五九郎の甥にあたる。	またふらんきーさかいわごきゅーろーのおいにあたる。	NO_LABEL
1876年4月12日、徳島県吉野川市鴨島町に生まれる。	せんはっぴゃくななじゅうろくねんしがつじゅうににち、とくしまけんよしのがわしかもじまちょーにうまれる。	NO_LABEL
角籐定憲、川上音二郎、福井茂兵衛などの壮士芝居の一座を経て、満31歳を迎える1907年、曾我廼家五郎の喜劇一座に入門し「曾我廼家五九郎」を名乗った。	NO_PRONOUNCE	NO_LABEL
1910年には横田商会、1912年には吉沢商店の初期のサイレント映画に主演している。	せんきゅうひゃくじゅうねんにわよこたしょーかい、せんきゅうひゃくじゅうにねんにわよしざわしょーてんのしょきのさいれんとえいがにしゅえんしている。	NO_LABEL
特に後者は東京・浅草公園六区に吉沢商店が経営していた浅草帝国館で公開されている。	NO_PRONOUNCE	NO_LABEL
同年春に独立し同地帝国館にて一座を構える、このころから川上貞奴、小山内薫、歌舞伎の二代目市川左團次の自由劇場などの影響を受け、自らの一座に女優を積極に出演さたり、喜劇にオペラの要素を取り入れた「五九郎ミュージカル」を公演するなどその後の喜劇に大きな影響を与えた、同年、横田商会と吉沢商店は合併して日活を設立した。	NO_PRONOUNCE	NO_LABEL
また、劇場どうしの引き抜き合戦の影響で、五九郎の一座は分裂、「〆太郎」と名乗っていた男が、曽我廼家五一郎と改名して、分裂した一座の座長となった。	NO_PRONOUNCE	NO_LABEL
満41歳を迎える1917年、同年にオープンした東京・浅草公園六区の観音劇場の経営を根岸興行部に任され、一座で公演する。	NO_PRONOUNCE	NO_LABEL
このころ、浅草の通俗教育昆虫館の経営を支援し、建替え資金を供出している。	このころ、あさくさのつーぞくきょーいくこんちゅーかんのけいえいをしえんし、たてかえしきんをきょーしゅつしている。	NO_LABEL
1925年、満49歳のころ、麻生豊の漫画『ノンキナトウサン』を映画化した畑中蓼坡監督の『ノンキナトウサン 花見の巻』、小沢得二監督の『ノンキナトウサン 活動の巻』に主演、浅草の日本館等で公開され人気を得た。	NO_PRONOUNCE	NO_LABEL
トウサン役は五九郎の当たり役となった。	とーさんやくわごきゅーろーのあたりやくとなった。	NO_LABEL
同作は、小説家の直木三十五の経営する聯合映画芸術家協会が製作したもので、翌年には直木と提携するマキノ・プロダクションの牧野省三らの監督した『山賊』にも主演し、一座で出演している。	NO_PRONOUNCE	NO_LABEL
同作は、牧野と提携していた高松豊次郎の経営する浅草の大東京で公開された。	どーさくわ、まきのとていけいしていたたかまつとよじろーのけいえいするあさくさのだいとうきょーでこーかいされた。	NO_LABEL
五九郎の一座には、武智豊子、伴淳三郎らがいた。	ごきゅーろーのいちざにわ、たけちとよこ、ばんじゅんざぶろーらがいた。	NO_LABEL
1940年7月7日、死去した。	せんきゅうひゃくよんじゅうねんしちがつなのか、しきょした。	NO_LABEL
満64歳没。	まんろくじゅうよんさいぼつ。	NO_LABEL
弟子の「一二三」が、「二代目五九郎」を襲名した。	NO_PRONOUNCE	NO_LABEL
出身の吉野川市鴨島町鴨島の鴨島駅前に五九郎の碑がある。	しゅっしんのよしのがわしかもじまちょうかもじまのかもじまえきまえにごきゅーろーのいしぶみがある。	NO_LABEL
