サンフォード・スタジアムはアメリカ合衆国ジョージア州アセンズのジョージア大学キャンパス内にある球技場。	さんふぉーどすたじあむわあめりかがっしゅーこくじょーじあしゅーあせんずのじょーじあだいがくきゃんぱすないにあるきゅーぎじょー。	NO_LABEL
座席数は92,746名。	NO_PRONOUNCE	NO_LABEL
1929年に開場。	せんきゅうひゃくにじゅうきゅうねにかいじょー。	NO_LABEL
NCAAフットボール公式戦の競技場としては6番目の規模を誇り、1996年のアトランタオリンピックではサッカーが行われた。	えぬしーえーえーふっとぼーるこーしきせんのきょーぎじょーとしてわろくばんめのきぼをほこり、せんきゅうひゃくきゅうじゅうろくねんのあとらんたおりんぴっくでわさっかーがおこなわれた。	NO_LABEL
現在はジョージア大学フットボールの試合が中心である。	げんざいわじょーじあだいがくふっとぼーるのしあいがちゅーしんである。	NO_LABEL
