瓢鮎図は、日本の初期水墨画を代表する画僧・如拙作の絵画作品である。	NO_PRONOUNCE	NO_LABEL
日本の国宝に指定されている。	にっぽんのこくほーにしていされている。	NO_LABEL
室町幕府将軍足利義持の命により、ひょうたんでナマズを押さえるという禅の公案を描いたもので、1415年以前の作。	むろまちばくふしょーぐんあしかがよしもちのいのちにより、ひょーたんでなまずをおさえるとゆうぜんのこーあんをえがいたもので、せんよんひゃくじゅうごねんいぜんのさく。	NO_LABEL
京都市の妙心寺塔頭・退蔵院の所蔵。	NO_PRONOUNCE	NO_LABEL
国宝。	こくほー。	NO_LABEL
画面上半には、大岳周崇の序と玉畹梵芳など30人の禅僧による画賛がある。	NO_PRONOUNCE	NO_LABEL
画の上部にある大岳周崇の序によると、この作品は「大相公」が僧如拙に命じて、「座右之屏」に「新様」をもって描かせたものであることがわかる。	NO_PRONOUNCE	NO_LABEL
「大相公」については、足利義持を指すと見るのが定説となっている。	NO_PRONOUNCE	NO_LABEL
「新様」の意味については諸説あるが、「中国伝来の新しい画法」という意味に解釈するのが一般的である。	NO_PRONOUNCE	NO_LABEL
現状では掛軸装で、上半分に序と賛、下半分に絵があるが、元は義持の「座右之屏」の表裏に絵と賛がそれぞれ表されていたものである。	NO_PRONOUNCE	NO_LABEL
図は水流の中を泳ぐナマズと、ヒョウタンを持ってそれを捕らえようとする一人の男を表す。	ずわすいりゅーのなかをおよぐなまずと、ひょーたんをもってそれをとらえようとするひとりのおとこをあらわす。	NO_LABEL
男はヒョウタンをしっかり抱え持っているようには見えず、危なっかしい手つきである。	おとこわひょーたんをしっかりかかえもっているよーにわみえず、あぶなっかしいてつきである。	NO_LABEL
左前景には数本の竹、遠景に山々を表す。	ひだりぜんけいにわかずもとのたけ、えんけいにやまやまをあらわす。	NO_LABEL
主たるモチーフを画面の左下に集め、画面右方を広い空間とする構図法は「残山剰水」「辺角の景」と呼ばれるもので、南宋の画家馬遠が得意としたものである。	NO_PRONOUNCE	NO_LABEL
また、人物の描法には同じ南宋の梁楷の「減筆体」の影響がうかがわれる。	NO_PRONOUNCE	NO_LABEL
このように本作品は、南宋院体画の影響を強く受けたものであり、日本の初期水墨画を代表する人物である如拙の筆であることが確実な遺品として、日本絵画史上貴重な遺品である。	このよーにほんさくひんわ、なんそーいんたいがのえいきょーをつよくうけたものであり、にっぽんのしょきすいぼくがをだいひょーするじんぶつであるじょせつのふでであることがかくじつないひんとして、にっぽんかいがしじょーきちょーないひんである。	NO_LABEL
制作年代については、賛者の活動年代から、応永20年前後と考えられており、賛者の一人である太白真玄が応永22年に没していることから、この年が制作年代の下限となる。	せいさくねんだいについてわ、さんしゃのかつどーねんだいから、おおえにじゅうねんぜんごとかんがえられており、さんしゃのひとりであるたいはくしんげんがおおえにじゅうにねんにぼっしていることから、このとしがせいさくねんだいのかげんとなる。	NO_LABEL
