結句反復とは、連続する句、節、文の最後に同じ語または言葉が繰り返される修辞技法のこと。	けっくはんぷくとわ、れんぞくするく、ふし、ぶんのさいごにおなじかたりまたわことばがくりかえされるしゅーじぎほーのこと。	NO_LABEL
首句反復の反対。	しゅくはんぷくのはんたい。	NO_LABEL
句・節・文の最後の言葉は強調される場所なので、結句反復は大きな強調の技法である。	NO_PRONOUNCE	NO_LABEL
