太秦発聲映畫株式會社は、かつて京都に存在した映画会社である。	NO_PRONOUNCE	NO_LABEL
先進的なトーキーシステムを輸入したJ.O.スタヂオの敷地内に設立し、日活との提携で先駆的にトーキー映画を製作、日本映画の新しい時代を切り開いた。	NO_PRONOUNCE	NO_LABEL
1933年3月、大沢商会が京都・太秦蚕の社に貸しスタジオ「J.O.スタヂオ」を建設・開所、同社社長・大沢徳太郎の長男・大沢善夫が輸入したトーキーシステムを導入した先進的なものであった。	NO_PRONOUNCE	NO_LABEL
日活京都撮影所長を辞任した池永浩久をJ.O.スタヂオの顧問に迎え、池永が同所内に設立したのが、この「太秦発声映画」である。	NO_PRONOUNCE	NO_LABEL
設立第1作は、池永総指揮、池田富保監督、早川雪洲主演の『楠正成』で、同作は同年6月1日に公開された。	NO_PRONOUNCE	NO_LABEL
マキノ正博がマキノトーキー製作所を設立しトーキーを量産し始める1935年からは、多く日活と提携製作をした。	まきのまさひろがまきのとーきーせいさくしょをせつりつしとーきーをりょーさんしはじめるせんきゅうひゃくさんじゅうごねんからわ、おーくにっかつとていけいせいさくをした。	NO_LABEL
どの監督もトーキー演出になかなか慣れず、斬新な演出で知られた古海卓二も志波西果もトーキーに敗れ去り、古海は古市の極東映画、志波は奈良の全勝キネマへと都落ちし、サイレント映画に退行してしまう。	どのかんとくもとーきーえんしゅつになかなかなれず、ざんしんなえんしゅつでしられたふるみたくじもしばせいかもとーきーにやぶれさり、ふるみわふるいちのきょくとーえいが、しばわならのぜんしょーきねまえとみやこおちし、さいれんとえいがにたいこーしてしまう。	NO_LABEL
1936年には、トーキー脚本に力を見せた脚本家グループ「梶原金八」のメンバーである山中貞雄を起用、山中が『河内山宗俊』を日活との提携で撮り、また、その弟子の助監督・萩原遼が、山中の原作を得て自ら脚色し、高勢実乗を主演にした『お茶づけ侍』で監督としてデビューした。	NO_PRONOUNCE	NO_LABEL
やがて、J.Oが東宝映画配給と配給提携を進めるにいたって、太秦発声は、同年一杯をもって製作を中止した。	NO_PRONOUNCE	NO_LABEL
最後の作品は辻吉朗監督、大城龍太郎・深水藤子主演の『お嬢さん浪人』で、同作は翌1937年1月28日、日活の配給で公開された。	NO_PRONOUNCE	NO_LABEL
同年、J.O.スタヂオは4社合併で東宝映画を設立、スタジオごと「東宝映画京都撮影所」となっていく。	NO_PRONOUNCE	NO_LABEL
