明智駅は、岐阜県恵那市明智町445-2にある明知鉄道明知線の駅。	NO_PRONOUNCE	NO_LABEL
明知線の始発・終着駅であり、駅近くには明知鉄道本社がある。	NO_PRONOUNCE	NO_LABEL
駅周辺は旧恵那郡明智町の中心市街地であり、住民が大正時代の町並みを保存して観光資源として活用している「日本大正村」の玄関口である。	NO_PRONOUNCE	NO_LABEL
「明智」と称する駅は同じ岐阜県内にもうひとつ、名古屋鉄道広見線の駅があるがそちらは可児市である。	NO_PRONOUNCE	NO_LABEL
終日駅係員配置駅。	しゅーじつえきかかりーんはいちえき。	NO_LABEL
窓口営業時間は始発から最終列車発車前まで。	まどぐちえいぎょーじかんわしはつからさいしゅーれっしゃはっしゃまえまで。	NO_LABEL
駅舎に接して1面1線の単式ホームがある地上駅。	NO_PRONOUNCE	NO_LABEL
構内に車両基地があり、車両の夜間滞泊もある。	こーないにしゃりょーきちがあり、しゃりょーのやかんとどこーはくもある。	NO_LABEL
また、多くの側線を有する。	また、おーくのそくせんをゆーする。	NO_LABEL
駅舎の隣には2012年、喫茶店や地元産品の販売コーナー、トイレを備えた交流施設「明智駅前プラザ」が開設された。	NO_PRONOUNCE	NO_LABEL
出典 - 『岐阜県統計書デジタルアーカイブ』岐阜県より1936-1954年は該当項目なし、1964年以降はネット未公開	NO_PRONOUNCE	NO_LABEL
出典 - 『恵那市統計書』より	NO_PRONOUNCE	NO_LABEL
