明智駅は、岐阜県可児市平貝戸川田にある名古屋鉄道広見線の駅である。	あけちえきわ、ぎふけんかにしひらがいとかわたにあるなごやてつどーひろみせんのえきである。	NO_LABEL
駅番号はHM07。	NO_PRONOUNCE	NO_LABEL
2001年までは八百津線が当駅で分岐していた。	にせんいちねんまでわやおつせんがとーえきでぶんきしていた。	NO_LABEL
2005年までは新可児駅との間に学校前駅があり、日中は新可児 - 御嵩間の折り返し列車のみが停車していた。	NO_PRONOUNCE	NO_LABEL
なお、当駅ではmanacaが使用できない。	なお、とーえきでわまなかがしよーできない。	NO_LABEL
岐阜県内の明知鉄道にも同名の駅があるが、全く違う場所にあるに存在する）。	NO_PRONOUNCE	NO_LABEL
御嵩町コミュニティバス	みたけちょーこみゅにてぃばす	NO_LABEL
