柳本駅は、奈良県天理市柳本町にある、西日本旅客鉄道桜井線の駅である。	やなぎもとえきわ、ならけんてんりしやなぎもとちょーにある、にしにほんりょかくてつどーさくらいせんのえきである。	NO_LABEL
相対式ホーム2面2線を持ち、交換設備を有する地上駅。	NO_PRONOUNCE	NO_LABEL
下りホーム側に駅舎があり、互いのホームは跨線橋で連絡している。	くだりほーむがわにえきしゃがあり、たがいのほーむわこせんきょーでれんらくしている。	NO_LABEL
なまこ壁の外装をした、小さな木造駅舎が健在。	なまこかべのがいそーをした、ちーさなもくぞーえきしゃがけんざい。	NO_LABEL
永らく業務委託駅であったが、2000年からは無人駅である。	ながらくぎょーむいたくえきであったが、にせんねんからわむじんえきである。	NO_LABEL
駅の管理は王寺鉄道部が行っている。	えきのかんりわおーじてつどーぶがおこなっている。	NO_LABEL
ICOCA利用可能駅。	いこかりよーかのーえき。	NO_LABEL
自動券売機が設置されているほか、ICOCA等のICカード読取機が設置されているが、普通乗車券用の自動改札機は設置されていない。	じどーけんばいきがせっちされているほか、いこかとーのあいしーかーどよみとりきがせっちされているが、ふつーじょーしゃけんよーのじどーかいさつきわせっちされていない。	NO_LABEL
駅前にはタクシー乗り場がある。	えきまえにわたくしーのりばがある。	NO_LABEL
※案内上ののりば番号は付けられておらず、駅自動放送でも「○番のりばに」の部分が「このホームに」と表現される。	NO_PRONOUNCE	NO_LABEL
「天理市統計情報」によると、近年の1日平均乗車人員は以下の通り。	NO_PRONOUNCE	NO_LABEL
