清野 賀子は日本の写真家。	きよのかこわにっぽんのしゃしんか。	NO_LABEL
東京生まれ。	とーきょーうまれ。	NO_LABEL
編集者として活動後、1995年頃より写真を撮り始める。	へんしゅーしゃとしてかつどーご、せんきゅうひゃくきゅうじゅうごねんごろよりしゃしんをとりはじめる。	NO_LABEL
『THE SIGN OF LIFE』では、中判カメラを使用。	NO_PRONOUNCE	NO_LABEL
千葉、茨城、青森、愛媛、高知など、すべて日本国内で撮影されたが、日本の風景として類型化しているような写真にはなっておらず、郷愁や記憶といったありふれた感覚を誘うものでもない。	ちば、いばらき、あおもり、えひめ、こーちなど、すべてにほんこくないでさつえいされたが、にっぽんのふーけいとしてるいけいかしているよーなしゃしんにわなっておらず、きょーしゅーやきおくといったありふれたかんかくをさそうものでもない。	NO_LABEL
二冊目の写真集、『至る所で　心を集めよ　立っていよ』では、35ミリの小型カメラを使用。	NO_PRONOUNCE	NO_LABEL
撮影地は東京で、対象はより身近な風景となり、人物写真もある。	さつえいちわとーきょーで、たいしょーわよりみじかなふーけいとなり、じんぶつしゃしんもある。	NO_LABEL
タイトルは、パウル・ツェランの詩、「刻々」からとられた。	NO_PRONOUNCE	NO_LABEL
UA 『歪んだ太陽』	NO_PRONOUNCE	NO_LABEL
「SWTCH」　2006年 3月号	NO_PRONOUNCE	NO_LABEL
