細胞診とは、人体から採取された細胞材料について標本を作製し、顕微鏡で観察して行う検体検査。	さいぼーみとわ、じんたいからさいしゅされたさいぼーざいりょーについてひょーほんをさくせいし、けんびきょーでかんさつしておこなうけんたいけんさ。	NO_LABEL
スクリーニング的細胞診と診断的細胞診に分けられる。	すくりーにんぐてきさいぼーみとしんだんてきさいぼーみにわけられる。	NO_LABEL
　細胞診を細胞診断と呼ぶこともあるが、数量的には病理学的検査が主であり、細胞診専門医や病理専門医の関与しないものが多いので、この場合は細胞診という表現が実際的である。	さいぼーみをさいぼーしんだんとよぶこともあるが、すーりょーてきにわびょーりがくてきけんさがおもであり、さいぼーみせんもんいやびょーりせんもんいのかんよしないものがおーいので、このばあいわさいぼーみとゆうひょーげんがじっさいてきである。	NO_LABEL
スクリーニング的細胞診はがん検診等で、病変の有無を調べる細胞診。	すくりーにんぐてきさいぼーみわがんけんしんとーで、びょーへんのうむをしらべるさいぼーみ。	NO_LABEL
剥離細胞診。	はくりさいぼーみ。	NO_LABEL
　子宮がん検診では子宮頸部をブラシで擦り取って採取した細胞を用いる。	NO_PRONOUNCE	NO_LABEL
肺がん検診で喀痰細胞診が行われることもある。	はいがんけんしんでかくたんさいぼーみがおこなわれることもある。	NO_LABEL
診断的細胞診は病変が存在する場合に、病変部の診断を目的として、病変から採取した細胞材料を用いる細胞診。	しんだんてきさいぼーみわびょーへんがそんざいするばあいに、びょーへんぶのしんだんをもくてきとして、びょーへんからさいしゅしたさいぼーざいりょーをもちいるさいぼーみ。	NO_LABEL
穿刺吸引細胞診は病変部を刺して吸引採取された細胞を標本にして顕微鏡観察するもの。	せんしきゅーいんさいぼーみわびょーへんぶをさしてきゅーいんさいしゅされたさいぼーをひょーほんにしてけんびきょーかんさつするもの。	NO_LABEL
たとえば乳腺や甲状腺のしこりについて、良性のものか悪性のものか診断するときなどに、穿刺吸引細胞診が行われる。	たとえばにゅーせんやこーじょーせんのしこりについて、りょーせいのものかあくせいのものかしんだんするときなどに、せんしきゅーいんさいぼーみがおこなわれる。	NO_LABEL
