タートル岡部は、日本の元プロボクサー。	たーとるおかべわ、にっぽんのもとぷろぼくさー。	NO_LABEL
本名は岡部 義光。	ほんみょーわおかべよしみつ。	NO_LABEL
福島県出身。	ふくしまけんしゅっしん。	NO_LABEL
日本ジュニアミドル級およびミドル級王座を制した、日本タイトル2階級制覇者。	にっぽんじゅにあみどるきゅーおよびみどるきゅーおーざをせいした、にっぽんたいとるにかいきゅーせいはしゃ。	NO_LABEL
笹崎ジム所属。	ささざきじむしょぞく。	NO_LABEL
リングネーム通りの地味ながら粘りが身上のサウスポー。	りんぐねーむどーりのじみながらねばりがしんじょーのさうすぽー。	NO_LABEL
元大関・清國の妹と結婚し2男をもうけた。	NO_PRONOUNCE	NO_LABEL
長男は元十両・玉ノ国、次男は元関脇・玉乃島である。	NO_PRONOUNCE	NO_LABEL
1967年5月10日、プロデビュー。	せんきゅうひゃくろくじゅうななねごがつとおか、ぷろでびゅー。	NO_LABEL
1971年2月24日、カシアス内藤の王座返上により空位となった日本ミドル級タイトルを星野哲雄と争い、判定勝ちで王座を獲得した。	せんきゅうひゃくななじゅういちねんにがつにじゅうよっか、かしあすないとーのおーざへんじょーによりくーいとなったにっぽんみどるきゅーたいとるをほしのてつおとあらそい、はんていがちでおーざをかくとくした。	NO_LABEL
同年4月19日、ジョージ・カーターに判定負けを喫し初防衛に失敗した。	どーねんしがつじゅうきゅうにち、じょーじかーたーにはんていまけをきっしはつぼーえいにしっぱいした。	NO_LABEL
1972年12月18日には、輪島功一の返上により空位となった日本ジュニアミドル級王座決定戦で堀畑道弘に5回KO勝ちを収め、日本タイトル2階級制覇に成功した。	せんきゅうひゃくななじゅうにねんじゅーにがつじゅうはちにちにわ、わじまこーいちのへんじょーによりくーいとなったにっぽんじゅにあみどるきゅーおーざけっていせんでほりはたみちひろにごかいけいおーがちをおさめ、にっぽんたいとるにかいきゅーせいはにせいこーした。	NO_LABEL
翌1973年4月4日、加島雷三との初防衛戦で判定負け。	よくせんきゅうひゃくななじゅうさんねんしがつよっか、かしまらいぞーとのはつぼーえいせんではんていまけ。	NO_LABEL
3か月後の再戦でも判定で敗れ、いずれの階級でも初防衛を果たすことはできなかった。	さんかげつごのさいせんでもはんていでやぶれ、いずれのかいきゅーでもはつぼーえいをはたすことわできなかった。	NO_LABEL
41戦21勝16敗4引分け	NO_PRONOUNCE	NO_LABEL
