『デビルマン対ゲッターロボ』は、永井豪による日本の漫画作品。	NO_PRONOUNCE	NO_LABEL
『チャンピオンRED』にて、2010年6月号から10月号まで連載された。	NO_PRONOUNCE	NO_LABEL
単行本は全1巻。	たんこーぼんわぜんいちかん。	NO_LABEL
本稿では『魔王ダンテ対ゲッターロボG』についても記述する。	NO_PRONOUNCE	NO_LABEL
タイトル通り、『デビルマン』と『ゲッターロボ』のクロスオーバー作品となっている。	NO_PRONOUNCE	NO_LABEL
これまで、ダイナミックプロのキャラクターを大勢集めたクロスオーバー作品で共演経験のある2作品の共演を主題にした作品としては、本作が初となる。	これまで、だいなみっくぷろのきゃらくたーをたいせいあつめたくろすおーばーさくひんできょーえんけいけんのあるにさくひんのきょーえんをしゅだいにしたさくひんとしてわ、もとさくがはつとなる。	NO_LABEL
なお、第2話掲載時のコメントに書かれている通り、映画『マジンガーZ対デビルマン』『グレートマジンガー対ゲッターロボ』などの作品の前日譚として描かれており、『デビルマン』『ゲッターロボ』ともにテレビ版の設定に近くなっている。	NO_PRONOUNCE	NO_LABEL
また、『ゲッターロボ』は、恐竜帝国と抗戦中となっている。	NO_PRONOUNCE	NO_LABEL
かつて、恐竜帝国と覇権を争った一族。	かつて、きょーりゅーていこくとはけんをあらそったいちぞく。	NO_LABEL
『チャンピオンRED』にて、2011年10月号から2012年2月号まで連載された。	NO_PRONOUNCE	NO_LABEL
悪魔教団のミサによりよみがえった魔王ダンテを迎え撃つゲッタードラゴン、その魂を持たないダンテはリョウをその魂として融合する。	あくまきょーだんのみさによりよみがえったまおーだんてをむかえうつげったーどらごん、そのたましーをもたないだんてわりょーをそのたましーとしてゆーごーする。	NO_LABEL
実は、ダンテを調べる早乙女研究所生化学研究室の研究員宇津木涼こそが、ダンテの魂を宿す者だった。	じつわ、だんてをしらべるさおとめけんきゅーじょせいかがくけんきゅーしつのけんきゅーいんうつぎりょーこそが、だんてのたましーをやどすものだった。	NO_LABEL
