『Phenomenon』はnano sound museumのミニアルバム。	NO_PRONOUNCE	NO_LABEL
ナガオタツキのプロジェクトによる記念すべきインディーズデビュー作。	ながおたつきのぷろじぇくとによるきねんすべきいんでぃーずでびゅーさく。	NO_LABEL
「disco」と「rest your music」はナガオによるオリジナル曲。	NO_PRONOUNCE	NO_LABEL
Skream!の成田早那は「じわりじわりと音を包み込むような感覚のソフトなエレクトロ・ロック。	NO_PRONOUNCE	NO_LABEL
中期くらいのBOOM BOOM SATELLITESも連想させる傑作に仕上がっている」と評した。	NO_PRONOUNCE	NO_LABEL
CDジャーナルは「ダンス・ミュージックと重厚なロック・サウンドを融合させたサウンドは、おもちゃ箱をひっくり返したかのごとく賑やか。	NO_PRONOUNCE	NO_LABEL
疾走感があるヴォーカルともよく馴染んでいる」と評した。	NO_PRONOUNCE	NO_LABEL
