ボリース・ミハーイロヴィチ・クストーディエフ– 1927年5月28日）はロシアの画家・舞台美術家。	NO_PRONOUNCE	NO_LABEL
ロシアの画家に珍しく、明るく華やかな色調を多用した風俗画や風景画で名高い。	ろしあのがかにめずらしく、あかるくはなやかなしきちょーをたよーしたふーぞくがやふーけいがでなだかい。	NO_LABEL
アストラハンのインテリゲンチャの家庭に生まれる。	あすとらはんのいんてりげんちゃのかていにうまれる。	NO_LABEL
地元の神学校で哲学・文学史・論理学を教えていた父親が夭折したため、経済的・物質的な負担が母親の両肩にのしかかった。	NO_PRONOUNCE	NO_LABEL
一家は豊かな商人の住居の一室を賃貸し、そこでクストーディエフ少年は、地方の商人階級の生活様式に対する第一印象を育んだ。	いっかわゆたかなしょーにんのじゅーきょのいっしつをちんたいし、そこでくすとーでぃえふしょーねんわ、ちほーのしょーにんかいきゅーのせいかつよーしきにたいするだいいちいんしょーをはぐくんだ。	NO_LABEL
後にクストーディエフは、「豊かで満ち足りた商人の生活様式のすべての流れが、そこではまさに私の鼻先にあったのだ。	NO_PRONOUNCE	NO_LABEL
それはまさにオストロフスキーの戯曲から抜け出したようなものだった」と記している。	NO_PRONOUNCE	NO_LABEL
クストーディエフは少年時代の記憶を長年にわたって保ち続け、それを後に油絵や水彩画に再現したのであった 。	くすとーでぃえふわしょーねんじだいのきおくをながねんにわたってたもちつずけ、それをのちにあぶらえやすいさいがにさいげんしたのであった。	NO_LABEL
1893年から1896年までの間、神学校に学ぶかたわら、オストラハンで、パヴェル・ウラソフ門下のワシーリー・ペロフより絵画の個人指導を受ける。	NO_PRONOUNCE	NO_LABEL
その後1896年からペテルブルク帝国美術アカデミーにてイリヤ・レーピンに師事すると同時に、彫刻をディミトリー・ステレツキーに、エッチングをワシーリー・マテに師事した。	NO_PRONOUNCE	NO_LABEL
1896年に初めて展覧会に出展する。	せんはっぴゃくきゅうじゅうろくねにはじめててんらんかいにしゅってんする。	NO_LABEL
レーピンは学生時代のクストーディエフを次のように評価した。	れーぴんわがくせいじだいのくすとーでぃえふをつぎのよーにひょーかした。	NO_LABEL
「クストーディエフ君には大きな希望を抱いています。	NO_PRONOUNCE	NO_LABEL
彼は才能のある画家にして、思慮深く真面目な人間であり、美術に深い愛情を寄せています。	かれわさいのーのあるがかにして、しりょふかくまじめなにんげんであり、びじゅつにふかいあいじょーをよせています。	NO_LABEL
そして自然界を注意深く学んでいるのです」。	NO_PRONOUNCE	NO_LABEL
レーピンは、「」の制作を依嘱された際、クストーディエフを助手として招いている。	NO_PRONOUNCE	NO_LABEL
この絵は至って複雑で、たくさんの厄介な作業が待ち構えていた。	このえわいたってふくざつで、たくさんのやっかいなさぎょーがまちかまえていた。	NO_LABEL
青年だったクストーディエフは恩師と一緒に、作画のために数々の肖像画を習作し、それからカンバスの右側を完成させたのである。	せいねんだったくすとーでぃえふわおんしといっしょに、さくがのためにかずかずのしょーぞーがをしゅーさくし、それからかんばすのみぎがわをかんせいさせたのである。	NO_LABEL
またこの頃は、自分の精神的な仲間と感じた人物の肖像画を手懸けており、その一例に、イワン・ビリビンやモルドフツェフ、版画家マテの肖像画が挙げられる。	NO_PRONOUNCE	NO_LABEL
肖像画への取り組みは画家としての成長の手助けとなり、モデルを間近に注視し、人間の精神世界の複雑さを見通すことをクストーディエフに覚えさせた。	しょーぞーがえのとりくみわがかとしてのせいちょーのてだすけとなり、もでるをまじかにちゅーしし、にんげんのせいしんせかいのふくざつさをみとおすことをくすとーでぃえふにおぼえさせた。	NO_LABEL
1903年にユリヤ・プロシンスカヤと結婚。	NO_PRONOUNCE	NO_LABEL
1904年に帝国美術アカデミーより奨学金を得てフランスとスペインを訪れる。	せんきゅうひゃくよねんにていこくびじゅつあかでみーよりしょーがくきんをえてふらんすとすぺいんをおとずれる。	NO_LABEL
また同年、パリのルネ・メナールの私設アトリエにも通った。	NO_PRONOUNCE	NO_LABEL
スペイン旅行ののち、今度は1907年にイタリアを、1909年にはオーストリアとドイツを訪ね、フランスとイタリアを再訪した。	すぺいんりょこーののち、こんどわせんきゅうひゃくななねんにいたりあを、せんきゅうひゃくきゅうねんにわおーすとりあとどいつをたずね、ふらんすといたりあをさいほーした。	NO_LABEL
この間にクストーディエフは数々の肖像画や風俗画を描いている。	このかんにくすとーでぃえふわかずかずのしょーぞーがやふーぞくがをえがいている。	NO_LABEL
しかしながら、——たとえば陽射しの強いセビーリャであれヴェルサイユであれ——、自分がどこに居合わせようと母国のたまらない魅力には抗えないと感じるのであった。	NO_PRONOUNCE	NO_LABEL
フランスに5ヵ月間滞在した後ロシアに帰国し、マタに「我らが聖なるルーシに戻って来たのです」と喜ばしげに書き送っている。	NO_PRONOUNCE	NO_LABEL
ロシア社会を根底から揺り動かしたロシア第一革命は、芸術家の魂に目覚しい反応を掻き立てた。	ろしあしゃかいをこんていからゆりうごかしたろしあだいいちかくめいわ、げいじゅつかのたましーにめざましいはんのーをかきたてた。	NO_LABEL
クストーディエフは諷刺雑誌『なまはげ』『地獄便り』に寄稿した。	NO_PRONOUNCE	NO_LABEL
またその頃に「芸術世界」の同人と初めて接触し、1910年には自らもその同人に加わり、その後すべての「芸術世界」の展覧会に参加した. 	NO_PRONOUNCE	NO_LABEL
1905年ごろから初めて挿絵に取り組むようになり、その後は畢生の業となった。	せんきゅうひゃくごねんごろからはじめてさしえにとりくむよーになり、そのごわひっせいのごーとなった。	NO_LABEL
クストーディエフは数多くの古典的なロシア文学に挿絵を寄せており、ニコライ・ゴーゴリの『死せる魂』や『外套』、ミハイル・レールモントフの『皇帝イワン・ワシーリエヴィチと若き親衛兵と勇敢な商人カラーシニコフの歌』、レフ・トルストイの『小悪魔がパン切れの償いをした話』『蝋燭』に作画を提供している。	NO_PRONOUNCE	NO_LABEL
1909年にペテルブルク帝国美術アカデミーの教員に選任される。	せんきゅうひゃくきゅうねんにぺてるぶるくていこくびじゅつあかでみーのきょーいんにせんにんされる。	NO_LABEL
積極的な活動を続けたが、重病——脊椎の結核——を患い、応急処置が必要となった。	NO_PRONOUNCE	NO_LABEL
医者の忠告によってスイスに転地し、その地で1年間個人の診療所で療養を続けた。	いしゃのちゅーこくによってすいすにてんちし、そのちでいちねんかんこじんのしんりょーじょでりょーよーをつずけた。	NO_LABEL
クストーディエフは遙かな故郷に思い焦がれており、ロシア的な主題がこの期間に描かれた絵画の根幹を成している。	くすとーでぃえふわはるかなこきょーにおもいこがれており、ろしあてきなしゅだいがこのきかんにえがかれたかいがのこんかんをなしている。	NO_LABEL
1918年に描いた「商人の妻」は、クストーディエフの代表作の一つとなっている。	NO_PRONOUNCE	NO_LABEL
1916年に対麻痺を患う。	せんきゅうひゃくじゅうろくねんについまひをわずらう。	NO_LABEL
クストーディエフは、「今や私の全世界は自分の部屋になってしまった」と書き残している。	NO_PRONOUNCE	NO_LABEL
麻痺に罹りながらも楽しく元気な気持ちでいられたクストーディエフの能力は、驚きである。	まひにかかりながらもたのしくげんきなきもちでいられたくすとーでぃえふののーりょくわ、おどろきである。	NO_LABEL
その彩色画や楽しげな風俗画は、クストーディエフの身体の症状をまるで窺わせず、それどころか、屈託のない愉快な生活という印象を抱かせる。	そのさいしきがやらくしげなふーぞくがわ、くすとーでぃえふのしんたいのしょーじょーをまるでうかがわせず、それどころか、くったくのないゆかいなせいかつとゆういんしょーをいだかせる。	NO_LABEL
「マースレニツァの火曜日」は、昔の思い出を描いたものである。	NO_PRONOUNCE	NO_LABEL
ヴォルガの河畔の賑わしい街並みの中に、細部に至るまで正確に自分の少年時代を復元している。	NO_PRONOUNCE	NO_LABEL
ロシア革命後の初めの年代は、クストーディエフが大いなる霊感をいだいて様々な分野で働いていた時期である。	ろしあかくめいごのはじめのねんだいわ、くすとーでぃえふがおーいなるれいかんをいだいてさまざまなぶんやではたらいていたじきである。	NO_LABEL
同時代の主題が作品の基礎となり、カレンダーや本の装幀の下絵、挿絵、街頭の装飾のデザインとなって実を結んだ。	どーじだいのしゅだいがさくひんのきそとなり、かれんだーやほんのそーていのしたえ、さしえ、がいとーのそーしょくのでざいんとなってみをむすんだ。	NO_LABEL
雑誌『赤い麦畑』『赤いパノラマ』の表紙は、その鮮やかさや刺戟的な題材ゆえに注目を惹いた。	NO_PRONOUNCE	NO_LABEL
クストーディエフはリトグラフや、ニコライ・ネクラーソフの作品への挿絵の提供も手懸けた。	くすとーでぃえふわりとぐらふや、にこらいねくらーそふのさくひんえのさしえのていきょーもてがけた。	NO_LABEL
クストーディエフが手懸けたニコライ・レスコフの小説『かがり穴』『ムツェンスク郡のマクベス夫人』の挿絵と装幀は、美術が文学的なイメージと実に見事に合致しているがゆえに、ロシアの製本の歴史において画期的な出来事であった。	NO_PRONOUNCE	NO_LABEL
ちなみに『ムツェンスク郡のマクベス夫人』をオペラ化したドミトーリイ・ショスタコーヴィチは、少年時代にクストーディエフの娘と同級生であり、そのため画家の一家と交流があったという。	NO_PRONOUNCE	NO_LABEL
クストーディエフは、舞台美術にも興味を持っていた。	くすとーでぃえふわ、ぶたいびじゅつにもきょーみをもっていた。	NO_LABEL
最初に手懸けた舞台作品は、1911年のアレクサンドル・オストロフスキーの『熱い心』の舞台のためのデザインだった。	NO_PRONOUNCE	NO_LABEL
それが非常に成功したことから、数々の注文が舞い込むようになる。	それがひじょーにせいこーしたことから、かずかずのちゅーもんがまいこむよーになる。	NO_LABEL
1913年には、モスクワ芸術劇場の『パズーヒンの死』のために舞台美術と衣裳のデザインを担当した。	NO_PRONOUNCE	NO_LABEL
この分野における才覚は、とりわけオストロフスキーの戯曲のための美術において如実であった。	このぶんやにおけるさいかくわ、とりわけおすとろふすきーのぎきょくのためのびじゅつにおいてにょじつであった。	NO_LABEL
オストロフスキーの戯曲の雰囲気———商人階級の田舎暮らしや生活様式———は、クストーディエフ自身の風俗画に近く、舞台美術にやすやすと取り組むことができたのであった。	NO_PRONOUNCE	NO_LABEL
1923年に「革命ロシア芸術家連盟」に加入し、1927年にレニングラードに没するまで、絵画や版画・挿絵・舞台美術の制作を続けた。	NO_PRONOUNCE	NO_LABEL
