「愛のメモリー」は、歌手松崎しげるの楽曲。	NO_PRONOUNCE	NO_LABEL
1977年の8月にビクターレコードからシングル盤が発売された。	せんきゅうひゃくななじゅうななねんのはちがつにびくたーれこーどからしんぐるばんがはつばいされた。	NO_LABEL
1976年、ビクターレコードのディレクターがスペインのマジョルカで開催される「マジョルカ音楽祭」を知り、音楽祭参加のために楽曲を制作することを決意する。	NO_PRONOUNCE	NO_LABEL
同音楽祭は、当時注目をされていたヨーロピアン・ポップス界の登竜門的存在であり、審査員はフランシス・レイ、ポール・モーリア、ミシェル・ルグランなどの作曲家である。	NO_PRONOUNCE	NO_LABEL
ディレクターの意向により、それまでにないスケールの大きな楽曲が製作されることとなり、歌手として松崎に白羽の矢が立った。	でぃれくたーのいこーにより、それまでにないすけーるのおーきながっきょくがせいさくされることとなり、かしゅとしてまつざきにしらはのやがたった。	NO_LABEL
フランク・シナトラの「マイ・ウェイ」を念頭においた、ラブ・バラードが最適とディレクターは判断し、作詞をたかたかし、作曲を馬飼野康二に依頼する。	NO_PRONOUNCE	NO_LABEL
たかは『万葉集』から、藤原鎌足が采女安見児を得たときに詠んだ歌「われはもや安見児得たり皆人の得難にすとふ安見児得たり」を元に、また馬飼野は、ヘンリー・マンシーニの「ひまわり」を念頭に置き楽曲を完成、「愛の微笑み」と名づけられた。	NO_PRONOUNCE	NO_LABEL
音楽祭では、より曲を印象付けるため、サビをスペイン語にするなどの手直しが施された。	おんがくさいでわ、よりきょくをいんしょーつけるため、さびをすぺいんごにするなどのてなおしがほどこされた。	NO_LABEL
本番では松崎の圧倒的な歌唱力とステージ・パフォーマンスにより、松崎自身に最優秀歌唱賞を、総合では第2位を記録する。	NO_PRONOUNCE	NO_LABEL
しかし、日本での対応は冷ややかであった。	しかし、にっぽんでのたいおーわひややかであった。	NO_LABEL
各種メディアも、音楽関係者も松崎の受賞を気にも留めなかった。	かくしゅめでぃあも、おんがくかんけいしゃもまつざきのじゅしょーをきにもとめなかった。	NO_LABEL
また、楽曲そのものに関しても注目が集まることはほとんどなく、松崎自身がテープを持参して曲の売込みを行うこととなるが、売り込み自体も困難を極めた。	また、がっきょくそのものにかんしてもちゅーもくがあつまることわほとんどなく、まつざきじしんがてーぷをじさんしてきょくのうりこみをおこなうこととなるが、うりこみじたいもこんなんをきわめた。	NO_LABEL
やがて、松崎はかつて仕事をした関西のCMプロデューサーの元を訪ねる。	やがて、まつざきわかつてしごとをしたかんさいのこんぴゅーたみゅーじっくまがじんぷろでゅーさーのもとをたずねる。	NO_LABEL
その際に、サビの部分に興味を抱いたプロデューサーの意向により、江崎グリコのアーモンド・チョコレートのコマーシャル・ソングとして起用されることが決まった。	NO_PRONOUNCE	NO_LABEL
1977年、話題のカップルであった三浦友和と山口百恵の共演するコマーシャルソングとして登場した「愛の微笑み」は注目を集め、同年8月に、歌詞を一部改変して「愛のメモリー」としてリリースした。	NO_PRONOUNCE	NO_LABEL
同年暮れの『第28回NHK紅白歌合戦』に初出場。	NO_PRONOUNCE	NO_LABEL
また、翌1978年春の第50回選抜高校野球大会の行進曲にも起用され、開会式のゲストに呼ばれた松崎は、かつて高校球児の頃に怪我のため断念した甲子園球場へ、楽曲での出場をも果たしたのだった。	また、よくせんきゅうひゃくななじゅうはちねんはるのだいごじゅっかいせんばつこーこーやきゅーたいかいのこーしんきょくにもきよーされ、かいかいしきのげすとによばれたまつざきわ、かつてこーこーきゅーじのころにけがのためだんねんしたこーしえんきゅうじょーえ、がっきょくでのしゅつじょーをもはたしたのだった。	NO_LABEL
2005年8月、音楽配信サイト『iTunes Music Store』日本版開始時に最高3位にランクインしたことをきっかけに、ネットを中心にした新たなブームが起きた。	NO_PRONOUNCE	NO_LABEL
新曲が重視される配信サービスにおいて、過去の優れた楽曲に対する関心の大きさを示し、過去に廃盤となった楽曲が配信によってよみがえるといった新展開を迎えることに対しての期待も高まりつつある。	しんきょくがじゅーしされるはいしんさーびすにおいて、かこのすぐれたがっきょくにたいするかんしんのおーきさをしめし、かこにはいばんとなったがっきょくがはいしんによってよみがえるといったしんてんかいをむかえることにたいしてのきたいもたかまりつつある。	NO_LABEL
なお、『iTunes Music Store』で懐かしの曲を買うことが、この曲の影響から「シゲる」と呼ばれている。	NO_PRONOUNCE	NO_LABEL
このことが話題となり、『週刊ポスト』やラジオ番組『サントリー・サタデー・ウェイティング・バー』などでも取り上げられた。	NO_PRONOUNCE	NO_LABEL
2007年に登場したパチンコ「愛と誠」でテーマソングとして採用され、大当たり中にはこの歌がホールに鳴り響いている。	NO_PRONOUNCE	NO_LABEL
全作詞：たかたかし	NO_PRONOUNCE	NO_LABEL
2012年6月6日、メガボリュームのマキシシングル「愛のメモリー 35th Anniversary Edition」が発売された。	NO_PRONOUNCE	NO_LABEL
全14トラックすべてが「愛のメモリー」で、オリジナルの他、それまで複数のアルバムに収録されてきたものや、新録音バージョンなどを含んでいる。	NO_PRONOUNCE	NO_LABEL
値段は1000円。	ねだんわせんえん。	NO_LABEL
「同一歌手・同一曲の最多収録記録」を「ギネス・ワールドレコーズ」に申請するという。	NO_PRONOUNCE	NO_LABEL
オリコンでは初登場79位を記録、個人名義では25年ぶりのシングルTOP100入り。	NO_PRONOUNCE	NO_LABEL
翌週は52位にランクアップ、「愛のメモリー」としては34年ぶりのTOP60入りとなった。	NO_PRONOUNCE	NO_LABEL
2015年公開の映画『猫侍 南の島へ行く』の主題歌として新たに録音されたもの。	NO_PRONOUNCE	NO_LABEL
松崎による猫の鳴き真似が挿入される、歌詞の一部が「にゃー」に変えられる、といった変更がされている。	NO_PRONOUNCE	NO_LABEL
