黒田 直邦は、常陸下館藩主、上野沼田藩の初代藩主。	くろだなおくにわ、ひたちしもだてはんしゅ、うえのぬのしょだいはんしゅ。	NO_LABEL
久留里藩黒田家初代。	くるりはんくろだかしょだい。	NO_LABEL
寛文6年12月27日、旗本・中山直張の三男に生まれる。	NO_PRONOUNCE	NO_LABEL
館林藩家老の外祖父・黒田用綱の養子となり、徳川徳松の側近として仕えた。	NO_PRONOUNCE	NO_LABEL
延宝8年、徳松の江戸城西の丸入りに伴って幕臣となる。	えんぽーはちねん、とくまつのえどじょーにしのまるいりにともなってばくしんとなる。	NO_LABEL
月俸30口を与えられた。	NO_PRONOUNCE	NO_LABEL
天和元年3月21日、蔵米300俵取りに改められる。	NO_PRONOUNCE	NO_LABEL
徳松の早世に伴って一時小普請となるものの、その後小納戸役や小姓を登用されて、蔵米も増やされていく。	とくまつのそーせいにともなっていちじこぶしんとなるものの、そのごこなんどやくやこしょーをとーよーされて、くらまいもふやされていく。	NO_LABEL
貞享4年12月18日、従五位下豊前守に叙任される。	ていきょーよんねんじゅーにがつじゅうはちにち、じゅうごいのげとよまえもりにじょにんされる。	NO_LABEL
徳川綱吉に寵愛されて元禄9年には7000石に加増され、元禄13年1万石を領して大名に列する。	NO_PRONOUNCE	NO_LABEL
元禄16年1月9日、5000石を加増されて、常陸下館を居所とする。	NO_PRONOUNCE	NO_LABEL
宝永元年12月26日、従四位下に昇進する。	ほーえいがんねんじゅーにがつにじゅうろくにち、じゅうしーのげにしょーしんする。	NO_LABEL
宝永4年1月9日、5000石を加増される。	NO_PRONOUNCE	NO_LABEL
宝永6年2月21日、綱吉の死去に伴い小姓を解任される。	ほーえいろくねんにがつにじゅういちにち、つなよしのしきょにともないこしょーをかいにんされる。	NO_LABEL
同時に江戸城の雁の間詰めとなり、黒田家の家格となる。	どーじにえどじょーのかりのまずめとなり、くろだかのかかくとなる。	NO_LABEL
正徳2年3月1日、初めてお国入りをする許可を得る。	しょーとくにねんさんがつついたち、はじめておくにいりをするきょかをえる。	NO_LABEL
なお、翌年の二度目のお国入りに際しては『暇之記』という記録を残している。	NO_PRONOUNCE	NO_LABEL
享保8年3月25日、奏者番に就任し、寺社奉行を兼任する。	きょうほはちねんさんがつにじゅうごにち、そうじゃばんにしゅーにんし、じしゃぶぎょーをけんにんする。	NO_LABEL
享保17年3月、5000石を加増されて、下館から沼田に移封された。	NO_PRONOUNCE	NO_LABEL
享保17年7月29日、西の丸老中に就任し、武蔵国内で5000石を加増された。	NO_PRONOUNCE	NO_LABEL
3万石を領することになった。	NO_PRONOUNCE	NO_LABEL
同年12月15日、侍従に任官する。	どーねんじゅーにがつじゅうごにち、じじゅーににんかんする。	NO_LABEL
「学を好み、欲のない人となりの良い人」というように、名君として賞賛された。	NO_PRONOUNCE	NO_LABEL
荻生徂徠の弟子であり、為政者としての心構えを説いた『老話』、『治教略論』を著わすなど、著作も多い。	NO_PRONOUNCE	NO_LABEL
享保20年3月26日、江戸で死去し、跡を養嗣子の直純が継いだ。	きょうほにじゅうねんさんがつにじゅうろくにち、えどでしきょし、あとをよーししのなおずみがついだ。	NO_LABEL
