生検法は病気の診断や経過予後の判定のために、生体の組織や臓器から材料を採取する方法。	せいけんほーわびょーきのしんだんやけいかよごのはんていのために、せいたいのそしきやぞーきからざいりょーをさいしゅするほーほー。	NO_LABEL
採取された組織片や細胞について、病理組織学的検索、電顕的検索などの病理診断を行う。	さいしゅされたそしきへんやさいぼーについて、びょーりそしきがくてきけんさく、でんあらわてきけんさくなどのびょーりしんだんをおこなう。	NO_LABEL
ときに生化学的検索、感染症検査、遺伝子解析等を行う。	ときにせいかがくてきけんさく、かんせんしょーけんさ、いでんしかいせきとーをおこなう。	NO_LABEL
