ノイバイ国際空港は、ベトナム社会主義共和国の首都・ハノイ市にある国際空港である。	NO_PRONOUNCE	NO_LABEL
ハノイ都心部から北に約45km離れた場所に位置しており、ベトナム北部最大の空港である。	はのいとしんぶからきたにやくよんじゅうごきろめーとるはなれたばしょにいちしており、べとなむほくぶさいだいのくーこーである。	NO_LABEL
ベトナム航空とベトジェットエア、ジェットスター・パシフィック航空がハブ空港としている。	べとなむこうくーとべとじぇっとえあ、じぇっとすたーぱしふぃっくこうくーがはぶくうこーとしている。	NO_LABEL
2015年現在、第1空港ターミナルビルは国内線専用となっている。	NO_PRONOUNCE	NO_LABEL
