『アスリート応援TV! ニッポン!チャ×3』は、2006年4月29日から2007年2月24日まで、TBSで放送されていたスポーツをテーマにした情報バラエティ番組である。	NO_PRONOUNCE	NO_LABEL
放送時間は毎週土曜19:56 - 20:54。	NO_PRONOUNCE	NO_LABEL
第1回は19:00 - 20:54の拡大版で放送された。	NO_PRONOUNCE	NO_LABEL
視聴率は、一桁の回が多く苦戦していた。	しちょーりつわ、いちけたのかいがおーくくせんしていた。	NO_LABEL
そのため8月12日の放送分から番組内容をリニューアルしたものの視聴率の低下に歯止めを掛けることができず、時には5%台を大きく割りこむ回もあったことから、2007年2月24日放送分で打ち切りとなった。	そのためはちがつじゅうににちのほーそーぶんからばんぐみないよーをりにゅーあるしたもののしちょーりつのていかにはどめをかけることができず、ときにわごぱーせんとだいをおーきくわりこむかいもあったことから、にせんななねんにがつにじゅうよっかほーそーぶんでうちきりとなった。	NO_LABEL
番組が最終回を迎える前の終盤の1ヶ月位前の期間の番組の後半部である20時30分ぐらいから始まるコーナーで、紳助が世間でネクラ、オタクだと後ろ指を差されている若者を何とか野球を通じて本人達に勇気と生きがいを与えようと結成された野球部のコーナーである。	NO_PRONOUNCE	NO_LABEL
尚、この活動の結末として「一勝したら即解散」という誓約の下で始まっている。	NO_PRONOUNCE	NO_LABEL
番組スタッフが実際に秋葉原にいる、様々な分野のオタクに没頭している20～30代の男子若者を勧誘し、この中でごく一部の人間を除き草野球の経験はおろか、ボールすら握った事が無い人間らが、元北海道日本ハムファイターズのエースである岩本勉監督の熱血指導を受ける。	NO_PRONOUNCE	NO_LABEL
監督もボールを恐がる選手に対し「俺の胸にボールを当てて見な。	NO_PRONOUNCE	NO_LABEL
全然痛く無いねん」と身をもって選手に指導する熱の入れようであったが、何せ本当にボールを握るという1からの初歩的な活動から始まり、弱い打球でもエラーをする者、違う方向へ投げてしまう者、はては途中で居眠りをしてしまう者等がいて、最初は野球自体に興味すら沸かない人間が合宿に挑んだ。	NO_PRONOUNCE	NO_LABEL
また、オタク野球部の中には若手お笑い芸人のトレンディエンジェルや作家の中沢健も参加していた。	また、おたくやきゅーぶのなかにわわかておわらいげいにんのとれんでぃえんじぇるやさっかのなかざわけんもさんかしていた。	NO_LABEL
合宿では技術面もさることながら座禅を組むと言ったメンタル面からも立て直すという徹底した過程を経て、一応のポジションを与え実際に試合に臨む。	がっしゅくでわぎじゅつめんもさることながらざぜんをくむといっためんたるめんからもたてなおすとゆうてっていしたかていをへて、いちおーのぽじしょんをあたえじっさいにしあいにのぞむ。	NO_LABEL
助っ人として紳助が4番打者でサード、V6の井ノ原快彦と坂本昌行が加わる。	すけっととしてしんすけがよばんだしゃでさーど、ぶいしっくすのいのはらよしひことさかもとまさゆきがくわわる。	NO_LABEL
第1戦の初回の守備につく際に、補欠の2人も誤って外野の守備についてしまうというハプニングがあったが、これは彼らにすればハプニングではなく、野球は9人で行うというルールすら知らないという証しとも言える。	だいいちせんのしょかいのしゅびにつくさいに、ほけつのふたりもあやまってがいやのしゅびについてしまうとゆうはぷにんぐがあったが、これわかれらにすればはぷにんぐでわなく、やきゅーわくにんでおこなうとゆうるーるすらしらないとゆうしょうしともいえる。	NO_LABEL
試合は番組の最終回までの2試合が行われたが、相手としては2試合ともチーム平均年齢が60・70代といった草野球チームであり、技術的と経験面では全く太刀打ちできないものの、ややもすると若さで対抗出来るかという期待があった。	NO_PRONOUNCE	NO_LABEL
しかし経験不足は何ともカバー出来ず2試合共に敗戦。	しかしけいけんふそくわなんともかばーできずにしあいどもにはいせん。	NO_LABEL
ただ2試合目の中盤からは選手たちにもかなり熱が入り、良いプレーを見せた選手に周りの選手やベンチも感動するといった連帯感も見せ始めていた。	ただにしあいめのちゅーばんからわせんしゅたちにもかなりねつがはいり、よいぷれーをみせたせんしゅにまわりのせんしゅやべんちもかんどーするといったれんたいかんもみせはじめていた。	NO_LABEL
