ローラー台またはトレーナーは、自転車のタイヤに金属製または樹脂製のローラーをあてて負荷をかけてトレーニングするための機器である。	ろーらーだいまたわとれーなーわ、じてんしゃのたいやにきんぞくせいまたわじゅしせいのろーらーをあててふかをかけてとれーにんぐするためのききである。	NO_LABEL
自転車を固定せず、二本のローラーの間に後輪を、1本のローラーに前輪を載せる三本ローラー、後ろ車軸を固定する固定式ローラー台がある。	じてんしゃをこていせず、にもとのろーらーのまにこーわを、いっぽんのろーらーにぜんりんをのせるみつもとろーらー、うしろしゃじくをこていするこていしきろーらーだいがある。	NO_LABEL
三本ローラーは、自転車を固定しないため、実際の走行感覚に近く、ペダリングやバランス感覚などの技術の向上につながる利点があるが、慣れていない人は転倒するおそれがある。	みつもとろーらーわ、じてんしゃをこていしないため、じっさいのそーこーかんかくにちかく、ぺだりんぐやばらんすかんかくなどのぎじゅつのこーじょーにつながるりてんがあるが、なれていないひとわてんとーするおそれがある。	NO_LABEL
固定式ローラー台は誰でも容易に乗ることができ、安全であるが、自転車を完全に固定するため、実際の走行感覚から遠い。	こていしきろーらーだいわだれでもよーいにのることができ、あんぜんであるが、じてんしゃをかんぜんにこていするため、じっさいのそーこーかんかくからとーい。	NO_LABEL
また、自転車のフレームへ大きな負荷がかかるため、超軽量フレームやカーボンファイバー製フレームの場合は注意が必要である。	また、じてんしゃのふれーむえおーきなふかがかかるため、ちょーけいりょーふれーむやかーぼんふぁいばーせいふれーむのばあいわちゅーいがひつよーである。	NO_LABEL
古くは木製のローラーが使われていた。	ふるくわもくせいのろーらーがつかわれていた。	NO_LABEL
また、どれだけ漕げるかを競う競技会も行われてきた。	また、どれだけこげるかをきそうきょーぎかいもおこなわれてきた。	NO_LABEL
