鶴見 祐輔は、日本の官僚・政治家・著述家。	NO_PRONOUNCE	NO_LABEL
衆議院議員総選挙第16、19、20、21回当選。	NO_PRONOUNCE	NO_LABEL
参議院議員選挙第3回当選。	さんぎーんぎーんせんきょだいさんかいとーせん。	NO_LABEL
1885年1月3日、群馬県多野郡新町で、官営・新町紡績所の工場長をしていた父・良憲と、母・琴子の2男として生まれる。	NO_PRONOUNCE	NO_LABEL
一家は1895年9月に東京・赤坂、1896年1月に父の郷里・岡山へ転居。	NO_PRONOUNCE	NO_LABEL
鶴見は1895年に新町立尋常小学校を卒業、新町立高等小学校に入学し、赤坂区立赤坂尋常高等小学校を経て、1898年に岡山市立岡山高等小学校を卒業した。	つるみわせんはっぴゃくきゅうじゅうごねんにしんちょーりつじんじょーしょうがっこーをそつぎょー、しんちょーりつこーとーしょうがっこーににゅーがくし、あかさかくりつあかさかじんじょーこーとーしょうがっこーをへて、せんはっぴゃくきゅうじゅうはちねにおかやましりつおかやまこーとーしょうがっこーをそつぎょーした。	NO_LABEL
同年、岡山県立岡山中学に入学。	どーねん、おかやまけんたつおかやまちゅーがくににゅーがく。	NO_LABEL
中学時代にスタンレーの『アフリカ探検記』を読んで「日本を抜け出して、世界に出て行かなければだめだ」と決心し、英語の勉強に熱中。	NO_PRONOUNCE	NO_LABEL
1899年夏に一家が名古屋へ転居した後は級友・池田長康宅に寄寓して岡山中学に通学、池田とは生涯の親友となった。	NO_PRONOUNCE	NO_LABEL
1900年4月に名古屋で母・琴子が病死。	NO_PRONOUNCE	NO_LABEL
中学時代の鶴見は野球に注力していて成績は芳しくなく、母が死に際して「お前はもっと学問のできる子であると思ったのに」と言ったことから、鶴見は母の墓前に首席卒業を誓ったとされる。	NO_PRONOUNCE	NO_LABEL
またこの頃父・良憲の事業が行き詰まり、家計が次第に逼迫していったことから、きょうだいを養い家計を支えるために学課の試験勉強に励んだともいわれている。	NO_PRONOUNCE	NO_LABEL
1903年3月、岡山中学を首席で卒業し、同年夏に一家が転居していた小田原市へ移る。	せんきゅうひゃくさんねんさんがつ、おかやまちゅーがくをしゅせきでそつぎょーし、どーねんなつにいっかがてんきょしていたおだわらしえうつる。	NO_LABEL
同年9月、旧制一高法科甲類へ次席で入学し、南寮10番に入寮。	どーねんくがつ、きゅーせいいちだかほーかかぶとるいえじせきでにゅーがくし、みなみりょーじゅうばんににゅーりょー。	NO_LABEL
一高時代には英語教師だった夏目漱石の薫陶を受け、弁論部に所属して全寮茶話会で演説するなどし、撃剣部に所属して稽古掛を務めた。	いちたかじだいにわえいごきょーしだったなつめそーせきのくんとーをうけ、べんろんぶにしょぞくしてぜんりょーさわかいでえんぜつするなどし、げっけんぶにしょぞくしてけいこかけをつとめた。	NO_LABEL
1906年6月、一高英法科を首席で卒業し、同年7月、東京帝国大学法科大学政治学科に入学。	せんきゅうひゃくろくねんろくがつ、いちたかひでのりかをしゅせきでそつぎょーし、どーねんしちがつ、とーきょーていこくだいがくほーかだいがくせいじがっかににゅーがく。	NO_LABEL
同年10月に父が小田原で死去し、鶴見は長姉・敏子の嫁ぎ先だった廣田理太郎の支援を受け、東京麹町区にあった廣田の家に寄寓して学業を続けた。	NO_PRONOUNCE	NO_LABEL
東大在学中に、自身の一高卒業後に一高の校長に就任した新渡戸稲造に心酔し、師事。	とーだいざいがくちゅーに、じしんのいちたかそつぎょーごにいちたかのこーちょーにしゅーにんしたにとべいなぞーにしんすいし、しじ。	NO_LABEL
新渡戸は内政については民主主義の提唱者だったが、植民政策の実務に携わったことから帝国主義的対外発展に同情的で、鶴見も帝国主義の方へひかれていったとされる。	にとべわないせいについてわみんしゅしゅぎのていしょーしゃだったが、しょくみんせいさくのじつむにたずさわったことからていこくしゅぎてきたいがいはってんにどーじょーてきで、つるみもていこくしゅぎのほーえひかれていったとされる。	NO_LABEL
学友の前田多門、石川鉄雄、藤井武、田島道治、青木得三、笠間杲雄、金井清、矢野真、岩永裕吉らと読書会を組織し、卒業まで毎月会合を開く。	がくゆーのまえだたもん、いしかわてつお、ふじーたけし、たじまみちじ、あおきとくぞー、かさまあきお、かないきよし、やのまこと、いわながゆーきちらとどくしょかいをそしきし、そつぎょーまでまいつきかいごーをひらく。	NO_LABEL
1910年7月、東京帝国大学法科大学政治学科を次席で卒業。	せんきゅうひゃくじゅうねんしちがつ、とーきょーていこくだいがくほーかだいがくせいじがっかをじせきでそつぎょー。	NO_LABEL
同年11月、高等文官試験に合格し、新渡戸の紹介で内閣拓殖局に就職。	どーねんじゅーいちがつ、こーとーぶんかんしけんにごーかくし、にとべのしょーかいでないかくたくしょくきょくにしゅーしょく。	NO_LABEL
翌1911年8月に新渡戸と親交のある後藤新平が初代総裁を務めていた鉄道院へ転じる。	よくせんきゅうひゃくじゅういちねんはちがつににとべとしんこーのあるごとーしんぺいがしょだいそーさいをつとめていたてつどーいんえてんじる。	NO_LABEL
翌1912年11月に新渡戸の紹介により後藤の娘・愛子と結婚。	NO_PRONOUNCE	NO_LABEL
語学力に長けていた鶴見は、1911年9月に新渡戸の秘書として初めて渡米、その後も国際会議への出席や後藤・新渡戸らに随行しての海外視察などでたびたび外国へ出張し、その経験をもとに旅行記や随筆を出版した。	NO_PRONOUNCE	NO_LABEL
1916年12月から、麻布宮村町の自宅に帝大や一高の学生生徒を招き、月に1回、 河合栄治郎をはじめ官・財界の様々な人物を講師とする「火曜会」を開催、のちの新自由主義協会設立に発展した。	NO_PRONOUNCE	NO_LABEL
鉄道省運輸局総務課長等を経て、1924年2月に鉄道監察官を以って退官。	NO_PRONOUNCE	NO_LABEL
退官直後の1924年4月、犬養系革新倶楽部青年層の支持を受けて衆議院議員選挙に岡山県第7区から立候補するも、落選。	たいかんちょくごのせんきゅうひゃくにじゅうよねんしがつ、いぬかいけいかくしんくらぶせいねんそーのしじをうけてしゅーぎーんぎーんせんきょにおかやまけんだいななくからりっこーほするも、らくせん。	NO_LABEL
同年7月、親交のあった博士と前駐日大使の勧めを受けて排日移民法施行後の米国へ渡り、ウィリアムズタウンの国政政治学協会をはじめ、200-300箇所の大学・諸団体で日本事情の英語講演を行う。	NO_PRONOUNCE	NO_LABEL
1925年12月に帰国するまでの1年余、日本事情を紹介するとともに、排日移民法を非難して歩いた。	せんきゅうひゃくにじゅうごねんじゅーにがつにきこくするまでのいちねんよ、にっぽんじじょーをしょーかいするとともに、はいにちいみんほーをひなんしてあるいた。	NO_LABEL
米国滞在中の1925年7月にはホノルルで開かれた第1回太平洋会議に出席した。	べいこくたいざいちゅーのせんきゅうひゃくにじゅうごねんしちがつにわほのるるでひらかれただいいっかいたいへいよーかいぎにしゅっせきした。	NO_LABEL
以後、1936年に米国ヨセミテ国立公園アワニー・ホテルで開かれた第6回会議まで、戦前に行われた太平洋会議に鶴見は毎回出席している。	NO_PRONOUNCE	NO_LABEL
1926年、米国からの帰国後、後藤新平が前年から展開していた政治倫理化運動に参加し、帰国報告を兼ねて日本各地で遊説。	せんきゅうひゃくにじゅうろくねん、べいこくからのきこくご、ごとーしんぺいがぜんねんからてんかいしていたせいじりんりかうんどーにさんかし、きこくほーこくをかねてにっぽんかくちでゆーぜい。	NO_LABEL
1927年5-6月には満州、朝鮮、中国で講演旅行を行い、同年7月ホノルルで開催された第2回太平洋会議に出席し日本代表として声明を発表。	NO_PRONOUNCE	NO_LABEL
退官後、鶴見は著述により生計を立てるようになり、1927年に軽井沢に建てた山荘で執筆活動に励んだ。	たいかんご、つるみわちょじゅつによりせいけいをたてるよーになり、せんきゅうひゃくにじゅうななねんにかるいざわにたてたさんそーでしっぴつかつどーにはげんだ。	NO_LABEL
1927年には講談社からの依頼を受けて雑誌『婦人倶楽部』に小説『母』を連載した。	NO_PRONOUNCE	NO_LABEL
1927年11月、再び米国への講演旅行に出発したが、1928年1月の議会解散・総選挙を受けて旅行を中止して急遽帰国し、同年2月の第16回衆議院議員総選挙に岡山第1区から立候補して当選。	NO_PRONOUNCE	NO_LABEL
与党・政友会と野党・民政党の議席数が拮抗する中で、同年4月に新自由主義を標榜して小山邦太郎らと6人で新政党・明政会を結成し、キャスティング・ボートを握った。	NO_PRONOUNCE	NO_LABEL
同年7月、新自由主義協会を設立し、同年から翌年にかけて国会閉会期間中に「新自由主義運動」を標榜して全国を遊説。	NO_PRONOUNCE	NO_LABEL
1928年夏に軽井沢の別荘で『英雄待望論』を執筆、発行部数は50万部を超えた。	NO_PRONOUNCE	NO_LABEL
同年9月渡米し、張作霖爆殺事件における日本の立場について講演旅行をして回り、同年12月に帰国。	どーねんくがつとべいし、ちょーさくりんばくさつじけんにおけるにっぽんのたちばについてこーえんりょこーをしてまわり、どーねんじゅーにがつにきこく。	NO_LABEL
1929年4月、後藤新平が脳溢血により死去。	せんきゅうひゃくにじゅうきゅうねしがつ、ごとーしんぺいがのーいっけつによりしきょ。	NO_LABEL
翌1930年1月、もと明政会所属議員の藤原米造が死去し、故人の代理人が検事局に告発したことをきっかけに、鶴見が島徳蔵ら政友会の関係者から、1928年4月召集の第55臨時議会において民政党が提出した田中義一内閣不信任案に反対することを条件に金銭を受け取った疑惑が持ち上がった。	NO_PRONOUNCE	NO_LABEL
疑惑の中、同年2月に行われた第17回衆議院議員総選挙に岡山第1区から立候補するも、落選。	ぎわくのなか、どーねんにがつにおこなわれただいじゅうななかいしゅーぎーんぎーんそーせんきょにおかやまだいいちくからりっこーほするも、らくせん。	NO_LABEL
同年3月に弟の鶴見定雄が大阪刑務所に収監され、鶴見も大阪地裁検事局で取調べを受けた。	どーねんさんがつにおとーとのつるみさだおがおーさかけいむしょにしゅーかんされ、つるみもおーさかちさいけんじきょくでとりしらべをうけた。	NO_LABEL
同年5月、鉄道省からの事務委託を受けて米国・カナダへ講演旅行に出発し、翌1931年9月までの約1年4ヶ月間、帰国せずに各地を講演して回る。	NO_PRONOUNCE	NO_LABEL
この頃一時期、不眠症、執筆不振となるが、旅行の後半には著述に没頭するようになった。	このころいちじき、ふみんしょー、しっぴつふしんとなるが、りょこーのこーはんにわちょじゅつにぼっとーするよーになった。	NO_LABEL
1931年10月、満州事変の後に上海で開催された第4回太平洋会議に出席し、満州事変における日本の行動を擁護。	せんきゅうひゃくさんじゅういちねじゅーがつ、まんしゅーじへんののちにしゃんはいでかいさいされただいよんかいたいへいよーかいぎにしゅっせきし、まんしゅーじへんにおけるにっぽんのこーどーをよーご。	NO_LABEL
同年11-12月、満州視察。	NO_PRONOUNCE	NO_LABEL
1932年1月には、満州の問題における日本の立場に関する講演旅行のため、再び渡米。	せんきゅうひゃくさんじゅうにねんいちがつにわ、まんしゅーのもんだいにおけるにっぽんのたちばにかんするこーえんりょこーのため、ふたたびとべい。	NO_LABEL
同年6月、欧州へ渡り、各国で日本事情について講演。	どーねんろくがつ、おーしゅーえわたり、かっこくでにっぽんじじょーについてこーえん。	NO_LABEL
米国を経由して1933年1月に帰国した。	べいこくをけいゆしてせんきゅうひゃくさんじゅうさんねいちがつにきこくした。	NO_LABEL
1933年1月に帰国してから約3年間、編集室を市政会館において後藤新平伝を執筆、並行して『プルターク英雄伝』を翻訳。	NO_PRONOUNCE	NO_LABEL
1933年10月に新渡戸稲造が死去し、一高などで追悼演説を行う。	せんきゅうひゃくさんじゅうさんねじゅーがつににとべいなぞーがしきょし、いっこーなどでついとーえんぜつをおこなう。	NO_LABEL
1934年『プルターク英雄伝』発行、1935年夏『後藤新平』全四巻脱稿。	NO_PRONOUNCE	NO_LABEL
明政会事件の報道の中では、鶴見が「弟に罪をなすりつけてアメリカへ逃げた」と報道した新聞もあり、鶴見の長男・俊輔も鶴見が新自由主義協会の活動を放擲してアメリカへ逃げたと思っていた。	NO_PRONOUNCE	NO_LABEL
満州事変以降、日本では政界に対する軍部の圧力が強まり、同協会を含め自由主義者や第三党の活動は影を潜めた。	まんしゅーじへんいこー、にっぽんでわせいかいにたいするぐんぶのあつりょくがつよまり、どーきょーかいをふくめじゆーしゅぎしゃやだいさんとーのかつどーわかげをひそめた。	NO_LABEL
新自由主義協会の機関誌「新自由主義」は1933年9月に発禁となった。	NO_PRONOUNCE	NO_LABEL
1936年2月、立憲民政党に入党し、同党の公認候補として第19回衆議院議員総選挙に岩手第2区から立候補して当選。	せんきゅうひゃくさんじゅうろくねにがつ、りっけんみんせいとーににゅーとーし、どーとーのこーにんこーほとしてだいじゅうきゅうかいしゅーぎーんぎーんそーせんきょにいわてだいにくからりっこーほしてとーせん。	NO_LABEL
同年4月、民政党青年部長。	どーねんしがつ、みんせいとーせいねんぶちょー。	NO_LABEL
1937年1月、永田秀次郎らと宇垣一成内閣成立に参画するも、陸軍の反対に遭い、失敗。	せんきゅうひゃくさんじゅうななねいちがつ、ながだひでじろーらとうがきかずしげないかくせいりつにさんかくするも、りくぐんのはんたいにあい、しっぱい。	NO_LABEL
同年4月、衆院解散を受けて行われた衆院選では岩手第2区から立候補し、当選。	どーねんしがつ、しゅーいんかいさんをうけておこなわれたしゅーいんせんでわいわてだいにくからりっこーほし、とーせん。	NO_LABEL
同年5月、民政党岩手県支部長。	どーねんごがつ、みんせいとーいわてけんしぶちょー。	NO_LABEL
同年12月、人民戦線派の一斉検挙で逮捕された姪の石本静枝の釈放に尽力。	どーねんじゅーにがつ、じんみんせんせんはのいっせいけんきょでたいほされためいのいしもとしずえのしゃくほーにじんりょく。	NO_LABEL
同月、国民使節として渡米、中学を中退していた俊輔を同行させる。	どーげつ、こくみんしせつとしてとべい、ちゅーがくをちゅーたいしていたしゅんすけをどーこーさせる。	NO_LABEL
1938年2月、訪問先のニューヨークから弟・定雄に、米国での反日感情が高まっていることに触れ、米国との開戦を避けるために、国際商業会議所・ワトソン議長を介して中国との和平・調停工作を行うよう指示。	NO_PRONOUNCE	NO_LABEL
1938年5月に設立された太平洋協会の常務理事に就任。	せんきゅうひゃくさんじゅうはちねごがつにせつりつされたたいへいよーきょーかいのじょーむりじにしゅーにん。	NO_LABEL
実質的に会を主宰した。	じっしつてきにかいをしゅさいした。	NO_LABEL
同年10月、河合教授事件で河合栄治郎の著書が発禁となり、鶴見は係争中の河合を支援。	どーねんじゅーがつ、かわいきょーじゅじけんでかわいえいじろーのちょしょがはっきんとなり、つるみわけいそーちゅーのかわいをしえん。	NO_LABEL
1940年1月に成立した米内内閣で内務政務次官に就任するも、同年7月に同内閣は総辞職。	せんきゅうひゃくよんじゅうねんいちがつにせいりつしたよないないかくでないむせいむじかんにしゅーにんするも、どーねんしちがつにどーないかくわそーじしょく。	NO_LABEL
同月から8月にかけて各政党は解党し、大政翼賛会に合流した。	どーげつからはちがつにかけてかくせいとーわかいとーし、たいせいよくさんかいにごーりゅーした。	NO_LABEL
1942年4月の衆院選では岩手県第2区から立候補し、「ローズヴェルトの親友を葬れ」と攻撃されながらも、当選。	NO_PRONOUNCE	NO_LABEL
同月上旬には「対敵宣伝機関創設案」を起草し、陸海軍関係者、情報局陸軍関係者の賛同を得たが、情報局の反対に遭い、実現せず。	NO_PRONOUNCE	NO_LABEL
鶴見はこの間、太平洋協会の仕事に従事し、1941年12月から1943年12月にかけてラジオに出演し、米国の国情を説明するなどした。	つるみわこのかん、たいへいよーきょーかいのしごとにじゅーじし、せんきゅうひゃくよんじゅういちねじゅーにがつからせんきゅうひゃくよんじゅうさんねじゅーにがつにかけてらじおにしゅつえんし、べいこくのこくじょーをせつめいするなどした。	NO_LABEL
1944年9月、 翼賛政治会の総務となる。	せんきゅうひゃくよんじゅうよねんくがつ、よくさんせいじかいのそーむとなる。	NO_LABEL
同年12月、九段の憲兵隊司令部で取り調べを受ける。	どーねんじゅーにがつ、くだんのけんぺいたいしれいぶでとりしらべをうける。	NO_LABEL
同月、小磯内閣で政府が設立した朝鮮及台湾在住同胞政治処遇調査会の衆議院代表委員。	どーげつ、こいそないかくでせいふがせつりつしたちょーせんいたるたいわんざいじゅーどーほーせいじしょぐーちょーさかいのしゅーぎいんだいひょーいいん。	NO_LABEL
1945年5月、熱海へ疎開。	せんきゅうひゃくよんじゅうごねんごがつ、あたみえそかい。	NO_LABEL
1945年9月に大日本政治会は解散し、同会の旧民政党系と旧政友会中島派の議員が合流して同年11月に日本進歩党を結成。	せんきゅうひゃくよんじゅうごねんくがつにだいにほんせいじかいわかいさんし、どーかいのきゅーみんせいとーけいときゅーせいゆーかいなかじまはのぎいんがごーりゅーしてどーねんじゅーいちがつににほんしんぽとーをけっせい。	NO_LABEL
鶴見は同党の幹事長に就任したが、1946年1月に大日本政治会で総務を務めていたことから公職追放となる。	つるみわどーとーのかんじちょーにしゅーにんしたが、せんきゅうひゃくよんじゅうろくねいちがつにだいにほんせいじかいでそーむをつとめていたことからこーしょくついほーとなる。	NO_LABEL
この頃、敗戦により休眠状態となった太平洋協会の出版部を、俊輔・和子らが参加した雑誌「思想の科学」の出版のために提供。	NO_PRONOUNCE	NO_LABEL
1947年9月、熱海から世田谷区成城に移る。	せんきゅうひゃくよんじゅうななねくがつ、あたみからせたがやくせいじょーにうつる。	NO_LABEL
1950年10月に公職追放解除となり、旧政友と「水曜会」結成。	NO_PRONOUNCE	NO_LABEL
同年11月に太平洋文化協会設立、翌1951年1月に幣原喜重郎ら36人と発起人に加わり国土防衛民主主義聯盟結成、同年9月に旧民政党系の旧友会により結成された新政クラブに参画。	どーねんじゅーいちがつにたいへいよーぶんかきょーかいせつりつ、よくせんきゅうひゃくごじゅういちねんいちがつにしではらきじゅうろーらさんじゅうろくにんとほっきじんにくわわりこくどぼーえいみんしゅしゅぎれんめいけっせい、どーねんくがつにきゅーみんせいとーけいのきゅーゆーかいによりけっせいされたしんせいくらぶにさんかく。	NO_LABEL
1952年2月、新政クラブほか4政治団体の有志による改進党結成にあたり、同党顧問に就任。	NO_PRONOUNCE	NO_LABEL
同年10月の衆院選に岩手県第2区から出馬するも、落選。	どーねんじゅーがつのしゅーいんせんにいわてけんだいにくからしゅつばするも、らくせん。	NO_LABEL
1953年2月、改進党の常任顧問に就任、同年4月の第3回参議院議員通常選挙に全国区から立候補して当選。	せんきゅうひゃくごじゅうさんねんにがつ、かいしんとーのじょーにんこもんにしゅーにん、どーねんしがつのだいさんかいさんぎーんぎーんつーじょーせんきょにぜんこくくからりっこーほしてとーせん。	NO_LABEL
同年7月、太平洋文化協会を太平洋協会に改称、会長に就任。	どーねんしちがつ、たいへいよーぶんかきょーかいをたいへいよーきょーかいにかいしょー、かいちょーにしゅーにん。	NO_LABEL
同年10月、改進党の「自衛軍基本法要綱案」起草委員。	NO_PRONOUNCE	NO_LABEL
1954年、参議院で各派共同提案により自衛隊の海外派兵禁止決議案を提出、原案通り可決成立。	せんきゅうひゃくごじゅうよねん、さんぎいんでかくはきょーどーていあんによりじえいたいのかいがいはへいきんしけつぎあんをていしゅつ、げんあんどーりかけつせいりつ。	NO_LABEL
1954年11月、改進党の解党後、日本民主党結党に参加し、同党顧問に就任。	せんきゅうひゃくごじゅうよねんじゅーいちがつ、かいしんとーのかいとーご、にほんみんしゅとーけっとーにさんかし、どーとーこもんにしゅーにん。	NO_LABEL
同年12月に発足した 第1次鳩山一郎内閣で厚生大臣に就任した。	どーねんじゅーにがつにほっそくしただいいちじはとやまいちろーないかくでこーせいだいじんにしゅーにんした。	NO_LABEL
1955年11月に保守合同で自由民主党が結党されると、同党顧問に就任。	せんきゅうひゃくごじゅうごねんじゅーいちがつにほしゅごうどーでじゆーみんしゅとーがけっとーされると、どーとーこもんにしゅーにん。	NO_LABEL
1956年9月頃、参議院本会議で各派共同提案の「国際連合加入決議案」の代表として趣旨説明、起立多数で原案通り可決。	NO_PRONOUNCE	NO_LABEL
同年12月、参議院自民党から国連派遣政府代表顧問に推薦されるが、政局を理由に受諾せず。	どーねんじゅーにがつ、さんぎいんじみんとーからこくれんはけんせいふだいひょーこもんにすいせんされるが、せいきょくをりゆーにじゅだくせず。	NO_LABEL
1957年2月、自民党総務。	せんきゅうひゃくごじゅうしちねんにがつ、じみんとーそーむ。	NO_LABEL
1958年3月、自民党相談役。	せんきゅうひゃくごじゅうはちねんさんがつ、じみんとーそーだんやく。	NO_LABEL
1959年6月、自民党非公認のまま参院選岩手地方区から立候補するも、落選。	せんきゅうひゃくごじゅうきゅうねんろくがつ、じみんとーひこーにんのままさんいんせんいわてちほーくからりっこーほするも、らくせん。	NO_LABEL
同年11月、脳軟化症のため倒れ、1年間東大病院に入院。	どーねんじゅーいちがつ、のーなんかしょーのためたおれ、いちねんかんとーだいびょーいんににゅーいん。	NO_LABEL
鶴見が倒れた後、政治活動のために多額の借金をしていたことが分かり、娘・和子は借金返済のため成城の邸宅と軽井沢の別荘を売却し、1960年9月に練馬区関町に購入した住宅に転居。	NO_PRONOUNCE	NO_LABEL
退院後は、関町の自宅で療養生活を送る。	たいーんごわ、せきまちのじたくでりょーよーせいかつをおくる。	NO_LABEL
1973年10月末に容態が悪化し、11月1日、関町の自宅で死去、享年88歳。	せんきゅうひゃくななじゅうさんねんじゅーがつまつによーだいがあっかし、じゅーいちがつついたち、せきまちのじたくでしきょ、きょーねんはちじゅうはっさい。	NO_LABEL
同月6日に普連土学園講堂で告別礼拝式が行われ、遺骨は多磨霊園の墓地に納められた。	どーげつむいかにひろしれんどがくえんこーどーでこくべつれいはいしきがおこなわれ、いこつわたまれいえんのぼちにおさめられた。	NO_LABEL
旅行記・随筆・論文・小説・伝記など日本語の著書42種、英語の著書3種があり、著書のうち代表的なものとして1928年に出版した『英雄待望論』が50万部、1929年に出版した小説『母』が24万部発行されているが、は後世に残るものとして『後藤新平』と訳書『プルターク英雄伝』を挙げている。	NO_PRONOUNCE	NO_LABEL
鶴見は各国の有名人にインタビューを行い、会見記を出版している。	つるみわかっこくのゆーめいじんにいんたびゅーをおこない、かいけんきをしゅっぱんしている。	NO_LABEL
会見した人物には、ウィルソン大統領、フランクリン・ルーズベルト大統領、マッカーサー元帥、H.G.ウエルズ、バーナード・ショウ、ジークムント・フロイト、ゲッベルス、孫文、蒋介石、胡適らがいる。	NO_PRONOUNCE	NO_LABEL
特にウィルソン大統領を崇拝し、厖大な資料を収集していたが、伝記は書かずにこの世を去った。	とくにうぃるそんだいとうりょーをすーはいし、ぼーだいなしりょーをしゅーしゅーしていたが、でんきわかかずにこのよをさった。	NO_LABEL
また特に博士と親交があった。	またとくにはかせとしんこーがあった。	NO_LABEL
