三井アウトレットパーク 台湾林口は、台湾新北市林口区にある、三井アウトレットパーク系列のアウトレットモールである。	みついあうとれっとぱーくたいわんはやしぐちわ、たいわんしんぼくしりんこうくにある、みついあうとれっとぱーくけいれつのあうとれっともーるである。	NO_LABEL
台湾北部最大のアウトレットで、220店舗を有する。	NO_PRONOUNCE	NO_LABEL
三井不動産のアウトレットモールとしては国外で3例目。	NO_PRONOUNCE	NO_LABEL
