トレッシャーは、紋章学における、シールド又はフィールドの外周から少し離れた場所をフィールドの形に沿って取り囲むチャージである。	とれっしゃーわ、もんしょーがくにおける、しーるどまたわふぃーるどのがいしゅーからすこしはなれたばしょをふぃーるどのかたちにそってとりかこむちゃーじである。	NO_LABEL
1つのトレッシャーの内側に更にもう1つトレッシャーを置く二重が通例であり、フローリーを施されていることがほとんどであるが、これらはトレッシャーを使う上で不可分というわけではない。	ひとつのとれっしゃーのうちがわにさらにもーひとつとれっしゃーをおくふたえがつーれいであり、ふろーりーをほどこされていることがほとんどであるが、これらわとれっしゃーをつかううえでふかぶんとゆうわけでわない。	NO_LABEL
スコットランドの紋章学では国章にも用いられているため重要なチャージであり、オーディナリーのうちサブオーディナリーと考えられることが多いが、それ以外の国や地域ではオーディナリーには含めないことも多く、明確にその位置を定めるのは困難である。	すこっとらんどのもんしょーがくでわこくしょーにももちいられているためじゅーよーなちゃーじであり、おーでぃなりーのうちさぶおーでぃなりーとかんがえられることがおーいが、それいがいのくにやちいきでわおーでぃなりーにわふくめないこともおーく、めいかくにそのいちをさだめるのわこんなんである。	NO_LABEL
トレッシャーは通例二重にして用いられるが、左右一組で用いられるフローンチのように複数形で示すだけで数は自明とはされず、二重のトレッシャーは常に "a double tressure" と記述され、複数形にもしないという特徴がある。	NO_PRONOUNCE	NO_LABEL
著者やその文献が書かれた時代によって大きく見解が異なるチャージであり、オールのディミニュティブと定義されていたり、オールをボーデュアのとディミニュティブととらえ、トレッシャーもまたボーデュアのディミニュティブだと定義されていたりする一方で、ディミニュティブとみなされることもあるとの説明にとどめられていることもあり、ディミニュティブとしての定義が必ずしも定説でないことがうかがえる。	ちょしゃやそのぶんけんがかかれたじだいによっておーきくけんかいがことなるちゃーじであり、おーるのでぃみにゅてぃぶとていぎされていたり、おーるをぼーでゅあのとでぃみにゅてぃぶととらえ、とれっしゃーもまたぼーでゅあのでぃみにゅてぃぶだとていぎされていたりするいっぽーで、でぃみにゅてぃぶとみなされることもあるとのせつめいにとどめられていることもあり、でぃみにゅてぃぶとしてのていぎがかならずしもていせつでないことがうかがえる。	NO_LABEL
単にオールよりも細いチャージと定義してディミニュティブとしての定義が言及されていないこともある。	たんにおーるよりもほそいちゃーじとていぎしてでぃみにゅてぃぶとしてのていぎがげんきゅーされていないこともある。	NO_LABEL
より具体的に、オールよりも細く、外周に近いものと定義されていることもある。	よりぐたいてきに、おーるよりもほそく、がいしゅーにちかいものとていぎされていることもある。	NO_LABEL
これは、オールはインエスカッシャンの中央部を除去したものであり、 "inescutcheon voided" 又は "false inescutcheon" と記述でき、インエスカッシャンを背景が見えなくなるほど大きく描くことは稀であることから、必然的にオールはフィールドの外周から離れるということを根拠としている。	NO_PRONOUNCE	NO_LABEL
また、二重であることが必須とされることもあるが、二重であることが普通であるが必ずしも不可分ではないとされることもある。	また、ふたえであることがひっすとされることもあるが、ふたえであることがふつーであるがかならずしもふかぶんでわないとされることもある。	NO_LABEL
少なくとも現代の紋章学では、二重でないトレッシャーを描いた紋章も実在するため、二重を必須とする定義は正しくないか、廃れた定義と言える。	すくなくともげんだいのもんしょーがくでわ、ふたえでないとれっしゃーをえがいたもんしょーもじつざいするため、ふたえをひっすとするていぎわただしくないか、すたれたていぎといえる。	NO_LABEL
トレッシャーには主に上下左右とその中間の四隅の8方向、又は左下隅、右下隅を除く6方向に向けて小さな装飾を施すことがあり、各位置に外側と内側に向けたフラ・ダ・リを互い違いに配置する「フローリー・カウンター・フローリー」がもっとも頻繁に用いられる。	NO_PRONOUNCE	NO_LABEL
綴りには多少揺らぎがあり、"tressure-flory counter-flory", "flory counterflory" などハイフンを入れる箇所が異なることもあるが、意味はすべて同じである。	NO_PRONOUNCE	NO_LABEL
"tressure flory" とだけ記述した場合でもフローリー・カウンター・フローリーと考えられるのが一般的であるが、特に "tressure flory inward" と記述して内側に向いているフラ・ダ・リだけを描くこともできる。	NO_PRONOUNCE	NO_LABEL
フローリー・カウンター・フローリーでフラ・ダ・リを置く位置は既述のとおり8箇所又は6箇所がもっとも多いが、フローリー・カウンター・フローリーと認識できればさらに数が多くても構わない。	NO_PRONOUNCE	NO_LABEL
中には、8箇所のフラ・ダ・リの間にさらにもう1つずつフラ・ダ・リを加え、16箇所としているものもある。	NO_PRONOUNCE	NO_LABEL
この場合でも紋章記述は同じである。	このばあいでももんしょーきじゅつわおなじである。	NO_LABEL
また、貴族・騎士のサーコートやその騎馬のバーディングの上に着せるコート、女性の服飾などは面積が大きいため、適宜フラ・ダ・リの数が増やされて描かれることがある。	NO_PRONOUNCE	NO_LABEL
フローリーは二重になっているトレッシャーはもとより、二重でないトレッシャーにも施すことができる。	ふろーりーわふたえになっているとれっしゃーわもとより、ふたえでないとれっしゃーにもほどこすことができる。	NO_LABEL
かつてはトレッシャーの装飾と言えばフラ・ダ・リと考えられていたが、現代の紋章学ではそれには拘束されなくなっている。	NO_PRONOUNCE	NO_LABEL
カナダ国籍を有する紋章保持者のうち、スコットランドと深い関わりのある者の紋章にはダブル・トレッシャーにカナダの国旗にもなっている国を代表する木であるサトウカエデの葉がフラ・ダ・リの代わりに用いられているものがある。	NO_PRONOUNCE	NO_LABEL
その紋章記述は次のとおり。	そのもんしょーきじゅつわつぎのとーり。	NO_LABEL
フローリーなどの装飾がないトレッシャーが稀であることから、それらの修飾を含めてトレッシャーだと誤解されがちであるが、修飾がなくてもトレッシャーを用いることは可能である。	ふろーりーなどのそーしょくがないとれっしゃーがまれであることから、それらのしゅーしょくをふくめてとれっしゃーだとごかいされがちであるが、しゅーしょくがなくてもとれっしゃーをもちいることわかのーである。	NO_LABEL
トレッシャーを用いた紋章でもっとも有名なものは、スコットランドの国章である。	とれっしゃーをもちいたもんしょーでもっともゆーめいなものわ、すこっとらんどのこくしょーである。	NO_LABEL
ダブル・トレッシャーにフローリー・カウンター・フローリーを施したギュールズのトレッシャーは、スコットランド王家のロイヤル・チャージとなっている。	NO_PRONOUNCE	NO_LABEL
これは、スコットランド王家の女性の直系の家や、国や君主に対して類稀なる功績のあった人物だけが使うことを許される。	これわ、すこっとらんどおーかのじょせいのちょっけいのいえや、くにやくんしゅにたいしてるいまれなるこーせきのあったじんぶつだけがつかうことをゆるされる。	NO_LABEL
また、婚姻によってスコットランドと同盟を結んだ家も使うことができた。	また、こんいんによってすこっとらんどとどーめいをむすんだいえもつかうことができた。	NO_LABEL
