ポテ 75は、1950年代のフランスの軽地上攻撃機である。	NO_PRONOUNCE	NO_LABEL
ポテ 75は、元々1919年にアンリ・ポテにより設立され、再編されたポテ社が開発した。	NO_PRONOUNCE	NO_LABEL
この機体は有線誘導対戦車ミサイルのノール SS.10の発射プラットフォーム用の要求仕様に合致するように設計された推進式のプロペラを装備する全金属製の機体であり、水平尾翼と2枚の垂直尾翼は後部胴体下部から延びるブームにより支持され、首車輪式の固定降着装置を持っていた。	NO_PRONOUNCE	NO_LABEL
ミサイル操作員は機首に座り、その背後の高い位置に操縦席があった。	みさいるそーさいんわきしゅにすわり、そのはいごのたかいいちにそーじゅーせきがあった。	NO_LABEL
当初ミサイル操作員席は風防で覆われ操縦席は開放式であったが、後に操縦席には風防が取り付けられミサイル操作員席は全面ガラス張りとされ視界が改善された。	とーしょみさいるそーさいんせきわふーぼーでおおわれそーじゅーせきわかいほーしきであったが、のちにそーじゅーせきにわふーぼーがとりつけられみさいるそーさいんせきわぜんめんがらすばりとされしかいがかいぜんされた。	NO_LABEL
ポテ 75は実験用の登録記号「F-ZWSA」を着けて1953年6月10日に初飛行を行ったが、後にこの登録記号は「F-WGVK」となり最終的には軍の「F-MAFY」に変更された。	NO_PRONOUNCE	NO_LABEL
武装は機首下部に4丁の7.5 mm 機関銃を備え、主翼下面に8発のロケット弾を懸架することができた。	NO_PRONOUNCE	NO_LABEL
本機はフランス軍によりテストされ、ミサイル用プラットフォームとしては不満足であることが分かったため軽攻撃機仕様に改装されてアルジェリア戦争でテストされた。	ほんきわふらんすぐんによりてすとされ、みさいるよーぷらっとふぉーむとしてわふまんぞくであることがわかったためけいこーげききしよーにかいそーされてあるじぇりあせんそーでてすとされた。	NO_LABEL
この任務でその有用性を発揮し、1956年に15機の前量産型と100機の量産型が発注された。	NO_PRONOUNCE	NO_LABEL
軍事費削減のあおりを受けてこの発注は翌年にキャンセルされた。	ぐんじひさくげんのあおりをうけてこのはっちゅーわよくねんにきゃんせるされた。	NO_LABEL
ポテ 75は1957年5月のパリ航空ショーで展示され、後に連絡機として使用されたが1958年9月16日に不時着事故を起こし廃棄処分にされた。	NO_PRONOUNCE	NO_LABEL
Green, 1956, p.156	NO_PRONOUNCE	NO_LABEL
