「四季の歌」は、作詞家・荒木とよひさが1963年頃から1964年にかけて作詞作曲した楽曲である。	NO_PRONOUNCE	NO_LABEL
人から人へ、口伝えによって広まり、日本で国民的人気の楽曲となった荒木の作詞家デビュー作。	ひとからひとえ、くちずたえによってひろまり、にっぽんでこくみんてきにんきのがっきょくとなったあらきのさくしかでびゅーさく。	NO_LABEL
日本の歌百選の1曲。	にほんのうたひゃくせんのいちきょく。	NO_LABEL
自然現象などを直喩として用い、友人・親・恋人といった身近な人を隠喩として用いながら、四季それぞれを愛する人の性格を表現する。	NO_PRONOUNCE	NO_LABEL
キャッチーでシンプルなメロディと老若男女問わず歌える歌詞で、1970年代半ばに日本で大ヒットした。	きゃっちーでしんぷるなめろでぃとろーにゃくなんにょとわずうたえるかしで、せんきゅうひゃくななじゅうねんだいなかばににっぽんでだいひっとした。	NO_LABEL
元々は、作者である荒木が日本大学スキー部時代に新潟・妙高で骨折して入院中、妙高高原の関温泉から眺める山々の情景をモチーフに作り、入院先で看護師にプレゼントした曲である。	もともとわ、さくしゃであるあらきがにほんだいがくすきーぶじだいににーがたみょうこーでこっせつしてにゅーいんちゅー、みょーこーこーげんのせきおんせんからながめるやまやまのじょーけいをもちーふにつくり、にゅーいんさきでかんごしにぷれぜんとしたきょくである。	NO_LABEL
この歌は5番まであり歌詞も付いているが、5番は「ラララ」で代替することが多い。	NO_PRONOUNCE	NO_LABEL
この曲は合唱曲としても使われる。	このきょくわがっしょーきょくとしてもつかわれる。	NO_LABEL
「四季の歌」は中国などのアジア地域でもヒットした。	NO_PRONOUNCE	NO_LABEL
荒木とよひさは19歳時のスキー事故で入院生活を送り、それが「死ぬほど退屈だった」ことから、世話になった看護師たちのために自作の歌を歌った。	NO_PRONOUNCE	NO_LABEL
スキー合宿のオフの最中、荒木はモーグルの開脚ジャンプで転倒して、右大腿骨を複雑骨折した。	すきーがっしゅくのおふのさいちゅー、あらきわもーぐるのかいきゃくじゃんぷでてんとーして、みぎだいたいこつをふくざつこっせつした。	NO_LABEL
新潟・高田の病院に入院し、東京都下の病院への転院を合わせると約3年かかった。	NO_PRONOUNCE	NO_LABEL
荒木は手術で細菌が入ったことにより骨髄炎を発症し、骨髄移植を繰り返すが完治せず、その後何十年も2か月に1度の検査を続けている。	あらきわしゅじゅつでさいきんがはいったことによりこつずいえんをはっしょーし、こつずいいしょくをくりかえすがかんなおせず、そのごなんじゅーねんもにかげつにいちどのけんさをつずけている。	NO_LABEL
1963年頃から、病院を転々とする中で1年かけて春夏秋冬を完成させた。	せんきゅうひゃくろくじゅうさんねんごろから、びょーいんをてんてんとするなかでいちねんかけてしゅんかしゅーとーをかんせいさせた。	NO_LABEL
荒木が入院したのは春めき始める2月であった。	あらきがにゅーいんしたのわはるめきはじめるにがつであった。	NO_LABEL
荒木は大学スキー部の練習後、チームメイトたちとよくストーブを囲んで山の歌を歌った。	あらきわだいがくすきーぶのれんしゅーご、ちーむめいとたちとよくすとーぶをかこんでやまのうたをうたった。	NO_LABEL
そういう歌が作れないか病院のベッドの上で思いを巡らせ、1コーラスの詩を書いた。	NO_PRONOUNCE	NO_LABEL
後になって白い紙に五線を書き、メロディを作った。	ごになってはくいしにごせんをかき、めろでぃをつくった。	NO_LABEL
最初に出来た「四季の歌」の春の部分は新潟で入院中に看護師にプレゼントした。	NO_PRONOUNCE	NO_LABEL
東京の病院で夏・秋・冬が出来上がり、看護師・看護学生たちに「こんな歌をつくったんだけどどう?」と歌って聴かせ、これが口伝えで広まった。	NO_PRONOUNCE	NO_LABEL
1964年、荒木は21歳になっていた。	せんきゅうひゃくろくじゅうよねん、あらきわにじゅういっさいになっていた。	NO_LABEL
荒木本人の証言によると、看護師たちも荒木と一緒に歌った。	あらきほんにんのしょーげんによると、かんごしたちもあらきといっしょにうたった。	NO_LABEL
これが病院内に知れわたり評判になった。	これがびょーいんないにしれわたりひょーばんになった。	NO_LABEL
この歌はボランティア活動の看護師仲間に広まった。	このうたわぼらんてぃあかつどーのかんごしなかまにひろまった。	NO_LABEL
看護師たちは地域ボランティアのイベント等で歌い始めた。	かんごしたちわちいきぼらんてぃあのいべんととーでうたいはじめた。	NO_LABEL
こうして徐々に広まった「四季の歌」は、1972年にレコード化されることになった。	NO_PRONOUNCE	NO_LABEL
2社のレコード会社ディレクターが偶然に同時期にこの歌を聴き、1社はいぬいゆみ、もう1社は片山知子を歌手に起用した。	NO_PRONOUNCE	NO_LABEL
これに続いてダークダックスによる「四季の歌」がリリースされた。	NO_PRONOUNCE	NO_LABEL
この曲が広まった当時は、作詞・作曲者は不詳とされていた。	NO_PRONOUNCE	NO_LABEL
レコード化の際に、友人の勧めで荒木が名乗り出た。	れこーどかのさいに、ゆーじんのすすめであらきがなのりでた。	NO_LABEL
これが荒木の作詞家としてのデビューである。	これがあらきのさくしかとしてのでびゅーである。	NO_LABEL
1972年いぬいゆみ盤、片山知子盤ともに荒木の名前がクレジットされた。	せんきゅうひゃくななじゅうにねんいぬいゆみばん、かたやまともこばんともにあらきのなまえがくれじっとされた。	NO_LABEL
この曲は歌詞で「僕の友達」がスミレの花に、「僕の恋人」が詩人のハイネに例えられ、「僕」という男性の一人称で歌われる。	NO_PRONOUNCE	NO_LABEL
これは、元の歌詞では「恋人」が「スミレ」、「友達」が「ハイネ」だったものが、曲が広まっていく過程で入れ替わってしまったのであるという。	NO_PRONOUNCE	NO_LABEL
しかし、みんなに歌い継がれてきたということを大切にしたかったので入れ替えのままレコーディングされることになった。	しかし、みんなにうたいつがれてきたとゆうことをたいせつにしたかったのでいれかえのままれこーでぃんぐされることになった。	NO_LABEL
あえて入れ替えのままにした荒木は後に、「この歌は女性の間で広まったから、今のように変わって行ったのでしょう」と語っている。	NO_PRONOUNCE	NO_LABEL
「ローレライ」の詩がよく知られるハイネは、日本で一面として恋愛の詩人と認識されている。	NO_PRONOUNCE	NO_LABEL
「四季の歌」が大反響を呼ぶのは1976年のことである。	NO_PRONOUNCE	NO_LABEL
6月、ニッポン放送のラジオ番組『あおぞらワイド』に横浜の主婦から「四季の歌」のリクエストが電話で寄せられた。	NO_PRONOUNCE	NO_LABEL
番組司会者の立川清登はこの歌を知らなかったので、どんな歌か尋ねると、主婦は「四季の歌」を電話の向こうから歌って聴かせた。	NO_PRONOUNCE	NO_LABEL
立川は感動した。	たちかわわかんどーした。	NO_LABEL
立川は番組内で絶賛した。	たちかわわばんぐみないでぜっさんした。	NO_LABEL
ラジオのリスナーからの反響も大きく、レコード会社6社が競作として相次いでレコード化した。	NO_PRONOUNCE	NO_LABEL
立川清登の他、菅原やすのりなどの叙情歌手ら10人余りがこの歌を自身の持ち歌とした。	たちかわすみとのほか、すがわらやすのりなどのじょじょーかしゅらじゅうにんあまりがこのうたをじしんのもちうたとした。	NO_LABEL
菅原はデビュー前の1968年から1969年頃、ストリートミュージシャンとして日比谷でこの歌を歌っていた。	すがわらわでびゅーまえのせんきゅうひゃくろくじゅうはちねんからせんきゅうひゃくろくじゅうきゅうねんごろ、すとりーとみゅーじしゃんとしてひびやでこのうたをうたっていた。	NO_LABEL
『あおぞらワイド』は菅原が歌い手であることを突き止め、菅原は番組に生出演して歌うことになった。	NO_PRONOUNCE	NO_LABEL
また、このうちの1人芹洋子は5年ほど前に「四季の歌」を知り、この歌を「私のテーマソングです」と紹介してずっと歌っていた。	NO_PRONOUNCE	NO_LABEL
歌唱指導型のコンサートのときに芹に譜面を渡し、この歌を教えた観客は看護師であった。	かしょーしどーがたのこんさーとのときにせりにふめんをわたし、このうたをおしえたかんきゃくわかんごしであった。	NO_LABEL
1976年の各社競作レコードによるセールスで顕著なのはキングレコードの芹洋子盤だった。	せんきゅうひゃくななじゅうろくねんのかくしゃきょーさくれこーどによるせーるすでけんちょなのわきんぐれこーどのせりよーこばんだった。	NO_LABEL
抒情歌のアルバムからシングルカットされた芹盤はオリコンで最高位8位、累計売上はミリオンセラーを記録した。	じょじょーかのあるばむからしんぐるかっとされたせりばんわおりこんでさいこーいはちー、るいけいうりあげわみりおんせらーをきろくした。	NO_LABEL
詩人のハイネが出てくるところもオシャレで支持が得られた。	しじんのはいねがでてくるところもおしゃれでしじがえられた。	NO_LABEL
レコーディングの時になって初めて芹はこれが知人でもあった荒木の歌であると分かった。	れこーでぃんぐのときになってはじめてせりわこれがちじんでもあったあらきのうたであるとわかった。	NO_LABEL
1981年、日中文化交流音楽大使を務める芹洋子は初の国賓女性歌手として北京公演で「四季の歌」を歌い、中国で大ヒット。	NO_PRONOUNCE	NO_LABEL
中国語の「四季の歌」が歌われるようになった。	NO_PRONOUNCE	NO_LABEL
中国におけるヒットには、NHKが中国向け国際放送で「四季の歌」を流し、学生が中心となって熱心にリクエストをしたことが寄与している。	NO_PRONOUNCE	NO_LABEL
そこへ中国政府が動いた。	そこえちゅーごくせいふがうごいた。	NO_LABEL
芹洋子によると、「北京大学の学生さん達の運動がきっかけで北京コンサートが実現しました」ということである。	NO_PRONOUNCE	NO_LABEL
革命の詩人としても知られるハイネは、革命家マルクスと親交があった。	かくめいのしじんとしてもしられるはいねわ、かくめいかまるくすとしんこーがあった。	NO_LABEL
マルクスの理念は毛沢東思想に導入され、1949年、指導者毛沢東たちによって中華人民共和国が誕生した。	まるくすのりねんわもーたくとーしそーにどーにゅーされ、せんきゅうひゃくよんじゅうきゅうねん、しどーしゃもーたくとーたちによってちゅーかじんみんきょーわこくがたんじょーした。	NO_LABEL
「中国近代文学の父」魯迅は、中国にハイネを紹介した初期の人物である。	NO_PRONOUNCE	NO_LABEL
魯迅の弟・周作人によると、魯迅はハイネに傾倒していた。	NO_PRONOUNCE	NO_LABEL
魯迅は、指導者毛沢東の『新民主主義論』において英雄として讃えられ、「魯迅の方向こそが、中華民族新文化の方向である」とまで言われた。	NO_PRONOUNCE	NO_LABEL
毛沢東と同時代の政治家郭沫若は、ハイネの翻訳家である。	もーたくとーとどーじだいのせいじかかくまつじゃくわ、はいねのほんやくかである。	NO_LABEL
1984年、中国の指導者胡耀邦は青年交歓活動として日本人青年3000人を中国に招待した。	せんきゅうひゃくはちじゅうよねん、ちゅーごくのしどーしゃこよーほーわせいねんこーかんかつどーとしてにっぽんじんせいねんさんぜんにんをちゅーごくにしょーたいした。	NO_LABEL
後に中国共産党中央委員会総書記習近平夫人となる歌手の彭麗媛は、その歓迎パーティーに参加して「四季の歌」を芹洋子と歌った。	NO_PRONOUNCE	NO_LABEL
2人は日本語で歌った。	ふたりわにほんごでうたった。	NO_LABEL
この時の芹洋子は「日本の音楽の使者」として招待されている。	NO_PRONOUNCE	NO_LABEL
このパーティーには、習近平の父親・習仲勲が参加していた。	NO_PRONOUNCE	NO_LABEL
また、当時中華全国青年連合会主席であった胡錦濤は、指導者胡耀邦からのプレゼントとして用意された中国式の赤い上着を芹洋子の娘に直接渡した。	また、とーじちゅーかぜんこくせいねんれんごーかいしゅせきであったこきんとーわ、しどーしゃこよーほーからのぷれぜんととしてよーいされたちゅーごくしきのあかいうわぎをせりよーこのむすめにちょくせつわたした。	NO_LABEL
このプレゼントのために胡錦濤連合会主席が芹親子の宿泊先で1時間待っていたことが芹洋子を感激させた。	このぷれぜんとのためにこきんとーれんごーかいしゅせきがせりちかこのしゅくはくさきでいちじかんまっていたことがせりよーこをかんげきさせた。	NO_LABEL
胡錦濤主席は「四季の歌」をとても気に入り、芹洋子の中国コンサートに毎回のように来ている。	NO_PRONOUNCE	NO_LABEL
習近平総書記は2015年に日本からの観光交流訪中団3000人を招待した。	しゅうきんぺいそーしょきわにせんじゅうごねんににっぽんからのかんこーこーりゅーほーちゅーだんさんぜんにんをしょーたいした。	NO_LABEL
汕頭大学教授加藤隆則によると、その原型は1984年の胡耀邦総書記による日本人青年3000人の招待である。	せんとーだいがくきょーじゅかとーたかのりによると、そのげんけいわせんきゅうひゃくはちじゅうよねんのこよーほーそーしょきによるにっぽんじんせいねんさんぜんにんのしょーたいである。	NO_LABEL
彭麗媛と芹洋子の2人はその後も機会があるごとに「四季の歌」で競演している。	NO_PRONOUNCE	NO_LABEL
日本で競演することもあり、2009年11月に日本各地で開催され日本の皇族も観賞した彭麗媛団長率いる歌舞団のミュージカル「木蘭詩篇」公演では、カーテンコールに「四季の歌」日本語版を彭麗媛と芹洋子で歌った。	NO_PRONOUNCE	NO_LABEL
彭麗媛は訪日の度に芹洋子を訪問しているという。	ほうれいえんわほーにちのたびにせりよーこをほーもんしているという。	NO_LABEL
1989年、『NHK日本の歌ふるさとの歌』の「明日に残す歌100曲」に「四季の歌」が選出された。	NO_PRONOUNCE	NO_LABEL
1994年、NHKの第1回『家族で選ぶにっぽんの歌』に芹洋子が出演して「四季の歌」を歌った。	NO_PRONOUNCE	NO_LABEL
この回にテレサ・テンも出演し、荒木とよひさ作詞・三木たかし作曲の「別れの予感」を歌った。	NO_PRONOUNCE	NO_LABEL
1999年、日本の郵政省は「わたしの愛唱歌シリーズ第8集郵便切手」として「四季の歌」を題材曲目にした80円切手を発売。	NO_PRONOUNCE	NO_LABEL
イラストレーターの永田萠により四季の妖精たちが踊る様子が描かれ、「四季の歌」の譜面が春の前半4小節分掲載された。	NO_PRONOUNCE	NO_LABEL
同シリーズの50円切手は「川の流れのように」であった。	NO_PRONOUNCE	NO_LABEL
2007年、日本の文化庁と日本PTA全国協議会により「四季の歌」が「日本の歌百選」の1曲に選出されたことが発表された。	NO_PRONOUNCE	NO_LABEL
2008年、日本音楽事業者協会主催「歌よ響け! 緑豊かな未来へ 虹の架け橋まごころ募金コンサート」に出演した演歌歌手の中から、藤あや子が春、伍代夏子が夏、田川寿美が秋、坂本冬美が冬を担当して「四季の歌」を歌った。	NO_PRONOUNCE	NO_LABEL
2010年6月18日、中国遼寧省大連市の大連大学において、第二次世界大戦終結65年と1972年日中国交正常化38周年を記念し、菅原やすのりと荒木とよひさによる「四季の歌ふるさとコンサート」が開催された。	NO_PRONOUNCE	NO_LABEL
兄が遼寧省大連市で生まれ、自身は遼寧省瀋陽市生まれの菅原が、大連生まれの荒木をゲストに誘いこのコンサートは実現した。	あにがりょーねいしょーだいれんでうまれ、じしんわりょーねいしょーしんよーしうまれのすがわらが、たいれんうまれのあらきをげすとにさそいこのこんさーとわじつげんした。	NO_LABEL
菅原は「四季の歌」を中心とする約10曲を大連大学の学生およそ1000人の前で熱唱した。	NO_PRONOUNCE	NO_LABEL
荒木はこのコンサートで戦後初めて大連に来ることとなった。	あらきわこのこんさーとでせんごはじめてたいれんにくることとなった。	NO_LABEL
菅原が「大連は我が家のふるさとです」と言うと、学生たちは「ふるさとへようこそ」と歓迎した。	NO_PRONOUNCE	NO_LABEL
2012年、日本の造幣局は「四季の歌」をテーマにした第5回目の「心のふるさと貨幣セット」を販売した。	NO_PRONOUNCE	NO_LABEL
6種類の通常貨幣と「男の子・女の子と四季をイメージするイラスト」をデザインした丹銅製銘板が、「四季の歌」の譜面と歌詞が書かれたブック型ケースに収納され、このケースは「四季の歌」のメロディのオルゴール仕掛けになっている。	NO_PRONOUNCE	NO_LABEL
2014年10月9日、東京国際フォーラムにて、都はるみ、伍代夏子、八代亜紀、坂本冬美の4人の演歌歌手による初の競演コンサート「春夏秋冬コンサート」が開催され、コンサートの第1曲目に「四季の歌」を4人で歌った。	NO_PRONOUNCE	NO_LABEL
コンサートの名称は、はるみ、夏子、亜紀、冬美という四季のある4人の名前に因む。	こんさーとのめいしょーわ、はるみ、なつこ、あき、ふゆみとゆうしきのあるよにんのなまえにちなむ。	NO_LABEL
この1日限りのコンサートのために4人はユニット「春夏秋冬」を結成した。	NO_PRONOUNCE	NO_LABEL
「四季の歌」では自分の季節を他の3人が歌った。	NO_PRONOUNCE	NO_LABEL
荒木とよひさの両親は中国・大連で荒木が生まれた後、第二次世界大戦後、熊本に引き揚げてから離婚し、荒木は父親を知らずに育った。	NO_PRONOUNCE	NO_LABEL
荒木が祖母から聞いた話によると、普段の父親は大人しく礼儀正しいが、アルコールが入ると乱暴になり、刀を持ち出してみたり、喧嘩をしたり、女性を家に連れ込んだりという人だった。	あらきがそぼからきいたはなしによると、ふだんのちちおやわおとなしくれいぎただしいが、あるこーるがはいるとらんぼーになり、かたなをもちだしてみたり、けんかをしたり、じょせいをいえにつれこんだりとゆうひとだった。	NO_LABEL
幼かった荒木は父親の顔も知らない。	おさなかったあらきわちちおやのかおもしらない。	NO_LABEL
荒木の枕元にはトランクがあり、いつでも逃げられる準備がされていた。	あらきのまくらもとにわとらんくがあり、いつでもにげられるじゅんびがされていた。	NO_LABEL
両親の結婚は恋愛によるもので、夫婦は大連に渡って映画館やアパートを経営した。	りょーしんのけっこんわれんあいによるもので、ふーふわたいれんにわたってえいがかんやあぱーとをけいえいした。	NO_LABEL
父親はカネを女性や酒に浪費し、妻である光子には暴力を振るった。	ちちおやわかねをじょせいやさけにろーひし、つまであるこーしにわぼーりょくをふるった。	NO_LABEL
離婚後、母親は息子の荒木を熊本の祖母のところに残して上京した。	りこんご、ははおやわむすこのあらきをくまもとのそぼのところにのこしてじょーきょーした。	NO_LABEL
熊本から東京に出てきた母親は、銀座でクラブを経営した。	くまもとからとーきょーにでてきたははおやわ、ぎんざでくらぶをけいえいした。	NO_LABEL
母親は酒を嫌っていたが、酒が人生そのものだった。	ははおやわさけをきらっていたが、さけがじんせいそのものだった。	NO_LABEL
また、母親は酒をあまり飲めなかった。	また、ははおやわさけをあまりのめなかった。	NO_LABEL
荒木は熊本の大家族の中で小学生まで過ごした。	あらきわくまもとのだいかぞくのなかでしょーがくせいまですごした。	NO_LABEL
小学生の頃の1953年9月、荒木は東京の母親のもとで暮らし始めた。	しょーがくせいのころのせんきゅうひゃくごじゅうさんねんくがつ、あらきわとーきょーのははおやのもとでくらしはじめた。	NO_LABEL
荒木と祖母で上京し、母親、荒木、祖母の3人暮らしだった。	あらきとそぼでじょーきょーし、ははおや、あらき、そぼのさんにんくらしだった。	NO_LABEL
母親は仕事で忙しく、息子の荒木は冬が来ると新潟・関温泉にある知人のところに行かされて冬を越した。	NO_PRONOUNCE	NO_LABEL
その場所は新潟・関温泉のスキー宿「登美屋」である。	NO_PRONOUNCE	NO_LABEL
やがて荒木は宿の主人と女将を「とうちゃん、かあちゃん」と呼んだ。	NO_PRONOUNCE	NO_LABEL
荒木は高校生の頃、スキー部に所属し、合宿で関温泉スキー場に毎シーズン訪れた。	あらきわこーこーせいのころ、すきーぶにしょぞくし、がっしゅくでせきおんせんすきーじょーにまいしーずんおとずれた。	NO_LABEL
宿泊先は「登美屋」であった。	NO_PRONOUNCE	NO_LABEL
母親が4軒のクラブやバーを経営していた荒木には酒が身近であり、飲酒に寛容な時代ということもあり、高校のスキー合宿の打ち上げでは「登美屋」で仲間5人と一晩中飲んでいた。	NO_PRONOUNCE	NO_LABEL
日大芸術学部受験の2日前まで「登美屋」にいた荒木は、そこから受験に行った。	NO_PRONOUNCE	NO_LABEL
荒木にとって「登美屋」はふるさと同然であった。	NO_PRONOUNCE	NO_LABEL
「登美屋」には、いつしか「四季の歌」を4番の歌詞まで書いた荒木の直筆の色紙が飾られるようになった。	NO_PRONOUNCE	NO_LABEL
高校時代の荒木は、運動部に参加する一方で遊びグループとの付き合いがあり、悪仲間としょっちゅう学校をサボり街をブラついていた。	こーこーじだいのあらきわ、うんどーぶにさんかするいっぽーであそびぐるーぷとのつきあいがあり、あくなかまとしょっちゅーがっこーをさぼりがいをぶらついていた。	NO_LABEL
このチンピラ高校生集団は下北沢の喫茶店に集合し、パチンコ、映画、ビリヤードなどグループごとに思い思い行動し、渋谷のストリップ劇場に繰り出したりもした。	このちんぴらこーこーせいしゅーだんわしもきたざわのきっさてんにしゅーごーし、ぱちんこ、えいが、びりやーどなどぐるーぷごとにおもいおもいこーどーし、しぶやのすとりっぷげきじょーにくりだしたりもした。	NO_LABEL
荒木はビリヤードが得意で、玄人らしき大人やヤクザと賭けで対戦し、時には終電まで勝負を続けて大概は勝った。	あらきわびりやーどがとくいで、くろーとらしきおとなややくざとかけでたいせんし、ときにわしゅーでんまでしょーぶをつずけてたいがいわかった。	NO_LABEL
「どうしようもない高校生」だった荒木は、悪さ・喧嘩で停学になり、高校卒業まで何回か停学を繰り返し、留置所も経験した。	NO_PRONOUNCE	NO_LABEL
退学した仲間もいた。	たいがくしたなかまもいた。	NO_LABEL
大親友はハイミナールのクスリ遊びをしていた。	だいしんゆーわはいみなーるのくすりあそびをしていた。	NO_LABEL
しかし母親は荒木の行動を本人の自由に任せた。	しかしははおやわあらきのこーどーをほんにんのじゆーにまかせた。	NO_LABEL
昔、母親と祖母と自分の3人で1か月に1回くらい銀座へ行き、映画や芝居を観た後は不二家で食事、たまに中華料理屋であったが、高校生の頃は不二家には行かなくなり母親とはよく中華料理屋で2人で食事をしたものであった。	むかし、ははおやとそぼとじぶんのさんにんでいっかげつにいっかいくらいぎんざえいき、えいがやしばいをみたのちわふじやでしょくじ、たまにちゅーかりょーりやであったが、こーこーせいのころわふじやにわいかなくなりははおやとわよくちゅーかりょーりやでふたりでしょくじをしたものであった。	NO_LABEL
高校生の荒木は女の子とデートをする際には母親の言っていたことを試した。	こーこーせいのあらきわおんなのことでーとをするさいにわははおやのいっていたことをためした。	NO_LABEL
本気で好きな女の子とラーメンを食べて、そのような食事に付き合わせても笑顔でつゆまで綺麗に飲んだら良い娘という母親の話を試したのだが、女の子たちは誰一人つゆまで綺麗にはいかなかった。	ほんきですきなおんなのことらーめんをたべて、そのよーなしょくじにつきあわせてもえがおでつゆまできれいにのんだらよいむすめとゆうははおやのはなしをためしたのだが、おんなのこたちわだれひとりつゆまできれいにわいかなかった。	NO_LABEL
ある日、悪仲間たちと高校をサボって来ていた根津山の公園で、弁当を食べながらウイスキーの回し飲みをやってから一息入れると、悪仲間のリーダー格が芝生に寝転び佐藤春夫の「秋刀魚の歌」を朗読した。	NO_PRONOUNCE	NO_LABEL
誰かが「なんだよ、それ」と言った。	NO_PRONOUNCE	NO_LABEL
賢くもあり喧嘩も強いこのリーダー格は、「お前らには解んねぇ、男の詩だよ」と言ったが、荒木は淋しいような気持ちになり、胸に響く詩であった。	NO_PRONOUNCE	NO_LABEL
「秋刀魚の歌」は佐藤春夫の代表詩であり、叶わなかった結婚の悲哀なる歌である。	NO_PRONOUNCE	NO_LABEL
1921年に文芸雑誌にて発表された。	せんきゅうひゃくにじゅういちねんにぶんげいざっしにてはっぴょーされた。	NO_LABEL
佐藤が友人・谷崎潤一郎の妻・千代に恋をして結婚の約束をしたが反故になった時期にあたる。	NO_PRONOUNCE	NO_LABEL
谷崎は妻の妹・せい子を好いて、妻を捨てようとしていた。	NO_PRONOUNCE	NO_LABEL
佐藤は妻・香代子と離婚し、谷崎の妻・千代と再婚することになっていたが、千代との離婚を取りやめにした谷崎の都合で破談となった。	NO_PRONOUNCE	NO_LABEL
佐藤は男1人になった。	さとーわおとこひとりになった。	NO_LABEL
リーダー格が繰り返し朗読していると、「もうやめろよ、淋しくなるじゃねぇか」と誰かが言った。	NO_PRONOUNCE	NO_LABEL
ある日、佐藤は谷崎の居ぬ間に小田原の谷崎宅で谷崎の妻と娘と団らんをした。	あるひ、さとーわたにざきのいぬまにおだわらのたにざきたくでたにざきのつまとむすめとだんらんをした。	NO_LABEL
佐藤の郷里・新宮には、焼き秋刀魚に「青切りミカン」を絞るという風習がある。	NO_PRONOUNCE	NO_LABEL
佐藤が常々、郷里のおいしいものを「一にめはり、二に秋刀魚」と言うほど秋刀魚は郷里の新宮に無くてはならない特産である。	NO_PRONOUNCE	NO_LABEL
千代は秋刀魚に「青いミカン」の果汁を試みる。	NO_PRONOUNCE	NO_LABEL
「愛が薄い父」を持つ谷崎の娘・鮎子は、「父ではない男」である佐藤に秋刀魚の腸をくれると言う。	NO_PRONOUNCE	NO_LABEL
佐藤は「妻に背かれた男」であり、妻・香代子と佐藤の弟・秋雄が良い仲になってしまっていたことで既に香代子と離婚していた。	NO_PRONOUNCE	NO_LABEL
千代と佐藤の再婚の件で、谷崎、千代、佐藤の3人は連名の挨拶状を知人らに送っていたが、谷崎のほうで、せい子との結婚がうまくいかなかったため、谷崎が撤回した。	ちよとさとーのさいこんのけんで、たにざき、ちよ、さとーのさんにんわれんめいのあいさつじょーをちじんらにおくっていたが、たにざきのほーで、せいことのけっこんがうまくいかなかったため、たにざきがてっかいした。	NO_LABEL
男1人になった佐藤が書いた詩が「秋刀魚の歌」である。	NO_PRONOUNCE	NO_LABEL
そして心にまどいの情景を思い描いた。	そしてこころにまどいのじょーけいをおもいえがいた。	NO_LABEL
「淋しいだろ……男ってなぁ」、「焼きたてのサンマに、蜜柑の汁をかけて食べた幸福があって、今はなぁ、涙をしたたらせて食うはいずこの里のならいぞや、だぞ」とリーダー格の語る声が聞こえる。	NO_PRONOUNCE	NO_LABEL
荒木は泣いていた。	あらきわないていた。	NO_LABEL
皆も「荒木が泣いてんじゃねぇか」などと言い、泣き始めた。	NO_PRONOUNCE	NO_LABEL
帰りに荒木はこの詩を書店で買い、家で読んでは泣き、暗唱し、高校生の荒木はこの詩から「男の淋しさ」が解かった。	NO_PRONOUNCE	NO_LABEL
佐藤と千代が晴れて結ばれるのは1930年のことである。	さとーとちよがはれてむすばれるのわせんきゅうひゃくさんじゅうねんのことである。	NO_LABEL
公園の「秋刀魚の歌」以降、レールから外れた「チンピラごっこ」の高校生活は段々と影を潜めた。	NO_PRONOUNCE	NO_LABEL
荒木は佐藤春夫に憧れた。	あらきわさとーはるおにあこがれた。	NO_LABEL
荒木は日大芸術学部に入学すると、映画を学んだ。	あらきわにちだいげいじゅつがくぶににゅーがくすると、えいがをまなんだ。	NO_LABEL
荒木にとって映画は作詞活動の原点である。	あらきにとってえいがわさくしかつどーのげんてんである。	NO_LABEL
そこには映画を勉強・読書と同様に考えていた母親、荒木を幼少時から育てて映画や芝居を観に連れて行ってくれた祖母の存在があった。	NO_PRONOUNCE	NO_LABEL
中学生時代は、テレビ番組のクイズで当選して持っていた8ミリカメラと、母親が買い与えてくれた映写機などのいろいろな機材を使い、8ミリ映画作りに夢中であった。	ちゅーがくせいじだいわ、てれびばんぐみのくいずでとーせんしてもっていたはちみりかめらと、ははおやがかいあたえてくれたえいしゃきなどのいろいろなきざいをつかい、はちみりえいがずくりにむちゅーであった。	NO_LABEL
8ミリ映画の機材を中学生が取り揃えているなど、当時考えられない贅沢であった。	はちみりえいがのきざいをちゅーがくせいがとりそろえているなど、とーじかんがえられないぜいたくであった。	NO_LABEL
荒木は大学で映画を学ぶ傍ら、スキー部で競技スキーに取り組み、スキー選手になることを夢見た。	あらきわだいがくでえいがをまなぶかたわら、すきーぶできょーぎすきーにとりくみ、すきーせんしゅになることをゆめみた。	NO_LABEL
荒木によると、「四季の歌」には山が好きな体育会系男子の山への恋しさもあったのであるという。	NO_PRONOUNCE	NO_LABEL
音楽活動もしながら、大酒飲みだったので母親から音楽の道について「どうせアンタはその道じゃ成功しないだろうから、ウチの店を継いだら」と言われてしまい、荒木は「ボクは酒を売る仕事じゃなく、酒を飲んで商売になる仕事をするよ」と返した。	NO_PRONOUNCE	NO_LABEL
荒木の少年期に母親が野球球団の監督からプロポーズされたという話を母親から聞かされたのは大学生の頃である。	あらきのしょーねんきにははおやがやきゅーきゅーだんのかんとくからぷろぽーずされたとゆうはなしをははおやからきかされたのわだいがくせいのころである。	NO_LABEL
母親がプロポーズに応じなかったのは息子である荒木少年がいたからだと祖母が付け加えた。	ははおやがぷろぽーずにおーじなかったのわむすこであるあらきしょーねんがいたからだとそぼがつけくわえた。	NO_LABEL
スキー選手の夢も映画監督の道も前途が暗くなり、失意のどん底に落とされたスキー事故であった。	すきーせんしゅのゆめもえいがかんとくのみちもぜんとがくらくなり、しついのどんぞこにおとされたすきーじこであった。	NO_LABEL
文学に傾倒し、死んでしまおうなど考えたりもした。	ぶんがくにけいとーし、しんでしまおうなどかんがえたりもした。	NO_LABEL
しかし、荒木はギターは諦めず、入院中も手放さなかった。	しかし、あらきわぎたーわあきらめず、にゅーいんちゅーもてばなさなかった。	NO_LABEL
朝から読書にギターで曲作りであった。	あさからどくしょにぎたーできょくずくりであった。	NO_LABEL
「四季の歌」はその頃に、「冬山を思い浮かべてふっと出来た」歌である。	NO_PRONOUNCE	NO_LABEL
昼夜なく暇を持て余し、荒木は何百という数の歌を作詞作曲し、テレビ局・ラジオ局に送った。	NO_PRONOUNCE	NO_LABEL
3年での松葉杖による歩行可能な状態になった荒木は、松葉杖姿にギターを背負い、紹介などを頼りにレコード会社やテレビ局に売りに行った。	さんねんでのまつばずえによるほこーかのーなじょーたいになったあらきわ、まつばずえすがたにぎたーをせおい、しょーかいなどをたよりにれこーどがいしゃやてれびきょくにうりにいった。	NO_LABEL
25歳の頃、母親や母親の知人の店でギター弾きを始め、そうしているうち広告代理店に勤める大学の友人が持って来たCMソングの仕事を引き受け、評判が良かったようで次々に仕事が舞い込んだ。	にじゅうごさいのころ、ははおややははおやのちじんのみせでぎたーはじきをはじめ、そーしているうちこーこくだいりてんにつとめるだいがくのゆーじんがもってきたしーえむそんぐのしごとをひきうけ、ひょーばんがよかったよーでつぎつぎにしごとがまいこんだ。	NO_LABEL
その何年か後、「四季の歌」がレコードになった。	NO_PRONOUNCE	NO_LABEL
レコード会社が「四季の歌」の作者を探していると、「おまえがつくったんだから」などと荒木は友人たちからデビューの後押しをされた。	NO_PRONOUNCE	NO_LABEL
2000年に出版された荒木の自伝的エッセイ『おとこ町六丁目』の中に、ある友人の作曲家が登場する。	NO_PRONOUNCE	NO_LABEL
この作曲家が新選組ファンで荒木が竜馬党といった具合に性質が「すべて反対の友人」で、ある時期コンビを組んでテレサ・テンの歌を作ったこともある作曲家「M君」あるいは「タカシちゃん」と記述され、ここに荒木はハイネの比喩を用いた。	NO_PRONOUNCE	NO_LABEL
すなわちこの作曲家は三木たかしである。	すなわちこのさっきょくかわみきたかしである。	NO_LABEL
荒木はわらべ「めだかの兄妹」の作詞で三木と出会った。	NO_PRONOUNCE	NO_LABEL
荒木と三木は出会った頃、銀座に行ってはブランデーの回し飲みをした。	あらきとみきわであったころ、ぎんざにいってわぶらんでーのまわしのみをした。	NO_LABEL
わらべメンバーの元恋人の死につながるスキャンダル写真流出事件の後に3人組から2人組になったわらべの「もしも明日が…。	NO_PRONOUNCE	NO_LABEL
」を再び荒木・三木のコンビで発表し、「めだかの兄妹」を上回るヒットとなった。	NO_PRONOUNCE	NO_LABEL
荒木・三木コンビは翌年以降テレサ・テンの歌を発表し、「つぐない」、「愛人」、「時の流れに身をまかせ」という、同じ女性を主人公にした3部作が皆ヒットした。	NO_PRONOUNCE	NO_LABEL
荒木はしかし自分の唯一の代表作は「四季の歌」と思っている。	NO_PRONOUNCE	NO_LABEL
ただ、荒木にしてみればハイカラで育ち良く知的なイメージの作曲家と違って作詞家というのは後ろめたい職業で、実際「四季の歌」の作者が自分であると人に言うと、不思議そうに「ヘエ……」、それだけである。	NO_PRONOUNCE	NO_LABEL
荒木・三木コンビに「めだかの兄妹」の作詞作曲を任せたのは、高校生の娘役であったわらべの父親役・萩本欽一である。	NO_PRONOUNCE	NO_LABEL
荒木より若い三木は、荒木より先に死へ旅立った。	あらきよりわかいみきわ、あらきよりさきにしえたびだった。	NO_LABEL
萩本によると、振り返れば荒木と三木の2人は「バカヤロー」、「コノヤロー」と罵り合いながらも友情の固い2人であった。	NO_PRONOUNCE	NO_LABEL
「四季の歌」は母恋の歌でもあった。	NO_PRONOUNCE	NO_LABEL
熊本に預けられていた頃、荒木は熊本の大家族に気を使い、淋しさを隠して威張っていた。	くまもとにあずけられていたころ、あらきわくまもとのだいかぞくにきをつかい、さびしさをかくしていばっていた。	NO_LABEL
自分は母親からカネも物も送ってもらっているのである。	じぶんわははおやからかねもものもおくってもらっているのである。	NO_LABEL
威張ったり、笑わせたりした。	いばったり、わらわせたりした。	NO_LABEL
しかし祖母と三益愛子の母物映画を観て母親に会いたくなり泣いたこともあった。	しかしそぼとみますあいこのははものえいがをみてははおやにあいたくなりないたこともあった。	NO_LABEL
優しい祖父が1度だけ物凄く怒った時は、家出をして母親の東京へ行こうと思った。	やさしいそふがいちどだけものすごくおこったときわ、いえでをしてははおやのとーきょーえいこうとおもった。	NO_LABEL
1953年6月に熊本で大災害に遭った。	せんきゅうひゃくごじゅうさんねんろくがつにくまもとでだいさいがいにあった。	NO_LABEL
祖父の家は床上浸水になった。	そふのいえわゆかうえしんすいになった。	NO_LABEL
しばらくの間は東京に電報も届かなかった。	しばらくのまわとーきょーにでんぽーもとどかなかった。	NO_LABEL
母親は妹を熊本に送って寄こし、この叔母はトランクに物資をいっぱい詰め込んで東京から戻って来た。	ははおやわいもーとをくまもとにおくってよこし、このおばわとらんくにぶっしをいっぱいつめこんでとーきょーからもどってきた。	NO_LABEL
荒木は家の外へ出られるようなってから災害の痕跡を見て回った。	あらきわいえのそとえでられるよーなってからさいがいのこんせきをみてまわった。	NO_LABEL
テレビが一般家庭に普及していない時代で、馬の死体がある、橋が流れた、線路が曲がった、などの見聞が子供たちにとっての大事件であった。	てれびがいっぱんかていにふきゅーしていないじだいで、うまのしたいがある、はしがながれた、せんろがまがった、などのけんぶんがこどもたちにとってのだいじけんであった。	NO_LABEL
叔母の後で、生活が落ち着いてくると、派手なワンピースのような洋服を着て白い帽子をかぶり、大きいトランクに土産がいっぱい、カネもいっぱいで母親が帰ってきた。	おばののちで、せいかつがおちついてくると、はでなわんぴーすのよーなよーふくをきてしろいぼーしをかぶり、おーきいとらんくにみやげがいっぱい、かねもいっぱいでははおやがかえってきた。	NO_LABEL
7月、荒木と母親は熊本のデパートで食事をした。	しちがつ、あらきとははおやわくまもとのでぱーとでしょくじをした。	NO_LABEL
カレーライスと思って選んだ食べ物を食べていると、「ハヤシライスそんなに好きなの」と母親に言われて、このおいしい食べ物はハヤシライスというのかと、食べていたらいつの間にか泣いてしまい、母親の顔を見上げると母親も泣いていた。	NO_PRONOUNCE	NO_LABEL
母親は父親のいない息子のために、よその子供が持っていないような物も沢山の小遣いも与え、精一杯の贅沢をさせた。	ははおやわちちおやのいないむすこのために、よそのこどもがもっていないよーなものもたくさんのこずかいもあたえ、せいいっぱいのぜいたくをさせた。	NO_LABEL
小学校の遠足の前日、銀座のデパートに水筒を買いに連れて行ってもらった。	しょーがっこーのえんそくのぜんじつ、ぎんざのでぱーとにすいとーをかいにつれていってもらった。	NO_LABEL
キャップに磁石が付いている水筒が、どうしても欲しかった。	きゃっぷにじしゃくがついているすいとーが、どーしてもほしかった。	NO_LABEL
買い物と不二家の食事の後、新橋へ歩くとバナナの叩き売りに出くわした。	かいものとふじやのしょくじののち、しんばしえあるくとばななのたたきうりにでくわした。	NO_LABEL
荒木が見たがって、母親と祖母の3人で見物していると、「買った!」、細身で着物の母親が大声で男性みたいに言って周りの男性たちが母親に注目した。	NO_PRONOUNCE	NO_LABEL
「あした遠足でしょう……」、息子にバナナを渡した。	NO_PRONOUNCE	NO_LABEL
晩年、大腿骨骨折で寝たきりの母親に、遠足前日のバナナの叩き売りを話題にすると、母親は「あら、そんなことあった」と笑った。	NO_PRONOUNCE	NO_LABEL
母親に会いに行ってバナナの話をするといつも「あら、そんなことあった」であったが、死去の何か月か前には、「うん?……」という反応しか返ってこなかった。	NO_PRONOUNCE	NO_LABEL
荒木は寝たきりの母親を訪ねる前には電話をかけるように母親のお手伝いさんから頼まれていた。	あらきわねたきりのははおやをたずねるまえにわでんわをかけるよーにははおやのおてつだいさんからたのまれていた。	NO_LABEL
母親は、息子に会うために髪をとかし、口紅を引きたかったのである。	ははおやわ、むすこにあうためにかみをとかし、くちべにをひきたかったのである。	NO_LABEL
ハワイ生まれの祖母が熊本で祖父と結婚して生まれた母親は、小間使いを雇う裕福な家庭で育ち、戦争を生き、離婚し、上京して水商売に身を置き、寝たきりになった母親からは本当は女優になりたかったと聞いた。	はわいうまれのそぼがくまもとでそふとけっこんしてうまれたははおやわ、こまずかいをやとうゆーふくなかていでそだち、せんそーをいき、りこんし、じょーきょーしてみずしょーばいにみをおき、ねたきりになったははおやからわほんとーわじょゆーになりたかったときいた。	NO_LABEL
「私は幸せだったよ、本当に。	NO_PRONOUNCE	NO_LABEL
好きな事ばっかりしてきたからね……」、「でもあんたも幸せだよ、私以上に。	NO_PRONOUNCE	NO_LABEL
何でもさせてあげたからね」、晩年の母親がよく言っていた。	NO_PRONOUNCE	NO_LABEL
若い頃に別れた夫のような酒乱ではなく、少々の酒癖であっても愉快に酌む性質であった息子に、「あんたのお酒は、いいお酒で良かったよ」と言う母親は、別れた夫を思い出しているに違いなかった。	NO_PRONOUNCE	NO_LABEL
荒木が知らざる母親の人生が察せられるこのような言葉に、荒木は淋しくなった。	あらきがしらざるははおやのじんせいがさっせられるこのよーなことばに、あらきわさびしくなった。	NO_LABEL
母親との死別は、大学生で「四季の歌」を作ってから数十年後の出来事である。	NO_PRONOUNCE	NO_LABEL
高校で「チンピラごっこ」をしていた荒木は、それからチンピラを辞めたわけではない。	NO_PRONOUNCE	NO_LABEL
母親との死別でチンピラはおしまいだと思ったが、作詞する時はチンピラ時代を書きたいと心がうずくのである。	ははおやとのしべつでちんぴらわおしまいだとおもったが、さくしするときわちんぴらじだいをかきたいとこころがうずくのである。	NO_LABEL
荒木はチンピラについて、「チンピラというのはね、やっぱり若くて威勢がよく、泣き虫で、すぐあやまっちゃって、淋しくて、悲しくて、切ないんです」、このように述べている。	NO_PRONOUNCE	NO_LABEL
荒木によると幕末に新時代を切り開いたのは「若きチンピラたち」である。	NO_PRONOUNCE	NO_LABEL
結局のところ、荒木はチンピラが辞められない。	けっきょくのところ、あらきわちんぴらがやめられない。	NO_LABEL
若者チンピラの輝きがなくともオヤジチンピラとして渋味でやっていくのである。	わかものちんぴらのかがやきがなくともおやじちんぴらとしてしぶみでやっていくのである。	NO_LABEL
荒木は、「あの事故がなければ、作詞家になっていたかわからない。	NO_PRONOUNCE	NO_LABEL
母が僕を関温泉に送りださなかったらどうなっていたか」と語っている。	NO_PRONOUNCE	NO_LABEL
東京霊園の母親の墓に建てられた歌碑に「四季の歌」が刻まれた。	NO_PRONOUNCE	NO_LABEL
「君だけを見つめてる〜四季の歌2012〜」は、「四季の歌」50周年特別企画の新曲である。	NO_PRONOUNCE	NO_LABEL
「四季の歌」は1972年のリリースから50年の節目となる2012年に新曲「君だけを見つめてる〜四季の歌2012〜」として次の50年に歌い継がれるべくリメイクされた。	NO_PRONOUNCE	NO_LABEL
オリジナルの「四季の歌」をモチーフにして、旧メロディに新メロディを追加。	NO_PRONOUNCE	NO_LABEL
歌詞は新しく制作された。	かしわあたらしくせいさくされた。	NO_LABEL
この新曲「四季の歌2012」は荒木とよひさと松本俊明のコラボレーション作品であり、荒木による作詞・作曲に松本が補作曲として参加した。	NO_PRONOUNCE	NO_LABEL
「四季の歌2012」は、2012年6月20日にオムニバスCDアルバムがリリースされた。	NO_PRONOUNCE	NO_LABEL
このCDはオーディションで選ばれた5組のアーティストによるそれぞれの「四季の歌2012」が収録されている。	NO_PRONOUNCE	NO_LABEL
※M3とは、家族3世代の3人組によるユニット。	NO_PRONOUNCE	NO_LABEL
