キルバーン""は、三条陸と稲田浩司による漫画、およびそれを原作とするアニメ『DRAGON QUEST -ダイの大冒険-』の登場する架空の人物。	NO_PRONOUNCE	NO_LABEL
通称、死神キルバーン。	つーしょー、しにがみきるばーん。	NO_LABEL
大魔王バーンの元へと派遣された冥竜王ヴェルザーの部下。	NO_PRONOUNCE	NO_LABEL
常に使い魔のピロロと行動を共にしている。	つねにつかいまのぴろろとこーどーをともにしている。	NO_LABEL
バーンの魔王軍の中にあって六大軍団には属さず、同軍における失敗者の始末やバーンパレスへの侵入者を排除する任務を帯びた暗殺者として、バーン直属のような立場で独自に活動する。	ばーんのまおーぐんのなかにあってろくたいぐんだんにわぞくさず、どーぐんにおけるしっぱいしゃのしまつやばーんぱれすえのしんにゅーしゃをはいじょするにんむをおびたあんさつしゃとして、ばーんちょくぞくのよーなたちばでどくじにかつどーする。	NO_LABEL
あくまでもバーンの部下ではなく、ヴェルザーから協力者として使わされた存在であるため、その地位についてミストバーンは「全魔王軍で唯一別格」「大魔王バーンと対等に近い立場にある」と評している。	NO_PRONOUNCE	NO_LABEL
軍団長やハドラーも恐れる実力の持ち主で、アバンとも互角に渡り合った。	ぐんだんちょーやはどらーもおそれるじつりょくのもちぬしで、あばんともごかくにわたりあった。	NO_LABEL
名前の由来はkill＋バーンの個人名。	NO_PRONOUNCE	NO_LABEL
また、真の主であるヴェルザーからバーン暗殺の密命を受けていたことから「バーンを殺せ」の暗号名でもある。	NO_PRONOUNCE	NO_LABEL
バーンはヴェルザーとの会話において彼のことを「キル」と呼んでおり、本名は作中で明かされることはなかった。	NO_PRONOUNCE	NO_LABEL
一人称は「ボク」で、他人を翻弄するような飄々とした口調で話す。	NO_PRONOUNCE	NO_LABEL
バーンやヴェルザーに一定の忠誠を見せてはいるが、常に自分の趣味で行動しているようなところがあり、ヴェルザーに陰口を言ったこともある。	NO_PRONOUNCE	NO_LABEL
ミストバーンとは気質が対照的ながら気が合い、互いに「ミスト」、「キル」と呼び合う仲となったが、ミストバーンは彼に自分の正体についての詮索は無用と釘を刺し、両者共に最後まで自分の正体を隠していた。	NO_PRONOUNCE	NO_LABEL
対照的に、プライドが高く冗談を好まないハドラーからは終始一貫、嫌われていた。	たいしょーてきに、ぷらいどがたかくじょーだんをこのまないはどらーからわしゅーしいっかん、きらわれていた。	NO_LABEL
陽気そうな物腰とは裏腹に、相手を策に陥れ、もがき苦しんだところを仕留めるのに何よりの喜びを感じるという、陰湿かつ残酷極まりない性格。	よーきそーなものごしとわうらはらに、あいてをさくにおとしいれ、もがきくるしんだところをしとめるのになによりのよろこびをかんじるとゆう、いんしつかつざんこくきわまりないせいかく。	NO_LABEL
また、非常に執念深く、恨みや怒りを抱いた相手に対しては執拗に付け狙い、どんな卑怯な手段を用いてもその命を奪おうと試みる。	また、ひじょーにしゅーねんぶかく、うらみやいかりをだいたあいてにたいしてわしつよーにつけねらい、どんなひきょーなしゅだんをもちいてもそのいのちをうばおうとこころみる。	NO_LABEL
その残酷さはバーンでさえ「おそらく魔界一だろうな」と評するほど。	NO_PRONOUNCE	NO_LABEL
その卑劣なやり口に煮え湯を飲まされ続けたアバンも「残酷にも劣る残忍」、「お前ほど非道で美点の見つからない敵には出会ったことがない」と露骨に嫌悪を見せていた。	NO_PRONOUNCE	NO_LABEL
彼の姿を見たということは即座に死を意味することから「死神」と呼ばれ、魔王軍の中にも彼の姿を見た者はいなかったというほど。	NO_PRONOUNCE	NO_LABEL
他者への観察眼もあり、「ポップを葬ればダイ一行の脚は止まる」とごく当初から見抜いていた。	NO_PRONOUNCE	NO_LABEL
また、バーンとミストの前に初めて現れた際「どちら様がバーン様で？」と初対面で彼らの秘密を察したかのような問いかけをしていた。	NO_PRONOUNCE	NO_LABEL
上述の通り魔王軍でも屈指の実力者であるが、獲物をいたぶることを楽しむあまりに詰めが甘く、ダイたちを何度か絶体絶命まで追い込みながらいずれも止めを刺し損なっており、劇中でも誰一人殺せていない。	じょーじゅつのとーりまおーぐんでもくっしのじつりょくしゃであるが、えものをいたぶることをたのしむあまりにつめがあまく、だいたちをなんどかぜったいぜつめいまでおいこみながらいずれもとめをさしそこなっており、げきちゅーでもだれひとりころせていない。	NO_LABEL
自身の敗北・最期もその性格が災いすることになった。	NO_PRONOUNCE	NO_LABEL
常に笑いの仮面で顔を隠し、黒い道化師のような服装に身を包む。	つねにわらいのかめんでかおをかくし、くろいどーけしのよーなふくそーにみをつつむ。	NO_LABEL
仮面は扇状の飾りが付いており、その両端には星、月のアクセサリーがあしらわれている。	かめんわせんじょーのかざりがついており、そのりょーたんにわほし、つきのあくせさりーがあしらわれている。	NO_LABEL
この笑いの仮面は、彼の持つ多数の仮面の中で最も気に入っていたものである。	このわらいのかめんわ、かれのもつたすーのかめんのなかでもっともきにいっていたものである。	NO_LABEL
なお、後述するアバンとの決闘では憤怒の仮面を被っている。	なお、こーじゅつするあばんとのけっとーでわふんどのかめんをこーむっている。	NO_LABEL
死神の異名どおり大振りの鎌「死神の笛」を武器として使用する。	NO_PRONOUNCE	NO_LABEL
また、アバンとの戦いの折には細身のサーベル状の武器を使用した。	また、あばんとのたたかいのおりにわほそみのさーべるじょーのぶきをしよーした。	NO_LABEL
どういった能力なのかは不明だが、壁などの物体を透過するようにして現れたり姿を隠したりと、ルーラやリリルーラとは異なる移動手段を披露しており、魔術師的な雰囲気も持つ。	どーいったのーりょくなのかわふめいだが、かべなどのぶったいをとーかするよーにしてあらわれたりすがたをかくしたりと、るーらやりりるーらとわことなるいどーしゅだんをひろーしており、まじゅつしてきなふんいきももつ。	NO_LABEL
ヴェルザーの命を受け、バーンの協力者として遣わされた。	NO_PRONOUNCE	NO_LABEL
だが真の使命はバーンの地上征服、破壊の監視と暗殺であり、彼の計画がしくじろうものならその場で始末する命を任されていた。	だがしんのしめいわばーんのちじょーせいふく、はかいのかんしとあんさつであり、かれのけいかくがしくじろうものならそのばでしまつするいのちをまかされていた。	NO_LABEL
その真意はバーンに一目で見抜かれたものの却って気に入られ、部下として迎えられることになる。	そのしんいわばーんにいちもくでみぬかれたもののかえってきにいられ、ぶかとしてむかえられることになる。	NO_LABEL
キルバーン自身も、そのバーンの対応を「器が大きい」と評し、ミストバーンとの関係と併せて任務とは別に個人としてはバーンたちをそれなりに気に入っていた様子を見せていた。	NO_PRONOUNCE	NO_LABEL
しかし最後まで自分の使命を忘れることは無く、バーンとの関係について「従う義理はあるが義務は無い」と表現している。	NO_PRONOUNCE	NO_LABEL
六大軍団が健在であった頃はダイたちとの戦いにおいてあまり前面に出ることはなかったが、彼らがバーンパレスに乗り込んでからは、そこに仕掛けた数々の罠を駆使して抹殺にかかる。	ろくたいぐんだんがけんざいであったころわだいたちとのたたかいにおいてあまりぜんめんにでることわなかったが、かれらがばーんぱれすにのりこんでからわ、そこにしかけたかずかずのわなをくししてまっさつにかかる。	NO_LABEL
ダイがハドラーと決着を付けた瞬間の隙をついて最高傑作の罠である「ダイヤ9」に陥れ、助けに飛び込んだポップもろとも焼き尽くそうとしたが、長い沈黙を破って駆けつけたアバンに罠を破られ、自身も斬りつけられて仮面を割られる。	NO_PRONOUNCE	NO_LABEL
そのことに激怒し、以後はその感情を表す憤怒の仮面を被ってアバンを付け狙い、完全決着用の魔界の遺物「ジャッジ」を使ってアバンを亜空間に閉じ込めた。	NO_PRONOUNCE	NO_LABEL
ここでも決闘と称しながらファントムレイザーや事前に改造を施したジャッジといった罠を持ち出し、危なくなるとピロロを使って嘘の命乞いまでするなど卑劣な手段を散々駆使した。	ここでもけっとーとしょーしながらふぁんとむれいざーやじぜんにかいぞーをほどこしたじゃっじといったわなをもちだし、あぶなくなるとぴろろをつかってうそのいのちごいまでするなどひれつなしゅだんをさんざんくしした。	NO_LABEL
そしてアバンをファントム・レイザーで包囲し追い詰め、トドメを刺そうとしたがファントム・レイザーを逆利用され、自らの罠で首を飛ばし敗れ去る。	NO_PRONOUNCE	NO_LABEL
その正体は機械人形で、使い魔のピロロこそがそれを操る真のキルバーンであった。	そのしょーたいわきかいにんぎょーで、つかいまのぴろろこそがそれをあやつるしんのきるばーんであった。	NO_LABEL
この事実が判明したのは原作の最終回においてである。	このじじつがはんめいしたのわげんさくのさいしゅーかいにおいてである。	NO_LABEL
操り人形ゆえに、心臓を刺されるといった通常の生物なら致命傷となる攻撃を受けても一切支障はなく、当然本体にダメージが及ぶこともない。	あやつりにんぎょーゆえに、しんぞーをさされるといったつーじょーのせいぶつならちめいしょーとなるこーげきをうけてもいっさいししょーわなく、とーぜんほんたいにだめーじがおよぶこともない。	NO_LABEL
胴体・首を切断されるなどすると機能停止に陥るが、本体が無事ならば魔法の粉をかけるなどの処置を行うことで修復がきく。	NO_PRONOUNCE	NO_LABEL
人形は遠隔操作も可能で、たとえ人形と本体がジャッジの異空間を隔てていても操作に支障は出ない。	にんぎょーわえんかくそーさもかのーで、たとえにんぎょーとほんたいがじゃっじのいくーかんをへだてていてもそーさにししょーわでない。	NO_LABEL
また、その目を通した映像は全て本体のピロロに送られる。	また、そのめをとーしたえいぞーわすべてほんたいのぴろろにおくられる。	NO_LABEL
全身を巡る魔界の強酸性を持つ高温のマグマ成分が原動力となっている。	ぜんしんをめぐるまかいのきょーさんせいをもつこーおんのまぐませいぶんがげんどーりょくとなっている。	NO_LABEL
そのため、人形を攻撃した場合、このマグマ成分が武器に付着するため、攻撃に使った武器は腐食される。	そのため、にんぎょーをこーげきしたばあい、このまぐませいぶんがぶきにふちゃくするため、こーげきにつかったぶきわふしょくされる。	NO_LABEL
その威力はドラゴンキラー程度の武器は一刺ししただけで溶けてなくなってしまい、最強の剣の一つであるオリハルコン製の真魔剛竜剣といえども腐蝕して切れ味が鈍るほどに強力。	そのいりょくわどらごんきらーていどのぶきわいちざししただけでとけてなくなってしまい、さいきょーのけんのひとつであるおりはるこんせいのままたけたつけんといえどもふしょくしてきれあじがにぶるほどにきょーりょく。	NO_LABEL
また自己修復能力を以てしてもすぐには治せなかった。	またじこしゅーふくのーりょくをもってしてもすぐにわなおせなかった。	NO_LABEL
更に仮面の下には黒の核晶が隠されており、ヴェルザーからは先述の条件を満たしたときにこれを用いてバーンを始末するよう指示を受けていた。	NO_PRONOUNCE	NO_LABEL
顔面を叩き割り核晶を起爆するのがこの機械人形を完全に倒す唯一の方法とされるが、破壊＝爆発なので攻撃した者も爆発に巻き込まれるため、相打ちは確定的でまず助からない。	NO_PRONOUNCE	NO_LABEL
また、黒の核晶の弱点である凍結による停止がマグマ成分の影響により事実上不可能に近いため、回避手段が大幅に限られることになる。	また、くろのかくあきらのじゃくてんであるとーけつによるていしがまぐませいぶんのえいきょーによりじじつじょーふかのーにちかいため、かいひしゅだんがおーはばにかぎられることになる。	NO_LABEL
それゆえ、最終話にて機械人形の核晶が作動した際、ダイとポップが取った最後の手段は、爆発に巻き込まれることも省みず、爆発物を持って被害が及ばない上空へ運び隔離するという捨身の方法となった。	それゆえ、さいしゅーわにてきかいにんぎょーのかくあきらがさどーしたさい、だいとぽっぷがとったさいごのしゅだんわ、ばくはつにまきこまれることもかえりみず、ばくはつぶつをもってひがいがおよばないじょーくーえはこびかくりするとゆうしゃしんのほーほーとなった。	NO_LABEL
本体のピロロは氷結系呪文、回復呪文を使えるものの特に戦闘能力が高いというわけではなく、正体を明かし機械人形の核晶を起動させた後、人間たちの絶望を嘲笑って逃げ帰ろうとしたが、アバンの投げたフェザーによって動きを封じられマァムの拳打によってあっけなく倒される。	ほんたいのぴろろわひょーけつけいじゅもん、かいふくじゅもんをつかえるもののとくにせんとーのーりょくがたかいとゆうわけでわなく、しょーたいをあかしきかいにんぎょーのかくあきらをきどーさせたのち、にんげんたちのぜつぼーをあざわらってにげかえろうとしたが、あばんのなげたふぇざーによってうごきをふーじられまぁむのこぶしだによってあっけなくたおされる。	NO_LABEL
最期に「ちくしょう……けど、もうアウトだ」と捨て台詞を残した。	NO_PRONOUNCE	NO_LABEL
読者による人気キャラクター投票の第2回では、ヒュンケルやクロコダインなど、ダイ側についたキャラクターを除いた魔王軍の中にあって唯一10位以内に入っており、読者人気も高かった。	どくしゃによるにんききゃらくたーとーひょーのだいにかいでわ、ひゅんけるやくろこだいんなど、だいがわについたきゃらくたーをのぞいたまおーぐんのなかにあってゆいいつじゅういいないにはいっており、どくしゃにんきもたかかった。	NO_LABEL
