ハロー!プロジェクトのメンバーオーディションでは、ハロー!プロジェクトのメンバーのオーディションについて説明する。	はろーぷろじぇくとのめんばーおーでぃしょんでわ、はろーぷろじぇくとのめんばーのおーでぃしょんについてせつめいする。	NO_LABEL
第1 - 3回は前身のファンクラブ「Hello!」が主催し、いずれも『アイドルをさがせ!』でオーディションの模様を放送した。	NO_PRONOUNCE	NO_LABEL
なお、第1 - 3回の当時の正式名称は「平家みちよ&モーニング娘。	NO_PRONOUNCE	NO_LABEL
妹分オーディション」であったが、第4回以降の変更で統一を図るため、現在ではその3回のオーディションもこの名が正式名称とされている。	NO_PRONOUNCE	NO_LABEL
応募資格はいずれも15歳から18歳までの女性だった。	おーぼしかくわいずれもじゅうごさいからじゅうはっさいまでのじょせいだった。	NO_LABEL
ハロー!プロジェクトによる関西地区限定のオーディション。	はろーぷろじぇくとによるかんさいちくげんていのおーでぃしょん。	NO_LABEL
このオーディションは2005年10月23日放送の『ハロー!モーニング。	NO_PRONOUNCE	NO_LABEL
』で募集が告知された。	NO_PRONOUNCE	NO_LABEL
2006年8月11日にABCラジオの番組『ハロプロやねん!』においてこの4名にハロプロエッグの前田彩里を加えた5名でハロプロ関西レッスン生として初出演した。	NO_PRONOUNCE	NO_LABEL
また、同月25日と11月19日の同番組の公開録音では出演者の℃-uteとカントリー娘。	また、どーげつにじゅうごにちとじゅいちがつじゅうくにちのどーばんぐみのこーかいろくおんでわしゅつえんしゃのきゅーととかんとりーむすめ	NO_LABEL
に先立ってオープニング・アクトを行った。	NO_PRONOUNCE	NO_LABEL
このオーディションでは、ハロプロ関西などのアップフロントの関西メンバーを募集している。	このおーでぃしょんでわ、はろぷろかんさいなどのあっぷふろんとのかんさいめんばーをぼしゅーしている。	NO_LABEL
アップフロント関西が2008年夏頃より開催したオーディション。	あっぷふろんとかんさいがにせんはちねんなつごろよりかいさいしたおーでぃしょん。	NO_LABEL
発表当時は同年内に合格者を発表する予定だったが、それらの情報が2009年6月まで公開されず、同月になってようやく第1回の合格者が発表された。	はっぴょーとーじわどーねんないにごーかくしゃをはっぴょーするよていだったが、それらのじょーほーがにせんきゅうねんろくがつまでこーかいされず、どーげつになってよーやくだいいっかいのごーかくしゃがはっぴょーされた。	NO_LABEL
オーディション自体には“第1回”という表記はないが、同タイトルのオーディションが2009年2月に行われたため、こちらを“第1回”と表記した。	NO_PRONOUNCE	NO_LABEL
上述の第2回合格者が該当者なしだったため、再募集となった。	じょーじゅつのだいにかいごーかくしゃががいとーしゃなしだったため、さいぼしゅーとなった。	NO_LABEL
アップフロントグループが2006年2月より開催したオーディションである。	あっぷふろんとぐるーぷがにせんろくねんにがつよりかいさいしたおーでぃしょんである。	NO_LABEL
ハロー!プロジェクト入り以外にも女優、バラエティ部門など様々な分野の人材登用を目指している。	はろーぷろじぇくといりいがいにもじょゆー、ばらえてぃぶもんなどさまざまなぶんやのじんざいとーよーをめざしている。	NO_LABEL
2007年3月に行われたフットサルチーム、Gatas Brilhantes H.P.の新メンバーオーディションである。	にせんななねんさんがつにおこなわれたふっとさるちーむ、がったすぶりりゃんちすえいちぴーのしんめんばーおーでぃしょんである。	NO_LABEL
同年8月31日にお台場で開催されたファン交流イベントでお披露目された。	どーねんはちがつさんじゅういちにちにおだいばでかいさいされたふぁんこーりゅーいべんとでおひろめされた。	NO_LABEL
なお、深谷愛はオーディション参加前から芸能活動を行っていたが、後に脱退した。	なお、ふかやあいわおーでぃしょんさんかまえからげいのーかつどーをおこなっていたが、ごにだったいした。	NO_LABEL
アップフロントグループが2007年8月からオーディションのための公式サイトを開設し、常時応募受付を行うようになった。	あっぷふろんとぐるーぷがにせんななねんはちがつからおーでぃしょんのためのこーしきさいとをかいせつし、じょーじおーぼうけつけをおこなうよーになった。	NO_LABEL
ハロー!プロジェクトをはじめとするアップフロントグループの事務所に所属する女性芸能人を発掘するオーディションであり、アップフロントグループ『エッグ』オーディションの後継オーディションでもある。	NO_PRONOUNCE	NO_LABEL
2008年5月から9月まで台湾で行われたハロー!プロジェクト初の海外オーディション。	にせんはちねんごがつからくがつまでたいわんでおこなわれたはろーぷろじぇくとはつのかいがいおーでぃしょん。	NO_LABEL
翌6月7日から台湾電視で「早安家族New Star」を題材にしたテレビ番組が放送されており、合格者を発表するまでの模様が紹介され、同年9月20日に合格者6名および特別賞2名が発表された。	NO_PRONOUNCE	NO_LABEL
なお、この8名は「初代台湾ハロー!プロジェクトメンバーになるチャンス」とあるように研修生扱いとしての合格であった。	NO_PRONOUNCE	NO_LABEL
2009年5月 - 6月に韓国で行われたハロー!プロジェクトの第2回海外オーディション。	NO_PRONOUNCE	NO_LABEL
こちらもこのオーディションを題材にしたテレビ番組が放送されており、合格者を発表するまでの模様が紹介された。	こちらもこのおーでぃしょんをだいざいにしたてれびばんぐみがほーそーされており、ごーかくしゃをはっぴょーするまでのもよーがしょーかいされた。	NO_LABEL
2011年5月29日、ヴィーナスフォートにて行われた、スマイレージのメジャーデビュー1周年記念イベントにおいて、ビデオメッセージにプロデューサーのつんく♂が登場してオーディションの開催が発表された。	NO_PRONOUNCE	NO_LABEL
なお、3期メンバーはハロプロ研修生からの昇格による選出のため、オーディションは行われていない。	なお、さんきめんばーわはろぷろけんしゅーせいからのしょーかくによるせんしゅつのため、おーでぃしょんわおこなわれていない。	NO_LABEL
2015年6月24日に公開されたハロ!ステで、和田彩花が登場し、アンジュルムとなってからは初となる新メンバー募集のオーディションを行うことを発表した。	NO_PRONOUNCE	NO_LABEL
同年7月1日には、ハロー!プロジェクトの公式サイトでもオーディションの実施が正式発表され、たいせいと清水佐紀が審査に関わること、そして、ハロプロ研修生からの採用枠が一般の応募者とは区別して審査されることが明確にされ、保護者の同意及び本人の加入希望が明確であることを重視したいことが発表されている。	どーねんしちがつついたちにわ、はろーぷろじぇくとのこーしきさいとでもおーでぃしょんのじっしがせいしきはっぴょーされ、たいせいとしみずさきがしんさにかかわること、そして、はろぷろけんしゅーせいからのさいよーわくがいっぱんのおーぼしゃとわくべつしてしんさされることがめいかくにされ、ほごしゃのどーいおよびほんにんのかにゅーきぼーがめいかくであることをじゅーししたいことがはっぴょーされている。	NO_LABEL
スマイレージから通算すれば4期メンバーとなるが、研修生からの昇格を含め、今回のオーディションでの該当者なしとなる可能性もあることも明確にされた。	すまいれーじからつーさんすればよんきめんばーとなるが、けんしゅーせいからのしょーかくをふくめ、こんかいのおーでぃしょんでのがいとーしゃなしとなるかのーせいもあることもめいかくにされた。	NO_LABEL
募集の詳細は、同年7月2日の0:00に専用サイトが公開され、その中で要項等が明らかにされた。	NO_PRONOUNCE	NO_LABEL
2011年11月23日によみうりランドオープンシアターEASTにて開催された「ハロー!プロジェクト☆フェスティバル」に、新オーディション「ハロー!プロジェクト『研修生』オーディション」が開催されることが発表された。	NO_PRONOUNCE	NO_LABEL
2015年時点での応募要項は、次の通り。	にせんじゅうごねんじてんでのおーぼよーこーわ、つぎのとーり。	NO_LABEL
なお、アップフロント研修生の募集は、2016年1月25日より停止されている。	なお、あっぷふろんとけんしゅーせいのぼしゅーわ、にせんじゅうろくねんいちがつにじゅうごにちよりていしされている。	NO_LABEL
2012年11月30日に、地方都市に出張する形でハロプロ研修生オーディションが実施されることが発表された。	にせんじゅうにねんじゅーいちがつさんじゅうにちに、ちほーとしにしゅっちょーするかたちではろぷろけんしゅーせいおーでぃしょんがじっしされることがはっぴょーされた。	NO_LABEL
都内で行われる通常の研修生オーディションと選考方法が一部異なるため、ここで別途記載する。	とないでおこなわれるつーじょーのけんしゅーせいおーでぃしょんとせんこーほーほーがいちぶことなるため、ここでべっときさいする。	NO_LABEL
2014年6月5日、BS-TBSとアップフロントプロモーションが共同で発足した演劇集団「演劇女子部」の女優を募集するオーディションを開催すると発表された。	NO_PRONOUNCE	NO_LABEL
合格者は同年10月に行われるスマイレージ主演舞台での共演など演劇女子部への出演が予定されている。	ごーかくしゃわどーねんじゅーがつにおこなわれるすまいれーじしゅえんぶたいでのきょーえんなどえんげきじょしぶえのしゅつえんがよていされている。	NO_LABEL
2015年5月15日、ハロー!プロジェクトオフィシャルサイト上で、北海道内限定で活動するメンバーのオーディションの実施が発表された。	にせんじゅうごねんごがつじゅうごにち、はろーぷろじぇくとおふぃしゃるさいとじょーで、ほっかいどーないげんていでかつどーするめんばーのおーでぃしょんのじっしがはっぴょーされた。	NO_LABEL
2017年7月15日、オリックス劇場で行われたハロー!プロジェクトコンサート大阪公演およびハロー!プロジェクト公式サイトにてオーディションの開催が発表された。	にせんじゅうななねんしちがつじゅうごにち、おりっくすげきじょーでおこなわれたはろーぷろじぇくとこんさーとおーさかこーえんおよびはろーぷろじぇくとこーしきさいとにておーでぃしょんのかいさいがはっぴょーされた。	NO_LABEL
合格者はモーニング娘。	ごーかくしゃわもーにんぐむすめ	NO_LABEL
、アンジュルム、Juice=Juice、こぶしファクトリー、つばきファクトリー、新グループ、演劇女子部に加入する可能性があるとされている。	NO_PRONOUNCE	NO_LABEL
2018年5月11日、ハロー!プロジェクト公式サイトにてオーディションの開催が発表された。	にせんじゅうはちねんごがつじゅういちにち、はろーぷろじぇくとこーしきさいとにておーでぃしょんのかいさいがはっぴょーされた。	NO_LABEL
