逗子海岸は、神奈川県逗子市新宿に位置する相模湾に面した海岸である。	ずしかいがんわ、かながわけんずしししんじゅくにいちするさがみわんにめんしたかいがんである。	NO_LABEL
逗子海水浴場として知られる。	ずしかいすいよくじょーとしてしられる。	NO_LABEL
新宿海岸、新宿浜、東郷浜とも呼ばれていた。	しんじゅくかいがん、しんじゅくはま、とーごーはまともよばれていた。	NO_LABEL
キャッチフレーズは太陽が生まれたハーフマイルビーチ。	きゃっちふれーずわたいよーがうまれたはーふまいるびーち。	NO_LABEL
遠浅で波も穏やかであり浜が小細砂で、貝殻や砂利や泥が少ないのが特徴。	とーあさでなみもおだやかでありはまがおぼそすなで、かいがらやじゃりやどろがすくないのがとくちょー。	NO_LABEL
ウィンドサーフィンなどで有名。	うぃんどさーふぃんなどでゆーめい。	NO_LABEL
関東で最も海開きの早い海水浴場の一つである。	かんとーでもっともうみびらきのはやいかいすいよくじょーのひとつである。	NO_LABEL
毎年夏に逗子海岸花火大会が行われるが2011年は東日本大震災の影響で中止となり、2012年は、近年の海岸侵食によって砂浜が狭くなってきていることから、警備体制や安全面に配慮した結果、海の家設営前の6月2日に行われた。	まいとしなつにずしかいがんはなびたいかいがおこなわれるがにせんじゅういちねんわひがしにほんだいしんさいのえいきょーでちゅーしとなり、にせんじゅうにねんわ、きんねんのかいがんしんしょくによってすなはまがせまくなってきていることから、けいびたいせいやあんぜんめんにはいりょしたけっか、うみのいえせつえいまえのろくがつふつかにおこなわれた。	NO_LABEL
陸軍軍医の石黒忠悳らによって1892年頃より海水浴場として最適であると宣伝され、徳冨蘆花の不如帰の舞台となったこともあり、大正頃より逗子海水浴場として知られるようになった。	りくぐんぐんいのいしぐろただのりらによってせんはっぴゃくきゅうじゅうにねんごろよりかいすいよくじょーとしてさいてきであるとせんでんされ、とくとみろかのふじょきのぶたいとなったこともあり、たいしょーごろよりずしかいすいよくじょーとしてしられるよーになった。	NO_LABEL
2005年には石原慎太郎の太陽の季節の碑が設置された。	にせんごねんにわいしはらしんたろーのたいよーのきせつのいしぶみがせっちされた。	NO_LABEL
逗子村と小坪村の間での寛文・元禄年間の裁判の結果、小坪村に属し東小坪の新宿海岸として西小坪の小坪海岸とともに漁師の拠点であった。	NO_PRONOUNCE	NO_LABEL
その頃はマツの繁るひと気のない海岸だった。	そのころわまつのしげるひときのないかいがんだった。	NO_LABEL
1888年、丸富次郎が田越川河口に旅館養神亭を開業し、1889年の横須賀線逗子駅の開業によって新宿海岸周辺に別荘が建ち始めた。	せんはっぴゃくはちじゅうはちねん、まるとみじろーがたごえがわかこーにりょかんよーしんていをかいぎょーし、せんはっぴゃくはちじゅうきゅうねんのよこすかせんずしえきのかいぎょーによってしんじゅくかいがんしゅーへんにべっそーがたちはじめた。	NO_LABEL
日露戦争終結後の1906年2月3日、新宿浜近くに別荘を持つ東郷平八郎の祝勝会で新宿浜を東郷浜と改称した。	にちろせんそーしゅーけつごのせんきゅうひゃくろくねんにがつみっか、しんじゅくはまちかくにべっそーをもつとーごーへいはちろーのしゅくしょーかいでしんじゅくはまをとーごーはまとかいしょーした。	NO_LABEL
大正期ごろより海水浴客で賑わうようになった。	たいしょーきごろよりかいすいよくきゃくでにぎわうよーになった。	NO_LABEL
1926年には逗子ホテルが創業した。	せんきゅうひゃくにじゅうろくねんにわずしほてるがそーぎょーした。	NO_LABEL
大正天皇が葉山御用邸で療養していた時期には養神亭や逗子ホテルで若槻内閣閣僚や皇族が執務を行った。	たいしょーてんのーがはやまごよーていでりょーよーしていたじきにわよーしんていやずしほてるでわかつきないかくかくりょーやこーぞくがしつむをおこなった。	NO_LABEL
1929年には国鉄によって国鉄海の家が設置された。	せんきゅうひゃくにじゅうきゅうねにわこくてつによってこくてつうみのいえがせっちされた。	NO_LABEL
1950年、日米対抗の「逗子モーターボートレース」を開催。	NO_PRONOUNCE	NO_LABEL
現在の競艇の元となったといわれる。	げんざいのきょーていのもととなったといわれる。	NO_LABEL
2014年3月に規制条例が制定され、刺青やタトゥー、音楽鑑賞、飲酒、バーベキューが禁止となった。	にせんじゅうよねんさんがつにきせいじょーれいがせいていされ、しせいやたとぅー、おんがくかんしょー、いんしゅ、ばーべきゅーがきんしとなった。	NO_LABEL
