三松駅は、福井県大飯郡高浜町東三松にある、西日本旅客鉄道小浜線の駅である。	さむそんえきわ、ふくいけんおーいぐんたかはまちょうひがしみつまつにある、にしにほんりょかくてつどーおばませんのえきである。	NO_LABEL
敦賀方面に向かって左側に単式ホーム1面1線を有する地上駅。	NO_PRONOUNCE	NO_LABEL
定期列車は各駅に停車するため全て停車するが、臨時列車は通過となる場合もある。	ていきれっしゃわかくえきにていしゃするためすべてていしゃするが、りんじれっしゃわつーかとなるばあいもある。	NO_LABEL
駅舎は電化後の2005年3月頃に「ラ・ポルト三松」という名の薄い茶色を基調としたものに改築され、スロープなどバリアフリー設備も整った。	NO_PRONOUNCE	NO_LABEL
しかし駅舎は窓口はなく待合室程度の機能に過ぎず、依然として無人駅のままである。	しかしえきしゃわまどぐちわなくまちあいしつていどのきのーにすぎず、いぜんとしてむじんえきのままである。	NO_LABEL
自動券売機も設置されていない。	じどーけんばいきもせっちされていない。	NO_LABEL
「福井県統計年鑑」によると、2016年度の1日平均乗車人員は87人である。	NO_PRONOUNCE	NO_LABEL
近年の1日平均乗車人員は以下の通り。	きんねんのついたちへいきんじょーしゃじんいんわいかのとーり。	NO_LABEL
京都交通の東三ツ松停留所が、国道27号線上に設置されている。	きょーとこうつーのひがしみつまつていりゅーじょが、こくどーにじゅうななごーせんじょーにせっちされている。	NO_LABEL
