上野原町は、山梨県の北都留郡にあった町。	うえのはらまちわ、やまなしけんのきたつるぐんにあったまち。	NO_LABEL
2005年2月13日に隣接する南都留郡秋山村と合併、上野原市となり消滅した。	にせんごねんにがつじゅうさんにちにりんせつするみなみつるぐんあきやまむらとがっぺい、うえのはらしとなりしょーめつした。	NO_LABEL
平成の大合併以前の山梨県における町の中で白根町、形町、甲西町、敷島町、中道町、白州町、河口湖町とともに数少なく「まち」と読む自治体であった。	NO_PRONOUNCE	NO_LABEL
郡内地方には縄文時代の遺跡が数多く分布するが、町域でも桂川や鶴川沿いを中心に数多くの遺跡があり、近年の開発により新たな発見が相次いでいる。	ぐんないちほーにわじょーもんじだいのいせきがかずおーくぶんぷするが、ちょういきでもかつらがわやつるがわぞいをちゅーしんにすーおーくのいせきがあり、きんねんのかいはつによりあらたなはっけんがあいついでいる。	NO_LABEL
縄文時代には中期をピークに早期からの遺跡が発掘されているが後晩期には減少し、弥生時代以降の遺跡は少ない。	じょーもんじだいにわちゅーきをぴーくにそーきからのいせきがはっくつされているがのちばんきにわげんしょーし、やよいじだいいこーのいせきわすくない。	NO_LABEL
古代の律令制下では都留郡に属し、町域は南西部が都留郷に、東部は古郡郷に属していたと考えられている。	こだいのりつりょーせいかでわつるぐんにぞくし、ちょういきわなんせいぶがつるさとに、とーぶわふるごおりさとにぞくしていたとかんがえられている。	NO_LABEL
平安時代後期、上野原を中心とする古郡は武蔵七党の横山氏から分出した古郡氏の支配が及び、鎌倉時代の建暦3年には和田合戦で古郡氏が滅亡すると加藤氏が支配し、両氏が支配拠点とした居館と伝わる内城館跡がある。	へいあんじだいこーき、うえのはらをちゅーしんとするふるごおりわむさししちとーのよこやましからぶんだしたふるごおりしのしはいがおよび、かまくらじだいのけんりゃくさんねんにわわだがっせんでふるごおりしがめつぼーするとかとーしがしはいし、りょーしがしはいきょてんとしたきょかんとつたわるうちじろかんあとがある。	NO_LABEL
都留郡は甲斐国と武蔵国・相模国の国境であるため交流が強い一方で係争も起こっている。	NO_PRONOUNCE	NO_LABEL
室町時代の応永33年には鎌倉公方の足利持氏による武田信長追討の侵攻を受けており、文明10年には加藤氏が長尾景春の乱に荷担したため、太田道灌の侵攻を受けた。	むろまちじだいのおおえさんじゅうさんねんにわかまくらくぼーのあしかがもちうじによるたけだのぶながついとーのしんこーをうけており、ぶんめいじゅうねんにわかとーしがながおかげはるのらんにかたんしたため、おーたどーかんのしんこーをうけた。	NO_LABEL
戦国時代には相模国の後北条氏との関係が強まり、外交関係の変化に伴いさまざまな出来事が起こっている。	せんごくじだいにわさがみのくにのごほーじょーしとのかんけいがつよまり、がいこーかんけいのへんかにともないさまざまなできごとがおこっている。	NO_LABEL
享禄3年に八坪坂において後北条氏と郡内地方を領する国衆・小山田氏との合戦が起こっており、天文23年には武田晴信の娘が後北条氏に嫁ぐ際に上野原において引き渡されている。	NO_PRONOUNCE	NO_LABEL
加藤氏は国中地方を領する守護武田氏に属して国境の防備にあたり、戦国時代の永禄12年には武田氏による相模侵攻にも加わっている。	かとーしわくになかちほーをりょーするしゅごたけだしにぞくしてこっきょーのぼーびにあたり、せんごくじだいのえいろくじゅうにねんにわたけだしによるさがみしんこーにもくわわっている。	NO_LABEL
西原には武田氏の一族である西原武田氏が配置されており、同所に鎮座する一宮神社は一宮浅間神社を勧請した神社であるという。	にしはらにわたけだしのいちぞくであるにしばらたけだしがはいちされており、どーしょにちんざするいちのみやじんじゃわいちのみやせんげんじんじゃをかんじょーしたじんじゃであるという。	NO_LABEL
西原武田氏の詳細は不明であるが、『甲斐国志』によれば西原に居館があり「丹波屋敷」と称されていたという。	NO_PRONOUNCE	NO_LABEL
一宮神社の天文9年の棟札には檀那として「源朝朝臣武田四郎太郎有氏」の名が見られ、『甲斐国草稿』によれば、天正2年の棟札には武田有氏の名が記されていたという。	NO_PRONOUNCE	NO_LABEL
大椚の日野集落の西部には長峰砦跡が所在する。	おーくぬぎのひのしゅーらくのせいぶにわながみねとりであとがしょざいする。	NO_LABEL
長峰砦は中世の山城で、一帯には大倉砦や牧野砦など複数の城砦が分布している。	ながみねとりでわちゅーせいのやましろで、いったいにわおーくらとりでやまきのとりでなどふくすーのじょうさいがぶんぷしている。	NO_LABEL
近世には甲州街道沿いに位置していることから、武蔵・相模方面に備えた国境警備の城郭であったと考えられている。	NO_PRONOUNCE	NO_LABEL
『甲斐国志』では城主を加藤景忠とする説を紹介しつつ、これを否定している。	NO_PRONOUNCE	NO_LABEL
近世には、浅野氏時代の文禄3年に行われた検地により16か村が成立する。	NO_PRONOUNCE	NO_LABEL
谷村藩・秋元氏時代には21か村に増加する。	NO_PRONOUNCE	NO_LABEL
近世甲斐国の地域区分である九筋二領では全村が都留郡に属する。	きんせいかいのくにのちいきくぶんであるくすじにりょーでわぜんむらがつるぐんにぞくする。	NO_LABEL
享保9年には甲斐一国が幕府直轄領となり、町域の諸村の幕領となる。	きょうほきゅうねんにわかいいちこくがばくふちょっかつりょーとなり、ちょういきのもろむらのまくりょーとなる。	NO_LABEL
江戸時代には、町域南部の桂川・仲間川沿いに甲州街道が整備され、上野原宿・鶴川宿・野田尻宿・犬目宿の4宿が設置される。	NO_PRONOUNCE	NO_LABEL
上野原宿では六歳市が開かれた。	うえのはらじゅくでわろっさいしがひらかれた。	NO_LABEL
このため、生業はわずかな農業と林業などの山稼ぎのほか、街道での駄賃稼ぎや郡内織生産を中心とする郡内地方特有の形態となっている。	このため、なりわいわわずかなのーぎょーとりんぎょーなどのやまかせぎのほか、かいどーでのだちんかせぎやぐんないおせいさんをちゅーしんとするぐんないちほーとくゆーのけいたいとなっている。	NO_LABEL
天保7年8月に郡内から発生し、甲斐一国の騒動となった郡内騒動では、犬目村の組頭・兵助が下和田村の武七とともに首謀者となった。	NO_PRONOUNCE	NO_LABEL
犬目峠は甲州街道の名所として知られ、天保元年から刊行された葛飾北斎『冨嶽三十六景』には「甲州犬目峠」があり、嘉永5年頃に刊行された歌川広重『不二三十六景』には「甲斐犬目峠」、広重没後刊行の『富士三十六景』では「甲斐犬目峠」が描かれている。	NO_PRONOUNCE	NO_LABEL
近代には1901年に中央線が上野原町まで開通する。	きんだいにわせんきゅうひゃくいちねんにちゅーおーせんがうえのはらまちまでかいつーする。	NO_LABEL
また、道路整備により交通の拠点としての地位は低下する。	また、どーろせいびによりこーつーのきょてんとしてのちいわていかする。	NO_LABEL
戦後には首都圏に組み込まれベッドタウン化が進んだ。	せんごにわしゅとけんにくみこまれべっどたうんかがすすんだ。	NO_LABEL
