国道481号は、大阪府泉佐野市内を通る一般国道。	NO_PRONOUNCE	NO_LABEL
関西国際空港と阪和自動車道を結ぶ延長10.4 kmの一般国道の路線で、いわゆる港国道の一つ。	NO_PRONOUNCE	NO_LABEL
一般道路部は、ほぼ全線にわたって関西空港自動車道と並行しており、空連道と呼ばれる。	いっぱんどーろぶわ、ほぼぜんせんにわたってかんさいくーこーじどーしゃどーとへいこーしており、そられんどーとよばれる。	NO_LABEL
起点の関西国際空港からりんくうジャンクション間は、自動車専用の有料道路である関西国際空港連絡橋として供用しており、高速自動車国道である関西空港自動車道と直結する。	きてんのかんさいこくさいくーこーからりんくーじゃんくしょんかんわ、じどーしゃせんよーのゆーりょーどーろであるかんさいこくさいくーこーれんらくきょーとしてきょーよーしており、こーそくじどーしゃこくどーであるかんさいくーこーじどーしゃどーとちょっけつする。	NO_LABEL
なお、2009年4月28日まで関西国際空港連絡橋は国道ではなく、空港施設として関西国際空港株式会社が管理していた海上連絡橋であった。	なお、にせんきゅうねんしがつにじゅうはちにちまでかんさいこくさいくーこーれんらくきょーわこくどーでわなく、くーこーしせつとしてかんさいこくさいくーこーかぶしきがいしゃがかんりしていたかいじょーれんらくきょーであった。	NO_LABEL
一般道路部は空港島および海上には存在せず、りんくうタウン駅直下の大阪府道29号大阪臨海線交点から終点までが実質的な道路である。	いっぱんどーろぶわくーこーとーおよびかいじょーにわそんざいせず、りんくーたうんえきちょっかのおーさかふどーにじゅうきゅうごーおーさかりんかいせんこーてんからしゅーてんまでがじっしつてきなどーろである。	NO_LABEL
2005年度交通量 H17平日	NO_PRONOUNCE	NO_LABEL
