たぬきごはんは、日本のお笑いコンビ。	たぬきごはんわ、にっぽんのおわらいこんび。	NO_LABEL
所属は松竹芸能。	しょぞくわしょーちくげいのー。	NO_LABEL
2011年中に、ピン芸人だったほりと、ジャパニウムを解散した宍倉によって、たぬきごはん結成。	にせんじゅういちねんちゅーに、ぴんげいにんだったほりと、じゃぱにうむをかいさんしたししくらによって、たぬきごはんけっせい。	NO_LABEL
宍倉から声をかけて結成した。	ししくらからこえをかけてけっせいした。	NO_LABEL
2016年のM-1グランプリで、準々決勝まで進出。	にせんじゅうろくねんのえむわんぐらんぷりで、じゅんじゅんけっしょーまでしんしゅつ。	NO_LABEL
コント、漫才共に演じている。	こんと、まんざいどもにえんじている。	NO_LABEL
主に宍倉がボケ、ほりがツッコミツッコミ役で、ネタの途中でマイクから離れて相方の宍倉と共にステージ隅に座り込み、宍倉を諭すような会話をする、といったようなネタのスタイルがある。	おもにししくらがぼけ、ほりがつっこみつっこみやくで、ねたのとちゅーでまいくからはなれてあいかたのししくらとともにすてーじすみにすわりこみ、ししくらをさとすよーなかいわをする、といったよーなねたのすたいるがある。	NO_LABEL
2015年からは、一部でボケとツッコミが逆転したようなネタも見せている他、同年からはほりが「西園寺綾雨」、宍倉がその執事と言うキャラクターに扮しての漫才も披露している。	NO_PRONOUNCE	NO_LABEL
西園寺綾雨と執事のキャラ設定のネタは、ほりが着物を着た時に先輩から「地主の娘と執事に見える」と言われたことがきっかけだった。	NO_PRONOUNCE	NO_LABEL
なお、ほりはtwitterのアカウントを自分のものの他に、2017年4月から西園寺綾雨としてのアカウントのものも持っている。	なお、ほりわついったーのあかうんとをじぶんのもののほかに、にせんじゅうななねんしがつからさいおんじあやうとしてのあかうんとのものももっている。	NO_LABEL
ネタ作成については、やりたいこととその設定についてはほりが、ネタを工夫して加工するのは宍倉がそれぞれ担当している。	ねたさくせいについてわ、やりたいこととそのせっていについてわほりが、ねたをくふーしてかこーするのわししくらがそれぞれたんとーしている。	NO_LABEL
2017年3月4日、たぬきごはん初単独ライブ 「雲に佇み 虹を描く」を開催した。	NO_PRONOUNCE	NO_LABEL
