保戸野八丁は秋田県秋田市にある町。	ほどのはっちょーわあきたけんあきたしにあるまち。	NO_LABEL
郵便番号は010-0903。	NO_PRONOUNCE	NO_LABEL
住居表示実施済み地区。	じゅーきょひょーじじっしずみちく。	NO_LABEL
本項では、保戸野八丁の前身であり1966年4月1日に廃止された保戸野八丁新町上丁・保戸野八丁新町下丁についても記述する。	NO_PRONOUNCE	NO_LABEL
秋田市の中央部、保戸野地域の中では北部に位置する。	あきたしのちゅーおーぶ、ほどのちいきのなかでわほくぶにいちする。	NO_LABEL
ほぼ全域が住宅地で、特に北部は新興住宅街である。	ほぼぜんいきがじゅーたくちで、とくにほくぶわしんこーじゅーたくがいである。	NO_LABEL
保戸野金砂町の秋田県立秋田工業高等学校の裏手に当たり、秋田県道233号土崎港秋田線と工業高校に挟まれて北端へ向け細長く延びる町域になっている。	NO_PRONOUNCE	NO_LABEL
東は保戸野金砂町、南東は旭川を挟んで千秋中島町、南は秋田市道を挟んで保戸野中町、南西は秋田市道・県道233号を挟んで保戸野原の町、北西は県道233号を挟んで泉南三丁目・保戸野桜町に隣接する。	NO_PRONOUNCE	NO_LABEL
北端では僅かに5m程度だが、奥羽本線を挟んで泉馬場とも接している。	ほくたんでわわずかにごめーとるていどだが、おーうほんせんをはさんでいずみばばともせっしている。	NO_LABEL
久保田城下で小禄の家臣や小人が居住した保戸野八丁新町上丁・下丁と、近郊農村である泉村の一部などを前身とする。	NO_PRONOUNCE	NO_LABEL
宝暦9年の城下町絵図では下丁が「天徳寺街道新町」と書かれ、享和3年の『出羽国郡村仮名附帳』でも「天徳寺街道新町」の記載がある。	NO_PRONOUNCE	NO_LABEL
万延元年の『佐竹藩士禄附町附覚』では八丁新町となっていることから、この間の改称と推定されている。	NO_PRONOUNCE	NO_LABEL
天徳寺街道沿いで隣接した泉村の小字である八丁から名を取ったもので、天徳寺から8町の意であるという。	NO_PRONOUNCE	NO_LABEL
下丁は保戸野袋小路とも呼ばれた。	しもよーろわほどのふくろこーじともよばれた。	NO_LABEL
久保田藩士の橋本秀実が書いた『八丁夜話』は、秀実が保戸野八丁新町下丁に住んだことに由来するが、屋敷の場所は判っていない。	NO_PRONOUNCE	NO_LABEL
以下はすべて住居表示実施に伴う変更。	いかわすべてじゅーきょひょーじじっしにともなうへんこー。	NO_LABEL
2016年10月1日現在の世帯数と人口は以下の通りである。	にせんじゅうろくねんじゅーがつついたちげんざいのせたいすーとじんこーわいかのとーりである。	NO_LABEL
町内に鉄道路線はない。	ちょーないにてつどーろせんわない。	NO_LABEL
最寄り駅は中通七丁目にあるJR東日本奥羽本線・羽越本線・秋田新幹線の秋田駅。	NO_PRONOUNCE	NO_LABEL
また、南端の保戸野新橋付近を楢山大回り線が通過する。	また、なんたんのほどのしんばしふきんをならやまおーまわりせんがつーかする。	NO_LABEL
