MEJIBRAYは、日本のヴィジュアル系ロックバンド。	NO_PRONOUNCE	NO_LABEL
2011年6月18日から活動を開始する。	にせんじゅういちねんろくがつじゅうはちにちからかつどーをかいしする。	NO_LABEL
当初は綴のソロ活動でメンバーはサポートとして活動した後に加入し5人になったが、同年10月1日付で一風が脱退し、4人構成となる。	とーしょわつずりのそろかつどーでめんばーわさぽーととしてかつどーしたのちにかにゅーしごにんになったが、どーねんじゅーがつついたちずけでいっぷーがだったいし、よにんこーせいとなる。	NO_LABEL
その後、2012年10月から11月にかけて初のワンマンツアーを開催。	そのご、にせんじゅうにねんじゅーがつからじゅーいちがつにかけてはつのわんまんつあーをかいさい。	NO_LABEL
2013年には全国30箇所を回る大規模なツアーを展開し、そのツアーファイナルであるTSUTAYA O-EAST公演で、当時の自身最大キャパシティとなる会場Zepp Divercity Tokyo公演をファイナルに据えた3周年記念7大都市ワンマンツアーを発表した。	NO_PRONOUNCE	NO_LABEL
その3周年記念7大都市ワンマンツアーのさなか、ドラマーのメトが転倒事故によって骨折。	NO_PRONOUNCE	NO_LABEL
2014年5月23日広島ナミキジャンクション公演から6月6日Zepp Divercity Tokyo公演までの5公演を延期とし、9月8日から振替公演を行った。	NO_PRONOUNCE	NO_LABEL
初の海外公演となる聖夜狂想祭-Halloween Party-に2014年11月1日参加。	NO_PRONOUNCE	NO_LABEL
2014年12月22日、渋谷公会堂にて初のホールワンマン。	にせんじゅうよねんじゅーにがつにじゅうににち、しぶやこうかいどーにてはつのほーるわんまん。	NO_LABEL
この公演はライブではなくショーと銘打たれ、MEJIBRAYの新境地をみせた。	このこーえんわらいぶでわなくしょーとめいうたれ、めじぶれいのしんきょーちをみせた。	NO_LABEL
2015年9月5日には、初の野外ワンマンである日比谷野外音楽堂公演を行った。	にせんじゅうごねんくがついつかにわ、はつのやがいわんまんであるひびややがいおんがくどーこーえんをおこなった。	NO_LABEL
2016年9月にヴィジュアル系専門音楽雑誌『SHOXX vol.286』の表紙を初めて単独で飾ることが発表されたが、販売元である音楽専科社の自己破産によって発売中止となった。	NO_PRONOUNCE	NO_LABEL
2017年5月10日、公式サイトより2017年内をもって活動休止を発表した。	にせんじゅうななねんごがつとおか、こーしきさいとよりにせんじゅうななねんないをもってかつどーきゅーしをはっぴょーした。	NO_LABEL
2017年12月31日、公式サイト上で綴、恋一が活動休止とともに所属事務所フォーラムとの専属契約を終了することが発表された。	にせんじゅうななねんじゅーにがつさんじゅういちにち、こーしきさいとじょーでつずり、こいいちがかつどーきゅーしとともにしょぞくじむしょふぉーらむとのせんぞくけいやくをしゅーりょーすることがはっぴょーされた。	NO_LABEL
攻撃的なギターに乗せたクリアなメロディラインと、ヘヴィなサウンドが特徴。	NO_PRONOUNCE	NO_LABEL
曲名をサビの頭に入れて3声でハモり、タイトルを繰り返すといった手法を行うことが多く、より印象に残りやすい楽曲作りを意識している。	NO_PRONOUNCE	NO_LABEL
