久米田 康治は、日本の漫画家。	くめたこーじわ、にほんのまんがか。	NO_LABEL
神奈川県出身。	かながわけんしゅっしん。	NO_LABEL
和光大学人文学部芸術学科卒業。	わこーだいがくじんぶんがくぶげいじゅつがっかそつぎょー。	NO_LABEL
神奈川県に生まれる。	かながわけんにうまれる。	NO_LABEL
和光大学在学中、美術の教員免許を取得。	わこーだいがくざいがくちゅー、びじゅつのきょーいんめんきょをしゅとく。	NO_LABEL
また、漫画研究会に所属し、松本大洋とは同期だったが、松本とは入れ違いの形になったという。	また、まんがけんきゅーかいにしょぞくし、まつもとたいよーとわどーきだったが、まつもととわいれちがいのかたちになったという。	NO_LABEL
卒業後は漫画編集者になろうと編集プロダクション・銀杏社の入社試験を受けるが合格せず、漫画家の道を選んだ。	NO_PRONOUNCE	NO_LABEL
1990年、サンデーまんがカレッジに『地上げにスマッシュ!』を投稿し努力賞、また『行け!!南国アイスホッケー部』により小学館新人コミック大賞を受賞し、漫画家としてデビューする。	NO_PRONOUNCE	NO_LABEL
デビュー直後、満田拓也の所に2日程アシスタントに行ったが、新人なので特に出来ることもなく何もせずにいただけだった、とも語っている。	でびゅーちょくご、みつだたくやのところにふつかほどあしすたんとにいったが、しんじんなのでとくにできることもなくなにもせずにいただけだった、ともかたっている。	NO_LABEL
1991年より『行け!!南国アイスホッケー部』を『週刊少年サンデー』にて連載。	NO_PRONOUNCE	NO_LABEL
初期はあだち充のような漫画を目指しスポーツコメディ漫画を描いていたが、突然下ネタ及びダジャレを多用するギャグ漫画に変化した。	しょきわあだちみつるのよーなまんがをめざしすぽーつこめでぃまんがをえがいていたが、とつぜんしもねたおよびだじゃれをたよーするぎゃぐまんがにへんかした。	NO_LABEL
また『行け!!南国アイスホッケー部』と並行して『ヤングサンデー』で『ルートパラダイス』、『週刊少年サンデー超』で『育ってダーリン!!』を連載した。	NO_PRONOUNCE	NO_LABEL
『育ってダーリン!!』の連載は1996年で一時中断し、そのまま長期間が経過しており、作者本人もこのことをネタにするほどだったが、2002年に『週刊少年サンデー』誌上にて完結編が掲載された。	NO_PRONOUNCE	NO_LABEL
1996年、『行け!!南国アイスホッケー部』の連載を終了し、その3週間後、『週刊少年サンデー』で『太陽の戦士ポカポカ』を翌年1997年まで連載する。	NO_PRONOUNCE	NO_LABEL
その後1998年より同誌で『かってに改蔵』を連載開始する。	NO_PRONOUNCE	NO_LABEL
この作品からパソコンを使っての執筆となる。	このさくひんからぱそこんをつかってのしっぴつとなる。	NO_LABEL
序盤は『行け!!南国アイスホッケー部』のような下ネタを用いることも多かったが、次第に世相や一般常識を皮肉るようなネガティブなものがほとんどとなり、時事的な話題のほかアニメ、美少女ゲームなどからのマニアックな話題や作者の私生活に関するネタも頻繁に取り上げた。	NO_PRONOUNCE	NO_LABEL
同作は2001年に第25回講談社漫画賞少年部門に「ノミネート」されている。	NO_PRONOUNCE	NO_LABEL
2004年、『かってに改蔵』の連載終了後、読み切り『いいがかり姉さん』の発表を経て、2005年、『週刊少年マガジン』で『さよなら絶望先生』の連載を開始する。	NO_PRONOUNCE	NO_LABEL
2007年、同作はアニメ化され、また2007年度講談社漫画賞少年部門を受賞した。	にせんななねん、どーさくわあにめかされ、またにせんななねんどこーだんしゃまんがしょーしょーねんぶもんをじゅしょーした。	NO_LABEL
『さよなら絶望先生』は2012年に終了し、その間に、『週刊少年マガジン』にて読み切り作を2本掲載するが、基本的には『じょしらく』の原作のみに専念していた。	NO_PRONOUNCE	NO_LABEL
2013年10月に『じょしらく』の連載が終了すると、2013年11月9日の『週刊少年マガジン』第45巻49号から2015年1月7日発行の第47巻6号まで『せっかち伯爵と時間どろぼう』を連載した。	NO_PRONOUNCE	NO_LABEL
2015年2月より白泉社の季刊漫画誌『楽園 Le Paradis』誌上で『スタジオパルプ』を、『月刊少年マガジン』2016年1月号より『かくしごと』を連載している。	NO_PRONOUNCE	NO_LABEL
『太陽の戦士ポカポカ』を境に『南国アイスホッケー部』と『かってに改蔵』以降とでは作風がやや異なっている。	NO_PRONOUNCE	NO_LABEL
『南国』は下ネタを重視したギャグマンガで、あらゆる話題を下ネタに結びつけ読者の笑いを誘うというものだった。	NO_PRONOUNCE	NO_LABEL
ただし断片的にではあるが、このころから「社会風刺」「作家いじり」といったネタも盛り込まれている。	NO_PRONOUNCE	NO_LABEL
その後、『ポカポカ』で「あるテーマを取り上げ、そこからネタを広げる」という形式が模索され、『改蔵』中盤で「毎回1つのテーマに沿って、皮肉や社会風刺などを交えながら考察を行う」という『さよなら絶望先生』に続く形式が確立した。	NO_PRONOUNCE	NO_LABEL
インタビューでは「嫌なことから連想してネタを作っていく、嫌なことはいくらでもあるから」とも語っている。	NO_PRONOUNCE	NO_LABEL
逆に『改蔵』中盤からは下ネタの頻度が減少し、『絶望先生』ではほとんど下ネタは見られなくなる。	NO_PRONOUNCE	NO_LABEL
その代わりアニメ・漫画・映画などマニアックなネタの割合が増えた。	NO_PRONOUNCE	NO_LABEL
また、同雑誌に連載している漫画家をネタにする漫画家いじりも数多くやっていた。	また、どーざっしにれんさいしているまんがかをねたにするまんがかいじりもかずおーくやっていた。	NO_LABEL
『週刊少年マガジン』に移った『さよなら絶望先生』以降は、編集部から身内いじりはやめてくれと懇願されたこともあり、身内いじりがなくなったが、古巣である『週刊少年サンデー』のネタを多く取り上げている。	NO_PRONOUNCE	NO_LABEL
声優オタクで恩知らずな元アシネタ、同じく講談社に移籍した雷句誠の『金色のガッシュ』原画紛失訴訟ネタ、『サンデー』と『マガジン』のタイアップによる江戸川コナンと金田一一競演時の暴露ネタなど。	NO_PRONOUNCE	NO_LABEL
ただし、雷句問題の際にこれらのネタが雷句支持派に文脈を無視して使われた事に関しては遺憾だったようである。	ただし、かみなりくもんだいのさいにこれらのねたがかみなりくしじはにぶんみゃくをむししてつかわれたことにかんしてわいかんだったよーである。	NO_LABEL
なお、移籍後も小学館と関係を解消したわけではなく、旧作の復刻を機に『週刊少年サンデー』連載陣による「まんが家バックステージ」の久米田のコーナーが復活しているほか、2011年には『改蔵』のOVA化を記念して『絶望先生」が少年サンデーに掲載され、後述の通り2013年には少年サンデーに読み切りを掲載している。	NO_PRONOUNCE	NO_LABEL
各話で主要人物が登場する際に、ページ4段ブチ抜き画法で人物を描く。	NO_PRONOUNCE	NO_LABEL
これはデビュー当時からの特徴であり、ヤスが作画を担当している『じょしらく』でも同様の描写が踏襲されている。	NO_PRONOUNCE	NO_LABEL
弟子の畑健二郎も初期に使っていたものの徐々に使用頻度は減っていった。	でしのはたけんじろーもしょきにつかっていたもののじょじょにしよーひんどわへっていった。	NO_LABEL
『改蔵』から『絶望先生』まで続く画風に関しては、キャラクターや衣装、構図などのデザインにおいて、漫画業界内、さらには『改蔵』公式ファンブック『かってに研究しやがれBOOK』で雑誌「ファッションニュース」編集長の向千鶴からも高評価を得ている。	NO_PRONOUNCE	NO_LABEL
編集部内で話題になった現実世界のファッションを何週か後に『改蔵』内で名取羽美が着ていたこともあったという。	NO_PRONOUNCE	NO_LABEL
「どよんど」「にょんたか」など、独特の擬音を作中で織り込むことでも知られ、特にメールを打つ際の擬音「めるめる」は『かってに改蔵』内で「著作権フリーなのでどんどん使ってください」と宣言して以来、漫画家の間でも広まっている。	NO_PRONOUNCE	NO_LABEL
特に『絶望先生』ではやや政治的なネタも見られるが、それは思想の押し付けではなく、久米田は「漫画が説教臭くなったらおしまいだ」と『改蔵』作中で登場人物に述べさせ、インタビューでも「その時々の報道内容をネタにしているため、思想が一定しない」旨の発言もしている。	NO_PRONOUNCE	NO_LABEL
『行け!!南国アイスホッケー部』後期にスクリーントーン処理に関してMacを導入して以降、次第にパソコンに頼る部分が多くなり、『かってに改蔵』以降は全工程においてパソコンを使い執筆している。	NO_PRONOUNCE	NO_LABEL
なおパソコン本格導入の背景には『ポカポカ』から『改蔵』に至る間にそれまでのアシスタントが独立することになったこともあると『改蔵』コミックス等で述べている。	NO_PRONOUNCE	NO_LABEL
『かってに改蔵』よりデジタル作成を導入した。	NO_PRONOUNCE	NO_LABEL
使用しているパソコンは一貫してアップル製のものである。	しよーしているぱそこんわいっかんしてあっぷるせいのものである。	NO_LABEL
はMac Pro 3.0GHz 8コアモデルを使用している。	NO_PRONOUNCE	NO_LABEL
ソフトはPhotoshop CS3。	NO_PRONOUNCE	NO_LABEL
メモリは8GB積んでいる。	めもりわはちぎがばいとつんでいる。	NO_LABEL
『南国』や『改蔵』初期では烏帽子のようなものを装着した根が明るいキャラの自画像を描き、『南国』の単行本に自身のヌード写真を掲載したり、サンデーの読者イベントでも同様の行動を行うなど、作品内容と同調した破天荒なキャラクターであった。	NO_PRONOUNCE	NO_LABEL
『改蔵』中期からは売れない漫画家と自虐的・ネガティブな発言を行うようになった。	NO_PRONOUNCE	NO_LABEL
このキャラクターは太宰治を意識して作り上げた面があり、『かってに改蔵』ファンブックには太宰治に扮して玉川上水縁に佇んだ写真が掲載されている。	NO_PRONOUNCE	NO_LABEL
文芸にも深識があり、後期の作品は、漫画的な流行りやおちょくりはあっても、基本内容はプロレタリア文学に近い。	ぶんげいにもふかしきがあり、こーきのさくひんわ、まんがてきなはやりやおちょくりわあっても、きほんないよーわぷろれたりあぶんがくにちかい。	NO_LABEL
メディアへの露出は少ないが、島本和彦のラジオに一度電話出演している。	めでぃあえのろしゅつわすくないが、しまもとかずひこのらじおにいちどでんわしゅつえんしている。	NO_LABEL
同ラジオのアシスタントは終始テンションの高い島本しか漫画家を知らず、漫画家＝テンションが高いものと考えていたらしく、終始テンションが低かった久米田に対し、何度も大丈夫ですかと気遣っていた。	NO_PRONOUNCE	NO_LABEL
このアシスタントは久米田との電話が終わった後のトークでは「本当に危ない人なのではないか」と思ったと発言している。	NO_PRONOUNCE	NO_LABEL
TVアニメ『さよなら絶望先生』の第4話から第9話で放映されたOPでは、白黒映像で出演している。	NO_PRONOUNCE	NO_LABEL
なお、この写真は後述の生前葬の時の遺影である。	なお、このしゃしんわこーじゅつのせいぜんそーのときのいえいである。	NO_LABEL
絶望先生のアニメでは「前田君」を初めとするアシスタント陣が声優出演を果たしているが、久米田本人の出演はなく、久米田とおぼしき無精髭の漫画家の声は神谷浩史が担当した。	NO_PRONOUNCE	NO_LABEL
『南国』時代に費用全額を自分で負担して、アシスタントをセブ島へ旅行に連れて行ったり、『改蔵』時代はミコノス島へ旅行に連れて行ったり、アニメ『さよなら絶望先生』のアフレコの度に声優に洋菓子を差し入れしたりするなど、ネガティブなキャラクターとは裏腹な、気前の良さを感じさせるエピソードもある。	NO_PRONOUNCE	NO_LABEL
アニメでは出崎統作品のファンで、特に『おにいさまへ…』はお気に入りという。	NO_PRONOUNCE	NO_LABEL
2007年6月21日に行われた講談社漫画賞少年部門受賞パーティーの2次会は、本人の生前葬という形で行われた。	にせんななねんろくがつにじゅういちにちにおこなわれたこーだんしゃまんがしょーしょーねんぶもんじゅしょーぱーてぃーのにじかいわ、ほんにんのせいぜんそーとゆうかたちでおこなわれた。	NO_LABEL
生前葬を行った理由の1つとして、「今まで縁のなかったアニメ化や賞受賞など幸運が続いたので、逆に不運が訪れそう」と厄払いの意味合いがあったと『絶望先生』第九集巻末やインタビューにて語っている。	NO_PRONOUNCE	NO_LABEL
生前葬は「千の風になって」をBGMに、入棺、焼香、『週刊少年マガジン』編集長と『週刊少年サンデー』編集長による別れの辞、出棺等まであるかなり本格的な生前葬となり、賞金以上の出費となったと記している。	NO_PRONOUNCE	NO_LABEL
戒名は「漫画院暗闇之助」。	NO_PRONOUNCE	NO_LABEL
生前葬は終始笑いに包まれていたようで、その様子が参加した複数の漫画家のブログにて語られている。	せいぜんそーわしゅーしわらいにつつまれていたよーで、そのよーすがさんかしたふくすーのまんがかのぶろぐにてかたられている。	NO_LABEL
また西本英雄『もう、しませんから。	NO_PRONOUNCE	NO_LABEL
』においてもレポートが書かれている。	NO_PRONOUNCE	NO_LABEL
『絶望先生』第十三集巻末によると、ウィキペディアの「生前葬」の「生前葬を行った主な有名人」の項目に自分の名前が載っていることから、漫画家であることがばれたり生前葬がらみの仕事の依頼が入ったりしたという。	NO_PRONOUNCE	NO_LABEL
「Wikipedia、恐るべしでございます。	NO_PRONOUNCE	NO_LABEL
」「漫画に興味はないのに、生前葬には興味のある人たちばかりなんですね。	NO_PRONOUNCE	NO_LABEL
」などと記している。	NO_PRONOUNCE	NO_LABEL
『週刊少年サンデー』に連載していたころは、自分の作品で他の漫画家やその作品をネタに用いることがしばしば見られ、あだち充、藤田和日郎、青山剛昌、村枝賢一、椎名高志、北崎拓、猪熊しのぶ、万乗大智といった同業の面々を茶化した描写があった。	NO_PRONOUNCE	NO_LABEL
特に北崎拓については、当時の久米田の作品、『行け!!南国アイスホッケー部』が完全にシモネタ中心になっていたのに対し、北崎の作品が純愛物であった為、自らの作風との対比として頻繁に作中でいじられた。	NO_PRONOUNCE	NO_LABEL
藤田は『改蔵』で接待を受ける漫画家として登場している。	NO_PRONOUNCE	NO_LABEL
マガジン転籍後も『名探偵コナン』ネタは使われている。	NO_PRONOUNCE	NO_LABEL
また逆に椎名は『GS美神 極楽大作戦!!』で、横島に「はーん」と叫ばせ、『絶対可憐チルドレン』で袴姿の薫に「絶望したー」と言わせる絶望先生ネタを披露している。	NO_PRONOUNCE	NO_LABEL
高橋留美子とは『週刊少年サンデー』の巻末コメントで、「一緒に歌舞伎を観に行きました」「また行きましょう、久米田先生」などとやり取りしており、プライベートな時間を共にしている仲。	NO_PRONOUNCE	NO_LABEL
久米田は高橋に『らんま1/2』の人気キャラ「八宝斎」を自身の作中に登場させて欲しいとねだった話がある。	NO_PRONOUNCE	NO_LABEL
生前葬にも参列した。	せいぜんそーにもさんれつした。	NO_LABEL
また、『さよなら絶望先生』アニメ第7話において、放送後の恒例となっているエンドカードを高橋が担当している。	NO_PRONOUNCE	NO_LABEL
『週刊少年サンデー』にて『ハヤテのごとく!』を連載している畑健二郎は久米田の元アシスタントで、アシスタント時代から時折久米田の漫画にもゲスト出演していた。	NO_PRONOUNCE	NO_LABEL
久米田がライバル誌に移籍し、畑が独立した現在でも2人の交流は続いており、WEBサンデーにある「まんが家BACK STAGE」の『ハヤテのごとく!』コーナーに度々登場しているほか、『俗・さよなら絶望先生』の第5話では畑がエンドカードを担当した。	NO_PRONOUNCE	NO_LABEL
一方『ハヤテのごとく!』劇中にも久米田をモデルとした漫画家が登場している。	NO_PRONOUNCE	NO_LABEL
また、その際は「師匠」と呼ばれている。	NO_PRONOUNCE	NO_LABEL
『サンデー』誌上で行われた『ハヤテのごとく!』のキャラクター人気投票にて作者・畑よりも順位が上の14位に入り自虐的なコメントを残した。	NO_PRONOUNCE	NO_LABEL
漫画賞授賞式や生前葬にはサイン会などによる多忙で参加できなかった。	まんがしょーじゅしょーしきやせいぜんそーにわさいんかいなどによるたぼーでさんかできなかった。	NO_LABEL
スケジュールの都合で『ハヤテのごとく!』のアフレコに参加できない畑が『懺・さよなら絶望先生』のアフレコに参加して声優のサインを集めたことも紙ブログでネタにしている。	NO_PRONOUNCE	NO_LABEL
『週刊少年サンデー』時代から赤松健とのやり取りがあった。	NO_PRONOUNCE	NO_LABEL
『改蔵』や『絶望先生』で赤松の『ラブひな』や『魔法先生ネギま!』をネタにし、後日、赤松が公式サイトの日記で「久米田の野郎」と発言した。	NO_PRONOUNCE	NO_LABEL
後に赤松はこの発言を、敵意ではなくジョークであり、「もっと弄ってくれ」の意であると弁解している。	NO_PRONOUNCE	NO_LABEL
『改蔵』が第25回講談社漫画賞少年部門にノミネートされたものの、受賞したのは『ラブひな』であったことも『改蔵』でネタにされた。	NO_PRONOUNCE	NO_LABEL
2007年現在は赤松と共に週刊少年マガジンで連載を持つが、実は面識はないという。	にせんななねんげんざいわあかまつとともにしゅーかんしょーねんまがじんでれんさいをもつが、じつわめんしきわないという。	NO_LABEL
また赤松が公式サイト2007年10月9日の日記において「何か久米田の野郎が、やっぱりウチのビルの近辺に生息しているらしく、雑誌『オトナアニメ』のインタビュー記事で、『赤松スタジオは高層マンションの最上階辺りで、いつも灯りがついているから分かる』みたいなことを言っておりました。	NO_PRONOUNCE	NO_LABEL
」と語っていることから、赤松スタジオの入居しているビルの近くに住んでいることと見られる。	NO_PRONOUNCE	NO_LABEL
また、赤松自身も久米田の作品をネタにしたことがあり、『ネギま!』20巻に『失望先公』という同人誌が登場する。	NO_PRONOUNCE	NO_LABEL
なお『失望先公』は後にアニメ『さよなら絶望先生』において藤吉の作成した同人誌として登場し、いわゆる逆輸入の形となっている。	NO_PRONOUNCE	NO_LABEL
島本和彦がパーソナリティを務めるラジオ番組『島本和彦のマンガチックにいこう!』に久米田が電話でゲスト出演したこともある。	NO_PRONOUNCE	NO_LABEL
上記4人は全員声優経験がある。	じょーきよにんわぜんいんせいゆーけいけんがある。	NO_LABEL
