ヘンリー・ギルマンはアメリカ合衆国の化学者。	へんりーぎるまんわあめりかがっしゅーこくのかがくしゃ。	NO_LABEL
マサチューセッツ州ボストンに生まれる。	まさちゅーせっつしゅーぼすとんにうまれる。	NO_LABEL
1919年から1962年までアイオワ州立大学で化学の教授を務めた。	せんきゅうひゃくじゅうきゅうねんからせんきゅうひゃくろくじゅうにねんまであいおわしゅーりつだいがくでかがくのきょーじゅをつとめた。	NO_LABEL
同大学の化学科の校舎は彼の名を冠している。	どーだいがくのかがくかのこーしゃわかれのなをかんしている。	NO_LABEL
また、ランドグラントのある大学から全米科学アカデミーの会員となった最初の化学者である。	また、らんどぐらんとのあるだいがくからぜんべいかがくあかでみーのかいいんとなったさいしょのかがくしゃである。	NO_LABEL
有機金属化学の父としても知られ、彼の名を冠するギルマン試薬を開発した。	ゆーききんぞくかがくのちちとしてもしられ、かれのなをかんするぎるまんしやくをかいはつした。	NO_LABEL
1938年に有機化学における最初の大きな教科書、"Organic chemistry, an advanced treatise" 全2巻を出版した。	NO_PRONOUNCE	NO_LABEL
これは1943年、1953年に増補された。	これわせんきゅうひゃくよんじゅうさんね、せんきゅうひゃくごじゅうさんねんにぞーほされた。	NO_LABEL
