テレビ野球ゲームは、エポック社が1978年に発売した家庭向けテレビゲーム。	てれびやきゅーげーむわ、えぽっくしゃがせんきゅうひゃくななじゅうはちねんにはつばいしたかていむけてれびげーむ。	NO_LABEL
エポック社が発売した、国内初の野球ゲーム専用のテレビゲーム機。	えぽっくしゃがはつばいした、こくないはつのやきゅーげーむせんよーのてれびげーむき。	NO_LABEL
NECが開発したマイコンを使用、野球盤をそのままテレビゲームにしたようなゲーム内容になっている。	えぬいーしーがかいはつしたまいこんをしよー、やきゅーばんをそのままてれびげーむにしたよーなげーむないよーになっている。	NO_LABEL
2人プレイ専用でコンピュータ対戦はできない。	ふたりぷれいせんよーでこんぴゅーたたいせんわできない。	NO_LABEL
発売当時の本体価格は18,500円、その後12,000円に値下げされた。	NO_PRONOUNCE	NO_LABEL
ACアダプタは別売1,400円だったが、実際には同梱されセット価格で販売されていた。	NO_PRONOUNCE	NO_LABEL
緑地の画面に斜線でファウルラインが引かれ、その内側に各ベースと "大" の字の形をした野手と投手が表示される。	NO_PRONOUNCE	NO_LABEL
バッタースボックスの位置には、バットを表す棒が表示され、バットを振ると棒が一回転する。	ばったーすぼっくすのいちにわ、ばっとをあらわすぼーがひょーじされ、ばっとをふるとぼーがいちかいてんする。	NO_LABEL
この他にピッチャーが投球する毎に、三塁側ファウルゾーンにイニング数と得点、一塁側ファウルゾーンにボールカウントが表示される。	このほかにぴっちゃーがとーきゅーするごとに、さんるいがわふぁうるぞーんにいにんぐすーととくてん、いちるいがわふぁうるぞーんにぼーるかうんとがひょーじされる。	NO_LABEL
チームカラーは先攻が赤、後攻が青である。	ちーむからーわせんこーがあか、こーおさむがあおである。	NO_LABEL
守備側が本体上のコントローラを、攻撃側がパッドを使用する。	しゅびがわがほんたいじょーのこんとろーらを、こーげきがわがぱっどをしよーする。	NO_LABEL
守備側はパドルで外野手の位置を調整して、コース選択レバーで投球コースを決め、投球ボタンで投球する。	しゅびがわわぱどるでがいやしゅのいちをちょーせいして、こーすせんたくればーでとーきゅーこーすをきめ、とーきゅーぼたんでとーきゅーする。	NO_LABEL
攻撃側は、投球されたボールに合わせてバットを振るか見送る。	こーげきがわわ、とーきゅーされたぼーるにあわせてばっとをふるかみおくる。	NO_LABEL
バッターがボールを打った場合、打ったボールを内野手または外野手がキャッチすると、バッターがアウトになる。	ばったーがぼーるをうったばあい、うったぼーるをないやしゅまたわがいやしゅがきゃっちすると、ばったーがあうとになる。	NO_LABEL
バッターがボールを打った後にパドルで外野手を動かすことで、一応ダイビングキャッチも可能である。	ばったーがぼーるをうったのちにぱどるでがいやしゅをうごかすことで、いちおーだいびんぐきゃっちもかのーである。	NO_LABEL
野手がボールを取れずに外野を抜けると、抜けたコースによってヒットからホームランになり、その分だけバッター及びランナーが進塁する。	のてがぼーるをとれずにがいやをぬけると、ぬけたこーすによってひっとからほーむらんになり、そのぶんだけばったーおよびらんなーがすすむるいする。	NO_LABEL
基本的にランナーがアウトになる事はないが、一塁にランナーがいてショートがボールを取った場合はゲッツーになる。	きほんてきにらんなーがあうとになることわないが、いちるいにらんなーがいてしょーとがぼーるをとったばあいわげっつーになる。	NO_LABEL
3アウトでチェンジになったら、守備側と攻撃側でコントローラーを入れ替える。	NO_PRONOUNCE	NO_LABEL
9回が終わるとゲーム終了である。	きゅうかいがおわるとげーむしゅーりょーである。	NO_LABEL
ホームランコースは、センターど真ん中、もしくは一塁側ファウルラインぎりぎりである。	ほーむらんこーすわ、せんたーどまんなか、もしくわいちるいがわふぁうるらいんぎりぎりである。	NO_LABEL
よってセンターをピッチャーの真後ろに配置させれば、センター方向へのホームランは防ぐことが出来る。	よってせんたーをぴっちゃーのまうしろにはいちさせれば、せんたーほーこーえのほーむらんわふせぐことができる。	NO_LABEL
