『ウルトラマンティガ外伝 古代に蘇る巨人』は、2001年1月25日に発売された円谷プロダクション製作のオリジナルビデオで、テレビ番組『ウルトラマンティガ』の外伝作品である。	NO_PRONOUNCE	NO_LABEL
ウルトラマンダイナことアスカ・シンがグランスフィアを倒し、その姿を消してから20年の月日が流れた。	うるとらまんだいなことあすかしんがぐらんすふぃあをたおし、そのすがたをけしてからにじゅうねんのつきひがながれた。	NO_LABEL
かつてウルトラマンティガとなって戦ったGUTS隊員マドカ・ダイゴの息子マドカ・ツバサは、ネオスーパーGUTS訓練生としての卒業テスト中に遭遇したジョーモノイドと共に時空の裂け目に呑み込まれてしまった。	NO_PRONOUNCE	NO_LABEL
たどり着いた場所は、5000年前の縄文時代だった。	NO_PRONOUNCE	NO_LABEL
ジョーモノイドの攻撃を受けたツバサは、マホロバが持ってきた青銅スパークレンスを使い、見事ティガに変身。	じょーものいどのこーげきをうけたつばさわ、まほろばがもってきたせいどーすぱーくれんすをつかい、みごとてぃがにへんしん。	NO_LABEL
ジョーモノイドに立ち向かうが苦戦を強いられる。	じょーものいどにたちむかうがくせんをしいられる。	NO_LABEL
何とか追い返したものの縄文時代を征服しようとする悪者達の影が潜んでいた。	なんとかおいかえしたもののじょーもんじだいをせいふくしようとするわるものたちのかげがひそんでいた。	NO_LABEL
イザレの巫女によると、ツバサは光が弱く不完全な状態のティガにしかなれないと言う。	いざれのみこによると、つばさわひかりがよわくふかんぜんなじょーたいのてぃがにしかなれないという。	NO_LABEL
その夜、村にジョーモノイドとドグーフが出現。	そのよる、むらにじょーものいどとどぐーふがしゅつげん。	NO_LABEL
ツバサは再びティガに変身し、苦戦しつつもジョーモノイドを倒す。	つばさわふたたびてぃがにへんしんし、くせんしつつもじょーものいどをたおす。	NO_LABEL
しかし、ドグーフの不意打ちを受けて倒されてしまう。	しかし、どぐーふのふいうちをうけてたおされてしまう。	NO_LABEL
完全なティガになれるものはいるのか、そして村の平和は守れるのか。	かんぜんなてぃがになれるものわいるのか、そしてむらのへいわわまもれるのか。	NO_LABEL
ウルトラマンが縄文時代で戦うという外伝作品ならではの異色作。	うるとらまんがじょーもんじだいでたたかうとゆうがいでんさくひんならでわのいしょくさく。	NO_LABEL
縄文時代という設定は監督の村石宏實がウルトラシリーズとは別に検討していた作品案を取り入れたことによる。	じょーもんじだいとゆうせっていわかんとくのむらいしひろちかがうるとらしりーずとわべつにけんとーしていたさくひんあんをとりいれたことによる。	NO_LABEL
企画案自体は『ウルトラマンティガ』の終了頃から温められていたが、『ウルトラマンダイナ』や『ウルトラマンガイア』、『ブースカ! ブースカ!!』などテレビシリーズの制作が続いたため実現せず、『ブースカ』の終了が決定した2000年初めに『ウルトラマンダイナ 帰ってきたハネジロー』、『ウルトラマンガイア ガイアよ再び』を併せた3部作として立ち上げられた。	NO_PRONOUNCE	NO_LABEL
監督は平成ウルトラシリーズ3部作を手掛けた村石宏實が担当。	かんとくわへいせいうるとらしりーずさんぶさくをてがけたむらいしひろちかがたんとー。	NO_LABEL
脚本は番外編であることから、これまでの執筆経験者ではなく、村石の旧知である山本優が担当した。	きゃくほんわばんがいへんであることから、これまでのしっぴつけいけんしゃでわなく、むらいしのきゅーちであるやまもとまさるがたんとーした。	NO_LABEL
ビデオ3部作の中では最も早期に企画が立ち上げられたため、予算やロケ時間がほかより多くとられている。	びでおさんぶさくのなかでわもっともそーきにきかくがたちあげられたため、よさんやろけじかんがほかよりおーくとられている。	NO_LABEL
『ウルトラマンティガ』『ウルトラマンダイナ』『ウルトラマンガイア』の出演者が縄文人役で出演しているのも特徴。	NO_PRONOUNCE	NO_LABEL
ツバサ役の山口翔吾は、完全版監督の原田昌樹がメイキングDVDの構成・演出を担当した縁で、後に『魔弾戦記リュウケンドー』の鳴神剣二役に抜擢された。	NO_PRONOUNCE	NO_LABEL
怪獣の大きさを従来よりも小さ目に設定するなど、村石は特撮での怪獣ものとしての面白さが追求したとしている。	かいじゅーのおーきさをじゅーらいよりもちーさめにせっていするなど、むらいしわとくさつでのかいじゅーものとしてのおもしろさがついきゅーしたとしている。	NO_LABEL
撮影ロケ地は神奈川県横浜市都筑区の横浜市営地下鉄センター北駅近くの大塚・歳勝土遺跡公園と栃木県岩舟山で撮影された。	さつえいろけちわかながわけんよこはましつずきくのよこはましえいちかてつせんたーきたえきちかくのおーつかさいかちどいせきこーえんととちぎけんいわふねさんでさつえいされた。	NO_LABEL
『ウルトラマンサーガ』が製作されるまでは『ウルトラマンダイナ』のその後の世界が描かれる唯一の作品であった。	NO_PRONOUNCE	NO_LABEL
2018年現在、『ティガ』『ダイナ』の世界を舞台とする作品群において時系列が最後となっている。	NO_PRONOUNCE	NO_LABEL
※クレジット順	NO_PRONOUNCE	NO_LABEL
