『フランケンシュタインの逆襲』は、1965年、アメリカのヴァーノン・セネカ・フィルムズが製作したSF映画。	NO_PRONOUNCE	NO_LABEL
同一邦題のイギリス映画『フランケンシュタインの逆襲』とは無関係である。	NO_PRONOUNCE	NO_LABEL
宇宙開発用に造られた人造人間のサンダース大佐は、ロケットで打ち上げられたが、地球に侵入しようとしていた火星人の宇宙船に撃墜されてしまった。	うちゅーかいはつよーにつくられたじんぞーにんげんのさんだーすたいさわ、ろけっとでうちあげられたが、ちきゅーにしんにゅーしようとしていたかせいじんのうちゅうせんにげきついされてしまった。	NO_LABEL
辛くも脱出した彼は、追って来た火星人のレーザー銃で顔の半分を焼かれ、回路も狂ってしまう。	からくもだっしゅつしたかれわ、おってきたかせいじんのれーざーじゅーでかおのはんぶんをやかれ、かいろもくるってしまう。	NO_LABEL
一方、火星人は生殖能力が退化したため、地球の女性を誘拐する目的で宇宙船を着陸させ活動を始める。	いっぽー、かせいじんわせいしょくのーりょくがたいかしたため、ちきゅーのじょせいをゆーかいするもくてきでうちゅうせんをちゃくりくさせかつどーをはじめる。	NO_LABEL
原題のフランケンシュタインとして狂ったサンダースは、追跡して来た創造主のアダム博士に修理され、正常に戻って火星人と対決する。	げんだいのふらんけんしゅたいんとしてくるったさんだーすわ、ついせきしてきたそーぞーしゅのあだむはかせにしゅーりされ、せいじょーにもどってかせいじんとたいけつする。	NO_LABEL
