Tio舞子は、兵庫県神戸市垂水区にある超高層ビル。	NO_PRONOUNCE	NO_LABEL
舞子駅前地区第一種市街地再開発事業によって建設された。	まいこえきぜんちくだいいっしゅしがいちさいかいはつによってけんせつされた。	NO_LABEL
Tioは、「トラフィック」「インフォメーション」「オアシス」の頭文字。	NO_PRONOUNCE	NO_LABEL
2001年3月にオープンした。	にせんいちねんさんがつにおーぷんした。	NO_LABEL
規模は地上26階、地下1階、高さ101m。	きぼわちじょーにじゅうろっかい、ちかいっかい、たかさひゃくいちめーとる。	NO_LABEL
低層部は商業施設、カルチャーセンターで、高層部は展望レストラン、住宅というフロア構成である。	ていそーぶわしょーぎょーしせつ、かるちゃーせんたーで、こーそーぶわてんぼーれすとらん、じゅーたくとゆうふろあこーせいである。	NO_LABEL
三方を山陽電鉄とJR神戸線と神戸淡路鳴門自動車道に囲まれた土地に建てられたビルで、JR舞子駅と山陽電鉄舞子公園駅に直結する。	さんぽーをさんよーでんてつとじぇいあーるこーべせんとこーべあわじなるとじどーしゃどーにかこまれたとちにたてられたびるで、じぇいあーるまいこえきとさんよーでんてつまいここーえんえきにちょっけつする。	NO_LABEL
また明石海峡大橋の本州側の袂に位置し、高速舞子バスターミナルにも直結する。	またあかしかいきょーおーはしのほんしゅーがわのたもとにいちし、こーそくまいこばすたーみなるにもちょっけつする。	NO_LABEL
