直接還元法とは、不動産鑑定評価等不動産の価格を求める手法の一つである収益還元法の、さらにその一種である。	ちょくせつかんげんほーとわ、ふどーさんかんていひょーかとーふどーさんのかかくをもとめるしゅほーのひとつであるしゅーえきかんげんほーの、さらにそのいっしゅである。	NO_LABEL
収益還元法にはDCF法とこの直接還元法の2つが存在し、DCF法による収益価格が標準とされる場合は、その検証としての位置づけがなされている。	しゅーえきかんげんほーにわほーとこのちょくせつかんげんほーのふたつがそんざいし、ほーによるしゅーえきかかくがひょーじゅんとされるばあいわ、そのけんしょーとしてのいちずけがなされている。	NO_LABEL
一期間の純収益を還元利回りで還元して収益価格を求める。	いちきかんのじゅんしゅーえきをかんげんりまわりでかんげんしてしゅーえきかかくをもとめる。	NO_LABEL
本項目においては、基本的に不動産鑑定評価基準による。	ほんこーもくにおいてわ、きほんてきにふどーさんかんていひょーかきじゅんによる。	NO_LABEL
純収益とは、不動産に帰属する適正な純収益をいう。	じゅんしゅーえきとわ、ふどーさんにきぞくするてきせいなじゅんしゅーえきをいう。	NO_LABEL
一般に1年を単位として総収益から総費用を控除して求める。	いっぱんにいちねんをたんいとしてそーしゅーえきからそーひよーをこーじょしてもとめる。	NO_LABEL
対象不動産の初年度の純収益を採用する場合と標準化された純収益を採用する場合がある。	たいしょーふどーさんのしょねんどのじゅんしゅーえきをさいよーするばあいとひょーじゅんかされたじゅんしゅーえきをさいよーするばあいがある。	NO_LABEL
直接還元法は数式が単純であり、還元利回りに収益の将来予測やリスクを盛り込むこととなる。	ちょくせつかんげんほーわすーしきがたんじゅんであり、かんげんりまわりにしゅーえきのしょーらいよそくやりすくをもりこむこととなる。	NO_LABEL
次の数式が「基本式」となる。	NO_PRONOUNCE	NO_LABEL
formula_1	NO_PRONOUNCE	NO_LABEL
土地残余法とは、不動産が土地と建物等との結合によって構成されている場合において、当該不動産に帰属する純収益から建物等に帰属する純収益を控除した残余の純収益を還元利回りで還元して土地の収益価格を求める手法であり、直接還元法に分類される。	とちざんよほーとわ、ふどーさんがとちとたてものとーとのけつごーによってこーせいされているばあいにおいて、とーがいふどーさんにきぞくするじゅんしゅーえきからたてものとーにきぞくするじゅんしゅーえきをこーじょしたざんよのじゅんしゅーえきをかんげんりまわりでかんげんしてとちのしゅーえきかかくをもとめるしゅほーであり、ちょくせつかんげんほーにぶんるいされる。	NO_LABEL
収益還元法以外の方法によって建物等の価格を求めることができるときは、この手法を適用できる。	しゅーえきかんげんほーいがいのほーほーによってたてものとーのかかくをもとめることができるときわ、このしゅほーをてきよーできる。	NO_LABEL
土地残余法を適用するに当たっては、建物等が古い場合には土地に帰属する純収益を的確に求められない場合が多いので、建物等は新築か築後間もないものでなければならない。	とちざんよほーをてきよーするにあたってわ、たてものとーがふるいばあいにわとちにきぞくするじゅんしゅーえきをてきかくにもとめられないばあいがおーいので、たてものとーわしんちくかちくごかんもないものでなければならない。	NO_LABEL
更地の収益価格については、当該土地に最有効使用の賃貸用建物等の建築を想定することによりこの方法を適用して求めることができる。	さらちのしゅーえきかかくについてわ、とーがいとちにさいゆーこーしよーのちんたいよーたてものとーのけんちくをそーていすることによりこのほーほーをてきよーしてもとめることができる。	NO_LABEL
次の数式で表される。	つぎのすーしきであらわされる。	NO_LABEL
formula_2	NO_PRONOUNCE	NO_LABEL
なお、当該不動産に帰属する純収益から土地に帰属する純収益を控除した残余の純収益を還元利回りで還元して建物等の収益価格を求める手法は、建物残余法という。	なお、とーがいふどーさんにきぞくするじゅんしゅーえきからとちにきぞくするじゅんしゅーえきをこーじょしたざんよのじゅんしゅーえきをかんげんりまわりでかんげんしてたてものとーのしゅーえきかかくをもとめるしゅほーわ、たてものざんよほーという。	NO_LABEL
収益期間又は純収益の予測期間を有期とする方法で、直接還元法に分類される。	しゅーえききかんまたわじゅんしゅーえきのよそくきかんをゆーきとするほーほーで、ちょくせつかんげんほーにぶんるいされる。	NO_LABEL
割引率と有限の収益期間を基礎とした複利年金現価率を用いて収益価格を求める。	わりびきりつとゆーげんのしゅーえききかんをきそとしたふくりねんきんげんあたいりつをもちいてしゅーえきかかくをもとめる。	NO_LABEL
収益期間満了時における土地又は建物の残存価格並びに建物等の撤去費が予想される場合は、これらの現在価値を、償却前の純収益に上記複利年金現価率を乗じた後に加減する。	しゅーえききかんまんりょーじにおけるとちまたわたてもののざんそんかかくならびにたてものとーのてっきょひがよそーされるばあいわ、これらのげんざいかちを、しょーきゃくまえのじゅんしゅーえきにじょーきふくりねんきんげんあたいりつをじょーじたのちにかげんする。	NO_LABEL
formula_3	NO_PRONOUNCE	NO_LABEL
上記インウッド式における複利年金現価率の代わりに蓄積利回り等を基礎とした償還基金率と割引率を用いる方法である。	じょーきいんうっどしきにおけるふくりねんきんげんあたいりつのかわりにちくせきりまわりとーをきそとしたしょーかんききんりつとわりびきりつをもちいるほーほーである。	NO_LABEL
鉱業権の評価等で適用される場合がある。	こーぎょーけんのひょーかとーでてきよーされるばあいがある。	NO_LABEL
formula_4	NO_PRONOUNCE	NO_LABEL
