於除鞬は、中国後漢時代の北匈奴の単于。	NO_PRONOUNCE	NO_LABEL
永元3年、北単于はふたたび右校尉の耿夔に破られ、逃亡して行方知れずとなったので、その弟の右谷蠡王の於除鞬が自ら立ち単于となった。	NO_PRONOUNCE	NO_LABEL
於除鞬は右温禺鞬王・骨都侯以下数千人の衆を率いて蒲類海に止まり、遣使を送って長城を訪れさせた。	NO_PRONOUNCE	NO_LABEL
大将軍の竇憲は於除鞬を北単于に立てることを朝廷に上書すると、朝廷はこれに従い、翌年耿夔を遣わして璽綬を授け、玉剣四具・羽蓋一駟を賜り、使匈奴中郎将の任尚に節を持たせて護衛させ、南単于の故事のように北単于を伊吾に駐屯させた。	NO_PRONOUNCE	NO_LABEL
その後、竇憲は北単于於除鞬をもとの北単于庭に帰そうとしたために誅殺された。	NO_PRONOUNCE	NO_LABEL
永元5年、於除鞬が漢に叛いて自ら北に還ったので、和帝は将兵長史の王輔に千余騎をつけ、任尚とともに追いかけさせた。	NO_PRONOUNCE	NO_LABEL
王輔らは於除鞬に戻るよううまく説得し、もどるところを斬殺してその衆を破滅した。	NO_PRONOUNCE	NO_LABEL
