ダイナコスモスとは日本の競走馬である。	だいなこすもすとわにっぽんのきょーそーばである。	NO_LABEL
おもな勝鞍に皐月賞、ラジオたんぱ賞がある。	おもなかちくらにさつきしょー、らじおたんぱしょーがある。	NO_LABEL
以下馬齢は旧表記とする。	いかばれいわきゅーひょーきとする。	NO_LABEL
1985年9月、福島競馬場でデビュー。	せんきゅうひゃくはちじゅうごねんくがつ、ふくしまけいばじょーででびゅー。	NO_LABEL
初戦は3着だったが、折り返しの新馬戦、400万下条件と連勝した。	しょせんわさんちゃくだったが、おりかえしのしんばせん、よんひゃくまんかじょーけんとれんしょーした。	NO_LABEL
朝日杯3歳ステークスでは追い込んで ダイシンフブキの2着に食い込み、5戦2勝で3歳シーズンを終える。	あさひはいさんさいすてーくすでわおいこんでだいしんふぶきのにちゃくにくいこみ、ごせんにしょーでさんさいしーずんをおえる。	NO_LABEL
明けて4歳となっての初戦は京成杯。	あけてよんさいとなってのしょせんわけいせいはい。	NO_LABEL
単勝1番人気に推されるもダイナフェアリーの3着に敗れる。	たんしょーいちばんにんきにおされるもだいなふぇありーのさんちゃくにやぶれる。	NO_LABEL
続く弥生賞では岡部幸雄に乗り替わりダイシンフブキに僅差の2着となったが、勝負付けが済んだと判断されたのか、本番の皐月賞では5番人気に過ぎなかった。	つずくやよいしょーでわおかべゆきおにのりがわりだいしんふぶきにきんさのにちゃくとなったが、しょーぶずけがすんだとはんだんされたのか、ほんばんのさつきしょーでわごばんにんきにすぎなかった。	NO_LABEL
しかしレースでは、中団を進み直線で早めに先頭に立ち、追い込むフレッシュボイスをクビ差退けて優勝した。	しかしれーすでわ、ちゅーだんをすすみちょくせんではやめにせんとーにたち、おいこむふれっしゅぼいすをくびさしりぞけてゆーしょーした。	NO_LABEL
東京優駿では距離の壁が厚く5着に入るのが精一杯だったが、続くラジオたんぱ賞では58kgの負担重量を背負いながらニッポーテイオーを1馬身半抑える競馬で勝利し、実況していた長岡一也は「皐月賞の貫禄!」とゴール後に言い放った。	NO_PRONOUNCE	NO_LABEL
秋はマイルチャンピオンシップを最大の目標として調整が進められたが、脚部不安を発症。	あきわまいるちゃんぴおんしっぷをさいだいのもくひょーとしてちょーせいがすすめられたが、きゃくぶふあんをはっしょー。	NO_LABEL
父であるハンターコムがフランスに再輸出されていたことも影響して、早々に引退、種牡馬入りすることが決まった。	ちちであるはんたーこむがふらんすにさいゆしゅつされていたこともえいきょーして、そーそーにいんたい、しゅぼばいりすることがきまった。	NO_LABEL
引退後はアロースタッドで種牡馬入りした。	いんたいごわあろーすたっどでしゅぼばいりした。	NO_LABEL
地味な血統背景にもかかわらず、初年度から50頭前後の種付け頭数を集めるなど馬産地での人気はなかなか高いものだった。	NO_PRONOUNCE	NO_LABEL
2年目の産駒からトロットサンダーを送り出すなど、種牡馬としてもそれなりの成功を収めている。	にねんめのさんこまからとろっとさんだーをおくりだすなど、しゅぼばとしてもそれなりのせいこーをおさめている。	NO_LABEL
2003年には種牡馬から引退。	にせんさんねんにわしゅぼばからいんたい。	NO_LABEL
門別牧場で余生を送っていたが、2006年に老衰のため死亡した。	もんべつぼくじょーでよせいをおくっていたが、にせんろくねんにろーすいのためしぼーした。	NO_LABEL
おもに祖母シャダイプリマから近親が広がっている。	おもにそぼしゃだいぷりまからきんしんがひろがっている。	NO_LABEL
