映画学校は映画学に特化した学校で、映画理論、映画評論、映画史、演技、撮影、照明などを学ぶ事が出来る。	えいががっこーわえいががくにとくかしたがっこーで、えいがりろん、えいがひょーろん、えいがし、えんぎ、さつえい、しょーめいなどをまなぶことができる。	NO_LABEL
多くの俳優・映画スタッフを輩出し、映画界に寄与している。	NO_PRONOUNCE	NO_LABEL
映画学校による教育は日本以外でも盛んであり、国立映画大学が各国に設置されているほか、多くの映画人を輩出した実績のある映画学部も多い。	えいががっこーによるきょーいくわにっぽんいがいでもさかんであり、こくりつえいがだいがくがかっこくにせっちされているほか、おーくのえいがじんをはいしゅつしたじっせきのあるえいががくぶもおーい。	NO_LABEL
日本においては専門学校や芸術系大学の一学科という位置づけが中心で、映画に焦点を絞った大学はごく少なく、国立の映画大学は存在しない。	にっぽんにおいてわせんもんがっこーやげいじゅつけいだいがくのいちがっかとゆういちずけがちゅーしんで、えいがにしょーてんをしぼっただいがくはごくすくなく、こくりつのえいがだいがくわそんざいしない。	NO_LABEL
