新井 彬之は、日本の元政治家。	あらいよしゆきわ、にっぽんのもとせいじか。	NO_LABEL
元公明党衆議院議員。	もとこーめいとーしゅーぎーんぎーん。	NO_LABEL
兵庫県出身。	ひょーごけんしゅっしん。	NO_LABEL
1957年関西大学法学部卒。	せんきゅうひゃくごじゅうしちねんかんさいだいがくほーがくぶそつ。	NO_LABEL
神戸市議を経て、1969年の第32回衆議院議員総選挙に兵庫4区から公明党公認で立候補して当選、6期務めた。	こーべしぎをへて、せんきゅうひゃくろくじゅうきゅうねんのだいさんじゅうにかいしゅーぎーんぎーんそーせんきょにひょーごよんくからこーめいとーこーにんでりっこーほしてとーせん、ろっきつとめた。	NO_LABEL
党内では建設部会長、兵庫県本部副本部長、中央委員を務める。	とーないでわけんせつぶかいちょー、ひょーごけんほんぶふくほんぶちょー、ちゅーおーいーんをつとめる。	NO_LABEL
1990年の第39回衆議院議員総選挙に出馬せず、政界を引退した。	せんきゅうひゃくきゅうじゅうねんのだいさんじゅうきゅうかいしゅーぎーんぎーんそーせんきょにしゅつばせず、せいかいをいんたいした。	NO_LABEL
