トンプソンはクロアチアのロックバンド。	とんぷそんわくろあちあのろっくばんど。	NO_LABEL
その中心人物であり、リード・ヴォーカル、ソングライターであるM. P. トンプソンことマルコ・ペルコヴィッチのバンドとして認識されている。	NO_PRONOUNCE	NO_LABEL
あるいは、トンプソンという名はマルコ・ペルコヴィッチ個人のことを示すことも少なくない。	NO_PRONOUNCE	NO_LABEL
他のバンド・メンバーにはベース・ギタリストでサブ・ヴォーカルのティホ・オルリッチがいるものの、それ以外のメンバーたちはあまり目立つことはない。	NO_PRONOUNCE	NO_LABEL
Bilo jednom u Hrvatskojツアーのときのメンバーにはこのほかにダミル・リポシェク・ケックス、フェドル・ボイッチ、ダミル・ショメン、トミスラヴ・マンダリッチがいた。	NO_PRONOUNCE	NO_LABEL
トンプソンという名称は、マルコ・ペルコヴィッチの愛称であったトンプソン・サブマシンガンに由来している。	NO_PRONOUNCE	NO_LABEL
マルコ・ペルコヴィッチはナイトウィッシュ、アイアン・メイデン、AC/DCなどの個人的なファンであると発言している。	NO_PRONOUNCE	NO_LABEL
トンプソンは毎年、「勝利と祖国への感謝の日」に、マルコ・ペルコヴィッチの出身地であるチャヴォグラヴェでコンサートを行っている。	NO_PRONOUNCE	NO_LABEL
2006年には、マルコ・ペルコヴィッチはマテ・ブリッチ、ティホ・オルリッチ、ドラジェン・ゼチッチ、バルニとともに5万人の観客の前に立った。	NO_PRONOUNCE	NO_LABEL
トンプソンは、シト・チョリッチ、ミロスラヴ・シュコロとともにクロアチア・ワールド・ゲーム、ムラデン・グルドヴィッチ、アレン・ヴィタソヴィッチ、「"Reci brate moj"」でミロスラヴ・シュコロと共演している。	NO_PRONOUNCE	NO_LABEL
オランダ政府はファシズムの宣伝の禁止を理由に、トンプソンの楽曲の歌詞がファシズム的であるとしてオランダでの活動を禁止している。	おらんだせいふわふぁしずむのせんでんのきんしをりゆーに、とんぷそんのがっきょくのかしがふぁしずむてきであるとしておらんだでのかつどーをきんししている。	NO_LABEL
しかし、マルコ・ペルコヴィッチはボロボ・ナセリェでのBilo jednom u Hrvatskoj（）ツアー・コンサートを前にインタビューに応え、「"栄光あるクロアチア軍の勲章を身につけろ。	NO_PRONOUNCE	NO_LABEL
若者たちが歴史の中に引きこもり、プロパガンダへと落ちていってしまうことは悲しいことだ。	わかものたちがれきしのなかにひきこもり、ぷろぱがんだえとおちていってしまうことわかなしいことだ。	NO_LABEL
"」と述べた。	NO_PRONOUNCE	NO_LABEL
1991年のクロアチア紛争の初期のころ、マルコ・ペルコヴィッチは「Bojna Čavoglave」で初めて脚光を浴びることになった。	NO_PRONOUNCE	NO_LABEL
ペルコヴィッチは「トンプソン」の名義でこの曲を披露した。	NO_PRONOUNCE	NO_LABEL
曲は「Za dom - Spremni!」という言葉から始まり、これは第二次世界大戦のときのウスタシャのスローガンであった。	NO_PRONOUNCE	NO_LABEL
ここから、この曲はもっぱら、セルビア人武装勢力からチャヴォグラヴェを防衛するクロアチア陸軍への呼びかけとなっている。	NO_PRONOUNCE	NO_LABEL
この曲はクロアチア軍の士気を高めたとみられ、また同時に大変な人気を呼んだ。	このきょくわくろあちあぐんのしきをたかめたとみられ、またどーじにたいへんなにんきをよんだ。	NO_LABEL
この曲はクロアチアの戦争音楽のコンピレーション「」に登場した。	NO_PRONOUNCE	NO_LABEL
1992年、トンプソンは初のアルバムである『』を発表した。	NO_PRONOUNCE	NO_LABEL
ペルコヴィッチはこのときクロアチア軍を離れたものの、1995年には嵐作戦に参加するために短期の間、軍役に戻っている。	NO_PRONOUNCE	NO_LABEL
その後、1990年代の間、時がたつにつれてペルコヴィッチはキャリア初期の人気を失い、低迷を続けた。	NO_PRONOUNCE	NO_LABEL
彼は「"Zmija me za srce ugrizla"」、「"Grkinjo, znaj, svemu je kraj" 」など、いくらかの小規模なヒットはあったものの、1998年のヒット「Prijatelji」程度の人気を繰り返すにとどまった。	NO_PRONOUNCE	NO_LABEL
2000年のクロアチア議会選挙によって、左派政権が誕生すると、クロアチアの民族主義者の強い怒りを買い、トンプソンは再び人気を集めるようになった。	にせんねんのくろあちあぎかいせんきょによって、さはせいけんがたんじょーすると、くろあちあのみんぞくしゅぎしゃのつよいいかりをかい、とんぷそんわふたたびにんきをあつめるよーになった。	NO_LABEL
マルコ・ペルコヴィッチはコンサートのなかで、当時の首相であったイヴィツァ・ラチャンならびに当時の大統領であったスティペ・メシッチを侮辱した。	NO_PRONOUNCE	NO_LABEL
多くのトンプソンの楽曲がクロアチアで大ヒットとなり、サッカーの試合やそのほかの大イベントの場で流されるようになった。	おーくのとんぷそんのがっきょくがくろあちあでだいひっととなり、さっかーのしあいやそのほかのだいいべんとのばでながされるよーになった。	NO_LABEL
トンプソンはクロアチアの音楽フェスティバルMelodije Mostaraで2001年に、Croatian Radio Festivalで2006年に優勝したのをはじめ、クロアチアの「勝利と祖国への感謝の日」には毎年コンサートを開いている。	NO_PRONOUNCE	NO_LABEL
トンプソンは、多くのセルビア人やユダヤ人などがヤセノヴァツ強制収容所を示唆した曲「」を歌ったと報じられている。	NO_PRONOUNCE	NO_LABEL
この曲は今日のクロアチアにおける強烈な反セルビア主義、そして狂信的なクロアチア愛国主義を代表した曲と見られている。	このきょくわきょーのくろあちあにおけるきょーれつなはんせるびあしゅぎ、そしてきょーしんてきなくろあちああいこくしゅぎをだいひょーしたきょくとみられている。	NO_LABEL
2002年に『』をリリースして以降、トンプソンはアルバムの販促のためのツアーを行った。	NO_PRONOUNCE	NO_LABEL
ツアーの絶頂となったのはスプリトのポリュド競技場を標榜していることを繰り返した。	つあーのぜっちょーとなったのわすぷりとのぽりゅどきょーぎじょーをひょーぼーしていることをくりかえした。	NO_LABEL
コンサートは同時に、多くの論争を巻き起こした。	こんさーとわどーじに、おーくのろんそーをまきおこした。	NO_LABEL
客席の2つは旧ユーゴスラビア国際戦犯法廷に訴追され、当時裁判中だったミルコ・ノラツを歌った。	NO_PRONOUNCE	NO_LABEL
2003年には、トンプソンはベスト盤『』を発表。	NO_PRONOUNCE	NO_LABEL
2004年にはバンドのヴォーカル兼ベースのティホ・オルリッチがソロ・アルバム『』を発表した。	NO_PRONOUNCE	NO_LABEL
このアルバムにはトンプソンの曲を2曲収録し、またマルコ・ペルコヴィッチとも共演している。	NO_PRONOUNCE	NO_LABEL
このツアーは2005年にも散発的に行われた。	このつあーわにせんごねんにもさんぱつてきにおこなわれた。	NO_LABEL
国際的には、シドニーのシドニー・エンターテイメント・センターで5月に行われた。	こくさいてきにわ、しどにーのしどにーえんたーていめんとせんたーでごがつにおこなわれた。	NO_LABEL
ツアーの終わりには、アルバムの売上げは6万枚を超え、クロアチアでゴールド・レコードとなった。	NO_PRONOUNCE	NO_LABEL
2006年の6月にマルコ・ペルコヴィッチは、難病を抱える子どもたちと家族を支えるためにマクシミルで行われた有名人によるサッカーの試合に加わった。	NO_PRONOUNCE	NO_LABEL
アルバム『』は2006年12月にリリースされた。	NO_PRONOUNCE	NO_LABEL
年末のリリースであったにも関わらず、このアルバムはクロアチアにおいてこの年で2番目に多く売れたアルバムとなった。	ねんまつのりりーすであったにもかかわらず、このあるばむわくろあちあにおいてこのとしでにばんめにおーくうれたあるばむとなった。	NO_LABEL
その直後にトンプソンは、四旬節から夏にかけてクロアチアおよび欧州の諸都市でのツアーを実施し、その絶頂をザグレブのマクシミル競技場で締めくくると発表した。	そのちょくごにとんぷそんわ、しじゅんせつからなつにかけてくろあちあおよびおーしゅーのしょとしでのつあーをじっしし、そのぜっちょーをざぐれぶのまくしみるきょーぎじょーでしめくくるとはっぴょーした。	NO_LABEL
ツアーはボロヴォ・ナセリェ（）近くのヴコヴァルから始まり、およそ4000人のファンがトンプソンのパフォーマンスをみに集まった。	NO_PRONOUNCE	NO_LABEL
ツアーはジャコヴォ（）へと続き、その後のフランクフルトではでおよそ1万5千人の観衆を前にパフォーマンスを行った。	NO_PRONOUNCE	NO_LABEL
近くのホールではボブ・ディランのコンサートに2千人が集まっていた。	NO_PRONOUNCE	NO_LABEL
トンプソンが1万5千人を集めていると知ったボブ・ディランは、そのコンサートへ連れて行って欲しいと頼み、トンプソンの音楽を気に入ったという。	NO_PRONOUNCE	NO_LABEL
6月には、アルバムの売上げは10万枚を超え、クロアチアでは驚異的な枚数となった。	ろくがつにわ、あるばむのうりあげわじゅうまんまいをこえ、くろあちあでわきょーいてきなまいすーとなった。	NO_LABEL
最初のクロアチアでのツアーはザグレブのマクシミル競技場で行われた最大のコンサートで幕を閉じた。	さいしょのくろあちあでのつあーわざぐれぶのまくしみるきょーぎじょーでおこなわれたさいだいのこんさーとでまくをとじた。	NO_LABEL
トンプソンは6万人の観衆を前にパフォーマンスを行った。	とんぷそんわろくまんにんのかんしゅーをまえにぱふぉーまんすをおこなった。	NO_LABEL
コンサートはクロアチアの公共放送で中継された。	こんさーとわくろあちあのこーきょーほうそーでちゅーけいされた。	NO_LABEL
次のツアーではスプリトのスタリ・プラツで2万5千人を前にパフォーマンスを行った。	NO_PRONOUNCE	NO_LABEL
ショーはライブCD用に録音された。	しょーわらいぶきゃっしゅでぃすぺんさーよーにろくおんされた。	NO_LABEL
クロアチアの2007年の沿岸火災を製作したり、ポリュドで開かれたチャリティ・サッカーに参加したりしている。	NO_PRONOUNCE	NO_LABEL
トンプソンは2007年11月にはニューヨークで2つのコンサートを行い、ユダヤ人団体からの抗議を呼んだ。	とんぷそんわにせんななねんじゅーいちがつにわにゅーよーくでふたつのこんさーとをおこない、ゆだやじんだんたいからのこーぎをよんだ。	NO_LABEL
これらのロビー団体はニューヨークの大主教区に対してショーを中止させるように求めたが、トンプソンがナチズムを宣伝している証拠はないとして求めには応じなかった。	これらのろびーだんたいわにゅーよーくのだいしゅきょーくにたいしてしょーをちゅーしさせるよーにもとめたが、とんぷそんがなちずむをせんでんしているしょーこわないとしてもとめにわおーじなかった。	NO_LABEL
実際にコンサートのひとつに参加したワシントン・ポストの記者も、ネオナチとの関連の証拠はないと確信した。	じっさいにこんさーとのひとつにさんかしたわしんとんぽすとのきしゃも、ねおなちとのかんれんのしょーこわないとかくしんした。	NO_LABEL
トンプソンのトロントで行われたコンサートは、会場として予定されていた収容人数2千人のをキャンセルし、新たに会場となった同地のクロアチア人センターに5千人の観衆を集めた。	NO_PRONOUNCE	NO_LABEL
そのほかのツアーは予定通りに行われた。	そのほかのつあーわよていどーりにおこなわれた。	NO_LABEL
トンプソンは2007年の11月にクロアチアに帰国し、その後ボスニア・ヘルツェゴビナのトミスラヴグラード、ノヴィ・トラヴニク、シロキ・ブリイェグ、チャプリナへとコンサートを続けた。	NO_PRONOUNCE	NO_LABEL
トンプソンがオーストラリアに赴く前、クロアチアで最後のコンサートは、ドラジェン・ペトロヴィッチ・バスケットボール・ホールの定例のクリスマス・チャリティ・ショーで、利益はザグレブ大聖堂に寄贈される。	NO_PRONOUNCE	NO_LABEL
オーストラリアでのツアーにはメルボルンのフェスティバル・ホール、およびアデレード、パースなどがあった。	NO_PRONOUNCE	NO_LABEL
オーストラリアの反中傷委員会は、トンプソンのオーストラリア入国ビザ取得を阻止しようとロビー活動を行ったが、政府はトンプソンはオーストラリアの法に抵触しないとしてこれを退けた。	おーすとらりあのはんちゅーしょーいーんかいわ、とんぷそんのおーすとらりあにゅーこくびざしゅとくをそししよーとろびーかつどーをおこなったが、せいふわとんぷそんわおーすとらりあのほーにていしょくしないとしてこれをしりぞけた。	NO_LABEL
クロアチアでの幾らかのゲスト出演の後、ラッパーのショーティ（）は、延べ2万2千人を動員するトンプソンのオーストラリア・ツアーに加わることを表明した。	NO_PRONOUNCE	NO_LABEL
トンプソンのヒット曲「"Lijepa li si"」はマクシミル競技場で行われる全てのサッカークロアチア代表の試合の前とハーフタイムに慣習的に流される。	NO_PRONOUNCE	NO_LABEL
2007年には批判を受け、対イスラエル戦においてこの曲は流れなかった。	にせんななねんにわひはんをうけ、たいいすらえるせんにおいてこのきょくわながれなかった。	NO_LABEL
この試合以降、クロアチアの選手ヨシップ・シムニッチは曲が流されなかったことに関する懸念を表明した。	このしあいいこー、くろあちあのせんしゅよしっぷしむにっちわきょくがながされなかったことにかんするけねんをひょーめいした。	NO_LABEL
国際的に、またイスラエルのリーグで長期間にわたって活躍したクロアチア人の元選手ジョヴァンニ・ロッソの誰もがこの曲のことを気にはしないと語った。	NO_PRONOUNCE	NO_LABEL
後に、クロアチアのマネージャ スラベン・ビリッチもまたトンプソン擁護にまわった。	ごに、くろあちあのまねーじゃすらべんびりっちもまたとんぷそんよーごにまわった。	NO_LABEL
論争は、クロアチアが3-2で勝利したウェンブリー・スタジアムでの対イングランド戦において、クロアチアの選手がファンとともに自らこの曲を歌ったことによって終焉を迎えた。	NO_PRONOUNCE	NO_LABEL
トンプソンはクロアチア紛争のさなかにリリースされた1991年のヒット曲「"Bojna-Čavoglave"」によって有名になった。	NO_PRONOUNCE	NO_LABEL
この当時クロアチア人は、クロアチアのユーゴスラビアからの独立宣言に反対したセルビア人と戦争状態にあった。	このとーじくろあちあじんわ、くろあちあのゆーごすらびあからのどくりつせんげんにはんたいしたせるびあじんとせんそーじょーたいにあった。	NO_LABEL
この曲は、マルコ・ペルコヴィッチの故郷であり、ダルマチア地方の内陸部・後背地域に位置するチャヴォグラヴェの村から、クロアチア人の大隊による戦闘を描写したものである。	NO_PRONOUNCE	NO_LABEL
この曲は第二次世界大戦時にウスタシャが使用した「Za dom - Spremni!」のスローガンを含んでいる。	NO_PRONOUNCE	NO_LABEL
このスローガンはもとは19世紀のクロアチアの総督、ヨシップ・イェラチッチであった。	このすろーがんはもとわじゅうきゅうせいきのくろあちあのそーとく、よしっぷいぇらちっちであった。	NO_LABEL
このことはあまり知られておらず、現在ではこのスローガンはもっぱらファシズムのクロアチア独立国のスローガンとみなされている。	このことわあまりしられておらず、げんざいでわこのすろーがんわもっぱらふぁしずむのくろあちあどくりつこくのすろーがんとみなされている。	NO_LABEL
この曲「"Bojna-Čavoglave"」はクロアチア軍の士気を高めたと見られている。	NO_PRONOUNCE	NO_LABEL
この曲は後にボシュニャク人によって変造・再録音され、そこではボスニアのセルビア人について歌っている。	NO_PRONOUNCE	NO_LABEL
トンプソンの曲「"Anica - Kninska Kraljica"」には次のような歌詞が含まれている:	NO_PRONOUNCE	NO_LABEL
そのおおよその意味は:	NO_PRONOUNCE	NO_LABEL
これはセルビア人からは、セルビア人に対する暴力を呼びかけたものと見られている。	これわせるびあじんからわ、せるびあじんにたいするぼーりょくをよびかけたものとみられている。	NO_LABEL
当時クロアチア軍はクライナ・セルビア人共和国と戦争状態にあったため、この曲はそれ以上に反乱地域とその準軍組織に立ち向かうクロアチア軍に対する呼びかけという面が強い。	とーじくろあちあぐんわくらいなせるびあじんきょーわこくとせんそーじょーたいにあったため、このきょくわそれいじょーにはんらんちいきとそのじゅんぐんそしきにたちむかうくろあちあぐんにたいするよびかけとゆうめんがつよい。	NO_LABEL
トンプソンはこの戦争の時代に作られた曲の中ではこうした憎悪のメッセージを使用している。	とんぷそんわこのせんそーのじだいにつくられたきょくのなかでわこーしたぞーおのめっせーじをしよーしている。	NO_LABEL
2003年、ペルコヴィッチが歌詞を改変したバージョンの「"Jasenovac i Gradiška Stara"」を録音したことが、ジャーナリストのマティヤ・バビッチ（）によって明らかになった。	NO_PRONOUNCE	NO_LABEL
この曲の歌詞には次のようなものが含まれている:	NO_PRONOUNCE	NO_LABEL
そのおおよその意味は:	NO_PRONOUNCE	NO_LABEL
これらの第二次世界大戦関連の内容の他に、この曲は次のような歌詞も含んでいる	これらのだいにじせかいたいせんかんれんのないよーのほかに、このきょくわつぎのよーなかしもふくんでいる	NO_LABEL
「"Račane, jeba ti pas mater, i onome tko glasa za te"」、そして「"Gospe sinjska, ako si u stanju, uzmi Stipu a vrati nam Franju"」の聖母よ、できることならスティペを連れて行って、フラニョを連れ戻してください"）と、左派である当時の大統領スティペ・メシッチや首相イヴィツァ・ラチャンについて言及している。	NO_PRONOUNCE	NO_LABEL
ペルコヴィッチはウスタシャへの非同調を折に触れ言及している。	NO_PRONOUNCE	NO_LABEL
ウスタシャは枢軸国占領下の1941年から1945年にかけてのクロアチアを支配したファシスト組織である。	うすたしゃわすーじくこくせんりょーかのせんきゅうひゃくよんじゅういちねからせんきゅうひゃくよんじゅうごねんにかけてのくろあちあをしはいしたふぁしすとそしきである。	NO_LABEL
2004年、トンプソンはオランダのアムステルダムでのコンサートを阻止された。	にせんよねん、とんぷそんわおらんだのあむすてるだむでのこんさーとをそしされた。	NO_LABEL
これに対して、ペルコヴィッチは「今なおキリストを十字架に張り付けて苦しめ続けているユダヤ人に対して、イエス・キリストがそうであったように、オレもなんとも思っていない」と述べた。	NO_PRONOUNCE	NO_LABEL
この発言はクロアチアのメディアに大騒ぎを引き起こした。	このはつげんわくろあちあのめでぃあにおーさわぎをひきおこした。	NO_LABEL
2007年6月、サイモン・ウィーゼンタール・センターはクロアチアの大統領スティペ・メシッチに対して手紙を送り、「ザグレブで6万人の観衆を集めるクロアチアの極右歌手『トンプソン』がロック・コンサートにおいて、ファシストの敬礼やシンボル、制服を大規模に提示する事例の発生に対する、強い怒りと嫌悪感」を表明した。	NO_PRONOUNCE	NO_LABEL
幾らかのユダヤ人の団体はトンプソンの歌詞をミスリードして発信することで知られ、たとえばB'nai B'rith反中傷委員会のマニー・ワクスは事実に反して、ペルコヴィッチが「オレの父はウスタシャだった、だからオレもだ」と歌ったと主張した。	NO_PRONOUNCE	NO_LABEL
2007年6月17日にザグレブで行われたコンサートの2週間後、サイモン・ウィーゼンタール・センターによるペルコヴィッチはファシストであるとする主張に対して、ペルコヴィッチは「オレもバンドのメンバーも、マクシミル競技場の6万人の観衆の中にウスタシャの象徴をまとった奴は誰も見ていない。	NO_PRONOUNCE	NO_LABEL
」と述べた。	NO_PRONOUNCE	NO_LABEL
ペルコヴィッチは、自身はウスタシャでもファシストでもなく、愛国者であるとしている。	NO_PRONOUNCE	NO_LABEL
ペルコヴィッチは、いかなる他の民族や宗教やイデオロギーの異なる人たちとの不和も望んでいないとした。	NO_PRONOUNCE	NO_LABEL
それにも関わらず、ペルコヴィッチの立場は彼のウスタシャへの非難よりも、はるかにウスタシャへの支持を確認するものとなっている。	NO_PRONOUNCE	NO_LABEL
彼はクロアチア独立国への支持を公言し、メディア上で少なくとも20回にわたって表明している。	かれわくろあちあどくりつこくえのしじをこーげんし、めでぃあじょーですくなくともにじゅっかいにわたってひょーめいしている。	NO_LABEL
ペルコヴィッチがウスタシャには反対の意見を述べても、これらの事実を勘案すればその信用性は高いとは言えず、むしろファシズム活動に対する法的規制によってバンドが解散させられる等の事態を回避するための手段に過ぎないと見られている。	NO_PRONOUNCE	NO_LABEL
2007年4月13日のヴコヴァルののコンサートでペルコヴィッチは「オレは誰にもコンサートで何を着るかなんて命令できないし、『U』の字の入った帽子やシャツを着ろなんて言っていない。	NO_PRONOUNCE	NO_LABEL
諸君に対するオレのメッセージは、クロアチア独立戦争での栄光あるクロアチア軍の勲章を身につけろ、ということだ。	しょくんにたいするおれのめっせーじわ、くろあちあどくりつせんそーでのえいこーあるくろあちあぐんのくんしょーをみにつけろ、とゆうことだ。	NO_LABEL
若者たちが歴史の中に引きこもり、プロパガンダへと落ちていってしまうことは悲しいことだ。	わかものたちがれきしのなかにひきこもり、ぷろぱがんだえとおちていってしまうことわかなしいことだ。	NO_LABEL
」 と発言した。	NO_PRONOUNCE	NO_LABEL
ペルコヴィッチは"Bilo jednom u Hrvatskoj"ツアーにおいて、多くのユダヤ人組織からの抗議にあった。	NO_PRONOUNCE	NO_LABEL
フランクフルトで開かれた際には、ユダヤ人組織はドイツ政府に対して、ファシズム的な歌詞を理由にコンサートを禁止するように強く求めた。	ふらんくふるとでひらかれたさいにわ、ゆだやじんそしきわどいつせいふにたいして、ふぁしずむてきなかしをりゆーにこんさーとをきんしするよーにつよくもとめた。	NO_LABEL
ドイツ政府がトンプソンの歌詞のドイツ語訳を受け取ったとき、これらの要求は政府によって却下された。	どいつせいふがとんぷそんのかしのどいつごやくをうけとったとき、これらのよーきゅーわせいふによってきゃっかされた。	NO_LABEL
2007年6月17日のザグレブ、マクシミル競技場でのコンサートでは、ペルコヴィッチは再び自身はファシストではないと述べた。	NO_PRONOUNCE	NO_LABEL
ペルコヴィッチの発言は次の通りである:	NO_PRONOUNCE	NO_LABEL
"オレたちがファシスト、ナチスだっていう批判や攻撃を頻繁に受けて、そのせいでオレたちの曲を聴く諸君までもがそうであるかのごとく言われている。	NO_PRONOUNCE	NO_LABEL
オレたちは批判してきている連中に言ってやりたい、オレたちはファシストでもナチスでもなく、クロアチアの愛国者であると。	おれたちわひはんしてきているれんちゅーにいってやりたい、おれたちわふぁしすとでもなちすでもなく、くろあちあのあいこくしゃであると。	NO_LABEL
そのために生きる価値があるのだと。	そのためにいきるかちがあるのだと。	NO_LABEL
クロアチアという国ができたがために、オレたちのクロアチアは、血にまみれ、この世代の、この犠牲者の世代の中にあるのだと。	くろあちあとゆうくにができたがために、おれたちのくろあちあわ、ちにまみれ、このせだいの、このぎせいしゃのせだいのなかにあるのだと。	NO_LABEL
"	NO_PRONOUNCE	NO_LABEL
これに賛同の意を示した観衆は、中世クロアチアの鬨の声である「U boj, u boj - za narod svoj!」をあげた。	NO_PRONOUNCE	NO_LABEL
バンドの恒常的なメンバーはマルコ・ペルコヴィッチのみであり、ペルコヴィッチはバンドそのものと位置づけられている。	NO_PRONOUNCE	NO_LABEL
"Bilo jednom u Hrvatskoj"ツアー時のメンバーは次の通りである:	NO_PRONOUNCE	NO_LABEL
クロアチアの音楽では、長年フェスティバルは重要な役割を果たしてきており、フェスティバルのために新曲がリリースされ、最もよい曲がその勝者となる。	くろあちあのおんがくでわ、ながねんふぇすてぃばるわじゅーよーなやくわりをはたしてきており、ふぇすてぃばるのためにしんきょくがりりーすされ、もっともよいきょくがそのしょーしゃとなる。	NO_LABEL
トンプソンが参加したフェスティバルは次の通りである:	NO_PRONOUNCE	NO_LABEL
