ウィリアムズ V-Jet II はウィリアムズ・インターナショナル社の新型のFJX-1 ターボファンエンジンの試験と実証用航空機としてバート・ルータンのスケールド・コンポジッツ社によって設計、製造された。	NO_PRONOUNCE	NO_LABEL
ウィリアムズ・インターナショナルは小型のターボファンエンジンを巡航ミサイル用として1950年代より製造しており、1980年代末にはウィリアムズ FJ44エンジンでゼネラルアビエーション市場に参入して成功を収めた。	NO_PRONOUNCE	NO_LABEL
1992年にNASAは先進的ゼネラルアビエーション輸送実験を策定しゼネラルアビエーション業界から製造と開発に協力する企業を募った。	せんきゅうひゃくきゅうじゅうにねんになさわせんしんてきぜねらるあびえーしょんゆそーじっけんをさくていしぜねらるあびえーしょんぎょーかいからせいぞーとかいはつにきょーりょくするきぎょーをつのった。	NO_LABEL
1996年にウィリアムズはFJ44より小型になると見込まれる燃費効率の優れたターボファンエンジンを開発するためにAGATEのゼネラルアビエーション推進計画に参加したその結果、推力のFJX-2エンジンが開発された。	NO_PRONOUNCE	NO_LABEL
ウィリアムズ社は事前にバート・ルータンのスケールド・コンポジッツ社とV-Jet IIの設計と製造の契約を交わしており、この超軽量ジェット機をエンジンの飛行試験と新型エンジンの技術実証用として使用することを考えていた。	NO_PRONOUNCE	NO_LABEL
スケールド社では航空機はModel 271として知られていた。	NO_PRONOUNCE	NO_LABEL
航空機とエンジンは1997年にオシュコシュ エアショーで公開された。	こーくーきとえんじんわせんきゅうひゃくきゅうじゅうななにおしゅこしゅえあしょーでこーかいされた。	NO_LABEL
スケールド社のテストパイロットのDoug Shaneはをからこの飛行機の試験飛行への貢献により受賞した。	NO_PRONOUNCE	NO_LABEL
V-Jet IIは完全な複合材製の構造体で前進翼を備え、V字尾翼で両方の尾翼はそれぞれエンジンのナセルが付いていた。	NO_PRONOUNCE	NO_LABEL
全体的な設計はリアアビア リア ファンの面影を持っていたものの大幅に小型だった。	ぜんたいてきなせっけいわりああびありあふぁんのおもかげをもっていたもののおーはばにこがただった。	NO_LABEL
ウィリアムズ社はこの航空機の量産には入らなかったが多方面に影響を与え、1998年に航空機のさらなる開発と生産を目的としてエクリプス・アビエーションが設立された。	うぃりあむずしゃわこのこーくーきのりょーさんにわはいらなかったがたほーめんにえいきょーをあたえ、せんきゅうひゃくきゅうじゅうはちねんにこーくーきのさらなるかいはつとせいさんをもくてきとしてえくりぷすあびえーしょんがせつりつされた。	NO_LABEL
機体は完全に新設計され全金属製構造体になりT型の尾翼を備えエクリプス 500という名称になった。	NO_PRONOUNCE	NO_LABEL
試作機は一対のFJX-2の派生型であるEJ-22エンジンと共に飛行した。	NO_PRONOUNCE	NO_LABEL
しかしながら、性能は満足できるものではなく設計は2基のプラット社がエクリプス専用に設計したプラット・アンド・ホイットニー・カナダ PW610Fを搭載するように変更された。	NO_PRONOUNCE	NO_LABEL
試作機と唯一のV-Jet IIはエクリプス・アビエーションによって計画と共に保管され、2001年、ウィスコンシン州オシュコシュの実験機協会のエアベンチャー博物館に寄贈された。	NO_PRONOUNCE	NO_LABEL
