吉野川大橋は一級河川・吉野川の河口にかかる連続鋼床版箱桁橋である。	NO_PRONOUNCE	NO_LABEL
徳島県徳島市東吉野町と同市川内町を結んでいる。	とくしまけんとくしましひがしよしのちょーとどーしかわうちちょーをむすんでいる。	NO_LABEL
片側3車線の橋が2本並行しており、これらをまとめて吉野川大橋と呼ぶ。	NO_PRONOUNCE	NO_LABEL
南岸には徳島市民吉野川運動広場がある。	なんがんにわとくしましみんよしのがわうんどーひろばがある。	NO_LABEL
約1.4km上流には吉野川橋が架かっているが、吉野川大橋が開通する以前はその橋が徳島・鳴門間のメインルートであった。	NO_PRONOUNCE	NO_LABEL
