ウプサラは、スウェーデン中部の都市で、ウプサラ県の県都。	うぷさらわ、すうぇーでんちゅーぶのとしで、うぷさらけんのけんと。	NO_LABEL
人口は149,245人で、スウェーデン第4位。	NO_PRONOUNCE	NO_LABEL
北欧最古の大学であるウプサラ大学がある。	ほくおーさいこのだいがくであるうぷさらだいがくがある。	NO_LABEL
ストックホルムの約70km北、ストックホルム-アーランダ空港の約35km北に位置し、ストックホルムからは電車で45分ほど。	NO_PRONOUNCE	NO_LABEL
フューリソン川河畔の大学街。	ふゅーりそんがわかはんのだいがくがい。	NO_LABEL
19世紀後半より鉄道敷設が進んだことで、工業も発展をみせた。	じゅうきゅうせいきこーはんよりてつどーふせつがすすんだことで、こーぎょーもはってんをみせた。	NO_LABEL
1950年にはスウェーデンを代表する製薬会社だったファルマシアがウプサラに移転し、ウプサラ大学との共同研究により成長を遂げた。	せんきゅうひゃくごじゅうねんにわすうぇーでんをだいひょーするせいやくがいしゃだったふぁるましあがうぷさらにいてんし、うぷさらだいがくとのきょーどーけんきゅーによりせいちょーをとげた。	NO_LABEL
1995年のアップジョンとの合併、2000年のモンサントとの合併、そして2003年のファイザーによる買収にともないウプサラにおける拠点は縮小したが、ファルマシアを源流とするGEヘルスケア バイオサイエンスをはじめとして、多くの生命科学企業が現在もウプサラで活動している。	せんきゅうひゃくきゅうじゅうごねんのあっぷじょんとのがっぺい、にせんねんのもんさんととのがっぺい、そしてにせんさんねんのふぁいざーによるばいしゅーにともないうぷさらにおけるきょてんわしゅくしょーしたが、ふぁるましあをげんりゅーとするじーいーへるすけあばいおさいえんすをはじめとして、おーくのせいめいかがくきぎょーがげんざいもうぷさらでかつどーしている。	NO_LABEL
また、MySQL ABはウプサラを本社としている。	また、まいえすきゅーえるえいびーわうぷさらをほんしゃとしている。	NO_LABEL
街の中心から5kmほど北方の郊外に、ガムラ・ウプサラと称される遺跡があり、王の墳墓が残されている。	まちのちゅーしんからごきろめーとるほどほっぽーのこーがいに、がむらうぷさらとしょーされるいせきがあり、おーのふんぼがのこされている。	NO_LABEL
中世初期、北欧各地でキリスト教化が進む中、ガムラ・ウプサラは異教の伝統を保ち続けており、11世紀ごろまでスウェーデン王を司祭とした大犠牲祭が行われていた。	ちゅーせいしょき、ほくおーかくちできりすときょーかがすすむなか、がむらうぷさらわいきょーのでんとーをたもちつずけており、じゅういちせいきごろまですーぇーでんおーをしさいとしただいぎせいさいがおこなわれていた。	NO_LABEL
12世紀になると、キリスト教化が完了し、ガムラ・ウプサラにキリスト教の教会が建てられた。	じゅうにせいきになると、きりすときょーかがかんりょーし、がむらうぷさらにきりすときょーのきょーかいがたてられた。	NO_LABEL
現在のウプサラ市が発展する契機となったのは、この辺りが交易活動の拠点であったことと、1245年にガムラ・ウプサラの大聖堂が焼失したため、この地に大聖堂が移転して建設が始まったことが挙げられる。	げんざいのうぷさらしがはってんするけいきとなったのわ、このあたりがこーえきかつどーのきょてんであったことと、せんにひゃくよんじゅうごねんにがむらうぷさらのだいせいどーがしょーしつしたため、このちにだいせいどーがいてんしてけんせつがはじまったことがあげられる。	NO_LABEL
1435年に大聖堂は完成した。	せんよんひゃくさんじゅうごねんにだいせいどーわかんせいした。	NO_LABEL
1471年、ウプサラ大学が建てられ、聖職者育成などに努めた。	せんよんひゃくななじゅういちねん、うぷさらだいがくがたてられ、せいしょくしゃいくせいなどにつとめた。	NO_LABEL
16世紀半ば、グスタフ1世によってウプサラ城が建てられた。	じゅうろくせいきなかば、ぐすたふいっせいによってうぷさらじょーがたてられた。	NO_LABEL
また、1672年まで歴代のスウェーデン君主の戴冠式はウプサラで行われた。	また、せんろっぴゃくななじゅうにねんまでれきだいのすうぇーでんくんしゅのたいかんしきわうぷさらでおこなわれた。	NO_LABEL
1702年の大火で街は深刻な打撃を受け、大聖堂の二本の尖塔も消失してしまったが、大聖堂も含めて街はその後復興を果たした。	せんななひゃくにねんのたいかでまちわしんこくなだげきをうけ、だいせいどーのにもとのせんとーもしょーしつしてしまったが、だいせいどーもふくめてまちわそのごふっこーをはたした。	NO_LABEL
19世紀後半より、ウプサラと他都市を結ぶ鉄道の開通によって工業化も進んだ。	じゅうきゅうせいきこーはんより、うぷさらとたとしをむすぶてつどーのかいつーによってこーぎょーかもすすんだ。	NO_LABEL
北欧最古の大学であるウプサラ大学が置かれる。	ほくおーさいこのだいがくであるうぷさらだいがくがおかれる。	NO_LABEL
コペンハーゲン大学より8年早い1471年に建てられ、1477年より講義が開始された。	こぺんはーげんだいがくよりはちねんはやいせんよんひゃくななじゅういちねんにたてられ、せんよんひゃくななじゅうななねんよりこーぎがかいしされた。	NO_LABEL
16世紀に宗教改革の混乱の中一時閉鎖されるが、同世紀末に再建された。	じゅうろくせいきにしゅーきょーかいかくのこんらんのなかいちじへいさされるが、どーせいきまつにさいけんされた。	NO_LABEL
1622年にグスタフ2世アドルフによって建てられた建物は、スウェーデンの古代から中世の歴史などを示す博物館になっている。	せんろっぴゃくにじゅうにねんにぐすたふにせいあどるふによってたてられたたてものわ、すうぇーでんのこだいからちゅーせいのれきしなどをしめすはくぶつかんになっている。	NO_LABEL
