国立市は、東京都の多摩地域にある市である。	くにたちしわ、とーきょーとのたまちーきにあるしである。	NO_LABEL
多摩川左岸の沖積低地とそれが武蔵野台地を削った河岸段丘の段丘面及び段丘崖からなる。	たまがわさがんのちゅーせきていちとそれがむさしのだいちをけずったかがんだんきゅーのだんきゅーめんおよびだんきゅーがけからなる。	NO_LABEL
発達した段丘崖としては北東端に国分寺崖線、南部に立川崖線がみられる。	はったつしただんきゅーがけとしてわほくとーたんにこくぶんじがいせん、なんぶにたちかわがけせんがみられる。	NO_LABEL
北部をJR中央本線が、中央部やや南寄りをJR南武線と甲州街道が、南部を国道20号線日野バイパスがそれぞれ東西に通っている。	ほくぶをじぇーあーるちゅーおーほんせんが、ちゅーおーぶややみなみよりをじぇいあーるなんぶせんとこーしゅーかいどーが、なんぶをこくどーにじゅうごーせんひのばいぱすがそれぞれとーざいにかよっている。	NO_LABEL
中央線の国立駅から南武線の谷保駅まで真直ぐ大通りが通っており、新旧の中心街を結んでいる。	ちゅーおーせんのくにたちえきからなんぶせんのやほえきまでまっすぐおーどーりがかよっており、しんきゅーのちゅーしんがいをむすんでいる。	NO_LABEL
おおむね南武線に沿った河岸段丘の段丘崖の上は住宅地、下は農耕地となっていたが、最近では宅地開発の進捗もあり段丘崖の下でも住宅が増えている。	おーむねなんぶせんにそったかがんだんきゅーのだんきゅーがけのうえわじゅーたくち、したわのーこーちとなっていたが、さいきんでわたくちかいはつのしんちょくもありだんきゅーがけのしたでもじゅーたくがふえている。	NO_LABEL
かつて国立が谷保村だった頃、中心は谷保であり、武蔵野台地の崖線下の豊富な湧水と谷保天満宮の存在が集落を形成させた。	かつてこくりつがやぼむらだったころ、ちゅーしんわやほであり、むさしのだいちのがけせんかのほーふなわきみずとやほてんまんぐーのそんざいがしゅーらくをけいせいさせた。	NO_LABEL
特に初期の甲州街道は府中を出ると谷保付近で崖線を下り、多摩川を渡っていた。	とくにしょきのこーしゅーかいどーわふちゅーをでるとやほふきんでがけせんをくだり、たまがわをわたっていた。	NO_LABEL
その後、渡河地点が上流の日野の渡しに固定されることで道筋が台地の上に移り、今日に到っている。	そのご、とかちてんがじょーりゅーのひののわたしにこていされることでみちすじがだいちのうえにうつり、きょーにいたっている。	NO_LABEL
その名残が谷保天満宮に見てとれる。	そのなごりがやほてんまんぐーにみてとれる。	NO_LABEL
甲州街道沿いには蔵のある農家が並んでいる。	こーしゅーかいどーぞいにわくらのあるのーかがならんでいる。	NO_LABEL
崖線の上は大正時代までは甲州街道沿いを除き雑木林だったが、箱根土地株式会社が学園都市構想に基づき大学を誘致、ドイツの学園都市・ゲッティンゲンをモデルに地区開発を行い、1926年に分譲開始。	NO_PRONOUNCE	NO_LABEL
同時に同社によって建設された国立駅が鉄道省に譲渡され開業し、以後住宅地の範囲が拡大している。	どーじにどーしゃによってけんせつされたくにたちえきがてつどーしょーにじょーとされかいぎょーし、いごじゅーたくちのはんいがかくだいしている。	NO_LABEL
平成22年国勢調査によれば、東京都特別区部への通勤率は25.1%である。	へいせいにじゅうにねんこくせいちょうさによれば、とーきょーととくべつくぶえのつーきんりつわにじゅうごてんいちぱーせんとである。	NO_LABEL
面積は8.15kmで、全国の市では、蕨市、狛江市、向日市に次いで4番目、都内の市では、狛江市に次いで2番目に小さい。	NO_PRONOUNCE	NO_LABEL
2005年に夜間人口は72,574人である。	NO_PRONOUNCE	NO_LABEL
市外からの通勤者と通学生および居住者のうちの市内に昼間残留する人口の合計である昼間人口は71,295人で昼は夜の0.982倍の人口で、周辺の市に比べると昼夜間人口差が少ない。	NO_PRONOUNCE	NO_LABEL
通勤者・通学者で見ると市内から市外へ出る通勤者23,096人、市外から市内へ入る通勤者は15,211人と通勤者では市外へ出る通勤者のほうが多いが、学生では市内から市外に出る通学生は3,646人、市外から市内へ入る通学生は10,252人と学生では昼は市内へ流入する人数のほうが多い。	NO_PRONOUNCE	NO_LABEL
なお、国勢調査では年齢不詳のものが東京都だけで16万人おり、この項の昼夜間人口に関しては年齢不詳の人物は数字に入っていないので数字の間に若干の誤差は生じる。	なお、こくせいちょうさでわねんれいふしょーのものがとーきょーとだけでじゅうろくまんにんおり、このこーのひるやかんじんこーにかんしてわねんれいふしょーのじんぶつわすーじにはいっていないのですーじのまにじゃっかんのごさわしょーじる。	NO_LABEL
国立市では、住居表示に関する法律に基づく住居表示は実施されていないが、土地区画整理事業施行区域を含め、町名と地番を整理する方法により、住所整理が実施されている。	くにたちしでわ、じゅーきょひょーじにかんするほーりつにもとずくじゅーきょひょーじわじっしされていないが、とちくかくせいりじぎょーしこーくいきをふくめ、ちょーめいとちばんをせいりするほーほーにより、じゅーしょせいりがじっしされている。	NO_LABEL
住居表示実施前の町名等欄で下線がある町名はその全部、それ以外はその一部であり、その町名の末尾に数字がある場合には丁目を表す。	じゅーきょひょーじじっしまえのちょーめいとーらんでかせんがあるちょーめいわそのぜんぶ、それいがいわそのいちぶであり、そのちょーめいのまつびにすーじがあるばあいにわひのとめをあらわす。	NO_LABEL
親市長派が14人、非市長派が7人である。	しんしちょーはがじゅうよにん、ひしちょーはがしちにんである。	NO_LABEL
かつて上原公子市長を輩出するなど生活者ネットワークの伝統的な地盤とされていたが、2015年の市議選で現有3議席全てを失った。	NO_PRONOUNCE	NO_LABEL
市内の学園都市エリアは、東京都文教地区建築条例により文教地区に指定されている。	しないのがくえんとしえりあわ、とーきょーとぶんきょーちくけんちくじょーれいによりぶんきょーちくにしていされている。	NO_LABEL
文教地区とは、都市計画法により地方自治体が都市計画区域内に指定した特別用途地区で、教育施設の周囲や通学路に、教育上好ましくないと目されるパチンコ店や風俗店、ホテルなどの業種の進出を規制する地区である。	ぶんきょーちくとわ、としけいかくほーによりちほーじちたいがとしけいかくくいきないにしていしたとくべつよーとちくで、きょーいくしせつのしゅーいやつーがくろに、きょーいくじょーこのましくないとめされるぱちんこてんやふーぞくてん、ほてるなどのぎょーしゅのしんしゅつをきせいするちくである。	NO_LABEL
1950年代、急激な人口の増加に加え、朝鮮戦争勃発によって隣接する立川の米軍基地が活況を呈し、性風俗産業など米兵相手のいかがわしい商売が増えたこともあり、駅周辺の環境は悪化しつつあった。	せんきゅうひゃくごじゅうねんだい、きゅーげきなじんこーのぞーかにくわえ、ちょーせんせんそーぼっぱつによってりんせつするたちかわのべいぐんきちがかっきょーをていし、せいふーぞくさんぎょーなどべいへいあいてのいかがわしいしょーばいがふえたこともあり、えきしゅーへんのかんきょーわあっかしつつあった。	NO_LABEL
街の環境を守ろうと考えた国立の市民、学生たちは、1950年12月に公布されたばかりの「東京都文教地区建築条例」に目をつけ、文教地区指定を求めて運動を始めた。	NO_PRONOUNCE	NO_LABEL
町がさびれるという反対派の声もあったが、議論の結果、1952年、国立市は東京で初めて「文教地区」の指定を受けた。	NO_PRONOUNCE	NO_LABEL
現在の、多くの学校を擁する、緑豊かで閑静な町並みは、この文教地区指定によって守られているといえる。	げんざいの、おーくのがっこーをよーする、みどりゆたかでかんせいなまちなみわ、このぶんきょーちくしていによってまもられているといえる。	NO_LABEL
個人情報の保護、ドメスティック・バイオレンス被害者の保護などを理由として、2002年12月26日に、住民基本台帳ネットワークシステムの接続が切断された。	こじんじょうほーのほご、どめすてぃっくばいおれんすひがいしゃのほごなどをりゆーとして、にせんにねんじゅーにがつにじゅうろくにちに、じゅーみんきほんだいちょーねっとわーくしすてむのせつぞくがせつだんされた。	NO_LABEL
しかし、議会からは「住民基本台帳ネットワークシステムへの接続を求める決議の提出を求める決議」が可決されるなど、この切断に対する意見は分かれている。	NO_PRONOUNCE	NO_LABEL
現在、国立市民は、住基ネットに接続されている市区町村の住民にとって住民票の写しが必要なくなった各種手続きの一部について、接続切断を理由に住民票を提出する必要がある。	げんざい、くにたちしみんわ、じゅーきねっとにせつぞくされているしくちょーそんのじゅーみんにとってじゅーみんひょーのうつしがひつよーなくなったかくしゅてつずきのいちぶについて、せつぞくせつだんをりゆーにじゅーみんひょーをていしゅつするひつよーがある。	NO_LABEL
その際は国立市から無料で住民票の写しを受けることができる。	そのさいわくにたちしからむりょーでじゅーみんひょーのうつしをうけることができる。	NO_LABEL
また、市の業務である電子証明書の発行が不可能であるため、国税のオンライン申告・申請・納税手続ができなくなっている。	NO_PRONOUNCE	NO_LABEL
なお、2009年2月16日に、東京都知事から、住基ネットに接続するよう地方自治法に基づく是正の要求が行われた。	なお、にせんきゅうねんにがつじゅうろくにちに、とーきょーとちじから、じゅーきねっとにせつぞくするよーちほーじちほーにもとずくぜせいのよーきゅーがおこなわれた。	NO_LABEL
また、2009年9月29日には、国立市の住民らから、住基ネット切断により、違法な支出がなされているとして、関口博市長に対して、約692万円の補てんと支出の差止めを求める住民監査請求が提出された。	また、にせんきゅうねんくがつにじゅうきゅうにちにわ、くにたちしのじゅーみんらから、じゅーきねっとせつだんにより、いほーなししゅつがなされているとして、せきぐちひろししちょーにたいして、やくろっぴゃくきゅうじゅうにまんえんのほてんとししゅつのさしどめをもとめるじゅーみんかんさせいきゅーがていしゅつされた。	NO_LABEL
この住民監査請求の結果が11月27日、請求人に通知され、監査委員2人はともに住基ネット切断による追加的な支出を違法としながらも、支出の差止めの適否については意見が分かれたため、勧告としては出されなかった。	このじゅーみんかんさせいきゅーのけっかがじゅーいちがつにじゅうしちにち、せいきゅーじんにつーちされ、かんさいーんふたりわともにじゅーきねっとせつだんによるついかてきなししゅつをいほーとしながらも、ししゅつのさしどめのてきひについてわいけんがわかれたため、かんこくとしてわだされなかった。	NO_LABEL
これを受けて、請求人は、同年12月22日に住民訴訟を提起し、約692万円の違法な公金の支出があったとして国立市に対し関口市長個人に賠償を請求することを求めている。	これをうけて、せいきゅーじんわ、どーねんじゅーにがつにじゅうににちにじゅーみんそしょーをていきし、やくろっぴゃくきゅうじゅうにまんえんのいほーなこーきんのししゅつがあったとしてくにたちしにたいしせきぐちしちょーこじんにばいしょーをせいきゅーすることをもとめている。	NO_LABEL
2011年2月4日、東京地裁は住基ネット離脱を違法とし、一部支出の差止と支出の一部を市に返還するよう市長に命ずる判決を下した。	にせんじゅういちねんにがつよっか、とーきょーちさいわじゅーきねっとりだつをいほーとし、いちぶししゅつのさしとめとししゅつのいちぶをしにへんかんするよーしちょーにめいずるはんけつをくだした。	NO_LABEL
その後、2011年4月の市長選挙で住基ネットへの再接続を掲げた佐藤一夫市長が当選。	そのご、にせんじゅういちねんしがつのしちょーせんきょでじゅーきねっとえのさいせつぞくをかかげたさとーかずおしちょーがとーせん。	NO_LABEL
2012年2月には、約9年ぶりに住基ネットへと再接続された。	にせんじゅうにねんにがつにわ、やくきゅうねんぶりにじゅーきねっとえとさいせつぞくされた。	NO_LABEL
福島第一原子力発電所事故をきっかけとして電力入札の検討を開始し、国立市20か所の施設を対象として電力の一般競争入札を実施した。	NO_PRONOUNCE	NO_LABEL
落札事業者のエアネットは2011年11月より1年間の契約期間にて電力供給を行い、150万円の削減効果となった。	らくさつじぎょーしゃのえあねっとわにせんじゅういちねんじゅーいちがつよりいちねんかんのけいやくきかんにてでんりょくきょうきゅーをおこない、ひゃくごじゅうまんえんのさくげんこーかとなった。	NO_LABEL
交流都市、姉妹都市はないが、2017年時点で次の都市が将来の交流候補として挙がっている。	こーりゅーとし、しまいとしわないが、にせんじゅうななねんじてんでつぎのとしがしょーらいのこーりゅーこーほとしてあがっている。	NO_LABEL
衆議院小選挙区選挙では東京21区に属する。	しゅーぎーんしょーせんきょくせんきょでわとーきょーにじゅういっくにぞくする。	NO_LABEL
近年選出の議員は以下のとおり。	きんねんせんしゅつのぎいんわいかのとーり。	NO_LABEL
※ 2017年の区割り変更までは東京19区に属していた。	NO_PRONOUNCE	NO_LABEL
北多摩2区に属する。	きたたまにくにぞくする。	NO_LABEL
定数は2人。	ていすーわふたり。	NO_LABEL
近年選出の議員は以下のとおり。	きんねんせんしゅつのぎいんわいかのとーり。	NO_LABEL
立川警察署が担当している。	たちかわけいさつしょがたんとーしている。	NO_LABEL
市内には3つの交番と1つの駐在所、1つの地域安全センターがある。	しないにわみっつのこーばんとひとつのちゅーざいしょ、ひとつのちーきあんぜんせんたーがある。	NO_LABEL
矢川・谷保駅前には交番はない。	NO_PRONOUNCE	NO_LABEL
立川消防署が管轄。	たちかわしょーぼーしょがかんかつ。	NO_LABEL
市内に国立出張所と谷保出張所があり、本署はない。	しないにこくりつしゅっちょーしょとやほしゅっちょーしょがあり、ほんしょわない。	NO_LABEL
2012年1月現在、郵便局は、市内の集配業務を担当している国立郵便局を合わせ、計10局ある。	NO_PRONOUNCE	NO_LABEL
なお、西二丁目に日本郵政グループの研修施設である「郵政大学校・中央郵政研修センター」が所在する。	NO_PRONOUNCE	NO_LABEL
NTT東日本-東京西　国立交換局	NO_PRONOUNCE	NO_LABEL
中浄水場と谷保浄水場の2箇所で、市内の地下水60%と東京都水道局より河川40%を混ぜて市内に供給している。	NO_PRONOUNCE	NO_LABEL
なお2009年3月31日に東京都水道局から料金徴収等の事務委託が廃止され、立川サービスステーションで料金徴収等事務を行っている。	なおにせんきゅうねんさんがつさんじゅういちにちにとーきょーとすいどーきょくからりょーきんちょーしゅーとーのじむいたくがはいしされ、たちかわさーびすすてーしょんでりょーきんちょーしゅーとーじむをおこなっている。	NO_LABEL
下水処理は東京都下水道局に委託しており、市内にある北多摩二号水再生センターで処理されている。	げすいしょりわとーきょーとげすいどーきょくにいたくしており、しないにあるきたたまにごーすいさいせいせんたーでしょりされている。	NO_LABEL
稲城市、狛江市、府中市、国立市の4市で構成される「多摩川衛生組合」に加入し、稲城市大丸の多摩川沿いにある「クリーンセンター多摩川」で焼却処理を行っている。	NO_PRONOUNCE	NO_LABEL
焼却残渣は、日の出町にある東京たま広域資源循環組合の広域処分場にて最終処理をしている。	NO_PRONOUNCE	NO_LABEL
校名の後のカッコは所在地を示す。	こーめいののちのかっこわしょざいちをしめす。	NO_LABEL
大学通り両脇の緑地帯はプリンスホテルの所有地、歩道部分は市有地である。	だいがくどーりりょーわきのりょくちたいわぷりんすほてるのしょゆーち、ほどーぶぶんわしゆーちである。	NO_LABEL
大学通りに唯一かかっている歩道橋が建設された当時、住民の間から「歩道橋を建設すると自動車の速度があがり、かえって自動車事故が増える」などと建設反対運動が起きた。	NO_PRONOUNCE	NO_LABEL
結局、車椅子でも渡れる障害者にも優しい歩道橋にすることで折り合いがつき、今の形となった。	けっきょく、くるまいすでもわたれるしょーがいしゃにもやさしいほどーきょーにすることでおりあいがつき、いまのかたちとなった。	NO_LABEL
この歩道橋は桜見物の名所として、知られている。	このほどーきょーわさくらけんぶつのめいしょとして、しられている。	NO_LABEL
岩井俊二監督、松たか子主演の映画『四月物語』のロケが行われたこともある。	NO_PRONOUNCE	NO_LABEL
しかし、一部の歩行者はスロープの大回りを面倒がり、道路の横断も見られる。	しかし、いちぶのほこーしゃわすろーぷのおーまわりをめんどーがり、どーろのおーだんもみられる。	NO_LABEL
大学通りの両脇の部分には「自転車専用レーン」がある。	NO_PRONOUNCE	NO_LABEL
なお緑地帯、自転車専用レーンがあるのは国立駅～さくら通り手前、逆方向ではさくら通り～国立駅の区間であり、さくら通り手前～谷保駅と谷保駅～さくら通りは片側1車線と歩道である。	NO_PRONOUNCE	NO_LABEL
国立駅北口には国分寺市のコミュニティバスである「ぶんバス」が、谷保駅前には JRバス関東/西日本JRバスの夜行高速バス「ドリーム号」が乗り入れている。	NO_PRONOUNCE	NO_LABEL
国立駅南口 -第一団地は各社合せて昼間毎時12本の頻発となっている。	NO_PRONOUNCE	NO_LABEL
また、国立駅北口から発着する国立駅 - けやき台団地は立川バスで一番乗降者の多い路線である。	NO_PRONOUNCE	NO_LABEL
特筆しない限り出身者を示す。	とくひつしないかぎりしゅっしんしゃをしめす。	NO_LABEL
小説・漫画	NO_PRONOUNCE	NO_LABEL
映画	えいが	NO_LABEL
アニメ作品	あにめさくひん	NO_LABEL
楽曲	がっきょく	NO_LABEL
