岩沼とんちゃんとは、宮城県岩沼市を中心とした地域で食べられている豚のホルモン焼き料理の総称。	いわぬまとんちゃんとわ、みやぎけんいわぬましをちゅーしんとしたちいきでたべられているぶたのほるもんやきりょーりのそーしょー。	NO_LABEL
岩沼市では、生の豚のモツを用いたホルモン焼きを「とんちゃん」と呼び、「ジンギスカン鍋で焼く」という特徴がある。	NO_PRONOUNCE	NO_LABEL
たれは店によって醤油だれと味噌だれに分かれる。	たれわみせによってしょーゆだれとみそだれにわかれる。	NO_LABEL
市内には岩沼市営食肉処理場があったが、当初は市民にホルモン焼きを食べる習慣は無かったようである。	しないにわいわぬましえいしょくにくしょりじょーがあったが、とーしょわしみんにほるもんやきをたべるしゅーかんわなかったよーである。	NO_LABEL
後に市民が食べるようになったいきさつについては不明な点があるが、「とんちゃん」の名称でホルモン専門店や焼肉屋などで出されるようになった。	NO_PRONOUNCE	NO_LABEL
2000年3月に岩沼市営食肉処理場が廃止され、各店の経営者の高齢化もあって「とんちゃん」を扱う店が減少する傾向がある中、2008年5月頃から「元気ないわぬま発信委員会」が市内の「とんちゃん」の実態調査を開始し、仙台・宮城デスティネーションキャンペーンに合わせて「岩沼とんちゃん」と名付けて、9月から食べ歩きマップの配布を開始した。	NO_PRONOUNCE	NO_LABEL
その様子が地元マスメディアを通じて紹介されていったが、その際には「とんちゃん」「とんちゃん焼き」「岩沼とんちゃん」と複数の呼称が用いられた。	NO_PRONOUNCE	NO_LABEL
2009年夏に第2弾のマップを作成する頃には「岩沼とんちゃん」を出す店が岩沼市内で1店舗増えて10店となり、2010年8月の第3弾のマップ作成時までにはさらに3店舗増えて13店となるなど、広がりを見せている。	NO_PRONOUNCE	NO_LABEL
なお、岩沼市のモツ料理には、「アンチョビとんちゃんピザ」「豚ホルモンとんこつ鍋」など、店によって派生メニューが多様である所も特徴と言える。	NO_PRONOUNCE	NO_LABEL
