佐藤 尚巳は日本の建築家。	さとーなおみわにっぽんのけんちくか。	NO_LABEL
株式会社佐藤尚巳建築研究所を主宰。	かぶしきがいしゃさとーなおみけんちくけんきゅーじょをしゅさい。	NO_LABEL
東京都生まれ。	とーきょーとうまれ。	NO_LABEL
1979年、東京大学工学部建築学科卒業。	せんきゅうひゃくななじゅうきゅうねん、とーきょーだいがくこーがくぶけんちくがっかそつぎょー。	NO_LABEL
1979年から1986年まで菊竹清訓建築設計事務所に勤務。	せんきゅうひゃくななじゅうきゅうねんからせんきゅうひゃくはちじゅうろくねんまできくたけきよのりけんちくせっけいじむしょにきんむ。	NO_LABEL
その後渡米し、ハーバード大学に進学。	そのごとべいし、はーばーどだいがくにしんがく。	NO_LABEL
1987年にケンブリッジ・セブン・アソシエイツに勤務。	NO_PRONOUNCE	NO_LABEL
1988年、ハーバード大学デザイン大学院建築学専攻修士課程修了。	せんきゅうひゃくはちじゅうはちねん、はーばーどだいがくでざいんだいがくいんけんちくがくせんこーしゅーしかていしゅーりょー。	NO_LABEL
1988年から1990年まで、I.M.Pei&Partnersに勤務し、1990年、Rafael Vinoly Architects PCに移籍。	NO_PRONOUNCE	NO_LABEL
1990年4月から1996年9月まで、株式会社ラファエル・ヴィニオリ建築士事務所東京事務所長として、東京国際フォーラムの監理担当。	NO_PRONOUNCE	NO_LABEL
1996年11月から株式会社佐藤尚巳建築研究所を設立。	せんきゅうひゃくきゅうじゅうろくねんじゅーいちがつからかぶしきがいしゃさとーなおみけんちくけんきゅーじょをせつりつ。	NO_LABEL
2001年から2003年まで、国士舘大学工学部建築学科非常勤講師。	にせんいちねんからにせんさんねんまで、こくしかんだいがくこーがくぶけんちくがっかひじょーきんこーし。	NO_LABEL
2002年からは武蔵野美術大学建築学科非常勤講師。	にせんにねんからわむさしのびじゅつだいがくけんちくがっかひじょーきんこーし。	NO_LABEL
2004年からは、東京工業大学工学部建築学科非常勤講師も兼務。	にせんよねんからわ、とーきょーこーぎょーだいがくこーがくぶけんちくがっかひじょーきんこーしもけんむ。	NO_LABEL
2002年の武蔵野市吉祥寺シアター設計プロポーザル最優秀賞。	にせんにねんのむさしのしきちじょーじしあたーせっけいぷろぽーざるさいゆーしゅーしょー。	NO_LABEL
2003年からは港区景観アドバイザーを務める。	にせんさんねんからわみなとくけいかんあどばいざーをつとめる。	NO_LABEL
東京国際フォーラムで1998年建築業協会賞、いわき芸術文化交流館アリオスで照明普及賞優秀施設賞、アメリカ劇場技術協会Award of Merit、「田園調布の家」でAward of Design。	NO_PRONOUNCE	NO_LABEL
その他作品に、南通英瑞会館日本外国特派員協会部分改装1期、2期など。	そのたさくひんに、みなみどーりえいみずかいかんにほんがいこくとくはいんきょうかいぶぶんかいそーいっき、にきなど。	NO_LABEL
