山崎 清は、日本の経済学・経営学者。	NO_PRONOUNCE	NO_LABEL
東京生まれ。	とーきょーうまれ。	NO_LABEL
早稲田大学法学部仏法学科卒。	わせだだいがくほーがくぶぶっぽーがっかそつ。	NO_LABEL
三菱経済研究所、貿易研修センター勤務、東洋大学経営学部教授。	みつびしけいざいけんきゅーじょ、ぼーえきけんしゅーせんたーきんむ、とーよーだいがくけいえいがくぶきょーじゅ。	NO_LABEL
89年杏林大学教授。	はちじゅうきゅうねんきょーりんだいがくきょーじゅ。	NO_LABEL
