キャロル・リトルトンは、アメリカ合衆国の編集技師。	きゃろるりとるとんわ、あめりかがっしゅーこくのへんしゅーぎし。	NO_LABEL
アメリカ映画編集者協会会員。	あめりかえいがへんしゅーしゃきょーかいかいいん。	NO_LABEL
オクラホマ大学アーツ＆サイエンス校に在籍。	おくらほまだいがくあーつあんどさいえんすこーにざいせき。	NO_LABEL
1965年に学士号、1970年に博士号を取得した。	せんきゅうひゃくろくじゅうごねんにがくしごー、せんきゅうひゃくななじゅうねんにはくしごーをしゅとくした。	NO_LABEL
フランスのヌーヴェルヴァーグに傾倒し、編集技師を志す原動力となった。	NO_PRONOUNCE	NO_LABEL
1982年の『E.T.』でアカデミー編集賞にノミネートされた。	NO_PRONOUNCE	NO_LABEL
夫は撮影監督のジョン・ベイリー	おっとわさつえいかんとくのじょんべいりー	NO_LABEL
『再会の時』、『シルバラード』では夫婦で映画製作に携わっている。	NO_PRONOUNCE	NO_LABEL
