八木 荘司は、日本の新聞記者、作家。	やぎしょーじわ、にっぽんのしんぶんきしゃ、さっか。	NO_LABEL
兵庫県生まれ。	ひょーごけんうまれ。	NO_LABEL
1963年京都大学文学部卒業。	せんきゅうひゃくろくじゅうさんねんきょーとだいがくぶんがくぶそつぎょー。	NO_LABEL
産経新聞社入社。	さんけいしんぶんしゃにゅーしゃ。	NO_LABEL
大阪本社編集局社会部長、同編集長、東京本社論説委員長、編集特別委員。	おーさかほんしゃへんしゅーきょくしゃかいぶちょー、どーへんしゅーちょー、とーきょーほんしゃろんせついーんちょー、へんしゅーとくべついいん。	NO_LABEL
有沢創司の筆名で書いた『ソウルに消ゆ』で日本推理サスペンス大賞受賞、1999年より「産経新聞」に「古代からの伝言」を連載。	NO_PRONOUNCE	NO_LABEL
八木倍年説によって古代天皇の実在を主張する。	やぎばいねんせつによってこだいてんのーのじつざいをしゅちょーする。	NO_LABEL
