連邦議会は、ミャンマーの立法府である。	れんぽーぎかいわ、みゃんまーのりっぽーふである。	NO_LABEL
2008年に制定されたに基づいて設置。	にせんはちねんにせいていされたにもとずいてせっち。	NO_LABEL
二院制で上院にあたると、下院にあたるで構成される。	にーんせいでじょーいんにあたると、かいんにあたるでこーせいされる。	NO_LABEL
5年。	ごねん。	NO_LABEL
各々の議員定数の4分の1は、国軍司令官により指名される。	NO_PRONOUNCE	NO_LABEL
