汪 洋は、中国・武漢市出身のサッカー選手。	NO_PRONOUNCE	NO_LABEL
武漢卓爾足球倶楽部に所属する。	ぶかんたくじそくきゅーくらぶにしょぞくする。	NO_LABEL
中国代表である。	ちゅーごくだいひょーである。	NO_LABEL
2001年より武漢光谷の下部組織に所属していたが、2008年シーズン途中に武漢光谷がリーグを脱退した事から、2009年には梅方とともにサークル・ブルッヘのトライアルを受けた。	にせんいちねんよりぶかんみつたにのかぶそしきにしょぞくしていたが、にせんはちねんしーずんとちゅーにぶかんみつたにがりーぐをだったいしたことから、にせんきゅうねんにわうめかたとともにさーくるぶるっへのとらいあるをうけた。	NO_LABEL
トライアル終了後にいったん帰国したが、その後2010年夏までの契約を結んだ。	とらいあるしゅーりょーごにいったんきこくしたが、そのごにせんじゅうねんなつまでのけいやくをむすんだ。	NO_LABEL
2008-09シーズンの残り期間はリザーブチームでプレーし、2009-10シーズンからトップチームに昇格した。	NO_PRONOUNCE	NO_LABEL
シーズン開幕戦のKAAヘント戦の84分から途中出場してデビューを飾った。	NO_PRONOUNCE	NO_LABEL
2013年に武漢卓爾足球倶楽部へ移籍し、母国に復帰した。	にせんじゅうさんねんにぶかんたくじそくきゅーくらぶえいせきし、ぼこくにふっきした。	NO_LABEL
