アンソニー・ジョン・"トニー"・アボットは、オーストラリアの政治家。	NO_PRONOUNCE	NO_LABEL
元オーストラリア自由党党首。	もとおーすとらりあじゆうとーとーしゅ。	NO_LABEL
第28代オーストラリア連邦首相。	だいにじゅうはちだいおーすとらりあれんぽーしゅしょー。	NO_LABEL
宗教はカトリックである。	しゅーきょーわかとりっくである。	NO_LABEL
イギリスのロンドンで、オーストラリア国籍の両親の間に生まれた。	いぎりすのろんどんで、おーすとらりあこくせきのりょーしんのまにうまれた。	NO_LABEL
アボットの父リチャードはニューカッスル・アポン・タインで生まれ、近郊の村で育った。	あぼっとのちちりちゃーどわにゅーかっするあぽんたいんでうまれ、きんこーのむらでそだった。	NO_LABEL
アボットは第二次世界大戦中に家族とともにオーストラリアに移住している。	あぼっとわだいにじせかいたいせんちゅーにかぞくとともにおーすとらりあにいじゅーしている。	NO_LABEL
母フェイはシドニー出身のオーストラリア人である。	ははふぇいわしどにーしゅっしんのおーすとらりあじんである。	NO_LABEL
1960年に幼いアボットは両親とともにオーストラリアへ帰国した。	せんきゅうひゃくろくじゅうねんにおさないあぼっとわりょーしんとともにおーすとらりあえきこくした。	NO_LABEL
シドニー郊外のチャッツウッドに一家は居を構えた。	しどにーこーがいのちゃっつうっどにいっかわきょをかまえた。	NO_LABEL
シドニー大学で経済学と法学を専攻し、学生代表委員会会長を務める。	しどにーだいがくでけいざいがくとほーがくをせんこーし、がくせいだいひょーいーんかいかいちょーをつとめる。	NO_LABEL
またボクサーとしての活動歴もある。	またぼくさーとしてのかつどーれきもある。	NO_LABEL
シドニー大学卒業後はローズ奨学生としてオックスフォード大学ザ・クイーンズ・カレッジに留学し、オックスフォード大学で修士号を取得する。	NO_PRONOUNCE	NO_LABEL
1984年、カトリックの神学校であるセント・パトリック神学校へ入学しカトリック司祭になるための勉強を始め、イエズス会に影響を受けたが、その後中退した。	NO_PRONOUNCE	NO_LABEL
神学校をやめてから出会ったのが、シドニーで働くニュージーランド人のマーガレット・エイトケンで、2人は1988年に結婚した。	NO_PRONOUNCE	NO_LABEL
妻との間にルイーズ、ブリジェット、フランセスの3子がいる.。	NO_PRONOUNCE	NO_LABEL
学生時代よりライターとして活動していた縁でオーストラリアンなどに記事を寄稿しジャーナリストとして活動を始める。	がくせいじだいよりらいたーとしてかつどーしていたえんでおーすとらりあんなどにきじをきこーしじゃーなりすととしてかつどーをはじめる。	NO_LABEL
記事の中で労働組合や左派系政党を批判する論調を展開した。	きじのなかでろーどーくみあいやさはけいせいとーをひはんするろんちょーをてんかいした。	NO_LABEL
1990年から1993年までオーストラリアの政治家ジョン・ヒューソン秘書、1993年から1994年までオーストラリア立法君主連合事務局長を務める。	NO_PRONOUNCE	NO_LABEL
1994年、ニューサウスウェールズ州の連邦議会補欠選挙で当選し政界入りした。	せんきゅうひゃくきゅうじゅうよねん、にゅーさうすーぇーるずしゅーのれんぽーぎかいほけつせんきょでとーせんしせいかいいりした。	NO_LABEL
ジョン・ハワード政権下に2001年に環境大臣、2003年に健康保険大臣に就任した。	じょんはわーどせいけんかににせんいちねんにかんきょーだいじん、にせんさんねんにけんこーほけんだいじんにしゅーにんした。	NO_LABEL
2009年に行われた自由党内の党首選挙でマルコム・ターンブルに替わって党首に就任した。	にせんきゅうねんにおこなわれたじゆーとーないのとーしゅせんきょでまるこむたーんぶるにかわってとーしゅにしゅーにんした。	NO_LABEL
ハワード政権退陣後、自由党はブレンダン・ネルソン、ターンブルと党首交代が相次ぎ迷走が続いていたが、アボットは退潮傾向に歯止めをかけ、2010年6月には人気の高かった首相のケビン・ラッドを退陣に追い込み、同年8月の総選挙では情勢を接戦に持ち込んだ。	NO_PRONOUNCE	NO_LABEL
2013年9月の総選挙では与党の労働党を大差で下し、政権交代を実現させる。	にせんじゅうさんねんくがつのそーせんきょでわよとーのろーどーとーをたいさでくだし、せいけんこーたいをじつげんさせる。	NO_LABEL
同月18日、就任宣誓式を行い第28代オーストラリア連邦首相に就任した。	どーげつじゅうはちにち、しゅーにんせんせいしきをおこないだいにじゅうはちだいおーすとらりあれんぽーしゅしょーにしゅーにんした。	NO_LABEL
2014年4月に来日。	にせんじゅうよねんしがつにらいにち。	NO_LABEL
2015年1月には旧宗主国に当たるイギリスのエディンバラ公フィリップへの勲章授与を独断で決めたことをきっかけに党内の不満が噴出し、野党だけでなく与党内部からも「時代錯誤で権威主義」と批判を浴びた。	NO_PRONOUNCE	NO_LABEL
経済政策や指導力へも疑問が高まり、2月6日に自由党党首からの解任動議を提出される。	けいざいせいさくやしどーりょくえもぎもんがたかまり、にがつむいかにじゆーとーとーしゅからのかいにんどーぎをていしゅつされる。	NO_LABEL
9日には動議を否決したものの、賛成39、反対61と賛成票が4割近くになったため求心力は低下した。	NO_PRONOUNCE	NO_LABEL
その後は首相、与党とも世論調査で支持率が低下するなど与党内部からアボットに対し不信の声が高まり、通信大臣で自由党元党首のマルコム・ターンブルなどから退陣を迫られた。	そのごわしゅしょー、よとーともよろんちょーさでしじりつがていかするなどよとーないぶからあぼっとにたいしふしんのこえがたかまり、つーしんだいじんでじゆーとーもととーしゅのまるこむたーんぶるなどからたいじんをせまられた。	NO_LABEL
9月14日、ターンブルの要求を受けアボット首相は党首選挙を実施し、ターンブルに敗北、首相を辞任することとなった。	くがつじゅうよっか、たーんぶるのよーきゅーをうけあぼっとしゅしょーわとーしゅせんきょをじっしし、たーんぶるにはいぼく、しゅしょーをじにんすることとなった。	NO_LABEL
翌15日、正式に首相を退任した。	よくじゅうごにち、せいしきにしゅしょーをたいにんした。	NO_LABEL
保守的なカトリック教徒としても知られ、胚性幹細胞の研究や人工妊娠中絶に反対し、君主制存続を主張している。	ほしゅてきなかとりっくきょーととしてもしられ、はいせいかんさいぼーのけんきゅーやじんこーにんしんちゅーぜつにはんたいし、きょうわせいそんぞくをしゅちょーしている。	NO_LABEL
ニューズウィークによれば、次のような政策を行っている、と報道している。	にゅーずうぃーくによれば、つぎのよーなせいさくをおこなっている、とほーどーしている。	NO_LABEL
炭素税と鉱物資源利用税を廃止、サメの殺害、国立公園内で家畜放牧の解禁、再生可能エネルギーへの投資を縮小、グレートバリアリーフへの土砂の廃棄の許可、ユネスコに対しタスマニア原生林を世界遺産登録から外す事を要望。	たんそぜいとこーぶつしげんりよーぜいをはいし、さめのさつがい、こくりつこーえんないでかちくほーぼくのかいきん、さいせいかのーえねるぎーえのとーしをしゅくしょー、ぐれーとばりありーふえのどしゃのはいきのきょか、ゆねすこにたいしたすまにあげんせいりんをせかいいさんとーろくからはずすことをよーぼー。	NO_LABEL
また、ニューズウィークによれば、インデペンデントは「オーストラリア史上、自国の環境に最も優しくない」という旨を述べていると報道し、これに対しニューズウィークは「オーストラリアではなく『地球』かもしれない」と述べている。	NO_PRONOUNCE	NO_LABEL
ラッド政権下において捕鯨問題などでぎくしゃくしがちだった日豪関係の修復・強化を打ち出した。	NO_PRONOUNCE	NO_LABEL
日本との関係を「アジアにおける最良の友」「世界史の中で最もお互いに恩恵を受けてきた二国間関係の1つ」と評価している。	NO_PRONOUNCE	NO_LABEL
2014年7月、安倍晋三内閣総理大臣と会談し、11月1日に第一次世界大戦でオーストラリア軍とニュージーランド軍の最初の輸送船団が出発してから100年を迎えるにあたって行われる記念式典に自衛隊も参加させることで一致した。	にせんじゅうよねんしちがつ、あべしんぞーないかくそーりだいじんとかいだんし、じゅーいちがつついたちにだいいちじせかいたいせんでおーすとらりあぐんとにゅーじーらんどぐんのさいしょのゆそーせんだんがしゅっぱつしてからひゃくねんをむかえるにあたっておこなわれるきねんしきてんにじえいたいもさんかさせることでいっちした。	NO_LABEL
日本は当時、日英同盟に基いて海軍の巡洋戦艦伊吹を派遣し船団の護衛を行っており、これはその時の協力関係を考慮したものである。	にっぽんわとーじ、にちえいどーめいにもとずいてかいぐんのじゅんよーせんかんいぶきをはけんしせんだんのごえいをおこなっており、これわそのときのきょーりょくかんけいをこーりょしたものである。	NO_LABEL
式典には海上自衛隊の護衛艦きりさめが参加した。	しきてんにわかいじょーじえいたいのごえいかんきりさめがさんかした。	NO_LABEL
アボット首相は式典で日本について、「同盟国から敵となり、今では最良の友」であると述べた。	NO_PRONOUNCE	NO_LABEL
野党時代は政府与党の中華人民共和国寄りの政策を批判していたが、首相になってからは中国と自由貿易協定を締結した。	やとーじだいわせいふよとーのちゅーかじんみんきょーわこくよりのせいさくをひはんしていたが、しゅしょーになってからわちゅーごくとじゆーぼーえききょーていをていけつした。	NO_LABEL
