ネギダールは、ツングース系民族の一つで、主にロシア国内の極東連邦管区のアムグン川・アムール川沿岸に居住する。	NO_PRONOUNCE	NO_LABEL
「ネギダル」とも表記されるほか、「アムグニ・ツングース」という名称もある。	NO_PRONOUNCE	NO_LABEL
エヴェンキから派生したため、多くの共通点があり、ツングース諸語の中でもエヴェンキ語に近いネギダール語という言語を持つ。	NO_PRONOUNCE	NO_LABEL
2002年全ロシア国勢調査によると、ロシア国内に567人が暮らし、その内の147人がネギダール語を話している。	にせんにねんぜんろしあこくせいちょうさによると、ろしあこくないにごひゃくろくじゅうしちにんがくらし、そのうちのひゃくよんじゅうしちにんがねぎだーるごをはなしている。	NO_LABEL
近年は、一部がロシア人との混血が進んでいる。	きんねんわ、いちぶがろしあじんとのこんけつがすすんでいる。	NO_LABEL
