オリンピックグアム選手団は、1988年ソウル大会で初出場した。	おりんぴっくぐあむせんしゅだんわ、せんきゅうひゃくはちじゅうはちねんそうるたいかいではつしゅつじょーした。	NO_LABEL
2017年現在、夏季大会にはソウル大会以降の大会に毎回出場している。	にせんじゅうななねんげんざい、かきたいかいにわそうるたいかいいこーのたいかいにまいかいしゅつじょーしている。	NO_LABEL
冬季大会にはこれまで1988年カルガリー大会に一度出場しただけである。	とーきたいかいにわこれまでせんきゅうひゃくはちじゅうはちねんかるがりーたいかいにいちどしゅつじょーしただけである。	NO_LABEL
また、これまでにメダルを獲得したグアム選手はいない。	また、これまでにめだるをかくとくしたぐあむせんしゅわいない。	NO_LABEL
グアムの国内オリンピック委員会は1976年に設立。	ぐあむのこくないおりんぴっくいーんかいわせんきゅうひゃくななじゅうろくねんにせつりつ。	NO_LABEL
国際オリンピック委員会には1986年に承認された。	こくさいおりんぴっくいーんかいにわせんきゅうひゃくはちじゅうろくねんにしょーにんされた。	NO_LABEL
