『殺陣師段平』は、長谷川幸延による日本の戯曲、または同作を原作とした1950年製作・公開、マキノ正博監督による日本の長篇劇映画、および1962年製作・公開、瑞穂春海監督による日本のリメイク映画、1962年および1964年製作・放送の日本のテレビドラマである。	NO_PRONOUNCE	NO_LABEL
映画に関しては、1955年にも、マキノ雅弘が『人生とんぼ返り』のタイトルでセルフリメイクしており、本項で詳述する。	NO_PRONOUNCE	NO_LABEL
戯曲の初演は1949年、東京・有楽座での新国劇による公演であった。	NO_PRONOUNCE	NO_LABEL
初期の新国劇の頭取であり殺陣師であった実在の人物、市川段平の人生をモチーフに長谷川幸延が戯曲を書き下ろし、1949年3月、新国劇自身が初演を行った。	しょきのしんこくげきのとーどりでありたてしであったじつざいのじんぶつ、いちかわだんびらのじんせいをもちーふにはせがわこーえんがぎきょくをかきおろし、せんきゅうひゃくよんじゅうきゅうねんさんがつ、しんこくげきじしんがしょえんをおこなった。	NO_LABEL
翌1950年、本戯曲を原作に、黒澤明が映画脚本に脚色、マキノ正博が監督し、初の映画化となった。	よくせんきゅうひゃくごじゅうねん、ほんぎきょくをげんさくに、くろさわあきらがえいがきゃくほんにきゃくしょく、まきのまさひろがかんとくし、はつのえいがかとなった。	NO_LABEL
1954年10月、新国劇が東京・明治座で再演を行った際には、当初四幕の戯曲に行友李風作の『月形半平太』の劇中劇が加わり、五幕劇に書き換えられた。	NO_PRONOUNCE	NO_LABEL
この初演の演出は長谷川幸延が行った。	このしょえんのえんしゅつわはせがわこーえんがおこなった。	NO_LABEL
翌1955年、マキノ正博改めマキノ雅弘が脚色・監督し、『人生とんぼ返り』のタイトルでセルフリメイクした。	NO_PRONOUNCE	NO_LABEL
1962年には、瑞穂春海が3回目の映画化を果たした。	せんきゅうひゃくろくじゅうにねんにわ、ほずみはるみがさんかいめのえいがかをはたした。	NO_LABEL
1969年3月には、マキノ雅弘が、藤岡琢也の段平、瑳峨三智子のお春、津川雅彦の沢田正二郎という陣容、セルフリメイク映画と同じ『人生とんぼ返り』のタイトルで演出、名古屋の中日劇場で初演している。	NO_PRONOUNCE	NO_LABEL
藤岡琢也版はその後も同タイトルで、1975年に大阪・中座で再演され、2004年には『劇団青年座創立五十周年記念作品』として津嘉山正種の段平、岩倉高子のお春、佐藤祐四の澤田正二郎で上演され、2006年には再演、全国巡演された。	NO_PRONOUNCE	NO_LABEL
『殺陣師段平』は、1950年製作・公開、長谷川幸延の同名の戯曲を原作としたマキノ正博監督による日本の長篇劇映画である。	NO_PRONOUNCE	NO_LABEL
『人生とんぼ返り』は、1955年製作・公開、長谷川幸延の戯曲『殺陣師段平』を原作としたマキノ雅弘監督による日本の長篇劇映画である。	NO_PRONOUNCE	NO_LABEL
『殺陣師段平』は、1962年製作・公開、長谷川幸延の同名の戯曲を原作とした瑞穂春海監督による日本の長篇劇映画である。	NO_PRONOUNCE	NO_LABEL
1962年6月12日にフジテレビの『シャープ火曜劇場』で単発放送。	NO_PRONOUNCE	NO_LABEL
同年10月12日にも同枠で再放送された。	どーねんじゅーがつじゅうににちにもどーわくでさいほーそーされた。	NO_LABEL
『殺陣師段平』は、1964年製作・放送、長谷川幸延の同名の戯曲を原作とした長谷川自身の脚本による日本の単発テレビドラマである。	NO_PRONOUNCE	NO_LABEL
1949年3月の新国劇の初演同様、段平を島田正吾、その妻・お春を外崎恵美子が演じた。	NO_PRONOUNCE	NO_LABEL
テレビドラマデータベースでの「戸崎恵美子」は誤り。	NO_PRONOUNCE	NO_LABEL
