Truth In Fantasyは新紀元社より発行されているファンタジー解説書のシリーズ。	NO_PRONOUNCE	NO_LABEL
ファンタジーの分野でモティーフとされる様々な題材を実在の神話・伝承・歴史などからピックアップしたダイジェスト版資料。	NO_PRONOUNCE	NO_LABEL
巻末には参考文献の一覧も備えられている。	かんまつにわさんこーぶんけんのいちらんもそなえられている。	NO_LABEL
1988年より発行が開始され、現在まで70冊以上が発売されている。	NO_PRONOUNCE	NO_LABEL
日本のロールプレイングゲームの黎明期ではファンタジーゲームに出てくるガジェットの背景がほとんどが知られていなかったため、同社のファンタジー書籍が全国のゲーマーのファンタジーへの理解を大いに助けることとなった。	にっぽんのろーるぷれいんぐげーむのれいめいきでわふぁんたじーげーむにでてくるがじぇっとのはいけいがほとんどがしられていなかったため、どーしゃのふぁんたじーしょせきがぜんこくのげーまーのふぁんたじーえのりかいをおーいにたすけることとなった。	NO_LABEL
初期はライター集団怪兵隊による共著。	しょきわらいたーしゅーだんかいへいたいによるきょーちょ。	NO_LABEL
全てA5判ソフトカバーの体裁で統一されていたが、2011年より一部が文庫化され安価になった。	すべてえいごばんそふとかばーのていさいでとーいつされていたが、にせんじゅういちねんよりいちぶがぶんこかされあんかになった。	NO_LABEL
