アナスタシウス3世は、第120代ローマ教皇。	NO_PRONOUNCE	NO_LABEL
出身はローマ。	しゅっしんわろーま。	NO_LABEL
911年4月に先代のセルギウス3世が死去したため、6月に教皇に選出された。	きゅうひゃくじゅういちねんしがつにせんだいのせるぎうすさんせいがしきょしたため、ろくがつにきょーこーにせんしゅつされた。	NO_LABEL
在位2年2ヶ月にして913年8月に死去した。	NO_PRONOUNCE	NO_LABEL
