本項目はコネチカット州の都市圏の一覧である。	ほんこーもくわこねちかっとしゅーのとしけんのいちらんである。	NO_LABEL
アメリカ合衆国国勢調査局は、コネチカット州に合同統計地域3ヶ所、大都市統計地域5ヶ所、および小都市統計地域1ヶ所を定義している。	NO_PRONOUNCE	NO_LABEL
下表には、左列より以下の情報を示す。	かひょーにわ、ひだりれつよりいかのじょーほーをしめす。	NO_LABEL
なお、下表においては、コネチカット州と他州にまたがる合同統計地域およびコアベース統計地域については、名称と統計地域の総人口を青緑色で、コネチカット州内の人口を黒色でそれぞれ示す。	なお、かひょーにおいてわ、こねちかっとしゅーとたしゅーにまたがるごーどーとーけいちーきおよびこあべーすとーけいちーきについてわ、めいしょーととーけいちいきのそーじんこーをあおみどりしょくで、こねちかっとしゅーないのじんこーをこくしょくでそれぞれしめす。	NO_LABEL
また、他州のコアベース統計地域および郡については、その名称と人口を緑色でそれぞれ示す。	また、たしゅーのこあべーすとーけいちーきおよびぐんについてわ、そのめいしょーとじんこーをりょくしょくでそれぞれしめす。	NO_LABEL
下表における人口の数値はすべて2010年4月1日に行われた国勢調査時のものである。	かひょーにおけるじんこーのすーちわすべてにせんじゅうねんしがつついたちにおこなわれたこくせいちょうさじのものである。	NO_LABEL
また、合同統計地域、コアベース統計地域のいずれも、2017年8月15日時点での定義に従う。	また、ごーどーとーけいちーき、こあべーすとーけいちーきのいずれも、にせんじゅうななねんはちがつじゅうごにちじてんでのていぎにしたがう。	NO_LABEL
