株式会社読売新聞大阪本社は、京阪神など近畿地方と中国、四国、福井県並びに三重県伊賀地方向けに読売新聞を印刷・発行する読売新聞の地域本社である。	NO_PRONOUNCE	NO_LABEL
読売新聞東京本社、読売新聞西部本社と共に読売新聞グループ本社の子会社の一つ。	よみうりしんぶんとーきょーほんし、よみうりしんぶんせいぶほんしゃとともによみうりしんぶんぐるーぷほんしゃのこがいしゃのひとつ。	NO_LABEL
1952年11月25日、大阪府大阪市北区野崎町に於いて「大阪讀賣新聞」の第一号を発刊した。	NO_PRONOUNCE	NO_LABEL
東京の讀賣新聞社とは別会社・別法人による「株式会社大阪讀賣新聞社」によって「讀賣新聞」が関西に進出し、全国紙としての体制を整えた。	NO_PRONOUNCE	NO_LABEL
1953年4月1日付から、題字から「大阪」を外し、東京と同じ「讀賣新聞」の題号で発行。	NO_PRONOUNCE	NO_LABEL
1971年から「読売新聞大阪本社」の呼称を使用。	NO_PRONOUNCE	NO_LABEL
1874年に東京で創刊され、東日本のブロック紙として急成長を遂げた読売新聞は、関西に於いては創刊から間もない明治初期、大阪に支店を、京都と神戸に売捌所を設置したことがあった。	せんはっぴゃくななじゅうよねんにとーきょーでそーかんされ、ひがしにっぽんのぶろっくしとしてきゅーせいちょーをとげたよみうりしんぶんわ、かんさいにおいてわそーかんからまもないめいじしょき、おーさかにしてんを、きょーととこーべにうりさばきしょをせっちしたことがあった。	NO_LABEL
こうした経緯があったことから、戦前、当時の読売社長の正力松太郎は大阪にも読売新聞の発行本社を置くことを計画。	こーしたけいいがあったことから、せんぜん、とーじのよみうりしゃちょーのしょーりきまつたろーわおーさかにもよみうりしんぶんのはっこーほんしゃをおくことをけいかく。	NO_LABEL
大阪時事新報を買収したが、第二次世界大戦下に伴う新聞統制に遭い、同紙が大阪新聞に統合されたことで大阪進出は白紙となった。	おーさかじじしんぽーをばいしゅーしたが、だいにじせかいたいせんかにともなうしんぶんとーせいにあい、どーしがおーさかしんぶんにとーごーされたことでおーさかしんしゅつわはくしとなった。	NO_LABEL
戦後間もない頃、大阪進出が本格化させる計画が始まった。	せんごかんもないころ、おーさかしんしゅつがほんかくかさせるけいかくがはじまった。	NO_LABEL
"読売の大番頭"と呼ばれた務臺光雄が元読売新聞社会部記者で、「アサヒ芸能新聞社」を経営していた竹井博友を呼び、大阪の拠点となる社屋の用地探しに回った。	NO_PRONOUNCE	NO_LABEL
そのうち、阪神電気鉄道の仲介で大阪市北区野崎町に社屋に絶好の土地があると報告され、務臺がその土地を実地検分した際、野崎町に社屋を建てることを決めた。	そのうち、はんしんでんきてつどーのちゅーかいでおーさかしきたくのざきちょーにしゃおくにぜっこーのとちがあるとほーこくされ、むたいがそのとちをじっちけんぶんしたさい、のさきちょーにしゃおくをたてることをきめた。	NO_LABEL
1951年7月28日、「新大阪印刷株式会社」という"覆面会社"が設立された。	NO_PRONOUNCE	NO_LABEL
その頃、新聞の専売制度が義務付けられ、務台は大阪を地盤とする朝日新聞社、毎日新聞社の社長に読売の大阪進出を説明し、両社の了解を得た。	そのころ、しんぶんのせんばいせいどがぎむずけられ、むたいわおーさかをじばんとするあさひしんぶんしゃ、まいにちしんぶんしゃのしゃちょーによみうりのおーさかしんしゅつをせつめいし、りょーしゃのりょーかいをえた。	NO_LABEL
そして、1952年10月5日、「新大阪印刷」は「大阪讀賣新聞社」と商号を変更。	NO_PRONOUNCE	NO_LABEL
務臺は大阪読売の初代社長に、竹井は工務局長に就任し、近畿・中国・四国の有力新聞社から中堅の記者をスカウトし、新聞発行の基礎を固めた。	NO_PRONOUNCE	NO_LABEL
そして、同年11月25日付朝刊から、大阪読売の発行が始まった。	そして、どーねんじゅーいちがつにじゅうごにちずけちょーかんから、おーさかよみうりのはっこーがはじまった。	NO_LABEL
ちなみに、大阪読売が創刊されるまでの読売新聞本社の大阪支社は、上述の経緯で読売と報道協力を結んでいた大阪新聞社本社内にあった。	ちなみに、おーさかよみうりがそーかんされるまでのよみうりしんぶんほんしゃのおーさかししゃわ、じょーじゅつのけいいでよみうりとほーどーきょーりょくをむすんでいたおーさかしんぶんしゃほんしゃないにあった。	NO_LABEL
大阪管内の読売新聞販売店は「販売所」「専売所」と呼ばず、「直配所」と呼んでいた。	NO_PRONOUNCE	NO_LABEL
なお、その後制定された新聞販売店の愛称は当初大阪本社独自ブランドの「読売IC」」）だったが、2000年の創刊125周年記念を契機に現在の全国統一ブランド・「YC」に変更され今日に至っている。	NO_PRONOUNCE	NO_LABEL
創刊当初は、朝日新聞・毎日新聞が西部本社の管轄地域である九州地方全県と山口県・島根県石見地方でも夕方締め切りの大阪読売の朝刊早版を発売していた。	NO_PRONOUNCE	NO_LABEL
大阪で発行された九州版は、読者の元に届く時間は昼過ぎの地域もあった。	おーさかではっこーされたきゅーしゅーばんわ、どくしゃのもとにとどくじかんわひるすぎのちいきもあった。	NO_LABEL
九州版は、名前の通り九州全県の地元ニュースを1つのページにまとめたものだった。	きゅーしゅーばんわ、なまえのとーりきゅーしゅーぜんけんのじもとにゅーすをひとつのぺーじにまとめたものだった。	NO_LABEL
九州版の部数は1万部弱だったものの、大分県では大阪読売の読者が5軒に1軒の割合で多かった。	NO_PRONOUNCE	NO_LABEL
1964年9月、読売が西部本社版を北九州市で現地印刷を行うまで発行された。	せんきゅうひゃくろくじゅうよねんくがつ、よみうりがせいぶほんしゃばんをきたきゅーしゅーしでげんちいんさつをおこなうまではっこーされた。	NO_LABEL
創刊当初は大阪版の紙面原稿を西部本社にファクシミリで送信したものを利用し、それを西部本社で製版していた。	そーかんとーしょわおーさかばんのしめんげんこーをせいぶほんしゃにふぁくしみりでそーしんしたものをりよーし、それをせいぶほんしゃでせいはんしていた。	NO_LABEL
大阪讀賣新聞社は、讀賣テレビ放送の設立にも関わった。	おーさかよみうりしんぶんしゃわ、よみうりてれびほうそーのせつりつにもかかわった。	NO_LABEL
当時の大阪読売社長・務臺光雄は「大阪にも読売系列のテレビ局を持つことが必要」と、務臺が発起人代表となって関西の財界から発起人集めを行い、1957年2月、「新大阪テレビ放送」の社名で郵政省に免許を申請し、1957年10月に予備免許が交付された。	NO_PRONOUNCE	NO_LABEL
1958年2月12日に会社設立、8月1日に「讀賣テレビ放送」と社名を変更し、正力松太郎が設立した日本テレビ放送網をキー局とする日本テレビ系地方ネット局第1号として1958年8月28日に開局。	NO_PRONOUNCE	NO_LABEL
読売テレビの開局は大阪読売の部数増に繋がった。	よみうりてれびのかいきょくわおーさかよみうりのぶすーぞーにつながった。	NO_LABEL
1970年代に入ってから、朝日・毎日・産経新聞といった大阪では老舗の全国紙と拡販競争を展開し、朝日・毎日・産経を抜いて大阪管内の全国紙で発行部数1位になった。	NO_PRONOUNCE	NO_LABEL
2002年7月1日、読売新聞グループの再編で、東京の株式会社読売新聞社は「株式会社読売新聞グループ本社」と「株式会社読売新聞東京本社」の2つに分割され、大阪本社は株式交換により登記上の商号を「株式会社大阪讀賣新聞社」から「株式会社読売新聞大阪本社」に変更し、読売新聞グループ本社の完全子会社となった。	NO_PRONOUNCE	NO_LABEL
これにより、大阪本社も純粋な事業会社化され、同社が所有していた放送局などの株式についても全てグループ本社に移された。	これにより、おーさかほんしゃもじゅんすいなじぎょーがいしゃかされ、どーしゃがしょゆーしていたほーそーきょくなどのかぶしきについてもすべてぐるーぷほんしゃにうつされた。	NO_LABEL
また事業会社化以降、同業他社との提携による印刷拠点の多様化も進めており、これに絡み西部本社から島根県全域に関する取材・発行業務の完全移譲が実施された。	NO_PRONOUNCE	NO_LABEL
大阪本社管内は、読売新聞社が直接出資、または外部合弁会社に印刷を委託している。	おーさかほんしゃかんないわ、よみうりしんぶんしゃがちょくせつしゅっし、またわがいぶごーべんがいしゃにいんさつをいたくしている。	NO_LABEL
