文化学園長野中学・高等学校は、長野県長野市稲葉上千田に所在し、中高一貫教育を提供する私立中学校・高等学校。	NO_PRONOUNCE	NO_LABEL
長野県内の私立中高一貫校としては佐久長聖中学校・高等学校、長野日本大学中学校・高等学校、長野清泉女学院中学校・高等学校及び松本秀峰中等教育学校に次いで5番目の開校となる。	ながのけんないのしりつちゅうこーいっかんこーとしてわさくちょーせいちゅーがっこーこーとーがっこー、ながのにほんだいがくちゅーがっこーこーとーがっこー、ながのせいせんじょがくいんちゅーがっこーこーとーがっこーおよびまつもとしゅーほーちゅーとーきょーいくがっこーについでごばんめのかいこーとなる。	NO_LABEL
文化学園大学の附属学校。	ぶんかがくえんだいがくのふぞくがっこー。	NO_LABEL
略称は「文大長野中学・高校」。	NO_PRONOUNCE	NO_LABEL
文化祭は「すみれ祭」と称する。	NO_PRONOUNCE	NO_LABEL
文化学園長野中学校・高等学校では、前期2年間のホップ、中期2年間のステップ及び後期2年間のジャンプに区分する「2-2-2制」を採用する。	NO_PRONOUNCE	NO_LABEL
