ヒデ 夕樹は日本の歌手。	ひでゆーきわにっぽんのかしゅ。	NO_LABEL
本名は平野 英之。	ほんみょーわひらのひでゆき。	NO_LABEL
芸名は「ヒデ 夕木」「秀 夕木」「秀 夕樹」「夕木 秀」など多数の別表記がある。	NO_PRONOUNCE	NO_LABEL
1970年代から1980年代初頭にかけて、アニメ・特撮作品の主題歌・挿入歌を歌唱。	NO_PRONOUNCE	NO_LABEL
また、日立グループのCMソング「この木なんの木」のオリジナル歌手としても知られる。	NO_PRONOUNCE	NO_LABEL
1958年、コーラスグループ「ザ・タドポールズ」のメンバーとしてデビュー。	NO_PRONOUNCE	NO_LABEL
メンバーの一人だった朝礼志とは、その後も様々な形で共に活動することになる。	めんばーのひとりだったちょーれいこころざしとわ、そのごもさまざまなかたちでともにかつどーすることになる。	NO_LABEL
1966年、タドポールズの解散に伴い、エンディとの男性デュオ「ラッシャーズ」を結成。	NO_PRONOUNCE	NO_LABEL
1968年、エンディの事故死に伴いラッシャーズが解散すると、同年バンド「ソウルフル・ブラッズ」を結成。	NO_PRONOUNCE	NO_LABEL
「ヒデ夕樹」の芸名は、この際に藤村俊二がヒデの本名である「ひでゆき」をもじって命名したものである。	NO_PRONOUNCE	NO_LABEL
1970年、テレビアニメ『あしたのジョー』の2代目エンディングテーマ・挿入歌である「力石徹のテーマ」を歌唱。	NO_PRONOUNCE	NO_LABEL
以降、ソロ歌手として『海のトリトン』や『人造人間キカイダー』などのアニメ・特撮作品の主題歌・挿入歌を担当するようになった。	NO_PRONOUNCE	NO_LABEL
1971年、ソウルフル・ブラッズが解散。	NO_PRONOUNCE	NO_LABEL
1973年に朝コータローとのデュオ「ヒデとコータロー」を結成し、1975年頃まで活動。	NO_PRONOUNCE	NO_LABEL
この頃よりバンド活動の傍らCMソングも手掛けるようになり、1973年には日立グループCMソング「この木なんの木」を歌った。	NO_PRONOUNCE	NO_LABEL
ヒデが歌唱したCMは2005年まで放映されたが、支払われたギャランティーは最初の録音時の一度だけ、2万円程度であったという。	ひでがかしょーしたこんぴゅーたみゅーじっくまがじんわにせんごねんまでほーえいされたが、しはらわれたぎゃらんてぃーわさいしょのろくおんじのいちどだけ、にまんえんていどであったという。	NO_LABEL
1978年、テレビアニメ『キャプテン・フューチャー』の主題歌・挿入歌を担当。	NO_PRONOUNCE	NO_LABEL
主題歌は後にタケカワユキヒデのヴォーカルによるバージョンに差し替えとなったが、後年になり、タケカワが歌唱したバージョンがヒデが歌唱したバージョンよりも先に録音されていたという事実が判明している。	NO_PRONOUNCE	NO_LABEL
1998年12月8日、心不全のため死去。	せんきゅうひゃくきゅうじゅうはちねんじゅーにがつようか、しんふぜんのためしきょ。	NO_LABEL
この時期はアニメタルの作品のヒットなどをきっかけとした、1970年代のアニメ・特撮ソングのリバイバルブームが始まり掛けていた頃であったが、その死はあまり広くは伝わらなかった。	このじきわあにめたるのさくひんのひっとなどをきっかけとした、せんきゅうひゃくななじゅうねんだいのあにめとくさつそんぐのりばいばるぶーむがはじまりかけていたころであったが、そのしわあまりひろくわつたわらなかった。	NO_LABEL
小林亜星によれば、晩年は機会が得られず不遇をかこち、日立の樹のCMの新録音のため関係者がヒデの行方を捜した時には時既に遅く、人知れず亡くなっていたことが分かったとのこと。	こばやしあせいによれば、ばんねんわきかいがえられずふぐーをかこち、ひたちのきのこんぴゅーたみゅーじっくまがじんのしんろくおんのためかんけいしゃがひでのゆくえをさがしたときにわときすでにおそく、ひとしれずなくなっていたことがわかったとのこと。	NO_LABEL
1999年8月30日から31日にかけて開催された「水木一郎24時間1000曲ライブ」では、ヒデの追悼企画として「ゴーゴー・キカイダー」「風よ光よ」「この木なんの木」の3曲が水木一郎により歌唱された。	NO_PRONOUNCE	NO_LABEL
ステージではレイ・チャールズ、スティーヴィー・ワンダーらの歌を好んで歌っており、そのソウルミュージック系の歌唱法をそのままアニメソングというジャンルに取り入れていた。	NO_PRONOUNCE	NO_LABEL
しかし、当時はその歌唱法が「子供向けではない」と言われ、制作側から敬遠されることもあったという。	NO_PRONOUNCE	NO_LABEL
</div>	NO_PRONOUNCE	NO_LABEL
</div>	NO_PRONOUNCE	NO_LABEL
