山下駅は、東京都世田谷区豪徳寺一丁目にある、東京急行電鉄世田谷線の駅である。	やましたえきわ、とーきょーとせたがやくごーとくじいっちょーめにある、とーきょーきゅーこーでんてつせたがやせんのえきである。	NO_LABEL
小田急電鉄小田原線の豪徳寺駅との乗り換えが可能。	おだきゅーでんてつおだわらせんのごーとくじえきとののりかえがかのー。	NO_LABEL
駅番号はSG08。	NO_PRONOUNCE	NO_LABEL
相対式ホーム2面2線を有する地上駅。	NO_PRONOUNCE	NO_LABEL
朝ラッシュ時には係員が配置され、運賃収受を行う。	あさらっしゅじにわかかりいんがはいちされ、うんちんしゅーじゅをおこなう。	NO_LABEL
かつては、上りホームの下高井戸側に売店が営業していた。	かつてわ、のぼりほーむのしもたかいどがわにばいてんがえいぎょーしていた。	NO_LABEL
当駅だけの乗車人員は公表されていない。	とーえきだけのじょーしゃじんいんわこーひょーされていない。	NO_LABEL
世田谷線全線での乗車人員は東急世田谷線#利用状況を参照のこと。	NO_PRONOUNCE	NO_LABEL
