大分交通株式会社は、大分県北部を主な営業エリアとする乗合バス・貸切バス事業者である。	NO_PRONOUNCE	NO_LABEL
本社所在地は大分県大分市新川西8組の3。	NO_PRONOUNCE	NO_LABEL
バス事業は大分市以北の県内ほぼ全域を営業エリアとするが、1980年代後半に分社化を進め、現在大分交通本体の路線バスの営業エリアは大分市・別府市・杵築市・国東市・速見郡日出町で、そのほかの各地は子会社の国東観光バス・玖珠観光バス・大交北部バスが担当している。	NO_PRONOUNCE	NO_LABEL
他社と共同で大分市・別府市と各地を結ぶ高速バスも運行する。	NO_PRONOUNCE	NO_LABEL
また自社営業エリアにある大分空港と大分市・別府市を結ぶ空港連絡バス「エアライナー」も運行している。	NO_PRONOUNCE	NO_LABEL
かつてはバス事業のほか、5線、計100km以上の鉄軌道路線を擁したが、1975年までに全線廃止している。	NO_PRONOUNCE	NO_LABEL
西日本鉄道が一部資本を有している。	にしにっぽんてつどーがいちぶしほんをゆーしている。	NO_LABEL
1940年から2003年までは同社の系列会社であったが、出資比率が下がったため西鉄グループを離脱している。	せんきゅうひゃくよんじゅうねんからにせんさんねんまでわどーしゃのけいれつかいしゃであったが、しゅっしひりつがさがったためにしてつぐるーぷをりだつしている。	NO_LABEL
大分市と別府市を結ぶ路面電車路線を運営していた別府大分電鉄が母体である。	おーいたしとべっぷしをむすぶろめんでんしゃろせんをうんえいしていたべっぷおーいたでんてつがぼたいである。	NO_LABEL
この路線は1900年に豊州電気鉄道により開業した九州最古の路面電車で、豊後電気鉄道、九州水力電気と経営母体が変化し、九州水力電気が分社化のため1927年に別府大分電鉄を設立した。	このろせんわせんきゅうひゃくねんにとよすでんきてつどーによりかいぎょーしたきゅーしゅーさいこのろめんでんしゃで、ぶんごでんきてつどー、きゅーしゅーすいりょくでんきとけいえいぼたいがへんかし、きゅーしゅーすいりょくでんきがぶんしゃかのためせんきゅうひゃくにじゅうななねんにべっぷおーいたでんてつをせつりつした。	NO_LABEL
ただし、大分交通は創立年月日を豊州電気鉄道の設立日である1896年8月5日としている。	ただし、おーいたこうつーわそーりつねんがっぴをとよすでんきてつどーのせつりつびであるせんはっぴゃくきゅうじゅうろくねはちがついつかとしている。	NO_LABEL
1940年に同じく九州水力電気の傘下にあった九州電気軌道の傘下に入り、1945年に戦時体制下で大分県北部の鉄道・バス事業者を吸収合併し、大分交通となった。	NO_PRONOUNCE	NO_LABEL
以下の各営業所を持つ。	いかのかくえいぎょーしょをもつ。	NO_LABEL
なお、営業所名の右側の内は営業所表記である。	なお、えいぎょーしょめいのみぎがわのうちわえいぎょーしょひょーきである。	NO_LABEL
大分空港 - 別府・大分線については、「エアライナー」を参照のこと。	NO_PRONOUNCE	NO_LABEL
大分県由布市湯布院町のJR由布院駅と大分空港を結ぶ路線。	おーいたけんゆふしゆふいんちょーのじぇいあーるゆふいんえきとおーいたくうこーをむすぶろせん。	NO_LABEL
由布院駅前 - 大分空港間はノンストップ。	NO_PRONOUNCE	NO_LABEL
由布院駅を出ると県道216号を西進して湯布院インターチェンジから大分自動車道に入り、日出バイパス - 大分空港道路経由で大分空港へ至る。	NO_PRONOUNCE	NO_LABEL
宇佐神宮や両子寺など国東半島の史跡をめぐるコースと、青の洞門や深耶馬溪などの耶馬渓をめぐるコースの2路線がある。	NO_PRONOUNCE	NO_LABEL
2006年12月から大分市内路線については行き先番号が廃止され、大分バスと統合された「系統番号」が導入された」を参照）。	NO_PRONOUNCE	NO_LABEL
ただし、大分バスが従来の番号を一新したのに対し、大分交通では、行き先番号のなかったホーバーバスと下八幡線で系統番号を新設した以外は、従来の行き先番号と同じ数字に基幹経路を示すアルファベットを付加したものを系統番号としている。	ただし、おーいたばすがじゅーらいのばんごーをいっしんしたのにたいし、おーいたこうつーでわ、ゆきさきばんごーのなかったほーばーばすとしもやはたせんでけいとーばんごーをしんせつしたいがいわ、じゅーらいのゆきさきばんごーとおなじすーじにきかんけいろをしめすあるふぁべっとをふかしたものをけいとーばんごーとしている。	NO_LABEL
なお以下の各路線の記述において系統番号が2つ記載されている場合、経路を順行する路線は左側の番号、逆行する路線は右側の番号となる- 弁天一丁目 - 5号地大交車庫」の場合、5号地行きがB13、大分駅行きがB12）。	NO_PRONOUNCE	NO_LABEL
大分市中心部と、大分川河口西側の5号地にある大分交通大分営業所を結ぶ路線。	おーいたしちゅーしんぶと、おーいたがわかこーにしがわのごごーちにあるおーいたこうつーおーいたえいぎょーしょをむすぶろせん。	NO_LABEL
大分駅 - 中島 - 5号地間では県立図書館線・柞原線・机張原線も運行されている。	NO_PRONOUNCE	NO_LABEL
出入庫系統で、運行間隔は一定しないが多数運行されている。	しゅつにゅーこけいとーで、うんこーかんかくわいっていしないがたすーうんこーされている。	NO_LABEL
大分市中心部と、市街地西側の新春日町・王子新町などの住宅地を結ぶ路線。	NO_PRONOUNCE	NO_LABEL
沿線には大分県立図書館、県立大分西高校、大分大学教育福祉科学部附属養護学校、同附属中学校などの文教施設もある。	えんせんにわおーいたけんりつとしょかん、けんりつおーいたにしこうこー、おーいただいがくきょーいくふくしかがくぶふぞくよーごがっこー、どーふぞくちゅーがっこーなどのぶんきょーしせつもある。	NO_LABEL
田室町経由では大分市営グランドから先が循環区間であり、大分西高校→志手→県立図書館→附属養護学校→附属中学校→大分市営グランドと循環して大分駅方向へ戻る。	NO_PRONOUNCE	NO_LABEL
一方ソフトパーク経由では附属養護学校からが循環区間で、附属中学校→大分西高校→志手→県立図書館→附属養護学校と循環して大分駅方向へ戻る。	NO_PRONOUNCE	NO_LABEL
田室町経由便の一部は、大分バス大洲循環線との相互乗り入れを行っている。	たむろまちけいゆびんのいちぶわ、おーいたばすおーすじゅんかんせんとのそーごのりーれをおこなっている。	NO_LABEL
その場合は5号地までは行かず、「大分駅→県立図書館→大分駅→大分バス本社前→大洲運動公園→大分バス本社前」または「大分バス本社前→大洲運動公園→大分バス本社前→大分駅→県立図書館→大分駅」という経路で運行される。	NO_PRONOUNCE	NO_LABEL
大分市中心部と、市街地南西の丘陵上にある住宅団地を結ぶ路線。	おーいたしちゅーしんぶと、しがいちなんせいのきゅーりょーじょーにあるじゅーたくだんちをむすぶろせん。	NO_LABEL
方向幕では、高崎四丁目行きが「スカイタウン高崎」、青葉台団地行きが「にじが丘・青葉台」と表示される。	NO_PRONOUNCE	NO_LABEL
青葉台団地線は、新川経由および西春日町経由では虹ヶ丘入口から先が循環区間で、虹ヶ丘西公園→あおば公園→虹ヶ丘ショッピングセンター→虹ヶ丘入口と循環して大分駅へ戻る。	NO_PRONOUNCE	NO_LABEL
田室町経由では椎迫一組から先が循環区間で、虹ヶ丘東公園→虹ヶ丘西公園→あおば公園→虹ヶ丘ショッピングセンター→にじが丘北→椎迫一組と循環して大分駅へ戻る。	NO_PRONOUNCE	NO_LABEL
朝には虹ヶ丘西公園始発便の設定がある。	NO_PRONOUNCE	NO_LABEL
新設の西春日町・高尾台経由青葉台団地線は、国道10号を春日陸橋北交差点で左折。	NO_PRONOUNCE	NO_LABEL
ここから王子山の手町停留所手前までの区間は春日神社経由県立図書館線と同じ経路で、往路が附属養護学校→附属中学校→大分西高校→志手→王子山の手町、復路は王子山の手町→県立図書館→附属養護学校と進む。	NO_PRONOUNCE	NO_LABEL
大分駅発平日21時、土曜休日20時以降はP24で運行される。	NO_PRONOUNCE	NO_LABEL
この系統は、従来同時間帯では虹ヶ丘ショッピングセンターどまりで運行されていたのを、生石一丁目まで延伸した路線である。	NO_PRONOUNCE	NO_LABEL
大分市内路線の中心的存在であり、朝夕は通勤・通学客でかなり混み合う。	NO_PRONOUNCE	NO_LABEL
なお高崎四丁目発新川経由大分駅行きは、平日朝1回片道のみ運行される。	なおたかさきよんちょーめはつしんかわけいゆおーいたえきいきわ、へいじつあさいっかいかたみちのみうんこーされる。	NO_LABEL
大分市中心部と西大分方面を結ぶ路線。	おーいたしちゅーしんぶとにしおーいたほーめんをむすぶろせん。	NO_LABEL
柞原線・机張原線とも田室町経由便は朝の一部便のみ。	NO_PRONOUNCE	NO_LABEL
下八幡線は、以前は新川経由のみであったが、柞原・机張原線の本数削減により代替として西春日町経由が設定された。	NO_PRONOUNCE	NO_LABEL
西大分駅前交差点の先で左折して国道10号から県道696号に入り、富士紡績の工場を左に見ながら下八幡へ至る。	NO_PRONOUNCE	NO_LABEL
柞原行きはこのまま県道696号を進み、山間を縫うようにして柞原八幡宮下の終点柞原へ至る。	NO_PRONOUNCE	NO_LABEL
机張原行きは下八幡から分かれ、八幡地区の住宅地の中を抜けると大分自動車道方面へ向かう道を南下。	きちょーばるいきわしもやはたからわかれ、やはたちくのじゅーたくちのなかをぬけるとおーいたじどーしゃどーほーめんえむかうみちをなんか。	NO_LABEL
大分インターチェンジ西側近くの金谷迫交差点を右折すると大分道に沿うように西進して終点机張原へ至る。	おーいたいんたーちぇんじにしがわちかくのかなやざここーさてんをうせつするとおーいたどーにそうよーにせいしんしてしゅーてんきちょーばるえいたる。	NO_LABEL
別府営業所管内では、大分駅 - 別府駅 - 鉄輪線、別府駅 - 吉弘 - 亀川駅線、APU線で系統番号が設定されていたが、2010年3月10日に既存系統番号の変更およびその他別府市内運行の一般路線への系統番号の設定が行われた。	NO_PRONOUNCE	NO_LABEL
また、この系統番号変更により、従来往路と復路で系統番号が異なっていた路線については往路復路共同じ系統番号となった。	また、このけいとーばんごーへんこーにより、じゅーらいおーろとふくろでけいとーばんごーがことなっていたろせんについてわおーろふくろどもおなじけいとーばんごーとなった。	NO_LABEL
なお、大分駅発着系統は系統番号の数字の前にASが付く。	なお、おーいたえきはっちゃくけいとーわけいとーばんごーのすーじのまえにあずがつく。	NO_LABEL
大分市中心部から別府市、日出町、杵築市、国東市と、沿岸各市町の中心部を経て国東へ至る路線。	おーいたしちゅーしんぶからべっぷし、ひいちょー、きつきし、くにさきしと、えんがんかくしちょーのちゅーしんぶをへてくにさきえいたるろせん。	NO_LABEL
区間便的存在として、1日2本のみ杵築駅 - 国東間での運行がある。	NO_PRONOUNCE	NO_LABEL
大分駅を出ると中央通りを進み、新川から臨海産業道路を西へ。	おーいたえきをでるとちゅーおーとーりをすすみ、しんかわからりんかいさんぎょーどーろをにしえ。	NO_LABEL
西生石から別大国道に入り、別府市内を経由。	にしおいしからべつだいこくどーにはいり、べっぷしないをけいゆ。	NO_LABEL
日出町の堀交差点から国道213号へ入り、杵築市中心部にある杵築バスターミナル、安岐、大分空港、武蔵を経て国東へ至る。	ひいちょーのほりこーさてんからこくどーにひゃくじゅうさんごーえはいり、きつきしちゅーしんぶにあるきずきばすたーみなる、あき、おーいたくうこー、むさしをへてくにさきえいたる。	NO_LABEL
かつては特急運転され、「国東特急」と呼ばれていた。	NO_PRONOUNCE	NO_LABEL
その後別府市内のみ特急運転の区間特急となり、現在は各停となっている。	そのごべっぷしないのみとっきゅーうんてんのくかんとっきゅーとなり、げんざいわかくていとなっている。	NO_LABEL
なお国大線では便固定で車椅子対応のワンステップバス・ノンステップバスが運行されており、予約をすれば車椅子での乗車が可能である。	NO_PRONOUNCE	NO_LABEL
平成27年9月30日まで観光港内を通っていたが、10月1日からAS71と同じ南須賀入口経由となった。	NO_PRONOUNCE	NO_LABEL
大分駅・別府駅から国道10号を経由して大分交通別府営業所のある関の江車庫へ向かう路線。	NO_PRONOUNCE	NO_LABEL
かつての軌道線のルートである。	かつてのきどーせんのるーとである。	NO_LABEL
上記国大線と同様国道10号線を進むが、別府国際観光港内では一部を除いて第三埠頭停留所は経由せず、国道上の南須賀入口停留所を経由する。	じょーきこくだいせんとどーよーこくどーじゅうごーせんをすすむが、べっぷこくさいかんこーこーないでわいちぶをのぞいてだいさんふとーていりゅーじょわけいゆせず、こくどーじょーのみなみすかいりぐちていりゅーじょをけいゆする。	NO_LABEL
また大分駅行きの朝1本のみ、かんたん - 附属中学校 - 田室町経由で運行される便がある。	NO_PRONOUNCE	NO_LABEL
大分駅 - 別府北浜間は、別大線・国大線・鉄輪線を合わせて毎時3 - 4本程度運行されている。	NO_PRONOUNCE	NO_LABEL
大分駅または別府駅から、別府市内の鉄輪に向かう路線。	おーいたえきまたわべっぷえきから、べっぷしないのてつりんにむかうろせん。	NO_LABEL
基本的には別府駅発着で、一部が大分駅発着である。	きほんてきにわべっぷえきはっちゃくで、いちぶがおーいたえきはっちゃくである。	NO_LABEL
方向幕では「鉄輪温泉」と表示され「かんなわおんせん」とルビも振られる。	NO_PRONOUNCE	NO_LABEL
別府駅を出ると駅前通りを進み北浜交差点から国道10号を北上、富士見通り交差点で左折し、その先鉄輪線は幸通り - 石垣中央通りを、鶴見ヶ丘線は鶴高通りを北上して春木で合流。	NO_PRONOUNCE	NO_LABEL
新別府の住宅地を抜けて温泉街の北東端にある終点鉄輪へ至る。	しんべっぷのじゅーたくちをぬけておんせんがいのほくとーたんにあるしゅーてんてつりんえいたる。	NO_LABEL
なお大分交通の鉄輪停留所と亀の井バスの鉄輪停留所とは距離が離れている。	なおおーいたこうつーのてつりんていりゅーじょとかめのいばすのてつりんていりゅーじょとわきょりがはなれている。	NO_LABEL
別府駅と亀川駅を幸町通り経由で結ぶ路線。	べっぷえきとかめがわえきをさいわいちょーどーりけいゆでむすぶろせん。	NO_LABEL
春木までは吉弘経由鉄輪線と同一経路。	はるきまでわよしひろけいゆてつりんせんとどーいつけいろ。	NO_LABEL
そこから県道645号を経由して亀川駅に至る。	NO_PRONOUNCE	NO_LABEL
別府鶴見丘高校への通学路線。	べっぷつるみおかこーこーえのつーがくろせん。	NO_LABEL
休校日は運休となる。	きゅーこーびわうんきゅーとなる。	NO_LABEL
羽室台高校の廃校に伴い路線は廃止された	はむろだいこーこーのはいこーにともないろせんわはいしされた	NO_LABEL
立命館アジア太平洋大学へのアクセス路線。	りつめいかんあじあたいへいよーだいがくえのあくせすろせん。	NO_LABEL
以前は休校日運休だったが、現在は毎日運行されており、別府市内の一般路線としても役割を果たしている。	いぜんわきゅーこーびうんきゅーだったが、げんざいわまいにちうんこーされており、べっぷしないのいっぱんろせんとしてもやくわりをはたしている。	NO_LABEL
車両は元エアライナー用の車両や大型路線車が使用されている。	しゃりょーわもとえあらいなーよーのしゃりょーやおーがたろせんしゃがしよーされている。	NO_LABEL
なお、大分駅発着便については、平日かつ休校日の場合は関の江大交車庫発着での運行、土曜・休日は登校日であっても運休となる。	NO_PRONOUNCE	NO_LABEL
55番は2011年4月4日より運行開始した快速便。	ごじゅうごばんわにせんじゅういちねんしがつよっかよりうんこーかいししたかいそくびん。	NO_LABEL
上記停留所以外には停車せず餅ヶ浜まで乗車のみのクローズドドア制、APU行きの片道2便を登校日のみ運行している。	NO_PRONOUNCE	NO_LABEL
亀川駅と亀川駅北西のスパランド豊海・関の江新町の住宅団地を結ぶ路線。	NO_PRONOUNCE	NO_LABEL
方向幕は「関の江団地」と表示される。	NO_PRONOUNCE	NO_LABEL
以前は別府駅発着便もあったが、現在は全便が亀川駅発着になった。	いぜんわべっぷえきはっちゃくびんもあったが、げんざいわぜんびんがかめがわえきはっちゃくになった。	NO_LABEL
太陽の家経由便は関の江車庫行きが片道1本のみ運行。	たいよーのいえけいゆびんわせきのこーしゃこいきがかたみちいっぽんのみうんこー。	NO_LABEL
速見郡日出町の日出団地・辻間団地へ向かう路線。	NO_PRONOUNCE	NO_LABEL
辻間団地発別府医療センター行と豊岡駅前どまりの便が平日朝に各1本運行がある。	つじまだんちはつべっぷいりょーせんたーゆきととよおかえきまえどまりのびんがへいじつあさにかくいっぽんうんこーがある。	NO_LABEL
JR豊岡駅手前で国道10号を離れ、かつて国道10号だった道を進み、辻間団地、日出団地へ至る。	じぇいあーるとよーかえきてまえでこくどーじゅうごーをはなれ、かつてこくどーじゅうごーだったみちをすすみ、つじまだんち、ひのでだんちえいたる。	NO_LABEL
そこからJR暘谷駅や日出役場などがある暘谷地区を経由して日出停留所付近から国道213号を進み、大分空港道路入口手前の終点会下へ至る。	そこからじぇいあーるよーこくえきやひのでやくばなどがあるようこくちくをけいゆしてひのでていりゅーじょふきんからこくどーにひゃくじゅうさんごーをすすみ、おーいたくーこーどーろいりぐちてまえのしゅーてんえげえいたる。	NO_LABEL
80、81番は平成27年9月30日まで観光港内を経由していたが、10月1日から南須賀入口経由となった。	NO_PRONOUNCE	NO_LABEL
大分市中心部と、大分川河口東側の西新地にある大分ホーバーフェリー大分基地を結ぶ路線。	おーいたしちゅーしんぶと、おーいたがわかこーひがしがわのにししんちにあるおーいたほーばーふぇりーおーいたきちをむすぶろせん。	NO_LABEL
専用の小型車両で運行されていた。	せんよーのこがたしゃりょーでうんこーされていた。	NO_LABEL
ホーバーフェリーの出発・到着便に合わせたダイヤで運行されている。	NO_PRONOUNCE	NO_LABEL
ホーバーフェリーのダイヤは大分空港の航空ダイヤに合わせているため、他路線とはダイヤ改正の時期が異なる。	ほーばーふぇりーのだいやわおーいたくうこーのこーくーだいやにあわせているため、たろせんとわだいやかいせいのじきがことなる。	NO_LABEL
また、ホーバーの欠航時には運休となり、その際は大分中心部の各乗り場では、停留所時刻表の下に欠航であることを示す札が下げられる。	また、ほーばーのけっこーじにわうんきゅーとなり、そのさいわおーいたちゅーしんぶのかくのりばでわ、ていりゅーじょじこくひょーのしたにけっこーであることをしめすさつがさげられる。	NO_LABEL
途中区間のみの利用も可能である。	とちゅーくかんのみのりよーもかのーである。	NO_LABEL
2009年10月31日のホーバー運航休止により、連絡バスも休止。	にせんきゅうねんじゅーがつさんじゅういちにちのほーばーうんこーきゅーしにより、れんらくばすもきゅーし。	NO_LABEL
使用車両はその後大交北部バス・国東観光バスに移り、大交北部バスの車両は2010年4月26日から中津市コミュニティバス豊前中津線で、国東観光バスの車両は杵築営業所管内の一般路線に使用されている。	NO_PRONOUNCE	NO_LABEL
いずれも県立図書館へ延伸、循環化。	いずれもけんりつとしょかんええんしん、じゅんかんか。	NO_LABEL
JR日出駅とJR杵築駅をハーモニーランド経由で結ぶ路線。	じぇいあーるひじえきとじぇいあーるきつきえきをはーもにーらんどけいゆでむすぶろせん。	NO_LABEL
一部は日出駅 - 赤松間の運行。	NO_PRONOUNCE	NO_LABEL
日出駅を出ると県道520号を進み、日出停留所付近から国道10号へ入って北進。	NO_PRONOUNCE	NO_LABEL
ハーモニーランドを経由し、赤松交差点で右折して県道644号へ入り、日豊本線の線路沿いに東進して杵築駅へ至る路線だった。	NO_PRONOUNCE	NO_LABEL
2008年4月1日より国東観光バスに移管。	にせんはちねんしがつついたちよりくにさきかんこーばすにいかん。	NO_LABEL
白地に赤系統の塗装である。	しろじにあかけいとーのとそーである。	NO_LABEL
中型車が多くを占めているが、立命館アジア太平洋大学の学生利用に対応した大型車も保有している。	ちゅーがたしゃがおーくをしめているが、りつめいかんあじあたいへいよーだいがくのがくせいりよーにたいおーしたおーがたしゃもほゆーしている。	NO_LABEL
メーカーは国内主要4社）の車両が揃っているが、主力として活躍してきた三菱ふそう車の引退が続いており、これに替わっていすゞ自動車が勢力を伸ばしている。	NO_PRONOUNCE	NO_LABEL
また、神奈川中央交通から大型車も移籍してきており、主にAPU線や大分市内で使用されている。	また、かながわちゅうおーこーつーからおーがたしゃもいせきしてきており、おもにえーぴーゆーせんやおーいたしないでしよーされている。	NO_LABEL
2017年に中古のノンステップバス2台導入している。	NO_PRONOUNCE	NO_LABEL
各営業所に貸切バスを配置している。	かくえいぎょーしょにかしきりばすをはいちしている。	NO_LABEL
大型車は西日本車体工業のC-I型を架装した車両が大部分を占める。	NO_PRONOUNCE	NO_LABEL
中型車や9m級の大型車は、純正がほとんどである。	ちゅーがたしゃやきゅうめーとるきゅーのおーがたしゃわ、じゅんせいがほとんどである。	NO_LABEL
2006年10月には、地上デジタル放送アンテナを搭載した三菱ふそうエアロバスを導入した。	にせんろくねんじゅーがつにわ、ちじょーでじたるほーそーあんてなをとーさいしたみつびしふそーえあろばすをどーにゅーした。	NO_LABEL
その後もいすゞガーラや三菱エアロエースなど、多数の新型車両が導入されている。	NO_PRONOUNCE	NO_LABEL
車両メーカーは、国内主要4社を導入しているが、いすゞ自動車は比較的少ない。	NO_PRONOUNCE	NO_LABEL
現在は全廃されている。	げんざいわぜんぱいされている。	NO_LABEL
過去には以下の路線が存在した。	かこにわいかのろせんがそんざいした。	NO_LABEL
