白谷 建人は、京都府出身の元サッカー選手、サッカー指導者。	しらたにけんじんわ、きょーとふしゅっしんのもとさっかーせんしゅ、さっかーしどーしゃ。	NO_LABEL
2014年、FC町田ゼルビアでのプレーを最後に引退した。	にせんじゅうよねん、えふしーまちだぜるびあでのぷれーをさいごにいんたいした。	NO_LABEL
現役時代のポジションはディフェンダー、フォワード。	げんえきじだいのぽじしょんわでぃふぇんだー、ふぉわーど。	NO_LABEL
高校時代にはユース代表のメンバーに選ばれるなど注目を浴びセレッソ大阪に入団。	こーこーじだいにわゆーすだいひょーのめんばーにえらばれるなどちゅーもくをあびせれっそおーさかににゅーだん。	NO_LABEL
たが、プロ入り後は伸び悩み、水戸ホーリーホックへの期限付き移籍を経てファジアーノ岡山へと移籍した。	たが、ぷろいりごわのびなやみ、みとほーりーほっくえのきげんつきいせきをへてふぁじあーのおかやまえといせきした。	NO_LABEL
岡山でもスタメンを奪取するまでには至らず、2012年シーズンにはロアッソ熊本へ完全移籍となった。	おかやまでもすためんをだっしゅするまでにわいたらず、にせんじゅうにねんしーずんにわろあっそくまもとえかんぜんいせきとなった。	NO_LABEL
熊本では開幕してしばらくは出番を掴んだが徐々にベンチからも遠ざかり、無得点でシーズンを終えた。	くまもとでわかいまくしてしばらくわでばんをつかんだがじょじょにべんちからもとーざかり、むとくてんでしーずんをおえた。	NO_LABEL
熊本での2シーズン目にあたる2013年は右サイドバックにコンバートされた。	NO_PRONOUNCE	NO_LABEL
2013年8月22日、FC町田ゼルビアへ期限付き移籍。	にせんじゅうさんねんはちがつにじゅうににち、えふしーまちだぜるびあえきげんつきいせき。	NO_LABEL
2014年からは町田へ完全移籍 したが、リーグ戦1試合のみの出場に終わり、このシーズンを最後に25歳で引退した。	にせんじゅうよねんからわまちだえかんぜんいせきしたが、りーぐせんいちしあいのみのしゅつじょーにおわり、このしーずんをさいごににじゅうごさいでいんたいした。	NO_LABEL
2015年、セレッソ大阪のサッカースクールコーチに就任。	にせんじゅうごねん、せれっそおーさかのさっかーすくーるこーちにしゅーにん。	NO_LABEL
50||7||colspan="2"|-||2||0||52||7	NO_PRONOUNCE	NO_LABEL
1||0||colspan="2"|-||0||0||1||0	NO_PRONOUNCE	NO_LABEL
5||0||colspan="2"|-||0||0||5||0	NO_PRONOUNCE	NO_LABEL
56||7||0||0||2||0|||58||7	NO_PRONOUNCE	NO_LABEL
