リスボン地震は、1531年と1755年に発生した、ポルトガルのリスボン付近を震源とする地震。	りすぼんじしんわ、せんごひゃくさんじゅういちねんとせんななひゃくごじゅうごねんにはっせいした、ぽるとがるのりすぼんふきんをしんげんとするじしん。	NO_LABEL
リスボン大地震と言うと、1755年の地震を指す場合が多い。	りすぼんおおじしんというと、せんななひゃくごじゅうごねんのじしんをさすばあいがおーい。	NO_LABEL
リスボンはこの時期に多数の地震に見舞われている。	りすぼんわこのじきにたすーのじしんにみまわれている。	NO_LABEL
