フレッシュアイペディアモバイルは株式会社スカラの子会社である株式会社スカラコミュニケーションズが運営している、ポータルサイト・フレッシュアイで開設している、ウィキペディア日本語版の全文検索サービスである。	NO_PRONOUNCE	NO_LABEL
フレッシュアイのモバイル版サービスとして2008年6月11日よりサービス開始。	ふれっしゅあいのもばいるばんさーびすとしてにせんはちねんろくがつじゅういちにちよりさーびすかいし。	NO_LABEL
パソコンから接続しての検索の他、携帯電話端末を使用したインターネット接続による検索も可能となっている。	ぱそこんからせつぞくしてのけんさくのほか、けいたいでんわたんまつをしよーしたいんたーねっとせつぞくによるけんさくもかのーとなっている。	NO_LABEL
表記としては「Feﾍﾟﾃﾞｨｱﾓﾊﾞｲﾙ」というものが多く見受けられる。	NO_PRONOUNCE	NO_LABEL
