デスモシンは、ピリジンに3分子のアリシンの側鎖と1分子のリシンの側鎖が結合した構造の有機化合物である。	ですもしんわ、ぴりじんにさんぷんこのありしんのがわくさりといっぷんこのりしんのがわくさりがけつごーしたこーぞーのゆーきかごーぶつである。	NO_LABEL
分子式はCHNO、分子量は526.603、CAS登録番号は[11003-57-9]である。	NO_PRONOUNCE	NO_LABEL
デスモシンは、ジスルフィド結合のようにポリペプチド鎖の交差する部分に使われる。	ですもしんわ、じするふぃどけつごーのよーにぽりぺぷちどくさりのこーさするぶぶんにつかわれる。	NO_LABEL
デスモシンはエラスチンで見られ、黄色のもとになっている。	ですもしんわえらすちんでみられ、きいろのもとになっている。	NO_LABEL
