松浦鉄道MR-100形気動車は、かつて松浦鉄道に在籍していた鉄道車両。	NO_PRONOUNCE	NO_LABEL
1988年4月1日の開業にあわせて導入された。	せんきゅうひゃくはちじゅうはちねんしがつついたちのかいぎょーにあわせてどーにゅーされた。	NO_LABEL
本記事では、ほぼ同形のMR-200形気動車・MR-300形気動車についても記述する。	NO_PRONOUNCE	NO_LABEL
九州旅客鉄道松浦線が第三セクターの松浦鉄道に転換され西九州線として開業するのを前に、新潟鉄工所によりMR-100形11両、MR-200形5両、MR-300形2両の計18両が製造された。	NO_PRONOUNCE	NO_LABEL
その後MR-100形が1989年、1991年、1992年の各年に2両ずつ製造されており、番号は製造順にMR-121 - MR-126となっている。	NO_PRONOUNCE	NO_LABEL
MR-100形100番台は前面貫通形の一般仕様、同120番台は前面貫通形のイベント対応仕様、MR-200形は前面非貫通形の一般仕様、MR-300形は前面非貫通形のイベント対応仕様となっているが、基本構造は各形式とも同一である。	NO_PRONOUNCE	NO_LABEL
各形式ともワンマン運転に対応した構造である。	かくけいしきともわんまんうんてんにたいおーしたこーぞーである。	NO_LABEL
新潟製NDCの第一世代にあたり、JR西日本キハ120形などに類似する。	にーがたせいえぬでぃーしーのだいいちせだいにあたり、じぇいあーるにしにほんきはひゃくにじゅうがたなどにるいじする。	NO_LABEL
車体は長さ16m級の鋼製車体で両端にバス用の折り扉を設置し、扉間に上段固定下段上昇式のユニット窓を7枚設けている。	しゃたいわながさじゅうろくめーとるきゅーのはがねせいしゃたいでりょーたんにばすよーのおりとびらをせっちし、とびらかんにじょーだんこていげだんじょーしょーしきのゆにっとまどをななまいもーけている。	NO_LABEL
前面窓がやや傾斜しており、両側前面窓下に前照灯と尾灯を設置している。	ぜんめんまどがややけいしゃしており、りょーがわぜんめんまどかにぜんしょうとーとびとーをせっちしている。	NO_LABEL
乗務員室扉は設けず、客室から運転室に出入りするようになっている。	じょーむいんしつとびらわもーけず、きゃくしつからうんてんしつにでいりするよーになっている。	NO_LABEL
前面貫通形のMR-100形は前面が3枚窓で、左側窓上部に方向幕を設置している。	NO_PRONOUNCE	NO_LABEL
前面非貫通形のMR-200形・MR-300形は前面が大きな1枚窓となっており、中央上部に方向幕を設置している。	NO_PRONOUNCE	NO_LABEL
MR-100形のうち120番台は乗客扉の上に雨樋が追加されている。	NO_PRONOUNCE	NO_LABEL
塗装はMR-100形・MR-200形が西海の青と九十九島の夕映えを表した白地に青・赤・オレンジ色の帯で、MR-300形が白地に青・スカイブルー・オレンジ色の帯の塗装である。	NO_PRONOUNCE	NO_LABEL
2004年9月よりMR-123が長崎県内沿線自治体の産品をPRするラッピング車両「大地からの贈物号」となり、2008年12月の運用離脱まで他の車両と共通運用されていた。	NO_PRONOUNCE	NO_LABEL
また、2009年3月4日よりMR-109が平戸での日蘭通商400周年を記念した「平戸・オランダ年」をPRするラッピング車両となり、2011年12月の運用離脱まで他の車両と共通運用されていた。	NO_PRONOUNCE	NO_LABEL
MR-100形100番台・MR-200形の車内は中央部に向かい合わせの4人掛け固定クロスシートを6か所設け、ドア付近をロングシートとしたセミクロスシートである。	NO_PRONOUNCE	NO_LABEL
MR-100形120番台はボックスシートが4か所となっている。	NO_PRONOUNCE	NO_LABEL
MR-300形は製造当初は全席ボックスシートであったが、後に全席ロングシートに改造されている。	NO_PRONOUNCE	NO_LABEL
イベント対応のMR-100形120番台・MR-300形は車内にカラオケ装置とビデオモニターを備える。	NO_PRONOUNCE	NO_LABEL
全車とも車内にトイレは設置されていない。	ぜんしゃともしゃないにといれわせっちされていない。	NO_LABEL
各形式ともワンマン運転に対応するため運転室脇に運賃箱と整理券発行機、運賃表示器を備える。	かくけいしきともわんまんうんてんにたいおーするためうんてんしつわきにうんちんばことせいりけんはっこーき、うんちんひょーじきをそなえる。	NO_LABEL
開業時に製造された車両は車内に清涼飲料水の自動販売機を設置していたが、現在ではすべて撤去された。	かいぎょーじにせいぞーされたしゃりょーわしゃないにせいりょーいんりょーすいのじどーはんばいきをせっちしていたが、げんざいでわすべててっきょされた。	NO_LABEL
冷暖房装置として、機関直結方式の冷房装置と、温水温風ファン方式の暖房装置を備えている。	れいだんぼーそーちとして、きかんちょっけつほーしきのれいぼーそーちと、ぬるみずあつしふーふぁんほーしきのだんぼーそーちをそなえている。	NO_LABEL
エンジンは出力250PS/1900rpm、直列6気筒横形ディーゼルエンジンの新潟鐵工所製DMF13HSで、台車は動台車2軸駆動方式の空気バネ台車NP120D・NP120Tである。	NO_PRONOUNCE	NO_LABEL
なお、MR-201, MR-202, MR-123の3両はのちにDMF13HZに換装されたが種車の液体式変速機を流用したため出力は本来の330PSから250PSに落として使用されていた。	NO_PRONOUNCE	NO_LABEL
※製造当初のもの。	NO_PRONOUNCE	NO_LABEL
各車種で諸元が異なる点のみ。	かくしゃしゅでもろもとがことなるてんのみ。	NO_LABEL
各形式とも有田 - 佐世保間の全線で運用されてきたが、製造から長期間が経過し老朽化が進んだことから新形式のMR-600形に順次置き換える方針が示された。	NO_PRONOUNCE	NO_LABEL
2007年3月18日のダイヤ改正ではMR-601 - MR-604の代替としてMR-201, MR-204, MR-205, MR-301が、2007年12月21日にはMR-605 - MR-608の代替としてMR-104, MR-202, MR-203, MR-302が、2008年12月21日にはMR-609 - MR-612の代替としてMR-102, MR-103, MR-123, MR-124が、2009年12月20日にはMR-613 - MR-616の代替としてMR-101, MR-105, MR-108, MR-122が、2010年12月20日にはMR-617 - MR-619の代替としてMR-106, MR-107, MR-121が、2011年12月19日にはMR-620, MR-621の代替としてMR-109, MR-111の順に運用を離脱してゆき、最後まで残存したMR-110, MR-125, MR-126の3両についても2012年3月25日にラストラン・イベントを行い、運用を離脱、同年4月15日付で廃車され、3形式とも形式消滅となった。	NO_PRONOUNCE	NO_LABEL
また、MR-301は踏切事故にて大破し、車体を新製した。	NO_PRONOUNCE	NO_LABEL
その旧車体の残存部分が、佐々駅構内で職員の更衣室としても使われている。	そのきゅーしゃたいのざんそんぶぶんが、さざえきこーないでしょくいんのこーいしつとしてもつかわれている。	NO_LABEL
なお、廃車となった車両は、ミャンマー国鉄に譲渡されている。	なお、はいしゃとなったしゃりょーわ、みゃんまーこくてつにじょーとされている。	NO_LABEL
ミャンマーでの活躍の模様は、他の国産車であるキハ40形やJR北海道キハ141系気動車、北斗星用客車と共にNHKにおいてその様子が放映されたことがある。	みゃんまーでのかつやくのもよーわ、たのこくさんしゃであるきはよんじゅーがたやじぇいあーるほっかいどーきはひゃくよんじゅういちけいきどーしゃ、ほくとせいよーきゃくしゃとともにえぬえいちけいにおいてそのよーすがほーえいされたことがある。	NO_LABEL
