かみのけ座流星群は12月12日から1月23日に見られる流星雨である。	かみのけざりゅーせいぐんわじゅーにがつじゅうににちからいちがつにじゅうさんにちにみられるりゅーせいうである。	NO_LABEL
時間あたりの出現流星数は5個である。	NO_PRONOUNCE	NO_LABEL
かみのけ座流星群の放射点は、期間を通じてしし座からかみのけ座へと変化する。	かみのけざりゅーせいぐんのほーしゃてんわ、きかんをつーじてししざからかみのけざえとへんかする。	NO_LABEL
出現期間中の放射点の変化の様子は下表のようになる。	しゅつげんきかんちゅーのほーしゃてんのへんかのよーすわかひょーのよーになる。	NO_LABEL
