高野山の案内犬ゴンは、慈尊院や高野山の参詣者・ハイキング客を案内した犬。	NO_PRONOUNCE	NO_LABEL
昭和60年代に、九度山駅と慈尊院を結ぶ途中にある丹生橋の近くに住みついていた紀州犬と柴犬の雑種である白い雄の野良犬が、やがて慈尊院や高野山の参詣者・ハイキング客を案内するようになった。	NO_PRONOUNCE	NO_LABEL
慈尊院から聞こえる鐘の音を好んでいたため、いつしかこの野良犬は「ゴン」と呼ばれるようになった。	NO_PRONOUNCE	NO_LABEL
最初の頃は九度山駅と慈尊院の間を案内するだけだったが、1989年頃から慈尊院をねぐらとして、高野山町石道の20km強の道のりを朝、慈尊院を発って、夕方に高野山上の大門まで道案内し、夜には慈尊院に戻る毎日を送っていた。	さいしょのころわくどやまえきとじそんいんのまをあんないするだけだったが、せんきゅうひゃくはちじゅうきゅうねんごろからじそんいんをねぐらとして、こーやさんちょういしみちのにじゅうきろめーとるきょーのみちのりをあさ、じそんいんをたって、ゆーがたにたかのさんじょーのおーもんまでみちあんないし、よるにわじそんいんにもどるまいにちをおくっていた。	NO_LABEL
しかし長く険しい山道を連日のように歩き続けたため、体力的・年齢的にも相当の負担がかかったようで、1992年をもってガイド犬を引退し、その後老衰のため、2002年6月5日午後3時50分に息を引き取った。	NO_PRONOUNCE	NO_LABEL
約1200年前の弘法大師の時代にも高野山の案内犬がいたという伝説があり、このゴンは「弘法大師の案内犬の再来・生まれ変わり」、「お大師さんの犬」などと呼ばれ親しまれていたこともあって、同年7月23日に慈尊院住職の計らいで境内の弘法大師像の横に、ゴンの石像が載せられた「高野山案内犬ゴンの碑」が建てられた。	NO_PRONOUNCE	NO_LABEL
また、絵と「高野山案内犬ゴンちゃん」と書かれた“ゴンの御守”も御供所に備えられた。	NO_PRONOUNCE	NO_LABEL
2003年には童話として出版された。	にせんさんねんにわどーわとしてしゅっぱんされた。	NO_LABEL
現在、慈尊院には、晩年のゴンと共に暮らした雄犬「カイ」が居るものの、ガイドは行っていない。	NO_PRONOUNCE	NO_LABEL
