風祭 東は、東京都新宿区出身の日本のポップシンガー。	かざまつりひがしわ、とーきょーとしんじゅくくしゅっしんのにっぽんのぽっぷしんがー。	NO_LABEL
オールウェイズのボーカリスト、ベーシスト、キーボーディスト。	おーるうぇいずのぼーかりすと、べーしすと、きーぼーでぃすと。	NO_LABEL
地元、東京都を拠点としながら積極的な音楽活動をしている。	じもと、とーきょーとをきょてんとしながらせっきょくてきなおんがくかつどーをしている。	NO_LABEL
幼少期、従兄弟より聞かされたビートルズにより、音楽に目覚める。	よーしょーき、いとこよりきかされたびーとるずにより、おんがくにめざめる。	NO_LABEL
ポール・マッカートニーを敬愛し、自らも左利きベーシストであり　その演奏スタイルからポールを彷彿させるということもあり、数々のビートルズ関係のイベントに出演している。	ぽーるまっかーとにーをけいあいし、みずからもひだりききべーしすとでありそのえんそーすたいるからぽーるをほーふつさせるとゆうこともあり、かずかずのびーとるずかんけいのいべんとにしゅつえんしている。	NO_LABEL
1986年、シングル『好きさ』、アルバム『ALWAYS BE TRUE』でデビューするが、オールウェイズは2008年現在、活動休止状態にある。	NO_PRONOUNCE	NO_LABEL
1996年、杉真理、松尾清憲らとともにPiccadilly Circusを結成する。	せんきゅうひゃくきゅうじゅうろくねん、すぎまさみち、まつおきよのりらとともにぴかでりぃさぁかすをけっせいする。	NO_LABEL
活動期間 1986年～1997年	NO_PRONOUNCE	NO_LABEL
レーベル キングレコード	れーべるきんぐれこーど	NO_LABEL
東芝EMI	とーしばいーえむあい	NO_LABEL
メンバー	めんばー	NO_LABEL
キングレコードより発売。	きんぐれこーどよりはつばい。	NO_LABEL
※前作「NEVER THE VIDEO」にキャピトル東急ホテルで行われたデビュー・コンベンション・ライブ等の特典映像を加えてDVD化した作品。	NO_PRONOUNCE	NO_LABEL
メンバー	めんばー	NO_LABEL
※『Baby! it's all right』…NHK-BS2『新・真夜中の王国』オープニング・テーマ	NO_PRONOUNCE	NO_LABEL
