ミルキーゴールドとは北海道長万部町の製菓会社青華堂が販売しているプリンである。	みるきーごーるどとわほっかいどーおしゃまんべちょーのせいかがいしゃあおはなどーがはんばいしているぷりんである。	NO_LABEL
2009年9月以降に発売された西又葵が描いたマスコットキャラクターのパッケージは「萌えプリン」として売りだされている。	NO_PRONOUNCE	NO_LABEL
元々青華堂が販売している代表的銘菓の1つだったが、2009年9月18日、西又葵によるマスコットキャラクターをパッケージに使用した「萌えプリン」としてリニューアルされ、描きおろしマウスパッドとのセットも限定販売された。	NO_PRONOUNCE	NO_LABEL
原材料の牛乳、砂糖、卵は北海道産が使用されており、180日の常温保存が可能。	げんざいりょーのぎゅーにゅー、さとー、たまごわほっかいどーさんがしよーされており、ひゃくはちじゅうにちのじょーおんほぞんがかのー。	NO_LABEL
また、バターのようにパンに塗って食べることもおすすめしている。	また、ばたーのよーにぱんにぬってたべることもおすすめしている。	NO_LABEL
2人のマスコットキャラクターの名前は2009年11月に公募され、12月24日に公募された名前の中から西又葵による選考で名前がそれぞれ「青羽凛々」「華山雪」に決定し公表された。	NO_PRONOUNCE	NO_LABEL
2011年よりマスコットキャラクターを使用したプロジェクト「萌えプリンMILKY GOLDアイドルプロジェクト」が進められており、アイドルグループ「みるき〜ガールズ」が結成されCDも発売されている。	NO_PRONOUNCE	NO_LABEL
みるき〜ガールズはゴールド枠で声優ユニットの井上みゆと2011年5月1日のDreamPartyで開催された萌えプリンオーディションの最終選考会でグランプリとなり華山雪役に選ばれた東條あやの2人と最終選考会他参加者で結成された育成ユニットであるガールズ枠の7人、公式コスプレイヤー・PR大使の知羽音の合計10人で構成されている。	NO_PRONOUNCE	NO_LABEL
2011年8月3日に音楽CD「ミルキーカフェへようこそ♪」が、9月にはドラマCDが発売された。	NO_PRONOUNCE	NO_LABEL
