フワヨ・テンボはザンビア共和国の首都ルサカ出身のサッカー選手。	ふわよてんぼわざんびあきょーわこくのしゅとるさかしゅっしんのさっかーせんしゅ。	NO_LABEL
ポジションは攻撃的ミッドフィールダー。	ぽじしょんわこーげきてきみっどふぃーるだー。	NO_LABEL
サッカーザンビア代表。	さっかーざんびあだいひょー。	NO_LABEL
2010年5月29日にスイス1部の名門FCバーゼルへの加入が発表された。	にせんじゅうねんごがつにじゅうきゅうにちにすいすいちぶのめいもんふすばるくるぶばーぜるえのかにゅーがはっぴょーされた。	NO_LABEL
2010-11シーズン第1節のFCチューリッヒ戦に途中出場してデビューすると、第5節のFCルツェルンでバーゼルでの初得点を決めた。	NO_PRONOUNCE	NO_LABEL
最終的にスーパーリーグで25試合2得点、スイス・カップで4試合2得点を記録した。	さいしゅーてきにすーぱーりーぐでにじゅうごしあいにとくてん、すいすかっぷでよんしあいにとくてんをきろくした。	NO_LABEL
また、UEFAチャンピオンズリーグ 2010-11では予備予選3回戦のデブレツェニVSC戦でUEFAチャンピオンズリーグに初出場すると、本大会のCFRクルジュ、FCバイエルン・ミュンヘン戦を含む6試合に出場した。	NO_PRONOUNCE	NO_LABEL
UEFAヨーロッパリーグ 2010-11では決勝トーナメント1回戦でFCスパルタク・モスクワとの2試合に出場した。	NO_PRONOUNCE	NO_LABEL
チャンピオンズリーグに続いてUEFAヨーロッパリーグにも初出場したが、バーゼルは敗退した。	ちゃんぴおんずりーぐにつずいてうえふぁよーろっぱりーぐにもはつしゅつじょーしたが、ばーぜるわはいたいした。	NO_LABEL
2011-12シーズンは序盤の5試合に出場しただけで、その後はベンチ外が続いた。	NO_PRONOUNCE	NO_LABEL
2012年1月に以前所属していたチュニジアのエトワール・サヘルにローン移籍したが、5試合無得点に終わった。	にせんじゅうにねんいちがつにいぜんしょぞくしていたちゅにじあのえとわーるさへるにろーんいせきしたが、ごしあいむとくてんにおわった。	NO_LABEL
2012年夏にルーマニア1部のFCアストラ・ジュルジュに移籍した。	NO_PRONOUNCE	NO_LABEL
バーゼルから自由契約になった理由について、トルステン・フィンク監督から人種差別的な発言を受けてクラブに契約解除を要求したことを明らかにしている。	ばーぜるからじゆーけいやくになったりゆーについて、とるすてんふぃんくかんとくからじんしゅさべつてきなはつげんをうけてくらぶにけいやくかいじょをよーきゅーしたことをあきらかにしている。	NO_LABEL
2012-13シーズン第7節のFCディナモ・ブカレスト戦の75分に途中出場してデビューすると、後半アディショナルタイムにPKでアストラでの初得点を決めた。	NO_PRONOUNCE	NO_LABEL
この得点が決勝点となり、1-0でアストラが勝利した。	NO_PRONOUNCE	NO_LABEL
最終的にリーガ1で26試合6得点、ルーマニア・カップで5試合1得点を記録した。	NO_PRONOUNCE	NO_LABEL
2013-14シーズンはヨーロッパリーグ2回戦のオモニア・ニコシア戦、3回戦のFK ASトレンチーン戦で4試合連続で得点に絡み、3得点1アシストを記録した。	NO_PRONOUNCE	NO_LABEL
しかし、8月22日のマッカビ・ハイファFCとのプレーオフ1stレグに続いて、国内リーグでも同25日のFCペトロルル・プロイェシュティ戦に敗れると、責任を負わされる形でクラブとの関係が悪化、次の試合からベンチ外になった。	NO_PRONOUNCE	NO_LABEL
この連敗の後、アストラ代表者のヨアン・ニクラエがテレビでテンボを批判し、1ユーロで放出すると報道されていたが、テンボがルーマニア紙とのインタビュー記事で「メッシも調子が悪いときがある。	NO_PRONOUNCE	NO_LABEL
」などと応戦したことにより、ニクラエが態度を豹変させ、「移籍金120万ユーロでのオファーがなければ契約満了となる2015年6月30日までアストラにいる」と言う趣旨の発言をした。	NO_PRONOUNCE	NO_LABEL
このときチームメートの瀬戸貴幸がテンボをチームに戻すようにニクラエに電話で懇願したと言う記事がルーマニア紙に掲載されたが、瀬戸本人は公式Twitterで否定して自分ではなく、ケヒンデ・ファタイのことだと投稿した。	このときちーむめーとのせとたかゆきがてんぼをちーむにもどすよーににくらえにでんわでこんがんしたというきじがるーまにあしにけいさいされたが、せともとじんわこーしきついったーでひていしてじぶんでわなく、けひんでふぁたいのことだととーこーした。	NO_LABEL
2015年2月、アストラと和解する形で2017年までの新たな契約に合意した。	にせんじゅうごねんにがつ、あすとらとわかいするかたちでにせんじゅうななねんまでのあらたなけいやくにごーいした。	NO_LABEL
以前の契約は2014-15シーズン終了までだったが、先述の通りクラブとの関係悪化が原因で長期にわたり出場機会を失っていた。	NO_PRONOUNCE	NO_LABEL
U-20サッカーザンビア代表として望んだアフリカユース選手権2007で5得点を決めて得点王に輝いた。	NO_PRONOUNCE	NO_LABEL
チームも4位になり、2007 FIFA U-20ワールドカップへの出場権を獲得した。	NO_PRONOUNCE	NO_LABEL
本大会ではヨルダン戦でPKによる1得点を記録した。	ほんたいかいでわよるだんせんでぴーけーによるいちとくてんをきろくした。	NO_LABEL
30||2||4||2||34||4	NO_PRONOUNCE	NO_LABEL
43||7||5||1||48||8	NO_PRONOUNCE	NO_LABEL
73||9||9||3||82||12	NO_PRONOUNCE	NO_LABEL
!通算!!colspan="2"|UEFA	NO_PRONOUNCE	NO_LABEL
