全日本プロボウリング選手権大会は日本プロボウリング協会と国際スポーツ振興協会が主催する、毎年12月に行われるプロボウリングの大会である。	ぜんにほんぷろぼーりんぐせんしゅけんたいかいわにほんぷろぼーりんぐきょーかいとこくさいすぽーつしんこーきょーかいがしゅさいする、まいとしじゅーにがつにおこなわれるぷろぼーりんぐのたいかいである。	NO_LABEL
プロボウラー日本一決定戦と呼ばれている。	ぷろぼーらーにっぽんいちけっていせんとよばれている。	NO_LABEL
男子は1968年、女子は1970年に第1回大会が行われている。	だんしわせんきゅうひゃくろくじゅうはちねん、じょしわせんきゅうひゃくななじゅうねんにだいいっかいたいかいがおこなわれている。	NO_LABEL
男子は第1回から第6回まで毎年2月の開催、女子は第1回から第4回まで毎年3月の開催であったが、1973年から共に12月開催へ変更されているから第10回まで11月開催）。	NO_PRONOUNCE	NO_LABEL
2007年度大会から国際スポーツ振興協会との共催大会となり、「HANDA CUP」と冠されている。	NO_PRONOUNCE	NO_LABEL
日本のプロボウリング界の中では最も歴史のある大会である。	にっぽんのぷろぼーりんぐかいのなかでわもっともれきしのあるたいかいである。	NO_LABEL
