田瀬 慎之介は、日本のラグビー選手。	たせしんのすけわ、にっぽんのらぐびーせんしゅ。	NO_LABEL
2005年、山形中央高校卒業後、関東学院大学に入る。	にせんごねん、やまがたちゅーおーこうこーそつぎょーご、かんとーがくいんだいがくにはいる。	NO_LABEL
2009年、関東学院大学卒業後、キヤノンに加入。	にせんきゅうねん、かんとーがくいんだいがくそつぎょーご、きゃのんにかにゅー。	NO_LABEL
2013年、キヤノンイーグルスを退団した。	にせんじゅうさんねん、きやのんいーぐるすをたいだんした。	NO_LABEL
