青柳寺は、神奈川県相模原市南区上鶴間本町にある日蓮宗の寺院。	せいりゅうじわ、かながわけんさがみはらしみなみくかみつるまほんちょーにあるひはすむねのじいん。	NO_LABEL
山号は方運山。	さんごーわほーはこぶさん。	NO_LABEL
旧本山は小町本覚寺、潮師法縁。	きゅーほんざんわこまちほんかくじ、しおしほーえん。	NO_LABEL
碑「武相困民党発祥之地」がある。	NO_PRONOUNCE	NO_LABEL
区内には幸延寺、顕正寺がある。	くないにわこーえんじ、けんしょーじがある。	NO_LABEL
明応8年日朝が結んだ草庵清龍寺が起源。	NO_PRONOUNCE	NO_LABEL
天正11年渋谷義重の開基で、律正院日題を開山に創建した。	てんしょーじゅういちねんしぶやよししげのかいきで、りつしょーいんびだいをかいさんにそーけんした。	NO_LABEL
明治時代に自由民権運動の舞台となったことで知られる。	めいじじだいにじゆーみんけんうんどーのぶたいとなったことでしられる。	NO_LABEL
昭和56年まで使用されていた庫裡は神奈川県指定文化財で相模川自然の村公園へ移築、復元されている。	しょーわごじゅうろくねんまでしよーされていたくりわかながわけんしていぶんかざいでさがみがわしぜんのむらこーえんえいちく、ふくげんされている。	NO_LABEL
