北大西洋理事会は北大西洋条約機構における最高意思決定機関である。	きたたいせいよーりじかいわきたたいせいよーじょーやくきこーにおけるさいこーいしけっていきかんである。	NO_LABEL
加盟国の代表により構成され、北大西洋条約機構事務総長が議長を務める。	かめいこくのだいひょーによりこーせいされ、きたたいせいよーじょーやくきこーじむそうちょーがぎちょーをつとめる。	NO_LABEL
NATOにおける最高意思決定機関として、その設置は北大西洋条約の第9条に謳われている。	なとーにおけるさいこーいしけっていきかんとして、そのせっちわきたたいせいよーじょーやくのだいきゅうじょーにうたわれている。	NO_LABEL
構成員は加盟各国の代表であり、定期会合は各国の常駐代表(Permanent Representative いわゆるNATO大使）が参加し、事務総長を議長として週1回開催される。	NO_PRONOUNCE	NO_LABEL
全会一致により評決が行われ、多数決での決定はなされない。	ぜんかいいっちによりひょーけつがおこなわれ、たすーけつでのけっていわなされない。	NO_LABEL
このほか、外務・国防の閣僚レベルや首脳レベルの会合も開催されることがある。	NO_PRONOUNCE	NO_LABEL
なお、最古参の常駐代表は、理事会代表として儀礼的な役割を持ち、新事務総長選出時の会合招集を担うことがある。	なお、さいこさんのじょーちゅーだいひょーわ、りじかいだいひょーとしてぎれいてきなやくわりをもち、しんじむそうちょーせんしゅつじのかいごーしょーしゅーをになうことがある。	NO_LABEL
NACにおいては、安全保障にかかわるあらゆる事項が議題となるが、核兵器政策については同格の核計画グループが置かれ、2010年6月にNACに吸収されるまでは、防衛計画について同格の防衛計画委員会が置かれていた。	NO_PRONOUNCE	NO_LABEL
NACの下に、NATO事務局や実働部隊を率いる軍事委員会がある。	NO_PRONOUNCE	NO_LABEL
