セイコウ・ルイス・イシカワ・コバヤシは、ベネズエラの外交官、大使。	せいこうるいすいしかわこばやしわ、べねずえらのがいこーかん、たいし。	NO_LABEL
2005年より駐日ベネズエラ大使。	にせんごねんよりちゅーにちべねずえらたいし。	NO_LABEL
シウダ・ボリバル出身。	しうだぼりばるしゅっしん。	NO_LABEL
沖縄県出身の日系ベネズエラ人の父親と山梨県出身の日系ベネズエラ人の母親との間に生まれた日系二世。	おきなわけんしゅっしんのにっけいべねずえらじんのちちおやとやまなしけんしゅっしんのにっけいべねずえらじんのははおやとのまにうまれたにっけいにせい。	NO_LABEL
母国語のスペイン語に加えて、日本語と英語にも堪能。	ぼこくごのすぺいんごにくわえて、にほんごとえいごにもたんのー。	NO_LABEL
1998年5月、を卒業。	せんきゅうひゃくきゅうじゅうはちねんごがつ、をそつぎょー。	NO_LABEL
ハーバード大学大学院やボストンの経営コンサルティング会社で研修した後、2001年3月から駐日ベネズエラ大使館で経済・商務担当官を務める。	NO_PRONOUNCE	NO_LABEL
2004年11月より在スペイン・ベネズエラ大使館の経済・商務担当官。	NO_PRONOUNCE	NO_LABEL
2005年7月26日、駐日ベネズエラ大使に指名される。	にせんごねんしちがつにじゅうろくにち、ちゅーにちべねずえらたいしにしめいされる。	NO_LABEL
同年8月、駐日大使に就任。	どーねんはちがつ、ちゅーにちたいしにしゅーにん。	NO_LABEL
同年10月31日、皇居で信任状を捧呈した。	どーねんじゅーがつさんじゅういちにち、こーきょでしんにんじょーをほーていした。	NO_LABEL
駐日大使として在任中の2010年、ベネズエラ生まれのソプラノ声楽家コロンえりかと結婚。	ちゅーにちたいしとしてざいにんちゅーのにせんじゅうねん、べねずえらうまれのそぷらのせいがくかころんえりかとけっこん。	NO_LABEL
結婚式は夫人の出身校である聖心女子大学のチャペルで挙げた。	けっこんしきわふじんのしゅっしんこーであるせいしんじょしだいがくのちゃぺるであげた。	NO_LABEL
夫人との間に二男一女。	ふじんとのまにじなんいちじょ。	NO_LABEL
