大野 榮人は日本の仏教学者。	おーのえいとわにほんのぶっきょーがくしゃ。	NO_LABEL
愛知学院大学元学長。	あいちがくいんだいがくもとがくちょー。	NO_LABEL
学位は博士。	がくいわはかせ。	NO_LABEL
専門は中国仏教、天台学、及び禅観成立史。	せんもんわちゅーごくぶっきょー、てんだいがく、およびぜんかんせいりつし。	NO_LABEL
清洲越しの古刹で織田信長所縁の曹洞宗天寧寺住職。	きよすごしのこさつでおだのぶながしょえんのそーとーしゅーてんねいじじゅーしょく。	NO_LABEL
