海保 漁村- 慶応2年9月18日）は、徳川300年屈指の大儒と称されながら、庶民教育に徹した幕末の儒学者。	NO_PRONOUNCE	NO_LABEL
考証学派。	こーしょーがくは。	NO_LABEL
本名：海保元備、または紀之、通称は章之助、伝経廬の別号がある。	NO_PRONOUNCE	NO_LABEL
安房里見氏の血筋を引き、寛政10年11月22日、上総国武射郡北清水村の村方の医師海保修之の三男として生まれる。	あわさとみしのちすじをひき、かんせいじゅうねんじゅーいちがつにじゅうににち、かずさのくにむさぐんきたしゅーずむらのむらかたのいしかいほのぶゆきのさんなんとしてうまれる	NO_LABEL
22歳の時、学問で身をたてることを決意して江戸に出る。	にじゅうにさいのとき、がくもんでみをたてることをけついしてえどにでる。	NO_LABEL
幕府御殿医・多紀桂山の内弟子などを経て、儒学者・太田錦城の塾に入門。	NO_PRONOUNCE	NO_LABEL
やがて門下の第一人者となり、27歳で儒学者として独立。	やがてもんかのだいいちにんしゃとなり、にじゅうななさいでじゅがくしゃとしてどくりつ。	NO_LABEL
下谷久保町に「掃葉軒」を開塾した。	NO_PRONOUNCE	NO_LABEL
中国古典の研究や著作活動だけでなく、武士や豪農の子弟を優遇した当時の多くの私塾とは異なり、身分の隔たりなく庶民の子弟に学問を教え、その成果は当時の儒学界で高く評価されたと伝えられている。	ちゅーごくこてんのけんきゅーやちょさくかつどーだけでなく、ぶしやごーのーのしていをゆーぐーしたとーじのおーくのしじゅくとわことなり、みぶんのへだたりなくしょみんのしていにがくもんをおしえ、そのせいかわとーじのじゅがくかいでたかくひょーかされたとつたえられている。	NO_LABEL
なお、門弟では漢学者で文章家の信夫恕軒、明治維新後近代日本を前進させる原動力となった政治家の鳩山和夫や実業家の渋沢栄一などが有名である。	なお、もんていでわかんがくしゃでぶんしょーかのしのぶじょけん、めいじいしんごきんだいにっぽんをぜんしんさせるげんどーりょくとなったせいじかのはとやまかずおやじつぎょーかのしぶさわえいーちなどがゆーめいである。	NO_LABEL
晩年の漁村は、佐倉藩の藩校「成徳書院」で儒学を講義するとともに幕府の医学館「躋寿館」の儒学教授として多くの学生を指導し、生涯を庶民教育と中国・日本の古典研究に捧げた。	NO_PRONOUNCE	NO_LABEL
慶応2年9月18日、69歳で他界し、江戸本所の普賢寺に葬られた。	けいおーにねんくがつじゅうはちにち、ろくじゅうきゅうさいでたかいし、えどほんじょのふげんじにほーむられた。	NO_LABEL
生家跡は、「海保漁村先生誕生之處」として、昭和14年12月15日に千葉県の指定史跡になった。	NO_PRONOUNCE	NO_LABEL
