宮坂 珠理は、メディア・スタッフ所属のフリーアナウンサー。	みやさかじゅりわ、めでぃあすたっふしょぞくのふりーあなうんさー。	NO_LABEL
元TBC東北放送アナウンサー→ぷろだくしょんバオバブ所属声優。	NO_PRONOUNCE	NO_LABEL
東京都出身、趣味はゴルフ、サックス演奏、英語通訳。	とーきょーとしゅっしん、しゅみわごるふ、さっくすえんそー、えいごつーやく。	NO_LABEL
イギリスで高校生活を送ったのち帰国、横浜国立大学経済学部国際経済学科卒業。	いぎりすでこーこーせいかつをおくったのちきこく、よこはまこくりつだいがくけいざいがくぶこくさいけいざいがっかそつぎょー。	NO_LABEL
1997年4月東北放送に入社、2001年9月に退社。	せんきゅうひゃくきゅうじゅうななしがつとーほくほーそーににゅーしゃ、にせんいちねんくがつにたいしゃ。	NO_LABEL
退社後ぷろだくしょんバオバブに所属し声優も経験した。	たいしゃごぷろだくしょんばおばぶにしょぞくしせいゆーもけいけんした。	NO_LABEL
