九里 みほ、日本の女優である。	くのりみほ、にっぽんのじょゆーである。	NO_LABEL
ヘリンボーン所属。	へりんぼーんしょぞく。	NO_LABEL
神奈川県横須賀市出身。	かながわけんよこすかししゅっしん。	NO_LABEL
2007年に九里美保から九里みほに改名。	にせんななねんにくのりみほからくのりみほにかいめい。	NO_LABEL
2006年、劇団ビタミン大使ABC退団。	にせんろくねん、げきだんびたみんたいしたいだん。	NO_LABEL
ウクレレ＆ボーカルバンドハワイアンオールスターズ	うくれれあんどぼーかるばんどはわいあんおーるすたーず	NO_LABEL
ツインボーカルユニットSalud-Salutとして音楽活動もしている。	NO_PRONOUNCE	NO_LABEL
2000年	にせんねん	NO_LABEL
