ケーブル () は、ロープ、絶縁体と保護被覆で覆われた電線、および光ファイバーの総称である。	けーぶるかっこわ、ろーぷ、ぜつえんたいとほごひふくでおおわれたでんせん、およびひかりふぁいばーのそーしょーである。	NO_LABEL
鉄線や鋼線を使ったものは鉄索・鋼索とも呼ぶ。	NO_PRONOUNCE	NO_LABEL
同じ太さの1本の金属棒に比べ、柔軟で曲げることができる。	おなじふとさのいっぽんのきんぞくぼーにくらべ、じゅーなんでまげることができる。	NO_LABEL
針金やピアノ線をより合わせたものを使い、吊り橋、ケーブルカー、索道などに用いられる。	はりがねやぴあのせんをよりあわせたものをつかい、つりばし、けーぶるかー、さくどーなどにもちいられる。	NO_LABEL
また、必ずしも一般的な区分ではないが、航空機等のいわゆるフライ・バイ・ワイヤにおける「ワイヤ」が電線のことを指すのに対し、機械的に直接動きを伝えるためのものを「ケーブル」と呼ぶ。	NO_PRONOUNCE	NO_LABEL
送電用のケーブルの電気伝導体には、電気伝導性の高い銅やアルミニウム合金を使う。	そーでんよーのけーぶるのでんきでんどーたいにわ、でんきでんどーせいのたかいどーやあるみにうむごーきんをつかう。	NO_LABEL
機器内部などを除き、送電用の電線は銅線を寄りあわせたケーブルである。	ききないぶなどをのぞき、そーでんよーのでんせんわどーせんをよりあわせたけーぶるである。	NO_LABEL
通信用のケーブルには銅線や光ファイバーを使う。	つーしんよーのけーぶるにわどーせんやひかりふぁいばーをつかう。	NO_LABEL
有線電気通信設備令において通信用ケーブルとは、光ファイバー並びに光ファイバー以外の絶縁物及び保護物で被覆されている電線である。	ゆーせんでんきつーしんせつびれいにおいてつーしんよーけーぶるとわ、ひかりふぁいばーならびにひかりふぁいばーいがいのぜつえんぶつおよびほごぶつでひふくされているでんせんである。	NO_LABEL
海底ケーブルやケーブルテレビに利用される。	かいていけーぶるやけーぶるてれびにりよーされる。	NO_LABEL
送電、通信ケーブル類は、再生利用が可能で比較的高価格で取引されている銅線が使われている場合が多いため盗難に遭いやすい。	そーでん、つーしんけーぶるるいわ、さいせいりよーがかのーでひかくてきこーかかくでとりひきされているどーせんがつかわれているばあいがおーいためとーなんにあいやすい。	NO_LABEL
ブラジルの例では、2016年にリオデジャネイロオリンピックの開会式が開催されたエスタジオ・ド・マラカナンスタジアムが閉幕後、管理が手薄になると途端にケーブル類が盗難に遭った。	ぶらじるのれいでわ、にせんじゅうろくねんにりおでじゃねいろおりんぴっくのかいかいしきがかいさいされたえすたじおどまらかなんすたじあむがへいまくご、かんりがてうすになるととたんにけーぶるるいがとーなんにあった。	NO_LABEL
日本でも東日本大震災発生時に立ち入り制限区域などで送電線などの盗難が複数発生したことをはじめ、比較的人目のつく場所でも送電線が盗まれるなど被害は少なくない。	にっぽんでもひがしにほんだいしんさいはっせいじにたちいりせいげんくいきなどでそーでんせんなどのとーなんがふくすーはっせいしたことをはじめ、ひかくてきひとめのつくばしょでもそーでんせんがぬすまれるなどひがいわすくなくない。	NO_LABEL
