ニューヨーク州の郡一覧は、アメリカ合衆国ニューヨーク州内の郡の一覧である。	にゅーよーくしゅーのぐんいちらんわ、あめりかがっしゅーこくにゅーよーくしゅーないのぐんのいちらんである。	NO_LABEL
ニューヨーク州内には62の郡がある。	NO_PRONOUNCE	NO_LABEL
1664年、イギリスがオランダ領ニューアムステルダムを占領すると即座に、当初の12郡が創設された。	NO_PRONOUNCE	NO_LABEL
ただしその内2郡はその後に廃止された。	NO_PRONOUNCE	NO_LABEL
最も新しい郡は1914年にニューヨーク市の一部から作られたブロンクス郡であり、19世紀後半にウエストチェスター郡から分かれてニューヨーク市に付設されていた。	もっともあたらしいぐんわせんきゅうひゃくじゅうよねんににゅーよーくしのいちぶからつくられたぶろんくすぐんであり、じゅうきゅうせいきこーはんにうえすとちぇすたーぐんからわかれてにゅーよーくしにふせつされていた。	NO_LABEL
ニューヨーク州の郡はインディアンの言葉から付けられたものが多く、他にイギリスの地区、州、都市、王族、アメリカ初期の政治家や軍人、ニューヨーク州の政治家から付けられている。	にゅーよーくしゅーのぐんわいんでぃあんのことばからつけられたものがおーく、たにいぎりすのちく、しゅー、とし、おーぞく、あめりかしょきのせいじかやぐんじん、にゅーよーくしゅーのせいじかからつけられている。	NO_LABEL
ニューヨーク州の5つの郡はニューヨーク市の5つの行政区と同義であり、郡政府としては機能していないが、区の役人の中には郡役人に相当する者がいる。	にゅーよーくしゅーのいつつのぐんわにゅーよーくしのいつつのぎょーせいくとどーぎであり、ぐんせいふとしてわきのーしていないが、くのやくにんのなかにわぐんやくにんにそーとーするものがいる。	NO_LABEL
ニューヨーク市はこれら5郡の郡庁所在地と見なされている。	NO_PRONOUNCE	NO_LABEL
その5郡はニューヨーク郡、キングス郡、ブロンクス郡、リッチモンド郡、クイーンズ郡である。	NO_PRONOUNCE	NO_LABEL
各区は別々の郵便本局を持っているので、各区の郡庁所在地はその本局名で呼ばれることも多い。	かっくわべつべつのゆーびんほんきょくをもっているので、かっくのぐんちょーしょざいちわそのほんきょくめいでよばれることもおーい。	NO_LABEL
すなわち、ニューヨーク、ブルックリン、ブロンクス、スタテンアイランド、およびジャマイカである。	すなわち、にゅーよーく、ぶるっくりん、ぶろんくす、すたてんあいらんど、およびじゃまいかである。	NO_LABEL
しかし、これら郵便本局がサービスを行う町は全てニューヨーク市域の中にある。	しかし、これらゆーびんほんきょくがさーびすをおこなうまちわすべてにゅーよーくしいきのなかにある。	NO_LABEL
州内他郡と比べてニューヨーク市5郡の権限は大変限られており、ほとんどすべての面でニューヨーク市の権限に従っている。	NO_PRONOUNCE	NO_LABEL
次の一覧はアルファベット順である。	つぎのいちらんわあるふぁべっとじゅんである。	NO_LABEL
また、人口は2010年国勢調査による。	また、じんこーわにせんじゅうねんこくせいちょうさによる。	NO_LABEL
