スマートカーとは、IT技術やスマート化技術により、高度に安全化、快適化、省エネルギー化された、近未来型自動車のことである。	すまーとかーとわ、あいてぃーぎじゅつやすまーとかぎじゅつにより、こーどにあんぜんか、かいてきか、しょーえねるぎーかされた、きんみらいがたじどーしゃのことである。	NO_LABEL
高度道路交通システムとの連動により車間距離を保ったり、車線逸脱の検出、歩行者や障害物など対物接近によるブレーキ作動、道路交通情報のリアルタイム取得、カーナビゲーションの高知能化など運転者へのアシストがより可能になるとされる。	こーどどーろこーつーしすてむとのれんどーによりしゃかんきょりをたもったり、しゃせんいつだつのけんしゅつ、ほこーしゃやしょーがいぶつなどたいぶつせっきんによるぶれーきさどー、どーろこーつーじょうほーのりあるたいむしゅとく、かーなびげーしょんのこーちのーかなどうんてんしゃえのあしすとがよりかのーになるとされる。	NO_LABEL
また、自動車の自動運転システムも自動車専用道路などへの導入に向け研究されている。	また、じどーしゃのじどーうんてんしすてむもじどーしゃせんよーどーろなどえのどーにゅーにむけけんきゅーされている。	NO_LABEL
その他に、ヘッドアップディスプレイで歩行者や障害物など危険回避ナビゲーション情報をフロントガラスに映し出すシステムなども研究開発されている。	そのたに、へっどあっぷでぃすぷれいでほこーしゃやしょーがいぶつなどきけんかいひなびげーしょんじょーほーをふろんとがらすにうつしだすしすてむなどもけんきゅーかいはつされている。	NO_LABEL
最近では、スマートフォンの検索機能などを自動車の運転中にも音声入力により行うことができる、スマートフォン連携機能が提唱され、導入が期待されている。	さいきんでわ、すまーとふぉんのけんさくきのーなどをじどーしゃのうんてんちゅーにもおんせいにゅーりょくによりおこなうことができる、すまーとふぉんれんけいきのーがていしょーされ、どーにゅーがきたいされている。	NO_LABEL
