稲葉 さゆりは、日本の女優・タレント。	NO_PRONOUNCE	NO_LABEL
宮城県出身。	みやぎけんしゅっしん。	NO_LABEL
父、母、妹の4人家族身長164cm。	ちち、はは、いもーとのよにんかぞくしんちょーひゃくろくじゅうよんせんちめーとる。	NO_LABEL
過去にバーニングプロダクション、ダンデライオンに所属していた。	かこにばーにんぐぷろだくしょん、だんでらいおんにしょぞくしていた。	NO_LABEL
秦建日子演劇ワークショップTAKE1の第6期生。	はたたけひこえんげきわーくしょっぷていくわんのだいろっきせい。	NO_LABEL
宮城県宮城野高等学校、立教大学卒業。	みやぎけんみやぎのこーとーがっこー、りっきょーだいがくそつぎょー。	NO_LABEL
2007年にTBS「愛の劇場」の砂時計に出演した。	NO_PRONOUNCE	NO_LABEL
青乃木つぐみ名義で作詞・作曲・歌唱したものをyoutubeに投稿している。	NO_PRONOUNCE	NO_LABEL
