ブレゲー941は、1960年代にフランスの航空機製造会社ブレゲーによって開発された短距離離着陸機。	NO_PRONOUNCE	NO_LABEL
数機が製造されたが、航空会社からの受注には至らなかった。	すーきがせいぞーされたが、こーくーがいしゃからのじゅちゅーにわいたらなかった。	NO_LABEL
ルイ・ブレゲーが1940年代から1950年代前半にかけて考案した、「パワード・リフト」という新しい概念の高揚力装置を採用したSTOL機である。	NO_PRONOUNCE	NO_LABEL
実験機のブレゲー940は1958年5月21日に初飛行し、短距離離着陸の実証に使用された。	NO_PRONOUNCE	NO_LABEL
この結果を元に、実際に輸送に使用することが可能な試作機としてブレゲー941が開発され、その1号機は1961年6月1日初飛行となった。	NO_PRONOUNCE	NO_LABEL
ブレゲー941の飛行試験の結果を元に、より強力なエンジンを搭載し、空中投下が可能な貨物扉が設けられたブレゲー941Sが製造された。	NO_PRONOUNCE	NO_LABEL
これは1967年4月19日に初飛行し、フランス空軍に4機輸送機として採用になり、1974年まで運用された。	NO_PRONOUNCE	NO_LABEL
ブレゲー941で採用された「パワード・リフト」という概念は、主翼全幅に前縁スラットと後縁二重隙間フラップを設置し、プロペラの後ろに発生する気流を強引に折り曲げることによって揚力を発生させるものである。	NO_PRONOUNCE	NO_LABEL
この仕組みを有効に活用するため、この規模の航空機であれば搭載エンジンは2基で済むところを、ブレゲー941では4基搭載とし、主翼の大半の部分にブロペラ後流が発生するようにしている。	NO_PRONOUNCE	NO_LABEL
この主翼とプロペラの組み合わせにより、最大揚力係数は7.2に達し、失速速度は83km/hとなった。	NO_PRONOUNCE	NO_LABEL
試作機はフランスとアメリカ合衆国で試験飛行が行なわれた。	しさくきわふらんすとあめりかがっしゅーこくでしけんひこーがおこなわれた。	NO_LABEL
特にアメリカでは、マクドネル・ダグラスがライセンス生産を行うこととなり、MD-188というモデル番号が準備された。	NO_PRONOUNCE	NO_LABEL
アメリカ航空宇宙局とアメリカ軍も試験を行なったほか、1968年から1969年にかけて、連邦航空局・イースタン航空・アメリカン航空が共同で試験運用を行なった。	NO_PRONOUNCE	NO_LABEL
しかし、ブレゲー941の運用には特に支障がなかったものの、航空会社からの正式発注はなかった。	NO_PRONOUNCE	NO_LABEL
これは、アメリカの航空会社がジェット化を進めている時期で、STOL機への関心を持っていなかったためとされている。	これわ、あめりかのこーくーがいしゃがじぇっとかをすすめているじきで、えすとーるきえのかんしんをもっていなかったためとされている。	NO_LABEL
また、アメリカでは陸上の公共交通機関の地位が低下しており、自動車社会であったことから、STOL機での運行距離程度であれば、多少の無理は承知で自動車を利用するという風土も影響したとされている。	また、あめりかでわりくじょーのこーきょーこーつーきかんのちいがていかしており、じどーしゃしゃかいであったことから、えすとーるきでのうんこーきょりていどであれば、たしょーのむりわしょーちでじどーしゃをりよーするとゆうふーどもえいきょーしたとされている。	NO_LABEL
