ゴッドレス・フローリンとは、イギリスで最初に発行され流通した1849年銘の2シリングに相当する銀貨の名称である。	NO_PRONOUNCE	NO_LABEL
この銀貨には、イギリスのコインに決まって刻印されていた「DEI GRATIA：」が欠如しており、この為「Godless Florin：神無きフローリン」と呼ばれる。	NO_PRONOUNCE	NO_LABEL
イギリスでは、1846年～47年当時、十進法通貨制度を模索した時期があり、各種の通貨単位呼称の試作コインが製造され、導入に向けた検討がなされた。	NO_PRONOUNCE	NO_LABEL
その結果1/10ポンドに相当する通貨単位呼称をフローリンとすることが決定され、1849年には流通用のフローリン銀貨が発行された。	NO_PRONOUNCE	NO_LABEL
これがゴッドレス・フローリンである。	これがごっどれすふろーりんである。	NO_LABEL
1848年には、この十進法通貨のパターンが製造された。	せんはっぴゃくよんじゅうはちねんにわ、このじっしんほーつーかのぱたーんがせいぞーされた。	NO_LABEL
これらは表面の肖像が王冠を戴くヴィクトリア女王の胸像、月桂冠を戴く女王の頭像、ヘアバンドを付けた女王の頭像の3種、裏面は4つの紋章入りの盾が十字に配置されたもの、イングランド、スコットランド、アイルランド、ウェールズの4つのモチーフが配置されたもの、それに単純な花輪と額面表示だけのものの3種類がデザインされた。	NO_PRONOUNCE	NO_LABEL
更に、額面標記はFLORINのほかに、CENTUM、DECADE、DIMEのものがあったため、これらの各種の組み合わせにより30種のパターンが存在する。	NO_PRONOUNCE	NO_LABEL
コインをデザインしたのは当時の王立造幣局彫刻部長であった、である。	こいんをでざいんしたのわとーじのおーりつぞーへいきょくちょーこくぶちょーであった、である。	NO_LABEL
結局は1847年に発行されたゴチック・クラウン銀貨と同じデザインとすることに落ち着いたが、1849年銘の流通用のコインもこのパターンの刻印を使用して製造されたため、DEI GRATIA欠如のまま流通することとなったが、パターンとは言え、何ゆえDEI GRATIAが欠如していたか、真相は不明である。	NO_PRONOUNCE	NO_LABEL
ゴッドレス・フローリンは1849年銘のままで1851年まで製造され、1851年にはDEI GRATIAを加刻し、ブラックレーター書体を採用したゴチック・フローリンが登場している。	NO_PRONOUNCE	NO_LABEL
なお、1849年銘のゴッドレス・フローリンには、最初パターンの刻印がそのまま流用されたが、後に細部を修正した別の刻印に変わったため、女王の表情やドレスの模様が異なるバラエティーがある。	なお、せんはっぴゃくよんじゅうきゅうねめいのごっどれすふろーりんにわ、さいしょぱたーんのこくいんがそのままりゅーよーされたが、ごにさいぶをしゅーせいしたべつのこくいんにかわったため、じょおーのひょーじょーやどれすのもよーがことなるばらえてぃーがある。	NO_LABEL
初期のものはウィリアム・ワイオンのイニシャルである「W.W.」が枠線によってつぶされているため、このコインは「without　W.W.」と呼ばれ、希少価値があるとされる。	NO_PRONOUNCE	NO_LABEL
イギリスでは、十進法通貨制度はこの後100年以上経た1971年まで導入されることは無かったが、フローリンという額面のコインはこの後も継続して製造され流通した。	いぎりすでわ、じっしんほーつーかせいどわこののちひゃくねんいじょーへたせんきゅうひゃくななじゅういちねんまでどーにゅーされることわなかったが、ふろーりんとゆうがくめんのこいんわこののちもけいぞくしてせいぞーされりゅーつーした。	NO_LABEL
シリング銀貨と共に最も普通に使われるコインであったため、現存するコインは非常に状態が悪く、場合によっては表裏が判断できにくいまでに磨耗したコインも見受ける。	しりんぐぎんかとともにもっともふつーにつかわれるこいんであったため、げんそんするこいんわひじょーにじょーたいがわるく、ばあいによってわひょーりがはんだんできにくいまでにまもーしたこいんもみうける。	NO_LABEL
しかし、掲載写真のような完璧な状態のコインも存在し、コイン収集家とっては人気のコインである。	しかし、けいさいしゃしんのよーなかんぺきなじょーたいのこいんもそんざいし、こいんしゅーしゅーかとってわにんきのこいんである。	NO_LABEL
