春日井市の地名では、同市内に存在する町名・字名を一覧にして記す。	NO_PRONOUNCE	NO_LABEL
括弧内の地名は旧町名や自治体、数字は成立年である。	かっこないのちめいわきゅーちょーめいやじちたい、すーじわせいりつねんである。	NO_LABEL
同市は1943年、東春日井郡勝川町・鷹来村・篠木村・鳥居松村が合併することによって成立した。	NO_PRONOUNCE	NO_LABEL
ここではその当時の地名を旧自治体ごとに記す。	ここでわそのとーじのちめいをきゅーじちたいごとにしるす。	NO_LABEL
以上の大字は、1959年までにすべて廃止されている。	いじょーのだいじわ、せんきゅうひゃくごじゅうきゅうねんまでにすべてはいしされている。	NO_LABEL
1948年から1954年にかけて市内の大字がいくつかの町に再編された。	せんきゅうひゃくよんじゅうはちねからせんきゅうひゃくごじゅうよねんにかけてしないのだいじがいくつかのまちにさいへんされた。	NO_LABEL
旧大字ごとに以下に列挙する。	きゅーだいじごとにいかにれっきょする。	NO_LABEL
1958年、市内に高蔵寺・坂下の2町が編入された。	NO_PRONOUNCE	NO_LABEL
編入当初の大字を記す。	へんにゅーとーしょのだいじをしるす。	NO_LABEL
あくる1959年には以上の大字でも町名が設置された。	あくるせんきゅうひゃくごじゅうきゅうねんにわいじょーのだいじでもちょーめいがせっちされた。	NO_LABEL
