茶屋町地区は、岡山県倉敷市の行政上の地域区分である。	ちゃやまちちくわ、おかやまけんくらしきしのぎょーせいじょーのちいきくぶんである。	NO_LABEL
同市茶屋町支所の管轄エリアで、同市の東部に位置する。	どーしちゃやまちししょのかんかつえりあで、どーしのとーぶにいちする。	NO_LABEL
かつての都宇郡および都窪郡茶屋町にあたり、茶屋町と茶屋町早沖の2大字からなる。	NO_PRONOUNCE	NO_LABEL
本項では旧都窪郡茶屋町および旧称江島村についても述べる。	ほんこーでわきゅーつくぼぐんちゃやまちおよびきゅーしょーえじまむらについてものべる。	NO_LABEL
倉敷市の中東端にある平野地帯に位置する。	くらしきしのちゅーとーたんにあるひらのちたいにいちする。	NO_LABEL
倉敷市の内、1972年に倉敷市に編入合併された都窪郡茶屋町だった地区である。	くらしきしのうち、せんきゅうひゃくななじゅうにねんにくらしきしにへんにゅーがっぺいされたつくぼぐんちゃやまちだったちくである。	NO_LABEL
現在、当地は倉敷市役所茶屋町支所が管轄し、茶屋町および茶屋町早沖が含まれる。	げんざい、とーちわくらしきしやくしょちゃやまちししょがかんかつし、ちゃやまちおよびちゃやまちはやおきがふくまれる。	NO_LABEL
庄などともに同市内の倉敷・水島・玉島・児島の4大エリアとは別の個別のエリアとして扱われる。	NO_PRONOUNCE	NO_LABEL
場合によっては、管轄規模が小さいため庄とともに倉敷エリアに含まれることもある。	ばあいによってわ、かんかつきぼがちーさいためしょーとともにくらしきえりあにふくまれることもある。	NO_LABEL
地区全域が江戸時代中期の1706年頃から行われた新田開発で児島湾を干拓して作られたため丘陵地の全く無い平坦な土地で占められ、現在も市街地周辺は整然とした田園地帯が広がり稲作中心の農業が盛んである。	ちくぜんいきがえどじだいちゅーきのせんななひゃくろくねんごろからおこなわれたにったかいはつでこじまわんをかんたくしてつくられたためきゅーりょーちのぜんくないへいたんなとちでしめられ、げんざいもしがいちしゅーへんわせいぜんとしたでんえんちたいがひろがりいなさくちゅーしんののーぎょーがさかんである。	NO_LABEL
1988年に瀬戸大橋線が開通してからは茶屋町駅を毎時2本の快速電車が発着するようになり、岡山駅まで20分弱で結ばれていること等から岡山都市圏のベッドタウンに変貌している。	せんきゅうひゃくはちじゅうはちねんにせとおーはしせんがかいつーしてからわちゃやまちえきをまいじにほんのかいそくでんしゃがはっちゃくするよーになり、おかやまえきまでにじゅっぷんじゃくでむすばれていることとーからおかやまとしけんのべっどたうんにへんぼーしている。	NO_LABEL
そのため、ここ10年の人口増加率は10パーセントを超え、駅を中心に市街地が東へと拡大し街の景色も急速に変化している。	そのため、ここじゅうねんのじんこーぞーかりつわじゅうぱーせんとをこえ、えきをちゅーしんにしがいちがひがしえとかくだいしがいのけしきもきゅーそくにへんかしている。	NO_LABEL
江戸時代、領主であった戸川氏によって早沖はい草栽培、帯沖は綿花栽培が奨励され、それぞれ畳表と小倉織・タビ製造が地場産業として培われてきた。	NO_PRONOUNCE	NO_LABEL
特に明治時代中期には、い草が原料の｢花筵｣が日本を代表する輸出品に数えられるなど隆盛を極めたことがある。	NO_PRONOUNCE	NO_LABEL
現在、綿花の栽培は行われておらず、い草も一部に残るのみであるが、これらの産業により起業した会社が幾つも残っている。	げんざい、めんかのさいばいわおこなわれておらず、いぐさもいちぶにのこるのみであるが、これらのさんぎょーによりきぎょーしたかいしゃがいくつものこっている。	NO_LABEL
茶屋町では毎年、秋祭りに鬼の面を被った市民が派手な衣装に杖やこん棒を持ち多数登場し町を歩き回り祭りを盛り上げる。	ちゃやまちでわまいとし、あきまつりにおにのめんをこーむったしみんがはでないしょーにつえやこんぼーをもちたすーとーじょーしまちをあるきまわりまつりをもりあげる。	NO_LABEL
通称「茶屋町の鬼」と呼ばれ、稲荷神社と住吉神社の秋季例大祭に200年以上前から登場したものと云われている。	NO_PRONOUNCE	NO_LABEL
昭和30年代～40年代に一時衰退するが、昭和50年に保存会が結成され復活した。	NO_PRONOUNCE	NO_LABEL
現在、駅前広場で行われる茶屋町の鬼まつりでは百匹以上が参加、老人介護施設の慰問に倉敷天領夏まつりや水島港まつりにも登場している。	げんざい、えきまえひろばでおこなわれるちゃやまちのおにまつりでわひゃくひきいじょーがさんか、ろーじんかいごしせつのいもんにくらしきてんりょーなつまつりやみずしまこーまつりにもとーじょーしている。	NO_LABEL
茶屋町の歴史は、干拓の歴史である。	ちゃやまちのれきしわ、かんたくのれきしである。	NO_LABEL
400年ほど前まで、当地周辺一帯は完全に海域で、吉備の穴海と呼ばれていた。	よんひゃくねんほどまえまで、とーちしゅーへんいったいわかんぜんにかいいきで、きびのあなうみとよばれていた。	NO_LABEL
近世に徐々に干拓されていき陸地化した。	きんせいにじょじょにかんたくされていきりくちかした。	NO_LABEL
その後、穀倉地帯として米・麦の他、イグサや綿花の栽培が盛んに行われた。	NO_PRONOUNCE	NO_LABEL
また、金毘羅往来周辺は、その中継地として、また汐入川の河港として栄え、岡山藩天城領主の天城池田氏が岡山城下町との行き来のときの休憩所として利用する茶屋を中心とする商家が町並みを作った。	また、こんぴらおーらいしゅーへんわ、そのちゅーけいちとして、またしおいりがわのかこーとしてさかえ、おかやまはんあまぎりょーしゅのあまぎいけだしがおかやまじょーかまちとのいききのときのきゅーけいしょとしてりよーするちゃやをちゅーしんとするしょーかがまちなみをつくった。	NO_LABEL
これが地名の由来となっている。	これがちめいのゆらいとなっている。	NO_LABEL
幕末になると、イグサ・綿花の栽培からの派生産業として花筵や畳表などのイグサ加工品製造や繊維業が盛んとなる。	NO_PRONOUNCE	NO_LABEL
後には花筵織機を発明し、輸出花筵の道を開拓した磯崎眠亀を輩出した。	ごにわはなむしろしょっきをはつめいし、ゆしゅつはなむしろのみちをかいたくしたいそざきみんきをはいしゅつした。	NO_LABEL
明治43年、国鉄宇野線が開通すると茶屋町駅が開業し、さらに大正3年には下津井軽便鉄道が開通し、同茶屋町駅も開業した。	めいじよんじゅうさんねん、こくてつうのせんがかいつーするとちゃやまちえきがかいぎょーし、さらにたいしょーさんねんにわしもついけいべんてつどーがかいつーし、どーちゃやまちえきもかいぎょーした。	NO_LABEL
加えて昭和7年には倉敷駅と茶屋町駅を結ぶ国鉄バス路線の運行が開始され、東西南北の重要都市を結ぶ交通の要衝として発展した。	くわえてしょーわななねんにわくらしきえきとちゃやまちえきをむすぶこくてつばすろせんのうんこーがかいしされ、よもひろのじゅーよーとしをむすぶこーつーのよーしょーとしてはってんした。	NO_LABEL
大正中期にゴム工業、昭和初期には農業機械製造も発達し、商工業都市的性格を備えるとともに、農村部では農家の副業として以前より引き続き花筵・畳表などのイグサ加工が発達した。	NO_PRONOUNCE	NO_LABEL
現在は、岡山県南中部の要地のひとつとして発展している。	げんざいわ、おかやまけんみなみちゅーぶのよーちのひとつとしてはってんしている。	NO_LABEL
農業ほか各種産業集積し、幹線道路・鉄道などの交通網が整備されており、現代になると近郊のベッドタウンとして人口増加も著しくなった。	NO_PRONOUNCE	NO_LABEL
磯崎眠亀の住居兼研究所は、眠亀館として保存されている。	いそざきみんきのじゅーきょけんけんきゅーじょわ、ねむりひさしかんとしてほぞんされている。	NO_LABEL
まず中世後期の1584年の宇喜多秀家家臣の岡利勝の指揮により、現在の倉敷市街北部一帯が干拓されて陸地化。	まずちゅーせいこーきのせんごひゃくはちじゅうよんねんのうきたひでいえかしんのおかとしかつのしきにより、げんざいのくらしきしがいほくぶいったいがかんたくされてりくちか。	NO_LABEL
そして江戸時代になると南方へと干拓が推し進められていった。	そしてえどじだいになるとなんぽーえとかんたくがおしすすめられていった。	NO_LABEL
茶屋町付近での干拓では天和3年に宮崎割新田が完成、元禄3年には添新田、そして宝永元年に早島沖新田およびその南側の帯江沖新田が干拓を開始し同4年に両新田が完成した。	ちゃやまちふきんでのかんたくでわてんわさんねんにみやざきわりしんでんがかんせい、げんろくさんねんにわそえにった、そしてほーえいがんねんにはやしまおきしんでんおよびそのみなみがわのおびえおきしんでんがかんたくをかいししどーよんねんにりょーしんでんがかんせいした。	NO_LABEL
そして江戸時代後半の文政7年に、帯江沖新田の南側が開墾されて鶴崎新田が完成した。	そしてえどじだいこーはんのぶんせいななねんに、おびえおきしんでんのみなみがわがかいこんされてつるさきしんでんがかんせいした。	NO_LABEL
鶴崎新田は、備前国児島郡に属したが、残りはいずれも備中国都宇郡に属した。	つるさきしんでんわ、びぜんのくにこじまぐんにぞくしたが、のこりわいずれもそなえちゅーごくつうぐんにぞくした。	NO_LABEL
これらの内、添新田の東部・帯江沖新田・鶴崎新田が現在の大字の茶屋町、宮崎割新田・早島沖新田が茶屋町早沖に該当する。	NO_PRONOUNCE	NO_LABEL
もともと茶屋町一帯の干拓は、早島知行所3代目領主の戸川安貞と帯江知行所2代目領主の戸川安広の共同事業であった。	もともとちゃやまちいったいのかんたくわ、はやしまともゆきしょさんだいめりょーしゅのとがわやすさだとおびえちぎょーしょにだいめりょーしゅのとがわやすひろのきょーどーじぎょーであった。	NO_LABEL
宝永4年、一連の干拓が完成すると境川と呼ばれる川より北側を早島沖新田村、南側を帯江沖新田村とし、前者を早島領、後者を帯江領とした。	ほーえいよんねん、いちれんのかんたくがかんせいするとさかいがわとよばれるかわよりきたがわをはやしまおきしんでんむら、みなみがわをおびえおきしんでんむらとし、ぜんしゃをはやしまりょー、こーしゃをおびえりょーとした。	NO_LABEL
明治になり、明治3年11月に早島沖新田村・帯江沖新田村はそれぞれ早島新田村・帯江新田村に改称。	NO_PRONOUNCE	NO_LABEL
また宮崎村枝村であった宮崎割新田村は宮崎村に併合された。	またみやざきむらえだむらであったみやざきわりにったむらわみやざきむらにへいごーされた。	NO_LABEL
同8年に宮崎村のうちの旧宮崎割新田分が早島新田に併合される。	どーはちねんにみやざきむらのうちのきゅーみやざきわりにったぶんがはやしましんでんにへいごーされる。	NO_LABEL
同22年には早島新田・帯江新田両村が合併し、江島村を新設。	NO_PRONOUNCE	NO_LABEL
名称は両村名から一文字ずつ合わせたものである。	めいしょーわりょーそんめいからひともじずつあわせたものである。	NO_LABEL
そして明治29年に町制を施行し、その際に茶屋町に改称する。	そしてめいじにじゅうくねんにちょーせいをしこーし、そのさいにちゃやまちにかいしょーする。	NO_LABEL
その後、昭和22年1月に興除村より旧鶴崎村域を茶屋町へ移管。	そのご、しょーわにじゅうにねんいちがつにこうじょむらよりきゅーつるさきむらいきをちゃやまちえいかん。	NO_LABEL
昭和26年3月に豊洲村の高須賀の内の旧添新田分が、豊洲村の倉敷市編入の絡みで、当地へ移管した。	しょーわにじゅうろくねんさんがつにとよすむらのたかすがのうちのきゅーそえしんでんぶんが、とよすむらのくらしきしへんにゅーのからみで、とーちえいかんした。	NO_LABEL
これにより現在の茶屋町の区域が確定した。	これによりげんざいのちゃやまちのくいきがかくていした。	NO_LABEL
昭和47年5月1日に倉敷市に編入合併し、同茶屋町支所の管轄下となる。	しょーわよんじゅうしちねんごがつついたちにくらしきしにへんにゅーがっぺいし、どーちゃやまちししょのかんかつかとなる。	NO_LABEL
なお、合併後は当地の読み方は「ちゃやまち」に変更された。	NO_PRONOUNCE	NO_LABEL
町の発祥は倉敷を結ぶで、かつてはがあった。	まちのはっしょーわくらしきをむすぶで、かつてわがあった。	NO_LABEL
起源は、江戸時代の宝永年間に帯江・早島の両沖新田の干拓に遡る。	NO_PRONOUNCE	NO_LABEL
両新田干拓のため、その前に干拓されていた添新田村に流れる汐入川の東岸部に、干拓工事の為の基地となる河港がつくられた。	りょーしんでんかんたくのため、そのまえにかんたくされていたそえにったむらにながれるしおいりがわのとーがんぶに、かんたくこーじのためのきちとなるかこーがつくられた。	NO_LABEL
そして周囲に港を中心とする港町の町並みが生まれた。	そしてしゅーいにみなとをちゅーしんとするみなとちょーのまちなみがうまれた。	NO_LABEL
児島湾に抜ける汐入川の水運の要衝で船溜りなどが造成され、周りには人夫あいての茶屋、船宿や問屋が軒を並べたことによって町が形成されていった。	こじまわんにぬけるしおいりがわのすいうんのよーしょーでふねたまりなどがぞーせいされ、まわりにわにんぷあいてのちゃや、ふなやどやとんやがのきをならべたことによってまちがけいせいされていった。	NO_LABEL
その後、両沖新田の造成が完了すると、岡山・早島・天城・下津井と結ぶ金毘羅往来が添新田の河港町を通過。	NO_PRONOUNCE	NO_LABEL
その中継の要所として茶屋などの商店が多く建ち並ぶようになった。	そのちゅーけいのよーしょとしてちゃやなどのしょーてんがおーくたちならぶよーになった。	NO_LABEL
寛政のころには川沿いの道が金毘羅参りの街道になり参拝客あいての店が増えた。	かんせいのころにわかわぞいのみちがこんぴらまいりのかいどーになりさんぱいきゃくあいてのみせがふえた。	NO_LABEL
この町並みはいつしか通称茶屋町と呼ばれるようになった。	このまちなみわいつしかつーしょーちゃやまちとよばれるよーになった。	NO_LABEL
そう呼ばれるようになった理由は諸説あり、有力説として、一つは岡山藩家老の天城池田氏が所領の天城から岡山城下町への往来時の休憩所として利用する茶屋が、その町並みの中にあったこと。	そーよばれるよーになったりゆーわしょせつあり、ゆーりょくせつとして、ひとつわおかやまはんかろーのあまぎいけだしがしょりょーのあまぎからおかやまじょーかまちえのおーらいじのきゅーけいしょとしてりよーするちゃやが、そのまちなみのなかにあったこと。	NO_LABEL
二つ目は、町並みに金比羅参りのために街道を通る参拝客向けの休み茶屋が多く立地していたこと。	ふたつめわ、まちなみにこんぴらまいりのためにかいどーをとーるさんぱいきゃくむけのやすみちゃやがおーくりっちしていたこと。	NO_LABEL
三つ目は、町並みの中に著名な有力茶屋があったことなどがある。	みつめわ、まちなみのなかにちょめいなゆーりょくちゃやがあったことなどがある。	NO_LABEL
その後、前述の変遷を経て、江島村が町制施行するときに中心市街地の通称、つまり前述の茶屋町に因み茶屋町を町名とした。	そのご、ぜんじゅつのへんせんをへて、えじまむらがちょーせいしこーするときにちゅーしんしがいちのつーしょー、つまりぜんじゅつのちゃやまちにちなみちゃやまちをちょーめいとした。	NO_LABEL
岡山県および近県では自治体としての町を「ちょう」と呼ぶことが圧倒的に多い慣習に倣い、「ちゃやちょう」と読ませた。	NO_PRONOUNCE	NO_LABEL
その後、倉敷市に合併時に、市街の古くからの通称である「ちゃやまち」に読み方を変えた。	NO_PRONOUNCE	NO_LABEL
なお、明治43年開業の茶屋町駅は、設置当初から駅付近の古くからの市街の通称から「ちゃやまち」としている。	NO_PRONOUNCE	NO_LABEL
茶屋町地域の中心市街地を要し、地域の南部・西部を占める。	NO_PRONOUNCE	NO_LABEL
倉敷編入以前の町制時代は帯江新田と名乗った。	くらしきへんにゅーいぜんのちょーせいじだいわおびえしんでんとなのった。	NO_LABEL
それ以前は、帯江新田・添新田・鶴崎新田に分かれる。	NO_PRONOUNCE	NO_LABEL
大部分は帯江沖新田で、東北部の南北に長い区域が添新田、南端の逆三角形のような形をした区域が鶴崎新田であり、残る区域が帯江沖新田である。	だいぶぶんわおびえおきしんでんで、とーほくのなんぼくにながいくいきがそえにった、なんたんのぎゃくさんかくけいのよーなかたちをしたくいきがつるさきしんでんであり、のこるくいきがおびえおきしんでんである。	NO_LABEL
添新田は、帯江沖新田と高須賀新田の間にあたり、前述のように南北に長い。	そえしんでんわ、おびえおきしんでんとたかすがしんでんのまにあたり、ぜんじゅつのよーになんぼくにながい。	NO_LABEL
前潟新田の干拓造成により、汐入川が開削された。	まえがたしんでんのかんたくぞーせいにより、しおいりがわがかいさくされた。	NO_LABEL
これにより干潟の排水が良くなり高須賀寄りに洲ができ、元禄3年にこれを羽島村西山武右衛門が帯江領主に願い出て、備前国和気郡稲坪村の清右衛門が開発を請け負い、新田約30町が造成された。	NO_PRONOUNCE	NO_LABEL
開墾後、長細い当地は東西に分割されさらに細長くなった。	かいこんご、ながほそいとーちわとーざいにぶんかつされさらにほそながくなった。	NO_LABEL
西部は早島知行所領となり、高須賀村の枝村として高須賀添新田となる。	せいぶわはやしまともゆきしょりょーとなり、たかすかむらのえだむらとしてたかすがそえしんでんとなる。	NO_LABEL
一方、東部は帯江知行所領となり、添新田を名乗った。	いっぽー、とーぶわおびえちぎょーしょりょーとなり、そえしんでんをなのった。	NO_LABEL
その後に帯江領添新田の南部、汐入川東岸一帯に町並みが生まれるが、これは宝永元年から開始された帯江沖新田・早島沖新田の干拓工事の基地として汐入川の河港のが作られ、港を中心としてその周辺に出来た港町である。	NO_PRONOUNCE	NO_LABEL
宝永元年から添新田の東側、早島の南側にあたる海域が干拓され、同4年に完成。	ほーえいがんねんからそえしんでんのひがしがわ、はやしまのみなみがわにあたるかいいきがかんたくされ、どーよんねんにかんせい。	NO_LABEL
沖新田と呼ばれ、境川用水を境に南北に分割され、北側は早島領として早島沖新田村、南側は帯江領となり帯江沖新田村となった。	おきしんでんとよばれ、さかいがわよーすいをさかいになんぼくにぶんかつされ、きたがわわはやしまりょーとしてはやしまおきしんでんむら、みなみがわわおびえりょーとなりおびえおきしんでんむらとなった。	NO_LABEL
帯江側の開発主は羽島村の西山武右衛門・二日市村の平松万右衛門・加須山村の尾崎太右衛門・亀山村の亀山九郎右衛門であった。	NO_PRONOUNCE	NO_LABEL
しかし、用水不足のため、新田完成後約10年間は全くの無収穫であった。	しかし、よーすいふそくのため、にったかんせいごやくじゅうねんかんわぜんくのむしゅーかくであった。	NO_LABEL
享保14年検地、同16年より年貢上納。	きょうほじゅうよんねんけんち、どーじゅうろくねんよりねんぐじょーのー。	NO_LABEL
延享2年より免状あり、畝数91町余りであった。	NO_PRONOUNCE	NO_LABEL
干潟に面していたため、その所属および使用や排水についてしばしば周辺他村のと総論が発生している。	ひがたにめんしていたため、そのしょぞくおよびしよーやはいすいについてしばしばしゅーへんたむらのとそーろんがはっせいしている。	NO_LABEL
両沖新田が完成すると、岡山から早島を経て当地を通り、天城を経て下津井へと通じる金比羅往来が開通。	りょーおきしんでんがかんせいすると、おかやまからはやしまをへてとーちをとーり、あまぎをへてしもついえとつーじるこんぴらおーらいがかいつー。	NO_LABEL
添新田の川港町は、山陽路と四国を結ぶ海陸交通の中継の要地となった。	そえしんでんのかわみなとちょーわ、さんよーろとしこくをむすぶかいりくこーつーのちゅーけいのよーちとなった。	NO_LABEL
その中に天城池田氏が岡山と天城間の往来時の休憩所として利用する茶屋があったことから一帯の町並みを通称茶屋町と呼ぶようになったという。	そのなかにあまぎいけだしがおかやまとあまぎかんのおーらいじのきゅーけいしょとしてりよーするちゃやがあったことからいったいのまちなみをつーしょーちゃやまちとよぶよーになったという。	NO_LABEL
現桜橋の北側に金毘羅大権現があるが、これがその茶屋町とよばれた町並みの守護神として祀られたものである。	げんさくらばしのきたがわにこんぴらだいごんげんがあるが、これがそのちゃやまちとよばれたまちなみのしゅごじんとしてまつられたものである。	NO_LABEL
文政7年、当地の南沖にあたる海域が干拓され鶴崎新田が開墾される。	ぶんせいななねん、とーちのみなみおきにあたるかいいきがかんたくされつるさきしんでんがかいこんされる。	NO_LABEL
前年より当地の東沖合の干拓が開始されており、のち52年をかけて広大な興除新田が造成されることとなる。	ぜんねんよりとーちのひがしおきあいのかんたくがかいしされており、のちごじゅうにねんをかけてこーだいなこうじょしんでんがぞーせいされることとなる。	NO_LABEL
鶴崎新田村は、そのうちの備前国児島郡西畦村の枝村となる。	つるさきにったむらわ、そのうちのびぜんのくにこじまぐんにしうねむらのえだむらとなる。	NO_LABEL
現在の茶屋町町域の中で唯一の都宇郡・都窪郡域外となり、また備前国域となる。	NO_PRONOUNCE	NO_LABEL
明治3年11月、帯江沖新田村は帯江新田村に改称。	めいじさんねんじゅーいちがつ、おびえおきしんでんむらわおびえにったむらにかいしょー。	NO_LABEL
同22年には帯江新田・帯江新田両村の合併による江島村を経て、明治29年に町制を施行により茶屋町に改称。	NO_PRONOUNCE	NO_LABEL
また添新田は高須賀村編入を経て、豊洲村となる。	またそえしんでんわたかすかむらへんにゅーをへて、とよすむらとなる。	NO_LABEL
鶴崎新田村は、児島郡西畦村編入を経て興除村となる。	つるさきにったむらわ、こじまぐんにしうねむらへんにゅーをへてこうじょむらとなる。	NO_LABEL
昭和22年1月に興除村より旧鶴崎村域を、同26年3月に豊洲村の高須賀の内の旧添新田分を、それぞれ茶屋町へ移管、同町帯江新田の一部とした。	しょーわにじゅうにねんいちがつにこうじょむらよりきゅーつるさきむらいきを、どーにじゅうろくねんさんがつにとよすむらのたかすがのうちのきゅーそえしんでんぶんを、それぞれちゃやまちえいかん、どーちょーおびえしんでんのいちぶとした。	NO_LABEL
昭和47年5月1日の倉敷市への編入合併を期に、帯江新田から茶屋町へ改称した。	しょーわよんじゅうしちねんごがつついたちのくらしきしえのへんにゅーがっぺいをきに、おびえしんでんからちゃやまちえかいしょーした。	NO_LABEL
茶屋町地域の北西半を占める。	ちゃやまちちいきのほくせいはんをしめる。	NO_LABEL
倉敷編入以前の町制時代は早島新田と名乗った。	くらしきへんにゅーいぜんのちょーせいじだいわはやしましんでんとなのった。	NO_LABEL
それ以前は早島新田と宮崎割新田に分かれる。	それいぜんわはやしましんでんとみやざきわりしんでんにわかれる。	NO_LABEL
大部分は早島沖新田だった。	だいぶぶんわはやしまおきしんでんだった。	NO_LABEL
北西の南北に細長い区域が宮崎割新田で残りが早島沖新田である。	ほくせいのなんぼくにほそながいくいきがみやざきわりしんでんでのこりがはやしまおきしんでんである。	NO_LABEL
宮崎割新田は、宮崎村の枝村として宝永4年に開墾された。	みやざきわりしんでんわ、みやざきむらのえだむらとしてほーえいよんねんにかいこんされた。	NO_LABEL
早島沖新田は早島・宮崎割新田の南沖を干拓しできた沖新田の北側にあたり、早島知行所が領有した。	NO_PRONOUNCE	NO_LABEL
早島側の開発主は早島村庄屋の助左右衛門であった。	はやしまがわのかいはつぬしわはやしまむらしょーやのじょさゆーえもんであった。	NO_LABEL
明治3年11月に早島沖新田村は、早島新田村。	めいじさんねんじゅーいちがつにはやしまおきしんでんむらわ、はやしまにったむら。	NO_LABEL
また宮崎村枝村であった宮崎割新田村は宮崎村に併合された。	またみやざきむらえだむらであったみやざきわりにったむらわみやざきむらにへいごーされた。	NO_LABEL
同8年に宮崎村のうちの旧宮崎割新田分が早島新田に併合される。	どーはちねんにみやざきむらのうちのきゅーみやざきわりにったぶんがはやしましんでんにへいごーされる。	NO_LABEL
同22年の早島新田・帯江新田両村による江島村新設を経て、明治29年に町制で茶屋町となる。	NO_PRONOUNCE	NO_LABEL
昭和47年5月1日の倉敷市への編入合併を期に、早島新田から茶屋町早沖へ改称した。	しょーわよんじゅうしちねんごがつついたちのくらしきしえのへんにゅーがっぺいをきに、はやしましんでんからちゃやまちはやおきえかいしょーした。	NO_LABEL
旧地名の早島沖新田を略したものである。	きゅーちめいのはやしまおきしんでんをりゃくしたものである。	NO_LABEL
平成24年9月末現在。	へいせいにじゅうよんねんくがつまつげんざい。	NO_LABEL
JR西日本	じぇいあーるにしにほん	NO_LABEL
下電バス	しもでんばす	NO_LABEL
昭和22年4月の地方自治法施行以降の茶屋町町議会議長を記す。	しょーわにじゅうにねんしがつのちほーじちほーしこーいこーのちゃやまちちょーぎかいぎちょーをしるす。	NO_LABEL
