マヌエル・ヒメネスはスペイン・セビリア出身の元同国代表サッカー選手、サッカー指導者。	NO_PRONOUNCE	NO_LABEL
ポジションはDF。	ぽじしょんわでぃふぇんだー。	NO_LABEL
現在はギリシャ・スーパーリーグのAEKアテネFCの監督を務めている。	げんざいわぎりしゃすーぱーりーぐのあえくあてねのかんとくをつとめている。	NO_LABEL
マノロ・ヒメネスとも表記される。	NO_PRONOUNCE	NO_LABEL
選手時代はセビージャFCで長年プレーを続け、主に左サイドバックとして活躍した。	せんしゅじだいわせびーじゃふとぼるくるぶでながねんぷれーをつずけ、おもにひだりさいどばっくとしてかつやくした。	NO_LABEL
通算354試合出場は、クラブ歴代1位の記録である。	NO_PRONOUNCE	NO_LABEL
また、スペイン代表として1990年のワールドカップ・イタリア大会に参加する等、国際Aマッチ15試合に出場した。	NO_PRONOUNCE	NO_LABEL
引退後は指導者として2000年から2007年までセビージャのBチームでコーチを務める。	NO_PRONOUNCE	NO_LABEL
ホセ・アントニオ・レジェスやセルヒオ・ラモス、アントニオ・プエルタ、ヘスス・ナバスなどをトップチームに送り込んだ。	ほせあんとにおれじぇすやせるひおらもす、あんとにおぷえるた、へすすなばすなどをとっぷちーむにおくりこんだ。	NO_LABEL
2007年10月27日、ファンデ・ラモス監督のトッテナム・ホットスパーFC移籍に伴いセビージャFC監督に昇進した。	にせんななねんじゅーがつにじゅうしちにち、ふぁんでらもすかんとくのとってなむほっとすぱーふっとぼーるくらぶいせきにともないせびーじゃふとぼるくるぶかんとくにしょーしんした。	NO_LABEL
若手を積極的に起用する方針を貫いた。	わかてをせっきょくてきにきよーするほーしんをつらぬいた。	NO_LABEL
2010年3月23日、公式戦7試合勝ち無しなど成績不振により解任された。	にせんじゅうねんさんがつにじゅうさんにち、こーしきせんななしあいがちなしなどせいせきふしんによりかいにんされた。	NO_LABEL
2010年10月7日、シーズン開幕から5試合を終えて7位と低迷するギリシャ・スーパーリーグのAEKアテネFC監督に就任し、2010-11シーズンのギリシャ・カップを制したが、2011年10月に双方合意の上で契約を解除して退任した。	NO_PRONOUNCE	NO_LABEL
2011年12月末、解任されたハビエル・アギーレ監督の後任として、2011-12シーズン終了までの契約でレアル・サラゴサ監督に就任した。	NO_PRONOUNCE	NO_LABEL
