ロヴィ。	NO_PRONOUNCE	NO_LABEL
複写防護措置として、著作権で保護されたゲームソフト、映画、音楽などのコンテンツの複製を防ぐ技術を次々に開発し、これまでに世界の多くの企業でその技術が採用されている。	ふくしゃぼーごそちとして、ちょさくけんでほごされたげーむそふと、えいが、おんがくなどのこんてんつのふくせいをふせぐぎじゅつをつぎつぎにかいはつし、これまでにせかいのおーくのきぎょーでそのぎじゅつがさいよーされている。	NO_LABEL
日本では、市販DVDビデオソフトなどに施されている映像信号のコピーガードでその名が広く知られている。	にっぽんでわ、しはんでぃーぶいでぃーびでおそふとなどにほどこされているえいぞーしんごーのこぴーがーどでそのながひろくしられている。	NO_LABEL
なお、マクロヴィジョン方式のコピーガードを解除する行為は違法である。	NO_PRONOUNCE	NO_LABEL
