「スクランブル」は、堀江由衣がメインヴォーカルを歌った2004年の楽曲である。	NO_PRONOUNCE	NO_LABEL
UNSCANDALが楽曲提供だけでなく演奏とコーラスで参加した共作である。	あんすきゃんだるががっきょくていきょーだけでなくえんそーとこーらすでさんかしたきょうさくである。	NO_LABEL
2004年10月27日にスターチャイルドから、堀江由衣の5枚目のシングルとして発売された。	にせんよねんじゅーがつにじゅうしちにちにすたーちゃいるどから、ほりえゆいのごまいめのしんぐるとしてはつばいされた。	NO_LABEL
初回限定盤はデジパック仕様で、スクランブルのPVを収録したDVDが同梱されている。	しょかいげんていばんわでじぱっくしよーで、すくらんぶるのぴーぶいをしゅーろくしたでぃーぶいでぃーがどーこんされている。	NO_LABEL
英語表記はBが小文字で「SCRAMbLE」。	NO_PRONOUNCE	NO_LABEL
UNSCANDALによるセルフカバーが、2005年2月23日のセカンドアルバム『UNSCANDAL』に収録された。	NO_PRONOUNCE	NO_LABEL
