虚宿は二十八宿の一つで、北方玄武七宿の第四宿。	きょしゅくとみてぼしわにじゅーはっしゅくのひとつで、ほっぽーげんぶななやどのだいよんやど。	NO_LABEL
距星はみずがめ座β星。	NO_PRONOUNCE	NO_LABEL
主体となる星官としての虚はみずがめ座β、こうま座αの2つの星から構成される。	しゅたいとなるせいかんとしてのうろわみずがめざべーた、こーまざあるふぁのふたつのほしからこーせいされる。	NO_LABEL
虚宿には10の星官がある。	NO_PRONOUNCE	NO_LABEL
縁談・仏事・葬送が凶といわれる。	NO_PRONOUNCE	NO_LABEL
