南千住砂場は、東京都荒川区南千住一丁目にある嘉永期に創業のそば屋店舗。	みなみせんじゅすなばわ、とーきょーとあらかわくみなみせんじゅいっちょーめにあるかえいきにそーぎょーのそばやてんぽ。	NO_LABEL
江戸以来、東京の「砂場」は、ふたつの系統が伝えられてきた、そのうちのひとつの本家。	NO_PRONOUNCE	NO_LABEL
嘉永元年、江戸名物のひとつとまで評価された「糀町七丁目砂場藤吉」は、幕末維新当時の当主は十一代目・長岡保で、動乱の時代にも暖簾を守り続け「本石町砂場」と「琴平砂場」の、2軒の名店を輩出している。	NO_PRONOUNCE	NO_LABEL
「糀町七丁目砂場藤吉」は、「巴町砂場」とともに江戸時代から続く老舗で、江戸・東京を代表する「砂場」の暖簾である。	NO_PRONOUNCE	NO_LABEL
1889年、菩提寺である常仙寺で保管されていた過去帳が紛失、「糀町七丁目砂場藤吉」の店暦を物語る資料を散逸したため、現在に至るまで十四代を重ねたことは明らかだが、創業年は不明である。	NO_PRONOUNCE	NO_LABEL
江戸時代の「糀町七丁目砂場藤吉」の場所、麹町七丁目は現在の麹町四丁目で、嘉永期の切絵図によれば、麹町一帯はほとんど大名屋敷や旗本屋敷の武家地であった。	NO_PRONOUNCE	NO_LABEL
「久保町すなば」同様、容易にそば屋が開業できる場所ではなく、「糀町七丁目砂場藤吉」にも相当の後ろ盾がついていたのだろう。	NO_PRONOUNCE	NO_LABEL
1912年、十二代目・高岡紋治郎のとき、現在の荒川区南千住一丁目に移転した。	NO_PRONOUNCE	NO_LABEL
江戸時代の千住は江戸四宿のひとつの千住宿で、奥州、日光、水戸の三街道が通る東京の北の玄関口だった。	えどじだいのせんじゅわえどししゅくのひとつのせんじゅしゅくで、おーしゅー、にっこー、みとのさんかいどーがとーるとーきょーのきたのげんかんぐちだった。	NO_LABEL
「砂場」の名は、豊臣秀吉が大坂を築いたとき、大坂の和泉屋という菓子屋が、資材の砂置き場に蕎麦屋を開店し、「砂場」と呼ばれていたのに始まる。	NO_PRONOUNCE	NO_LABEL
徳川家康が江戸城を築くときは、江戸に進出し糀町に店を構えた。	とくがわいえやすがえどじょーをきずくときわ、えどにしんしゅつしこーじまちにみせをかまえた。	NO_LABEL
鉄道	てつどー	NO_LABEL
