山交タウンコーチ韮崎営業所は山梨県韮崎市栄にある山交タウンコーチの営業所である。	やまこうたうんこーちにらさきえいぎょーしょわやまなしけんにらさきしさかえにあるやまこうたうんこーちのえいぎょーしょである。	NO_LABEL
元々は山梨交通韮崎営業所であったが、2002年に全業務を山交タクシーへ移管とともに山交タウンコーチに名称変更し、現在の営業所名になった。	もともとわやまなしこうつーにらさきえいぎょーしょであったが、にせんにねんにぜんぎょーむをやまこーたくしーえいかんとともにやまこうたうんこーちにめいしょーへんこーし、げんざいのえいぎょーしょめいになった。	NO_LABEL
韮崎駅を基点に甲府駅方面や増富・仁田平方面、受託路線として白州方面へ向かうバスを運行している。	NO_PRONOUNCE	NO_LABEL
平成29年12月1日、営業所機能を韮崎市栄に移転し、管轄路線のダイヤ改正などが行われた。	へいせいにじゅうきゅうねんじゅーにがつついたち、えいぎょーしょきのーをにらさきしさかえにいてんし、かんかつろせんのだいやかいせいなどがおこなわれた。	NO_LABEL
平成30年1月19日、関係者向け見学会を催した。	へいせいさんじゅうねんいちがつじゅうきゅうにち、かんけいしゃむけけんがくかいをもよおした。	NO_LABEL
"PASMOなどの交通系共通ICカードを利用可能である。	NO_PRONOUNCE	NO_LABEL
"	NO_PRONOUNCE	NO_LABEL
以下の路線は韮崎市および北杜市から受託し運行している。	いかのろせんわにらさきしおよびほくとしからじゅたくしうんこーしている。	NO_LABEL
ICカードはPASMOなどの交通系ICカードを使用可能。	あいしーかーどわぱすもなどのこーつーけいあいしーかーどをしよーかのー。	NO_LABEL
