国際連合安全保障理事会決議1556は、2004年7月30日に国際連合安全保障理事会で採択されたスーダン・ダルフール情勢に関する決議。	NO_PRONOUNCE	NO_LABEL
略称はUNSCR1556。	NO_PRONOUNCE	NO_LABEL
国連安保理決議1556は、ダルフール情勢の解決を求める一連の決議のひとつで、スーダン政府に対し、2004年7月3日付で同国と国連事務総長との間に締結された、人道支援団体等が自由かつ安全に活動しうる空間、いわゆる「人道的空間」の確保を求める合同コミュニケの即時履行を要請するもの。	NO_PRONOUNCE	NO_LABEL
決議は賛成13：反対0：棄権2で採択された。	NO_PRONOUNCE	NO_LABEL
