独立行政法人農薬検査所はかつて存在した農林水産省所管の特定独立行政法人である。	どくりつぎょーせいほーじんのーやくけんさしょわかつてそんざいしたのーりんすいさんしょーしょかんのとくていどくりつぎょーせいほうじである。	NO_LABEL
2001年に発足。	にせんいちねんにほっそく。	NO_LABEL
2007年独立行政法人農林水産消費技術センター及び独立行政法人肥飼料検査所と統合し、独立行政法人農林水産消費安全技術センターの一部門に移行した。	にせんななねんどくりつぎょーせいほーじんのーりんすいさんしょーひぎじゅつせんたーおよびどくりつぎょーせいほーじんひしりょーけんさしょととーごーし、のーりんすいさんしょーひあんぜんぎじゅつせんたーのいちぶもんにいこーした。	NO_LABEL
かつて所在地近くのバス停名は「農薬検査場」であったが、当法人は農薬検査所であるので注意が必要。	NO_PRONOUNCE	NO_LABEL
