前田 利満1月24日 - 不詳）は、明治から昭和期の実業家、華族。	NO_PRONOUNCE	NO_LABEL
大聖寺前田家継嗣・前田利彭の子として生まれる。	NO_PRONOUNCE	NO_LABEL
1920年8月30日、祖父・利鬯の跡を継ぎ子爵を襲爵した。	NO_PRONOUNCE	NO_LABEL
学習院中等科を卒業後渡米し、ニューハンプシャー州エクセターのエクセター高等学校（）、ダートマス大学を卒業した。	がくしゅーいんちゅーとーかをそつぎょーごとべいし、にゅーはんぷしゃーしゅーえくせたーのえくせたーこーとーがっこーかっこ、だーとますをそつぎょーした。	NO_LABEL
1928年3月、一旦帰国するが同年6月メキシコへ渡り実業に従事した。	せんきゅうひゃくにじゅうはちねんさんがつ、いったんきこくするがどーねんろくがつめきしこえわたりじつぎょーにじゅーじした。	NO_LABEL
1933年3月5日、隠居して家督を養弟・利弘に譲った。	NO_PRONOUNCE	NO_LABEL
その後の動向は不明である。	そのごのどーこーわふめいである。	NO_LABEL
