『Hey! Say! JUMP LIVE TOUR 2015 JUMPing CARnival』は、Hey! Say! JUMPの9作目のライブ・ビデオ。	NO_PRONOUNCE	NO_LABEL
2016年2月10日にジェイ・ストームから発売。	にせんじゅうろくねんにがつとおかにじぇいすとーむからはつばい。	NO_LABEL
隠しトラックあり	かくしとらっくあり	NO_LABEL
ソロアングル	そろあんぐる	NO_LABEL
