令制国一覧 > 東海道 > 常陸国 > 新治郡	NO_PRONOUNCE	NO_LABEL
新治郡は、古代律令制下の常陸国に存在した郡。	にいはりぐんわ、こだいりつりょーせいかのひたちのくににそんざいしたぐん。	NO_LABEL
大化の改新以前は新治国と呼ばれ、律令制下で常陸国新治郡となる。	たいかのかいしんいぜんわしんちこくとよばれ、りつりょーせいかでひたちのくににいはりぐんとなる。	NO_LABEL
常陸国の西部にあって下野国、下総国と境界を接しており、後に白壁郡を分出。	ひたちのくにのせいぶにあってしもつけのくに、しもーさのくにときょーかいをせっしており、ごにしらかべぐんをぶんで。	NO_LABEL
平安時代の書『和名類聚抄』に爾比波里とみえ、『古事記』の倭建命の歌に邇比婆利とある。	NO_PRONOUNCE	NO_LABEL
2006年まで存続していた近世の茨城県新治郡とは呼称こそ同じであるが別。	にせんろくねんまでそんぞくしていたきんせいのいばらきけんにいはりぐんとわこしょーこそおなじであるがべつ。	NO_LABEL
『和名類聚抄』によれば、新治郡内には坂戸郷、竹嶋郷、沼田郷、伊讃郷、博多郷、巡廻郷、月郷、大幡郷、新治郷、下真郷、巨神郷、井田郷の13郷が存在した。	NO_PRONOUNCE	NO_LABEL
現在の茨城県笠間市、筑西市、桜川市が、その領域として比定される。	げんざいのいばらきけんかさまし、ちくせいし、さくらがわしが、そのりょーいきとしてひていされる。	NO_LABEL
『古事記』には、東征を遂げた倭建命が、帰路の甲斐で詠んだ歌の中に新治が登場する。	NO_PRONOUNCE	NO_LABEL
「新治　筑波を過ぎて幾夜か寝つる」と倭建命が問うと、これに対し件の一人が「日々並べて　夜には九夜　日には十日を」と答えた。	NO_PRONOUNCE	NO_LABEL
奈良時代の律令制下における新治郡の地方行政の中心的機関として、新治郡衙が存在した。	ならじだいのりつりょーせいかにおけるにいはりぐんのちほーぎょーせいのちゅーしんてききかんとして、しんじぐんががそんざいした。	NO_LABEL
1941年に始まった発掘調査によって、庁舎跡と倉庫跡計51棟を確認。	NO_PRONOUNCE	NO_LABEL
また、817年に常陸国新治郡の不動倉13棟と穀9,990石を焼失したという『日本後紀』の記事に符合する建物跡と多量の炭化した米も確認されている。	NO_PRONOUNCE	NO_LABEL
遺跡は1968年に、新治郡衙跡として国指定の史跡となっている。	NO_PRONOUNCE	NO_LABEL
新治郡衙と同じく奈良時代、新治郡に造られた寺院。	NO_PRONOUNCE	NO_LABEL
現在の筑西市久地楽及び古郡地内に存在した。	げんざいのちくせいしくじらおよびふるごおりじうちにそんざいした。	NO_LABEL
以前から４基の土壇跡と多くの古瓦の出土が知られていたが、1939年に始まった発掘調査で、金堂とその東西に配置された伽藍をもつことが明らかとなった。	いぜんからよんきのどだんあととおーくのこかわらのしゅつどがしられていたが、せんきゅうひゃくさんじゅうきゅうねんにはじまったはっくつちょーさで、こんどーとそのとーざいにはいちされたがらんをもつことがあきらかとなった。	NO_LABEL
出土した多くの古瓦の中には文字瓦も見られる。	しゅつどしたおーくのこかわらのなかにわもじかわらもみられる。	NO_LABEL
遺跡は1942年に、新治廃寺跡として国指定の史跡となっている。	いせきわせんきゅうひゃくよんじゅうにねんに、にーはるはいじあととしてくにしていのしせきとなっている。	NO_LABEL
新治郡をはじめとする7世紀末～8世紀初頭に成立した常陸国の郡は、律令制の動揺とともに在地の豪族など諸勢力による細分化、再編成が進んだ。	NO_PRONOUNCE	NO_LABEL
新治郡からはまず、小栗御厨が伊勢神宮領として分出。	にいはりぐんからわまず、おぐりみくりやがいせじんぐーりょーとしてわけで。	NO_LABEL
残った領域が東郡、中郡、西郡の三郡に分かれ、このうち西郡が更に北条、南条に二分された。	のこったりょーいきがとうぐん、なかぐん、にしごーりのさんぐんにわかれ、このうちにしごーりがさらにほーじょー、なんじょーににぶんされた。	NO_LABEL
西郡北条が伊佐郡、南条が関郡である。	にしごーりほーじょーがいさぐん、なんじょーがせきぐんである。	NO_LABEL
1594年に常陸国内で太閤検地が行われた際に再び新治郡が成立したが、これは古代の茨城郡、筑波郡、信太郡の領域のそれぞれ一部からなるものであり、古代の新治郡とは全く領域を異にする。	せんごひゃくきゅうじゅうよんねんにひたちこくないでたいこーけんちがおこなわれたさいにふたたびにいはりぐんがせいりつしたが、これわこだいのいばらきぐん、つくばぐん、しだぐんのりょーいきのそれぞれいちぶからなるものであり、こだいのにいはりぐんとわまったくりょーいきをことにする。	NO_LABEL
近世以降、近代を経て2006年に消滅した茨城県の新治郡は、これである。	きんせいいこー、きんだいをへてにせんろくねんにしょーめつしたいばらきけんのにいはりぐんわ、これである。	NO_LABEL
一方、古代の新治郡から分立した郡・荘のうち、東郡は茨城郡、関郡が河内郡、下妻荘の東部が筑波郡の一部となったほかは真壁郡の一部となった。	NO_PRONOUNCE	NO_LABEL
関郡から編成された河内郡も1702年に真壁郡に編入されている。	せきぐんからへんせいされたかだいぐんもせんななひゃくにねんにまかべぐんにへんにゅーされている。	NO_LABEL
