ワークショップとは、日本では「体験型講座」を指す用語。	NO_PRONOUNCE	NO_LABEL
ワークショップは、学びや創造、問題解決やトレーニングの手法である。	わーくしょっぷわ、まなびやそーぞー、もんだいかいけつやとれーにんぐのしゅほーである。	NO_LABEL
参加者が自発的に作業や発言をおこなえる環境が整った場において、ファシリテーターと呼ばれる司会進行役を中心に、参加者全員が体験するものとして運営される形態がポピュラーとなっている。	さんかしゃがじはつてきにさぎょーやはつげんをおこなえるかんきょーがととのったばにおいて、ふぁしりてーたーとよばれるしかいしんこーやくをちゅーしんに、さんかしゃぜんいんがたいけんするものとしてうんえいされるけいたいがぽぴゅらーとなっている。	NO_LABEL
会場は公共ホールや、スタジオ、美術館やカルチャースクール、ビルの1室、学校の教室を利用するなど様々。	NO_PRONOUNCE	NO_LABEL
"workshop"とは、本来「作業場」や「工房」を意味するが、現代においては参加者が経験や作業を披露したりディスカッションをしながら、スキルを伸ばす場の意味を持つようになっている。	NO_PRONOUNCE	NO_LABEL
具体的には、ものづくり講座、音楽ワークショップや演劇ワークショップのような身体表現における学習と作業参加の場や、各種体験セミナー、科学や技術教育、人権教育のような各種教育ワークショップのようなものがある。	ぐたいてきにわ、ものずくりこーざ、おんがくわーくしょっぷやえんげきわーくしょっぷのよーなしんたいひょーげんにおけるがくしゅーとさぎょーさんかのばや、かくしゅたいけんせみなー、かがくやぎじゅつきょーいく、じんけんきょーいくのよーなかくしゅきょーいくわーくしょっぷのよーなものがある。	NO_LABEL
ヨガや瞑想教室、陶芸教室などの身体で体験する教室や機会にも、この呼称は使われる場合がある。	よがやめいそーきょーしつ、とーげいきょーしつなどのしんたいでたいけんするきょーしつやきかいにも、このこしょーわつかわれるばあいがある。	NO_LABEL
体験型講座としての「ワークショップ」は、20世紀初頭の米ハーバード大学においてが担当していた戯曲創作の授業に起源をもつ。	NO_PRONOUNCE	NO_LABEL
まちづくり分野においては、地域にかかわるさまざまな立場の人々が自ら参加して、地域社会の課題を解決するための改善計画を立てたり、進めていく共同作業とその総称。	まちずくりぶんやにおいてわ、ちいきにかかわるさまざまなたちばのひとびとがみずからさんかして、ちーきしゃかいのかだいをかいけつするためのかいぜんけいかくをたてたり、すすめていくきょーどーさぎょーとそのそーしょー。	NO_LABEL
具体的には公園づくりや道づくり、公共施設の計画、団地やコーポラティブハウスなどの住まい計画、市町村の都心マスタープランの策定など多岐にわたる。	ぐたいてきにわこーえんずくりやみちずくり、こーきょーしせつのけいかく、だんちやこーぽらてぃぶはうすなどのすまいけいかく、しちょーそんのとしんますたーぷらんのさくていなどたきにわたる。	NO_LABEL
住民参加型の活動形態の一つ。	じゅーみんさんかがたのかつどーけいたいのひとつ。	NO_LABEL
企業研修や住民参加型まちづくりにおける合意形成の手法として、住民が中心になって地域の課題を解決しようとする場合に、ワークショップの手法がよく用いられる。	きぎょーけんしゅーやじゅーみんさんかがたまちずくりにおけるごーいけいせいのしゅほーとして、じゅーみんがちゅーしんになってちいきのかだいをかいけつしようとするばあいに、わーくしょっぷのしゅほーがよくもちいられる。	NO_LABEL
まちづくりにおいて、地域にかかわるさまざまな立場の人々が自ら参加して、地域社会の課題を解決するための改善計画を立てたり、進めていく共同作業とその総称として近年用いられていった。	まちずくりにおいて、ちいきにかかわるさまざまなたちばのひとびとがみずからさんかして、ちーきしゃかいのかだいをかいけつするためのかいぜんけいかくをたてたり、すすめていくきょーどーさぎょーとそのそーしょーとしてきんねんもちいられていった。	NO_LABEL
公園づくりや道づくり、公共施設の計画、団地やコーポラティブハウスなどの住まい計画、市町村の都市マスタープランの策定など多岐にわたる。	こーえんずくりやみちずくり、こーきょーしせつのけいかく、だんちやこーぽらてぃぶはうすなどのすまいけいかく、しちょーそんのとしますたーぷらんのさくていなどたきにわたる。	NO_LABEL
住民参加型の活動形態の一つとして位置づけられる。	じゅーみんさんかがたのかつどーけいたいのひとつとしていちずけられる。	NO_LABEL
主に都市計画やまちづくりの分野でワークショップが取り入れられるようになったのは、1960年代に環境デザイナー、ランドスケープアーキテクトであるローレンス・ハルプリンが、夫人のダンスワークを参考に、テイクパート・プロセスとしてワークショップを用いたことがはじまりである。	NO_PRONOUNCE	NO_LABEL
日本においては、1979年に日本に紹介され、宇都宮大学の藤本信義、千葉大学の木下勇らのグループが取り入れたことで日本のまちづくりにおける技法として開発されるようになった。	にっぽんにおいてわ、せんきゅうひゃくななじゅうきゅうねんににっぽんにしょーかいされ、うつのみやだいがくのふじもとのぶよし、ちばだいがくのきのしたいさみらのぐるーぷがとりいれたことでにっぽんのまちずくりにおけるぎほーとしてかいはつされるよーになった。	NO_LABEL
なお、ワークショップをまちづくりにおいて活用された事例は東京都世田谷区が取り入れたのが初見である。	なお、わーくしょっぷをまちずくりにおいてかつよーされたじれいわとーきょーとせたがやくがとりいれたのがはつみである。	NO_LABEL
同区におけるワークショップは住民主体の勉強会に起因している。	どーくにおけるわーくしょっぷわじゅーみんしゅたいのべんきょーかいにきいんしている。	NO_LABEL
1970年代後半に世田谷区の太子堂地区においてマンション紛争が起こり、世田谷区の主催で区民向けのまちづくり懇談会が開かれることとなった。	せんきゅうひゃくななじゅうねんだいこーはんにせたがやくのたいしどーちくにおいてまんしょんふんそーがおこり、せたがやくのしゅさいでくみんむけのまちずくりこんだんかいがひらかれることとなった。	NO_LABEL
懇談会では区民から紛争をめぐる世田谷区の施策を批判が相次いだが、懇談会設置後、1年を経て懇談会に参加した区民の中に「批判だけでは問題解決しない」「行政と対等に話し合うには住民側にもそれなりの専門知識が必要」であるという意識が広がり、1982年に懇談会メンバーの住民を中心としたまちづくり協議会設立準備会が創設され、住民主体のまちづくりの実現を目指した地域住民組織づくりに向けた活動が開始されるようになった。	NO_PRONOUNCE	NO_LABEL
このまちづくり協議会準備会が行政との対話の推進を目指す中で行ったのが、「まち歩き」「まち点検」などの活動や勉強会の開催であり、その活動が次第にプログラム化されていく中で、まちづくりワークショップとして定着するようになった。	NO_PRONOUNCE	NO_LABEL
その具体例が地域の公園づくりを目的としたワークショップで、後にパークショップの造語を以って称されることとなった。	NO_PRONOUNCE	NO_LABEL
次第に世田谷区太子堂地区ではまちづくりワークショップの対象範囲を拡げ、「老後の住み続けられるまちづくり」、「ゴミゼロ社会を目指すまちづくり」、「地域に開かれた消防署づくり」をテーマにワークショップが開かれ、実際に区民管理による公園づくりを実現させた他、東京消防庁の消防署建設に意見が反映されるなどの実績を挙げた。	NO_PRONOUNCE	NO_LABEL
これが、全国においても住民参加の先駆けとして専門家などから注目されるようになった。	これが、ぜんこくにおいてもじゅーみんさんかのさきがけとしてせんもんかなどからちゅーもくされるよーになった。	NO_LABEL
まちづくりワークショップは、川喜田二郎の開発したKJ法の手法を取り入れることで、さらに住民の合意形成技術としての性格を強め、今日ではまちづくりにおける合意形成技法として注目されている。	まちずくりわーくしょっぷわ、かわきたじろーのかいはつしたけーじぇーほーのしゅほーをとりいれることで、さらにじゅーみんのごーいけいせいぎじゅつとしてのせいかくをつよめ、きょーでわまちずくりにおけるごーいけいせいぎほーとしてちゅーもくされている。	NO_LABEL
近年は、模型を用いたまちづくりデザインゲームというワークショップ手法が多用されるようになりつつある。	きんねんわ、もけいをもちいたまちずくりでざいんげーむとゆうわーくしょっぷしゅほーがたよーされるよーになりつつある。	NO_LABEL
まちづくりデザインゲームとは、ワークショップのような集会において、参加者が意見やアイデアを話し合い、実際に設計やデザインに参加する際、具体的な空間計画等を行う際に、空間イメージのシミュレーションをし、目標のイメージを関係者で共有するための手法で、新しい公園を計画する際などに用いられる。	まちずくりでざいんげーむとわ、わーくしょっぷのよーなしゅーかいにおいて、さんかしゃがいけんやあいであをはなしあい、じっさいにせっけいやでざいんにさんかするさい、ぐたいてきなくーかんけいかくとーをおこなうさいに、くーかんいめーじのしみゅれーしょんをし、もくひょーのいめーじをかんけいしゃできょーゆーするためのしゅほーで、あたらしいこーえんをけいかくするさいなどにもちいられる。	NO_LABEL
また将来の町の姿をシミュレートする「ライフデザインゲーム」や町の更新をシミュレートする「建替えデザインゲーム」などもある。	NO_PRONOUNCE	NO_LABEL
ワークショップの効果として期待されているものとして、参加者同士の体験共有、意見表出、創造表現、意見集約その他のコミュニケーションを深めること等がある。	わーくしょっぷのこーかとしてきたいされているものとして、さんかしゃどーしのたいけんきょーゆー、いけんひょーしゅつ、そーぞーひょーげん、いけんしゅーやくそのたのこみゅにけーしょんをふかめることとーがある。	NO_LABEL
地方自治の分野では市民間の合意形成のスタイルとしても注目されている。	ちほーじちのぶんやでわしみんかんのごーいけいせいのすたいるとしてもちゅーもくされている。	NO_LABEL
まちづくりワークショップにおいては、過程が重要とされる。	まちずくりわーくしょっぷにおいてわ、かていがじゅーよーとされる。	NO_LABEL
特に地域住民の声は多様であり多声的である。	とくにちーきじゅーみんのこえわたよーでありたこえてきである。	NO_LABEL
よって、住民が漠然と集まって話合いを重ねても、中々進展がないため、実際のまちづくりワークショップの現場ではコンサルタント業の人物がファシリテーターとして関わって課題を整理したり、助言が行われることが多い。	よって、じゅーみんがばくぜんとあつまってはなしあいをかさねても、なかなかしんてんがないため、じっさいのまちずくりわーくしょっぷのげんばでわこんさるたんとぎょーのじんぶつがふぁしりてーたーとしてかかわってかだいをせいりしたり、じょげんがおこなわれることがおーい。	NO_LABEL
しかし、コンサルタント業の人物がファシリテーターとして関わることには賛否がある。	しかし、こんさるたんとぎょーのじんぶつがふぁしりてーたーとしてかかわることにわさんぴがある。	NO_LABEL
まちづくりワークショップの性格は、「自由討議」「公開性」を原則とした議論の場であるが、参加者の総意が「住民の総意」とは限らない。	NO_PRONOUNCE	NO_LABEL
このため、ワークショップの成果を広報誌などにまとめて参加者以外にも内容を知ってもらう、意見募集をする、などの工夫も必要になる。	このため、わーくしょっぷのせいかをこーほーしなどにまとめてさんかしゃいがいにもないよーをしってもらう、いけんぼしゅーをする、などのくふーもひつよーになる。	NO_LABEL
防災まちづくりの事例では、カリキュラムにフィールドワークの一環として、災害図上訓練を取り入れたワークショップが開かれることが多い。	ぼーさいまちずくりのじれいでわ、かりきゅらむにふぃーるどわーくのいっかんとして、さいがいずじょーくんれんをとりいれたわーくしょっぷがひらかれることがおーい。	NO_LABEL
