サン・マルティーノ・アルフィエーリ。	さんまるてぃーのあるふぃえーり。	NO_LABEL
隣接するコムーネは以下の通り。	りんせつするこむーねわいかのとーり。	NO_LABEL
括弧内のCNはクーネオ県所属を示す。	かっこないのしーえぬわくーねおけんしょぞくをしめす。	NO_LABEL
サン・マルティーノ・アルフィエーリには、以下の分離集落がある。	さんまるてぃーのあるふぃえーりにわ、いかのぶんりしゅーらくがある。	NO_LABEL
Fagnani, Firano, Garibaldi, Marelli, Quaglia, Saracchi	NO_PRONOUNCE	NO_LABEL
