ウェンディ は、任天堂のコンピュータゲームソフト『マリオシリーズ』に登場する架空のキャラクター。	NO_PRONOUNCE	NO_LABEL
コクッパ7人衆の紅一点。	こくっぱしちにんしゅーのこーいってん。	NO_LABEL
公式イラストでの甲羅の色はピンクだが、初期作品のゲーム中ドット絵では赤に近い。	こーしきいらすとでのこーらのいろわぴんくだが、しょきさくひんのげーむちゅーどっとえでわあかにちかい。	NO_LABEL
女の子らしく、ピンクに白の水玉模様の大きなリボンや、金のブレスレットを腕につけており、ピンクのハイヒールを履いている。	おんなのこらしく、ぴんくにしろのみずたまもよーのおーきなりぼんや、きんのぶれすれっとをうでにつけており、ぴんくのはいひーるをはいている。	NO_LABEL
しかし、顔の造形はクッパ似である。	しかし、かおのぞーけいわくっぱにである。	NO_LABEL
ゲーム中では武器として複数のリングを投げて使用することが多い。	げーむちゅーでわぶきとしてふくすーのりんぐをなげてしよーすることがおーい。	NO_LABEL
また、分身や水を使った攻撃を行うこともある。	また、ぶんしんやみずをつかったこーげきをおこなうこともある。	NO_LABEL
『スーパーマリオブラザーズ3』の説明書や『スーパーマリオアドバンス4』のカードe+のセリフでは、一人称は「アタイ」となっており、やや強気な姉御口調で喋っている。	NO_PRONOUNCE	NO_LABEL
『大乱闘スマッシュブラザーズ for Nintendo 3DS』のフィギュアの説明文では、おてんばで勝ち気、わがままな性格で、ピーチやデイジーをライバル視しているとされる。	NO_PRONOUNCE	NO_LABEL
『マリオ&ルイージRPG ペーパーマリオMIX』以降の一人称は「アタシ」で、強気で偉そうな女の子といった口調となっている。	NO_PRONOUNCE	NO_LABEL
ロイとコンビを組むことが多い。	ろいとこんびをくむことがおーい。	NO_LABEL
名前の由来はプラズマティックスのボーカルのとされている。	なまえのゆらいわぷらずまてぃっくすのぼーかるのとされている。	NO_LABEL
ゲームでの声優は、『New スーパーマリオブラザーズ Wii』以降はが担当、『マリオカート8』ではアシュリー・フラナガンが担当。	NO_PRONOUNCE	NO_LABEL
