村松山虚空蔵堂は茨城県那珂郡東海村にある真言宗豊山派の寺院。	むらまつさんこくうぞうどーわいばらきけんなかぐんとーかいむらにあるしんごんしゅーぶざんはのじいん。	NO_LABEL
寺号は日高寺。	じごーわにっこうじ。	NO_LABEL
本尊は空海作の伝承をもつ虚空蔵菩薩である。	ほんぞんわくーかいさくのでんしょーをもつこくーぞーぼさつである。	NO_LABEL
三重県伊勢市の伊勢朝熊山金剛證寺及び福島県河沼郡柳津町の圓蔵寺とともに日本三大虚空蔵堂の一つとされる。	みえけんいせしのいせあさまやまこんごーしょうじおよびふくしまけんかわぬまぐんやないずちょーのえんぞーじとともににっぽんさんだいこくーくらどーのひとつとされる。	NO_LABEL
地元では村松山の虚空蔵さんと呼ばれ親しまれているほか、茨城県北部や栃木県下では虚空蔵さんと言えば概して当寺を指す。	じもとではむらまつやまのこくぞーさんとよばれしたしまれているほか、いばらきけんほくぶやとちぎけんかでわこくぞーさんといえばがいしてとーてらをさす。	NO_LABEL
縁起等によれば大同2年に空海によって創建されたとされる。	えんぎとーによればだいどーにねんにくーかいによってそーけんされたとされる。	NO_LABEL
空海が真言密教を日本全土に広めるために各地を巡化した際に、この地で海の彼方に光る物ありとの話を聞き、それを引き上げさせたところ大きな老木であったので、それを等身大の虚空蔵菩薩像に刻みこの地に安置したのが始まりとの伝説がある。	くーかいがしんごんみっこーをにっぽんぜんどにひろめるためにかくちをじゅんかしたさいに、このちでうみのかなたにひかるものありとのはなしをきき、それをひきあげさせたところおーきなろーぼくであったので、それをとーしんだいのこくーぞーぼさつぞーにきざみこのちにあんちしたのがはじまりとのでんせつがある。	NO_LABEL
円仁の開基とする縁起もあるが、文献の多くが失われていて定かではない。	えんにんのかいきとするえんぎもあるが、ぶんけんのおーくがうしなわれていてさだかでわない。	NO_LABEL
創建の際、平城天皇から「村松山神宮寺」の勅額を賜わった。	NO_PRONOUNCE	NO_LABEL
鎌倉時代末期から安土桃山時代にかけて常陸国を治めた佐竹氏の庇護を受け隆盛を極めたが、文明17年、戦火により勅額も含め焼失している。	かまくらじだいまっきからあずちももやまじだいにかけてひたちのくにをおさめたさたけしのひごをうけりゅーせいをきわめたが、ぶんめいじゅうななねん、せんかによりちょくがくもふくめしょーしつしている。	NO_LABEL
その後、長享元年に白頭上人により再建され、名称を「村松山神宮寺」から「村松山日高寺」に改められた。	NO_PRONOUNCE	NO_LABEL
江戸時代にはいり、徳川家康から朱印50石を寄進された。	NO_PRONOUNCE	NO_LABEL
水戸藩2代藩主・徳川光圀は寺を竜蔵院、竜光院の二院に分け、宗派を修験道に改め、虚空蔵菩薩を修飾しその台座に「日域三虚空蔵之一而霊応日新」と刻んだ。	NO_PRONOUNCE	NO_LABEL
明治3年の廃仏毀釈より「星の宮」と改称されたが、翌明治4年には「虚空蔵」と称することが許可され再び「真言宗日高寺」となった。	NO_PRONOUNCE	NO_LABEL
明治33年、近隣の民家の火災から仁王門、本堂、三重塔、鐘楼等の堂塔伽藍すべてが類焼するが本尊は焼失を免れた。	めいじさんじゅうさんねん、きんりんのみんかのかさいからにおーもん、ほんどー、さんじゅうのとー、しゅろーとーのどーとーがらんすべてがるいしょーするがほんぞんわしょーしつをまぬかれた。	NO_LABEL
その後、順次堂塔伽藍が再建され現在に至っている。	そのご、じゅんじどーとーがらんがさいけんされげんざいにいたっている。	NO_LABEL
明治33年に堂塔伽藍すべてが消失しており、現在の建造物はすべて近代になって再建されたものである。	めいじさんじゅうさんねんにどーとーがらんすべてがしょーしつしており、げんざいのけんぞーぶつわすべてきんだいになってさいけんされたものである。	NO_LABEL
の建立	のこんりゅー	NO_LABEL
など	など	NO_LABEL
