字光式ナンバーとは、自動車のライトをつけたときにナンバープレートの文字部分が光るものである。	じこーしきなんばーとわ、じどーしゃのらいとをつけたときになんばーぷれーとのもじぶぶんがひかるものである。	NO_LABEL
俗に「光るナンバープレート」「電光ナンバー」などとも呼ばれる。	NO_PRONOUNCE	NO_LABEL
なお自ら光ることから連想し「自光式ナンバー」と表記される場合があるが、誤記である。	NO_PRONOUNCE	NO_LABEL
字光式ナンバーの導入の背景には、雪国においてナンバープレートが雪で見えなくなってしまうという問題があった。	じこーしきなんばーのどーにゅーのはいけいにわ、ゆきぐににおいてなんばーぷれーとがゆきでみえなくなってしまうとゆうもんだいがあった。	NO_LABEL
そのため釧路の北洋無線が開発した、行灯式のナンバーにすることによって付着した雪を熱で溶かすという考えがあり、1970年に北海道で初めて字光式ナンバーが導入された。	そのためくしろのほくよーむせんがかいはつした、あんどんしきのなんばーにすることによってふちゃくしたゆきをねつでとかすとゆうかんがえがあり、せんきゅうひゃくななじゅうねんにほっかいどーではじめてじこーしきなんばーがどーにゅーされた。	NO_LABEL
他にも「吹雪のときでもナンバーがよく見えるようにするため導入した」「夜間の交通事故の被害者が字光式ナンバーを考案した」などの諸説がある。	NO_PRONOUNCE	NO_LABEL
「塗装式」または「ペイント式」と呼ばれる字光式でない通常のナンバーでは、塗装式のナンバーには車体後部のナンバープレートを照らすための番号灯があり、車幅灯に連動して点灯し、ナンバープレートが照らされるのに対し、字光式ナンバー専用の照明器具が同様に点灯する。	NO_PRONOUNCE	NO_LABEL
字光式ナンバーは「プレートから文字を切り抜いて樹脂を流し込む」関係上、塗装式ナンバーより文字が浮き出している。	NO_PRONOUNCE	NO_LABEL
バブル期のハイソカーブームや四駆ブームの分類番号2桁時代は若年層を中心として相応の払い出しがあったが、分類番号3桁化後は「希望番号+字光式」にするユーザーが増え、「一連指定番号+字光式」の払い出しはかなり減った。	NO_PRONOUNCE	NO_LABEL
これらの経緯から「古臭い」「趣味が悪い」として嫌う者がいる一方で、車両前部のナンバーの被視認性が重視されることのある個人タクシーや中小運送会社のトラックなど、積極的に採用する者もいる。	NO_PRONOUNCE	NO_LABEL
今日においてはもっぱら「自動車ファッション」としての一部といえる。	NO_PRONOUNCE	NO_LABEL
また、照明器具が車体後部に取り付けられないとして字光式ナンバープレートを装着できないとする車両もある。	また、しょーめいきぐがしゃたいこーぶにとりつけられないとしてじこーしきなんばーぷれーとをそーちゃくできないとするしゃりょーもある。	NO_LABEL
これら車両は、仕様として取り付けに制限がある、字光式ナンバーを装着できない旨がカタログなどに記載される。	これらしゃりょーわ、しよーとしてとりつけにせいげんがある、じこーしきなんばーをそーちゃくできないむねがかたろぐなどにきさいされる。	NO_LABEL
一部の高級車や輸入車などでは、球切れ警告機能の関係で取り付け不可とされる物もある。	いちぶのこーきゅーしゃやゆにゅーしゃなどでわ、たまぎれけいこくきのーのかんけいでとりつけふかとされるものもある。	NO_LABEL
これらの場合でも、字光式照明器具を取り付けられるよう車体や電気配線を改造することで字光式ナンバーの交付を受けることはできる。	これらのばあいでも、じこーしきしょーめいきぐをとりつけられるよーしゃたいやでんきはいせんをかいぞーすることでじこーしきなんばーのこーふをうけることわできる。	NO_LABEL
また、軽自動車ユーザーの希望により、2002年9月2日から一部の地区で軽自動車の字光式が先行して払い出しが開始され、その他の地区は2002年11月1日から払い出された。	また、けいじどーしゃゆーざーのきぼーにより、にせんにねんくがつふつかからいちぶのちくでけいじどーしゃのじこーしきがせんこーしてはらいだしがかいしされ、そのたのちくわにせんにねんじゅーいちがつついたちからはらいだされた。	NO_LABEL
軽自動車の場合ナンバーの文字色が黒で、文字自体を光らせることはできないので、プレートの文字が切り抜かれて、そこに流し込まれた透明な樹脂が輪郭を残して黒色に塗装され、後光を持たせる構造になっている。	けいじどーしゃのばあいなんばーのもじしょくがくろで、もじじたいをひからせることわできないので、ぷれーとのもじがきりぬかれて、そこにながしこまれたとーめいなじゅしがりんかくをのこしてこくしょくにとそーされ、ごこーをもたせるこーぞーになっている。	NO_LABEL
軽自動車の字光式ナンバーは登録車に比べて手間がかかる上、払い出し枚数が少ないため、ナンバープレート代そのものも塗装式に比べて高額である。	けいじどーしゃのじこーしきなんばーわとーろくしゃにくらべててまがかかるうえ、はらいだしまいすーがすくないため、なんばーぷれーとだいそのものもとそーしきにくらべてこーがくである。	NO_LABEL
二輪車や360ccの軽自動車などの小型番号標の字光式は存在しない。	NO_PRONOUNCE	NO_LABEL
かつて白熱球だった光源のLED化、EL化が進んでいるが、その場合は光源からの発熱が少ないため、従来期待されていた「付着した雪を溶かす」性能はほとんど期待できない。	NO_PRONOUNCE	NO_LABEL
