パパベリンとは血管拡張・鎮痙剤のひとつ。	NO_PRONOUNCE	NO_LABEL
ケシ属の植物に含まれるイソキノリン系のアルカロイド。	けしぞくのしょくぶつにふくまれるいそきのりんけいのあるかろいど。	NO_LABEL
オピオイド作動性はない。	おぴおいどさどーせいわない。	NO_LABEL
消化管平滑筋を弛緩させることにより、過度の消化管の緊張による腹痛を緩解させる。	しょーかかんへいかつきんをしかんさせることにより、かどのしょーかかんのきんちょーによるはらいたをかんかいさせる。	NO_LABEL
パパベリンは消化管平滑筋だけでなく全ての平滑筋を弛緩させるため、血栓症の治療にも使用される。	ぱぱべりんわしょーかかんへいかつすじだけでなくすべてのへいかつきんをしかんさせるため、けっせんしょーのちりょーにもしよーされる。	NO_LABEL
副作用として多汗症や肺炎などが報告され、特に健康食品として食されるの大量摂取による肺炎では、その主要因として考えられているが、国立医薬品食品衛生研究所等で検査したところ検出されていない。	ふくさよーとしてたかんしょーやはいえんなどがほーこくされ、とくにけんこーしょくひんとしてしょくされるのたいりょーせっしゅによるはいえんでわ、そのしゅよーいんとしてかんがえられているが、こくりついやくひんしょくひんえいせいけんきゅうしょとーでけんさしたところけんしゅつされていない。	NO_LABEL
1962年、ドイツのHaansらはパパベリン合成中にベラパミルを発見し、血管平滑筋を弛緩させる作用がパパベリンよりも強いことを見いだした。	NO_PRONOUNCE	NO_LABEL
翌年、冠拡張剤・抗狭心症剤として発売。	NO_PRONOUNCE	NO_LABEL
日本では1965年に虚血性心疾患治療剤として発売された。	にっぽんでわせんきゅうひゃくろくじゅうごねんにきょけつせいしんしっかんちりょーざいとしてはつばいされた。	NO_LABEL
