香川 茂は、日本の児童文学作家、教育評論家。	かがわしげるわ、にっぽんのじどーぶんがくさっか、きょーいくひょーろんか。	NO_LABEL
香川県出身。	かがわけんしゅっしん。	NO_LABEL
日本大学中退後、香川師範学校卒。	にほんだいがくちゅーたいご、かがわしはんがっこーそつ。	NO_LABEL
戦後上京し、埼玉県で中学校教諭を務め、1980年に退職。	せんごじょーきょーし、さいたまけんでちゅーがっこーきょーゆをつとめ、せんきゅうひゃくはちじゅうねんにたいしょく。	NO_LABEL
その間作家として活動、1967年「セトロの海」で野間児童文芸賞、1980年「高空10000mのかなたで」で小学館文学賞受賞。	NO_PRONOUNCE	NO_LABEL
「中学生文学」を創刊し、編集長を務めて文学教育にも取り組んだ。	NO_PRONOUNCE	NO_LABEL
西沢正太郎とは埼玉在住時代からの親友だった。	にしざわしょうたろーとわさいたまざいじゅーじだいからのしんゆーだった。	NO_LABEL
