のとじま臨海公園水族館は、石川県七尾市の能登島北岸にある水族館である。	のとじまりんかいこーえんすいぞくかんわ、いしかわけんななおしののとじまほくがんにあるすいぞくかんである。	NO_LABEL
石川県唯一の水族館であり、のとじま臨海公園の中核施設である。	いしかわけんゆいいつのすいぞくかんであり、のとじまりんかいこーえんのちゅーかくしせつである。	NO_LABEL
500種、約40,000匹の能登半島近海の魚介類を中心に展示している。	NO_PRONOUNCE	NO_LABEL
カマイルカ・フンボルトペンギンが泳ぐトンネル水槽は当水族館の見所であり、国内最大級である。	NO_PRONOUNCE	NO_LABEL
「海の自然生態館」ではジャイアントケルプの大水槽を始め、ゴマフアザラシやコツメカワウソの水槽も設置されている。	NO_PRONOUNCE	NO_LABEL
2009年8月、パノラマ大水槽の整備が開始。	にせんきゅうねんはちがつ、ぱのらまだいすいそーのせいびがかいし。	NO_LABEL
水槽は八角柱型で最長対角距離20m、水深6m、水量1,600トンであり、日本海側最大規模である。	NO_PRONOUNCE	NO_LABEL
2010年8月20日にはパノラマ大水槽にて「ジンベエザメ館 青の世界」がオープンし、国内の水族館では4番目となるジンベエザメの飼育・展示が開始された。	NO_PRONOUNCE	NO_LABEL
2013年の冬には、水槽の前に「こたつ」を設置し、ゆっくりと鑑賞する様に工夫した。	NO_PRONOUNCE	NO_LABEL
券売所は今まで本館にあったが、2010年8月20日にパノラマ大水槽の場所に移転した。	けんばいしょわいままでほんかんにあったが、にせんじゅうねんはちがつはつかにぱのらまだいすいそーのばしょにいてんした。	NO_LABEL
パノラマ大水槽	ぱのらまだいすいそー	NO_LABEL
本館	ほんかん	NO_LABEL
イルカたちの楽園	いるかたちのらくえん	NO_LABEL
海の自然生態館	うみのしぜんせいたいかん	NO_LABEL
