武蔵野市立第三小学校は、東京都武蔵野市吉祥寺南町にある公立小学校。	むさしのしりつだいさんしょうがっこーわ、とーきょーとむさしのしきちじょーじみなみちょーにあるこーりつしょーがっこー。	NO_LABEL
1930年設立。	せんきゅうひゃくさんじゅうねんせつりつ。	NO_LABEL
本校教育理念は「松のようにたくましく 桜のようにうつくしく こぶしのように清らかに」。	NO_PRONOUNCE	NO_LABEL
教育目標は「よく学び考える子ども/思いやりのある子ども/明るく元気な子ども/進んではたらく子ども」。	NO_PRONOUNCE	NO_LABEL
本校吹奏楽団は1983年に誕生し、以後20年以上にわたり活動している。	ほんこーすいそーがくだんわせんきゅうひゃくはちじゅうさんねんにたんじょーし、いごにじゅうねんいじょーにわたりかつどーしている。	NO_LABEL
メンバーは4年生から6年生までの70人前後で構成されている。	めんばーわよんねんせいからろくねんせいまでのななじゅうにんぜんごでこーせいされている。	NO_LABEL
こども音楽コンクールなど各種大会の出場経験も豊富で、受賞歴も多い。	こどもおんがくこんくーるなどかくしゅたいかいのしゅつじょーけいけんもほーふで、じゅしょーれきもおーい。	NO_LABEL
また、校内や武蔵野市内の各種イベントにも出演している。	また、こーないやむさしのしないのかくしゅいべんとにもしゅつえんしている。	NO_LABEL
