絶壁〜山岳警備隊、疾走る〜は、2004年にNHKデジタル衛星ハイビジョンで放送された杉本哲太主演のテレビドラマである。	NO_PRONOUNCE	NO_LABEL
同年10月2日に富山県のみで放送された後、11月6日に全国放送された。	どーねんじゅーがつふつかにとやまけんのみでほーそーされたのち、じゅーいちがつむいかにぜんこくほーそーされた。	NO_LABEL
北アルプス・立山連峰を舞台に、妻の連れ子との関係に悩む山岳警備隊の小隊長と娘との不和からわが子を疎ましく思ってしまう母親との交流を描く。	NO_PRONOUNCE	NO_LABEL
この作品では、多賀谷治・稲葉英樹・佐伯岩雄など立山ガイド協会会員や上市峰窓会などがエキストラ出演した。	NO_PRONOUNCE	NO_LABEL
富山県警が協力した。	とやまけんけいがきょーりょくした。	NO_LABEL
