ドサ回りとは、芸能人などが地方を巡業すること。	どさまわりとわ、げいのーじんなどがちほーをじゅんぎょーすること。	NO_LABEL
「地方巡業」や、近年では「営業」と呼ばれる行為もほぼ同義である。	NO_PRONOUNCE	NO_LABEL
表舞台で華々しく活躍する一線級の芸能人ではなく、二線級以下の人々の活動を示すことが多い。	おもてぶたいではなばなしくかつやくするいっせんきゅーのげいのーじんでわなく、にせんきゅーいかのひとびとのかつどーをしめすことがおーい。	NO_LABEL
転じて、左遷や転勤などで地方の営業所や子会社に赴任する勤め人をも指す言葉となった。	てんじて、させんやてんきんなどでちほーのえいぎょーしょやこがいしゃにふにんするつとめにんをもさすことばとなった。	NO_LABEL
ドサとは佐渡を逆から読んだ言葉で、一度巡業に出るとなかなか戻れなかったことから、流刑地であった佐渡ヶ島になぞらえて使用された隠語である。	どさとわさどをぎゃくからよんだことばで、いちどじゅんぎょーにでるとなかなかもどれなかったことから、るけいちであったさどがしまになぞらえてしよーされたいんごである。	NO_LABEL
これ以外にも、粗末な小屋に振り込む土砂降りの雨のことという説、土の上に座って演じることが語源とするなどの異説もある。	これいがいにも、そまつなこやにふりこむどしゃぶりのあめのこととゆうせつ、どのうえにすわってえんじることがごげんとするなどのいせつもある。	NO_LABEL
地方を巡る活動であるため、地方を拠点として活動を行う者は対象とならない。	ちほーをめぐるかつどーであるため、ちほーをきょてんとしてかつどーをおこなうものわたいしょーとならない。	NO_LABEL
売れない芸人や歌手が行う地方での営業活動。	うれないげいにんやかしゅがおこなうちほーでのえいぎょーかつどー。	NO_LABEL
生活の糧を得ると共に、知名度を着実に上げる下積み活動の意味を持つ。	せいかつのかてをえるとともに、ちめいどをちゃくじつにあげるしたずみかつどーのいみをもつ。	NO_LABEL
ドサ回りを行う者は、無名はもちろんのこと、一世を風靡し没落した者まで多種多様。	どさまわりをおこなうものわ、むめいわもちろんのこと、いっせいをふーびしぼつらくしたものまでたしゅたよー。	NO_LABEL
ドサ回りの結果、表舞台へ駆け上がったり、復帰する例は枚挙にいとまがない。	どさまわりのけっか、おもてぶたいえかけあがったり、ふっきするれいわまいきょにいとまがない。	NO_LABEL
このためドサ回りの人間模様は、小説や舞台の題材となることも多い。	このためどさまわりのにんげんもよーわ、しょーせつやぶたいのだいざいとなることもおーい。	NO_LABEL
今では芸能でなく性風俗の枠で捉えられがちなストリップも、香盤の用語が示す通り芸能の一種であり、地方巡業も同様の形態を持ったことが小沢昭一の日本の放浪芸に記録されている。	いまでわげいのーでなくせいふーぞくのわくでとらえられがちなすとりっぷも、こーばんのよーごがしめすとーりげいのーのいちしゅであり、ちほーじゅんぎょーもどーよーのけいたいをもったことがおざわしょーいちのにっぽんのほーろーげいにきろくされている。	NO_LABEL
1970年代までは、地方に演芸場や寄席、劇場、ショーを売り物にするキャバレーなどが多数存在してきたが、1980年代以降は縮小傾向となり、ドサ回りの場も減少しつつある。	せんきゅうひゃくななじゅうねんだいまでわ、ちほーにえんげいじょーやよせ、げきじょー、しょーをうりものにするきゃばれーなどがたすーそんざいしてきたが、せんきゅうひゃくはちじゅうねんだいいこーわしゅくしょーけいこーとなり、どさまわりのばもげんしょーしつつある。	NO_LABEL
健康センター、ショッピングセンターのステージなどが、ある程度の代替機能を果たしているも、劣勢を盛り返す程ではない。	けんこーせんたー、しょっぴんぐせんたーのすてーじなどが、あるていどのだいたいきのーをはたしているも、れっせいをもりかえすほどでわない。	NO_LABEL
また地方巡業自体が、まだ盛んであった時にはやむなく「トヤにつく」ことがしばしばあった。	NO_PRONOUNCE	NO_LABEL
少々様相が異なるが、芸能界で営業と呼ばれる行為は、地方においてのコンテンツ不足で、今でも十分に有効な手段である。	しょーしょーよーそーがことなるが、げいのーかいでえいぎょーとよばれるこーいわ、ちほーにおいてのこんてんつふそくで、いまでもじゅーぶんにゆーこーなしゅだんである。	NO_LABEL
