小屋浦駅は、広島県安芸郡坂町小屋浦二丁目にある、西日本旅客鉄道呉線の駅。	こやうらえきわ、ひろしまけんあきぐんさかちょうこやうらにちょーめにある、にしにほんりょかくてつどーくれせんのえき。	NO_LABEL
相対式2面2線のホームを持ち、行違い設備を有する地上駅。	NO_PRONOUNCE	NO_LABEL
呉方面行きホーム側に駅舎があり、互いのホームは跨線橋で連絡している。	ごほーめんいきほーむがわにえきしゃがあり、たがいのほーむわこせんきょーでれんらくしている。	NO_LABEL
自動改札機については、開閉式でない簡易式のものが置かれている。	じどーかいさつきについてわ、かいへいしきでないかんいしきのものがおかれている。	NO_LABEL
便所はかつては男女共用の汲み取り式であったが、男女別の水洗式に変わっている。	べんじょわかつてわだんじょきょーよーのくみとりしきであったが、だんじょべつのすいせんしきにかわっている。	NO_LABEL
呉駅管理の無人駅であるが、自動券売機が設置されている。	くれえきかんりのむじんえきであるが、じどーけんばいきがせっちされている。	NO_LABEL
ICOCA利用可能駅	いこかりよーかのーえき	NO_LABEL
かつては、ジェイアール西日本広島メンテックが駅業務を受託する業務委託駅であり、早朝・夜間を除いてPOS端末による窓口発券を行っていたが、2017年1月27日の営業をもって終了した。	NO_PRONOUNCE	NO_LABEL
1日平均の乗車人員は以下の通り。	ついたちへいきんのじょーしゃじんいんわいかのとーり。	NO_LABEL
