イナグア島とは西インド諸島のバハマにある島で、大きい方のグレート・イナグア島と小さい方のリトル・イナグア島からなる。	NO_PRONOUNCE	NO_LABEL
バハマ諸島の最南端に位置し、キューバとイスパニョーラ島の近くにある。	ばはましょとーのさいなんたんにいちし、きゅーばといすぱにょーらとーのちかくにある。	NO_LABEL
東にはイギリス領カイコス諸島がある。	ひがしにわいぎりすりょーかいこすしょとーがある。	NO_LABEL
グレート・イナグア島とリトル・イナグア島共にイナグア島を結成し、面積はグレート・イナグア島が1,544kmでリトル・イナグア島が30kmである。	NO_PRONOUNCE	NO_LABEL
人口は約1500人で、全てグレート・イナグア島に住み、リトル・イナグア島は無人島である。	NO_PRONOUNCE	NO_LABEL
中心地はグレート・イナグア島のマシュー・タウン。	NO_PRONOUNCE	NO_LABEL
グレート・イナグア島にある大きなロサ湖にフラミンゴが生息している事で有名で国立公園になっている。	NO_PRONOUNCE	NO_LABEL
2001年5月、イナグア国立公園はラムサール条約登録地となった。	にせんいちねんごがつ、いなぐあこくりつこーえんわらむさーるじょーやくとーろくちとなった。	NO_LABEL
