酒井 綱一郎は、鹿児島県出身の記者、コメンテーター、日経ビジネス発行人。	さかいつないちろーわ、かごしまけんしゅっしんのきしゃ、こめんてーたー、にっけいびじねすはっこーにん。	NO_LABEL
国際基督教大学教養学部社会科学科卒業、スタンフォード大学プロフェッショナル・パブリッシング・コース修了。	NO_PRONOUNCE	NO_LABEL
1981年に毎日新聞に入社。	せんきゅうひゃくはちじゅういちねんにまいにちしんぶんににゅーしゃ。	NO_LABEL
記者として浜松支局、スポーツ部を経て退職。	きしゃとしてはままつしきょく、すぽーつぶをへてたいしょく。	NO_LABEL
1988年に日経マグロウヒル入社。	せんきゅうひゃくはちじゅうはちねんににっけいまぐろうひるにゅーしゃ。	NO_LABEL
NY支局長、2003年に日経ビジネス編集部長、ビジネス局長などを経て、日経ビジネスの発行人、同社取締役を歴任。	にゅーよーくしきょく、にせんさんねんににっけいびじねすへんしゅーぶちょー、びじねすきょくちょーなどをへて、にっけいびじねすのはっこーにん、どーしゃとりしまりやくをれきにん。	NO_LABEL
その後、親会社である日本経済新聞社に出向し、常務執行役員デジタル営業局長を経て、日経BP社取締役。	そのご、おやがいしゃであるにほんけいざいしんぶんしゃにしゅっこーし、じょーむしっこーやくいんでじたるえいぎょーきょくちょーをへて、にっけいびーぴーしゃとりしまりやく。	NO_LABEL
認定NPO法人「世界の子どもにワクチンを　日本委員会」理事、社会福祉法人「愛光」理事、NPO法人「CLICK地域教育力創発機構」理事。	NO_PRONOUNCE	NO_LABEL
NPO「木ようの家」前理事。	NO_PRONOUNCE	NO_LABEL
