赤城山 晃は、昭和時代の日本の大相撲力士。	あかしろやまあきらわ、しょーわじだいのにっぽんのおーずもーりきし。	NO_LABEL
身長176cm、体重90kg。	しんちょーひゃくななじゅうろくせんちめーとる、たいじゅーきゅうじゅうきろぐらむ。	NO_LABEL
最高位は東十両10枚目。	さいこーいわひがしじゅーりょーじゅうまいめ。	NO_LABEL
時津風部屋所属。	ときつかぜべやしょぞく。	NO_LABEL
群馬県藤岡市出身。	ぐんまけんふじおかししゅっしん。	NO_LABEL
[[category:松田 ?　	NO_PRONOUNCE	NO_LABEL
