上助任町は、徳島県徳島市の町名。	かみすけとーちょーわ、とくしまけんとくしましのちょーめい。	NO_LABEL
2009年12月現在の人口は1,184人、世帯数は537世帯。	NO_PRONOUNCE	NO_LABEL
郵便番号は〒770-0801。	NO_PRONOUNCE	NO_LABEL
渭北地区に属する。	NO_PRONOUNCE	NO_LABEL
吉野川下流河口部南岸の沖績平野、新町川沿いに位置し北は吉野川に面している。	よしのがわかりゅーかこーぶなんがんのおきいさおひらの、しんまちがわぞいにいちしきたわよしのがわにめんしている。	NO_LABEL
概ね市街地周縁の住宅地として利用される。	おーむねしがいちしゅーえんのじゅーたくちとしてりよーされる。	NO_LABEL
東から西へ、小字が天神・大坪・蛭子・三本松と並ぶ。	NO_PRONOUNCE	NO_LABEL
蛭子の西側を新町川が北流し、吉野川へ注いでいる。	えびすのにしがわをしんまちがわがきたながし、よしのがわえそそいでいる。	NO_LABEL
はじめ加茂村、昭和8年からは加茂町の大字となる。	はじめかも、しょーわはちねんからわかもちょーのだいじとなる。	NO_LABEL
明治40年に吉野川改修工事が行われ、その間に当地の南原・南原境・中筋・中野・吉野・夷野・大黒・天王須・鳥ノ森・神楽野・芋の宮・鬼ヶ崎・前須・前須久保・吉備津・鳥ノ森東・堤外・北塚・新川・蛭子ノ本・八坂の21小字は改修によって河川敷となった。	NO_PRONOUNCE	NO_LABEL
昭和9年に堤内・一ツ松・北ノ西・西外の4小字は川内村に編入され、同村の大字助任となる。	NO_PRONOUNCE	NO_LABEL
昭和12年に現在の町名となった。	しょーわじゅうにねんにげんざいのちょーめいとなった。	NO_LABEL
昭和43年に一部が北田宮に編入される。	しょーわよんじゅうさんねんにいちぶがきたたみやにへんにゅーされる。	NO_LABEL
地名の由来は吉野川・新町川・助任川などの河川に囲まれた砂州であることから、砂架頭の転訛と考えられる。	NO_PRONOUNCE	NO_LABEL
