旧制松山高等学校は、1919年に愛媛県松山市に設立された官立旧制高等学校。	きゅーせいまつやまこーとーがっこーわ、せんきゅうひゃくじゅうきゅうねんにえひめけんまつやましにせつりつされたかんりつきゅーせいこーとーがっこー。	NO_LABEL
設立当初の校舎は当時の松山市公会堂を借り受けた仮校舎であり、開校2年目の1920年8月、市内持田町に完成した新校舎に移転した。	せつりつとーしょのこーしゃわとーじのまつやましこーかいどーをかりうけたかりこーしゃであり、かいこーにねんめのせんきゅうひゃくにじゅうねんはちがつ、しないもちだまちにかんせいしたしんこーしゃにいてんした。	NO_LABEL
持田校地は空襲による校舎焼失を経て、新制愛媛大学への包括により文理学部校地として継承され、その後教育学部附属学校の校地となり現在に至っている。	もちだこーちわくーしゅーによるこーしゃしょーしつをへて、しんせいえひめだいがくえのほーかつによりぶんりがくぶこーちとしてけいしょーされ、そのごきょーいくがくぶふぞくがっこーのこーちとなりげんざいにいたっている。	NO_LABEL
現在、旧制高校時代の講堂は1963年以降愛媛大学附属中学校の講堂として使用され、1998年に国の登録有形文化財に登録された。	げんざい、きゅーせいこうこーじだいのこーどーわせんきゅうひゃくろくじゅうさんねんいこーえひめだいがくふぞくちゅーがっこーのこーどーとしてしよーされ、せんきゅうひゃくきゅうじゅうはちねんにくにのとーろくゆーけいぶんかざいにとーろくされた。	NO_LABEL
