プラシド・エンリケ・ポランコは、ドミニカ共和国サントドミンゴ出身の元プロ野球選手。	NO_PRONOUNCE	NO_LABEL
右投右打。	みぎなげみぎうち。	NO_LABEL
1991年にサントドミンゴのサンタ・クララ高校を16歳で卒業。	せんきゅうひゃくきゅうじゅういちねんにさんとどみんごのさんたくららこーこーをじゅうろっさいでそつぎょー。	NO_LABEL
所属していたリトルリーグのチームで監督をしていたマニー・モタがポランコのために奨学金の手配を行い、ポランコはアメリカ合衆国フロリダ州のマイアミ・デード・ウルフソン短大に進学、同州マイアミにあるモタの家で生活する。	NO_PRONOUNCE	NO_LABEL
にドラフト19巡目でセントルイス・カージナルスから指名され入団する。	NO_PRONOUNCE	NO_LABEL
7月3日にメジャーデビュー。	しちがつみっかにめじゃーでびゅー。	NO_LABEL
三振の少ない堅実なバッティングと内外野をこなすユーティリティーさでレギュラーを掴む。	さんしんのすくないけんじつなばってぃんぐとうちがいやをこなすゆーてぃりてぃーさでれぎゅらーをつかむ。	NO_LABEL
7月29日にスコット・ローレン、ダグ・ニックルとのトレードでバド・スミス、マイク・ティムリンとともにフィラデルフィア・フィリーズに移籍。	NO_PRONOUNCE	NO_LABEL
移籍後までの3シーズンで打率.294を記録する活躍を見せ、2004年には自己最多の17本塁打を記録。	NO_PRONOUNCE	NO_LABEL
6月8日にウーゲット・ウービナ、ラモン・マルティネスとのトレードでデトロイト・タイガースに移籍する。	ろくがつようかにうーげっとうーびな、らもんまるてぃねすとのとれーどででとろいとたいがーすにいせきする。	NO_LABEL
タイガースで居心地のよさや近いうちに強いチームになる確信を得たポランコは8月2日、翌からの4年総額1,840万ドルで契約を延長。	NO_PRONOUNCE	NO_LABEL
9月10日と11日には球団史上レイ・ブーン以来48年ぶりの2試合連続4安打を記録。	くがつとおかとじゅういちにちにわきゅーだんしじょーれいぶーんいらいよんじゅうはちねんぶりのにしあいれんぞくよんあんだをきろく。	NO_LABEL
シーズンを通してヒザ裏の腱を痛めていたが、フィリーズ・タイガース通算打率.331は両リーグでデレク・リーの.338に次ぐ高打率を記録。	NO_PRONOUNCE	NO_LABEL
開幕前の3月に第1回WBCのドミニカ共和国代表に選出された。	かいまくまえのさんがつにだいいっかいだぶりゅーびーしーのどみにかきょーわこくだいひょーにせんしゅつされた。	NO_LABEL
シーズンでは正二塁手としてタイガース地区首位に貢献したが、8月15日に左肩を脱臼してからはチームは失速。	しーずんでわせいにるいしゅとしてたいがーすちくしゅいにこーけんしたが、はちがつじゅうごにちにひだりかたをだっきゅーしてからわちーむわしっそく。	NO_LABEL
9月23日に復帰を果たし、チームはワイルドカードでポストシーズン進出。	くがつにじゅうさんにちにふっきをはたし、ちーむわわいるどかーどでぽすとしーずんしんしゅつ。	NO_LABEL
ア・リーグ優勝決定戦では打率.529の活躍でシリーズMVPに選ばれた。	NO_PRONOUNCE	NO_LABEL
ワールドシリーズでは17打数0安打で、チームもカージナルスに1勝4敗で敗退。	わーるどしりーずでわじゅうななだすーぜろあんだで、ちーむもかーじなるすにいちしょーよんはいではいたい。	NO_LABEL
には個人成績を伸ばし、自己最高となる200安打・打率.341・失策0を記録、初めてMLBオールスターゲームに選出されたうえ、シーズン終了後にはシルバースラッガー賞とゴールドグラブ賞を受賞した。	NO_PRONOUNCE	NO_LABEL
は、打撃3部門で前年を下回ったが、それでも打率.307・8本塁打・58打点を記録。	NO_PRONOUNCE	NO_LABEL
12月3日、古巣フィラデルフィア・フィリーズと3年1,800万ドルで契約。	NO_PRONOUNCE	NO_LABEL
フィリーズでは三塁手として起用された。	ふぃりーずでわさんるいしゅとしてきよーされた。	NO_LABEL
は打率.298を記録。	NO_PRONOUNCE	NO_LABEL
は2度目のオールスター出場と3度目のゴールドグラブ賞受賞を果たした。	わにどめのおーるすたーしゅつじょーとさんどめのごーるどぐらぶしょーじゅしょーをはたした。	NO_LABEL
は自己最低の打撃成績に終わった。	わじこさいていのだげきせいせきにおわった。	NO_LABEL
10月29日にFAとなった。	じゅーがつにじゅうきゅうにちにえふえいとなった。	NO_LABEL
2012年12月20日にマイアミ・マーリンズと契約。	にせんじゅうにねんじゅーにがつはつかにまいあみまーりんずとけいやく。	NO_LABEL
10月31日にFAとなった。	じゅーがつさんじゅういちにちにえふえいとなった。	NO_LABEL
から未所属のまま迎えたに現役引退を決意。	からみしょぞくのままむかえたにげんえきいんたいをけつい。	NO_LABEL
ランディ・ウルフとともに古巣フィリーズを最終所属として現役引退することが8月8日にフィリーズより発表された。	らんでぃうるふとともにふるすふぃりーずをさいしゅーしょぞくとしてげんえきいんたいすることがはちがつようかにふぃりーずよりはっぴょーされた。	NO_LABEL
バットコントロールのよさは2番打者としては理想的」で、滅多に三振をしない。	NO_PRONOUNCE	NO_LABEL
三振率ではからまで3年連続でリーグ1位となっており、通算でも14.2打数に1回の割合でしか三振していない。	NO_PRONOUNCE	NO_LABEL
また流し打ちも巧みで、.300を超える打率を残せる技術を持ち合わせている。	NO_PRONOUNCE	NO_LABEL
守備は堅実。	しゅびわけんじつ。	NO_LABEL
2006年7月1日のパイレーツ戦で2失策してから2008年4月8日のレッドソックス戦で悪送球を犯すまで、186試合・911守備機会連続無失策という記録を打ち立てた。	NO_PRONOUNCE	NO_LABEL
これはともにルイス・カスティーヨが保持していた143試合・647守備機会連続無失策という二塁手としてのメジャー記録を更新している。	NO_PRONOUNCE	NO_LABEL
またプラス・マイナス・システムという指標でも、この3シーズン通算でポランコが残した数字はメジャー4位タイの+29、つまりこの期間の平均的二塁手より29個多くアウトを稼いだという結果が出ている。	NO_PRONOUNCE	NO_LABEL
