東京多摩郵便局は、東京都府中市にある郵便局である。	とーきょーたまゆーびんきょくわ、とーきょーとふちゅーしにあるゆーびんきょくである。	NO_LABEL
2007年10月1日から2012年9月30日までは、郵便事業株式会社の東京多摩支店であった。	にせんななねんじゅーがつついたちからにせんじゅうにねんくがつさんじゅうにちまでわ、ゆーびんじぎょーかぶしきがいしゃのとーきょーたましてんであった。	NO_LABEL
多摩市にある多摩郵便局とよく似た名前だが全く別の郵便局である。	たましにあるたまゆーびんきょくとよくにたなまえだがぜんくべつのゆーびんきょくである。	NO_LABEL
住所：〒209-8799　東京都府中市南町4-40-35	NO_PRONOUNCE	NO_LABEL
