IBM PC DOS。	あいびーえむぴーしーどす。	NO_LABEL
IBM でパーソナルコンピュータを開発するために集まったタスクフォースは、オペレーティングシステムを含む重要なコンポーネントを社外から導入することを決めた。	あいびーえむでぱーそなるこんぴゅーたをかいはつするためにあつまったたすくふぉーすわ、おぺれーてぃんぐしすてむをふくむじゅーよーなこんぽーねんとをしゃがいからどーにゅーすることをきめた。	NO_LABEL
全てを社内で開発するというIBMの伝統を打ち破ったこの方針は、後知恵として見れば、IBM PCが業界標準となり、次いでIBM自身の手から主導権が喪失したそもそもの原因となった重大な決定である。	すべてをしゃないでかいはつするとゆうあいびーえむのでんとーをうちやぶったこのほーしんわ、こーちえとしてみれば、あいびーえむぴーしーがぎょーかいひょーじゅんとなり、ついであいびーえむじしんのてからしゅどーけんがそーしつしたそもそものげんいんとなったじゅーだいなけっていである。	NO_LABEL
しかし、この決断は時間を節約する必要性から仕方なくなされたものだった。	しかし、このけつだんわじかんをせつやくするひつよーせいからしかたなくなされたものだった。	NO_LABEL
オペレーティングシステムの導入元としてマイクロソフトが選ばれた。	おぺれーてぃんぐしすてむのどーにゅーもととしてまいくろそふとがえらばれた。	NO_LABEL
IBM はマイクロソフトが開発したソフトウェアについてはマイクロソフトが所有権を保持すべきだと考え、若干の示唆を与える以外にマイクロソフトを助けるつもりもなかった。	あいびーえむわまいくろそふとがかいはつしたそふとうぇあについてわまいくろそふとがしょゆーけんをほじすべきだとかんがえ、じゃっかんのしさをあたえるいがいにまいくろそふとをたすけるつもりもなかった。	NO_LABEL
タスクフォースの一員だったジャック・サムズは「その理由は社内にあった。	NO_PRONOUNCE	NO_LABEL
我々はある人々に彼らの所有物を盗んだとして訴えられるという問題を抱えていた。	われわれわあるひとびとにかれらのしょゆーぶつをぬすんだとしてうったえられるとゆうもんだいをかかえていた。	NO_LABEL
こちらのプログラマが他者のソースコードを見た場合、そのプログラマが IBM に戻ってきてそのソースコードを利用して儲けたと言われる可能性があり、結局非常に高くつくかもしれないと恐れた。	こちらのぷろぐらまがたしゃのそーすこーどをみたばあい、そのぷろぐらまがあいびーえむにもどってきてそのそーすこーどをりよーしてもーけたといわれるかのーせいがあり、けっきょくひじょーにたかくつくかもしれないとおそれた。	NO_LABEL
我々はそのような一連の訴訟で負けており、他社が所有する製品の開発にIBMが手を貸すということをしたくなかった。	われわれわそのよーないちれんのそしょーでまけており、たしゃがしょゆーするせいひんのかいはつにあいびーえむがてをかすとゆうことをしたくなかった。	NO_LABEL
だから我々はマイクロソフトに行き、彼らが自らの製品として開発してほしいという立場を明らかにした」と述べている。	NO_PRONOUNCE	NO_LABEL
IBMは1980年7月に初めてマイクロソフトに接触し、調査した。	あいびーえむわせんきゅうひゃくはちじゅうねんしちがつにはじめてまいくろそふとにせっしょくし、ちょーさした。	NO_LABEL
翌月も交渉が続き、最終的に契約が結ばれたのは11月初めのことである。	よくげつもこーしょーがつずき、さいしゅーてきにけいやくがむすばれたのわじゅーいちがつはじめのことである。	NO_LABEL
マイクロソフト社内の文献によれば、DOSの最初のバージョンはIBMに15,000ドルでライセンス供与された。	NO_PRONOUNCE	NO_LABEL
マイクロソフトはライセンスの一部としてロイヤルティも受け取ったが、ロイヤルティの合意事項はいつも厳重に守られた秘密だった。	まいくろそふとわらいせんすのいちぶとしてろいやるてぃもうけとったが、ろいやるてぃのごーいじこーわいつもげんじゅーにまもられたひみつだった。	NO_LABEL
マイクロソフトはシアトル・コンピュータ・プロダクツから86-DOSを当初はライセンス供与を受け、後に買い取った。	NO_PRONOUNCE	NO_LABEL
それをマイクロソフトの従業員ボブ・オレアがSCP従業員ティム・パターソンの助けを得てIBM PC向けに改造した。	NO_PRONOUNCE	NO_LABEL
1981年2月、オレアは86-DOSをPCのプロトタイプ機上で動作させることに成功。	NO_PRONOUNCE	NO_LABEL
86-DOSは8インチフロッピーディスクから5.25インチフロッピーディスクに変換され、マイクロソフトの支援を受けてIBMが書いたBIOSと組み合わされた。	NO_PRONOUNCE	NO_LABEL
IBMで要求仕様を書いた人数はマイクロソフトでコードを書いた人数よりも多い。	あいびーえむでよーきゅーしよーをかいたにんずーわまいくろそふとでこーどをかいたにんずーよりもおーい。	NO_LABEL
オレアはボカラトンのIBMエントリーシステム部門でやり取りしなければならない人数にしばしば圧倒された。	おれあわぼからとんのあいびーえむえんとりーしすてむぶもんでやりとりしなければならないにんずーにしばしばあっとーされた。	NO_LABEL
86-DOSはIBM PC DOS 1.0とブランド名変更され、1981年8月にIBM PCと共にリリースされた。	NO_PRONOUNCE	NO_LABEL
1981年末までパターソンは改良に取り組み、それがPC DOS 1.1と呼ばれるようになった。	NO_PRONOUNCE	NO_LABEL
大きな改良点はフロッピーディスクを両面使えるようにした点で、記憶容量が160KBから320KBに倍増した。	NO_PRONOUNCE	NO_LABEL
PC DOS 1.1は1982年3月に完成。	NO_PRONOUNCE	NO_LABEL
その後マイクロソフトのプログラマ達がハードディスクに対応したIBM PC/XT向けにPC DOS 2.0の開発を始めた。	NO_PRONOUNCE	NO_LABEL
最初のPC DOS 1.0がアセンブリ言語で4,000行だったのに対して、2.0は20,000行になっている。	NO_PRONOUNCE	NO_LABEL
2.0は1983年3月に正式発表された。	にーてんぜろわせんきゅうひゃくはちじゅうさんねんさんがつにせいしきはっぴょーされた。	NO_LABEL
1984年3月、IBM PCjrが登場。	せんきゅうひゃくはちじゅうよねんさんがつ、あいびーえむぴーしーじゅにあがとーじょー。	NO_LABEL
PCjrの持つROMカートリッジと若干差異のあったディスクコントローラに対応したPC DOS 2.1が動作した。	NO_PRONOUNCE	NO_LABEL
1984年8月、インテルの80286プロセッサを搭載したIBM PC/ATが登場。	NO_PRONOUNCE	NO_LABEL
より大きなハードディスクドライブと高密度のフロッピーディスクに対応したPC DOS 3.0が動作した。	NO_PRONOUNCE	NO_LABEL
1985年8月、IBMとマイクロソフトは新たに一からオペレーティングシステムを共同で開発する契約を結んだ。	せんきゅうひゃくはちじゅうごねんはちがつ、あいびーえむとまいくろそふとわあらたにいちからおぺれーてぃんぐしすてむをきょーどーでかいはつするけいやくをむすんだ。	NO_LABEL
当初と呼ばれていたが、1987年4月2日、OS/2がその共同開発の最初の成果として発表された。	とーしょとよばれていたが、せんきゅうひゃくはちじゅうななねしがつふつか、おーえすつーがそのきょーどーかいはつのさいしょのせいかとしてはっぴょーされた。	NO_LABEL
同時にIBMは次世代のパーソナルコンピュータ IBM Personal System/2 をリリースした。	NO_PRONOUNCE	NO_LABEL
1988年7月に出荷されたPC DOS 4.0はIBM社内で試作されたDOS 5をベースにしたものでバグが多く失敗に終った。	NO_PRONOUNCE	NO_LABEL
その機能は後にOS/2に採用された。	そのきのーわごにおーえすつーにさいよーされた。	NO_LABEL
デジタルリサーチはDR DOS 5.0をリリースし、マイクロソフトに対抗しようとした。	NO_PRONOUNCE	NO_LABEL
それに対してマイクロソフトはまだ存在しないPC DOS 5.0を発表し、急ピッチで開発を進めて対抗した。	NO_PRONOUNCE	NO_LABEL
PC DOS 5.0はIBMとマイクロソフトがコード全体を共有した最後のDOSであり、OS/2 2.0にも組み込まれ、後にWindows NTの仮想DOSマシンのベースとなった。	NO_PRONOUNCE	NO_LABEL
分裂の際の条件に基づき、IBMは自前のDOSを保持できることになり、DOSの開発を続けた。	ぶんれつのさいのじょーけんにもとずき、あいびーえむわじまえのどすをほじできることになり、どすのかいはつをつずけた。	NO_LABEL
また、OS/2上でWindowsアプリケーションが動作する機能も保持できることになった。	また、おーえすつーじょーでうぃんどうずあぷりけーしょんがどーさするきのーもほじできることになった。	NO_LABEL
マイクロソフトはDOSの範囲を限定し、OEM版ディスケットには「MS-DOS and Additional Tools」とふたつの製品が含まれていることを明示していた。	NO_PRONOUNCE	NO_LABEL
IBMは、独自のエディタや各種ツールを同梱した自前のDOSをリリースした。	あいびーえむわ、どくじのえでぃたやかくしゅつーるをどーこんしたじまえのどすをりりーすした。	NO_LABEL
最終的な分裂はPC DOS 6.30以降である。	NO_PRONOUNCE	NO_LABEL
PC DOS 6.30はPowerPC版OS/2にも使われた。	NO_PRONOUNCE	NO_LABEL
ボカラトンが閉鎖される前にリリースされた最後のバージョンであるPC DOS 7.0はSAA準拠機能を追加し、DOS版の古いツールの大半を削除した。	NO_PRONOUNCE	NO_LABEL
PC DOS 2000はオースティンで開発された。	NO_PRONOUNCE	NO_LABEL
IBMはPC DOSのコードをサーバのブートディスク用に使い続けている。	あいびーえむわぴーしーどすのこーどをさーばのぶーとでぃすくよーにつかいつずけている。	NO_LABEL
1993年まで、PC DOSはMS-DOSのブランド名を付け替えただけのものだった。	せんきゅうひゃくきゅうじゅうさんねんまで、ぴーしーどすわえむえすでぃーおーえすのぶらんどめいをつけかえただけのものだった。	NO_LABEL
MS-DOS 6が同年3月にリリースされ、IBM独自開発のPC DOS 6.1が6月にリリースされ、両社は決別することになった。	NO_PRONOUNCE	NO_LABEL
PC DOSからQBasicが無くなり、エディタも独自のに置き換えられた。	NO_PRONOUNCE	NO_LABEL
同年12月にはPC DOS 6.3がリリースされている。	NO_PRONOUNCE	NO_LABEL
1994年11月、PC DOS 7をリリース。	NO_PRONOUNCE	NO_LABEL
プログラミング言語 REXX を追加し、フロッピーディスクの新フォーマット をサポートし、1.44MBから1.86MBに容量を増やした。	NO_PRONOUNCE	NO_LABEL
商品としての最後のリリースはPC DOS 2000で組み込みシステム市場などで使われた。	NO_PRONOUNCE	NO_LABEL
PC DOS 7をベースとして、2000年問題に対処している。	NO_PRONOUNCE	NO_LABEL
その後もFAT32対応などを行った7.1が開発されたが商品としてではなく、保守部品的な位置づけである。	NO_PRONOUNCE	NO_LABEL
ThinkPad製品では今もレスキュー及びリカバリー・パーティションのためにPC DOSの最新版を搭載している。	NO_PRONOUNCE	NO_LABEL
PC DOSの日本語版には以下がある。	ぴーしーどすのにほんごばんにわいかがある。	NO_LABEL
