村井 克行は、日本の俳優。	むらいかつゆきわ、にっぽんのはいゆー。	NO_LABEL
本名同じ。	ほんみょーおなじ。	NO_LABEL
京都府京都市出身。	きょーとふきょーとししゅっしん。	NO_LABEL
身長175cm、血液型A型。	しんちょーひゃくななじゅうごせんちめーとる、けつえきがたえーがた。	NO_LABEL
京都嵯峨芸術大学短期大学部卒業。	きょーとさがげいじゅつだいがくたそつぎょー。	NO_LABEL
整った顔立ちの割りに、ドラマでは謎めいた人物、性格に癖のある人物、心を病んでいる人物などを演じることの多い演技派俳優である。	ととのったかおだちのわりに、どらまでわなぞめいたじんぶつ、せいかくにくせのあるじんぶつ、こころをやんでいるじんぶつなどをえんじることのおーいえんぎははいゆーである。	NO_LABEL
『仮面ライダー555』に出演決定時のインタビューでは、『仮面ライダー』シリーズにずっと出演したかったと喜んでおり、シリーズ第1作『仮面ライダー』からリアルタイムで視聴していたファンであり、それどころか近年の平成ライダーにまで詳しいといった意外な一面を見せた。	NO_PRONOUNCE	NO_LABEL
『人造人間ハカイダー』のファンで同作で村上の怪人体であるローズオルフェノクにハカイダーのデザインを取り入れるようにデザイナーに頼んだという。	NO_PRONOUNCE	NO_LABEL
特技はギター、ドラム、空手。	とくぎわぎたー、どらむ、からて。	NO_LABEL
