TT-02とは、株式会社タミヤよりリリースされている電動RCカーのシャーシ名称である。	NO_PRONOUNCE	NO_LABEL
TT-01に続く、ビギナー向けのシャフトドライブ4WDシャーシ。	NO_PRONOUNCE	NO_LABEL
モーターはシャーシの右サイドに縦置きとなった。	もーたーわしゃーしのみぎさいどにたておきとなった。	NO_LABEL
入門者にも扱いやすいように部品点数は少なくされており、価格も抑えられている。	にゅーもんしゃにもあつかいやすいよーにぶひんてんすーわすくなくされており、かかくもおさえられている。	NO_LABEL
パーツの組換えでホイールベース・車高・トレッドをそれぞれ2タイプから選択でき、多彩なボディが装着可能。	NO_PRONOUNCE	NO_LABEL
セッティング次第でフラットダートからオンロードまで対応できる、汎用性の高さが特徴。	せってぃんぐしだいでふらっとだーとからおんろーどまでたいおーできる、はんよーせいのたかさがとくちょー。	NO_LABEL
2013年5月発売	にせんじゅうさんねんごがつはつばい	NO_LABEL
2014年2月発売	にせんじゅうよねんにがつはつばい	NO_LABEL
2014年11月発売	にせんじゅうよねんじゅーいちがつはつばい	NO_LABEL
2015年3月発売	にせんじゅうごねんさんがつはつばい	NO_LABEL
2015年7月発売	にせんじゅうごねんしちがつはつばい	NO_LABEL
2013年7月発売	にせんじゅうさんねんしちがつはつばい	NO_LABEL
2015年2月発売	にせんじゅうごねんにがつはつばい	NO_LABEL
2015年7月発売	にせんじゅうごねんしちがつはつばい	NO_LABEL
