矢島駅は、秋田県由利本荘市矢島町七日町字羽坂にある、由利高原鉄道鳥海山ろく線の駅。	やしまえきわ、あきたけんゆりほんじょーしやしままちなのかまちじはざかにある、ゆりこーげんてつどーちょーかいさんろくせんのえき。	NO_LABEL
同線の終着駅となっている。	どーせんのしゅーちゃくえきとなっている。	NO_LABEL
社員配置駅。	しゃいんはいちえき。	NO_LABEL
単式ホーム1面1線を有する地上駅。	NO_PRONOUNCE	NO_LABEL
車両基地が隣接し、夜間停泊がある。	しゃりょーきちがりんせつし、やかんていはくがある。	NO_LABEL
駅舎には出札窓口、直営の旅行センターと売店がある。	えきしゃにわしゅっさつまどぐち、ちょくえいのりょこーせんたーとばいてんがある。	NO_LABEL
由利高原鉄道の本社が併設されている。	ゆりこーげんてつどーのほんしゃがへいせつされている。	NO_LABEL
