『the ultimate collection』は、鬼束ちひろの1枚目のベストアルバム。	NO_PRONOUNCE	NO_LABEL
2004年12月1日に発売された。	にせんよねんじゅーにがつついたちにはつばいされた。	NO_LABEL
全作詞・作曲は鬼束ちひろ、編曲は羽毛田丈史。	NO_PRONOUNCE	NO_LABEL
PVを全曲収録したDVD『the complete clips』との同時発売となる。	NO_PRONOUNCE	NO_LABEL
初回プレス盤のみスリーブケース仕様となっている。	しょかいぷれすばんのみすりーぶけーすしよーとなっている。	NO_LABEL
ジャケットやブックレット内の写真は、同年3月にリリース予定で発売中止となったオリジナルアルバムのためにあらかじめ撮られていたものを使用している。	じゃけっとやぶっくれっとないのしゃしんわ、どーねんさんがつにりりーすよていではつばいちゅーしとなったおりじなるあるばむのためにあらかじめとられていたものをしよーしている。	NO_LABEL
既に所属を離れた東芝EMIからリリースされた初のベストアルバム。	すでにしょぞくをはなれたとーしばいーえむあいからりりーすされたはつのべすとあるばむ。	NO_LABEL
選曲は音楽プロデュースを手掛けた羽毛田丈史により、鬼束本人は一切作品に関与していない。	せんきょくわおんがくぷろでゅーすをてがけたはけたたけふみにより、おにつかほんにんわいっさいさくひんにかんよしていない。	NO_LABEL
なお、今作の再収録に当たり、世界的なエンジニアであるテッド・ジェンセンによる、全曲24ビットデジタルリマスタリングが施されている。	NO_PRONOUNCE	NO_LABEL
