T-33はソビエト連邦の試作戦車である。	NO_PRONOUNCE	NO_LABEL
本車はソ連における最初の水陸両用戦車である。	ほんしゃわそれんにおけるさいしょのすいりくりょーよーせんしゃである。	NO_LABEL
1931年にイギリスから購入したD-12水陸両用豆戦車を元としている。	NO_PRONOUNCE	NO_LABEL
主砲をDT機銃に換装した他、40馬力のフォード-AAトラックのエンジンを動力とした。	NO_PRONOUNCE	NO_LABEL
しかし試験の結果水上を進む性能はともかく、乗員の配置や、水辺の泥濘地での機動に問題があり、また改良の余地がある事も明らかになった。	しかししけんのけっかすいじょーをすすむせいのーわともかく、じょーいんのはいちや、みずべのでいねいちでのきどーにもんだいがあり、またかいりょーのよちがあることもあきらかになった。	NO_LABEL
その後改良を行いT-37が完成。	NO_PRONOUNCE	NO_LABEL
T-37の量産性が高い事も相まって、本車は生産体制に移行することはなかった。	NO_PRONOUNCE	NO_LABEL
水上での速度は4km/hで、T-37とほぼ同じである。	NO_PRONOUNCE	NO_LABEL
装甲厚も同等であった。	そーこーあつしもどーとーであった。	NO_LABEL
実戦運用もおそらくされていないが、生産した8輌の内1輌はクビンカ戦車博物館に現存している。	NO_PRONOUNCE	NO_LABEL
