島崎 みゆきは、日本の元バレーボール選手である。	しまざきみゆきわ、にっぽんのもとばれーぼーるせんしゅである。	NO_LABEL
大分県別府市出身。	おーいたけんべっぷししゅっしん。	NO_LABEL
友人に誘われて小学4年からバレーボールを始める。	ゆーじんにさそわれてしょーがくよんねんからばれーぼーるをはじめる。	NO_LABEL
1987年、第3回さわやか杯ではエースとしてオリンピック有望選手に選出。	せんきゅうひゃくはちじゅうななね、だいさんかいさわやかはいでわえーすとしておりんぴっくゆーぼーせんしゅにせんしゅつ。	NO_LABEL
扇城高校在学時には、インターハイ3位入賞や春高バレー準優勝に大きく貢献した。	おーぎじょーこーこーざいがくじにわ、いんたーはいさんいにゅーしょーやはるこうばれーじゅんゆうしょーにおーきくこーけんした。	NO_LABEL
1993年日立に入団。	せんきゅうひゃくきゅうじゅうさんねんひたちににゅーだん。	NO_LABEL
同年全日本代表に初選出され、1994年世界選手権に出場した。	どーねんぜんにほんだいひょーにはつせんしゅつされ、せんきゅうひゃくきゅうじゅうよねんせかいせんしゅけんにしゅつじょーした。	NO_LABEL
2001年日立廃部に伴い、東洋紡オーキスに移籍した。	にせんいちねんひたちはいぶにともない、とーよーぼーおーきすにいせきした。	NO_LABEL
2002年の東洋紡廃部後は現役引退し、同社の事務職として勤務していたが、2003年パイオニアに入団し現役復帰、同年度のパイオニア優勝に貢献した。	にせんにねんのとーよーぼーはいぶごわげんえきいんたいし、どーしゃのじむしょくとしてきんむしていたが、にせんさんねんぱいおにあににゅーだんしげんえきふっき、どーねんどのぱいおにあゆーしょーにこーけんした。	NO_LABEL
2005年現役引退。	にせんごねんげんえきいんたい。	NO_LABEL
夫はパイオニア元監督の佐藤浩明。	おっとわぱいおにあもとかんとくのさとーひろあき。	NO_LABEL
元小田急所属の森山淳子とは小学3年から高校卒業まで同級であり、中学1年次にはあまり熱心ではなかった森山をよく呼びにいき練習に誘ったという。	もとおだきゅーしょぞくのもりやまじゅんことわしょーがくさんねんからこーこーそつぎょーまでどーきゅーであり、ちゅーがくいちねんじにわあまりねっしんでわなかったもりやまをよくよびにいきれんしゅーにさそったという。	NO_LABEL
東洋紡のラストシーズンに2人は同じコートでプレーした。	とーよーぼーのらすとしーずんにふたりわおなじこーとでぷれーした。	NO_LABEL
1999年から2005年までのVリーグレギュラーラウンドにおける個人成績は下記の通り。	せんきゅうひゃくきゅうじゅうきゅうねんからにせんごねんまでのぶいりーぐれぎゅらーらうんどにおけるこじんせいせきわかきのとーり。	NO_LABEL
