『アベンジャーズ オリジナル･サウンドトラック』は、アラン・シルヴェストリが作曲した、マーベル・スタジオの映画『アベンジャーズ』の音楽を収めたアルバムであり、2012年5月1日に発売された。	NO_PRONOUNCE	NO_LABEL
また同日に多数のアーティストの楽曲を収めた『アベンジャーズ・アッセンブル』も発売された。	NO_PRONOUNCE	NO_LABEL
2011年11月、『キャプテン・アメリカ/ザ・ファースト・アベンジャー』の映画音楽を手がけたアラン・シルヴェストリが『アベンジャーズ』でも作曲することがマーベルより発表された。	NO_PRONOUNCE	NO_LABEL
作業はロンドンのアビー・ロード・スタジオでロンドン交響楽団とともに行われた。	さぎょーわろんどんのあびーろーどすたじおでろんどんこーきょーがくだんとともにおこなわれた。	NO_LABEL
シルヴェストリは『キャプテン・アメリカ』のテーマを再利用し、さらに新しいものを導入した。	NO_PRONOUNCE	NO_LABEL
スコア・アルバムは2012年5月1日に発売された。	NO_PRONOUNCE	NO_LABEL
デジタル版と同時にCD版がが発売された。	でじたるばんとどーじにきゃっしゅでぃすぺんさーばんががはつばいされた。	NO_LABEL
CD版には「Interrogation」が追加されている。	NO_PRONOUNCE	NO_LABEL
2012年3月、アメリカ合衆国のオルタナティヴ・ロック・バンドのサウンドガーデンは公式facebookにて、「リヴ・トゥ・ライズ」を本作サウンドトラックに提供するために書いたことを発表した。	NO_PRONOUNCE	NO_LABEL
さらにインドのロックバンドのは、インドでの映画公開時のテーマ曲である "Hello Andhero" のミュージックビデオを公開した。	NO_PRONOUNCE	NO_LABEL
サウンドトラック盤は2012年5月1日にハリウッド・レコードより発売された。	さうんどとらっくばんわにせんじゅうにねんごがつついたちにはりうっどれこーどよりはつばいされた。	NO_LABEL
