子どもたちのインターネット利用について考える研究会は、2008年にヤフー株式会社とネットスター株式会社が共同で設立した研究会である。	こどもたちのいんたーねっとりよーについてかんがえるけんきゅーかいわ、にせんはちねんにやふーかぶしきがいしゃとねっとすたーかぶしきがいしゃがきょーどーでせつりつしたけんきゅーかいである。	NO_LABEL
子供たちをインターネットの危険から守るべく、リスク教育や調査研究を実施するために設立された。	こどもたちをいんたーねっとのきけんからまもるべく、りすくきょーいくやちょーさけんきゅーをじっしするためにせつりつされた。	NO_LABEL
略称は子どもネット研。	りゃくしょーわこどもねっとけん。	NO_LABEL
