福原 元俊）は、長州藩永代家老・宇部領主福原家14代。	NO_PRONOUNCE	NO_LABEL
父は福原越後守広俊。	ちちわふくはらえつごもりひろとし。	NO_LABEL
母は口羽春頼の娘。	ははわくちばはるよりのむすめ	NO_LABEL
正室は口羽元武の娘。	せいしつわくちばもとたけのむすめ	NO_LABEL
子は福原隠岐広俊。	こわふくはらおきひろとし。	NO_LABEL
初名は福原元光。	はつなわふくはらもとみつ。	NO_LABEL
通称少輔三郎、左近允、但馬守、隠岐守。	つーしょーしょーほさぶろー、さこんじゅー、たじままもる、おきもり。	NO_LABEL
毛利家重臣、福原越後守広俊の子として生まれる。	もーりいえしげしん、ふくはらえつごもりひろとしのことしてうまれる	NO_LABEL
初めの主君・毛利輝元より偏諱を受け、初め元光、後にそれまでの福原氏の通字により元俊と改名。	NO_PRONOUNCE	NO_LABEL
元和8年父広俊の隠居により家督相続。	げんなはちねんちちひろとしのいんきょによりかとくそーぞく。	NO_LABEL
藩主・毛利秀就に家老として仕えた。	NO_PRONOUNCE	NO_LABEL
元和9年藩主秀就から国政改革についての命を受ける。	げんなきゅうねんはんしゅしゅーつくからこくせいかいかくについてのいのちをうける。	NO_LABEL
寛永2年家臣の知行再編により、当時執政だった毛利秀元が自身と親しい一門を街道の要地に再配置したため、吉敷郡吉敷から、厚狭郡宇部村に知行替えとなる。	かんえいにねんかしんのちぎょーさいへんにより、とーじしっせいだったもーりひでもとがじしんとしたしいいちもんをかいどーのよーちにさいはいちしたため、よしきぐんよしきから、あさぐんうべむらにちぎょーがえとなる。	NO_LABEL
旧領吉敷には秀元の妹の子毛利元包が入った。	きゅーりょーよしきにわひでもとのいもーとのこもーりもとかねがはいった。	NO_LABEL
以降福原家は代々長州藩永代家老・宇部領主を務め明治を迎える。	NO_PRONOUNCE	NO_LABEL
承応2年8月9日死去。	NO_PRONOUNCE	NO_LABEL
