トゥクムスとはラトビアの都市である。	とぅくむすとわらとびあのとしである。	NO_LABEL
ラトビアの4つの地域の内のヴィゼメ、ゼムガレ、クルゼメの3地域の交点に位置する。	NO_PRONOUNCE	NO_LABEL
冷戦期にはトゥクムス空軍基地が運用されていた。	れいせんきにわとぅくむすくーぐんきちがうんよーされていた。	NO_LABEL
トゥクムスの歴史は、ダウガワ川の河口からプロシアへと続く通商路の間で発展してきた。	とぅくむすのれきしわ、だうがわがわのかこーからぷろしあえとつずくつーしょーろのまではってんしてきた。	NO_LABEL
トゥクムスで最も古い地区は今のタルシである。	とぅくむすでもっともふるいちくわいまのたるしである。	NO_LABEL
1253年以降、トゥクムスはリヴォニア帯剣騎士団の支配を受けた。	NO_PRONOUNCE	NO_LABEL
13世紀の終わりにSlocene川の土手に石作りの城が建てられ、その周りにはドイツ人の商人や職人たちが居住して市場を形成していった。	NO_PRONOUNCE	NO_LABEL
16世紀になると、商取引の発達に伴い現在のリエラ通りであるプロシアへの新しい通商ルートが作られた。	じゅうろくせいきになると、しょーとりひきのはったつにともないげんざいのりえらどーりであるぷろしあえのあたらしいつーしょーるーとがつくられた。	NO_LABEL
公共の建物や主要な企業、商店などがこの通りに集中し、トゥクムスの発展に重要な役目を担った。	こーきょーのたてものやしゅよーなきぎょー、しょーてんなどがこのとーりにしゅーちゅーし、とぅくむすのはってんにじゅーよーなやくめをになった。	NO_LABEL
リヴォニア騎士団解散後、クールラント・ゼムガレン公国が成立し、他の多くの町と同じようにトゥクムスも多くの戦火に見舞われた。	NO_PRONOUNCE	NO_LABEL
クールラント公ヤーコプ・ケトラーの時代にはトゥクムスは急速な好景気を経験し、その時期にクールラント・ゼムガレン公国の首都であったイェルガヴァへの通商路が作られ、その近くの湖にはダムが作られた。	NO_PRONOUNCE	NO_LABEL
ダムでは製粉機や樽を作る窯が稼働しており、樽は外国へと輸出された。	だむでわせいふんきやたるをつくるかまがかどーしており、たるわがいこくえとゆしゅつされた。	NO_LABEL
当時の町の人口は800人であり、町のランドマークとしては湖と1687年に建てられた教会の尖塔があった。	とーじのまちのじんこーわはっぴゃくにんであり、まちのらんどまーくとしてわみずうみとせんろっぴゃくはちじゅうななねんにたてられたきょーかいのせんとーがあった。	NO_LABEL
1795年以降、クールラントはロシアに吸収された。	せんななひゃくきゅうじゅうごねんいこー、くーるらんとわろしあにきゅーしゅーされた。	NO_LABEL
当時のロシア皇帝エカチェリーナ2世はトゥクムスを含むいくつかの都市に公民権を与えるためクールラントを分割した。	とーじのろしあこーていえかちぇりーなにせいわとぅくむすをふくむいくつかのとしにこーみんけんをあたえるためくーるらんとをぶんかつした。	NO_LABEL
1800年には都市の境界が引かれ、その2年後に初めての都市地図が制作された。	せんはっぴゃくねんにわとしのきょーかいがひかれ、そのにねんごにはじめてのとしちずがせいさくされた。	NO_LABEL
人口は1500人を超え、1806年には初等学校が開校した。	じんこーわせんごひゃくにんをこえ、せんはっぴゃくろくねんにわしょとーがっこーがかいこーした。	NO_LABEL
1860年には道路が舗装され、1875年には街灯が設置された。	せんはっぴゃくろくじゅうねんにわどーろがほそーされ、せんはっぴゃくななじゅうごねんにわがいとーがせっちされた。	NO_LABEL
1877年にはリガとトゥクムスとの間に鉄道が開通し、しばらく後にはヴェンツピルスとの間にも開通した。	NO_PRONOUNCE	NO_LABEL
大都市と鉄道によって結ばれたことでトゥクムスはさらなる発展を遂げ、1897年には24の企業が革や観葉植物、布海苔、陶磁器、食料品などの生産を行っていた。	NO_PRONOUNCE	NO_LABEL
その後町は工業の発達に伴い発展したが、裕福なものは町の東部に、労働者たちは西部にそれぞれ家を建てたために町は2つの地区に分かれた。	そのごまちわこーぎょーのはったつにともないはってんしたが、ゆーふくなものわまちのとーぶに、ろーどーしゃたちわせいぶにそれぞれかをたてたためにまちわふたつのちくにわかれた。	NO_LABEL
1930年代には、8000人の住人と73の企業が操業していた。	NO_PRONOUNCE	NO_LABEL
1301年に作られたラトビアに唯一残るリヴォニア時代の城であるJaunpils城が現存している。	NO_PRONOUNCE	NO_LABEL
城の近くにはトゥクムスの歴史を専門とした博物館と展示ホールがあり、1592年に建てられたJaunpilsルーテル教会も現存している。	NO_PRONOUNCE	NO_LABEL
トゥクムスから5 km離れたクルゼメの丘に囲まれた位置には、1901年、当時のリガ市長であるジョージ・アームステッドの住居として建てられたヤウンモク宮殿があり、現在は林業の展示を行っている。	NO_PRONOUNCE	NO_LABEL
ブリタニカ百科事典ロシア語版	ぶりたにかひゃっかじてんろしあごばん	NO_LABEL
