『響の森さだまさし25周年記念ライブ』は、1999年9月22日に発売されたさだまさしのライブ・アルバムである。	NO_PRONOUNCE	NO_LABEL
1999年6月29日、東京厚生年金会館でのコンサートを収録したライブ・アルバムである。	せんきゅうひゃくきゅうじゅうきゅうねんろくがつにじゅうきゅうにち、とーきょーこーせいねんきんかいかんでのこんさーとをしゅーろくしたらいぶあるばむである。	NO_LABEL
当夜の6日前にリリースされたばかりのオリジナル・アルバム『季節の栖～Twenty Five Reasons～』を意識してか、通常のものとは異なり、佐田玲子、南こうせつといった他のミュージシャンが参加してのライブとなっている。	NO_PRONOUNCE	NO_LABEL
