避難指示は、対象地域の土地、建物などに被害が発生する恐れのある場合に住民に対して避難を呼びかける指示。	ひなんしじわ、たいしょーちーきのとち、たてものなどにひがいがはっせいするおそれのあるばあいにじゅーみんにたいしてひなんをよびかけるしじ。	NO_LABEL
日本においては、災害対策基本法第60条において定められており、市町村長が行う。	NO_PRONOUNCE	NO_LABEL
同条で定められている避難勧告よりも緊急性が高い場合に行われる。	どーじょーでさだめられているひなんかんこくよりもきんきゅーせいがたかいばあいにおこなわれる。	NO_LABEL
市町村長が避難指示を行えない場合は都道府県知事が代行することができ、また市町村長が指示できない場合や市町村長の要求があった場合には警察官と海上保安官が避難を指示することができる。	しちょーそんちょーがひなんしじをおこなえないばあいわとどーふけんちじがだいこーすることができ、またしちょーそんちょーがしじできないばあいやしちょーそんちょーのよーきゅーがあったばあいにわけいさつかんとかいじょーほあんかんがひなんをしじすることができる。	NO_LABEL
平成28年台風第10号における被害を受け、避難勧告よりも緊急性が高い情報ということが伝わりやすいよう、2016年12月26日より「避難指示」という名称で運用されている。	NO_PRONOUNCE	NO_LABEL
原子力事故の場合は原子力災害対策特別措置法第26条により避難指示が規定されている。	NO_PRONOUNCE	NO_LABEL
テレビやWebサイト等による伝達の際、ガイドラインではISO 22324等を参考に危険度をカラーレベルで表現することが望ましいとされている。	NO_PRONOUNCE	NO_LABEL
一例として避難指示は、NHKのテレビ放送では 紫系統、Yahoo! JAPANの避難情報のページでは 赤系統を使用している。	いちれいとしてひなんしじわ、えぬえいちけいのてれびほうそーでわむらさきけいとー、やふーじゃぱんのひなんじょーほーのぺーじでわあかけいとーをしよーしている。	NO_LABEL
