ソリッドスクエアとは、神奈川県川崎市幸区堀川町にある商業ビルである。	そりっどすくえあとわ、かながわけんかわさきしさいわいくほりかわちょーにあるしょーぎょーびるである。	NO_LABEL
川崎市が総合計画「2001かわさきプラン」にて、川崎駅西口地区の再開発地区である、かわさきテクノピアの第二地区の明治製菓川崎工場跡地を再開発された建物である。	NO_PRONOUNCE	NO_LABEL
ツイン構成の24階建て高層オフィスビル2棟と、地上部には開閉式ガラスドームの屋根と円形の池を持つアリーナがあり、地下にはホールやアスレチッククラブなどがある。	NO_PRONOUNCE	NO_LABEL
敷地全体とアリーナが近隣に解放された「広場」としての役割をもっており、木々も数多く植えられ、クリスマス時期には池の中央に大きなツリーが飾られる。	NO_PRONOUNCE	NO_LABEL
アリーナ部分の店舗はコンビニエンスストア、喫茶店、ファーストフード、和洋食、中華など多彩な顔ぶれが揃い、オフィスワーカーのランチ場所としても便利である。	ありーなぶぶんのてんぽわこんびにえんすすとあ、きっさてん、ふぁーすとふーど、わよーしょく、ちゅーかなどたさいなかおぶれがそろい、おふぃすわーかーのらんちばしょとしてもべんりである。	NO_LABEL
ツインタワーは見る角度によっては一体化した建造物に見え、窓や案内板など、随所にみられる正方形のパターンは、事業主の明治製菓の主力商品だったキャラメルのイメージとなっている。	ついんたわーわみるかくどによってわいったいかしたけんぞーぶつにみえ、まどやあんないばんなど、ずいしょにみられるせいほーけいのぱたーんわ、じぎょーぬしのめいじせいかのしゅりょくしょーひんだったきゃらめるのいめーじとなっている。	NO_LABEL
オフィステナントには企業のほかに、川崎県民センター、神奈川県パスポートセンター川崎支所などの神奈川県の施設も入居している。	おふぃすてなんとにわきぎょーのほかに、かわさきけんみんせんたー、かながわけんぱすぽーとせんたーかわさきししょなどのかながわけんのしせつもにゅーきょしている。	NO_LABEL
1階アリーナは、『鉄板少女アカネ!!』など様々なドラマの撮影に使われている。	NO_PRONOUNCE	NO_LABEL
