バム・デーブ・ガウタムはネパールの政治家。	ばむでーぶがうたむわねぱーるのせいじか。	NO_LABEL
プラチャンダ内閣の副首相兼内務相。	ぷらちゃんだないかくのふくしゅしょーけんないむしょー。	NO_LABEL
ネパール共産党統一マルクス・レーニン主義派、常任委員。	ねぱーるきょうさんとーとーいつまるくすれーにんしゅぎは、じょーにんいーん。	NO_LABEL
前副首相兼内務相。	ぜんふくしゅしょーけんないむしょー。	NO_LABEL
B.D.ガウタムとも	びーでぃーがうたむとも	NO_LABEL
2008年8月のプラチャンダ内閣の組閣にあたり、統一共産党の代表として連立の交渉に当たる。	にせんはちねんはちがつのぷらちゃんだないかくのそかくにあたり、とーいつきょうさんとーのだいひょーとしてれんりつのこーしょーにあたる。	NO_LABEL
交渉の結果6閣僚が統一共産党に割り当てられ、自らも内務大臣に内定していたが、8月23日、突然、内閣No.2のポストを要求して、全閣僚を引き上げた。	NO_PRONOUNCE	NO_LABEL
結局、プラチャンダ首相が譲歩し、8月31日、副首相兼内務大臣に就任。	けっきょく、ぷらちゃんだしゅしょーがじょーほし、はちがつさんじゅういちにち、ふくしゅしょーけんないむだいじんにしゅーにん。	NO_LABEL
バム・デーブ・ガウタムは1998年、サハーナ・プラダン、ラダ・クリシュナ・マイナリらと統一共産党を脱退し、ネパール共産党マルクス・レーニン主義派を結成し総書記となるが、2002年2月15日、統一共産党に復党した。	ばむでーぶがうたむわせんきゅうひゃくきゅうじゅうはちねん、さはーなぷらだん、らだくりしゅなまいなりらととーいつきょうさんとーをだったいし、ねぱーるきょーさんとーまるくすれーにんしゅぎはをけっせいしそーしょきとなるが、にせんにねんにがつじゅうごにち、とーいつきょうさんとーにふくとーした。	NO_LABEL
