吉岡 康暢は、日本の考古学者、文学博士。	よしおかやすのぶわ、にっぽんのこーこがくしゃ、ぶんがくはかせ。	NO_LABEL
国立歴史民俗博物館名誉教授・元石川県立歴史博物館館長。	NO_PRONOUNCE	NO_LABEL
石川県金沢市生まれ。	いしかわけんかなざわしうまれ。	NO_LABEL
古代～中世にかけての日本海域における土器・陶磁器研究の先駆者である。	NO_PRONOUNCE	NO_LABEL
第5回小山富士夫記念賞受賞。	だいごかいこやまふじおきねんしょーじゅしょー。	NO_LABEL
