『ハウス・オブ・ザ・デッド2』（）は、2005年に公開されたアメリカのホラーテレビ映画。	NO_PRONOUNCE	NO_LABEL
監督はマイケル・ハースト。	かんとくわまいけるはーすと。	NO_LABEL
アーケードゲーム、『ザ・ハウス・オブ・ザ・デッド』を原作としている。	NO_PRONOUNCE	NO_LABEL
2003年の映画、『ハウス・オブ・ザ・デッド』の続編。	NO_PRONOUNCE	NO_LABEL
原作で生き残った男はキュリアンと名乗り、死者を蘇らせる実験を続けていた。	げんさくでいきのこったおとこわきゅりあんとなのり、ししゃをよみがえらせるじっけんをつずけていた。	NO_LABEL
しかし、それによってゾンビが溢れ町中がパニックに陥ってしまう。	しかし、それによってぞんびがあふれまちなかがぱにっくにおちいってしまう。	NO_LABEL
