アレックス・ラファエウ・メスキーニは、ブラジル・パラナ州出身の元同国代表サッカー選手。	NO_PRONOUNCE	NO_LABEL
現役時代のポジションはミッドフィールダー。	げんえきじだいのぽじしょんわみっどふぃーるだー。	NO_LABEL
2004年3月11日、グアラニFCから45万ユーロ、4年契約でSCインテルナシオナルへ移籍した。	NO_PRONOUNCE	NO_LABEL
2008年10月12日、故障で離脱したジュリオ・バチスタの代わりにブラジル代表に初招集され、同年10月12日の2010年南アフリカワールドカップ・南米予選・ベネズエラ戦の71分にカカとの交代でピッチに立ち、代表デビューを果たした。	NO_PRONOUNCE	NO_LABEL
2009年2月20日、移籍金5万ユーロで、FCスパルタク・モスクワへ移籍。	NO_PRONOUNCE	NO_LABEL
契約期間は2013年12月31日まで。	けいやくきかんわにせんじゅうさんねんじゅーにがつさんじゅういちにちまで。	NO_LABEL
2011年5月17日、SCコリンチャンス・パウリスタに移籍した。	にせんじゅういちねんごがつじゅうしちにち、えすしぃこりんちゃんすぱうりすたにいせきした。	NO_LABEL
コリンチャンスではコパ・リベルタドーレス制覇に主力として貢献。	こりんちゃんすでわこぱりべるたどーれすせいはにしゅりょくとしてこーけん。	NO_LABEL
2012年7月17日、アル・ガラファに移籍した。	にせんじゅうにねんしちがつじゅうしちにち、あるがらふぁにいせきした。	NO_LABEL
2013年7月20日、古巣SCインテルナシオナルへ復帰した。	にせんじゅうさんねんしちがつはつか、ふるすすぽるちくるーびいんてるなしおなるえふっきした。	NO_LABEL
