アメリカ合衆国下院議長は、アメリカ合衆国下院を主宰する役職、またはその人である。	あめりかがっしゅーこくかいんぎちょーわ、あめりかがっしゅーこくかいんをしゅさいするやくしょく、またわそのひとである。	NO_LABEL
現在開会されているにおける下院議長は、共和党員ポール・ライアンである。	げんざいかいかいされているにおけるかいんぎちょーわ、きょーわとーいんぽーるらいあんである。	NO_LABEL
下院議長は大統領権限継承順位について、副大統領に次ぐ第2位にあり、第3位の上院仮議長より上席にある。	かいんぎちょーわだいとーりょーけんげんけいしょーじゅんいについて、ふくだいとうりょーにつぐだいにーにあり、だいさんいのじょーいんかりぎちょーよりじょーせきにある。	NO_LABEL
このため下院議長は、大統領が万が一執務不能に陥った際、副大統領が欠けている、あるいは副大統領も揃って執務不能に陥った場合には大統領権限を継承することになる極めて重要なポストである。	このためかいんぎちょーわ、だいとーりょーがまんがいちしつむふのーにおちいったさい、ふくだいとうりょーがかけている、あるいわふくだいとうりょーもそろってしつむふのーにおちいったばあいにわだいとーりょーけんげんをけいしょーすることになるきめてじゅーよーなぽすとである。	NO_LABEL
イギリスの庶民院議長などとは異なり、アメリカの下院議長は通常自ら議事を主宰・進行することはせず、自身の所属する政党の他の議員にその任務を委託する。	NO_PRONOUNCE	NO_LABEL
下院と多数派政党の代表者に関わる任務以外に、管理的および手続に関する機能も遂行し、またその選挙区の代表でもあり続ける。	かいんとたすーはせいとーのだいひょーしゃにかかわるにんむいがいに、かんりてきおよびてつずきにかんするきのーもすいこーし、またそのせんきょくのだいひょーでもありつずける。	NO_LABEL
下院議長はアメリカ合衆国議会の新しい会期初日に選出される。	かいんぎちょーわあめりかがしゅうこくぎかいのあたらしいかいきしょにちにせんしゅつされる。	NO_LABEL
選挙はアメリカ合衆国下院書記官によって取り仕切られ、各政党が候補者を指名する。	せんきょわあめりかがっしゅーこくかいんしょきかんによってとりしきられ、かくせいとーがこーほしゃをしめいする。	NO_LABEL
投票の単純多数を得たものが選出され、選出後、下院議員の中で最も議員歴の長い者、下院長老の媒介で宣誓就任する。	とーひょーのたんじゅんたすーをえたものがせんしゅつされ、せんしゅつご、かいんぎーんのなかでもっともぎいんれきのながいしゃ、かいんちょーろーのばいかいでせんせいしゅーにんする。	NO_LABEL
アメリカ合衆国憲法には、下院議長が現職下院議員でなければならないという規定はないが、これまで選出された下院議長は全て現職議員であった。	あめりかがっしゅーこくけんぽーにわ、かいんぎちょーがげんしょくかいんぎーんでなければならないとゆうきていわないが、これまでせんしゅつされたかいんぎちょーわすべてげんしょくぎいんであった。	NO_LABEL
現代のやり方では、下院議長は下院の多数派政党によって選ばれている。	げんだいのやりかたでわ、かいんぎちょーわかいんのたすーはせいとーによってえらばれている。	NO_LABEL
通常下院議員選挙から2、3週間後には誰が新しい下院議長になるか明らかになっている。	NO_PRONOUNCE	NO_LABEL
下院議員は所属する政党の候補者に投票すると考えられている。	かいんぎーんわしょぞくするせいとーのこーほしゃにとーひょーするとかんがえられている。	NO_LABEL
そうしない場合は、通常所属政党の他の誰か、あるいは「現職」に投票する。	NO_PRONOUNCE	NO_LABEL
他の政党の候補者に投票することは大変重大な問題として扱われる。	たのせいとーのこーほしゃにとーひょーすることわたいへんじゅーだいなもんだいとしてあつかわれる。	NO_LABEL
例えば、2001年の下院議長選挙で民主党のジム・トラフィカントが共和党のデニス・ハスタートに投票したとき、民主党はトラフィカントの序列を剥奪した。	NO_PRONOUNCE	NO_LABEL
初代下院議長はフレデリック・ミューレンバーグであり、連邦議会最初の4会期で連邦党員として選出された。	NO_PRONOUNCE	NO_LABEL
しかし、当初の下院議長は大変影響力のある役職ではなく、ヘンリー・クレイが就任して変わった。	しかし、とーしょのかいんぎちょーわたいへんえいきょーりょくのあるやくしょくでわなく、へんりーくれいがしゅーにんしてかわった。	NO_LABEL
クレイはその多くの前任者達とは対照的に、幾つかの議論に参加し、支持する手段を成立させるために影響力を使った。	くれいわそのおーくのぜんにんしゃたちとわたいしょーてきに、いくつかのぎろんにさんかし、しじするしゅだんをせいりつさせるためにえいきょーりょくをつかった。	NO_LABEL
例えば、米英戦争の宣戦布告やクレイの「アメリカ・システム」に関わる様々な法律がそうだった。	NO_PRONOUNCE	NO_LABEL
さらには、1824年アメリカ合衆国大統領選挙でどの候補者も選挙人選挙の過半数を取れなかったとき、大統領は下院で選出されることになった。	さらにわ、せんはっぴゃくにじゅうよんねんあめりかがっしゅーこくだいとーりょーせんきょでどのこーほしゃもせんきょにんせんきょのかはんすーをとれなかったとき、だいとーりょーわかいんでせんしゅつされることになった。	NO_LABEL
下院議長のクレイは最大多数を得ていたアンドルー・ジャクソンの代わりにジョン・クィンシー・アダムズへの支持を表明し、それによってアダムズの当選を確実にした。	かいんぎちょーのくれいわさいだいたすーをえていたあんどるーじゃくそんのかわりにじょんくぃんしーあだむずえのしじをひょーめいし、それによってあだむずのとーせんをかくじつにした。	NO_LABEL
1825年にクレイが議長職を引退した後、再度下院議長の権限は減退した。	せんはっぴゃくにじゅうごねんにくれいがぎちょーしょくをいんたいしたのち、さいどかいんぎちょーのけんげんわげんたいした。	NO_LABEL
しかし、それと同時に下院議長選挙は激しいものになっていった。	しかし、それとどーじにかいんぎちょーせんきょわはげしいものになっていった。	NO_LABEL
南北戦争が近付くと、幾つかの会派がそれぞれ候補者を指名し、しばしばどの候補者も過半数を獲得するのが難しくなった。	なんぼくせんそーがちかずくと、いくつかのかいはがそれぞれこーほしゃをしめいし、しばしばどのこーほしゃもかはんすーをかくとくするのがむずかしくなった。	NO_LABEL
例えば1855年とさらに1859年、下院議長の指名争いは落ち着くまでに2ヶ月間も続いた。	NO_PRONOUNCE	NO_LABEL
下院議長の任期は大変短くなる傾向があった。	かいんぎちょーのにんきわたいへんみじかくなるけいこーがあった。	NO_LABEL
例えば、1839年から1863年の間に、11人の下院議長が存在し、1期を超えて務めた者は1人だけだった。	たとえば、せんはっぴゃくさんじゅうきゅうねんからせんはっぴゃくろくじゅうさんねんのまに、じゅういちにんのかいんぎちょーがそんざいし、いっきをこえてつとめたしゃわひとりだけだった。	NO_LABEL
19世紀の終わり近くなって、下院議長職は大変強力なものに変わり始めた。	じゅうきゅうせいきのおわりちかくなって、かいんぎちょーしょくわたいへんきょーりょくなものにかわりはじめた。	NO_LABEL
下院議長の権限の最も重要な源泉は議院運営委員会委員長職を兼ねたことであり、この委員会は1880年にその仕組みが作られた後は、下院の中でも最も強力な位置にある委員会となった。	かいんぎちょーのけんげんのもっともじゅーよーなげんせんわぎーんうんえいいーんかいいーんちょーしょくをかねたことであり、このいーんかいわせんはっぴゃくはちじゅうねんにそのしくみがつくられたのちわ、かいんのなかでももっともきょーりょくないちにあるいーんかいとなった。	NO_LABEL
さらに、何人かの下院議長は所属政党の中で指導的人物となった。	さらに、なにびとかのかいんぎちょーわしょぞくせいとーのなかでしどーてきじんぶつとなった。	NO_LABEL
例えば、民主党のサミュエル・J・ランドール、ジョン・グリフィン・カーライルおよび、チャールズ・フレデリック・クリスプ、共和党ではジェイムズ・G・ブレイン、トマス・ブラケット・リードおよびジョーゼフ・ガーニー・キャノンがいた。	NO_PRONOUNCE	NO_LABEL
下院議長の権限は、共和党のトマス・ブラケット・リードの任期の間に大きく強化された。	NO_PRONOUNCE	NO_LABEL
リードはその敵対者から「リード皇帝」とも呼ばれており、特に「消滅する定足数」と呼ばれる戦術に対抗することで、少数党による法案の妨害を終わらせようとした。	NO_PRONOUNCE	NO_LABEL
動議に関する採決を拒否することで、少数党は定足数が満たされないようにすることができ、採決結果は無効になった。	どーぎにかんするさいけつをきょひすることで、しょーすーとーわていそくすーがみたされないよーにすることができ、さいけつけっかわむこーになった。	NO_LABEL
しかし、リードは議場にいるが投票を拒んだ者も定足数を決定するときに勘定に入れられると宣言した。	しかし、りーどわぎじょーにいるがとーひょーをこばんだものもていそくすーをけっていするときにかんじょーにいれられるとせんげんした。	NO_LABEL
リードはこのことや他の規則を通じて、民主党が共和党の議事日程を妨害できないようにした。	りーどわこのことやたのきそくをつーじて、みんしゅとーがきょーわとーのぎじにっていをぼーがいできないよーにした。	NO_LABEL
下院議長職は共和党のジョーゼフ・ガーニー・キャノンの任期でその最高点に達した。	NO_PRONOUNCE	NO_LABEL
キャノンは法案成立の過程を異常なくらい統制した。	きゃのんわほーあんせいりつのかていをいじょーなくらいとーせいした。	NO_LABEL
下院の議事日程を決定し、全委員会の委員を指名し、委員長を選択し、議院運営委員会を主宰し、またどの委員会がどの法案を審議するかを決定した。	かいんのぎじにっていをけっていし、ぜんいーんかいのいいんをしめいし、いーんちょーをせんたくし、ぎーんうんえいいーんかいをしゅさいし、またどのいーんかいがどのほーあんをしんぎするかをけっていした。	NO_LABEL
共和党の提案が下院を通過することを確実にするために、活発にその権限を使った。	きょーわとーのていあんがかいんをつーかすることをかくじつにするために、かっぱつにそのけんげんをつかった。	NO_LABEL
しかし1910年、民主党と共和党の不満分子何人かが結託し、下院議長から委員会委員を指名することや議院運営委員会委員長を含め多くの権限を奪った。	しかしせんきゅうひゃくじゅうねん、みんしゅとーときょーわとーのふまんぶんしなんにんかがけったくし、かいんぎちょーからいーんかいいいんをしめいすることやぎーんうんえいいーんかいいーんちょーをふくめおーくのけんげんをうばった。	NO_LABEL
この役職の失われた影響力全てではないが、その多くは15年以上後の下院議長ニコラス・ロングワースが復活させた。	NO_PRONOUNCE	NO_LABEL
20世紀半ば、歴史上でも最大級の影響力を持った下院議長は民主党のだった。	にじっせいきなかば、れきしじょーでもさいだいきゅーのえいきょーりょくをもったかいんぎちょーわみんしゅとーのだった。	NO_LABEL
レイバーンは歴史の中でも最も長期間下院議長職にあった者であり、1940年-1947年、1949年-1953年、および1955年-1961年を務めた。	れいばーんわれきしのなかでももっともちょーきかんかいんぎちょーしょくにあったものであり、せんきゅうひゃくよんじゅうねんまいなすいちきゅうひゃくよんじゅうななねん、せんきゅうひゃくよんじゅうきゅうねんまいなすいちきゅうひゃくごじゅうさんねん、およびせんきゅうひゃくごじゅうごねんまいなすいちきゅうひゃくろくじゅういちねんをつとめた。	NO_LABEL
多くの法案の形成に貢献し、下院委員会には背後で静かに働きかけた。	おーくのほーあんのけいせいにこーけんし、かいんいーんかいにわはいごでしずかにはたらきかけた。	NO_LABEL
フランクリン・ルーズベルトとハリー・S・トルーマン各大統領が提唱する幾つかの国内政策や海外援助計画成立を確実にすることにも貢献した。	ふらんくりんるーずべるととはりーえすとるーまんかくだいとーりょーがていしょーするいくつかのこくないせいさくやかいがいえんじょけいかくせいりつをかくじつにすることにもこーけんした。	NO_LABEL
レイバーンの後継者、民主党のジョン・ウィリアム・マコーマックは幾分影響力の薄い下院議長だったが、これは民主党の若手議員の間にあった不満が特別な原因になった。	NO_PRONOUNCE	NO_LABEL
1970年代半ば、民主党のカール・アルバートの下で下院議長の権限は再び大きくなった。	NO_PRONOUNCE	NO_LABEL
議院運営委員会は1910年の改革以来そうであった半独立的委員会であることを止めた。	ぎーんうんえいいーんかいわせんきゅうひゃくじゅうねんのかいかくいらいそーであったはんどくりつてきいいんかいであることをとめた。	NO_LABEL
その代わりに、再度党指導層の武器になった。	そのかわりに、さいどとーしどーそーのぶきになった。	NO_LABEL
さらに1975年、下院議長は議院運営委員会の委員過半数を指名する権限を認められた。	さらにせんきゅうひゃくななじゅうごねん、かいんぎちょーわぎーんうんえいいーんかいのいいんかはんすーをしめいするけんげんをみとめられた。	NO_LABEL
一方、委員長の権限は抑えられ、下院議長の相対的影響力を増すことになった。	いっぽー、いーんちょーのけんげんわおさえられ、かいんぎちょーのそーたいてきえいきょーりょくをますことになった。	NO_LABEL
アルバートの後継者、民主党のティップ・オニールはロナルド・レーガン大統領の政策に公然と反対したことで著名な下院議長となった。	あるばーとのこーけいしゃ、みんしゅとーのてぃっぷおにーるわろなるどれーがんだいとーりょーのせいさくにこーぜんとはんたいしたことでちょめいなかいんぎちょーとなった。	NO_LABEL
オニールは中断なく下院議長を務めた期間では最長となった。	おにーるわちゅーだんなくかいんぎちょーをつとめたきかんでわさいちょーとなった。	NO_LABEL
オニールはレーガンの国内計画や防衛費に異議を唱えた。	おにーるわれーがんのこくないけいかくやぼーえいひにいぎをとなえた。	NO_LABEL
共和党員は1980年と1982年の選挙運動でオニールをその標的にした。	きょーわとーいんわせんきゅうひゃくはちじゅうねんとせんきゅうひゃくはちじゅうにねんのせんきょうんどーでおにーるをそのひょーてきにした。	NO_LABEL
それでも民主党はどちらの選挙も多数派を維持できた。	それでもみんしゅとーわどちらのせんきょもたすーはをいじできた。	NO_LABEL
党の役割は1994年に逆になった。	とーのやくわりわせんきゅうひゃくきゅうじゅうよねんにぎゃくになった。	NO_LABEL
共和党は40年間少数派に甘んじた後、下院多数派を奪い返した。	きょーわとーわよんじゅうねんかんしょーすーはにあまんじたのち、かいんたすーはをうばいかえした。	NO_LABEL
共和党の下院議長ニュート・ギングリッチは、常にビル・クリントン大統領と対決した。	きょーわとーのかいんぎちょーにゅーとぎんぐりっちわ、つねにびるくりんとんだいとーりょーとたいけつした。	NO_LABEL
特にギングリッチの掲げる「アメリカとの契約」が争いの元だった。	NO_PRONOUNCE	NO_LABEL
ギングリッチは共和党が1998年の議会選挙で敗北し、わずかに多数派を守った時に失脚し、その後継者デニス・ハスタートはかなり目立たない役割を演じた。	ぎんぐりっちわきょーわとーがせんきゅうひゃくきゅうじゅうはちねんのぎかいせんきょではいぼくし、わずかにたすーはをまもったときにしっきゃくし、そのこーけいしゃでにすはすたーとわかなりめだたないやくわりをえんじた。	NO_LABEL
2006年中間選挙で民主党が下院の多数派となった。	にせんろくねんちゅーかんせんきょでみんしゅとーがかいんのたすーはとなった。	NO_LABEL
2007年1月4日に招集されたでナンシー・ペロシが下院議長になり、初めての女性議長となった。	にせんななねんいちがつよっかにしょーしゅーされたでなんしーぺろしがかいんぎちょーになり、はじめてのじょせいぎちょーとなった。	NO_LABEL
歴史を振り返ると、1839年の議長選挙のように幾つかの議論の多い下院議長選挙が行われた。	れきしをふりかえると、せんはっぴゃくさんじゅうきゅうねんのぎちょーせんきょのよーにいくつかのぎろんのおーいかいんぎちょーせんきょがおこなわれた。	NO_LABEL
1839年の場合、議会は12月2日に招集されたが、「ブロードシール戦争」と呼ばれるニュージャージー州での選挙論争のために12月14日まで下院議長選挙を始められなかった。	NO_PRONOUNCE	NO_LABEL
2つの競争関係にある議員団、1つはホイッグ党でもう1つは民主党がニュージャージー州政府の異なる部門から選出されたと証明されていた。	ふたつのきょーそーかんけいにあるぎーんだん、ひとつわほいっぐとーでもーひとつわみんしゅとーがにゅーじゃーじーしゅーせいふのことなるぶもんからせんしゅつされたとしょーめいされていた。	NO_LABEL
問題は、論争の結果がホイッグ党と民主党のどちらが多数派を握るかを決めることになるために複雑だった。	もんだいわ、ろんそーのけっかがほいっぐとーとみんしゅとーのどちらがたすーはをにぎるかをきめることになるためにふくざつだった。	NO_LABEL
どちらの党も敵対する党の代表団が出席している時に下院議長の選挙を認めようとはしなかった。	どちらのとーもてきたいするとーのだいひょーだんがしゅっせきしているときにかいんぎちょーのせんきょをみとめようとわしなかった。	NO_LABEL
最終的に選挙からどちらの代表団も外すことになり、下院議長は12月17日に選出された。	さいしゅーてきにせんきょからどちらのだいひょーだんもはずすことになり、かいんぎちょーわじゅーにがつじゅうななにちにせんしゅつされた。	NO_LABEL
また、1855年のではさらに長い戦いが起こった。	また、せんはっぴゃくごじゅうごねんのではさらにながいたたかいがおこった。	NO_LABEL
新しい共和党はまだ十分に形成されておらず、大半が元ホイッグ党員のかなりの数の政治家が反対党のラベルで議員職を求め出馬した。	あたらしいきょーわとーわまだじゅーぶんにけいせいされておらず、たいはんがもとほいっぐとーいんのかなりのかずのせいじかがはんたいとーのらべるでぎいんしょくをもとめしゅつばした。	NO_LABEL
このラベルは、ホイッグという名前では信用が無くなって放棄されているが、元ホイッグ党員は民主党には反対しているということを知らせる必要があったために使われたと見られている。	このらべるわ、ほいっぐとゆうなまえでわしんよーがなくなってほーきされているが、もとほいっぐとーいんわみんしゅとーにわはんたいしているとゆうことをしらせるひつよーがあったためにつかわれたとみられている。	NO_LABEL
選挙の後、実際に反対党が下院の最大党となり、議員数234に対し、反対党100、民主党83、およびアメリカ党51となった。	NO_PRONOUNCE	NO_LABEL
ノウ・ナッシング党のために、共和党も民主党もその候補者が過半数を得られなかった。	のうなっしんぐとーのために、きょーわとーもみんしゅとーもそのこーほしゃがかはんすーをえられなかった。	NO_LABEL
妥協のために共和党はノウ・ナッシング党候補者ナサニエル・プレンティス・バンクスを指名した。	NO_PRONOUNCE	NO_LABEL
これはアメリカの議会両院で初めて連衡政府ができた例となった。	これわあめりかのぎかいりょーいんではじめてれんこーせいふができたれいとなった。	NO_LABEL
下院は第36期、第37期および第38期でも同じような板挟みに陥った。	かいんわだいさんじゅうろっき、だいさんじゅうななきおよびだいさんじゅうはっきでもおなじよーないたばさみにおちいった。	NO_LABEL
これらの会期で選ばれた3人の下院議長は、皮肉なことに以前のブロードシール戦争の議論でホイッグ党の代表団を証明したニュージャージー州知事のウィリアム・ペニントン、次がガルーシャ・A・グロウ、最後はユリシーズ・グラント政権で副大統領になったスカイラー・コルファクスだった。	NO_PRONOUNCE	NO_LABEL
下院の議長選挙で1回では決まらなかったものは第65期と第72期が最後となった。	かいんのぎちょーせんきょでいっかいでわきまらなかったものわだいろくじゅうごきとだいななじゅうにきがさいごとなった。	NO_LABEL
1917年、3人の進歩党とその他の党の単一議員がそれぞれの候補者に投票したために、共和党と民主党のどちらの候補者も過半票を得られなかった。	せんきゅうひゃくじゅうしちねん、さんにんのしんぽとーとそのたのとーのたんいつぎいんがそれぞれのこーほしゃにとーひょーしたために、きょーわとーとみんしゅとーのどちらのこーほしゃもかはんひょーをえられなかった。	NO_LABEL
共和党は下院で最大党派だったが進歩党の支持のためにジェイムズ・クラークが下院議長に留まった。	きょーわとーわかいんでさいだいとーはだったがしんぽとーのしじのためにじぇいむずくらーくがかいんぎちょーにとまった。	NO_LABEL
1931年、共和党と民主党の議員数はどちらも217人となり、ミネソタ農夫労働者党の1人がどちらに投票するかを決める者となった。	せんきゅうひゃくさんじゅういちね、きょーわとーとみんしゅとーのぎいんすーわどちらもにひゃくじゅうしちにんとなり、みねそたのーふろーどーしゃとーのひとりがどちらにとーひょーするかをきめるものとなった。	NO_LABEL
農夫労働者党は最終的に民主党候補者ジョン・ナンス・ガーナーに投票し、ナンスは後にフランクリン・ルーズベルト政権の副大統領になった。	NO_PRONOUNCE	NO_LABEL
最近の下院議長選出で注目すべきは1999年のものだった。	さいきんのかいんぎちょーせんしゅつでちゅーもくすべきわせんきゅうひゃくきゅうじゅうきゅうねんのものだった。	NO_LABEL
1998年の総選挙で共和党の成績が揮わなかったことを広く責められたニュート・ギングリッチ議長は再選を求めず、下院からの引退を宣言した。	せんきゅうひゃくきゅうじゅうはちねんのそーせんきょできょーわとーのせいせきがふるわなかったことをひろくせめられたにゅーとぎんぐりっちぎちょーわさいせんをもとめず、かいんからのいんたいをせんげんした。	NO_LABEL
その予想された後継者は歳出委員会委員長のボブ・リビングストンであり、共和党大会でも反対無く候補指名を受けた。	NO_PRONOUNCE	NO_LABEL
しかし、リビングストンはビル・クリントンのセクハラ裁判でその偽証を公に批判していた者だったが、自身が不倫に関わっていたことが暴露された後で突然下院議員を辞職した。	しかし、りびんぐすとんわびるくりんとんのせくはらさいばんでそのぎしょーをおーやけにひはんしていたものだったが、じしんがふりんにかかわっていたことがばくろされたのちでとつぜんかいんぎーんをじしょくした。	NO_LABEL
その結果、次席のデニス・ハスタートが下院議長に選ばれて務めることになった。	そのけっか、じせきのでにすはすたーとがかいんぎちょーにえらばれてつとめることになった。	NO_LABEL
2006年11月16日、当時下院民主党院内総務だったナンシー・ペロシが次の下院議長になるべく民主党から選ばれた。	にせんろくねんじゅーいちがつじゅうろくにち、とーじかいんみんしゅとーいんないそーむだったなんしーぺろしがつぎのかいんぎちょーになるべくみんしゅとーからえらばれた。	NO_LABEL
は2007年1月4日に招集され、ペロシは共和党候補者ジョン・ベイナーと争い、233対202の票決で第60代下院議長に選出された。	NO_PRONOUNCE	NO_LABEL
ペロシは下院議長に選ばれた最初の女性であり、当然ながらアメリカ合衆国大統領の承継順位第2位にあった。	ぺろしわかいんぎちょーにえらばれたさいしょのじょせいであり、とーぜんながらあめりかがっしゅーこくだいとうりょーのしょーけいじゅんいだいにーにあった。	NO_LABEL
第111議会でも再選され、第112議会で民主党が多数党の地位を失うまで2期務めた。	NO_PRONOUNCE	NO_LABEL
アメリカ合衆国憲法には下院議長の政治的役割を規定していない。	あめりかがっしゅーこくけんぽーにわかいんぎちょーのせいじてきやくわりをきていしていない。	NO_LABEL
しかしこの役職は歴史の中で成長してくるにつれて、はっきりと党派的役割と解釈され、綿密に非党派的であることが目されるイギリス庶民院議長とは大変異なっている。	しかしこのやくしょくわれきしのなかでせいちょーしてくるにつれて、はっきりととーはてきやくわりとかいしゃくされ、めんみつにひとーはてきであることがめされるいぎりすしょみんいんぎちょーとわたいへんことなっている。	NO_LABEL
アメリカ合衆国の下院議長は伝統的に下院多数党の頭であり、多数党院内総務の役割を超えている。	あめりかがっしゅーこくのかいんぎちょーわでんとーてきにかいんたすーとーのあたまであり、たすーとーいんないそーむのやくわりをこえている。	NO_LABEL
しかし、下院議長は通常議事に参加しないし、議場で投票することは滅多にない。	しかし、かいんぎちょーわつーじょーぎじにさんかしないし、ぎじょーでとーひょーすることわめったにない。	NO_LABEL
下院議長は多数党が支持する法案を下院で成立させることを保証する義務がある。	かいんぎちょーわたすーとーがしじするほーあんをかいんでせいりつさせることをほしょーするぎむがある。	NO_LABEL
この目標を達成するために、下院議長はいつ各法案を議題にするかを決定する権限を使っても良い。	このもくひょーをたっせいするために、かいんぎちょーわいつかくほーあんをぎだいにするかをけっていするけんげんをつかってもよい。	NO_LABEL
多数党の下院運営委員会も宰領する。	たすーとーのかいんうんえいいーんかいもさいりょーする。	NO_LABEL
下院議長は下院多数党の首長として機能するが、上院の臨時議長は必ずしもそうはならず、その役職は主に儀礼と名誉のためのものである。	かいんぎちょーわかいんたすーとーのしゅちょーとしてきのーするが、じょーいんのりんじぎちょーわかならずしもそーわならず、そのやくしょくわおもにぎれいとめいよのためのものである。	NO_LABEL
下院議長と大統領が同じ党に属するとき、下院議長は通常多数党指導者としてそれほど顕著な役割を果たさない。	かいんぎちょーとだいとーりょーがおなじとーにぞくするとき、かいんぎちょーわつーじょーたすーとーしどーしゃとしてそれほどけんちょなやくわりをはたさない。	NO_LABEL
例えば、デニス・ハスタートは同じ共和党のジョージ・W・ブッシュ大統領の任期中、重要性の大変低い役割となった。	たとえば、でにすはすたーとわおなじきょーわとーのじょーじうぉーかーぶっしゅだいとーりょーのにんきちゅー、じゅーよーせいのたいへんひくいやくわりとなった。	NO_LABEL
一方下院議長と大統領が対立する政党に属するとき、下院議長の公的役割と影響力は増大する。	いっぽーかいんぎちょーとだいとーりょーがたいりつするせいとーにぞくするとき、かいんぎちょーのこーてきやくわりとえいきょーりょくわぞーだいする。	NO_LABEL
下院議長は反対党の最高位にある者であり、通常大統領の議題にとって主要な公的対立者である。	かいんぎちょーわはんたいとーのさいこーいにあるものであり、つーじょーだいとーりょーのぎだいにとってしゅよーなこーてきたいりつしゃである。	NO_LABEL
最近の例としてロナルド・レーガン大統領の国内および防衛政策についてうるさい反対者だったティップ・オニール、国内政策の統制についてビル・クリントンと激しく争ったニュート・ギングリッチ、および国内政策やイラク戦争でジョージ・W・ブッシュと衝突したナンシー・ペロシが挙げられる。	さいきんのれいとしてろなるどれーがんだいとーりょーのこくないおよびぼーえいせいさくについてうるさいはんたいしゃだったてぃっぷおにーる、こくないせいさくのとーせいについてびるくりんとんとはげしくあらそったにゅーとぎんぐりっち、およびこくないせいさくやいらくせんそーでじょーじうぉーかーぶっしゅとしょーとつしたなんしーぺろしがあげられる。	NO_LABEL
下院議長は下院を主宰する役職者として様々な権限があるが、通常は多数党の他の議員にそれらを委託する。	かいんぎちょーわかいんをしゅさいするやくしょくしゃとしてさまざまなけんげんがあるが、つーじょーわたすーとーのほかのぎいんにそれらをいたくする。	NO_LABEL
議長は議員を臨時議長に指名し下院を主宰させることができる。	ぎちょーわぎいんをりんじぎちょーにしめいしかいんをしゅさいさせることができる。	NO_LABEL
重要な議論があるとき、臨時議長は宰領の能力故に選ばれた多数党の古参議員となるのが通常である。	じゅーよーなぎろんがあるとき、りんじぎちょーわさいりょーののーりょくゆえにえらばれたたすーとーのこさんぎいんとなるのがつーじょーである。	NO_LABEL
その他の場合、より若手の議員が宰領を任されて下院の規則や手続に関する経験を積むようにされている。	そのたのばあい、よりわかてのぎいんがさいりょーをまかされてかいんのきそくやてつずきにかんするけいけんをつむよーにされている。	NO_LABEL
議長は特別の目的で臨時議長を指名することもできる。	ぎちょーわとくべつのもくてきでりんじぎちょーをしめいすることもできる。	NO_LABEL
例えば、長い休暇の間には、ワシントンD.C.に近い選挙区選出の議員が成立した法案に署名するために臨時議長に指名される。	たとえば、ながいきゅーかのまにわ、わしんとんでぃーしーにちかいせんきょくせんしゅつのぎいんがせいりつしたほーあんにしょめいするためにりんじぎちょーにしめいされる。	NO_LABEL
議長席にあって本会議を主宰する役職者は何時も「ミスター・スピーカー」あるいは「マダム・スピーカー」と呼ばれ、これは議長が自ら主宰していないときでも同じである。	NO_PRONOUNCE	NO_LABEL
本会議を全院委員会に切り替えるに際して、議長は1人の議員を全院委員長に指名し、全院委員長またはその指名する代行者は本会議場の議長席にあって議事を司る。	ほんかいぎをぜんいんいーんかいにきりかえるにさいして、ぎちょーわひとりのぎいんをぜんいんいーんちょーにしめいし、ぜんいんいーんちょーまたわそのしめいするだいこーしゃわほんかいぎじょーのぎちょーせきにあってぎじをつかさどる。	NO_LABEL
全院委員長に限らず、委員長およびその代行者は「ミスター・チェアマン」あるいは「マダム・チェアウーマン」と呼ばれ、各々の委員会を主宰する。	NO_PRONOUNCE	NO_LABEL
議員は発言に際して議長席の議事主宰者の許可を求めなければならない。	ぎいんわはつげんにさいしてぎちょーせきのぎじしゅさいしゃのきょかをもとめなければならない。	NO_LABEL
議事主宰者は、発言を許可するか否かの裁定によって議論の流れを制御できる。	ぎじしゅさいしゃわ、はつげんをきょかするかいなかのさいていによってぎろんのながれをせいぎょできる。	NO_LABEL
議事主宰者はあらゆる議事進行上の裁定を下すことができるが、議場に対して諮っても良い。	ぎじしゅさいしゃわあらゆるぎじしんこーじょーのさいていをくだすことができるが、ぎじょーにたいしてはかってもよい。	NO_LABEL
議長は下院における秩序を維持する責任があり、守衛官に命じ、議員その他の者に対して規則に従うことを強制する権限もある。	ぎちょーわかいんにおけるちつじょをいじするせきにんがあり、しゅえいかんにめいじ、ぎいんそのたのものにたいしてきそくにしたがうことをきょーせいするけんげんもある。	NO_LABEL
下院議長の権限と義務は議場を主宰すること以外にも及んでいる。	かいんぎちょーのけんげんとぎむわぎじょーをしゅさいすることいがいにもおよんでいる。	NO_LABEL
特に議長は委員会の進行に強い影響力を持っている。	とくにぎちょーわいーんかいのしんこーにつよいえいきょーりょくをもっている。	NO_LABEL
また、多数党会派の承認を得て、議院運営委員会委員13人のうち9人を選出することになっている。	また、たすーとーかいはのしょーにんをえて、ぎーんうんえいいーんかいいいんじゅうさんにんのうちくにんをせんしゅつすることになっている。	NO_LABEL
さらに、特別委員会や協議委員会の全委員を指名している。	さらに、とくべついーんかいやきょーぎいーんかいのぜんいいんをしめいしている。	NO_LABEL
また法案が提出されたとき、どの委員会でそれを検討するかを決定する。	またほーあんがていしゅつされたとき、どのいーんかいでそれをけんとーするかをけっていする。	NO_LABEL
議長は議員として議論と投票に参加できる資格がある。	ぎちょーわぎいんとしてぎろんととーひょーにさんかできるしかくがある。	NO_LABEL
しかし、慣習的には特別な事情が或る場合を除きそれは行わない。	しかし、かんしゅーてきにわとくべつなじじょーがあるるばあいをのぞきそれわおこなわない。	NO_LABEL
通常その1票が決着を付けることになるとき、および非常に重要な問題にのみ実行する。	つーじょーそのいっぴょーがけっちゃくをつけることになるとき、およびひじょーにじゅーよーなもんだいにのみじっこーする。	NO_LABEL
議会の両院合同会議や合同集会が下院議場で開催されるので、下院議長は、アメリカ合衆国憲法修正第12条で規定される上院議長が選挙人選挙票を開票し大統領当選者を宣言するために招集される合同会議を主宰する場合を除き、合同会議や集会を全て主宰する。	ぎかいのりょーいんごーどーかいぎやごーどーしゅーかいがかいんぎじょーでかいさいされるので、かいんぎちょーわ、あめりかがっしゅーこくけんぽーしゅーせいだいじゅうにじょーできていされるじょーいんぎちょーがせんきょにんせんきょひょーをかいひょーしだいとーりょーとーせんしゃをせんげんするためにしょーしゅーされるごーどーかいぎをしゅさいするばあいをのぞき、ごーどーかいぎやしゅーかいをすべてしゅさいする。	NO_LABEL
下院議長はさらに、下院の役職者、すなわち下院書記官、守衛官、最高総務責任者および下院付き牧師を監督する責任がある。	かいんぎちょーわさらに、かいんのやくしょくしゃ、すなわちかいんしょきかん、しゅえいかん、さいこーそーむせきにんしゃおよびかいんつきぼくしをかんとくするせきにんがある。	NO_LABEL
牧師を除きこれら役職者を解任できる。	ぼくしをのぞきこれらやくしょくしゃをかいにんできる。	NO_LABEL
下院議長は下院歴史官と法務顧問を指名し、また下院多数党院内総務および少数党院内総務と共に下院監察長官を指名する。	かいんぎちょーわかいんれきしかんとほーむこもんをしめいし、またしたいんたすーとーいんないそーむおよびしょーすーとーいんないそーむとともにかいんかんさつちょーかんをしめいする。	NO_LABEL
下院議長は1947年の大統領承継法により、大統領権限継承順位は副大統領に次ぐ第2位となっている。	かいんぎちょーわせんきゅうひゃくよんじゅうななねのだいとーりょーしょーけいほーにより、だいとーりょーけんげんけいしょーじゅんいわふくだいとうりょーにつぐだいにーとなっている。	NO_LABEL
その後には、第3位が上院仮議長、第4位が国務長官、以下連邦政府各省の長官と続く。	そのごにわ、だいさんいがじょーいんかりぎちょー、だいよんいがこくむちょーかん、いかれんぽーせいふかくしょーのちょーかんとつずく。	NO_LABEL
今日まで大統領継承法の適用により下院議長が大統領代行になった例はない。	きょーまでだいとーりょーけいしょーほーのてきよーによりかいんぎちょーがだいとーりょーだいこーになったれいわない。	NO_LABEL
しかし1973年10月10日にスピロ・アグニュー副大統領がメリーランド州知事時代の脱税と収賄容疑で起訴が確実になったことを受けて辞任すると、これと平行して背後関係の究明が進んでいたウォーターゲート事件でリチャード・ニクソン大統領も早晩辞任に追い込まれることが必至とみられていたことから、民主党の下院議長の大統領代行就任が現実味を帯びる一幕があった。	しかしせんきゅうひゃくななじゅうさんねんじゅーがつとおかにすぴろあぐにゅーふくだいとうりょーがめりーらんどしゅーちじじだいのだつぜいとしゅーわいよーぎできそがかくじつになったことをうけてじにんすると、これとへいこーしてはいごかんけいのきゅーめいがすすんでいたうぉーたーげーとじけんでりちゃーどにくそんだいとーりょーもそーばんじにんにおいこまれることがひっしとみられていたことから、みんしゅとーのかいんぎちょーのだいとーりょーだいこーしゅーにんがげんじつみをおびるひとまくがあった。	NO_LABEL
実際にはアグニューの辞任後ニクソンは直ちに議会関係者と後任副大統領人事の協議に入り、2日後にはアルバートらの強い勧めで共和党下院院内総務のジェラルド・フォードを憲法修正第25条にもとづく後任副大統領に指名、上下両院の承認を経て2か月弱後の12月6日にはフォードの副大統領就任にこぎ着けたことから、そうした事態は避けられた。	NO_PRONOUNCE	NO_LABEL
それでもアメリカ政府は下院議長の継承順位を重視しており、2001年9月11日のアメリカ同時多発テロ事件の直後から2011年に至るおよそ10年間は、下院議長が選挙地盤その他へ公務で移動する際にも大統領・副大統領同様に空軍差し回しの専用機が使われている。	NO_PRONOUNCE	NO_LABEL
憲法修正第25条により大統領が職務遂行不能になった場合、あるいは職務遂行が再開できるようになった場合に、大統領がその旨を報告しなければならない対象者も下院議長と上院仮議長の両者となっている。	NO_PRONOUNCE	NO_LABEL
