アンジェリカは、日本のタレント、シンガーソングライター。	あんじぇりかわ、にっぽんのたれんと、しんがーそんぐらいたー。	NO_LABEL
神奈川県鎌倉市生まれ。	かながわけんかまくらしうまれ。	NO_LABEL
身長156cm。	しんちょーひゃくごじゅうろくせんちめーとる。	NO_LABEL
B型。	びーがた。	NO_LABEL
少女時代、美空ひばりのマネージャーにスカウトされ、ドラマ「暴れん坊将軍」ゲスト主演で子役デビュー。	NO_PRONOUNCE	NO_LABEL
2013年日本クラウンから日本コロムビアに移籍。	にせんじゅうさんねんにっぽんくらうんからにほんころむびあにいせき。	NO_LABEL
これまでに1000件以上のホテル・旅館・温泉のリポート、世界40ヶ国以上を旅している。	NO_PRONOUNCE	NO_LABEL
生後間もなく赤ちゃんモデルとなる。	せいごまもなくあかちゃんもでるとなる。	NO_LABEL
リカちゃん人形のTVコマーシャルに出演。	りかちゃんにんぎょーのてぃーぶいこまーしゃるにしゅつえん。	NO_LABEL
1997年から2000年まで「横浜ドリームランド」のイメージガール「RIKAちゃん」として、TVコマーシャル、パンフレット、チケット、園内イベントのミュージカル、等に主演。	NO_PRONOUNCE	NO_LABEL
1999年 テレビ朝日系列ドラマ「暴れん坊将軍」第33話「辻斬り必殺剣の秘密!?幻の御前試合」のゲスト主演として、子役「本田りか」名義でデビュー。	NO_PRONOUNCE	NO_LABEL
1999年頃 大船「ホテルKOYO」 吊り広告モデルに登場。	NO_PRONOUNCE	NO_LABEL
多数のテレビコマーシャルに出演。	たすーのてれびこまーしゃるにしゅつえん。	NO_LABEL
その後も、TV・ラジオ・雑誌などで、女優・タレント・パーソナリティーとして活動。	NO_PRONOUNCE	NO_LABEL
2006年「アスタ・ラ・ビスタまた明日」（クレジット：大前あつみ&サザンクロス＋アンジェリカ)	NO_PRONOUNCE	NO_LABEL
12歳から19歳までの作品を集めたファーストアルバム「1st step」発売。	NO_PRONOUNCE	NO_LABEL
2008年2月23日～24日 「Musical in Tokyo Vol.3 『ダウンタウンエンジェル』」出演。	NO_PRONOUNCE	NO_LABEL
2008年5月1日～7月31日 ポッドキャストラジオ「アンジェリカの天使の裏」配信。	NO_PRONOUNCE	NO_LABEL
2008年後半よりシンガーソングライターとしての活動を本格化し、12月23日にダウンロード限定シングルみんな誰かの運命の人、Happy Contractを配信開始。	NO_PRONOUNCE	NO_LABEL
2009年5月9日 高田馬場「Live Cafe "mono"」にて、ライヴ出演。	NO_PRONOUNCE	NO_LABEL
引き続き2009年6月26日から定例のライヴを開始。	ひきつずきにせんきゅうねんろくがつにじゅうろくにちからていれいのらいぶをかいし。	NO_LABEL
音楽祭などに出演。	おんがくさいなどにしゅつえん。	NO_LABEL
2010年 デジタル写真集『ドーナツ浮き輪でシロップの海を泳ぐのですIN HAWAII』発売。	NO_PRONOUNCE	NO_LABEL
2011年 CD＋豪華DVDミニアルバム「五線譜の天使」をリリース。	NO_PRONOUNCE	NO_LABEL
YouTubeでPVが公開されると一夜にして5000回以上の再生回数を記録。	ゆーちゅーぶでぴーぶいがこーかいされるといちやにしてごせんかいいじょーのさいせいかいすーをきろく。	NO_LABEL
ダンス経験が豊富なのにもかかわらず「プライドを捨てて踊った」、独得のゆるかわと称される奇妙なダンスが注目を集めている。	NO_PRONOUNCE	NO_LABEL
2012年5月25日シングル 見上げる空はひとつ2012年5月25日発売。	にせんじゅうにねんごがつにじゅうごにちしんぐるみあげるそらわひとつにせんじゅうにねんごがつにじゅうごにちはつばい。	NO_LABEL
ちばテレビ「シュウチャンのお気楽道中」テレビ埼玉 「よかにせどん de DON」エンディングテーマ。	NO_PRONOUNCE	NO_LABEL
カラオケ DAM選曲番号：2362-25 JOYSOUND 選曲番号：197176 UGA選曲番号：4916-14	NO_PRONOUNCE	NO_LABEL
2012年8月1日シングル「思い出のパーツ」c/w「MeltingMoments～愛は量り売り～。	NO_PRONOUNCE	NO_LABEL
ちばテレビ「シュウチャンのお気楽道中」テレビ埼玉 「よかにせどん de DON」エンディングテーマ	NO_PRONOUNCE	NO_LABEL
山野楽器等、各地のCDショップのウィークリーチャートで4位。	やまのがっきとー、かくちのしーでぃーしょっぷのうぃーくりーちゃーとでよんい。	NO_LABEL
2012年8月14日放送 NHK BSプレミアム「桃源紀行 七つの幸せ“鎌倉編”」レポーター、ナレーターを担当。	NO_PRONOUNCE	NO_LABEL
2013年日本クラウンから日本コロムビアに移籍。	にせんじゅうさんねんにっぽんくらうんからにほんころむびあにいせき。	NO_LABEL
2013年1月31日放送 NHK BS プレミアム「桃源紀行 七つの幸せ」レポーター、ナレーターを担当。	NO_PRONOUNCE	NO_LABEL
番組内で書いていた譜面、歌唱した曲は「思い出のパーツ」。	NO_PRONOUNCE	NO_LABEL
2013年2月15日放送 「夕なび」ゲスト出演。	NO_PRONOUNCE	NO_LABEL
2008年4月15日〜テレビ埼玉「アンジェリカとよかにせどんの旅物語」レギュラ番組スタート。	NO_PRONOUNCE	NO_LABEL
2014年8月7日〜 チバテレビ 「旅うた杏樹璃香」レギュラ番組スタート。	NO_PRONOUNCE	NO_LABEL
 別名義でのシングルも発売。	べつめいぎでのしんぐるもはつばい。	NO_LABEL
2014年9月21日放送 BS朝日 「新・平成歌謡塾」ゲスト出演。	NO_PRONOUNCE	NO_LABEL
2014年12月　歌う『“戦場のメリークリスマス”』を皮切りにクラシックやトラディショナル・ミュージックに歌詞を書き下ろしたクラシカル・クロスオーバー作品や森山直太朗のさくら、山下達郎のクリスマス・イブほか、カバー作品、アルバム『スタジオジブリ❤️アンジェリカ』等さまざまな作品を発表し続けている。	NO_PRONOUNCE	NO_LABEL
アンジェリカの名前は、ギリシャ語で天使の意味。	あんじぇりかのなまえわ、ぎりしゃごでてんしのいみ。	NO_LABEL
両親は共に帰国子女である。	りょーしんわともにきこくしじょである。	NO_LABEL
杏樹璃香の名前は日本コロムビアのプロデューサーが、別名義でいいから演歌を歌って欲しいと、自宅まで説得しに押し掛け、演歌を歌う際にはアンジェリカではなく漢字名義にしたと番組で明かしている。	あんじぇりかのなまえわにほんころむびあのぷろでゅーさーが、べつめいぎでいいからえんかをうたってほしいと、じたくまでせっとくしにおしかけ、えんかをうたうさいにわあんじぇりかでわなくかんじめいぎにしたとばんぐみであかしている。	NO_LABEL
「小柄な箱入り娘」その反動から世界を旅する人生になったとも語っている。	NO_PRONOUNCE	NO_LABEL
小顔で目が大きく「未だに子役顔」。	NO_PRONOUNCE	NO_LABEL
子供のころから読書が趣味だったが、書斎にこもりがちなのは不健康と思い、できるだけカフェや公園で読むよう心がけている。	こどものころからどくしょがしゅみだったが、しょさいにこもりがちなのわふけんこーとおもい、できるだけかふぇやこーえんでよむよーこころがけている。	NO_LABEL
また曲も海の見える公園などで書いている。	またきょくもうみのみえるこーえんなどでかいている。	NO_LABEL
さまざまな声色を持っており、ポッドキャストラジオ「アンジェリカの天使の裏」では、アニメ声から低い含み笑いまで聞くことができる。	NO_PRONOUNCE	NO_LABEL
同番組で、声はその時の気分によって色々に変わる、と本人が説明している。	どーばんぐみで、こえわそのときのきぶんによっていろいろにかわる、とほんにんがせつめいしている。	NO_LABEL
明るく社交的である。	あかるくしゃこーてきである。	NO_LABEL
人と話をするのが好きだが、自身でも『ブラック』と表現するように、時としてぞんざいな言葉を使ってみたり、ブラックジョークを言う事もあるようである。	NO_PRONOUNCE	NO_LABEL
しかし悪気はなく、現場の雰囲気を和やかにしている。	しかしわるぎわなく、げんばのふんいきをなごやかにしている。	NO_LABEL
まめな性格で、ブログは自分自身で毎日数件の記事を写真付きで掲載。	まめなせいかくで、ぶろぐわじぶんじしんでまいにちすーけんのきじをしゃしんつきでけいさい。	NO_LABEL
2008年は、4月14日の開設以来、5月までの無更新日は9回のみで、2008年6月1日から2009年10月10日までは毎日欠かさずに更新している。	にせんはちねんわ、しがつじゅうよっかのかいせついらい、ごがつまでのむこーしんびわきゅうかいのみで、にせんはちねんろくがつついたちからにせんきゅうねんじゅーがつとおかまでわまいにちかかさずにこーしんしている。	NO_LABEL
ブログ記事読者の多種多様なコメントに対して逐一、当意即妙なコメントを短時間のうちに返しているように、頭の回転も早い。	ぶろぐきじどくしゃのたしゅたよーなこめんとにたいしてちくいち、とーいそくみょーなこめんとをたんじかんのうちにかえしているよーに、あたまのかいてんもはやい。	NO_LABEL
情熱的・行動的な側面もあり、ヘリコプターからの夜景の美しさに感激して「免許取りたい」と言い出し、友人に説得され「来世まで待つ」と諦めた、とのエピソードもある。	NO_PRONOUNCE	NO_LABEL
「高いところが好き」。	NO_PRONOUNCE	NO_LABEL
その他、座右の銘は「棚からぼたもち」・「生きてるだけで丸儲け」、好きな言葉は「ひとまかせ」、自身の印象は「カラフル」。	NO_PRONOUNCE	NO_LABEL
好きな異性のタイプは、穏やかな人。	すきないせいのたいぷわ、おだやかなひと。	NO_LABEL
等身大で生きている人と番組で語り、ポイントを貯めたり、クーポン券を使用する男性について言及され、「カッコイイと思う」・「堅実的で素敵」と述べている。	NO_PRONOUNCE	NO_LABEL
「音楽、作詞、写真、美しいものを眺める事」と紹介されている。	NO_PRONOUNCE	NO_LABEL
「写真」はデジタルカメラと携帯電話を併用し、作品の一部は自身のブログで見ることが出来る。	NO_PRONOUNCE	NO_LABEL
「美しいものを眺める事」は、自身のブログで「キラキラしたものが好き」と言う通り、東京都心などのイルミネーションを撮影して紹介している。	NO_PRONOUNCE	NO_LABEL
特にLEDが大好きで、青色LED発明者の一人である中村修二に対し、尊敬の念を述べている。	とくにえるいーでぃーがだいすきで、あおいろえるいーでぃーはつめいしゃのひとりであるなかむらしゅーじにたいし、そんけいのねんをのべている。	NO_LABEL
好きな音楽は、クラシック、ケルト音楽からエレクトロニカ、ロックまで幅広く、楽器はピアノ、ヴァイオリンを得意としている。	すきなおんがくわ、くらしっく、けるとおんがくからえれくとろにか、ろっくまではばひろく、がっきわぴあの、ばいおりんをとくいとしている。	NO_LABEL
料理、ダンス、乗馬、太極拳、ヴァイオリン、バトントワリング、ものまね、と紹介されている。	りょーり、だんす、じょーば、たいきょくけん、ばいおりん、ばとんとわりんぐ、ものまね、としょーかいされている。	NO_LABEL
ライヴステージを自ら「トークショー」と称するほど、MCを得意としている。	NO_PRONOUNCE	NO_LABEL
本人が真面目に話していても客席の笑いを誘うため、「お笑いライヴ」とも言っている。	NO_PRONOUNCE	NO_LABEL
「目指すは『女・高田純次』」との言もある。	NO_PRONOUNCE	NO_LABEL
「競わないで済むものが好き」とブログで述べている。	NO_PRONOUNCE	NO_LABEL
ゴルフは番組でいきなりコースを回った腕前である。	ごるふわばんぐみでいきなりこーすをまわったうでまえである。	NO_LABEL
また時々、乗馬をしている模様。	またときどき、じょーばをしているもよー。	NO_LABEL
逆に不得意なのは水泳で、ブログやラジオで「カナヅチ」と自認している。	NO_PRONOUNCE	NO_LABEL
F1などモータースポーツが好きで、サーキットでも度々目撃されている。	えふわんなどもーたーすぽーつがすきで、さーきっとでもたびたびもくげきされている。	NO_LABEL
テレビ番組のレポーターとして、世界40ヶ国以上、毎月のように、各地の温泉旅館にも出掛けている。	NO_PRONOUNCE	NO_LABEL
なお番組では入浴シーンも放送されるが、肌の露出はきわめて控え目で、必ずバスタオルを着用している。	なおばんぐみでわにゅーよくしーんもほーそーされるが、はだのろしゅつわきわめてひかえめで、かならずばすたおるをちゃくよーしている。	NO_LABEL
ポッドキャストラジオ「アンジェリカの天使の裏」では、撮影中にバスタオルが外れない裏技も紹介している。	NO_PRONOUNCE	NO_LABEL
魚介類が好きとブログでコメントしている。	ぎょかいるいがすきとぶろぐでこめんとしている。	NO_LABEL
特に、美しいものを美味しく頂くのが好きなようで、テレビ取材が多いためもあるが、「お友達のフグさん」と表現しているほどに、ふぐ刺しや活け作りなどは、ブログでも登場する機会が多い。	NO_PRONOUNCE	NO_LABEL
自身のブログによれば、普段好んで飲むのはペリエやジンジャエールなど。	じしんのぶろぐによれば、ふだんこのんでのむのわぺりえやじんじゃえーるなど。	NO_LABEL
ペリエは冷蔵庫に常備しているとも述べている。	ぺりえわれいぞーこにじょーびしているとものべている。	NO_LABEL
アルコール類はほとんど飲めず、下戸と告白。	あるこーるるいわほとんどのめず、げことこくはく。	NO_LABEL
2008年12月4日のアメーバブログGGのクリスマスパーティで、ウェルカムドリンクをジュースと勘違いし、ふらふらになった経験を告白している。	NO_PRONOUNCE	NO_LABEL
コアなファンが、定期的に送っているシャンパンを、『お友達のヴーヴ・クリコさん』と表現し、ブログで紹介した事がある。	NO_PRONOUNCE	NO_LABEL
しかし、全てお風呂に入れているとの疑惑をもたれている。	しかし、すべておふろにいれているとのぎわくをもたれている。	NO_LABEL
アンコが好き。	あんこがすき。	NO_LABEL
親しい友人には「アン子」と呼ばれているため、アンコを食べるたびに「共食い」と、はやされるそうである。	NO_PRONOUNCE	NO_LABEL
チャイコフスキーヘンデル、バッハ、ヴィヴァルディといったクラシック音楽の人物を始め、主に海外の音楽家が好みである。	NO_PRONOUNCE	NO_LABEL
関東地区のテレビ局の下記番組のメインキャスター。	かんとーちくのてれびきょくのかきばんぐみのめいんきゃすたー。	NO_LABEL
番組中のミニドラマ「宇宙星人アンちゃん」にも主演している。	NO_PRONOUNCE	NO_LABEL
ちばテレビ「シュウチャンのお気楽道中」テレビ埼玉 「よかにせどん de DON」エンディングテーマ	NO_PRONOUNCE	NO_LABEL
2012年8月1日発売。	にせんじゅうにねんはちがつついたちはつばい。	NO_LABEL
6月13日よりiTunesから先行配信開始	ろくがつじゅうさんにちよりあいちゅーんずからせんこーはいしんかいし	NO_LABEL
ちばテレビ「シュウチャンのお気楽道中」テレビ埼玉 「よかにせどん de DON」エンディングテーマ	NO_PRONOUNCE	NO_LABEL
カラオケ DAM選曲番号：2362-25 JOYSOUND 選曲番号：197176 UGA選曲番号：4916-14	NO_PRONOUNCE	NO_LABEL
ライヴ in 藤沢 DRAGON 2008年12月29日	らいぶいんふじさわどらごんにせんはちねんじゅーにがつにじゅうきゅうにち	NO_LABEL
2010年4月30日発売	にせんじゅうねんしがつさんじゅうにちはつばい	NO_LABEL
「ドーナッツの浮き輪でシロップの海を泳ぐのです♪in Hawaii 」	NO_PRONOUNCE	NO_LABEL
全編ハワイ撮りおろしの初デジタル写真集	ぜんぺんはわいとりおろしのはつでじたるしゃしんしゅー	NO_LABEL
