アナヴォン・ドゥ・ギャンガン・コート・ダルモール（）は、フランス・ガンガンを本拠地とするサッカークラブ。	NO_PRONOUNCE	NO_LABEL
1912年にクラブは創設。	せんきゅうひゃくじゅうにねんにくらぶわそーせつ。	NO_LABEL
1995-96シーズンにクラブ史上初めてディヴィジョン・アンに昇格し、1997-98シーズンまでの3シーズン在籍した。	NO_PRONOUNCE	NO_LABEL
昇格初年度には10位の成績を収め、これにより出場権を獲得したUEFAインタートトカップ 1996で優勝を果たし、1997年のクープ・ドゥ・フランスで準優勝などの実績を残した。	NO_PRONOUNCE	NO_LABEL
その後2部へ降格したが2001-02シーズンに再びディヴィジョン・アンに昇格し、2003-04シーズンまで4シーズン在籍。	NO_PRONOUNCE	NO_LABEL
2002-03シーズンの7位がクラブ史上最高成績となっている。	NO_PRONOUNCE	NO_LABEL
2009年、リーグ・ドゥに在籍ながらフランス杯決勝でスタッド・レンヌに1-2で逆転勝利し、国内で初の栄冠を手にした。	NO_PRONOUNCE	NO_LABEL
2009-2010シーズンにリーグ・ドゥで18位の成績でフランス全国選手権に降格したが、2012-13シーズンのリーグ・ドゥで2位となり9年ぶりにリーグ・アンに復帰した。	NO_PRONOUNCE	NO_LABEL
