蒼柴神社は新潟県長岡市の悠久山山内にある神社。	あおふしじんじゃわにーがたけんながおかしのゆーきゅーざんさんないにあるじんじゃ。	NO_LABEL
当初は祭神である越後長岡藩3代目藩主牧野忠辰の尊号の蒼柴大明神と呼称されたが、神仏分離令により現在の名称となる。	とーしょわさいじんであるえちごながおかはんさんだいめはんしゅまきのただたつのそんごーのあおしばだいみょーじんとこしょーされたが、しんぶつぶんりれいによりげんざいのめいしょーとなる。	NO_LABEL
創建当初は長岡城内にあったが、後に悠久山に移り、北越戦争で長岡城が落城すると一時期、栃尾に遷座するが終戦後に現在地に安置。	そーけんとーしょわながおかじょーないにあったが、のちにゆーきゅーざんにうつり、ほくえつせんそーでながおかじょーがらくじょーするといちじき、とちおにせんざするがしゅーせんごにげんざいちにあんち。	NO_LABEL
旧社格は村社、後に県社。	きゅーしゃかくわそんしゃ、のちにけんしゃ。	NO_LABEL
享保7年に既に隠居していた牧野忠辰が死去。	きょうほななねんにすでにいんきょしていたまきのただたつがしきょ。	NO_LABEL
これを通達された京都の神祇道管領の吉田家より、故人忠辰に蒼柴霊神の神号が贈られる。	これをつーたつされたきょーとのじんぎどーかんりょーのよしだやより、こじんただたつにあおしばれいじんのしんごーがおくられる。	NO_LABEL
このために養嗣子で当時の藩主牧野忠寿が長岡城東隅に社殿を造営して忠辰の霊璽を奉安したのが始まり。	NO_PRONOUNCE	NO_LABEL
享保13年3月27日の三蔵火事により、社殿が全焼したために千手町の八幡社に奉遷したが、同年11月12日に再建工事が成り、御遷座式が行われる。	きょうほじゅうさんねんさんがつにじゅうしちにちのさんぞーかじにより、しゃでんがぜんしょーしたためにせんじゅまちのはちまんしゃにほーせんしたが、どーねんじゅーいちがつじゅうににちにさいけんこーじがなり、ごせんざしきがおこなわれる。	NO_LABEL
享保18年には京都の吉田家により明神に昇格される。	きょうほじゅうはちねんにわきょーとのよしだやによりみょーじんにしょーかくされる。	NO_LABEL
明和3年に牧野忠精が藩主となると、社殿の城内からの移転が計画され、当初遷座地を中島としたが、明和6年には忠辰が治世中に杉の植林を行った戸左衛門新田の三官山に変更し、遷座地での入込殺生禁断の令を発布する。	めいわさんねんにまきのただきよがはんしゅとなると、しゃでんのきうちからのいてんがけいかくされ、とーしょせんざちをなかじまとしたが、めいわろくねんにわただたつがちせいちゅーにすぎのしょくりんをおこなったとさえもんしんでんのさんかんやまにへんこーし、せんざちでのいれこみせっしょーきんだんのりょーをはっぷする。	NO_LABEL
明和8年には忠辰50周忌により大明神に昇格。	めいわはちねんにわただたつごじゅっしゅーきによりだいみょーじんにしょーかく。	NO_LABEL
天明元年に三官山を開拓して社殿を造営し、7月29日に社地を三官山から悠久山と改名し、8月8日には遷宮式が行われて現在地に移転する。	てんめいがんねんにさんかんやまをかいたくしてしゃでんをぞーえいし、しちがつにじゅうきゅうにちにしゃちをさんかんやまからゆーきゅーざんとかいめいし、はちがつようかにわせんぐーしきがおこなわれてげんざいちにいてんする。	NO_LABEL
越後長岡藩では藩職として悠久山御社御用掛を初めとする蒼柴大明神への奉仕・社殿及び境内の警備管理する役職が設置され、旧暦2月6日と旧暦8月17日の祭礼には藩主または藩主名代が参詣した。	NO_PRONOUNCE	NO_LABEL
北越戦争で長岡城が落城すると栃尾に奉遷されるが、明治2年春には再び元に戻され、神仏分離令を受けて明治4年に蒼柴大明神から蒼柴神社に改名され、明治6年には村社となり「お山」の名で長岡における崇敬の対象となる。	NO_PRONOUNCE	NO_LABEL
明治41年から新潟県の幣餞料供進神社に指定され、昭和5年に県社に昇格。	めいじよんじゅういちねんからにーがたけんのぬさはなむけりょーきょーしんじんじゃにしていされ、しょーわごねんにけんしゃにしょーかく。	NO_LABEL
