ハワード郡 () はアメリカ合衆国ネブラスカ州に位置する郡である。	はわーどぐんかっこわあめりかがっしゅーこくねぶらすかしゅーにいちするぐんである。	NO_LABEL
2000年現在、人口は6,567人である。	NO_PRONOUNCE	NO_LABEL
ここの郡庁所在地はセントポールである。	ここのぐんちょーしょざいちわせんとぽーるである。	NO_LABEL
アメリカ合衆国統計局によると、この郡は総面積1,491 kmである。	NO_PRONOUNCE	NO_LABEL
このうち1,475 kmが陸地で16 kmが水地域である。	NO_PRONOUNCE	NO_LABEL
総面積の1.09%が水地域となっている。	NO_PRONOUNCE	NO_LABEL
2000年現在の国勢調査で、この郡は人口6,567人、2,546世帯、及び1,797家族が暮らしている。	NO_PRONOUNCE	NO_LABEL
人口密度は4/kmである。	NO_PRONOUNCE	NO_LABEL
2/kmの平均的な密度に2,782軒の住居が建っている。	NO_PRONOUNCE	NO_LABEL
この郡の人種的構成は白人98.69%、アフリカン・アメリカン0.30%、先住民0.24%、アジア0.09%、太平洋諸島系0.03%、その他の人種0.32%、及び混血0.32%である。	NO_PRONOUNCE	NO_LABEL
人口の1.01%がヒスパニックまたはラテン系である。	NO_PRONOUNCE	NO_LABEL
この郡内の住民は28.30%が18歳未満の未成年、18歳以上24歳以下が6.60%、25歳以上44歳以下が25.30%、45歳以上64歳以下が22.60%、及び65歳以上が17.10%にわたっている。	NO_PRONOUNCE	NO_LABEL
中央値年齢は38歳である。	ちゅーおーちねんれいわさんじゅうはっさいである。	NO_LABEL
女性100人ごとに対して男性は101.00人である。	NO_PRONOUNCE	NO_LABEL
18歳以上の女性100人ごとに対して男性は97.30人である。	NO_PRONOUNCE	NO_LABEL
この郡の世帯ごとの平均的な収入は33,305米ドルであり、家族ごとの平均的な収入は40,259米ドルである。	NO_PRONOUNCE	NO_LABEL
男性は27,270米ドルに対して女性は19,587米ドルの平均的な収入がある。	NO_PRONOUNCE	NO_LABEL
この郡の一人当たりの収入は15,535米ドルである。	NO_PRONOUNCE	NO_LABEL
人口の11.70%及び家族の8.50%は貧困線以下である。	NO_PRONOUNCE	NO_LABEL
全人口のうち18歳未満の14.30%及び65歳以上の15.00%は貧困線以下の生活を送っている。	NO_PRONOUNCE	NO_LABEL
