"これはラヴェンナの翻訳元履歴です。	NO_PRONOUNCE	NO_LABEL
"	NO_PRONOUNCE	NO_LABEL
from it.wiki	NO_PRONOUNCE	NO_LABEL
Ravenna	NO_PRONOUNCE	NO_LABEL
Cronologia delle versioni di questa pagina.	NO_PRONOUNCE	NO_LABEL
Vedi.	NO_PRONOUNCE	NO_LABEL
Legend:= differenze con la versione corrente,= differenze con la versione precedente, M = modifica minore	NO_PRONOUNCE	NO_LABEL
Vedi.	NO_PRONOUNCE	NO_LABEL
