アンズは、ヒマラヤ西部〜フェルガナ盆地にかけての地域を原産とする、バラ科サクラ属の落葉小高木である。	NO_PRONOUNCE	NO_LABEL
アプリコットと英名で呼ばれることもある。	あぷりこっととえいめいでよばれることもある。	NO_LABEL
別名、カラモモ。	べつめい、からもも。	NO_LABEL
中国北部で形成された東洋系の品種群には、ウメとの交雑の痕跡がある。	ちゅーごくほくぶでけいせいされたとーよーけいのひんしゅぐんにわ、うめとのこーざつのこんせきがある。	NO_LABEL
アーモンドやウメ、スモモの近縁種であり、容易に交雑する。	あーもんどやうめ、すもものきんえんしゅであり、よーいにこーざつする。	NO_LABEL
ただし、ウメの果実は完熟しても果肉に甘みを生じず、種と果肉が離れないのに対し、アンズは熟すと甘みが生じ、種と果肉が離れる。	ただし、うめのかじつわかんじゅくしてもかにくにあまみをしょーじず、たねとかにくがはなれないのにたいし、あんずわじゅくすとあまみがしょーじ、たねとかにくがはなれる。	NO_LABEL
またアーモンドの果肉は、薄いため食用にしない。	またあーもんどのかにくわ、うすいためしょくよーにしない。	NO_LABEL
耐寒性があり比較的涼しい地域で栽培されている。	たいかんせいがありひかくてきすずしいちいきでさいばいされている。	NO_LABEL
春に、桜よりもやや早く淡紅の花を咲かせ、初夏にウメによく似た実を付ける。	はるに、さくらよりもややはやくあわべにのはなをさかせ、しょかにうめによくにたみをつける。	NO_LABEL
美しいため花見の対象となることもある。	うつくしいためはなみのたいしょーとなることもある。	NO_LABEL
自家受粉では品質の良い結実をしないために、他品種の混植が必要であり、時には人工授粉も行われる事がある。	NO_PRONOUNCE	NO_LABEL
収穫期は6月下旬から7月中旬で、一つの品種は10日程度で収穫が終了する。	しゅーかくきわろくがつげじゅんからなながつちゅーじゅんで、ひとつのひんしゅわとおかていどでしゅーかくがしゅーりょーする。	NO_LABEL
果実は生食のほか、ジャムや乾果物などにして利用される。	かじつわせいしょくのほか、じゃむやいぬいくだものなどにしてりよーされる。	NO_LABEL
ヨーロッパ、中央アジアで発展したアプリコットは甘い品種が多く、東アジアで発展したアンズは酸味が強い品種が多い傾向がある。	よーろっぱ、ちゅーおーあじあではってんしたあぷりこっとわあまいひんしゅがおーく、ひがしあじあではってんしたあんずわさんみがつよいひんしゅがおーいけいこーがある。	NO_LABEL
種子は青酸配糖体や脂肪油、ステロイドなどを含んでおり、杏仁と呼ばれる咳止めや、風邪の予防の生薬として用いられている他、杏仁豆腐の独特の味を出すために使用される。	しゅしわせいさんはいとーたいやしぼーゆ、すてろいどなどをふくんでおり、きょーにんとよばれるせきとめや、かぜのよぼーのきぐすりとしてもちいられているほか、あんにんどうふのどくとくのあじをだすためにしよーされる。	NO_LABEL
未成熟な種子や果実には、青酸配糖体の一種アミグダリンが含まれる。	みせいじゅくなしゅしやかじつにわ、せいさんはいとーたいのいちしゅあみぐだりんがふくまれる。	NO_LABEL
日本には古代に中国から伝えられ、万葉集には「杏人」の原文表記があり、またカラモモともカラヒトともモモサネとも読まれていて定かではない。	NO_PRONOUNCE	NO_LABEL
仮名書きのカラモモは古今集に見える。	かめいがきのからももわこきんしゅーにみえる。	NO_LABEL
病害虫に注意する。	びょーがいちゅーにちゅーいする。	NO_LABEL
防除体系に基づき適切な農薬使用を行う。	ぼーじょたいけいにもとずきてきせつなのーやくしよーをおこなう。	NO_LABEL
冷涼地、乾燥地では無農薬栽培が可能。	れいりょーち、かんそーちでわむのーやくさいばいがかのー。	NO_LABEL
一年生の植物と異なり、あんずなどの樹木に実る果実はその種を播いても同じ物は実らない。	いちねんせいのしょくぶつとことなり、あんずなどのじゅもくにみのるかじつわそのたねをまいてもおなじものわみのらない。	NO_LABEL
従って苗は接ぎ木によって増やされる。	したがってなえわつぎきによってふやされる。	NO_LABEL
台木には、実生が用いられる。	だいぎにわ、みしょーがもちいられる。	NO_LABEL
ホウ素欠乏土壌では実の外観不良が発生しやすく、ホウ素欠乏抑制のため施肥管理が重要。	ほーそけつぼーどじょーでわみのがいかんふりょーがはっせいしやすく、ほーそけつぼーよくせいのためせひかんりがじゅーよー。	NO_LABEL
成木ではカリ、燐酸を多めにする。	なりきでわかり、りんさんをおーめにする。	NO_LABEL
かつて未熟果が『姫子』の名称で果実酒用や漬物用として販売されていたが、残留農薬基準の強化に伴う一律基準の導入により、販売されなくなった。	NO_PRONOUNCE	NO_LABEL
