『Veryカープ! RCCカープナイター』は、中国放送が放送している広島東洋カープのプロ野球ナイトゲーム中継番組である。	NO_PRONOUNCE	NO_LABEL
JRNとNRNのクロスネットの特性を生かし、地元カープ戦を原則として全試合試合終了まで完全中継する。	じぇいあーるえぬとえぬあーるえぬのくろすねっとのとくせいをいかし、じもとかーぷせんをげんそくとしてぜんしあいしあいしゅうりょーまでかんぜんちゅーけいする。	NO_LABEL
カープ戦のデーゲームも『Veryカープ! RCCカープデーゲーム中継』のタイトルで放送している。	NO_PRONOUNCE	NO_LABEL
オープニング・エンディングのテーマ曲はヨハン・シュトラウス1世の『ラデツキー行進曲』。	NO_PRONOUNCE	NO_LABEL
2008年度より、RCCテレビ・ラジオの共通キャッチフレーズを使用するようになる。	NO_PRONOUNCE	NO_LABEL
2008年度からの8年間は『赤ヘルだいすき! RCCカープナイター』を番組名としていた。	NO_PRONOUNCE	NO_LABEL
また、2015年度からホームページやコマーシャルではの同年の球団公式キャッチフレーズ「常聴魂」も併用されていた。	NO_PRONOUNCE	NO_LABEL
2016年度から、RCCテレビ・ラジオの新たな共通キャッチフレーズとして『Veryカープ!』を設定。	NO_PRONOUNCE	NO_LABEL
番組のタイトルコールとCM明けのジングルは広島県出身で大のカープファンでもある小林克也が担当しており、2017年7月7日からはアニメ『けものフレンズ』のアライグマ役声優・小野早稀によるジングルも流れている。	NO_PRONOUNCE	NO_LABEL
火曜 - 金曜 17:57 - 21:40	NO_PRONOUNCE	NO_LABEL
RCCでは、ホーム戦に限り、公式サイトでラジオ中継と同一音声をインターネット配信していたが、2015年シーズン限りで配信終了した。	あーるしーしーでわ、ほーむせんにかぎり、こーしきさいとでらじおちゅーけいとどーいつおんせいをいんたーねっとはいしんしていたが、にせんじゅうごねんしーずんかぎりではいしんしゅーりょーした。	NO_LABEL
しかし、2016年5月27日のDeNA対広島はRCCのホームページにてインターネット配信を行った。	しかし、にせんじゅうろくねんごがつにじゅうしちにちのでぃーえぬえーたいひろしまわあーるしーしーのほーむぺーじにていんたーねっとはいしんをおこなった。	NO_LABEL
当日はバラク・オバマアメリカ合衆国大統領が平和記念公園を訪れスピーチを行い、RCCラジオではオバマ大統領と安倍晋三内閣総理大臣のスピーチを生中継するため試合開始から放送することが出来なかった。	とーじつわばらくおばまあめりかがっしゅーこくだいとうりょーがへいわきねんこーえんをおとずれすぴーちをおこない、あーるしーしーらじおでわおばまだいとうりょーとあべしんぞーないかくそーりだいじんのすぴーちをなまちゅーけいするためしあいかいしからほーそーすることができなかった。	NO_LABEL
さらに、前年9月でネットを打ち切っていたTBSラジオの『荻上チキ・Session-22』が、オバマ大統領広島訪問関連の内容で、RCCのスタジオからの放送となったことから同番組を臨時ネットした関係で、最大延長も22時までとされていた。	NO_PRONOUNCE	NO_LABEL
尚、RCCでは、RCCテレビの中継がある日を中心に、一部のホーム戦は有料ライブ中継を行っている。	なお、あーるしーしーでわ、あーるしーしーてれびのちゅーけいがあるひをちゅーしんに、いちぶのほーむせんわゆーりょーらいぶちゅーけいをおこなっている。	NO_LABEL
ビジターの試合では原則として実況は開催地の放送局のアナウンサーが担当し、RCC側はレポーターの配置のみであるが、例外として2011年5月31日・6月1日のセ・パ交流戦・楽天戦では「がんばろう!!日本」と題した応援企画中継を東北放送と共同実施し、RCCの一柳が1回を除く広島側の攻撃の実況を担当した。	NO_PRONOUNCE	NO_LABEL
詳細は後述。	しょーさいわこーじゅつ。	NO_LABEL
原則は月・火曜はJRN、水～金曜はNRNラインを取る。	NO_PRONOUNCE	NO_LABEL
土・日曜は従来はJRNラインを取っていたが、2010年以降土・日曜のJRNナイター全国中継が中止されたため、当初はデーゲームと同様ローカル番組扱いの単独放送と、JRN系列局への個別ネットと、NRNラインの本番・予備カード扱いとを適宜に使い分けていた。	NO_PRONOUNCE	NO_LABEL
2015年からは機材運用の簡便化のため、デーゲームは原則としてJRN系列局への個別ネット、ナイターはNRNラインの本番・予備カード扱いで固定しており、オールスターゲームにおいてJRNが臨時で全国放送を行った場合もそれに従って運用されていたが、広島出場時のクライマックスシリーズや日本シリーズについてはナイターオフ扱いのため、JRN・NRN両系列各局の制作・編成状況に合わせて柔軟に対応していた。	NO_PRONOUNCE	NO_LABEL
なお、RCC制作時の土・日曜は、NRNナイター本番カード時、雨天予備カード時、デーゲームにおけるNRN系列局への個別ネット時にはNRNの速報チャイムを使用したが、NRN系列局向けを裏送りとして、JRN系列局個別ネット分を自社本番とした際や、JRN・NRNクロスネットのTBCへの対楽天戦のネット時はJRNの速報チャイムを使用していた。	NO_PRONOUNCE	NO_LABEL
ナイターオフ編成時の自社制作かつ単独放送時、ホームゲームはJRNのチャイムを使うことが多かったが、ビジターゲームの乗り込みではその時々により異なった。	NO_PRONOUNCE	NO_LABEL
月曜のRCC制作単独放送時は、JRNの速報チャイムを使用することが多かったが、稀にNRNのチャイムを使用することがあった。	げつよーのあーるしーしーせいさくたんどくほーそーじわ、じぇいあーるえぬのそくほーちゃいむをしよーすることがおーかったが、まれにえぬあーるえぬのちゃいむをしよーすることがあった。	NO_LABEL
広島主催試合の自社制作デーゲームについては、2010年以前はナイター中継に合わせて曜日ごとに使い分けていたが、一時期NRNがチャイム使用を自粛した2011年以降は、NRN系列のビジター地元局へのネットがない場合の水 - 金曜でもJRNの速報チャイムを使用していた。	NO_PRONOUNCE	NO_LABEL
ナイターオフ編成で放送される開幕カードとシーズン終盤については、曜日ごとのネットワークの縛りが緩いため、火曜のNRN扱いや、水～金曜や在京局制作土・日曜ナイターのJRN扱いが発生する場合があった。	NO_PRONOUNCE	NO_LABEL
JRN・NRN共に広島が関与するビジターゲーム、デーゲーム・移動日・雨天中止時に日本シリーズ等広島が関与しない試合の全国ネット中継や、試合開催がない時のJRN・NRN番組を受ける際には、JRN・NRN両ネットワーク回線で配信される中継はモノラル放送となるため、通常の裏送り中継と同様に別の素材回線を使用してステレオ放送による中継をネット受けし、AMステレオ放送やradikoでのステレオ音声での聴取を可能としている。	NO_PRONOUNCE	NO_LABEL
2017年を最後に、TBSラジオがプロ野球中継からの撤退を決めた一方、RCCでは、2017年の聴取率が資料の残る2005年以降では最高の4.6％で、Radikoでの県内外での聴取実績も過去最高となり、平日ナイターのCM枠が24年ぶりに完売するなど営業成績も良かったため、2018年以降も、ニッポン放送/NRNからのネットを増やすことで全試合中継体制を継続する方向としている。	NO_PRONOUNCE	NO_LABEL
最初から中継カードがない場合は原則レインコート・プロを放送するが、自社制作番組「RCCカープナイタースペシャル」に切り替えることがある。	NO_PRONOUNCE	NO_LABEL
