自由民主党、公明党、保守党を与党とする自公保連立政権である。	じゆーみんしゅとー、こーめいとー、ほしゅとーをよとーとするじこーほれんりつせいけんである。	NO_LABEL
組閣5日後の2001年5月1日任命。	そかくいつかごのにせんいちねんごがつついたちにんめい。	NO_LABEL
※途中退任した宮路厚労副大臣の後任は欠員のまま置かれなかった。	NO_PRONOUNCE	NO_LABEL
組閣11日後の2001年5月7日任命。	そかくじゅういちにちごのにせんいちねんごがつなのかにんめい。	NO_LABEL
※途中退任した水野外務政務官の後任は欠員のまま置かれなかった。	NO_PRONOUNCE	NO_LABEL
