『傷物語』は、西尾維新による青春怪異小説。	NO_PRONOUNCE	NO_LABEL
イラストはVOFANが担当している。	NO_PRONOUNCE	NO_LABEL
〈物語〉シリーズ第2弾として講談社BOXより2008年5月に刊行された。	ものがたりしりーずだいにだんとしてこーだんしゃぼっくすよりにせんはちねんごがつにかんこーされた。	NO_LABEL
時系列的には化物語の「前日譚」となっている。	NO_PRONOUNCE	NO_LABEL
西尾維新アニメプロジェクト第3弾として2016年よりアニメーション映画が全三部作で公開された。	にしおいしんあにめぷろじぇくとだいさんだんとしてにせんじゅうろくねんよりあにめーしょんえいががぜんさんぶさくでこーかいされた。	NO_LABEL
『傷物語』は、現代日本を舞台に化物が登場するライトノベル『化物語』の主人公・阿良々木暦が吸血鬼となった顛末が語られる物語である。	NO_PRONOUNCE	NO_LABEL
主要な登場人物や舞台設定は前作『化物語』と共通しており、前作で仄めかされていた「春休み」の時期が描かれている。	NO_PRONOUNCE	NO_LABEL
前作『化物語』は第一話「ひたぎクラブ」から第五話「つばさキャット」まで全5話で構成されているが、本エピソードは第零話「こよみヴァンプ」のみとなっている。	NO_PRONOUNCE	NO_LABEL
現代日本に現れた女吸血鬼と出会ったことで人ならざる者になった苦悩や、同級生・羽川翼との出会いと友情が語られる。	NO_PRONOUNCE	NO_LABEL
前作では抑え目だったバトルシーンも存分に描かれている。	ぜんさくでわおさえめだったばとるしーんもぞんぶんにえがかれている。	NO_LABEL
2008年2月4日に刊行された『パンドラ』vol.1 SIDE-A 2008 WINNTERに掲載され、同年5月7日に講談社BOXから単行本が刊行された。	NO_PRONOUNCE	NO_LABEL
時系列的には『化物語』より前に当たるため、作者はあとがきで「『傷物語』から先に読んでも構わない」と語っている。	NO_PRONOUNCE	NO_LABEL
パッケージイラストには、本作の主要人物である美しき女吸血鬼のキスショット・アセロラオリオン・ハートアンダーブレードが描かれている。	ぱっけーじいらすとにわ、もとさくのしゅよーじんぶつであるうつくしきおんなきゅーけつきのきすしょっとあせろらおりおんはーとあんだーぶれーどがえがかれている。	NO_LABEL
2015年12月には劇場アニメ『傷物語』公開記念として涜葬版が発売された。	NO_PRONOUNCE	NO_LABEL
内容は同じだが、装丁が変更されている。	ないよーわおなじだが、そーていがへんこーされている。	NO_LABEL
「声」は劇場アニメにおける担当声優。	NO_PRONOUNCE	NO_LABEL
『化物語』のBD/DVDの最終巻が発売された2010年7月26日、公式サイトにて『傷物語』のアニメ化が正式発表され、刀を構えるキスショットのイラストがキービジュアルとして発表された。	NO_PRONOUNCE	NO_LABEL
発表当初は『化物語』・『刀語』に続く西尾維新アニメプロジェクト第3弾とされていたが、2012年1月から『偽物語』が、同年12月31日に『猫物語』が、2013年7月からは『〈物語〉シリーズ セカンドシーズン』が、2014年12月31日に『憑物語』が、2015年10月からは『終物語』が放送され、順番が入れ替わった。	NO_PRONOUNCE	NO_LABEL
2015年10月4日に放送された『終物語』第1話の放送後に全三部作として制作されることが発表され、〈I 鉄血篇〉は2016年1月8日、〈II 熱血篇〉は同年8月19日、〈III 冷血篇〉は2017年1月6日に公開された。	NO_PRONOUNCE	NO_LABEL
内容的には〈I 鉄血篇〉は暦と怪異との出会い、〈II 熱血篇〉は暦の死闘、〈III 冷血篇〉は暦と怪異の別れが描かれた。	NO_PRONOUNCE	NO_LABEL
〈I 鉄血篇〉ではなし。	NO_PRONOUNCE	NO_LABEL
公開初日から、西尾維新による書き下ろし小説『混物語』を来場特典として配布。	NO_PRONOUNCE	NO_LABEL
〈物語〉シリーズと西尾維新による別シリーズのキャラクターとのコラボレーション企画で、〈I 鉄血篇〉では週替わり4編が配布され、5週目からは渡辺明夫による描き下ろしデザインのポストカードが配布された。	NO_PRONOUNCE	NO_LABEL
〈II 熱血篇〉でも、公開初日から『混物語』を来場特典として配布。	NO_PRONOUNCE	NO_LABEL
週替わり4編が配布され、5週目からは渡辺明夫による描き下ろしデザインのポストカードが配布された。	NO_PRONOUNCE	NO_LABEL
〈III 冷血篇〉でも、公開初日から『混物語』を来場特典として配布。	NO_PRONOUNCE	NO_LABEL
週替わり4編が配布され、5週目は複製原画入りクリアファイル、6週目は守岡英行による描き下ろしデザインのポートレートが配布された。	NO_PRONOUNCE	NO_LABEL
〈I 鉄血篇〉は全国108館で公開され、2016年1月9日・10日の初週土日2日間で動員13万1973人、興収1億7705万8000円に達し、全国映画動員ランキング3位を記録。	NO_PRONOUNCE	NO_LABEL
3月末時点では動員60万人、興収8億円以上を記録している。	さんがつまつじてんでわどーいんろくじゅうまんにん、おきかずはちおくえんいじょーをきろくしている。	NO_LABEL
また、日本でのヒットを受けてドイツやフランスの主要都市で上映会や劇場公開が、2月26日からは全米30館以上でも公開された。	NO_PRONOUNCE	NO_LABEL
最終興収は8億2000万円。	さいしゅーおきかずわはちおくにせんまんえん。	NO_LABEL
〈II 熱血篇〉は全国117館で公開され、初日を含む3日間の動員が14万8200人、興収1億9605万1200円に達し、全国映画動員ランキング8位を記録。	NO_PRONOUNCE	NO_LABEL
〈III 冷血篇〉は全国118館で公開され、全国映画動員ランキングで初登場9位を記録し、1月7日から8日の2日間で興収8671万8100円に達した。	NO_PRONOUNCE	NO_LABEL
最終興収は4億円。	さいしゅーおきかずわよんおくえん。	NO_LABEL
2009年に放映されたアニメ『化物語』の初回冒頭のシーンで『傷物語』のストーリーが90秒のダイジェストで描かれた。	NO_PRONOUNCE	NO_LABEL
このために『化物語』本編には登場しないキスショットやエピソードらのキャラクターデザインも起こされている。	NO_PRONOUNCE	NO_LABEL
『化物語』の冒頭にこのシーンを持ってきたのは大きなインパクトを与えるためとされており、阿良々木暦役の声優の神谷浩史も驚いたと語っている。	NO_PRONOUNCE	NO_LABEL
『傷物語VR』は映画『傷物語』完結を記念して2017年7月21日よりPlayStation Storeで配信されたPlayStation 4ソフト。	NO_PRONOUNCE	NO_LABEL
プレイヤーはキスショットと一緒に学習塾後の廃墟で、『傷物語』を振り返るという内容。	NO_PRONOUNCE	NO_LABEL
映画	えいが	NO_LABEL
