コルドゥバは、小惑星帯にあるとても大きな小惑星である。	こるどぅばわ、しょーわくせいたいにあるとてもおーきなしょーわくせいである。	NO_LABEL
C型小惑星であり、炭素化合物からなっていると考えられる。	がたしょーわくせいであり、たんそかごーぶつからなっているとかんがえられる。	NO_LABEL
1893年3月21日にオーギュスト・シャルロワがニースで発見した。	せんはっぴゃくきゅうじゅうさんねさんがつにじゅういちにちにおーぎゅすとしゃるろわがにーすではっけんした。	NO_LABEL
スペインの都市コルドバのラテン語名から名づけられたと考えられている。	すぺいんのとしこるどばのらてんごめいからなずけられたとかんがえられている。	NO_LABEL
