ワイルドストロベリーは、井上喜久子とまるたまりの声優2名と、ピアニストの小笠原純子による新感覚音楽ユニット。	NO_PRONOUNCE	NO_LABEL
2007年春から活動を開始。	にせんななねんはるからかつどーをかいし。	NO_LABEL
アニメソングをジャズアレンジした曲を歌っている。	あにめそんぐをじゃずあれんじしたきょくをうたっている。	NO_LABEL
井上は彼女の父親が若い頃にジャズのドラマーのセミプロだったため子供のころからジャズに親しんでおり、ジャズシンガーとしても活躍しているまるたのライブに行ったことがきっかけでワイルドストロベリーを結成した。	いのうえわかのじょのちちおやがわかいころにじゃずのどらまーのせみぷろだったためこどものころからじゃずにしたしんでおり、じゃずしんがーとしてもかつやくしているまるたのらいぶにいったことがきっかけでわいるどすとろべりーをけっせいした。	NO_LABEL
