タガンログ湾はアゾフ海北東にある湾である。	たがんろぐわんわあぞふかいほくとーにあるわんである。	NO_LABEL
タガンログ湾の北東端はドン川の河口となっている。	たがんろぐわんのほくとーたんわどんがわのかこーとなっている。	NO_LABEL
湾の全長は140 km、平均水深は5 mであるが、極めて浅い箇所が多い。	NO_PRONOUNCE	NO_LABEL
12月から5月は氷結する。	じゅーにがつからごがつわひょーけつする。	NO_LABEL
湾の北部と南部には砂嘴で特徴的な海岸線を形成している。	わんのほくぶとなんぶにわさしでとくちょーてきなかいがんせんをけいせいしている。	NO_LABEL
ドン川のほか、カルミウス川、ミウス川が注ぐ。	どんがわのほか、かるみうすがわ、みうすがわがそそぐ。	NO_LABEL
湾に面した主要な都市はタガンログ、エイスクで、ロストフ・ナ・ドヌーは湾からドン川を数キロ溯ったところにある。	NO_PRONOUNCE	NO_LABEL
