松橋 美穂は、日本のラジオパーソナリティ。	まつばせみほわ、にっぽんのらじおぱーそなりてぃ。	NO_LABEL
血液型はO型。	けつえきがたわおーがた。	NO_LABEL
神奈川県出身。	かながわけんしゅっしん。	NO_LABEL
神奈川県立海老名高等学校卒業。	かながわけんりつえびなこーとーがっこーそつぎょー。	NO_LABEL
日本女子大学文学部卒業。	にほんじょしだいがくぶんがくぶそつぎょー。	NO_LABEL
身長161.2cm。	NO_PRONOUNCE	NO_LABEL
音響芸術専門学校の声優・ボーカリスト科在籍中、同じ夜間部講師であった深沢弘が担当していた、FMPORTのSUNDAY SPORTS BARのアシスタントに抜擢され、2008年10月より同番組のアシスタントを担当する。	NO_PRONOUNCE	NO_LABEL
中学・高校の教諭もしており、2009年10月11日の同番組にて深沢より公表された。	NO_PRONOUNCE	NO_LABEL
いきものがかりと縁がある。	いきものがかりとえんがある。	NO_LABEL
吉岡聖恵は高校の後輩にあたり、水野良樹と山下穂尊は妹の友人であるとのこと。	よしおかきよえわこーこーのこーはいにあたり、みずのよしきとやましたほたかわいもーとのゆーじんであるとのこと。	NO_LABEL
