第501飛行隊は、航空自衛隊偵察航空隊の部隊である。	NO_PRONOUNCE	NO_LABEL
百里基地を拠点とし、偵察機にRF-4EとRF-4EJ、連絡機にT-4を運用する。	NO_PRONOUNCE	NO_LABEL
第501飛行隊は日本唯一の戦術偵察機運用部隊であり、その活動範囲は日本全土となるため、百里基地に所属するが、第7航空団ではなく航空総隊の直轄部隊となっている。	NO_PRONOUNCE	NO_LABEL
1961年12月1日に松島基地で編成され、1962年8月28日には入間基地に移動した。	せんきゅうひゃくろくじゅういちねんじゅーにがつついたちにまつしまきちでへんせいされ、せんきゅうひゃくろくじゅうにねんはちがつにじゅうはちにちにわいるまきちにいどーした。	NO_LABEL
初期運用機種はRF-86Fであった。	NO_PRONOUNCE	NO_LABEL
1972年、航空自衛隊はRF-86Fの後継機としてRF-4E採用、14機を導入することとなったため、これを機に所属基地も百里基地へ移動することになり、1974年10月1日、「百里先遣隊」を編成。	NO_PRONOUNCE	NO_LABEL
12月4日にRF-4Eの1号機が配備された。	NO_PRONOUNCE	NO_LABEL
1975年10月1日に第501飛行隊本隊の移動が完了、また入間基地にRF-86Fを装備する「入間分遣隊」が編成されたが、1977年3月25日に解散し、RF-86Fは航空総隊司令部飛行隊へ移管された。	NO_PRONOUNCE	NO_LABEL
1992年には、F-15J/DJの導入により余剰となったF-4EJから15機をRF-4EJに改修し、新たに追加導入された。	NO_PRONOUNCE	NO_LABEL
保有するRF-4EとRF-4EJにはシャークマウス塗装が施されているものがある。	NO_PRONOUNCE	NO_LABEL
RF-4E及びRF-4EJが老朽化に伴い退役するため、後継機としてF-15J/DJ戦闘機を改修して偵察機とする案が検討されたが、契約相手方である東芝が納入できる光学・赤外線偵察ポッドの性能は、防衛省の要求する性能を達成できないと見込まれ防衛省が契約を解除したため計画はとん挫した。	NO_PRONOUNCE	NO_LABEL
部隊マークはウッドペッカー。	ぶたいまーくわうっどぺっかー。	NO_LABEL
川中島の戦いの啄木鳥戦法に由来している。	かわなかじまのたたかいのけらせんぽーにゆらいしている。	NO_LABEL
偵察飛行は戦術目的だけではなく、民生協力での火山観測や阪神淡路大震災などの大規模災害での災害派遣時も行われている。	ていさつひこーわせんじゅつもくてきだけでわなく、みんせいきょーりょくでのかざんかんそくやはんしんあわじだいしんさいなどのだいきぼさいがいでのさいがいはけんじもおこなわれている。	NO_LABEL
