ラトゥナプラ国立博物館はスリランカのサバラガムワ州ラトゥナプラにある国立博物館。	らとぅなぷらこくりつはくぶつかんわすりらんかのさばらがむわしゅーらとぅなぷらにあるこくりつはくぶつかん。	NO_LABEL
宝石の町であるラトゥナプラの博物館のため、多くの宝石やアクセサリーが展示されている。	ほーせきのまちであるらとぅなぷらのはくぶつかんのため、おーくのほーせきやあくせさりーがてんじされている。	NO_LABEL
また、宝石発掘の際に一緒に発掘された先史時代の遺物や、化石なども一緒に展示されている。	また、ほーせきはっくつのさいにいっしょにはっくつされたせんしじだいのいぶつや、かせきなどもいっしょにてんじされている。	NO_LABEL
