ルコックスポルティフは雄鶏を意味する。	るこっくすぽるてぃふわおんどりをいみする。	NO_LABEL
前身はフランスの一地方で始められたメリヤス工業で、1882年に創業された。	ぜんしんわふらんすのいちちほーではじめられためりやすこーぎょーで、せんはっぴゃくはちじゅうにねんにそーぎょーされた。	NO_LABEL
フランスで最も古いスポーツブランドである。	ふらんすでもっともふるいすぽーつぶらんどである。	NO_LABEL
1948年から鶏のマークを付けることになった。	せんきゅうひゃくよんじゅうはちねからにわとりのまーくをつけることになった。	NO_LABEL
鶏はフランスの国鳥であり、フランスに移住してきたガリア人の旗印でもあった。	にわとりわふらんすのこくちょーであり、ふらんすにいじゅーしてきたがりあじんのはたじるしでもあった。	NO_LABEL
現在はサッカー、テニス、ゴルフ用のシューズやウェアを中心に、一般用のスニーカーやカジュアルウェア、アクセサリなどを製造している。	げんざいわさっかー、てにす、ごるふよーのしゅーずやうぇあをちゅーしんに、いっぱんよーのすにーかーやかじゅあるうぇあ、あくせさりなどをせいぞーしている。	NO_LABEL
スポーツ以外では看護師用のウェアやシューズも手がけている。	すぽーついがいでわかんごしよーのうぇあやしゅーずもてがけている。	NO_LABEL
ツール・ド・フランスにおいては1950年代から約40年にわたりリーダージャージのサプライヤーを務めていた。	つーるどふらんすにおいてわせんきゅうひゃくごじゅうねんだいからやくよんじゅうねんにわたりりーだーじゃーじのさぷらいやーをつとめていた。	NO_LABEL
1990年代からは他のメーカーにサプライヤーの座を譲ったが、2012年に復帰、アモリ・スポル・オルガニザシオン主催のステージレースのすべてでリーダージャージを供給している。	せんきゅうひゃくきゅうじゅうねんだいからわたのめーかーにさぷらいやーのざをゆずったが、にせんじゅうにねんにふっき、あもりすぽるおるがにざしおんしゅさいのすてーじれーすのすべてでりーだーじゃーじをきょーきゅーしている。	NO_LABEL
日本には1981年に進出。	にっぽんにわせんきゅうひゃくはちじゅういちねんにしんしゅつ。	NO_LABEL
1990年12月にデサントがサラガン社より日本を含む極東及び東南アジア諸国におけるルコックスポルティフの商標権を取得した。	せんきゅうひゃくきゅうじゅうねんじゅーにがつにでさんとがさらがんしゃよりにっぽんをふくむきょくとーおよびとーなんあじあしょこくにおけるるこっくすぽるてぃふのしょーひょーけんをしゅとくした。	NO_LABEL
