ケツ持ちとは、暴力団やヤクザなどの組織が、商店等をその庇護下に置き、対価を得る行為をさす俗語である。	けつもちとわ、ぼーりょくだんややくざなどのそしきが、しょーてんとーをそのひごかにおき、たいかをえるこーいをさすぞくごである。	NO_LABEL
またそれを行う組織をも指す。	またそれをおこなうそしきをもさす。	NO_LABEL
近年では先導の対義として、列の最後尾を担当する者を呼ぶ場合にも用いる。	きんねんでわせんどーのたいぎとして、れつのさいこーびをたんとーするものをよぶばあいにももちいる。	NO_LABEL
商店はケツ持ちを得ることで他の暴力団による恐喝行為から逃れられたり、商店が違法な商いをしている場合はリークした警察の情報を得たりできる。	しょーてんわけつもちをえることでたのぼーりょくだんによるきょーかつこーいからのがれられたり、しょーてんがいほーなあきないをしているばあいわりーくしたけいさつのじょーほーをえたりできる。	NO_LABEL
また商店がケツ持ちを欲する理由としては、次のようなものが挙げられる。	またしょーてんがけつもちをほっするりゆーとしてわ、つぎのよーなものがあげられる。	NO_LABEL
