チャールズ・デビッド・ホワイトはアメリカ合衆国の地質学者、古植物学者である。	NO_PRONOUNCE	NO_LABEL
ニューヨーク州のパルミラで生まれた。	にゅーよーくしゅーのぱるみらでうまれた。	NO_LABEL
1886年にコーネル大学を卒業し、1889年からアメリカ合衆国地質局で働き、主任地質学者になった。	せんはっぴゃくはちじゅうろくねんにこーねるだいがくをそつぎょーし、せんはっぴゃくはちじゅうきゅうねんからあめりかがっしゅーこくちしつきょくではたらき、しゅにんちしつがくしゃになった。	NO_LABEL
1903年からスミソニアン研究所の准学芸員となり、地質学や古植物学に関する多くの研究論文を発表した。	せんきゅうひゃくさんねんからすみそにあんけんきゅーじょのじゅんがくげいいんとなり、ちしつがくやこしょくぶつがくにかんするおーくのけんきゅーろんぶんをはっぴょーした。	NO_LABEL
古生代ペルム紀に栄えた裸子植物グロッソプテリスに関する包括的な研究を行い、ブラジルの炭鉱で採掘された化石植物を研究した。	こせいだいぺるむきにさかえたらししょくぶつぐろっそぷてりすにかんするほーかつてきなけんきゅーをおこない、ぶらじるのたんこーでさいくつされたかせきしょくぶつをけんきゅーした。	NO_LABEL
地質学者としては鉱物資源の埋蔵量、生産量の見積もりを行った。	ちしつがくしゃとしてわこーぶつしげんのまいぞーりょう、せいさんりょーのみつもりをおこなった。	NO_LABEL
米国科学アカデミーから地質学、古生物学に貢献した人物に贈られる、トンプソン・メダルを1931年に受賞し、1934年に古生物学のチャールズ・ドリトル・ウォルコット・メダルを受賞した"。	NO_PRONOUNCE	NO_LABEL
1932年にアメリカ地質学会の会長も務めた。	せんきゅうひゃくさんじゅうにねんにあめりかちしつがっかいのかいちょーもつとめた。	NO_LABEL
