『孤獨の人』は藤島泰輔による小説作品。	NO_PRONOUNCE	NO_LABEL
1956年4月に三笠書房から出版された。	せんきゅうひゃくごじゅうろくねんしがつにみかさしょぼーからしゅっぱんされた。	NO_LABEL
藤島の作家デビュー作であり、当時皇太子であった今上天皇の「御学友」だった著者が、皇太子をめぐる学習院高等科生徒たちの人間模様をモデルに描いた青春小説で、著者が皇太子に捧げたものである。	NO_PRONOUNCE	NO_LABEL
三島由紀夫が序を寄せ、出版当時ベストセラーになった。	みしまゆきおがついでをよせ、しゅっぱんとーじべすとせらーになった。	NO_LABEL
1957年には西河克己監督により日活で映画化された。	せんきゅうひゃくごじゅうしちねんにわにしかわかつみかんとくによりにっかつでえいがかされた。	NO_LABEL
各種データベース上では『孤独の人』でも登録されている。	NO_PRONOUNCE	NO_LABEL
出版当時東京新聞社会部記者だった著者のデビュー作である。	しゅっぱんとーじとーきょーしんぶんしゃかいぶきしゃだったちょしゃのでびゅーさくである。	NO_LABEL
創作の背景には、「御学友」であった著者の「もっと皇太子さんの実状を知って欲しかった」という心情があった。	NO_PRONOUNCE	NO_LABEL
第一章と第二章の半ばまでは雑誌『新女苑』が初出である。	NO_PRONOUNCE	NO_LABEL
当初のタイトルは『孤獨の共犯者』で、皇太子をとりまく学友全般が「孤独」であるという意味を込めたものだったが、出版社の三笠書房により、皇太子の存在を浮き上がらせインパクトの強さを狙った『孤獨の人』とされた。	NO_PRONOUNCE	NO_LABEL
物語は高等科二年から三年にかけてを舞台としている。	ものがたりわこーとーかにねんからみとしにかけてをぶたいとしている。	NO_LABEL
登場する生徒らは当然未成年者であるが校内喫煙や飲酒を当たり前に行い、御所内でも生徒らに酒をふるまう場面がある。	とーじょーするせいとらわとーぜんみせいねんしゃであるがこーないきつえんやいんしゅをあたりまえにおこない、ごしょうちでもせいとらにさけをふるまうばめんがある。	NO_LABEL
また作品中には21世紀においては差別用語とされる表現がみられ、岩波現代文庫版ではこの件に関する注意書きを付した上でそのまま記載されている。	またさくひんちゅーにわにじゅういっせいきにおいてわさべつよーごとされるひょーげんがみられ、いわなみげんだいぶんこばんでわこのけんにかんするちゅーいがきをふしたうえでそのままきさいされている。	NO_LABEL
学習院高等科で皇太子である宮と同学年の吉彦は、ある日宮内庁直轄のアメリカ人教師の通訳・沢田恵子を皆で罵る。	NO_PRONOUNCE	NO_LABEL
吉彦や友人の谷津は、宮から人間的生活を奪う宮内庁の前世紀的なありかた、ひいては敗戦後アメリカに支配される屈辱と、それに対する議論さえもタブーになっている学校の現状を語り合う。	よしひこやゆーじんのたにつわ、みやからにんげんてきせいかつをうばうくないちょーのぜんせいきてきなありかた、ひーてわはいせんごあめりかにしはいされるくつじょくと、それにたいするぎろんさえもたぶーになっているがっこーのげんじょーをかたりあう。	NO_LABEL
戦後も学習院の中では宮の取り巻きかつ幼稚園や初等科からいる元貴族階級が支配的で、平民出身で中等科から途中入学の吉彦は劣等感を抱き、宮の友人にならないかという京極の誘いを断る。	せんごもがくしゅーいんのなかでわみやのとりまききかつよーちえんやしょとーかからいるもときぞくかいきゅーがしはいてきで、へいみんしゅっしんでちゅーとーかからとちゅーにゅーがくのよしひこわれっとーかんをいだき、みやのゆーじんにならないかとゆうきょーごくのさそいをことわる。	NO_LABEL
そんな中で水野は、宮は生徒同士の勢力争いの道具にされ、誰も本当の意味で彼を愛そうとはせず、宮自身も意思を持たない精神的不具に仕立て上げられてゆくのを見るに堪えかねて彼から離れたこと、学友たちばかりでなく日本全体が宮に対する加害者であると言い、本当に人間として宮を愛すれば、彼から去らねばならなくなると吉彦らにぶちまける。	そんななかでみずのわ、みやわせいとどーしのせいりょくあらそいのどーぐにされ、だれもほんとーのいみでかれをあいそうとわせず、みやじしんもいしをもたないせいしんてきふぐにしたてあげられてゆくのをみるにこたえかねてかれからはなれたこと、がくゆーたちばかりでなくにっぽんぜんたいがみやにたいするかがいしゃであるといい、ほんとーににんげんとしてみやをあいすれば、かれからさらねばならなくなるとよしひこらにぶちまける。	NO_LABEL
週のうち3日、宮と寮生活を送る岩瀬は、庵原とともに侍従に無断で宮を連れ出し、山手線に乗って夜の銀座へ行き、店で喫茶を楽しむささやかな冒険をする。	しゅーのうちみっか、みやとりょーせいかつをおくるいわせわ、いおはらとともにじじゅーにむだんでみやをつれだし、やまのてせんにのってよるのぎんざえいき、みせできっさをたのしむささやかなぼーけんをする。	NO_LABEL
岩瀬はほかの客と同じように珈琲を飲むことへの宮の喜びを感じ取る。	いわせわほかのきゃくとおなじよーにこーひーをのむことえのみやのよろこびをかんじとる。	NO_LABEL
一同が帰り騒ぎになる中、岩瀬は高揚感を味わい、とがめる級友や大夫らにも反抗するが、侍従に一喝されると庵原とともに号泣してしまう。	いちどーがかえりさわぎになるなか、いわせわこーよーかんをあじわい、とがめるきゅーゆーやたいふらにもはんこーするが、じじゅーにいっかつされるといおはらとともにごーきゅーしてしまう。	NO_LABEL
後日、自由討論の授業で岩瀬は男女交際の自由を訴える。	ごじつ、じゆーとーろんのじゅぎょーでいわせわだんじょこーさいのじゆーをうったえる。	NO_LABEL
吉彦は、かつて岩瀬と下級生を争った同性愛の経験を思い出し怒るが、宮が議題を熱心に聴いていることに気付き、岩瀬が訴えるのは宮の開放だと理解する。	よしひこわ、かつていわせとかきゅーせいをあらそったどーせいあいのけいけんをおもいだしおこるが、みやがぎだいをねっしんにきいていることにきずき、いわせがうったえるのわみやのかいほーだとりかいする。	NO_LABEL
かつて宮が望んだ、女子部の鳥羽頼子を牧場に誘う計画は宮内庁の役人によって潰えたのだ。	かつてみやがのぞんだ、じょしぶのとばよりこをぼくじょーにさそうけいかくわくないちょーのやくにんによってついえたのだ。	NO_LABEL
一方吉彦は、叔父と離婚した年上の女・朋子と、性交には至らないがジゴロのような関係の深い仲になっている。	NO_PRONOUNCE	NO_LABEL
ある日その関係は吉彦の父にばれ、吉彦は父に反抗する。	あるひそのかんけいわよしひこのちちにばれ、よしひこわちちにはんこーする。	NO_LABEL
吉彦が落第候補になり生徒らの噂になる。	よしひこがらくだいこーほになりせいとらのうわさになる。	NO_LABEL
そこへ吉彦が現れ、生徒らは宮のことについて討論となる。	そこえよしひこがあらわれ、せいとらわみやのことについてとーろんとなる。	NO_LABEL
京極は宮が個性を奪われ、同じ級の者たちも同様であることを認めつつ、宮がそのような存在であることは日本に必要であり、自分たちも彼と日本のために個性や思想を諦めることを肯定するという。	きょーごくわみやがこせいをうばわれ、おなじきゅーのものたちもどーよーであることをみとめつつ、みやがそのよーなそんざいであることわにっぽんにひつよーであり、じぶんたちもかれとにほんのためにこせいやしそーをあきらめることをこーていするという。	NO_LABEL
岩瀬は反論するも、打ちひしがれ教室を後にする。	いわせわはんろんするも、うちひしがれきょーしつをごにする。	NO_LABEL
彼を追った吉彦は、朋子との交際のことを話す。	かれをおったよしひこわ、ともことのこーさいのことをはなす。	NO_LABEL
後日岩瀬は、交際相手の淳子が自殺未遂したことを吉彦に語る。	ごじついわせわ、こーさいあいてのじゅんこがじさつみすいしたことをよしひこにかたる。	NO_LABEL
岩瀬はある日彼女に欲情して強引に迫り、そのとき彼女に岩瀬が御学友であることを理由に付き合ったと言われ憤るが、それを期に深い関係になった。	いわせわあるひかのじょによくじょーしてごーいんにせまり、そのときかのじょにいわせがごがくゆーであることをりゆーにつきあったといわれいきどーるが、それをきにふかいかんけいになった。	NO_LABEL
しかしある時交際が岩瀬の父にばれ、強く反対された淳子は逢引の場所で薬を飲む。	しかしあるときこーさいがいわせのちちにばれ、つよくはんたいされたじゅんこわあいびきのばしょでくすりをのむ。	NO_LABEL
彼女を助け出す岩瀬は、一番の友人である自分が淳子と交際することで宮を嫉妬させているという考えに囚われる。	かのじょをたすけだすいわせわ、いちばんのゆーじんであるじぶんがじゅんことこーさいすることでみやをしっとさせているとゆうかんがえにとらわれる。	NO_LABEL
岩瀬は吉彦に、彼女との関係も自殺にも理由はなく、自分が彼女を愛してはいなかったことを理解したと憔悴して語る。	いわせわよしひこに、かのじょとのかんけいもじさつにもりゆーわなく、じぶんがかのじょをあいしてわいなかったことをりかいしたとしょーすいしてかたる。	NO_LABEL
宮と鳥羽頼子が手を繋いでいる写真が週刊誌に掲載され、それを売った犯人捜しが始まる。	みやととばよりこがてをつないでいるしゃしんがしゅーかんしにけいさいされ、それをうったはんにんさがしがはじまる。	NO_LABEL
判明すればその者は宮の友人ではなくなる。	はんめいすればそのものわみやのゆーじんでわなくなる。	NO_LABEL
そのため京極らは自分たちへの疑いを吉彦に押し付けようとし、吉彦は激怒するが、京極は宮が友人を失わないためと主張し謝ろうとしない。	そのためきょーごくらわじぶんたちえのうたがいをよしひこにおしつけようとし、よしひこわげきどするが、きょーごくわみやがゆーじんをうしなわないためとしゅちょーしあやまろうとしない。	NO_LABEL
吉彦は宮のこととなると排他主義に陥る京極らを罵り、真犯人の糸井に憐れみと未来の復讐を宣告して凍りつかせる。	よしひこわみやのこととなるとはいたしゅぎにおちいるきょーごくらをののしり、しんはんにんのいといにあわれみとみらいのふくしゅーをせんこくしてこーりつかせる。	NO_LABEL
宮の学年が行く宮城県方面への修学旅行は行く先々で日の丸を手にした群衆に囲まれる。	みやのがくねんがいくみやぎけんほーめんえのしゅーがくりょこーわいくさきざきでひのまるをてにしたぐんしゅーにかこまれる。	NO_LABEL
吉彦はそれを見て反戦・反資本主義のデモを思い出すが、その時の恐怖と違う安堵感に、自分が宮を囲む群衆と同じ立場にあり、彼を孤独の人に押し上げている加害者側であると気付き、罪の意識にさいなまれる。	NO_PRONOUNCE	NO_LABEL
宿の食事の際には、地元の良家の子女と噂される娘たちが「徴発」されて給仕をし、船に乗ると「軍艦マーチ」と群衆に見送られ、純朴な若者の船員は全く悪意なく皇太子を乗せたことが一生の思い出になると言う。	NO_PRONOUNCE	NO_LABEL
ホテルへの帰り、一行は群衆の混乱に巻き込まれそうになる。	ほてるえのかえり、いっこーわぐんしゅーのこんらんにまきこまれそーになる。	NO_LABEL
列車に乗る合間も、宮は沿線市長への挨拶に呼ばれる。	れっしゃにのるあいまも、みやわえんせんしちょーえのあいさつによばれる。	NO_LABEL
吉彦は「くだらねえぞお。	NO_PRONOUNCE	NO_LABEL
ちきしょう」と空いた宮の席にどなるが、その声も静寂に飲み込まれてゆく。	NO_PRONOUNCE	NO_LABEL
吉彦は宮の18歳の誕生日に呼ばれる。	よしひこわみやのじゅうはっさいのたんじょーびによばれる。	NO_LABEL
12月23日、御所を訪れた吉彦らのグループを代表して舟山が宮に渡したプレゼントは、LP盤とヌードのトランプである。	じゅーにがつにじゅうさんにち、ごしょをおとずれたよしひこらのぐるーぷをだいひょーしてふなやまがみやにわたしたぷれぜんとわ、えるぴーばんとぬーどのとらんぷである。	NO_LABEL
舟山らがトランプで宮を遊ばせると、その中には宮自身と頼子の写真が混ざっていることがわかる。	ふなやまらがとらんぷでみやをあそばせると、そのなかにわみやじしんとよりこのしゃしんがまざっていることがわかる。	NO_LABEL
岩瀬はそれを見て、贈り主の無神経さを非難する。	いわせわそれをみて、おくりぬしのむしんけいさをひなんする。	NO_LABEL
吉彦は1年半前から、誰も宮の現状を打開できていないことに憤るが、自分も宮を前にして、なぜ諦めるのかと言うことができない。	よしひこわいちねんはんまえから、だれもみやのげんじょーをだかいできていないことにいきどーるが、じぶんもみやをまえにして、なぜあきらめるのかということができない。	NO_LABEL
宮はラテン音楽のレコードをかけ、招待客の少年らと次々にダンスを踊ってゆく。	みやわらてんおんがくのれこーどをかけ、しょーたいきゃくのしょーねんらとつぎつぎにだんすをおどってゆく。	NO_LABEL
吉彦は宮とサンバを踊ったあと、彼の開放に絶望的になっている自分に気付く。	よしひこわみやとさんばをおどったあと、かれのかいほーにぜつぼーてきになっているじぶんにきずく。	NO_LABEL
吉彦は会場を後にし、宮の孤独は自分の孤独の鏡であったと知る。	よしひこわかいじょーをごにし、みやのこどくわじぶんのこどくのかがみであったとしる。	NO_LABEL
吉彦は朋子のもとに向かい、ベッドで彼女を凶暴に愛撫しながら、あの舞踏会はいつまで続くのだろうかと思う。	よしひこわともこのもとにむかい、べっどでかのじょをきょーぼーにあいぶしながら、あのぶとーかいわいつまでつずくのだろうかとおもう。	NO_LABEL
出版前から『週刊朝日』で19ページの特集が組まれ、新聞に記事が出るなどマスコミで大きく取り上げられ、センセーショナルな話題となった。	NO_PRONOUNCE	NO_LABEL
一方、戦後の日本において、戦争のイメージがなく、若く清新な「新生日本」にふさわしいともてはやされた皇太子の実像が、学友たちの権力争いの道具となり宮内庁職員らの窮屈な支配に諦めを抱く存在として描かれたことで、その人気は結婚によるミッチー・ブームが起こるまで陰りを見せた。	NO_PRONOUNCE	NO_LABEL
背景には逆コースと呼ばれた民主化に逆行する風潮への批判があり、日本社会党の茜ケ久保重光と江田三郎は国会でこの小説を取り上げ、枠に嵌められる皇太子の状況への同情と落胆を語り、宮内庁への批判を展開した。	はいけいにわぎゃくこーすとよばれたみんしゅかにぎゃっこーするふーちょーえのひはんがあり、にっぽんしゃかいとーのあかねけくぼしげみつとえださぶろーわこっかいでこのしょーせつをとりあげ、わくにはめられるこーたいしのじょーきょーえのどーじょーとらくたんをかたり、くないちょーえのひはんをてんかいした。	NO_LABEL
また出版当時は「『暴力教室』学習院版」とも評されたが、これは藤島の先輩にあたる三島由紀夫が、学習院における生徒から先生へのいじめのひどさを表現した言葉で、本作で描かれたような先生いじめは「昔から」だったとしている。	NO_PRONOUNCE	NO_LABEL
学習院の校友会誌『輔仁会』で彼の作品を読んでいた三島は、本作をその頃に比べ「うますぎて心配」といい、皇太子が『レベッカ』のように、他のすべての人物に影響を与え行動の動機を与えながらも小説の背後に「淋しい肩を見せて立って」いる小説としての興趣を評価しつつ、皇太子の置かれる精神的みじめさと、物質的に恵まれない学生のみじめさは「お合い子」だといい、友情と称して皇太子をモデルにしたことについては疑問を投げかけた。	NO_PRONOUNCE	NO_LABEL
渡部直己は『不敬文学論序説』で、城山三郎『大義の末』とともに、主人公の皇太子に対する意識が山口昌男・網野善彦的王権論にいう「幼帝」への保護意識に根差し、「淡彩ながら明らかにホモ・エロティックな描写視線」があると指摘した。	NO_PRONOUNCE	NO_LABEL
また皇太子との距離の「近さ」が象徴天皇制への批判になっているが、その接近ぶりの不躾さは「恋闕作家」ならではの虚偽や粉飾とともに皇族の初夜や潔斎で全裸にされる姿まで描いてしまう小山いと子の鈍感さと褒め殺しには及ばないとした。	NO_PRONOUNCE	NO_LABEL
1957年1月15日公開の日本映画。	せんきゅうひゃくごじゅうしちねんいちがつじゅうごにちこーかいのにほんえいが。	NO_LABEL
モノクロ・82分、スタンダード・サイズ。	NO_PRONOUNCE	NO_LABEL
監督は西河克己、主演は津川雅彦。	かんとくわにしかわかつみ、しゅえんわつがわまさひこ。	NO_LABEL
原作で宮城県・松島などに設定されていた修学旅行先は奈良県でのロケになっており、ストーリー時系列は変更されている。	NO_PRONOUNCE	NO_LABEL
高崎俊夫によれば、日活にもプリントが残っていないという噂のある「幻の映画」とされている。	NO_PRONOUNCE	NO_LABEL
2016年現在、DVD化などはされていない。	にせんじゅうろくねんげんざい、でぃーぶいでぃーかなどわされていない。	NO_LABEL
2014年6月、ラピュタ阿佐ヶ谷でスクリプターの白鳥あかね特集の1本として上映された。	にせんじゅうよねんろくがつ、らぴゅたあさがやですくりぷたーのしらとりあかねとくしゅーのいっぽんとしてじょーえいされた。	NO_LABEL
クレジット順は日活サイトのデータを参照した。	くれじっとじゅんわにっかつさいとのでーたをさんしょーした。	NO_LABEL
作品の性質上、制作時には日活に右翼からの脅迫状も来ていた。	さくひんのせいしつじょー、せいさくじにわにっかつにうよくからのきょーはくじょーもきていた。	NO_LABEL
皇太子を演じたのは公募で選ばれた黒沢光郎である。	こーたいしをえんじたのわこーぼでえらばれたくろさわみつおである。	NO_LABEL
撮影時は皇太子を映してはならないとされたため、画面上ではロングショットや主観ショットのみで、白い手袋をして登場したが、その演出にはこういった事情への配慮があったとされる。	さつえいじわこーたいしをうつしてわならないとされたため、がめんじょーでわろんぐしょっとやしゅかんしょっとのみで、しろいてぶくろをしてとーじょーしたが、そのえんしゅつにわこーいったじじょーえのはいりょがあったとされる。	NO_LABEL
また学習院は皇室を利用しての金儲けや実在する皇太子をテーマにすることを批判し、映画化への協力を断り学生にも関わらないように指示していた。	またがくしゅーいんわこーしつをりよーしてのかねもーけやじつざいするこーたいしをてーまにすることをひはんし、えいがかえのきょーりょくをことわりがくせいにもかかわらないよーにしじしていた。	NO_LABEL
生徒の舟山役で学習院大学在学中だった三谷礼二が秋津礼二の名で出演したが、出演を取りやめるように大学から勧告を受けるものの従わなかったため、院長安倍能成から退学処分を受けた。	せいとのふなやまやくでがくしゅーいんだいがくざいがくちゅーだったみたにれいじがあきつれいじのなでしゅつえんしたが、しゅつえんをとりやめるよーにだいがくからかんこくをうけるもののしたがわなかったため、いんちょーあべよししげからたいがくしょぶんをうけた。	NO_LABEL
監督の西谷は責任を感じて三谷を日活俳優部に誘い、三谷は秋津の名でいくつかの映画に出演したあと、宣伝部に移り、著名なオペラ演出家となった。	かんとくのにしたにわせきにんをかんじてさんたにをにっかつはいゆーぶにさそい、みたにわあきつのなでいくつかのえいがにしゅつえんしたあと、せんでんぶにうつり、ちょめいなおぺらえんしゅつかとなった。	NO_LABEL
なお、撮影自体については、大学正門、グランドなどでロケが行われている。	なお、さつえいじたいについてわ、だいがくせいもん、ぐらんどなどでろけがおこなわれている。	NO_LABEL
この退学処分については本多顕彰などが「重すぎる」、戦後自由だった学習院が社会の風潮により「復古調」に戻っていると批判した。	NO_PRONOUNCE	NO_LABEL
また三谷は蓮實重彦の先輩にあたり、蓮實はこの縁で本作撮影に学習院時代の制服を貸している。	またみたにわはすみしげひこのせんぱいにあたり、はすみわこのえんでもとさくさつえいにがくしゅーいんじだいのせいふくをかしている。	NO_LABEL
撮影現場では、監督が出演者の小林旭に歌を歌わせ、小林が「木曽節」を歌ったところ、あまりのうまさに現場が静まりかえるほどで、これをきっかけに翌年小林はコロムビア・レコードから歌手デビューした。	NO_PRONOUNCE	NO_LABEL
当時の評価は賛否両論で、『朝日新聞』は『太陽の季節』の影響による「太陽族」同様の若者像が描かれたことに対する批判をし、『読売新聞』は地味だが「あくまで真面目に皇太子のことを考えて作られている点に好感が持てる」と評価した。	NO_PRONOUNCE	NO_LABEL
高崎俊夫は日活初期における正統派の青春映画と評価している。	たかさきとしおわにっかつしょきにおけるせいとーはのせいしゅんえいがとひょーかしている。	NO_LABEL
