宮地 傳三郎は、日本の動物生態学者。	みやじつとーさぶろーわ、にっぽんのどーぶつせいたいがくしゃ。	NO_LABEL
京都大学名誉教授。	きょーとだいがくめいよきょーじゅ。	NO_LABEL
理学博士。	りがくはかせ。	NO_LABEL
広島県尾道市生まれ。	ひろしまけんおのみちしうまれ。	NO_LABEL
宮地が停年退官後、京都大学の教室は京都大学出身で九州大学の助教授であった森下正明が引き継いだ。	みやじがていねんたいかんご、きょーとだいがくのきょーしつわきょーとだいがくしゅっしんできゅーしゅーだいがくのじょきょーじゅであったもりしたまさーきがひきついだ。	NO_LABEL
その森下正明が停年退官後、川那部浩哉が引き継いだ。	そのもりしたまさーきがていねんたいかんご、かわなべひろやがひきついだ。	NO_LABEL
杉山幸丸も宮地の流れをくんでいる。	すぎやまゆきまるもみやじのながれをくんでいる。	NO_LABEL
