グレイコードとは、数値の符号化法のひとつで、前後に隣接する符号間のハミング距離が必ず1であるという特性を持つ。	NO_PRONOUNCE	NO_LABEL
ディジタル回路や、具体例としてはアブソリュート・ロータリー・エンコーダーのセンサー出力等に使われる。	NO_PRONOUNCE	NO_LABEL
Reflected Binary Codeという表現はベル研究所のフランク・グレイによる1947年の特許出願書にある。	NO_PRONOUNCE	NO_LABEL
1953年に他の人物が提出した特許出願書ではグレイコードと呼ばれているほか、他の呼称も使われている。	せんきゅうひゃくごじゅうさんねんにたのじんぶつがていしゅつしたとっきょしゅつがんしょでわぐれいこーどとよばれているほか、たのこしょーもつかわれている。	NO_LABEL
人名に由来するのであって「灰色コード」ではないため、grey codeと書くのは誤りである。	NO_PRONOUNCE	NO_LABEL
通常の二進表現をグレイコードに変換するには、「対象の二進表現」と、「それを１ビット右シフトし、先頭に０をつけたもの」との排他的論理和をとる。	NO_PRONOUNCE	NO_LABEL
例えば、変換したい対象が10であれば、二進法で表現すれば「1010」であるから、それと「0101」との排他的論理和をとった、「1111」がグレイコードによる表現である。	NO_PRONOUNCE	NO_LABEL
プログラミング言語では、例えばC言語では、codice_1 となる。	NO_PRONOUNCE	NO_LABEL
逆にグレイコードを通常の二進表現に変換するには、「グレイコードによる表現」の最上位桁から順に最下位桁へ向かって隣の桁との排他的論理和をとる。	NO_PRONOUNCE	NO_LABEL
例えば、グレイコードによる表現が「1111」であれば、最上位桁から「1」、その値と次の桁との排他的論理和をとり「0」、その値と次の桁との排他的論理和をとり「1」、その値と次の桁との排他的論理和をとり「0」、と順次各桁を確定し、「1010」が二進法による表現である。	NO_PRONOUNCE	NO_LABEL
グレイコードは、ある値から隣接した値に変化する際に、常に1ビットしか変化しないという点が利用される。	NO_PRONOUNCE	NO_LABEL
一般的な二進法では、隣接する値に移行する際は、最下位桁だけが 0←→1 の入れ替えになる場合を除き、一般に1個以上のビットが変化する。	NO_PRONOUNCE	NO_LABEL
たとえば3から4に変化する場合、011から100に、3個のビットが変化する。	NO_PRONOUNCE	NO_LABEL
絶対的な角度をディジタル値で出力するアブソリュート・ロータリー・エンコーダーのような機器において、機械的な接点などで電気信号のオンオフを行う場合を考えてみよう。	NO_PRONOUNCE	NO_LABEL
この場合、機械の動作やデータ読み出しのタイミングによっては、誤ったデータが得られる可能性がある。	このばあい、きかいのどーさやでーたよみだしのたいみんぐによってわ、あやまったでーたがえられるかのーせいがある。	NO_LABEL
たとえば011から100に変化する際に、短時間の間に次のように出力が遷移するかもしれない。	NO_PRONOUNCE	NO_LABEL
各ビットとも、変化に誤りはないのであるが、機械構造の精度上の問題で、完璧に同時に全ビットが変化することは保証できないのである。	かくびっととも、へんかにあやまりわないのであるが、きかいこーぞーのせいどじょーのもんだいで、かんぺきにどーじにぜんびっとがへんかすることわほしょーできないのである。	NO_LABEL
そのため遷移の途中の段階でデータを読み出すと、010や000といった偽データを取得してしまう可能性がある。	NO_PRONOUNCE	NO_LABEL
一般的な二進法ではなく、グレイコードを使えば、隣接値への変化の際に、常に1ビットしか変わらないので、いかなるタイミングで読み出そうとデータの値は以前の値か次の値であり、偽データが生成されることはない。	NO_PRONOUNCE	NO_LABEL
ハノイの塔においてグレイコードによって表記された数字の一番下の桁に一番小さい円盤、次の数字に二番目の円盤というようにすべての桁と円盤を対応付けたとき、数字が変化することによって変わるビットに対応する円盤を動かすことで解答が求められる。	はのいのとーにおいてぐれいこーどによってひょーきされたすーじのいちばんかのけたにいちばんちーさいえんばん、つぎのすーじににばんめのえんばんとゆうよーにすべてのけたとえんばんをたいおーずけたとき、すーじがへんかすることによってかわるびっとにたいおーするえんばんをうごかすことでかいとーがもとめられる。	NO_LABEL
遺伝的アルゴリズムや分布推定アルゴリズムなどにおいて、数値を表現するのに、グレイコードが使われることがある。	いでんてきあるごりずむやぶんぷすいていあるごりずむなどにおいて、すーちをひょーげんするのに、ぐれいこーどがつかわれることがある。	NO_LABEL
多くの場合、結果が改善される。	おーくのばあい、けっかがかいぜんされる。	NO_LABEL
電気接点式のロータリエンコーダについて考える。	でんきせってんしきのろーたりえんこーだについてかんがえる。	NO_LABEL
金属などの導体をむき出しにしたパターンを円盤に付け、それを複数のブラシで読み取り角度を得るものとする。	きんぞくなどのどーたいをむきだしにしたぱたーんをえんばんにつけ、それをふくすーのぶらしでよみとりかくどをえるものとする。	NO_LABEL
この時、角度が変化して丁度境目の部分にブラシがあると、接触が不安定で、読み取りデータが1になるかもしれないし0になるかもしれない。	NO_PRONOUNCE	NO_LABEL
しかし、左の図のようにグレイコードを基にしたパターンを使用すれば、不安定になるビットは必ず1ビットだけであり、角度の検出としては安定した結果を得られる。	NO_PRONOUNCE	NO_LABEL
数学的には、実数の 10 の表現には 10.000000... と 9.999999... の 2 通りがある。	NO_PRONOUNCE	NO_LABEL
二進法では、1010.000000... と 1001.111111... の 2 種類があることになるが、この時、ある桁から下が、0 と 1 が反転したパターンになってしまう。	NO_PRONOUNCE	NO_LABEL
これを、グレイコードを使って、最初の一桁だけが不定となった後、残りの桁は一致するように表現できる。	これを、ぐれいこーどをつかって、さいしょのいちけただけがふていとなったのち、のこりのけたわいっちするよーにひょーげんできる。	NO_LABEL
位相偏移変調において、差動位相偏移変調や四位相偏移変調のアルゴリズムに応用されている。	いそーへんいへんちょーにおいて、さどーいそーへんいへんちょーやよんいそーへんいへんちょーのあるごりずむにおーよーされている。	NO_LABEL
ｎ進グレイコードとは交番ｎ進符号、ノンブーリアングレイコードへの拡張である。	えぬすすむぐれいこーどとわこーばんえぬすすむふごー、のんぶーりあんぐれいこーどえのかくちょーである。	NO_LABEL
グレイコードはｎ進グレイコードのｋビットでの表記を意味する。	ぐれいこーどわえぬすすむぐれいこーどのけいびっとでのひょーきをいみする。	NO_LABEL
三進法での拡張グレイコード、三進グレイコードでは０、１、２を用いる。	さんしんほーでのかくちょーぐれいこーど、みつのぶぐれいこーどでわぜろ、いち、にをもちいる。	NO_LABEL
2ビットでは{00, 01, 02, 12, 10, 11, 21, 22, 20}である。	NO_PRONOUNCE	NO_LABEL
前後に隣接する符号間のハミング距離が必ず1であるという特性を持つ符号化は、グレイコードだけではない。	NO_PRONOUNCE	NO_LABEL
ここでは、十進法との相性を考慮した符号化である、Glixon code、O'Brien codes、Petherick code、Tompkins codeを紹介する。	NO_PRONOUNCE	NO_LABEL
グレイコードとほぼ同じであるが、9に対応する符号はグレイコードが「1101」である一方、 Glixon code では「1000」となっている。	NO_PRONOUNCE	NO_LABEL
これにより、9と0の変化においてもハミング距離が1となる。	NO_PRONOUNCE	NO_LABEL
Glixon code と同様、9と0の変化においてもハミング距離が1となる。	NO_PRONOUNCE	NO_LABEL
0に対して「0000」を対応させない符号化の1つ。	NO_PRONOUNCE	NO_LABEL
最上位ビットを反転させることで、9の補数となるような符号化の１つ。	NO_PRONOUNCE	NO_LABEL
Glixon code と同様、9と0の変化においてもハミング距離が1となる。	NO_PRONOUNCE	NO_LABEL
0に対して「0000」を対応させない符号化の1つ。	NO_PRONOUNCE	NO_LABEL
最上位ビットを反転させることで、9の補数となるような符号化の１つ。	NO_PRONOUNCE	NO_LABEL
Glixon code と同様、9と0の変化においてもハミング距離が1となる。	NO_PRONOUNCE	NO_LABEL
0に対して「0000」を対応させない符号化の1つ。	NO_PRONOUNCE	NO_LABEL
最上位ビットを反転させることで、9の補数となるような符号化の１つ。	NO_PRONOUNCE	NO_LABEL
さらに、最下位ビット以外の全てのビットにおいて、1である割合が1/2となっている。	NO_PRONOUNCE	NO_LABEL
