Photo Boothとは、アップルが開発するソフトウェアである。	ふぉとぶーすとわ、あっぷるがかいはつするそふとうぇあである。	NO_LABEL
iSightを内蔵するMacに付属するほか、Mac OS X v10.5にもバンドルされている。	NO_PRONOUNCE	NO_LABEL
Macに搭載されたiSightで写真を撮影し、さまざまなエフェクトを加えてユーモラスに表示することができる。	まっくにとーさいされたあいさいとでしゃしんをさつえいし、さまざまなえふぇくとをくわえてゆーもらすにひょーじすることができる。	NO_LABEL
また、iChatなどのインスタントメッセンジャーと連携する機能も備えている。	また、あいちゃっとなどのいんすたんとめっせんじゃーとれんけいするきのーもそなえている。	NO_LABEL
