ツチスドリ科は、鳥類スズメ目に属していた1科である。	NO_PRONOUNCE	NO_LABEL
1980年代ごろまで使われたが、現在はほとんど使われない。	せんきゅうひゃくはちじゅうねんだいごろまでつかわれたが、げんざいわほとんどつかわれない。	NO_LABEL
オーストラリア、ニューギニア	おーすとらりあ、にゅーぎにあ	NO_LABEL
3属4種が属していた。	NO_PRONOUNCE	NO_LABEL
しかしこれらは、Sibleyらによる初期の分子系統により多系統だと判明し、オオツチスドリとハイイロツチスドリはオオツチスドリ科 として分離され、残りのツチスドリ属2種はカササギヒタキ科 に含められた。	NO_PRONOUNCE	NO_LABEL
なおSibley分類ではそれぞれ、カラス科オオツチスドリ亜科、カラス科オウチュウ亜科カササギヒタキ族とされていた。	NO_PRONOUNCE	NO_LABEL
過渡的に、ツチスドリ属2種のみをツチスドリ科とする分類も存在した。	かとてきに、つちすどりぞくにしゅのみをつちすどりかとするぶんるいもそんざいした。	NO_LABEL
