大城村は、昭和の大合併で消滅した村。	おーしろむらわ、しょーわのだいがっぺいでしょーめつしたむら。	NO_LABEL
福岡県の中央に位置した。	ふくおかけんのちゅーおーにいちした。	NO_LABEL
旧御井郡。	きゅーみーぐん。	NO_LABEL
1955年3月1日、三井郡北野町・金島村・弓削村と対等合併し、新しい北野町となったために消滅した。	NO_PRONOUNCE	NO_LABEL
以下は合併前日までの情勢である。	いかわがっぺいぜんじつまでのじょーせいである。	NO_LABEL
すべて三井郡である	すべてみいぐんである	NO_LABEL
