ロシア帝国軍事省（）とは、ロシア帝国の国防・軍事を統括する官庁。	NO_PRONOUNCE	NO_LABEL
1802年9月8日、省庁設置令に従い、陸軍省（）が設置される。	せんはっぴゃくにねんくがつようか、しょーちょーせっちれいにしたがい、りくぐんしょーかっこがせっちされる。	NO_LABEL
1808年6月24日、陸軍省は軍事省に改称された。	せんはっぴゃくはちねんろくがつにじゅうよっか、りくぐんしょーわぐんじしょーにかいしょーされた。	NO_LABEL
1815年12月12日、参謀本部の設置と共に、軍事大臣は参謀総長の直属となり、軍事省には軍政と兵科部門が残された。	せんはっぴゃくじゅうごねんじゅーにがつじゅうににち、さんぼーほんぶのせっちとともに、ぐんじだいじんわさんぼーそうちょーのちょくぞくとなり、ぐんじしょーにわぐんせいとへいかぶもんがのこされた。	NO_LABEL
その後も、軍事省は機能が縮小され続け、1818年～1819年、工兵総監を長とする工兵部隊と砲兵総監を長とする砲兵部隊が独立官庁に分離され、1821年、屯田兵は独立屯田兵団本部に従属し、1832年から軍事教育施設はパジュ・陸軍幼年団・貴族連隊総長局本部が指導した。	NO_PRONOUNCE	NO_LABEL
1832年と1836年の軍事省設置令に従い、軍事官庁の中央集権化が進められ、参謀本部、屯田兵を含む全部門が軍事省の構成に入った。	せんはっぴゃくさんじゅうにねんとせんはっぴゃくさんじゅうろくねんのぐんじしょーせっちれいにしたがい、ぐんじかんちょーのちゅーおーしゅーけんかがすすめられ、さんぼーほんぶ、とんでんへいをふくむぜんぶもんがぐんじしょーのこーせいにはいった。	NO_LABEL
1860年代、各地方に軍管区が設置される。	せんはっぴゃくろくじゅうねんだい、かくちほーにぐんかんくがせっちされる。	NO_LABEL
1865年、参謀本部設置。	せんはっぴゃくろくじゅうごねん、さんぼーほんぶせっち。	NO_LABEL
1869年1月1日、軍事省規程承認。	せんはっぴゃくろくじゅうきゅうねんいちがつついたち、ぐんじしょーきていしょーにん。	NO_LABEL
軍事省の機構は、19世紀末～20世紀初頭にかけて、数度の変更を経た。	NO_PRONOUNCE	NO_LABEL
日露戦争での敗北後、1905年6月、皇帝に直属する参謀総長職が設置され、参謀総長の下には陸軍の作戦指導のために参謀本部総局が再び創設された。	にちろせんそーでのはいぼくご、せんきゅうひゃくごねんろくがつ、こーていにちょくぞくするさんぼーそうちょーしょくがせっちされ、さんぼーそうちょーのしたにわりくぐんのさくせんしどーのためにさんぼーほんぶそーきょくがふたたびそーせつされた。	NO_LABEL
1906年～1910年にかけて、各兵科の総監局が設置された。	NO_PRONOUNCE	NO_LABEL
1913年、航空隊の管轄のため、工兵総局は軍事技術総局に改編された。	せんきゅうひゃくじゅうさんねん、こーくーたいのかんかつのため、こーへいそーきょくわぐんじぎじゅつそーきょくにかいへんされた。	NO_LABEL
第一次世界大戦中、軍事省は、予備役軍人の総動員を行い、現役軍の充足と物資・機材の補給を実施した。	NO_PRONOUNCE	NO_LABEL
部隊の野戦統制は、最高司令官本部の管轄下にあった。	ぶたいのやせんとーせいわ、さいこーしれいかんほんぶのかんかつかにあった。	NO_LABEL
二月革命後、軍事省に閣僚代表・最高司令官室執務室と政治局が創設された。	NO_PRONOUNCE	NO_LABEL
十月革命後は、ソビエト当局の支配下に入り、1918年中に解散された。	じゅーがつかくめいごわ、そびえととーきょくのしはいかにはいり、せんきゅうひゃくじゅうはちねんちゅーにかいさんされた。	NO_LABEL
軍事省の若干の部署は、赤軍に吸収された。	ぐんじしょーのじゃっかんのぶしょわ、せきぐんにきゅーしゅーされた。	NO_LABEL
1869年1月1日付軍事省規程に従う。	せんはっぴゃくろくじゅうきゅうねんいちがつついたちずけぐんじしょーきていにしたがう。	NO_LABEL
1866年以降のみ。	せんはっぴゃくろくじゅうろくねんいこーのみ。	NO_LABEL
階級は就任時のもの。	かいきゅーわしゅーにんじのもの。	NO_LABEL
