宙太は日本の歌手、作詞家 、作曲家、構成作家、プロデューサー。	ちゅーたわにっぽんのかしゅ、さくしか、さっきょくか、こーせいさっか、ぷろでゅーさー。	NO_LABEL
ツインボーカルの『宙太＆あいびぃ』の一人。	NO_PRONOUNCE	NO_LABEL
シンガーソングライター、バンド等での活動後、女優のあいびぃと出会いツインボーカルの『宙太＆あいびぃ』を結成する。	NO_PRONOUNCE	NO_LABEL
西武百貨店等の各デパート施設、レストラン等とのコラボイベントも企画、参加し、大手カー用品販売店のオートウェーブの店内テーマ曲を提供するなど各企業とタイアップもし始め、 人材派遣会社や、結婚式場などのTVコマーシャルに楽曲を提供する等、メディアでも活躍。	せいぶひゃっかてんとーのかくでぱーとしせつ、れすとらんとーとのこらぼいべんともきかく、さんかし、おーてかーよーひんはんばいてんのおーとうぇーぶのてんないてーまきょくをていきょーするなどかくきぎょーとたいあっぷもしはじめ、じんざいはけんがいしゃや、けっこんしきじょーなどのてぃーぶいこまーしゃるにがっきょくをていきょーするひとし、めでぃあでもかつやく。	NO_LABEL
その一方で、ボランティアイベントで老人ホーム、学校などでコンサートを開いたりする他、町おこしの実行委員会に入り地域活性に務め、活動地域も関東から中部、関西と幅広いエリアで活動するようになる。	そのいっぽーで、ぼらんてぃあいべんとでろーじんほーむ、がっこーなどでこんさーとをひらいたりするほか、まちおこしのじっこーいーんかいにはいりちいきかっせいにつとめ、かつどーちいきもかんとーからちゅーぶ、かんさいとはばひろいえりあでかつどーするよーになる。	NO_LABEL
ギターメーカーからのモニターの依頼により、世界的に有名なヤイリギター、そして老舗ギターメーカーのAriaギターからギターを提供され、楽器フェアなどにも出演している 。	NO_PRONOUNCE	NO_LABEL
『宙太＆あいびぃ』のギター&ボーカルとしての活動の他にはインターネットTV番組も手掛けるようになり音楽以外の分野にも進出し、やがて『宙太＆あいびぃ』は2007年に解散。	NO_PRONOUNCE	NO_LABEL
※現在は再結成している。	NO_PRONOUNCE	NO_LABEL
解散後はソロ活動と共に、他アーティストへ楽曲を提供をしたり、自身もNTTドコモ企業向けドラマに『It's a happy day』が起用されたり、海外でのライブを行う等インターナショナルな活動もする一方で、島根県雲南市のバックアップにより童謡を作り、歌ったり、月刊誌にてコラムを掲載するなど広く活動をしている。	NO_PRONOUNCE	NO_LABEL
2010年よりレインボータウンFMにて『宙太の一番星』という番組をスタートさせDJを務めた他、モノマネタレントのゆうたろう氏の『ゆうたろうの歌エンタ』では、構成作家、音楽担当をしながらアシスタントとしても出演する。	NO_PRONOUNCE	NO_LABEL
絵本でヒットした『おまえうまそうだな』の映画が2010年の秋から全国公開され、その映画の中で挿入歌を担当。	NO_PRONOUNCE	NO_LABEL
国際フォーラムで行われたミュージカル『赤毛のアン』にも牧師役で出演している。	NO_PRONOUNCE	NO_LABEL
現在は広い人脈を基にキャスティング会社を運営。	げんざいわひろいじんみゃくをもとにきゃすてぃんぐかいしゃをうんえい。	NO_LABEL
好きな食べ物はチョコレート。	すきなたべものわちょこれーと。	NO_LABEL
嫌いな食べ物は肉。	きらいなたべものわにく。	NO_LABEL
