マンププニョルの巨石群はロシア連邦のコミ共和国トロイツコ・ペチョルスキー地区に存在する、7本の巨大な石柱の総称である。	NO_PRONOUNCE	NO_LABEL
いずれの巨石も高さは30mから42mあり、台地から突き出している。	いずれのきょーせきもたかさわさんじゅうめーとるからよんじゅうにめーとるあり、だいちからつきだしている。	NO_LABEL
のひとつ。	のひとつ。	NO_LABEL
巨石群は人の住む地域から遠く離れたペチョロ・イリイチスク自然保護区の中にあるため、観光で巨石群を見るためには自然保護区の許可が必要になる。	NO_PRONOUNCE	NO_LABEL
