全国ユースフォーラムとは、文部科学省、社団法人青少年育成国民会議、独立行政法人国立青少年教育振興機構が主催する青少年事業のことである。	ぜんこくゆーすふぉーらむとわ、もんぶかがくしょー、せいしょーねんいくせいこくみんかいぎ、こくりつせいしょーねんきょーいくしんこーきこーがしゅさいするせいしょーねんじぎょーのことである。	NO_LABEL
高校生世代を対象にし、国立オリンピック記念青少年総合センターで、毎年、7月末に2泊3日の日程で開催される。	NO_PRONOUNCE	NO_LABEL
全国47都道府県から約300名が参加。	NO_PRONOUNCE	NO_LABEL
「学校」、「家族」、「友達」、「自らの将来」などの身近な話題から、「平和」、「環境問題」、「政治」などのグローバルな問題、更には「メディア」、「食の問題」などの時事問題を、分科会という形に分かれて討議する。	NO_PRONOUNCE	NO_LABEL
閉会後は報告書が作成され、文部科学省Webサイト内に掲載されている。	へいかいごわほーこくしょがさくせいされ、もんぶかがくしょーうぇぶさいとないにけいさいされている。	NO_LABEL
国立オリンピック記念青少年総合センターに通うことのできる首都圏地区から選出された現役高校生が実行委員会として組織され、毎年夏に開催される全国ユースフォーラムの企画・運営を全面的に行う。	NO_PRONOUNCE	NO_LABEL
3月に第1回実行委員会が開催され、約4か月をかけて企画・準備を行う。	NO_PRONOUNCE	NO_LABEL
フォーラム当日は、分科会の進行約や各種イベントの進行など参加者を全面的にサポートする。	ふぉーらむとーじつわ、ぶんかかいのしんこーやくやかくしゅいべんとのしんこーなどさんかしゃをぜんめんてきにさぽーとする。	NO_LABEL
フォーラム終了後は、成果や課題をまとめ「報告書」を作成する。	NO_PRONOUNCE	NO_LABEL
分科会のページを含め、ほぼ全てのページを実行委員が執筆する。	ぶんかかいのぺーじをふくめ、ほぼすべてのぺーじをじっこーいーんがしっぴつする。	NO_LABEL
この報告書の完成をもって解散となる。	このほーこくしょのかんせいをもってかいさんとなる。	NO_LABEL
人数は年によって異なる。	にんずーわとしによってことなる。	NO_LABEL
2007年度報告書によれば、実行委員は24名とされている。	NO_PRONOUNCE	NO_LABEL
