伊那谷断層帯は、長野県南部に存在する断層群のこと。	いなだにだんそーたいわ、ながのけんなんぶにそんざいするだんそーぐんのこと。	NO_LABEL
伊那市付近から飯田市付近にかけ北西から南西にかけ約60kmにわたって延びており、30〜40度の角度で西に傾斜する逆断層群を形成している。	NO_PRONOUNCE	NO_LABEL
付近では有史以来大型の地震が記録されていないことから、断層の活動に伴う大地震の危険性が注目されている。	ふきんでわゆーしいらいおーがたのじしんがきろくされていないことから、だんそーのかつどーにともなうおおじしんのきけんせいがちゅーもくされている。	NO_LABEL
