宮嶋巌は北海道小樽市出身の元スキージャンプ選手。	みやじまいわおわほっかいどーおたるししゅっしんのもとすきーじゃんぷせんしゅ。	NO_LABEL
宮島の表記もあり。	みやじまのひょーきもあり。	NO_LABEL
旧制小樽中学4年時にジャンプを始めた。	きゅーせいおたるちゅーがくよんねんじにじゃんぷをはじめた。	NO_LABEL
中学卒業後小樽高等商業学校に進む。	ちゅーがくそつぎょーごおたるこーとーしょーぎょーがっこーにすすむ。	NO_LABEL
1936年ガルミッシュ・パルテンキルヒェンオリンピックに出場、31位だった。	NO_PRONOUNCE	NO_LABEL
