マイケル・ジャクソン IN ソウルトレインはアメリカ合衆国のミュージシャン、マイケル・ジャクソンのDVD。	まいけるじゃくそんいんそうるとれいんわあめりかがっしゅーこくのみゅーじしゃん、まいけるじゃくそんのでぃーぶいでぃー。	NO_LABEL
マイケル・ジャクソンが音楽番組『ソウル・トレイン』とソウル・トレイン・ミュージック・アワードに出演したときのパフォーマンスを収録する予定だった。	NO_PRONOUNCE	NO_LABEL
当初は、2010年1月27日に『マイケル・ジャクソン THIS IS IT』のDVDとブルーレイと同時発売される予定だったが、発売が延期されたが、その後発売中止が発表された。	NO_PRONOUNCE	NO_LABEL
