『キリン お天気ママさん』は、1964年6月26日から1984年10月6日まで、TBSで毎週月曜日から土曜日 18:55 - 19:00に放送された天気予報番組である。	NO_PRONOUNCE	NO_LABEL
キリンビールの一社提供番組。	きりんびーるのいっしゃていきょーばんぐみ。	NO_LABEL
TBSが日本気象協会内に設置したスタジオからの放送を行った天気予報番組である。	てぃーびーえすがにほんきしょーきょーかいないにせっちしたすたじおからのほーそーをおこなったてんきよほーばんぐみである。	NO_LABEL
女性キャスターを起用し、母親が子供に語りかけるようなやさしい口調を用いて天気予報を伝える演出が採られた。	じょせいきゃすたーをきよーし、ははおやがこどもにかたりかけるよーなやさしいくちょーをもちいててんきよほーをつたえるえんしゅつがとられた。	NO_LABEL
また、番組のスタジオセットに季節の花で飾ったテーブルを使い放送された時期もある。	また、ばんぐみのすたじおせっとにきせつのはなでかざったてーぶるをつかいほーそーされたじきもある。	NO_LABEL
三木鶏郎作曲の「キリンレモン」CMソングが番組のテーマ曲として使用された。	NO_PRONOUNCE	NO_LABEL
放送開始当初の本番組で使用された天気図は、NHKの同時間帯の天気予報よりも早い、15時現在の天気図を用いていた。	ほーそーかいしとーしょのほんばんぐみでしよーされたてんきずわ、えぬえいちけいのどーじかんたいのてんきよほーよりもはやい、じゅうごじげんざいのてんきずをもちいていた。	NO_LABEL
1984年10月の『JNNニュースコープ』の時間拡大に伴い終了。	NO_PRONOUNCE	NO_LABEL
天気予報は同番組内に吸収された。	てんきよほーわどーばんぐみないにきゅーしゅーされた。	NO_LABEL
本番組に出演した気象キャスターは降板となり、以降の番組では日本気象協会所属の気象解説者が専属で担当している。	ほんばんぐみにしゅつえんしたきしょーきゃすたーわこーばんとなり、いこーのばんぐみでわにほんきしょーきょーかいしょぞくのきしょーかいせつしゃがせんぞくでたんとーしている。	NO_LABEL
