雲仙山 尚敏は、長崎県南高来郡加津佐町出身で二所ノ関部屋所属の1960年代に活躍した元大相撲力士。	うんぜんさんたかとしわ、ながさきけんみなみたかきぐんかずさまちしゅっしんでにしょのせきべやしょぞくのせんきゅうひゃくろくじゅうねんだにかつやくしたもとおーずもーりきし。	NO_LABEL
本名は、岩永 尚敏。	ほんみょーわ、いわながたかとし。	NO_LABEL
現役時代の体格は身長174cm、体重98kg。	げんえきじだいのたいかくわしんちょーひゃくななじゅうよんせんちめーとる、たいじゅーきゅうじゅうはちきろぐらむ。	NO_LABEL
得意手は右四つ、寄り。	とくいしゅわみぎよっつ、より。	NO_LABEL
最高位は十両7枚目。	さいこーいわじゅーりょーななまいめ。	NO_LABEL
血液型はB型。	けつえきがたわびーがた。	NO_LABEL
