『CBC歌謡ベストテン』は、1972年10月14日から1995年4月8日まで、2014年4月6日からCBCラジオで放送されている演歌・歌謡曲専門の音楽番組である。	NO_PRONOUNCE	NO_LABEL
第1期の主な番組内容は番組タイトルそのままに、番組へのハガキリクエスト、「土曜天国」への電話リクエスト、愛知県・岐阜県・三重県の東海3県下の各レコードショップの1週間の売上総計、有線放送リクエスト回数、ジューク・ボックスでのリクエスト回数を勘案して毎週独自の邦楽ヒットチャート上位10曲を紹介してゆくというものであった。	NO_PRONOUNCE	NO_LABEL
第2期は、前番組の「CBC演歌ベストテン」を引き継いだ形で、従来の演歌に加えて日本人の心のふるさとである「歌謡曲」を中心に放送する。	NO_PRONOUNCE	NO_LABEL
提供は前番組と同じ長島温泉。	ていきょーわぜんばんぐみとおなじながしまおんせん。	NO_LABEL
第1期	だいいっき	NO_LABEL
第2期	だいにき	NO_LABEL
第1期	だいいっき	NO_LABEL
第2期	だいにき	NO_LABEL
