NTTドコモ墨田ビルは、東京都墨田区に建つ超高層ビルディングである。	えぬてぃてぃどこもすみだびるわ、とーきょーとすみだくにたつちょーこうそーびるでぃんぐである。	NO_LABEL
当ビルにはNTTドコモ歴史展示スクエアという、NTTドコモ関連の無線通信機器の科学館がある。	とーびるにわえぬてぃてぃどこもれきしてんじすくえあとゆう、えぬてぃてぃどこもかんれんのむせんつーしんききのかがくかんがある。	NO_LABEL
NTTドコモが所有する超高層ビルで、両国国技館、江戸東京博物館に隣接し両国駅が最寄り駅となる。	えぬてぃてぃどこもがしょゆーするちょーこーそーびるで、りょうごくこくぎかん、えどとーきょーはくぶつかんにりんせつしりょーごくえきがもよりえきとなる。	NO_LABEL
竣工時の2004年現在、墨田区では最も高い高層建築物となり東京都内でも27番目に高い高層建築物である。	しゅんこーじのにせんよねんげんざい、すみだくでわもっともたかいこーそーけんちくぶつとなりとーきょーとないでもにじゅうななばんめにたかいこーそーけんちくぶつである。	NO_LABEL
NTTドコモ代々木ビルのように携帯電話、FOMA、iモード等のNTTドコモのネットワーク設備が中心のビルであるが、ドコモ・モバイルが運営するドコモのグループ会社・パートナー企業・ドコモショップ向けの研修施設が低層階に設置されている。	NO_PRONOUNCE	NO_LABEL
塔屋部分に鉄塔があり、そこにはNTTドコモが利用するマイクロ無線用のアンテナが配置されている。	とーやぶぶんにてっとーがあり、そこにわえぬてぃてぃどこもがりよーするまいくろむせんよーのあんてながはいちされている。	NO_LABEL
当ビルの1階には「NTTドコモ歴史展示スクエア」があり、自動車電話、船舶電話、携帯電話、ポケットベル、衛星電話、携帯情報端末、PHSといった、電電公社、NTT、NTTドコモを中心とした、200点以上の実機、移動体通信の過去から未来への歴史を見ることができる。	NO_PRONOUNCE	NO_LABEL
こちらも研修施設と同じドコモ・モバイルが運営を行っている。	NO_PRONOUNCE	NO_LABEL
