『東方心綺楼 〜 Hopeless Masquerade.』とは、同人サークル黄昏フロンティア及び上海アリス幻樂団製作の対戦型格闘ゲームである。	NO_PRONOUNCE	NO_LABEL
本作品は東方Projectの二次創作物ではなく、上海アリス幻樂団との共同開発作品であり、公式に東方Project第13.5弾と呼ばれている。	NO_PRONOUNCE	NO_LABEL
本項では、以降は『心綺楼』と称することとする。	NO_PRONOUNCE	NO_LABEL
その他の本項で使用されている東方Project関連の略称については、東方Project#凡例を参照。	NO_PRONOUNCE	NO_LABEL
本作は東方Projectの登場人物を起用した対戦型格闘ゲームである。	もとさくわとーほーぷろじぇくとのとーじょーじんぶつをきよーしたたいせんがたかくとーげーむである。	NO_LABEL
ゲーム制作は黄昏フロンティアが担当し、シナリオ・技名・新キャラ設定・デザインや一部楽曲などをZUNが担当している。	NO_PRONOUNCE	NO_LABEL
登場人物は博麗霊夢、霧雨魔理沙以外は『緋想天』から一新され、この2人に『星蓮船』に登場していた雲居一輪&雲山、聖白蓮、『神霊廟』に登場していた物部布都、豊聡耳神子、二ッ岩マミゾウ、『風神録』が初出となる河城にとり、『地霊殿』に登場していた古明地こいしに新規の1人を加えた10人となっている。	NO_PRONOUNCE	NO_LABEL
サブタイトルの"Hopeless Masquerade"は直訳すると希望のない仮面舞踏会となる。	NO_PRONOUNCE	NO_LABEL
度重なる天変地異により、人間の里には厭世感が広がっていた。	たびかさなるてんぺんちいにより、にんげんのさとにわえんせいかんがひろがっていた。	NO_LABEL
里の人間たちは、何をしても人間の未来は変わらないという閉塞感を感じるようになっていた。	さとのにんげんたちわ、なにをしてもにんげんのみらいわかわらないとゆうへいそくかんをかんじるよーになっていた。	NO_LABEL
何も変わらないのなら何をしてもいいのではないかと感じ、刹那的に生きれば良いと思うようになった彼らの心は解放され、里の秩序は乱れていった。	なにもかわらないのならなにをしてもいいのでわないかとかんじ、せつなてきにいきればよいとおもうよーになったかれらのこころわかいほーされ、さとのちつじょわみだれていった。	NO_LABEL
幻想郷の宗教家たちはこうした様子に目を付け、乱れた人心を掌握すれば、里の秩序が取り戻され、自らの信仰を集めることにつながると考えた。	げんそーきょーのしゅーきょーかたちわこーしたよーすにめをつけ、みだれたじんしんをしょーあくすれば、さとのちつじょがとりもどされ、みずからのしんこーをあつめることにつながるとかんがえた。	NO_LABEL
こうして、宗教家たちによる人気の奪い合いが始まった。	こーして、しゅーきょーかたちによるにんきのうばいあいがはじまった。	NO_LABEL
今作は空中戦を主体とした対戦型格闘ゲームである。	こんさくわくーちゅーせんをしゅたいとしたたいせんがたかくとーげーむである。	NO_LABEL
そのため、上下キーが急浮上および急降下のコマンドになっている。	そのため、じょーげきーがきゅーふじょーおよびきゅーこーかのこまんどになっている。	NO_LABEL
ただし、画面には表示されないものの、フィールド中央には基本ラインが横に引かれており、行き過ぎると基本ラインのところまで戻ってくる仕組みになっている。	ただし、がめんにわひょーじされないものの、ふぃーるどちゅーおーにわきほんらいんがよこにひかれており、いきすぎるときほんらいんのところまでもどってくるしくみになっている。	NO_LABEL
一応床の概念はあるものの落下した際に跳ね返る程度である。	いちおーゆかのがいねんわあるもののらっかしたさいにはねかえるていどである。	NO_LABEL
このシステムについて黄昏フロンティアの海原海豚は『アストラスーパースターズ』に近いシステムであると話している。	NO_PRONOUNCE	NO_LABEL
また、相手のライフを0にすることで勝利するという条件のほかにも、時間切れの時に観客からの人気度が相手よりも高くても勝利として扱われる。	NO_PRONOUNCE	NO_LABEL
観客からの人気度は積極的な行動をすると上がり、消極的な行動をすると不人気度が上がる。	かんきゃくからのにんきどわせっきょくてきなこーどーをするとあがり、しょーきょくてきなこーどーをするとふにんきどがあがる。	NO_LABEL
人気度が最高潮に達すると、人気爆発状態となり、霊力が回復するなどのメリットがある。	にんきどがさいこーちょーにたっすると、にんきばくはつじょーたいとなり、れいりょくがかいふくするなどのめりっとがある。	NO_LABEL
ただし、この状態に相手を仕留め損ねたり、ラストワードを外すと人気度が下落するというリスクもある。	ただし、このじょーたいにあいてをしとめそこねたり、らすとわーどをはずすとにんきどがげらくするとゆうりすくもある。	NO_LABEL
猿楽の創始者である秦河勝が使っていたお面が長い時を経て妖怪化した面霊気。	さるがくのそーししゃであるはたのかわかつがつかっていたおめんがながいときをへてよーかいかしためんれいき。	NO_LABEL
六十六枚の面からなり、それぞれのお面ごとに感情が決まっている。	ろくじゅーろくまいのめんからなり、それぞれのおめんごとにかんじょーがきまっている。	NO_LABEL
こころ自身はほとんど感情を表に出さないが、お面を被るとその感情に変化する。	こころじしんわほとんどかんじょーをひょーにださないが、おめんをこーむるとそのかんじょーにへんかする。	NO_LABEL
こころの感情は近くにいる者にも影響を及ぼす。	こころのかんじょーわちかくにいるものにもえいきょーをおよぼす。	NO_LABEL
普段は感情がバランスを取り合い安定しているが、面が一つでも失われると感情の力が干渉しあって暴走してしまう。	ふだんわかんじょーがばらんすをとりあいあんていしているが、めんがひとつでもうしなわれるとかんじょーのちからがかんしょーしあってぼーそーしてしまう。	NO_LABEL
今回の件は彼女が｢希望｣の面を無くしてしまったことが発端であった。	NO_PRONOUNCE	NO_LABEL
ここでは、『心綺楼』が初登場ではない登場人物を解説する。	NO_PRONOUNCE	NO_LABEL
