石井 信夫は、日本の哺乳類学者。	いしいしのぶわ、にっぽんのほにゅーるいがくしゃ。	NO_LABEL
東京女子大学現代教養学部数理科学科教授。	とーきょーじょしだいがくげんだいきょーよーがくぶすーりかがくかきょーじゅ。	NO_LABEL
1952年東京都出身。	せんきゅうひゃくごじゅうにねんとーきょーとしゅっしん。	NO_LABEL
1975年東京大学農学部林学科卒。	せんきゅうひゃくななじゅうごねんとーきょーだいがくのーがくぶりんがっかそつ。	NO_LABEL
1980年東京大学大学院農学系研究科博士課程修了。	せんきゅうひゃくはちじゅうねんとーきょーだいがくだいがくいんのーがくけいけんきゅーかはかせかていしゅーりょー。	NO_LABEL
東京大学　農学博士。	とーきょーだいがくのーがくはかせ。	NO_LABEL
論文の題は「Population dynamic and social structures of three species of small mammals」。	NO_PRONOUNCE	NO_LABEL
 財団法人自然環境研究センター上席研究員を経て、東京女子大学現代教養学部数理科学科教授。	ざいだんほーじんしぜんかんきょーけんきゅーせんたーじょーせきけんきゅーいんをへて、とーきょーじょしだいがくげんだいきょーよーがくぶすーりかがくかきょーじゅ。	NO_LABEL
東京女子大学文理学部。	とーきょーじょしだいがくぶんりがくぶ。	NO_LABEL
農学博士。	のーがくはかせ。	NO_LABEL
日本哺乳類学会理事。	にほんほにゅーるいがっかいりじ。	NO_LABEL
