国鉄タキ6700形貨車は、かつて日本国有鉄道に在籍した私有貨車である。	こくてつたきろくせんななひゃくがたかしゃわ、かつてにほんこくゆーてつどーにざいせきしたしゆーかしゃである。	NO_LABEL
1958年8月26日にタキ400形より1両、タキ1400形より1両の専用種別変更が汽車製造にて行われ形式名は新形式であるタキ6700形に変更された。	NO_PRONOUNCE	NO_LABEL
更に同年9月6日にタキ400形より1両の専用種別変更が汽車製造にて行われた。	NO_PRONOUNCE	NO_LABEL
この時点でタキ400形よりの改造車はタキ6700番台、タキ1400形よりの改造車はタキ6750番台と区分けされていた。	NO_PRONOUNCE	NO_LABEL
その後1968年10月17日にタキ2800形より4両の専用種別変更が汽車製造にて行われ本形式に編入され上記の番台区分が複雑になった。	NO_PRONOUNCE	NO_LABEL
本形式の他に塩酸を専用種別とする形式はタ1750形、タ1850形、タ3200形、タム5000形、タム5100形、タム9400形、タム25000形、タキ5000形、タキ5050形、タキ12500形の10形式があった。	NO_PRONOUNCE	NO_LABEL
所有者は東亜合成化学の1社のみであり落成時の常備駅は伏木駅、坂出港駅、昭和町駅である。	NO_PRONOUNCE	NO_LABEL
1979年10月より化成品分類番号「82」）が標記された。	NO_PRONOUNCE	NO_LABEL
タンク体材質は、一般構造用圧延鋼材製であり、このため内部に腐食防止のためのゴムライニング処理が施されている。	たんくたいざいしつわ、いっぱんこーぞーよーあつえんこーざいせいであり、このためないぶにふしょくぼーしのためのごむらいにんぐしょりがほどこされている。	NO_LABEL
タンク体には「」と標記された。	NO_PRONOUNCE	NO_LABEL
荷役方式は、タンク上部のマンホールからの上入れ、吐出管を用いた下出し方式である。	にやくほーしきわ、たんくじょーぶのまんほーるからのうえいれ、としゅつかんをもちいたしただしほーしきである。	NO_LABEL
車体色は黒色、寸法関係は全長は10,300mm、全幅は2,478mm、全高は3,710mm、台車中心間距離は6,400mm、実容積は22.2m、自重は18.2t、換算両数は積車4.0、空車1.6であり、台車はベッテンドルフ式のTR41C、TR41Dであった。	NO_PRONOUNCE	NO_LABEL
1984年1月31日に最後まで在籍した1両が廃車となり同時に形式消滅となった。	NO_PRONOUNCE	NO_LABEL
