ロッキード・マーティン X-56は、将来の軍用無人偵察機に用いられる飛行技術の研究、および今後のX-54による低ソニックブーム超音速研究計画や将来の低排出輸送機開発への貢献のために設計されたモジュール式の無人航空機。	NO_PRONOUNCE	NO_LABEL
Xプレーンの一つ。	えっくすぷれーんのひとつ。	NO_LABEL
設計は非公式にスカンクワークスと呼ばれるロッキード・マーティン先進開発計画によって行われ、「」によって最初に報道された。	NO_PRONOUNCE	NO_LABEL
X-56は能動的なフラッターの抑制と突風荷重軽減技術の研究を目的としている。	NO_PRONOUNCE	NO_LABEL
X-56Aはロッキード・マーティンが以前に開発していたUAVを原型としており、RQ-3やRQ-170、ポールキャットといった機体の影響を受けている。	NO_PRONOUNCE	NO_LABEL
この計画には飛行試験用に製造された翼幅8.4 mの主翼4セットと、全長2.3 mの胴体2つが求められている。	NO_PRONOUNCE	NO_LABEL
X-56Aは、エドワーズ空軍基地で2013年7月26日に初飛行した時点では、さらなる試験のためにアメリカ航空宇宙局に引き渡される前に、20回のフライトが空軍研究所で行われる予定だった。	NO_PRONOUNCE	NO_LABEL
最初のX-56Aは2015年11月19日、フレキシブルウイングによる能動的なフラッター抑制のための初の飛行試験の際に、離陸直後にエドワーズ空軍基地近傍の乾湖に墜落し深刻な損傷を負った。	NO_PRONOUNCE	NO_LABEL
この機体、「Fido」として知られるAFRLのためにスカンクワークスが製造した2機のX-56Aのうち1機は、以前に動作範囲の試験を目的として16回のフライトを行っていた。	NO_PRONOUNCE	NO_LABEL
出典：X-56A technology demonstrator achieves first flight	NO_PRONOUNCE	NO_LABEL
