1952年の松竹ロビンスでは、1952年シーズンの松竹ロビンスの動向をまとめる。	せんきゅうひゃくごじゅうにねんのしょーちくろびんすでわ、せんきゅうひゃくごじゅうにねんしーずんのしょーちくろびんすのどーこーをまとめる。	NO_LABEL
この年の松竹ロビンスは、新田恭一監督の2年目のシーズンであり、このシーズン終了後、大洋ホエールズと合併したため、松竹ロビンスとしての最後のシーズンである。	このとしのしょーちくろびんすわ、にったきょーいちかんとくのにねんめのしーずんであり、このしーずんしゅうりょーご、たいよーほえーるずとがっぺいしたため、しょーちくろびんすとしてのさいごのしーずんである。	NO_LABEL
シーズン開幕前、リーグは代表者会議で勝率3割を切ったチームには処罰を与えることを決定した。	しーずんかいまくまえ、りーぐわだいひょーしゃかいぎでしょーりつさんわりをきったちーむにわしょばつをあたえることをけっていした。	NO_LABEL
これは、1950年オフに西日本が西鉄と合併して以来、セントラル・リーグ所属チームが奇数となり、日程が組みにくかったことから、チームを減らすべきであるという論調が強く、弱いチームを排除することにより、チーム数を偶数に戻すことを念頭に置いた決定であったと考えられている。	これわ、せんきゅうひゃくごじゅうねんおふににしにほんがにしてつとがっぺいしていらい、せんとらるりーぐしょぞくちーむがきすーとなり、にっていがくみにくかったことから、ちーむをへらすべきであるとゆうろんちょーがつよく、よわいちーむをはいじょすることにより、ちーむすーをぐーすーにもどすことをねんとーにおいたけっていであったとかんがえられている。	NO_LABEL
シーズンが開幕すると、松竹は勝率3割前後の成績ではあったが、広島が5月終了時点で勝率3割を大きく割り込み、広島が処罰によって消滅することが有力視されていた。	しーずんがかいまくすると、しょーちくわしょーりつさんわりぜんごのせいせきでわあったが、ひろしまがごがつしゅーりょーじてんでしょーりつさんわりをおーきくわりこみ、ひろしまがしょばつによってしょーめつすることがゆーりょくしされていた。	NO_LABEL
しかし、7月に松竹が大きく負け越し、シーズン終盤は広島と最下位争いをすることになった。	しかし、しちがつにしょーちくがおーきくまけこし、しーずんしゅーばんわひろしまとさいかいあらそいをすることになった。	NO_LABEL
9月に入って、勝率3割に復帰した広島に対し、松竹は勝率3割を維持することができず、勝率2割8分8厘の最下位でシーズンを終えることとなった。	NO_PRONOUNCE	NO_LABEL
シーズン終了後、松竹への処罰の履行が問題となり、様々なチームとの合併案が持ち上がったが、最終的に松竹は大洋との対等合併を合意し、翌年から「大洋松竹ロビンス」と名称変更することとなった。	NO_PRONOUNCE	NO_LABEL
形式的には対等合併であるものの、1955年シーズンから松竹が球団経営から撤退し、「大洋ホエールズ」に名称を戻していることから、実質的には吸収合併であり、セントラル・リーグ初代優勝からわずか2年で球団が消滅することとなった。	NO_PRONOUNCE	NO_LABEL
この年の松竹ロビンスから選出された選手はなかった。	このとしのしょーちくろびんすからせんしゅつされたせんしゅわなかった。	NO_LABEL
