アレクサンドロス・ポリュヒストルとは、ミトリダテス戦争時に共和政ローマに連行されたギリシャの学者、著作家。	あれくさんどろすぽりゅひすとるとわ、みとりだてすせんそーじにきょーわせいろーまにれんこーされたぎりしゃのがくしゃ、ちょさくか。	NO_LABEL
解放奴隷となった後もイタリア国内に留まり、その業績から博学者の名前を冠して呼ばれているが、著作の大部分は失われ、現在は多くの著作が断片的に伝わっているのみとなっている。	かいほーどれいとなったのちもいたりあこくないにとまり、そのぎょーせきからはくがくしゃのなまえをかんしてよばれているが、ちょさくのだいぶぶんわうしなわれ、げんざいわおーくのちょさくがだんぺんてきにつたわっているのみとなっている。	NO_LABEL
アレクサンドロスは紀元前1世紀のローマで活躍した。	あれくさんどろすわきげんぜんいっせいきのろーまでかつやくした。	NO_LABEL
スーダ辞典に依れば、彼はミレトスの出身であるとされているが、ビザンティウムのステパノスは、大語源に於いてアレクサンドロスはコティアエウスと記されていた事から、フリギアのコティアエウムの出身であるとした。	すーだじてんによれば、かれわみれとすのしゅっしんであるとされているが、びざんてぃうむのすてぱのすわ、だいごげんにおいてあれくさんどろすわこてぃあえうすとしるされていたことから、ふりぎあのこてぃあえうむのしゅっしんであるとした。	NO_LABEL
 また、此の両者が別人物である可能性もあり、出身についてははっきりとしていない。	また、こののりょーしゃがべつじんぶつであるかのーせいもあり、しゅっしんについてわはっきりとしていない。	NO_LABEL
彼はミトリダテス戦争時にギリシャからローマへと連行され、コルネリウス・レントゥルスの家庭教師として雇われた。	NO_PRONOUNCE	NO_LABEL
その後、彼から名前を取ってコルネリウス・アレクサンドロスと名乗る様になった。	NO_PRONOUNCE	NO_LABEL
また、彼はルキウス・コルネリウス・スッラから市民権を得た。	また、かれわるきうすこるねりうすすっらからしみんけんをえた。	NO_LABEL
.	NO_PRONOUNCE	NO_LABEL
彼はラティウムのラウレントゥムで火事の為、家諸共焼死した。	かれわらてぃうむのらうれんとぅむでかじのため、いえもろともしょーしした。	NO_LABEL
スーダ辞典は彼の著作を一覧にせずに、番号を振った。	すーだじてんわかれのちょさくをいちらんにせずに、ばんごーをふった。	NO_LABEL
この番号は今でも用いられる事がある。	このばんごーわいまでももちいられることがある。	NO_LABEL
アレクサンドロスの最も重要な論文は古代国家の殆どの国家に関する歴史的及び地理的考察について記した42冊の本である。	NO_PRONOUNCE	NO_LABEL
この中にはローマ、三冊以上に亘ってエジプト、ビテュニア、ポントス、イリュリア、インド、カルデア史について記した物もある。	このなかにわろーま、さんさついじょーにわたってえじぷと、びてゅにあ、ぽんとす、いりゅりあ、いんど、かるであしについてしるしたものもある。	NO_LABEL
また、ユダヤ人に関しての論文も在り、当時のユダヤ人作家の文章を判り易く換言した。	また、ゆだやじんにかんしてのろんぶんもあり、とーじのゆだやじんさっかのぶんしょーをわかりやすくかんげんした。	NO_LABEL
哲学者としては哲学の成功を著し、ディオゲネス・ラエルティオスの哲学者列伝の解説をしている。	てつがくしゃとしてわてつがくのせいこーをあらわし、でぃおげねすらえるてぃおすのてつがくしゃれつでんのかいせつをしている。	NO_LABEL
然し、完全な形で現存している物は無く、換言している部分や抄訳が残されているのみで、主にそれはラエルティオスに関する部分である。	しかし、かんぜんなかたちでげんそんしているものわなく、かんげんしているぶぶんやしょーやくがのこされているのみで、おもにそれわらえるてぃおすにかんするぶぶんである。	NO_LABEL
また、弟子にはラテン語作家で学者のガイウス・ユリウス・ヒュギーヌスが居る。	また、でしにわらてんごさっかでがくしゃのがいうすゆりうすひゅぎーぬすがいる。	NO_LABEL
