湯の川プリンスホテル 渚亭は、北海道函館市にある宿泊施設。	ゆのかわぷりんすほてるなぎさていわ、ほっかいどーはこだてしにあるしゅくはくしせつ。	NO_LABEL
日本国内最多となる115室の露天風呂付客室がある。	NO_PRONOUNCE	NO_LABEL
施設の大規模改修を計画している。	しせつのだいきぼかいしゅーをけいかくしている。	NO_LABEL
客室	きゃくしつ	NO_LABEL
温泉	おんせん	NO_LABEL
食事・喫茶	NO_PRONOUNCE	NO_LABEL
その他	そのた	NO_LABEL
