シェーダーを行うコンピュータプログラムのこと。	しぇーだーをおこなうこんぴゅーたぷろぐらむのこと。	NO_LABEL
「」とは「次第に変化させる」「陰影・グラデーションを付ける」という意味で、「」は頂点色やピクセル色などを次々に変化させるものを意味する。	NO_PRONOUNCE	NO_LABEL
技術的な視点から見るとシェーダーは物体の色の計算を担当するレンダラの一部である。	ぎじゅつてきなしてんからみるとしぇーだーわぶったいのいろのけいさんをたんとーするれんだらのいちぶである。	NO_LABEL
すなわち、CGレンダリングソフトはリアルタイム／非リアルタイムを問わず、ソフトウェアあるいはハードウェアによるシェーダーを必ず備えていることになる。	NO_PRONOUNCE	NO_LABEL
に代表されるように、プロダクション向けの3次元コンピュータグラフィックスのレンダリングでは古くからシェーディング処理をプログラムで記述してカスタマイズし、高品質な映像を作り出すといったことは当たり前のように行なわれてきたが、ゲームやCADのようなリアルタイム用途では処理時間の制約があるため、ソフトウェアによる定形の簡易シェーディングもしくはハードウェアに固定実装された頂点変換・シェーディング機能を使った簡素なシェーディングにとどまっていた。	NO_PRONOUNCE	NO_LABEL
しかし、GPUがシェーダー機能や演算能力および柔軟性を強化し、プログラマビリティを獲得したことを受けて、OpenGLやDirect3Dといった主なリアルタイムグラフィックスライブラリはAPIに専用のプログラマブルなシェーディング機能を備えるようになった。	しかし、じーぴーゆーがしぇーだーきのーやえんざんのーりょくおよびじゅーなんせいをきょーかし、ぷろぐらまびりてぃをかくとくしたことをうけて、おーぷんじーえるやだいれくとすりーでぃーといったおもなりあるたいむぐらふぃっくすらいぶらりわえーぴーあいにせんよーのぷろぐらまぶるなしぇーでぃんぐきのーをそなえるよーになった。	NO_LABEL
OpenGLはバージョン1.5で、またDirect3Dはバージョン8でプログラマブルシェーダーが導入された。	NO_PRONOUNCE	NO_LABEL
プロダクションレンダリングは、静止画あるいは動画の生成が最終目的であるが、動画の場合は複数枚の静止画をつなぎ合わせて最終的にコンポジットを行ない、動画を作り出す。	ぷろだくしょんれんだりんぐわ、せいしがあるいわどーがのせいせいがさいしゅーもくてきであるが、どーがのばあいわふくすーまいのせいしがをつなぎあわせてさいしゅーてきにこんぽじっとをおこない、どーがをつくりだす。	NO_LABEL
リアルタイム用途と比較すると、プロダクションレンダリングでは時間や資源の制約が少ない。	りあるたいむよーととひかくすると、ぷろだくしょんれんだりんぐでわじかんやしげんのせいやくがすくない。	NO_LABEL
例えば、映画作品の1シーンをレンダリングするために数時間から数日をかけ、高品質な映像を作り出してもかまわない。	NO_PRONOUNCE	NO_LABEL
レンダリングのための膨大な一時情報がコンピュータの物理メモリに収まりきらない場合でも、ハードディスクなどの二次記憶領域に退避してレンダリングを続行することもできる。	れんだりんぐのためのぼーだいないちじじょーほーがこんぴゅーたのぶつりめもりにおさまりきらないばあいでも、はーどでぃすくなどのにじきおくりょーいきにたいひしてれんだりんぐをぞっこーすることもできる。	NO_LABEL
プロダクション用途のシェーダーでは、時間はかかるが高品質でリアリティの高い結果を生成できる、レイトレーシングなどのより厳密な大域照明ベース・物理ベースの陰影計算モデルが用いられる。	NO_PRONOUNCE	NO_LABEL
例えば、PIXARのRenderManはグローバルイルミネーションをサポートしている。	NO_PRONOUNCE	NO_LABEL
また、物体同士の相互反射光の計算や、ある物体から別の物体へ投影されるシャドウの計算は、シーン内のライトの数に比例して時間がかかるようになるが、プロダクションレンダリングではデザイナーの望む数だけ自由に光源を配置することができる。	また、ぶったいどーしのそーごはんしゃこーのけいさんや、あるぶったいからべつのぶったいえとーえいされるしゃどーのけいさんわ、しーんないのらいとのかずにひれいしてじかんがかかるよーになるが、ぷろだくしょんれんだりんぐでわでざいなーのもちむすーだけじゆーにこーげんをはいちすることができる。	NO_LABEL
ゲームなどのリアルタイムレンダリングでは、例えば60FPSの場合1フレームの描画にかけられる時間は最大でもわずか16ミリ秒程度であり、また頂点情報やテクスチャデータの格納・参照に使用できるビデオメモリの容量といった制約条件が多い。	NO_PRONOUNCE	NO_LABEL
そのため、リアルタイム用途のシェーダーでは、相互反射などを考慮しない、低品質だが簡潔で高速な局所照明ベースの陰影計算モデルやZバッファ技法が用いられることが大多数である。	そのため、りあるたいむよーとのしぇーだーでわ、そーごはんしゃなどをこーりょしない、ていひんしつだがかんけつでこーそくなきょくしょしょーめいべーすのいんえいけいさんもでるやぜっとばっふぁぎほーがもちいられることがだいたすーである。	NO_LABEL
GPUの進化とリアルタイム用プログラマブルシェーダーの発展を受けて、アルゴリズムやデータ構造を工夫してグローバルイルミネーションをリアルタイム実装している例も出てきているが、高性能なハードウェアを要求するなど、2015年時点でも未だ発展途上の技術である。	じーぴーゆーのしんかとりあるたいむよーぷろぐらまぶるしぇーだーのはってんをうけて、あるごりずむやでーたこうぞーをくふーしてぐろーばるいるみねーしょんをりあるたいむじっそーしているれいもでてきているが、こーせいのーなはーどうぇあをよーきゅーするなど、にせんじゅうごねんじてんでもいまだはってんとじょーのぎじゅつである。	NO_LABEL
シャドウや多光源環境のライティングに関しても、CSM/PSSMといった種々のシャドウマップ派生技術、および遅延シェーディング・遅延ライティングなどが考案されているが、有限資源という制約が足かせとなり、品質や柔軟性はプロダクションレンダリングに及ばない。	NO_PRONOUNCE	NO_LABEL
従来、CADソフトやゲームなどのリアルタイム 2D/3Dグラフィックス アプリケーション開発者は、グラフィックスハードウェアに固定機能として実装されていた「定形のパイプライン」を使用してグラフィック表示を行なっていた。	NO_PRONOUNCE	NO_LABEL
しかし、多数のグラフィック表現技術が次々と開発されていく中で、それらの技術をGPUメーカーが逐一ハードウェアに機能として実装していく形態は非効率であり、またユーザープログラマーが新しい技術を試すにはメーカーの対応を待たねばならなかった。	しかし、たすーのぐらふぃっくひょーげんぎじゅつがつぎつぎとかいはつされていくなかで、それらのぎじゅつをじーぴーゆーめーかーがちくいちはーどうぇあにきのーとしてじっそーしていくけいたいわひこーりつであり、またゆーざーぷろぐらまーがあたらしいぎじゅつをためすにわめーかーのたいおーをまたねばならなかった。	NO_LABEL
この問題を解決するアイディアとして、GPUのパイプラインをソフトウェアプログラムにより組み立てる「プログラマブル パイプライン」と呼ばれるアーキテクチャが構築されることになる。	NO_PRONOUNCE	NO_LABEL
以前は完全にブラックボックスだったグラフィックスパイプラインがユーザープログラマーに対して開放されることで、新たな陰影処理技法や各種エフェクトを試験的に実装してGPU上で走らせることが容易になり、先進的なGPUの機能を利用する優れた柔軟性と、表現力の爆発的な向上がもたらされた。	いぜんわかんぜんにぶらっくぼっくすだったぐらふぃっくすぱいぷらいんがゆーざーぷろぐらまーにたいしてかいほーされることで、あらたないんえいしょりぎほーやかくしゅえふぇくとをしけんてきにじっそーしてじーぴーゆーじょーではしらせることがよーいになり、せんしんてきなじーぴーゆーのきのーをりよーするすぐれたじゅーなんせいと、ひょーげんりょくのばくはつてきなこーじょーがもたらされた。	NO_LABEL
なお、従来のOpenGLあるいはDirectXのAPIによってブラックボックスとして提供されていたシェーダーは、固定機能シェーダーと呼ばれ、プログラマブルシェーダーと区別される。	なお、じゅーらいのおーぷんじーえるあるいわだいれくとえっくすのえーぴーあいによってぶらっくぼっくすとしてていきょーされていたしぇーだーわ、こていきのーしぇーだーとよばれ、ぷろぐらまぶるしぇーだーとくべつされる。	NO_LABEL
OpenGLにおいてはバージョン1.5からプログラマブルシェーダーが拡張として導入され、バージョン2.0からは標準化された。	NO_PRONOUNCE	NO_LABEL
Direct3Dにおいてはバージョン8からプログラマブルシェーダーが導入された。	NO_PRONOUNCE	NO_LABEL
OpenGL 3.1、OpenGL ES 2.0、およびDirect3D 10以降はそれぞれ固定機能シェーダーを完全に廃止しており、グラフィックスパイプラインはプログラマブルシェーダーによって記述することが必須となっている。	NO_PRONOUNCE	NO_LABEL
なおリアルタイム処理系において「シェーダー」といえば、通例プログラマブルシェーダーを指す 。	NO_PRONOUNCE	NO_LABEL
また、Direct3D 9世代までは、頂点シェーダーとピクセルシェーダーの処理を担当するGPU内のハードウェア演算ユニットは完全に分かれており、それぞれの演算ユニットのことを「シェーダー」と呼んでいた。	NO_PRONOUNCE	NO_LABEL
そのため、かつてはグラフィックスカードのハードウェア性能指標として演算ユニット数を表すために「シェーダー数」という言葉が使われていたが、統合型シェーダーアーキテクチャを採用したDirect3D 10世代以降は「ストリームプロセッサ数」あるいは「CUDAコア数」という言葉が用いられるようになっている 。	NO_PRONOUNCE	NO_LABEL
CGレンダリングソフトの多くは、最終的な出力結果を得るための高品質な計算モデルとして、に基づく、光学的・物理学的により厳密なグローバルイルミネーションモデルを実現する各種計算手法を採用しているが、モデリングやパラメータ設定の作業中は、プレビューのために描画品質を落としてOpenGLあるいはDirect3Dによってリアルタイム表示する必要がある。	NO_PRONOUNCE	NO_LABEL
GPUが固定機能シェーダーのみをサポートしていた頃は、プレビューは最終描画結果とはほど遠いものであったが、プログラマブルシェーダーをサポートするようになってからは、各CGソフトもプレビューにプログラマブルシェーダーを使用するようになり、プレビューの品質が飛躍的に向上した。	じーぴーゆーがこていきのーしぇーだーのみをさぽーとしていたころわ、ぷれびゅーわさいしゅーびょーがけっかとわほどとーいものであったが、ぷろぐらまぶるしぇーだーをさぽーとするよーになってからわ、かくしーじーそふともぷれびゅーにぷろぐらまぶるしぇーだーをしよーするよーになり、ぷれびゅーのひんしつがひやくてきにこーじょーした。	NO_LABEL
2009年時点で、Autodesk 3ds Max、Autodesk Maya、Autodesk Softimage、およびNewTek LightWave 3Dといった有名なソフトウェアの最新版はいずれもプログラマブルシェーダーによるプレビューを実装している。	NO_PRONOUNCE	NO_LABEL
また、リアルタイム用のプログラマブルシェーダーはAdobe PhotoshopやAdobe Flashのように2DCGを主に扱うソフトウェアにもアクセラレータとして導入されることが多くなっている。	また、りあるたいむよーのぷろぐらまぶるしぇーだーわあどびふぉとしょっぷやあどびふらっしゅのよーにつーでぃーしーじーをおもにあつかうそふとうぇあにもあくせられーたとしてどーにゅーされることがおーくなっている。	NO_LABEL
GUIベースオペレーティングシステムのデスクトップ合成エンジンや標準2DグラフィックスAPIでも、Windows Aero/Direct2DやQuartz Extreme/Core Imageなどのように、GPUおよびプログラマブルシェーダーを活用したものが現れている。	NO_PRONOUNCE	NO_LABEL
ハードウェアが一定のシェーダー機能を満たす場合、CPUの負荷が低減され、表示や応答が高速化されるなどのメリットがある。	はーどうぇあがいっていのしぇーだーきのーをみたすばあい、しーぴーゆーのふかがていげんされ、ひょーじやおーとーがこーそくかされるなどのめりっとがある。	NO_LABEL
リアルタイム用途のプログラマブルシェーダーでは、グラフィックスパイプラインの中でもユーザープログラマーが制御できるステージがあらかじめ決められている。	りあるたいむよーとのぷろぐらまぶるしぇーだーでわ、ぐらふぃっくすぱいぷらいんのなかでもゆーざーぷろぐらまーがせいぎょできるすてーじがあらかじめきめられている。	NO_LABEL
OpenGL 3.2以降とDirect3D 10以降では3種類のシェーダーを使用できる。	NO_PRONOUNCE	NO_LABEL
頂点シェーダーするための機能である。	ちょーてんしぇーだーするためのきのーである。	NO_LABEL
頂点シェーダーはオブジェクトを構成する頂点の集合に対してのみ作用し、例えば3次元空間におけるXYZ位置座標や法線ベクトル、色、テクスチャマッピング座標といった頂点の属性だけを参照・変換できる。	NO_PRONOUNCE	NO_LABEL
3次元グラフィックスにおける主な座標変換にはワールド変換、ビュー変換、プロジェクション変換、およびビューポート変換が存在するが、頂点シェーダーが担当するのはワールド・ビュー・プロジェクション変換である。	NO_PRONOUNCE	NO_LABEL
ワールド・ビュー変換はモデル・ビュー変換とも呼ばれる。	NO_PRONOUNCE	NO_LABEL
なお頂点単位のライティングであれば、頂点シェーダーで座標変換のほかにライティング計算を行なうこともできる。	なおちょーてんたんいのらいてぃんぐであれば、ちょーてんしぇーだーでざひょーへんかんのほかにらいてぃんぐけいさんをおこなうこともできる。	NO_LABEL
頂点シェーダーで計算された頂点情報はジオメトリシェーダーに渡されるか、そのままピクセルシェーダーに渡される。	ちょーてんしぇーだーでけいさんされたちょーてんじょーほーわじおめとりしぇーだーにわたされるか、そのままぴくせるしぇーだーにわたされる。	NO_LABEL
Direct3D 9では頂点シェーダーをソフトウェアエミュレーションすなわちCPUで実行することもできるが、プログラマブルシェーダー機能に対応しているハードウェアであれば多数のプロセッサコアを使用して並列に処理を行なうことができるので、CPUで頂点シェーダーを実行するよりもGPUを利用した方が高速になる。	NO_PRONOUNCE	NO_LABEL
なお、シェーダーモデル3.0で導入されたVertex Texture Fetchを使用すると、頂点シェーダーステージでテクスチャデータを参照することも可能となる。	NO_PRONOUNCE	NO_LABEL
シェーダーモデル4.0以降では、VTFはバッファデータの参照とともに標準化されている。	NO_PRONOUNCE	NO_LABEL
さらに、OpenGL 4.2ではすべてのシェーダーステージにおいてイメージオブジェクトに対するロード／ストアを可能にする機能が標準化された。	NO_PRONOUNCE	NO_LABEL
DirectXにおいても、バージョン11.1にて、ピクセルシェーダーやコンピュートシェーダーだけでなく、すべてのシェーダーステージにおいて各種リソースに対する書き込みが可能になっている。	NO_PRONOUNCE	NO_LABEL
ジオメトリシェーダー（）はピクセルシェーダーに渡されるオブジェクト内の頂点の集合を加工するために使用される。	じおめとりしぇーだーかっこわぴくせるしぇーだーにわたされるおぶじぇくとないのちょーてんのしゅーごーをかこーするためにしよーされる。	NO_LABEL
ジオメトリシェーダーにより、実行時に頂点数を増減させたり、プリミティブの種類を変更したりすることが可能となる。	じおめとりしぇーだーにより、じっこーじにちょーてんすーをぞーげんさせたり、ぷりみてぃぶのしゅるいをへんこーしたりすることがかのーとなる。	NO_LABEL
OpenGLではプリミティブシェーダーとも呼ばれる。	おーぷんじーえるでわぷりみてぃぶしぇーだーともよばれる。	NO_LABEL
ジオメトリシェーダーはポイント、ライン、トライアングルといった既存のプリミティブから新しいプリミティブを生成できる。	じおめとりしぇーだーわぽいんと、らいん、とらいあんぐるといったきそんのぷりみてぃぶからあたらしいぷりみてぃぶをせいせいできる。	NO_LABEL
ジオメトリシェーダーは頂点シェーダーの後に実行され、プリミティブ全体または隣接したプリミティブの情報を持つプリミティブを入力する。	じおめとりしぇーだーわちょーてんしぇーだーののちにじっこーされ、ぷりみてぃぶぜんたいまたわりんせつしたぷりみてぃぶのじょーほーをもつぷりみてぃぶをにゅーりょくする。	NO_LABEL
例えばトライアングルを処理するとき、3つの頂点がジオメトリシェーダーの入力となる。	たとえばとらいあんぐるをしょりするとき、みっつのちょーてんがじおめとりしぇーだーのにゅーりょくとなる。	NO_LABEL
ジオメトリシェーダーはラスタライズされるプリミティブを出力でき、そのフラグメントは最終的にピクセルシェーダーに渡される。	じおめとりしぇーだーわらすたらいずされるぷりみてぃぶをしゅつりょくでき、そのふらぐめんとわさいしゅーてきにぴくせるしぇーだーにわたされる。	NO_LABEL
またプリミティブを出力せずにキャンセルすることもできる。	またぷりみてぃぶをしゅつりょくせずにきゃんせるすることもできる。	NO_LABEL
ジオメトリシェーダーのよくある使い方としては、ポイントスプライトの生成、ジオメトリテセレーション、シャドウボリュームの切り出し、キューブマップあるいはテクスチャ配列へのシングルパスレンダリングなどがある。	じおめとりしぇーだーのよくあるつかいかたとしてわ、ぽいんとすぷらいとのせいせい、じおめとりてせれーしょん、しゃどーぼりゅーむのきりだし、きゅーぶまっぷあるいわてくすちゃはいれつえのしんぐるぱすれんだりんぐなどがある。	NO_LABEL
ピクセルシェーダーを行なうための機能である。	ぴくせるしぇーだーをおこなうためのきのーである。	NO_LABEL
ピクセルシェーダーはラスタライズされるプリミティブの各ピクセルに影響する。	ぴくせるしぇーだーわらすたらいずされるぷりみてぃぶのかくぴくせるにえいきょーする。	NO_LABEL
また、ピクセルシェーダーにてテクスチャを参照することでバンプマッピングやフォグ、シャドウ、ブルームといったエフェクトを最終レンダリング結果に適用することもできる。	また、ぴくせるしぇーだーにててくすちゃをさんしょーすることでばんぷまっぴんぐやふぉぐ、しゃどー、ぶるーむといったえふぇくとをさいしゅーれんだりんぐけっかにてきよーすることもできる。	NO_LABEL
OpenGLではフラグメントシェーダー。	おーぷんじーえるでわふらぐめんとしぇーだー。	NO_LABEL
ピクセルシェーダーはピクセルを操作する機能であり、頂点シェーダーもしくはジオメトリシェーダーから入力された情報を元にテクスチャを合成したり表面色を適用したりする。	ぴくせるしぇーだーわぴくせるをそーさするきのーであり、ちょーてんしぇーだーもしくわじおめとりしぇーだーからにゅーりょくされたじょーほーをもとにてくすちゃをごーせいしたりひょーめんしょくをてきよーしたりする。	NO_LABEL
ピクセルを操作する処理にかかる時間は入力プリミティブのラスタライズ後のピクセル数や出力解像度に左右されるため、通例は頂点単位の処理と比較して高負荷である。	ぴくせるをそーさするしょりにかかるじかんわにゅーりょくぷりみてぃぶのらすたらいずごのぴくせるすーやしゅつりょくかいぞーどにさゆーされるため、つーれいわちょーてんたんいのしょりとひかくしてこーふかである。	NO_LABEL
これをピクセルシェーダープログラムとしてプログラミングし、高い並列処理性能を持つGPUで実行することにより、バンプマッピング等のより高度なエフェクトをCPUですべて実行するよりもはるかに高いパフォーマンスで実現できる。	これをぴくせるしぇーだーぷろぐらむとしてぷろぐらみんぐし、こういへいれつしょりせいのーをもつじーぴーゆーでじっこーすることにより、ばんぷまっぴんぐとーのよりこーどなえふぇくとをしーぴーゆーですべてじっこーするよりもはるかにたかいぱふぉーまんすでじつげんできる。	NO_LABEL
なお、通常のレンダーターゲットを使ったピクセルシェーダーでは、アルファブレンド処理の詳細をプログラムすることはできない。	なお、つーじょーのれんだーたーげっとをつかったぴくせるしぇーだーでわ、あるふぁぶれんどしょりのしょーさいをぷろぐらむすることわできない。	NO_LABEL
Direct3D 9世代までのGPUでは、頂点シェーダーおよびピクセルシェーダーを担当するハードウェアユニットの数はそれぞれ製品ごとに固定されていたが、Direct3D 10世代の統合型シェーダーアーキテクチャでは各シェーダーユニットが統合され、複数の汎用シェーダーユニットを使って上記3つのシェーダーステージに動的に振り分ける形となる 。	NO_PRONOUNCE	NO_LABEL
これらのシェーダーはGPUのパイプライン内で実行される。	これらのしぇーだーわじーぴーゆーのぱいぷらいんないでじっこーされる。	NO_LABEL
下記はパイプライン内にどのように埋め込まれているのかを示す例である。	かきわぱいぷらいんないにどのよーにうめこまれているのかをしめすれいである。	NO_LABEL
頂点シェーダー／ジオメトリシェーダーの出力をラスタライザーおよびピクセルシェーダーに渡すのではなく、バッファやテクスチャなどのメモリリソースに書き出した後、インプットアセンブラーや頂点シェーダー／ジオメトリシェーダーに再入力する、ストリームアウトプットという機能も存在する。	NO_PRONOUNCE	NO_LABEL
ストリームアウトプットはこれまでのようにGPU側でデータを参照するだけでなく、GPU自身が書き換えたデータを再利用することができるため、GPUパーティクルなどに応用できる。	すとりーむあうとぷっとわこれまでのよーにじーぴーゆーがわででーたをさんしょーするだけでなく、じーぴーゆーじしんがかきかえたでーたをさいりよーすることができるため、じーぴーゆーぱーてぃくるなどにおーよーできる。	NO_LABEL
OpenGL 4.0以降とDirect3D 11以降ではさらにテッセレーションシェーダーをオプションとして使用できる。	NO_PRONOUNCE	NO_LABEL
シェーダーは膨大な要素の集合に対して変換処理を同時に適用するように記述される。	しぇーだーわぼーだいなよーそのしゅーごーにたいしてへんかんしょりをどーじにてきよーするよーにきじゅつされる。	NO_LABEL
例えばモデル内の全ての頂点を一様に平行移動・回転・拡大縮小したり、スクリーンの特定の範囲内の各ピクセルに対して一様にフィルタリング・輝度変換などを実行したりする、などである。	NO_PRONOUNCE	NO_LABEL
これらの処理は対象となる全要素に等しく適用される。	これらのしょりわたいしょーとなるぜんよーそにひとしくてきよーされる。	NO_LABEL
これは並列処理に非常に適している。	これわへいれつしょりにひじょーにてきしている。	NO_LABEL
多くの先進的なGPUでは並列処理効率を高めるべく、超マルチコア設計となっている。	おーくのせんしんてきなじーぴーゆーでわへいれつしょりこーりつをたかめるべく、ちょーまるちこあせっけいとなっている。	NO_LABEL
リアルタイム描画性能と柔軟性を向上させるべく発展してきたGPUだが、ハードウェアレベルでの柔軟性と汎用性を強化したDirect3D 10世代GPUの登場以後、この並列処理におけるGPUの優位性を汎用計算に利用しようという試みが活発化している。	NO_PRONOUNCE	NO_LABEL
GPGPU向けの汎用APIとして、2006年にはNVIDIAからCUDAが、また2008年にはKhronosグループからOpenCLが発表され、それぞれ機能拡張を続けている。	NO_PRONOUNCE	NO_LABEL
BlenderのCyclesエンジンやV-Ray RTなどのように、CUDAやOpenCLを経由してプロダクションレンダリングにもGPUを活用し、計算時間を短縮するソフトウェアも出現してきている。	NO_PRONOUNCE	NO_LABEL
GPGPU向けの汎用APIとして代表的なものはCUDAとOpenCLだが、OpenGL 4.3以降、OpenGL ES 3.1以降、およびDirect3D 11以降では、主にグラフィックス連携を重視したGPGPUのためのコンピュートシェーダーが搭載された。	NO_PRONOUNCE	NO_LABEL
コンピュートシェーダーは前述のグラフィックスパイプラインとは独立して動作することのできるステージである。	こんぴゅーとしぇーだーわぜんじゅつのぐらふぃっくすぱいぷらいんとわどくりつしてどーさすることのできるすてーじである。	NO_LABEL
なお、コンピュートシェーダーは座標変換や陰影計算にとどまらない汎用計算が可能となっているため、「シェーダー」という命名はほかのシェーダーステージに合わせた便宜上のものである。	NO_PRONOUNCE	NO_LABEL
Direct3Dのコンピュートシェーダーに関しては、Direct3D APIを含めた総称としてDirectComputeと呼ばれている。	NO_PRONOUNCE	NO_LABEL
コンピュートシェーダーがCUDAやOpenCLと比較して優れている点として、Direct3Dリアルタイムグラフィックスパイプラインとの連携がしやすい、Direct3D/HLSLをすでに利用している場合は修得が容易である、などが挙げられる。	NO_PRONOUNCE	NO_LABEL
シェーダーを記述するための種々の言語がプロダクションレンダリング向けおよびリアルタイムレンダリング向けにそれぞれ開発されている。	しぇーだーをきじゅつするためのしゅじゅのげんごがぷろだくしょんれんだりんぐむけおよびりあるたいむれんだりんぐむけにそれぞれかいはつされている。	NO_LABEL
多くの3DCGソフトウェアやオーサリングツール、ゲームエンジンにはノードエディタと呼ばれるGUIツールが搭載されており、ノードエディタを使うことでカスタムシェーダー開発を直感的に行なうことができるが、シェーディング言語を直接利用すると細やかな調整を行なうことができる。	おーくのすりーでぃーしーじーそふとーぇあやおーさりんぐつーる、げーむえんじんにわのーどえでぃたとよばれるじーゆーあいつーるがとーさいされており、のーどえでぃたをつかうことでかすたむしぇーだーかいはつをちょっかんてきにおこなうことができるが、しぇーでぃんぐげんごをちょくせつりよーするとこまやかなちょーせいをおこなうことができる。	NO_LABEL
