東京戦争とは、1969年9月30日に東京都で発生した共産同赤軍派による騒擾事件。	とーきょーせんそーとわ、せんきゅうひゃくろくじゅうきゅうねんくがつさんじゅうにちにとーきょーとではっせいしたきょーさんどーせきぐんはによるそーじょーじけん。	NO_LABEL
大阪戦争の蜂起に失敗した赤軍派は、「東京戦争」と称する革命計画を企てていた。	NO_PRONOUNCE	NO_LABEL
その内容は、全共闘派が日大紛争の一環として神田地区で行おうとしていた大規模な街頭闘争に乗じて、都内の複数の警察署を襲撃し、後楽園競輪場の群集を巻き込んで武装蜂起をするというものであった。	そのないよーわ、ぜんきょーとーはがにちだいふんそーにちだいとうそーのいっかんとしてかんだちくでおこなおうとしていただいきぼながいとーとうそーにじょーじて、とないのふくすーのけいさつしょをしゅーげきし、こーらくえんけいりんじょーのぐんしゅーをまきこんでぶそーほーきをするとゆうものであった。	NO_LABEL
1969年9月30日、全共闘派約2100人が明治大学構内に集結した。	せんきゅうひゃくろくじゅうきゅうねんくがつさんじゅうにち、ぜんきょーとーはやくにせんひゃくにんがめいじだいがくこーないにしゅーけつした。	NO_LABEL
午後5時頃から学外に出撃し、火炎瓶を投げつけたり、バリケードを築いたりして、機動隊と衝突、神田・御茶ノ水周辺は混乱に陥った。	NO_PRONOUNCE	NO_LABEL
一方、赤軍派は東京大学に集結し、火炎瓶を製造していた。	いっぽー、せきぐんはわとーきょーだいがくにしゅーけつし、かえんびんをせいぞーしていた。	NO_LABEL
その後東大を出発し、午後7時頃に警視庁本富士警察署に向けて火炎瓶を投擲した。	そのごとーだいをしゅっぱつし、ごごしちじごろにけいしちょーもとふじけいさつしょにむけてかえんびんをとーてきした。	NO_LABEL
また、西五反田派出所の襲撃計画もあったが、警備が厳重だったため、襲撃を断念した。	また、にしごたんだはしゅつじょのしゅーげきけいかくもあったが、けいびがげんじゅーだったため、しゅーげきをだんねんした。	NO_LABEL
本富士警察署では署長室にも放火されたが、のちに警察庁長官となる國松孝次署長を含めけが人はなく、火も直ぐに消し止められた。	もとふじけいさつしょでわしょちょーしつにもほーかされたが、のちにけいさつちょーちょーかんとなるくにまつたかじしょちょーをふくめけがにんわなく、ひもすぐにけしとめられた。	NO_LABEL
その場で1人を現行犯逮捕し、その後容疑者として38人を割り出した。	そのばでひとりをげんこーはんたいほし、そのごよーぎしゃとしてさんじゅうはちにんをわりだした。	NO_LABEL
その中には後によど号ハイジャック事件を起こした田中義三や小西隆裕もいた。	そのなかにわごによどごーはいじゃっくじけんをおこしたたなかよしみやこにしたかひろもいた。	NO_LABEL
赤軍派独自の行動としての「東京戦争」は、同日の全共闘派による騒擾と比べかなり小規模なものであり、ほとんど注目されなかった。	NO_PRONOUNCE	NO_LABEL
大阪戦争に続き、赤軍派の計画は不発に終わった。	おーさかせんそーにつずき、せきぐんはのけいかくわふはつにおわった。	NO_LABEL
