『90'S MY LIFE』はロックバンド、the pillowsの2枚目のミニアルバム。	NO_PRONOUNCE	NO_LABEL
the pillowsのインディーズ2ndアルバム。	ざぴろうずのいんでぃーずせかんどあるばむ。	NO_LABEL
通称第一期の2作目でオリジナル盤『90'S MY LIFE』は廃盤となり、長い間音源を聴くことは難しい状態になっていてオークションなどでも高値がついていた。	NO_PRONOUNCE	NO_LABEL
そんな中、2004年3月30日に『90'S MY LIFE returns』としてオリジナル盤収録曲にレア音源と未発表曲を収録して再発する。	NO_PRONOUNCE	NO_LABEL
「THE PILLOWS」のクレジットでメンバーのところには現在、元メンバーの上田ケンジの名前も書いてある。	NO_PRONOUNCE	NO_LABEL
また、「INTERVIEW FILE cast」の笹川清彦の解説も付いている。	NO_PRONOUNCE	NO_LABEL
「巴里の女性マリー」はセルフカバーはされていないが、ライブDVD『916 "15th Anniversary Special Live DVD"』にてアレンジされて歌われている映像が収録されており、またthe pillowsトリビュートアルバム『SYNCHRONIZED ROCKERS』にて、TheピーズWithクハラカズユキがカバーしている。	NO_PRONOUNCE	NO_LABEL
「ぼくは かけら」は『PENALTY LIFE』に隠しトラックとしてセルフカバーが収録されていて、ライブDVD『LOSTMAN GO TO BUDOKAN』にライブ映像も収録されている。	NO_PRONOUNCE	NO_LABEL
「90'S MY LIFE」は「90'S MY LIFE 09」としてセルフカバーバージョンが、配信限定で音源が出された、ライブDVD『LOSTMAN GO TO BUDOKAN』にライブ映像も収録されている。	NO_PRONOUNCE	NO_LABEL
「ジングル・ベルがきこえる」と「こんな日が続けばいいのに」は1990年12月20日市川CLUB GIOにて行われたクリスマスライブで無料配布されたカセットテープからの収録。	NO_PRONOUNCE	NO_LABEL
「I DON'T CRY」はコインロッカー・ベイビーズ時代にも演奏されていた楽曲。	NO_PRONOUNCE	NO_LABEL
全作詞曲 : the PILLOWS	NO_PRONOUNCE	NO_LABEL
