『利平さんとこのおばあちゃん』は、法月理栄による日本の漫画。	NO_PRONOUNCE	NO_LABEL
全47話。	ぜんよんじゅうななわ。	NO_LABEL
1978年に読切で描かれた1話が、第3回小学館新人コミック大賞・佳作を受賞した。	NO_PRONOUNCE	NO_LABEL
その後、1979年から10年間『ビッグコミック』で連載された。	NO_PRONOUNCE	NO_LABEL
主人公のモデルになったのは、法月理栄の曾祖母と母方の祖母である。	しゅじんこーのもでるになったのわ、のりずきりえのそーそぼとははかたのそぼである。	NO_LABEL
山原村に住む主人公おしげばあちゃんは、夫の利平の死後に1人で荒物屋を営む。	やんばらむらにすむしゅじんこーおしげばーちゃんわ、おっとのりへいのしごにひとりであらものやをいとなむ。	NO_LABEL
おしげさんは村人や町から来た人と交流を持ちながら、色々な事件・出来事に遭遇しつつも持ち前の明るさで対処する。	NO_PRONOUNCE	NO_LABEL
本作は、そんなおしげさんの喜怒哀楽に満ちた日常を描いている。	もとさくわ、そんなおしげさんのきどあいらくにみちたにちじょーをえがいている。	NO_LABEL
