Vodafone 703SHfはシャープが製造し、ボーダフォン日本法人が2005年11月11日に発売したW-CDMA通信方式のVodafone 3Gサービスを利用可能な携帯電話端末。	NO_PRONOUNCE	NO_LABEL
モデルとしては70xシリーズなのでローエンドに属する。	NO_PRONOUNCE	NO_LABEL
ボーダフォンでモバイルFeliCaを初搭載する機種でもある。	ぼーだふぉんでもばいるふぇりかをはつとーさいするきしゅでもある。	NO_LABEL
Vodafone 703SHやVodafone 903SHなどと違い、日本以外では市販されていない。	NO_PRONOUNCE	NO_LABEL
JATE通過日は2005年9月6日。	じぇいえーてぃーいーつーかびわにせんごねんくがつむいか。	NO_LABEL
この端末はVodafoneが販売する初のVodafone live! FeliCa対応端末である。	NO_PRONOUNCE	NO_LABEL
基本的にはVodafone 703SHをベースとしているモデルであり、それは外見にも良く現れているが、細部を見ていくとFeliCaの搭載や液晶の変更、外部デザインの変更など様々な面で改良が加えられている。	NO_PRONOUNCE	NO_LABEL
703SHとは違い、QRコード読み取り機能もついている。	NO_PRONOUNCE	NO_LABEL
