水谷 京太は関西サッカーリーグ三菱重工神戸サッカー部所属のサッカー選手。	みずたにきょーたわかんさいさっかーりーぐみつびしじゅーこーこーべさっかーぶしょぞくのさっかーせんしゅ。	NO_LABEL
ポジションはDF。	ぽじしょんわでぃふぇんだー。	NO_LABEL
2007年から3年連続で兵庫県成年男子国体選抜に選ばれている。	にせんななねんからさんねんれんぞくでひょーごけんせいねんだんしこくたいせんばつにえらばれている。	NO_LABEL
