タミヤのRC製品一覧は、タミヤの発売してきた主なRCカー・RCタンク製品の一覧である。	NO_PRONOUNCE	NO_LABEL
括弧内はシャーシ名	かっこないわしゃーしめい	NO_LABEL
タミヤの「RCモデル 組立説明図ページ」を元に分類。	NO_PRONOUNCE	NO_LABEL
まずは電動モーターで走行するシャーシから。	まずわでんどーもーたーでそーこーするしゃーしから。	NO_LABEL
4WD・FFは主にツーリングカーで使用される。	NO_PRONOUNCE	NO_LABEL
後輪駆動シャーシがメインだが4WDシャーシも存在する。	こーりんくどーしゃーしがめいんだがよんだぶりゅーでぃーしゃーしもそんざいする。	NO_LABEL
小型車モデルに使われるシャーシ。	こがたしゃもでるにつかわれるしゃーし。	NO_LABEL
実車に合わせた駆動方式を選ぶ事ができる。	じっしゃにあわせたくどーほーしきをえらぶことができる。	NO_LABEL
ホイールベースはショート、ミドル、ロングの3種類がある。	ほいーるべーすわしょーと、みどる、ろんぐのさんしゅるいがある。	NO_LABEL
一部のシャーシではショートホイールベースは選択できない。	いちぶのしゃーしでわしょーとほいーるべーすわせんたくできない。	NO_LABEL
主に四駆バギーに使われるシャーシ	おもによんかばぎーにつかわれるしゃーし	NO_LABEL
四駆バギーに使われるシャーシ	よんかばぎーにつかわれるしゃーし	NO_LABEL
二駆バギー用に使われるシャーシ	にかばぎーよーにつかわれるしゃーし	NO_LABEL
主要シャーシのタイプ別	しゅよーしゃーしのたいぷべつ	NO_LABEL
エンジンカーのシャーシ。	えんじんかーのしゃーし。	NO_LABEL
