法泉寺は、東京都台東区元浅草にある日蓮宗の寺院。	ほーせんじわ、とーきょーとたいとーくもとあさくさにあるひはすむねのじいん。	NO_LABEL
山号は妙盈山。	さんごーわみょーみつるさん。	NO_LABEL
旧本山は大本山池上本門寺、池上・芳師法縁。	NO_PRONOUNCE	NO_LABEL
文禄4年矢之倉に妙泉院日雄没）を開山に創建。	NO_PRONOUNCE	NO_LABEL
正保元年現在地へ移転した。	しょーほーがんねんげんざいちえいてんした。	NO_LABEL
文化3年大火で諸堂を焼失した。	ぶんかさんねんたいかでしょどーをしょーしつした。	NO_LABEL
