『MBS漫才アワード』は、関西のテレビ・ラジオ放送局である毎日放送が主催していた漫才コンテスト。	NO_PRONOUNCE	NO_LABEL
2011年開催の第9回までは『MBS新世代漫才アワード』の名称で開催された。	NO_PRONOUNCE	NO_LABEL
これまで、NHK上方漫才コンテストや、ABCお笑い新人グランプリ→ABCお笑いグランプリ、上方お笑い大賞→笑いの超新星→ytv漫才新人賞など、在阪の放送局各社が新人のお笑い芸人のコンテストを行ってきた中で、唯一そのようなコンテストを持っていなかったMBSが『MBS新世代漫才アワード』の名称で2003年からスタートさせた。	NO_PRONOUNCE	NO_LABEL
「現役高校生が選ぶ・一番面白い漫才師は誰か」をフレーズとした漫才大会であり、大会を重ねるごとに注目度が増している大会である。	NO_PRONOUNCE	NO_LABEL
開催時期は夏であり、開催地は大阪である。	かいさいじきわなつであり、かいさいちわおーさかである。	NO_LABEL
出場制限は特になく関西の若手芸人が中心に参加しているが、東京を拠点に活動するコンビや比較的ベテランのコンビもエントリーしている。	しゅつじょーせいげんわとくになくかんさいのわかてげいにんがちゅーしんにさんかしているが、とーきょーをきょてんにかつどーするこんびやひかくてきべてらんのこんびもえんとりーしている。	NO_LABEL
「審査員が現役高校生」という所がこの大会の特徴であり、醍醐味である。	NO_PRONOUNCE	NO_LABEL
優勝者には賞金100万円と年末年始の冠番組出演権が贈られる。	ゆーしょーしゃにわしょーきんひゃくまんえんとねんまつねんしのかんむりばんぐみしゅつえんけんがおくられる。	NO_LABEL
ただし第8回のみ、同日生放送された『ロケみつ〜ロケ×ロケ×ロケ〜大生放送SP』のゲスト出演権が贈られ、さらにMBS開局60周年と優勝を記念した旅ロケ企画「バンジージャンプでロウソクをさせ MBS開局60周年記念 おめでとう!バースデーケーキブログ旅」が用意された。	NO_PRONOUNCE	NO_LABEL
「夏の賞レースといえば漫才アワード」と定着しつつあるが、第5回・第11回のように秋に開催されたこともある。	NO_PRONOUNCE	NO_LABEL
松竹芸能所属で東京拠点のアメリカザリガニがグランプリを獲得した第6回を除き、吉本興業所属で大阪拠点の漫才コンビがグランプリを独占してきた。	しょーちくげいのーしょぞくでとーきょーきょてんのあめりかざりがにがぐらんぷりをかくとくしただいろっかいをのぞき、よしもとこーぎょーしょぞくでおーさかきょてんのまんざいこんびがぐらんぷりをどくせんしてきた。	NO_LABEL
MBS以外でのネット局は、第5回の決勝トーナメントを同時ネットした山陽放送と、第8回から第10回までの決勝トーナメントを同時ネットした熊本放送のみである。	えむびーえすいがいでのねっときょくわ、だいごかいのけっしょーとーなめんとをどーじねっとしたさんよーほーそーと、だいはっかいからだいじゅっかいまでのけっしょーとーなめんとをどーじねっとしたくまもとほーそーのみである。	NO_LABEL
また、第10回以降は『MBS漫才アワード』に改称している。	NO_PRONOUNCE	NO_LABEL
しかし、MBSではMBSスタジオ in USJが閉鎖した直後の2014年4月に、当コンテストの終了を発表した。	しかし、えむびーえすでわえむびーえすすたじおいんゆにばーさるすたじおじゃぱんがへいさしたちょくごのにせんじゅうよねんしがつに、とーこんてすとのしゅーりょーをはっぴょーした。	NO_LABEL
終了を決めた理由には、MBSテレビが主催するお笑い関係のコンテストを、前年から開始の『歌ネタ王決定戦』に集約させることが挙げられているref>。	NO_PRONOUNCE	NO_LABEL
ただし、ラジオでは2013年1月から、「耳で楽しむ賞レース」という触れ込みで年に数回「めざせ賞金5万円　MBSラジオ演芸ヤングスネーク杯」を放送している。	NO_PRONOUNCE	NO_LABEL
漫才師だけでなく、審査員を希望する高校生も選考を受ける必要があり、勝ち抜いた者が審査をすることができる。	まんざいしだけでなく、しんさいんをきぼーするこーこーせいもせんこーをうけるひつよーがあり、かちぬいたものがしんさをすることができる。	NO_LABEL
希望者の高校生は事前に「お笑いペーパーテスト」を受け、テストの上位1000人で審査を行う。	NO_PRONOUNCE	NO_LABEL
1次予選・2次予選は250人の審査員が、決勝では一般審査員1000人が審査する。	NO_PRONOUNCE	NO_LABEL
このうち600人が会場審査員で、残りの400人は自宅審査員となる。	このうちろっぴゃくにんがかいじょーしんさいんで、のこりのよんひゃくにんわじたくしんさいんとなる。	NO_LABEL
第9回以降は「高校生お笑いセンター試験」に替わり、テストの合格者200人が審査を行った。	NO_PRONOUNCE	NO_LABEL
1次予選は6月下旬頃に行われ、エントリーした全組から40組が選ばれ2次予選に進出する。	NO_PRONOUNCE	NO_LABEL
2次予選は7月上旬に行われる。	にじよせんわなながつじょーじゅんにおこなわれる。	NO_LABEL
250人の審査員1人につき1～3点の点数を持ち、ネタを披露したコンビに対し持ち点数をつけ、合計点数の上位が決勝に進出する方式である。	NO_PRONOUNCE	NO_LABEL
決勝戦は8月末に行われ、2次予選を勝ち抜いたコンビによる「1対1の勝ち抜きトーナメント方式」である。	NO_PRONOUNCE	NO_LABEL
審査員1000人→200人が1対1で勝負するコンビに対し、よりおもしろいと思ったコンビに投票し、過半数の支持を獲得したコンビが勝利する方式である。	NO_PRONOUNCE	NO_LABEL
最終決戦はトーナメントを勝ち抜いた組によって行われ、一番票を集めたコンビが優勝となる。	さいしゅーけっせんわとーなめんとをかちぬいたくみによっておこなわれ、いちばんひょーをあつめたこんびがゆーしょーとなる。	NO_LABEL
第1回・第2回は出場資格を「結成10年以内」「関西を拠点に活動」のコンビに限定していた。	NO_PRONOUNCE	NO_LABEL
1次予選をパソコン・携帯電話などによる人気投票で選出された9組と、敗者復活戦を勝ち上がった1組を合わせた計10組で争われた。	NO_PRONOUNCE	NO_LABEL
しかし、1次予選の投票が一人何回でも出来る点など、公平性に問題があるのではないかとの指摘もあった。	しかし、いちじよせんのとーひょーがひとりなんかいでもできるてんなど、こーへいせいにもんだいがあるのでわないかとのしてきもあった。	NO_LABEL
第3回以降、出場資格は「プロとして活動していて、事務所などに所属している」という縛りのみとなって芸歴及び活動拠点の制限が廃止された為、エントリー総数が150組を超えるようになった。	NO_PRONOUNCE	NO_LABEL
矢野・兵動、ジャリズム、$10、ルート33、デンジャラスといった、ベテランもエントリーするようになり、東京を本拠地とするキャン×キャン、トータルテンボス、ハリガネロック、2丁拳銃、アメリカザリガニの5組が決勝進出を果たした。	NO_PRONOUNCE	NO_LABEL
1次予選は「毎日放送AVルーム」において数日に渡って行われ、上位40組が次の2次予選へ進む。	NO_PRONOUNCE	NO_LABEL
2次予選は「MBSスタジオ in USJ」にて開催され、上位12組が決勝大会へ勝ち上がる。	NO_PRONOUNCE	NO_LABEL
1次予選の審査形式は公開されていないが、2次予選は客席の250人の高校生審査員が「3点満点」で、各芸人の演技が終わった直後にトータライザーによる採点を行う。	NO_PRONOUNCE	NO_LABEL
2次予選の模様は、第3回は公式サイト上にてストリーミングによる生中継、第4回以降は深夜帯に決勝進出組以外の漫才と、予選のドキュメンタリーからなる番組が放送されるようになり、知名度や露出の低い芸人にとっては、2次予選進出だけでも、大きなメリットとなる大会となった。	にじよせんのもよーわ、だいさんかいわこーしきさいとじょーにてすとりーみんぐによるなまちゅーけい、だいよんかいいこーわしんやたいにけっしょーしんしゅつぐみいがいのまんざいと、よせんのどきゅめんたりーからなるばんぐみがほーそーされるよーになり、ちめいどやろしゅつのひくいげいにんにとってわ、にじよせんしんしゅつだけでも、おーきなめりっととなるたいかいとなった。	NO_LABEL
実際にこの番組の2次予選が初めての地上波テレビでの漫才となる出演者が、何組も1次予選から勝ち上がっている。	じっさいにこのばんぐみのにじよせんがはじめてのちじょーはてれびでのまんざいとなるしゅつえんしゃが、なんくみもいちじよせんからかちあがっている。	NO_LABEL
その中でも第4回のヒカリゴケは決勝進出も果たし、2年後には東京進出も果たした。	そのなかでもだいよんかいのひかりごけわけっしょーしんしゅつもはたし、にねんごにわとーきょーしんしゅつもはたした。	NO_LABEL
この番組の高校生による審査が知名度や人気などに左右されたものでないことを、大きくアピールするものとなった。	このばんぐみのこーこーせいによるしんさがちめいどやにんきなどにさゆーされたものでないことを、おーきくあぴーるするものとなった。	NO_LABEL
決勝大会は、第5回まではシアターBRAVA!、第6回・第7回は松下IMPホール、第8回はシアター・ドラマシティ、第9回以降はMBSスタジオ in USJにて行われ、「お笑いペーパーテスト」→「高校生お笑いセンター試験」で選ばれた1000人→200人の高校生が審査員を務める。	NO_PRONOUNCE	NO_LABEL
審査方法は、どちらが面白かったかだけをトータライザーで選択するタイマン制で、ノックアウト形式のトーナメントを3回行い優勝者を決定する。	しんさほーほーわ、どちらがおもしろかったかだけをとーたらいざーでせんたくするたいまんせいで、のっくあうとけいしきのとーなめんとをさんかいおこないゆーしょーしゃをけっていする。	NO_LABEL
第9回以降は準決勝が廃止となり、決勝戦では1回戦で勝利した芸人全組による勝ち残り方式での決勝戦に臨む。	だいきゅうかいいこーわじゅんけっしょーがはいしとなり、けっしょーせんでわいちかいせんでしょーりしたげいにんぜんくみによるかちのこりほーしきでのけっしょーせんにのぞむ。	NO_LABEL
第8回は初めてゴールデンタイムで生放送されたが、『スパモク!!』枠での放送のため、放送時間が2時間、決勝大会進出も8組に削減されることとなった。	NO_PRONOUNCE	NO_LABEL
決勝戦の対戦組み合わせ抽選の模様は、同日に放送した『ちちんぷいぷい夏祭り おかげさまで60年スペシャル』内で生放送された。	NO_PRONOUNCE	NO_LABEL
第9回・第10回も引き続きゴールデンタイムで生放送された。	NO_PRONOUNCE	NO_LABEL
第11回には、決勝開催日の11月4日が国民の休日に当たることから、『ちちんぷいぷい』との合同特別番組『ちちんぷいぷい×MBS漫才アワード あっぱれ!ハイスクール』の第2部で決勝戦の模様を放送した。	NO_PRONOUNCE	NO_LABEL
対戦の組み合わせは1回戦は抽選で決定し、準決勝は1回戦の奇数試合の勝者が先攻、偶数試合の勝者が後攻となる。	たいせんのくみあわせわいちかいせんわちゅーせんでけっていし、じゅんけっしょーわいちかいせんのきすーしあいのしょーしゃがせんこー、ぐーすーしあいのしょーしゃがこーおさむとなる。	NO_LABEL
決勝戦のネタ順は再抽選で決定。	けっしょーせんのねたじゅんわさいちゅーせんでけってい。	NO_LABEL
なお第8回まで終了した時点での1対1の対戦結果では先攻が18勝、後攻が43勝と後攻が有利となっている。	NO_PRONOUNCE	NO_LABEL
※ボーダフォン日本法人が特別協賛。	NO_PRONOUNCE	NO_LABEL
