株式会社平凡社地図出版は、日本の地図専業出版社。	かぶしきがいしゃへいぼんしゃちずしゅっぱんわ、にっぽんのちずせんぎょーしゅっぱんしゃ。	NO_LABEL
親会社の平凡社と同様に、社名の「平」の字は、厳密には二つの点が末広がりになった旧字体「TRON 2-9C72.gif」を使用する。	NO_PRONOUNCE	NO_LABEL
1954年に平凡社の『世界大百科事典』別刷の地図作成部門として設立された「日本地図研究所」を前身とする。	NO_PRONOUNCE	NO_LABEL
別刷の刊行後はそのノウハウを生かして学習教材や家庭用の地図帳や立体地図の作成に進出し、特に1968年刊行の『世界地図帳』『日本地図帳』がヒット商品となった。	NO_PRONOUNCE	NO_LABEL
1980年3月、地図業務に特化した株式会社平凡社地図出版として平凡社から分社、本社を埼玉県朝霞市に置く。	せんきゅうひゃくはちじゅうねんさんがつ、ちずぎょーむにとくかしたかぶしきがいしゃへいぼんしゃちずしゅっぱんとしてへいぼんしゃからぶんしゃ、ほんしゃをさいたまけんあさかしにおく。	NO_LABEL
これ以降、東京書籍発行の学習用地図帳製作や講談社が日本での販売権を取得した『タイムズ世界地図帳』の日本語化などを行っている。	NO_PRONOUNCE	NO_LABEL
また、Google マップの日本語版で使用されている日本国外の地名のデータ提供も行っている。	また、ぐーぐるまっぷのにほんごばんでしよーされているにほんこくがいのちめいのでーたていきょーもおこなっている。	NO_LABEL
本社は2000年に朝霞市から豊島区要町へ移転、その後は文京区音羽を経て現在は新宿区山吹町に置かれている。	ほんしゃわにせんねんにあさかしからとしまくかなめちょーえいてん、そのごわぶんきょーくおとわをへてげんざいわしんじゅくくやまぶきちょーにおかれている。	NO_LABEL
