『ビアンカ・オーバースタディ』は、筒井康隆が2012年に発表したライトノベルである。	NO_PRONOUNCE	NO_LABEL
人間の精子の観察を望むハーフの美少女・ビアンカ北町が、千原信忠の素性を知り、彼の計画に協力するさまを描いたライトノベル作品。	NO_PRONOUNCE	NO_LABEL
星海社から2012年8月17日に発売され、星海社のウェブサイトでは第一章とあとがきが無料公開された。	せいかいしゃからにせんじゅうにねんはちがつじゅうしちにちにはつばいされ、せいかいしゃのうぇぶさいとでわだいいちしょーとあとがきがむりょーこーかいされた。	NO_LABEL
のち、2016年5月25日に角川文庫で発売。	のち、にせんじゅうろくねんごがつにじゅうごにちにかどかわぶんこではつばい。	NO_LABEL
作者である筒井はあとがきの中で、通常のラノベとして読むだけでなくメタ的な読み方もできると述べている。	さくしゃであるつついわあとがきのなかで、つーじょーのらのべとしてよむだけでなくめたてきなよみかたもできるとのべている。	NO_LABEL
4Gamer.netの柿崎憲とエキサイトのたまごまごはいずれも、「帯には「それは2010年代の『時をかける少女』」とあるが、さわやかなラベンダーの匂いではなく栗の花の匂いがする」と評した。	NO_PRONOUNCE	NO_LABEL
柿崎は、どこか既視感のあるキャラクターや設定を取り入れつつもそれを逸脱させて、他では目にできない作品に仕上げるという、パロディを多用する筒井ならではの技が光りつつも、終盤では未来の視点から現代文明や社会情勢への批判を込めるという、通常のライトノベルらしいオチにしていると評した。	かきざきわ、どこかきしかんのあるきゃらくたーやせっていをとりいれつつもそれをいつだつさせて、たではめにできないさくひんにしあげるとゆう、ぱろでぃをたよーするつついならでわのわざがひかりつつも、しゅーばんでわみらいのしてんからげんだいぶんめいやしゃかいじょーせいえのひはんをこめるとゆう、つーじょーのらいとのべるらしいおちにしているとひょーした。	NO_LABEL
たまごまごは、作品全体の視野の広さやキャラクターついても評価しており、たとえば塩崎はビアンカとともに行動しているため、努力を重ねて変化するヘタレ系主人公に見えてそうではないキャラクターになっており、たまごまごはライトノベル風にした、ライトノベルの読者の隠喩ではないかとみている。	たまごまごわ、さくひんぜんたいのしやのひろさやきゃらくたーついてもひょーかしており、たとえばしおざきわびあんかとともにこーどーしているため、どりょくをかさねてへんかするへたれけいしゅじんこーにみえてそーでわないきゃらくたーになっており、たまごまごわらいとのべるふーにした、らいとのべるのどくしゃのいんゆでわないかとみている。	NO_LABEL
また、ロッサはかわいらしい女子中学生であること以外の情報が意図的に描かれておらず、さらわれる場面があっても、眠ったまま服を着させられ、さらった者はそれを眺めながら自慰をするという内容になっており、毒気と棘を抜き二次元化させた美少女像の隠喩ではないかとたまごまごはみている。	また、ろっさわかわいらしいじょしちゅーがくせいであることいがいのじょーほーがいとてきにえがかれておらず、さらわれるばめんがあっても、ねむったままふくをきさせられ、さらったものわそれをながめながらじいをするとゆうないよーになっており、どくけととげをぬきにじげんかさせたびしょーじょぞーのいんゆでわないかとたまごまごわみている。	NO_LABEL
