マクマト 120mm自走迫撃砲は、イスラエルで1960年代初頭に開発された120mm迫撃砲装備の自走迫撃砲である。	まくまとひゃくにじゅうめーとるめーとるじそうはくげきほーわ、いすらえるでせんきゅうひゃくろくじゅうねんだしょとーにかいはつされたひゃくにじゅうめーとるめーとるはくげきほーそーびのじそうはくげきほーである。	NO_LABEL
M3ハーフトラックの車体にソルタム・システムズ製のM65 120mm迫撃砲を搭載した車両で、ハーフトラック Mk.Dとも呼称される。	NO_PRONOUNCE	NO_LABEL
1967年の第三次中東戦争、1973年の第四次中東戦争において実戦投入された。	せんきゅうひゃくろくじゅうななねのだいさんじちゅーとーせんそー、せんきゅうひゃくななじゅうさんねんのだいよじちゅーとーせんそーにおいてじっせんとーにゅーされた。	NO_LABEL
名称の"マクマト"は、ヘブライ語の"Margema Kveda Mitnayaat, 自走重迫撃砲"という意味の語のアクロニムで、本120mm自走迫撃砲の他、スーパーシャーマンにソルタムM66 160mm迫撃砲を搭載した160mm自走迫撃砲も"マクマト"と呼ばれる。	NO_PRONOUNCE	NO_LABEL
イスラエル国防軍は1948年の独立戦争以来、アメリカ製のM2/M3ハーフトラックおよびこれらのレンドリース型であるM5/M9ハーフトラックを多数運用していた。	NO_PRONOUNCE	NO_LABEL
イスラエル軍では様々な派生型が運用されていたが、その中で主要な形式についてはMk.AからMk.Dまでに分類されていた。	NO_PRONOUNCE	NO_LABEL
すなわち、	すなわち、	NO_LABEL
の4種である。	のよんしゅである。	NO_LABEL
マクマト120mm自走迫撃砲については1962年から生産されたとする資料もあるが、1960年の軍事パレードに本車と見られる車両が参加していることから、少なくとも試作されたのはもっと早い時期であったと考えられる。	まくまとひゃくにじゅうめーとるめーとるじそうはくげきほーについてわせんきゅうひゃくろくじゅうにねんからせいさんされたとするしりょーもあるが、せんきゅうひゃくろくじゅうねんのぐんじぱれーどにほんしゃとみられるしゃりょーがさんかしていることから、すくなくともしさくされたのわもっとはやいじきであったとかんがえられる。	NO_LABEL
構造としてはオーソドックスなもので、ハーフトラックの兵員室中央部に迫撃砲を搭載し、両サイドに弾薬を搭載しているというスタイルである。	こーぞーとしてわおーそどっくすなもので、はーふとらっくのへいいんしつちゅーおーぶにはくげきほーをとーさいし、りょーさいどにだんやくをとーさいしているとゆうすたいるである。	NO_LABEL
特徴的な点として、アメリカ軍が第二次世界大戦時に運用したM4/M21自走迫撃砲は、前者は迫撃砲が後ろ向き、後者は前向きに装備されており射撃方向の調整が限定的であったのに対し、本車は迫撃砲搭載部がボールマウント状になっており、ある程度自由に砲の方向を変えられるような構造になっていたことが挙げられる。	NO_PRONOUNCE	NO_LABEL
搭載されたM65迫撃砲にはいくつかのバリエーションが存在し、タイプにより砲弾の搭載方法が異なっている。	とーさいされたえぬじーしーさんぜんろっぴゃくにじゅうさんはくげきほーにわいくつかのばりえーしょんがそんざいし、たいぷによりほーだんのとーさいほーほーがことなっている。	NO_LABEL
軽量タイプは筒状の砲弾ケースを束ねたものを搭載しており、重量タイプは箱状の砲弾ケースを搭載する。	けいりょーたいぷわつつじょーのほーだんけーすをたばねたものをとーさいしており、じゅーりょーたいぷわはこじょーのほーだんけーすをとーさいする。	NO_LABEL
使用された車体については、現存する博物館の車両や記録写真を確認する限りではレンドリース型のM5/M9の車体が使用されている。	NO_PRONOUNCE	NO_LABEL
これは、運用上最前線に接近する可能性の高い装甲兵員輸送車タイプにM3を優先的に使用し、最前線に接近する可能性の低い自走迫撃砲型に対して防弾能力の低いレンドリース型を回した事によるものと考えられる。	これわ、うんよーじょーさいぜんせんにせっきんするかのーせいのたかいそーこーへいーんゆそーしゃたいぷにえぬじーしーごせんにひゃくななじゅうにをゆーせんてきにしよーし、さいぜんせんにせっきんするかのーせいのひくいじそうはくげきほーがたにたいしてぼーだんのーりょくのひくいれんどりーすがたをまわしたことによるものとかんがえられる。	NO_LABEL
もっとも、M3車体を使用したマクマト迫撃砲が必ずしも存在しないという事が明確なわけではない。	もっとも、えぬじーしーごせんにひゃくななじゅうにしゃたいをしよーしたまくまとはくげきほーがかならずしもそんざいしないとゆうことがめいかくなわけでわない。	NO_LABEL
本車は1967年の第三次中東戦争、1973年の第四次中東戦争において運用され、1980年代以降には他国への輸出や、イスラエル軍と友好関係にあったレバノン南部の武装組織南レバノン軍への供与も行われている。	ほんしゃわせんきゅうひゃくろくじゅうななねのだいさんじちゅーとーせんそー、せんきゅうひゃくななじゅうさんねんのだいよじちゅーとーせんそーにおいてうんよーされ、せんきゅうひゃくはちじゅうねんだいいこーにわたこくえのゆしゅつや、いすらえるぐんとゆーこーかんけいにあったればのんなんぶのぶそーそしきみなみればのんぐんえのきょーよもおこなわれている。	NO_LABEL
現在、イスラエル軍においてはマクマト自走重迫撃砲はM113装甲兵員輸送車をベースとした車種により更新され退役している。	げんざい、いすらえるぐんにおいてわまくまとじはしじゅーはくげきほーわひゃくじゅうさんをべーすとしたしゃしゅによりこーしんされたいえきしている。	NO_LABEL
イスラエル国内のイスラエル砲兵隊博物館には搭載砲のM65とともに、マクマト自走迫撃砲の実車が展示されている。	いすらえるこくないのいすらえるほーへいたいはくぶつかんにわとーさいほーのえぬじーしーさんぜんろっぴゃくにじゅうさんとともに、まくまとじそうはくげきほーのじっしゃがてんじされている。	NO_LABEL
