『ボーデロ・オブ・ブラッド/血まみれの売春宿』は、1996年製作のアメリカ合衆国のホラー/コメディ映画。	NO_PRONOUNCE	NO_LABEL
HBOのテレビドラマ、『ハリウッド・ナイトメア』の一環として製作された。	NO_PRONOUNCE	NO_LABEL
これは『デーモン・ナイト』の続編である。	NO_PRONOUNCE	NO_LABEL
※括弧内は日本語吹替	NO_PRONOUNCE	NO_LABEL
