小宮 有紗は、日本の女優、声優。	こみやあさわ、にっぽんのじょゆー、せいゆー。	NO_LABEL
ボックスコーポレーションに所属。	ぼっくすこーぽれーしょんにしょぞく。	NO_LABEL
栃木県下野市出身。	とちぎけんしもつけししゅっしん。	NO_LABEL
愛称は主にありしゃ、ありちゃん。	あいしょーわおもにありしゃ、ありちゃん。	NO_LABEL
Aqoursのメンバーでもある。	あくあのめんばーでもある。	NO_LABEL
小学生の時代からクラシック・バレエを習う。	しょーがくせいのじだいからくらしっくばれーをならう。	NO_LABEL
中学2年生の終わり頃に東京都渋谷を歩いていたところをボックスコーポレーションのスタッフにスカウトされ、2010年に女優としてデビューする。	ちゅーがくにねんせいのおわりころにとーきょーとしぶやをあるいていたところをぼっくすこーぽれーしょんのすたっふにすかうとされ、にせんじゅうねんにじょゆーとしてでびゅーする。	NO_LABEL
2012年、スーパー戦隊シリーズ第36作『特命戦隊ゴーバスターズ』の宇佐見ヨーコ / イエローバスター役でテレビドラマ初出演。	NO_PRONOUNCE	NO_LABEL
2015年、『ラブライブ!』の続編『ラブライブ!サンシャイン!!』への出演が決まり、声優デビュー。	NO_PRONOUNCE	NO_LABEL
同時に、Aqoursとしての活動をスタート。	どーじに、あくあとしてのかつどーをすたーと。	NO_LABEL
デビュー以来、TwitterやFacebookは利用していないと発表し続けていたが、2016年6月26日より本人の公式Twitterアカウントが開設されている。	でびゅーいらい、ついったーやふぇいすぶっくわりよーしていないとはっぴょーしつずけていたが、にせんじゅうろくねんろくがつにじゅうろくにちよりほんにんのこーしきついったーあかうんとがかいせつされている。	NO_LABEL
2016年に出演した映画『夢二〜愛のとばしり』では、主人公の駿河太郎を相手に大胆な濡れ場を演じた。	NO_PRONOUNCE	NO_LABEL
芸能界入りしてからは、テレビドラマ・特撮を主に、女優としてキャリアを積み重ねてきた。	NO_PRONOUNCE	NO_LABEL
2015年にスタートした『ラブライブ!サンシャイン!!』の黒澤ダイヤ役で声優に初めて挑戦することになったが、「『特命戦隊ゴーバスターズ』で声優と一緒に携わることがきっかけで刺激を受けて興味が湧いたから」「一つのことに縛られずに、いろいろなお芝居をしてみたいという想いがずっとあったから」であると述べている。	NO_PRONOUNCE	NO_LABEL
また、女優活動を積み重ねる過程で、「お芝居の中で、耳から入ってくる情報が多いことを知って、声ってすごく大事な要素なんだということがわかったから」「歌って踊る人がかわいいなと思って憧れがあったから」ということも、理由の1つとして挙げている。	NO_PRONOUNCE	NO_LABEL
声優に挑戦する際は、不安や戸惑いが大きかったが、親交のある声優から「声だけで作ろうとせず、普段のお芝居を声に集中する感じでやってみたら」とアドバイスを受けたことが、活動の心の支えになっているとのこと。	NO_PRONOUNCE	NO_LABEL
また、女優活動は基本的に「一人きりで、自分との戦いという面が強い」一方で、声優およびAqoursでの活動は、「みんなで一緒にいい作品を作り上げていきたいという思いが強い」と、それぞれの活動の違いについて言及している。	NO_PRONOUNCE	NO_LABEL
また、「自分が歌って踊る立場になるとは思っていなかった」とあり、Aqoursの活動は「素敵で貴重な経験であり、純粋に楽しみにしている自分がいる」とのこと。	NO_PRONOUNCE	NO_LABEL
Aqoursの活動について、「個性豊かで、それぞれ自分の得意としていること、基礎にしているものが違う、それでいて目指すところがいつも同じだからこそ、互いに吸収できることがある、切磋琢磨できる、同じ方向を向いてお芝居や歌に打ち込むことができる」と述べている。	NO_PRONOUNCE	NO_LABEL
自身の目標として、「女優、声優を含めて、ずっとお芝居にかかわり続けること。	NO_PRONOUNCE	NO_LABEL
やっぱり自分は、お芝居が大好きだから。	やっぱりじぶんわ、おしばいがだいすきだから。	NO_LABEL
」と述べている。	NO_PRONOUNCE	NO_LABEL
座右の銘として、「とにかくやってみる!」を挙げている。	NO_PRONOUNCE	NO_LABEL
理由として、「直観も大切かなと思っていますし、挑戦せずに後悔するのはとても嫌なので」と述べている。	NO_PRONOUNCE	NO_LABEL
自身の特徴について、「何かをやりたい!と思ったときのエネルギーは、たぶんものすごいんだと思います」と述べている。	NO_PRONOUNCE	NO_LABEL
また、「自由気まま」とも述べており、子ども時代は人を引っ張ることに縁がなかった、だから黒澤ダイヤは自分と真逆な面があると感じた、とも述べている。	NO_PRONOUNCE	NO_LABEL
人物的特徴として、Aqoursのメンバーである諏訪ななかは、「女優としての経験が豊富な分、言葉に気迫がある」と述べている。	NO_PRONOUNCE	NO_LABEL
大切にしていることとして「寝ること」を挙げており、特に休みの日は「1日10時間ぐらい寝ます」とのこと。	NO_PRONOUNCE	NO_LABEL
趣味は歴史とのことで、特に幕末時代に興味を持っており、その中でも漫画の影響で知った土方歳三を尊敬しているという。	しゅみわれきしとのことで、とくにばくまつじだいにきょーみをもっており、そのなかでもまんがのえいきょーでしったあらーきーをそんけいしているという。	NO_LABEL
特技はクラシック・バレエを含めたダンス全般、イラストを描くこと。	とくぎわくらしっくばれーをふくめただんすぜんぱん、いらすとをえがくこと。	NO_LABEL
