佐野市文化会館は、栃木県佐野市浅沼町508番地5にある多目的ホールである。	NO_PRONOUNCE	NO_LABEL
2010年度に指定管理者制度が導入され、株式会社ケイミックスが受託している。	にせんじゅうねんどにしていかんりしゃせいどがどーにゅーされ、かぶしきがいしゃけいみっくすがじゅたくしている。	NO_LABEL
2013年度に指定管理者の更新があり、株式会社ケイミックスが受託した。	にせんじゅうさんねんどにしていかんりしゃのこーしんがあり、かぶしきがいしゃけいみっくすがじゅたくした。	NO_LABEL
