信条史は、プロテスタント教会における信仰告白の歴史である。	しんじょーしわ、ぷろてすたんときょーかいにおけるしんこーこくはくのれきしである。	NO_LABEL
キリスト教の歴史においてもっとも多くの信条を生み出した時代であり、「ただ聖書のみ」という原則に立ち、中世カトリック教会の信条を非聖書的とみなして退けて、カトリック教会とは異なった信条の歴史が始まった。	NO_PRONOUNCE	NO_LABEL
マルティン・ルター、フルドリッヒ・ツヴィングリ、ジャン・カルヴァンらが神学を論じる中で信仰告白を文章化する必要が生じた。	NO_PRONOUNCE	NO_LABEL
アウグスティヌスの神学における恩恵の絶対性の主張、福音による救いを中心テーマとして神学を構成した結果生まれた信条である。	あうぐすてぃぬすのしんがくにおけるおんけいのぜったいせいのしゅちょー、ふくいんによるすくいをちゅーしんてーまとしてしんがくをこーせいしたけっかうまれたしんじょーである。	NO_LABEL
アウクスブルク信仰告白が有名で、その後1580年に使徒信条、ニカイヤ信条、アタナシオスの公同信条を含む『和協信条』が出版された。	NO_PRONOUNCE	NO_LABEL
公開信条主義を持つ改革派教会は、アウクスブルク信仰告白のような規範的信条を持たない。	こーかいしんじょーしゅぎをもつかいかくはきょーかいわ、あうくすぶるくしんこーこくはくのよーなきはんてきしんじょーをもたない。	NO_LABEL
その理由は、聖書が唯一の規範であり、信条崇拝の危険があるからという理由である。	そのりゆーわ、せいしょがゆいいつのきはんであり、しんじょーすーはいのきけんがあるからとゆうりゆーである。	NO_LABEL
信条を規範としたり、教会の基礎とはみなさず、弁証的意味で信条を利用した。	しんじょーをきはんとしたり、きょーかいのきそとわみなさず、べんしょーてきいみでしんじょーをりよーした。	NO_LABEL
また、個人の良心を束縛する信条、教会自治を拘束する信条は理念上認めていない。	また、こじんのりょーしんをそくばくするしんじょー、きょーかいじちをこーそくするしんじょーわりねんじょーみとめていない。	NO_LABEL
その代表はシュトライトハイム信仰告白である。	そのだいひょーわしゅとらいとはいむしんこーこくはくである。	NO_LABEL
