エセック・ビジネススクールは、フランスパリ近郊セルジーおよびパリ至近のラ・デファンス、東南アジアのシンガポール、北アフリカのラバトにキャンパスを置くビジネススクールであり、私立グランゼコールのひとつ。	えせっくびじねすすくーるわ、ふらんすぱりきんこーせるじーおよびぱりしきんのらでふぁんす、とーなんあじあのしんがぽーる、きたあふりかのらばとにきゃんぱすをおくびじねすすくーるであり、しりつぐらんぜこーるのひとつ。	NO_LABEL
1907年にイエズス会により設置された。	せんきゅうひゃくななねんにいえずすかいによりせっちされた。	NO_LABEL
公用語表記では 「École supérieure des sciences économiques et commerciales」 である。	NO_PRONOUNCE	NO_LABEL
日本国内では「エセック経済商科大学院大学」という呼称が用いられることが多い。	NO_PRONOUNCE	NO_LABEL
パリの「カルチエ・ラタン」に校舎があったが、1973年ヴァル・ドワーズ県セルジーに校舎が完成し、翌1974年に移転した。	NO_PRONOUNCE	NO_LABEL
また、当該地域は「ヴェルサイユ大学区」に属するため、至近のセルジー＝ポントワーズ大学のほか、パリ第10大学、エコール・サントラル・パリ、エコール・ポリテクニーク等多くの高等教育機関が所在する。	NO_PRONOUNCE	NO_LABEL
いわゆる名門グランゼコールの1校で、ESSEC大学グループを構成している。	NO_PRONOUNCE	NO_LABEL
修士課程のMSc in ManagementプログラムはFT誌Master in Managementランキングで世界第3位となっている。	NO_PRONOUNCE	NO_LABEL
　また正規のMBAを授与できる学校であり、欧州品質改善システムに認定されている。	またせいきのえむびーえーをじゅよできるがっこーであり、おーしゅーひんしつかいぜんしすてむににんていされている。	NO_LABEL
Global MBAプログラムはQSの2017年ヨーロッパMBAランキングで第7位だった。	NO_PRONOUNCE	NO_LABEL
2004年にドイツの名門ビジネススクール、マンハイムビジネススクールとエグゼクティブMBAプログラムを創設して以来、ESSECはエグゼクティブ教育においても、ヨーロッパのトップクラスの1校として高く評価されている。	NO_PRONOUNCE	NO_LABEL
