リコール43は、地中海沿岸の柑橘類と厳選されたボタニカルからつくられ、バニラ、キャラメル、蜂蜜の風味が層を成すスペインのリキュールである。	NO_PRONOUNCE	NO_LABEL
黄金色で、アルコール度数は31%。	こがねいろで、あるこーるどすーわさんじゅういちぱーせんと。	NO_LABEL
ライトボディで甘口。	らいとぼでぃであまくち。	NO_LABEL
カルタヘナに拠点を置く、100%家族経営のディエゴ・サモラグループのフラッグシップ・ブランドである。	NO_PRONOUNCE	NO_LABEL
リコール43は当初、「リコール クアレンタ・イ・トレス」として20世紀前半に誕生した。	NO_PRONOUNCE	NO_LABEL
その名は地中海地域で栽培される柑橘類やフルーツ、ハーブなど、厳選された43種類の原材料から作られることに由来する。	そのなわちちゅーかいちいきでさいばいされるかんきつるいやふるーつ、はーぶなど、げんせんされたよんじゅうさんしゅるいのげんざいりょーからつくられることにゆらいする。	NO_LABEL
レシピは60年の歴史の中で進化しながらも、創業者一族のみが知る秘伝の製法となっている。	れしぴわろくじゅうねんのれきしのなかでしんかしながらも、そーぎょーしゃいちぞくのみがしるひでんのせいほーとなっている。	NO_LABEL
ディエゴ・ザモラ社は、1946年、ディエゴ・サモラ・コネサ、兄アンヘル・サモラ・コネサ、姉ホセフィナ・サモラ・コネサとその夫エミリオ・レストイ・ゴドイによって創業された。	NO_PRONOUNCE	NO_LABEL
1960年代、リコール43はスペイン市場で大きな成功を収め、ディエゴ・ザモラ社はこのリキュールを国際的に販売し始めた。	NO_PRONOUNCE	NO_LABEL
今日、リコール43は、その黄金色の輝き、バニラとシトラスのフレーバー、そして汎用性の高さで認知され、世界7大陸で販売されている。	NO_PRONOUNCE	NO_LABEL
同社は創業当時と変わらぬ家族経営を続け、カルタヘナで生産を続けている。	どーしゃわそーぎょーとーじとかわらぬかぞくけいえいをつずけ、かるたへなでせいさんをつずけている。	NO_LABEL
時代的な流れを踏まえてボトルシェイプも変更し、現在のボトルデザインは2015年に一新された。	じだいてきなながれをふまえてぼとるしぇいぷもへんこーし、げんざいのぼとるでざいんわにせんじゅうごねんにいっしんされた。	NO_LABEL
この変更によって、ブランドの持つ背景や歴史と体現しつつ、現代的なイメージへの革新に成功した。	このへんこーによって、ぶらんどのもつはいけいやれきしとたいげんしつつ、げんだいてきないめーじえのかくしんにせいこーした。	NO_LABEL
同社は、2000年以上前のカルタヘナ、「新カルタゴ」と呼ばれたローマ時代の重要な港において、ローマ人が「リクボル・ミラビリス」と呼んだ金色の香り高い液体がこのリキュールの起源であるとしている。	NO_PRONOUNCE	NO_LABEL
この製法は20世紀に至るまでの長い間失われていたが、オリジナルレシピに基づいた構成で「リコール43」として再現されたと主張している。	NO_PRONOUNCE	NO_LABEL
これは非現実的であり、いくつかの原材料はローマ時代のヨーロッパには存在しなかったという説もある。	これわひげんじつてきであり、いくつかのげんざいりょーわろーまじだいのよーろっぱにわそんざいしなかったとゆうせつもある。	NO_LABEL
しかしスペインのカルタヘナはこのブランドの生まれ故郷であり、今なお世界で唯一リコール43をつくり続ける場所である。	NO_PRONOUNCE	NO_LABEL
リコール43は香り高く温かみがあり、熟成したラムのようなフルーティーな甘さやスパイシーさに続いてバニラの風味を伴った複雑さが特徴。	NO_PRONOUNCE	NO_LABEL
そのままで、ロックスタイルで、またコーヒーと混ぜたり、カクテルに加えても楽しめる。	そのままで、ろっくすたいるで、またこーひーとまぜたり、かくてるにくわえてもたのしめる。	NO_LABEL
非常に汎用性に富むのでジュースやソフトドリンクと混ぜても良い。	ひじょーにはんよーせいにとむのでじゅーすやそふとどりんくとまぜてもよい。	NO_LABEL
リコール43はスペイン国内の成功を皮切りに、現在は世界市場でも販売されている。	NO_PRONOUNCE	NO_LABEL
観光、旅行が盛んになるにつれ、国外にも普及し、1970年代には初めてスウェーデンに輸出された。	かんこー、りょこーがさかんになるにつれ、こくがいにもふきゅーし、せんきゅうひゃくななじゅうねんだいにわはじめてすうぇーでんにゆしゅつされた。	NO_LABEL
今日ではオランダ、アメリカ、メキシコ、ドイツ、ブラジルを含む60カ国以上に輸出されている。	NO_PRONOUNCE	NO_LABEL
