転送とは形を変えず一か所から別の場所に移動すること。	てんそーとわかたちをかえずいちかしょからべつのばしょにいどーすること。	NO_LABEL
一般的には送られてきた物品を別の場所に送ることなどに使われる言葉。	いっぱんてきにわおくられてきたぶっぴんをべつのばしょにおくることなどにつかわれることば。	NO_LABEL
一方、英語では転送と伝送を区別せずトランスミットやトランスミッションと言う場合が多い。	いっぽー、えいごでわてんそーとでんそーをくべつせずとらんすみっとやとらんすみっしょんというばあいがおーい。	NO_LABEL
また転送は英語でトランスファーとも言われる。	またてんそーわえいごでとらんすふぁーともいわれる。	NO_LABEL
電気機器や電子機器など工学における転送とは情報やデータを信号として一方の装置から他の装置へ移動させること。	でんきききやでんしききなどこーがくにおけるてんそーとわじょーほーやでーたをしんごーとしていっぽーのそーちからたのそーちえいどーさせること。	NO_LABEL
その二つの装置は信号が減衰やノイズに埋没してその意味を失わない範囲の近距離に置かれる。	そのふたつのそーちわしんごーがげんすいやのいずにまいぼつしてそのいみをうしなわないはんいのきんきょりにおかれる。	NO_LABEL
転送は情報やデータを表す電気信号などその形式を変えずにそのまま移動する。	てんそーわじょーほーやでーたをあらわすでんきしんごーなどそのけいしきをかえずにそのままいどーする。	NO_LABEL
この場合、例えば或る電圧値を別の電圧値を変えても形式を変えたとは言わない。	このばあい、たとえばあるるでんあつちをべつのでんあつちをかえてもけいしきをかえたとわいわない。	NO_LABEL
形式を変えて移動する場合は伝送と言う。	けいしきをかえていどーするばあいわでんそーという。	NO_LABEL
エネルギーとして電気を送る事は「送電」と言い、転送や伝送とは言わない。	NO_PRONOUNCE	NO_LABEL
メールにおける転送とは受信したメールをそのまま、または一部加筆変更して他の宛先に送ること。	めーるにおけるてんそーとわじゅしんしためーるをそのまま、またわいちぶかひつへんこーしてたのあてさきにおくること。	NO_LABEL
略号としてFwが使われる。	NO_PRONOUNCE	NO_LABEL
コンピュータ本体と周辺機器と間でのデータ、制御信号、状態など相互のやり取りは転送と言われる。	こんぴゅーたほんたいとしゅーへんききとまでのでーた、せいぎょしんごー、じょーたいなどそーごのやりとりわてんそーといわれる。	NO_LABEL
データ転送を参照。	でーたてんそーをさんしょー。	NO_LABEL
荷物、貨物や郵便物などを最初の宛先と違う所を新たな宛先として送ることを転送するなどと言い、転送は一般に多くの状況で広く使われる。	にもつ、かもつやゆーびんぶつなどをさいしょのあてさきとちがうところをあらたなあてさきとしておくることをてんそーするなどといい、てんそーわいっぱんにおーくのじょーきょーでひろくつかわれる。	NO_LABEL
