キャディ・コイタとはセネガル出身の女性作家、FGM廃絶活動家、GAMS の欧州メンバー、La Palabre のヨーロッパ代表。	NO_PRONOUNCE	NO_LABEL
1960年、セネガルに生まれる。	せんきゅうひゃくろくじゅうねん、せねがるにうまれる。	NO_LABEL
7歳のとき、親類の家に連れて行かれ「これからサリンデをされます。	NO_PRONOUNCE	NO_LABEL
」と告げられる。	NO_PRONOUNCE	NO_LABEL
そこには、同年代の少女が数人集まっており、呼ばれて順に入った小部屋からその少女たちが狂ったように泣き叫ぶ声が聞こえたという。	そこにわ、どーねんだいのしょーじょがすーにんあつまっており、よばれてじゅんにはいったこべやからそのしょーじょたちがくるったよーになきさけぶこえがきこえたという。	NO_LABEL
キャディも名前を呼ばれて部屋に入ると女性数人に押さえつけられ、麻酔なしに剃刀で陰核を切り取られた。	きゃでぃもなまえをよばれてへやにはいるとじょせいすーにんにおさえつけられ、ますいなしにかみそりでかげかくをきりとられた。	NO_LABEL
この時の痛みは他の痛みに例えようの無い程の激痛でその瞬間に、将来への希望など全てを奪われたと語っている。	このときのいたみわたのいたみにたとえよーのないほどのげきつーでそのしゅんかんに、しょーらいえのきぼーなどすべてをうばわれたとかたっている。	NO_LABEL
13歳でパリ在住の20歳年上の見知らぬセネガル人の従兄と強制結婚させられ、フランスに渡る。	じゅうさんさいでぱりざいじゅーのにじゅっさいとしうえのみしらぬせねがるじんのじゅーけいときょーせいけっこんさせられ、ふらんすにわたる。	NO_LABEL
夫からの性的暴力に耐えて、5人の子供を産む一方でフランス語を教えるなどして生計をたてていた。	おっとからのせいてきぼーりょくにたえて、ごにんのこどもをうむいっぽーでふらんすごをおしえるなどしてせいけいをたてていた。	NO_LABEL
37歳の時に離婚した。	さんじゅうななさいのときにりこんした。	NO_LABEL
女性器切除の痛みに苦しみながらも、その慣習自体に疑問を持ったのはずっと後であり自分の娘たちがFGMを受けることを受け入れた。	じょせいきせつじょのいたみにくるしみながらも、そのかんしゅーじたいにぎもんをもったのわずっとごでありじぶんのむすめたちがえふじーえむをうけることをうけいれた。	NO_LABEL
長女と次女は従姉が済ませ、三女は生後間もないうちに知り合いに済ませてもらった。	ちょーじょとじじょわじゅーしがすませ、さんじょわせいごかんもないうちにしりあいにすませてもらった。	NO_LABEL
しかし三女がFGMを受けた直後にマリ人の女子がパリで、FGMの為に亡くなった事を知り、その従姉は二度としないと誓ってくれたという。	しかしさんじょがえふじーえむをうけたちょくごにまりじんのじょしがぱりで、えふじーえむのためになくなったことをしり、そのじゅーしわにどとしないとちかってくれたという。	NO_LABEL
そのマリ人の女子が亡くなって3年ほど経った頃にフランスメディアがその事を大々的に報じ始めた。	そのまりじんのじょしがなくなってさんねんほどたったころにふらんすめでぃあがそのことをだいだいてきにほーじはじめた。	NO_LABEL
多くのメディアは非難しキャディはそこで初めて、FGMが野蛮な伝統であると知る。	おーくのめでぃあわひなんしきゃでぃわそこではじめて、えふじーえむがやばんなでんとーであるとしる。	NO_LABEL
1990年代からGAMSの活動を生活の中心とすえ、FGM廃絶活動を行っている。	NO_PRONOUNCE	NO_LABEL
2005年に半世紀を綴った自伝「切除されて」を実名でフランスで出版し、アフリカ系移民も多いフランスでベストセラーとなる。	NO_PRONOUNCE	NO_LABEL
現在は宗教や文化に関係なく女性器切除や強制結婚を廃止する為に、FGM廃絶活動家として精力的に活動している。	げんざいわしゅーきょーやぶんかにかんけいなくじょせいきせつじょやきょーせいけっこんをはいしするために、えふじーえむはいぜつかつどーかとしてせいりょくてきにかつどーしている。	NO_LABEL
2007年5月に邦訳版が日本で発売され、同年6月に来日した。	にせんななねんごがつにほーやくばんがにっぽんではつばいされ、どーねんろくがつにらいにちした。	NO_LABEL
性器切除や性的暴力に関しては「女性への人権損害。	NO_PRONOUNCE	NO_LABEL
文化や宗教の違いではない。	ぶんかやしゅーきょーのちがいでわない。	NO_LABEL
根っこにあるのは女性を信用できない男性の幼児性。	ねっこにあるのわじょせいをしんよーできないだんせいのよーじせい。	NO_LABEL
この世界で起きている女性への暴力の延長線上にある問題である。	このせかいでおきているじょせいえのぼーりょくのえんちょーせんじょーにあるもんだいである。	NO_LABEL
」と発言している。	NO_PRONOUNCE	NO_LABEL
