『あなたが選ぶ思い出の紅白・感動の紅白』は、1999年 - 2008年まで12月29日に生放送されたNHK衛星第2テレビジョンの特別番組。	NO_PRONOUNCE	NO_LABEL
毎年、『紅白歌合戦』を盛り上げるべく前々日に生放送で制作される前哨戦番組。	NO_PRONOUNCE	NO_LABEL
6時間に渡り、ファックスやメールで視聴者から「もう一度見たいシーン」のリクエストを募り、紅白を彩った心に残る歌手たちの名場面を振り返る。	NO_PRONOUNCE	NO_LABEL
アーカイブスに加えて、本番に向けて準備が進むNHKホールからの中継や初出場歌手に意気込みを聞くコーナーもある。	あーかいぶすにくわえて、ほんばんにむけてじゅんびがすすむえぬえいちけいほーるからのちゅーけいやはつしゅつじょーかしゅにいきごみをきくこーなーもある。	NO_LABEL
