ベイカー・ストリート () はロンドンのシティ・オブ・ウェストミンスター内のメリルボーン地区に実在する南北方向の通りである。	べいかーすとりーとかっこわろんどんのしてぃおぶうぇすとみんすたーないのめりるぼーんちくにじつざいするなんぼくほーこーのとーりである。	NO_LABEL
しばしばベイカー街とも訳される。	しばしばべいかーがいともやくされる。	NO_LABEL
街路の名は、18世紀に通りを敷設した建築家のウィリアム・ベイカーに因む。	NO_PRONOUNCE	NO_LABEL
ベイカー街221Bに居住したと設定されている架空の名探偵シャーロック・ホームズと関わりの深い通りとして有名である。	NO_PRONOUNCE	NO_LABEL
元来は高級住宅地だったが、現在は主に商業施設が立ち並ぶ。	がんらいわこーきゅーじゅーたくちだったが、げんざいわおもにしょーぎょーしせつがたちならぶ。	NO_LABEL
NW1/W1の郵便番号が付された地域で、A41幹線道路の一部を成す等、混雑する通りである。	NO_PRONOUNCE	NO_LABEL
リージェンツ・パークの南に位置するパーク・ロードとの交差点を北端として、グロスター・プレイスに並行して、メリルボーン・ロード、ポートマン・スクエア、ウィグモア・ストリートと順に交わる。	NO_PRONOUNCE	NO_LABEL
ウィグモア・ストリートとの交差点を境にベイカー・ストリートはオーチャード・ストリートに切り替わり、オックスフォード・ストリートで終点を迎える。	NO_PRONOUNCE	NO_LABEL
ポートマン・スクエア以後の区間はオーチャード・ストリートとして延びている。	NO_PRONOUNCE	NO_LABEL
オーチャード・ストリートとオックスフォード・ストリートに挟まれた角には、イギリスの高級デパートとして知られるセルフリッジが店舗を構える。	NO_PRONOUNCE	NO_LABEL
地区内には、現存する世界最古の地下鉄駅の一つであるロンドン地下鉄のベイカー・ストリート駅が所在し、当該駅にはロンドン交通局の遺失物取扱所が隣接する。	ちくないにわ、げんそんするせかいさいこのちかてつえきのひとつであるろんどんちかてつのべいかーすとりーとえきがしょざいし、とーがいえきにわろんどんこーつーきょくのいしつぶつとりあつかいじょがりんせつする。	NO_LABEL
1971年、ベイカー街にあるロイズ銀行の支店で重大な強盗事件が発生した。	せんきゅうひゃくななじゅういちねん、べいかーがいにあるろいずぎんこーのしてんでじゅーだいなごーとーじけんがはっせいした。	NO_LABEL
1835年、初めて蝋人形の常設展示を試みたマダム・タッソー館がベイカー街に開館した。	せんはっぴゃくさんじゅうごねん、はじめてろーにんぎょーのじょーせつてんじをこころみたまだむたっそーかんがべいかーがいにかいかんした。	NO_LABEL
この蝋人形の館は1884年に角を曲がってすぐのメリルボーン・ロード沿いに移転した。	NO_PRONOUNCE	NO_LABEL
1940年、特殊作戦執行部 () の本部がベイカー街64へ移転した。	NO_PRONOUNCE	NO_LABEL
SOEはしばしばシャーロック・ホームズの浮浪少年探偵団と同名の"ベイカー・ストリート・イレギュラーズ"と呼ばれた。	NO_PRONOUNCE	NO_LABEL
ビートルズのアップル・ブティックは1967年から1968年にかけて、ベイカー街94を拠点としていた。	NO_PRONOUNCE	NO_LABEL
長年、イギリスの大手小売業者であるマークス&スペンサーの本社がベイカー街55のミカエル・ハウスに入居していたが、2004年にパディントン・ベイスンへ移転した。	NO_PRONOUNCE	NO_LABEL
旧社屋はイギリスで最もよく知られた企業の建物であり、現代的な商業複合ビルとして再開発された。	きゅーしゃおくわいぎりすでもっともよくしられたきぎょーのたてものであり、げんだいてきなしょーぎょーふくごーびるとしてさいかいはつされた。	NO_LABEL
イギリスの女性歌手ダスティ・スプリングフィールドは1960年代にベイカー街に居住経験がある。	いぎりすのじょせいかしゅだすてぃすぷりんぐふぃーるどわせんきゅうひゃくろくじゅうねんだにべいかーがいにきょじゅーけいけんがある。	NO_LABEL
架空の世界では、シャーロック・ホームズを筆頭に、ネズミの名探偵バジル、セクストン・ブレイク、探偵カーランド・クロスがベイカー街に住んだことがある。	NO_PRONOUNCE	NO_LABEL
"ベイカー・ストリート"はジェリー・ラファティによる歌で、1978年にリリースされた。	NO_PRONOUNCE	NO_LABEL
また、1999年には同名のアルバムも発表している。	また、せんきゅうひゃくきゅうじゅうきゅうねんにわどーめいのあるばむもはっぴょーしている。	NO_LABEL
"ベイカー・ストリートの女神"は1975年発表のジェスロ・タルによるアルバム『"』に収録された楽曲である。	NO_PRONOUNCE	NO_LABEL
2002年公開の『名探偵コナン ベイカー街の亡霊』にもベイカー街が物語の舞台として登場する。	NO_PRONOUNCE	NO_LABEL
イギリスのロックバンドローリング・ストーンズの歌『"』ではベイカー街に関する言及がある。	NO_PRONOUNCE	NO_LABEL
アルバム『""』に収録されたマッドネスの楽曲"We Are London"の曲中では、ロンドンでも有数の名所としてベイカー・ストリートの名が登場する。	NO_PRONOUNCE	NO_LABEL
