「The Force」は、KATSUMIの7枚目のシングル。	NO_PRONOUNCE	NO_LABEL
前作から1年振りにリリースされた。	ぜんさくからいちねんふりにりりーすされた。	NO_LABEL
表題曲「The Force」は、現在まで今作に収録されているオリジナル・バージョンでのアルバム収録はされていない。	NO_PRONOUNCE	NO_LABEL
ジャケットは表・裏ともに5thシングル「It's my JAL」の時のものが流用されている。	NO_PRONOUNCE	NO_LABEL
また、初のノンタイアップシングルである。	また、はつののんたいあっぷしんぐるである。	NO_LABEL
