折立は、千葉県白井市の大字。	おりたてわ、ちばけんしろいしのだいじ。	NO_LABEL
郵便番号270-1404。	NO_PRONOUNCE	NO_LABEL
北は中、北東は名内、東は河原子、白井、南は木、七次台、南西は根、西は富塚に隣接している。	きたわなか、ほくとーわなうち、ひがしわかわらご、しらい、みなみわき、ななじだい、なんせいわね、にしわとみずかにりんせつしている。	NO_LABEL
2017年10月31日現在の世帯数と人口は以下の通りである。	にせんじゅうななねんじゅーがつさんじゅういちにちげんざいのせたいすーとじんこーわいかのとーりである。	NO_LABEL
市立小・中学校に通う場合、学区は以下の通りとなる。	しりつしょーちゅーがっこーにかようばあい、がっくわいかのとーりとなる。	NO_LABEL
