マーストリヒト包囲戦はフランス革命戦争中の1793年、フランシスコ・デ・ミランダ率いるフランス革命政府軍による、マーストリヒトを占領するための戦闘。	まーすとりひとほーいせんわふらんすかくめいせんそーちゅーのせんななひゃくきゅうじゅうさんねん、ふらんしすこでみらんだひきいるふらんすかくめいせいふぐんによる、まーすとりひとをせんりょーするためのせんとー。	NO_LABEL
包囲は2月から3月初にかけて行われたが、フランス軍がアルデンホーフェンの戦いで敗れるとマーストリヒトの包囲は解かれた。	ほーいわにがつからさんがつはつにかけておこなわれたが、ふらんすぐんがあるでんほーふぇんのたたかいでやぶれるとまーすとりひとのほーいわとかれた。	NO_LABEL
1789年7月14日のバスティーユ襲撃により、フランス革命がパリで勃発した。	せんななひゃくはちじゅうきゅうねしちがつじゅうよっかのばすてぃーゆしゅーげきにより、ふらんすかくめいがぱりでぼっぱつした。	NO_LABEL
マーストリヒト近くのリエージュでもが8月に勃発しており、オーストリア領ネーデルラント全体でもブラバント革命が勃発した。	まーすとりひとちかくのりえーじゅでもがはちがつにぼっぱつしており、おーすとりありょーねーでるらんとぜんたいでもぶらばんとかくめいがぼっぱつした。	NO_LABEL
フランス革命により、多くの難民がフランスを脱出した。	ふらんすかくめいにより、おーくのなんみんがふらんすをだっしゅつした。	NO_LABEL
その一部がに従軍した。	そのいちぶがにじゅーぐんした。	NO_LABEL
マーストリヒトに移住した者もいたが、その慣習が一般市民とは異なったためマーストリヒトで彼らの姿が見られることは少なかった。	まーすとりひとにいじゅーしたしゃもいたが、そのかんしゅーがいっぱんしみんとわことなったためまーすとりひとでかれらのすがたがみられることわすくなかった。	NO_LABEL
1792年、マーストリヒトにおける王党派と反革命派移民の数が最大になり、聖職者だけでも司祭520人、司教5人がいた。	せんななひゃくきゅうじゅうにねん、まーすとりひとにおけるおーとーはとはんかくめいはいみんのかずがさいだいになり、せいしょくしゃだけでもしさいごひゃくにじゅうにん、しきょーごにんがいた。	NO_LABEL
彼らは主にフランスのノール県から逃亡してきた。	かれらわおもにふらんすののーるけんからとーぼーしてきた。	NO_LABEL
パリを支配したジロンド派は国民の目を内政問題から逸らすために対外戦争をおこした。	ぱりをしはいしたじろんどはわこくみんのめをないせいもんだいからそらすためにたいがいせんそーをおこした。	NO_LABEL
1792年4月20日、国民公会は開戦を議決した。	せんななひゃくきゅうじゅうにねんしがつはつか、こくみんこーかいわかいせんをぎけつした。	NO_LABEL
7月、フランス革命軍はリエージュの革命はとともにオーストリア領ネーデルラントに入り、同11月にはがジュマップの戦いで勝利を飾った。	しちがつ、ふらんすかくめいぐんわりえーじゅのかくめいわとともにおーすとりありょーねーでるらんとにはいり、どーじゅーいちがつにわがじゅまっぷのたたかいでしょーりをかざった。	NO_LABEL
これにより、オーストリア領ネーデルラント、リエージュ司教領、ブラバント公国がフランスに占領された。	これにより、おーすとりありょーねーでるらんと、りえーじゅしきょーりょー、ぶらばんとこーこくがふらんすにせんりょーされた。	NO_LABEL
1792年12月、出身のフランシスコ・デ・ミランダはのルールモントを占領、ルールモント司教はフェンローに逃亡した。	せんななひゃくきゅうじゅうにねんじゅーにがつ、しゅっしんのふらんしすこでみらんだわのるーるもんとをせんりょー、るーるもんとしきょーわふぇんろーにとーぼーした。	NO_LABEL
フェンローはプロイセン王国による要塞化でより長く抵抗することができると考えられたが、が1793年2月12日に陥落、フランス軍はそこからフェンロー市を攻撃した。	ふぇんろーわぷろいせんおーこくによるよーさいかでよりながくていこーすることができるとかんがえられたが、がせんななひゃくきゅうじゅうさんねんにがつじゅうににちにかんらく、ふらんすぐんわそこからふぇんろーしをこーげきした。	NO_LABEL
オーストリア領ネーデルラント侵攻が成功を収めたため、フランスは自信を持ち、1793年2月1日にネーデルラント連邦共和国とグレートブリテン王国に宣戦布告した。	おーすとりありょーねーでるらんとしんこーがせいこーをおさめたため、ふらんすわじしんをもち、せんななひゃくきゅうじゅうさんねんにがつついたちにねーでるらんとれんぽーきょーわこくとぐれーとぶりてんおーこくにせんせんふこくした。	NO_LABEL
オランダへの侵攻は二手に分かれて行われた。	おらんだえのしんこーわにてにわかれておこなわれた。	NO_LABEL
デュムーリエは沿岸部を進んでブレダまで侵攻、ミランダはマース川沿いに進んだ。	でゅむーりえわえんがんぶをすすんでぶれだまでしんこー、みらんだわまーすがわぞいにすすんだ。	NO_LABEL
次の標的はリエージュとオランダの共同統治地であるマーストリヒトだった。	つぎのひょーてきわりえーじゅとおらんだのきょーどーとーちちであるまーすとりひとだった。	NO_LABEL
1793年2月6日、ミランダは軍勢1万5千でマーストリヒトを包囲した。	NO_PRONOUNCE	NO_LABEL
塹壕は21日から掘られ、3日後には10日間の砲撃が始まった。	ざんごーわにじゅういちにちからほられ、みっかごにわとおかのほーげきがはじまった。	NO_LABEL
マーストリヒトの守備は総督のフリードリヒ・フォン・ヘッセン＝カッセル＝ルンペンハイム率いる守備軍、および将軍率いる王党派のフランス貴族の派遣軍が担当した。	まーすとりひとのしゅびわそーとくのふりーどりひふぉんへっせんかっせるるんぺんはいむひきいるしゅびぐん、およびしょーぐんひきいるおーとーはのふらんすきぞくのはけんぐんがたんとーした。	NO_LABEL
オーストリア軍が1793年3月1日のアルデンホーフェンの戦いで勝利した後、オーストリア軍5万とプロイセン軍2万が突如マーストリヒトに現れ、不意を突かれたミランダは3月3日に包囲を解いた。	NO_PRONOUNCE	NO_LABEL
フランス軍は3月18日のネールウィンデンの戦いで再びオーストリア・プロイセン連合軍に敗れ、フランス軍はオーストリア領ネーデルラントから追い出された。	NO_PRONOUNCE	NO_LABEL
2月24日から3月2日にかけての激しい砲撃により、マーストリヒトでは家屋841軒が全壊か半壊し、修道院の一部も破壊された。	NO_PRONOUNCE	NO_LABEL
は北側が砲撃を受け、作の煙突とによるしっくい細工が失われた。	わきたがわがほーげきをうけ、さくのえんとつとによるしっくいざいくがうしなわれた。	NO_LABEL
損害の大半はマーストリヒト北西部に集中していた。	そんがいのたいはんわまーすとりひとほくせいぶにしゅーちゅーしていた。	NO_LABEL
包囲戦は政治的には何ら影響をきたさなかった。	ほーいせんわせいじてきにわなんらえいきょーをきたさなかった。	NO_LABEL
マーストリヒトは神聖ローマ帝国内のリエージュ司教領とネーデルラント連邦共和国の共同統治領のままだった。	まーすとりひとわしんせいろーまていこくないのりえーじゅしきょーりょーとねーでるらんとれんぽーきょーわこくのきょーどーとーちりょーのままだった。	NO_LABEL
しかし、1年半後にジャン＝バティスト・クレベール将軍率いるフランス軍が舞い戻り、再び包囲されたマーストリヒトは6週間耐えた後降伏した。	しかし、いちねんはんごにじゃんばてぃすとくれべーるしょーぐんひきいるふらんすぐんがまいもどり、ふたたびほーいされたまーすとりひとわろっしゅーかんたえたのちこーふくした。	NO_LABEL
マーストリヒトはその後20年間、フランス領となった。	まーすとりひとわそのごにじゅうねんかん、ふらんすりょーとなった。	NO_LABEL
フランシスコ・デ・ミランダはデュムーリエと同じく、1か月後に反革命の疑いで逮捕されたが、釈放された。	ふらんしすこでみらんだわでゅむーりえとどうじく、いっかげつごにはんかくめいのうたがいでたいほされたが、しゃくほーされた。	NO_LABEL
その後、彼はナポレオン戦争とイスパノアメリカ独立戦争で大きな役割を果たし、特にベネズエラでは国民的英雄として称えられた。	そのご、かれわなぽれおんせんそーといすぱのあめりかどくりつせんそーでおーきなやくわりをはたし、とくにべねずえらでわこくみんてきえいゆーとしてとなえられた。	NO_LABEL
フリードリヒ・フォン・ヘッセン＝カッセル＝ルンペンハイムは出版物で「マーストリヒトの救世主」と称賛され、1794年までマーストリヒト総督のままとなった。	NO_PRONOUNCE	NO_LABEL
第二次包囲戦の後、彼はドイツにある家族領に戻った。	だいにじほーいせんののち、かれわどいつにあるかぞくりょーにもどった。	NO_LABEL
