多功 秀朝- 文禄4年）とは戦国時代・安土桃山時代の武将。	NO_PRONOUNCE	NO_LABEL
下野国の大名、宇都宮氏の家臣。	しもつけのくにのだいみょー、うつのみやしのかしん。	NO_LABEL
宇都宮氏庶流の多功氏。	うつのみやししょりゅーのたこーし。	NO_LABEL
父は多功房朝。	ちちわたこーぼーあさ。	NO_LABEL
弟に多功綱継。	おとーとにたこーつなつぎ。	NO_LABEL
父多功房朝の死後、家督を継いだが、秀朝には子がいなく病弱だったため弟の多功綱継が家督を継いだという。	ちちたこーぼーあさのしご、かとくをついだが、ひどてもにわこがいなくびょーじゃくだったためおとーとのたこーつなつぎがかとくをついだという。	NO_LABEL
系図には多功綱賀と書かれているが誤記の可能性が高いと言われている。	けいずにわたこーつながとかかれているがごきのかのーせいがたかいといわれている。	NO_LABEL
