能代 - 秋田線は秋田県能代市と秋田市を結ぶ高速バスである。	NO_PRONOUNCE	NO_LABEL
クローズドドアシステムを採用しているため、能代行きでは秋田市内は乗車のみの取り扱いで同市内での途中降車は不可であり、かつ三種町乃至は能代市内からの乗車は不可となっている。	くろーずどどあしすてむをさいよーしているため、のしろいきでわあきたしないわじょーしゃのみのとりあつかいでどーしないでのとちゅーこーしゃわふかであり、かつみたねちょーないしわのしろしないからのじょーしゃわふかとなっている。	NO_LABEL
秋田行きでの場合も、三種町乃至は能代市内からは乗車のみで、秋田市に入るまでは途中下車できない。	あきたいきでのばあいも、みたねちょーないしわのしろしないからわじょーしゃのみで、あきたしにはいるまでわとちゅーげしゃできない。	NO_LABEL
