エコギャラリー新宿は、東京都新宿区西新宿二丁目の新宿中央公園内にある、新宿区立環境学習情報センターと新宿区立区民ギャラリーの複合施設の名称である。	えこぎゃらりーしんじゅくわ、とーきょーとしんじゅくくにししんじゅくにちょーめのしんじゅくちゅーおーこーえんないにある、しんじゅくくりつかんきょーがくしゅーじょーほーせんたーとしんじゅくくりつくみんぎゃらりーのふくごーしせつのめいしょーである。	NO_LABEL
〒160-0023 東京都新宿区西新宿2-11-4	NO_PRONOUNCE	NO_LABEL
西新宿の中央公園内に位置する施設で、特定非営利活動法人新宿環境活動ネットが指定管理者として、2004年4月1日より管理運営を行っている。	にししんじゅくのちゅーおーこーえんないにいちするしせつで、とくていひえいりかつどーほーじんしんじゅくかんきょーかつどーねっとがしていかんりしゃとして、にせんよねんしがつついたちよりかんりうんえいをおこなっている。	NO_LABEL
多くの地域団体や事業者、行政、学校等と連携しながら、市民参画型の「協働」による公共施設運営にチャレンジしており、様々な取り組みが行われている。	NO_PRONOUNCE	NO_LABEL
2階の環境学習情報センターでは、「新宿区の環境」を改善し、住みやすい街作りをしていくための活動が行われている。	NO_PRONOUNCE	NO_LABEL
環境について楽しみながら学ぶことができるイベントや講座を多数開催しているほか、学校の授業づくり、社員研修相談、区民の環境活動など、環境活動に関する相談に応じており、新宿区の環境学習、環境活動の拠点となっている。	かんきょーについてたのしみながらまなぶことができるいべんとやこーざをたすーかいさいしているほか、がっこーのじゅぎょーずくり、しゃいんけんしゅーそーだん、くみんのかんきょーかつどーなど、かんきょーかつどーにかんするそーだんにおーじており、しんじゅくくのかんきょーがくしゅー、かんきょーかつどーのきょてんとなっている。	NO_LABEL
具体的な活動方針であるが、「地域」「区民」「事業者・企業」「子ども」「次世代への人材育成」をテーマに、多くのイベントや講座が組まれている。	NO_PRONOUNCE	NO_LABEL
主なイベントとしては、エコワングランプリやみどりのカーテンプロジェクト、新宿版環境日記、エコツアー、エコリーダー養成講座、企業向けセミナーなどが挙げられる。	おもないべんととしてわ、えこわんぐらんぷりやみどりのかーてんぷろじぇくと、しんじゅくばんかんきょーにっき、えこつあー、えこりーだーよーせいこーざ、きぎょーむけせみなーなどがあげられる。	NO_LABEL
また、まちの先生見本市やエコライフまつりなどの地域連携事業も行っている。	また、まちのせんせいみほんいちやえこらいふまつりなどのちいきれんけいじぎょーもおこなっている。	NO_LABEL
また、環境啓発のためのユニークなキャラクターも考案されており、その代表としてエコ王子と新宿エコレンジャーが挙げられる。	また、かんきょーけいはつのためのゆにーくなきゃらくたーもこーあんされており、そのだいひょーとしてえこおーじとしんじゅくえこれんじゃーがあげられる。	NO_LABEL
エコ王子は新宿環境学習センターのインターン生の考案から生まれたキャラクターで、環境日記やポスターなど、様々な媒体に登場している。	えこおーじわしんじゅくかんきょーがくしゅーせんたーのいんたーんせいのこーあんからうまれたきゃらくたーで、かんきょーにっきやぽすたーなど、さまざまなばいたいにとーじょーしている。	NO_LABEL
新宿エコレンジャーは、子供たちへの環境活動への興味を促すために考案されたキャラクターで、「省エネルギー」「水と空気」「リデュース・リユース・リサイクル」「みどりや自然環境」「環境測定・パトロール」の5つの環境分野をテーマにしている。	NO_PRONOUNCE	NO_LABEL
