金 明仁は、大韓民国の詩人。	きむあきひとわ、だいかんみんこくのしじん。	NO_LABEL
慶尚北道出身。	けいしょーほくどーしゅっしん。	NO_LABEL
慶尚北道蔚珍で生まれる。	けいしょーほくどーうるじんでうまれる	NO_LABEL
高麗大学校国文学科を卒業し、同大学で文学博士の学位を取得した。	こりょだいがっこーこくぶんがくかをそつぎょーし、どーだいがくでぶんがくはかせのがくいをしゅとくした。	NO_LABEL
京畿大学校の国文科教授を経て、現在は高麗大学校文芸創作課教授として在職中である。	けいきだいがっこーのこくぶんかきょーじゅをへて、げんざいわこりょだいがっこーぶんげいそーさくかきょーじゅとしてざいしょくちゅーである。	NO_LABEL
詩人は、1973年に中央日報の「新春文芸」で『』が入選し文壇にデビューする。	NO_PRONOUNCE	NO_LABEL
その後「1973」同人を経て、金昌完、李東洵、鄭浩承などと共に「反詩」の同人活動を行いながら、活発に作品を発表してきた。	NO_PRONOUNCE	NO_LABEL
