『ガールズ&パンツァー 劇場版』は、アクタス制作による日本のアニメーション映画。	NO_PRONOUNCE	NO_LABEL
2015年11月21日にショウゲートの配給により公開された。	にせんじゅうごねんじゅーいちがつにじゅういちにちにしょうげーとのはいきゅーによりこーかいされた。	NO_LABEL
上映時間は119分。	じょーえいじかんわひゃくじゅうきゅうふん。	NO_LABEL
戦車戦の全国大会で優勝を目指す女子高生たちの奮闘を描いたテレビアニメ『ガールズ&パンツァー』の完全新作映画で、テレビアニメ最終話の続きとなる全国大会の後日談を描いている。	NO_PRONOUNCE	NO_LABEL
キャッチコピーは「取り戻せ―」「大洗女子学園、決断の時― 新たなが始まる！」。	NO_PRONOUNCE	NO_LABEL
大会で優勝し、廃校を免れ平穏な日常が戻ってきた大洗女子学園。	たいかいでゆーしょーし、はいこーをまぬかれへいおんなにちじょーがもどってきたおーあらいじょしがくえん。	NO_LABEL
 大洗町では優勝を記念したエキシビションマッチが開催され、大洗女子学園と知波単学園の混成チームと聖グロリアーナ女学院とプラウダ高校の混成チームによる試合が行われていた。	おーあらいまちでわゆーしょーをきねんしたえきしびしょんまっちがかいさいされ、おーあらいじょがくえんとちはたんがくえんのこんせいちーむとせんとぐろりあーなじょがくいんとぷらうだこうこーのこんせいちーむによるしあいがおこなわれていた。	NO_LABEL
試合を終えて、参加者たちは親交を深めていた。	しあいをおえて、さんかしゃたちわしんこーをふかめていた。	NO_LABEL
そんな時、生徒会長の杏が「急用」で学園艦に呼び戻される。	NO_PRONOUNCE	NO_LABEL
そのことをいぶかしく思いつつも大洗女子学園の面々は学園艦へ戻るが、彼女たちが目にしたものは立ち入り禁止の札が貼られた学園の門であった。	そのことをいぶかしくおもいつつもおーあらいじょしがくえんのめんめんわがくえんかんえもどるが、かのじょたちがめにしたものわたちーりきんしのさつがはられたがくえんのもんであった。	NO_LABEL
彼女たちは文部科学省の学園艦教育局担当官から、「優勝すれば廃校を免れる」というのは可能性でかつ口約束であり、検討はしたものの廃校の撤回はできなかったという事実を告げられる。	NO_PRONOUNCE	NO_LABEL
戦車道チームのメンバーたちはこのことに対して抗議の声を上げようとするが、周囲に迷惑をかけられないという杏の言葉に諭され、学園艦からの退去を泣く泣く承諾する。	せんしゃどーちーむのめんばーたちわこのことにたいしてこーぎのこえをあげようとするが、しゅーいにめいわくをかけられないとゆうあんずのことばにさとされ、がくえんかんからのたいきょをなくなくしょーだくする。	NO_LABEL
生徒たちは転校先が決まるまで分散して生活を送ることになるが、戦車道履修者に限り、共同生活を送ることとなる。	せいとたちわてんこーさきがきまるまでぶんさんしてせいかつをおくることになるが、せんしゃどーりしゅーしゃにかぎり、きょーどーせいかつをおくることとなる。	NO_LABEL
そんな中、杏は密かに文部科学省の担当者と交渉していた。	そんななか、あんずわひそかにもんぶかがくしょーのたんとーしゃとこーしょーしていた。	NO_LABEL
そして日本戦車道連盟や、みほの母であり西住流戦車道家元・しほの後ろ盾を得て、天才少女と呼ばれる島田流戦車道家元の娘・島田愛里寿率いる大学選抜チームに勝利すれば、今度こそ廃校を撤回するという確約を得る。	NO_PRONOUNCE	NO_LABEL
しかし試合内容は参加可能台数の上限が30輌と設定され、勝敗もフラッグ戦ではなく殲滅戦とされる。	NO_PRONOUNCE	NO_LABEL
それは戦車が8輌しかない大洗女子チームにとって厳しすぎる条件であった。	NO_PRONOUNCE	NO_LABEL
試合前夜、それぞれで明日の試合に備える大洗女子学園戦車道チーム。	しあいぜんや、それぞれであしたのしあいにそなえるおーあらいじょしがくえんせんしゃどーちーむ。	NO_LABEL
同じ頃、聖グロリアーナ女学院のダージリンがモールス信号で「お茶会」の開催を各校へ発信していた。	NO_PRONOUNCE	NO_LABEL
夜が明け、試合が始まろうとしたその時、黒森峰女学園の西住まほと逸見エリカが保有戦車ごと大洗女子学園に『転校』してくる。	NO_PRONOUNCE	NO_LABEL
さらにサンダース大付属高校、聖グロリアーナ女学院、プラウダ高校、アンツィオ高校といったかつての対戦相手に加えて知波単学園や継続高校も続々と『転校』し、チームに合流。	NO_PRONOUNCE	NO_LABEL
強力な援軍を得たみほたち大洗女子学園戦車道チームは、自分たちの学園を取り戻すべく大学選抜チームに挑む。	きょーりょくなえんぐんをえたみほたちおーあらいじょしがくえんせんしゃどーちーむわ、じぶんたちのがくえんをとりもどすべくだいがくせんばつちーむにいどむ。	NO_LABEL
本作は、音響にこだわりを持った上映を行っている上映館が非常に多いことが特徴である。	もとさくわ、おんきょーにこだわりをもったじょーえいをおこなっているじょーえいかんがひじょーにおーいことがとくちょーである。	NO_LABEL
きっかけは、独自の音響システムおよび高性能サブウーファーを導入している東京都立川市の立川シネマシティにおける上映である。	きっかけわ、どくじのおんきょーしすてむおよびこーせいのーさぶうーふぁーをどーにゅーしているとーきょーとたちかわしのたちかわしねましてぃにおけるじょーえいである。	NO_LABEL
ここはもともと｢極上音響上映｣｢極上爆音上映｣といった音にこだわる上映を行うことで有名だが、本作を｢極上爆音上映｣で上映したいという劇場側の申し出に対し、劇場版の音響チームが現地に赴き音響調節を行った。	NO_PRONOUNCE	NO_LABEL
音響監督の岩浪美和が「センシャラウンドファイナル」と名付けた｢極上爆音上映｣は来場者やファンの間で大きな話題となり、一時は平日上映でも座席の確保が困難になるほどの活況を呈し、立川シネマシティはファンの間で｢劇場版の聖地」と呼ばれるまでになる。	NO_PRONOUNCE	NO_LABEL
また、マサラ上映で知られる兵庫県尼崎市の塚口サンサン劇場では、マサラ上映などのイベント上映の他に大口径サブウーファーを使用し、岩浪が調整を行った「重低音轟撃上映」を実施。	NO_PRONOUNCE	NO_LABEL
岩浪たち音響チームは、他にも日本初のTHX認定スクリーンのイオンシネマ海老名7番スクリーンや日本最先端のULTIRAドルビーアトモス9.1チャンネル対応のイオンシネマ幕張新都心、日本で唯一のimm SOUND対応シアターを持つシネマサンシャイン平和島、シネプレックス水戸やシネマサンシャイン平和島の4DX対応スクリーンなど、数多くの劇場に足を運んで調整を実施している。	NO_PRONOUNCE	NO_LABEL
本作はもともと派手な砲撃音や爆発音など、映画館での上映と非常に親和性の高い音源を持つ作品であるが、自宅では再現することが困難な大音響を映画館で体感したり、映画館ごとに異なる特色ある音響を聴き比べるためにファンが映画館に何度も足を運んだことが本作ヒットの要因の一つになったのではないかという分析もある。	もとさくわもともとはでなほーげきおんやばくはつおんなど、えいがかんでのじょーえいとひじょーにしんわせいのこういおんげんをもつさくひんであるが、じたくでわさいげんすることがこんなんなだいおんきょーをえいがかんでたいかんしたり、えいがかんごとにことなるとくしょくあるおんきょーをききくらべるためにふぁんがえいがかんになんどもあしをはこんだことがもとさくひっとのよーいんのひとつになったのでわないかとゆうぶんせきもある。	NO_LABEL
2015年11月21日にショウゲートの配給により全国77館で封切され、小規模上映ながら2015年11月21日・22日の土日2日間で観客動員数8万4752人、興行収入1億2,843万8,980円となり、封切週の映画観客動員ランキングで第2位、興行収入ランキングで第1位を獲得した。	NO_PRONOUNCE	NO_LABEL
また、ぴあの調査による初日満足度ランキングでは満足度92.9点を獲得して第1位となっている。	NO_PRONOUNCE	NO_LABEL
上記のとおり、小規模ロードショーのアニメ映画作品としては興行収入・観客動員ともに比較的順調に推移していたが、口コミやtwitterで作品の評判が広まり、また何度も映画館に足を運ぶリピーターが続出。	NO_PRONOUNCE	NO_LABEL
2016年2月には当初予定されていなかった4DXでの上映も開始され、それに伴って公開する映画館・興行収入・観客動員も伸びていき、3月9日には興行収入15億円、累計観客動員数100万人を突破。	NO_PRONOUNCE	NO_LABEL
封切27週目となる5月21日からは劇場版のBlu-ray/DVD発売を記念して、来場者特典を伴う153館という異例の大規模再上映を実施し、この週の動員ランキングで再びベスト10圏内となる9位にランクインしている。	NO_PRONOUNCE	NO_LABEL
映像ソフト発売後も一部の映画館では新規上映や再上映が続き、中には立川シネマシティのように封切初日から1年以上経過した2016年11月25日までの370日という長期間にわたって上映を行った映画館も存在するロングラン作品となった。	えいぞーそふとはつばいごもいちぶのえいがかんでわしんきじょーえいやさいじょーえいがつずき、なかにわたちかわしねましてぃのよーにふーきりしょにちからいちねんいじょーけいかしたにせんじゅうろくねんじゅーいちがつにじゅうごにちまでのさんびゃくななじゅうにちとゆうちょーきかんにわたってじょーえいをおこなったえいがかんもそんざいするろんぐらんさくひんとなった。	NO_LABEL
立川シネマシティの上映終了に伴い、2016年11月に確定した最終興行収入は24億4084万9294円、最終観客動員数は142万1237人となった。	NO_PRONOUNCE	NO_LABEL
興業収入は深夜アニメを発祥とする劇場版アニメ作品としては、『ラブライブ!The School Idol Movie』に次ぐ歴代第2位である。	NO_PRONOUNCE	NO_LABEL
なお、立川シネマシティでは終了の2日後にはリバイバルとして断続的に上映を行うことを発表し、12月2日より上映を再開。	なお、たちかわしねましてぃでわしゅーりょーのふつかごにわりばいばるとしてだんぞくてきにじょーえいをおこなうことをはっぴょーし、じゅーにがつふつかよりじょーえいをさいかい。	NO_LABEL
イオンシネマ幕張新都心やイオンシネマ名古屋茶屋など、その他の映画館でもリバイバル上映が断続的に行われている。	いおんしねままくはりしんとしんやいおんしねまなごやちゃやなど、そのたのえいがかんでもりばいばるじょーえいがだんぞくてきにおこなわれている。	NO_LABEL
2017年8月14日のガールズ＆パンツァー公式ブログでは、同13日に興行収入が25億円を突破したことが報告された。	にせんじゅうななねんはちがつじゅうよっかのがーるずあんどぱんつぁーこーしきぶろぐでわ、どーじゅうさんにちにこーぎょーしゅうにゅーがにじゅうごおくえんをとっぱしたことがほーこくされた。	NO_LABEL
2016年5月27日に発売されたBlu-ray Discは、6月6日付のオリコン週間BD総合ランキングで1位を獲得し、邦画アニメのBDでは歴代4位となる16.2万枚の初週売上を記録した。	NO_PRONOUNCE	NO_LABEL
同年5月25日、第25回日本映画批評家大賞のアニメ部門にて本作がサンクチュアリ作品賞、主演の渕上舞が新人声優賞を受賞した。	どーねんごがつにじゅうごにち、だいにじゅうごかいにほんえいがひひょーかたいしょーのあにめぶもんにてもとさくがさんくちゅありさくひんしょー、しゅえんのふちがみまいがしんじんせいゆーしょーをじゅしょーした。	NO_LABEL
同年6月27日、第23回茨城新聞広告賞にて劇場公開直前の2015年11月15日に掲載した記事が優秀企画賞を授賞。	どーねんろくがつにじゅうしちにち、だいにじゅうさんかいいばらきしんぶんこーこくしょーにてげきじょーこーかいちょくぜんのにせんじゅうごねんじゅーいちがつじゅうごにちにけいさいしたきじがゆーしゅーきかくしょーをじゅしょー。	NO_LABEL
同年7月9日、第47回星雲賞 メディア部門を授賞。	どーねんしちがつここのか、だいよんじゅうななかいせいうんしょーめでぃあぶもんをじゅしょー。	NO_LABEL
同年12月1日、ゴールデングロス賞全興連特別賞を受賞。	どーねんじゅーにがつついたち、ごーるでんぐろすしょーぜんきょーれんとくべつしょーをじゅしょー。	NO_LABEL
本作品の感想｢ガルパンはいいぞ｣がネット上にて大流行し、2016年度アニメ流行語大賞銀賞を受賞した。	NO_PRONOUNCE	NO_LABEL
1時間59分の映画を約2時間枠にてCM込みで放送ということもあり、入浴シーンなど一部のシーンがカットされていた。	いちじかんごじゅうきゅうふんのえいがをやくにじかんわくにてこんぴゅーたみゅーじっくまがじんこみでほーそーとゆうこともあり、にゅーよくしーんなどいちぶのしーんがかっとされていた。	NO_LABEL
劇場版アニメを盛り上げるために、2015年1月30日から音泉、ランティスウェブラジオ、アニメイトTVにて隔週金曜日に配信された。	げきじょーばんあにめをもりあげるために、にせんじゅうごねんいちがつさんじゅうにちからおといずみ、らんてぃすうぇぶらじお、あにめいとてぃーぶいにてかくしゅーきんよーびにはいしんされた。	NO_LABEL
同年7月4日から毎週土曜日に配信更新日が変更され、茨城放送でも毎週土曜日21時30分にて放送開始された。	どーねんしちがつよっかからまいしゅーどよーびにはいしんこーしんびがへんこーされ、いばらきほうそーでもまいしゅーどよーびにじゅういちじさんじゅっぷんにてほーそーかいしされた。	NO_LABEL
2015年12月26日にアニメイトTVと茨城放送で配信と放送が終了した。	にせんじゅうごねんじゅーにがつにじゅうろくにちにあにめいとてぃーぶいといばらきほうそーではいしんとほーそーがしゅーりょーした。	NO_LABEL
2016年1月8日から隔週金曜日に配信更新日が変更、同年5月6日からは毎週金曜日に配信更新日が変更された。	にせんじゅうろくねんいちがつようかからかくしゅーきんよーびにはいしんこーしんびがへんこー、どーねんごがつむいかからわまいしゅーきんよーびにはいしんこーしんびがへんこーされた。	NO_LABEL
2016年5月27日に音泉とランティスウェブラジオにて最終回を迎えた。	にせんじゅうろくねんごがつにじゅうしちにちにおといずみとらんてぃすうぇぶらじおにてさいしゅーかいをむかえた。	NO_LABEL
全50回。	ぜんごじゅっかい。	NO_LABEL
2017年1月27日に音泉にてSP回として復活配信された。	にせんじゅうななねんいちがつにじゅうしちにちにおんせんにてえすぴーかいとしてふっかつはいしんされた。	NO_LABEL
パーソナリティは、竹内仁美・中里望・多田このみ・山岡ゆり・秋奈の5名の「ウサギさんチーム選抜部隊」が全員、もしくは数名で入れ替わりながら担当する。	NO_PRONOUNCE	NO_LABEL
コーナー出演は小松未可子。	こーなーしゅつえんわこまつみかこ。	NO_LABEL
劇場版アニメを盛り上げるために、2017年4月28日から2018年2月23日まで音泉にて隔週金曜日に配信された。	げきじょーばんあにめをもりあげるために、にせんじゅうななねんしがつにじゅうはちにちからにせんじゅうはちねんにがつにじゅうさんにちまでおんせんにてかくしゅーきんよーびにはいしんされた。	NO_LABEL
パーソナリティは、竹内仁美・中里望・多田このみ・山岡ゆり・秋奈の5名の「ウサギさんチーム選抜部隊」が全員、もしくは数名で入れ替わりながら担当する。	NO_PRONOUNCE	NO_LABEL
コーナー出演は小松未可子。	こーなーしゅつえんわこまつみかこ。	NO_LABEL
『劇場版 蒼き鋼のアルペジオ -アルス・ノヴァ- Cadenza』と本作の劇場版の公開が前後し、両作品に渕上舞が出演していることからコラボレーションが実現した。	NO_PRONOUNCE	NO_LABEL
2015年の東京ゲームショウでは『World of Tanks』や『World of Warships』で両作品とのコラボレーションが実施され、みほと『蒼き鋼のアルペジオ』に登場するイオナの衣装を交換したイラストも描かれている。	NO_PRONOUNCE	NO_LABEL
劇場版本編BD・DVDは2016年5月にバンダイビジュアルより発売されている。	NO_PRONOUNCE	NO_LABEL
2017年12月に発売予定。	にせんじゅうななねんじゅーにがつにはつばいよてい。	NO_LABEL
2017年7月9日、パシフィコ横浜国立大ホールにて開催された、劇場版をオーケストラによる劇伴音楽の生演奏に差し替えて上映したイベントをBDとCDでダブルリリース。	にせんじゅうななねんしちがつここのか、ぱしふぃこよこはまこくりつだいほーるにてかいさいされた、げきじょーばんをおーけすとらによるげきはんおんがくのなまえんそーにさしかえてじょーえいしたいべんとをびーでぃーときゃっしゅでぃすぺんさーでだぶるりりーす。	NO_LABEL
BDは演奏と上映の模様ほか、特典映像などを別途に収録。	びーでぃーわえんそーとじょーえいのもよーほか、とくてんえいぞーなどをべっとにしゅーろく。	NO_LABEL
伊能高史による劇場版のコミカライズ『ガールズ＆パンツァー 劇場版 Variante』が、『コミックフラッパー』にて2016年9月号より連載されている。	NO_PRONOUNCE	NO_LABEL
物語は本編基準だが、各ストーリーにおいて他の大洗メンバーや各校のキャラクターなどの描写が多いのが特徴的。	ものがたりわほんぺんきじゅんだが、かくすとーりーにおいてたのおーあらいめんばーやかくこーのきゃらくたーなどのびょーしゃがおーいのがとくちょーてき。	NO_LABEL
