佐倉市立美術館は、千葉県佐倉市新町にある同市立美術館。	さくらしりつびじゅつかんわ、ちばけんさくらししんまちにあるどーしりつびじゅつかん。	NO_LABEL
地元では「さくらいちりつ びじゅつかん」と呼ばれることも多い。	NO_PRONOUNCE	NO_LABEL
旧城下町の中心部に位置する。	きゅーじょーかまちのちゅーしんぶにいちする。	NO_LABEL
1994年11月、開館。	せんきゅうひゃくきゅうじゅうよねんじゅーいちがつ、かいかん。	NO_LABEL
主な収蔵作家として、浅井忠、都鳥英喜、荒谷直之介、香取秀真、津田信夫、堀柳女など佐倉市と房総ゆかりの作家を中心に収蔵している。	おもなしゅーぞーさっかとして、あさいちゅー、みやこどりひでき、あらたになおのすけ、かとりほつま、つだしのぶ、ほりやなぎおんななどさくらしとぼーそーゆかりのさっかをちゅーしんにしゅーぞーしている。	NO_LABEL
地下2階・地上4階建ての美術館である。	NO_PRONOUNCE	NO_LABEL
正面のエントランス部分は、1918年に「旧川崎銀行佐倉支店」として建設され現在に至る。	NO_PRONOUNCE	NO_LABEL
設計者は矢部又吉 、施工者は神谷平吉 。	せっけいしゃわやべまたきち、しこーしゃわかみやへいきち。	NO_LABEL
千葉県指定文化財でもある。	ちばけんしていぶんかざいでもある。	NO_LABEL
