エッセンス	えっせんす	NO_LABEL
香料やエキス、精油などには水に溶解しにくいものがある。	こーりょーやえきす、せいゆなどにわみずによーかいしにくいものがある。	NO_LABEL
そこでこれらをエタノールやグリセリンなどに溶解させ、	そこでこれらをえたのーるやぐりせりんなどによーかいさせ、	NO_LABEL
水に容易に溶解するようにして使いやすいようにしたものが"エッセンス"である。	NO_PRONOUNCE	NO_LABEL
主に料理の香り付けに使われる。	おもにりょーりのかおりずけにつかわれる。	NO_LABEL
特に有名なのが"バニラエッセンス"である。	NO_PRONOUNCE	NO_LABEL
いろいろなフルーツやハーブを漬け込んだリキュールも料理の香り付けに使う場合には"エッセンス"の一種といえる。	NO_PRONOUNCE	NO_LABEL
