Jは、日本のミュージシャン。	NO_PRONOUNCE	NO_LABEL
本名：小野瀬 潤。	NO_PRONOUNCE	NO_LABEL
身長180cm。	しんちょーひゃくはちじゅうせんちめーとる。	NO_LABEL
血液型はAB型。	けつえきがたわえーびーがた。	NO_LABEL
神奈川県立大秦野高等学校卒業。	かながわけんりつおおはたのこうとうがっこーそつぎょー。	NO_LABEL
LUNA SEAのベーシストにしてロックミュージシャン。	るなしーのべーしすとにしてろっくみゅーじしゃん。	NO_LABEL
既婚。	きこん。	NO_LABEL
LUNA SEA初期	るなしーしょき	NO_LABEL
LUNA SEA中期	るなしーちゅーき	NO_LABEL
LUNA SEA活動休止時	るなしーかつどーきゅーしとき	NO_LABEL
LUNA SEA後期	るなしーこーき	NO_LABEL
LUNA SEA終幕以降	るなしーしゅーまくいこー	NO_LABEL
※どれも、ボディの裏側には太股の位置にバックカットが施される。	NO_PRONOUNCE	NO_LABEL
また「WAKE UP! MOTHER FUCKER」という文言を、PYRO BABYまではボディ前面にJ本人が手書きしていたが、J-MF-1ではネック裏面にプリントされている。	NO_PRONOUNCE	NO_LABEL
しかしJ-TVB-Vでは-glitter-までその文言が存在せず、J-TVB-V -Blond-においてJ-MF-1以来となるネック裏面へのプリントで復活している。	NO_PRONOUNCE	NO_LABEL
なお上記のリストは基本的にライブ用の機材であり、レコーディングではヴィンテージのFender Jazz BassやSadowsky NYC、SPECTOR NS-2など多様なベースが使われる。	NO_PRONOUNCE	NO_LABEL
