土居 裕子は、日本の女優、歌手、声優。	どいゆーこわ、にっぽんのじょゆー、かしゅ、せいゆー。	NO_LABEL
愛媛県宇和島市出身。	えひめけんうわじまししゅっしん。	NO_LABEL
東京藝術大学音楽学部声楽科卒業。	とーきょーげいじゅつだいがくおんがくがくぶせいがくかそつぎょー。	NO_LABEL
プランニング・クレア所属。	ぷらんにんぐくれあしょぞく。	NO_LABEL
身長158cm。	しんちょーひゃくごじゅうはちせんちめーとる。	NO_LABEL
血液型B型。	けつえきがたびーがた。	NO_LABEL
夫はフジテレビプロデューサーの和田行。	おっとわふじてれびぷろでゅーさーのわだこー。	NO_LABEL
3人姉妹の三女として愛媛県宇和島市に生まれる。	さんにんしまいのさんじょとしてえひめけんうわじましにうまれる。	NO_LABEL
海運会社に勤めていた父の転勤により、約13年間を大分県別府市で過ごし、中学2年のとき再び宇和島市へ戻る。	かいうんがいしゃにつとめていたちちのてんきんにより、やくじゅうさんねんかんをおーいたけんべっぷしですごし、ちゅーがくにねんのときふたたびうわじましえもどる。	NO_LABEL
1974年、宇和島市立城南中学校を卒業。	せんきゅうひゃくななじゅうよねん、うわじましりつじょうなんちゅうがっこーをそつぎょー。	NO_LABEL
その後、大学受験に向けて同校の音楽教師であった神崎克彦に師事。	そのご、だいがくじゅけんにむけてどーこーのおんがくきょーしであったかんざきかつひこにしじ。	NO_LABEL
1977年、愛媛県立宇和島東高等学校を卒業し一旦は音大へ進んだものの、その翌年東京藝術大学に合格。	せんきゅうひゃくななじゅうななねん、えひめけんりつうわじまひがしこーをそつぎょーしいったんわおんだいえすすんだものの、そのよくねんとーきょーげいじゅつだいがくにごーかく。	NO_LABEL
1982年、東京藝術大学音楽学部声楽科を卒業。	せんきゅうひゃくはちじゅうにねん、とーきょーげいじゅつだいがくおんがくがくぶせいがくかをそつぎょー。	NO_LABEL
劇団四季研究所へ20期生として入所し、10か月間在籍した後、1983年退所。	げきだんしきけんきゅーじょえにじゅっきせいとしてにゅーしょし、じゅっかげつかんざいせきしたのち、せんきゅうひゃくはちじゅうさんねんしさところ。	NO_LABEL
この頃、NHK教育テレビ『おかあさんといっしょ』のうたのおねえさんのオーディションに合格していたものの、事情によりこれを務めることができなくなってしまい、その際、同番組の構成台本を担当していた横山由和より「いつかいっしょにミュージカルやろうよ！」と誘いを受ける。	NO_PRONOUNCE	NO_LABEL
その後、NHKでアルバイト中にスカウトされ、1984年、NHK教育テレビの幼児向け番組『なかよしリズム』に出演。	NO_PRONOUNCE	NO_LABEL
1988年の番組終了までの4年間、歌のお姉さん「Uちゃん」役を務めた。	NO_PRONOUNCE	NO_LABEL
同番組の終了が迫った頃、NHKの食堂にて横山由和より改めて誘いを受け、1988年、ミュージカル劇団「音楽座」へ入団。	NO_PRONOUNCE	NO_LABEL
1996年の劇団解散まで8年間在籍した。	せんきゅうひゃくきゅうじゅうろくねんのげきだんかいさんまではちねんかんざいせきした。	NO_LABEL
2009年4月より昭和音楽大学音楽学部音楽芸術運営学科ミュージカルコースの講師に就任。	にせんきゅうねんしがつよりしょーわおんがくだいがくおんがくがくぶおんがくげいじゅつうんえいがっかみゅーじかるこーすのこーしにしゅーにん。	NO_LABEL
科目はヴォーカルを担当している。	NO_PRONOUNCE	NO_LABEL
現在は上記の他、舞台を中心にTV、吹き替え、コンサート活動など、幅広く活躍している。	げんざいわじょーきのほか、ぶたいをちゅーしんにてぃーぶい、ふきかえ、こんさーとかつどーなど、はばひろくかつやくしている。	NO_LABEL
※上記の他、小規模な、あるいは地方での、コンサート、ライブ、イベントなどに多数出演。	NO_PRONOUNCE	NO_LABEL
※上記の他、情報番組、ニュース番組、舞台関係番組、バラエティ番組などに多数出演。	NO_PRONOUNCE	NO_LABEL
※上記の他、情報番組、バラエティ番組などに多数出演。	NO_PRONOUNCE	NO_LABEL
※上記の他、童謡、抒情歌、舞台などに関連する多数の作品に参加。	NO_PRONOUNCE	NO_LABEL
