アルジェリア独立住民投票は、フランスからのアルジェリアの独立を正式に決定した住民投票.。	NO_PRONOUNCE	NO_LABEL
1962年7月1日にアルジェリアで実施された。	せんきゅうひゃくろくじゅうにねんしちがつついたちにあるじぇりあでじっしされた。	NO_LABEL
アルジェリア戦争の終結への筋道をつけた1962年3月19日のエビアン協定に基づき、協定から3か月後から6か月後までの期間内に実施することとされていた。	あるじぇりあせんそーのしゅーけつえのすじみちをつけたせんきゅうひゃくろくじゅうにねんさんがつじゅうきゅうにちのえびあんきょーていにもとずき、きょーていからさんかげつごからろっかげつごまでのきかんないにじっしすることとされていた。	NO_LABEL
有権者は、エビアン協定によって定められていた。	ゆーけんしゃわ、えびあんきょーていによってさだめられていた。	NO_LABEL
有権者に含まれていたのは、アルジェリアに住んでいる市民、アルジェリアの選挙人名簿に登録されている、地域外居住者、アルジェリア生まれで、フランス・メトロポリテーヌないしは海外県・海外領土に居住する者、であり、その一方で、フランス軍のアルジェリア派遣部隊の兵員は有権者から除外された。	NO_PRONOUNCE	NO_LABEL
有権者たちは、「あなたは、1962年3月19日の協定に定められた条件で、フランスとの協力の上で、アルジェリアが独立国家になることを望みますか?」という質問について、賛否を問われた。	NO_PRONOUNCE	NO_LABEL
投票の結果、賛成票投票は全体の99.72%を占めた。	NO_PRONOUNCE	NO_LABEL
フランス共和国大統領シャルル・ド・ゴールは、7月3日に、アルジェリアの独立の承認を発表し、アルジェリアでは、かつて1830年にフセイン・デイが降伏した日付に合わせて、1962年7月5日に独立が宣言された。	NO_PRONOUNCE	NO_LABEL
結果は以下の通りであった。	けっかわいかのとーりであった。	NO_LABEL
