『』は、1970年にリリースされたザ・バーズの9作目のスタジオ・アルバム。	NO_PRONOUNCE	NO_LABEL
1969年9月、解雇されたジョン・ヨークに代わり、がベーシストとして加入。	せんきゅうひゃくろくじゅうきゅうねんくがつ、かいこされたじょんよーくにかわり、がべーしすととしてかにゅー。	NO_LABEL
バッティンは1934年生まれの当時35歳で、メンバーの中で最年長で活動歴も長く、バーズ加入以前からボーカリスト、ソングライター、フリーランスのスタジオ・ミュージシャンとして活動していた。	ばってぃんわせんきゅうひゃくさんじゅうよんねんうまれのとーじさんじゅうごさいで、めんばーのなかでさいねんちょーでかつどーれきもながく、ばーずかにゅーいぜんからぼーかりすと、そんぐらいたー、ふりーらんすのすたじおみゅーじしゃんとしてかつどーしていた。	NO_LABEL
1956年頃から、後にを主宰するとデュオ“”の名前で録音し、1959年と1960年には「」や「」などいくつかのヒットを出した。	NO_PRONOUNCE	NO_LABEL
デュオ解散後、バッティンはロサンゼルスへ移り、そこでフリーのセッション・ミュージシャンとして活動し1967年、ハリウッドをベースにしたサイケデリック・ブルース・バンド“エヴァーグリーン・ブルーシューズ”を結成。	NO_PRONOUNCE	NO_LABEL
1969年にリリースされた唯一のアルバム『The Ballad of Evergreen Blueshoes』ではバッティンがリード・ボーカルを担当し、すでに強力な個性が十分に示されていた。	NO_PRONOUNCE	NO_LABEL
グループ解散後、バッティンは再びセッション・ミュージシャンに戻り、その期間にと会った。	NO_PRONOUNCE	NO_LABEL
さらに、バッティンはクラレンス・ホワイトのことも2、3年前からすでに知っていた。	NO_PRONOUNCE	NO_LABEL
バッティンはバーズに加入した時、経験豊かなパートナーも連れてきた。	ばってぃんわばーずにかにゅーしたとき、けいけんゆたかなぱーとなーもつれてきた。	NO_LABEL
それが、ロサンゼルスのプロデューサーで、流行の最先端を行く人物、自己主張の激しいだった。	それが、ろさんぜるすのぷろでゅーさーで、りゅーこーのさいせんたんをいくじんぶつ、じこしゅちょーのはげしいだった。	NO_LABEL
不運なことに、バッティンとフォウリーが得意とした1950年代風のロック/コミック・ソングは、バーズに合わなかった。	NO_PRONOUNCE	NO_LABEL
このことは、1971年のアルバム『バードマニア』で明らかな問題として表面化することになる<ref name="untitled/unissued_liner_1"></ref>。	NO_PRONOUNCE	NO_LABEL
バッティンの参加により、ロジャー・マッギン、ホワイト、パーソンズにバッティンという1967年以来望まれていたパーマネントなメンバーが揃い、パーソンズが1972年7月に金銭的なトラブルでマッギンによって解雇されるまでの3年弱、バーズとしては最も安定したラインアップとして長く活動することになった。	ばってぃんのさんかにより、ろじゃーまっぎん、ほわいと、ぱーそんずにばってぃんとゆうせんきゅうひゃくろくじゅうななねいらいのぞまれていたぱーまねんとなめんばーがそろい、ぱーそんずがせんきゅうひゃくななじゅうにねんしちがつにきんせんてきなとらぶるでまっぎんによってかいこされるまでのさんねんじゃく、ばーずとしてわもっともあんていしたらいんあっぷとしてながくかつどーすることになった。	NO_LABEL
この時期のバーズにおいて特筆すべき点はライブ・パフォーマンスの充実ぶりで、ホワイトのストリング・ベンダーを多用したダイナミックにシンコペイトするギター・プレイを中心に、バッティンのうねりのある独特のベース・ランニング、パーソンズの力強いドラミングにマッギンの12弦ギターが加わることによって、今までのバーズとは一線を画した音楽的な幅と大きなエネルギーを持つに至り、年間約200ものライブをこなしてバンドの健在ぶりをアピールした。	NO_PRONOUNCE	NO_LABEL
もう一つの点はマッギンによるバンドの“民主化政策”で、それはマッギンがメンバーそれぞれの創造力と演奏力を重視していたことの表れとして、当時のレコード制作とステージ構成に如実に反映されていた。	NO_PRONOUNCE	NO_LABEL
前作『イージー・ライダー』以来、約1年間の準備期間があったからか、入念に仕上げられている本作は、その新メンバーによる第1弾で、かつバーズにとって初の2枚組アルバムとなった。	NO_PRONOUNCE	NO_LABEL
本作の中には、アート・ロック、ジャズ、サイケデリック・ロック、フォーク、カントリー、ブルーグラス、東洋思想など、あらゆる要素が盛り込まれていることから考えても、1970年代を代表する1枚に数えることができる。	もとさくのなかにわ、あーとろっく、じゃず、さいけでりっくろっく、ふぉーく、かんとりー、ぶるーぐらす、とーよーしそーなど、あらゆるよーそがもりこまれていることからかんがえても、せんきゅうひゃくななじゅうねんだいをだいひょーするいちまいにかぞえることができる。	NO_LABEL
前作のヒットという話題はあったものの、依然として過去のバンドだと見られがちだったため、マッギンはまずライブ活動を活発化し、かつてのフォーク・ロック時代のファンではなく、新しいバーズのファンを獲得しようと試みていた。	NO_PRONOUNCE	NO_LABEL
新メンバーによるライブ活動はマッギンにとってことのほか楽しいもので、かねてから望んでいたライブ盤制作の意欲を起こさせるのに十分なものだった。	しんめんばーによるらいぶかつどーわまっぎんにとってことのほかたのしいもので、かねてからのぞんでいたらいぶばんせいさくのいよくをおこさせるのにじゅーぶんなものだった。	NO_LABEL
一方でプロデューサーのテリー・メルチャーは、ライブ・アルバムは過去のヒット曲を長生きさせる方法だと考えていた。	いっぽーでぷろでゅーさーのてりーめるちゃーわ、らいぶあるばむわかこのひっときょくをながいきさせるほーほーだとかんがえていた。	NO_LABEL
その結果、1枚はライブ、1枚はスタジオ録音の2枚組となったこのアルバムのタイトルには“フェニックス”“ザ・ファースト・バーズ・アルバム”などが候補に挙げられたが、そのことからもバンドの大きな意気込みが感じられる。	NO_PRONOUNCE	NO_LABEL
その一方でマッギンは1969年のほとんどを、演出家兼作詞家であると組んで、ブロードウェイ・ミュージカルの曲を書いていた。	NO_PRONOUNCE	NO_LABEL
ノルウェーの劇作家ヘンリック・イプセンの19世紀の戯曲『ペール・ギュント』を原作にし、レヴィが書いたカントリー・ロック・ウェスタン劇『ジーン・トリップ』に、マッギンも取り組んでいたのだった。	NO_PRONOUNCE	NO_LABEL
二人は3週間でミュージカル用に26曲を完成させ、さらにその後も二人は70年代中期まで共作を続けることになった。	ふたりわさんしゅーかんでみゅーじかるよーににじゅうろくきょくをかんせいさせ、さらにそのごもふたりわななじゅうねんだいちゅーきまできょうさくをつずけることになった。	NO_LABEL
しかし、レヴィの舞台に対するとても高い基準を満たすための舞台作りに十分な資金を集められなかったこと、かつてレヴィがエロティックなステージで有名になった『』の演出を手掛けたことで古くからのブロードウェイの人々からの反対にあったことから結局、『ジーン・トリップ』は上演されなかった。	NO_PRONOUNCE	NO_LABEL
そこでマッギンは、これらの曲を捨ててしまうのはもったいないと考え、本作に何曲かを収録することにした。	そこでまっぎんわ、これらのきょくをすててしまうのわもったいないとかんがえ、もとさくになんきょくかをしゅーろくすることにした。	NO_LABEL
1枚目のライブ盤は、1970年2月と3月、ニューヨークのとで録音され、の手により構成されている。	いちまいめのらいぶばんわ、せんきゅうひゃくななじゅうねんにがつとさんがつ、にゅーよーくのとでろくおんされ、のてによりこーせいされている。	NO_LABEL
「ラヴァー・オブ・ザ・バイユー」は「栗毛の雌馬」「オール・ザ・シングス」「ジャスト・ア・シーズン」同様、ミュージカル『ジーン・トリップ』用に書かれたもの。	NO_PRONOUNCE	NO_LABEL
バーズはスタジオ入りした初日の5月26日に、この曲のスタジオ・テイクを録音したが、メルチャーは本作にライブ・ヴァージョンを収録した。	NO_PRONOUNCE	NO_LABEL
「寂しき4番街」はボブ・ディランの曲。	NO_PRONOUNCE	NO_LABEL
バーズがディランの曲を録音したのは、これが最後となった。	ばーずがでぃらんのきょくをろくおんしたのわ、これがさいごとなった。	NO_LABEL
アナログ盤の片面をすべて費やした「」は、当時の流行だった長時間ジャムを取り入れたもの。	NO_PRONOUNCE	NO_LABEL
バーズが長いジャム・セッションを演奏するのは新しい試みで、メンバーのソロ・セットが挿入されており、メンバーもそれを楽しんだ。	NO_PRONOUNCE	NO_LABEL
マッギンのおおらかで民主的な性格を反映したリーダー・シップが発揮された2枚目のスタジオ・サイドには、佳曲が多く収められている。	NO_PRONOUNCE	NO_LABEL
ディランとのジョイント・アルバムの話もあったというが、結果的にはこの形となった。	NO_PRONOUNCE	NO_LABEL
2枚目に収録された9曲のうち、バッティンが書いた曲が4曲あり、そのうちの2曲は彼が信仰していた仏教と関係する作品。	にまいめにしゅーろくされたきゅうきょくのうち、ばってぃんがかいたきょくがよんきょくあり、そのうちのにきょくわかれがしんこーしていたぶっきょーとかんけいするさくひん。	NO_LABEL
「トラック・ストップ・ガール」はローウェル・ジョージとビル・ペインの共作で、ホワイトが持ち込んだもの。	NO_PRONOUNCE	NO_LABEL
この曲でホワイトは、自身の持ち味である悲哀感を表現した。	このきょくでほわいとわ、じしんのもちあじであるひあいかんをひょーげんした。	NO_LABEL
ジョージが自身のバンド“リトル・フィート”を結成してこの曲を歌ったのは、1年後のことだった。	NO_PRONOUNCE	NO_LABEL
「オール・ザ・シングス」ではかつてメンバーだったグラム・パーソンズがコーラスで参加している。	NO_PRONOUNCE	NO_LABEL
「昨日の汽車」は、ジーン・パーソンズとバッティンの共作だが、パーソンズの音楽性が集約された曲。	NO_PRONOUNCE	NO_LABEL
「飢えた惑星」はバッティンとキム・フォウリーのコンビがバーズのために書いた初めての作品で、この曲のエコロジー的テーマを気に入ったマッギンが、自分の考えを重ね合わせてメロディーを書き換えて完成させた。	NO_PRONOUNCE	NO_LABEL
マッギンが夢中になっていたモーグ・シンセサイザーが効果音的に使われている。	まっぎんがむちゅーになっていたもーぐしんせさいざーがこーかおんてきにつかわれている。	NO_LABEL
「テイク・ア・ウィフ・オン・ミー」はもとは前作『イージー・ライダー』に収録を考えていた曲で、マッギンとホワイトが尊敬するレッドベリーに捧げたもの。	NO_PRONOUNCE	NO_LABEL
マネージャーのディクソンに説得され、マッギンは自分がリード・ボーカルをとったヴァージョンをあきらめ、ホワイトがリード・ボーカルをとるヴァージョンを採用した。	NO_PRONOUNCE	NO_LABEL
ホワイトは後のザ・ホワイト・ブラザーズ時代でも演奏していた。	NO_PRONOUNCE	NO_LABEL
アルバムの最後に収録されているベトナム帰還兵と遺体で戻ってきた兵士に捧げるお経が唱えられる「ウェルカム・バック・ホーム」は、バッティンによる7分40秒を越えるプロテスト・ソング。	NO_PRONOUNCE	NO_LABEL
