青木 茂は、日本の美術史家。	あおきしげるわ、にっぽんのびじゅつしか。	NO_LABEL
岐阜県生まれ。	ぎふけんうまれ。	NO_LABEL
早稲田大学政治経済学部卒業。	わせだだいがくせいじけいざいがくぶそつぎょー。	NO_LABEL
東京芸術大学図書館・芸術資料館勤務、神奈川県立近代美術館学芸員、跡見学園女子大学教授、町田市立国際版画美術館館長、文星芸術大学教授。	NO_PRONOUNCE	NO_LABEL
明治美術学会会長。	めいじびじゅつがっかいかいちょー。	NO_LABEL
高橋由一を主として近代美術の研究。	たかはしゆいちをしゅとしてきんだいびじゅつのけんきゅー。	NO_LABEL
1986年には『明治洋画史料　記録篇』で芸術選奨受賞。	NO_PRONOUNCE	NO_LABEL
愛煙家として知られており、半世紀以上にわたり古書収集に没頭し自らを書痴と断言する。	あいえんかとしてしられており、はんせいきいじょーにわたりこしょしゅーしゅーにぼっとーしみずからをしょちとだんげんする。	NO_LABEL
その膨大な史料は、現在神奈川県立近代美術館葉山館に青木文庫として収蔵されている。	そのぼーだいなしりょーわ、げんざいかながわけんりつきんだいびじゅつかんはやまかんにあおきぶんことしてしゅーぞーされている。	NO_LABEL
長年収集した中国民画・木版画の数千枚は、那須野が原博物館に収蔵されている。	NO_PRONOUNCE	NO_LABEL
山口昌男によれば、長年神田の古書店で遭遇し、書痴・資料収集のライバルであった。	NO_PRONOUNCE	NO_LABEL
山口は「金曜日に古書会館へ行くと、青木さんの声がする。	NO_PRONOUNCE	NO_LABEL
あの声を聞くとホッとすると同時に、声が聞こえる本棚に掘出し物があると分かる」と語っていた。	NO_PRONOUNCE	NO_LABEL
酒井忠康によれば、神奈川県立近代美術館で1971年に『高橋由一とその時代展』を開催するため、青木は活字おこしされていないあらゆる基礎文献を美術館に行く通勤片道二時間の電車の中ですべて読み込んだ。	NO_PRONOUNCE	NO_LABEL
それが明治初期洋画の基礎台帳となり、芸術選奨を受賞するきっかけとなった。	それがめいじしょきよーがのきそだいちょーとなり、げいじゅつせんしょーをじゅしょーするきっかけとなった。	NO_LABEL
無名時代の北澤憲昭の才能を見出し、跡見学園女子大学へ推薦している。	むめいじだいのきたざわのりあきのさいのーをみいだし、あとみがくえんじょしだいがくえすいせんしている。	NO_LABEL
町田市立国際版画美術館の館長当時、22歳の若さで亡くなった銅版画家・菊池伶司の作品を受け取り、90年代には同美術館で展覧会が行われ、大きな反響を呼んだ。	NO_PRONOUNCE	NO_LABEL
近代美術研究者の中には、貴重な史料が豊富な青木の書庫に布団を持ち込み、寝泊まりをして研究を進めた者も多い。	きんだいびじゅつけんきゅうしゃのなかにわ、きちょーなしりょーがほーふなあおきのしょこにふとんをもちこみ、ねとまりをしてけんきゅーをすすめたものもおーい。	NO_LABEL
丹尾安典・河田明久著『岩波近代日本の美術 1 イメージのなかの戦争 日清・日露から冷戦まで』では、次のような文章がある。	NO_PRONOUNCE	NO_LABEL
「戦争美術を最も数多く収蔵している東京国立近代美術館が、その全リストをカタログで公にしたのは1970年から22年もたってからで、それまでは『戦争記録画報告書』が全体の相貌をうかがう唯一の書であったが、……ある一人の資料通の美術史家のもとで閲覧できるものばかり」。	NO_PRONOUNCE	NO_LABEL
この美術史家が青木である。	このびじゅつしかがあおきである。	NO_LABEL
近代美術研究以外に、ライフワークとして柳田国男の研究とその資料を収集しており、谷川健一が高く評価している。	きんだいびじゅつけんきゅーいがいに、らいふわーくとしてやなぎたくにおのけんきゅーとそのしりょーをしゅーしゅーしており、たにがわけんいちがたかくひょーかしている。	NO_LABEL
1994年、父の遺品だとして日本を代表する洋画家・佐伯祐三のサインが入った大量の未公開作品の存在が明らかとなり、その真贋を巡って一大論争を巻き起こした。	NO_PRONOUNCE	NO_LABEL
福井県武生市ではこれらの作品を土台に美術館建設計画が持ち上がったものの、画商達の鑑定機関は贋作と結論付けた。	ふくいけんむしゅーしでわこれらのさくひんをどだいにびじゅつかんけんせつけいかくがもちあがったものの、がしょーたちのかんていきかんわがんさくとけつろんつけた。	NO_LABEL
その鑑定人が青木である。	そのかんていじんがあおきである。	NO_LABEL
青木は、作品の芸術性、絵具の科学分析の両面から贋作であると断定している。	あおきわ、さくひんのげいじゅつせい、えのぐのかがくぶんせきのりょーめんからがんさくであるとだんていしている。	NO_LABEL
この真贋問題は、ギャラリーフェイクの原案として使用されている。	このしんがんもんだいわ、ぎゃらりーふぇいくのげんあんとしてしよーされている。	NO_LABEL
そのほかにも、青木をモデルにした小説などがあるという。	そのほかにも、あおきをもでるにしたしょーせつなどがあるという。	NO_LABEL
