新民党は、公務員経験者を中心に構成される香港の政党である。	しんみんとーわ、こーむいんけいけんしゃをちゅーしんにこーせいされるほんこんのせいとーである。	NO_LABEL
主席は元保安局局長と現在立法会議員葉劉淑儀、副主席は元自由党の田北辰と、皮膚科医で香港医学会元副会長の史泰祖。	しゅせきわもとほあんきょくきょくちょーとげんざいりっぽーかいぎかずはりゅーよしぎ、ふくしゅせきわもとじゆーとーのたきたたつと、ひふかいでほんこんいがっかいもとふくかいちょーのふみやすそ。	NO_LABEL
新民党は2011年1月9日に結成された。	しんみんとーわにせんじゅういちねんいちがつここのかにけっせいされた。	NO_LABEL
党の方針は「中間実務路線」で主に中流層、専門職、公務員の支持を取り込む。	NO_PRONOUNCE	NO_LABEL
