大学コンソーシアム石川とは、石川県内のすべての高等教育機関が連携して設立された一般社団法人。	だいがくこんそーしあむいしかわとわ、いしかわけんないのすべてのこーとーきょーいくきかんがれんけいしてせつりつされたいっぱんしゃだんほーじん。	NO_LABEL
事務局は石川県金沢市広坂に所在する。	じむきょくわいしかわけんかなざわしひろさかにしょざいする。	NO_LABEL
県の総合的な教育力や発信力を高めていくべきだと考えた石川県が県内の高等教育機関間の教育交流、発展及び地域社会の学術・文化・産業の発展を目的として、1999年に設立した「いしかわ大学連携促進協議会」が前身。	NO_PRONOUNCE	NO_LABEL
2012年1月現在、石川県内の20の高等教育機関すべてが参加している。	NO_PRONOUNCE	NO_LABEL
当初は短期大学間での単位互換事業から始まり、2003年からは県内の高等教育機関全てが参加、「いしかわシティカレッジ」を開始。	NO_PRONOUNCE	NO_LABEL
2006年、運営主体を県から高等教育機関に移管し「大学コンソーシアム石川」を設立。	NO_PRONOUNCE	NO_LABEL
2010年4月石川県広坂庁舎より石川県政記念しいのき迎賓館に事務局を移転、7月より一般社団法人化し、「一般社団法人 大学コンソーシアム石川」となる。	NO_PRONOUNCE	NO_LABEL
単位互換事業の「いしかわシティカレッジ」では、各高等教育機関の教員が講師を務める教養科目を開講し、受講者が単位取得すると所属の高等教育機関の卒業要件単位として認められる。	NO_PRONOUNCE	NO_LABEL
また、授業は一般の希望者にも開放される。	また、じゅぎょーわいっぱんのきぼーしゃにもかいほーされる。	NO_LABEL
