2013年のナショナルリーグディビジョンシリーズである。	にせんじゅうさんねんのなしょなるりーぐでぃびじょんしりーずである。	NO_LABEL
2013年のディビジョンシリーズは、各カード、ホームアドバンテージを有するチームが第1、2、5戦を本拠地で開催する日程となった。	NO_PRONOUNCE	NO_LABEL
各地区優勝の3チームとワイルドカードゲーム勝利チームの計4チームが出場、地区優勝の3チーム中勝率1位で中地区優勝のセントルイス・カージナルスとワイルドカードプレイオフでシンシナティ・レッズに勝利し本シリーズに進出したピッツバーグ・パイレーツが対戦するカード、及び東地区優勝のアトランタ・ブレーブスと西地区優勝のロサンゼルス・ドジャースが対戦するカードの2カードが行われ、セントルイス・カージナルスが3勝2敗で、ロサンゼルス・ドジャースが3勝1敗でそれぞれリーグチャンピオンシップシリーズに勝ち上がった。	NO_PRONOUNCE	NO_LABEL
表中のRは得点、Hは安打、Eは失策を示す。	NO_PRONOUNCE	NO_LABEL
 ミズーリ州セントルイス - ブッシュ・スタジアム	NO_PRONOUNCE	NO_LABEL
 ミズーリ州セントルイス - ブッシュ・スタジアム	NO_PRONOUNCE	NO_LABEL
 ペンシルベニア州ピッツバーグ - PNCパーク	NO_PRONOUNCE	NO_LABEL
 ペンシルベニア州ピッツバーグ - PNCパーク	NO_PRONOUNCE	NO_LABEL
 ミズーリ州セントルイス - ブッシュ・スタジアム	NO_PRONOUNCE	NO_LABEL
 ジョージア州アトランタ - ターナー・フィールド	NO_PRONOUNCE	NO_LABEL
 ジョージア州アトランタ - ターナー・フィールド	NO_PRONOUNCE	NO_LABEL
 カリフォルニア州ロサンゼルス - ドジャー・スタジアム	NO_PRONOUNCE	NO_LABEL
 カリフォルニア州ロサンゼルス - ドジャー・スタジアム	NO_PRONOUNCE	NO_LABEL
