同身寸法は、患者の手指の長さを基準とし、経穴を取穴する際に経絡を判断する基準とするものである。	どーしんすんぽーわ、かんじゃのてゆびのながさをきじゅんとし、けいけつをとあなするさいにけいらくをはんだんするきじゅんとするものである。	NO_LABEL
経絡治療においては最も重要な技法である。	けいらくちりょーにおいてわもっともじゅーよーなぎほーである。	NO_LABEL
ここに出てくる尺や寸、分は尺貫法で定められているものではなく等分すなわち距離のことである。	ここにでてくるしゃくやすん、ぶんわしゃっかんほーでさだめられているものでわなくとーぶんすなわちきょりのことである。	NO_LABEL
同身寸法では以下の様な尺寸を定めている。	どーしんすんぽーでわいかのよーなしゃくすんをさだめている。	NO_LABEL
患者によって差異があるので長さは若干違うこともある。	かんじゃによってさいがあるのでながさわじゃっかんちがうこともある。	NO_LABEL
手の母指と中指の指頭をあわせて環を作ったとき	てのははゆびとなかゆびのしとーをあわせてたまきをつくったとき	NO_LABEL
