ベトナムの地方行政区画は、3級制で第一級行政区、第二級行政区、第三級行政区に分れる。	NO_PRONOUNCE	NO_LABEL
より大きな単位として、全国を8つの地方に分けることも多いが、これは正式な地方行政単位ではない。	よりおーきなたんいとして、ぜんこくをやっつのちほーにわけることもおーいが、これわせいしきなちほーぎょーせいたんいでわない。	NO_LABEL
日本語では城舗は市、郡は区と訳され、市社は市や町に比定される。	NO_PRONOUNCE	NO_LABEL
城舗直屬省は「省直轄市」とされる。	NO_PRONOUNCE	NO_LABEL
2016年6月時点、中央直轄市に所属する市社はハノイ中央直轄市のソンタイ市社のみであり、これは旧ソンタイ省および旧ハタイ省の合併に由来する。	にせんじゅうろくねんろくがつじてん、ちゅーおーちょっかつしにしょぞくするししゃわはのいちゅーおーちょっかつしのそんたいししゃのみであり、これわきゅーそんたいしょーおよびきゅーはたいしょーのがっぺいにゆらいする。	NO_LABEL
日本語では市鎮は町、社は村に比定される。	にほんごでわしちんわまち、しゃわむらにひていされる。	NO_LABEL
行政レベルとは別に、中央直轄市・省直轄市は4つの階級に分かれる。	NO_PRONOUNCE	NO_LABEL
ハノイ及びホーチミン市は特別市、第2類都市と分類される。	NO_PRONOUNCE	NO_LABEL
省と省都を列挙する。	しょーとしょーとをれっきょする。	NO_LABEL
