ロッカクアヤコ Rokkaku Ayako1月24日 - ）日本の現代美術家。	NO_PRONOUNCE	NO_LABEL
筆などを一切使わず、手で直接キャンパスや段ボールに絵を描く。	ふでなどをいっさいつかわず、てでちょくせつきゃんぱすやだんぼーるにえをえがく。	NO_LABEL
その独特のスタイルで行われるライブペインティングや、色彩豊かな作品で知られる。	そのどくとくのすたいるでおこなわれるらいぶぺいんてぃんぐや、しきさいゆたかなさくひんでしられる。	NO_LABEL
千葉県出身、ベルリン在住。	ちばけんしゅっしん、べるりんざいじゅー。	NO_LABEL
A型。	えーがた。	NO_LABEL
1982年、千葉県に生まれる。	せんきゅうひゃくはちじゅうにねん、ちばけんにうまれる。	NO_LABEL
高校卒業後はグラフィックデザインの専門学校のイラストレーション科に通い20歳で卒業した。	こーこーそつぎょーごわぐらふぃっくでざいんのせんもんがっこーのいらすとれーしょんかにかよいにじゅっさいでそつぎょーした。	NO_LABEL
周りの生徒が就職する中で卒業後は就職せず、デザイン・フェスタに参加してライブで絵を描くパフォーマンスを行った。	まわりのせいとがしゅーしょくするなかでそつぎょーごわしゅーしょくせず、でざいんふぇすたにさんかしてらいぶでえをえがくぱふぉーまんすをおこなった。	NO_LABEL
この場で初めて筆を使わずに手で直接描く手法を思い付いたという。	このばではじめてふでをつかわずにてでちょくせつえがくしゅほーをおもいついたという。	NO_LABEL
2002年からは路上での創作活動を始め、翌年にはGEISAI#4に参加する。	NO_PRONOUNCE	NO_LABEL
その場で注目を集めたアヤコはスカウト賞を受賞した。	そのばでちゅーもくをあつめたあやこわすかうとしょーをじゅしょーした。	NO_LABEL
その後、ニューヨークへ訪れて国外の画廊の知見を得て帰国し、2006年に再びGEISAIに参加した。	そのご、にゅーよーくえおとずれてこくがいのがろーのちけんをえてきこくし、にせんろくねんにふたたびげいさいにさんかした。	NO_LABEL
この頃からアヤコの作品はヨーロッパで紹介されるようになっていき、スイスでのアート・バーゼル出展時に行ったライブペインティングでは100枚以上の売り上げを記録した。	このころからあやこのさくひんわよーろっぱでしょーかいされるよーになっていき、すいすでのあーとばーぜるしゅってんじにいったらいぶぺいんてぃんぐでわひゃくまいいじょーのうりあげをきろくした。	NO_LABEL
2009年頃にベルリンへ移住した。	にせんきゅうねんごろにべるりんえいじゅーした。	NO_LABEL
人気・評価ともに日本よりもヨーロッパで高く海外での活動が中心となっているが、2011年に東日本大震災が発生した際は日本に帰国して、東北地方の子供達に描かせた絵を用いての創作を行った。	NO_PRONOUNCE	NO_LABEL
同年にはオランダロッテルダムのクンストハル美術館、翌年にはスロバキアので規模の大きな個展を開催した。	どーねんにわおらんだろってるだむのくんすとはるびじゅつかん、よくねんにわすろばきあのできぼのおーきなこてんをかいさいした。	NO_LABEL
2017年5月には東京都渋谷区の「GALLERY TARGET」でアクリル板を用いた立体作品の個展も開催している。	NO_PRONOUNCE	NO_LABEL
2007年	にせんななねん	NO_LABEL
2006年	にせんろくねん	NO_LABEL
