社会福祉協議会とは、行政関与によって戦前から戦中に設立した民間慈善団体の中央組織・連合会およびその都道府県組織を起源とする組織で、地域福祉の推進を図ることを目的とする民間団体。	NO_PRONOUNCE	NO_LABEL
略して社協と称する。	りゃくしてしゃきょーとしょーする。	NO_LABEL
戦後アメリカから導入したコミュニティワークの普及推進と、民間福祉事業やボランティア活動の推進・支援を目的としている。	NO_PRONOUNCE	NO_LABEL
法的には社会福祉法で規定しており、全国、都道府県、特別区、政令指定都市、市町村単位で組織している。	ほーてきにわしゃかいふくしほーできていしており、ぜんこく、とどーふけん、とくべつく、せいれいしていとし、しちょーそんたんいでそしきしている。	NO_LABEL
基本的には社会福祉法人格を持つこととなっている。	きほんてきにわしゃかいふくしほーじんかくをもつこととなっている。	NO_LABEL
民間団体ではあるが、法律に定められ、行政区分ごとに組織した団体であり、運営資金の多くが行政機関の予算措置によるものであるため、「公私共同」「半官半民」で運営しており、民間と公的機関・組織の両面のメリットを生かした事業を展開している。	NO_PRONOUNCE	NO_LABEL
例えば、民間福祉事業者と住民と行政機関との橋渡し、福祉施設や団体の連合会とその事務局、各福祉事業者間の利害調整、住民参加による地域福祉の推進、福祉専門職の職員養成、福祉人材の確保、福祉サービスの第三者評価などがあげられる。	たとえば、みんかんふくしじぎょーしゃとじゅーみんとぎょーせいきかんとのはしわたし、ふくししせつやだんたいのれんごーかいとそのじむきょく、かくふくしじぎょーしゃかんのりがいちょーせい、じゅーみんさんかによるちーきふくしのすいしん、ふくしせんもんしょくのしょくいんよーせい、ふくしじんざいのかくほ、ふくしさーびすのだいさんしゃひょーかなどがあげられる。	NO_LABEL
共同募金事業も県社協や市町村社協においては別法人の共同募金会の事務局を兼務する形態で行なっていることも多い。	きょーどーぼきんじぎょーもけんしゃきょーやしちょーそんしゃきょーにおいてわべつほーじんのきょーどーぼきんかいのじむきょくをけんむするけいたいでおこなっていることもおーい。	NO_LABEL
特に、市町村社協で見ると、ほとんどの市町村社協がそうである。	とくに、しちょーそんしゃきょーでみると、ほとんどのしちょーそんしゃきょーがそーである。	NO_LABEL
なお、市町村単位になると先述に加え、行政の委託事業や福祉・介護サービス事業、障害者など要援護者の生活相談事業を展開しているところが多い。	NO_PRONOUNCE	NO_LABEL
全国社会福祉協議会は、全国すべての都道府県、市区町村に設置している社会福祉協議会の連合会・中央組織である。	NO_PRONOUNCE	NO_LABEL
社会福祉団体や関係者、厚生労働省等と連携を取りながら、福祉サービス利用者や社会福祉関係者への支援、全国の社協、民生委員・児童委員、社会福祉施設等の活動への支援・推進などを通じ、社会福祉の発展をめざした活動を行なっている。	NO_PRONOUNCE	NO_LABEL
1908年に創設した「中央慈善協会」とその後身を母体とし、1951年に社会福祉事業法の施行により、恩賜財団同胞援護会など全国区の公的関与のある、民間社会事業関連団体と合併・改組し、「中央社会福祉協議会」として発足、後に現在の名称に改められた。	NO_PRONOUNCE	NO_LABEL
各福祉施設・福祉サービスの連合会・協議会や、全国の民生委員・児童委員の組織、各都道府県にある福祉人材センターの全国本部を併設し、社会福祉事業従事者の研修を目的とする中央福祉学院を神奈川県に持っている。	NO_PRONOUNCE	NO_LABEL
【主な構成団体】	NO_PRONOUNCE	NO_LABEL
【別法人の主な関連団体】	NO_PRONOUNCE	NO_LABEL
【併設機関】	NO_PRONOUNCE	NO_LABEL
【遠縁の団体】	NO_PRONOUNCE	NO_LABEL
都道府県の単位で組織し、各市町村の社会福祉協議会の指導や支援、監督を行なったり、福祉専門職の養成、福祉サービスの振興・評価などを主な事業としている。	NO_PRONOUNCE	NO_LABEL
なお、中央慈善協会各都道府県支部を源とし、戦後、社会福祉事業法の施行に伴って改組したものが多い。	なお、ちゅーおーじぜんきょーかいかくとどーふけんしぶをみなもととし、せんご、しゃかいふくしじぎょーほーのしこーにともなってかいそしたものがおーい。	NO_LABEL
略して都道府県社協と称する。	りゃくしてとどーふけんしゃきょーとしょーする。	NO_LABEL
主な事業として、市町村社会福祉協議会の指導監督以外に次を行なっている。	おもなじぎょーとして、しちょーそんしゃかいふくしきょーぎかいのしどーかんとくいがいにつぎをおこなっている。	NO_LABEL
政令指定都市では、市内の各区に独立した法人で社会福祉協議会を配置していることが多い。	せいれいしていとしでわ、しないのかっくにどくりつしたほーじんでしゃかいふくしきょーぎかいをはいちしていることがおーい。	NO_LABEL
そのような政令指定都市社協では、都道府県社会福祉協議会に準じた活動・事業を行なっている。	NO_PRONOUNCE	NO_LABEL
市区町村社会福祉協議会は、市町村もしくは政令指定都市の区ごとに組織し、多様な福祉ニーズに応えるため、それぞれの社協が地域のボランティアと協力しながら地域の特性を踏まえ創意工夫をこらした独自の事業に取り組んでいる。	しくちょーそんしゃかいふくしきょーぎかいわ、しちょーそんもしくわせいれいしていとしのくごとにそしきし、たよーなふくしにーずにこたえるため、それぞれのしゃきょーがちいきのぼらんてぃあときょーりょくしながらちいきのとくせいをふまえそーいくふーをこらしたどくじのじぎょーにとりくんでいる。	NO_LABEL
主な事業は次のとおりである。	おもなじぎょーわつぎのとーりである。	NO_LABEL
地域によっては、都道府県と市町村の中間に郡や広域行政圏などの単位で「郡社会福祉協議会」「地域社会福祉協議会」などを組織したり、市町村の学校区・町内会単位の社会福祉協議会を組織しているところがある。	NO_PRONOUNCE	NO_LABEL
また、北海道社会福祉協議会では、広域のために、北海道の支庁単位に出先機関である「地区事務所」を設けている。	NO_PRONOUNCE	NO_LABEL
低所得者世帯、障害者世帯、高齢者世帯が対象。	ていしょとくしゃせたい、しょーがいしゃせたい、こーれいしゃせたいがたいしょー。	NO_LABEL
各市区町村社会福祉協議会が相談・申請窓口となり、各都道府県社会福祉協議会によって貸付が行われる。	NO_PRONOUNCE	NO_LABEL
連帯保証人がいる場合は無利子、いない場合は有利子。	れんたいほしょーにんがいるばあいわむりし、いないばあいわゆーりし。	NO_LABEL
ただし、緊急小口資金、教育支援資金は無利子。	ただし、きんきゅーこぐちしきん、きょーいくしえんしきんわむりし。	NO_LABEL
不動産担保型生活資金は有利子。	ふどーさんたんぽがたせいかつしきんわゆーりし。	NO_LABEL
貸付資金の種類	かしつけしきんのしゅるい	NO_LABEL
ちなみに、本制度と類似の貸付制度として、各都道府県、政令指定都市・中核市が実施する母子父子寡婦福祉資金貸付金や、生活協同組合、NPOバンクが実施するマイクロファイナンスが挙げられる。	NO_PRONOUNCE	NO_LABEL
