LFTPは、UNIXおよびUnix系システム向けのコマンド行ファイル転送プログラムの1つ。	NO_PRONOUNCE	NO_LABEL
Alexander V. Lukyanov が開発し、GNU General Public License でリリースされている。	NO_PRONOUNCE	NO_LABEL
FTPだけでなく、プロトコルを含んだURLの指定でFTPS、HTTP、HTTPS、、FISH、SFTPも使える。	NO_PRONOUNCE	NO_LABEL
特に便利な機能は、FXPをサポートしている点である。	NO_PRONOUNCE	NO_LABEL
ディレクトリツリーの再帰的ミラーリング、ロケーションのブックマークとダウンロード再開といったFTPクライアントとして以外にも、いろいろ高い機能をもつ。	でぃれくとりつりーのさいきてきみらーりんぐ、ろけーしょんのぶっくまーくとだうんろーどさいかいといったえふてぃーぴーくらいあんととしていがいにも、いろいろたかいきのーをもつ。	NO_LABEL
転送を後で実行するようにスケジュールでき、帯域幅を制限でき、転送キューを設定でき、シェル風のジョブコントロール機能をサポートしている。	てんそーをあとでじっこーするよーにすけじゅーるでき、たいーきはばをせいげんでき、てんそーきゅーをせっていでき、しぇるふーのじょぶこんとろーるきのーをさぽーとしている。	NO_LABEL
対話的に使う以外に、スクリプトでも利用できる。	たいわてきにつかういがいに、すくりぷとでもりよーできる。	NO_LABEL
LFTPは当初、ftpclassパッケージの一部として開発された。	NO_PRONOUNCE	NO_LABEL
その後高機能化していき、1997年2月にはパッケージ名をLFTPに変更した。	NO_PRONOUNCE	NO_LABEL
当初の開発目標は、堅牢かつ自動的な転送再開機能と複数ファイルの同時並行転送およびプロトコルパイプライニングによる転送高速化であった。	とーしょのかいはつもくひょーわ、けんろーかつじどーてきなてんそーさいかいきのーとふくすーふぁいるのどーじへいこーてんそーおよびぷろとこるぱいぷらいにんぐによるてんそーこーそくかであった。	NO_LABEL
少し後になってミラーリング機能が追加された。	すこしごになってみらーりんぐきのーがついかされた。	NO_LABEL
