福田町は、岡山県児島郡にあった地方公共団体である。	ふくだまちわ、おかやまけんこじまぐんにあったちほーこーきょーだんたいである。	NO_LABEL
1953年6月1日に旧倉敷市に編入された。	せんきゅうひゃくごじゅうさんねんろくがつついたちにきゅーくらしきしにへんにゅーされた。	NO_LABEL
現在は倉敷市水島支所管内にあたり、旧町域は水島管内の福田地区と狭義の水島地区に分かれている。	げんざいわくらしきしみずしまししょかんないにあたり、きゅーちょういきわみずしまかんないのふくだちくときょーぎのみずしまちくにわかれている。	NO_LABEL
東高梁川の堆積作用による広大な干潟により古くから干拓工事が行われ、福田新田や福田新開などが開発された。	ひがしたかはしがわのたいせきさよーによるこーだいなひがたによりふるくからかんたくこーじがおこなわれ、ふくだしんでんやふくだしんかいなどがかいはつされた。	NO_LABEL
かつては隣接する浅口郡連島町と合併して水島市を建設する構想があったが、倉敷市の水島鉄道買収および三菱石油製油工場の立地調査開始により、倉敷市の財政力によって工業化を進める必要性が高まったため断念している。	かつてわりんせつするあさくちぐんつらじままちとがっぺいしてみずしましをけんせつするこーそーがあったが、くらしきしのみずしまてつどーばいしゅーおよびみつびしせきゆせいゆこーじょーのりっちちょーさかいしにより、くらしきしのざいせいりょくによってこーぎょーかをすすめるひつよーせいがたかまったためだんねんしている。	NO_LABEL
