座敷童子は小惑星帯に位置する小惑星。	ざしきわらしわしょーわくせいたいにいちするしょーわくせい。	NO_LABEL
静岡県清水市の日本平観測ステーションで浦田武が発見した。	しずおかけんしみずしのにほんだいらかんそくすてーしょんでうらたたけしがはっけんした。	NO_LABEL
岩手県などに伝わる精霊的な存在の座敷童子から命名された。	いわてけんなどにつたわるせいれいてきなそんざいのざしきわらしからめいめいされた。	NO_LABEL
