古河橋は、栃木県日光市足尾町赤倉にある一級水系利根川水系渡良瀬川の上流である松木川に架かる道路橋である。	ふるかわばしわ、とちぎけんにっこーしあしおまちあかくらにあるいっきゅーすいけいとねがわすいけいわたらせがわのじょーりゅーであるまつぎがわにかかるどーろきょーである。	NO_LABEL
国の重要文化財に指定されている。	くにのじゅーよーぶんかざいにしていされている。	NO_LABEL
古河鉱業足尾銅山の専用電気軌道を施設した際、1891年1月1日に開通した、松木川に架かる全長48.5mのアーチ橋である。	ふるかわこうぎょーあしおどーざんのせんよーでんききどーをしせつしたさい、せんはっぴゃくきゅうじゅういちねいちがつついたちにかいつーした、まつぎがわにかかるぜんちょーよんじゅうはちてんごめーとるのあーちきょーである。	NO_LABEL
旧足尾本山駅があった本山地区は、足尾銅山の操業の中心地であった。	きゅーあしおほんざんえきがあったもとやまちくわ、あしおどーざんのそーぎょーのちゅーしんちであった。	NO_LABEL
その本山地区と社宅などが立ち並んでいる赤倉地区の間には松木川が流れているため、両区を結ぶために1884年に木造の直利橋が架設されたが、1887年4月8日に松木村の大火で消失してしまった。	そのほんざんちくとしゃたくなどがたちならんでいるあかくらちくのまにわまつぎがわがながれているため、りょーくをむすぶためにせんはっぴゃくはちじゅうよねんにもくぞーのなおとしきょーがかせつされたが、せんはっぴゃくはちじゅうしちねんしがつようかにまつぎむらのたいかでしょーしつしてしまった。	NO_LABEL
そのため、足尾銅山から足尾製錬の精錬所までの鉱石運搬用として、直利橋の跡にドイツ人の設計により本橋梁が架設されている。	そのため、あしおどーざんからあしおせいねのせいれんしょまでのこーせきうんぱんよーとして、なおとしきょーのあとにどいつじんのせっけいによりほんきょーりょーがかせつされている。	NO_LABEL
本橋梁は1890年6月に着工したが、同年8月22日に松木川が大洪水になり足場が流失するという事故に遭った。	ほんきょーりょーわせんはっぴゃくきゅうじゅうねんろくがつにちゃっこーしたが、どーねんはちがつにじゅうににちにまつぎがわがだいこーずいになりあしばがりゅーしつするとゆうじこにあった。	NO_LABEL
同年10月26日に再開後は、突貫工事を行い同年12月28日に竣功した。	どーねんじゅーがつにじゅうろくにちにさいかいごわ、とっかんこーじをおこないどーねんじゅーにがつにじゅうはちにちにしゅんこーした。	NO_LABEL
翌年の1891年には、鉄道道路併用橋として日本初となる実用化された単線の電気鉄道が施設されている。	よくねんのせんはっぴゃくきゅうじゅういちねにわ、てつどーどーろへいよーきょーとしてにっぽんはつとなるじつよーかされたたんせんのでんきてつどーがしせつされている。	NO_LABEL
その後は、道路橋にそのまま転用されており補強工事も行われていたが、本橋梁の老朽化に伴い、南側に新古河橋が1993年に架設されたため、現在は歩道橋として整備・保存されている。	NO_PRONOUNCE	NO_LABEL
なお、現在は橋の入り口に柵が設けられ立ち入り禁止となっている。	なお、げんざいわはしのいりくちにしがらみがもーけられたちーりきんしとなっている。	NO_LABEL
本橋梁は日光市指定文化財に指定されたのち、2014年に国の重要文化財に指定された。	ほんきょーりょーわにっこーししていぶんかざいにしていされたのち、にせんじゅうよねんにくにのじゅーよーぶんかざいにしていされた。	NO_LABEL
また、土木学会による「近代土木遺産2800選Bランク」にも選出されている。	NO_PRONOUNCE	NO_LABEL
下路式ワーレントラスの形式であり、1890年製造のドイツ・ハーコート製である。	NO_PRONOUNCE	NO_LABEL
また、トラスの部材をボルトで締めて連結組立てを行う、プレハブ式であるのが特徴である。	また、とらすのぶざいをぼるとでしめてれんけつくみたてをおこなう、ぷれはぶしきであるのがとくちょーである。	NO_LABEL
