Data portabilityとはユーザーデータを相互運用性のあるアプリケーション間で再利用する機能で、ユーザーのアイデンティティや個人データのメディア、他の形式をコントロールできるようになっている。	NO_PRONOUNCE	NO_LABEL
DataPortabilityプロジェクトが空間内で識別、試みの文脈化や促進でこのビジョンを推進している。	NO_PRONOUNCE	NO_LABEL
この試みはボランティアが基礎となっている世界的分散集団が行っている。	このこころみわぼらんてぃあがきそとなっているせかいてきぶんさんしゅーだんがおこなっている。	NO_LABEL
DataPortabilityプロジェクトは2007年11月にアイデアを探求するために業界の思想家を招聘して結成されたワークグループ関係者が立ち上げた。	NO_PRONOUNCE	NO_LABEL
2008年1月8日、Google、Facebook、Plaxoといった大手インターネット企業数社がこのワークグループを支援するようになり、Drupal、Netvibes、Mystrands、LinkedIn、Flickr、Six Apart、Twitterだけでなく、Diggやマイクロソフトも加わった。	NO_PRONOUNCE	NO_LABEL
プロジェクトは2009年に501c3の非営利慈善団体に転換した。	NO_PRONOUNCE	NO_LABEL
2008年、プロジェクトはとソフトウェア利用許諾契約の審議会を立ち上げた。	にせんはちねん、ぷろじぇくとわとそふとうぇありよーきょだくけいやくのしんぎかいをたちあげた。	NO_LABEL
EULA/ToSグループはデータポータビリティの実践やアイデアをサイトとユーザー間の取り決めにもたらす方法を決定した。	NO_PRONOUNCE	NO_LABEL
グループは2010年7月に、モデル・ポータビリティ・ポリシーのアンケートとPortabilityPolicy.orgを発表した。	NO_PRONOUNCE	NO_LABEL
ポータビリティポリシーはプライバシーポリシーのようなユーザーへのコミュニケーションを構築していて、データポータビリティの役割に関して組織内での議論を進めたり、ポータビリティに関する問題を顧客に説明したり、サイト間で比較できる方法で移植性のある実践をはっきり開示したり、データポータビリティの競争で1位を目指すことを推奨する意図があった。	ぽーたびりてぃぽりしーわぷらいばしーぽりしーのよーなゆーざーえのこみゅにけーしょんをこーちくしていて、でーたぽーたびりてぃのやくわりにかんしてそしきないでのぎろんをすすめたり、ぽーたびりてぃにかんするもんだいをこきゃくにせつめいしたり、さいとかんでひかくできるほーほーでいしょくせいのあるじっせんをはっきりかいじしたり、でーたぽーたびりてぃのきょーそーでいちーをめざすことをすいしょーするいとがあった。	NO_LABEL
モデル・ポリシーの立ち上げ時、10の質問と選択肢、回答の模範話術が用意された。	NO_PRONOUNCE	NO_LABEL
2010年5月でのモデル質問は以下の通り:	NO_PRONOUNCE	NO_LABEL
歴史的にDataPortabilityプロジェクトはオープン標準提唱と関連している。	NO_PRONOUNCE	NO_LABEL
グループは正式には特定の技術を重ねて推奨していないが、首脳陣はオープン標準の上位概念に対応すると発言していてこれはデータポータビリティのビジョンに達するために必要と考えたためだった。	ぐるーぷわせいしきにわとくていのぎじゅつをかさねてすいしょーしていないが、しゅのーじんわおーぷんひょーじゅんのじょーいがいねんにたいおーするとはつげんしていてこれわでーたぽーたびりてぃのびじょんにたっするためにひつよーとかんがえたためだった。	NO_LABEL
ビジョンを前進させると考えるオープン標準にはRDF、RDFa、マイクロフォーマット、APML、FOAF、OAuth、OpenID、OPML、RSS、SIOC、XHTML Friends Network、XRI、XDIがある。	NO_PRONOUNCE	NO_LABEL
Dataportabilityプロジェクトのコミュニティは本会議の一環として投票次第で会員を正式認定する。	NO_PRONOUNCE	NO_LABEL
参加者は「DataPortabilityプロジェクトのオペレーション、需要、良い運営に関する決定を下せる唯一の権限」を順番に持つ運営グループを選出する。	NO_PRONOUNCE	NO_LABEL
