L・H・クラーセンとして知られた、レオナルドゥス・ヘンドリック・クラーセンは、オランダの都市人口学者。	NO_PRONOUNCE	NO_LABEL
日本語では姓を「クラッセン」と表記することもある。	NO_PRONOUNCE	NO_LABEL
クラーセンはロッテルダムに生まれ、同地のオランダ経済大学に学んだ。	くらーせんわろってるだむにうまれ、どーちのおらんだけいざいだいがくにまなんだ。	NO_LABEL
1944年、クラーセンはヤン・ティンバーゲンの下で、オランダ経済研究所 () に加わった。	せんきゅうひゃくよんじゅうよねん、くらーせんわやんてぃんばーげんのもとで、おらんだけいざいけんきゅーじょかっこにくわわった。	NO_LABEL
以降、クラーゼンは永くこの研究所で都市の戦後復興や開発に関わる研究に従事し、後には所長も務めた。	いこー、くらーぜんわながくこのけんきゅーじょでとしのせんごふっこーやかいはつにかかわるけんきゅーにじゅーじし、ごにわしょちょーもつとめた。	NO_LABEL
クラーセンは1980年代に、ヨーロッパの148都市のデータの分析を通して「都市の発展段階論」の循環モデルを提唱し、注目された。	NO_PRONOUNCE	NO_LABEL
これは、都市が時間の経過の中で、「都市化→郊外化→逆都市化→再都市化→都市化,,」を繰り返すとするものであった。	NO_PRONOUNCE	NO_LABEL
クラーセンの発展段階サイクルのモデルは、その後さまざまな議論を呼んだが、近年ではこれを「時代遅れ」なものとする論調もある。	NO_PRONOUNCE	NO_LABEL
