『桜吹雪 〜千年の恋をしました〜』は、2009年4月24日に日本のアダルトゲームブランドSilver Bulletより発売されたパソコン用美少女ゲームである。	NO_PRONOUNCE	NO_LABEL
『雪影-setsuei-』『月と魔法と太陽と』に続くSilver Bulletの第3作。	NO_PRONOUNCE	NO_LABEL
一年中桜が咲く名門校「花宮学院」を舞台にしたADV。	NO_PRONOUNCE	NO_LABEL
学園に入学した貧乏育ちの主人公が、4人のヒロインとともに事件や厄介ごとを解決しながら、学園祭を成功に導くことが目的。	がくえんににゅーがくしたびんぼーそだちのしゅじんこーが、よにんのひろいんとともにじけんややっかいごとをかいけつしながら、がくえんさいをせいこーにみちびくことがもくてき。	NO_LABEL
ヒロインにはそれぞれ悩みや問題があり、それを乗り越えて恋愛を育んでいく。	ひろいんにわそれぞれなやみやもんだいがあり、それをのりこえてれんあいをはぐくんでいく。	NO_LABEL
その世界観から、CGの多くに桜の花が含まれている。	そのせかいかんから、しーじーのおーくにさくらのはながふくまれている。	NO_LABEL
またその優美な世界観とは裏腹に「何かを得るためには何かを犠牲にしなければならない」という重いテーマも作中に盛り込まれている。	NO_PRONOUNCE	NO_LABEL
2009年12月18日には、本作のスピンオフ作品『花鳥風月 〜恋ニヲチタル花園ノ姫〜』が発売された。	NO_PRONOUNCE	NO_LABEL
主人公の少年「柊一成」はずっと2人きりで暮らしてきた母親が他界したことで孤独の身となったが、運良くとある全寮制の名門学校に特待生として入学できたことで、路頭に迷わずに済むこととなった。	NO_PRONOUNCE	NO_LABEL
しかし、入学先の「花宮学院」は、男女共学とは名ばかりの、学籍所有者の99パーセントが裕福な家柄の女子というお嬢様学校だった。	NO_PRONOUNCE	NO_LABEL
ひょんなことから花宮学院理事を務める一族の娘「桜森紅紗」と知り合った一成は、彼女に招かれて花宮学院学院祭「花仙祭」の実行委員会・通称「桜吹雪」の一員に迎えられる。	NO_PRONOUNCE	NO_LABEL
