小島 耕司は日本の特撮映画の背景専門の絵描き。	こじまこーじわにっぽんのとくさつえいがのはいけいせんもんのえかき。	NO_LABEL
茨城県出身。	いばらきけんしゅっしん。	NO_LABEL
1961年に太平二郎の紹介で東宝撮影所特技センターに入社。	せんきゅうひゃくろくじゅういちねんにたいへいにろーのしょーかいでとーほーさつえいしょとくぎせんたーににゅーしゃ。	NO_LABEL
鈴木福太郎に師事し背景専門の絵描きとして活躍。	すずきふくたろーにしじしはいけいせんもんのえかきとしてかつやく。	NO_LABEL
1970年、センター解散と同時に東宝美術に移籍、背景の第1人者となる。	せんきゅうひゃくななじゅうねん、せんたーかいさんとどーじにとーほーびじゅつにいせき、はいけいのだいひとりしゃとなる。	NO_LABEL
