高橋 智隆は、ロボットクリエーター。	たかはしともたかわ、ろぼっとくりえーたー。	NO_LABEL
株式会社ロボ・ガレージ代表取締役社長。	かぶしきがいしゃろぼがれーじだいひょーとりしまりやくしゃちょー。	NO_LABEL
東京大学先端科学技術研究センター特任准教授、大阪電気通信大学総合情報学部メディアコンピュータシステム学科客員教授、福山大学工学部電子ロボット科客員教授、ヒューマンキッズサイエンスロボット教室アドバイザー、ロボット専門店ロボベース顧問。	とーきょーだいがくせんたんかがくぎじゅつけんきゅーせんたーとくにんじゅんきょーじゅ、おーさかでんきつーしんだいがくそーごーじょーほーがくぶめでぃあこんぴゅーたしすてむがっかきゃくいんきょーじゅ、ふくやまだいがくこーがくぶでんしろぼっとかきゃくいんきょーじゅ、ひゅーまんきっずさいえんすろぼっときょーしつあどばいざー、ろぼっとせんもんてんろぼべーすこもん。	NO_LABEL
グローブライド株式会社社外取締役。	ぐろーぶらいどかぶしきがいしゃしゃがいとりしまりやく。	NO_LABEL
大阪府出身。	おーさかふしゅっしん。	NO_LABEL
大阪、滋賀、カナダで育つ。	おーさか、しが、かなだでそだつ。	NO_LABEL
比叡山中学校、立命館高等学校を経て、立命館大学産業社会学部に入学、1年間留学し1998年卒業。	ひえいざんちゅうがっこー、りつめいかんこーとーがっこーをへて、りつめいかんだいがくさんぎょーしゃかいがくぶににゅーがく、いちねんかんりゅーがくしせんきゅうひゃくきゅうじゅうはちねんそつぎょー。	NO_LABEL
数社から内定を得ていたが、納得できるものではなく、子どものころの夢であるロボット作りが忘れられず、内定辞退。	すーしゃからないていをえていたが、なっとくできるものでわなく、こどものころのゆめであるろぼっとずくりがわすれられず、ないていじたい。	NO_LABEL
予備校に入学。	よびこーににゅーがく。	NO_LABEL
翌年、京都大学工学部に再入学。	よくねん、きょーとだいがくこーがくぶにさいにゅーがく。	NO_LABEL
在学中に2足歩行ロボットを開発し、関西テクノアイデアコンテストグランプリを受賞。	NO_PRONOUNCE	NO_LABEL
2003年に物理工学科メカトロニクス研究室を卒業。	にせんさんねんにぶつりこーがっかめかとろにくすけんきゅーしつをそつぎょー。	NO_LABEL
同年に、個人事務所「ロボ･ガレージ」を創業。	NO_PRONOUNCE	NO_LABEL
2004年には代表作「クロイノ」が米タイム誌で「最もクールな発明」に選ばれ、ポピュラーサイエンス誌では「未来を変える33人」の一人に選ばれる。	NO_PRONOUNCE	NO_LABEL
ロボットクリエーターとして、ロボットの研究、設計、デザイン、製作を手がけている。	ろぼっとくりえーたーとして、ろぼっとのけんきゅー、せっけい、でざいん、せいさくをてがけている。	NO_LABEL
ロボットのデザインは、流線型かつ親しみやすさが見て取れる可愛らしいものであり、そのデザインセンスは「鉄腕アトム」をはじめとしたロボットアニメの影響が色濃い。	NO_PRONOUNCE	NO_LABEL
また、従来の2足歩行ロボットは安定のため常に膝を曲げて直立、そのまま移動していたものがよく見られるが、彼が個人製作したロボットは膝を伸ばして直立し、そこから膝を曲げて移動するなど人間の動作にかなり近づいたものが特徴的である。	NO_PRONOUNCE	NO_LABEL
サバンナの八木真澄とは、高校・大学では同窓生だった。	NO_PRONOUNCE	NO_LABEL
