グムンデン郡。	ぐむんでんぐん。	NO_LABEL
郡庁所在地はグムンデン。	ぐんちょーしょざいちわぐむんでん。	NO_LABEL
オーバーエスターライヒ州の南部に位置し、トラウン地方に含まれる。	おーばーえすたーらいひしゅーのなんぶにいちし、とらうんちほーにふくまれる。	NO_LABEL
北西でフェクラブルック郡と、北でヴェルス＝ラント郡と、北東でキルヒドルフ・アン・デア・クレムス郡と、南東でシュタイアーマルク州のリーツェン郡と、南でザルツブルク州のザンクト・ヨーハン・イム・ポンガウ郡およびハライン郡と、南西で同じくザルツブルク州のザルツブルク＝ウムゲーブング郡と接する。	NO_PRONOUNCE	NO_LABEL
グムンデン郡には以下の20の市町村がある。	NO_PRONOUNCE	NO_LABEL
そのうちバート・イシュルとグムンデンおよびラーキルヒェンが市に、7つが町に指定されている。	そのうちばーといしゅるとぐむんでんおよびらーきるひぇんがしに、ななつがまちにしていされている。	NO_LABEL
