嫥子女王- 永保元年6月16日）は村上天皇第7皇子具平親王の三女。	NO_PRONOUNCE	NO_LABEL
母は為平親王の次女。	ははわためひらしんのーのじじょ。	NO_LABEL
後一条天皇時の斎宮、後に藤原教通の正室。	ごいちじょーてんのーじのさいぐー、のちにふじわらののりみちのせいしつ。	NO_LABEL
弟に源師房、姉に隆姫女王、敦康親王妃がいる。	おとーとにみなもとのもろふさ、あねにたかひめじょおー、あつやすしんのーひがいる。	NO_LABEL
長和5年2月19日、後一条天皇の即位に伴い、斎宮に卜定される。	おさわごねんにがつじゅうきゅうにち、ごいちじょーてんのーのそくいにともない、さいぐーにぼくじょーされる。	NO_LABEL
寛仁2年伊勢に群行。	かんじんにねんいせにぐんこー。	NO_LABEL
万寿2年、勅使を迎えて裳着が行われた。	まんすにねん、ちょくしをむかえてもぎがおこなわれた。	NO_LABEL
長元4年、酒乱に乗じて伊勢神宮の荒魂と称して託宣を下し、斎宮権頭藤原相通夫妻の不正、また朝廷の斎宮祭祀軽視を非難する。	ながもとよんねん、しゅらんにじょーじていせじんぐーのあらたまとしょーしてたくせんをくだし、いつきごんどーふじわらそーつーふさいのふせい、またちょーていのさいぐーさいしけいしをひなんする。	NO_LABEL
長元9年4月17日、後一条天皇の崩御により退下。	ながもときゅうねんしがつじゅうしちにち、ごいちじょーてんのーのほーぎょによりしさした。	NO_LABEL
永承6年、3年前に禔子内親王を亡くした藤原教通の継室となった。	NO_PRONOUNCE	NO_LABEL
教通との間に子はなかった。	きょーどーりとのまにこわなかった。	NO_LABEL
永保元年、77歳で薨去。	ながほがんねん、ななじゅうななさいでこーきょ。	NO_LABEL
長元4年6月17日、月次祭に奉仕中に神がかりの状態となり、神宮祭主大中臣輔親に託宣を下した。	ながもとよんねんろくがつじゅうしちにち、つきなみさいにほーしちゅーにかみがかりのじょーたいとなり、じんぐーさいしゅおーなかとみのすけちかにたくせんをくだした。	NO_LABEL
斎宮権頭藤原相通とその妻藤原小忌古曾の不正を糾弾し、また斎宮の冷遇は天皇の失政であると朝廷を非難した。	いつきごんどーふじわらしょーどーりとそのつまふじわらのこぎこそのふせいをきゅーだんし、またさいぐーのれいぐーわてんのーのしっせいであるとちょーていをひなんした。	NO_LABEL
朝廷で対応が話し合われ、藤原実資は『小右記』に「斎王が託宣を告げるなどということは、前代未聞」と記している。	NO_PRONOUNCE	NO_LABEL
藤原相通夫妻はそれぞれ流罪となった。	ふじわらそーつーふさいわそれぞれるざいとなった。	NO_LABEL
託宣の際に大中臣輔親と交わした和歌が『後拾遺集』に載せられている。	NO_PRONOUNCE	NO_LABEL
「さかづきにさやけき影のみえぬれば　ちりのおそりはあらじとをしれ」	NO_PRONOUNCE	NO_LABEL
輔親の返歌「おほぢちゝむまごすけちかみよまでに　いたゞきまつるすべらおほんがみ」	NO_PRONOUNCE	NO_LABEL
