埼玉県第3区は、かつて存在した衆議院の選挙区。	さいたまけんだいさんくわ、かつてそんざいしたしゅーぎいんのせんきょく。	NO_LABEL
1947年の第23回衆議院議員総選挙から設置された。	せんきゅうひゃくよんじゅうななねのだいにじゅうさんかいしゅーぎーんぎーんそーせんきょからせっちされた。	NO_LABEL
廃止に至るまで定数は3である。	NO_PRONOUNCE	NO_LABEL
1966年に選挙区から選出されていた荒舩清十郎が運輸大臣となり、選挙区内の深谷駅に急行を停車させるダイヤ改正を行なったことを批判されて大臣辞任に追い込まれている。	せんきゅうひゃくろくじゅうろくねんにせんきょくからせんしゅつされていたあらふねせいじゅーろーがうんゆだいじんとなり、せんきょくないのふかやえきにきゅーこーをていしゃさせるだいやかいせいをおこなったことをひはんされてだいじんじにんにおいこまれている。	NO_LABEL
※自治体の名称は第40回衆議院議員総選挙時点のものである。	NO_PRONOUNCE	NO_LABEL
現在の埼玉県第11区、埼玉県第12区の一部の区域が中選挙区時代の埼玉県第3区である。	げんざいのさいたまけんだいじゅういちく、さいたまけんだいじゅうにくのいちぶのくいきがちゅーせんきょくじだいのさいたまけんだいさんくである。	NO_LABEL
第40回衆議院議員総選挙　7月18日執行）	NO_PRONOUNCE	NO_LABEL
当日有権者数：475,569人 　投票率：69.93%	NO_PRONOUNCE	NO_LABEL
第39回衆議院議員総選挙　2月18日執行）	NO_PRONOUNCE	NO_LABEL
当日有権者数：447,585人 　投票率：75.08%	NO_PRONOUNCE	NO_LABEL
第38回衆議院議員総選挙　7月6日執行）	NO_PRONOUNCE	NO_LABEL
当日有権者数：424,605人 　投票率：76.50%	NO_PRONOUNCE	NO_LABEL
第37回衆議院議員総選挙　12月18日執行）	NO_PRONOUNCE	NO_LABEL
当日有権者数：411,592人 　投票率：70.51%	NO_PRONOUNCE	NO_LABEL
第36回衆議院議員総選挙　6月22日執行）	NO_PRONOUNCE	NO_LABEL
当日有権者数：393,663人 　投票率：71.25%	NO_PRONOUNCE	NO_LABEL
第35回衆議院議員総選挙　10月7日執行）	NO_PRONOUNCE	NO_LABEL
当日有権者数：389,775人 　投票率：71.56%	NO_PRONOUNCE	NO_LABEL
第34回衆議院議員総選挙　12月5日執行）	NO_PRONOUNCE	NO_LABEL
当日有権者数：379,377人 　投票率：71.08%	NO_PRONOUNCE	NO_LABEL
第33回衆議院議員総選挙　12月10日執行）	NO_PRONOUNCE	NO_LABEL
当日有権者数：353,157人 　投票率：76.31%	NO_PRONOUNCE	NO_LABEL
第32回衆議院議員総選挙　12月27日執行）	NO_PRONOUNCE	NO_LABEL
当日有権者数：332,662人 　投票率：69.52%	NO_PRONOUNCE	NO_LABEL
第31回衆議院議員総選挙　1月29日執行）	NO_PRONOUNCE	NO_LABEL
当日有権者数：307,694人 　投票率：74.67%	NO_PRONOUNCE	NO_LABEL
第30回衆議院議員総選挙　11月21日執行）	NO_PRONOUNCE	NO_LABEL
当日有権者数：298,477人 　投票率：76.28%	NO_PRONOUNCE	NO_LABEL
第29回衆議院議員総選挙　11月20日執行）	NO_PRONOUNCE	NO_LABEL
当日有権者数：288,166人 　投票率：73.43%	NO_PRONOUNCE	NO_LABEL
第28回衆議院議員総選挙　5月22日執行）	NO_PRONOUNCE	NO_LABEL
当日有権者数：280,304人 　投票率：82.86%	NO_PRONOUNCE	NO_LABEL
第27回衆議院議員総選挙　2月27日執行）	NO_PRONOUNCE	NO_LABEL
当日有権者数：270,436人 　投票率：82.81%	NO_PRONOUNCE	NO_LABEL
第26回衆議院議員総選挙　4月19日執行）	NO_PRONOUNCE	NO_LABEL
当日有権者数：262,656人 　投票率：84.10%	NO_PRONOUNCE	NO_LABEL
第25回衆議院議員総選挙　10月1日執行）	NO_PRONOUNCE	NO_LABEL
当日有権者数：264,494人 　投票率：85.41%	NO_PRONOUNCE	NO_LABEL
第24回衆議院議員総選挙　1月23日執行）	NO_PRONOUNCE	NO_LABEL
当日有権者数：258,673人 　投票率：83.57%	NO_PRONOUNCE	NO_LABEL
第23回衆議院議員総選挙　4月25日執行）	NO_PRONOUNCE	NO_LABEL
当日有権者数：257,044人 　投票率：74.02%	NO_PRONOUNCE	NO_LABEL
