沖縄尚学高等学校・附属中学校は、沖縄県那覇市国場にある私立中学校・高等学校。	NO_PRONOUNCE	NO_LABEL
県内での略称は「沖尚」または「尚学」。	NO_PRONOUNCE	NO_LABEL
全国私立寮制学校協議会には幹事校として参加している。	ぜんこくしりつりょーせいがっこーきょーぎかいにわかんじこーとしてさんかしている。	NO_LABEL
当初は沖縄大学を経営する学校法人嘉数学園が経営していたが、現在の設置者は学校法人尚学学園である。	とーしょわおきなわだいがくをけいえいするがっこーほーじんかかずがくえんがけいえいしていたが、げんざいのせっちしゃわがっこーほーじんしょがくがくえんである。	NO_LABEL
中高一貫制だが高校からの入学を志願する者も多い。	ちゅうこういっかんせいだがこーこーからのにゅーがくをしがんするものもおーい。	NO_LABEL
海外の大学進学等を目指す国際文化科学コースが設置されている。	かいがいのだいがくしんがくとーをめざすこくさいぶんかかがくこーすがせっちされている。	NO_LABEL
沖縄県の大学予備校・尚学院と直接的な繋がりがあり連携している。	NO_PRONOUNCE	NO_LABEL
また、東京大学・京都大学を初めとしたトップ難関校への現役進学実績も挙げており、県内有数の進学校でもある。	NO_PRONOUNCE	NO_LABEL
　	NO_PRONOUNCE	NO_LABEL
上記の内、体育コースを除いた7コースをまとめて「特進コース」と呼ぶこともある。	NO_PRONOUNCE	NO_LABEL
沖縄大学前バス停下車、徒歩すぐ。	おきなわだいがくぜんばすていげしゃ、とほすぐ。	NO_LABEL
