ブラックコホシュはキンポウゲ科の植物で、原産地は北アメリカである。	ぶらっくこほしゅわきんぽーげかのしょくぶつで、げんさんちわきたあめりかである。	NO_LABEL
古くからハーブとして使用されてきた。	ふるくからはーぶとしてしよーされてきた。	NO_LABEL
北アメリカの肥沃な広々とした林地にみられ、約150 cmくらいの高さに育ち、盛夏に香りの良い白い花を咲かす。	NO_PRONOUNCE	NO_LABEL
その後、秋に繁殖する。	そのご、あきにはんしょくする。	NO_LABEL
根茎は木質になり、大きな卵形の葉の縁は刻々で、3つの小葉からなる。	こんけいわもくしつになり、おーきなたまごがたのはのえんわこっこくで、みっつのおばからなる。	NO_LABEL
ブラックコホシュの英名の１つ、「cimicifuga」は「cimex：虫」と「fugere：逃げる」という意味に由来し、ブラックコホシュの強い臭いが虫除けになることに由来する。	NO_PRONOUNCE	NO_LABEL
ブラックコホシュという名前は、根茎が黒味がかっていることからついたと言われている。	ぶらっくこほしゅとゆうなまえわ、こんけいがくろみがかっていることからついたといわれている。	NO_LABEL
ブラックコホシュは、ネイティブアメリカンの間で古くから、婦人病や咽頭炎等に用いられていたという歴史があり、その後ヨーロッパからアメリカにやってきた入植者達に伝わり、今も使用されている。	ぶらっくこほしゅわ、ねいてぃぶあめりかんのまでふるくから、ふじんびょーやいんとーえんとーにもちいられていたとゆうれきしがあり、そのごよーろっぱからあめりかにやってきたにゅーしょくしゃたちにつたわり、いまもしよーされている。	NO_LABEL
1830年の米国薬局方にその名が掲載されている。	せんはっぴゃくさんじゅうねんのべいこくやっきょくほーにそのながけいさいされている。	NO_LABEL
現代においてはサプリメントとして広く使用されており、特に、月経前症候群と更年期障害の緩和・改善や骨粗しょう症予防に用いられている。	NO_PRONOUNCE	NO_LABEL
同じキンポウゲ科のホワイトコホシュ、また、メギ科のブルーコホシュと名前の類似から混同して、同様に用いてはならない。	おなじきんぽーげかのほわいとこほしゅ、また、めぎかのぶるーこほしゅとなまえのるいじからこんどーして、どーよーにもちいてわならない。	NO_LABEL
その性質、副作用等がブラックコホシュとは異なる。	そのせいしつ、ふくさよーとーがぶらっくこほしゅとわことなる。	NO_LABEL
