「君がくれた世界」は、春奈るなの3枚目のシングル。	NO_PRONOUNCE	NO_LABEL
2013年5月15日にSME Recordsから発売された。	にせんじゅうさんねんごがつじゅうごにちにえすえむいーれこーずからはつばいされた。	NO_LABEL
「Overfly」から約5ヶ月半ぶり、2013年にリリースされるシングル3作のうち1作目のシングルである。	NO_PRONOUNCE	NO_LABEL
販売形態は初回生産限定盤、通常盤の2種リリースで、タイトル曲「君がくれた世界」の他、映画「フジミ姫～あるゾンビ少女の災難～」の挿入歌「とこしえロンド」とマチゲリータによる世界観あふれる「煌く星の病」の計３曲が収録されている	NO_PRONOUNCE	NO_LABEL
初回生産限定盤には、「君がくれた世界」のMusic Video，そのメイキング映像，レコーディングとジャケットのメイキング映像，雑誌「KERA」表紙撮影のメイキング映像，同雑誌の春奈るな×深澤翠 Photo Session のメイキング映像が収録されている	NO_PRONOUNCE	NO_LABEL
「君がくれた世界の」のメロディに関しては，自身が「私の1stシングル"空は高く風は歌う"の壮大さと、2ndシングル"Overfly"の爽やかさとキャッチーなメロディーをミックスさせたような聴き心地のいい1曲になっています！」と説明している	NO_PRONOUNCE	NO_LABEL
