ポール・ニューマンはアメリカ合衆国の俳優である。	ぽーるにゅーまんわあめりかがっしゅーこくのはいゆーである。	NO_LABEL
3度のアカデミー賞受賞を初めとして数多くの受賞歴を持つ。	さんどのあかでみーしょーじゅしょーをはじめとしてすーおーくのじゅしょーれきをもつ。	NO_LABEL
また食品製造会社「ニューマンズ・オウン」の設立者であり、1982年の設立以降挙げた純利益2億2千万ドルを全額寄付。	NO_PRONOUNCE	NO_LABEL
その他レーサー、政治運動家としても多くの功績を残した。	そのたれーさー、せいじうんどーかとしてもおーくのこーせきをのこした。	NO_LABEL
1950年代以降半世紀以上にわたり第一線で活躍した人物である。	せんきゅうひゃくごじゅうねんだいいこーはんせいきいじょーにわたりだいいっせんでかつやくしたじんぶつである。	NO_LABEL
オハイオ州クリーブランドで、スポーツ用品店を経営するハンガリー系ユダヤ人の父・アーサーと同じくカトリックの母・テレサとの間に生まれる。	NO_PRONOUNCE	NO_LABEL
幼い頃は脆弱で学校でいじめを受けていた。	おさないころわぜいじゃくでがっこーでいじめをうけていた。	NO_LABEL
7歳の時、演劇好きの母の勧めで児童演劇団に入団。	ななさいのとき、えんげきすきのははのすすめでじどーえんげきだんににゅーだん。	NO_LABEL
『ロビン・フッド』の道化師役で舞台に立つもポールは演劇に関心を示さなかった。	NO_PRONOUNCE	NO_LABEL
12歳の時、クリーブランドの児童演劇部に入部。	じゅうにさいのとき、くりーぶらんどのじどーえんげきぶににゅーぶ。	NO_LABEL
高校卒業後は定職に就かず百科事典の訪問販売などで生計を立てていた。	こーこーそつぎょーごわていしょくにつかずひゃっかじてんのほーもんはんばいなどでせいけいをたてていた。	NO_LABEL
その後、家業を継ぐためにアセンズのオハイオ大学経済学部で学ぶが第二次世界大戦が勃発し海軍に入隊。	そのご、かぎょーをつぐためにあせんずのおはいおだいがくけいざいがくぶでがくぶがだいにじせかいたいせんがぼっぱつしかいぐんににゅーたい。	NO_LABEL
航空機操縦士を志願するが色盲により叶わず、爆撃機や雷撃機の後部銃座手の訓練を受ける。	こーくーきそーじゅーしをしがんするがしきもーによりかなわず、ばくげききやらいげききのこーぶじゅーざしゅのくんれんをうける。	NO_LABEL
1944年、航空機無線手としてハワイのバーバーズポイントに割り当てられ、その後雷撃隊に配置される。	せんきゅうひゃくよんじゅうよねん、こーくーきむせんしゅとしてはわいのばーばーずぽいんとにわりあてられ、そのごらいげきたいにはいちされる。	NO_LABEL
TBF/TBM アベンジャーの後部銃座手となり1945年春、空母・バンカーヒルに乗艦し沖縄戦に参加。	NO_PRONOUNCE	NO_LABEL
終戦後にオハイオ大学を経て進学したケニヨン・カレッジではフットボールに打ち込むも、チーム内の喧嘩が原因で除名処分を受けたため子供の頃に学んだ演劇の道を志す。	NO_PRONOUNCE	NO_LABEL
卒業後、地方の劇団を渡り歩き演劇の修行に励む傍ら1949年に結婚。	そつぎょーご、ちほーのげきだんをわたりあるきえんげきのしゅぎょーにはげむかたわらせんきゅうひゃくよんじゅうきゅうねんにけっこん。	NO_LABEL
翌年に父親が他界すると一旦家業を継いだが、演劇講師になるための学費を工面するために父の代から続いた店を売却。	よくねんにちちおやがたかいするといったんかぎょーをついだが、えんげきこーしになるためのがくひをくめんするためにちちのだいからつずいたみせをばいきゃく。	NO_LABEL
進学先であるイェール大学大学院で披露した演技がプロデューサーの目に留まり、ニューヨークに招かれた。	しんがくさきであるいぇーるだいがくだいがくいんでひろーしたえんぎがぷろでゅーさーのめにとまり、にゅーよーくにまねかれた。	NO_LABEL
テレビドラマや舞台における演技が認められ、1952年にジェームズ・ディーンやマーロン・ブランドと共にアクターズ・スタジオに入学。	てれびどらまやぶたいにおけるえんぎがみとめられ、せんきゅうひゃくごじゅうにねんにじぇーむずでぃーんやまーろんぶらんどとともにあくたーずすたじおににゅーがく。	NO_LABEL
初の大役となったブロードウェイの舞台『ピクニック』での演技が映画関係者から高い評価を受け、ワーナー・ブラザースと5年間の専属契約を交わす。	NO_PRONOUNCE	NO_LABEL
アクターズ・スタジオに同期で入学したディーンが主役を演じた『エデンの東』では当初主人公の兄を演じる予定でスクリーン・テストまで行ったものの、監督のエリア・カザンがニューマンの出演を却下。	NO_PRONOUNCE	NO_LABEL
1954年に『銀の盃』でスクリーンデビューを果たすものの、作品自体が映画評論家から失敗作の烙印を押されるという不本意なデビューとなった。	NO_PRONOUNCE	NO_LABEL
ディーンとブランドがそれぞれ『エデンの東』『波止場』で世界的トップスターへと上り詰める一方でニューマンは満足のいく作品に出演できないうえ、スタジオや批評家から「第2のマーロン・ブランド」と称されることに失望し映画を離れ活動の拠点を舞台とテレビドラマへ移した。	NO_PRONOUNCE	NO_LABEL
舞台とテレビドラマにおける演技が賞賛されたニューマンは、ディーンの急逝により主演のポストが空白となっていた映画『傷だらけの栄光』に、監督のロバート・ワイズの依頼を受け出演。	NO_PRONOUNCE	NO_LABEL
実在のプロボクサー、ロッキー・グラジアノの話し方や癖を模倣するなど徹底した役作りを敢行した末に臨んだ同作は高く評価され、一躍注目を浴びる存在となった。	じつざいのぷろぼくさー、ろっきーぐらじあののはなしかたやくせをもほーするなどてっていしたやくずくりをかんこーしたすえにのぞんだどーさくわたかくひょーかされ、いちやくちゅーもくをあびるそんざいとなった。	NO_LABEL
1956年に最初の妻と離婚。	せんきゅうひゃくごじゅうろくねんにさいしょのつまとりこん。	NO_LABEL
1958年、先述の舞台『ピクニック』で知り合った女優、ジョアン・ウッドワードと映画『長く熱い夜』での再共演を機に再婚。	NO_PRONOUNCE	NO_LABEL
3人の娘をもうける鴛鴦夫婦となる。	さんにんのむすめをもーけるおしどりふーふとなる。	NO_LABEL
さらに同年の映画『熱いトタン屋根の猫』で初めてアカデミー主演男優賞にノミネートされるなど、公私共に充実した時期を迎えた。	NO_PRONOUNCE	NO_LABEL
1960年代はニューマンにとって順風満帆そのものであった。	せんきゅうひゃくろくじゅうねんだわにゅーまんにとってじゅんぷーまんぱんそのものであった。	NO_LABEL
1961年の『ハスラー』で英国アカデミー賞の男優賞を受賞すると1963年の『ハッド』での受賞を機に1965年と1967年の3度、ゴールデングローブ賞の「世界で最も好かれた男優」に選出された。	NO_PRONOUNCE	NO_LABEL
さらに、妻のジョアン・ウッドワードーを主演に起用した初監督作品『レーチェル レーチェル』では同年度のアカデミー賞で作品賞を初めとした4部門にノミネートされたほか、ゴールデングローブ賞とニューヨーク映画批評家協会賞では監督賞受賞に加えて妻に女優賞をもたらした。	NO_PRONOUNCE	NO_LABEL
1969年にロバート・レッドフォードと共演したアメリカン・ニューシネマの西部劇『明日に向って撃て!』は生涯最高のヒットを記録。	NO_PRONOUNCE	NO_LABEL
マネー・メイキングスターの1位に選出され、世界的トップスターとしての地位を不動のものにした。	NO_PRONOUNCE	NO_LABEL
さらに製作者としての飛躍を求めてシドニー・ポワチエ、バーブラ・ストライサンドと共に映画製作会社「ファースト・アーティスツ」を設立した。	NO_PRONOUNCE	NO_LABEL
1973年の監督作品『まだらキンセンカにあらわれるガンマ線の影響』では、再び妻のジョアン・ウッドワードーを主演として、妻がカンヌ国際映画祭女優賞を受賞。	NO_PRONOUNCE	NO_LABEL
同作には、ジョアンとの娘であるネル・ポッツが、娘役で出演している。	NO_PRONOUNCE	NO_LABEL
「ファースト・アーティスツ」設立後初めて製作を担当した映画『レーサー』でのレーシング・スクールへの参加を機にカーレースに熱中するようになり、44歳にしてレーサーとしてプロフェショナルデビューを果たした。	NO_PRONOUNCE	NO_LABEL
俳優業でも成功は続き、レッドフォードとの競演した1973年の『スティング』は、同年度のアカデミー作品賞を受賞。	NO_PRONOUNCE	NO_LABEL
翌1974年の『タワーリング・インフェルノ』での報酬は100万$に達し、前妻との息子スコット・ニューマンとの共演も実現した。	NO_PRONOUNCE	NO_LABEL
ジョン・F・ケネディ政権時の1961年より始められたベトナムにおけるアメリカ軍の派兵拡大を目の当たりにしたニューマンは、1960年代から1970年代にかけて積極的な反戦運動ならびに公民権運動を展開。	じょんえふけねでぃせいけんじのせんきゅうひゃくろくじゅういちねんよりはじめられたべとなむにおけるあめりかぐんのはへいかくだいをまのあたりにしたにゅーまんわ、せんきゅうひゃくろくじゅうねんだからせんきゅうひゃくななじゅうねんだいにかけてせっきょくてきなはんせんうんどーならびにこーみんけんうんどーをてんかい。	NO_LABEL
活発な運動と過激な発言は、1973年に行われたアメリカ軍のベトナムからの撤退を指揮したリチャード・ニクソン大統領までをも敵に回す結果になり、1973年にホワイトハウスが公表したブラックリストにその氏名が記載された。	かっぱつなうんどーとかげきなはつげんわ、せんきゅうひゃくななじゅうさんねんにおこなわれたあめりかぐんのべとなむからのてったいをしきしたりちゃーどにくそんだいとーりょーまでをもてきにまわすけっかになり、せんきゅうひゃくななじゅうさんねんにほわいとはうすがこーひょーしたぶらっくりすとにそのしめいがきさいされた。	NO_LABEL
レーサーとしては1977年のデイトナ24時間レースで5位、1979年のル・マン24時間レースでは2位を記録するなど、華やかな成功を収めた。	れーさーとしてわせんきゅうひゃくななじゅうななねんのでいとなにじゅうよじかんれーすでごい、せんきゅうひゃくななじゅうきゅうねんのるまんにじゅうよじかんれーすでわにーをきろくするなど、はなやかなせいこーをおさめた。	NO_LABEL
1975年にはカール・ハースとともにニューマン・ハース・レーシングを結成し、CARTに参戦した。	NO_PRONOUNCE	NO_LABEL
その一方で俳優業は不振が続き『タワーリング・インフェルノ』のアーウィン・アレンと再びタッグを組んだパニック映画『世界崩壊の序曲』は興行的に大失敗したうえ批評家からは「史上最低のパニック映画」と酷評され、ポール自身も同作への出演を後悔する旨の発言をする始末であった。	NO_PRONOUNCE	NO_LABEL
さらに1978年には、息子スコットが酒とドラッグに溺れ命を落とした。	さらにせんきゅうひゃくななじゅうはちねんにわ、むすこすこっとがさけとどらっぐにおぼれいのちをおとした。	NO_LABEL
愛息の死を嘆いたポールは、麻薬撲滅運動の展開を決意。	あいそくのしをなげいたぽーるわ、まやくぼくめつうんどーのてんかいをけつい。	NO_LABEL
ドラッグで命を絶たれた息子の名を冠した「スコット・ニューマン基金」を設立 し、ドラッグの弊害を描いた映画やテレビ番組に対する資金提供を行っている。	NO_PRONOUNCE	NO_LABEL
1970年代後半は不振続きであった俳優業も、1980年代に入ると1981年の『スクープ 悪意の不在』から『アパッチ砦・ブロンクス』『評決』と立て続けに出演した社会派作品でリアリティのある演技を披露し新境地を開拓した。	NO_PRONOUNCE	NO_LABEL
また自家製のサラダを自慢していたニューマンは1982年、冗談半分で食品会社「ニューマンズ・オウン」を設立した。	NO_PRONOUNCE	NO_LABEL
極力食品添加物を排除したフレンチ・ドレッシングやランチドレッシングは好評を博し、スパゲッティーのソースやポップコーンの販売にも着手する。	NO_PRONOUNCE	NO_LABEL
日本では日本アムウェイが商品の販売に参入するなどポールの知名度も相乗効果を齎し、瞬く間に世界規模での事業拡大に成功。	にっぽんでわにほんあむうぇいがしょーひんのはんばいにさんにゅーするなどぽーるのちめいどもそーじょーこーかをもたらし、まどかくかんにせかいきぼでのじぎょーかくだいにせいこー。	NO_LABEL
純利益を全額、貧困に喘ぐ子供たちに寄付している。	じゅんりえきをぜんがく、ひんこんにあえぐこどもたちにきふしている。	NO_LABEL
俳優としても1983年にゴールデングローブ賞の生涯功労賞に相当するセシル・B・デミル賞を受賞。	はいゆーとしてもせんきゅうひゃくはちじゅうさんねんにごーるでんぐろーぶしょーのしょーがいこーろーしょーにそーとーするせしるびーでみるしょーをじゅしょー。	NO_LABEL
さらに1985年、長年の功績を称えられアカデミー名誉賞を受賞。	さらにせんきゅうひゃくはちじゅうごねん、ながねんのこーせきをとなえられあかでみーめいよしょーをじゅしょー。	NO_LABEL
翌1986年には『ハスラー2』での演技が認められアカデミー主演男優賞を受賞。	NO_PRONOUNCE	NO_LABEL
2年連続でオスカー像が授与され、世界的にその名を残す人物となった。	にねんれんぞくでおすかーぞーがじゅよされ、せかいてきにそのなをのこすじんぶつとなった。	NO_LABEL
還暦を超えても第一線での映画出演を続けたニューマンは、1994年の『ノーバディーズ・フール』でベルリン国際映画祭などで数多くの男優賞を受賞。	NO_PRONOUNCE	NO_LABEL
2002年の『ロード・トゥ・パーディション』で9度目となるアカデミー賞ノミネートを果たすと、80歳を迎えた2005年にはテレビドラマ『追憶の街 エンパイア・フォールズ』でゴールデングローブ賞とエミー賞を受賞。	NO_PRONOUNCE	NO_LABEL
2006年には、ピクサーのアニメーション映画『カーズ』でメインキャストのドック・ハドソン役で声の出演を担当。	NO_PRONOUNCE	NO_LABEL
止め処無く活躍を続けるニューマンに対し一部映画関係者からロバート・レッドフォードとの最後の共演作品が企画されるなどしていたが2007年5月25日、出演したABCテレビの番組において加齢による演技力・記憶力の衰退から自分の納得する演技が不可能になったと語り、俳優としての活動を引退することを正式に発表した。	NO_PRONOUNCE	NO_LABEL
ニューマンにとって私生活での著名な活動の1つである「ニューマンズ・オウン」は四半世紀に及ぶ運営で挙げた2億2000万$の純利益を全額恵まれない子供たちに寄付。	NO_PRONOUNCE	NO_LABEL
1993年にはその功績に対しアカデミー賞のジーン・ハーショルト友愛賞が贈られた。	せんきゅうひゃくきゅうじゅうさんねんにわそのこーせきにたいしあかでみーしょーのじーんはーしょるとゆーあいしょーがおくられた。	NO_LABEL
俳優としての活動に終止符を打った後は、これらの事業や家族とのコミュニケーションに専念する意向を示していた。	はいゆーとしてのかつどーにしゅーしふをうったのちわ、これらのじぎょーやかぞくとのこみゅにけーしょんにせんねんするいこーをしめしていた。	NO_LABEL
2007年6月、中西部オハイオ州ガンビアの母校ケニヨン大に対し、奨学基金の設立資金として1000万ドルの寄付を申し出た。	にせんななねんろくがつ、ちゅーせいぶおはいおしゅーがんびあのぼこーけによんだいにたいし、しょーがくききんのせつりつしきんとしてせんまんどるのきふをもーしでた。	NO_LABEL
今回の寄付について「母校への個人的愛情や恩義」と説明。	NO_PRONOUNCE	NO_LABEL
奨学金は家庭の事情で学費が払えない非白人のマイノリティーの学生らに支給されていくという。	しょーがくきんわかていのじじょーでがくひがはらえないひはくじんのまいのりてぃーのがくせいらにしきゅーされていくという。	NO_LABEL
2008年5月に同年後半に予定していた舞台の監督を健康面を理由に降板すると発表して以降、健康状態について末期の肺がんで闘病生活を送っているとの報道が相次いでなされ配給会社は「元気でやっている」とだけのコメントを発表をした。	NO_PRONOUNCE	NO_LABEL
その後報道は鎮静化。	そのごほーどーわちんせいか。	NO_LABEL
一時がんの化学治療のためニューヨークの専門病院に入院していたが経過は芳しくなく8月に退院し自宅治療に専念。	いちじがんのかがくちりょーのためにゅーよーくのせんもんびょーいんににゅーいんしていたがけいかわかんばしくなくはちがつにたいいんしじたくちりょーにせんねん。	NO_LABEL
現地時間の2008年9月26日、コネチカット州ウェストポートの私邸に於いて死去。	げんちじかんのにせんはちねんくがつにじゅうろくにち、こねちかっとしゅーうぇすとぽーとのしていにおいてしきょ。	NO_LABEL
