平松 晶子は、日本の女性声優。	ひらまつあきこわ、にっぽんのじょせいせいゆー。	NO_LABEL
賢プロダクション所属。	けんぷろだくしょんしょぞく。	NO_LABEL
かつては81プロデュースに所属していた。	かつてわえいてぃーわんぷろでゅーすにしょぞくしていた。	NO_LABEL
東京都出身。	とーきょーとしゅっしん。	NO_LABEL
血液型はO型。	けつえきがたわおーがた。	NO_LABEL
東京アニメーション養成所卒業。	とーきょーあにめーしょんよーせいしょそつぎょー。	NO_LABEL
愛称はぴら・ピラりん。	NO_PRONOUNCE	NO_LABEL
中学生まではスポーツばかりやっている少女だったが、漫画『気分はグルービー』に影響され、高校に入ってからはバンドを組むことを考えていたが、メンバーが揃わないために断念。	NO_PRONOUNCE	NO_LABEL
その内に興味がアニメーションの方に傾き、『銀河鉄道999』や『魔法の天使クリィミーマミ』などを見ていて、声優という職業を知り、養成所に通う。	NO_PRONOUNCE	NO_LABEL
デビュー作は1986年の『めぞん一刻』第27話。	NO_PRONOUNCE	NO_LABEL
初レギュラーは1987年の『機甲戦記ドラグナー』のローズ・パテントン役。	NO_PRONOUNCE	NO_LABEL
林原めぐみ・白鳥由里らと仲が良い。	NO_PRONOUNCE	NO_LABEL
林原が産休の時に『ポケットモンスター アドバンスジェネレーション』のムサシ役を代わって務めた。	NO_PRONOUNCE	NO_LABEL
レオナルド・ディカプリオの大ファン。	れおなるどでぃかぷりおのだいふぁん。	NO_LABEL
また、たれぱんだが好きとのことである。	また、たれぱんだがすきとのことである。	NO_LABEL
太字はメインキャラクター。	ふとじわめいんきゃらくたー。	NO_LABEL
