「雪のないクリスマス」は、田原俊彦の楽曲で、45枚目のシングル。	NO_PRONOUNCE	NO_LABEL
1994年11月2日に発売。	せんきゅうひゃくきゅうじゅうよねんじゅーいちがつふつかにはつばい。	NO_LABEL
ジャニーズ事務所を独立し、個人事務所『DOUBLE T PROJECT』を設立して初のシングルで、表題曲はフジテレビ系『おはよう!ナイスデイ』エンディングテーマ。	NO_PRONOUNCE	NO_LABEL
ポニーキャニオンの制作ディレクターであった羽島亨が、本作ではじめて「プロデューサー」とクレジットされた。	NO_PRONOUNCE	NO_LABEL
なお、本作のサウンドプロデューサーは、これまで田原の作品で数多くの編曲を手がけた船山基紀。	なお、もとさくのさうんどぷろでゅーさーわ、これまでたはらのさくひんですーおーくのへんきょくをてがけたふなやまもとき。	NO_LABEL
