リナマリンシンターゼは、以下の化学反応を触媒する酵素である。	りなまりんしんたーぜわ、いかのかがくはんのーをしょくばいするこーそである。	NO_LABEL
従って、この酵素の2つの基質はウリジン二リン酸グルコースと2-ヒドロキシ-2-メチルプロパンニトリル、2つの生成物はウリジン二リン酸とリナマリンである。	NO_PRONOUNCE	NO_LABEL
この酵素は、グリコシルトランスフェラーゼ、特にヘキソシルトランスフェラーゼに分類される。	このこーそわ、ぐりこしるとらんすふぇらーぜ、とくにへきそしるとらんすふぇらーぜにぶんるいされる。	NO_LABEL
系統名は、UDP-グルコース:2-ヒドロキシ-2-メチルプロパンニトリル 6-β-D-フルクトシルトランスフェラーゼである。	NO_PRONOUNCE	NO_LABEL
その他よく用いられる名前に、sucrose 6-fructosyltransferase、beta-2,6-fructosyltransferase、beta-2,6-fructan:D-glucose 1-fructosyltransferase等がある。	NO_PRONOUNCE	NO_LABEL
この酵素は、デンプンやスクロースの代謝に関与している。	このこーそわ、でんぷんやすくろーすのたいしゃにかんよしている。	NO_LABEL
2007年末時点で、この酵素の3個の構造が解明されている。	NO_PRONOUNCE	NO_LABEL
蛋白質構造データバンクのコードは、、及びである。	NO_PRONOUNCE	NO_LABEL
