蕭合卓は、遼の政治家。	NO_PRONOUNCE	NO_LABEL
字は合魯隠。	NO_PRONOUNCE	NO_LABEL
契丹突呂不部の出身。	NO_PRONOUNCE	NO_LABEL
はじめ突呂不部の吏となった。	NO_PRONOUNCE	NO_LABEL
統和初年、南院侍郎に任じられた。	とうわしょねん、なんいんじろーににんじられた。	NO_LABEL
18年、北院枢密使韓徳譲の推薦を受けて中丞となった。	じゅうはちねん、きたいんくるるみっしかんとくゆずるのすいせんをうけてちゅーすすむとなった。	NO_LABEL
28年2月、皇太后の命を受けて北宋に使いした。	にじゅうはちねんにがつ、こーたいごーのいのちをうけてほくそーにつかいした。	NO_LABEL
帰国すると、北院枢密副使となった。	きこくすると、きたいんすーみつふくしとなった。	NO_LABEL
開泰3年、左夷離畢となった。	NO_PRONOUNCE	NO_LABEL
合卓は聖宗の側近にいることが長く、典故に明るく、よく助言をおこなった。	ごーたくわせいそーのそっきんにいることがながく、てんこにあかるく、よくじょげんをおこなった。	NO_LABEL
5年4月、北院枢密使に上った。	ごねんしがつ、きたいんくるるみっしにのぼった。	NO_LABEL
6年、合卓が都統となり、王継忠を副都統とし、蕭屈烈を都監として、高麗の興化軍を攻撃したが、勝利できなかった。	NO_PRONOUNCE	NO_LABEL
帰国すると、任用を求める人が門前に列をなしたが、合卓は生活ぶりを変えようとしなかった。	きこくすると、にんよーをもとめるひとがもんぜんにれつをなしたが、ごーたくわせいかつぶりをかえようとしなかった。	NO_LABEL
聖宗はかれの清廉ぶりを知って、皇族の娘を合卓の子の妻とした。	せいそーわかれのせいれんぶりをしって、こーぞくのむすめをごーたくのこのつまとした。	NO_LABEL
太平5年、合卓は病の床についた。	たいへいごねん、ごーたくわやまいのゆかについた。	NO_LABEL
聖宗がかれを見舞おうとしたが、合卓は見苦しいところを見せたくないと言って固辞した。	せいそーがかれをみまおうとしたが、ごーたくわみぐるしいところをみせたくないといってこじした。	NO_LABEL
12月、北府宰相の蕭朴が見舞いに訪れると、合卓はその手を取って、「わたしが死ねば、君は必ず枢密使となろう。	NO_PRONOUNCE	NO_LABEL
自分を越える者を登用してはならない」と遺言した。	NO_PRONOUNCE	NO_LABEL
その日のうちに合卓は死去した。	そのひのうちにごーたくわしきょした。	NO_LABEL
子の蕭烏古は、突呂不部節度使となった。	NO_PRONOUNCE	NO_LABEL
