ヴァイセンブルク＝グンツェンハウゼン郡は、バイエルン州ミッテルフランケン行政管区の西部に位置する郡。	NO_PRONOUNCE	NO_LABEL
隣接する郡は、アンスバッハ郡、ロート郡、アイヒシュテット郡、ドナウ＝リース郡である。	NO_PRONOUNCE	NO_LABEL
一帯はアルトミュール川が造り出した渓谷の北端に当たり、ゾルンホーフェン石灰岩の露頭が点在する。	いったいわあるとみゅーるがわがつくりだしたけいこくのほくたんにあたり、ぞるんほーふぇんせっかいがんのろとーがてんざいする。	NO_LABEL
1972年にグンツェンハウゼン郡とヴァイセンブルク郡および郡独立都市だったヴァイセンブルクが合併して発足した。	NO_PRONOUNCE	NO_LABEL
