『BINGO』とは、OBSラジオで放送されているラジオ番組である。	NO_PRONOUNCE	NO_LABEL
2014年9月29日放送開始。	にせんじゅうよねんくがつにじゅうきゅうにちほーそーかいし。	NO_LABEL
OBSラジオは同年10月改編で、平日朝から日中の午後にかけての生ワイド番組を全て新番組に転換した。	おぶすとらくしょんらじおわどーねんじゅーがつかいへんで、へいじつあさからにっちゅーのごごにかけてのなまわいどばんぐみをすべてしんばんぐみにてんかんした。	NO_LABEL
その中で平日午後に放送されていた「ごごらくワイド」に代わり「スタート!」・「イチスタ☆」と同日に開始されたのが当番組である。	NO_PRONOUNCE	NO_LABEL
番組タイトルは、ビンゴゲームでカードが一列揃った際に発する「ビンゴ!」から、勢いのある番組を目指すこと、聴取者が「ビンゴ!」と思わず発してしまうような、必要とされる情報を伝えたいという思いから命名されたものと紹介している。	NO_PRONOUNCE	NO_LABEL
主要コーナーは「ごごらくワイド」から継承されたものが多い。	NO_PRONOUNCE	NO_LABEL
この中にはIBC岩手放送と共同制作する水曜のコーナー「大分・岩手ホットライン」も含まれている。	NO_PRONOUNCE	NO_LABEL
2018年4月現在。	にせんじゅうはちねんしがつげんざい。	NO_LABEL
北里・安波以外はOBSアナウンサー。	NO_PRONOUNCE	NO_LABEL
「ごごらくワイド」最終回時点でのパーソナリティから海原みどりと吉田諭司が抜け、新たに「リフレッシュ@」を担当していた北里典子を加えた。	NO_PRONOUNCE	NO_LABEL
その後、女性パーソナリティーに変更はないが、男性パーソナリティーは各年の春改編及び2016年秋改編で担当者や担当曜日の変更が生じている。	そのご、じょせいぱーそなりてぃーにへんこーわないが、だんせいぱーそなりてぃーわかくとしのはるかいへんおよびにせんじゅうろくねんあきかいへんでたんとーしゃやたんとーよーびのへんこーがしょーじている。	NO_LABEL
パーソナリティが事情により出演できない場合、他曜日のパーソナリティが代役として出演することがある。	ぱーそなりてぃがじじょーによりしゅつえんできないばあい、たよーびのぱーそなりてぃがだいやくとしてしゅつえんすることがある。	NO_LABEL
ただし、番組内でのOBSニュースに対応するため、最低1人は必ずアナウンサーが出演する。	ただし、ばんぐみないでのおーびーえすにゅーすにたいおーするため、さいていひとりわかならずあなうんさーがしゅつえんする。	NO_LABEL
