鈴木 まりこ日本の俳優。	すずきまりこにっぽんのはいゆー。	NO_LABEL
ワーサル所属。	わーさるしょぞく。	NO_LABEL
群馬県渋川市出身。	ぐんまけんしぶかわししゅっしん。	NO_LABEL
日本映画学校校俳優科18期卒業。	にほんえいががっこーこーはいゆーかじゅうはっきそつぎょー。	NO_LABEL
同年、北区つかこうへい劇団13期研修所を卒業。	どーねん、きたくつかこーへいげきだんじゅうさんきけんしゅーしょをそつぎょー。	NO_LABEL
トム・プロジェクトファミリーシアター『だいだいの空』菊子役を演じる。	NO_PRONOUNCE	NO_LABEL
