菊川 英信とは、江戸時代の浮世絵師。	きくかわえいしんとわ、えどじだいのうきよえし。	NO_LABEL
菊川英山の門人で俗名は安五郎、菊川の画姓を称し、蓬莱、天秀斎と号す。	きくかわえいざんのもんじんでぞくみょーわやすごろー、きくかわのがせいをしょーし、ほーらい、てんしゅーときとごーす。	NO_LABEL
作画期は文化から文政の頃にかけてで、作に大判の錦絵と摺物が知られる。	さくがきわぶんかからぶんせいのころにかけてで、さくにおーばんのにしきえとすりものがしられる。	NO_LABEL
