『戦慄怪奇ファイル 超コワすぎ!FILE-02【暗黒奇譚!蛇女の怪】』は、2015年製作、2015年8月5日発売のオリジナルビデオ作品。	NO_PRONOUNCE	NO_LABEL
シリーズフェイクドキュメンタリースタイルのホラー映画『戦慄怪奇ファイル 超コワすぎ!』シリーズ第2弾。	NO_PRONOUNCE	NO_LABEL
DVD発売前の7月11日に渋谷アップリンクで上映された。	でぃーぶいでぃーはつばいまえのしちがつじゅういちにちにしぶやあっぷりんくでじょーえいされた。	NO_LABEL
上映前には、「超コワすぎ!FILE-01」「超コワすぎ!FILE-02」の各スピンオフ短編の上映があった。	NO_PRONOUNCE	NO_LABEL
7月18日から5日間、名古屋・シネマスコーレにて「超コワすぎ!FILE-01」「超コワすぎ!FILE-02」が一挙上映された。	NO_PRONOUNCE	NO_LABEL
7月18日から7日間、京都・立誠シネマにてDVD発売前先行上映された。	NO_PRONOUNCE	NO_LABEL
7月26日にニコニコ生放送で「超コワすぎ!FILE-02」DVD発売前先行上映された。	NO_PRONOUNCE	NO_LABEL
8月15日から5日間広島・横川シネマにて「超コワすぎ!FILE-01」「超コワすぎ!FILE-02」が一挙上映された。	NO_PRONOUNCE	NO_LABEL
山形国際ドキュメンタリー映画祭2015での「超コワすぎ！FILE-02」は「嘘つきはドキュメンタリーのはじまり？」という企画内で上映で英語字幕もつけられた。	NO_PRONOUNCE	NO_LABEL
DVD特典映像には白石晃士監督による「コワすぎ!通信」と予告編が収録されている。	NO_PRONOUNCE	NO_LABEL
櫻井というフリーターから送られてきた投稿動画には、山中で謎の美女・川野つぐ巳とその母親による奇怪な映像が記録されていた。	NO_PRONOUNCE	NO_LABEL
その動画を見た工藤ディレクターは櫻井が川野つぐ巳に恋していると察知し、櫻井に恋愛指南を行うと息巻く。	そのどーがをみたくどーでぃれくたーわさくらいがかわのつぐみにこいしているとさっちし、さくらいにれんあいしなんをおこなうといきまく。	NO_LABEL
さっそく、コワすぎ取材班は櫻井とともに川野家のある山中に取材に向かう。	さっそく、こわすぎしゅざいはんわさくらいとともにかわのかのあるさんちゅーにしゅざいにむかう。	NO_LABEL
隣家の住民に話を聞いた後、つぐ巳の家に向かった工藤たちだが、その場で櫻井は隠していた所業を暴露されてしまう。	りんかのじゅーみんにはなしをきいたのち、つぐみのいえにむかったくどーたちだが、そのばでさくらいわかくしていたしょぎょーをばくろされてしまう。	NO_LABEL
工藤から暴行を受けた櫻井だが、その思い自体は揺らぐことなく、つぐ巳を想い続けていると言う。	くどーからぼーこーをうけたさくらいだが、そのおもいじたいわゆらぐことなく、つぐみをおもいつずけているという。	NO_LABEL
その言葉を信じた工藤は再びつぐ巳の家に向かうが、彼女の母・紗和からの妨害を受け、おとりになった櫻井は姿を消す。	NO_PRONOUNCE	NO_LABEL
工藤たちは櫻井の身を案じながらも、つぐ巳の家に向かい、そこで櫻井を発見する。	くどーたちわさくらいのみをあんじながらも、つぐみのいえにむかい、そこでさくらいをはっけんする。	NO_LABEL
正気を失っている櫻井を、工藤が狐の尻尾つきバットで殴打すると、櫻井は意識を呼び覚ます。	しょーきをうしなっているさくらいを、くどーがきつねのしっぽつきばっとでおーだすると、さくらいわいしきをよびさます。	NO_LABEL
すると、工藤たちの前につぐ巳と母親が現れ、櫻井に自分たちと暮らすのであれば、自分で目を潰すことができるかと試練を出す。	すると、くどーたちのまえにつぐみとははおやがあらわれ、さくらいにじぶんたちとくらすのであれば、じぶんでめをつぶすことができるかとしれんをだす。	NO_LABEL
彼女を想う気持ちを示すために櫻井が包丁で目を潰すと、つぐ巳は彼の手を取り消えていったのだった。	かのじょをおもうきもちをしめすためにさくらいがほーちょーでめをつぶすと、つぐみわかれのてをとりきえていったのだった。	NO_LABEL
後日、消えた3人の話をする工藤たちの前に、再び櫻井とつぐ巳、紗和が姿を現す。	ごじつ、きえたさんにんのはなしをするくどーたちのまえに、ふたたびさくらいとつぐみ、さわがすがたをあらわす。	NO_LABEL
櫻井は「上を見て」と呼びかけ、工藤たちが見上げると、天井には櫻井たちが変化した姿である大蛇が張り付いていた。	NO_PRONOUNCE	NO_LABEL
櫻井は念願どおり、身も心もつぐ巳と共にある事を選んだのだった。	さくらいわねんがんどーり、みもこころもつぐみとともにあることをえらんだのだった。	NO_LABEL
