ドライビングスクールとは、運転の学校や講習のこと。	どらいびんぐすくーるとわ、うんてんのがっこーやこーしゅーのこと。	NO_LABEL
初心者向けの自動車教習所がこう呼ばれることもある。	しょしんしゃむけのじどーしゃきょーしゅーじょがこーよばれることもある。	NO_LABEL
また運転のベテランがさらに運転技術を向上させるための講習・施設や、自動車レースの競技者になろうとする者やすでに競技者になっている者がさらに腕を磨くための講習もこう呼ばれることがある。	NO_PRONOUNCE	NO_LABEL
