ブーリン・グラウンド、通称アップトン・パークは、イングランド, ロンドン, ニューアムにあったスタジアム。	NO_PRONOUNCE	NO_LABEL
オープン当初から2016年までウェストハム・ユナイテッドFCのホームスタジアムとなっていた。	おーぷんとーしょからにせんじゅうろくねんまでうぇすとはむゆないてっどふっとぼーるくらぶのほーむすたじあむとなっていた。	NO_LABEL
このスタジアムは、1904年に開場し、2016年までウェストハムの本拠地として使われた。	このすたじあむわ、せんきゅうひゃくよねんにかいじょーし、にせんじゅうろくねんまでうぇすとはむのほんきょちとしてつかわれた。	NO_LABEL
1912年あたりに、イーストハムにあるグリーン・ストリート・ハウスとグラウンドをカトリック教会からウェストハムが借り受けた。	NO_PRONOUNCE	NO_LABEL
グリーン・ストリート・ハウスは、その堂々としたたたずまいと、アン・ブーリンが滞在または所有していたと思われることから、地元の人にはブーリン城として知られていた。	NO_PRONOUNCE	NO_LABEL
ブーリン城のグラウンドということから、ブーリン・グラウンドという名前になった。	ぶーりんじょーのぐらうんどとゆうことから、ぶーりんぐらうんどとゆうなまえになった。	NO_LABEL
今日、このスタジアムはその所在地からとったアップトン・パークの名でより有名である。	きょー、このすたじあむわそのしょざいちからとったあっぷとんぱーくのなでよりゆーめいである。	NO_LABEL
