懐州は、中国にかつて存在した州。	かいしゅーわ、ちゅーごくにかつてそんざいしたしゅー。	NO_LABEL
南北朝時代からモンゴル帝国時代にかけて、現在の河南省焦作市一帯に設置された。	なんぼくちょうじだいからもんごるていこくじだいにかけて、げんざいのかなんしょーあせさくいちいったいにせっちされた。	NO_LABEL
467年、北魏により懐州が設置された。	よんひゃくろくじゅうななねん、ほくぎによりかいしゅーがせっちされた。	NO_LABEL
494年に廃止されたが、東魏の天平初年に再び設置された。	よんひゃくきゅうじゅうよんねんにはいしされたが、とうぎのてんぴょーしょねんにふたたびせっちされた。	NO_LABEL
東魏の懐州は河内郡・武徳郡の2郡8県を管轄した。	NO_PRONOUNCE	NO_LABEL
隋初には、懐州は2郡4県を管轄した。	NO_PRONOUNCE	NO_LABEL
596年に獲嘉県・修武県・武陟県を分割して殷州が設置されたが、605年に廃止となり、再び懐州に統合されている。	NO_PRONOUNCE	NO_LABEL
607年、郡制施行に伴い、懐州は河内郡と改称され、下部に10県を管轄した。	NO_PRONOUNCE	NO_LABEL
隋朝の行政区分に関しては、下表を参照。	ずいちょーのぎょーせいくぶんにかんしてわ、かひょーをさんしょー。	NO_LABEL
619年、唐により河内郡済源県西南の柏崖城に懐州が置かれた。	ろっぴゃくじゅうきゅうねん、とーによりかだいぐんすみみなもとけんせいなんのかしわがけじょーにかいしゅーがおかれた。	NO_LABEL
621年、野王城に州治が移された。	ろっぴゃくにじゅういちねん、のおーじょーにしゆうじがうつされた。	NO_LABEL
742年、懐州は河内郡と改称された。	ななひゃくよんじゅうにねん、かいしゅーわかだいぐんとかいしょーされた。	NO_LABEL
758年、河内郡は懐州と改称された。	ななひゃくごじゅうはちねん、かだいぐんわかいしゅーとかいしょーされた。	NO_LABEL
懐州は河北道に属し、河内・武徳・武陟・修武・獲嘉の5県を管轄した。	NO_PRONOUNCE	NO_LABEL
北宋のとき、懐州は河北西路に属し、河内・修武・武陟の3県を管轄した。	NO_PRONOUNCE	NO_LABEL
1126年、宗望率いる金軍が懐州を攻め落とした。	せんひゃくにじゅうろくねん、そーのぞむひきいるきんぐんがかいしゅーをせめおとした。	NO_LABEL
懐州は河東南路に属し、河内・修武・山陽・武陟の4県と武徳・柏郷・万善・清化・承恩・宋郭の6鎮を管轄した。	NO_PRONOUNCE	NO_LABEL
1257年、モンゴル帝国により懐州は懐孟路と改められた。	せんにひゃくごじゅうななねん、もんごるていこくによりかいしゅーわふところたけしろとあらためられた。	NO_LABEL
