周南農業協同組合は、山口県下松市西柳に本部を置く農業協同組合。	しゅーなんのーぎょーきょーどーくみあいわ、やまぐちけんくだまつしにしやなぎにほんぶをおくのーぎょーきょーどーくみあい。	NO_LABEL
JA周南。	じぇーえーしゅーなん。	NO_LABEL
笠野事業所を勝間支所に統合	かさのじぎょーしょをかつまししょにとーごー	NO_LABEL
高水事業所を熊毛支所に統合 	たかみずじぎょーしょをくまげししょにとーごー	NO_LABEL
　　　 9月 インターネットホームページ開設 	くがついんたーねっとほーむぺーじかいせつ	NO_LABEL
大道理・大向・長穂事業所を都濃支所に統合	NO_PRONOUNCE	NO_LABEL
虹ヶ丘支所を光支所に統合	NO_PRONOUNCE	NO_LABEL
米川事業所を花岡支所に統合 	よねかわじぎょーしょをはなおかししょにとーごー	NO_LABEL
　　　10月 中須支所、八代支所を都濃支所に統合	じゅーがつなかすししょ、やしろししょをつのししょにとーごー	NO_LABEL
農産物直売所「菜さい来んさい」開設 	NO_PRONOUNCE	NO_LABEL
須金支所を都濃支所へ統合	すがねししょをつのししょえとーごー	NO_LABEL
三丘支所、勝間支所を熊毛支所に統合 	さんおかししょ、かつまししょをくまげししょにとーごー	NO_LABEL
　　　 4月 葬祭会館「ルミエール」開設	NO_PRONOUNCE	NO_LABEL
精米センター「産地精米館」開設 	NO_PRONOUNCE	NO_LABEL
　　　 3月 周防支所、三井支所を島田支所へ統合 	さんがつすおーししょ、みついししょをしまだししょえとーごー	NO_LABEL
和田支所を新南陽支所へ統合 	わだししょをしんなんよーししょえとーごー	NO_LABEL
大津島支所を三田川支所へ統合 	おーつしまししょをみたがわししょえとーごー	NO_LABEL
「菜さい来んさい！　下松店」オープン	NO_PRONOUNCE	NO_LABEL
JA周南総合ポイントサービス開始 	じぇーえーしゅーなんそーごーぽいんとさーびすかいし	NO_LABEL
