工業所有権公報は、特許庁が特許法、実用新案法、商標法、意匠法などに基づいて発行する特許公報、実用新案公報、商標公報、意匠公報などの文書の総称である。	こーぎょーしょゆーけんこうほーわ、とっきょちょーがとっきょほー、じつよーしんあんほー、しょーひょーほー、いしょーほーなどにもとずいてはっこーするとっきょこうほー、じつよーしんあんこーほー、しょーひょーこーほー、いしょーこーほーなどのぶんしょのそーしょーである。	NO_LABEL
別名産業財産権公報	べつめいさんぎょーざいさんけんこーほー	NO_LABEL
日本の特許庁は以下の公報を発行している。	にっぽんのとっきょちょーわいかのこーほーをはっこーしている。	NO_LABEL
これらの公報は特許情報プラットフォームで閲覧することができる。	これらのこーほーわとっきょじょーほーぷらっとふぉーむでえつらんすることができる。	NO_LABEL
