二階堂 卓也は、日本の映画評論家、雑誌編集者。	にかいどーたくやわ、にっぽんのえいがひょーろんか、ざっしへんしゅーしゃ。	NO_LABEL
本名、大塚 公平。	ほんみょー、おーつかこーへい。	NO_LABEL
上智大学文学部新聞学科卒業。	じょーちだいがくぶんがくぶしんぶんがっかそつぎょー。	NO_LABEL
小学校時代より映画に親しみ、新東宝、東宝時代劇、日活アクション、やくざ映画、香港活劇、そしてマカロニウエスタンに代表されるヨーロッパの娯楽映画全般と、世間がB級、C級と評する映画、ピンク映画などを徹底的に見続け、評論活動を展開。	NO_PRONOUNCE	NO_LABEL
また、昭和50年代から秋田書店で編集者として活動し、『週刊少年チャンピオン』で1994年39号から2002年4・5合併号まで第7代編集長を務めた。	NO_PRONOUNCE	NO_LABEL
