アブロまたはアヴロはイギリスの航空機メーカー。	NO_PRONOUNCE	NO_LABEL
A.V.ロー・アンド・カンパニーの通称。	NO_PRONOUNCE	NO_LABEL
第二次世界大戦において活躍した爆撃機アブロ ランカスターのメーカーとして知られる。	だいにじせかいたいせんにおいてかつやくしたばくげききあぶろらんかすたーのめーかーとしてしられる。	NO_LABEL
アブロは世界初となる航空機の会社でマンチェスターのブラウンズフィールド・ミルズ、イングランドのA・V・ローと彼の兄弟であるH・V・ローらによって1910年1月1日に創設。	NO_PRONOUNCE	NO_LABEL
A・V・ローはサリーのウェイブリッジとハンプシャーのブルックランドのパイロットとして、すでに名を知られていた。	NO_PRONOUNCE	NO_LABEL
1912年、同社は木製複葉機のアブロ 504を開発した。	NO_PRONOUNCE	NO_LABEL
翌年には初飛行を果たし、第一次世界大戦では敵味方双方に使われる航空機となった。	よくねんにわはつひこーをはたし、だいいちじせかいたいせんでわてきみかたそーほーにつかわれるこーくーきとなった。	NO_LABEL
いくつかのハンブル工場、マイルス工場、ニュートン・ヒース工場などで合計8,340機が生産され、20年間も使用された。	NO_PRONOUNCE	NO_LABEL
これは、この頃のエンジンを使用する航空機としては相当な偉業であった。	これわ、このころのえんじんをしよーするこーくーきとしてわそーとーないぎょーであった。	NO_LABEL
1920年代にアブロはマンチェスターのアレクサンドラパークからチェシャーのニューホールファームに移転し、この工場は現在もBAEシステムズが使用している。	せんきゅうひゃくにじゅうねんだいにあぶろわまんちぇすたーのあれくさんどらぱーくからちぇしゃーのにゅーほーるふぁーむにいてんし、このこーじょーわげんざいもびーえーいーしすてむずがしよーしている。	NO_LABEL
1928年には A・V・ローがソーンダース・ロー社を設立し、前衛的な設計のジェット戦闘機や後にはホバークラフトも製作した。	NO_PRONOUNCE	NO_LABEL
アブロは演習機の設計技術を維持する目的で複葉機アブロ チューターを製造し、イギリス空軍が多数採用することとなった。	あぶろわえんしゅーきのせっけいぎじゅつをいじするもくてきでふくよーきあぶろちゅーたーをせいぞーし、いぎりすくーぐんがたすーさいよーすることとなった。	NO_LABEL
その後アブロ アンソンが製造されたが、ヨーロッパで戦争の機運が高まると再び実戦に投入する機体の開発に重点がおかれた。	そのごあぶろあんそんがせいぞーされたが、よーろっぱでせんそーのきうんがたかまるとふたたびじっせんにとーにゅーするきたいのかいはつにじゅーてんがおかれた。	NO_LABEL
第二次世界大戦中に製造された機体としてはアブロ マンチェスター、アブロ ランカスター、及びアブロ リンカーンが有名である。	だいにじせかいたいせんちゅーにせいぞーされたきたいとしてわあぶろまんちぇすたー、あぶろらんかすたー、およびあぶろりんかーんがゆーめいである。	NO_LABEL
特にランカスターは7000機以上が製造され、その能力を買われてチャスタイズ作戦にも投入された。	NO_PRONOUNCE	NO_LABEL
ランカスターは傑作機であり、旅客機アブロ ランカストリアンと哨戒機アブロ シャクルトンはランカスターから派生している。	らんかすたーわけっさくきであり、りょかくきあぶろらんかすとりあんとしょーかいきあぶろしゃくるとんわらんかすたーからはせいしている。	NO_LABEL
その後ランカストリアンの後継としてアブロ チューダーが開発された。	そのごらんかすとりあんのこーけいとしてあぶろちゅーだーがかいはつされた。	NO_LABEL
同機はアブロ リンカーンの主翼とエンジンを流用し、1945年7月に初飛行が行なわれたがBOAC のキャンセルもあってわずか34機しか製造されず、他の旅客機との激しい競合もあって成功したとはいえなかった。	NO_PRONOUNCE	NO_LABEL
結果旧式のアブロ ヨークが軍用・民用でより広く用いられた。	NO_PRONOUNCE	NO_LABEL
ベルリン空輸作戦でチューダー及びヨークは大役を担った。	べるりんくーゆさくせんでちゅーだーおよびよーくわたいやくをになった。	NO_LABEL
冷戦期に有名な航空機にアブロ バルカンがある。	れいせんきにゆーめいなこーくーきにあぶろばるかんがある。	NO_LABEL
バルカン爆撃機はイギリスの核抑止戦略の一環として核ミサイルのブルースチール Mk.Iを搭載しアラート任務についていた。	NO_PRONOUNCE	NO_LABEL
アラート任務は比較的短期間で終了したが、1982年にはフォークランド紛争で通常爆撃任務に出動している。	あらーとにんむわひかくてきたんきかんでしゅーりょーしたが、せんきゅうひゃくはちじゅうにねんにわふぉーくらんどふんそーでつーじょーばくげきにんむにしゅつどーしている。	NO_LABEL
1950年代にはロールス・ロイス製ダートエンジンを搭載した双発ターボプロップ旅客機 アブロ 748が開発され、世界中で広く販売された。	NO_PRONOUNCE	NO_LABEL
民間以外にも王室用飛行隊が数機を購入し、後部貨物室ドア及び伸縮式降着装置が追加された型がアンドーバーとしてイギリス空軍やイギリス連邦各国で採用された。	みんかんいがいにもおーしつよーひこーたいがすーきをこーにゅーし、こーぶかもつしつどあおよびしんしゅくしきこーちゃくそーちがついかされたかたがあんどーばーとしていぎりすくーぐんやいぎりすれんぽーかっこくでさいよーされた。	NO_LABEL
同じく1950年代にはアブロ・カナダによって北米初のジェット旅客機アブロ C-102 ジェットライナー、カナダが自主開発した唯一のジェット戦闘機 CF-100 カナック及び超音速戦闘機 CF-105 アローが製造された。	NO_PRONOUNCE	NO_LABEL
アローは高性能の迎撃戦闘機として開発が進められていたが、開発費が高騰したことと地対空ミサイルによる防空へと戦術が転換したため、量産体制へ移行しないままカナダ政府により計画の破棄が命じられた。	あろーわこーせいのーのげいげきせんとーきとしてかいはつがすすめられていたが、かいはつひがこーとーしたこととちたいくーみさいるによるぼーくーえとせんじゅつがてんかんしたため、りょーさんたいせいえいこーしないままかなだせいふによりけいかくのはきがめいじられた。	NO_LABEL
これによりアブロ・カナダは打撃を受けて終焉に向かうこととなる。	これによりあぶろかなだわだげきをうけてしゅーえんにむかうこととなる。	NO_LABEL
アブロは1963年7月にホーカー・シドレー・アビエーションと合併し社名は消滅しかけたが、長年のブランドイメージが大きかったためBAe 146が "アブロ RJ" として2001年まで販売された。	NO_PRONOUNCE	NO_LABEL
この機は "アブロ 146" や "ジャンボリノ" の愛称も持つ。	NO_PRONOUNCE	NO_LABEL
アブロ 748 から発展したのが BAe ATP であり、イギリス内外で主に国内短距離定期路線で運用されている。	NO_PRONOUNCE	NO_LABEL
1988年にはイギリス空軍で39年という最長の運用期間を誇ったアブロ シャクルトンが退役してイングリッシュ・エレクトリック キャンベラに洋上哨戒任務が引き継がれた。	せんきゅうひゃくはちじゅうはちねんにわいぎりすくーぐんでさんじゅうきゅうねんとゆうさいちょーのうんよーきかんをほこったあぶろしゃくるとんがたいえきしていんぐりっしゅえれくとりっくきゃんべらによーじょーしょーかいにんむがひきつがれた。	NO_LABEL
イギリス航空業界への功績の記念として、数機のアブロ 504、アブロ チューター、アブロ アンソン及びアブロ ランカスターが現在も飛行可能な状態に整備され続けている。	NO_PRONOUNCE	NO_LABEL
さらにバルカンの雄姿を再び見たいとのイギリス国民の願いから、寄付を集めて大掛かりな改修を受けたバルカン XH558 号機が2007年10月18日に再飛行し、その後も航空ショーに出演している。	NO_PRONOUNCE	NO_LABEL
航空機	こーくーき	NO_LABEL
