ジョン・レスリーは、長年プロデューサー・監督としても活躍を続けたアメリカ合衆国のポルノ男優。	NO_PRONOUNCE	NO_LABEL
ペンシルベニア州ピッツバーグ出身。	ぺんしるべにあしゅーぴっつばーぐしゅっしん。	NO_LABEL
Louis T. Beagle、John Leslie Dupre、Frederick Watsonなどともクレジットされた。	NO_PRONOUNCE	NO_LABEL
1973年に『"Sensuous Delights"』でデビュー以来、レスリーは約300本のポルノ映画に出演し、男優として多数の賞を獲得している。	NO_PRONOUNCE	NO_LABEL
彼はセカ、ケイ・パーカー、アネット・ヘブン、クリスティ・キャニオンなど同時代の著名なトップポルノ女優たちと共演した。	かれわせか、けいぱーかー、あねっとへぶん、くりすてぃきゃにおんなどどーじだいのちょめいなとっぷぽるのじょゆーたちときょーえんした。	NO_LABEL
最も注目に値する出演作は『私に汚い言葉を云って ""』、『先天性アクメニアン ""』、『もっと汚い行為をして ""』である。	NO_PRONOUNCE	NO_LABEL
彼は監督に転身したポルノ男優の草分けの1人であった。	かれわかんとくにてんしんしたぽるのだんゆーのくさわけのひとりであった。	NO_LABEL
監督デビュー作は1987年の『ナイト・シフト・ナース/白衣の猥褻たち ""』。	NO_PRONOUNCE	NO_LABEL
以来レスリーは『トリー・ウェルズ/カメレオン・レディ ""』、『媚獣伝説/キャット・ウーマン ""』、『飼われた女 ""』、『"Drop Sex"』、更にシリーズものの『"Voyeur"』、『"Fresh Meat"』、『"Crack Her Jack"』など90本以上のポルノ映画を監督した。	NO_PRONOUNCE	NO_LABEL
彼は監督としても数多くの賞を獲得している。	かれわかんとくとしてもすーおーくのしょーをかくとくしている。	NO_LABEL
最近の仕事の多くが、アダルトビデオにおける現在の流行に合わせた『"Fresh Meat"』や『"Crack Her Jack"』シリーズのような「ゴンゾ」ものではあるが、レスリーは長編映画、あるいは「セックスドラマ」も撮り続けている。	NO_PRONOUNCE	NO_LABEL
ごく最近の2007年、彼はブリアナ・ラブ "()" を全面に押し出した映画『"Brianna Love: Her Fine Sexy Self"』を監督した。	NO_PRONOUNCE	NO_LABEL
1970年代初め、彼はミシガン州南東に拠点を置くバンド、ブルックリン・ブルース・バスターズのヴォーカリスト兼ハーモニカ奏者だった。	NO_PRONOUNCE	NO_LABEL
ブルックリン・ブルース・バスターズは直ぐに出世して、ジョン・リー・フッカーやの東海岸のショーでバックで演奏した。	NO_PRONOUNCE	NO_LABEL
また1973年のでスパイビーのバックバンドを務めた。	またせんきゅうひゃくななじゅうさんねんのですぱいびーのばっくばんどをつとめた。	NO_LABEL
同じ頃レスリーは、しばらくミシガン州アナーバー のバー「Mr. Flood's Party」でバーテンダーとしても働いていた。	NO_PRONOUNCE	NO_LABEL
レスリーはAVN殿堂、 Legends of Erotica、XRCO殿堂のメンバーである。	NO_PRONOUNCE	NO_LABEL
2010年12月5日、心臓発作のために死亡。	にせんじゅうねんじゅーにがついつか、しんぞーほっさのためにしぼー。	NO_LABEL
ニコラス・バルバーノ "Nicolas Barbano" 著『"Verdens 25 hotteste pornostjerner"』彼のために章が割かれている。	NO_PRONOUNCE	NO_LABEL
