黒森は、秋田県鹿角郡小坂町にある山である。	くろもりわ、あきたけんかずのぐんおさかちょーにあるやまである。	NO_LABEL
標高658.4m。	NO_PRONOUNCE	NO_LABEL
小坂川の余路米沢の上流にあり、一帯は鬱蒼とした森林に覆われている。	こさかがわのよろよねざわのじょーりゅーにあり、いったいわうっそーとしたしんりんにおおわれている。	NO_LABEL
東側山麓を流下する砂子沢川には、洪水調節、流水の正常な機能の維持と水道用水の供給を目的とする砂子沢ダムが建設されている。	ひがしがわさんろくをりゅーかするいさござわがわにわ、こーずいちょーせつ、りゅーすいのせいじょーなきのーのいじとすいどーよーすいのきょーきゅーをもくてきとするすなこさわだむがけんせつされている。	NO_LABEL
