サバン・ベルトロは、フランスの博物学者、民俗学者である。	さばんべるとろわ、ふらんすのはくぶつがくしゃ、みんぞくがくしゃである。	NO_LABEL
マルセイユの商人の息子に生まれた。	まるせいゆのしょーにんのむすこにうまれた。	NO_LABEL
フランス海軍に入隊し、ナポレオン戦争中は海軍少尉候補生であった。	ふらんすかいぐんににゅーたいし、なぽれおんせんそーちゅーわかいぐんしょーいこーほせいであった。	NO_LABEL
戦争の後、商船に乗り込み、マルセイユと西インド諸島の航海の仕事をした。	せんそーののち、しょーせんにのりこみ、まるせいゆとにしいんどしょとーのこーかいのしごとをした。	NO_LABEL
1820年にカナリア諸島をはじめて訪れ、テネリフェ島の学校で教え、ラ・オロタバでビジャヌエバ・デル・プラートの侯爵の植物園を管理者となった。	NO_PRONOUNCE	NO_LABEL
カナリア諸島を訪れた、イギリスの植物学者、フィリップ・バーカー＝ウェッブの依頼によってカナリア諸島に自然史の研究を行い、多くの博物学標本を集め、1835年から、『カナリア諸島の自然史』を出版した。	NO_PRONOUNCE	NO_LABEL
ベルテロは民俗学、歴史、地理の分野を担当し、ウエッブが自然史を担当した。	べるてろわみんぞくがく、れきし、ちりのぶんやをたんとーし、うえっぶがしぜんしをたんとーした。	NO_LABEL
鳥類学の分野はモカン＝タンドンらによって執筆された。	NO_PRONOUNCE	NO_LABEL
1845年に民族学会を設立した。	せんはっぴゃくよんじゅうごねんにみんぞくがっかいをせつりつした。	NO_LABEL
1846年にテネリフェ島に戻り、1848年からフランス領事の仕事を助け、1867年に領事となった。	せんはっぴゃくよんじゅうろくねんにてねりふぇとーにもどり、せんはっぴゃくよんじゅうはちねんからふらんすりょーごとのしごとをたすけ、せんはっぴゃくろくじゅうしちねんにりょーじとなった。	NO_LABEL
ベルトロの著書にはLes Guanaches、『カナリア諸島の征服』、『カナリア諸島の古遺物』などがある。	NO_PRONOUNCE	NO_LABEL
セキレイ科、タヒバリ属のカナリア諸島の鳥、"Anthus berthelotii"に献名されている。	NO_PRONOUNCE	NO_LABEL
