マウルタッシェは、ドイツ・シュヴァーベン地方の郷土料理。	NO_PRONOUNCE	NO_LABEL
マウルブロン・タイヒタッシェの略。	NO_PRONOUNCE	NO_LABEL
シュヴァーベン式マウルタッシェは2009年以降、EUの原産地名称保護制度によって保護されている。	NO_PRONOUNCE	NO_LABEL
パスタ生地の中にひき肉・ホウレンソウ・パン粉・タマネギを詰め、パセリやナツメグでフレーバーを加えている。	NO_PRONOUNCE	NO_LABEL
ダンプリングの一種であり、イタリア料理のラヴィオリに似ているが、それよりも大きく、 8cm から 12cm の大きさである。	NO_PRONOUNCE	NO_LABEL
通常、一人分として二つまたは四つが供される。	つーじょー、ひとりぶんとしてふたつまたわよっつがきょーされる。	NO_LABEL
シュヴァーベンには、聖金曜日にこれを食べる伝統がある。	NO_PRONOUNCE	NO_LABEL
現地での言い伝えによれば、マウルタッシェの由来は、元々金曜日には肉が食べられなかった宗教的な背景から、どうしても肉を食べたい人が肉をパスタ生地の中に隠せば神様からは肉が見えないので見つからないだろう、という発想から作られたことにあるという。	げんちでのいーつたえによれば、まうるたっしぇのゆらいわ、もともときんよーびにわにくがたべられなかったしゅーきょーてきなはいけいから、どーしてもにくをたべたいじんがにくをぱすたきじのなかにかくせばかみさまからわにくがみえないのでみつからないだろう、とゆうはっそーからつくられたことにあるという。	NO_LABEL
