リーガMXは、北中米カリブ海サッカー連盟に加盟するメキシコの国内プロサッカーの最上位リーグである。	りーがえむえっくすわ、ほくちゅーべいかりぶかいさっかーれんめいにかめいするめきしこのこくないぷろさっかーのさいじょーいりーぐである。	NO_LABEL
2013年よりBBVA Bancomerが公式スポンサーとなったことからリーガ・バンコメル・MXとして知られる。	NO_PRONOUNCE	NO_LABEL
メキシコのサッカーは北中米カリブ海地域ではトップレベルといわれるが、それはこの国内リーグの充実によるところが大きい。	めきしこのさっかーわきたなかべいかりぶかいちーきでわとっぷれべるといわれるが、それわこのこくないりーぐのじゅーじつによるところがおーきい。	NO_LABEL
資金の潤沢なクラブも多く、中南米諸国の代表選手が多数プレーしている。	しきんのじゅんたくなくらぶもおーく、ちゅーなんべいしょこくのだいひょーせんしゅがたすーぷれーしている。	NO_LABEL
メキシコ代表も最近までほとんどが国内クラブの選手で構成されていた。	めきしこだいひょーもさいきんまでほとんどがこくないくらぶのせんしゅでこーせいされていた。	NO_LABEL
1998年から招待参加しているコパ・リベルタドーレスでは2001年に準優勝したクルス・アスルを始め、メキシコのクラブはこれまでベスト4以上の成績を8回マークしており、南米の強豪クラブにも引けをとらない。	せんきゅうひゃくきゅうじゅうはちねんからしょーたいさんかしているこぱりべるたどーれすでわにせんいちねんにじゅんゆーしょーしたくるすあするをはじめ、めきしこのくらぶわこれまでべすとふぉーいじょーのせいせきをはっかいまーくしており、なんべいのきょーごーくらぶにもひけをとらない。	NO_LABEL
暦年後半にシーズンが開幕し、翌年の暦年前半にシーズンが終了する。	れきねんこーはんにしーずんがかいまくし、よくねんのれきねんぜんはんにしーずんがしゅーりょーする。	NO_LABEL
参加クラブ数は18クラブ。	NO_PRONOUNCE	NO_LABEL
1シーズンは2ステージ制であり、それぞれのステージごとに優勝を争う。	NO_PRONOUNCE	NO_LABEL
前半戦のステージをアペルトゥーラ、後半戦をクラウスーラと呼称する。	ぜんはんせんのすてーじをあぺるとぅーら、こーはんせんをくらうすーらとこしょーする。	NO_LABEL
レギュラーシーズンはそれぞれのステージ全18チーム1回ずつの総当り方式となっており、各チーム17試合ずつを消化した時点での上位8チームがダイレクトでリギージャと呼ばれる決勝トーナメントに進出する。	NO_PRONOUNCE	NO_LABEL
また、アペルトゥーラでは当年度CONCACAFチャンピオンズリーグに参加していない上位3チームに対してコパ・リベルタドーレスへの招待権が与えられる。	NO_PRONOUNCE	NO_LABEL
リギージャ準々決勝は予選の成績に基づいて「1位vs8位」「2位vs7位」「3位vs6位」「4位vs5位」のタスキがけ方式のホーム・アンド・アウェーの2試合の成績を基として決定。	NO_PRONOUNCE	NO_LABEL
2試合のスコアが同じ場合はリーグ戦の順位が上だったチームが繰り上がるが、決勝戦は延長戦、PK戦を行う。	にしあいのすこあがおなじばあいわりーぐせんのじゅんいがうえだったちーむがくりあがるが、けっしょーせんわえんちょーせん、ぴーけーせんをおこなう。	NO_LABEL
各ステージの優勝チームには特典として次年度のCONCACAFチャンピオンズリーグ出場資格が与えられる。	かくすてーじのゆーしょーちーむにわとくてんとしてじねんどのこんかかふちゃんぴおんずりーぐしゅつじょーしかくがあたえられる。	NO_LABEL
なお、両ステージの決勝戦に残ったチームがある場合は総合成績で最もよいチームに出場資格が割り振られる。	なお、りょーすてーじのけっしょーせんにのこったちーむがあるばあいわそーごーせいせきでもっともよいちーむにしゅつじょーしかくがわりふられる。	NO_LABEL
なお、2010年のシーズンまでは18チームが前2シーズンのリーグ戦のみの合計成績により、3グループに分ける方式が取られ、グループに関係なく1回ずつ総当たり方式を行う方式が採られ、グループ内の上位2チームと、レベチャヘと呼ばれる敗者復活戦によってリギージャに進出するチームが決められていたが廃止された。	NO_PRONOUNCE	NO_LABEL
シーズン表記のはインビエルノ、はベラーノ、はアペルトゥーラ、はクラウスラ、はビセンテナリオの略。	しーずんひょーきのわいんびえるの、わべらーの、わあぺるとぅーら、わくらうすら、わびせんてなりおのりゃく。	NO_LABEL
1970年は1970 FIFAワールドカップ開催の関係で「メヒコ70」、1985-86シーズンは1986 FIFAワールドカップ開催の関係で「プローデ85」と「メヒコ86」という短期トーナメントだった。	NO_PRONOUNCE	NO_LABEL
　　※クルス・アスルの発祥はイダルゴ州であり、現在も下部組織がイダルゴ州にあるためダービーとして認識される	NO_PRONOUNCE	NO_LABEL
