高久駅は、栃木県那須郡那須町大字高久甲字西久保にある、東日本旅客鉄道東北本線の駅である。	たかくえきわ、とちぎけんなすぐんなすまちだいじたかくこーじにしくぼにある、ひがしにほんりょかくてつどーとーほくほんせんのえきである。	NO_LABEL
相対式ホーム2面2線を有する地上駅である。	NO_PRONOUNCE	NO_LABEL
互いのホームは跨線橋で連絡している。	たがいのほーむわこせんきょーでれんらくしている。	NO_LABEL
黒磯駅管理の無人駅で、乗車駅証明書発行機が設置されている。	くろいそえきかんりのむじんえきで、じょーしゃえきしょーめいしょはっこーきがせっちされている。	NO_LABEL
栃木県統計年鑑によると、1日の平均乗車人員は以下の通りである。	とちぎけんとーけいねんかんによると、ついたちのへいきんじょーしゃじんいんわいかのとーりである。	NO_LABEL
