『シャーリー』は、森薫による日本の漫画作品。	NO_PRONOUNCE	NO_LABEL
エドワード朝時代のイギリスを舞台に、女主人が一人で暮らす家に住み込みで働くことになった少女、シャーリー・メディスンのメイド生活を描く。	えどわーどちょーじだいのいぎりすをぶたいに、おんなしゅじんがひとりでくらすいえにすみこみではたらくことになったしょーじょ、しゃーりーめでぃすんのめいどせいかつをえがく。	NO_LABEL
当初は作者の森が漫画家デビュー前に描いていた創作同人作品であったが、2003年にエンターブレインより単行本が出版され、2006年以降は商業漫画誌にて不定期に新作が発表されている。	とーしょわさくしゃのもりがまんがかでびゅーまえにえがいていたそーさくどーじんさくひんであったが、にせんさんねんにえんたーぶれいんよりたんこーぼんがしゅっぱんされ、にせんろくねんいこーわしょーぎょーまんがしにてふていきにしんさくがはっぴょーされている。	NO_LABEL
単行本は2巻まで刊行されている。	たんこーぼんわにかんまでかんこーされている。	NO_LABEL
本作は森が商業誌デビュー前に初めて本格的に描いた漫画であり、執筆した当時は「ペン先を替えるという事すら知らなかった」ころであったという。	NO_PRONOUNCE	NO_LABEL
個人作品として発表された全5話分の内容を収録した単行本は、2003年2月24日に森の商業誌デビュー作である『エマ』第2巻と同日に『シャーリー』のタイトルでエンターブレインから出版され、思わぬ部数の売り上げがあったという。	NO_PRONOUNCE	NO_LABEL
『エマ』は本作と同様に近代のイギリスを生きるメイドを主人公とした漫画作品であり、作者の森は『シャーリー』が好評だったのは『エマ』があってこその結果であると分析している。	NO_PRONOUNCE	NO_LABEL
単行本発行から約3年半が経った2006年10月25日には、『コミックビームFellows!』Vol.2において「シャーリー・メディスン」のタイトルで読み切りの新作エピソードが発表され、更に約3年半後には同誌の流れを汲む漫画誌『Fellows!』volume10B及びvolume11Bに新作エピソードが掲載。	NO_PRONOUNCE	NO_LABEL
その後も『Fellows!』から誌名が変更された『ハルタ』volume2及びvolume3、volume14、volume17にも新作エピソードが掲載されている。	NO_PRONOUNCE	NO_LABEL
商業誌にて再開後のエピソードを収めた第2巻は、最初の単行本から11年を隔てた2014年9月13日に発売された。	しょーぎょーしにてさいかいごのえぴそーどをおさめただいにかんわ、さいしょのたんこーぼんからじゅういちねんをへだてたにせんじゅうよねんくがつじゅうさんにちにはつばいされた。	NO_LABEL
ある日、カフェ「モナ・リザ」を営む独身女性ベネット・クランリーの元に、メイドの職を求めてきた13歳の少女、シャーリー・メディスンが現れる。	NO_PRONOUNCE	NO_LABEL
そのあまりの年若さにベネットは雇うことをためらうが、他にシャーリーを受け入れる先があるとも思えず、またシャーリーの様子に行くあてが他にないのを察して頭を抱える。	そのあまりのとしわかさにべねっとわやとうことをためらうが、たにしゃーりーをうけいれるさきがあるともおもえず、またしゃーりーのよーすにいくあてがたにないのをさっしてあたまをかかえる。	NO_LABEL
結局、シャーリーに料理の心得があり、特にを作れることを知ったベネットは、それを理由にして住み込みで雇うことを承諾する。	けっきょく、しゃーりーにりょーりのこころえがあり、とくにをつくれることをしったべねっとわ、それをりゆーにしてすみこみでやとうことをしょーだくする。	NO_LABEL
年齢の割には有能なメイドとして働くシャーリーの日常と、カフェで常連客を相手にするベネットの日常と、あまり自分の素性や本心を明かそうとしないシャーリーがベネットの家族として受け入れられていく様子、上流階級と距離を置こうとするベネットの悩みなどが描かれていく。	ねんれいのわりにわゆーのーなめいどとしてはたらくしゃーりーのにちじょーと、かふぇでじょーれんきゃくをあいてにするべねっとのにちじょーと、あまりじぶんのすじょーやほんしんをあかそうとしないしゃーりーがべねっとのかぞくとしてうけいれられていくよーす、じょーりゅーかいきゅーときょりをおこうとするべねっとのなやみなどがえがかれていく。	NO_LABEL
2003年に出版された最初の単行本は巻数が明記されていなかったが、2014年に商業誌掲載分を収録した第2巻が出版されると、以降の版では第1巻の巻数が表紙に明記された。	にせんさんねんにしゅっぱんされたさいしょのたんこーぼんわかんすーがめいきされていなかったが、にせんじゅうよねんにしょーぎょーしけいさいぶんをしゅーろくしただいにかんがしゅっぱんされると、いこーのばんでわだいいちかんのかんすーがひょーしにめいきされた。	NO_LABEL
また第1巻は株式会社エンターブレインより出版されたが、第1巻の出版から第2巻の出版までの間にエンターブレインの体制がKADOKAWAの社内カンパニーという位置づけに体制に変化している。	まただいいちかんわかぶしきがいしゃえんたーぶれいんよりしゅっぱんされたが、だいいちかんのしゅっぱんからだいにかんのしゅっぱんまでのまにえんたーぶれいんのたいせいがかどかわのしゃないかんぱにーとゆういちずけにたいせいにへんかしている。	NO_LABEL
森が商業誌デビューする前に描かれた全5話のエピソードは第1巻に収録され、本作以外にも読み切り作である、5歳の主人に仕えるメイドの女性の姿を描いた「僕とネリーとある日の午後」、いたずら好きな主人に仕えるメイドの話「メアリ・バンクス」が収録されている。	NO_PRONOUNCE	NO_LABEL
