仁礼 景範- 明治33年11月22日）は、江戸時代末期の武士、明治時代の海軍軍人。	NO_PRONOUNCE	NO_LABEL
海軍中将正二位勲一等子爵。	かいぐんちゅーじょーしょうにーくんいっとーししゃく。	NO_LABEL
通称は源之丞、平助。	つーしょーわもとのじょー、へいすけ。	NO_LABEL
海軍軍令部総長、海軍大臣を歴任した。	かいぐんぐんれいぶそうちょー、かいぐんだいじんをれきにんした。	NO_LABEL
天保2年、薩摩藩士の子弟として生まれる。	てんぽーにねん、さつまはんしのしていとしてうまれる	NO_LABEL
朔平門外の変では、京都守護職の会津藩が容疑者とされた田中新兵衛の寓居を急襲した際に、田中新兵衛と一緒にいた、仁礼景範も下僕の太郎ともども逮捕され連行された。	さくへいもんがいのへんでわ、きょーとしゅごしょくのあいずはんがよーぎしゃとされたたなかしんべーのぐーきょをきゅーしゅーしたさいに、たなかしんべーといっしょにいた、にれかげのりもげぼくのたろーともどもたいほされれんこーされた。	NO_LABEL
後に容疑は晴れて、無罪放免となった。	ごによーぎわはれて、むざいほーめんとなった。	NO_LABEL
同年の薩英戦争に参加。	どーねんのさつえいせんそーにさんか。	NO_LABEL
慶応3年に藩命によりアメリカに留学。	けいおーさんねんにはんいのちによりあめりかにりゅーがく。	NO_LABEL
明治5年、海軍に出仕して海軍少佐。	めいじごねん、かいぐんにしゅっししてかいぐんしょーさ。	NO_LABEL
のち、海軍兵学校校長、東海鎮守府長官、中艦隊司令官、軍事部長などを歴任。	のち、かいぐんへいがっこーこーちょー、とーかいちんじゅふちょーかん、ちゅーかんたいしれいかん、ぐんじぶちょーなどをれきにん。	NO_LABEL
明治18年、海軍中将。	めいじじゅうはちねん、かいぐんちゅーじょー。	NO_LABEL
明治19年より参謀本部次長、海軍参謀本部長、横須賀鎮守府長官、海軍大学校長などを歴任。	めいじじゅうくねんよりさんぼーほんぶじちょー、かいぐんさんぼーほんぶちょー、よこすかちんじゅふちょーかん、かいぐんだいがくこーちょーなどをれきにん。	NO_LABEL
明治25年、第2次伊藤内閣の海軍大臣に就任、海軍備の充実に力を注いだ。	めいじにじゅうごねん、だいにじいとーないかくのかいぐんだいじんにしゅーにん、うみぐんびのじゅーじつにちからをそそいだ。	NO_LABEL
海軍の軍令権を陸軍の参謀本部からの独立に尽力し、明治26年に軍令部が設置され軍令部長に就任するが、結局陸軍の反対により頓挫した。	かいぐんのぐんれいけんをりくぐんのさんぼーほんぶからのどくりつにじんりょくし、めいじにじゅうろくねんにぐんれいぶがせっちされぐんれいぶちょーにしゅーにんするが、けっきょくりくぐんのはんたいによりとんざした。	NO_LABEL
さらに民党や文官側より、海軍行革に不熱心との批判を受けて辞意を表明。	さらにみんとーやぶんかんがわより、かいぐんぎょーかくにふねっしんとのひはんをうけてじいをひょーめい。	NO_LABEL
伊藤博文は先の和協詔勅において、政府の公約であった海軍行革の推進と野党の国民協会の会頭・西郷従道の引抜きを図るために辞任を認め、仁礼は予備役編入となった。	NO_PRONOUNCE	NO_LABEL
同年に枢密顧問官。	どーねんにすーみつこもんかん。	NO_LABEL
明治29年、後備役。	めいじにじゅうくねん、こーびやく。	NO_LABEL
享年69。	NO_PRONOUNCE	NO_LABEL
仁礼の飼っていた犬が上野公園にある西郷隆盛の像の犬のモデルとなったことが、娘の春子によって証言されている。	にれいのかっていたいぬがうえのこーえんにあるさいごーたかもりのぞーのいぬのもでるとなったことが、むすめのはるこによってしょーげんされている。	NO_LABEL
像の建設にあたり、そのモデルとすべき薩摩犬を都内において見つけることが出来ずにいたところ、春子が可愛がっていた犬が薩摩犬であることが分かり、急遽モデルとなった。	ぞーのけんせつにあたり、そのもでるとすべきさつまいぬをとないにおいてみつけることができずにいたところ、はるこがかわいがっていたいぬがさつまいぬであることがわかり、きゅーきょもでるとなった。	NO_LABEL
