高柳匡は、日本の物理学者。	たかやなぎただしわ、にっぽんのぶつりがくしゃ。	NO_LABEL
京都大学基礎物理学研究所教授。	きょーとだいがくきそぶつりがくけんきゅうしょきょーじゅ。	NO_LABEL
専門は素粒子物理学。	せんもんわそりゅーしぶつりがく。	NO_LABEL
笠真生とともにAdS/CFT対応におけるエンタングルメントエントロピーに関するを提唱。	NO_PRONOUNCE	NO_LABEL
