川田 穰二はEBAプロダクション所属の男性俳優、タレント。	かわたみのるにわえばぷろだくしょんしょぞくのだんせいはいゆー、たれんと。	NO_LABEL
身長187cm、B:92 W:75 H:90、神奈川県出身。	NO_PRONOUNCE	NO_LABEL
血液型はO型。	けつえきがたわおーがた。	NO_LABEL
趣味・特技はバスケ・バイク・読書・音楽・映画・人間観察。	NO_PRONOUNCE	NO_LABEL
