佐藤 亜有子は、日本の作家。	さとーあゆこわ、にっぽんのさっか。	NO_LABEL
1969年10月19日、岩手県出身。	せんきゅうひゃくろくじゅうきゅうねんじゅーがつじゅうきゅうにち、いわてけんしゅっしん。	NO_LABEL
1989年、岩手県立盛岡第一高等学校卒業後、1994年、東京大学文学部仏文科卒業。	せんきゅうひゃくはちじゅうきゅうねん、いわてけんりつもりおかだいいちこそつぎょーご、せんきゅうひゃくきゅうじゅうよねん、とーきょーだいがくぶんがくぶふつぶんかそつぎょー。	NO_LABEL
1996年、『ボディ・レンタル』で文藝賞優秀作に選ばれ、東京大学出身である大江健三郎の後輩が書いた性愛小説として話題を呼ぶ。	NO_PRONOUNCE	NO_LABEL
同作はのちの2003年に電子書籍化され、2007年の時点でも電子書籍配信サイトの文芸部門ランキング上位を維持するロングセラーとなった。	どーさくわのちのにせんさんねんにでんししょせきかされ、にせんななねんのじてんでもでんししょせきはいしんさいとのぶんげいぶもんらんきんぐじょーいをいじするろんぐせらーとなった。	NO_LABEL
以後、SM純文学小説や『東京大学殺人事件』などを書いた。	NO_PRONOUNCE	NO_LABEL
1997年、『葡萄』で第117回芥川賞候補。	NO_PRONOUNCE	NO_LABEL
2008年、5年の沈黙ののち、自分と姉が父親から性的虐待を受けていたことと精神を病んでいることを描いた『花々の墓標』を上梓した。	NO_PRONOUNCE	NO_LABEL
同著の版元は精神科医・斎藤学が顧問を務めている医学書中心の出版社で、彼が解説を寄せている。	NO_PRONOUNCE	NO_LABEL
2013年1月5日、アルコールを併用した急性薬物中毒のため東京都内の自邸にて死去していたことが、3ヶ月後の4月5日に明らかとなった。	NO_PRONOUNCE	NO_LABEL
遺作は『文藝』2013年夏季号掲載の短編「蜘蛛」。	NO_PRONOUNCE	NO_LABEL
