青柳 正義は、地方競馬の金沢競馬場鈴木正也厩舎所属の騎手である。	あおやぎまさよしわ、ちほーけいばのかなざわけいばじょーすずきまさやきゅーしゃしょぞくのきしゅである。	NO_LABEL
勝負服の柄は胴黒・黄鋸歯形、袖青。	NO_PRONOUNCE	NO_LABEL
千葉県出身、血液型A型。	ちばけんしゅっしん、けつえきがたえーがた。	NO_LABEL
地方競馬教養センター騎手課程第77期生。	ちほーけいばきょーよーせんたーきしゅかていだいななじゅうななきせい。	NO_LABEL
2003年3月31日付けで地方競馬騎手免許を取得。	にせんさんねんさんがつさんじゅういちにちずけでちほーけいばきしゅめんきょをしゅとく。	NO_LABEL
同年4月6日第1回金沢競馬1日目第1競走3歳A組条件戦キタイセダンサーで初騎乗。	NO_PRONOUNCE	NO_LABEL
同日第3競走アラブ系C2級2組条件戦をフジマーガレットで逃げ切り優勝し、2戦目で初勝利。	NO_PRONOUNCE	NO_LABEL
2009年9月14日第12回金沢競馬4日目第4競走C23組条件戦をグランドグラッパで優勝し、地方競馬通算100勝達成。	NO_PRONOUNCE	NO_LABEL
地方通算成績は6585戦568勝・2着620回・3着699回・勝率8.6%・連対率18.0%	NO_PRONOUNCE	NO_LABEL
