複素解析において、関数値として複数の複素数を取る多価関数を考えるとき、関数の主値とはその関数の分枝から取られる値のことである。	ふくそかいせきにおいて、かんすーちとしてふくすーのふくそすーをとるたかかんすーをかんがえるとき、かんすーのしゅちとわそのかんすーのぶんばいからとられるねのことである。	NO_LABEL
多価関数の値を主値に限定することで、一価の関数となる。	たかかんすーのねをしゅちにげんていすることで、いっかのかんすーとなる。	NO_LABEL
複素対数関数 log "z" は、一つの複素数 "z" を以下を満たす複素数 "w" に移す関数である。	NO_PRONOUNCE	NO_LABEL
例えば、formula_2 の値を計算しようとすると、以下の方程式を満たす解として "w" を求めることになる。	NO_PRONOUNCE	NO_LABEL
オイラーの公式から、formula_4 が一つの解であることは明らかであるが、解はそれだけでない。	NO_PRONOUNCE	NO_LABEL
関数の引数とした点 formula_5 の複素平面上での位置を考えると、解が複数あることが分かる。	NO_PRONOUNCE	NO_LABEL
formula_6 から反時計回りに formula_7 ラジアンだけ回転した点が formula_5 になるが、ここからさらに formula_9 回転すると、また formula_5 になる。	NO_PRONOUNCE	NO_LABEL
したがってformula_11 も formula_2 の値であると考えることができ、また formula_9 だけでなく、その整数倍を加えたものはすべて、この関数の値と考えることができる。	NO_PRONOUNCE	NO_LABEL
しかし実数関数の場合と比較すると、これには違和感がある。	しかしじっすーかんすーのばあいとひかくすると、これにわいわかんがある。	NO_LABEL
つまり formula_2 の値は一意に定まらない、ということである。	NO_PRONOUNCE	NO_LABEL
log "z" は、"k" を任意の整数として	NO_PRONOUNCE	NO_LABEL
と書ける。	とかける。	NO_LABEL
"k" の値は分岐点として知られ、多価関数が一価になる点を決めることになる。	NO_PRONOUNCE	NO_LABEL
ここで "k" = 0 に相当する分枝を、この主枝において関数が取る値を主値と呼ぶ。	NO_PRONOUNCE	NO_LABEL
一般に "f"が多価関数のとき、"f" の主値を	NO_PRONOUNCE	NO_LABEL
と書き表す。	とかきあらわす。	NO_LABEL
これは、"f" の定義域内の複素数 "z" について一価の関数となる。	NO_PRONOUNCE	NO_LABEL
複素数を取る初等関数は、定義域内で領域によっては多価となる。	ふくそすーをとるしょとーかんすーわ、ていぎいきないでりょーいきによってわたあたいとなる。	NO_LABEL
主値を取るのが簡単な形の関数に分解することで、その主値を決めることができる場合がある。	しゅちをとるのがかんたんなかたちのかんすーにぶんかいすることで、そのしゅちをきめることができるばあいがある。	NO_LABEL
対数関数の例は上述したが、その形は	たいすーかんすーのれいわじょーじゅつしたが、そのかたちわ	NO_LABEL
である。	である。	NO_LABEL
ここで formula_18 が多価である。	NO_PRONOUNCE	NO_LABEL
この偏角の取りうる範囲を formula_19 に限定すれば、その偏角における関数の値を主値として取ることができる。	NO_PRONOUNCE	NO_LABEL
このときの偏角を、大文字を使って formula_20 と書く。	NO_PRONOUNCE	NO_LABEL
関数の定義に formula_18 の代わりに formula_20 を使うことで、対数関数が一価になり、	NO_PRONOUNCE	NO_LABEL
と書くことができるようになる。	とかくことができるよーになる。	NO_LABEL
formula_24 を複素数とするときの指数 formula_26 について考えるとき、一般には "z" を "e" として定義する。	NO_PRONOUNCE	NO_LABEL
ここで Log でなく log を使うと、"e" は多価関数となる。	NO_PRONOUNCE	NO_LABEL
Log を使えば以下の形で "z" の主値を取ることができる。	NO_PRONOUNCE	NO_LABEL
複素数 formula_28 の平方根の主値は以下のようになる。	NO_PRONOUNCE	NO_LABEL
ここで偏角は formula_30 の範囲である。	NO_PRONOUNCE	NO_LABEL
ラジアンで表される複素数の偏角の主値は、以下のどちらかで定義されることが多い。	らじあんであらわされるふくそすーのへんかくのしゅちわ、いかのどちらかでていぎされることがおーい。	NO_LABEL
逆正接関数をプロットすれば、これらの値を見ることができる。	ぎゃくせいせつかんすーをぷろっとすれば、これらのねをみることができる。	NO_LABEL
