前新 透4月5日- 2012年4月6日）は日本の教育者、方言研究家。	NO_PRONOUNCE	NO_LABEL
第59回菊池寛賞受賞。	だいごじゅうきゅうかいきくちかんしょーじゅしょー。	NO_LABEL
1924年4月5日、沖縄県竹富島に生まれる。	せんきゅうひゃくにじゅうよねんしがついつか、おきなわけんたけとみとーにうまれる。	NO_LABEL
竹富町立船浦中学校校長、石垣市立大浜小学校校長などを務め、1985年に退職する。	たけとみちょーりつふなうらちゅうがっこーこーちょー、いしがきしりつおーはましょうがっこーこーちょーなどをつとめ、せんきゅうひゃくはちじゅうごねんにたいしょくする。	NO_LABEL
退職後、竹富の方言の収集と研究を行い、2011年に『竹富方言辞典』を刊行する。	NO_PRONOUNCE	NO_LABEL
同年「27年の歳月をかけて採集した方言を収録し、日本最南端の出版社から刊行されたこの辞典は、琉球語と日本語の古層、民俗を研究するための貴重な文化遺産である」として第59回菊池寛賞を受賞する。	NO_PRONOUNCE	NO_LABEL
