中村 美由紀は福岡県を拠点に活躍するローカルタレント。	なかむらみゆきわふくおかけんをきょてんにかつやくするろーかるたれんと。	NO_LABEL
オフィスエイツ所属。	おふぃすえいつしょぞく。	NO_LABEL
兵庫県尼崎市で生まれ、大分市で育つ。	ひょーごけんあまがさきしでうまれ、おーいたしでそだつ。	NO_LABEL
RKBラジオのラジオカー「スナッピー」26期生として2000年7月より3年間レポーターを務めた後タレント業を開始。	NO_PRONOUNCE	NO_LABEL
現在は主に同局のレポーターやパーソナリティとして活躍している。	げんざいわおもにどーきょくのれぽーたーやぱーそなりてぃとしてかつやくしている。	NO_LABEL
全てRKBラジオの番組	すべてあーるけーびーらじおのばんぐみ	NO_LABEL
スナッピー時代、同時期に同姓同名の「中村みゆき」が所属していた時期がある。	NO_PRONOUNCE	NO_LABEL
「漢字の美由紀」「平仮名のみゆき」と呼び分けていたこともあるが、普段はどちらか特定しない「ナカムラミユキ」という呼び方をしていた時期が長い。	NO_PRONOUNCE	NO_LABEL
