善導寺町は、福岡県久留米市の中部に位置する地域。	ぜんどーじまちわ、ふくおかけんくるめしのちゅーぶにいちするちいき。	NO_LABEL
1967年4月1日に久留米市へ編入されるまでは、福岡県の南部にあった地方自治法上の町で、三井郡に属していた。	せんきゅうひゃくろくじゅうななねしがつついたちにくるめしえへんにゅーされるまでわ、ふくおかけんのなんぶにあったちほーじちほーかみのちょーで、みいぐんにぞくしていた。	NO_LABEL
旧山本郡。	きゅーやまもとぐん。	NO_LABEL
現在の久留米市の市域中北部を町域としていた。	げんざいのくるめしのしいきちゅーほくぶをちょういきとしていた。	NO_LABEL
久留米市に隣接し、久留米市中心部から東に約7kmの位置にあった。	くるめしにりんせつし、くるめしちゅーしんぶからひがしにやくななきろめーとるのいちにあった。	NO_LABEL
町域の北端部を筑後川が流れている。	ちょういきのほくたんぶをちくごがわがながれている。	NO_LABEL
町域全体が筑後平野の一角を占めており、地形は平坦である。	ちょういきぜんたいがちくごへいやのいっかくをしめており、ちけいわへいたんである。	NO_LABEL
※1967年3月31日現在。	NO_PRONOUNCE	NO_LABEL
福岡県	ふくおかけん	NO_LABEL
現在、旧善導寺町域は「善導寺町××」、旧大橋村域は「大橋町××」として町名を残している。	NO_PRONOUNCE	NO_LABEL
昭和の大合併では、旧山本郡を構成していた善導寺町、草野町、山本村、大橋村の4町村の合併が福岡県から提案されていた。	NO_PRONOUNCE	NO_LABEL
しかしながら草野町は東に隣接する浮羽郡竹野村との合併を望む声が、山本村においては久留米市との合併を求める声が強く、合意に至らなかった。	しかしながらくさのちょーわひがしにりんせつするうきはぐんたかのむらとのがっぺいをのぞむこえが、やまもとむらにおいてわくるめしとのがっぺいをもとめるこえがつよく、ごーいにいたらなかった。	NO_LABEL
その後、山本村と草野町は直接久留米市と合併し、4町村合併は結果的に善導寺町と大橋村の合併にとどまった。	NO_PRONOUNCE	NO_LABEL
なお、善導寺町と大橋村は隣接しておらず、途中に草野町大字島を挟む形となっていたが、大字島は後に境界変更により善導寺町に編入され、飛び地は解消された。	なお、ぜんどーじまちとおーはしむらわりんせつしておらず、とちゅーにくさのちょーだいじとーをはさむかたちとなっていたが、だいじとーわごにきょーかいへんこーによりぜんどーじまちにへんにゅーされ、とびちわかいしょーされた。	NO_LABEL
なお、合併後善導寺町役場庁舎は市役所支所として使用されていたが、後にJAの支店となり、2000年ごろに解体されている。	なお、がっぺいごぜんどーじまちやくばちょーしゃわしやくしょししょとしてしよーされていたが、のちにじぇーえーのしてんとなり、にせんねんごろにかいたいされている。	NO_LABEL
