国際金融公社は世界銀行グループの一機関。	こくさいきんゆーこーしゃわせかいぎんこーぐるーぷのいちきかん。	NO_LABEL
1956年に設立された。	せんきゅうひゃくごじゅうろくねんにせつりつされた。	NO_LABEL
本部はアメリカ合衆国。	ほんぶわあめりかがっしゅーこく。	NO_LABEL
貧困減少と生活改善を目的に発展途上国における民間セクターに対する投資支援や技術支援などを行う。	ひんこんげんしょーとせいかつかいぜんをもくてきにはってんとじょーこくにおけるみんかんせくたーにたいするとーししえんやぎじゅつしえんなどをおこなう。	NO_LABEL
181ヵ国のメンバー国からなり、メンバーになるためには国際復興開発銀行のメンバーになる必要がある。	NO_PRONOUNCE	NO_LABEL
世界銀行ゼーリック総裁がIFC総裁を兼任。	せかいぎんこーぜーりっくそーさいがあいえふしーそーさいをけんにん。	NO_LABEL
2015年11月に就任したPhillipe Le Houérou 副総裁が日常業務を指揮している。	NO_PRONOUNCE	NO_LABEL
世界各地での活動を世界銀行グループと調整するが、IFC自身は法的・財務的に独立した存在である。	NO_PRONOUNCE	NO_LABEL
途上国で紛争となっている民間企業のプロジェクトに融資をしていることが問題となっている。	とじょーこくでふんそーとなっているみんかんきぎょーのぷろじぇくとにゆーしをしていることがもんだいとなっている。	NO_LABEL
出典には以下のケース以外に2つの事例が紹介されている。	しゅってんにわいかのけーすいがいにふたつのじれいがしょーかいされている。	NO_LABEL
2012年8月、南アフリカのプラチナ鉱山でストが起こった。	にせんじゅうにねんはちがつ、みなみあふりかのぷらちなこーざんですとがおこった。	NO_LABEL
月半ばには警察の弾圧が始まり、40人の労働者が射殺された。	つきなかばにわけいさつのだんあつがはじまり、よんじゅうにんのろーどーしゃがしゃさつされた。	NO_LABEL
この鉱山は社が開発した。	このこーざんわしゃがかいはつした。	NO_LABEL
そして、2007年にIFCから1億ドルの開発融資と、5000万ドルの資本参加を受けた。	NO_PRONOUNCE	NO_LABEL
また、米系の鉱山会社が金鉱開発を行った事業へ、IFCは5％資本参加している。	NO_PRONOUNCE	NO_LABEL
2012年7月、争議行為を警察が弾圧、5人の労働者を殺した。	にせんじゅうにねんしちがつ、そーぎこーいをけいさつがだんあつ、ごにんのろーどーしゃをころした。	NO_LABEL
同年8月には、州の金鉱開発に住民の78％が反対した。	NO_PRONOUNCE	NO_LABEL
