土浦亀城は昭和期の建築家である。	つちうらかめきわしょーわきのけんちくかである。	NO_LABEL
茨城県水戸市生まれ。	いばらきけんみとしうまれ。	NO_LABEL
横山大観は叔父にあたる。	よこやまたいかんわおじにあたる。	NO_LABEL
1918年東京帝国大学工学部建築学科に入学。	せんきゅうひゃくじゅうはちねんとーきょーていこくだいがくこーがくぶけんちくがっかににゅーがく。	NO_LABEL
1922年、寄宿先で知り合い懇意にしていた遠藤新の紹介でドラフトマンとしてライトの設計を手伝った。	せんきゅうひゃくにじゅうにねん、きしゅくさきでしりあいこんいにしていたえんどーあらたのしょーかいでどらふとまんとしてらいとのせっけいをてつだった。	NO_LABEL
同年にライトが建設費の問題から帝国ホテルの設計の任を解かれアメリカに引き上げる際、土浦はライトからアメリカに来るように請われ、卒業後の1923年に信夫人と共に渡米。	どーねんにらいとがけんせつひのもんだいからていこくほてるのせっけいのにんをとかれあめりかにひきあげるさい、つちうらわらいとからあめりかにくるよーにこわれ、そつぎょーごのせんきゅうひゃくにじゅうさんねんにしのぶじんとともにとべい。	NO_LABEL
ライトの事務所タリアセンに入所した。	らいとのじむしょたりあせんににゅーしょした。	NO_LABEL
土浦のタリアセン滞在時の主なメンバーに、リチャード・ノイトラ、ルドルフ・シンドラーがいる。	つちうらのたりあせんたいざいじのおもなめんばーに、りちゃーどのいとら、るどるふしんどらーがいる。	NO_LABEL
タリアセンで3年間を過ごした土浦は1926年に帰国し、大倉土木に勤めながら住宅の設計を開始した。	たりあせんでさんねんかんをすごしたつちうらわせんきゅうひゃくにじゅうろくねんにきこくし、おーくらどぼくにつとめながらじゅーたくのせっけいをかいしした。	NO_LABEL
初期の住宅作品である山懸邸や山本邸ではライトの影響が強く出ていたが、1930年後半に設計を行った谷井邸をきっかけに、ライトの作風とは異なるホワイトキューブに大きなガラス窓を穿った、いわゆるバウハウススタイルと呼ばれるモダニズム風の作風に移行した。	しょきのじゅーたくさくひんであるやまがたていややまもとていでわらいとのえいきょーがつよくでていたが、せんきゅうひゃくさんじゅうねんこーはんにせっけいをおこなったたにいていをきっかけに、らいとのさくふーとわことなるほわいときゅーぶにおーきながらすまどをうがった、いわゆるばうはうすすたいるとよばれるもだにずむふーのさくふーにいこーした。	NO_LABEL
その成果が最も強く出たのが、1935年に竣工した2件目の土浦亀城邸である。	そのせいかがもっともつよくでたのが、せんきゅうひゃくさんじゅうごねんにしゅんこーしたにけんめのつちうらかめきていである。	NO_LABEL
土浦邸は昭和初期のモダンデザイン及び都市住宅の先駆けとなった作品の1つである。	つちうらていわしょーわしょきのもだんでざいんおよびとしじゅーたくのさきがけとなったさくひんのひとつである。	NO_LABEL
