方山県は中華人民共和国南京市にかつて存在した県。	ほうざんけんわちゅーかじんみんきょーわこくなんきんしにかつてそんざいしたけん。	NO_LABEL
現在の六合区東部に相当する。	げんざいのりくごうくとーぶにそーとーする。	NO_LABEL
南北朝時代、東魏により設置された横山県を前身とする。	なんぼくちょうじだい、とうぎによりせっちされたよこやまけんをぜんしんとする。	NO_LABEL
北周により方山県と改称され、584年、隋朝により廃止され、管轄区域は六合県に編入された。	きたあまねによりほうざんけんとかいしょーされ、ごひゃくはちじゅうよんねん、ずいちょーによりはいしされ、かんかつくいきわろくごーけんにへんにゅーされた。	NO_LABEL
