安 貞桓は、大韓民国出身の元プロサッカー選手。	NO_PRONOUNCE	NO_LABEL
ポジションはフォワード。	ぽじしょんわふぉわーど。	NO_LABEL
妻は1999年ミスコリアでモデルの。	つまわせんきゅうひゃくきゅうじゅうきゅうねんみすこりあでもでるの。	NO_LABEL
2004年5月に長女、2008年12月に長男が誕生している。	にせんよねんごがつにちょーじょ、にせんはちねんじゅーにがつにちょーなんがたんじょーしている。	NO_LABEL
ゴールを決めた際に、ラウールのように結婚指輪にキスをするパフォーマンスをしたことから、韓国では「指輪の帝王」というニック・ネームで呼ばれることもある。	NO_PRONOUNCE	NO_LABEL
また、長髪で彫刻のような容貌が似ているとして付けられた「テリウス」の愛称もある。	NO_PRONOUNCE	NO_LABEL
1998年、当時の団長から 「韓国のデビッド・ベッカム」と命名されるなど期待を集めてKリーグ・釜山大宇ロイヤルズに入団。	NO_PRONOUNCE	NO_LABEL
長髪をなびかせたプレイスタイルで主に若い女性からの人気を集めた。	ちょーはつをなびかせたぷれいすたいるでおもにわかいじょせいからのにんきをあつめた。	NO_LABEL
1999年には14ゴールを決めるなどチームのKリーグ準優勝に貢献し、KリーグMVPに選出された。	NO_PRONOUNCE	NO_LABEL
準優勝チームからMVPに選ばれたのはKリーグ史上初めてのことだった。	じゅんゆうしょーちーむからえむぶいぴーにえらばれたのわけいりーぐしじょーはじめてのことだった。	NO_LABEL
このような活躍からオッパ隊」は女性が年上の男性に対して親しみを込めて呼び掛ける言葉で「兄さん」のような意味）と呼ばれる熱烈な追っかけが登場するなどKリーグの盛り上げに一役買った。	NO_PRONOUNCE	NO_LABEL
2000-01シーズンにイタリア・セリエAのペルージャに期限付き移籍。	NO_PRONOUNCE	NO_LABEL
安より以前に同じくセリエAに移籍した中田英寿に倣った大韓サッカー協会主導による計画的な移籍であったとされている。	やすよりいぜんにどうじくせりえあーにいせきしたなかたひでとしにならっただいかんさっかーきょーかいしゅどーによるけいかくてきないせきであったとされている。	NO_LABEL
同じ東洋人であり、前年まで同チームに在籍し活躍した中田と比較されるなど注目され、リーグ戦の初戦こそ先発フル出場を果たしたが、その後は第3節から11試合連続で不出場など、リーグ戦34節中15試合の出場に留まった。	NO_PRONOUNCE	NO_LABEL
そのうち、先発フル出場はわずかに9試合だった。	そのうち、せんぱつふるしゅつじょーわわずかにきゅうしあいだった。	NO_LABEL
それでもチームにケガ人が多発した終盤では少なからず起用の機会があり、4ゴールを奪った。	それでもちーむにけがにんがたはつしたしゅーばんでわすくなからずきよーのきかいがあり、よんごーるをうばった。	NO_LABEL
しかし2年目も基本的に控えの扱いは変わらず、34節中20試合で出番が無く、先発フル出場はわずか4試合のみ。	NO_PRONOUNCE	NO_LABEL
平均出場時間も約24分から約14分と更に減少し、わずかに1得点を記録するのみに終わった。	へいきんしゅつじょーじかんもやくにじゅうよんぷんからやくじゅうよんぷんとさらにげんしょーし、わずかにいちとくてんをきろくするのみにおわった。	NO_LABEL
2002年のFIFAワールドカップ・日韓大会では、代表チームのスーパーサブ的な存在として、韓国を大会ベスト4に導く原動力となった。	NO_PRONOUNCE	NO_LABEL
決勝トーナメント1回戦のイタリア戦で挙げたゴールデンゴールにより国民的スターとなった。	けっしょーとーなめんといちかいせんのいたりあせんであげたごーるでんごーるによりこくみんてきすたーとなった。	NO_LABEL
当時の安の所属チームであるペルージャのルチアーノ・ガウチ会長がこのゴールに激怒し、安との契約を解除しようとしているという話が、イタリアメディアを発端として韓国・日本において報じられた。	NO_PRONOUNCE	NO_LABEL
しかし、この話は事実とは異なっており、「安はイタリアの地に二度と足を踏み入れる事はない」とのガウチ会長の発言は、安の「今日我々はイタリアサッカーを上回った」という発言が引き金となっている。	NO_PRONOUNCE	NO_LABEL
実際にガウチは「イタリア代表戦でたとえ10ゴールを決められようともそれはかまわない。	NO_PRONOUNCE	NO_LABEL
契約解除は彼の発したコメントのためだ」とBBCの取材に対して答えている。	NO_PRONOUNCE	NO_LABEL
また、ガウチ会長の息子であり、副会長のアレサンドロ・ガウチも同様に海外サッカー専門サイトのサッカーエイジとのインタビューで、「安がゴールデンゴールを記録したから放出するわけではない」とし、騒動の発端はイタリアメディアの誇張報道による誤解から始まったと述べた。	NO_PRONOUNCE	NO_LABEL
また、韓国SBSとのインタビューにおいては、安に電話して誤解を解いたといい、父の発言で物議をかもし韓国民に申し訳ないと述べた。	また、かんこくえすびーえすとのいんたびゅーにおいてわ、やすにでんわしてごかいをといたといい、ちちのはつげんでぶつぎをかもしかんこくみんにもーしわけないとのべた。	NO_LABEL
その一方で、クラブとしてのペルージャには安を解雇する意志はなく、期限付き移籍であった安の所属先であった釜山に移籍金を支払い、その保有権を正式に確保している。	そのいっぽーで、くらぶとしてのぺるーじゃにわやすをかいこするいしわなく、きげんつきいせきであったやすのしょぞくさきであったぷさんにいせききんをしはらい、そのほゆーけんをせいしきにかくほしている。	NO_LABEL
しかし、安側はペルージャで控えに甘んじていたことに強い拒否感を抱いていたことや、英国やスペインリーグへの憧れがあったために他の欧州リーグへの移籍を模索する。	しかし、やすがわわぺるーじゃでひかえにあまんじていたことにつよいきょひかんをだいていたことや、えいこくやすぺいんりーぐえのあこがれがあったためにたのおーしゅーりーぐえのいせきをもさくする。	NO_LABEL
ワールドカップでの成功があったため、容易に移籍できるであろうという目論見があったともされる。	わーるどかっぷでのせいこーがあったため、よーいにいせきできるであろうとゆうもくろみがあったともされる。	NO_LABEL
韓国のメディアでは前述のガウチの放出宣言はむしろ安にとって朗報ともされた。	かんこくのめでぃあでわぜんじゅつのがうちのほーしゅつせんげんわむしろやすにとってろーほーともされた。	NO_LABEL
余談だが、安はこのセリエA時代を振り返って、マルコ・マテラッツィから浴びせられた「ニンニク臭い」といった暴言など、いくつかの人種差別を経験したと語っている。	NO_PRONOUNCE	NO_LABEL
ワールドカップの活躍で安の市場価値の高騰を目論んだペルージャだったが、設定した移籍金を支払う欧州クラブは現れなかった。	わーるどかっぷのかつやくでやすのしじょーかちのこーとーをもくろんだぺるーじゃだったが、せっていしたいせききんをしはらうおーしゅーくらぶわあらわれなかった。	NO_LABEL
また、移籍金を支払われて保有権をペルージャに譲渡したはずの釜山もなぜか保有権を主張し始め、双方がFIFAに提訴も辞さないという状況に陥った。	また、いせききんをしはらわれてほゆーけんをぺるーじゃにじょーとしたはずのぷさんもなぜかほゆーけんをしゅちょーしはじめ、そーほーがふぃふぁにていそもじさないとゆうじょーきょーにおちいった。	NO_LABEL
最終的にペルージャから保有権をパチンコ販売会社フィールズの子会社であるプロフェッショナルマネージメント株式会社が買い取り、更に釜山にも移籍金を支払うことで決着を見る。	さいしゅーてきにぺるーじゃからほゆーけんをぱちんこはんばいがいしゃふぃーるずのこがいしゃであるぷろふぇっしょなるまねーじめんとかぶしきがいしゃがかいとり、さらにぷさんにもいせききんをしはらうことでけっちゃくをみる。	NO_LABEL
その後、2002年9月、Jリーグの清水エスパルスに半年という契約でレンタル移籍。	そのご、にせんにねんくがつ、じぇいりーぐのしみずえすぱるすにはんとしとゆうけいやくでれんたるいせき。	NO_LABEL
本人は半年で欧州リーグへの移籍を再度模索するつもりだったが、欧州のクラブが興味を示そうとしなかったため、1年半の間、清水に在籍することになった。	ほんにんわはんとしでおーしゅーりーぐえのいせきをさいどもさくするつもりだったが、おーしゅーのくらぶがきょーみをしめそうとしなかったため、いちねんはんのま、しみずにざいせきすることになった。	NO_LABEL
2004年1月に横浜F・マリノスへ完全移籍。	にせんよねんいちがつによこはまえふまりのすえかんぜんいせき。	NO_LABEL
優勝への天王山となった1stステージ最終節鹿島戦を含む終盤4試合で4試合連続ゴールするなど優勝に貢献したが、その後骨折し離脱している。	NO_PRONOUNCE	NO_LABEL
2005年6月に契約満了により横浜FMを退団。	にせんごねんろくがつにけいやくまんりょーによりよこはまえふえむをたいだん。	NO_LABEL
Jリーグでは3シーズン弱在籍し、通算72試合30ゴールを記録した。	NO_PRONOUNCE	NO_LABEL
「"安心して働ける日本が好きだから、ここで頑張ろうと思った"」というキャッチコピーで、厚生労働省の外国人雇用状況報告制度の宣伝ポスターに起用されるなど、ピッチの外でも活躍した。	NO_PRONOUNCE	NO_LABEL
2005-06シーズンに入り、セリエAのリヴォルノ、ブンデスリーガの1FCケルン、リーガ・エスパニョーラのデポルティーボ・ラ・コルーニャが獲得に乗り出したと言われるが、結局リーグ・アンのFCメッツへ移籍する。	NO_PRONOUNCE	NO_LABEL
しかし、得点しても仏レキップ紙の採点では事実上の最低点となる2点を付けられるなど、チームにフィットすることができなかった。	しかし、とくてんしてもふつれきっぷしのさいてんでわじじつじょーのさいていてんとなるにてんをつけられるなど、ちーむにふぃっとすることができなかった。	NO_LABEL
2006年1月にはブンデスリーガ・MSVデュースブルクに移籍。	NO_PRONOUNCE	NO_LABEL
途中加入ながら2得点を記録した。	とちゅーかにゅーながらにとくてんをきろくした。	NO_LABEL
このシーズンに所属した2つのチームはどちらもリーグ最下位となり、2部に降格となった。	このしーずんにしょぞくしたふたつのちーむわどちらもりーぐさいかいとなり、にぶにこーかくとなった。	NO_LABEL
なお、両チームともに翌シーズンには再昇格を果たしている。	なお、りょーちーむともによくしーずんにわさいしょーかくをはたしている。	NO_LABEL
日本や香港などアジアで活動している英国人ライターのジェレミー・ウォーカーは、「安貞桓が成功した唯一の外国は日本で、その他挑戦したヨーロッパの国々では苦戦し、悲惨な結果となった」という厳しい評価を下している。	NO_PRONOUNCE	NO_LABEL
2006年8月にはデュースブルクからの解雇が発表された。	にせんろくねんはちがつにわでゅーすぶるくからのかいこがはっぴょーされた。	NO_LABEL
直後にスコットランドのハーツと交渉し、移籍寸前まで話が進んだが、ハーツはチリ代表FWのマウリシオ・ピニージャを獲得し、移籍話は破談になった。	ちょくごにすこっとらんどのはーつとこーしょーし、いせきすんぜんまではなしがすすんだが、はーつわちりだいひょーふぉわーどのまうりしおぴにーじゃをかくとくし、いせきばなしわはだんになった。	NO_LABEL
その後、欧州クラブからのオファーを待ったが、結局無所属となった。	そのご、おーしゅーくらぶからのおふぁーをまったが、けっきょくむしょぞくとなった。	NO_LABEL
韓国代表ピム監督は当初、所属チームはすぐに決まると聞かされていたようだが、その後所属チームがいっこうに決まらなかったため「安貞桓の代表入りはない」と告げ、この時期の代表招集は見送られることになった。	NO_PRONOUNCE	NO_LABEL
2007年1月9日、Kリーグの水原三星ブルーウィングスと1年契約を交わしたが15試合無得点と結果を出せず、翌2008年に古巣の釜山アイパークに8年ぶりに復帰することとなった。	にせんななねんいちがつここのか、けいりーぐのすうぉんさむすんぶるーうぃんぐすといちねんけいやくをかわしたがじゅうごしあいむとくてんとけっかをだせず、よくにせんはちねんにふるすのぷさんあいぱーくにはちねんぶりにふっきすることとなった。	NO_LABEL
2007年9月11日、FCソウル2軍との試合中、FCソウルの女性サポーターから自分と家族についてのわいせつな野次を受けて激高し、そのままスタンドに上りサポーターに「なぜそのように選手の悪口をいうのか！」「あなたのような人が居るからKリーグが発展しない！」と激しく抗議した。	NO_PRONOUNCE	NO_LABEL
主審の許諾なしにグラウンドを出たとしてその場で退場処分を受け、後にKリーグ史上最高額となる1000万ウォンの罰金を科せられた。	しゅしんのきょだくなしにぐらうんどをでたとしてそのばでたいじょーしょぶんをうけ、のちにけいりーぐしじょーさいこーがくとなるせんまんうぉんのばっきんをかせられた。	NO_LABEL
このような事件はKリーグ史上初のことだった。	このよーなじけんわけいりーぐしじょーはつのことだった。	NO_LABEL
Kリーグ復帰後は故障も多く満足の行く結果を残せなかったため、釜山との契約も1年で終了した。	けいりーぐふっきごわこしょーもおーくまんぞくのいくけっかをのこせなかったため、ぷさんとのけいやくもいちねんでしゅーりょーした。	NO_LABEL
一時期はアメリカ進出も検討したがうまくいかず、2009年は中国スーパーリーグの大連実徳と3か月間10万USドルの条件で契約した。	いちじきわあめりかしんしゅつもけんとーしたがうまくいかず、にせんきゅうねんわちゅーごくすーぱーりーぐのだいれんじっとくとさんかげつかんじゅうまんゆーえすどるのじょーけんでけいやくした。	NO_LABEL
大連実徳ではエースストライカーとして活躍。	だいれんじっとくでわえーすすとらいかーとしてかつやく。	NO_LABEL
2010年2月25日には南アフリカW杯に向けての強化試合に韓国代表として招集された。	にせんじゅうねんにがつにじゅうごにちにわみなみあふりかわーるどかっぷにむけてのきょーかしあいにかんこくだいひょーとしてしょーしゅーされた。	NO_LABEL
そして南アフリカW杯の最終登録メンバー入りを果たし、3大会連続のW杯出場エントリーが内定したが、試合に出場することはなかった。	NO_PRONOUNCE	NO_LABEL
2012年1月31日にソウルで引退記者会見を行い、14年間の現役生活を終えた。	にせんじゅうにねんいちがつさんじゅういちにちにそうるでいんたいきしゃかいけんをおこない、じゅうよんねんかんのげんえきせいかつをおえた。	NO_LABEL
前年の10月に行われた引退試合には、「大連の王」と呼ばれた安のために3万人の観客がスタジアムに詰め掛け、その名前を連呼した。	NO_PRONOUNCE	NO_LABEL
2012年4月から1年間の任期でKリーグの名誉広報チーム長に就任。	にせんじゅうにねんしがつからいちねんかんのにんきでけいりーぐのめいよこーほーちーむちょーにしゅーにん。	NO_LABEL
その後はテレビのバラエティ番組への出演やサッカー番組の解説委員として活躍している。	そのごわてれびのばらえてぃばんぐみえのしゅつえんやさっかーばんぐみのかいせついーんとしてかつやくしている。	NO_LABEL
88||31||51||24||3||0||142||55	NO_PRONOUNCE	NO_LABEL
30||5||3||0||colspan="2"|-||33||5	NO_PRONOUNCE	NO_LABEL
72||30||6||2||8||6||86||38	NO_PRONOUNCE	NO_LABEL
16||2||colspan="2"|-||colspan="2"|-||16||2	NO_PRONOUNCE	NO_LABEL
12||2||colspan="2"|-||0||0||12||2	NO_PRONOUNCE	NO_LABEL
0||0||colspan="2"|-||0||0||0||0	NO_PRONOUNCE	NO_LABEL
65||18||colspan="2"|-||0||0||65||18	NO_PRONOUNCE	NO_LABEL
283||88||60||26||11||6||365||131	NO_PRONOUNCE	NO_LABEL
その他の公式戦	そのたのこーしきせん	NO_LABEL
!通算!!colspan="2"|AFC	NO_PRONOUNCE	NO_LABEL
その他の国際公式戦	そのたのこくさいこーしきせん	NO_LABEL
