遣隋使とは、推古朝の時代、倭国が技術や制度を学ぶために隋に派遣した朝貢使のことをいう。	NO_PRONOUNCE	NO_LABEL
600年～618年の18年間に5回以上派遣されている。	NO_PRONOUNCE	NO_LABEL
なお、日本という名称が使用されたのは遣唐使からである。	なお、にっぽんとゆうめいしょーがしよーされたのわけんとーしからである。	NO_LABEL
大阪の住吉大社近くの住吉津から出発し、住吉の細江から大阪湾に出、難波津を経て瀬戸内海を筑紫那大津へ向かい、そこから玄界灘に出る。	おーさかのすみよしたいしゃちかくのすみのえのつからしゅっぱつし、すみよしのほそえからおーさかわんにで、なにわつをへてせとないかいをつくしだおーつえむかい、そこからげんかいなだにでる。	NO_LABEL
倭の五王による南朝への奉献以来約1世紀を経て再開された遣隋使の目的は、東アジアの中心国・先進国である隋の文化の摂取が主であるが、朝鮮半島での影響力維持の意図もあった。	NO_PRONOUNCE	NO_LABEL
この外交方針は次の遣唐使の派遣にも引き継がれた。	このがいこーほーしんわつぎのけんとーしのはけんにもひきつがれた。	NO_LABEL
この派遣第一回 開皇20年は、『日本書紀』に記載はない。	NO_PRONOUNCE	NO_LABEL
『隋書』「東夷傳俀國傳」は高祖文帝の問いに遣使が答えた様子を載せている。	NO_PRONOUNCE	NO_LABEL
「開皇二十年 俀王姓阿毎 字多利思北孤 號阿輩雞彌 遣使詣闕 上令所司訪其風俗 使者言俀王以天爲兄 以日爲弟 天未明時出聽政 跏趺坐 日出便停理務 云委我弟 高祖曰 此太無義理 於是訓令改之」	NO_PRONOUNCE	NO_LABEL
開皇二十年、俀王、姓は阿毎、字は多利思北孤、阿輩雞弥と号づく。	NO_PRONOUNCE	NO_LABEL
使いを遣わして闕に詣る。	NO_PRONOUNCE	NO_LABEL
上、所司をしてその風俗を問わしむ。	うえ、しょしをしてそのふーぞくをとわしむ。	NO_LABEL
使者言う、俀王は天を以て兄と為し、日を以て弟と為す。	NO_PRONOUNCE	NO_LABEL
天未だ明けざる時、出でて政を聴く。	てんいまだあけざるとき、ででてせいをきく。	NO_LABEL
日出ずれば、すなわち理務を停めて云う、我が弟に委ぬと。	にっしゅつずれば、すなわちりつとむをとめていう、わがおとーとにいぬと。	NO_LABEL
高祖曰く、此れ大いに義理なし。	こーそいわく、このれおーいにぎりなし。	NO_LABEL
是に於て訓えて之を改めしむ。	NO_PRONOUNCE	NO_LABEL
俀王姓の阿毎はアメ、多利思北孤はタラシヒコ、つまりアメタラシヒコで、天より垂下した彦の意とされる。	NO_PRONOUNCE	NO_LABEL
阿輩雞弥はオホキミで、大王とされる。	NO_PRONOUNCE	NO_LABEL
『新唐書』では、用明天皇が多利思比孤であるとしている。	NO_PRONOUNCE	NO_LABEL
開皇20年は、推古天皇8年にあたる。	かいこーにじゅうねんわ、すいこてんのーはちねんにあたる。	NO_LABEL
この時派遣された使者に対し、高祖は所司を通じて俀國の風俗を尋ねさせた。	NO_PRONOUNCE	NO_LABEL
使者は俀王を「姓阿毎 字多利思北孤」号を「阿輩雞彌」と云うと述べている。	NO_PRONOUNCE	NO_LABEL
ところが、高祖からみると、俀國の政治のあり方が納得できず、道理に反したものに思えたのであろう。	NO_PRONOUNCE	NO_LABEL
そこで改めるよう訓令したというのである。	そこであらためるよーくんれいしたとゆうのである。	NO_LABEL
第二回は、『日本書紀』に記載されており、607年に小野妹子が大唐国に国書を持って派遣されたと記されている。	NO_PRONOUNCE	NO_LABEL
倭王から隋皇帝煬帝に宛てた国書が、『隋書』「東夷傳俀國傳」に「日出處天子致書日沒處天子無恙云云」と書き出されていた。	NO_PRONOUNCE	NO_LABEL
これを見た煬帝は立腹し、外交担当官である鴻臚卿に「蕃夷の書に無礼あらば、また以て聞するなかれ」と命じたという。	NO_PRONOUNCE	NO_LABEL
なお、煬帝が立腹したのは俀王が「天子」を名乗ったことに対してであり、「日出處」「日沒處」との記述に対してではない。	NO_PRONOUNCE	NO_LABEL
「日出處」「日沒處」は『摩訶般若波羅蜜多経』の注釈書『大智度論』に「日出処是東方 日没処是西方」とあるなど、単に東西の方角を表す仏教用語である。	NO_PRONOUNCE	NO_LABEL
ただし、仏教用語を用いたことで中華的冊封体制からの離脱を表明する表現であったとも考えられている。	ただし、ぶっきょーよーごをもちいたことでちゅーかてきさくほうたいせいからのりだつをひょーめいするひょーげんであったともかんがえられている。	NO_LABEL
小野妹子は、その後返書を持たされて返されている。	おののいもこわ、そのごへんしょをもたされてかえされている。	NO_LABEL
煬帝の家臣である裴世清を連れて帰国した妹子は、返書を百済に盗まれて無くしてしまったと言明している。	NO_PRONOUNCE	NO_LABEL
百済は日本と同じく南朝への朝貢国であったため、その日本が北朝の隋と国交を結ぶ事を妨害する動機は存在する。	くだらわにっぽんとおなじくなんちょーえのちょーこーこくであったため、そのにっぽんがほくちょーのずいとこっこーをむすぶことをぼーがいするどーきわそんざいする。	NO_LABEL
しかしこれについて、煬帝からの返書は倭国を臣下扱いする物だったのでこれを見せて怒りを買う事を恐れた妹子が、返書を破棄してしまったのではないかとも推測されている。	しかしこれについて、ようだいからのへんしょわわのくにをしんかあつかいするものだったのでこれをみせていかりをかうことをおそれたいもこが、へんしょをはきしてしまったのでわないかともすいそくされている。	NO_LABEL
裴世清が持ってきたとされる書が『日本書紀』にある。	NO_PRONOUNCE	NO_LABEL
「皇帝、倭皇に問う。	NO_PRONOUNCE	NO_LABEL
朕は、天命を受けて、天下を統治し、みずからの徳をひろめて、すべてのものに及ぼしたいと思っている。	ちんわ、てんめいをうけて、てんかをとーちし、みずからのとくをひろめて、すべてのものにおよぼしたいとおもっている。	NO_LABEL
人びとを愛育したというこころに、遠い近いの区別はない。	ひとびとをあいいくしたとゆうこころに、とーいちかいのくべつわない。	NO_LABEL
倭皇は海のかなたにいて、よく人民を治め、国内は安楽で、風俗はおだやかだということを知った。	やまとすめらぎわうみのかなたにいて、よくじんみんをおさめ、こくないわあんらくで、ふーぞくわおだやかだとゆうことをしった。	NO_LABEL
こころばえを至誠に、遠く朝献してきたねんごろなこころを、朕はうれしく思う。	こころばえをしせいに、とーくあさけんしてきたねんごろなこころを、ちんわうれしくおもう。	NO_LABEL
」	NO_PRONOUNCE	NO_LABEL
「皇帝問倭皇 使人長吏大禮 蘇因高等至具懷 朕欽承寶命 臨養區宇 思弘德化 覃被含靈 愛育之情 無隔遐邇 知皇介居海表 撫寧民庶 境內安樂 風俗融合 深氣至誠 遠脩朝貢 丹款之美 朕有嘉焉 稍暄 比如常也 故遣鴻臚寺掌客裴世清等 旨宣往意 并送物如別」『日本書紀』	NO_PRONOUNCE	NO_LABEL
これは倭皇となっており、倭王として臣下扱いする物ではない。	これわやまとすめらぎとなっており、わおーとしてしんかあつかいするものでわない。	NO_LABEL
『日本書紀』によるこれに対する返書の書き出しも「東の天皇が敬いて西の皇帝に白す」とある。	NO_PRONOUNCE	NO_LABEL
これをもって天皇号の始まりとする説もある。	これをもっててんのーごーのはじまりとするせつもある。	NO_LABEL
また、「倭皇」を日本側の改竄とする見解もある。	NO_PRONOUNCE	NO_LABEL
なお、裴世清が持参した返書は「国書」であり、小野妹子が持たされた返書は「訓令書」ではないかと考えられる。	NO_PRONOUNCE	NO_LABEL
小野妹子が「返書を掠取される」という大失態を犯したにもかかわらず、一時は流刑に処されるも直後に恩赦されて大徳に昇進し再度遣隋使に任命された事、また返書を掠取した百済に対して日本が何ら行動を起こしていないという史実に鑑みれば、	NO_PRONOUNCE	NO_LABEL
聖徳太子、推古天皇など倭国中枢と合意した上で、「掠取されたことにした」という事も推測される。	NO_PRONOUNCE	NO_LABEL
