ニオイヤグルマギクは、キク科の、地中海沿岸地方に原産する半耐寒性の一年草である。	においやぐるまぎくわ、きくかの、ちちゅーかいえんがんちほーにげんさんするはんたいかんせいのいちねんくさである。	NO_LABEL
花の形がよく似ていることから、かつてはヤグルマギク属 "Centaurea" に分類されていたが、現在は他の6種と共に、ニオイヤグルマ属 "Amberboa"にされた。	NO_PRONOUNCE	NO_LABEL
草丈50〜80cmで、茎と葉は無毛で、明るい黄緑色をしている。	NO_PRONOUNCE	NO_LABEL
葉は細長く切れ込みがある。	はわほそながくきれこみがある。	NO_LABEL
花は初夏に咲き、下からよく分枝し、1つの花柄に5cmくらいの頭花が1輪頂生する。	NO_PRONOUNCE	NO_LABEL
花色はクリーム色・樺色・赤紫・ピンクなどのパステルカラーであるが、鮮やかな黄色の花をつけるイエロー・サルタンという特別な品種も売られている。	NO_PRONOUNCE	NO_LABEL
花に甘い香りがある。	はなにあまいかおりがある。	NO_LABEL
9月にまき、冬は霜よけをして育てる。	くがつにまき、ふゆわしもよけをしてそだてる。	NO_LABEL
切り花向きの草花だが、性質はやや弱く、作りにくい。	きりばなむきのくさばなだが、せいしつわややよわく、つくりにくい。	NO_LABEL
