小金山 幸一郎は大正・昭和時代の大相撲力士。	NO_PRONOUNCE	NO_LABEL
出羽海部屋所属。	でわのーみべやしょぞく。	NO_LABEL
本名は山中幸一郎。	ほんみょーわやまなかこーいちろー。	NO_LABEL
最高位は十両8枚目。	さいこーいわじゅーりょーはちまいめ。	NO_LABEL
栃木県栃木市出身。	とちぎけんとちぎししゅっしん。	NO_LABEL
出羽ノ海部屋に入門し、1918年1月初土俵を踏む。	でわのうみへやににゅーもんし、せんきゅうひゃくじゅうはちねんいちがつはつどひょーをふむ。	NO_LABEL
1923年1月十両に昇進。	せんきゅうひゃくにじゅうさんねんいちがつじゅーりょーにしょーしん。	NO_LABEL
2場所で幕下に落ちる。	NO_PRONOUNCE	NO_LABEL
1925年1月再十両となるも2勝4敗と負け越し、幕下に落ちた。	せんきゅうひゃくにじゅうごねんいちがつさいじゅーりょーとなるもにしょーよんはいとまけこし、まくしたにおちた。	NO_LABEL
1927年1月、十両に復帰してから6場所連続十両の地位にあった。	NO_PRONOUNCE	NO_LABEL
1931年10月に廃業した。	せんきゅうひゃくさんじゅういちねじゅーがつにはいぎょーした。	NO_LABEL
