外務大臣または外相は、主権国家において外交政策の立案を補佐する政府の閣僚。	がいむだいじんまたわがいしょーわ、しゅけんこっかにおいてがいこーせいさくのりつあんをほさするせいふのかくりょー。	NO_LABEL
外務省は多くの場合、政府首班の下で最上位クラスの機関とみなされている。	がいむしょーわおーくのばあい、せいふしゅはんのしたでさいじょーいくらすのきかんとみなされている。	NO_LABEL
連立政権では、副首相に権限が与えられる事がある。	れんりつせいけんでわ、ふくしゅしょーにけんげんがあたえられることがある。	NO_LABEL
外務大臣の権力は、政府ごとに異なる。	がいむだいじんのけんりょくわ、せいふごとにことなる。	NO_LABEL
古典的な議院内閣制においては外務大臣が対外政策の決定に及ぼす権力は絶大であるが、首相の力が強い場合にはその権力は限定され補助的な政策の決定のみに携わる場合もある。	こてんてきなぎーんないかくせいにおいてわがいむだいじんがたいがいせいさくのけっていにおよぼすけんりょくわぜつだいであるが、しゅしょーのちからがつよいばあいにわそのけんりょくわげんていされほじょてきなせいさくのけっていのみにたずさわるばあいもある。	NO_LABEL
大統領制を採る国では大統領が強力な権力を持つので外務大臣の機能はより制限される。	だいとーりょーせいをとるくにでわだいとーりょーがきょーりょくなけんりょくをもつのでがいむだいじんのきのーわよりせいげんされる。	NO_LABEL
第二次世界大戦の終わり頃から、外務大臣と国防大臣が外交戦略の諮問委員会の構成員を兼ねる事が一般的になった。	だいにじせかいたいせんのおわりころから、がいむだいじんとこくぼーだいじんががいこーせんりゃくのしもんいーんかいのこーせいいんをかねることがいっぱんてきになった。	NO_LABEL
19世紀から20世紀の初頭にかけては、多くの国家において政府首班が外務大臣の役割を兼ねていたが、今日の先進国でこの制度を採る国はまれである。	じゅうきゅうせいきからにじっせいきのしょとーにかけてわ、おーくのこっかにおいてせいふしゅはんががいむだいじんのやくわりをかねていたが、きょーのせんしんこくでこのせいどをとるくにわまれである。	NO_LABEL
外務大臣は政治的な役割を果たす事はもちろん、伝統的に外交に関する幅広い役割を担っている。	がいむだいじんわせいじてきなやくわりをはたすことわもちろん、でんとーてきにがいこーにかんするはばひろいやくわりをになっている。	NO_LABEL
一般的には、閣僚の中で最も多く外遊するのが外務大臣である。	いっぱんてきにわ、かくりょーのなかでもっともおーくがいゆーするのががいむだいじんである。	NO_LABEL
アメリカでは外務大臣は国務長官と呼ばれる。	あめりかでわがいむだいじんわこくむちょーかんとよばれる。	NO_LABEL
最も歴史の長い閣僚ポストである。	もっともれきしのながいかくりょーぽすとである。	NO_LABEL
イギリス連邦では、1968年に過去に分割された外務省と連邦省が合併し、外務・英連邦省となった時からこのポストは外務大臣と呼ばれる。	NO_PRONOUNCE	NO_LABEL
公式な名称は外務・英連邦大臣である。	NO_PRONOUNCE	NO_LABEL
スペイン語圏のラテンアメリカ諸国では、外務大臣は canciler との名で呼ばれる。	NO_PRONOUNCE	NO_LABEL
