境港は、鳥取県境港市にある、港湾である。	さかいみなとわ、とっとりけんさかいみなとしにある、こーわんである。	NO_LABEL
港湾法上の重要港湾で、港湾管理者は鳥取が設立する一部事務組合の境港管理組合。	こーわんほーじょーのじゅーよーこーわんで、こーわんかんりしゃわとっとりがせつりつするいちぶじむくみあいのさかいこうかんりくみあい。	NO_LABEL
市の名称はさかいみなとであるため、港の名称もこのように呼ばれることがあるが、港の公的な呼称はさかいこうである。	しのめいしょーわさかいみなとであるため、みなとのめいしょーもこのよーによばれることがあるが、みなとのこーてきなこしょーわさかいこーである。	NO_LABEL
