曽根 陽一は、日本の写真家。	そねよーいちわ、にっぽんのしゃしんか。	NO_LABEL
埼玉県川口市生まれ。	さいたまけんかわぐちしうまれ。	NO_LABEL
1976年ワークショップ写眞学校・森山大道教室3期修了。	NO_PRONOUNCE	NO_LABEL
商業撮影の助手を経て1979年独立。	しょーぎょーさつえいのじょしゅをへてせんきゅうひゃくななじゅうきゅうねんどくりつ。	NO_LABEL
