アールケー・ジャパン株式会社は、機械部品メーカーである。	あーるけーじゃぱんかぶしきがいしゃわ、きかいぶひんめーかーである。	NO_LABEL
機械用チェーンのメーカーで、オートバイ向けのほか産業機械用のチェーンも製造している。	きかいよーちぇーんのめーかーで、おーとばいむけのほかさんぎょーきかいよーのちぇーんもせいぞーしている。	NO_LABEL
またオートバイ向けの用品としてチェーンメンテナンスツール、ブレーキパット、スクーターベルト等も発売している。	またおーとばいむけのよーひんとしてちぇーんめんてなんすつーる、ぶれーきぱっと、すくーたーべるととーもはつばいしている。	NO_LABEL
かつてはオートバイ向けのリムも生産していたが、現在は会社分割によりエキセルリム株式会社という別法人となっている。	かつてわおーとばいむけのりむもせいさんしていたが、げんざいわかいしゃぶんかつによりえきせるりむかぶしきがいしゃとゆうべつほーじんとなっている。	NO_LABEL
