独立行政法人国立病院機構まつもと医療センターは、長野県松本市にある独立行政法人国立病院機構が運営する病院である。	どくりつぎょーせいほーじんこくりつびょーいんきこーまつもといりょーせんたーわ、ながのけんまつもとしにあるどくりつぎょーせいほーじんこくりつびょーいんきこーがうんえいするびょーいんである。	NO_LABEL
2008年4月1日に独立行政法人国立病院機構松本病院と独立行政法人国立病院機構中信松本病院を統合して発足し、1組織2病院で運営している。	NO_PRONOUNCE	NO_LABEL
2018年2月に松本病院敷地内で新病棟が完成し、5月1日に中信松本病院を松本病院へ移転して「まつもと医療センター」として統合した。	NO_PRONOUNCE	NO_LABEL
※2018年4月27日まで。	NO_PRONOUNCE	NO_LABEL
