アジア太平洋映画祭とは1954年に創設されたアジア映画製作連盟が主催する映画の賞である。	あじあたいへいよーえいがさいとわせんきゅうひゃくごじゅうよねんにそーせつされたあじあえいがせいさくれんめいがしゅさいするえいがのしょーである。	NO_LABEL
最初の名は東南アジア映画祭。	さいしょのなわとーなんあじあえいがさい。	NO_LABEL
次にアジア映画祭。	つぎにあじあえいがさい。	NO_LABEL
東南アジア映画市場開拓に力を入れる日本の大映代表取締役社長の永田雅一を主催とし、フィリピンのマニュエル・デ・レオン、タイのバアヌ・ユガラ、インドネシアのオスマー・イスマイル、香港、シンガポールのロク・ワン・トオ、ランラン・ショウ、ランミー・ショウらの署名と業界の一致によって創設された映画祭。	NO_PRONOUNCE	NO_LABEL
