加藤 衛は、ドイツ文学者、演劇評論家、劇作家。	かとーまもるわ、どいつぶんがくしゃ、えんげきひょーろんか、げきさっか。	NO_LABEL
1939年上智大学卒業。	せんきゅうひゃくさんじゅうきゅうねんじょーちだいがくそつぎょー。	NO_LABEL
ドイツ文学専攻、東京水産大学助教授、横浜市立大学教授を務め、演劇評論のほか劇作・上演も行い、横浜演劇研究所所長を勤めた。	NO_PRONOUNCE	NO_LABEL
ほか、1948年に湘南工業短期大学の前身とされる湘南工業専門学校の教員にも就任している。	ほか、せんきゅうひゃくよんじゅうはちねにしょーなんこーぎょーたんきだいがくのぜんしんとされるしょーなんこーぎょーせんもんがっこーのきょーいんにもしゅーにんしている。	NO_LABEL
