上智大学生命倫理研究所は、上智大学に附置された研究所。	じょーちだいがくせいめいりんりけんきゅーじょわ、じょーちだいがくにふちされたけんきゅーじょ。	NO_LABEL
上智大学の基本理念である「キリスト教ヒューマニズム」と「人間の尊厳」を基盤として、2010年4月に設立された。	NO_PRONOUNCE	NO_LABEL
人文科学・社会科学・自然科学の複合領域による生命倫理学の発展と深化に寄与することを目的とし、従来からの生命倫理の課題である医療倫理に限らず、医療福祉・児童福祉・高齢者問題についても研究の対象としている。	NO_PRONOUNCE	NO_LABEL
