柴田 是真- 明治24年7月13日）は、江戸時代末から明治中期にかけて活動した漆工家、絵師・日本画家。	NO_PRONOUNCE	NO_LABEL
幼名亀太郎、名は順蔵、字は儃然、号は是真、令哉、対柳居、沈柳亭など。	NO_PRONOUNCE	NO_LABEL
日本の漆工分野において、近世から近代への橋渡しする役割を果たした工人である。	にっぽんのしっこーぶんやにおいて、きんせいからきんだいえのはしわたしするやくわりをはたしたこーじんである。	NO_LABEL
文化4年に、越後出身の宮彫師の子で、袋物商に婿養子となった柴田市五郎の子として、江戸両国橘町に生まれる。	ぶんかよんねんに、えちごしゅっしんのみやえしのこで、ふくろものしょーにむこよーしとなったしばたいちごろーのことして、えどりょーこくたちばなちょーにうまれる。	NO_LABEL
父は商家に入った後も、彫工として宮大工の仕事に参加した職人であり、浮世絵を好み勝川春亭或いは勝川春章に師事していた。	ちちわしょーかにはいったのちも、ちょーこーとしてみやだいくのしごとにさんかしたしょくにんであり、うきよえをこのみかつかわしゅんていあるいわかつかわしゅんしょーにしじしていた。	NO_LABEL
文化14年11歳の時より、職人気質を重んじ精巧な細工に特色を示す初代古満寛哉に蒔絵を学ぶ。	ぶんかじゅうよんねんじゅういっさいのときより、しょくにんかたぎをおもんじせいこーなざいくにとくしょくをしめすしょだいふるみつかんさいにまきえをまなぶ。	NO_LABEL
また一時、寛哉の親友であった谷文晁に指導を受けたと伝えられる。	またいちじ、かんさいのしんゆーであったたにぶんちょーにしどーをうけたとつたえられる。	NO_LABEL
是真は文晁の画風には馴染まなかったが、書風は慕い、後年その書を愛蔵したという。	ぜしんわぶんちょーのがふーにわなじまなかったが、しょふーわしたい、こーねんそのしょをあいぞーしたという。	NO_LABEL
ついで文政5年16歳で画工の図案に頼らず仕事をするため、鈴木南嶺に四条派の絵を学んだ。	ついでぶんせいごねんじゅうろっさいでがこーのずあんにたよらずしごとをするため、すずきみなみみねにしじょーはのえをまなんだ。	NO_LABEL
「令哉」の号は、南嶺の嶺の字の一部「令」と、古満寛哉の「哉」を採った名である。	NO_PRONOUNCE	NO_LABEL
文政7年、当時売り出し中の浮世絵師歌川国芳が、是真の扇絵に感動し弟子入りしようとしたが、是真は初め固辞するが弟子とし、国芳に「仙真」の号を与えたという逸話が残る。	NO_PRONOUNCE	NO_LABEL
文政11年頃、浅草本願寺の依頼で障壁画を描く。	ぶんせいじゅういちねんごろ、あさくさほんがんじのいらいでしょーへきがをえがく。	NO_LABEL
構想を練っていた時に茶を出されたが、是真は茶道の作法を知らなかったため冷や汗をかき、まとまりかけていた構図も消え去ってしまいうまく画を描けなかった。	こーそーをねっていたときにちゃをだされたが、ぜしんわさどーのさほーをしらなかったためひやあせをかき、まとまりかけていたこーずもきえさってしまいうまくがをえがけなかった。	NO_LABEL
是真はその足で、浅草寺境内にある人丸堂の堂主・西村藐庵を訪ねて茶道の手解きを受けた。	NO_PRONOUNCE	NO_LABEL
その後、宗偏流の時習軒六世・吉田宗意に入門した。	NO_PRONOUNCE	NO_LABEL
天保元年24歳の時四条派をより深く学ぶため京都へ遊学した。	てんぽーがんねんにじゅうよんさいのときしじょーはをよりふかくまなぶためきょーとえゆーがくした。	NO_LABEL
南嶺の紹介で、四条派の本場京都画壇の俊英である岡本豊彦の弟子となる。	みなみみねのしょーかいで、しじょーはのほんばきょーとがだんのしゅんえいであるおかもととよひこのでしとなる。	NO_LABEL
同門で近くに住んでいた是真より1歳年下の塩川文麟は、親友でありライバルでもあった。	どーもんでちかくにすんでいたぜしんよりいっさいとししたのしおかわぶんりんわ、しんゆーでありらいばるでもあった。	NO_LABEL
南嶺は江戸を立つ是真に京で見聞を広めるよう勧めており、是真はその教えに従い、香川景樹に歌学と国学を、頼山陽に漢字を学ぶ。	みなみみねわえどをたつぜしんにきょーでけんぶんをひろめるよーすすめており、ぜしんわそのおしえにしたがい、かがわかげきにかがくとこくがくを、らいさんよーにかんじをまなぶ。	NO_LABEL
山陽門下という肩書きは、後に思わぬところで役に立ったという。	さんよーもんかとゆうかたがきわ、ごにおもわぬところでやくにたったという。	NO_LABEL
京都滞在中は、他に松村景文、森徹山、和田呉山、田中日華、陶工の青木木米とも親交をもった。	きょーとたいざいちゅーわ、たにまつむらけいぶん、もりてつざん、わだくれやま、たなかにちか、とーこーのあおきもくべいともしんこーをもった。	NO_LABEL
天保2年の11月或いは翌年春に江戸に帰ると師南嶺に再会、その驚くほどの進歩を認められ、新たに字「儃然」と「是真」を号するようになった。	NO_PRONOUNCE	NO_LABEL
この字と号は、荘子外篇・田子方篇、第二十一に由来する。	NO_PRONOUNCE	NO_LABEL
またこのころ、神田川をはさんで柳原の対岸、浅草上平右衛門町に居を移し、以後、對柳居と号し好んで使用した。	NO_PRONOUNCE	NO_LABEL
同時期に当時11歳の池田泰真が弟子入りしている。	どーじきにとーじじゅういっさいのいけだたいしんがでしいりしている。	NO_LABEL
また、天保12年、東北各地を巡った。	また、てんぽーじゅうにねん、とーほくかくちをめぐった。	NO_LABEL
弘化年間より名が知られるようになった。	こうかねんかんよりながしられるよーになった。	NO_LABEL
嘉永3年9月14日、最初の妻すまとの間に長男亀太郎が生まれる。	かながさんねんくがつじゅうよっか、さいしょのつますまとのまにちょーなんかめたろーがうまれる。	NO_LABEL
この年是真は44歳なので、比較的晩年に結婚したと考えられる。	このとしぜしんわよんじゅうよんさいなので、ひかくてきばんねんにけっこんしたとかんがえられる。	NO_LABEL
安政元年8月に母ますが68歳で病死。	やすまさがんねんはちがつにははますがろくじゅうはっさいでびょーし。	NO_LABEL
その看病疲れで、すまも10月に没したとされる。	そのかんびょーずかれで、すまもじゅーがつにぼっしたとされる。	NO_LABEL
翌年、玉川に住む鈴木歌子と再婚。	よくねん、たまがわにすむすずきうたことさいこん。	NO_LABEL
歌子と間に安政5年、次男慎次郎をもうけるが、5年後の文久5年歌子も亡くなってしまう。	うたことまにあんせいごねん、じなんしんじろーをもーけるが、ごねんごのぶんきゅーごねんうたこもなくなってしまう。	NO_LABEL
翌元治元年、両国の青物問屋千種庵磐城の娘しのを迎えるが、なぜか入籍せず、しのは実家の梅沢姓を名乗った。	よくもとはるがんねん、りょーこくのあおものとんやせんしゅあんいわきのむすめしのをむかえるが、なぜかにゅーせきせず、しのわじっかのうめざわせいをなのった。	NO_LABEL
蒔絵や漆絵では、青海勘七以来絶えていた青海波塗を復活し、青銅塗・四分一塗・鉄錆塗・砂張塗・紫檀塗・墨形塗などの新技法を創始する。	NO_PRONOUNCE	NO_LABEL
また、独特の作風で、内国勧業博覧会などに出品したり、博覧会の審査員をつとめたりして、明治漆工界に貢献した。	また、どくとくのさくふーで、ないこくかんぎょーはくらんかいなどにしゅっぴんしたり、はくらんかいのしんさいんをつとめたりして、めいじしっこーかいにこーけんした。	NO_LABEL
江戸っ子気質だったらしく、東京府知事楠本正隆の仕事依頼を、「自分は公方様の時代に人になった者であるからお断りする」、と言ってなかなか引き受けなかったという逸話がある。	NO_PRONOUNCE	NO_LABEL
国芳の弟子だったこともある河鍋暁斎とは仲が悪かったと言われているが、静嘉堂文庫美術館には、画帖は暁斎、木箱は是真という両者合作の作品が所蔵されている。	くによしのでしだったこともあるかわなべきょーさいとわなかがわるかったといわれているが、せいかどーぶんこびじゅつかんにわ、がじょーわきょーさい、きばこわぜしんとゆうりょーしゃがっさくのさくひんがしょぞーされている。	NO_LABEL
明治6年のウィーン万国博覧会に「富士田子浦蒔絵額面」を出品して進歩賞牌を受賞する。	NO_PRONOUNCE	NO_LABEL
明治7年三男順三郎が生まれる。	めいじななねんさんなんじゅんざぶろーがうまれる。	NO_LABEL
明治11年長女せいが生まれる。	めいじじゅういちねんちょーじょせいがうまれる。	NO_LABEL
同年、是真は剃髪したとされる。	どーねん、ぜしんわていはつしたとされる。	NO_LABEL
明治19年皇居の杉戸絵を描いた。	めいじじゅうくねんこーきょのすぎとえをえがいた。	NO_LABEL
明治23年10月2日に帝室技芸員になる。	めいじにじゅうさんねんじゅーがつふつかにていしつぎげいいんになる。	NO_LABEL
明治24年7月13日に歿し、浅草今戸の称福寺に葬られ、「弘道院釈是真居士」と諡された。	NO_PRONOUNCE	NO_LABEL
軽妙洒脱でエスプリに満ちた粋な作風は欧米人に好まれ、かなりの作品が海外にある。	けいみょーしゃだつでえすぷりにみちたいきなさくふーわおーべいじんにこのまれ、かなりのさくひんがかいがいにある。	NO_LABEL
