マヌエラ・シュヴェーズィヒは、ドイツ連邦共和国の政治家。	NO_PRONOUNCE	NO_LABEL
現在、同国メクレンブルク＝フォアポンメルン州首相。	げんざい、どーこくめくれんぶるくふぉあぽんめるんししゅしょー。	NO_LABEL
同州労働、社会均等、社会相などを歴任。	どーしゅーろーどー、しゃかいきんとー、しゃかいしょーなどをれきにん。	NO_LABEL
ドイツ社会民主党所属、2009年より同党副党首。	どいつしゃかいみんしゅとーしょぞく、にせんきゅうねんよりどーとーふくとーしゅ。	NO_LABEL
2013年から2017年まで第3次メルケル内閣で家族相を務めた。	にせんじゅうさんねんからにせんじゅうななねんまでだいさんじめるけるないかくでかぞくしょーをつとめた。	NO_LABEL
フランクフルト生まれ。	ふらんくふるとうまれ。	NO_LABEL
ゼーロウ高地にあるギムナジウムでアビトゥアに合格後、1992年から2000年までフランクフルトの税務署に勤務すると同時に税務専門学校にも通う。	ぜーろーこーちにあるぎむなじうむであびとぅあにごーかくご、せんきゅうひゃくきゅうじゅうにねんからにせんねんまでふらんくふるとのぜいむしょにきんむするとどーじにぜいむせんもんがっこーにもかよう。	NO_LABEL
1995年、財務ディプローム試験に合格後、税務監察官としてシュヴェリーン財務局に転属する。	NO_PRONOUNCE	NO_LABEL
2002年5月以降、彼女はメクレンブルク＝フォアポンメルン州財務省、320部局勤務する。	NO_PRONOUNCE	NO_LABEL
最後に彼女は財務行政部局参事として、公的職務と組織問題に従事するようになった。	さいごにかのじょわざいむぎょーせいぶきょくさんじとして、こーてきしょくむとそしきもんだいにじゅーじするよーになった。	NO_LABEL
マヌエラ・シュヴェーズィヒは29歳でドイツ社会民主党に入党し 、社会民主党シュヴェリーン地域支部と州本部に属した。	NO_PRONOUNCE	NO_LABEL
2004年以降、彼女はシュヴェリーン市議会ドイツ社会民主党副議員団長になり、2007年10月から2008年10月まで議員団長になった 	NO_PRONOUNCE	NO_LABEL
2008年10月6日に州政府社会、保健相に任命された。	にせんはちねんじゅーがつむいかにしゅーせいふしゃかい、ほけんしょーににんめいされた。	NO_LABEL
彼女の前任大臣エルウィン・ゼレリングがメクレンブルク＝フォアポンメルン州首相に転出したための後継人事であった。	NO_PRONOUNCE	NO_LABEL
2009年7月30日、2009年ドイツ連邦議会選挙におけるドイツ社会民主党のフランク＝ヴァルター・シュタインマイアー連邦首相候補の影の内閣閣僚になった。	NO_PRONOUNCE	NO_LABEL
彼女は家族・社会領域を担当した。	NO_PRONOUNCE	NO_LABEL
2011年10月25日に、メクレンブルク＝フォアポンメルン州第2次エルウィン・ゼレリング内閣の労働、社会均等、社会相に任命された。	NO_PRONOUNCE	NO_LABEL
2013年12月から2017年7月まで、第3次メルケル内閣で家族・高齢者・婦人・青少年相を務めた。	NO_PRONOUNCE	NO_LABEL
2017年7月4日、前任者が健康上の理由で辞任し、その後継に指名されたため、メクレンブルク＝フォアポンメルン州首相に選出された。	にせんじゅうななねんしちがつよっか、ぜんにんしゃがけんこーじょーのりゆーでじにんし、そのこーけいにしめいされたため、めくれんぶるくふぉあぽんめるんししゅしょーにせんしゅつされた。	NO_LABEL
マヌエラ・シュヴェーズィヒはドイツ児童保護連盟会員である。	NO_PRONOUNCE	NO_LABEL
彼女は既婚で一人息子がいる。	かのじょわきこんでひとりむすこがいる。	NO_LABEL
2010年7月31日、無神論者だった彼女は夫と息子と共にキリスト教の洗礼を受け 、家族と共に メクレンブルク福音ルター派州教会 に加入した。	にせんじゅうねんしちがつさんじゅういちにち、むしんろんしゃだったかのじょわおっととむすことともにきりすときょーのせんれいをうけ、かぞくとともにめくれんぶるくふくいんるたーはしゅーきょーかいにかにゅーした。	NO_LABEL
