ファヴェーラは、ブラジルにおいてスラムや貧民街を指す言葉。	NO_PRONOUNCE	NO_LABEL
ブラジルのほぼすべての大都市および中規模都市の郊外には、不法居住者の建てた小屋の並ぶファヴェーラや、既存の町がスラム化したファヴェーラが存在する。	NO_PRONOUNCE	NO_LABEL
中でもリオデジャネイロ市のファヴェーラがもっとも有名で、カリオカの4人に1人はファヴェーラに住むとされる。	NO_PRONOUNCE	NO_LABEL
ファヴェーラの多くは、公有地や所有権を巡って係争のある土地などを不法占拠する形で小屋や家屋が築かれたもので、一般的にブラジルの諸都市はファヴェーラの存在を法的実体として認知していない。	NO_PRONOUNCE	NO_LABEL
ファヴェーラの建物は非常に建て込んでおり一軒一軒も狭く、地形に合わせた階段や通路が家々の間を通っている。	NO_PRONOUNCE	NO_LABEL
このため自動車は通行できないことが多い。	このためじどーしゃわつーこーできないことがおーい。	NO_LABEL
コンクリートやレンガで造られた家から廃材で作られた家まで様々であるがいずれも無断で建てられている。	こんくりーとやれんがでつくられたいえからはいざいでつくられたいえまでさまざまであるがいずれもむだんでたてられている。	NO_LABEL
おおむね衛生状態は悪く下水処理や病気に悩んでいる。	おーむねえいせいじょーたいわわるくげすいしょりやびょーきになやんでいる。	NO_LABEL
ファヴェーラによっては家々に電気が通り夜には明かりがきらめくが、これは付近の電線から勝手に電線を引いた盗電である。	NO_PRONOUNCE	NO_LABEL
都市周囲の山の斜面に建てられたファヴェーラも多く、大雨の後に地滑りが起こり大勢の犠牲者が出ることも相次いでいる。	NO_PRONOUNCE	NO_LABEL
ファヴェーラの人々は、ファヴェーラの外の都心などで低賃金の仕事に就くことが多いが、失業やドラッグ、ギャング同士の抗争といった社会問題も深刻である。	NO_PRONOUNCE	NO_LABEL
ファヴェーラという名称の起源は、ブラジル北東部のステップ気候の地方に生える、トウダイグサ科のとげの多い葉の植物()に由来する。	NO_PRONOUNCE	NO_LABEL
1895年から1896年にかけて北東部バイーア州で、自称助言者のアントニオ・コンセリェイロとその信者たちがの町を築き、政府との間でカヌードス戦争が起こった。	NO_PRONOUNCE	NO_LABEL
政府は反乱軍の鎮圧のために元奴隷の黒人らを徴兵した。	せいふわはんらんぐんのちんあつのためにもとどれいのこくじんらをちょーへいした。	NO_LABEL
徴兵された兵士らはカヌードス戦争が政府の勝利で終わり任務を解かれると大都市へと流れ、多くは当時の首都リオデジャネイロに移住したが、政府は彼らに住居を提供することができなかった。	ちょーへいされたへいしらわかぬーどすせんそーがせいふのしょーりでおわりにんむをとかれるとだいとしえとながれ、おーくわとーじのしゅとりおでじゃねいろにいじゅーしたが、せいふわかれらにじゅーきょをていきょーすることができなかった。	NO_LABEL
結局1897年11月、元兵士らはリオデジャネイロのモーホ・ダ・プロヴィデンシアという丘にあった公共の土地に、自分たちで家を建てた。	NO_PRONOUNCE	NO_LABEL
彼らは新しい街を、カヌードスの反乱軍との勝利の地に生い茂っていた植物にちなみ、モーホ・ダ・ファヴェーラと名付けた。	NO_PRONOUNCE	NO_LABEL
やがてカヌードスの元兵士に代わり、奴隷から解放された自由黒人らがファヴェーラに流入し、ファヴェーラは黒人を主としインディオ、メスティーソらも住む貧民街へと変わっていった。	NO_PRONOUNCE	NO_LABEL
ファヴェーラの町が建設されるより前から貧しい黒人は都心から郊外へと押しやられていたが、都心で歓迎されない黒人たちにとって、ファヴェーラは働き口の多い都心に近い位置にあり、ちょうどいい移住先となった。	NO_PRONOUNCE	NO_LABEL
ファヴェーラの町が建設される前にも、逃亡した黒人奴隷が築いた村落・キロンボがリオデジャネイロ周辺の山の斜面に点在しており、1888年に奴隷制度が廃止されると同時に行き場のない黒人たちが流入して大きくなっていた。	NO_PRONOUNCE	NO_LABEL
ファヴェーラは都市が過密化したり不動産への関心が今日のように高まったりする前に形成されている。	NO_PRONOUNCE	NO_LABEL
1940年代には住宅危機が起こり、都市部の貧民たちは郊外に無数のバラック街を築いた。	せんきゅうひゃくよんじゅうねんだにわじゅーたくききがおこり、としぶのひんみんたちわこーがいにむすーのばらっくがいをきずいた。	NO_LABEL
この時期、貧しいリオ市民の主な居住地は、集合住宅や小さな家からファヴェーラへと代わる。	NO_PRONOUNCE	NO_LABEL
ファヴェーラの爆発的成長は、1940年代にジェトゥリオ・ドルネレス・ヴァルガスが産業化を進めて数多くの国民が大都市へ、特にサンパウロや当時は首都で連邦区だったリオデジャネイロへと流入した時期、および1970年代にファヴェーラがリオデジャネイロ市の範囲を超えて都市圏の外縁部まで達した時期にあたる。	NO_PRONOUNCE	NO_LABEL
今日のファヴェーラの多くは、建設ブームで大都市に地方の農民らが流入した1970年代がピークであった。	NO_PRONOUNCE	NO_LABEL
低層住宅の立ち並ぶスラム化した地区から溢れた人々は、丘の上に不法居住の家屋を築いていった。	ていそーじゅーたくのたちならぶすらむかしたちくからあふれたひとびとわ、おかのうえにふほーきょじゅーのかおくをきずいていった。	NO_LABEL
ファヴェーラはどれも異なった時期に異なった経緯で形成されているが、最終的には貧困層の住む地域という共通点を持つに至っている。	NO_PRONOUNCE	NO_LABEL
ファヴェーラの爆発的拡大を受けて、ブラジルの政府はファヴェーラ撤去運動に乗り出した。	NO_PRONOUNCE	NO_LABEL
1940年代の「Parque Proletário」計画では、リオの貧困スラムが撤去され、住民たちは新しい公営住宅に建て変わるまでの間小屋などに仮住まいした。	NO_PRONOUNCE	NO_LABEL
しかし公営住宅は少量しか作られず、住宅改良工事のために更地になった場所に新たなファヴェーラが誕生しただけだった。	NO_PRONOUNCE	NO_LABEL
1955年、レシフェ司教でリオデジャネイロ補佐司教のエルデル・カマラは、連邦区の財政支援を受け、当時最大のファヴェーラであったPraia do Pintoに集合住宅群を建てるという計画「Cruzada São Sebastião」という名の計画を立ち上げた。	NO_PRONOUNCE	NO_LABEL
この「十字軍運動」は、ファヴェーラ生活の悪徳を断ち切る意思のある者だけを新住宅に入居させ、彼らを受け入れられやすい市民とすることであった。	NO_PRONOUNCE	NO_LABEL
1970年代の軍事政権時代にも、貧者のための住宅計画という名目でファヴェーラ撤去計画は活発化した。	NO_PRONOUNCE	NO_LABEL
しかし実際に起こったことはファヴェーラの解体と、その住民がより郊外の生活基盤のない土地へと移転させられた事態であった。	NO_PRONOUNCE	NO_LABEL
ファヴェーラの跡地には安い郊外住宅ができたが、そこからファヴェーラ旧住民に配分される利益では、旧住民らが新しい住宅に入るだけの収入とはならず、この計画は破綻していった。	NO_PRONOUNCE	NO_LABEL
ファヴェーラに住む人々はファヴェラドスと呼ばれる。	NO_PRONOUNCE	NO_LABEL
最初のファヴェーラの住民はアフリカ系住民で、現在も黒人が主体であるが、19世紀のヨーロッパからの貧しい移民流入に伴い、白人系の住民もファヴェーラに入ってきた。	NO_PRONOUNCE	NO_LABEL
ファヴェーラは人種的には多様である。	NO_PRONOUNCE	NO_LABEL
ファヴェーラの住民はかつては人種的不平等や人種差別による扱いを受けていたが、現在では経済的理由から差別されている。	NO_PRONOUNCE	NO_LABEL
フェヴァーラは、ブラジル国民の所得分配の著しい不平等の産物といえる。	NO_PRONOUNCE	NO_LABEL
ブラジルでは人口の上位10%が国庫収入の50%を稼ぎ、人口の34%が貧困線以下で生活している。	ぶらじるでわじんこーのじょーいじゅうぱーせんとがこっこしゅーにゅーのごじゅうぱーせんとをかせぎ、じんこーのさんじゅうよんぱーせんとがひんこんせんいかでせいかつしている。	NO_LABEL
ブラジル政府は20世紀の間中貧困対策を行っている。	ぶらじるせいふわにじっせいきのまなかひんこんたいさくをおこなっている。	NO_LABEL
たとえば1970年代の軍事政権のファヴェーラ撤去では10万人以上がファヴェーラを追われ、新しい公共住宅や故郷の地方へと移住させられた。	NO_PRONOUNCE	NO_LABEL
またジェントリフィケーションによる貧困地域対策も行われた。	またじぇんとりふぃけーしょんによるひんこんちいきたいさくもおこなわれた。	NO_LABEL
都心付近のファヴェーラを一掃して上級な住宅を建設し、隣接するインナーシティとあわせてUpper Middle Classの上の人々のための住宅地へと変えた。	NO_PRONOUNCE	NO_LABEL
しかしこれにより都心付近の貧困地区が消えLower Middle Classの流入が見られた一方、住む場所を失ったファヴェーラ住民は路上へ押し出されホームレスとなったり、働き口のない郊外外縁部にまで追い出された。	NO_PRONOUNCE	NO_LABEL
たとえばリオデジャネイロではホームレス人口の多くは黒人で、ファヴェーラの中級住宅地化や著しい貧困で住む場所を失っている。	NO_PRONOUNCE	NO_LABEL
コロンビア産のコカイン取引はブラジル社会およびファヴェーラに大きな悪影響を与えた。	NO_PRONOUNCE	NO_LABEL
ファヴェーラに麻薬使用が集中し、地域のギャングたちが麻薬販売やダンスパーティを行うことでギャングは大きくなってゆく。	NO_PRONOUNCE	NO_LABEL
ファヴェーラは麻薬王に支配されるようになり、密売組織と警察の市街戦や、犯罪者同士の銃撃戦が起こっている場所もある。	NO_PRONOUNCE	NO_LABEL
違法行為も横行し、リオデジャネイロ住民10万人に対する殺人率は40人を超えファヴェーラではこの数値は上昇する。	NO_PRONOUNCE	NO_LABEL
住民は、日頃の行動に気をつけて密売組織との関係を維持することで安全が確かになると信じるに至っている。	じゅーみんわ、ひごろのこーどーにきをつけてみつばいそしきとのかんけいをいじすることであんぜんがたしかになるとしんじるにいたっている。	NO_LABEL
住民や組織が地域の秩序を維持し、互いに尊敬しあうことにより、ファヴェーラの犯罪率は高いにもかかわらず表面的には安全な生活が送られている。	NO_PRONOUNCE	NO_LABEL
リオやサンパウロといった大都市でのファヴェーラ一掃の試みにもかかわらず、貧困層の人口もファヴェーラも急速に拡大している。	NO_PRONOUNCE	NO_LABEL
1969年には約300のファヴェーラがリオデジャネイロにあったが、2000年代には2倍となった。	NO_PRONOUNCE	NO_LABEL
ファヴェーラの人口の伸びはブラジルの人口の伸びより急速である。	NO_PRONOUNCE	NO_LABEL
1950年にはリオデジャネイロの人口の7%がファヴェーラ在住だったが、21世紀に入り19%がファヴェーラ在住となった。	NO_PRONOUNCE	NO_LABEL
1980年から1990年の国勢調査の結果によればリオデジャネイロの人口増加率は8%に落ちたが、ファヴェーラでは人口は41%増加した。	NO_PRONOUNCE	NO_LABEL
1990年代以降では市全体で7%の増加率に対し、ファヴェーラでは増加率は24%だった。	NO_PRONOUNCE	NO_LABEL
政府による公営住宅建設も成果を挙げたものばかりではない。	せいふによるこーえいじゅーたくけんせつもせいかをあげたものばかりでわない。	NO_LABEL
2002年の映画『シティ・オブ・ゴッド』で有名になったファヴェーラのシダージ・ジ・デウスは、1960年に都心付近のファヴェーラを一掃した後、その住民を郊外へ移住させるため州政府により建設された団地であったが、やがて荒廃し、団地内の社会はファヴェーラの社会と変わらないものになってしまった。	NO_PRONOUNCE	NO_LABEL
ファヴェーラの人口増加は地方や国外からの人口流入にとどまらず、経済の悪化や社会の流動性の悪さが主な要因となっている。	NO_PRONOUNCE	NO_LABEL
中間層は貧困化し安いファヴェーラに流れ、貧困層はジェントリフィケーションによりインナーシティにあった下町を追い出され、望むと望まざるとにかかわらず違法なファヴェーラへと流れる。	NO_PRONOUNCE	NO_LABEL
さらに、低学歴・未熟練の労働者に対する求人やブルーカラーの雇用数が減少していること、ブラジルでは教育に於いて公教育のレベルが低く貧困層が義務教育以上の高学歴を得にくいことが、ファヴェーラからの脱出を難しくしている。	NO_PRONOUNCE	NO_LABEL
ブラジルでは国立・州立の大学の学費は無料だが、入試に合格するには学費の高い私立学校や予備校に通った者が有利であり、ファヴェーラ出身者はこうした学校へは通えず入試にも通りにくい。	NO_PRONOUNCE	NO_LABEL
ブラジルが民政に戻った1980年代末以後、ファヴェーラに対する政府の対策は変化している。	NO_PRONOUNCE	NO_LABEL
1990年代からの「Favela Bairro」計画では、都市計画家はファヴェーラを一掃し公営住宅に住民を押し込む計画を立てるのではなく、ファヴェーラの存在を認め、社会学者や市民活動家らとともに共同作業を行い、ファヴェーラの生活基盤と社会サービスを改善し生活水準を上げることを目指している。	NO_PRONOUNCE	NO_LABEL
ファヴェーラ住民をならず者や麻薬ギャングの構成員と扱わず、最終的には安全で安定した共同体の市民として誇りが持てるようにすることが目標となっている。	NO_PRONOUNCE	NO_LABEL
2005年段階で、「Favela Bairro」計画の下で6億ドルが公園や街路建設が進められ、リオの400以上のスラムのうち120にソーシャルワーカーなどが置かれた。	NO_PRONOUNCE	NO_LABEL
貧困層には行き届かなかった電気や上下水道、ごみ収集サービス、託児所などがファヴェーラ内に導入され、ドメスティックバイオレンスや性的嫌がらせやドラッグ中毒・アルコール中毒などに対する相談も行われており、計画開始後にはファヴェーラ内の商業活動の倍増や地価上昇も起こっている。	NO_PRONOUNCE	NO_LABEL
2014 FIFAワールドカップおよび2016年のリオデジャネイロオリンピックがリオデジャネイロで開催されることに決定したのを受けて、リオデジャネイロ州では軍警察の特殊警察作戦大隊や文民警察の特別人材調整局などの強力な特殊部隊を投入し犯罪組織の掃討作戦を展開	にせんじゅうよねんふぃふぁわーるどかっぷおよびにせんじゅうろくねんのりおでじゃねいろおりんぴっくがりおでじゃねいろでかいさいされることにけっていしたのをうけて、りおでじゃねいろしゅーでわぐんけいさつのとくしゅけいさつさくせんだいたいやぶんみんけいさつのとくべつじんざいちょーせいきょくなどのきょーりょくなとくしゅぶたいをとーにゅーしはんざいそしきのそーとーさくせんをてんかい	NO_LABEL
、その後は軍警察の() を24時間駐留させて監視に当たっている。	NO_PRONOUNCE	NO_LABEL
さらにオリンピック期間中には全国からの選抜者により結成された国家治安部隊がパトロールを行っているが、それでも銃撃事件が発生している。	さらにおりんぴっくきかんちゅーにわぜんこくからのせんばつしゃによりけっせいされたこっかちあんぶたいがぱとろーるをおこなっているが、それでもじゅーげきじけんがはっせいしている。	NO_LABEL
本質的な解決として日本の国際協力機構などから協力を得て、ファヴェーラ地域に文民警察官が常駐する交番の設置を展開させている。	NO_PRONOUNCE	NO_LABEL
警官が手芸教室などの催し物を防犯活動の一環として企画する活動も行われ、交番がコミュニティハウスの機能も担っている。	けいかんがしゅげいきょーしつなどのもよーしものをぼーはんかつどーのいっかんとしてきかくするかつどーもおこなわれ、こーばんがこみゅにてぃはうすのきのーもになっている。	NO_LABEL
交番を通じて顔の見える防犯が、犯罪率の低下に成果をあげている。	こーばんをつーじてかおのみえるぼーはんが、はんざいりつのていかにせいかをあげている。	NO_LABEL
2017年現在も治安の悪化は深刻化しており、しばしば警察や軍による介入が行われている。	にせんじゅうななねんげんざいもちあんのあっかわしんこくかしており、しばしばけいさつやぐんによるかいにゅーがおこなわれている。	NO_LABEL
2017年12月13日には、ファヴェーラの一つマレーに800人規模の軍隊が投入される軍事作戦が展開された。	NO_PRONOUNCE	NO_LABEL
