バス郡はアメリカ合衆国ケンタッキー州内に位置する郡である。	ばすぐんわあめりかがっしゅーこくけんたっきーしゅーないにいちするぐんである。	NO_LABEL
2000年現在、人口は11,085人である。	NO_PRONOUNCE	NO_LABEL
ここの郡庁所在地はw:Owingsville, Kentuckyである。	NO_PRONOUNCE	NO_LABEL
アメリカ合衆国統計局によると、この郡は総面積735 kmである。	NO_PRONOUNCE	NO_LABEL
このうち724 kmが陸地で12 kmが水地域である。	NO_PRONOUNCE	NO_LABEL
総面積の1.58%が水地域となっている。	NO_PRONOUNCE	NO_LABEL
2000年現在の国勢調査で、この郡は人口11,085人、4,445世帯、及び3,195家族が暮らしている。	NO_PRONOUNCE	NO_LABEL
人口密度は15/kmである。	NO_PRONOUNCE	NO_LABEL
7/kmの平均的な密度に4,994軒の住宅が建っている。	NO_PRONOUNCE	NO_LABEL
この都市の人種的な構成は白人96.87%、アフリカン・アメリカン1.85%、先住民0.21%、アジア0.02%、太平洋諸島系0.00%、その他の人種0.40%、及び混血0.66%である。	NO_PRONOUNCE	NO_LABEL
ここの人口の0.80%はヒスパニックまたはラテン系である。	NO_PRONOUNCE	NO_LABEL
この郡内の住民は24.20%が18歳未満の未成年、18歳以上24歳以下が8.60%、25歳以上44歳以下が28.80%、45歳以上64歳以下が23.80%、及び65歳以上が14.60%にわたっている。	NO_PRONOUNCE	NO_LABEL
中央値年齢は37歳である。	ちゅーおーちねんれいわさんじゅうななさいである。	NO_LABEL
女性100人ごとに対して男性は97.60人である。	NO_PRONOUNCE	NO_LABEL
18歳以上の女性100人ごとに対して男性は94.80人である。	NO_PRONOUNCE	NO_LABEL
この郡内の世帯ごとの平均的な収入は26,018米ドルであり、家族ごとの平均的な収入は31,758米ドルである。	NO_PRONOUNCE	NO_LABEL
男性は27,786米ドルに対して女性は20,986米ドルの平均的な収入がある。	NO_PRONOUNCE	NO_LABEL
この郡の一人当たりの収入は15,326米ドルである。	NO_PRONOUNCE	NO_LABEL
人口の21.90%及び家族の16.40% は貧困線以下である。	NO_PRONOUNCE	NO_LABEL
全人口のうち18歳未満の29.60%及び65歳以上の21.20%は貧困線以下の生活を送っている。	NO_PRONOUNCE	NO_LABEL
