ジェーン・グドールは、イギリスの動物行動学者、霊長類学者、人類学者、国連平和大使。	じぇーんぐどーるわ、いぎりすのどーぶつこーどーがくしゃ、れいちょーるいがくしゃ、じんるいがくしゃ、こくれんへいわたいし。	NO_LABEL
ロンドン生まれ、ボーンマスで育つ。	ろんどんうまれ、ぼーんますでそだつ。	NO_LABEL
父はビジネスマン、母は小説家。	ちちわびじねすまん、ははわしょーせつか。	NO_LABEL
幼い頃より動物が好きで、アフリカへ行くことを夢見る少女であった。	おさないころよりどーぶつがすきで、あふりかえいくことをゆめみるしょーじょであった。	NO_LABEL
アップランズ・プライベートスクール卒業後、オックスフォード大学で秘書業務に就く。	NO_PRONOUNCE	NO_LABEL
また、アフリカへ向う資金作りのため、ドキュメンタリー制作会社にも勤務する。	また、あふりかえむかうしきんずくりのため、どきゅめんたりーせいさくがいしゃにもきんむする。	NO_LABEL
ケニヤで農場を経営する友人宅を訪問したときに人類学の世界的権威であるルイス・リーキー博士と出会い、リーキーの下で働けるよう志願する。	けにやでのーじょーをけいえいするゆーじんたくをほーもんしたときにじんるいがくのせかいてきけんいであるるいすりーきーはかせとであい、りーきーのしたではたらけるよーしがんする。	NO_LABEL
リーキーは霊長類学研究、特にチンパンジーの研究に興味を抱いており、グドールを秘書として採用した。	りーきーわれいちょーるいがくけんきゅー、とくにちんぱんじーのけんきゅーにきょーみをだいており、ぐどーるをひしょとしてさいよーした。	NO_LABEL
リーキーの薦めでタンザニアのゴンベのジャングルでチンパンジーの研究を始める。	りーきーのすすめでたんざにあのごんべのじゃんぐるでちんぱんじーのけんきゅーをはじめる。	NO_LABEL
 リーキーとグドールは世界で初めてチンパンジーが草の茎を使いアリを捕る行動を報告し、人類固有とされてきた道具を使う能力がチンパンジーにも存在することを証明した。	りーきーとぐどーるわせかいではじめてちんぱんじーがくさのくきをつかいありをとるこーどーをほーこくし、じんるいこゆーとされてきたどーぐをつかうのーりょくがちんぱんじーにもそんざいすることをしょーめいした。	NO_LABEL
また、草食動物であると考えられていたチンパンジーが雑食であること、チンパンジーの性格に個体差があることを証明し、目覚しい研究成果を上げた。	また、そーしょくどーぶつであるとかんがえられていたちんぱんじーがざっしょくであること、ちんぱんじーのせいかくにこたいさがあることをしょーめいし、めざましいけんきゅーせいかをあげた。	NO_LABEL
しかし、正規の大学教育を受けていないグドールに対し、他の研究者からは冷ややかな目線が向けられた。	しかし、せいきのだいがくきょーいくをうけていないぐどーるにたいし、たのけんきゅうしゃからわひややかなめせんがむけられた。	NO_LABEL
リーキーは特別基金を設立し、1962年にグドールをケンブリッジ大学ダーウィン・カレッジへ進学させた。	りーきーわとくべつききんをせつりつし、せんきゅうひゃくろくじゅうにねんにぐどーるをけんぶりっじだいがくだーうぃんかれっじえしんがくさせた。	NO_LABEL
1966年にケンブリッジ大学でPh.D.を取得。	せんきゅうひゃくろくじゅうろくねんにけんぶりっじだいがくでぴーえっちでぃーをしゅとく。	NO_LABEL
創立700年を超えるケンブリッジ大学の歴史で8人目となる学士の学位を持たないPh.D.取得者となった。	そーりつななひゃくねんをこえるけんぶりっじだいがくのれきしではちにんめとなるがくしのがくいをもたないぴーえっちでぃーしゅとくしゃとなった。	NO_LABEL
スタンフォード大学客員教授、ダルエスサラーム大学名誉客員教授、タフツ大学招聘教授、クリーブランド自然史博物館研究員、南カリフォルニア大学特別招聘教授、コーネル大学アンドルー・A・ホワイト講座教授などの要職を歴任。	NO_PRONOUNCE	NO_LABEL
1977年に野生動物研究・教育・保護団体「ジェーン・グドール研究所」を設立。	NO_PRONOUNCE	NO_LABEL
2002年から国連平和大使を務める。	にせんにねんからこくれんへいわたいしをつとめる。	NO_LABEL
2003年にエリザベス2世より霊長類学研究に対し大英帝国勲章を授与され“デーム”の称号を得る。	NO_PRONOUNCE	NO_LABEL
2007年京都大学から名誉博士号を授与される。	にせんななねんきょーとだいがくからめいよはくしごーをじゅよされる。	NO_LABEL
現在、執筆の傍ら、世界中を巡り、講演や教育活動を行っている。	げんざい、しっぴつのかたわら、せかいじゅーをめぐり、こーえんやきょーいくかつどーをおこなっている。	NO_LABEL
グドールは二回結婚歴がある。	ぐどーるわにかいけっこんれきがある。	NO_LABEL
最初の夫はオランダ人貴族で野生生物を専門とする写真家・映像作家のH.バン・ラービック男爵。	NO_PRONOUNCE	NO_LABEL
1964年に結婚し一男を儲けたあと1974年に離婚した。	せんきゅうひゃくろくじゅうよねんにけっこんしいちなんをもーけたあとせんきゅうひゃくななじゅうよねんにりこんした。	NO_LABEL
翌1975年にTANUに所属する政治家でタンザニア国立公園公社総裁などを歴任したディレク・ノエル・マックリーン・ブライスソンと再婚した。	NO_PRONOUNCE	NO_LABEL
二人は1980年、ブライスソンの病により死別した。	ふたりわせんきゅうひゃくはちじゅうねん、ぶらいすそんのやまいによりしべつした。	NO_LABEL
