海外悪性伝染病とは国内には存在せず、侵入した場合は家畜や国民に深刻な影響をあたえる恐れのある感染症。	かいがいあくせいでんせんびょーとわこくないにわそんざいせず、しんにゅーしたばあいわかちくやこくみんにしんこくなえいきょーをあたえるおそれのあるかんせんしょー。	NO_LABEL
日本では海外悪性伝染病防疫要領に19種が指定されており、病原性や世界における発生状況から、口蹄疫、アフリカ豚コレラ、牛疫の3種が最も重要である。	にっぽんでわかいがいあくせいでんせんびょーぼーえきよーりょーにじゅうきゅうしゅがしていされており、びょーげんせいやせかいにおけるはっせいじょーきょーから、こうていえき、あふりかぶたこれら、ぎゅーえきのさんしゅがもっともじゅーよーである。	NO_LABEL
予防は検疫の徹底が原則である。	よぼーわけんえきのてっていがげんそくである。	NO_LABEL
