愛知県道282号今川刈谷停車場線は、愛知県刈谷市を南北に縦断する県道である。	あいちけんどーにひゃくはちじゅうにごーいまがわかりやていしゃじょーせんわ、あいちけんかりやしをなんぼくにじゅーだんするけんどーである。	NO_LABEL
新富町交差点から刈谷駅前にかけては自転車レーンが設置されている。	しんとみちょーこーさてんからかりやえきまえにかけてわじてんしゃれーんがせっちされている。	NO_LABEL
また、全線に渡って、バス路線となっている。	また、ぜんせんにわたって、ばすろせんとなっている。	NO_LABEL
