ムネアカオオアリは、ハチ目アリ科オオアリ属に属するクロオオアリと並んで日本最大のアリである。	むねあかおおありわ、はちめありかおおありぞくにぞくするくろおおありとならんでにっぽんさいだいのありである。	NO_LABEL
公園などでは見かけないが、朽木が多くみられる山ではよく見られる。	こーえんなどでわみかけないが、くちきがおーくみられるやまでわよくみられる。	NO_LABEL
働きアリの体長は8-12mm、女王アリの体長は16-17mm、最初の頃の働きアリは頭部も小さく貧弱だが、数が増えるごとに10mmはある働きアリや、頭部が発達した兵アリが誕生する。	NO_PRONOUNCE	NO_LABEL
和名のとおり胸部は赤く、頭部と腹部のほとんどは黒。	わめいのとーりきょーぶわあかく、とーぶとふくぶのほとんどわくろ。	NO_LABEL
しかし個体差が多少あり、胸だけが赤い個体・腹部の前方も赤い個体などがいる。	NO_PRONOUNCE	NO_LABEL
働きアリを横から見ると、胸部の上は弧を描くような形をしている。	はたらきありをよこからみると、きょーぶのうえわこをえがくよーなかたちをしている。	NO_LABEL
腹部には微少の立毛が見られる。	ふくぶにわびしょーのたちげがみられる。	NO_LABEL
基本的に他のアリの様に土壌に巣を作らず、朽木や枯れ木に営巣するが、希に例外的に土壌に営巣する場合もある。	きほんてきにたのありのよーにどじょーにすをつくらず、くちきやかれきにえいそーするが、まれにれいがいてきにどじょーにえいそーするばあいもある。	NO_LABEL
また、自然界ではあまりない赤色があるため、動くとよく目立つ。	また、しぜんかいでわあまりないあかいろがあるため、うごくとよくめだつ。	NO_LABEL
行列を作らず、主に単独で狩りをする。	ぎょーれつをつくらず、おもにたんどくでかりをする。	NO_LABEL
かなり成熟したコロニーは数百から千個体ほどに達する。	かなりせいじゅくしたころにーわすーひゃくからせんこたいほどにたっする。	NO_LABEL
クロオオアリと同じく、アブラムシの甘露を得る。	くろおおありとおなじく、あぶらむしのかんろをえる。	NO_LABEL
その代わり、お返しでアブラムシを天敵テントウムシから保護する。	そのかわり、おかえしであぶらむしをてんてきてんとーむしからほごする。	NO_LABEL
オスアリと新女王アリは秋に羽化するが、その年には結婚飛行せず、翌年の5-6月に飛行する。	NO_PRONOUNCE	NO_LABEL
ムネアカオオアリの天敵である寄生種のトゲアリは、ムネアカオオアリの巣に侵入し、巣を乗っ取る。	むねあかおおありのてんてきであるきせいしゅのとげありわ、むねあかおおありのすにしんにゅーし、すをのっとる。	NO_LABEL
ムネアカオオアリはトゲアリに対してあまり耐性を持たないため、女王の部屋まで侵入されるとすぐ崩壊してしまう。	むねあかおおありわとげありにたいしてあまりたいせいをもたないため、じょおーのへやまでしんにゅーされるとすぐほーかいしてしまう。	NO_LABEL
結婚飛行は5-6月の昼間から午後5時くらいにかけて行う。	NO_PRONOUNCE	NO_LABEL
しかし、雨上がりすぐではないとなかなか飛行しないため、始まりから観察するのは困難。	しかし、あめあがりすぐでわないとなかなかひこーしないため、はじまりからかんさつするのわこんなん。	NO_LABEL
違う巣のオスと交尾を終えたメスは、地上に降りて翅を落とし、巣となる効率のいい場所を探す。	ちがうすのおすとこーびをおえためすわ、ちじょーにおりてつばさをおとし、すとなるこーりつのいいばしょをさがす。	NO_LABEL
探し終えたメスは巣穴をほり始め、身動きができる程度のとても小さい部屋をつくる。	さがしおえためすわすあなをほりはじめ、みうごきができるていどのとてもちーさいへやをつくる。	NO_LABEL
このときメスはなにも食べず、翅を動かす筋肉を分解してたんぱく質の栄養分をつくる。	このときめすわなにもたべず、つばさをうごかすきんにくをぶんかいしてたんぱくしつのえいよーぶんをつくる。	NO_LABEL
その栄養分を孵化した幼虫に与え、子育てをする。	そのえいよーぶんをふかしたよーちゅーにあたえ、こそだてをする。	NO_LABEL
この段階ですでにメスは女王となっているわけである。	このだんかいですでにめすわじょおーとなっているわけである。	NO_LABEL
数か月たつと、働きアリの数は20匹くらいになっている。	NO_PRONOUNCE	NO_LABEL
また、新女王を生産するまでに成熟するには6-7年を要する。	NO_PRONOUNCE	NO_LABEL
女王の寿命は10-20年で、女王が寿命で死亡すると巣は働きアリだけになり、徐々に崩壊していく。	NO_PRONOUNCE	NO_LABEL
北海道・本州・四国・九州	NO_PRONOUNCE	NO_LABEL
日本産のアリでは、クロオオアリと人気を二分するほど飼育しやすく、体長も大きいため観察しやすい。	にほんさんのありでわ、くろおおありとにんきをにぶんするほどしいくしやすく、たいちょーもおーきいためかんさつしやすい。	NO_LABEL
一般的には石膏で土台をつくる「石膏飼育ケース」が扱いやすい。	NO_PRONOUNCE	NO_LABEL
また、ジェル状の飼育セットも販売されているが、働きアリ用の飼育セットのため、女王アリを観察するのには不向き。	また、じぇるじょーのしいくせっともはんばいされているが、はたらきありよーのしいくせっとのため、じょおーありをかんさつするのにわふむき。	NO_LABEL
アリを販売している店では、飼育ケースも販売しているので、初心者にはその方が安全だろう。	ありをはんばいしているみせでわ、しいくけーすもはんばいしているので、しょしんしゃにわそのほーがあんぜんだろう。	NO_LABEL
石膏を流し込むだけのタイプなら初心者にも扱いやすい。	せっこーをながしこむだけのたいぷならしょしんしゃにもあつかいやすい。	NO_LABEL
