日立空襲は、太平洋戦争末期の1945年6月10日および7月19日にアメリカ軍の爆撃機・ボーイングB-29によって行われた茨城県日立市および那珂郡勝田町への戦略爆撃の総称である。	NO_PRONOUNCE	NO_LABEL
また同年7月17日にはアメリカ海軍第三艦隊の戦艦による艦砲射撃が行われた。	またどーねんしちがつじゅうしちにちにわあめりかかいぐんだいさんかんたいのせんかんによるかんぽうしゃげきがおこなわれた。	NO_LABEL
この攻撃の主たる目標は、軍需工場として重要な役割を担っていた日立製作所海岸工場と、機関砲、機関銃の専門工場であった日立兵器株式会社であった。	このこーげきのしゅたるもくひょーわ、ぐんじゅこーじょーとしてじゅーよーなやくわりをになっていたひたちせいさくしょかいがんこーじょーと、きかんほー、きかんじゅーのせんもんこーじょーであったひたちへいきかぶしきがいしゃであった。	NO_LABEL
1945年6月10日午前9時前、大甕から海岸沿いに北上したB-29重爆撃機29機が1トン爆弾806発を投下。	NO_PRONOUNCE	NO_LABEL
日立製作所海岸工場では上屋面積の99.6％、19万9100平方メートルが破壊され、当日が振り替え休日中ながら出勤していた従業員634人が死亡した。	NO_PRONOUNCE	NO_LABEL
工場に隣接する地域では約1500戸が全壊、約900戸が半壊し、死者は641人にのぼった。	NO_PRONOUNCE	NO_LABEL
7月17日午後11時14分から翌18日午前零時11分、アメリカ海軍第三艦隊の第34.8.2任務隊所属の戦艦5隻、軽巡洋艦2隻、駆逐艦9隻の計16隻が日立沖に現れ、まず多賀地区、続いて勝田地区への艦砲射撃を行った。	NO_PRONOUNCE	NO_LABEL
イギリス海軍の艦艇3隻もこの艦砲射撃に参加した。	NO_PRONOUNCE	NO_LABEL
多賀地区では日立製作所多賀工場に530発、同電線工場に126発、同山手工場に89発、日立鉱山電錬工場に125発の合計870発の16インチ対陸上砲弾が撃ちこまれた。	NO_PRONOUNCE	NO_LABEL
この砲弾の大部分は工場外の住宅地に落下し、全壊637棟、半壊1059棟、死亡者317人、重軽傷者367人、行方不明者9人の被害を出した。	NO_PRONOUNCE	NO_LABEL
また勝田地区では日立兵器会社に224発、日立製作所水戸工場に144発の合計368発の砲弾が撃ちこまれ、これによって日立兵器会社は壊滅した。	NO_PRONOUNCE	NO_LABEL
それ以外に、家屋の全壊・全焼が34棟、半壊69棟、一部損壊が199棟、死者77人の被害が出た。	NO_PRONOUNCE	NO_LABEL
同年7月19日深夜、アメリカ空軍第73飛行団所属のB-29重爆撃機127機が霞ヶ浦上空を北上して日立市上空に到達し、19日午後11時20分から翌20日零時53分までの1時間18分で13,900発の焼夷弾が投下され、143人が死亡、日立市内の公共施設など主要な建物の大部分が焼失した。	NO_PRONOUNCE	NO_LABEL
