高木 慶太（たかぎ けいた、1942年 - 2001年12月)は日本の福音派の牧師。	NO_PRONOUNCE	NO_LABEL
吹田聖書福音教会の創立者。	すいたせいしょふくいんきょーかいのそーりつしゃ。	NO_LABEL
日本におけるディスペンセーション主義の中心的人物として知られる。	にっぽんにおけるでぃすぺんせーしょんしゅぎのちゅーしんてきじんぶつとしてしられる。	NO_LABEL
開拓伝道から教会を建てあげ、聖書預言についての講演活動で知られていた。	かいたくでんどーからきょーかいをたてあげ、せいしょよげんについてのこーえんかつどーでしられていた。	NO_LABEL
患難前携挙説、前千年王国説の立場であった。	NO_PRONOUNCE	NO_LABEL
彼は大淫婦バビロンとはリベラル・プロテスタント、世界中の偶像崇拝の宗教のエキュメニカルな宗教連合体であると考えた。	NO_PRONOUNCE	NO_LABEL
またディスペンセーション主義の終焉説の立場から聖霊の第三の波に反対し、聖霊派を批判する本を書いた。	またでぃすぺんせーしょんしゅぎのしゅーえんせつのたちばからせいれいのだいさんのなみにはんたいし、せいれいはをひはんするほんをかいた。	NO_LABEL
著書『これからの世界情勢と聖書の預言』は評価が高く、高木慶太師の死後、芦田拓也師による改訂版が出されている。	NO_PRONOUNCE	NO_LABEL
