アル・ジャジーラSCは、アラブ首長国連邦の首長国アブダビに本拠地を置くサッカークラブである。	あるじゃじーらえすしぃわ、あらぶしゅちょーこくれんぽーのしゅちょーこくあぶだびにほんきょちをおくさっかーくらぶである。	NO_LABEL
1974年にアル・バティーンとアル・ハーリディーヤという2クラブの合併によって創設された。	NO_PRONOUNCE	NO_LABEL
総合スポーツクラブでもあるアル・ジャジーラは、サッカーの他にバレーボールとハンドボールのクラブも所有する。	そーごーすぽーつくらぶでもあるあるじゃじーらわ、さっかーのほかにばれーぼーるとはんどぼーるのくらぶもしょゆーする。	NO_LABEL
2010-11シーズンに、UAEリーグで初優勝を飾った。	NO_PRONOUNCE	NO_LABEL
2016-17シーズンには2度目の優勝。	NO_PRONOUNCE	NO_LABEL
同年12月開催のFIFAクラブワールドカップの出場権も獲得した。	どーねんじゅーにがつかいさいのふぃふぁくらぶわーるどかっぷのしゅつじょーけんもかくとくした。	NO_LABEL
