本荘神社は、岐阜県岐阜市にある神社。	ほんじょーじんじゃわ、ぎふけんぎふしにあるじんじゃ。	NO_LABEL
岐阜市本荘地区の産土神とされている。	ぎふしほんじょーちくのうぶすながみとされている。	NO_LABEL
美濃国神名帳の美濃国厚見郡「正六位上楡賀保明神」とされている。	NO_PRONOUNCE	NO_LABEL
元々は1つの神社であったのが3つに分霊されている。	もともとわひとつのじんじゃであったのがみっつにぶんれいされている。	NO_LABEL
本荘神社はその一つである。	ほんじょーじんじゃわそのひとつである。	NO_LABEL
3つの神社は八雲神社、本荘神社、六条神社であり、それぞれ八岐大蛇の頭、胴体、尾を表すという。	みっつのじんじゃわやくもじんじゃ、ほんじょーじんじゃ、ろくじょーじんじゃであり、それぞれやまたのおろちのあたま、どーたい、おをあらわすという。	NO_LABEL
元々は現在地の約3km東北東に鎮座していたという。	もともとわげんざいちのやくさんきろめーとるとーほくとーにちんざしていたという。	NO_LABEL
この地域は平安時代は美濃国厚見郡平田荘といい、長講堂の荘園であったという。	このちいきわへいあんじだいわみののくにあつみぐんひらたのしょーといい、ちょーこーどーのしょーえんであったという。	NO_LABEL
1599年頃、織田信雄により楡賀保明神は3つに分霊され、その中のひとつとして本荘神社が創建される。	せんごひゃくきゅうじゅうきゅうねんごろ、おだのぶかつによりにれがほみょーじんわみっつにぶんれいされ、そのなかのひとつとしてほんじょーじんじゃがそーけんされる。	NO_LABEL
3つに分霊した理由は、徳川家康と石田三成の対立により岐阜城で戦いが起きると考えたからという。	みっつにぶんれいしたりゆーわ、とくがわいえやすといしだみつなりのたいりつによりぎふじょーでたたかいがおきるとかんがえたからという。	NO_LABEL
事実そのとおり、関ヶ原の戦いの前哨戦として岐阜城の戦いが発生している。	じじつそのとーり、せきがはらのたたかいのぜんしょーせんとしてぎふじょーのたたかいがはっせいしている。	NO_LABEL
1873年に郷社となる。	せんはっぴゃくななじゅうさんねんにごーしゃとなる。	NO_LABEL
1931年、稲葉郡本荘村は岐阜市に編入される。	せんきゅうひゃくさんじゅういちね、いなばぐんほんじょーむらわぎふしにへんにゅーされる。	NO_LABEL
このさい、例祭を岐阜まつりに合わせて4月5日に変更する。	このさい、れいさいをぎふまつりにあわせてしがついつかにへんこーする。	NO_LABEL
1989年9月、銀幣社に指定される。	せんきゅうひゃくはちじゅうきゅうねんくがつ、ぎんぬさしゃにしていされる。	NO_LABEL
2012年3月、東に「富士山」 西に「出雲大社」 南に「伊勢神宮」 北に「白山」の交点に位置し、四方拝のできる「しあわせ祈願の宮」遙拝所を建立。	NO_PRONOUNCE	NO_LABEL
