台は、埼玉県朝霞市の大字。	だいわ、さいたまけんあさかしのだいじ。	NO_LABEL
旧新座郡台村。	きゅーにいくらぐんだいむら。	NO_LABEL
郵便番号は351-0003。	NO_PRONOUNCE	NO_LABEL
埼玉県朝霞市の東南部に位置し、新河岸川を跨いだ北部を下内間木、東部を根岸飛地及び下内間木飛地、東南部は越戸川を隔てて和光市新倉、南部を根岸台、西部を根岸と接している。	さいたまけんあさかしのとうなんぶにいちし、しんがしがわをまたいだほくぶをしもうちまぎ、とーぶをねぎしとびちおよびしもうちまぎとびち、とうなんぶわこえどがわをへだててわこーしにーくら、なんぶをねぎしだい、せいぶをねぎしとせっしている。	NO_LABEL
地区の一部は歴史的な背景もあり大字根岸と交錯している。	ちくのいちぶわれきしてきなはいけいもありだいじねぎしとこーさくしている。	NO_LABEL
北辺に関しては、根岸・下内間木との境界線が交錯しているだけでなく、新河岸川の流路変更も相俟って複雑な飛地群を形成している。	NO_PRONOUNCE	NO_LABEL
また、新河岸川の対岸、下内間木とは内間木橋及び朝霞水門で接続している。	また、しんがしがわのたいがん、しもうちまぎとわうちまぎきょーおよびあさがすみすいもんでせつぞくしている。	NO_LABEL
北辺を新河岸川が流れている。	ほくへんをしんがしがわがながれている。	NO_LABEL
新河岸川に沿った低湿地にあたり、かつては短冊状の水田地帯だったが、1980年代以降は主に工業用地として利用されている。	しんがしがわにそったていしつちにあたり、かつてわたんざくじょーのすいでんちたいだったが、せんきゅうひゃくはちじゅうねんだいいこーわおもにこーぎょーよーちとしてりよーされている。	NO_LABEL
ジャパンエナジー朝霞油槽所のほか、残土置場や最終処分場が散見される。	じゃぱんえなじーあさがすみゆそーじょのほか、ざんどおきばやさいしゅーしょぶんじょーがさんけんされる。	NO_LABEL
西北から東南に市道が貫いている。	せいほくからとーなんにしどーがつらぬいている。	NO_LABEL
最寄駅は東武東上線朝霞駅になるが、約2km離れている。	もよりえきわとーぶとーじょーせんあさかえきになるが、やくにきろめーとるはなれている。	NO_LABEL
朝霞市内循環バス根岸台線が通っており、これを利用して東武東上線朝霞台駅に到達できるが、当地からの最寄りのバス停はいずれも区域外の根岸台にある。	あさかしないじゅんかんばすねぎしだいせんがかよっており、これをりよーしてとーぶとーじょーせんあさかだいえきにとーたつできるが、とーちからのもよりのばすていわいずれもくいきがいのねぎしだいにある。	NO_LABEL
一般に田地に張り出した場所を根岸と呼び、根岸の上の高く平坦な場所を台と呼ぶことにより、台地上にあることから台と名づけた。	いっぱんにでんちにはりだしたばしょをねぎしとよび、ねぎしのうえのたかくへいたんなばしょをだいとよぶことにより、だいちじょーにあることからだいとなずけた。	NO_LABEL
古くは新倉郷広沢庄に属した。	ふるくわしんくらさとひろさわしょーにぞくした。	NO_LABEL
江戸時代の台村は根岸村から別れたとされているが、『正保国絵図』には台村の村名は掲載されておらず、正保年間には根岸と台がひとつの村であり、台はその小名だったことが窺われる。	NO_PRONOUNCE	NO_LABEL
さらに以前は溝沼村も併せて一村だったとされる。	さらにいぜんわみぞぬまむらもあわせていちむらだったとされる。	NO_LABEL
『武蔵田園簿』によれば、1695年の検地を機に分村したと伝えられる。	NO_PRONOUNCE	NO_LABEL
江戸期を通じて根岸村と混在し、散在する家や田畑ごとにその所属する村が異なる状態であり、このことから2村を併せて「根岸台村」あるいは「台根岸村」と呼び習わされていた。	NO_PRONOUNCE	NO_LABEL
また、1732年、広沢原新田の一部が割付された。	また、せんななひゃくさんじゅうにねん、ひろさわはらしんでんのいちぶがわりつけされた。	NO_LABEL
江戸時代の初期から中山助六郎の知行であったが、上知令により天領となり、化政期には代官川崎平右衛門の支配となった。	えどじだいのしょきからなかやまじょろくろーのちぎょーであったが、じょうちれいによりてんりょーとなり、かせいきにわだいかんかわさきへいえもんのしはいとなった。	NO_LABEL
名主は代々金子家が世襲した。	なぬしわだいだいかねこかがせしゅーした。	NO_LABEL
この時代の小名として堂山が挙げられる。	このじだいのしょーみょーとしてどーやまがあげられる。	NO_LABEL
1695年には松平美濃守、1731年に筧播磨守、1772年には久保田十左衛門等の検地を受けている。	せんろっぴゃくきゅうじゅうごねんにわまつだいらみのまもる、せんななひゃくさんじゅういちねんにかけいはりままもる、せんななひゃくななじゅうにねんにわくぼたじゅーさえもんとーのけんちをうけている。	NO_LABEL
『武蔵田園簿』に台村の村高の記載は無いが、元禄郷帳において村高345石余り、天保郷帳において361石余りが記録されている。	NO_PRONOUNCE	NO_LABEL
また助郷は川越街道膝折宿へ出役の対象になっていた。	またすけごーわかわごえかいどーひざおりじゅくえでやくのたいしょーになっていた。	NO_LABEL
新河岸川南岸には幕末から明治にかけて渡辺五右衛門・石原源之丞の船問屋を持つ台河岸が開かれていた。	NO_PRONOUNCE	NO_LABEL
根岸河岸のすぐ下流に位置し、田無・保谷などから陸路で運ばれた穀物・甘藷を主な積荷とする根岸河岸とは対照的に、主に建築用の土を運び出し、肥灰・日用品等を荷揚げしていた。	NO_PRONOUNCE	NO_LABEL
下流に井口河岸と呼ばれる河岸もあり、こちらには保管用の倉庫が建てられていた。	かりゅーにいぐちかわぎしとよばれるかわぎしもあり、こちらにわほかんよーのそーこがたてられていた。	NO_LABEL
またこの地域では荒木田・へな土等と呼ばれる壁土や瓦の原料として使われる土を産出し、台河岸から運び出していた。	NO_PRONOUNCE	NO_LABEL
昭和まで北部に残っていた水田はこの土を運び出した跡を開発したものであり、この水田は現在その一部が残土置場になっている。	しょーわまでほくぶにのこっていたすいでんわこのどをはこびだしたあとをかいはつしたものであり、このすいでんわげんざいそのいちぶがざんどおきばになっている。	NO_LABEL
明治時代に入り、台村は1872年の大区小区制では第二大区第六小区、翌1873年の熊谷県設置以降は南第二大区第六小区に配置された。	NO_PRONOUNCE	NO_LABEL
1876年の人口は346人。	せんはっぴゃくななじゅうろくねんのじんこーわさんびゃくよんじゅうろくにん。	NO_LABEL
1876年から翌年にかけて、境界線が交錯していた台村と根岸村との間で合併の機運が高まり、新村名を「若柳村」としたものの、飛地の処理が支障となり、実らなかった。	NO_PRONOUNCE	NO_LABEL
1878年の郡区町村編制法を受けて翌1879年に大区小区制が廃止され、各町村に戸長と筆生をおくものとされた際、岡村・根岸村と連合して戸長役場を置いた。	NO_PRONOUNCE	NO_LABEL
1884年の連合戸長制の実施により、台村は浜崎村・宮戸村・田島村・上内間木村・下内間木村・岡村・根岸村と連合して浜崎村連合戸長役場を置いた。	NO_PRONOUNCE	NO_LABEL
1889年の町村制施行に際し、台村には根岸村・上新倉村と合併し新倉村となる案が示されたが、これに対し台村及び根岸村は習俗を同じくする岡村との合併を埼玉県に嘆願した。	NO_PRONOUNCE	NO_LABEL
この結果、1889年4月1日の町村制施行時、台村は膝折村・溝沼村・岡村・根岸村と合併し新座郡膝折村となり、台は膝折村の大字となった。	NO_PRONOUNCE	NO_LABEL
翌1890年の第一回帝国議会において「郡分合ニ関スル法案」が提出され、これを受けて埼玉県知事小松原英太郎が内務省に対し「新座郡を北足立郡に統合することは全く問題ない」と上申したことが発端となり、膝折村を含む2町7ヶ村から北足立郡への統合を撤回するとともに、東京府北豊島郡への統合を求める請願運動が起きた。	NO_PRONOUNCE	NO_LABEL
しかし、1896年3月29日には榑橋村及び新倉村の一部を除いて北足立郡への統合が行われ、台は北足立郡膝折村の大字となった。	NO_PRONOUNCE	NO_LABEL
1932年5月1日に町制施行及び改称により北足立郡朝霞町大字台となった。	せんきゅうひゃくさんじゅうにねんごがつついたちにちょーせいしこーおよびかいしょーによりきたーだちぐんあさかまちだいじだいとなった。	NO_LABEL
1967年3月15日、市制施行により朝霞市大字台となった。	せんきゅうひゃくろくじゅうななねさんがつじゅうごにち、しせいしこーによりあさかしだいじだいとなった。	NO_LABEL
1970年5月1日、一部が大字溝沼・大字根岸・大字岡と併せ栄町2･4丁目となった。	NO_PRONOUNCE	NO_LABEL
また1979年5月5日、南側の過半が大字根岸・大字岡と併せ根岸台となった。	NO_PRONOUNCE	NO_LABEL
現在の台はかつての台村のうち、北側の一部のみが大字台として残っている。	げんざいのだいわかつてのだいむらのうち、きたがわのいちぶのみがだいじだいとしてのこっている。	NO_LABEL
台の城山遺跡及び郷戸遺跡はかつての大字台字郷戸に所在したが、この場所は現在の根岸台8丁目10番付近にあたり、現在の大字台地内ではない。	NO_PRONOUNCE	NO_LABEL
市立小・中学校に通う場合、学区は以下の通りとなる。	しりつしょーちゅーがっこーにかようばあい、がっくわいかのとーりとなる。	NO_LABEL
2010年に入ってから台交差点付近で道路工事が開始され、国道254号バイパスの一部として開通した。	にせんじゅうねんにはいってからたいこーさてんふきんでどーろこーじがかいしされ、こくどーにひゃくごじゅうよんごーばいぱすのいちぶとしてかいつーした。	NO_LABEL
この道路は将来和光富士見バイパスの一部となり、北上して富士見川越道路と接続する予定である。	このどーろわしょーらいわこーふじみばいぱすのいちぶとなり、ほくじょーしてふじみかわごえどーろとせつぞくするよていである。	NO_LABEL
