マダガスカルメジロガモはカモ目カモ科に分類される鳥類の一種である。	まだがすかるめじろがもわかもめかもかにぶんるいされるちょーるいのいちしゅである。	NO_LABEL
1991年を最後に絶滅したと思われていたが、近年、ごく少数が生存していることが報告された。	せんきゅうひゃくきゅうじゅういちねんをさいごにぜつめつしたとおもわれていたが、きんねん、ごくしょーすーがせいぞんしていることがほーこくされた。	NO_LABEL
マダガスカル固有種。	まだがすかるこゆーしゅ。	NO_LABEL
北東部にあるアラオトラ湖にのみ生息している。	きたとうべにあるあらおとらこにのみせいそくしている。	NO_LABEL
雄の成鳥は頭から前胸は暗い栗色で、頭頸部にはやや紫色がかった光沢がある。	NO_PRONOUNCE	NO_LABEL
背中は褐色、腹部は灰色がかった白色である。	せなかわかっしょく、ふくぶわはいいろがかったはくしょくである。	NO_LABEL
虹彩は白色。	こーさいわはくしょく。	NO_LABEL
雌は、雄よりも全体の色が鈍く、虹彩は褐色である。	めすわ、ゆーよりもぜんたいのいろがにぶく、こーさいわかっしょくである。	NO_LABEL
淡水の湖沼に生息する。	たんすいのこしょーにせいそくする。	NO_LABEL
主な習性はメジロガモと似ている。	おもなしゅーせいわめじろがもとにている。	NO_LABEL
主に水草などの植物質を食べるが、水生昆虫や小さな魚などを食べることもある。	おもにみずくさなどのしょくぶつしつをたべるが、すいせいこんちゅーやちーさなさかななどをたべることもある。	NO_LABEL
野生下での繁殖状況は不明である。	やせいかでのはんしょくじょーきょーわふめいである。	NO_LABEL
飼育下では、1腹5-6個の卵を産み、抱卵日数は26-28日である。	NO_PRONOUNCE	NO_LABEL
生息地の環境破壊などが原因で、生息数は激減している。	せいそくちのかんきょーはかいなどがげんいんで、せいそくすーわげきげんしている。	NO_LABEL
野生での観察記録は1991年が最後でその後記録がなく絶滅したものと思われていた。	やせいでのかんさつきろくわせんきゅうひゃくきゅうじゅういちねんがさいごでそのごきろくがなくぜつめつしたものとおもわれていた。	NO_LABEL
しかし、2006年に数羽の親鳥と雛が生存しているのが観察された。	しかし、にせんろくねんにすーわのおやどりとひながせいぞんしているのがかんさつされた。	NO_LABEL
