富は、価値ある資源または物的な財産が豊富にあること、またはそのような資産を支配することである。	とみわ、かちあるしげんまたわぶってきなざいさんがほーふにあること、またわそのよーなしさんをしはいすることである。	NO_LABEL
そのような財産または資源を豊富に持つ個人、コミュニティ、地域または国は、富んでいるとされる。	そのよーなざいさんまたわしげんをほーふにもつこじん、こみゅにてぃ、ちいきまたわくにわ、とんでいるとされる。	NO_LABEL
富の概念はすべての経済学、特に開発経済学の領域で重要である。	とみのがいねんわすべてのけいざいがく、とくにかいはつけいざいがくのりょーいきでじゅーよーである。	NO_LABEL
しかし、富の意味はコンテクストに依存し、明確な一般的合意は存在しない。	しかし、とみのいみわこんてくすとにいぞんし、めいかくないっぱんてきごーいわそんざいしない。	NO_LABEL
通常、経済学者は富を、「価値がある全てのもの」と定義し、それはこの観念の主観的な性質、およびそれが固定的ないし静的な概念でないというイメージに合致している。	NO_PRONOUNCE	NO_LABEL
富のいろいろな定義と概念は、いろいろな個人によって、そして、異なるコンテクストで言及されている。	とみのいろいろなていぎとがいねんわ、いろいろなこじんによって、そして、ことなるこんてくすとでげんきゅーされている。	NO_LABEL
富を定義することは、いろいろな倫理的な含意をもつ規範形成的なプロセスでありうる。	とみをていぎすることわ、いろいろなりんりてきながんいをもつきはんけいせいてきなぷろせすでありうる。	NO_LABEL
というのも、しばしば富の最大化が、目標とみなされたり、それ自体が規範的な原則であると考えられたりするためである。	とゆうのも、しばしばとみのさいだいかが、もくひょーとみなされたり、それじたいがきはんてきなげんそくであるとかんがえられたりするためである。	NO_LABEL
正確なデータが利用できないものの、世界の全家庭の富の総計は2000年に125兆ドルと見積もられた。	NO_PRONOUNCE	NO_LABEL
この富の90%は北アメリカ、ヨーロッパと高所得のアジア諸国の人々によって生産される、そして、成人の1%が世界の富の40%を持つと見積もられる。	このとみのきゅうじゅうぱーせんとわきたあめりか、よーろっぱとこーしょとくのあじあしょこくのひとびとによってせいさんされる、そして、せいじんのいちぱーせんとがせかいのとみのよんじゅうぱーせんとをもつとみつもられる。	NO_LABEL
