ふちゃぎは、沖縄県で食される餅の一種。	ふちゃぎわ、おきなわけんでしょくされるもちのいっしゅ。	NO_LABEL
餅粉に水を加え、こねて蒸したものに、塩茹でした小豆をまぶしつけたものである。	もちこにみずをくわえ、こねてむしたものに、しおゆででしたあずきをまぶしつけたものである。	NO_LABEL
形は小判型、もしくは俵型をしている。	かたちわこばんがた、もしくわたわらがたをしている。	NO_LABEL
北陸地方でささげ餅と呼ばれるものと同種の食品である。	ほくりくちほーでささげもちとよばれるものとどーしゅのしょくひんである。	NO_LABEL
旧暦の8月15日に、豊作を祈願してヒヌカンと仏壇、神棚に供えた後に食べる縁起物である。	きゅーれきのはちがつじゅうごにちに、ほーさくをきがんしてひぬかんとぶつだん、かみだなにそなえたのちにたべるえんぎものである。	NO_LABEL
小豆には魔除けの意味合いがあり、小豆をつぶさずにまぶすことで当年の災難避けを祈願する。	あずきにわまよけけのいみあいがあり、あずきをつぶさずにまぶすことでとーねんのさいなんさけをきがんする。	NO_LABEL
餅には沖縄の通例に従い、搗き餅ではなく練り餅が用いられる。	もちにわおきなわのつーれいにしたがい、つきもちでわなくねりもちがもちいられる。	NO_LABEL
近年は餅や小豆に砂糖で甘味をつけた「甘ふちゃぎ」や、紅芋の粉を混ぜて芋の風味を持たせた「紅芋ふちゃぎ」なども市販されている。	NO_PRONOUNCE	NO_LABEL
ふちゃぎと同様に厄除けの意味がある縁起物として、強飯がある。	ふちゃぎとどーよーにやくよけのいみがあるえんぎものとして、こわめしがある。	NO_LABEL
沖縄県では、旧暦6月に作られる六月強飯と、旧暦8月に作られる八月強飯があり、六月強飯はもち米だけで作る。	おきなわけんでわ、きゅーれきろくがつにつくられるろくがつこわめしと、きゅーれきはちがつにつくられるはちがつこわめしがあり、ろくがつこわめしわもちごめだけでつくる。	NO_LABEL
旧暦6月は沖縄県では米の収穫時期であり、豊年満作を感謝してヒヌカンや仏壇に供えられる。	きゅーれきろくがつわおきなわけんではまいのしゅーかくじきであり、ほーねんまんさくをかんしゃしてひぬかんやぶつだんにそなえられる。	NO_LABEL
また、八月強飯はもち米と小豆で作り、同じくヒヌカンや仏壇に供えられる。	また、はちがつこわめしわもちごめとあずきでつくり、どうじくひぬかんやぶつだんにそなえられる。	NO_LABEL
