日本の栄典では、日本における栄典について解説する。	にほんのえいてんでわ、にっぽんにおけるえいてんについてかいせつする。	NO_LABEL
現在に至る日本の栄典制度は明治時代に制定されたもので、日本という国家に勲績功労ある者を褒賞するために設けられた。	げんざいにいたるにほんのえいてんせいどわめいじじだいにせいていされたもので、にっぽんとゆうこっかにくんせきこーろーあるものをほーしょーするためにもーけられた。	NO_LABEL
律令制に於いても位階や勲位といったものが存在した。	りつりょーせいにおいてもいかいやくんいといったものがそんざいした。	NO_LABEL
栄典を授与する権能は、君主国においては伝統的に君主の特権に属する権能であるとされており、大日本帝国憲法においても天皇大権の一つとして「栄典大権」と呼称されていた。	NO_PRONOUNCE	NO_LABEL
明治時代に定められた栄典には叙位、叙勲、叙爵などがあり、他に麝香間祗候・錦鶏間祗候や宮中顧問官のように特別な官職につく例や、内閣総理大臣・枢密院議長を経験した者になされる前官礼遇の様に待遇に関するもの、勲章に準ずる賜杯、特に功績のあった臣下に賜る勅語・国葬もあった。	NO_PRONOUNCE	NO_LABEL
戦後、日本国憲法の下で華族その他の貴族の制度が禁じられたことにより、爵位については廃止された。	せんご、にほんこくけんぽーのしたでかぞくそのたのきぞくのせいどがきんじられたことにより、しゃくいについてわはいしされた。	NO_LABEL
また位階については、生前の叙位は行われなくなっており、死後の贈位のみ行われている。	またいかいについてわ、せいぜんのじょいわおこなわれなくなっており、しごのぞーいのみおこなわれている。	NO_LABEL
日本国憲法第7条では、栄典の授与を内閣の助言と承認のもとに行われる天皇の国事行為と規定しており、勲章や位階などは天皇の名により授与する形式をとっている。	にほんこくけんぽーだいななじょーでわ、えいてんのじゅよをないかくのじょげんとしょーにんのもとにおこなわれるてんのーのこくじこーいときていしており、くんしょーやいかいなどわてんのーのなによりじゅよするけいしきをとっている。	NO_LABEL
なお、この規定は天皇以外の機関が授与を行う栄典の制度を設けることを排斥するものではない。	なお、このきていわてんのーいがいのきかんがじゅよをおこなうえいてんのせいどをもーけることをはいせきするものでわない。	NO_LABEL
栄典の効力について、日本国憲法第14条第3項は「栄誉、勲章その他の栄典の授与は、いかなる特権も伴はない。	NO_PRONOUNCE	NO_LABEL
栄典の授与は、現にこれを有し、又は将来これを受ける者の一代に限り、その効力を有する。	えいてんのじゅよわ、げんにこれをゆーし、またわしょーらいこれをうけるもののいちだいにかぎり、そのこーりょくをゆーする。	NO_LABEL
」と定める。	NO_PRONOUNCE	NO_LABEL
ただし、栄典の授与に一定の経済的利益が伴う場合であっても、それが直ちに憲法で禁じられている「特権」に該当するとは言えないと考えられており、民主主義のもとにおいて合理的な範囲か否かという点から判断される）。	NO_PRONOUNCE	NO_LABEL
日本の勲章制度は1875年4月10日に賞牌従軍牌制定ノ件が制定されたのに始まる。	にっぽんのくんしょーせいどわせんはっぴゃくななじゅうごねんしがつとおかにしょーはいじゅーぐんぱいせいていのけんがせいていされたのにはじまる。	NO_LABEL
この時制定された勲章が今日の旭日章の元となる。	このときせいていされたくんしょーがきょーのきょくじつしょーのもととなる。	NO_LABEL
1876年には菊花章が制定される。	せんはっぴゃくななじゅうろくねんにわきっかしょーがせいていされる。	NO_LABEL
1881年12月褒章条例の公布により紅綬褒章、緑綬褒章、藍綬褒章が制定され褒章の授与が始まる。	せんはっぴゃくはちじゅういちねんじゅーにがつほーしょーじょーれいのこーふによりこーじゅほうしょー、りょくじゅほうしょー、らんじゅほうしょーがせいていされほーしょーのじゅよがはじまる。	NO_LABEL
1888年瑞宝章・宝冠章が制定される。	NO_PRONOUNCE	NO_LABEL
1890年には軍人専用の勲章である金鵄勲章が制定された。	せんはっぴゃくきゅうじゅうねんにわぐんじんせんよーのくんしょーであるきんしくんしょーがせいていされた。	NO_LABEL
以後も褒章の種類が追加される。	いごもほーしょーのしゅるいがついかされる。	NO_LABEL
1937年には文化勲章の授与が始まった。	せんきゅうひゃくさんじゅうななねにわぶんかくんしょーのじゅよがはじまった。	NO_LABEL
終戦に伴い生存者の叙勲は停止されていたが、1964年に叙勲を復活させた。	しゅーせんにともないせいぞんしゃのじょくんわていしされていたが、せんきゅうひゃくろくじゅうよねんにじょくんをふっかつさせた。	NO_LABEL
2003年には勲章制度が全面的に改正され、数字による等級を廃止し叙勲基準の見直しが行われた。	にせんさんねんにわくんしょーせいどがぜんめんてきにかいせいされ、すーじによるとーきゅーをはいししじょくんきじゅんのみなおしがおこなわれた。	NO_LABEL
勲章と重複した制度であると批判があった褒章については廃止も検討されたが、据え置かれた。	くんしょーとじゅーふくしたせいどであるとひはんがあったほーしょーについてわはいしもけんとーされたが、すえおかれた。	NO_LABEL
第二次世界大戦前の日本において、公文書に於いて身分を表示する場合は以下のような規則に基づき、栄典・称号を並べて表記した。	NO_PRONOUNCE	NO_LABEL
この方式は、国会における国会議員等物故時の弔詞において今なお踏襲されている。	このほーしきわ、こっかいにおけるこっかいぎーんとーぶっこじのちょーしにおいていまなおとーしゅーされている。	NO_LABEL
表示順	ひょーじじゅん	NO_LABEL
表示例	ひょーじれい	NO_LABEL
皇族の場合	こーぞくのばあい	NO_LABEL
