『エリア51』は、久正人による日本の漫画。	NO_PRONOUNCE	NO_LABEL
『月刊コミック@バンチ』にて、2011年3月号から2017年9月号まで連載。	NO_PRONOUNCE	NO_LABEL
作者考案の略称は「リアじゅう」。	NO_PRONOUNCE	NO_LABEL
モンスター、神、UMAなど、世界中の異形を集めて隔離した、アメリカ51番目の州「エリア51」。	NO_PRONOUNCE	NO_LABEL
人間の身でありながら、そこで探偵業を営む真鯉徳子と河童のキシローの元には、さまざまな事件が舞い込んでくる。	にんげんのみでありながら、そこでたんていぎょーをいとなむまごいとくことかっぱのきしろーのもとにわ、さまざまなじけんがまいこんでくる。	NO_LABEL
各話のサブタイトルは作中の台詞から取られている。	かくはなしのさぶたいとるわさくちゅーのだいしからとられている。	NO_LABEL
以下はその例である。	いかわそのれいである。	NO_LABEL
