「My Dearest」は、supercellの4枚目のシングル。	NO_PRONOUNCE	NO_LABEL
2011年11月23日にSony Recordsから発売された。	にせんじゅういちねんじゅーいちがつにじゅうさんにちにそにーれこーずからはつばいされた。	NO_LABEL
前作「積乱雲グラフィティ／Fallin' Fallin' Fallin'」から約3ヶ月ぶりのリリースとなる2011年2作目のシングル。	NO_PRONOUNCE	NO_LABEL
表題曲「My Dearest」は、フジテレビ系アニメ『ギルティクラウン』の前期オープニングテーマに起用された。	NO_PRONOUNCE	NO_LABEL
初回限定盤同梱のDVDには、表題曲のPVの他、「ギルティクラウン」トレーラー130sec、「ギルティクラウン」オープニングノンクレジットムービーが収録されている。	NO_PRONOUNCE	NO_LABEL
全曲が1つの物語として設定されている。	ぜんきょくがひとつのものがたりとしてせっていされている。	NO_LABEL
物語は、主人公の少女が少年を助けるために自らを犠牲にし、これに絶望した少年が少女の元に旅立つという内容になっている。	ものがたりわ、しゅじんこーのしょーじょがしょーねんをたすけるためにみずからをぎせいにし、これにぜつぼーしたしょーねんがしょーじょのもとにたびだつとゆうないよーになっている。	NO_LABEL
