山陽電気鉄道6000系電車は、山陽電気鉄道が保有する3扉の通勤形電車である。	NO_PRONOUNCE	NO_LABEL
2016年4月27日から営業運転を開始した。	にせんじゅうろくねんしがつにじゅうしちにちからえいぎょーうんてんをかいしした。	NO_LABEL
本系列は、老朽化が進んでいる3000系列を置き換える目的で導入された。	ほんけいれつわ、ろーきゅーかがすすんでいるさんぜんけいれつをおきかえるもくてきでどーにゅーされた。	NO_LABEL
3両編成であるが、2編成連結による6連での直通特急運用にも対応しており、2017年9月24日には初めて直通特急に運用された。	NO_PRONOUNCE	NO_LABEL
2編成連結時の連結順は奇数車番の編成を姫路方とするよう指定しており、先頭車の仕様の相違から車種構成は偶数車番の編成がMc1 - T - Mc2、奇数車番の編成がMc3 - T - Mc4とされ、Mc2とMc3の前面には貫通幌枠と電気連結栓が設けられている。	NO_PRONOUNCE	NO_LABEL
転落防止幌の取付けも可能。	てんらくぼーしほろのとりつけもかのー。	NO_LABEL
Mc1とMc4の前面には幌枠・電気連結栓は設けられていない。	NO_PRONOUNCE	NO_LABEL
編成両端の連結器は、従来の山陽電鉄車両とは異なり廻り子式密着連結器を採用している。	へんせいりょーたんのれんけつきわ、じゅーらいのさんよーでんてつしゃりょーとわことなりまわりりししきみっちゃくれんけつきをさいよーしている。	NO_LABEL
ワンマン運転にも対応しており、網干線でも営業運転で入線することもある。	わんまんうんてんにもたいおーしており、あぼしせんでもえいぎょーうんてんでにゅーせんすることもある。	NO_LABEL
2016年は2編成、2017年春と冬にはそれぞれ3編成が導入され、2018年2月現在で3両編成8本が在籍している。	NO_PRONOUNCE	NO_LABEL
今後も3000系置き換えのため年間2～3編成ペースでの増備が予定されている。	NO_PRONOUNCE	NO_LABEL
車体はアルミニウム合金で、コーポレートカラーの赤を継承した「イノセントレッド」を採用している。	NO_PRONOUNCE	NO_LABEL
また、車体側面のドア横には、朝日をイメージしたグラデーションがデザインされている。	また、しゃたいそくめんのどあよこにわ、あさひをいめーじしたぐらでーしょんがでざいんされている。	NO_LABEL
前面・側面の種別・行先表示はフルカラーのLEDが採用されている、また、前照灯もLEDを採用しており、いずれも山陽では初となる。	NO_PRONOUNCE	NO_LABEL
行先表示にフルカラーLEDを採用したことにより、神戸三宮駅行きの列車での阪急方面・阪神方面の色分けも方向幕と同じように行われている。	NO_PRONOUNCE	NO_LABEL
車内の座席は、赤系のロングシートで、兵庫県花の「のじぎく」があしらわれている。	NO_PRONOUNCE	NO_LABEL
全車両に優先席と車椅子・ベビーカースペースを設けている。	NO_PRONOUNCE	NO_LABEL
また、山陽電鉄の新造車では初めて、ロングシートの両端に袖仕切りが設けられた。	また、さんよーでんてつのしんぞーしゃでわはじめて、ろんぐしーとのりょーたんにそでしきりがもーけられた。	NO_LABEL
また、乗降口上部には山陽電車としては初となる15インチのLCD式車内案内表示装置が千鳥配置され、日本語、英語、中国語、韓国語の4ヶ国語による情報案内が行われる。	NO_PRONOUNCE	NO_LABEL
接続待ちや通過待ち等により長時間停車する駅での車内保温対策として、各扉に半自動ドアボタンを設置している。	せつぞくまちやつーかまちとーによりちょーじかんていしゃするえきでのしゃないほおんたいさくとして、かくとびらにはんじどーどあぼたんをせっちしている。	NO_LABEL
山陽電鉄では初の採用となった。	さんよーでんてつでわはつのさいよーとなった。	NO_LABEL
半自動ドアボタンの採用は、関西の私鉄では阪神5700系電車に次いで2例目である。	NO_PRONOUNCE	NO_LABEL
ドアチャイムを採用しており、乗降扉の開閉前には予告ブザーが鳴動し、開扉中は扉位置を知らせる誘導鈴が鳴動する。	どあちゃいむをさいよーしており、じょーこーとびらのかいへいまえにわよこくぶざーがめいどーし、ひらくとびらちゅーわとびらいちをしらせるゆーどーすずがめいどーする。	NO_LABEL
各扉鴨居中央部に1箇所ずつ、扉開閉予告灯を設置し、ドアエンジンには戸閉力半減機能を有する。	NO_PRONOUNCE	NO_LABEL
車内自動放送を搭載している。	しゃないじどーほーそーをとーさいしている。	NO_LABEL
これは網干線ワンマン運転と、待避中の半自動ドア放送に対応しているが、本線各駅停車・S特急・山陽特急・阪神特急・直通特急・阪神急行用は準備工事に留まっている。	NO_PRONOUNCE	NO_LABEL
白を基調とした天井板、化粧板に加え、大窓ガラスの採用により開放感のあるクリアでスマートな印象としている。	しろをきちょーとしたてんじょーいた、けしょーいたにくわえ、だいまどがらすのさいよーによりかいほーかんのあるくりあですまーとないんしょーとしている。	NO_LABEL
照明はLEDを採用しており、光源を上方に向けて反射させる、JR西日本207系電車の体質改善車と類似した方式である。	しょーめいわえるいーでぃーをさいよーしており、こーげんをかみがたにむけてはんしゃさせる、じぇいあーるにしにほんにひゃくななけいでんしゃのたいしつかいぜんしゃとるいじしたほーしきである。	NO_LABEL
空調装置は、集約分散方式のものを各車2基搭載する。	くーちょーそーちわ、しゅーやくぶんさんほーしきのものをかくしゃにきとーさいする。	NO_LABEL
また、山陽電車の車両として初めてラインデリアが搭載された。	また、さんよーでんしゃのしゃりょーとしてはじめてらいんでりあがとーさいされた。	NO_LABEL
山陽電鉄では長らく川崎重工業→川崎電機製造→富士電機製の制御器を採用していたが、本系列で初めて三菱電機製の主制御器が採用された。	NO_PRONOUNCE	NO_LABEL
制御器は1C2M2群のものを、6000型と6100型にそれぞれ搭載している。	NO_PRONOUNCE	NO_LABEL
主電動機は、三菱製の全閉自冷式かご型三相誘導電動機MB-5158Aが採用された。	NO_PRONOUNCE	NO_LABEL
出力は山陽電車では最大の180kWである。	NO_PRONOUNCE	NO_LABEL
台車は、5000系以来の軸梁式ダイレクトマウント空気ばね台車を採用している。	だいしゃわ、ごせんけいいらいのじくやなしきだいれくとまうんとくーきばねだいしゃをさいよーしている。	NO_LABEL
山陽電鉄初のシングルアーム形パンタグラフを中間のT車に2基搭載する。	NO_PRONOUNCE	NO_LABEL
空気圧縮機は両端の先頭車に、補助電源装置は中間車に搭載している。	くーきあっしゅくきわりょーたんのせんとーしゃに、ほじょでんげんそーちわちゅーかんしゃにとーさいしている。	NO_LABEL
姫路方にMc車が連結されるのは、完全新造車では2000系以来である。	ひめじかたにえむしーしゃがれんけつされるのわ、かんぜんしんぞーしゃでわにせんけいいらいである。	NO_LABEL
以前の車両では、両端ともMc車、もしくは両端ともTc車の場合は神戸・大阪方が偶数、姫路方が奇数という付番法則であったが、本系列は両端がMc車となっているものの、姫路方の車両は神戸・大阪方の車両の番号に+100するという、阪急電鉄の付番法則に近いものに変更されている。	NO_PRONOUNCE	NO_LABEL
また、2000系・3000系・5000系・5030系では中間の付随車の番号は百の位が「5」となっているが、本系列の付随車はパンタグラフを装備するなどこれまでの形式とは異なる点が多く、百の位は「5」ではなく「3」が付けられている。	NO_PRONOUNCE	NO_LABEL
2017年6月からは、6002F及び6003Fを使用して6連での阪神梅田駅までの試運転が行われ、9月24日より直通特急として運行を開始した。	NO_PRONOUNCE	NO_LABEL
