マドゥライ県は、インド南部のタミル・ナードゥ州に属する30の県の一つ。	NO_PRONOUNCE	NO_LABEL
県庁所在地はマドゥライ。	けんちょーしょざいちわまどぅらい。	NO_LABEL
2001年の国勢調査では、面積3452平方キロメートル、人口257万8201人、人口密度は747人/km。	NO_PRONOUNCE	NO_LABEL
北はティンドゥッカル県、東はシヴァガンガイ県、南はヴィルドゥナガル県、西はテーニ県に接する。	NO_PRONOUNCE	NO_LABEL
北ではティルッチラーッパッリ県にも僅かに接している。	きたでわてぃるっちらーっぱっりけんにもわずかにせっしている。	NO_LABEL
マドゥライの市内には、著名な歴史的建造物であるヒンドゥー教寺院のミーナークシ寺院がある。	まどぅらいのしないにわ、ちょめいなれきしてきけんぞーぶつであるひんどぅーきょーじいんのみーなーくしじいんがある。	NO_LABEL
主な都市には、以下のようなものがある。	おもなとしにわ、いかのよーなものがある。	NO_LABEL
古くはマドゥライは、パーンディヤ朝の首都であった。	ふるくわまどぅらいわ、ぱーんでぃやちょーのしゅとであった。	NO_LABEL
"詳細はマドゥライを参照。	NO_PRONOUNCE	NO_LABEL
"	NO_PRONOUNCE	NO_LABEL
マドゥライ県は、1968年のタミル・ナードゥ州発足以前の、イギリス領インド帝国マドラス管区時代から存在する。	NO_PRONOUNCE	NO_LABEL
マドラス管区時代は、マドゥラ県という英語名が正式名称であった。	まどらすかんくじだいわ、まどぅらけんとゆうえいごめいがせいしきめいしょーであった。	NO_LABEL
1985年9月15日、北部がティンドゥッカル県として分離。	せんきゅうひゃくはちじゅうごねんくがつじゅうごにち、ほくぶがてぃんどぅっかるけんとしてぶんり。	NO_LABEL
1997年1月1日には西側がテーニ県として分離した。	せんきゅうひゃくきゅうじゅうなないちがつついたちにわにしがわがてーにけんとしてぶんりした。	NO_LABEL
マドゥライ県は、以下の7つの郡に区分けされている。	まどぅらいけんわ、いかのななつのぐんにくわけされている。	NO_LABEL
マドゥライ県は、以下の13の区に区分けされている。	NO_PRONOUNCE	NO_LABEL
