レクシスネクシスは、アメリカ合衆国を本拠とするリサーチデータベースプロバイダーである。	れくしすねくしすわ、あめりかがっしゅーこくをほんきょとするりさーちでーたべーすぷろばいだーである。	NO_LABEL
米国本社はオハイオ州デイトンにあり、世界100カ国でビジネスを展開し、従業員1万人以上を擁する。	NO_PRONOUNCE	NO_LABEL
レレックス・グループの一員である。	れれっくすぐるーぷのいちいんである。	NO_LABEL
の日本法人は、レクシスネクシス・ジャパン株式会社であり、東京都港区東麻布1-9-15東麻布1丁目ビルに本社を置く。	NO_PRONOUNCE	NO_LABEL
主な事業は英米法判例データベース、ビジネス・ニュースデータベースや海外特許データベースといったオンラインデータベースの提供である。	NO_PRONOUNCE	NO_LABEL
データベース事業のほか、法律雑誌・法律書籍出版を行っている。	NO_PRONOUNCE	NO_LABEL
日本では、、Nexisに加えて日本法による法令・判例検索データベースや中国法データベースを提供している。	NO_PRONOUNCE	NO_LABEL
出版事業では、海外の法律に関する書籍や会計・税務に関する書籍の輸入販売に加え、国内でも法律、会計・税務に関する書籍を出版している。	NO_PRONOUNCE	NO_LABEL
また、海外のロージャーナルのほか、国内の企業法務に関する雑誌ビジネス・ロー・ジャーナルを発行している。	NO_PRONOUNCE	NO_LABEL
