喜劇映画研究会は、日本にある映画に関する非営利のサークルである。	きげきえいがけんきゅーかいわ、にっぽんにあるえいがにかんするひえいりのさーくるである。	NO_LABEL
アマチュアの映画同好会でありながらも、欧米のFIAF加盟機関やコレクターから希少な古典映画のフィルムと資料を譲り受け、自主企画の上映会・講演会を不定期に開催している。	NO_PRONOUNCE	NO_LABEL
また、各種メディアへの情報提供・調査協力、博物館などの特別企画展や映画祭への作品貸与なども行っている。	NO_PRONOUNCE	NO_LABEL
初代会長は劇作家のケラリーノ・サンドロヴィッチ。	NO_PRONOUNCE	NO_LABEL
現在は株式会社ヴィンテージが著作権、商標権、及び運営の管理を行なっている。	NO_PRONOUNCE	NO_LABEL
古典映画の再考察と普及活動の一環として、『夢の森にて』『幻燈音楽一夜』『旋律は笑う』『喜劇映画のビタミン』などの企画名で、著名な音楽家、芸能人、文化人をゲストに生演奏付き上映会を行なっている。	NO_PRONOUNCE	NO_LABEL
※出演年代順	NO_PRONOUNCE	NO_LABEL
