レッドブル・RB8 () は、レッドブル・レーシングが2012年のF1世界選手権参戦用に開発したフォーミュラ1カーである。	NO_PRONOUNCE	NO_LABEL
2009年のRB5の流れを汲む4世代目のマシン。	にせんきゅうねんのらうんどびーごのながれをくむよんせだいめのましん。	NO_LABEL
基本的なメカニズムは前年のRB7の正統進化型となる。	きほんてきなめかにずむわぜんねんのらうんどべーせっつのせいとーしんかがたとなる。	NO_LABEL
最大の特徴はノーズの段差部分に設けられた「レターボックス・スロット」と呼ばれる細い吸気口である。	NO_PRONOUNCE	NO_LABEL
ニューウェイはこれを「ドライバーの冷却用」と説明したが、別の用途が疑われた。	NO_PRONOUNCE	NO_LABEL
2012年よりエンジン排気の空力的利用が規制され、この分野をリードしていたレッドブルは不利益を被った。	にせんじゅうにねんよりえんじんはいきのくーりょくてきりよーがきせいされ、このぶんやをりーどしていたれっどぶるわふりえきをこーむった。	NO_LABEL
エキゾーストを中心に設計したRB7はリアの車高を高くすることができたが、RB8では開発コンセプトを再検討することになった。	NO_PRONOUNCE	NO_LABEL
排気口の位置と排気方向は試行錯誤がみられる。	はいきこーのいちとはいきほーこーわしこーさくごがみられる。	NO_LABEL
最初のバージョンではリアサスペンションの付根近くに排気口を設け、車体中央寄りに排気を向かわせていた。	さいしょのばーじょんでわりあさすぺんしょんのつけねちかくにはいきこーをもーけ、しゃたいちゅーおーよりにはいきをむかわせていた。	NO_LABEL
実戦バージョンでは排気口の位置が前方外寄りに移動し、排気がサイドポッドのスロープに沿ってディフューザー方向に流れるタイプに変わった。	じっせんばーじょんでわはいきこーのいちがぜんぽーがいよりにいどーし、はいきがさいどぽっどのすろーぷにそってでぃふゅーざーほーこーにながれるたいぷにかわった。	NO_LABEL
また、サイドポッド側面より気流が流れ込むトンネルが追加され、立体交差のような構造となった。	また、さいどぽっどそくめんよりきりゅーがながれこむとんねるがついかされ、りったいこーさのよーなこーぞーとなった。	NO_LABEL
改良バージョンではトンネルの穴が前後2つに増えた。	かいりょーばーじょんでわとんねるのあながぜんごふたつにふえた。	NO_LABEL
シーズン終盤には、メルセデスやロータスがテストしていたダブルDRSが搭載されたと見られる。	NO_PRONOUNCE	NO_LABEL
メルセデスの装置と同じく、リアウィングのDRSを作動させた際に露出する「穴」から空気を取り入れるが、メルセデスのようにフロントウィングに作用するのではなく、リアの下段ウィングから放出してディフューザーの効果を失速させるものと考えられる。	NO_PRONOUNCE	NO_LABEL
これにより弱点であった直線スピードが改善された。	これによりじゃくてんであったちょくせんすぴーどがかいぜんされた。	NO_LABEL
シーズン開幕直前、国際自動車連盟からエキゾーストソリューションの使用禁止を通達された。	しーずんかいまくちょくぜん、こくさいじどーしゃれんめいからえきぞーすとそりゅーしょんのしよーきんしをつーたつされた。	NO_LABEL
リアのブレーキダクトに排気ガスを集めて意図した部分へ送るという設計であり、禁止によってチームの準備に誤算が生じたという。	りあのぶれーきだくとにはいきがすをあつめていとしたぶぶんえおくるとゆうせっけいであり、きんしによってちーむのじゅんびにごさんがしょーじたという。	NO_LABEL
モナコGPではリアタイヤの前のフロアの穴が他チーム間で規約違反ではないかと議論を呼んだ。	もなこぐらんぷりでわりあたいやのまえのふろあのあながたちーむかんできやくいはんでわないかとぎろんをよんだ。	NO_LABEL
これはFIAが定めたテクニカルレギュレーション第3条12項5の不浸透の表面という文言に違反する可能性があったためである。	NO_PRONOUNCE	NO_LABEL
ただレッドブルはこのフロアを2戦前のバーレーンGP以降FIAの車検をパスして使い続けており、レース後どのチームも抗議をせずに終わる。	ただれっどぶるわこのふろあをにせんまえのばーれーんげーぺーいこーえふあいえーのしゃけんをぱすしてつかいつずけており、れーすごどのちーむもこーぎをせずにおわる。	NO_LABEL
しかし、モナコGPが終了した6日後にFIAは技術指示書でこのフロアを違法と判断。	しかし、もなこぐらんぷりがしゅーりょーしたむいかごにえふあいえーわぎじゅつしじしょでこのふろあをいほーとはんだん。	NO_LABEL
このフロアを使用したレースの結果は剥奪されないものの、レッドブルは次戦のカナダGPからこの穴あきフロアを使うことができなくなった。	このふろあをしよーしたれーすのけっかわはくだつされないものの、れっどぶるわじせんのかなだげーぺーからこのあなあきふろあをつかうことができなくなった。	NO_LABEL
なお、この件についてチームのエースドライバーであるセバスチャン・ベッテルはこれからのレースに大きな影響はないと語った。	なお、このけんについてちーむのえーすどらいばーであるせばすちゃんべってるわこれからのれーすにおーきなえいきょーわないとかたった。	NO_LABEL
カナダGPではフロントブレーキの冷却ダクトに空力的補助機能があるとしてとして、FIAから設計変更を求められた。	かなだげーぺーでわふろんとぶれーきのれいきゃくだくとにくーりょくてきほじょきのーがあるとしてとして、えふあいえーからせっけいへんこーをもとめられた。	NO_LABEL
また、パルクフェルメ保管時に手動で車高調整できるダンパーを使用しないよう要請されていたことも後になって判明したが、チーム首脳はそのような行為はしていないと否定した。	また、ぱるくふぇるめほかんじにしゅどーでくるまだかちょーせいできるだんぱーをしよーしないよーよーせいされていたこともごになってはんめいしたが、ちーむしゅのーわそのよーなこーいわしていないとひていした。	NO_LABEL
ドイツGPではルノーエンジンのトルク制御マップに関して、中速域のトルクを減らすことで、禁止されているトラクションコントロールやブロウンディフューザーの効果を得ているのではないかと疑われた。	どいつげーぺーでわるのーえんじんのとるくせいぎょまっぷにかんして、ちゅーそくいきのとるくをへらすことで、きんしされているとらくしょんこんとろーるやぶろうんでぃふゅーざーのこーかをえているのでわないかとうたがわれた。	NO_LABEL
レーススチュワードは決勝日の午前中に調査を行い、レッドブル側の主張は認めなかったものの、違法な点はないと判断した。	れーすすちゅわーどわけっしょーびのごぜんちゅーにちょーさをおこない、れっどぶるがわのしゅちょーわみとめなかったものの、いほーなてんわないとはんだんした。	NO_LABEL
FIAは次戦ハンガリーGPまでに、トルクマップの調整幅を上下2%未満に制限すると決定した。	えふあいえーわじせんはんがりーげーぺーまでに、とるくまっぷのちょーせいはばをじょーげにぱーせんとみまんにせいげんするとけっていした。	NO_LABEL
アブダビGPではノーズ交換作業の際に先端部が柔軟に動いたように見えたことから、ノーズがゴム製ではないかと指摘された。	あぶだびげーぺーでわのーずこーかんさぎょーのさいにせんたんぶがじゅーなんにうごいたよーにみえたことから、のーずがごむせいでわないかとしてきされた。	NO_LABEL
レギュレーション違反のフレキシブル構造ではないかと疑われたが、F1技術顧問のチャーリー・ホワイティングは「他のどのチームにもこれが起こり得るのは確かだ」と疑惑を一蹴した。	NO_PRONOUNCE	NO_LABEL
レッドブルが度々規定違反を問われる理由について、チームアドバイザーのヘルムート・マルコは「パドックにはわれわれに対する嫉妬や妬みが渦まいている。	NO_PRONOUNCE	NO_LABEL
なぜか?それは我々が新興チームながら過去2年、勝ち続けているからだ」と語った。	NO_PRONOUNCE	NO_LABEL
ニューウェイは「我々は限界ぎりぎりのところまで攻めた」「肝心なのはクルマは合法だったということ、そして我々は何度も優勝したということだ」と語った。	NO_PRONOUNCE	NO_LABEL
シーズン序盤戦、チームはRB8から一貫性のあるパフォーマンスを引き出すことに苦労し、予選でトップ10を逃すこともあった。	NO_PRONOUNCE	NO_LABEL
ベッテルは新型エキゾーストにドライビングスタイルが合わず、とくに予選においてマシンバランスに苦労した。	べってるわしんがたえきぞーすとにどらいびんぐすたいるがあわず、とくによせんにおいてましんばらんすにくろーした。	NO_LABEL
ニューウェイはマシンを正しく理解することができず、「エンジニアとして非常にフラストレーションを感じる状態だった」と語っている。	NO_PRONOUNCE	NO_LABEL
しかし、第14戦シンガポールGPから投入したアップグレードが成功し、第15戦日本GP以降は6戦中4回のポールポジションを獲得。	しかし、だいじゅうよんせんしんがぽーるげーぺーからとーにゅーしたあっぷぐれーどがせいこーし、だいじゅうごせんにほんぐらんぷりいこーわろくせんちゅーよんかいのぽーるぽじしょんをかくとく。	NO_LABEL
ベッテルは日本GPから4連勝を記録し、フェルナンド・アロンソを逆転して3年連続チャンピオンを獲得した。	べってるわにほんぐらんぷりからよんれんしょーをきろくし、ふぇるなんどあろんそをぎゃくてんしてさんねんれんぞくちゃんぴおんをかくとくした。	NO_LABEL
レッドブルはコンストラクターズ部門でも3連覇を達成した。	れっどぶるわこんすとらくたーずぶもんでもさんれんぱをたっせいした。	NO_LABEL
シーズン中はルノーエンジンに装着されているオルタネーターに原因不明の過熱故障が起こり、ベッテル2戦、ウェバー1戦のリタイア原因となった。	しーずんちゅーわるのーえんじんにそーちゃくされているおるたねーたーにげんいんふめいのかねつこしょーがおこり、べってるにせん、うぇばーいちせんのりたいあげんいんとなった。	NO_LABEL
この問題は同じルノーエンジンを搭載するロータスでも発生している。	このもんだいわおなじるのーえんじんをとーさいするろーたすでもはっせいしている。	NO_LABEL
ニューウェイは「破裂寸前の時限爆弾」と表現し、レッドブルのオーナーであるディートリヒ・マテシッツは製造メーカーをマニエッティ・マレリから他へ変更するべきだと発言した。	NO_PRONOUNCE	NO_LABEL
アメリカGPではあえて旧型を使用したもののトラブルが発生し、最終戦ブラジルGPでは他のルノーエンジンユーザーと同じ最新型を使用した。	あめりかげーぺーでわあえてきゅーがたをしよーしたもののとらぶるがはっせいし、さいしゅーせんぶらじるげーぺーでわたのるのーえんじんゆーざーとおなじさいしんがたをしよーした。	NO_LABEL
