辺見 鑑孝は、日本のミュージシャン、音楽プロデューサー、作曲家、編曲家。	へんみのりたかわ、にっぽんのみゅーじしゃん、おんがくぷろでゅーさー、さっきょくか、へんきょくか。	NO_LABEL
西郷輝彦と辺見マリの長男。	さいごーてるひことへんみまりのちょーなん。	NO_LABEL
妹はタレント、女優の辺見えみり。	いもーとわたれんと、じょゆーのへんみえみり。	NO_LABEL
異母妹にアイドルの今川宇宙。	いぼいもーとにあいどるのいまがわうちゅー。	NO_LABEL
18歳の時からタレントのマネージメント業を始め、2001年に“Changin' My Life”のリーダーとしてプロデビュー。	NO_PRONOUNCE	NO_LABEL
2003年に脱退して“爆音カフェ”という女性ボーカルロックバンドのリーダー兼プロデューサーとなる。	NO_PRONOUNCE	NO_LABEL
その後、“爆音カフェ”は閉店し“VANVY CROW”にバンド名を変更した。	NO_PRONOUNCE	NO_LABEL
日本クラウンから2004年2月に発売された父・西郷輝彦のマキシシングル『sora －空－』では、親子ユニットを結成している。	NO_PRONOUNCE	NO_LABEL
2007年2月8日にジュエリー、芸能プロダクション、コンテンツ制作、メディアプロモーションなどを事業とする株式会社エメダーナを設立（有限会社辺見プロモーションから商号変更,	NO_PRONOUNCE	NO_LABEL
2014年より、株式会社辺見プロモーションに再度社名変更している。	にせんじゅうよねんより、かぶしきがいしゃへんみぷろもーしょんにさいどしゃめいへんこーしている。	NO_LABEL
）し、代表を務め実業家としても活動している。	NO_PRONOUNCE	NO_LABEL
