J・J・エイブラムスは、アメリカ合衆国の映画プロデューサー・クリエイター、テレビプロデューサー・クリエイター、ドラマ・映画監督、脚本家、俳優、作曲家。	NO_PRONOUNCE	NO_LABEL
本名はジェフリー・ジェイコブ・エイブラムス。	NO_PRONOUNCE	NO_LABEL
アクション、ドラマ、サイエンス・フィクションといったジャンルの作品で知られている。	あくしょん、どらま、さいえんすふぃくしょんといったじゃんるのさくひんでしられている。	NO_LABEL
映画ではパラマウント映画、テレビドラマではワーナー・ブラザース・テレビジョンと関係が深い。	えいがでわぱらまうんとえいが、てれびどらまでわわーなーぶらざーすてれびじょんとかんけいがふかい。	NO_LABEL
ニューヨークで生まれ、ロサンゼルスで育った。	にゅーよーくでうまれ、ろさんぜるすでそだった。	NO_LABEL
ユダヤ系の血を引く。	ゆだやけいのちをひく。	NO_LABEL
父親はテレビプロデューサーのジェラルド・W・エイブラムス。	NO_PRONOUNCE	NO_LABEL
8歳のときに祖父に連れられてユニバーサル・スタジオを訪れ映画製作に興味を持つ。	はっさいのときにそふにつれられてゆにばーさるすたじおをおとずれえいがせいさくにきょーみをもつ。	NO_LABEL
サラ・ローレンス大学に進学。	NO_PRONOUNCE	NO_LABEL
映画界での最初の仕事は作曲で、16歳のときの『』の音楽を手がけた。	NO_PRONOUNCE	NO_LABEL
大学4年生の時にジル・マズルスキーとチームを組んで長編映画の脚本を書き上げた。	NO_PRONOUNCE	NO_LABEL
これをタッチストーン・ピクチャーズが買い上げ、それに基づいてチャールズ・グローディンとジェームズ・ベルーシ出演の『ファイロファックス/トラブル手帳で大逆転』が制作された。	NO_PRONOUNCE	NO_LABEL
続いてハリソン・フォード主演の『心の旅』の脚本を書き、メル・ギブソン主演の『フォーエヴァー・ヤング 時を越えた告白』では脚本に加え、製作総指揮を務めた。	NO_PRONOUNCE	NO_LABEL
製作ジェリー・ブラッカイマー、監督マイケル・ベイの1998年の映画『アルマゲドン』では、脚本で参加。	NO_PRONOUNCE	NO_LABEL
同年、初めてテレビドラマに進出し、『フェリシティの青春』を製作。	NO_PRONOUNCE	NO_LABEL
このシリーズは The WB ネットワークで4シーズンに渡って放送された。	NO_PRONOUNCE	NO_LABEL
製作総指揮と脚本だけでなく、テーマ曲の作曲も手がけている。	せいさくそーしきときゃくほんだけでなく、てーまきょくのさっきょくもてがけている。	NO_LABEL
2001年、スリラー映画『ロードキラー』の脚本・製作を務め、製作されなかった『スーパーマン』の映画脚本も書いた。	NO_PRONOUNCE	NO_LABEL
2001年、ブライアン・バークと共にバッド・ロボット・プロダクションズを立ち上げ、ABCで『エイリアス』や『LOST』を製作。	NO_PRONOUNCE	NO_LABEL
『LOST』では、パイロット版では脚本・監督、第3シーズン初回では脚本に参加した。	NO_PRONOUNCE	NO_LABEL
『フェリシティの青春』と同様、『エイリアス』と『LOST』のテーマ曲も作曲した。	NO_PRONOUNCE	NO_LABEL
2005年、『エイリアス』の大ファンであるというトム・クルーズが『』の監督に招き、映画監督としても活動開始。	NO_PRONOUNCE	NO_LABEL
2006年には、ABCにて『恋するブライアン』の製作総指揮を務めた。	NO_PRONOUNCE	NO_LABEL
2007年、TEDカンファレンスで講演。	にせんななねん、てどかんふぁれんすでこーえん。	NO_LABEL
2008年、怪獣映画『クローバーフィールド/HAKAISHA』を製作。	NO_PRONOUNCE	NO_LABEL
2009年、SF映画『スター・トレック』で監督を務める。	NO_PRONOUNCE	NO_LABEL
2008年、FOXのSFドラマ『FRINGE/フリンジ』で製作総指揮・脚本を務め、やはりテーマ曲を作曲している。	NO_PRONOUNCE	NO_LABEL
2009年のMTVムービー・アワードの会場で、アンディ・サムバーグとウィル・フェレルとともに1980年代風の "" を演奏。	NO_PRONOUNCE	NO_LABEL
エイブラムスはキーボードを担当した。	えいぶらむすわきーぼーどをたんとーした。	NO_LABEL
2010年9月からNBCでエイブラムス製作総指揮の『アンダーカバー』が放送開始したが、同年12月に打ち切られた。	NO_PRONOUNCE	NO_LABEL
スティーヴン・スピルバーグとブライアン・バークも製作に参加したパラマウント映画の『SUPER8/スーパーエイト』で監督・脚本を務めた。	NO_PRONOUNCE	NO_LABEL
2012年、『スター・ウォーズ/フォースの覚醒』の監督に決定した。	NO_PRONOUNCE	NO_LABEL
2019年公開予定の『スター・ウォーズ/エピソード9』でも脚本・監督を務める。	NO_PRONOUNCE	NO_LABEL
Katie McGrath と結婚し、息子2人と娘1人をもうけている。	NO_PRONOUNCE	NO_LABEL
ロサンゼルスのパシフィック・パリセーズ在住。	NO_PRONOUNCE	NO_LABEL
民主党に献金している。	みんしゅとーにけんきんしている。	NO_LABEL
ビル・クリントン、バラク・オバマ、ビル・ブラッドリー、ジョン・エドワーズ、ヒラリー・クリントン、ハリー・リード、ラス・ファインゴールド、ティム・ケインといった政治家のキャンペーンに寄付している。	びるくりんとん、ばらくおばま、びるぶらっどりー、じょんえどわーず、ひらりーくりんとん、はりーりーど、らすふぁいんごーるど、てぃむけいんといったせいじかのきゃんぺーんにきふしている。	NO_LABEL
親日家としても知られており、日本文化やポップカルチャーにも造詣が深い。	しんにちかとしてもしられており、にっぽんぶんかやぽっぷかるちゃーにもぞーけいがふかい。	NO_LABEL
