『隷属快美の娘達 〜BEST SONGS II〜』は、畑亜貴の2枚目のベストアルバム。	NO_PRONOUNCE	NO_LABEL
2007年12月21日にMellow Headから発売された。	にせんななねんじゅーにがつにじゅういちにちにめろうへっどからはつばいされた。	NO_LABEL
前作『浪漫月裸の娘達 〜BEST SONGS〜』から約1年ぶりのリリース。	NO_PRONOUNCE	NO_LABEL
CDは2枚組の構成になっている。	きゃっしゅでぃすぺんさーわにまいぐみのこーせいになっている。	NO_LABEL
収録されている楽曲の作詞は全曲、畑が手掛けている。	しゅーろくされているがっきょくのさくしわぜんきょく、はたけがてがけている。	NO_LABEL
本作のタイトルは、2007年12月から2008年1月までランティスウェブラジオから配信されたインターネットラジオ『畑亜貴らじお 隷属快美の娘達』のタイトル名に使用された。	NO_PRONOUNCE	NO_LABEL
CDジャーナルは、「ファンタジックなデジポップの世界感が展開されている作品である。	NO_PRONOUNCE	NO_LABEL
」と評した。	NO_PRONOUNCE	NO_LABEL
