『赤信号のにゅうす笑』は、1984年6月3日から1985年3月31日まで日本テレビで放送されていたバラエティ番組。	NO_PRONOUNCE	NO_LABEL
放送時間は毎週日曜 17:00 - 17:15。	NO_PRONOUNCE	NO_LABEL
この番組以前に同枠で放送されていた『レオナルドにゅうす笑』の後継番組で、コント赤信号のメンバーが時事問題をネタにしたコントを繰り広げていた。	NO_PRONOUNCE	NO_LABEL
単独番組としては1985年3月に終了したが、その後も日曜12時台の番組『WAッ!熊が出た!!』の内包コーナーとして続けられた。	NO_PRONOUNCE	NO_LABEL
