張 国華は中国江西省出身の軍人。	ちょーこくかわちゅーごくこうせいしょーしゅっしんのぐんじん。	NO_LABEL
人民解放軍中将、チベット侵攻指揮官、中国共産党チベット自治区委員会書記、四川省省長などを務めた。	じんみんかいほーぐんちゅーじょー、ちべっとしんこーしきかん、ちゅーごくきょーさんとーちべっとじちくいーんかいしょき、しせんしょーしょーちょーなどをつとめた。	NO_LABEL
1914年10月 江西省永新県に生まれる。	せんきゅうひゃくじゅうよねんじゅーがつこうせいしょーえいしんけんにうまれる。	NO_LABEL
中国工農紅軍に参加し、多くの戦歴を重ねて人民解放軍中将。	ちゅーごくこーのーこうぐんにさんかし、おーくのせんれきをかさねてじんみんかいほーぐんちゅーじょー。	NO_LABEL
チベット自治区党委員会初代第一書記に任じられた。	ちべっとじちくとーいーんかいしょだいだいいちしょきににんじられた。	NO_LABEL
1951年には「9月9日、王基梅司令官率いる何千もの中国共産党軍がラサに到着した。	NO_PRONOUNCE	NO_LABEL
その後を追うように張国華と譚冠率いる約20,000の中国兵がラサ入りをした。	NO_PRONOUNCE	NO_LABEL
」とダライ・ラマ法王日本事務所に記載がある。	NO_PRONOUNCE	NO_LABEL
1965年にチベットでの人民革命を提案した。	せんきゅうひゃくろくじゅうごねんにちべっとでのじんみんかくめいをていあんした。	NO_LABEL
二級八一勲章、一級独立自由勲章、一級解放勲章を叙勲した。	にきゅーはちいちくんしょー、いっきゅーどくりつじゆーくんしょー、いっきゅーかいほーくんしょーをじょくんした。	NO_LABEL
