ブレット・グラビットは、アメリカ合衆国・ジョージア州アトランタ出身のプロバスケットボール選手である。	NO_PRONOUNCE	NO_LABEL
ポジションはシューティングガード。	ぽじしょんわしゅーてぃんぐがーど。	NO_LABEL
南アラバマ大学ではNCAA1部で活躍。	みなみあらばまだいがくでわえぬしーえーえーいちぶでかつやく。	NO_LABEL
卒業後、ノルウェーリーグでプレーし、2004-2005シーズンはMVPを獲得するなど活躍。	NO_PRONOUNCE	NO_LABEL
2007年、ABAのバーモント・フロストヒーブスに移籍。	NO_PRONOUNCE	NO_LABEL
リーグ優勝に貢献する。	りーぐゆうしょーにこーけんする。	NO_LABEL
2008年、新潟アルビレックスBBに入団。	にせんはちねん、にーがたあるびれっくすばすけっとぼーるににゅーだん。	NO_LABEL
試合中の怪我が元で現役引退。	しあいちゅーのけががもとでげんえきいんたい。	NO_LABEL
現在アメリカで小学生女子を教えるクラブのコーチとしている。	げんざいあめりかでしょーがくせいじょしをおしえるくらぶのこーちとしている。	NO_LABEL
