山中 定次郎は明治、大正時代の古美術商。	やまなかさだじろーわめいじ、たいしょーじだいのこびじゅつしょー。	NO_LABEL
株式会社山中商会初代社長。	かぶしきがいしゃさんちゅーしょーかいしょだいしゃちょー。	NO_LABEL
大阪の美術商山中家の養子に入った後、海外進出を任されてニューヨーク、ボストン等に支店を設立、中国での買い付けに奔走し、山中商会の国際展開を主導した。	おーさかのびじゅつしょーさんちゅーかのよーしにはいったのち、かいがいしんしゅつをまかされてにゅーよーく、ぼすとんとーにしてんをせつりつ、ちゅーごくでのかいつけにほんそーし、やまなかしょーかいのこくさいてんかいをしゅどーした。	NO_LABEL
慶応2年7月11日、和泉国堺に古美術商安達信五郎とモンの間の長男として生まれた。	けいおーにねんしちがつじゅういちにち、いずみのくにさかいにこびじゅつしょーあだちしんごろーともんのまのちょーなんとしてうまれた。	NO_LABEL
1873年3月堺の尋常高等小学校に入学し、1877年3月卒業した。	せんはっぴゃくななじゅうさんねんさんがつさかいのじんじょーこーとーしょうがっこーににゅーがくし、せんはっぴゃくななじゅうななねんさんがつそつぎょーした。	NO_LABEL
家業の見習いで阪堺を往来した後、1878年9月、高麗橋三丁目の古美術商山中吉兵衛に丁稚奉公に出された。	かぎょーのみならいではんかいをおーらいしたのち、せんはっぴゃくななじゅうはちねんくがつ、こーらいばしさんちょーめのこびじゅつしょーやまなかきちべーにでっちほーこーにだされた。	NO_LABEL
1883年から1886年まで府立大阪商業講習所夜間科に通い、また平野町仏光寺で松村敏夫に英学を学んだ。	せんはっぴゃくはちじゅうさんねんからせんはっぴゃくはちじゅうろくねんまでふりつおーさかしょーぎょーこーしゅーじょやかんかにかよい、またひらのちょーぶっこーじでまつむらとしおにえいがくをまなんだ。	NO_LABEL
明治17年海外に渡航しようと無断で横浜に行き、連れ戻されたという。	めいじじゅうしちねんかいがいにとこーしよーとむだんでよこはまにいき、つれもどされたという。	NO_LABEL
明治22年4月3日山中吉兵衛長女テイと結婚し、山中家に入った。	めいじにじゅうにねんしがつみっかやまなかきちべーちょーじょていとけっこんし、さんちゅーかにはいった。	NO_LABEL
1894年11月山中繁次郎とでアメリカ合衆国に派遣され、ニューヨーク市西27丁目に店を構えた。	NO_PRONOUNCE	NO_LABEL
1895年9月川崎正蔵家を通じて知ったニューヨーク分校に入学し、1897年6月卒業した。	せんはっぴゃくきゅうじゅうごねんくがつかわさきしょうぞーかをつーじてしったにゅーよーくぶんこーににゅーがくし、せんはっぴゃくきゅうじゅうななねろくがつそつぎょーした。	NO_LABEL
ニューヨーク支店が軌道に乗ると、牛窪第二郎を後任に立てて帰国し、1900年2月合名会社山中商会理事兼支配人に就任した。	にゅーよーくしてんがきどーにのると、うしくぼだいにろーをこーにんにたててきこくし、せんきゅうひゃくねんにがつごーめいがいしゃやまなかしょーかいりじけんしはいにんにしゅーにんした。	NO_LABEL
1904年ニューヨーク滞在中、のキネトスコープ「黒木軍の鴨緑江の大勝利」「旅順港の攻撃」等を鑑賞し、フィルムと上映器具一式を携えて帰国、道頓堀中座で上映した。	NO_PRONOUNCE	NO_LABEL
1917年山中吉郎兵衛が死去後、1918年6月株式会社山中商会を設立し、社長に就任した。	せんきゅうひゃくじゅうしちねんやまなかよしろーひょーえがしきょご、せんきゅうひゃくじゅうはちねんろくがつかぶしきがいしゃさんちゅーしょーかいをせつりつし、しゃちょーにしゅーにんした。	NO_LABEL
この大正期において浮世絵を取り扱う最大の輸出商として知られるようになった。	このたいしょーきにおいてうきよえをとりあつかうさいだいのゆしゅつしょーとしてしられるよーになった。	NO_LABEL
フランスの宝石商の浮世絵コレクションを松方幸次郎に斡旋し、数千点の浮世絵が松方コレクションに加わった。	ふらんすのほーせきしょーのうきよえこれくしょんをまつかたこうじろーにあっせんし、すーせんてんのうきよえがまつかたこれくしょんにくわわった。	NO_LABEL
1921年と1923年2度渡欧して各支店を視察し、1924年6月、1925年洛陽市龍門洞窟、大同市雲崗石窟を調査し、仏印、シャム、南洋、欧米を巡って1926年4月2日帰国した。	せんきゅうひゃくにじゅういちねんとせんきゅうひゃくにじゅうさんねんにどとおーしてかくしてんをしさつし、せんきゅうひゃくにじゅうよねんろくがつ、せんきゅうひゃくにじゅうごねんらくよーしりゅーもんどーくつ、だいどーしうんこうせっくつをちょーさし、ふついん、しゃむ、なんよー、おーべいをめぐってせんきゅうひゃくにじゅうろくねんしがつふつかきこくした。	NO_LABEL
1926年再び天竜山石窟を訪れて『[ 天竜山石窟踏査記]』を著した。	NO_PRONOUNCE	NO_LABEL
1931年の渡欧中、ストックホルム宮殿に呼ばれ、スウェーデン皇太子グスタフ6世アドルフに愛蔵品の解説を行った。	NO_PRONOUNCE	NO_LABEL
1936年10月28日胃潰瘍に罹り、高麗橋三丁目9番地の自邸に引き篭もった。	せんきゅうひゃくさんじゅうろくねじゅーがつにじゅうはちにちいかいよーにかかり、こーらいばしさんちょーめきゅうばんちのじていにひきこもった。	NO_LABEL
10月30日午前3時急変し、家族、社員に見守られながら7時42分息を引き取った。	じゅーがつさんじゅうにちごぜんさんじきゅーへんし、かぞく、しゃいんにみまもられながらしちじよんじゅうにふんいきをひきとった。	NO_LABEL
遺体は京都市南禅寺草川町の本邸に運ばれ、11月2日花山火葬場で密葬され、4日大阪本願寺津村別院で告別式が行われた。	いたいわきょーとしなんぜんじくさがわちょーのほんていにはこばれ、じゅーいちがつふつかはなやまかそーばでみっそーされ、よっかおーさかほんがんじつむらべついんでこくべつしきがおこなわれた。	NO_LABEL
定次郎の死の翌年、1937年には中国で盧溝橋事件が勃発して日中戦争に突入、定次郎を失った山中商会は世界情勢の悪化の対処に追われるも、遂に第二次世界大戦で資産の大半を失うこととなる。	さだじろーのしのよくねん、せんきゅうひゃくさんじゅうななねにわちゅーごくでろこーきょーじけんがぼっぱつしてにっちゅーせんそーにとつにゅー、さだじろーをうしなったやまなかしょーかいわせかいじょーせいのあっかのたいしょにおわれるも、ついにだいにじせかいたいせんでしさんのたいはんをうしなうこととなる。	NO_LABEL
1917年京都南禅寺に構えた旧邸看松居は、現在ワタベウェディングの結婚式場桜鶴苑となっている。	せんきゅうひゃくじゅうしちねんきょーとなんぜんじにかまえたきゅーやしきみまついわ、げんざいわたべうぇでぃんぐのけっこんしきじょーさくらつるえんとなっている。	NO_LABEL
山中家は宝暦年間摂津国伊丹で庄屋を務めた家柄で、文政年間初代吉兵衛が大坂天満大工町に分家し、経師伊丹屋を営んだ。	さんちゅーかわほうれきねんかんせっつのくにいたみでしょーやをつとめたいえがらで、ぶんせいねんかんしょだいきちべーがおーさかてんまんだいくちょーにぶんけし、けいしいたみやをいとなんだ。	NO_LABEL
二代目吉兵衛の長男三代目吉兵衛は天満に残った一方、次男吉郎兵衛は北浜角、養子与七は高麗橋一丁目に独立し、それぞれ天山、角山、高山と通称された。	にだいめきちべーのちょーなんさんだいめきちべーわてんまにのこったいっぽー、じなんよしろーひょーえわきたはまかど、よーしあずかななわこーらいばしいっちょーめにどくりつし、それぞれあまやま、つのやま、たかやまとつーしょーされた。	NO_LABEL
