サンルイスオビスポは、アメリカ合衆国カリフォルニア州南部サンルイスオビスポ郡の都市である。	さんるいすおびすぽわ、あめりかがっしゅーこくかりふぉるにあしゅーなんぶさんるいすおびすぽぐんのとしである。	NO_LABEL
太平洋岸セントラルコーストに沿い、サンフランシスコとロサンゼルスの中間にある。	たいへいよーがんせんとらるこーすとにそい、さんふらんしすことろさんぜるすのちゅーかんにある。	NO_LABEL
1772年に設立され、州内でも最古級の町である。	せんななひゃくななじゅうにねんにせつりつされ、しゅーないでもさいこきゅーのまちである。	NO_LABEL
地元では"SLO"、"SLOタウン"、"S.L.O"、また"サンルイス"とも呼ばれ、ダン・ビューターによる全国地理書『繁栄』によれば、「アメリカで最も幸福な都市」とされてもいる。	NO_PRONOUNCE	NO_LABEL
サンルイスオビスポ郡の郡庁所在地であり、カリフォルニア州立ポリテクニック大学が市内にある。	さんるいすおびすぽぐんのぐんちょーしょざいちであり、かりふぉるにあしゅーりつぽりてくにっくだいがくがしないにある。	NO_LABEL
2010年国勢調査での人口は45,119人であり、2000年国勢調査時点より2.1％増加している。	NO_PRONOUNCE	NO_LABEL
サンルイスオビスポとはスペイン語で「司教の聖ルイ」という意味である。	NO_PRONOUNCE	NO_LABEL
サンルイスオビスポとなった地域に最初に住んだ人類はチュマシュ族インディアンであり、紀元前5,000年から10,000年の間頃に近辺に住んだとされている。	NO_PRONOUNCE	NO_LABEL
最も初期の集落はサンルイスオビスポの南にあり、河口が今よりも内陸にあり海面が高かった完新世前期の地形を反映していた。	もっともしょきのしゅーらくわさんるいすおびすぽのみなみにあり、かこーがいまよりもないりくにありかいめんがたかかったかんしんせいぜんきのちけいをはんえいしていた。	NO_LABEL
チュマシュ族はセントラルコーストの入江や湾で海洋資源を採取し、ロスオソスやモロクリークにあったものなど集落のネットワークで生活していた。	ちゅましゅぞくわせんとらるこーすとのいりえやわんでかいよーしげんをさいしゅし、ろすおそすやもろくりーくにあったものなどしゅーらくのねっとわーくでせいかつしていた。	NO_LABEL
1769年にガスパル・デ・ポルトラらの探検隊がこの土地を通過した。	せんななひゃくろくじゅうきゅうねんにがすぱるでぽるとららのたんけんたいがこのとちをつーかした。	NO_LABEL
熊が多かったので、この一帯を「ロス・オソス」と呼んだ。	NO_PRONOUNCE	NO_LABEL
1772年にフランシスコ会の重視する聖人であるトゥールーズ司教の聖ルイ()の名を冠した「ミッション・サン・ルイス・オビスポ・デ・トロス」の建物の建設がはじまった。	NO_PRONOUNCE	NO_LABEL
メキシコ独立後、1834年にミッションは通常の小教区となり、土地は払い下げられてランチョが成立した。	めきしこどくりつご、せんはっぴゃくさんじゅうよねんにみっしょんわつーじょーのしょーきょうーとなり、とちわはらいさげられてらんちょがせいりつした。	NO_LABEL
アメリカ合衆国によるカリフォルニア征服当初、サンルイスオビスポは無法者の土地として悪名を響かせていた。	あめりかがっしゅーこくによるかりふぉるにあせいふくとーしょ、さんるいすおびすぽわむほーもののとちとしてあくめいをひびかせていた。	NO_LABEL
サンルイスオビスポにはかつてパーム通りやチョロ通り近辺に急成長するチャイナタウンがあった。	さんるいすおびすぽにわかつてぱーむどーりやちょろどーりきんぺんにきゅーせいちょーするちゃいなたうんがあった。	NO_LABEL
太平洋海岸鉄道やサンルイスオビスポとパソロブレス、パソロブレスとカンブリアとを繋ぐ道路を建設するために、中国系アメリカ人のアー・ルイスが中国から労働者を連れてきた。	NO_PRONOUNCE	NO_LABEL
1884年から1894年にはサザン・パシフィック鉄道を通すためにクエスタ山脈を通すトンネル工事もあった。	せんはっぴゃくはちじゅうよねんからせんはっぴゃくきゅうじゅうよねんにわさざんぱしふぃっくてつどーをとーすためにくえすたさんみゃくをとーすとんねるこーじもあった。	NO_LABEL
チャイナタウンはアー・ルイスの店など中国人が所有経営するパーム通りの事業周辺に形成された。	NO_PRONOUNCE	NO_LABEL
今日、ミー・ヘン・ロウのチャプスイ店がこの文化で唯一の名残であり、チャイナタウンの再活性化が企画されている。	NO_PRONOUNCE	NO_LABEL
この時代の記念品となるものが幾つか、かつてチャイナタウンがあった所に建設された駐車場の1階に展示されている。	このじだいのきねんひんとなるものがいくつか、かつてちゃいなたうんがあったところにけんせつされたちゅーしゃじょーのいっかいにてんじされている。	NO_LABEL
サンルイスオビスポ歴史協会にも移りゆく時代の展示物がある。	さんるいすおびすぽれきしきょーかいにもうつりゆくじだいのてんじぶつがある。	NO_LABEL
車文化の高まりとともにサンルイスオビスポはアメリカ国道101号線やカリフォルニア州道1号線で人気のある立ち寄り場所だった。	くるまぶんかのたかまりとともにさんるいすおびすぽわあめりかこくどーひゃくいちごーせんやかりふぉるにあしゅーどーいちごーせんでにんきのあるたちよりばしょだった。	NO_LABEL
その人気のゆえに、1925年に世界最初のモーテルであるマイルストーン・モーテルができた。	NO_PRONOUNCE	NO_LABEL
サンルイスオビスポの歴史的建造物の中には、モントレー通り696にある元サンルイスオビスポ・カーネギー図書館がある。	NO_PRONOUNCE	NO_LABEL
この図書館は1900年代初期にカリフォルニア州の142の図書館を設立したアンドリュー・カーネギーから1万ドルの資金を得て1905年に建設されたものである。	NO_PRONOUNCE	NO_LABEL
ロマネスク様式のこの建物はワトソンビルの建築家W・H・ウィークスが設計し、サンルイスオビスポの建築業者ジョセフ・マリノが建設した。	NO_PRONOUNCE	NO_LABEL
W・H・ウィークスが設計したカリフォルニア州の多くの公共建築物と同様に、近くのロムポックやパソロブレスにあるカーネギー図書館と同じ様相を呈している。	NO_PRONOUNCE	NO_LABEL
サンルイスオビスポのカーネギー図書館は1955年まで私立図書館として機能し、その後パーム通りとモロ通りの角にできた新しい公共図書館に機能が移された。	さんるいすおびすぽのかーねぎーとしょかんわせんきゅうひゃくごじゅうごねんまでしりつとしょかんとしてきのーし、そのごぱーむどーりともろどーりのかくにできたあたらしーこうきょーとしょかんにきのーがうつされた。	NO_LABEL
1956年以降はサンルイスオビスポ郡歴史博物館となっている。	せんきゅうひゃくごじゅうろくねんいこーわさんるいすおびすぽぐんれきしはくぶつかんとなっている。	NO_LABEL
このカーネギー図書館ビルはアメリカ合衆国国家歴史登録財に登録されている。	このかーねぎーとしょかんびるわあめりかがっしゅーこくこっかれきしとーろくざいにとーろくされている。	NO_LABEL
サンルイスオビスポ市内の最大かつ最古のボランタリー組織はサンルイスオビスポ商工会議所であり、郡内でも最大かつ最古である。	さんるいすおびすぽしないのさいだいかつさいこのぼらんたりーそしきわさんるいすおびすぽしょーこーかいぎしょであり、ぐんないでもさいだいかつさいこである。	NO_LABEL
この商工会議所は独立非営利法人として、その1,400人の会員の需要に応えている。	NO_PRONOUNCE	NO_LABEL
105年以上にわたってサンルイスオビスポ地域の経済的健全性と会員の繁栄のために献身してきた。	ひゃくごねんいじょーにわたってさんるいすおびすぽちいきのけいざいてきけんぜんせいとかいいんのはんえいのためにけんしんしてきた。	NO_LABEL
サンルイスオビスポはに位置する。	さんるいすおびすぽわにいちする。	NO_LABEL
アメリカ合衆国国勢調査局に拠れば、市域全面積は10.8平方マイルであり、このうち陸地は10.6平方マイル、水域は0.18平方マイルで水域率は1.66％である。	NO_PRONOUNCE	NO_LABEL
サンルイスオビスポはアメリカ西海岸のセントラルコーストに位置する。	さんるいすおびすぽわあめりかにしかいがんのせんとらるこーすとにいちする。	NO_LABEL
太平洋は市の西約11マイルにある。	NO_PRONOUNCE	NO_LABEL
市の直ぐ東側にはサンタルシア山脈がある。	しのすぐひがしがわにわさんたるしあさんみゃくがある。	NO_LABEL
サンルイスオビスポは地震動が活発な地域にある。	さんるいすおびすぽわじしんどーがかっぱつなちいきにある。	NO_LABEL
サンアンドレアス断層など近くには多くの断層が存在する。	さんあんどれあすだんそーなどちかくにわおーくのだんそーがそんざいする。	NO_LABEL
丘の連なりであるナインシスターズが市内を一部通っている。	おかのつらなりであるないんしすたーずがしないをいちぶかよっている。	NO_LABEL
地質学的には岩頸として注目に値する。	NO_PRONOUNCE	NO_LABEL
9つの峰のうち6つは民衆のレクリエーションに公開されている。	ここのつのみねのうちむっつわみんしゅーのれくりえーしょんにこーかいされている。	NO_LABEL
サンルイスオビスポは冷涼な地中海性気候にある。	さんるいすおびすぽわれいりょーなちちゅーかいせいきこーにある。	NO_LABEL
年間で計測可能な降水がある日は平均50日であり、大半は冬季に降る。	ねんかんでけいそくかのーなこーすいがあるひわへいきんごじゅうにちであり、たいはんわとーきにふる。	NO_LABEL
夏は概して暖かく日照に恵まれる。	なつわがいしてあたたかくにっしょーにめぐまれる。	NO_LABEL
朝は太平洋岸からの霧に覆われる。	あさわたいへいよーがんからのきりにおおわれる。	NO_LABEL
冬は概して温暖だが、氷点下まで下がる日が平均して4日ある。	ふゆわがいしておんだんだが、ひょーてんかまでさがるひがへいきんしてよっかある。	NO_LABEL
年間を通じて気温は幅広く変化し、1月や2月に80まで上がることも希ではない。	NO_PRONOUNCE	NO_LABEL
如何なる種類の嵐も希である。	いかなるしゅるいのあらしもまれである。	NO_LABEL
ただし2009年10月に冬には早い強力な嵐が起こり、市内に8インチ近い雨を降らした。	ただしにせんきゅうねんじゅーがつにふゆにわはやいきょーりょくなあらしがおこり、しないにはちいんちちかいあめをふらした。	NO_LABEL
以下は2009年の推計による人口統計データである。	いかわにせんきゅうねんのすいけいによるじんこーとーけいでーたである。	NO_LABEL
サンルイスオビスポ市は自治体化された憲章都市であり、サンルイスオビスポ郡の郡庁所在地でもある。	さんるいすおびすぽしわじちたいかされたけんしょーとしであり、さんるいすおびすぽぐんのぐんちょーしょざいちでもある。	NO_LABEL
市憲章では市政委員会・市長・シティマネジャー方式を採用している。	NO_PRONOUNCE	NO_LABEL
2年任期で選挙され連続する4期を超えて務めることを制限される1人の市長と、4年任期で選挙され連続する2期を超えて務めることを制限される4人の市政委員によって統治されている。	にねんにんきでせんきょされれんぞくするよんきをこえてつとめることをせいげんされるひとりのしちょーと、よんねんにんきでせんきょされれんぞくするにきをこえてつとめることをせいげんされるよにんのしせいいいんによってとーちされている。	NO_LABEL
サンルイスオビスポ市消防署は1872年に設立されており、現在は45人の常勤消防士と4つの駐屯所がある。	さんるいすおびすぽししょーぼーしょわせんはっぴゃくななじゅうにねんにせつりつされており、げんざいわよんじゅうごにんのじょーきんしょーぼーしとよっつのちゅーとんしょがある。	NO_LABEL
3名の二次救命処置消防車中隊と4名の二次救命処置トラック中隊がある。	NO_PRONOUNCE	NO_LABEL
毎日の各当番で少なくとも1人の救急医療隊員が配置されている。	まいにちのかくとーばんですくなくともひとりのきゅーきゅーいりょーたいいんがはいちされている。	NO_LABEL
年間で4,500件の電話呼び出しに応じている。	NO_PRONOUNCE	NO_LABEL
またバイクの救急医療隊もあり、ファーマーズマーケットなど市内の特別行事の時に使われている。	またばいくのきゅーきゅーいりょーたいもあり、ふぁーまーずまーけっとなどしないのとくべつぎょーじのときにつかわれている。	NO_LABEL
消防署の4人は特別機動隊のメンバーでもあり、軽い救急装置などを積んだ救急車を使って反応している。	しょーぼーしょのよにんわとくべつきどーたいのめんばーでもあり、かるいきゅーきゅーそーちなどをつんだきゅうきゅうしゃをつかってはんのーしている。	NO_LABEL
1990年6月市政委員のジェリー・ライスが屋内の公共スペース全てで喫煙を禁じる条令を提案した。	せんきゅうひゃくきゅうじゅうねんろくがつしせいいいんのじぇりーらいすがおくないのこーきょーすぺーすすべてできつえんをきんじるじょーれいをていあんした。	NO_LABEL
この条令の成立を阻止しようとしたR.J.レイノルズ・タバコ・カンパニーの試みが失敗した後、6月19日に市政委員会は4対1の票決で条令を可決した。	NO_PRONOUNCE	NO_LABEL
市長のロン・ドゥニンのみが反対だった。	NO_PRONOUNCE	NO_LABEL
この結果、8月2日に公共建築物全てで喫煙を禁じた世界初の都市になった。	このけっか、はちがつふつかにこーきょーけんちくぶつすべてできつえんをきんじたせかいはつのとしになった。	NO_LABEL
その範囲にはバーやレストランも含まれた。	そのはんいにわばーやれすとらんもふくまれた。	NO_LABEL
この条令が世界的に禁煙法を広げる切っ掛けとなってきた。	このじょーれいがせかいてきにきんえんほーをひろげるきっかけとなってきた。	NO_LABEL
2010年4月、その反喫煙条令を強化し、特定の条件を除いて全ての公共空間に拡大した。	にせんじゅうねんしがつ、そのはんきつえんじょーれいをきょーかし、とくていのじょーけんをのぞいてすべてのこーきょーくーかんにかくだいした。	NO_LABEL
これは6月20日に実効になった。	これわろくがつはつかにじっこーになった。	NO_LABEL
1982年、市政委員会は公聴会を行った後で「ドライブスルー」の店の建設を禁じる条令を承認した。	NO_PRONOUNCE	NO_LABEL
この禁止のためにIn-N-Outバーガーは近くのアタスカデロの町にレストランをオープンした。	NO_PRONOUNCE	NO_LABEL
2008年、市政委員会は3対2の票決でこの禁止条例の延長を可決した。	NO_PRONOUNCE	NO_LABEL
市内で最初のファストフード店であるマクドナルドは閉店した。	しないでさいしょのふぁすとふーどてんであるまくどなるどわへいてんした。	NO_LABEL
1982年、市はガソリンを売る店でアルコール飲料を販売することを禁じる条令を可決した。	せんきゅうひゃくはちじゅうにねん、しわがそりんをうるみせであるこーるいんりょーをはんばいすることをきんじるじょーれいをかけつした。	NO_LABEL
ただし、条令の成立前から販売していたサウスヒゲラ通りのモービルのガソリンスタンドのみ適用除外とされた。	ただし、じょーれいのせいりつまえからはんばいしていたさうすひげらどーりのもーびるのがそりんすたんどのみてきよーじょがいとされた。	NO_LABEL
しかし、2004年に3対2の票決でこの禁止条例の廃止を決めた。	NO_PRONOUNCE	NO_LABEL
2010年4月、規則に従わない集会を規制する条令が、反対もほとんどなく市政委員会の票決も4対1で可決された。	NO_PRONOUNCE	NO_LABEL
この条令では私有地で20人以上を集め、一定範囲の近隣に少なからぬ混乱を招いた者に700ドルの科料を科すものである。	このじょーれいでわしゆーちでにじゅうにんいじょーをあつめ、いっていはんいのきんりんにすくなからぬこんらんをまねいたものにななひゃくどるのかりょーをかすものである。	NO_LABEL
違法行為には過度な騒音による妨害行為、公共の場での泥酔、未成年へのアルコール供与、喧嘩、公共の場での放尿、庭や側道あるいは通りを溢れさせる群衆、その他類似する違法行為が含まれている。	いほーこーいにわかどなそーおんによるぼーがいこーい、こーきょーのばでのでいすい、みせいねんえのあるこーるきょーよ、けんか、こーきょーのばでのほーにょー、にわやがわどーあるいわとーりをあふれさせるぐんしゅー、そのたるいじするいほーこーいがふくまれている。	NO_LABEL
カリフォルニア州議会では、上院の第15および下院の第33選挙区に属している。	NO_PRONOUNCE	NO_LABEL
連邦議会下院ではカリフォルニア州第23選挙区に属し、クック投票動向指数では民主党+9となっている。	NO_PRONOUNCE	NO_LABEL
2010年時点で州の上下院は共和党議員が、連邦議会は民主党議員が務めている。	にせんじゅうねんじてんでしゅーのじょーかいんわきょーわとーぎいんが、れんぽーぎかいわみんしゅとーぎいんがつとめている。	NO_LABEL
サンルイスオビスポの経済は正に脱工業化経済である。	さんるいすおびすぽのけいざいわまさにだつこーぎょーかけいざいである。	NO_LABEL
サービス産業経済に分類することもできる。	さーびすさんぎょーけいざいにぶんるいすることもできる。	NO_LABEL
政府が「サービス産業」に分類するものは郡内の雇用数の38％に上るが、実際のサービス産業はもっと大きなものである。	NO_PRONOUNCE	NO_LABEL
政府機関の雇用数は郡内の20.7％であり、これもサービス産業に分類できるものである。	NO_PRONOUNCE	NO_LABEL
金融、保険および不動産業もサービス産業に分類できる。	きんゆー、ほけんおよびふどーさんぎょーもさーびすさんぎょーにぶんるいできる。	NO_LABEL
サービス産業と小売り産業を併せると郡内雇用数の75％になる。	NO_PRONOUNCE	NO_LABEL
製造業の雇用数は郡内の6％足らずである。	NO_PRONOUNCE	NO_LABEL
市中心街は丁寧に改修されたミッション・サンルイスオビスポ・デ・トロサを中心にしている。	NO_PRONOUNCE	NO_LABEL
ここには多くの選りすぐりの店やブティークもある。	ここにわおーくのえりすぐりのみせやぶてぃーくもある。	NO_LABEL
新しい中心街ショッピングセンターが近年追加された。	あたらしいちゅーしんがいしょっぴんぐせんたーがきんねんついかされた。	NO_LABEL
コートストリートセンターとダウンタウンセンターは全国チェーンの店舗を入れている。	こーとすとりーとせんたーとだうんたうんせんたーわぜんこくちぇーんのてんぽをいれている。	NO_LABEL
学生、観光客および住人などにとってこの地域の主要な魅力は、ハイキング、カヤック、サーフィン、ウィンドサーフィン、ダイビング、セイリングおよびカイトボードなど数多いアウトドアスポーツである。	がくせい、かんこーきゃくおよびじゅーにんなどにとってこのちいきのしゅよーなみりょくわ、はいきんぐ、かやっく、さーふぃん、うぃんどさーふぃん、だいびんぐ、せいりんぐおよびかいとぼーどなどかずおーいあうとどあすぽーつである。	NO_LABEL
1990年の映画『My Blue Heaven』は市内の商業地域で撮影された。	NO_PRONOUNCE	NO_LABEL
2003年以来、市内の南西部には幾つかの大型ショッピングセンターが開発されてきた。	にせんさんねんいらい、しないのなんせいぶにわいくつかのおーがたしょっぴんぐせんたーがかいはつされてきた。	NO_LABEL
靴小売店のタッケンズ・シューズが市内に本社を置いている。	NO_PRONOUNCE	NO_LABEL
サンルイスオビスポ市の包括的年間財務報告書2009年版によれば、市内の雇用主トップ10は以下の通りである。	NO_PRONOUNCE	NO_LABEL
市内の公立学校は全てサンルイス・コースタル統一教育学区が管轄しており、小学校7校、中学校1校、高校1校が含まれている。	NO_PRONOUNCE	NO_LABEL
市内には私立の小学校2校と高校1校もある。	NO_PRONOUNCE	NO_LABEL
市内には公立のカリフォルニア州立ポリテクニック大学があり、学生数は2万人近い。	しないにわこーりつのかりふぉるにあしゅーりつぽりてくにっくだいがくがあり、がくせいすーわにまんにんちかい。	NO_LABEL
近郷にはコミュニティ・カレッジのクエスタ・カレッジもある。	NO_PRONOUNCE	NO_LABEL
サンルイスオビスポ市内にはサンルイスオビスポ郡地域空港があり、民間利用と幾つかの主要都市への商業便を利用できる。	さんるいすおびすぽしないにわさんるいすおびすぽぐんちいきくーこーがあり、みんかんりよーといくつかのしゅよーとしえのしょーぎょーびんをりよーできる。	NO_LABEL
アムトラックがサンディエゴ市からのパシフィック・サーフライナーの北側終着点として、またコースト・スターライトの停車駅として、毎日旅客列車を運行している。	あむとらっくがさんでぃえごしからのぱしふぃっくさーふらいなーのきたがわしゅーちゃくてんとして、またこーすとすたーらいとのていしゃえきとして、まいにちりょかくれっしゃをうんこーしている。	NO_LABEL
アムトラックの列車は北のサンフランシスコ、オレゴン州ポートランド、ワシントン州シアトル、南のロサンゼルス各市を結んでいる。	あむとらっくのれっしゃわきたのさんふらんしすこ、おれごんしゅーぽーとらんど、わしんとんしゅーしあとる、みなみのろさんぜるすかくしをむすんでいる。	NO_LABEL
グレイハウンドの事務所が市内にあったが、2009年3月12日に閉鎖した。	ぐれいはうんどのじむしょがしないにあったが、にせんきゅうねんさんがつじゅうににちにへいさした。	NO_LABEL
ただし、市内のレイルロード・アベニューにある乗換停留所からグレイハウンドを利用できる。	NO_PRONOUNCE	NO_LABEL
公共交通機関としては市内全体に運行されるSLO トランジットのバス便と郡全体に運行されるSLO 地域交通の便がある。	NO_PRONOUNCE	NO_LABEL
相乗りで公共輸送機関の利用を奨励しており、他にも自転車などが使われている。	あいのりでこーきょーゆそーきかんのりよーをしょーれいしており、たにもじてんしゃなどがつかわれている。	NO_LABEL
SLO トランジットの利用者は Google Transit を使って旅行計画を立てることができる。	NO_PRONOUNCE	NO_LABEL
SLO カーフリー・プログラムではオンラインでバスの時刻表や自転車用地図、割引運賃、宿泊および見どころなど、車無しで休暇を楽しむための手続を1つのオンライン・サイトでできるようにしている。	NO_PRONOUNCE	NO_LABEL
アメリカ国道101号線とカリフォルニア州道1号線が市内を南北に貫く主要道路である。	あめりかこくどーひゃくいちごーせんとかりふぉるにあしゅーどーいちごーせんがしないをなんぼくにつらぬくしゅよーどーろである。	NO_LABEL
北はサンフランシスコ、南はロサンゼルスまでセントラルコースト沿いの都市とを繋いでいる。	きたわさんふらんしすこ、みなみわろさんぜるすまでせんとらるこーすとぞいのとしとをつないでいる。	NO_LABEL
この2つの道路は市の南部まで道路を共有して入り、北に進むと州道1号線が海岸部のモロ湾に向かい、国道101号線は内陸部をパソロブレスに向かう。	このふたつのどーろわしのなんぶまでどーろをきょーゆーしてはいり、きたにすすむとしゅーどーいちごーせんがかいがんぶのもろわんにむかい、こくどーひゃくいちごーせんわないりくぶをぱそろぶれすにむかう。	NO_LABEL
州道227号線は国道101号線の代替道路として、市内から南のアロヨグランデに向かう。	NO_PRONOUNCE	NO_LABEL
交通手段としての自転車の利用が増加している。	こーつーしゅだんとしてのじてんしゃのりよーがぞーかしている。	NO_LABEL
ビル・ロールマン自転車ブールバードは自転車優先となっており、自転車用信号で自動車とは分離された形で交通の流れに乗ることができる。	NO_PRONOUNCE	NO_LABEL
毎週開催されるファーマーズマーケットのときは、サンルイスオビスポ郡自転車連合が無料で自転車専用整理係を出している。	まいしゅーかいさいされるふぁーまーずまーけっとのときわ、さんるいすおびすぽぐんじてんしゃれんごーがむりょーでじてんしゃせんよーせいりがかりをだしている。	NO_LABEL
2007年、アメリカ自転車愛好者同盟から自転車に優しい地域社会のシルバーレベルに指定された。	にせんななねん、あめりかじてんしゃあいこーしゃどーめいからじてんしゃにやさしいちーきしゃかいのしるばーれべるにしていされた。	NO_LABEL
市は中心街に3階建て駐車場を運営している。	しわちゅーしんがいにさんかいだてちゅーしゃじょーをうんえいしている。	NO_LABEL
中心街の通りは日曜休日を除きパーキンメーターで管理している。	ちゅーしんがいのとーりわにちよーきゅーじつをのぞきぱーきんめーたーでかんりしている。	NO_LABEL
市の革新的なラックス・ウィズ・プラークス計画では中心街の駐輪場を増やし、駐車による混雑を減らしている。	NO_PRONOUNCE	NO_LABEL
マドンナ・インは土地の有名なランドマークである。	NO_PRONOUNCE	NO_LABEL
1958年にアレックス・マドンナによって建設されたこの建物は外観が奇抜なことで有名である。	NO_PRONOUNCE	NO_LABEL
1940年代からあるアール・デコ調のフレモント劇場では、現在も大スクリーンで封切り映画を上映している。	せんきゅうひゃくよんじゅうねんだからあるあーるでこちょーのふれもんとげきじょーでわ、げんざいもだいすくりーんでふーきりえいがをじょーえいしている。	NO_LABEL
主劇場の壁には壁画があり、天井にはネオンサインで光を旋回できる。	しゅげきじょーのかべにわへきががあり、てんじょーにわねおんさいんでひかりをせんかいできる。	NO_LABEL
パーム劇場は太陽熱暖房が施され、サンルイスオビスポ国際映画祭の会場になっている。	ぱーむげきじょーわたいよーねつだんぼーがほどこされ、さんるいすおびすぽこくさいえいがさいのかいじょーになっている。	NO_LABEL
風船ガム通りというものもある。	ふーせんがむどーりとゆうものもある。	NO_LABEL
1960年頃から人々が噛み終わったガムをこの通りの壁にくっつけてきた。	せんきゅうひゃくろくじゅうねんごろからひとびとがかみおわったがむをこのとーりのかべにくっつけてきた。	NO_LABEL
サンタローザ通りとパシフィック通りの角にある医院は著名建築家フランク・ロイド・ライトが設計した数少ない商業ビルの1つである。	さんたろーざどーりとぱしふぃっくどーりのかくにあるいいんわちょめいけんちくかふらんくろいどらいとがせっけいしたかずすくないしょーぎょーびるのひとつである。	NO_LABEL
元カーネギー図書館で現在はサンルイスオビスポ郡歴史博物館になっている建物がある。	もとかーねぎーとしょかんでげんざいわさんるいすおびすぽぐんれきしはくぶつかんになっているたてものがある。	NO_LABEL
ミシシッピ川より西では最大級であるマルディグラのパレードが市内で開催されていたが、群衆の制御とアルコールの消費に関する問題がおきて、近年は中止になった。	みししっぴがわよりにしでわさいだいきゅーであるまるでぃぐらのぱれーどがしないでかいさいされていたが、ぐんしゅーのせいぎょとあるこーるのしょーひにかんするもんだいがおきて、きんねんわちゅーしになった。	NO_LABEL
カリフォルニア州立ポリテクニック大学のオープンハウスであるポリロイヤルは1933年から1990年まで毎年開催されていた。	かりふぉるにあしゅーりつぽりてくにっくだいがくのおーぷんはうすであるぽりろいやるわせんきゅうひゃくさんじゅうさんねからせんきゅうひゃくきゅうじゅうねんまでまいとしかいさいされていた。	NO_LABEL
1945年に食糧問題のために中断されたことがあった。	せんきゅうひゃくよんじゅうごねんにしょくりょーもんだいのためにちゅーだんされたことがあった。	NO_LABEL
この行事は学生が自分達の計画を見せ説明する機会として始められた。	このぎょーじわがくせいがじぶんたちのけいかくをみせせつめいするきかいとしてはじめられた。	NO_LABEL
その起源は1904年に開催された「農民大学とピクニック・バスケット」にあった。	NO_PRONOUNCE	NO_LABEL
1980年にはポリテクニック大学が「カリフォルニア州立大学システム19校の中で最も人気のある大学」になったので、ポリロイヤルは州内から10万人以上の観客を集め、1985年には126,000人にもなった。	NO_PRONOUNCE	NO_LABEL
コンサート、パーティなど他の娯楽要素が追加され、毎年市には300ないし400万ドルの収入になった。	NO_PRONOUNCE	NO_LABEL
1989年のポリロイヤルの間にキャンパス外のアパートで「小暴動」が起こり、1990年の行事から「無期限に」中止された。	NO_PRONOUNCE	NO_LABEL
1989年4月28日と29日の2晩に起こった暴動で、逮捕者127人、負傷者100人以上、警官の負傷者14人を出し、被害総額は数十万ドルに上った。	NO_PRONOUNCE	NO_LABEL
キャンパス近くの酒店キャンパス・ボトルがアルコールを要求する酔っ払いに破壊された。	NO_PRONOUNCE	NO_LABEL
2日目の夜は1日目を凌ぎ、キャンパスで開催されたコンサート会場やキャンパス外のパーティ会場を出た人々が酔っぱらって通りに溢れだした。	ふつかのよるわついたちをしのぎ、きゃんぱすでかいさいされたこんさーとかいじょーやきゃんぱすがいのぱーてぃかいじょーをでたひとびとがよっぱらってとーりにあふれだした。	NO_LABEL
ドゥニン市長はこの出来事を「サンルイスオビスポ市の歴史で最悪の事態」と言った。	NO_PRONOUNCE	NO_LABEL
翌月曜日にドゥニン市長と大学の学長ウォーレン・ベイカーが会談し、ポリロイヤルは無期限中止とされた。	NO_PRONOUNCE	NO_LABEL
ポリロイヤルという名前は2001年の「オープンハウス・プレゼンツ・ポリロイヤル」に引き継がれたが、学生と父兄のための行事としてスケールが小さくなった。	NO_PRONOUNCE	NO_LABEL
市内では他にも幾つかの行事がある。	しないでわたにもいくつかのぎょーじがある。	NO_LABEL
例えばオリンピック聖火リレーの寄り道、ツアー・オブ・カリフォルニア自転車ロードレース、シンコ・デ・マヨの祭、毎年6月のモーツァルト祭、長く続いているクリスマス・パレードなどである。	NO_PRONOUNCE	NO_LABEL
その他に有名なワイン産地となったエドナ・バレーの開発がある。	NO_PRONOUNCE	NO_LABEL
市の南部、車では短時間の距離にある幾つかのワイン醸造所では午後の試飲を楽しむことができる。	しのなんぶ、くるまでわたんじかんのきょりにあるいくつかのわいんじょーぞーしょでわごごのしいんをたのしむことができる。	NO_LABEL
このワイン生産地は北30マイルのパソロブレスから南70マイルのサンタイネスまで拡がっている。	NO_PRONOUNCE	NO_LABEL
夏の毎週金曜日夕刻、市民や観光客がミッションプラザで行われる無料屋外コーンサートに集まる。	なつのまいしゅーきんよーびゆーこく、しみんやかんこーきゃくがみっしょんぷらざでおこなわれるむりょーおくがいこーんさーとにあつまる。	NO_LABEL
この行事はコンサート・イン・ザ・プラザと呼ばれている。	NO_PRONOUNCE	NO_LABEL
その他注目すべき行事として、サンルイスオビスポ国際映画祭、フェスティバル・モザイック、およびプレイン・エア・フェスティバルがある。	NO_PRONOUNCE	NO_LABEL
市内のヒゲラ通り、オソス通りとニポモ通りの間で毎週木曜日午後6時から9時までファーマーズマーケットが開催されている。	しないのひげらどーり、おそすどーりとにぽもどーりのまでまいしゅーもくよーびごごろくじからくじまでふぁーまーずまーけっとがかいさいされている。	NO_LABEL
この行事がある時は自動車が締め出され、屋台では食事や物品を販売し、様々な美術家や音楽家が公演を行う。	このぎょーじがあるときわじどーしゃがしめだされ、やたいでわしょくじやぶっぴんをはんばいし、さまざまなびじゅつかやおんがくかがこーえんをおこなう。	NO_LABEL
2000年6月から毎月第1木曜日にはバイク・ハプニングが行われている。	NO_PRONOUNCE	NO_LABEL
ファーマーズマーケットが終わると人々はミッションプラザに自転車を持って集まる。	ふぁーまーずまーけっとがおわるとひとびとわみっしょんぷらざにじてんしゃをもってあつまる。	NO_LABEL
その後交通法に従いながら中心街の主要通りを何度も周回する。	そのごこーつーほーにしたがいながらちゅーしんがいのしゅよーどーりをなんどもしゅーかいする。	NO_LABEL
この催しは人々が自分の自転車に戻り喜びを見出すことを奨励する、興味と社会生活の組み合わされたものと考えられている。	このもよーしわひとびとがじぶんのじてんしゃにもどりよろこびをみいだすことをしょーれいする、きょーみとしゃかいせいかつのくみあわされたものとかんがえられている。	NO_LABEL
毎回1つのテーマがあり、参加者はテーマに沿ったコスチュームを着用する。	まいかいひとつのてーまがあり、さんかしゃわてーまにそったこすちゅーむをちゃくよーする。	NO_LABEL
市内の文化行事はカリフォルニア州立ポリテクニック大学キャンパスに建てられているクリストファー・コーエン芸能センターが一つの中心になっている。	NO_PRONOUNCE	NO_LABEL
この建物は地元の事業家や個人の寄付で建設された。	このたてものわじもとのじぎょーかやこじんのきふでけんせつされた。	NO_LABEL
このセンターには、当初からあるスパノス劇場など幾つかの会場がある。	このせんたーにわ、とーしょからあるすぱのすげきじょーなどいくつかのかいじょーがある。	NO_LABEL
ハーモンホールは1,300席で最大である。	NO_PRONOUNCE	NO_LABEL
ここでは高校やカレッジの催しが行われている。	ここでわこーこーやかれっじのもよーしがおこなわれている。	NO_LABEL
地元のアーティストが劇、音楽およびダンスを公演している。	じもとのあーてぃすとがげき、おんがくおよびだんすをこーえんしている。	NO_LABEL
このセンターができたことで、他所からも訪れる芸能人がおり、それらはサンルイスオビスポのような規模の都市としてはあまり見られない規模・種類のものである。	NO_PRONOUNCE	NO_LABEL
2007年夏、ハーモンホールの側壁に組み込まれたフォープス・パイプオルガンのお披露目コンサートがあった。	NO_PRONOUNCE	NO_LABEL
このオルガンの購入と設置のために300万ドルの寄付があった。	このおるがんのこーにゅーとせっちのためにさんびゃくまんどるのきふがあった。	NO_LABEL
