秩父鉱山は、埼玉県秩父市の西方、中津川上流にある鉱山である。	ちちぶこーざんわ、さいたまけんちちぶしのせいほー、なかつがわじょーりゅーにあるこーざんである。	NO_LABEL
秩父鉱山周辺は秩父帯の堆積岩であるが、石英閃緑岩マグマの貫入によって接触変成している。	ちちぶこーざんしゅーへんわちちぶたいのたいせきがんであるが、せきえいせんりょくがんまぐまのかんにゅーによってせっしょくへんせいしている。	NO_LABEL
特に石灰岩との接触によってスカルン鉱床を形成しており、採掘の対象となる結晶質石灰岩や各種の金属鉱物が産する。	とくにせっかいがんとのせっしょくによってすかるんこうしょーをけいせいしており、さいくつのたいしょーとなるけっしょーしつせっかいがんやかくしゅのきんぞくこーぶつがさんする。	NO_LABEL
