マリモは、球状集合体を作ることで知られている淡水性の緑藻の一種である。	まりもわ、きゅーじょーしゅーごーたいをつくることでしられているたんすいせいのりょくそーのいちしゅである。	NO_LABEL
特に阿寒湖に生育するマリモは、美しい球状体を作るため日本の特別天然記念物に指定されている。	とくにあかんこにせいいくするまりもわ、うつくしいきゅーじょーたいをつくるためにっぽんのとくべつてんねんきねんぶつにしていされている。	NO_LABEL
マリモは球状の集合体を形成するが、球状体一つがマリモの一個体単位というわけではなく、この球状体を構成する細い繊維がマリモの個体としての単位である。	まりもわきゅーじょーのしゅーごーたいをけいせいするが、きゅーじょーたいひとつがまりものいっこたいたんいとゆうわけでわなく、このきゅーじょーたいをこーせいするほそいせんいがまりものこたいとしてのたんいである。	NO_LABEL
よく目にする球状の「マリモ」は、生物学的にはマリモの“集合体”である。	NO_PRONOUNCE	NO_LABEL
多くの生息地では、マリモは糸状体の形態で暮らし、球状の集合体を作らない。	おーくのせいそくちでわ、まりもわしじょうたいのけいたいでくらし、きゅーじょーのしゅーごーたいをつくらない。	NO_LABEL
見た目は柔らかそうであるが実際には硬い藻であり、手で触れるとチクチクとした感触がある。	みためわやわらかそーであるがじっさいにわかたいもであり、てでふれるとちくちくとしたかんしょくがある。	NO_LABEL
日本では1897年に札幌農学校の川上瀧彌が阿寒湖の尻駒別湾で発見し、その形から「マリモ」という和名をつけた。	NO_PRONOUNCE	NO_LABEL
なおカール・フォン・リンネがスウェーデンのダンネモーラ湖からマリモを採取し学名をつけたのは1753年である。	なおかーるふぉんりんねがすうぇーでんのだんねもーらみずうみからまりもをさいしゅしがくめいをつけたのわせんななひゃくごじゅうさんねんである。	NO_LABEL
日本では、北海道及び本州の東北地方から関西地方の湖沼に点在して分布し、日本国外では、ヨーロッパ北部、ロシア、北アメリカ等に分布する。	にっぽんでわ、ほっかいどーおよびほんしゅーのとーほくちほーからかんさいちほーのこしょーにてんざいしてぶんぷし、にほんこくがいでわ、よーろっぱほくぶ、ろしあ、きたあめりかとーにぶんぷする。	NO_LABEL
日本ではマリモの生育が確認されている湖沼は以下のとおりである。	にっぽんでわまりものせいいくがかくにんされているこしょーわいかのとーりである。	NO_LABEL
このうちマリモが大きな球状の集合体を形成するのは阿寒湖と小川原湖だけである。	このうちまりもがおーきなきゅーじょーのしゅーごーたいをけいせいするのわあかんことおがはちこだけである。	NO_LABEL
また、富山県で発見されたタテヤママリモは、かつてはマリモと同一種とされ、誰かの放流説などが疑われていたが、DNA分析の結果、違う種であることが確認された。	また、とやまけんではっけんされたたてやままりもわ、かつてわまりもとどーいっしゅとされ、だれかのほーりゅーせつなどがうたがわれていたが、でぃーえぬえーぶんせきのけっか、ちがうしゅであることがかくにんされた。	NO_LABEL
全国各地に散発的に分布している。	ぜんこくかくちにさんぱつてきにぶんぷしている。	NO_LABEL
阿寒湖のマリモは最大30cm程度と大きくビロード状の球状形態や希少性から1952年に国の特別天然記念物に指定された。	あかんこのまりもわさいだいさんじゅうせんちめーとるていどとおーきくびろーどじょーのきゅーじょーけいたいやきしょーせいからせんきゅうひゃくごじゅうにねんにくにのとくべつてんねんきねんぶつにしていされた。	NO_LABEL
また、近年各地で個体数が減少しており、種として環境省のレッドリストで絶滅危惧種で掲載されている。	また、きんねんかくちでこたいすーがげんしょーしており、たねとしてかんきょーしょーのれっどりすとでぜつめつきぐしゅでけいさいされている。	NO_LABEL
また、阿寒湖のマリモは直径30cm程度まで生長するが、太陽光の届かない中心部は糸状体が枯れて空洞になっているため、大きさを支えきれずに壊れてしまう。	また、あかんこのまりもわちょっけいさんじゅうせんちめーとるていどまでせいちょーするが、たいよーこーのとどけかないちゅーしんぶわしじょうたいがかれてくーどーになっているため、おーきさをささえきれずにこわれてしまう。	NO_LABEL
だがその後は小さいマリモとなり、再び成長を続けていく。	だがそのごわちーさいまりもとなり、ふたたびせいちょーをつずけていく。	NO_LABEL
なお3月29日は阿寒湖のマリモが天然記念物に指定された日であり、この日はマリモの日とされている。	なおさんがつにじゅうきゅうにちわあかんこのまりもがてんねんきねんぶつにしていされたひであり、このひわまりものひとされている。	NO_LABEL
日本国外では、アイスランドのミーヴァトン湖やエストニアのオイツ湖などで球状の集合体が確認され、ヨーロッパ北部の諸国・ロシア・アメリカなど北半球に広く分布している種であることが近年分かってきた。	NO_PRONOUNCE	NO_LABEL
2011年12月、釧路市教育委員会マリモ研究室の研究によって、北半球のマリモの全てが日本の湖のマリモを起源とする可能性が高いことが判明した。	にせんじゅういちねんじゅーにがつ、くしろしきょーいくいーんかいまりもけんきゅーしつのけんきゅーによって、きたはんきゅーのまりものすべてがにっぽんのみずうみのまりもをきげんとするかのーせいがたかいことがはんめいした。	NO_LABEL
渡り鳥などが食べて、他の地域へと運んだ可能性が高いという。	わたりどりなどがたべて、たのちいきえとはこんだかのーせいがたかいという。	NO_LABEL
阿寒湖はマリモが現存する国内の湖の中で形成時期が最も古いが、長い歴史の中で消滅した湖もあり、国内のどこの湖が起源かを特定するのは困難とのことである。	あかんこわまりもがげんそんするこくないのみずうみのなかでけいせいじきがもっともふるいが、ながいれきしのなかでしょーめつしたみずうみもあり、こくないのどこのみずうみがきげんかをとくていするのわこんなんとのことである。	NO_LABEL
しかしながら水質汚染などから2010年代に入り世界最大の生息地ミーヴァトン湖では球状マリモが壊滅的な被害を受け、2014年現在、世界で阿寒湖北側チュウルイ湾が唯一の球状マリモの群生地となっている。	NO_PRONOUNCE	NO_LABEL
マリモは基本的に淡水で生きるが、海水と淡水の混ざった汽水域でも生育が確認されている。	NO_PRONOUNCE	NO_LABEL
淡水産藻類としては耐冷性と耐暗性も非常に強く、淡水と共に凍結した場合、-20で一日程度の凍結であれば耐えることが出来、冷蔵庫で凍結させず数か月保管しても死滅はしない。	NO_PRONOUNCE	NO_LABEL
阿寒湖は真冬になると完全に結氷し、60cmの厚さにもなる氷の下にマリモは閉じ込められるので、当然の性質と言える。	あかんこわまふゆになるとかんぜんにけっぴょーし、ろくじゅうせんちめーとるのあつさにもなるこーりのしたにまりもわとじこめられるので、とーぜんのせいしつといえる。	NO_LABEL
逆に暑さに非常に弱く、35℃が限界である。	ぎゃくにあつさにひじょーによわく、さんじゅうごどしーがげんかいである。	NO_LABEL
そのため、販売されているマリモを購入した場合、夏場の対策として冷蔵庫での保管が良いと考えられる。	そのため、はんばいされているまりもをこーにゅーしたばあい、なつばのたいさくとしてれいぞーこでのほかんがよいとかんがえられる。	NO_LABEL
マリモは一般的に水に浮かないものと言われているが、水に浮かんだ個体が阿寒湖で発見された。	まりもわいっぱんてきにみずにうかないものといわれているが、みずにうかんだこたいがあかんこではっけんされた。	NO_LABEL
また、マリモは光合成により気泡を発生するため、販売されるマリモでも光合成が活発なときにまれに浮くときがある。	また、まりもわこーごーせいによりきほーをはっせいするため、はんばいされるまりもでもこーごーせいがかっぱつなときにまれにうくときがある。	NO_LABEL
水質の悪化に弱い事が生息数の減少を引き起こしているとされている。	すいしつのあっかにじゃくいじがせいそくすーのげんしょーをひきおこしているとされている。	NO_LABEL
特にカチオン系界面活性剤に弱い。	とくにかちおんけいかいめんかっせいざいによわい。	NO_LABEL
また、乾燥にも弱く強風や遊覧船の波浪により打ち上げられると容易に枯死する。	また、かんそーにもよわくきょーふーやゆーらんせんのはろーによりうちあげられるとよーいにこしする。	NO_LABEL
泥に埋もれたり、シオグサに覆われるなどして光合成が阻害されても枯死するが、波浪による回転によってそれらを表面から落としている。	どろにうずもれたり、しおぐさにおおわれるなどしてこーごーせいがそがいされてもこしするが、はろーによるかいてんによってそれらをひょーめんからおとしている。	NO_LABEL
また、この回転運動によって他のマリモの下に隠されたマリモが表に出る事があり、これによって群生地全体の各個体が光合成を行えている。	また、このかいてんうんどーによってたのまりものしたにかくされたまりもがひょーにでることがあり、これによってぐんせいちぜんたいのかくこたいがこーごーせいをおこなえている。	NO_LABEL
阿寒湖のマリモは強風による波浪により揺すられ球状になる。	あかんこのまりもわきょーふーによるはろーによりゆすられきゅーじょーになる。	NO_LABEL
30cmほどのサイズまで生長するとより波の影響を受けやすくなり、嵐などによる強風によって湖岸に打ち上げられる。	さんじゅうせんちめーとるほどのさいずまでせいちょーするとよりなみのえいきょーをうけやすくなり、あらしなどによるきょーふーによってこがんにうちあげられる。	NO_LABEL
従来、打ち上げられる事はマリモの生長にマイナスだと考えられていたが、打ち上げられたマリモはバラバラになり、その破片をもとにまた球状マリモへと生長することが分かった。	じゅーらい、うちあげられることわまりものせいちょーにまいなすだとかんがえられていたが、うちあげられたまりもわばらばらになり、そのはへんをもとにまたきゅーじょーまりもえとせいちょーすることがわかった。	NO_LABEL
打ち上げられる事自体はマリモにとって数を増やすために必要なことであった。	うちあげられることじたいわまりもにとってかずをふやすためにひつよーなことであった。	NO_LABEL
記載当初マリモ属 "Aegagropila"に分類されたが、その後シオグサ属 "Cladophora"に分類される。	NO_PRONOUNCE	NO_LABEL
1990年代以降、分子生物学的なアプローチによりシオグサ属とは異なることがわかり、再びマリモ属に戻った。	せんきゅうひゃくきゅうじゅうねんだいいこー、ぶんしせいぶつがくてきなあぷろーちによりしおぐさぞくとわことなることがわかり、ふたたびまりもぞくにもどった。	NO_LABEL
またチシママリモ、フトヒメマリモ、カラフトマリモ、トロマリモ、フジマリモ等の近縁種があるとされていたが、これも分子生物学的な手法を用い解析した結果、すべてマリモと同じ種であることが確認された。	またちしままりも、ふとひめまりも、からふとまりも、とろまりも、ふじまりもとーのきんえんしゅがあるとされていたが、これもぶんしせいぶつがくてきなしゅほーをよういかいせきしたけっか、すべてまりもとおなじたねであることがかくにんされた。	NO_LABEL
なお近縁種に富山県で発見され、北海道から九州まで全国で確認されているタテヤママリモという種がいる。	なおきんえんしゅにとやまけんではっけんされ、ほっかいどーからきゅーしゅーまでぜんこくでかくにんされているたてやままりもとゆうたねがいる。	NO_LABEL
観光地などで「養殖マリモ」の名で販売されているものは、地元漁協が釧路湿原国立公園内のシラルトロ湖で採取したマリモ糸状体を人工的に丸めただけのものであり、実際には「養殖」し増やしたものではない。	NO_PRONOUNCE	NO_LABEL
材料を採取しているシラルトロ湖ではこのマリモの販売のため、マリモが減少し、絶滅の危機に瀕している。	ざいりょーをさいしゅしているしらるとろこでわこのまりものはんばいのため、まりもがげんしょーし、ぜつめつのききにひんしている。	NO_LABEL
また、販売されているマリモは天然のマリモに比べて形が壊れやすいと言われている。	また、はんばいされているまりもわてんねんのまりもにくらべてかたちがこわれやすいといわれている。	NO_LABEL
一方で、札幌で土産物産や養殖マリモの製造・販売を行っているマルシャンは、「マリモの枯渇を予測し、10数年に渡る研究の結果養殖に成功した」とし、この養殖されたマリモは商品化できるようになったと企業サイト内で述べている。	NO_PRONOUNCE	NO_LABEL
また、富士五湖周辺で「富士まりも」などの商品名で販売されている養殖マリモも、実際には上記のシラルトロ湖のマリモを丸めたものであり、富士五湖に生息する「フジマリモ」ではない。	NO_PRONOUNCE	NO_LABEL
「天然まりも」と称している商品は当然阿寒湖のマリモではなく、ロシアなど海外から輸入されたものである。	NO_PRONOUNCE	NO_LABEL
