サビだけ.comは2005年から2006年にかけて開催されたスターダストプロモーション、オリコン共催の楽曲オーディション。	さびだけこむわにせんごねんからにせんろくねんにかけてかいさいされたすたーだすとぷろもーしょん、おりこんきょーさいのがっきょくおーでぃしょん。	NO_LABEL
<br>	NO_PRONOUNCE	NO_LABEL
応募者はブログ上に自身の楽曲をアップロードして、審査員が視聴する。	おーぼしゃわぶろぐじょーにじしんのがっきょくをあっぷろーどして、しんさいんがしちょーする。	NO_LABEL
各エントリー曲は一般に公開され、応募者ブログの閲覧者からの評価も審査の対象となった。	かくえんとりーきょくわいっぱんにこーかいされ、おーぼしゃぶろぐのえつらんしゃからのひょーかもしんさのたいしょーとなった。	NO_LABEL
