上郡町立上郡中学校は、兵庫県赤穂郡上郡町にある公立中学校。	かみごーりちょーりつかみごーりちゅうがっこーわ、ひょーごけんあこーぐんかみごーりちょーにあるこーりつちゅーがっこー。	NO_LABEL
上郡町立としては、町内で唯一の中学校である。	かみごーりちょーりつとしてわ、ちょーないでゆいいつのちゅーがっこーである。	NO_LABEL
「感謝・感動・一体感　～挨拶が飛び交い、瞳がかがやく、爽やかな上中生の育成～」	NO_PRONOUNCE	NO_LABEL
校訓は下記の通り。	こーくんわかきのとーり。	NO_LABEL
上郡町全域。	かみごーりちょーぜんいき。	NO_LABEL
