高島 卓久馬は、2018年現在トップチャレンジリーグ近鉄ライナーズに所属するラグビー選手。	たかしまたくひさばわ、にせんじゅうはちねんげんざいとっぷちゃれんじりーぐきんてつらいなーずにしょぞくするらぐびーせんしゅ。	NO_LABEL
2007年、明石清水高校卒業後、日本体育大学に入学する。	にせんななねん、あかししみずこーこーそつぎょーご、にほんたいいくだいがくににゅーがくする。	NO_LABEL
2010年、日本体育大学ラグビー部の主将に就任した。	にせんじゅうねん、にっぽんたいいくだいがくらぐびーぶのしゅしょーにしゅーにんした。	NO_LABEL
2011年、日本体育大学卒業後、福岡サニックスに加入。	にせんじゅういちねん、にほんたいいくだいがくそつぎょーご、ふくおかさにっくすにかにゅー。	NO_LABEL
2012年1月29日に行われたジャパンラグビートップリーグ第12節のサントリーサンゴリアス戦に途中出場で公式戦初出場を果たす。	にせんじゅうにねんいちがつにじゅうきゅうにちにおこなわれたじゃぱんらぐびーとっぷりーぐだいじゅうにせつのさんとりーさんごりあすせんにとちゅーしゅつじょーでこーしきせんはつしゅつじょーをはたす。	NO_LABEL
2017年、近鉄ライナーズに加入。	にせんじゅうななねん、きんてつらいなーずにかにゅー。	NO_LABEL
