禿夢は、日本のヴィジュアル系エア・バンド。	NO_PRONOUNCE	NO_LABEL
松竹芸能に所属するエアドラマー・ヨシユキを中心に結成された、"ブジュアル系"を提唱するパフォーマンス・ユニット。	NO_PRONOUNCE	NO_LABEL
2012年8月に発足した、ヨシユキ率いるヴィジュアル系エア・バンド。	NO_PRONOUNCE	NO_LABEL
ブサイクとヴィジュアル系を融合させた"ブジュアル系"スタイルを提唱している。	NO_PRONOUNCE	NO_LABEL
バンド名の由来は、ロックバンド『黒夢』から。	NO_PRONOUNCE	NO_LABEL
元々は、濱口優が主催する「はまぐちコントサークル」内のエア・バンド企画だった。	NO_PRONOUNCE	NO_LABEL
それがサークルメンバーの間で意気投合していき、本格的なエア・バンドの活動に発展した。	NO_PRONOUNCE	NO_LABEL
2013年11月の単独ライブ開催から、新宿角座を拠点に有料のライブ活動を開始。	にせんじゅうさんねんじゅーいちがつのたんどくらいぶかいさいから、しんじゅくかどざをきょてんにゆーりょーのらいぶかつどーをかいし。	NO_LABEL
自主制作ながらもミュージック・ビデオや、オリジナル曲によるミニアルバム等のリリースも重ね、実際にプロ活動を展開している。	じしゅせいさくながらもみゅーじっくびでおや、おりじなるきょくによるみにあるばむとーのりりーすもかさね、じっさいにぷろかつどーをてんかいしている。	NO_LABEL
また、内輪だけに止どまらず、メディアの出演や外部イベントにも数多く参加している。	また、うちわだけにとめどまらず、めでぃあのしゅつえんやがいぶいべんとにもかずおーくさんかしている。	NO_LABEL
結成の発起人は、エア・ドラムス担当のヤス。	NO_PRONOUNCE	NO_LABEL
プロデューサーは、リーダーのヨシユキ。	ぷろでゅーさーわ、りーだーのよしゆき。	NO_LABEL
幾度かメンバーの変遷を経ている。	いくどかめんばーのへんせんをへている。	NO_LABEL
自主制作のミニアルバム等を、コンスタントにリリースしている。	じしゅせいさくのみにあるばむとーを、こんすたんとにりりーすしている。	NO_LABEL
シンプルな連番タイトルが特徴で、ライブ会場で限定販売している。	しんぷるなれんばんたいとるがとくちょーで、らいぶかいじょーでげんていはんばいしている。	NO_LABEL
楽曲の制作は主に、松竹芸能に所属している女性タレント"☆ぴょんぴょん☆"が協力しており、リーダー・ヨシユキと作詞を共作する場合もある。	NO_PRONOUNCE	NO_LABEL
また、ギタリストの咲人やTakashiなど、プロミュージシャンからの提供曲もある。	また、ぎたりすとのさきとやたかしなど、ぷろみゅーじしゃんからのていきょーきょくもある。	NO_LABEL
「代表曲」	NO_PRONOUNCE	NO_LABEL
パフォーマンスは全編エアだが、ボーカルだけは生歌で披露する場合もある。	ぱふぉーまんすわぜんぺんえあだが、ぼーかるだけわなまうたでひろーするばあいもある。	NO_LABEL
オーディエンス達を指す呼称は、"ハゲコ・ハゲオ"。	NO_PRONOUNCE	NO_LABEL
＜ワンマンライブ＞	NO_PRONOUNCE	NO_LABEL
