フリードリヒ・ヴィルヘルム・アレクサンダー・フォン・ヴュルテンベルクは、ヴュルテンベルク王国の王族。	NO_PRONOUNCE	NO_LABEL
ヴュルテンベルク公アレクサンダーとその妻でザクセン＝コーブルク＝ザールフェルト公フランツの娘であるアントイネッテの次男、実質的な長男。	NO_PRONOUNCE	NO_LABEL
アレクサンダーは同名の父と同様にロシア軍に出仕し、1828年にはオスマン帝国への出兵に従軍し、1831年にはポーランドで起きた11月蜂起の鎮圧軍に参加した。	あれくさんだーわどーめいのちちとどーよーにろしあぐんにしゅっしし、せんはっぴゃくにじゅうはちねんにわおすまんていこくえのしゅっぺいにじゅーぐんし、せんはっぴゃくさんじゅういちねんにわぽーらんどでおきたかでっとれぼりゅーしょんのちんあつぐんにさんかした。	NO_LABEL
1837年10月17日、アレクサンダーはフランス王ルイ・フィリップの娘マリー・ドルレアンと結婚し、1838年に一人息子フィリップをもうけた。	せんはっぴゃくさんじゅうななねんじゅーがつじゅうしちにち、あれくさんだーわふらんすおーるいふぃりっぷのむすめまりーどるれあんとけっこんし、せんはっぴゃくさんじゅうはちねんにひとりむすこふぃりっぷをもーけた。	NO_LABEL
アレクサンダーの直系子孫はヴュルテンベルク家のカトリック分家となった。	NO_PRONOUNCE	NO_LABEL
1839年に妻マリーが急逝すると、アレクサンダーは夏をバイロイトのファンタイズィー宮殿で過ごし、冬をそこから5キロ離れた屋敷で過ごす生活を始めた。	NO_PRONOUNCE	NO_LABEL
1868年6月11日、アレクサンダーは自分の屋敷の家政責任者であるカタリーネ・アマーリエ・フェーニヒカウファーと貴賤結婚をし、カタリーネはマイエルンベルク男爵夫人の称号を与えられた。	NO_PRONOUNCE	NO_LABEL
しかしこの再婚は息子のフィリップには強く反対された。	しかしこのさいこんわむすこのふぃりっぷにわつよくはんたいされた。	NO_LABEL
