瓦斯電一型練習機は、日本の東京瓦斯電気工業が試作した基本練習機。	がすでんいちがたれんしゅーきわ、にっぽんのとーきょーがすでんきこうぎょーがしさくしたきほんれんしゅーき。	NO_LABEL
本項では準同型機である瓦斯電二型練習機および瓦斯電三型練習機についても述べる。	ほんこーでわじゅんどーけいきであるがすでんにがたれんしゅーきおよびがすでんさんがたれんしゅーきについてものべる。	NO_LABEL
1936年、瓦斯電大森工場は自発的に新構想の練習機の設計を行った。	せんきゅうひゃくさんじゅうろくね、がすでんおーもりこーじょーわじはつてきにしんこーそーのれんしゅーきのせっけいをおこなった。	NO_LABEL
この機体は、エンジンと降着装置を当時瓦斯電が生産していたKR-2小型旅客機と共通化しており、同型の機体に3種類の主翼を装着することによって、1機種を基本練習機・中間練習機・高等練習機のすべてとして使用可能にするという新機軸が盛り込まれていた。	NO_PRONOUNCE	NO_LABEL
機体は鋼管溶接骨組および木製骨組に羽布張りの複座機で、降着装置は固定脚。	きたいわこーかんよーせつほねぐみおよびもくせいほねぐみにはぶばりのふくざきで、こーちゃくそーちわこていあし。	NO_LABEL
基本練習機である一型は上翼をガル翼とした同スパン複葉、中間練習機の二型は一葉半、高等練習機の三型は高翼単葉の主翼を持つ。	きほんれんしゅーきであるいちがたわうえつばさをがるよくとしたどーすぱんふくよー、ちゅーかんれんしゅーきのにがたわいちよーはん、こーとーれんしゅーきのさんがたわこーよくたんよーのしゅよくをもつ。	NO_LABEL
二型主翼の補助翼は当初はエルロン・フラップだったが、のちに通常の形式のものに変更された。	NO_PRONOUNCE	NO_LABEL
胴体・エンジン・尾翼・降着装置などは各型共通だが、胴体を単座仕様に改装することも可能だった。	NO_PRONOUNCE	NO_LABEL
1937年4月、一型仕様の試作一号機が完成し、従来の初等練習機を大きく上回る高速を発揮した。	せんきゅうひゃくさんじゅうななねしがつ、いちがたしよーのしさくいちごーきがかんせいし、じゅーらいのしょとーれんしゅーきをおーきくうわまわるこーそくをはっきした。	NO_LABEL
同機は日本海軍による審査を受けたが、審査結果は発表されず制式採用もなされていない。	どーきわにっぽんかいぐんによるしんさをうけたが、しんさけっかわはっぴょーされずせいしきさいよーもなされていない。	NO_LABEL
その後、瓦斯電航空機部門の日立製作所との継承合併による日立航空機への再編を受け、1940年春に公表された二型仕様の二号機の名称は「日立式二型練習機」となった。	NO_PRONOUNCE	NO_LABEL
この機体は民間向けのスポーツ機として宣伝が行われたが、量産されることはなく開発は中止された。	このきたいわみんかんむけのすぽーつきとしてせんでんがおこなわれたが、りょーさんされることわなくかいはつわちゅーしされた。	NO_LABEL
そのため、三型仕様の機体は製作されていない。	そのため、さんがたしよーのきたいわせいさくされていない。	NO_LABEL
