『新鮮!発見!かごしま農業王国』は、2014年3月29日まで鹿児島放送で放送されていた教養番組。	NO_PRONOUNCE	NO_LABEL
2008年4月5日以降の放送時間は毎週土曜 9:30 - 9:45。	NO_PRONOUNCE	NO_LABEL
鹿児島県の特産品となっている野菜・果物・畜産物と、それらの栽培農家・畜産農家を紹介していた番組で、特産品を使った料理のレシピも紹介していた。	NO_PRONOUNCE	NO_LABEL
2014年4月5日からは同時間帯に後継番組『MOGU MOGU ふぁーむ -幸せうまかごはん-』が放送されている。	NO_PRONOUNCE	NO_LABEL
