BMW・K75は、1985年から1996年まで生産されたBMW社製のオートバイである。	NO_PRONOUNCE	NO_LABEL
1983年から販売されたK100の4気筒エンジンを、3気筒に置き換えた排気量740ccのオートバイ。	NO_PRONOUNCE	NO_LABEL
それまで、空冷水平対向2気筒のRシリーズ一本槍できたBMWにとって、新企画のK100につづく水冷縦置きエンジンのKシリーズ第2弾。	NO_PRONOUNCE	NO_LABEL
Kシリーズは、今日も販売されているが、K75の販売終了以降、BMWは3気筒エンジン車を販売することはなかった。	NO_PRONOUNCE	NO_LABEL
