『クオーレ』（）は、イタリア王国のエドモンド・デ・アミーチスによって1886年に書かれた小説。	NO_PRONOUNCE	NO_LABEL
『クオレ』とも。	NO_PRONOUNCE	NO_LABEL
アミーチスの代表作で日本では『世界名作劇場』シリーズのアニメ『母をたずねて三千里』の原作として知られるようになった。	NO_PRONOUNCE	NO_LABEL
またそれ以外に『愛の学校クオレ物語』としてもアニメ化されたことがある。	NO_PRONOUNCE	NO_LABEL
1861年に成立した統一イタリアで書かれた本で、子供向けに愛国心を説くための本として広く読まれた。	せんはっぴゃくろくじゅういちねんにせいりつしたとーいついたりあでかかれたほんで、こどもむけにあいこくしんをとくためのほんとしてひろくよまれた。	NO_LABEL
小学3年10歳のエンリーコ少年が新学期の10月から翌年7月までの学校での1学年を過ごした日記が書かれている。	NO_PRONOUNCE	NO_LABEL
舞台となるこの小学校はトリノにある。	ぶたいとなるこのしょーがっこーわとりのにある。	NO_LABEL
「先生のお話」として、各月にパドヴァ、フィレンツェ、ジェノヴァなどの少年の物語が挿入されている。	NO_PRONOUNCE	NO_LABEL
その中の一つ、5月のは日本語で「母を尋ねて三千里」などの題名で独立した物語としても愛読される。	NO_PRONOUNCE	NO_LABEL
翻訳によっては「毎月のお話」とも。	NO_PRONOUNCE	NO_LABEL
多くの場合、講話日の少し前には、各月ごとの交替で生徒に内容を清書させている。	おーくのばあい、こーわびのすこしまえにわ、かくつきごとのこーたいでせいとにないよーをせいしょさせている。	NO_LABEL
