チャリティー()とは、慈愛・博愛・同胞愛または慈善の精神に基づいて行われる公益的な活動・行為もしくはそれを行う組織のこと。	NO_PRONOUNCE	NO_LABEL
世界各地でチャリティーの活動・組織が見られ、それらの多くは宗教的な背景を持つ。	NO_PRONOUNCE	NO_LABEL
チャリティーはしばしば身体障害者や高齢者などに対する社会福祉、貧困地域の飢餓救済、紛争地域の難民救済、または災害・事故などの犠牲者や遺族に対する支援活動などといった形態をとるが、本来的には以上の活動にとどまらず、社会に対する貢献全般がチャリティーであると言える。	NO_PRONOUNCE	NO_LABEL
また、チャリティーに係る費用は寄付・寄進によって支弁されることが多い。	NO_PRONOUNCE	NO_LABEL
世界各地で普遍的に存在するチャリティーだが、その起源には地域によって差異が見られる。	せかいかくちでふへんてきにそんざいするちゃりてぃーだが、そのきげんにわちいきによってさいがみられる。	NO_LABEL
農耕の発達などに伴って文明が成長していくと、富の集中化が発生し社会内部に格差が生じるようになった。	のーこーのはったつなどにともなってぶんめいがせいちょーしていくと、とみのしゅーちゅーかがはっせいししゃかいないぶにかくさがしょーじるよーになった。	NO_LABEL
社会内部の格差を緩和するため、一方では宗教が生まれ、一方では富の再分配が行われた。	しゃかいないぶのかくさをかんわするため、いっぽーでわしゅーきょーがうまれ、いっぽーでわとみのさいぶんぱいがおこなわれた。	NO_LABEL
多くの文明では、両者は密接な関係を構築していき、富の再分配が宗教的な意味合いを与えられるようになった。	おーくのぶんめいでわ、りょーしゃわみっせつなかんけいをこーちくしていき、とみのさいぶんぱいがしゅーきょーてきないみあいをあたえられるよーになった。	NO_LABEL
その一例がインドで生まれた喜捨であり、喜捨は仏教とともに東南アジアおよび中国・日本などへもたらされた。	NO_PRONOUNCE	NO_LABEL
イスラーム社会でも神の教えに従って、ザカート・サダカと称される喜捨がムスリムの重要な行為に位置づけられている。	NO_PRONOUNCE	NO_LABEL
キリスト教が伝来する以前のヨーロッパ氏族社会においても、貧困者や病人に対する扶助行為があったと考えられているが、これら弱者はあくまで社会の中の劣位者とされていた。	きりすときょーがでんらいするいぜんのよーろっぱしぞくしゃかいにおいても、ひんこんしゃやびょーにんにたいするふじょこーいがあったとかんがえられているが、これらじゃくしゃわあくまでしゃかいのなかのれついしゃとされていた。	NO_LABEL
しかし、貧者に積極的な意味を見出し、隣人として救済することを教義の一つとするキリスト教がヨーロッパに登場すると、チャリティー活動とキリスト教精神とが結合し、教会を中心として積極的なチャリティー活動が行われるようになった。	しかし、ひんじゃにせっきょくてきないみをみいだし、りんじんとしてきゅーさいすることをきょーぎのひとつとするきりすときょーがよーろっぱにとーじょーすると、ちゃりてぃーかつどーときりすときょーせいしんとがけつごーし、きょーかいをちゅーしんとしてせっきょくてきなちゃりてぃーかつどーがおこなわれるよーになった。	NO_LABEL
しかし、教会によるチャリティー活動も修道僧の霊的救済という側面が非常に強く、チャリティーを受ける貧困者の立場に立ったものとはいえず、チャリティーとしての限界があった。	しかし、きょーかいによるちゃりてぃーかつどーもしゅーどーそーのれいてききゅーさいとゆうそくめんがひじょーにつよく、ちゃりてぃーをうけるひんこんしゃのたちばにたったものとわいえず、ちゃりてぃーとしてのげんかいがあった。	NO_LABEL
中世ヨーロッパ期には、都市で成長した商工業者によるギルドがフラタニティを結成し、教会と並んでチャリティー活動を展開した。	ちゅーせいよーろっぱきにわ、としでせいちょーしたしょーこーぎょーしゃによるぎるどがふらたにてぃをけっせいし、きょーかいとならんでちゃりてぃーかつどーをてんかいした。	NO_LABEL
近代ヨーロッパ期になると、市民社会の成長とともにチャリティーとキリスト教的背景との分離が進む。	きんだいよーろっぱきになると、しみんしゃかいのせいちょーとともにちゃりてぃーときりすときょーてきはいけいとのぶんりがすすむ。	NO_LABEL
スイスの宗教改革者たちの意見によれば、ローマ教会の「むやみやたらに施しを与えるという見せかけの慈善を認めていた」ことに対抗するために「真のキリスト教徒は勤勉と倹約の徳を」と強く主張しなければならなかった背景があったという。	NO_PRONOUNCE	NO_LABEL
さらに産業革命期に入った後は、産業界の成功者らによるチャリティー活動が盛んになった。	さらにさんぎょーかくめいきにはいったのちわ、さんぎょーかいのせいこーしゃらによるちゃりてぃーかつどーがさかんになった。	NO_LABEL
この時期のチャリティーは宗教的な色彩を薄めており、チャリティーの世俗化とも言われるが、実業家らは多分に自己満足としてチャリティーを実施しているところがあった。	このじきのちゃりてぃーわしゅーきょーてきなしきさいをうすめており、ちゃりてぃーのせぞくかともいわれるが、じつぎょーからわたぶんにじこまんぞくとしてちゃりてぃーをじっししているところがあった。	NO_LABEL
そのため、彼らのチャリティーは個人的な活動であると言え、決して計画的・組織的なものではないという限界があった。	NO_PRONOUNCE	NO_LABEL
イギリスでは17世紀の終わりごろから自発的な諸個人によって組織されたチャリティー団体が出現しはじめ、慈善はイギリスの国民性と言われるほどの盛り上がりをみせた。	いぎりすでわじゅうしちせいきのおわりごろからじはつてきなしょこじんによってそしきされたちゃりてぃーだんたいがしゅつげんしはじめ、じぜんわいぎりすのこくみんせいといわれるほどのもりあがりをみせた。	NO_LABEL
19世紀以前のイギリスでは慈善活動は女性が公的に社会活動できる数少ない場であり、多くのチャリティー団体では女性が極めて重要な役割を果たした。	じゅうきゅうせいきいぜんのいぎりすでわじぜんかつどーわじょせいがこーてきにしゃかいかつどーできるかずすくないばであり、おーくのちゃりてぃーだんたいでわじょせいがきわめてじゅーよーなやくわりをはたした。	NO_LABEL
チャリティー団体は大英帝国の拡大とともに世界各地に創設されていった。	ちゃりてぃーだんたいわだいえいていこくのかくだいとともにせかいかくちにそーせつされていった。	NO_LABEL
これら団体は組織的かつ計画的なチャリティー活動を実施し、チャリティーにあらたな局面をもたらした。	これらだんたいわそしきてきかつけいかくてきなちゃりてぃーかつどーをじっしし、ちゃりてぃーにあらたなきょくめんをもたらした。	NO_LABEL
また、その一方では、政府による社会福祉が次第に充実していき、チャリティーの組織化が民公両面で進んでいったのである。	また、そのいっぽーでわ、せいふによるしゃかいふくしがしだいにじゅーじつしていき、ちゃりてぃーのそしきかがみんおーやけりょーめんですすんでいったのである。	NO_LABEL
20世紀に入ると公的な社会福祉が高度に整備されたため、民間のチャリティーは相対的に傍系へと置かれるようになった。	にじっせいきにはいるとこーてきなしゃかいふくしがこーどにせいびされたため、みんかんのちゃりてぃーわそーたいてきにぼーけいえとおかれるよーになった。	NO_LABEL
しかし、民間チャリティーは公的社会福祉ではカバーできない分野を担っており、特にイギリスやアメリカでは社会の中で大きな役割を果たし続けている。	しかし、みんかんちゃりてぃーわこーてきしゃかいふくしでわかばーできないぶんやをになっており、とくにいぎりすやあめりかでわしゃかいのなかでおーきなやくわりをはたしつずけている。	NO_LABEL
仏教の伝来の後、飛鳥時代の頃に王族を中心として慈善的な活動が行われたとする伝説があるが、本格的な活動は奈良時代の行基からと考えられている。	ぶっきょーのでんらいののち、あすかじだいのころにおーぞくをちゅーしんとしてじぜんてきなかつどーがおこなわれたとするでんせつがあるが、ほんかくてきなかつどーわならじだいのぎょーきからとかんがえられている。	NO_LABEL
行基は道路や橋といった交通施設や池・用水といった農業施設の建設など公益的な活動に携わった。	NO_PRONOUNCE	NO_LABEL
平安時代前期には、上流貴族が諸国で貧民救済政策をとる事例が比較的多く見られる。	へいあんじだいぜんきにわ、じょーりゅーきぞくがしょこくでひんみんきゅーさいせいさくをとるじれいがひかくてきおーくみられる。	NO_LABEL
この時期の上流貴族の間では、儒教の精神に基づいて仁政を布くことが理想とされていたためである。	このじきのじょーりゅーきぞくのまでわ、じゅきょーのせいしんにもとずいてじんせいをしくことがりそーとされていたためである。	NO_LABEL
日本のチャリティー史上で特筆すべきは、鎌倉時代中期-後期の叡尊と忍性、そして室町時代中期の願阿弥である。	NO_PRONOUNCE	NO_LABEL
西大寺の僧であった叡尊は、当時賤視されつつあった非人の救済に生涯にわたって尽力した。	NO_PRONOUNCE	NO_LABEL
忍性は社会から疎外されたハンセン病患者の救済に当たり、また医療施設を鎌倉極楽坂に設置して多くの病人の看護に努めた。	にんしょーわしゃかいからそがいされたはんせんびょーかんじゃのきゅーさいにあたり、またいりょーしせつをかまくらごくらくざかにせっちしておーくのびょーにんのかんごにつとめた。	NO_LABEL
室町中期に勧進聖として活躍した時宗僧の願阿弥は、応仁の乱前後に大飢饉が日本全国を襲った際、室町将軍足利義政の意を受け、京都を拠点として積極的な窮民救済活動を展開した。	むろまちちゅーきにかんじんひじりとしてかつやくしたじしゅーそーのがんあみわ、おーにんのらんぜんごにだいききんがにっぽんぜんこくをおそったさい、むろまちしょーぐんあしかがよしまさのいをうけ、きょーとをきょてんとしてせっきょくてきなきゅーみんきゅーさいかつどーをてんかいした。	NO_LABEL
これら諸僧の他にも、社会福祉事業に大なり小なり尽力する仏教僧が中世日本には多数存在したが、反対に言えば当時の社会矛盾が大きかったことの表れでもあった。	これらしょそーのほかにも、しゃかいふくしじぎょーにだいなりしょーなりじんりょくするぶっきょーそーがちゅーせいにほんにわたすーそんざいしたが、はんたいにいえばとーじのしゃかいむじゅんがおーきかったことのあらわれでもあった。	NO_LABEL
明治時代になると、西洋からチャリティー精神が紹介され、キリスト教徒や実業家らによる、西洋流のチャリティーが展開していった。	めいじじだいになると、せいよーからちゃりてぃーせいしんがしょーかいされ、きりすときょーとやじつぎょーからによる、せいよーりゅーのちゃりてぃーがてんかいしていった。	NO_LABEL
その後、財界においてチャリティー活動が活発化し、第二次世界大戦前までは、皇室と財閥が中心となって、日本のチャリティー活動を牽引した。	そのご、ざいかいにおいてちゃりてぃーかつどーがかっぱつかし、だいにじせかいたいせんまえまでわ、こーしつとざいばつがちゅーしんとなって、にっぽんのちゃりてぃーかつどーをけんいんした。	NO_LABEL
戦後は日本国政府が福祉国家政策を推進し、チャリティー活動の相対的地位は低下した。	せんごわにっぽんこくせいふがふくしこっかせいさくをすいしんし、ちゃりてぃーかつどーのそーたいてきちいわていかした。	NO_LABEL
第二次世界大戦後の日本で行われている主なチャリティー活動には、歳末たすけあい運動・海外たすけあい運動、赤い羽根共同募金、あしなが育英会、チャリティーショー・チャリティーコンサート、救世軍の「社会鍋」、大規模災害発生時の日本赤十字社や地方公共団体、マスコミ傘下の社会福祉事業団・基金など公的組織による募金受付、インターネットを通じて行うクリック募金などがある。	NO_PRONOUNCE	NO_LABEL
イギリスの Charities Aid Foundationは2010年より毎年、世界寄付指数（）を発表している。	NO_PRONOUNCE	NO_LABEL
テレビ・ラジオなどマスコミによるチャリティー活動も行われている。	NO_PRONOUNCE	NO_LABEL
