京阪バス枚方営業所は、大阪府枚方市にある京阪バスの営業所である。	けいはんばすひらかたえいぎょーしょわ、おーさかふひらかたしにあるけいはんばすのえいぎょーしょである。	NO_LABEL
京阪グループ共通バスカードで印字される略称は「ヒラ」、社用車に記してある略称は「枚」である。	NO_PRONOUNCE	NO_LABEL
2008年10月より管内でPiTaPaの利用が可能となった。	にせんはちねんじゅーがつよりかんないでぴたぱのりよーがかのーとなった。	NO_LABEL
敷地面積と最大収容台数は京阪バス中で最大であり、200台強が収容可能である。	NO_PRONOUNCE	NO_LABEL
所属車両台数も100台を超えておりこれも京阪バス中最大である。	NO_PRONOUNCE	NO_LABEL
対照的に営業エリアは枚方市東部と中部および北部の一部、八幡市、京田辺市の一部のみであり、それほど広くはない。	たいしょーてきにえいぎょーえりあわひらかたしとーぶとちゅーぶおよびほくぶのいちぶ、やわたし、きょーたなべしのいちぶのみであり、それほどひろくわない。	NO_LABEL
但し1985年に洛南営業所から宇治・久御山・淀地区の路線が枚方営業所に移管され、1996年までは京阪バスの営業所の中で最も管轄エリアが広かった。	NO_PRONOUNCE	NO_LABEL
なお、これらの路線は廃止された京阪淀 - 桂駅東口線を除き、1996年より再度洛南に戻され、後に分社化した京阪シティバスにより運行されていたが、2014年4月に京阪バスに返り咲いた。	NO_PRONOUNCE	NO_LABEL
ただし、当時と異なり再移管時は京田辺営業所が、2017年3月18日以降は男山営業所の管轄となっている。	ただし、とーじとことなりさいいかんじわきょーたなべえいぎょーしょが、にせんじゅうななねんさんがつじゅうはちにちいこーわおとこやまえいぎょーしょのかんかつとなっている。	NO_LABEL
なお、宇治淀線は淀→洛南→枚方→洛南→京阪シティバス→京都京阪バスと管轄が移り変わっている。	NO_PRONOUNCE	NO_LABEL
路線の管轄変更により、2007年に八幡地区から臨時バスを除き撤退し、2010年には久御山町のってこバスも移管された。	ろせんのかんかつへんこーにより、にせんななねんにやはたちくからりんじばすをのぞきてったいし、にせんじゅうねんにわくみやまちょーのってこばすもいかんされた。	NO_LABEL
2009年11月には枚方尊延寺線の一部を京田辺営業所に移管し、京都府内での枚方管轄路線は減少し、穂谷口 - 近鉄新田辺間からも撤退した。	NO_PRONOUNCE	NO_LABEL
逆にこれまで高槻営業所の独壇場であった枚方高槻線に2014年4月より進出した。	ぎゃくにこれまでたかつきえいぎょーしょのどくだんじょーであったひらかたたかつきせんににせんじゅうよねんしがつよりしんしゅつした。	NO_LABEL
京阪バスでは唯一、圧縮天然ガスを燃料とする低公害車であるノンステップバスを導入していた。	けいはんばすでわゆいいつ、あっしゅくてんねんがすをねんりょーとするていこーがいしゃであるのんすてっぷばすをどーにゅーしていた。	NO_LABEL
これには枚方市の補助金も出ていたバスがそれぞれ1台試験的に導入されていた時期もあった）。	NO_PRONOUNCE	NO_LABEL
しかし、2013年12月までに置き換えられてCNG車は全車廃車となった。	しかし、にせんじゅうさんねんじゅーにがつまでにおきかえられてしーえぬじーしゃわぜんしゃはいしゃとなった。	NO_LABEL
最寄りの停留所は「田ノ口」・「総合スポーツセンター」・「枚方車庫」である。	NO_PRONOUNCE	NO_LABEL
但し枚方車庫停留所は高速バスおよびダイレクトエクスプレス直Q京都号のみの発着である。	NO_PRONOUNCE	NO_LABEL
当営業所は、国道1号沿いに位置している。	とーえいぎょーしょわ、こくどーいちごーぞいにいちしている。	NO_LABEL
三菱ふそう車と日野車がほぼ同数で配備されているほか、いすゞ車も若干数配備されている。	みつびしふそーしゃとひのしゃがほぼどーすーではいびされているほか、いすずしゃもじゃっかんすーはいびされている。	NO_LABEL
なお運行上の区分けをされていない。	なおうんこーじょーのくわけをされていない。	NO_LABEL
中形長尺車および中型車は、一時期京阪シティバスに運行管理されている路線を担当していた。	ちゅーがたちょーしゃくしゃおよびちゅーがたしゃわ、いちじきけいはんしてぃばすにうんこーかんりされているろせんをたんとーしていた。	NO_LABEL
夜行高速車両も3台所属している。	NO_PRONOUNCE	NO_LABEL
その他小型車が数台ある。	そのたこがたしゃがすーだいある。	NO_LABEL
中型短尺車も1台あるが、門真のそれと同様予備車であり、通常は使用されない。	NO_PRONOUNCE	NO_LABEL
1990年代初頭より、枚方市の片町線沿線の藤阪東部地区に藤阪営業所を設置し、藤阪営業所に枚方営業所から枚方東部地区と京田辺市の一部の路線を移管する計画があった。	せんきゅうひゃくきゅうじゅうねんだいしょとーより、ひらかたしのかたまちせんえんせんのふじさかとーぶちくにふじさかえいぎょーしょをせっちし、ふじさかえいぎょーしょにひらかたえいぎょーしょからひらかたとーぶちくときょーたなべしのいちぶのろせんをいかんするけいかくがあった。	NO_LABEL
しかし、2006年4月1日に京阪宇治交通を合併し、男山営業所と京田辺営業所が自社の管理下となってからは計画が変更され、2008年5月10日の京田辺営業所の枚方市境付近への移転により、藤阪営業所よりやや遠方となるものの、新営業所を設置せずとも京田辺営業所の移管で代替する計画に変更したことから、藤阪営業所の計画は中止となった。	しかし、にせんろくねんしがつついたちにけいはんうじこうつーをがっぺいし、おとこやまえいぎょーしょときょーたなべえいぎょーしょがじしゃのかんりかとなってからわけいかくがへんこーされ、にせんはちねんごがつとおかのきょーたなべえいぎょーしょのひらかたしさかいふきんえのいてんにより、ふじさかえいぎょーしょよりややえんぽーとなるものの、しんえいぎょーしょをせっちせずともきょーたなべえいぎょーしょのいかんでだいたいするけいかくにへんこーしたことから、ふじさかえいぎょーしょのけいかくわちゅーしとなった。	NO_LABEL
このため、枚方東部地区の路線のうち、主に津田駅以東の路線は2009年11月より同停留所以西に直通の一部の便を含む大半の便が京田辺営業所に移管され、その後2010年9月には樟葉長尾線の大半も京田辺営業所に移管して対処している。	このため、ひらかたとーぶちくのろせんのうち、おもにつだえきいとーのろせんわにせんきゅうねんじゅーいちがつよりどーていりゅーじょいせいにちょくつーのいちぶのびんをふくむたいはんのびんがきょーたなべえいぎょーしょにいかんされ、そのごにせんじゅうねんくがつにわくずはちょーびせんのたいはんもきょーたなべえいぎょーしょにいかんしてたいしょしている。	NO_LABEL
なお、この内津田駅以東の路線の一つである津田サイエンスヒルズ線を2013年3月より交野市域に延長した際には、一部の便を交野営業所が管轄するようになったため、現在は同線に限り京田辺と交野との共管となっていたが、津田サイエンスヒルズ線は2018年4月1日より全便が交野営業所が管轄することとなったため、一般路線バスは交野市から撤退した。	なお、このうちつだえきいとーのろせんのひとつであるつださいえんすひるずせんをにせんじゅうさんねんさんがつよりかたのしいきにえんちょーしたさいにわ、いちぶのびんをかたのえいぎょーしょがかんかつするよーになったため、げんざいわどーせんにかぎりきょーたなべとかたのとのきょーかんとなっていたが、つださいえんすひるずせんわにせんじゅうはちねんしがつついたちよりぜんびんがかたのえいぎょーしょがかんかつすることとなったため、いっぱんろせんばすわかたのしからてったいした。	NO_LABEL
