『くやし涙』は、NHK「銀河ドラマ」枠で1970年3月9日から3月20日まで放送された連続テレビドラマである。	NO_PRONOUNCE	NO_LABEL
全10回の白黒作品である。	ぜんじゅっかいのしろくろさくひんである。	NO_LABEL
NHK大阪が制作した。	えぬえいちけいおーさかがせいさくした。	NO_LABEL
「銀河ドラマ」第23作目である。	NO_PRONOUNCE	NO_LABEL
昔の初恋の女性が忘れられず、その面影を求めて次々に巡り会う女性たちに心から尽くしては夢を踏みにじられる中年男の悲哀を、テレビに進出して間もない船越英二が演じるコメディドラマであった。	むかしのはつこいのじょせいがわすれられず、そのおもかげをもとめてつぎつぎにめぐりあうじょせいたちにこころからつくしてわゆめをふみにじられるなかとしおとこのひあいを、てれびにしんしゅつしてまもないふなこしえいじがえんじるこめでぃどらまであった。	NO_LABEL
大阪にある製薬会社課長の稲見は上司の親戚の娘淑子と結婚して十年、夫婦の間に波風は立たないが、子供もおらずやや倦怠期。	おーさかにあるせいやくがいしゃかちょーのいなみわじょーしのしんせきのむすめとしことけっこんしてじゅーねん、ふーふのまになみかぜわたたないが、こどももおらずややけんたいき。	NO_LABEL
上の階の住人小林の騒音に悩まされ疲労気味のある日、小学校以来の親友宮下からある女性との仲立ちを頼まれた。	うえのかいのじゅーにんこばやしのそーおんになやまされひろーぎみのあるひ、しょーがっこーいらいのしんゆーみやげからあるじょせいとのなかだちをたのまれた。	NO_LABEL
その女性諒子が昔の恋人にそっくりで、しばらく忘れていた稲見の恋心に火がつく。	そのじょせいりょーこがむかしのこいびとにそっくりで、しばらくわすれていたいなみのこいごころにひがつく。	NO_LABEL
そんな時、旅行で訪れた鹿児島で知り合った若いホステスのユカと緑が大阪に現れたことで騒動が巻き起こる。	そんなとき、りょこーでおとずれたかごしまでしりあったわかいほすてすのゆかとみどりがおーさかにあらわれたことでそーどーがまきおこる。	NO_LABEL
