スティーブ・アームストロングは、アメリカ合衆国の元プロレスラー。	すてぃーぶあーむすとろんぐわ、あめりかがっしゅーこくのもとぷろれすらー。	NO_LABEL
ジョージア州マリエッタ出身。	じょーじあしゅーまりえったしゅっしん。	NO_LABEL
父親はWWE殿堂者のボブ・アームストロング。	ちちおやわだぶりゅーだぶりゅーいーでんどーしゃのぼぶあーむすとろんぐ。	NO_LABEL
WWEレフェリーのスコット・アームストロングと元WCWライトヘビー級王者のブラッド・アームストロングは兄、元WWF世界タッグ王者の "ロード・ドッグ" ジェシー・ジェームズことブライアン・アームストロングは弟である。	NO_PRONOUNCE	NO_LABEL
1983年、父のボブ・アームストロングが主戦場としていたアラバマのサウスイースタン・チャンピオンシップ・レスリングにてデビュー。	せんきゅうひゃくはちじゅうさんねん、ちちのぼぶあーむすとろんぐがしゅせんじょーとしていたあらばまのさうすいーすたんちゃんぴおんしっぷれすりんぐにてでびゅー。	NO_LABEL
トミー・リッチの従兄弟という設定のジョニー・リッチとのタッグチームで売り出され、1984年から1985年にかけてはジェリー・スタッブス&アーン・アンダーソンとNWAサウスイースタン・タッグ王座を争った。	NO_PRONOUNCE	NO_LABEL
1987年、トレイシー・スマザーズを新パートナーに、NWAのフロリダ地区でサザン・ボーイズを結成。	NO_PRONOUNCE	NO_LABEL
ベビーフェイスの若手コンビとして南部を主戦場に活躍し、1988年3月5日には古巣のアラバマにてロバート・フラー&ジミー・ゴールデンからNWAコンチネンタル・タッグ王座を奪取した。	NO_PRONOUNCE	NO_LABEL
同年7月には揃って新日本プロレスに初来日。	どーねんしちがつにわそろってしんにほんぷろれすにはつらいにち。	NO_LABEL
軽快な空中殺法とイキのいいファイトスタイルで好評を博し、再来日となる11月の『'88ジャパンカップ・シリーズ』ではジョージ高野を加えたトリオでエリミネーション方式の6人タッグ・リーグ戦に出場した。	NO_PRONOUNCE	NO_LABEL
1990年、ヤング・ピストルズのチーム名でWCWに参戦し、ミッドナイト・エクスプレスやファビュラス・フリーバーズと抗争。	NO_PRONOUNCE	NO_LABEL
1991年11月5日にはトッド・チャンピオン&チップ・ザ・ファイヤーブレーカーを破ってUSタッグ王座を獲得、翌1992年1月14日にロン・シモンズ&ビッグ・ジョッシュに敗れるまでタイトルを保持した。	NO_PRONOUNCE	NO_LABEL
スマザーズとのコンビ解散後、1992年9月よりカウボーイ・ギミックのランス・キャシディに変身してWWFに登場。	NO_PRONOUNCE	NO_LABEL
ハウス・ショーのミッドカードにおいて、テリー・テイラー、スキナー、リポマン、ザ・バーザーカー、アイアン・マイク・シャープなどの中堅ヒールから勝利を収めたが、翌1993年1月に短期間で離脱している。	NO_PRONOUNCE	NO_LABEL
WWF離脱後はジム・コルネットが主宰していたスモーキー・マウンテン・レスリングに参戦。	NO_PRONOUNCE	NO_LABEL
スコット・アームストロングとの兄弟タッグで活動し、1993年から1995年にかけて、ロックンロール・エクスプレス、ヘブンリー・ボディーズ、ブルーズ・ブラザーズ、ブライアン・リー&クリス・キャンディードなどのチームと抗争を展開した。	NO_PRONOUNCE	NO_LABEL
その間、1994年8月に覆面レスラーのザ・ファルコンとして全日本プロレスに来日。	そのかん、せんきゅうひゃくきゅうじゅうよねんはちがつにふくめんれすらーのざふぁるこんとしてぜんにほんぷろれすにらいにち。	NO_LABEL
ジ・イーグルとのマスクマン・コンビで活躍し、同年11月開幕の世界最強タッグ決定リーグ戦にも出場した。	NO_PRONOUNCE	NO_LABEL
全日本には1995年2月まで、ザ・ファルコンのギミックで通算4回参戦している。	ぜんにほんにわせんきゅうひゃくきゅうじゅうごねんにがつまで、ざふぁるこんのぎみっくでつーさんよんかいさんせんしている。	NO_LABEL
1996年からはスコットと共にWCWに移籍。	せんきゅうひゃくきゅうじゅうろくねんからわすこっととともにだぶるしーだぶりゅーにいせき。	NO_LABEL
ハーレム・ヒートやスタイナー・ブラザーズとも対戦したものの、選手層の厚かった当時のWCWではポジションを得られず、セミレギュラーの立場で2000年までジョバーを務めた。	はーれむひーとやすたいなーぶらざーずともたいせんしたものの、せんしゅそーのあつかったとーじのだぶるしーだぶりゅーでわぽじしょんをえられず、せみれぎゅらーのたちばでにせんねんまでじょばーをつとめた。	NO_LABEL
セミリタイア後の2002年8月28日にはTNAに登場、父ボブ・アームストロングの別キャラクターだった覆面レスラーのザ・バレットに扮し、ジェフ・ジャレットと対戦した。	せみりたいあごのにせんにねんはちがつにじゅうはちにちにわてぃーえぬえーにとーじょー、ちちぼぶあーむすとろんぐのべつきゃらくたーだったふくめんれすらーのざばれっとにふんし、じぇふじゃれっととたいせんした。	NO_LABEL
以降もアラバマのインディー団体に時折出場している。	いこーもあらばまのいんでぃーだんたいにときおりしゅつじょーしている。	NO_LABEL
