白男川 譲介1月 - 1951年）は、日本の内務・警察官僚、実業家。	NO_PRONOUNCE	NO_LABEL
官選県知事、鹿児島市長。	かんせんけんちじ、かごしましちょー。	NO_LABEL
旧姓・池田。	NO_PRONOUNCE	NO_LABEL
鹿児島県出身。	かごしまけんしゅっしん。	NO_LABEL
池田休兵衛の四男として生まれ、1885年、母方の白男川渉の養子となる。	いけだきゅーひょーえのよんおとことしてうまれ、せんはっぴゃくはちじゅうごねん、ははかたのしらおがわわたるのよーしとなる。	NO_LABEL
第三高等学校を卒業。	だいさんこーとーがっこーをそつぎょー。	NO_LABEL
1906年、京都帝国大学法科大学政治学科を卒業し、大阪市に入る。	せんきゅうひゃくろくねん、きょーとていこくだいがくほーかだいがくせいじがっかをそつぎょーし、おーさかしにはいる。	NO_LABEL
1909年12月、文官高等試験に合格。	せんきゅうひゃくきゅうねんじゅーにがつ、ぶんかんこーとーしけんにごーかく。	NO_LABEL
内務省に転じ沖縄県属となる。	ないむしょーにてんじおきなわけんぞくとなる。	NO_LABEL
以後、福井県三方郡長、富山県警察部長、新潟県警察部長、北海道庁土木部長、奈良県内務部長、京都府内務部長などを歴任。	いご、ふくいけんみかたぐんちょー、とやまけんけいさつぶちょー、にーがたけんけいさつぶちょー、ほっかいどーちょーどぼくぶちょー、ならけんないむぶちょー、きょーとふないむぶちょーなどをれきにん。	NO_LABEL
1921年5月、床次竹二郎内務大臣により起用され福井県知事に就任。	せんきゅうひゃくにじゅういちねんごがつ、とこなみたけじろーないむだいじんによりきよーされふくいけんちじにしゅーにん。	NO_LABEL
1924年6月、静岡県知事に転任したが、加藤高明内閣の成立により、同年7月、知事を休職となる。	せんきゅうひゃくにじゅうよねんろくがつ、しずおかけんちじにてんにんしたが、かとーたかあきないかくのせいりつにより、どーねんしちがつ、ちじをきゅーしょくとなる。	NO_LABEL
1926年から1928年まで鹿児島市長を務めた。	せんきゅうひゃくにじゅうろくねんからせんきゅうひゃくにじゅうはちねんまでかごしましちょーをつとめた。	NO_LABEL
その後、薩摩興業社長、草津硫黄鉱業監査役を務めた。	そのご、さつまこうぎょーしゃちょー、くさついおーこーぎょーかんさやくをつとめた。	NO_LABEL
