XERD!! ザードの伝説2 偽神の領域は、1993年2月19日にビック東海より発売されたゲームボーイ用のロールプレイングゲーム。	NO_PRONOUNCE	NO_LABEL
サードパーティー初の４メガビットＲＯＭを採用し、膨大なテキストと音楽、画像に割り当てている。	NO_PRONOUNCE	NO_LABEL
『ザードの伝説』の続編であり、前作よりも20年後の未来となっている。	NO_PRONOUNCE	NO_LABEL
今作では舞台となる惑星自体が異星人によって作られた人工惑星であることが明らかになっており、前作になかったSFテイストを追加している。	こんさくでわぶたいとなるわくせいじたいがいほしじんによってつくられたじんこーわくせいであることがあきらかになっており、ぜんさくになかったえすえふていすとをついかしている。	NO_LABEL
前作担当者が退社、続編製作に当たり、新担当がドラゴンクエストやファイナルファンタジー等のヒロイックファンタジーや光と影云々設定に辟易していた為、主人公が鎧などを纏ったりせずネクタイ姿で戦う設定、職業がサラリーマンだったり正義を持ち合わせたりしない普通の人物である事、中世でない世界等、当時では斬新な新機軸を作り出す事に力を注いでいる。	ぜんさくたんとーしゃがたいしゃ、ぞくへんせいさくにあたり、しんたんとーがどらごんくえすとやふぁいなるふぁんたじーとーのひろいっくふぁんたじーやひかりとかげうんぬんせっていにへきえきしていたため、しゅじんこーがよろいなどをまとったりせずねくたいすがたでたたかうせってい、しょくぎょーがさらりーまんだったりせいぎをもちあわせたりしないふつーのじんぶつであること、ちゅーせいでないせかいとー、とーじでわざんしんなしんきじくをつくりだすことにちからをそそいでいる。	NO_LABEL
移動方式等でロマンシングサガ等が引き合いに出されるが、上記の通り、エニックスやスクエアのゲームは全くプレイしていないので、参考にしたわけではなく、寧ろ、ジ・アトラスをイメージしていたとの事。	NO_PRONOUNCE	NO_LABEL
また、ゴウドのフォウスがあらんことを等のメッセージも、中世的背景からグインサーガの様なと言われるが、Ｅ・Ｅ・スミスのレンズマンのセリフを意識していたとの事である。	NO_PRONOUNCE	NO_LABEL
・コマンド選択式のRPG	NO_PRONOUNCE	NO_LABEL
十字キー対応のアイコンを選択、決定する方式。	じゅーじきーたいおーのあいこんをせんたく、けっていするほーしき。	NO_LABEL
・移動システムとキャンプ	NO_PRONOUNCE	NO_LABEL
ワールドマップ上で移動可能な場所を指定すると、町やダンジョンから次の場所の移動はオートで行われる。	わーるどまっぷじょーでいどーかのーなばしょをしていすると、まちやだんじょんからつぎのばしょのいどーわおーとでおこなわれる。	NO_LABEL
一定時間の移動によってフォウス・ポイントが減少する。	NO_PRONOUNCE	NO_LABEL
キャンプを張り、レーションを消費するとキャンプ中はフォウス・ポイントは回復する。	NO_PRONOUNCE	NO_LABEL
なお、キャンプ中にもエンカウントが発生する。	なお、きゃんぷちゅーにもえんかうんとがはっせいする。	NO_LABEL
キャンプを解除しても、回復速度は遅くなるが暫くの間はフォウス・ポイントは回復する。	NO_PRONOUNCE	NO_LABEL
キャンプ中に低確率であるが、ＮＰＣによる会話が発生することがある。	きゃんぷちゅーにていかくりつであるが、えぬぴーしーによるかいわがはっせいすることがある。	NO_LABEL
各ＮＰＣにまつわる話だったり、特徴的な会話が一つずつ用意されているが、あるＮＰＣ同士の組み合わせにだけ専用の会話がある。	かくえぬぴーしーにまつわるはなしだったり、とくちょーてきなかいわがひとつずつよーいされているが、あるえぬぴーしーどーしのくみあわせにだけせんよーのかいわがある。	NO_LABEL
組み合わせを仲間にするのも大変だが、会話モードにするのも大変なので、見たことがあるプレイヤーは稀と思われる。	くみあわせをなかまにするのもたいへんだが、かいわもーどにするのもたいへんなので、みたことがあるぷれいやーわまれとおもわれる。	NO_LABEL
また、ウルスとアニスによるまだクリアしてない必須イベントを話す事もある。	また、うるすとあにすによるまだくりあしてないひっすいべんとをはなすこともある。	NO_LABEL
指定された時間までに目的地を目指すイベントもある。	していされたじかんまでにもくてきちをめざすいべんともある。	NO_LABEL
エンカウントでモンスター以外に、商人やＮＰＣが出現することがある。	えんかうんとでもんすたーいがいに、しょーにんやえぬぴーしーがしゅつげんすることがある。	NO_LABEL
シティマップ上では、施設や人物を選択すればレスポンスが返るシステムとなっている。	してぃまっぷじょーでわ、しせつやじんぶつをせんたくすればれすぽんすがかえるしすてむとなっている。	NO_LABEL
・フォウス	NO_PRONOUNCE	NO_LABEL
生まれ持った能力と設定されており、いくら強くなっても新しいものは覚えられず、威力補正値も成長しない。	うまれもったのーりょくとせっていされており、いくらつよくなってもあたらしいものわおぼえられず、いりょくほせいちもせいちょーしない。	NO_LABEL
魔法防御力だけは成長する。	まほーぼーぎょりょくだけわせいちょーする。	NO_LABEL
フォウスはフォウス・ポイントを消費して使用し、威力レベルで現在のフォウス・ポイントに応じた割合分のフォウスを消費する。	NO_PRONOUNCE	NO_LABEL
消費量に応じて威力が上がる。	しょーひりょーにおーじていりょくがあがる。	NO_LABEL
使用できる威力レベルは各キャラクターによって決まっている。	しよーできるいりょくれべるわかくきゃらくたーによってきまっている。	NO_LABEL
・ステータス	NO_PRONOUNCE	NO_LABEL
フォウス・ポイントを除いて数値ではなく文章で表示される画期的なもの。	NO_PRONOUNCE	NO_LABEL
ウルスのステータスは本人評価だが、他のキャラクターはウルスとの相対評価をウルスが語る形となっている。	うるすのすてーたすわほんにんひょーかだが、たのきゃらくたーわうるすとのそーたいひょーかをうるすがかたるかたちとなっている。	NO_LABEL
・金とキバ、レーション	NO_PRONOUNCE	NO_LABEL
敵を倒すと換金するためのアイテム「キバ」が手に入るが、「キバ」の換金は暦による変動相場制である。	NO_PRONOUNCE	NO_LABEL
販売されるレーションも同様に変動相場制となっている。	はんばいされるれーしょんもどーよーにへんどーそーばせいとなっている。	NO_LABEL
・暦	NO_PRONOUNCE	NO_LABEL
このゲームは「日」を意味する「テイ」や「年」を意味する「ヤー」など、時間の単位や方角などがゲーム独自の用語で言い表されている。	NO_PRONOUNCE	NO_LABEL
漢字が使えないにもかかわらず難しい漢語ばかり選ばれるため、内容が分かりづらいと感じるプレイヤーもいる。	かんじがつかえないにもかかわらずむずかしいかんごばかりえらばれるため、ないよーがわかりずらいとかんじるぷれいやーもいる。	NO_LABEL
・戦闘	NO_PRONOUNCE	NO_LABEL
「逃げる」に相当するコマンドはないが、前進・後退のコマンドにより敵との座標を離すことで敵から事実上逃げることができる。	NO_PRONOUNCE	NO_LABEL
セレクトボタンでコマンドを変更でき、必殺技を選択出来る。	せれくとぼたんでこまんどをへんこーでき、ひっさつわざをせんたくできる。	NO_LABEL
必殺技は各キャラで決まっていて、必ず有効な技とは限らないものもある。	ひっさつわざわかくきゃらできまっていて、かならずゆーこーなわざとわかぎらないものもある。	NO_LABEL
必殺技は必殺ポイントと言うブラインドパラメーターで管理されていて、戦闘行動を行うたびに加算され、一定値を超えると発動可能となる。	ひっさつわざわひっさつぽいんとというぶらいんどぱらめーたーでかんりされていて、せんとーこーどーをおこなうたびにかさんされ、いっていちをこえるとはつどーかのーとなる。	NO_LABEL
・パーティー	NO_PRONOUNCE	NO_LABEL
主人公とヒロイン以外はNPCであり、任意で仲間に加えることができるが、仲間に加えることを拒否したりパーティがすでに4人いると二度と仲間にできなくなる。	しゅじんこーとひろいんいがいわえぬぴーしーであり、にんいでなかまにくわえることができるが、なかまにくわえることをきょひしたりぱーてぃがすでによにんいるとにどとなかまにできなくなる。	NO_LABEL
NPCは成長しない。	えぬぴーしーわせいちょーしない。	NO_LABEL
パーティー編入時にウルスを基準にフォウス・ポイントがランダムで設定される。	NO_PRONOUNCE	NO_LABEL
パーティーから外す場合、フォウス・ポイントを0にして戦闘を終了させる。	NO_PRONOUNCE	NO_LABEL
・モンスター	NO_PRONOUNCE	NO_LABEL
主人公のレベル上昇に応じて敵も強くなるため、育成しても冒険は楽にならない仕様となっている。	しゅじんこーのれべるじょーしょーにおーじててきもつよくなるため、いくせいしてもぼーけんわらくにならないしよーとなっている。	NO_LABEL
それでもウルスのレベルを中心に、強弱、同じレベルの３テーブルが設定されていて、それは戦闘の曲で判別できる。	それでもうるすのれべるをちゅーしんに、きょーじゃく、おなじれべるのさんてーぶるがせっていされていて、それわせんとーのきょくではんべつできる。	NO_LABEL
防具も無く、武器もキャラ毎に専用設定であったりして買い替えが出来ない等の特徴があるが、実際は開発メンバーが少なく、調整に時間を費やしたくなかった裏事情があった。	ぼーぐもなく、ぶきもきゃらごとにせんよーせっていであったりしてかいかえができないひとしのとくちょーがあるが、じっさいわかいはつめんばーがすくなく、ちょーせいにじかんをついやしたくなかったうらじじょーがあった。	NO_LABEL
・シナリオ	NO_PRONOUNCE	NO_LABEL
メインイベント以外はフリーシナリオであり、多くのイベントはクリアする必要がないが、世界を旅して人々の文化や生活に触れることが、このゲームのキモなので、キャッチコピーのワンダリングＲＰＧの示すように世界中を彷徨って世界中の人々と話をして欲しい。	めいんいべんといがいわふりーしなりおであり、おーくのいべんとわくりあするひつよーがないが、せかいをたびしてひとびとのぶんかやせいかつにふれることが、このげーむのきもなので、きゃっちこぴーのわんだりんぐあーるぴーじーのしめすよーにせかいじゅーをほーこーってせかいじゅーのひとびととはなしをしてほしい。	NO_LABEL
また、例えばアディテツリーのイベント等で、先にアディテツリーに行くかどうかでまったく違う結末が用意されていたりする物もある。	また、たとえばあでぃてつりーのいべんととーで、さきにあでぃてつりーにいくかどーかでまったくちがうけつまつがよーいされていたりするものもある。	NO_LABEL
担当は人生の一期一会感を表現したかったとの事。	たんとーわじんせいのいちごいちえかんをひょーげんしたかったとのこと。	NO_LABEL
本作は以下の内容から、賛否両論の作品となっている。	もとさくわいかのないよーから、さんぴりょーろんのさくひんとなっている。	NO_LABEL
株式会社QBQ編　『ゲームボーイクソゲー番付』マイウェイ出版発行、2017年。	NO_PRONOUNCE	NO_LABEL
ISBN 9784865117790 p63	NO_PRONOUNCE	NO_LABEL
