ビョルン・ボルグは、スウェーデン・セデーテイェ出身の元男子プロテニス選手。	NO_PRONOUNCE	NO_LABEL
ジミー・コナーズやジョン・マッケンローらと並んで、男子テニスの黄金時代を築いた名選手のひとりである。	じみーこなーずやじょんまっけんろーらとならんで、だんしてにすのおーごんじだいをきずいためいせんしゅのひとりである。	NO_LABEL
全仏オープンに4連覇を含む6勝、ウィンブルドン選手権で5連覇を達成した。	ぜんふつおーぷんによんれんぱをふくむろくしょー、うぃんぶるどんせんしゅけんでごれんぱをたっせいした。	NO_LABEL
4大大会通算「11勝」は、ロッド・レーバーと並ぶ男子歴代6位タイ記録。	NO_PRONOUNCE	NO_LABEL
1974年の全仏オープンにて、18歳で4大大会初優勝。	NO_PRONOUNCE	NO_LABEL
全仏オープンでは1978年-1981年まで、前人未到の男子シングルス「4連覇」を達成する。	NO_PRONOUNCE	NO_LABEL
同大会の通算優勝回数「6勝」は当時男子歴代最多記録となり、フランスの往年の名選手アンリ・コシェの「4勝」を上回った。	NO_PRONOUNCE	NO_LABEL
1976年にウィンブルドン選手権で初優勝し、1980年7月5日に同選手権で大会「5連覇」を達成した。	NO_PRONOUNCE	NO_LABEL
ジョン・マッケンローとの「3時間55分」に及ぶ決勝戦はテニス史に残る名勝負として語り継がれている。	NO_PRONOUNCE	NO_LABEL
しかし翌1981年の同選手権決勝でマッケンローに 6-4, 6-7, 6-7, 4-6 で敗れ、大会6連覇を逃した。	NO_PRONOUNCE	NO_LABEL
ウィンブルドン選手権の男子シングルス連覇記録は「6連覇」が最高であるが、これは大会黎明期にウィリアム・レンショーが最初期の1881年-1886年に、現在とは異なるテニス・トーナメントのシステムで樹立したものである。	NO_PRONOUNCE	NO_LABEL
全盛期には、赤土コートの全仏オープンと芝生コートのウィンブルドン選手権を共に3年連続で制覇した。	ぜんせいきにわ、あかつちこーとのぜんふつおーぷんとしばふこーとのうぃんぶるどんせんしゅけんをともにさんねんれんぞくでせいはした。	NO_LABEL
しかし全米オープンでは4度の準優勝に終わっている。	しかしぜんべいおーぷんでわよんどのじゅんゆうしょーにおわっている。	NO_LABEL
1976年と1978年はジミー・コナーズに、1980年と1981年はジョン・マッケンローに決勝で敗れている。	せんきゅうひゃくななじゅうろくねんとせんきゅうひゃくななじゅうはちねんわじみーこなーずに、せんきゅうひゃくはちじゅうねんとせんきゅうひゃくはちじゅういちねんわじょんまっけんろーにけっしょーでやぶれている。	NO_LABEL
全豪オープンは1974年の1度出場したのみで、この時は3回戦でフィル・デントに敗れた。	ぜんごーおーぷんわせんきゅうひゃくななじゅうよねんのいちどしゅつじょーしたのみで、このときわさんかいせんでふぃるでんとにやぶれた。	NO_LABEL
ビョルン・ボルグは1983年1月に、当時のトーナメントスケジュールの過密さに反抗し、26歳の若さで突然の現役引退を表明した。	びょるんぼるぐわせんきゅうひゃくはちじゅうさんねんいちがつに、とーじのとーなめんとすけじゅーるのかみつさにはんこーし、にじゅうろっさいのわかさでとつぜんのげんえきいんたいをひょーめいした。	NO_LABEL
1987年に国際テニス殿堂入りを果たしている。	せんきゅうひゃくはちじゅうななねにこくさいてにすでんどーいりをはたしている。	NO_LABEL
その後1990年夏に、全盛期に使用していたウッド・ラケットで現役復帰を試みたが、失敗に終わった。	NO_PRONOUNCE	NO_LABEL
現役引退後は、下着ブランド事業の失敗など数多くのトラブルに見舞われたこともあり、公の場にあまり姿を見せてこなかった。	げんえきいんたいごわ、したぎぶらんどじぎょーのしっぱいなどすーおーくのとらぶるにみまわれたこともあり、おーやけのばにあまりすがたをみせてこなかった。	NO_LABEL
1997年全仏オープンの表彰式にボルグが登場し、グスタボ・クエルテンに優勝カップを贈呈した。	せんきゅうひゃくきゅうじゅうななぜんふつおーぷんのひょーしょーしきにぼるぐがとーじょーし、ぐすたぼくえるてんにゆーしょーかっぷをぞーていした。	NO_LABEL
2007年ウィンブルドンにおいて、ボルグは引退後初めて男子シングルス決勝戦を観戦し、ロジャー・フェデラーが自らのウィンブルドン「5連覇」に並ぶ瞬間を見守った。	NO_PRONOUNCE	NO_LABEL
2008年全仏オープンで、ラファエル・ナダルがボルグ以来となる全仏オープン「4連覇」を達成する。	NO_PRONOUNCE	NO_LABEL
2008年ウィンブルドンで、ロジャー・フェデラーはラファエル・ナダルに 4-6, 4-6, 7-6, 7-6, 7-9 で敗れ、1880年代のウィリアム・レンショーの「6連覇」を逃した。	NO_PRONOUNCE	NO_LABEL
初優勝したナダルは、赤土の全仏オープンと芝生のウィンブルドン連続制覇を成し遂げ、1980年のボルグ以来28年ぶりの偉業を達成した。	はつゆーしょーしたなだるわ、あかつちのぜんふつおーぷんとしばふのうぃんぶるどんれんぞくせいはをなしとげ、せんきゅうひゃくはちじゅうねんのぼるぐいらいにじゅうはちねんぶりのいぎょーをたっせいした。	NO_LABEL
ボルグはウィンブルドン選手権での全盛期に、芝生コート「41連勝」の最多連勝記録を樹立したが、フェデラーがボルグの連勝記録を更新し、2008年ウィンブルドン決勝でナダルに敗れるまで「65連勝」の記録をつくった。	NO_PRONOUNCE	NO_LABEL
ボルグは重いトップスピン主体のグラウンド・ストロークを得意とし、当時のウッド・ラケットにストリングを80ポンド以上という素材の強度ぎりぎりの硬さに張っていた。	NO_PRONOUNCE	NO_LABEL
コート上で常に冷静沈着なことから“アイス・マン”と呼ばれていた。	NO_PRONOUNCE	NO_LABEL
なお、トップ・スピンはこのボルグの回転系のショットから広く一般的に言われるようになった。	NO_PRONOUNCE	NO_LABEL
この事がボルグが「現代テニスの父」と呼ばれる所以である。	NO_PRONOUNCE	NO_LABEL
