下の茗温泉は、富山県富山市にあった温泉。	したのみょうおんせんわ、とやまけんとやましにあったおんせん。	NO_LABEL
源泉温度25℃。	げんせんおんどにじゅうごどしー。	NO_LABEL
メタケイ酸含有量により、温泉法を満たしている。	めたけいさんがんゆーりょうにより、おんせんほーをみたしている。	NO_LABEL
日本秘湯を守る会にも属した一軒宿「下の茗温泉」がかつて存在したが、1999年に廃業、閉鎖された。	NO_PRONOUNCE	NO_LABEL
現在は廃墟となっており、車の乗り入れも出来ない。	げんざいわはいきょとなっており、くるまののりいれもできない。	NO_LABEL
富山藩の第10代藩主である前田利保も1848年にこの地で湯治をしたことがある。	とやまはんのだいじゅうだいはんしゅであるまえだとしやすもせんはっぴゃくよんじゅうはちねんにこのちでとーじをしたことがある。	NO_LABEL
その様子は「利保公依御願御領分下ノ茗温泉ヘ為御入湯就御帰城御道中奥御用所留」という書物に残されている。	NO_PRONOUNCE	NO_LABEL
野口雨情もこの地に来たことがある。	のぐちうじょーもこのちにきたことがある。	NO_LABEL
