グルーバーは小惑星帯に位置する小惑星。	ぐるーばーわしょーわくせいたいにいちするしょーわくせい。	NO_LABEL
オーストリアのリンツに近いダヴィドシュラークでエーリッヒ・マイヤーが発見した。	NO_PRONOUNCE	NO_LABEL
中国からチベットを経てインドを旅して、ヨーロッパにチベットの情報をもたらしたリンツ生まれのイエズス会の宣教師、ヨハン・グリューバーから命名された。	ちゅーごくからちべっとをへていんどをたびして、よーろっぱにちべっとのじょーほーをもたらしたりんつうまれのいえずすかいのせんきょーし、よはんぐりゅーばーからめいめいされた。	NO_LABEL
