田村 剛は、日本の造園家。	たむらつよしわ、にっぽんのぞーえんか。	NO_LABEL
造園学者。	ぞーえんがくしゃ。	NO_LABEL
林学者。	りんがくしゃ。	NO_LABEL
日本の国立公園、海中公園制度の確立と発展に尽くす。	にっぽんのこくりつこーえん、かいちゅーこーえんせいどのかくりつとはってんにつくす。	NO_LABEL
岡山県生まれ。	おかやまけんうまれ。	NO_LABEL
妻は日向利兵衛の娘。	つまわひゅーがりへーのむすめ	NO_LABEL
国際自然保護連合名誉会員。	こくさいしぜんほごれんごーめいよかいーん。	NO_LABEL
日本自然保護協会初代理事長、日本造園学会会長など、要職を多数歴任。	にっぽんしぜんほごきょーかいしょだいせんしゃどうれんめいのりじちょー、にほんぞーえんがっかいかいちょーなど、よーしょくをたすーれきにん。	NO_LABEL
倉敷市で次田家に生まれ、まもなく田村家の養子となる。	くらしきしでつぎたかにうまれ、まもなくたむらかのよーしとなる。	NO_LABEL
兄は国文学者の次田潤。	あにわこくぶんがくしゃのつぎたうるー。	NO_LABEL
旧制岡山中学校から第六高等学校を経て、東京帝国大学農科大学林学科に進学。	きゅーせいおかやまちゅうがっこーからだいろくこーとーがっこーをへて、とーきょーていこくだいがくのーかだいがくりんがっかにしんがく。	NO_LABEL
高等学校時代の1911年、新聞社が募集していた立山登山に参加。	こーとーがっこーじだいのせんきゅうひゃくじゅういちねん、しんぶんしゃがぼしゅーしていたたてやまとざんにさんか。	NO_LABEL
1915年に大学を卒業し、2年間、明治神宮造営局で神宮内外苑の造営に携わる。	せんきゅうひゃくじゅうごねんにだいがくをそつぎょーし、にねんかん、めいじじんぐーぞーえいきょくでじんぐーないがいえんのぞーえいにたずさわる。	NO_LABEL
1917年、富士山北麓調査を実施。	せんきゅうひゃくじゅうしちねん、ふじさんきたふもとちょーさをじっし。	NO_LABEL
1918年、名著『造園概論』を刊行。	NO_PRONOUNCE	NO_LABEL
この著書の中で「自然公園」という名称を生み出した。	NO_PRONOUNCE	NO_LABEL
当時2派に分かれた国立公園の制定趣旨に関しては、自然保護派と対極の、国民に公開し利用をはかるという立場を採った。	NO_PRONOUNCE	NO_LABEL
この思想が頻所に現れたのは戦後の1953年の佐世保市観光施設計画・西海国立公園候補地自然公園計画調査で、加藤誠平のほか、宮内庁庭園課の技師舘粲児や造園家吉村巌らをメンバーとした調査団として乗り込んだこの調査で、田村らは公園計画として鹿子前と烏帽子岳2つの地区にゾーニングし、鹿子前地区については水族館と遊覧、さらに宿泊施設を、烏帽子岳地区ではゴルフ場やキャンプ場などのレジャー施設と展望台、動物園と植物園などの観光諸施設まで計画提案している。	NO_PRONOUNCE	NO_LABEL
1919年、東京帝国大学農学部実科講師を担当。	せんきゅうひゃくじゅうきゅうねん、とーきょーていこくだいがくのーがくぶじっかこーしをたんとー。	NO_LABEL
また同年発足した文部省の外郭団体である生活改善同盟会庭園部門特別委員就任。	またどーねんほっそくしたもんぶしょーのがいかくだんたいであるせいかつかいぜんどーめいかいていえんぶもんとくべついいんしゅーにん。	NO_LABEL
1920年、「日本庭園の発展に就いて」で林学博士の学位を取得。	NO_PRONOUNCE	NO_LABEL
林学科造林第二研究室に造園学教室を設置し、教育者として、造園学を林学科のほか建築教室、農学部園芸学講座でも講義を持ち、多くの後進を育てた。	りんがっかぞーりんだいにけんきゅーしつにぞーえんがくきょーしつをせっちし、きょーいくしゃとして、ぞーえんがくをりんがっかのほかけんちくきょーしつ、のーがくぶえんげいがくこーざでもこーぎをもち、おーくのこーしんをそだてた。	NO_LABEL
また同年から、公園行政を担当する内務省衛生局保健課嘱託として、国立公園制定に尽力。	またどーねんから、こーえんぎょーせいをたんとーするないむしょーえいせいきょくほけんかしょくたくとして、こくりつこーえんせいていにじんりょく。	NO_LABEL
こうして、国立公園行政で指導的役割をはたした結果、国立公園の父とよばれる事となる。	こーして、こくりつこーえんぎょーせいでしどーてきやくわりをはたしたけっか、こくりつこーえんのちちとよばれることとなる。	NO_LABEL
1922年から1924年まで、内務省嘱託をいったん辞して欧米の国立公園事情を視察。	せんきゅうひゃくにじゅうにねんからせんきゅうひゃくにじゅうよねんまで、ないむしょーしょくたくをいったんじしておーべいのこくりつこーえんじじょーをしさつ。	NO_LABEL
1927年、尾瀬ヶ原水没計画に対し、後の日本自然保護協会に発展する尾瀬保存期成同盟結成に参加し、代表に就任。	せんきゅうひゃくにじゅうななねん、おぜがはらすいぼつけいかくにたいし、ごのにっぽんしぜんほごきょーかいにはってんするおぜほぞんきせいどーめいけっせいにさんかし、だいひょーにしゅーにん。	NO_LABEL
さらに同年から内務省に復帰。	さらにどーねんからないむしょーにふっき。	NO_LABEL
1928年に台湾調査の帰途に事故で片足を失う。	せんきゅうひゃくにじゅうはちねんにたいわんちょーさのきとにじこでかたあしをうしなう。	NO_LABEL
1929年に国立公園協会を設立に参加、常務理事に就任し、啓蒙普及活動を開始。	せんきゅうひゃくにじゅうきゅうねにこくりつこーえんきょーかいをせつりつにさんか、じょーむりじにしゅーにんし、けいもーふきゅーかつどーをかいし。	NO_LABEL
1931年には国立公園法が成立する。	せんきゅうひゃくさんじゅういちねにわこくりつこーえんほーがせいりつする。	NO_LABEL
1933年、内務技師任命を受ける。	せんきゅうひゃくさんじゅうさんね、ないむぎしにんめいをうける。	NO_LABEL
1958年から国際自然保護連合国立公園委員会委員。	せんきゅうひゃくごじゅうはちねんからこくさいしぜんほごれんごーこくりつこーえんいーんかいいいん。	NO_LABEL
1962年、第1回世界国立公園会議に出席。	せんきゅうひゃくろくじゅうにねん、だいいっかいせかいこくりつこーえんかいぎにしゅっせき。	NO_LABEL
1967年、海中公園センターを設立。	せんきゅうひゃくろくじゅうななね、かいちゅーこーえんせんたーをせつりつ。	NO_LABEL
西太平洋国際海中公園システム構想を発表する。	にしたいへいよーこくさいかいちゅーこーえんしすてむこーそーをはっぴょーする。	NO_LABEL
