『ひまわりさん』は、菅野マナミによる日本の漫画。	NO_PRONOUNCE	NO_LABEL
『月刊コミックアライブ』2009年10月号から2011年2月号まで読切を連載したのち、同年3月号より同誌で連載を開始した。	NO_PRONOUNCE	NO_LABEL
主人公・風祭まつりと、彼女の通う高校の向かいにある古くて小さな本屋「ひまわり書房」の店長、ひまわりさんとの交流が描かれ、主にまつりとひまわりさんの視点で物語が進行する。	NO_PRONOUNCE	NO_LABEL
「声」はBS11『真・週刊コミックTV+』 / ドラマCDでの担当声優。	NO_PRONOUNCE	NO_LABEL
