親ヶ谷古墳は、岐阜県不破郡垂井町府中にある古墳。	おやがたにこふんわ、ぎふけんふわぐんたるいちょうふちゅーにあるこふん。	NO_LABEL
形状は前方後円墳。	けいじょーわぜんぽーこーえんふん。	NO_LABEL
不破古墳群を構成する古墳の1つ。	ふわこふんぐんをこーせいするこふんのひとつ。	NO_LABEL
垂井町の史跡に指定されている。	たるいちょーのしせきにしていされている。	NO_LABEL
岐阜県不破郡垂井町府中の標高185メートルの山頂に築造されたこの地域を代表する首長墓の1つである。	NO_PRONOUNCE	NO_LABEL
1879年に盗掘され多数の副葬品が出土した。	せんはっぴゃくななじゅうきゅうねんにとーくつされたすーのふくそーひんがしゅつどした。	NO_LABEL
現在これらの出土品は東京国立博物館に保管されている。	げんざいこれらのしゅつどひんわとーきょーこくりつはくぶつかんにほかんされている。	NO_LABEL
この他にも銅鏡14面が出土したと伝えられる。	NO_PRONOUNCE	NO_LABEL
また、昭和初期に藤井治左衛門が再調査した時には内行花文鏡片が出土したと言われている。	また、しょーわしょきにふじーおさむさえもんがさいちょーさしたときにわないこうかもんきょーへんがしゅつどしたといわれている。	NO_LABEL
何れにせよ稀にみる多数の銅鏡を保有した前期古墳である。	いずれにせよまれにみるたすーのどーきょーをほゆーしたぜんきこふんである。	NO_LABEL
『岐阜県史』の編纂に合わせて1970年に測量され、この時には直径10メートルの円墳とされたが、1987年に東海古墳文化研究会が行った測量調査の結果細い尾根を利用した墳丘長85メートル以上の前方後円墳と報告された。	NO_PRONOUNCE	NO_LABEL
墳形は前方後円墳で前方部を北方に向ける。	ふんがたわぜんぽーこーえんふんでぜんぽーぶをほっぽーにむける。	NO_LABEL
墳丘は2段築成。	NO_PRONOUNCE	NO_LABEL
後円部上段のみ葺石を用い、埴輪は確認されていない。	こーえんぶじょーだんのみふきいしをもちい、はにわわかくにんされていない。	NO_LABEL
築造は4世紀後半と推定される。	ちくぞーわよんせいきこーはんとすいていされる。	NO_LABEL
発掘調査は行われていない。	はっくつちょーさわおこなわれていない。	NO_LABEL
「※」の付いていないものは現在、東京国立博物館に収蔵されている。	NO_PRONOUNCE	NO_LABEL
なお「※」の付いているものは伝承のみで所在不明のものである。	NO_PRONOUNCE	NO_LABEL
「親ヶ谷古墳」1957年2月15日指定。	NO_PRONOUNCE	NO_LABEL
