ジョンマスターオーガニックは、ヘアケア、ハンドクリーム、美容液などを取り扱う、オーガニック化粧品ブランド。	じょんますたーおーがにっくわ、へあけあ、はんどくりーむ、びよーえきなどをとりあつかう、おーがにっくけしょーひんぶらんど。	NO_LABEL
ジョン・マスターによって1991年にJohn Masters Organics, Inc.として米国で創業し、2016年からは日本の株式会社ジョンマスターオーガニックグループが運営している。	NO_PRONOUNCE	NO_LABEL
ブランドのコンセプトとして「地球に敬意を払うラグジュアリーなビューティーラインを」を掲げて営業している。	NO_PRONOUNCE	NO_LABEL
オーガニックコスメ市場で最大のシェアを占めると報道されることがある。	おーがにっくこすめしじょーでさいだいのしぇあをしめるとほーどーされることがある。	NO_LABEL
株式会社ジョンマスターインターナショナルは2017年9月に、「植物由来１００％」を売りにしていたが、成分表示ラベルに本来は含まれていない天然成分が掲載されていたり、掲載されていないシリコーンなどの化合物が入っていたとしてシャンプーやコンディショナーなどの26種38品目の自主回収を実施した。	NO_PRONOUNCE	NO_LABEL
同社は、子会社John Masters Organics, Inc.が商品の製造を委託していた米国の工場で不正があったことが原因として公表した。	NO_PRONOUNCE	NO_LABEL
