ナイル人またはナイロート族、ナイロートは主にナイル谷、および中央アフリカ・東アフリカの一部に住む民族集団である。	NO_PRONOUNCE	NO_LABEL
ナイル・サハラ語族の下位群であるナイル諸語を話す。	NO_PRONOUNCE	NO_LABEL
 , , ディンカ族, ヌエル族, シルック族, , 等の民族集団が含まれる。	NO_PRONOUNCE	NO_LABEL
ナイル人は、その原郷と考えられる南スーダンの人口の多数を占める。	ないるじんわ、そのはらごーとかんがえられるみなみすーだんのじんこーのたすーをしめる。	NO_LABEL
今日でも、アフリカ大湖沼地域に住む民族ではバンツー族に次いで2番目に多く、エチオピア南西部でも重要な位置を占める。	きょーでも、あふりかだいこしょーちいきにすむみんぞくでわばんつーぞくについでにばんめにおーく、えちおぴあなんせいぶでもじゅーよーないちをしめる。	NO_LABEL
ハプログループAが50.6%の高頻度で観察される。	はぷろぐるーぷえーがごじゅうてんろくぱーせんとのこーひんどでかんさつされる。	NO_LABEL
またハプログループBが24.7%、ハプログループE#E1b1b系統も24.7%観察される。	NO_PRONOUNCE	NO_LABEL
著しく高身長・細身で、皮膚の色は濃く、鼻幅は広いが、直顎に近い。	NO_PRONOUNCE	NO_LABEL
ナイル・サハラ語族のナイル諸語を話す。	NO_PRONOUNCE	NO_LABEL
宗教はキリスト教とを信仰する。	しゅーきょーわきりすときょーとをしんこーする。	NO_LABEL
