サンパイオ・コヘイアFC () は、ブラジル・マラニョン州サンルイスを本拠地とするサッカークラブである。	NO_PRONOUNCE	NO_LABEL
1923年5月25日設立。	せんきゅうひゃくにじゅうさんねんごがつにじゅうごにちせつりつ。	NO_LABEL
ボリビアノスというあだ名はクラブカラーがボリビアの国旗に似ていることに由来する。	ぼりびあのすとゆうあだなわくらぶからーがぼりびあのこっきににていることにゆらいする。	NO_LABEL
他にトリコロール・ジ・アソという呼び名もある。	NO_PRONOUNCE	NO_LABEL
クラブマスコットはサメ。	くらぶますこっとわさめ。	NO_LABEL
