『クイーンズ・ロジック/女の言い分・男の言い訳』は、1991年のアメリカ合衆国のコメディ映画。	NO_PRONOUNCE	NO_LABEL
ケヴィン・ベーコン、リンダ・フィオレンティーノ、ジョン・マルコヴィッチ、ジョー・マンテーニャ、ケン・オリン、トム・ウェイツ、クロエ・ウェッブ出演。	NO_PRONOUNCE	NO_LABEL
幼いアルは、ヘルゲート橋から垂れ下がっているロープを登り切り、橋の上への到達に成功する。	おさないあるわ、へるげーときょーからたれさがっているろーぷをのぼりきり、はしのうええのとーたつにせいこーする。	NO_LABEL
そして現在、妻のカーラとの結婚記念日プレゼントとして、知り合いのモンティを訪ねて指輪を買ったアルは、彼にいとこのレイとパトリシアの結婚式について話す。	そしてげんざい、つまのかーらとのけっこんきねんびぷれぜんととして、しりあいのもんてぃをたずねてゆびわをかったあるわ、かれにいとこのれいとぱとりしあのけっこんしきについてはなす。	NO_LABEL
そのころレイとパトリシアは、レイが物事が進むスピードが速すぎると主張し、彼女の親に会いたがらないことで喧嘩になり、パトリシアはさらに彼が結婚にも消極的になっていることに気づき、自分は何があっても結婚式をすると彼に伝える。	そのころれいとぱとりしあわ、れいがものごとがすすむすぴーどがはやすぎるとしゅちょーし、かのじょのおやにあいたがらないことでけんかになり、ぱとりしあわさらにかれがけっこんにもしょーきょくてきになっていることにきずき、じぶんわなにがあってもけっこんしきをするとかれにつたえる。	NO_LABEL
その夜、ジャックのバーでは、記念日を忘れて手品を楽しんでいたアルが、そこに来たレイと話し込む。	そのよる、じゃっくのばーでわ、きねんびをわすれててじなをたのしんでいたあるが、そこにきたれいとはなしこむ。	NO_LABEL
記念日のことを思い出したアルが帰ろうとしたとき、彼と因縁があるジョーイ・クラムスが現れる。	NO_PRONOUNCE	NO_LABEL
レイに静止されバーを出たアルは、急いで家に帰るが、すでにカーラの機嫌は最悪で、なんとか場を和ませようとしたアルを殴り、子供達を連れて実家に帰ってしまう。	れいにせいしさればーをでたあるわ、いそいでいえにかえるが、すでにかーらのきげんわさいあくで、なんとかじょーをなごませようとしたあるをなぐり、こどもたちをつれてじっかにかえってしまう。	NO_LABEL
翌日レイと話したパトリシアは、結婚式が2日後に迫るなか、まだ結婚に乗り気でないレイの背中を押す。	よくじつれいとはなしたぱとりしあわ、けっこんしきがふつかごにせまるなか、まだけっこんにのりきでないれいのせなかをおす。	NO_LABEL
アルは、魚加工工場の共同経営者であるエリオットと従業員の扱いに苦慮していた。	あるわ、さかなかこーこーじょーのきょーどーけいえいしゃであるえりおっととじゅーぎょーいんのあつかいにくりょしていた。	NO_LABEL
その後友人のヴィニーに電話し、久しぶりに地元に帰ってくる幼馴染のデニスを、みんなで空港まで迎えに行くために、ジャックのバーで待ち合わせることを知らせる。	NO_PRONOUNCE	NO_LABEL
そこにクラムスの部下と思われる男がやってくるが、エリオットが追い返す。	そこにくらむすのぶかとおもわれるおとこがやってくるが、えりおっとがおいかえす。	NO_LABEL
そして待ち合わせ前にカーラを訪ねたアルだが、彼女から帰る気はないと一蹴される。	そしてまちあわせまえにかーらをたずねたあるだが、かのじょからかえるきわないといっしゅーされる。	NO_LABEL
アルたちは空港でデニスを出迎え、プールで昔の話を語り合う。	あるたちわくーこーででにすをでむかえ、ぷーるでむかしのはなしをかたりあう。	NO_LABEL
一方のカーラは、パトリシアにアルに対しての悩みを打ち明けていた。	いっぽーのかーらわ、ぱとりしあにあるにたいしてのなやみをうちあけていた。	NO_LABEL
