王喜斌は中華人民共和国解放軍の軍人、中国解放軍上将。	おーきひんわちゅーかじんみんきょーわこくかいほーぐんのぐんじん、ちゅーごくかいほーぐんじょうしょー。	NO_LABEL
黒竜江省寧安市生まれ。	こくりゅーこーしょーねいあんしうまれ。	NO_LABEL
1966年1月中国解放軍に参加。	せんきゅうひゃくろくじゅうろくねんいちがつちゅーごくかいほーぐんにさんか。	NO_LABEL
国防大学校長、中国解放軍上将。	こくぼーだいがくこーちょー、ちゅーごくかいほーぐんじょうしょー。	NO_LABEL
中国人民解放軍装甲兵学院を卒業している。	ちゅーごくじんみんかいほーぐんそーこーへいがくいんをそつぎょーしている。	NO_LABEL
大軍区の副職から正職に昇進するのにたった1年9ヶ月しかなく、国防大学校長就任も予想外人事である事から、胡錦涛が主導した江沢民勢力一掃の人事だとの説が一部報じられている。	NO_PRONOUNCE	NO_LABEL
