彗星は、かつて京都駅 - 南宮崎駅間を東海道本線・山陽本線・日豊本線経由で運行されていたJRの寝台特別急行列車である。	NO_PRONOUNCE	NO_LABEL
本項では、京阪神と日豊本線の沿線各都市を結んでいた優等列車の沿革についても記述する。	ほんこーでわ、けいはんしんとにっぽーほんせんのえんせんかくとしをむすんでいたゆーとーれっしゃのえんかくについてもきじゅつする。	NO_LABEL
寝台特急「彗星」は、1968年10月に新大阪駅 - 宮崎駅間で運転を開始し、時間の経過ともに運転区間の拡大と増発を繰り返し、最大5往復運転されていた。	NO_PRONOUNCE	NO_LABEL
1975年から運転本数の削減が始まったが、1989年の平均乗車率は93%と高い数値を記録していた。	せんきゅうひゃくななじゅうごねんからうんてんほんすーのさくげんがはじまったが、せんきゅうひゃくはちじゅうきゅうねんのへいきんじょーしゃりつわきゅうじゅうさんぱーせんととたかいすーちをきろくしていた。	NO_LABEL
しかし、1980年代以降は新幹線・航空機・格安の夜行バスに客足を奪われ、2000年3月には単独運転から「あかつき」と併結されるようになったものの、2004年の平均乗車率は30%まで落ち込んでいたこともあって、2005年9月に廃止された。	NO_PRONOUNCE	NO_LABEL
列車名は、天体の彗星に由来している。	れっしゃめいわ、てんたいのすいせいにゆらいしている。	NO_LABEL
「夜行列車は天体から」という慣例があるが、この「彗星」の名称は1950年から1956年までと1957年から1964年まで東京駅 - 大阪駅間を東海道本線経由で運行する夜行急行列車の名称として使用されていた。	NO_PRONOUNCE	NO_LABEL
列車番号は運転線区で変更がなく、下りが33、上りが34 であった。	NO_PRONOUNCE	NO_LABEL
京都駅 - 新大阪駅 - 大阪駅 - 三ノ宮駅 - 姫路駅 - 岡山駅 - 倉敷駅 - 福山駅 --- 〔新山口駅〕 - 〔宇部駅〕 - 〔厚狭駅〕 - 下関駅 - 門司駅 - 小倉駅 - 中津駅 - 宇佐駅 - 別府駅 - 大分駅 - 臼杵駅 - 津久見駅 - 佐伯駅 - 延岡駅 - 南延岡駅 - 日向市駅 - 高鍋駅 - 宮崎駅 - 南宮崎駅	NO_PRONOUNCE	NO_LABEL
下りの別府駅→南宮崎駅間、上りの南宮崎駅→延岡駅間は立席特急券でB寝台を座席として利用できた。	NO_PRONOUNCE	NO_LABEL
客車は、JR西日本の京都総合運転所に所属する14系15形客車を使用していた。	NO_PRONOUNCE	NO_LABEL
なお、季節によっては「彗星」の開放式B寝台車2両、「あかつき」の開放式B寝台車1両を減ずる運行となっていた。	NO_PRONOUNCE	NO_LABEL
電気機関車は、京都駅 - 下関駅を下関車両管理室配置のEF66形が、下りの下関駅 - 大分駅と上りの門司駅 - 下関駅間は大分運転所配置のEF81形が、下りの大分駅 - 南宮崎駅間と上りの南宮崎駅 - 門司駅間を大分運転所配置のED76形が牽引していた。	NO_PRONOUNCE	NO_LABEL
「あかつき」併結化以前の下関以東はJR東日本田端運転所配置田町車両センター常駐で「出雲」間合いのEF65形が牽引していた。	NO_PRONOUNCE	NO_LABEL
全区間九州旅客鉄道の車掌が乗務し、京都駅 - 門司駅間は門司車掌区、門司駅 - 南宮崎駅間は大分車掌センターが担当していた。	NO_PRONOUNCE	NO_LABEL
