岩下 俊作は、日本の小説家である。	いわしたしゅんさくわ、にっぽんのしょーせつかである。	NO_LABEL
本名は八田秀吉。	ほんみょーわはったひでよし。	NO_LABEL
福岡県小倉市生まれ。	ふくおかけんこくらしうまれ。	NO_LABEL
旧福岡県立小倉工業学校機械科卒業。	きゅーふくおかけんりつこくらこーぎょーがっこーきかいかそつぎょー。	NO_LABEL
1928年から1961年まで八幡製鉄所に勤務した。	せんきゅうひゃくにじゅうはちねんからせんきゅうひゃくろくじゅういちねんまでやはたせいてつしょにきんむした。	NO_LABEL
1938年、同郷の芥川賞作家・火野葦平や劉寒吉らと共に同人誌「九州文学」に参加し、代表作となる『富島松五郎伝』で、1939年下半期・第10回直木賞候補、翌1940年上半期・第11回直木賞候補に挙げられるも受賞ならず。	NO_PRONOUNCE	NO_LABEL
さらに、「辰次と由松」で同年下半期・第12回直木賞候補、「西域記」で1943年上半期・第17回芥川賞候補となったが、いずれも受賞できなかった。	NO_PRONOUNCE	NO_LABEL
八幡製鉄所退職後は明治通信社に勤務しながら執筆活動を行う。	やはたせいてつしょたいしょくごわめいじつーしんしゃにきんむしながらしっぴつかつどーをおこなう。	NO_LABEL
73歳で死去。	ななじゅうさんさいでしきょ。	NO_LABEL
「富島松五郎伝」は『無法松の一生』のタイトルで映画化、ドラマ化、舞台化が幾度となくされている。	NO_PRONOUNCE	NO_LABEL
