『イッポウ』は、CBCテレビが平日の夕方に放送している中京広域圏向けの報道・情報番組。	NO_PRONOUNCE	NO_LABEL
2006年4月3日より放送開始。	にせんろくねんしがつみっかよりほーそーかいし。	NO_LABEL
前番組は『ユーガッタ!CBC』。	NO_PRONOUNCE	NO_LABEL
放送時間は16:50 - 19:00で、17:50 - 18:15は『Nスタ・第2部』の全国ニュースパートを内包している。	NO_PRONOUNCE	NO_LABEL
ただし、祝日は17時40分台に放送開始がずれることもある。	ただし、しゅくじつわじゅうしちじよんじゅっぷんだいにほーそーかいしがずれることもある。	NO_LABEL
音声は『Nスタ』を含め、全編でステレオ放送を実施している。	NO_PRONOUNCE	NO_LABEL
番組内でテーマを募集することがあり、番組進行の都度紹介している。	ばんぐみないでてーまをぼしゅーすることがあり、ばんぐみしんこーのつどしょーかいしている。	NO_LABEL
事件・事故・不祥事・政局に対しての一言がメインであるが、変わったところでは中日ドラゴンズの応援メッセージや同選手だった立浪和義引退に対するはなむけのメッセージを募集したこともある。	NO_PRONOUNCE	NO_LABEL
尚、毎月1回だけ、シーズン中も中日ドラゴンズの選手及び監督が生出演する｢マンドラ｣というコーナーもある。	NO_PRONOUNCE	NO_LABEL
2013年4月1日から番組は出演者の変更を含めリニューアルした。	にせんじゅうさんねんしがつついたちからばんぐみわしゅつえんしゃのへんこーをふくめりにゅーあるした。	NO_LABEL
リアルタイム字幕放送を実施。	りあるたいむじまくほうそーをじっし。	NO_LABEL
2015年3月16日より、6年ぶりに時刻出しを復活した。	にせんじゅうごねんさんがつじゅうろくにちより、ろくねんぶりにじこくだしをふっかつした。	NO_LABEL
2015年3月30日から番組開始以来初めてロゴおよびスタジオなどがリニューアルされた。	にせんじゅうごねんさんがつさんじゅうにちからばんぐみかいしいらいはじめてろごおよびすたじおなどがりにゅーあるされた。	NO_LABEL
2015年9月28日より、『ゴゴスマ -GO GO!Smile!-』の枠拡大に伴い、本番組の放送時間は2分繰り下げ・短縮の16:52 - 19:00となった。	NO_PRONOUNCE	NO_LABEL
2017年7月31日より、『ゴゴスマ -GO GO!Smile!-』の同月28日までより1分短縮に伴い、本番組は2分前拡大となる、16:50 - 19:00での放送に変更された。	NO_PRONOUNCE	NO_LABEL
原則として公式サイトの表記に準拠。	げんそくとしてこーしきさいとのひょーきにじゅんきょ。	NO_LABEL
職業が記されていない者は全員CBCアナウンサー。	しょくぎょーがしるされていないものわぜんいんしーびーしーあなうんさー。	NO_LABEL
5時台と6時台に1本ずつ放送されている。	ごじだいとろくじだいにいっぽんずつほーそーされている。	NO_LABEL
5時台の特集は生活情報が中心であるが、6時台の特集はドキュメンタリーなど報道色が濃いものを放送している。	ごじだいのとくしゅーわせいかつじょーほーがちゅーしんであるが、ろくじだいのとくしゅーわどきゅめんたりーなどほーどーしょくがこいものをほーそーしている。	NO_LABEL
Nスタの関東ローカルパート内で放送されている「Nトク」で扱われたVTRをそのまま放送することもある。	NO_PRONOUNCE	NO_LABEL
金曜日5時台の特集は金曜企画生ちゅうが放送されるため5分短縮。	きんよーびごじだいのとくしゅーわきんよーきかくせいちゅうがほーそーされるためごふんたんしゅく。	NO_LABEL
6時台冒頭のコーナー。	ろくじだいぼーとーのこーなー。	NO_LABEL
東海地方や全国のニュース・出来事に関する疑問を詳しく紹介していく。	NO_PRONOUNCE	NO_LABEL
2010年3月29日放送開始。	にせんじゅうねんさんがつにじゅうきゅうにちほーそーかいし。	NO_LABEL
コーナーリニューアルに伴い、18:40頃に変更になった。	NO_PRONOUNCE	NO_LABEL
翌日以降に旅行やレジャー等に出かける視聴者と電話を繋ぎ、旅行目的等について大石らと会話した後、桜沢が目的地のピンポイント予報を伝えるコーナー。	よくじついこーにりょこーやれじゃーとーにでかけるしちょーしゃとでんわをつなぎ、りょこーもくてきとーについておーいしらとかいわしたのち、さくらざわがもくてきちのぴんぽいんとよほーをつたえるこーなー。	NO_LABEL
目的地は東海地方に限定されず海外でも良い。	もくてきちわとーかいちほーにげんていされずかいがいでもよい。	NO_LABEL
また、当番組が放送されていない地方の在住者から応募が来ることもある。	また、とーばんぐみがほーそーされていないちほーのざいじゅーしゃからおーぼがくることもある。	NO_LABEL
なお、目的地のピンポイント予報は、朝・昼・夜と以前より詳細になった。	NO_PRONOUNCE	NO_LABEL
2010年4月の一度だけ、相手先の回線が繋がらない理由でコーナーが休止になり、普通の天気予報になったことがある。	にせんじゅうねんしがつのいちどだけ、あいてさきのかいせんがつながらないりゆーでこーなーがきゅーしになり、ふつーのてんきよほーになったことがある。	NO_LABEL
2011年5月4日の放送では、中継先から間に合わず、大石が電話出演者とのトークおよびピンポイント予報を伝え、丹野が天気予報を読むというスタイルでの放送になった。	にせんじゅういちねんごがつよっかのほーそーでわ、ちゅーけいさきからまにあわず、おーいしがでんわしゅつえんしゃとのとーくおよびぴんぽいんとよほーをつたえ、たんのがてんきよほーをよむとゆうすたいるでのほーそーになった。	NO_LABEL
なお、桜沢は放送終了直前にスタジオ入りしている。	なお、さくらざわわほーそーしゅーりょーちょくぜんにすたじおいりしている。	NO_LABEL
2012年12月27日の放送では、中日ドラゴンズの井端弘和が電話出演した。	にせんじゅうにねんじゅーにがつにじゅうしちにちのほーそーでわ、ちゅーにちどらごんずのいばたひろかずがでんわしゅつえんした。	NO_LABEL
公演に行く長野県の天気予報を聞いていた。	こーえんにいくながのけんのてんきよほーをきいていた。	NO_LABEL
『コレ知らないと!』と同様。	NO_PRONOUNCE	NO_LABEL
流行からエンタメ、スポーツまで様々な内容を扱う。	りゅーこーからえんため、すぽーつまでさまざまなないよーをあつかう。	NO_LABEL
Nスタの「ホーリこみっ!」のVTRが使用されることもある。	NO_PRONOUNCE	NO_LABEL
モリ・モモのモモと吉岡が東海3県各地から中継を行う。	NO_PRONOUNCE	NO_LABEL
毎週金曜日放送。	まいしゅーきんよーびほーそー。	NO_LABEL
番組宣伝が主のコーナー。	ばんぐみせんでんがおものこーなー。	NO_LABEL
番組宣伝後、芸能ニュースを取り上げる。	ばんぐみせんでんご、げいのーにゅーすをとりあげる。	NO_LABEL
モリ・モモが毎日生き生きと過ごす東海地方のシニア世代の方を紹介するコーナー。	NO_PRONOUNCE	NO_LABEL
メインキャスター・大石が、その日の出来事の中で一番気になるニュースという形で「当日感のある」ネタ1つを深く、多角的に展開する。	NO_PRONOUNCE	NO_LABEL
大石自身のリポートや生中継、スタジオ生など様々なアプローチで「事件の本質」に迫る。	NO_PRONOUNCE	NO_LABEL
CBCのアナウンサーたちが日替わりで東海三県各地へと繰り出し、そこで暮らしている様々な人物を紹介する。	しーびーしーのあなうんさーたちがひがわりでとーかいさんけんかくちえとくりだし、そこでくらしているさまざまなじんぶつをしょーかいする。	NO_LABEL
2010年3月26日まで放送。	にせんじゅうねんさんがつにじゅうろくにちまでほーそー。	NO_LABEL
17:50から放送していた「総力報道!THE NEWS」 → 「イブニングワイド」の前に放送していた。	NO_PRONOUNCE	NO_LABEL
基本概要は「サクラのコレに決めテン!」参照。	NO_PRONOUNCE	NO_LABEL
同コーナーへの集まりが悪いためか、大々的に告知をすることが度々あった。	どーこーなーえのあつまりがわるいためか、だいだいてきにこくちをすることがたびたびあった。	NO_LABEL
一度だけスタジオではなく、岡崎の小学校への取材という形で進行したことがある。	いちどだけすたじおでわなく、おかざきのしょーがっこーえのしゅざいとゆうかたちでしんこーしたことがある。	NO_LABEL
2010年3月10日の放送では、バンクーバーパラリンピックのアイススレッジホッケーに参加する選手の妻が、会場の天候を伺うために電話に登場したことがあった。	にせんじゅうねんさんがつとおかのほーそーでわ、ばんくーばーぱらりんぴっくのあいすすれっじほっけーにさんかするせんしゅのつまが、かいじょーのてんこーをうかがうためにでんわにとーじょーしたことがあった。	NO_LABEL
モリ・モモのモモと小川が東海3県各地から中継を行う。	NO_PRONOUNCE	NO_LABEL
毎週金曜日放送。	まいしゅーきんよーびほーそー。	NO_LABEL
2009年4月の総力報道!THE NEWS内包に伴う放送時間拡大の際に誕生した。	にせんきゅうねんしがつのそーりょくほーどーざにゅーすないほーにともなうほーそーじかんかくだいのさいにたんじょーした。	NO_LABEL
内容は、同番組にて以前存在したコーナー「カワラBANG！7」、及びTBSのローカルパートで放送されていた「カワラBANG！6」に似ており、流行からエンタメ、スポーツまで様々な内容を扱う。	NO_PRONOUNCE	NO_LABEL
Nスタの「エンタメホーリこみっ!」のVTRが使用されることもある。	NO_PRONOUNCE	NO_LABEL
モリ・モモのモモと丸山が東海3県各地から中継を行う。	NO_PRONOUNCE	NO_LABEL
毎週金曜日放送。	まいしゅーきんよーびほーそー。	NO_LABEL
メジャーリーグ情報や中日ドラゴンズ情報など地元のスポーツニュースを数本伝える。	めじゃーりーぐじょーほーやちゅーにちどらごんずじょーほーなどじもとのすぽーつにゅーすをすーほんつたえる。	NO_LABEL
Nスタのスポーツコーナーである「こちら運動部」の映像が使用されることもある。	NO_PRONOUNCE	NO_LABEL
オープニング曲	おーぷにんぐきょく	NO_LABEL
エンディング曲	えんでぃんぐきょく	NO_LABEL
『SAMURAI BASEBALL』で、中日ドラゴンズ主管の試合が開催され、かつ中京広域圏ローカルで放映される場合には、18時台の「東海地方のニュース・スポーツ」枠内で放送するケースが多い。	NO_PRONOUNCE	NO_LABEL
また後半パートは2009年4月から9月まではCBCテレビの判断で度々、「総力報道!THE NEWS」を途中で飛び降りて、19:30より中継を行っていた。	NO_PRONOUNCE	NO_LABEL
見られない時間帯は巨人戦はTBSニュースバード・TBSチャンネル・BS-TBSで、他のカードはJ SPORTSでそれぞれ視聴できる。	NO_PRONOUNCE	NO_LABEL
番組の放送開始当初の放送時間は2時間5分。	ばんぐみのほーそーかいしとーしょのほーそーじかんわにじかんごふん。	NO_LABEL
また、ハイビジョン放送に対応していたのは『東京からのニュース』パートのみであったが、2006年9月4日より全編ハイビジョン放送対応になった。	NO_PRONOUNCE	NO_LABEL
報道スタジオのデジタル化対応工事に伴い、2006年9月から12月までの間『晴れ・どきドキ晴れ』などで使用しているスタジオから放送した。	NO_PRONOUNCE	NO_LABEL
2007年1月からは再び報道スタジオからの放送となった。	にせんななねんいちがつからわふたたびほーどーすたじおからのほーそーとなった。	NO_LABEL
2006年7月5日放送分では、同日未明に日本海に着弾した北朝鮮からの弾道ミサイルの情報を伝えるため、TBSが放送する『イブニング・ファイブ』を番組のオープニング直後から一時的に同時ネットしていた。	NO_PRONOUNCE	NO_LABEL
2009年3月30日より『総力報道!THE NEWS』の全国ネット部分を内包した形態となり、放送時間を3時間5分に拡大した。	NO_PRONOUNCE	NO_LABEL
同時に各種テロップを『THE NEWS』仕様に変更。	NO_PRONOUNCE	NO_LABEL
『総力報道!THE NEWS』の放送時間短縮と、19:50からのスポットニュースの廃枠に伴い、2009年9月28日より放送時間は5分短くなった。	NO_PRONOUNCE	NO_LABEL
『総力報道!THE NEWS』の打ち切りと『Nスタ』の放送開始に伴い、2010年3月29日より放送時間を2時間10分に変更し、同時にスタジオセット・テロップデザイン等をリニューアル。	NO_PRONOUNCE	NO_LABEL
イブニング・ファイブ時代の時差ネットに則り、5時台で全国や海外のニュースを扱う場合は『イブニングワイド』→『Nスタ』のVTR素材を利用し、VTR中のテロップも原則としてそのまま流している。	NO_PRONOUNCE	NO_LABEL
また、重大事件発生時は内容を差し替え、臨時でTBSの同時ネットを行う場合がある。	また、じゅーだいじけんはっせいじわないよーをさしかえ、りんじでてぃーびーえすのどーじねっとをおこなうばあいがある。	NO_LABEL
2013年4月1日より同局で始まった午後の自社制作情報生番組、『ゴゴスマ -GO GO!Smile!-』の最後に大石自らスタジオ入りし、当日放送の内容の予告を行っていたが、2015年9月28日以降の『ゴゴスマ』の枠拡大に伴って取りやめられた。	NO_PRONOUNCE	NO_LABEL
