朴子市は台湾嘉義県の西部に位置する同県の議会所在地。	ぼくししわたいわんかぎけんのせいぶにいちするどーけんのぎかいしょざいち。	NO_LABEL
なお嘉義県庁は太保市に所在している。	なおかぎけんちょーわたいほしにしょざいしている。	NO_LABEL
朴子市は、嘉義県内の嘉義都市圏以外で最大の都市である。	ぼくししわ、かぎけんないのかぎとしけんいがいでさいだいのとしである。	NO_LABEL
もと「樸仔腳」といったが、1920年の地方制度実施の際に「樸仔」を簡略して「朴子」とし、「腳」を除去して現在の地名となった。	NO_PRONOUNCE	NO_LABEL
1992年9月、朴子鎮を朴子市と改める。	せんきゅうひゃくきゅうじゅうにねんくがつ、ぼくこちんをぼくししとあらためる。	NO_LABEL
