林 則清は、日本の警察官僚。	はやしのりきよわ、にっぽんのけいさつかんりょー。	NO_LABEL
キャリア組。	きゃりあぐみ。	NO_LABEL
元警察庁刑事局長・警視監。	NO_PRONOUNCE	NO_LABEL
富山県立富山中部高等学校を経て、1964年3月一橋大学経済学部卒。	とやまけんりつとやまちゅーぶこーをへて、せんきゅうひゃくろくじゅうよねんさんがつひとつばしだいがくけいざいがくぶそつ。	NO_LABEL
民間企業勤務を経て、1969年3月東京大学法学部卒。	みんかんきぎょーきんむをへて、せんきゅうひゃくろくじゅうきゅうねんさんがつとーきょーだいがくほーがくぶそつ。	NO_LABEL
1969年6月、国家公務員I種として警察庁入庁。	NO_PRONOUNCE	NO_LABEL
入庁同期に、漆間巌、金重凱之、中田好昭など。	にゅーちょーどーきに、うるまいわお、かねしげよしゆき、なかたよしあきなど。	NO_LABEL
岐阜県警察本部長、警察庁官房人事課長、警察庁刑事局暴力団対策部長、警視庁公安部長、1998年3月警視庁副総監を経て、1999年1月18日、警察庁刑事局長に就任。	ぎふけんけいさつほんぶちょー、けいさつちょーかんぼーじんじかちょー、けいさつちょーけいじきょくぼーりょくだんたいさくぶちょー、けいさつちょうこーあんぶちょー、せんきゅうひゃくきゅうじゅうはちねんさんがつけいしちょーふくそーかんをへて、せんきゅうひゃくきゅうじゅうきゅうねんいちがつじゅうはちにち、けいさつちょーけいじきょくちょーにしゅーにん。	NO_LABEL
2000年退官。	にせんねんたいかん。	NO_LABEL
2001年1月日立製作所顧問。	にせんいちねんいちがつひたちせいさくしょこもん。	NO_LABEL
2002年6月には地元富山の北陸銀行監査役に就任。	にせんにねんろくがつにわじもととやまのほくりくぎんこーかんさやくにしゅーにん。	NO_LABEL
2003年9月には北陸銀行と、北海道銀行の経営統合により誕生したほくほくフィナンシャルグループ監査役に就任。	にせんさんねんくがつにわほくりくぎんこーと、ほっかいどーぎんこーのけいえいとうごーによりたんじょーしたほくほくふぃなんしゃるぐるーぷかんさやくにしゅーにん。	NO_LABEL
2009年日立情報システムズ顧問就任。	にせんきゅうねんひたちじょーほーしすてむずこもんしゅーにん。	NO_LABEL
警察官僚として刑事畑の王道を進んできた人物で、組織犯罪対策、暴力団対策など社会的影響力の強い事案を中心に多くの実績をあげてきた。	けいさつかんりょーとしてけいじはたけのおーどーをすすんできたじんぶつで、そしきはんざいたいさく、ぼーりょくだんたいさくなどしゃかいてきえいきょーりょくのつよいじあんをちゅーしんにおーくのじっせきをあげてきた。	NO_LABEL
近年社会問題となっている組織犯罪では組織犯罪対策のスペシャリストと評されており、暴力団などの組織犯罪対策で幾つもの武功をあげた。	きんねんしゃかいもんだいとなっているそしきはんざいでわそしきはんざいたいさくのすぺしゃりすととひょーされており、ぼーりょくだんなどのそしきはんざいたいさくでいくつものぶこーをあげた。	NO_LABEL
特に警察庁暴対部長当時は暴力団対策法施行に伴い全国に号令をかけて強化的に暴力団対策運動を推進。	NO_PRONOUNCE	NO_LABEL
全国中に「暴力団追放キャンペーン」を張らせ、暴力団という暴力団を市街から一掃させた。	NO_PRONOUNCE	NO_LABEL
暴力団は市民の敵なので社会的にも警察内部でも林の行動は高く評価され、全国的に名が知られていった。	ぼーりょくだんわしみんのてきなのでしゃかいてきにもけいさつないぶでもはやしのこーどーわたかくひょーかされ、ぜんこくてきにながしられていった。	NO_LABEL
この為、暴力団関係者からは恐れられておりやっかみや反発も多く見られたが、それらも撃ち払う姿勢で積極的に暴対運動に尽力。	NO_PRONOUNCE	NO_LABEL
また、本来は畑違いではあったものの警視庁公安部長も歴任し、思想犯・宗教団体にも目を光らせ、オウム真理教事件の捜査指揮もしていたといわれている。	NO_PRONOUNCE	NO_LABEL
警察庁刑事局長時代、警察庁暴対部長時代は政府参考人として国会へ出席する機会も多く、国会関係者によれば強気な姿勢で豪胆なタイプの官僚であったとされる。	NO_PRONOUNCE	NO_LABEL
日本の刑事警察における指揮官たる警察庁刑事局長にまで昇りつめ、暴対運動を積極的に推進した。	NO_PRONOUNCE	NO_LABEL
警察庁刑事局長在任中の2000年、桶川ストーカー殺人事件への対応をしているなか、「体が動かなくなった」と不調を訴え、入院し過労と診断された。	NO_PRONOUNCE	NO_LABEL
同年には佐藤英彦警察庁次長も執務中に倒れ、入院する異例の事態が続いていた。	どーねんにわさとーひでひこけいさつちょーじちょーもしつむちゅーにたおれ、にゅーいんするいれいのじたいがつずいていた。	NO_LABEL
同年8月24日退官。	どーねんはちがつにじゅうよっかたいかん。	NO_LABEL
その後は日立製作所顧問に就任。	そのごわひたちせいさくしょこもんにしゅーにん。	NO_LABEL
日本中央競馬会審査会委員も兼務している。	にっぽんちゅーおーけいばかいしんさかいいいんもけんむしている。	NO_LABEL
他に、組織犯罪対策関連の書籍を幾つも出版しており、組織犯罪が横行する昨今、再び注目を集めている。	たに、そしきはんざいたいさくかんれんのしょせきをいくつもしゅっぱんしており、そしきはんざいがおーこーするさっこん、ふたたびちゅーもくをあつめている。	NO_LABEL
また読売新聞本社会長・主筆の渡邉恒雄と確執があるらしく、渡邉に対してかなりの苦言を呈していたことが知られている。	NO_PRONOUNCE	NO_LABEL
