吉沢 岳男は、長野県松本市出身の元プロ野球選手。	よしざわたけおわ、ながのけんまつもとししゅっしんのもとぷろやきゅーせんしゅ。	NO_LABEL
松商学園時代には甲子園に4度出場し、控え捕手であった1950年の夏の選手権は1回戦で済々黌高に敗退。	まつしょーがくえんじだいにわこーしえんによんどしゅつじょーし、ひかえほしゅであったせんきゅうひゃくごじゅうねんのなつのせんしゅけんわいちかいせんでせいせいこーだかにはいたい。	NO_LABEL
2年生から正捕手となり、1951年の夏の選手権に出場したが、2回戦で平安高に敗退。	にねんせいからせいほしゅとなり、せんきゅうひゃくごじゅういちねんのなつのせんしゅけんにしゅつじょーしたが、にかいせんでへいあんだかにはいたい。	NO_LABEL
3年次の1952年、春の選抜で1年下のエース・堀内庄とバッテリーを組み、1回戦で芦屋の植村義信に抑えられて敗退。	NO_PRONOUNCE	NO_LABEL
同年の夏の選手権では2回戦で柳井商工の森永勝治に完封負けを喫する。	どーねんのなつのせんしゅけんでわにかいせんでやないしょーこーのもりながかつじにかんぷーまけをきっする。	NO_LABEL
1953年に名古屋ドラゴンズへ入団。	せんきゅうひゃくごじゅうさんねんになごやどらごんずえにゅーだん。	NO_LABEL
野口明・河合保彦の存在もあって出場機会には恵まれなかったが、1955年には一軍に定着。	NO_PRONOUNCE	NO_LABEL
1957年には河合からレギュラーの座を奪って82試合に出場し、その後も正捕手の座を守る。	せんきゅうひゃくごじゅうしちねんにわかわいかられぎゅらーのざをうばってはちじゅうにしあいにしゅつじょーし、そのごもせいほしゅのざをまもる。	NO_LABEL
打者の読みを外すインサイドワークで投手陣を引っ張ったが、濃人渉監督との対立により1962年に近鉄バファローズへ移籍。	だしゃのよみをはずすいんさいどわーくでとーしゅじんをひっぱったが、のうにんわたるかんとくとのたいりつによりせんきゅうひゃくろくじゅうにねんにきんてつばふぁろーずえいせき。	NO_LABEL
近鉄では1964年に自己最高の打率.258を記録するなど1966年まで正捕手として活躍するが、1967年からはコーチ兼任となり、木村重視・児玉弘義に定位置を譲る。	NO_PRONOUNCE	NO_LABEL
1969年に相川進・杉斉英とのトレードで中日へ復帰するが、同年限りで現役を引退。	NO_PRONOUNCE	NO_LABEL
引退後はトラック運転手に転身したが、妻と離婚。	いんたいごわとらっくうんてんしゅにてんしんしたが、つまとりこん。	NO_LABEL
晩年はたこ焼き店に店員として勤務していたが、1971年7月15日、自身の誕生日に脳出血のため自宅で死去。	ばんねんわたこやきてんにてんいんとしてきんむしていたが、せんきゅうひゃくななじゅういちねんしちがつじゅうごにち、じしんのたんじょーびにのーしゅっけつのためじたくでしきょ。	NO_LABEL
当時は新聞記事等で「扇風機の切り忘れは突然死の原因となる」という説が紹介されていたため、吉沢の死もそれが原因であるかのように語られることがある。	NO_PRONOUNCE	NO_LABEL
