ウィルソン・キプルグトは、ケニアの陸上競技選手。	うぃるそんきぷるぐとわ、けにあのりくじょーきょーぎせんしゅ。	NO_LABEL
800mの選手として1964年東京オリンピックに出場。	はっぴゃくめーとるのせんしゅとしてせんきゅうひゃくろくじゅうよねんとーきょーおりんぴっくにしゅつじょー。	NO_LABEL
1分45秒9の記録で、ニュージーランドのピーター・スネル、カナダのビル・クローザースについで銅メダルを獲得。	NO_PRONOUNCE	NO_LABEL
キプルグトは4年後のメキシコオリンピックにも出場し、1分44秒5の記録でオーストラリアのラルフ・ドーベルに次いで銀メダルを獲得した。	NO_PRONOUNCE	NO_LABEL
