幹本 雄之は、日本の声優、俳優、ナレーターである。	みきもとゆーのわ、にっぽんのせいゆー、はいゆー、なれーたーである。	NO_LABEL
アーツビジョン所属。	あーつびじょんしょぞく。	NO_LABEL
新潟県出身。	にーがたけんしゅっしん。	NO_LABEL
旧名および本名は宮下 勝。	きゅーめいおよびほんみょーわみやしたまさる。	NO_LABEL
身長185cm。	しんちょーひゃくはちじゅうごせんちめーとる。	NO_LABEL
血液型はB型。	けつえきがたわびーがた。	NO_LABEL
東映演技研修所、黒沢良アテレコ教室、劇団京、ぐるーぷえいと、九プロダクションを経てアーツビジョン所属。	とーえいえんぎけんしゅーしょ、くろさわりょーあてれこきょーしつ、げきだんきょー、ぐるーぷえいと、きゅーぷろだくしょんをへてあーつびじょんしょぞく。	NO_LABEL
歴戦の戦士などの役柄を演じることが多いが、ギャグキャラクターを演じることもある。	れきせんのせんしなどのやくがらをえんじることがおーいが、ぎゃぐきゃらくたーをえんじることもある。	NO_LABEL
『SLAM DUNK』の野間忠一郎や『機動戦士ガンダム0083 STARDUST MEMORY』のチャップ・アデルなどの外見が年齢以上の人物を演じることが多い。	NO_PRONOUNCE	NO_LABEL
今川泰宏監督のアニメに度々出演している。	いまがわやすひろかんとくのあにめにたびたびしゅつえんしている。	NO_LABEL
「熱血漢のキャラクターは自分の持ち味が活かせる」という。	NO_PRONOUNCE	NO_LABEL
1974年	せんきゅうひゃくななじゅうよねん	NO_LABEL
1975年	せんきゅうひゃくななじゅうごねん	NO_LABEL
1976年	せんきゅうひゃくななじゅうろくねん	NO_LABEL
1977年	せんきゅうひゃくななじゅうななねん	NO_LABEL
1978年	せんきゅうひゃくななじゅうはちねん	NO_LABEL
1979年	せんきゅうひゃくななじゅうきゅうねん	NO_LABEL
1980年	せんきゅうひゃくはちじゅうねん	NO_LABEL
1982年	せんきゅうひゃくはちじゅうにねん	NO_LABEL
1983年	せんきゅうひゃくはちじゅうさんねん	NO_LABEL
1984年	せんきゅうひゃくはちじゅうよねん	NO_LABEL
1985年	せんきゅうひゃくはちじゅうごねん	NO_LABEL
1986年	せんきゅうひゃくはちじゅうろくねん	NO_LABEL
1987年	せんきゅうひゃくはちじゅうななね	NO_LABEL
1988年	せんきゅうひゃくはちじゅうはちねん	NO_LABEL
1989年	せんきゅうひゃくはちじゅうきゅうねん	NO_LABEL
1990年	せんきゅうひゃくきゅうじゅうねん	NO_LABEL
1991年	せんきゅうひゃくきゅうじゅういちねん	NO_LABEL
1992年	せんきゅうひゃくきゅうじゅうにねん	NO_LABEL
1993年	せんきゅうひゃくきゅうじゅうさんねん	NO_LABEL
1994年	せんきゅうひゃくきゅうじゅうよねん	NO_LABEL
1995年	せんきゅうひゃくきゅうじゅうごねん	NO_LABEL
1996年	せんきゅうひゃくきゅうじゅうろくねん	NO_LABEL
1997年	せんきゅうひゃくきゅうじゅうなな	NO_LABEL
1998年	せんきゅうひゃくきゅうじゅうはちねん	NO_LABEL
1999年	せんきゅうひゃくきゅうじゅうきゅうねん	NO_LABEL
2001年	にせんいちねん	NO_LABEL
2002年	にせんにねん	NO_LABEL
2003年	にせんさんねん	NO_LABEL
2004年	にせんよねん	NO_LABEL
2005年	にせんごねん	NO_LABEL
2007年	にせんななねん	NO_LABEL
2008年 	にせんはちねん	NO_LABEL
2014年	にせんじゅうよねん	NO_LABEL
2016年	にせんじゅうろくねん	NO_LABEL
1986年	せんきゅうひゃくはちじゅうろくねん	NO_LABEL
1987年	せんきゅうひゃくはちじゅうななね	NO_LABEL
1988年	せんきゅうひゃくはちじゅうはちねん	NO_LABEL
1990年	せんきゅうひゃくきゅうじゅうねん	NO_LABEL
1991年	せんきゅうひゃくきゅうじゅういちねん	NO_LABEL
1992年	せんきゅうひゃくきゅうじゅうにねん	NO_LABEL
1993年	せんきゅうひゃくきゅうじゅうさんねん	NO_LABEL
1996年	せんきゅうひゃくきゅうじゅうろくねん	NO_LABEL
1997年	せんきゅうひゃくきゅうじゅうなな	NO_LABEL
1998年	せんきゅうひゃくきゅうじゅうはちねん	NO_LABEL
2002年	にせんにねん	NO_LABEL
2017年	にせんじゅうななねん	NO_LABEL
1978年	せんきゅうひゃくななじゅうはちねん	NO_LABEL
1984年	せんきゅうひゃくはちじゅうよねん	NO_LABEL
1992年	せんきゅうひゃくきゅうじゅうにねん	NO_LABEL
1994年	せんきゅうひゃくきゅうじゅうよねん	NO_LABEL
1995年	せんきゅうひゃくきゅうじゅうごねん	NO_LABEL
1998年	せんきゅうひゃくきゅうじゅうはちねん	NO_LABEL
2000年	にせんねん	NO_LABEL
2007年	にせんななねん	NO_LABEL
2009年	にせんきゅうねん	NO_LABEL
2006年	にせんろくねん	NO_LABEL
1992年	せんきゅうひゃくきゅうじゅうにねん	NO_LABEL
1998年	せんきゅうひゃくきゅうじゅうはちねん	NO_LABEL
1999年	せんきゅうひゃくきゅうじゅうきゅうねん	NO_LABEL
2000年	にせんねん	NO_LABEL
2001年	にせんいちねん	NO_LABEL
2002年	にせんにねん	NO_LABEL
2003年	にせんさんねん	NO_LABEL
2004年	にせんよねん	NO_LABEL
2005年	にせんごねん	NO_LABEL
2006年	にせんろくねん	NO_LABEL
2007年	にせんななねん	NO_LABEL
2008年	にせんはちねん	NO_LABEL
2009年	にせんきゅうねん	NO_LABEL
2011年	にせんじゅういちねん	NO_LABEL
2012年	にせんじゅうにねん	NO_LABEL
2014年	にせんじゅうよねん	NO_LABEL
2016年	にせんじゅうろくねん	NO_LABEL
1987年	せんきゅうひゃくはちじゅうななね	NO_LABEL
1994年	せんきゅうひゃくきゅうじゅうよねん	NO_LABEL
1995年	せんきゅうひゃくきゅうじゅうごねん	NO_LABEL
1996年	せんきゅうひゃくきゅうじゅうろくねん	NO_LABEL
2003年	にせんさんねん	NO_LABEL
2006年	にせんろくねん	NO_LABEL
2008年	にせんはちねん	NO_LABEL
2011年	にせんじゅういちねん	NO_LABEL
