アハイア県は、ギリシャ共和国の西ギリシャ地方を構成する行政区のひとつ。	あはいあけんわ、ぎりしゃきょーわこくのにしぎりしゃちほーをこーせいするぎょーせいくのひとつ。	NO_LABEL
ペロポネソス半島の北部に位置する。	ぺろぽねそすはんとーのほくぶにいちする。	NO_LABEL
古代にはアカイアと呼ばれた地域であり、アカイア県とも表記される。	こだいにわあかいあとよばれたちいきであり、あかいあけんともひょーきされる。	NO_LABEL
県都はパトラ。	けんとわぱとら。	NO_LABEL
人口は2001年に30万人を突破した。	じんこーわにせんいちねんにさんじゅうまんにんをとっぱした。	NO_LABEL
現在のアハイア県は、ペロポネソス半島の北部沿岸に位置している。	げんざいのあはいあけんわ、ぺろぽねそすはんとーのほくぶえんがんにいちしている。	NO_LABEL
県北部はコリンティアコス湾に面した、小さい肥沃な平野となっており、また県南部にはやキリニ山脈といった山々が連なっている。	けんほくぶわこりんてぃあこすわんにめんした、ちーさいひよくなへいやとなっており、またけんなんぶにはやきりにさんみゃくといったやまやまがつらなっている。	NO_LABEL
アハイア県の西はイリア県、東はコリンティア県とそれぞれ接している。	あはいあけんのにしわいりあけん、ひがしわこりんてぃあけんとそれぞれせっしている。	NO_LABEL
アハイア県の東部にはとマラティア山脈が、中央部にはが、南東部には山脈が、南西部にはが、西部にはがそれぞれ連なっている。	あはいあけんのとーぶにわとまらてぃあさんみゃくが、ちゅーおーぶにわが、なんとーぶにわさんみゃくが、なんせいぶにわが、せいぶにわがそれぞれつらなっている。	NO_LABEL
また、県内にはラリソス川やなどが流れている。	また、けんないにわらりそすがわやなどがながれている。	NO_LABEL
森林は山地と西部の平原に多く、また高地部のうち標高が高い土地は植物が育たず、それ以外は草原となっている。	しんりんわさんちとせいぶのへいげんにおーく、またこーちぶのうちひょーこーがたかいとちわしょくぶつがそだたず、それいがいわそーげんとなっている。	NO_LABEL
アハイア県の夏は気温が高く、冬は温暖である。	あはいあけんのなつわきおんがたかく、ふゆわおんだんである。	NO_LABEL
夏には海岸部の地域は晴天が続くが、高地部では曇天や雨天になることが多い。	なつにわかいがんぶのちいきわせいてんがつずくが、こーちぶでわどんてんやうてんになることがおーい。	NO_LABEL
また冬には山地では雪が主に見られる一方で、低地部では気温が10°C前後となる。	NO_PRONOUNCE	NO_LABEL
アハイア県にはペロポネソス半島の3分の1の人口が居住し、またアハイア県の人口の3分の2は、アハイア県の県都であるパトラに居住している。	あはいあけんにわぺろぽねそすはんとーのさんぶんのいちのじんこーがきょじゅーし、またあはいあけんのじんこーのさんぶんのにわ、あはいあけんのけんとであるぱとらにきょじゅーしている。	NO_LABEL
アハイア県の主な工業地帯は、パトラの20km南に位置するファレス近郊、およびヴラフネイカの地域に広がっている。	NO_PRONOUNCE	NO_LABEL
アハイア県の名称の由来であるアカイア人は、『イリアス』においてはギリシア軍を指す言葉であった。	NO_PRONOUNCE	NO_LABEL
紀元前13世紀ごろのヒッタイト人の文書には、アカイア人がアヒヤワとして述べられている。	きげんぜんじゅうさんせいきごろのひったいとじんのぶんしょにわ、あかいあじんがあひやわとしてのべられている。	NO_LABEL
また、『イリアス』の「船舶一覧」において、アカイア人はアルゴスからティリンスまでの人々とされていたが、一説によると、ドーリア人がペロポネソス半島に進入した際、アカイア人はこの地に追いやられたのだという。	NO_PRONOUNCE	NO_LABEL
また、アカイア人の起源の地は、テッサリア地方南部にある"アカイア・フティオティス"と呼ばれた地域であるという。	NO_PRONOUNCE	NO_LABEL
紀元前146年に、共和政ローマがこの地を征服し併合すると、テッサリア地方とイピロス地方の大部分、アカルナニア地方を除いたギリシア全土がアカエア属州となった。	きげんぜんひゃくよんじゅうろくねんに、きょーわせいろーまがこのちをせいふくしへいごーすると、てっさりあちほーといぴろすちほーのだいぶぶん、あかるなにあちほーをのぞいたぎりしあぜんどがあかえあぞくしゅーとなった。	NO_LABEL
そのために『新約聖書』においてもこの地域はアカエアとして呼ばれた。	NO_PRONOUNCE	NO_LABEL
ローマ皇帝アウグストゥスは、アカエア属州が地理的にローマに近いために、アカエア属州を元老院属州とした。	ろーまこーていあうぐすとぅすわ、あかえあぞくしゅーがちりてきにろーまにちかいために、あかえあぞくしゅーをげんろーいんぞくしゅーとした。	NO_LABEL
アカエア属州は、プラエトルの役職を経験した属州総督によって統治され、州都はコリントとされた。	あかえあぞくしゅーわ、ぷらえとるのやくしょくをけいけんしたぞくしゅーそーとくによってとーちされ、しゅーとわこりんととされた。	NO_LABEL
しかし、属州内にローマ兵は配置されず、古来からの宗教や社会も認められるなど、ローマ帝国の支配は寛容的なものであった。	しかし、ぞくしゅーないにろーまへいわはいちされず、こらいからのしゅーきょーやしゃかいもみとめられるなど、ろーまていこくのしはいわかんよーてきなものであった。	NO_LABEL
アウグストゥス帝の死後の紀元後15年には、アカエア属州はマケドニア属州と合併され、ドナウ川沿いのモエシア属州の総督が管轄する皇帝属州となった。	あうぐすとぅすみかどのしごのきげんごじゅうごねんにわ、あかえあぞくしゅーわまけどにあぞくしゅーとがっぺいされ、どなうがわぞいのもえしあぞくしゅーのそーとくがかんかつするこーていぞくしゅーとなった。	NO_LABEL
しかし、44年に国境で変事が起こり、再び分割された。	しかし、よんじゅうよんねんにこっきょーでへんじがおこり、ふたたびぶんかつされた。	NO_LABEL
67年に皇帝ネロは、ギリシアがローマ帝国から政治的に自由であるべきだと宣言し、ギリシア人は自治権を得た。	ろくじゅうななねんにこーていねろわ、ぎりしあがろーまていこくからせいじてきにじゆーであるべきだとせんげんし、ぎりしあじんわじちけんをえた。	NO_LABEL
しかしその後のヴェスパシアヌス帝によって、アカエア属州は自治権を失い、再び元老院属州となった。	NO_PRONOUNCE	NO_LABEL
3世紀末のディオクレティアヌス帝の治世まで、アカエア属州はローマ帝国の属州であり続け、ローマ帝国が東西に分裂すると、東ローマ帝国領となった。	さんせいきまつのでぃおくれてぃあぬすみかどのちせいまで、あかえあぞくしゅーわろーまていこくのぞくしゅーでありつずけ、ろーまていこくがとーざいにぶんれつすると、ひがしろーまていこくりょーとなった。	NO_LABEL
13世紀には、第4回十字軍によってアカイア公国が建国されたが、15世紀半ばにアカイア公国はオスマン帝国によって征服された。	じゅうさんせいきにわ、だいよんかいじゅーじぐんによってあかいあこーこくがけんこくされたが、じゅうごせいきなかばにあかいあこーこくわおすまんていこくによってせいふくされた。	NO_LABEL
16世紀末と17世紀にはヴェネツィア共和国による侵略を受けたが、再びオスマン帝国が支配するに至った。	NO_PRONOUNCE	NO_LABEL
1821年にアハイア県の地域はギリシャ王国の一部となった。	せんはっぴゃくにじゅういちねんにあはいあけんのちいきわぎりしゃおーこくのいちぶとなった。	NO_LABEL
ギリシャ独立戦争においてエギオの町は、ギリシャ人によって解放された初めの町であった。	ぎりしゃどくりつせんそーにおいてえぎおのまちわ、ぎりしゃじんによってかいほーされたはじめのまちであった。	NO_LABEL
ギリシャ王国領となったこの地域は、現在のアハイア県およびイリダ県を含んだ、アハイア＝イリダ県として誕生し、面積は約6,000 km²であった。	NO_PRONOUNCE	NO_LABEL
アハイア＝イリダ県は1899年に分割されたが、1909年に元に戻され、1936年に再び分割された。	NO_PRONOUNCE	NO_LABEL
1919年から1922年にかけての希土戦争の際、何万人もの小アジアからの避難民がアハイア県に流入し、パトラ郊外や近隣の集落に居住地を建設して移住した。	せんきゅうひゃくじゅうきゅうねんからせんきゅうひゃくにじゅうにねんにかけてのきとせんそーのさい、なにばんにんものしょーあじあからのひなんみんがあはいあけんにりゅーにゅーし、ぱとらこーがいやきんりんのしゅーらくにきょじゅーちをけんせつしていじゅーした。	NO_LABEL
その後の第2次世界大戦とギリシャ内戦では、多くの建造物が破壊された。	そのごのだいにじせかいたいせんとぎりしゃないせんでわ、おーくのけんぞーぶつがはかいされた。	NO_LABEL
1994年には地震の被害を受け、2007年には山火事が発生した。	せんきゅうひゃくきゅうじゅうよねんにわじしんのひがいをうけ、にせんななねんにわやまかじがはっせいした。	NO_LABEL
アハイア県は、以下の自治体から構成される。	あはいあけんわ、いかのじちたいからこーせいされる。	NO_LABEL
人口は2001年国勢調査時点。	じんこーわにせんいちねんこくせいちょうさじてん。	NO_LABEL
カリクラティス改革以前の広域自治体としてのアハイア県は、以下の23の基礎自治体から構成されていた。	NO_PRONOUNCE	NO_LABEL
改革後、旧自治体は新自治体を構成する行政区となっている。	かいかくご、きゅーじちたいわしんじちたいをこーせいするぎょーせいくとなっている。	NO_LABEL
ディモティキ・エノティタは、さらにキノティタ）に分けられる。	NO_PRONOUNCE	NO_LABEL
下表の番号は右図と対応している。	かひょーのばんごーわみぎずとたいおーしている。	NO_LABEL
「自治体名」欄で※印を付したものはキノティタ、それ以外はディモス。	NO_PRONOUNCE	NO_LABEL
「政庁所在地」欄で太字になっているものは、新自治体の政庁所在地となったものを示す。	NO_PRONOUNCE	NO_LABEL
県には以下の郡があったが、2006年以降法的な位置づけは行われていない。	けんにわいかのぐんがあったが、にせんろくねんいこーほーてきないちずけわおこなわれていない。	NO_LABEL
