新東京ビルヂングは、東京都千代田区丸の内三丁目に所在するオフィスビルである。	しんとーきょーびるじんぐわ、とーきょーとちよだくまるのーちさんちょーめにしょざいするおふぃすびるである。	NO_LABEL
日興証券は昭和30年代前半の岩戸景気で業容を拡大していたことから、事務所を賃借していた三菱地所に対しスペース拡大の強い要望を出していた。	にっこーしょーけんわしょーわさんじゅうねんだいぜんはんのいわとけいきでぎょーよーをかくだいしていたことから、じむしょをちんしゃくしていたみつびしじしょにたいしすぺーすかくだいのつよいよーぼーをだしていた。	NO_LABEL
これに応じるべく、1896年竣工の三菱東7号館、1912年竣工の三菱仲6号館、1910年竣工の三菱仲8号館、および1914年竣工の三菱21号館の建替えを決定した。	これにおーじるべく、せんはっぴゃくきゅうじゅうろくねしゅんこーのみつびしひがしななごーかん、せんきゅうひゃくじゅうにねんしゅんこーのみつびしなかろくごーかん、せんきゅうひゃくじゅうねんしゅんこーのみつびしなかはちごーかん、およびせんきゅうひゃくじゅうよねんしゅんこーのみつびしにじゅういちごーかんのたてかえをけっていした。	NO_LABEL
このうち南東側にあたる21号館はテナント移転の都合で第2期計画として建設されることとなった。	このうちなんとーがわにあたるにじゅういちごーかんわてなんといてんのつごーでだいにきけいかくとしてけんせつされることとなった。	NO_LABEL
1961年8月より東7号館、仲6号館、仲8号館が順次解体されたが、岩戸景気がもたらした輸入の増加により国際収支が悪化。	せんきゅうひゃくろくじゅういちねんはちがつよりひがしななごーかん、なかろくごーかん、なかはちごーかんがじゅんじかいたいされたが、いわとけいきがもたらしたゆにゅーのぞーかによりこくさいしゅーしがあっか。	NO_LABEL
政府は「建設投資調整協議会」を設置し、不要不急の一定規模の建設投資を抑制する方針を示した。	NO_PRONOUNCE	NO_LABEL
三菱地所は、本建替え案を含む丸の内の改造は、駐車場設置・丸の内仲通りの拡幅による交通対策や、地下に東京電力の変電所を設けるなど公益に資するとして、建設省の担当部署である住宅局と協議を重ねた。	NO_PRONOUNCE	NO_LABEL
その結果、三菱21号館部分の建設を延期することで工事継続の了承が得られた。	そのけっか、みつびしにじゅういちごーかんぶぶんのけんせつをえんきすることでこーじけいぞくのりょーしょーがえられた。	NO_LABEL
1961年11月15日に地鎮祭を挙行。	せんきゅうひゃくろくじゅういちねんじゅーいちがつじゅうごにちにじちんさいをきょこー。	NO_LABEL
大成建設により施工され、東側を上にしたL字型の建物として1963年6月24日に竣工。	NO_PRONOUNCE	NO_LABEL
「新東京ビルヂング」と命名された。	NO_PRONOUNCE	NO_LABEL
その間の1962年秋には輸出が改善したことから建設投資抑制政策は解除され、1963年9月からは21号館の解体にも着手し、1965年4月28日に全面完成。	そのかんのせんきゅうひゃくろくじゅうにねんあきにわゆしゅつがかいぜんしたことからけんせつとーしよくせいせいさくわかいじょされ、せんきゅうひゃくろくじゅうさんねんくがつからわにじゅういちごーかんのかいたいにもちゃくしゅし、せんきゅうひゃくろくじゅうごねんしがつにじゅうはちにちにぜんめんかんせい。	NO_LABEL
同年5月には低層階の商店街もオープンした。	どーねんごがつにわていそーかいのしょーてんがいもおーぷんした。	NO_LABEL
当初の予定通り日興証券本店が入居したほか、解体された旧建物のテナントも規模を拡大して再び入居した。	とーしょのよていどーりにっこーしょーけんほんてんがにゅーきょしたほか、かいたいされたきゅーたてもののてなんともきぼをかくだいしてふたたびにゅーきょした。	NO_LABEL
2016年現在、SMBC日興証券本店のほか吉野石膏本社などが入居する。	にせんじゅうろくねんげんざい、えすえむびーしーにっこーしょーけんほんてんのほかよしのせっこーほんしゃなどがにゅーきょする。	NO_LABEL
