プカンバルは、インドネシアのスマトラ島中部リアウ州の都市である。	ぷかんばるわ、いんどねしあのすまとらとーちゅーぶりあうしゅーのとしである。	NO_LABEL
リアウ州の州都である。	りあうしゅーのしゅーとである。	NO_LABEL
マラッカ海峡に注ぐシアク川の岸辺に位置し、海峡へ直接アクセスでき、貿易港として知られてきた。	まらっかかいきょーにそそぐしあくがわのきしべにいちし、かいきょーえちょくせつあくせすでき、ぼーえきこーとしてしられてきた。	NO_LABEL
都市の名前は、インドネシア語で"新しい市場"または"新しい町"の意味である。	NO_PRONOUNCE	NO_LABEL
17世紀には現在の街にすでに居住者がいた。	じゅうしちせいきにわげんざいのまちにすでにきょじゅーしゃがいた。	NO_LABEL
19世紀後半、コーヒー栽培や、石炭産業のために建設され、オランダが物資をシンガポールやマラッカに輸送するために、道路が造られた。	じゅうきゅうせいきこーはん、こーひーさいばいや、せきたんさんぎょーのためにけんせつされ、おらんだがぶっしをしんがぽーるやまらっかにゆそーするために、どーろがつくられた。	NO_LABEL
