吉備津彦命は、記紀等に伝わる古代日本の皇族。	きびつひこのみことわ、ききとーにつたわるこだいにっぽんのこーぞく。	NO_LABEL
第7代孝霊天皇皇子である。	だいななだいこーれいてんのーおーじである。	NO_LABEL
四道将軍の1人で、西道に派遣されたという。	しどうしょーぐんのひとりで、さいどーにはけんされたという。	NO_LABEL
『日本書紀』『古事記』とも、「キビツヒコ」は亦の名とし、本来の名は「ヒコイサセリヒコ」とする。	NO_PRONOUNCE	NO_LABEL
それぞれ表記は次の通り。	それぞれひょーきわつぎのとーり。	NO_LABEL
そのほか、文献では「キビツヒコ」を「吉備都彦」とする表記も見られる。	NO_PRONOUNCE	NO_LABEL
第7代孝霊天皇と、妃の倭国香媛との間に生まれた皇子である。	だいななだいこーれいてんのーと、きさきのわのくにこーひめとのまにうまれたおーじである。	NO_LABEL
同母兄弟として、『日本書紀』によると倭迹迹日百襲媛命、倭迹迹稚屋姫命があり、『古事記』では2人に加えて日子刺肩別命の名を記載する。	NO_PRONOUNCE	NO_LABEL
異母兄弟のうちでは、同じく吉備氏関係の稚武彦命が知られる。	いぼきょーだいのうちでわ、どうじくきびうじかんけいのわかたけひこのみことがしられる。	NO_LABEL
子に関して、『日本書紀』『古事記』には記載はない。	NO_PRONOUNCE	NO_LABEL
『日本書紀』崇神天皇10年9月9日条では、吉備津彦を西道に派遣するとあり、同書では北陸に派遣される大彦命、東海に派遣される武渟川別、丹波に派遣される丹波道主命とともに「四道将軍」と総称されている。	NO_PRONOUNCE	NO_LABEL
同書崇神天皇9月27日条によると、派遣に際して武埴安彦命とその妻の吾田媛の謀反が起こったため、五十狭芹彦命が吾田媛を、大彦命と彦国葺が武埴安彦命を討った。	NO_PRONOUNCE	NO_LABEL
その後、四道将軍らは崇神天皇10年10月22日に出発し、崇神天皇11年4月28日に平定を報告したという。	そのご、しどうしょーぐんらわすじんてんのーじゅうねんじゅーがつにじゅうににちにしゅっぱつし、すじんてんのーじゅういちねんしがつにじゅうはちにちにへいていをほーこくしたという。	NO_LABEL
また同書崇神天皇60年7月14日条によると、天皇の命により吉備津彦と武渟川別は出雲振根を誅殺している。	またどーしょすじんてんのーろくじゅうねんしちがつじゅうよっかじょーによると、てんのーのいのちによりきびつひことたけぬなかわわけわいずもふるねをちゅーさつしている。	NO_LABEL
『古事記』では『日本書紀』と異なり、孝霊天皇の時に弟の若日子建吉備津彦命とともに派遣されたとし、針間の氷河之前に忌瓮をすえ、針間を道の口として吉備国平定を果たしたという。	NO_PRONOUNCE	NO_LABEL
崇神天皇段では派遣の説話はない。	すじんてんのーだんでわはけんのせつわわない。	NO_LABEL
吉備津彦命の墓は、宮内庁により岡山県岡山市北区吉備津にある大吉備津彦命墓に治定されている。	きびつひこのみことのはかわ、くないちょーによりおかやまけんおかやましきたくきびつにあるおおきびつひこのみことはかにじじょーされている。	NO_LABEL
公式形式は前方後円。	こーしきけいしきわぜんぽーこーえん。	NO_LABEL
考古学名は「中山茶臼山古墳」で、吉備の中山の山上に位置する墳丘長108メートルの前方後円墳である。	NO_PRONOUNCE	NO_LABEL
また、吉備の中山の麓の吉備津神社は、国史にも見える吉備津彦命の霊廟として知られる。	また、きびのなかやまのふもとのきびつじんじゃわ、こくしにもみえるきびつひこのみことのれいびょーとしてしられる。	NO_LABEL
同社の国史での初見は『続日本後紀』承和14年10月22日条で、「吉備津彦命神」に対して従四位下の神階が授けられたというが、のちに神階は位階から品位へと変わり、貞観元年1月27日に二品まで昇っている。	NO_PRONOUNCE	NO_LABEL
品位を神階に使用する例は少なく、全国でも吉備津彦命のほか八幡神・八幡比咩神、伊佐奈岐命の4神のみで、吉備津彦命と一般諸神との神格の違いが指摘される。	NO_PRONOUNCE	NO_LABEL
この吉備津神社社伝では、吉備津彦命は吉備の中山の麓に茅葺宮を建てて住み、281歳で亡くなり山頂に葬られたという。	このきびつじんじゃしゃでんでわ、きびつひこのみことわきびのなかやまのふもとにかやぶきみやをたててすみ、にひゃくはちじゅういっさいでなくなりさんちょーにほーむられたという。	NO_LABEL
以上の吉備津神社の存在から、吉備津彦命が古くは「吉備政権」構成諸部族から始祖に位置づけられたとする説もある。	NO_PRONOUNCE	NO_LABEL
また吉備の中山の北東麓では、同じく吉備津彦命を祀る吉備津彦神社が知られる。	またきびのなかやまのほくとーふもとでわ、どうじくきびつひこのみことをまつるきびつひこじんじゃがしられる。	NO_LABEL
『日本書紀』では吉備津彦命の後裔氏族に関する記載はなく、弟の稚武彦命を吉備臣祖とする。	NO_PRONOUNCE	NO_LABEL
一方『古事記』では、吉備津彦命を吉備上道臣の祖、稚武彦命を吉備下道臣・笠臣の祖とする。	NO_PRONOUNCE	NO_LABEL
また『続日本紀』天平神護元年5月20日条では、播磨国賀古郡の馬養造人上が吉備都彦苗裔の上道臣息長借鎌の子孫であると言上しており、「印南野臣」が賜姓されている。	NO_PRONOUNCE	NO_LABEL
『新撰姓氏録』では、次の氏族が後裔として記載されている。	NO_PRONOUNCE	NO_LABEL
『先代旧事本紀』「国造本紀」では、次の国造が後裔として記載されている。	NO_PRONOUNCE	NO_LABEL
上述の吉備津神社の縁起として、吉備津彦命が吉備平定にあたって温羅という鬼を討ったという伝承が岡山県を中心として広く知られる。	じょーじゅつのきびつじんじゃのえんぎとして、きびつひこのみことがきびへいていにあたってうらとゆうおにをうったとゆうでんしょーがおかやまけんをちゅーしんとしてひろくしられる。	NO_LABEL
これによると、温羅は鬼ノ城に住んで地域を荒らしたが、吉備津彦命は犬飼健・楽々森彦・留玉臣という3人の家来とともに討ち、その祟りを鎮めるために温羅の首を吉備津神社の釜の下に封じたという。	NO_PRONOUNCE	NO_LABEL
この伝説は物語「桃太郎」のモチーフになったともいわれる。	NO_PRONOUNCE	NO_LABEL
吉備地域には伝説の関係地が多く伝わっているほか、伝説に関連する吉備津神社の鳴釜神事は上田秋成の『雨月物語』中の「吉備津の釜」においても記されている。	NO_PRONOUNCE	NO_LABEL
この伝承では、温羅は討伐される側の人物として記述される。	このでんしょーでわ、うらわとーばつされるがわのじんぶつとしてきじゅつされる。	NO_LABEL
しかし、吉備は「真金吹く吉備」という言葉にも見えるように古くから鉄の産地として知られることから、温羅は製鉄技術をもたらして吉備を繁栄させた渡来人であるとする見方や、鉄文化を象徴する人物とする見方もある。	NO_PRONOUNCE	NO_LABEL
また、吉備津神社の本来の祭神を温羅と見る説もあり、その中でヤマト王権に吉備が服属する以前の同社には吉備の祖神、すなわち温羅が祀られていたとし、服属により祭神がヤマト王権系の吉備津彦命に入れ替わったと指摘されている。	また、きびつじんじゃのほんらいのさいじんをうらとみるせつもあり、そのなかでやまとおーけんにきびがふくぞくするいぜんのどーしゃにわきびのそしん、すなわちうらがまつられていたとし、ふくぞくによりさいじんがやまとおーけんけいのきびつひこのみことにいれかわったとしてきされている。	NO_LABEL
全国の吉備津彦命を祀る代表的な神社は次の通り。	ぜんこくのきびつひこのみことをまつるだいひょーてきなじんじゃわつぎのとーり。	NO_LABEL
書籍	しょせき	NO_LABEL
サイト	さいと	NO_LABEL
