小野村 健太郎は、日本の医師。	おのむらけんたろーわ、にっぽんのいし。	NO_LABEL
山口県出身。	やまぐちけんしゅっしん。	NO_LABEL
福岡県遠賀郡芦屋町の『医療法人おのむら医院』理事長、院長。	NO_PRONOUNCE	NO_LABEL
その傍らマスコミでコメンテーターとしても活躍している。	そのかたわらますこみでこめんてーたーとしてもかつやくしている。	NO_LABEL
日本アロマセラピー学会広報担当理事を務めた他、日本肥満学会にも参加。	にっぽんあろませらぴーがっかいこーほーたんとーりじをつとめたほか、にほんひまんがっかいにもさんか。	NO_LABEL
２０１３年からは北九州市立大学大学院ビジネス研究科特任教授。	にせんじゅうさんねんからわきたきゅーしゅーしりつだいがくだいがくいんびじねすけんきゅーかとくにんきょーじゅ。	NO_LABEL
平成４年から毎日新聞西部本社版で、主宰する患者塾が毎週火曜日に連載されている。	へいせいよんねんからまいにちしんぶんせいぶほんしゃばんで、しゅさいするかんじゃじゅくがまいしゅーかよーびにれんさいされている。	NO_LABEL
北海道大学在学中よりフリーアナウンサーや放送作家として北海道放送（HBC)や東京放送（TBS)で活動していたが、医師であった父親の志を継ぎ、１９７８年産業医科大学に一期生として入学。	NO_PRONOUNCE	NO_LABEL
卒業後の1992年に「おのむら医院」を開業。	NO_PRONOUNCE	NO_LABEL
内科・小児科に加え、アロマセラピーや「夜だけゼリーを飲む習慣」をベースにした、日本で初めての『ダイエット外来』を立ち上げ、3000人以上の肥満を解消した実績を持つ。	NO_PRONOUNCE	NO_LABEL
その傍らでかつてのフリーアナウンサー経験を生かし、『夕方どんどん』時代からRKBテレビの夕方ワイド番組のコメンテーターも務めており、２０１０年まで毎週水曜日に『今日感テレビ』に出演した。	NO_PRONOUNCE	NO_LABEL
視聴者からの健康の疑問や質問に答えた他、現代に於ける「健康ブーム」に対する問題提起も積極的に行った。	NO_PRONOUNCE	NO_LABEL
現在は、NHKラジオ「はっけんラジオ」で、医療コーナーを担当している。	NO_PRONOUNCE	NO_LABEL
平成１０年に始まった毎日新聞に連載中の医療シンポジウム患者塾は、２０１６年に２００回を迎えた。	へいせいじゅうねんにはじまったまいにちしんぶんにれんさいちゅーのいりょーしんぽじゅーむかんじゃじゅくわ、にせんじゅうろくねんににひゃっかいをむかえた。	NO_LABEL
そのほか医療関係のシンポジウムなどで進行役を務める事もある。	そのほかいりょーかんけいのしんぽじゅーむなどでしんこーやくをつとめることもある。	NO_LABEL
また、２０１３年から北九州市立大学大学院ビジネス研究科特任教授。	また、にせんじゅうさんねんからきたきゅーしゅーしりつだいがくだいがくいんびじねすけんきゅーかとくにんきょーじゅ。	NO_LABEL
出典；毎日新聞　平成１５年５月２３日「ひと」欄	NO_PRONOUNCE	NO_LABEL
　　　ジャミックジャーナル　２００３年９月号	じゃみっくじゃーなるにせんさんねんくがつごー	NO_LABEL
　　　毎日新聞西部本社版　患者塾　毎週火曜日掲載	まいにちしんぶんせいぶほんしゃばんかんじゃじゅくまいしゅーかよーびけいさい	NO_LABEL
＊夕方どんどん	NO_PRONOUNCE	NO_LABEL
＊今日感テレビ	NO_PRONOUNCE	NO_LABEL
＊ＮＨＫはっけんラジオ	NO_PRONOUNCE	NO_LABEL
一般社団法人日本アロマセラピー学会　http://www.aroma-jsa.jp/	NO_PRONOUNCE	NO_LABEL
今日感テレビ　http://rkb.jp/kyokan/	NO_PRONOUNCE	NO_LABEL
はっけんラジオ　http://www.nhk.or.jp/fukuoka/hakken/program/radio.html	NO_PRONOUNCE	NO_LABEL
患者塾　http://mainichi.jp/ch150911655i/%E6%82%A3%E8%80%85%E5%A1%BE	NO_PRONOUNCE	NO_LABEL
おのむら医院　http://itp.ne.jp/shop/KN4000060700382256/	NO_PRONOUNCE	NO_LABEL
