ムーブバックとは、BDに録画・ダビングした番組をBDレコーダーに書き戻す機能。	NO_PRONOUNCE	NO_LABEL
2009年11月に認定されたAACSのFinalLicenseにもとづき導入された機能で、Panasonicが2010年9月に発売したDIGAに初めて導入され、以降他のメーカーのBDレコーダーにも実装された。	NO_PRONOUNCE	NO_LABEL
なおDVDには規格上の問題でムーブバックはできない。	なおでぃーぶいでぃーにわきかくじょーのもんだいでむーぶばっくわできない。	NO_LABEL
また、ムーブを行う必要があるため、ファイナライズを行ったBD-Rからはムーブバックを行うことができない。	また、むーぶをおこなうひつよーがあるため、ふぁいならいずをおこなったびーでぃーあーるからわむーぶばっくをおこなうことができない。	NO_LABEL
<REF name="http://ascii.jp"></REF>	NO_PRONOUNCE	NO_LABEL
