東京武蔵野シティFCは、東京都武蔵野市をホームタウンとする、日本フットボールリーグに所属するサッカークラブ。	とーきょーむさしのしてぃえふしーわ、とーきょーとむさしのしをほーむたうんとする、にほんふっとぼーるりーぐにしょぞくするさっかーくらぶ。	NO_LABEL
登録チーム名は東京武蔵野シティフットボールクラブ。	とーろくちーむめいわとーきょーむさしのしてぃふっとぼーるくらぶ。	NO_LABEL
Jリーグ加盟を目指すクラブの1つである。	じぇいりーぐかめいおめざすくらぶのひとつである。	NO_LABEL
1939年に創設された横河電機製作所の社内同好会として発足した横河電機サッカー部を起源とする。	せんきゅうひゃくさんじゅうきゅうねんにそーせつされたよこかわでんきせいさくしょのしゃないどーこーかいとしてほっそくしたよこがわでんきさっかーぶをきげんとする。	NO_LABEL
2003年に横河電機の実業団チームという形態は残しつつ地域密着型のサッカークラブ・横河武蔵野フットボールクラブへと移行、2007年2月には運営母体を特定非営利活動法人に移管した。	NO_PRONOUNCE	NO_LABEL
長らくノンプロリーグの最高峰である日本フットボールリーグで「Jリーグを目指さないサッカークラブ」として活動してきたが、有力選手のJリーグクラブへの移籍で戦力が安定せず、さらに2014年のJ3リーグ発足以降はその傾向が顕著になり、セレクションの受験人数も減少するなどの影響もあったことを踏まえ、Jリーグへ入会する方針に転換した。	NO_PRONOUNCE	NO_LABEL
ホームスタジアムは武蔵野市立武蔵野陸上競技場、マスコットはこはなである。	ほーむすたじあむわむさしのしりつむさしのりくじょーきょーぎじょー、ますこっとわこはなである。	NO_LABEL
2016年1月1日、クラブ名を「東京武蔵野シティフットボールクラブ」に変更した。	NO_PRONOUNCE	NO_LABEL
2016年2月23日、Jリーグ理事会において百年構想クラブとして認定された。	にせんじゅうろくねんにがつにじゅうさんにち、じぇいりーぐりじかいにおいてひゃくねんこーそーくらぶとしてにんていされた。	NO_LABEL
ただし、2016年・2017年に申請したJ3クラブライセンスについてはホームスタジアムである武蔵野陸上競技場がJ3スタジアム基準を満たしていないとして不交付となった。	NO_PRONOUNCE	NO_LABEL
今後はJ3参入を目指し、ホームタウンである武蔵野市と連携して武蔵野陸上競技場の整備を進めると共に、チーム力の強化や収益の増加を目指すとしている。	こんごわじぇいすりーさんにゅーをめざし、ほーむたうんであるむさしのしとれんけいしてむさしのりくじょーきょーぎじょーのせいびをすすめるとともに、ちーむりょくのきょーかやしゅーえきのぞーかをめざすとしている。	NO_LABEL
横河武蔵野FC時代の2015年までアカデミーは横河パイオニックスが運営していた。	よこがわむさしのえふしーじだいのにせんじゅうごねんまであかでみーわよこがわぱいおにっくすがうんえいしていた。	NO_LABEL
2016年2月1日よりユースおよびジュニアユースを特定非営利活動法人武蔵野スポーツクラブへ統合し、ユースをU-18、ジュニアユースをU-15としてトップチームと一体で運営することとなった。	NO_PRONOUNCE	NO_LABEL
なお、アカデミー出身者は東京武蔵野シティFCの選手一覧#下部組織出身者を参照。	NO_PRONOUNCE	NO_LABEL
※掲出年は横河武蔵野FC時代からの通算。	NO_PRONOUNCE	NO_LABEL
