井出 隼平は、将棋棋士。	いでしゅんぺいわ、しょーぎきし。	NO_LABEL
田丸昇門下。	たまるのぼるもんか。	NO_LABEL
棋士番号は305。	NO_PRONOUNCE	NO_LABEL
神奈川県横浜市出身。	かながわけんよこはまししゅっしん。	NO_LABEL
父から将棋を教わったのをきっかけとして、小学校3年当時から「将棋サロン吉祥寺」に通い棋力を上達させた。	NO_PRONOUNCE	NO_LABEL
2003年に将棋サロン吉祥寺の席主から、指導対局に訪れた田丸昇を紹介され、師弟関係を締結。	にせんさんねんにしょーぎさろんきちじょーじのせきぬしから、しどーたいきょくにおとずれたたまるのぼるをしょーかいされ、していかんけいをていけつ。	NO_LABEL
同年9月に6級で奨励会に入会。	NO_PRONOUNCE	NO_LABEL
奨励会入会以降も、将棋サロン吉祥寺に毎日のように通い、主にアマチュアの強豪選手と練習対局を続けた。	しょーれいかいにゅーかいいこーも、しょーぎさろんきちじょーじにまいにちのよーにかよい、おもにあまちゅあのきょーごーせんしゅとれんしゅーたいきょくをつずけた。	NO_LABEL
棋士・奨励会員が有志で結成する研究会には時間的な束縛を苦として所属しなかった。	NO_PRONOUNCE	NO_LABEL
田丸及び席主の理解もあり、順調に昇級・昇段を続け、2009年7月に三段に昇段。	NO_PRONOUNCE	NO_LABEL
三段リーグには2009年度後期より参加。	さんだんりーぐにわにせんきゅうねんどこーきよりさんか。	NO_LABEL
その間、2011年9月に将棋サロン吉祥寺が閉店し、練習の場所を失った井出はリーグにおける成績が低迷した。	そのかん、にせんじゅういちねんくがつにしょーぎさろんきちじょーじがへいてんし、れんしゅーのばしょをうしなったいでわりーぐにおけるせいせきがていめいした。	NO_LABEL
2011年11月に将棋サロンが荻窪に移転して以降は調子を取り戻しコンスタントに勝ったものの、四段昇段に繋がる好成績は修められず、11勝5敗で最終日を迎えた参加7期目の三段リーグでは、井出が連勝し、宮本広志が1敗以上すれば四段昇段の可能性があり、将棋サロンの席主が将棋会館に赴き吉報を待ったにもかかわらず、17回戦で敗れたため昇段には至らなかった。	にせんじゅういちねんじゅーいちがつにしょーぎさろんがおぎくぼにいてんしていこーわちょーしをとりもどしこんすたんとにかったものの、よんだんしょーだんにつながるこーせいせきわおさめられず、じゅういちしょーごはいでさいしゅーびをむかえたさんかななきめのさんだんりーぐでわ、いでがれんしょーし、みやもとひろしがいちはいいじょーすればよんだんしょーだんのかのーせいがあり、しょーぎさろんのせきぬしがしょーぎかいかんにおもむききっぽーをまったにもかかわらず、じゅうななかいせんでやぶれたためしょーだんにわいたらなかった。	NO_LABEL
以降、再び成績不振に陥ったものの、田丸との話し合いの席で「何かを変えてみるといい」とアドバイスを受けてから、当初消極的だった公式戦の記録係を積極的に勤めたり、棋風の幅を広げたりして乗り越えた。	NO_PRONOUNCE	NO_LABEL
そして迎えた参加13期目の三段リーグでは、初戦から3連敗するなど前半戦は4勝5敗と負け越したものの、後半戦で連勝を重ね、10勝6敗で最終日を迎えた。	そしてむかえたさんかじゅうさんきめのさんだんりーぐでわ、しょせんからさんれんぱいするなどぜんはんせんわよんしょーごはいとまけこしたものの、こーはんせんでれんしょーをかさね、じゅうしょーろくはいでさいしゅーびをむかえた。	NO_LABEL
当期三段リーグは都成竜馬が最終日を待たずに優勝を決定させて、2位争いが熾烈な状態であった。	とーきさんだんりーぐわとなりりゅうまがさいしゅーびをまたずにゆーしょーをけっていさせて、にーあらそいがしれつなじょーたいであった。	NO_LABEL
11勝5敗が佐々木大地を含む4名・10勝6敗のうち井出より順位が上位であった参加者が2名いたため、井出が2位になるためには、井出自身が連勝した上で、11勝5敗で井出より順位が上位であった1名が連敗し、他の5名が1敗以上喫することが条件とされ、その確率は0.78％とされていた。	NO_PRONOUNCE	NO_LABEL
しかし最終日の対局結果において上記の条件が全て満たされたため、井出が逆転で2位に繰り上がり四段昇段を決定させた。	しかしさいしゅーびのたいきょくけっかにおいてじょーきのじょーけんがすべてみたされたため、いでがぎゃくてんでにーにくりあがりよんだんしょーだんをけっていさせた。	NO_LABEL
2016年10月30日、加古川青流戦で石川優太奨励会三段と3番勝負を指し、2勝1敗で優勝した。	にせんじゅうろくねんじゅーがつさんじゅうにち、かこがわせいりゅーせんでいしかわゆーたしょーれいかいさんだんとさんばんしょーぶをさし、にしょーいちはいでゆーしょーした。	NO_LABEL
兄弟子の櫛田陽一に仕込まれた角筋を止める四間飛車を得意とする。	あにでしのくしだよーいちにしこまれたかくすじをとめるしけんびしゃをとくいとする。	NO_LABEL
その一方、田丸からのアドバイスを受けて以降、行方尚史に居飛車を、窪田義行には振り飛車をそれぞれ教わり、将棋の幅を広げた。	そのいっぽー、たまるからのあどばいすをうけていこー、なめかたひさしにいびしゃを、くぼたよしゆきにわふりびしゃをそれぞれおそわり、しょーぎのはばをひろげた。	NO_LABEL
昇段規定は、"将棋の段級" を参照。	NO_PRONOUNCE	NO_LABEL
竜王戦と順位戦のクラスは、"将棋棋士の在籍クラス" を参照。	NO_PRONOUNCE	NO_LABEL
