米洪平和条約は第一次世界大戦後の1921年8月29日にブダペストで締結された、アメリカ合衆国とハンガリー王国の間の講和条約。	べいこうへいわじょーやくわだいいちじせかいたいせんごのせんきゅうひゃくにじゅういちねんはちがつにじゅうきゅうにちにぶだぺすとでていけつされた、あめりかがっしゅーこくとはんがりーおーこくのまのこーわじょーやく。	NO_LABEL
条約が締結された理由はアメリカ合衆国上院がトリアノンで締結された多国間条約の批准に同意しなかったことであり、その結果アメリカはトリアノン条約とは別にハンガリーとの講和条約を締結した。	じょーやくがていけつされたりゆーわあめりかがっしゅーこくじょーいんがとりあのんでていけつされたたこくかんじょーやくのひじゅんにどーいしなかったことであり、そのけっかあめりかわとりあのんじょーやくとわべつにはんがりーとのこーわじょーやくをていけつした。	NO_LABEL
批准公文は1921年12月17日にブダペストで交換され、条約は同日に発効した。	ひじゅんこーぶんわせんきゅうひゃくにじゅういちねんじゅーにがつじゅうななにちにぶだぺすとでこーかんされ、じょーやくわどーじつにはっこーした。	NO_LABEL
1926年5月8日、条約は国際連盟のに登録された。	せんきゅうひゃくにじゅうろくねんごがつようか、じょーやくわこくさいれんめいのにとーろくされた。	NO_LABEL
第一次世界大戦ではオーストリア＝ハンガリー帝国がアメリカ合衆国を含む連合国に敗れた。	だいいちじせかいたいせんでわおーすとりあはんがりーていこくがあめりかがっしゅーこくをふくむれんごーこくにやぶれた。	NO_LABEL
アメリカ政府は1917年12月7日にオーストリア＝ハンガリーに宣戦布告していた。	NO_PRONOUNCE	NO_LABEL
大戦末期の1918年、オーストリア＝ハンガリー帝国が解体し、ハンガリーはハンガリー民主共和国として独立、1920年には王国に変更したが王位は空位で、摂政が国を治めた。	たいせんまっきのせんきゅうひゃくじゅうはちねん、おーすとりあはんがりーていこくがかいたいし、はんがりーわはんがりーみんしゅきょーわこくとしてどくりつ、せんきゅうひゃくにじゅうねんにわおーこくにへんこーしたがおーいわくーいで、せっしょーがくにをおさめた。	NO_LABEL
1919年、勝利した連合国はパリ講和会議を開き、中央同盟国との平和条約を起草した。	せんきゅうひゃくじゅうきゅうねん、しょーりしたれんごーこくわぱりこーわかいぎをひらき、ちゅーおーどーめいこくとのへいわじょーやくをきそーした。	NO_LABEL
会議ではハンガリー政府との平和条約が成立した。	かいぎでわはんがりーせいふとのへいわじょーやくがせいりつした。	NO_LABEL
アメリカ政府も条約に署名したが、アメリカ合衆国上院はアメリカの国際連盟への参加に抗議して、条約の批准を拒否した。	あめりかせいふもじょーやくにしょめいしたが、あめりかがっしゅーこくじょーいんわあめりかのこくさいれんめいえのさんかにこーぎして、じょーやくのひじゅんをきょひした。	NO_LABEL
その結果、アメリカとハンガリーは国際連盟と関連せずに二国間平和条約を締結するための交渉を開始した。	そのけっか、あめりかとはんがりーわこくさいれんめいとかんれんせずににこくかんへいわじょーやくをていけつするためのこーしょーをかいしした。	NO_LABEL
1921年7月2日、アメリカ大統領ウォレン・ハーディングは合衆国議会が採決したに署名、アメリカとドイツ、オーストリア、ハンガリーの戦争状態を終わらせ、平和条約締結の交渉を加速させた。	せんきゅうひゃくにじゅういちねんしちがつふつか、あめりかだいとうりょーうぉれんはーでぃんぐわがっしゅーこくぎかいがさいけつしたにしょめい、あめりかとどいつ、おーすとりあ、はんがりーのせんそーじょーたいをおわらせ、へいわじょーやくていけつのこーしょーをかそくさせた。	NO_LABEL
米洪平和条約は、その1か月後の8月29日に締結された。	べいこうへいわじょーやくわ、そのいっかげつごのはちがつにじゅうきゅうにちにていけつされた。	NO_LABEL
条約は国際連盟の監督外で米洪協力を行う土台を築いた。	じょーやくわこくさいれんめいのかんとくがいでよねひろしきょーりょくをおこなうどだいをきずいた。	NO_LABEL
その結果、アメリカ政府はトリアノン条約でハンガリー共和国政府に課された賠償の軽減に部分的に協力することとなった。	そのけっか、あめりかせいふわとりあのんじょーやくではんがりーきょーわこくせいふにかされたばいしょーのけいげんにぶぶんてきにきょーりょくすることとなった。	NO_LABEL
1924年11月26日にはワシントンD.C.で付属条約が締結された。	せんきゅうひゃくにじゅうよねんじゅーいちがつにじゅうろくにちにわわしんとんでぃーしーでふぞくじょーやくがていけつされた。	NO_LABEL
付属条約ではアメリカ、オーストリア、ハンガリー人で構成される委員会を設立して、その委員会がオーストリアとハンガリー政府からアメリカへ支払われる賠償金の金額を決定することが定められた。	ふぞくじょーやくでわあめりか、おーすとりあ、はんがりーじんでこーせいされるいーんかいをせつりつして、そのいーんかいがおーすとりあとはんがりーせいふからあめりかえしはらわれるばいしょーきんのきんがくをけっていすることがさだめられた。	NO_LABEL
