E231系電車は、東日本旅客鉄道の直流一般形電車。	いーにひゃくさんじゅういちけいでんしゃわ、ひがしにほんりょかくてつどーのちょくりゅーいっぱんけいでんしゃ。	NO_LABEL
本系列は、老朽化および陳腐化が進んだ首都圏の通勤車両および近郊形車両の置き換え用として開発、投入された。	ほんけいれつわ、ろーきゅーかおよびちんぷかがすすんだしゅとけんのつーきんしゃりょーおよびきんこーがたしゃりょーのおきかえよーとしてかいはつ、とーにゅーされた。	NO_LABEL
0番台は2000年3月より中央・総武緩行線に、次いで近郊タイプが同年6月より東北本線に、500番台が2002年4月より山手線に、そして800番台が2003年5月より地下鉄東西線直通用に、それぞれ順次投入され、現時点ではその運行範囲は宇都宮線、常磐線、成田線、東海道本線、伊東線、高崎線、上越線、両毛線、横須賀線、武蔵野線、湘南新宿ライン、上野東京ラインにまで拡大している。	NO_PRONOUNCE	NO_LABEL
省エネルギー化と生産コスト、メンテナンスコストの大幅な削減を目的にJR東日本が1990年代に開発した「新系列車両」の技術に加え、運行制御システムへの新機軸の採用により、その後の鉄道車両の開発にも大きな影響を与えた。	NO_PRONOUNCE	NO_LABEL
本系列の開発目標としては「ライフサイクルコストの低減」「サービス向上」がある。	NO_PRONOUNCE	NO_LABEL
本系列はJR東日本と東急車輛製造が共同開発した車両であり、東急車輛製造のほかに川崎重工業やJR東日本新津車両製作所でも製造されている。	ほんけいれつわじぇいあーるひがしにほんととーきゅーしゃりょーせいぞーがきょーどーかいはつしたしゃりょーであり、とーきゅーしゃりょーせいぞーのほかにかわさきじゅーこーぎょーやじぇいあーるひがしにほんにーつしゃりょーせいさくじょでもせいぞーされている。	NO_LABEL
運用路線は首都圏近郊区間全域に拡大しており、2010年現在ではJRグループで同一系列の最多配置両数を誇り、2011年夏に総生産両数は2,736両に達した。	NO_PRONOUNCE	NO_LABEL
山手線用の6扉車サハE230-500番台104両と中央・総武緩行線用の6扉車サハE230-0番台3両が廃車になったほか、サハE231-4600番台1両がE235系に編入されたため、2015年4月1日現在の在籍数は2,628両である。	NO_PRONOUNCE	NO_LABEL
車両のデザイン開発は榮久庵憲司主宰のGKインダストリアルデザインが担当している。	しゃりょーのでざいんかいはつわえくあんけんじしゅさいのごーるきーぱーいんだすとりあるでざいんがたんとーしている。	NO_LABEL
本系列の開発により、JR東日本は平成18年度地球温暖化防止活動環境大臣表彰を受けた。	ほんけいれつのかいはつにより、じぇいあーるひがしにほんわへいせいじゅうはちねんどちきゅーおんだんかぼーしかつどーかんきょーだいじんひょーしょーをうけた。	NO_LABEL
その理由は省エネルギー化およびリサイクル可能部品の多数使用、さらに他社での技術採用により鉄道業界全体の省エネなどに貢献しているとする点である。	そのりゆーわしょーえねるぎーかおよびりさいくるかのーぶひんのたすーしよー、さらにたしゃでのぎじゅつさいよーによりてつどーぎょーかいぜんたいのしょーえねなどにこーけんしているとするてんである。	NO_LABEL
さらに、本系列およびNEトレインの開発・導入によってJR東日本は「省エネ車両の継続的導入と世界初のハイブリッド鉄道車両の開発・導入」という理由により、第16回地球環境大賞の文部科学大臣賞を受賞した。	NO_PRONOUNCE	NO_LABEL
本系列は従来の通勤形電車・近郊形電車の区分を統一した一般形電車として設計され、その動力性能は歯車比 7.07、最高速度 120 km/h 、起動加速度 2.5 km/h/sである。	NO_PRONOUNCE	NO_LABEL
VVVFインバータ機器の性能向上と主電動機の強化により、近距離用の通勤形電車である209系と同等の加速力を維持しつつ、中距離電車用の近郊形電車であるE217系と同等の最高速度を達成している。	ぶいぶいぶいえふいんばーたききのせいのーこーじょーとしゅでんどーきのきょーかにより、きんきょりよーのつーきんがたでんしゃであるにひゃくきゅうけいとどーとーのかそくりょくをいじしつつ、ちゅーきょりでんしゃよーのきんこーがたでんしゃであるいーにひゃくじゅうななけいとどーとーのさいこーそくどをたっせいしている。	NO_LABEL
MT73形主電動機は三菱電機・東芝・東洋電機製造の3社で製造されている 。	NO_PRONOUNCE	NO_LABEL
　	NO_PRONOUNCE	NO_LABEL
ブレーキ方式は電気指令式空気ブレーキと電力回生ブレーキを組み合わせた方式で、電動車では停止寸前まで電力回生ブレーキが使用可能なほか、空気ブレーキの遅れ込め制御も併用している。	ぶれーきほーしきわでんきしれいしきくーきぶれーきとでんりょくかいせいぶれーきをくみあわせたほーしきで、でんどーしゃでわていしすんぜんまででんりょくかいせいぶれーきがしよーかのーなほか、くーきぶれーきのおくれこめせいぎょもへいよーしている。	NO_LABEL
これには後述する TIMS による編成単位での遅れ込め制御を行うことで、各付随車で制輪子の磨耗を均等にすることを可能としている。	これにわこーじゅつするてぃむずによるへんせいたんいでのおくれこめせいぎょをおこなうことで、かくふずいしゃでせいりんしのまもーをきんとーにすることをかのーとしている。	NO_LABEL
なお、山手線用の500番台と東西線直通用の800番台は純電気ブレーキにも対応している。	NO_PRONOUNCE	NO_LABEL
台車には209系と同じく軸梁式のボルスタレス式台車を使用し、動力台車はDT61系・付随台車はTR246系が採用されている。	NO_PRONOUNCE	NO_LABEL
近郊タイプのヨーダンパはE217系と同じくグリーン車にのみ取り付けられており、通勤タイプも含めた普通車は全車両が取り付け準備のみである。	きんこーたいぷのよーだんぱわいーにひゃくじゅうななけいとおなじくぐりーんしゃにのみとりつけられており、つーきんたいぷもふくめたふつーしゃわぜんしゃりょーがとりつけじゅんびのみである。	NO_LABEL
なお、ヨーダンパは後年になり撤去されている。	なお、よーだんぱわこーねんになりてっきょされている。	NO_LABEL
先頭車の前位側台車には留置時の手歯止め設置を省略できるように駐車ブレーキを設置している。	せんとーしゃのぜんくらいがわだいしゃにわとめおきじのてばどめせっちをしょーりゃくできるよーにちゅーしゃぶれーきをせっちしている。	NO_LABEL
集電装置には従来の空気シリンダと手動リンクに代わる「電磁鉤外し」方式のシングルアーム式パンタグラフが採用され、折りたたみ高さは全車 3,980 mm に統一されており、中央本線の高尾以西の狭小トンネル区間の走行が可能である。	NO_PRONOUNCE	NO_LABEL
そのため、パンタグラフを持つモハE231形には、車両番号の前に高尾以西へ入線可能な事を示す「◆」マークが付いている。	NO_PRONOUNCE	NO_LABEL
本系列では、車両に搭載される機器の制御方法がそれ以前に製造されていた車両系列とは大きく異なり、非常ブレーキなどを除くほぼすべての機器の制御を TIMSと称する情報管理システムを通じて行っている。	ほんけいれつでわ、しゃりょーにとーさいされるききのせいぎょほーほーがそれいぜんにせいぞーされていたしゃりょーけいれつとわおーきくことなり、ひじょーぶれーきなどをのぞくほぼすべてのききのせいぎょをてぃむずとしょーするじょーほーかんりしすてむをつうじていっている。	NO_LABEL
通信のインタフェースには RS-485を用いている。	NO_PRONOUNCE	NO_LABEL
これは高速データ通信技術を用いて列車の動力制御、室内設備、保守点検などを一つのシステムとして統合・管理するもので、機能別に独立していた従来の制御系統・電気配線を大幅に簡素化し、製造コストの削減を達成した。	NO_PRONOUNCE	NO_LABEL
また、各機器の自己診断機能や動作履歴の記録機能などによる車両の点検作業の自動化・迅速化など点検・保守作業の簡略化も同時に実現している。	NO_PRONOUNCE	NO_LABEL
空調装置には集中式のAU725形の能力 48.84 kWまたは能力向上を図ったAU726形の 58.14 kWを各車に搭載している。	NO_PRONOUNCE	NO_LABEL
この空調装置は年間を通してTIMSによる全自動空調制御を採用した新開発のものである。	このくーちょーそーちわねんかんをとーしててぃむずによるぜんじどーくーちょーせいぎょをさいよーしたしんかいほつのものである。	NO_LABEL
これはTIMS内のカレンダー機能による季節認識機能や室内外の温度や湿度・乗車率等から判断して「冷房・暖房・除湿・送風モード」から自動選択し、ファジィ制御により各車両毎に最適制御するものである。	NO_PRONOUNCE	NO_LABEL
AU725形を搭載するのは基本的に初期に製造された車両が該当し、0番台中央・総武緩行線用の4扉車全車、0番台常磐快速線・成田線用、500番台1次車の4扉車と初期の近郊タイプとなっている。	NO_PRONOUNCE	NO_LABEL
ただし、0番台中央・総武緩行線および500番台でもドア開口部の大きい6扉車は能力向上形のAU726形を搭載している。	NO_PRONOUNCE	NO_LABEL
その後、500番台2次車以降に製造した車両や800番台、国府津車両センター向け新製投入以降の近郊タイプでは近年のヒートアイランド現象などの気象状況を考慮して全車両が能力向上形のAU726形を搭載している。	NO_PRONOUNCE	NO_LABEL
本系列は、車体形状や装備の違いにより通勤タイプと近郊タイプの2つに大別できる。	ほんけいれつわ、しゃたいけいじょーやそーびのちがいによりつーきんたいぷときんこーたいぷのふたつにたいべつできる。	NO_LABEL
基本設計は共通であり、量産効果による車両製造コストの低減を図っている。	きほんせっけいわきょーつーであり、りょーさんこーかによるしゃりょーせいぞーこすとのていげんをはかっている。	NO_LABEL
車体は軽量ステンレス製で、前面部にはFRP製のカバーで覆う構造が用いられている。	しゃたいわけいりょーすてんれすせいで、ぜんめんぶにわえふあーるぴーせいのかばーでおおうこーぞーがもちいられている。	NO_LABEL
車体構造はE217系や209系500番台に準じたものであり、近郊タイプだけでなく、通勤タイプにも 2,950 mm の拡幅車体を採用している。	NO_PRONOUNCE	NO_LABEL
ただし、例外として800番台は東京地下鉄線内の車両限界の関係から 2,800 mm 幅である。	NO_PRONOUNCE	NO_LABEL
また、床面高さはレール面から 1,165 mm に低減され、さらに靴擦り部分を傾斜させ、先端部の高さを 1,150 mm とした。	NO_PRONOUNCE	NO_LABEL
これにより、ホームとの段差解消と低重心化が図られている。	これにより、ほーむとのだんさかいしょーとていじゅーしんかがはかられている。	NO_LABEL
E217系から採用された運転室構体への衝撃吸収構造を本形式も採用している。	いーにひゃくじゅうななけいからさいよーされたうんてんしつこうたいえのしょーげききゅーしゅーこーぞーをほんけいしきもさいよーしている。	NO_LABEL
車体形状は、製造した車両メーカーにより細部に差異が生じている。	しゃたいけいじょーわ、せいぞーしたしゃりょーめーかーによりさいぶにさいがしょーじている。	NO_LABEL
これは各車両メーカーが得意とする加工方法で車両の製造を行えるように若干の仕様の相違を許容しているためで、前述の量産効果に加えて車両製造コストの低減に寄与している。	これわかくしゃりょーめーかーがとくいとするかこーほーほーでしゃりょーのせいぞーをおこなえるよーにじゃっかんのしよーのそーいをきょよーしているためで、ぜんじゅつのりょーさんこーかにくわえてしゃりょーせいぞーこすとのていげんにきよしている。	NO_LABEL
具体的には、近郊タイプおよび800番台では車体妻面部の処理・縦雨樋の形状・ドア横の柱の処理・内装の素材などが異なっている。	NO_PRONOUNCE	NO_LABEL
また、長期間にわたって製造が行われたため、同一のタイプ・番台においても製造時期により細かな仕様の変更が行われている。	NO_PRONOUNCE	NO_LABEL
全車両に前面排障器が設置されているが、2005年度以降の新津車両製作所製の一部編成から踏切事故などの被害を軽減するためV字型で尖がっている強化型のものに変更された。	NO_PRONOUNCE	NO_LABEL
なお、2007年夏頃から500番台や初期の近郊タイプなどの標準スカートを搭載する編成も、新津車両製作所製の一部編成に使用されていた大型スカートに変更する改造が始まっている。	NO_PRONOUNCE	NO_LABEL
側窓は209系500番台と異なり、先頭車後位寄りを除く各ドア間にある窓ガラスは全て開閉可能な下降窓と固定窓の組み合わせとなっている。	がわまどわにひゃくきゅうけいごひゃくばんだいとことなり、せんとーしゃごくらいよりをのぞくかくどあかんにあるまどがらすわすべてかいへいかのーなかこーまどとこていまどのくみあわせとなっている。	NO_LABEL
これは停電が発生した際など非常時における車内換気を考慮したものである。	これわていでんがはっせいしたさいなどひじょーじにおけるしゃないかんきをこーりょしたものである。	NO_LABEL
窓ガラスには可視光線、日射熱線、紫外線の透過率が低く、乗用車でも採用が進んでいる汎用性の高いグリーン色の熱線吸収ガラスを採用している。	まどがらすにわかしこーせん、にっしゃねっせん、しがいせんのとーかりつがひくく、じょーよーしゃでもさいよーがすすんでいるはんよーせいのこういぐりーんしょくのねっせんきゅーしゅーがらすをさいよーしている。	NO_LABEL
このため、車内の側窓カーテンの設置は省略している。	このため、しゃないのがわまどかーてんのせっちわしょーりゃくしている。	NO_LABEL
車内は内板を白色系とし、床敷物には灰色を、座席表地は青色系を使用している。	しゃないわうちいたをはくしょくけいとし、ゆかしきものにわはいいろを、ざせきおもてじわあおいろけいをしよーしている。	NO_LABEL
ただし、優先席部では赤色の斜めストライプ柄の表地を使用している。	ただし、ゆーせんせきぶでわあかいろのななめすとらいぷがらのおもてじをしよーしている。	NO_LABEL
座席構造は側構体で支持する片持ち式ロングシート/セミクロスシートを採用している。	NO_PRONOUNCE	NO_LABEL
座席本体はリサイクル性にも配慮して、座席クッション素材にポリエステル樹脂成形品を使用し、表地の張り替えを容易にしている。	ざせきほんたいわりさいくるせいにもはいりょして、ざせきくっしょんそざいにぽりえすてるじゅしせいけいひんをしよーし、おもてじのはりがえをよーいにしている。	NO_LABEL
その後、2001年3月以降の増備車では座り心地の改善のため、クッションの改良などを実施している。	そのご、にせんいちねんさんがついこーのぞーそなえしゃでわすわりごこちのかいぜんのため、くっしょんのかいりょーなどをじっししている。	NO_LABEL
車内では使いやすさも考慮して0番台からは荷棚と座席前のつり革高さを低下させている。	NO_PRONOUNCE	NO_LABEL
また、各先頭車の連結面側には車椅子スペースを設置している。	また、かくせんとーしゃのれんけつめんがわにわくるまいすすぺーすをせっちしている。	NO_LABEL
連結面間の貫通扉は基本的に各電動車ユニットの両端に設置されている。	れんけつめんかんのかんつーとびらわきほんてきにかくでんどーしゃゆにっとのりょーたんにせっちされている。	NO_LABEL
ただし、火災対策基準の省令変更後に増備した車両では、省令に沿って傾斜式による自動閉機構付きの貫通扉が各車両片側に配置されている。	NO_PRONOUNCE	NO_LABEL
他系列と同様に優先席付近のつり革は2008年春までにE233系と同じ形状のオレンジ色のものへ交換した。	たけいれつとどーよーにゆーせんせきふきんのつりかわわにせんはちねんはるまでにいーにさんさんけいとおなじけいじょーのおれんじいろのものえこーかんした。	NO_LABEL
209系・E217系・E501系などと同様のドアチャイムを採用しているほか、車内案内設備としてLED式車内案内表示器によって各種情報を表示している。	NO_PRONOUNCE	NO_LABEL
LED式の場合、1段タイプと2段タイプの2タイプが存在するが、共通点として次駅案内が表示され、漢字→ローマ字→カタカナの順に表示される。	NO_PRONOUNCE	NO_LABEL
一部の車両では旅客への案内向上のため、VIS と称する情報提供装置を搭載している。	NO_PRONOUNCE	NO_LABEL
2段タイプのものは上段に行先・次駅案内・出口案内などを表示し、下段は所要時間表示・乗り換え案内・ニュース・運行情報などを表示する。	NO_PRONOUNCE	NO_LABEL
また新たな列車運行情報が入電した時はアラート音が鳴る。	またあらたなれっしゃうんこーじょうほーがにゅーでんしたときわあらーとおんがなる。	NO_LABEL
非常ブレーキ取扱時にはディスプレイに「急停車します」と赤字で表示される。	NO_PRONOUNCE	NO_LABEL
なお、初期に落成した小山車両は「上野行」や「For Ueno」ではなく、「行先は上野」と表示され、英語表示はない。	NO_PRONOUNCE	NO_LABEL
また、中央・総武緩行線用車両は行先表示を行わない。	また、ちゅーおーそーぶかんこーせんよーしゃりょーわゆくさきひょーじをおこなわない。	NO_LABEL
一部の1段式LEDの車両では、E217系などで表示される運行情報表示が行先表示の後にテロップで流されるようになった。	NO_PRONOUNCE	NO_LABEL
この表示は駅到着前まで繰り返し表示される。	このひょーじわえきとーちゃくまえまでくりかえしひょーじされる。	NO_LABEL
なお、駅出発直後は2回次駅・行先表示をしてから表示される。	NO_PRONOUNCE	NO_LABEL
これはE217系などでも同様である。	これわいーにひゃくじゅうななけいなどでもどーよーである。	NO_LABEL
また、2段式とは違い、1段式LEDではアラート音は鳴らない。	NO_PRONOUNCE	NO_LABEL
近郊形と一部の通勤形の車両で、駅到着前「まもなく○○」と「○○行」を交互に表示するようになった。	NO_PRONOUNCE	NO_LABEL
また、2段式LEDの車両はドア開閉方向と「まもなく○○」を交互表示する。	NO_PRONOUNCE	NO_LABEL
三鷹区に所属する0番台は行先表示を行わないため、「まもなく○○」の固定表示となる。	NO_PRONOUNCE	NO_LABEL
500番台は液晶ディスプレイのため若干異なり、以下のような表示となっている。	NO_PRONOUNCE	NO_LABEL
また、常磐線快速・成田線では、停車時に主な駅の所要時間がテロップで流される。	NO_PRONOUNCE	NO_LABEL
このほか、全編成に自動放送装置が搭載されている。	このほか、ぜんへんせいにじどーほーそーそーちがとーさいされている。	NO_LABEL
音声は日本語を三浦七緒子、英語をクリステル・チアリがそれぞれ担当していて、急停車時に「急停車します。	NO_PRONOUNCE	NO_LABEL
ご注意ください。	ごちゅーいください。	NO_LABEL
 Attentionplease.The emergency brakes have been applied.」と注意を喚起する放送もある。	NO_PRONOUNCE	NO_LABEL
平日のラッシュ時間帯および終電時間帯には乗り換え案内などが自動で省略される。	へいじつのらっしゅじかんたいおよびしゅーでんじかんたいにわのりかえあんないなどがじどーでしょーりゃくされる。	NO_LABEL
乗務員室は基本的に209系で採用したユニット構造の運転台としている。	じょーむいんしつわきほんてきににひゃくきゅうけいでさいよーしたゆにっとこーぞーのうんてんだいとしている。	NO_LABEL
主幹制御器は東芝製の左手操作式ワンハンドルマスコンが採用されている。	しゅかんせいぎょきわとーしばせいのひだりてそーさしきわんはんどるますこんがさいよーされている。	NO_LABEL
保安機器では緊急停止装置と緊急列車防護装置を標準装備している。	ほあんききでわきんきゅーていしそーちときんきゅーれっしゃぼーごそーちをひょーじゅんそーびしている。	NO_LABEL
各番台とも乗務員室内には異常時に、非常用ハシゴとしても使用可能な補助腰掛が設置されている。	かくばんだいともじょーむいんしつないにわいじょーじに、ひじょーよーはしごとしてもしよーかのーなほじょこしかけがせっちされている。	NO_LABEL
0番台・500番台・800番台、近郊タイプの初期落成車ではアナログ計器式の速度計・圧力計・各種表示灯類を配置し、TIMSモニターは1画面を設けている。	NO_PRONOUNCE	NO_LABEL
また、情報提供装置を搭載する常磐快速線用0番台および500番台では将来の情報量の増加を考慮して計器盤右側にTIMS第2モニター画面の準備工事がされている。	NO_PRONOUNCE	NO_LABEL
その後の東海道線向け以降の近郊タイプでは見やすさや機能性、コストダウン等のため、速度計・圧力計・各種表示灯類を液晶モニター画面に集約したグラスコックピット方式に変更した。	NO_PRONOUNCE	NO_LABEL
この方式の場合、液晶モニターは3画面が用意され、左からNo.1メータ表示器、TIMS表示器、No.2メータ表示器とされ、1画面が故障しても相互にバックアップが出来るなど冗長性も確保されている。	NO_PRONOUNCE	NO_LABEL
乗務員室背面仕切壁は、運転席背後に非常救出口を、中央に遮光幕付きの大窓、助手席側に仕切扉窓を配置するものである。	じょーむいんしつはいめんしきりかべわ、うんてんせきはいごにひじょーきゅーしゅつぐちを、ちゅーおーにしゃこーまくつきのだいまど、じょしゅせきがわにしきりとびらまどをはいちするものである。	NO_LABEL
また、途中の増備車から大窓部の下に埋め込み形の手すりが設置されている。	また、とちゅーのぞーそなえしゃからだいまどぶのしたにうめこみがたのてすりがせっちされている。	NO_LABEL
本系列は、関東地方の他の鉄道事業者でも今後の車両開発における標準車両として重視されており、相模鉄道の10000系、東京急行電鉄の5000系列とその派生系列である6000系・7000系および横浜高速鉄道のY500系、東京都交通局の10-300形が本系列の設計を基本としているほか、関西地方の南海電気鉄道8000系は、既存車両をベースとしながらも、本系列の部品を一部取り入れている。	NO_PRONOUNCE	NO_LABEL
JR東日本でも、自社の車両製造部門であった新津車両製作所において他社・局向けの車両生産を総合車両製作所への事業統合まで行い、相模鉄道、小田急電鉄、東京都交通局向け車両の一部を製造した。	NO_PRONOUNCE	NO_LABEL
JR東日本E257系電車にTIMSをはじめとするシステムが応用されたほか、2005年から常磐線中距離電車用として交直流一般形電車E531系を順次投入している。	じぇいあーるひがしにほんいーにひゃくごじゅうななけいでんしゃにてぃむずをはじめとするしすてむがおーよーされたほか、にせんごねんからじょーばんせんちゅーきょりでんしゃよーとしてよしみちょくりゅーいっぱんけいでんしゃいーごひゃくさんじゅういちけいをじゅんじとーにゅーしている。	NO_LABEL
2006年12月26日からは本系列の後継車両であるE233系が中央線快速・青梅線・五日市線・京浜東北線・根岸線・常磐緩行線・東海道線・高崎線・宇都宮線・京葉線・横浜線・埼京線・川越線・南武線に投入された。	NO_PRONOUNCE	NO_LABEL
連接車体を採用した次世代型のE331系の開発が進められていた。	れんせつしゃたいをさいよーしたじせだいがたのいーさんびゃくさんじゅういちけいのかいはつがすすめられていた。	NO_LABEL
2006年3月に量産先行車が落成し、同線や外房線などでの走行試験を約1年間行った後、2007年3月18日より営業運転を開始した。	にせんろくねんさんがつにりょーさんせんこーしゃがらくせいし、どーせんやそとぼーせんなどでのそーこーしけんをやくいちねんかんおこなったのち、にせんななねんさんがつじゅうはちにちよりえいぎょーうんてんをかいしした。	NO_LABEL
営業運転を重ねながらの試験を2010年度までの3年間で行わなれたが、量産化されることなく、2014年4月2日で廃車となった。	えいぎょーうんてんをかさねながらのしけんをにせんじゅうねんどまでのさんねんかんでおこなわなれたが、りょーさんかされることなく、にせんじゅうよねんしがつふつかではいしゃとなった。	NO_LABEL
2015年には、E233系から更に発展したE235系直流通勤型電車が山手線へ投入された。	にせんじゅうごねんにわ、いーにさんさんけいからさらにはってんしたいーにひゃくさんじゅうごけいちょくりゅーつーきんがたでんしゃがやまのてせんえとーにゅーされた。	NO_LABEL
先頭車正面は耐オフセット衝突構造を採用し衝突安全性の向上が図られ、主制御器に炭化ケイ素を用いた次世代半導体素子の採用により車両の消費電力の低減が図られた。	せんとーしゃしょーめんわつよしおふせっとしょーとつこーぞーをさいよーししょーとつあんぜんせいのこーじょーがはかられ、しゅせいぎょきにたんかけいそをもちいたじせだいはんどーたいそしのさいよーによりしゃりょーのしょーひでんりょくのていげんがはかられた。	NO_LABEL
また、広告媒体はデジタルサイネージ化されるなど、新機軸が多数導入された。	また、こーこくばいたいわでじたるさいねーじかされるなど、しんきじくがたすーどーにゅーされた。	NO_LABEL
通勤形では近郊タイプほどではないが、前面強化構造を採用している。	つーきんがたでわきんこーたいぷほどでわないが、ぜんめんきょーかこーぞーをさいよーしている。	NO_LABEL
前照灯は窓下配置のシールドビーム式を使用している。	ぜんしょうとーわまどかはいちのしーるどびーむしきをしよーしている。	NO_LABEL
全車両がロングシートの座席構成を持つ仕様である。	ぜんしゃりょーがろんぐしーとのざせきこーせいをもつしよーである。	NO_LABEL
主電動機の制御装置としてIGBT素子を用いた3レベルVVVFインバータを使用している。	NO_PRONOUNCE	NO_LABEL
補助電源装置はIGBT素子を使用した静止形インバータを採用しており、SC61形またはSC62形を10両/11両編成で2台搭載する。	NO_PRONOUNCE	NO_LABEL
ただし、全車能力向上形空調装置搭載編成の500番台2次車以降や800番台では消費電力が増加するため、編成で3台搭載する。	NO_PRONOUNCE	NO_LABEL
ドアエンジンは安全装置付き電気スクリュー軸駆動式の採用が基本であるが、900番台と松戸車両センターに新製配置された車両についてはリニアモーター式を採用している。	NO_PRONOUNCE	NO_LABEL
この系統に属する他社局向けの派生車としては、前述の相鉄10000系や都営10-300形・10-300R形が該当している。	NO_PRONOUNCE	NO_LABEL
1998年10月に東急車輛製造とJR東日本新津車両製作所にて新製された本系列の試作車で、登場当初は209系950番台と称していた。	NO_PRONOUNCE	NO_LABEL
1992年の901系を嚆矢とするJR東日本の新系列電車の開発は、209系とE217系、それにE501系によってその基礎を確立したが、共に登場後5年以上が経過したため、その間の技術進歩を採り入れた「第2世代」車両の試作車として製造された。	NO_PRONOUNCE	NO_LABEL
車体の基本的な構造は同時期に生産が開始された209系500番台とほぼ同一であるが、「概要」でも記した制御・動力系は一新され、列車情報管理システムTIMSと新しい動力系装置が採用され、本系列の技術的基礎を確立した。	NO_PRONOUNCE	NO_LABEL
900番台のVVVFインバータ装置は、試作車という意味合いもあって三菱電機製の3レベルインバータと日立製作所製の2レベルインバータの2種類が1ユニットずつ搭載され、1編成で2種の異なる起動音がインバータ装置およびモータから発生するのが特徴である。	NO_PRONOUNCE	NO_LABEL
なお、この編成のパンタグラフは後の量産車とは互換性のないPS33形を使用している。	NO_PRONOUNCE	NO_LABEL
側窓の構造が209系500番台と同一の仕様で、ドア間側窓は中間車で4か所、先頭車で2か所が開閉可能な構造としている。	NO_PRONOUNCE	NO_LABEL
側窓ガラスについても0番台とは異なり、可視光透過率約41%のグレーに着色された熱線吸収ガラスを使用している。	NO_PRONOUNCE	NO_LABEL
車内のつり革についても0番台のものとは異なり、209系と同一のつり輪形状となっている。	NO_PRONOUNCE	NO_LABEL
編成のうち5号車には6扉車を組み込んでおり、先頭車の前面と6扉車の各ドア上部には「6DOORS」のステッカーが貼り付けされている。	NO_PRONOUNCE	NO_LABEL
なお、落成時から5号車に連結をしているが、試験のために2号車へ連結位置を変更することが可能なようにしている。	なお、らくせいじからごごーしゃにれんけつをしているが、しけんのためににごーしゃえれんけついちをへんこーすることがかのーなよーにしている。	NO_LABEL
6扉車は4扉車とは構造が異なり、側窓が片側5か所のうち、3か所のみ開閉するほか、非常時には換気容量不足が生じることから連結妻面上部に非常換気口が設置されている。	NO_PRONOUNCE	NO_LABEL
これは後述する0番台に踏襲されている。	NO_PRONOUNCE	NO_LABEL
ドアエンジンには4扉車にリニアモーター式戸閉装置が試験導入され、それが近郊タイプに採用された。	NO_PRONOUNCE	NO_LABEL
ただし、本番台ではドア1か所につき2つのリニアモーターを使用しているのに対し、近郊タイプでは1モーターによる2扉連動方式となっている。	NO_PRONOUNCE	NO_LABEL
また、ATS-P形の他にATS-S形を搭載しているほか、前面列車番号の表示が微妙に違い、本番台では「0601B」のように空白の部分が0と表示されるのに対し、0番台中央・総武緩行線用は601Bと表示される。	NO_PRONOUNCE	NO_LABEL
このほか車外側面のJRロゴマークの位置が量産車のラインカラー帯部にあるのに対し、本番台では209系500番台同様に戸袋部に貼られている。	このほかしゃがいそくめんのじぇいあーるろごまーくのいちがりょーさんしゃのらいんからーたいぶにあるのにたいし、ほんばんだいでわにひゃくきゅうけいごひゃくばんだいどーよーにとぶくろぶにはられている。	NO_LABEL
さらに登場時は「近郊形置き換え用」の位置付けから行先表示器のメモリー内に宇都宮線・高崎線の駅名の一部が含まれていたことも特筆できるが、量産化改造時に削除された。	NO_PRONOUNCE	NO_LABEL
1998年10月の落成後、中央・総武緩行線を中心に209系500番台の投入と合わせて性能試験などが行われ、試験後の1999年3月27日から営業運転を開始した。	せんきゅうひゃくきゅうじゅうはちねんじゅーがつのらくせいご、ちゅーおーそーぶかんこーせんをちゅーしんににひゃくきゅうけいごひゃくばんだいのとーにゅーとあわせてせいのーしけんなどがおこなわれ、しけんごのせんきゅうひゃくきゅうじゅうきゅうねんさんがつにじゅうしちにちからえいぎょーうんてんをかいしした。	NO_LABEL
その後、量産車の登場に伴い2000年6月にE231系900番台に改番された。	NO_PRONOUNCE	NO_LABEL
形式上は「試作車」として位置付けられているが、その登場から1年半後にほぼ同一の仕様で0番台が投入されたことからも伺えるように、車両の完成度は高く、事実上の「量産先行車」であったとも考えられる。	NO_PRONOUNCE	NO_LABEL
また、量産車両の登場を待たずに鉄道友の会2000年ローレル賞に選定されるなど、新世代車両としての技術的な先進性は高く評価された。	また、りょーさんしゃりょーのとーじょーをまたずにてつどーとものかいにせんねんろーれるしょーにせんていされるなど、しんせだいしゃりょーとしてのぎじゅつてきなせんしんせいわたかくひょーかされた。	NO_LABEL
編成番号は、登場時は201系や当時車両不足で他線から借入中の103系「ミツ23」の続番として在籍編成では最終番号の「ミツ24」であったが、201系の運用終了後は他の0番台編成や209系500番台編成とともに先頭車の車両番号に改められ、「ミツB901」になっている。	NO_PRONOUNCE	NO_LABEL
この編成は2005年製造分以降の近郊タイプに装着されたものと同様のV字に尖がった大型形状のスカートに交換され、優先席付近のつり革もE233系タイプに交換済みである。	NO_PRONOUNCE	NO_LABEL
また、2008年春から自動放送の使用を開始している。	また、にせんはちねんはるからじどーほーそーのしよーをかいししている。	NO_LABEL
2000年3月に103系と201系の置き換えが急務となった中央・総武緩行線に投入され、同月13日から営業運転を開始した。	にせんねんさんがつにひゃくさんけいとにひゃくいちけいのおきかえがきゅーむとなったちゅーおーそーぶかんこーせんにとーにゅーされ、どーげつじゅうさんにちからえいぎょーうんてんをかいしした。	NO_LABEL
続いて2002年3月からは常磐快速線と成田線にも投入され、同月3日に営業運転を開始した。	つずいてにせんにねんさんがつからわじょうばんかいそくせんとなりたせんにもとーにゅーされ、どーげつみっかにえいぎょーうんてんをかいしした。	NO_LABEL
2017年春から中央・総武緩行線用0番台は、山手線へE235系量産車導入に伴い、山手線用500番台を中央・総武緩行線へ転用させる為、武蔵野線及び川越線・八高線へ各線の仕様に改造の上、転属することになった。	NO_PRONOUNCE	NO_LABEL
まず始めに、武蔵野線に投入され、第1編成が2017年9月14日に落成、同年11月1日から運用を開始した。	NO_PRONOUNCE	NO_LABEL
なお、川越線・八高線用となった3000番台については、後述の「3000番台」の項を参照のこと。	NO_PRONOUNCE	NO_LABEL
当項目では、使用線区別に記述する。	とーこーもくでわ、しよーせんくべつにきじゅつする。	NO_LABEL
ただし、走行機器類は従来車両と同様となっている。	ただし、そーこーききるいわじゅーらいしゃりょーとどーよーとなっている。	NO_LABEL
また、4扉車の空調装置についても従来車と同仕様となっている。	NO_PRONOUNCE	NO_LABEL
山手線の6扉付随車を置き換えることを目的に新津車両製作所で4扉付随車が製造されていたが、付随車は単独で試運転を行うことができないことと、本系列のブレーキ装置は TIMS を介して行うもので、機関車けん引による配給輸送の際にブレーキを作用させるために制御車とTIMS に電源を供給する電動車が必要となる。	NO_PRONOUNCE	NO_LABEL
このため、検査時期などを考慮して三鷹車両センターのB27編成が2010年1月に東京総合車両センターに転属し、サハ4両を抜いた制御車・電動車6両が使用された。	NO_PRONOUNCE	NO_LABEL
使用した6両は新製された付随車の試運転・配給輸送のほか、廃車になるサハE230形の長野総合車両センターへの配給輸送に使用され、いずれも編成の中間に対象となる付随車を4両組み込む形態で試運転・配給輸送が実施された。	NO_PRONOUNCE	NO_LABEL
使用しない付随車は東京総合車両センターに保留車として留置されていた。	しよーしないふずいしゃわとーきょーそーごーしゃりょーせんたーにほりゅーしゃとしてりゅーちされていた。	NO_LABEL
また、配給輸送使用中の同車は営業用車両ではなく、事業用車の扱いとなっていた 。	また、はいきゅーゆそーしよーちゅーのどーしゃわえいぎょーよーしゃりょーでわなく、じぎょーよーしゃのあつかいとなっていた。	NO_LABEL
その後、約1年半の山手線用車両配給輸送終了後の2011年11月に三鷹車両センターに戻っている。	そのご、やくいちねんはんのやまのてせんよーしゃりょーはいきゅーゆそーしゅーりょーごのにせんじゅういちねんじゅーいちがつにみたかしゃりょーせんたーにもどっている。	NO_LABEL
2001年11月から落成が始まり、2002年3月3日に営業運転を開始した。	にせんいちねんじゅーいちがつかららくせいがはじまり、にせんにねんさんがつみっかにえいぎょーうんてんをかいしした。	NO_LABEL
このグループは全編成が新津車両製作所製である。	このぐるーぷわぜんへんせいがにーつしゃりょーせいさくじょせいである。	NO_LABEL
常磐快速線・成田線では、置き換えの103系の車両数285両に対し、本系列の投入車両数は予備車を削減して280両の予定であったところ、常磐線中距離電車へE531系製造計画の決定による計画変更により265両の投入に変更し、代替に103系3編成30両を残存させた。	NO_PRONOUNCE	NO_LABEL
その後、2006年3月18日のダイヤ改正で運用本数が削減され、残った103系は本系列への置き換えを行わずに廃車となり、全列車がE231系による運転となった。	そのご、にせんろくねんさんがつじゅうはちにちのだいやかいせいでうんよーほんすーがさくげんされ、のこったひゃくさんけいわほんけいれつえのおきかえをおこなわずにはいしゃとなり、ぜんれっしゃがいーにひゃくさんじゅういちけいによるうんてんとなった。	NO_LABEL
このダイヤ改正後は15両編成で運転する列車が増加している。	このだいやかいせいごわじゅうごりょーへんせいでうんてんするれっしゃがぞーかしている。	NO_LABEL
仕様は中央・総武緩行線向け0番台を基本とし、分割・併合運転に対応するための機能を追加している。	NO_PRONOUNCE	NO_LABEL
内容は運用上から使用を想定していない基本編成の上野側先頭車を除いた先頭車に電気連結器を搭載した。	ないよーわうんよーじょーからしよーをそーていしていないきほんへんせいのうえのがわせんとーしゃをのぞいたせんとーしゃにでんきれんけつきをとーさいした。	NO_LABEL
前面FRPは白色となり、スカート形状を変更している。	ぜんめんえふあーるぴーわはくしょくとなり、すかーとけいじょーをへんこーしている。	NO_LABEL
外観のラインカラー帯は、エメラルド・グリーンであり、同線で使用されていた103系と同色のカラーである。	NO_PRONOUNCE	NO_LABEL
側面には車外放送用スピーカーの取り付け準備をしてあり、合わせて乗務員室の車掌スイッチユニット内に車外放送設備の準備工事を実施した。	そくめんにわしゃがいほーそーよーすぴーかーのとりつけじゅんびをしてあり、あわせてじょーむいんしつのしゃしょーすいっちゆにっとないにしゃがいほーそーせつびのじゅんびこーじをじっしした。	NO_LABEL
車内は座席クッションは座り心地を見直したほか、座席下の暖房器を斜め吊り構造とすることで、暖房効率の改善を図った。	しゃないわざせきくっしょんわすわりごこちをみなおしたほか、ざせきかのだんぼーきをななめつりこーぞーとすることで、だんぼーこーりつのかいぜんをはかった。	NO_LABEL
また、車端部3人掛け座席部の荷棚長さを若干延長し、荷物を載せやすくした。	また、くるまたんぶさんにんかけざせきぶのにたなながさをじゃっかんえんちょーし、にもつをのせやすくした。	NO_LABEL
その他、細かな変更としては車内中吊り広告金具を挟み込み方式から差し込み方式に変更、また材質をアルミニウムの無塗装品としたほか、乗務員室背面の仕切り窓下に埋め込み形の手すりを新設した。	そのた、こまかなへんこーとしてわしゃないなかずりこーこくかなぐをはさみこみほーしきからさしこみほーしきにへんこー、またざいしつをあるみにゅーむのむとそーひんとしたほか、じょーむいんしつはいめんのしきりまどかにうめこみがたのてすりをしんせつした。	NO_LABEL
乗務員室内は次に述べるVIS装置等の機器の増加に伴い、乗務員室背面部にも機器ユニットを新設するなど配置を変更している。	NO_PRONOUNCE	NO_LABEL
運転台は前面計器パネル右側にTIMS第2表示器の取り付け準備を実施したほか、運転士用の仕業表差しを大形時刻表への対応形とした。	NO_PRONOUNCE	NO_LABEL
また、列車待避時等の長時間停車時における車内保温を考慮して片側4か所のドアのうち1か所を除いて閉めることが可能な「3/4閉」スイッチを設置している。	NO_PRONOUNCE	NO_LABEL
走行機器などの仕様は0番台に準じたものであるが、制御装置は改良型のSC60B形VVVFインバータ装置とSC62A形静止形インバータ装置が採用されている。	NO_PRONOUNCE	NO_LABEL
乗客へのサービス向上策として地上から車上へ情報を配信するシステムとして情報提供装置を搭載した。	じょーきゃくえのさーびすこーじょーさくとしてちじょーからしゃじょーえじょーほーをはいしんするしすてむとしてじょーほーていきょーそーちをとーさいした。	NO_LABEL
これは運行情報配信センターからの運行情報をパケット通信により送信・車両側で受信して、受信データを車内の案内表示器に表示させるシステムである。	NO_PRONOUNCE	NO_LABEL
このため、車内案内表示器は従来の1段表示から2段表示式としており、上段には行き先・次駅案内・現在駅・ドア開方向などを表示し、下段には行き先・乗り換え案内・所要時間・運行情報・急停車・マナー文などの表示用として使用する。	NO_PRONOUNCE	NO_LABEL
順番は運行情報→運行路線→携帯電話→テロ対策で、日本語2回→英語2回で流れるが、テロ関連だけ英語表示はない。	NO_PRONOUNCE	NO_LABEL
運行情報のない時は運行路線から表示する。	うんこーじょうほーのないときわうんこーろせんからひょーじする。	NO_LABEL
これは基本的には後の近郊タイプにも採用されている内容だが、常磐快速線・成田線仕様では始発駅停車中、または我孫子駅での増結作業中に主要駅までの所要時間を表示し、また運行路線も行先まで表示する。	NO_PRONOUNCE	NO_LABEL
新たな列車運行情報が入電された場合はアラート音が鳴る。	あらたなれっしゃうんこーじょうほーがにゅーでんされたばあいわあらーとおんがなる。	NO_LABEL
なお、VIS装置は受信機能のほか、TIMSで取得した情報を地上側に送信する機能も持たせている。	NO_PRONOUNCE	NO_LABEL
放送装置にはJR東日本の通勤形車両では初めて本格的な自動放送装置を搭載しており、日本語および英語による案内放送を行っている。	ほーそーそーちにわじぇいあーるひがしにほんのつーきんがたしゃりょーでわはじめてほんかくてきなじどーほーそーそーちをとーさいしており、にほんごおよびえいごによるあんないほーそーをおこなっている。	NO_LABEL
2015年には上野東京ラインの開業に合わせて、三鷹車両センターのミツB20編成・ミツB21編成がそれぞれマト118編成・マト119編成として転入し同年3月14日から営業運転を開始した。	NO_PRONOUNCE	NO_LABEL
これらの編成はホーム検知装置が付いているほか、車外放送用スピーカーの取り付けスペースがないため上部ラインが端部から中央の行先表示器まで連続しており、車内案内表示器も従来の1段表示式となっている。	NO_PRONOUNCE	NO_LABEL
転入に際しては上記の通り6扉車のサハE230がミツB22編成から捻出したサハE231に振り替えられている。	NO_PRONOUNCE	NO_LABEL
武蔵野線用205系の置き換え用として、中央・総武緩行線用0番台を8両編成にして転用させた車両で、第1編成が2017年9月14日に落成、同年11月1日から運用を開始した。	NO_PRONOUNCE	NO_LABEL
2002年1月より山手線の205系置き換え用として落成が始まり、同年4月21日より営業運転を開始、2005年4月17日までに全編成が出揃った。	にせんにねんいちがつよりやまのてせんのにひゃくごけいおきかえよーとしてらくせいがはじまり、どーねんしがつにじゅういちにちよりえいぎょーうんてんをかいし、にせんごねんしがつじゅうしちにちまでにぜんへんせいがでそろった。	NO_LABEL
このグループは全編成が新津車両製作所製である。	このぐるーぷわぜんへんせいがにーつしゃりょーせいさくじょせいである。	NO_LABEL
山手線では従来から使用してきたATC-6型保安装置の老朽化に伴い、新保安システムとしてデジタルATCの導入が決定され、これに伴い車両側の更新も必要とされた 。	NO_PRONOUNCE	NO_LABEL
山手線で運用をしていた205系は、この時点では車両置き換え時期には達していなかったが、山手線は「東京の顔」でもあり日本を代表する路線でもあることから、D-ATC の導入に先駆けて新型車両を導入することでサービス向上とイメージアップを図ることとされた。	NO_PRONOUNCE	NO_LABEL
なお、置き換えられた205系は各種転用改造を施工を実施し、仙石線や首都圏の各路線へ転属させて101・103系の置き換えや増発用に充当された。	NO_PRONOUNCE	NO_LABEL
本番台は常磐快速線・成田線用0番台と同時期に設計が行われたが、変更点が多いことから500番台に区分した。	NO_PRONOUNCE	NO_LABEL
前面デザインは0番台と異なり白色をベースとした独自のものに変更され、前照灯と尾灯の位置が入れ替わっている。	NO_PRONOUNCE	NO_LABEL
行先表示器は周回運転列車においては、従来の205系では「山手線」の固定表示であったが、E231系では区間ごとに主要駅表示を切り換えて表示することで旅客サービスの向上を図った 。	NO_PRONOUNCE	NO_LABEL
客室内装は0番台同様に内板を白色系、床面は灰色としたが、座席表地は濃緑色として都会を走る山手線をイメージした新しいデザインとした 。	NO_PRONOUNCE	NO_LABEL
このほか、つり革はシール広告の貼り付けに対応できるものとしたほか、中吊り広告枠は常磐快速線・成田線用と同様のタイプに変更した。	NO_PRONOUNCE	NO_LABEL
車内案内表示器には車内情報システムを搭載し、車内のドア上部にはLED表示器に代わって2基の液晶ディスプレイが設置され、トレインチャンネルと呼ばれる車内情報サービスを提供している。	しゃないあんないひょーじきにわしゃないじょーほーしすてむをとーさいし、しゃないのどあじょーぶにわえるいーでぃーひょーじきにかわってにきのえきしょーでぃすぷれいがせっちされ、とれいんちゃんねるとよばれるしゃないじょーほーさーびすをていきょーしている。	NO_LABEL
右側画面には次駅・所要時間・ドア開閉方向・列車遅延情報などを、左側画面にはお知らせやCM、スポンサー提供の各種情報コンテンツを表示する。	NO_PRONOUNCE	NO_LABEL
また、常磐快速線用0番台と同様、日本語・英語放送に対応した自動放送装置を搭載しているほか、将来の車外放送に対応できるように車外スピーカー取り付け準備を施している。	NO_PRONOUNCE	NO_LABEL
2014年6月15日よりトウ551編成を皮切りに、車外スピーカーの設置が始まっている。	NO_PRONOUNCE	NO_LABEL
また、トウ517編成以降は、貫通扉はE217系タイプから800番台と同様の傾斜式に変更した。	NO_PRONOUNCE	NO_LABEL
制御装置は常磐線用0番台と同じSC60B形VVVFインバータ装置を採用し、0 km/hまで電力回生ブレーキが作動する「純電気ブレーキ」が採用されている。	NO_PRONOUNCE	NO_LABEL
将来の運転性能向上に備え、編成中の電動車と付随車の構成は 6M5T と高く取られ、起動加速度も0番台の 2.5 km/h/s より高い 3.0 km/h/s を確保した。	NO_PRONOUNCE	NO_LABEL
保安装置にはデジタルATCを搭載しており、更新前のATC6形の機能も備えられているものである。	NO_PRONOUNCE	NO_LABEL
D-ATCに対応して床下にはD-ATC車上子が2基取り付けられている。	NO_PRONOUNCE	NO_LABEL
乗務員室は0番台を基本としながら、常磐快速線・成田線用と同じく計器パネル右側にTIMS第2表示器の取り付け準備工事をした。	NO_PRONOUNCE	NO_LABEL
このほか、VIS装置の設置に伴い機器配置を変更している。	NO_PRONOUNCE	NO_LABEL
車掌スイッチ部には各車両4か所のドアのうち1か所を除いて閉め切ることが可能な「3/4閉」スイッチを設置している。	NO_PRONOUNCE	NO_LABEL
205系は10号車に連結した6扉車は、本番台では混雑緩和を目的として7号車と10号車の2両に連結した。	NO_PRONOUNCE	NO_LABEL
座席は平日の初電 - 10時は収納状態で固定され、10時を過ぎた時点で使用可能とされていたが、4扉車への置き換えを開始してから、6扉車の座席は終日利用可能とした。	NO_PRONOUNCE	NO_LABEL
6扉車の扉の上部には「6DOORS」のステッカーが貼り付けられていた。	NO_PRONOUNCE	NO_LABEL
冷房装置については初期に落成したトウ501 - 503編成は4扉車についてはAU725形とし、開扉面積の大きい6扉車は能力向上形のAU726形を搭載し、補助電源装置であるSIV装置は編成で2台搭載としていた。	NO_PRONOUNCE	NO_LABEL
トウ504編成以降は4扉車も能力向上形のAU726形搭載になり11両全車両がAU726形になった。	NO_PRONOUNCE	NO_LABEL
これに伴い消費電力増加のために5号車にもSIV装置を搭載して編成で3台とされた。	NO_PRONOUNCE	NO_LABEL
空気圧縮機は従来5号車には搭載されていなかったが、可動式ホーム柵の設置に伴う定位置停止装置使用時の動作性を考慮して5号車にも CP の増設工事が実施された。	くーきあっしゅくきわじゅーらいごごーしゃにわとーさいされていなかったが、かどーしきほーむさくのせっちにともなうていいちていしそーちしよーじのどーさせいをこーりょしてごごーしゃにもしーぴーのぞーせつこーじがじっしされた。	NO_LABEL
2008年春までに全編成がV字に尖がった大型形状のスカートに交換され、優先席付近のつり革も黄色いE233系タイプに交換済みである。	NO_PRONOUNCE	NO_LABEL
2009年9月7日から12月4日まで、明治製菓全面協力の下、トウ502編成に全面ぶどう色2号を配した「山手線命名100周年記念 復刻調ラッピング電車」が運行されていた。	NO_PRONOUNCE	NO_LABEL
また、車体に表記される車両番号書体が国鉄のものに準じていた。	また、しゃたいにひょーきされるしゃりょーばんごーしょたいがこくてつのものにじゅんじていた。	NO_LABEL
その後2013年1月16日から12月28日まで、車両のカラーが初めて現在のウグイス色となった103系登場50周年を記念してトウ545編成に103系をイメージしたラッピングを配した「みどりの山手線」が運行された。	NO_PRONOUNCE	NO_LABEL
そして2014年10月11日からは、東京駅開業100周年を記念して、トウ514編成に東京駅の赤レンガを模したラッピングが配されている。	NO_PRONOUNCE	NO_LABEL
このラッピング列車は2015年3月31日まで運行されていた。	このらっぴんぐれっしゃわにせんじゅうごねんさんがつさんじゅういちにちまでうんこーされていた。	NO_LABEL
2010年12月15日より、トウ550編成の客室内照明を蛍光灯からLED照明に変更した。	NO_PRONOUNCE	NO_LABEL
この結果、節電及びCO排出削減効果が確認出来たため、2013年夏から2014年春にかけ山手線の蛍光灯全てを順次LED照明に取り替えるとしている。	NO_PRONOUNCE	NO_LABEL
これにより、車内照明の消費電力は現行の蛍光灯に比べ約4割削減される。	これにより、しゃないしょーめいのしょーひでんりょくわげんこーのけいこーとーにくらべやくよんわりさくげんされる。	NO_LABEL
2010年から2017年まで、乗客への安全性向上と転落事故による輸送障害の減少を目的として、山手線各駅のホームに可動式ホーム柵の設置が予定されている。	にせんじゅうねんからにせんじゅうななねんまで、じょーきゃくえのあんぜんせいこーじょーとてんらくじこによるゆそーしょーがいのげんしょーをもくてきとして、やまのてせんかくえきのほーむにかどーしきほーむさくのせっちがよていされている。	NO_LABEL
このため、車両側には可動式ホーム柵に対応させるための改造工事が行われたほか、6扉車は新造される4扉車に置き換えられた。	NO_PRONOUNCE	NO_LABEL
ホームドアの設置に伴い、車両側においても対応させるための改造工事が施工されている 	ほーむどあのせっちにともない、しゃりょーがわにおいてもたいおーさせるためのかいぞーこーじがしこーされている	NO_LABEL
各先頭車には定位置停止装置とホームドアおよび車両ドアを連動して制御を行うためのホームドア車上装置を搭載した。	かくせんとーしゃにわていいちていしそーちとほーむどあおよびしゃりょーどあをれんどーしてせいぎょをおこなうためのほーむどあしゃじょーそーちをとーさいした。	NO_LABEL
TASC はホームドアの設置に伴う高い停止精度を確保するために設置をしたものである。	てぃーえーえすしーわほーむどあのせっちにともなうこういていしせいどをかくほするためにせっちをしたものである。	NO_LABEL
TASC は高位指令優先型となっており、TASC使用時に手動介入や ATC からのブレーキがある場合には高位の指令が優先されるシステムとなっている。	てぃーえーえすしーわこーいしれいゆーせんがたとなっており、てぃーえーえすしーしよーじにしゅどーかいにゅーやえいてぃーしーからのぶれーきがあるばあいにわこーいのしれいがゆーせんされるしすてむとなっている。	NO_LABEL
TASC装置は D-ATC のシステム内に設置されており、TASC制御部・TASC検査記録部などから構成されている。	NO_PRONOUNCE	NO_LABEL
地点情報はD-ATC車上子とD-ATCトランスポンダを経由してTASC装置へインタフェースを行っている。	NO_PRONOUNCE	NO_LABEL
TASC によるブレーキングの際には、手動7段のブレーキ操作を4分割した28段の多段制御を行うことで乗り心地の低下を防止している。	NO_PRONOUNCE	NO_LABEL
TASC の停止精度は前後 350 mm 以内としており、また車両ドアの開口幅が 1,300 mm であることから、ホームドア開口部は最大の誤差を考慮した 2,000 mm としている。	NO_PRONOUNCE	NO_LABEL
一方、ホームドア車上装置はホームドアトランスポンダ送受信装置とホームドア車上子、ホームドア継電器部、運転台のホームドア表示灯および関係スイッチなどから構成されるものである。	いっぽー、ほーむどあしゃじょーそーちわほーむどあとらんすぽんだそーじゅしんそーちとほーむどあしゃかみこ、ほーむどあけいでんきぶ、うんてんだいのほーむどあひょーじとーおよびかんけいすいっちなどからこーせいされるものである。	NO_LABEL
このうちホームドアトランスポンダ送受信装置、ホームドア車上子はクハE230形500番台のみに搭載されている。	NO_PRONOUNCE	NO_LABEL
ホームドアには車両ドアとの連動機能を設けている。	ほーむどあにわしゃりょーどあとのれんどーきのーをもーけている。	NO_LABEL
このため、ホームドア制御には「分離モード」と「連携モード」が用意されており、地上側の連携分離切替地上子からの情報から各モードの切り替えが行われる。	NO_PRONOUNCE	NO_LABEL
ホームドア非設置駅においては「分離モード」が機能し、車両ドアの開閉のみが行われる。	NO_PRONOUNCE	NO_LABEL
一方、ホームドア設置駅においては「連携モード」が機能し、車両ドアの開閉に連動してホームドアの開閉も実施される。	NO_PRONOUNCE	NO_LABEL
なお、連携モード時には車両ドアの閉扉に加えてホームドアの閉扉条件が「運転士知らせ灯」の点灯条件となっており、ホームドアの全閉がない場合には列車が出発できないよう制御される。	NO_PRONOUNCE	NO_LABEL
500番台の6扉車は廃車とし、代替として4扉が104両導入されており、7号車に組み込むものは600番台、10号車に組み込まれるものは4600番台に区分されている。	NO_PRONOUNCE	NO_LABEL
この新造車は形式はE231系であるが、車体構造は後継車として増備が進められているE233系をベースにしたものとされている。	このしんぞーしゃわけいしきわいーにひゃくさんじゅういちけいであるが、しゃたいこーぞーわこーけいしゃとしてぞーそなえがすすめられているいーにさんさんけいをべーすにしたものとされている。	NO_LABEL
ただし、外観の車体帯配置や車体主要寸法などはE231系500番台に合わせたもので、床面高さについてもE231系同様の 1,165 mm に合わせられている。	NO_PRONOUNCE	NO_LABEL
ドア位置は600番台は既存と同位置だが、4600番台では京浜東北線E233系1000番台10号車にドア位置を合わせるため、通常の中間車よりもドアが 690 mm 車体中央寄りに配置されている。	NO_PRONOUNCE	NO_LABEL
ドアエンジンは既存の500番台同様のスクリュー軸式を使用している。	NO_PRONOUNCE	NO_LABEL
客室内は600番台はE231系500番台に準じたものであるが、袖仕切形状や座席周囲の手すり形状、荷棚はE233系と同等品を使用している。	NO_PRONOUNCE	NO_LABEL
優先席部では壁面をクリーム色とし、座席横手すりは黄色の着色品を使用している 。	ゆーせんせきぶでわへきめんをくりーむいろとし、ざせきよこてすりわきいろのちゃくしょくひんをしよーしている。	NO_LABEL
一方、4600番台ではドア位置を変更している関係で、座席配置は4-5-7-7-3人掛け配置とされている。	NO_PRONOUNCE	NO_LABEL
また、側窓は4人掛け位置に小窓を2枚並んで配置し、5人掛け部は幅の狭い固定窓を配置している。	また、がわまどわよにんかけいちにしょーまどをにまいならんではいちし、ごにんかけぶわはばのせまいこていまどをはいちしている。	NO_LABEL
客室内はE233系と同等とされており、ドア部はE233系同様の複層ガラスで化粧板仕上げとされ、優先席部のデザインもE233系と同様とされている。	きゃくしつないわいーにさんさんけいとどーとーとされており、どあぶわいーにさんさんけいどーよーのふくそーがらすでけしょーいたしあげとされ、ゆーせんせきぶのでざいんもいーにさんさんけいとどーよーとされている。	NO_LABEL
ただし、座席モケットや車内案内表示器、つり革などはE231系500番台に準じたものである。	ただし、ざせきもけっとやしゃないあんないひょーじき、つりかわなどわいーにひゃくさんじゅういちけいごひゃくばんだいにじゅんじたものである。	NO_LABEL
付随車であるため、機器面では大きな変更はない。	ふずいしゃであるため、ききめんでわおーきなへんこーわない。	NO_LABEL
台車は600番台は既存車と同様のTR246P形台車を、4600番台はE233系と同様のTR255A形台車を使用している。	NO_PRONOUNCE	NO_LABEL
また、これらの車両は製造コストを押さえるため、廃車となる6扉車から台車、ブレーキ制御装置、AU726形空調装置、TIMS端末演算ユニット、戸閉制御装置、VIS端末装置やメディア表示器などの使用可能な機器・部品については再利用をしている。	NO_PRONOUNCE	NO_LABEL
6扉車の廃車が発生する前に落成した編成分については新品を使用している。	ろくとびらしゃのはいしゃがはっせいするまえにらくせいしたへんせいぶんについてわしんぴんをしよーしている。	NO_LABEL
この機器・部品を再利用する関係で、編成中における車両の検査時期が変わってしまうという問題点が発生した。	NO_PRONOUNCE	NO_LABEL
この解決策として最終の車両番号52番から番号が若くなるように製造を進めることになった。	このかいけつさくとしてさいしゅーのしゃりょーばんごーごじゅうにばんからばんごーがわかくなるよーにせいぞーをすすめることになった。	NO_LABEL
このため、52番を付番する車両が最も古く、1番を付番する車両が最も新しい車両となった 。	このため、ごじゅうにばんをふばんするしゃりょーがもっともふるく、いちばんをふばんするしゃりょーがもっともあたらしいしゃりょーとなった。	NO_LABEL
2010年1月22日には4扉付随車の配給輸送に使用される元ミツB27編成が新津車両製作所へ配給輸送され、1月29日には落成したサハE231-4651・サハE231-651・サハE231-4652・サハE231-652の4両が元ミツB27編成に組成され、信越本線新津 - 新潟間で試運転を行った。	NO_PRONOUNCE	NO_LABEL
その後、2月1日に新津車両製作所から大崎駅まで1回目の4扉付随車の配給輸送が実施され、編成組み替え実施後の2月22日から4扉付随車の営業運転を開始した。	NO_PRONOUNCE	NO_LABEL
それに先駆けて2010年2月19日をもって6扉車の座席収納を終了し、座席は終日利用可能な状態になった。	それにさきがけてにせんじゅうねんにがつじゅうきゅうにちをもってろくとびらしゃのざせきしゅーのーをしゅーりょーし、ざせきわしゅーじつりよーかのーなじょーたいになった。	NO_LABEL
翌2011年8月16日には26回目となる最後の4扉付随車の配給輸送が実施された。	NO_PRONOUNCE	NO_LABEL
そして8月31日に最後まで6扉車を組み込んでいたトウ501編成が組み替えのため営業運転を離脱し、6扉車の営業運転を終了した。	NO_PRONOUNCE	NO_LABEL
なお、6扉車サハE230形500番台は同年9月までに全車両の廃車・除籍が完了した。	NO_PRONOUNCE	NO_LABEL
2014年11月の発表で、山手線のE231系は順次E235系に置き換えられることとなった。	にせんじゅうよねんじゅーいちがつのはっぴょーで、やまのてせんのいーにひゃくさんじゅういちけいわじゅんじいーにひゃくさんじゅうごけいにおきかえられることとなった。	NO_LABEL
これに先立ち、トウ520編成のうち8両が総合車両製作所新津事業所へと配給輸送され、うちサハE231-4620を除く7両は返却された。	NO_PRONOUNCE	NO_LABEL
トウ520編成は帯の黄色化・所属表記変更・改造を受けた上でミツA520編成となり、三鷹車両センターへと回送した。	NO_PRONOUNCE	NO_LABEL
配給時に抜き取ったサハE231-4620はサハE235-4620へと改造され、E235系第1編成に組み込まれた。	NO_PRONOUNCE	NO_LABEL
その後、E235系の量産が2017年春から開始されることが発表され、置き換えられるE231系500番台は中央・総武緩行線へ転用され、2017年10月1日現在随時進行中である。	そのご、いーにひゃくさんじゅうごけいのりょーさんがにせんじゅうななねんはるからかいしされることがはっぴょーされ、おきかえられるいーにひゃくさんじゅういちけいごひゃくばんだいわちゅーおーそーぶかんこーせんえてんよーされ、にせんじゅうななねんじゅーがつついたちげんざいずいじしんこーちゅーである。	NO_LABEL
それに伴い、捻出される同線用の0番台の詳細は前述の#0番台##武蔵野線の項目及び後述の#3000番台の項目を参照。	NO_PRONOUNCE	NO_LABEL
なお2011年6月29日から試験的に1両のみ、JR東日本と慶應義塾大学が共同開発した座席間の凹凸を大きくし着席位置をはっきりさせた新型シートを導入している。	NO_PRONOUNCE	NO_LABEL
中央・総武緩行線から帝都高速度交通営団）東西線への直通運転用の103系1000・1200番台および301系を置き換えるために2003年1月から落成が始まり、同年5月1日に営業運転を開始した。	NO_PRONOUNCE	NO_LABEL
東西線との直通仕様となっているため、車体は千代田線直通用の209系1000番台のものを基本としているが、台車間距離は13,800 mmである。	NO_PRONOUNCE	NO_LABEL
先頭車の前面には地下鉄線内用の非常扉を装備し、非常時にはハシゴ付き補助腰掛を使用して車外に脱出できるものとした。	せんとーしゃのぜんめんにわちかてつせんないよーのひじょーとびらをそーびし、ひじょーじにわはしごつきほじょこしかけをしよーしてしゃがいにだっしゅつできるものとした。	NO_LABEL
運転台は従来の通勤形を基本としているが、マスコンハンドルにはデッドマン装置を搭載する。	うんてんだいわじゅーらいのつーきんがたをきほんとしているが、ますこんはんどるにわでっどまんそーちをとーさいする。	NO_LABEL
ただし、この装置は東西線内で使用される。	ただし、このそーちわとーざいせんないでしよーされる。	NO_LABEL
さらに運転台左下にJR - 東京地下鉄切り換えスイッチの設置、右下に東京地下鉄用誘導無線送受話器の設置が行われている。	NO_PRONOUNCE	NO_LABEL
客室内構成は0番台に準拠したもので、内板は白色系、座席表地は青色となっている。	NO_PRONOUNCE	NO_LABEL
ただし、車椅子スペースは他番台とは異なり、東京メトロ車に合わせた2・9号車の設置としている。	NO_PRONOUNCE	NO_LABEL
このほか、800番台ではJR東日本の電車として初めて車両間の貫通扉が傾斜式に変更され、2003年以降に製造される他番台へ採用が進められた。	NO_PRONOUNCE	NO_LABEL
さらに車外スピーカーや乗降促進ブザーも製造当初から設置している。	さらにしゃがいすぴーかーやじょーこーそくしんぶざーもせいぞーとーしょからせっちしている。	NO_LABEL
冷房装置は山手線500番台2次車以降と同様に能力向上形のAU726形を採用しており、電源容量の関係からモハE230形800番台車には全車SIV装置を搭載している。	NO_PRONOUNCE	NO_LABEL
列車無線装置はJR線用のデジタル無線のほか、東京地下鉄用の誘導無線装置を搭載しており、このため4号車の床下には誘導無線送受信機の設置、妻面および床下に誘導無線アンテナを設置する。	れっしゃむせんそーちわじぇいあーるせんよーのでじたるむせんのほか、とーきょーちかてつよーのゆーどーむせんそーちをとーさいしており、このためよんごーしゃのゆかしたにわゆーどーむせんそーじゅしんきのせっち、つまめんおよびゆかしたにゆーどーむせんあんてなをせっちする。	NO_LABEL
走行距離調整のため、東西線内のみの運用にも使用される。	そーこーきょりちょーせいのため、とーざいせんないのみのうんよーにもしよーされる。	NO_LABEL
制御装置は改良型のSC60C形VVVFインバータ装置とし、0 km/h まで電力回生ブレーキが作動する純電気ブレーキを採用している。	NO_PRONOUNCE	NO_LABEL
また、東西線との相互直通協定により起動加速度が 3.3 km/h/s となっていることから、これに対応する出力・粘着力確保のため電動車比率を高く取っている。	NO_PRONOUNCE	NO_LABEL
自動放送はJRと東京メトロの両方に対応しており、東西線内では東京メトロ仕様の自動放送を使用する。	じどーほーそーわじぇいあーるととーきょーめとろのりょーほーにたいおーしており、とーざいせんないでわとーきょーめとろしよーのじどーほーそーをしよーする。	NO_LABEL
側面のLED式行先表示器は行先と路線名を交互に表示するが、東西線、中央・総武緩行線走行中も路線名の表示は「地下鉄東西線直通」のままである。	NO_PRONOUNCE	NO_LABEL
また、車内表示器の「地下鉄東西線直通」は東西線に入る前のJR線内および中野・西船橋両駅停車中のみ表示される。	NO_PRONOUNCE	NO_LABEL
車内表示器には行先・種別も表示されるが、同線内の駅ナンバリングに対応していない。	NO_PRONOUNCE	NO_LABEL
その他、列車番号表示器の表示はJR線内が列車番号をフル表示し、末尾のアルファベットは快速がA、普通はYである。	NO_PRONOUNCE	NO_LABEL
対して東西線内は運用番号である○○Kとなり、中野と西船橋で切り替える。	NO_PRONOUNCE	NO_LABEL
営業開始直後の2003年5月には東西線内でもJR方式の表示が見られたことがあったが、現在では運用番号に統一されている。	えいぎょーかいしちょくごのにせんさんねんごがつにわとーざいせんないでもじぇいあーるほーしきのひょーじがみられたことがあったが、げんざいでわうんよーばんごーにとーいつされている。	NO_LABEL
三鷹車両センターのE231系編成としては、中央・総武緩行線用の編成と東西線直通用の編成の番号はともに「ミツ1」 - で表示するため、そのままでは運用の区別ができないので、「ミツ」とは別に運用記号で中央・総武緩行線用が「B編成」・「A編成」、東西線直通用が「K編成」として管理している。	NO_PRONOUNCE	NO_LABEL
なお、営業運転開始直前の2003年4月には第4編成が性能試験として三鷹 - 塩山間を実際に走行した。	NO_PRONOUNCE	NO_LABEL
また、東海道線国府津まで試運転で入線したことがある。	また、とーかいどーせんこーずまでしうんてんでにゅーせんしたことがある。	NO_LABEL
新宿駅跨線橋架け替え工事などで中央線と東西線の直通運転が終日中止になると、車両は三鷹車両センターに留置されたままになり、東西線での800番台の運用は東京メトロや東葉高速鉄道の車両による代走となる。	NO_PRONOUNCE	NO_LABEL
八高線・川越線の運用車両を置き換えるため、武蔵野線用0番台と同じく中央・総武緩行線用0番台を改造した車両である。	NO_PRONOUNCE	NO_LABEL
2000年3月から小山電車区の115系置き換え用として新製配置され、同年6月21日から宇都宮線の普通・快速列車として営業運転を開始した。	NO_PRONOUNCE	NO_LABEL
2001年9月1日からは高崎線の普通・快速列車でも運用が開始され、同年12月1日の湘南新宿ラインの運転開始とともに同線や直通先の横須賀線・東海道線へも運用を拡大した。	NO_PRONOUNCE	NO_LABEL
2004年10月16日のダイヤ改正で同センターの115系の全定期運用を置き換えた。	にせんよねんじゅーがつじゅうろくにちのだいやかいせいでどーせんたーのひゃくじゅうごけいのぜんていきうんよーをおきかえた。	NO_LABEL
さらに、2004年1月からは国府津車両センターの113系置き換え用として新製配置が始まった。	さらに、にせんよねんいちがつからわこーずしゃりょーせんたーのひゃくじゅうさんけいおきかえよーとしてしんせいはいちがはじまった。	NO_LABEL
東海道線での運用に先駆けて、同年7月18日より宇都宮線・高崎線で暫定的に運用を開始し、10月16日より湘南新宿ラインおよび東海道線・伊東線・御殿場線の普通・快速列車で本格的に運用を開始した。	NO_PRONOUNCE	NO_LABEL
2006年3月18日のダイヤ改正で同センターの113系の全定期運用を置き換えた。	にせんろくねんさんがつじゅうはちにちのだいやかいせいでどーせんたーのひゃくじゅうさんけいのぜんていきうんよーをおきかえた。	NO_LABEL
この国府津車両センター向けの車両では新たにグリーン車の組み込みが行われ、これに合わせて小山車両センター向けの近郊タイプにもグリーン車組み込みが実施されることになった。	このこーずしゃりょーせんたーむけのしゃりょーでわあらたにぐりーんしゃのくみこみがおこなわれ、これにあわせておやましゃりょーせんたーむけのきんこーたいぷにもぐりーんしゃくみこみがじっしされることになった。	NO_LABEL
また、以降に製造された車両では、運転台や車内設備の仕様が一部変更されている。	また、いこーにせいぞーされたしゃりょーでわ、うんてんだいやしゃないせつびのしよーがいちぶへんこーされている。	NO_LABEL
2006年3月に国府津車両センターへの配備が完了した後、上野駅発着の宇都宮線・高崎線のすべての中距離列車にグリーン車を組み込むことが決定し、この決定と前後して同年2 - 6月に再び小山車両センター向けに新造配備が行われた。	NO_PRONOUNCE	NO_LABEL
新造車の基本編成には当初からグリーン車が組み込まれ、付属編成には11 - 15号車のステッカーを貼り付けした。	NO_PRONOUNCE	NO_LABEL
仕様については国府津車両センター配置車両に準拠する。	しよーについてわこーずしゃりょーせんたーはいちしゃりょーにじゅんきょする。	NO_LABEL
2004年10月16日から2015年3月13日までは湘南新宿ラインの全列車が近郊タイプで運行された。	にせんよねんじゅーがつじゅうろくにちからにせんじゅうごねんさんがつじゅうさんにちまでわしょーなんしんじゅくらいんのぜんれっしゃがきんこーたいぷでうんこーされた。	NO_LABEL
通勤タイプと比較した際の近郊タイプの特徴として、以下の点が挙げられる。	つーきんたいぷとひかくしたさいのきんこーたいぷのとくちょーとして、いかのてんがあげられる。	NO_LABEL
2017年3月現在	にせんじゅうななねんさんがつげんざい	NO_LABEL
上野東京ラインや湘南新宿ラインなど複数路線へまたがる運用も数多く存在し、本系列の中でも走行距離が極めて長いのが特徴である。	うえのとーきょーらいんやしょーなんしんじゅくらいんなどふくすーろせんえまたがるうんよーもかずおーくそんざいし、ほんけいれつのなかでもそーこーきょりがきわめてながいのがとくちょーである。	NO_LABEL
2008年3月15日当時のダイヤでは、湘南新宿ラインを中心に1日に 1,000 km 以上を走破する運用も存在した他、2017年現在でも熱海発黒磯行きや高崎発沼津行きなど、片道運用だけでも200 km級の運用を昼夜問わずこなしている。	NO_PRONOUNCE	NO_LABEL
国府津車両センターへの投入と同時期に小山車両センターの基本編成に対しても全編成に2階建てグリーン車を組み込むことが決定された。	こーずしゃりょーせんたーえのとーにゅーとどーじきにおやましゃりょーせんたーのきほんへんせいにたいしてもぜんへんせいににかいだてぐりーんしゃをくみこむことがけっていされた。	NO_LABEL
このため、既存の小山車両センターに配置されているU501～U541編成の4・5号車に新造した2階建てグリーン車を組み込み、サハE231形1000番台2両を捻出した。	NO_PRONOUNCE	NO_LABEL
一方、国府津車両センターに最初に配置されたK-01編成は10両全車両が新造車で製造されたが、以降のK-02～42編成では編成中の6・7号車を抜いた8両編成で製造し、小山車両センターから捻出されたサハE231形1000番台2両を6・7号車に組み込んで10両編成を組成した。	NO_PRONOUNCE	NO_LABEL
すべての基本編成には4・5号車にグリーン車が連結されている。	NO_PRONOUNCE	NO_LABEL
混雑緩和と着席機会を増やすためE217系と同様に全編成2階建て構造+2階建て構造の組成となっている。	NO_PRONOUNCE	NO_LABEL
初期の小山車両センター配置車両には導入当初グリーン車が組み込まれていなかったが、2004年10月16日のダイヤ改正から宇都宮線・高崎線の上野発着一部列車と湘南新宿ライン全列車へのグリーン車導入のため、同年7月1日から順次基本編成への組み込みが行われ、1年後の2005年6月末までに全編成への組み込みが完了した。	NO_PRONOUNCE	NO_LABEL
組成開始からダイヤ改正によるグリーン車サービス開始までの期間、宇都宮線と高崎線ではグリーン車を普通車扱いとして運転し、「ただいまこの車両は普通車です」と表されたステッカーが貼り付けされていた。	NO_PRONOUNCE	NO_LABEL
グリーン車自体はE217系のサロE217形・E216形を設計の基本としているが、本系列に合わせて床面高さの変更や客用ドア幅の拡大など改良が加えられている。	NO_PRONOUNCE	NO_LABEL
冷房装置は普通車とは異なる新設計のもので、容量 23.3 kWのAU729形を1両に2台搭載している。	NO_PRONOUNCE	NO_LABEL
台車はTR246T形台車が採用されており、製造時にはヨーダンパが付いていたが、後年になり撤去されている。	NO_PRONOUNCE	NO_LABEL
グリーン車車内の仕様は小山・国府津所属車でほぼ同一であり、ドア開閉表示灯・VIS装置・2段式車内LED表示器が完備されている。	NO_PRONOUNCE	NO_LABEL
主要駅停車直前ではデッキにおいて、「まもなく停まります。	NO_PRONOUNCE	NO_LABEL
手すりにおつかまり下さい」と注意喚起の放送が流れるようになっている。	NO_PRONOUNCE	NO_LABEL
座席はE257系普通車用リクライニングシートをベースに、背面テーブルの大形化や物掛けフックの新設などの改良がなされた。	ざせきわいーにひゃくごじゅうななけいふつーしゃよーりくらいにんぐしーとをべーすに、はいめんてーぶるのおーがたかやものかけふっくのしんせつなどのかいりょーがなされた。	NO_LABEL
座席モケットは2階席は青色系で平屋席と1階席は赤色系である。	ざせきもけっとわにかいせきわあおいろけいでひらやせきといっかいせきわあかいろけいである。	NO_LABEL
側窓は熱線吸収・UVカットガラスではあるが、各窓にはカーテンが設置されている。	NO_PRONOUNCE	NO_LABEL
E217系同様、平屋席には網棚が設置されている。	いーにひゃくじゅうななけいどーよー、ひらやせきにわあみだながせっちされている。	NO_LABEL
初期に落成した小山所属の1001～1006ユニット及び国府津所属のK-01編成とK-02編成のサロの座席は、当初背もたれのグリップが設置されていなかったが、2008年春頃から他編成同様に取り付けられた。	NO_PRONOUNCE	NO_LABEL
2006年に落成した小山所属車では難燃化対策として蛍光灯カバーが金属製のものに変更されている。	にせんろくねんにらくせいしたこやましょぞくしゃでわなんもゆるかたいさくとしてけいこーとーかばーがきんぞくせいのものにへんこーされている。	NO_LABEL
4号車の5号車寄り車端部には車掌用乗務員室と業務用室があり、乗務員室内にはTIMS端末のモニター画面と基本編成用のVIS中央情報装置、VIS無線アンテナなどが設置されている。	NO_PRONOUNCE	NO_LABEL
5号車の熱海・上野寄りのデッキには洗面所と男女共用の洋式トイレが設置されている。	NO_PRONOUNCE	NO_LABEL
2008年に東海道線で女性のグリーンアテンダントへの暴行事件が多発したことを受けて、乗降口と乗務員室・業務用室前へ防犯カメラが後に設置された。	NO_PRONOUNCE	NO_LABEL
宇都宮線・高崎線・湘南新宿ラインでは、グリーン車の導入と同時にグリーン車Suicaシステムとグリーンアテンダントによるサービスが導入され、グリーン車の各座席の天井部には Suicaをタッチするための装置が取り付けられた。	NO_PRONOUNCE	NO_LABEL
駅やホームでグリーン券販売機でICカードに乗車区間の情報を記録させ、乗車区間の始発駅でICカードを読み取り装置にタッチすると座席の天井部のランプが赤から緑に切り替わり、乗車区間の終着駅に停車すると座席の天井部のランプが緑から赤に自動で切り替わるようになっており、また乗車区間でグリーン車の座席を変える事や別の列車のグリーン車に乗り換える事もできるようになっている。	えきやほーむでぐりーんけんはんばいきであいしーかーどにじょーしゃくかんのじょーほーをきろくさせ、じょーしゃくかんのしはつえきであいしーかーどをよみとりそーちにたっちするとざせきのてんじょーぶのらんぷがあかからみどりにきりかわり、じょーしゃくかんのしゅーちゃくえきにていしゃするとざせきのてんじょーぶのらんぷがみどりからあかにじどーできりかわるよーになっており、またじょーしゃくかんでぐりーんしゃのざせきをかえることやべつのれっしゃのぐりーんしゃにのりかえることもできるよーになっている。	NO_LABEL
また、テーブルにはSuicaシステムの利用方法の案内ステッカーが貼り付けされた。	また、てーぶるにわすいかしすてむのりよーほーほーのあんないすてっかーがはりつけされた。	NO_LABEL
その後、東海道本線の東京方面発着列車では2006年3月18日のダイヤ改正からグリーン車Suicaシステムが導入され、宇都宮線の宇都宮 - 黒磯間でもグリーン車を連結した編成の運用が開始された。	NO_PRONOUNCE	NO_LABEL
なおE217系や211系のグリーン車においても、後に同様のシステムが導入されている。	なおいーにひゃくじゅうななけいやにひゃくじゅういちけいのぐりーんしゃにおいても、ごにどーよーのしすてむがどーにゅーされている。	NO_LABEL
2000年3月から2003年2月までに小山車両センターに新製配備された車両と、2004年1月から2006年3月までに国府津車両センターに新製配備された車両とでは仕様の見直しがされており、以下に主な変更点を述べる。	にせんねんさんがつからにせんさんねんにがつまでにおやましゃりょーせんたーにしんせいはいびされたしゃりょーと、にせんよねんいちがつからにせんろくねんさんがつまでにこーずしゃりょーせんたーにしんせいはいびされたしゃりょーとではしよーのみなおしがされており、いかにおもなへんこーてんをのべる。	NO_LABEL
なお、前述した2006年2月以降に再度小山車両センターに新製配備された車両については別途記載する。	なお、ぜんじゅつしたにせんろくねんにがついこーにさいどおやましゃりょーせんたーにしんせいはいびされたしゃりょーについてわべっときさいする。	NO_LABEL
ただし、国府津車両センター配置車両のうち、前述した編成替えで小山車両センターから転属して組み込まれたサハE231形1000番台については、特に改良はされず、初期の小山車両センター所属車両の仕様である。	NO_PRONOUNCE	NO_LABEL
2006年以降に再度小山車両センターに配置された車両では、以下の点で国府津車両センター車両の要素を取り入れている。	にせんろくねんいこーにさいどおやましゃりょーせんたーにはいちされたしゃりょーでわ、いかのてんでこーずしゃりょーせんたーしゃりょーのよーそをとりいれている。	NO_LABEL
ただし、編成中のロングシート・セミクロスシート車両の構成、編成内のトイレ位置などは従来の小山車両センター配置車と同一仕様となっている。	NO_PRONOUNCE	NO_LABEL
E231系近郊タイプの番台区分は以下の規則に従って行われ、具体的には下表に示したような区分となっている。	いーにひゃくさんじゅういちけいきんこーたいぷのばんだいくぶんわいかのきそくにしたがっておこなわれ、ぐたいてきにわかひょーにしめしたよーなくぶんとなっている。	NO_LABEL
自動放送は日本語と英語の2か国語で行われ、日本語は三浦七緒子が、英語はクリステル・チアリがそれぞれ担当している。	NO_PRONOUNCE	NO_LABEL
分割案内やJR東海管内の東海道線沼津-熱海間・御殿場線の案内放送も可能である。	NO_PRONOUNCE	NO_LABEL
案内は駅によって異なり、始発駅や主要駅などの出発後には種別や行先などが放送される。	あんないわえきによってことなり、しはつえきやしゅよーえきなどのしゅっぱつごにわしゅべつやゆくさきなどがほーそーされる。	NO_LABEL
駅間が長い区間では、発車直後に「次は○○です。	NO_PRONOUNCE	NO_LABEL
」の放送が、到着前に「まもなく○○ - ○○ - お出口は側です」と放送される。	NO_PRONOUNCE	NO_LABEL
駅間が短い区間では、「まもなく - 」が省略され、「次は○○ - ○○ - お出口は側です。	NO_PRONOUNCE	NO_LABEL
」と放送される。	NO_PRONOUNCE	NO_LABEL
乗り換え案内などは設定により省略することができ、朝夕ラッシュ時には自動的に乗り換え案内が省略される。	のりかえあんないなどわせっていによりしょーりゃくすることができ、あさゆーらっしゅじにわじどーてきにのりかえあんないがしょーりゃくされる。	NO_LABEL
ドア方向の放送は、到着ホームが複数ある駅では車掌のボタン操作が必要であり、押し忘れた場合には案内されないことがある。	どあほーこーのほーそーわ、とーちゃくほーむがふくすーあるえきでわしゃしょーのぼたんそーさがひつよーであり、おしわすれたばあいにわあんないされないことがある。	NO_LABEL
また英語の放送も途中駅では「The next station is ○○.」であるが、終着駅では「The next station is ○○ terminal.」と変化する。	NO_PRONOUNCE	NO_LABEL
