婦中鵜坂駅は、 富山県富山市婦中町西本郷にある、西日本旅客鉄道高山本線の駅である。	ふちゅーうさかえきわ、とやまけんとやましふちゅーまちにしほんごーにある、にしにほんりょかくてつどーたかやまほんせんのえきである。	NO_LABEL
当駅は当初「JR高山本線活性化社会実験」の一環として、富山市が信号やホーム等の鉄道施設施工費の全部を西日本旅客鉄道に対して支出し、2011年春までの3年間限定として設置された。	NO_PRONOUNCE	NO_LABEL
高山本線活性化社会実験は2010年度までとなっていたが、2010年12月1日、市は当駅利用者数が常設化の条件である一日140人程度の利用者数を満たしているとして駅の常設化の方針を示した。	たかやまほんせんかっせいかしゃかいじっけんわにせんじゅうねんどまでとなっていたが、にせんじゅうねんじゅーにがつついたち、しわとーえきりよーしゃすーがじょーせつかのじょーけんであるひといちひゃくよんじゅうにんていどのりよーしゃすーをみたしているとしてえきのじょーせつかのほーしんをしめした。	NO_LABEL
その後、2011年3月をもって高山本線活性化社会実験は終了したが、当駅は臨時駅として存続しており、西日本旅客鉄道は2013年11月1日に北陸信越運輸局に対してその常設化に向けた認可申請を行った。	そのご、にせんじゅういちねんさんがつをもってたかやまほんせんかっせいかしゃかいじっけんわしゅーりょーしたが、とーえきわりんじえきとしてそんぞくしており、にしにほんりょかくてつどーわにせんじゅうさんねんじゅーいちがつついたちにほくりくしんえつうんゆきょくにたいしてそのじょーせつかにむけたにんかしんせいをおこなった。	NO_LABEL
申請は2013年11月13日に認可を受け、2014年3月15日に常設駅に昇格した。	しんせいわにせんじゅうさんねんじゅーいちがつじゅうさんにちににんかをうけ、にせんじゅうよねんさんがつじゅうごにちにじょーせつえきにしょーかくした。	NO_LABEL
単式ホーム1面1線を有する地上駅である。	NO_PRONOUNCE	NO_LABEL
かつて高山本線富山駅 - 速星駅間は複線化が計画されていたので、その用地を利用して設置されている。	NO_PRONOUNCE	NO_LABEL
北陸広域鉄道部の管理下にあり、無人駅である。	きたがちこーいきてつどーぶのかんりかにあり、むじんえきである。	NO_LABEL
駅舎や便所、自動券売機はない。	えきしゃやべんじょ、じどーけんばいきわない。	NO_LABEL
43台を停車し得る駐車場と駐輪場を備える。	NO_PRONOUNCE	NO_LABEL
2008年に設立された鵜坂地区JR高山本線婦中鵜坂駅利用促進協議会が当駅周辺の整備を行っており、2008年度には駐輪場を設置し、2009年度には桜の植樹を行い、2010年度には芝桜の植栽を行い、2011年度には街灯を設置するなどの活動を行っている。	にせんはちねんにせつりつされたうさかちくじぇいあーるたかやまほんせんふちゅーうさかえきりよーそくしんきょーぎかいがとーえきしゅーへんのせいびをおこなっており、にせんはちねんどにわちゅーりんじょーをせっちし、にせんきゅうねんどにわさくらのしょくじゅをおこない、にせんじゅうねんどにわしばざくらのうえさいをおこない、にせんじゅういちねんどにわがいとーをせっちするなどのかつどーをおこなっている。	NO_LABEL
併せて同駅を利用する小学生から大学生を対象に月1000円の補助金交付も行われている。	あわせてどーえきをりよーするしょーがくせいからだいがくせいをたいしょーにつきせんえんのほじょきんこーふもおこなわれている。	NO_LABEL
また、鵜坂地区自治振興会は自己負担によって当駅に防犯カメラを設置したことによって、2011年4月5日に富山西警察署より感謝状を受けている。	また、うさかちくじちしんこーかいわじこふたんによってとーえきにぼーはんかめらをせっちしたことによって、にせんじゅういちねんしがついつかにとやまにしけいさつしょよりかんしゃじょーをうけている。	NO_LABEL
「富山県統計年鑑」と「富山市統計書」によると、開業後の1日平均乗車人員は以下の通りである。	NO_PRONOUNCE	NO_LABEL
