奈交サービス株式会社は、物販事業などを行う奈良交通グループの子会社である。	なこうさーびすかぶしきがいしゃわ、ぶっぱんじぎょーなどをおこなうならこーつーぐるーぷのこがいしゃである。	NO_LABEL
柿の葉ずしショップ、売店、飲食店、書店等の運営、石油類、ギフト商品等の販売、文具・オフィス用品等の通信販売、バス広告、看板広告等の取扱い、駐輪場、駐車場、レンタサイクルの管理受託、放置車両確認事務、リムジンバスの案内・誘導業務・乗車券販売などを行っている。	NO_PRONOUNCE	NO_LABEL
1956年5月、奈交商事株式会社として設立。	せんきゅうひゃくごじゅうろくねんごがつ、だいよしみしょーじかぶしきがいしゃとしてせつりつ。	NO_LABEL
その後、奈良宣伝印刷株式会社を吸収合併し、現社名の奈交サービスに社名変更。	そのご、ならせんでんいんさつかぶしきがいしゃをきゅーしゅーがっぺいし、げんしゃめいのだいよしみさーびすにしゃめいへんこー。	NO_LABEL
2006年6月から奈良市において、2007年10月からは橿原市と大和高田市において、それぞれ奈交サービスに雇用された駐車監視員が放置車両確認事務を行っている。	にせんろくねんろくがつからならしにおいて、にせんななねんじゅーがつからわかしはらしとやまとたかだしにおいて、それぞれだいよしみさーびすにこよーされたちゅーしゃかんしいんがほーちしゃりょーかくにんじむをおこなっている。	NO_LABEL
