供物とは、宗教儀礼における供儀行為の目的達成のために、信仰対象に捧げられるもののことである。	そなえものとわ、しゅーきょーぎれいにおけるきょーぎこーいのもくてきたっせいのために、しんこーたいしょーにささげられるもののことである。	NO_LABEL
つまり神や仏あるいは先祖や故人の霊など、信仰あるいは崇拝する対象に捧げるものを指す。	つまりかみやほとけあるいわせんぞやこじんのれいなど、しんこーあるいわすーはいするたいしょーにささげるものをさす。	NO_LABEL
供物は供儀との関係によって意味をもつ。	そなえものわきょーぎとのかんけいによっていみをもつ。	NO_LABEL
供物に関する解釈はさまざまである。	そなえものにかんするかいしゃくわさまざまである。	NO_LABEL
ビアッティは供儀の象徴的な側面こそが本質であるとし、人間と超自然的な存在との間にも互酬的な面がある、つまり人間と霊との関係には常に何らかの交換が行われている面があるので、それがしばしば霊に対する贈呈や譲渡となっている、とした。	NO_PRONOUNCE	NO_LABEL
宗教の種類によりさまざまな供物があり、例えばキリスト教では聖餐式におけるパンとぶどう酒がそれであり、日本の仏教では生花やお水や、果物、菓子類など、神道では米、飯、酒などのほか玉串、青果物、魚あるいは菓子類の飲食物等があり正月には鏡餅を供える。	しゅーきょーのしゅるいによりさまざまなそなえものがあり、たとえばきりすときょーでわせいさんしきにおけるぱんとぶどーしゅがそれであり、にほんのぶっきょーでわせいかやおみずや、くだもの、かしるいなど、しんとーでわべい、めし、さけなどのほかたまぐし、せいかぶつ、さかなあるいわかしるいのいんしょくぶつとーがありしょーがつにわかがみもちをそなえる。	NO_LABEL
また、このようないわゆる「物」に限らず、捧げられるものには祈り・悔悟・精進といった行為による自己犠牲の観念にある自分自身を含むこともある。	NO_PRONOUNCE	NO_LABEL
供物に関して、ユダヤ教においては、アブラハムが自分のひとり息子イサクを神に捧げた燔祭が知られている。	NO_PRONOUNCE	NO_LABEL
『旧約聖書』にみられる贖罪の羊は、セム人の罪をその身に負わされ、アザゼルのもとへと荒野を追われていった。	NO_PRONOUNCE	NO_LABEL
羊や山羊といった存在も、それを供える人間と生命の本質を共有していて、その結果、人間自身を表象している。	ひつじややぎといったそんざいも、それをそなえるにんげんとせいめいのほんしつをきょーゆーしていて、そのけっか、にんげんじしんをひょーしょーしている。	NO_LABEL
カトリックの神学では、アブラハムがひとり息子のイサクを生贄として捧げなければならなかったのと同じように、神もまた人類の罪をあがなうために神のひとり子であるイエスを捧げたのだ、とすることがある。	かとりっくのしんがくでわ、あぶらはむがひとりむすこのいさくをいけにえとしてささげなければならなかったのとおなじよーに、かみもまたじんるいのつみをあがなうためにかみのひとりしであるいえすをささげたのだ、とすることがある。	NO_LABEL
カトリックのミサでは祭壇でパンとぶどう酒をささげる。	かとりっくのみさでわさいだんでぱんとぶどーしゅをささげる。	NO_LABEL
古代インドのサンガのひとつとされるヴァッジ国では、都市の内外にある祠廟を崇め供物を絶やす事がなかったという。	NO_PRONOUNCE	NO_LABEL
仏典にある「衰亡を避けるための7つの法　satta aparihaariyaa dhammaa」には供物をささげることも含まれている。	NO_PRONOUNCE	NO_LABEL
こうした行為は、ブッダが示唆したともそうでないとも言われ、その後の仏教の伝統的な行為とも共通している。	こーしたこーいわ、ぶっだがしさしたともそーでないともいわれ、そのごのぶっきょーのでんとーてきなこーいともきょーつーしている。	NO_LABEL
日本の仏教では主に、仏壇などで灯明や香華を配し、米、飯、果物などのほか、生花などが一般的で、生花の場合は「供花」「仏花」と呼ばれる。	NO_PRONOUNCE	NO_LABEL
日蓮はシキミを好んで供えたので、日蓮宗系の各宗派では今もシキミを供え、「おしきみ」と呼ぶ。	NO_PRONOUNCE	NO_LABEL
また、葬儀・葬式や年忌では故人が好んでいたものを供えることも多い。	NO_PRONOUNCE	NO_LABEL
真言宗の不動信仰では憤怒の形相をした不動明王を本尊として火中に護摩木や供物が投ぜられる	しんごんしゅーのふどーしんこーでわふんどのぎょーそーをしたふどーみょーおーをほんぞんとしてかちゅーにごまきやそなえものがとーぜられる	NO_LABEL
道教では、幽魂、正薦亡位には穀物を供え、神に対しては茶や果物を供えていた。	どーきょーでわ、ゆーこん、せいこもなくらいにわこくもつをそなえ、かみにたいしてわちゃやくだものをそなえていた。	NO_LABEL
つまり対象によって供物にも違いがあったらしい。	つまりたいしょーによってそなえものにもちがいがあったらしい。	NO_LABEL
道教には醮という祭りもあり、これは夜間に供物を並べて、神々に願いごとを上奏するやり方である。	NO_PRONOUNCE	NO_LABEL
《隋書》経籍志の「道経序録」によると、「醮」とは災厄を消除する方法のひとつであり、夜中 星空の下で酒や乾肉などの供物を並べ、天皇太一や五星列宿を祭り、文書を上奏する儀礼、とのことである。	NO_PRONOUNCE	NO_LABEL
神道では「饌」といい、本来は神のために調えて献上した食物や食事を指し、献饌ともいう。	NO_PRONOUNCE	NO_LABEL
さらに遡れば、その土地の首長豪族が指導して田畑を開き、あるいはその土地を守護したことへの返礼として、収穫した穀物や特産品を食事として献上したことに始まるものである。	さらにさかのぼれば、そのとちのしゅちょーごーぞくがしどーしてたはたをひらき、あるいわそのとちをしゅごしたことえのへんれいとして、しゅーかくしたこくもつやとくさんひんをしょくじとしてけんじょーしたことにはじまるものである。	NO_LABEL
