ジー・ダイアリーは、かつて日本出版貿易が刊行していた雑誌。	じーだいありーわ、かつてにっぽんしゅっぱんぼーえきがかんこーしていたざっし。	NO_LABEL
1999年創刊。	せんきゅうひゃくきゅうじゅうきゅうねんそーかん。	NO_LABEL
タイを主に東南アジアの風俗や文化、旅を中心とする現地情報を掲載。	たいをおもにとーなんあじあのふーぞくやぶんか、たびをちゅーしんとするげんちじょうほーをけいさい。	NO_LABEL
日本とタイの両国にて月刊誌として発行されていた。	にっぽんとたいのりょーこくにてげっかんしとしてはっこーされていた。	NO_LABEL
2016年9月15日発売の10月号発行をもって休刊。	にせんじゅうろくねんくがつじゅうごにちはつばいのじゅーがつごーはっこーをもってきゅーかん。	NO_LABEL
ウェブサイトでのコンテンツ配信やデジタル版でのコンテンツ販売へとシフトすることとなった。	うぇぶさいとでのこんてんつはいしんやでじたるばんでのこんてんつはんばいえとしふとすることとなった。	NO_LABEL
