ジェリー・ザッカーは、アメリカ合衆国の映画監督、脚本家、映画プロデューサー。	じぇりーざっかーわ、あめりかがっしゅーこくのえいがかんとく、きゃくほんか、えいがぷろでゅーさー。	NO_LABEL
ウィスコンシン州ミルウォーキーで不動産業を営む家に生まれる。	うぃすこんしんしゅーみるうぉーきーでふどーさんぎょーをいとなむいえにうまれる。	NO_LABEL
を卒業。	をそつぎょー。	NO_LABEL
大学時代に兄のデヴィッド、友人のジム・エイブラハムズと共に「ケンタッキー・フライド・シアター」というコントの舞台公演を始める。	NO_PRONOUNCE	NO_LABEL
その後は映画界に進出し、『フライングハイ』や『裸の銃を持つ男』シリーズなどのパロディ映画を手掛けた。	NO_PRONOUNCE	NO_LABEL
1990年にはアカデミー作品賞にもノミネートされた『ゴースト/ニューヨークの幻』を単独で監督し、コメディ以外のジャンルでも実績を残している。	NO_PRONOUNCE	NO_LABEL
