四国四商とは四国四県の県庁所在地に在る、高校野球における強豪商業高校4校を指す。	NO_PRONOUNCE	NO_LABEL
具体的には香川県の高松商業高校、愛媛県の松山商業高校、徳島県の徳島商業高校、高知県の高知商業高校のこと。	ぐたいてきにわかがわけんのたかまつしょーぎょーこうこー、えひめけんのまつやましょうぎょーこーこー、とくしまけんのとくしましょうぎょーこーこー、こーちけんのこーちしょうぎょーこーこーのこと。	NO_LABEL
高松商と松山商は戦前、徳島商は戦中、高知商は戦後と台頭してきた時期は違うものの、4校はいずれも長らくの間、各県のみならず四国の高校野球を引っ張ってきた名門であり、四国大会などの舞台で切磋琢磨し激しい試合を繰り広げてきた。	NO_PRONOUNCE	NO_LABEL
4校はいずれも各県で最も全国大会への出場回数が多く、また全国大会制覇の経験もあるが、近年においては学校選択の多様化、社会構造の変化による進学校化、私立学校の台頭などにより以前に比べて全国大会への出場頻度は減ってきている。	NO_PRONOUNCE	NO_LABEL
