大慈院 聖久- 永享5年閏7月13日は、室町時代前期の女性。	NO_PRONOUNCE	NO_LABEL
比丘尼御所・大慈院の住持。	NO_PRONOUNCE	NO_LABEL
室町幕府第3代将軍・足利義満の娘。	NO_PRONOUNCE	NO_LABEL
同第4代将軍・足利義持と同第6代将軍・足利義教らの異母妹。	NO_PRONOUNCE	NO_LABEL
南御所、大慈院殿と称される。	みなみごしょ、だいじいんどのとしょーされる。	NO_LABEL
父は足利義満。	ちちわあしかがよしみつ。	NO_LABEL
母は側室の寧福院。	ははわそくしつのねいふくいん。	NO_LABEL
義満から特に寵愛され、義満の正室である日野康子の猶子になった。	よしみつからとくにちょーあいされ、よしみつのせいしつであるひのやすこのゆーしになった。	NO_LABEL
応永8年8月3日、7歳で崇賢門院の猶子となり、同時に喝食となって北山第にある崇賢門院の寝殿に住み、その領地の相続者に定められた。	おおえはちねんはちがつみっか、ななさいでたかしけんもんいんのゆーしとなり、どーじにかつじきとなってきたやまだいにあるたかしけんもんいんのしんでんにすみ、そのりょーちのそーぞくしゃにさだめられた。	NO_LABEL
喝食御所と呼ばれる。	かつじきごしょとよばれる。	NO_LABEL
義満存命中は日野康子、高橋殿、池尻殿らと盛んに各地に行楽に連れられている。	よしみつぞんめいちゅーわひのやすこ、たかはしどの、いけがみどのらとさかんにかくちにこーらくにつれられている。	NO_LABEL
崇賢門院は、義満の生母紀良子と姉妹であり、義満とは親しい間柄であった。	たかしけんもんいんわ、よしみつのせいぼきのりょうしとしまいであり、よしみつとわしたしいあいだがらであった。	NO_LABEL
大慈院は崇賢門院の開基した寺院であり、足利将軍家の女子が最も多く入室した。	だいじいんわたかしけんもんいんのかいきしたじいんであり、あしかがしょーぐんけのじょしがもっともおーくにゅーしつした。	NO_LABEL
聖久はその初めである。	きよひさわそのはじめである。	NO_LABEL
得度した際、法名を聖久とし、空谷明応の弟子となった。	NO_PRONOUNCE	NO_LABEL
応永35年4月に崇賢門院が93歳で死去すると、約定通りその領地を継ぎ、大慈院の住持となった。	おおえさんじゅうごねんしがつにたかしけんもんいんがきゅうじゅうさんさいでしきょすると、やくじょーどーりそのりょーちをつぎ、だいじいんのじゅーじとなった。	NO_LABEL
大慈院の別称の南御所は、もともと義満の正室・日野康子の北山第内の住居であり、日野康子の死後、崇賢門院と通して、聖久に譲られたと考えられる。	NO_PRONOUNCE	NO_LABEL
正長2年6月19日、6代将軍足利義教は同年3月に日野宗子との間に生まれた女子を、聖久のいる大慈院に入室させた。	しょうながにねんろくがつじゅうきゅうにち、ろくだいしょーぐんあしかがよしのりわどーねんさんがつにひのむねことのまにうまれたじょしを、きよひさのいるだいじいんににゅーしつさせた。	NO_LABEL
聖久の後継者とするつもりだったと考えられるが、この女子は永享3年7月に3歳で夭折した。	きよひさのこーけいしゃとするつもりだったとかんがえられるが、このじょしわえいきょーさんねんしちがつにさんさいでよーせつした。	NO_LABEL
また、聖久の妹である聖紹が時期は不明であるが、大慈院に入室している。	NO_PRONOUNCE	NO_LABEL
永享5年閏7月13日、赤痢のため死去した。	えいきょーごねんうるーしちがつじゅうさんにち、せきりのためしきょした。	NO_LABEL
享年39。	NO_PRONOUNCE	NO_LABEL
