佐藤 佐藤治1月8日 - 1965年1月20日）は、大正・昭和期の農民運動家。	NO_PRONOUNCE	NO_LABEL
1901年、新潟県生まれ。	せんきゅうひゃくいちねん、にーがたけんうまれ。	NO_LABEL
1925年、木崎村小作争議で検挙される。	せんきゅうひゃくにじゅうごねん、きざきむらこさくそーぎでけんきょされる。	NO_LABEL
共産党に入党し、1928年、三・一五事件で検挙される。	きょーさんとーににゅーとーし、せんきゅうひゃくにじゅうはちねん、さんいちごじけんでけんきょされる。	NO_LABEL
戦後、日本共産党に入党。	せんご、にほんきょーさんとーににゅーとー。	NO_LABEL
農地解放闘争を指導し、党中央委員に選出されたものの、1950年ダグラス・マッカーサーによって追放された。	のーちかいほーとーそーをしどーし、とーちゅーおーいーんにせんしゅつされたものの、せんきゅうひゃくごじゅうねんだぐらすまっかーさーによってついほーされた。	NO_LABEL
1965年、64歳で死去。	せんきゅうひゃくろくじゅうごねん、ろくじゅうよんさいでしきょ。	NO_LABEL
佐藤和藤治は実弟。	さとーやまとふじはるわじってい。	NO_LABEL
