永豊銀行は台湾の台北市中山区に本社のある商業銀行である。	えいほうぎんこーわたいわんのたいほくしちゅーざんくにほんしゃのあるしょーぎょーぎんこーである。	NO_LABEL
2006年11月13日に建華銀行と台北国際商業銀行が合併して誕生した銀行であり、永豊金融控股の子会社となっている。	にせんろくねんじゅーいちがつじゅうさんにちにけんかぎんこーとたいぺいこくさいしょーぎょーぎんこーががっぺいしてたんじょーしたぎんこーであり、ながとよきんゆーこうこのこがいしゃとなっている。	NO_LABEL
合併の際には建華銀行が存続銀行となっている。	がっぺいのさいにわけんかぎんこーがそんぞくぎんこーとなっている。	NO_LABEL
建華銀行は1992年1月28日に「華信銀行」として誕生し、2001年9月28日に建弘證券と関連会社の金華信銀證券が合併して建華證券が誕生した。	NO_PRONOUNCE	NO_LABEL
また華信銀行が加わり、建華金融控股が同時に誕生して、その際に銀行名も親会社の商号と同一になった。	またはなしんぎんこーがくわわり、けんかきんゆーこうこがどーじにたんじょーして、そのさいにぎんこーめいもおやがいしゃのしょーごーとどーいつになった。	NO_LABEL
2006年に台北国際商業銀行と合併した際に親会社の商号が永豊金融控股、同時に永豊商業銀行となる。	にせんろくねんにたいぺいこくさいしょーぎょーぎんこーとがっぺいしたさいにおやがいしゃのしょーごーがながとよきんゆーこうこ、どーじにながとよしょーぎょーぎんこーとなる。	NO_LABEL
また建華證券の商号は永豊金證券となる。	またけんかしょーけんのしょーごーわながとよきんしょーけんとなる。	NO_LABEL
旧建華銀行の国内支店網はわずか45店舗であったが、旧台北国際商業銀行の84店舗によって、合併後は129店舗を有する銀行として一挙に拡大した。	NO_PRONOUNCE	NO_LABEL
本店は旧台北国際商業銀行の本社ビルを使用している。	ほんてんわきゅーたいぺいこくさいしょーぎょーぎんこーのほんしゃびるをしよーしている。	NO_LABEL
旧建華銀行の本店は城内分行となったが、その後は旧東台北簡易型分行であった場所に移転し、世貿分行となった。	NO_PRONOUNCE	NO_LABEL
旧東台北簡易型分行は福林簡易型分行として、台北市士林区中山北路5段620号へ移転した。	NO_PRONOUNCE	NO_LABEL
