数学の複素解析の分野におけるハルナックの原理あるいはハルナックの定理とは、調和函数列の収束と密接に関連した原理の一つであり、ハルナックの不等式より従う。	すーがくのふくそかいせきのぶんやにおけるはるなっくのげんりあるいわはるなっくのていりとわ、ちょーわはこすーれつのしゅーそくとみっせつにかんれんしたげんりのひとつであり、はるなっくのふとーしきよりしたがう。	NO_LABEL
函数 formula_1, formula_2, ... が複素平面 C のある開連結部分集合 formula_3 において調和的であり、formula_3 内のすべての点において	NO_PRONOUNCE	NO_LABEL
が成立するなら、極限	がせいりつするなら、きょくげん	NO_LABEL
はその領域 formula_3 のすべての点において無限大であるか、すべての点において有限であるかのいずれかである。	NO_PRONOUNCE	NO_LABEL
それらいずれの場合も、収束は formula_3 の各コンパクト部分集合について一様である。	NO_PRONOUNCE	NO_LABEL
後者の場合、函数	こーしゃのばあい、かんすー	NO_LABEL
は集合 formula_10 において調和的となる。	NO_PRONOUNCE	NO_LABEL
