上丸子天神町は神奈川県川崎市中原区の地名。	かみまるこてんじんちょーわかながわけんかわさきしなかはらくのちめい。	NO_LABEL
丁番の設定がない単独町名である。	ひのとばんのせっていがないたんどくちょーめいである。	NO_LABEL
住居表示未実施区域。	じゅーきょひょーじみじっしくいき。	NO_LABEL
郵便番号は211-0007。	NO_PRONOUNCE	NO_LABEL
一帯は多摩川の右岸にあたり、西は等々力・小杉陣屋町一丁目、南は丸子通一丁目・二丁目、東は上丸子八幡町、北は多摩川を挟み東京都大田区田園調布一・四・五丁目と接している。	NO_PRONOUNCE	NO_LABEL
多摩川の堤防沿いに走る多摩沿線道路以南は住宅街が整備され、以北は多摩川の河川敷であり市管轄の野球場がある。	たまがわのていぼーぞいにはしるたまえんせんどーろいなんわじゅーたくがいがせいびされ、いほくわたまがわのかせんしきでありしかんかつのやきゅーじょーがある。	NO_LABEL
2011年までは隣接してプロ野球・日本ハムファイターズの二軍本拠地兼練習場として使用された日本ハム球団多摩川グランドがあった。	NO_PRONOUNCE	NO_LABEL
この敷地は川崎市が取得し、新たな公式硬式野球場として整備されている。	このしきちわかわさきしがしゅとくし、あらたなこーしきこーしきやきゅーじょーとしてせいびされている。	NO_LABEL
「天神町」という地名は、1920年の多摩川堤防工事で丸子の渡し付近にあった集落が当地に移転した際、天神様を新たな土地に祀ったことから命名された。	NO_PRONOUNCE	NO_LABEL
2017年12月31日現在の世帯数と人口は以下の通りである。	にせんじゅうななねんじゅーにがつさんじゅういちにちげんざいのせたいすーとじんこーわいかのとーりである。	NO_LABEL
市立小・中学校に通う場合、学区は以下の通りとなる。	しりつしょーちゅーがっこーにかようばあい、がっくわいかのとーりとなる。	NO_LABEL
上丸子天神町の東を東急東横線の多摩川橋梁が通過している。	かみまるこてんじんちょーのひがしをとーきゅーとーよこせんのたまがわきょうりょーがつーかしている。	NO_LABEL
東横線利用の場合は新丸子駅が最寄駅となる。	とーよこせんりよーのばあいわしんまるこえきがもよりえきとなる。	NO_LABEL
川崎市主要地方道幸多摩線が東西に通過する。	かわさきししゅよーちほーどうさいわいたませんがとーざいにつーかする。	NO_LABEL
西は二子橋・登戸方面、東は川崎駅・浮島方面へ連絡している。	NO_PRONOUNCE	NO_LABEL
上丸子天神町地内に路線バスは運行されていない。	かみまるこてんじんちょーちないにろせんばすわうんこーされていない。	NO_LABEL
