APINACAは、CBのアゴニストである。	NO_PRONOUNCE	NO_LABEL
合成カンナビノイド。	ごーせいかんなびのいど。	NO_LABEL
2012年3月に日本の研究所でと同様の危険ハーブの成分として確認された。	にせんじゅうにねんさんがつににっぽんのけんきゅーじょでとどーよーのきけんはーぶのせいぶんとしてかくにんされた。	NO_LABEL
日本では、2012年7月1日に、薬事法に基づく指定薬物に追加された。	にっぽんでわ、にせんじゅうにねんしちがつついたちに、やくじほーにもとずくしていやくぶつについかされた。	NO_LABEL
また、ニュージーランドでは、2012年7月13日に一時指定薬物に指定され、禁止された。	また、にゅーじーらんどでわ、にせんじゅうにねんしちがつじゅうさんにちにいちじしていやくぶつにしていされ、きんしされた。	NO_LABEL
合成カンナビノイドの一種であり、インダゾールの1位にペンチル基が結合した化合物である。	ごーせいかんなびのいどのいちしゅであり、いんだぞーるのいちーにぺんちるきがけつごーしたかごーぶつである。	NO_LABEL
ある特許に申請されていた範囲に含まれてはいたが、この化合物自体が論文や特許に記載されたことはなかった。	あるとっきょにしんせいされていたはんいにふくまれてわいたが、このかごーぶつじたいがろんぶんやとっきょにきさいされたことわなかった。	NO_LABEL
薬物ではAKB48という名称で販売されていることがある。	やくぶつでわえーけーびーふぉーてぃえいととゆうめいしょーではんばいされていることがある。	NO_LABEL
薬機法の法基準はこの薬物でも有効である。	くすりきほーのほーきじゅんわこのやくぶつでもゆーこーである。	NO_LABEL
フォレンデックスのウェブサイトにおいて乱用の可能性がある薬物にリストアップされている。	ふぉれんでっくすのうぇぶさいとにおいてらんよーのかのーせいがあるやくぶつにりすとあっぷされている。	NO_LABEL
