スカイウエスト航空1834便空中衝突事故（）とは、1987年1月15日にスカイウエスト航空1834便とが空中衝突した航空事故である。	NO_PRONOUNCE	NO_LABEL
事故はスカイウエスト航空機が30分遅れでソルトレイクシティ国際空港の滑走路34へ着陸進入中に発生した。	NO_PRONOUNCE	NO_LABEL
ちょうどその頃、乗員2人を乗せたがを離陸した。	ちょーどそのころ、じょーいんふたりをのせたがをりりくした。	NO_LABEL
両機は空中で衝突し地上に墜落した。	りょーきわくーちゅーでしょーとつしちじょーについらくした。	NO_LABEL
スカイウエスト航空機の主要部分は金網のフェンスを滑りながら通り抜けた後、郊外の街路の中央で止まった。	すかいうえすとこーくーきのしゅよーぶぶんわかなあみのふぇんすをすべりながらとーりぬけたのち、こーがいのがいろのちゅーおーでとまった。	NO_LABEL
多くの人々が「大きな衝撃音」を聞き、そのとき「残骸がいたるところを飛んでいた」と伝えた。	NO_PRONOUNCE	NO_LABEL
遺体は1マイル四方に飛散していた。	NO_PRONOUNCE	NO_LABEL
遺体の身元確認をするために仮設の遺体安置所が近くの教会に設置された。	いたいのみもとかくにんをするためにかせつのいたいあんちしょがちかくのきょーかいにせっちされた。	NO_LABEL
その後のインタビューで、勤務していた管制官はスカイウエスト航空機が90度への旋回を始めたときに事故が発生したと主張した。	そのごのいんたびゅーで、きんむしていたかんせいかんわすかいうえすとこーくーきがきゅうじゅうどえのせんかいをはじめたときにじこがはっせいしたとしゅちょーした。	NO_LABEL
事故の調査が行われた結果、最終的に事故の責任はソルトレイクシティ国際空港の空港レーダーサービス区域に迷い込んだの教官パイロットにあるという結論を出した。	じこのちょーさがおこなわれたけっか、さいしゅーてきにじこのせきにんわそるとれいくしてぃこくさいくうこーのくーこーれーだーさーびすくいきにまよいこんだのきょーかんぱいろっとにあるとゆうけつろんをだした。	NO_LABEL
また調査においてモードCトランスポンダの欠如と航空管制による空中衝突防止の限界も指摘された。	NO_PRONOUNCE	NO_LABEL
