羽黒岩 智一は、宮崎県延岡市出身で、立浪部屋にかつて所属した大相撲力士である。	はねくろいわともかずわ、みやざきけんのべおかししゅっしんで、たつなみべやにかつてしょぞくしたおーずもーりきしである。	NO_LABEL
本名は戸田 智次郎。	ほんみょーわとだともじろー。	NO_LABEL
最高位は東小結。	さいこーいわひがしこむすび。	NO_LABEL
引退後は年寄・雷として後進の指導に努め、停年まで日本相撲協会に在籍していた。	NO_PRONOUNCE	NO_LABEL
身長180cm、体重133kg。	しんちょーひゃくはちじゅうせんちめーとる、たいじゅーひゃくさんじゅうさんきろぐらむ。	NO_LABEL
得意手は右四つ、寄り、押し。	とくいしゅわみぎよっつ、より、おし。	NO_LABEL
本名の戸田を四股名としていた時期も長く、その当時に横綱・大鵬の連勝を45で止める金星を挙げていることもあって戸田 智次郎の名でも知られる。	NO_PRONOUNCE	NO_LABEL
中学校在学中に立浪部屋へ入門し、1961年5月場所に於いて、14歳で初土俵を踏んだ。	ちゅーがっこーざいがくちゅーにたつなみべやえにゅーもんし、せんきゅうひゃくろくじゅういちねんごがつばしょにおいて、じゅうよんさいではつどひょーをふんだ。	NO_LABEL
同期生には後の関脇・藤ノ川、前頭・栃富士、同・若ノ海などがいた。	NO_PRONOUNCE	NO_LABEL
1965年11月場所にて、19歳で十両昇進。	せんきゅうひゃくろくじゅうごねんじゅーいちがつばしょにて、じゅうきゅうさいでじゅーりょーしょーしん。	NO_LABEL
1967年1月場所に於いて20歳で入幕し、若手として期待された。	せんきゅうひゃくろくじゅうななねいちがつばしょにおいてにじゅっさいでにゅーまくし、わかてとしてきたいされた。	NO_LABEL
突き押しや、右を差して寄る相撲を得意としていた。	つきおしや、みぎをさしてよるすもーをとくいとしていた。	NO_LABEL
ちなみに、宮崎県出身の幕内力士は、1843年11月場所に於いての三ツ鱗龍八以来124年ぶりのことだった。	ちなみに、みやざきけんしゅっしんのまくうちりきしわ、せんはっぴゃくよんじゅうさんねんじゅーいちがつばしょにおいてのみつうろこりゅーはちいらいひゃくにじゅうよんねんぶりのことだった。	NO_LABEL
はじめのころは幕内下位にいたが、1969年1月場所では前頭7枚目で11勝4敗と大勝ちし、敢闘賞を受賞。	はじめのころわまくうちかいにいたが、せんきゅうひゃくろくじゅうきゅうねんいちがつばしょでわまえがしらななまいめでじゅういちしょーよんはいとだいかちし、かんとーしょーをじゅしょー。	NO_LABEL
翌3月場所では前頭筆頭に躍進し、初めて上位陣と当たるこの場所に於いて横綱・大鵬幸喜の46連勝を阻止する大金星を挙げ、大きく脚光を浴びることとなった。	NO_PRONOUNCE	NO_LABEL
翌5月場所でも柏戸から金星を奪っている。	よくごがつばしょでもかしわどからきんぼしをうばっている。	NO_LABEL
その後1971年1月場所から「羽黒岩」と改名、幕内上位で安定して活躍し、上位での勝ち越しも何度もあった。	NO_PRONOUNCE	NO_LABEL
だが、結局、三役は小結1場所のみにとどまった。	NO_PRONOUNCE	NO_LABEL
それでも、約10年にわたって幕内を維持した。	それでも、やくじゅうねんにわたってまくうちをいじした。	NO_LABEL
貴ノ花との相性が良く、対戦成績は9勝3敗であった。	たかのはなとのあいしょーがよく、たいせんせいせきわきゅうしょーさんはいであった。	NO_LABEL
1977年7月場所3日目、前頭13枚目・舛田山との対戦で頚部を負傷し、翌日より休場。	NO_PRONOUNCE	NO_LABEL
その影響もあって同場所は不本意な成績に終わり、翌場所では十両に陥落、以降は幕内に復帰できなかった。	そのえいきょーもあってどーばしょわふほんいなせいせきにおわり、よくばしょでわじゅーりょーにかんらく、いこーわまくうちにふっきできなかった。	NO_LABEL
十両尻の地位にあった1978年1月場所では、中日を終えて1勝7敗と振るわず、同場所中に引退を表明。	じゅーりょーしりのちいにあったせんきゅうひゃくななじゅうはちねんいちがつばしょでわ、ちゅーにちをおえていちしょーななはいとふるわず、どーばしょちゅーにいんたいをひょーめい。	NO_LABEL
引退後は日本相撲協会に残り、立浪部屋付きの年寄・雷として後進の指導に当たっていた。	NO_PRONOUNCE	NO_LABEL
ただし、かつての雷が名乗った「権太夫」の下の名は先代の雷と同様に引き継がず、「雷 智次郎」と本名で停年まで通した。	NO_PRONOUNCE	NO_LABEL
大阪場所担当委員の時に入場券収入の一部を計上していなかった不祥事を起こし、1998年8月から2000年1月場所前まで平年寄への二階級降格処分を受けた。	おーさかばしょたんとーいいんのときににゅーじょーけんしゅーにゅーのいちぶをけいじょーしていなかったふしょーじをおこし、せんきゅうひゃくきゅうじゅうはちねんはちがつからにせんねんいちがつばしょまえまでひらとしよりえのにかいきゅーこーかくしょぶんをうけた。	NO_LABEL
2011年6月29日、停年を迎え、相撲協会を退職した。	にせんじゅういちねんろくがつにじゅうきゅうにち、ていねんをむかえ、すもーきょーかいをたいしょくした。	NO_LABEL
停年後から、人工透析を受けていた。	ていねんごから、じんこーとーせきをうけていた。	NO_LABEL
2016年4月には心筋梗塞を発症して、3ヶ月間入院。	NO_PRONOUNCE	NO_LABEL
その後は車いす生活を送っていた。	そのごわくるまいすせいかつをおくっていた。	NO_LABEL
大相撲中継は欠かさずに、テレビ観戦していたという。	おーずもーちゅーけいわかかさずに、てれびかんせんしていたという。	NO_LABEL
死去する前日の10月22日に「苦しい」と訴えて、集中治療室に緊急入室。	NO_PRONOUNCE	NO_LABEL
同年10月23日、腎不全のため宮崎県日南市内の病院で亡くなった。	どーねんじゅーがつにじゅうさんにち、じんふぜんのためみやざきけんにちなんしないのびょーいんでなくなった。	NO_LABEL
70歳没。	ななじゅっさいぼつ。	NO_LABEL
協会在職時から糖尿病との合併症などと闘っていたこともあり、通夜と葬儀・告別式で喪主を務める妻は「ずいぶん弱っていましたから。	NO_PRONOUNCE	NO_LABEL
私としてはもう17年間、入退院を繰り返しているのを見てきた。	わたしとしてわもーじゅうななねんかん、にゅーたいいんをくりかえしているのをみてきた。	NO_LABEL
最後はあまり苦しまなくて良かった」と話した。	NO_PRONOUNCE	NO_LABEL
1969年3月場所、円熟期を迎えていた横綱・大鵬は、その前の1月場所終了時に2場所連続全勝、通算連勝も彼自身の最高、また戦後最高でもある44まで伸ばしていた。	NO_PRONOUNCE	NO_LABEL
それがどこまで伸びるかが場所前の焦点であった。	それがどこまでのびるかがばしょまえのしょーてんであった。	NO_LABEL
戸田と大鵬の取組は2日目に組まれた。	とだとたいほーのとりくみわふつかにくまれた。	NO_LABEL
戸田は立合いからぶちかまし、ノド輪攻めの後、両ハズで一気に土俵際まで大鵬を押し込んだ。	とだわたちあいからぶちかまし、のどわぜめののち、りょーはずでいっきにどひょーぎわまでたいほーをおしこんだ。	NO_LABEL
当時大鵬の弱点として「序盤・平幕・押し相撲」ということが言われ、その3つすべてを持っていた戸田には、番狂わせが期待されていた。	NO_PRONOUNCE	NO_LABEL
しかし大鵬も、回り込みながら叩くと、戸田の右足が一瞬土俵の外に出て、蛇の目の砂を掃いた。	しかしたいほーも、まわりこみながらたたくと、とだのみぎあしがいっしゅんどひょーのそとにでて、じゃのめのすなをはいた。	NO_LABEL
しかし次の瞬間、戸田は大鵬を押し出し、自らも土俵の下に突っ込んでいった。	しかしつぎのしゅんかん、とだわたいほーをおしだし、みずからもどひょーのしたにつっこんでいった。	NO_LABEL
この取組を裁いていた立行司の22代式守伊之助は大鵬に軍配を上げたが、すぐに西溜勝負審判を務めていた千賀ノ浦から物言いがついた。	このとりくみをさばいていたたてぎょーじのにじゅうにだいしきもりいのすけわたいほーにぐんばいをあげたが、すぐににしだまりしょーぶしんぱんをつとめていたちがのうらからものいーがついた。	NO_LABEL
正面審判長の春日野は「戸田の足が出た」と言ったが、他の4人の勝負審判全員がそれを見落としていたため、協議の結果、行司差し違えで戸田の勝ちとなり、大鵬の連勝は45で終わってしまった。	NO_PRONOUNCE	NO_LABEL
戸田は大金星を挙げた。	とだわだいきんぼしをあげた。	NO_LABEL
この一番がこたえたか、大鵬は体調を崩し3日後の5日目に急性肺炎を理由に休場してしまった。	このいちばんがこたえたか、たいほーわたいちょーをくずしみっかごのいつかにきゅーせいはいえんをりゆーにきゅーじょーしてしまった。	NO_LABEL
ところが新聞やテレビの写真や映像には、戸田の右足が土俵を割った瞬間が捉えられていた。	ところがしんぶんやてれびのしゃしんやえいぞーにわ、とだのみぎあしがどひょーをわったしゅんかんがとらえられていた。	NO_LABEL
このことで「明らかな誤審だ」とする批判が大きく上がり、中には春日野審判部長ばかりか武蔵川理事長にまで責任を問う声もあった。	NO_PRONOUNCE	NO_LABEL
この場所はほかにも9日目の大関・琴櫻と前頭2枚目・海乃山との対戦でも疑惑の判定があったため、場所後相撲協会は物言いがついた時の判定に、ビデオの映像を参考にすることを決めた。	NO_PRONOUNCE	NO_LABEL
のちにマスコミ等は「世紀の大誤審」として大きく取り上げる事となる。	NO_PRONOUNCE	NO_LABEL
それでも、この問題について大鵬は1度も不満を口にせず、むしろ誤審を招くような相撲をとった自分に責任があるとして、「ああいう相撲をとった自分が悪いんです」とだけ語っていた。	NO_PRONOUNCE	NO_LABEL
次の5月場所、戸田は4日目に横綱・柏戸と対戦した。	NO_PRONOUNCE	NO_LABEL
この時ももつれた相撲になったが、ビデオの映像が参考にされて戸田は2つ目の金星を挙げることができた。	このときももつれたすもーになったが、びでおのえいぞーがさんこーにされてとだわふたつめのきんぼしをあげることができた。	NO_LABEL
その意味で、ビデオによる判定に深くかかわった力士であった。	そのいみで、びでおによるはんていにふかくかかわったりきしであった。	NO_LABEL
1974年9月28日にホテルニューオータニで結婚式を挙げたが、式場で祝儀600万円を泥棒に全部盗まれた。	せんきゅうひゃくななじゅうよねんくがつにじゅうはちにちにほてるにゅーおーたにでけっこんしきをあげたが、しきじょーでしゅーぎろっぴゃくまんえんをどろぼーにぜんぶぬすまれた。	NO_LABEL
1969年には、テイチクレコードより、『男が女にブルースを』を発売し、歌手デビューしている。	NO_PRONOUNCE	NO_LABEL
