『KBC長浜横丁』はKBCラジオで2015年-2017年のナイターオフに放送されるレーベル枠。	NO_PRONOUNCE	NO_LABEL
これはメインパーソナリティを店主に見立て、常連客に見立てた出演者とのトークを繰り広げるというもので、メインパーソナリティは日替わりで登場する。	これわめいんぱーそなりてぃをてんしゅにみたて、じょーれんきゃくにみたてたしゅつえんしゃとのとーくをくりひろげるとゆうもので、めいんぱーそなりてぃわひがわりでとーじょーする。	NO_LABEL
ただし、2015年9月28日からは「KBCホークスナイタースペシャル」が放送され、試合時間の都合で短縮版も放送できなかったため、放送開始は野球中継が初めから無い10月2日にずれこんだ。	NO_PRONOUNCE	NO_LABEL
2016年4月のナイターイン改編に伴い、『居酒屋 清子』以外の番組は一旦終了。	NO_PRONOUNCE	NO_LABEL
一方、同年3月28日から『居酒屋 清子』が月曜 18:30 - 21:25に移り、同年3月25日からKBCホークスナイターのクッション兼レインコート番組として『おでん屋台 はらちゃん』が火曜 - 金曜の野球中継終了後- 22:00に放送されることになった。	NO_PRONOUNCE	NO_LABEL
2016年10月からのナイターオフ編成は月曜から金曜の放送となるが、2016年9月26日から前年に続いてKBCホークスナイタースペシャルを放送するため、放送開始が10月3日にずれ込むことになった。	にせんじゅうろくねんじゅーがつからのないたーおふへんせいわげつよーからきんよーのほーそーとなるが、にせんじゅうろくねんくがつにじゅうろくにちからぜんねんにつずいてけいびーしーほーくすないたーすぺしゃるをほーそーするため、ほーそーかいしがじゅーがつみっかにずれこむことになった。	NO_LABEL
2017年4月のナイターイン改編では、KBCホークスナイターのクッション兼レインコート番組がKBC長浜横丁とは別扱いの『ホークスじゃんじゃん』となるため、KBC長浜横丁枠は月曜日の『居酒屋 清子』のみの放送となる。	NO_PRONOUNCE	NO_LABEL
2018年4月のナイターイン改編では、2018年もKBCホークスナイターのクッション兼レインコート番組がKBC長浜横丁とは別扱いの『ホークスじゃんじゃん』となるため、KBC長浜横丁枠は月曜日の『居酒屋 清子』と土曜日の『居抜き屋もう一頂!!』の放送となる。	NO_PRONOUNCE	NO_LABEL
土曜日の放送は2015年ナイターオフシーズン以来となる。	どよーびのほーそーわにせんじゅうごねんないたーおふしーずんいらいとなる。	NO_LABEL
「KBCホークスナイタースペシャル」としてプロ野球ナイター中継を行う場合、平日 21:30までに、土曜 22:00までに終了した場合に限り、当該時間まで本番組を短縮版として放送する。	NO_PRONOUNCE	NO_LABEL
2016年3月25日は「おでん屋台 はらちゃん」の初回であったが、16:00開始の楽天対ソフトバンク戦を放送後、19:30から21:30まで放送した。	NO_PRONOUNCE	NO_LABEL
居酒屋 清子	いざかやきよこ	NO_LABEL
居抜き屋もう一頂!!	NO_PRONOUNCE	NO_LABEL
居酒屋 清子	いざかやきよこ	NO_LABEL
ナイトクラブ としま	ないとくらぶとしま	NO_LABEL
タコ焼き 岩部	たこやきいわべ	NO_LABEL
缶詰酒場 長岡	かんずめさかばながおか	NO_LABEL
OTAカフェ おっきー	おうてぃえいかふぇおっきー	NO_LABEL
居酒屋 清子	いざかやきよこ	NO_LABEL
amoreパル愛子	あもーれぱるあいこ	NO_LABEL
缶詰酒場 長岡	かんずめさかばながおか	NO_LABEL
スナック まりこ	すなっくまりこ	NO_LABEL
居酒屋 清子	いざかやきよこ	NO_LABEL
おでん屋台 はらちゃん	おでんやたいはらちゃん	NO_LABEL
居酒屋 清子	いざかやきよこ	NO_LABEL
小料理かよちゃん	こりょーりかよちゃん	NO_LABEL
スナックまりこ	すなっくまりこ	NO_LABEL
bistro KATO	NO_PRONOUNCE	NO_LABEL
ショーパブ優子	しょーぱぶゆーこ	NO_LABEL
