グランドエスクードは、かつてスズキが製造、販売していた大型SUV。	ぐらんどえすくーどわ、かつてすずきがせいぞー、はんばいしていたおーがたえすゆーぶい。	NO_LABEL
海外ではGrand Vitara XL-7またはXL-7として販売されていた。	NO_PRONOUNCE	NO_LABEL
1997年から発売されたスズキ・エスクードをベースに、2000年12月にV型6気筒2700ccガソリンエンジンを搭載して発売された。	NO_PRONOUNCE	NO_LABEL
エスクードの5ドアボディより全長が485mm長く、3列・7人乗りである。	NO_PRONOUNCE	NO_LABEL
北米ではXL-7を名乗り、1998年に発売。	NO_PRONOUNCE	NO_LABEL
日本では2005年のエスクードのフルモデルチェンジに際しモデル消滅となり、3列シートSUV市場から撤退というかたちになった。	NO_PRONOUNCE	NO_LABEL
2005年のデトロイト・モーターショーに出展された「コンセプトX」の市販モデルが次期XL-7として投入され、2006年のニューヨーク国際自動車ショーで世界初公開された。	NO_PRONOUNCE	NO_LABEL
このXL-7はGMシータ・プラットフォームを採用し、5m強の全長を持つ3列シートでV型6気筒3600ccエンジンを搭載する。	NO_PRONOUNCE	NO_LABEL
生産はプラットフォームを共有するシボレー・エキノックスなどと同様、カナダのCAMIオートモーティブで行われていた。	NO_PRONOUNCE	NO_LABEL
1998年、北米市場で発売開始。	せんきゅうひゃくきゅうじゅうはちねん、ほくべいしじょーではつばいかいし。	NO_LABEL
2000年12月、国内で販売開始。	にせんねんじゅーにがつ、こくないではんばいかいし。	NO_LABEL
2002年1月9日にファッションデザイナー山本寛斎が外観、内装をファッショナブルにアレンジした特別仕様車、グランドエスクード「KANSAI」を設定。	NO_PRONOUNCE	NO_LABEL
インテリアでは、山本寛斎デザインの専用シート表皮＆ドアトリムクロス、本革巻きステアリングホイール＆ATシフトノブおよびトランスファーレバー、それにインパネガーニッシュ、センターコンソール、フロアコンソールガーニッシュに木目調を採用した。	いんてりあでわ、やまもとかんさいでざいんのせんよーしーとひょーひあんどどあとりむくろす、ほんかわまきすてありんぐほいーるあんどえーてぃーしふとのぶおよびとらんすふぁーればー、それにいんぱねがーにっしゅ、せんたーこんそーる、ふろあこんそーるがーにっしゅにもくめちょーをさいよーした。	NO_LABEL
2DINサイズのCD／MDステレオを採用。	NO_PRONOUNCE	NO_LABEL
2002年6月25日に特別限定車「ヘリー・ハンセン リミテッド」を設定。	NO_PRONOUNCE	NO_LABEL
専用のフロントバンパー、フロントグリル、ヘッドランプガーニッシュ、サイドステップ、リヤアンダーガーニッシュ、スペアタイヤハウジング等を採用し、力強いイメージの外観とした。	せんよーのふろんとばんぱー、ふろんとぐりる、へっどらんぷがーにっしゅ、さいどすてっぷ、りやあんだーがーにっしゅ、すぺあたいやはうじんぐとーをさいよーし、ちからずよいいめーじのがいかんとした。	NO_LABEL
内装は、撥水加工処理を施した専用ファブリックシート表皮、 専用スピーカーを採用したMD/CDステレオ、文字盤面を白色とした専用メーターパネル、黒色本革巻ステアリングホイール、シフトノブおよびトランスファーレバーを採用。	NO_PRONOUNCE	NO_LABEL
2002年11月、一部改良。	にせんにねんじゅーいちがつ、いちぶかいりょー。	NO_LABEL
インパネのデザインを変更。	いんぱねのでざいんをへんこー。	NO_LABEL
2003年6月、マイナーチェンジ。	にせんさんねんろくがつ、まいなーちぇんじ。	NO_LABEL
フロントマスクのデザインを一新。	ふろんとますくのでざいんをいっしん。	NO_LABEL
2004年5月20日 に特別仕様車「グランドエスクード L‐エディション」を設定。	NO_PRONOUNCE	NO_LABEL
特長は、本革シート表皮と人工皮革のドアトリム表皮を採用した質感の高い内装、また、黒木目調パネル、本革巻ステアリングホイール、メッキドアハンドル(内側）を採用。	NO_PRONOUNCE	NO_LABEL
2005年にエスクードのフルモデルチェンジにより、モデル廃止。	にせんごねんにえすくーどのふるもでるちぇんじにより、もでるはいし。	NO_LABEL
