富良野スキー場は、北海道富良野市にあるスキー場。	ふらのすきーじょーわ、ほっかいどーふらのしにあるすきーじょー。	NO_LABEL
富良野芦別道立自然公園になっており、北の峰ゾーンと富良野ゾーンの2つのエリアがある。	ふらのあしべつどーりつしぜんこーえんになっており、きたのみねぞーんとふらのぞーんのふたつのえりあがある。	NO_LABEL
1977年の『FISワールドカップ』開催を機に世界に知られるようになり、以後国際クラスの大会が度々開催されており、外国人客も増加している。	NO_PRONOUNCE	NO_LABEL
近年増加しているバックカントリーによる事故への対策を講じ始めている。	きんねんぞーかしているばっくかんとりーによるじこえのたいさくをこーじはじめている。	NO_LABEL
スキー場管理区域外へは指定のゲートから出る・登山届を提出・バックカントリーに必要な装備をする・管理区域外での行動は自己責任・等のルール尊守を強く求めている。	NO_PRONOUNCE	NO_LABEL
営業期間は富良野ゾーンが11月下旬から5月上旬頃まで、北の峰ゾーンが12月中旬から3月下旬頃までとなっている。	えいぎょーきかんわふらのぞーんがじゅーいちがつげじゅんからごがつじょーじゅんごろまで、きたのみねぞーんがじゅーにがつちゅーじゅんからさんがつげじゅんごろまでとなっている。	NO_LABEL
夏期シーズンは富良野ロープウェーが6月中旬から10月中旬まで運行する。	かきしーずんわふらのろーぷうぇーがろくがつちゅーじゅんからじゅーがつちゅーじゅんまでうんこーする。	NO_LABEL
「富良野スキー場の歴史」参照	NO_PRONOUNCE	NO_LABEL
初級40%、中級40%、上級20%	しょきゅーよんじゅうぱーせんと、ちゅーきゅーよんじゅうぱーせんと、じょーきゅーにじゅうぱーせんと	NO_LABEL
富良野ゾーンから北の峰ゾーンへは、ロープウェー山頂駅からの連絡コースで滑り込めるが、途中ほぼフラットになる部分があり漕ぐ必要がある。	ふらのぞーんからきたのみねぞーんえわ、ろーぷうぇーさんちょーえきからのれんらくこーすですべりこめるが、とちゅーほぼふらっとになるぶぶんがありこぐひつよーがある。	NO_LABEL
北の峰ゾーンから富良野ゾーンへは、連絡リフトを使用して移動できる。	きたのみねぞーんからふらのぞーんえわ、れんらくりふとをしよーしていどーできる。	NO_LABEL
富良野ゾーンのザイラーコースは基本的には整地の中級コースだが、前夜降雪があった場合、朝は非圧雪新雪でコースオープンする「ノンパックコース」となる。	NO_PRONOUNCE	NO_LABEL
北の峰ゾーンの麓は富良野プリンスホテルはじめ、ホテルやペンションなどが立地している。	きたのみねぞーんのふもとわふらのぷりんすほてるはじめ、ほてるやぺんしょんなどがりっちしている。	NO_LABEL
富良野ゾーンの麓は新富良野プリンスホテルはじめ、ニングルテラス、富良野・ドラマ館、ふらの歓寒村、Soh's BAR、森の時計などがある。	NO_PRONOUNCE	NO_LABEL
富良野プリンスホテルから新富良野プリンスホテルまでは約4km離れている。	ふらのぷりんすほてるからしんふらのぷりんすほてるまでわやくよんきろめーとるはなれている。	NO_LABEL
