『モーニング娘。	NO_PRONOUNCE	NO_LABEL
のへそ』は、2000年1月4日から同年9月29日まで平日17時55分 - 18時00分にテレビ東京系で放送されていたモーニング娘。	NO_PRONOUNCE	NO_LABEL
のバラエティ番組である。	のばらえてぃばんぐみである。	NO_LABEL
何れも当初はファンクラブ限定で発売された。	いずれもとーしょわふぁんくらぶげんていではつばいされた。	NO_LABEL
後にへそブタ争奪編を除いてセブン-イレブン限定で発売された。	ごにへそぶたそーだつへんをのぞいてせぶんいれぶんげんていではつばいされた。	NO_LABEL
両者の内容は特典映像等一部が異なっている。	りょーしゃのないよーわとくてんえいぞーとーいちぶがことなっている。	NO_LABEL
