「記号として/‘I’ Novel」は、RADWIMPSの通算18枚目のシングル。	NO_PRONOUNCE	NO_LABEL
2015年11月25日にユニバーサルミュージックのレーベル、EMI Records Japanから発売された。	にせんじゅうごねんじゅーいちがつにじゅうごにちにゆにばーさるみゅーじっくのれーべる、いーえむあいれこーずじゃぱんからはつばいされた。	NO_LABEL
前作「ピクニック」から約5か月ぶりのリリースとなる。	NO_PRONOUNCE	NO_LABEL
2015年11月25日にCDとして発売され、12月23日にはアナログレコードとして発売された。	にせんじゅうごねんじゅーいちがつにじゅうごにちにしーでぃーとしてはつばいされ、じゅーにがつにじゅうさんにちにわあなろぐれこーどとしてはつばいされた。	NO_LABEL
アナログレコードは180g重量盤で、CDと同内容を収録。	あなろぐれこーどわひゃくはちじゅうぐらむじゅーりょーばんで、しーでぃーとどーないよーをしゅーろく。	NO_LABEL
なお、RADWIMPSがアナログレコードを発売するのは初めてである。	なお、らっどうぃんぷすがあなろぐれこーどをはつばいするのわはじめてである。	NO_LABEL
また、CDのリリースに先駆け、10月9日に「‘I’ Novel」の先行配信が開始された。	NO_PRONOUNCE	NO_LABEL
初回生産分には、入力することで期間限定のスペシャルサイトにアクセスできるシリアルコードが封入された。	しょかいせいさんぶんにわ、にゅーりょくすることできかんげんていのすぺしゃるさいとにあくせすできるしりあるこーどがふーにゅーされた。	NO_LABEL
このサイトでは、2015年10月に行われた海外ツアーのデジタルフォトギャラリーや、アートディレクターのYOSHIROTTENが手がけた「記号として/‘I’ Novel」のデジタルブックレットを閲覧できる。	NO_PRONOUNCE	NO_LABEL
また、抽選で10名にメンバー3人の直筆サインが入ったメジャーデビューシングル「25コ目の染色体」のジャケットのオリジナルプリントがプレゼントされる。	NO_PRONOUNCE	NO_LABEL
「‘I’ Novel」は、東京メトロのキャンペーン「Find my Tokyo.」の第3弾CM「『私を惹きつける池袋』篇」のCMソングとして書き下ろした楽曲である。	NO_PRONOUNCE	NO_LABEL
また、このCMにはボーカルの野田洋次郎も出演している。	また、このこんぴゅーたみゅーじっくまがじんにわぼーかるののだようじろーもしゅつえんしている。	NO_LABEL
10月8日にはTOKYO FM系列のラジオ番組「SCHOOL OF LOCK!」にて「‘I’ Novel」が、11月2日にはFM802のラジオ番組「ROCK KIDS 802」にて「記号として」が初オンエアされた。	NO_PRONOUNCE	NO_LABEL
