アクティビジョン・ブリザードはアメリカ・カリフォルニア州・サンタモニカに本社を置くゲームソフト会社。	NO_PRONOUNCE	NO_LABEL
2013年度の売上高は45億8300万ドルでゲームソフトの分野では世界第3位。	NO_PRONOUNCE	NO_LABEL
2007年12月2日にアクティビジョンとフランスのヴィヴェンディ・ゲームズが合併して誕生した。	NO_PRONOUNCE	NO_LABEL
新会社名には、ヴィヴェンディ傘下のゲーム会社、ブリザード・エンターテイメントのブランドを採用した。	NO_PRONOUNCE	NO_LABEL
合併によってエレクトロニック・アーツを抜き、当時ゲームソフト業界首位となった。	がっぺいによってえれくとろにっくあーつをぬき、とーじげーむそふとぎょーかいしゅいとなった。	NO_LABEL
2011年にフィギュア連動ゲーム『スカイランダーズ』シリーズの展開を始め、2014年までに売上20億ドルを越える成功を収める。	NO_PRONOUNCE	NO_LABEL
2013年7月25日、アクティビジョン・ブリザードは親会社のヴィヴェンディから4億2900万株を58.3億ドルで買い受け、独立した。	NO_PRONOUNCE	NO_LABEL
2015年11月には、スマートフォン向けゲーム製作会社のキング・デジタル・エンターテインメントを約59億ドルで買収した。	にせんじゅうごねんじゅーいちがつにわ、すまーとふぉんむけげーむせいさくがいしゃのきんぐでじたるえんたーていんめんとをやくごじゅうきゅうおくどるでばいしゅーした。	NO_LABEL
アクティビジョン・ヴィヴェンディゲームズ時代のものを含む。	NO_PRONOUNCE	NO_LABEL
