坂本堤弁護士一家殺害事件は、1989年11月4日に旧オウム真理教の幹部6人が、オウム真理教問題に取り組んでいた坂本堤弁護士と家族の3人を殺害した事件である。	さかもとつつみべんごしいっかさつがいじけんわ、せんきゅうひゃくはちじゅうきゅうねんじゅーいちがつよっかにきゅーおーむしんりきょーのかんぶろくにんが、おーむしんりきょーもんだいにとりくんでいたさかもとつつみべんごしとかぞくのさんにんをさつがいしたじけんである。	NO_LABEL
「横浜法律事務所」に所属していた坂本堤弁護士は、江川紹子からの紹介で、出家信者の母親から息子のオウム真理教脱会について相談されたことがきっかけとなり、1989年5月からオウム真理教の反社会性を批判・追及し「オウム真理教被害者の会」を組織していた。	NO_PRONOUNCE	NO_LABEL
同年9月、『サンデー毎日』で「オウム真理教の狂気」特集がスタートし、坂本弁護士も取材を受ける。	NO_PRONOUNCE	NO_LABEL
オウム真理教に対して、批判的な記事を書いていた『サンデー毎日』の出版を差し止めるべく、出版元である毎日新聞社本社の爆破計画があった。	NO_PRONOUNCE	NO_LABEL
2トントラックに爆弾を搭載し、輪転機があるパレスサイドビルディング地下階に突っ込んで爆発させれば、サンデー毎日の出版を停止できるという計画だった。	NO_PRONOUNCE	NO_LABEL
爆弾は村井秀夫が作る予定であった。	ばくだんわむらいひでおがつくるよていであった。	NO_LABEL
計画はトラックが地下に入れないことと、そもそもサンデー毎日がパレスサイドビルディング地下階の輪転機で印刷されているかが不明であったため、計画は暗礁に乗り上げた。	けいかくわとらっくがちかにいれないことと、そもそもさんでーまいにちがぱれすさいどびるでぃんぐちかかいのりんてんきでいんさつされているかがふめいであったため、けいかくわあんしょーにのりあげた。	NO_LABEL
代替案として、直接爆弾を設置する計画があったが、早川紀代秀がオウム真理教のビラを千代田区一ツ橋の毎日新聞社に置いてきたため、足がつくことから頓挫した。	だいたいあんとして、ちょくせつばくだんをせっちするけいかくがあったが、はやかわきよひでがおーむしんりきょーのびらをちよだくひとつばしのまいにちしんぶんしゃにおいてきたため、あしがつくことからとんざした。	NO_LABEL
同年10月26日、上祐史浩、青山吉伸、早川紀代秀は坂本弁護士のインタビューを撮影したTBSテレビに抗議して放送を中止させる。	どーねんじゅーがつにじゅうろくにち、じょーゆーふみひろ、あおやまよしのぶ、はやかわきよひでわさかもとべんごしのいんたびゅーをさつえいしたてぃーびーえすてれびにこーぎしてほーそーをちゅーしさせる。	NO_LABEL
上祐、青山、早川は10月31日には横浜にある坂本の事務所で訴訟回避に向けた交渉を行ったが、坂本は麻原のDNA培養物を高額で売りつける「DNAのイニシエーション」はインチキであり、京都大学が認めたなどと宣伝しているがそのような事実はなかったなどの指摘を行い、訴訟の意思を変えなかったことで交渉は決裂する。	NO_PRONOUNCE	NO_LABEL
坂本弁護士はオウム真理教の宗教法人の認可取り消しなどの民事訴訟の準備に入った。	さかもとべんごしわおーむしんりきょーのしゅーきょーほーじんのにんかとりけしなどのみんじそしょーのじゅんびにはいった。	NO_LABEL
また被害者の会も「水中クンバカや空中浮揚を公開の場で行え」と要求してきた。	NO_PRONOUNCE	NO_LABEL
同年11月2日か3日頃、麻原はオウム真理教幹部である村井秀夫・早川紀代秀・岡﨑一明・新実智光・中川智正をサティアンビルに集め、右手の親指と人差し指で輪を作ってはじく「ポアのサイン」をして、「もう今の世の中は汚れきっておる。	NO_PRONOUNCE	NO_LABEL
もうヴァジラヤーナを取り入れていくしかないんだから、お前たちも覚悟しろよ」「今ポアをしなければいけない問題となる人物はだれと思う」と問い詰めた。	NO_PRONOUNCE	NO_LABEL
当初『サンデー毎日』の編集長を務めていた牧太郎を、帰宅途中に抑え込み殺害するという計画であったが、牧太郎は多忙ゆえ帰宅を襲いにくいため、計画は立ち消えとなった。	NO_PRONOUNCE	NO_LABEL
そこで麻原は「牧太郎ではない。	NO_PRONOUNCE	NO_LABEL
坂本弁護士である」と言って突然標的を坂本堤に変更した。	NO_PRONOUNCE	NO_LABEL
「坂本弁護士の活動は、真理党からの出馬を予定している翌年の総選挙や、今後の教団の発展の障害となる」と考え、信徒に彼の殺害を命じたとされる。	NO_PRONOUNCE	NO_LABEL
そして「坂本弁護士をポアするんだよ」「ポアするんだよポア」「話しても無駄だから、ポアするんだ」などと言い、坂本弁護士を塩化カリウムで殺害するよう指示した。	NO_PRONOUNCE	NO_LABEL
また、腕力のある人材が欲しくなったのでメンバーに端本悟も加えた。	また、わんりょくのあるじんざいがほしくなったのでめんばーにはしもとさとるもくわえた。	NO_LABEL
3日、熊本県在住の在家信徒の弁護士から坂本弁護士の住所を電話で聞きだし、午前9時頃に実行犯らは村井が用意したセダンとワゴン車に分乗し出発した。	みっか、くまもとけんざいじゅーのありいえしんとのべんごしからさかもとべんごしのじゅーしょをでんわでききだし、ごぜんくじごろにじっこーはんらわむらいがよーいしたせだんとわごんしゃにぶんじょーししゅっぱつした。	NO_LABEL
途中で杉並の選対に向かい、2台の交信用の無線機を林泰男が用意し、ついでにかつらなどで変装した。	NO_PRONOUNCE	NO_LABEL
村井は長髪、新実はアフロ、岡崎は七三分けに眼鏡であったという。	むらいわちょーはつ、にーみわあふろ、おかざきわしちさんわけにめがねであったという。	NO_LABEL
その後新宿でスーツなどを買い、横浜へ向かった。	そのごしんじゅくですーつなどをかい、よこはまえむかった。	NO_LABEL
予定では、坂本弁護士が通勤で利用する横浜市磯子区の洋光台駅付近で待ち伏せし、車に連れ込み塩化カリウムを注射して殺害し、遺体をそのまま運び去ろうとしたが、この日は祝日であることを全員忘れていたため坂本弁護士は現れなかった。	よていでわ、さかもとべんごしがつーきんでりよーするよこはましいそごくのよーこーだいえきふきんでまちぶせし、くるまにつれこみえんかかりゅーむをちゅーしゃしてさつがいし、いたいをそのままはこびさろうとしたが、このひわしゅくじつであることをぜんいんわすれていたためさかもとべんごしわあらわれなかった。	NO_LABEL
このため、麻原の指示により同区にある坂本弁護士の自宅に向かう。	このため、あさはらのしじによりどーくにあるさかもとべんごしのじたくにむかう。	NO_LABEL
午後10時、岡崎が坂本家に向かうとドアに鍵がかかっていないことが判明した。	ごごじゅうじ、おかざきがさかもとかにむかうとどあにかぎがかかっていないことがはんめいした。	NO_LABEL
早川がこれを麻原に電話連絡、麻原は「ほほう、そうか。	NO_PRONOUNCE	NO_LABEL
じゃ、入ればいいじゃないか。	じゃ、はいればいーじゃないか。	NO_LABEL
」「しょうがないんじゃないか。	NO_PRONOUNCE	NO_LABEL
一緒にやるしかないだろう。	いっしょにやるしかないだろう。	NO_LABEL
」と一家全員の殺害を命令した。	NO_PRONOUNCE	NO_LABEL
麻原は検事調書の中でこの時の心境を「私は一瞬、子どものことが頭に浮かびましたが、私も小さいときから親から離れて苦労しており、子どもだけ生き残らせても逆に残酷だと思い」、殺害を許可したと語っている。	NO_PRONOUNCE	NO_LABEL
念のため早川と新実がセダンで洋光台駅に向かい、他の四人は坂本弁護士宅近くに停めたワゴン車内で待機し、最終電車まで待ったが坂本弁護士は現れず、家にいると判断し翌11月4日午前3時頃自宅に侵入、寝ている坂本弁護士一家を発見した。	ねんのためはやかわとにーみがせだんでよーこーだいえきにむかい、たのよにんわさかもとべんごしたくちかくにとめたわごんしゃないでたいきし、さいしゅーでんしゃまでまったがさかもとべんごしわあらわれず、いえにいるとはんだんしよくじゅーいちがつよっかごぜんさんじごろじたくにしんにゅー、ねているさかもとべんごしいっかをはっけんした。	NO_LABEL
抵抗が激しく中川が手間取ったため誰にも塩化カリウムをしっかり打てず、窒息させて一家全員を殺害した。	ていこーがはげしくなかがわがてまどったためだれにもえんかかりゅーむをしっかりうてず、ちっそくさせていっかぜんいんをさつがいした。	NO_LABEL
遺体はワゴン車で上九一色村へ運ばれた。	いたいわわごんしゃでかみくいしきむらえはこばれた。	NO_LABEL
その後車3台に分け、坂本弁護士は新潟県西頸城郡名立町の山中に、妻は富山県魚津市別又の林道別又僧ヶ岳線脇に、長男は長野県大町市日向山の山中に、服を脱がして埋められた。	NO_PRONOUNCE	NO_LABEL
坂本弁護士の死体は歯型から身元がわからぬようにと歯をツルハシで叩きつけ、遺棄現場で景気付けに食べたベニズワイガニの殻と一緒にゴミ同然に埋められた。	さかもとべんごしのしたいわはがたからみもとがわからぬよーにとはをつるはしでたたきつけ、いきげんばでけいきずけにたべたべにずわいがにのからといっしょにごみどーぜんにうめられた。	NO_LABEL
発見された坂本弁護士の頭蓋骨には大きな穴が開いていたという。	はっけんされたさかもとべんごしのずがいこつにわおーきなあながひらいていたという。	NO_LABEL
殺害の際に中川がプルシャを部屋に落としたため当初からオウム犯行説が疑われることとなった。	さつがいのさいになかがわがぷるしゃをへやにおとしたためとーしょからおーむはんこーせつがうたがわれることとなった。	NO_LABEL
坂本堤弁護士に関し教団が記者会見し「坂本弁護士が被害者の会の親から預かったものか、第三者が故意に置いたと考えるのが自然」「警察からは事情聴取も受けていない」「申し入れがあれば捜査に協力する」と発表した。	NO_PRONOUNCE	NO_LABEL
この時、集中修行は11月いっぱいまでという説明をした。	このとき、しゅーちゅーしゅぎょーわじゅーいちがついっぱいまでとゆうせつめいをした。	NO_LABEL
前夜の会見を受けてか日曜日にも関わらず神奈川県警察は教団幹部に事情聴取を申し入れたが、教団側は「修行」を理由に事情聴取を拒否、「捜査本部では責任者の集中修行が終わるのを待ってあらためて事情聴取を求める方針」になってしまった。	NO_PRONOUNCE	NO_LABEL
その一方で麻原はある出版社のインタビューに応じる約束を入れていた。	そのいっぽーであさはらわあるしゅっぱんしゃのいんたびゅーにおーじるやくそくをいれていた。	NO_LABEL
11月18日の会見で示し11月19日に幹部事情聴取を拒否した理由である集中修行の期間であるにもかかわらず、幹部がKLMでアムステルダムに出国してしまった。	じゅーいちがつじゅうはちにちのかいけんでしめしじゅいちがつじゅうくにちにかんぶじじょーちょーしゅをきょひしたりゆーであるしゅーちゅーしゅぎょーのきかんであるにもかかわらず、かんぶがけいえるえむであむすてるだむにしゅっこくしてしまった。	NO_LABEL
しかもこれは11月20日出発の予定がエンジントラブルで1日遅れたものだった。	しかもこれわじゅーいちがつはつかしゅっぱつのよていがえんじんとらぶるでついたちおくれたものだった。	NO_LABEL
教団側はボンとニューヨークの支部に行く予定が以前から決まっていた旨説明したが、11月21日と11月27日には麻原が出演するコンサートが東京で開かれることになっており、11月25日と11月26日には名古屋で説法会を行なう予定が入っていた。	きょーだんがわわぼんとにゅーよーくのしぶにいくよていがいぜんからきまっていたむねせつめいしたが、じゅーいちがつにじゅういちにちとじゅーいちがつにじゅうしちにちにわあさはらがしゅつえんするこんさーとがとーきょーでひらかれることになっており、じゅーいちがつにじゅうごにちとじゅーいちがつにじゅうろくにちにわなごやでせっぽーかいをおこなうよていがはいっていた。	NO_LABEL
ボンへ行く目的も当初は「布教活動」としていたが、現地会見で「政治活動」や「現地のビルの賃貸借契約が切れてしまうのでお金を払わなければならない。	NO_PRONOUNCE	NO_LABEL
本当は11月15日に行かなければならなかった」と言いだしている。	NO_PRONOUNCE	NO_LABEL
岡崎は後に裁判でこの旅行は警察やマスコミから逃れることが目的であったと述べている。	おかざきわごにさいばんでこのりょこーわけいさつやますこみからのがれることがもくてきであったとのべている。	NO_LABEL
同日、弁護士有志の団体として「坂本弁護士と家族を救う全国弁護士の会」が結成され、1995年9月に遺体が発見されるまでの間、坂本弁護士一家を救うべく、日本全国規模でチラシ等の配布やキャラバン活動が展開された。	NO_PRONOUNCE	NO_LABEL
教団はボンで会見。	きょーだんわぼんでかいけん。	NO_LABEL
坂本堤弁護士失踪は横浜法律事務所が仕組んだ狂言だと主張、その後もテレビなどで「被害者の会の親が、子供から取り上げたバッジを坂本氏の部屋に置いた」と主張した。	NO_PRONOUNCE	NO_LABEL
同行した報道関係者によると現地ではほとんど支部建物に籠り、布教や政治活動をしている形跡はなかった。	どーこーしたほーどーかんけいしゃによるとげんちでわほとんどしぶたてものにこもり、ふきょーやせいじかつどーをしているけいせきわなかった。	NO_LABEL
一行にはドイツ語を話せるものがおらずボン支部へも道に迷い語学が堪能な記者が見かねて教えたという。	いっこーにわどいつごをはなせるものがおらずぼんしぶえもみちにまよいごがくがかんのーなきしゃがみかねておしえたという。	NO_LABEL
一行はニューヨークから帰国後テレビの生番組にフル出演、その後インドに渡り年末に帰国した。	いっこーわにゅーよーくからきこくごてれびのなまばんぐみにふるしゅつえん、そのごいんどにわたりねんまつにきこくした。	NO_LABEL
失踪当初、坂本弁護士が所属していた「横浜法律事務所」等の関係者からは、オウム真理教の関与を指摘する声があったが、神奈川県警察は事件性は不明であるとの認識であった。	NO_PRONOUNCE	NO_LABEL
これは「横浜法律事務所」はリベラル色が強く日本共産党系とされる「自由法曹団」に所属しており、横浜法律事務所が労働問題や日本共産党幹部宅盗聴事件において警察側と対立していたうえ、坂本が労働運動弁護を行っていたことから、神奈川県警察が反共主義的な意識から坂本を快く思っておらず、捜査も「手抜き」をしているという批判があった。	NO_PRONOUNCE	NO_LABEL
一方で、事件当時に横浜地方検察庁検事正であった佐藤道夫は「この批判は的外れ」とし、県警はオウムの関与は間違いないだろうと判断しており、事の性質上、捜査の方向や進捗状況を明らかにするわけにいかなかった。	NO_PRONOUNCE	NO_LABEL
あの時点では家宅捜索なりを行うことも無理であったとしている。	あのじてんでわかたくそーさくなりをおこなうこともむりであったとしている。	NO_LABEL
横浜法律事務所の弁護士の訴えに対して必要以上に慎重な姿勢をとっていたのではないかとの疑念も残る。	よこはまほーりつじむしょのべんごしのうったえにたいしてひつよーいじょーにしんちょーなしせいをとっていたのでわないかとのぎねんものこる。	NO_LABEL
特に「国労横浜人活弾圧事件」は坂本が主に担当していた。	NO_PRONOUNCE	NO_LABEL
ただでさえ反権力志向とされる在野法曹の中でも、特に日本共産党系とされる弁護士らは警察と対立する立場にあった。	ただでさえはんけんりょくしこーとされるざいやほーそーのなかでも、とくににほんきょーさんとーけいとされるべんごしらわけいさつとたいりつするたちばにあった。	NO_LABEL
そのため記者クラブにおいて、県警は「坂本弁護士は借金を抱えて失踪した」「大金を持ったまま逃げた」「共産主義過激派の内ゲバに巻き込まれた」などの事実無根の噂を新聞社数社に流している。	NO_PRONOUNCE	NO_LABEL
しかも、それと同時に県警は「任意の失踪の可能性は五分五分」とリークしている。	NO_PRONOUNCE	NO_LABEL
オウムもこれに便乗し「労働運動などが関係している」「犯行現場にわざわざプルシャを落とすことは明らかに不自然であり謀略」と主張した。	NO_PRONOUNCE	NO_LABEL
結果的にオウムは相変わらず活動を続けることができ、松本サリン事件、地下鉄サリン事件など多くの事件を起こすこととなる。	けっかてきにおーむわあいかわらずかつどーをつずけることができ、まつもとさりんじけん、ちかてつさりんじけんなどおーくのじけんをおこすこととなる。	NO_LABEL
オウム側はさかんにメディア進出を行い、テレビ番組に出演したり有名人と麻原の対談などを行い潔白を主張するようになった。	おーむがわわさかんにめでぃあしんしゅつをおこない、てれびばんぐみにしゅつえんしたりゆーめいじんとあさはらのたいだんなどをおこないけっぱくをしゅちょーするよーになった。	NO_LABEL
これもあってオウムへの嫌疑は次第に薄れていった。	これもあっておーむえのけんぎわしだいにうすれていった。	NO_LABEL
実行犯の一人である岡崎は、真理党候補として立候補した第39回衆議院議員総選挙の選挙運動中の1990年2月10日に突然、3億円の現金を持ち逃げして教団を脱走する。	じっこーはんのひとりであるおかざきわ、しんりとーこーほとしてりっこーほしただいさんじゅうきゅうかいしゅーぎーんぎーんそーせんきょのせんきょうんどーちゅーのせんきゅうひゃくきゅうじゅうねんにがつとおかにとつぜん、さんおくえんのげんきんをもちにげしてきょーだんをだっそーする。	NO_LABEL
その後、麻原に電話をかけ、口止め料として現金1000万円を要求。	そのご、あさはらにでんわをかけ、くちどめりょーとしてげんきんせんまんえんをよーきゅー。	NO_LABEL
現在の所持金が170万円であることを伝えると麻原は差し引き830万円を振り込むことを約束した。	げんざいのしょじきんがひゃくななじゅうまんえんであることをつたえるとあさはらわさしひきはっぴゃくさんじゅうまんえんをふりこむことをやくそくした。	NO_LABEL
さらに「長男は長野県大町市日向山の山中に埋めてある」という手紙を匿名で1990年2月16日付の速達で神奈川県警察に送付し、神奈川県警察は長野県警察と合同で地図の示す場所を捜索するものの発見できなかった。	NO_PRONOUNCE	NO_LABEL
警察は手紙を出したのは岡崎ではないかと感づいており、岡崎に対しウソ発見器も投入して事情聴取を行った。	けいさつわてがみをだしたのわおかざきでわないかとかんずいており、おかざきにたいしうそはっけんきもとーにゅーしてじじょーちょーしゅをおこなった。	NO_LABEL
だが岡崎は「オウムバッシングの話題をそらすために嘘の投書を送っただけ」とはぐらかし、事態は行き詰った。	NO_PRONOUNCE	NO_LABEL
また、早川紀代秀は1990年にオウム真理教国土利用計画法違反事件で一度逮捕されたが、坂本事件については一切聞かれず、指紋除去の傷のことも指摘されなかった。	また、はやかわきよひでわせんきゅうひゃくきゅうじゅうねんにおーむしんりきょーこくどりよーけいかくほーいはんじけんでいちどたいほされたが、さかもとじけんについてわいっさいきかれず、しもんじょきょのきずのこともしてきされなかった。	NO_LABEL
結局「再捜索」は1995年9月の坂本弁護士一家の遺体発見まで行われなかった。	NO_PRONOUNCE	NO_LABEL
1995年春、岡﨑一明が自供をしたことで、事件の真相が明らかになった。	NO_PRONOUNCE	NO_LABEL
地下鉄サリン事件の起きた1995年3月、警察はオウム真理教の捜査を本格的に開始。	ちかてつさりんじけんのおきたせんきゅうひゃくきゅうじゅうごねんさんがつ、けいさつわおーむしんりきょーのそーさをほんかくてきにかいし。	NO_LABEL
そんな中、岡﨑が事件を仄めかすような供述を始め、4月6日に真相を語った。	NO_PRONOUNCE	NO_LABEL
岡崎の自供により坂本弁護士一家が殺害されていたことがわかり、同年9月6日警察による山中の捜索が行われた。	おかざきのじきょーによりさかもとべんごしいっかがさつがいされていたことがわかり、どーねんくがつむいかけいさつによるさんちゅーのそーさくがおこなわれた。	NO_LABEL
同日、坂本弁護士と妻の遺体が白骨化した状態で発見された。	どーじつ、さかもとべんごしとつまのいたいがはっこつかしたじょーたいではっけんされた。	NO_LABEL
一方、長男の捜索は難航を極めたが、4日後の9月10日発見された。	いっぽー、ちょーなんのそーさくわなんこーをきわめたが、よっかごのくがつとおかはっけんされた。	NO_LABEL
一家の墓所は鎌倉・円覚寺「松嶺院」にある。	NO_PRONOUNCE	NO_LABEL
坂本弁護士の妻が遺体で発見された場所は、1995年9月6日、新潟県と富山県の県境付近である林道別又僧ヶ岳線の魚津市別又谷の上り口から数キロの地点の山中であった。	さかもとべんごしのつまがいたいではっけんされたばしょわ、せんきゅうひゃくきゅうじゅうごねんくがつむいか、にーがたけんととやまけんのけんきょーふきんであるりんどーべつまたそーがだけせんのうおずしべつまたたにのあがりぐちからすーきろのちてんのさんちゅーであった。	NO_LABEL
発見場所には遺族が木製の慰霊碑を建て、慰霊登山も執り行われている。	はっけんばしょにわいぞくがもくせいのいれいひをたて、いれいとざんもとりおこなわれている。	NO_LABEL
刺殺された村井を除き、実行犯全員に死刑判決が出た。	さしころされたむらいをのぞき、じっこーはんぜんいんにしけいはんけつがでた。	NO_LABEL
2018年現在、実行犯全員は東京拘置所に収監中である。	にせんじゅうはちねんげんざい、じっこーはんぜんいんわとーきょーこーちしょにしゅーかんちゅーである。	NO_LABEL
1989年10月26日に東京放送のテレビワイドショー番組『3時にあいましょう』が、当時社会問題化し始めていたオウム真理教問題について坂本堤へインタビューを行ったが、その情報を察知したオウム真理教幹部らが、TBSの千代田分室を訪れて抗議したことにより、坂本弁護士のインタビューの放送が中止された。	NO_PRONOUNCE	NO_LABEL
さらに、この時にTBS側がオウム真理教幹部に収録したインタビューのビデオを見せ、この後、同年11月4日に坂本弁護士一家殺害事件が発生した。	さらに、このときにてぃーびーえすがわがおーむしんりきょーかんぶにしゅーろくしたいんたびゅーのびでおをみせ、こののち、どーねんじゅーいちがつよっかにさかもとべんごしいっかさつがいじがはっせいした。	NO_LABEL
こうした経緯から、TBSは取材源の秘匿というジャーナリズムの原則に反しただけでなく、結果的に殺人幇助となり、一家失踪後もビデオをオウム真理教に見せたことを警察や弁護士会に伝えずにオウム真理教をかばい続けたと批判された。	こーしたけいいから、てぃーびーえすわしゅざいげんのひとくとゆうじゃーなりずむのげんそくにはんしただけでなく、けっかてきにさつじんほーじょとなり、いっかしっそーごもびでおをおーむしんりきょーにみせたことをけいさつやべんごしかいにつたえずにおーむしんりきょーをかばいつずけたとひはんされた。	NO_LABEL
この影響により、『3時にあいましょう』の後継番組『スーパーワイド』の放送が打ち切られた。	NO_PRONOUNCE	NO_LABEL
この事件には現時点でも多くの不明点がある。	このじけんにわげんじてんでもおーくのふめいてんがある。	NO_LABEL
被害者の遺族の中には、「本当の命日を知りたい」という声がある。	NO_PRONOUNCE	NO_LABEL
