シトクロムは、酸化還元機能を持つヘム鉄を含有する、ヘムタンパク質の一種である。	しとくろむわ、さんかかんげんきのーをもつへむてつをがんゆーする、へむたんぱくしつのいちしゅである。	NO_LABEL
1886年にMacMunnによって存在が指摘され、1925年にデーヴィッド・ケイリン によるウマの胃に寄生するヒツジバエ科ウマバエ幼虫を用いた研究によって酸化還元機能を持ち好気呼吸に重要な役割を持つことが実証された。	NO_PRONOUNCE	NO_LABEL
チトクロム、サイトクロム、シトクロームなどと呼ばれることもある。	ちとくろむ、さいとくろむ、しとくろーむなどとよばれることもある。	NO_LABEL
シトクロムは含有しているヘムの種類によって以下の種類に分かれる。	しとくろむわがんゆーしているへむのしゅるいによっていかのしゅるいにわかれる。	NO_LABEL
また、シトクロムP450という呼称を持つタンパク質が存在するが、モノオキシゲナーゼでありシトクロムではない。	NO_PRONOUNCE	NO_LABEL
シトクロムの名称は上記の分類のほかに、生物種名や長波長の吸収帯のnmの数で付けられることが多い。	NO_PRONOUNCE	NO_LABEL
好気呼吸を行う生物群からまず発見されているが、現在では全生物に見つかっているといって良い。	こーきこきゅーをおこなうせいぶつぐんからまずはっけんされているが、げんざいでわぜんせいぶつにみつかっているといってよい。	NO_LABEL
16S rRNA 遺伝子の塩基配列とともに、シトクロムのアミノ酸配列も系統解析に用いられることが多い。	NO_PRONOUNCE	NO_LABEL
膜結合型シトクロムは真核生物であればミトコンドリア内膜、細胞質内膜系など膜に存在している。	まくけつごーがたしとくろむわまかくせいぶつであればみとこんどりあないまく、さいぼーしつないまくけいなどまくにそんざいしている。	NO_LABEL
原核生物では細胞膜に存在する。	げんかくせいぶつでわさいぼーまくにそんざいする。	NO_LABEL
植物など光合成を行う生物では葉緑体、色素顆粒にも存在する。	しょくぶつなどこーごーせいをおこなうせいぶつでわようりょくたい、しきそかりゅーにもそんざいする。	NO_LABEL
また、可溶型のシトクロムも存在し、そうしたタイプでは細胞質に存在している。	NO_PRONOUNCE	NO_LABEL
シトクロムはヘム鉄を含有しているので酸化還元電位が高く、概して電子伝達系に存在している。	しとくろむわへむてつをがんゆーしているのでさんかかんげんでんいがたかく、がいしてでんしでんたつけいにそんざいしている。	NO_LABEL
特に呼吸鎖複合体IIIは本体がシトクロムの複合体であり、複合体IVではシトクロムcを酸化して電子伝達を行う。	NO_PRONOUNCE	NO_LABEL
光合成においてもシトクロムb/f複合体として存在し、同様に酸化還元反応に寄与している。	NO_PRONOUNCE	NO_LABEL
嫌気呼吸においては硝酸還元や硫酸還元などで電子供与体として機能している。	けんきこきゅーにおいてわしょーさんかんげんやりゅーさんかんげんなどででんしきょーよたいとしてきのーしている。	NO_LABEL
またヘム鉄にはFeとFeが存在し、これらが可逆的に変換することにより電子伝達を可能にしている。	NO_PRONOUNCE	NO_LABEL
各々の酸化還元電位は様々な酸化還元電位を持つシトクロムの存在は生物体での高いエネルギー効率に寄与しているといえる。	おのおののさんかかんげんでんいわさまざまなさんかかんげんでんいをもつしとくろむのそんざいわせいぶつたいでのたかいえねるぎーこーりつにきよしているといえる。	NO_LABEL
特殊な役割として、ミトコンドリアのシトクロムcがアポトーシスに関与することが知られている。	NO_PRONOUNCE	NO_LABEL
