ハン・ドンピョ()は、在米韓国人の科学者。	はんどんぴょかっこわ、ざいべいかんこくじんのかがくしゃ。	NO_LABEL
ソウル生まれ。	そうるうまれ。	NO_LABEL
アイオワ州立大学助教授を2013年に退職。	あいおわしゅーりつだいがくじょきょーじゅをにせんじゅうさんねんにたいしょく。	NO_LABEL
HIVワクチン研究の実験結果をでっち上げ、アメリカ国立衛生研究所から1900万ドルの研究費を受け取っていたことが発覚した。	NO_PRONOUNCE	NO_LABEL
2015年7月1日に、懲役4年6月の実刑判決と750万ドルの返還命令を受けた。	にせんじゅうごねんしちがつついたちに、ちょーえきよんねんろくがつのじっけいはんけつとななひゃくごじゅうまんどるのへんかんめいれいをうけた。	NO_LABEL
