伊丹公論は、小林杖吉により昭和11年(1936）1月20日に創刊、平成25年7月31日に復刊された伊丹の郷土研究紙。	NO_PRONOUNCE	NO_LABEL
タブロイド判4ページで1部10銭で販売された。	NO_PRONOUNCE	NO_LABEL
伊丹町長・市長を務めた俳文学研究者・岡田利兵衞ら、当時の伊丹を代表する文化人が寄稿しました。	NO_PRONOUNCE	NO_LABEL
「伊丹酒」や「有岡八景考」、「郷土土産品紹介」、「伊丹俳壇」などの文化的な記事や「酔後録」のような遊び心のある記事も掲載された。	NO_PRONOUNCE	NO_LABEL
当初は月刊だったが不定期刊となり、伊丹市制が施行された1940年11月10日発行の19号まで発行された。	とーしょわげっかんだったがふていきかんとなり、いたみしせいがしこーされたせんきゅうひゃくよんじゅうねんじゅーいちがつとおかはっこーのじゅうきゅうごーまではっこーされた。	NO_LABEL
伊丹市立図書館が宮ノ前に移転・開館したのを機に、市民参加型の伊丹公論編集会議を月に1回開催し、平成25年7月31日に73年ぶりに復刊した。	NO_PRONOUNCE	NO_LABEL
地域研究いたみ	ちーきけんきゅーいたみ	NO_LABEL
