『ドリームネットPAPA』は柴田亜美の漫画。	NO_PRONOUNCE	NO_LABEL
 講談社「amie」で連載。	NO_PRONOUNCE	NO_LABEL
全4巻。	ぜんよんかん。	NO_LABEL
1997年、少女漫画雑誌　月刊「amie」にて連載されていた愛と感動のドタバタホームコメディ漫画。	NO_PRONOUNCE	NO_LABEL
家庭とゲーム業界が舞台。	かていとげーむぎょーかいがぶたい。	NO_LABEL
時々同じくamieで連載していたCLAMPの『CLOVER』のパロディが出てくる。	NO_PRONOUNCE	NO_LABEL
『緊急出動すずめちゃん!』に登場するキャラクターが出てくる。	NO_PRONOUNCE	NO_LABEL
大手ゲーム会社“ドリームス”でプロデューサーを務める「五味ヒデハル」は、2年前に離婚した妻「クラリス」がアメリカで出産した自分の息子「ネット」を、クラリスの他界を機に引き取ることになる。	NO_PRONOUNCE	NO_LABEL
息子は1歳にしてアメリカの一流大学、マサチューセッツ工科大学を卒業した超天才赤ちゃんだった。	むすこわいっさいにしてあめりかのいちりゅーだいがく、まさちゅーせっつこーかだいがくをそつぎょーしたちょーてんさいあかちゃんだった。	NO_LABEL
ネットの開発したゲーム機「トイボックス」を狙うヒデハルのライバル会社“リアール社”の刺客たち“クラッシャー”とのゲームでの戦いや、ご近所付き合いなどから家族や友情、夢といったものを学んでゆく。	NO_PRONOUNCE	NO_LABEL
ネット	ねっと	NO_LABEL
クラリス	くらりす	NO_LABEL
ウサたん	うさたん	NO_LABEL
メディア・マルチ	NO_PRONOUNCE	NO_LABEL
クマたん	くまたん	NO_LABEL
エリオット・マルチ	NO_PRONOUNCE	NO_LABEL
イリエ総統	いりえそーとー	NO_LABEL
安土のおばあ様	あずちのおばあよー	NO_LABEL
オーギュスト・ボウ	おーぎゅすとぼー	NO_LABEL
セバスチャン	せばすちゃん	NO_LABEL
トイボックス	といぼっくす	NO_LABEL
モンスターエッグ	もんすたーえっぐ	NO_LABEL
セルフ	せるふ	NO_LABEL
BLOODY MONDAY	ぶらっでぃまんでい	NO_LABEL
メッセージ	めっせーじ	NO_LABEL
ブレインショック	ぶれいんしょっく	NO_LABEL
H・and・S	NO_PRONOUNCE	NO_LABEL
ラブボックス	らぶぼっくす	NO_LABEL
ラブラブ　ぽっぷペット	らぶらぶぽっぷぺっと	NO_LABEL
アルティミット ダンシング マスター	あるてぃみっとだんしんぐますたー	NO_LABEL
みつめて ハント・凝視！	NO_PRONOUNCE	NO_LABEL
