司憲府は、朝鮮において、高麗から李氏朝鮮にかけて存在した政府機関。	さほんぶわ、ちょーせんにおいて、こーらいからりしちょーせんにかけてそんざいしたせいふきかん。	NO_LABEL
時政の論評、官吏の糾察、褒挙、風俗の矯正、冤抑の解決、また経国大典では、濫偽の禁止などに関する業務を管掌する。	NO_PRONOUNCE	NO_LABEL
995年に御史台として設置されたが、1298年に宗主国の元により、高麗の全官衙は名称を格下げされ、御史台も司憲府に改称した。	きゅうひゃくきゅうじゅうごねんにぎょしだいとしてせっちされたが、せんにひゃくきゅうじゅうはちねんにそーしゅこくのもとにより、こーらいのぜんかんがわめいしょーをかくさげされ、ぎょしだいもさほんぶにかいしょーした。	NO_LABEL
以後、元による頻繁な官制変動によって名称を改められたが、1369年に司憲府の名称が定着し、朝鮮末期まで続く。	いご、もとによるひんぱんなかんせいへんどーによってめいしょーをあらためられたが、せんさんびゃくろくじゅうきゅうねんにさほんぶのめいしょーがていちゃくし、ちょーせんまっきまでつずく。	NO_LABEL
1392年、中枢院の南に設置され、1894年の甲午改革によって、司諫院とともに、議政府所属の都察院に改編された。	NO_PRONOUNCE	NO_LABEL
まず時政においては、弘文館、司諫院とともに議論し、これらの官衙を、台諫や三司と呼んだ。	NO_PRONOUNCE	NO_LABEL
また政治活動は、大司憲、執義、掌令、持平が行い、議政府の大臣や六曹の判書が出席する、朝啓や常参に参加し、王の講義でもある経筵や書筵にも参加した。	またせいじかつどーわ、たいしけん、とよし、てのひられい、もちひらがおこない、ぎせいふのだいじんやろくそーのはんしょがしゅっせきする、あさけいやつねさんにさんかし、おーのこーぎでもあるけいむしろやしょむしろにもさんかした。	NO_LABEL
司憲府自体の糾察の面では、高麗時代には全官吏に対して違法行為の場合、官職の剥奪ができたが、朝鮮時代には、中央の官吏の違法行為の場合、官職の剥奪が五品以下に固定された。	さほんぶじたいのただしさっのめんでわ、こーらいじだいにわぜんかんりにたいしていほーこーいのばあい、かんしょくのはくだつができたが、ちょーせんじだいにわ、ちゅーおーのかんりのいほーこーいのばあい、かんしょくのはくだつがごひんいかにこていされた。	NO_LABEL
そのため、全官吏に対して糾察を行う場合は、刑曹、漢城府、とともに処理した。	そのため、ぜんかんりにたいしてただしさっをおこなうばあいわ、ひょんじょ、かんじょーふ、とともにしょりした。	NO_LABEL
これらの官衙をまとめて、三法司と呼んだ。	これらのかんがをまとめて、さんほーじとよんだ。	NO_LABEL
また監察は、中央の官衙、地方に派遣され、全官衙の監督をした。	またかんさつわ、ちゅーおーのかんが、ちほーにはけんされ、ぜんかんがのかんとくをした。	NO_LABEL
したがって監察は外勤が多く、出勤した時、持平が業務命令を行った。	したがってかんさつわがいきんがおーく、しゅっきんしたとき、もちひらがぎょーむめいれいをおこなった。	NO_LABEL
監察は業務部屋の監察房で働いていた。	かんさつわぎょーむへやのかんさつぼーではたらいていた。	NO_LABEL
また部屋は、内房と外房に分けられ、内房には、監察の代表である、房主1人と有司2人がおり、外房では、残りの監察が業務をしていた。	またへやわ、うつぶさとそとぼーにわけられ、うつぶさにわ、かんさつのだいひょーである、ぼーぬしひとりとゆーしふたりがおり、そとぼーでわ、のこりのかんさつがぎょーむをしていた。	NO_LABEL
このように、議政府、六曹、承政院、弘文館、司諫院とともに国家の中枢を担ったが、太宗治世中に大司憲の孟思誠が太宗への報告なしに慶貞公主の婿の趙大臨を拷問して免職になったように、取り調べ課程で拷問に関与する官府であり、朋党政治や勢道政治の土台になり、三司も後に、議政府、六曹の権限を制限するなどして様々な弊害がおこる。	NO_PRONOUNCE	NO_LABEL
