ファイエット郡であり、同郡で人口最大の町はオークランド町である。	ふぁいえっとぐんであり、どーぐんでじんこーさいだいのまちわおーくらんどまちである。	NO_LABEL
郡名はアメリカ独立戦争の英雄であるフランス貴族ラファイエットに因んで名付けられた。	ぐんめいわあめりかどくりつせんそーのえいゆーであるふらんすきぞくらふぁいえっとにちなんでなずけられた。	NO_LABEL
ファイエット郡はミシシッピ州とアーカンソー州にも跨るメンフィス大都市圏に属している。	ふぁいえっとぐんわみししっぴしゅーとあーかんそーしゅーにもまたがるめんふぃすだいとしけんにぞくしている。	NO_LABEL
ミシシッピ・デルタにあると見なされ、19世紀には奴隷労働に依存する綿花のプランテーションが栄えた。	みししっぴでるたにあるとみなされ、じゅうきゅうせいきにわどれいろうどーにいぞんするめんかのぷらんてーしょんがさかえた。	NO_LABEL
アメリカ合衆国国勢調査局に拠れば、郡域全面積は706平方マイルであり、このうち陸地704平方マイル、水域は2平方マイルで水域率は0.24%である。	NO_PRONOUNCE	NO_LABEL
以下は2000年の国勢調査による人口統計データである。	いかわにせんねんのこくせいちょうさによるじんこーとーけいでーたである。	NO_LABEL
1990年代初期に州道64号線を4車線に拡張して以来、郡西部で人口が爆発した。	NO_PRONOUNCE	NO_LABEL
郡庁所在地は現在もサマービルにあるが、シェルビー郡で働き、手ごろな住宅を求める人々が流入してきたので、オークランドの人口がサマービルのそれを上回った。	ぐんちょーしょざいちわげんざいもさまーびるにあるが、しぇるびーぐんではたらき、てごろなじゅーたくをもとめるひとびとがりゅーにゅーしてきたので、おーくらんどのじんこーがさまーびるのそれをうわまわった。	NO_LABEL
ファイエット郡はその西部で成長しているが、郡経済は依然として農業に基づいている。	ふぁいえっとぐんわそのせいぶでせいちょーしているが、ぐんけいざいわいぜんとしてのーぎょーにもとずいている。	NO_LABEL
昔からミシシッピ・デルタの一部として綿花のプランテーションが盛んだった。	むかしからみししっぴでるたのいちぶとしてめんかのぷらんてーしょんがさかんだった。	NO_LABEL
郡内の大きな農業経営者である、レイ、ウォーカー、ジャーマン、アーマー、カーチャーなどの一家が郡の富の大半を制御している。	ぐんないのおーきなのーぎょーけいえいしゃである、れい、うぉーかー、じゃーまん、あーまー、かーちゃーなどのいっかがぐんのとみのたいはんをせいぎょしている。	NO_LABEL
これら家系の中には南北戦争前のプランテーション時代から何世代も農業を営んできた者がいる。	これらかけいのなかにわなんぼくせんそーまえのぷらんてーしょんじだいからなんせだいものーぎょーをいとなんできたしゃがいる。	NO_LABEL
さもなければ、その技術、事業的手腕、労働倫理を使って、大規模な農場を運営している若い者達である。	さもなければ、そのぎじゅつ、じぎょーてきしゅわん、ろーどーりんりをつかって、だいきぼなのーじょーをうんえいしているわかいものたちである。	NO_LABEL
ファイエット郡はメンフィスやシェルビー郡の外で大型の住宅を求める人々の土地を求める場所になってきた。	ふぁいえっとぐんわめんふぃすやしぇるびーぐんのそとでおーがたのじゅーたくをもとめるひとびとのとちをもとめるばしょになってきた。	NO_LABEL
2007年6月に認められている建築許可の価格は、かなり高いメンフィス郊外のミシシッピ州デソト郡のそれに近づいてきた。	にせんななねんろくがつにみとめられているけんちくきょかのかかくわ、かなりたかいめんふぃすこーがいのみししっぴしゅーでそとぐんのそれにちかずいてきた。	NO_LABEL
郡内の学校としては、ファイエット・ウエア包括高校、ファイエット・アカデミー、ロスビル・クリスチャン・アカデミーなどがある他、中学校2校、小学校7校がある。	NO_PRONOUNCE	NO_LABEL
