釜石駅は、岩手県釜石市鈴子町にある、東日本旅客鉄道・三陸鉄道の駅である。	NO_PRONOUNCE	NO_LABEL
JR東日本の山田線と釜石線、三陸鉄道の南リアス線が乗り入れている。	じぇいあーるひがしにほんのやまだせんとかまいしせん、さんりくてつどーのみなみりあすせんがのりいれている。	NO_LABEL
3路線とも当駅が終着駅である。	NO_PRONOUNCE	NO_LABEL
当駅を発車する列車は、山田線の宮古方面行き列車が下りとなる他は、全て上り列車となる。	とーえきをはっしゃするれっしゃわ、やまだせんのみやふるかたもいきれっしゃがくだりとなるほかわ、すべてのぼりれっしゃとなる。	NO_LABEL
なお、JRの駅の所属線は山田線である。	なお、じぇいあーるのえきのしょぞくせんわやまだせんである。	NO_LABEL
なお、釜石東線が開業する前の1911年から、釜石 - 大橋間には鉱石輸送のための釜石鉱山鉄道が存在し、釜石線全通後の1965年まで運行された。	NO_PRONOUNCE	NO_LABEL
同線の釜石側の駅は当初鈴子駅と名乗り、後に釜石駅と改称されていたが、国鉄釜石駅の開業に伴い釜石製鉄駅へ改称された。	どーせんのかまいしがわのえきわとーしょすずこえきとなのり、ごにかまいしえきとかいしょーされていたが、こくてつかまいしえきのかいぎょーにともないかまいしせいてつえきえかいしょーされた。	NO_LABEL
島式ホーム2面4線を有する列車交換可能な地上駅になっている。	NO_PRONOUNCE	NO_LABEL
駅舎とホームは地下通路で連絡している。	えきしゃとほーむわちかつーろでれんらくしている。	NO_LABEL
直営駅。	ちょくえいえき。	NO_LABEL
釜石線営業所が併設されていた。	かまいしせんえいぎょーしょがへいせつされていた。	NO_LABEL
管理駅として、山田線の浪板海岸駅 - 両石駅間と釜石線の上有住駅 - 小佐野駅間の各駅を管理している。	NO_PRONOUNCE	NO_LABEL
駅舎にはみどりの窓口、自由席券きっぷうりば、自動券売機1台、NEWDAYS、立ち食いそば屋「そば処釜石」がある。	NO_PRONOUNCE	NO_LABEL
2007年12月初め、待合所が開放型から閉鎖型に改装された。	にせんななねんじゅーにがつはじめ、まちあいじょがかいほーがたからへいさがたにかいそーされた。	NO_LABEL
待合所の中にはキオスクと駅舎外にあった立ち食いそば屋が入居し、駅舎2階にあったレストランは閉店した。	まちあいじょのなかにわきおすくとえきしゃがいにあったたちぐいそばやがにゅーきょし、えきしゃにかいにあったれすとらんわへいてんした。	NO_LABEL
2012年には、三陸海岸の復興支援を目的として駅舎のリニューアルが行われた。	にせんじゅうにねんにわ、さんりくかいがんのふっこーしえんをもくてきとしてえきしゃのりにゅーあるがおこなわれた。	NO_LABEL
駅のテーマは「鉄のまち」で、製鉄所の溶鉱炉をイメージした。	NO_PRONOUNCE	NO_LABEL
外壁下部はレンガ調で、そこから鉄をイメージしたルーバーを立ち上げている。	がいへきかぶわれんがちょーで、そこからてつをいめーじしたるーばーをたちあげている。	NO_LABEL
また入口ゲートは「釜」の字を模した形状を連続させている。	NO_PRONOUNCE	NO_LABEL
駅舎内は光天井のイメージで、乳白色のカバーで覆ったLED照明を採用している。	えきしゃないわひかりてんじょーのいめーじで、にゅーはくしょくのかばーでおおったえるいーでぃーしょーめいをさいよーしている。	NO_LABEL
従来、通路からホームへは階段のみであったが、エスカルが設置された。	じゅーらい、つーろからほーむえわかいだんのみであったが、えすかるがせっちされた。	NO_LABEL
東日本大震災により、当駅より宮古方面へは不通となっており、代替バスによる振替輸送利用となっている。	ひがしにほんだいしんさいにより、とーえきよりみやこほーめんえわふつーとなっており、だいたいばすによるふりかえゆそーりよーとなっている。	NO_LABEL
宮古駅へは釜石駅前から途中の道の駅やまだまでが岩手県交通バス、そこから宮古駅前までは岩手県北バス利用となる。	みやこえきえわかまいしえきまえからとちゅーのみちのえきやまだまでがいわてけんこうつーばす、そこからみやこえきまえまでわいわてけんぽくばすりよーとなる。	NO_LABEL
単式ホーム1面1線を有する地上駅。	NO_PRONOUNCE	NO_LABEL
JRのホームとはやや離れた位置にある。	じぇいあーるのほーむとわややはなれたいちにある。	NO_LABEL
また駅舎からホームへはJRの線路を挟んでおり、地下通路で連絡する。	またえきしゃからほーむえわじぇいあーるのせんろをはさんでおり、ちかつーろでれんらくする。	NO_LABEL
地下通路でJR構内と接続しているが、JR直通列車発着時と接続時間が短い場合のみ開放される。	ちかつーろでじぇいあーるこーないとせつぞくしているが、じぇいあーるちょくつーれっしゃはっちゃくじとせつぞくじかんがみじかいばあいのみかいほーされる。	NO_LABEL
社員配置駅。	しゃいんはいちえき。	NO_LABEL
駅舎には出札窓口、自動券売機がある。	えきしゃにわしゅっさつまどぐち、じどーけんばいきがある。	NO_LABEL
JR直通列車を除き改札業務はせず、運賃は車内精算となる。	じぇいあーるちょくつーれっしゃをのぞきかいさつぎょーむわせず、うんちんわしゃないせいさんとなる。	NO_LABEL
またJRの駅レンタカー業務を受託している。	またじぇいあーるのえきれんたかーぎょーむをじゅたくしている。	NO_LABEL
従来JR駅舎と三陸鉄道駅舎の間に喫煙所があったが、2015年現在撤廃されている。	じゅーらいじぇいあーるえきしゃとさんりくてつどーえきしゃのまにきつえんじょがあったが、にせんじゅうごねんげんざいてっぱいされている。	NO_LABEL
2015年4月よりイオンが命名権を取得し、2016年3月までの予定で「イオンタウン釜石駅」と称されていた。	NO_PRONOUNCE	NO_LABEL
近年の乗車人員の推移は下記のとおりである。	きんねんのじょーしゃじんいんのすいいわかきのとーりである。	NO_LABEL
