ピリダジンは、分子式 CHN、分子量 80.09 の六員環構造をもつ複素環式芳香族化合物のアミンの一種である。	NO_PRONOUNCE	NO_LABEL
ベンゼンの1,2位の炭素が窒素で置換されたもの。	NO_PRONOUNCE	NO_LABEL
1,2-ジアザベンゼンとも。	NO_PRONOUNCE	NO_LABEL
融点 -8℃、沸点 208℃ で、常温では無色または淡黄色の液体。	ゆーてんまいなすはちどしー、ふってんにひゃくはちどしーで、じょーおんでわむしょくまたわあわきいろのえきたい。	NO_LABEL
CAS登録番号は[289-80-5]。	NO_PRONOUNCE	NO_LABEL
農薬などに用いられている。	のーやくなどにもちいられている。	NO_LABEL
異性体にピラジンとピリミジンがある。	いせいたいにぴらじんとぴりみじんがある。	NO_LABEL
