『サタンクロース』は、2005年に公開されたビル・ゴールドバーグ主演のブラック・コメディ/クリスマス映画である。	NO_PRONOUNCE	NO_LABEL
日本ではビデオスルーとなった。	にっぽんでわびでおするーとなった。	NO_LABEL
アメリカ合衆国でのDVDリリースはライオンズゲート・ホームエンタテインメントが行った。	NO_PRONOUNCE	NO_LABEL
サンタクロースの正体は、神に負けたサタンの息子で、1000年間大人しくしていたが、その1000年目がすぎ去る時、再び彼は暴れだすのだった。	さんたくろーすのしょーたいわ、かみにまけたさたんのむすこで、せんねんかんおとなしくしていたが、そのせんねんめがすぎさるとき、ふたたびかれわあばれだすのだった。	NO_LABEL
※括弧内は日本語吹き替え	NO_PRONOUNCE	NO_LABEL
