『めくりめくる』は、拓による日本の漫画である。	NO_PRONOUNCE	NO_LABEL
『月刊コミックガム』において、2010年5月号より2014年8月号まで連載された。	NO_PRONOUNCE	NO_LABEL
岡山県倉敷市を舞台とし、思春期の少年少女らの青春模様がオムニバス形式で描かれている。	おかやまけんくらしきしをぶたいとし、ししゅんきのしょーねんしょーじょらのせいしゅんもよーがおむにばすけいしきでえがかれている。	NO_LABEL
2010年10月からは、倉敷市が漫画とタイアップした観光PRキャンペーンを展開している。	にせんじゅうねんじゅーがつからわ、くらしきしがまんがとたいあっぷしたかんこーぴーあーるきゃんぺーんをてんかいしている。	NO_LABEL
倉敷市出身で、2010年現在も岡山県に在住する拓が、同市を舞台とした高校生の何気ない日常や心情を一話完結のオムニバス形式。	くらしきししゅっしんで、にせんじゅうねんげんざいもおかやまけんにざいじゅーするたくが、どーしをぶたいとしたこーこーせいのなにげないにちじょーやしんじょーをいちわかんけつのおむにばすけいしき。	NO_LABEL
で描いた作品。	でえがいたさくひん。	NO_LABEL
倉敷駅、倉敷美観地区など、倉敷市内の風景や観光名所が随所に登場し、その背景は繊細でリアルに描かれている。	くらしきえき、くらしきびかんちくなど、くらしきしないのふーけいやかんこーめいしょがずいしょにとーじょーし、そのはいけいわせんさいでりあるにえがかれている。	NO_LABEL
拓にとっては、初の連載作品となる。	たくにとってわ、はつのれんさいさくひんとなる。	NO_LABEL
『コミックガム』の担当者が、拓のWEBサイトもしくは同人誌を見て、声を掛けたのが誕生するきっかけ。	NO_PRONOUNCE	NO_LABEL
担当者に倉敷を舞台にすることを提案され、拓自身も倉敷の雰囲気が描きたい作風に近いと考え、描くことを決意した。	たんとーしゃにくらしきをぶたいにすることをていあんされ、つぶせじしんもくらしきのふんいきがえがきたいさくふーにちかいとかんがえ、えがくことをけついした。	NO_LABEL
実在の土地、場所を舞台としているが、読者へマイナスイメージを抱かないように作者が気を付けており、あえて実在の風景とはちょっと違う部分を作ったりもしている。	じつざいのとち、ばしょをぶたいとしているが、どくしゃえまいなすいめーじをいだかないよーにさくしゃがきをつけており、あえてじつざいのふーけいとわちょっとちがうぶぶんをつくったりもしている。	NO_LABEL
また、企業や店の看板名は描かないように気を配っている。	また、きぎょーやみせのかんばんめいわえがかないよーにきをくばっている。	NO_LABEL
同時に、描かれる学校や制服についてはモデルがなく、いずれも架空のものである。	どーじに、えがかれるがっこーやせいふくについてわもでるがなく、いずれもかくーのものである。	NO_LABEL
2010年10月25日の単行本第1巻発売に合わせ、倉敷市と倉敷観光コンベンションビューロー、ワニブックスが合同で本作品とタイアップした観光PRキャンペーンを展開した。	にせんじゅうねんじゅーがつにじゅうごにちのたんこーぼんだいいちかんはつばいにあわせ、くらしきしとくらしきかんこーこんべんしょんびゅーろー、わにぶっくすがごーどーでほんさくひんとたいあっぷしたかんこーぴーあーるきゃんぺーんをてんかいした。	NO_LABEL
2012年現在も、単行本発売と合わせたキャンペーンが展開されている。	にせんじゅうにねんげんざいも、たんこーほんはつばいとあわせたきゃんぺーんがてんかいされている。	NO_LABEL
倉敷市の四季折々の風景をバックに、学生たちの何気ない日常生活を一話完結のオムニバス形式で描いている。	くらしきしのしきおりおりのふーけいをばっくに、がくせいたちのなにげないにちじょーせいかつをいちわかんけつのおむにばすけいしきでえがいている。	NO_LABEL
全話を通じて登場する人物はいないが、Chapter18と19では同一場面を女子高生視点、男子高生視点で別々に描くなど、一部で共通して登場する人物が出てくることはある。	NO_PRONOUNCE	NO_LABEL
会話はいずれも標準語であり、岡山弁ではないことに違和感を抱く人もいる。	かいわわいずれもひょーじゅんごであり、おかやまべんでわないことにいわかんをいだくひともいる。	NO_LABEL
ワニブックスが倉敷市に提案し、2010年10月25日の単行本第1巻発売に合わせ、倉敷市と倉敷観光コンベンションビューロー、ワニブックスが合同で観光PRキャンペーン「めくりめくる倉敷」を展開した。	NO_PRONOUNCE	NO_LABEL
市内の公共施設向けには、登場人物が美観地区をバックに描かれたものが、書店向けには単行本第1巻の表紙と同じくJR倉敷駅のホームをバックに描かれたものが、計約100枚製作され、掲示された。	しないのこーきょーしせつむけにわ、とーじょーじんぶつがびかんちくをばっくにえがかれたものが、しょてんむけにわたんこーほんだいいちかんのひょーしとおなじくじぇいあーるくらしきえきのほーむをばっくにえがかれたものが、けいやくひゃくまいせいさくされ、けいじされた。	NO_LABEL
また秋葉原や新宿のコミック専門店で、客に倉敷観光のチラシを配布した。	またあきはばらやしんじゅくのこみっくせんもんてんで、きゃくにくらしきかんこーのちらしをはいふした。	NO_LABEL
第1巻は市内の図書館6か所での貸し出しもされた。	NO_PRONOUNCE	NO_LABEL
ワニブックスが発行する『コミックガム』2010年12月号では、キャンペーンの模様が特集された。	NO_PRONOUNCE	NO_LABEL
自治体が観光・地域振興に漫画やアニメを活用した例はいくつもあるが、新人の漫画が採用されたのは珍しいと指摘されている。	NO_PRONOUNCE	NO_LABEL
2011年6月25日の第2巻発売でも引き続きキャンペーンが行われ、第2巻限定盤では作中に登場した観光スポットの解説や地図を収録したフルカラー小冊子が付いた。	にせんじゅういちねんろくがつにじゅうごにちのだいにかんはつばいでもひきつずききゃんぺーんがおこなわれ、だいにかんげんていばんでわさくちゅーにとーじょーしたかんこーすぽっとのかいせつやちずをしゅーろくしたふるからーしょーさっしがついた。	NO_LABEL
首都圏や関西圏、中四国地方の主要書店で、同様の地図を載せた「旅のしおり」約2万部を無料配布し、持参して倉敷市観光課か倉敷館でスタンプを押せば、描き下ろした美観地区と鷲羽山の2種類のクリアファイルのいずれかをプレゼントするキャンペーンが行われた。	NO_PRONOUNCE	NO_LABEL
第2巻発売のキャンペーンで、8月上旬までに北海道や東京、大阪、広島などから約50人が訪れたと、倉敷市の担当者は話している。	だいにかんはつばいのきゃんぺーんで、はちがつじょーじゅんまでにほっかいどーやとーきょー、おーさか、ひろしまなどからやくごじゅうにんがおとずれたと、くらしきしのたんとーしゃわはなしている。	NO_LABEL
2011年7月3日までパリで開催されたJapan Expoには主催者招待で出展し、本キャンペーンを紹介している。	にせんじゅういちねんしちがつみっかまでぱりでかいさいされたじゃぱんえきすぽにわしゅさいしゃしょーたいでしゅってんし、ほんきゃんぺーんをしょーかいしている。	NO_LABEL
同様のキャンペーンは、2012年3月24日の第3巻発売でも行われた。	どーよーのきゃんぺーんわ、にせんじゅうにねんさんがつにじゅうよっかのだいさんかんはつばいでもおこなわれた。	NO_LABEL
イオンは2011年7月20日より、電子マネーWAONのカードに、拓が美観地区をデザインした「めくりめくる倉敷WAON」の販売を西日本のイオングループ約50店舗で始めた。	NO_PRONOUNCE	NO_LABEL
イオンが倉敷市と締結した「地域貢献包括提携協定」の一環であり、利用者が同カードで買い物した金額の0.1％が市の「倉敷ふるさと応援基金」に寄付される。	NO_PRONOUNCE	NO_LABEL
2011年8月12日から東京国際展示場で開かれたコミックマーケット80では、倉敷市がワニブックスと共同でブース「月刊コミックガム　岡山県倉敷市観光課　共同出展」を設け、本作品とタイアップした観光PRや限定グッズの販売を行った。	NO_PRONOUNCE	NO_LABEL
コミックマーケットへ自治体が正式に参加したのは、初めてである。	こみっくまーけっとえじちたいがせいしきにさんかしたのわ、はじめてである。	NO_LABEL
2012年8月、めくりめくる倉敷観光イメージソング「目にはさやかにみえねども」が、プロモーションビデオとともに公開された。	NO_PRONOUNCE	NO_LABEL
元々は第4巻初回限定盤に付けられる予定のイメージソングの歌詞を変え、公開された。	もともとわだいよんかんしょかいげんていばんにつけられるよていのいめーじそんぐのかしをかえ、こーかいされた。	NO_LABEL
