蕭子珉は、南朝斉の皇族。	NO_PRONOUNCE	NO_LABEL
永陽王。	はるひおー。	NO_LABEL
字は雲璵。	NO_PRONOUNCE	NO_LABEL
武帝蕭賾の二十男。	NO_PRONOUNCE	NO_LABEL
蕭賾と顔婕妤のあいだの子として生まれた。	NO_PRONOUNCE	NO_LABEL
489年3月、義安王に封じられた。	よんひゃくはちじゅうきゅうねんさんがつ、ぎあんおーにふーじられた。	NO_LABEL
後に永陽王に改封された。	のちにはるひおーにあらためふーされた。	NO_LABEL
建武年間に衡陽元王蕭道度の後を嗣いだ。	NO_PRONOUNCE	NO_LABEL
498年1月、明帝の命により殺害された。	よんひゃくきゅうじゅうはちねんいちがつ、めいていのいのちによりさつがいされた。	NO_LABEL
