『熟れた本能』は、2009年8月12日にフランスより公開された成人向けドラマ映画。	NO_PRONOUNCE	NO_LABEL
主演クリスティン・スコット・トーマスは2009年のセザール賞主演女優賞にノミネートされた。	しゅえんくりすてぃんすこっととーますわにせんきゅうねんのせざーるしょーしゅえんじょゆーしょーにのみねーとされた。	NO_LABEL
日本では劇場未公開。	にっぽんでわげきじょーみこーかい。	NO_LABEL
2011年1月7日にアットよりDVDが発売されている。	にせんじゅういちねんいちがつなのかにあっとよりでぃーぶいでぃーがはつばいされている。	NO_LABEL
また、2012年7月14日にIMAGICA BSより日本語字幕版が深夜放送された。	また、にせんじゅうにねんしちがつじゅうよっかにいまじかびーえすよりにほんごじまくばんがしんやほーそーされた。	NO_LABEL
