ヴェルヴィオ。	NO_PRONOUNCE	NO_LABEL
ソンドリオ県東部のコムーネ。	そんどりおけんとーぶのこむーね。	NO_LABEL
ティラーノから北東へ7km、ボルミオから南南西へ26km、県都ソンドリオから東北東へ30km、州都ミラノから北東へ120kmの距離にある。	てぃらーのからほくとーえななきろめーとる、ぼるみおからなんなんせいえにじゅうろくきろめーとる、けんとそんどりおからとーほくとーえさんじゅうきろめーとる、しゅーとみらのからほくとーえひゃくにじゅうきろめーとるのきょりにある。	NO_LABEL
隣接するコムーネは以下の通り。	りんせつするこむーねわいかのとーり。	NO_LABEL
CH-GRはスイス・グラウビュンデン州所属を示す。	NO_PRONOUNCE	NO_LABEL
