教派 (きょうは）	NO_PRONOUNCE	NO_LABEL
用語宗派とほぼ同義だが、宗派が主に仏教用語であるのに対し、教派は主として神道およびキリスト教の用語である。	よーごしゅーはとほぼどーぎだが、しゅーはがおもにぶっきょーよーごであるのにたいし、きょーはわしゅとしてしんとーおよびきりすときょーのよーごである。	NO_LABEL
それ以外の宗教に関しては両方の用語が任意に用いられる傾向があるが、仏教とキリスト教に関しては互いに他方の用語を用いる事は過誤と見なされるほど、用語法が定着している。	それいがいのしゅーきょーにかんしてわりょーほーのよーごがにんいにもちいられるけいこーがあるが、ぶっきょーときりすときょーにかんしてわたがいにたほーのよーごをもちいることわかごとみなされるほど、よーごほーがていちゃくしている。	NO_LABEL
教会、教派、分派の区別は学者や国によって異なり、他の宗教や世では、教派とは同一宗教内の分派を指す言葉でもある。	きょーかい、きょーは、ぶんぱのくべつわがくしゃやくにによってことなり、たのしゅーきょーやよでわ、きょーはとわどーいちしゅーきょーないのぶんぱをさすことばでもある。	NO_LABEL
日本のキリスト教界では日本語語彙「教派」「分派」「宗派」にキリスト教の歴史、神学を反映した語義を与えている。	NO_PRONOUNCE	NO_LABEL
各国の語彙については各国語版を参照のこと。	かっこくのごいについてわかっこくごばんをさんしょーのこと。	NO_LABEL
「教派」の語は、特に相互聖餐の成立するプロテスタントの中で使われてきた言葉である。	NO_PRONOUNCE	NO_LABEL
福音派の指導者尾山令仁は、同じ正典を用いる人々の分派を教派とし、違う正典を用いる分派を宗派として、区別している。	ふくいんはのしどーしゃおやまれいじわ、おなじせいてんをもちいるひとびとのぶんぱをきょーはとし、ちがうせいてんをもちいるぶんぱをしゅーはとして、くべつしている。	NO_LABEL
ただし、日本における最初のプロテスタント教会である日本基督公会が、教派を指して「宗派に属せず」と宣言している文が、戦後の文献では教派と説明されるなど、訳語確定前の用語上の区別は明確ではなかった。	NO_PRONOUNCE	NO_LABEL
