ベン・ベンティルは、ガーナ・ウェスタン州セコンディ・タコラディ出身のバスケットボール選手。	NO_PRONOUNCE	NO_LABEL
ポジションはパワーフォワード。	ぽじしょんわぱわーふぉわーど。	NO_LABEL
15歳の時に、NBA選手を目指す為に渡米。	じゅうごさいのときに、えぬびーえーせんしゅをめざすためにとべい。	NO_LABEL
デラウェア州ミドルタウンのセント・アンドリュース高校に留学し、バスケットボール部とサッカー部に所属した。	でらうぇあしゅーみどるたうんのせんとあんどりゅーすこーこーにりゅーがくし、ばすけっとぼーるぶとさっかーぶにしょぞくした。	NO_LABEL
大学はプロビデンス大学に進学。	だいがくわぷろびでんすだいがくにしんがく。	NO_LABEL
1年生時の2014-15シーズンから早速レギュラーて起用され、34試合中23試合でスタメンで出場。	NO_PRONOUNCE	NO_LABEL
平均6.4得点 4.9リバウンドの成績を記録。	NO_PRONOUNCE	NO_LABEL
2年目の2015-16シーズンは、クリス・ダンとのコンビで更に数字を伸ばし、NCAAトーナメントでも活躍。	NO_PRONOUNCE	NO_LABEL
ビッグ・イースト・カンファレンスの1stチームと "最も成長した選手" に贈られるMIP賞を受賞した。	NO_PRONOUNCE	NO_LABEL
ベンティルは2年生を終えた時点で2016年のNBAドラフトにアーリーエントリーを表明。	べんてぃるわにねんせいをおえたじてんでにせんじゅうろくねんのえぬびーえーどらふとにあーりーえんとりーをひょーめい。	NO_LABEL
51位でボストン・セルティックスから指名され、7月27日に3年契約を結んだものの、プレーシーズンマッチで結果を残せず、シーズン開幕前の10月21日に解雇。	ごじゅういちーでぼすとんせるてぃっくすからしめいされ、しちがつにじゅうしちにちにさんねんけいやくをむすんだものの、ぷれーしーずんまっちでけっかをのこせず、しーずんかいまくまえのじゅーがつにじゅういちにちにかいこ。	NO_LABEL
24日にインディアナ・ペイサーズと契約し、即解雇後傘下のDリーグチームにあたるフォートウェイン・マッドアンツに送られた。	NO_PRONOUNCE	NO_LABEL
その後11月26日にCBAの新疆フライングタイガースと契約。	そのごじゅーいちがつにじゅうろくにちにしーびーえーのしんきょーふらいんぐたいがーすとけいやく。	NO_LABEL
2017年2月24日にダラス・マーベリックスと10日間契約を結んだ。	にせんじゅうななねんにがつにじゅうよっかにだらすまーべりっくすととおかかんけいやくをむすんだ。	NO_LABEL
