小川 卓也は、元米国政府上席商務官。	おがわたくやわ、もとべいこくせいふじょーせきしょーむかん。	NO_LABEL
東京生まれ。	とーきょーうまれ。	NO_LABEL
慶應義塾大学大学院卒業、カリフォルニア大学大学院留学、ハーバード大学行政大学院・危機管理課程修了、名誉経営学博士。	NO_PRONOUNCE	NO_LABEL
現在、日米経済戦略研究所・理事長。	NO_PRONOUNCE	NO_LABEL
駐日アメリカ合衆国大使館・アメリカ合衆国商務省の商務官として日米貿易促進、ハイテク産業の通商政策に携わり、モンデール駐日アメリカ合衆国大使、フォーリー大使より表彰を受ける。	NO_PRONOUNCE	NO_LABEL
退官後、参議院議員選挙に保守系で立候補。	たいかんご、さんぎーんぎーんせんきょにほしゅけいでりっこーほ。	NO_LABEL
自民党中央政治大学院修了。	じみんとーちゅーおーせいじだいがくいんしゅーりょー。	NO_LABEL
