はらたいらと世界のオルゴールの館とは、かつて高知県南国市にあった博物館である。	はらたいらとせかいのおるごーるのかんとわ、かつてこーちけんなんこくしにあったはくぶつかんである。	NO_LABEL
総額3億5000万円をかけて土佐電鉄ごめん町駅構内に1993年4月30日にオープン。	そーがくさんおくごせんまんえんをかけてとさでんてつごめんまちえきこーないにせんきゅうひゃくきゅうじゅうさんねんしがつさんじゅうにちにおーぷん。	NO_LABEL
2階の展示室には、同社が「世界の電車計画」に合わせて集めた19〜20世紀の欧米アンティークオルゴールと高知県出身の漫画家はらたいらの作品を展示。	NO_PRONOUNCE	NO_LABEL
1階ではオルゴールや電車グッズなどを販売した。	いっかいでわおるごーるやでんしゃぐっずなどをはんばいした。	NO_LABEL
オルゴール作りの体験コーナーもあった。	おるごーるずくりのたいけんこーなーもあった。	NO_LABEL
オープン当初は年間10万人が訪れたが、年々客足は減少し、ごめん・なはり線開業後も入館者はあまり伸びず、2004年12月30日で閉館。	おーぷんとーしょわねんかんじゅうまんにんがおとずれたが、ねんねんきゃくあしわげんしょーし、ごめんなはりせんかいぎょーごもにゅーかんしゃわあまりのびず、にせんよねんじゅーにがつさんじゅうにちでへいかん。	NO_LABEL
建物は取り壊され、跡地はパークアンドライド用の駐車場となっている。	たてものわとりこわされ、あとちわぱーくあんどらいどよーのちゅーしゃじょーとなっている。	NO_LABEL
