有限会社トラベル派遣は、沖縄県石垣市に本社を置き、かつて与那国島及び波照間島で一般乗合及び一般貸切旅客自動車運送事業を行っていたバス事業者である。	ゆーげんがいしゃとらべるはけんわ、おきなわけんいしがきしにほんしゃをおき、かつてよなぐにじまおよびはてるまじまでいっぱんのりあいおよびいっぱんかしきりりょかくじどーしゃうんそーじぎょーをおこなっていたばすじぎょーしゃである。	NO_LABEL
2011年頃まで与那国島で一般乗合及び一般貸切旅客自動車運送事業を、また、2015年頃まで波照間島で一般貸切旅客自動車運送事業を営んでいた。	にせんじゅういちねんごろまでよなぐにじまでいっぱんのりあいおよびいっぱんかしきりりょかくじどーしゃうんそーじぎょーを、また、にせんじゅうごねんごろまではてるまじまでいっぱんかしきりりょかくじどーしゃうんそーじぎょーをいとなんでいた。	NO_LABEL
社団法人日本バス協会の会員ではなかった。	しゃだんほーじんにほんばすきょーかいのかいいんでわなかった。	NO_LABEL
コースは以下の通り。	こーすわいかのとーり。	NO_LABEL
コースは以下の通り。	こーすわいかのとーり。	NO_LABEL
