青森県防災航空隊は、青森県の消防防災ヘリコプターを運用している組織。	あおもりけんぼーさいこーくーたいわ、あおもりけんのしょーぼーぼーさいへりこぷたーをうんよーしているそしき。	NO_LABEL
青森県庁の機関であり、隊員は県内各消防本部より派遣された人員で編成されている。	あおもりけんちょーのきかんであり、たいいんわけんないかくしょーぼーほんぶよりはけんされたじんいんでへんせいされている。	NO_LABEL
任務として、救急・救助・消防活動やその他の行政活動を行なっている。	NO_PRONOUNCE	NO_LABEL
運航管理は中日本航空に委託を行なっている。	うんこーかんりわなかにほんこーくーにいたくをおこなっている。	NO_LABEL
