南国市立白木谷小学校は、高知県南国市にある公立小学校。	なんこくしりつしらきだにしょうがっこーわ、こーちけんなんこくしにあるこーりつしょーがっこー。	NO_LABEL
高知県のほぼ中央に位置し、高知市との接点に当たる自然豊かな南国市の学校である。	こーちけんのほぼちゅーおーにいちし、こーちしとのせってんにあたるしぜんゆたかななんこくしのがっこーである。	NO_LABEL
2002年には新校舎が完成した。	にせんにねんにわしんこーしゃがかんせいした。	NO_LABEL
生徒数は12名	NO_PRONOUNCE	NO_LABEL
高知県南国市白木谷761番地	NO_PRONOUNCE	NO_LABEL
