自由ケ丘は、鹿児島県鹿児島市の町名。	じゆーがおかわ、かごしまけんかごしましのちょーめい。	NO_LABEL
自由ケ丘一丁目及び自由ケ丘二丁目があり、全域で住居表示を実施している。	じゆーがおかいっちょーめおよびじゆーがおかにちょーめがあり、ぜんいきでじゅーきょひょーじをじっししている。	NO_LABEL
郵便番号は891-0106。	NO_PRONOUNCE	NO_LABEL
人口は2,636人、世帯数は1,076世帯。	NO_PRONOUNCE	NO_LABEL
鹿児島市南部に所在している。	かごしましなんぶにしょざいしている。	NO_LABEL
全域が自由ケ丘団地として台地上に開発された新興住宅地である。	ぜんいきがじゆーがおかだんちとしてだいちじょーにかいはつされたしんこーじゅーたくちである。	NO_LABEL
町域の北方に中山、南方に清和、東方に東谷山、西方に中山町が接している。	ちょういきのほっぽーになかやま、なんぽーにせいわ、とーほーにひがしたにやま、せいほーになかやまちょーがせっしている。	NO_LABEL
町域全体が自由ケ丘団地として建設されたものであり、付近には中山バイパスがあり、ロードサイド店などが充実している。	ちょういきぜんたいがじゆーがおかだんちとしてけんせつされたものであり、ふきんにわなかやまばいぱすがあり、ろーどさいどてんなどがじゅーじつしている。	NO_LABEL
南方には谷山市街地がある。	なんぽーにわたにやましがいちがある。	NO_LABEL
最寄りの鉄道駅は指宿枕崎線の谷山駅と鹿児島市電谷山線の谷山電停である。	もよりのてつどーえきわいぶすきまくらざきせんのたにやまえきとかごしましでんたにやませんのややまでんていである。	NO_LABEL
自由ケ丘一帯は山地と低湿地であり、地内にある牟田池は永田川の川跡であったとされ、周辺が低湿地となっていた。	じゆーがおかいったいわさんちとていしつちであり、じうちにあるむたちわながたがわのかわあとであったとされ、しゅーへんがていしつちとなっていた。	NO_LABEL
1968年より自由ケ丘団地として造成が開始された。	せんきゅうひゃくろくじゅうはちねんよりじゆーがおかだんちとしてぞーせいがかいしされた。	NO_LABEL
1990年に中山町と上福元町の各一部より分割され自由ケ丘一丁目から自由ケ丘二丁目が成立した。	せんきゅうひゃくきゅうじゅうねんにちゅーざんちょーとかみふくもとちょーのかくいちぶよりぶんかつされじゆーがおかいっちょーめからじゆーがおかにちょーめがせいりつした。	NO_LABEL
2001年には自由ケ丘一丁目に上福元町の一部が編入された。	にせんいちねんにわじゆーがおかいっちょーめにかみふくもとちょーのいちぶがへんにゅーされた。	NO_LABEL
市立小・中学校に通う場合、学区は以下の通りとなる。	しりつしょーちゅーがっこーにかようばあい、がっくわいかのとーりとなる。	NO_LABEL
