杉村 陽子は、日本のレースクイーン、女性モデル、タレントである。	すぎむらよーこわ、にっぽんのれーすくいーん、じょせいもでる、たれんとである。	NO_LABEL
1974年、長野県生まれ。	せんきゅうひゃくななじゅうよねん、ながのけんうまれ。	NO_LABEL
特技は百人一首、趣味は乗馬、オフロードバイク、インターネットなど。	とくぎわひゃくにんいっしゅ、しゅみわじょーば、おふろーどばいく、いんたーねっとなど。	NO_LABEL
1997年、『KURE RACING with NISMO』のレースクイーンとしてデビューした。	NO_PRONOUNCE	NO_LABEL
同チームでは鈴木史華とともに活動し、人気を得ていた。	どーちーむでわすずきふみかとともにかつどーし、にんきをえていた。	NO_LABEL
同年秋からは、テレビのバラエティー番組 『ワンダフル』における「ワンダフルガールズ」のひとりとなり、翌年1月まで同番組にレギュラー出演した。	NO_PRONOUNCE	NO_LABEL
レースクイーンとしては、ほかに『レーシング・プロジェクト・バンドウ』など多数務めたが、2006年11月、デビュー10年を機として、すべての芸能活動から身を引き結婚をして引退した。	NO_PRONOUNCE	NO_LABEL
同年8月に発売された写真集 『One More』は、「メモリアル」としてラスト写真集であることを銘打っていた。	NO_PRONOUNCE	NO_LABEL
杉村は、自分のチャームポイントを脚と笑顔であるとしていた。	すぎむらわ、じぶんのちゃーむぽいんとをあしとえがおであるとしていた。	NO_LABEL
所属事務所は有限会社プリンセス。	しょぞくじむしょわゆーげんがいしゃぷりんせす。	NO_LABEL
