塩出 浩之は、日本の歴史学者、京都大学大学院文学研究科准教授。	しおでひろゆきわ、にっぽんのれきしがくしゃ、きょーとだいがくだいがくいんぶんがくけんきゅーかじゅんきょーじゅ。	NO_LABEL
専門は日本近代史・政治史。	NO_PRONOUNCE	NO_LABEL
広島県生まれ。	ひろしまけんうまれ。	NO_LABEL
筑波大学附属駒場高等学校卒、1997年東京大学教養学部卒。	つくばだいがくふぞくこまばこうとそつ、せんきゅうひゃくきゅうじゅうななとーきょーだいがくきょーよーがくぶそつ。	NO_LABEL
2004年同大学院総合文化研究科博士課程修了、「近代日本の移植民と政治的統合」で博士。	NO_PRONOUNCE	NO_LABEL
2006年琉球大学法文学部専任講師、2007年准教授、2016年教授を経て2018年4月より現職。	にせんろくねんりゅーきゅーだいがくほーぶんがくぶせんにんこーし、にせんななねんじゅんきょーじゅ、にせんじゅうろくねんきょーじゅをへてにせんじゅうはちねんしがつよりげんしょく。	NO_LABEL
2016年『越境者の政治史』で毎日出版文化賞、角川源義賞、サントリー学芸賞受賞。	NO_PRONOUNCE	NO_LABEL
