上坂 高生12月20日 - 2012年11月4日）は、日本の作家、小学校教師。	NO_PRONOUNCE	NO_LABEL
兵庫県生まれ。	ひょーごけんうまれ。	NO_LABEL
兵庫師範学校卒業。	ひょーごしはんがっこーそつぎょー。	NO_LABEL
早稲田大学中退。	わせだだいがくちゅーたい。	NO_LABEL
1955年、「みち潮」で第1回小説新潮賞受賞。	NO_PRONOUNCE	NO_LABEL
同人誌『碑』を主宰。	NO_PRONOUNCE	NO_LABEL
おもに横浜が舞台の作品を多く発表し、2001年には第7回横浜文学賞を受賞した。	おもによこはまがぶたいのさくひんをおーくはっぴょーし、にせんいちねんにわだいななかいよこはまぶんがくしょーをじゅしょーした。	NO_LABEL
2012年11月4日、老衰のため死去。	にせんじゅうにねんじゅーいちがつよっか、ろーすいのためしきょ。	NO_LABEL
85歳没。	はちじゅうごさいぼつ。	NO_LABEL
