サミュエル・フランシスは、カタールの男子陸上競技選手。	さみゅえるふらんしすわ、かたーるのだんしりくじょーきょーぎせんしゅ。	NO_LABEL
専門は短距離走。	せんもんわたんきょりそー。	NO_LABEL
ナイジェリア出身。	ないじぇりあしゅっしん。	NO_LABEL
100メートル競走の元保持者。	ひゃくめーとるきょうそーのもとほじしゃ。	NO_LABEL
2007年アジア陸上競技選手権大会の100メートル競走において、アジア選手として初となる9秒台の9秒99を記録して金メダルを獲得した。	NO_PRONOUNCE	NO_LABEL
アジア選手における100メートル競走の記録更新は、1998年アジア競技大会で伊東浩司が10秒00を記録して以来となった。	NO_PRONOUNCE	NO_LABEL
記録欄の内の数字は風速で、+は追い風を意味する。	NO_PRONOUNCE	NO_LABEL
備考欄の記録は当時のもの	びこーらんのきろくわとーじのもの	NO_LABEL
