晧台寺は、長崎県長崎市にある仏教寺院。	こうたいじわ、ながさきけんながさきしにあるぶっきょーじいん。	NO_LABEL
正式には海雲山普昭晧台禅寺という。	せいしきにわうみくもやまひろしあきらあきらだいぜんてらという。	NO_LABEL
長崎三大寺の一つで、長崎市内外に末寺が14ヶ寺ある。	NO_PRONOUNCE	NO_LABEL
1608年、肥前国松浦郡山口村の洪徳寺住持亀翁良鶴により笠頭山洪泰寺として風頭山麓に創建されたのを始まりとする。	せんろっぴゃくはちねん、ひぜんのくにまつらぐんやまぐちのこうとくじじゅーじかめおうりょーつるによりりゅーとーやまひろしたいてらとしてかざがしらさんろくにそーけんされたのをはじまりとする。	NO_LABEL
1615年に佐賀の玉林寺住持の一庭融頓が当寺住持を兼ね、1619年より玉林寺の末寺となる。	せんろっぴゃくじゅうごねんにさがのぎょくりんじじゅーじのいちにわとーるとみがとーてらじゅーじをかね、せんろっぴゃくじゅうきゅうねんよりぎょくりんじのまつじとなる。	NO_LABEL
1626年に現在地に移った。	せんろっぴゃくにじゅうろくねんにげんざいちにうつった。	NO_LABEL
1642年には一庭が将軍徳川家光、さらに明正天皇への拝謁を許され、この時に天皇より現在の山号寺号を下賜された。	せんろっぴゃくよんじゅうにねんにわいちにわがしょーぐんとくがわいえみつ、さらにめいしょうてんのーえのはいえつをゆるされ、このときにてんのーよりげんざいのさんごーじごーをかしされた。	NO_LABEL
境内には歴代長崎奉行で在任中に長崎で没した者のうち4名を始め、唐通事の林家・宮梅家、長崎町年寄の高木家・薬師寺家の代々、シーボルトの娘楠本イネの墓がある。	NO_PRONOUNCE	NO_LABEL
修行道場として僧堂を設置している。	しゅぎょーどーじょーとしてそーどーをせっちしている。	NO_LABEL
