長原 幸太はヴァイオリニスト。	NO_PRONOUNCE	NO_LABEL
広島県呉市に生まれる。	ひろしまけんくれしにうまれる。	NO_LABEL
村上直子、小栗まち絵、工藤千博、澤和樹、ロバート・マンに師事。	むらかみなおこ、おぐりまちえ、くどーちひろ、さわかずき、ろばーとまんにしじ。	NO_LABEL
五嶋みどりのレッスンを受けたこともある。	ごとうみどりのれっすんをうけたこともある。	NO_LABEL
安田小学校、広島学院中学校を経て、1999年、東京芸術大学音楽学部附属音楽高等学校卒業、2005年、東京芸術大学卒業。	やすだしょうがっこー、ひろしまがくいんちゅうがっこーをへて、せんきゅうひゃくきゅうじゅうきゅうねん、とーきょーげいじゅつだいがくおんがくがくぶふぞくおんがくこうとーそつぎょー、にせんごねん、とーきょーげいじゅつだいがくそつぎょー。	NO_LABEL
その間にジュリアード音楽院に留学するも、退学勧告を受け帰国。	そのかんにじゅりあーどおんがくいんにりゅーがくするも、たいがくかんこくをうけきこく。	NO_LABEL
サイトウ・キネン・オーケストラにも参加。	さいとうきねんおーけすとらにもさんか。	NO_LABEL
2004年9月より大阪フィルハーモニー交響楽団首席客演コンサートマスター、2006年4月より首席コンサートマスター。	にせんよねんくがつよりおーさかふぃるはーもにーこーきょーがくだんしゅせききゃくえんこんさーとますたー、にせんろくねんしがつよりしゅせきこんさーとますたー。	NO_LABEL
入団時同楽団の最年少のプレイヤー。	にゅーだんじどーがくだんのさいねんしょーのぷれいやー。	NO_LABEL
小柄な身体から繰り出すエキサイティングな演奏と茶目っ気のあるステージパフォーマンスを身上に楽団を引っぱる存在である。	こがらなしんたいからくりだすえきさいてぃんぐなえんそーとちゃめっけのあるすてーじぱふぉーまんすをしんじょーにがくだんをひっぱるそんざいである。	NO_LABEL
同楽団音楽監督の大植英次は、必ず世界に出てゆく人材、と評している。	どーがくだんおんがくかんとくのおーうええいじわ、かならずせかいにでてゆくじんざい、とひょーしている。	NO_LABEL
ジャズのライブハウスで演奏会を行なったり、ドラマ「のだめカンタービレ」関連やアニメ関連のCDに録音するなどの活動も行い「のだめオーケストラ」ではコンサートマスターを務めた。	NO_PRONOUNCE	NO_LABEL
またチャリティーコンサートに積極的に関与することでも知られる。	またちゃりてぃーこんさーとにせっきょくてきにかんよすることでもしられる。	NO_LABEL
2012年3月、6年にわたって首席コンサートマスターを務めた大阪フィルハーモニー交響楽団を退団。	にせんじゅうにねんさんがつ、ろくねんにわたってしゅせきこんさーとますたーをつとめたおーさかふぃるはーもにーこーきょーがくだんをたいだん。	NO_LABEL
2014年10月1日付で、読売日本交響楽団コンサートマスターに就任。	にせんじゅうよねんじゅーがつついたちずけで、よみうりにっぽんこーきょーがくだこんさーとますたーにしゅーにん。	NO_LABEL
使用楽器はドン・ニコロ・アマティ。	NO_PRONOUNCE	NO_LABEL
ほか	ほか	NO_LABEL
