『上海グランド』は、1996年の香港映画。	NO_PRONOUNCE	NO_LABEL
1980年にチョウ・ユンファが主演し出世作となった、1920年代の上海租界を舞台とした香港の連続テレビドラマ『上海灘』を、1996年にレスリー・チャン、アンディ・ラウ主演でリメイクした作品。	NO_PRONOUNCE	NO_LABEL
2008年には中国においてホァン・シャオミン主演で再び連続テレビドラマ『新・上海グランド』としてリメイクされた。	NO_PRONOUNCE	NO_LABEL
ここではオリジナル作品である1980年の『上海灘』と、2008年のリメイク作品『新・上海グランド』についても説明する。	NO_PRONOUNCE	NO_LABEL
1980年3月10日から香港のテレビ局TVBで、チョウ・ユンファ主演の一編45分全25話が放送された。	せんきゅうひゃくはちじゅうねんさんがつとおかからほんこんのてれびきょくてぃーびーびーで、ちょうゆんふぁしゅえんのいちへんよんじゅうごふんぜんにじゅうごわがほーそーされた。	NO_LABEL
英語版でのタイトルは「The Bund」。	NO_PRONOUNCE	NO_LABEL
香港ノワールの先駆けとして大変人気を博し、その後続編やパロディ等が相次いで作られることとなった。	ほんこんのわーるのさきがけとしてたいへんにんきをはくし、そのごぞくへんやぱろでぃとーがあいついでつくられることとなった。	NO_LABEL
特に、許文強が殺害されるシーン、馮程程と丁力の結婚式のシーンなどが特によくパロディになるほどであった。	NO_PRONOUNCE	NO_LABEL
黃霑作詞、顧嘉煇作曲で、葉麗儀の歌う主題歌も香港ポップスの大ヒットとなり、1980年の香港10大ヒットのひとつに選ばれた。	NO_PRONOUNCE	NO_LABEL
原題は『新上海灘』。	NO_PRONOUNCE	NO_LABEL
2007年1月から中国本土で放映され、すべての放送局で異例の高視聴率を記録した。	にせんななねんいちがつからちゅーごくほんどでほーえいされ、すべてのほーそーきょくでいれいのこーしちょーりつをきろくした。	NO_LABEL
日本では、テレビ東京系列で放送された。	にっぽんでわ、てれびとーきょーけいれつでほーそーされた。	NO_LABEL
作中、登場人物が和服を着用しているシーンが多いが、正しい着付はほとんどできておらず、女性用着物の襟をあらかじめ折らないまま着用していたり、襦袢と着物をあらかじめ重ねあわせた状態で着用し帯を締めていたり、甚だしいものでは合わせが逆になっていたりする。	さくちゅー、とーじょーじんぶつがわふくをちゃくよーしているしーんがおーいが、ただしいきつけわほとんどできておらず、じょせいよーきもののえりをあらかじめおらないままちゃくよーしていたり、じばんときものをあらかじめかさねあわせたじょーたいでちゃくよーしたいをしめていたり、はなはだしいものでわあわせがぎゃくになっていたりする。	NO_LABEL
2010年にはTOKYO MXのTHE KAROKU THEATER枠で放送された。	NO_PRONOUNCE	NO_LABEL
（）内は日本語吹替え。	かっこないわにほんごふきかえ。	NO_LABEL
キャッチコピーは愛か憎しみか聞かないでくれ。	きゃっちこぴーわうかにくしみかきかないでくれ。	NO_LABEL
——ここでしか、見られない夢がある——。	NO_PRONOUNCE	NO_LABEL
香港映画祭でアクション部門など全4部門にノミネートされた。	ほんこんえいがさいであくしょんぶもんなどぜんよんぶもんにのみねーとされた。	NO_LABEL
俳優の横のカッコ内はDVD日本語吹替キャスト。	はいゆーのよこのかっこないわでぃーぶいでぃーにほんごふきかえきゃすと。	NO_LABEL
