ニューエラボウルは関西学生アメリカンフットボール連盟主催のアメリカンフットボールのボウルゲームである。	にゅーえらぼうるわかんさいがくせいあめりかんふっとぼーるれんめいしゅさいのあめりかんふっとぼーるのぼーるげーむである。	NO_LABEL
関西学生アメリカンフットボール連盟所属各校の選抜選手・コーチと全米大学体育協会加盟大学からの招待選手・コーチがBLUE STARSとWHITE STARSに分かれて戦うオールスター形式のゲームである。	NO_PRONOUNCE	NO_LABEL
例年、春季の締めくくりの試合として7月初旬に開催される。	れいねん、しゅんきのしめくくりのしあいとしてしちがつしょじゅんにかいさいされる。	NO_LABEL
　　	NO_PRONOUNCE	NO_LABEL
元々は1990年から阪急西宮スタジアムを舞台に行われた「シャープカップ・平成ボウル」という大会で7月に行われた。	NO_PRONOUNCE	NO_LABEL
関東と関西の大学の代表チームがアメリカ合衆国の全米大学体育協会加盟の大学と連合チームを結成しての対戦で春季締めくくりのゲームとして位置づけられた。	かんとーとかんさいのだいがくのだいひょーちーむがあめりかがっしゅーこくのぜんべいだいがくたいーくきょーかいかめいのだいがくとれんごーちーむをけっせいしてのたいせんでしゅんきしめくくりのげーむとしていちずけられた。	NO_LABEL
出場校にとってはアメリカ人選手とのプレーだけでなく、本場のコーチの指導を直接受けられることが最大の利点であったが、関東のチームの招待は第2回大会までで終わり、第3回大会からは前年度の関西学生リーグDiv.1の上位2校に全米大学体育協会からの招待大学がそれぞれ連合して戦う形式が定着していた。	NO_PRONOUNCE	NO_LABEL
来日する招待選手には前年度で現役を引退した者が多いが、これは現役選手のプレシーズン期間中の試合出場に非常に厳しいNCAAの規定への対応と日本の選手との力量差等への考慮によるものである。	らいにちするしょーたいせんしゅにわぜんねんどでげんえきをいんたいしたものがおーいが、これわげんえきせんしゅのぷれしーずんきかんちゅーのしあいしゅつじょーにひじょーにきびしいえぬしーえーえーのきていえのたいおーとにっぽんのせんしゅとのりきりょーさとーえのこーりょによるものである。	NO_LABEL
2002年にスポンサーの撤退を機に「新時代」を意味する現在の名称に変え、併せて対戦形式を変更した。	NO_PRONOUNCE	NO_LABEL
平成ボウルで来日する全米大学体育協会のコーチ・選手との交流は、出場校のレベルアップに繋がったとの評価が関西学生リーグ内にある一方で、リーグ戦下位校には出場機会が巡らない事により上位校との格差を広げる一因になりかねないとする懸念もあり、この解消策として、NEW ERA BOWLでは2校だけでなくリーグ加盟校全体に門戸を開放する形となった。	NO_PRONOUNCE	NO_LABEL
単にオールスターゲームの実施のみが目的ではなく、フットボール・クリニック等を通じた国際交流の場としてのプログラムの充実も図られている。	NO_PRONOUNCE	NO_LABEL
また、選手だけでなく、子供たちがアメリカン・フットボールに接する機会を増やすため、通常はチームスタッフが行うウォーター・キャリーを公募した子供たちに担当させる等の企画も行われている。	NO_PRONOUNCE	NO_LABEL
2003年からは試合会場を長居球技場として開催していたが、2007年の第6回大会は京セラドーム大阪に移して開催された。	にせんさんねんからわしあいかいじょーをながいきゅーぎじょーとしてかいさいしていたが、にせんななねんのだいろっかいたいかいわきょーせらどーむおーさかにうつしてかいさいされた。	NO_LABEL
テレビ放送に関しては、毎日放送の関西ローカルにて深夜で放送され、GAORAでも放送されている。	てれびほうそーにかんしてわ、まいにちほーそーのかんさいろーかるにてしんやでほーそーされ、がおらでもほーそーされている。	NO_LABEL
※日本の出場大学名は共にDivision 1所属校のみ表記	NO_PRONOUNCE	NO_LABEL
 第1回WHITE STARS 23-14 BLUE STARS 阪急西宮スタジアム　	NO_PRONOUNCE	NO_LABEL
会場はいずれも阪急西宮スタジアム。	かいじょーわいずれもはんきゅーにしのみやすたじあむ。	NO_LABEL
アメリカ合衆国の大学名の表記は当時の資料による。	あめりかがっしゅーこくのだいがくめいのひょーきわとーじのしりょーによる。	NO_LABEL
