大竹 仁は、北海道稚内市出身の元プロ野球選手。	おーたけひとしわ、ほっかいどーわっかないししゅっしんのもとぷろやきゅーせんしゅ。	NO_LABEL
左投左打	ひだりなげひだりうち	NO_LABEL
稚内高から東洋高圧砂川。	わっかないだかからとーよーこーあつすながわ。	NO_LABEL
東洋高圧砂川では都市対抗野球大会にも出場した。	とーよーこーあつすながわでわとしたいこーやきゅーたいかいにもしゅつじょーした。	NO_LABEL
1956年毎日オリオンズに入団し、1959年に引退。	せんきゅうひゃくごじゅうろくねんまいにちおりおんずににゅーだんし、せんきゅうひゃくごじゅうきゅうねんにいんたい。	NO_LABEL
