『Webミステリーズ!』は、東京創元社が運営する文芸系ウェブマガジンの名称である。	NO_PRONOUNCE	NO_LABEL
ミステリ、SFに関する記事・小説を中心に掲載している。	NO_PRONOUNCE	NO_LABEL
月刊で、更新は毎月5日ごろである。	げっかんで、こーしんわまいつきいつかごろである。	NO_LABEL
この名称は、同社で隔月刊行されているミステリ雑誌『ミステリーズ!』とそろえたもの。	NO_PRONOUNCE	NO_LABEL
これまで内容的な関連はほとんどなかったが、近年は少しずつ、『ミステリーズ!』に載った記事が時期遅れで掲載されることも増えている。	NO_PRONOUNCE	NO_LABEL
2006年3月8日創刊。	にせんろくねんさんがつようかそーかん。	NO_LABEL
当初は東京創元社公式サイト内のフォルダだったが、2009年4月5日にデザインを全面的にリニューアルし、ウェブマガジンとして独立したURLを取得した。	とーしょわとーきょーそーげんしゃこーしきさいとないのふぉるだだったが、にせんきゅうねんしがついつかにでざいんをぜんめんてきにりにゅーあるし、うぇぶまがじんとしてどくりつしたゆーあーるえるをしゅとくした。	NO_LABEL
リニューアルまではエッセイや資料類ばかりだったが、独立して以後は、継続して小説を掲載するようになっている。	りにゅーあるまでわえっせいやしりょーるいばかりだったが、どくりつしていごわ、けいぞくしてしょーせつをけいさいするよーになっている。	NO_LABEL
創刊以来つづいている桜庭一樹のエッセイ「桜庭一樹読書日記」の他、山本弘の長編SF「MM9-invasion-」、太田忠司のミステリ連作「ミステリなふたり」、北原尚彦の古書研究エッセイ「SF奇書天外REACT」など。	NO_PRONOUNCE	NO_LABEL
また、「創元SF文庫を代表する1冊は何か？――読者投票によるベスト20」「twitterユーザーが選ぶ〈東京創元社 夏の100冊〉2010年版」など読者参加企画が試みられていることが特徴的である。	NO_PRONOUNCE	NO_LABEL
