東桜島町は、鹿児島県鹿児島市の町名。	ひがしさくらじまちょーわ、かごしまけんかごしましのちょーめい。	NO_LABEL
旧大隅国大隅郡桜島郷湯之村、鹿児島県北大隅郡東桜島村大字湯之。	きゅーおーすみのくにおーすみぐんさくらじまさとゆのむら、かごしまけんきたおーすみぐんひがしさくらじまむらだいじゆの。	NO_LABEL
郵便番号は891-1543。	NO_PRONOUNCE	NO_LABEL
人口は534人、世帯数は250世帯。	NO_PRONOUNCE	NO_LABEL
桜島の南部に位置する。	さくらじまのなんぶにいちする。	NO_LABEL
町域の北方から西方にかけては持木町、東方には古里町がそれぞれ隣接しており、南方には鹿児島湾に面している。	ちょういきのほっぽーからせいほーにかけてわもちきちょー、とーほーにわふるさとちょーがそれぞれりんせつしており、なんぽーにわかごしまわんにめんしている。	NO_LABEL
町域の南部を国道224号が東西に通っている。	ちょういきのなんぶをこくどーにひゃくにじゅうよんごーがとーざいにかよっている。	NO_LABEL
町域の西部には鹿児島市役所東桜島支所、鹿児島市立東桜島中学校、鹿児島市立東桜島小学校などがあり、1950年に東桜島村が鹿児島市に編入される以前は村役場が所在しており、東桜島村の中心であった。	ちょういきのせいぶにわかごしましやくしょひがしさくらじまししょ、かごしましりつひがしさくらじまちゅうがっこー、かごしましりつひがしさくらじましょーがっこーなどがあり、せんきゅうひゃくごじゅうねんにひがしさくらじまむらがかごしましにへんにゅーされるいぜんわむらやくばがしょざいしており、ひがしさくらじまむらのちゅーしんであった。	NO_LABEL
東桜島町は東桜島村が鹿児島市に編入される1950年以前は湯之と称しており、湯之という地名は江戸期より見え、大隅国大隅郡桜島郷のうちであった。	ひがしさくらじまちょーわひがしさくらじまむらがかごしましにへんにゅーされるせんきゅうひゃくごじゅうねんいぜんわゆのとしょーしており、ゆのとゆうちめいわえどきよりみえ、おーすみのくにおーすみぐんさくらじまさとのうちであった。	NO_LABEL
村高は「天保郷帳」では64石余、「旧高旧領」では98石余であった。	NO_PRONOUNCE	NO_LABEL
安永大噴火では甚大な被害を受け住民は鹿児島、磯、脇元、重富などに避難した。	やすながだいふんかでわじんだいなひがいをうけじゅーみんわかごしま、いそ、わきもと、しげとみなどにひなんした。	NO_LABEL
大噴火が終わったのちも噴火口に近いため湯之村の住民の帰島が遅れたという。	だいふんかがおわったのちもふんかこーにちかいためゆのむらのじゅーみんのきとーがおくれたという。	NO_LABEL
1887年に北大隅郡の管轄となった。	せんはっぴゃくはちじゅうしちねんにきたおーすみぐんのかんかつとなった。	NO_LABEL
1889年に町村制が施行されたのに伴い桜島の東半分の区域より東桜島村が成立し、それまでの湯之村は東桜島村の大字「湯之」となった。	NO_PRONOUNCE	NO_LABEL
1950年には東桜島村が鹿児島市に編入されるのに伴い、大字湯之から鹿児島市の町名「東桜島町」に改称した。	NO_PRONOUNCE	NO_LABEL
1999年12月28日に公有水面埋立地の区域を東桜島町に編入した。	せんきゅうひゃくきゅうじゅうきゅうねんじゅーにがつにじゅうはちにちにこーゆーすいめんうめたてちのくいきをひがしさくらじまちょーにへんにゅーした。	NO_LABEL
市立小・中学校に通う場合、学区は以下の通りとなる。	しりつしょーちゅーがっこーにかようばあい、がっくわいかのとーりとなる。	NO_LABEL
