広島県道・島根県道112号三次江津線は三次市と江津市を結ぶ一般県道である。	ひろしまけんどーしまねけんどーひゃくじゅうにごーみよしごーつせんわみよししとごーつしをむすぶいっぱんけんどーである。	NO_LABEL
本線	ほんせん	NO_LABEL
バイパス	ばいぱす	NO_LABEL
本線	ほんせん	NO_LABEL
※この間に通行不能区間あり	NO_PRONOUNCE	NO_LABEL
バイパス	ばいぱす	NO_LABEL
