鄭 芝龍- 1661年）は、中国明朝末期に中国南部および日本などで活躍した貿易商、海賊、官員である。	NO_PRONOUNCE	NO_LABEL
字は飛黄、飛虹。	じわひき、ひにじ。	NO_LABEL
彼は閩南語、南京官話、日本語、オランダ語、スペイン語、ポルトガル語を話し、剣道を得意とし、スパニッシュ･ギターも弾けたという。	NO_PRONOUNCE	NO_LABEL
弟に鄭芝虎、鄭芝豹、鄭鴻逵、従弟に鄭芝莞。	おとーとにていしばとら、ていしばひょー、ていひろしつじ、じゅーていにていしばふとい。	NO_LABEL
子に鄭成功と田川七左衛門の2人の息子がいる。	こにていせいこーとたがわしちざえもんのふたりのむすこがいる。	NO_LABEL
1604年、福建省南安市に生まれる。	せんろっぴゃくよんねん、ふっけんしょーなんあんしにうまれる。	NO_LABEL
18歳の時に父が死亡し、母方の叔父を頼りマカオに赴き、黄程の元で経済学を学ぶ。	じゅうはっさいのときにちちがしぼーし、ははかたのおじをたよりまかおにおもむき、きほどのもとでけいざいがくをまなぶ。	NO_LABEL
この頃、カトリックの洗礼を受け、Nicholas という洗礼名を授けられる。	NO_PRONOUNCE	NO_LABEL
西洋の文献には、Nicholas Iquanと記されている。	NO_PRONOUNCE	NO_LABEL
1621年には、台湾や東南アジアと朱印船貿易を行っていた中国系商人の李旦、または、の傘下に加わる。	せんろっぴゃくにじゅういちねんにわ、たいわんやとーなんあじあとしゅいんせんぼーえきをおこなっていたちゅーごくけいしょーにんのりたん、またわ、のさんかにくわわる。	NO_LABEL
日本の肥前国平戸島に住むうち、平戸藩士田川七左衛門の娘であるマツと結婚。	にっぽんのひぜんのくにひらどとーにすむうち、ひらどはんしたがわしちざえもんのむすめであるまつとけっこん。	NO_LABEL
後に、息子の鄭成功が生まれている。	ごに、むすこのていせいこーがうまれている。	NO_LABEL
1624年には活動拠点を日本から台湾笨港に移した。	せんろっぴゃくにじゅうよんねんにわかうどうきょてんをにっぽんからたいわんたけのみなとにうつした。	NO_LABEL
1625年、リーダーである李旦か顔思斉の死亡により、彼の船団を受け継ぐ。	せんろっぴゃくにじゅうごねん、りーだーであるりたんかかおおもいひとしのしぼーにより、かれのせんだんをうけつぐ。	NO_LABEL
船団は千隻もの船を保有して武装化も進めるなど海賊としての側面も有していた。	せんだんわせんせきものふねをほゆーしてぶそーかもすすめるなどかいぞくとしてのそくめんもゆーしていた。	NO_LABEL
台湾南部にオランダ人の入植がはじまると（）、妻子を連れて中国大陸へと渡る。	たいわんなんぶにおらんだじんのにゅーしょくがはじまるとかっこ、さいしをつれてちゅーごくたいりくえとわたる。	NO_LABEL
当時、福建省周辺でもっとも強い勢力をもった武装商団となる。	とーじ、ふっけんしょーしゅーへんでもっともつよいせいりょくをもったぶそーしょーだんとなる。	NO_LABEL
1628年、福建に任命され、李魁奇、鐘斌、劉香などのかつての仲間たちを征伐する。	せんろっぴゃくにじゅうはちねん、ふっけんににんめいされ、りいさおき、しょーあきら、りゅーかおりなどのかつてのなかまたちをせいばつする。	NO_LABEL
福建省に旱魃が襲うと、移民をひきつれて台湾へと向かい、豊富な資金援助を持って、開拓を進めた。	ふっけんしょーにかんばつがおそうと、いみんをひきつれてたいわんえとむかい、ほーふなしきんえんじょをもって、かいたくをすすめた。	NO_LABEL
当時、台湾南部はオランダ東インド会社が統治しており、オランダとの国際貿易で巨万の富を築いた。	とーじ、たいわんなんぶわおらんだひがしいんどがいしゃがとーちしており、おらんだとのこくさいぼーえきできょまんのとみをきずいた。	NO_LABEL
1644年には亡命政権である南明の福王から南安伯に封じられ、福建省全域の清朝に対する軍責を負う。	せんろっぴゃくよんじゅうよんねんにわぼーめいせいけんであるなんみょーのふくおーからなんあんはくにふーじられ、ふっけんしょーぜんいきのせいちょーにたいするぐんせめをおう。	NO_LABEL
1646年には黄道周との対立などで南明政権から離れる。	せんろっぴゃくよんじゅうろくねんにわこーどーしゅーとのたいりつなどでなんみょーせいけんからはなれる。	NO_LABEL
この時、意見の違いから子の成功らとも別れ、清朝に降伏する。	このとき、いけんのちがいからこのせいこーらともわかれ、せいちょーにこーふくする。	NO_LABEL
成功は父の勢力を引き継いで台湾に拠り、明の復興運動を行い清に抵抗したため、芝龍は成功の懐柔を命じられるが、成功がこれに応じなかったため、謀反の罪を問われて、1661年に北京で処刑された。	せいこーわちちのせいりょくをひきついでたいわんにより、あきらのふっこーうんどーをおこないきよしにていこーしたため、しばりゅーわせいこーのかいじゅーをめいじられるが、せいこーがこれにおーじなかったため、むほんのつみをとわれて、せんろっぴゃくろくじゅういちねんにぺきんでしょけいされた。	NO_LABEL
享年58。	NO_PRONOUNCE	NO_LABEL
