トレネーシャ・ビガーズは、アメリカ合衆国のプロレスラー・モデルである。	NO_PRONOUNCE	NO_LABEL
TNAノックアウトにおいてはラカカーンのリングネームで活動した。	てぃーえぬえーのっくあうとにおいてわらかかーんのりんぐねーむでかつどーした。	NO_LABEL
南アイダホ大学ではバスケットボール選手だった。	みなみあいだほだいがくでわばすけっとぼーるせんしゅだった。	NO_LABEL
また、フロリダ州立大学にてバレーボール選手としてNCAA1部を経験する。	また、ふろりだしゅーりつだいがくにてばれーぼーるせんしゅとしてえぬしーえーえーいちぶをけいけんする。	NO_LABEL
2005年、WWEディーヴァサーチにエントリーするが、25位以内に入れなかった。	NO_PRONOUNCE	NO_LABEL
その後WWEとデベロップメンタル契約を結び、下部のDSWでトレーニング。	そのごだぶりゅだぶりゅいーとでべろっぷめんたるけいやくをむすび、かぶのでぃーえすだぶるでとれーにんぐ。	NO_LABEL
The RegulatorsのマネージャーとしてDSWデビュー。	NO_PRONOUNCE	NO_LABEL
続いてエンジェル・ウィリアムスと組み、クリスタル・マーシャル、トレイシー・テイラー、ミシェル・マクールと抗争を繰り広げる。	NO_PRONOUNCE	NO_LABEL
2006年5月4日、WWEデベロップメンタルから解雇。	にせんろくねんごがつよっか、だぶりゅだぶりゅいーでべろっぷめんたるからかいこ。	NO_LABEL
WWE解雇後に初来日を果たし、「パンサー・クロー」の名でSUNに参戦。	NO_PRONOUNCE	NO_LABEL
また、フロリダのFIPやフィラデルフィアのWEWにも参戦。	また、ふろりだのえふあいぴーやふぃらでるふぃあのだぶるいーだぶるにもさんせん。	NO_LABEL
WEWでは「ブラック・バーブル」を名乗った。	NO_PRONOUNCE	NO_LABEL
PGWAにも「ナオミ・バンクス」として参戦。	NO_PRONOUNCE	NO_LABEL
2008年2月10日、TNAのPPV「Against All Odds」でTNAデビュー。	NO_PRONOUNCE	NO_LABEL
ピーティー・ウィリアムズを混乱に陥れ、スコット・スタイナーの勝利に貢献する。	ぴーてぃーうぃりあむずをこんらんにおとしいれ、すこっとすたいなーのしょーりにこーけんする。	NO_LABEL
次の「Impact!」にてスタイナーからチャカ・カーンに尊敬の念をこめた「ラカカーン」として紹介された。	NO_PRONOUNCE	NO_LABEL
ピーティー・ウィリアムスのマネージャーを務める。	NO_PRONOUNCE	NO_LABEL
2008年3月27日、「Impact!」にてスタイナー&ウィリアムズとのトリオでTNAリングデビュー。	NO_PRONOUNCE	NO_LABEL
10月2日のODBとともにフェイスターン。	NO_PRONOUNCE	NO_LABEL
バウンド・フォー・グローリーIVにてODB、Rhinoと組み、ザ・ビューティフル・ピープル&Cute Kipに勝利。	NO_PRONOUNCE	NO_LABEL
11月6日の「Impact!」にて再びヒールターンし、オーサム・コング、ライシャ・サイードと結託。	NO_PRONOUNCE	NO_LABEL
2009年10月1日、TNAから解雇。	にせんきゅうねんじゅーがつついたち、てぃーえぬえーからかいこ。	NO_LABEL
TNA解雇後はルチャリブレUSAにて覆面レスラー「ティグレサ・カリエンテ」として活動。	NO_PRONOUNCE	NO_LABEL
