近畿地方の超高層建築物の一覧は、日本の近畿地方にある高さ60m以上の超高層建築物の一覧である。	きんきちほーのちょーこーそーけんちくぶつのいちらんわ、にっぽんのきんきちほーにあるたかさろくじゅうめーとるいじょーのちょーこーそーけんちくぶつのいちらんである。	NO_LABEL
近畿地方で最も高い建築物は大阪府阿倍野区にあるあべのハルカスである。	きんきちほーでもっともたかいけんちくぶつわおーさかふあべのくにあるあべのはるかすである。	NO_LABEL
高さ順。	たかさじゅん。	NO_LABEL
高さは建築物本体を基準とし、アンテナなどの高さは除く。	たかさわけんちくぶつほんたいをきじゅんとし、あんてななどのたかさわのぞく。	NO_LABEL
また、鉄塔や煙突などの構築物は一覧に含まれない。	また、てっとーやえんとつなどのこーちくぶつわいちらんにふくまれない。	NO_LABEL
また、比較のために鉄塔や煙突などの構築物も掲載する場合は、高さの順位からは除いている。	また、ひかくのためにてっとーやえんとつなどのこーちくぶつもけいさいするばあいわ、たかさのじゅんいからわのぞいている。	NO_LABEL
建築物一覧については、リスト入りする建物が落成まではリストアップしないでください。	けんちくぶついちらんについてわ、りすといりするたてものがらくせいまでわりすとあっぷしないでください。	NO_LABEL
未完成の建物を扱う場合は、東京都の超高層建築物・構築物の一覧のように未完成の建物リストを設置して運用してください。	NO_PRONOUNCE	NO_LABEL
この項では5位までを示す。	このこーでわごいまでをしめす。	NO_LABEL
この項では5位までを示す。	このこーでわごいまでをしめす。	NO_LABEL
