『ふたばの教室』は、八神健による日本の学園漫画である。	NO_PRONOUNCE	NO_LABEL
2006年から2007年にかけて『ヤングアニマル』で連載された。	NO_PRONOUNCE	NO_LABEL
単行本は全2巻。	たんこーぼんわぜんにかん。	NO_LABEL
外見が幼く、小学生のように見える小学校教師・皆実双葉がクラスに巻き起こるさまざまな問題に対し、時に真剣に、時に楽しく打ち込んでいく姿を描いた作品である。	NO_PRONOUNCE	NO_LABEL
元々は『ヤングアニマル』の増刊号である『ヤングアニマルあいらんど』のno.4にて1話限りの読切作品として掲載されたパイロット版漫画『まほうせんせい』が初出。	NO_PRONOUNCE	NO_LABEL
この作品では、双葉の所属するクラスが学級崩壊を起こしており、本来の担任である女性の教師が担任を辞任して無期限休業することになり、女性教師の後任として男性教師・大芝が着任するところから物語が始まる。	NO_PRONOUNCE	NO_LABEL
大芝は豊かな髭を蓄え、シルクハットを被ってブラック・ジャックばりのリボンタイを締めているという手品師のようないでたちをしている教師で、学級崩壊を起こしていた5年3組をいとも簡単に纏め上げる。	NO_PRONOUNCE	NO_LABEL
手品のタネを授業内容に密かに盛り込ませることによって、生徒たちが自ら考え、1を聞いて10を知る力を身に付けさせることを目的としていた。	NO_PRONOUNCE	NO_LABEL
所謂「スプーン曲げ」のタネが梃子の原理を応用したものであることを授業を通して解明した双葉は、難しい問題を解くことの面白さ、みんなで協力して一緒に解決する連帯感が如何に大事なことであるかを知り、それを教えてくれた大芝のような先生になりたいと思い、教師を志すことを決意。	NO_PRONOUNCE	NO_LABEL
後年、晴れて教師になり、赴任先の小学校に初出勤する日までを描いた作品であった。	こーねん、はれてきょーしになり、ふにんさきのしょーがっこーにはつしゅっきんするひまでをえがいたさくひんであった。	NO_LABEL
当作品『ふたばの教室』は、双葉が教師になってからの物語であり、連載開始前の仮タイトルは『双葉せんせいの教室』だった。	NO_PRONOUNCE	NO_LABEL
