1953年 全仏選手権に関する記事。	せんきゅうひゃくごじゅうさんねんぜんふつせんしゅけんにかんするきじ。	NO_LABEL
フランス・パリにある「スタッド・ローラン・ギャロス」にて開催。	NO_PRONOUNCE	NO_LABEL
準々決勝	じゅんじゅんけっしょー	NO_LABEL
準決勝	じゅんけっしょー	NO_LABEL
準々決勝	じゅんじゅんけっしょー	NO_LABEL
準決勝	じゅんけっしょー	NO_LABEL
