山手は、兵庫県神戸市垂水区にある町名。	やまてわ、ひょーごけんこーべしたるみくにあるちょーめい。	NO_LABEL
一丁目から八丁目がある。	いっちょーめからはっちょーめがある。	NO_LABEL
郵便番号は655-0891。	NO_PRONOUNCE	NO_LABEL
2005年10月1日現在の世帯数は1,263、人口は男性1,368、女性1,572で合計2,940。	NO_PRONOUNCE	NO_LABEL
垂水区の南部に位置する。	たるみくのなんぶにいちする。	NO_LABEL
南北に長い住宅地域である。	なんぼくにながいじゅーたくちいきである。	NO_LABEL
六丁目から八丁目までは福田川左岸に位置する。	ろくちょうのめからはっちょーめまでわふくだがわさがんにいちする。	NO_LABEL
二丁目と三丁目の中心を、南北に福田川の河岸段丘崖が走っている。	にちょーめとさんちょーめのちゅーしんを、なんぼくにふくだがわのかがんだんきゅーがけがはしっている。	NO_LABEL
すぐ南側にはJR神戸線と山陽電気鉄道本線が通り、東垂水駅がある。	すぐみなみがわにわじぇいあーるこーべせんとさんよーでんきてつどーほんせんがとーり、ひがしたるみえきがある。	NO_LABEL
東は東垂水、泉が丘、南は平磯、西は中道、福田川を挟んで馬場通、野田通大町、福田、北は乙木に接する。	ひがしわひがしたるみ、いずみがおか、みなみわひらいそ、にしわちゅーどー、ふくだがわをはさんでばばどーり、のだどーりおーまち、ふくだ、きたわおとぎにせっする。	NO_LABEL
住居表示が実施されている。	じゅーきょひょーじがじっしされている。	NO_LABEL
1930年4月から1933年1月にかけて、東垂水区第二耕地整理組合によって福田川左岸の東垂水町字川中、字川原、字大坪、字中道、字坂上、字山脇、字這上リの各地域が耕地整理された。	NO_PRONOUNCE	NO_LABEL
その総面積は6万1千坪であり、1万1千7百坪の道路が新たに整備された。	NO_PRONOUNCE	NO_LABEL
東垂水町であったころ、それらの地域は西から東へ川中通、川原通、坂上通、中道通、山手通と称された。	ひがしたるみちょーであったころ、それらのちいきわにしからひがしえかわなかどーり、かわはらとーり、さかがみとーる、なかみちどーり、やまのてとーりとしょーされた。	NO_LABEL
1970年に、住居表示実施と共に東垂水町字山田、字大門、字山脇より山手一丁目から三丁目が成立した。	せんきゅうひゃくななじゅうねんに、じゅーきょひょーじじっしとともにひがしたるみちょーじやまだ、じおーもん、じやまわきよりやまていっちょーめからさんちょーめがせいりつした。	NO_LABEL
1980年に、一丁目から六丁目となった。	せんきゅうひゃくはちじゅうねんに、いっちょーめからろくちょうのめとなった。	NO_LABEL
1981年に、一丁目から七丁目となった。	せんきゅうひゃくはちじゅういちねんに、いっちょーめからななちょーめとなった。	NO_LABEL
1984年に、一丁目から八丁目となった。	せんきゅうひゃくはちじゅうよねんに、いっちょーめからはっちょーめとなった。	NO_LABEL
地域内に鉄道、バス路線は通っていないが、一丁目の南端の道を挟んだ向かいに山陽電鉄東垂水駅がある。	ちいきないにてつどー、ばすろせんわかよっていないが、いっちょーめのなんたんのみちをはさんだむかいにさんよーでんてつひがしたるみえきがある。	NO_LABEL
市立小・中学校に通う場合、校区は以下の通りとなる。	しりつしょーちゅーがっこーにかようばあい、こーくわいかのとーりとなる。	NO_LABEL
