進藤 奈邦子- ）は日本の医師。	NO_PRONOUNCE	NO_LABEL
医学博士。	いがくはくし。	NO_LABEL
専門は内科、感染症学。	せんもんわないか、かんせんしょーがく。	NO_LABEL
世界保健機関本部グローバルインフルエンザプログラム・メディカルオフィサーとして現在はWHOの危険感染症の対策に当たり、新型インフルエンザの防止活動の中心として活躍している。	NO_PRONOUNCE	NO_LABEL
2014年に西アフリカでエボラ出血熱が流行した際も、チームリーダーとして活躍した。	にせんじゅうよねんににしあふりかでえぼらしゅっけつねつがりゅーこーしたさいも、ちーむりーだーとしてかつやくした。	NO_LABEL
2009年公開の映画『感染列島』の、WHOメディカルオフィサー小林栄子のモデルでもあるといわれている。	NO_PRONOUNCE	NO_LABEL
