リチャード・ウィルキンソンは、イギリスの経済学者、公衆衛生学者。	りちゃーどうぃるきんそんわ、いぎりすのけいざいがくしゃ、こーしゅーえいせいがくしゃ。	NO_LABEL
ノッティンガム大学名誉教授、ユニヴァーシティ・カレッジ・ロンドン名誉教授。	NO_PRONOUNCE	NO_LABEL
ロンドン・スクール・オブ・エコノミクスで経済史を学んだのち、ペンシルベニア大学大学院およびノッティンガム大学大学院で学ぶ。	ろんどんすくーるおぶえこのみくすでけいざいしをまなんだのち、ぺんしるべにあだいがくだいがくいんおよびのってぃんがむだいがくだいがくいんでまなぶ。	NO_LABEL
2008年までノッティンガム大学で教鞭をとった。	にせんはちねんまでのってぃんがむだいがくできょーべんをとった。	NO_LABEL
