空知信用金庫は、北海道岩見沢市に本店を置く信用金庫である。	そらちしんよーきんこわ、ほっかいどーいわみざわしにほんてんをおくしんよーきんこである。	NO_LABEL
愛称は「そらちしんきん」。	NO_PRONOUNCE	NO_LABEL
岩見沢市に本店を置き、南空知の市部を中心に営業活動が行われている。	いわみざわしにほんてんをおき、みなみそらちのしぶをちゅーしんにえいぎょーかつどーがおこなわれている。	NO_LABEL
支店を置かない夕張市・月形町を含め、南空知は9市町全てが営業区域となっている。	NO_PRONOUNCE	NO_LABEL
奈井江町以北の中空知・北空知は営業区域に含まれていない。	NO_PRONOUNCE	NO_LABEL
そのほか、石狩地方の大部分と胆振地方の苫小牧市・安平町、後志地方の小樽市も営業区域に含まれており、このうち札幌市・江別市には支店も置かれている。	NO_PRONOUNCE	NO_LABEL
自己資本比率は19.16%。	NO_PRONOUNCE	NO_LABEL
一時期は不良債権処理の影響があり自己資本比率は低下する傾向にあったが、近年は持ち直してきている。	いちじきわふりょーさいけんしょりのえいきょーがありじこしほんひりつわていかするけいこーにあったが、きんねんわもちなおしてきている。	NO_LABEL
次の市町村において、指定金融機関の指定を受けている。	つぎのしちょーそんにおいて、していきんゆーきかんのしていをうけている。	NO_LABEL
スポーツ振興くじ当選券の払い戻し店は以下の店舗でのみ取り扱う。	すぽーつしんこーくじとーせんけんのはらいもどしてんわいかのてんぽでのみとりあつかう。	NO_LABEL
