セルゲイ・ウラディミロヴィチ・ブリズガロフは、ロシア・ニジニ・ノヴゴロド州パヴロヴォ出身のサッカー選手。	NO_PRONOUNCE	NO_LABEL
FCアンジ・マハチカラ所属。	ふっとぼりにいくるぶあんじまはちからしょぞく。	NO_LABEL
ポジションはDF。	ぽじしょんわでぃふぇんだー。	NO_LABEL
1992年、ロシア・ニジニ・ノヴゴロド州のパヴロヴォにて生まれた。	NO_PRONOUNCE	NO_LABEL
6歳の頃にサッカーを始め、11歳の時にモスクワ州に引越しをした。	ろっさいのころにさっかーをはじめ、じゅういっさいのときにもすくわしゅーにひっこしをした。	NO_LABEL
2009年、エゴリエフスクにあるサッカー・スクールのマステル・サトゥルンに入団。	NO_PRONOUNCE	NO_LABEL
同年、プロサッカークラブのサトゥルン・ラメンスコーエに入団してユースの試合にて15試合に出場した。	どーねん、ぷろさっかーくらぶのさとぅるんらめんすこーえににゅーだんしてゆーすのしあいにてじゅうごしあいにしゅつじょーした。	NO_LABEL
2010年3月28日、第3節のFCロストフ戦でロシア・プレミアリーグデビューを果たした。	にせんじゅうねんさんがつにじゅうはちにち、だいさんせつのえふしーろすとふせんでろしあぷれみありーぐでびゅーをはたした。	NO_LABEL
2011年1月下旬、所属していたサトゥルンが財政難のためリーグ撤退を発表。	にせんじゅういちねんいちがつげじゅん、しょぞくしていたさとぅるんがざいせいなんのためりーぐてったいをはっぴょー。	NO_LABEL
3月11日、FCスパルタク・モスクワへ移籍をした。	さんがつじゅういちにち、ふっとぼりにいくるぶすぱるたくもすくわえいせきをした。	NO_LABEL
2011-2012シーズンではヴァレリー・カルピン指揮の下で18試合に出場をした。	NO_PRONOUNCE	NO_LABEL
2016年6月14日、FCテレク・グロズヌイと4年契約を結んだ。	NO_PRONOUNCE	NO_LABEL
2017年、FCアンジ・マハチカラに移籍した。	にせんじゅうななねん、ふっとぼりにいくるぶあんじまはちからにいせきした。	NO_LABEL
