ソウルフライは、アメリカ合衆国のオルタナティブ・メタルバンド。	NO_PRONOUNCE	NO_LABEL
セパルトゥラを脱退したマックス・カヴァレラ（）を中心に1997年、アリゾナ州フェニックスで結成。	NO_PRONOUNCE	NO_LABEL
スラッシュメタルやニュー・メタルだけでなく、ブラジルやアフリカのワールドミュージックの要素も取り入れ、これまでに10枚のアルバムをリリースし、2016年現在も活動中である。	すらっしゅめたるやにゅーめたるだけでなく、ぶらじるやあふりかのわーるどみゅーじっくのよーそもとりいれ、これまでにじゅうまいのあるばむをりりーすし、にせんじゅうろくねんげんざいもかつどーちゅーである。	NO_LABEL
マックス・カヴァレラは、1997年2月にセパルトゥラを去った。	NO_PRONOUNCE	NO_LABEL
大きな原因は、セパルトゥラのドラマーでもあり、実の弟であるイゴール・カヴァレラとの確執である。	NO_PRONOUNCE	NO_LABEL
マックスは、セパルトゥラ脱退直後、「計画的に追い出された」とも言い放ったが、悲しみや怒りと格闘しつつ、自宅で静かに作曲活動を始めた。	NO_PRONOUNCE	NO_LABEL
マックスは後に“音と魂の信条”を掛け合わせるアイデアをもって、バンドを創設したと語っている。	NO_PRONOUNCE	NO_LABEL
彼は人気スラッシュメタルバンドからの脱退以外にも、まま息子であり親友でもあったデイナ・ウェールズが交通事故で不慮の死を遂げたことと、彼が尊敬するブラジリアン・シンガー、Chico Scienceが1997年に死去したことにも向き合わなければならなかった。	NO_PRONOUNCE	NO_LABEL
それによる鬱を乗り越えるためのセラピーとして、音楽を捉えたという。	NO_PRONOUNCE	NO_LABEL
セパルトゥラ在籍時代より交流を続けてきたミュージシャン、そして妻でマネージャーでもある、グロリアの支えが、マックスの精力的な音楽活動を促した。	せぱるとぅらざいせきじだいよりこーりゅーをつずけてきたみゅーじしゃん、そしてつまでまねーじゃーでもある、ぐろりあのささえが、まっくすのせいりょくてきなおんがくかつどーをうながした。	NO_LABEL
まず、マックスはデフトーンズの大成功したアルバム、『Around the fur』の『Headup』という曲でゲスト参加し、デイナの死について歌っている。	NO_PRONOUNCE	NO_LABEL
デフトーンズのChino Morenoは、ソウルフライの『First Commandment』と『Pain』にトリビュートしている。	NO_PRONOUNCE	NO_LABEL
Chico Scienceが1997年1月に亡くなった後、残ったメンバーが彼の追悼コンサートを開催するに当たり、マックスにプレイしないかと声をかけている。	NO_PRONOUNCE	NO_LABEL
これを快諾したマックスは、1997年4月にブラジルでコンサートに出演した。	これをかいだくしたまっくすわ、せんきゅうひゃくきゅうじゅうななしがつにぶらじるでこんさーとにしゅつえんした。	NO_LABEL
この後、マックスはブラジル滞在中に現地の情報誌にメンバーの募集広告を掲載している。	こののち、まっくすわぶらじるたいざいちゅーにげんちのじょーほーしにめんばーのぼしゅーこーこくをけいさいしている。	NO_LABEL
このとき、元スレイヤーのDave Lombardoもマックスに直接電話してきたが、マックスの考えるバンドの定義について認識が合わなかったことで、マックスは断っている。	NO_PRONOUNCE	NO_LABEL
この頃に、ジャクソン・バンデイラとバンドの結成について話し合いを始める。	NO_PRONOUNCE	NO_LABEL
1997年7月には、主にパンク・ロック・バンド、ハードコア・バンドが出演するパッケージ・ツアーのWARPed Tourに参加したり、同年秋にはBenji Webbe率いるDub Warのステージに立ち、“Strike It”で共演している。	NO_PRONOUNCE	NO_LABEL
この頃になり、ニューヨーク・パンク・ロック界で有名なロイ“マタ”マイヨルガをドラマーに、以前セパルトゥラの地方公演マネージャーを務めていたマルセロ・ディー・ラップをベーシストとして正式メンバーに迎え、曲作りがスタートした。	NO_PRONOUNCE	NO_LABEL
このとき書かれたものは『Eye For An Eye』、『No Hope=No Fear』、『Bleed』、『Tribe』などである。	NO_PRONOUNCE	NO_LABEL
そして1997年8月16日、アリゾナ州フェニックスのClub Pavilionで、バンドの初ライブが行われる。	NO_PRONOUNCE	NO_LABEL
バンド名も決まっておらず、「Max Cavalera Project」という仮名義ながら、ヘッドラインを飾った。	NO_PRONOUNCE	NO_LABEL
デイナの追悼を目的としたものだったため、ショーのタイトルも『The Soulfly Benefit Show For Dina』とした。	NO_PRONOUNCE	NO_LABEL
このバンド創設時には、当時フィア・ファクトリーに在籍していたDino Cazaresも、バンドの基礎を固めるために参加していた。	NO_PRONOUNCE	NO_LABEL
この初ライブでも、ギタリストとして参加している。	このはつらいぶでも、ぎたりすととしてさんかしている。	NO_LABEL
そして、ジャクソン・バンデイラをようやくバンドのギタリストとして迎え、オリジナルラインナップを完成させている。	NO_PRONOUNCE	NO_LABEL
Malibu,CaliforniaのIndigo Lunch Studioで、デビューアルバムの製作に取り掛かる。	NO_PRONOUNCE	NO_LABEL
1998年1月下旬には、ほとんどの曲のレコーディングを終了させている。	せんきゅうひゃくきゅうじゅうはちねんいちがつげじゅんにわ、ほとんどのきょくのれこーでぃんぐをしゅーりょーさせている。	NO_LABEL
その時点でも、まだアルバムタイトルは仮タイトルで『Eye For An Eye』とし、バンド名も仮名義のままだったが、数日後、急遽バンド名が「ソウルフライ」に決定する。	NO_PRONOUNCE	NO_LABEL
バンド名の由来について、マックスはこう語っている。	ばんどめいのゆらいについて、まっくすわこーかたっている。	NO_LABEL
バンドの名が掲げられた1stアルバム、『ソウルフライ』は1998年の春にリリースされた。	NO_PRONOUNCE	NO_LABEL
その音は、ヘヴィメタルとハードコア・パンクの融合というスタイルを、極点まで突きつめたものであった。	NO_PRONOUNCE	NO_LABEL
怒りや哀しみといった激情、母国ブラジルへの愛、プリミティヴなリズムを希求する本能など、マックスのヘヴィミュージックへの直情的な欲求が、如実に現れたこの作品は、ヘヴィメタルを含むラウドロック界だけでなく、ブラジル音楽などの様々なシーンで驚くほどの高い評価を受ける。	NO_PRONOUNCE	NO_LABEL
マックスは「怒りと悲しみを混ぜ、純粋さへと戻っている」とも表現している。	NO_PRONOUNCE	NO_LABEL
さらにこのアルバムでは、フィア・ファクトリーのBurton C. Bell、Dino Cazares、Christian Olde Wolbers、デフトーンズのChino Moreno、リンプ・ビズキットのFred Durst、DJ Lethal、Cypress HillのEric Bobo、Dub WarのBenji Webbe、R.D.Pなど、豪華なゲストが数多く参加し、様々なコラボレーションを実現している。	NO_PRONOUNCE	NO_LABEL
プロデュースは、この手では名腕と知られる有名人Ross Robinson。	NO_PRONOUNCE	NO_LABEL
ビルボード200の79位まで上った。	NO_PRONOUNCE	NO_LABEL
アルバム発表後、ギタリストがローガン・メイダーに代わり、ツアーを開始するがすぐに脱退、マイク・ドーリングをサポートに迎え、1999年2月に初の来日公演を果たしている。	NO_PRONOUNCE	NO_LABEL
ここでバンドに参加したマイクはその後、正式メンバーとしてソウルフライに加入する。	ここでばんどにさんかしたまいくわそのご、せいしきめんばーとしてそうるふらいにかにゅーする。	NO_LABEL
大絶賛を受けたこの来日公演直後に、ロイ・マイヨルガも脱退を表明。	NO_PRONOUNCE	NO_LABEL
マックスの友人であるDave Lombardoの推薦を受けて、ジョー・ヌネズという当時まだ無名だった若手ドラマーを新たに迎え、次作への準備を開始する。	NO_PRONOUNCE	NO_LABEL
それと同時に、2000年7月2日には、Ozzfest 2000に出演。	NO_PRONOUNCE	NO_LABEL
全米に新ラインナップのソウルフライを披露し、新曲『Back To The Primitive』、『Boom』などを演奏した。	NO_PRONOUNCE	NO_LABEL
マイヨルガの脱退の理由は、ローガン・メイダーとバンドを組みたい、というものである。	NO_PRONOUNCE	NO_LABEL
この言葉が火種となった喧嘩別れと言うことだったが、3rdアルバムでは再度メンバーに加わり、お互いを認め合っている。	このことばがひだねとなったけんかわかれということだったが、さーどあるばむでわさいどめんばーにくわわり、おたがいをみとめあっている。	NO_LABEL
ジャクソン・バンデイラはツアーで世界を回る意思がないことから脱退し、Nação Zumbiへ戻っている。	NO_PRONOUNCE	NO_LABEL
ソウルフライを率いる傍ら、マックスは、普通はヘヴィメタル・ミュージシャンと関わることがない分野へ進出していく。	NO_PRONOUNCE	NO_LABEL
New York and Holland's Crossing Boarder Festivalで行われたCMJ's New Music Marathonに名を連ねたり、母国ブラジルで放送された清涼飲料水のテレビCMで歌うなど、ミュージシャンとして再び人気を博すようになる。	NO_PRONOUNCE	NO_LABEL
ソウルフライへのニューメタルの影響は、2000年9月に発売された2ndアルバム『プリミティブ』に表れた。	NO_PRONOUNCE	NO_LABEL
プロデューサーは、スレイヤーやアリス・イン・チェインズなどを手がけたトビー・ライト。	NO_PRONOUNCE	NO_LABEL
レコーディングは、アリゾナ州フェニックスにあるSalt Mine Studioで行われた。	NO_PRONOUNCE	NO_LABEL
ビルボード200の32位につけた。	NO_PRONOUNCE	NO_LABEL
アメリカのチャートでは11位にまで達し、現時点でバンドにとって最も成功したアルバムである。	あめりかのちゃーとでわじゅういちーにまでたっし、げんじてんでばんどにとってもっともせいこーしたあるばむである。	NO_LABEL
前作では、当時マックスのまわりで起こったネガティヴな出来事からの怒り、哀しみ、いら立ちが如実に音に表れていたが、今作では、強烈なヘヴィネスに深みと奥行きを与えた、深化したサウンドが特徴である。	NO_PRONOUNCE	NO_LABEL
ミュージシャンとして、また一人の人間として成長したマックスが感じられる、スケールの大きな作品となった。	みゅーじしゃんとして、またひとりのにんげんとしてせいちょーしたまっくすがかんじられる、すけーるのおーきなさくひんとなった。	NO_LABEL
また、スリップノットのCorey Taylor、スレイヤーのTom Araya、デフトーンズのChino Moreno、ショーン・レノンなど、本作でも豪華ゲストが多数参加している。	NO_PRONOUNCE	NO_LABEL
『プリミティヴ』発表後もツアーに次ぐツアーをこなし、2001年末には、オリジナル・メンバーでもあるロイ・マイヨルガを再び迎え、新作のレコーディングを開始。	NO_PRONOUNCE	NO_LABEL
翌年2002年6月に3rdアルバム『3』を発表。	NO_PRONOUNCE	NO_LABEL
これは、その年のビルボード200の46位につけた。	NO_PRONOUNCE	NO_LABEL
マックス自身がプロデューサーを担当し、アリゾナ州フェニックスのChaton Studioでレコーディングされた。	NO_PRONOUNCE	NO_LABEL
1st、2ndよりもさらに原始的初期衝動に満ちた、ラウド&アグレッシヴかつ、スピリチュアルな作品となった。	NO_PRONOUNCE	NO_LABEL
ソウルフライのアルバムの中では比較的評価が低いアルバムではあるが、『Seek“N”Strike』『Tree Of Pain』など、ライブでよく演奏される曲も多い。	NO_PRONOUNCE	NO_LABEL
また、このアルバムでは、Ill NiñoのCristian Machadoがゲスト参加している。	NO_PRONOUNCE	NO_LABEL
アルバム発売後、スレイヤーをヘッドライナーに迎えたツアー、H82K2 Tourに参加するなど、世界各地でマックス、マイク、マルセロ、ロイというラインナップでパフォーマンスを行う。	NO_PRONOUNCE	NO_LABEL
同年12月に行われたBeast Feastにも、ヘッドライナーとして出演、初来日以来約4年振りの来日公演を実現させている。	NO_PRONOUNCE	NO_LABEL
2003年に入ってからも、ソウルフライはツアーを続け、各地で大絶賛を浴びて行く。	にせんさんねんにはいってからも、そうるふらいわつあーをつずけ、かくちでだいぜっさんをあびていく。	NO_LABEL
マックス以外全員、すなわちマイク・ドーリング、マルセロ・ディアス、ロイ・マイヨルガが2003年9月に脱退する。	NO_PRONOUNCE	NO_LABEL
マックスは次のアルバム『プロフェシー』のために、すべてのメンバーラインナップを再配置した。	NO_PRONOUNCE	NO_LABEL
かつてIll Niñoにギタリストとして活躍していたマーク・リゾが、2代目ギタリストとして引き抜かれ、ジョー・ヌネズがドラマーとして再び迎えられている。	NO_PRONOUNCE	NO_LABEL
そして、『プロフェシー』ではソウルフライのメンバーとして、かつてメガデスに在籍していたデイヴ・エレフソンと、Primer55のボビー・バーンズの2人のベーシストが参加している。	NO_PRONOUNCE	NO_LABEL
しかしエレフソンは、レコーディングのみのゲスト扱いで、『Prophecy』、『Defeat U』、『Mars』、『I Believe』、『In The Mean Time』の5曲で参加している。	NO_PRONOUNCE	NO_LABEL
マックスは、このメンバー交代劇について、『プロフェシー』オールドスクールメタルとニュースクールメタルを融合させるためにやったことだと主張している。	NO_PRONOUNCE	NO_LABEL
また彼は、アルバムではメンバーをそのときの一つのグループとして捉え、パートごとに異なったミュージシャンを起用したいとし、次のように語っている。	またかれわ、あるばむでわめんばーをそのときのひとつのぐるーぷとしてとらえ、ぱーとごとにことなったみゅーじしゃんをきよーしたいとし、つぎのよーにかたっている。	NO_LABEL
4thアルバム『プロフェシー』は、2004年3月30日にリリースされた。	NO_PRONOUNCE	NO_LABEL
このアルバムは、同年4月には最高でビルボード200の82位につけた。	NO_PRONOUNCE	NO_LABEL
オーストラリアではアルバムチャートの50位入りを果たしている。	おーすとらりあでわあるばむちゃーとのごじゅういいりをはたしている。	NO_LABEL
そして、この大きな鍵となったのがマーク・リゾである。	NO_PRONOUNCE	NO_LABEL
フラメンコ・スパニッシュギターに相当な腕前を見せ、『Mars』『Porrada』『Soulfly4』といった曲でそのエキゾチックな手腕を披露している。	NO_PRONOUNCE	NO_LABEL
ヘヴィロックのリフの鳴らし方、ヘヴィメタル伝統のリード・ソロもこなせる彼は、それまでの2代目ギタリストが持ち得なかった艶やかな要素をバンドに与えた。	NO_PRONOUNCE	NO_LABEL
セパルトゥラ在籍時代、マックスはブラジルの現地の人々にスポットをあて、『Roots』でみられるようなワールドミュージックへの関心をみせた。	NO_PRONOUNCE	NO_LABEL
『プロフェシー』でマックスは伝統的なミュージシャンとレコーディングするためにセルビアに赴き、そのアプローチは続けられた。	NO_PRONOUNCE	NO_LABEL
『Moses』という曲において、彼はセルビアのバンド、Eyesburnと共演し、彼の中での英雄の一人であるボブ・マーリーが影響を与えたレゲエを取り入れた。	NO_PRONOUNCE	NO_LABEL
ほかの曲では、セルビア人ジプシーと共演し、中世から伝わる楽器や羊皮でできたバグパイプを使用している。	ほかのきょくでわ、せるびあじんじぷしーときょーえんし、ちゅーせいからつたわるがっきやひつじがわでできたばぐぱいぷをしよーしている。	NO_LABEL
このアルバムの後、大規模なヨーロッパ・ツアーを実施し、その後夏から秋にかけて全米をIll Niñoと共に世界を回る。	NO_PRONOUNCE	NO_LABEL
2005年の2月に、ソウルフライは初のDVD『ザ・ソング・リメインズ・インセイン』を発売する。	NO_PRONOUNCE	NO_LABEL
世界で行われたライブ映像、インタビュー、バンドのすべてのミュージックビデオが収められ、バンドのバイオグラフィーのようなものになっている。	せかいでおこなわれたらいぶえいぞー、いんたびゅー、ばんどのすべてのみゅーじっくびでおがおさめられ、ばんどのばいおぐらふぃーのよーなものになっている。	NO_LABEL
2005年8月、ロードランナー・レコードは、バンド自身の名がつけられた1stアルバムをレーベルの25周年記念の一環として再発売した。	にせんごねんはちがつ、ろーどらんなーれこーどわ、ばんどじしんのながつけられたふぁーすとあるばむをれーべるのにじゅうごしゅーねんきねんのいっかんとしてさいはつばいした。	NO_LABEL
この1stアルバム再発売の際に、当時のメンバーにインタビューをしている。	このふぁーすとあるばむさいはつばいのさいに、とーじのめんばーにいんたびゅーをしている。	NO_LABEL
ロイ・マイヨルガが「あの頃はおれにとっても最高の時だった」と振り返り、マルセロ・ディアスも、マックスやアルバムに好意的に語っている様子からは、『プロフェシー』製作前の交代劇は、解雇というような後味の悪いものではなかったようである。	NO_PRONOUNCE	NO_LABEL
ソウルフライは、その後も3月から4月にかけてヨーロッパ、アメリカを再度ツアー、ライブを行っている。	そーるふらいわ、そのごもさんがつからしがつにかけてよーろっぱ、あめりかをさいどつあー、らいぶをおこなっている。	NO_LABEL
その年の秋、2005年の10月4日に、前作同様マックス本人のプロデュースにより『ダーク・エイジズ』がリリースされた。	NO_PRONOUNCE	NO_LABEL
多くの批評家は『ダーク・エイジズ』が、マックスの初期セパルトゥラ時代に見られるようなスラッシュメタルという原点への回帰だと表現している。	NO_PRONOUNCE	NO_LABEL
確かに音は直線的でソリッドではあるが、これまで通り、ワールドミュージックのメタルへの影響は確かに見られるし、ジョー・ヌネズのトライバルなビート、マーク・リゾによる鮮やかなスパニッシュギターは健在である。	NO_PRONOUNCE	NO_LABEL
実際、このときカヴァレラはセルビア、トルコ、ロシア、フランスそしてアメリカという五つの国に赴き、彼がニューアルバムにほしいと思うすべての音を録音している。	NO_PRONOUNCE	NO_LABEL
また、『Riotstarter』という曲ではプロディジーのようなバンドや彼のサイドプロジェクトであるNailbombに特徴的なインダストリアル分野の音楽的なエッセンスを取り入れている。	NO_PRONOUNCE	NO_LABEL
つまり本作でもマックス・カヴァレラの音楽に対する自由な姿勢は変わってはいない、ただ、前作の『プロフェシー』が音楽的探求の一つの到達点としたら、そのアプローチが本作では主要素ではないといえる。	NO_PRONOUNCE	NO_LABEL
マックス・カヴァレラの当時の混沌とした感情を吐き出すことに集中して作られたとみることができる。	NO_PRONOUNCE	NO_LABEL
録音中だった2004年の12月10日に、カヴァレラは孫のモーゼを亡くし、同月に、旧知の友であった、元パンテラで当時ダメージプランで活動していたダイムバッグ・ダレルの悲劇的な死を耳にする。	NO_PRONOUNCE	NO_LABEL
これらの影響について、マックスは次のように語っている。	これらのえいきょーについて、まっくすわつぎのよーにかたっている。	NO_LABEL
『ダーク・エイジズ』におけるバンドの中心は依然、マックス・カヴァレラ、マーク・リゾ、ジョー・ヌネズ、ボビー・バーンズである。	NO_PRONOUNCE	NO_LABEL
そして、このアルバムでもデイブ・エレフソンが前作同様、数曲でその才能を提供している。	NO_PRONOUNCE	NO_LABEL
『Innerspirit』という曲では、EyesburnのボーカルであるCoyoteが参加し、ハードコアに影響された『Molotov』では、ストームトゥルーパーズ・オブ・デスのボーカルであるBilly Milanoと、ロシア人シンガーのPaul Fillipenkoがシャウトしている。	NO_PRONOUNCE	NO_LABEL
また、アメリカのPhoenixにベースを置くInciteから、カヴァレラのまま息子であるリッチー・カヴァレラが『Stay Strong』で自作の歌詞を歌っている。	NO_PRONOUNCE	NO_LABEL
ソウルフライは『ダーク・エイジズ』のワールドツアーで、デフトーンズ、コーン、Skindred、Gizmachiといった様々なアーティストと世界をまわった。	NO_PRONOUNCE	NO_LABEL
最近のインタビューでは『ダーク・エイジズ』の今後について触れているが、マックスはその中でニューアルバムについて、次のように語っている。	NO_PRONOUNCE	NO_LABEL
2007年5月1日、マックスは、2008年春にリリース予定のニューアルバムに収録される、4曲のデモトラックを公開。	にせんななねんごがつついたち、まっくすわ、にせんはちねんはるにりりーすよていのにゅーあるばむにしゅーろくされる、よんきょくのでもとらっくをこーかい。	NO_LABEL
アルバムのレコーディングを半分終えた後、マックスは中東を旅し、新曲と融合できそうな音のサンプルを探した。	あるばむのれこーでぃんぐをはんぶんおえたのち、まっくすわちゅーとーをたびし、しんきょくとゆーごーできそーなおとのさんぷるをさがした。	NO_LABEL
2008年7月29日、6thアルバム『コンクァー ～征服～』をリリース。	NO_PRONOUNCE	NO_LABEL
2010年5月18日、7thアルバム『オーメン』をリリース。	NO_PRONOUNCE	NO_LABEL
2010年7月、ベーシストのボビー・バーンズが脱退。	NO_PRONOUNCE	NO_LABEL
2011年1月にトニー・カンポスが加入したことを発表。	NO_PRONOUNCE	NO_LABEL
2011年8月にはドラマーのジョー・ヌネズが脱退することを発表し、後任にはデヴィッド・キンケイドが加入。	NO_PRONOUNCE	NO_LABEL
2012年3月13日、8thアルバム『エンスレイヴド』をリリース。	NO_PRONOUNCE	NO_LABEL
2012年10月、デヴィッド・キンケイドが引退。	NO_PRONOUNCE	NO_LABEL
マックスの息子であるザイオン・カヴァレラが加入した。	NO_PRONOUNCE	NO_LABEL
2013年10月、9thアルバム『サヴェージ』をリリース。	NO_PRONOUNCE	NO_LABEL
2015年5月、トニー・カンポスが脱退。	NO_PRONOUNCE	NO_LABEL
代役のサポートはマックスのもう一人の息子、イゴール・カヴァレラ・ジュニアが務めた。	NO_PRONOUNCE	NO_LABEL
2015年8月、10thアルバム『アークエンジェル』をリリース。	NO_PRONOUNCE	NO_LABEL
ツアーのベーシストにはマイク・レオンがサポート。	NO_PRONOUNCE	NO_LABEL
