高松市立牟礼中学校は、香川県高松市牟礼町牟礼にある市立中学校。	たかまつしりつむれちゅうがっこーわ、かがわけんたかまつしむれちょうむれにあるしりつちゅーがっこー。	NO_LABEL
高松市北東部の郊外地域に位置する中学校である。	たかまつしほくとーぶのこーがいちいきにいちするちゅーがっこーである。	NO_LABEL
牟礼中学校の生徒数は横ばいか微増傾向にある。	むれちゅうがっこーのせいとすーわよこばいかびぞーけいこーにある。	NO_LABEL
主体性の育成を図り、人間性豊かで心身ともにたくましい実践力のある生徒の育成。	しゅたいせいのいくせいをはかり、にんげんせいゆたかでしんしんともにたくましいじっせんりょくのあるせいとのいくせい。	NO_LABEL
通学区域は高松市牟礼地区の全域。	つーがくくいきわたかまつしむれちくのぜんいき。	NO_LABEL
