アーレイ・アルバート・バークは、アメリカ海軍の軍人、最終階級は大将。	NO_PRONOUNCE	NO_LABEL
バークはアメリカ海軍史上でただ1人、海軍作戦部長を6年の長きにわたって務めた。	ばーくわあめりかかいぐんしじょーでただひとり、かいぐんさくせんぶちょーをろくねんのちょうきにわたってつとめた。	NO_LABEL
バークはコロラド州ボルダー市近郊のスウェーデン系の農民の子として生まれ、1919年海軍兵学校に入校。	ばーくわころらどしゅーぼるだーしきんこーのすうぇーでんけいののーみんのことしてうまれ、せんきゅうひゃくじゅうきゅうねんかいぐんへいがっこーににゅーこー。	NO_LABEL
1923年に少尉に任官し、戦艦アリゾナ、重巡洋艦チェスター、駆逐艦クレイブン乗り組みや地上部隊、海軍省兵備局勤務を経験し、この間にミシガン大学で工学修士の学位を得た。	せんきゅうひゃくにじゅうさんねんにしょーいににんかんし、せんかんありぞな、じゅーじゅんよーかんちぇすたー、くちくかんくれいぶんのりくみやちじょーぶたい、かいぐんしょーへいびきょくきんむをけいけんし、このかんにみしがんだいがくでこーがくしゅーしのがくいをえた。	NO_LABEL
1939年6月に駆逐艦マグフォードの艦長となり、1940年半ばから1942年末までは海軍砲熕工場勤務で、中佐に昇進した。	NO_PRONOUNCE	NO_LABEL
太平洋戦争開戦で、粘り強い努力によって南太平洋戦域へ転出したバークは、第43駆逐隊司令、第44駆逐隊司令、第12駆逐戦隊司令官となり、戦時昇進で大佐となった。	NO_PRONOUNCE	NO_LABEL
1943年10月には、「リトル・ビーバーズ」として知られる第23駆逐戦隊の司令官となり、同年11月にブーゲンビル島上陸作戦の支援にあたった。	NO_PRONOUNCE	NO_LABEL
同戦隊は、それから4ヶ月の間にセント・ジョージ岬沖海戦など22回の戦闘に参加して、日本海軍の巡洋艦1隻、駆逐艦9隻、潜水艦1隻などを撃沈破、航空機約30機を撃墜した。	NO_PRONOUNCE	NO_LABEL
バークはいつも麾下の駆逐艦を最高速度で走らせていた。	ばーくわいつもきかのくちくかんをさいこーそくどではしらせていた。	NO_LABEL
しかし、セント・ジョージ岬沖海戦前、合流地点へ向かう際は、彼の部隊は駆逐艦スペンスでのボイラー事故のため本来なら出せた34ノット以上ではなく31ノットに制限されていた。	NO_PRONOUNCE	NO_LABEL
このことから31ノットバークというあだながついた。	NO_PRONOUNCE	NO_LABEL
1944年3月に太平洋艦隊の高速空母機動部隊、第58任務部隊司令官マーク・ミッチャー中将の参謀長となり、戦時昇進で代将となって、1945年6月までその職にあった。	NO_PRONOUNCE	NO_LABEL
沖縄戦でミッチャー司令官が旗艦としていた空母バンカー・ヒルとエンタープライズが相次いで特攻機の攻撃を受けた際には、参謀長のバークも乗り組んでいた。	おきなわせんでみっちゃーしれいかんがきかんとしていたくーぼばんかーひるとえんたーぷらいずがあいついでとっこーきのこーげきをうけたさいにわ、さんぼーちょーのばーくものりくんでいた。	NO_LABEL
その後、短期間の海軍省兵備局勤務から、1946年に大西洋艦隊司令長官となったミッチャー大将の参謀長を務め、また太平洋戦争後は大佐の階級に戻った。	そのご、たんきかんのかいぐんしょーへいびきょくきんむから、せんきゅうひゃくよんじゅうろくねにたいせいよーかんたいしれいちょーかんとなったみっちゃーたいしょーのさんぼーちょーをつとめ、またたいへいよーせんそーごわたいさのかいきゅーにもどった。	NO_LABEL
朝鮮戦争が勃発すると、海軍作戦部長フォレスト・シャーマン大将は、極東艦隊参謀副長としてバークを日本へ派遣した。	ちょーせんせんそーがぼっぱつすると、かいぐんさくせんぶちょーふぉれすとしゃーまんたいしょーわ、きょくとーかんたいさんぼーふくちょーとしてばーくをにっぽんえはけんした。	NO_LABEL
バークは巡洋艦隊を指揮し、1951年7月に国連軍休戦会談代表団の一員となった。	ばーくわじゅんよーかんたいをしきし、せんきゅうひゃくごじゅういちねんしちがつにこくれんぐんきゅーせんかいだんだいひょーだんのいちいんとなった。	NO_LABEL
その後、バークは、海軍作戦部戦略計画部長、第6巡洋艦隊司令官、大西洋艦隊駆逐艦隊司令官を歴任し、1955年8月、海軍作戦部長に就任して、少将から直接、大将に昇進した。	NO_PRONOUNCE	NO_LABEL
1961年8月に海軍作戦部長退任と同時に退役。	せんきゅうひゃくろくじゅういちねんはちがつにかいぐんさくせんぶちょーたいにんとどーじにたいえき。	NO_LABEL
1991年にアーレイバーク級駆逐艦の1番艦がバークにちなんで存命中に命名された。	せんきゅうひゃくきゅうじゅういちねんにあーれいばーくきゅーくちくかんのいちばんかんがばーくにちなんでぞんめいちゅーにめいめいされた。	NO_LABEL
1996年1月1日にベセスダの海軍病院で没した。	せんきゅうひゃくきゅうじゅうろくねんいちがつついたちにべせすだのかいぶんびょーいんでぼっした。	NO_LABEL
94歳。	きゅうじゅうよんさい。	NO_LABEL
バークが死去した際には哀悼の念を表するため、就役済の全アーレイバーク級駆逐艦が1分間、31ノットで航行した。	NO_PRONOUNCE	NO_LABEL
太平洋戦争終戦後、暫くはかつての敵であった日本人に対し否定的な感情を持っていた。	たいへいよーせんそーしゅーせんご、しばらくわかつてのてきであったにっぽんじんにたいしひていてきなかんじょーをもっていた。	NO_LABEL
公の場で日本人を「ジャップ」「黄色い猿ども」と侮蔑的に呼び、露骨に日本人を蔑み嫌う等、反日的・嫌日的な態度を取っていたが、ふとしたきっかけで元海軍中将草鹿任一と知り合い親交を持つようになると、以前とはうって変わって親日家となり、日本が早く占領状態から解放されるように軍人の立場から尽力、海上自衛隊の創設に協力することとなる。	NO_PRONOUNCE	NO_LABEL
この功により1961年に勲一等旭日大綬章を授与された。	このこーによりせんきゅうひゃくろくじゅういちねんにくんいっとーきょくじつだいじゅしょーをじゅよされた。	NO_LABEL
他にも生前の様々な功績により、アメリカはもちろん各国から数多の勲章を授与されていたが、バークの遺志により、葬儀で遺体の胸につけられていたのは日本の旭日大綬章ただ一つだけであった。	たにもせいぜんのさまざまなこーせきにより、あめりかわもちろんかっこくからすーたのくんしょーをじゅよされていたが、ばーくのいしにより、そーぎでいたいのむねにつけられていたのわにっぽんのあさひだいじゅしょーただひとつだけであった。	NO_LABEL
そのため、ワシントンにある海軍博物館のバークに関する展示には、各国から授与された勲章は展示されているが、日本から受勲された旭日大綬章の実物だけは抜けた形となっている。	そのため、わしんとんにあるかいぐんはくぶつかんのばーくにかんするてんじにわ、かっこくからじゅよされたくんしょーわてんじされているが、にっぽんからじゅくんされたあさひだいじゅしょーのじつぶつだけわぬけたかたちとなっている。	NO_LABEL
部下からかつての敵、ラバウル方面海軍最高司令官の草鹿中将が公職追放により、鉄道工事現場でツルハシを持って糊口を凌いでいるという話を耳にする。	ぶかからかつてのてき、らばうるほーめんかいぐんさいこーしれいかんのくさかちゅーじょーがこーしょくついほーにより、てつどーこーじげんばでつるはしをもってここーをしのいでいるとゆうはなしをみみにする。	NO_LABEL
「飢えさせておけ」と答えてみたものの、同じ立場にあった軍人として居ても立ってもいられなくなり、匿名で食料を送る事にした。	NO_PRONOUNCE	NO_LABEL
すると数日後、草鹿本人が怒鳴り込んで来た。	するとすーにちご、くさかほんにんがどなりこんできた。	NO_LABEL
「侮辱するな！アメリカ人の世話にはならない！」それだけ言って怒りながら出て行った草鹿にバークは好感を持った。	NO_PRONOUNCE	NO_LABEL
自分が草鹿の立場だったら、同じ事をしたに違いないからだ。	じぶんがくさかのたちばだったら、おなじことをしたにちがいないからだ。	NO_LABEL
バークが後日改めて草鹿を他の海軍提督達と共に帝国ホテルの食事に招待した時、草鹿が一番英語が達者なのに驚いた。	ばーくがごじつあらためてくさかをたのかいぐんていとくたちとともにていこくほてるのしょくじにしょーたいしたとき、くさかがいちばんえいごがたっしゃなのにおどろいた。	NO_LABEL
和んだ食事会の最後で草鹿が「親切なバーク氏と自分が任務を全うしなかった事に乾杯しよう。	NO_PRONOUNCE	NO_LABEL
任務を全うしていたらバーク氏は死に、今日の美味しいステーキは食べられなかった」と言うと負けじと「私も任務を全うしなかった事に乾杯しよう。	NO_PRONOUNCE	NO_LABEL
任務を全うしていたら草鹿氏は死に、今日の美味しいステーキは誰も食べられなかった」と答えた。	NO_PRONOUNCE	NO_LABEL
朝鮮戦争時、日本のホテルに宿泊している時、メイク係が乏しい給料の中から花を買いバークの部屋に活けていた。	ちょーせんせんそーじ、にっぽんのほてるにしゅくはくしているとき、めいくがかりがとぼしいきゅーりょーのなかからはなをかいばーくのへやにいけていた。	NO_LABEL
その行為に対しバークがチップを払おうとするがメイク係は「私はただお客様に心地よく過ごしていただきたいと思っただけです」と受け取らなかった。	NO_PRONOUNCE	NO_LABEL
戦争未亡人でもあるメイク係がアメリカ人である自分を嫌わず出来るもてなしをしようとするその行為に嫌日感情が消えていったとされる。	せんそーみぼーじんでもあるめいくがかりがあめりかじんであるじぶんをきらわずできるもてなしをしよーとするそのこーいにけんにちかんじょーがきえていったとされる。	NO_LABEL
東日本大震災におけるトモダチ作戦に従事した空母「ロナルド・レーガン」の艦長トム・バーク大佐は彼の孫に当たると日本のテレビ番組で放送されたが間違い。	NO_PRONOUNCE	NO_LABEL
ファミリーネームが同じだけで血縁関係は無い	ふぁみりーねーむがおなじだけでけつえんかんけいわない	NO_LABEL
