官僚的なソナチネはエリック・サティのピアノ独奏曲で、1917年に作曲された。	かんりょーてきなそなちねわえりっくさてぃのぴあのどくそーきょくで、せんきゅうひゃくじゅうしちねんにさっきょくされた。	NO_LABEL
ソナチネの教本などで知られているムツィオ・クレメンティの『ソナチネ ハ長調』作品36-1をパロディ化したものである。	NO_PRONOUNCE	NO_LABEL
楽譜の行間には、ひとりの役人が朝役所へ出勤し、夕方役所を後にするまでの一日の出来事が物語りのように綴られている。	がくふのぎょーかんにわ、ひとりのやくにんがあさやくしょえしゅっきんし、ゆーがたやくしょをごにするまでのひといちのできごとがものがたりのよーにつずられている。	NO_LABEL
曲は、区切れ無しの3楽章からなる。	NO_PRONOUNCE	NO_LABEL
