株式会社メヂカルフレンド社は、1947年に創業した看護・保健医療・福祉系出版社である。	NO_PRONOUNCE	NO_LABEL
本社所在地は、東京都千代田区九段北3-2-4。	NO_PRONOUNCE	NO_LABEL
市ヶ谷駅下車、靖国通りを九段下方向へ。	いちがやえきげしゃ、やすくにどーりをくだんしたほーこーえ。	NO_LABEL
一口坂と交わったところにある。	ひとくちざかとまじわったところにある。	NO_LABEL
主に、看護の領域で専門誌を発行する。	おもに、かんごのりょーいきでせんもんしをはっこーする。	NO_LABEL
他、多数発刊。	た、たすーはっかん。	NO_LABEL
