天塚町は、愛知県名古屋市西区の地名。	あまずかちょーわ、あいちけんなごやしにしくのちめい。	NO_LABEL
1丁目から4丁目がある。	NO_PRONOUNCE	NO_LABEL
郵便番号は451-0021。	NO_PRONOUNCE	NO_LABEL
当地域の人口は1042世帯・2433人。	NO_PRONOUNCE	NO_LABEL
住居表示未実施。	じゅーきょひょーじみじっし。	NO_LABEL
名古屋市西区の東部に位置する。	なごやしにしくのとーぶにいちする。	NO_LABEL
東は貝田町、西は庄内通、南は城北町、北は香呑町に接する。	ひがしわかいだちょー、にしわしょーないとーり、みなみわしろきたちょー、きたわこーのみちょーにせっする。	NO_LABEL
東から1丁目から4丁目まである。	NO_PRONOUNCE	NO_LABEL
国勢調査による人口の推移	こくせいちょうさによるじんこーのすいい	NO_LABEL
