金子ハルオは、日本の経済学者、東京都立大学・大妻女子大学名誉教授。	NO_PRONOUNCE	NO_LABEL
茨城県新治郡千代田村出身。	いばらきけんにいはりぐんちよだむらしゅっしん。	NO_LABEL
1953年東京大学経済学部卒。	せんきゅうひゃくごじゅうさんねんとーきょーだいがくけいざいがくぶそつ。	NO_LABEL
1959年同大学院社会科学研究科理論経済学博士課程満期退学。	せんきゅうひゃくごじゅうきゅうねんどーだいがくいんしゃかいかがくけんきゅーかりろんけいざいがくはかせかていまんきたいがく。	NO_LABEL
1959年東京都立大学法経学部助手、1961年講師、1962年助教授、1970年経済学部教授、1975年-1979年・1981年-1985年経済学部長。	NO_PRONOUNCE	NO_LABEL
1992年定年退官、大妻女子大学社会情報学部教授、学部長、2000年同名誉教授。	せんきゅうひゃくきゅうじゅうにねんていねんたいかん、おーつまじょしだいがくしゃかいじょーほーがくぶきょーじゅ、がくぶちょー、にせんねんどーめいよきょーじゅ。	NO_LABEL
1969年「生産的労働と国民所得」で東大経済学博士。	NO_PRONOUNCE	NO_LABEL
1978年-1984年日本学術会議会員。	せんきゅうひゃくななじゅうはちねんまいなすいちきゅうひゃくはちじゅうよんねんにっぽんがくじゅつかいぎかいいん。	NO_LABEL
