『おふこうさん』は、NHK BSプレミアムで2014年1月7日から毎週火曜23:15 - 23:45に放送されていた日本のテレビドラマ。	NO_PRONOUNCE	NO_LABEL
主演は貫地谷しほり。	しゅえんわかんじやしほり。	NO_LABEL
キャッチコピーは「恋に、仕事に、どつぼにはまる。	NO_PRONOUNCE	NO_LABEL
毎度、多大なるお不幸をおかけします。	まいど、ただいなるおふこーをおかけします。	NO_LABEL
」。	NO_PRONOUNCE	NO_LABEL
生まれた時から自分とその身辺に不幸な出来事が次々と起こるため、千倉つぐみは地元で「不幸の嵐を呼ぶ女」と呼ばれる。	NO_PRONOUNCE	NO_LABEL
妹の結婚を機に、そんな状況を打開しようと上京するが、就職先の会社へ向かう途中に出会った車を橋から転落させてしまう。	いもーとのけっこんをきに、そんなじょーきょーをだかいしようとじょーきょーするが、しゅーしょくさきのかいしゃえむかうとちゅーにであったくるまをはしからてんらくさせてしまう。	NO_LABEL
その車を運転したのは新しいコンセプトの会社を経営している栄だった。	そのくるまをうんてんしたのわあたらしいこんせぷとのかいしゃをけいえいしているさかえだった。	NO_LABEL
栄は治療を受けていた病院で会ったつぐみを一目で気に入ってしまう。	さかえわちりょーをうけていたびょーいんであったつぐみをいちもくできにいってしまう。	NO_LABEL
栄はつぐみに車の弁償をせまり、その返済を自分の会社で働いて返すよう説得。	さかえわつぐみにくるまのべんしょーをせまり、そのへんさいをじぶんのかいしゃではたらいてかえすよーせっとく。	NO_LABEL
つぐみは会社の秘書として雇われる事になる。	つぐみわかいしゃのひしょとしてやとわれることになる。	NO_LABEL
