『闘争出版社』（）とは、1926年3月グレゴール、オットー・シュトラッサー兄弟らによって設立された国家社会主義ドイツ労働者党の出版社である。	NO_PRONOUNCE	NO_LABEL
かつてナチス左派の影響下にあったナチ党の機関紙「国民社会主義通信（Nationalsozialistische Briefe)」がバンベルク会議の後、グレゴールの私的な見解を伝えるジャーナルと化したうえ正式に党を代表するジャーナルではなくなった為、新たに出版社を設立することとなった。	NO_PRONOUNCE	NO_LABEL
1926年3月、兄弟はグレゴールがランツフートの薬局を抵当に入れて調達した資金とオットーがヘルトリングにあった会社をやめた際に得た退職金をもとに、「闘争出版社」を設立し、ミュンヘン・ナチの息のかかった「フランツ・エーア社()」に対抗して宣伝活動を続けていた。	NO_PRONOUNCE	NO_LABEL
闘争出版社はハンマーと剣とハーケンクロイツが交差した図柄を商標としていた。	とーそーしゅっぱんしゃわはんまーとけんとはーけんくろいつがこーさしたずがらをしょーひょーとしていた。	NO_LABEL
闘争出版社は、さまざまの単行本の他にも	とーそーしゅっぱんしゃわ、さまざまのたんこーぼんのたにも	NO_LABEL
「ベルリン労働者新聞」	NO_PRONOUNCE	NO_LABEL
「国民社会主義者」	NO_PRONOUNCE	NO_LABEL
「ザクセン物見」	NO_PRONOUNCE	NO_LABEL
「マルク・ブランデンブルク物見」	NO_PRONOUNCE	NO_LABEL
「ライン・ヴェストファーレン労働者新聞」	NO_PRONOUNCE	NO_LABEL
「こぶし」	NO_PRONOUNCE	NO_LABEL
等の週刊誌や日刊紙を次々に出し、当時のジャーナリズム界を牛耳っていたフーゲンベルク・コンツェルンに匹敵するジャーナリズム王国を打ち立てたものとして評価を受け、ナチス左派のみならず、「旧社会主義者」、「ブント・オーバーラント」」、ブント青年団などの、国民革命派がその論陣を張る場を提供した。	NO_PRONOUNCE	NO_LABEL
国会議員で人種派から別れてナチに鞍替えしたレーヴェントロー伯、ヘルベルト・ブランク、ルドルフ・ユング ()らが闘争出版社に関係していた。	NO_PRONOUNCE	NO_LABEL
こうした派手な出版活動はライバル誌であるゲッベルスの攻撃誌との激しい対立を生み双方の読者間の乱闘騒ぎにまで発展し、シュトラッサー兄弟は闘争出版社をベルリンからブランデンブルク管区に属すレーニッツに移した。	こーしたはでなしゅっぱんかつどーわらいばるしであるげっべるすのこーげきしとのはげしいたいりつをうみそーほーのどくしゃかんのらんとーさわぎにまではってんし、しゅとらっさーきょーだいわとーそーしゅっぱんしゃをべるりんからぶらんでんぶるくかんくにぞくすれーにっつにうつした。	NO_LABEL
しかし、ゲッベルスのみならず、ヒトラーにとって目障りで脅威の存在となっていたことはいうまでもなく、1930年1月、ヒトラー、グレゴール、オットー、ヒンケル()の会談がヘスやアマンも交えて開かれた。	しかし、げっべるすのみならず、ひとらーにとってめざわりできょーいのそんざいとなっていたことわいうまでもなく、せんきゅうひゃくさんじゅうねんいちがつ、ひとらー、ぐれごーる、おっとー、ひんけるかっこのかいだんがへすやあまんもまじえてひらかれた。	NO_LABEL
ヒトラーは闘争出版社の活動を自粛するよう申し入れ、今度は出版社を買い取る意向を示した。	ひとらーわとーそーしゅっぱんしゃのかつどーをじしゅくするよーもーしいれ、こんどわしゅっぱんしゃをかいとるいこーをしめした。	NO_LABEL
軟化した態度を示すグレゴールは示談に乗ろうとしたが、オットーは激しく反対し、ヒトラーと闘鶏の如く対峙した。	なんかしたたいどをしめすぐれごーるわじだんにのろうとしたが、おっとーわはげしくはんたいし、ひとらーととーけいのごとくたいじした。	NO_LABEL
二人の会話は平行線を辿り、結局話は不調に終わった。	ふたりのかいわわへいこーせんをたどり、けっきょくばなしわふちょーにおわった。	NO_LABEL
1930年4月、ザクセンの金属労働者のスト問題をめぐって闘争出版社の「ザクセン物見」がスト支持の態度を表明したのに反して、財政やフーゲンベルクや鉄兜団の反動保守勢力と連携を深めていたヒトラーが、ストに反対しなければナチへの資金援助を打ち切るとの電報を受け取ってオットーにスト支持の撤回を迫ったことはオットーとヒトラーの仲を更に嫌悪化させた。	NO_PRONOUNCE	NO_LABEL
5月21日22日の2日間に渡りサンスシー・ホテルにて二人は再び対決する。	NO_PRONOUNCE	NO_LABEL
ヒトラー 「闘争出版社」は我が党にとって有害な企画と私は宣言する。	NO_PRONOUNCE	NO_LABEL
私は如何なる党員にも君の新聞と何らかの関係をもつことを禁じ、君や君の支持者達を君もろとも党から追放する」	NO_PRONOUNCE	NO_LABEL
これしきのおどしにすくむオットーではなく、	これしきのおどしにすくむおっとーでわなく、	NO_LABEL
オットー 「ヒトラーさん、さようなことは貴方には朝飯前でしょうが、それは我々の革命的な社会主義者としての思想における深い亀裂を強調するのに役立つだけです。	NO_PRONOUNCE	NO_LABEL
「闘争出版社」打倒に対して貴方がくっつけておられる本当の理由は、貴方のブルジョワ諸政党との新たな協調のために、あなたが社会革命と闘おうとしているということだ」	NO_PRONOUNCE	NO_LABEL
ヒトラー 「私は社会主義者であり、君の金持ちの友人レーヴェントローなんかとは全く類いを異にした社会主義者だ。	NO_PRONOUNCE	NO_LABEL
私もかつてはしがない労働者だった。	わたしもかつてはしがないろーどーしゃだった。	NO_LABEL
君の言っているような社会主義はマルクス主義以外のなにものでもない。	きみのいっているよーなしゃかいしゅぎわまるくすしゅぎいがいのなにものでもない。	NO_LABEL
私がやらなければならないのは、君みたいな哀れみの道徳性によって操られることを自らに許さぬ人々を、新たな支配層から選ぶことだ。	わたしがやらなければならないのわ、きみみたいなあわれみのどーとくせいによってあやつられることをみずからにゆるさぬひとびとを、あらたなしはいそーからえらぶことだ。	NO_LABEL
支配する人間は自分が優等人種に属しているが故、支配する権利をもっていることを知らねばならぬ」	NO_PRONOUNCE	NO_LABEL
オットーはヒトラーの人種論に反論した	おっとーわひとらーのじんしゅろんにはんろんした	NO_LABEL
オットー 「ローゼンベルクさんに負うている貴方の人種思想はドイツ国民の創造たるべき国民社会主義の大きな使命と全く矛盾するばかりではなく、ドイツ民族の崩壊をもたらすに似つかわしい」	NO_PRONOUNCE	NO_LABEL
ヒトラーはむきになり自分の人種論の十八番をぶちまくった。	ひとらーわむきになりじぶんのじんしゅろんのじゅーはちばんをぶちまくった。	NO_LABEL
ヒトラー 「君が説いているのはリベラリズムだ。	NO_PRONOUNCE	NO_LABEL
革命は一つしかない。	かくめいわひとつしかない。	NO_LABEL
それは人種革命だ。	それわじんしゅかくめいだ。	NO_LABEL
権力の座にある優等人種に対する劣等人種との闘争であり、この法則を忘れたあかつきには革命は敗北する。	けんりょくのざにあるゆーとーじんしゅにたいするれっとーじんしゅとのとーそーであり、このほーそくをわすれたあかつきにわかくめいわはいぼくする。	NO_LABEL
あらゆる革命は人種的だったのだ。	あらゆるかくめいわじんしゅてきだったのだ。	NO_LABEL
ローゼンベルクの新刊を読めば君も納得するはずだ。	ろーぜんべるくのしんかんをよめばきみもなっとくするはずだ。	NO_LABEL
というのもこの種の中でも最も説得力ある本でヒューストン・チェンバレンの本よりも素晴らしいからだ。	NO_PRONOUNCE	NO_LABEL
君はインドの独立運動が勇敢なアングロ・ゲルマン人種に対するヒンドゥー教劣等人種の反逆であることが歴然としているのに、公然とインドの独立運動支持を表明したではないか。	NO_PRONOUNCE	NO_LABEL
ゲルマン民族は世界支配の権利をもつのであり、この権利は我が外交政策の指導原理となるであろう」	NO_PRONOUNCE	NO_LABEL
オットー 「しかし、ヒトラーさん、その様な考えは決して外交政策の基盤たり得ない。	NO_PRONOUNCE	NO_LABEL
私にとって大切な問題は政治情勢がドイツにとって有利か、不利かということだけだ。	わたしにとってたいせつなもんだいわせいじじょーせいがどいつにとってゆーりか、ふりかとゆうことだけだ。	NO_LABEL
我々を導くのは共感や敵意の配慮ではない。	われわれをみちびくのわきょーかんやてきいのはいりょでわない。	NO_LABEL
ドイツ外交政策の主要目的の一つはヴェルサイユ条約の廃止でなければならない」	NO_PRONOUNCE	NO_LABEL
オットーはバンベルク会議でヒトラー派に否定されたシュトラッサー草案を置きながら切り出した。	おっとーわばんべるくかいぎでひとらーはにひていされたしゅとらっさーそーあんをおきながらきりだした。	NO_LABEL
オットー 「貴方の描いておられる革命は、資本主義にもマルクス主義にも反対する革命であるのか？	NO_PRONOUNCE	NO_LABEL
我々の宣伝がドイツ的社会主義達成の為に等しく双方を攻撃しなければならぬことをお認めになるか？」	NO_PRONOUNCE	NO_LABEL
ヒトラーは叫んだ	ひとらーわさけんだ	NO_LABEL
ヒトラー 「その考えはマルクス主義だ！	NO_PRONOUNCE	NO_LABEL
まごうことなくボルシェヴィズムだ！	NO_PRONOUNCE	NO_LABEL
民主主義は世界を破滅させた。	みんしゅしゅぎわせかいをはめつさせた。	NO_LABEL
にもかかわらず君は偉大な学者や、発明家の個人的努力によってのみ達成された人間の進歩を全部御破算にしている」	NO_PRONOUNCE	NO_LABEL
オットー 「ヒトラーさん、私は人類の進歩など信じてはいない。	NO_PRONOUNCE	NO_LABEL
これらの偉人、指導者が果たした役割は貴方が考えておられるところとは違う。	これらのいじん、しどーしゃがはたしたやくわりわあなたがかんがえておられるところとわちがう。	NO_LABEL
歴史の偉大な時期を作り出したり発明するのは人間ではない。	れきしのいだいなじきをつくりだしたりはつめいするのわにんげんでわない。	NO_LABEL
それどころか、彼らは運命の使者であり、その道具だ」	NO_PRONOUNCE	NO_LABEL
カリスマ神話の仮面を剥ぎ取るオットーの言い方にヒトラーは怒った。	かりすましんわのかめんをはぎとるおっとーのいーかたにひとらーわおこった。	NO_LABEL
ヒトラー 「君は私が国民社会主義の創造者たることを否定するのか？」	NO_PRONOUNCE	NO_LABEL
オットー 「そうです。	NO_PRONOUNCE	NO_LABEL
国民社会主義は、我々が生きている時代から生まれた思想だ。	こくみんしゃかいしゅぎわ、われわれがいきているじだいからうまれたしそーだ。	NO_LABEL
それは、何百万という人々の心の中に存在しているものであり、貴方の中にも化身となっているものだ。	それわ、なにひゃくまんとゆうひとびとのこころのなかにそんざいしているものであり、あなたのなかにもけしんとなっているものだ。	NO_LABEL
かくも多くの人々の中にそれが生まれたという同時性は、その歴史的必然を証明するものであり、また、資本主義の時代が終わったということを証明するものだ」	NO_PRONOUNCE	NO_LABEL
オットーは単刀直入に最後の駄目押しをした。	おっとーわたんとーちょくにゅーにさいごのだめおしをした。	NO_LABEL
オットー 「明日、貴方が天下をお取りになれば、クルップをそのままにしておくおつもりか？」	NO_PRONOUNCE	NO_LABEL
こうして、二人の話し合いは1月の会談と同様またもやもの別れに終わった。	こーして、ふたりのはなしあいわいちがつのかいだんとどーよーまたもやものわかれにおわった。	NO_LABEL
「敵を非難するが友人を一人も知らぬ男」、「愛することを知らぬ憎悪する誇大妄想狂」、「バランスの欠けた男」	NO_PRONOUNCE	NO_LABEL
これが長年にわたる激しい論争の末にオットーが抱いたヒトラー像の結論だった。	これがながねんにわたるはげしいろんそーのすえにおっとーがだいたひとらーぞーのけつろんだった。	NO_LABEL
1930年7月3日、オットーはもはやこれまでとヒトラーに最後通牒を送りヒトラーがこれを黙殺したのは言うまでもない。	せんきゅうひゃくさんじゅうねんしちがつみっか、おっとーわもはやこれまでとひとらーにさいごつうちょーをおくりひとらーがこれをもくさつしたのわいうまでもない。	NO_LABEL
こうしてオットーを中心とした党内左派グループは1930年7月4日	こーしておっとーをちゅーしんとしたとーないさはぐるーぷわせんきゅうひゃくさんじゅうねんしちがつよっか	NO_LABEL
「ソーシャリスト、ナチ党を去る」	NO_PRONOUNCE	NO_LABEL
という声明文を出して党を去っていった。	とゆうせいめいぶんをだしてとーをさっていった。	NO_LABEL
彼らと心情を同じくするとはいえ、グレゴールをはじめ、一部のナチス左派の幹部は党内にとどまった。	かれらとしんじょーをどうじくするとわいえ、ぐれごーるをはじめ、いちぶのなちすさはのかんぶわとーないにとどまった。	NO_LABEL
