イバン・ラベネルは、アメリカ合衆国の男子バスケットボール選手である。	いばんらべねるわ、あめりかがっしゅーこくのだんしばすけっとぼーるせんしゅである。	NO_LABEL
フロリダ州、タンパ出身。	ふろりだしゅー、たんぱしゅっしん。	NO_LABEL
身長203cm、体重113kgで、ポジションはパワーフォワード、センター。	しんちょーにひゃくさんせんちめーとる、たいじゅーひゃくじゅうさんきろぐらむで、ぽじしょんわぱわーふぉわーど、せんたー。	NO_LABEL
Bリーグ、B1の秋田ノーザンハピネッツに所属している。	あるいはびーりーぐ、びーわんのあきたのーざんはぴねっつにしょぞくしている。	NO_LABEL
bjリーグの2015-16シーズンにおいて琉球ゴールデンキングスに所属し、ファイナルズのMVPを受賞した。	NO_PRONOUNCE	NO_LABEL
2008年にボストンカレッジに入学し、2010年まで在籍。	にせんはちねんにぼすとんかれっじににゅーがくし、にせんじゅうねんまでざいせき。	NO_LABEL
その後オハイオ州立大学に転籍する。	そのごおはいおしゅーりつだいがくにてんせきする。	NO_LABEL
規定によって2010-11シーズンは出場できなかったが、2011-12シーズンはビッグ・テン・カンファレンス優勝とNCAAトーナメントベスト4、2012-13シーズンはカンファレンス準優勝とNCAAトーナメントベスト8に貢献した。	NO_PRONOUNCE	NO_LABEL
2013年のNBAドラフトで指名を受けなかったラベネルはアメリカの独立リーグUBAの試合に7試合出場し、その後ブルガリアのと契約する。	NO_PRONOUNCE	NO_LABEL
リルスキではレギュラーシーズンとユーロリーグ合わせて32試合に出場し、一試合平均13.12得点を挙げた。	NO_PRONOUNCE	NO_LABEL
2014-15シーズンはポーランドのと契約し、12試合で平均18.5得点の記録を残した。	NO_PRONOUNCE	NO_LABEL
2015年10月、日本のbjリーグに所属する琉球ゴールデンキングスと契約する。	にせんじゅうごねんじゅーがつ、にっぽんのびーじぇーりーぐにしょぞくするりゅーきゅーごーるでんきんぐすとけいやくする。	NO_LABEL
琉球では2015-16レギュラーシーズン52試合中50試合に出場し、1試合平均17.3得点と10.8リバウンドを挙げた。	NO_PRONOUNCE	NO_LABEL
琉球はファイナルで富山グラウジーズと対戦し、ラベネルは両チームを通じて最多の22得点を挙げ勝利に貢献、ラベネルはMVPを受賞した。	りゅーきゅーわふぁいなるでとやまぐらうじーずとたいせんし、らべねるわりょーちーむをつーじてさいたのにじゅうにとくてんをあげしょーりにこーけん、らべねるわえむぶいぴーをじゅしょーした。	NO_LABEL
2016年6月21日、琉球はラベネルの退団を発表した	にせんじゅうろくねんろくがつにじゅういちにち、りゅーきゅーわらべねるのたいだんをはっぴょーした	NO_LABEL
2016年8月4日、ラベネルはイスラエルのと2年契約を結んだ。	にせんじゅうろくねんはちがつよっか、らべねるわいすらえるのとにねんけいやくをむすんだ。	NO_LABEL
しかし10月13日、チームはジャリッド・フェイマスと契約し、ラベネルとの契約を解除した。	しかしじゅーがつじゅうさんにち、ちーむわじゃりっどふぇいますとけいやくし、らべねるとのけいやくをかいじょした。	NO_LABEL
2016年11月にはベルギーのと契約するが、4試合に出場しただけで12月に解雇された。	にせんじゅうろくねんじゅーいちがつにわべるぎーのとけいやくするが、よんしあいにしゅつじょーしただけでじゅーにがつにかいこされた。	NO_LABEL
2017年1月16日、Bリーグ1部の秋田ノーザンハピネッツと契約した。	にせんじゅうななねんいちがつじゅうろくにち、あるいはびーりーぐいちぶのあきたのーざんはぴねっつとけいやくした。	NO_LABEL
