『東京最新版!』とは、1990年代頃、日本テレビ以外のNNS加盟局で放送されていたミニ番組である。	NO_PRONOUNCE	NO_LABEL
地方在住者に東京都内の最新トレンドやスポット等を紹介する。	ちほーざいじゅーしゃにとーきょーとないのさいしんとれんどやすぽっととーをしょーかいする。	NO_LABEL
開始当初は番組のリポーターを日本テレビの女性アナウンサーが務め、2001年頃からはフリーアナウンサーなどが担当するようになり、最末期は羽田惠理香、その後、川瀬良子が務めた。	かいしとーしょわばんぐみのりぽーたーをにほんてれびのじょせいあなうんさーがつとめ、にせんいちねんごろからわふりーあなうんさーなどがたんとーするよーになり、さいまっきわはねだえりか、そのご、かわせりょーこがつとめた。	NO_LABEL
関東以外の地方局向けという特異な放送形態であったため、詳細な放送時期は不明であるが、少なくとも2002年頃まで放送されたことが確認されている。	かんとーいがいのちほーきょくむけとゆうとくいなほーそーけいたいであったため、しょーさいなほーそーじきわふめいであるが、すくなくともにせんにねんごろまでほーそーされたことがかくにんされている。	NO_LABEL
また、一部の系列局ではローカルニュース番組の1コーナーとして放送された。	NO_PRONOUNCE	NO_LABEL
