第36回皇后杯全日本女子サッカー選手権大会は、2014年11月29日から2015年1月1日にかけて開催された皇后杯全日本女子サッカー選手権大会である。	だいさんじゅうろっかいこーごーはいぜんにほんじょしさっかーせんしゅけんたいかいわ、にせんじゅうよねんじゅーいちがつにじゅうきゅうにちからにせんじゅうごねんいちがつついたちにかけてかいさいされたこーごーはいぜんにほんじょしさっかーせんしゅけんたいかいである。	NO_LABEL
今大会は例年とは異なり、第94回天皇杯決勝が、AFCアジアカップ2015に出場する男子日本代表の日程を考慮する形で年末開催に変更されたため、本大会の決勝は2015年1月1日に開催されることになった。	NO_PRONOUNCE	NO_LABEL
また今大会から優勝チームにチーム強化費300万円が授与される。	またこんたいかいからゆーしょーちーむにちーむきょーかひさんびゃくまんえんがじゅよされる。	NO_LABEL
2014年のなでしこリーグ所属の全10チームと、各地域の予選を勝ち上がった26チームの計36チームが本大会に出場する。	NO_PRONOUNCE	NO_LABEL
