7エンジェルズ・7プレイグス()はアメリカ合衆国ミルウォーキー出身のメタルコアバンドである。	NO_PRONOUNCE	NO_LABEL
解散から10年以上経った現在も、ミルウォーキーを中心に多くの若手ハードコア、メタルバンドに影響を与え続けている。	かいさんからじゅうねんいじょーたったげんざいも、みるうぉーきーをちゅーしんにおーくのわかてはーどこあ、めたるばんどにえいきょーをあたえつずけている。	NO_LABEL
1999年にCastahead、Intercedeの2バンドを前身として結成。	NO_PRONOUNCE	NO_LABEL
当初のメンバーはジャレッド・ローガン、カイル・ジョンソン、マット・マテラ、ライアン・モーガン、ティモ・リオスの5人。	NO_PRONOUNCE	NO_LABEL
2000年にリオスに代わりマット・ミクソンが加入。	NO_PRONOUNCE	NO_LABEL
同年、自主レーベルよりデモEP『Until the Day Breathes and the Shadows Flee』を発表しアメリカ中西部を周るツアーを行う 。	NO_PRONOUNCE	NO_LABEL
2001年にUprising Recordsより『Jhazmyne's Lullaby』をリリース。	NO_PRONOUNCE	NO_LABEL
この作品についてAllmusicは「グツグツした釜のような音」と称し、カナダの音楽雑誌Exclaim!は「非常に攻撃的、かつメロディアス」だと述べ、また音やアートワークなどにジャズからの影響についても指摘した。	NO_PRONOUNCE	NO_LABEL
アルバムのリリース後にミクソンが脱退し、それに伴ってリオスが復帰。	あるばむのりりーすごにみくそんがだったいし、それにともなってりおすがふっき。	NO_LABEL
その後のツアーでサポートを務めることになる。	そのごのつあーでさぽーとをつとめることになる。	NO_LABEL
しかしツアー真っ最中の2002年、同行していたCompromiseのメンバーが交通事故に遭ってしまう。	NO_PRONOUNCE	NO_LABEL
その矢先にリオスが再び脱退すると、Compromiseのボーカリストだったジェシー・ザラスカが加入。	NO_PRONOUNCE	NO_LABEL
数ヵ月後、中心メンバーだったローガンが脱退すると、間もなくバンドも解散となった。	すーかげつご、ちゅーしんめんばーだったろーがんがだったいすると、まもなくばんどもかいさんとなった。	NO_LABEL
解散後、Uprisingより『Until the Day Breathes and the Shadows Flee』のリマスター盤がリリースされた。	NO_PRONOUNCE	NO_LABEL
その後、メンバーはミザリー・シグナルズ、Dead to Fall、Burning Empireなどのバンドに参加し、活動を続けている。	NO_PRONOUNCE	NO_LABEL
2005年には再結成を果たし、3度に渡ってチャリティーライブを行った。	にせんごねんにわさいけっせいをはたし、さんどにわたってちゃりてぃーらいぶをおこなった。	NO_LABEL
同ライブにはミザリー・シグナルズのドラマー、ブレンダン・モーガンも参加した。	NO_PRONOUNCE	NO_LABEL
マテラはAmerican Modern Studiosを立ち上げ、レコーディング、マスタリングといった録音業を行っている。	NO_PRONOUNCE	NO_LABEL
