浜咲 恵利は、日本のAV女優。	はまさきえりわ、にっぽんのえーぶいじょゆー。	NO_LABEL
沖縄県出身。	おきなわけんしゅっしん。	NO_LABEL
身長:156cm。	NO_PRONOUNCE	NO_LABEL
スリーサイズ:B129・W105・H101cm。	NO_PRONOUNCE	NO_LABEL
2012年3月、アダルトビデオメーカー・シネマユニット・ガスの専属女優としてデビュー。	NO_PRONOUNCE	NO_LABEL
129cm・Oカップの爆乳女優である。	NO_PRONOUNCE	NO_LABEL
2013年9月にファイブプロモーションへ移籍した後、2014年よりフリー。	にせんじゅうさんねんくがつにふぁいぶぷろもーしょんえいせきしたのち、にせんじゅうよねんよりふりー。	NO_LABEL
