RD-214は、AK-27Iの混合物とTM-185をガス発生器サイクルで燃焼する液体ロケットエンジンである。	NO_PRONOUNCE	NO_LABEL
 V2ロケットのエンジンに影響された多くのエンジンと同様に、過酸化水素を触媒で分解して生じる蒸気で1台のタービンを駆動する。	NO_PRONOUNCE	NO_LABEL
同様に燃焼室と推力偏向はノズルの排気を偏流翼によって偏向する。	どーよーにねんしょーしつとすいりょくへんこーわのずるのはいきをへんりゅーつばさによってへんこーする。	NO_LABEL
