『MEMORIES 3 -Kahara Back to 1995-』は、華原朋美の3作目となるカバーアルバム。	NO_PRONOUNCE	NO_LABEL
2015年12月2日にユニバーサルJより発売。	にせんじゅうごねんじゅーにがつふつかにゆにばーさるじぇいよりはつばい。	NO_LABEL
『MEMORIES 1』『MEMORIES 2』に続くカバー・シリーズ第3弾。	NO_PRONOUNCE	NO_LABEL
自身のデビュー20周年ラストを飾る作品として発売される。	じしんのでびゅーにじゅうしゅーねんらすとをかざるさくひんとしてはつばいされる。	NO_LABEL
アルバム・コンセプトは、“デビューYear・1995年にリリースされたJ-POP大ヒットナンバーで送る20年前へのタイム・トラベル”。	NO_PRONOUNCE	NO_LABEL
サウンド・プロデュースは引き続き武部聡志が担当。	NO_PRONOUNCE	NO_LABEL
95年デビュー時の「keep yourself alive」や「I BELIEVE」の世界を彷彿とさせ、華原朋美の真骨頂といえるダンスビートを主軸にアレンジが展開されている。	NO_PRONOUNCE	NO_LABEL
アルバムのオープニングを飾る「ズルい女」では、オリジナルアーティストであるシャ乱Qのリーダー・はたけがギターで参加。	NO_PRONOUNCE	NO_LABEL
この共演に関して、はたけは、「これまでシャ乱Qの曲をつんく♂以外のヴォーカリストが歌う作品に参加することは避けてきたが、つんくの病気を機に別の方向性を考える機会をもらった。	NO_PRONOUNCE	NO_LABEL
本人歌唱のデモ音源を聴かせてもらって、つんくのヴォーカルスタイルを本当に大事にしてくれてるのが伝わる内容」だったため、カバー曲に参加した経緯を明かした。	NO_PRONOUNCE	NO_LABEL
ミュージックビデオでも共演しており、ビデオ自体も工場での撮影や、ビジュアル作りなど、シャ乱Q「ズルい女」へのオマージュを込めた映像となっている。	NO_PRONOUNCE	NO_LABEL
「ら・ら・ら」では、「元々ファンだった」という華原のオファーに応えて、オリジナルアーティスト・大黒摩季がコーラスで参加した。	NO_PRONOUNCE	NO_LABEL
他にも本作では、『MEMORIES 1』を上回る4曲の小室プロデュース楽曲を選曲。	NO_PRONOUNCE	NO_LABEL
「デビュー当時、私がよく聴かせて頂いた大好きな曲を選曲しました。	NO_PRONOUNCE	NO_LABEL
このアルバムを聴いて誰もがあの時に帰れるはずです。	このあるばむをきいてだれもがあのときにかえれるはずです。	NO_LABEL
」と本人コメント。	NO_PRONOUNCE	NO_LABEL
「デビュー20周年記念LIVE」 at Billboard Live TOKYO Documentary Film	NO_PRONOUNCE	NO_LABEL
