ブロムリー・ロンドン自治区は、イングランドのロンドン南東部にある、グレーター・ロンドンを構成する行政区の一つ。	ぶろむりーろんどんじちくわ、いんぐらんどのろんどんなんとーぶにある、ぐれーたーろんどんをこーせいするぎょーせいくのひとつ。	NO_LABEL
ロンドン市内を流れるテムズ川の南側に位置する。	ろんどんしないをながれるてむずがわのみなみがわにいちする。	NO_LABEL
区の名称は中心地区であるブロムリーに因む。	くのめいしょーわちゅーしんちくであるぶろむりーにちなむ。	NO_LABEL
地方自治体はブロムリー・ロンドン区カウンシル。	NO_PRONOUNCE	NO_LABEL
