賚北県は中華人民共和国吉林省にかつて存在した県。	らいほくけんわちゅーかじんみんきょーわこくきつりんしょーにかつてそんざいしたけん。	NO_LABEL
現在の白城市鎮賚県北部に相当する。	げんざいのはくじょうしちんらいけんほくぶにそーとーする。	NO_LABEL
国共内戦中、中国共産党により1946年に設置された。	こっきょーないせんちゅー、ちゅーごくきょーさんとーによりせんきゅうひゃくよんじゅうろくねにせっちされた。	NO_LABEL
翌年鎮東県と統合され廃止された。	よくねんちんとうけんととーごーされはいしされた。	NO_LABEL
