チャンピオン・ヒルは、イングランド・ロンドン・にあるスタジアム。	NO_PRONOUNCE	NO_LABEL
ダリッジ・ハムレットFCとフィッシャー・アスレティックFCのホームスタジアムとなっている。	NO_PRONOUNCE	NO_LABEL
収容人数は3,000人。	NO_PRONOUNCE	NO_LABEL
スタジアム改修以前は、イングランドにあるアマチュアグラウンドの中で最も大きなスタジアムで、観客は度々20,000人を超えていた。	NO_PRONOUNCE	NO_LABEL
