興亜専門学校は、1941年に設立された旧制専門学校で亜細亜大学の前身。	こーあせんもんがっこーわ、せんきゅうひゃくよんじゅういちねにせつりつされたきゅーせいせんもんがっこーであじあだいがくのぜんしん。	NO_LABEL
1941年4月財団法人興亜協会が創設され、同時に付属の興亜専門学校が設立された。	せんきゅうひゃくよんじゅういちねしがつざいだんほーじんこーあきょーかいがそーせつされ、どーじにふぞくのこーあせんもんがっこーがせつりつされた。	NO_LABEL
当時の国民的思想であった大東亜共栄圏建設のために有為な人材を養成する目的で開校した。	とーじのこくみんてきしそーであっただいとーあきょーえいけんけんせつのためにゆーいなじんざいをよーせいするもくてきでかいこーした。	NO_LABEL
興亜専門学校初代校長・興亜協会初代理事長は、陸軍軍人で貴族院議員となった菊池武夫。	NO_PRONOUNCE	NO_LABEL
他に岩田愛之助、藤原繁、太田耕造、松尾忠二郎らが中心的な人物である。	たにいわたあいのすけ、ふじわらしげる、おーたこうぞー、まつおちゅーじろーらがちゅーしんてきなじんぶつである。	NO_LABEL
設立には国士舘専門学校興亜科の藤原繁やその他の教職員が加わっていたため、学校法人国士舘及び国士舘大学の正史には興亜科が国士舘専門学校より分離したと記述がある。	せつりつにわこくしかんせんもんがっこーこーあかのふじわらしげるやそのたのきょーしょくいんがくわわっていたため、がっこーほーじんこくしかんおよびこくしかんだいがくのせいしにわこーあかがこくしかんせんもんがっこーよりぶんりしたときじゅつがある。	NO_LABEL
ただし興亜専門学校設置により興亜科は廃止となったのは事実である。	ただしこーあせんもんがっこーせっちによりこーあかわはいしとなったのわじじつである。	NO_LABEL
全寮制で第一部、第二部、第三部に分かれ、教員は早稲田大学、明治大学などから集められた。	ぜんりょーせいでだいいちぶ、だいにぶ、だいさんぶにわかれ、きょーいんわわせだだいがく、めいじだいがくなどからあつめられた。	NO_LABEL
卒業生に田中六助らがいる。	そつぎょーせいにたなかろくすけらがいる。	NO_LABEL
1945年9月25日に開かれた財団法人興亜協会の理事会で、興亜協会の寄附行為変更が決議され、財団法人興亜協会は財団法人日本経済専門学校に、興亜専門学校は日本経済専門学校と改称。	せんきゅうひゃくよんじゅうごねんくがつにじゅうごにちにひらかれたざいだんほーじんこーあきょーかいのりじかいで、こーあきょーかいのきふこーいへんこーがけつぎされ、ざいだんほーじんこーあきょーかいわざいだんほーじんにほんけいざいせんもんがっこーに、こーあせんもんがっこーわにほんけいざいせんもんがっこーとかいしょー。	NO_LABEL
大陸科、南洋科は廃止され、内地科を拡充した経済科が設置された。	たいりくか、なんよーかわはいしされ、ないちかをかくじゅーしたけいざいかがせっちされた。	NO_LABEL
その後、法人は学校法人猶興学園、学校法人亜細亜学園と、また、その設置する学校は日本経済短期大学、亜細亜大学と変遷する。	そのご、ほーじんわがっこーほーじんなおきょーがくえん、がっこーほーじんあじあがくえんと、また、そのせっちするがっこーわにほんけいざいたんきだいがく、あじあだいがくとへんせんする。	NO_LABEL
