日の丸自動車興業株式会社は、東京都文京区に本社を置く、主に貸切バス事業を運営するバス事業者である。	ひのまるじどーしゃこーぎょーかぶしきがいしゃわ、とーきょーとぶんきょーくにほんしゃをおく、おもにかしきりばすじぎょーをうんえいするばすじぎょーしゃである。	NO_LABEL
日の丸リムジングループに属する。	ひのまるりむじんぐるーぷにぞくする。	NO_LABEL
1963年に、日の丸自動車の貸切バス部門として営業を開始したのが始まりである。	せんきゅうひゃくろくじゅうさんねんに、ひのまるじどーしゃのかしきりばすぶもんとしてえいぎょーをかいししたのがはじまりである。	NO_LABEL
その後1980年代に分社化している。	そのごせんきゅうひゃくはちじゅうねんだいにぶんしゃかしている。	NO_LABEL
当初は東京都内のみを営業エリアとしていたが、1990年以降は東日本観光バス・むらさき観光・都自動車・八街観光自動車・エアポートバスらを買収・統合することで事業拡大を図り、現在は1都3県を営業区域としている。	NO_PRONOUNCE	NO_LABEL
このほか大東観光バスを傘下に加え、HMC大東を経てHMC東京を設立した。	このほかだいとーかんこーばすをさんかにくわえ、えいちえむしーだいとーをへてえいちえむしーとーきょーをせつりつした。	NO_LABEL
2015年以降は明星自動車を傘下に加え、明星観光バスを設立し、関西へ進出。	にせんじゅうごねんいこーわみょーじょーじどーしゃをさんかにくわえ、みょーじょーかんこーばすをせつりつし、かんさいえしんしゅつ。	NO_LABEL
続いて中央交通を傘下に収めた。	つずいてちゅーおーこうつーをさんかにおさめた。	NO_LABEL
また、地域企業をスポンサーにした無料巡回バスの運行も手がけている。	また、ちいききぎょーをすぽんさーにしたむりょーじゅんかいばすのうんこーもてがけている。	NO_LABEL
1970年以降、他社の車両とは差別化した豪華仕様のバスを導入し、スタンダード貸切車が多い関東地区では目立つ存在となっていた。	せんきゅうひゃくななじゅうねんいこー、たしゃのしゃりょーとわさべつかしたごーかしよーのばすをどーにゅーし、すたんだーどかしきりしゃがおーいかんとーちくでわめだつそんざいとなっていた。	NO_LABEL
それをさらに進める形で、1980年代にはドイツ製の輸入車両を相次いで導入、以後の同社の観光バスの特徴となっている。	それをさらにすすめるかたちで、せんきゅうひゃくはちじゅうねんだいにわどいつせいのゆにゅーしゃりょーをあいついでどーにゅー、いごのどーしゃのかんこーばすのとくちょーとなっている。	NO_LABEL
2007年7月現在の輸入車はネオプラン31台・デザインライン8台となっており、これは2007年7月現在の在籍車両の23%に相当する。	NO_PRONOUNCE	NO_LABEL
日本製の車両は大半が三菱車であるが、2006年には同社としては久しぶりの日野車としてセレガ、無料巡回バスや契約輸送では日野・ブルーリボンシティハイブリッドや日野・レインボーIIが導入されている。	NO_PRONOUNCE	NO_LABEL
他社の買収直後は、その事業者の車両を引き継いでおり、特に東日本観光バスから引き継いだ車両については「East J」というロゴを「East Coast」に変更した程度でそのまま使用していた。	NO_PRONOUNCE	NO_LABEL
2011年現在はHMC東京の車両の一部とエアポートバス事業部を除いて同社が購入した車両となっている。	にせんじゅういちねんげんざいわえいちえむしーとーきょーのしゃりょーのいちぶとえあぽーとばすじぎょーぶをのぞいてどーしゃがこーにゅーしたしゃりょーとなっている。	NO_LABEL
特徴的な車両としては、ネオプラン・スカイライナーの後半部分を中2階構造とした「アメリカンドリーム」や、2階席がオープン構造になっているオープントップバス「スカイバス」、左ハンドルのまま使用しているネオプラン・スターライナー「ベガス」などがある。	NO_PRONOUNCE	NO_LABEL
特に、スターライナーは日本全国でも14台しか輸入されていない上、左ハンドルでのスターライナー導入は日本唯一の事例。	NO_PRONOUNCE	NO_LABEL
また、無料巡回バスに使用されているデザインライン車も、営業車両としては日本唯一の導入例である。	また、むりょーじゅんかいばすにしよーされているでざいんらいんしゃも、えいぎょーしゃりょーとしてわにっぽんゆいいつのどーにゅーれいである。	NO_LABEL
貸切車には全て愛称がつけられている。	かしきりしゃにわすべてあいしょーがつけられている。	NO_LABEL
過去に在籍した車両の愛称としては「グランプリ」、「コンコルド」、「ゴールドラッシュ」といったものもあった。	NO_PRONOUNCE	NO_LABEL
同社では、日本の観光都市での「スカイバス」運行に携わっている。	NO_PRONOUNCE	NO_LABEL
JTBグループ・バス事業者と提携、同社は運行ノウハウ提供と車両貸与を行い、実際の運行は現地のバス事業者が担当するものである。	NO_PRONOUNCE	NO_LABEL
2006年6月に北都交通の運行により札幌での運行を開始した後、2007年からは京都・那覇においても運行を開始している。	NO_PRONOUNCE	NO_LABEL
また、2006年の北海道日本ハムファイターズの日本シリーズ優勝パレードにも貸し出され、この時はジェイ・アール北海道バスが運行を担当した。	また、にせんろくねんのほっかいどーにっぽんはむふぁいたーずのにっぽんしりーずゆーしょーぱれーどにもかしだされ、このときわじぇいあーるほっかいどーばすがうんこーをたんとーした。	NO_LABEL
2007年11月から12月にかけては帝産富士交通に貸し出す形で、仙台でも運行された。	にせんななねんじゅーいちがつからじゅーにがつにかけてわていさんふじこうつーにかしだすかたちで、せんだいでもうんこーされた。	NO_LABEL
2009年4月には横浜市で、5月には長電バスに貸与して長野市で、伊予鉄道に貸与して松山市としまなみ海道で運行されている。	にせんきゅうねんしがつにわよこはましで、ごがつにわながでんばすにたいよしてながのしで、いよてつどーにたいよしてまつやましとしまなみかいどーでうんこーされている。	NO_LABEL
2013年には東北楽天ゴールデンイーグルスの日本シリーズ優勝パレードで仙台バスに貸し出し、2014年には名古屋市で名鉄観光バスに貸与して「ナゴヤスカイバス」が運行されている。	NO_PRONOUNCE	NO_LABEL
2013年3月、東京初となる「水陸両用バス SKY Duck」の運行を、17日から「東京スカイツリーコース」、18日から「亀戸コース」の2コースで開始した。	NO_PRONOUNCE	NO_LABEL
ボディはアメリカ・サウスカロライナのCAMI社製で、日本の法律に適合した陸用・水上用のエンジンが別々に搭載されている。	NO_PRONOUNCE	NO_LABEL
乗務員は大型二種免許、一級小型船舶免許を取得。	じょーむいんわおーがたにしゅめんきょ、いっきゅーこがたせんぱくめんきょをしゅとく。	NO_LABEL
ドライバーが船舶免許を持ち、水上で船長を務める。	どらいばーがせんぱくめんきょをもち、すいじょーでせんちょーをつとめる。	NO_LABEL
神奈川県横浜市のみなとみらい地区において、横浜の観光名所と水辺をシームレスで結び非日常体験を楽しむことを目的として2016年7月27日より水陸両用バス「スカイダック」の運行を開始した。	NO_PRONOUNCE	NO_LABEL
スカイダックの運行は社会実験の一環と位置付けられ、運行期間は2020年3月末までを予定している。	すかいだっくのうんこーわしゃかいじっけんのいっかんといちずけられ、うんこーきかんわにせんにじゅうねんさんがつまつまでをよていしている。	NO_LABEL
2017年9月26日からは、東京テレポート駅と豊洲駅を水陸で結ぶスカイダック東京2017の運行を開始した。	NO_PRONOUNCE	NO_LABEL
