『和歌色葉』は、上覚が著した歌学書。	NO_PRONOUNCE	NO_LABEL
成立は建久9年5月上旬頃と考えられ、同年11月、顕昭に批判を乞うため示し、ついで同年12月下旬に後鳥羽上皇に奉った。	せいりつわけんきゅーきゅうねんごがつじょーじゅんころとかんがえられ、どーねんじゅーいちがつ、けんしょーにひはんをこうためしめし、ついでどーねんじゅーにがつげじゅんにごとばじょーこーにまつった。	NO_LABEL
当時の歌学の集大成書と位置づけられる。	とーじのかがくのしゅーたいせいしょといちずけられる。	NO_LABEL
