『あやかしごはん』は、Honeybeeより2014年8月29日に発売されたPC用ゲームソフト。	NO_PRONOUNCE	NO_LABEL
また、PlayStation Vitaへの移植版である『あやかしごはん～おおもりっ！～』とファンディスク『あやかしごはん～おかわりっ！～』の発売が決定している。	NO_PRONOUNCE	NO_LABEL
ゲームの発売に先駆けて、スピンオフ作品となるシチュエーションCDが発売されている。	げーむのはつばいにさきがけて、すぴんおふさくひんとなるしちゅえーしょんきゃっしゅでぃすぺんさーがはつばいされている。	NO_LABEL
ヒロイン・凛とあやかしとの恋を描いた乙女ゲーム。	NO_PRONOUNCE	NO_LABEL
本作は少女時代編から始まり、その時の選択肢によって『人間編』と『あやかし編』の2つのルートに分岐する。	NO_PRONOUNCE	NO_LABEL
この2つのルートにおける凜の性格は大きく異なり、攻略対象も異なる。	NO_PRONOUNCE	NO_LABEL
『人間編』および『あやかし編』が終了すると、個別ルートおよびバッドエンドへと分岐する。	NO_PRONOUNCE	NO_LABEL
いずれの個別ルートも悲恋エンド・ベストエンド・グッドエンドの3つに分かれている。	NO_PRONOUNCE	NO_LABEL
また、条件を満たすとおまけシナリオがみられる仕組みになっている。	また、じょーけんをみたすとおまけしなりおがみられるしくみになっている。	NO_LABEL
父親を亡くし、母子家庭で育ってきた主人公だったが、その母親も亡くなり、独り身になった主人公の前に父方の祖母の知人と言う一人の男性が現れる。	ちちおやをなくし、ぼしかていでそだってきたしゅじんこーだったが、そのははおやもなくなり、ひとりみになったしゅじんこーのまえにちちかたのそぼのちじんというひとりのだんせいがあらわれる。	NO_LABEL
その男性はかつて祖母の家で出会った妖狐だった。	NO_PRONOUNCE	NO_LABEL
引き取り手のいなかった主人公を妖狐が引き取ることとなり、あやかしと人間が共存する「紅葉村」で主人公は妖狐と7歳になる子供と主人公と同い年くらいの双子の兄弟と暮らすこととなった。	NO_PRONOUNCE	NO_LABEL
さらに主人公は妖狐の経営するごはん処「ぽんぽこりん」の手伝いをすることに。	NO_PRONOUNCE	NO_LABEL
そして、紅葉村で出会った同級生やあやかしたちと交流を深めていくうちに、主人公は恋に落ちていく。	そして、こーよーむらでであったどーきゅーせいやあやかしたちとこーりゅーをふかめていくうちに、しゅじんこーわこいにおちていく。	NO_LABEL
