キーストン・ブレドマンは、トリニダード・トバゴの陸上競技選手。	きーすとんぶれどまんわ、とりにだーどとばごのりくじょーきょーぎせんしゅ。	NO_LABEL
専門は短距離走の100mで、自己ベストの9秒86はリチャード・トンプソンに次ぐトリニダード・トバゴ歴代2位タイ。	NO_PRONOUNCE	NO_LABEL
100mではオリンピックと世界選手権を通じて準決勝進出が最高成績だが、4×100mリレーでは2008年北京オリンピックと2012年ロンドンオリンピックで銀メダルを獲得している。	NO_PRONOUNCE	NO_LABEL
8月の大阪世界選手権男子100mに出場し、19歳でシニアの世界大会デビューを果たしたが、2次予選で敗退した。	はちがつのおーさかせかいせんしゅけんだんしひゃくめーとるにしゅつじょーし、じゅうきゅうさいでしにあのせかいたいかいでびゅーをはたしたが、にじよせんではいたいした。	NO_LABEL
8月の北京オリンピック男子4×100mリレーに出場し、1走を務めて銀メダル獲得に貢献した。	NO_PRONOUNCE	NO_LABEL
オリンピックのリレー種目におけるトリニダード・トバゴのメダル獲得は、銅メダルを獲得した1964年東京オリンピック男子4×400mリレー以来、男女通じて44年ぶり2度目の快挙だった。	NO_PRONOUNCE	NO_LABEL
その後、このレースで金メダルを獲得していたジャマイカチームのネスタ・カーターのドーピング検体の再検査で禁止薬物の陽性反応を示したため、国際オリンピック委員会は2017年1月25日にジャマイカチームを失格処分にしたと発表した。	そのご、このれーすできんめだるをかくとくしていたじゃまいかちーむのねすたかーたーのどーぴんぐけんたいのさいけんさできんしやくぶつのよーせいはんのーをしめしたため、こくさいおりんぴっくいーんかいわにせんじゅうななねんいちがつにじゅうごにちにじゃまいかちーむをしっかくしょぶんにしたとはっぴょーした。	NO_LABEL
ネスタ・カーターがスポーツ仲裁裁判所に提訴したため処分確定はまだ先になるが、確定すればトリニダード・トバゴの順位は1位に繰り上がり金メダル獲得となる。	ねすたかーたーがすぽーつちゅーさいさいばんしょにていそしたためしょぶんかくていわまださきになるが、かくていすればとりにだーどとばごのじゅんいわいちーにくりあがりきんめだるかくとくとなる。	NO_LABEL
8月のベルリン世界選手権男子4×100mリレーに出場。	NO_PRONOUNCE	NO_LABEL
予選で3走を務めて決勝進出に貢献したが、決勝の出場はなかった。	NO_PRONOUNCE	NO_LABEL
決勝のトリニダード・トバゴは37秒62のトリニダード・トバゴ記録を樹立して銀メダルを獲得した。	NO_PRONOUNCE	NO_LABEL
6月4日のアディダスグランプリ男子100mで9秒93をマーク。	NO_PRONOUNCE	NO_LABEL
アト・ボルドン、マルク・バーンズ、ダレル・ブラウン、リチャード・トンプソンに次ぐ、トリニダード・トバゴ史上5人目となる10秒の壁を突破した選手となった。	あとぼるどん、まるくばーんず、だれるぶらうん、りちゃーどとんぷそんにつぐ、とりにだーどとばごしじょーごにんめとなるじゅうびょーのかべをとっぱしたせんしゅとなった。	NO_LABEL
8月の大邱世界選手権では、男子100mで初の準決勝進出を果たした。	はちがつのたいきゅーせかいせんしゅけんでわ、だんしひゃくめーとるではつのじゅんけっしょーしんしゅつをはたした。	NO_LABEL
準決勝では組2着までに入るか、組3着以下でもタイムで拾われる2枠までに入れば決勝に進出できたが、結果は10秒14の組5着に終わり決勝進出を逃した。	NO_PRONOUNCE	NO_LABEL
組4着のダニエル・ベイリーとは同タイム着差ありだったため、わずかの差で決勝進出を逃したことになる。	くみよんちゃくのだにえるべいりーとわどーたいむぎさありだったため、わずかのさでけっしょーしんしゅつをのがしたことになる。	NO_LABEL
6月23日のトリニダード・トバゴ選手権男子100mで9秒86をマーク。	NO_PRONOUNCE	NO_LABEL
2011年8月13日にリチャード・トンプソンが更新するまでアト・ボルドンが保持していたトリニダード・トバゴ記録に並んだ。	にせんじゅういちねんはちがつじゅうさんにちにりちゃーどとんぷそんがこーしんするまであとぼるどんがほじしていたとりにだーどとばごきろくにならんだ。	NO_LABEL
8月のロンドンオリンピックでは、自身初の個人種目出場となった男子100mで準決勝に進出した。	はちがつのろんどんおりんぴっくでわ、じしんはつのこじんしゅもくしゅつじょーとなっただんしひゃくめーとるでじゅんけっしょーにしんしゅつした。	NO_LABEL
しかし、準決勝では10秒04の組4着に終わり、タイムで拾われて決勝に進出した全体8位のリチャード・トンプソンとは0秒02差で決勝進出を逃した。	NO_PRONOUNCE	NO_LABEL
男子4×100mリレーでは1走を務めて4位に入ったが、3位に入ったカナダがレーン侵害で失格になったため、順位が一つ繰り上がって銅メダルを獲得した。	NO_PRONOUNCE	NO_LABEL
更に大会から3年経った2015年に、2位に入ったアメリカ代表リレーメンバーのドーピング処分により、順位が繰り上がり銀メダルを獲得した。	さらにたいかいからさんねんたったにせんじゅうごねんに、にーにはいったあめりかだいひょーりれーめんばーのどーぴんぐしょぶんにより、じゅんいがくりあがりぎんめだるをかくとくした。	NO_LABEL
8月の北京世界選手権に出場したが、 脚の付け根を痛めていた影響で男子100mは10秒75で予選敗退し、初めて最初のラウンドを突破できずに終わった。	NO_PRONOUNCE	NO_LABEL
男子4×100mリレーは昨年の世界リレーで2位になり出場権を獲得していたが、トリニダード・トバゴはリレーメンバーに負傷者が相次いだため出場しなかった。	NO_PRONOUNCE	NO_LABEL
8月のリオデジャネイロオリンピックには男子100mと4×100mリレーに出場したが、100mは予選で10秒20の組5着に終わり、準決勝に進出するには0秒001及ばなかった。	NO_PRONOUNCE	NO_LABEL
1走を務めた男子4×100mリレーは予選を37秒96の組3着で突破したが、決勝はレーン侵害のため失格に終わった。	NO_PRONOUNCE	NO_LABEL
記録欄の内の数字は風速で、+は追い風、-は向かい風を意味する。	NO_PRONOUNCE	NO_LABEL
備考欄の記録は当時のもの	びこーらんのきろくわとーじのもの	NO_LABEL
