ヌル・ベクリは中華人民共和国の政治家である。	ぬるべくりわちゅーかじんみんきょーわこくのせいじかである。	NO_LABEL
新疆ウイグル自治区ウルムチ市長、新疆ウイグル自治区政府主席を歴任した後、国家発展改革委員会副主任兼局長に就任した。	しんきょーいぐるじちくうるむちしちょー、しんきょーいぐるじちくせいふしゅせきをれきにんしたのち、こっかはってんかいかくいーんかいふくしゅにんけんきょくちょーにしゅーにんした。	NO_LABEL
1961年にカザフスタン付近のボルタラ市生まれ。	せんきゅうひゃくろくじゅういちねんにかざふすたんふきんのぼるたらしうまれ。	NO_LABEL
幼いころから漢族の教育を受けていた。	おさないころからかんぞくのきょーいくをうけていた。	NO_LABEL
1977年、トップクラスの成績で高校入学、その後新疆大学に進学。	せんきゅうひゃくななじゅうななねん、とっぷくらすのせいせきでこーこーにゅーがく、そのごしんきょーだいがくにしんがく。	NO_LABEL
1982年12月、大学在学中に中国共産党に入党新疆共産党青年団書記，新疆大学共青団委副書記、校党委常委、宣伝部部長を歴任した	NO_PRONOUNCE	NO_LABEL
1993年から2000年にかけてカシュガル地区の行署要員、自治区人民政府副秘書長，中国共産党ウルムチ市委副書記、副市長、代理市長、市長を歴任した	NO_PRONOUNCE	NO_LABEL
2000年12月から新疆ウイグル自治区自治区党常任委員、政法委副書記，自治区党委副書記を歴任し、2007年11月から党第十七回大会にて中央候補委員に当選し、2008年1月,自治区人民政府主席に就任した。	NO_PRONOUNCE	NO_LABEL
2009年ウイグル騒乱が発生した際、「海外からの指揮を受け、国内で実行した、計画的かつ組織的な暴力事件」だと指摘している。	NO_PRONOUNCE	NO_LABEL
「各民族が固く団結する中、三勢力の扇動による襲撃は必ずや各民族の非難に遭い、敵の分裂・破壊行動は徹底的に失敗するに違いない」とした上で「典型的な社会治安事件であるのに、海外の三勢力はデマを撒き散らし、悪意をもって中国共産党と政府を攻撃した」と述べ、「あの手この手で真相を知らない一般市民を扇動し、デモ行進させ、民族の団結を深刻に破壊し、調和の取れた安定した局面をぶち壊した」と語っている。	NO_PRONOUNCE	NO_LABEL
2014年12月31日に国家発展改革委員会副主任兼局長に定年退職したの後任として就任。	にせんじゅうよねんじゅーにがつさんじゅういちにちにこっかはってんかいかくいーんかいふくしゅにんけんきょくちょーにていねんたいしょくしたのこーにんとしてしゅーにん。	NO_LABEL
ウイグル族高官が、中央の重要官庁の要職に就くのは異例ウイグル族などの民族対立問題に直面する習近平党総書記として、少数民族重視の姿勢を示す狙いがあるとみられる。	ういぐるぞくこーかんが、ちゅーおーのじゅーよーかんちょーのよーしょくにつくのわいれいういぐるぞくなどのみんぞくたいりつもんだいにちょくめんするしゅうきんぺいとーそーしょきとして、しょーすーみんぞくじゅーしのしせいをしめすねらいがあるとみられる。	NO_LABEL
また、発展改革委副主任兼国家エネルギー局長を務めた被告が収賄罪で無期懲役判決を受けるなど、発展改革委やエネルギー局を舞台にした汚職事件の調査が本格化しており、ヌル・ベクリ氏の登用で人事刷新を目指す意向もあるとされる。	また、はってんかいかくいふくしゅにんけんこっかえねるぎーきょくちょーをつとめたひこくがしゅーわいざいでむきちょーえきはんけつをうけるなど、はってんかいかくいやえねるぎーきょくをぶたいにしたおしょくじけんのちょーさがほんかくかしており、ぬるべくりしのとーよーでじんじさっしんをめざすいこーもあるとされる。	NO_LABEL
なおヌル・ベクリ主席退任後、同常務委員会主任が主席代行に就くことを決めた。	なおぬるべくりしゅせきたいにんご、どーじょーむいーんかいしゅにんがしゅせきだいこーにつくことをきめた。	NO_LABEL
同自治区の公式ニュースサイト「天山網」が伝えた。	NO_PRONOUNCE	NO_LABEL
ザキル氏は2015年3月までに開かれる同自治区人民代表大会を経て、主席に就任する見通し。	ざきるしわにせんじゅうごねんさんがつまでにひらかれるどーじちくじんみんだいひょーたいかいをへて、しゅせきにしゅーにんするみとーし。	NO_LABEL
