宮丸 裕二は、日本の英文学者。	みやまるゆーじわ、にっぽんのえいぶんがくしゃ。	NO_LABEL
中央大学法学部教授。	ちゅーおーだいがくほーがくぶきょーじゅ。	NO_LABEL
神奈川県出身。	かながわけんしゅっしん。	NO_LABEL
1990年神奈川県立希望ヶ丘高等学校卒業。	せんきゅうひゃくきゅうじゅうねんかながわけんりつきぼーがおかこーとーがっこーそつぎょー。	NO_LABEL
1995年慶應義塾大学文学部文学科英米文学専攻卒業。	せんきゅうひゃくきゅうじゅうごねんけいおーぎじゅくだいがくぶんがくぶぶんがくかえいべいぶんがくせんこーそつぎょー。	NO_LABEL
1998年同大学院文学研究科英米文学専攻修士課程修了。	せんきゅうひゃくきゅうじゅうはちねんどーだいがくいんぶんがくけんきゅーかえいべいぶんがくせんこーしゅーしかていしゅーりょー。	NO_LABEL
2001年ケント大学大学院修士課程修了。	にせんいちねんけんとだいがくだいがくいんしゅーしかていしゅーりょー。	NO_LABEL
2002年慶大大学院文学研究科博士後期課程単位取得退学。	にせんにねんけいだいだいがくいんぶんがくけんきゅーかはかせこーきかていたんいしゅとくたいがく。	NO_LABEL
2006年慶大より博士取得。	にせんろくねんけいだいよりはかせしゅとく。	NO_LABEL
2005年中央大学法学部専任講師、2006年助教授、2007年准教授、2013年教授。	にせんごねんちゅーおーだいがくほーがくぶせんにんこーし、にせんろくねんじょきょーじゅ、にせんななねんじゅんきょーじゅ、にせんじゅうさんねんきょーじゅ。	NO_LABEL
