九州産業大学付属九州産業高等学校は、福岡県筑紫野市紫二丁目にある私立高等学校。	きゅーしゅーさんぎょーだいがくふぞくきゅーしゅーさんぎょーこーとーがっこーわ、ふくおかけんちくしのしむらさきにちょーめにあるしりつこーとーがっこー。	NO_LABEL
九州産業大学の系属校で、学校法人九州産業工学園が運営する。	きゅーしゅーさんぎょーだいがくのけいぞくこーで、がっこーほーじんきゅーしゅーさんごゆこーがくえんがうんえいする。	NO_LABEL
同じく九州産業大学の系属校である九州産業大学付属九州高等学校は運営母体が九州中村高等学園であり、所在地も組織も異なる別の学校である。	どうじくきゅーしゅーさんぎょーだいがくのけいぞくこーであるきゅーしゅーさんぎょーだいがくふぞくきゅーしゅーこーとーがっこーわうんえいぼたいがきゅーしゅーなかむらこーとーがくえんであり、しょざいちもそしきもことなるべつのがっこーである。	NO_LABEL
通称は、「九産大九産」。	NO_PRONOUNCE	NO_LABEL
「九産」は九州産業大学の通称として使われる。	NO_PRONOUNCE	NO_LABEL
なお、普通科に限り特別進学クラスの他、準特進クラスがある。	なお、ふつーかにかぎりとくべつしんがくくらすのほか、じゅんとくしんくらすがある。	NO_LABEL
