株式会社東京商工リサーチは、東京都千代田区に本社を置く国内第2位の信用調査会社である。	かぶしきがいしゃとーきょーしょーこーりさーちわ、とーきょーとちよだくにほんしゃをおくこくないだいにーのしんよーちょーさかいしゃである。	NO_LABEL
1892年に、「商工社」として創業。	NO_PRONOUNCE	NO_LABEL
1933年5月に、「株式会社東京商工興信所」を設立して法人化。	NO_PRONOUNCE	NO_LABEL
1974年に、商号を現在の「株式会社東京商工リサーチ」に変更している。	NO_PRONOUNCE	NO_LABEL
帝国データバンクにつぐ国内第2位の信用調査会社であり、日本全国に82の事業所を構える。	NO_PRONOUNCE	NO_LABEL
1994年に世界最大手の信用調査会社と提携。	せんきゅうひゃくきゅうじゅうよねんにせかいさいおおてのしんよーちょーさかいしゃとていけい。	NO_LABEL
これにより、国内与信・海外与信情報を一手に提供できる体制となった。	NO_PRONOUNCE	NO_LABEL
2007年にはジョイントベンチャー「ダンアンドブラッドストリートTSR株式会社」を設立。	NO_PRONOUNCE	NO_LABEL
2012年同社が保有する国内屈指の企業データベースとD&Bが持つグローバルネットワークを背景とした2億件超の世界最大の企業データベースをワンストップで効率的に提供するため、ダンアンドブラッドストリートTSR株式会社の事業をすべて承継、日本におけるD&B製品サービスの唯一のプロバイダーとなる。	NO_PRONOUNCE	NO_LABEL
また、D&Bとの提携に伴い、1996年より、世界的に普及している企業コードの一つであるDUNSナンバーの日本国内における発行管理業務も行っている。	NO_PRONOUNCE	NO_LABEL
国内・海外企業の信用調査を主体に、収集した企業情報を基にしたデータベース事業、情報事業、出版事業を行っている。	NO_PRONOUNCE	NO_LABEL
日本国内のデータベースは、現在日本最大級の400万社以上を有しており、インターネットから企業情報が取得できるtsr-van2や企業の詳しい企業情報が記載されているTSRレポートなどが一般に知られている。	NO_PRONOUNCE	NO_LABEL
これら同社の収集した企業情報は、日経テレコンをはじめとするディストリビューターなどにも利用されている。	これらどーしゃのしゅーしゅーしたきぎょーじょうほーわ、にっけいてれこんをはじめとするでぃすとりびゅーたーなどにもりよーされている。	NO_LABEL
毎月中頃、マスメディアを通じて前月倒産件数が発表されるが、これは同社と帝国データバンクがマスコミ各社に行ったプレスリリースを基にしている。	まいつきなかごろ、ますめでぃあをつーじてぜんげつとーさんけんすーがはっぴょーされるが、これわどーしゃとていこくでーたばんくがますこみかくしゃにいったぷれすりりーすをもとにしている。	NO_LABEL
帝国データバンクは、手形を使用しない商習慣の拡大や、個人情報保護法の施行などの理由により情報収集が困難になったとして、2005年に倒産集計の基準から「銀行取引停止処分」を削除した。	NO_PRONOUNCE	NO_LABEL
同社は独自の情報網を通じての取材活動によれば、「銀行取引停止処分」の集計も可能として、これを維持した。	NO_PRONOUNCE	NO_LABEL
このため、従来の統計との整合性を持つ倒産件数は、同社発表によるもののみである。	このため、じゅーらいのとーけいとのせいごーせいをもつとーさんけんすーわ、どーしゃはっぴょーによるもののみである。	NO_LABEL
