上野 英信は、日本の記録文学作家。	うえのえいしんわ、にっぽんのきろくぶんがくさっか。	NO_LABEL
山口県吉敷郡井関村生まれ。	やまぐちけんよしきぐんいせきむらうまれ。	NO_LABEL
父の転職により北九州の黒崎に移転。	ちちのてんしょくによりきたきゅーしゅーのくろさきにいてん。	NO_LABEL
旧制八幡中学から満州国建国大学前期へ進学。	きゅーせいやはたちゅーがくからまんしゅーこくけんこくだいがくぜんきえしんがく。	NO_LABEL
1943年12月1日、学徒出陣により関東軍山砲兵第二十八連隊第五中隊へ入営。	せんきゅうひゃくよんじゅうさんねじゅーにがつついたち、がくとしゅつじんによりかんとーぐんさんぽーへいだいにじゅーはちれんたいだいごちゅーたいえにゅーえい。	NO_LABEL
1945年8月6日、見習士官として船舶砲兵教導隊第一中隊付の時、広島市宇品において原爆投下に遭遇、被爆する。	せんきゅうひゃくよんじゅうごねんはちがつむいか、みならいしかんとしてせんぱくほーへいきょーどーたいだいいちちゅーたいずけのとき、ひろしましうじなにおいてげんばくとーかにそーぐー、ひばくする。	NO_LABEL
復員後は建国大学の閉鎖に伴い、京都大学文学部支那文学科へ編入。	ふくいんごわけんこくだいがくのへいさにともない、きょーとだいがくぶんがくぶしなぶんがくかえへんにゅー。	NO_LABEL
青木正児に師事するも、1947年に中退。	あおきまさるにしじするも、せんきゅうひゃくよんじゅうななねにちゅーたい。	NO_LABEL
その後間もなく九州で炭鉱労働者となり、海老津炭鉱、高松炭鉱、崎戸炭鉱などで働く。	そのごまもなくきゅーしゅーでたんこーろーどーしゃとなり、えびつたんこー、たかまつたんこー、さきとたんこーなどではたらく。	NO_LABEL
炭鉱労働の傍らで労働者による文芸サークルを組織し、自身も作品を発表し始める。	たんこーろーどーのかたわらでろーどーしゃによるぶんげいさーくるをそしきし、じしんもさくひんをはっぴょーしはじめる。	NO_LABEL
1954年11月、千田梅二と共同で、初の著作『せんぷりせんじが笑った』を私家版にて出版。	NO_PRONOUNCE	NO_LABEL
翌1955年4月には柏林書房より「ルポルタージュ・シリーズ 日本の証言」として再刊され、記録作家として認知されるようになった。	NO_PRONOUNCE	NO_LABEL
その後、谷川雁、森崎和江らと筑豊の炭鉱労働者の自立共同体・サークル村を結成し、1958年、機関誌『サークル村』を刊行。	NO_PRONOUNCE	NO_LABEL
同誌からは石牟礼道子や中村きい子らを輩出した。	どーしからわいしむれみちこやなかむらきーこらをはいしゅつした。	NO_LABEL
また、山本作兵衛の紹介など、炭鉱の実情を記した著作もある。	また、やまもとさくべいのしょーかいなど、たんこーのじつじょーをしるしたちょさくもある。	NO_LABEL
