交通安全白書は、内閣府が作成している白書である。	こーつーあんぜんはくしょわ、ないかくふがさくせいしているはくしょである。	NO_LABEL
交通安全対策基本法の制定をうけ、昭和46年版から毎年発行されている。	こーつーあんぜんたいさくきほんほーのせいていをうけ、しょーわよんじゅうろくねんばんからまいとしはっこーされている。	NO_LABEL
目的は、交通安全に関する理解と関心を深めてもらい、広義の交通事故を根絶させる事である。	もくてきわ、こーつーあんぜんにかんするりかいとかんしんをふかめてもらい、こーぎのこーつーじこをこんぜつさせることである。	NO_LABEL
内容は、陸上・海上・航空の前年度の状況を中心に、過去の動向を報告するとともに、当該年度の計画を記述しており、平成20年版では、その半分近くを道路交通に割いている。	NO_PRONOUNCE	NO_LABEL
なおインターネットで公開されており、概要と全文を読むことができる。	なおいんたーねっとでこーかいされており、がいよーとぜんぶんをよむことができる。	NO_LABEL
初版から昭和59年版まで総理府、昭和60年版から総務庁、平成13年版から内閣府が発行している。	しょはんからしょーわごじゅうきゅうねんばんまでそーりふ、しょーわろくじゅうねんばんからそーむちょー、へいせいじゅうさんねんばんからないかくふがはっこーしている。	NO_LABEL
