株式会社群像社は、1980年に発足したロシア文学専門の出版社である。	かぶしきがいしゃぐんぞーしゃわ、せんきゅうひゃくはちじゅうねんにほっそくしたろしあぶんがくせんもんのしゅっぱんしゃである。	NO_LABEL
現代ロシアのみならず、アントン・チェーホフの作品研究訳書、ミハイル・ブルガーコフ『巨匠とマルガリータ』やゴーゴリ等の古典新訳も刊行している。	NO_PRONOUNCE	NO_LABEL
年2回、『ロシア文化通信 群 GUN』を刊行している。	NO_PRONOUNCE	NO_LABEL
現役の訳者には浦雅春や沼野充義・恭子夫妻、船木裕、安岡治子等がいる。	NO_PRONOUNCE	NO_LABEL
