凌 文淵は清末、中華民国の政治家・書家・画家・経済学者。	NO_PRONOUNCE	NO_LABEL
北京政府の要人。	ぺきんせいふのよーじん。	NO_LABEL
名は庠だが、字の文淵で知られる。	NO_PRONOUNCE	NO_LABEL
号は直支、植支。	ごーわちょくさそー、うえさそー。	NO_LABEL
公立両江師範学堂を卒業。	こーりつりょーこーしはんがくどーをそつぎょー。	NO_LABEL
1903年に大阪で開かれた内国勧業博覧会を視察している。	せんきゅうひゃくさんねんにおーさかでひらかれたないこくかんぎょーはくらんかいをしさつしている。	NO_LABEL
1909年、江蘇省咨議局議員に当選し、張謇らの立憲運動に参加した。	NO_PRONOUNCE	NO_LABEL
1912年1月、南京臨時参議院議員に当選し、立憲党に参加した。	せんきゅうひゃくじゅうにねんいちがつ、なんきんりんじさんぎーんぎいんにとーせんし、りっけんとーにさんかした。	NO_LABEL
翌年4月、衆議院議員に当選し、5月、進歩党に加入している。	よくねんしがつ、しゅーぎーんぎーんにとーせんし、ごがつ、しんぽとーにかにゅーしている。	NO_LABEL
1917年8月から1927年まで、北京政府財政部の参事や首席参事をつとめ、主に外債委員会において任にあたった。	せんきゅうひゃくじゅうしちねんはちがつからせんきゅうひゃくにじゅうななねんまで、ぺきんせいふざいせいぶのさんじやしゅせきさんじをつとめ、おもにがいさいいーんかいにおいてにんにあたった。	NO_LABEL
その間の1922年8月に財政部常務次長代理・署理に昇進している。	NO_PRONOUNCE	NO_LABEL
また11月には、逮捕された王寵恵臨時内閣財政総長・羅文幹の暫時代理として、12月には汪大燮臨時内閣・王正廷臨時内閣の暫時代理として、それぞれ財政総長をつとめた。	NO_PRONOUNCE	NO_LABEL
北京政府崩壊後は政界を離れ、東方絵画協会幹事、国立芸術専門学校教授などをつとめた。	ぺきんせいふほーかいごわせいかいをはなれ、とーほーかいがきょーかいかんじ、こくりつげいじゅつせんもんがっこーきょーじゅなどをつとめた。	NO_LABEL
日中戦争時期には、日本軍の占領地域にとどまったが、親日政府からの任官要請はすべて拒絶している。	にっちゅーせんそーじきにわ、にっぽんぐんのせんりょーちいきにとどまったが、しんにちせいふからのにんかんよーせいわすべてきょぜつしている。	NO_LABEL
梁は在野にあって教育・芸術の振興に励み、北平美術学校校長をつとめたほか、中国各地の学校で芸術教育にあたっている。	NO_PRONOUNCE	NO_LABEL
1944年5月、死去。	せんきゅうひゃくよんじゅうよねんごがつ、しきょ。	NO_LABEL
享年69。	NO_PRONOUNCE	NO_LABEL
書家としては、初期は柳体であったが、後に張遷碑の書体に近づいた。	しょかとしてわ、しょきわやなぎたいであったが、のちにちょーせんひのしょたいにちかずいた。	NO_LABEL
絵画は徐青藤を模範とし、梅・蓮の花の絵に独特の風格があると評される。	NO_PRONOUNCE	NO_LABEL
その力量は、陳半丁・陳師曽・斉白石とともに、京師四大画家と称されるほどであった。	NO_PRONOUNCE	NO_LABEL
これら書画の才能の一方で、経済学者としても優れ、『中国経済学』、『財政金融学』、『中国における塩政の最近の状況』等の著書がある。	NO_PRONOUNCE	NO_LABEL
