岩城氏は、日本の氏族。	いわきしわ、にっぽんのしぞく。	NO_LABEL
常陸平氏の庶流と称した「海道平氏」の嫡流ともいわれる。	NO_PRONOUNCE	NO_LABEL
その起源は平安時代末期に、陸奥国南部とされ、常陸平氏の一族と称した岩城則道を祖とする。	そのきげんわへいあんじだいまっきに、むつのくになんぶとされ、ひたちへいしのいちぞくとしょーしたいわきのりみちをそとする。	NO_LABEL
奥州藤原氏とも関係が深く、岩城則道の正室が徳姫といわれる。	おーしゅーふじわらしともかんけいがふかく、いわきのりみちのせいしつがとくひめといわれる。	NO_LABEL
また、石城国造の末裔であるともいわれる。	また、いわきのくにのみやつこのまつえいであるともいわれる。	NO_LABEL
標葉氏陸奥岩崎氏、陸奥行方氏が同族といわれる。	しべはしむついわさきし、むつゆくえしがどーぞくといわれる。	NO_LABEL
岩城成衡は出羽清原氏に養子に入ったとされ、出羽清原氏との関係も深い。	いわきしげひらわでわきよはらしによーしにはいったとされ、でわきよはらしとのかんけいもふかい。	NO_LABEL
鎌倉幕府の地頭であった岩城氏は好嶋庄の預所・伊賀氏と度々訴訟で争った記録が残されている。	NO_PRONOUNCE	NO_LABEL
伊賀氏は備前国や美濃国にも所領を持つ有力御家人であったが、南北朝時代に海道検断職まで務めた伊賀盛光の輩出後は衰退を始める。	いがしわびぜんのくにやみののくににもしょりょーをもつゆーりょくごけにんであったが、なんぼくちょうじだいにかいどーけんだんしょくまでつとめたいがもりみつのはいしゅつごわすいたいをはじめる。	NO_LABEL
代わって岩城隆泰が台頭し、衰退した伊賀氏などを支配下に置き、磐城一帯の領国支配に成功した。	かわっていわきたかやすがたいとーし、すいたいしたいがしなどをしはいかにおき、いわきいったいのりょーごくしはいにせいこーした。	NO_LABEL
隆泰以降岩城氏は暫く動静が不明瞭になるが、嘉吉2年から嘉吉3年にかけて勃発した岩城氏の内訌・嘉吉の内紛を、岩城氏の庶流である白土系の岩城隆忠が鎮圧して以降は隆忠の系統が当主になったとみられている。	NO_PRONOUNCE	NO_LABEL
隆忠の子で10代当主・岩城親隆やその子・常隆は白河結城氏や常陸国の佐竹氏の内紛に介入し、軍事的にも外交的にも成果を収め、大館城を居城とし、常陸から南東北にかけて勢力を伸ばした。	NO_PRONOUNCE	NO_LABEL
岩城氏15代当主・岩城重隆の代になると、近隣の相馬氏や田村氏との抗争が激化し、さらに伊達氏・蘆名氏などの新興勢力が多数乱立した上、佐竹氏との同族化のため、岩城氏の影響力は相対的に目立たなくなった。	NO_PRONOUNCE	NO_LABEL
重隆は陸奥守護・伊達稙宗と稙宗の婿・相馬顕胤の圧力を受けて、娘である久保姫を伊達晴宗に嫁がせ、その嫡男である親隆を養嗣子として迎えた。	NO_PRONOUNCE	NO_LABEL
天文11年からの伊達氏の内訌・天文の乱に際しては遠交近攻の策をとり、稙宗派の田村氏や相馬氏と争う形になった。	NO_PRONOUNCE	NO_LABEL
親隆の時代には勢力を強めた佐竹義昭・義重父子との抗争に苦しめられ、佐竹氏から室を迎えたものの親隆治世の末期と子・常隆の代には一時佐竹氏に家中の主導権を握られる状況になった。	NO_PRONOUNCE	NO_LABEL
常隆の代は父・親隆の実弟である伊達輝宗とその子・政宗が南奥で勢力を増したため、岩城氏もその圧迫に悩まされることになった。	NO_PRONOUNCE	NO_LABEL
政宗の正室・愛姫は岩城氏の宿敵である田村氏の娘であったため、常隆は伊達氏より離反し佐竹氏との関係を強めるが、政宗が蘆名氏を破って南奥を制覇すると、再び伊達氏と接近した。	NO_PRONOUNCE	NO_LABEL
天正18年、豊臣秀吉の小田原征伐が勃発すると、岩城常隆は小田原に参陣することで、所領を安堵された。	てんしょーじゅうはちねん、とよとみひでよしのおだわらせいばつがぼっぱつすると、いわきつねたかわおだわらにさんじんすることで、しょりょーをあんどされた。	NO_LABEL
常隆は小田原征伐直後に病死し、子・政隆も幼少であったため、佐竹義重の三男・岩城貞隆が岩城氏を継いだ。	NO_PRONOUNCE	NO_LABEL
貞隆は慶長5年の関ヶ原の戦いで当初は東軍方になったが、実兄・佐竹義宣の命に従って、徳川家康の上杉景勝征伐に参加しなかったため、所領12万石を没収される。	NO_PRONOUNCE	NO_LABEL
この頃、岩城氏の一部が、紀伊半島の白浜へ移住し、現在の南紀白浜地区を最初に開拓した。	このころ、いわきしのいちぶが、きいはんとーのしらはまえいじゅーし、げんざいのなんきしらはまちくをさいしょにかいたくした。	NO_LABEL
白浜の岩城氏の地位は定かではないが、士族として明治維新を迎えている。	しらはまのいわきしのちいわさだかでわないが、しぞくとしてめいじいしんをむかえている。	NO_LABEL
維新後、白浜岩城氏の数家が、屯田兵として北海道へ渡り、愛別町、白滝村を開拓した。	いしんご、しらはまいわきしのかずいえが、とんでんへいとしてほっかいどーえわたり、あいべつちょー、しらたきむらをかいたくした。	NO_LABEL
慶長20年、貞隆は信濃国中村1万石を与えられる。	NO_PRONOUNCE	NO_LABEL
貞隆の子・吉隆は出羽国亀田藩主であったが、子のなかった伯父・佐竹義宣の養子に迎えられて秋田藩2代藩主・「佐竹義隆」となる。	NO_PRONOUNCE	NO_LABEL
このため、今度は義宣や貞隆の弟・多賀谷宣家が岩城氏に迎えられて「岩城宣隆」と名乗った。	NO_PRONOUNCE	NO_LABEL
岩城貞隆が岩城氏を継いだ際、先代・常隆には政隆という実子がいたが、幼少であったため、秀吉の意向で佐竹氏より貞隆を養子に迎えることになり、政隆は伊達氏の家臣となった。	NO_PRONOUNCE	NO_LABEL
ところが、後に貞隆・宣隆の系統が断絶した結果、伊達氏から急遽迎えることになった養子は政隆の直系の子孫である岩城隆恭であった。	NO_PRONOUNCE	NO_LABEL
このため、親隆-常隆の系統が150年ぶりに岩城氏当主に返り咲くことになった。	NO_PRONOUNCE	NO_LABEL
このことが宗家である秋田藩との関係に亀裂を生むことになり、幕末には奥羽越列藩同盟に参加して官軍側に付いた秋田藩と対立するなど苦難の歴史を歩むことになった。	このことがそーけであるあきたはんとのかんけいにきれつをうむことになり、ばくまつにわおーえつれっぱんどーめいにさんかしてかんぐんがわについたあきたはんとたいりつするなどくなんのれきしをあゆむことになった。	NO_LABEL
※ 室町以前の系譜は判然としてはいないが、元々の惣領であった好島氏の系統が衰退し、庶流の白土氏の系統が当主になったと考えられている。	NO_PRONOUNCE	NO_LABEL
以降は亀田藩も参照	いこーわかめだはんもさんしょー	NO_LABEL
