平井 道子は、日本の女優、声優。	ひらいみちこわ、にっぽんのじょゆー、せいゆー。	NO_LABEL
東京都出身。	とーきょーとしゅっしん。	NO_LABEL
テアトル・エコー所属。	てあとるえこーしょぞく。	NO_LABEL
フェリス女学院短期大学音楽科卒業。	ふぇりすじょがくいんたんきだいがくおんがくかそつぎょー。	NO_LABEL
1957年、テアトル・エコーに入団。	せんきゅうひゃくごじゅうしちねん、てあとるえこーににゅーだん。	NO_LABEL
劇団の看板女優として活動する傍ら、フェイ・ダナウェイの吹き替えやテレビアニメ『魔法使いサリー』の夢野サリー役など声優としても活躍していた。	NO_PRONOUNCE	NO_LABEL
夫は声優の中江真司。	おっとわせいゆーのなかえしんじ。	NO_LABEL
1984年7月3日、急性心不全のため東京都小金井市の三島診療所で死去。	せんきゅうひゃくはちじゅうよねんしちがつみっか、きゅーせいしんふぜんのためとーきょーとこがねいしのみしましんりょーじょでしきょ。	NO_LABEL
48歳没。	よんじゅうはっさいぼつ。	NO_LABEL
遺作は、声優としては死後4日後に放送された『ルパン三世 PartIII』のミズ・ドラキュラ、女優としては同2ヶ月後に放送された時代劇ドラマ『女殺油地獄』。	NO_PRONOUNCE	NO_LABEL
平井の死後、持ち役を引き継いだ人物は以下の通り。	ひらいのしご、もちやくをひきついだじんぶつわいかのとーり。	NO_LABEL
※太字はメインキャラクター。	NO_PRONOUNCE	NO_LABEL
1966年	せんきゅうひゃくろくじゅうろくねん	NO_LABEL
1968年	せんきゅうひゃくろくじゅうはちねん	NO_LABEL
1969年	せんきゅうひゃくろくじゅうきゅうねん	NO_LABEL
1970年	せんきゅうひゃくななじゅうねん	NO_LABEL
1971年	せんきゅうひゃくななじゅういちねん	NO_LABEL
1972年	せんきゅうひゃくななじゅうにねん	NO_LABEL
1973年	せんきゅうひゃくななじゅうさんねん	NO_LABEL
1974年	せんきゅうひゃくななじゅうよねん	NO_LABEL
1975年	せんきゅうひゃくななじゅうごねん	NO_LABEL
1976年	せんきゅうひゃくななじゅうろくねん	NO_LABEL
1978年	せんきゅうひゃくななじゅうはちねん	NO_LABEL
1979年	せんきゅうひゃくななじゅうきゅうねん	NO_LABEL
1980年	せんきゅうひゃくはちじゅうねん	NO_LABEL
1981年	せんきゅうひゃくはちじゅういちねん	NO_LABEL
1982年	せんきゅうひゃくはちじゅうにねん	NO_LABEL
1984年	せんきゅうひゃくはちじゅうよねん	NO_LABEL
1967年	せんきゅうひゃくろくじゅうななね	NO_LABEL
1968年	せんきゅうひゃくろくじゅうはちねん	NO_LABEL
1973年	せんきゅうひゃくななじゅうさんねん	NO_LABEL
1974年	せんきゅうひゃくななじゅうよねん	NO_LABEL
1977年	せんきゅうひゃくななじゅうななねん	NO_LABEL
1982年	せんきゅうひゃくはちじゅうにねん	NO_LABEL
