三雲町は三重県中部、一志郡にかつて存在した町。	みくもちょーわみえけんちゅーぶ、いちしぐんにかつてそんざいしたまち。	NO_LABEL
2005年1月1日に、松阪市、一志郡嬉野町、飯南郡飯南町、飯高町と合併し新しい松阪市となり廃止した。	にせんごねんいちがつついたちに、まつさかし、いちしぐんうれしのちょー、いーなんぐんいーなんちょー、ひだかちょーとがっぺいしあたらしいまつさかしとなりはいしした。	NO_LABEL
中学校	ちゅーがっこー	NO_LABEL
小学校	しょーがっこー	NO_LABEL
