呼称はイェ。	こしょーわいぇ。	NO_LABEL
字母ㅑとㅣを組み合わせて作った合成字母である。	NO_PRONOUNCE	NO_LABEL
始めと終わりで音色の異なる二重母音を表す。	はじめとおわりでねいろのことなるにじゅーぼいんをあらわす。	NO_LABEL
母音/ㅣ/[i]の構えから/ㅐ/を調音したときに生じる音。	NO_PRONOUNCE	NO_LABEL
単独で発音した場合、硬口蓋半母音[j]によるである。	NO_PRONOUNCE	NO_LABEL
この字母が子音字母に後続する場合は少なく、漢字語では全く存在せず、固有語では「걔、쟤」しかない。	NO_PRONOUNCE	NO_LABEL
これらは子音の後で実質上、/ㅐ/で発音されている。	NO_PRONOUNCE	NO_LABEL
一方、外来語で「섀」などが使われるが、これは英語のshadowなどのを表すために使われている。	NO_PRONOUNCE	NO_LABEL
/ㅐ/が/ㅔ/と区別されなくなっているのと同様、/ㅖ/との発音上の区別がなくなってきている。	NO_PRONOUNCE	NO_LABEL
文化観光部2000年式、マッキューン＝ライシャワー式ともにyaeと表記される。	ぶんかかんこーぶにせんねんしき、まっきゅーんらいしゃわーしきともにやえとひょーきされる。	NO_LABEL
