ヒダキクラゲは、キクラゲ目キクラゲ科のキノコ。	ひだきくらげわ、きくらげめきくらげかのきのこ。	NO_LABEL
世界中に分布する。	せかいじゅーにぶんぷする。	NO_LABEL
春、広葉樹の枯れ木上に発生する。	はる、こーよーじゅのかれきじょーにはっせいする。	NO_LABEL
子実体は柄がなく背面で枯れ木に付着する。	こじったいわえがなくはいめんでかれきにふちゃくする。	NO_LABEL
表面は暗褐色から帯暗褐色。	ひょーめんわくらかっしょくからおびくらかっしょく。	NO_LABEL
裏面は黒い部分と灰白から灰黄色で毛が密生している部分からなる環紋がある。	りめんわくろいぶぶんとはいしろからはいきいろでけがみっせいしているぶぶんからなるかんもんがある。	NO_LABEL
ゼラチン質で乾燥すると縮む。	ぜらちんしつでかんそーするとちじむ。	NO_LABEL
