『形而上学』は、古代ギリシアの哲学者アリストテレスによる形而上学の古典的な研究である。	NO_PRONOUNCE	NO_LABEL
原題は『自然学的なるものの後に来るもの』、『自然学諸書の後に来る書』の意であった。	NO_PRONOUNCE	NO_LABEL
アリストテレスはマケドニア宮廷の侍医の家庭に生まれ、アテナイに移ってプラトンのアカデメイアで学んだ。	ありすとてれすわまけどにあきゅーていのじいのかていにうまれ、あてないにうつってぷらとんのあかでめいあでまなんだ。	NO_LABEL
本書『形而上学』はもともと未刊行の論文や手稿がアリストテレスの死後に編纂されたものであり、その構成は統一的なものではない。	NO_PRONOUNCE	NO_LABEL
14巻から成り立っており、「第一哲学」が一貫した主題となっている。	NO_PRONOUNCE	NO_LABEL
自然学や政治学、数学ではそれぞれ個別の領域における存在に限定して探求するが、「第一哲学」では一切の存在を抽象的に検討する。	NO_PRONOUNCE	NO_LABEL
そのことによってあらゆる存在を含めた世界の原理を明らかにすることが可能となる。	そのことによってあらゆるそんざいをふくめたせかいのげんりをあきらかにすることがかのーとなる。	NO_LABEL
このような問題意識の下でアリストテレスは存在についての研究を試みる。	このよーなもんだいいしきのしたでありすとてれすわそんざいについてのけんきゅーをこころみる。	NO_LABEL
全14巻から成る。	ぜんじゅうよんかんからなる。	NO_LABEL
純粋に物事の真理を知ろうとする学問の一般的な課題とは、物事の原因の認識であり、第一哲学においても課題は第一原因の究明であると考える。	じゅんすいにものごとのしんりをしろうとするがくもんのいっぱんてきなかだいとわ、ものごとのげんいんのにんしきであり、だいいちてつがくにおいてもかだいわだいいちげんいんのきゅーめいであるとかんがえる。	NO_LABEL
そこで原因は質量因、形相因、目的因、始動因の四種類に区分される。	そこでげんいんわしつりょーいん、ぎょーそーいん、もくてきいん、しどーいんのよんしゅるいにくぶんされる。	NO_LABEL
この四つの原因から物事の存在や変化が説明できないのでは、それは最高の知恵しているとは言えないとアリストテレスは主張する。	このよっつのげんいんからものごとのそんざいやへんかがせつめいできないのでわ、それわさいこーのちえしているとわいえないとありすとてれすわしゅちょーする。	NO_LABEL
またアリストテレスは最高の知恵が純粋に高潔であり、神聖であるという特徴を述べている。	またありすとてれすわさいこーのちえがじゅんすいにこーけつであり、しんせいであるとゆうとくちょーをのべている。	NO_LABEL
アリストテレスの見解によれば、タレスやデモクリトス、ピタゴラス、ヘラクレイトス、プラトンなどの哲学者がみな四種類の原因について包括的な説明を試みており、かつ四種類の原因以外の原因があげられなかったことから、アリストテレスは自説の立証を試みる。	ありすとてれすのけんかいによれば、たれすやでもくりとす、ぴたごらす、へらくれいとす、ぷらとんなどのてつがくしゃがみなよんしゅるいのげんいんについてほーかつてきなせつめいをこころみており、かつよんしゅるいのげんいんいがいのげんいんがあげられなかったことから、ありすとてれすわじせつのりっしょーをこころみる。	NO_LABEL
アリストテレスは哲学の問題集を作成しており、形而上学の性質に関する問題と形而上学の対象に関する問題がどのようなものであるかを述べている。	ありすとてれすわてつがくのもんだいしゅーをさくせいしており、けいじじょーがくのせいしつにかんするもんだいとけいじじょーがくのたいしょーにかんするもんだいがどのよーなものであるかをのべている。	NO_LABEL
第一の問題とは存在を存在として研究することにより、その原理を探求することが形而上学によって可能であるのかという問題である。	だいいちのもんだいとわそんざいをそんざいとしてけんきゅーすることにより、そのげんりをたんきゅーすることがけいじじょーがくによってかのーであるのかとゆうもんだいである。	NO_LABEL
これはアリストテレスが述べる第一哲学が数学の公理や論理学の矛盾などの他の学問における根本的な前提の規則を扱うことが可能であるかどうかという問題である。	これわありすとてれすがのべるだいいちてつがくがすーがくのこーりやろんりがくのむじゅんなどのほかのがくもんにおけるこんぽんてきなぜんていのきそくをあつかうことがかのーであるかどーかとゆうもんだいである。	NO_LABEL
第二の問題とは第一哲学で想定する存在を、個別的な実体とするのか、もしくは普遍的な実体とするのかという問題である。	だいにのもんだいとわだいいちてつがくでそーていするそんざいを、こべつてきなじったいとするのか、もしくわふへんてきなじったいとするのかとゆうもんだいである。	NO_LABEL
ここで定められた問題についてアリストテレスは後に考察を加えている。	ここでさだめられたもんだいについてありすとてれすわごにこーさつをくわえている。	NO_LABEL
加えて本書では原理、要素、実在、必然、実体、差異、対立、状態などの形而上学において重要とされる諸概念について個別に検討がなされている。	くわえてほんしょでわげんり、よーそ、じつざい、ひつぜん、じったい、さい、たいりつ、じょーたいなどのけいじじょーがくにおいてじゅーよーとされるしょがいねんについてこべつにけんとーがなされている。	NO_LABEL
ここは執筆段階では本書の他の記事とは別に作成された形而上学における専門用語の辞典的な内容が記されている。	ここわしっぴつだんかいでわほんしょのほかのきじとわべつにさくせいされたけいじじょーがくにおけるせんもんよーごのじてんてきなないよーがしるされている。	NO_LABEL
