丸山 未沙希は、日本の女性声優。	まるやまみさまれわ、にっぽんのじょせいせいゆー。	NO_LABEL
懸樋プロダクション所属。	かけひぷろだくしょんしょぞく。	NO_LABEL
宮崎県出身。	みやざきけんしゅっしん。	NO_LABEL
以前は青二プロダクション所属。	いぜんわあおにぷろだくしょんしょぞく。	NO_LABEL
青二塾東京校第28期卒業。	あおにじゅくとーきょーこーだいにじゅうはっきそつぎょー。	NO_LABEL
2008年	にせんはちねん	NO_LABEL
2010年	にせんじゅうねん	NO_LABEL
2011年	にせんじゅういちねん	NO_LABEL
