『アイルトン・セナ 〜音速の彼方へ』は、 2010年イギリス製作のドキュメンタリー映画。	NO_PRONOUNCE	NO_LABEL
かつてのF1の名ドライバー、アイルトン・セナの生誕50年を記念して、慈善団体である「アイルトン・セナ財団」の公認を得て製作された。	NO_PRONOUNCE	NO_LABEL
セナの誕生からレーサーとしてのデビュー、F1で3度のワールドチャンピオンに輝くも1994年のサンマリノグランプリにおいて事故死するまでの彼の生涯を、肉親・関係者の証言や秘蔵映像などで振り返る。	NO_PRONOUNCE	NO_LABEL
2010年日本グランプリイベント開催初日の2010年10月7日、鈴鹿サーキットで初公開された。	にせんじゅうねんにっぽんぐらんぷりいべんとかいさいしょにちのにせんじゅうねんじゅーがつなのか、すずかさーきっとではつこーかいされた。	NO_LABEL
2011年のサンダンス映画祭において、ドキュメンタリー部門の観客賞を受賞。	にせんじゅういちねんのさんだんすえいがさいにおいて、どきゅめんたりーぶもんのかんきゃくしょーをじゅしょー。	NO_LABEL
本作ではセナの事故死の原因について、マスコミで広く伝わった「ステアリングコラムの破損」「サスペンションアームがバイザーに刺さった事」を簡素に説明している。	NO_PRONOUNCE	NO_LABEL
なお真相についてはイタリアで行われた裁判でさえもうやむやにされた為、公式な死亡原因については「公式発表なし」が現状である。	NO_PRONOUNCE	NO_LABEL
他、F1関係者多数。	た、えふわんかんけいしゃたすー。	NO_LABEL
