鹿児島県道221号片泊大里港線は鹿児島県鹿児島郡三島村にある県道である。	かごしまけんどーにひゃくにじゅういちごーかたどまりおーさとこーせんわかごしまけんかごしまぐんみしまむらにあるけんどーである。	NO_LABEL
黒島を縦断する道路であり、片泊と大里の集落を結ぶ道路である。	くろしまをじゅーだんするどーろであり、かたはくとおーさとのしゅーらくをむすぶどーろである。	NO_LABEL
1979年4月2日付の鹿児島県告示第445号により認定された。	NO_PRONOUNCE	NO_LABEL
また、三島村唯一の県道である。	また、みしまむらゆいいつのけんどーである。	NO_LABEL
