新庄 直時は、常陸麻生藩の第4代藩主。	しんじょーなおときわ、ひたちあさみはんのだいよんだいはんしゅ。	NO_LABEL
後に再任して第6代藩主となる。	ごにさいにんしてだいろくだいはんしゅとなる。	NO_LABEL
寛永3年、初代藩主・新庄直頼の四男・新庄直房の次男として江戸で生まれる。	NO_PRONOUNCE	NO_LABEL
寛永20年6月27日に御書院番に任じられる。	かんえいにじゅうねんろくがつにじゅうしちにちにごしょいんばんににんじられる。	NO_LABEL
慶安2年12月14日、父・直房の遺領である甲斐山梨郡・八代郡など500石の所領と家督を継いで旗本となる。	NO_PRONOUNCE	NO_LABEL
本家の麻生藩第3代藩主・新庄直好の実子・直常が早世したため、明暦2年12月1日に直好の養子として迎えられる。	NO_PRONOUNCE	NO_LABEL
万治3年に直好に実子・直矩が生まれたが、寛文2年に直好が死去したときは3歳の幼少であったため、そのまま直時が第4代藩主として家督を相続した。	NO_PRONOUNCE	NO_LABEL
12月27日に従五位下・隠岐守に叙位・任官する。	NO_PRONOUNCE	NO_LABEL
寛文3年7月に大坂加番に任じられる。	ひろふみさんねんしちがつにおーさかかばんににんじられる。	NO_LABEL
寛文9年2月には関宿城の守衛を務めた。	ひろふみきゅうねんにがつにわせきやどじょーのしゅえいをつとめた。	NO_LABEL
延宝2年8月9日、幕府に嘆願して許されたため、15歳に成長していた直矩に家督を譲って隠居した。	えんぽーにねんはちがつここのか、ばくふにたんがんしてゆるされたため、じゅうごさいにせいちょーしていたなおつねにかとくをゆずっていんきょした。	NO_LABEL
ただしこのとき、直矩が若年であることから、幕命により直時には藩領から7000石を分与され、直矩は2万3000石を相続することとなり、さらに直時は直矩の後見役を命じられた。	NO_PRONOUNCE	NO_LABEL
延宝4年4月30日、直矩が急死する。	えんぽーよんねんしがつさんじゅうにち、なおつねがきゅーしする。	NO_LABEL
直矩には継嗣がなかったため、新庄一族は幕府に無断で新たな後継者を立てようとしたが、そのため幕命により改易となった。	ちょくのりにわけいしがなかったため、しんじょーいちぞくわばくふにむだんであらたなこーけいしゃをたてようとしたが、そのためばくめいによりかいえきとなった。	NO_LABEL
しかし6月21日、幕府は隠居していた直時に3000石を新たに加増して1万石の大名として麻生藩の再興を許したことにより、直時は第6代藩主として再任することとなる。	NO_PRONOUNCE	NO_LABEL
延宝5年、幕命により大坂城守衛を務めていたが、病に倒れて7月27日に大坂で死去した。	えんぽーごねん、ばくめいによりおおさかじょーしゅえいをつとめていたが、やまいにたおれてしちがつにじゅうしちにちにだいさかでしきょした。	NO_LABEL
享年52。	NO_PRONOUNCE	NO_LABEL
跡を長男・直詮が継いだ。	NO_PRONOUNCE	NO_LABEL
