デオキシヌクレオシドキナーゼは、以下の化学反応を触媒する酵素である。	でおきしぬくれおしどきなーぜわ、いかのかがくはんのーをしょくばいするこーそである。	NO_LABEL
従って、この酵素の基質はATPと2'-デオキシヌクレオシドの2つ、生成物はADPと2'-デオキシヌクレオシド-5'-リン酸の2つである。	NO_PRONOUNCE	NO_LABEL
この酵素は転移酵素、特にアルコールを受容体とするホスホトランスフェラーゼに分類される。	このこーそわてんいこーそ、とくにあるこーるをじゅよーたいとするほすほとらんすふぇらーぜにぶんるいされる。	NO_LABEL
この酵素の系統名は、ATP:2'-デオキシヌクレオシド 5'-ホスホトランスフェラーゼである。	NO_PRONOUNCE	NO_LABEL
2007年末時点で、5つの構造が解明されている。	にせんななねんまつじてんで、いつつのこーぞーがかいめいされている。	NO_LABEL
蛋白質構造データバンクのコードは、、、、及びである。	NO_PRONOUNCE	NO_LABEL
