コンラト1世は、ジャガン、シチナヴァその他の公、オレシニツァ＝ナムィスウフ＝グニェズノ＝カリシュ公、単独のカリシュ公、単独のナムィスウフ公、オレシニツァ公。	NO_PRONOUNCE	NO_LABEL
グウォグフ公ヘンリク3世の次男で、母はブラウンシュヴァイク＝リューネブルク公アルブレヒト1世の娘メヒティルド。	NO_PRONOUNCE	NO_LABEL
父が1309年に急死すると、コンラト1世は兄弟たちとともに共同統治者として公国を相続した。	ちちがせんさんびゃくきゅうねんにきゅーしすると、こんらといっせいわきょーだいたちとともにきょーどーとーちしゃとしてこーこくをそーぞくした。	NO_LABEL
しかしコンラトは未成年であり、母と兄ヘンリク4世が1312年まで後見人を務めた。	しかしこんらとわみせいねんであり、ははとあにへんりくよんせいがせんさんびゃくじゅうにねんまでこーけんにんをつとめた。	NO_LABEL
1310年3月3日、未成年であったが、コンラトは兄ヘンリク、弟ボレスワフとともにベルリンでの会合に出席した。	せんさんびゃくじゅうねんさんがつみっか、みせいねんであったが、こんらとわあにへんりく、おとーとぼれすわふとともにべるりんでのかいごーにしゅっせきした。	NO_LABEL
この会合において、グウォグフ公爵兄弟はポモジェのグダニスク一帯を、金銭的補償と引き換えにブランデンブルク辺境伯に明け渡すことに同意した。	このかいごーにおいて、ぐうぉぐふこーしゃくきょーだいわぽもじぇのぐだにすくいったいを、きんせんてきほしょーとひきかえにぶらんでんぶるくへんきょーはくにあけわたすことにどーいした。	NO_LABEL
さらに外戚アスカーニエン家との友好関係を保つため、兄弟はクロスノ・オジャンスキェとジャガンを差しだすことも約束した。	NO_PRONOUNCE	NO_LABEL
1312年2月29日、公国の公的な分割が行われた。	せんさんびゃくじゅうにねんにがつにじゅうきゅうにち、こーこくのこーてきなぶんかつがおこなわれた。	NO_LABEL
コンラトとすぐ次弟ボレスワフは共同統治者としてグウォグフ公国の東半、およびカリシュ、グニェズノ一帯を獲得した。	こんらととすぐじおとーとぼれすわふわきょーどーとーちしゃとしてぐうぉぐふこーこくのひがしはん、およびかりしゅ、ぐにぇずのいったいをかくとくした。	NO_LABEL
ヘンリク4世と、下の弟たちヤンおよびプシェムコ2世は、シチナヴァ、ジャガン、ヴィエルコポルスカの大部分を保持した。	NO_PRONOUNCE	NO_LABEL
兄弟の母メヒティルドは、寡婦領として首都グウォグフを領有した。	きょーだいのははめひてぃるどわ、かふりょーとしてしゅとぐうぉぐふをりょーゆーした。	NO_LABEL
その1年後の1313年、コンラト1世とボレスワフは自分たちの公国をさらに分割することを決め、コンラトはカリシュ、ナムィスウフの公となった。	そのいちねんごのせんさんびゃくじゅうさんねん、こんらといっせいとぼれすわふわじぶんたちのこーこくをさらにぶんかつすることをきめ、こんらとわかりしゅ、なむぃすうふのおーやけとなった。	NO_LABEL
ヘンリク3世の5人の息子たちはひどく不安定な立場におかれていた。	へんりくさんせいのごにんのむすこたちわひどくふあんていなたちばにおかれていた。	NO_LABEL
1313年、コンラト1世は地元貴族の反乱により、カリシュを喪失した。	せんさんびゃくじゅうさんねん、こんらといっせいわじもときぞくのはんらんにより、かりしゅをそーしつした。	NO_LABEL
同年、レグニツァの諸公がコンラトの領国からウラスを奪った。	どーねん、れぐにつぁのしょこーがこんらとのりょーごくからうらすをうばった。	NO_LABEL
翌1314年、ヘンリク3世の息子たちによる領土分割に反対した地元貴族たちの支持を受け、ヴワディスワフ1世短躯公がヴィエルコポルスカのほぼ全域を獲得した。	NO_PRONOUNCE	NO_LABEL
1321年、次弟ボレスワフが子供のないまま死ぬと、コンラト1世がオレシニツァを相続した。	せんさんびゃくにじゅういちねん、じおとーとぼれすわふがこどものないまましぬと、こんらといっせいがおれしにつぁをそーぞくした。	NO_LABEL
ヴワディスワフ1世とレグニツァ公ボレスワフ3世は1321年から1323年にかけて、コンラトからオレシニツァ公国を奪取するための遠征を行った。	NO_PRONOUNCE	NO_LABEL
コンラトはヴロツワフ公ヘンリク6世の娘エルジュビェタと結婚してヴロツワフ公国と対峙するのを避け、敵側に対抗した。	NO_PRONOUNCE	NO_LABEL
ヴワディスワフ1世、ボレスワフ3世との和平協定は1323年8月10日にクラクフで結ばれた。	NO_PRONOUNCE	NO_LABEL
コンラト1世はヴォウフ、ルビョンシュ、スモゴジュフを保持したが、ボレスワフ3世にナムィスウフを奪われた。	NO_PRONOUNCE	NO_LABEL
1328年、コンラト1世はボヘミア王ヨハン・フォン・ルクセンブルクに臣従の礼をとった。	せんさんびゃくにじゅうはちねん、こんらといっせいわぼへみあおーよはんふぉんるくせんぶるくにしんじゅーのれいをとった。	NO_LABEL
1343年、ポーランド王カジミェシュ3世がオレシニツァ公コンラト1世、シチナヴァ公ヤン、ジャガン公ヘンリク5世らのグウォグフ諸公に対する遠征を開始した。	NO_PRONOUNCE	NO_LABEL
コンラト世はオレシニツァの防壁を利用してポーランド国王軍を敗北に追い込み、カジミェシュ3世との和平にこぎ着けた。	こんらとよわおれしにつぁのぼーへきをりよーしてぽーらんどこくおーぐんをはいぼくにおいこみ、かじみぇしゅさんせいとのわへいにこぎつけた。	NO_LABEL
1345年、コンラトは甥のヘンリク5世と共同してポーランドからフショヴァを奪回しようと試みたが失敗した。	NO_PRONOUNCE	NO_LABEL
1355年、コンラト1世はコジュレ公国を獲得した。	せんさんびゃくごじゅうごねん、こんらといっせいわこじゅれこーこくをかくとくした。	NO_LABEL
1357年12月8日には、チェシン公カジミェシュ1世との間でビトム公国を分割した。	せんさんびゃくごじゅうななねんじゅーにがつようかにわ、ちぇしんおーやけかじみぇしゅいっせいとのまでびとむこーこくをぶんかつした。	NO_LABEL
翌1358年、ヴロツワフ司教からミリチュを購入した。	NO_PRONOUNCE	NO_LABEL
1361年にシチナヴァ公ヤンが子供を残さず死ぬと、コンラト1世と甥ヘンリク5世はその遺領の相続をめぐって対立した。	NO_PRONOUNCE	NO_LABEL
両者の争いは1365年、ブジェク公ルドヴィク1世の調停によって解決した。	NO_PRONOUNCE	NO_LABEL
コンラト1世は1366年12月22日に亡くなり、トシェブニツァの修道院内にある聖ヤドヴィガ礼拝堂に埋葬された。	NO_PRONOUNCE	NO_LABEL
1322年1月10日、コンラト1世はヴロツワフ公ヘンリク6世の娘エルジュビェタと最初の結婚をしたが、子供に恵まれないまま死別した。	NO_PRONOUNCE	NO_LABEL
このため1333年3月2日、コンラトはコジュレ＝ビトム公ヴワディスワフの娘エウフェミアと再婚し、あいだに2人の子供をもうけた。	NO_PRONOUNCE	NO_LABEL
