自判とは、上訴した裁判所が原審の判決を不当として取消または破棄して判決すること。	じはんとわ、じょーそしたさいばんしょがげんしんのはんけつをふとーとしてとりけしまたわはきしてはんけつすること。	NO_LABEL
取消自判と破棄自判の2種類がある。	とりけしじはんとはきじはんのにしゅるいがある。	NO_LABEL
民事訴訟の控訴審判決で第一審判決を取り消し、改めて判決を行うこと。	みんじそしょーのこーそしんはんけつでだいいっしんはんけつをとりけし、あらためてはんけつをおこなうこと。	NO_LABEL
民事訴訟は第一審・第二審とも事実審であるため、取消自判が原則である。	NO_PRONOUNCE	NO_LABEL
第一審判決が不当な場合は判決を取り消し、第一審の判決手続きが違法である場合も判決を取り消さなければならない。	だいいっしんはんけつがふとーなばあいわはんけつをとりけし、だいいちしんのはんけつてつずきがいほーであるばあいもはんけつをとりけさなければならない。	NO_LABEL
取り消された場合、裁判所の判断がなくなるため、自判をする必要がある。	とりけされたばあい、さいばんしょのはんだんがなくなるため、じはんをするひつよーがある。	NO_LABEL
第一審の判決が訴え却下の場合は第一審に差し戻さなければならないが、事件につきさらに弁論をする必要がない場合は自判できる。	だいいちしんのはんけつがうったえきゃっかのばあいわだいいちしんにさしもどさなければならないが、じけんにつきさらにべんろんをするひつよーがないばあいわじはんできる。	NO_LABEL
民事訴訟の上告審、及び刑事訴訟の控訴審・上告審で原審を破棄して判決を下すことを破棄自判という。	NO_PRONOUNCE	NO_LABEL
刑事訴訟の控訴審において破棄事由に該当する場合は判決で原判決を破棄しなければならず、裁判所の取調べの結果原審を破棄しなければ正義に反する場合も原判決を破棄することができる。	けいじそしょーのこーそしんにおいてはきじゆーにがいとーするばあいわはんけつでげんはんけつをはきしなければならず、さいばんしょのとりしらべのけっかげんしんをはきしなければせいぎにはんするばあいもはらはんけつをはきすることができる。	NO_LABEL
この場合、直ちに判決を言い渡せる場合は自判することができる。	このばあい、ただちにはんけつをいーわたせるばあいわじはんすることができる。	NO_LABEL
刑事訴訟の上告審では第410条に破棄すべき事由、第411条に破棄可能である事由が列挙されており、これに該当する場合は原審に差し戻すか移送することになるが、直ちに判決を下せる場合は自判もできる。	NO_PRONOUNCE	NO_LABEL
上記の規定によれば、民事訴訟法では破棄自判できる範囲が限定されており、それ以外の場合で原判決を破棄する場合は、第325条により原審または第一審に差し戻すか、移送することが原則となる。	NO_PRONOUNCE	NO_LABEL
刑事訴訟法では差し戻しまたは移送を原則とする。	けいじそしょーほーでわさしもどしまたわいそーをげんそくとする。	NO_LABEL
刑事訴訟で最高裁が破棄自判をすることは、高裁での破棄自判の例に準ずる。	けいじそしょーでさいこーさいがはきじはんをすることわ、こーさいでのはきじはんのれいにじゅんずる。	NO_LABEL
最高裁の自判の実例としては、例えば民事事件では：	NO_PRONOUNCE	NO_LABEL
などがある。	などがある。	NO_LABEL
刑事では：	NO_PRONOUNCE	NO_LABEL
などが有名。	などがゆーめい。	NO_LABEL
最近の裁判例では：	NO_PRONOUNCE	NO_LABEL
などがある。	などがある。	NO_LABEL
刑事訴訟法には自判という語句は存在しない。	けいじそしょーほーにわじはんとゆうごくわそんざいしない。	NO_LABEL
民事訴訟法第326条の条文見出しは「破棄自判」とあるが、本文に自判という語句は使われていない。	NO_PRONOUNCE	NO_LABEL
