鳴瀬 ひろふみは、日本の女性漫画家、イラストレーター。	なるせひろふみわ、にっぽんのじょせいまんがか、いらすとれーたー。	NO_LABEL
既婚。	きこん。	NO_LABEL
学生時代にデビュー作。	がくせいじだいにでびゅーさく。	NO_LABEL
高校時代までは専ら読み手で大学時代から本格的に描くようになる。	こーこーじだいまでわもっぱらよみてでだいがくじだいからほんかくてきにえがくよーになる。	NO_LABEL
就職活動に失敗して漫画家になる。	しゅーしょくかつどーにしっぱいしてまんがかになる。	NO_LABEL
当初発表していた雑誌が休刊になり、古事記王子の紹介で、COMICポプリクラブの担当を紹介して貰い、作品を発表する。	とーしょはっぴょーしていたざっしがきゅーかんになり、こじきおーじのしょーかいで、こみっくぽぷりくらぶのたんとーをしょーかいしてもらい、さくひんをはっぴょーする。	NO_LABEL
ハードな展開もあるが、基本的に少女漫画風の純愛系の物語である。	はーどなてんかいもあるが、きほんてきにしょーじょまんがふーのじゅんあいけいのものがたりである。	NO_LABEL
その後、ゲーム原画を担当したり、同人活動も盛んに行うようになる。	そのご、げーむげんがをたんとーしたり、どーじんかつどーもさかんにおこなうよーになる。	NO_LABEL
原画家としての代表作は、「SAKURA 雪月華」など。	NO_PRONOUNCE	NO_LABEL
久我城貴哉とコンビで作品を制作する機会が多い。	くがじょーたかやとこんびでさくひんをせいさくするきかいがおーい。	NO_LABEL
同人活動でのサークル名は「恋愛漫画家」	NO_PRONOUNCE	NO_LABEL
電撃G's Festival COMICにて「戦国ランス」をコミカライズしている。	NO_PRONOUNCE	NO_LABEL
※　読み切り形式を取っているが、話がつながっており、事実上、1作の長篇である。	NO_PRONOUNCE	NO_LABEL
COMICポプリクラブ1999年5月号から隔月で2000年1月号まで連載された。	こみっくぽぷりくらぶせんきゅうひゃくきゅうじゅうきゅうねんごがつごーからかくげつでにせんねんいちがつごーまでれんさいされた。	NO_LABEL
