ジャッキー・マクナマラは、スコットランド、グラスゴー出身の元サッカー選手、サッカー指導者。	じゃっきーまくなまらわ、すこっとらんど、ぐらすごーしゅっしんのもとさっかーせんしゅ、さっかーしどーしゃ。	NO_LABEL
ポジションはDFであるが、SHなどMFも務める。	ぽじしょんわでぃふぇんだーであるが、えすえいちなどえむえふもつとめる。	NO_LABEL
1991年、ダンファームリンにウイングバックとして入団する。	せんきゅうひゃくきゅうじゅういちねん、だんふぁーむりんにういんぐばっくとしてにゅーだんする。	NO_LABEL
ダンファームリンでの活躍が認められ、1995年にセルティックに移籍。	だんふぁーむりんでのかつやくがみとめられ、せんきゅうひゃくきゅうじゅうごねんにせるてぃっくにいせき。	NO_LABEL
移籍当初から活躍し、1995-96シーズンのSPFAが選出する最優秀若手選手に選ばれ、スコットランド代表にも選ばれる。	NO_PRONOUNCE	NO_LABEL
1997-98シーズンにはクラブの9年ぶりのスコティッシュ・プレミアリーグ制覇に貢献すると共に、ライバルであるレンジャーズの10連覇を阻止し、SPFA最優秀選手に選ばれるなどセルティックを代表する選手となる。	NO_PRONOUNCE	NO_LABEL
2000年から監督に就任したマーティン・オニールの元でクラブの黄金期を経験し、3度のリーグ制覇や2002-03シーズンのUEFAカップ準優勝などに貢献した。	NO_PRONOUNCE	NO_LABEL
また、2004-05にはキャプテンとしても活躍し、2004年にはSPWAが選出する最優秀選手にも選ばれた。	NO_PRONOUNCE	NO_LABEL
2004-05シーズン後に、イングランドのウルヴァーハンプトンに移籍。	NO_PRONOUNCE	NO_LABEL
その後、2007年にアバディーン、2008年にフォルカークに移籍した。	そのご、にせんななねんにあばでぃーん、にせんはちねんにふぉるかーくにいせきした。	NO_LABEL
スコットランド代表としては33試合に出場し、1998年のワールドカップフランス大会にも出場している。	すこっとらんどだいひょーとしてわさんじゅうさんしあいにしゅつじょーし、せんきゅうひゃくきゅうじゅうはちねんのわーるどかっぷふらんすたいかいにもしゅつじょーしている。	NO_LABEL
バリー・ファーガソンの代わりにキャプテンを務めることもあった。	ばりーふぁーがそんのかわりにきゃぷてんをつとめることもあった。	NO_LABEL
