根室振興局は、北海道の振興局のひとつ。	ねむろしんこーきょくわ、ほっかいどーのしんこーきょくのひとつ。	NO_LABEL
振興局所在地は根室市。	しんこーきょくしょざいちわねむろし。	NO_LABEL
2010年4月1日、根室支庁に代わって発足した。	にせんじゅうねんしがつついたち、ねむろしちょーにかわってほっそくした。	NO_LABEL
従来の根室支庁と同一である。	じゅーらいのねむろしちょーとどーいつである。	NO_LABEL
14支庁を9総合振興局・5振興局へ再編する北海道総合振興局設置条例では、釧路支庁より改組される道東総合振興局の下部組織として設置される予定であったが、「格下げ」に対する反発が生じたことから2009年3月に条例を改正。	NO_PRONOUNCE	NO_LABEL
根室を始めとする5振興局については、総合振興局と同等の地位とされる一方で、「広域で所管することが望ましい業務」に関しては、隣接する釧路総合振興局が根室振興局の管内においても事務に当たることが出来るものとされた。	NO_PRONOUNCE	NO_LABEL
なお、北海道庁では、本庁で行っている北方領土返還運動に関する業務を根室振興局へ全面的に移管することを提案している。	なお、ほっかいどーちょーでわ、ほんちょーでおこなっているほっぽーりょーどへんかんうんどーにかんするぎょーむをねむろしんこーきょくえぜんめんてきにいかんすることをていあんしている。	NO_LABEL
