ブライアン・クリストファー・グッドウィンは、アメリカ合衆国ノースカロライナ州ロッキーマウント出身のプロ野球選手。	NO_PRONOUNCE	NO_LABEL
右投左打。	みぎなげひだりうち。	NO_LABEL
MLB・ワシントン・ナショナルズ所属。	NO_PRONOUNCE	NO_LABEL
愛称はB.グッド。	NO_PRONOUNCE	NO_LABEL
のMLBドラフト17巡目でシカゴ・ホワイトソックスから指名されたが、契約せずにノースカロライナ大学チャペルヒル校へ進学した。	NO_PRONOUNCE	NO_LABEL
在学時の、MLBドラフト1巡目追補でワシントン・ナショナルズから指名され、プロ入り。	NO_PRONOUNCE	NO_LABEL
に傘下のA級でプロデビュー。	にさんかのえーきゅーでぷろでびゅー。	NO_LABEL
AA級ハリスバーグ・セネターズでもプレーし、2球団合計で100試合に出場して打率.280・14本塁打・52打点・18盗塁の成績を残した。	NO_PRONOUNCE	NO_LABEL
オフにはアリゾナ・フォールリーグに参加し、に所属した。	おふにわありぞなふぉーるりーぐにさんかし、にしょぞくした。	NO_LABEL
はAA級ハリスバーグでプレーし、122試合に出場して打率.252・10本塁打・40打点・19盗塁の成績を残した。	NO_PRONOUNCE	NO_LABEL
この年のオフもアリゾナ・フォールリーグに参加し、メサ・ソーラーソックスに所属した。	このとしのおふもありぞなふぉーるりーぐにさんかし、めさそーらーそっくすにしょぞくした。	NO_LABEL
はAAA級シラキュース・チーフスでプレーし、81試合に出場して打率.219・4本塁打・32打点・6盗塁の成績を残した。	NO_PRONOUNCE	NO_LABEL
オフの11月20日に40人枠入りした。	おふのじゅーいちがつはつかによんじゅうにんわくいりした。	NO_LABEL
はAA級ハリスバーグでプレーし、114試合に出場して打率.226・8本塁打・46打点・15盗塁の成績を残した。	NO_PRONOUNCE	NO_LABEL
はAAA級シラキュースで開幕を迎え、8月6日にメジャー初昇格を果たした。	わとりぷれあきゅーしらきゅーすでかいまくをむかえ、はちがつむいかにめじゃーはつしょーかくをはたした。	NO_LABEL
同日のサンフランシスコ・ジャイアンツ戦でメジャーデビュー。	どーじつのさんふらんしすこじゃいあんつせんでめじゃーでびゅー。	NO_LABEL
この年メジャーでは22試合に出場して打率.286・5打点の成績を残した。	NO_PRONOUNCE	NO_LABEL
