ホルヘ・ルイス・ボルピ・エスカランテは、メキシコ・メキシコシティ出身の著作家。	NO_PRONOUNCE	NO_LABEL
若い頃から執筆を始め、16歳のときにメキシコ大学センターが主宰する文学コンクールに作品を応募する。	わかいころからしっぴつをはじめ、じゅうろっさいのときにめきしこだいがくせんたーがしゅさいするぶんがくこんくーるにさくひんをおーぼする。	NO_LABEL
同賞には、後に『クラック・ムーブメント』を共に主動することとなるイグナシオ・パディージャやエロイ・ウロスも参加している。	NO_PRONOUNCE	NO_LABEL
1991年、メキシコ国立自治大学法律学部を卒業し、その後同大学のメキシコ文学修士を取得する。	せんきゅうひゃくきゅうじゅういちねん、めきしここくりつじちだいがくほーりつがくぶをそつぎょーし、そのごどーだいがくのめきしこぶんがくしゅーしをしゅとくする。	NO_LABEL
1995年、サラマンカ大学の文献学博士課程に進み、後にエッセイ『戦争と言葉』として出版された博士論文を上梓する。	NO_PRONOUNCE	NO_LABEL
1996年、パディージャ、ウロス、他メキシコ人作家たちと共同で『クラック宣言』を発表する。	NO_PRONOUNCE	NO_LABEL
これは、いわゆるラテンアメリカ文学ブーム世代の潮流から脱することを目的とした、ポストブーム作家たちによる文学運動に先立つマニフェストであり、ボルピたち代表的な作家は『クラック世代』と呼ばれる。	NO_PRONOUNCE	NO_LABEL
1992年出版の長編『暗い沈黙にもかかわらず』でデビューしたのち、メキシコ国内外の出版社から小説やエッセイ、評論等を発表する。	NO_PRONOUNCE	NO_LABEL
1999年に長編小説『クリングゾールをさがして』を出版し、ビブリオテーカ・ブレーベ賞を受賞、また同書は世界25ヶ国語以上に翻訳され、作者の国際的評価を確立させることとなった。	NO_PRONOUNCE	NO_LABEL
同作は『20世紀をめぐる三部作』の1作目とされ、『狂気の終わり』、『地球じゃない』の出版をもって完結した。	NO_PRONOUNCE	NO_LABEL
ボルピの小説が原作となった同名映画『選ばれし少女たち』が2016年に公開され、アリエル映画賞の作品賞を受賞した。	NO_PRONOUNCE	NO_LABEL
近年では、長編『ある犯罪小説』を発表し、スペイン語圏の権威ある文学賞アルファグアラ賞を獲得した。	NO_PRONOUNCE	NO_LABEL
ボルピは、アメリカのコーネル大学、プリンストン大学、エモリー大学、メキシコ国内のラス・アメリカス大学等で教鞭をとり、また2013年から2016年の間、ラテンアメリカで最も重要な芸術の祭典として知られるセルバンティーノ国際芸術祭の代表を務めた。	NO_PRONOUNCE	NO_LABEL
退任後の2016年12月からはメキシコ国立自治大学の文化普及局代表に就任するなど執筆活動以外でも幅広い活動を続けている。	たいにんごのにせんじゅうろくねんじゅーにがつからわめきしここくりつじちだいがくのぶんかふきゅーきょくだいひょーにしゅーにんするなどしっぴつかつどーいがいでもはばひろいかつどーをつずけている。	NO_LABEL
