留萌川は、北海道留萌市を流れ日本海に注ぐ一級河川。	るもいがわわ、ほっかいどーるもいしをながれにほんかいにそそぐいっきゅーかせん。	NO_LABEL
留萌川水系の本流。	るもいがわすいけいのほんりゅー。	NO_LABEL
流域面積270kmは、留萌市の市域から海岸沿いの小河川の流域を除いた範囲になる。	りゅーいきめんせきにひゃくななじゅうきろめーとるわ、るもいしのしいきからかいがんぞいのしょーかせんのりゅーいきをのぞいたはんいになる。	NO_LABEL
北海道留萌市北東部にある天塩山地南端のポロシリ山付近の雨竜郡沼田町との境界に源を発し南へ流れる。	ほっかいどーるもいしほくとーぶにあるてしおさんちなんたんのぽろしりやまふきんのうりゅーぐんぬたちょーとのきょーかいにみなもとをはっしみなみえながれる。	NO_LABEL
恵比島峠付近で西に向きを変え、留萌市幌糠町で北西に流れを転じ、留萌市元町と留萌市塩見町の境界から日本海に注ぐ。	えびしまとーげふきんでにしにむきをかえ、るもいしほろぬかちょーでほくせいにながれをてんじ、るもいしもとまちとるもいししおみちょーのきょーかいからにほんかいにそそぐ。	NO_LABEL
留萌川はたびたび氾濫を繰り返し、特に1988年8月25日の洪水では浸水3,376戸という被害を出した。	NO_PRONOUNCE	NO_LABEL
また、飲用水に適した取水場所がなく、留萌市の水道水は隣接する増毛町の新信砂川から取水している。	また、いんよーすいにてきしたしゅすいばしょがなく、るもいしのすいどーすいわりんせつするましけちょーのしんのぶしゃがわからしゅすいしている。	NO_LABEL
これらの問題を解決するため、最大支流のチバベリ川に留萌ダムが建設された。	これらのもんだいをかいけつするため、さいだいしりゅーのちばべりがわにるもえだむがけんせつされた。	NO_LABEL
