八幡町は、埼玉県草加市の町名。	はちまんちょーわ、さいたまけんそーかしのちょーめい。	NO_LABEL
郵便番号は340-0006。	NO_PRONOUNCE	NO_LABEL
草加市の南西部に位置する。	そーかしのなんせいぶにいちする。	NO_LABEL
越谷市と接する。	こしがやしとせっする。	NO_LABEL
主に住宅地となっている。	おもにじゅーたくちとなっている。	NO_LABEL
西側を綾瀬川が流れる。	にしがわをあやせがわがながれる。	NO_LABEL
かつては槐戸村であった。	かつてわえんじゅとむらであった。	NO_LABEL
2017年10月1日現在の世帯数と人口は以下の通りである。	にせんじゅうななねんじゅーがつついたちげんざいのせたいすーとじんこーわいかのとーりである。	NO_LABEL
市立小・中学校に通う場合、学区は以下の通りとなる。	しりつしょーちゅーがっこーにかようばあい、がっくわいかのとーりとなる。	NO_LABEL
