円乗寺は、東京都文京区白山にある天台宗の寺院。	えんじょーじわ、とーきょーとぶんきょーくはくさんにあるてんだいしゅーのじいん。	NO_LABEL
山号は南縁山。	さんごーわみなみへりやま。	NO_LABEL
院号は正徳院。	いんごーわしょーとくいん。	NO_LABEL
本尊は釈迦牟尼如来。	ほんぞんわしゃかむににょらい。	NO_LABEL
この寺は、天正年間円栄によって創建されたと伝えられる。	このてらわ、てんしょーねんかんえんさかえによってそーけんされたとつたえられる。	NO_LABEL
八百屋お七の家がこの寺の檀家であったと伝えられ、境内にはお七の墓がある。	やおやおしちのいえがこのてらのだんかであったとつたえられ、けいだいにわおしちのはかがある。	NO_LABEL
寛政年間にお七役で名を馳せた四代目岩井半四郎によって建立された。	かんせいねんかんにおななやくでなをはせたよだいめいわいはんしろーによってこんりゅーされた。	NO_LABEL
