立見 豊丸1月28日 – 1942年11月2日）は、大日本帝国陸軍軍人。	NO_PRONOUNCE	NO_LABEL
貴族院子爵議員。	きぞくいんししゃくぎいん。	NO_LABEL
陸軍政務次官。	りくぐんせいむじかん。	NO_LABEL
陸軍大将、男爵・立見尚文の二男として生まれ、父の死去に伴い1907年5月2日に男爵を襲爵し、同年10月2日には父の功で子爵に陞爵した。	NO_PRONOUNCE	NO_LABEL
1899年11月、陸軍士官学校を卒業し、1900年6月22日、砲兵少尉任官。	せんはっぴゃくきゅうじゅうきゅうねんじゅーいちがつ、りくぐんしかんがっこーをそつぎょーし、せんきゅうひゃくねんろくがつにじゅうににち、ほーへいしょーいにんかん。	NO_LABEL
陸軍砲工学校高等科で学び、1911年11月、陸軍大学校を卒業。	りくぐんほーこーがっこーこーとーかでまなび、せんきゅうひゃくじゅういちねんじゅーいちがつ、りくぐんだいがっこーをそつぎょー。	NO_LABEL
陸軍士官学校教官、東京湾要塞参謀、山砲第1連隊長、野戦重砲兵第7連隊長などを歴任した。	NO_PRONOUNCE	NO_LABEL
1923年、陸軍砲兵大佐で予備役に編入された。	せんきゅうひゃくにじゅうさんねん、りくぐんほーへいたいさでよびえきにへんにゅーされた。	NO_LABEL
1932年7月15日、貴族院子爵議員に当選し、研究会に属して活動し死去するまで在任。	せんきゅうひゃくさんじゅうにねんしちがつじゅうごにち、きぞくいんししゃくぎいんにとーせんし、けんきゅーかいにぞくしてかつどーししきょするまでざいにん。	NO_LABEL
廣田内閣では陸軍政務次官を務め、その他、維新史料編纂会委員も務めた。	ひろたないかくでわりくぐんせいむじかんをつとめ、そのた、いしんしりょーへんさんかいいいんもつとめた。	NO_LABEL
