吉田 胡桃は、日本のシンクロナイズドスイミング元選手。	よしだくるみわ、にっぽんのしんくろないずどすいみんぐもとせんしゅ。	NO_LABEL
追手門学院大学卒業。	おーてもんがくいんだいがくそつぎょー。	NO_LABEL
2歳で競泳を始め、小学校4年生のときにシンクロナイズドスイミングに転向した。	にさいできょーえいをはじめ、しょーがっこーよんねんせいのときにしんくろないずどすいみんぐにてんこーした。	NO_LABEL
聖母被昇天学院高等学校から追手門学院大学に進み、井村シンクロクラブに所属。	せいぼひしょーてんがくいんこーとーがっこーからおーてもんがくいんだいがくにすすみ、いむらしんくろくらぶにしょぞく。	NO_LABEL
2010年、FINAシンクロワールドカップで日本代表入りし、2012年ロンドンオリンピックではチームで5位入賞。	にせんじゅうねん、ふぃなしんくろわーるどかっぷでにほんだいひょーいりし、にせんじゅうにねんろんどんおりんぴっくでわちーむでごいにゅーしょー。	NO_LABEL
2016年リオデジャネイロオリンピックでチーム銅メダルを獲得。	にせんじゅうろくねんりおでじゃねいろおりんぴっくでちーむどーめだるをかくとく。	NO_LABEL
