今西 正雄は、日本の歴史学者。	いまにしまさおわ、にっぽんのれきしがくしゃ。	NO_LABEL
同志社大学名誉教授。	どーししゃだいがくめいよきょーじゅ。	NO_LABEL
1905年5月京都市の西陣に織問屋を営む今西家の長男に生まれる。	せんきゅうひゃくごねんごがつきょーとしのにしじんにおとんやをいとなむいまにしかのちょーなんにうまれる。	NO_LABEL
1928年、同志社大学法学部経済学科卒業。	せんきゅうひゃくにじゅうはちねん、どーししゃだいがくほーがくぶけいざいがっかそつぎょー。	NO_LABEL
アメリカ合衆国やドイツに留学。	あめりかがっしゅーこくやどいつにりゅーがく。	NO_LABEL
1949年より同志社大学経済学部教授。	せんきゅうひゃくよんじゅうきゅうねんよりどーししゃだいがくけいざいがくぶきょーじゅ。	NO_LABEL
専攻はドイツ経済史。	せんこーわどいつけいざいし。	NO_LABEL
1965年ころから「低開発」問題に関心をもち、ブラジル経済史、特にポピュリスト的指導者ヴァルガスの計画経済の研究にとりくむ。	NO_PRONOUNCE	NO_LABEL
1976年の退職後は、同志社大学や他大学で後進の指導にあたった。	せんきゅうひゃくななじゅうろくねんのたいしょくごわ、どーししゃだいがくやただいがくでこーしんのしどーにあたった。	NO_LABEL
1990年ブラジルで逝去。	せんきゅうひゃくきゅうじゅうねんぶらじるでせいきょ。	NO_LABEL
享年85歳。	きょーねんはちじゅうごさい。	NO_LABEL
