野本 梨佳は、日本のバレーボール選手である。	のもとりかわ、にっぽんのばれーぼーるせんしゅである。	NO_LABEL
プレミアリーグ・久光製薬スプリングスに所属。	NO_PRONOUNCE	NO_LABEL
愛媛県松山市出身。	えひめけんまつやまししゅっしん。	NO_LABEL
小学校ではバスケットボールをしていたが、中学に入学すると「バレーボールがやりたくなって」始める。	NO_PRONOUNCE	NO_LABEL
2006年のJOC杯ではベスト8に入賞し、オリンピック有望選手賞を獲得した。	にせんろくねんのじぇいおーしーはいでわべすとえいとににゅーしょーし、おりんぴっくゆーぼーせんしゅしょーをかくとくした。	NO_LABEL
聖カタリナ女子高時代には、1年次からエース格として活躍し、3年次には主将を務めた。	ひじりかたりなじょしこーじだいにわ、いちねんじからえーすかくとしてかつやくし、さんねんじにわしゅしょーをつとめた。	NO_LABEL
攻守のバランスがとれたプレーヤーである。	こーしゅのばらんすがとれたぷれーやーである。	NO_LABEL
2010年1月、久光製薬スプリングスの内定選手となった。	にせんじゅうねんいちがつ、ひさみつせいやくすぷりんぐすのないていせんしゅとなった。	NO_LABEL
同年12月、プレミアリーグの対JT戦において、プレミアデビューを果たす。	どーねんじゅーにがつ、ぷれみありーぐのたいじぇいてぃーせんにおいて、ぷれみあでびゅーをはたす。	NO_LABEL
2012年4月、全日本代表メンバーに選出された。	にせんじゅうにねんしがつ、ぜんにほんだいひょーめんばーにせんしゅつされた。	NO_LABEL
Vプレミアリーグレギュラーラウンドにおける個人成績は下記の通り。	ぶいぷれみありーぐれぎゅらーらうんどにおけるこじんせいせきわかきのとーり。	NO_LABEL
