ブラックホールの一覧は、大きさで分類したブラックホール及びその候補天体の不完全な一覧である。	ぶらっくほーるのいちらんわ、おーきさでぶんるいしたぶらっくほーるおよびそのこーほてんたいのふかんぜんないちらんである。	NO_LABEL
恒星ブラックホール及びその候補	こーせいぶらっくほーるおよびそのこーほ	NO_LABEL
マイクロブラックホールの実在については、現在、理論的なモデルに留まっているが、大型ハドロン衝突型加速器等の粒子加速器で実験が進行している。	まいくろぶらっくほーるのじつざいについてわ、げんざい、りろんてきなもでるにとまっているが、おーがたはどろんしょーとつがたかそくきとーのりゅーしかそくきでじっけんがしんこーしている。	NO_LABEL
