レオニード・イヴァノヴィチ・セドネフは、叔父のとともにロマノフ朝最後の皇帝ニコライ2世一家のお抱え料理人の助手を務めた少年である。	NO_PRONOUNCE	NO_LABEL
ヤコフ・ユロフスキー配下の銃殺隊によるニコライ2世一家の銃殺が実行された1918年7月17日以降も生き延びることができた唯一のイパチェフ館の囚人となった。	やこふゆろふすきーはいかのじゅーさつたいによるにこらいにせいいっかのじゅーさつがじっこーされたせんきゅうひゃくじゅうはちねんしちがつじゅうしちにちいこーもいきのびることができたゆいいつのいぱちぇふかんのしゅーじんとなった。	NO_LABEL
ツァールスコエ・セローで叔父のと同様にニコライ2世一家お抱えの料理人の助手として採用されたレオニード・セドネフは歳の近いニコライ2世の息子のアレクセイ・ニコラエヴィチ皇太子と親しくなり、彼の遊び友達になった。	NO_PRONOUNCE	NO_LABEL
イヴァン・セドネフとレオニード・セドネフはニコライ2世一家が移送されたシベリアのトボリスクとエカテリンブルクにあるイパチェフ館でも引き続き元皇帝一家の料理人の助手を務めた。	NO_PRONOUNCE	NO_LABEL
叔父のイヴァンは1918年5月27日にアレクセイのお守り役であるナゴールヌイと一緒に尋問のためにイパチェフ館から連れ去られた。	NO_PRONOUNCE	NO_LABEL
この日、館の周辺をぶらぶら歩いていたは2人が赤軍兵士によって無蓋四輪馬車に乗せられるのを目撃している。	このひ、かんのしゅーへんをぶらぶらあるいていたわふたりがせきぐんへいしによってむがいよんりんばしゃにのせられるのをもくげきしている。	NO_LABEL
それきり2人は二度と館に戻らなかった。	それきりふたりわにどとかんにもどらなかった。	NO_LABEL
7月14日に司祭のストロジェフが許可を得て館に招かれ、ニコライ2世一家は聖体礼儀を行った。	しちがつじゅうよっかにしさいのすとろじぇふがきょかをえてかんにまねかれ、にこらいにせいいっかわせいたいれいぎをおこなった。	NO_LABEL
この若い神父はエフゲニー・ボトキン、アレクセイ・トルップらとともにセドネフ少年が後方のアーチの影に立っていたのを確認している。	このわかいしんぷわえふげにーぼときん、あれくせいとるっぷらとともにせどねふしょーねんがこーほーのあーちのかげにたっていたのをかくにんしている。	NO_LABEL
7月16日朝に館の警護隊長ヤコフ・ユロフスキーはセドネフを館から通りの向かいの警護兵たちの宿舎に引っ越させた。	しちがつじゅうろくにちあさにかんのけいごたいちょーやこふゆろふすきーわせどねふをかんからとーりのむかいのけいごへいたちのしゅくしゃにひっこさせた。	NO_LABEL
セドネフが帰ってこないのをひどく心配した前皇后アレクサンドラ・フョードロヴナはその日の晩にどういう事情があるのか、ボトキンを聞きにやった。	NO_PRONOUNCE	NO_LABEL
ユロフスキーはボトキンとタチアナ・ニコラエヴナにセドネフは叔父に会いに行くために館を去ったのだと説明したが、一家の抱いた不安は解消されなかった。	NO_PRONOUNCE	NO_LABEL
実際にはイヴァンは6月上旬に銃殺されていたため、面会は不可能であった。	NO_PRONOUNCE	NO_LABEL
アレクサンドラの人生最後の日記に彼の名前が登場する。	あれくさんどらのじんせいさいごのにっきにかれのなまえがとーじょーする。	NO_LABEL
警護兵のフィリップ・プロスクリャコフは前皇帝一家が失踪する前日にセドネフが彼のベッドで一緒に寝たので話をしたが、その時にユロフスキーに衣類を取り上げられてしまったと文句を言っていたと白軍の取調官に供述している。	NO_PRONOUNCE	NO_LABEL
7月17日に起こったとされるエカテリンブルクの惨劇の定説を疑問視するとは著書『ロマノフ家の最期』の中で、この時点ではまだアレクセイの殺害は計画されておらず、彼に衣服を着せるために取り上げたのではないかと推測している。	NO_PRONOUNCE	NO_LABEL
また、警護兵のレテミンは7月17日の朝8時に宿舎に立ち寄るとそこにセドネフがいたので、どうしてここにいるのか？と聞くと、その場にいた警護兵のアレクサンドル・ストレコチンが片手を振ってセドネフを脇の方に連れて行き、昨夜遅くに前皇帝夫妻とその家族全員、医師のエフゲニー・ボトキン、料理人のイヴァン・ハリトーノフ、召使いのアレクセイ・トルップ、侍女のアンナ・デミドヴァが殺害されたこと、彼自身もその現場に立ち会ったことを知らせてきたと白軍の取調官に供述している。	NO_PRONOUNCE	NO_LABEL
ユロフスキーの指令によって間一髪のところで命を救われることになったセドネフは7月20日に・ソビエト当局によって親戚が住むへ列車で送り出された。	NO_PRONOUNCE	NO_LABEL
レオニード・セドネフにはいくつもの死亡説が存在する。	れおにーどせどねふにわいくつものしぼーせつがそんざいする。	NO_LABEL
その一つは第二次世界大戦中の1941年10月にモスクワの戦いで戦死したとされており、その証拠も残されている。	そのひとつわだいにじせかいたいせんちゅーのせんきゅうひゃくよんじゅういちねじゅーがつにもすくわのたたかいでせんししたとされており、そのしょーこものこされている。	NO_LABEL
他の情報源では反革命の陰謀に加担した罪で1929年にで銃殺刑に処されたとされる。	たのじょーほーげんでわはんかくめいのいんぼーにかたんしたつみでせんきゅうひゃくにじゅうきゅうねにでじゅーさつけいにしょされたとされる。	NO_LABEL
さらに死亡報告書には有罪判決を受けて最後の任地となったブリャンスク戦線で1942年7月17日に処刑されたと書かれている。	さらにしぼーほーこくしょにわゆーざいはんけつをうけてさいごのにんちとなったぶりゃんすくせんせんでせんきゅうひゃくよんじゅうにねんしちがつじゅうしちにちにしょけいされたとかかれている。	NO_LABEL
2009年10月16日にはレオニード・セドネフら従者を含めたボリシェヴィキによる政治的弾圧の犠牲者52名の名誉の回復を発表した。	NO_PRONOUNCE	NO_LABEL
