ニューヨーク商品取引所は、ニューヨーク市に位置する実物商品先物取引所である。	にゅーよーくしょーひんとりひきしわ、にゅーよーくしにいちするじつぶつしょーひんさきものとりひきしょである。	NO_LABEL
現在はIntercontinentalExchangeの傘下となり、ICE Futures USが正式名称となっている。	NO_PRONOUNCE	NO_LABEL
ニューヨーク商品取引所は、元々は1870年にニューヨーク・コットン取引所として設立され、1998年にはコットン取引所とコーヒー、シュガーおよびココア取引所の親会社となった。	NO_PRONOUNCE	NO_LABEL
これらの取引所は現在はNYBOTの各部門として機能している。	NO_PRONOUNCE	NO_LABEL
2006年9月14日、NYBOTはIntercontinentalExchangeの1ユニットとなることに同意し、この移行は2007年1月12日に完了した。	NO_PRONOUNCE	NO_LABEL
2007年9月に、現在の名称に変更された。	にせんななねんくがつに、げんざいのめいしょーにへんこーされた。	NO_LABEL
ニューヨーク商品取引所は、Tom GreenとAlfredo Williamsによって設立された民間企業であった。	NO_PRONOUNCE	NO_LABEL
NYBOTの立会所は合衆国政府の独立機関によって規制されている。	NO_PRONOUNCE	NO_LABEL
この取引所で取引を行う各企業は、取引所から独立した自社のブローカーを送らなければならない。	このとりひきじょでとりひきをおこなうかくきぎょーわ、とりひきじょからどくりつしたじしゃのぶろーかーをおくらなければならない。	NO_LABEL
それゆえ、この取引所の立会所の数名の従業員は各企業を代表しており、取引所の従業員は金融取引の記録を行うだけで、実際の取引には何も関与しない。	それゆえ、このとりひきしょのたちあいしょのすーめいのじゅーぎょーいんわかくきぎょーをだいひょーしており、とりひきじょのじゅーぎょーいんわきんゆーとりひきのきろくをおこなうだけで、じっさいのとりひきにわなにもかんよしない。	NO_LABEL
2001年9月11日のアメリカ同時多発テロ事件によってワールドトレードセンターが倒壊し、4 ワールドトレードセンターに入っていたNYBOTの元の本社およびトレーディング・ルームとリース契約を結び、ワールド・ファイナンシャル・センターへ移転することとなった。	NO_PRONOUNCE	NO_LABEL
NYBOTは年間$500万をこの施設の賃貸費用として支払っている。	NO_PRONOUNCE	NO_LABEL
このテロの非常事態の後も、世界貿易センター爆破事件の後にクイーンズに作られたバックアップ施設を使って取引を続けることができた。	このてろのひじょーじたいののちも、せかいぼーえきせんたーばくはじけんののちにくいーんずにつくられたばっくあっぷしせつをつかってとりひきをつずけることができた。	NO_LABEL
ニューヨーク・マーカンタイル取引所ビル内のNYBTの正式な住所は"One North End Avenue, New York, NY 10282-1101"である。	NO_PRONOUNCE	NO_LABEL
この取引所において先駆的に行われた最も革新的なコンセプトは、会員権の所有者が実際は所有していない会員権を取引する権利である。	このとりひきしょにおいてせんくてきにおこなわれたもっともかくしんてきなこんせぷとわ、かいいんけんのしょゆーしゃがじっさいわしょゆーしていないかいいんけんをとりひきするけんりである。	NO_LABEL
会員権の所有者は、自身が保有していない会員権を空売りしたり、投資目的で保有するための会員権を購入することもできる。	かいいんけんのしょゆーしゃわ、じしんがほゆーしていないかいいんけんをからうりしたり、とーしもくてきでほゆーするためのかいいんけんをこーにゅーすることもできる。	NO_LABEL
ニューヨーク商品取引所は、1983年の映画『大逆転』に登場する。	NO_PRONOUNCE	NO_LABEL
