大正期新興美術運動とは、海外の美術動向の強い影響のもと、大正期に興った前衛的な美術運動のこと。	たいしょーきしんこーびじゅつうんどーとわ、かいがいのびじゅつどーこーのつよいえいきょーのもと、たいしょーきにおこったぜんえいてきなびじゅつうんどーのこと。	NO_LABEL
美術史家五十殿利治により提唱された用語。	びじゅつしかおむかとしはるによりていしょーされたよーご。	NO_LABEL
1910年代までに洋画界の中心となったのはフランス印象派の影響を受けた東京美術学校の黒田清輝らアカデミー派であり、文部省美術展覧会がその舞台であった。	せんきゅうひゃくじゅうねんだいまでによーがかいのちゅーしんとなったのわふらんすいんしょーはのえいきょーをうけたとーきょーびじゅつがっこーのくろだせいきらあかでみーはであり、もんぶしょーびじゅつてんらんかいがそのぶたいであった。	NO_LABEL
これに対抗し、ヒュウザン会、二科会など在野の団体による活動が見られた。	これにたいこーし、ひゅうざんかい、にかかいなどざいやのだんたいによるかつどーがみられた。	NO_LABEL
第一次世界大戦が終わると、ヨーロッパへ留学する美術家も多くなり、フォービズム、キュビスム、表現主義などヨーロッパにおける新たな潮流が、同時代的に日本にもたらされる状況となった。	だいいちじせかいたいせんがおわると、よーろっぱえりゅーがくするびじゅつかもおーくなり、ふぉーびずむ、きゅびすむ、ひょーげんしゅぎなどよーろっぱにおけるあらたなちょーりゅーが、どーじだいてきににっぽんにもたらされるじょーきょーとなった。	NO_LABEL
1920年、未来派の影響を受けて「未来派美術協会」が結成された。	NO_PRONOUNCE	NO_LABEL
さらにこうした動向に大きな刺激を与えたのは、ロシアの未来派や構成主義の作家の来日、及び村山知義のドイツからの帰国である。	さらにこーしたどーこーにおーきなしげきをあたえたのわ、ろしあのみらいはやこーせいしゅぎのさっかのらいにち、およびむらやまともよしのどいつからのきこくである。	NO_LABEL
前者はロシア未来派の作家ブリュリュックとパリモフの来日と、構成主義の作家ブブノワの来日である。	ぜんしゃわろしあみらいはのさっかぶりゅりゅっくとぱりもふのらいにちと、こーせいしゅぎのさっかぶぶのわのらいにちである。	NO_LABEL
当時の運動の担い手として、具体的には次のようなグループが挙げられる。	とーじのうんどーのにないてとして、ぐたいてきにわつぎのよーなぐるーぷがあげられる。	NO_LABEL
1924年10月、これらのグループは大同団結し、『三科造形美術協会』となる。	NO_PRONOUNCE	NO_LABEL
しかし翌1925年には瓦解し、その後、1925年の『造形』、1926年の『単位三科』などのグループが生れた。	NO_PRONOUNCE	NO_LABEL
と、『単位三科』によるものとがある。	NO_PRONOUNCE	NO_LABEL
）	NO_PRONOUNCE	NO_LABEL
大正期新興美術運動はMAVOから三科結成の時期をピークとして解体し、プロレタリア美術運動などに分裂した。	NO_PRONOUNCE	NO_LABEL
「大正期新興美術運動」という名称は、五十殿利治の大著『大正期新興美術運動の研究』により、強く提唱された。	NO_PRONOUNCE	NO_LABEL
従来から、日本においても「1920年代の美術」というとらえ方が主張されているが、「大正期新興美術運動」というとらえ方は、この「1920年代の美術」に対する次の批判を内包している。	NO_PRONOUNCE	NO_LABEL
