フレデリック・カールトン・ルイスは、アメリカ合衆国の男子元陸上競技選手。	ふれでりっくかーるとんるいすわ、あめりかがっしゅーこくのだんしもとりくじょーきょーぎせんしゅ。	NO_LABEL
身長188cm・体重88kgの体躯を駆って、国際陸上競技連盟の世界順位に初めて載った1979年から1996年のオリンピック終了までに、10のオリンピックメダルと10の世界選手権メダルを獲得した。	NO_PRONOUNCE	NO_LABEL
アラバマ州バーミングハムに生まれニュージャージー州で育つ。	あらばましゅーばーみんぐはむにうまれにゅーじゃーじーしゅーでそだつ。	NO_LABEL
1983年の第1回世界陸上競技選手権大会・ヘルシンキ大会で、100m、走幅跳、4×100mリレーの3種目を制覇。	NO_PRONOUNCE	NO_LABEL
初のメジャータイトルを獲得し、陸上競技界のスターの地位を確立する。	はつのめじゃーたいとるをかくとくし、りくじょーきょーぎかいのすたーのちいをかくりつする。	NO_LABEL
1984年のロサンゼルスオリンピックで、100m、200m、走幅跳、男子4×100メートルリレーの4種目にエントリーし、全種目で金メダルを獲得した。	NO_PRONOUNCE	NO_LABEL
これは1936年のジェシー・オーエンスの偉業に並ぶものであった。	これわせんきゅうひゃくさんじゅうろくねのじぇしーおーえんすのいぎょーにならぶものであった。	NO_LABEL
1987年の世界陸上競技選手権大会・ローマ大会では、4年前のヘルシンキ大会と同じ、100メートル、走幅跳、4×100メートルリレーの3種目を制する。	NO_PRONOUNCE	NO_LABEL
1988年のソウルオリンピックの選考会では、ドーピング検査で興奮剤に陽性反応が出てしまい、出場停止になるところであったが、最終的に出場を許可される。	せんきゅうひゃくはちじゅうはちねんのそーるおりんぴっくのせんこーかいでわ、どーぴんぐけんさでこーふんざいによーせいはんのーがでてしまい、しゅつじょーていしになるところであったが、さいしゅーてきにしゅつじょーをきょかされる。	NO_LABEL
この時検出されたのはエフェドリンなど。	このときけんしゅつされたのわえふぇどりんなど。	NO_LABEL
だが、この関連で一部から運動能力向上のドーピングを疑われることになり、現在は反ドーピング派である。	だが、このかんれんでいちぶからうんどーのーりょくこーじょーのどーぴんぐをうたがわれることになり、げんざいわはんどーぴんぐはである。	NO_LABEL
100mでのベン・ジョンソンとの対決が注目を集めたが、決勝ではジョンソンの後塵を拝する。	ひゃくめーとるでのべんじょんそんとのたいけつがちゅーもくをあつめたが、けっしょーでわじょんそんのこーじんおはいする。	NO_LABEL
だが、レース後のドーピング検査でジョンソンの金メダルが剥奪され、ルイスが金メダルを獲得した。	だが、れーすごのどーぴんぐけんさでじょんそんのきんめだるがはくだつされ、るいすがきんめだるをかくとくした。	NO_LABEL
また、走幅跳は制したものの、200メートルでは2位となり、生涯唯一のオリンピック銀メダルを獲得する。	また、はしりはばとびわせいしたものの、にひゃくめーとるでわにーとなり、しょーがいゆいいつのおりんぴっくぎんめだるをかくとくする。	NO_LABEL
4×100mリレーは、ルイスが出場しなかった準決勝でバトン中継でミスがあり失格に終わった。	NO_PRONOUNCE	NO_LABEL
この後、ルイスは個人短距離種目で次第に苦戦するようになっていたが、走幅跳では実力を誇示し続けていた。	こののち、るいすわこじんたんきょりしゅもくでしだいにくせんするよーになっていたが、はしりはばとびでわじつりょくをこじしつずけていた。	NO_LABEL
1991年の世界陸上競技選手権大会・東京大会では、100mで当時の世界記録となる9秒86をマークして優勝し、人類で初めて100mを9秒8台で走った男となった。	NO_PRONOUNCE	NO_LABEL
走幅跳ではマイク・パウエルとの激闘の末、世界記録をマークしたパウエルに次ぐ2位であった。	はしりはばとびでわまいくぱうえるとのげきとーのすえ、せかいきろくをまーくしたぱうえるにつぐにーであった。	NO_LABEL
なお、ルイスはこの大会で会心のジャンプを連発しており、追い風参考ながら世界記録を上回る8m91を跳び、また5回目に跳んだ8m87は公認記録における生涯ベストとなった。	NO_PRONOUNCE	NO_LABEL
4×100mリレーも世界新記録で優勝した。	NO_PRONOUNCE	NO_LABEL
1992年のバルセロナオリンピックでは、走幅跳と男子4×100mリレーで金メダルを獲得。	NO_PRONOUNCE	NO_LABEL
男子4×100mリレーでは100m金メダルのリンフォード・クリスティとのアンカー対決があったが、アメリカがリードしていた事もありルイスの圧勝であった。	NO_PRONOUNCE	NO_LABEL
1996年のアトランタオリンピックでは、ルイスは35歳となっていたが、走幅跳で金メダルを獲得し、オリンピック個人種目4連覇の偉業を達成した。	せんきゅうひゃくきゅうじゅうろくねんのあとらんたおりんぴっくでわ、るいすわさんじゅうごさいとなっていたが、はしりはばとびできんめだるをかくとくし、おりんぴっくこじんしゅもくよんれんぱのいぎょーをたっせいした。	NO_LABEL
1997年に競技を引退し、俳優に転身した。	せんきゅうひゃくきゅうじゅうななにきょーぎをいんたいし、はいゆーにてんしんした。	NO_LABEL
19歳のときに走幅跳で幻のモスクワオリンピックの代表にも選ばれており、オリンピック代表に通算5度選ばれている。	じゅうきゅうさいのときにはしりはばとびでまぼろしのもすくわおりんぴっくのだいひょーにもえらばれており、おりんぴっくだいひょーにつーさんごどえらばれている。	NO_LABEL
1982年7月の全米スポーツフェスティバルで、走幅跳の4度目の試技で大ジャンプを見せたが、つま先が出たということでファールとなった。	せんきゅうひゃくはちじゅうにねんしちがつのぜんべいすぽーつふぇすてぃばるで、はしりはばとびのよんどめのしぎでだいじゃんぷをみせたが、つまさきがでたとゆうことでふぁーるとなった。	NO_LABEL
ジェイソン・グリムズは30フィート、ルイス本人は30フィート2インチを跳んでいたとコメントしている。	NO_PRONOUNCE	NO_LABEL
1984年のNBAドラフトの10巡目全体208位]でシカゴ・ブルズに、NFLドラフトの12巡目全体334位]でダラス・カウボーイズに指名されたが、入団しなかった。	NO_PRONOUNCE	NO_LABEL
両親は元陸上競技選手、兄はサッカーの元アメリカ代表選手、妹のキャロル・ルイスは走幅跳の選手で1983年世界陸上競技選手権大会で銅メダルを獲得したまさにエリートスポーツ一家であった。	りょーしんわもとりくじょーきょーぎせんしゅ、あにわさっかーのもとあめりかだいひょーせんしゅ、いもーとのきゃろるるいすわはしりはばとびのせんしゅでせんきゅうひゃくはちじゅうさんねんせかいりくじょーきょーぎせんしゅでどーめだるをかくとくしたまさにえりーとすぽーついっかであった。	NO_LABEL
1980年代には歌手活動もしており、日本の歌番組にも出演したことがある。	せんきゅうひゃくはちじゅうねんだいにわかしゅかつどーもしており、にっぽんのうたばんぐみにもしゅつえんしたことがある。	NO_LABEL
菜食主義者向けの本「Very Vegetarian」の中では、1990年3月、ダイエットで食事を抜くのは自分に合わないと気付いたこと、1990年7月に乳製品や鶏卵などを含む動物性食品を排除したヴィーガンになる決意をしたこと、ヴィーガンになってアスリートとして最高の年を迎えた、という内容が語られている。	NO_PRONOUNCE	NO_LABEL
2007年にドナルド・マクドナルド・ハウスの支持者となり、同団体のイベント活動に参加をはじめる。	にせんななねんにどなるどまくどなるどはうすのしじしゃとなり、どーだんたいのいべんとかつどーにさんかをはじめる。	NO_LABEL
2008年にはに出場し、自由の女神前で点火して第一走者として走った。	にせんはちねんにわにしゅつじょーし、じゆーのめがみまえでてんかしてだいいちそーしゃとしてはしった。	NO_LABEL
