ウラディーミル・フォーゲル- 1984年6月19日）は、スイスの作曲家。	NO_PRONOUNCE	NO_LABEL
ドイツ人の父とロシア人の母との間にロシアのモスクワで生まれた。	どいつじんのちちとろしあじんのははとのまにろしあのもすくわでうまれた。	NO_LABEL
若い頃はモスクワでアレクサンドル・スクリャービンの門下生として学んだ。	わかいころわもすくわであれくさんどるすくりゃーびんのもんかせいとしてまなんだ。	NO_LABEL
その後、父の祖国のドイツに移住した。	そのご、ちちのそこくのどいつにいじゅーした。	NO_LABEL
1918年から1924年までベルリンでハインツ・ティーセンとフェルッチョ・ブゾーニに師事し、1929年から1933年までクリントヴォルト＝シャルヴェンカ音楽院で教壇に立った。	NO_PRONOUNCE	NO_LABEL
表現主義者ヘルヴァルト・ヴァルデンのサークルに、ジョージ・アンタイル、ハンス・アイスラー、フィリップ・ヤルナッハ、クルト・ヴァイルとともに参加した。	NO_PRONOUNCE	NO_LABEL
1933年にナチスにより「退廃音楽」とのレッテルを貼られたためドイツを去り、ストラスブール、ブリュッセル、パリ、ロンドンを転々とした。	NO_PRONOUNCE	NO_LABEL
この間、1937年のヴァイオリン協奏曲で初めて十二音音楽を採用した。	NO_PRONOUNCE	NO_LABEL
1939年よりスイスに移住し、最初はアスコナで、1964年からチューリッヒで生活した。	せんきゅうひゃくさんじゅうきゅうねんよりすいすにいじゅーし、さいしょわあすこなで、せんきゅうひゃくろくじゅうよねんからちゅーりっひでせいかつした。	NO_LABEL
弟子にはエーリク・ベリマン、エイノユハニ・ラウタヴァーラ、ロルフ・リーバーマンなどがいる。	NO_PRONOUNCE	NO_LABEL
作品には交響曲、管弦楽のための商品、弦楽合奏曲、管楽アンサンブル、チェロ協奏曲、ヴァイオリン協奏曲、合唱曲、オラトリオなどがある。	NO_PRONOUNCE	NO_LABEL
