バチッと!爆ハリ!は、2014年8月1日より2016年2月19日まで千葉テレビ放送および吉本興業制作で放送されていたバラエティ番組である。	NO_PRONOUNCE	NO_LABEL
2013年12月に千葉県内にオープンした「よしもと幕張イオンモール劇場」があるイオンモール幕張新都心を舞台に、出演者が様々な企画を行うという番組。	NO_PRONOUNCE	NO_LABEL
なお、タイトルの「爆ハリ」とは、よしもと幕張イオンモール劇場で実際に行われているトークライブのタイトルであり、その模様も一部がそのまま放送されている。	NO_PRONOUNCE	NO_LABEL
2016年2月に番組は終了。	にせんじゅうろくねんにがつにばんぐみわしゅーりょー。	NO_LABEL
翌3月からは、当番組にも出演していたジャルジャルによる千葉県内のロケ番組で、タイトルを一部引き継いだ事実上の後継番組である『ジャルッと!爆ハリ!』が放送される。	NO_PRONOUNCE	NO_LABEL
この番組では、ロケ地が従来のイオンモール幕張新都心から県内各地となるが、「爆ハリ」の模様も引き続き番組後半で放送される。	NO_PRONOUNCE	NO_LABEL
基本的には前半のイオンモール内でのロケ企画、後半の「爆ハリ」ともに吉本興業所属のお笑い芸人が週替わりで出演。	NO_PRONOUNCE	NO_LABEL
下記は、公式サイトに記載がある出演者であり、毎週出演しているわけではない。	かきわ、こーしきさいとにきさいがあるしゅつえんしゃであり、まいしゅーしゅつえんしているわけでわない。	NO_LABEL
