サミー株式会社 は、日本のパチスロ・パチンコメーカー、ゲームメーカー。	NO_PRONOUNCE	NO_LABEL
パチスロ事業ではトップメーカーとして知られている。	ぱちすろじぎょーでわとっぷめーかーとしてしられている。	NO_LABEL
創業者である里見治の実父が経営していた食品会社「株式会社さとみ」の一部門として1975年に設立。	NO_PRONOUNCE	NO_LABEL
社名及びブランド名である「サミー」の由来は、“里見”をニックネーム風にもじったもので、自社で開発したパチスロなどの遊技機を海外に輸出する際のブランド名として里見が考案したもの。	NO_PRONOUNCE	NO_LABEL
2003年12月にゲームメーカー大手のセガを買収、2004年10月1日にはセガと経営統合を行い、持株会社「セガサミーホールディングス」を設立、サミーはSSHの100%子会社となっている。	NO_PRONOUNCE	NO_LABEL
セガとの経営統合前はゲーム事業も行っており、GUILTY GEARシリーズやパチスロシミュレーションゲームなどを発売。	せがとのけいえいとうごーまえわげーむじぎょーもおこなっており、ぎるてぃぎあしりーずやぱちすろしみゅれーしょんげーむなどをはつばい。	NO_LABEL
ゲーム用周辺機器もアスキーから事業を引き継いで発売していた。	げーむよーしゅーへんききもあすきーからじぎょーをひきついではつばいしていた。	NO_LABEL
アミューズメントスポットの運営も行なっていた他、アーケードゲーム用システム基板「ATOMISWAVE」を開発、供給を行っていた。	NO_PRONOUNCE	NO_LABEL
2005年以降、GUILTY GEARシリーズ、パチスロシミュレータ等のサミーの家庭用ゲームソフトは、販売元をセガに変更し、セガを通じて販売されることとなったが、実際には、パチスロレボリューションシリーズと、その盤面以外のアーケードゲームもセガが販売することになった。	にせんごねんいこー、ぎるてぃぎあしりーず、ぱちすろしみゅれーたとーのさみーのかていよーげーむそふとわ、はんばいもとをせがにへんこーし、せがをつーじてはんばいされることとなったが、じっさいにわ、ぱちすろれぼりゅーしょんしりーずと、そのばんめんいがいのあーけーどげーむもせががはんばいすることになった。	NO_LABEL
このため、アトミスウェーブのタイトルもセガが販売している。	このため、あとみすうぇーぶのたいとるもせががはんばいしている。	NO_LABEL
ATOMISWAVE並びにサミーが発売したアーケードゲームのタイトルの修理サポートは、2017年3月31日を以って終了した他、七号転用機の修理サポート自体も、2005年3月までに発売された全盤面並びに2005年4月から2011年3月までに発売された一部の盤面の修理サポートも2018年2月28日を以って終了予定。	NO_PRONOUNCE	NO_LABEL
セガへのアーケードゲーム事業移管後も、セガ・インタラクティブ、セガ・ロジスティクスサービス共々日本アミューズメントマシン協会AMマシン事業部会員となっている。	NO_PRONOUNCE	NO_LABEL
また、サミーが運営していたゲームセンターも、セガに移管している。	また、さみーがうんえいしていたげーむせんたーも、せがにいかんしている。	NO_LABEL
SSHは2015年9月に、遊技機事業の構造改革を発表。	えすえすえいちわにせんじゅうごねんくがつに、ゆーぎきじぎょーのこーぞーかいかくをはっぴょー。	NO_LABEL
この構造改革では、4社に分散していた遊技機の開発・製造を、それぞれサミー本社とサミー川越工場・サミー埼玉工場に集約した他、子会社のタイヨーエレックで希望退職を実施した。	NO_PRONOUNCE	NO_LABEL
4つのブランドで展開しているマルチブランド戦略も見直し、順次サミーにブランドを集中させており、2017年にはタイヨーエレックブランドが消滅した。	よっつのぶらんどでてんかいしているまるちぶらんどせんりゃくもみなおし、じゅんじさみーにぶらんどをしゅーちゅーさせており、にせんじゅうななねんにわたいよーえれっくぶらんどがしょーめつした。	NO_LABEL
今後は2018年以降をめどにユニバーサルエンターテインメントとの合弁会社であるジーグ製筐体を投入させる予定である。	こんごわにせんじゅうはちねんいこーをめどにゆにばーさるえんたーていんめんととのごーべんがいしゃであるじーぐせいきょうたいをとーにゅーさせるよていである。	NO_LABEL
2014年5月から実施しているセガサミーグループにおける構造改革の実施は、2015年4月にゲーム事業やアニメーション事業などのエンタテインメントコンテンツ事業の再編に次ぐものとなる。	にせんじゅうよねんごがつからじっししているせがさみーぐるーぷにおけるこーぞーかいかくのじっしわ、にせんじゅうごねんしがつにげーむじぎょーやあにめーしょんじぎょーなどのえんたていんめんとこんてんつじぎょーのさいへんにつぐものとなる。	NO_LABEL
2018年5月にサミー、タイヨーエレック、銀座 、ロデオ の4社の本店所在地をサンシャイン60から住友不動産大崎ガーデンタワーオフィス棟へ移転。	NO_PRONOUNCE	NO_LABEL
4社並びにサミーネットワークスの本社所在地も同年8月にサンシャイン60から住友不動産大崎ガーデンタワーオフィス棟へ移転する予定。	NO_PRONOUNCE	NO_LABEL
