1877年の妥協は、激しい論争になった1876年アメリカ合衆国大統領選挙を決着させた、非公式で文書化されていない「取引」とされるものである。	NO_PRONOUNCE	NO_LABEL
この妥協の結果、南部州の政治に影響を与えていたアメリカ軍を引き上げさせ、レコンストラクション時代が終わった。	このだきょーのけっか、なんぶしゅーのせいじにえいきょーをあたえていたあめりかぐんをひきあげさせ、れこんすとらくしょんじだいがおわった。	NO_LABEL
大統領選挙では共和党のラザフォード・ヘイズが民主党候補のサミュエル・ティルデンと大接戦になっていた。	だいとーりょーせんきょでわきょーわとーのらざふぉーどへいずがみんしゅとーこーほのさみゅえるてぃるでんとだいせっせんになっていた。	NO_LABEL
最終的に選挙結果の評価で割れた南部3州を共和党勝利と判断して、選挙人票では1票差でヘイズが大統領に当選した。	NO_PRONOUNCE	NO_LABEL
そのような判断を容認することと引き換えにヘイズが連邦軍を南部州から引き揚げさせるという了解があった。	そのよーなはんだんをよーにんすることとひきかえにへいずがれんぽーぐんをなんぶしゅーからひきあげさせるとゆうりょーかいがあった。	NO_LABEL
上記南部3州はそれまで共和党政権であり、それが存続するには連邦軍が駐屯していることが重要な条件だった。	NO_PRONOUNCE	NO_LABEL
妥協の中には、下院を支配していた民主党が、大統領選挙の判定を委ねられた選挙委員会の判断が有効であると認めることも含まれていた。	だきょーのなかにわ、かいんをしはいしていたみんしゅとーが、だいとーりょーせんきょのはんていをゆだねられたせんきょいーんかいのはんだんがゆーこーであるとみとめることもふくまれていた。	NO_LABEL
現職大統領のユリシーズ・グラントがフロリダ州から軍隊を引き揚げさせた。	げんしょくだいとーりょーのゆりしーずぐらんとがふろりだしゅーからぐんたいをひきあげさせた。	NO_LABEL
ヘイズは大統領になってからサウスカロライナ州とルイジアナ州に残っていた軍隊を引き揚げた。	へいずわだいとーりょーになってからさうすかろらいなしゅーとるいじあなしゅーにのこっていたぐんたいをひきあげた。	NO_LABEL
軍隊が離れるとすぐに、多くの白人共和党員もそこを離れ、リディーマーの民主党が支配権を取り戻した。	ぐんたいがはなれるとすぐに、おーくのはくじんきょーわとーいんもそこをはなれ、りでぃーまーのみんしゅとーがしはいけんをとりもどした。	NO_LABEL
実際に起こったことは文書化されていないのでいくらか曖昧さを残している。	じっさいにおこったことわぶんしょかされていないのでいくらかあいまいさをのこしている。	NO_LABEL
アフリカ系アメリカ人歴史家達はこれを「偉大な裏切り」と呼ぶこともある 。	NO_PRONOUNCE	NO_LABEL
民主党員は、ティルデンが騙されたと強く不満を言った。	みんしゅとーいんわ、てぃるでんがだまされたとつよくふまんをいった。	NO_LABEL
武装部隊を結成してワシントンD.C.を行進させるという話もあった。	ぶそーぶたいをけっせいしてわしんとんでぃーしーをこーしんさせるとゆうはなしもあった。	NO_LABEL
グラント大統領はこれに反応して軍事的な安全性を補強したので、ワシントンを行進した者はいなかった。	ぐらんとだいとーりょーわこれにはんのーしてぐんじてきなあんぜんせいをほきょーしたので、わしんとんをこーしんしたものわいなかった。	NO_LABEL
この妥協は基本的に、南部民主党員がヘイズを大統領として認めることだったが、共和党がある要求に応じるという了解で初めて可能なものだった。	このだきょーわきほんてきに、なんぶみんしゅとーいんがへいずをだいとーりょーとしてみとめることだったが、きょーわとーがあるよーきゅーにおーじるとゆうりょーかいではじめてかのーなものだった。	NO_LABEL
次の事項が妥協の条件だったと言われている。	つぎのじこーがだきょーのじょーけんだったといわれている。	NO_LABEL
これらの条件と交換に民主党は平和的にヘイズの大統領当選を受け入れた。	これらのじょーけんとこーかんにみんしゅとーわへいわてきにへいずのだいとーりょーとーせんをうけいれた。	NO_LABEL
ヘイズは問題なく大統領に就任した。	へいずわもんだいなくだいとーりょーにしゅーにんした。	NO_LABEL
上記条件の第1と第2は実行された。	NO_PRONOUNCE	NO_LABEL
第1の条件が最も重要な事項であり、ヘイズは既に南部州に自治を取り戻させることを支持すると表明していた。	NO_PRONOUNCE	NO_LABEL
それは選挙の前に軍隊を撤退させることだった。	それわせんきょのまえにぐんたいをてったいさせることだった。	NO_LABEL
また特に大変な僅差で選ばれた大統領が閣僚の一人を別の政党が支持する者にするのは、異常なことでもなくまた予想されないことでもなかった。	またとくにたいへんなきんさでえらばれただいとーりょーがかくりょーのひとりをべつのせいとーがしじするものにするのわ、いじょーなことでもなくまたよそーされないことでもなかった。	NO_LABEL
条件の第3と第4については、実際にそのような固い合意があったとしても、実行されることは無かった。	NO_PRONOUNCE	NO_LABEL
いずれにしても、非公式な取引によってか、あるいはヘイズが既に公表していた計画に沿っていたことを単純に再確認したかであり、南部民主党員との対話で多くのものが心配していたことを満足させ、選挙結果の論争が長引いて1877年の大統領就任日に結論が間に合わなくなるような議会の議事妨害を妨げることができた。	いずれにしても、ひこーしきなとりひきによってか、あるいわへいずがすでにこーひょーしていたけいかくにそっていたことをたんじゅんにさいかくにんしたかであり、なんぶみんしゅとーいんとのたいわでおーくのものがしんぱいしていたことをまんぞくさせ、せんきょけっかのろんそーがながびいてせんはっぴゃくななじゅうななねんのだいとーりょーしゅーにんびにけつろんがまにあわなくなるよーなぎかいのぎじぼーがいをさまたげることができた。	NO_LABEL
歴史家のは経済学的解釈を論じており、鉄道関係者がワシントンのウォームリー・ホテルで密かに会合を開き、エサとして南部の鉄道に対する援助という妥協案を固めた。	NO_PRONOUNCE	NO_LABEL
しかし、鉄道の資金を手当てする、あるいは連邦政府が別の援助をするというような本格的な動きは無かった。	しかし、てつどーのしきんをてあてする、あるいわれんぽーせいふがべつのえんじょをするとゆうよーなほんかくてきなうごきわなかった。	NO_LABEL
サザン・パシフィック鉄道を代表する対立集団がスコットの計画を反故にさせることに成功し、最終的に自分たちの路線をニューオーリンズまで走らせた。	さざんぱしふぃっくてつどーをだいひょーするたいりつしゅーだんがすこっとのけいかくをほごにさせることにせいこーし、さいしゅーてきにじぶんたちのろせんをにゅーおーりんずまではしらせた。	NO_LABEL
歴史家の中には、南部の民主党員が議事妨害しないように約束したことは、妥協ではなく、既定の結論だったと論じる者がいる。	れきしかのなかにわ、なんぶのみんしゅとーいんがぎじぼーがいしないよーにやくそくしたことわ、だきょーでわなく、きていのけつろんだったとろんじるものがいる。	NO_LABEL
アラン・ペスキンは、ウッドワードの解釈がほとんど普遍的に受け入れられるが、全ての条件が実行されたわけではなかったので、妥協と呼ぶべきではないと言っている。	NO_PRONOUNCE	NO_LABEL
別の歴史家は、共和党が民主党の支持を得るために、南部の黒人を捨てて、人種差別者の民主党支配に任せたと論じている。	べつのれきしかわ、きょーわとーがみんしゅとーのしじをえるために、なんぶのこくじんをすてて、じんしゅさべつしゃのみんしゅとーしはいにまかせたとろんじている。	NO_LABEL
いずれにしても、レコンストラクション時代が終わり、南部では民主党の圧倒的優位な体制が固められた。	いずれにしても、れこんすとらくしょんじだいがおわり、なんぶでわみんしゅとーのあっとーてきゆーいなたいせいがかためられた。	NO_LABEL
共和党政権に代わってリディーマーの政権が登場した。	きょーわとーせいけんにかわってりでぃーまーのせいけんがとーじょーした。	NO_LABEL
1877年以降、南部では白人優位によって連邦政府役員の選挙では民主党員に投票することとなり、と呼ばれた。	せんはっぴゃくななじゅうななねんいこー、なんぶでわはくじんゆーいによってれんぽーせいふやくいんのせんきょでわみんしゅとーいんにとーひょーすることとなり、とよばれた。	NO_LABEL
この傾向は1966年まで90年間近く続くことになった。	このけいこーわせんきゅうひゃくろくじゅうろくねんまできゅうじゅうねんかんちかくつずくことになった。	NO_LABEL
グレゴリー・ダウンズはその著書『アメリカ政治のメキシコ化: アメリカ合衆国が南北戦争から安定化へ向かう道』の中で、容易な和解と政治的安定の時代であるという考え方を否定している。	NO_PRONOUNCE	NO_LABEL
その代わりに、多くのアメリカ人が政治のメキシコ化を恐れていることを示している。	そのかわりに、おーくのあめりかじんがせいじのめきしこかをおそれていることをしめしている。	NO_LABEL
南部の州で選挙の結果を落ち着かせるために力が使われたように、メキシコ化によって、大統領選挙の結果を落ち着かせるためにも力が使われることになった。	なんぶのしゅーでせんきょのけっかをおちつかせるためにちからがつかわれたよーに、めきしこかによって、だいとーりょーせんきょのけっかをおちつかせるためにもちからがつかわれることになった。	NO_LABEL
ダウンズは、いかにメキシコ化が厳しく拒否され、安定が獲得されたかを探求している。	だうんずわ、いかにめきしこかがきびしくきょひされ、あんていがかくとくされたかをたんきゅーしている。	NO_LABEL
法律用語の「取引」があったにしろ、無かったにしろ、1876年大統領選挙はそのような行動では決められず、議会が選挙の行き詰まりを打開するために設定した選挙委員会の推薦を受け入れ、議会の公式の投票で決着を見た。	NO_PRONOUNCE	NO_LABEL
委員会を設定したときに期待したものは、その決定を議会が受け入れるということだった。	いーんかいをせっていしたときにきたいしたものわ、そのけっていをぎかいがうけいれるとゆうことだった。	NO_LABEL
委員会の出したヘイズ有利の結論に特定の民主党員が同意しなかったときが、この手配が危険に曝される唯一の時だった。	いーんかいのだしたへいずゆーりのけつろんにとくていのみんしゅとーいんがどーいしなかったときが、このてはいがきけんにさらされるゆいいつのときだった。	NO_LABEL
この民主党員は、投票で合意されたことも実行されなくするような議事妨害を、共和党や民主党議会指導層に逆らって脅した。	このみんしゅとーいんわ、とーひょーでごーいされたこともじっこーされなくするよーなぎじぼーがいを、きょーわとーやみんしゅとーぎかいしどーそーにさからっておどした。	NO_LABEL
妥協とされる要点に関する議論のみが重要な民主党員を納得させるのであり、議事妨害に黙従することではなかった。	NO_PRONOUNCE	NO_LABEL
少数派が投票を妨げるために使う手段である議事妨害という脅しそのものは、委員会の推薦を受け入れるに足る票が固まっていたことを示している。	しょーすーはがとーひょーをさまたげるためにつかうしゅだんであるぎじぼーがいとゆうおどしそのものわ、いーんかいのすいせんをうけいれるにたるひょーがかたまっていたことをしめしている。	NO_LABEL
