佐川 奈美は、日本のバレーボール選手。	さがわなみわ、にっぽんのばれーぼーるせんしゅ。	NO_LABEL
ニックネームはタク。	にっくねーむわたく。	NO_LABEL
ポジションはオポジット。	ぽじしょんわおぽじっと。	NO_LABEL
VプレミアリーグのNECレッドロケッツに所属していた。	ぶいぷれみありーぐのえぬいーしーれっどろけっつにしょぞくしていた。	NO_LABEL
埼玉県川口市出身。	さいたまけんかわぐちししゅっしん。	NO_LABEL
上青木中を経て共栄学園高に進学。	かみあおきちゅーをへてきょーえいがくえんだかにしんがく。	NO_LABEL
2年次にはアジアジュニアの日本代表として、第16回アジアジュニア選手権に出場した。	にねんじにわあじあじゅにあのにほんだいひょーとして、だいじゅうろっかいあじあじゅにあせんしゅけんにしゅつじょーした。	NO_LABEL
3年次の春高バレーではエースとしてチームを牽引し、3位へ導いた。	さんねんじのはるこうばれーでわえーすとしてちーむをけんいんし、さんいえみちびいた。	NO_LABEL
2014年2月、NECレッドロケッツへの入団が内定。	にせんじゅうよねんにがつ、えぬいーしーれっどろけっつえのにゅーだんがないてい。	NO_LABEL
同年5月の第63回黒鷲旗大会でデビューした。	どーねんごがつのだいろくじゅうさんかいくろわしきたいかいででびゅーした。	NO_LABEL
2017年、Vリーグ機構の移籍公示リストでレッドロケッツ退団が公表された。	にせんじゅうななねん、ぶいりーぐきこーのいせきこーじりすとでれっどろけっつたいだんがこーひょーされた。	NO_LABEL
Vプレミアリーグレギュラーラウンドにおける個人成績は下記の通り。	ぶいぷれみありーぐれぎゅらーらうんどにおけるこじんせいせきわかきのとーり。	NO_LABEL
