ジョアン・ガンペール杯は、毎年8月にスペインで開催されるサッカーの親善試合である。	じょあんがんぺーるはいわ、まいとしはちがつにすぺいんでかいさいされるさっかーのしんぜんじあいである。	NO_LABEL
FCバルセロナが主催し、本拠地カンプ・ノウにスペイン国内外からクラブを招いて行われる。	えふしーばるせろながしゅさいし、ほんきょちかんぷのーにすぺいんこくないがいからくらぶをまねいておこなわれる。	NO_LABEL
大会名はFCバルセロナの設立者であり選手であり会長であったジョアン・ガンペールに由来しており、エンリク・リャウデット会長時代の1966年に始められた。	NO_PRONOUNCE	NO_LABEL
1966年の第1回大会にはベルギーのRSCアンデルレヒト、フランスのFCナント、ドイツの1.FCケルンが招かれ、FCバルセロナが決勝で1.FCケルンを3-1で破って優勝した。	NO_PRONOUNCE	NO_LABEL
1.FCケルンは1978年大会と1981年大会で優勝しており、主催するFCバルセロナ以外で複数回優勝している唯一のクラブである。	えあすてえふつぇーけるんわせんきゅうひゃくななじゅうはちねんたいかいとせんきゅうひゃくはちじゅういちねんたいかいでゆーしょーしており、しゅさいするえふしーばるせろないがいでふくすーかいゆーしょーしているゆいいつのくらぶである。	NO_LABEL
1967年の第2回大会にはスペインのアトレティコ・マドリード、ドイツのバイエルン・ミュンヘン、アルゼンチンのボカ・ジュニアーズが招かれ、バイエルンとボカはその後もたびたび出場している。	せんきゅうひゃくろくじゅうななねのだいにかいたいかいにわすぺいんのあとれてぃこまどりーど、どいつのばいえるんみゅんへん、あるぜんちんのぼかじゅにあーずがまねかれ、ばいえるんとぼかわそのごもたびたびしゅつじょーしている。	NO_LABEL
バイエルンは1984年大会と1987年大会と2006年大会で準優勝しており、南米のクラブとして初出場したボカは1977年大会と1984年大会と2003年大会と2008年大会にも出場している。	ばいえるんわせんきゅうひゃくはちじゅうよねんたいかいとせんきゅうひゃくはちじゅうななねたいかいとにせんろくねんたいかいでじゅんゆーしょーしており、なんべいのくらぶとしてはつしゅつじょーしたぼかわせんきゅうひゃくななじゅうななねんたいかいとせんきゅうひゃくはちじゅうよねんたいかいとにせんさんねんたいかいとにせんはちねんたいかいにもしゅつじょーしている。	NO_LABEL
その後の大会ではイタリアやドイツのクラブが多く招待されている。	そのごのたいかいでわいたりあやどいつのくらぶがおーくしょーたいされている。	NO_LABEL
アトレティコ・マドリード以外のスペインのクラブでは、アスレティック・ビルバオとCDテネリフェとバレンシアCFが招待されたことがあり、CDテネリフェは1993年大会で、バレンシアCFは1994年大会で優勝している。	あとれてぃこまどりーどいがいのすぺいんのくらぶでわ、あすれてぃっくびるばおとくるぶでぽるてぃーぼてねりふぇとばれんしあくるぶでふとぼるがしょーたいされたことがあり、くるぶでぽるてぃーぼてねりふぇわせんきゅうひゃくきゅうじゅうさんねんたいかいで、ばれんしあくるぶでふとぼるわせんきゅうひゃくきゅうじゅうよねんたいかいでゆーしょーしている。	NO_LABEL
1996年大会までは4クラブが出場し、準決勝2試合と3位決定戦1試合と優勝決定戦1試合の計4試合が行われた。	NO_PRONOUNCE	NO_LABEL
公式戦の試合数が増加し、それにともなってプレシーズンが短縮されたために、1997年からは招待クラブが1クラブとなり、1試合でトロフィーの行方が決するようになった。	NO_PRONOUNCE	NO_LABEL
90分で決着がつかない場合は、延長戦は行わず、PK戦で勝敗が決定される。	きゅうじゅっぷんでけっちゃくがつかないばあいわ、えんちょーせんわおこなわず、ぴーけーせんでしょーはいがけっていされる。	NO_LABEL
優勝トロフィーは金色仕上げが施された銀製の杯であり、大理石の台座の上に乗っている。	ゆーしょーとろふぃーわきんいろしあげがほどこされたぎんせいのはいであり、だいりせきのだいざのうえにのっている。	NO_LABEL
