『NMB48学園』は、2011年4月に、ABCラジオで放送されているローカルラジオ番組である。	NO_PRONOUNCE	NO_LABEL
NMB48の冠番組。	えぬえむびーふぉーてぃえいとのかんむりばんぐみ。	NO_LABEL
NMB48とモンスターエンジンがタイトル通り、学校をモチーフとしており、授業形式で様々な課題に取り組む番組。	えぬえむびーふぉーてぃえいとともんすたーえんじんがたいとるどーり、がっこーをもちーふとしており、じゅぎょーけいしきでさまざまなかだいにとりくむばんぐみ。	NO_LABEL
生徒役のNMB48メンバーは他の仕事やツアーへの出演等の理由で番組を欠席することがある。	せいとやくのえぬえむびーふぉーてぃーえいとめんばーわたのしごとやつあーえのしゅつえんとーのりゆーでばんぐみをけっせきすることがある。	NO_LABEL
その際は基本的には他のNMB48メンバーが代打で出演し4人で番組を収録する。	そのさいわきほんてきにわたのえぬえむびーふぉーてぃーえいとめんばーがだいだでしゅつえんしよにんでばんぐみをしゅーろくする。	NO_LABEL
ただし例外として2016年7月2日・7月9日の放送分では上西が番組を欠席したが代役の生徒が不在で3人で収録をした。	NO_PRONOUNCE	NO_LABEL
さらに2012年7月7日放送回ではレギュラーの山本・山田の2人とも欠席するという事態も起きている。	NO_PRONOUNCE	NO_LABEL
また番組初期には本来の理由だけでなく番組内での欠席の理由が付けられていた。	またばんぐみしょきにわほんらいのりゆーだけでなくばんぐみないでのけっせきのりゆーがつけられていた。	NO_LABEL
千鳥時代は代打出演はは1週のみであったが、モンスターエンジンに変更後は2本撮りのため2週連続で代打出演するというケースが多くなっている。	ちどりじだいわだいだしゅつえんわわいっしゅーのみであったが、もんすたーえんじんにへんこーごわにほんとりのためにしゅーれんぞくでだいだしゅつえんするとゆうけーすがおーくなっている。	NO_LABEL
また、先生役の千鳥ノブは、2011年6月18日放送分を体調不良で欠席。	また、せんせいやくのちどりのぶわ、にせんじゅういちねんろくがつじゅうはちにちほーそーぶんをたいちょーふりょーでけっせき。	NO_LABEL
この放送回は山本が生徒から先生役に回り3人で収録した。	このほーそーかいわやまもとがせいとからせんせいやくにまわりさんにんでしゅーろくした。	NO_LABEL
モンスターエンジンは2人とも別々に欠席した回があり、生徒役の西森は2012年7月14日放送分に欠席。	もんすたーえんじんわふたりともべつべつにけっせきしたまわりがあり、せいとやくのにしもりわにせんじゅうにねんしちがつじゅうよっかほーそーぶんにけっせき。	NO_LABEL
西森の代役は設けず3人で収録した。	にしもりのだいやくわもーけずさんにんでしゅーろくした。	NO_LABEL
先生役の大林は2013年5月4日放送回で欠席。	せんせいやくのおーばやしわにせんじゅうさんねんごがつよっかほーそーかいでけっせき。	NO_LABEL
この回では千鳥ノブが欠席した回と同様に山本が生徒から先生役に回り、生徒として銀シャリ橋本直が番組に参加し4人で収録した。	このかいでわちどりのぶがけっせきしたまわりとどーよーにやまもとがせいとからせんせいやくにまわり、せいととしてぎんしゃりはしもとなおがばんぐみにさんかしよにんでしゅーろくした。	NO_LABEL
NMB48学園は通常1時間番組だが、プロ野球のシーズン中には野球中継延長の関係で、放送時間が30分に短縮されたり、番組自体が中止になることがある。	えぬえむびーふぉーてぃーえいとがくえんわつーじょーいちじかんばんぐみだが、ぷろやきゅーのしーずんちゅーにわやきゅーちゅーけいえんちょーのかんけいで、ほーそーじかんがさんじゅっぷんにたんしゅくされたり、ばんぐみじたいがちゅーしになることがある。	NO_LABEL
はじめて番組が30分に短縮されたのは放送2回目の2011年4月16日放送分、はじめて番組放送中止になったのは2011年9月3日放送予定分。	はじめてばんぐみがさんじゅっぷんにたんしゅくされたのわほーそーにかいめのにせんじゅういちねんしがつじゅうろくにちほーそーぶん、はじめてばんぐみほーそーちゅーしになったのわにせんじゅういちねんくがつみっかほーそーよていぶん。	NO_LABEL
番組が中止された場合、中止された放送予定分は後日放送などの措置は基本的にされないためそのままお蔵入りとなる	ばんぐみがちゅーしされたばあい、ちゅーしされたほーそーよていぶんわごじつほーそーなどのそちわきほんてきにされないためそのままおくらいりとなる	NO_LABEL
生徒役のNMB48の2人と千鳥大悟が教師役の千鳥ノブが進行の下で様々な課題に取り組む。	せいとやくのえぬえむびーふぉーてぃーえいとのふたりとちどりたいごがきょーしやくのちどりのぶがしんこーのしたでさまざまなかだいにとりくむ。	NO_LABEL
2012年3月24日放送分の最後において、ノブの転勤と留年し続けていた大悟の卒業が発表された。	にせんじゅうにねんさんがつにじゅうよっかほーそーぶんのさいごにおいて、のぶのてんきんとりゅーねんしつずけていたたいごのそつぎょーがはっぴょーされた。	NO_LABEL
千鳥の降板は、千鳥が大阪から本格的に東京進出をするため、スケジュールの調整が難しくなったからである。	ちどりのこーばんわ、ちどりがおーさかからほんかくてきにとーきょーしんしゅつをするため、すけじゅーるのちょーせいがむずかしくなったからである。	NO_LABEL
山本彩、山田菜々はこの事実を事前に知らされておらず、二人とも収録中にもかかわらず号泣し、ほとんどしゃべれない状態になった。	やまもとさやか、やまだななわこのじじつをじぜんにしらされておらず、ふたりともしゅーろくちゅーにもかかわらずごーきゅーし、ほとんどしゃべれないじょーたいになった。	NO_LABEL
ただしNMB48学園自体は継続、新たにモンスターエンジンが出演することが発表された。	ただしえぬえむびーふぉーてぃーえいとがくえんじたいわけいぞく、あらたにもんすたーえんじんがしゅつえんすることがはっぴょーされた。	NO_LABEL
2012年3月31日放送分を以て、千鳥が降板、またモンスターエンジンとの交代に伴い、番組名が『NMB48学園〜こちらモンスターエンジン組〜』に変更されることが発表された。	NO_PRONOUNCE	NO_LABEL
2012年4月7日、放送開始。	にせんじゅうにねんしがつなのか、ほーそーかいし。	NO_LABEL
番組の内容自体は以前と変わりなく、ノブが務めていた教師役を大林が、大悟が務めていた留年を重ねている生徒役を西森がそのまま引き継いだ。	ばんぐみのないよーじたいわいぜんとかわりなく、のぶがつとめていたきょーしやくをおーばやしが、たいごがつとめていたりゅーねんをかさねているせいとやくをにしもりがそのままひきついだ。	NO_LABEL
2013年9月21日放送分の冒頭において、山本の番組卒業が発表された。	にせんじゅうさんねんくがつにじゅういちにちほーそーぶんのぼーとーにおいて、やまもとのばんぐみそつぎょーがはっぴょーされた。	NO_LABEL
これは山本が東京での仕事が多くなり、スケジュール調整が難しくなったからとのこと。	これわやまもとがとーきょーでのしごとがおーくなり、すけじゅーるちょーせいがむずかしくなったからとのこと。	NO_LABEL
2013年9月28日の放送分を以て予定通り山本が番組卒業、2013年10月5日の放送分から上西恵が新入生として登場。	にせんじゅうさんねんくがつにじゅうはちにちのほーそーぶんをもってよていどーりやまもとがばんぐみそつぎょー、にせんじゅうさんねんじゅーがついつかのほーそーぶんからじょうにしけいがしんにゅーせいとしてとーじょー。	NO_LABEL
2015年3月28日の放送分を以て山田がNMB48卒業に伴い番組を卒業。	にせんじゅうごねんさんがつにじゅうはちにちのほーそーぶんをもってやまだがえぬえむびーふぉーてぃーえいとそつぎょーにともないばんぐみをそつぎょー。	NO_LABEL
この放送回には元レギュラーの山本もゲスト出演した。	このほーそーかいにわもとれぎゅらーのやまもともげすとしゅつえんした。	NO_LABEL
2015年4月4日の放送分から渋谷凪咲が新入生として登場。	にせんじゅうごねんしがつよっかのほーそーぶんからしぶやなぎさがしんにゅーせいとしてとーじょー。	NO_LABEL
2017年4月1日の放送分を以て上西がNMB48卒業に伴い番組を卒業。	にせんじゅうななねんしがつついたちのほーそーぶんをもってかみにしがえぬえむびーふぉーてぃーえいとそつぎょーにともないばんぐみをそつぎょー。	NO_LABEL
2017年4月8日の放送分から村瀬紗英が新入生として登場。	にせんじゅうななねんしがつようかのほーそーぶんからむらせさえがしんにゅーせいとしてとーじょー。	NO_LABEL
なお過去の新入生は放送初回までわからなかったが、村瀬は事前に新入生として加わることがニュースで発表されていた。	なおかこのしんにゅーせいわほーそーしょかいまでわからなかったが、むらせわじぜんにしんにゅーせいとしてくわわることがにゅーすではっぴょーされていた。	NO_LABEL
2016年3月19日放送分は、本来、3月26日に放送予定の回であったことが、2016年3月26日放送分の冒頭で説明があった。	にせんじゅうろくねんさんがつじゅうきゅうにちほーそーぶんわ、ほんらい、さんがつにじゅうろくにちにほーそーよていのかいであったことが、にせんじゅうろくねんさんがつにじゅうろくにちほーそーぶんのぼーとーでせつめいがあった。	NO_LABEL
ABCラジオ側によると、「スタッフの手違いで、3月19日の放送時に3月26日放送予定分が放送された」と説明している。	NO_PRONOUNCE	NO_LABEL
3月26日の放送では、本来、3月19日に放送予定であった回が放送された。	さんがつにじゅうろくにちのほーそーでわ、ほんらい、さんがつじゅうきゅうにちにほーそーよていであったかいがほーそーされた。	NO_LABEL
謝罪文は、当番組のホームページにも記載されている。	しゃざいぶんわ、とーばんぐみのほーむぺーじにもきさいされている。	NO_LABEL
