一般社団法人 日本マーチングバンド協会は、日本国内におけるマーチングバンドの普及・発展および資質の向上と、青少年の健全な人格育成を目的に活動する全国組織である。	NO_PRONOUNCE	NO_LABEL
英語名称はであり、と略される。	えいごめいしょーわであり、とりゃくされる。	NO_LABEL
主な活動としてパレード・フェスティバル・各種コンテスト・選手権大会・講習会・研修会の開催、国際的大会への参加など。	NO_PRONOUNCE	NO_LABEL
昭和30年代、米海軍第7艦隊に軍楽隊として乗船し、横須賀に駐留していたアメリカ海兵隊ドラム＆ビューグル・コーのメンバーが横浜で地元の学生らにマーチングの指導を行った。	NO_PRONOUNCE	NO_LABEL
その後、彼らの指導を受けた当時関東学院教諭・広岡徹也を中心に、関東学院ビューグルバンドのOB/OG・日本大学高校のOB・京浜女子大学付属トランペット鼓隊のOGが加わり、1966年に日本初の一般編成によるマーチングバンド「日本ビューグルバンド」を結成した。	NO_PRONOUNCE	NO_LABEL
1967年1月10日、日本ビューグルバンド主催による自身の発表会として「第1回パレードバンドフェスティバル」を横浜市文化体育館で開催。	NO_PRONOUNCE	NO_LABEL
このパレードバンドフェスティバルが、現在開催されている「マーチングバンド・バトントワーリング全国大会」の原点となる。	NO_PRONOUNCE	NO_LABEL
そして、第1回パレードバンドフェスティバル開催に携わった人々により、「日本パレードバンドアソシエイション」が設立される。	NO_PRONOUNCE	NO_LABEL
2013年度現在、日本マーチングバンド協会は10の支部から成り立っている。	NO_PRONOUNCE	NO_LABEL
