鶴蒔 靖夫は日本の実業家、ラジオパーソナリティ。	つるまきやすおわにっぽんのじつぎょーか、らじおぱーそなりてぃ。	NO_LABEL
樺太生まれ、北海学園大学経済学部中退。	からふとうまれ、ほっかいがくえんだいがくけいざいがくぶちゅーたい。	NO_LABEL
フリーライターとして独立。	ふりーらいたーとしてどくりつ。	NO_LABEL
大宅壮一に師事。	おおやそーいちにしじ。	NO_LABEL
1965年7月株式会社ＩＮ通信社を創立して代表に就任。	せんきゅうひゃくろくじゅうごねんしちがつかぶしきがいしゃあいえぬつーしんしゃをそーりつしてだいひょーにしゅーにん。	NO_LABEL
雑誌「人物評論」発行、編集主幹を経て、現在、評論家、ラジオパーソナリティとして活動。	NO_PRONOUNCE	NO_LABEL
1984年7月に放送開始したアール・エフ・ラジオ日本の冠番組『こんにちは!鶴蒔靖夫です』は、2015年現在、放送32年目、放送8000回を超える長寿番組になっている。	NO_PRONOUNCE	NO_LABEL
