応仁の乱は、室町時代の応仁元年に発生し、文明9年までの約11年間にわたって継続した内乱。	おーにんのらんわ、むろまちじだいのおーにんがんねんにはっせいし、ぶんめいきゅうねんまでのやくじゅういちねんかんにわたってけいぞくしたないらん。	NO_LABEL
室町幕府管領家の畠山氏、斯波氏の家督争いから、細川勝元と山名宗全の勢力争いに発展し、室町幕府8代将軍足利義政の継嗣争いも加わって、ほぼ全国に争いが拡大した。	むろまちばくふかんれいけのはたけやまし、しばしのかとくあらそいから、ほそかわかつもととやまなそーぜんのせいりょくあらそいにはってんし、むろまちばくふはちだいしょーぐんあしかがよしまさのけいしあらそいもくわわって、ほぼぜんこくにあらそいがかくだいした。	NO_LABEL
明応2年の明応の政変と並んで戦国時代移行の原因とされる。	NO_PRONOUNCE	NO_LABEL
十数年に亘る戦乱は和睦の結果、西軍が解体され収束したが、主要な戦場となった京都全域が壊滅的な被害を受けて荒廃した。	じゅーすーねんにわたるせんらんわわぼくのけっか、せいぐんがかいたいされしゅーそくしたが、しゅよーなせんじょーとなったきょーとぜんいきがかいめつてきなひがいをうけてこーはいした。	NO_LABEL
応仁元年に起きたことから応仁の乱と呼ばれるが、戦乱期間の大半は文明年間であったため応仁・文明の乱とも呼ばれる。	NO_PRONOUNCE	NO_LABEL
鎌倉時代後期から、名門武家・公家を始めとする旧来の支配勢力は、相次ぐ戦乱の結果、力をつけてきた国人・商人・農民などの台頭によって、その既得権益を侵食されつつあった。	NO_PRONOUNCE	NO_LABEL
また、守護大名による合議制の連合政権であった室町幕府は成立当初から将軍の権力基盤は脆弱であり、三管領などの宿老の影響を強く受けていた。	また、しゅごだいみょーによるごーぎせいのれんごーせいけんであったむろまちばくふわせいりつとーしょからしょーぐんのけんりょくきばんわぜいじゃくであり、さんかんれいなどのしゅくろーのえいきょーをつよくうけていた。	NO_LABEL
また、同じようにその宿老や守護大名も例外ではなく、領国の守護代や有力家臣の強い影響を受けていた。	また、おなじよーにそのしゅくろーやしゅごだいみょーもれいがいでわなく、りょーごくのしゅごだいやゆーりょくかしんのつよいえいきょーをうけていた。	NO_LABEL
こうした環境は当時、家督相続の方式が定まっていなかったことも相まってしばしば将軍家・守護大名家に後継者争いや「お家騒動」を発生させる原因になった。	NO_PRONOUNCE	NO_LABEL
室町幕府は、4代将軍足利義持の弟であり、籤引きによって選ばれた6代将軍足利義教が専制政治を敷いて守護大名を抑えつけ将軍の権力を強化したが、嘉吉元年に赤松満祐に暗殺されてしまう。	むろまちばくふわ、よんだいしょーぐんあしかがよしもちのおとーとであり、くじびきによってえらばれたろくだいしょーぐんあしかがよしのりがせんせいせいじをしいてしゅごだいみょーをおさえつけしょーぐんのけんりょくをきょーかしたが、よしきちがんねんにあかまつみつすけにあんさつされてしまう。	NO_LABEL
この混乱を収束させたのは管領細川持之と畠山持国であった。	このこんらんをしゅーそくさせたのわかんりょーほそかわもちゆきとはたけやまもちくにであった。	NO_LABEL
しかし、嘉吉2年細川持之は隠居し翌年死去、7代将軍は義教の嫡子である9歳の義勝も就任1年足らずで急逝、義勝の同母弟である8歳の足利義政が、管領に就任していた畠山持国邸における衆議により次期将軍に選ばれ、文安6年に正式に将軍職を継承した。	しかし、よしきちにねんほそかわもちゆきわいんきょしよくねんしきょ、ななだいしょーぐんわよしのりのちゃくしであるきゅうさいのよしかつもしゅーにんいちねんたらずできゅーせい、よしかつのどーぼおとーとであるはっさいのあしかがよしまさが、かんりょーにしゅーにんしていたはたけやまもちくにていにおけるしゅーぎによりじきしょーぐんにえらばれ、ぶんあんろくねんにせいしきにしょーぐんしょくをけいしょーした。	NO_LABEL
管領であった畠山持国は、足利義教に隠居させられていたが嘉吉の乱の際に武力で家督を奪還しており、義教によって家督を追われた者達を復権させ勢力を拡大した。	かんりょーであったはたけやまもちくにわ、あしかがよしのりにいんきょさせられていたがかきつのらんのさいにぶりょくでかとくをだっかんしており、よしのりによってかとくをおわれたしゃたちをふっけんさせせいりょくをかくだいした。	NO_LABEL
また、子が居なかったため弟の持富を養子に迎えていた。	また、こがいなかったためおとーとのもちとみをよーしにむかえていた。	NO_LABEL
しかし、永享9年に義夏が生まれたため、文安5年に持富を廃嫡して義夏を家督につけた。	しかし、えいきょーきゅうねんにぎなつがうまれたため、ぶんあんごねんにもちとみをはいちゃくしてぎなつをかとくにつけた。	NO_LABEL
これは義政にも認められており、義夏は偏諱を授けられている。	これわよしまさにもみとめられており、よしなつわへんきをさずけられている。	NO_LABEL
そして、畠山持国、足利義政、義政の乳母今参局は一致して斯波氏家臣の争いに介入し、宝徳3年の織田郷広の尾張守護代復帰を支援した。	そして、はたけやまもちくに、あしかがよしまさ、よしまさのおんばいままいりのつぼねわいっちしてしばしかしんのあらそいにかいにゅーし、ほーとくさんねんのおださとひろのおわりしゅごだいふっきをしえんした。	NO_LABEL
しかしこれは越前・遠江守護代甲斐常治の意を受けた日野重子の反対により頓挫した。	NO_PRONOUNCE	NO_LABEL
さらに、畠山家内部でも重臣神保氏・遊佐氏は持富の廃嫡に納得せず、持国の甥で持富の子弥三郎を擁立するべきと主張したに死去）。	NO_PRONOUNCE	NO_LABEL
このため享徳3年4月3日畠山持国は神保国宗を誅殺した。	このためきょうとくさんねんしがつみっかはたけやまもちくにわじんぼくにむねをちゅーさつした。	NO_LABEL
この畠山氏の内紛に対し、細川勝元、山名宗全、そして畠山氏被官の多くが、勝元と宗全の下に逃れた畠山弥三郎・政長兄弟を支持し、8月21日に弥三郎派が持国の屋敷を襲撃、難を逃れた畠山持国は8月28日に隠居させられ、義就は京都を追われ、足利義政は弥三郎を家督継承者と認めなくてはならなかった。	NO_PRONOUNCE	NO_LABEL
一方で、弥三郎を匿った細川勝元の被官の処刑も命ぜられ喧嘩両成敗の形も取られた。	いっぽーで、やさぶろーをかくまったほそかわかつもとのひかんのしょけいもめいぜられけんかりょーせいばいのかたちもとられた。	NO_LABEL
しかし山名宗全はこの命令に激怒し、処刑を命令した義政とそれを受け入れた勝元に対して反発した。	しかしやまなそーぜんわこのめいれいにげきどし、しょけいをめいれいしたよしまさとそれをうけいれたかつもとにたいしてはんぱつした。	NO_LABEL
足利義政は宗全追討を命じたが、細川勝元の嘆願により撤回され、宗全が但馬に隠居することで決着した。	あしかがよしまさわそーぜんついとーをめいじたが、ほそかわかつもとのたんがんによりてっかいされ、そーぜんがたじまにいんきょすることでけっちゃくした。	NO_LABEL
12月6日に宗全が但馬に下向すると、13日に義就が軍勢を率いて上洛して弥三郎は逃走、再び畠山義就が家督継承者となった。	じゅーにがつむいかにそーぜんがたじまにげこーすると、じゅうさんにちによしなりがぐんぜいをひきいてじょーらくしてやさぶろーわとーそー、ふたたびはたけやまよしひろがかとくけいしょーしゃとなった。	NO_LABEL
なお、文安4年に勝元が宗全の養女を正室として以来、細川・山名の両氏は連携関係にあった。	NO_PRONOUNCE	NO_LABEL
翌享徳4年3月26日に畠山持国は死去し、畠山義就が畠山氏の家督を相続した。	よくきょうとくよんねんさんがつにじゅうろくにちにはたけやまもちくにわしきょし、はたけやまよしひろがはたけやましのかとくをそーぞくした。	NO_LABEL
義就は弥三郎派の勢力を一掃するため、領国内で活発な弾圧を行った。	よしなりわやさぶろーはのせいりょくをいっそーするため、りょーごくないでかっぱつなだんあつをおこなった。	NO_LABEL
この最中、義就は義政の上意と称して軍事行動を行ったため、義政の信任を次第に失った。	このさいちゅー、よしなりわよしまさのじょーいとしょーしてぐんじこうどーをおこなったため、よしまさのしんにんをしだいにうしなった。	NO_LABEL
さらに義就は勝元の所領である山城木津を攻撃、細川勝元は弥三郎を擁立することで義就の追い落としを計画した。	さらによしなりわかつもとのしょりょーであるやましろきずをこーげき、ほそかわかつもとわやさぶろーをよーりつすることでよしなりのおいおとしをけいかくした。	NO_LABEL
一方で山名宗全は長禄2年に赦免、同年に義就と共に八幡神人討伐に参陣した頃から親義就派となっていった。	いっぽーでやまなそーぜんわちょーろくにねんにしゃめん、どーねんによしなりとともにやはたしんじんとーばつにさんじんしたころからおやよしなりはとなっていった。	NO_LABEL
長禄3年には弥三郎が赦免され、上洛を果たした。	ちょーろくさんねんにわやさぶろーがしゃめんされ、じょーらくをはたした。	NO_LABEL
弥三郎は程無く死去、政長が勝元と弥三郎派の家臣団に擁立され、寛正元年9月20日には義政によって政長の畠山氏家督が認められ、義就は追放された。	やさぶろーわほどなくしきょ、まさなががかつもととやさぶろーはのかしんだんによーりつされ、かんしょーがんねんくがつはつかにわよしまさによってまさながのはたけやましかとくがみとめられ、よしなりわついほーされた。	NO_LABEL
義就は河内嶽山城に籠もって徹底抗戦を図ったため義政は追討軍を発し、義就を攻撃させた。	よしなりわかわちだけやまじょーにかごもっててっていこーせんをはかったためよしまさわついとーぐんをはっし、よしなりをこーげきさせた。	NO_LABEL
しかし義就は寛正4年4月15日まで攻撃を耐え抜き、嶽山城が落城した後は紀伊、次いで吉野へ逃れた。	しかしよしなりわかんしょーよんねんしがつじゅうごにちまでこーげきをたえぬき、だけやまじょーがらくじょーしたのちわきい、ついでよしのえのがれた。	NO_LABEL
一方、関東では、享徳3年に幕府に叛旗を翻し享徳の乱を起こした鎌倉公方足利成氏を討伐するため、長禄元年足利義政は、異母兄の足利政知を新たな鎌倉公方として関東に派遣したが政知は鎌倉へ下向出来ず、長禄2年伊豆堀越に留まった。	いっぽー、かんとーでわ、きょうとくさんねんにばくふにはんきをひるがえしきょうとくのらんをおこしたかまくらくぼーあしかがしげうじをとーばつするため、ちょーろくがんねんあしかがよしまさわ、いぼけいのあしかがまさともをあらたなかまくらくぼーとしてかんとーにはけんしたがまさともわかまくらえげこーできず、ちょーろくにねんいずほりこしにとまった。	NO_LABEL
足利義政は斯波義敏を始めとする成氏追討軍を派遣しようとしたが、義敏が執事の甲斐常治と内乱を起こしたため更迭、息子の松王丸を斯波氏当主に替えた。	あしかがよしまさわしばよしとしをはじめとするしげうじついとーぐんをはけんしようとしたが、よしとしがしつじのかいじょうちとないらんをおこしたためこーてつ、むすこのまつおーまるをしばしとーしゅにかえた。	NO_LABEL
更に寛正2年、足利義政は斯波氏の家督を松王丸から、足利政知の執事である渋川義鏡の子・斯波義廉に替え、堀越府の軍事力強化を企図した。	NO_PRONOUNCE	NO_LABEL
しかし渋川義鏡が扇谷上杉家の上杉持朝と対立し、その後失脚したため、足利義政は斯波義敏の復権を画策した。	しかししぶかわよしかねよしみがおうぎがやつうえすぎけのうえすぎもちともとたいりつし、そのごしっきゃくしたため、あしかがよしまさわしばよしとしのふっけんをかくさくした。	NO_LABEL
畠山氏や斯波氏の他にも、富樫氏、小笠原氏、六角氏でもお家騒動が起こっている。	はたけやましやしばしのほかにも、とがしし、おがさわらし、ろっかくしでもおいえそうどーがおこっている。	NO_LABEL
幕府はこれらの調停も行ったが、対応が首尾一貫せず、守護家に分裂の火種を残した。	ばくふわこれらのちょーていもおこなったが、たいおーがしゅびいっかんせず、しゅごかにぶんれつのひだねをのこした。	NO_LABEL
この政策を主導したのは、義政側近の伊勢貞親であった。	このせいさくをしゅどーしたのわ、よしまさそっきんのいせさだちかであった。	NO_LABEL
伊勢貞親は室町幕府政所執事であり、将軍権力の向上を図ったものであった。	いせさだちかわむろまちばくふまんどころしつじであり、しょーぐんけんりょくのこーじょーをはかったものであった。	NO_LABEL
更に、寛正4年8月、義政の母日野重子が没し、大赦が行われ、畠山義就、武衛騒動で失脚した斯波義敏ら多数の者が赦免された。	さらに、かんしょーよんねんはちがつ、よしまさのははひのしげこがぼっし、たいしゃがおこなわれ、はたけやまよしひろ、ぶえいそうどーでしっきゃくしたしばよしとしらたすーのものがしゃめんされた。	NO_LABEL
この前後の一貫性のない幕府・朝廷の対応を興福寺別当尋尊は「公武御成敗諸事正体無し」と批判している。	NO_PRONOUNCE	NO_LABEL
しかし、この大赦には、斯波義敏の妾と伊勢貞親の妾が姉妹であることや、細川勝元への牽制などの動機があった。	しかし、このたいしゃにわ、しばよしとしのそばめといせさだちかのそばめがしまいであることや、ほそかわかつもとえのけんせいなどのどーきがあった。	NO_LABEL
ところが、この伊勢貞親の政策の裏では、中央から遠ざかっていた山名宗全が斯波義廉に接近、畠山義就、伊予国や安芸国で細川勝元と対立する大内政弘とも提携、反勢力の中核となっていった。	ところが、このいせさだちかのせいさくのうらでわ、ちゅーおーからとーざかっていたやまなそーぜんがしばよしかどにせっきん、はたけやまよしひろ、いよのくにやあきのくにでほそかわかつもととたいりつするおーうちまさひろともていけい、はんせいりょくのちゅーかくとなっていった。	NO_LABEL
また、嘉吉の乱鎮圧に功労のあった山名宗全は主謀者赤松氏の再興に反対していたが長禄2年、勝元が宗全の勢力削減を図って長禄の変に赤松氏遺臣が功績を建てたことを根拠に赤松政則を加賀守護職に取立てたことから両者は激しく対立し、後に勝元が養子で宗全の末子豊久を廃嫡したことが応仁の乱の一因となったともされる。	また、かきつのらんちんあつにこーろーのあったやまなそーぜんわしゅぼーしゃあかまつしのさいこーにはんたいしていたがちょーろくにねん、かつもとがそーぜんのせいりょくさくげんをはかってちょーろくのへんにあかまつしいしんがこーせきをたてたことをこんきょにあかまつまさのりをかがしゅごしきにとりたてたことからりょーしゃわはげしくたいりつし、のちにかつもとがよーしでそーぜんのまっしとよひさをはいちゃくしたことがおーにんのらんのいちいんとなったともされる。	NO_LABEL
足利義政は29歳になって、正室である日野富子や側室との間に後継男子がないことを理由に将軍職を実弟の浄土寺門跡義尋に譲って隠居することを思い立った。	あしかがよしまさわにじゅうきゅうさいになって、せいしつであるひのとみこやそくしつとのまにこーけいだんしがないことをりゆーにしょーぐんしょくをじっていのじょーどじもんぜきぎじんにゆずっていんきょすることをおもいたった。	NO_LABEL
禅譲を持ちかけられた義尋はまだ若い義政に後継男子誕生の可能性があることを考え、将軍職就任の要請を固辞し続けた。	ぜんじょーをもちかけられたぎじんわまだわかいよしまさにこーけいだんしたんじょーのかのーせいがあることをかんがえ、しょーぐんしょくしゅーにんのよーせいをこじしつずけた。	NO_LABEL
しかし、義政が「今後男子が生まれても僧門に入れ、家督を継承させることはない」と起請文まで認めて再三将軍職就任を説得したことから寛正5年11月26日、義尋は意を決して還俗し名を足利義視と改めると勝元の後見を得て今出川邸に移った。	NO_PRONOUNCE	NO_LABEL
寛正6年11月23日、義政と富子との間に足利義尚が誕生する。	かんしょーろくねんじゅーいちがつにじゅうさんにち、よしまさととみことのまにあしかがよしひさがたんじょーする。	NO_LABEL
実子・義尚の将軍職擁立を切望する富子は宗全に接近し、義視の将軍職就任を阻止しようと暗躍した。	NO_PRONOUNCE	NO_LABEL
義視の後見人である勝元と義尚を推す宗全の対立は激化し将軍家の家督争いは全国の守護大名を勝元派と宗全派に2分する事態となり、衝突は避け難いものになっていった。	よしみのこーけんにんであるかつもととよしなおをおすそーぜんのたいりつわげきかししょーぐんけのかとくあらそいわぜんこくのしゅごだいみょーをかつもとはとそーぜんはににふんするじたいとなり、しょーとつわさけがたいものになっていった。	NO_LABEL
から文明6年までであり、勝元と宗全の対立を乱の原因とする理解は、『応仁記』の叙述によるものであるとの見解も提起されている。	NO_PRONOUNCE	NO_LABEL
）	NO_PRONOUNCE	NO_LABEL
文正元年7月23日、足利義政は側近の伊勢貞親・季瓊真蘂らの進言で斯波氏宗家・武衛家の家督を突然、斯波義廉から取り上げ斯波義敏に与えた。	NO_PRONOUNCE	NO_LABEL
8月25日には越前・尾張・遠江守護職も与えている。	NO_PRONOUNCE	NO_LABEL
さらに、足利義政の側近は、謀反の噂を流して足利義視の追放、誅殺を図った。	さらに、あしかがよしまさのそっきんわ、むほんのうわさをながしてあしかがよしみのついほー、ちゅーさつをはかった。	NO_LABEL
これに対し、斯波義廉と縁戚関係にあった山名宗全は一色義直や土岐成頼らと共に足利義視と斯波義廉を支持し、足利義視は後見人である細川勝元を頼った。	これにたいし、しばよしかどとえんせきかんけいにあったやまなそーぜんわいっしきよしなおやときしげよりらとともにあしかがよしみとしばよしかどをしじし、あしかがよしみわこーけんにんであるほそかわかつもとをたよった。	NO_LABEL
勝元は宗全と協力して足利義視の無実を訴え、9月6日、足利義政は伊勢貞親を近江に追放、側近であった季瓊真蘂、斯波義敏、赤松政則も失脚して都を追われた。	NO_PRONOUNCE	NO_LABEL
14日に斯波家の家督は斯波義廉に戻された。	じゅうよっかにしばかのかとくわしばよしかどにもどされた。	NO_LABEL
この政変により、足利義政の政治力は著しく低下した。	このせいへんにより、あしかがよしまさのせいじりょくわいちじるしくていかした。	NO_LABEL
文正元年12月、畠山義就が突如大軍を率いて上洛し、千本地蔵院に陣取った。	ふみまさがんねんじゅーにがつ、はたけやまよしひろがとつじょたいぐんをひきいてじょーらくし、ちもとじぞーいんにじんどった。	NO_LABEL
これは、文正の政変の結果に満足しない山名宗全、斯波義廉の支援をうけたものであった。	これわ、ぶんしょうのせいへんのけっかにまんぞくしないやまなそーぜん、しばよしかどのしえんをうけたものであった。	NO_LABEL
足利義政はこの動きに屈し、文正2年1月2日、畠山政長や、細川勝元に断ることなく、将軍邸の室町亭に畠山義就を招いた。	あしかがよしまさわこのうごきにくっし、ふみまさにねんいちがつふつか、はたけやままさながや、ほそかわかつもとにことわることなく、しょーぐんていのむろまちていにはたけやまよしひろをまねいた。	NO_LABEL
追い討ちをかけるように足利義政は正月恒例の管領邸への「御成」を中止し、3日後の5日に畠山義就が宗全邸で開いた酒宴に出席、その席で義政は畠山義就の畠山氏総領を認め、畠山政長に春日万里小路の屋敷の明け渡しを要求させる。	NO_PRONOUNCE	NO_LABEL
畠山政長は反発して管領を辞任し、後任に山名派の斯波義廉が就任した。	はたけやままさながわはんぱつしてかんりょーをじにんし、こーにんにやまなはのしばよしかどがしゅーにんした。	NO_LABEL
細川勝元は花の御所を占拠して足利義政から畠山義就追討令を出させようとするが、富子が事前に察知して山名宗全に情報を漏らしたため失敗した。	ほそかわかつもとわはなのごしょをせんきょしてあしかがよしまさからはたけやまよしひろついとーれいをださせようとするが、とみこがじぜんにさっちしてやまなそーぜんにじょーほーをもらしたためしっぱいした。	NO_LABEL
政局を有利に運んだ山名宗全は自邸周辺に同盟守護大名の兵を多数集め、内裏と室町亭を囲み足利義政に畠山政長や細川勝元らの追放を願い出た。	せいきょくをゆーりにはこんだやまなそーぜんわじていしゅーへんにどーめいしゅごだいみょーのへいをたすーあつめ、だいりとむろまちていをかこみあしかがよしまさにはたけやままさながやほそかわかつもとらのついほーをねがいでた。	NO_LABEL
足利義政は細川勝元の追放は認めなかったが、諸大名が一方に加担しないことを条件に畠山義就による畠山政長への攻撃を認めた。	あしかがよしまさわほそかわかつもとのついほーわみとめなかったが、しょだいみょーがいっぽーにかたんしないことをじょーけんにはたけやまよしひろによるはたけやままさながえのこーげきをみとめた。	NO_LABEL
文正2年1月18日、政長は無防備であった自邸に火を放つと兵を率いて上御霊神社に陣を敷いた。	ふみまさにねんいちがつじゅうはちにち、まさながわむぼーびであったじていにひをはなつとへいをひきいてかみごりょうじんじゃにじんをしいた。	NO_LABEL
一方義就は後土御門天皇や後花園上皇、伏見宮貞常親王を一つ車に御乗せして室町亭に避難させた。	いっぽーよしなりわごつちみかどてんのーやこーはなぞのじょうこー、ふしみのみやさだつねしんのーをひとつしゃにおのせしてむろまちていにひなんさせた。	NO_LABEL
義政は畠山の私闘への関わりを禁じるが、宗全や斯波義廉、山名政豊、朝倉孝景らは義就に加勢した。	よしまさわはたけやまのしとーえのかかわりをきんじるが、そーぜんやしばよしかど、やまなまさとよ、あさくらたかかげらわよしなりにかせいした。	NO_LABEL
一方勝元は義政の命令に従って援軍を出さなかった。	いっぽーかつもとわよしまさのめいれいにしたがってえんぐんをださなかった。	NO_LABEL
このため勝元は「弓矢の道」に背いたと激しい非難を受けた。	NO_PRONOUNCE	NO_LABEL
御霊社は竹林に囲まれ、西には細川が流れ、南には相国寺の堀が位置した。	みたましゃわちくりんにかこまれ、にしにわほそかわがながれ、みなみにわしょーこくじのほりがいちした。	NO_LABEL
義就側は釈迦堂から出兵して政長を攻撃した。	よしなりがわわしゃかどーからしゅっぺいしてまさながをこーげきした。	NO_LABEL
戦いは夕刻まで続いたが、政長は夜半に社に火をかけ、自害を装って逃走した。	たたかいわゆーこくまでつずいたが、まさながわやはんにしゃにひをかけ、じがいをよそおってとーそーした。	NO_LABEL
勝元邸に匿われたと言われる。	かつもとていにかくまわれたといわれる。	NO_LABEL
室町亭が山名軍に占拠されたために、勝元は形式上は幕府中枢から排除された。	むろまちていがやまなぐんにせんきょされたために、かつもとわけいしきじょーわばくふちゅーすーからはいじょされた。	NO_LABEL
だが、勝元は京都に留まり続けただけでなく、非常事態を口実に細川京兆家の当主として、独自に管領の職務である軍勢催促状や感状の発給や軍忠状の加判などを自派の大名や国人に行わせた。	だが、かつもとわきょーとにとまりつずけただけでなく、ひじょーじたいをこーじつにほそかわけいちょーけのとーしゅとして、どくじにかんりょーのしょくむであるぐんぜいさいそくじょーやかんじょーのはっきゅーやぐんちゅーじょーのかばんなどをじはのだいみょーやくにびとにおこなわせた。	NO_LABEL
御霊合戦の後、細川勝元は四国など領地9カ国の兵を京都へ集結させるなど緊張が高まった。	NO_PRONOUNCE	NO_LABEL
文正2年3月5日には元号が文正から応仁に改元された。	ふみまさにねんさんがついつかにわげんごーがふみまさからおーにんにかいげんされた。	NO_LABEL
4月になると、細川方の兵が山名方の年貢米を略奪する事件が相次いで起き、足利義視が調停を試みている。	しがつになると、ほそかわかたのへいがやまなかたのねんぐまいをりゃくだつするじけんがあいついでおき、あしかがよしみがちょーていをこころみている。	NO_LABEL
京都では細川方の兵が宇治や淀など各地の橋を焼き、4門を固めた。	NO_PRONOUNCE	NO_LABEL
片や宗全は5月20日に評定を開き、五辻通大宮東に本陣を置いた。	かたやそーぜんわごがつはつかにひょーじょーをひらき、いつつじどーりおーみやひがしにほんじんをおいた。	NO_LABEL
西軍は斯波義廉の管領下知状により指令を行っていた。	せいぐんわしばよしかどのかんりょーげじじょーによりしれいをおこなっていた。	NO_LABEL
両軍の位置関係から細川方を「東軍」、山名方を「西軍」と呼ぶ。	NO_PRONOUNCE	NO_LABEL
兵力は『応仁記』によれば東軍が16万、西軍が11万以上であったと記されているが、誇張があるという指摘もされている。	NO_PRONOUNCE	NO_LABEL
京都に集結した諸将は北陸、信越、東海と九州の筑前、豊後、豊前が大半であった。	きょーとにしゅーけつしたしょしょーわきたがち、しんえつ、とーかいときゅーしゅーのちくぜん、ぶんご、とよまえがたいはんであった。	NO_LABEL
地理的には、細川氏一族が畿内と四国の守護を務めていたことに加えその近隣地域にも自派の守護を配置していたため、当初から東軍が優位を占めていた。	ちりてきにわ、ほそかわしいちぞくがきないとしこくのしゅごをつとめていたことにくわえそのきんりんちいきにもじはのしゅごをはいちしていたため、とーしょからとうぐんがゆーいをしめていた。	NO_LABEL
西軍は山名氏を始め、細川氏とその同盟勢力の台頭に警戒感を強める周辺地域の勢力が参加していた。	せいぐんわやまなうじをはじめ、ほそかわしとそのどーめいせいりょくのたいとーにけいかいかんをつよめるしゅーへんちーきのせいりょくがさんかしていた。	NO_LABEL
当初の東軍の主力は、細川家、斯波家、畠山家と、京極持清、赤松政則、武田信賢であり、西軍の主力は、山名家、斯波家、畠山家、義政の側近でありながら武田信賢との確執から西軍に奔った一色義直や、土岐成頼、大内政弘であった。	NO_PRONOUNCE	NO_LABEL
一方、関東や九州では鎌倉公方や少弐氏らによりたびたび大規模な紛争が発生しており、中央の大乱より前に戦乱状態に突入していた。	いっぽー、かんとーやきゅーしゅーでわかまくらくぼーやしょーにしらによりたびたびだいきぼなふんそーがはっせいしており、ちゅーおーのたいらんよりまえにせんらんじょーたいにとつにゅーしていた。	NO_LABEL
また、陸奥・出羽も国人が割拠して争う状態になっていた。	NO_PRONOUNCE	NO_LABEL
応仁の乱は先述の通り御霊合戦を契機に前半は京都を中心とした山城一帯が主戦場となっていたが、次第に地方へ戦線が拡大していった。	おーにんのらんわせんじゅつのとーりごりょうがっせんかみごりょうじんじゃのたたかいをけいきにぜんはんわきょーとをちゅーしんとしたやましろいったいがしゅせんじょーとなっていたが、しだいにちほーえせんせんがかくだいしていった。	NO_LABEL
鎌倉府が管轄する関東地方八か国と伊豆・甲斐は享徳の乱が勃発していたが、足利義政が送り込んだ堀越公方に対し、古河公方側は西幕府と連携する動きもあった。	NO_PRONOUNCE	NO_LABEL
更に、文明7年には関東管領上杉顕定の実父でその後見人でもあった越後守護上杉房定が、西軍の能登守護・畠山義統と共に東軍の畠山政長が領する越中を攻撃するという事件も起きている。	NO_PRONOUNCE	NO_LABEL
東軍は将軍・義政や後土御門天皇・後花園法皇を保護下に置き、将軍牙旗や治罰院宣を駆使して「官軍」の体裁を整えており、西軍は結果的に「賊軍」の立場に置かれていた。	NO_PRONOUNCE	NO_LABEL
しかし、正親町三条家・阿野家・葉室家などのように将軍姻戚の日野家と対立する公家の一部は義視と共に西軍に投じており、さらに西軍は「西陣南帝」と呼ばれた小倉宮後裔を担ぐなど朝廷も一時分裂状態に陥った。	NO_PRONOUNCE	NO_LABEL
宗教勢力の動きでは蓮如率いる浄土真宗本願寺派の活動が知られ、文明5年に東軍の加賀半国守護・富樫政親の要請を受けて下間蓮崇率いる一向一揆が政親方に加担。	NO_PRONOUNCE	NO_LABEL
本願寺派と敵対する浄土真宗高田派と結んだ西軍の富樫幸千代と戦い、翌文明6年に幸千代を破っている。	ほんがんじはとてきたいするじょーどしんしゅーたかだはとむすんだせいぐんのとがしこうちよとたたかい、よくぶんめいろくねんにさいわいちよをやぶっている。	NO_LABEL
ただこの一件が後に加賀一向一揆を勃発させる遠因となった。	ただこのいっけんがのちにかがいっこーいっきをぼっぱつさせるえんいんとなった。	NO_LABEL
下表に東軍と西軍に各々参加した守護大名や国人を列挙する。	かひょーにひがしぐんとせいぐんにおのおのさんかしたしゅごだいみょーやくにびとをれっきょする。	NO_LABEL
※◆は西軍から東軍へ寝返った武将、★は東軍から西軍へ寝返った武将、×は応仁の乱終戦までに死去した武将を示す。	NO_PRONOUNCE	NO_LABEL
その他	そのた	NO_LABEL
応仁元年5月、細川勝元派である元播磨守護家の赤松政則が播磨へ侵攻、山名氏から播磨を奪還した。	おーにんがんねんごがつ、ほそかわかつもとはであるもとはりましゅごかのあかまつまさのりがはりまえしんこー、やまなうじからはりまをだっかんした。	NO_LABEL
また武田信賢、細川成之らが若狭の一色氏の領地へ侵攻し、斯波義敏は越前へ侵攻した。	またたけだのぶかた、ほそかわしげゆきらがわかさのいっしきしのりょーちえしんこーし、しばよしとしわえつぜんえしんこーした。	NO_LABEL
美濃土岐氏一門の世保政康も旧領であった一色氏の伊勢国を攻撃している。	みのときしいちもんのよやすまさやすもきゅーりょーであったいっしきしのいせのくにをこーげきしている。	NO_LABEL
5月26日の夜明け前には室町亭の西隣にある一色義直の屋敷近郊の正実坊を成身院光宣が、実相院を武田信賢が占拠、続いて武田信賢・細川成之の軍が義直の屋敷を襲撃し、義直は直前に脱出、屋敷は焼き払われ京都での戦いが始まった。	NO_PRONOUNCE	NO_LABEL
勝元は匿っていた政長を含む全国の同盟者に呼びかける一方、室町亭を押さえ戦火から保護するという名目で将軍らを確保、勝元は自邸今出川邸に本陣を置いた。	かつもとわかくまっていたまさながをふくむぜんこくのどーめいしゃによびかけるいっぽー、むろまちていをおさえせんかからほごするとゆうめいもくでしょーぐんらをかくほ、かつもとわじていいまでがわていにほんじんをおいた。	NO_LABEL
室町亭を奪還した勝元らは西軍方に就いた幕府奉行衆の責任を追及し、6月11日には恩賞方を管轄していた飯尾為数が殺され、8月には伊勢貞藤が追放された。	むろまちていをだっかんしたかつもとらわせいぐんかたについたばくふぶぎょーしゅーのせきにんをついきゅーし、ろくがつじゅういちにちにわおんしょーがたをかんかつしていたいいのおためかずがころされ、はちがつにわいせさだふじがついほーされた。	NO_LABEL
5月26日、宗全邸の南に位置する一条大宮の細川勝久邸を斯波義廉の配下の朝倉孝景、甲斐氏ら西軍が攻めかかり、応戦した細川軍と激戦を展開、東から援軍に来た京極持清を返り討ちにした。	ごがつにじゅうろくにち、そーぜんていのみなみにいちするいちじょーおーみやのほそかわかつひさていをしばよしかどのはいかのあさくらたかかげ、かいしらせいぐんがせめかかり、おーせんしたほそかわぐんとげきせんをてんかい、ひがしからえんぐんにきたきょーごくもちきよをかえりうちにした。	NO_LABEL
続いて赤松政則が南下して正親町を通り、猪熊に攻め上がって斯波軍を引き上げさせ、細川勝久はこの隙を見て東の細川成之の屋敷に逃亡した。	つずいてあかまつまさのりがなんかしておーぎまちをとーり、いのくまにせめあがってしばぐんをひきあげさせ、ほそかわかつひさわこのひまをみてひがしのほそかわしげゆきのやしきにとーぼーした。	NO_LABEL
西軍は勝久邸を焼き払い、続いて成之邸に攻め寄せ雲の寺、百万遍の仏殿、革堂にも火を放ち成之邸を攻撃したが、東軍の抵抗で決着が着かず翌27日に両軍は引き上げた。	せいぐんわかつひさていをやきはらい、つずいてしげゆきていにせめよせくものてら、ひゃくまんべんのぶつでん、こーどーにもひをはなちしげゆきていをこーげきしたが、とうぐんのていこーでけっちゃくがつかずよくにじゅうしちにちにりょーぐんわひきあげた。	NO_LABEL
この合戦で起きた火災で北は船岡山、南は二条通りまで延焼した。	このかっせんでおきたかさいできたわふなおかやま、みなみわにじょーどーりまでえんしょーした。	NO_LABEL
足利義政は28日に両軍に和睦を命じ、細川勝元の軍事行動を非難しながら畠山義就の河内下向を命ずる一方、伊勢貞親に軍を率いて上洛させるなど復権の動きを取っていた。	あしかがよしまさわにじゅうはちにちにりょーぐんにわぼくをめいじ、ほそかわかつもとのぐんじこうどーをひなんしながらはたけやまよしひろのかわうちげこーをめいずるいっぽー、いせさだちかにぐんをひきいてじょーらくさせるなどふっけんのうごきをとっていた。	NO_LABEL
しかし、6月3日に細川勝元が要請を行うと、足利義政は将軍の牙旗を足利義視が率いる東軍に下し、東軍は官軍の体裁を整えた。	しかし、ろくがつみっかにほそかわかつもとがよーせいをおこなうと、あしかがよしまさわしょーぐんのきばはたをあしかがよしみがひきいるひがしぐんにくだし、とうぐんわかんぐんのていさいをととのえた。	NO_LABEL
足利義視率いる官軍は総攻撃を開始し、6月8日には赤松政則が一条大宮で山名教之を破った。	あしかがよしみひきいるかんぐんわそーこーげきをかいしし、ろくがつようかにわあかまつまさのりがいちじょーおーみやでやまなのりゆきをやぶった。	NO_LABEL
さらに義政の降伏勧告により斯波義廉ら西軍諸将は動揺して自邸に引きこもった。	さらによしまさのこーふくかんこくによりしばよしかどらせいぐんしょしょーわどーよーしてじていにひきこもった。	NO_LABEL
東軍は斯波義廉館も攻撃し、戦闘の巻き添えで南北は二条から御霊の辻まで、東西は大舎人町から室町までが炎上した。	とうぐんわしばよしかどかんもこーげきし、せんとーのまきぞえでなんぼくわにじょーからみたまのつじまで、とーざいわだいとねりまちからむろまちまでがえんじょーした。	NO_LABEL
六角高頼、土岐成頼、さらに、斯波義廉は投降しようとしたが、東軍に対し激しく抗戦する重臣の朝倉孝景の首を持ってくるよういわれて投降を断念した。	ろっかくたかより、ときしげより、さらに、しばよしかどわとーこーしようとしたが、とうぐんにたいしはげしくこーせんするじゅーしんのあさくらたかかげのくびをもってくるよーいわれてとーこーをだんねんした。	NO_LABEL
しかし6月14日には大和の古市胤栄が、19日に紀伊の畠山政国などの西軍の援軍が到着し始めた。	しかしろくがつじゅうよっかにわやまとのふるいちたねひでが、じゅうくにちにきいのはたけやままさくになどのせいぐんのえんぐんがとーちゃくしはじめた。	NO_LABEL
8月23日には周防から大内政弘が伊予の河野通春ら7か国の軍勢一万と2千艘の水軍を率いて入京したため西軍が勢力を回復した。	NO_PRONOUNCE	NO_LABEL
同日天皇・上皇が室町亭に避難し、室町亭の一郭が仮の内裏とされた。	NO_PRONOUNCE	NO_LABEL
一方では足利義視が伊勢貞親の復帰に危険を感じて出奔し、北畠教具を頼って伊勢に逃亡した。	いっぽーでわあしかがよしみがいせさだちかのふっきにきけんをかんじてしゅっぽんし、きたばたけのりともをたよっていせにとーぼーした。	NO_LABEL
またこの頃から西軍は管領下知状にかわって諸将の連署による下知を行い始めた。	またこのころからせいぐんわかんりょーげじじょーにかわってしょしょーのれんしょによるげちをおこないはじめた。	NO_LABEL
大内政弘は8月中に船岡山に陣取り、9月1日に義就・朝倉孝景が攻めかかった武田勢を追い出し、武田勢が逃げ込んだ三宝院に火を放った。	NO_PRONOUNCE	NO_LABEL
6日に義政は再度義就の河内下向を命令したが、義就は従わず戦いを続けた。	むいかによしまさわさいどよしなりのかわうちげこーをめいれいしたが、よしなりわしたがわずたたかいをつずけた。	NO_LABEL
9月18日に京都郊外の南禅寺山でも戦いが起こり、10月3日に発生した相国寺の戦いは激戦となり、両軍に多くの死傷者を出したが、勝敗を決するには至らなかった。	くがつじゅうはちにちにきょーとこーがいのなんぜんじさんでもたたかいがおこり、じゅーがつみっかにはっせいしたしょーこくじのたたかいわげきせんとなり、りょーぐんにおーくのししょーしゃをだしたが、しょーはいをけっするにわいたらなかった。	NO_LABEL
しかし、焼亡した相国寺跡に斯波義廉軍が陣取り、義就が山名宗全邸の西に移り東軍は劣勢に立たされた。	しかし、しょーぼーしたしょーこくじあとにしばよしかどぐんがじんどり、よしなりがやまなそーぜんていのにしにうつりとうぐんわれっせいにたたされた。	NO_LABEL
朝廷においては10月3日に後花園法皇が興福寺に山名宗全の追討を命じる治罰院宣を発したほか、12月5日に正親町三条公躬・葉室教忠・光忠父子・阿野季遠・清水谷実久ら西軍派とされた公家の官爵剥奪が決定された。	NO_PRONOUNCE	NO_LABEL
彼らは冨子の実家である日野家と対立関係にあった三条家の一族や縁者が多く、義視を支持していた公家達であった。	かれらわとみこのじっかであるひのかとたいりつかんけいにあったさんじょーけのいちぞくやえんじゃがおーく、よしみをしじしていたくげたちであった。	NO_LABEL
応仁2年3月17日に北大路烏丸で大内政弘と毛利豊元・小早川煕平が交戦、5月2日に細川成之が斯波義廉邸を攻めたり、5月8日に勝元が宗全の陣を、8月1日に勝元の兵が相国寺跡の義就の陣を攻めていたが、戦闘は次第に洛外に移り、山科、鳥羽、嵯峨で両軍が交戦した。	NO_PRONOUNCE	NO_LABEL
管領の斯波義廉は西軍についていたものの、将軍・義政から直ちに解任されなかった。	NO_PRONOUNCE	NO_LABEL
このため、将軍が主宰する御前沙汰など、幕府の政務も管領不在のまま行われていた。	このため、しょーぐんがしゅさいするごぜんさたなど、ばくふのせいむもかんりょーふざいのままおこなわれていた。	NO_LABEL
だが、応仁2年、義廉が幕府と敵対していた関東の古河公方足利成氏に和睦を提案、宗全と義就の連名の書状を送った。	だが、おーにんにねん、よしかどがばくふとてきたいしていたかんとーのこがくぼーあしかがしげうじにわぼくをていあん、そーぜんとよしなりのれんめいのしょじょーをおくった。	NO_LABEL
この理由については、義廉は幕府の関東政策の一環として斯波氏の当主に据えられたため、成氏と幕府の和睦という成果を挙げて家督と管領職の確保を狙ったと推定される。	このりゆーについてわ、よしかどわばくふのかんとーせいさくのいっかんとしてしばしのとーしゅにすえられたため、しげるしとばくふのわぼくとゆうせいかをあげてかとくとかんりょーしょくのかくほをねらったとすいていされる。	NO_LABEL
しかし、義政は独断で和睦を図った義廉を許さず、7月10日に義廉を解任して勝元を管領に任命、義廉の家督と3ヶ国守護職も取り上げられ、松王丸に替えられた。	NO_PRONOUNCE	NO_LABEL
書状が出された月は2月から3月と推定され、相国寺の戦いの後に西軍有利の状況で義廉が動いたとされる。	しょじょーがだされたつきわにがつからさんがつとすいていされ、しょーこくじのたたかいののちにせいぐんゆーりのじょーきょーでよしかどがうごいたとされる。	NO_LABEL
同応仁2年9月22日、しばらく伊勢に滞在していた義視は細川勝元や足利義政に説得されて東軍に帰陣した。	どーおーにんにねんくがつにじゅうににち、しばらくいせにたいざいしていたよしみわほそかわかつもとやあしかがよしまさにせっとくされてとうぐんにきじんした。	NO_LABEL
帰京した足利義視は足利義尚派の日野勝光の排斥を義政に訴えたが、受け入れられなかった。	ききょーしたあしかがよしみわあしかがよしひさはのひのかつみつのはいせきをよしまさにうったえたが、うけいれられなかった。	NO_LABEL
さらに義政は閏10月16日には文正の政変で義視と対立した伊勢貞親を政務に復帰させ、11月10日には義視と親しい有馬元家を殺害するなどはっきりと義尚擁立に動き出した。	さらによしまさわうるーじゅーがつじゅうろくにちにわぶんしょうのせいへんでぎしとたいりつしたいせさだちかをせいむにふっきさせ、じゅーいちがつとおかにわよしみとしたしいありまもといえをさつがいするなどはっきりとよしなおよーりつにうごきだした。	NO_LABEL
勝元も義視擁立には動かず、かえって出家をすすめた。	かつもともぎしよーりつにわうごかず、かえってしゅっけをすすめた。	NO_LABEL
こうして義視は再度出奔して比叡山に登った。	こーしてよしみわさいどしゅっぽんしてひえいざんにのぼった。	NO_LABEL
11月23日、西軍は比叡山に使いを出して義視を迎え入れて“新将軍”に奉った。	NO_PRONOUNCE	NO_LABEL
正親町三条公躬、葉室教忠らも西幕府に祗候し、幕府の体裁が整った。	NO_PRONOUNCE	NO_LABEL
以降、西幕府では有力守護による合議制の下、義視が発給する御内書によって命令が行われ、独自に官位の授与も行うようになった。	いこー、にしばくふでわゆーりょくしゅごによるごーぎせいのした、よしみがはっきゅーするごないしょによってめいれいがおこなわれ、どくじにかんいのじゅよもおこなうよーになった。	NO_LABEL
一方で東幕府では日野勝光、伊勢貞親ら義政側近の勢力が拡大し、文正の政変以前の状態に戻りつつあった。	いっぽーでひがしばくふでわひのかつみつ、いせさだちからよしまさそっきんのせいりょくがかくだいし、ぶんしょうのせいへんいぜんのじょーたいにもどりつつあった。	NO_LABEL
勝元には義視をあえて西軍に送り込むことで、親宗全派であった富子を幕府内で孤立させる目論見があったとも推測されている。	かつもとにわぎしをあえてせいぐんにおくりこむことで、ちかむねぜんはであったとみこをばくふないでこりつさせるもくろみがあったともすいそくされている。	NO_LABEL
以降勝元は西軍との戦いをほとんど行わず、対大内氏との戦闘に傾注していく。	いこーかつもとわせいぐんとのたたかいをほとんどおこなわず、たいおーうちしとのせんとーにけいちゅーしていく。	NO_LABEL
大内政弘の圧倒的な軍事力によって山城は西軍によって制圧されつつあり、京都内での戦闘は散発的なものとなり、戦場は摂津・丹波・山城に移っていった。	NO_PRONOUNCE	NO_LABEL
このため東軍は反大内氏の活動を活発化させた。	このためとうぐんわはんおーうちしのかつどーをかっぱつかさせた。	NO_LABEL
文明元年には大内氏の重臣で文武両道の名将として知られた益田兼堯が石見で離反し、九州の大友親繁・少弐頼忠と共に政弘の叔父教幸を擁して西軍方の大内領に侵攻、文明2年2月には教幸自身が反乱を起こしている。	NO_PRONOUNCE	NO_LABEL
しかしいずれも留守居の陶弘護に撃退されたために政弘は軍を引くことなく、7月頃までには山城の大半が西軍の制圧下となった。	しかしいずれもるすいのすえひろもりにげきたいされたためにまさひろわぐんをひくことなく、しちがつごろまでにわやましろのたいはんがせいぐんのせいあつかとなった。	NO_LABEL
これ以降東西両軍の戦いは膠着状態に陥った。	これいこーとーざいりょーぐんのたたかいわこーちゃくじょーたいにおちいった。	NO_LABEL
長引く戦乱と盗賊の跋扈によって何度も放火された京都の市街地は焼け野原と化して荒廃した。	ながびくせんらんととーぞくのばっこによってなんどもほーかされたきょーとのしがいちわやけのはらとかしてこーはいした。	NO_LABEL
さらに上洛していた守護大名の領国にまで戦乱が拡大し、諸大名は京都での戦いに専念できなくなった。	さらにじょーらくしていたしゅごだいみょーのりょーごくにまでせんらんがかくだいし、しょだいみょーわきょーとでのたたかいにせんねんできなくなった。	NO_LABEL
かつて守護大名達が獲得を目指していたはずの幕府権力そのものも著しく失墜したため、もはや得るものは何もなかったのである。	かつてしゅごだいみょーたちがかくとくをめざしていたはずのばくふけんりょくそのものもいちじるしくしっついしたため、もはやえるものわなにもなかったのである。	NO_LABEL
やがて東西両軍の間には厭戦気分が漂うようになった。	やがてとーざいりょーぐんのまにわえんせんきぶんがただようよーになった。	NO_LABEL
文明3年5月21日には斯波義廉の重臣で西軍の主力となっていた朝倉孝景が義政による越前守護職補任をうけて東軍側に寝返った。	ぶんめいさんねんごがつにじゅういちにちにわしばよしかどのじゅーしんでにしぐんのしゅりょくとなっていたあさくらたかかげがよしまさによるえちぜんしゅごしきほにんをうけてとうぐんがわにねがえった。	NO_LABEL
このことで東軍は決定的に有利となり、東軍幕府には古河公方足利成氏の追討を再開する余裕も生まれた。	このことでとうぐんわけっていてきにゆーりとなり、とうぐんばくふにわこがくぼーあしかがしげうじのついとーをさいかいするよゆーもうまれた。	NO_LABEL
一方で西軍は8月、擁立を躊躇していた後南朝勢力の小倉宮皇子と称する人物を擁立して「新主」とした。	NO_PRONOUNCE	NO_LABEL
同年に関東の幕府軍が単独で成氏を破り、成氏の本拠地古河城を陥落させたことも西軍不利に繋がり、関東政策で地位保全を図った義廉の立場は危うくなった。	どーねんにかんとーのばくふりくぐんがたんどくでしげるしをやぶり、しげるしのほんきょちこがじょーをかんらくさせたこともせいぐんふりにつながり、かんとーせいさくでちーほぜんをはかったよしかどのたちばわあやうくなった。	NO_LABEL
文明4年になると、勝元と宗全の間で和議の話し合いがもたれ始めた。	ぶんめいよんねんになると、かつもととそーぜんのまでわぎのはなしあいがもたれはじめた。	NO_LABEL
開戦要因の一つであった山名氏の播磨・備前・美作は赤松政則に全て奪還された上、宗全の息子達もかねてから畠山義就支援に否定的であり、山名一族の間にも厭戦感情が生まれていた。	NO_PRONOUNCE	NO_LABEL
しかし、この和議は領土返還や山名氏の再侵攻を怖れた赤松政則の抵抗で失敗した。	しかし、このわぎわりょーどへんかんややまなうじのさいしんこーをこわれたあかまつまさのりのていこーでしっぱいした。	NO_LABEL
3月に勝元は猶子勝之を廃嫡して、実子で宗全の外孫に当たる聡明丸を擁立した後、剃髪した。	さんがつにかつもとわゆーしかつゆきをはいちゃくして、じっしでそーぜんのそとまごにあたるそーめいまるをよーりつしたのち、ていはつした。	NO_LABEL
5月には宗全が自殺を図って制止され、家督を嫡孫政豊に譲り隠居する事件が起きたが、桜井英治はこれを手打ちの意思を伝えるデモンストレーションであったと見ている。	ごがつにわそーぜんがじさつをはかってせいしされ、かとくをちゃくそんまさとよにゆずりいんきょするじけんがおきたが、さくらいえいじわこれをてうちのいしをつたえるでもんすとれーしょんであったとみている。	NO_LABEL
文明5年の3月18日に宗全が、5月11日に勝元が相次いで死去した。	ぶんめいごねんのさんがつじゅうはちにちにそーぜんが、ごがつじゅういちにちにかつもとがあいついでしきょした。	NO_LABEL
宗全の死を契機に、双方で停滞していた和睦交渉が再開されたが、畠山政長と畠山義就の大反対で頓挫している。	そーぜんのしをけいきに、そーほーでていたいしていたわぼくこーしょーがさいかいされたが、はたけやままさながとはたけやまよしひろのだいはんたいでとんざしている。	NO_LABEL
また、宗全の死後に西軍で擁立されていた西陣南帝も放擲されている。	また、そーぜんのしごにせいぐんでよーりつされていたにしじんみなみみかどもほーてきされている。	NO_LABEL
12月19日には義政が義尚に将軍職を譲って隠居した。	じゅーにがつじゅうきゅうにちにわよしまさがよしなおにしょーぐんしょくをゆずっていんきょした。	NO_LABEL
幕府では文明3年に長らく空席だった侍所頭人に赤松政則が任ぜられ、政所の業務も文明5年になると政所頭人伊勢貞宗によって再開されるなど、幕府業務の回復に向けた動きがみられた。	ばくふでわぶんめいさんねんにながらくくーせきだったさむらいどころとうにんにあかまつまさのりがにんぜられ、まんどころのぎょーむもぶんめいごねんになるとまんどころとうにんいせさだむねによってさいかいされるなど、ばくふぎょーむのかいふくにむけたうごきがみられた。	NO_LABEL
管領は義尚の将軍宣下に合わせて畠山政長が任じられたものの、一連の儀式が終わると辞任してしまい、再び空席になってしまったために富子の兄である公家の日野勝光が幕府の役職に就かないまま、管領の職務を代行した。	かんりょーわよしなおのしょーぐんせんげにあわせてはたけやままさなががにんじられたものの、いちれんのぎしきがおわるとじにんしてしまい、ふたたびくーせきになってしまったためにとみこのあにであるくげのひのかつみつがばくふのやくしょくにつかないまま、かんりょーのしょくむをだいこーした。	NO_LABEL
一方で富子の勢力が拡大し、義政の実権は失われていった。	いっぽーでとみこのせいりょくがかくだいし、よしまさのじっけんわうしなわれていった。	NO_LABEL
翌6年3月、義政は小河に建設した新邸に移り、室町邸には富子と義尚が残された。	よくろくねんさんがつ、よしまさわおがわにけんせつしたしんていにうつり、むろまちていにわとみことよしなおがのこされた。	NO_LABEL
興福寺別当尋尊は「天下公事修り、女中御計、公方は大御酒、諸大名は犬笠懸、天下泰平の時の如くなり」と評している。	NO_PRONOUNCE	NO_LABEL
だが、義政の大御酒が平時と異なったのは、室町亭に退避していた後土御門天皇がその酒宴に加わっており、幕府のみならず朝廷の威信の低下にもつながる事態となっていた。	だが、よしまさのだいみきがへいじとことなったのわ、むろまちていにたいひしていたごつちみかどてんのーがそのしゅえんにくわわっており、ばくふのみならずちょーていのいしんのていかにもつながるじたいとなっていた。	NO_LABEL
文明6年4月3日、山名政豊と細川政元の間に和睦が成立。	ぶんめいろくねんしがつみっか、やまなまさとよとほそかわまさもとのまにわぼくがせいりつ。	NO_LABEL
山名政豊は東軍の細川方と共に畠山義就、大内政弘らを攻撃した。	やまなまさとよわとうぐんのほそかわかたとともにはたけやまよしひろ、おーうちまさひろらをこーげきした。	NO_LABEL
さらにこの頃、西軍の一色義直の子義春が義政の元に出仕し、丹後一色氏も東軍に帰順した。	さらにこのころ、せいぐんのいっしきよしなおのこよしはるがよしまさのもとにしゅっしし、たんごいっしきしもとうぐんにきじゅんした。	NO_LABEL
その後も東軍は細川政元・畠山政長・赤松政則、西軍は畠山義就・大内政弘・土岐成頼を中心に惰性的な小競り合いを続けていた。	NO_PRONOUNCE	NO_LABEL
また、赤松政則は和睦に反対し続けていた。	また、あかまつまさのりわわぼくにはんたいしつずけていた。	NO_LABEL
一方、西軍の土岐成頼の重臣で従三位の奉公衆斎藤妙椿も文明6年の和睦に反対し、美濃の兵を率いて近江・京都・伊勢に出兵した。	NO_PRONOUNCE	NO_LABEL
更に越前にも出兵し、同年6月に西軍の斯波義廉の重臣甲斐敏光と東軍に寝返っていた朝倉孝景を停戦させている。	さらにえちぜんにもしゅっぺいし、どーねんろくがつにせいぐんのしばよしかどのじゅーしんかいとしみつととうぐんにねがえっていたあさくらたかかげをていせんさせている。	NO_LABEL
文明7年2月、東幕府からの遠江守護代の任命により甲斐敏光が東軍に寝返り、孤立した西軍の斯波義廉は同年11月、斯波義敏派の又守護代織田敏定討伐のため、守護代織田敏広を連れて尾張へ下国した。	ぶんめいななねんにがつ、ひがしばくふからのとーのえしゅごだいのにんめいによりかいとしみつがとうぐんにねがえり、こりつしたせいぐんのしばよしかどわどーねんじゅーいちがつ、しばよしとしはのまたしゅごだいおだとしさだとーばつのため、しゅごだいおだとしひろをつれておわりえしもくにした。	NO_LABEL
翌文明8年9月には、足利義政が西軍の大内政弘に「世上無為」の御内書を送り、12月には足利義視が足利義政に恭順を誓い、義政も義視の罪を不問に付すと返答し、和睦の流れが加速した。	NO_PRONOUNCE	NO_LABEL
文明9年9月22日には主戦派の畠山義就が畠山政長の追討を名目に河内に下国する。	ぶんめいきゅうねんくがつにじゅうににちにわしゅせんはのはたけやまよしひろがはたけやままさながのついとーをめいもくにかわうちにしもくにする。	NO_LABEL
そして、9代将軍足利義尚の名で周防・長門・豊前・筑前の4か国の守護職を安堵された大内政弘が、11月11日に京から撤収したことによって西軍は事実上解体され、京都での戦闘は収束した。	NO_PRONOUNCE	NO_LABEL
足利義視・義材親子は、土岐成頼や斎藤妙椿と共に美濃に退去した。	NO_PRONOUNCE	NO_LABEL
なお、能登守護の畠山義統や土岐成頼はこの和睦に納得せず、京の自邸を焼き払ったという。	なお、のとしゅごのはたけやまよしむねやときしげよりわこのわぼくになっとくせず、きょーのじていをやきはらったという。	NO_LABEL
西軍の解体は僅か1日で終わったと伝えられる。	せいぐんのかいたいわわずかついたちでおわったとつたえられる。	NO_LABEL
9日後の11月20日、幕府によって「天下静謐」の祝宴が催され11年に及ぶ大乱の幕が降ろされた。	NO_PRONOUNCE	NO_LABEL
この戦乱は延べ数十万の兵士が都に集結し、11年にも渡って戦闘が続いた。	このせんらんわのべすーじゅーまんのへいしがとにしゅーけつし、じゅういちねんにもわたってせんとーがつずいた。	NO_LABEL
しかし惰性的に争いを続けてきた挙句、勝敗のつかないまま終わった。	しかしだせいてきにあらそいをつずけてきたあげく、しょーはいのつかないままおわった。	NO_LABEL
主だった将が戦死することもなく、戦後罪に問われる守護もなかった。	おもだったしょーがせんしすることもなく、せんございにとわれるしゅごもなかった。	NO_LABEL
西軍の最大勢力であった大内政弘も富子へ賄賂を贈り、守護職を安堵されていた。	せいぐんのさいだいせいりょくであったおーうちまさひろもとみこえわいろをおくり、しゅごしきをあんどされていた。	NO_LABEL
乱の終了後も畠山政長と義就は戦い続けていたが、山城では度重なる戦乱に国人が団結し、勝元の後継者であった細川政元の後ろ盾も得て、文明17年に山城国一揆を起して両派は国外に退去させられた。	らんのしゅーりょーごもはたけやままさながとよしなりわたたかいつずけていたが、やましろでわたびかさなるせんらんにくにびとがだんけつし、かつもとのこーけいしゃであったほそかわまさもとのうしろだてもえて、ぶんめいじゅうななねんにやましろのくにいっきをおこしてりょーはわこくがいにたいきょさせられた。	NO_LABEL
また、加賀では東軍に参戦した富樫政親が長享2年に加賀一向一揆に居城・高尾城を攻め込まれて自害、加賀は一向一揆が領有した。	NO_PRONOUNCE	NO_LABEL
これらは旧体制の支配下にあった新勢力が台頭しつつあることを示すこととなった。	これらわきゅーたいせいのしはいかにあったしんせいりょくがたいとーしつつあることをしめすこととなった。	NO_LABEL
応仁の乱は幕府権力が崩壊した戦国時代の始まりであるとの古くからの説が一般的であるが、近年では幕府の権威は明応の政変頃まで保たれていたという見解もあり、明応の政変以降を戦国時代の始まりととらえる説もある。	おーにんのらんわばくふけんりょくがほーかいしたせんごくじだいのはじまりであるとのふるくからのせつがいっぱんてきであるが、きんねんでわばくふのけんいわめいおうのせいへんごろまでたもたれていたとゆうけんかいもあり、めいおうのせいへんいこーをせんごくじだいのはじまりととらえるせつもある。	NO_LABEL
しかし応仁の乱以降身分や社会の流動化が加速されたことは間違いない。	しかしおーにんのらんいこーみぶんやしゃかいのりゅーどーかがかそくされたことわまちがいない。	NO_LABEL
東洋史学者内藤湖南は講演『応仁の乱に就て』において、応仁の乱前後を「最も肝腎な時代」であると指摘し、「大体今日の日本を知る爲に日本の歴史を研究するには、古代の歴史を研究する必要は殆どありませぬ、応仁の乱以後の歴史を知つて居つたらそれで沢山です」と発言し、古代史学者との間に論争を巻き起こした。	NO_PRONOUNCE	NO_LABEL
応仁の乱により、多賀高忠、浦上則宗、斎藤妙椿、尼子清定など、守護家に迫る勢力を有する国人が台頭した。	おーにんのらんにより、たがたかただ、うらがみのりむね、さいとーみょうちん、あまごきよさだなど、しゅごかにせまるせいりょくをゆーするくにびとがたいとーした。	NO_LABEL
また、東西両軍は味方を得るために、それまでの家格を無視した叙任を行った。	また、とーざいりょーぐんわみかたをえるために、それまでのかかくをむししたじょにんをおこなった。	NO_LABEL
西軍は一介の国人であった越智家栄を大和守護に任命し、東軍は西軍の有力武将だったが守護代でもなかった朝倉孝景を越前守護につけた。	せいぐんわいっかいのくにびとであったおちいえひでをやまとしゅごににんめいし、とうぐんわせいぐんのゆーりょくぶしょーだったがしゅごだいでもなかったあさくらたかかげをえちぜんしゅごにつけた。	NO_LABEL
文明7年、能登守護畠山義統と越後守護上杉房定が政長の分国越中を侵略した際には、足利義政が「諸国の御沙汰は毎事力法量」と述べ、守護が他国を侵略することも是認された。	NO_PRONOUNCE	NO_LABEL
このため室町幕府の家格秩序は崩壊し、身分秩序が流動化することになった。	このためむろまちばくふのかかくちつじょわほーかいし、みぶんちつじょがりゅーどーかすることになった。	NO_LABEL
また長期にわたる京都での軍事活動により、守護の財政は逼迫した。	またちょーきにわたるきょーとでのぐんじかつどーにより、しゅごのざいせいわひっぱくした。	NO_LABEL
権威と財政を失った守護は、国人や家臣団に対する支配力を著しく低下させた。	けんいとざいせいをうしなったしゅごわ、くにびとやかしんだんにたいするしはいりょくをいちじるしくていかさせた。	NO_LABEL
国人や家臣は守護の影響を排除して自らの地盤を固め、領主化していった。	くにびとやかしんわしゅごのえいきょーをはいじょしてみずからのじばんをかため、りょーしゅかしていった。	NO_LABEL
それまで在京が原則であった守護は自らの領国を守るため下国し、守護代に任せていた領国経営を自らの権威により行おうとした。	それまでざいきょーがげんそくであったしゅごわみずからのりょーごくをまもるためげこくし、しゅごだいにまかせていたりょーごくけいえいをみずからのけんいによりおこなおうとした。	NO_LABEL
これにより守護は幕府の統制を離れ、幕府は段銭などの徴収がままならなくなった。	これによりしゅごわばくふのとーせいをはなれ、ばくふわたんせんなどのちょーしゅーがままならなくなった。	NO_LABEL
いくつかの守護は領主化を強化することで戦国大名へと成長することが出来たが、既に乱の最中に守護代や家臣に権力を奪われた者もおり、没落した守護も多かった。	いくつかのしゅごわりょーしゅかをきょーかすることでせんごくだいみょーえとせいちょーすることができたが、すでにらんのさいちゅーにしゅごだいやかしんにけんりょくをうばわれたものもおり、ぼつらくしたしゅごもおーかった。	NO_LABEL
この従来の家格秩序を破る風潮は下克上と呼ばれ、戦国時代を象徴する言葉となる。	このじゅーらいのかかくちつじょをやぶるふーちょーわげこくじょーとよばれ、せんごくじだいをしょーちょーすることばとなる。	NO_LABEL
また守護在京制の崩壊により、文明18年には京都に残る守護が摂津・丹波を基盤とする細川氏一門のみとなった。	NO_PRONOUNCE	NO_LABEL
守護の協力を得られなくなった幕府は、将軍近臣の奉公衆や奉行衆による運営を余儀なくされ、畿内政権としての道を歩み始めた。	しゅごのきょーりょくをえられなくなったばくふわ、しょーぐんきんしんのほーこーしゅーやぶぎょーしゅーによるうんえいをよぎなくされ、きないせいけんとしてのみちをあゆみはじめた。	NO_LABEL
その一方で、細川勝元が西軍方に占拠されていた時に始めた、細川京兆家当主としての軍勢催促状などの軍事決裁行為が管領復帰後も継続され、勝元没後に管領となった畠山政長も義就との戦いのためにほとんど在京しなかったために、勝元の子政元が細川政国の後見を受けて同様の措置をもって幕府の軍事行動を指揮したため、細川京兆家が本来管領が有していた幕府の軍事的権限を行使するようになった。	そのいっぽーで、ほそかわかつもとがせいぐんかたにせんきょされていたときにはじめた、ほそかわけいちょーけとーしゅとしてのぐんぜいさいそくじょーなどのぐんじけっさいこーいがかんりょーふっきごもけいぞくされ、かつもとぼつごにかんりょーとなったはたけやままさながもよしなりとのたたかいのためにほとんどざいきょーしなかったために、かつもとのこまさもとがほそかわまさくにのこーけんをうけてどーよーのそちをもってばくふのぐんじこうどーをしきしたため、ほそかわけいちょーけがほんらいかんりょーがゆーしていたばくふのぐんじてきけんげんをこーしするよーになった。	NO_LABEL
やがて細川氏と幕府の利害が対立し、明応の政変とその後の京兆専制を招くことになる。	やがてほそかわしとばくふのりがいがたいりつし、めいおうのせいへんとそのごのきょーちょーせんせいをまねくことになる。	NO_LABEL
領主化を推進する守護や国人によって一円知行化が進められ、公家や寺社の荘園は横領された。	りょーしゅかをすいしんするしゅごやくにびとによっていちえんちぎょーかがすすめられ、くげやじしゃのしょーえんわおーりょーされた。	NO_LABEL
さらに幕府の権威低下により、遠国など幕府の権力が届かない地域の荘園・国衙領支配は絶望的になり、荘園制度の崩壊が加速した。	NO_PRONOUNCE	NO_LABEL
収入を断たれた公家は没落し、朝廷行事や官位昇進への興味も失った。	しゅーにゅーをたたれたくげわぼつらくし、ちょーていぎょーじやかんいしょーしんえのきょーみもうしなった。	NO_LABEL
甘露寺親長は日記に「高官無益なり」と書き記し、文明5年には顕官である近衛大将の希望者が現れないという事態が発生している。	NO_PRONOUNCE	NO_LABEL
前関白一条教房のように京都を去る公家や、町広光のように家を意図的に断絶させる公家まで現れた。	ぜんかんぱくいちじょーのりふさのよーにきょーとをさるくげや、まちひろみつのよーにいえをいとてきにだんぜつさせるくげまであらわれた。	NO_LABEL
また朝廷収入も激減し、即位礼や大喪の礼などの儀式を行うことも困難となった。	またちょーていしゅーにゅーもげきげんし、そくいれいやたいそーのれいなどのぎしきをおこなうこともこんなんとなった。	NO_LABEL
このため戦国期には献金による売官が行われるようになった。	このためせんごくきにわけんきんによるばいかんがおこなわれるよーになった。	NO_LABEL
これは京都文化が地方に伝播する一因ともなった。	これわきょーとぶんかがちほーにでんぱするいちいんともなった。	NO_LABEL
文明2年頃には戦火で京都の寺社や公家・武家邸の大半が消失し、罹災を免れたのは土御門内裏などわずかであった。	NO_PRONOUNCE	NO_LABEL
このため、歴史的資料の多くが失われた。	このため、れきしてきしりょーのおーくがうしなわれた。	NO_LABEL
また京都七口関は両軍の争奪戦となり、物資の流入も停滞した。	またきょーとななくちせきわりょーぐんのそーだつせんとなり、ぶっしのりゅーにゅーもていたいした。	NO_LABEL
さらに足軽の放火・略奪が追い打ちをかけ、京都の大半の人々は大いに困窮した。	NO_PRONOUNCE	NO_LABEL
また文明5年には疫病が流行し、宗全や勝元も命を落とした。	またぶんめいごねんにわやくびょーがりゅーこーし、そーぜんやかつもともいのちをおとした。	NO_LABEL
しかし義政はこれを顧みず、日夜酒宴に明け暮れ、小河邸や東山山荘を造営した。	しかしよしまさわこれをかえりみず、にちやしゅえんにあけくれ、おがわていやひがしやまさんそーをぞーえいした。	NO_LABEL
また富子は困窮した東西軍の守護に金銭を貸し付けるほか、米の投機を行って大いに利益を上げたと解釈している。	またとみこわこんきゅーしたとーざいぐんのしゅごにきんせんをかしつけるほか、べいのとーきをおこなっておーいにりえきをあげたとかいしゃくしている。	NO_LABEL
しかし、西軍に参加している守護大名の畠山義統という研究者も存在する。	しかし、せいぐんにさんかしているしゅごだいみょーのはたけやまよしむねとゆうけんきゅうしゃもそんざいする。	NO_LABEL
 呉座勇一は尋尊が東軍の畠山政長をしばしば「左衛門佐」と誤記していることを指摘し、富子が東西両軍に金を貸しているという批判は誤りであるとしている）。	NO_PRONOUNCE	NO_LABEL
寺社、公家、武家屋敷があった上京が焼け、商工業者が居住していた下京が焼け残ったことは、その後の京都の商業勃興をもたらした。	じしゃ、くげ、ぶけやしきがあったじょーきょーがやけ、しょーこーぎょーしゃがきょじゅーしていたしもぎょーがやけのこったことわ、そのごのきょーとのしょーぎょーぼっこーをもたらした。	NO_LABEL
応仁の乱によって京都を追われた公家や民衆は京都周辺の山科や宇治、大津、奈良、堺といった周辺都市や地方の所領などに疎開していった。	おーにんのらんによってきょーとをおわれたくげやみんしゅーわきょーとしゅーへんのやましなやうじ、おーつ、なら、さかいといったしゅーへんとしやちほーのしょりょーなどにそかいしていった。	NO_LABEL
応仁の乱後の文明11年に室町殿や内裏の造営が開始されたものの都市の荒廃による環境悪化によって疫病や火災、盗賊、一揆などの発生が頻発したこと、加えて在京していた守護大名やその家臣達が領国の政情不安のために帰国したまま帰ってこなかったこともあり、京都の再建は順調とは言えなかった。	おーにんのらんごのぶんめいじゅういちねんにむろまちどのやだいりのぞーえいがかいしされたもののとしのこーはいによるかんきょーあっかによってやくびょーやかさい、とーぞく、いっきなどのはっせいがひんぱつしたこと、くわえてざいきょーしていたしゅごだいみょーやそのかしんたちがりょーごくのせいじょーふあんのためにきこくしたままかえってこなかったこともあり、きょーとのさいけんわじゅんちょーとわいえなかった。	NO_LABEL
また、こうした災害を理由とした改元が相次いだ。	また、こーしたさいがいをりゆーとしたかいげんがあいついだ。	NO_LABEL
将軍義政は、義教の死後中断していた勘合貿易を宝徳3年に復活させた。	しょーぐんよしまさわ、よしのりのしごちゅーだんしていたかんごーぼーえきをほーとくさんねんにふっかつさせた。	NO_LABEL
勘合貿易の復活や側近の守護大名及び幕府官僚の財政再建によって、応仁の乱前の幕府財政は比較的安定してはいた。	かんごーぼーえきのふっかつやそっきんのしゅごだいみょーおよびばくふかんりょーのざいせいさいけんによって、おーにんのらんまえのばくふざいせいわひかくてきあんていしてわいた。	NO_LABEL
だが、義政は幕府財政を幕府の権威回復や民衆の救済にではなく、趣味の建築や庭園に費やした。	だが、よしまさわばくふざいせいをばくふのけんいかいふくやみんしゅーのきゅーさいにではなく、しゅみのけんちくやていえんについやした。	NO_LABEL
結果、応仁の乱後の京都の復興は大幅に遅れることとなった。	けっか、おーにんのらんごのきょーとのふっこーわおーはばにおくれることとなった。	NO_LABEL
一方で、町衆主導によって行われたと評価されてきた明応9年の祇園祭の再興も本来祇園祭が疫病平癒の祭りであったことを考えると、逆に当時の社会不安の反映が祇園祭再興を促したという側面も考えられる。	NO_PRONOUNCE	NO_LABEL
また、当時町衆における法華宗受容も社会不安からくる信仰心の高まりと関連づけられる。	また、とーじまちしゅーにおけるほっけしゅーじゅよーもしゃかいふあんからくるしんこーしんのたかまりとかんれんずけられる。	NO_LABEL
それでも明応7年頃より京都の住民に対する地子銭徴収が次第に増加していったこと、永正5年以後の酒屋役徴収の強化命令が幕府から出されている事からこの時期に京都の人口回復が軌道に乗り出したと考えられ、明応9年の祇園祭の前後数年間が京都の本格的な復興期と考えられている。	NO_PRONOUNCE	NO_LABEL
応仁の乱の戦いで特徴的とされるものは正規の武士身分ではない足軽の活躍である。	おーにんのらんのたたかいでとくちょーてきとされるものわせいきのぶしみぶんでわないあしがるのかつやくである。	NO_LABEL
兵力不足に悩んだ両軍は足軽を大量に雇い入れ、戦力に加えた。	へいりょくふそくになやんだりょーぐんわあしがるをたいりょーにやといいれ、せんりょくにくわえた。	NO_LABEL
東軍の足軽大将骨皮道賢や西軍の御厨子某は後方攪乱として足軽によるゲリラ戦を行って名を上げた。	とうぐんのあしがるたいしょーほねかわどーけんやにしぐんのごずしぼーわこーほーかくらんとしてあしがるによるげりらせんをおこなってなをあげた。	NO_LABEL
しかし足軽は盗賊や凶悪人を多く含んだ無法者の集団に近く、高い自立性を持っていた。	しかしあしがるわとーぞくやきょーあくじんをおーくふくんだむほーもののしゅーだんにちかく、こういじりつせいをもっていた。	NO_LABEL
彼らは異形の装いをし、市街の放火や略奪を頻繁に行った。	かれらわいぎょーのよそおいをし、しがいのほーかやりゃくだつをひんぱんにいった。	NO_LABEL
このため一条兼良は樵談治要において「洛中洛外の諸社諸寺五山十刹公家門跡の滅亡は彼らが所行なり」と非難している。	NO_PRONOUNCE	NO_LABEL
一方で東寺などの権門寺社も自衛のために足軽を雇用することもあった。	いっぽーでとーじなどのけんもんじしゃもじえいのためにあしがるをこよーすることもあった。	NO_LABEL
乱のきっかけは畠山義就を山名宗全が支援したことであるが、何故ここまで乱の規模が拡大し、長期間継続したのかという問題には様々な解釈が建てられている。	らんのきっかけわはたけやまよしひろをやまなそーぜんがしえんしたことであるが、なぜここまでらんのきぼがかくだいし、ちょーきかんけいぞくしたのかとゆうもんだいにわさまざまなかいしゃくがたてられている。	NO_LABEL
多くの大名には陣営を積極的に選ぶ理由はほとんど無かった。	おーくのだいみょーにわじんえいをせっきょくてきにえらぶりゆーわほとんどなかった。	NO_LABEL
富子は義視が西軍に逃亡した後も土御門内裏が炎上しないように西軍の大内政弘と連絡を取り合っているなど、将軍継嗣の問題だけでは説明がつかないという見方もある。	とみこわぎしがせいぐんにとーぼーしたのちもつちみかどのだいりがえんじょーしないよーにせいぐんのおーうちまさひろとれんらくをとりあっているなど、しょーぐんけいしのもんだいだけでわせつめいがつかないとゆうみかたもある。	NO_LABEL
永原慶二は幕政の中心人物である勝元と宗全が争ったため、結果的に幕政に関与していた諸大名は戦わざるを得なくなったとしており、戦い自体にはさしたる必然性もなく、戦意がない合戦が生み出されたとしている。	ながはらけいじわばくせいのちゅーしんじんぶつであるかつもととそーぜんがあらそったため、けっかてきにばくせいにかんよしていたしょだいみょーわたたかわざるをえなくなったとしており、たたかいじたいにわさしたるひつぜんせいもなく、せんいがないかっせんがうみだされたとしている。	NO_LABEL
当時の人達も理解できなかったらしく、尋尊は「いくら頭をひねっても応仁・文明の大乱が起こった原因がわからない」と「尋尊大僧正記」に記している。	NO_PRONOUNCE	NO_LABEL
応仁の乱が描かれた代表的な軍記物としては、応仁記、後太平記、瓦林正頼記などがある。	おーにんのらんがえがかれただいひょーてきなぐんきぶつとしてわ、おーにんき、こーたいへいき、かわらばやしまさよりきなどがある。	NO_LABEL
特に、著名な軍記物語である「応仁記」は、細かい描写がなされて乱の研究に欠かせない史料であるが、儒教的色彩が濃く、幾つかの誤りが指摘されるようになった。	NO_PRONOUNCE	NO_LABEL
実子・足利義尚の将軍職擁立を切望する日野富子が山名宗全に依頼し、足利義視の将軍職就任を阻止しようと暗躍したという説は誤りであるとされ、富子が乱の元凶であったとする説を現在にまで流布させる要因となった。	NO_PRONOUNCE	NO_LABEL
摂津・河内・和泉3ヶ国の内摂津・和泉は細川氏が、河内は畠山氏が守護を務めていた。	NO_PRONOUNCE	NO_LABEL
しかし、畠山氏がお家騒動で混乱し、応仁の乱で大内政弘が西上して京都の戦闘が地方に及ぶと、近郊の摂河泉は東西両軍の衝突地域となっていった。	しかし、はたけやましがおいえそうどーでこんらんし、おーにんのらんでおーうちまさひろがにしじょーしてきょーとのせんとーがちほーにおよぶと、きんこーのとかわいずみわとーざいりょーぐんのしょーとつちいきとなっていった。	NO_LABEL
また、山城は畠山氏の領国だが、細川勝元が畠山持国への対抗から山城国人を被官に加え、畠山持国の弱体化を目論みお家騒動を煽った影響で山城は義就と政長どちらに就くかで分裂した。	また、やましろわはたけやましのりょーごくだが、ほそかわかつもとがはたけやまもちくにえのたいこーからやましろのくにじんをひかんにくわえ、はたけやまもちくにのじゃくたいかをもくろみおいえそうどーをあおったえいきょーでやましろわよしなりとまさながどちらにつくかでぶんれつした。	NO_LABEL
畠山義就は乱直前のクーデターで守護職を取り戻し、御霊合戦で畠山政長を破り立場を固めた。	はたけやまよしひろわらんちょくぜんのくーでたーでしゅごしょくをとりもどし、ごりょうがっせんかみごりょうじんじゃのたたかいではたけやままさながをやぶりたちばをかためた。	NO_LABEL
ところが、政長を援助していた細川勝元が諸国の軍勢を動員すると幕府から守護職を取り上げられ政長に替えられ、再び地位を失うと義就は実力行使で領国奪取に動いた。	ところが、まさながをえんじょしていたほそかわかつもとがしょこくのぐんぜいをどーいんするとばくふからしゅごしきをとりあげられまさながにかえられ、ふたたびちいをうしなうとよしなりわじつりょうこーしでりょーごくだっしゅにうごいた。	NO_LABEL
一方、大内軍は上洛して西軍の主力として京都で東軍と戦っていたが、文明元年4月に義就が山城西岡を攻めて陣取っていた西軍を丹波へ追い落とし、山城勝竜寺城へ入って摂津・丹波付近を伺うようになると、大内軍も7月に摂津へ侵攻して諸城を落とし、摂津の殆どを制圧した。	NO_PRONOUNCE	NO_LABEL
しかし、池田城だけは城主の抵抗で持ちこたえ、10月に山名宗全の次男是豊と赤松政則が東軍の援軍として大内軍を撃破して兵庫を奪還したため、大内政弘は池田城の包囲を解いて東軍迎撃に向かった。	しかし、いけだじょーだけわじょーしゅのていこーでもちこたえ、じゅーがつにやまなそーぜんのじなんぜゆたかとあかまつまさのりがとうぐんのえんぐんとしておーうちぐんをげきはしてひょーごをだっかんしたため、おーうちまさひろわいけだじょーのほーいをといてとうぐんげいげきにむかった。	NO_LABEL
これに対し、山名是豊は摂津神呪寺に着陣して大内軍と戦い、その後は東進して摂津と山城の国境の山崎に布陣した。	これにたいし、やまなこれとよわせっつかんのーじにちゃくじんしておーうちぐんとたたかい、そのごわとーしんしてせっつとやましろのこっきょーのやまざきにふじんした。	NO_LABEL
文明2年1月から4月にかけて山崎の山名是豊と勝竜寺城の義就が交戦したが決着は着かず、5月に東軍の裏工作で摂津に留まっていた大内政弘の家臣仁保弘有が寝返り、直後に茨木城と椋橋城が東軍に奪回され反撃の契機となった。	ぶんめいにねんいちがつからしがつにかけてやまざきのやまなこれとよとしょーりゅーじじょーのよしなりがこーせんしたがけっちゃくわつかず、ごがつにとうぐんのうらこーさくでせっつにとまっていたおーうちまさひろのかしんにほひろしゆーがねがえり、ちょくごにいばらきじょーとくらはししろがとうぐんにだっかいされはんげきのけいきとなった。	NO_LABEL
一方、大内政弘は南山城の木津川流域を攻撃目標として7月に八幡へ進出して木津を除く南山城を制圧した。	いっぽー、おーうちまさひろわみなみやましろのきずがわりゅーいきをこーげきもくひょーとしてしちがつにやはたえしんしゅつしてきずをのぞくみなみやましろをせいあつした。	NO_LABEL
だが、木津に拠点を構える東軍の抵抗は激しく、大内軍は木津を奪えないまま下狛に待機して一進一退の状況を続けていった。	だが、きずにきょてんをかまえるひがしぐんのていこーわはげしく、おーうちぐんわきずをうばえないまましもこまにたいきしていっしんいったいのじょーきょーをつずけていった。	NO_LABEL
義就は8月に山城から大和を経て河内へ侵攻、若江城と誉田城を包囲したが落とせず撤退、山名是豊は領国備後で西軍が蜂起したため12月に下向していった。	よしなりわはちがつにやましろからやまとをへてかわちえしんこー、わかえじょーとほんだじょーをほーいしたがおとせずてったい、やまなこれとよわりょーごくびんごでせいぐんがほーきしたためじゅーにがつにげこーしていった。	NO_LABEL
山城は山名是豊が東幕府から守護に任じられていたが、大内軍が南山城を占拠したことと山名是豊が備後へ撤退した後は義就が実力で山城を支配することになり、守護でないにも関わらず義就は山城を実質上占領下に置いた。	やましろわやまなこれとよがひがしばくふからしゅごににんじられていたが、おーうちぐんがみなみやましろをせんきょしたこととやまなこれとよがびんごえてったいしたのちわよしなりがじつりょくでやましろをしはいすることになり、しゅごでないにもかかわらずよしなりわやましろをじっしつじょーせんりょーかにおいた。	NO_LABEL
文明3年6月、大内軍と畠山軍が合流して摂津・和泉に侵入したが、敵の反撃で失敗、以後畿内で大きな戦闘は殆ど行われず、文明4年10月に木津から出陣した東軍は大内軍の反撃で退散、文明7年4月に大内軍が木津へ攻撃して失敗したことが挙げられる程度であった。	NO_PRONOUNCE	NO_LABEL
文明8年に政長は家臣の遊佐長直を河内に下向させて若江城に赴任させたが、義就は翌文明9年9月に河内へ向かい、9月から10月にかけて若江城を始めとする河内の諸城を陥落させ長直を追放、河内を制圧した。	ぶんめいはちねんにまさながわかしんのゆさながなおをかわうちにげこーさせてわかえじょーにふにんさせたが、よしなりわよくぶんめいきゅうねんくがつにかわちえむかい、くがつからじゅーがつにかけてわかえじょーをはじめとするかわないのしょしろをかんらくさせちょーじかをついほー、かわうちをせいあつした。	NO_LABEL
大内軍も呼応して木津を落としたが、大内政弘は幕府と和睦して11月に帰国したため木津と摂津は東軍の手に戻された。	おーうちぐんもこおーしてきずをおとしたが、おーうちまさひろわばくふとわぼくしてじゅーいちがつにきこくしたためきずとせっつわとうぐんのてにもどされた。	NO_LABEL
以後、南山城は政長を始めとする幕府が領有したが、河内は守護ではない義就が占拠した状態が続いていくことになる。	いご、みなみやましろわまさながをはじめとするばくふがりょーゆーしたが、かわうちわしゅごでわないよしなりがせんきょしたじょーたいがつずいていくことになる。	NO_LABEL
大和も畠山持国の影響力が強かったため、大和国人もお家騒動で互いに敵対していった。	やまともはたけやまもちくにのえいきょーりょくがつよかったため、やまとのくにじんもおいえそうどーでたがいにてきたいしていった。	NO_LABEL
義就に就いた国人は越智家栄・古市胤栄で、政長には筒井順永・成身院光宣・十市遠清・箸尾為国らが味方した。	NO_PRONOUNCE	NO_LABEL
光宣は乱勃発直後から政長に仕え、御霊合戦後に政長を勝元の屋敷へ手引きして、文明元年に亡くなるまで東軍に属していた。	みつのぶわらんぼっぱつちょくごからまさながにつかえ、ごりょうがっせんかみごりょうじんじゃのたたかいごにまさながをかつもとのやしきえてびきして、ぶんめいがんねんになくなるまでとうぐんにぞくしていた。	NO_LABEL
古市胤栄は義就に手助けすべく応仁元年6月に上洛したが、他の国人衆は表立って活動は行わなかった。	ふるいちたねひでわよしなりにてだすけすべくおーにんがんねんろくがつにじょーらくしたが、たのこくじんしゅーわおもてだってかつどーわおこなわなかった。	NO_LABEL
事態が動いたのは文明2年に大内軍が摂津から南山城へ南下した時で、山城と大和を結ぶ重要拠点の木津を大内軍が攻めてきたため、筒井順永は木津防衛に向かい大内軍の進出を阻止した。	じたいがうごいたのわぶんめいにねんにおーうちぐんがせっつからみなみやましろえなんかしたときで、やましろとやまとをむすぶじゅーよーきょてんのきずをおーうちぐんがせめてきたため、つついじゅんえいわきずぼーえいにむかいおーうちぐんのしんしゅつをそしした。	NO_LABEL
一方、越智家栄は義就の河内侵攻に参加、古市胤栄は下狛の大内軍陣地に合流して順永と交戦、文明3年になると十市遠清も東軍方として動き、1月に近江の東軍を助けて西軍の六角高頼軍を撃破、6月に順永・遠清・箸尾為国が畠山軍の河内侵攻を阻止するなど大和国人の殆どが乱に参戦するようになった。	NO_PRONOUNCE	NO_LABEL
文明4年10月に順永は下狛の大内軍に夜襲を仕掛けたが逆襲に遭い敗走、文明5年の和睦でも戦乱は止まず、文明6年になると大和国人衆の紛争が続出して戦乱は大和に拡大していった。	ぶんめいよんねんじゅーがつにじゅんひさしわしもこまのおーうちぐんにやしゅーをしかけたがぎゃくしゅーにあいはいそー、ぶんめいごねんのわぼくでもせんらんわやまず、ぶんめいろくねんになるとやまとこくじんしゅーのふんそーがぞくしゅつしてせんらんわやまとにかくだいしていった。	NO_LABEL
文明7年4月に大内軍の木津攻撃を順永が撃退、5月に大和春日社頭で順永・遠清・為国ら東軍と家栄・胤栄ら西軍が衝突して東軍が勝利、古市胤栄は敗北の責任を取り隠居、弟の澄胤に家督を譲った。	NO_PRONOUNCE	NO_LABEL
また、文明8年に筒井順永が亡くなり嫡男の順尊が後を継いだ。	また、ぶんめいはちねんにつついじゅんえいがなくなりちゃくなんのじゅんみことがごをついだ。	NO_LABEL
文明9年に義就が河内に侵攻・制圧すると大内軍も木津を攻撃、木津を守る順尊ら政長派は木津を放棄、本拠地も失い没落したため、戦乱の末に大和は越智家栄・古市澄胤ら義就派が勝利して大和は義就の手に入った。	NO_PRONOUNCE	NO_LABEL
大和は興福寺が支配していたが、大乱に伴う分裂で国人衆の台頭を抑えられず権威が下降、興福寺別当の尋尊は日記で戦闘を詳細に書き記す一方で混乱を収められない無力さを嘆いている。	やまとわこーふくじがしはいしていたが、たいらんにともなうぶんれつでこくじんしゅーのたいとーをおさえられずけんいがかこー、こーふくじべっとーのじんそんわにっきでせんとーをしょーさいにかきしるすいっぽーでこんらんをおさめられないむりょくさをなげいている。	NO_LABEL
以後、没落した政長派は潜伏してゲリラで義就派への抵抗を続け、大和は義就派と政長派が抗争を繰り返していった。	いご、ぼつらくしたまさながはわせんぷくしてげりらでよしなりはえのていこーをつずけ、やまとわよしなりはとまさながはがこーそーをくりかえしていった。	NO_LABEL
近江は京極氏と六角氏それぞれが治めていたが、六角氏も幕府の介入でお家騒動が悪化・分裂したため京極持清が東幕府の支援を得て近江の六角高頼を攻撃、高頼は美濃の斎藤妙椿の後ろ盾で対抗していった。	NO_PRONOUNCE	NO_LABEL
京極持清・勝秀父子は高頼の従兄の六角政堯と共に高頼の居城である近江観音寺城に度々攻め入り、高頼も応戦した。	NO_PRONOUNCE	NO_LABEL
美濃では守護の土岐成頼は西軍に加わるため上洛、守護代の斎藤利藤は幼いため叔父の斎藤妙椿が後見役として実質的に美濃を治めていたが、西美濃の国人長江氏・富島氏は京極氏と組んで妙椿に反乱を起こした。	NO_PRONOUNCE	NO_LABEL
美濃の内乱は応仁2年までに妙椿に鎮圧されたが、近江は決着が着かず一進一退、観音寺城が東軍に奪われては西軍に奪回されることが繰り返されていった。	みののないらんわおーにんにねんまでにみょーつばきにちんあつされたが、おーみわけっちゃくがつかずいっしんいったい、かんのんじじょーがとうぐんにうばわれてわせいぐんにだっかいされることがくりかえされていった。	NO_LABEL
しかし、応仁2年に勝秀が死去、続いて文明2年に持清も亡くなり京極氏はお家騒動で2つに割れて弱体化、勝秀の弟政光と家臣の多賀清直・宗直父子は勝秀の遺児乙童子丸を擁立して西軍に寝返り、政光の弟政経と多賀高忠は乙童子丸の弟孫童子丸を擁立して争った。	NO_PRONOUNCE	NO_LABEL
文明3年に政堯が高頼に討ち取られると戦況は西軍に傾き、文明3年と4年に妙椿が高頼に援軍を派遣して東軍を圧迫、文明5年3月に宗全が亡くなると妙椿は上洛して宗全に代わる西軍の指導者に成り上がった。	ぶんめいさんねんにせいたかしがこーよりゆきにうちとられるとせんきょーわせいぐんにかたむき、ぶんめいさんねんとよんねんにみょーつばきがこーよりゆきにえんぐんをはけんしてとうぐんをあっぱく、ぶんめいごねんさんがつにそーぜんがなくなるとみょーつばきわじょーらくしてそーぜんにかわるせいぐんのしどーしゃになりあがった。	NO_LABEL
追い詰められた東軍は信濃の小笠原家長・木曾家豊に美濃の背後を突くよう要請、合わせて富島氏の再起を促し挟撃を図った。	NO_PRONOUNCE	NO_LABEL
妙椿は直ちに反乱を押さえ伊勢に出陣して東軍を牽制、11月に出陣した小笠原家長らに東美濃を占拠されるという痛手を被ったが、文明7年1月に妙椿は信濃勢に勝利してそれ以上の侵略を阻止した。	みょーつばきわただちにはんらんをおさえいせにしゅつじんしてとうぐんをけんせい、じゅーいちがつにしゅつじんしたおがさわらいえながらにひがしみのをせんきょされるとゆういたでをこーむったが、ぶんめいななねんいちがつにみょーつばきわしなのぜいにしょーりしてそれいじょーのしんりゃくをそしした。	NO_LABEL
一方、京極氏は文明3年に孫童子丸が、4年に政光が没して政経が当主となったが、乙童子丸・清直父子が北近江、高頼が南近江を確保していたため東軍は劣勢となった。	NO_PRONOUNCE	NO_LABEL
そして、文明7年10月に近江で決戦となり、妙椿の援軍と合流した高頼が勝利を収め、近江における戦乱は終結した。	そして、ぶんめいななねんじゅーがつにおーみでけっせんとなり、みょーつばきのえんぐんとごーりゅーしたたかよりがしょーりをおさめ、おーみにおけるせんらんわしゅーけつした。	NO_LABEL
幕府も乙童子丸・清直父子と高頼及び成頼・妙椿らと文明10年に和睦してそれぞれの支配を認めた。	NO_PRONOUNCE	NO_LABEL
しかし、京極騒乱は収まらず政経は抵抗を続け、幕府も後に態度を翻して近江出兵を強行したり、乙童子丸から家督を取り上げ政経に与えたりしていた。	しかし、きょーごくそーらんわおさまらずせいけいわていこーをつずけ、ばくふもごにたいどをひるがえしておーみしゅっぺいをきょーこーしたり、おつどーじまるからかとくをとりあげせいけいにあたえたりしていた。	NO_LABEL
美濃でも妙椿没後に実権を握った甥の妙純と利藤が争ったり、成頼の後継者を巡り内乱が発生したため、近江と美濃の戦乱はなおも続いていくことになる。	みのでもみょーつばきぼつごにじっけんをにぎったおいのみょーじゅんとりとーがあらそったり、しげるよりゆきのこーけいしゃをめぐりないらんがはっせいしたため、おーみとみののせんらんわなおもつずいていくことになる。	NO_LABEL
越前・尾張・遠江3ヶ国は斯波氏領国だが、畠山氏と同じくお家騒動と家臣団の内乱で戦争状態となっていた。	NO_PRONOUNCE	NO_LABEL
義敏は乱直前に3ヶ国守護に復権したが、文正の政変で守護職を失い義廉が守護に戻った状態で乱が勃発、義敏は越前に入り義廉派と交戦、義廉は京都で家臣の朝倉孝景・甲斐敏光らと共に東軍と戦っていた。	NO_PRONOUNCE	NO_LABEL
特に朝倉孝景の活躍は目覚しく、御霊合戦では義就に加勢して政長軍を破り、一条大宮の戦いでも戦果を挙げて東軍から討伐対象に挙げられていた程であった。	とくにあさくらたかかげのかつやくわめざましく、ごりょうがっせんかみごりょうじんじゃのたたかいでわよしなりにかせいしてまさながぐんをやぶり、いちじょーおーみやのたたかいでもせんかをあげてとうぐんからとーばつたいしょーにあげられていたほどであった。	NO_LABEL
しかし、朝倉孝景に対して東軍が応仁2年から内応工作を始めると、孝景は閏10月に義敏征伐を口実に越前に下る一方で東軍と裏交渉を行い、文明3年5月21日に孝景の越前守護職任命を記した足利義政と細川勝元の書状が届き、孝景は公然と東軍に寝返った。	しかし、あさくらたかかげにたいしてとうぐんがおーにんにねんからないおーこーさくをはじめると、たかかげわうるーじゅーがつによしとしせいばつをこーじつにえちぜんにくだるいっぽーでひがしぐんとうらこーしょーをおこない、ぶんめいさんねんごがつにじゅういちにちにたかかげのえつぜんしゅごしきにんめいをしるしたあしかがよしまさとほそかわかつもとのしょじょーがとどき、たかかげわこーぜんととうぐんにねがえった。	NO_LABEL
これにより朝倉孝景は斯波義敏と同陣営に属することになるが、両者はかつて長禄合戦で敵対していたため、共同戦線を張れないことを察した足利義政は義敏に中立を命じたため、義敏の家臣が孝景に味方しても義敏本人は合戦に参加しなかった。	これによりあさくらたかかげわしばよしとしとどーじんえいにぞくすることになるが、りょーしゃわかつてちょーろくかっせんでてきたいしていたため、きょーどーせんせんをはれないことをさっしたあしかがよしまさわよしとしにちゅーりつをめいじたため、よしとしのかしんがたかかげにみかたしてもよしとしほんにんわかっせんにさんかしなかった。	NO_LABEL
また、応仁2年に斯波義廉は関東との秘密交渉の発覚で足利義政から管領と守護職を取り上げられ、細川勝元と義敏の息子松王丸がそれぞれ管領と守護職に就任した。	また、おーにんにねんにしばよしかどわかんとーとのひみつこーしょーのはっかくであしかがよしまさからかんりょーとしゅごしきをとりあげられ、ほそかわかつもととよしとしのむすこまつおーまるがそれぞれかんりょーとしゅごしきにしゅーにんした。	NO_LABEL
甲斐敏光は義廉の陣営に留まっていたが、孝景の寝返りを知ると越前へ下向した。	かいとしみつわよしかどのじんえいにとまっていたが、たかかげのねがえりをしるとえつぜんえげこーした。	NO_LABEL
越前では朝倉孝景と甲斐敏光が中心となり合戦を繰り広げていったが、東幕府の支持を得た孝景が有利であり、文明4年8月に甲斐敏光の本拠地である府中を落として甲斐敏光を加賀へ追い落とし、残党も翌文明5年8月の合戦で討ち取った。	えつぜんでわあさくらたかかげとかいとしみつがちゅーしんとなりかっせんをくりひろげていったが、ひがしばくふのしじをえたたかかげがゆーりであり、ぶんめいよんねんはちがつにかいとしみつのほんきょちであるふちゅーをおとしてかいとしみつをかがえおいおとし、ざんとーもよくぶんめいごねんはちがつのかっせんでうちとった。	NO_LABEL
甲斐敏光は挽回を図り文明6年閏5月に富樫幸千代の援助で再度越前に攻め入るが、朝倉軍に連敗を続けた末に斎藤妙椿の斡旋で孝景と和睦、越前奪還を諦めた。	かいとしみつわばんかいをずりぶんめいろくねんうるーごがつにとがしこうちよのえんじょでさいどえちぜんにせめはいるが、あさくらぐんにれんぱいをつずけたすえにさいとーみょうちんのあっせんでたかかげとわぼく、えちぜんだっかんをあきらめた。	NO_LABEL
朝倉孝景の越前統一は間近に迫ったが、文明7年4月に孝景の急成長に危機感を抱いた義敏が大野郡土橋城に籠城して国人二宮氏と結託、孝景は義政から義敏の保護を命じられていたため迂闊に土橋城を攻撃出来ず、大野郡の占拠は長期間に亘った。	あさくらたかかげのえちぜんとーいつわまじかにせまったが、ぶんめいななねんしがつにたかかげのきゅーせいちょーにききかんをだいたよしとしがおおつぐんどばしじょーにかごじょーしてくにびとにのみやしとけったく、たかかげわよしまさからよしとしのほごをめいじられていたためうかつにどばしじょーをこーげきできず、おおつぐんのせんきょわちょーきかんにわたった。	NO_LABEL
7月に孝景は二宮氏を土橋城外に誘き出して討ち取り、11月に土橋城の攻撃を開始したため、義敏は観念して12月に降伏、孝景の処置で京都に送り返され越前は孝景に平定された。	しちがつにたかかげわにのみやしをどばしじょーがいにおびきだしてうちとり、じゅーいちがつにどばしじょーのこーげきをかいししたため、よしとしわかんねんしてじゅーにがつにこーふく、たかかげのしょちできょーとにおくりかえされえちぜんわたかかげにへいていされた。	NO_LABEL
甲斐敏光は文明7年2月に松王丸と共に上洛して足利義政から遠江守護代に命じられ下向、朝倉孝景に続いて甲斐敏光にも見捨てられた斯波義廉は11月に残された領国・尾張に向かったが、尾張でも内乱が発生、文明10年に幕府から反逆者と指名されたのを最後に消息を絶った。	NO_PRONOUNCE	NO_LABEL
遠江では駿河守護今川義忠が東軍の命令を受けて文明5年から遠江へ侵攻していたが、文明7年に甲斐敏光が東軍から守護代に任命されると大義名分を失い、文明8年に今川義忠が戦死すると今川氏は後継者に嫡男龍王丸と従弟の小鹿範満が擁立されお家騒動が発生、遠江侵攻は中断された。	とーのえでわするがしゅごいまがわよしただがとうぐんのめいれいをうけてぶんめいごねんからとーのええしんこーしていたが、ぶんめいななねんにかいとしみつがとうぐんからしゅごだいににんめいされるとたいぎめいぶんをうしない、ぶんめいはちねんにいまがわよしただがせんしするといまがわうじわこーけいしゃにちゃくなんりゅーおーまるとじゅーていのおしかのりみつがよーりつされおいえそうどーがはっせい、とーとーみしんこーわちゅーだんされた。	NO_LABEL
斯波義良は応仁の乱終結後は越前の奪還を図り、文明11年に甲斐敏光と二宮氏などを連れて越前に攻め入った。	しばよしながわおーにんのらんしゅーけつごわえちぜんのだっかんをはかり、ぶんめいじゅういちねんにかいとしみつとにのみやしなどをつれてえちぜんにせめはいった。	NO_LABEL
文明13年に孝景は亡くなったが、後を継いだ息子氏景は斯波軍を越前から追い出し完全平定を果たした。	ぶんめいじゅうさんねんにたかかげわなくなったが、ごをついだむすこしけいわしばぐんをえちぜんからおいだしかんぜんへいていをはたした。	NO_LABEL
義良も越前奪回を諦め文明15年に尾張へ下向、甲斐敏光も朝倉氏景と和睦して越前は朝倉氏、遠江は甲斐氏、尾張は織田氏がそれぞれ守護代として受け持つことを取り決めた。	のりながもえちぜんだっかいをあきらめぶんめいじゅうごねんにおわりえげこー、かいとしみつもあさくらうじかげとわぼくしてえちぜんわあさくらし、とーとーみわかいし、おわりわおだしがそれぞれしゅごだいとしてうけもつことをとりきめた。	NO_LABEL
かくして越前は朝倉氏が実質的に領有を果たし、斯波氏と甲斐氏は尾張・遠江を拠点としたが、やがて今川氏親と織田氏の勢いに押されていった。	NO_PRONOUNCE	NO_LABEL
播磨・備前・美作は元は赤松氏領だった所を山名宗全・山名教之・山名政清ら山名一族が嘉吉の乱で奪い取った経緯があり、再興を目指す赤松の遺臣達にとって山名氏との衝突は避けられなかった。	NO_PRONOUNCE	NO_LABEL
長禄の変で赤松郎党が手柄を立てたことにより、赤松政則は細川勝元の支援で加賀半国守護に就任して復権の足掛かりを築き、赤松政則は家臣の浦上則宗と共に義政の警固や屋敷建造、土一揆鎮圧などに努め義政の側近として重用された。	ちょーろくのへんであかまつろーとーがてがらをたてたことにより、あかまつまさのりわほそかわかつもとのしえんでかがはんごくしゅごにしゅーにんしてふっけんのあしがかりをきずき、あかまつまさのりわかしんのうらがみのりむねとともによしまさのけいごややしきけんぞー、つちいっきちんあつなどにつとめよしまさのそっきんとしてじゅーよーされた。	NO_LABEL
宗全からは敵視され文正の政変で失脚したが程無く復帰、応仁の乱では在京して則宗と共に西軍と戦った。	そーぜんからわてきしされぶんしょうのせいへんでしっきゃくしたがほどなくふっき、おーにんのらんでわざいきょーしてのりむねとともにせいぐんとたたかった。	NO_LABEL
播磨3ヶ国では宗全を始めとする山名一族は軍勢を引き連れて上洛したため、好機と捉えた宇野政秀ら赤松氏家臣団は3ヶ国の奪還に動き出した。	NO_PRONOUNCE	NO_LABEL
乱勃発直後の応仁元年5月に宇野政秀は播磨に下向して赤松氏遺臣の蜂起を促し、播磨を手に入れると備前・美作にも侵攻し備前も奪回したが、美作は守護代の抵抗が強く一度敗退、完全平定まで3年後の文明2年までかかった。	NO_PRONOUNCE	NO_LABEL
この間、宇野政秀は文明元年に摂津で山名是豊と合流して池田城の救援に赴き大内軍を撃破、兵庫を奪還している。	このかん、うのまさひでわぶんめいがんねんにせっつでやまなこれとよとごーりゅーしていけだじょーのきゅーえんにおもむきおーうちぐんをげきは、ひょーごをだっかんしている。	NO_LABEL
また、乱における活躍で赤松政則は東軍から3ヶ国の守護に任じられ、赤松氏の再興に大きく前進した。	NO_PRONOUNCE	NO_LABEL
文明5年に宗全と勝元が死去したことをきっかけに両軍は和睦に動き、文明6年に細川氏と山名氏は単独で和睦を結び戦争から離脱した。	ぶんめいごねんにそーぜんとかつもとがしきょしたことをきっかけにりょーぐんわわぼくにうごき、ぶんめいろくねんにほそかわしとやまなうじわたんどくでわぼくをむすびせんそーからりだつした。	NO_LABEL
赤松政則は和睦に反対したが、文明9年の終戦で3ヶ国守護と侍所頭人の地位を保証され赤松氏の再興を果たし、側近の浦上則宗も侍所所司代として赤松氏の重臣に成り上がった。	NO_PRONOUNCE	NO_LABEL
しかし、山名氏は和睦で失った3ヶ国の奪還を狙い、宗全の後を継いだ山名政豊は播磨を伺い、赤松政則も山名氏領国の不満分子を嗾けて反乱を起こさせたため、両者は終結後も3ヶ国を巡り争奪戦を繰り広げていった。	NO_PRONOUNCE	NO_LABEL
備後は宗全の次男山名是豊が治めていたが、宗全と不仲であった所を勝元に籠絡され、山名氏の大半が西軍に属したのと異なり唯一東軍に与した。	NO_PRONOUNCE	NO_LABEL
安芸は大内氏と武田氏の対立の場となっていて、安芸国人の殆どを勢力下に収める大内氏に対し、武田氏は大内氏に危機感を抱く細川氏の支援で対抗した。	あきわおーうちしとたけだしのたいりつのばとなっていて、あきのくにじんのほとんどをせいりょくかにおさめるおーうちしにたいし、たけだしわおーうちしにききかんをいだくほそかわしのしえんでたいこーした。	NO_LABEL
文安4年に安芸で最初の衝突が発生、これ以後は大内氏が度々安芸に侵攻しては勝元が武田氏と反大内の国人を支援して侵略を阻止していった。	ぶんあんよんねんにあきでさいしょのしょーとつがはっせい、これいごわおーうちしがたびたびあきにしんこーしてわかつもとがたけだしとはんおーうちのくにびとをしえんしてしんりゃくをそししていった。	NO_LABEL
伊予で大内氏が河野氏を支援したことも勝元が大内氏と対立する原因となった。	いよでおーうちしがこーのしをしえんしたこともかつもとがおーうちしとたいりつするげんいんとなった。	NO_LABEL
乱勃発で大内政弘は宗全の要請で領国周防から出陣、応仁元年7月20日に兵庫に上陸して8月23日に上洛、西軍と合流して東軍の脅威となった。	らんぼっぱつでおーうちまさひろわそーぜんのよーせいでりょーごくすほーからしゅつじん、おーにんがんねんしちがつはつかにひょーごにじょーりくしてはちがつにじゅうさんにちにじょーらく、せいぐんとごーりゅーしてとうぐんのきょーいとなった。	NO_LABEL
対する武田信賢・国信兄弟と毛利豊元・吉川経基・小早川煕平ら反大内の安芸国人は東軍に加わり、是豊も上洛して東軍と合流した。	NO_PRONOUNCE	NO_LABEL
上洛せず安芸・備後に留まった国人勢力も二分されそれぞれ争ったが、備後は宗全の影響力が健在だったため東軍が不利で、応仁2年11月に是豊が一時帰国しなければならない程であった。	NO_PRONOUNCE	NO_LABEL
文明元年に是豊は再び上洛、その途上で摂津の大内軍を破り山崎に布陣して翌文明2年西軍と交戦、備後が西軍の加勢でまたもや劣勢になったため12月に帰国した。	ぶんめいがんねんにぜゆたかわふたたびじょーらく、そのとじょーでせっつのおーうちぐんをやぶりやまざきにふじんしてよくぶんめいにねんせいぐんとこーせん、そなえごがせいぐんのかせいでまたもやれっせいになったためじゅーにがつにきこくした。	NO_LABEL
一方の武田信賢らは京都に留まり西軍と戦った。	いっぽーのたけだのぶかたらわきょーとにとまりせいぐんとたたかった。	NO_LABEL
文明3年になると信賢と国信の弟で安芸の留守を守っていた武田元綱が西軍の工作で反乱を起こし、毛利豊元も大内氏に誘われて安芸に帰国すると西軍に寝返り、安芸・備後は西軍有利に傾いた。	NO_PRONOUNCE	NO_LABEL
東軍は国人衆に忠誠を誓わせ寝返り防止に努め、山名是豊も備後で転戦して形勢を立て直そうとしたが、文明5年から文明7年の2年間西軍の小早川弘景ら安芸・備後国人衆が東軍方の小早川敬平が籠城する高山城を包囲したにも関わらず救援に来なかったことから人望を失い、備後から追放され消息を絶った。	NO_PRONOUNCE	NO_LABEL
文明7年4月23日に安芸・備後の東西両軍は和睦を結び、中国地方の戦乱は終息に向かった。	NO_PRONOUNCE	NO_LABEL
戦後備後は山名是豊の甥に当たる山名政豊が領有することになり、残党は政豊に討伐された。	せんごびんごわやまなこれとよのおいにあたるやまなまさとよがりょーゆーすることになり、ざんとーわまさとよにとーばつされた。	NO_LABEL
安芸は武田氏を始め国人が割拠する状態に置かれ、武田元綱は文明13年に信賢の後を継いだ武田国信と和睦、安芸の国人領主として兄から独立し大内氏と友好関係を結んだ。	あきわたけだしをはじめくにびとがかっきょするじょーたいにおかれ、たけだもとつなわぶんめいじゅうさんねんにしんけんののちをついだたけだくにのぶとわぼく、あきのこくじんりょーしゅとしてあにからどくりつしおーうちしとゆーこーかんけいをむすんだ。	NO_LABEL
他の国人衆も大内氏との対立を解消し安芸は平穏になったが、戦乱を通して大内氏の影響力は増大、備後で山名政豊と国人が対立して支配が揺らいだため、大内氏と新たに台頭した尼子経久が国人衆を巻き込み衝突していった。	たのこくじんしゅーもおーうちしとのたいりつをかいしょーしあきわへいおんになったが、せんらんをとーしておーうちしのえいきょーりょくわぞーだい、びんごでやまなまさとよとくにびとがたいりつしてしはいがゆらいだため、おーうちしとあらたにたいとーしたあまごつねひさがこくじんしゅーをまきこみしょーとつしていった。	NO_LABEL
