メイソンは、アメリカ海軍のミサイル駆逐艦。	めいそんわ、あめりかかいぐんのみさいるくちくかん。	NO_LABEL
アーレイ・バーク級ミサイル駆逐艦の37番艦。	あーれいばーくきゅーみさいるくちくかんのさんじゅうななばんかん。	NO_LABEL
艦名は同名の二隻の艦に因む。	かんめいわどーめいのにせきのかんにちなむ。	NO_LABEL
最初のメイソンは司法長官、海軍長官を歴任したジョン・ヤング・メイソンに因む。	さいしょのめいそんわしほーちょーかん、かいぐんちょーかんをれきにんしたじょんやんぐめいそんにちなむ。	NO_LABEL
二隻目のメイソンは海軍パイロットのニュートン・ヘンリー・メイソンに因む。	にせきめのめいそんわかいぐんぱいろっとのにゅーとんへんりーめいそんにちなむ。	NO_LABEL
メイソンはバージニア州ノーフォークを母港とする。	めいそんわばーじにあしゅーのーふぉーくをぼこーとする。	NO_LABEL
アーレイ・バーク級駆逐艦の Flight IIA としては9隻目である。	NO_PRONOUNCE	NO_LABEL
2003年4月にフロリダ州ケープカナベラルでデヴィッド・ゲール艦長の指揮下就役した。	NO_PRONOUNCE	NO_LABEL
同年夏、スペイン海軍F-101 アルバロ・デ・バサンとともに15日間にわたり共同でのミサイル発射試験を実施した。	NO_PRONOUNCE	NO_LABEL
