おかの みさとは、日本の女優、声優。	おかのみさとわ、にっぽんのじょゆー、せいゆー。	NO_LABEL
以前は円谷プロダクションに所属していた。	いぜんわつぶらやぷろだくしょんにしょぞくしていた。	NO_LABEL
東京都出身。	とーきょーとしゅっしん。	NO_LABEL
血液型はB型。	けつえきがたわびーがた。	NO_LABEL
本名・旧芸名は鈴木 みさと。	NO_PRONOUNCE	NO_LABEL
趣味はイラスト、だし巻き卵作り。	しゅみわいらすと、だしまきたまごずくり。	NO_LABEL
特技は殺陣。	とくぎわさつじん。	NO_LABEL
