アージー・グリースは、デンマークの芸術家。	あーじーぐりーすわ、でんまーくのげいじゅつか。	NO_LABEL
コペンハーゲン出身。	こぺんはーげんしゅっしん。	NO_LABEL
アージー・グリースは簡単なプロジェクトには応じず、必ず下書きから初め、彼の豊富な空想の世界より独創的な発想と形を表現できるまで、決して妥協は許さないアーティストとして知られている。	あーじーぐりーすわかんたんなぷろじぇくとにわおーじず、かならずしたがきからはじめ、かれのほーふなくーそーのせかいよりどくそーてきなはっそーとかたちをひょーげんできるまで、けっしてだきょーわゆるさないあーてぃすととしてしられている。	NO_LABEL
イギリス・ドイツ・エルサレム・ニューヨークメトロポリタンミュージアム・デンマーク・フランス・オランダ・スウェーデン等世界主要都市で展覧会を開いている。	NO_PRONOUNCE	NO_LABEL
