シャーンドルは、ハンガリーの男性名、姓。	しゃーんどるわ、はんがりーのだんせいめい、せい。	NO_LABEL
アレクサンドロス、アレクサンダー、アレクサンドル、アレクサンダル、アレクサンデル、アレッサンドロ、アレハンドロに対応する。	あれくさんどろす、あれくさんだー、あれくさんどる、あれくさんだる、あれくさんでる、あれっさんどろ、あれはんどろにたいおーする。	NO_LABEL
※ハンガリーでは人名が姓・名の順に呼ばれるが、以上の項目名には名・姓の順のものも混在する。	NO_PRONOUNCE	NO_LABEL
