佐藤 純彌は、日本の映画監督・脚本家。	NO_PRONOUNCE	NO_LABEL
かつては、佐藤 純弥の表記も用いられた。	かつてわ、さとーあやみのひょーきももちいられた。	NO_LABEL
父は日本刀学者の佐藤貫一。	ちちわにっぽんとーがくしゃのさとーかんいち。	NO_LABEL
兄は東京大学名誉教授の佐藤純一。	あにわとーきょーだいがくめいよきょーじゅのさとーじゅんいち。	NO_LABEL
子に日本テレビ・ディレクターの佐藤東弥がいる。	NO_PRONOUNCE	NO_LABEL
東京都出身。	とーきょーとしゅっしん。	NO_LABEL
東京都立第一中学校在学中に学制改革を経て日比谷高校卒業。	とーきょーとりつだいいちちゅうがっこーざいがくちゅーにがくせいかいかくをへてひびやこうこーそつぎょー。	NO_LABEL
その後東京大学文学部卒業。	そのごとーきょーだいがくぶんがくぶそつぎょー。	NO_LABEL
太平洋戦争時は、山形県鶴岡市の祖父と叔父の元へ縁故疎開。	たいへいよーせんそーじわ、やまがたけんつるおかしのそふとおじのもとええんこそかい。	NO_LABEL
終戦後の1956年に東映へ入社し、東京撮影所のスタッフとしてキャリアを積む。	しゅーせんごのせんきゅうひゃくごじゅうろくねんにとーえいえにゅーしゃし、とーきょーさつえいしょのすたっふとしてきゃりあをつむ。	NO_LABEL
1961年に『宇宙快速船』で助監督として参加。	NO_PRONOUNCE	NO_LABEL
1963年に『陸軍残虐物語』で監督デビュー。	NO_PRONOUNCE	NO_LABEL
アニメ作品『魔法使いサリー』では佐藤純弥名義での脚本を担当した。	NO_PRONOUNCE	NO_LABEL
1968年に東映を退社後は、ヤクザ映画を中心に監督を担当。	せんきゅうひゃくろくじゅうはちねんにとーえいをたいしゃごわ、やくざえいがをちゅーしんにかんとくをたんとー。	NO_LABEL
1975年の監督作『新幹線大爆破』は公開当初の興行成績は芳しくなかったが、後年レンタルビデオなどで人気作となった。	NO_PRONOUNCE	NO_LABEL
以降、『人間の証明』『未完の対局』『おろしや国酔夢譚』『男たちの大和/YAMATO』等の大作を監督。	NO_PRONOUNCE	NO_LABEL
現在も映画監督として第一線で活躍している。	げんざいもえいがかんとくとしてだいいっせんでかつやくしている。	NO_LABEL
現在は東京都西東京市在住であり、2000年より地元で開催されている西東京市民映画祭の審査委員長を毎回務めている。	げんざいわとーきょーとにしとーきょーしざいじゅーであり、にせんねんよりじもとでかいさいされているにしとーきょーしみんえいがさいのしんさいーんちょーをまいかいつとめている。	NO_LABEL
2008年、旭日小綬章を受章。	にせんはちねん、きょくじつしょーじゅしょーをじゅしょー。	NO_LABEL
2010年、吉村昭の歴史小説を佐藤自身初となる、長編時代劇『桜田門外ノ変』を監督。	NO_PRONOUNCE	NO_LABEL
作詞の方面でも才能を発揮している。	さくしのほーめんでもさいのーをはっきしている。	NO_LABEL
1968年からTBS系列で放送された『キイハンター』の主題歌『非情のライセンス』に始まり、キイハンターの後番組である「アイフル大作戦」、その後番組「バーディー大作戦」、そしてその後番組であり、1975年から放送された『Gメン'75』と1982年から放送された『Gメン'82』のエンディング・テーマの作詞を務めた。	NO_PRONOUNCE	NO_LABEL
日本・中国合作の超大作『敦煌』で第12回日本アカデミー賞最優秀作品賞、同監督賞を受賞した。	NO_PRONOUNCE	NO_LABEL
『新幹線大爆破』はヨーロッパで、『君よ憤怒の河を渉れ』は中国で大ヒットした。	NO_PRONOUNCE	NO_LABEL
戦後初の日中合作映画『未完の対局』はモントリオール国際映画祭でグランプリを獲得するなど海外での評価も高く全般的に不動の地位を確立しているが、1997年の監督作『北京原人 Who are you?』は、日本映画史上に残る「迷作」として語られることが多い。	NO_PRONOUNCE	NO_LABEL
1960年代から1970年前後にかけてやくざ物で多く監督してきたが、1970年代中盤からはスケールの大きい大作を多く手がけるようになり、2006年現在でもその手の作品で腕を振るっている。	せんきゅうひゃくろくじゅうねんだからせんきゅうひゃくななじゅうねんぜんごにかけてやくざぶつでおーくかんとくしてきたが、せんきゅうひゃくななじゅうねんだいちゅーばんからわすけーるのおーきいたいさくをおーくてがけるよーになり、にせんろくねんげんざいでもそのてのさくひんでうでをふるっている。	NO_LABEL
テレビの『Gメン』シリーズにもそのような雰囲気がある。	NO_PRONOUNCE	NO_LABEL
またテレビでは、東映製作の『キイハンター』や『Gメン'75』が有名で、深作欣二や鷹森立一らとともにメインで監督を務めた。	NO_PRONOUNCE	NO_LABEL
『アイフル大作戦』『バーディー大作戦』『Gメン'75』『Gメン'82』『スーパーポリス』などでは深作とともに構成を担当し、長らくTBSの同時間帯番組を陰で支えてきた。	NO_PRONOUNCE	NO_LABEL
また、確認できる限りでは『キイハンター』以降、定期的に脚本も書いている。	NO_PRONOUNCE	NO_LABEL
深作、佐藤と共に仕事をした千葉真一は、二人を比較して、こだわりと情熱を前面に出す深作とは対称的に、佐藤は淡々と撮るスタイルの職人監督であるという。	ふかさく、さとーとともにしごとをしたちばしんいちわ、ふたりをひかくして、こだわりとじょーねつをぜんめんにだすふかさくとわたいしょーてきに、さとーわたんたんととるすたいるのしょくにんかんとくであるという。	NO_LABEL
また、佐藤自身のインタビューではその少なからず「アバウトな」性格がうかがえ、その「いい意味で鈍感」な性格が、数々の大作を無難にこなした所以とも感じさせる。	NO_PRONOUNCE	NO_LABEL
『人間の証明』『野性の証明』でカメラを担当した姫田真佐久はその著書の中で、カメラが回っている最中によそ見をする癖を暴露し、演出家である佐藤に向かって「演出が苦手」の一言で批判している。	NO_PRONOUNCE	NO_LABEL
ほか	ほか	NO_LABEL
ほか	ほか	NO_LABEL
ほか	ほか	NO_LABEL
