イェリング墳墓群は、デンマーク、ユトランド半島中部のイェリング近郊で発見された ルーン文字の刻まれた10世紀の石碑で知られる墳墓群で、石碑はデンマークの国家の起源を示す貴重な文字資料である。	いぇりんぐふんぼぐんわ、でんまーく、ゆとらんどはんとーちゅーぶのいぇりんぐきんこーではっけんされたるーんもじのきざまれたじっせいきのせきひでしられるふんぼぐんで、せきひわでんまーくのこっかのきげんをしめすきちょーなもじしりょーである。	NO_LABEL
1994年に世界遺産に登録された。	せんきゅうひゃくきゅうじゅうよねんにせかいいさんにとーろくされた。	NO_LABEL
イェリングにある最も古い石碑は、デンマークの最初の王とされるゴーム老王とチューラ王妃について刻んだものである。	いぇりんぐにあるもっともふるいせきひわ、でんまーくのさいしょのおーとされるごーむろーおーとちゅーらおーひについてきざんだものである。	NO_LABEL
ゴーム老王とチューラ王妃のものより大きな石碑は、かれらの子であるハーラル青歯王の記念碑である。	ごーむろーおーとちゅーらおーひのものよりおーきなせきひわ、かれらのこであるはーらるあおはおーのきねんひである。	NO_LABEL
ハーラル青歯王がデンマークとノルウェーを征服したこととデーン人のキリスト教への改宗を祝って建てられた。	はーらるあおはおーがでんまーくとのるうぇーをせいふくしたこととでーんじんのきりすときょーえのかいしゅーをいわってたてられた。	NO_LABEL
石碑は、イェリングの教会墓地にある二つのおおきな古墳の間に建てられている。	せきひわ、いぇりんぐのきょーかいぼちにあるふたつのおーきなこふんのまにたてられている。	NO_LABEL
これらの石碑はノルウェー人の土着宗教とデンマークのキリスト教化の移行期の様相を表している。	これらのせきひわのるーぇーじんのどちゃくしゅうきょーとでんまーくのきりすときょーかのいこーきのよーそーをあらわしている。	NO_LABEL
より古く、小ぶりなルーン文字の石碑は、「ゴームの石碑」と呼ばれ、高さ1.4m、幅1m、厚さ50cmの直方体に近い形状をしている。	NO_PRONOUNCE	NO_LABEL
ゴーム老王の亡くなる少し前に立てられたと考えられている。	ごーむろーおーのなくなるすこしまえにたてられたとかんがえられている。	NO_LABEL
碑文には、「ゴーム王は、デンマークを救った妃のチューラを記念してこの石碑を建てる。	NO_PRONOUNCE	NO_LABEL
」と読める。	NO_PRONOUNCE	NO_LABEL
古ノルウェー語につかわれた、A.D.800年ごろから使用されたスカンディナヴィア系の新「フサルク」のルーン文字で碑文が刻まれている。	NO_PRONOUNCE	NO_LABEL
[釈文]	NO_PRONOUNCE	NO_LABEL
釈文]	NO_PRONOUNCE	NO_LABEL
ハーラルの石碑は、高さ2.4m、最大幅2.9mの不定形の石碑であって、ハーラル青歯王の存命中の983年ごろに建てられたと考えられている。	はーらるのせきひわ、たかさにてんよんめーとる、さいだいはばにてんきゅうめーとるのふていけいのせきひであって、はーらるあおはおーのぞんめいちゅーのきゅうひゃくはちじゅうさんねんごろにたてられたとかんがえられている。	NO_LABEL
北欧最古と考えられるキリスト像のレリーフがヴァイキング独特の伝統的な帯状装飾に囲まれて刻まれている。	NO_PRONOUNCE	NO_LABEL
また、別の面には、グリフィンが帯状装飾に囲まれて刻まれている。	また、べつのめんにわ、ぐりふぃんがおびじょーそーしょくにかこまれてきざまれている。	NO_LABEL
これは、ハーラル王自身のノルウェー征服を象徴して刻んだものと考えられている。	これわ、はーらるおーじしんののるうぇーせいふくをしょーちょーしてきざんだものとかんがえられている。	NO_LABEL
碑文には、「王であるハーラルは、父であるゴームと母であるチューラを記念してこの碑を建てる。	NO_PRONOUNCE	NO_LABEL
ハーラルはデンマークとノルウェーを勝利によって獲得し、デーン人をキリスト教へ改宗した。	はーらるわでんまーくとのるうぇーをしょーりによってかくとくし、でーんじんをきりすときょーえかいしゅーした。	NO_LABEL
」と刻まれている。	NO_PRONOUNCE	NO_LABEL
[釈文]	NO_PRONOUNCE	NO_LABEL
1955年にこの石碑の石膏レプリカがロンドンの英国祭にお目見えした。	せんきゅうひゃくごじゅうごねんにこのせきひのせっこーれぷりかがろんどんのえいこくさいにおめみえした。	NO_LABEL
そのレプリカは現在、ロンドンのデンマーク語教会の敷地内に建てられている。	そのれぷりかわげんざい、ろんどんのでんまーくごきょーかいのしきちないにたてられている。	NO_LABEL
北の墳墓からは、1820年の調査によって、石碑に並行かやや時期がふるいイェリング様式の銀製ゴブレットが発見された。	きたのふんぼからわ、せんはっぴゃくにじゅうねんのちょーさによって、せきひにへいこーかややじきがふるいいぇりんぐよーしきのぎんせいごぶれっとがはっけんされた。	NO_LABEL
北の墳墓の調査では、木製品が納められた大きな宝物室が発見された。	きたのふんぼのちょーさでわ、もくせいひんがおさめられたおーきなほーもつしつがはっけんされた。	NO_LABEL
この墳墓自身からは被葬者の遺体は発見されなかったが、聖堂の修理の際に中年男性の骨格の一部と王の衣装と思われる衣の断片が発見されたことから、ゴーム老王自身ではないかという議論もあった。	このふんぼじしんからわひそーしゃのいたいわはっけんされなかったが、せいどーのしゅーりのさいにちゅーねんだんせいのこっかくのいちぶとおーのいしょーとおもわれるころものだんぺんがはっけんされたことから、ごーむろーおーじしんでわないかとゆうぎろんもあった。	NO_LABEL
いずれにせよ、聖堂に移される前にゴーム老王と妃チューラが葬られていたことはほぼ確実であろうと考えられている。	いずれにせよ、せいどーにうつされるまえにごーむろーおーときさきちゅーらがほーむられていたことわほぼかくじつであろうとかんがえられている。	NO_LABEL
なお、北の墳墓は、958年から959年にかけての冬に造られたと推定されている。	なお、きたのふんぼわ、きゅうひゃくごじゅうはちねんからきゅうひゃくごじゅうきゅうねんにかけてのふゆにつくられたとすいていされている。	NO_LABEL
南の塚は、1860年代、1941年に調査され、墓室は発見されなかった。	みなみのつかわ、せんはっぴゃくろくじゅうねんだい、せんきゅうひゃくよんじゅういちねにちょーさされ、はかしつわはっけんされなかった。	NO_LABEL
1970年の発掘調査の結果、970年段階では未完成であったことが判明した。	せんきゅうひゃくななじゅうねんのはっくつちょーさのけっか、きゅうひゃくななじゅうねんだんかいでわみかんせいであったことがはんめいした。	NO_LABEL
ハーラル青歯王が、何層にも土を積み重ねて記念碑的な意味で造らせたと考えられる。	はーらるあおはおーが、なんそーにもどをつみかさねてきねんひてきないみでつくらせたとかんがえられる。	NO_LABEL
