『ジハード』は定金伸治による歴史小説。	NO_PRONOUNCE	NO_LABEL
ジャンプ小説・ノンフィクション大賞の第一回入選作であり、1993年3月、ライトノベルレーベルのジャンプ ジェイ ブックスから刊行され、足掛け11年にわたる長期シリーズとなった。	NO_PRONOUNCE	NO_LABEL
12世紀、十字軍時代のイスラム側に身を置く西欧人ヴァレリーを主人公とした戦記ものというやや異色の作品で、サラディンやリチャード獅子心王、ロビン・フッドやアイヴァンホーといった同時代の実在・架空の英雄たちが数多く登場する。	NO_PRONOUNCE	NO_LABEL
イラストは当初、山根和俊が担当し、山根による漫画化も2回ほどなされた。	いらすとわとーしょ、やまねかずとしがたんとーし、やまねによるまんがかもにかいほどなされた。	NO_LABEL
第6巻以降は、アニメーターの芝美奈子がイラストを担当している。	だいろくかんいこーわ、あにめーたーのしばみなこがいらすとをたんとーしている。	NO_LABEL
2001年のアメリカ同時多発テロ事件以後、イスラムが注目されるようになった背景もあってか、2003年からは一般小説として大幅な改稿がなされて集英社文庫より全6巻が、さらに2014年に星海社文庫で全6巻が刊行された。	にせんいちねんのあめりかどーじたはつてろじけんいご、いすらむがちゅーもくされるよーになったはいけいもあってか、にせんさんねんからわいっぱんしょーせつとしておーはばなかいこーがなされてしゅーえいしゃぶんこよりぜんろくかんが、さらににせんじゅうよねんにせいかいしゃぶんこでぜんろくかんがかんこーされた。	NO_LABEL
のもの）	NO_PRONOUNCE	NO_LABEL
