一球幸魂倶楽部は、埼玉県所沢市に本拠地を置き、日本野球連盟に所属する社会人野球のクラブチームである。	いっきゅーさいたまくらぶわ、さいたまけんところざわしにほんきょちをおき、にほんやきゅーれんめいにしょぞくするしゃかいじんやきゅーのくらぶちーむである。	NO_LABEL
球団名である「一球幸魂」は、一球入魂と埼玉県の名前の由来を絡ませた造語。	NO_PRONOUNCE	NO_LABEL
元西武ライオンズの大塚光二が、2005年12月15日に「埼玉硬式野球倶楽部」として設立。	NO_PRONOUNCE	NO_LABEL
2006年1月18日にチームの正式名称が『一球幸魂倶楽部』に決まった。	NO_PRONOUNCE	NO_LABEL
埼玉県所沢市に本拠地を置き、同年6月に日本野球連盟への加盟が認められ、9月19日付けで公示された。	さいたまけんところざわしにほんきょちをおき、どーねんろくがつににほんやきゅーれんめいえのかめいがみとめられ、くがつじゅうきゅうにちずけでこーじされた。	NO_LABEL
