ポール・ランドは、アメリカ合衆国の著名なグラフィックデザイナー。	ぽーるらんどわ、あめりかがっしゅーこくのちょめいなぐらふぃっくでざいなー。	NO_LABEL
様々な企業のロゴデザインで知られる。	さまざまなきぎょーのろごでざいんでしられる。	NO_LABEL
ニューヨークのプラット・インスティチュート、パーソンズ美術大学、アート・スチューデント・リーグで学んだ。	NO_PRONOUNCE	NO_LABEL
グラフィック・デザインにおけるスイス・スタイルの創始者のひとりである。	NO_PRONOUNCE	NO_LABEL
1956年から1969年にかけて、さらに1974年以降、イエール大学でデザインを教えている。	せんきゅうひゃくごじゅうろくねんからせんきゅうひゃくろくじゅうきゅうねんにかけて、さらにせんきゅうひゃくななじゅうよねんいこー、いえーるだいがくででざいんをおしえている。	NO_LABEL
1972年、ニューヨークのアート・ディレクターズ・クラブの殿堂入りを果たした。	NO_PRONOUNCE	NO_LABEL
作品として多くのコーポレートアイデンティティやポスターがあり、IBM、UPS、 ABCテレビ、NeXTのものがよく知られる。	さくひんとしておーくのこーぽれーとあいでんてぃてぃやぽすたーがあり、あいびーえむ、あぷす、えーびーしーてれび、ねくすとのものがよくしられる。	NO_LABEL
1996年に癌のため死去。	せんきゅうひゃくきゅうじゅうろくねんにがんのためしきょ。	NO_LABEL
ニューヨークのBeth El墓地に埋葬された。	NO_PRONOUNCE	NO_LABEL
作品の一部はおよびで見ることができる。	さくひんのいちぶわおよびでみることができる。	NO_LABEL
ペレス・ローゼンバウムは1914年、ニューヨークのブルックリンで生まれた。	NO_PRONOUNCE	NO_LABEL
幼い頃からデザインに関心を持ち、父の経営する食料品店や学校のイベントのために看板を描いている。	おさないころからでざいんにかんしんをもち、ちちのけいえいするしょくりょーひんてんやがっこーのいべんとのためにかんばんをえがいている。	NO_LABEL
ランドの父親は芸術で身を立てることに懐疑的だったため、ポールをマンハッタンのハレン・ハイスクールに進学させたが、ポールは平行してプラット・インスティチュートの夜学クラスに通っていた。	NO_PRONOUNCE	NO_LABEL
ポール・ランドは大雑把にいえば「デザイナーとしては独学で、"Gebrauchsgraphik"などの欧州の雑誌に掲載されたカッサンドルやモホリ＝ナジの作品から学んでいた」。	NO_PRONOUNCE	NO_LABEL
彼の経歴はそれほど華々しい開始をしたわけではなく、初めの仕事は新聞や雑誌にストック・イメージを提供する会社のパート・タイムであった。	NO_PRONOUNCE	NO_LABEL
学校の課題と仕事の合間をつかってランドは相当な量のポートフォリオを作成している。	がっこーのかだいとしごとのあいまをつかってらんどわそーとーなりょーのぽーとふぉりおをさくせいしている。	NO_LABEL
これはドイツの広告のスタイル、ザッハプラカットやグスタフ・イエンセンの影響を受けたものであった。	NO_PRONOUNCE	NO_LABEL
はっきりとユダヤ系と分かる「ペレス・ローゼンバウム」という名前を隠し、簡単なものにするために名前を変えようと決意するのはこの時期である。	NO_PRONOUNCE	NO_LABEL
ファーストネームは短くして「ポール」とし、叔父から「ランド」という姓を借りることにした。	NO_PRONOUNCE	NO_LABEL
ランドの友人で恊働していたモリス・ヴィソグロードは、「彼は四文字ずつのPaul Randという名がすてきなシンボルになると思っていました。	NO_PRONOUNCE	NO_LABEL
だから彼はポール・ランドになることにしたんです」と語っている。	NO_PRONOUNCE	NO_LABEL
ロイ・R・ベーレンスはランドの新たな名前の重要性を「ランドは新しいペルソナを手に入れた。	NO_PRONOUNCE	NO_LABEL
これはその後の多くの業績のブランド名になったもので、つまり彼が最初につくりだしたコーポレートアイデンティティだったのである。	これわそのごのおーくのぎょーせきのぶらんどめいになったもので、つまりかれがさいしょにつくりだしたこーぽれーとあいでんてぃてぃだったのである。	NO_LABEL
そしてこれは最も長持ちしたものだった」と指摘している。	NO_PRONOUNCE	NO_LABEL
実際にランドは急速に名を挙げるようになる。	じっさいにらんどわきゅーそくになをあげるよーになる。	NO_LABEL
20代の初めにはすでに国際的な注目を集めるようになり、とりわけデザインの自由を交換条件として無償で請け負った雑誌"Direction"のカバーが評判となった。	NO_PRONOUNCE	NO_LABEL
ついにはモホリ＝ナジの賞賛も受けている：	NO_PRONOUNCE	NO_LABEL
ランドが20代の輝かしい活躍で築いた評判は以後衰えることがなかった。	らんどがにじゅうだいのかがやかしいかつやくできずいたひょーばんわいごおとろえることがなかった。	NO_LABEL
むしろ、その後の作品や書いたものがその分野における彼の陰の立役者としての地位を確立してゆくにつれ、その名声はますます堅固なものとなってゆく。	むしろ、そのごのさくひんやかいたものがそのぶんやにおけるかれのかげのたてやくしゃとしてのちいをかくりつしてゆくにつれ、そのめいせいわますますけんごなものとなってゆく。	NO_LABEL
ランドは1950年代から1960年代にかけて制作した企業ロゴの分野で一番知られているが、もともと評価されたのは初期のページ・レイアウトの仕事である。	NO_PRONOUNCE	NO_LABEL
1936年、ランドは"Apparel Arts"という雑誌の記念号のページ・レイアウトを任される。	NO_PRONOUNCE	NO_LABEL
彼の才能は「ありふれた写真を劇的な構成に変え、誌面の説得力を大きく増」し、ランドはフルタイムの業務を与えられることになった。	NO_PRONOUNCE	NO_LABEL
さらには"Esquire"誌や"Coronet"誌からアート・ディレクションの注文を呼び込んだ。	NO_PRONOUNCE	NO_LABEL
ランドは、初めは「まだ自分はそうしたレベルに達していない」として注文を断っていたが、一年後には"Esquire"誌のファッションのページの責任者になることを決意する。	NO_PRONOUNCE	NO_LABEL
このときわずか23歳であった。	このときわずかにじゅうさんさいであった。	NO_LABEL
"Direction"誌のカバーのデザインは、そのころまだ模索中であった「ポール・ランド風」デザインを展開していくための重要な段階となったようである。	NO_PRONOUNCE	NO_LABEL
1940 年12月号のカバーは、有刺鉄線のイメージによって戦渦で破壊された贈り物と十字架を現したもので、この雑誌の仕事での「芸術的自由」を端的に示すものになっている。	NO_PRONOUNCE	NO_LABEL
『デザインについて』で、ランドはこれはついて「重要なのは、十字架が、宗教的な含意から解放された純粋な造形として、攻撃的な垂直性と、受動的な水平性の完璧な融合として表現されることである」と述べている。	NO_PRONOUNCE	NO_LABEL
こうしたやり方で、ランドは普通は「ハイ・アート」の文脈で扱われるテーマを自分のグラフィック・デザインに導入する実験を試みていたのである。	NO_PRONOUNCE	NO_LABEL
この試みは、さらに彼の一生涯をかけた追求である、ヨーロッパの現代主義の巨匠たちと自らの実践とを架橋する挑戦へとつながってゆく。	このこころみわ、さらにかれのいちしょーがいをかけたついきゅーである、よーろっぱのげんだいしゅぎのきょしょーたちとみずからのじっせんとをかきょーするちょーせんえとつながってゆく。	NO_LABEL
ランドの最もよく知られたグラフィック・デザインへの貢献は、その多くがなおも当時のまま使われているコーポレートアイデンティティの仕事である。	NO_PRONOUNCE	NO_LABEL
なかでも、IBM、ABCテレビ、Cummins Engine、ウェスティングハウス、そしてUPSなどはランドの貴重な遺産を受け継いでいる。	NO_PRONOUNCE	NO_LABEL
彼の強みのひとつは、モホリ＝ナジが指摘したように、企業にとって彼の提案がもっている必要性を説明する能力、いわばセールスマンとしての能力の高さであった。	NO_PRONOUNCE	NO_LABEL
ルイス・ダンジガーは次のように語っている：	NO_PRONOUNCE	NO_LABEL
ランドの仕事を端的にあらわすコーポレートアイデンティティは彼によって1956年にデザインされたIBMのロゴである。	らんどのしごとをたんてきにあらわすこーぽれーとあいでんてぃてぃわかれによってせんきゅうひゃくごじゅうろくねんにでざいんされたあいびーえむのろごである。	NO_LABEL
マーク・フェーヴァーマンは、これは「単なるアイデンティティではなく、この企業全体の意識と一般への受容に深く浸透した基本的なデザイン哲学となった」と述べている。	NO_PRONOUNCE	NO_LABEL
ロゴは1960年にランド自身によって改変され、1972年にはストライプのものが誕生する。	ろごわせんきゅうひゃくろくじゅうねんにらんどじしんによってかいへんされ、せんきゅうひゃくななじゅうにねんにわすとらいぷのものがたんじょーする。	NO_LABEL
ランドは1970年代初期から1980年代初期にかけてIBMのために梱包材やマーケティングのための資料のデザインも行い、この中であの有名な「アイ、ビー、エム」ポスターも誕生した。	NO_PRONOUNCE	NO_LABEL
フォードは1960年代にランドに企業ロゴのデザイン見直しを依頼したが、結局、彼による最新化されたロゴは用いない決定をしている。	ふぉーどわせんきゅうひゃくろくじゅうねんだにらんどにきぎょーろごのでざいんみなおしをいらいしたが、けっきょく、かれによるさいしんかされたろごわもちいないけっていをしている。	NO_LABEL
ランドのロゴ・デザインはシンプルで単純なものだと見なされやすい。	NO_PRONOUNCE	NO_LABEL
彼は『デザイナーの技芸』の中ですでに「独自のものや刺激的なものを生み出すためにアイデア自体が難解なものになる必要はない」と指摘している。	NO_PRONOUNCE	NO_LABEL
こうした最小限志向な理想と、ロゴは「最大限のシンプルさと慎ましさをもってデザインしなければ生き残るものにはならない」というランドの理念は、彼のABCテレビのためのロゴに典型的に示されている。	NO_PRONOUNCE	NO_LABEL
ランドは高齢になってからも制作に旺盛で、80年代、90年代に入ってからも多くの重要なコーポレートアイデンティティを制作し続けた。	らんどわこーれいになってからもせいさくにおーせいで、はちじゅうねんだい、きゅうじゅうねんだいにはいってからもおーくのじゅーよーなこーぽれーとあいでんてぃてぃをせいさくしつずけた。	NO_LABEL
この中にはひとつの解決のために10万ドルが支払われたという噂もある。	このなかにわひとつのかいけつのためにじゅうまんどるがしはらわれたとゆううわさもある。	NO_LABEL
後期の仕事で注目に値するのはNeXT社のためのスティーヴ・ジョブズとの恊働である。	NO_PRONOUNCE	NO_LABEL
ランドは社名を二行に分けたシンプルな黒い立方体のロゴをデザインし、ジョブズはその視覚的な調和をいたく気に入ったという。	らんどわしゃめいをにこーにわけたしんぷるなくろいりっぽーたいのろごをでざいんし、じょぶずわそのしかくてきなちょーわをいたくきにいったという。	NO_LABEL
これまでのランドの仕事によって喜んだ顧客を挙げるとすれば、ジョブズが筆頭だろう。	これまでのらんどのしごとによってよろこんだこきゃくをあげるとすれば、じょぶずがひっとーだろう。	NO_LABEL
1996年のランド死去の前、ジョブズはランドを「存命中の最も偉大なグラフィック・デザイナー」と称し、またランドの仕事を話題にした1993年のインタビューでは、ジョブズはランドを「私が会った中で最も玄人な人間のひとり」、「深い思想家」、「個性的な芸術家」と呼んで極めて高い評価を与えている。	NO_PRONOUNCE	NO_LABEL
多くのスタッフを使っていたこともある一方、ランドは製作過程の大部分については共有することがなかったが、自分のデザイン思想を明らかにするために書籍をつくることには意欲的だった。	おーくのすたっふをつかっていたこともあるいっぽー、らんどわせいさくかていのだいぶぶんについてわきょーゆーすることがなかったが、じぶんのでざいんしそーをあきらかにするためにしょせきをつくることにわいよくてきだった。	NO_LABEL
ランドの研究熱心さに火をつけたのはおそらくモホリ＝ナジで、彼はランドに初めて会ったとき、アート批評を読むことがあるか、と尋ねたという。	NO_PRONOUNCE	NO_LABEL
「ノー」といったランドへのモホリ＝ナジの答えは「それは残念だ」だった。	NO_PRONOUNCE	NO_LABEL
スティーヴン・ヘラーはこのミーティングの重要性を指摘し、「その時以来、ランドはロジャー・フライやアルフレッド・ノース・ホワイトヘッド、ジョン・デューイなどの先進的な哲学者や芸術批評家などの本を貪るように読みふけった」と述べている。	NO_PRONOUNCE	NO_LABEL
それらの理論家はランドの仕事に深い影響を与えている。	それらのりろんかわらんどのしごとにふかいえいきょーをあたえている。	NO_LABEL
1995年のマイケル・クローガーとのインタビューでは、いろいろなトピックスに加えて特にデューイの『経験としての芸術』が話題になっている。	NO_PRONOUNCE	NO_LABEL
ランドはデューイの主張を敷衍して以下のように述べている：	NO_PRONOUNCE	NO_LABEL
このように、デューイがランドのグラフィック・デザインの根本的な思想の重要な源となっていることはどうやら明らかである。	NO_PRONOUNCE	NO_LABEL
ランドの『デザインについて』のある部分に、デューイの哲学から近代芸術における「機能―美学的完成」へ補助線をひいているくだりがある。	NO_PRONOUNCE	NO_LABEL
ランドが「デザインについて」で押し進めた思想のひとつは、ぼやけたり損傷した後でも認識されるようなグラフィック作品を制作することであった。	NO_PRONOUNCE	NO_LABEL
ランドはコーポレートアイデンティティを制作する際はこのことをひとつの基準に据えていた。	らんどわこーぽれーとあいでんてぃてぃをせいさくするさいわこのことをひとつのきじゅんにすえていた。	NO_LABEL
ランドの最初の本に対して同業者は賛辞を贈ったが、それに続く1996年の『ラスコーからブルックリンへ』は「デザインの新しい潮流に対して反動的で敵対的になっている」という批判を受けることになった。	NO_PRONOUNCE	NO_LABEL
スティーヴン・ヘラーは「凡庸さに敵対する根源的なモダニスト」と呼んでランドの後期の思想を支持したが、一方でフェーヴァーマンはこの時期を「反動的な怒れる老年」を呼んでいる。	NO_PRONOUNCE	NO_LABEL
こうした批判はあるものの、グラフィック・デザイン理論へのランドの貢献はこの職能の発展にとって本質的な進展をもたらしたと広く認められている。	NO_PRONOUNCE	NO_LABEL
ランドの経歴を通じて核となってきた思想、そして結果的に長い影響力を残すこととなった思想は、彼自身も重きを置いていた現代主義の哲学である。	らんどのけいれきをつーじてかくとなってきたしそー、そしてけっかてきにながいえいきょーりょくをのこすこととなったしそーわ、かれじしんもおもきをおいていたげんだいしゅぎのてつがくである。	NO_LABEL
ランドはポール・セザンヌからヤン・チヒョルトに至までの作品群を賞賛し、つねに彼らの創造とグラフィック・デザインへの展開を架橋しようと試みてきた。	NO_PRONOUNCE	NO_LABEL
『デザイナーの技芸』の中で、ランドはそのつながりについて明確に述べている：	NO_PRONOUNCE	NO_LABEL
この「日常を異化する」という、一般にロシアのフォルマリズム批評家ヴィクトル・シクロフスキーは帰せられるストラテジーは、ランドのデザインの規準にとって大きな意味を持っていた。	NO_PRONOUNCE	NO_LABEL
たとえば電球のようなありふれた製品のために、コーポレートアイデンティティを用いて「生き生きとして独自な」包装をデザインする、というようなウェスティングハウス社の課題はその典型的な例である。	NO_PRONOUNCE	NO_LABEL
これまでに挙げた理論書に加えて、妻のアンとともに娘のために絵本を制作している。	これまでにあげたりろんしょにくわえて、つまのあんとともにむすめのためにえほんをせいさくしている。	NO_LABEL
"I Know a Lot of Things"、"Listen! Listen!"、"Little 1"など代表作は邦訳を含めて各国語に訳され、親しまれている。	NO_PRONOUNCE	NO_LABEL
