ミルトン・エリクソンは、催眠療法家として知られる精神科医、心理学者。	みるとんえりくそんわ、さいみんりょうほーかとしてしられるせいしんかい、しんりがくしゃ。	NO_LABEL
の創始者で、初代会長も勤めた。	のそーししゃで、しょだいかいちょーもつとめた。	NO_LABEL
アメリカ精神医学会、アメリカ心理学会、などのメンバー。	あめりかせいしんいがくかい、あめりかしんりがっかい、などのめんばー。	NO_LABEL
晩年は催眠の臨床性・実践性向上のため、精力的にワークショップを開き世界各国を行脚した。	NO_PRONOUNCE	NO_LABEL
にもかかわらず、日本への訪問は3度目のポリオ発病のため、ついにかなわなかった。	にもかかわらず、にっぽんえのほーもんわさんどめのぽりおはつびょーのため、ついにかなわなかった。	NO_LABEL
そのため、日本人で彼の教えを受けた人間は高石昇、柴田出など数少ない。	そのため、にっぽんじんでかれのおしえをうけたにんげんわたかいしのぼる、しばたいずるなどかずすくない。	NO_LABEL
精神療法にしばしば斬新な手法を用いた事で知られる。	せいしんりょーほーにしばしばざんしんなしゅほーをもちいたことでしられる。	NO_LABEL
「治療に抵抗するクライエントなどいない。	NO_PRONOUNCE	NO_LABEL
柔軟性にかけるセラピストがいるだけだ」。	NO_PRONOUNCE	NO_LABEL
この言葉に端的に表されるように、彼の技法は「ユーティライゼーション」を旨とした、臨機応変・変化自在なもので、その名人芸は「アンコモン・セラピー」、「魔術師」と呼ばれる。	NO_PRONOUNCE	NO_LABEL
クライエントごとに異なるアプローチをすべきという信念から、自らは技法の体系化は好まなかった。	くらいえんとごとにことなるあぷろーちをすべきとゆうしんねんから、みずからわぎほーのたいけいかわこのまなかった。	NO_LABEL
しかし、エリクソンの影響を受けた弟子や共同研究者たちは、それぞれ独自の治療技法を構築し、総称して短期療法と呼ばれる一派を形成した。	しかし、えりくそんのえいきょーをうけたでしやきょーどーけんきゅうしゃたちわ、それぞれどくじのちりょーぎほーをこーちくし、そーしょーしてたんきりょーほーとよばれるいっぱをけいせいした。	NO_LABEL
とくに家族療法への影響は大きく、グレゴリー・ベイトソンのダブル・バインド理論は彼あってのものである。	とくにかぞくりょうほーえのえいきょーわおーきく、ぐれごりーべいとそんのだぶるばいんどりろんわかれあってのものである。	NO_LABEL
彼は極めて重篤な身体障害に悩まされていた。	かれわきわめてしげあつなしんたいしょーがいになやまされていた。	NO_LABEL
その中には	そのなかにわ	NO_LABEL
が含まれる。	がふくまれる。	NO_LABEL
特にポリオにより、17歳の時に目を除く全身が麻痺した事は彼に重大な影響を及ぼした。	とくにぽりおにより、じゅうななさいのときにめをのぞくぜんしんがまひしたことわかれにじゅーだいなえいきょーをおよぼした。	NO_LABEL
一つには、回復するまでの退屈しのぎとして自分の家族を観察した事である。	ひとつにわ、かいふくするまでのたいくつしのぎとしてじぶんのかぞくをかんさつしたことである。	NO_LABEL
この観察の中で彼は言葉の‘ダブルテイク’、‘トリプルテイク’の発見や、言葉の命令的側面や幼児の身体的発達過程への理解、そして何より彼の伝説的な観察力を獲得した。	NO_PRONOUNCE	NO_LABEL
さらに失音楽症は彼が話し相手の呼吸や抑揚に意識的な注意を向ける事を可能にし、これは後に彼が催眠を独習する時に大きな利点となった。	さらにしつおんがくしょーわかれがはなしあいてのこきゅーやよくよーにいしきてきなちゅーいをむけることをかのーにし、これわごにかれがさいみんをどくしゅーするときにおーきなりてんとなった。	NO_LABEL
彼は精神医学も催眠も独学であった。	かれわせいしんいがくもさいみんもどくがくであった。	NO_LABEL
彼は大学で医学教育を受けたが、当時の米国では適切な精神医学の教育は殆ど受けられず、又、催眠もきちんとしたカリキュラムがなかったからである。	かれわだいがくでいがくきょーいくをうけたが、とーじのべいこくでわてきせつなせいしんいがくのきょーいくわほとんどうけられず、また、さいみんもきちんとしたかりきゅらむがなかったからである。	NO_LABEL
その結果、彼は自分独自の技法を次々に開発していく事となった。	そのけっか、かれわじぶんどくじのぎほーをつぎつぎにかいはつしていくこととなった。	NO_LABEL
彼は大学時代にのべ2000人以上に催眠実験を行ったと言われる。	かれわだいがくじだいにのべにせんにんいじょーにさいみんじっけんをおこなったといわれる。	NO_LABEL
彼の催眠技法は非常に広汎かつ独特なもので概説は困難であるが、その根本にある考え方は催眠はコミュニケーションの1つだというものであった。	かれのさいみんぎほーわひじょーにこーはんかつどくとくなものでがいせつわこんなんであるが、そのこんぽんにあるかんがえかたわさいみんわこみゅにけーしょんのひとつだとゆうものであった。	NO_LABEL
そこで、彼は自分が気づいたダブルテイクや、言葉の命令的側面、呼吸や抑揚に関する理解などを催眠誘導に持ち込む事で、催眠誘導を非常に巧みに行った。	そこで、かれわじぶんがきずいただぶるていくや、ことばのめいれいてきそくめん、こきゅーやよくよーにかんするりかいなどをさいみんゆーどーにもちこむことで、さいみんゆーどーをひじょーにたくみにいった。	NO_LABEL
又、普通の会話と催眠誘導の境界を曖昧にした。	また、ふつーのかいわとさいみんゆーどーのきょーかいをあいまいにした。	NO_LABEL
つまり、普通の会話の中で自由に催眠誘導と行き来した。	つまり、ふつーのかいわのなかでじゆーにさいみんゆーどーといききした。	NO_LABEL
従来の催眠とは大きく異なるため、エリクソンのそれは現代催眠、エリクソン催眠と呼んで区別するのが一般的である。	じゅーらいのさいみんとわおーきくことなるため、えりくそんのそれわげんだいさいみん、えりくそんさいみんとよんでくべつするのがいっぱんてきである。	NO_LABEL
