中山 周平は、日本の理科教育者。	なかやましゅーへいわ、にっぽんのりかきょーいくしゃ。	NO_LABEL
神奈川県生まれ。	かながわけんうまれ。	NO_LABEL
1935年、東京府立青山師範学校卒。	せんきゅうひゃくさんじゅうごねん、とーきょーふりつあおやましはんがっこーそつ。	NO_LABEL
東京の小学校教師、世田谷区立用賀小学校校長。	とーきょーのしょーがっこーきょーし、せたがやくりつよーがしょうがっこーこーちょー。	NO_LABEL
没後従六位。	ぼつごじゅろくい。	NO_LABEL
