フランコ・アウトリは、イタリア出身の指揮者。	ふらんこあうとりわ、いたりあしゅっしんのしきしゃ。	NO_LABEL
ナポリの生まれ。	なぽりのうまれ。	NO_LABEL
ピエトロ・マスカーニとリッカルド・ザンドナーイの薫陶を受け、ヴェネツィアやカターニアなどイタリア各地の歌劇場で研鑽を積んだ。	NO_PRONOUNCE	NO_LABEL
1928年に渡米し、シカゴ市民オペラの指揮者、ダラス交響楽団への客演、ニューヨークの連邦音楽プロジェクトへの参加を経て、1937年から1945年までバッファロー・フィルハーモニー管弦楽団の音楽監督を務めた。	せんきゅうひゃくにじゅうはちねんにとべいし、しかごしみんおぺらのしきしゃ、だらすこーきょーがくだんえのきゃくえん、にゅーよーくのれんぽーおんがくぷろじぇくとえのさんかをへて、せんきゅうひゃくさんじゅうななねからせんきゅうひゃくよんじゅうごねんまでばっふぁろーふぃるはーもにーかんげんがくだんのおんがくかんとくをつとめた。	NO_LABEL
1945年から1953年までニューヨークのシャトークア交響楽団の首席指揮者を務めたが、1949年からニューヨーク・フィルハーモニック交響楽団の準指揮者も兼任し、1959年までその任に当たった。	せんきゅうひゃくよんじゅうごねんからせんきゅうひゃくごじゅうさんねんまでにゅーよーくのしゃとーくあこーきょーがくだんのしゅせきしきしゃをつとめたが、せんきゅうひゃくよんじゅうきゅうねんからにゅーよーくふぃるはーもにっくこーきょーがくだんのじゅんしきしゃもけんにんし、せんきゅうひゃくごじゅうきゅうねんまでそのにんにあたった。	NO_LABEL
1961年から1971年まではタルサ・フィルハーモニー管弦楽団の首席指揮者を務めていた。	NO_PRONOUNCE	NO_LABEL
1990年10月16日にアメリカ合衆国オクラホマ州のタルサにて没した。	せんきゅうひゃくきゅうじゅうねんじゅーがつじゅうろくにちにあめりかがっしゅーこくおくらほましゅーのたるさにてぼっした。	NO_LABEL
