高野 成雄11月7日 -　没年不明）は、明治・大正時代の養蚕術研究家。	NO_PRONOUNCE	NO_LABEL
北信成蚕社を創始し、長野県における近代養蚕業の功労者とされる。	きたのぶなりかいこしゃをそーしし、ながのけんにおけるきんだいよーさんぎょーのこーろーしゃとされる。	NO_LABEL
1877年11月7日、高野直作の長男として長野県上水内郡柳里村8番地に生まれる。	せんはっぴゃくななじゅうななねんじゅーいちがつなのか、たかのなおさくのちょーなんとしてながのけんかみみのちぐんやなぎさとむらはちばんちにうまれる。	NO_LABEL
母は寺島洲の姉・駒。	NO_PRONOUNCE	NO_LABEL
当時長野県の養蚕は古典的な手法に頼ったものが多く、時として、蚕が病気に罹り全滅してしまうことがあり、養蚕家が多額の負債を抱えて破産してしまうことがあった。	とーじながのけんのよーさんわこてんてきなしゅほーにたよったものがおーく、ときとして、かいこがびょーきにかかりぜんめつしてしまうことがあり、よーさんかがたがくのふさいをかかえてはさんしてしまうことがあった。	NO_LABEL
高野はそんな養蚕家の実情を見て、養蚕家のリスクを近代的な科学を用いて回避することを願い、養蚕学を修めることを望む。	たかのわそんなよーさんかのじつじょーをみて、よーさんかのりすくをきんだいてきなかがくをもちいてかいひすることをねがい、よーさんがくをおさめることをのぞむ。	NO_LABEL
蚕業学校を卒業ののち、埼玉県競進社伝習所で『氣象與養蠶』を著した浪江梯三に師事し養蚕学を修めた。	NO_PRONOUNCE	NO_LABEL
その後、蚕業学校の教授となり養蚕術を講じる。	そのご、さんぎょーがっこーのきょーじゅとなりよーさんじゅつをこーじる。	NO_LABEL
故郷の高岡村柳里に戻り、自ら養蚕を実践。	こきょーのたかおかむらやなぎさとにもどり、みずからよーさんをじっせん。	NO_LABEL
「養蚕家懇親会」を催し、この席上で「長野県下の蚕業改良の志」を述べ、創立委員に、寺島渉、丸山高治、村松伝次らを招聘し郷友26名からなる「養蚕改良組合」を組織した。	NO_PRONOUNCE	NO_LABEL
1902年9月20日、「養蚕改良組合」を「養蚕改良信蚕社」と改称し、近代的養蚕術の普及に努めた。	NO_PRONOUNCE	NO_LABEL
高野の提唱した飼育法の改良により、「養蚕改良信蚕社」発足の数年後には社員全員が未曾有の大豊作を得て、その評判は近隣に知れ渡り、長野県北部地域における養蚕事業発展を見るに至った。	NO_PRONOUNCE	NO_LABEL
1909年2月25日、『養蚕実験真説』を著す。	NO_PRONOUNCE	NO_LABEL
1918年、『養蚕実験真説』を再版し、さらに増補改良を重ねる。	NO_PRONOUNCE	NO_LABEL
1929年、「理想的飼育法高野式箱飼普及会」を組織し、『理想的飼育法高野式箱飼育詳説』を著す。	NO_PRONOUNCE	NO_LABEL
高野家の祖は、長野県上水内郡の牟礼宿本陣を営んだ高野家の分家で、柳里村の中宿を本拠とした。	たかのけのそわ、ながのけんかみみのちぐんのむれじゅくほんじんをいとなんだたかのけのぶんけで、やなぎさとむらのなかじゅくをほんきょとした。	NO_LABEL
