アベリストウィスは、イギリス・ウェールズのプリンシパル・エリアのケレディジョンにあるタウンである。	NO_PRONOUNCE	NO_LABEL
ウェールズの西海岸沿いのタウンで、ケレディジョンの行政上の中心である。	うぇーるずのにしかいがんぞいのたうんで、けれでぃじょんのぎょーせいじょーのちゅーしんである。	NO_LABEL
1872年に大学が創設されて以降、アベリストウィスは、ウェールズの主要な教育拠点であり続けた。	せんはっぴゃくななじゅうにねんにだいがくがそーせつされていこー、あべりすとうぃすわ、うぇーるずのしゅよーなきょーいくきょてんでありつずけた。	NO_LABEL
2001年の国勢調査では、タウンの人口は15,935人であった。	NO_PRONOUNCE	NO_LABEL
1年のうちの9ヶ月間は、学生の流入があり、2012年9月においては、全体で10,400人の流入があった。	NO_PRONOUNCE	NO_LABEL
しかし、家族がアベリストウィス以外に住んでいる生徒数をカウントした信頼できる数字は無い。	しかし、かぞくがあべりすとうぃすいがいにすんでいるせいとすーをかうんとしたしんらいできるすーじわない。	NO_LABEL
アベリストウィスは、地理的に孤立したタウンで、タウンから最も近い居住エリアは、南方向へ車で1時間45分以上かかる110km離れたスウォンジである。	あべりすとうぃすわ、ちりてきにこりつしたたうんで、たうんからもっともちかいきょじゅーえりあわ、みなみほーこーえくるまでいちじかんよんじゅうごふんいじょーかかるひゃくじゅうきろめーとるはなれたすうぉんじである。	NO_LABEL
東に120km行くとシュロップシャーのシュールズベリー、約130km北東に行くとレクサムの町がある。	ひがしにひゃくにじゅうきろめーとるいくとしゅろっぷしゃーのしゅーるずべりー、やくひゃくさんじゅうきろめーとるほくとーにいくとれくさむのまちがある。	NO_LABEL
北端にあるコンスティテューション・ヒルにて、ケーブルカーが運行されている。	NO_PRONOUNCE	NO_LABEL
