中井 和哉は、日本の男性声優、ナレーター。	なかいかずやわ、にっぽんのだんせいせいゆー、なれーたー。	NO_LABEL
青二プロダクション所属。	あおにぷろだくしょんしょぞく。	NO_LABEL
兵庫県出身。	ひょーごけんしゅっしん。	NO_LABEL
血液型はA型。	けつえきがたわえーがた。	NO_LABEL
代表作は『銀魂』、『ONE PIECE』、『戦国BASARAシリーズ』などがある。	NO_PRONOUNCE	NO_LABEL
青二塾大阪校第11期卒。	あおにじゅくおーさかこーだいじゅういっきそつ。	NO_LABEL
声優になる前は地方公務員として働いており、特技の「測量」はその時代に身に付けたものである。	NO_PRONOUNCE	NO_LABEL
「このまま公務員として一生を終えるんだろうか」という思いを抱き、働きながら土日などの休日を使い青二塾へ通う。	NO_PRONOUNCE	NO_LABEL
1995年にテレビアニメ『空想科学世界ガリバーボーイ』でデビュー。	NO_PRONOUNCE	NO_LABEL
デビュー後すぐ、『機動新世紀ガンダムX』のウィッツ・スーなどを担当。	NO_PRONOUNCE	NO_LABEL
その後もナレーションの勉強を続けていたが、『ONE PIECE』のロロノア・ゾロへの抜擢をきっかけに、アニメやゲームの声優として活躍するようになった。	NO_PRONOUNCE	NO_LABEL
現在ではアニメーションのほかに情報・報道番組などを中心に多くのナレーションを担当している。	NO_PRONOUNCE	NO_LABEL
2011年、第5回声優アワードにて「助演男優賞」を受賞。	NO_PRONOUNCE	NO_LABEL
趣味はドライブ。	しゅみわどらいぶ。	NO_LABEL
特技は測量、アーチェリー。	とくぎわそくりょー、あーちぇりー。	NO_LABEL
漫画家のみずしな孝之のファンである。	まんがかのみずしなたかゆきのふぁんである。	NO_LABEL
剣士や侍など刀を扱うキャラクターを演じる機会が多いが、本人は先端恐怖症である。	けんしやさむらいなどかたなをあつかうきゃらくたーをえんじるきかいがおーいが、ほんにんわせんたんきょうふしょーである。	NO_LABEL
『ONE PIECE』53巻のSBS声優コーナーでは、かしわ餅が好きと公言。	NO_PRONOUNCE	NO_LABEL
役柄については様々なものを演じてみたいと考えており、やったことのない意外な役との出会いを求めている。	やくがらについてわさまざまなものをえんじてみたいとかんがえており、やったことのないいがいなやくとのであいをもとめている。	NO_LABEL
福山潤は、青二塾大阪校時代からの後輩。	ふくやまじゅんわ、あおにじゅくおーさかこーじだいからのこーはい。	NO_LABEL
『ONE PIECE』のオーディションに備え原作を読んだ時、「絶対ゾロをやりたい」と思い、実際にゾロ役に決まったところ本人は喜んだが、妻はサンジの方が良かったことから少々不満そうだった。	NO_PRONOUNCE	NO_LABEL
後に中井本人は「サンジは声のイメージ的なものを含めて自分にはできなかったと思う」と話している。	NO_PRONOUNCE	NO_LABEL
共演者の平田広明からは「中井きゅん」と呼ばれている。	NO_PRONOUNCE	NO_LABEL
スーパー戦隊シリーズでは『特捜戦隊デカレンジャー』『炎神戦隊ゴーオンジャー』『宇宙戦隊キュウレンジャー』にレギュラー出演している。	NO_PRONOUNCE	NO_LABEL
『デカレンジャー』では稲田徹がヒーロー役を演じたことを羨ましく思っており、『キュウレンジャー』でヒーロー役となったことにとても喜びを感じていた。	NO_PRONOUNCE	NO_LABEL
『アッコにおまかせ!』では主にナレーションを務めている。	NO_PRONOUNCE	NO_LABEL
犬は忠実だからとの理由で元々犬派だったが、犬の散歩中に子猫を拾い、飼い始めてから猫が可愛く溺愛している。	いぬわちゅーじつだからとのりゆーでもともといぬはだったが、いぬのさんぽちゅーにこねこをひろい、かいはじめてからねこがかわいくできあいしている。	NO_LABEL
太字はメインキャラクター。	ふとじわめいんきゃらくたー。	NO_LABEL
現在放送中	げんざいほーそーちゅー	NO_LABEL
過去	かこ	NO_LABEL
