機動戦士ガンダム 逆襲のシャアの登場人物では、アニメ映画『機動戦士ガンダム 逆襲のシャア』に登場する架空の人物を列挙する。	NO_PRONOUNCE	NO_LABEL
本項では映画脚本の初期稿を元にした小説をはじめとする『機動戦士ガンダム 逆襲のシャア ベルトーチカ・チルドレン』、および前日譚を加えたノベライズ作品『機動戦士ガンダム ハイ・ストリーマー』に登場する人物についても解説する。	NO_PRONOUNCE	NO_LABEL
以下の人物は各項目を参照。	いかのじんぶつわかくこーもくをさんしょー。	NO_LABEL
声 - 安達忍	NO_PRONOUNCE	NO_LABEL
地球連邦軍MSパイロット、階級は中尉でジェガン部隊隊長。	ちきゅーれんぽーぐんえむえすぱいろっと、かいきゅーわちゅーいでじぇがんぶたいたいちょー。	NO_LABEL
アムロ指揮下のモビルスーツ隊で先鋒をつとめていた。	あむろしきかのもびるすーつたいでせんぽーをつとめていた。	NO_LABEL
戦闘での勇敢さと優しさを持ち合わせた女性で、チーフメカニックであるアストナージと恋人同士であった。	せんとーでのゆーかんさとやさしさをもちあわせたじょせいで、ちーふめかにっくであるあすとなーじとこいびとどーしであった。	NO_LABEL
ジェガンに搭乗していたが、アムロがνガンダムに搭乗してからは、リ・ガズィを譲り受けた。	じぇがんにとーじょーしていたが、あむろがにゅーがんだむにとーじょーしてからわ、りがずぃをゆずりうけた。	NO_LABEL
戦場でギュネイに囚われて人質となり、ネオ・ジオンタイプのファンネルしか知らないギュネイがフィン・ファンネルを放熱板と勘違いし激昂する、抵抗しないよう勧告されていたにも関わらず調整不足のフィン・ファンネルが突如防御行動に動いたなど不幸が重なり、アムロの目の前でヤクト・ドーガに握りつぶされ非業の死をとげる。	NO_PRONOUNCE	NO_LABEL
出撃前にしていた「アストナージとサラダを一緒に食べる」約束も果たせずじまいとなった。	NO_PRONOUNCE	NO_LABEL
声 - 弥生みつき/ 折笠富美子	NO_PRONOUNCE	NO_LABEL
地球連邦軍の技術士官で階級は准尉、メカニックマンも務めておりνガンダムの開発プロジェクトで主導人物的な立場にある。	ちきゅーれんぽーぐんのぎじゅつしかんでかいきゅーわじゅんい、めかにっくまんもつとめておりにゅーがんだむのかいはつぷろじぇくとでしゅどーじんぶつてきなたちばにある。	NO_LABEL
開発のサポートのためにアナハイム・エレクトロニクス社のフォン・ブラウン工場へと出向する。	かいはつのさぽーとのためにあなはいむえれくとろにくすしゃのふぉんぶらうんこーじょーえとしゅっこーする。	NO_LABEL
次第にアムロとは惹かれ合い恋人関係になっていき、公私にわたってサポートする。	しだいにあむろとわひかれあいこいびとかんけいになっていき、こーしにわたってさぽーとする。	NO_LABEL
クェスにとっては嫌な女に映っていたようで、彼女がネオ・ジオンへと走る一因となる。	NO_PRONOUNCE	NO_LABEL
サイコフレームの試料の力もあり、ラー・カイラムの砲座の機銃でレズンのギラ・ドーガを撃墜する戦果を上げる。	さいこふれーむのしりょーのちからもあり、らーかいらむのほーざのきじゅーでれずんのぎらどーがをげきついするせんかをあげる。	NO_LABEL
終盤では、現場にMSの数が足りないとの声を聞き、サイコフレームの数が多い方がアムロに有利であるとの理由から、戦場の真っ只中にいるであろうアムロの元へサイコフレームの試料を届けるため、メイン・エンジンの一つだけを修理した半壊したままのリ・ガズィに搭乗し、アストナージの制止も聞かず無理矢理戦場に出撃する。	NO_PRONOUNCE	NO_LABEL
その時にチェーンを静止しようとしたアストナージは機体から弾き出され出撃カタパルトに敵の攻撃が直撃して戦死した。	そのときにちぇーんをせいししようとしたあすとなーじわきたいからはじきだされしゅつげきかたぱるとにてきのこーげきがちょくげきしてせんしした。	NO_LABEL
戦場では、ハサウェイがクェスを説得している最中にタイミング悪く出くわしてしまい、危うくジェガンに乗るハサウェイを撃墜しそうになりながらもクェスのα・アジールを撃墜することに成功した。	せんじょーでわ、はさうぇいがくぇすをせっとくしているさいちゅーにたいみんぐわるくでくわしてしまい、あやうくじぇがんにのるはさうぇいをげきついしそーになりながらもくぇすのあるぱあじーるをげきついすることにせいこーした。	NO_LABEL
だが、説得の中断を余儀なくされ、クェスを殺された事に激昂したハサウェイは、ジェガンのビーム・ライフルを乱射、リ・ガズィのコックピットにライフルが直撃しチェーンは戦死した。	NO_PRONOUNCE	NO_LABEL
この際に宇宙を漂流することになったサイコフレームの試料はチェーンの固い意思を引き継ぎ、戦場に集う人々の意識が繋ぎ合わされ、ついには地球に落下しつつ有るアクシズを引き戻すほどの力を発揮した。	このさいにうちゅーをひょーりゅーすることになったさいこふれーむのしりょーわちぇーんのかたいいしをひきつぎ、せんじょーにつどうひとびとのいしきがつなぎあわされ、ついにわちきゅーにらっかしつつあるあくしずをひきもどすほどのちからをはっきした。	NO_LABEL
脚本の第一稿ではアムロの恋人役は『機動戦士Ζガンダム』と同様ベルトーチカ・イルマで継続する予定だったが、スポンサーである『ガンダム映画化委員会』の意見により富野がこの案をボツにした為、新しく恋人役としてチェーンが登場することになった。	NO_PRONOUNCE	NO_LABEL
初期稿を元にした小説『ベルトーチカ・チルドレン』ではチェーンは登場しない。	NO_PRONOUNCE	NO_LABEL
アニメージュに連載された『ハイ・ストリーマー』に加筆した小説『機動戦士ガンダム 逆襲のシャア』ではアムロとの出会いも描かれている。	NO_PRONOUNCE	NO_LABEL
チェーンによるνガンダムの図面がアムロの脳内イメージに合致するデザインのため驚かせたが、その直前の会話でアムロが仕上げた改造MSリ・ガズィを「ホビーであり、努力は認めるが悪あがきです」と扱き下ろし、その辛辣で素直すぎる反応はアムロがチェーンを内心嫌いになろうとすることを決意させ、二人が恋人関係になる兆候は見られなかった。	NO_PRONOUNCE	NO_LABEL
しかし、彼女の献身的な性格にアムロは魅かれていった。	しかし、かのじょのけんしんてきなせいかくにあむろわみかれていった。	NO_LABEL
本来なら聞いてはいけないのだが、サイコミュの増幅したデータを解析する際にアムロの記憶のなかにいるアリョーナ・ペイジの存在に気付き、嫉妬心から恋人か？と訊ねるが、アムロはそれを否定しチェーンへの愛情は変わる事はなく部屋の電気を消して二人はキスした。	NO_PRONOUNCE	NO_LABEL
『機動戦士ガンダムUC 虹に乗れなかった男』では、ハサウェイはシャアの反乱後一ヶ月経った後も口を聞ける状態ではない、ラー・カイラムクルーが意図的にハサウェイの戦闘記録を抹消した、ハサウェイの搭乗したジェガンは元々電装系が故障しておりフライト・レコーダーも作動していなかったなど複数の要因が重なり、ブライトを査問委員会に招集した連邦上層部でさえ実態を掴んでおらず、チェーンとクェスの死の真相は明らかになっていない。	NO_PRONOUNCE	NO_LABEL
声 - 戸谷公次	NO_PRONOUNCE	NO_LABEL
ラー・カイラムの操艦士。	らーかいらむのそーかんし。	NO_LABEL
声 - 石塚運昇	NO_PRONOUNCE	NO_LABEL
ラー・カイラムの副艦長。	らーかいらむのふくかんちょー。	NO_LABEL
ハサウェイの遺書を受け取った。	はさうぇいのいしょをうけとった。	NO_LABEL
小説およびOVA『機動戦士ガンダムUC』にも登場しており、ラー・カイラムの副艦長を続けている様子が描かれている。	NO_PRONOUNCE	NO_LABEL
以下の人物は各項目を参照。	いかのじんぶつわかくこーもくをさんしょー。	NO_LABEL
声 - 村松康雄	NO_PRONOUNCE	NO_LABEL
文官。	ぶんかん。	NO_LABEL
シャアの政治・外交面の参謀役。	NO_PRONOUNCE	NO_LABEL
ギュネイの強化の程度を懸念している。	ぎゅねいのきょーかのていどをけねんしている。	NO_LABEL
漫画『機動戦士ガンダム C.D.A. 若き彗星の肖像』では、ジオン独立同盟の党首として登場。	NO_PRONOUNCE	NO_LABEL
旧知の間柄であるマハラジャ・カーンを通じ、シャア・アズナブルに対しジオン・ズム・ダイクンの遺志を継いで決起するように働きかける。	NO_PRONOUNCE	NO_LABEL
声 - 山寺宏一/ 松本保典	NO_PRONOUNCE	NO_LABEL
ナナイが所長を務めるニュータイプ研究所出身の強化人間で階級は少尉。	なないがしょちょーをつとめるにゅーたいぷけんきゅーじょしゅっしんのきょーかにんげんでかいきゅーわしょーい。	NO_LABEL
戦艦レウルーラに乗り組んでいるヤクト・ドーガのパイロット。	せんかんれうるーらにのりくんでいるやくとどーがのぱいろっと。	NO_LABEL
ロンド・ベルの本拠地であるロンデニオンではシャアの護衛を務め、MSマニアを装いホビー・ハイザックでシャアの送迎も行った。	NO_PRONOUNCE	NO_LABEL
切れ者のエリートだがナイーブな一面もあり、多感な性格。	きれもののえりーとだがないーぶないちめんもあり、たかんなせいかく。	NO_LABEL
従来の強化人間と異なり落ち着いた振る舞いを見せ、頭痛などに苦しめられる様子もないが、その一方で度重なる強化、調整の結果として、「自分が死ぬことはないマシーンである」という自信過剰で自分の生死に無頓着な一面も現れており、劇中ではフィフス・ルナ戦後カイザスに過度な強化に対する懸念がされている。	NO_PRONOUNCE	NO_LABEL
ナナイによれば、強化処置はあくまでも心理的な擦り込み操作を第一、薬物による神経反射作用の促進は第二であるという。	なないによれば、きょーかしょちわあくまでもしんりてきなこすりこみそーさをだいいち、やくぶつによるしんけいはんしゃさよーのそくしんわだいにであるという。	NO_LABEL
クェスに当初は迷惑していた素振りを見せていたが、初心者とは思えないヤクト・ドーガの試験飛行の習熟度、ファンネルを上手く使うこと等を目にし、ニュータイプとしての彼女に惹かれ、密かな恋心を抱くようになっていく。	くぇすにとーしょわめいわくしていたそぶりをみせていたが、しょしんしゃとわおもえないやくとどーがのしけんひこーのしゅーじゅくど、ふぁんねるをうまくつかうこととーをめにし、にゅーたいぷとしてのかのじょにひかれ、ひそかなこいごころをいだくよーになっていく。	NO_LABEL
ギュネイ自身は、周囲から強化人間ではなくニュータイプとして認められたいという願望を抱いており、クェスとの出会いによって本物のニュータイプに対する羨望や嫉妬を芽生えさせることになっていく。	ぎゅねいじしんわ、しゅーいからきょーかにんげんでわなくにゅーたいぷとしてみとめられたいとゆうがんぼーをだいており、くぇすとのであいによってほんもののにゅーたいぷにたいするせんぼーやしっとをめばえさせることになっていく。	NO_LABEL
出身は人口1万5千の島一号タイプの出身。	NO_PRONOUNCE	NO_LABEL
一年戦争の際のコロニー潰しによりサイド4の両親を失いそれっきり外宇宙暮らしだった。	NO_PRONOUNCE	NO_LABEL
そんな過去の影響から、シャアが道を誤った際には自分がそれを止める立場になろうとクェスの前では見栄を張っていた。	そんなかこのえいきょーから、しゃーがみちをあやまったさいにわじぶんがそれをとめるたちばになろうとくぇすのまえでわみえをはっていた。	NO_LABEL
しかしクェスはシャアに夢中で、ギュネイのアプローチに全く応えなかった。	しかしくぇすわしゃーにむちゅーで、ぎゅねいのあぷろーちにまったくこたえなかった。	NO_LABEL
シャアがクェスの才能を利用しようとしていることに対しては不快感を示しており、自分がアムロを倒すことによってシャアを超える男になり、クェスの心を自分のものにしたいという野心に突き動かされるようになっていった。	しゃーがくぇすのさいのーをりよーしようとしていることにたいしてわふかいかんをしめしており、じぶんがあむろをたおすことによってしゃーをこえるおとこになり、くぇすのこころをじぶんのものにしたいとゆうやしんにつきうごかされるよーになっていった。	NO_LABEL
戦闘ではクェスと一緒に出撃する際は常に実戦に不慣れなクェスを援護して戦っていた。	せんとーでわくぇすといっしょにしゅつげきするさいわつねにじっせんにふなれなくぇすをえんごしてたたかっていた。	NO_LABEL
アクシズを狙った核ミサイルによる攻撃には、熱量の一番高いミサイルを狙うようファンネルに命令することで全て撃ち落としシャアに「あれが強化人間の仕事だ」と言わせるほどの活躍を見せた。	NO_PRONOUNCE	NO_LABEL
前線に突出してきたケーラを捕らえ人質として利用することでアムロにガンダムを放棄するよう勧告を行った。	ぜんせんにとっしゅつしてきたけーらをとらえひとじちとしてりよーすることであむろにがんだむをほーきするよーかんこくをおこなった。	NO_LABEL
νガンダムを手に入れられればシャアを倒しクェスを手に入れられる男になるのを夢見ていたからである。	にゅーがんだむをてにいれられればしゃーをたおしくぇすをてにいれられるおとこになるのをゆめみていたからである。	NO_LABEL
アムロは素直に要求に従い武装放棄を行ったものの、その行動はギュネイを激昂させる。	あむろわすなおによーきゅーにしたがいぶそーほーきをおこなったものの、そのこーどーわぎゅねいをげっこーさせる。	NO_LABEL
なぜなら、ネオ・ジオンのファンネルは円筒形のものであって、νガンダムに装備されていたフィン・ファンネルのようなものは知らないものが見れば放熱板にしか見えなかったからである。	NO_PRONOUNCE	NO_LABEL
フィン・ファンネルの誤作動により抵抗したと思い込み結局ケーラを殺害してしまったことでνガンダムを鹵獲する作戦は失敗、ギュネイは撤退した。	NO_PRONOUNCE	NO_LABEL
ギュネイはなまじ勘が良く、目がいい分余計な物に意識を走らせてしまうという特徴があり、フィフス・ルナではアムロがパージしたリ・ガズィのBWSに一瞬気を取られている。	NO_PRONOUNCE	NO_LABEL
また、小説『機動戦士ガンダム 逆襲のシャア ベルトーチカチルドレン』の方ではこの特徴が顕著であり、一秒近く射撃できるようにして放されたリ・ガズィのビーム・ライフルに一瞬目を奪われた隙をつかれビーム・サーベルの直撃を受ける所だった。	NO_PRONOUNCE	NO_LABEL
三度目となるνガンダムとの戦いでは上述の弱点をアムロに突かれ戦死することになる。	さんどめとなるにゅーがんだむとのたたかいでわじょーじゅつのじゃくてんをあむろにつかれせんしすることになる。	NO_LABEL
クェスのα・アジールを助ける為死角から攻撃をしかけたものの、手放されたνガンダムのバズーカの発射口に気を取られてしまい、その隙をビーム・ライフルで狙撃され機体の後部が爆発、呆気なく戦死する。	NO_PRONOUNCE	NO_LABEL
その最期は、映画の主要登場人物らしからぬあっさりとした形で描写された。	そのさいごわ、えいがのしゅよーとーじょーじんぶつらしからぬあっさりとしたがたでびょーしゃされた。	NO_LABEL
初期設定では「グラーブ・ガス」という名前が設定されており、映画の第一稿がモチーフの小説『ベルトーチカ・チルドレン』ではこの名前で登場する。	NO_PRONOUNCE	NO_LABEL
同作での乗機はサイコ・ドーガ。	NO_PRONOUNCE	NO_LABEL
こちらでの最期はベルトーチカの乗ったリ・ガズィと戦い、視覚のなかでベルトーチカのお腹の中の胎児のイメージが収縮していくイメージを感じ取りながら、バズーカ・ランチャーの最後の一発によりグラーブの生の存在は消滅した。	NO_PRONOUNCE	NO_LABEL
さびしうろあき著の漫画『逆襲のシャア ベルトーチカ・チルドレン』では原作小説同様「温かいな」と呟きながら安らかな死に顔で消滅した。	NO_PRONOUNCE	NO_LABEL
小説『機動戦士ガンダム 逆襲のシャア』での最期は、νガンダムのフィン・ファンネルのバリアーを無理矢理突破しながらビーム・サーベルで攻撃を仕掛けた時に、バリアー内でガンダムのビーム・サーベルで受け取められたせいでサーベルの干渉波が爆発的に外のバリアーをも歪め膨張、それはギュネイ機にしてみれば第二波の直撃と同等だった。	NO_PRONOUNCE	NO_LABEL
装甲が前部分から溶けていき、ギュネイ機のメイン・エンジンは爆発、ギュネイは戦死した。	NO_PRONOUNCE	NO_LABEL
声 - 川村万梨阿/ 荘真由美	NO_PRONOUNCE	NO_LABEL
13歳の少女。	じゅうさんさいのしょーじょ。	NO_LABEL
髪型を左右で長さの異なるツインテールにしている。	かみがたをさゆーでながさのことなるついんてーるにしている。	NO_LABEL
アデナウアーの娘で民間人だが、ニュータイプの資質を持ち、作中では敵味方の陣営を転々とする。	あでなうあーのむすめでみんかんじんだが、にゅーたいぷのししつをもち、さくちゅーでわてきみかたのじんえいをてんてんとする。	NO_LABEL
感受性が強く、他人の心情を敏感に読み取ったり、相手が自分に対してこの先どのように関わってくるかを予見することができるという鋭い直感力を持つ一方、そうした振る舞いが彼女を情緒不安定で奇異な存在に見せている。	かんじゅせいがつよく、たにんのしんじょーをびんかんによみとったり、あいてがじぶんにたいしてこのさきどのよーにかかわってくるかをよけんすることができるとゆうするどいちょっかんりょくをもついっぽー、そーしたふるまいがかのじょをじょーちょふあんていできいなそんざいにみせている。	NO_LABEL
感情の起伏が激しく、浅薄で、周囲の状況を考えることができずに自分勝手な行動をとってしまったり、思ったことを包み隠さずに口にしてしまったりするような短所を持つ。	かんじょーのきふくがはげしく、せんばくで、しゅーいのじょーきょーをかんがえることができずにじぶんがってなこーどーをとってしまったり、おもったことをつつみかくさずにくちにしてしまったりするよーなたんしょをもつ。	NO_LABEL
作中では複雑な人間関係を演じ、ハサウェイ、ギュネイの2人から異性としての好意を寄せられるものの、その内面は愛のない家庭で育ったことによって傷つき、父親の愛情に飢えており、アムロやシャアに父親的なものを求め、またチェーンやナナイには激しい嫉妬を向ける。	さくちゅーでわふくざつなにんげんかんけいをえんじ、はさうぇい、ぎゅねいのふたりからいせいとしてのこーいをよせられるものの、そのないめんわあいのないかていでそだったことによってきずつき、ちちおやのあいじょーにうえており、あむろやしゃーにちちおやてきなものをもとめ、またちぇーんやなないにわはげしいしっとをむける。	NO_LABEL
地球生まれの地球育ちだが、誰もがニュータイプになれれば人は分かり合えるという考えを持ち、かつて不和を抱える家から家出をしてインドのクリスティーナという女性のもとでニュータイプになるための修行をしていた経験を持つ。	ちきゅーうまれのちきゅーそだちだが、だれもがにゅーたいぷになれればひとわわかりあえるとゆうかんがえをもち、かつてふわをかかえるいえからいえでをしていんどのくりすてぃーなとゆうじょせいのもとでにゅーたいぷになるためのしゅぎょーをしていたけいけんをもつ。	NO_LABEL
第二次ネオ・ジオン抗争の始まった頃に父の依頼を受けたマンハンターによって修行から連れ戻され、父と共に旧ホンコンの宇宙港から宇宙へと上がり、相席したハサウェイと知り合うが、この際に自分たちの搭乗するシャトルが落下中の5thルナとニアミスすることを予知している。	NO_PRONOUNCE	NO_LABEL
宇宙ではロンド・ベルに身を寄せ、ニュータイプであるアムロやモビルスーツの操縦について興味を持つようになるが、次第に自分が周囲から冷遇されていると感じるようになり、チェーンとアムロの関係を察した際には彼女と衝突し、自分はアムロの傍にはいられないと感じるようになる。	うちゅーでわろんどべるにみをよせ、にゅーたいぷであるあむろやもびるすーつのそーじゅーについてきょーみをもつよーになるが、しだいにじぶんがしゅーいかられいぐーされているとかんじるよーになり、ちぇーんとあむろのかんけいをさっしたさいにわかのじょとしょーとつし、じぶんわあむろのはたにわいられないとかんじるよーになる。	NO_LABEL
その後サイド1のコロニー・ロンデニオンでシャアと出会い、アムロとシャアが格闘するのを目撃したクェスは、シャアの味方をして彼を助け、彼の誘いに応じてネオ・ジオン側へと身を寄せる。	NO_PRONOUNCE	NO_LABEL
クェスはシャアが掲げる思想や自分と同じような孤独感に共感し、同時に彼に対する独占欲を抱くが、しかしシャア自身はクェスのことを持て余し、優しく振る舞いつつも彼女を戦争の道具として扱うだけであった。	くぇすわしゃーがかかげるしそーやじぶんとおなじよーなこどくかんにきょーかんし、どーじにかれにたいするどくせんよくをいだくが、しかししゃーじしんわくぇすのことをもてあまし、やさしくふるまいつつもかのじょをせんそーのどーぐとしてあつかうだけであった。	NO_LABEL
このことはクェスに恋心を寄せるギュネイの反発を招くが、クェス自身は、自分がシャアからそのように扱われていることには気がつかなかった。	このことわくぇすにこいごころをよせるぎゅねいのはんぱつをまねくが、くぇすじしんわ、じぶんがしゃーからそのよーにあつかわれていることにわきがつかなかった。	NO_LABEL
ニュータイプ研究所で心理的な刷り込みや訓練を受け、ファンネルを使いこなすなど非凡な才能を見せ、ニュータイプ専用機ヤクト・ドーガやα・アジールの性能を発揮していく。	にゅーたいぷけんきゅーじょでしんりてきなすりこみやくんれんをうけ、ふぁんねるをつかいこなすなどひぼんなさいのーをみせ、にゅーたいぷせんよーきやくとどーがやあるぱあじーるのせいのーをはっきしていく。	NO_LABEL
一方で初陣となるルナツーでは、自らが攻撃した巡洋艦のブリッジに父アデナウアーがいたことに気付かないまま父親を手にかけることになり、それを期に感情のバランスを失っていく。	いっぽーでういじんとなるるなつーでわ、みずからがこーげきしたじゅんよーかんのぶりっじにちちあでなうあーがいたことにきずかないままちちおやをてにかけることになり、それをきにかんじょーのばらんすをうしなっていく。	NO_LABEL
地球がなくなれば人は誰もがニュータイプとなって分かり合えるというシャアの思想を信じ、地球連邦軍を相手に戦い続けるが、最終的には戦場で彼女を慕うハサウェイと再会し身を挺した説得を受けるもそれを拒み、彼女の存在を危険と感じたチェーンの攻撃によってα・アジールもろとも撃墜され、戦死した。	ちきゅーがなくなればひとわだれもがにゅーたいぷとなってわかりあえるとゆうしゃーのしそーをしんじ、ちきゅーれんぽーぐんをあいてにたたかいつずけるが、さいしゅーてきにわせんじょーでかのじょをしたうはさうぇいとさいかいしみをていしたせっとくをうけるもそれをこばみ、かのじょのそんざいをきけんとかんじたちぇーんのこーげきによってあるぱあじーるもろともげきついされ、せんしした。	NO_LABEL
クェスが死の間際にとった行動は、チェーンからの攻撃にハサウェイを巻き込むまいと遠ざけ、彼を助けようとするものであった。	くぇすがしのまぎわにとったこーどーわ、ちぇーんからのこーげきにはさうぇいをまきこむまいととーざけ、かれをたすけようとするものであった。	NO_LABEL
クェスの最期を挟んだ一連の場面は、大義ではなく個人レベルの行き違いが悲劇の連鎖となっていく展開となっており、映画における見せ場のひとつとして構成されている。	くぇすのさいごをはさんだいちれんのばめんわ、たいぎでわなくこじんれべるのいきちがいがひげきのれんさとなっていくてんかいとなっており、えいがにおけるみせばのひとつとしてこーせいされている。	NO_LABEL
また、クェスが求め続けていた父親を得られなかったことは、映画の終盤におけるアムロとシャアの最期の会話でも触れられることになる。	また、くぇすがもとめつずけていたちちおやをえられなかったことわ、えいがのしゅーばんにおけるあむろとしゃーのさいごのかいわでもふれられることになる。	NO_LABEL
初期設定では「クェス・エア」という名前で、本編劇中にもネオ・ジオンにおいて彼女が地球連邦政府高官の娘であることを隠すためにこの名を偽名として用いる場面がある。	NO_PRONOUNCE	NO_LABEL
本来の姓である「パラヤ」は、彼女が修行を積んだインドのカースト制における不可触民、パライヤールからとられているとのこと。	NO_PRONOUNCE	NO_LABEL
不可触民とはカーストの階層外の者を示す。	ふかさわみんとわかーすとのかいそーがいのものをしめす。	NO_LABEL
作中におけるクェスの立ち位置は、『機動戦士Ζガンダム』の主人公カミーユ・ビダンを意識したものであるといい、カミーユ同様に当時の大人から見た若者像が反映されているといわれる。	NO_PRONOUNCE	NO_LABEL
映画でクェス役を演じた川村は、その性格がネガティブに受け取られないよう注意して演じたが、そのエキセントリックな人物像はファンの間で否定的な評価も寄せられたといわれ、賛否が分かれた。	えいがでくぇすやくをえんじたかわむらわ、そのせいかくがねがてぃぶにうけとられないよーちゅーいしてえんじたが、そのえきせんとりっくなじんぶつぞーわふぁんのまでひていてきなひょーかもよせられたといわれ、さんぴがわかれた。	NO_LABEL
キャラクターデザインを担当した北爪は、クェスが作中で最も手間がかかったキャラクターであるとしており、監督の富野が思い描くイメージを把握するまで何度も手直しを重ねたという。	きゃらくたーでざいんをたんとーしたきたずめわ、くぇすがさくちゅーでもっともてまがかかったきゃらくたーであるとしており、かんとくのとみのがおもいえがくいめーじをはあくするまでなんどもてなおしをかさねたという。	NO_LABEL
小説『ベルトーチカ・チルドレン』では、ネオ・ジオンに身を寄せた直後からα・アジールを乗機として与えられるほか、その最期の経緯が映画版と異なっている。	NO_PRONOUNCE	NO_LABEL
同作ではジェガンに乗ったハサウェイが、アムロを助けようとしてを発射しそれがたまたまα・アジールの操縦席に直撃した事で、クェスを殺害してしまう結果となっており、この出来事が同作の続編『閃光のハサウェイ』へと尾を引くことになる。	NO_PRONOUNCE	NO_LABEL
一方で後年製作されたOVA『GUNDAM EVOLVE 5』では映画や小説とも異なる展開が描かれ、小説とは逆にクェスがハサウェイの乗機を撃墜してしまうものの、アムロによって諭され、辛うじて生存していたハサウェイを救出するという結末が描かれている。	NO_PRONOUNCE	NO_LABEL
声 - 榊原良子	NO_PRONOUNCE	NO_LABEL
ネオ・ジオンのニュータイプ研究所所長にして戦術士官。	ねおじおんのにゅーたいぷけんきゅーじょしょちょーにしてせんじゅつしかん。	NO_LABEL
階級は大尉。	かいきゅーわたいい。	NO_LABEL
シャアを盲目的に慕っており、軍事では参謀として、私的な場では恋人として、彼を公私にわたってサポートする。	しゃーをもーもくてきにしたっており、ぐんじでわさんぼーとして、してきなばでわこいびととして、かれをこーしにわたってさぽーとする。	NO_LABEL
軍人としては部下に厳格な面を見せていたが、自由奔放でシャアのことを慕うクェス・パラヤとは折り合いが悪く、多少の嫉妬も抱いており、何かとクェスをかまうシャアに苛立ちを見せることもあった。	ぐんじんとしてわぶかにげんかくなめんをみせていたが、じゆーほんぽーでしゃーのことをしたうくぇすぱらやとわおりあいがわるく、たしょーのしっともだいており、なにかとくぇすをかまうしゃあにいらだちをみせることもあった。	NO_LABEL
本人はパイロットとして戦場には出ないものの、彼女自身もニュータイプらしき素質があるところが垣間見える場面があり、戦場でサザビーを駆るシャアの行動や感情を強く感知し、把握していた。	ほんにんわぱいろっととしてせんじょーにわでないものの、かのじょじしんもにゅーたいぷらしきそしつがあるところがかいまみえるばめんがあり、せんじょーでさざびーをかるしゃーのこーどーやかんじょーをつよくかんちし、はあくしていた。	NO_LABEL
戦局の終盤では、シャアが死に急ごうとしているように感じたのか、不安の入り混じった思念を送るが、アムロとの決着に没入するシャアに「男同士の間に入るな」と一蹴されてしまう。	NO_PRONOUNCE	NO_LABEL
そして、地球に落下するアクシズを包むサイコフレームの光の渦の中にあるシャアが大気圏の摩擦熱で消滅したと思われた瞬間、シャアの命が尽きたと感じたのか号泣する。	そして、ちきゅーにらっかするあくしずをつつむさいこふれーむのひかりのうずのなかにあるしゃーがたいきけんのまさつねつでしょーめつしたとおもわれたしゅんかん、しゃーのいのちがつきたとかんじたのかごーきゅーする。	NO_LABEL
総監督の富野由悠季曰く、「シャアが抱きついても恥ずかしくない女」というイメージを創るのに苦労したそうである。	NO_PRONOUNCE	NO_LABEL
『機動戦士Vガンダム』に登場する主人公ウッソ・エヴィンの母親ミューラ・ミゲルとの血縁関係を取り沙汰され、ウッソがシャアの末裔ではないかという指摘もあったが、後に富野監督から否定されている。	NO_PRONOUNCE	NO_LABEL
小説『ベルトーチカ・チルドレン』では、「メスタ・メスア」という名前で登場し、カセットブック版の声優もナナイと同じく榊原良子である。	NO_PRONOUNCE	NO_LABEL
彼女の父親はジオンとの繋がりを疑われ、過酷な仕事に追いやられてそのまま死んでしまったという過去を持つ。	かのじょのちちおやわじおんとのつながりをうたがわれ、かこくなしごとにおいやられてそのまましんでしまったとゆうかこをもつ。	NO_LABEL
ナナイの過去を描いた作品もいくつか存在している。	なないのかこをえがいたさくひんもいくつかそんざいしている。	NO_LABEL
漫画『機動戦士ガンダム C.D.A. 若き彗星の肖像』では、兄ジョルジョ・ミゲルと共にジオン独立同盟の活動員として登場。	NO_PRONOUNCE	NO_LABEL
フラナガン機関の研究を引継いだサイド3仮施設にて研究員として携わり、ナナイ自身も過去にニュータイプ訓練を受けている。	ふらながんきかんのけんきゅーをひきついださいどすりーかりしせつにてけんきゅーいんとしてたずさわり、なないじしんもかこににゅーたいぷくんれんをうけている。	NO_LABEL
宇宙世紀0084年以降は連邦軍のニュータイプ施設の優良研修生となった。	NO_PRONOUNCE	NO_LABEL
劇場版Ζガンダム基軸の漫画『機動戦士Ζガンダム デイアフタートゥモロー ―カイ・シデンのレポートより―』では、ティターンズの配下にあったニュータイプ研究所で研究生として登場。	NO_PRONOUNCE	NO_LABEL
ローレン・ナカモトと共にカラバへ投降している。	NO_PRONOUNCE	NO_LABEL
漫画『機動戦士ガンダム 逆襲のシャア BEYOND THE TIME』では、第一次ネオ・ジオン抗争後は民間のサイコミュ研究所を装いニュータイプ研究を続けており、その成果としてサイコフレームを開発し試作品を完成させていた。	NO_PRONOUNCE	NO_LABEL
その後サイコフレーム技術を求めるシャアと再会し、ネオ・ジオンに所属した。	そのごさいこふれーむぎじゅつをもとめるしゃーとさいかいし、ねおじおんにしょぞくした。	NO_LABEL
映画の後の消息は不明だが、漫画『機動戦士ガンダム 逆襲のシャア BEYOND THE TIME』では、スウィートウォーターで隠棲している。	NO_PRONOUNCE	NO_LABEL
書籍『ガンダムMSグラフィカ』では、宇宙世紀0095年にナナイの遺品を引き取りにきた母と思われる老女が登場している。	NO_PRONOUNCE	NO_LABEL
声 - 池田勝	NO_PRONOUNCE	NO_LABEL
文官。	ぶんかん。	NO_LABEL
カイザスと共に政治・外交面の参謀役。	NO_PRONOUNCE	NO_LABEL
生粋のジオニストで、ジオンの再興を願っている。	きっすいのじおにすとで、じおんのさいこーをねがっている。	NO_LABEL
連邦政府とアクシズ買収の折衝を行った。	れんぽーせいふとあくしずばいしゅーのせっしょーをおこなった。	NO_LABEL
OVA『機動戦士ガンダム0083 STARDUST MEMORY』では、アクシズの高官として登場し、漫画『機動戦士ガンダムΖΖ外伝 ジオンの幻陽』ではザビ家信奉派として描かれた。	NO_PRONOUNCE	NO_LABEL
これらは本来「アクシズの高官B」というキャラクターであったが、現在の解説本ではホルスト本人として扱われている。	NO_PRONOUNCE	NO_LABEL
漫画『機動戦士ガンダム MSV-R ジョニー・ライデンの帰還』は映画の以前の年代の話で、ネオ・ジオンの文官として登場。	NO_PRONOUNCE	NO_LABEL
一年戦争時点からジオン軍の軍政を担当していたとされる。	いちねんせんそーじてんからじおんぐんのぐんせいをたんとーしていたとされる。	NO_LABEL
元ジオン軍のエースパイロットらからは「性質の悪い軍閥官僚オヤジ」と評されている。	NO_PRONOUNCE	NO_LABEL
声 - 曽我部和恭/ 斉藤次郎	NO_PRONOUNCE	NO_LABEL
レウルーラの艦長。	れうるーらのかんちょー。	NO_LABEL
階級は中佐。	かいきゅーわちゅーさ。	NO_LABEL
声 - 伊倉一恵	NO_PRONOUNCE	NO_LABEL
新生ネオ・ジオンのモビルスーツ隊長で階級は少尉。	しんせいねおじおんのもびるすーつたいちょーでかいきゅーわしょーい。	NO_LABEL
男勝りの女性で、青いカスタムカラーのギラ・ドーガを駆り、戦場に入れば好き勝手にやっていた。	おとこまさりのじょせいで、あおいかすたむからーのぎらどーがをかり、せんじょーにはいればすきかってにやっていた。	NO_LABEL
寄り合い的な部隊をまとめ上げるカリスマ的なエースパイロットであり<ref name="HG1/144ギラ・ドーガ"></ref>、劇中ではケーラのジェガンを圧倒するなどの活躍も見せているが、一方で自分がニュータイプではないことに対する劣等感や卑屈さから、強化人間やニュータイプに対する対抗意識を抱いており、ギュネイやクェスに対しては辛辣な態度で接する。	NO_PRONOUNCE	NO_LABEL
シャアの陽動作戦に参加した際、ラー・カイラムの対空砲火に乗機を撃墜され死亡する。	しゃーのよーどーさくせんにさんかしたさい、らーかいらむのたいくーほーかにじょーきをげきついされしぼーする。	NO_LABEL
このときレズンを撃墜したのは、映画ではサイコフレームの試料を所持したチェーンで、小説『ベルトーチカ・チルドレン』では赤子の声に導かれたベルトーチカであった。	NO_PRONOUNCE	NO_LABEL
以下の人物は各項目を参照。	いかのじんぶつわかくこーもくをさんしょー。	NO_LABEL
声 - 嶋俊介/ 中多和宏	NO_PRONOUNCE	NO_LABEL
地球連邦政府の参謀次官。	ちきゅーれんぽーせいふのさんぼーじかん。	NO_LABEL
政府の密命を受けており、ロンド・ベルを相手にせず、ネオ･ジオンとの和平交渉を進めようとする。	NO_PRONOUNCE	NO_LABEL
典型的なアースノイドであり、地球のこと以外は顧みようとしない。	てんけいてきなあーすのいどであり、ちきゅーのこといがいわかえりみようとしない。	NO_LABEL
小説『ベルトーチカ・チルドレン』でも、虚栄心は強いが皮肉を投げかけられても気が付かないような人物として描写されている。	NO_PRONOUNCE	NO_LABEL
クェスの父親だが、彼女が父親の愛情に飢えていたのに対し、アデナウアーは家庭を顧みない利己的な人物であり、クェスからは軽蔑されている。	くぇすのちちおやだが、かのじょがちちおやのあいじょーにうえていたのにたいし、あでなうあーわかていをかえりみないりこてきなじんぶつであり、くぇすからわけいべつされている。	NO_LABEL
小説『ベルトーチカ・チルドレン』によれば、本妻は家を出て宇宙移民となっており現在は音信不通とされ、クェスからは愛人がアデナウアーから実母を奪ったと思われていることが描写されている。	NO_PRONOUNCE	NO_LABEL
宇宙に上がろうとした際には愛人キャサリンが同行していたが、クェスの同行を嫌った彼女とは宇宙空港で喧嘩別れしてしまい、このときに空いた席を居合わせたハサウェイに譲ったことが、ハサウェイとクェスを引き合わせることになる。	うちゅーにあがろうとしたさいにわあいじんきゃさりんがどーこーしていたが、くぇすのどーこーをきらったかのじょとわうちゅーくーこーでけんかわかれしてしまい、このときにあいたせきをいあわせたはさうぇいにゆずったことが、はさうぇいとくぇすをひきあわせることになる。	NO_LABEL
シャアの真意には気がつかないまま、ネオ・ジオンのアクシズ落としに利用される形で交渉を進め、最終的にはネオ・ジオンの武装解除という名目で立ち会ったルナツーにおいて、乗艦していたクラップのブリッジに攻撃を受け死亡する。	しゃーのしんいにわきがつかないまま、ねおじおんのあくしずおとしにりよーされるかたちでこーしょーをすすめ、さいしゅーてきにわねおじおんのぶそーかいじょとゆうめいもくでたちあったるなつーにおいて、じょーかんしていたくらっぷのぶりっじにこーげきをうけしぼーする。	NO_LABEL
このとき艦を攻撃したヤクト・ドーガを操縦していた人物は、ネオ･ジオンのパイロットとなっていた娘クェスであったが、アデナウアーがそのことに気がつくことはなかった。	NO_PRONOUNCE	NO_LABEL
本編では冒頭で名前が挙がるのみ。	ほんぺんでわぼーとーでなまえがあがるのみ。	NO_LABEL
ミライ等のために宇宙行きの航空券を取っており、紹介状の名義人となっている。	みらいとーのためにうちゅーいきのこーくーけんをとっており、しょーかいじょーのめいぎじんとなっている。	NO_LABEL
またアデナウアーにもなんらかの貸しを作っていたらしい表現がなされており、アデナウアーがシャトルの席をハサウェイに譲る理由として、バウアーへの「借り」に言及する場面がある。	NO_PRONOUNCE	NO_LABEL
ロンド・ベルの創設に関わった政治家であると設定されており、後に『機動戦士ガンダムUC』にも登場する。	NO_PRONOUNCE	NO_LABEL
以下の人物は各項目を参照。	いかのじんぶつわかくこーもくをさんしょー。	NO_LABEL
声 - 牛山茂	NO_PRONOUNCE	NO_LABEL
アナハイム・エレクトロニクス社の技術部主任技師。	あなはいむえれくとろにくすしゃのぎじゅつぶしゅにんぎし。	NO_LABEL
νガンダムの開発に携わっている。	にゅーがんだむのかいはつにたずさわっている。	NO_LABEL
サイコフレームの出所をチェーンに知らせる。	さいこふれーむのしゅっしょをちぇーんにしらせる。	NO_LABEL
以下の人物は各項目を参照。	いかのじんぶつわかくこーもくをさんしょー。	NO_LABEL
妊娠3か月未満の胎児であり、まだ名前は授かっていない。	にんしんさんかげつみまんのたいじであり、まだなまえわさずかっていない。	NO_LABEL
クェスはベルトーチカ自身が気がつくより先にその妊娠を言い当てており、このことはクェスがアムロに対する興味を失わせる動機にもなった。	くぇすわべるとーちかじしんがきがつくよりさきにそのにんしんをいーあてており、このことわくぇすがあむろにたいするきょーみをうしなわせるどーきにもなった。	NO_LABEL
アムロは最期の出撃の直前に妊娠のことを知らされ父親としての自覚を得て、宿敵シャア・アズナブルとの決戦に向け決意を改めるのだったが、その後生まれてくる子供の顔を見ることなく行方不明になってしまう。	あむろわさいごのしゅつげきのちょくぜんににんしんのことをしらされちちおやとしてのじかくをえて、しゅくてきしゃああずなぶるとのけっせんにむけけついをあらためるのだったが、そのごうまれてくるこどものかおをみることなくおもかたしれずになってしまう。	NO_LABEL
胎児であるが、意識ははっきりあるようであり、劇中ではベルトーチカの事をママ、マミー、中国語の『お母さん』に似た音で呼んでおり、ベルトーチカ以外にもアムロ、クェス、グラーブはその声を戦場で聞いている。	NO_PRONOUNCE	NO_LABEL
ベルトーチカの胎内からニュータイプ能力で超常現象を度々起こしており、ベルトーチカの発射したラー・カイラムの曳光弾をギラ・ドーガに直撃させる、ベルトーチカの搭乗したリ・ガズィに直撃するはずだったサイコ・ドーガのライフルを弾くと同時に胎児のイメージをグラーブに強制的に見せる、アムロの乗ったνガンダムの周囲にオーロラの光に似たバリアーを発生させ襲いかかるナイチンゲールのファンネルとビームを防ぐ、ガンダムから白い光の壁を起こしアクシズの針路を変更させるなど。	NO_PRONOUNCE	NO_LABEL
小説版および劇場版『機動戦士ガンダム 逆襲のシャア』では、上記の現象はチェーン・アギが装備していた試料用サイコ・フレームが引き起こしたことに変更された。	NO_PRONOUNCE	NO_LABEL
『ガンダム映画化委員会』からの「映画でアムロの結婚した姿を見たくはない」という意見に応えた為、ベルトーチカともども劇場用アニメでは登場していない。	NO_PRONOUNCE	NO_LABEL
代わりにアムロのパートナーはチェーンに変更された。	かわりにあむろのぱーとなーわちぇーんにへんこーされた。	NO_LABEL
