デサチュラーゼは、炭化水素鎖から2個の水素原子を除去する酵素で、炭素-炭素二重結合を生成する。	NO_PRONOUNCE	NO_LABEL
不飽和化酵素とも。	ふほーわかこーそとも。	NO_LABEL
デサチュラーゼは以下のように分類される。	でさちゅらーぜわいかのよーにぶんるいされる。	NO_LABEL
必須脂肪酸の生合成では、エロンガーゼがいくつかの異なるデサチュラーゼとともに繰り返しエチル基を挿入し、二重結合を形成していく。	ひっすしぼーさんのせいごーせいでわ、えろんがーぜがいくつかのことなるでさちゅらーぜとともにくりかえしえちるきをそーにゅーし、にじゅうけつごーをけいせいしていく。	NO_LABEL
ヒトにはΔデサチュラーゼ、Δデサチュラーゼ、Δデサチュラーゼ、の3種が存在する。	ひとにわでるたでさちゅらーぜ、でるたでさちゅらーぜ、でるたでさちゅらーぜ、のさんしゅがそんざいする。	NO_LABEL
ΔとΔデサチュラーゼ生産のための遺伝コードは11番染色体に位置している。	でるたとでるたでさちゅらーぜせいさんのためのいでんこーどわじゅういちばんせんしょくたいにいちしている。	NO_LABEL
ステアロイルCoA 9-デサチュラーゼとして知られるΔデサチュラーゼは、人体の全細胞の至る所に存在し、一価不飽和のオレイン酸の合成に使われる。	NO_PRONOUNCE	NO_LABEL
Δデサチュラーゼは、体内でパルミチン酸から合成されたか外部から直接摂取されたステアリン酸を不飽和化することによってオレイン酸を合成する。	でるたでさちゅらーぜわ、たいないでぱるみちんさんからごーせいされたかがいぶからちょくせつせっしゅされたすてありんさんをふほーわかすることによっておれいんさんをごーせいする。	NO_LABEL
融点69.9℃のステアリン酸が融点16.3℃のオレイン酸に変換されることにより、体温下での脂肪酸又は脂肪としての液体の性状を保つ。	NO_PRONOUNCE	NO_LABEL
Δデサチュラーゼは、リノレオイルCoAデサチュラーゼとも呼ばれ、必須脂肪酸である18:2のリノール酸のΔの位置に不飽和結合を作ることにより18:3のγ-リノレン酸を合成する。	NO_PRONOUNCE	NO_LABEL
γ-リノレン酸は炭素2個分伸張されて20:3のジホモ-γ-リノレン酸を生成し、これがΔデサチュラーゼによりジホモ-γ-リノレン酸のΔの位置に不飽和結合を作ることにより20:4のアラキドン酸を合成する。	NO_PRONOUNCE	NO_LABEL
Δデサチュラーゼは必須脂肪酸である18:3のα-リノレン酸のΔの位置に不飽和結合を作り炭素2個伸張して20:4エイコサテトラエン酸を合成する。	NO_PRONOUNCE	NO_LABEL
エイコサテトラエン酸はΔデサチュラーゼにより20:5エイコサペンタエン酸を合成する。	NO_PRONOUNCE	NO_LABEL
エイコサペンタエン酸は22:6ドコサヘキサエン酸のような高度不飽和脂肪酸の合成に必要とされる。	NO_PRONOUNCE	NO_LABEL
これは、エロンガーゼとデサチュラーゼによる連続的な反応を必要とする多段階過程である。	これわ、えろんがーぜとでさちゅらーぜによるれんぞくてきなはんのーをひつよーとするただんかいかていである。	NO_LABEL
ヒトでは、DHAは食品から摂取される以外に、2つの経路によって代謝生産される。	ひとでわ、でぃーえっちえーわしょくひんからせっしゅされるいがいに、ふたつのけいろによってたいしゃせいさんされる。	NO_LABEL
どちらもエイコサペンタエン酸からであるが、中間生成物が異なる。	どちらもえいこさぺんたえんさんからであるが、ちゅーかんせいせいぶつがことなる。	NO_LABEL
ひとつはエイコサペンタエン酸を原料とし、エロンガーゼによって2炭素増炭されドコサペンタエン酸22:5がつくられた後、Δ4-デサチュラーゼによって水素が引き抜かれて生成する過程である。	NO_PRONOUNCE	NO_LABEL
もうひとつの経路は、ペルオキシソームあるいはミトコンドリア中で進行すると考えられているもので、エイコサペンタエン酸が2回2炭素増炭されて24:5となった後、Δデサチュラーゼにより不飽和化されて24:6となり、その後β酸化によって炭素2個分が切断され22:6のDHAが生成する。	NO_PRONOUNCE	NO_LABEL
この経路は"Sprecher's shunt" として知られている。	NO_PRONOUNCE	NO_LABEL
植物中で、オレイン酸から、ω6位に二重結合を作るΔ12-脂肪酸デサチュラーゼ によりオレイン酸の二重結合が一個増えてリノール酸が生成され、ついでω3位に二重結合を作るΔ15-脂肪酸デサチュラーゼ によりリノール酸の二重結合が一個増えてα-リノレン酸が生成される。	NO_PRONOUNCE	NO_LABEL
動物の体内にはリノール酸もα-リノレン酸も作る酵素が存在しないので、これらの不飽和脂肪酸を必須脂肪酸として摂取しなければならない。	NO_PRONOUNCE	NO_LABEL
酸化還元酵素#EC.1.14.19.-を参照のこと。	NO_PRONOUNCE	NO_LABEL
