神の王国は、1世紀30年ごろパレスチナで活動したユダヤ人宗教家ナザレのイエスの宣教における最重要概念である。	かみのおーこくわ、いっせいきさんじゅうねんごろぱれすちなでかつどーしたゆだやじんしゅーきょーかなざれのいえすのせんきょーにおけるさいじゅーよーがいねんである。	NO_LABEL
この宗教概念はのちにイエスがキリスト教の開祖とされ、キリスト教が世界宗教となるに及んで、宗教、社会、政治などさまざまな分野に影響を与えた。	このしゅーきょーがいねんわのちにいえすがきりすときょーのかいそとされ、きりすときょーがせかいしゅうきょーとなるにおよんで、しゅーきょー、しゃかい、せいじなどさまざまなぶんやにえいきょーをあたえた。	NO_LABEL
日本語の訳語としては『口語訳聖書』や『新共同訳聖書』が採用している神の国が広く使われている。	NO_PRONOUNCE	NO_LABEL
岩波書店発行の佐藤研らが日本語訳した『新約聖書』では神の王国と訳されている。	NO_PRONOUNCE	NO_LABEL
『新約聖書』巻頭に所収の『マタイによる福音書』で頻出する用語、天国あるいは天の国は、『新約聖書』原文のギリシア語 の訳語で、他の『福音書』の神の国と同義である。	NO_PRONOUNCE	NO_LABEL
天国は『文語訳聖書』や『口語訳聖書』で使われている訳語で、天の国は『新共同訳聖書』で採用されている訳語である。	NO_PRONOUNCE	NO_LABEL
『新改訳聖書』は天の御国と訳していて、2017年発行の『聖書 新改訳2017』でも同じく天の御国と訳している。	NO_PRONOUNCE	NO_LABEL
岩波書店発行の佐藤研訳『マタイによる福音書』では天の王国と訳している。	NO_PRONOUNCE	NO_LABEL
他の日本語訳聖書の訳語については「マタイ福音書の比較」を参照。	NO_PRONOUNCE	NO_LABEL
マルティン・ルターは『ルター聖書』で Himmelreichと訳した。	NO_PRONOUNCE	NO_LABEL
英語訳では kingdom of heavenである。	NO_PRONOUNCE	NO_LABEL
神の国と天国が対応している箇所を見ると、例えばイエスの宣教開始の第一声が『マルコによる福音書』では「時は満ちた、神の国は近づいた。	NO_PRONOUNCE	NO_LABEL
悔い改めて福音を信ぜよ」であるのに対して、『マタイによる福音書』では「悔い改めよ、天国は近づいた」となっている。	NO_PRONOUNCE	NO_LABEL
この天国という表現・用語は『旧約聖書』『新約聖書』全巻をとおして『マタイによる福音書』のみで使われている。	NO_PRONOUNCE	NO_LABEL
その『マタイによる福音書』における使用回数は神の国の5か所に比して天国はその6倍以上の33か所である。	NO_PRONOUNCE	NO_LABEL
このように『マタイによる福音書』で天国が多用されるのは『マタイによる福音書』の記者が「「神」 のかわりに 「天」 という語を用いる当時のユダヤ人の言葉遣い」にほぼ従っているからである。	NO_PRONOUNCE	NO_LABEL
ヘブライ思想を淵源とする宗教概念あるいは観念「神の王国」とは「神が王として支配すること」「神の支配する領域」「神の王的支配」を意味する。	NO_PRONOUNCE	NO_LABEL
これは例えば『旧約聖書』所収の『詩篇』145篇13節「あなたの国はとこしえの国です。	NO_PRONOUNCE	NO_LABEL
あなたのまつりごとはよろずよに絶えることはありません。	あなたのまつりごとわよろずよにたえることわありません。	NO_LABEL
」といった箇所に見られるような観念にさかのぼることが出来る。	NO_PRONOUNCE	NO_LABEL
『マタイによる福音書』によれば、まず洗礼者ヨハネが「悔い改めよ。	NO_PRONOUNCE	NO_LABEL
天の国は近づいた」と宣教し、人々に洗礼を施す。	NO_PRONOUNCE	NO_LABEL
イエスはその洗礼者ヨハネから洗礼を受けて弟子になり、洗礼者ヨハネの逮捕後、独立して一人で宣教を開始する。	いえすわそのせんれいしゃよはねからせんれいをうけてでしになり、せんれいしゃよはねのたいほご、どくりつしてひとりでせんきょーをかいしする。	NO_LABEL
その第一声は洗礼者ヨハネと同じく「悔い改めよ。	NO_PRONOUNCE	NO_LABEL
天の国は近づいた」である。	NO_PRONOUNCE	NO_LABEL
洗礼者ヨハネは、1世紀のユダヤ人歴史家ヨセフスの『ユダヤ古代誌』で「大きな影響力」があったと言及されている人物である。	NO_PRONOUNCE	NO_LABEL
その洗礼者ヨハネが「わたしのあとから来る人はわたしよりも力のあるかた」と述べている。	NO_PRONOUNCE	NO_LABEL
これは、イエスが洗礼者ヨハネの元に来て洗礼を受けようとした際にイエスを「思いとどまらせようとして」「わたしこそ、あなたから洗礼を受けるべきなのに、あなたが、わたしのところへ来られたのですか。	NO_PRONOUNCE	NO_LABEL
」と述べている事から、「わたしよりも力のあるかた」とはイエスを指していると読み取れる。	NO_PRONOUNCE	NO_LABEL
『ヨハネによる福音書』の中では洗礼者ヨハネがイエスの事を指して「わたしよりもすぐれたかた」と言ったと明示的に書いてある。	NO_PRONOUNCE	NO_LABEL
しかし、ドイツの代表的新約聖書学者の一人は1969年初版の著書『新約聖書神学』で、「わたしよりも力のあるかた」について洗礼者ヨハネはイエスと名指ししてはいないと指摘している。	NO_PRONOUNCE	NO_LABEL
さらに洗礼者ヨハネが獄中から弟子を通して「『きたるべきかた』はあなたなのですか。	NO_PRONOUNCE	NO_LABEL
それとも、ほかにだれかを待つべきでしょうか」とイエスに尋ねることなどを勘案し、洗礼者ヨハネがイエスについて「神に遣わされた終末時の福音の使者である…という確信に至ったか否かは知り得ない。	NO_PRONOUNCE	NO_LABEL
」と結論している。	NO_PRONOUNCE	NO_LABEL
この11章3節について、1991年に日本基督教団出版局から出版された『新共同訳 新約聖書注解 1』で『マタイによる福音書』を担当・執筆した橋本磁男は、洗礼者ヨハネがイエスにつまずいたすなわち疑心を抱いたということを『マタイによる福音書』がほのめかしているという解釈を取り、洗礼者ヨハネはイエスをメシアと信じなかったことを示すと説明している。	NO_PRONOUNCE	NO_LABEL
一方イエスは、洗礼者ヨハネを「預言者以上の者」で「およそ女から生まれた者のうち、洗礼者ヨハネより偉大な者は現れなかった。	NO_PRONOUNCE	NO_LABEL
」と極めて高く評価する。	NO_PRONOUNCE	NO_LABEL
しかし続けて「天の国で最も小さな者でも、彼よりは偉大である。	NO_PRONOUNCE	NO_LABEL
」と付言する。	NO_PRONOUNCE	NO_LABEL
この付言は、イエスの刑死後イエスをメシアと信じた教団の立場から、『マタイによる福音書』の記者がイエスの語録資料に依ってイエスの言葉に付け加えたものである。	NO_PRONOUNCE	NO_LABEL
洗礼者ヨハネ出現以後の天の国については「彼が活動し始めたときから今に至るまで、天の国は力ずくで襲われており、激しく襲う者がそれを奪い取ろうとしている。	NO_PRONOUNCE	NO_LABEL
」とイエスは言う。	NO_PRONOUNCE	NO_LABEL
この「激しく襲う者」に関しては否定的あるいは肯定的等に解釈する説が主に4つある。	NO_PRONOUNCE	NO_LABEL
すなわち「激しく襲う者」とは、	NO_PRONOUNCE	NO_LABEL
他に伝統的には「この「暴力」を改心するときの激烈な衝動であると解した」ルター他による説がある。	NO_PRONOUNCE	NO_LABEL
各説によりその濃淡があるものの総じて洗礼者ヨハネ出現の影響力に関して『マタイによる福音書』は、洗礼者ヨハネの出現がユダヤ人社会の「天の国」概念に大きな影響を及ぼしたことを暗示している。	NO_PRONOUNCE	NO_LABEL
また、イエスが偽預言者について述べる場面で「良い実を結ばない木はみな、切り倒されて火に投げ込まれる。	NO_PRONOUNCE	NO_LABEL
」と、洗礼者ヨハネの言葉遣いをそのまま使っていることから分かるように、洗礼者ヨハネはイエスにその表現をも含めて影響を及ぼしたことが知られる。	NO_PRONOUNCE	NO_LABEL
イエスがいわゆる山上の垂訓を語った際には最初に「こころの貧しい人たちは、さいわいである、天国は彼らのものである。	NO_PRONOUNCE	NO_LABEL
」と語り始めた。	NO_PRONOUNCE	NO_LABEL
「義のために迫害されてきた人たちは、さいわいである、天国は彼らのものである。	NO_PRONOUNCE	NO_LABEL
」とも語った。	NO_PRONOUNCE	NO_LABEL
主の祈りについて教えた時には「御国がきますように」と祈るように教え、神の王国が来ることを待ち望むようにと教えた。	NO_PRONOUNCE	NO_LABEL
19世紀後半にアメリカで起こったキリスト教系の新宗派エホバの証人のいう神の王国は千年王国説に依るものである。	じゅうきゅうせいきこーはんにあめりかでおこったきりすときょーけいのしんしゅーはえほばのしょーにんのいうかみのおーこくわせんねんおーこくせつによるものである。	NO_LABEL
千年王国説は、ユダヤ教の終末論に由来し、キリスト教では『新約聖書』所収の『ヨハネ黙示録』第20章「千年間の支配」「サタンの敗北」「最後の裁き」がその主な根拠になっている。	NO_PRONOUNCE	NO_LABEL
