本多 貞次郎- 1937年2月26日）は、日本の武士、実業家、政治家。	NO_PRONOUNCE	NO_LABEL
工部省職員、京成電気軌道株式会社初代社長、千葉県議会議員、衆議院議員。	こーぶしょーしょくいん、けいせいでんききどーかぶしきがいしゃしょだいしゃちょー、ちばけんぎかいぎーん、しゅーぎーんぎーん。	NO_LABEL
武士の家に生まれ、鉄道の整備を行い東海道線の完成に貢献した。	ぶしのいえにうまれ、てつどーのせいびをおこないとーかいどーせんのかんせいにこーけんした。	NO_LABEL
京成電鉄の創業者であり、市川真間駅に記念碑が建てられている。	けいせいでんてつのそーぎょーしゃであり、いちかわままえきにきねんひがたてられている。	NO_LABEL
