清水厚は、日本の映画監督。	しみずあつしわ、にっぽんのえいがかんとく。	NO_LABEL
山梨県出身。	やまなしけんしゅっしん。	NO_LABEL
実相寺昭雄監督に師事し助監督として『ウルトラＱ･ザ･ムービー』『屋根裏の散歩者』等に参加。	NO_PRONOUNCE	NO_LABEL
1997年『ねらわれた学園』で劇場映画デビュー。	NO_PRONOUNCE	NO_LABEL
同年ＴＶシリーズ『エコエコアザラク』を演出。	NO_PRONOUNCE	NO_LABEL
以後映画『蛇女』を始め、日常に垣間見る非日常をモチーフに、狂気とノスタルジー漂う異世界を創り続けている幻想映画作家。	NO_PRONOUNCE	NO_LABEL
夏目漱石『ユメ十夜』『ナナとカオル』など。	NO_PRONOUNCE	NO_LABEL
