ダニーデン市長。	だにーでんしちょー。	NO_LABEL
単記移譲式投票により選出。	たんきいじょーしきとーひょーによりせんしゅつ。	NO_LABEL
任期は1915年まで1年、1935年まで2年、その後は3年。	にんきわせんきゅうひゃくじゅうごねんまでいちねん、せんきゅうひゃくさんじゅうごねんまでにねん、そのごわさんねん。	NO_LABEL
1917年に副市長が設立された。	せんきゅうひゃくじゅうしちねんにふくしちょーがせつりつされた。	NO_LABEL
