ラーレン。	らーれん。	NO_LABEL
"Het Gooi"と呼ばれる地域に属し、その中では最古の町である。	NO_PRONOUNCE	NO_LABEL
隣町のブラリクムとともにオランダでも最も裕福な町の１つでもある。	となりまちのぶらりくむとともにおらんだでももっともゆーふくなまちのひとつでもある。	NO_LABEL
オランダ国内では、20世紀後半の芸術植民地や、店が長距離にわたって並んでいることで知られる。	おらんだこくないでわ、にじっせいきこーはんのげいじゅつしょくみんちや、みせがちょーきょりにわたってならんでいることでしられる。	NO_LABEL
ジャン・ブラークマンの著書"ザ　ウォー　イン　ザ　コーナー　"の舞台でもある。	NO_PRONOUNCE	NO_LABEL
ラーレンの地元議会の議席は全部で１５議席あり、２０１０年以降の議席の状況は以下の通り：	NO_PRONOUNCE	NO_LABEL
