永安郡は、中国にかつて存在した郡。	えいあんぐんわ、ちゅーごくにかつてそんざいしたぐん。	NO_LABEL
南北朝時代から隋代にかけて、複数の永安郡が設置された。	なんぼくちょうじだいからずいだいにかけて、ふくすーのえいあんぐんがせっちされた。	NO_LABEL
南朝斉のとき、永安郡は雍州に属し、東安楽・新安・西安楽・労泉の4県を管轄した。	NO_PRONOUNCE	NO_LABEL
本節では、現在の山西省北部に設置された永安郡について述べる。	ほんぶしでわ、げんざいのさんせいしょーほくぶにせっちされたえいあんぐんについてのべる。	NO_LABEL
後漢の建安年間に新興郡が置かれた。	こーかんのけんあんねんかんにしぬんぐんがおかれた。	NO_LABEL
北魏の永安年間に永安郡と改称された。	ほくぎのながやすねんかんにえいあんぐんとかいしょーされた。	NO_LABEL
永安郡は肆州に属し、定襄・陽曲・平寇・蒲子・驢夷の5県を管轄した。	NO_PRONOUNCE	NO_LABEL
北斉のときに再び新興郡と改称された。	ほくせいのときにふたたびしぬんぐんとかいしょーされた。	NO_LABEL
本節では、現在の山西省霍州市一帯に設置された永安郡について述べる。	NO_PRONOUNCE	NO_LABEL
528年、永安郡が置かれた。	ごひゃくにじゅうはちねん、えいあんぐんがおかれた。	NO_LABEL
永安郡は晋州に属し、永安・楊の2県を管轄した。	NO_PRONOUNCE	NO_LABEL
583年、隋が郡制を廃すると、永安郡は廃止されて、晋州に編入された。	ごひゃくはちじゅうさんねん、ずいがぐんせいをはいすると、えいあんぐんわはいしされて、しんしゅーにへんにゅーされた。	NO_LABEL
東魏のとき、永安郡は湘州に属し、新城県1県を管轄した。	NO_PRONOUNCE	NO_LABEL
永安郡は西郢州に属し、永安・南新興の2県を管轄した。	NO_PRONOUNCE	NO_LABEL
永安郡は西郢州に属し、劉剛・上城の2県を管轄した。	NO_PRONOUNCE	NO_LABEL
本節では、現在の湖北省黄岡市浠水県一帯に設置された永安郡について述べる。	NO_PRONOUNCE	NO_LABEL
南朝梁のとき、浠水県に永安郡が置かれた。	NO_PRONOUNCE	NO_LABEL
北斉のとき、永安郡は雍州に属した。	ほくせいのとき、えいあんぐんわようしゅーにぞくした。	NO_LABEL
北周のとき、永安郡は蘄州に属した。	NO_PRONOUNCE	NO_LABEL
583年、隋が郡制を廃すると、永安郡は廃止されて、蘄州に編入された。	NO_PRONOUNCE	NO_LABEL
本節では、現在の湖北省黄岡市一帯に設置された永安郡について述べる。	ほんぶしでわ、げんざいのこほくしょーこうこうしいったいにせっちされたえいあんぐんについてのべる。	NO_LABEL
北斉のときに衡州が置かれ、南朝陳のときに廃止されたが、北周でまた置かれた。	ほくせいのときにはかるしゅーがおかれ、なんちょーちんのときにはいしされたが、きたあまねでまたおかれた。	NO_LABEL
585年、隋により衡州は黄州と改められた。	ごひゃくはちじゅうごねん、ずいによりはかるしゅーわこうしゅーとあらためられた。	NO_LABEL
607年に州が廃止されて郡が置かれると、黄州は永安郡と改称された。	ろっぴゃくななねんにしゅーがはいしされてぐんがおかれると、こうしゅーわえいあんぐんとかいしょーされた。	NO_LABEL
永安郡は黄岡・黄陂・木蘭・麻城の4県を管轄した。	NO_PRONOUNCE	NO_LABEL
620年、唐により永安郡は黄州と改められた。	ろっぴゃくにじゅうねん、とーによりえいあんぐんわこうしゅーとあらためられた。	NO_LABEL
