老街駅は中華人民共和国深圳市羅湖区に位置する深圳地下鉄1号線及び3号線の駅。	ろーがいえきわちゅーかじんみんきょーわこくしんせんしらこくにいちするしんせんちかてついちごーせんおよびさんごーせんのえき。	NO_LABEL
1号線機場東方面行と3号線益田方面行ホームが地下3階、1号線羅湖方面行と3号線双竜方面行ホームが地下4階にあり、赤坂見附駅に類似した配線になっている。	いちごーせんきじょーとーほーめんくだりとさんごーせんますだかたもゆきほーむがちかさんかい、いちごーせんらこかたもゆきとさんごーせんそーりゅーほーめんくだりほーむがちかよんかいにあり、あかさかみつけえきにるいじしたはいせんになっている。	NO_LABEL
それぞれのホームが島式ホームになっているため、対面乗り換えが可能である。	それぞれのほーむがしましきほーむになっているため、たいめんのりかえがかのーである。	NO_LABEL
1号線の開業時は南側のホームを供用していたが、当駅周辺は建築物が密集していたためにホームが比較的狭く、形状も整然としていなかった。	いちごーせんのかいぎょーじわみなみがわのほーむをきょーよーしていたが、とーえきしゅーへんわけんちくぶつがみっしゅーしていたためにほーむがひかくてきせまく、けいじょーもせいぜんとしていなかった。	NO_LABEL
3号線の開通に伴い、当駅で1号線と3号線で対面乗り換えできるように、新ホームが供用を開始した。	さんごーせんのかいつーにともない、とーえきでいちごーせんとさんごーせんでたいめんのりかえできるよーに、しんほーむがきょーよーをかいしした。	NO_LABEL
これにより、開業当初からあった1号線南側のホームは供用を停止している。	これにより、かいぎょーとーしょからあったいちごーせんみなみがわのほーむわきょーよーをていししている。	NO_LABEL
