マメッド・ハリドヴは、ポーランドの男性総合格闘家。	NO_PRONOUNCE	NO_LABEL
ロシア・チェチェン共和国グロズヌイ出身。	NO_PRONOUNCE	NO_LABEL
TEAM KSW/MMAオルシュテイン所属。	NO_PRONOUNCE	NO_LABEL
現KSWミドル級王者。	NO_PRONOUNCE	NO_LABEL
元KSWライトヘビー級王者。	NO_PRONOUNCE	NO_LABEL
2005年から2009年まで連勝を続けていたことから戦極の煽りでは「東欧ミドル級 最強の男」と紹介されていた。	NO_PRONOUNCE	NO_LABEL
松濤館流空手とレスリングを経験。	しょーとーかんりゅーからてとれすりんぐをけいけん。	NO_LABEL
第一次チェチェン紛争の余波を受ける形で、17歳のときに家族の勧めでポーランドへ留学した。	だいいちじちぇちぇんふんそーのよはをうけるかたちで、じゅうななさいのときにかぞくのすすめでぽーらんどえりゅーがくした。	NO_LABEL
2004年5月18日、プロ総合格闘技デビュー。	にせんよねんごがつじゅうはちにち、ぷろそーごーかくとーぎでびゅー。	NO_LABEL
2006年、ADCC 2007ポーランド予選に出場し、88kg未満級で優勝。	NO_PRONOUNCE	NO_LABEL
2008年10月10日、ShoXCでジェイソン・グイダと対戦し、スタンドパンチ連打でTKO勝ち。	NO_PRONOUNCE	NO_LABEL
2009年5月15日、KSWライトヘビー級王座決定戦でダニエル・アカーシオと対戦し、KO勝ちを収め王座獲得に成功した。	NO_PRONOUNCE	NO_LABEL
2009年11月7日、戦極初参戦となった戦極 〜第十一陣〜でジョルジ・サンチアゴと対戦し、グラウンドで下の状態から鉄槌を放ち、上になっているサンチアゴに当てて効かせると、ダメージから亀の状態になったサンチアゴに上からパウンドを打ってTKO勝ち。	NO_PRONOUNCE	NO_LABEL
2010年3月7日、SRC12のSRCミドル級チャンピオンシップでジョルジ・サンチアゴと再戦し、0-3の判定負けを喫し王座獲得に失敗した。	NO_PRONOUNCE	NO_LABEL
2010年5月7日、KSW 13で行われたライトヘビー級王座防衛戦で桜井隆多と対戦。	NO_PRONOUNCE	NO_LABEL
グラウンドなどで劣勢に立たされ、スタンドでも主導権を握れず苦戦するも、判定ドローで初防衛に成功した。	ぐらうんどなどでれっせいにたたされ、すたんどでもしゅどーけんをにぎれずくせんするも、はんていどろーではつぼーえいにせいこーした。	NO_LABEL
2010年12月30日、戦極 Soul of Fightで佐々木有生と対戦し、パウンドでTKO勝ちを収めた。	NO_PRONOUNCE	NO_LABEL
2012年6月、UFCからファイトマネー2万ドル＋勝利ボーナス2万ドルで4試合契約のオファーを受けるも、KSWの1試合3万ドル＋スポンサー料の契約に比べ低いことから挑戦を断念した。	NO_PRONOUNCE	NO_LABEL
2013年6月8日、KSW 23でメルヴィン・マヌーフと対戦。	NO_PRONOUNCE	NO_LABEL
1Rにタックルからマヌーフを持ち上げて倒すと、立ち上がろうとするマヌーフの首を取りそのまま締め上げ、ギロチンチョークで一本勝ちを収めた。	NO_PRONOUNCE	NO_LABEL
