奥村 萬壽雄は、日本の官僚。	おくむらよろずひさおわ、にっぽんのかんりょー。	NO_LABEL
第84代警視総監。	だいはちじゅうよんだいけいしそーかん。	NO_LABEL
大阪府出身。	おーさかふしゅっしん。	NO_LABEL
東京大学法学部卒業後、警察庁に入庁。	とーきょーだいがくほーがくぶそつぎょーご、けいさつちょーににゅーちょー。	NO_LABEL
主に警備公安畑を歩む。	おもにけいびこーあんはたけをあゆむ。	NO_LABEL
株式会社テレビ朝日ホールディングス・株式会社テレビ朝日監査役。	NO_PRONOUNCE	NO_LABEL
