『ジュエルペット きら☆デコッ!』（）はサンリオとセガトイズによるキャラクター、ジュエルペットのアニメ版の第4シリーズ。	NO_PRONOUNCE	NO_LABEL
2012年4月7日から2013年3月30日までテレビ東京系列で放送された。	にせんじゅうにねんしがつなのかからにせんじゅうさんねんさんがつさんじゅうにちまでてれびとーきょーけいれつでほーそーされた。	NO_LABEL
全52話。	ぜんごじゅうにわ。	NO_LABEL
テレビ東京とテレビ愛知とテレビ大阪では字幕放送を実施。	てれびとーきょーとてれびあいちとてれびおーさかでわじまくほうそーをじっし。	NO_LABEL
製作局及び放送時間枠、ジュエルペットの基本設定などは前作『ジュエルペット サンシャイン』や第2シリーズ『ジュエルペット てぃんくる☆』を継承しているが、作中の舞台背景や設定に関しては過去3作がそうであったのと同様に、他のシリーズとの関連性は特に存在しない。	NO_PRONOUNCE	NO_LABEL
本作では『てぃんくる☆』『サンシャイン』と続いた魔法学校を舞台にした学園アニメとは趣向を変え、ジュエルランドへ召喚された5人の少年少女・キラデコ5が人間界の危機を救うため、ジュエルペットと共に伝説のアイテム「デコストーン」を探し求めてジュエルランドを冒険するというものになっている。	NO_PRONOUNCE	NO_LABEL
前作に比べるとややソフトな作風になっているが、今作においてもマニアックなパロディやハイテンションなギャグが挿入されており、後半ではリア充などのネットスラングが飛び交い現実のネット社会を皮肉している内容になっている。	ぜんさくにくらべるとややそふとなさくふーになっているが、こんさくにおいてもまにあっくなぱろでぃやはいてんしょんなぎゃぐがそーにゅーされており、こーはんでわりあじゅーなどのねっとすらんぐがとびかいげんじつのねっとしゃかいをひにくしているないよーになっている。	NO_LABEL
フォーマット上では、エンディング直前に1分程のCパートが挿入されていることが特徴。	NO_PRONOUNCE	NO_LABEL
基本的には本編とは直接関係ない内容だが、本編に関連した内容の場合もある。	きほんてきにわほんぺんとわちょくせつかんけいないないよーだが、ほんぺんにかんれんしたないよーのばあいもある。	NO_LABEL
製作面では、2005年から2009年まで放送された『おねがいマイメロディ』シリーズの監督・キャラクターデザイン・音楽などの主要スタッフが再集結している。	NO_PRONOUNCE	NO_LABEL
また、本作の主題歌は芦田愛菜が担当し、その関係で劇伴や主題歌の発売元が過去の日本コロムビアやイマジンからユニバーサルミュージックに変更されている。	また、もとさくのしゅだいかわあしだまながたんとーし、そのかんけいでげきはんやしゅだいかのはつばいもとがかこのにほんころむびあやいまじんからゆにばーさるみゅーじっくにへんこーされている。	NO_LABEL
過去3作同様、本作も1人で複数のキャラクターを担当する声優が多く、またジュエルペットと人間側のメインキャラとを兼任している声優もいる。	NO_PRONOUNCE	NO_LABEL
シリーズでは初めて専属のナレーションが設定され、そのナレーションをサフィー役のささきのぞみが兼任している。	しりーずでわはじめてせんぞくのなれーしょんがせっていされ、そのなれーしょんをさふぃーやくのささきのぞみがけんにんしている。	NO_LABEL
字幕の色は全員紫。	じまくのいろわぜんいんむらさき。	NO_LABEL
なおナレーションは主にアバンタイトルに挿入され、本編ではメインキャラクター以外のジュエルペットが進行役を務めている。	なおなれーしょんわおもにあばんたいとるにそーにゅーされ、ほんぺんでわめいんきゃらくたーいがいのじゅえるぺっとがしんこーやくをつとめている。	NO_LABEL
放送中の2012年6月23日より本作の世界観をベースにしたミュージカル版がサンリオピューロランドで上演。	ほーそーちゅーのにせんじゅうにねんろくがつにじゅうさんにちよりもとさくのせかいかんをべーすにしたみゅーじかるばんがさんりおぴゅーろらんどでじょーえん。	NO_LABEL
本編終了後の2014年6月22日まで上演された。	ほんぺんしゅーりょーごのにせんじゅうよねんろくがつにじゅうににちまでじょーえんされた。	NO_LABEL
はるか昔、ジュエリーナはジュエルペットを創造し、楽しくゴーゴーをエンジョイしていた。	はるかむかし、じゅえりーなわじゅえるぺっとをそーぞーし、たのしくごーごーをえんじょいしていた。	NO_LABEL
しかしある日突然、隕石がミラーボールにぶつかり、壊れて飛散してしまった。	しかしあるひとつぜん、いんせきがみらーぼーるにぶつかり、こわれてひさんしてしまった。	NO_LABEL
その悲しみのあまりジュエリーナは石化してしまう。	そのかなしみのあまりじゅえりーなわいしかしてしまう。	NO_LABEL
その後ルビー達はジュエルランドにあるジュエルタウンで楽しく暮らしていたが、そこに突然「キラデコ5」と名乗る5人の人間がやって来た。	NO_PRONOUNCE	NO_LABEL
彼らは闇に覆われつつある人間界を救うためにジュエルランドに送還された「正義のヒーロー」だという。	NO_PRONOUNCE	NO_LABEL
ルビー達とキラデコ5は、キラデコ5と敵対する「デコラナイン」の妨害にあいながらも、人間界を救うために必要な「デコストーン」を集めていく。	NO_PRONOUNCE	NO_LABEL
前作同様にジュエルペットと人間キャラクターとのパートナー関係はないが、メインのジュエルペットと烈以外のキラデコ5はそれぞれ特別な関係を持っている。	NO_PRONOUNCE	NO_LABEL
また、ルビーを中心にジュエルペット側をメインとしており、キャストクレジットもジュエルペット側が先だが、テレビ東京の公式サイトではキラデコ5のメンバーが先に紹介されている。	NO_PRONOUNCE	NO_LABEL
ジュエルペットの基本設定についてはジュエルペット#キャラクターを参照。	NO_PRONOUNCE	NO_LABEL
いずれも、本シリーズ独自の設定であり基本設定からは外れた部分も多々あり、存在するのは過去3作と同様である。	NO_PRONOUNCE	NO_LABEL
また過去3作と比べ、何かしら設定付けがされているジュエルペットも数多いが、本筋に関係ないモブペットに関してはキャラ設定が固定されておらず、同じペットに複数の顔を持たせているケースが多い。	NO_PRONOUNCE	NO_LABEL
これは回によってスター・システムを活用しているとも言える。	これわかいによってすたーしすてむをかつよーしているともいえる。	NO_LABEL
過去3作に比べジュエルペットの身長が大きくなっており、過去3作では各人間キャラのすね位のサイズだったが、今作では人間キャラのひざ位のサイズになっている。	NO_PRONOUNCE	NO_LABEL
本作品では、魔法を使用する場合ジュエルポッドの電力不足や電波圏外になると魔法を使用できないという制約や、闇魔法などの攻撃を一定以上受けてしまうとジュエルチャーム状態に戻ってしまう設定になっている。	ほんさくひんでわ、まほーをしよーするばあいじゅえるぽっどのでんりょくふそくやでんぱけんがいになるとまほーをしよーできないとゆうせいやくや、やみまほーなどのこーげきをいっていいじょーうけてしまうとじゅえるちゃーむじょーたいにもどってしまうせっていになっている。	NO_LABEL
本作のストーリーの中心となるジュエルペット達。	もとさくのすとーりーのちゅーしんとなるじゅえるぺっとたち。	NO_LABEL
上記の通り、その他のジュエルペットは番組の進行役として登場したり、学校の生徒といったモブキャラとしてランダムで登場する。	じょーきのとーり、そのたのじゅえるぺっとわばんぐみのしんこーやくとしてとーじょーしたり、がっこーのせいとといったもぶきゃらとしてらんだむでとーじょーする。	NO_LABEL
そのため、ストーリーの本筋には大きな絡みがない。	そのため、すとーりーのほんすじにわおーきなからみがない。	NO_LABEL
最終回では全員揃ってルビー達やキラデコ5を応援した。	NO_PRONOUNCE	NO_LABEL
人間界からジュエルランドへ召喚され、空から降って来た「正義のヒーロー」を名乗る5人の少年少女。	NO_PRONOUNCE	NO_LABEL
ルビー達と共にストーリーの中心となる。	るびーたちとともにすとーりーのちゅーしんとなる。	NO_LABEL
※DVD版と海外放送では版権元の管理によりそれぞれ挿入曲は収録されておらず別のBGMに変更されている。	NO_PRONOUNCE	NO_LABEL
第2作『てぃんくる☆』以来の30分1話形態に戻っている。	NO_PRONOUNCE	NO_LABEL
なお、放送日はテレビ東京での日程を基準とする。	なお、ほーそーびわてれびとーきょーでのにっていをきじゅんとする。	NO_LABEL
前作は第16話まで地上アナログテレビ放送が実施されたが、本作は第1話より完全に地上デジタルテレビ放送作品となる。	ぜんさくわだいじゅうろくわまでちじょーあなろぐてれびほーそーがじっしされたが、もとさくわだいいちわよりかんぜんにちじょーでじたるてれびほうそーさくひんとなる。	NO_LABEL
時間帯は全て現地時間。	じかんたいわすべてげんちじかん。	NO_LABEL
本作をベースにした『ジュエルペット きら☆デコッ! ミュージカル 〜めざせ!NO.1アイドル〜』がサンリオピューロランドのディスカバリーシアターにて2012年6月23日から2014年6月22日まで上演された。	NO_PRONOUNCE	NO_LABEL
出演するのはルビー、サフィー、ラブラ、エンジェラとオリジナルキャラクター2名で、きらデコ5はアニメ映像での登場。	NO_PRONOUNCE	NO_LABEL
ジュエルペットときらデコ5の声はアニメ版と共通。	NO_PRONOUNCE	NO_LABEL
世界観はアニメ版をベースとしているものの、ストーリーはきらデコ5が一緒にデコストーンを探すヒーローアイドルのオーディションを実施し、4匹と2人がそのオーディションに参加するという内容で、アニメ本編とはパラレルワールドとなっている。	NO_PRONOUNCE	NO_LABEL
当初はアニメ本編の終了と同時期に終演する予定だったが、大変好評であったためアニメ本編および次作アニメ『ジュエルペット ハッピネス』終了後も上演は継続され、2年間上演された。	NO_PRONOUNCE	NO_LABEL
終了後は『レディ ジュエルペット 魔法のミュージカル　〜誕生!リトルレディジュエル〜』に引き継がれた。	NO_PRONOUNCE	NO_LABEL
ショウワノートより、ぬりえ、パズルなど各種文具が発売されている。	しょうわのーとより、ぬりえ、ぱずるなどかくしゅぶんぐがはつばいされている。	NO_LABEL
