「それでも好きだよ」は、日本の女性アイドル・指原莉乃の楽曲。	NO_PRONOUNCE	NO_LABEL
楽曲は秋元康により作詞、渡辺和紀により作曲されている。	がっきょくわあきもとやすしによりさくし、わたなべかずのりによりさっきょくされている。	NO_LABEL
指原が当時所属していた女性アイドルグループ・AKB48からのソロデビューシングルとして、2012年5月2日にavex traxから発売された。	NO_PRONOUNCE	NO_LABEL
2012年1月8日、アイドルグループ・AKB48の24枚目のシングル「上からマリコ」の劇場盤発売記念大握手会イベントにおいて、当時メンバーであった指原莉乃のソロデビューが発表された。	NO_PRONOUNCE	NO_LABEL
AKB48のメンバーで本格的なソロデビューが発表されるのは指原で5人目となった。	えーけーびーふぉーてぃえいとのめんばーでほんかくてきなそろでびゅーがはっぴょーされるのわさすはらでごにんめとなった。	NO_LABEL
またソロデビューについては、発表されるまで指原本人にも知らされていなかった。	またそろでびゅーについてわ、はっぴょーされるまでさすはらほんにんにもしらされていなかった。	NO_LABEL
この発表がされた段階ではデビュー曲のタイトルは未定であったが、発表と同時にデビュー曲が指原主演のドラマ『ミューズの鏡』の主題歌になることが明らかにされた。	NO_PRONOUNCE	NO_LABEL
その翌日である1月9日から楽曲のレコーディングが行われる予定であったが、デビューが発表される直前に指原はのどを痛めており、これを理由にレコーディングが延期となった。	そのよくじつであるいちがつここのかからがっきょくのれこーでぃんぐがおこなわれるよていであったが、でびゅーがはっぴょーされるちょくぜんにさすはらわのどをいためており、これをりゆーにれこーでぃんぐがえんきとなった。	NO_LABEL
このため楽曲の完成が1月14日深夜に放送された『ミューズの鏡』第1話におけるオンエアの予定に間に合わず、「それでも好きだよ」の初披露は1月21日に開催されたAKB48のライブイベント『リクエストアワー セットリスト ベスト100』のアンコールにおいて行われた。	NO_PRONOUNCE	NO_LABEL
「それでも好きだよ」の発売時期について、デビュー決定時には2012年3月の予定、ライブイベントでの初披露時には同年春の予定とされていたが、同年2月22日に行われたファッションブランド「サマンサタバサ」プロモーショナルモデル契約記者会見において、5月2日と発表された。	NO_PRONOUNCE	NO_LABEL
その後同年3月13日に、乃木坂46が2枚目のシングルを「それでも好きだよ」と同日の5月2日に発売することを公式サイトでアナウンスした。	NO_PRONOUNCE	NO_LABEL
これにより、シングルを通して指原と乃木坂46による「直接対決」がなされることになった。	NO_PRONOUNCE	NO_LABEL
2012年3月下旬、「それでも好きだよ」のジャケット写真およびミュージック・ビデオが初公開された。	NO_PRONOUNCE	NO_LABEL
2012年3月28日からは「それでも好きだよ」の着うたがレコチョクから配信された。	NO_PRONOUNCE	NO_LABEL
この着うたは切り出し箇所の異なる6種類があり、同年4月3日までに限り購入者全員に全6種類のオリジナル待受画像が特典としてプレゼントされている。	NO_PRONOUNCE	NO_LABEL
「それでも好きだよ」のシングルCDは、Type-A、B、C、Dの4種類がリリースされた。	NO_PRONOUNCE	NO_LABEL
Type-Dは劇場盤ともよばれる販路限定盤で、サイト「mu-moショップ」を通して販売された。	NO_PRONOUNCE	NO_LABEL
Type-A、B、Cの3種にはそれぞれ収録内容の異なるDVDが付属しており、「おいでシャンプー」のシングルの特典DVDに収録されている疑似デート映像に対抗して「33人の指原莉乃疑似デート」が収録されている。	NO_PRONOUNCE	NO_LABEL
CDの収録曲およびジャケットは4種類それぞれで異なっている。	きゃっしゅでぃすぺんさーのしゅーろくきょくおよびじゃけっとわよんしゅるいそれぞれでことなっている。	NO_LABEL
特典として、Type-A、B、Cの3種それぞれの初回製造分にはジャケットサイズカードおよび全国イベント応募券が封入されている。	NO_PRONOUNCE	NO_LABEL
劇場盤には発売記念握手会参加券が封入されているが、これとは別に握手会参加券がなく代わりに生写真が封入されているバージョンも販売されている。	げきじょーばんにわはつばいきねんあくしゅかいさんかけんがふーにゅーされているが、これとわべつにあくしゅかいさんかけんがなくかわりになまじゃしんがふーにゅーされているばーじょんもはんばいされている。	NO_LABEL
全国イベント応募券に関連したイベントは2種類あり、ひとつは2012年5月26日・27日にサンシャイン水族館にて開催の「アシカとさしこの歌謡トークショー」。	NO_PRONOUNCE	NO_LABEL
もうひとつは、同年6月25日に日本武道館にて開催の「指原莉乃プロデュース『第一回ゆび祭り〜アイドル臨時総会〜』」。	NO_PRONOUNCE	NO_LABEL
このゆび祭りにはアイドリング!!!、私立恵比寿中学、SUPER☆GiRLS、東京女子流、ぱすぽ☆、渡り廊下走り隊7、ももいろクローバーZ、Buono!などの女性アイドルグループが事務所やレコード会社の垣根を超えて集結する。	このゆびまつりにわあいどりんぐ、しりつえびすちゅーがく、すーぱーがーるず、とーきょーじょしりゅー、ぱすぽ、わたりろーかはしりたいせぶん、ももいろくろーばーぜっと、ぼーのなどのじょせいあいどるぐるーぷがじむしょやれこーどがいしゃのかきねをこえてしゅーけつする。	NO_LABEL
AKB48に関連するアーティスト同士がシングルを同日にリリースするということで、オリコンのサイト「ORICON STYLE」では発売初週のオリコンデイリーシングルチャートを毎日発表する特集記事が用意された。	NO_PRONOUNCE	NO_LABEL
そして、Techinsightの記事は、このデイリーランキングが話題になったという旨を記している。	NO_PRONOUNCE	NO_LABEL
「それでも好きだよ」のシングルCDは発売前日の2012年5月1日付オリコンデイリーシングルチャートで推定売上枚数約5.7万枚を記録し、初登場で2位にランクインした。	NO_PRONOUNCE	NO_LABEL
同日付では乃木坂46「おいでシャンプー」が約11.1万枚で初登場1位となり、デイリーチャート初日の売上ではライバル同士による「直接対決」で敗れる結果となった。	NO_PRONOUNCE	NO_LABEL
集計2日目の翌5月2日付においては約3.0万枚を記録し、「おいでシャンプー」を逆転して1位に上がった。	NO_PRONOUNCE	NO_LABEL
本作はそれ以降の5月3日付から6日付にかけても1位を維持した。	もとさくわそれいこーのごがつみっかずけからむいかずけにかけてもいちーをいじした。	NO_LABEL
しかし6日間のデイリーチャートにおける推定売上枚数の合計は、本作が約11.8万枚であるのに対し「おいでシャンプー」が約15.3万枚であり、初日についた差をすべて埋めることができなかった。	NO_PRONOUNCE	NO_LABEL
この6日間それぞれのデイリーチャートにおける両者の順位と推定売上枚数については、表中に記す。	このむいかそれぞれのでいりーちゃーとにおけるりょーしゃのじゅんいとすいていうりあげまいすーについてわ、ひょーちゅーにしるす。	NO_LABEL
2012年5月14日付オリコン週間シングルチャートでは約12.4万枚の売上を記録し、初登場で2位にランクインした。	NO_PRONOUNCE	NO_LABEL
1位は「おいでシャンプー」であり、週間チャートでも同作との「直接対決」で敗れる結果となった。	NO_PRONOUNCE	NO_LABEL
一方、2012年に発売されたソロアーティストのデビュー作の中では最も高い初動売上を記録した。	いっぽー、にせんじゅうにねんにはつばいされたそろあーてぃすとのでびゅーさくのなかでわもっともたかいしょどーうりあげをきろくした。	NO_LABEL
また、AKB48からのソロデビュー作が週間チャートで初登場で3位以内に入ったのは指原で4人目となった。	また、えーけーびーふぉーてぃえいとからのそろでびゅーさくがしゅーかんちゃーとではつとーじょーでさんいいないにはいったのわさすはらでよにんめとなった。	NO_LABEL
なおオリコンチャートにおいては、シングルチャートの集計対象となるCDシングルはその収録曲が4曲以下でなければならないという「対象規定」が存在する。	NO_PRONOUNCE	NO_LABEL
「それでも好きだよ」の劇場盤はこれを上回る5曲を収録しているが、エイベックスは劇場盤について「カバー曲の『Yeah!めっちゃホリデイ』はボーナストラック扱いとして曲数カウントされず、ランキング換算対象になる」と誤認していた。	NO_PRONOUNCE	NO_LABEL
結果として劇場盤はオリコンシングルチャートに反映されず、エイベックスはこの件について指原のオフィシャルサイトでお詫びの文章を掲載した。	けっかとしてげきじょーばんわおりこんしんぐるちゃーとにはんえいされず、えいべっくすわこのけんについてさすはらのおふぃしゃるさいとでおわびのぶんしょーをけいさいした。	NO_LABEL
なおエイベックスによると、劇場盤の枚数は約12,000枚である。	NO_PRONOUNCE	NO_LABEL
「それでも好きだよ」のミュージック・ビデオのロケーション撮影は指原の出身地である大分県に所在する学校や、大分市中心部の商店街ガレリア竹町などで行われた。	NO_PRONOUNCE	NO_LABEL
楽曲は以下のメディアで使用された。	がっきょくわいかのめでぃあでしよーされた。	NO_LABEL
