勲一等旭日大綬章は、日本の勲章の一つ。	くんいっとーきょくじつだいじゅしょーわ、にっぽんのくんしょーのひとつ。	NO_LABEL
1875年4月10日、勲章制定ノ件に基づいて制定された。	せんはっぴゃくななじゅうごねんしがつとおか、くんしょーせいていのけんにもとずいてせいていされた。	NO_LABEL
大綬を右肩から左脇に垂れ、副章を左胸に佩用する。	NO_PRONOUNCE	NO_LABEL
2003年11月3日に漢数字による勲等表示が廃止され、同日以後に授与されるものは旭日大綬章と改められた。	にせんさんねんじゅーいちがつみっかにかんすーじによるくんとーひょーじがはいしされ、どーじついごにじゅよされるものわあさひだいじゅしょーとあらためられた。	NO_LABEL
受章者は合計で1220名。	NO_PRONOUNCE	NO_LABEL
叙勲対象者は男性とされていた。	じょくんたいしょーしゃわだんせいとされていた。	NO_LABEL
