黄瀬川は、静岡県を流れる一級河川。	きせがわわ、しずおかけんをながれるいっきゅーかせん。	NO_LABEL
狩野川水系最大の支流で流路延長30km。	かのがわすいけいさいだいのしりゅーでながれろえんちょーさんじゅうきろめーとる。	NO_LABEL
別名木瀬川・木世川。	NO_PRONOUNCE	NO_LABEL
御殿場市に源を発する、鮎壺の滝。	ごてんばしにみなもとをはっする、あゆつぼのたき。	NO_LABEL
平安時代末期の治承・寿永の乱において、伊豆で挙兵した源頼朝と奥州から駆けつけた源義経が1180年10月21日に黄瀬川の陣で兄弟対面を果たしたと伝えられる。	へいあんじだいまっきのじしょうじゅえいのらんにおいて、いずできょへいしたみなもとのよりともとおーしゅーからかけつけたみなもとのよしつねがせんひゃくはちじゅうねんじゅーがつにじゅういちにちにきせがわのじんできょーだいたいめんをはたしたとつたえられる。	NO_LABEL
黄瀬川は田畑より低い位置を流れるため、農業用水には不向きな川であった。	きせがわわたはたよりひくいいちをながれるため、のーぎょーよーすいにわふむきなかわであった。	NO_LABEL
そのため江戸時代には、芦ノ湖を水源とする深良用水が築かれた。	そのためえどじだいにわ、あしのこをすいげんとするふからよーすいがきずかれた。	NO_LABEL
