モーリタニア航空インターナショナルはモーリタニアの航空会社。	もーりたにあこーくーいんたーなしょなるわもーりたにあのこーくーがいしゃ。	NO_LABEL
首都ヌアクショットのヌアクショット空港をハブとしており、現在モーリタニアのフラッグキャリアとなっている。	しゅとぬあくしょっとのぬあくしょっとくうこーをはぶとしており、げんざいもーりたにあのふらっぐきゃりあとなっている。	NO_LABEL
2010年に運航停止したモーリタニア・エアウェイズの後継として設立された。	NO_PRONOUNCE	NO_LABEL
モーリタニア航空インターナショナルは主に西アフリカの中・短距離路線を中心に路線展開をしている。	NO_PRONOUNCE	NO_LABEL
設立以来EU域内乗り入れ禁止航空会社に指定されていたが、2012年12月に指定が解除され、現在は季節運航ではあるが、パリのシャルル・ド・ゴール国際空港へ乗り入れている。	せつりついらいいーゆーいきないのりいれきんしこーくーがいしゃにしていされていたが、にせんじゅうにねんじゅーにがつにしていがかいじょされ、げんざいわきせつうんこーでわあるが、ぱりのしゃるるどごーるこくさいくうこーえのりいれている。	NO_LABEL
2012年12月の時点では、モーリタニア航空インターナショナルは3機のボーイング社の機材で運航を行っている。	NO_PRONOUNCE	NO_LABEL
