マーキュリー・マローダーはフォード・モーターがかつて生産していたマーキュリーディビジョン向けのセダン型及びハードトップ型の自動車である。	まーきゅりーまろーだーわふぉーどもーたーがかつてせいさんしていたまーきゅりーでぃびじょんむけのせだんがたおよびはーどとっぷがたのじどーしゃである。	NO_LABEL
1963年にマーキュリーのフルサイズモデルであるモンテレーのスポーツパッケージオプションとして登場した。	せんきゅうひゃくろくじゅうさんねんにまーきゅりーのふるさいずもでるであるもんてれーのすぽーつぱっけーじおぷしょんとしてとーじょーした。	NO_LABEL
スラント形状のルーフを持つ2ドアハードトップボディは、当時の水準としては優れた空力性能を持つ。	NO_PRONOUNCE	NO_LABEL
これはフォード／マーキュリーがNASCARへ参戦させることを目的として開発を行ったからである。	NO_PRONOUNCE	NO_LABEL
そして実際に1963年から1964年にかけてマローダーは姉妹車であるフォード・ギャラクシー・スポーツルーフと共にNASCARで数多くの勝利を収めた。	NO_PRONOUNCE	NO_LABEL
それまでモンテレーのスポーツパッケージ扱いであったマローダーは、1969年のマーキュリー・フルサイズシリーズのモデルチェンジを機に独立したモデルへと昇格した。	NO_PRONOUNCE	NO_LABEL
ボディ形状は先代と同じく2ドアハードトップでプラットフォームはモンテレーと共用。	NO_PRONOUNCE	NO_LABEL
コンシールドヘッドライトを装備したフロントマスクもモンテレーと共用され、リアフェンダーにはダミーインテークやフェンダースカートなど、ラグジュアリーさを演出する装飾が施され、マーキュリーのフラグシップモデルとして位置付けられた。	こんしーるどへっどらいとをそーびしたふろんとますくももんてれーときょーよーされ、りあふぇんだーにわだみーいんてーくやふぇんだーすかーとなど、らぐじゅありーさをえんしゅつするそーしょくがほどこされ、まーきゅりーのふらぐしっぷもでるとしていちずけられた。	NO_LABEL
トップグレードには360馬力を発生するV型8気筒OHV7000ccエンジンを搭載したX-100と呼ばれるモデルが用意された。	NO_PRONOUNCE	NO_LABEL
しかし売上の不振、マスキー法の成立などの不利な条件もあり、1970年モデルを最後に生産が中止された。	しかしうりあげのふしん、ますきーほーのせいりつなどのふりなじょーけんもあり、せんきゅうひゃくななじゅうねんもでるをさいごにせいさんがちゅーしされた。	NO_LABEL
2年という短いモデルライフであった。	にねんとゆうみじかいもでるらいふであった。	NO_LABEL
グランドマーキーの高性能バージョンとして2003年モデルからマローダーの名称が復活、2002年9月より発売開始された。	ぐらんどまーきーのこーせいのーばーじょんとしてにせんさんねんもでるからまろーだーのめいしょーがふっかつ、にせんにねんくがつよりはつばいかいしされた。	NO_LABEL
ベースであるグランドマーキスと比較してサスペンションやブレーキは強化され、またLSDが装備されたことによりハンドリングはスポーティなものとなっている。	べーすであるぐらんどまーきすとひかくしてさすぺんしょんやぶれーきわきょーかされ、またえるえすでぃがそーびされたことによりはんどりんぐわすぽーてぃなものとなっている。	NO_LABEL
フロントに235/50ZR18、リアに245/55ZR18のタイヤを履く鍛造アルミホイールが標準装備される。	NO_PRONOUNCE	NO_LABEL
エンジンはフォード・サンダーバードやリンカーン・マークVIIIに搭載されていたものと同じV型8気筒DOHC4600ccを搭載。	NO_PRONOUNCE	NO_LABEL
ただしコールドエアインテークシステムなどを装備し、300馬力を発生する。	NO_PRONOUNCE	NO_LABEL
デザインは基本的にグランドマーキスからメッキ装飾を廃し、ヘッドライトベゼルも含めブラックアウト化したもの。	でざいんわきほんてきにぐらんどまーきすからめっきそーしょくをはいし、へっどらいとべぜるもふくめぶらっくあうとかしたもの。	NO_LABEL
またバンパーは専用デザインが用意され、フロントバンパーには丸型フォグランプがビルトインされているが、マーキュリーらしく派手さはない。	またばんぱーわせんよーでざいんがよーいされ、ふろんとばんぱーにわまるがたふぉぐらんぷがびるといんされているが、まーきゅりーらしくはでさわない。	NO_LABEL
内装もまたマーキュリーらしく本革シート・内張りが採用された豪華な装備となっている。	NO_PRONOUNCE	NO_LABEL
マローダー復活は、マーキュリーブランドのイメージ再浮上を担うモデルの1つというフォードの思惑があった。	まろーだーふっかつわ、まーきゅりーぶらんどのいめーじさいふじょーをになうもでるのひとつとゆうふぉーどのおもわくがあった。	NO_LABEL
しかしその思惑とは裏腹に販売は極度の不振であり、2代目同様に2年間で生産終了した。	しかしそのおもわくとわうらはらにはんばいわきょくどのふしんであり、にだいめどーよーににねんかんでせいさんしゅーりょーした。	NO_LABEL
総生産台数は11,052台であった。	NO_PRONOUNCE	NO_LABEL
2002年にはバリエーションとして2ドアコンバーチブルがコンセプトモデルとして発表された。	NO_PRONOUNCE	NO_LABEL
発売は確実と目されていたものの、マローダーの販売不振により幻のモデルとなった。	はつばいわかくじつとめされていたものの、まろーだーのはんばいふしんによりまぼろしのもでるとなった。	NO_LABEL
