カボレこと、エヴェラルド・デ・ヘスス・ペレイラは、ブラジル出身のプロサッカー選手。	NO_PRONOUNCE	NO_LABEL
ポジションはフォワード。	ぽじしょんわふぉわーど。	NO_LABEL
プロデビューは24歳の時という遅咲きの選手。	ぷろでびゅーわにじゅうよんさいのときとゆうおそざきのせんしゅ。	NO_LABEL
2007年、韓国・Kリーグの慶南FCでポポと2トップを組み、抜群のスピードと柔らかなテクニックを発揮して18ゴール8アシストを記録。	NO_PRONOUNCE	NO_LABEL
デニウソン、デヤン、ステボらを抑えて。	でにうそん、でやん、すてぼらをおさえて。	NO_LABEL
2008年、複数クラブが獲得を図る中慶南側は当初オファー拒否の姿勢を示していたが、同年2月にJリーグ・FC東京への完全移籍が決定。	NO_PRONOUNCE	NO_LABEL
Jリーグ第2節の新潟戦で移籍後初得点を挙げた。	じぇいりーぐだいにせつのにーがたせんでいせきごはつとくてんをあげた。	NO_LABEL
1トップのセンターフォワードを務めていたが、シーズン終盤にはカボレの突破力を活かすべく3トップの左ウイングに配されFWの軸として奮戦。	NO_PRONOUNCE	NO_LABEL
慢性的な右膝痛と股関節痛を抱えながらも出場を志願し、チーム唯一の公式戦全試合出場を記録した。	まんせいてきなみぎひざつーとこかんせつつーをかかえながらもしゅつじょーをしがんし、ちーむゆいいつのこーしきせんぜんしあいしゅつじょーをきろくした。	NO_LABEL
2009年9月11日、予てよりオファーのあったカタールのアル・アラビへの完全移籍が決定し、同月5日のナビスコカップ準決勝勝利及び決勝進出を置き土産に退団。	にせんきゅうねんくがつじゅういちにち、かねてよりおふぁーのあったかたーるのあるあらびえのかんぜんいせきがけっていし、どーげついつかのなびすこかっぷじゅんけっしょーしょーりおよびけっしょーしんしゅつをおきみやげにたいだん。	NO_LABEL
その後FC東京はこの大会で優勝を果たし、表彰式で優勝カップを受け取る際に羽生直剛がカボレのユニフォームを着用してカップを受け取ることでカボレへの感謝を示した。	そのごえふしーとうきょーわこのたいかいでゆーしょーをはたし、ひょーしょーしきでゆーしょーかっぷをうけとるさいにはにゅうなおたけがかぼれのゆにふぉーむをちゃくよーしてかっぷをうけとることでかぼれえのかんしゃをしめした。	NO_LABEL
当時のサッカー雑誌のインタビューで、カボレは将来スペインリーグでプレーすることを目標だと語っていた。	とーじのさっかーざっしのいんたびゅーで、かぼれわしょーらいすぺいんりーぐでぷれーすることをもくひょーだとかたっていた。	NO_LABEL
アル・アラビではゴールを量産し、2009/10シーズンのリーグ得点王になった。	NO_PRONOUNCE	NO_LABEL
2010年9月には自身の決勝点でシェイク・ジャシムカップを制覇。	にせんじゅうねんくがつにわじしんのけっしょーてんでしぇいくじゃしむかっぷをせいは。	NO_LABEL
2015年6月、セレッソ大阪の練習に参加。	にせんじゅうごねんろくがつ、せれっそおーさかのれんしゅーにさんか。	NO_LABEL
同月をもって退団するフォルランとカカウに代わるFWとして加入間近であったが、マグノ・クルスとエジミウソンの加入に伴い見送られた。	NO_PRONOUNCE	NO_LABEL
7||1||||||||||7||1	NO_PRONOUNCE	NO_LABEL
26||18||||||||||||	NO_PRONOUNCE	NO_LABEL
55||16||17||7||4||0||76||23	NO_PRONOUNCE	NO_LABEL
