E-Commerce Asia Associationとは、日本EC企業のアジア進出を支援することを目的とした協会組織。	NO_PRONOUNCE	NO_LABEL
日本国内だけでなく、アジアにおけるEC事業者同士が直接交流し、提携・アライアンスを推進できる場を提供することで、アジア全体のECを活性化させることを目的とする。	NO_PRONOUNCE	NO_LABEL
ECパッケージ、決済サービス、物流、マーケティング、ECアウトソーシングなど、各分野において業界を牽引する有力企業が連携し、アジア圏ECに関する最新情報を収集するとともに、アジア向けEC事業者への相互補完的なソリューションの提供および支援を目的として、有力ECインフラ企業16社にて設立される。	NO_PRONOUNCE	NO_LABEL
2011年11月10日現在の会員数は、6か国13業種52社。	NO_PRONOUNCE	NO_LABEL
