モニカ・キーナは、アメリカ合衆国の女優。	もにかきーなわ、あめりかがっしゅーこくのじょゆー。	NO_LABEL
13歳の頃から数々の舞台に出演しており、アル・パチーノとの共演歴もある。	じゅうさんさいのころからかずかずのぶたいにしゅつえんしており、あるぱちーのとのきょーえんれきもある。	NO_LABEL
1994年にテレビ映画"A PROMISE KEPT: THE OKSANA BAIUL STORY"でデビューし1995年の『あなたが寝てる間に…』ではビル・プルマンの妹役を演じた。	NO_PRONOUNCE	NO_LABEL
『グリム・ブラザーズ/スノーホワイト』ではリリーを演じその美少女ぶりが注目されていたが、成長した現在は少女期とは打って変わったグラマラスな体型となっている。	NO_PRONOUNCE	NO_LABEL
1998年から1999年までテレビシリーズ『ドーソンズ・クリーク』に出演した。	NO_PRONOUNCE	NO_LABEL
