木倉 敬之は、広島県出身の厚生労働官僚。	きのくらたかゆきわ、ひろしまけんしゅっしんのこーせいろーどーかんりょー。	NO_LABEL
広島県庄原市出身。	ひろしまけんしょーばらししゅっしん。	NO_LABEL
修道高等学校を経て、1979年東京大学法学部を卒業し厚生省入省。	しゅーどーこーとーがっこーをへて、せんきゅうひゃくななじゅうきゅうねんとーきょーだいがくほーがくぶをそつぎょーしこーせいしょーにゅーしょー。	NO_LABEL
2008年社会・援護局障害保健福祉部長、2011年医薬食品局長、2012年保険局長に就任。	にせんはちねんしゃかいえんごきょくしょーがいほけんふくしぶちょー、にせんじゅういちねんいやくしょくひんきょくちょー、にせんじゅうにねんほけんきょくちょーにしゅーにん。	NO_LABEL
2014年厚生労働省を退職し、みずほ銀行顧問に就任。	にせんじゅうよねんこーせいろうどうしょーをたいしょくし、みずほぎんこーこもんにしゅーにん。	NO_LABEL
