秋田駒ヶ岳とは、秋田県仙北市と岩手県岩手郡雫石町に跨る活火山である。	あきたこまがたけとわ、あきたけんせんぼくしといわてけんいわてぐんしずくいしちょーにまたがるかっかざんである。	NO_LABEL
十和田八幡平国立公園の南端。	とわだはちまんたいこくりつこーえんのなんたん。	NO_LABEL
標高1,637m。	NO_PRONOUNCE	NO_LABEL
全国に数多い駒ヶ岳のなかで最も高山植物の豊富な山としても知られる。	ぜんこくにかずおーいこまがだけのなかでもっともこうざんしょくぶつのほーふなやまとしてもしられる。	NO_LABEL
駒ヶ岳は、十和田八幡平国立公園の南端にある秋田県第一の高峰である。	こまがだけわ、とわだはちまんたいこくりつこーえんのなんたんにあるあきたけんだいいちのこーみねである。	NO_LABEL
山頂部には北東－南西方向に2つのカルデラが並び、本峰の男岳」とも呼ばれる。	NO_PRONOUNCE	NO_LABEL
昔は女人禁制の信仰の山であった。	むかしわにょにんきんせいのしんこーのやまであった。	NO_LABEL
乳頭山からは山頂が広い湿原となっている小白森と大白森を経て八幡平へ繋がっている。	にゅーとーやまからわさんちょーがひろいしつげんとなっているこしろもりとおーしろもりをへてやわただいらえつながっている。	NO_LABEL
尾根が登山道となっており、間には避難小屋も整備されているので縦走に便利である。	おねがとざんどーとなっており、まにわひなんこやもせいびされているのでじゅーそーにべんりである。	NO_LABEL
秋田駒ヶ岳から乳頭山への縦走路から外れたところには千沼ヶ原と呼ばれる大きな湿原があり、秋田駒ヶ岳山頂と比べて訪れるものも少なく、静かな佇まいを見せる。	NO_PRONOUNCE	NO_LABEL
標高が低いため正確な意味では高山帯を持たないが、頂上効果によって広大な偽高山帯が発達している。	ひょーこーがひくいためせいかくないみでわこーざんたいをもたないが、ちょーじょーこーかによってこーだいなにせこーざんたいがはったつしている。	NO_LABEL
現在も活発な活火山であり、頂上部の地形が絶えず変形し攪乱を受けることも、偽高山帯が維持される要因となっている。	げんざいもかっぱつなかっかざんであり、いただきじょーぶのちけいがたえずへんけいしかくらんをうけることも、にせこーざんたいがいじされるよーいんとなっている。	NO_LABEL
山頂一帯に咲くヒナザクラやタカネスミレ、コマクサ、エゾツツジなどの数百種類の高山植物群は、1926年2月、秋田駒ヶ岳高山植物帯として国の天然記念物に指定された。	さんちょーいったいにさくひなざくらやたかねすみれ、こまくさ、えぞつつじなどのすーひゃくしゅるいのこうざんしょくぶつぐんわ、せんきゅうひゃくにじゅうろくねんにがつ、あきたこまがたけこうざんしょくぶつたいとしてくにのてんねんきねんぶつにしていされた。	NO_LABEL
乳頭山-秋田駒ヶ岳火山列の中では形成時期が最も新しい火山である。	NO_PRONOUNCE	NO_LABEL
笊森火山および乳頭火山の形成時期は、各々約56万年前、36-63万年前、と考えられ、活動開始は約10万年前頃と推定されている。	NO_PRONOUNCE	NO_LABEL
火山形成史は大きく3つに分けられ、活動順に主成層火山形成期、カルデラ形成期、後カルデラ活動期と呼ばれる。	かざんけいせいしわおーきくみっつにわけられ、かつどーじゅんにしゅせいそーかざんけいせいき、かるでらけいせいき、こーかるでらかつどーきとよばれる。	NO_LABEL
火山体の形成史に関わる研究は十分に行われておらず未解明な部分が多い。	かざんたいのけいせいしにかかわるけんきゅーわじゅーぶんにおこなわれておらずみかいめいなぶぶんがおーい。	NO_LABEL
火山活動と三陸沖の地震に関連性が有るとする見解がある。	かざんかつどーとさんりくおきのじしんにかんれんせいがあるとするけんかいがある。	NO_LABEL
細長いカルデラの中に女岳・小岳・南岳の中央火口丘があり、カルデラの外に最高峰の男女岳があり一等三角点が設置されている。	NO_PRONOUNCE	NO_LABEL
男岳・横岳はカルデラ外輪山のピークである。	NO_PRONOUNCE	NO_LABEL
気象庁の常時観測火山に指定され「噴火警戒レベル」が導入されている。	NO_PRONOUNCE	NO_LABEL
有史時代の噴火は4回あったとされているが、明治時代以前の歴史資料中の記述が不明確で信頼性に欠けている。	ゆーしじだいのふんかわよんかいあったとされているが、めいじじだいいぜんのれきししりょーちゅーのきじゅつがふめいかくでしんらいせいにかけている。	NO_LABEL
確実な噴火は、1932年、1970-71年の2回である。	NO_PRONOUNCE	NO_LABEL
駒ヶ岳は807年に噴火し、田沢湖もそのときに誕生したという伝説が残されている。	こまがだけわはっぴゃくななねんにふんかし、たざわこもそのときにたんじょーしたとゆうでんせつがのこされている。	NO_LABEL
ただし、駒ヶ岳が807年に噴火した事実は確認されておらず、田沢湖カルデラの誕生は100万年以上前のことである。	ただし、こまがだけがはっぴゃくななねんにふんかしたじじつわかくにんされておらず、たざわこかるでらのたんじょーわひゃくまんねんいじょーまえのことである。	NO_LABEL
駒ヶ岳は古くは駒形山と呼ばれ、山頂に駒形神が祀られていた。	こまがだけわふるくわこまがたやまとよばれ、さんちょーにこまがたしんがまつられていた。	NO_LABEL
駒形神のうち最も早く祀られたのは栗駒山の駒形神社である。	こまがたかみのうちもっともはやくまつられたのわくりこまやまのこまがたじんじゃである。	NO_LABEL
駒形神は大日如来の化身といわれ、荒ぶる火の山の猛威を鎮めると同時に、農作の神として信仰されていた。	こまがたかみわだいにちにょらいのけしんといわれ、すさぶるひのやまのもーいをしずめるとどーじに、のーさくのかみとしてしんこーされていた。	NO_LABEL
近世になると、雄駒峯、駒ヶ根などと呼ばれたりした。	きんせいになると、ゆーこまみね、こまがねなどとよばれたりした。	NO_LABEL
江戸時代には五秋山生保寺という修験寺が駒形大明神の別当を代々務めたことが記録に残っている。	えどじだいにわごあきやませいほてらとゆうしゅげんてらがこまがただいみょーじんのべっとーをだいだいつとめたことがきろくにのこっている。	NO_LABEL
駒ヶ岳山頂に御室と称して、駒形神を祀る石の祠がいまでも残っている。	こまがだけさんちょーにおむろとしょーして、こまがたかみをまつるいしのほこらがいまでものこっている。	NO_LABEL
昔から中をのぞいてはいけないという言い伝えがあった。	むかしからなかをのぞいてわいけないとゆういーつたえがあった。	NO_LABEL
最高峰は女目岳で、オナメとは古語で妾のことである。	さいこーほーわおんなめだけで、おなめとわこごでそばめのことである。	NO_LABEL
中央部にある男岳が妾を持っているので、本妻の女岳が時々怒って噴火したと言われている。	ちゅーおーぶにあるおとこだけがそばめをもっているので、ほんさいのめだけがときどきおこってふんかしたといわれている。	NO_LABEL
山開きは毎年6月1日に行われる。	やまびらきわまいとしろくがつついたちにおこなわれる。	NO_LABEL
登山は、標高1305m地点にある登山基地「八合目」を利用するのが手軽である。	NO_PRONOUNCE	NO_LABEL
八合目は日窒の硫黄鉱山跡に建設されている。	NO_PRONOUNCE	NO_LABEL
そこから新道コース約50分で阿弥陀池という沼に到着する。	そこからしんどーこーすやくごじゅっぷんであみだいけとゆうぬまにとーちゃくする。	NO_LABEL
新道コースは展望も優れ、急登がないので、最も一般的なコースである。	しんどーこーすわてんぼーもすぐれ、きゅーとーがないので、もっともいっぱんてきなこーすである。	NO_LABEL
阿弥陀池の湖畔には避難小屋が建てられている。	あみだいけのこはんにわひなんこやがたてられている。	NO_LABEL
そこから、約20分で男岳や男女岳に到着する。	そこから、やくにじゅっぷんでおとこだけやだんじょだけにとーちゃくする。	NO_LABEL
旧道コースは道が荒れており、急登があるが40分程度で避難小屋まで到着する。	きゅーどーこーすわみちがあれており、きゅーとーがあるがよんじゅっぷんていどでひなんこやまでとーちゃくする。	NO_LABEL
焼森コースは、焼森や横岳を通過する1時間程度のコースでシャクナゲが多く、シャクナゲ通りとも言われている。	しょーもりこーすわ、しょーもりやよこだけをつーかするいちじかんていどのこーすでしゃくなげがおーく、しゃくなげどーりともいわれている。	NO_LABEL
八合目まで車道が通り、車で入山できる手軽さから、夏季には観光客が殺到するため、環境保護のため早朝から夕方までマイカー規制が取られており、駒ヶ岳火山防災ステーションから定時のシャトルバスが発着している。	やごーめまでしゃどーがとーり、くるまでいりやまできるてがるさから、かきにわかんこーきゃくがさっとーするため、かんきょーほごのためそーちょーからゆーがたまでまいかーきせいがとられており、こまがだけかざんぼーさいすてーしょんからていじのしゃとるばすがはっちゃくしている。	NO_LABEL
麓の乳頭温泉郷は、混雑する秘湯として全国的に有名である。	ふもとのにゅーとーおんせんきょーわ、こんざつするひとーとしてぜんこくてきにゆーめいである。	NO_LABEL
