横手 美智子は、日本の脚本家。	よこてみちこわ、にっぽんのきゃくほんか。	NO_LABEL
伊藤和典の一番弟子にあたる。	いとーかずのりのいちばんでしにあたる。	NO_LABEL
就職活動を控えていた時期の1990年に師匠から依頼され、この時点で一度も書いたことのない脚本を一夏を費やして書き上げ、脚本家としてデビューした。	しゅーしょくかつどーをひかえていたじきのせんきゅうひゃくきゅうじゅうねんにししょーからいらいされ、このじてんでいちどもかいたことのないきゃくほんをいちなつをついやしてかきあげ、きゃくほんかとしてでびゅーした。	NO_LABEL
『ジャングルはいつもハレのちグゥ』を皮切りに水島努監督作品に関わることが多く、近年では、『ウィッチクラフトワークス』や『SHIROBAKO』などの水島監督作品で吉田玲子と共に脚本を執筆する。	NO_PRONOUNCE	NO_LABEL
ネット上で公開された当人の日記にて、「横手美智子」とはユニットの名前で、マネジメント担当と、プロット担当、ダイアログ担当の3人から成っており、「横手美智子」はマネジメント担当の本名をそのまま使ったものであるという内容が書かれているが、冗談ともとれる書き方のため、真偽のほどは不明であるが、横手と数多くの作品で組んでいるアニメ監督の高松信司はこのことを「都市伝説」としている。	NO_PRONOUNCE	NO_LABEL
特撮作品の『燃えろ!!ロボコン』、『魔法戦隊マジレンジャー』および『獣拳戦隊ゲキレンジャー』では、主に家族、兄弟の絆やレギュラー悪の敵組織の政権交代をテーマとした脚本を執筆していた。	NO_PRONOUNCE	NO_LABEL
2010年の『天装戦隊ゴセイジャー』ではスーパー戦隊シリーズ2度目のメインライターを担当し、ここでも上記のテーマが描かれている。	NO_PRONOUNCE	NO_LABEL
その一方で、敵だった登場人物が綺麗に改心することに懐疑的であり、「今まで行った悪事に対してはそれなりの責任を取ってけじめをつけなければならない」という手厳しい描写を好む。	NO_PRONOUNCE	NO_LABEL
また、そうした登場人物がたとえ救われずに死亡したとしても、自業自得であることも含めてその手厳しい描写に基づくものであり、そこに家族・兄弟の絆を加えることで視聴者が同情できるケースを用意することがある。	NO_PRONOUNCE	NO_LABEL
※太字の作品はシリーズ構成、またはメインライター担当。	NO_PRONOUNCE	NO_LABEL
