『真性の文字と哲学的言語にむけての試論』はジョン・ウィルキンスによる著作である。	NO_PRONOUNCE	NO_LABEL
ウィルキンスの数多い著作の中で最も記憶されるものであり、この中で彼は、哲学者の使用のための新しい普遍言語を詳説する。	うぃるきんすのかずおーいちょさくのなかでもっともきおくされるものであり、このなかでかれわ、てつがくしゃのしよーのためのあたらしいふへんげんごをしょーせつする。	NO_LABEL
試論で、ウィルキンスは、速記に似た英語のための新しい正書法である「真性の文字」と、初期分類法案や存在論に基づかれた「哲学的言語」を定義した。	NO_PRONOUNCE	NO_LABEL
ウィルキンスは、全ての概念が固有の「非恣意的」名称を持つように語を記号化する方法を提案した。	NO_PRONOUNCE	NO_LABEL
全ての概念は40の主要な"類"に分割され、それぞれ語の最初の二文字音節を与える。	NO_PRONOUNCE	NO_LABEL
類は"差異"に分割され、それぞれもう一つの文字が加わる。	NO_PRONOUNCE	NO_LABEL
差異は"種"に分割され、第四文字を加える。	NO_PRONOUNCE	NO_LABEL
たとえば、"Zi"は「獣」の類を同定し、"Zit"は「犬類の肉食獣」の差異を与え、"Zitα"は、犬の種を意味する。	NO_PRONOUNCE	NO_LABEL
結果として生じた語は、このようにその綴りの中にその意味の意味論のいくつかをコード化する。	けっかとしてしょーじたかたりわ、このよーにそのつずりのなかにそのいみのいみろんのいくつかをこーどかする。	NO_LABEL
このようなアプリオリ言語は、どのように中国語の筆記システムが働いているかという報告により影響された。	このよーなあぷりおりげんごわ、どのよーにちゅーごくごのひっきしすてむがはたらいているかとゆうほーこくによりえいきょーされた。	NO_LABEL
ホルヘ・ルイス・ボルヘスは、彼のエッセイ"El idioma analítico de John Wilkins"でウィルキンスの哲学的言語の批評を書いた。	NO_PRONOUNCE	NO_LABEL
彼は、ウィルキンスの分類法を架空の天上界の慈悲深い知識の百貨店と比較し、全ての普遍分類法への試みについて疑いを表した。	かれわ、うぃるきんすのぶんるいほーをかくーのてんじょーかいのじひぶかいちしきのひゃっかてんとひかくし、すべてのふへんぶんるいほーえのこころみについてうたがいをあらわした。	NO_LABEL
近代情報理論も、似ているが区別される語も似た音を持つことは悪い方法であることを示唆している。	きんだいじょーほーりろんも、にているがくべつされるかたりもにたおとをもつことわわるいほーほーであることをしさしている。	NO_LABEL
なぜなら聞き間違いと結果的混乱が現実の言語よりもより著しくなるからである。	なぜならききまちがいとけっかてきこんらんがげんじつのげんごよりもよりいちじるしくなるからである。	NO_LABEL
"The Search for the Perfect Language"において、ウンベルト・エーコは、文献においてウィルキンス自身がこの種類の間違いをしていたことを発見した。	NO_PRONOUNCE	NO_LABEL
より近代のアプリオリ言語は、ソルレソルとRoである。	NO_PRONOUNCE	NO_LABEL
Steven Pinker, 'Words and Rules', "Phoenix", 1999	NO_PRONOUNCE	NO_LABEL
