西条郵便局	さいじょーゆーびんきょく	NO_LABEL
西条郵便局は愛媛県西条市にある郵便局。	さいじょーゆーびんきょくわえひめけんさいじょーしにあるゆーびんきょく。	NO_LABEL
民営化前の分類では集配普通郵便局であった。	みんえいかまえのぶんるいでわしゅーはいふつーゆーびんきょくであった。	NO_LABEL
住所：〒793-8799 愛媛県西条市大町1710-4	NO_PRONOUNCE	NO_LABEL
