ARROWS A 101Fは、富士通モバイルコミュニケーションズによって開発された、ソフトバンクモバイルの第3世代移動通信システム端末である。	NO_PRONOUNCE	NO_LABEL
SoftBank スマートフォンシリーズのひとつ。	そふとばんくすまーとふぉんしりーずのひとつ。	NO_LABEL
OSはAndroid 4.0を搭載している。	おーえすわあんどろいどよんてんれいをとーさいしている。	NO_LABEL
富士通ブランドではデジタルホン時代のDP-125以来実に14年ぶりの再参入で、ソフトバンク時代では初となるスマートフォンである。	NO_PRONOUNCE	NO_LABEL
富士通モバイルの実質的な前身である東芝本体の社内カンパニーであるモバイルコミュニケーション社時代を含めると、2009年12月に発売されたSoftBank X02T以来約2年半ぶりの端末となる。	NO_PRONOUNCE	NO_LABEL
NTTドコモ向けのREGZA Phone T-02Dをベースとしており外装設計・スペックはほぼ同等である。	NO_PRONOUNCE	NO_LABEL
ただし、こちらは900MHz帯に対応しており、ULTRA SPEEDサービスにも対応している。	NO_PRONOUNCE	NO_LABEL
キャッチコピーは、「ULTRA SPEED 42Mbps対応 超映像美と新操作感」。	NO_PRONOUNCE	NO_LABEL
なお、2017年3月31日に配信が停止され、ユーザーによる端末単体でのアップデートが実行できなくなる。	なお、にせんじゅうななねんさんがつさんじゅういちにちにはいしんがていしされ、ゆーざーによるたんまつたんたいでのあっぷでーとがじっこーできなくなる。	NO_LABEL
もし4月1日以降にアップデートを希望する場合はSoftBankの店頭に端末を預け、メーカーの修理拠点でアップデートを適用してもらう形になる為持ち込み修理扱いになるが無償で対応する。	もししがつついたちいこーにあっぷでーとをきぼーするばあいわそふとばんくのてんとーにたんまつをあずけ、めーかーのしゅーりきょてんであっぷでーとをてきよーしてもらうかたちになるためもちこみしゅーりあつかいになるがむしょーでたいおーする。	NO_LABEL
