タイ国キリスト教団、タイ語：สภาคริสตจักรในประเทศไทย）は、タイ王国のプロテスタント系キリスト教団体の連合体。	NO_PRONOUNCE	NO_LABEL
タイ王国はプロテスタント系団体が多いが、その中でも最も大きい政府公認の連合団体である。	たいおーこくわぷろてすたんとけいだんたいがおーいが、そのなかでももっともおーきーせいふこーにんのれんごーだんたいである。	NO_LABEL
構成信徒数は16万人。	こーせいしんとすーわじゅうろくまんにん。	NO_LABEL
1934年に、タイ国内のすべてのプロテスタント団体を包括したエキュメニズムの連合体の形成を意図してサイヤムキリスト教団が創設された。	せんきゅうひゃくさんじゅうよねんに、たいこくないのすべてのぷろてすたんとだんたいをほーかつしたえきゅめにずむのれんごーたいのけいせいをいとしてさいやむきりすときょーだんがそーせつされた。	NO_LABEL
最も大きい構成団体は長老派の団体であり、そのほかに、米国バプテスト派や英国キリスト教団、ドイツ、マーバーガーミッションの各団体も所属していた。	もっともおーきいこーせいだんたいわちょーろーはのだんたいであり、そのほかに、べいこくばぷてすとはやえいこくきりすときょーだん、どいつ、まーばーがーみっしょんのかくだんたいもしょぞくしていた。	NO_LABEL
第二次世界大戦中を除き、1970年代後半まで長老派が教団内で主流派として影響を持ち続けたが、1990年に入って、教団内の構成が大きく変わり、バプテスト系の民族教会が構成員のほぼ半数を占めるようになった。	だいにじせかいたいせんちゅーをのぞき、せんきゅうひゃくななじゅうねんだいこーはんまでちょーろーはがきょーだんないでしゅりゅーはとしてえいきょーをもちつずけたが、せんきゅうひゃくきゅうじゅうねんにはいって、きょーだんないのこーせいがおーきくかわり、ばぷてすとけいのみんぞくきょーかいがこーせいいんのほぼはんすーをしめるよーになった。	NO_LABEL
教団は世界教会協議会、アジアキリスト教協議会に加盟し、主流派はエキュメニカリズムであるとみなされている。	きょーだんわせかいきょーかいきょーぎかい、あじあきりすときょーきょーぎかいにかめいし、しゅりゅーはわえきゅめにかりずむであるとみなされている。	NO_LABEL
教団の行政は長老派、ディサイプル派、バプテスト派の混在した政体で一元的に運営されている。	きょーだんのぎょーせいわちょーろーは、でぃさいぷるは、ばぷてすとはのこんざいしたせいたいでいちげんてきにうんえいされている。	NO_LABEL
タイ人、中国系タイ人、カレン族、英語圏信者の教団によって構成される。	たいじん、ちゅーごくけいたいじん、かれんぞく、えいごけんしんじゃのきょーだんによってこーせいされる。	NO_LABEL
また教団ビル内12階には日本語教会もある。	またきょーだんびるないじゅうにかいにわにほんごきょーかいもある。	NO_LABEL
バンコク都ラーチャテーウィー区ペッチャブリー通りパヤータイ通り328に教団ビルを構える。	NO_PRONOUNCE	NO_LABEL
タイ国キリスト教団は、1934年のサイアムキリスト教団として発足時、7教区を持ち、内6教区は地理的教区、1教区は中国人コミュニティに対する民族カテゴリーによる教区であった。	NO_PRONOUNCE	NO_LABEL
現在、教区は19教区まで増加している。	NO_PRONOUNCE	NO_LABEL
教団は地域社会の社会事業やエキュメニカル運動にも活発に携わっている。	きょーだんわちーきしゃかいのしゃかいじぎょーやえきゅめにかるうんどーにもかっぱつにたずさわっている。	NO_LABEL
教団は教育施設や病院を運営しており、バンコクキリスト教病院、タイキリスト教大学、パーヤップ大学などがある。	きょーだんわきょーいくしせつやびょーいんをうんえいしており、ばんこくきりすときょーびょーいん、たいきりすときょーだいがく、ぱーやっぷだいがくなどがある。	NO_LABEL
またスラム地域の貧困救済事業や、2004年‐2005年には、スマトラ島沖地震の被災者支援にも参加し、貢献している。	NO_PRONOUNCE	NO_LABEL
