小林 龍二は、日本の歌手、俳優。	こばやしりゅーじわ、にっぽんのかしゅ、はいゆー。	NO_LABEL
東京都出身。	とーきょーとしゅっしん。	NO_LABEL
スターダストプロモーション制作3部に所属していた。	すたーだすとぷろもーしょんせいさくさんぶにしょぞくしていた。	NO_LABEL
同社の若手男性アーティスト集団EBiDANの元メンバーであり、音楽ユニットDISH//の元メンバーである。	どーしゃのわかてだんせいあーてぃすとしゅーだんえびだんのもとめんばーであり、おんがくゆにっとでぃっしゅのもとめんばーである。	NO_LABEL
DISH//では2016年までアーティスト名・RYUJIを用いた。	NO_PRONOUNCE	NO_LABEL
2018年3月13日をもってDISH//を脱退、スターダストプロモーションとの契約を終了した。	にせんじゅうはちねんさんがつじゅうさんにちをもってでぃっしゅをだったい、すたーだすとぷろもーしょんとのけいやくをしゅーりょーした。	NO_LABEL
小学2年生のときにスカウトされて現事務所に入所し、ダンスチームに参加。	しょーがくにねんせいのときにすかうとされてげんじむしょににゅーしょし、だんすちーむにさんか。	NO_LABEL
中学2年生のときにDISH//が結成され、ベースとラップ担当、およびダンスリーダーを受け持つ。	ちゅーがくにねんせいのときにでぃっしゅがけっせいされ、べーすとらっぷたんとー、およびだんすりーだーをうけもつ。	NO_LABEL
