宏善寺は、東京都町田市本町田にある日蓮宗の寺院。	こうぜんじわ、とーきょーとまちだしほんまちだにあるひはすむねのじいん。	NO_LABEL
久住山善立院。	ひさずみやまぜんりついん。	NO_LABEL
旧本山は身延山久遠寺、池上芳師法縁。	きゅーほんざんわみのぶさんくおんじ、いけがみかおるしほーえん。	NO_LABEL
現住職は磯野善成師	げんじゅーしょくわいそのよしなりし	NO_LABEL
日蓮が鎌倉から佐渡へ配流された文永8年、井出の沢にあった真言宗の小庵を日蓮宗に改め創建したと伝わる。	にちれんがかまくらからさどえはいるされたふみながはちねん、いでのさわにあったしんごんしゅーのしょーあんをにちれんしゅーにあらためそーけんしたとつたわる。	NO_LABEL
近隣の養運寺などと、度々戦火で焼亡失したが、慶安2年江戸幕府より寺領７石の御朱印状を拝領し、伽藍が整備された。	きんりんのよーうんじなどと、たびたびせんかでしょーぼーしつしたが、けいあんにねんえどばくふよりじりょーななせきのごしゅいんじょーをはいりょーし、がらんがせいびされた。	NO_LABEL
