馬淵 史郎は、明徳義塾高等学校硬式野球部監督。	まぶちしろーわ、めいとくぎじゅくこーとーがっこーこーしきやきゅーぶかんとく。	NO_LABEL
愛媛県八幡浜市大島出身。	えひめけんやわたはましおーしましゅっしん。	NO_LABEL
愛媛県立三瓶高等学校、拓殖大学卒業。	えひめけんりつみかめこーとーがっこー、たくしょくだいがくそつぎょー。	NO_LABEL
高校と大学では内野手としてプレイ。	こーこーとだいがくでわないやしゅとしてぷれい。	NO_LABEL
甲子園大会の出場経験はなし。	こーしえんたいかいのしゅつじょーけいけんわなし。	NO_LABEL
大学卒業後は松山に帰郷。	だいがくそつぎょーごわまつやまにききょー。	NO_LABEL
2社で就業した後、1982年に兵庫県の警備会社・阿部企業に入社し、野球部のコーチ兼マネージャーに就任。	NO_PRONOUNCE	NO_LABEL
翌1983年より監督を務め、1986年には社会人野球日本選手権大会にて準優勝に輝く。	よくせんきゅうひゃくはちじゅうさんねんよりかんとくをつとめ、せんきゅうひゃくはちじゅうろくねんにわしゃかいじんやきゅーにっぽんせんしゅけんたいかいにてじゅんゆうしょーにかがやく。	NO_LABEL
その後再び松山に戻って職に就くが、翌1987年より明徳義塾高校野球部でコーチを務めつつ、高等学校社会科の教職員免許を取得。	そのごふたたびまつやまにもどってしょくにつくが、よくせんきゅうひゃくはちじゅうななねよりめいとくぎじゅくこうこーやきゅーぶでこーちをつとめつつ、こーとーがっこーしゃかいかのきょーしょくいんめんきょをしゅとく。	NO_LABEL
1990年に明徳野球部の監督に就任。	せんきゅうひゃくきゅうじゅうねんにめいとくやきゅーぶのかんとくにしゅーにん。	NO_LABEL
1992年夏の全国高校野球選手権大会で、当時星稜高等学校の松井秀喜に対して、全打席敬遠を指示した監督としても有名で、この敬遠は社会的に大きな話題となった。	せんきゅうひゃくきゅうじゅうにねんなつのぜんこくこーこーやきゅーせんしゅけんたいかいで、とーじせいりょーこーとーがっこーのまついひできにたいして、ぜんだせきけいえんをしじしたかんとくとしてもゆーめいで、このけいえんわしゃかいてきにおーきなわだいとなった。	NO_LABEL
この連続敬遠をきっかけに明徳義塾高校には「ヒール」のイメージがつきまとった。	NO_PRONOUNCE	NO_LABEL
1998年夏は好投手寺本四郎、高橋一正らを擁し準決勝に進んだが、松坂大輔擁する横浜高等学校に終盤大逆転されて敗れた。	せんきゅうひゃくきゅうじゅうはちねんなつわこーとーしゅてらもとしろー、たかはしかずまさらをよーしじゅんけっしょーにすすんだが、まつざかだいすけよーするよこはまこーとーがっこーにしゅーばんだいぎゃくてんされてやぶれた。	NO_LABEL
その後も毎年強力なチームを編成し、甲子園の常連校として度々大会優勝候補に挙げられる。	そのごもまいとしきょーりょくなちーむをへんせいし、こーしえんのじょーれんこーとしてたびたびたいかいゆーしょーこーほにあげられる。	NO_LABEL
そして自身14回目の2002年夏の大会では森岡良介、筧裕次郎らの活躍で初の決勝に進出し、智弁和歌山高等学校を破って全国初制覇を達成した。	そしてじしんじゅうよんかいめのにせんにねんなつのたいかいでわもりおかりょーすけ、かけいゆうじろーらのかつやくではつのけっしょーにしんしゅつし、ちべんわかやまこーとーがっこーをやぶってぜんこくはつせいはをたっせいした。	NO_LABEL
2005年に明徳は全国高校野球史上初の地方大会8年連続優勝を果たしたものの野球部員の不祥事が発覚し、対戦相手決定後に出場を辞退した。	にせんごねんにめいとくわぜんこくこーこーやきゅーしじょーはつのちほーたいかいはちねんれんぞくゆーしょーをはたしたもののやきゅーぶいんのふしょーじがはっかくし、たいせんあいてけっていごにしゅつじょーをじたいした。	NO_LABEL
馬淵は責任を取り監督を辞任、高野連から1年間の謹慎処分を受けた。	まぶちわせきにんをとりかんとくをじにん、こーやれんからいちねんかんのきんしんしょぶんをうけた。	NO_LABEL
馬淵の後任監督には野球部副部長の飯野勝が就任したが、翌年夏の高知県大会は準優勝に終わり、馬淵抜きでの甲子園出場は果たせなかった。	まぶちのこーにんかんとくにわやきゅーぶふくぶちょーのいーのまさるがしゅーにんしたが、よくねんなつのこーちけんたいかいわじゅんゆうしょーにおわり、まぶちぬきでのこーしえんしゅつじょーわはたせなかった。	NO_LABEL
2006年8月16日、高野連の審議委員会で復帰が承認され、同22日付で監督に復帰。	にせんろくねんはちがつじゅうろくにち、こーやれんのしんぎいーんかいでふっきがしょーにんされ、どーにじゅうににちずけでかんとくにふっき。	NO_LABEL
監督復帰時のチームでの甲子園出場はならなかったが、翌年のチームで2008年春に甲子園出場を果たし、復帰後初の甲子園での指揮で健在ぶりを示した。	かんとくふっきじのちーむでのこーしえんしゅつじょーわならなかったが、よくねんのちーむでにせんはちねんはるにこーしえんしゅつじょーをはたし、ふっきごはつのこーしえんでのしきでけんざいぶりをしめした。	NO_LABEL
2012年の夏の甲子園では藤浪晋太郎、森友哉擁する大阪桐蔭に準決勝で0-4で敗れベスト4。	NO_PRONOUNCE	NO_LABEL
2014年に出場したセンバツでは準々決勝まで勝ち進み、佐野日大に延長戦の末5-7で敗れるもベスト8。	NO_PRONOUNCE	NO_LABEL
同年に出場した長崎国体では沖縄尚学を10-1、敦賀気比を7-2で破ると準決勝で八頭に20-6で勝ち、決勝では健大高崎に3-2で勝利し国体初優勝を達成する。	NO_PRONOUNCE	NO_LABEL
なお夏の甲子園大会には、2010年から2016年現在まで高知県代表として7年連続出場中。	なおなつのこーしえんたいかいにわ、にせんじゅうねんからにせんじゅうろくねんげんざいまでこーちけんだいひょーとしてななねんれんぞくしゅつじょーちゅー。	NO_LABEL
2016年の夏の甲子園では4年ぶりに準決勝に進出するも、作新学院に2-10で敗退。	NO_PRONOUNCE	NO_LABEL
2002年以来14年ぶり2回目の決勝戦進出はならなかった。	にせんにねんいらいじゅうよんねんぶりにかいめのけっしょーせんしんしゅつわならなかった。	NO_LABEL
各県大会の上位校が集い、年2回開催される四国地区大会にも高知県勢として頻繁に出場し好成績を収めており、四国の強豪校としての地位を確立させている。	かくけんたいかいのじょーいこーがつどい、としにかいかいさいされるしこくちくたいかいにもこーちけんぜいとしてひんぱんにしゅつじょーしこーせいせきをおさめており、しこくのきょーごーこーとしてのちいをかくりつさせている。	NO_LABEL
