『めだかの学校』は、森ゆきえのデビュー作。	NO_PRONOUNCE	NO_LABEL
単行本全6巻。	たんこーほんぜんろくかん。	NO_LABEL
『りぼんオリジナル』1996年8月号から『りぼん』2005年3月号まで連載されていた。	NO_PRONOUNCE	NO_LABEL
OVA化されている。	おーぶいえーかされている。	NO_LABEL
2011年8月現在、作者が自身のブログで本作のその後を描いた漫画を不定期更新している。	にせんじゅういちねんはちがつげんざい、さくしゃがじしんのぶろぐでもとさくのそのごをえがいたまんがをふていきこーしんしている。	NO_LABEL
『りぼん』公式サイトで『めだかの学校 2限目!』が連載開始予定であることが明らかにされ、2015年1月特大号から連載中である。	NO_PRONOUNCE	NO_LABEL
中学2年生の江野めだかが転校した私立たなか中学校は、頭部が魚の田中先生をはじめ、一癖も二癖もある人間や動物が通う、奇妙な学校だった・・・。	NO_PRONOUNCE	NO_LABEL
