『やっとかめ探偵団』は、清水義範の小説シリーズ、またこれを原作とする演劇・テレビドラマ・テレビアニメ。	NO_PRONOUNCE	NO_LABEL
駄菓子屋「ことぶき屋」を営む老婆・波川まつ尾が、近所の年寄り仲間や子供たちとともに様々な「どえりゃー事件」を解決していくという物語である。	NO_PRONOUNCE	NO_LABEL
愛知県名古屋市の下町を舞台にした作品で、作品中には名古屋弁がふんだんに使われている。	あいちけんなごやしのしたまちをぶたいにしたさくひんで、さくひんちゅーにわなごやべんがふんだんにつかわれている。	NO_LABEL
題名中のやっとかめも「久し振り」を意味する名古屋弁である。	NO_PRONOUNCE	NO_LABEL
1996年から2000年にかけて、同作品のテレビドラマ『やっとかめのやっとかめ探偵団』が中部日本放送で放送された。	NO_PRONOUNCE	NO_LABEL
東海テレビ制作・フジテレビ系でスペシャルドラマ『名古屋やっとかめ探偵団〜前代未聞!!婆ちゃん探偵〜』が2010年6月20日の16時05分 - 17時20分に放送された。	NO_PRONOUNCE	NO_LABEL
スペシャルドラマ第1弾の好評により、第2弾となる正月ドラマスペシャル 『新春東京ツアー どえりゃあ婆ちゃん探偵団〜湯けむりパラダイスの怪事件〜』が2011年1月4日の14時05分 - 15時20分に放送された。	NO_PRONOUNCE	NO_LABEL
東海テレビ版では、「やっとかめ探偵団」のまつ尾・常・かねよ・ハツの4人を女優ではなく、橋爪功・小松政夫・石倉三郎・佐藤B作の4人の男優が演じている。	NO_PRONOUNCE	NO_LABEL
2007年10月7日から2008年1月6日まで、同作品のテレビアニメ『やっとかめ探偵団』がテレビ愛知で放送された。	NO_PRONOUNCE	NO_LABEL
放送時間は毎週日曜 7時00分 - 7時30分。	NO_PRONOUNCE	NO_LABEL
この作品はテレビ愛知1局のみで放送され、キー局のテレビ東京を含め他のテレビ東京系列局へのネットは行われていない。	NO_PRONOUNCE	NO_LABEL
テレビ愛知は数多くのテレビアニメを制作しているが、名古屋ローカルのアニメを放送するのはこれが初であり、また、この作品に関しては放送枠の貸与のみという形でしか携わっていなかった。	てれびあいちわかずおーくのてれびあにめをせいさくしているが、なごやろーかるのあにめをほーそーするのわこれがはつであり、また、このさくひんにかんしてわほーそーわくのたいよのみとゆうかたちでしかたずさわっていなかった。	NO_LABEL
その関係から、番組放送当時に存在していた公式サイトはテレビ愛知公式サイト内には併設されず、独自ドメインを取得した上で開設されていた。	そのかんけいから、ばんぐみほーそーとーじにそんざいしていたこーしきさいとわてれびあいちこーしきさいとないにわへいせつされず、どくじどめいんをしゅとくしたうえでかいせつされていた。	NO_LABEL
制作方針としてご当地名古屋に徹底してこだわっており、登場人物たちが話す名古屋弁を自然に再現するために愛知県出身の声優を多く起用するなどしていた。	せいさくほーしんとしてごとーちなごやにてっていしてこだわっており、とーじょーじんぶつたちがはなすなごやべんをしぜんにさいげんするためにあいちけんしゅっしんのせいゆーをおーくきよーするなどしていた。	NO_LABEL
スポンサーはセイコーエプソンの一社提供だったが、CMの放送本数は総CM時間枠のほぼ半分ほどしか無く、残りの半分は公共広告機構のCMが占めていた。	すぽんさーわせいこーえぷそんのいっしゃていきょーだったが、こんぴゅーたみゅーじっくまがじんのほーそーほんすーわそーこんぴゅーたみゅーじっくまがじんじかんわくのほぼはんぶんほどしかなく、のこりのはんぶんわこーきょーこーこくきこーのこんぴゅーたみゅーじっくまがじんがしめていた。	NO_LABEL
当初は全26話が放送される予定だったが、その後、第13話で事実上の打ち切りとなった。	とーしょわぜんにじゅうろくわがほーそーされるよていだったが、そのご、だいじゅうさんわでじじつじょーのうちきりとなった。	NO_LABEL
2008年1月6日には新春特別企画として、原作者の清水義範と番組のナレーターを務めた三遊亭円丈による対談が放送されたが、本編放送後には次回予告が流れず、第15話以降が放送できないことが明かされた。	にせんはちねんいちがつむいかにわしんしゅんとくべつきかくとして、げんさくしゃのしみずよしのりとばんぐみのなれーたーをつとめたさんゆうていえんじょーによるたいだんがほーそーされたが、ほんぺんほーそーごにわじかいよこくがながれず、だいじゅうごわいこーがほーそーできないことがあかされた。	NO_LABEL
公式サイトの発表では飽くまで「放送休止」としていたが、公式サイト自体の更新が番組の打ち切りとほぼ同時期に停止しており、その後、何の予告もなく同サイトは閉鎖された。	NO_PRONOUNCE	NO_LABEL
"以下、番組放送当時に存在していた公式サイトからの参考。	NO_PRONOUNCE	NO_LABEL
"	NO_PRONOUNCE	NO_LABEL
