松川 道哉は、福島県出身の元大蔵官僚。	まつかわみちやわ、ふくしまけんしゅっしんのもとおーくらかんりょー。	NO_LABEL
元財務官。	もとざいむかん。	NO_LABEL
府立一中、一高、東京帝国大学法学部、海軍経理学校短期現役組を経て1945年に海軍主計少尉。	ふりついっちゅー、いちたか、とーきょーていこくだいがくほーがくぶ、かいぐんけいりがっこーたんきげんえきぐみをへてせんきゅうひゃくよんじゅうごねんにかいぐんしゅけいしょーい。	NO_LABEL
1947年東京大学法学部卒。	せんきゅうひゃくよんじゅうななねとーきょーだいがくほーがくぶそつ。	NO_LABEL
高文合格後、大蔵省入省。	たかふみごーかくご、おーくらしょーにゅーしょー。	NO_LABEL
ニクソン・ショック後の日本の国際金融の舵取りにあたった。	にくそんしょっくごのにっぽんのこくさいきんゆーのかじとりにあたった。	NO_LABEL
退官後は日興リサーチセンター理事長など。	たいかんごわにっこーりさーちせんたーりじちょーなど。	NO_LABEL
