ピエール＝ポール・プリュードンは、フランスの画家。	ぴえーるぽーるぷりゅーどんわ、ふらんすのがか。	NO_LABEL
神話・寓話を元とした絵画・肖像が有名である。	NO_PRONOUNCE	NO_LABEL
クリュニーで石工の父親の10番目の息子として生まれる。	くりゅにーでせっこーのちちおやのじゅうばんめのむすことしてうまれる	NO_LABEL
16歳の時ディジョンのフランソワ・ドヴォージュの絵画学校に入学する。	NO_PRONOUNCE	NO_LABEL
1780年にパリへ出てきた。	せんななひゃくはちじゅうねんにぱりえでてきた。	NO_LABEL
1782年にイタリアに留学し、レオナルド・ダ・ヴィンチやコレッジョに傾倒する。	NO_PRONOUNCE	NO_LABEL
1784年にローマ賞を受賞。	せんななひゃくはちじゅうよねんにろーましょーをじゅしょー。	NO_LABEL
帰国後はパリに滞在し、フランス革命中は革命派に荷担した。	きこくごわぱりにたいざいし、ふらんすかくめいちゅーわかくめいはにかたんした。	NO_LABEL
初期は生活のためにデッサンや肖像画を描いた。	しょきわせいかつのためにでっさんやしょーぞーがをえがいた。	NO_LABEL
1798年にサン・クルー城の天井画の依頼を受け、以後同じような依頼が続く。	NO_PRONOUNCE	NO_LABEL
活動が盛んだったのはフランス第一帝政時代以後であって、1801年からナポレオン1世より肖像画や室内装飾の依頼を受けるようになる。	かつどーがさかんだったのわふらんすだいいちていせいじだいいごであって、せんはっぴゃくいちねんからなぽれおんいっせいよりしょーぞーがやしつないそーしょくのいらいをうけるよーになる。	NO_LABEL
特に皇后ジョゼフィーヌに認められて『マルメゾンの庭に腰掛けるジョゼフィーヌ』など多くの代表作を残した。	NO_PRONOUNCE	NO_LABEL
また、ナポレオンの2番目の妻マリー＝ルイーズにも認められた。	NO_PRONOUNCE	NO_LABEL
1821年に弟子であった女流画家コンスタンス・メイエが自殺し、大きなショックを受けた。	NO_PRONOUNCE	NO_LABEL
1823年にパリで没し、ペール・ラシェーズ墓地に埋葬された。	せんはっぴゃくにじゅうさんねんにぱりでぼっし、ぺーるらしぇーずぼちにまいそーされた。	NO_LABEL
作風は明らかに新古典主義に影響されているが、ロマンティックな情趣を含み、優美な感覚と甘美な色彩感を持っていた。	さくふーわあきらかにしんこてんしゅぎにえいきょーされているが、ろまんてぃっくなじょーしゅをふくみ、ゆーびなかんかくとかんびなしきさいかんをもっていた。	NO_LABEL
彼のキアロスクロの技術で人物と背景とをはっきりと浮かび上がらせるやり方は、スタンダール、ウジェーヌ・ドラクロワ、ジャン＝フランソワ・ミレー、シャルル・ボードレールら芸術家に高く評価されていた。	かれのきあろすくろのぎじゅつでじんぶつとはいけいとをはっきりとうかびあがらせるやりかたわ、すたんだーる、うじぇーぬどらくろわ、じゃんふらんそわみれー、しゃるるぼーどれーるらげいじゅつかにたかくひょーかされていた。	NO_LABEL
