井汲 越次は、日本のドイツ文学者。	いくみえつじわ、にっぽんのどいつぶんがくしゃ。	NO_LABEL
1924年東京外国語学校独語科卒。	せんきゅうひゃくにじゅうよねんとーきょーがいこくごがっこーどくごかそつ。	NO_LABEL
同人誌『河』に参加。	NO_PRONOUNCE	NO_LABEL
戦後、大阪府立大学教授、大阪女子大学教授、1967年大手前女子大学教授を歴任し、ドイツ・ロマン派、特にハイネを研究、翻訳した。	NO_PRONOUNCE	NO_LABEL
