諸葛 婉は、中国西晋の武帝司馬炎の妃。	NO_PRONOUNCE	NO_LABEL
琅邪陽都の人。	NO_PRONOUNCE	NO_LABEL
祖父は魏および西晋の武将の諸葛緒。	そふわぎおよびせいしんのぶしょーのしょかつしょ。	NO_LABEL
父は諸葛沖。	ちちわしょかつおき。	NO_LABEL
泰始9年、武帝は全国から後宮の女を5千人選んだ。	NO_PRONOUNCE	NO_LABEL
その中で諸葛婉は夫人に封ぜられた。	NO_PRONOUNCE	NO_LABEL
