サラボージーラージャプラムは、インドのタミル・ナードゥ州、タンジャーヴール県の村。	NO_PRONOUNCE	NO_LABEL
18世紀、タンジャーヴール・マラーター王国の君主サラボージーがバラモンに土地を寄進ことにより、この名がつけられた。	NO_PRONOUNCE	NO_LABEL
村の名はサラボージー王の村といった意味である。	むらのなわさらぼーじーおーのむらといったいみである。	NO_LABEL
2001年の人口統計では、2612人。	NO_PRONOUNCE	NO_LABEL
識字率は84.74パーセント。	NO_PRONOUNCE	NO_LABEL
