株式会社エフエムゆーとぴあは、秋田県湯沢市及び雄勝郡羽後町の各一部地域を放送区域として超短波放送をする特定地上基幹放送事業者である。	かぶしきがいしゃえふえむゆーとぴあわ、あきたけんゆざわしおよびおがつぐんうごまちのかくいちぶちーきをほーそーくいきとしてちょーたんぱほうそーをするとくていちじょーきかんほーそーじぎょーしゃである。	NO_LABEL
FMゆーとぴあそのままの愛称でコミュニティ放送をしている。	えふえむゆーとぴあそのままのあいしょーでこみゅにてぃほうそーをしている。	NO_LABEL
秋田県で2番目に開局したコミュニティ放送局である。	あきたけんでにばんめにかいきょくしたこみゅにてぃほーそーきょくである。	NO_LABEL
英称は "Yutopia" と綴り、一般に言うユートピアとは一部異なる。	NO_PRONOUNCE	NO_LABEL
本社・スタジオはJR湯沢駅近くの商店街にあり、湯沢市役所にも近い場所にある。	NO_PRONOUNCE	NO_LABEL
可聴範囲は湯沢市及び近郊町村で、放送エリア内人口は11万人。	かちょーはんいわゆざわしおよびきんこーちょーそんで、ほーそーえりあないじんこーわじゅういちまんにん。	NO_LABEL
日曜深夜を含め24時間放送が行われており、自社制作番組以外はミュージックバードの番組などを放送している。	にちよーしんやをふくめにじゅうよじかんほーそーがおこなわれており、じしゃせいさくばんぐみいがいわみゅーじっくばーどのばんぐみなどをほーそーしている。	NO_LABEL
2009年9月19日・20日に横手市で「B-1グランプリ in 横手」が開催された際、当時コミュニティ放送局が無かった横手市側からの依頼で、横手市の一部でも聴取可能な当局が大会の模様や交通情報などを、第1会場に隣接する横手市「ふれあいセンター・かまくら館」内に設置された臨時スタジオから生放送した。	NO_PRONOUNCE	NO_LABEL
2011年3月17日よりSimulRadioに参加。	にせんじゅういちねんさんがつじゅうしちにちよりさいまるらじおにさんか。	NO_LABEL
インターネットでの聴取が可能となる。	いんたーねっとでのちょーしゅがかのーとなる。	NO_LABEL
年始期間は平日朝7・8時台、朝10・11時台、昼、夕方、土日昼の自社制作生放送が休止となり、該当時間帯にはミュージックバードの番組が放送される。	NO_PRONOUNCE	NO_LABEL
終了番組	しゅーりょーばんぐみ	NO_LABEL
