スチュアート・デイヴィスは、アメリカ合衆国のモダニズムを代表する画家。	NO_PRONOUNCE	NO_LABEL
フィラデルフィア生まれ。	ふぃらでるふぃあうまれ。	NO_LABEL
ニューヨークでロバート・ヘンライに学ぶ。	NO_PRONOUNCE	NO_LABEL
その後、1913年のアーモリーショーに大きく影響を受け、モダニズムに傾いていく。	そのご、せんきゅうひゃくじゅうさんねんのあーもりーしょーにおーきくえいきょーをうけ、もだにずむにかたむいていく。	NO_LABEL
キュビスムと構成主義を基調とした、抽象的な絵画作品を制作。	きゅびすむとこーせいしゅぎをきちょーとした、ちゅーしょーてきなかいがさくひんをせいさく。	NO_LABEL
カラフルで、現実肯定的な明るい画面が特徴。	からふるで、げんじつこーていてきなあかるいがめんがとくちょー。	NO_LABEL
戦前から戦後にかけて活躍し、その作品は、のちのポップアートにも大きな影響を与えた。	せんぜんからせんごにかけてかつやくし、そのさくひんわ、のちのぽっぷあーとにもおーきなえいきょーをあたえた。	NO_LABEL
ヨーロッパからの直輸入やヨーロッパ美術の物まねではなく、アメリカ独自の美術を展開した画家としては、もっとも早く成功した画家のひとりである。	よーろっぱからのちょくゆにゅーやよーろっぱびじゅつのものまねでわなく、あめりかどくじのびじゅつをてんかいしたがかとしてわ、もっともはやくせいこーしたがかのひとりである。	NO_LABEL
