ユニゾンスクエアは、東京都中野区東中野にある高層マンションや商業施設なとが集まった再開発地区の名称である。	ゆにぞんすくえあわ、とーきょーとなかのくひがしなかのにあるこーそーまんしょんやしょーぎょーしせつなとがあつまったさいかいはつちくのめいしょーである。	NO_LABEL
結婚式場として知られる日本閣の跡地を再開発し、高層マンション2棟とスーパーマーケットなどの商業施設さらに、「West 53rd 日本閣」として新たにリニューアルされた日本閣からなっている。	NO_PRONOUNCE	NO_LABEL
新しい日本閣は2005年、高層マンションは2007年にそれぞれオープンした。	NO_PRONOUNCE	NO_LABEL
大正9年に当地で創業した日本閣の用地が新たに再開発され、高さ約100メートルの高層マンション2棟とリニューアルされた「West 53rd 日本閣」からなっている。	NO_PRONOUNCE	NO_LABEL
開発は日本閣観光である。	かいはつわにほんかくかんこーである。	NO_LABEL
東中野駅傍にあり、駅入口とユニゾンタワーとがデッキでつながっている。	ひがしなかのえきはたにあり、えきいりぐちとゆにぞんたわーとがでっきでつながっている。	NO_LABEL
ユニゾンスクエアにある高層マンションのうち、西側にある高層賃貸マンションである。	ゆにぞんすくえあにあるこーそーまんしょんのうち、にしがわにあるこーそーちんたいまんしょんである。	NO_LABEL
通常は単にユニゾンタワーと呼ばれている事が多い。	つーじょーわたんにゆにぞんたわーとよばれていることがおーい。	NO_LABEL
三井不動産の関連会社であるレジデントファーストが管理・運営している。	NO_PRONOUNCE	NO_LABEL
31階建てで高さは約106m.2007年11月末竣工。	NO_PRONOUNCE	NO_LABEL
また、下層階は、「ユニゾンモール」という京王電鉄が管理・運営している商業施設となっており、「キッチンコート」やゴールドジムをはじめ、飲食店・各種サービス業の店舗などが入っている。	NO_PRONOUNCE	NO_LABEL
この施設には住居部分とは独立した出入口があり、マンション以外の近隣の住民などにも利用されている。	このしせつにわじゅーきょぶぶんとわどくりつしたでいりぐちがあり、まんしょんいがいのきんりんのじゅーみんなどにもりよーされている。	NO_LABEL
ユニゾンスクエアにある高層マンションのうち、東側にある高層分譲マンションである。	ゆにぞんすくえあにあるこーそーまんしょんのうち、ひがしがわにあるこーそーぶんじょーまんしょんである。	NO_LABEL
三井不動産が運営している。	みついふどーさんがうんえいしている。	NO_LABEL
30階建てで高さは約103m。	さんじゅうかいだてでたかさわやくひゃくさんめーとる。	NO_LABEL
2007年3月の竣工。	にせんななねんさんがつのしゅんこー。	NO_LABEL
デザインや色調は隣のユニゾンタワーと統一されたつくりになっている。	でざいんやしきちょーわとなりのゆにぞんたわーととーいつされたつくりになっている。	NO_LABEL
敷地西側を占める結婚式場。	しきちにしがわをしめるけっこんしきじょー。	NO_LABEL
地上5階地下1階。	ちじょーごかいちかいっかい。	NO_LABEL
名は館内のデザインがニューヨーク近代美術館などがあるニューヨーク西53番街をコンセプトに造られている事に由来。	なわかんないのでざいんがにゅーよーくきんだいびじゅつかんなどがあるにゅーよーくにしごじゅうさんばんがいをこんせぷとにつくられていることにゆらい。	NO_LABEL
結婚式場のほか、パーティなどにも利用できる。	けっこんしきじょーのほか、ぱーてぃなどにもりよーできる。	NO_LABEL
ガラス張りの開放された造りとなり、大きくリニューアルされた。	がらすばりのかいほーされたつくりとなり、おーきくりにゅーあるされた。	NO_LABEL
