名和 顕孝は、戦国時代の武将。	なわあらわこーわ、せんごくじだいのぶしょー。	NO_LABEL
宇土名和氏の6代当主。	うとなわしのろくだいとーしゅ。	NO_LABEL
宇土城主。	うどじょーしゅ。	NO_LABEL
「まんが日本昔ばなし」の「孝行娘」に登場する「若殿さま」と同一人物である。	NO_PRONOUNCE	NO_LABEL
永禄4年、名和行直の子として生まれる。	えいろくよんねん、なわゆきなおのことしてうまれる	NO_LABEL
天正7年、島津氏に対して城氏と共に接近。	てんしょーななねん、しまずしにたいしてじょーしとともにせっきん。	NO_LABEL
天正15年、豊臣秀吉による島津氏征伐に巻き込まれ降伏し、豊臣軍に加勢して功を挙げた。	てんしょーじゅうごねん、とよとみひでよしによるしまずしせいばつにまきこまれこーふくし、とよとみぐんにかせいしてこーをあげた。	NO_LABEL
これにより秀吉から本領安堵を約束される。	これによりひでよしからほんりょーあんどをやくそくされる。	NO_LABEL
天正16年からは筑前国の小早川氏に属した。	てんしょーじゅうろくねんからわちくぜんのくにのこばやかわうじにぞくした。	NO_LABEL
慶長13年没。	けいちょーじゅうさんねんぼつ。	NO_LABEL
跡目は子の長興が継ぎ、柳川藩主・立花宗茂に召し抱えられ、「伯耆」を称した。	NO_PRONOUNCE	NO_LABEL
子孫は柳川藩士として存続し、幕末に至って再び「名和」を称した。	NO_PRONOUNCE	NO_LABEL
時の当主・名和長恭が男爵に叙せられ、名和神社の神職となった。	NO_PRONOUNCE	NO_LABEL
