ラオ・ラオはラオスの蒸留酒。	らおらおわらおすのじょーりゅーしゅ。	NO_LABEL
特に低地ラオ族が好んで飲む。	とくにていちらおぞくがこのんでのむ。	NO_LABEL
もち米を原料とした蒸留酒で、炭酸水やコーラなどで割って飲む。	もちごめをげんりょーとしたじょーりゅーしゅで、たんさんすいやこーらなどでわってのむ。	NO_LABEL
ルアンパバーンやラオス北端の、南端のコーン島産のものが良質なラオ・ラオとして有名だが、ラオス国内のどの町でも入手できる。	るあんぱばーんやらおすほくたんの、なんたんのこーんしまさんのものがりょーしつならおらおとしてゆーめいだが、らおすこくないのどのまちでもにゅーしゅできる。	NO_LABEL
2000年の報告では、1瓶の市販価格が800 - 1,000キープだった。	NO_PRONOUNCE	NO_LABEL
もち米を水に3 - 4時間漬けた後、1時間蒸し煮する。	NO_PRONOUNCE	NO_LABEL
竹製の編み籠に移し、水洗して粘りを落とし、水気を切る。	たけせいのあみかごにうつし、すいせんしてねばりをおとし、みずけをきる。	NO_LABEL
餅麹のスア・ラオを砕いて米飯とよく混合し、陶器の壺に入れて4 - 5日間発酵させる。	NO_PRONOUNCE	NO_LABEL
この発酵が完了すると強いアルコール臭を持つ固めの甘酒が得られるので、加水してさらに5　- 7日間発酵させる。	NO_PRONOUNCE	NO_LABEL
この状態でアルコール度数が約14%のもろみが得られ、ラオと呼ばれる。	このじょーたいであるこーるどすーがやくじゅうよんぱーせんとのもろみがえられ、らおとよばれる。	NO_LABEL
ドラム缶の上に冷却水入りの鍋を載せた外取り型のランビキを使い、ラオを蒸留する。	どらむかんのうえにれいきゃくみずいりのなべをのせたそととりがたのらんびきをつかい、らおをじょーりゅーする。	NO_LABEL
得られたラオ・ラオのアルコール度数は、50%前後となる。	えられたらおらおのあるこーるどすーわ、ごじゅうぱーせんとぜんごとなる。	NO_LABEL
