ジェームズ・ブライエン「ジム」コミー・ジュニアは、アメリカ合衆国の法律家。	NO_PRONOUNCE	NO_LABEL
2013年9月から2017年5月まで連邦捜査局長官を務めた。	にせんじゅうさんねんくがつからにせんじゅうななねんごがつまでれんぽーそーさきょくちょーかんをつとめた。	NO_LABEL
コミーは2002年1月から2003年12月までニューヨーク南部管轄連邦検事であった。	こみーわにせんにねんいちがつからにせんさんねんじゅーにがつまでにゅーよーくなんぶかんかつれんぽーけんじであった。	NO_LABEL
その後、2003年12月から2005年8月までアメリカ合衆国司法副長官を務めた。	そのご、にせんさんねんじゅーにがつからにせんごねんはちがつまであめりかがっしゅーこくしほーふくちょーかんをつとめた。	NO_LABEL
コミーは司法省のナンバー2として日常業務を担当した。	こみーわしほーしょーのなんばーつーとしてにちじょーぎょーむをたんとーした。	NO_LABEL
2003年12月、アメリカ合衆国司法副長官としてコミーは、ジョン・アシュクロフト司法長官が自らを忌避した後、親友でありかつての同僚でもあったパトリック・フィッツジェラルドをイリノイ州シカゴの連邦検事に任命し、フィッツジェラルドは"プレイム事件"の特別弁護士となった。	NO_PRONOUNCE	NO_LABEL
2005年8月にコミーは司法省を去り、メリーランド州ベテスダに本拠を置くロッキード・マーティンのジェネラル・カウンシルおよび上級副社長に就任した。	NO_PRONOUNCE	NO_LABEL
 2010年にはコネチカット州ウエストポートに本社を置くブリッジウォーター・アソシエイツのジェネラル・カウンシルに就任。	NO_PRONOUNCE	NO_LABEL
 2013年初頭にはブリッジウォーターを去ってニューヨーク市のコロンビア・ロー・スクールで上級調査研究員およびロジャー・ハートッグのフェローに就任した。	NO_PRONOUNCE	NO_LABEL
彼は2013年7月までHSBCホールディングスの取締役であった。	かれわにせんじゅうさんねんしちがつまでえいちえすびーしーほーるでぃんぐすのとりしまりやくであった。	NO_LABEL
コミーはニューヨーク州ヨンカーズでブライエン・コミーおよびジョアン夫妻の間に生まれ、ニュージャージー州で成長した。	NO_PRONOUNCE	NO_LABEL
彼の父親は企業の不動産管理を担当し、母親は家事をしながらコンピュータコンサルタントを務めた。	かれのちちおやわきぎょーのふどーさんかんりをたんとーし、ははおやわかじをしながらこんぴゅーたこんさるたんとをつとめた。	NO_LABEL
コミーはアイルランド系であった。	こみーわあいるらんどけいであった。	NO_LABEL
アレンデールのノーザン・ハイランズ・リージョナル・ハイスクールに通い、卒業後はウィリアム・アンド・メアリー大学に進学、科学と宗教を専攻し1982年に卒業した。	NO_PRONOUNCE	NO_LABEL
彼の卒業論文は、自由主義神学者ラインホルド・ニーバーと保守的師ジェリー・ファルエルを分析し、一般的な行為に対する共通の信念を強調するものだった。	かれのそつぎょーろんぶんわ、じゆーしゅぎしんがくしゃらいんほるどにーばーとほしゅてきしじぇりーふぁるえるをぶんせきし、いっぱんてきなこーいにたいするきょーつーのしんねんをきょーちょーするものだった。	NO_LABEL
1985年にはシカゴ大学・ロー・スクールを卒業、法務博士の学位を得た。	NO_PRONOUNCE	NO_LABEL
ロー・スクール卒業後、コミーはニューヨーク・マンハッタンの裁判官の書記として働いた。	NO_PRONOUNCE	NO_LABEL
次に法律事務所のアソシエイト弁護士として働いた。	つぎにほーりつじむしょのあそしえいとべんごしとしてはたらいた。	NO_LABEL
1987年から1993年まで、の合衆国地方検事であった。	せんきゅうひゃくはちじゅうななねからせんきゅうひゃくきゅうじゅうさんねんまで、のがっしゅーこくちほーけんじであった。	NO_LABEL
そこでは刑事局の副責任者であり、ガンビーノ一家の訴追を支援した	そこでわけいじきょくのふくせきにんしゃであり、がんびーのいっかのそついをしえんした	NO_LABEL
2013年9月、コミーはバラク・オバマ大統領によって第7代連邦捜査局長官に任命された。	にせんじゅうさんねんくがつ、こみーわばらくおばまだいとーりょーによってだいななだいれんぽーそーさきょくちょーかんににんめいされた。	NO_LABEL
2016年10月28日、コミーはヒラリー・クリントンのメール問題について捜査の再開を明らかにした。	にせんじゅうろくねんじゅーがつにじゅうはちにち、こみーわひらりーくりんとんのめーるもんだいについてそーさのさいかいをあきらかにした。	NO_LABEL
2016年アメリカ合衆国大統領選挙の投票日目前であり、大統領選に介入したとの批判を浴びることになった。	にせんじゅーろくねんあめりかがっしゅーこくだいとーりょーせんきょのとーひょーびもくぜんであり、だいとーりょーせんにかいにゅーしたとのひはんをあびることになった。	NO_LABEL
彼の2016年の大統領選挙での役割、特に公衆通信に関する物は非常に議論の的となり、クリントンのドナルド・トランプに対する選挙敗北の要因とされている。	かれのにせんじゅうろくねんのだいとーりょーせんきょでのやくわり、とくにこーしゅーつーしんにかんするものわひじょーにぎろんのまととなり、くりんとんのどなるどとらんぷにたいするせんきょはいぼくのよーいんとされている。	NO_LABEL
2017年5月9日、ドナルド・トランプ大統領よりFBI長官を解任された。	にせんじゅうななねんごがつここのか、どなるどとらんぷだいとーりょーよりえふびーあいちょーかんをかいにんされた。	NO_LABEL
解任理由として、2016年アメリカ合衆国大統領選挙におけるロシアの干渉に関する捜査も取り沙汰されているが、後日トランプ大統領は、解雇理由として「目立ちたがり屋で、組織を混乱させていた」ことを挙げている。	NO_PRONOUNCE	NO_LABEL
2017年6月8日、ロシアゲートに関し、コミー前米連邦捜査局長官は米上院情報特別委員会の公聴会で証言した。	にせんじゅうななねんろくがつようか、ろしあげーとにかんし、こみーぜんべいれんぽーそーさきょくちょーかんわべいじょーいんじょーほーとくべついーんかいのこーちょーかいでしょーげんした。	NO_LABEL
コミーは席上、ロシアが米国の大統領選挙に干渉したことは「疑いはない」と述べた。	NO_PRONOUNCE	NO_LABEL
ドナルド・トランプ大統領から大統領自身が捜査対象ではないと公表するよう要求されたが、そうすると捜査状況に変化が生じた時に内容を訂正する義務が生じる可能性があるため、公表しなかったと説明している。	どなるどとらんぷだいとーりょーからだいとーりょーじしんがそーさたいしょーでわないとこーひょーするよーよーきゅーされたが、そーするとそーさじょーきょーにへんかがしょーじたときにないよーをていせいするぎむがしょーじるかのーせいがあるため、こーひょーしなかったとせつめいしている。	NO_LABEL
トランプ大統領が、コミーに対して大統領への忠誠を求めたことには、行政機関においてFBIは伝統的に独立した地位にあるため、不安に感じたと説明した。	とらんぷだいとうりょーが、こみーにたいしてだいとーりょーえのちゅーせいをもとめたことにわ、ぎょーせいきかんにおいてえふびーあいわでんとーてきにどくりつしたちいにあるため、ふあんにかんじたとせつめいした。	NO_LABEL
大統領との会話の内容を詳細なメモに残した理由を、トランプ大統領がウソをつくことを恐れたためと説明した。	だいとーりょーとのかいわのないよーをしょーさいなめもにのこしたりゆーを、とらんぷだいとうりょーがうそをつくことをおそれたためとせつめいした。	NO_LABEL
大統領から「彼はいいやつだ。	NO_PRONOUNCE	NO_LABEL
捜査から手を引くことを望む」との発言は、捜査中止の命令ではないが、大統領の指示だと受けとめた、と発言した。	NO_PRONOUNCE	NO_LABEL
2018年4月17日、長官時代の回顧録『』を出版。	NO_PRONOUNCE	NO_LABEL
多くの予約が入ったことで、初版段階で85万部という売り上げとなった。	NO_PRONOUNCE	NO_LABEL
