長距離伝搬非回折ビームとは、細いビーム幅を保ってあたかも回折しないかの如く長距離を伝搬する特殊なビーム光である。	ちょーきょりでんぱんひかいせつびーむとわ、ほそいびーむはばをたもってあたかもかいせつしないかのごとくちょーきょりをでんぱんするとくしゅなびーむこーである。	NO_LABEL
似たようなものに、ベッセルビームがあげられるが、中心へのより高いエネルギー集中といったいくつかの点で優位性がある。	にたよーなものに、べっせるびーむがあげられるが、ちゅーしんえのよりたかいえねるぎーしゅーちゅーといったいくつかのてんでゆーいせいがある。	NO_LABEL
1990年代の後半、実験中に生じた現象の解明していた結果見つかったものでこのビームの発見は偶然だった。	せんきゅうひゃくきゅうじゅうねんだいのこーはん、じっけんちゅーにしょーじたげんしょーのかいめいしていたけっかみつかったものでこのびーむのはっけんわぐーぜんだった。	NO_LABEL
LRNBは、光波面を特殊な形状に制御することによって生成され、具体的には、波面の曲率が中心より開口端へ行く程小さくなるような歪んだ球面にされることで生成される。	NO_PRONOUNCE	NO_LABEL
これを生成する方法として、凸レンズと負の球面収差を持つ凹レンズの組み合わせがある。	これをせいせいするほーほーとして、とつれんずとふのきゅーめんしゅーさをもつおーれんずのくみあわせがある。	NO_LABEL
ホイヘンス＝フレネル回折理論によって理論的な解析が可能で現在では数値シミュレーションでその特徴が判明している。	NO_PRONOUNCE	NO_LABEL
ここに、数値シミュレーションで確かめられたLRNBの特徴を示す。	NO_PRONOUNCE	NO_LABEL
