アドミラルティM級駆逐艦の設計を採用したサブクラスである。	あどみらるてぃえむきゅーくちくかんのせっけいをさいよーしたさぶくらすである。	NO_LABEL
社会保障の財源確保のため海軍増強計画の見直しを進めるアスキス内閣のもと、イギリス海軍の駆逐艦は、1908-9年度計画のビーグル級、1909-10年度計画のエイコーン級、1910-11年度計画のアケロン級と、艦型を小さくまとめてコスト低減を重視してきていた。	NO_PRONOUNCE	NO_LABEL
その後、1910年1月の庶民院の結果や仮想敵であるドイツ帝国海軍の大型水雷艇の性能向上を受けて、1911-2年度計画のアカスタ級、1912-3年度計画のラフォーレイ級と、再度大型化・高性能化が志向された。	NO_PRONOUNCE	NO_LABEL
しかしドイツ帝国海軍の大型水雷艇は、優れた造機技術を駆使した大出力機関を搭載しており、1908年に進水したV161級では33ノットをマークした。	NO_PRONOUNCE	NO_LABEL
一方の英海軍駆逐艦は、最新のラフォーレイ級でも29ノット程度であった。	NO_PRONOUNCE	NO_LABEL
ウィンストン・チャーチルは、元々は海軍増強計画の見直し推進の急先鋒であったが、1911年に海軍大臣に就任してからは、顧問に迎えたフィッシャー元提督の助言を容れて海軍増強派に転じていた。	うぃんすとんちゃーちるわ、もともとわかいぐんぞーきょーけいかくのみなおしすいしんのきゅーせんぽーであったが、せんきゅうひゃくじゅういちねんにかいぐんだいじんにしゅーにんしてからわ、こもんにむかえたふぃっしゃーもとていとくのじょげんをいれてかいぐんぞーきょーはにてんじていた。	NO_LABEL
この方針転換を背景として、チャーチル海相は駆逐艦の速力劣勢に重大な関心を抱き、1913-4年度計画の駆逐艦では一気に5ノット増速した34ノットの速力が求められることとなった。	NO_PRONOUNCE	NO_LABEL
これによって建造されたのがM級である。	これによってけんぞーされたのがえむきゅーである。	NO_LABEL
アケロン級以降、イギリスの民間造船所の高い技術力に期待して、海軍本部の設計による基本型とは別に、設計・建造にあたって各造船所に大幅な自由裁量を許した特型の設計を採用したサブクラスが本級である。	NO_PRONOUNCE	NO_LABEL
基本設計はL級の小改正型とされており、船型も同じ船首楼型である。	きほんせっけいわえるきゅーのしょーかいせいがたとされており、せんけいもおなじせんしゅろーがたである。	NO_LABEL
中部甲板の4インチ砲はプラットフォーム上ではなく甲板上に直接配置されたが、後期型では再びプラットフォーム上に配置されるようになった。	ちゅーぶかんぱんのよんいんちほーわぷらっとふぉーむじょーでわなくかんぱんじょーにちょくせつはいちされたが、こーきがたでわふたたびぷらっとふぉーむじょーにはいちされるよーになった。	NO_LABEL
また後期型では、Uボートに対する衝角攻撃を考慮し、艦首部を二重構造とした。	またこーきがたでわ、ゆーぼーとにたいするしょうかくこーげきをこーりょし、かんこーべをにじゅうこうぞーとした。	NO_LABEL
主機としてはオール・ギアード・タービンの搭載が考慮されたものの、L級パーソンズ特型「リオニダス」の成績がまだ出ていなかったことから、主機の型式はL級と同様とされ、直結タービンを装備する3軸艦となった。	NO_PRONOUNCE	NO_LABEL
パルマーズ、デニー、ホワイト、ソーニクロフト、スコッツ、ドックスフォード、スワン・ハンター社の艦はパーソンズ式、ジョン・ブラウン、フェアフィールド、スティーブン、ベアドモア社の艦はブラウン・カーチス式を基本とした。	NO_PRONOUNCE	NO_LABEL
ただしスワン・ハンター社の艦のうち「マリー・ローズ」「メナス」「パートリッジ」「パスリィ」はブラウン・カーチス式を搭載した。	NO_PRONOUNCE	NO_LABEL
パーソンズ衝動反動タービンには巡航タービンが付されている。	ぱーそんずしょーどーはんどーたーびんにわじゅんこーたーびんがふされている。	NO_LABEL
またボイラーは、ヤーロウ式水管ボイラーを基本とするが、ホワイト社の艦ではホワイト・フォスター式、また「ノーブル」「ニザム」「ノーメイド」「ナンパレル」ではバブコック式が搭載された。	NO_PRONOUNCE	NO_LABEL
艦砲はL級の装備を踏襲し、40口径10.2cm砲が搭載された。	NO_PRONOUNCE	NO_LABEL
また1915年以降、39口径40mm高角機銃に順次に換装され、後期型は当初よりこれを搭載して竣工した。	NO_PRONOUNCE	NO_LABEL
水雷兵装もL級の装備を踏襲しており、53.3cm連装魚雷発射管2基を搭載した。	すいらいへいそーもえるきゅーのそーびをとーしゅーしており、ごじゅうさんてんさんせんちめーとるれんそーぎょらいはっしゃかんにきをとーさいした。	NO_LABEL
