『朗読者』（ろうどくしゃ、 は、1995年に出版されたベルンハルト・シュリンクによる長編小説。	NO_PRONOUNCE	NO_LABEL
2008年に映画化され、その翌年には日本でも公開された。	にせんはちねんにえいがかされ、そのよくねんにわにっぽんでもこーかいされた。	NO_LABEL
ある雨の日、15歳だったミヒャエル・ベルクは学校からの帰り道で気分が悪くなり、名前も知らない女性に看病して貰う。	NO_PRONOUNCE	NO_LABEL
その後、黄疸にかかっていることが分かり、数ヶ月間病の床につく。	そのご、おーだんにかかっていることがわかり、すーかげつかんびょーのゆかにつく。	NO_LABEL
快復した彼はバーンホーフ通りを歩いて女性の住居を探し再会、ほどなく二人は男女の仲となる。	かいふくしたかれわばーんほーふどーりをあるいてじょせいのじゅーきょをさがしさいかい、ほどなくふたりわだんじょのなかとなる。	NO_LABEL
彼女の名はハンナ・シュミッツ。	NO_PRONOUNCE	NO_LABEL
ある日、ハンナにせがまれ、ミヒャエルが本を朗読して聞かせることになり、朗読は2人の習慣となった。	あるひ、はんなにせがまれ、みひゃえるがほんをろーどくしてきかせることになり、ろーどくわふたりのしゅーかんとなった。	NO_LABEL
朗読されたのはトルストイの『戦争と平和』やホメロスの『オデュッセイア』など。	NO_PRONOUNCE	NO_LABEL
そして突然に、ハンナは行方をくらましてしまう。	そしてとつぜんに、はんなわゆくえをくらましてしまう。	NO_LABEL
大学生になったミヒャエルは、ナチスの戦争犯罪に関する裁判を傍聴し、思いがけず被告としてハンナの姿を認めることになる。	だいがくせいになったみひゃえるわ、なちすのせんそーはんざいにかんするさいばんをぼーちょーし、おもいがけずひこくとしてはんなのすがたをみとめることになる。	NO_LABEL
彼女は第二次世界大戦中に強制収容所で看守をしていたのである。	かのじょわだいにじせかいたいせんちゅーにきょーせいしゅーよーじょでかんしゅをしていたのである。	NO_LABEL
数週間続いた裁判によって、彼女が戦時中にどういう事件に関与していたのかが明らかにされる。	すーしゅーかんつずいたさいばんによって、かのじょがせんじちゅーにどーゆうじけんにかんよしていたのかがあきらかにされる。	NO_LABEL
裁判で彼女にかけられた容疑は、事実よりも重い罪であろうことは明白だが、ある理由から彼女は抗弁を全くせず、裁判はハンナに不利に進んだ。	さいばんでかのじょにかけられたよーぎわ、じじつよりもおもいつみであろうことわめいはくだが、あるりゆーからかのじょわこーべんをまったくせず、さいばんわはんなにふりにすすんだ。	NO_LABEL
ミヒャエルはアルザスを旅行し、彼女が戦時中に勤めていた強制収容所の跡地を訪問した。	みひゃえるわあるざすをりょこーし、かのじょがせんじちゅーにつとめていたきょーせいしゅーよーじょのあとちをほーもんした。	NO_LABEL
そしてハンナや、ナチスの戦争犯罪について思いを巡らせる。	そしてはんなや、なちすのせんそーはんざいについておもいをめぐらせる。	NO_LABEL
その年の6月末に、ハンナは無期懲役の判決を受けた。	そのとしのろくがつまつに、はんなわむきちょーえきのはんけつをうけた。	NO_LABEL
ミヒャエルはハンナに送るために、『オデュッセイア』を朗読して録音し、刑務所に送る。	NO_PRONOUNCE	NO_LABEL
4年目になって、彼女から手紙が届く。	よんねんめになって、かのじょからてがみがとどく。	NO_LABEL
彼は刑務所を訪問し、彼女と再会した。	かれわけいむしょをほーもんし、かのじょとさいかいした。	NO_LABEL
出所の準備を進めていたが、その当日になってハンナが自殺しているのが発見された。	しゅっしょのじゅんびをすすめていたが、そのとーじつになってはんながじさつしているのがはっけんされた。	NO_LABEL
彼女の遺書らしき紙も見付かり、ミヒャエルはその遺志を叶えて、一度きりの墓参りをするのだった。	かのじょのいしょらしきしもみつかり、みひゃえるわそのいしをかなえて、いちどきりのはかまいりをするのだった。	NO_LABEL
