ベニヘラサギとは、ペリカン目トキ科に分類される鳥類の一種である。	べにへらさぎとわ、ぺりかんめときかにぶんるいされるちょーるいのいちしゅである。	NO_LABEL
アメリカのメキシコ湾沿岸から中央アメリカ、南アメリカ、西インド諸島に分布する。	あめりかのめきしこわんえんがんからちゅーおーあめりか、みなみあめりか、にしいんどしょとーにぶんぷする。	NO_LABEL
体長は69-81cm。	NO_PRONOUNCE	NO_LABEL
翼開長は約120cm。	つばさひらきちょーわやくひゃくにじゅうせんちめーとる。	NO_LABEL
頭と喉は皮膚が裸出していて緑褐色である。	あたまとのどわひふがらしゅつしていてみどりかっしょくである。	NO_LABEL
頸から上背にかけては白色で、体のそれより下の部分は次第にピンク色をおびている。	NO_PRONOUNCE	NO_LABEL
特に翼や腰は鮮やかなピンク色になる。	とくにつばさやこしわあざやかなぴんくいろになる。	NO_LABEL
前胸に赤色の房状の飾羽がある。	ぜんむねにあかいろのぼーじょーのかざりわがある。	NO_LABEL
嘴はやや黄色みがかった灰色、足は黒赤色である。	くちばしわややきいろみがかったはいいろ、あしわくろあかいろである。	NO_LABEL
幼鳥は、体色のピンク色が薄く、嘴は黄色い。	よーちょーわ、からだしょくのぴんくいろがうすく、くちばしわきいろい。	NO_LABEL
頭部はほとんど羽毛に覆われている。	とーぶわほとんどうもーにおおわれている。	NO_LABEL
約3年で成鳥羽になる。	やくさんねんでせいちょーわになる。	NO_LABEL
湖沼、河川、湿地、などに生息する。	こしょー、かせん、しっち、などにせいそくする。	NO_LABEL
食性は主に動物食で、魚類、甲殻類、昆虫類などを捕食する。	しょくせいわおもにどーぶつしょくで、ぎょるい、こーかくるい、こんちゅーるいなどをほしょくする。	NO_LABEL
また、植物の種子などを食べることもある。	また、しょくぶつのしゅしなどをたべることもある。	NO_LABEL
繁殖形態は卵生。	はんしょくけいたいわらんせい。	NO_LABEL
繁殖期はコロニーを形成するが、しばしばトキコウ類やサギ類と混合コロニーとなる。	はんしょくきわころにーをけいせいするが、しばしばときこーるいやさぎるいとこんごーころにーとなる。	NO_LABEL
雄が巣材を集め、雌が樹上に巣を作る。	ゆーがすざいをあつめ、めすがじゅじょーにすをつくる。	NO_LABEL
 1腹2-5個の卵を産み、抱卵期間は23-24日である。	NO_PRONOUNCE	NO_LABEL
抱卵、育雛とも雌雄共同で行う。	かかえたまご、いくひなともしゆーきょーどーでおこなう。	NO_LABEL
雛は孵化後約35-45日で巣立ちする。	NO_PRONOUNCE	NO_LABEL
