岩手県沿岸北部地震は、2008年7月24日午前0時26分頃に、岩手県沿岸北部で発生した地震。	いわてけんえんがんほくぶじしんわ、にせんはちねんしちがつにじゅうよっかごぜんれいじにじゅうろっぷんごろに、いわてけんえんがんほくぶではっせいしたじしん。	NO_LABEL
メディアや機関により岩手県中部地震、岩手北部地震、岩手地震などとも。	めでぃあやきかんによりいわてけんちゅーぶじしん、いわてほくぶじしん、いわてじしんなどとも。	NO_LABEL
岩手県洋野町において当初最大震度6強を発表し後に6弱に訂正され、東北地方の太平洋側で震度6弱から5弱、日本海側で最大で震度4の強い揺れを観測した。	NO_PRONOUNCE	NO_LABEL
その後の10月29日、気象庁は洋野町に設置した震度計に数ミリの隙間があったことから、洋野町大野の震度を「震度6強」から「不明」に訂正すると発表し、この地震の最大震度は青森県八戸市、五戸町、階上町、岩手県野田村などで観測した震度6弱となった。	NO_PRONOUNCE	NO_LABEL
被害の特徴として、同じ規模の地震と比較して、建物被害が少ないことが挙げられる。	ひがいのとくちょーとして、おなじきぼのじしんとひかくして、たてものひがいがすくないことがあげられる。	NO_LABEL
幅広い地域で揺れが感じられた。	はばひろいちいきでゆれがかんじられた。	NO_LABEL
震度3以上が報告された地域は岩手県、青森県、秋田県、山形県、福島県、宮城県、栃木県、茨城県、新潟県、千葉県、埼玉県、東京都、北海道、神奈川県、群馬県である。	しんどさんいじょーがほーこくされたちいきわいわてけん、あおもりけん、あきたけん、やまがたけん、ふくしまけん、みやぎけん、とちぎけん、いばらきけん、にーがたけん、ちばけん、さいたまけん、とーきょーと、ほっかいどー、かながわけん、ぐんまけんである。	NO_LABEL
今回の地震の揺れの特徴として、揺れの長さと揺れた範囲の広さが挙げられる。	こんかいのじしんのゆれのとくちょーとして、ゆれのながさとゆれたはんいのひろさがあげられる。	NO_LABEL
初めはカタカタという小さな揺れだったにもかかわらず、次第に揺れが大きくなり、震央付近で約1分という長い間揺れが感じられた。	はじめわかたかたとゆうちーさなゆれだったにもかかわらず、しだいにゆれがおーきくなり、しんおーふきんでやくいっぷんとゆうながいあいだゆれがかんじられた。	NO_LABEL
これは、地震の震源が108kmと深い深発地震だったのが原因である。	これわ、じしんのしんげんがひゃくはちきろめーとるとふかいふかはつじしんだったのがげんいんである。	NO_LABEL
震源から最短距離を通って震央に最初の地震波が到達するまで、108kmだと少なくても十数秒かかる。	しんげんからさいたんきょりをとーってしんおーにさいしょのじしんはがとーたつするまで、ひゃくはちきろめーとるだとすくなくてもじゅーすーびょーかかる。	NO_LABEL
P波が到達してからS波が到達するまではカタカタという小さな揺れが起きるが、震源が深いため、P波到達からS波到達までに少なくとも十数秒かかり、カタカタという揺れが長く感じられた。	ぴーはがとーたつしてからえすはがとーたつするまでわかたかたとゆうちーさなゆれがおきるが、しんげんがふかいため、ぴーはとーたつからえすはとーたつまでにすくなくともじゅーすーびょーかかり、かたかたとゆうゆれがながくかんじられた。	NO_LABEL
また、震源からの距離が遠いと地震波が分散を起こすため、S波で揺れる時間も伸び、S波到達以降のガタガタという大きな揺れも長く感じられた。	また、しんげんからのきょりがとーいとじしんはがぶんさんをおこすため、えすはでゆれるじかんものび、えすはとーたついこーのがたがたとゆうおーきなゆれもながくかんじられた。	NO_LABEL
ちなみに、関東地方の高層建築物では、もともとの地震波が関東平野の軟弱地盤によって増幅された長周期地震動の影響で、2分～3分という長時間揺れが感じられたとの報告があった。	NO_PRONOUNCE	NO_LABEL
また、震度3の範囲が北海道から新潟県・神奈川県までと広かった。	NO_PRONOUNCE	NO_LABEL
これも、地震の震源が深かったことが原因である。	これも、じしんのしんげんがふかかったことがげんいんである。	NO_LABEL
震源が地表付近の場合、各都市から震央までの距離は震源までの距離とほぼ同じになる。	しんげんがちひょーふきんのばあい、かくとしからしんおーまでのきょりわしんげんまでのきょりとほぼおなじになる。	NO_LABEL
しかし、震源が深くなるに従って、各都市の震源距離の差が縮まってくる。	しかし、しんげんがふかくなるにしたがって、かくとしのしんげんきょりのさがちじまってくる。	NO_LABEL
もし、震源を仮に地球の中心とすると、遠く離れた都市であっても、震源距離は全く同じになる。	もし、しんげんをかりにちきゅーのちゅーしんとすると、とーくはなれたとしであっても、しんげんきょりわまったくおなじになる。	NO_LABEL
従って、地表付近で起こる地震に比べて、震源から離れていても、地震波は震央と大きく変わらず、大きな揺れが起こることになる。	したがって、ちひょーふきんでおこるじしんにくらべて、しんげんからはなれていても、じしんはわしんおーとおーきくかわらず、おーきなゆれがおこることになる。	NO_LABEL
また、地震の際の断層のずれについて、断層の破壊が3回にわたって連続して起き、1つの地震波としてまとまって広がっていった可能性が指摘されている。	また、じしんのさいのだんそーのずれについて、だんそーのはかいがさんかいにわたってれんぞくしておき、ひとつのじしんはとしてまとまってひろがっていったかのーせいがしてきされている。	NO_LABEL
また、青森から茨城北部の地震計で、T相と呼ばれる特殊な地震波が捉えられた。	NO_PRONOUNCE	NO_LABEL
これは、地震波が深海海底で海水の振動に変換され、海底山脈などに反射して戻り、再び地震波となって観測されるものであり、速度は毎秒1.5kmと普通の地震波に比べて非常に遅い。	これわ、じしんはがしんかいかいていでかいすいのしんどーにへんかんされ、かいていさんみゃくなどにはんしゃしてもどり、ふたたびじしんはとなってかんそくされるものであり、そくどわまいびょーいちてんごきろめーとるとふつーのじしんはにくらべてひじょーにおそい。	NO_LABEL
今回は、日本海溝で音波に変換され、天皇海山列で反射して、地震発生から3,000秒後～4,000秒後に波形が観測された。	NO_PRONOUNCE	NO_LABEL
最遠方では、滋賀県彦根市や東京都青ヶ島村で震度1を観測した。	さいえんぽーでわ、しがけんひこねしやとーきょーとあおがしまむらでしんどいちをかんそくした。	NO_LABEL
気象庁、単位はガル	きしょーちょー、たんいわがる	NO_LABEL
余震の観測回数は非常に少ない。	よしんのかんそくかいすーわひじょーにすくない。	NO_LABEL
7月25日現在で、発生当日の11時28分に発生したM5.0、最大震度3の地震1回のみである。	NO_PRONOUNCE	NO_LABEL
震源域が深く微小な余震を観測できなかった影響もあるものの、そもそも震源の深い地震は余震回数が少ない傾向にあり、この地震もその傾向に沿ったと考えられる。	しんげんいきがふかくびしょーなよしんをかんそくできなかったえいきょーもあるものの、そもそもしんげんのふかいじしんわよしんかいすーがすくないけいこーにあり、このじしんもそのけいこーにそったとかんがえられる。	NO_LABEL
その後も有感余震は観測されていないことから、余震活動は終息したと思われる。	そのごもゆーかんよしんわかんそくされていないことから、よしんかつどーわしゅーそくしたとおもわれる。	NO_LABEL
この地震は、東北地方などが乗っている北アメリカプレートの下に、日本海溝から西へ向かって沈み込んでいる太平洋プレートの内部で起きたと推定されている。	このじしんわ、とーほくちほーなどがのっているきたあめりかぷれーとのしたに、にほんかいこーからにしえむかってしずみこんでいるたいへいよーぷれーとのないぶでおきたとすいていされている。	NO_LABEL
地震のタイプは海洋プレート内地震であり、そのうち「沈み込んだ海洋プレート内で起こる地震」に分類される。	NO_PRONOUNCE	NO_LABEL
1993年の釧路沖地震、2001年の芸予地震などがこのタイプである。	せんきゅうひゃくきゅうじゅうさんねんのくしろおきじしん、にせんいちねんのげいよじしんなどがこのたいぷである。	NO_LABEL
このタイプの地震の特徴は、強い揺れの範囲が広いこと、揺れの継続時間が長いこと、異常震域が起こりやすいことなどであり、この地震にも当てはまる。	このたいぷのじしんのとくちょーわ、つよいゆれのはんいがひろいこと、ゆれのけいぞくじかんがながいこと、いじょーしんいきがおこりやすいことなどであり、このじしんにもあてはまる。	NO_LABEL
この地震の震源の周辺では、1987年1月9日にM6.6の、2001年12月2日にM6.4の、同タイプの地震が発生している。	NO_PRONOUNCE	NO_LABEL
また、断層のずれのタイプは典型的な正断層型であり、東西方向に引っ張りの力が働いた結果、地震が発生したものとみられる。	また、だんそーのずれのたいぷわてんけいてきなせいだんそーがたであり、とーざいほーこーにひっぱりのちからがはたらいたけっか、じしんがはっせいしたものとみられる。	NO_LABEL
過去の深発地震の震源を断面図で見ると、沈み込む海洋プレートに沿って2つの地震帯が現れることが知られている。	かこのふかはつじしんのしんげんをだんめんずでみると、しずみこむかいよーぷれーとにそってふたつのじしんたいがあらわれることがしられている。	NO_LABEL
上面は圧縮の力による逆断層型の地震、下面は引っ張りの力による正断層型の地震である。	うわつらわあっしゅくのちからによるぎゃくだんそーがたのじしん、かめんわひっぱりのちからによるせいだんそーがたのじしんである。	NO_LABEL
今回の地震では、後者の下面であることを示すデータが観測された。	こんかいのじしんでわ、こーしゃのかめんであることをしめすでーたがかんそくされた。	NO_LABEL
この地震のわずか1ヶ月前に岩手・宮城内陸地震が発生しており、マスメディアを中心に2つの地震の関連性が問われた。	NO_PRONOUNCE	NO_LABEL
しかし岩手・宮城内陸地震は大陸のプレート内で発生した逆断層型の地震で、震源の深さがわずか8kmと浅かったのに対し、岩手県沿岸北部地震は大陸のプレートに沈み込む海洋プレート内で発生した正断層型の地震で、震源の深さは108kmと深かった。	しかしいわてみやぎないりくじしんわたいりくのぷれーとないではっせいしたぎゃくだんそーがたのじしんで、しんげんのふかさがわずかはちきろめーとるとあさかったのにたいし、いわてけんえんがんほくぶじしんわたいりくのぷれーとにしずみこむかいよーぷれーとないではっせいしたせいだんそーがたのじしんで、しんげんのふかさわひゃくはちきろめーとるとふかかった。	NO_LABEL
つまり、空間的に見て離れたところで発生したため、同一の断層で起こったなどとは考えられず、2つの地震における関連性は薄いとの見解を気象庁は述べている。	つまり、くーかんてきにみてはなれたところではっせいしたため、どーいつのだんそーでおこったなどとわかんがえられず、ふたつのじしんにおけるかんれんせいわうすいとのけんかいをきしょーちょーわのべている。	NO_LABEL
岩手・宮城内陸地震の発生によって周囲の地殻の応力が変化し、今回の地震を誘発したとの仮説は否定されていないが、その研究発表も現在のところ無いため、肯定もできない。	いわてみやぎないりくじしんのはっせいによってしゅーいのちかくのおーりょくがへんかし、こんかいのじしんをゆーはつしたとのかせつわひていされていないが、そのけんきゅーはっぴょーもげんざいのところないため、こーていもできない。	NO_LABEL
消防庁のまとめによると、死者1名、負傷者211名、住家の全壊1棟、一部損壊379棟、火災2件となっている。	NO_PRONOUNCE	NO_LABEL
岩手県、青森県を中心に、北海道から千葉県までの8道県で被害が出た。	NO_PRONOUNCE	NO_LABEL
死者1人は、福島県いわき市の病院に同市内の64歳の女性が検査入院中、地震に遭った。	ししゃひとりわ、ふくしまけんいわきしのびょーいんにどーしないのろくじゅうよんさいのじょせいがけんさにゅーいんちゅー、じしんにあった。	NO_LABEL
避難しようとしてベッドから誤って転落し、頭を強打して脳内出血を起こした。	ひなんしよーとしてべっどからあやまっててんらくし、あたまをきょーだしてのーないしゅっけつをおこした。	NO_LABEL
手術を行い治療を繰り返したものの29日午前2時24分に亡くなった。	しゅじゅつをおこないちりょーをくりかえしたもののにじゅうくにちごぜんにじにじゅうよんぷんになくなった。	NO_LABEL
地震発生が深夜であったため、被害情報が錯綜した。	じしんはっせいがしんやであったため、ひがいじょーほーがさくそーした。	NO_LABEL
一部の報道特番では、死者数十人・家屋倒壊数百棟というような情報が流れた。	NO_PRONOUNCE	NO_LABEL
後に、これは内閣府の被害想定情報がそのまま報道されたことがわかり、訂正した。	ごに、これわないかくふのひがいそーていじょーほーがそのままほーどーされたことがわかり、ていせいした。	NO_LABEL
青森県、岩手県、宮城県を中心に、建物の天井落下、窓ガラスの破損、停電、断水、落石による道路の通行止め、列車の運休などの被害が報告されており、負傷者も出た。	あおもりけん、いわてけん、みやぎけんをちゅーしんに、たてもののてんじょーらっか、まどがらすのはそん、ていでん、だんすい、らくせきによるどーろのつーこーどめ、れっしゃのうんきゅーなどのひがいがほーこくされており、ふしょーしゃもでた。	NO_LABEL
被害の傾向として、家具の転倒などによる被害が見られなかった一方、避難時に転倒するなどして負傷した例が多かったことが挙げられる。	ひがいのけいこーとして、かぐのてんとーなどによるひがいがみられなかったいっぽー、ひなんじにてんとーするなどしてふしょーしたれいがおーかったことがあげられる。	NO_LABEL
この原因として、揺れが長かったこと、深夜の発生であったことなどが指摘されている。	このげんいんとして、ゆれがながかったこと、しんやのはっせいであったことなどがしてきされている。	NO_LABEL
被害が少なかったのは、観測された地震波のうち最も強い波は周期1秒～0.1秒と短く、木造家屋などが壊れやすい周期ではなかったことが主因だと考えられている。	NO_PRONOUNCE	NO_LABEL
そのため、震度6強で想定される被害よりもはるかに少ない被害ですんだ。	そのため、しんどろくきょーでそーていされるひがいよりもはるかにすくないひがいですんだ。	NO_LABEL
また、一帯は13年前に三陸はるか沖地震を始め、過去に何度か災害に遭遇していることにより、住民の防災意識が総じて高く、それに対応するため堅牢な住宅が多いことも被害が少なかった一因として挙げられている。	また、いったいわじゅうさんねんまえにさんりくはるかおきじしんをはじめ、かこになんどかさいがいにそーぐーしていることにより、じゅーみんのぼーさいいしきがそーじてたかく、それにたいおーするためけんろーなじゅーたくがおーいこともひがいがすくなかったいちいんとしてあげられている。	NO_LABEL
しかし、被害に対する認識の相違が原因と見られる観光客の減少が起きており、風評被害の発生が指摘されている。	しかし、ひがいにたいするにんしきのそーいがげんいんとみられるかんこーきゃくのげんしょーがおきており、ふーひょーひがいのはっせいがしてきされている。	NO_LABEL
岩手県は7月25日に風評被害の歯止めをかけるために岩手県旅館ホテル生活衛星同業組合の加盟施設の宿泊料金の補助やガソリン代の補助などを協議していることと「元気です!いわてキャンペーン」の概要を発表した。	NO_PRONOUNCE	NO_LABEL
また、震度6強を観測した洋野町の地震計が土手の上にあり、周囲よりも揺れやすい設置環境だった可能性もあるとされている。	また、しんどろくきょーをかんそくしたひろのちょーのじしんけいがどてのうえにあり、しゅーいよりもゆれやすいせっちかんきょーだったかのーせいもあるとされている。	NO_LABEL
なお、洋野町での計測震度は6.4で、もう少し揺れが強かったり、揺れやすい環境にあったりした場合には震度7になっていた可能性もある。	NO_PRONOUNCE	NO_LABEL
こういった震度と被害実態の差を受けて、気象庁は各震度における被害状況の解説表を見直す検討を行っていることが報道された。	こーいったしんどとひがいじったいのさをうけて、きしょーちょーわかくしんどにおけるひがいじょうきょーのかいせつひょーをみなおすけんとーをおこなっていることがほーどーされた。	NO_LABEL
その後気象庁は、震度6強を観測した地点の住民に聞き取り調査を行った。	そのごきしょーちょーわ、しんどろくきょーをかんそくしたちてんのじゅーみんにききとりちょーさをおこなった。	NO_LABEL
その結果、「這って歩くこともできなかった」という住民が多くいたため、洋野町をはじめ、震度6弱以上を観測した6地点の地震計に問題はないと発表した。	NO_PRONOUNCE	NO_LABEL
だが、2つある洋野町の地震計のうち1つがずれている可能性があるとして、臨時の地震計を設置した。	だが、ふたつあるひろのちょーのじしんけいのうちひとつがずれているかのーせいがあるとして、りんじのじしんけいをせっちした。	NO_LABEL
ちなみに、「揺れている最中は這って歩くことができない」揺れは、震度7に匹敵する強い揺れである。	NO_PRONOUNCE	NO_LABEL
しかし、震度6強を観測した洋野町大野からわずか70メートルしか離れていない臨時の地震計とデータを比較したところ、平均で計測震度1.6の誤差が出ていたことがわかり、震度速報などに利用するには適切でないと判断し、洋野町大野の震度を「震度6強」から「不明」とし、またこの地震計の情報を利用しないこととなった。	NO_PRONOUNCE	NO_LABEL
気象庁の設置環境認定では、Bランクだった。	NO_PRONOUNCE	NO_LABEL
今後、全国の震度計の設置環境の見直しが重要視されている。	こんご、ぜんこくのしんどけいのせっちかんきょーのみなおしがじゅーよーしされている。	NO_LABEL
今回の地震では、速報では最大震度6強と報道された。	こんかいのじしんでわ、そくほーでわさいだいしんどろくきょーとほーどーされた。	NO_LABEL
しかし、周辺よりも1段階以上の差が出ていたことや、同じ洋野町の別の震度計では震度5強と示していたことなどから、震度観測に誤差が生じたと見て調査を開始した。	NO_PRONOUNCE	NO_LABEL
調査員が洋野町大野の震度計を目視して確認したところ、隙間が確認できたことなどから、誤差が生じている恐れがあるとして、70メートル離れた地点に臨時の震度計を設置し、比較することにした。	NO_PRONOUNCE	NO_LABEL
その後、複数の小規模地震で観測されたデータを比較したところ、階級で1以上の誤差が生じていたとして、洋野町大野の震度計で観測されたデータを無効とし、青森県八戸市などで観測された震度6弱を最大震度とした。	NO_PRONOUNCE	NO_LABEL
観測後に震度を変更した例は、兵庫県南部地震以来を観測した神戸市などを、実地検分で震度7に変更）で、また、震度計の観測に移行してからは初めてのこと。	NO_PRONOUNCE	NO_LABEL
ただ、洋野町大野の震度計設置環境に隙間が生じていた理由は、設置時にすでにあったのか、地震後に発生したのかは現時点では不明である。	ただ、ひろのちょうおーののしんどけいせっちかんきょーにすきまがしょーじていたりゆーわ、せっちじにすでにあったのか、じしんごにはっせいしたのかわげんじてんでわふめいである。	NO_LABEL
気象庁は、この地震による最初の地震波を観測してから20.8秒後に一般向けの緊急地震速報を発表した。	NO_PRONOUNCE	NO_LABEL
対象地域は、00時27分26.2秒の段階で北海道南西部から新潟県・福島県に及ぶ広範囲であった。	NO_PRONOUNCE	NO_LABEL
仙台市や青森市などで速報が揺れの到達前に発表された一方、岩手県のほぼ全域や青森県の一部では速報が揺れに間に合わなかった。	せんだいしやあおもりしなどでそくほーがゆれのとーたつまえにはっぴょーされたいっぽー、いわてけんのほぼぜんいきやあおもりけんのいちぶでわそくほーがゆれにまにあわなかった。	NO_LABEL
この要因として、震源が深い地震は前例が少なかったことが挙げられている。	このよーいんとして、しんげんがふかいじしんわぜんれいがすくなかったことがあげられている。	NO_LABEL
岩手県洋野町では、全国瞬時警報システムにより緊急地震速報を防災行政無線で流す体制が整っていたものの、地震の約1ヶ月前に発生した誤報の影響でシステムを休止しており、速報が流れなかったことがわかった。	NO_PRONOUNCE	NO_LABEL
またこの地震で、串田嘉男が行っているFM電波観測による地震予知について、震源の位置、規模、発生日時の予測が初めてほぼ正確に一致したことが報道された。	またこのじしんで、くしだよしおがおこなっているえふえむでんぱかんそくによるじしんよちについて、しんげんのいち、きぼ、はっせいにちじのよそくがはじめてほぼせいかくにいっちしたことがほーどーされた。	NO_LABEL
しかし、経験則のもととなる実績がまだ少なく、実用性はまだないとされている。	しかし、けいけんそくのもととなるじっせきがまだすくなく、じつよーせいわまだないとされている。	NO_LABEL
専門家も、「過去に的中した経験がないので、今回は偶然当たった」と、正確性を否定している。	NO_PRONOUNCE	NO_LABEL
発生した時間が深夜という事もあり、NHK以外で｢当直制度｣を敷いていない放送局では、最初は｢地震速報｣による字幕情報のみやCSのニュース専門チャンネルなどの情報を流して凌いだ放送局があった。	NO_PRONOUNCE	NO_LABEL
その後、各局では報道特別番組を放送したが、中部日本放送ではこの報道特別番組の編成の影響によりアニメ「イタズラなKiss」が割り込むなどの放送事故が発生した。	NO_PRONOUNCE	NO_LABEL
