池上 政幸は、宮城県出身の検察官。	いけがみまさゆきわ、みやぎけんしゅっしんのけんさつかん。	NO_LABEL
最高検察庁刑事部長、次長検事、名古屋高等検察庁検事長を経て、大阪高等検察庁検事長。	さいこーけんさつちょーけいじぶちょー、じちょーけんじ、なごやこーとーけんさつちょーけんじちょーをへて、おーさかこーとーけんさつちょーけんじちょー。	NO_LABEL
最高裁判所裁判官。	さいこーさいばんしょさいばんかん。	NO_LABEL
