クロスフィンガリングとは、フラウト・トラヴェルソやリコーダーのような、半音を出すための専用のトーンホールを持たない木管楽器において、半音を出すために用いる運指法のこと。	NO_PRONOUNCE	NO_LABEL
フォークフィンガリングともいう。	ふぉーくふぃんがりんぐともいう。	NO_LABEL
ルネサンス・フルートを例として説明する。	NO_PRONOUNCE	NO_LABEL
今日のフルートの祖先に当たるルネサンス・フルートは、木製の円筒に歌口と 6つのトーンホールが開いているだけの極めてシンプルな横笛である。	NO_PRONOUNCE	NO_LABEL
通常は楽器を右側に構え、歌口に近い上流側 3つのトーンホールは左手の第2 - 4指で、下流側 3つのトーンホールは右手の第2 - 4指でふさぐ。	NO_PRONOUNCE	NO_LABEL
全てのトーンホールをふさぐと、管内部で振動する気柱の長さが最大となり、最も低い音が出る。	すべてのとーんほーるをふさぐと、かんないぶでしんどーするきばしらのながさがさいだいとなり、もっともひくいおとがでる。	NO_LABEL
テナーのルネサンス・フルートはD管で、最低音は D4である。	NO_PRONOUNCE	NO_LABEL
全てのトーンホールを閉じてから、歌口と反対側の方からトーンホールをひとつずつ順に開けていくと、管内部で共振する気柱の長さが短くなって周波数が上がっていき、下記のようにニ長調の音階が出せる。	すべてのとーんほーるをとじてから、うたぐちとはんたいがわのほーからとーんほーるをひとつずつじゅんにあけていくと、かんないぶできょーしんするきばしらのながさがみじかくなってしゅーはすーがあがっていき、かきのよーににちょうちょーのおんかいがだせる。	NO_LABEL
●が閉じるトーンホール、○が開けるトーンホールである。	NO_PRONOUNCE	NO_LABEL
しかし、例えば「ファの＃」や「ラの♭」を出したいと思っても、直接出せるトーンホールはない。	NO_PRONOUNCE	NO_LABEL
そこで、次のようにする。	そこで、つぎのよーにする。	NO_LABEL
このように、出したい音より半音上のトーンホールを開き、下流側のトーンホールをいくつか閉じて音程を調節するような指使いを、指の動きが交差することから「クロスフィンガリング」という。	NO_PRONOUNCE	NO_LABEL
トーンホールの大きさは管の内径より小さいので、開いているトーンホールより下流側の空気も共振しているため、下流側を閉じることで共振している気柱の長さを増大させ、音高を下げることができるのである。	とーんほーるのおーきさわかんのないけいよりちーさいので、ひらいているとーんほーるよりかりゅーがわのくーきもきょーしんしているため、かりゅーがわをとじることできょーしんしているきばしらのながさをぞーだいさせ、おんこーをさげることができるのである。	NO_LABEL
一般にクロスフィンガリングによって出す音は、そうでない音と比べて弱々しく、音程も定まらないので、半音を出すための専用のトーンホールを持たない楽器で、半音を多用する曲を演奏するのは容易ではない。	いっぱんにくろすふぃんがりんぐによってだすおとわ、そーでないおととくらべてよわよわしく、おんていもさだまらないので、はんおんをだすためのせんよーのとーんほーるをもたないがっきで、はんおんをたよーするきょくをえんそーするのわよーいでわない。	NO_LABEL
このため、D管のルネサンス・フルートやフラウト・トラヴェルソの場合、長調について考えると、五度圏の図で D-durから遠い調ほど演奏が困難になっていく。	NO_PRONOUNCE	NO_LABEL
同じように、C管のソプラノ・リコーダーは C-durから遠い調ほど、F管のアルト・リコーダーは F-durから遠い調ほど演奏しにくくなる。	NO_PRONOUNCE	NO_LABEL
ベーム式のモダン・フルートには、1オクターヴの中にある 12個の音を出すためのトーンホールが全て備わっているので、クロスフィンガリングを用いることなく、全ての音を明快に出すことができる。	NO_PRONOUNCE	NO_LABEL
しかし、人間の手には指が 10本しかないため、複雑なキーメカニズムの助けを借りてトーンホールを開閉する関係上、F#4 のように一見クロスフィンガリングのような指使いが必要になる音もある。	NO_PRONOUNCE	NO_LABEL
また、例えば高音域の F#6 では左手の中指も上げるが、これは F#6 が F#4 の第4倍音であると同時に B4 の第3倍音でもあるので、高次の倍音が安定して発生しやすいよう Hトーンホールを開け、この位置に倍音の腹ができるようにしているのである。	NO_PRONOUNCE	NO_LABEL
これは Hトーンホールが、F#4 の波の4等分点にあるからという言い方もできる。	NO_PRONOUNCE	NO_LABEL
いずれも音高を下げるために下流側のトーンホールをふさいでいるわけではないが、便宜上これらを含めてクロスフィンガリングと呼ぶこともある。	いずれもおんこーをさげるためにかりゅーがわのとーんほーるをふさいでいるわけでわないが、べんぎじょーこれらをふくめてくろすふぃんがりんぐとよぶこともある。	NO_LABEL
