『AIしてウルフBOY』は、伊藤結花理による日本の漫画作品。	NO_PRONOUNCE	NO_LABEL
週刊少女コミックに、1986年から1987年までに掲載され、単行本は小学館から発行された。	しゅーかんしょーじょこみっくに、せんきゅうひゃくはちじゅうろくねんからせんきゅうひゃくはちじゅうななねまでにけいさいされ、たんこーぼんわしょーがくかんからはっこーされた。	NO_LABEL
女子高生・吹雪は、北海道日高の山奥で、人狼・ルーと出会った。	NO_PRONOUNCE	NO_LABEL
それからルーは山をおりて吹雪の高校に通うことにした。	それからるーわやまをおりてふぶきのこーこーにかようことにした。	NO_LABEL
