株式会社エイケン（）は、日本のアニメ制作会社。	えいけんかっこわ、にっぽんのあにめせいさくかいしゃ。	NO_LABEL
日本動画協会正会員。	にっぽんどーがきょーかいせいかいいん。	NO_LABEL
1952年、テレビの放送開始に合わせ、テレビ受像機の輸入販売会社として、日本テレビジョン株式会社が設立された。	せんきゅうひゃくごじゅうにねん、てれびのほーそーかいしにあわせ、てれびじゅぞーきのゆにゅーはんばいがいしゃとして、にっぽんてれびじょんかぶしきがいしゃがせつりつされた。	NO_LABEL
しかし、テレビの普及が予想以上に早かったことから、1950年代半ばにはサイドビジネスとしてテレビCMの制作に手を出すようになり、間もなくそのCM制作の方が本業になっていた。	しかし、てれびのふきゅーがよそーいじょーにはやかったことから、せんきゅうひゃくごじゅうねんだいなかばにわさいどびじねすとしててれびこんぴゅーたみゅーじっくまがじんのせいさくにてをだすよーになり、まもなくそのこんぴゅーたみゅーじっくまがじんせいさくのほーがほんぎょーになっていた。	NO_LABEL
そのCM制作の際にいわゆるアニメCMを多く手掛けていた事が、エイケン発足のきっかけとなる。	そのこんぴゅーたみゅーじっくまがじんせいさくのさいにいわゆるあにめこんぴゅーたみゅーじっくまがじんをおーくてがけていたことが、えいけんほっそくのきっかけとなる。	NO_LABEL
1963年、『鉄腕アトム』の影響でアニメブームが起きる直前、アニメCMの制作陣を分離独立する形で、日本テレビジョン株式会社映画部を発足。	NO_PRONOUNCE	NO_LABEL
彼らを真っ先にテレビアニメ制作に当たらせ、『仙人部落』を制作した。	NO_PRONOUNCE	NO_LABEL
その後、『鉄人28号』のヒットで、経営は軌道に乗る。	NO_PRONOUNCE	NO_LABEL
1969年4月に日本テレビジョンが株式会社テイ・シー・ジェーに商号変更した際に、株式会社テイ・シー・ジェー動画センターとして独立。	NO_PRONOUNCE	NO_LABEL
この際、これまでアニメ制作の中心だった高橋茂人が独立し、瑞鷹を興した。	このさい、これまであにめせいさくのちゅーしんだったたかはししげひとがどくりつし、ずいよーをおこした。	NO_LABEL
1973年5月、テイ・シー・ジェーが保有株式をすべて譲渡したことにより、「株式会社エイケン」に商号を変更。	NO_PRONOUNCE	NO_LABEL
社名はエイケン初代社長で、テイ・シー・ジェー時代に映画部長を務めた村田英憲の名前を音読みしたものから採られたものである。	NO_PRONOUNCE	NO_LABEL
2002年7月、広告代理店のアサツー ディ・ケイがエイケンの発行済み株式の70%を取得。	にせんにねんしちがつ、こーこくだいりてんのあさつーでぃけいがえいけんのはっこーずみかぶしきのななじゅうぱーせんとをしゅとく。	NO_LABEL
同時にフジテレビジョンが10%を取得してADKの関係会社となった。	どーじにふじてれびじょんがじゅうぱーせんとをしゅとくしてえーでぃーけーのかんけいがいしゃとなった。	NO_LABEL
TCJはヤナセの完全子会社である為、エイケンとの関係は希薄となった。	NO_PRONOUNCE	NO_LABEL
2007年には、代表取締役社長の村田が代表取締役会長に就任し、副社長の毛内節夫が代表取締役社長に就任した。	にせんななねんにわ、だいひょーとりしまりやくしゃちょーのむらたがだいひょーとりしまりやくかいちょにしゅーにんし、ふくしゃちょーのもーないせつおがだいひょーとりしまりやくしゃちょーにしゅーにんした。	NO_LABEL
2008年、東京国際アニメフェア2008にて、村田が第4回功労賞表彰を受章。	NO_PRONOUNCE	NO_LABEL
2013年10月6日放送分より、『サザエさん』がデジタル彩色・デジタル撮影によるデジタル制作に完全移行。	NO_PRONOUNCE	NO_LABEL
現行のテレビアニメーションから、セル画・フィルム撮影による作品が姿を消した。	NO_PRONOUNCE	NO_LABEL
2017年8月31日、村田英憲が代表取締役を退任し、名誉会長に就任した。	にせんじゅうななねんはちがつさんじゅういちにち、むらたひでのりがだいひょーとりしまりやくをたいにんし、めいよかいちょーにしゅーにんした。	NO_LABEL
2018年3月27日、毛内節夫が代表取締役を退任して取締役相談役に異動したことに伴い、取締役の中村達朗が代表取締役社長に昇任した。	にせんじゅうはちねんさんがつにじゅうしちにち、もーないせつおがだいひょーとりしまりやくをたいにんしてとりしまりやくそーだんやくにいどーしたことにともない、とりしまりやくのなかむらたつろーがだいひょーとりしまりやくしゃちょーにしょーにんした。	NO_LABEL
