『虹を織る』は、1980年10月6日から1981年4月4日に放送されたNHK連続テレビ小説第26作目。	NO_PRONOUNCE	NO_LABEL
維新の志士を数多く輩出した城下町･萩に生まれ、青春期には若い情熱を宝塚歌劇団の舞台に注ぎ、退団後もたえず新しい生き方を求め続けた一人の女性をユーモアを交えて明るく描いた。	NO_PRONOUNCE	NO_LABEL
1980〜81年の平均視聴率は38.5%、最高視聴率は45.7%。	NO_PRONOUNCE	NO_LABEL
・本番組は2001年4月2日-2001年9月29日までデジタルBS2にて再放送された。	NO_PRONOUNCE	NO_LABEL
