『ハーヴェスト』は、ニール・ヤングの4作目となるソロ・アルバムである。	NO_PRONOUNCE	NO_LABEL
10曲中7曲はカントリーの聖地であるナッシュビルで録音され、全体的にカントリー調に仕上げられている。	じゅうきょくちゅーななきょくわかんとりーのせいちであるなっしゅびるでろくおんされ、ぜんたいてきにかんとりーちょーにしあげられている。	NO_LABEL
本アルバムと収録曲の「」は全米No.1に輝いた。	NO_PRONOUNCE	NO_LABEL
「ローリングストーン誌が選ぶオールタイム・グレイテスト・アルバム500」において第82位。	NO_PRONOUNCE	NO_LABEL
