2010年のロードレース世界選手権は、FIMロードレース世界選手権の第62回大会となる。	にせんじゅうねんのろーどれーすせかいせんしゅけんわ、えふあいえむろーどれーすせかいせんしゅけんのだいろくじゅうにかいたいかいとなる。	NO_LABEL
MotoGPクラスではホルヘ・ロレンソ、新規開始のMoto2クラスではトニ・エリアス、125ccクラスではマルク・マルケスと、グランプリ史上初めてスペイン人ライダーが全クラスでチャンピオンとなった。	NO_PRONOUNCE	NO_LABEL
2010年シーズンより、それまでの250ccクラスに代わって新たにMoto2クラスが始まった。	NO_PRONOUNCE	NO_LABEL
2010年は移行時期として、新しいMoto2規格のマシンと従来の250ccマシンの混走となる予定だったが、エントリーはMoto2マシンのみとなった。	NO_PRONOUNCE	NO_LABEL
Moto2クラスはコスト抑制を重視しており、電子制御部品が制限され、またカーボンブレーキが禁止となりスチールブレーキを使用することとなる。	めがおーてぃおーとぅーくらすわこすとよくせいをじゅーししており、でんしせいぎょぶひんがせいげんされ、またかーぼんぶれーきがきんしとなりすちーるぶれーきをしよーすることとなる。	NO_LABEL
しかしながら、シャシーについては制限は加えられておらず、日本からはモリワキ、テクニカルスポーツ、バーニングブラッドがオリジナルシャシーを供給する。	しかしながら、しゃしーについてわせいげんわくわえられておらず、にっぽんからわもりわき、てくにかるすぽーつ、ばーにんぐぶらっどがおりじなるしゃしーをきょーきゅーする。	NO_LABEL
すべてのMoto2マシンは、ホンダが独占供給する600ccエンジンの使用が義務づけられる。	NO_PRONOUNCE	NO_LABEL
このエンジンは後藤治率いるゲオ・テクノロジー社がメンテナンスを担当し、120 - 125馬力程度のパワーを出すことが予想されている。	NO_PRONOUNCE	NO_LABEL
タイヤについては、当初は従来と同様に自由に選択できる予定だったが、結局コントロールタイヤ制を導入することとなった。	たいやについてわ、とーしょわじゅーらいとどーよーにじゆーにせんたくできるよていだったが、けっきょくこんとろーるたいやせいをどーにゅーすることとなった。	NO_LABEL
新クラスの開幕戦を制したのは日本の富沢祥也だったが、その富沢は第12戦サンマリノGPで事故死してしまう。	しんくらすのかいまくせんをせいしたのわにっぽんのとみざわしょうやだったが、そのとみざわわだいじゅうにせんさんまりのげーぺーでじこししてしまう。	NO_LABEL
グランプリでライダーが犠牲となるのは、の鈴鹿での加藤大治郎以来である。	ぐらんぷりでらいだーがぎせいとなるのわ、のすずかでのかとーだいじろーいらいである。	NO_LABEL
2009年11月10日、暫定カレンダーが発表された。	にせんきゅうねんじゅーいちがつとおか、ざんていかれんだーがはっぴょーされた。	NO_LABEL
予定されているサーキットでのグランプリがキャンセルになった場合の代替開催地として、スペインのモーターランド・アラゴンが指定されていた。	よていされているさーきっとでのぐらんぷりがきゃんせるになったばあいのだいたいかいさいちとして、すぺいんのもーたーらんどあらごんがしていされていた。	NO_LABEL
またカレンダーは6日後に修正され、チェコGPの開催が1週早くなった。	またかれんだーわむいかごにしゅーせいされ、ちぇこげーぺーのかいさいがいっしゅーはやくなった。	NO_LABEL
2010年3月18日、バラトンリンクの建設工事が間に合わないことから、2年連続でハンガリーGPがキャンセルとなり、モーターランド・アラゴンでの代替開催が実現することとなった。	にせんじゅうねんさんがつじゅうはちにち、ばらとんりんくのけんせつこーじがまにあわないことから、にねんれんぞくではんがりーげーぺーがきゃんせるとなり、もーたーらんどあらごんでのだいたいかいさいがじつげんすることとなった。	NO_LABEL
2010年4月19日、当初の予定では4月23 - 25日に第2戦として開催予定だった日本GPは、アイスランドのエイヤフィヤトラヨークトルの噴火によって大規模な空路封鎖が発生し、ライダーやチーム関係者の移動が困難となったため、10月1 - 3日に開催延期となった。	NO_PRONOUNCE	NO_LABEL
上位15名のライダーにポイントが与えられる。	NO_PRONOUNCE	NO_LABEL
ポイントの授与はレースを完走することが条件となる。	ぽいんとのじゅよわれーすをかんそーすることがじょーけんとなる。	NO_LABEL
† 富沢祥也はサンマリノGPでの事故で致命傷を負い、搬送先の病院で死亡した。	NO_PRONOUNCE	NO_LABEL
