しじみは日本の女優。	しじみわにっぽんのじょゆー。	NO_LABEL
2004年から2008年まで持田茜の芸名でAV女優として活動し、2009年からは「しじみ」の芸名で俳優として活動する。	NO_PRONOUNCE	NO_LABEL
芸能事務所のワーサルに所属している。	げいのーじむしょのわーさるにしょぞくしている。	NO_LABEL
身長：157cm。	NO_PRONOUNCE	NO_LABEL
スリーサイズ：B83cm,W60cm,H88cm。	NO_PRONOUNCE	NO_LABEL
シューズ：S23cm。	NO_PRONOUNCE	NO_LABEL
島根県出身。	しまねけんしゅっしん。	NO_LABEL
2004年に持田茜の芸名でエスワン専属女優としてエスワンスタートと同時にAVデビューした。	にせんよねんにもちだあかねのげいめいでえすわんせんぞくじょゆーとしてえすわんすたーととどーじにえーぶいでびゅーした。	NO_LABEL
2008年のAVグランプリでは、アウダースジャパンの『癒らし。	NO_PRONOUNCE	NO_LABEL
』が女優部門優秀賞に選ばれた。	NO_PRONOUNCE	NO_LABEL
数百本の作品に出演した後、2008年12月をAV女優を引退し、翌2009年、故郷島根県の名産品であるしじみに改名して俳優に転身し、映画やVシネマに出演するようになる。	すーひゃくほんのさくひんにしゅつえんしたのち、にせんはちねんじゅーにがつをえーぶいじょゆーをいんたいし、よくにせんきゅうねん、こきょーしまねけんのめいさんひんであるしじみにかいめいしてはいゆーにてんしんし、えいがやぶいしねまにしゅつえんするよーになる。	NO_LABEL
同年に主演した『うたかたの日々』が2010年の第22回ピンク大賞・作品ベストテン第1位を受賞。	NO_PRONOUNCE	NO_LABEL
梅田日活で本人ゲストの特集上映が行われた。	うめだにっかつでほんにんげすとのとくしゅーじょーえいがおこなわれた。	NO_LABEL
AV女優たちへのインタビューをもとに作られたノンフィクション本をもとに作られた『名前のない女たち』が2010年映画化された際、宣伝アドバイザーを務めた。	NO_PRONOUNCE	NO_LABEL
2011年に主演した映画『終わってる』では、漫画家の小林よしのりが「しじみさんの演技は抑えて乾いた表現が見事だった」と評価した。	NO_PRONOUNCE	NO_LABEL
その後一旦芸能界を引退し、故郷である島根県に戻ったものの、2016年1月に芸能活動を再開した。	そのごいったんげいのーかいをいんたいし、こきょーであるしまねけんにもどったものの、にせんじゅうろくねんいちがつにげいのーかつどーをさいかいした。	NO_LABEL
2017年9月7日より、AVメーカーアタッカーズの作品にAV女優としてではなく、共演女優として出演している。	にせんじゅうななねんくがつなのかより、えーぶいめーかーあたっかーずのさくひんにえーぶいじょゆーとしてではなく、きょーえんじょゆーとしてしゅつえんしている。	NO_LABEL
…「ヌード・絡み」なし。	NO_PRONOUNCE	NO_LABEL
2018年5月現在、20作品に出演している。	にせんじゅうはちねんごがつげんざい、にじゅうさくひんにしゅつえんしている。	NO_LABEL
持田茜 名義	もちだあかねめいぎ	NO_LABEL
持田茜 名義	もちだあかねめいぎ	NO_LABEL
2009年	にせんきゅうねん	NO_LABEL
