数学における球対称函数または動径函数は、各点における値がその点の偏角成分に依らず動径成分のみに依存して決まる函数を言う。	すーがくにおけるきゅうたいしょーかんすーまたわどーけいかんすーわ、かくてんにおけるねがそのてんのへんかくせいぶんによらずどーけいせいぶんのみにいぞんしてきまるかんすーをいう。	NO_LABEL
例えばユークリッド平面 上で定義された函数 が二次元の球対称函数であるとは、適当な一変数非負値函数 を用いて	たとえばゆーくりっどへいめんじょーでていぎされたかんすーがにじげんのきゅうたいしょーかんすーであるとわ、てきとーないっぺんすーひふちかんすーをもちいて	NO_LABEL
の形に表される。	のかたちにあらわされる。	NO_LABEL
球対称函数はと対照を成すものであり、ユークリッド空間上で定義された任意の下降函数は球対称成分と球面的成分からなる級数に分解される。	きゅうたいしょーかんすーわとたいしょーをなすものであり、ゆーくりっどくーかんじょーでていぎされたにんいのかこーかんすーわきゅうたいしょーせいぶんときゅーめんてきせいぶんからなるきゅーすーにぶんかいされる。	NO_LABEL
函数が球対称であるための必要十分条件はそれが原点を固定する任意の回転変換のもとで不変となることである。	かんすーがきゅうたいしょーであるためのひつよーじゅーぶんじょーけんわそれがげんてんをこていするにんいのかいてんへんかんのもとでふへんとなることである。	NO_LABEL
言葉を変えれば、-次元ユークリッド空間 上の函数 が球対称となる必要十分条件は、-次元特殊直交群 の任意の元 に対して を満たすことである。	NO_PRONOUNCE	NO_LABEL
球対称函数のこのような特徴付けはシュヴァルツ超函数の球対称性を定義するのにも利用できる。	NO_PRONOUNCE	NO_LABEL
 上のシュヴァルツ超函数 は任意の試験函数 と回転変換 に対し	NO_PRONOUNCE	NO_LABEL
を満たすとき、球対称であるという。	をみたすとき、きゅうたいしょーであるという。	NO_LABEL
任意の函数 が与えられたとき、その球対称成分は原点を中心とする球面上で平均をとることによって与えられる。	にんいのかんすーがあたえられたとき、そのきゅうたいしょーせいぶんわげんてんをちゅーしんとするきゅーめんじょーでへいきんをとることによってあたえられる。	NO_LABEL
特に が局所可積分ならばこれは	とくにがきょくしょかせきぶんならばこれわ	NO_LABEL
と書くことができる。	とかくことができる。	NO_LABEL
ただし、 は -次元球面 の表面積であり、 および とした。	NO_PRONOUNCE	NO_LABEL
このことから、フビニの定理により、局所可積分函数はほとんど全ての において球対称成分は矛盾なく定義されることが従う。	このことから、ふびにのていりにより、きょくしょかせきぶんかんすーわほとんどすべてのにおいてきゅうたいしょーせいぶんわむじゅんなくていぎされることがしたがう。	NO_LABEL
球対称函数のフーリエ変換はふたたび球対称である。	きゅうたいしょーかんすーのふーりえへんかんわふたたびきゅうたいしょーである。	NO_LABEL
それゆえ球対称函数はフーリエ解析において決定的な役割を果たす。	それゆえきゅうたいしょーかんすーわふーりえかいせきにおいてけっていてきなやくわりをはたす。	NO_LABEL
さらに言えば、球対称函数のフーリエ変換は典型的には無限遠において非球対称函数よりも強く減衰する振舞いを示す。	さらにいえば、きゅうたいしょーかんすーのふーりえへんかんわてんけいてきにわむげんえんにおいてひきゅうたいしょーかんすーよりもつよくげんすいするふるまいをしめす。	NO_LABEL
原点の近傍において有界な球対称函数に対して、そのフーリエ変換は動径 の函数 よりも速く減少する。	げんてんのきんぼーにおいてゆーかいなきゅうたいしょーかんすーにたいして、そのふーりえへんかんわどーけいのかんすーよりもはやくげんしょーする。	NO_LABEL
ベッセル函数は特別なクラスの球体種函数で、フーリエ解析においてラプラス作用素の球対称固有函数として自然に現れる。	べっせるかんすーわとくべつなくらすのきゅーたいしゅかんすーで、ふーりえかいせきにおいてらぷらすさよーそのきゅうたいしょーこゆーかんすーとしてしぜんにあらわれる。	NO_LABEL
これらは自然にフーリエ変換の球対称部分と看做せる。	これらわしぜんにふーりえへんかんのきゅうたいしょーぶぶんとみなせる。	NO_LABEL
