一井 淳治は、日本の政治家、弁護士。	いちいあつはるわ、にっぽんのせいじか、べんごし。	NO_LABEL
参議院議員を務め、民主党結成にも加わった。	さんぎーんぎーんをつとめ、みんしゅとーけっせいにもくわわった。	NO_LABEL
東京大学法学部卒業。	とーきょーだいがくほーがくぶそつぎょー。	NO_LABEL
1958年、司法試験に合格し司法修習13期。	せんきゅうひゃくごじゅうはちねん、しほーしけんにごーかくししほーしゅうしゅーじゅうさんき。	NO_LABEL
公明党顧問弁護士、岡山弁護士会副会長等を務めた。	こーめいとーこもんべんごし、おかやまべんごしかいふくかいちょーとーをつとめた。	NO_LABEL
1986年の第14回参議院議員通常選挙で岡山県選挙区に日本社会党公認で出馬し初当選。	せんきゅうひゃくはちじゅうろくねんのだいじゅうよんかいさんぎーんぎーんつーじょーせんきょでおかやまけんせんきょくににっぽんしゃかいとーこーにんでしゅつばしはつとーせん。	NO_LABEL
1992年の第16回参議院議員通常選挙で再選。	せんきゅうひゃくきゅうじゅうにねんのだいじゅうろっかいさんぎーんぎーんつーじょーせんきょでさいせん。	NO_LABEL
その後、社会民主党から旧民主党へ移籍。	そのご、しゃかいみんしゅとーからきゅーみんしゅとーえいせき。	NO_LABEL
民主党結成後の1998年に行われた第18回参議院議員通常選挙で落選した。	みんしゅとーけっせいごのせんきゅうひゃくきゅうじゅうはちねんにおこなわれただいじゅうはちかいさんぎーんぎーんつーじょーせんきょでらくせんした。	NO_LABEL
娘の一井暁子は、岡山県議会議員を務めていた。	むすめのいちいあきこわ、おかやまけんぎかいぎーんをつとめていた。	NO_LABEL
