マルクス・ベリは、スウェーデン・ヴェルムランド県出身のサッカー選手。	NO_PRONOUNCE	NO_LABEL
アル・アインFC所属。	あるあいんえふしーしょぞく。	NO_LABEL
スウェーデン代表である。	すーぇーでんだいひょーである。	NO_LABEL
ポジションはフォワード。	ぽじしょんわふぉわーど。	NO_LABEL
2003年にIFKヨーテボリに加入し、2年間はユースチームに所属した。	にせんさんねんによーてぼりにかにゅーし、にねんかんわゆーすちーむにしょぞくした。	NO_LABEL
ヨーテボリでは兄のJonatan Bergとプレーした。	NO_PRONOUNCE	NO_LABEL
2005年にはUEFAインタートトカップ、2006年にはUEFAカップでプレーした。	にせんごねんにわうえふぁいんたーととかっぷ、にせんろくねんにわうえふぁかっぷでぷれーした。	NO_LABEL
2007年、17試合14得点の高い得点率でアルスヴェンスカンの得点王に輝いた。	NO_PRONOUNCE	NO_LABEL
国内カップ戦でも3試合4得点を挙げた彼は、この年に19得点した。	こくないかっぷせんでもさんしあいよんとくてんをあげたかれわ、このとしにじゅうきゅうとくてんした。	NO_LABEL
2007年8月10日、ルイス・アルベルト・スアレスの代役を探していたオランダのFCフローニンゲンに250万ユーロの移籍金で移籍した。	にせんななねんはちがつとおか、るいすあるべるとすあれすのだいやくをさがしていたおらんだのえふせーふろーにんげんににひゃくごじゅうまんゆーろのいせききんでいせきした。	NO_LABEL
2007-08シーズンは15得点、2008-09シーズンは17得点を記録し、いずれも得点ランキング上位に名を連ねた。	NO_PRONOUNCE	NO_LABEL
2009年7月、移籍金1000万ユーロの5年契約でハンブルガーSVへ移籍。	にせんきゅうねんしちがつ、いせききんせんまんゆーろのごねんけいやくではんぶるがーえすふぁうえいせき。	NO_LABEL
8月15日、ボルシア・ドルトムント戦でムラデン・ペトリッチに代わって途中出場し、デビューを飾った。	はちがつじゅうごにち、ぼるしあどるとむんとせんでむらでんぺとりっちにかわってとちゅーしゅつじょーし、でびゅーをかざった。	NO_LABEL
3分後の72分には初得点も記録した。	さんぷんごのななじゅうにふんにわはつとくてんもきろくした。	NO_LABEL
FWパオロ・ゲレーロやFWムラデン・ペトリッチが負傷したため、10月には本職のフォワードがベリただひとりになる事態になったが、同月のシャルケ04戦で2得点したほかは期待にこたえることができなかった。	ふぉわーどぱおろげれーろやふぉわーどむらでんぺとりっちがふしょーしたため、じゅーがつにわほんしょくのふぉわーどがべりただひとりになるじたいになったが、どーげつのしゃるけぬるふぃあせんでにとくてんしたほかわきたいにこたえることができなかった。	NO_LABEL
2010年1月にルート・ファン・ニステルローイが加入すると出場機会が減り、30試合出場4得点でシーズンを終えた。	にせんじゅうねんいちがつにるーとふぁんにすてるろーいがかにゅーするとしゅつじょーきかいがへり、さんじゅうしあいしゅつじょーよんとくてんでしーずんをおえた。	NO_LABEL
2010年7月、GKアンドレーアス・イサクソンとFWオラ・トイヴォネンの2人のスウェーデン人選手が在籍するPSVアイントホーフェンにレンタル移籍した。	NO_PRONOUNCE	NO_LABEL
2008年からスウェーデン代表に招集されている。	にせんはちねんからすーぇーでんだいひょーにしょーしゅーされている。	NO_LABEL
2009年6月10日、ワールドカップ予選のマルタ戦で初得点した。	にせんきゅうねんろくがつとおか、わーるどかっぷよせんのまるたせんではつとくてんした。	NO_LABEL
2009年に地元スウェーデンで開催されたUEFA U-21欧州選手権では7得点を挙げてアディダス・ゴールデンブーツ賞を獲得した。	NO_PRONOUNCE	NO_LABEL
緒戦のベラルーシ戦でハットトリックを達成すると、セルビア戦とイングランド戦でそれぞれ2得点した。	しょせんのべらるーしせんではっととりっくをたっせいすると、せるびあせんといんぐらんどせんでそれぞれにとくてんした。	NO_LABEL
7得点は大会新記録であり、2位のロベルト・アクアフレスカに4点差をつける独走だった。	ななとくてんわたいかいしんきろくであり、にーのろべるとあくあふれすかによんてんさをつけるどくそーだった。	NO_LABEL
この活躍が認められ、12月には2009年のUEFAチーム・オブ・ザ・イヤーの候補60名に選ばれた。	NO_PRONOUNCE	NO_LABEL
!通算	NO_PRONOUNCE	NO_LABEL
