Medpediaは医療、医学分野の情報を扱う、オープンアクセスのオンライン百科事典。	NO_PRONOUNCE	NO_LABEL
2009年2月17日にスタートした。	にせんきゅうねんにがつじゅうしちにちにすたーとした。	NO_LABEL
ハーバード大学医学部、スタンフォード大学医学部、カリフォルニア大学バークレー校公衆衛生学部、ミシガン大学医学部、イギリスのNational Health Service、その他多くの機関の協力のもと、最新でかつ信頼性の高い医療・医学関連情報の無償提供を目指していた。	NO_PRONOUNCE	NO_LABEL
2013年11月現在は公式サイトが閉鎖している。	にせんじゅうさんねんじゅーいちがつげんざいわこーしきさいとがへいさしている。	NO_LABEL
Medpediaの記事の執筆は、医師または生物・医学分野で博士号を持つ人が行っている。	NO_PRONOUNCE	NO_LABEL
記事は古くならないよう最新の状態に保つことが心がけられている。	きじわふるくならないよーさいしんのじょーたいにたもつことがこころがけられている。	NO_LABEL
サイトを動作させているソフトウェアはMediawikiである。	NO_PRONOUNCE	NO_LABEL
Medpedia用のかなりのカスタマイズに加え、動画取り込みやFlaggedRevisionといった様々な最新の拡張機能が利用されている。	NO_PRONOUNCE	NO_LABEL
