上田 善久3月17日 - ）は、日本の大蔵・財務官僚、外交官。	NO_PRONOUNCE	NO_LABEL
2014年1月28日からパラグアイ駐箚特命全権大使。	にせんじゅうよねんいちがつにじゅうはちにちからぱらぐあいちゅーさつとくめいぜんけんたいし。	NO_LABEL
兵庫県出身。	ひょーごけんしゅっしん。	NO_LABEL
1973年9月東京大学法学部在学中に国家公務員採用上級試験に合格する。	せんきゅうひゃくななじゅうさんねんくがつとーきょーだいがくほーがくぶざいがくちゅーにこっかこーむいんさいよーじょーきゅーしけんにごーかくする。	NO_LABEL
1974年東大法学部を卒業して、大蔵省に入省した。	せんきゅうひゃくななじゅうよねんとーだいほーがくぶをそつぎょーして、おーくらしょーににゅーしょーした。	NO_LABEL
