新トモエ電機工業株式会社は、蓄電池機関車、無人搬送システム等を製造する日本の輸送用機器メーカーである。	しんともえでんきこーぎょーかぶしきがいしゃわ、ちくでんちきかんしゃ、むじんはんそーしすてむとーをせいぞーするにっぽんのゆそーよーききめーかーである。	NO_LABEL
本項目では、前身のトモエ電機工業としての沿革、製品等も含めて記述する。	ほんこーもくでわ、ぜんしんのともえでんきこーぎょーとしてのえんかく、せいひんとーもふくめてきじゅつする。	NO_LABEL
1957年9月に、トモエ電機工業株式会社として設立され、トンネル工事現場等向けの小型蓄電池機関車の製造・販売を手掛ける。	NO_PRONOUNCE	NO_LABEL
その後、高精度な走行・停止制御、メンテナンスフリー構造等の技術力を発達させ、工場構内向けの無人搬送システム等の開発・製造にも進出し、業績を拡大した。	NO_PRONOUNCE	NO_LABEL
2008年頃から、景気低迷の影響により資金繰りが悪化。	にせんはちねんごろから、けいきていめいのえいきょーによりしきんぐりがあっか。	NO_LABEL
2009年9月29日に民事再生法の適用を申請したが再生計画はととのわず、2010年3月25日に再生手続き廃止が決定され、同年6月3日に破産手続きの開始決定に至る。	にせんきゅうねんくがつにじゅうきゅうにちにみんじさいせいほーのてきよーをしんせいしたがさいせいけいかくわととのわず、にせんじゅうねんさんがつにじゅうごにちにさいせいてつずきはいしがけっていされ、どーねんろくがつみっかにはさんてつずきのかいしけっていにいたる。	NO_LABEL
しかしながら、トモエ電機工業の有していた電気車両・無人搬送システム等の技術力は将来的にも環境対応テクノロジー等として有望であったことから、総合レンタル大手の西尾レントオールが同社の事業譲受を希望し、新法人として新トモエ電機工業を設立。	NO_PRONOUNCE	NO_LABEL
事業全般を譲受して2010年6月より新会社としての業務を開始した。	じぎょーぜんぱんをじょーじゅしてにせんじゅうねんろくがつよりしんかいしゃとしてのぎょーむをかいしした。	NO_LABEL
1.5t-15tの各種規格の蓄電池機関車を製造。	NO_PRONOUNCE	NO_LABEL
サーボ機構による高精度な走行・停止制御技術を有し、「サーボロコ」の商品名で販売している。	NO_PRONOUNCE	NO_LABEL
充電や電池交換が困難な環境向けに、マイクロガスタービン発電機を搭載したタイプや、急勾配に対応可能なラックレール式機関車もある。	じゅーでんやでんちこーかんがこんなんなかんきょーむけに、まいくろがすたーびんはつでんきをとーさいしたたいぷや、きゅーこーばいにたいおーかのーならっくれーるしききかんしゃもある。	NO_LABEL
鉄道車両基地構内での検修車両入換用の蓄電池機関車や軌陸両用車両牽引車。	NO_PRONOUNCE	NO_LABEL
電気動力を使用し、排気ガスがないことから、地下鉄事業者向けや、建屋内作業用等に特色を有する。	でんきどーりょくをしよーし、はいきがすがないことから、ちかてつじぎょーしゃむけや、たきのやないさぎょーよーとーにとくしょくをゆーする。	NO_LABEL
工場構内等の工程中で、原料や中間製品・完成品等を搬送する無人自走台車。	NO_PRONOUNCE	NO_LABEL
積載量1t級から、400tを超えるものまで、用途に応じたシステム構築に対応する。	せきさいりょういちとんきゅーから、よんひゃくとんをこえるものまで、よーとにおーじたしすてむこーちくにたいおーする。	NO_LABEL
上記の各技術を応用して製作される。	じょーきのかくぎじゅつをおーよーしてせいさくされる。	NO_LABEL
足尾銅山観光向けラックレール式機関車や、東南植物楽園の「トラム」、錦川鉄道の初代「とことこトレイン」の客車等の導入事例がある。	NO_PRONOUNCE	NO_LABEL
