『バーダー・マインホフ 理想の果てに』は、2008年のドイツ映画。	NO_PRONOUNCE	NO_LABEL
ドイツ赤軍の結成からウルリケ・マインホフとアンドレアス・バーダーの死までを描いた作品。	どいつせきぐんのけっせいからうるりけまいんほふとあんどれあすばーだーのしまでをえがいたさくひん。	NO_LABEL
左翼雑誌の編集者ウルリケ・マインホフは同業者の夫と娘と共に何不自由ない生活を送っていた。	さよくざっしのへんしゅーしゃうるりけまいんほふわどーぎょーしゃのおっととむすめとともになにふじゆーないせいかつをおくっていた。	NO_LABEL
しかし夫の不倫、そして西ベルリンでの警官によるデモ隊の学生殺害を目撃し動揺する。	しかしおっとのふりん、そしてにしべるりんでのけいかんによるでもたいのがくせいさつがいをもくげきしどーよーする。	NO_LABEL
そして過激派の若者アンドレアス・バーダー、グドルン・エンスリンと出会い、彼らへの共感から、今までの生活を捨て、暴力闘争に身を投じることとなる。	そしてかげきはのわかものあんどれあすばーだー、ぐどるんえんすりんとであい、かれらえのきょーかんから、いままでのせいかつをすて、ぼーりょくとーそーにみをとーじることとなる。	NO_LABEL
