ペーザー・グラムはデンマークの後期ロマン派音楽の作曲家・指揮者。	NO_PRONOUNCE	NO_LABEL
コペンハーゲンに生まれ、ライプツィヒ音楽院にてシュテファン・クレールとアルトゥール・ニキシュ並びにハンス・ジットに師事。	NO_PRONOUNCE	NO_LABEL
1908年よりコペンハーゲンで指揮者として活動し、1918年から1932年までデンマーク演奏協会の音楽監督を、1937年から1951年までコペンハーゲンのデンマーク放送局で音楽部長を務めた。	せんきゅうひゃくはちねんよりこぺんはーげんでしきしゃとしてかつどーし、せんきゅうひゃくじゅうはちねんからせんきゅうひゃくさんじゅうにねんまででんまーくえんそーきょーかいのおんがくかんとくを、せんきゅうひゃくさんじゅうななねからせんきゅうひゃくごじゅういちねんまでこぺんはーげんのでんまーくほーそーきょくでおんがくぶちょーをつとめた。	NO_LABEL
コペンハーゲンにて没。	こぺんはーげんにてぼつ。	NO_LABEL
3つの交響曲と1つのヴァイオリン協奏曲のほか、交響的幻想曲や交響詩、2つの演奏会用序曲や、多数の室内楽曲とピアノ曲、歌曲を手がけた。	NO_PRONOUNCE	NO_LABEL
