霧島市立国分西小学校は、鹿児島県霧島市国分広瀬にある市立の小学校。	きりしましりつこくぶにししょうがっこーわ、かごしまけんきりしましこくぶひろせにあるしりつのしょーがっこー。	NO_LABEL
霧島市国分の南西部に位置する小学校である。	きりしましこくぶのなんせいぶにいちするしょーがっこーである。	NO_LABEL
生徒数の増加に伴い、2010年に天降川小学校が分離新設された。	せいとすーのぞーかにともない、にせんじゅうねんにあもりがわしょーがっこーがぶんりしんせつされた。	NO_LABEL
木島小学校	きしましょうがっこー	NO_LABEL
