『高田・大倉の深夜NIヨイショ』はかつてフジテレビの火曜深夜2:35～3:05に放送されていたトーク番組である。	NO_PRONOUNCE	NO_LABEL
放送作家の高田文夫と大倉利晴の二人がMCとなり、毎週一人のゲストを招きヨイショしまくるというトーク番組。	ほーそーさっかのたかだふみおとおーくらとしはるのふたりがえむしーとなり、まいしゅーいちにんのげすとをまねきよいしょしまくるとゆうとーくばんぐみ。	NO_LABEL
この番組の企画者は杉本高文。	このばんぐみのきかくしゃわすぎもとたかふみ。	NO_LABEL
元々は高田が出演するビートたけしのオールナイトニッポンでビートたけしがラジオを休んだ時にさんまと大倉が急遽呼ばれ三人でトークした事があり、後日さんまが街を歩いていた時にリスナーに「この間の深夜ラジオ面白かったですよ」と言われた事から、高田と大倉をテレビの深夜番組に起用してみてはどうかと思い、フジテレビの山縣慎司プロデューサーと構成作家の大岩賞介に企画を提案した。	NO_PRONOUNCE	NO_LABEL
<br>	NO_PRONOUNCE	NO_LABEL
そして当時のフジテレビ深夜の『TV-PLUS+90』の90分実験枠でパイロット版を制作、1990年3月14日に放送。	NO_PRONOUNCE	NO_LABEL
この時のゲストは明石家さんま、夏木ゆたか、森口博子の三人。	このときのげすとわあかしやさんま、なつきゆたか、もりぐちひろこのさんにん。	NO_LABEL
またさんまは最終回にもゲスト出演した。	またさんまわさいしゅーかいにもげすとしゅつえんした。	NO_LABEL
深夜にあまりにもうるさいトーク番組として注目されレギュラー化、1990年4月～9月に放送され、さらに最終回後の10月10日にも総集編の90分を放送した。	NO_PRONOUNCE	NO_LABEL
レギュラー初回ゲストは和田アキ子。	れぎゅらーしょかいげすとわわだあきこ。	NO_LABEL
変わった所でフジテレビの三宅恵介ディレクターや横澤彪ゼネラルプロデューサーもゲストで呼ばれた事がある。	かわったところでふじてれびのみやけけいすけでぃれくたーやよこざわたけしぜねらるぷろでゅーさーもげすとでよばれたことがある。	NO_LABEL
楠田枝里子はゲスト出演した際に、当番組をビデオ録画して毎週チェックする程の大ファンだと語った。	くすたえりこわげすとしゅつえんしたさいに、とーばんぐみをびでおろくがしてまいしゅーちぇっくするほどのだいふぁんだとかたった。	NO_LABEL
<br>	NO_PRONOUNCE	NO_LABEL
総集編でのトークで、当番組が『なぜ止めるんだフジテレビ、さよなら深夜NIヨイショ』とTVブロスに掲載された際「司会を務める放送作家の高田文夫と他の一名が…」と紹介されていた事で、大倉は「俺の芸名は他一名か」と笑いながら絶叫していた。	NO_PRONOUNCE	NO_LABEL
その後のCM明けで改めて自己紹介した際に大倉のテロップは「他 一名」と表記され、高田が「謎の中国人か」とツッコミを入れていた。	NO_PRONOUNCE	NO_LABEL
