数学においてカルタンの定理とは、1951年頃にアンリ・カルタンによって証明された、シュタイン多様体 上のある連接層 に関する定理で、A と B の二種類が存在する。	NO_PRONOUNCE	NO_LABEL
それらはいずれも多変数複素函数論に対する応用や、層コホモロジーの一般的な発展に対して意義のあるものである。	それらわいずれもたへんすーふくそかんすーろんにたいするおーよーや、そーこほもろじーのいっぱんてきなはってんにたいしていぎのあるものである。	NO_LABEL
定理 B は、以下のようなコホモロジーにおける用語で表現される：	NO_PRONOUNCE	NO_LABEL
代数幾何学における連接層に対する同様の性質は、 がアフィンスキームである場合に、Serreによって示されている。	NO_PRONOUNCE	NO_LABEL
定理 B と類似のそのような定理は、以下のように記述される ：	NO_PRONOUNCE	NO_LABEL
以上の定理は、多くの重要な場面で応用される。	いじょーのていりわ、おーくのじゅーよーなばめんでおーよーされる。	NO_LABEL
素朴に考えると、これらの定理は、シュタイン多様体 の閉複素部分多様体 上の正則函数は、 全体上の正則函数に拡張可能であることを意味している。	NO_PRONOUNCE	NO_LABEL
より深い段階では、これらの定理はGAGAの定理を証明するためにジャン＝ピエール・セールによって利用された。	よりふかいだんかいでわ、これらのていりわががのていりをしょーめいするためにじゃんぴえーるせーるによってりよーされた。	NO_LABEL
カルタンの定理 B は、複素多様体 上のすべての連接層に対して であるなら、 はシュタイン多様体であるという明確な結果である。	NO_PRONOUNCE	NO_LABEL
を参照されたい。	をさんしょーされたい。	NO_LABEL
