『羊の木』は、山上たつひこ原作、いがらしみきお作画の漫画作品。	NO_PRONOUNCE	NO_LABEL
および、それを原作とした実写映画作品。	および、それをげんさくとしたじっしゃえいがさくひん。	NO_LABEL
講談社の雑誌『イブニング』で、2011年13号から2014年9号まで連載された。	NO_PRONOUNCE	NO_LABEL
全41話。	ぜんよんじゅういちわ。	NO_LABEL
2014年、第18回文化庁メディア芸術祭マンガ部門の優秀賞を受賞。	にせんじゅうよねん、だいじゅうはっかいぶんかちょーめでぃあげいじゅつさいまんがぶもんのゆーしゅーしょーをじゅしょー。	NO_LABEL
元受刑者を地方都市に移住させるという国の極秘更正プロジェクトで、過去に凶悪犯罪を犯した11人を受け入れることになった魚深市。	もとじゅけいしゃをちほーとしにいじゅーさせるとゆうくにのごくひこーせいぷろじぇくとで、かこにきょーあくはんざいをおかしたじゅういちにんをうけいれることになったさかなふかし。	NO_LABEL
元受刑者の情報は市民には一切知らされず、魚深市の中で計画を知るのは市長・鳥原秀太郎と、その友人である月末一と大塚武の3人のみだった。	NO_PRONOUNCE	NO_LABEL
2018年2月3日公開。	にせんじゅうはちねんにがつみっかこーかい。	NO_LABEL
全国213スクリーンで公開され、2018年2月3、4日の初日2日間で興収1億2,914万7,000円、動員9万5,478人になり、映画観客動員ランキングで初登場第2位となった。	NO_PRONOUNCE	NO_LABEL
映画では、街に移住してくる元受刑者が「6人の元殺人犯」になる等、設定が原作とは大幅に変更された。	NO_PRONOUNCE	NO_LABEL
