『Savior Cat』は、天空によって制作されフリーウェアとして公開されたRPGツクールXP製のロールプレイングゲーム。	NO_PRONOUNCE	NO_LABEL
ベクターにおいて2006年11月2日に公開されたダウンロードゲームであり、最新版は2007年9月13日公開のver.1.09となっている。	NO_PRONOUNCE	NO_LABEL
「猫種族」が住むディオスト大陸を舞台とするファンタジー作品である。	NO_PRONOUNCE	NO_LABEL
「猫種族」とはネコを起源とする猫耳の人々であり、魔物に対抗するために「妖術」を身につけた。	NO_PRONOUNCE	NO_LABEL
特殊な能力を持った一部の者は千年以上生きることが可能であり、その容姿は能力が最盛期となって以降は変化しない。	とくしゅなのーりょくをもったいちぶのものわちとせいじょーいきることがかのーであり、そのよーしわのーりょくがさいせいきとなっていこーわへんかしない。	NO_LABEL
1000年前、エックス＝マーダーの目論見によって世界は破滅の危機を迎えるが、ゼット＝セイバーの手によって救われた。	NO_PRONOUNCE	NO_LABEL
しかしの能力を持つティ＝フューチャーは、1000年後に二人が出会った時「世界は再び破滅に追いやられる」と告げた。	NO_PRONOUNCE	NO_LABEL
エックスはゼットと戦った際に死亡したと思われていたが、1000年後にあたる年になって復讐のため再びゼットの前に姿を現し、この場面から本作の物語が始まる。	えっくすわぜっととたたかったさいにしぼーしたとおもわれていたが、せんねんごにあたるとしになってふくしゅーのためふたたびぜっとのまえにすがたをあらわし、このばめんからもとさくのものがたりがはじまる。	NO_LABEL
ティは新たな「殺人猫」が出現すると二人に語り、世界を救うにはゼットとエックスの力が必要だと説得を試みる。	NO_PRONOUNCE	NO_LABEL
ベクターの「新着ソフトレビュー」では、「シリアスなストーリーが展開される」一方で「ノンビリとした性格のゼットと仲間たちとのやりとりは軽快でコミカルなものが多」いとしている。	NO_PRONOUNCE	NO_LABEL
また『次世代フリーゲームの殿堂』では、「"猫耳"と聞くと"萌え"を思い浮かべるかもしれないが、そういった要素に固執したゲームではない」とされている。	NO_PRONOUNCE	NO_LABEL
本作では「時間帯システム」が採用されており、プレイ時間の経過によってゲーム内の時間帯が変化する。	NO_PRONOUNCE	NO_LABEL
出現する魔物の種類や強さに影響するほか、特定の時間帯に発生するイベントも存在する。	しゅつげんするまもののしゅるいやつよさにえいきょーするほか、とくていのじかんたいにはっせいするいべんともそんざいする。	NO_LABEL
敵との戦闘はシンボルエンカウントによって発生する。	てきとのせんとーわしんぼるえんかうんとによってはっせいする。	NO_LABEL
戦闘システムは「アタックゲージ」が溜まったキャラクターから順に行動するアクティブタイムバトル方式となっている。	NO_PRONOUNCE	NO_LABEL
戦闘の難易度はあまり高くないとされ、「コンフィグ」から難易度の変更が可能となっている。	NO_PRONOUNCE	NO_LABEL
また敗北時に「リトライ」を選択すると、戦闘を最初からやり直すことができる。	NO_PRONOUNCE	NO_LABEL
エンディングまで到達すると、ゼットの家にある「アルバム」からイベントムービーを再生できるようになる。	NO_PRONOUNCE	NO_LABEL
また2周目以降になって発生するイベントも多く用意されている。	またにしゅーめいこーになってはっせいするいべんともおーくよーいされている。	NO_LABEL
そして条件を満たすと、エンディング以降のストーリーにあたる「裏シナリオ」をプレイできるようになる。	NO_PRONOUNCE	NO_LABEL
本作は2005年6月の中旬頃に企画して顔グラフィックなどを作成していたが、同年8月の『片翼の天使 〜one wing angel〜』公開にあたって一時制作を中断し、翌2006年1月から制作を再開したという。	NO_PRONOUNCE	NO_LABEL
作者である天空は、制作にあたって苦労した点として「画像を描く枚数が膨大だったこと」をあげている。	NO_PRONOUNCE	NO_LABEL
そして「イベントイラストなどのグラフィック苦労しつつも楽しんで描け」たが、戦闘グラフィックのドット絵作成は大変で「何度も挫折しかけ」たと述べている。	NO_PRONOUNCE	NO_LABEL
公式サイトでは、エックスを主人公とする次回作『Murder Cat』の紹介ページが2011年4月10日に開設されている。	NO_PRONOUNCE	NO_LABEL
ベクターの「新着ソフトレビュー」では、「ストーリー性の高さ、魅力的なキャラ、本編以外の遊び要素の豊富さ、迫力のある演出と、細かな部分にも『プレイヤーを楽しませよう』という意気込みが感じられる作品」とされており、「ストレスなくゲームをプレイできる配慮がある点は非常に好感が持てる」とも評されている。	NO_PRONOUNCE	NO_LABEL
『次世代フリーゲームの殿堂』では、「総動画数1100枚超えのデモムービー風のイベントイラストとキャラボイスがゲームを盛り上げる」とされており、グラフィックが「独特な世界観を伝えるための要素となっている点も素晴らしい」と評されている。	NO_PRONOUNCE	NO_LABEL
そして「深い世界観と練りこまれたストーリーだけをとっても満足できる」とされており、「臨場感と爽快感を兼ね備えた」戦闘システムも評価されたほか、「操作性も良い」とされている。	NO_PRONOUNCE	NO_LABEL
『iP!』のコーナー「フリゲーステーション」では、「二匹」の「奇妙な友情を描いたファンタジーRPG」として紹介され、「会話シーンにおけるカットインや、イベント等で流れる動きのあるグラフィック、そして随所のボイスがこの世界をより魅力的にしている」と評されている。	NO_PRONOUNCE	NO_LABEL
ファミ通.comでは、「多彩なグラフィックにキャラクターボイスと、市販作品に迫る完成度のRPG」として紹介された。	NO_PRONOUNCE	NO_LABEL
