『Hey! Say! JUMP 2007-2017 I/O』は、Hey! Say! JUMPの1枚目のベスト・アルバム。	NO_PRONOUNCE	NO_LABEL
 J Stormから2017年7月26日に発売。	じぇいすとーむからにせんじゅうななねんしちがつにじゅうろくにちにはつばい。	NO_LABEL
※はアルバム初収録曲。	NO_PRONOUNCE	NO_LABEL
※初回限定盤2のみ	NO_PRONOUNCE	NO_LABEL
※初回限定盤1のみ	NO_PRONOUNCE	NO_LABEL
