髙木 美恵は、埼玉県出身の元バスケットボール選手である。	NO_PRONOUNCE	NO_LABEL
ポジションはセンター。	ぽじしょんわせんたー。	NO_LABEL
185cm。	ひゃくはちじゅうごせんちめーとる。	NO_LABEL
ニックネームは「タカ」。	NO_PRONOUNCE	NO_LABEL
東亜学園高校卒業後、先輩大山妙子属するジャパンエナジーに入社。	とーあがくえんこーこーそつぎょーご、せんぱいおーやまたえこぞくするじゃぱんえなじーににゅーしゃ。	NO_LABEL
徳島で開催された1998年アジアジュニア選手権に出場する日本代表に選出されるが、Jエナジーでは出場機会に恵まれず。	NO_PRONOUNCE	NO_LABEL
2000年W1リーグ、荏原製作所に移籍。	NO_PRONOUNCE	NO_LABEL
チームの主力として活躍を見せる。	ちーむのしゅりょくとしてかつやくをみせる。	NO_LABEL
2008-2009シーズンはアシスタントコーチ専任となり、2009-2010シーズンに兼任として選手復帰する。	NO_PRONOUNCE	NO_LABEL
2010年引退。	にせんじゅうねんいんたい。	NO_LABEL
引退時、WJBLで山田久美子に次いで2番目の長身であった。	いんたいじ、だぶりゅじぇーびーえるでやまだくみこについでにばんめのちょーしんであった。	NO_LABEL
