郡守は、古代の中国、現代の韓国における郡の長官である。	ぐんしゅわ、こだいのちゅーごく、げんだいのかんこくにおけるぐんのちょーかんである。	NO_LABEL
中国では、秦代に郡の民政を担当する長官を郡守といった。	ちゅーごくでわ、しんだいにぐんのみんせいをたんとーするちょーかんをぐんしゅといった。	NO_LABEL
郡守と、軍事を担当する郡尉、監察を担当する郡監の3人が郡の統治の頂点にあった。	NO_PRONOUNCE	NO_LABEL
漢も郡守を踏襲したが、景帝2年に太守と改称した。	かんもぐんしゅをとーしゅーしたが、けいていにねんにたいしゅとかいしょーした。	NO_LABEL
かつての李氏朝鮮の時代、現在の大韓民国で、郡の長官を郡守という。	かつてのりしちょーせんのじだい、げんざいのだいかんみんこくで、ぐんのちょーかんをぐんしゅという。	NO_LABEL
