ペマ・ギャムツォは、現代のブータン王国の政治家。	ぺまぎゃむつぉわ、げんだいのぶーたんおーこくのせいじか。	NO_LABEL
現在は国民議会内野党党首で、ブータン調和党第2代党首。	げんざいわこくみんぎかいないやとーとーしゅで、ぶーたんちょーわとーだいにだいとーしゅ。	NO_LABEL
日本語表記としては、「ペマ・ジャムツォ」、「ペマ・ギャツォ」、「ペマ・ジャツォ」等もあり得る。	NO_PRONOUNCE	NO_LABEL
Ph.D.を取得していることから、公式の場では名にDr.を冠せられることが多い。	NO_PRONOUNCE	NO_LABEL
1961年生まれ。	せんきゅうひゃくろくじゅういちねんうまれ。	NO_LABEL
18歳前後から早くも職務を得ていたと見られる。	じゅうはっさいぜんごからはやくもしょくむをえていたとみられる。	NO_LABEL
在職中の1990年にニュージーランドで農学修士号を、1996年にスイス連邦工科大学チューリッヒ校でPh.Dを、それぞれ取得した。	ざいしょくちゅーのせんきゅうひゃくきゅうじゅうねんににゅーじーらんどでのーがくしゅーしごーを、せんきゅうひゃくきゅうじゅうろくねんにすいすれんぽーこーかだいがくちゅーりっひこーでぴーえっちでぃーを、それぞれしゅとくした。	NO_LABEL
計画委員会、持続可能な開発事務局、ブータン中央研究所、森林開発協力局などに所属し、農業省政策計画部副部長にまで昇進した。	けいかくいーんかい、じぞくかのーなかいはつじむきょく、ぶーたんちゅーおーけんきゅーじょ、しんりんかいはつきょーりょくきょくなどにしょぞくし、のーぎょーしょーせいさくけいかくぶふくぶちょーにまでしょーしんした。	NO_LABEL
その後、のブータン事務所次長となっている。	そのご、のぶーたんじむしょじちょーとなっている。	NO_LABEL
2007年、ブータン調和党に加入し、ブムタン県の選挙区に登録される。	にせんななねん、ぶーたんちょーわとーにかにゅーし、ぶむたんけんのせんきょくにとーろくされる。	NO_LABEL
翌2008年3月の国民議会選挙では対立候補にトリプルスコアの圧勝を収めた。	よくにせんはちねんさんがつのこくみんぎかいせんきょでわたいりつこーほにとりぷるすこあのあっしょーをおさめた。	NO_LABEL
同年ジグメ・ティンレーが内閣を組織すると、ペマ・ギャムツォは農業森林大臣に任命され、5年間務めている。	どーねんじぐめてぃんれーがないかくをそしきすると、ぺまぎゃむつぉわのーぎょーしんりんだいじんににんめいされ、ごねんかんつとめている。	NO_LABEL
2013年の第2回国民議会選挙にも出馬し、DPTは国民民主党に敗北したが、ペマ・ギャムツォ自身は対立候補をダブルスコアに近い大差で破り、勝利した。	NO_PRONOUNCE	NO_LABEL
2013年の第2期国会が開始する直前に、ジグメ・ティンレーが国民議会選挙敗北の責任をとって議員を辞職したため、7月24日にペマ・ギャムツォが後任として国民議会内野党党首に就任した。	にせんじゅうさんねんのだいにきこっかいがかいしするちょくぜんに、じぐめてぃんれーがこくみんぎかいせんきょはいぼくのせきにんをとってぎいんをじしょくしたため、しちがつにじゅうよっかにぺまぎゃむつぉがこーにんとしてこくみんぎかいないやとーとーしゅにしゅーにんした。	NO_LABEL
更に同年12月3日には、ブータン調和党の第2代党首に選出されている。	さらにどーねんじゅーにがつみっかにわ、ぶーたんちょーわとーのだいにだいとーしゅにせんしゅつされている。	NO_LABEL
