チャールズ・ゴッドフリー・リーランドは、アメリカ合衆国のユーモリスト、作家、民俗学者。	ちゃーるずごっどふりーりーらんどわ、あめりかがっしゅーこくのゆーもりすと、さっか、みんぞくがくしゃ。	NO_LABEL
ペンシルベニア州フィラデルフィア出身。	ぺんしるべにあしゅーふぃらでるふぃあしゅっしん。	NO_LABEL
彼はプリンストン大学とヨーロッパで教育を受けた。	かれわぷりんすとんだいがくとよーろっぱできょーいくをうけた。	NO_LABEL
リーランドはジャーナリズムに携わり、広い範囲を旅して、民俗学や民俗言語学に関心を抱いた。	りーらんどわじゃーなりずむにたずさわり、ひろいはんいをたびして、みんぞくがくやみんぞくげんごがくにかんしんをだいた。	NO_LABEL
彼はアメリカとヨーロッパの言語や民間伝承に関する書籍や記事を出版した。	かれわあめりかとよーろっぱのげんごやみんかんでんしょーにかんするしょせきやきじをしゅっぱんした。	NO_LABEL
彼は多彩な仕事をし、漫画『ハンス・ブレイットマンズ・バラッド』の作者として著名となり、二つの紛争で兵士として戦った。	NO_PRONOUNCE	NO_LABEL
また、半世紀後にネオペイガニズムの主要な文献となる『アラディア、あるいは魔女の福音』を著した。	NO_PRONOUNCE	NO_LABEL
