植田は、愛知県名古屋市天白区の地名。	うえだわ、あいちけんなごやしてんぱくくのちめい。	NO_LABEL
植田一丁目から植田三丁目がある。	うえだいっちょーめからうえださんちょーめがある。	NO_LABEL
郵便番号は468-0051。	NO_PRONOUNCE	NO_LABEL
当地域の人口は1972世帯・4238人。	NO_PRONOUNCE	NO_LABEL
住居表示未実施。	じゅーきょひょーじみじっし。	NO_LABEL
国勢調査による人口の推移	こくせいちょうさによるじんこーのすいい	NO_LABEL
上田が転じて植田となったとする説があるという。	うえだがてんじてうえだとなったとするせつがあるという。	NO_LABEL
