アデロバシレウスは、現在見つかっているなかで最古の哺乳類であるといわれる化石種の哺乳類、あるいは哺乳形類。	あでろばしれうすわ、げんざいみつかっているなかでさいこのほにゅーるいであるといわれるかせきしゅのほにゅーるい、あるいわほにゅーがたるい。	NO_LABEL
属名は「目立たない王」の意。	NO_PRONOUNCE	NO_LABEL
アメリカ・テキサス州のチンリ層群で発見された。	NO_PRONOUNCE	NO_LABEL
繁殖は卵を産んでいた。	はんしょくわたまごをうんでいた。	NO_LABEL
中生代三畳紀後期の2億2,500万年前に生息していたと推定されている。	NO_PRONOUNCE	NO_LABEL
それまで最古の哺乳類であった2億1,000万年前のエオゾストロドンより、さらに1,500万年さかのぼることになった。	NO_PRONOUNCE	NO_LABEL
1989年に糞化石の中から頭骨の一部が発見されている。	せんきゅうひゃくはちじゅうきゅうねんにくそかせきのなかからずこつのいちぶがはっけんされている。	NO_LABEL
発見された頭骨は吻端などが欠損していたが、大きさは長さ1.5センチ、幅も1センチに満たない小さなものであった。	NO_PRONOUNCE	NO_LABEL
推測される体長は10センチから15センチ、現在のトガリネズミのような外見であったと思われる。	すいそくされるたいちょーわじゅうせんちからじゅうごせんち、げんざいのとがりねずみのよーながいけんであったとおもわれる。	NO_LABEL
この頭骨には祖先となった獣弓類との類似点も多く認められるが、眼窩に視神経孔がある、蝸牛の付着点である岬角があるなど獣弓類にはなく、哺乳類のみに見られる特徴がある。	このずこつにわそせんとなったししゆみるいとのるいじてんもおーくみとめられるが、がんかにししんけいあながある、かぎゅーのふちゃくてんであるこうかくがあるなどししゆみるいにわなく、ほにゅーるいのみにみられるとくちょーがある。	NO_LABEL
生態についてはよく分かっていない部分もあるが、おそらくは夜行性で昆虫を食べていたのであろうと推測される。	せいたいについてわよくわかっていないぶぶんもあるが、おそらくわやこーせいでこんちゅーをたべていたのであろうとすいそくされる。	NO_LABEL
