ジェフ・ブラッドリーは、アメリカ合衆国のプロレスラー。	じぇふぶらっどりーわ、あめりかがっしゅーこくのぷろれすらー。	NO_LABEL
テキサス州サンアントニオ出身。	てきさすしゅーさんあんとにおしゅっしん。	NO_LABEL
キャリアにおいて、ECW時代のリングネームであるダッドリー・ダッドリーでの活動で知られる。	NO_PRONOUNCE	NO_LABEL
マレンコ道場にてプロレスラーとなるためにトレーニングを積み、1992年にプロレスラーデビューを果たす。	まれんこどうじょーにてぷろれすらーとなるためにとれーにんぐをつみ、せんきゅうひゃくきゅうじゅうにねんにぷろれすらーでびゅーをはたす。	NO_LABEL
同年、WWFに入団し、チャーリー・ハンターのリングネームで活動。	どーねん、せかいみずふぉーらむににゅーだんし、ちゃーりーはんたーのりんぐねーむでかつどー。	NO_LABEL
1995年までの2年間在籍するが特に活躍することができずに解雇となった。	せんきゅうひゃくきゅうじゅうごねんまでのにねんかんざいせきするがとくにかつやくすることができずにかいことなった。	NO_LABEL
同年、ECWに移籍。	どーねん、いーしーだぶりゅーにいせき。	NO_LABEL
7月1日に異母兄弟ヒールユニットであるダッドリー・ファミリーの長男、ダッドリー・ダッドリーのリングネームで次男のビッグ・ディック・ダッドリーとハーフブラザーのスノット・ダッドリーを引き連れ登場。	NO_PRONOUNCE	NO_LABEL
以降、ファミリーのリーダーとして存在感を表し、ピットブルズやレイヴェンズ・ネストなどと抗争。	NO_PRONOUNCE	NO_LABEL
同年後期に四男、ダンス・ウィズ・ダッドリーと五男、ババ・レイ・ダッドリーが加わりファミリーを拡大していくが、1996年に事故を起こし長期欠場。	NO_PRONOUNCE	NO_LABEL
そのまま復帰することなくECWから離脱した。	そのままふっきすることなくいーしーだぶりゅーからりだつした。	NO_LABEL
1997年、WCWに入団するがジョバーとしての役目が短期間で解雇された。	せんきゅうひゃくきゅうじゅうなな、だぶるしーだぶりゅーににゅーだんするがじょばーとしてのやくめがたんきかんでかいこされた。	NO_LABEL
WCW解雇後は世界の団体で活動するようになり、2002年に大日本プロレスに参戦するため来日。	だぶるしーだぶりゅーかいこごわせかいのだんたいでかつどーするよーになり、にせんにねんにだいにほんぷろれすにさんせんするためらいにち。	NO_LABEL
この時はオリジナル・ダッドリー・ダッドリーのリングネームで出場している。	NO_PRONOUNCE	NO_LABEL
アフリカや中国の団体に参戦後、2004年に再び来日。	あふりかやちゅーごくのだんたいにさんせんご、にせんよねんにふたたびらいにち。	NO_LABEL
8月31日に代々木第2体育館で行われたIWAジャパンの10周年記念興行にブルーザー・ブロディをオマージュしたギミック、ブルーザー・コングのリングネームで参戦し、IWA世界ヘビー級王座争奪トーナメントに出場するが一回戦のジム・ドゥガンと戦い敗れた。	NO_PRONOUNCE	NO_LABEL
同年、オーストリアやハンガリーといったヨーロッパの団体やプエルトリコのIWAに参戦後、アメリカに帰国。	どーねん、おーすとりあやはんがりーといったよーろっぱのだんたいやぷえるとりこのあいだぶるえーにさんせんご、あめりかにきこく。	NO_LABEL
フロリダ州のインディー団体を拠点とし、NWAフロリダなどの団体に参戦。	ふろりだしゅーのいんでぃーだんたいをきょてんとし、えぬだぶりゅーえーふろりだなどのだんたいにさんせん。	NO_LABEL
また、マレンコ道場やスティーブ・カーンが主宰するレスリングスクールのトレーナーとしても活動。	また、まれんこどうじょーやすてぃーぶかーんがしゅさいするれすりんぐすくーるのとれーなーとしてもかつどー。	NO_LABEL
2008年、再び世界の団体で活動するようになり、WWCではWWC世界タッグ王座を獲得。	にせんはちねん、ふたたびせかいのだんたいでかつどーするよーになり、だぶるだぶるしーでわだぶるだぶるしーせかいたっぐおーざをかくとく。	NO_LABEL
2009年にはオーストリアのEWAにて日本の団体に参戦していることで知られるバンビ・キラーやジョー・レジェンドと対戦している。	NO_PRONOUNCE	NO_LABEL
