力信流は、官部嵯峨入道家光が開いた武術の流派。	りきしんりゅーわ、かんべさがにゅーどーかこーがひらいたぶじゅつのりゅーは。	NO_LABEL
柔術、剣術、棒術を中心に、居合、小太刀術、縄術、十手術、鉄扇術を含む内容の流派である。	じゅーじゅつ、けんじゅつ、ぼーじゅつをちゅーしんに、いあい、こだちじゅつ、なわじゅつ、じゅってじゅつ、てっせんじゅつをふくむないよーのりゅーはである。	NO_LABEL
官部嵯峨入道は竹内流を学んだ後、愛宕山に籠もり修験者から秘伝を授かり、力信流を開いたと伝えられる。	かんべさがにゅーどーわたけのうちりゅーをまなんだのち、あたごやまにかごもりしゅげんしゃからひでんをさずかり、りきしんりゅーをひらいたとつたえられる。	NO_LABEL
江戸時代は岡山藩内のみの伝承であったが、明治時代に大阪、名古屋、静岡県方面に伝播した。	えどじだいわおかやまはんないのみのでんしょーであったが、めいじじだいにおーさか、なごや、しずおかけんほーめんにでんぱした。	NO_LABEL
1899年、第9代の大長九郎が静岡県警察部の武術教師として招聘されたことにより、当流が静岡県に伝わった。	せんはっぴゃくきゅうじゅうきゅうねん、だいくだいのおーちょーきゅーろーがしずおかけんけいさつぶのぶじゅつきょーしとしてしょーへいされたことにより、とーりゅーがしずおかけんにつたわった。	NO_LABEL
大長は静岡移住後、道場「武修館」を開き当流を指導した。	NO_PRONOUNCE	NO_LABEL
門人によって柔術、居合・剣術、棒術を分けて指導したため、流儀の免許皆伝者は輩出しなかった。	NO_PRONOUNCE	NO_LABEL
その後、大長は大日本武徳会から剣道・居合術・棒術の教士号を授与され、また、昭和天皇即位を記念して開催された1929年の御大礼記念天覧武道大会剣道指定選士の部に出場し、この流儀を天下に知らしめた。	NO_PRONOUNCE	NO_LABEL
1945年、武修館は戦災で焼失したが、1953年、大長は全日本剣道連盟から居合道範士号を授与され、翌年には剣道範士号も授与された。	せんきゅうひゃくよんじゅうごねん、ぶしゅうかんわせんさいでしょーしつしたが、せんきゅうひゃくごじゅうさんねん、おーちょーわぜんにほんけんどーれんめいからいあいどーはんしごーをじゅよされ、よくねんにわけんどーはんしごーもじゅよされた。	NO_LABEL
1955年、力信流棒術は静岡県無形文化財に指定されたが、大長の没後に削除されている。	せんきゅうひゃくごじゅうごねん、りきしんりゅーぼーじゅつわしずおかけんむけいぶんかざいにしていされたが、おーちょーのぼつごにさくじょされている。	NO_LABEL
現在は岡山県、三重県、静岡県、山梨県、兵庫県、ドイツに伝統が残っている。	げんざいわおかやまけん、みえけん、しずおかけん、やまなしけん、ひょーごけん、どいつにでんとーがのこっている。	NO_LABEL
