桐谷 ユリアは。	きりたにゆりあわ。	NO_LABEL
日本のAV女優。	にっぽんのえーぶいじょゆー。	NO_LABEL
ディーバプロモーション所属。	でぃーばぷろもーしょんしょぞく。	NO_LABEL
趣味、特技はピアノ、ダンス。	しゅみ、とくぎわぴあの、だんす。	NO_LABEL
猫を飼っている。	ねこをかっている。	NO_LABEL
2011年1月にアイデアポケットからAVデビューした。	にせんじゅういちねんいちがつにあいであぽけっとからえーぶいでびゅーした。	NO_LABEL
台中アダルトエキスポ2012のイメージガールに丘咲エミリ、北川瞳とともに選ばれている。	NO_PRONOUNCE	NO_LABEL
BRW108のユニット「PINKY」の元メンバー。	NO_PRONOUNCE	NO_LABEL
※以下は、18禁サイト	NO_PRONOUNCE	NO_LABEL
