日産プリンス岩手販売株式会社は、岩手県盛岡市に本社を置く日産自動車のレッドステージ店・ブルーステージ店である。	NO_PRONOUNCE	NO_LABEL
岩手県内で、日産・レッドステージ、日産・ブルーステージを展開している。	いわてけんないで、にっさんれっどすてーじ、にっさんぶるーすてーじをてんかいしている。	NO_LABEL
久慈地区では同系列店舗が向かい合うため、旧サティオ岩手久慈店をブルーステージ系の久慈日産として営業している。	くじちくでわどーけいれつてんぽがむかいあうため、きゅーさてぃおいわてくじてんをぶるーすてーじけいのくじにっさんとしてえいぎょーしている。	NO_LABEL
