メヌエットは、ヨーロッパの舞曲のひとつ。	めぬえっとわ、よーろっぱのぶきょくのひとつ。	NO_LABEL
4分の3拍子で、2小節が１つの単位となってフレーズが構成されている。	NO_PRONOUNCE	NO_LABEL
フランスの民俗舞踊に由来する。	ふらんすのみんぞくぶよーにゆらいする。	NO_LABEL
バロック時代に独立した楽曲として、また、組曲の1曲として数多く作曲された後、交響曲に取り入れられた。	ばろっくじだいにどくりつしたがっきょくとして、また、くみきょくのいちきょくとしてかずおーくさっきょくされたのち、こーきょーきょくにとりいれられた。	NO_LABEL
ハイドンやベートーヴェンによってスケルツォが分化した。	はいどんやべーとーべんによってすけるつぉがぶんかした。	NO_LABEL
その他、古典派の交響曲の第3楽章に頻繁に見ることが出来る。	NO_PRONOUNCE	NO_LABEL
それ以降はスケルツォに取って代わられることになる。	それいこーわすけるつぉにとってかわられることになる。	NO_LABEL
