ウォータールー橋は、イギリスのテムズ川に架かる橋である。	うぉーたーるーばしわ、いぎりすのてむずがわにかかるはしである。	NO_LABEL
ジョン・レニーの設計の下、1811年に着工した。	NO_PRONOUNCE	NO_LABEL
完成間近の1815年には、ロンドンを訪れたアントニオ・カノーヴァが「世界で最も高貴な橋」と評している。	NO_PRONOUNCE	NO_LABEL
開通以前は「ストランド橋」と呼ばれていたが、1817年に開通した際、1815年のワーテルローの戦いでの勝利にちなんで「ウォータールー橋」へと改名された。	NO_PRONOUNCE	NO_LABEL
1934年より、この橋の解体が進められた。	せんきゅうひゃくさんじゅうよねんより、このはしのかいたいがすすめられた。	NO_LABEL
1937年、ジャイルズ・ギルバート・スコット卿の設計の下、新たな橋の建設が始まった。	NO_PRONOUNCE	NO_LABEL
1939年の第二次世界大戦開戦時点で、かなりの部分が完成していたが、約500人いた男性作業員は1941年には約50人に減少しており、1940年から1941年にかけての爆撃により、工事は遅滞した。	せんきゅうひゃくさんじゅうきゅうねんのだいにじせかいたいせんかいせんじてんで、かなりのぶぶんがかんせいしていたが、やくごひゃくにんいただんせいさぎょーいんわせんきゅうひゃくよんじゅういちねにわやくごじゅうにんにげんしょーしており、せんきゅうひゃくよんじゅうねんからせんきゅうひゃくよんじゅういちねにかけてのばくげきにより、こーじわちたいした。	NO_LABEL
1942年、2車線が開通した。	NO_PRONOUNCE	NO_LABEL
その後、橋は完成し、1945年に開通記念式典が催された。	そのご、はしわかんせいし、せんきゅうひゃくよんじゅうごねんにかいつーきねんしきてんがもよおされた。	NO_LABEL
第二次世界大戦の最中、この橋の建設作業に数多くの女性が加わった。	だいにじせかいたいせんのさいちゅー、このはしのけんせつさぎょーにすーおーくのじょせいがくわわった。	NO_LABEL
女性たちが橋の建設において重要な役割を果たしたことは長い間、見過ごされてきたが、2015年、その貢献が公式に認められた。	じょせいたちがはしのけんせつにおいてじゅーよーなやくわりをはたしたことわながいあいだ、みすごされてきたが、にせんじゅうごねん、そのこーけんがこーしきにみとめられた。	NO_LABEL
現在では「レディース・ブリッジ」の名でも知られている。	NO_PRONOUNCE	NO_LABEL
