株式会社アンアルウェンは、英語圏を専門とした海外留学のサポートを行う留学エージェント会社である。	かぶしきがいしゃあんあるうぇんわ、えいごけんをせんもんとしたかいがいりゅーがくのさぽーとをおこなうりゅーがくえーじぇんとかいしゃである。	NO_LABEL
語学留学、ワーキングホリデー、大学留学、大学院留学、短期留学など留学全般を取り扱っている。	ごがくりゅーがく、わーきんぐほりでー、だいがくりゅーがく、だいがくいんりゅーがく、たんきりゅーがくなどりゅーがくぜんぱんをとりあつかっている。	NO_LABEL
オーストラリア、カナダ、アメリカに海外提携オフィスがあり、出発前、現地でのサポートが無料で受けられるようになっている。	おーすとらりあ、かなだ、あめりかにかいがいていけいおふぃすがあり、しゅっぱつまえ、げんちでのさぽーとがむりょーでうけられるよーになっている。	NO_LABEL
オーストラリア、カナダの現地留学エージェントと業務提携し、出発前の準備、手続き、滞在中のサポートを無料で提供している。	おーすとらりあ、かなだのげんちりゅーがくえーじぇんととぎょーむていけいし、しゅっぱつまえのじゅんび、てつずき、たいざいちゅーのさぽーとをむりょーでていきょーしている。	NO_LABEL
