金環は、装身具のひとつ。	きんかんわ、そーしんぐのひとつ。	NO_LABEL
環状の耳飾りのなかで金製のもの、または青銅製に金メッキを施したもの。	かんじょーのみみかざりのなかできんせいのもの、またわせいどーせいにきんめっきをほどこしたもの。	NO_LABEL
古墳時代から飛鳥時代にかけての古墳の副葬品として発見されることが多い。	こふんじだいからあすかじだいにかけてのこふんのふくそーひんとしてはっけんされることがおーい。	NO_LABEL
数多くの古墳から出土しており、その分布も全国的であるが、大きさはまちまちである。	すーおーくのこふんからしゅつどしており、そのぶんぷもぜんこくてきであるが、おーきさわまちまちである。	NO_LABEL
なかには刀剣類の吊り金具として使用されたのではないかと思われるものもあるが、形状や成分のうえで両者を区別することは難しい。	なかにわとーけんるいのつりかなぐとしてしよーされたのでわないかとおもわれるものもあるが、けいじょーやせいぶんのうえでりょーしゃをくべつすることわむずかしい。	NO_LABEL
出土状態を明確にすることで用途等を明らかにしていく必要がある。	しゅつどじょーたいをめいかくにすることでよーととーをあきらかにしていくひつよーがある。	NO_LABEL
なお、古墳時代後期前半の千葉県市川市の江子田金環塚古墳は旧名を「瓢箪塚古墳」と呼んだが、純金製の金環の出土によって「金環塚」と呼ばれるようになった事例である。	NO_PRONOUNCE	NO_LABEL
