平成5年8月豪雨は、1993年8月1日に鹿児島県姶良郡を中心とした地域を襲った集中豪雨いわゆる8.1豪雨と、同年8月6日に鹿児島市を中心とした地域を襲った集中豪雨いわゆる8.6豪雨を含む、同年7月31日から8月7日にかけての一連の豪雨災害に対して気象庁が正式に命名した総称。	NO_PRONOUNCE	NO_LABEL
鹿児島県内のマスコミ各社ではいわゆる8.6豪雨のことを指すことが多く、同年9月の台風13号も「8.6水害のあった1993年の台風13号」と紹介される。	NO_PRONOUNCE	NO_LABEL
1993年の夏は梅雨が長引き、7月下旬になっても太平洋高気圧の勢力が弱かったため梅雨前線が日本列島に居座り、記録的な冷夏となっていた。	せんきゅうひゃくきゅうじゅうさんねんのなつわつゆがながびき、なながつげじゅんになってもたいへいよーこーきあつのせいりょくがよわかったためばいうぜんせんがにほんれっとーにいすわり、きろくてきなれいかとなっていた。	NO_LABEL
気象庁は例年通り7月中旬から8月上旬にかけて九州から東北地方の梅雨明けを発表したが、梅雨明け発表後も前線と台風の上陸による大雨が相次いだため、東北地方から九州地方にかけての梅雨明けはすべて撤回され、沖縄県と奄美地方を除き梅雨明け日が特定されない異常な夏となった。	きしょーちょーわれいねんどーりなながつちゅーじゅんからはちがつじょーじゅんにかけてきゅーしゅーからとーほくちほーのつゆあけをはっぴょーしたが、つゆあけはっぴょーごもぜんせんとたいふーのじょーりくによるおーあめがあいついだため、とーほくちほーからきゅーしゅーちほーにかけてのつゆあけわすべててっかいされ、おきなわけんとあまみちほーをのぞきつゆあけびがとくていされないいじょーななつとなった。	NO_LABEL
また台風の接近・上陸も多く、7月下旬の短い期間に3つの台風が相次いで上陸し、うち2つが九州地方に上陸。	NO_PRONOUNCE	NO_LABEL
さらに8月には台風7号が九州に接近し、8月下旬には台風11号が関東地方に接近し北海道に上陸するなどした。	さらにはちがつにわたいふーななごーがきゅーしゅーにせっきんし、はちがつげじゅんにわたいふーじゅういちごーがかんとーちほーにせっきんしほっかいどーにじょーりくするなどした。	NO_LABEL
1993年の台風上陸数は6つで当時の最多記録となり、記録的な冷夏によって農作物の冷害が発生したため米不足に陥るなどした。	せんきゅうひゃくきゅうじゅうさんねんのたいふーじょーりくすーわむっつでとーじのさいたきろくとなり、きろくてきなれいかによってのーさくもつのれいがいがはっせいしたためべいふそくにおちいるなどした。	NO_LABEL
1993年6月から7月にかけて、梅雨前線の影響により鹿児島県を含む九州南部各地で総降水量が1000mmを越え、土石流や浸水の被害が発生した。	せんきゅうひゃくきゅうじゅうさんねんろくがつからしちがつにかけて、ばいうぜんせんのえいきょーによりかごしまけんをふくむきゅーしゅーなんぶかくちでそーこーすいりょーがせんみりをこえ、どせきりゅーやしんすいのひがいがはっせいした。	NO_LABEL
7月9日に九州南部地方は梅雨明けの発表が出されたが、1週間も経たずに再び梅雨前線が南下し、戻り梅雨が続いた。	しちがつここのかにきゅーしゅーなんぶちほーわつゆあけのはっぴょーがだされたが、いっしゅーかんもたたずにふたたびばいうぜんせんがなんかし、もどりつゆがつずいた。	NO_LABEL
同年7月27日には台風5号が大隅半島を縦断し、さらに同29日から30日にかけて台風6号が九州の西側海上を通過し長崎県に上陸、各地に大雨を降らせた。	どーねんしちがつにじゅうしちにちにわたいふーごごーがおーすみはんとーをじゅーだんし、さらにどーにじゅうくにちからさんじゅうにちにかけてたいふーろくごーがきゅーしゅーのにしがわかいじょーをつーかしながさきけんにじょーりく、かくちにおーあめをふらせた。	NO_LABEL
7月27日から30日までの雨量は九州南部各地で100mmから300mmに達した。	しちがつにじゅうしちにちからさんじゅうにちまでのうりょーわきゅーしゅーなんぶかくちでひゃくみりめーとるからさんびゃくめーとるめーとるにたっした。	NO_LABEL
長期間の降雨により地盤が緩んでいたところに以下の集中豪雨が重なった形となった。	ちょーきかんのこーうによりじばんがゆるんでいたところにいかのしゅーちゅーごうーがかさなったかたちとなった。	NO_LABEL
8.6豪雨以後も天候不順が続き、その3日後の8月9日には台風7号が九州西海上を通過し、再び土砂災害を引き起こした。	NO_PRONOUNCE	NO_LABEL
台風7号通過後は一時的に天気は回復したが、その後は再び前線が停滞し、九州地方は雨の降る日が多くなった。	たいふーななごーつーかごわいちじてきにてんきわかいふくしたが、そのごわふたたびぜんせんがていたいし、きゅーしゅーちほーわあめのふるひがおーくなった。	NO_LABEL
8月下旬は晴天に恵まれたが、7月9日の梅雨明け宣言は撤回され、結局は梅雨明けを特定することができなかった。	はちがつげじゅんわせいてんにめぐまれたが、しちがつここのかのつゆあけせんげんわてっかいされ、けっきょくわつゆあけをとくていすることができなかった。	NO_LABEL
そして、9月3日には大型で非常に強い台風13号が中心気圧930ヘクトパスカルの勢力で鹿児島県に上陸したため、再び大災害が発生した。	NO_PRONOUNCE	NO_LABEL
1993年8月1日午後から鹿児島県姶良郡を中心とした地域で1時間あたり最大104mmの猛烈な雨が数時間降り続いた。	せんきゅうひゃくきゅうじゅうさんねんはちがつついたちごごからかごしまけんあいらぐんをちゅーしんとしたちいきでいちじかんあたりさいだいひゃくよんめーとるめーとるのもーれつなあめがすーじかんふりつずいた。	NO_LABEL
溝辺町の雨量は一日で450mmに達し、鹿児島県中央部の各地で死者23名を出した。	NO_PRONOUNCE	NO_LABEL
また、各所で土石流が発生し、九州自動車道、国道10号をはじめ多くの道路が通行止めとなった。	また、かくしょでどせきりゅーがはっせいし、きゅーしゅーじどーしゃどー、こくどーじゅうごーをはじめおーくのどーろがつーこーどめとなった。	NO_LABEL
桜島サービスエリアの建物も土石流の直撃を受けた。	さくらじまさーびすえりあのたてものもどせきりゅーのちょくげきをうけた。	NO_LABEL
日豊本線の国分駅 - 大隅大川原駅間は線路の盛り土が崩壊するなどの被害を受け長期間にわたって不通となり、バスによる代替輸送が行われた。	NO_PRONOUNCE	NO_LABEL
鹿児島県姶良郡及び国分市を流れる天降川が増水し、流域各所で被害が発生した。	かごしまけんあいらぐんおよびこくぶしをながれるあもりがわがぞーすいし、りゅーいきかくしょでひがいがはっせいした。	NO_LABEL
上流部の横川町中心部において244戸が浸水の被害を受け、中流部に点在する新川渓谷温泉郷の宿泊施設も被害を受けた。	NO_PRONOUNCE	NO_LABEL
また、下流部に架かる新川橋と日当山橋が破損し通行止めとなり、いずれの橋もその後に架け替えられた。	また、かりゅーぶにかかるしんかわばしとひなたやまきょーがはそんしつーこーどめとなり、いずれのはしもそのごにかけかえられた。	NO_LABEL
1993年8月6日午後より、鹿児島市を中心とした地域で1時間あたり最大99.5mmの猛烈な雨が数時間降り続いた。	せんきゅうひゃくきゅうじゅうさんねんはちがつむいかごごより、かごしましをちゅーしんとしたちいきでいちじかんあたりさいだいきゅうじゅうきゅうてんごみりめーとるのもーれつなあめがすーじかんふりつずいた。	NO_LABEL
鹿児島市の雨量は一日で259mmに達し、鹿児島市内を中心として死者48名、行方不明者1名となり、重軽傷者は52名、家屋の全壊は284戸、半壊は183戸となった。	NO_PRONOUNCE	NO_LABEL
この豪雨で水没した市内や竜ヶ水地区で土石流に巻き込まれ、土砂に埋もれて大破した列車の様子は新聞、テレビなどで大々的に報道された。	このごーうですいぼつしたしないやりゅーがみずちくでどせきりゅーにまきこまれ、どしゃにうずもれてたいはしたれっしゃのよーすわしんぶん、てれびなどでだいだいてきにほーどーされた。	NO_LABEL
鹿児島市中心部を流れる甲突川、稲荷川、新川が増水し、江戸時代に甲突川に架けられた甲突川五石橋のうち新上橋と武之橋、鹿児島県内最古の石橋と言われた稲荷川の実方太鼓橋が流失し、川からあふれた水により甲突川流域の天文館、西鹿児島駅、稲荷川流域の上町地区、新川流域の郡元地区などにある約12,000戸が浸水の被害を受けた。	NO_PRONOUNCE	NO_LABEL
河川の氾濫により鹿児島市電は軌道上に土砂が流入し、8月9日まで全面運休となった。	かせんのはんらんによりかごしましでんわきどーじょーにどしゃがりゅーにゅーし、はちがつここのかまでぜんめんうんきゅーとなった。	NO_LABEL
甲突川沿いを通る国道3号は鹿児島市草牟田付近で深さ約2mの水に浸かり、鹿児島市小山田町付近も渓岸浸食により、大きく陥没するなどして長期間にわたって通行止めとなった。	こーつきがわぞいをとーるこくどーさんごーわかごしましそーむたふきんでふかさやくにめーとるのみずにつかり、かごしましこやまだちょーふきんもけいがんしんしょくにより、おーきくかんぼつするなどしてちょーきかんにわたってつーこーどめとなった。	NO_LABEL
また、河川の氾濫により甲突川流域にある河頭浄水場は施設が全面的に冠水し稲荷川流域にある滝之神浄水場は濁流の為取水設備が損傷したため、鹿児島市の給水能力の60%が失われ、初めは約76,000件、最終的には97,000件で断水した。	NO_PRONOUNCE	NO_LABEL
8月14日に浄水場が全面復旧するまで、被害のなかった事業所が所有する地下水や湧水利用の配水と、万之瀬川用水による南部浄水場の浄水能力強化、民間応援隊による給水活動、及び全国からの飲料水の救援物資の配給が行われた。	はちがつじゅうよっかにじょーすいじょーがぜんめんふっきゅーするまで、ひがいのなかったじぎょーしょがしょゆーするちかすいやわきみずりよーのはいすいと、まのせがわよーすいによるなんぶじょーすいじょーのじょーすいのーりょくきょーか、みんかんおーえんたいによるきゅーすいかつどー、およびぜんこくからのいんりょーすいのきゅーえんぶっしのはいきゅーがおこなわれた。	NO_LABEL
市水道局給水車最大55台、自衛隊給水車101台が出動し、給水活動を行っている。	NO_PRONOUNCE	NO_LABEL
鹿児島市吉野町の花倉地区にあった花倉病院では裏山で発生した土砂崩れが直撃し、巻き込まれた入院患者と避難住民の15人が死亡する惨事となった。	かごしましよしのちょーのはなくらちくにあったはなくらびょーいんでわうらやまではっせいしたどしゃくずれがちょくげきし、まきこまれたにゅーいんかんじゃとひなんじゅーみんのじゅうごにんがしぼーするさんじとなった。	NO_LABEL
その後、花倉病院は1年にわたって休診となった。	そのご、はなくらびょーいんわいちねんにわたってきゅーしんとなった。	NO_LABEL
その後、病院は鹿児島市吉野町の高台に移転新築されたが、旧病院は諸般の理由により解体されず閉鎖されたまま現在も災害当時のまま残されている。	そのご、びょーいんわかごしましよしのちょーのたかだいにいてんしんちくされたが、きゅーびょーいんわしょはんのりゆーによりかいたいされずへいさされたままげんざいもさいがいとーじのままのこされている。	NO_LABEL
これは取り付け道路が非常に狭く重機の搬入や解体した廃棄物の搬出が困難なことと、建物を撤去した場合地盤が崩壊する恐れがあるとされている。	これわとりつけどーろがひじょーにせまくじゅーきのはんにゅーやかいたいしたはいきぶつのはんしゅつがこんなんなことと、たてものをてっきょしたばあいじばんがほーかいするおそれがあるとされている。	NO_LABEL
鹿児島市北部の竜ヶ水駅付近では沿線約30か所で土石流が発生したため、鉄道、道路共に完全に孤立し、自動車約800台に乗車していた者と竜ヶ水駅に停車中であった上下線の普通列車3両の乗客の合わせて約2,500名が取り残された。	NO_PRONOUNCE	NO_LABEL
この中には前述の8.1豪雨による土石流により通行止めとなっている九州自動車道を迂回するため、国道10号を通行している自動車も多くいた。	NO_PRONOUNCE	NO_LABEL
また、姶良郡溝辺町にある鹿児島空港から鹿児島市内の鹿児島県庁に向かっていた当時の鹿児島県知事である土屋佳照も竜ヶ水で孤立した自動車に乗車しており、災害対策本部に対して船による救助を車載電話で指示し、孤立者の救助の後に鹿児島県の漁業取締船で鹿児島県庁に向かった。	また、あいらぐんみぞのべまちにあるかごしまくうこーからかごしましないのかごしまけんちょーにむかっていたとーじのかごしまけんちじであるつちやよしてるもりゅーがみずでこりつしたじどーしゃにじょーしゃしており、さいがいたいさくほんぶにたいしてふねによるきゅーじょをしゃさいでんわでしじし、こりつしゃのきゅーじょののちにかごしまけんのぎょぎょーとりしまりせんでかごしまけんちょーにむかった。	NO_LABEL
孤立した人の中には土石流に巻き込まれ鹿児島湾に投げ出される人もいた。	こりつしたひとのなかにわどせきりゅーにまきこまれかごしまわんになげだされるひともいた。	NO_LABEL
また、日豊本線の竜ヶ水駅で立ち往生した旅客列車が土石流に巻き込まれて大破したが、ほとんどの乗客は乗務員の指示により避難した後であった。	また、にっぽーほんせんのりゅーがみずえきでたちおーじょーしたりょかくれっしゃがどせきりゅーにまきこまれてたいはしたが、ほとんどのじょーきゃくわじょーむいんのしじによりひなんしたのちであった。	NO_LABEL
避難の最中に竜ヶ水駅構内に流入した土石流により乗客3人が死亡した。	ひなんのさいちゅーにりゅーがみずえきこーないにりゅーにゅーしたどせきりゅーによりじょーきゃくさんにんがしぼーした。	NO_LABEL
孤立した住民や通行人、土石流に巻き込まれ鹿児島湾に投げ出された者は、近隣の漁船や桜島フェリー、海上保安庁の巡視船によって海上から救出された。	こりつしたじゅーみんやつーこーにん、どせきりゅーにまきこまれかごしまわんになげだされたものわ、きんりんのぎょせんやさくらじまふぇりー、かいじょーほあんちょーのじゅんしせんによってかいじょーからきゅーしゅつされた。	NO_LABEL
このときの救出の様子が、偶然現場付近で銀行強盗の検問中であった警察官二人を中心にNHK『プロジェクトX〜挑戦者たち〜』や、フジテレビ『奇跡体験!アンビリバボー』に取り上げられた。	NO_PRONOUNCE	NO_LABEL
またTBS系「報道30時間テレビ」でも南日本放送の報道記録として紹介されている。	NO_PRONOUNCE	NO_LABEL
国道10号はその後しばらく通行止めとなり、復旧後この区間には雨量計が設置され連続総雨量が200mm以上になると通行が制限されるようになった。	こくどーじゅうごーわそのごしばらくつーこーどめとなり、ふっきゅーごこのくかんにわうりょーけいがせっちされれんぞくそーうりょーがにひゃくめーとるめーとるいじょーになるとつーこーがせいげんされるよーになった。	NO_LABEL
日豊本線鹿児島駅 - 国分駅間は同年9月18日まで不通となり、加治木港からの船舶や、バスによる代替輸送が行われた。	NO_PRONOUNCE	NO_LABEL
鹿児島市高麗町にある南日本放送では、放送会館周辺が冠水し、ラジオ中継車3台他多数の車両が水没で使用不能となった。	NO_PRONOUNCE	NO_LABEL
テレビ中継車2台は日置郡伊集院町でのゴルフ大会収録のために出ていたことで、冠水を免れた。	NO_PRONOUNCE	NO_LABEL
会館の建物は水害対策として約１メートル高くしてあったのだが、下水管等から逆流した水で局内が浸水し、居合わせたスタッフ等の必死の排水作業で主調整室を死守し、放送を継続した。	かいかんのたてものわすいがいたいさくとしてやくいちめーとるたかくしてあったのだが、げすいかんとーからぎゃくりゅーしたみずできょくないがしんすいし、いあわせたすたっふとーのひっしのはいすいさぎょーでしゅちょーせいしつをししゅし、ほーそーをけいぞくした。	NO_LABEL
この際、細川護熙首相就任の報道特番に割り込む格好で全国へ向けて被害の第一報を放送、その後21時からの全国ネットのドラマを途中で打ち切り、ローカルの災害放送に突入し、その後長時間災害情報を鹿児島県民に伝え続けた。	このさい、ほそかわもりひろしゅしょーしゅーにんのほーどーとくばんにわりこむかっこーでぜんこくえむけてひがいのだいいっぽーをほーそー、そのごにじゅういちじからのぜんこくねっとのどらまをとちゅーでうちきり、ろーかるのさいがいほーそーにとつにゅーし、そのごちょーじかんさいがいじょーほーをかごしまけんみんにつたえつずけた。	NO_LABEL
一方この水害後に地元の春苑堂書店が発行した体験記によれば、「MBCラジオは細川内閣の情報ばかりで、水害に関する情報が中々出て来なかった」という事である。	NO_PRONOUNCE	NO_LABEL
この時の反省を踏まえ、鹿児島市は地元に密着したコミュニティFMの開局準備に着手し、1997年10月1日に鹿児島シティエフエムが設立された。	このときのはんせいをふまえ、かごしましわじもとにみっちゃくしたこみゅにてぃえふえむのかいきょくじゅんびにちゃくしゅし、せんきゅうひゃくきゅうじゅうななじゅーがつついたちにかごしましてぃえふえむがせつりつされた。	NO_LABEL
