グレン・マクリード・ジョンソンは、イギリス・グレーター・ロンドングリニッジ出身のサッカー選手。	NO_PRONOUNCE	NO_LABEL
プレミアリーグ・ストーク・シティFC所属。	NO_PRONOUNCE	NO_LABEL
ポジションはディフェンダー。	ぽじしょんわでぃふぇんだー。	NO_LABEL
数々の名選手を輩出したウェストハム・アカデミー出身の選手である。	NO_PRONOUNCE	NO_LABEL
ウェストハム・ユナイテッドFCやミルウォールFCで活躍し、満を持して2003年にチェルシーFCに移籍した。	うぇすとはむゆないてっどふっとぼーるくらぶやみるうぉーるふっとぼーるくらぶでかつやくし、みつるをじしてにせんさんねんにちぇるしーふっとぼーるくらぶにいせきした。	NO_LABEL
「レギュラーは確実」「ガリー・ネヴィルを超える」などと言われ注目を集めたが、安定感がなくクロス精度もイマイチと評価を落とした。	NO_PRONOUNCE	NO_LABEL
結局はパウロ・フェレイラにレギュラーを奪われ、チームでも居場所を無くしていった。	けっきょくわぱうろふぇれいらにれぎゅらーをうばわれ、ちーむでもいばしょをなくしていった。	NO_LABEL
2006年のワールドカップメンバーからも落選し、チェルシーを去ることとなった。	にせんろくねんのわーるどかっぷめんばーからもらくせんし、ちぇるしーをさることとなった。	NO_LABEL
2006年8月5日、ポーツマスFCへのレンタル移籍が発表される。	にせんろくねんはちがついつか、ぽーつますふっとぼーるくらぶえのれんたるいせきがはっぴょーされる。	NO_LABEL
さらに2007年8月31日には同チームへの完全移籍が決定した。	さらににせんななねんはちがつさんじゅういちにちにわどーちーむえのかんぜんいせきがけっていした。	NO_LABEL
ポーツマスでは、FWタイプのジョン・ウタカやベンジャニ・ムワルワリ、中央でのプレーが得意なアンドレス・ダレッサンドロやローレン・エタメ・マイヤーが自身の前を務めることが多く、ジョンソンが相手陣内深くまで攻撃参加する機会が多いこともあり、持ち味の攻撃力を発揮するようになった。	NO_PRONOUNCE	NO_LABEL
また、イングランド代表にも復帰する。	また、いんぐらんどだいひょーにもふっきする。	NO_LABEL
2007年1月17日、ケント州の日曜大工店B&Qで、ミルウォール所属のFWベン・メイとともに便座と蛇口を万引きし逮捕された。	NO_PRONOUNCE	NO_LABEL
それぞれに80ポンドの罰金が科された。	NO_PRONOUNCE	NO_LABEL
2008年11月22日、ハル・シティ戦において、TV番組Match of the dayの年間最優秀ゴールに選ばれたゴールを決めた。	NO_PRONOUNCE	NO_LABEL
左サイドからのクロスボールが相手DFにクリアされ、ワンバウンドした後、胸トラップからそのままボレーで放たれたシュートは、ゴール前の密集を飛び越え、ゴール左上に突き刺さる。	ひだりさいどからのくろすぼーるがあいてでぃふぇんだーにくりあされ、わんばうんどしたご、むねとらっぷからそのままぼれーではなたれたしゅーとわ、ごーるまえのみっしゅーをとびこえ、ごーるひだりうえにつきささる。	NO_LABEL
強烈なドライブ回転により急激に落ちるこのシュートに相手GKは見送るしかなかった。	きょーれつなどらいぶかいてんによりきゅーげきにおちるこのしゅーとにあいてごーるきーぱーわみおくるしかなかった。	NO_LABEL
ポーツマスでは才能を発揮し、FAカップ優勝や、UEFAカップ出場に貢献した。	ぽーつますでわさいのーをはっきし、えふえーかっぷゆーしょーや、うえふぁかっぷしゅつじょーにこーけんした。	NO_LABEL
2009年6月26日、ポーツマスFCからリヴァプールFCに移籍。	NO_PRONOUNCE	NO_LABEL
移籍金は約1750万ポンド。	NO_PRONOUNCE	NO_LABEL
前年までレギュラーとして活躍していたアルバロ・アルベロアのレアル・マドリード移籍により、移籍後すぐにレギュラーに固定されると、アルベロアの移籍による穴を埋める活躍を見せた。	ぜんねんまでれぎゅらーとしてかつやくしていたあるばろあるべろあのれあるまどりーどいせきにより、いせきごすぐにれぎゅらーにこていされると、あるべろあのいせきによるあなをうめるかつやくをみせた。	NO_LABEL
2015年5月14日、 ジョンソンは2014-15シーズンが最後になるとツイッターで表明した。	NO_PRONOUNCE	NO_LABEL
2015年6月10日、リヴァプールと契約満了することを発表した。	NO_PRONOUNCE	NO_LABEL
フリー状態だったが、2015年7月12日、ストーク・シティFCに入団することを発表した。	ふりーじょーたいだったが、にせんじゅうごねんしちがつじゅうににち、すとーくしてぃふっとぼーるくらぶににゅーだんすることをはっぴょーした。	NO_LABEL
契約期間は2年間で、1年の延長オプションが付いている。	けいやくきかんわにねんかんで、いちねんのえんちょーおぷしょんがついている。	NO_LABEL
2010年南アフリカ開催のFIFA ワールドカップイングランド代表メンバーに招集されると、グループリーグ全3試合にフル出場し、決勝トーナメントの1回戦ドイツ戦にもスタメンで出場した。	にせんじゅうねんみなみあふりかかいさいのふぃふぁわーるどかっぷいんぐらんどだいひょーめんばーにしょーしゅーされると、ぐるーぷりーぐぜんさんしあいにふるしゅつじょーし、けっしょーとーなめんとのいちかいせんどいつせんにもすためんでしゅつじょーした。	NO_LABEL
2014年ブラジル開催のFIFAワールドカップ出場。	にせんじゅうよねんぶらじるかいさいのふぃふぁわーるどかっぷしゅつじょー。	NO_LABEL
