スモーは、テレビアニメ、および劇場用アニメ『∀ガンダム』に登場する架空の有人式人型ロボット兵器。	NO_PRONOUNCE	NO_LABEL
月面国家「ムーンレィス」の量産型モビルスーツ。	NO_PRONOUNCE	NO_LABEL
主役機である「∀ガンダム」に似た機体構造を持つ。	NO_PRONOUNCE	NO_LABEL
劇中ではハリー・オードが搭乗するゴールドカラー機と、一般用のシルバーカラー機の2タイプが登場する。	げきちゅーでわはりーおーどがとーじょーするごーるどからーきと、いっぱんよーのしるばーからーきのにたいぷがとーじょーする。	NO_LABEL
ディアナ親衛隊に配備された専用機で、月面都市での戦闘に対応した接近戦型の機体。	でぃあなしんえいたいにはいびされたせんよーきで、げつめんとしでのせんとーにたいおーしたせっきんせんけいのきたい。	NO_LABEL
親衛隊隊長のハリー・オード機は、一般機と大差のない性能ながらも、操縦技術によるものなのか、高い戦闘力を発揮している。	しんえいたいたいちょーのはりーおーどきわ、いっぱんきとたいさのないせいのーながらも、そーじゅーぎじゅつによるものなのか、たかいせんとーりょくをはっきしている。	NO_LABEL
機体胸部には、動力源である「HPHGCPジェネレーター」を装備する。	NO_PRONOUNCE	NO_LABEL
HPHGCPジェネレーターは副次的にIFR効果を発揮する。	NO_PRONOUNCE	NO_LABEL
駆動方式にはIフィールドビームドライブを採用しており、∀ガンダムにも見られる駆動システムであること、コクピットの類似性から、何らかの技術的なかかわりがあるものと推測される。	くどーほーしきにわあいふぃーるどびーむどらいぶをさいよーしており、たーんえーがんだむにもみられるくどーしすてむであること、こくぴっとのるいじせいから、なんらかのぎじゅつてきなかかわりがあるものとすいそくされる。	NO_LABEL
ふくらはぎ部分にはFRPを備える。	ふくらはぎぶぶんにわえふあーるぴーをそなえる。	NO_LABEL
この装置は空間そのものに斥力を発生させる装置であり、これによって地上からホバークラフトのように浮上し、スラスターやアポジモーターなどの推力を必要とせずに高速移動を可能にしている。	このそーちわくーかんそのものにせきりょくをはっせいさせるそーちであり、これによってちじょーからほばーくらふとのよーにふじょーし、すらすたーやあぽじもーたーなどのすいりょくをひつよーとせずにこーそくいどーをかのーにしている。	NO_LABEL
この装置は無重力空間でも使用が可能であり、宇宙空間での機動に一役かっている。	このそーちわむじゅーりょくくーかんでもしよーがかのーであり、うちゅーくーかんでのきどーにひとやくかっている。	NO_LABEL
また、腰に通称スカートと呼ばれる専用の飛行ユニットを付ける事で、大気圏内を飛翔することができ航続距離などがアップする。	また、こしにつーしょーすかーととよばれるせんよーのひこーゆにっとをつけることで、たいきけんないをひしょーすることができこーぞくきょりなどがあっぷする。	NO_LABEL
スモーはIフィールドコンセプト全盛期に建造されたことから、対IFBD機能搭載のMSとなっている。	NO_PRONOUNCE	NO_LABEL
同時代に開発された機体であればIFジェネレーターによるIフィールドリストリクション効果によって敵の誘導兵器や各種火器を抑制、またはコントロールを奪うことができる。	NO_PRONOUNCE	NO_LABEL
機体そのものへの効果もあることから、敵機のコントロールを奪い金縛りのようにして無力化することも可能。	きたいそのものえのこーかもあることから、てききのこんとろーるをうばいかなしばりのよーにしてむりょくかすることもかのー。	NO_LABEL
IFRは原則として同時代の機体にしか効果がないが、その影響はあらゆる機動兵器に及ぶとも言われている。	NO_PRONOUNCE	NO_LABEL
劇中ではフィールド同士を干渉させて相手のフィールドを破るなどの使用方法も見られた。	げきちゅーでわふぃーるどどーしをかんしょーさせてあいてのふぃーるどをやぶるなどのしよーほーほーもみられた。	NO_LABEL
なお、Iフィールドの出力を上げるのは搭乗者に負担があるようで、ハリー・オードがIフィールドを全開で利用した際に倒れている。	なお、あいふぃーるどのしゅつりょくをあげるのわとーじょーしゃにふたんがあるよーで、はりーおーどがあいふぃーるどをぜんかいでりよーしたさいにたおれている。	NO_LABEL
また、ゴールドタイプのみ顔部分のデザインが異なっている。	また、ごーるどたいぷのみかおぶぶんのでざいんがことなっている。	NO_LABEL
通常はシルバータイプと同じ形状だが、ガンダムF91のように装甲が開きスカーフェイスが露出する。	つーじょーわしるばーたいぷとおなじけいじょーだが、がんだむえふきゅうじゅういちのよーにそーこーがひらきすかーふぇいすがろしゅつする。	NO_LABEL
これにはスキャニングターレットの他に、何らかの機能が加わっているとされるが詳細は不明。	これにわすきゃにんぐたーれっとのほかに、なんらかのきのーがくわわっているとされるがしょーさいわふめい。	NO_LABEL
名称は "Strike Unit Maneuver Operation"の略である。	NO_PRONOUNCE	NO_LABEL
型式番号はMRC－F20、MRCはムーンレィスコメモレイションの略で、Fは戦闘タイプを意味し、20は20番目の機体という意味がある。	NO_PRONOUNCE	NO_LABEL
ゲーム作品などでは銀色の一般機をシルバースモー、金色の隊長機をゴールドスモーと呼び分けることがあるが、通常は単にスモーとだけ呼称される。	げーむさくひんなどでわぎんいろのいっぱんきをしるばーすもー、きんいろのたいちょーきをごーるどすもーとよびわけることがあるが、つーじょーわたんにすもーとだけこしょーされる。	NO_LABEL
主な兵装はハンドビームガン、ヒートファン、IFジェネレーターの三種類となっている。	NO_PRONOUNCE	NO_LABEL
ハンドビームガンは中長距離用のビームガン。	はんどびーむがんわちゅーちょーきょりよーのびーむがん。	NO_LABEL
これにはエネルギー供給装置が内蔵されており、機体側は照準と射撃制御だけですむという利点がある。	これにわえねるぎーきょーきゅーそーちがないぞーされており、きたいがわわしょーじゅんとしゃげきせいぎょだけですむとゆうりてんがある。	NO_LABEL
ヒートファンは白兵戦での武器として以外にシールドとしても使用可能な兵器である。	ひーとふぁんわはくへいせんでのぶきとしていがいにしーるどとしてもしよーかのーなへいきである。	NO_LABEL
エッジ部分を灼熱化させ対象物を物理的に切断することが可能であり、先端部からＩフィールドをビームサーベルのように剣状にしたIフィールドサーベルが装備されており、ターンXを破壊するために使用した。	えっじぶぶんをしゃくねつかさせたいしょーぶつをぶつりてきにせつだんすることがかのーであり、せんたんぶからあいふぃーるどをびーむさーべるのよーにけんじょーにしたあいふぃーるどさーべるがそーびされており、たーんえっくすをはかいするためにしよーした。	NO_LABEL
本来は指揮官用の専用兵器ということだが、その由来は不明とされている。	ほんらいわしきかんよーのせんよーへいきとゆうことだが、そのゆらいわふめいとされている。	NO_LABEL
不使用時にはコックピットの後ろ辺りの腰に折りたたんで	ふしよーじにわこっくぴっとのうしろあたりのこしにおりたたんで	NO_LABEL
収納することができる。	しゅーのーすることができる。	NO_LABEL
IFジェネレーターは腕部に装着され、Iフィールドを拡張・増幅・投射することができる装備である。	NO_PRONOUNCE	NO_LABEL
IFブースターやIFバンカーはIFジェネレーターによって作られた効果、または武器のことを指す。	NO_PRONOUNCE	NO_LABEL
IFブースターはIFジェネレーターによってIFBDにて機動する兵器に干渉させて敵機を無効化、または抑制させる機能のことをいう。	NO_PRONOUNCE	NO_LABEL
爆弾やビーム兵器とは違って直接的な破壊力はない。	ばくだんやびーむへいきとわちがってちょくせつてきなはかいりょくわない。	NO_LABEL
逆にIFバンカーはIフィールドを伸縮高密度化することによって実体化させ、槍のような打突用の武器として使用する状態のことをいう。	NO_PRONOUNCE	NO_LABEL
SDガンダム GGENERATIONなどのゲームでは、装甲がナノ・スキンになっている。	NO_PRONOUNCE	NO_LABEL
劇中では特に触れられていないが、設定ではスモーの装甲はMFE型ガンディウムFGI複合装甲となっている。	NO_PRONOUNCE	NO_LABEL
MFE型ガンディウムFGI複合材とは、漸進性フラクタル・エッジ・ガンディウム機能傾斜知能複合材のことで、ムーンレィスの科学班が限られたナノテクノロジーを最大限に活用するために開発した技術である。	NO_PRONOUNCE	NO_LABEL
この装甲の最大の特徴は、装甲にダメージを受ければ受けるほど強度が向上する画期的なものである。	このそーこーのさいだいのとくちょーわ、そーこーにだめーじをうければうけるほどきょーどがこーじょーするかっきてきなものである。	NO_LABEL
簡単に言えば致命的な損傷を受けない限り、二度とその攻撃を受け付けなくなるというものである。	かんたんにいえばちめいてきなそんしょーをうけないかぎり、にどとそのこーげきをうけつけなくなるとゆうものである。	NO_LABEL
一説によると、スモーの仕様や機体色の違いはその為だといわれている。	いっせつによると、すもーのしよーやきたいしょくのちがいわそのためだといわれている。	NO_LABEL
しかし、最強の装甲を目指した開発も装甲の自己進化を制御するナノモジュールが予定通りに機能せず、当初予定していた性能を得ることができなかった。	しかし、さいきょーのそーこーをめざしたかいはつもそーこーのじこしんかをせいぎょするなのもじゅーるがよていどーりにきのーせず、とーしょよていしていたせいのーをえることができなかった。	NO_LABEL
すでに研究も放棄されており、この装甲は通常のFE装甲を若干良くした程度のものだという。	すでにけんきゅーもほーきされており、このそーこーわつーじょーのえふいーそーこーをじゃっかんよくしたていどのものだという。	NO_LABEL
劇中ではディアナがサンベルト共和国建国宣言をする際にボルジャーノンの奇襲攻撃を受けて1機、月面上でズサンと戦闘した際に2機が撃破されている。	NO_PRONOUNCE	NO_LABEL
デザイナーはシド・ミード。	でざいなーわしどみーど。	NO_LABEL
元々は∀ガンダムのデザイン案第1号であったが、日米のヒーロー観の違いがストレートに現れたこのデザインは「まるで相撲取りだ」「零戦の改良を依頼したつもりがヘルダイバーのような重爆撃機を提案されてしまった」として不採用となった。	NO_PRONOUNCE	NO_LABEL
ただし斬新なデザインは高く評価され、脇役として採用された。	ただしざんしんなでざいんわたかくひょーかされ、わきやくとしてさいよーされた。	NO_LABEL
採用にあたって、相撲取りと評された体型とガンダム顔は大幅に修正されている。	さいよーにあたって、すもーとりとひょーされたたいけいとがんだむがおわおーはばにしゅーせいされている。	NO_LABEL
シド・ミードは脚部の内部構造も考えていたが、設定スタッフの構想では黒いラインによるIフィールドビーム駆動のため内部はムクというものもあった。	しどみーどわあしぶのないぶこーぞーもかんがえていたが、せっていすたっふのこーそーでわくろいらいんによるあいふぃーるどびーむくどーのためないぶわむくとゆうものもあった。	NO_LABEL
なお、ヒートファンやビームガンなどの装備は、シド・ミードではなく日本のスタッフの手によってデザインされたものである。	なお、ひーとふぁんやびーむがんなどのそーびわ、しどみーどでわなくにっぽんのすたっふのてによってでざいんされたものである。	NO_LABEL
