蹴上駅は、京都市東山区にある、京都市営地下鉄東西線の駅。	けあげえきわ、きょーとしひがしやまくにある、きょーとしえいちかてつとーざいせんのえき。	NO_LABEL
駅番号はT09。	NO_PRONOUNCE	NO_LABEL
京都市交通局の蹴上駅としては、京都市電蹴上線の蹴上駅に次ぐ2代目の駅である。	きょーとしこーつーきょくのけあげえきとしてわ、きょーとしでんけあげせんのけあげえきにつぐにだいめのえきである。	NO_LABEL
また、京阪京津線の蹴上駅は現在の地下鉄駅より交差点をはさんで西側にあった。	また、けいはんけいしんせんのけあげえきわげんざいのちかてつえきよりこーさてんをはさんでにしがわにあった。	NO_LABEL
駅施設は第三セクターの京都高速鉄道株式会社が建設を担当した。	えきしせつわだいさんせくたーのきょーとこーそくてつどーかぶしきがいしゃがけんせつをたんとーした。	NO_LABEL
他の東西線の駅と同様、複線島式ホームで、ホームドアが設置されている。	たのとーざいせんのえきとどーよー、ふくせんとーしきほーむで、ほーむどあがせっちされている。	NO_LABEL
東西線の駅は駅ごとにステーションカラーが制定されており、当駅のステーションカラーは菫色である。	とーざいせんのえきわえきごとにすてーしょんからーがせいていされており、とーえきのすてーしょんからーわすみれいろである。	NO_LABEL
地下4層にホームがある。	NO_PRONOUNCE	NO_LABEL
地上への出口は2箇所。	NO_PRONOUNCE	NO_LABEL
駅周辺は風致地区に設定されており、出入口はレンガ調のタイル仕上げになっている。	えきしゅーへんわふーちちくにせっていされており、でいりぐちわれんがちょーのたいるしあげになっている。	NO_LABEL
1日平均乗車人員と1日平均乗降人員の推移は下記の通り。	ついたちへいきんじょーしゃじんいんとついたちへいきんじょーこーじんいんのすいいわかきのとーり。	NO_LABEL
京都盆地の東端、東山の山麓に位置する。	きょーとぼんちのひがしばた、ひがしやまのさんろくにいちする。	NO_LABEL
北西方向は市街地であるが、南東方向には東海道が山を越えていくのみである。	ほくせいほーこーわしがいちであるが、なんとーほーこーにわとーかいどーがやまをこえていくのみである。	NO_LABEL
当駅付近から東山駅付近にかけては多くの観光・文教施設などが立地しており、両駅から利用可能の施設も多い。	NO_PRONOUNCE	NO_LABEL
