レッセフェールと一般には訳される。	れっせふぇーるといっぱんにわやくされる。	NO_LABEL
レッセフェールの語を最初に用いたのはフランスの重農主義者である。	れっせふぇーるのかたりをさいしょにもちいたのわふらんすのじゅーのーしゅぎしゃである。	NO_LABEL
この用語は重商主義に反対する立場からの「スローガン」として用いられた。	NO_PRONOUNCE	NO_LABEL
これを古典派経済学の祖であるイギリスのアダム・スミスが主著『諸国民の富』で体系化した。	NO_PRONOUNCE	NO_LABEL
アダム・スミスがその著書において「自由競争によって見えざる手が働き、最大の繁栄がもたらされる」と主張したのは有名である。	NO_PRONOUNCE	NO_LABEL
もっとも、アダム・スミスは『諸国民の富』の中で「自由放任」については直接言及してはいない。	NO_PRONOUNCE	NO_LABEL
その後、1870年代にアルフレッド・マーシャルによって体系化された新古典派経済学にも自由放任主義の考え方は引き継がれた。	そのご、せんはっぴゃくななじゅうねんだいにあるふれっどまーしゃるによってたいけいかされたしんこてんはけいざいがくにもじゆーほーにんしゅぎのかんがえかたわひきつがれた。	NO_LABEL
自由放任主義はジョン・メイナード・ケインズの1926年の著作『自由放任の終焉』によって初めて否定されたといわれることもあるが、これには強い異論もある。	NO_PRONOUNCE	NO_LABEL
経済学者の橘木俊詔は「レッセ・フェールは、現代でも有力な思想の一つとして生き続けている。	NO_PRONOUNCE	NO_LABEL
市場原理主義・新自由主義と呼ばれる思想がそれであり、政府の介入を排し、規制緩和・自由主義による競争促進政策が、経済を強くするため必要と考えた。	NO_PRONOUNCE	NO_LABEL
イギリスのマーガレット・サッチャー、アメリカのロナルド・レーガン、日本の小泉純一郎による構造改革路線はこの経済思想である」と指摘している。	NO_PRONOUNCE	NO_LABEL
