星川 清親(ほしかわ きよちか、1933年2月23日 - 1996年4月2日）は、日本の農学者。	NO_PRONOUNCE	NO_LABEL
長野県松本市出身。	ながのけんまつもとししゅっしん。	NO_LABEL
1956年東京大学農学部卒、1961年同大学院生物学系研究科農学専攻博士課程修了、農学博士。	せんきゅうひゃくごじゅうろくねんとーきょーだいがくのーがくぶそつ、せんきゅうひゃくろくじゅういちねんどーだいがくいんせいぶつがくけいけんきゅーかのーがくせんこーはかせかていしゅーりょー、のーがくはかせ。	NO_LABEL
東大農学部助手、1976年東北大学農学部助教授、1984年教授。	とーだいのーがくぶじょしゅ、せんきゅうひゃくななじゅうろくねんとーほくだいがくのーがくぶじょきょーじゅ、せんきゅうひゃくはちじゅうよねんきょーじゅ。	NO_LABEL
定年前に死去した。	ていねんまえにしきょした。	NO_LABEL
