「ハナタレナックス」とは、北海道を拠点に活動しているローカルタレントのTEAM NACSが出演している北海道テレビ放送制作の毎週金曜日深夜0:15 - 0:45に放送しているローカルバラエティ番組である。	NO_PRONOUNCE	NO_LABEL
2003年1月31日に「いばらのもり」をリニューアルする形でスタートした。	NO_PRONOUNCE	NO_LABEL
開始当時のプロデューサーの福屋渉曰く、「ハナタレ」には「洟垂れ小僧」という意味のほかにも、「光が放たれる」や「華のあるタレント」という意味も込められている。	NO_PRONOUNCE	NO_LABEL
メンバーの森崎博之、安田顕、戸次重幸、大泉洋、音尾琢真の5人が交代で、自ら発案した対決企画などを放送。	めんばーのもりさきひろゆき、やすだけん、とつぎしげゆき、おーいずみよー、おとおたくまのごにんがこーたいで、みずからはつあんしたたいけつきかくなどをほーそー。	NO_LABEL
企画者が司会をし、他の4人と共にそれに挑戦するという内容である。	きかくしゃがしかいをし、たのよにんとともにそれにちょーせんするとゆうないよーである。	NO_LABEL
大方の企画ではメンバーが何らかのキャラクターに扮して企画に取り組んでいたが、2008年3月頃から吉田理恵アナ他HTBアナウンサーが司会進行を務め、メンバー達もキャラクターの設定無しで企画に挑む形になった。	おーかたのきかくでわめんばーがなんらかのきゃらくたーにふんしてきかくにとりくんでいたが、にせんはちねんさんがつごろからよしだりえあなたえいちてぃーびーあなうんさーがしかいしんこーをつとめ、めんばーたちもきゃらくたーのせっていなしできかくにいどむかたちになった。	NO_LABEL
特にバラエティ番組の出演経験が浅い柳田知秀アナのぎこちない司会進行ぶりが逆に好評で、準レギュラー化していたが、2009年11月12日放送分にて、「番組を一時降板し、アナウンス技術を猛勉強中」であることが明らかになった。	NO_PRONOUNCE	NO_LABEL
2003年9月には鈴井貴之監督作品でメンバーが全員が出演している映画「river」の宣伝を生放送で、また、2004年3月に「ミュージックステーション」に出演した大泉洋の密着VTRも放送されたことがある。	NO_PRONOUNCE	NO_LABEL
2005年5月の大泉企画において、姓名判断のコーナーで森崎は「湯けむり殺人」、安田は「鼻先人参」、戸次は「ここ掘れ佐藤」、音尾は「おっとー星人」、大泉は「丸出しポン」、TEAM NACSは「爆発五郎」と改名の提案をされ、企画で負けた音尾と森崎は番組内で実際にその芸名を使わされ、漫才コンビ「TEAM爆発五郎」として2ヶ月に渡って活動することとなった。	NO_PRONOUNCE	NO_LABEL
2008年6月から「北海道の笑顔プロジェクト」という企画がスタート。	NO_PRONOUNCE	NO_LABEL
長期企画として時折他の企画を挿みながらも進行中。	NO_PRONOUNCE	NO_LABEL
2014年1月現在、同じHTB製作の他のローカルバラエティとは違い、CS放送を含む他地域の放送局への番組販売はされていない。	にせんじゅうよねんいちがつげんざい、おなじえいちてぃーびーせいさくのほかのろーかるばらえてぃとわちがい、しーえすほうそーをふくむたちいきのほーそーきょくえのばんぐみはんばいわされていない。	NO_LABEL
大泉洋が出演し現在レギュラー放送中のローカルバラエティで、番販されていないのは当番組のみである。	NO_PRONOUNCE	NO_LABEL
したがって北海道以外の地域で当番組がテレビ放送で視聴できるのはHTBの電波が届いている青森県の一部地域のみに限られている。	したがってほっかいどーいがいのちいきでとーばんぐみがてれびほうそーでしちょーできるのわえいちてぃーびーのでんぱがとどいているあおもりけんのいちぶちーきのみにかぎられている。	NO_LABEL
番組公式サイトのFAQでは、北海道限定だからこそ出せるテイストを重視しており、当面全国放送の予定はないとしていた。	ばんぐみこーしきさいとのえふえーきゅーでわ、ほっかいどーげんていだからこそだせるていすとをじゅーししており、とーめんぜんこくほうそーのよていわないとしていた。	NO_LABEL
しかし、その後、特別番組と言う形で全国放送版を制作しており、2015年2月15日・2016年2月7日・2017年2月12日・2018年2月4日の計4回テレビ朝日系列で放送されている。	NO_PRONOUNCE	NO_LABEL
また、金曜深夜放送だった時代、テレビ朝日が月に一度のペースで製作している「朝まで生テレビ!」をネットしていたため、その週は休止していた。	NO_PRONOUNCE	NO_LABEL
そのため、約2ヶ月遅れて放送開始した「おにぎりあたためますか」よりも通算放送回数が少なくなっている。	NO_PRONOUNCE	NO_LABEL
前述の内容の変化により、以下に記載されている対決型企画は行われなくなった。	ぜんじゅつのないよーのへんかにより、いかにきさいされているたいけつがたきかくわおこなわれなくなった。	NO_LABEL
※7月19日、9月13日の放送はゴルフ中継のため休止	NO_PRONOUNCE	NO_LABEL
※6月13日、7月18日、8月1日の放送はゴルフ中継のため休止	NO_PRONOUNCE	NO_LABEL
※7月10日、7月17日の放送はゴルフ中継のため休止	NO_PRONOUNCE	NO_LABEL
※7月16日、30日の放送はゴルフ中継、8月6日の放送は水泳中継のため休止	NO_PRONOUNCE	NO_LABEL
※4月14日の放送は熊本地震特番のため、7月28日はゴルフ中継のため、12月29日は年末放送のため休止	NO_PRONOUNCE	NO_LABEL
※3月23日はサッカー中継、7月20日 - 8月17日はゴルフ中継・世界水泳・熱闘甲子園とDVD製作のため、12月14日は『アメトーークPresentsホリケンふれあい旅』と『夜の巷を徘徊する 大泉洋とマツコは親友!穴場の遊園地へ』放送のため、12月21日は『夜の巷を徘徊する マツコ大泉洋と遊園地で乾杯!食事会での秘話を語る…。	NO_PRONOUNCE	NO_LABEL
』放送のため、12月28日は年末特別番組で休止。	NO_PRONOUNCE	NO_LABEL
※2018年5月3日放送回から放送前日の10日木曜日0：50から再放送を実施している。	NO_PRONOUNCE	NO_LABEL
など	など	NO_LABEL
1代目	いちだいめ	NO_LABEL
2代目	にだいめ	NO_LABEL
3代目	さんだいめ	NO_LABEL
予約特典として「ポストカードセット」、封入特典として「ポスター、特製ステッカー」が付いてくる。	NO_PRONOUNCE	NO_LABEL
封入特典：番組プロデューサー撮り下ろし秘蔵スナップ集	NO_PRONOUNCE	NO_LABEL
封入特典：TEAM NACS 思い出アルバム、一回相伝！「アチョーの拳」伝承者シール	NO_PRONOUNCE	NO_LABEL
封入特典：チームナックス箱館ハイカラ写真	NO_PRONOUNCE	NO_LABEL
