大好きばんどう!市民会議は、2004年に茨城県坂東市に発足した団体。	だいすきばんどーしみんかいぎわ、にせんよねんにいばらきけんばんどーしにほっそくしただんたい。	NO_LABEL
年間活動として、坂東市民塾を定期的に開催。	ねんかんかつどーとして、ばんどーしみんじゅくをていきてきにかいさい。	NO_LABEL
また、毎冬『坂東祝い鍋まつり』に後援・協力している。	NO_PRONOUNCE	NO_LABEL
2004年5月11日、大好きいわい!市民会議として発足。	NO_PRONOUNCE	NO_LABEL
同年、『ねぎじゃどしたい?んじゃよかっぺ!祭』など西川のりおなどとイベントを開催した。	NO_PRONOUNCE	NO_LABEL
2005年3月に岩井市と猿島町が合併し、坂東市となったのを機に、現在の名称に変更した。	にせんごねんさんがつにいわいしとさしままちががっぺいし、ばんどーしとなったのをきに、げんざいのめいしょーにへんこーした。	NO_LABEL
