「マゾの快感」は1988年8月に発売された山川純一の単行本『ワクワクBOY』に収録されている一話完結の漫画である。	NO_PRONOUNCE	NO_LABEL
とある高校の昼下がり、教師である川崎は「マドンナ教師」と称される久野ゆかりと憩いのひと時をすごしていたが、学内で教師同士の交際を良しとしない高校3年生の青石翔に暴行を受ける。	NO_PRONOUNCE	NO_LABEL
助けを呼びに行こうとした久野を青石が引きとめ、川崎に蝋燭を垂らす等のSM行為をする。	たすけをよびにいこうとしたひさのをあおいしがひきとめ、かわさきにろーそくをたらすひとしのえすえむこーいをする。	NO_LABEL
久野は川崎に対し、学内で恋人のような振る舞いをし、生徒を動揺させてしまったことを謝罪し、逃げるようにその場を去った。	ひさのわかわさきにたいし、がくないでこいびとのよーなふるまいをし、せいとをどーよーさせてしまったことをしゃざいし、にげるよーにそのばをさった。	NO_LABEL
その後川崎は青石によって亀甲縛りにされ、鞭打ちされ、半ば強引にホモ・セックスをされる。	NO_PRONOUNCE	NO_LABEL
「今日のプレイはどうだった?」という青石の問いに対し、「今までで一番」と答える川崎。	NO_PRONOUNCE	NO_LABEL
一連の出来事は「美女撃退作戦」と呼ばれる、川崎に近づく女性を遠ざける作戦の一環だった。	NO_PRONOUNCE	NO_LABEL
ホモ・セックスを続けながら、「見られること」というマゾの快感について語る川崎と青石。	NO_PRONOUNCE	NO_LABEL
そこに慌しく響く声、逃げた久野が校長を連れ戻ってきた。	そこにあわただしくひびくこえ、にげたひさのがこーちょーをつれもどってきた。	NO_LABEL
うろたえる青石。	うろたえるあおいし。	NO_LABEL
しかしそんな中、川崎は見られてはいけない人物に見られてしまうことに新たな快感を見出す。	しかしそんななか、かわさきわみられてわいけないじんぶつにみられてしまうことにあらたなかいかんをみいだす。	NO_LABEL
