牧村 憲一は、日本の音楽プロデューサー。	まきむらけんいちわ、にっぽんのおんがくぷろでゅーさー。	NO_LABEL
昭和音楽大学講師。	しょーわおんがくだいがくこーし。	NO_LABEL
東京都渋谷区出身。	とーきょーとしぶやくしゅっしん。	NO_LABEL
早稲田大学法学部在学中の1968年、音楽サークル“グリー・クラブ”の先輩三浦光紀のキング・レコード就職に伴い、私設アシスタントとして音楽業界に身を投じる。	NO_PRONOUNCE	NO_LABEL
無給だったため、1970年頃、小室等の事務所に預けられ、六文銭のマネージメントを担当する。	むきゅーだったため、せんきゅうひゃくななじゅうねんごろ、こむろひとしのじむしょにあずけられ、ろくもんせんのまねーじめんとをたんとーする。	NO_LABEL
1970年、中津川フォーク・ジャンボリーの実行委員となり、東京のアーティストのブッキングを担当する。	NO_PRONOUNCE	NO_LABEL
1971年、早稲田同窓の後藤由多加に誘われ、ユイ音楽工房の設立に参加する。	せんきゅうひゃくななじゅういちねん、わせだどーそーのごとーゆたかにさそわれ、ゆいおんがくこーぼーのせつりつにさんかする。	NO_LABEL
同事務所では、かぐや姫を担当する。	どーじむしょでわ、かぐやひめをたんとーする。	NO_LABEL
『神田川』がディレクターとして最初に成功した楽曲となる。	NO_PRONOUNCE	NO_LABEL
しかし、日本のフォークが嫌になり、大森昭男のONアソシエイツに移籍する。	しかし、にっぽんのふぉーくがいやになり、おーもりあきおのおんあそしえいつにいせきする。	NO_LABEL
CM音楽制作にあたり、三浦から聴かされていた大滝詠一を大森に推薦する。	こんぴゅーたみゅーじっくまがじんおんがくせいさくにあたり、みうらからきかされていたおーたきえいーちをおーもりにすいせんする。	NO_LABEL
大滝がコーラスに連れてきたシュガー・ベイブに注目し、シュガー・ベイブとセンチメンタル・シティ・ロマンスのマネージメントとプロモーションをする会社“アワ・ハウス”を興す。	NO_PRONOUNCE	NO_LABEL
しかし、シュガー・ベイブが突然解散することになり、山下達郎・大貫妙子をソロ・デビューさせる。	NO_PRONOUNCE	NO_LABEL
山下『CIRCUS TOWN』、大貫『Grey Skies』、『SUNSHOWER』を制作するも、資金が底をつき“アワ・ハウス”は倒産する。	NO_PRONOUNCE	NO_LABEL
その後、新宿ロフトの“ロフト・レーベル”に協力しているときに知り合った川原伸司から、杉真理のバックコーラスをしていた竹内まりやを紹介される。	NO_PRONOUNCE	NO_LABEL
竹内まりやの『BEGINNING』、『UNIVERSITY STREET』、『LOVE SONGS』のプロデュースを担当する。	NO_PRONOUNCE	NO_LABEL
1980年代に入ると、細野晴臣が主宰するノン・スタンダード・レーベルでディレクターとして活動し、小西康陽率いるピチカート・ファイヴや鈴木惣一朗率いるワールドスタンダードらを輩出。	NO_PRONOUNCE	NO_LABEL
その後ポリスターレコードに移籍し、1990年代にはフリッパーズ・ギターやL⇔Rを世に送り出した。	そのごぽりすたーれこーどにいせきし、せんきゅうひゃくきゅうじゅうねんだいにわふりっぱーずぎたーやえるあーるをよにおくりだした。	NO_LABEL
現在はフリーとして活動。	げんざいわふりーとしてかつどー。	NO_LABEL
2007年から2013年まで昭和音楽大学非常勤講師を勤める。	にせんななねんからにせんじゅうさんねんまでしょーわおんがくだいがくひじょーきんこーしをつとめる。	NO_LABEL
2014年、音学校を開講。	にせんじゅうよねん、おとがっこーをかいこー。	NO_LABEL
