プレー王国とはタイ王国、プレー県に存在した王国である。	ぷれーおーこくとわたいおーこく、ぷれーけんにそんざいしたおーこくである。	NO_LABEL
プレーには『年代記』と呼ばれる史書がなく、碑文なども少ないことから、王国の全容について知るのは難しい。	NO_PRONOUNCE	NO_LABEL
12世紀頃にタイ族がこの地に都市国家を建設、ヨム川の上流にありスコータイ王朝の影響を免れなかった。	じゅうにせいきごろにたいぞくがこのちにとしこっかをけんせつ、よむがわのじょーりゅーにありすこーたいおうちょーのえいきょーをまぬかれなかった。	NO_LABEL
スコータイのラームカムヘーン王はこの地に進軍、また、リタイもプレーに進軍した。	すこーたいのらーむかむへーんおーわこのちにしんぐん、また、りたいもぷれーにしんぐんした。	NO_LABEL
プラタート・チョーヘーなどの仏教施設はこのころの建設ではないかとも言われている。	NO_PRONOUNCE	NO_LABEL
またラーンナー王朝の影響下にもあり、ラーンナー王朝のカムフーは1340年、プレーに侵攻している。	またらーんなーおーちょーのえいきょーかにもあり、らーんなーおーちょーのかむふーわせんさんびゃくよんじゅうねん、ぷれーにしんこーしている。	NO_LABEL
ただ、プレーはこの間にも領土拡大を目指しており、1397年から1398年にかけてプレーのテーラ王とオーンモーンがカーオ王国に侵入し占領している。	ただ、ぷれーわこのかんにもりょーどかくだいをめざしており、せんさんびゃくきゅうじゅうななねんからせんさんびゃくきゅうじゅうはちねんにかけてぷれーのてーらおーとおーんもーんがかーおおーこくにしんにゅーしせんりょーしている。	NO_LABEL
その後、1443年プレーの国王ターオ・メーンクンはラーンナーのティローカラート王の軍門に下り独立国家としてのプレーは終わりを告げた。	NO_PRONOUNCE	NO_LABEL
