『NUMBERS 天才数学者の事件ファイル』は、アメリカ合衆国で2005年から2010年にかけて放送されていたテレビドラマである。	NO_PRONOUNCE	NO_LABEL
FBI特別捜査官ドン・エプスと、彼に協力する弟の天才数学者チャールズ・エプスの活躍を描くドラマである。	NO_PRONOUNCE	NO_LABEL
番組の制作はニコラス・ファラッチとシェリル・ヒュートン、製作局はCBSパラマウント・ネットワーク・テレビジョン、アメリカではCBSネットワークで放送されていた。	NO_PRONOUNCE	NO_LABEL
日本ではサスペンスシアター FOXCRIMEで、2006年10月から第1シーズン、以後第2・第3シーズンまでが放送された。	NO_PRONOUNCE	NO_LABEL
FOXでは、遅れて2007年1月から第1シーズンの放送が開始。	NO_PRONOUNCE	NO_LABEL
以後FOXCRIMEから数ヶ月ずれて放送されていたが、2010年1月からは第4シーズンがFOXのみで放送中である。	NO_PRONOUNCE	NO_LABEL
なお、すべて字幕版のみの放送である。	なお、すべてじまくばんのみのほーそーである。	NO_LABEL
地上波では、2009年4月3日より、テレビ朝日にて第1シーズンの日本語吹き替え版を放送。	NO_PRONOUNCE	NO_LABEL
2011年1月7日からはテレビユー山形、同年3月2日からはテレビ金沢、7月6日からは仙台放送にて第1シーズンが放送された。	NO_PRONOUNCE	NO_LABEL
テレビ東京でも、2016年6月27日から『ランチチャンネル』で第1シーズン・第2シーズンが放送され、2017年3月24日より第3シーズンが、2017年8月14日より第4シーズンが放送された。	NO_PRONOUNCE	NO_LABEL
BSでは、Dlifeで2014年1月17日から第1シーズンの放送が開始され、2016年12月23日にはファイナル・シーズンの放送が開始される予定となっている。	NO_PRONOUNCE	NO_LABEL
DVDは、2009年5月22日以降、第1シーズンと第2シーズンのリリースが順次行われている。	NO_PRONOUNCE	NO_LABEL
番組では、兄ドンと弟チャールズ、そして父アランの関係と、兄弟で力を合わせて主にロサンゼルスでおこる犯罪と戦う姿について同程度に焦点を合わせて描かれる。	ばんぐみでわ、あにどんとおとーとちゃーるず、そしてちちあらんのかんけいと、きょーだいでちからをあわせておもにろさんぜるすでおこるはんざいとたたかうすがたについてどーていどにしょーてんをあわせてえがかれる。	NO_LABEL
典型的なエピソードとしては、犯罪が起こり、ドン率いるFBI捜査官チームによる捜査、チャールズによる数学的な解析から重要な捜査情報もしくはヒントが得られ、犯人特定とその検挙が描かれる。	てんけいてきなえぴそーどとしてわ、はんざいがおこり、どんひきいるえふびーあいそーさかんちーむによるそーさ、ちゃーるずによるすーがくてきなかいせきからじゅーよーなそーさじょーほーもしくわひんとがえられ、はんにんとくていとそのけんきょがえがかれる。	NO_LABEL
ラリー・フラインハートやアミタ・ラマヌジャンがチャールズによる解析の手助けをする場面も多い。	NO_PRONOUNCE	NO_LABEL
また番組中でのチャールズ・エプス教授の呼び方は、ほぼ愛称である"チャーリー"であり、彼自らチャーリー・エプスと名乗ることもある。	NO_PRONOUNCE	NO_LABEL
コンサルタントとして、複数の数学者が各エピソードで協力している。	こんさるたんととして、ふくすーのすーがくしゃがかくえぴそーどできょーりょくしている。	NO_LABEL
番組内で提示されている数学や黒板上の方程式は正確なものであり、各回の番組内の状況に実際に適用できる。	ばんぐみないでていじされているすーがくやこくばんじょーのほーていしきわせいかくなものであり、かくかいのばんぐみないのじょーきょーにじっさいにてきよーできる。	NO_LABEL
このことは、現役の数学者によっても認められている。	このことわ、げんえきのすーがくしゃによってもみとめられている。	NO_LABEL
しかし数学者コンサルタントの中には、数学の使い方や、各場面のコンサルタントのまとめ方の不足など、各話の制作について懸念を示している者もいる。	しかしすーがくしゃこんさるたんとのなかにわ、すーがくのつかいかたや、かくばめんのこんさるたんとのまとめかたのふそくなど、かくはなしのせいさくについてけねんをしめしているものもいる。	NO_LABEL
加えて、女性数学者の描写、そしてチャールズ・エプス教授と大学院生アミタ・ラマヌジャンとの関係の不適切な描写も挙げている。	NO_PRONOUNCE	NO_LABEL
FBIへの協力では、チャールズ・エプス教授は番組内で次の数学分野の理論を適用した。	NO_PRONOUNCE	NO_LABEL
暗号解読、確率論、ゲーム理論、偏微分方程式、決定理論、グラフ理論、データマイニング、そして天体物理学。	あんごーかいどく、かくりつろん、げーむりろん、へんびぶんほーていしき、けっていりろん、ぐらふりろん、でーたまいにんぐ、そしててんたいぶつりがく。	NO_LABEL
アメリカでは番組内のエピソードを教材として使用している教師もいる。	あめりかでわばんぐみないのえぴそーどをきょーざいとしてしよーしているきょーしもいる。	NO_LABEL
テキサス・インスツルメンツと数学教師評議会は "We All Use Math Every Day" 教育福祉計画を作成した。	NO_PRONOUNCE	NO_LABEL
そこでは、次回のエピソードで使用される内容の概念に基づいた教材を教師に提供している。	そこでわ、じかいのえぴそーどでしよーされるないよーのがいねんにもとずいたきょーざいをきょーしにていきょーしている。	NO_LABEL
第1シーズンでは、FBIロサンゼルス支局とチャールズ・エプス教授の協力関係の始まりを描く。	NO_PRONOUNCE	NO_LABEL
主なFBI捜査官は、チャールズの兄ドン・エプス、テリー・レイク、デイビッド・シンクレアである。	NO_PRONOUNCE	NO_LABEL
エプス兄弟の父アラン・エプスは兄弟を精神面で支援する。	NO_PRONOUNCE	NO_LABEL
ラリー・フラインハート教授と博士課程の学生アミタ・ラマヌジャンは、数学の支援と洞察でチャーリーに協力する。	NO_PRONOUNCE	NO_LABEL
第1シーズン前半の日本での放送順は、アメリカでの放送順と異なる。	NO_PRONOUNCE	NO_LABEL
邦題はEPGより。	ほーだいわいーぴーじーより。	NO_LABEL
第2シーズンでは、引き続きFBIとチャーリーの協力関係を描く。	NO_PRONOUNCE	NO_LABEL
テリー・レイクはワシントンDCに転任する。	NO_PRONOUNCE	NO_LABEL
代わりに、メーガン・リーブスが心理分析官としてチームに参加する。	NO_PRONOUNCE	NO_LABEL
さらに、コルビ・グレンジャーも加わる。	NO_PRONOUNCE	NO_LABEL
第3シーズンは、北米では2006年9月22日から始まった。	NO_PRONOUNCE	NO_LABEL
前シーズンからの大きな変化として、オープニングクレジットシーケンスの削除が挙げられる。	ぜんしーずんからのおーきなへんかとして、おーぷにんぐくれじっとしーけんすのさくじょがあげられる。	NO_LABEL
また、ピーター・マクニコルがシーズンの大半、さらにダイアン・ファールが数回、出演していない。	また、ぴーたーまくにこるがしーずんのたいはん、さらにだいあんふぁーるがすーかい、しゅつえんしていない。	NO_LABEL
ピーター・マクニコルは最初の11話分に登場した後、テレビドラマ『24』出演のため休みとなり、第3シーズン第21話で本作に復帰した。	NO_PRONOUNCE	NO_LABEL
ピーター演じるラリー・フラインハート博士不在の理由として「ペイロード・スペシャリストとして国際宇宙ステーションに行っていた」と説明された。	NO_PRONOUNCE	NO_LABEL
ダイアン・ファールは妊娠のため、第18話で産休に入った。	だいあんふぁーるわにんしんのため、だいじゅうはちわでさんきゅーにはいった。	NO_LABEL
ダイアン演じるメーガン・リーブス不在の理由として、「アメリカ合衆国司法省での特別任務に着いた」と説明された。	NO_PRONOUNCE	NO_LABEL
第4シーズンは、全米脚本家組合ストライキの影響で、12話分を放映した後2ヶ月半放送中断をし、再開後に6話分を放映した。	NO_PRONOUNCE	NO_LABEL
その影響でラリーが髭を剃り、アランが無精髭を生やすなど、再開後の13話から雰囲気が異なるキャラクターがいる。	そのえいきょーでらりーがひげをすり、あらんがぶしょーひげをはやすなど、さいかいごのじゅうさんわからふんいきがことなるきゃらくたーがいる。	NO_LABEL
第2、第3シーズンに比べ、全18話と少なめの話数になっている。	NO_PRONOUNCE	NO_LABEL
NUMBERSの第5シーズン	NO_PRONOUNCE	NO_LABEL
NUMBERSの第6シーズン	NO_PRONOUNCE	NO_LABEL
