ラジオエッセイは、日本の一部地方局で放送しているラジオ番組である。	らじおえっせいわ、にっぽんのいちぶちほーきょくでほーそーしているらじおばんぐみである。	NO_LABEL
制作会社は綜合放送。	せいさくがいしゃわそーごーほーそー。	NO_LABEL
様々な分野の人物が月変わりでトークをベースに展開していく5分番組。	さまざまなぶんやのじんぶつがつきがわりでとーくをべーすにてんかいしていくごふんばんぐみ。	NO_LABEL
