田子温泉は、青森県三戸郡田子町にある温泉。	たっこおんせんわ、あおもりけんみとぐんたっこまちにあるおんせん。	NO_LABEL
神経痛、リューマチ、糖尿病。	しんけいつー、りゅーまち、とーにょーびょー。	NO_LABEL
国道104号沿い、熊原川に沿った水田に温泉施設が1軒ある。	NO_PRONOUNCE	NO_LABEL
熊原川には古くから泉源があったが、1954年にボーリングによって源泉開発が実施された。	くまはらがわにわふるくからせんげんがあったが、せんきゅうひゃくごじゅうよねんにぼーりんぐによってげんせんかいはつがじっしされた。	NO_LABEL
