株式会社花畑牧場とは、1992年に設立され、北海道河西郡中札内村に本社を置く、牧場経営・食品の製造販売などをする企業である。	NO_PRONOUNCE	NO_LABEL
タレントの田中義剛が代表取締役社長を務め、生キャラメルの製造販売事業で成長を遂げた。	たれんとのたなかよしたけがだいひょーとりしまりやくしゃちょーをつとめ、なまきゃらめるのせいぞーはんばいじぎょーでせいちょーをとげた。	NO_LABEL
経営する牧場は本店所在地と同じ場所にあり、十勝地方の観光地の一つとなっている。	けいえいするぼくじょーわほんてんしょざいちとおなじばしょにあり、とかちちほーのかんこーちのひとつとなっている。	NO_LABEL
食品事業では、北海道内外で、花畑牧場ブランドの生キャラメルやアイスクリーム・チーズ・プリン・菓子パン等を販売するショップや、イートイン出来るカフェなどをオープンしている。	NO_PRONOUNCE	NO_LABEL
また、販売されている商品のすべてが花畑牧場内で生産されている訳ではなく、他の企業へ製造委託されているものもある。	また、はんばいされているしょーひんのすべてがはなばたけぼくじょーないでせいさんされているわけでわなく、たのきぎょーえせいぞーいたくされているものもある。	NO_LABEL
通信・ネット販売に力を入れており、通信販売専門チャンネルであるQVCでも田中本人が出演し、さまざまな「花畑牧場」ブランドの商品を不定期に紹介、販売している。	NO_PRONOUNCE	NO_LABEL
インターネットでの販売も積極的に行っており、楽天市場やYahoo!ショッピングにも出店している。	いんたーねっとでのはんばいもせっきょくてきにいっており、らくてんいちばややふーしょっぴんぐにもしゅってんしている。	NO_LABEL
取引銀行はりそな銀行とみずほ銀行である。	とりひきぎんこーわりそなぎんこーとみずほぎんこーである。	NO_LABEL
1992年の開業当初はジャージー牛が1頭いるだけだった。	NO_PRONOUNCE	NO_LABEL
このため税務署から「牧場をやっているのかペットを飼っているのかはっきりしてほしい」との指摘を受けたと、「チューボーですよ!」に出演した際に田中本人が語っている。	NO_PRONOUNCE	NO_LABEL
当時は空港などで販売されている北海道みやげとして「白い恋人」「マルセイバターサンド」「ロイズの生チョコ」などの菓子類が全体の9割以上を占めており、他の業者が入り込む余地は殆ど無い状態であった。	NO_PRONOUNCE	NO_LABEL
花畑牧場の製品も例に漏れず、営業活動は続けていたものの、なかなか販売スペースの確保に結びつかず苦しい経営が続いていた。	はなばたけぼくじょーのせいひんもれいにもれず、えいぎょーかつどーわつずけていたものの、なかなかはんばいすぺーすのかくほにむすびつかずくるしいけいえいがつずいていた。	NO_LABEL
2007年に石屋製菓の白い恋人賞味期限先延ばし問題が発覚。	にせんななねんにいしやせいかのしろいこいびとしょーみきげんさきのばしもんだいがはっかく。	NO_LABEL
当然、白い恋人は空港のみやげ売り場から撤去され、スペースが大幅に空いた。	とーぜん、しろいこいびとわくーこーのみやげうりばからてっきょされ、すぺーすがおーはばにあいた。	NO_LABEL
そこに販売開始して間もない花畑牧場の生キャラメルを置けることになった。	そこにはんばいかいししてまもないはなばたけぼくじょーのなまきゃらめるをおけることになった。	NO_LABEL
前年より新しいご当地みやげとして生キャラメルが注目され始めていたことに加え、田中の知名度と宣伝活動もあって各メディアで取り上げたことが追い風となり、大ヒットにつながった。	ぜんねんよりあたらしいごとーちみやげとしてなまきゃらめるがちゅーもくされはじめていたことにくわえ、たなかのちめいどとせんでんかつどーもあってかくめでぃあでとりあげたことがおいかぜとなり、だいひっとにつながった。	NO_LABEL
2009年2月、夕張市・石炭の歴史村内にある旧サイクリングターミナル「黄色いリボン」の競争入札に参加し、同施設を3400万円で落札した。	NO_PRONOUNCE	NO_LABEL
同施設では夕張メロンの果汁入り生キャラメルの生産をしており、地元の高齢者を中心に正社員50名、合計で約300名を雇用した。	NO_PRONOUNCE	NO_LABEL
同施設は4月20日オープンし、売店・レストランも併設された。	NO_PRONOUNCE	NO_LABEL
さらに、同月には 宮崎県知事東国原英夫からの誘致に応える形で宮崎県にも進出。	さらに、どーげつにわみやざきけんちじひがしこくばるひでおからのゆーちにこたえるかたちでみやざきけんにもしんしゅつ。	NO_LABEL
宮崎県では、宮崎マンゴーを主原料とした生キャラメル「生キャラメルマンゴー」を販売する。	NO_PRONOUNCE	NO_LABEL
なお「生キャラメルマンゴー」の生産は自社では行わず、同県の食品加工会社・米良食品に製造を委託する。	NO_PRONOUNCE	NO_LABEL
ソフトクリームなど一部商品については東京交通会館内の北海道どさんこプラザ有楽町店などで以前から販売を行っていたが、2009年2月に東京・青山に「ホエー豚亭」を出店し、正式に東京に進出した。	NO_PRONOUNCE	NO_LABEL
また同年4月には南青山に「花畑牧場カフェ 生キャラメル&アイスクリーム」をオープン。	NO_PRONOUNCE	NO_LABEL
ホットキャラメルを冷たいアイスクリームにかけた「ホットキャラメル・アイスクリーム」を看板商品として掲げ、以降、渋谷・銀座などにも都内8カ所で直営店をオープンさせた。	NO_PRONOUNCE	NO_LABEL
しかし、同年秋になって竹下通り店、渋谷店、青山店、銀座店の4店舗は他店との統廃合という形で閉店して合理化を図っている。	NO_PRONOUNCE	NO_LABEL
同年11月には六本木ヒルズ店をオープンしたものの一時期の生キャラメルブームが去ってからは手探りの経営が続いている。	どーねんじゅーいちがつにわろっぽんぎひるずてんをおーぷんしたもののいちじきのなまきゃらめるぶーむがさってからわてさぐりのけいえいがつずいている。	NO_LABEL
花畑牧場内生キャラメル製造工場など建物3棟で、建築基準法違反が見つかり、2009年6月3日付文書で北海道から是正指導を受け、2009年7月1日までに是正計画書を提出するよう求められた。	NO_PRONOUNCE	NO_LABEL
防火壁や非常用照明装置の未設置、排煙設備の不足、廊下幅や天井の高さの不足 など。	ぼーかかべやひじょーよーしょーめいそーちのみせっち、はいけむりせつびのふそく、ろーかはばやてんじょーのたかさのふそくなど。	NO_LABEL
生キャラメルを製造していた札幌工場が2009年8月31日での一時閉鎖。	なまきゃらめるをせいぞーしていたさっぽろこーじょーがにせんきゅうねんはちがつさんじゅういちにちでのいちじへいさ。	NO_LABEL
また従業員中、派遣社員300人については契約を更新しない旨が北海道新聞によって報じられた。	またじゅーぎょーいんちゅー、はけんしゃいんさんびゃくにんについてわけいやくをこーしんしないむねがほっかいどーしんぶんによってほーじられた。	NO_LABEL
2010年4月10日、経営戦略を見直し、商品の多様化を進めると発表。	にせんじゅうねんしがつとおか、けいえいせんりゃくをみなおし、しょーひんのたよーかをすすめるとはっぴょー。	NO_LABEL
第1弾商品として、ポテトチップスに生キャラメルを染みこませた「天使のポテト」を2010年4月21日から北海道限定で発売。	NO_PRONOUNCE	NO_LABEL
ポテトチップスは、ふらの農協の工場で湖池屋が製造した物を使用している。	ぽてとちっぷすわ、ふらののーきょーのこーじょーでこいけやがせいぞーしたものをしよーしている。	NO_LABEL
2010年8月6日、セブン-イレブン・ジャパンとホエー豚を使った商品「こだわりおむすび 花畑牧場ホエー豚の豚丼風」「花畑牧場ホエー豚の炭火焼 豚重」「花畑牧場ホエー豚 濃厚背脂入りカップそば」共同開発、北海道内のセブン-イレブンで順次発売。	NO_PRONOUNCE	NO_LABEL
2011年2月16日、大手宅配ピザチェーンのストロベリーコーンズと「ナポリの窯」とのコラボレーション企画で「カチョカヴァロ」チーズと生キャラメル使用したピザやデザートを発売開始した。	NO_PRONOUNCE	NO_LABEL
百貨店やスーパー等で開催される北海道物産フェア等でも「花畑牧場」ブランドの食品が販売されている。	NO_PRONOUNCE	NO_LABEL
中でも『生キャラメル』は花畑牧場を代表する商品となっている。	NO_PRONOUNCE	NO_LABEL
なお、社長の田中は2011年11月に「第8回ALL JAPANナチュラルチーズコンテスト」でチーズ「ラクレット」が農林水産大臣賞を受賞したことをうけ、2011年12月時点で「うちはスイーツとチーズと養豚の3本柱」と述べた。	NO_PRONOUNCE	NO_LABEL
ハロー!プロジェクトのカントリー娘。	はろーぷろじぇくとのかんとりーむすめ	NO_LABEL
が、1999年の結成から2003年のはじめまで、この牧場を拠点にして“半農半芸”生活を送った。	NO_PRONOUNCE	NO_LABEL
初期メンバーの柳原尋美は、レッスンのためこの牧場へ車で向かう途中、単独事故により死亡した。	しょきめんばーのやなぎはらひろみわ、れっすんのためこのぼくじょーえくるまでむかうとちゅー、たんどくじこによりしぼーした。	NO_LABEL
2期メンバーのあさみは、この牧場の職員からカントリー娘。	にきめんばーのあさみわ、このぼくじょーのしょくいんからかんとりーむすめ	NO_LABEL
に抜擢された。	にばってきされた。	NO_LABEL
牧場では、ハロー!プロジェクトの生写真やグッズを販売するオフィシャルショップが開設されていたが、現在は閉店している。	ぼくじょーでわ、はろーぷろじぇくとのなまじゃしんやぐっずをはんばいするおふぃしゃるしょっぷがかいせつされていたが、げんざいわへいてんしている。	NO_LABEL
尚、同社の商品「もちっぷす」には北海道出身であり、元モーニング娘。	NO_PRONOUNCE	NO_LABEL
のメンバーでもある藤本美貴が起用されている。	のめんばーでもあるふじもとみきがきよーされている。	NO_LABEL
