夏侯 恵は、中国三国時代の政治家。	なつほーめぐみわ、ちゅーごくさんごくじだいのせいじか。	NO_LABEL
魏に仕えた。	ぎにつかえた。	NO_LABEL
字は稚権。	じわいとけなけん。	NO_LABEL
父は夏侯淵。	ちちわかこうえん。	NO_LABEL
兄は夏侯衡・夏侯覇・夏侯称・夏侯威・夏侯栄。	NO_PRONOUNCE	NO_LABEL
弟は夏侯和。	おとーとわなつこーわ。	NO_LABEL
『三国志』魏志「諸夏侯曹伝」等に記述がある。	NO_PRONOUNCE	NO_LABEL
幼少のときから才能と学問に優れ、賞讃を受けていた。	よーしょーのときからさいのーとがくもんにすぐれ、しょーさんをうけていた。	NO_LABEL
また奏議に優れていたともいう。	またそーぎにすぐれていたともいう。	NO_LABEL
太和年間に、他の3人の兄弟達とともに関内侯を与えられた。	たいわねんかんに、たのさんにんのきょーだいたちとともにかんだいこーをあたえられた。	NO_LABEL
あるとき、広く才能のある人物を求める詔勅が下った。	あるとき、ひろくさいのーのあるじんぶつをもとめるしょーちょくがくだった。	NO_LABEL
夏侯恵は劉劭の人物をかねてから評価していたこともあり、美辞麗句を用いた推薦文を書き、これを上奏した。	かこうけいわりゅーしょーのじんぶつをかねてからひょーかしていたこともあり、びじれいくをもちいたすいせんぶんをかき、これをじょーそーした。	NO_LABEL
後に散騎侍郎・黄門侍郎となった。	NO_PRONOUNCE	NO_LABEL
よく鍾毓と議論を交わすことがあり、夏侯恵の意見が採用されることが多かったという。	NO_PRONOUNCE	NO_LABEL
燕国の相に転出し、楽安太守にまでなった。	えんこくのそーにてんしゅつし、らくあんたいしゅにまでなった。	NO_LABEL
没年は不明だが、37歳で死去した。	ぼつねんわふめいだが、さんじゅうななさいでしきょした。	NO_LABEL
その文章や賦は三国志の編纂当時において、蘇林・韋誕・孫該・杜摯らの作品と共に、多くが伝わっていたという。	NO_PRONOUNCE	NO_LABEL
小説『三国志演義』では字を雅権とされている。	NO_PRONOUNCE	NO_LABEL
兄の夏侯覇・夏侯威、弟の夏侯和とともに司馬懿配下の武将として活躍し、蜀の諸葛亮の北伐を防ぐ任務を果たしている。	NO_PRONOUNCE	NO_LABEL
