スールー諸島とはフィリピン領の諸島。	すーるーしょとーとわふぃりぴんりょーのしょとー。	NO_LABEL
15世紀から19世紀にかけてムスリムの国・スールー王国が存在した。	NO_PRONOUNCE	NO_LABEL
1945年、スールー諸島の戦い。	せんきゅうひゃくよんじゅうごねん、すーるーしょとーのたたかい。	NO_LABEL
フィリピン諸島南西部に位置し、ミンダナオ島とカリマンタン島との間に位置する。	ふぃりぴんしょとーなんせいぶにいちし、みんだなおとーとかりまんたんとーとのまにいちする。	NO_LABEL
東北東から南南西に伸び、長さ約300km。	とーほくとーからなんなんせいにのび、ながさやくさんびゃくきろめーとる。	NO_LABEL
北はスールー海、南はセレベス海となる。	きたわすーるーかい、みなみわせれべすかいとなる。	NO_LABEL
主な島はバシラン島、ホロ島、パングラタン島、ルークズ島、タウィタウィ島、シムヌル島。	おもなしまわばしらんとー、ほろとー、ぱんぐらたんとー、るーくずとー、たうぃたうぃとー、しむぬるとー。	NO_LABEL
フィリピンのイスラム教徒ミンダナオ自治地域に、タウィタウィ州、スールー州、バシラン州の3州が属する。	NO_PRONOUNCE	NO_LABEL
