リサ・ジェラルドは、オーストラリア出身の作曲家・歌手。	NO_PRONOUNCE	NO_LABEL
声の範囲はコントラルト。	こえのはんいわこんとらると。	NO_LABEL
メルボルンにて、アイルランド移民の子として生まれる。	めるぼるんにて、あいるらんどいみんのことしてうまれる	NO_LABEL
移民の家族であったことから世界の様々な音楽に親しみ、後の音楽性につながった。	いみんのかぞくであったことからせかいのさまざまなおんがくにしたしみ、ごのおんがくせいにつながった。	NO_LABEL
1981年にブレンダン・ペリーとともにデッド・カン・ダンスを結成し公的な音楽活動を始めた。	NO_PRONOUNCE	NO_LABEL
翌年、音楽活動を成功させるためペリーと共にオーストラリアからイギリスに移住。	よくねん、おんがくかつどーをせいこーさせるためぺりーとともにおーすとらりあからいぎりすにいじゅー。	NO_LABEL
その活動の傍らで制作されたソロアルバム『The Mirror Pool』は故郷オーストラリアで録音され、そのアルバムにはアメリカ映画『ヒート』に提供した2曲も収録された。	NO_PRONOUNCE	NO_LABEL
1996年にデッド・カン・ダンスが解散した後は現在までソロ活動や他ミュージシャンとのコラボレーションを行う。	せんきゅうひゃくきゅうじゅうろくねんにでっどかんだんすがかいさんしたのちわげんざいまでそろかつどーやたみゅーじしゃんとのこらぼれーしょんをおこなう。	NO_LABEL
2000年、映画『グラディエーター』に楽曲を提供、同作品の主題歌「ついに自由に」を歌い、ハンス・ジマーと共にゴールデングローブ賞の音楽賞を受賞、これにより、それまで一部の音楽マニアにしか知られていなかった彼女の名が世界に広く知られるようになった。	NO_PRONOUNCE	NO_LABEL
また、2006年に長年にわたって作品を提供してきた4ADレーベルを離脱し心機一転させ、ソロアルバム『The Silver Tree』をリリースした。	NO_PRONOUNCE	NO_LABEL
2008年に日本映画『ICHI』のサントラを担当。	NO_PRONOUNCE	NO_LABEL
2010年には大河ドラマ『龍馬伝』のメイン・テーマ曲を歌唱している。	NO_PRONOUNCE	NO_LABEL
現在はオーストラリアに在住。	げんざいわおーすとらりあにざいじゅー。	NO_LABEL
