ニセイロガワリはイグチ目イグチ科イグチ属の菌類。	にせいろがわりわいぐちめいぐちかいぐちぞくのきんるい。	NO_LABEL
英語圏では一般にはBay Boleteとしても知られる。	NO_PRONOUNCE	NO_LABEL
可食種であり、傘の裏側はイグチ類に一般的なスポンジ状。	かしょくしゅであり、かさのうらがわわいぐちるいにいっぱんてきなすぽんじじょー。	NO_LABEL
ヨーロッパ、北アメリカで見られる。	よーろっぱ、きたあめりかでみられる。	NO_LABEL
しばしば、ヤマドリタケとの関係が乏しいと考えられる。	しばしば、やまどりたけとのかんけいがとぼしいとかんがえられる。	NO_LABEL
にもかかわらず、アントニオ・カルッチョのような専門家に高い関心をもたれている。	NO_PRONOUNCE	NO_LABEL
ニセイロガワリの英語名であるBay Boletusはbay colorや栗色の傘から来ていると考えられる。	NO_PRONOUNCE	NO_LABEL
傘は球形の新しい標本は、その後広がり、開いていき、18cm程度に達する。	かさわきゅーけいのあたらしいひょーほんわ、そのごひろがり、ひらいていき、じゅうはちせんちめーとるていどにたっする。	NO_LABEL
傘の裏のスポンジ状の部分は肌色から白っぽい黄色であり、傷つけられたり、切られるとそこから蒼くなっていく。	かさのうらのすぽんじじょーのぶぶんわはだいろからしろっぽいきいろであり、きずつけられたり、きられるとそこからあおくなっていく。	NO_LABEL
肉の部分は白く、やはり傷つけられると青くなる。	にくのぶぶんわしろく、やはりきずつけられるとあおくなる。	NO_LABEL
柄は最大12.5cm程度に育つ。	えわさいだいじゅうにてんごせんちめーとるていどにそだつ。	NO_LABEL
色は傘の色よりも浅い色合いになる。	いろわかさのいろよりもあさいいろあいになる。	NO_LABEL
この種は他のイグチ属の種に比べ虫が湧き難いとされている。	このたねわたのいぐちぞくのたねにくらべちゅーがわきがたいとされている。	NO_LABEL
ニセイロガワリは一般的にヨーロッパや北アメリカ、東カナダのミネソタ州からノースカロライナ州の森に生える。	にせいろがわりわいっぱんてきによーろっぱやきたあめりか、ひがしかなだのみねそたしゅーからのーすかろらいなしゅーのもりにはえる。	NO_LABEL
生える時期は秋方。	はえるじきわあきかた。	NO_LABEL
この種は食べることができる。	このたねわたべることができる。	NO_LABEL
