『希望訪問』は、1957年4月16日から1959年3月31日までNHKテレビ → NHK総合テレビで放送された教養番組である。	NO_PRONOUNCE	NO_LABEL
NHK東京・NHK大阪放送局・NHK名古屋放送局の共同制作。	NO_PRONOUNCE	NO_LABEL
放送時間は毎週火曜 18:10 - 18:40であった。	NO_PRONOUNCE	NO_LABEL
それまで土曜18:10枠で不定期放送されていた『私たちのテレビ訪問』を発展させた番組で、屋内プールや相撲学校といった子供が興味を示しそうな施設を毎回訪問・中継した。	NO_PRONOUNCE	NO_LABEL
