やげん堀 七味唐辛子本舗は、東京・浅草寺の門前で七味唐辛子を製造販売する商店。	NO_PRONOUNCE	NO_LABEL
法人名は合資会社中島商店。	ほーじんめいわごーしがいしゃなかじましょーてん。	NO_LABEL
江戸時代初期より中島家が10代に亘って営んでいる。	えどじだいしょきよりなかじまかがじゅうだいにわたっていとなんでいる。	NO_LABEL
七味唐辛子の元祖で、「やげん堀」は七味唐辛子の別称としても通っている。	NO_PRONOUNCE	NO_LABEL
長野・善光寺の門前の八幡屋礒五郎、京都・清水寺の門前の七味家と共に、日本三大七味唐辛子に数えられる。	NO_PRONOUNCE	NO_LABEL
寛永2年江戸薬研堀端において中島徳右衛門が薬種商を開業したことに始まる。	かんえいにねんえどやげんぼりたんにおいてなかじまとくうえもんがやくしゅしょーをかいぎょーしたことにはじまる。	NO_LABEL
翌年には漢方の知識を用いて「七色唐辛子」を考案し、城内の菊の宴に際し時の将軍徳川家光に七味唐辛子を献上して気に入られ、「德」の字を賜り「山德」の紋を掲げた。	NO_PRONOUNCE	NO_LABEL
昭和18年現在地の浅草新仲見世に移転した後も、やげん堀の商号を保った。	しょーわじゅうはちねんげんざいちのあさくさしんなかみせにいてんしたのちも、やげんほりのしょーごーをたもった。	NO_LABEL
平成4年東駒形にやげん堀中島ビルが完成し、事務所機能を移転した。	へいせいよんねんひがしこまがたにやげんほりなかじまびるがかんせいし、じむしょきのーをいてんした。	NO_LABEL
平成20年メトロ通りに支店を出した。	へいせいにじゅうねんめとろどーりにしてんをだした。	NO_LABEL
