ひらやま れいこ?月?日 - ）は、日本のエッセイスト、放送作家。	NO_PRONOUNCE	NO_LABEL
まおライフデザイン研究所 主宰、有限会社MAO代表取締役、一般社団法人日本ホリスティックライフ協会　代表理事東海ホリスティック医学振興会理事。	まおらいふでざいんけんきゅーじょしゅさい、ゆーげんがいしゃまおだいひょーとりしまりやく、いっぱんしゃだんほーじんにっぽんほりすてぃっくらいふきょーかいだいひょーりじとーかいほりすてぃっくいがくしんこーかいりじ。	NO_LABEL
愛知県名古屋市出身。	あいちけんなごやししゅっしん。	NO_LABEL
1984年に南山大学文学部人類学科卒業後、1985年、名古屋大学文学部インド哲学講座を聴講。	せんきゅうひゃくはちじゅうよねんになんざんだいがくぶんがくぶじんるいがっかそつぎょーご、せんきゅうひゃくはちじゅうごねん、なごやだいがくぶんがくぶいんどてつがくこーざをちょーこー。	NO_LABEL
在学中より、放送作家・コピーライター・CMプランナー・劇作家として活動を開始する。	NO_PRONOUNCE	NO_LABEL
近年では、夫の平山聡との共同制作により、多数の映像制作を行い、各種の国際映画祭にていくつかの作品がノミネート及び受賞している。	きんねんでわ、おっとのひらやまさとしとのきょーどーせいさくにより、たすーのえいぞーせいさくをおこない、かくしゅのこくさいえいがさいにていくつかのさくひんがのみねーとおよびじゅしょーしている。	NO_LABEL
