横河パイオニックス株式会社（）は、東京都武蔵野市に本社を置く、不動産事業やサッカースクールの運営事業などを行う企業である。	よこがわぱいおにっくすかぶしきがいしゃかっこわ、とーきょーとむさしのしにほんしゃをおく、ふどーさんじぎょーやさっかーすくーるのうんえいじぎょーなどをおこなうきぎょーである。	NO_LABEL
1973年に横河電機の100%出資子会社として設立。	せんきゅうひゃくななじゅうさんねんによこかわでんきのひゃくぱーせんとしゅっしこがいしゃとしてせつりつ。	NO_LABEL
横河電機グループの福利厚生を手掛けていたが、1989年にスポーツクラブ横河ワールドプラザ株式会社と合併してスポーツクラブ事業を、1997年に株式会社ツーリストプラザ・ヨコガワと合併して旅行業が事業に加わった。	NO_PRONOUNCE	NO_LABEL
その後、2001年までに横河電機グループ向けの不動産業およびサッカースクール等に事業を集中している。	そのご、にせんいちねんまでによこがわでんきぐるーぷむけのふどーさんぎょーおよびさっかーすくーるとーにじぎょーをしゅーちゅーしている。	NO_LABEL
横河電機サッカー部のサッカースクール事業として1985年にスタートし、1986年にジュニア、1991年にジュニアユースおよびユースの各連盟に加盟し、2003年に「横河武蔵野FC」となった後も同クラブの普及・育成を手掛けていた。	NO_PRONOUNCE	NO_LABEL
ユースはJリーグユース選手権大会へ度々出場しているほか、2012年には日本クラブユースサッカー選手権大会でベスト16の成績を残した。	ゆーすわじぇいりーぐゆーすせんしゅけんたいかいえたびたびしゅつじょーしているほか、にせんじゅうにねんにわにほんくらぶゆーすさっかーせんしゅけんでべすとじゅうろくのせいせきをのこした。	NO_LABEL
ジュニアユースは2011年に全国大会に出場した。	じゅにあゆーすわにせんじゅういちねんにぜんこくたいかいにしゅつじょーした。	NO_LABEL
ジュニアは2011年に全日本少年サッカー大会で3位に入賞、2013年にはダノンネーションズカップ in JAPANで優勝して、2014年にダノンネーションズカップで優勝した。	じゅにあわにせんじゅういちねんにぜんにほんしょーねんさっかーたいでさんいににゅーしょー、にせんじゅうさんねんにわだのんねーしょんずかっぷいんじゃぱんでゆーしょーして、にせんじゅうよねんにだのんねーしょんずかっぷでゆーしょーした。	NO_LABEL
2016年2月1日から普及育成部門の内のユースおよびジュニアユースを特定非営利活動法人武蔵野スポーツクラブへ統合した。	にせんじゅうろくねんにがつついたちからふきゅーいくせいぶもんのうちのゆーすおよびじゅにあゆーすをとくていひえいりかつどーほーじんむさしのすぽーつくらぶえとーごーした。	NO_LABEL
なお、出身者は東京武蔵野シティFCの選手一覧#下部組織出身者を参照。	NO_PRONOUNCE	NO_LABEL
