早稲田速記医療福祉専門学校は、東京都豊島区高田にある専修学校。	わせだそっきいりょーふくしせんもんがっこーわ、とーきょーととしまくたかだにあるせんしゅーがっこー。	NO_LABEL
学校法人川口学園が運営。	がっこーほーじんかわぐちがくえんがうんえい。	NO_LABEL
戦前から速記の専門校として知られ、2015年に創立80周年を迎えた。	せんぜんからそっきのせんもんこーとしてしられ、にせんじゅうごねんにそーりつはちじゅうしゅーねんをむかえた。	NO_LABEL
1930年、川口渉が速記の「早稲田式速記法」を発表、1935年、早稲田大学西門前に「早稲田式速記普及会」を設立し、同地の教室および通信教育で速記を教えた。	NO_PRONOUNCE	NO_LABEL
戦後、1950年に早稲田速記学校となり、1997年より現校名に変更。	せんご、せんきゅうひゃくごじゅうねんにわせだそっきがっこーとなり、せんきゅうひゃくきゅうじゅうななよりげんこーめいにへんこー。	NO_LABEL
古くから速記の専門校として知られるが、近年は医療を中心とした医療系専修学校に様変わりしている。	ふるくからそっきのせんもんこーとしてしられるが、きんねんわいりょーをちゅーしんとしたいりょーけいせんしゅーがっこーにさまがわりしている。	NO_LABEL
