ウィリアム·カレン·ブライアントは、アメリカのロマン派詩人、ジャーナリスト。	NO_PRONOUNCE	NO_LABEL
長年ニューヨーク·イブニング·ポストに勤めた。	NO_PRONOUNCE	NO_LABEL
ブライアントは1794年11月3日に、カミントン付近の丸太小屋で生まれた。	ぶらいあんとわせんななひゃくきゅうじゅうよんねんじゅーいちがつみっかに、かみんとんふきんのまるたこやでうまれた。	NO_LABEL
父はピーター·ブライアントという医師で州議会議員。	NO_PRONOUNCE	NO_LABEL
母はサラ・スネル。	NO_PRONOUNCE	NO_LABEL
次男だった。	じなんだった。	NO_LABEL
母の祖先はヘジョン・オールデン、父の祖先はフランシス·クックで、両方メイフラワー号の乗客だった。	NO_PRONOUNCE	NO_LABEL
2歳のとき家族で新しい家に引っ越した。	にさいのときかぞくであたらしいいえにひっこした。	NO_LABEL
彼の少年時代の家は、現在は博物館「ウィリアム・カレン・ブライアント・ホームステッド」となっている。	NO_PRONOUNCE	NO_LABEL
ウィリアムズ大学を二年で卒業し、ワージントンとブリッジウォーターで法律を学んだ。	うぃりあむずだいがくをにねんでそつぎょーし、わーじんとんとぶりっじうぉーたーでほーりつをまなんだ。	NO_LABEL
1815年に法曹界入り。	せんはっぴゃくじゅうごねんにほーそーかいいり。	NO_LABEL
プレーンフィールドで見習いを始めた。	ぷれーんふぃーるどでみならいをはじめた。	NO_LABEL
毎日カミントンから7マイル歩いて。	NO_PRONOUNCE	NO_LABEL
1815年12月に、いつも通り歩いていたら、地平線あたりを一羽の鳥が飛んでいるのが見えた。	せんはっぴゃくじゅうごねんじゅーにがつに、いつもとーりあるいていたら、ちへいせんあたりをいちわのとりがとんでいるのがみえた。	NO_LABEL
この光景に感動した彼は詩作品『To a Waterfowl』を書いた。	NO_PRONOUNCE	NO_LABEL
ブライアントは人生の早い段階で、詩に興味を開発しました。	ぶらいあんとわじんせいのはやいだんかいで、しにきょーみをかいはつしました。	NO_LABEL
彼の父の指導の下で、アレクサンダー・ポープなどの新古典派英国詩人を模倣した。	NO_PRONOUNCE	NO_LABEL
父親の連邦主義を反映し、トーマス・ジェファーソン大統領をガッツリ批判する『The Embargo』は1808年に出版された。	NO_PRONOUNCE	NO_LABEL
詩人の年齢が低かったため注目を浴び、初版はすぐに売り切れた。	しじんのねんれいがひくかったためちゅーもくをあび、しょはんわすぐにうりきれた。	NO_LABEL
第2版の拡張版は古典詩の翻訳をふくんでいた。	NO_PRONOUNCE	NO_LABEL
その後、ロマン派以前の英国詩、とくにウィリアム・ワーズワースと出会い、詩に魅了された。	そのご、ろまんはいぜんのえいこくし、とくにうぃりあむわーずわーすとであい、しにみりょーされた。	NO_LABEL
代表作『タナトプシス～Thanatopsis』は1811年に作った。	NO_PRONOUNCE	NO_LABEL
死のみじめさをさんざん説明したのちに「余裕で迎えられるように悔いのない日々を送ろう」と締める作品で、一般に受けた。	NO_PRONOUNCE	NO_LABEL
作品	さくひん	NO_LABEL
その他	そのた	NO_LABEL
