続善隣国宝記は、江戸時代に編纂された外交文書集。	ぞくぜんりんこくほーきわ、えどじだいにへんさんされたがいこーぶんしょしゅー。	NO_LABEL
室町時代に編纂された『善隣国宝記』の継承する意味を有した書名と考えられている。	NO_PRONOUNCE	NO_LABEL
ただし、内容の異なる3系統の同名書が存在する上、その派生とも言われている続善隣国宝外記・善隣国宝別記の2種類の外交文書集も存在している。	NO_PRONOUNCE	NO_LABEL
まず、『続群書類従』に収められている2種の続善隣国宝記がある。	NO_PRONOUNCE	NO_LABEL
ともに本来は同一題名であるが、雑部所収のものには「続善隣国宝記」、拾遺部所収のものには改めて「善隣国宝後記」と命名された。	NO_PRONOUNCE	NO_LABEL
前者は『史籍集覧』にも所収されたもっとも一般的なもので、天明4年の久保泰亨による識語が記されている。	NO_PRONOUNCE	NO_LABEL
久保は京都の村井敬義が所持していた2冊本から隣交と関係が薄いと思われる文書を削除して編纂したもので、元の原本は対馬の以酊庵関係者の手によるものではないかと推測している。	NO_PRONOUNCE	NO_LABEL
文明5年から寛文12年までに出された往復文書69通を所収し、対象国も明や朝鮮、琉球のみならずノビスパンや澳門などのヨーロッパとの外交文書も含まれている。	NO_PRONOUNCE	NO_LABEL
後者は宝永辛卯孟陬・松隠玄棟編集と記されている。	NO_PRONOUNCE	NO_LABEL
天正18年から天和2年までの12回にわたって日本と朝鮮で交された往復文書が収められている。	てんしょーじゅうはちねんからてんわにねんまでのじゅうにかいにわたってにっぽんとちょーせんでかわされたおーふくぶんしょがおさめられている。	NO_LABEL
日朝関係の外交文書に限定されており、他の諸本とは全く別の系統に属している。	ひあさかんけいのがいこーぶんしょにげんていされており、たのもろもととわぜんくべつのけいとーにぞくしている。	NO_LABEL
もう1つは神宮文庫に写本が所蔵されていた著者不明の本で年代も下限の文書が収められた享保4年以後としか判明していない。	もーひとつわじんぐーぶんこにしゃほんがしょぞーされていたちょしゃふめいのほんでねんだいもかげんのぶんしょがおさめられたきょうほよんねんいごとしかはんめいしていない。	NO_LABEL
永享4年から享保4年までの外交文書を所収しているが、前述の2種と共通する文書が多い。	えいきょーよんねんからきょうほよんねんまでのがいこーぶんしょをしょしゅーしているが、ぜんじゅつのにしゅときょーつーするぶんしょがおーい。	NO_LABEL
特に前者とは重複文書や体裁が類似しており、元は同一系統であった可能性があるとされる。	とくにぜんしゃとわじゅーふくぶんしょやていさいがるいじしており、もとわどーいちけいとーであったかのーせいがあるとされる。	NO_LABEL
また、これらの派生と考えられる本として続善隣国宝外記・善隣国宝別記が存在する。	NO_PRONOUNCE	NO_LABEL
前者は『続群書類従』雑部・『史籍集覧』に所収されており、文明5年から延宝3年までに出された往復文書26通を所収している。	NO_PRONOUNCE	NO_LABEL
このうち18通が久保泰亨編纂の「続善隣国宝記」と文章が重複し、なおかつ同識語で久保が削除したことを明らかにした文書の題名と同一の文書が所収されている例もある。	NO_PRONOUNCE	NO_LABEL
このため、久保泰亨が編纂の元にした同じ原本あるいはその祖本から別の人物が編纂したものとも考えられている。	このため、くぼやすしとーるがへんさんのもとにしたおなじげんぽんあるいわそのそほんからべつのじんぶつがへんさんしたものともかんがえられている。	NO_LABEL
後者が『群書類従』雑部補遺に所収されているもので、久保泰亨が用いた原本の元の所有者であった村井敬義が天明4年に神宮林崎文庫へ奉納したもので、注記も久保編纂のものと共通する部分が多いことから同一原本から編纂したと考えられている。	NO_PRONOUNCE	NO_LABEL
文明4年から明暦元年までの外交文書が所収されているが、外交文書自体よりも交渉の際に贈答された詩文などを重点的に採録しているのが特徴である。	ぶんめいよんねんからめいれきがんねんまでのがいこーぶんしょがしょしゅーされているが、がいこーぶんしょじたいよりもこーしょーのさいにぞーとーされたしぶんなどをじゅーてんてきにさいろくしているのがとくちょーである。	NO_LABEL
