フラワーヒルミュージアムは、和歌山県紀の川市にある華岡青洲をテーマとする博物館。	ふらわーひるみゅーじあむわ、わかやまけんきのかわしにあるはなおかせいしゅーをてーまとするはくぶつかん。	NO_LABEL
青洲の里を構成する施設の1つ。	せいしゅーのさとをこーせいするしせつのひとつ。	NO_LABEL
展示室は、華岡青洲と春林軒に関する資料が展示されており、建物と映像で華岡青洲をテーマに展示する春林軒とは展示内容を補完しあう関係にある。	てんじしつわ、はなおかせいしゅーとしゅんりんけんにかんするしりょーがてんじされており、たてものとえいぞーではなおかせいしゅーをてーまにてんじするしゅんりんけんとわてんじないよーをほかんしあうかんけいにある。	NO_LABEL
施設は建築家黒川紀章による設計で、華岡青洲ゆかりのマンダラゲの花をモチーフにしたとされる。	しせつわけんちくかくろかわきしょーによるせっけいで、はなおかせいしゅーゆかりのまんだらげのはなをもちーふにしたとされる。	NO_LABEL
