紀宝町町民バスは、三重県南牟婁郡紀宝町のコミュニティバスである。	きほーちょうちょーみんばすわ、みえけんみなみむろぐんきほーちょーのこみゅにてぃばすである。	NO_LABEL
運行は三重交通南紀営業所に委託している。	うんこーわみえこーつーなんきえいぎょーしょにいたくしている。	NO_LABEL
運賃は100円均一。	うんちんわひゃくえんきんいつ。	NO_LABEL
毎日運行。	まいにちうんこー。	NO_LABEL
2010年6月現在	にせんじゅうねんろくがつげんざい	NO_LABEL
