相生垣 瓜人8月14日- 1985年2月7日）は俳人。	NO_PRONOUNCE	NO_LABEL
本名・貫二。	NO_PRONOUNCE	NO_LABEL
兵庫県加古郡高砂町に生まれる。	ひょーごけんかこぐんたかさごちょーにうまれる。	NO_LABEL
1920年、東京美術学校製版科を卒業。	せんきゅうひゃくにじゅうねん、とーきょーびじゅつがっこーせいはんかをそつぎょー。	NO_LABEL
同年に浜松工業学校に図案科教員として赴任。	どーねんにはままつこーぎょーがっこーにずあんかきょーいんとしてふにん。	NO_LABEL
1928年より「ホトトギス」に、1930年より水原秋桜子の「馬酔木」、阿波野青畝の「かつらぎ」に投句。	NO_PRONOUNCE	NO_LABEL
1933年、秋桜子の「ホトトギス」離反に従い「馬酔木」に所属、同年「馬酔木」同人。	NO_PRONOUNCE	NO_LABEL
1937年「馬酔木」の「新葉抄」選者を任される。	NO_PRONOUNCE	NO_LABEL
戦中、6年ほど句作を中断したのち、1947年「あやめ」参加。	NO_PRONOUNCE	NO_LABEL
1948年復刊した「馬酔木」への投句を再開。	NO_PRONOUNCE	NO_LABEL
1949年、浜松放送局聴取者文芸俳句選者。	せんきゅうひゃくよんじゅうきゅうねん、はままつほーそーきょくちょーしゅしゃぶんげいはいくせんじゃ。	NO_LABEL
1950年「あやめ」が「海坂」に改題、同誌で百合山羽公と共選。	NO_PRONOUNCE	NO_LABEL
1976年、句集『明治草』他で第10回蛇笏賞を受賞。	NO_PRONOUNCE	NO_LABEL
句集には他に『微茫集』がある。	NO_PRONOUNCE	NO_LABEL
代表句に「家に居ても見ゆる冬田を見に出づる」「クリスマス佛は薄目し給へり」など。	NO_PRONOUNCE	NO_LABEL
戦後から飄逸味のある独特の句風を発展させ、その句境は「瓜人仙境」と呼ばれた。	NO_PRONOUNCE	NO_LABEL
1985年、風邪から心筋梗塞を併発し、意識を失ったまま永眠。	せんきゅうひゃくはちじゅうごねん、かぜからしんきんこーそくをへいはつし、いしきをうしなったままえいみん。	NO_LABEL
享年86。	NO_PRONOUNCE	NO_LABEL
