「with you」は、ゆずの楽曲で、通算35枚目のシングル。	NO_PRONOUNCE	NO_LABEL
2012年5月23日に発売。	にせんじゅうにねんごがつにじゅうさんにちにはつばい。	NO_LABEL
発売元はセーニャ・アンド・カンパニー。	はつばいもとわせーにゃあんどかんぱにー。	NO_LABEL
前作の「翔」から約6ヶ月ぶりにリリースした2012年1枚目のシングル。	NO_PRONOUNCE	NO_LABEL
当初4月25日のベストアルバム『YUZU YOU』と同時発売の予定だったが、ベストアルバムを聴きこんでから聴いてほしいということで発売日を延期した。	NO_PRONOUNCE	NO_LABEL
配信のランキングでは発売から約2 - 3ヶ月後のロンドンオリンピック開催期間中に今作がCMソングである日本生命のオリンピックを題材にしたCMが頻繁にオンエアされたため、10位以内に再浮上した。	NO_PRONOUNCE	NO_LABEL
