金山 明彦は、ばんえい競馬の調教師である。	かなやまあきひこわ、ばんえいけいばのちょーきょーしである。	NO_LABEL
北海道旭川市生まれ。	ほっかいどーあさひかわしうまれ。	NO_LABEL
かつては、ばんえい競馬の騎手でもあり、「ミスターばんえい」と称される。	NO_PRONOUNCE	NO_LABEL
金山の養父は、ばんえい競馬の競走馬を売買していた。	かなやまのよーふわ、ばんえいけいばのきょーそーばをばいばいしていた。	NO_LABEL
あるとき金山は養父にばん馬見物へ連れられてゆく。	あるときかなやまわよーふにばんばけんぶつえつれられてゆく。	NO_LABEL
その時に金山が目にしたものは中西関松が活躍する姿であった。	そのときにかなやまがめにしたものわなかにしせきまつがかつやくするすがたであった。	NO_LABEL
その姿に憧れを抱き、金山は小学校6年生の時に草ばん馬で騎乗するようになる。	そのすがたにあこがれをいだき、かなやまわしょーがっこーろくねんせいのときにくさばんばできじょーするよーになる。	NO_LABEL
父と中西の間に親交があったこともあり、滝川市立開西中学校を卒業後、金山は中西関松厩舎で厩務員になることができた。	ちちとなかにしのまにしんこーがあったこともあり、たきかわしりゅーがいにしちゅうがっこーをそつぎょーご、かなやまわなかにしせきまつきゅーしゃできゅうむいんになることができた。	NO_LABEL
中西厩舎における厩務員生活は早朝4時の調教から始まり、全ての仕事を終えて就寝できるのが21時となる厳しい環境下にあったが、金山は「全く苦にはならなかった。	NO_PRONOUNCE	NO_LABEL
好きなことですから」と厩務員生活を振り返る。	NO_PRONOUNCE	NO_LABEL
騎手時代の生涯成績は19,712戦3,299勝で、引退当時としては、ばんえい競馬史上における最多勝記録を達成した騎手であった。	NO_PRONOUNCE	NO_LABEL
重賞の成績に関しては、ばんえい競馬最高峰のレースとして位置付けられている「ばんえい記念」を、騎手としては最多となる6回もの制覇を成し遂げ、重賞の勝利総数では88勝を挙げた。	NO_PRONOUNCE	NO_LABEL
その他の実績として、NARグランプリにおいては優秀騎手賞を8回、および1997年度の特別賞を受賞している。	そのたのじっせきとして、えぬえーあーるぐらんぷりにおいてわゆーしゅーきしゅしょーをはっかい、およびせんきゅうひゃくきゅうじゅうななねんどのとくべつしょーをじゅしょーしている。	NO_LABEL
金山が騎手デビューした時期の若手騎手は山田勇作など数人のみであり、若手騎手がほとんど存在しない時期であった。	かなやまがきしゅでびゅーしたじきのわかてきしゅわやまだいさむさくなどすーにんのみであり、わかてきしゅがほとんどそんざいしないじきであった。	NO_LABEL
ばんえい競馬は林業といった産業の現地で馬や人が働きながら競馬もこなす「兼業」であったのに対して、ばんえい競馬の出場のみへ専念する「プロ」へ変わる転換期であった。	NO_PRONOUNCE	NO_LABEL
転換期を迎えたばんえい競馬の世界で、数少ない若手騎手の中で、金山は若手・ベテランの枠を超えた一際大きい存在感を示してゆく。	NO_PRONOUNCE	NO_LABEL
北海学園大学の教授である古林英一は、金山の存在を「ばんえい競馬における産業から競馬へ変わる転換期の体現者である」と定義した。	NO_PRONOUNCE	NO_LABEL
その理由として古林は、金山の騎乗フォームが従来の騎手とは大きく異なる点を挙げる。	そのりゆーとしてふるばやしわ、かなやまのきじょーふぉーむがじゅーらいのきしゅとわおーきくことなるてんをあげる。	NO_LABEL
金山以前の騎手は林業といった産業で働いていた事もあり、馬車の御者のようなイメージで身体のアクションにおいて激しい動作はとらず、細やかな動作による意思伝達をもって馬を御していた。	かなやまいぜんのきしゅわりんぎょーといったさんぎょーではたらいていたこともあり、ばしゃのぎょしゃのよーないめーじでしんたいのあくしょんにおいてはげしいどーさわとらず、こまやかなどーさによるいしでんたつをもってうまをおしていた。	NO_LABEL
それに対し、金山の発想は従来の騎手とは全く異なり、全身を使った大きなアクションをとって馬を追っていった。	それにたいし、かなやまのはっそーわじゅーらいのきしゅとわまったくことなり、ぜんしんをつかったおーきなあくしょんをとってうまをおっていった。	NO_LABEL
ベテラン騎手からは「そりの上で動くと馬に負担がかかる」といった理由をもって苦々しく見られていたが、実際に金山の成績が上昇しはじめると以前は騎乗依頼のなかった調教師や馬主からも依頼が舞い込むようになった。	NO_PRONOUNCE	NO_LABEL
1974年から7年連続で100勝していた上昇期には、金山の騎乗は勢いにまかせる剛腕タイプの代表格と見られており、	せんきゅうひゃくななじゅうよねんからななねんれんぞくでひゃくしょーしていたじょーしょーきにわ、かなやまのきじょーわいきおいにまかせるごーわんたいぷのだいひょーかくとみられており、	NO_LABEL
金山自身も若いころは調教時にも馬のクセを叩いて直そうとしていたと語る。	かなやまじしんもわかいころわちょーきょーじにもうまのくせをたたいてなおそうとしていたとかたる。	NO_LABEL
しかしキャリアを積み重ねる中で、先輩のやり方を学び馬をなだめたり時には騙したりと柔軟性や多様性をもたせた調教方法へ変化させてゆく。	しかしきゃりあをつみかさねるなかで、せんぱいのやりかたをまなびばをなだめたりときにわだましたりとじゅーなんせいやたよーせいをもたせたちょーきょーほーほーえへんかさせてゆく。	NO_LABEL
ある時、いつも先行ばかりでは馬のスタイルには合わないのではないかと考え、31歳くらいの時に「追い込み」型の戦法へ切替えを図った時期もある。	NO_PRONOUNCE	NO_LABEL
これが裏目に出てしまい、年間3ケタに達していた戦績が突如戦績が2桁にとどまる「スランプ」に陥ってしまう。	NO_PRONOUNCE	NO_LABEL
傍目には競馬への積極性が欠けるように見え、仲間内の厩舎関係者からは競馬への姿勢に疑問を持たれ、ファンからは「なぜ馬を行かせない。	NO_PRONOUNCE	NO_LABEL
あいつは八百長している」となじられる有様であった。	NO_PRONOUNCE	NO_LABEL
こうした経験を踏まえ、次の年からは戦法を柔軟に変化させて金山の表現する「一頭一頭、馬に合った騎乗をしよう」というスタイルへ切替え、翌年以降はスランプを脱し以前にも増して一層の勝利を挙げられるようになった。	NO_PRONOUNCE	NO_LABEL
金山はばんえい馬の騎乗について「馬が疲れ果てたときにどう叱咤激励し、うなだれるように下がった首をいかに起こして走らせるか。	NO_PRONOUNCE	NO_LABEL
それで決まる」と語る。	NO_PRONOUNCE	NO_LABEL
また、「オーバーワークだと第二障害の前で動かなくなる変な癖がつく。	NO_PRONOUNCE	NO_LABEL
それでは馬が長持ちしない」とも語る。	NO_PRONOUNCE	NO_LABEL
1982年7月15日にNHKの番組「北海道の窓」で金山の特集が組まれた。	NO_PRONOUNCE	NO_LABEL
ばんえい競馬の調教師であった本沢政一が、金山の良さが最も生きる瞬間は「障害登坂である」と表現した。	NO_PRONOUNCE	NO_LABEL
良い馬も悪い馬も第二障害では疲れが出て中々登り切れるものではないというが、金山は馬のバック・前進を巧みに切り返してうまく登ってしまうと表現する。	NO_PRONOUNCE	NO_LABEL
こうしてキャリアを積み重ねてゆく内に、ばんえい関係者から見た金山評が「馬への当たりの柔らかさ、障害を越える時の手綱さばきのうまさは群を抜いている」と練熟した技量を評価されるようになった。	NO_PRONOUNCE	NO_LABEL
1999年1月に調教師試験を受験、12月16日に調教師試験の合格が発表され、30日限りで騎手引退が決まった。	せんきゅうひゃくきゅうじゅうきゅうねんいちがつにちょーきょーししけんをじゅけん、じゅーにがつじゅうろくにちにちょーきょーししけんのごーかくがはっぴょーされ、さんじゅうにちかぎりできしゅいんたいがきまった。	NO_LABEL
調教師へ転進を決めた理由として、調教中に腰を痛めたことが契機となった。	ちょーきょーしえてんしんをきめたりゆーとして、ちょーきょーちゅーにこしをいためたことがけいきとなった。	NO_LABEL
体調管理については、特別なトレーニングはしておらず、代わりに毎朝午前2時半から7時まで競馬場で調教するのがトレーニング代わりとなっていた。	たいちょーかんりについてわ、とくべつなとれーにんぐわしておらず、かわりにまいあさごぜんにじはんからしちじまでけいばじょーでちょーきょーするのがとれーにんぐかわりとなっていた。	NO_LABEL
競馬開催期間は21時に就寝するが、「すぐ騎手と分かるのであまりだらしない真似は出来ないが」と断った上で、休みの時は騎手仲間と飲みに行くときもあったという。	NO_PRONOUNCE	NO_LABEL
怪我や大病などによる長期離脱もなく騎手生活を過ごしてきたが、1998年5月にあばら骨を骨折したことにより初めて騎乗を断念。	けがやたいびょーなどによるちょーきりだつもなくきしゅせいかつをすごしてきたが、せんきゅうひゃくきゅうじゅうはちねんごがつにあばらぼねをこっせつしたことによりはじめてきじょーをだんねん。	NO_LABEL
1999年1月には腰痛も患った。	せんきゅうひゃくきゅうじゅうきゅうねんいちがつにわよーつーもわずらった。	NO_LABEL
金山本人は生来の病院嫌いであり、幼少時から通院はもちろん、38歳の時に夫人の強い説得で人間ドックに入ったのが、唯一の入院経験であったという。	かなやまほんにんわせいらいのびょーいんきらいであり、よーしょーじからつーいんわもちろん、さんじゅうはっさいのときにふじんのつよいせっとくでにんげんどっくにはいったのが、ゆいいつのにゅーいんけいけんであったという。	NO_LABEL
1999年12月30日、帯広競馬場の第10レースのウインターカップが最後の騎乗となり、最終レースは5着、現役騎手最年長として騎手生活を終えた。	NO_PRONOUNCE	NO_LABEL
金山は「今までいい馬に乗せてもらい満足。	NO_PRONOUNCE	NO_LABEL
今後は愛される強い馬をつくりたい」「できれば区切りのいい三千三百勝を挙げて終えたかったんですが、こればかりは仕方ありませんね。	NO_PRONOUNCE	NO_LABEL
」と最後の思いをファンの前で語った。	NO_PRONOUNCE	NO_LABEL
金山は「最後の場内の実況中継で、アナウンサーが『三千二百九十九勝の夢をありがとう』って言ってくれて、あのときは本当にグッときました」と振り返る。	NO_PRONOUNCE	NO_LABEL
厩務員は金山を「ボス」と呼んで慕い、金山は厩務の食事をみずから支度して、食い放題・飲み放題で無料で厩務員たちへ振る舞っている。	NO_PRONOUNCE	NO_LABEL
厩舎の食事には、厩務員となった長男も交えて食卓が囲まれる。	きゅーしゃのしょくじにわ、きゅうむいんとなったちょーなんもまじえてしょくたくがかこまれる。	NO_LABEL
長男はかつて騎手を目指していた時期もある。	ちょーなんわかつてきしゅをめざしていたじきもある。	NO_LABEL
「最初はすごく恥ずかしかった」と金山は語るが、慣れてからは特売チラシを片手に行きつけの店を5〜6件回るまでになった。	NO_PRONOUNCE	NO_LABEL
自ら食事を振る舞うのは、厩務員たちへのもてなしといった目的の他に、食費を抑制する狙いもある。	みずからしょくじをふるまうのわ、きゅうむいんたちえのもてなしといったもくてきのほかに、しょくひをよくせいするねらいもある。	NO_LABEL
騎手の全盛期は2000万円以上を稼ぎ出していたが、調教師となってからはレース賞金が削られたり預託料の値下げで収入が限られるようになり、石油価格が高騰したこともあって馬運車を売り払って厩舎の運転資金に充てたこともある。	きしゅのぜんせいきわにせんまんえんいじょーをかせぎだしていたが、ちょーきょーしとなってからわれーすしょーきんがけずられたりよたくりょーのねさげでしゅーにゅーがかぎられるよーになり、せきゆかかくがこーとーしたこともあってばうんしゃをうりはらってきゅーしゃのうんてんしきんにあてたこともある。	NO_LABEL
騎手時代に71キロあった体重は65キロまで落ちた。	NO_PRONOUNCE	NO_LABEL
決して楽なことばかりではない調教師としての仕事を支えるのは、かつて金山が手綱を取った「キンタローのような名馬を作る」ことを夢として掲げているからである。	NO_PRONOUNCE	NO_LABEL
また、強い馬を作らなければ、ばんえい競馬にファンはついてこないと金山は考えている。	また、つよいうまをつくらなければ、ばんえいけいばにふぁんわついてこないとかなやまわかんがえている。	NO_LABEL
2012年4月よりばんえい十勝調教師会の会長に就任している。	にせんじゅうにねんしがつよりばんえいとかちちょーきょーしかいのかいちょーにしゅーにんしている。	NO_LABEL
2016年3月20日、フジダイビクトリーでばんえい記念を勝利し、騎手として6度勝利した同競走を調教師として初制覇。	にせんじゅうろくねんさんがつはつか、ふじだいびくとりーでばんえいきねんをしょーりし、きしゅとしてろくどしょーりしたどーきょーそーをちょーきょーしとしてはつせいは。	NO_LABEL
