サプライサイド経済学は、マクロ経済学の一派で、供給側の活動に着目し、「供給力を強化することで経済成長を達成できる」と主張する一派のことである。	NO_PRONOUNCE	NO_LABEL
によって命名された。	によってめいめいされた。	NO_LABEL
ただし、この主張が成り立つ為には生産したものが全て需要されるという非現実的なセイの法則が成り立つ必要がある。	ただし、このしゅちょーがなりたつためにわせいさんしたものがすべてじゅよーされるとゆうひげんじつてきなせいのほーそくがなりたつひつよーがある。	NO_LABEL
この学派に対しては、大部分の経済学者から理論の正当性などに関する強い疑問が呈されている。	このがくはにたいしてわ、だいぶぶんのけいざいがくしゃからりろんのせいとーせいなどにかんするつよいぎもんがていされている。	NO_LABEL
後に第41代アメリカ合衆国大統領となったジョージ・H・W・ブッシュは、1980年の共和党予備選において、サプライサイド経済学を「ブードゥー経済学」と揶揄した。	NO_PRONOUNCE	NO_LABEL
しかし、リアルビジネスサイクル理論を典型として、アメリカの新古典派経済学の理論構造は、供給制約を成長の基本的制約としており、思想的にサプライサイド経済学であるともいえる。	しかし、りあるびじねすさいくるりろんをてんけいとして、あめりかのしんこてんはけいざいがくのりろんこーぞーわ、きょーきゅーせいやくをせいちょーのきほんてきせいやくとしており、しそーてきにさぷらいさいどけいざいがくであるともいえる。	NO_LABEL
マクロの経済活動は総需要と総供給の均衡によって決まるが、サプライサイド経済学においては、そのうちの総供給側に着目する。	まくろのけいざいかつどーわそーじゅよーとそーきょーきゅーのきんこーによってきまるが、さぷらいさいどけいざいがくにおいてわ、そのうちのそーきょーきゅーがわにちゃくもくする。	NO_LABEL
総需要曲線と総供給曲線の交点において国民所得と物価水準が決定されるが、	そーじゅよーきょくせんとそーきょーきゅーきょくせんのこーてんにおいてこくみんしょとくとぶっかすいじゅんがけっていされるが、	NO_LABEL
このうち、前者がサプライサイド経済学のねらいである。	このうち、ぜんしゃがさぷらいさいどけいざいがくのねらいである。	NO_LABEL
総供給曲線の右側シフトのため、次のような政策をとる。	そーきょーきゅーきょくせんのみぎがわしふとのため、つぎのよーなせいさくをとる。	NO_LABEL
このような政策の結果として、潜在成長率が高まれば政策は成功とみなされる。	このよーなせいさくのけっかとして、せんざいせいちょーりつがたかまればせいさくわせいこーとみなされる。	NO_LABEL
アメリカでは、1970年代の政策迷走の時代を経て、「強いアメリカの復活」を標榜するレーガン政権が誕生する。	NO_PRONOUNCE	NO_LABEL
政権は経済再生策として、サプライサイド経済学に大きく傾倒したレーガノミックスといわれる一連の政策を発表した。	せいけんわけいざいさいせいさくとして、さぷらいさいどけいざいがくにおーきくけいとーしたれーがのみっくすといわれるいちれんのせいさくをはっぴょーした。	NO_LABEL
アメリカ経済は1983年に戦後最悪の不景気を脱出したが、現在ではその復活は、ケインズ的な減税とマネタリスト的な金融緩和によるポリシーミックス政策による消費の拡大が要因であり、レーガノミックスの成果ではなかったとされる。	あめりかけいざいわせんきゅうひゃくはちじゅうさんねんにせんごさいあくのふけいきをだっしゅつしたが、げんざいでわそのふっかつわ、けいんずてきなげんぜいとまねたりすとてきなきんゆーかんわによるぽりしーみっくすせいさくによるしょーひのかくだいがよーいんであり、れーがのみっくすのせいかでわなかったとされる。	NO_LABEL
実際、1980年代の実質民間投資の伸びは1970年代の伸びを大きく下回っている。	じっさい、せんきゅうひゃくはちじゅうねんだいのじっしつみんかんとーしののびわせんきゅうひゃくななじゅうねんだいののびをおーきくしたまわっている。	NO_LABEL
この間、短期的利益を追求する資本家が利益を投資に振り向けなかったので、政策のねらいとは裏腹に供給力の増大は起こらなかった。	このかん、たんきてきりえきをついきゅーするしほんかがりえきをとーしにふりむけなかったので、せいさくのねらいとわうらはらにきょーきゅーりょくのぞーだいわおこらなかった。	NO_LABEL
また、イラン・イラク戦争やアフガン戦争のための軍事費が増大したため、サプライサイド政策の実施としても中途半端なものであった。	また、いらんいらくせんそーやあふがんせんそーのためのぐんじひがぞーだいしたため、さぷらいさいどせいさくのじっしとしてもちゅーとはんぱなものであった。	NO_LABEL
その結果、アメリカ経済は慢性的な財政赤字及び経常収支赤字の二つの赤字、いわゆる双子の赤字に陥ることとなった。	そのけっか、あめりかけいざいわまんせいてきなざいせいあかじおよびけいじょーしゅーしあかじのふたつのあかじ、いわゆるふたごのあかじにおちいることとなった。	NO_LABEL
アメリカ経済は1990年代に、低い物価上昇と高めの実質成長を達成し、1998年には財政黒字へ転換した。	あめりかけいざいわせんきゅうひゃくきゅうじゅうねんだいに、ていーぶっかじょうしょーとたかめのじっしつせいちょーをたっせいし、せんきゅうひゃくきゅうじゅうはちねんにわざいせいくろじえてんかんした。	NO_LABEL
しかし、これらは、グリーンスパンによるFRBの低金利政策と、クリントン政権の財政再建によるものであり、サプライサイド政策とは無関係である。	しかし、これらわ、ぐりーんすぱんによるあーるびーのていきんりせいさくと、くりんとんせいけんのざいせいさいけんによるものであり、さぷらいさいどせいさくとわむかんけいである。	NO_LABEL
サプライサイダーたちは、90年代以降のインフレなき経済成長を、サプライサイド政策の成果と主張しているが、ほとんどの経済学者から支持は得られていない。	さぷらいさいだーたちわ、きゅうじゅうねんだいいこーのいんふれなきけいざいせいちょーを、さぷらいさいどせいさくのせいかとしゅちょーしているが、ほとんどのけいざいがくしゃからしじわえられていない。	NO_LABEL
1990年代以降、アメリカの経常収支はほぼ一貫して赤字の拡大を続けており、また、財政収支も、ジョージ・W・ブッシュ政権の富裕層減税や戦費負担により、2002年には再び赤字に転落した。	せんきゅうひゃくきゅうじゅうねんだいいこー、あめりかのけいじょーしゅーしわほぼいっかんしてあかじのかくだいをつずけており、また、ざいせいしゅーしも、じょーじうぉーかーぶっしゅせいけんのふゆーそーげんぜいやせんぴふたんにより、にせんにねんにわふたたびあかじにてんらくした。	NO_LABEL
経済学者の野口旭、田中秀臣は「サプライサイド経済学は、経済学と言えたかどうか疑わしいが、少なくとも過度なケインズ政策の弊害が明らかであった1980年代のアメリカ・イギリスの下では、一定の存在根拠があった」と指摘している。	NO_PRONOUNCE	NO_LABEL
森永卓郎は「サプライサイド経済学は、『弱者を淘汰していけば、強者がさらに強くなり供給力が拡大する』などとは言っていない」と指摘している。	NO_PRONOUNCE	NO_LABEL
