『折紙戦士』は、中華民国の漫画家・周顕宗による漫画作品、またそれを原作として日本・韓国・台湾が共同制作したファンタジーとアドベンチャーテレビアニメ作品である。	NO_PRONOUNCE	NO_LABEL
2006年1月13日、韓国SBSにて放送された。	にせんろくねんいちがつじゅうさんにち、かんこくえすびーえすにてほーそーされた。	NO_LABEL
日本でのタイトルは『聖天折紙戦士ドラファラード』。	NO_PRONOUNCE	NO_LABEL
かつて古代に折紙文明という文明があった。	かつてこだいにおりがみぶんめいとゆうぶんめいがあった。	NO_LABEL
そこでは人々は折紙から不思議な生命体・折紙獣を創造する能力を持っていた。	NO_PRONOUNCE	NO_LABEL
現在ではこの古代折紙文明のことは忘れ去られていたが、闇の組織「黒の連盟」がその秘密を探り出し、世界征服に利用しようとしていた。	NO_PRONOUNCE	NO_LABEL
それを阻止すべく、ワン教授の弟子である姫野達克は折紙秘法を盗みワン教授の自宅へ向かうが、追っ手に追いつかれる。	それをそしすべく、わんきょーじゅのでしであるひめのいたるかつわおりがみひほーをぬすみわんきょーじゅのじたくえむかうが、おってにおいつかれる。	NO_LABEL
そこへ現れたワン教授の息子ワン・ジージェは、自宅で展開されるダーキィ教授と黒の連盟の戦いに巻き込まれ、その秘められた力で黄金天龍ジェイファンを召喚して戦う。	NO_PRONOUNCE	NO_LABEL
こうして、ワン・ジージェとその友達のリリアン、オズワルド、ブルタンクは黒の連盟との戦いに巻き込まれていくのだった。	NO_PRONOUNCE	NO_LABEL
紫→藍→青→緑→黄→橙→赤→白→灰→黑→銀→金。	NO_PRONOUNCE	NO_LABEL
もあり、外の仕様、绝色。	NO_PRONOUNCE	NO_LABEL
他の色の折り紙、道具を召喚するために使用することができ。	たのいろのおりがみ、どーぐをしょーかんするためにしよーすることができ。	NO_LABEL
