川崎 真弘、1949年9月15日 - 2006年5月4日）は、日本のミュージシャン、作曲家。	NO_PRONOUNCE	NO_LABEL
福岡県北九州市出身。	ふくおかけんきたきゅーしゅーししゅっしん。	NO_LABEL
1970年代にはキーボード奏者として、「イエロー」「カルメン・マキ&OZ」「金子マリ&バックスバニー」などに参加。	NO_PRONOUNCE	NO_LABEL
1984年からは宇崎竜童の竜童組の一員として活動した。	せんきゅうひゃくはちじゅうよねんからわうざきりゅーどーのりゅーどうぐみのいちいんとしてかつどーした。	NO_LABEL
1990年代以降は、アニメや映画など多くの作品の作曲を手掛け、『RAMPO』、『金融腐食列島 呪縛』では日本アカデミー賞優秀音楽賞を受賞した。	NO_PRONOUNCE	NO_LABEL
2006年5月4日、肝臓癌のため死去。	にせんろくねんごがつよっか、かんぞーがんのためしきょ。	NO_LABEL
