バーリントン・ノーザン鉄道は、かつて1970年から1996年まで存在した、アメリカ合衆国の一級鉄道である。	NO_PRONOUNCE	NO_LABEL
略称はBN。	NO_PRONOUNCE	NO_LABEL
BNは、1970年3月2日にグレート・ノーザン鉄道、ノーザン・パシフィック鉄道、シカゴ・バーリントン・アンド・クインシー鉄道、スポケーン・ポートランド・アンド・シアトル鉄道の4つの鉄道会社が合併して誕生した。	NO_PRONOUNCE	NO_LABEL
この合併は、GNやNPの経営に携わったジェームズ・ジェローム・ヒルが企図して以来、四度目にしてようやくまとまったものであった。	NO_PRONOUNCE	NO_LABEL
とはいえ、既にこの4社は長年に渡りミネソタ州セントポールの同じビルに本社を置いていた。	NO_PRONOUNCE	NO_LABEL
1980年11月21日、セント・ルイス・サンフランシスコ鉄道を吸収。	NO_PRONOUNCE	NO_LABEL
翌年、親会社であるバーリントン・ノーザン・インク本社はワシントン州シアトルに移転した。	NO_PRONOUNCE	NO_LABEL
1988年には、鉄道事業以外をバーリントン・リソースとして分社し、テキサス州フォートワースに移転した。	NO_PRONOUNCE	NO_LABEL
1996年12月31日、BNはアッチソン・トピカ・アンド・サンタフェ鉄道と合併してバーリントン・ノーザン・アンド・サンタフェ鉄道になり、現在に至っている。	NO_PRONOUNCE	NO_LABEL
BNの路線は、アメリカ西部においては最北端を行くルートであった。	NO_PRONOUNCE	NO_LABEL
イリノイ州シカゴを起点とし、まずは北西に向かってウイスコンシン州ラクロス、ミネソタ州ミネアポリス、同セントポールを経てノースダコタ州グランドフォークスに向かう。	いりのいしゅーしかごをきてんとし、まずわほくせいにむかってういすこんしんしゅーらくろす、みねそたしゅーみねあぽりす、どーせんとぽーるをへてのーすだこたしゅーぐらんどふぉーくすにむかう。	NO_LABEL
そこからほぼ真西へと進路を変え、モンタナ州、アイダホ州を通り、ワシントン州スポーケンに至る。	そこからほぼまにしえとしんろをかえ、もんたなしゅー、あいだほしゅーをとーり、わしんとんしゅーすぽーけんにいたる。	NO_LABEL
スポーケンからはルートが3つに分かれる。	すぽーけんからわるーとがみっつにわかれる。	NO_LABEL
ひとつは元GNのルートで、西のワナッチーに向かい、カスケード山脈を新カスケードトンネルで抜け、エバレットを駆け下り、ピュージェット湾に至るルートである。	NO_PRONOUNCE	NO_LABEL
もうひとつは元NPのルートで、コロンビア川沿いのリッチランド、パスコ、ケネウィックといったトリシティズまで南西に向かい、そこから北西に進路を変えてヤキマへ、そしてカスケード山脈をスタンピードトンネルで抜け、グリーン・リバー・バレー沿いを下り、オーバーンを目指すルートである。	NO_PRONOUNCE	NO_LABEL
オーバーンでは、オレゴン州ポートランドとカナダのブリティッシュ・コロンビア州とを結ぶ路線と接続している。	おーばーんでわ、おれごんしゅーぽーとらんどとかなだのぶりてぃっしゅころんびあしゅーとをむすぶろせんとせつぞくしている。	NO_LABEL
最後のひとつは旧SP&のルートで、リッチランド付近までは南西に向かい、そこからはコロンビア川の北岸を通ってバンクーバーに至るルートである。	NO_PRONOUNCE	NO_LABEL
SLSFの吸収により、BNの路線はアメリカ中南部から南東部へのルートも含まれることになった。	NO_PRONOUNCE	NO_LABEL
BNの所有するディーゼル機関車は、車体の屋根側4分の1ほどが黒、残る4分の3ほどをカスケードグリーンと公称する緑色の塗装が施されていた。	NO_PRONOUNCE	NO_LABEL
車体前頭部には、白のロゴが入る。	しゃたいぜんとーぶにわ、しろのろごがはいる。	NO_LABEL
車体前面から見て、視認性向上のため、緑と白になるようになっていた。	しゃたいぜんめんからみて、しにんせいこーじょーのため、みどりとしろになるよーになっていた。	NO_LABEL
1985年、踏切における視認性向上のために、車体前面から見てオレンジと黒のストライプとなる塗装が試験的に行われた。	せんきゅうひゃくはちじゅうごねん、ふみきりにおけるしにんせいこーじょーのために、しゃたいぜんめんからみておれんじとくろのすとらいぷとなるとそーがしけんてきにおこなわれた。	NO_LABEL
BNのロードナンバー1号と2号、すなわちかつてのNPの6700A号と7002号が、特別列車用として整備されている。	NO_PRONOUNCE	NO_LABEL
現在、イリノイ鉄道博物館の所有であり、同州ユニオンで保存されている。	げんざい、いりのいてつどーはくぶつかんのしょゆーであり、どーしゅーゆにおんでほぞんされている。	NO_LABEL
