AOCワインの一覧では、フランス共和国のワイン法により最上位のカテゴリーにランクされているアペラシオン・ドリジーヌ・コントロレワインの一覧表を示す。	えーおーしーわいんのいちらんでわ、ふらんすきょーわこくのわいんほーによりさいじょーいのかてごりーにらんくされているあぺらしおんどりじーぬこんとろれわいんのいちらんひょーをしめす。	NO_LABEL
日本に輸入されているフランスワインは、一部にヴァン・ド・ペイおよびテーブルワインクラスのものがあるが、大半はAOCワインである。	NO_PRONOUNCE	NO_LABEL
AOCワインは、ラベルに必ずAppellation ○○ Contrôléeという表記があり、○○の部分が、登録された原産地名である。	NO_PRONOUNCE	NO_LABEL
ここには、フランス語版からアルファベット順のリストを列挙している。	ここにわ、ふらんすごばんからあるふぁべっとじゅんのりすとをれっきょしている。	NO_LABEL
リストはフランス語、日本語、栽培地域の順で、その後に簡単な説明をつけたものもある。	りすとわふらんすご、にほんご、さいばいちいきのじゅんで、そのごにかんたんなせつめいをつけたものもある。	NO_LABEL
フランス語版で、リンク先の項目があるものには、このページから直接その項にリンクできるようにしてある。	ふらんすごばんで、りんくさきのこーもくがあるものにわ、このぺーじからちょくせつそのこーにりんくできるよーにしてある。	NO_LABEL
アルザス特級の畑名AOCなど、日本でほとんど見かけないものは省略した。	あるざすとっきゅーのはたなえーおーしーなど、にっぽんでほとんどみかけないものわしょーりゃくした。	NO_LABEL
