みよし市立緑丘小学校は、愛知県みよし市三好丘緑一丁目にある公立小学校。	みよししりつみどりがおかしょうがっこーわ、あいちけんみよししみよしがおかみどりいっちょーめにあるこーりつしょーがっこー。	NO_LABEL
略称は「緑小」。	NO_PRONOUNCE	NO_LABEL
みよし市の北部丘陵地に新しく開発された新興住宅地の三好ヶ丘の中に位置する小学校である。	みよししのほくぶきゅーりょーちにあたらしくかいはつされたしんこーじゅーたくちのみよしがおかのなかにいちするしょーがっこーである。	NO_LABEL
障害者用に各所にスロープやトイレが設けられている。	しょーがいしゃよーにかくしょにすろーぷやといれがもーけられている。	NO_LABEL
愛知県の人にやさしい街づくり条例により学校では第1号の認定証を授与された。	あいちけんのひとにやさしいまちずくりじょーれいによりがっこーでわだいいちごーのにんていしょーをじゅよされた。	NO_LABEL
廊下と教室を仕切る壁は可動式となっており、将来に渡り多目的な用途での利用も見こしているようである。	ろーかときょーしつをしきるかべわかどーしきとなっており、しょーらいにわたりたもくてきなよーとでのりよーもみこしているよーである。	NO_LABEL
校舎内の一部には床暖房を施したスペースがあるなど、公立の学校としては先進的な面を持つ。	こーしゃないのいちぶにわゆかだんぼーをほどこしたすぺーすがあるなど、こーりつのがっこーとしてわせんしんてきなめんをもつ。	NO_LABEL
