U型エンジンとは2つの直列エンジンをギアかチェーンによって結合したレシプロエンジンである。	NO_PRONOUNCE	NO_LABEL
U型エンジンは、V型エンジンと同様にシリンダーバンクを2つ持つため、ダブルバンクエンジンやツインバンクエンジンなどとも呼ばれる事がある。	NO_PRONOUNCE	NO_LABEL
同程度の排気量・出力のV型エンジンと比較すると、部品点数が多く質量も大きくなって不利であり、今日では一般的ではない。	NO_PRONOUNCE	NO_LABEL
利点は直列エンジンの設計から流用できる部分が多いことで、V型エンジンが一般化する以前に、既存の直列エンジンの設計をベースにより強力なエンジンを作成する手法として多用された。	りてんわちょくれつえんじんのせっけいからりゅーよーできるぶぶんがおーいことで、ぶいがたえんじんがいっぱんかするいぜんに、きそんのちょくれつえんじんのせっけいをべーすによりきょーりょくなえんじんをさくせいするしゅほーとしてたよーされた。	NO_LABEL
直列以外の配置を2本、ギヤトレーン等で結合した類型としては、水平対向エンジンをベースとしたものはH型エンジン、V型エンジンをベースとしたものはX型エンジンである。	NO_PRONOUNCE	NO_LABEL
さらに極めて特殊な例としては、V型エンジンを並列に連結した、He 177の、DB 601を並列したDB 606エンジンがある。	NO_PRONOUNCE	NO_LABEL
ガソリンエンジンとして、第一次世界大戦中の1916年、イギリスのデイムラーはそれまでの戦車向け105馬力直列エンジンの'Silent Knight'エンジンをベースに、二重直列レイアウトのエンジンを開発した。	NO_PRONOUNCE	NO_LABEL
このエンジンはU型エンジンと同様の2つのシリンダーバンクが一つのクランクケースを共有する外見を有していたが、実際には2本のクランクシャフトはそれぞれ独立して4速トランスミッションを動かしていた為に厳密にはU型エンジンとは異なる物であった。	NO_PRONOUNCE	NO_LABEL
このエンジンは試作のみで終わり、戦車に搭載される事もなかった。	このえんじんわしさくのみでおわり、せんしゃにとーさいされることもなかった。	NO_LABEL
最初に実用化されたU型エンジンは、24.3リッター16気筒のである。	NO_PRONOUNCE	NO_LABEL
このエンジンは当初航空機用エンジンとしてブガッティの創業者であるエットーレ・ブガッティの設計により1915年から1916年に掛けて開発され、特許も取得された。	このえんじんわとーしょこーくーきよーえんじんとしてぶがってぃのそーぎょーしゃであるえっとーれぶがってぃのせっけいによりせんきゅうひゃくじゅうごねんからせんきゅうひゃくじゅうろくねんにかけてかいはつされ、とっきょもしゅとくされた。	NO_LABEL
後にブガッティはアメリカのデューセンバーグにもライセンスを供与し、40基が製造された。	ごにぶがってぃわあめりかのでゅーせんばーぐにもらいせんすをきょーよし、よんじゅうきがせいぞーされた。	NO_LABEL
また、フランスの航空機メーカーのブレゲーは、このエンジンのライセンス供与を受け、第一次世界大戦中にU型16気筒ツインエンジンやU型24気筒エンジンなどを製作した。	NO_PRONOUNCE	NO_LABEL
なお、この形式の本家たるブガッティは1928年に自動車用途向けにU型16気筒のType45エンジンを製作したが、2基のみが生産されただけで終わった。	NO_PRONOUNCE	NO_LABEL
ブガッティの他にはマトラが1974年頃にシムカ1000ラリーの2つの直列エンジンをチェーンで結合した2.6LのU型8気筒エンジンを載せた最高級のマトラ・シムカ・バゲーラを開発したが、石油危機のためにこの車とエンジンは量産されることはなかった。	NO_PRONOUNCE	NO_LABEL
イギリスでは1919年にがスリーブバルブ直列4気筒を2基並列に並べて1.5Lの10馬力U型8気筒としたデュプレックス・10hpを製造しているが、売れ行きは芳しくなく1921年には倒産してしまった。	NO_PRONOUNCE	NO_LABEL
U型エンジンのレイアウトを持つディーゼルエンジンは、古くは大型ディーゼルエンジンメーカーであるスルザーやによって製作されていた。	NO_PRONOUNCE	NO_LABEL
船舶用ツインバンクディーゼルエンジンはアメリカ合衆国特許第4,167,857号として登録されているが、現在までこの形式のエンジンが船舶に実際に使用された記録は残っていない。	NO_PRONOUNCE	NO_LABEL
スルザーはこの形式のエンジンを鉄道用途向けに多数設計し、LDシリーズエンジンとして1930年代から50年以上に渡って販売されるロングセラーエンジンとなっていた。	するざーわこのけいしきのえんじんをてつどーよーとむけにたすーせっけいし、らいぶどあしりーずえんじんとしてせんきゅうひゃくさんじゅうねんだいからごじゅうねんいじょーにわたってはんばいされるろんぐせらーえんじんとなっていた。	NO_LABEL
LDエンジンは用途に応じて幾つかのシリンダーサイズが用意され、19、22、25、28、31等の型式番号が与えられている。	NO_PRONOUNCE	NO_LABEL
LDシリーズとその改良型のLDAシリーズは6気筒、8気筒または12気筒のU型レイアウトを採用し、イギリス、ブルガリア、中国、フランス、ポーランド、ルーマニア等の多数の国の機関車で採用された。	NO_PRONOUNCE	NO_LABEL
特にイギリスではイギリス国鉄にて2000-2999馬力級のType4形式機関車に多数採用されている。	NO_PRONOUNCE	NO_LABEL
しかし、スルザーは1990年頃に鉄道用途向けエンジンの生産から撤退し、現在ではこのエンジンの系譜は途絶えてしまっている。	しかし、するざーわせんきゅうひゃくきゅうじゅうねんごろにてつどーよーとむけえんじんのせいさんからてったいし、げんざいでわこのえんじんのけいふわとだえてしまっている。	NO_LABEL
U型エンジンの2本のクランクシャフトは通常同じ方向に回転し、チェーンによって結合されるのが一般的であるが、一部のエンジンではギア駆動により2本のクランクシャフトがそれぞれ反対方向に回転するレイアウトを採る物も存在した。	NO_PRONOUNCE	NO_LABEL
このような逆回転レイアウトのU型エンジンは各シリンダーバンクの振動が打ち消される効果がある一方、各シリンダーバンクの正確な出力制御やギアの耐久性の面で非常に高度な技術が要求される事になる。	NO_PRONOUNCE	NO_LABEL
スルザーのLDAエンジンでは、2本のクランクシャフトのそれぞれに大きなギアが取り付けられ、中央のアウトプットシャフトを回転させるレイアウトを採っていた。	NO_PRONOUNCE	NO_LABEL
クランクシャフトのギアとアウトプットシャフトのギアの大きさには若干の違いがあり、クランクシャフトが750rpmで回転する時、アウトプットシャフトは1000rpmで回転するようになっていた。	NO_PRONOUNCE	NO_LABEL
これによりエンジンの大きさをコンパクトにする事が可能となった為、ディーゼル・エレクトリック方式を採用した機関車において大型のジェネレーターの搭載が容易とする事が出来た。	これによりえんじんのおーきさをこんぱくとにすることがかのーとなったため、でぃーぜるえれくとりっくほーしきをさいよーしたきかんしゃにおいておーがたのじぇねれーたーのとーさいがよーいとすることができた。	NO_LABEL
タンデム2気筒エンジンは単気筒エンジンを縦に並べて配置したエンジンである。	NO_PRONOUNCE	NO_LABEL
川崎重工業の2ストロークオートバイでのみ採用された。	NO_PRONOUNCE	NO_LABEL
また、YZR250等の2軸クランク式V型二気筒もこれの一種といえる。	NO_PRONOUNCE	NO_LABEL
この形式はのカワサキ・KR350で初めて採用され、当初のものは前後に置かれた2本のクランクシャフトはギヤによって連動し、クランクの高速回転によるジャイロ効果を低減させるために、前後のクランクは互いに逆回転し、180度の位相でエンジンを点火するように設計された。	NO_PRONOUNCE	NO_LABEL
しかし、この180度クランクは問題を抱えており、KR350を駆るライダーは疲労し、エンジンやシャシーには振動を与えた。	NO_PRONOUNCE	NO_LABEL
は、レースではエンジンの仕様を変えず、その間、カワサキはエンジンの設計をやり直していた。	わ、れーすでわえんじんのしよーをかえず、そのかん、かわさきわえんじんのせっけいをやりなおしていた。	NO_LABEL
新設計のエンジンは同年シーズンの終盤のレースに250ccで登場した。	NO_PRONOUNCE	NO_LABEL
このエンジンは360度2気筒同爆クランクに変更され、振動の問題をクリアーしていた。	NO_PRONOUNCE	NO_LABEL
になると350ccのタンデムツインは本格的にレースに復帰し、ミック・グラントがシーズン中盤のダッチTTでKR350に初勝利をもたらし、さらに、後半のスウェーデンGPでも優勝した。	NO_PRONOUNCE	NO_LABEL
とにはコーク・バリントンが、とにはアントン・マンクが世界チャンピオンとなった。	とにわこーくばりんとんが、とにわあんとんまんくがせかいちゃんぴおんとなった。	NO_LABEL
後にこのタンデム2気筒エンジンはレーサーレプリカのKR250で一般販売も行われた。	NO_PRONOUNCE	NO_LABEL
KR250ではレーサーKR350の360度同爆クランクではなく、初期型と同様の180度クランクが採用された。	NO_PRONOUNCE	NO_LABEL
シリンダーから発生する振動の問題はプライマリーギア部分に皿バネを多数組み込んだカムダンパーと呼ばれる部品を採用する事で解決した。	しりんだーからはっせいするしんどーのもんだいわぷらいまりーぎあぶぶんにさらばねをたすーくみこんだかむだんぱーとよばれるぶひんをさいよーすることでかいけつした。	NO_LABEL
しかし、このカムダンパーは市販KRで初めて導入された機構であり、耐久性や信頼性に問題を抱えていた。	しかし、このかむだんぱーわしはんけいあーるではじめてどーにゅーされたきこーであり、たいきゅーせいやしんらいせいにもんだいをかかえていた。	NO_LABEL
その上、カムダンパーの調整法がサービスマニュアルの版によって指示内容が異なるという極めて大きな問題があり、後年の版の整備手順に則って正しく組み付け調整を行わなければシリンダーの位相がずれてしまい、大きなエンジントラブルを招く事になった。	そのうえ、かむだんぱーのちょーせいほーがさーびすまにゅあるのばんによってしじないよーがことなるとゆうきめておーきなもんだいがあり、こーねんのばんのせいびてじゅんにのっとってただしくくみつけちょーせいをおこなわなければしりんだーのいそーがずれてしまい、おーきなえんじんとらぶるをまねくことになった。	NO_LABEL
その為KR250の販売当時はオートバイショップが初版のサービスマニュアルに従っていくら整備を行っても不具合が解決しない個体が多発し、人気は次第に低迷。	NO_PRONOUNCE	NO_LABEL
後継車種のKR-1ではタンデム2気筒を捨てて一般的な直列2気筒が採用された。	NO_PRONOUNCE	NO_LABEL
ヤマハも1986年にこの形式のシリンダー配置をV型とした2軸式V型2気筒のYZR250を投入、86年250ccクラスのタイトルを獲得する活躍を見せるも、その後のシーズンでは伸び悩み、結局1987年シーズン以降は1軸式V型2気筒に切り換えられた。	NO_PRONOUNCE	NO_LABEL
スクエア4気筒エンジンは、U型エンジンのバリエーションの一つであり、直列2気筒エンジンを横置きにして、二つの並列2気筒エンジンを前後に配置したエンジンである。	NO_PRONOUNCE	NO_LABEL
主にオートバイで数多く採用された。	おもにおーとばいでかずおーくさいよーされた。	NO_LABEL
この形式を最初に採用したオートバイはイギリスのの手により開発され、アリエル社によって1931年から1959年に掛けて製造されたである。	このけいしきをさいしょにさいよーしたおーとばいわいぎりすののてによりかいはつされ、ありえるしゃによってせんきゅうひゃくさんじゅういちねからせんきゅうひゃくごじゅうきゅうねんにかけてせいぞーされたである。	NO_LABEL
アリエル・スクエアフォアは空冷4ストロークOHVレイアウトを採用し、イギリスの誇る高性能オートバイとして名を馳せたが、日本車を始めとする海外の高性能オートバイに圧され1959年に姿を消し、メーカー自体も1970年代に消滅する事になった。	NO_PRONOUNCE	NO_LABEL
その後、スクエア4気筒エンジンはスズキのレース車両であるスズキ・ロードレーサーの2ストロークエンジンとして復活を遂げる事になる。	NO_PRONOUNCE	NO_LABEL
スズキのスクエア4気筒の開発は1964年の125ccワークスレーサーRS65から始まり、当初は4気筒全てのクランクが独立した4軸方式が選択されたが、未知のエンジン形式開発には当初の想定以上に苦慮し、1965年にはRS65エンジンから1気筒を減じて3軸スクエア3気筒としたRJ66を並行開発するなどの紆余曲折を経て、最終的に1967年に4軸スクエア4気筒のRS67及び、シリンダー配置をV型に変更した4軸V型4気筒のRS67IIとして1967年のロードレース世界選手権の最終戦日本グランプリに投入されたが、この年限りでスズキがワークス参戦から一時撤退した為、この1戦のみの参戦に終わっている。	NO_PRONOUNCE	NO_LABEL
スズキのスクエア4気筒はその後も継続され、1974年にはRG500としてレースシーンに再登場。	NO_PRONOUNCE	NO_LABEL
当時もっとも高性能だったロータリーディスクバルブを吸気に採用したため吸気系はエンジン側方となる。	とーじもっともこーせいのーだったろーたりーでぃすくばるぶをきゅーきにさいよーしたためきゅーきけいわえんじんがわかたとなる。	NO_LABEL
当然横には２気筒しか並べられないため前後に2気筒並べ、前後のエンジンのクランクシャフトはギヤで連動させる形となった。	NO_PRONOUNCE	NO_LABEL
排気系統は排気デバイスにSAECを採用し前側2気筒は前方排気、後側2気筒は後方排気とするレイアウトを採り、WGP500を始めとするオートバイレースシーンで活躍。	NO_PRONOUNCE	NO_LABEL
1976年にはバリー・シーンのライディングで500ccクラスを制し、ワークスとしてのスズキが撤退する1983年まで数度の年間タイトルをスズキにもたらしている。	NO_PRONOUNCE	NO_LABEL
後にこのエンジンはレーサーレプリカのスズキ・RG500Γ/RG400Γのエンジンとして一般販売もされる事となったが、当時の日本国内の大型自動二輪免許取得の厳しさや、当時の中型以上のオートバイの主流であった4ストローク直列4気筒エンジンと比較して極めて経済性に乏しく整備や生産に掛かる手間も大きなエンジンであった事も災いし、商業的にはさほど成功する事はなかった。	NO_PRONOUNCE	NO_LABEL
この形式は一時ヤマハワークスも追随し、1981年のYZR500、翌1982年のYZR500にてスクエア4およびロータリーディスクバルブを使用しているが、短期間で採用をやめている。	NO_PRONOUNCE	NO_LABEL
カワサキも1980年にスクエア4気筒ロータリーディスクバルブを採用したKR500を投入、350ccクラスを制した元チャンピオンのコーク・バリントンのライディングで500ccクラスに挑戦したが、一度も勝利を上げることなく1982年を最後に撤退。	NO_PRONOUNCE	NO_LABEL
市販レーサーレプリカとして販売される事も無かった。	しはんれーさーれぷりかとしてはんばいされることもなかった。	NO_LABEL
2ストロークでのスクエア4気筒は、ケースリードバルブによる吸気が高性能化し、エンジン横幅が嵩むロータリーディスクバルブの優位性が消えたため、これとともに姿を消していくこととなった。	NO_PRONOUNCE	NO_LABEL
なおスクエア4最終期にはスクエア4のまま吸気をリードバルブとしたエンジンも作られている。	NO_PRONOUNCE	NO_LABEL
1987年のスズキワークスチームの500ccクラス復帰に際してはスクエア4気筒ではなく後述の2軸式V型4気筒が選択され、その後2002年のMotoGP規定完全移行に至るまでスクエア4気筒は一度も復活することなく終わっている。	NO_PRONOUNCE	NO_LABEL
かつてロードレース世界選手権及びMotoGPに参戦していた2ストローク500 ccエンジンを搭載したワークスレーサーに60度ないし75度の2バンク・2シリンダーの構成で各バンクに1本、合計2本のクランクシャフトを駆動するタイプのV型4気筒エンジンが存在した。	NO_PRONOUNCE	NO_LABEL
このような構成のエンジンはヤマハ・YZR500やカジバ・GP500、スズキ・RGV-Γ500等で採用され、製造メーカー自体はV型4気筒と定義していたが、厳密にはスクエア4気筒の発展系に相当する。	NO_PRONOUNCE	NO_LABEL
このような形式のエンジンは、古典的な並列4気筒や一般的なV型4気筒と比較して二つの利点がある。	NO_PRONOUNCE	NO_LABEL
一つめはエンジンの幅で、1軸式V型4気筒では1本のクランク上にクランクウェブ・ベアリングのジャーナル・4気筒分のクランクピンを設けなければならず、前後の気筒でクランクピンを共有しない位相クランクを採用した場合には更に幅が必要となり、また前後のシリンダーもクランクピンが置かれた位置により左右方向にオフセットされた千鳥配置とならざるを得ず、エンジンのコンパクト化には限界がある。	NO_PRONOUNCE	NO_LABEL
しかし前後のバンクでそれぞれにクランクを持つ2軸式V型4気筒は、バンク角を設けて並列2気筒を前後に並べた構造であり前後バンク間で物理的に干渉が起きないため、純粋に並列2気筒と同じ幅のコンパクトな設計が可能になる。	NO_PRONOUNCE	NO_LABEL
二つめは2本のクランクシャフトがお互いに逆回転する構造にする事で、前後バンクで各々に発生する回転モーメントを相殺でき、多くの場合にバランスシャフトが不要となる点である。	につめわにほんのくらんくしゃふとがおたがいにぎゃくかいてんするこーぞーにすることで、ぜんごばんくでおのおのにはっせいするかいてんもーめんとをそーさいでき、おーくのばあいにばらんすしゃふとがふよーとなるてんである。	NO_LABEL
これにより2軸式としたことで構成部品が増加した重量面でのデメリットを緩和することが可能になる。	NO_PRONOUNCE	NO_LABEL
この形式の先鞭を付けたのは1967年のヤマハの250 ccワークスレーサーであるRD05Aで、そのエンジンは1964年から1966年の125 ccクラスで実績のあった水冷並列2気筒125 ccのRA97のエンジンを上下に重ねて4気筒化するという奇策により完成した物であった。	NO_PRONOUNCE	NO_LABEL
RD05Aは250 ccクラスで大きな実績を納め、後に125 cc版のRA31も投入されたものの、500 ccクラスでは並列4気筒が採用されたために一時的に2軸V4は姿を消す事となったが、1983年のYZR500にて復活を遂げ、その後2002年のMotoGP規定完全移行に至るまで、ホンダを除く各ワークスチームの2ストローク500 ccレーサーの主流であり続けた。	NO_PRONOUNCE	NO_LABEL
スプリット・シングルに代表される、Uの字状に2本のシリンダにまたがったような燃焼室と2個のピストンによって1つの気筒が構成される、2ストロークエンジンの形式がある。	NO_PRONOUNCE	NO_LABEL
ほとんどが、どちらのピストンも同一のクランクシャフトを共用するので、この記事で説明しているエンジンとは異なるタイプであるが、「U型気筒エンジン」あるいは「U型エンジン」と呼ばれていることもある。	NO_PRONOUNCE	NO_LABEL
オーストリアのオートバイメーカー、の、2つのピストンがY字型のコネクティングロッドを介して連結されている設計がよく知られている。	NO_PRONOUNCE	NO_LABEL
元々は1912年にイタリアのガレリにより考案されたもので、同様の機構はイギリスのルーカス社やドイツのDKW社でも製造され、日本においてはホープスターのエンジンに採用例がある。	NO_PRONOUNCE	NO_LABEL
