ジョン・キリアン・ヒューストン・ブラナーは、多作で知られたイギリスのSF作家。	NO_PRONOUNCE	NO_LABEL
人口過剰となった世界を描いた1968年の小説 "Stand on Zanzibar"で1969年のヒューゴー賞長編小説部門を受賞し、現在でも古典的名作とされている。	NO_PRONOUNCE	NO_LABEL
その作品は英国SF協会賞も同年受賞している。	そのさくひんわえいこくえすえふきょーかいしょーもどーねんじゅしょーしている。	NO_LABEL
翌年には "The Jagged Orbit" で英国SF協会賞を連続受賞した。	NO_PRONOUNCE	NO_LABEL
彼はオックスフォードシャーのウォリンフォードに程近いプレストン・クローマーシュで生まれ、チェルトナムの学校に進学。	NO_PRONOUNCE	NO_LABEL
17歳のときにジル・ハントの筆名で "Galactic Storm" という処女長編小説を書いたが、専業作家となったのは1958年である。	NO_PRONOUNCE	NO_LABEL
1953年から1955年の間イギリス空軍で働き、1958年に最初の妻と結婚。	せんきゅうひゃくごじゅうさんねんからせんきゅうひゃくごじゅうごねんのまいぎりすくーぐんではたらき、せんきゅうひゃくごじゅうはちねんにさいしょのつまとけっこん。	NO_LABEL
ブラナーの健康は1980年代に衰えはじめ、1986年に最初の妻が亡くなると自身の健康状態も悪化した。	ぶらなーのけんこーわせんきゅうひゃくはちじゅうねんだいにおとろえはじめ、せんきゅうひゃくはちじゅうろくねんにさいしょのつまがなくなるとじしんのけんこーじょーたいもあっかした。	NO_LABEL
1991年に再婚。	せんきゅうひゃくきゅうじゅういちねんにさいこん。	NO_LABEL
1995年8月25日、スコットランドのグラスゴーで開催中のワールドコンに参加中に脳梗塞で亡くなった。	せんきゅうひゃくきゅうじゅうごねんはちがつにじゅうごにち、すこっとらんどのぐらすごーでかいさいちゅーのわーるどこんにさんかちゅーにのーこーそくでなくなった。	NO_LABEL
イギリスではSFファンダムの有名人でもあった。	いぎりすでわえすえふふぁんだむのゆーめいじんでもあった。	NO_LABEL
初期の作風は普通のスペースオペラであったが、後に実験的な小説を書くようになる。	しょきのさくふーわふつーのすぺーすおぺらであったが、ごにじっけんてきなしょーせつをかくよーになる。	NO_LABEL
1968年の人口過剰な世界を描いた長編小説 "Stand on Zanzibar" で1969年のヒューゴー賞長編小説部門を受賞。	NO_PRONOUNCE	NO_LABEL
同作品は英国SF協会賞も受賞した。	どーさくひんわえいこくえすえふきょーかいしょーもじゅしょーした。	NO_LABEL
翌1970年には "The Jagged Orbit" で英国SF協会賞を連続受賞した。	NO_PRONOUNCE	NO_LABEL
1972年の "The Sheep Look Up" は生態系破壊を警告した予言的内容である。	NO_PRONOUNCE	NO_LABEL
1975年の先駆的サイバーパンク作品とも言える『』では、「ワーム」という用語を生み出した。	NO_PRONOUNCE	NO_LABEL
この作品はアルビン・トフラーの『』を読んで影響を受けたブラナーが書き、逆に『衝撃波を乗り切れ』を読んでトフラーが『第三の波』を書いたことでも有名である。	NO_PRONOUNCE	NO_LABEL
ジョン・ブラナーのほかに K・H・ブラナー、ジル・ハント、 John Loxmith、Trevor Staines、Keith Woodcott といったペンネームも使っていた。	NO_PRONOUNCE	NO_LABEL
小説以外では、原稿料を貰わずにファンジンなどに文章をよく書いた。	しょーせついがいでわ、げんこーりょーをもらわずにふぁんじんなどにぶんしょーをよくかいた。	NO_LABEL
他にニュー・サイエンティスト誌に13通の手紙を送って、それが掲載されている。	NO_PRONOUNCE	NO_LABEL
また、"Physics Education"volume 6 pages 389-391 には "The educational relevance of science fiction"という文章が掲載された。	NO_PRONOUNCE	NO_LABEL
核武装反対運動の活動家でもあり、キャンペーンソング "The H-Bomb's Thunder" の作詞も手がけている。	NO_PRONOUNCE	NO_LABEL
1972年、トリエステで開催された初のヨーロッパSF大会 "Eurocon-1" にゲストとして招待された。	NO_PRONOUNCE	NO_LABEL
※"Stand on Zanzibar"を始めとして多くの未訳長編がある。	NO_PRONOUNCE	NO_LABEL
短編はいくつかが訳されている。	たんぺんわいくつかがやくされている。	NO_LABEL
