コンピュータのハードディスクのパーティションとは、ハードディスクの記憶領域を論理的に分割すること、あるいは分割された個々の領域を指す。	こんぴゅーたのはーどでぃすくのぱーてぃしょんとわ、はーどでぃすくのきおくりょーいきをろんりてきにぶんかつすること、あるいわぶんかつされたここのりょーいきをさす。	NO_LABEL
パーティションを作成することをパーティショニングとも言う。	ぱーてぃしょんをさくせいすることをぱーてぃしょにんぐともいう。	NO_LABEL
ディスクパーティショニングは基本的な技術であり、論理ボリュームマネージャに発展したと見ることもできる。	でぃすくぱーてぃしょにんぐわきほんてきなぎじゅつであり、ろんりぼりゅーむまねーじゃにはってんしたとみることもできる。	NO_LABEL
パーティショニングは、ひとつのハードディスク上に複数のファイルシステムを持つことを可能にする。	ぱーてぃしょにんぐわ、ひとつのはーどでぃすくじょーにふくすーのふぁいるしすてむをもつことをかのーにする。	NO_LABEL
パーティションを作成する目的として、以下のことがあげられる。	ぱーてぃしょんをさくせいするもくてきとして、いかのことがあげられる。	NO_LABEL
まず、基本的な3点としては	まず、きほんてきなさんてんとしてわ	NO_LABEL
というものである。	とゆうものである。	NO_LABEL
その後、PC系UNIX及びWindows系の発展や、PCにおけるブートローダツールなどの開発により、幾つかのポイントが追加されている。	そのご、ぴーしーけいゆにっくすおよびうぃんどうずけいのはってんや、ぴーしーにおけるぶーとろーだつーるなどのかいはつにより、いくつかのぽいんとがついかされている。	NO_LABEL
などである。	などである。	NO_LABEL
UNIXの場合、論理ボリュームマネージャを使用した仮想パーティションと実際に物理ディスクを区切る一般的なパーティションがある。	ゆにっくすのばあい、ろんりぼりゅーむまねーじゃをしよーしたかそーぱーてぃしょんとじっさいにぶつりでぃすくをくぎるいっぱんてきなぱーてぃしょんがある。	NO_LABEL
まずディスクの一般パーティション管理情報は、ディスクの先頭領域にVTOC情報として記載される。	NO_PRONOUNCE	NO_LABEL
この情報は、SVR4系においてはprtvtocコマンドにて第2パーティションを示すスペシャルファイル名指定で表示することが可能。	NO_PRONOUNCE	NO_LABEL
また、fmthardコマンドにてこの情報を取り込むことも可能である。	NO_PRONOUNCE	NO_LABEL
この情報は、パーティション番号とスタートシリンダ番号とエンドシリンダ番号、書き込み読み込みモードといった情報が記録されており、直接、ディスクのハードウェア構成に依存する情報となっている。	このじょーほーわ、ぱーてぃしょんばんごーとすたーとしりんだばんごーとえんどしりんだばんごー、かきこみよみこみもーどといったじょーほーがきろくされており、ちょくせつ、でぃすくのはーどうぇあこーせいにいぞんするじょーほーとなっている。	NO_LABEL
Unix系のパーティション管理はディスクの価格が高く、容量の限られた時代の管理方式を色濃く残しており、1ディスクに7パーティションだけ作成できるものであった。	NO_PRONOUNCE	NO_LABEL
一般にパーティション設定は以下のようなものが多い。	いっぱんにぱーてぃしょんせっていわいかのよーなものがおーい。	NO_LABEL
という設定が行われる。	とゆうせっていがおこなわれる。	NO_LABEL
UNIXの場合、PC及びPC上のUnix系OSと異なり、IPLが/root配下などに置かれるvmunixカーネルをロードし、メモリに展開する。	NO_PRONOUNCE	NO_LABEL
PCにおけるLinuxなどのUnix系OSでの一般的なパーティション分割も、UNIXの実装に近い設定をする事が多い。	ぴーしーにおけるりなっくすなどのゆにっくすけいおーえすでのいっぱんてきなぱーてぃしょんぶんかつも、ゆにっくすのじっそーにちかいせっていをすることがおーい。	NO_LABEL
特に以下の配置において、その名残を色濃く残している。	とくにいかのはいちにおいて、そのなごりをいろこくのこしている。	NO_LABEL
論理ボリュームマネージャを使用した場合、1つのボリュームグループに物理ディスクを登録し、論理ボリュームという仮想パーティションを定義する事ができる。	ろんりぼりゅーむまねーじゃをしよーしたばあい、ひとつのぼりゅーむぐるーぷにぶつりでぃすくをとーろくし、ろんりぼりゅーむとゆうかそーぱーてぃしょんをていぎすることができる。	NO_LABEL
また、この仮想パーティションは動的に拡張/縮退が可能であり、運用上、システムの停止をする事無く、対応することができる。	NO_PRONOUNCE	NO_LABEL
Windowsでの一般的なパーティション構成は、1つのパーティション、いわゆるCドライブである。	NO_PRONOUNCE	NO_LABEL
そこにOSもプログラムもデータも全て格納する。	そこにおんすかもぷろぐらむもでーたもすべてかくのーする。	NO_LABEL
しかし、パーティションを複数用意して、OS用のひとつのパーティション以外をアプリケーション等に割り当てるのが望ましい。	しかし、ぱーてぃしょんをふくすーよーいして、おーえすよーのひとつのぱーてぃしょんいがいをあぷりけーしょんとーにわりあてるのがのぞましい。	NO_LABEL
可能ならば、ページングファイルのための別個のパーティションを用意して、これをOSとは異なるディスクドライブに置くべきである。	かのーならば、ぺーじんぐふぁいるのためのべっこのぱーてぃしょんをよーいして、これをおんすかとわことなるでぃすくどらいぶにおくべきである。	NO_LABEL
OSをCドライブ以外に置くようなパーティション構成も不可能ではなく、トロイの木馬が固定のパス名でファイルアクセスしようとする場合に有効な場合もある。	NO_PRONOUNCE	NO_LABEL
Windows 2000や、Windows XP の Windows NT系 OSでは、論理ディスクマネージャを用いて NTFS 上の任意のフォルダに別のパーティションをマウントすることが出来る。	ういんどうずにせんや、うぃんどうずえっくすぴーのうぃんどうずえぬてぃけいおんすかでわ、ろんりでぃすくまねーじゃをもちいてえぬてぃーえふえすじょーのにんいのふぉるだにべつのぱーてぃしょんをまうんとすることができる。	NO_LABEL
たとえば、ユーザーのホームディレクトリである「My Documents」フォルダに、別のパーティションをマウントしたりすることが出来る。	NO_PRONOUNCE	NO_LABEL
Wiiのディスクにもパーティションは存在する。	うぃーのでぃすくにもぱーてぃしょんわそんざいする。	NO_LABEL
通常、1パーティション目に更新ファイルが、2パーティション目にゲームのデータが入っている。	NO_PRONOUNCE	NO_LABEL
Wiiのディスクは暗号化されているため、パーティションも暗号化されている。	うぃーのでぃすくわあんごーかされているため、ぱーてぃしょんもあんごーかされている。	NO_LABEL
また、各パーティション毎に証明書が付加されており、変更を防止する役目を果たしている。	また、かくぱーてぃしょんごとにしょーめいしょがふかされており、へんこーをぼーしするやくめをはたしている。	NO_LABEL
WiiBrewによると、Wiiディスク内には最大4つのパーティションが作成できる。	NO_PRONOUNCE	NO_LABEL
PSPのUMDにもWiiのディスク同様パーティションが存在する。	ぴーえすぴーのゆーえむでぃーにもうぃーのでぃすくどーよーぱーてぃしょんがそんざいする。	NO_LABEL
構成としては、アクティブなパーティションに更新チェック及び更新ファイル、2パーティション目にゲームデータが入っている。	NO_PRONOUNCE	NO_LABEL
例外的に3パーティション目に追加データ格納パーティションがあるものもある。	NO_PRONOUNCE	NO_LABEL
基本パーティションおよび論理パーティションはファイルシステムを持つことが出来る。	きほんぱーてぃしょんおよびろんりぱーてぃしょんわふぁいるしすてむをもつことができる。	NO_LABEL
通常はファイルシステムを作成しない限り、そのパーティションを利用することが出来ない。	つーじょーわふぁいるしすてむをさくせいしないかぎり、そのぱーてぃしょんをりよーすることができない。	NO_LABEL
Solarisを除くUnix系の場合、論理ボリュームマネージャを使用するのが一般的である。	NO_PRONOUNCE	NO_LABEL
インストール時にrootvgを定義し、その中に論理ボリュームを定義してマウントする。	NO_PRONOUNCE	NO_LABEL
論理ボリュームマネージャを使用しない場合、Format系コマンドにてFormat後にパーティションを定義し、それぞれのマウントポイントを設定する。	NO_PRONOUNCE	NO_LABEL
Windows 2000、Windows XP では、パーティションの作成と同時にファイルシステムを作成することが可能であるが、Windows 9x系やLinuxではパーティション作成後に別途ファイルシステムを作成する必要性がある。	NO_PRONOUNCE	NO_LABEL
なお、右図での色分けは赤：マスターブートレコード、水色：基本パーティション、橙：拡張パーティション、緑：論理パーティション、黒：ハードディスク全体である。	NO_PRONOUNCE	NO_LABEL
また、パーティション内に振られている数字は、Linuxでのデバイス番号である。	また、ぱーてぃしょんないにふられているすーじわ、りなっくすでのでばいすばんごーである。	NO_LABEL
