西沢 正太郎は、日本の児童文学作家。	にしざわしょーたろーわ、にっぽんのじどーぶんがくさっか。	NO_LABEL
埼玉県狭山市生まれ。	さいたまけんさやましうまれ。	NO_LABEL
中央大学専門部法科第二部卒。	ちゅーおーだいがくせんもんぶほーかだいにぶそつ。	NO_LABEL
小学校教師のかたわら福田清人に師事して児童文学を書き、1961年「プリズム村誕生」で講談社児童文学作品受賞。	NO_PRONOUNCE	NO_LABEL
66年「青いスクラム」で小学館文学賞受賞。	NO_PRONOUNCE	NO_LABEL
日本児童文芸家協会理事長も務めた。	にほんじどーぶんげいかきょーかいりじちょーもつとめた。	NO_LABEL
同じ児童文学作家の香川茂とは長年の友人だった。	おなじじどーぶんがくさっかのかがわしげるとわながねんのゆーじんだった。	NO_LABEL
など	など	NO_LABEL
