『花の咲く家』、東海テレビ制作・フジテレビ系列で、1993年9月27日～12月29日にオムニバス形式で放送された昼ドラである。	NO_PRONOUNCE	NO_LABEL
9月27日～10月29日に放送。	NO_PRONOUNCE	NO_LABEL
　	NO_PRONOUNCE	NO_LABEL
11月1日～11月26日に放送。	NO_PRONOUNCE	NO_LABEL
11月29日～12月29日に放送。	NO_PRONOUNCE	NO_LABEL
