サミュエル・ミラー・ブレッキンリッジ・ロングは、アメリカ合衆国の政治家、外交官。	NO_PRONOUNCE	NO_LABEL
1861年5月16日、ロングはミズーリ州セントルイスにおいて、マーガレット・ミラー・ブレッキンリッジ・ロングとウィリアム・ストラドウィックの息子として誕生した。	NO_PRONOUNCE	NO_LABEL
ロングは1904年にプリンストン大学を卒業し、1906年にワシントン大学法学大学院に入った。	ろんぐわせんきゅうひゃくよねんにぷりんすとんだいがくをそつぎょーし、せんきゅうひゃくろくねんにわしんとんだいがくほーがくだいがくいんにはいった。	NO_LABEL
ロングは1909年に修士号を取得した。	ろんぐわせんきゅうひゃくきゅうねんにしゅーしごーをしゅとくした。	NO_LABEL
ロングは1907年にミズーリ州から弁護士として認可を受け、同年にセントルイス市内で弁護士業を開業した。	ろんぐわせんきゅうひゃくななねんにみずーりしゅーからべんごしとしてにんかをうけ、どーねんにせんとるいすしないでべんごしぎょーをかいぎょーした。	NO_LABEL
ロングは1917年まで1人で弁護士業を続けた。	ろんぐわせんきゅうひゃくじゅうしちねんまでひとりでべんごしぎょーをつずけた。	NO_LABEL
ロングは1912年にクリスティン・アレクサンダーと結婚し、後に1人娘のクリスティン・ブレアをもうけた。	NO_PRONOUNCE	NO_LABEL
ロングは1914年から1915年までミズーリ州法典の訴訟手続き改訂委員会のメンバーを務めた。	ろんぐわせんきゅうひゃくじゅうよねんからせんきゅうひゃくじゅうごねんまでみずーりしゅーほーてんのそしょーてつずきかいていいーんかいのめんばーをつとめた。	NO_LABEL
その後ロングは国際連盟の設立に貢献し、ウッドロウ・ウィルソン大統領の民主主義を支援した。	そのごろんぐわこくさいれんめいのせつりつにこーけんし、うっどろううぃるそんだいとーりょーのみんしゅしゅぎをしえんした。	NO_LABEL
ロングはウィルソン大統領の「合衆国は参戦しない」というスローガンを起草し、1916年の大統領選挙でのウィルソンの再選に貢献した。	NO_PRONOUNCE	NO_LABEL
1917年1月、ロングはアメリカ合衆国第三国務次官補に任命された。	せんきゅうひゃくじゅうしちねんいちがつ、ろんぐわあめりかがっしゅーこくだいさんこくむじかんほににんめいされた。	NO_LABEL
ロングは1920年6月に辞任するまで同職を務めた。	ろんぐわせんきゅうひゃくにじゅうねんろくがつにじにんするまでどーしょくをつとめた。	NO_LABEL
ロングは国務省においてアジア情勢の観察を任され、合衆国の外交通信政策の改善に注目した。	ろんぐわこくむしょーにおいてあじあじょーせいのかんさつをまかされ、がっしゅーこくのがいこーつーしんせいさくのかいぜんにちゅーもくした。	NO_LABEL
1920年、ロングはミズーリ州から民主党の公認候補としてアメリカ合衆国上院議員選挙に出馬した。	せんきゅうひゃくにじゅうねん、ろんぐわみずーりしゅーからみんしゅとーのこーにんこーほとしてあめりかがっしゅーこくじょーいんぎーんせんきょにしゅつばした。	NO_LABEL
だがロングは現職候補のセルデン・スペンサーに得票率44.5パーセント対53.7パーセントで敗退した。	NO_PRONOUNCE	NO_LABEL
ロングは続く1922年の上院議員選挙でも敗北した。	ろんぐわつずくせんきゅうひゃくにじゅうにねんのじょーいんぎーんせんきょでもはいぼくした。	NO_LABEL
ロングは後の大統領フランクリン・ルーズベルトの友人でもあった。	ろんぐわごのだいとーりょーふらんくりんるーずべるとのゆーじんでもあった。	NO_LABEL
2人が知り合ったのはウィルソン政権下の時代であり、ルーズベルトが海軍次官補を務めていたためであった。	ふたりがしりあったのわうぃるそんせいけんかのじだいであり、るーずべるとがかいぐんじかんほをつとめていたためであった。	NO_LABEL
その後1932年にルーズベルトが大統領選挙に立候補した際、ロングはルーズベルトを支援した。	そのごせんきゅうひゃくさんじゅうにねんにるーずべるとがだいとーりょーせんきょにりっこーほしたさい、ろんぐわるーずべるとをしえんした。	NO_LABEL
ルーズベルトが大統領に当選すると、ロングは見返りとして在イタリアアメリカ合衆国特命全権大使に任ぜられた。	るーずべるとがだいとーりょーにとーせんすると、ろんぐわみかえりとしてざいいたりああめりかがっしゅーこくとくめいぜんけんたいしににんぜられた。	NO_LABEL
ムッソリーニがエチオピア侵攻を行うと、ロングは報復としてイタリアへの石油禁輸措置を課すことを大統領に助言した。	むっそりーにがえちおぴあしんこーをおこなうと、ろんぐわほーふくとしていたりあえのせきゆきんゆそちをかすことをだいとーりょーにじょげんした。	NO_LABEL
この対応により、ロングはイタリア国内から非難を受けた。	このたいおーにより、ろんぐわいたりあこくないからひなんをうけた。	NO_LABEL
ロングは1836年に駐イタリア大使を退任した。	ろんぐわせんはっぴゃくさんじゅうろくねんにちゅーいたりあたいしをたいにんした。	NO_LABEL
ロングは1938年にブラジル、アルゼンチン、ウルグアイで特別任務のメンバーを務め、1939年に国務省顧問となった。	ろんぐわせんきゅうひゃくさんじゅうはちねにぶらじる、あるぜんちん、うるぐあいでとくべつにんむのめんばーをつとめ、せんきゅうひゃくさんじゅうきゅうねんにこくむしょーこもんとなった。	NO_LABEL
1940年1月、ロングは国務次官補に任命され、第二次世界大戦に関する緊急問題の処理を任された。	せんきゅうひゃくよんじゅうねんいちがつ、ろんぐわこくむじかんほににんめいされ、だいにじせかいたいせんにかんするきんきゅーもんだいのしょりをまかされた。	NO_LABEL
ロングはまた査証部門の管理も任された。	ろんぐわまたさしょーぶもんのかんりもまかされた。	NO_LABEL
ロングは「私は共産主義者、過激な急進論者、ユダヤ主義扇動者、そして難民問題の支援者から攻撃されている」と信じるようになった。	NO_PRONOUNCE	NO_LABEL
ロングのこの見解は、ロングの部下たちに共有された。	ろんぐのこのけんかいわ、ろんぐのぶかたちにきょーゆーされた。	NO_LABEL
1940年6月、ロングは査証発行に関するメモを作成し、国務省内に回覧させた。	せんきゅうひゃくよんじゅうねんろくがつ、ろんぐわさしょーはっこーにかんするめもをさくせいし、こくむしょーないにかいらんさせた。	NO_LABEL
その結果、ドイツおよびイタリアの管理下にある国からの移民申請の、およそ90パーセントを棄却することに成功した。	そのけっか、どいつおよびいたりあのかんりかにあるくにからのいみんしんせいの、およそきゅうじゅうぱーせんとをききゃくすることにせいこーした。	NO_LABEL
1944年12月、ロングは国務次官補を退任し、国務省を離れた。	せんきゅうひゃくよんじゅうよねんじゅーにがつ、ろんぐわこくむじかんほをたいにんし、こくむしょーをはなれた。	NO_LABEL
ロングはその後隠居生活を送り、骨董品、絵画、船の模型の収集に没頭した。	ろんぐわそのごいんきょせいかつをおくり、こっとーひん、かいが、ふねのもけいのしゅーしゅーにぼっとーした。	NO_LABEL
そして1958年9月26日、ロングはメリーランド州ローレルにおいて死去した。	そしてせんきゅうひゃくごじゅうはちねんくがつにじゅうろくにち、ろんぐわめりーらんどしゅーろーれるにおいてしきょした。	NO_LABEL
ロングの遺体はワシントンD.C.のワシントン国立大聖堂に埋葬された。	ろんぐのいたいわわしんとんでぃーしーのわしんとんこくりつだいせいどーにまいそーされた。	NO_LABEL
