国際親善展覧館とは、朝鮮民主主義人民共和国平安北道香山郡の妙香山にある朝鮮様式の展示館である。	こくさいしんぜんてんらんかんとわ、ちょーせんみんしゅしゅぎじんみんきょーわこくへいあんほくどーひゃんさんぐんのみょひゃんさんにあるちょーせんよーしきのてんじかんである。	NO_LABEL
1978年8月に開館したもので、館内には世界各国から北朝鮮の金日成主席に対し贈答された品物が展示されている。	せんきゅうひゃくななじゅうはちねんはちがつにかいかんしたもので、かんないにわせかいかっこくからきたちょーせんのきむいるそんしゅせきにたいしぞーとーされたしなものがてんじされている。	NO_LABEL
北朝鮮は「朝鮮人民と世界平和愛好人民の親善・団結を象徴し、金日成主席に寄せる世界各国人民の敬意の念を集大成」した施設であるとしている。	NO_PRONOUNCE	NO_LABEL
展示館内は撮影が禁止されており、カメラやビデオは入口で預ける事になる。	てんじかんないわさつえいがきんしされており、かめらやびでおわいりぐちであずけることになる。	NO_LABEL
展示品は旧社会主義陣営や第三世界の国々からの品が多いが、日本からも田辺誠や土井たか子など、旧社会党や社民党関係者からの贈り物も数多く展示されている。	てんじひんわきゅーしゃかいしゅぎじんえいやだいさんせかいのくにぐにからのしながおーいが、にっぽんからもたなべまことやどいたかこなど、きゅーしゃかいとーやしゃみんとーかんけいしゃからのおくりものもかずおーくてんじされている。	NO_LABEL
有名な展示品としてテリー伊藤が1993年に出版した『お笑い北朝鮮』で紹介された、ニカラグアから送られた「酒器を載せた盆を持つワニの剥製」といった物もある。	NO_PRONOUNCE	NO_LABEL
