土庄町立北浦小学校は、かつて香川県小豆郡土庄町見目甲に存在した公立小学校。	とのしょーちょーりつきたうらしょうがっこーわ、かつてかがわけんしょーずぐんとのしょーちょうみめかぶとにそんざいしたこーりつしょーがっこー。	NO_LABEL
学校名の通り、小豆島の北岸に位置していた。	がっこーめいのとーり、あずしまのほくがんにいちしていた。	NO_LABEL
ガッコムのウェブページを参考。	がっこむのうぇぶぺーじをさんこー。	NO_LABEL
