沖縄県道10号伊計平良川線は、沖縄県うるま市与那城伊計の伊計島と同市平良川とを結ぶ主要地方道。	おきなわけんどーじゅうごーいけいたいらがわせんわ、おきなわけんうるましよなしろいけいのいけいとーとどーしたいらがわとをむすぶしゅよーちほーどー。	NO_LABEL
本島部区間- 平良川）	NO_PRONOUNCE	NO_LABEL
海中道路 - 島嶼部	NO_PRONOUNCE	NO_LABEL
うるま市合併前は平安座島方面は平安座総合開発、宮城・伊計両島方面は桃原運輸産業、浜比嘉島方面は1997年に架橋後勝連町営の浜比嘉バスがそれぞれ運行していたが、合併後「うるま市有償バス」として平安座総合開発に委託して4島すべての島を通っている。	NO_PRONOUNCE	NO_LABEL
