中国の交通では、中国の交通の概略や状況などを述べる。	ちゅーごくのこうつーでわ、ちゅーごくのこうつーのがいりゃくやじょーきょーなどをのべる。	NO_LABEL
中国は歴史上、各地に道路・水路を整備するだけでなく、秦の始皇帝による古代道路、隋代の大運河、唐代のシルクロード、明代の鄭和による海路遠征など、世界の歴史上も有名な交通の整備・確保を行なってきた。	NO_PRONOUNCE	NO_LABEL
チベットの馬と中国のお茶を主に交換したので名付けられた伝統的な茶馬古道も、今では国道・高速道路・チベット鉄道に取って代わられ、観光客が一部を利用するに過ぎない道へと変わっている。	NO_PRONOUNCE	NO_LABEL
陸路を利用した陸運としては、鉄道、道路、市内の各種運輸手段があるが、鉄道網が特に発達している。	りくろをりよーしたりくうんとしてわ、てつどー、どーろ、しないのかくしゅうんゆしゅだんがあるが、てつどーもーがとくにはったつしている。	NO_LABEL
中国の鉄道は国務院の鉄道部の管轄下で運営されており、主に長距離輸送手段として利用されている。	ちゅーごくのてつどーわこくむいんのてつどーぶのかんかつかでうんえいされており、おもにちょーきょりゆそーしゅだんとしてりよーされている。	NO_LABEL
中華之星などさまざまな試行錯誤の後、車輛は主に海外の技術を使用し、2008年には京津都市間鉄道が開業するなど、近年多くの路線が建設・開業されている。	NO_PRONOUNCE	NO_LABEL
中国の鉄道はこれまで電気機関車を使った長距離輸送が中心であったが、近年は「動車組」という名称で、上海から近郊の南京・蘇州方面や杭州方面などへ編成されるようになり、徐々に近郊電車として大都市への通勤に活躍するようになってきた。	NO_PRONOUNCE	NO_LABEL
また近年、多くの都市で都市内公共交通手段として地下鉄が整備されている。	またきんねん、おーくのとしでとしないこーきょーこーつーしゅだんとしてちかてつがせいびされている。	NO_LABEL
国道、一般道路も発展してきたが、21世紀になってからは、主に長距離輸送手段としての高速道路が発達している。	こくどー、いっぱんどーろもはってんしてきたが、にじゅういっせいきになってからわ、おもにちょーきょりゆそーしゅだんとしてのこーそくどーろがはったつしている。	NO_LABEL
それに伴い、自家用自動車の利用も増えてきた。	それにともない、じかよーじどーしゃのりよーもふえてきた。	NO_LABEL
国道は国務院交通運輸部公路局が計画・管理を行っている。	NO_PRONOUNCE	NO_LABEL
近年、中国の高速道路は、急速に整備が進んでいる。	きんねん、ちゅーごくのこーそくどーろわ、きゅーそくにせいびがすすんでいる。	NO_LABEL
市内交通としては、主に以下が利用されている。	しないこーつーとしてわ、おもにいかがりよーされている。	NO_LABEL
水路を利用した水運としては、海運と河川を使った輸送がある。	すいろをりよーしたすいうんとしてわ、かいうんとかせんをつかったゆそーがある。	NO_LABEL
主要水路は国務院交通運輸部水路司が計画・管理を行っている。	NO_PRONOUNCE	NO_LABEL
中国の東部、南部はそれぞれ太平洋と南シナ海に面しており、古くから海外との交易が盛んであった。	ちゅーごくのとーぶ、なんぶわそれぞれたいへいよーとみなみしなかいにめんしており、ふるくからかいがいとのこーえきがさかんであった。	NO_LABEL
また、沿岸海路も盛んに利用されている。	また、えんがんかいろもさかんにりよーされている。	NO_LABEL
沿岸を通行する鉄道フェリーとしては、海安鉄道フェリーや渤海鉄道フェリーもある。	えんがんをつーこーするてつどーふぇりーとしてわ、かいあんてつどーふぇりーやぼっかいてつどーふぇりーもある。	NO_LABEL
黒竜江、黄河、長江、珠江などの大河川をかかえる中国は、河川上の水路も発達している。	こくりゅーこー、こーが、ながえ、たまえなどのおおこうがわをかかえるちゅーごくわ、かせんじょーのすいろもはったつしている。	NO_LABEL
また、京杭大運河などの内陸運河も、広く使用されている。	また、けいこうだいうんがなどのないりくうんがも、ひろくしよーされている。	NO_LABEL
道路や鉄道用、あるいは併用の河川を渡る橋が多数建設されている。	どーろやてつどーよー、あるいわへいよーのかせんをわたるはしがたすーけんせつされている。	NO_LABEL
黄河には明代に蘭州に「黄河第一橋」が架けられている。	NO_PRONOUNCE	NO_LABEL
長江には、新中国になって、武漢長江大橋と南京長江大橋が道路・鉄道併用橋として建設され、21世紀に入ってからは杭州湾海上大橋が建設された。	NO_PRONOUNCE	NO_LABEL
また、高速道路や高速鉄道用の多くの橋が建設されている。	また、こーそくどーろやこーそくてつどーよーのおーくのはしがけんせつされている。	NO_LABEL
隣国と接する橋もあり、北朝鮮とは鴨緑江を渡る中朝友誼橋で結ばれている。	りんごくとせっするはしもあり、きたちょーせんとわおうりょくこーをわたるちゅーちょーゆーぎきょーでむすばれている。	NO_LABEL
トンネルは山岳を貫くものは多いが、河川を渡るトンネルは少なく、現在武漢、成都など大河川上の大都市で、地下鉄用トンネルの建設が進んでいる。	とんねるわさんがくをつらぬくものわおーいが、かせんをわたるとんねるわすくなく、げんざいぶかん、なるとなどおおこうがわじょーのだいとしで、ちかてつよーとんねるのけんせつがすすんでいる。	NO_LABEL
広大な国土を擁する中国では、航空機も利用される機会も多い。	こーだいなこくどをよーするちゅーごくでわ、こーくーきもりよーされるきかいもおーい。	NO_LABEL
航空路は国務院直属の中国民用航空局が計画・管理を行っている。	NO_PRONOUNCE	NO_LABEL
中国国際航空、中国東方航空、中国南方航空の3大航空会社のほか、近年では海南航空グループ、春秋航空などの新興航空会社も台頭している。	NO_PRONOUNCE	NO_LABEL
北京首都国際空港、上海虹橋国際空港の拡張、上海浦東国際空港、広州白雲国際空港の新規建設など、巨大な建設プロジェクトが次々と実施されている。	ぺきんしゅとこくさいくうこー、しゃんはいほんちゃおこくさいくうこーのかくちょー、しゃんはいぷーどんこくさいくうこー、くわんちょうぱいゆんこくさいくうこーのしんきけんせつなど、きょだいなけんせつぷろじぇくとがつぎつぎとじっしされている。	NO_LABEL
石油や天然ガスを産出する中国では、これらを輸送するパイプラインも重要性を増している。	せきゆやてんねんがすをさんしゅつするちゅーごくでわ、これらをゆそーするぱいぷらいんもじゅーよーせいをましている。	NO_LABEL
石油パイプラインは新疆ウイグル自治区から上海までが完成しており、また、ロシア・東シベリアの石油を太平洋まで運ぶパイプラインの支線として、ロシアのスコヴォロディノのアムール川対岸にある黒河から大慶間の建設が進んでいる 。	NO_PRONOUNCE	NO_LABEL
