Qアップトレーニングとは、ケアパートナー株式会社の登録商標で、介護が必要な高齢者のQOL向上を目的とするトレーニングのことである。	NO_PRONOUNCE	NO_LABEL
機器を用いたマシントレーニングだけではなく、デイサービスにおける食事・入浴・排泄・レクリエーション等を含めたすべての過程を指す。	NO_PRONOUNCE	NO_LABEL
低負荷反復運動のマシントレーニングだけではなく、デイサービスでの食事・入浴・排泄・レクリエーション等、すべてのサービス場面を観察の場・日常生活トレーニングの場・実践の場と捉え、高齢者のできること・できないことを見極めて介護過程を展開し、QOLの向上を図るという一連の流れがQアップトレーニングと定義されている。	NO_PRONOUNCE	NO_LABEL
Qアップトレーニングは、日常生活における動作性の維持・改善等で効果を上げており、寝たきりの一因である転倒による骨折の防止につながったり、介護度が軽減したケースも多い。	NO_PRONOUNCE	NO_LABEL
身体の動きが良くなったり、疲れにくくなったりすることが高齢者本人の自信となり、それによる行動の変化も生まれ、高齢者の心豊かな暮らしにつながっている。	しんたいのうごきがよくなったり、つかれにくくなったりすることがこーれいしゃほんにんのじしんとなり、それによるこーどーのへんかもうまれ、こーれいしゃのこころゆたかなくらしにつながっている。	NO_LABEL
