『緊急指令10-4・10-10』は、1972年7月3日から同年12月25日まで、NET系列の月曜日19:30 - 20:00枠にて全26話が放送された特撮番組。	NO_PRONOUNCE	NO_LABEL
「10-4・10-10」とはアメリカのCBや警察無線で使われる用語で、「10コード」と呼ばれるものである。	NO_PRONOUNCE	NO_LABEL
「10-4」は「了解」、「10-10」は「通信終わり」を意味する略語。	NO_PRONOUNCE	NO_LABEL
各地の無線愛好家たちが様々な事件に遭遇、無線を通じて事件を知った「毛利チーム」が調査に乗り出し、謎を解き明かす様子を描く。	NO_PRONOUNCE	NO_LABEL
毛利チームの活動は怪獣・宇宙人の撃退から家出人の捜索・非行少女の更生支援まで幅広く、内容の自由度の高さは円谷プロ作品の中でも群を抜いている。	NO_PRONOUNCE	NO_LABEL
もっとも、あくまでも民間組織が中心になって対応するため、規模の大きさでは他作品に劣る面もあるが、事件に関わった人々の姿も丁寧に描かれている。	もっとも、あくまでもみんかんそしきがちゅーしんになってたいおーするため、きぼのおーきさでわたさくひんにおとるめんもあるが、じけんにかかわったひとびとのすがたもていねいにえがかれている。	NO_LABEL
レギュラー陣は「毛利チーム」と呼ばれるグループに所属しているが、通信手段がCB無線であるため、無線装置を所有する者なら誰でも通信を傍受し、会話に参加することが可能。	NO_PRONOUNCE	NO_LABEL
そのため、事件の調査依頼から解決のための手掛かりとなる情報の提供まで、チーム外の無線愛好家から寄せられる情報がストーリーの進行上重要な鍵となっている。	そのため、じけんのちょーさいらいからかいけつのためのてがかりとなるじょーほーのていきょーまで、ちーむがいのむせんあいこーかからよせられるじょーほーがすとーりーのしんこーじょーじゅーよーなかぎとなっている。	NO_LABEL
最終話のように無線のネットワークを悪用される危険もあるが、劇中では毛利チームを含む無線愛好家の大半が善人であるため、全編を通じて健全な作風になっている。	さいしゅーわのよーにむせんのねっとわーくをあくよーされるきけんもあるが、げきちゅーでわもーりちーむをふくむむせんあいこーかのたいはんがぜんにんであるため、ぜんぺんをつーじてけんぜんなさくふーになっている。	NO_LABEL
企画はNETと電通による『CB無線物語シリーズ テン・フォー、テン・テン』をベースに、企画を持ち込まれた円谷プロダクションが『怪奇大作戦』の要素を少年向けに再構築した。	NO_PRONOUNCE	NO_LABEL
電通のプロデューサーは、自身が愛好する黒沼健の怪奇小説のような趣向を目指していた。	でんつーのぷろでゅーさーわ、じしんがあいこーするくろぬまけんのかいきしょーせつのよーなしゅこーをめざしていた。	NO_LABEL
無線を題材にしていることから、当時無線機に力を入れていた三菱電機がスポンサーとなっている。	むせんをだいざいにしていることから、とーじむせんきにちからをいれていたみつびしでんきがすぽんさーとなっている。	NO_LABEL
また、玩具スポンサーはトミーが担当していた。	また、おもちゃすぽんさーわとみーがたんとーしていた。	NO_LABEL
企画段階でのタイトルは『電波特捜隊』。	NO_PRONOUNCE	NO_LABEL
怪獣デザインを担当した米谷佳晃は、企画段階から作品に携わっており、設定考案やマーチャン企画提案なども行っている。	かいじゅーでざいんをたんとーしたよねたにかこーわ、きかくだんかいからさくひんにたずさわっており、せっていこーあんやまーちゃんきかくていあんなどもおこなっている。	NO_LABEL
登場人物を一新した続編も検討されていたが実現には至っていない。	とーじょーじんぶつをいっしんしたぞくへんもけんとーされていたがじつげんにわいたっていない。	NO_LABEL
2013年7月12日と同年9月13日に東映ビデオから、初の全話ソフト化となるDVDボックスの上下巻が発売された。	にせんじゅうさんねんしちがつじゅうににちとどーねんくがつじゅうさんにちにとーえいびでおから、はつのぜんはなしそふとかとなるでぃーぶいでぃーぼっくすのうえげかんがはつばいされた。	NO_LABEL
大学教授の毛利春彦が設立した、無線愛好家グループ。	だいがくきょーじゅのもーりはるひこがせつりつした、むせんあいこーかぐるーぷ。	NO_LABEL
主に、無線を通じて様々な事件の調査を請け負う。	おもに、むせんをつーじてさまざまなじけんのちょーさをうけおう。	NO_LABEL
その活動内容は、未知の生物との接触から非行少女の更生まで多岐にわたる。	そのかつどーないよーわ、みちのせいぶつとのせっしょくからひこーしょーじょのこーせいまでたきにわたる。	NO_LABEL
民間のボランティアであるため警察のような権限はないが、毛利が発明した秘密兵器などを駆使して事件に対処する。	みんかんのぼらんてぃあであるためけいさつのよーなけんげんわないが、もーりがはつめいしたひみつへいきなどをくししてじけんにたいしょする。	NO_LABEL
また、無線愛好家のネットワークは情報の伝達に欠かせない。	また、むせんあいこーかのねっとわーくわじょーほーのでんたつにかかせない。	NO_LABEL
上記のように、無線装置を所有する者なら誰でも無線を通じて協力することが可能なため、世界中の無線愛好家が協力者と言える。	じょーきのよーに、むせんそーちをしょゆーするものならだれでもむせんをつーじてきょーりょくすることがかのーなため、せかいじゅーのむせんあいこーかがきょーりょくしゃといえる。	NO_LABEL
顧問の毛利以外のメンバーには、左胸に「10-4・10-10」のロゴが入ったユニフォームとヘルメット、腕時計型無線機、電波銃が支給されている。	NO_PRONOUNCE	NO_LABEL
専用車両はスバル・レオーネ2ドアクーペを使用。	NO_PRONOUNCE	NO_LABEL
但し、当時発売されていた玩具のトミカでは三菱・ギャランが代用されていた。	NO_PRONOUNCE	NO_LABEL
設定上は「電波特捜隊」という呼称が存在するが、劇中では「毛利チーム」と呼ばれる。	NO_PRONOUNCE	NO_LABEL
10-1と10-15については、番組本編終了後の10コード解説コーナーより。	NO_PRONOUNCE	NO_LABEL
主題歌は、フルサイズとテレビサイズが別々に録音された。	しゅだいかわ、ふるさいずとてれびさいずがべつべつにろくおんされた。	NO_LABEL
しかし、テレビサイズがそのまま使われたのは第1話のみ。	しかし、てれびさいずがそのままつかわれたのわだいいちわのみ。	NO_LABEL
第2話以降は曲の一部がフルサイズに差し替えられ、さらにその後、フルサイズを編集したものに変更されている。	だいにわいこーわきょくのいちぶがふるさいずにさしかえられ、さらにそのご、ふるさいずをへんしゅーしたものにへんこーされている。	NO_LABEL
オープニング映像には、カラー放送時代に入ってからの実写特撮としては珍しく、漫画絵を使用している。	おーぷにんぐえいぞーにわ、からーほーそーじだいにはいってからのじっしゃとくさつとしてわめずらしく、まんがえをしよーしている。	NO_LABEL
上記2曲をそれぞれ収録したレコードは、キャニオン・レコード、東芝レコード、東宝レコードなど、複数社より発売されたことが確認されている。	じょーきにきょくをそれぞれしゅーろくしたれこーどわ、きゃにおんれこーど、とーしばれこーど、とーほーれこーどなど、ふくすーしゃよりはつばいされたことがかくにんされている。	NO_LABEL
※ノンクレジット	NO_PRONOUNCE	NO_LABEL
