南田温泉は、青森県平川市にある温泉。	みなみだおんせんわ、あおもりけんひらかわしにあるおんせん。	NO_LABEL
弘南鉄道平賀駅から徒歩10分と立地はいいが、周辺は集落や水田である。	こうなんてつどーひらかえきからとほじゅっぷんとりっちわいいが、しゅーへんわしゅーらくやすいでんである。	NO_LABEL
宿泊可能な施設が1軒ある。	NO_PRONOUNCE	NO_LABEL
旧平賀町に位置するため、平賀温泉郷にも属する。	きゅーひらかまちにいちするため、ひらかおんせんきょーにもぞくする。	NO_LABEL
温泉開発は1971年。	おんせんかいはつわせんきゅうひゃくななじゅういちねん。	NO_LABEL
りんご移出商をしていた社長が従業員の厚生及び地域振興のため温泉を掘削した。	りんごいしゅつしょーをしていたしゃちょーがじゅーぎょーいんのこーせいおよびちーきしんこーのためおんせんをくっさくした。	NO_LABEL
