浅倉 舞は、日本のAV女優。	あさくらまいわ、にっぽんのえーぶいじょゆー。	NO_LABEL
1990年代に活動した。	せんきゅうひゃくきゅうじゅうねんだいにかつどーした。	NO_LABEL
1992年3月、葉山レイコ、星野ひかるに続き、芳友舎・ティファニーの看板シリーズ「処女宮」に出演し、AVデビュー。	NO_PRONOUNCE	NO_LABEL
デビュー作のキャッチコピーは『衝撃度は、葉山レイコを凌ぎ／過激度は、星野ひかるをも超える』。	NO_PRONOUNCE	NO_LABEL
「お嬢様」レーベル・ティファニーのイメージを体現した可憐さと、高級クラブのホステスを思わせる雰囲気をあわせ持っていた。	NO_PRONOUNCE	NO_LABEL
グラビア活動などでAV出演を公にしない「パブNG」のAV女優が増えていた中、両親公認のもとで積極的なメディア展開を行い、白石ひとみ、飯島愛、憂木瞳らとともに、1990年代前半を代表する人気AVアイドルの一人として活躍した。	NO_PRONOUNCE	NO_LABEL
1995年の引退までに40本近いAVを全て芳友舎系レーベルからリリースし、AV不況の中にあって、同社の屋台骨を支えたなどと言われる。	せんきゅうひゃくきゅうじゅうごねんのいんたいまでによんじゅっぽんちかいえーぶいをすべてほーゆーしゃけいれーべるからりりーすし、えーぶいふきょーのなかにあって、どーしゃのやたいぼねをささえたなどといわれる。	NO_LABEL
1992年に設立された複数キャストのレーベル、エイトマンにしばしば起用されたため、出演作に占める単独名義作品の割合は比較的少ない。	せんきゅうひゃくきゅうじゅうにねんにせつりつされたふくすーきゃすとのれーべる、えいとまんにしばしばきよーされたため、しゅつえんさくにしめるたんどくめいぎさくひんのわりあいわひかくてきすくない。	NO_LABEL
元プロ野球選手でAV愛好家として知られる松井秀喜も浅倉舞のファンで、ソープランド在籍の話を聞き「是非行きたい！」と思ったが念願は叶わなかったようである。	NO_PRONOUNCE	NO_LABEL
その後吉原の高級ソープランドを経て、1999年1月に『Revival』でカムバック。	NO_PRONOUNCE	NO_LABEL
容姿はやや円熟味を帯びたものの、根強いファンに歓迎され、AV8本とVシネマ1本を残した。	よーしわややえんじゅくみをおびたものの、ねずよいふぁんにかんげいされ、えーぶいはっぽんとぶいしねまいっぽんをのこした。	NO_LABEL
