クリエイティブとは、広告などの制作物のこと。	くりえいてぃぶとわ、こーこくなどのせいさくぶつのこと。	NO_LABEL
英語では本来形容詞であるが、広告用語では名詞として使用される。	えいごでわほんらいけいよーしであるが、こーこくよーごでわめいしとしてしよーされる。	NO_LABEL
物理的な制作物自体や媒体のことではなく、主に新聞・雑誌広告・CMなどのマス広告や、広報・CI・キャンペーンなどにおいて、クリエイターによって考案・計画・制作されたコンテンツを指す。	NO_PRONOUNCE	NO_LABEL
企画・グラフィック・コピーなどのアイディアや表現によって構成されたもの。	NO_PRONOUNCE	NO_LABEL
広告代理店においては、アートディレクターやデザイナー、コピーライターなどといったクリエイターが在籍する制作部門のことを指す場合もある。	こーこくだいりてんにおいてわ、あーとでぃれくたーやでざいなー、こぴーらいたーなどといったくりえいたーがざいせきするせいさくぶもんのことをさすばあいもある。	NO_LABEL
