1984年のアメリカンリーグチャンピオンシップシリーズは、1984年10月2日から10月5日まで行われたMLBアメリカンリーグのリーグチャンピオンシップシリーズである。	せんきゅうひゃくはちじゅうよねんのあめりかんりーぐちゃんぴおんしっぷしりーずわ、せんきゅうひゃくはちじゅうよねんじゅーがつふつかからじゅーがついつかまでおこなわれたえむえるびーあめりかんりーぐのりーぐちゃんぴおんしっぷしりーずである。	NO_LABEL
3戦先取制はこの年が最後となり、翌年から4戦先取制に移行した。	さんせんせんしゅせいわこのとしがさいごとなり、よくねんからよんせんせんしゅせいにいこーした。	NO_LABEL
1984年の対戦は、東地区のデトロイト・タイガースと、西地区のカンザスシティ・ロイヤルズとの対戦となった。	せんきゅうひゃくはちじゅうよねんのたいせんわ、ひがしちくのでとろいとたいがーすと、にしちくのかんざすしてぃろいやるずとのたいせんとなった。	NO_LABEL
結果は、3勝0敗でデトロイト・タイガースが16年ぶり9回目のリーグ優勝。	NO_PRONOUNCE	NO_LABEL
ワールドシリーズへ進出した。	わーるどしりーずえしんしゅつした。	NO_LABEL
MVPは打率.417、1本塁打、2打点の成績を残したカーク・ギブソンが受賞した。	NO_PRONOUNCE	NO_LABEL
表中のRは得点、Hは安打、Eは失策を示す。	NO_PRONOUNCE	NO_LABEL
日付は現地時間。	ひずけわげんちじかん。	NO_LABEL
ミズーリ州カンザスシティ - カウフマン・スタジアム	NO_PRONOUNCE	NO_LABEL
ミズーリ州カンザスシティ - カウフマン・スタジアム	NO_PRONOUNCE	NO_LABEL
ミシガン州デトロイト - タイガー・スタジアム	NO_PRONOUNCE	NO_LABEL
