ラースロー・ヘルタイは、ハンガリー出身、イギリス国籍の指揮者、合唱指揮者。	らーすろーへるたいわ、はんがりーしゅっしん、いぎりすこくせきのしきしゃ、がっしょーしきしゃ。	NO_LABEL
ブダペストに生まれ、リスト音楽院でコダーイとバールドシュに師事する。	ぶだぺすとにうまれ、りすとおんがくいんでこだーいとばーるどしゅにしじする。	NO_LABEL
1957年にイギリスに帰化し、1964年にニュージーランド交響楽団の副指揮者、ニュージーランド・オペラの音楽監督となる。	NO_PRONOUNCE	NO_LABEL
イギリスに帰国後、オットー・クレンペラーのアシスタントとなるが、1967年にはブライトン・フェスティバルに招かれ、ブライトン・フェスティバル合唱団の創設に携わり、その音楽監督となる。	NO_PRONOUNCE	NO_LABEL
また1975年にはアカデミー室内管弦楽団に付属する合唱団を創設し、1999年まで合唱指揮者を務めた。	またせんきゅうひゃくななじゅうごねんにわあかでみーしつないかんげんがくだんにふぞくするがっしょーだんをそーせつし、せんきゅうひゃくきゅうじゅうきゅうねんまでがっしょーしきしゃをつとめた。	NO_LABEL
さらにメレディス・デイヴィスの後を受けてロイヤル・コーラル・ソサエティの常任指揮者となり、1993年までその職にあった。	NO_PRONOUNCE	NO_LABEL
現在はバルセロナに在住し、活動を続けている。	げんざいわばるせろなにざいじゅーし、かつどーをつずけている。	NO_LABEL
