戦極 〜第五陣〜は、日本の総合格闘技団体「戦極」の大会の一つ。	NO_PRONOUNCE	NO_LABEL
2008年9月28日、東京都渋谷区の国立代々木競技場第一体育館で開催された。	にせんはちねんくがつにじゅうはちにち、とーきょーとしぶやくのこくりつよよぎきょーぎじょーだいいちたいいくかんでかいさいされた。	NO_LABEL
戦極ミドル級グランプリシリーズ2008が開幕し、1回戦4試合が行われた。	NO_PRONOUNCE	NO_LABEL
メインイベントではシャンジ・ヒベイロが総合格闘技デビューを果たし、プロレスリング・ノアの杉浦貴にTKO勝ち。	めいんいべんとでわしゃんじひべいろがそーごーかくとーぎでびゅーをはたし、ぷろれすりんぐのあのすぎうらたかしにてぃーけーおーがち。	NO_LABEL
トラビス・ビューと対戦予定であったホジャー・グレイシーは負傷により欠場となり、6月の北京オリンピック米国代表選考会の決勝で敗退したキング・モーと対戦した。	とらびすびゅーとたいせんよていであったほじゃーぐれいしーわふしょーによりけつじょーとなり、ろくがつのぺきんおりんぴっくべいこくだいひょーせんこーかいのけっしょーではいたいしたきんぐもーとたいせんした。	NO_LABEL
