文教台は、愛知県名古屋市名東区の地名。	ぶんきょーだいわ、あいちけんなごやしめいとーくのちめい。	NO_LABEL
文教台一丁目と文教台二丁目がある。	ぶんきょーだいいっちょーめとぶんきょーだいにちょーめがある。	NO_LABEL
郵便番号は465-0012。	NO_PRONOUNCE	NO_LABEL
当地域の人口は892世帯・2098人。	NO_PRONOUNCE	NO_LABEL
住居表示未実施。	じゅーきょひょーじみじっし。	NO_LABEL
名古屋市名東区北部に位置する。	なごやしめいとーくほくぶにいちする。	NO_LABEL
東は猪子石三丁目・猪高台一丁目・猪高台二丁目、西は赤松台・若葉台、南は上菅二丁目、北は猪子石一丁目に接する。	NO_PRONOUNCE	NO_LABEL
国勢調査による人口の推移	こくせいちょうさによるじんこーのすいい	NO_LABEL
図書館がある丘陵地であることに由来する。	としょかんがあるきゅーりょーちであることにゆらいする。	NO_LABEL
