愛発村は福井県敦賀郡にあった村。	あいはつむらわふくいけんつるがぐんにあったむら。	NO_LABEL
現在の敦賀市の南東部にあたる。	げんざいのつるがしのなんとーぶにあたる。	NO_LABEL
現在は旧村域の現・北陸本線に新疋田駅が所在するが、当時は未開業。	NO_PRONOUNCE	NO_LABEL
現在は旧村域に北陸自動車道の刀根パーキングエリアが所在するが、当時は未開通。	げんざいわきゅーそんいきにほくりくじどーしゃどーのとねぱーきんぐえりあがしょざいするが、とーじわみかいつー。	NO_LABEL
