ライオンケミカル株式会社は、和歌山県有田市に本社を置く化学工業メーカー。	らいおんけみかるかぶしきがいしゃわ、わかやまけんありだしにほんしゃをおくかがくこうぎょーめーかー。	NO_LABEL
主に蚊取線香や入浴剤などの製造を行う。	おもにかとりせんこーやにゅーよくざいなどのせいぞーをおこなう。	NO_LABEL
1885年創業。	せんはっぴゃくはちじゅうごねんそーぎょー。	NO_LABEL
1943年には、世界初の蚊取線香自動製造機を開発した。	せんきゅうひゃくよんじゅうさんねにわ、せかいはつのかとりせんこーじどーせいぞーきをかいはつした。	NO_LABEL
1961年には、業界の発展を願う当時の経営陣がこの特許を公開。	せんきゅうひゃくろくじゅういちねんにわ、ぎょーかいのはってんをねがうとーじのけいえいじんがこのとっきょをこーかい。	NO_LABEL
しかし技術が国外に流出して輸出が激減し、これに起因した人事騒動が起きて経営危機に陥った。	しかしぎじゅつがこくがいにりゅーしゅつしてゆしゅつがげきげんし、これにきいんしたじんじそーどーがおきてけいえいききにおちいった。	NO_LABEL
1973年にライオン歯磨と業務提携、営業部門を廃し同社の生産受託に専念した。	せんきゅうひゃくななじゅうさんねんにらいおんはみがきとぎょーむていけい、えいぎょーぶもんをはいしどーしゃのせいさんじゅたくにせんねんした。	NO_LABEL
その後、外資系のジョンソンに売却されたのち、1999年には、同じ有田市に所在し原材料の取引関係があった、株式会社三和の子会社となった。	そのご、がいしけいのじょんそんにばいきゃくされたのち、せんきゅうひゃくきゅうじゅうきゅうねんにわ、おなじありだしにしょざいしげんざいりょーのとりひきかんけいがあった、かぶしきがいしゃさんわのこがいしゃとなった。	NO_LABEL
消臭剤や洗浄剤などの独自商品の開発を行ったほか、三和出身の社長の発案により、天然除虫菊を使用した蚊取線香の製造も行う。	しょーしゅうざいやせんじょーざいなどのどくじしょーひんのかいはつをおこなったほか、さんわしゅっしんのしゃちょーのはつあんにより、てんねんじょちゅーぎくをしよーしたかとりせんこーのせいぞーもおこなう。	NO_LABEL
この蚊取線香の製造には、「1号機」も使用されている。	NO_PRONOUNCE	NO_LABEL
