愛媛県道335号松山川内自転車道線は、愛媛県松山市市坪西町から東温市北方を結ぶ一般県道である。	えひめけんどーさんびゃくさんじゅうごごーまつやまかわうちじてんしゃどーせんわ、えひめけんまつやましいちつぼにしまちからとうおんしきたがたをむすぶいっぱんけんどーである。	NO_LABEL
なお、本路線は「重信川自転車道」として整備されている自転車道の一部である。	NO_PRONOUNCE	NO_LABEL
松山中央公園より重信川沿いを通り、伊予郡砥部町の愛媛県総合運動公園などの県の主要施設付近を通り、えひめこどもの城付近で折り返し、再び重信川沿いに戻り、東温市の国道11号との交点付近を結んでいる。	まつやまちゅーおーこーえんよりしげのぶがわぞいをとーり、いよぐんとべちょーのえひめけんそーごーうんどーこーえんなどのけんのしゅよーしせつふきんをとーり、えひめこどものしろふきんでおりかえし、ふたたびしげのぶがわぞいにもどり、とうおんしのこくどーじゅういちごーとのこーてんふきんをむすんでいる。	NO_LABEL
単独区間は自転車・歩行者専用道路であり、一般車両の通行は禁止されている。	NO_PRONOUNCE	NO_LABEL
ただし、河川の管理用の車両が通行することがある。	ただし、かせんのかんりよーのしゃりょーがつーこーすることがある。	NO_LABEL
重複区間は一般道であり、自転車専用道ではない。	ちょうふくくかんわいっぱんどーであり、じてんしゃせんよーどーでわない。	NO_LABEL
重複区間には市道なども含まれるが、ここでは省略する。	ちょうふくくかんにわしどーなどもふくまれるが、ここでわしょーりゃくする。	NO_LABEL
重信川自転車道は、重信川の河川敷を利用し、松山市から東温市に至る延長24.5kmの自転車歩行車道で、重信川沿いの良好な自然環境を満喫することができ、地域住民の通勤通学等の日常生活の利便性・安全性の向上にも役立っている。	NO_PRONOUNCE	NO_LABEL
