スタンフォード・ロー・スクールは、カリフォルニア州パロアルト市にあるスタンフォード大学のロー・スクールである。	すたんふぉーどろーすくーるわ、かりふぉるにあしゅーぱろあるとしにあるすたんふぉーどだいがくのろーすくーるである。	NO_LABEL
1893年に設立。	せんはっぴゃくきゅうじゅうさんねにせつりつ。	NO_LABEL
法科大学院としてはハーバード・ロー・スクールやイェール・ロー・スクールと並ぶ名門であり、全米ロー・スクール・ランキングでは１９９２年以降、２５年間にわたって常にイェール、ハーバードと並ぶ全米トップ３のロー・スクールとしてにランキングし続けている。	NO_PRONOUNCE	NO_LABEL
合衆国最高裁判所での初めての女性判事であるサンドラ・デイ・オコナーや合衆国最高裁判所の首席判事であるウィリアム・レンキストを輩出したことで有名。	がっしゅーこくさいこーさいばんしょでのはじめてのじょせいはんじであるさんどらでいおこなーやがっしゅーこくさいこーさいばんしょのしゅせきはんじであるうぃりあむれんきすとをはいしゅつしたことでゆーめい。	NO_LABEL
