中島 敏次郎は、日本の外交官。	なかじまとしじろーわ、にっぽんのがいこーかん。	NO_LABEL
条約局長、北米局長、駐シンガポール大使、外務審議官、駐オーストラリア大使、駐中国大使、最高裁判所判事、皇室参与、あさひ法律事務所顧問等を歴任。	じょーやくきょくちょー、ほくべいきょくちょー、ちゅーしんがぽーるたいし、がいむしんぎかん、ちゅーおーすとらりあたいし、ちゅーちゅーごくたいし、さいこーさいばんしょはんじ、こーしつさんよ、あさひほーりつじむしょこもんとーをれきにん。	NO_LABEL
妻は第61代警視総監、のちに自由民主党衆議院議員、田中栄一の次女であった康子。	つまわだいろくじゅういちだいけいしそーかん、のちにじゆーみんしゅとーしゅーぎーんぎーん、たなかえいーちのじじょであったやすこ。	NO_LABEL
東京都港区生まれ。	とーきょーとみなとくうまれ。	NO_LABEL
中島房吉、中島静子の間の４人兄弟の二男として生まれる。	なかじまふさきち、なかじましずこのまのよにんきょーだいのじなんとしてうまれる	NO_LABEL
旧制第一高等学校、東京大学法学部を卒業し、1948年に外務省入省。	きゅーせいだいちこーとーがっこー、とーきょーだいがくほーがくぶをそつぎょーし、せんきゅうひゃくよんじゅうはちねにがいむしょーにゅーしょー。	NO_LABEL
中国、北京に在中国日本国特命全権大使として在留中に六四天安門事件が起こり、中国にいた邦人を無事国外に避難させた。	ちゅーごく、ぺきんにざいちゅーごくにっぽんこくとくめいぜんけんたいしとしてざいりゅーちゅーにろくよんてんあんもんじけんがおこり、ちゅーごくにいたほーじんをぶじこくがいにひなんさせた。	NO_LABEL
婚外子相続差別訴訟の1995年7月5日の最高裁大法廷の判決では民法の婚外子相続差別規定を合憲とする多数意見に対して、違憲とする少数意見を表明した。	こんがいしそーぞくさべつそしょーのせんきゅうひゃくきゅうじゅうごねんしちがついつかのさいこーさいだいほーていのはんけつでわみんぽーのこんがいしそーぞくさべつきていをごーけんとするたすーいけんにたいして、いけんとするしょーすーいけんをひょーめいした。	NO_LABEL
