平成10年台風第5号は、1998年9月14日に発生し、東日本に被害をもたらした台風である。	へいせいじゅうねんたいふーだいごごーわ、せんきゅうひゃくきゅうじゅうはちねんくがつじゅうよっかにはっせいし、ひがしにっぽんにひがいをもたらしたたいふーである。	NO_LABEL
9月14日に発生した台風第5号は日本の南海上を北上し、静岡県の南海上で965ヘクトパスカルの勢力まで発達した。	NO_PRONOUNCE	NO_LABEL
9月16日4時半頃静岡県御前崎付近に上陸し、関東地方から東北地方を通り、青森県から太平洋へ抜け、16日20時過ぎ北海道釧路市付近に再上陸した。	くがつじゅうろくにちよじはんごろしずおかけんおまえざきふきんにじょーりくし、かんとーちほーからとーほくちほーをとーり、あおもりけんからたいへいよーえぬけ、じゅうろくにちにじゅうじすぎほっかいどーくしろしふきんにさいじょーりくした。	NO_LABEL
その後、北海道東部を通過し、9月17日3時には千島列島近海まで進み温帯低気圧に変わった。	そのご、ほっかいどーとーぶをつーかし、くがつじゅうしちにちさんじにわちしまれっとーきんかいまですすみおんたいていきあつにかわった。	NO_LABEL
