ジョン・バン・ウィ・バーガミニーは、アメリカ合衆国人ミッション系の建築家である。	NO_PRONOUNCE	NO_LABEL
息子は『天皇の陰謀』『数の世界』『宇宙』などの著書で知られる数学者、物理学者のデビッド・バーガミニー。	NO_PRONOUNCE	NO_LABEL
来日前、バーガミニーは中国の現在湖北省武漢市である漢口の英国人租界にいたことが知られ、1926年頃、関東大震災による聖公会関係施設復興のため、エピスコパル宣教団から派遣されたと考えられている。	らいにちまえ、ばーがみにーわちゅーごくのげんざいこほくしょーぶかんしであるかんぐちのえいこくじんそかいにいたことがしられ、せんきゅうひゃくにじゅうろくねんごろ、かんとーだいしんさいによるせいこーかいかんけいしせつふっこーのため、えぴすこぱるせんきょーだんからはけんされたとかんがえられている。	NO_LABEL
1928年には子息デビッドが東京で誕生している。	せんきゅうひゃくにじゅうはちねんにわしそくでびっどがとーきょーでたんじょーしている。	NO_LABEL
1938年に離日しその後一家で漢口にもどり、上海を経てフィリピンに1943年ごろ渡っているが、終戦前に収容所に収容され、1945年にアメリカ軍に救出されたとされる。	せんきゅうひゃくさんじゅうはちねにりにちしそのごいっかでかんこーにもどり、しゃんはいをへてふぃりぴんにせんきゅうひゃくよんじゅうさんねごろわたっているが、しゅーせんまえにしゅーよーじょにしゅーよーされ、せんきゅうひゃくよんじゅうごねんにあめりかぐんにきゅーしゅつされたとされる。	NO_LABEL
