『三船敏郎シリーズ』は、1968年4月27日から同年9月21日まで日本テレビ系列局で放送されていた日本テレビ製作の映画番組である。	NO_PRONOUNCE	NO_LABEL
全11回。	ぜんじゅういっかい。	NO_LABEL
放送時間は毎週土曜 20:00 - 21:26。	NO_PRONOUNCE	NO_LABEL
プロ野球ナイター中継の雨傘番組として編成されていた番組で、毎回三船敏郎の主演映画を放送していた。	ぷろやきゅーないたーちゅーけいのあまがさばんぐみとしてへんせいされていたばんぐみで、まいかいみふねとしろーのしゅえんえいがをほーそーしていた。	NO_LABEL
あくまでも雨傘扱いなので当初は月に1 - 2回程度の放送に留まっていたが、同年8月以降はナイターの雨天中止が多くなったことから放送回数が増えた。	NO_PRONOUNCE	NO_LABEL
▲マークのある作品は、ナイター中継の雨天中止によって放送に至ったもの。	NO_PRONOUNCE	NO_LABEL
参考：	NO_PRONOUNCE	NO_LABEL
