雪ほたかは、群馬県利根郡川場村のブランド米。	ゆきほたかわ、ぐんまけんとねぐんかわばむらのぶらんどまい。	NO_LABEL
生産量は少ないが全国最大のお米のコンクールで９年連続入賞をはたしており、生産組合が法人化された株式会社雪ほたかで栽培管理、販売を行っている。	せいさんりょーわすくないがぜんこくさいだいのおこめのこんくーるできゅーねんれんぞくにゅーしょーをはたしており、せいさんくみあいがほーじんかされたかぶしきがいしゃゆきほたかでさいばいかんり、はんばいをおこなっている。	NO_LABEL
株式会社雪ほたかに出資する生産者の米であること、かつ同社を通じて出荷されることをブランド米「雪ほたか」を名乗ることのできる条件としている。	NO_PRONOUNCE	NO_LABEL
