NIIZEKI STUDIOは、建築家の新関謙一郎率いる建築設計事務所。	NO_PRONOUNCE	NO_LABEL
2004年に一級建築士事務所 きき より、NIIZEKI STUDIO に改組。	NO_PRONOUNCE	NO_LABEL
外部からは四角い箱のように閉じた空間を作りつつ、中からは開放感あふれるモダンな存在感の豊かな住宅設計が多く、	がいぶからわしかくいはこのよーにとじたくーかんをつくりつつ、ちゅーからわかいほーかんあふれるもだんなそんざいかんのゆたかなじゅーたくせっけいがおーく、	NO_LABEL
鉄筋コンクリート組積造や和紙左官仕上げの壁、光の取り入れ方などに特徴のある作品が得意。	てっきんこんくりーとそせきぞーやわしさかんしあげのかべ、ひかりのとりいれかたなどにとくちょーのあるさくひんがとくい。	NO_LABEL
住宅設計以外ではショップインテリアのコーディネートや墓石のデザインなども行った一風変わった実績もある。	じゅーたくせっけいいがいでわしょっぷいんてりあのこーでぃねーとやはかいしのでざいんなどもおこなったいっぷーかわったじっせきもある。	NO_LABEL
