『ホテル・ルワンダ』は、ルワンダ虐殺を扱った2004年制作の映画。	NO_PRONOUNCE	NO_LABEL
テリー・ジョージ監督、イギリス・イタリア・南アフリカ共和国合作。	NO_PRONOUNCE	NO_LABEL
1994年、ルワンダで勃発したルワンダ虐殺によりフツ族過激派が同族の穏健派やツチ族を120万人以上虐殺するという状況の中、1200名以上の難民を自分が働いていたホテルに匿ったホテルマン、ポール・ルセサバギナの実話を基にした物語である。	NO_PRONOUNCE	NO_LABEL
フツ族の過激派は、ツチ族反乱軍によって排除されるまで、およそ100日間に約80万人の人々を殺害した。	ふつぞくのかげきはわ、つちぞくはんらんぐんによってはいじょされるまで、およそひゃくにちかんにやくはちじゅうまんにんのひとびとをさつがいした。	NO_LABEL
映画の最後に映し出される文章によって、フツ族の将軍など虐殺の指導者達が裁かれたことが示される。	えいがのさいごにうつしだされるぶんしょーによって、ふつぞくのしょーぐんなどぎゃくさつのしどーしゃたちがさばかれたことがしめされる。	NO_LABEL
原作はなく、ルセサバギナの自伝『An Ordinary Man』が2006年4月に出版された。	NO_PRONOUNCE	NO_LABEL
オリバー大佐のモデルは、ロメオ・ダレールという人物。	おりばーたいさのもでるわ、ろめおだれーるとゆうじんぶつ。	NO_LABEL
舞台となったホテル「オテル・デ・ミル・コリン」は、現在では営業を再開している。	NO_PRONOUNCE	NO_LABEL
撮影のほとんどは南アフリカで行われた。	さつえいのほとんどわみなみあふりかでおこなわれた。	NO_LABEL
フツ族の過激派が巻き起こした混乱状態の中で、ホテルの副支配人だったポールは自分の家族を救うことだけを考えた。	ふつぞくのかげきはがまきおこしたこんらんじょーたいのなかで、ほてるのふくしはいにんだったぽーるわじぶんのかぞくをすくうことだけをかんがえた。	NO_LABEL
しかし、虐殺が始まったことを知り、その重大さに気がついた彼はホテルにツチ族やフツ族の難民をともに受け入れることを決断する。	しかし、ぎゃくさつがはじまったことをしり、そのじゅーだいさにきがついたかれわほてるにつちぞくやふつぞくのなんみんをともにうけいれることをけつだんする。	NO_LABEL
無力ながらも踏みとどまり続ける国連軍や有名ホテルとしてのステータスを盾に人々を過激派からかばい続ける一方で、ホテルの支配人として培った人間関係を利用して彼は1268人の難民の命を救うことに奔走する。	NO_PRONOUNCE	NO_LABEL
※括弧内は日本語吹き替え	NO_PRONOUNCE	NO_LABEL
アカデミー賞やゴールデングローブ賞にノミネートされるなど、世界での評価は高かったが、日本においては当初、映画配給会社や映画館も関心を示してはいたものの、映画が虐殺を扱いラブストーリーも無い、重い内容であった事と、映画配給権の値段が当初から高めであった事に加えて、ドン・チードルがアカデミー賞にノミネートされ、更に配給価格が高騰した事などが要因となり、日本の映画館で未上映になる可能性があった。	あかでみーしょーやごーるでんぐろーぶしょーにのみねーとされるなど、せかいでのひょーかわたかかったが、にっぽんにおいてわとーしょ、えいがはいきゅーかいしゃやえいがかんもかんしんをしめしてわいたものの、えいががぎゃくさつをあつかいらぶすとーりーもない、おもいないよーであったことと、えいがはいきゅーけんのねだんがとーしょからたかめであったじにくわえて、どんちーどるがあかでみーしょーにのみねーとされ、さらにはいきゅーかかくがこーとーしたことなどがよーいんとなり、にっぽんのえいがかんでみじょーえいになるかのーせいがあった。	NO_LABEL
しかし、映画評論家の町山智浩や映画ファンの呼びかけにより、上映への署名運動が始まり、2006年1月14日から、メディアスーツ配給で東京都渋谷区の『シアターN』を初めとして、関東地方の映画館でも公開され、その後東京都以外の都市でも順次公開された。	NO_PRONOUNCE	NO_LABEL
