カール・エルンストは、ドイツの政治家。	かーるえるんすとわ、どいつのせいじか。	NO_LABEL
国家社会主義ドイツ労働者党の突撃隊幹部。	こっかしゃかいしゅぎどいつろーどーしゃとーのとつげきたいかんぶ。	NO_LABEL
長いナイフの夜の際に粛清された人物の一人。	ながいないふのよるのさいにしゅくせいされたじんぶつのひとり。	NO_LABEL
ベルリン出身。	べるりんしゅっしん。	NO_LABEL
ナチス入党前にはホテルでベルボーイをしたり、同性愛者のナイトクラブで用心棒をしていた。	なちすにゅーとーまえにわほてるでべるぼーいをしたり、どーせいあいしゃのないとくらぶでよーじんぼーをしていた。	NO_LABEL
ナチスが政権を掌握した後の1933年の初め頃には突撃隊中将、またベルリンの突撃隊指導者となっていた。	なちすがせいけんをしょーあくしたのちのせんきゅうひゃくさんじゅうさんねのはじめごろにわとつげきたいちゅーじょー、またべるりんのとつげきたいしどーしゃとなっていた。	NO_LABEL
1933年2月27日に起こったドイツ国会議事堂放火事件の際にも彼はこの地位にあった。	せんきゅうひゃくさんじゅうさんねにがつにじゅうしちにちにおこったどいつこっかいぎじどーほーかじけんのさいにもかれわこのちいにあった。	NO_LABEL
この放火事件の犯人としてオランダ共産党員のマリヌス・ファン・デア・ルッベが逮捕されているが、プロイセン州内相ヘルマン・ゲーリングの命令を受けたカール・エルンストが放火をさせたという説もある。	このほーかじけんのはんにんとしておらんだきょーさんとーいんのまりぬすふぁんであるっべがたいほされているが、ぷろいせんしゅーないしょーへるまんげーりんぐのめいれいをうけたかーるえるんすとがほーかをさせたとゆうせつもある。	NO_LABEL
その後、突撃隊幕僚長のエルンスト・レーム以下突撃隊幹部は、「第二革命」を唱えて貴族階級が支配する国防軍の廃止と突撃隊の国防軍化を主張した。	NO_PRONOUNCE	NO_LABEL
そのため軍部とナチス政権の間で軋轢が生じた。	そのためぐんぶとなちすせいけんのまであつれきがしょーじた。	NO_LABEL
総統アドルフ・ヒトラーは1934年6月下旬に長いナイフの夜を起こして突撃隊幹部の粛清に踏み切った。	そーとーあどるふひとらーわせんきゅうひゃくさんじゅうよねんろくがつげじゅんにながいないふのよるをおこしてとつげきたいかんぶのしゅくせいにふみきった。	NO_LABEL
この時、カール・エルンストはポルトガル領マデイラ諸島へ新婚旅行へ出ていた。	このとき、かーるえるんすとわぽるとがるりょーまでいらしょとーえしんこんりょこーえでていた。	NO_LABEL
親衛隊の分遣隊がエルンストを追って来て彼の妻と運転手に傷害を加えたうえ、彼自身もベルリンへと連れ戻された。	しんえいたいのぶんけんたいがえるんすとをおってきてかれのつまとうんてんしゅにしょーがいをくわえたうえ、かれじしんもべるりんえとつれもどされた。	NO_LABEL
6月30日に他の150名の突撃隊幹部とともに親衛隊のリヒターフェルデ士官学校においてLSSAHによって銃殺された。	NO_PRONOUNCE	NO_LABEL
エルンストは最期の瞬間まで保守派・大資本家の反乱だと思い込んでおり、最期の瞬間に「ハイル・ヒトラー!」と叫んだという。	NO_PRONOUNCE	NO_LABEL
