金星とは、大相撲で、平幕の力士が横綱と取組をして勝利することである。	かなぼしとわ、おーずもーで、ひらまくのりきしがよこずなととりくみをしてしょーりすることである。	NO_LABEL
三役以上が横綱に勝っても金星にはならず、普通に白星と呼ばれる。	さんやくいじょーがよこずなにかってもきんぼしにわならず、ふつーにしろぼしとよばれる。	NO_LABEL
『金星』という言葉は大正期から見られ、1930年に金星は昇給の対象とされた。	NO_PRONOUNCE	NO_LABEL
金星を獲得すると力士褒賞金の支給標準額が10円の増加となる。	きんぼしをかくとくするとりきしほーしょーきんのしきゅーひょーじゅんがくがじゅうえんのぞーかとなる。	NO_LABEL
これは、勝ち越し20点分に相当し、獲得場所に負け越しても本場所ごとの褒賞金の支給額が、10円を4000倍した4万円まるまる昇給となる。	これわ、かちこしにじゅってんぶんにそーとーし、かくとくばしょにまけこしてもほんばしょごとのほーしょーきんのしきゅーがくが、じゅうえんをよんせんばいしたよんまんえんまるまるしょーきゅーとなる。	NO_LABEL
ただし、不戦勝や反則勝ちの場合は金星扱いにはならない7月場所5日目、横綱朝青龍の反則負けに際して、勝利した前頭2枚目旭鷲山に対し金星不適用が確認された。	ただし、ふせんしょーやはんそくがちのばあいわかなぼしあつかいにわならないしちがつばしょいつか、よこずなあさしょうりゅーのはんそくまけにさいして、しょーりしたまえがしらにまいめきょくしゅーざんにたいしかなぼしふてきよーがかくにんされた。	NO_LABEL
2014年9月場所4日目に、横綱日馬富士の反則負けに際して、勝利した前頭3枚目嘉風にも金星は適用されなかった）。	NO_PRONOUNCE	NO_LABEL
また、勇み足など非技・勝負結果での勝利は金星になる。	NO_PRONOUNCE	NO_LABEL
また、優勝決定戦での勝利も、それ自体は番付の昇降や持ち給金にはかかわらないものなので、これも金星にはならないと考えられる。	また、ゆーしょーけっていせんでのしょーりも、それじたいわばんずけのしょーこーやもちきゅーきんにわかかわらないものなので、これもきんぼしにわならないとかんがえられる。	NO_LABEL
なお、過去に決定戦での平幕-横綱戦は7例あるもののすべて横綱が勝っている。	NO_PRONOUNCE	NO_LABEL
勝ちを白星、負けを黒星と呼ぶことから生まれた表現であると思われる。	かちをしろぼし、まけをくろぼしとよぶことからうまれたひょーげんであるとおもわれる。	NO_LABEL
また、大関に勝つことを俗称として銀星ということがあるが、これは公式記録として集計もされないし、昇給にも関係しない。	また、おーぜきにかつことをぞくしょーとしてぎんぼしとゆうことがあるが、これわこーしききろくとしてしゅーけいもされないし、しょーきゅーにもかんけいしない。	NO_LABEL
しかし銀星や三役力士が大関や横綱に勝った場合でもアナウンサーからインタビューは受ける。	しかしぎんぼしやさんやくりきしがおーぜきやよこずなにかったばあいでもあなうんさーからいんたびゅーわうける。	NO_LABEL
金星を獲得した力士はその場所の勝敗数にもよるが、三賞、特に殊勲賞の選出対象となりやすい。	きんぼしをかくとくしたりきしわそのばしょのしょーはいすーにもよるが、さんしょー、とくにしゅくんしょーのせんしゅつたいしょーとなりやすい。	NO_LABEL
1月場所現在）	NO_PRONOUNCE	NO_LABEL
4個以上獲得した力士のみ	NO_PRONOUNCE	NO_LABEL
＊2018年1月場所終了時点で安美錦は現役だが、朝青龍は2010年1月場所後に引退したため、当該記録が更新される可能性は無い。	NO_PRONOUNCE	NO_LABEL
年六場所制以降、6場所を皆勤してのものとしては、2018年現在まで未記録。	NO_PRONOUNCE	NO_LABEL
年間金星配給最少の記録は1で、大鵬はじめ複数の横綱が記録している。	NO_PRONOUNCE	NO_LABEL
また年間に限らない連続6場所皆勤しての金星なしは白鵬の3回を筆頭に、大鵬、玉の海、北の湖、2代若乃花がそれぞれ1回ずつ記録している。	NO_PRONOUNCE	NO_LABEL
惜しかった例としては1971年の玉の海と2011年の白鵬で、玉の海は9月場所まで金星無しの後の現役死、白鵬は技量審査場所を含め金星配給無しだったが、この年は八百長問題による春場所中止で年5場所だった。	NO_PRONOUNCE	NO_LABEL
休場場所などを考慮せず、単純に「金星配給数÷横綱在位場所数」で見た時、1958年・年6場所制移行後の横綱で「金星配給率」の最も多いのは栃ノ海晃嘉。	NO_PRONOUNCE	NO_LABEL
在位17場所で33個配給は、一場所平均約1.94個になる。	NO_PRONOUNCE	NO_LABEL
それに次ぐのは若乃花勝で、以降は琴櫻傑將、旭富士正也、日馬富士公平が続く。	それにつぐのわわかのはなまさるで、いこーわことざくらまさかつ、あさひふじせいや、はるまふじこーへいがつずく。	NO_LABEL
但し参考として、2018年5月時点で現役の稀勢の里寛が、現時点は栃ノ海に次ぎ琴櫻と並ぶ記録となる。	ただしさんこーとして、にせんじゅうはちねんごがつじてんでげんえきのきせのさとゆたかが、げんじてんわとちのうみにつぎことざくらとならぶきろくとなる。	NO_LABEL
1957年・年6場所制以前の横綱では、男女ノ川登三が最多で、宮城山福松、鏡里喜代治、前田山英五郎、朝潮太郎が続く。	NO_PRONOUNCE	NO_LABEL
逆に、「金星配給率」の最も少ない横綱は2018年3月場所時点で現役の白鵬翔で、在位64場所中で金星配給は18個、一場所で平均約0.28個という驚異的なペースを保っている。	NO_PRONOUNCE	NO_LABEL
また、これまでに皆勤10場所連続金星なしを1度、6場所連続以上を3度記録している。	NO_PRONOUNCE	NO_LABEL
これに次ぐのが玉の海正洋と玉錦三右エ門という二所一門の先輩後輩だが、この2人共に力が衰える前に現役のまま早世した。	これにつぐのがたまのうみまさひろとたまにしきさんえもんとゆうにしょいちもんのせんぱいこーはいだが、このふたりどもにちからがおとろえるまえにげんえきのままそーせいした。	NO_LABEL
彼ら以外での最少は大鵬幸喜で、千代の富士貢、朝青龍明徳、北の富士勝昭が続く。	かれらいがいでのさいしょーわたいほーこうきで、ちよのふじみつぐ、あさしょうりゅうあきのり、きたのふじかつあきがつずく。	NO_LABEL
今後も白鵬が当分の間現役横綱として、1場所1個のペースで金星を配給し続けても、大鵬らのペースを下回ることになる。	NO_PRONOUNCE	NO_LABEL
その他、年6場所制移行前には太刀山峯右エ門など、10場所以上在位しながらも金星を全く配給しなかった横綱も存在する。	NO_PRONOUNCE	NO_LABEL
珍記録としては、金星配給率が「一場所平均でぴったり1」の横綱が昭和以降で3人いる。	NO_PRONOUNCE	NO_LABEL
東富士欽壹、佐田の山晋松、双羽黒光司。	NO_PRONOUNCE	NO_LABEL
現在では横綱が敗れると会場全体から座布団が舞う。	げんざいでわよこずながやぶれるとかいじょーぜんたいからざぶとんがまう。	NO_LABEL
金星を挙げた力士に対する賞賛の意味であるが、実際は土俵上の力士や行司、またその他の観客に座布団が当たるなどして怪我の恐れがあるため、館内では投げないようにと放送が流れる。	きんぼしをあげたりきしにたいするしょーさんのいみであるが、じっさいわどひょーじょーのりきしやぎょーじ、またそのたのかんきゃくにざぶとんがあたるなどしてけがのおそれがあるため、たてうちでわなげないよーにとほーそーがながれる。	NO_LABEL
近年は、座布団同士を繋ぎとめて投げられないようにするなどの対策が取られており、2010年11月場所で稀勢の里が白鵬の連勝記録を止める金星を挙げた際には、座布団が舞うことはなかった。	きんねんわ、ざぶとんどーしをつなぎとめてなげられないよーにするなどのたいさくがとられており、にせんじゅうねんじゅーいちがつばしょできせのさとがはくほーのれんしょーきろくをとめるきんぼしをあげたさいにわ、ざぶとんがまうことわなかった。	NO_LABEL
一方、歴史や文化的観点からこのような対策が取られることに苦言を呈す者もいる。	いっぽー、れきしやぶんかてきかんてんからこのよーなたいさくがとられることにくげんをていすものもいる。	NO_LABEL
