水中翼船、または、ハイドロフォイルとは、推進時に発生する水の抵抗を減らす目的のため、船腹より下に「水中翼」と呼ばれる構造物を持った船。	NO_PRONOUNCE	NO_LABEL
いわゆる排水型と呼ばれる、喫水線以下の船体が水中に沈み込む方式の船は、速度に関係なく浮力を得ることができるが、水による大きな抗力から逃れることはできない。	いわゆるはいすいがたとよばれる、きっすいせんいかのせんたいがすいちゅーにしずみこむほーしきのふねわ、そくどにかんけいなくふりょくをえることができるが、みずによるおーきなこーりょくからのがれることわできない。	NO_LABEL
また抗力は速度の二乗倍で増加し、プロペラ推進の場合は機関の出力を大きくしても40ノットあたりで頭打ちとなる。	NO_PRONOUNCE	NO_LABEL
また、全長に対し全幅を極端に狭くする必要もあり、船の最大の利点でもある積載性をも殺ぐ結果となる。	また、ぜんちょーにたいしぜんぷくをきょくたんにせまくするひつよーもあり、ふねのさいだいのりてんでもあるせきさいせいをもそぐけっかとなる。	NO_LABEL
そこで、さらなる高速化を求めた結果、水との接触面を極端に少なくでき、抵抗を揚力に結びつける効果の高い水中翼船が開発された。	そこで、さらなるこーそくかをもとめたけっか、みずとのせっしょくめんをきょくたんにすくなくでき、ていこーをよーりょくにむすびつけるこーかのたかいすいちゅーよくせんがかいはつされた。	NO_LABEL
低速で水上を航行する際には船体を水面下に浸けて航行するが、高速航行をする際には、仰角のつけられた水中翼から得られる揚力で海面上に船体を持ち上げ、水中翼のみが水中に浸っている形になる。	ていそくですいじょーをこーこーするさいにわせんたいをすいめんかにつけてこーこーするが、こーそくこーこーをするさいにわ、ぎょーかくのつけられたすいちゅーつばさからえられるよーりょくでかいめんじょーにせんたいをもちあげ、すいちゅーつばさのみがすいちゅーにひたっているかたちになる。	NO_LABEL
水中翼船には構造や推進方式が様々あり、構造上の分類では、高速航行時に水中翼の一部が水面上に出る半没翼型水中翼船と、水中翼の全てが水面下にある全没翼型水中翼船とに大まかに分けられる。	すいちゅーよくせんにわこーぞーやすいしんほーしきがさまざまあり、こーぞーじょーのぶんるいでわ、こーそくこーこーじにすいちゅーつばさのいちぶがすいめんじょーにでるはんぼつよくがたすいちゅーよくせんと、すいちゅーつばさのすべてがすいめんかにあるぜんぼつよくがたすいちゅーよくせんとにおーまかにわけられる。	NO_LABEL
全没翼型水中翼船には、単胴型と双胴型がある。	ぜんぼつよくがたすいちゅーよくせんにわ、たんどーがたとそーどーがたがある。	NO_LABEL
単胴型の全没翼型水中翼船の代表的なものにアメリカ・ボーイング社の子会社、川重ジェイ・ピイ・エス株式会社がライセンスを取得）の「ジェットフォイル」がある。	NO_PRONOUNCE	NO_LABEL
また、双胴型の全没翼型水中翼船には、三菱重工が開発した「スーパーシャトル400」があり、「レインボー2」が隠岐汽船に就航していた。	NO_PRONOUNCE	NO_LABEL
全没翼型は半没翼型と比較して安定性に劣るとされている。	ぜんぼつよくがたわはんぼつよくがたとひかくしてあんていせいにおとるとされている。	NO_LABEL
これは、「半没翼型の場合は特に水中翼の制御をしなくてもある程度の振動を伴いつつではあるが安定した浮上がなされるのに対し、全没翼型ではそのような自律的フィードバックが期待できないこと」「半没翼型に設けられている水中翼には大きな上反角が付けられ、横揺れに対する復元力が確保されていること」による。	NO_PRONOUNCE	NO_LABEL
但し、近年ではコンピュータによる水中翼の能動的な制御技術が確立されたことにより、全没翼型でも安定性を確保できるようになっている。	ただし、きんねんでわこんぴゅーたによるすいちゅーつばさののーどーてきなせいぎょぎじゅつがかくりつされたことにより、ぜんぼつよくがたでもあんていせいをかくほできるよーになっている。	NO_LABEL
全没翼型の安定性が確保されると、後述のような半没翼型のデメリットが浮き彫りになったこともあり、敢えて半没翼型を選択するユーザーが少なくなり、現在では全没翼型が主流となっている。	ぜんぼつよくがたのあんていせいがかくほされると、こーじゅつのよーなはんぼつよくがたのでめりっとがうきぼりになったこともあり、あえてはんぼつよくがたをせんたくするゆーざーがすくなくなり、げんざいでわぜんぼつよくがたがしゅりゅーとなっている。	NO_LABEL
この他に、日立造船の「スーパージェット」等に見られる、双胴船体の間に前後各１枚の全没型水中翼を装備し、双胴船の2つのハルの浮力と全没型水中翼による揚力の両方よって船体を支持するハイブリッド船型を採用した翼付双胴船などがあるが、厳密には全てを水中翼の揚力で支持する水中翼船には含まれないであろう。	NO_PRONOUNCE	NO_LABEL
「スーパージェット」の場合、船体重量の約8割を水中翼の揚力により、残りの約2割を船体の浮力により支えている。	NO_PRONOUNCE	NO_LABEL
推進方式では主としてプロペラによるものと、ウォータージェット推進式によるものがある。	すいしんほーしきでわしゅとしてぷろぺらによるものと、うぉーたーじぇっとすいしんしきによるものがある。	NO_LABEL
人力でのスクリュー駆動による水中翼船は、オール等による手漕ぎ船よりも速い事が明らかになった事から、競技等の目的で人力や風力の水中翼船が製作されるようになった。	じんりきでのすくりゅーくどーによるすいちゅーよくせんわ、おーるとーによるてこぎせんよりもはやいことがあきらかになったことから、きょーぎとーのもくてきでじんりきやふーりょくのすいちゅーよくせんがせいさくされるよーになった。	NO_LABEL
近年はヨットにも、高速性能を追求した結果水中翼を採用したものが現れている。	きんねんわよっとにも、こーそくせいのーをついきゅーしたけっかすいちゅーつばさをさいよーしたものがあらわれている。	NO_LABEL
2017年の第35回アメリカスカップでは、多くのチームがヨットのダガーボードを水中翼として利用するようになり、2021年開催予定の第36回アメリカスカップでは3個のT字型フォイルを装備した「AC75」が統一レギュレーションとして採用された。	NO_PRONOUNCE	NO_LABEL
外洋を航行するヨットでもフォイル艇が主流となっており、2016年のヴァンデ・グローブでは上位をフォイル艇が占めた。	NO_PRONOUNCE	NO_LABEL
水中翼で水の抵抗を減らすというアイデアは19世紀半ばから知られていたが、それが有効になるほどの推進方法がなかった。	すいちゅーつばさでみずのていこーをへらすとゆうあいであわじゅうきゅうせいきなかばからしられていたが、それがゆーこーになるほどのすいしんほーほーがなかった。	NO_LABEL
20世紀に入って相次いで水中翼船のプロトタイプが製作されるようになった。	にじっせいきにはいってあいついですいちゅーよくせんのぷろとたいぷがせいさくされるよーになった。	NO_LABEL
1899年から1901年にかけて、イギリスの船舶設計者ジョン・アイザック・ソーニクロフトが、弓形の水中翼をつけた船の設計を研究した。	NO_PRONOUNCE	NO_LABEL
1909年、ソーニクロフトの会社で弓形水中翼と60馬力のエンジンを装備した全長6.7mのボート "Miranda III" を建造。	NO_PRONOUNCE	NO_LABEL
その後継機である "Miranda IV" は35ノットを記録した。	NO_PRONOUNCE	NO_LABEL
イタリアの発明家エンリコ・フォルラニーニは1898年から水中翼船の研究を開始し、1906年にはマッジョーレ湖での試験航行で68km/hを記録した。	NO_PRONOUNCE	NO_LABEL
アメリカ人で水中翼船を研究していたウィリアム・E・ミーチャムは、1906年3月の"サイエンティフィック・アメリカン"誌上で水中翼の基本原理を解説した。	NO_PRONOUNCE	NO_LABEL
アレクサンダー・グラハム・ベルは水中翼船を重要な発明と考えており、この記事を読んでから水中翼船のスケッチを描き始めた。	あれくさんだーぐらはむべるわすいちゅーよくせんをじゅーよーなはつめいとかんがえており、このきじをよんでからすいちゅーよくせんのすけっちをえがきはじめた。	NO_LABEL
1908年夏、彼はフレデリック・ウォーカー・ボールドウィンと共に水中翼船の実験を開始した。	NO_PRONOUNCE	NO_LABEL
ボールドウィンはフォルラニーニの成果を研究し、その設計に基づいた模型での試験を開始した。	ぼーるどうぃんわふぉるらにーにのせいかをけんきゅーし、そのせっけいにもとずいたもけいでのしけんをかいしした。	NO_LABEL
その後ボールドウィンとベルは軍用の水中翼船の開発に関わることになる。	そのごぼーるどうぃんとべるわぐんよーのすいちゅーよくせんのかいはつにかかわることになる。	NO_LABEL
1910年から1911年にかけてベルとボールドウィンは世界旅行に出て、イタリアでフォルラニーニに会った。	せんきゅうひゃくじゅうねんからせんきゅうひゃくじゅういちねんにかけてべるとぼーるどうぃんわせかいりょこーにでて、いたりあでふぉるらにーににあった。	NO_LABEL
彼らはマッジョーレ湖上でフォルラニーニの水中翼船に試乗している。	かれらわまっじょーれこじょーでふぉるらにーにのすいちゅーよくせんにしじょーしている。	NO_LABEL
ボールドウィンはこのときのことを、飛んでいるように滑らかな乗り心地だったと述べている。	ぼーるどうぃんわこのときのことを、とんでいるよーになめらかなのりごこちだったとのべている。	NO_LABEL
ノバスコシア州バデックに戻ると、様々なデザインを試し、最終的に HD-4 を完成させた。	のばすこしあしゅーばでっくにもどると、さまざまなでざいんをためし、さいしゅーてきにえいちでぃーまいなすよんをかんせいさせた。	NO_LABEL
ルノー製エンジンを採用して最高時速87km/hを達成し、加速も素早く、操縦が容易で安定性もよかった。	NO_PRONOUNCE	NO_LABEL
ベルがアメリカ海軍にこれを報告すると、260 kWのエンジンを2機入手できることになった。	NO_PRONOUNCE	NO_LABEL
1919年9月9日、HD-4は船舶速度の世界最高記録114km/hを達成。	NO_PRONOUNCE	NO_LABEL
この記録は約10年間破られなかった。	このきろくわやくじゅうねんかんやぶられなかった。	NO_LABEL
HD-4の実物大レプリカがバデックの Alexander Graham Bell National Historic Site に展示されている。	NO_PRONOUNCE	NO_LABEL
ドイツでは、第二次世界大戦以前から戦中にかけて、フォン・シェルテル男爵が水中翼船を開発していた。	NO_PRONOUNCE	NO_LABEL
戦後、シェルテルのチームはロシアに連行された。	せんご、しぇるてるのちーむわろしあにれんこーされた。	NO_LABEL
しかしロシアではドイツ人が高速船の建造に関われなかったため、シェルテルはスイスに移り、そこでシュプラマルという会社を創業した。	しかしろしあでわどいつじんがこーそくせんのけんぞーにかかわれなかったため、しぇるてるわすいすにうつり、そこでしゅぷらまるとゆうかいしゃをそーぎょーした。	NO_LABEL
1952年、シュプラマルは世界初の商用水中翼船 PT10 "Freccia d'Oro"を作り、スイスとイタリアの国境線上にあるマッジョーレ湖に浮かべた。	NO_PRONOUNCE	NO_LABEL
PT10は半没型で乗客32名を乗せ、35ノットで航行できた。	NO_PRONOUNCE	NO_LABEL
1968年、バーレーン生まれの銀行家 Hussain Najadi がシュプラマルを買収し、日本、香港、シンガポール、イギリス、ノルウェー、アメリカ合衆国に営業を拡大した。	NO_PRONOUNCE	NO_LABEL
アメリカのジェネラル・ダイナミクスがライセンス提供を受け、国防総省はスーパーキャビテーションについての海軍の研究開発プロジェクトを委託した。	あめりかのじぇねらるだいなみくすがらいせんすていきょーをうけ、こくぼーそーしょーわすーぱーきゃびてーしょんについてのかいぐんのけんきゅーかいはつぷろじぇくとをいたくした。	NO_LABEL
日本では日立造船がシュプラマルからライセンス供与を受けた。	にっぽんでわひたちぞーせんがしゅぷらまるかららいせんすきょーよをうけた。	NO_LABEL
他にもOECD各国の海運業者や造船業者がライセンスを取得した。	たにもおーいーしーでぃーかっこくのかいうんぎょーしゃやぞーせんぎょーしゃがらいせんすをしゅとくした。	NO_LABEL
1952年から1971年にかけて、シュプラマルは PT20、PT50、PT75、PT100、PT150 といった水中翼船を設計。	NO_PRONOUNCE	NO_LABEL
これらはいずれも半没型だが、PT150は前方の水中翼が半没型で後方の水中翼が全没型だった。	NO_PRONOUNCE	NO_LABEL
シュプラマルの設計に基づいた水中翼船は200艘以上建造されており、特にイタリアの Rodriquez が建造したものが多い。	NO_PRONOUNCE	NO_LABEL
同じ頃、ソビエト連邦でも水中翼船の改良が進み、冷戦中の1980年代まで様々な水中翼船型のフェリーや川船が建造された。	おなじころ、そびえとれんぽーでもすいちゅーよくせんのかいりょーがすすみ、れいせんちゅーのせんきゅうひゃくはちじゅうねんだいまでさまざまなすいちゅーよくせんがたのふぇりーやかわぶねがけんぞーされた。	NO_LABEL
例えば、Raketa、さらに大型の Meteor や小型の Voskhod などがある。	NO_PRONOUNCE	NO_LABEL
ソ連時代の水中翼船の改良に最も貢献した人物として ロスチスラフ・アレクセーエフ がいる。	NO_PRONOUNCE	NO_LABEL
彼は1950年代に高速水中翼船を開発し、後に水中翼船の経験と地面効果の原理を組み合わせてエクラノプランを生み出した。	かれわせんきゅうひゃくごじゅうねんだいにこーそくすいちゅーよくせんをかいはつし、ごにすいちゅーよくせんのけいけんとじめんこーかのげんりをくみあわせてえくらのぷらんをうみだした。	NO_LABEL
1961年、スタンフォード研究所は「アメリカ国内や海外での水中翼船による旅客輸送の経済的実現可能性」と題した研究報告を行った。	NO_PRONOUNCE	NO_LABEL
アメリカ国内初の水中翼船の商用航路は、1961年、ニュージャージー州アトランティック・ハイランドからマンハッタン南部の商業地区までを結ぶ航路で、Harry Gale Nye, Jr. の North American Hydrofoils が運営した。	NO_PRONOUNCE	NO_LABEL
高速艇としての軍用利用も検討されてきていたが、実用化され始めたのは1960年代以降のことである。	こーそくていとしてのぐんよーりよーもけんとーされてきていたが、じつよーかされはじめたのわせんきゅうひゃくろくじゅうねんだいこーのことである。	NO_LABEL
カナダ海軍がHMCSブラドールを取得したが、1隻のみの就役に終わっている。	NO_PRONOUNCE	NO_LABEL
ソ連海軍は熱心に整備を進め、チューリャ型魚雷艇、マトカ型ミサイル艇などが建造されている。	それんかいぐんわねっしんにせいびをすすめ、ちゅーりゃがたぎょらいてい、まとかがたみさいるていなどがけんぞーされている。	NO_LABEL
アメリカ海軍においても、ペガサス級ミサイル艇を1977年から1993年にかけて運用している。	あめりかかいぐんにおいても、ぺがさすきゅーみさいるていをせんきゅうひゃくななじゅうななねんからせんきゅうひゃくきゅうじゅうさんねんにかけてうんよーしている。	NO_LABEL
イタリア海軍はスパルヴィエロ級ミサイル艇を建造し、海上自衛隊もそれを基に1号型ミサイル艇3隻を就役させていた。	NO_PRONOUNCE	NO_LABEL
日本では1960年代に商業用半没型水中翼船が相次いで登場している。	にっぽんでわせんきゅうひゃくろくじゅうねんだにしょーぎょーよーはんぼつがたすいちゅーよくせんがあいついでとーじょーしている。	NO_LABEL
新明和工業の小型船、三菱造船下関の小型・中型船、日立造船神奈川の小型～大型船がそれである。	NO_PRONOUNCE	NO_LABEL
とりわけ、シュプラマル社のライセンス契約により水中翼船を建造していた日立造船神奈川は、型式PT20やPT50を中心に50隻ほどの水中翼船を生産し、これらは瀬戸内海を中心に運航された。	NO_PRONOUNCE	NO_LABEL
代表的な運航会社として、瀬戸内海汽船、石崎汽船、阪急汽船、名鉄海上観光船等がある。	だいひょーてきなうんこーかいしゃとして、せとないかいきせん、いしざききせん、はんきゅーきせん、めいてつかいじょーかんこーせんとーがある。	NO_LABEL
また東海汽船による東京湾横断航路でも使われていたため首都圏でも見ることができた。	またとーかいきせんによるとーきょーわんおーだんこーろでもつかわれていたためしゅとけんでもみることができた。	NO_LABEL
しかし、低燃費で高速航行が可能な反面、波の影響を受け乗り心地が悪い上に維持コストが高く、水中翼の接触を防ぐ専用の接岸施設のない港に入港することができない等の欠点があり、次第に他の高速船やジェットフォイルにシェアを奪われていった。	しかし、ていねんぴでこーそくこーこーがかのーなはんめん、なみのえいきょーをうけのりごこちがわるいうえにいじこすとがたかく、すいちゅーつばさのせっしょくをふせぐせんよーのせつがんしせつのないみなとににゅーこーすることができないひとしのけってんがあり、しだいにたのこーそくせんやじぇっとふぉいるにしぇあをうばわれていった。	NO_LABEL
1999年5月9日、石崎汽船の松山～尾道航路の最終運航を以って、半没型水中翼船は国内定期航路から姿を消した。	NO_PRONOUNCE	NO_LABEL
この航路で1997年12月まで活躍した「金星」が、広島県呉市で2005年に開館した海事博物館に2014年まで屋外展示保存されていた。	NO_PRONOUNCE	NO_LABEL
その後日本国内ではジェットフォイルが多く利用されている。	そのごにほんこくないでわじぇっとふぉいるがおーくりよーされている。	NO_LABEL
これは、高速軍用艇向けに開発された技術を民間移転したもので、折りたたみ式の水中翼を持つ水中翼船の一種であり、コンピュータによる姿勢制御装置を持ち、耐荒天性能や乗り心地を改善している。	これわ、こーそくぐんよーていむけにかいはつされたぎじゅつをみんかんいてんしたもので、おりたたみしきのすいちゅーつばさをもつすいちゅーよくせんのいちしゅであり、こんぴゅーたによるしせいせいぎょそーちをもち、つよしこーてんせいのーやのりごこちをかいぜんしている。	NO_LABEL
海上自衛隊は1993年から95年にかけて、全没型水中翼式の1号型ミサイル艇3隻を建造した。	NO_PRONOUNCE	NO_LABEL
これもジェットフォイルをベースとしたイタリア海軍のスパルヴィエロ級ミサイル艇をタイプシップとしたものである。	NO_PRONOUNCE	NO_LABEL
