比延駅は、兵庫県西脇市鹿野町にある、西日本旅客鉄道加古川線の駅。	ひええきわ、ひょーごけんにしわきししかのちょーにある、にしにほんりょかくてつどーかこがわせんのえき。	NO_LABEL
谷川方面に向かって右側に単式ホーム1面1線を有する地上駅。	NO_PRONOUNCE	NO_LABEL
加古川駅管理の無人駅となっており、自動券売機や乗車駅証明書発行機も設置されていない。	かこがわえきかんりのむじんえきとなっており、じどーけんばいきやじょーしゃえきしょーめいしょはっこーきもせっちされていない。	NO_LABEL
開業以来の駅舎をそのまま使用している。	かいぎょーいらいのえきしゃをそのまましよーしている。	NO_LABEL
元々は相対式ホームで現在使用しているホームの向かい側に使用されていないホームがあり、開業時に植樹されたソメイヨシノの古木がある。	もともとわそーたいしきほーむでげんざいしよーしているほーむのむかいがわにしよーされていないほーむがあり、かいぎょーじにしょくじゅされたそめいよしののふるきがある。	NO_LABEL
便所は、男女共用の汲み取り式があったが閉鎖された。	べんじょわ、だんじょきょーよーのくみとりしきがあったがへいさされた。	NO_LABEL
「兵庫県統計書」によると、2016年度の1日平均乗車人員は13人である。	NO_PRONOUNCE	NO_LABEL
近年の1日平均乗車人員は以下の通りである。	きんねんのついたちへいきんじょーしゃじんいんわいかのとーりである。	NO_LABEL
