オートバイ用エンジンとは、内燃機関のエンジンのうち、特にオートバイへ搭載することに特化したものを指す。	おーとばいよーえんじんとわ、ないねんきかんのえんじんのうち、とくにおーとばいえとーさいすることにとくかしたものをさす。	NO_LABEL
実用性を重視した車種では、安価で低燃費かつ整備がしやすい、小排気量の単気筒エンジンが搭載される場合が多い。	じつよーせいをじゅーししたしゃしゅでわ、あんかでていねんぴかつせいびがしやすい、しょーはいきりょうのたんきとーえんじんがとーさいされるばあいがおーい。	NO_LABEL
趣味性の高い車種では、排気量の大きな物や複雑な機構を採用した物などが採用され、エンジン特性や運転音、外観などに趣味性を求められる場合が多い。	しゅみせいのたかいしゃしゅでわ、はいきりょーのおーきなものやふくざつなきこーをさいよーしたものなどがさいよーされ、えんじんとくせいやうんてんおん、がいかんなどにしゅみせいをもとめられるばあいがおーい。	NO_LABEL
オートバイはエンジンが露出して搭載されている場合が多く、デザインの一部ともなっている。	おーとばいわえんじんがろだしてとーさいされているばあいがおーく、でざいんのいちぶともなっている。	NO_LABEL
シリンダー構成やシリンダーヘッドの種別、冷却形式やエキゾーストパイプの構成などを外観から識別可能である。	しりんだーこーせいやしりんだーへっどのしゅべつ、れいきゃくけいしきやえきぞーすとぱいぷのこーせいなどをがいかんからしきべつかのーである。	NO_LABEL
1990年代以降に市販されているオートバイのエンジンはレシプロエンジンのみで、小排気量のものも含めて4ストローク機関が採用される場合が多い。	せんきゅうひゃくきゅうじゅうねんだいいこーにしはんされているおーとばいのえんじんわれしぷろえんじんのみで、しょーはいきりょうのものもふくめてふぉーすとろーくきかんがさいよーされるばあいがおーい。	NO_LABEL
排気量が400cc以上の2ストローク機関は、公道走行用の市販車では1970年代から1980年代に多少見られたが、排ガス規制が強化される以前の1990年代初頭には姿を消し、ロードレース用でも世界選手権の競技規定が変更された2002年から急速に採用例が減少した。	NO_PRONOUNCE	NO_LABEL
1970年代から1980年代は、オランダのバンビーン、ドイツのDKW、イギリスのノートン、そして日本のスズキがロータリーエンジンを搭載したオートバイを発売していた。	NO_PRONOUNCE	NO_LABEL
搭載方向はクランクシャフトが進行方向に対して横向きの横置きエンジンが多いが、縦置きエンジンの車種も存在する。	とーさいほーこーわくらんくしゃふとがしんこーほうほーにたいしてよこむきのよこおきえんじんがおーいが、たておきえんじんのしゃしゅもそんざいする。	NO_LABEL
オートバイのメーカーによっては、ある特定のエンジン形式に特化した製品構成を持ち、そのメーカーの伝統とされることもある。	おーとばいのめーかーによってわ、あるとくていのえんじんけいしきにとくかしたせいひんこーせいをもち、そのめーかーのでんとーとされることもある。	NO_LABEL
アメリカのハーレーダビッドソンによる横置きの狭角V型2気筒エンジン、イタリアのモト・グッツィによる縦置き90度V型2気筒エンジンなどが代表的な例である。	NO_PRONOUNCE	NO_LABEL
史上初めてのオートバイ用エンジンは蒸気機関で、製造された記録が残る最古の物は1868年のフランスのMichaux-Perreaux steam bicycleと1869年にアメリカのRoper steam velocipedeが製造した二輪車と三輪車であった。	NO_PRONOUNCE	NO_LABEL
この蒸気機関オートバイは自転車のフレームを利用し、エンジンは搭乗者の後方に載せられた。	このじょーききかんおーとばいわじてんしゃのふれーむをりよーし、えんじんわとーじょーしゃのこーほーにのせられた。	NO_LABEL
内燃機関が初めてオートバイに用いられたのは、1885年にゴットリープ・ダイムラーの手で製作されたDaimler Reitwagenである。	NO_PRONOUNCE	NO_LABEL
ダイムラーはオートバイそのものを開発するというよりも、自身が造り上げたガソリンエンジンのテストを主目的として二輪車に載せただけであった。	だいむらーわおーとばいそのものをかいはつするというよりも、じしんがつくりあげたがそりんえんじんのてすとをしゅもくてきとしてにりんしゃにのせただけであった。	NO_LABEL
オートバイ史やオートバイ用エンジンの歴史では、ダイムラーのオートバイが「二輪自動車」という定義を確立させた史上初のオートバイとされ、前述の蒸気機関オートバイは長年の間除外されてきた経緯が存在した。	NO_PRONOUNCE	NO_LABEL
オックスフォード英語辞典においても、最初のオートバイはダイムラーのオートバイであるとされており、蒸気機関型オートバイの存在には触れられてはいない。	おっくすふぉーどえいごじてんにおいても、さいしょのおーとばいわだいむらーのおーとばいであるとされており、じょーききかんがたおーとばいのそんざいにわふれられてわいない。	NO_LABEL
イギリスのにおいても、Michaux-Perreauxの展示に至るまでには「最初のオートバイの定義」を巡る多くの議論と長い年月を要した。	NO_PRONOUNCE	NO_LABEL
内燃機関と安全型自転車が登場すると、現在のオートバイのようにフレームの中央部分にエンジンを配置する形式に移行していった。	ないねんきかんとあんぜんがたじてんしゃがとーじょーすると、げんざいのおーとばいのよーにふれーむのちゅーおーぶぶんにえんじんをはいちするけいしきにいこーしていった。	NO_LABEL
20世紀の初め頃にはインホイールエンジンなど、様々な形のエンジン搭載方法も試作されたが一般化することはなかった。	にじっせいきのはじめごろにわいんほいーるえんじんなど、さまざまなかたちのえんじんとーさいほーほーもしさくされたがいっぱんかすることわなかった。	NO_LABEL
また、現在のスクーターのスイングアームのような搭載方式は1940年頃までにほぼ確立したとされている。	また、げんざいのすくーたーのすいんぐあーむのよーなとーさいほーしきわせんきゅうひゃくよんじゅうねんごろまでにほぼかくりつしたとされている。	NO_LABEL
2000年代中期以降はクリーンエネルギーへの関心が高まり、電気モーターを動力とするオートバイも少しずつ増えてきている。	にせんねんだいちゅーきいこーわくりーんえねるぎーえのかんしんがたかまり、でんきもーたーをどーりょくとするおーとばいもすこしずつふえてきている。	NO_LABEL
特に中国においては零細町工場が製作する電動スクーターの広まりが先進諸国より先んじて見られる。	とくにちゅーごくにおいてわれいさいまちこうばがせいさくするでんどーすくーたーのひろまりがせんしんしょこくよりさきんじてみられる。	NO_LABEL
また、ブラジルなどの一部の国ではエタノール燃料への対応を行う動きなども見られる。	また、ぶらじるなどのいちぶのくにでわえたのーるねんりょーえのたいおーをおこなううごきなどもみられる。	NO_LABEL
ディーゼルエンジンを搭載するディーゼルオートバイの研究は20世紀から既に行われていたが、近年は特に軍事用途における研究が盛んになってきており、アメリカ軍は自軍車両の全ての燃料をジェット燃料の一種であるJP-8に統一する目的でと川崎重工業に共同研究を行わせていた。	NO_PRONOUNCE	NO_LABEL
その結果、カワサキ・KLR650にディーゼルエンジンを搭載したM1030 M1を開発して制式採用された。	NO_PRONOUNCE	NO_LABEL
4ストロークエンジンは2ストロークに比べて、扱いやすいトルク特性を持ち、低燃費で排ガスの炭化水素濃度が低いほか、潤滑管理が容易でエンジン寿命が長いなど、利点が多いことから古くから広く用いられている。	NO_PRONOUNCE	NO_LABEL
小排気量の車種でも1970年代までは4ストロークエンジンが主流であったが、1980年にヤマハ・RZが発売されたのを機に、小排気量でも高出力が得られる利点や、旧来は欠点とされてきた扱いにくいエンジン特性が持つ趣味性が注目され、小排気量の車種を中心に2ストロークエンジンの採用車種が増えた。	NO_PRONOUNCE	NO_LABEL
しかし、1990年代には世界的な規模の排ガス規制が実施されるようになり、2000年頃には2ストロークエンジンはほとんど採用されることがなくなった。	NO_PRONOUNCE	NO_LABEL
吸排気のバルブトレーンを構成し、エンジンの性能や特性を大きく左右する。	NO_PRONOUNCE	NO_LABEL
加えて、オートバイではエンジンの重心位置が車体の重心位置に大きく影響を及ぼすことから、シリンダーヘッドの重量や大きさなども意識した設計が行われる。	くわえて、おーとばいでわえんじんのじゅーしんいちがしゃたいのじゅーしんいちにおーきくえいきょーをおよぼすことから、しりんだーへっどのじゅーりょーやおーきさなどもいしきしたせっけいがおこなわれる。	NO_LABEL
エンジンが露出しているオートバイでは、外観上の特徴をもたらす部品の一つでもあり、識別要素として扱われる例もある。	えんじんがろしゅつしているおーとばいでわ、がいかんじょーのとくちょーをもたらすぶひんのひとつでもあり、しきべつよーそとしてあつかわれるれいもある。	NO_LABEL
ハーレーダビッドソンのVツインエンジンの場合にはフラットヘッドやパンヘッドなど呼ばれての上で区別される。	NO_PRONOUNCE	NO_LABEL
BMWの水平対向エンジンの場合には特に外観上の特徴として影響を及ぼすため、エアヘッドやオイルヘッドとよばれて区別される。	ばとるむーんうぉーずのすいへいたいこーえんじんのばあいにわとくにがいかんじょーのとくちょーとしてえいきょーをおよぼすため、えあへっどやおいるへっどとよばれてくべつされる。	NO_LABEL
ドゥカティの場合にはバルブトレーンの機構が大きく異なり、ベベルヘッドやデスモドロミックなどと呼ばれて区別される。	どぅかてぃのばあいにわばるぶとれーんのきこーがおーきくことなり、べべるへっどやですもどろみっくなどとよばれてくべつされる。	NO_LABEL
オートバイ用エンジンはその性格から、古くよりマルチバルブなどの高度なバルブトレーンを持つものが少なくなかった。	おーとばいよーえんじんわそのせいかくから、ふるくよりまるちばるぶなどのこーどなばるぶとれーんをもつものがすくなくなかった。	NO_LABEL
ヤマハ発動機は1気筒当たり吸気3、排気2のバルブを配置した5バルブエンジンをハイエンド車種を中心に積極的に展開している。	NO_PRONOUNCE	NO_LABEL
可変バルブ機構を採用した車種も少なくない。	かへんばるぶきこーをさいよーしたしゃしゅもすくなくない。	NO_LABEL
ホンダは1983年にオートバイ用エンジンでは初の可変バルブ機構であるREV(Revolution-modulated valve control、回転数応答型バルブ休止機構	NO_PRONOUNCE	NO_LABEL
)を採用したCBR400Fを発売した。	NO_PRONOUNCE	NO_LABEL
これは低回転域で吸排気バルブを一つずつ休止させるシステムであった。	NO_PRONOUNCE	NO_LABEL
その後、バルブリフトやタイミングを可変できるバルブ機構を搭載した車種も開発されるようになった。	そのご、ばるぶりふとやたいみんぐをかへんできるばるぶきこーをとーさいしたしゃしゅもかいはつされるよーになった。	NO_LABEL
オートバイのトランスミッションは、戦前から戦後間もなくの頃までは、エンジンから独立したギアボックスを持つ分離式ギアボックスが用いられていた。	おーとばいのとらんすみっしょんわ、せんぜんからせんごまもなくのころまでわ、えんじんからどくりつしたぎあぼっくすをもつぶんりしきぎあぼっくすがもちいられていた。	NO_LABEL
その後、エンジンとギアボックスが一体化した内蔵式ギアボックスが登場し、エンジンが小型化した。	そのご、えんじんとぎあぼっくすがいったいかしたないぞーしきぎあぼっくすがとーじょーし、えんじんがこがたかした。	NO_LABEL
しかし一方で、オートバイ用エンジンのエンジンオイルにはトランスミッションやクラッチの潤滑能力も要求されることにもなり、自動車用のエンジンオイルとは別にオートバイ用オイルがJASOにより規格制定されることに繋がった。	しかしいっぽーで、おーとばいよーえんじんのえんじんおいるにわとらんすみっしょんやくらっちのじゅんかつのーりょくもよーきゅーされることにもなり、じどーしゃよーのえんじんおいるとわべつにおーとばいよーおいるがじぇーえーそーによりきかくせいていされることにつながった。	NO_LABEL
オートバイ用エンジンの排気量は、小さいものではモペッドなどに搭載される25cc程度のものから、大きいものでは1800cc程度のものが生産されている。	NO_PRONOUNCE	NO_LABEL
アメリカではエンジンの排気量をキュービックインチで表し、そのままそのエンジンの固有識別詞として用いる場合も多い。	あめりかでわえんじんのはいきりょーをきゅーびっくいんちであらわし、そのままそのえんじんのこゆーしきべつことばとしてもちいるばあいもおーい。	NO_LABEL
オートバイの免許や税制度では排気量によって区分され、国ごとに区分が違う場合が多い。	おーとばいのめんきょやぜいせいどでわはいきりょうによってくぶんされ、こくごとにくぶんがちがうばあいがおーい。	NO_LABEL
日本では400ccを境に免許区分が異なっていることから、日本市場向けの400ccエンジンを搭載したヨーロッパメーカーの車両が多く生産されていた歴史的経緯が存在する。	NO_PRONOUNCE	NO_LABEL
なお、単純な排気量の多寡の面では、ボスホスやカノンが5730ccや8200ccのV型8気筒を搭載した製品を現在でも販売しており、過去には少数生産ながらも8300ccのV型10気筒を搭載したダッジ・トマホークなどの事例もあったが、これらは四輪車用エンジンをオートバイに搭載したものであり、オートバイ用エンジンとして製造されたものではない。	NO_PRONOUNCE	NO_LABEL
一般的には比較的小型のオートバイは単気筒若しくは2気筒エンジンを用いる場合が多く、大型のオートバイは4気筒エンジンを用いる場合が多い。	NO_PRONOUNCE	NO_LABEL
しかし、それとは異なる傾向として低回転域のトルクを重視する大型オートバイにおいては大排気量の単気筒や2気筒エンジンが用いられる場合もある。	NO_PRONOUNCE	NO_LABEL
大型のものには6気筒エンジンが用いられる場合もある。	NO_PRONOUNCE	NO_LABEL
なおオートバイ用エンジンでは、横置きの直列型エンジンを並列と呼ぶことも多い。	なおおーとばいよーえんじんでわ、よこおきのちょくれつがたえんじんをへいれつとよぶこともおーい。	NO_LABEL
単気筒エンジンはシングル、あるいは稀にサンパーと呼ばれ、オートバイ用エンジンとしては最も古い歴史を持つ。	たんきとーえんじんわしんぐる、あるいわまれにさんぱーとよばれ、おーとばいよーえんじんとしてわもっともふるいれきしをもつ。	NO_LABEL
ビジネスバイクやスクーターではシリンダーがほぼ水平に倒した状態で搭載される例が多い。	びじねすばいくやすくーたーでわしりんだーがほぼすいへいにたおしたじょーたいでとーさいされるれいがおーい。	NO_LABEL
単気筒エンジンは構造が簡素で整備性が高いことから、部品コストや整備費用が安く、小型化しやすい利点がある。	たんきとーえんじんわこーぞーがかんそでせいびせいがたかいことから、ぶひんこすとやせいびひよーがやすく、こがたかしやすいりてんがある。	NO_LABEL
2気筒以上のエンジンよりも爆発間隔が長く、大きなフライホイールが必要となり、アクセルに対するレスポンスは緩やかなものとなる。	NO_PRONOUNCE	NO_LABEL
1950年代まではノートン・マンクスなどのオンロードレーサーも大排気量の単気筒エンジンを用いていたが、レスポンスの緩やかな特性がレースにおいてはネックとなり、大排気量部門においては次第に単気筒エンジンは廃れていくことになった。	NO_PRONOUNCE	NO_LABEL
一方で、低回転域から粘り強いトルクを発揮しやすい特性を活かせるオフロードレースでは、大きな排気量の単気筒エンジンが用いられることがある。	いっぽーで、ていかいてんいきからねばりずよいとるくをはっきしやすいとくせいをいかせるおふろーどれーすでわ、おーきなはいきりょうのたんきとーえんじんがもちいられることがある。	NO_LABEL
大排気量の単気筒エンジンは特有の排気音を発生し、これを「鼓動感」と呼んで好むユーザーも少なくない。	NO_PRONOUNCE	NO_LABEL
オートバイ用エンジンとして採用される例が多いものの一つで、ツインと呼ばれることが多い。	おーとばいよーえんじんとしてさいよーされるれいがおーいもののひとつで、ついんとよばれることがおーい。	NO_LABEL
タンデム2気筒は2つの単気筒エンジンを連結したU型エンジンの一種であり、川崎重工業製の2ストローク機関でのみ採用された。	NO_PRONOUNCE	NO_LABEL
競技用車両ではKR250とKR350に横置き搭載され、市販車両でもレーサー仕様の360度同爆エンジンから180度交互点火に変更された上でカワサキ・KR250に搭載された。	NO_PRONOUNCE	NO_LABEL
しかし、機構上の信頼性に乏しかったことから大きな成功を収めることなく、後継のKR-1では横置き直列2気筒が搭載されている。	しかし、きこーじょーのしんらいせいにとぼしかったことからおーきなせいこーをおさめることなく、こーけいのけいあーるまいなすいちでわよこおきちょくれつにきとーがとーさいされている。	NO_LABEL
オートバイ用エンジンとして多く用いられているものの一つで、フォアとも呼ばれる。	おーとばいよーえんじんとしておーくもちいられているもののひとつで、ふぉあともよばれる。	NO_LABEL
5気筒エンジンはオートバイ用エンジンで採用されることは極めて稀である。	NO_PRONOUNCE	NO_LABEL
6気筒エンジンはオートバイ用としては、ホンダ・RC166のように初めは4気筒エンジンを上回る高回転域を目指すために用いられたが、現在では自動車と同様に静粛性を要求される車種にのみ用いられている。	NO_PRONOUNCE	NO_LABEL
6気筒を超えるオートバイ用エンジンは、過去にV型8気筒の採用例がいくつかあった。	NO_PRONOUNCE	NO_LABEL
ディーゼルエンジンは重量が同排気量のガソリンエンジンに比べて大きくなりがちで、最高回転速度も低くなる欠点があり、オートバイ用エンジンとして採用された例は少ない。	でぃーぜるえんじんわじゅーりょーがどーはいきりょうのがそりんえんじんにくらべておーきくなりがちで、さいこーかいてんそくどもひくくなるけってんがあり、おーとばいよーえんじんとしてさいよーされたれいわすくない。	NO_LABEL
しかし、低回転域のトルクが強く燃費も良い事から比較的古くから研究が行われてきた。	しかし、ていかいてんいきのとるくがつよくねんぴもよいことからひかくてきふるくからけんきゅーがおこなわれてきた。	NO_LABEL
インドに本拠を置く は1965年にディーゼルエンジンを搭載したオートバイを登場させた。	いんどにほんきょをおくわせんきゅうひゃくろくじゅうごねんにでぃーぜるえんじんをとーさいしたおーとばいをとーじょーさせた。	NO_LABEL
近年では2006年11月、オランダのE.V.A.社がダイムラー・クライスラー製800cc3気筒ディーゼルエンジンを搭載したを発表している他、ドイツのが1400ccディーゼルターボエンジンのNeander 1400 TurboDieselの開発を2005年以降続けている。	NO_PRONOUNCE	NO_LABEL
軍事用としては、ディーゼルオートバイの導入によってその軍の内燃機関の燃料を全て軽油由来の燃料に統一でき、補給面での機材の簡略化と、攻撃を受けた際の火災のリスクを低く抑えられることから、いくつかの軍で研究が積極的に行われており、Hayes Diversified Technologies M1030 M1のように制式採用にこぎ着けたモデルも存在する。	NO_PRONOUNCE	NO_LABEL
水冷エンジンを搭載するオートバイの中にはラジエータファンを搭載しないものも少なくない。	すいれいえんじんをとーさいするおーとばいのなかにわらじえーたふぁんをとーさいしないものもすくなくない。	NO_LABEL
特に車体重量の軽いオフロードバイクなどではラジエータファンや駆動のため電源であるバッテリーを搭載するには、それらの重量や大きさなどがデメリットとして比較的大きく影響するためである。	とくにしゃたいじゅーりょーのかるいおふろーどばいくなどでわらじえーたふぁんやくどーのためでんげんであるばってりーをとーさいするにわ、それらのじゅーりょーやおーきさなどがでめりっととしてひかくてきおーきくえいきょーするためである。	NO_LABEL
サーモスタットを持たないものも存在する。	さーもすたっとをもたないものもそんざいする。	NO_LABEL
近年では排ガス規制への対応のために燃焼室の温度制御は重要な要素となってきており、制御しやすい水冷エンジンの採用率が高くなっている。	きんねんでわはいがすきせいえのたいおーのためにねんしょーしつのおんどせいぎょわじゅーよーなよーそとなってきており、せいぎょしやすいすいれいえんじんのさいよーりつがたかくなっている。	NO_LABEL
また、冷却水を循環させるためシリンダーブロックが二重構造となっている水冷エンジンは空冷に比べると騒音を抑えやすく、日本など一部の国で自動車騒音規制が厳しい事情には対応しやすい。	また、れいきゃくすいをじゅんかんさせるためしりんだーぶろっくがにじゅうこうぞーとなっているすいれいえんじんわくーれいにくらべるとそーおんをおさえやすく、にっぽんなどいちぶのくにでじどーしゃそーおんきせいがきびしいじじょーにわたいおーしやすい。	NO_LABEL
空冷エンジンは最も初期のオートバイから採用され続けている。	くーれいえんじんわもっともしょきのおーとばいからさいよーされつずけている。	NO_LABEL
シリンダー外部には表面積を大きくして外気への熱の放出を多くするために冷却フィンが設けられていて、独特の外観を持っている。	しりんだーがいぶにわひょーめんせきをおーきくしてがいきえのねつのほーしゅつをおーくするためにれいきゃくふぃんがもーけられていて、どくとくのがいかんをもっている。	NO_LABEL
より効率の良い冷却のために設計者は様々な形状の冷却フィンを考案し新型エンジンに採用した。	よりこーりつのよいれいきゃくのためにせっけいしゃわさまざまなけいじょーのれいきゃくふぃんをこーあんししんがたえんじんにさいよーした。	NO_LABEL
エンジンが露出しているオートバイでは車体デザインの一部として扱われることも多く、水冷エンジンにも空冷の冷却フィンを模した外観のシリンダーブロックがデザインされる例も少なくない。	えんじんがろしゅつしているおーとばいでわしゃたいでざいんのいちぶとしてあつかわれることもおーく、すいれいえんじんにもくーれいのれいきゃくふぃんをもしたがいかんのしりんだーぶろっくがでざいんされるれいもすくなくない。	NO_LABEL
スクーターの場合は走行風を受けにくい車体後方にエンジンが搭載されていることから、クランクの回転を動力とする強制空冷用のファンが設けられているものが多い。	すくーたーのばあいわそーこーふーをうけにくいしゃたいこーほーにえんじんがとーさいされていることから、くらんくのかいてんをどーりょくとするきょーせいくーれいよーのふぁんがもーけられているものがおーい。	NO_LABEL
空冷エンジンは水冷エンジンに比べ、部品の温度変化が大きくなりやすいため部品同士の間クリアランスは総じて広めに取られる場合が多く、加えて、ウォータジャケットのようにシリンダー周囲に音を抑えられる構造を持たないことから、エンジンの動作音が大きくなりがちになる。	くーれいえんじんわすいれいえんじんにくらべ、ぶひんのおんどへんかがおーきくなりやすいためぶひんどーしのまくりあらんすわそーじてひろめにとられるばあいがおーく、くわえて、うぉーたじゃけっとのよーにしりんだーしゅーいにおとをおさえられるこーぞーをもたないことから、えんじんのどーさおんがおーきくなりがちになる。	NO_LABEL
一方、構造の単純さと製造コストの安さから途上国向けのオートバイでは未だに幅広い製品に用いられ続けている。	いっぽー、こーぞーのたんじゅんさとせいぞーこすとのやすさからとじょーこくむけのおーとばいでわいまだにはばひろいせいひんにもちいられつずけている。	NO_LABEL
あるいは、冷却フィンの造形や、エンジンを停止した後に金属部材が冷めていく際に響く音など、空冷エンジン特有の嗜好性には根強い愛好者も多く、空冷エンジンを搭載した新型車種もしばしばみられる。	あるいわ、れいきゃくふぃんのぞーけいや、えんじんをていししたのちにきんぞくぶざいがさめていくさいにひびくおとなど、くーれいえんじんとくゆーのしこーせいにわねずよいあいこーしゃもおーく、くーれいえんじんをとーさいしたしんがたしゃしゅもしばしばみられる。	NO_LABEL
空冷エンジンの一種で、大量のエンジンオイルをより効率的に循環させて大型オイルクーラーで冷却することで、冷却効率を高めたものを油冷エンジンと呼ぶ場合がある。	くーれいえんじんのいっしゅで、たいりょーのえんじんおいるをよりこーりつてきにじゅんかんさせておーがたおいるくーらーでれいきゃくすることで、れいきゃくこーりつをたかめたものをゆれいえんじんとよぶばあいがある。	NO_LABEL
かつてはスズキが独自の技術を用いた油冷エンジンを搭載していたが、2008年に生産されたモデルを最後にして現在は採用されていない。	かつてわすずきがどくじのぎじゅつをもちいたゆれいえんじんをとーさいしていたが、にせんはちねんにせいさんされたもでるをさいごにしてげんざいわさいよーされていない。	NO_LABEL
オートバイ用エンジンの気化装置も排ガス規制の強化に伴って、キャブレターから燃料噴射装置へと移行している。	おーとばいよーえんじんのきかそーちもはいがすきせいのきょーかにともなって、きゃぶれたーからねんりょーふんしゃそーちえといこーしている。	NO_LABEL
1980年代から最上級車種の一部に電子制御式燃料噴射装置が搭載される流れを見せたこともあったが、当時はまだ電子機器の信頼性が確立されておらず、普及はしなかった。	せんきゅうひゃくはちじゅうねんだいからさいじょーきゅーしゃしゅのいちぶにでんしせいぎょしきねんりょーふんしゃそーちがとーさいされるながれをみせたこともあったが、とーじわまだでんしききのしんらいせいがかくりつされておらず、ふきゅーわしなかった。	NO_LABEL
1990年代中盤以降からは強化される排ガス規制への対応のため、燃料噴射装置の採用が増えていくことになった。	せんきゅうひゃくきゅうじゅうねんだいちゅーばんいこーからわきょーかされるはいがすきせいえのたいおーのため、ねんりょーふんしゃそーちのさいよーがふえていくことになった。	NO_LABEL
400cc以下の比較的小排気量のオートバイには制御機構が一部電子化されたキャブレターが用いられ続けていた。	NO_PRONOUNCE	NO_LABEL
2000年代中期以降は排ガス規制が一層強化され、ほとんどの車種で三元触媒と同時に燃料噴射装置が採用されるようになった。	にせんねんだいちゅーきいこーわはいがすきせいがいっそーきょーかされ、ほとんどのしゃしゅでさんげんしょくばいとどーじにねんりょーふんしゃそーちがさいよーされるよーになった。	NO_LABEL
オートバイ用エンジンの点火装置には古くはマグネトーとコンタクトブレーカーを組み合わせた機械式点火装置が用いられた。	おーとばいよーえんじんのてんかそーちにわふるくわまぐねとーとこんたくとぶれーかーをくみあわせたきかいしきてんかそーちがもちいられた。	NO_LABEL
しかし、アメリカで最初の排ガス規制が施行されたことに伴い、1960年代の後半よりコンタクトブレーカーがCDIに置き換えられた電子制御式点火装置への移行が進んでいった。	しかし、あめりかでさいしょのはいがすきせいがしこーされたことにともない、せんきゅうひゃくろくじゅうねんだのこーはんよりこんたくとぶれーかーがしーでぃーあいにおきかえられたでんしせいぎょしきてんかそーちえのいこーがすすんでいった。	NO_LABEL
マグネトーはフライホイールに取り付けられることが多かったことから、フライホイール・マグネトー式とも呼ばれた。	NO_PRONOUNCE	NO_LABEL
電源をバッテリーに頼らないことが利点であったが、性能向上や排ガス規制への対応のために高度な点火時期制御が要求されるようになると、クランク角度センサーやパルシングローターからの信号をイグナイターやDC-CDIが検知して行うバッテリー点火が普及した。	NO_PRONOUNCE	NO_LABEL
オートバイ用エンジンの始動装置は、かつてはキックスターターが一般的だった。	おーとばいよーえんじんのしどーそーちわ、かつてわきっくすたーたーがいっぱんてきだった。	NO_LABEL
初期のオートバイでは電機系の性能が低くてセルモーターを搭載できない理由があったほか、車体を軽量にできる利点があるため、現在でもキックスターターによる始動方式の車種は生産されている。	しょきのおーとばいでわでんきけいのせいのーがひくくてせるもーたーをとーさいできないりゆーがあったほか、しゃたいをけいりょーにできるりてんがあるため、げんざいでもきっくすたーたーによるしどーほーしきのしゃしゅわせいさんされている。	NO_LABEL
初期のキックスターターはクラッチの出力軸を駆動していたため、ギアをニュートラルにしてクラッチを接続した状態でなければ始動できなかった。	しょきのきっくすたーたーわくらっちのしゅつりょくじくをくどーしていたため、ぎあをにゅーとらるにしてくらっちをせつぞくしたじょーたいでなければしどーできなかった。	NO_LABEL
後に入力軸を駆動するプライマリーキックと呼ばれる形式が登場して始動が容易になった。	ごににゅーりょくじくをくどーするぷらいまりーきっくとよばれるけいしきがとーじょーしてしどーがよーいになった。	NO_LABEL
排気量の大きな単気筒エンジンでは圧縮圧力による反力が大きいため、デコンプレッション機構と呼ばれるシリンダーの圧力を解放する機構が装備される場合も多かった。	はいきりょーのおーきなたんきとーえんじんでわあっしゅくあつりょくによるはんちからがおーきいため、でこんぷれっしょんきこーとよばれるしりんだーのあつりょくをかいほーするきこーがそーびされるばあいもおーかった。	NO_LABEL
1970年代中期頃からは、大排気量車を中心にキックスターターとセルモーターを両方搭載するセル・キック併用方式が普及しはじめ、オートバイは扱いやすい存在となっていった。	NO_PRONOUNCE	NO_LABEL
その後、バッテリーは小型化し信頼性も高くなってきたことから、1980年代中期以降はセルモーターのみを装備してキックスターターを装備しない車種がほとんどとなった。	そのご、ばってりーわこがたかししんらいせいもたかくなってきたことから、せんきゅうひゃくはちじゅうねんだいちゅーきいこーわせるもーたーのみをそーびしてきっくすたーたーをそーびしないしゃしゅがほとんどとなった。	NO_LABEL
オートバイ用エンジンのセルモーターは直結式がほとんどである。	おーとばいよーえんじんのせるもーたーわちょっけつしきがほとんどである。	NO_LABEL
一部にはリコイルスターターが装備された車種も存在する。	いちぶにわりこいるすたーたーがそーびされたしゃしゅもそんざいする。	NO_LABEL
競技用車両の中には軽量化のためにキックスターターすら装備されず、押しがけ専用となっている仕様のものも存在する。	きょーぎよーしゃりょーのなかにわけいりょーかのためにきっくすたーたーすらそーびされず、おしがけせんよーとなっているしよーのものもそんざいする。	NO_LABEL
オートバイ用エンジンにおいてターボチャージャーやスーパーチャージャーは一般的ではないが一部の車種で採用されたことがある。	おーとばいよーえんじんにおいてたーぼちゃーじゃーやすーぱーちゃーじゃーわいっぱんてきでわないがいちぶのしゃしゅでさいよーされたことがある。	NO_LABEL
1980年代の初頭に一部のメーカーにより欧米販売車種を中心に導入された。	せんきゅうひゃくはちじゅうねんだいのしょとーにいちぶのめーかーによりおーべいはんばいしゃしゅをちゅーしんにどーにゅーされた。	NO_LABEL
2000年代、欧州ではプジョー・モトシクルから、スーパーチャージャー搭載のスクーターであるが販売された。	にせんねんだい、おーしゅーでわぷじょーもとしくるから、すーぱーちゃーじゃーとーさいのすくーたーであるがはんばいされた。	NO_LABEL
2015年、カワサキはスーパーチャージャーを搭載したNinja H2ならびにNinja H2Rを発売した。	NO_PRONOUNCE	NO_LABEL
