デンドロビウム・ロディゲシィ "Dendrobium loddigesii" はラン科の着生植物の一つ。	NO_PRONOUNCE	NO_LABEL
洋ランの一つ。	よーらんのひとつ。	NO_LABEL
学名は "D. pulchellum" も使われる。	NO_PRONOUNCE	NO_LABEL
この種はピンクを主体にした花が可愛らしい小型のデンドロビウムであり、栽培容易で初心者向けとされる。	このたねわぴんくをしゅたいにしたはながかわいらしいこがたのでんどろびうむであり、さいばいよーいでしょしんしゃむけとされる。	NO_LABEL
茎は這うか垂れ下がるので、それを用いて様々な栽培の方法がある。	くきわはうかたれさがるので、それをもちいてさまざまなさいばいのほーほーがある。	NO_LABEL
着生植物で、常緑の多年生草本。	ちゃくせいしょくぶつで、じょーりょくのたねんせいそーほん。	NO_LABEL
茎は細い棒状　長さ10-17cm、幅0.5-0.7cm。	NO_PRONOUNCE	NO_LABEL
葉は多肉で長さ4-6cm、幅1.2-1.8cm。	NO_PRONOUNCE	NO_LABEL
立ち上がるのでなく、這うか垂れる。	たちあがるのでなく、はうかたれる。	NO_LABEL
偽球茎からは頻繁に側面に芽を出し、それもまた這うか垂れるので、全体としては長い茎が分枝しつつ伸びるような形になる。	にせきゅーけいからわひんぱんにそくめんにめをだし、それもまたはうかたれるので、ぜんたいとしてわながいくきがぶんばいしつつのびるよーなかたちになる。	NO_LABEL
花期は日本では冬から早春。	かきわにっぽんでわふゆからそーしゅん。	NO_LABEL
花は径5cmほど、茎の先端近くから単独に生じる。	はなわけいごせんちめーとるほど、くきのせんたんちかくからたんどくにしょーじる。	NO_LABEL
萼片は淡いバラ色から紫色まで、側花弁はやや幅広くて藤色から紫色まで変異がある。	がくへんわあわいばらいろからむらさきいろまで、がわはなびらわややはばひろくてふじいろからむらさきいろまでへんいがある。	NO_LABEL
唇弁はほぼ円形に広がり、中心部は橙黄色でその外側は白、周辺部は紫に色づき、縁は細かな糸状に裂ける。	しんべんわほぼえんけいにひろがり、ちゅーしんぶわだいだいきいろでそのそとがわわしろ、しゅーへんぶわむらさきにいろづき、えんわこまかないとじょーにさける。	NO_LABEL
ラオスから中国南部に分布する。	らおすからちゅーごくなんぶにぶんぷする。	NO_LABEL
洋ランとして栽培される。	よーらんとしてさいばいされる。	NO_LABEL
デンドロビウムとしては小型種で、耐暑性も耐寒性も強く、栽培容易な初心者向きの種とされる。	でんどろびうむとしてわこがたしゅで、つよしあつせいもたいかんせいもつよく、さいばいよーいなしょしんしゃむきのたねとされる。	NO_LABEL
冬は最低気温が5度まで耐える。	ふゆわさいていきおんがごどまでたえる。	NO_LABEL
ただ、この種は非常に頻繁に高芽を出し、そこから根を生じて全体としては枝分かれしながら這い、また垂れるようにして広がる性質がある。	ただ、このたねわひじょーにひんぱんにこーめをだし、そこからねをしょーじてぜんたいとしてわえだわかれしながらはい、またたれるよーにしてひろがるせいしつがある。	NO_LABEL
そのために植木鉢からすぐにはみ出し、外に伸び出す傾向が強い。	そのためにうえきばちからすぐにはみだし、そとにのびだすけいこーがつよい。	NO_LABEL
従って吊り鉢で育てるのが適している。	したがってつりはちでそだてるのがてきしている。	NO_LABEL
さらには伸び出した茎の先を結び合わせるなどして大きなくす玉のような姿にすることも出来る。	さらにわのびだしたくきのさきをむすびあわせるなどしておーきなくすだまのよーなすがたにすることもできる。	NO_LABEL
また、ヘゴ板などに付けて育てるのも推奨される。	また、へごばんなどにつけてそだてるのもすいしょーされる。	NO_LABEL
