『失踪者』は、フランツ・カフカの長編小説。	NO_PRONOUNCE	NO_LABEL
1912年-1914年執筆。	せんきゅうひゃくじゅうにねんまいなすいちきゅうひゃくじゅうよんねんしっぴつ。	NO_LABEL
故郷を追放されたドイツ人の少年カール・ロスマンが、様々な出来事に遭遇しながら異国アメリカを放浪する様を描く未完の作品。	NO_PRONOUNCE	NO_LABEL
生前は未発表であったが、第一章にあたる部分のみ「火夫」のタイトルで生前の1913年に発表された。	NO_PRONOUNCE	NO_LABEL
この作品はカフカの死後の1927年、『審判』『城』に続いて友人マックス・ブロートの編集によって『アメリカ』の題で刊行された。	NO_PRONOUNCE	NO_LABEL
カフカの草稿自体には作品タイトルはなく、ブロートは生前のカフカが「アメリカ小説」と表現していたことに基いてこのタイトルをつけ、これが長い間これが作品名として流通していた。	NO_PRONOUNCE	NO_LABEL
しかしその後、カフカが『失踪者』のタイトルを予定していたことが日記から判明し、1983年の批判版全集以降は主に『失踪者』のタイトルが用いられるようになった。	NO_PRONOUNCE	NO_LABEL
『失踪者』は1911年末に着手され、1912年8月にかけて第一稿が書かれた。	NO_PRONOUNCE	NO_LABEL
この第一稿はカフカ自身によって破棄されており残っていない。	このだいいちこーわかふかじしんによってはきされておりのこっていない。	NO_LABEL
現在残っている第二稿に当たるものは1912年9月26日に書き始められたと考えられるもので、これは同月22日から23日にかけて短編「判決」を書き上げた直後にあたる。	NO_PRONOUNCE	NO_LABEL
この第二稿はカフカの6冊目の日記帳にて書き始められており、この日記帳が尽きたあとはそれ以前の日記帳の余白に続きが書かれている。	NO_PRONOUNCE	NO_LABEL
その後『変身』の執筆などをはさんで書き進められていたが、1913年1月頃に行き詰まり中断し、1913年5月に第1章のみ「火夫―ある断章」の題で、クルト・ヴォルフ社から薄い本の形で刊行された。	NO_PRONOUNCE	NO_LABEL
その後1914年8月になって再び『失踪者』に着手し、いくつかの断章を書き上げたものの最終的に未完のまま放棄された。	NO_PRONOUNCE	NO_LABEL
カフカ自身はアメリカに行った経験はなく、作中のアメリカの描写はすべてカフカの想像によるものである。	かふかじしんわあめりかにいったけいけんわなく、さくちゅーのあめりかのびょーしゃわすべてかふかのそーぞーによるものである。	NO_LABEL
カフカの従兄弟には両親の手でアメリカに送られた者がおり、また別の従兄弟は14歳の時に女中との間に子供を作っていて、これらのことから作品の着想が得られたと考えられている。	かふかのいとこにわりょーしんのてであめりかにおくられたものがおり、またべつのいとこわじゅうよんさいのときにじょちゅーとのまにこどもをつくっていて、これらのことからさくひんのちゃくそーがえられたとかんがえられている。	NO_LABEL
主人公カール・ロスマンの年齢は草稿では17歳だが、第一章にあたる部分を「火夫」として発表する際の清書では15歳に改められ、最終的に公刊された際さらに16歳に改められた。	NO_PRONOUNCE	NO_LABEL
マックス・ブロートの編集による『アメリカ』では「火夫」の原稿をそのまま用いたためロスマンは16歳に、その後の手稿版全集では草稿に基づいて17歳に設定されている。	NO_PRONOUNCE	NO_LABEL
カフカの草稿では第一章から第六章にあたる部分までに章題が付けられており、さらにこれに続くと考えられる2編の題のない断章および前後のつながりの不明な3つの断片が存在する。	NO_PRONOUNCE	NO_LABEL
マックス・ブロートは『アメリカ』として刊行する際にこれらを再構成し、「車が止まった」で始まるものと断片のうち2つを組み合わせて「隠れ家にて」の章名をつけ第七章とし、「町角でカールはポスターを目にした」で始まる最も長い断片に「オクラホマ野外劇場」の題をつけて第八章としている。	NO_PRONOUNCE	NO_LABEL
以下では1983年の手稿版全集の構成・内容に基づいて各章の概要を記す。	NO_PRONOUNCE	NO_LABEL
故郷のドイツで年上の女中に誘惑され、子供まで宿してしまったカール・ロスマンは両親の手でアメリカへ追い払われた。	NO_PRONOUNCE	NO_LABEL
ニューヨーク港へ汽船が到着し、下船しようとしたところ傘を忘れたことに気付いたロスマンは、慌てて取りに戻る。	にゅーよーくこーえきせんがとーちゃくし、げせんしようとしたところかさをわすれたことにきずいたろすまんわ、あわててとりにもどる。	NO_LABEL
そこでこの船の火夫に会い、話を聞くうちに彼がこの船で屈辱的な立場に置かれていることを知る。	そこでこのふねのかふにあい、はなしをきくうちにかれがこのふなでくつじょくてきなたちばにおかれていることをしる。	NO_LABEL
義憤に駆られたロスマンは船の上役に勢い込んで訴え出た。	ぎふんにかられたろすまんわふねのうわやくにいきおいこんでうったえでた。	NO_LABEL
しかし火夫は日頃の勤務態度が良くない上に、興奮して自分の主張をまとめられない。	しかしかふわひごろのきんむたいどがよくないうえに、こーふんしてじぶんのしゅちょーをまとめられない。	NO_LABEL
その時、1人の紳士がロスマンに語りかけた。	そのとき、ひとりのしんしがろすまんにかたりかけた。	NO_LABEL
彼エドワード・ヤーコブは上院議員であり、ロスマンの実の伯父であった。	NO_PRONOUNCE	NO_LABEL
ヤーコブはその場をまとめ、ロスマンを引き取ることになった。	やーこぶわそのばをまとめ、ろすまんをひきとることになった。	NO_LABEL
裕福な伯父の下で、ロスマンは何不自由ない暮らしに浸っていた。	ゆーふくなおじのもとで、ろすまんわなにふじゆーないくらしにひたっていた。	NO_LABEL
伯父は大きなオフィスで仲介業を経営しており、ロスマンの教育にも非常に熱心であった。	おじわおーきなおふぃすでちゅーかいぎょーをけいえいしており、ろすまんのきょーいくにもひじょーにねっしんであった。	NO_LABEL
ロスマンは英語に続いて、伯父の知己であるマック氏から乗馬を習うことになった。	ろすまんわえいごにつずいて、おじのちきであるまっくしからじょーばをならうことになった。	NO_LABEL
ある日、ロスマンは伯父の取引相手の銀行家、ポランダー氏に自宅へ招かれる。	あるひ、ろすまんわおじのとりひきあいてのぎんこーか、ぽらんだーしにじたくえまねかれる。	NO_LABEL
しかし伯父は何故か認めようとはしない。	しかしおじわなぜかみとめようとわしない。	NO_LABEL
ポランダー氏の懇願もあって、結局一晩がけで出かけることになったが、ロスマンは伯父が気懸かりだった。	ぽらんだーしのこんがんもあって、けっきょくひとばんがけででかけることになったが、ろすまんわおじがきかかりだった。	NO_LABEL
ロスマンとポランダー氏は、自宅玄関でポランダー氏の愛娘クララの出迎えを受けた。	ろすまんとぽらんだーしわ、じたくげんかんでぽらんだーしのまなむすめくららのでむかえをうけた。	NO_LABEL
クララはグリーン氏が来宅していることを告げる。	くららわぐりーんしがらいたくしていることをつげる。	NO_LABEL
ポランダー氏は憤慨するが、4人で夕食を囲むことになった。	ぽらんだーしわふんがいするが、よにんでゆーしょくをかこむことになった。	NO_LABEL
食事の後、ロスマンはクララに部屋へ案内されるが、ふとしたことから掴み合いの喧嘩になってしまう。	しょくじののち、ろすまんわくららにへやえあんないされるが、ふとしたことからつかみあいのけんかになってしまう。	NO_LABEL
しかしクララはレスリングの心得があり、ロスマンは押え付けられてしまった。	しかしくららわれすりんぐのこころえがあり、ろすまんわおさえつけられてしまった。	NO_LABEL
クララの部屋へ行く気が起こらず、邸宅を徘徊するロスマン。	くららのへやえいくきがおこらず、ていたくをはいかいするろすまん。	NO_LABEL
ポランダー氏とグリーン氏の下へ行き「伯父の為にすぐに帰りたい」と言う。	NO_PRONOUNCE	NO_LABEL
しかしグリーン氏に「12時になったら帰らせてあげる」と言われ、ロスマンは怒るが時間までクララの部屋へ行くことになる。	NO_PRONOUNCE	NO_LABEL
乗り気のしないまま、クララに習いたてのピアノを聞かせるロスマンに、冷やかし半分の拍手が降り注いだ。	のりきのしないまま、くららにならいたてのぴあのをきかせるろすまんに、ひやかしはんぶんのはくしゅがふりそそいだ。	NO_LABEL
相手はマック氏で、彼はクララの婚約者だった。	あいてわまっくしで、かれわくららのこんやくしゃだった。	NO_LABEL
時間が来てグリーン氏に会うと、彼は「12時にロスマンに渡すこと」と書かれた伯父からの手紙を差し出した。	NO_PRONOUNCE	NO_LABEL
そこには、自分の意志に背いたロスマンを追い出すと書かれていた。	そこにわ、じぶんのいしにそむいたろすまんをおいだすとかかれていた。	NO_LABEL
ロスマンはトランクと傘を手に、当てもなく夜の街へ飛び出した。	ろすまんわとらんくとかさをてに、あてもなくよるのまちえとびだした。	NO_LABEL
しばらくして、ロスマンは食堂を兼ねた安宿を見つけた。	しばらくして、ろすまんわしょくどーをかねたやすやどをみつけた。	NO_LABEL
そこへ泊まることにするがその部屋は相部屋で、既に先客がいた。	そこえとまることにするがそのへやわあいべやで、すでにせんきゃくがいた。	NO_LABEL
アイルランド人のロビンソンとフランス人のドラマルシュである。	あいるらんどじんのろびんそんとふらんすじんのどらまるしゅである。	NO_LABEL
朝になり、宿を出た三人はバターフォードの農場手伝いか、カリフォルニアの砂金洗いの仕事を求めて旅を共にする。	あさになり、やどをでたさんにんわばたーふぉーどののーじょーてつだいか、かりふぉるにあのしゃきんあらいのしごとをもとめてたびをともにする。	NO_LABEL
夜になり、野宿をすることになった。	よるになり、のじゅくをすることになった。	NO_LABEL
近くの「ホテル･オクシデンタル」で食料と酒を調達するよう言われたロスマンは、ホテルへ向かう。	NO_PRONOUNCE	NO_LABEL
親切な従業員の女にホテルへ泊まるよう誘われるが、ロスマンは断って外へ出る。	しんせつなじゅーぎょーいんのおんなにほてるえとまるよーさそわれるが、ろすまんわことわってそとえでる。	NO_LABEL
しかし三人は喧嘩になってしまい、ロスマンは1人でホテルへ行くことにする。	しかしさんにんわけんかになってしまい、ろすまんわひとりでほてるえいくことにする。	NO_LABEL
ホテルに着くと、ロスマンは先ほどの従業員で同国人の調理主任から、エレベーターボーイになるよう誘いを受けて承諾した。	ほてるにつくと、ろすまんわさきほどのじゅーぎょーいんでどーこくじんのちょーりしゅにんから、えれべーたーぼーいになるよーさそいをうけてしょーだくした。	NO_LABEL
タイピストのテレーゼとも仲良くなり、このラムゼスの町でロスマンの新生活が始まった。	たいぴすとのてれーぜともなかよくなり、このらむぜすのまちでろすまんのしんせいかつがはじまった。	NO_LABEL
ロスマンはエレベーターボーイの仕事を巧くこなす。	ろすまんわえれべーたーぼーいのしごとをたくみくこなす。	NO_LABEL
テレーゼや同僚のジャコモらと楽しいひと時を過ごし、1ヵ月半ほどが経った。	NO_PRONOUNCE	NO_LABEL
ある日、隣のエレベーターの担当が姿を見せず、ロスマンは業務に忙殺されていた。	あるひ、となりのえれべーたーのたんとーがすがたをみせず、ろすまんわぎょーむにぼーさつされていた。	NO_LABEL
そこへロビンソンがやってきた。	そこえろびんそんがやってきた。	NO_LABEL
彼は小洒落た身なりをしているが酒の臭いがした。	かれわしょーしゃれたみなりをしているがさけのにおいがした。	NO_LABEL
酔って纏わりつくロビンソンは、ロスマンに金を貸せという。	よってまつわりつくろびんそんわ、ろすまんにきんをかせという。	NO_LABEL
ロスマンは二度とここへ来ないことを条件に、その日のチップを渡そうとした。	ろすまんわにどとここえこないことをじょーけんに、そのひのちっぷをわたそうとした。	NO_LABEL
その時ロビンソンは体調を崩して嘔吐した。	そのときろびんそんわたいちょーをくずしておーとした。	NO_LABEL
ロスマンは外へ連れ出そうとするが、ロビンソンは歩けない。	ろすまんわそとえつれだそうとするが、ろびんそんわあるけない。	NO_LABEL
やむを得ず代理を立てて持ち場を離れたロスマンは、エレベーターボーイたちの寝室にロビンソンを担ぎこんだ。	やむをえずだいりをたててもちばをはなれたろすまんわ、えれべーたーぼーいたちのしんしつにろびんそんをかつぎこんだ。	NO_LABEL
ロスマンは持ち場へ戻ると、自分の不在がボーイ長に露見したことを知らされた。	ろすまんわもちばえもどると、じぶんのふざいがぼーいちょーにろけんしたことをしらされた。	NO_LABEL
事務室へ行くと、ロスマンはボーイ長に馘首を宣告される。	じむしつえいくと、ろすまんわぼーいちょーにかくしゅをせんこくされる。	NO_LABEL
さらに門衛主任にも難詰され、調理主任やテレーゼにもロスマンの失態が伝えられた。	さらにもんえいしゅにんにもなんきつされ、ちょーりしゅにんやてれーぜにもろすまんのしったいがつたえられた。	NO_LABEL
ロスマンを信じる二人だが、寝室のロビンソンが大暴れをしたことが伝わってきた。	ろすまんをしんじるふたりだが、しんしつのろびんそんがだいあばれをしたことがつたわってきた。	NO_LABEL
さらにロスマンの立場は悪くなり、クビが決定する。	さらにろすまんのたちばわわるくなり、くびがけっていする。	NO_LABEL
袋叩きにあって怪我だらけのロビンソンを連れて、ロスマンはホテルを出た。	ふくろだたきにあってけがだらけのろびんそんをつれて、ろすまんわほてるをでた。	NO_LABEL
ロスマンとロビンソンはドラマルシュのアパートへやってきた。	ろすまんとろびんそんわどらまるしゅのあぱーとえやってきた。	NO_LABEL
彼はとても高い部屋に住んでおり、二人を迎え入れて同棲相手のブルネルダに引き合わせた。	かれわとてもたかいへやにすんでおり、ふたりをむかえいれてどーせいあいてのぶるねるだにひきあわせた。	NO_LABEL
彼女は極度の肥満体で、部屋で寝そべっていた。	かのじょわきょくどのひまんたいで、へやでねそべっていた。	NO_LABEL
とても我儘な性格だが、ドラマルシュは巧くあしらっている。	とてもわがままなせいかくだが、どらまるしゅわたくみくあしらっている。	NO_LABEL
ロビンソンはロスマンにこれまでの経緯を語った。	ろびんそんわろすまんにこれまでのけいいをかたった。	NO_LABEL
二人で物乞いをした相手がブルネルダで、ドラマルシュは巧く取り入ったという。	ふたりでものごいをしたあいてがぶるねるだで、どらまるしゅわたくみくとりいったという。	NO_LABEL
ロビンソンは温情で使用人として生活していた。	ろびんそんわおんじょーでしよーにんとしてせいかつしていた。	NO_LABEL
怪我をしたロビンソン代わりに、ロスマンも使用人として生活することになった。	けがをしたろびんそんかわりに、ろすまんもしよーにんとしてせいかつすることになった。	NO_LABEL
その夜、判事選挙の候補者演説が行われていた。	そのよる、はんじせんきょのこーほしゃえんぜつがおこなわれていた。	NO_LABEL
お祭りのような騒ぎにロスマンは惹きつけられた。	おまつりのよーなさわぎにろすまんわひきつけられた。	NO_LABEL
しかしブルネルダに逆らったことから、ロスマンは爪弾きにされる。	しかしぶるねるだにさからったことから、ろすまんわつまびきにされる。	NO_LABEL
夜中、隣の部屋の学生メンデルと話し合い、学業と生活の両立の苦労を知らされる。	よなか、となりのへやのがくせいめんでるとはなしあい、がくぎょーとせいかつのりょーりつのくろーをしらされる。	NO_LABEL
結局、今すぐ働くべきだとロスマンは決断した。	けっきょく、いますぐはたらくべきだとろすまんわけつだんした。	NO_LABEL
ロスマンはロビンソンに起こされる。	ろすまんわろびんそんにおこされる。	NO_LABEL
ドラマルシュと一緒に、我儘放題のブルネルダを宥めながら3人がかりで彼女の入浴を手伝う。	どらまるしゅといっしょに、わがままほーだいのぶるねるだをなだめながらさんにんがかりでかのじょのにゅーよくをてつだう。	NO_LABEL
入浴後の身づくろいに際しても、ブルネルダに怒鳴られるロスマンたち。	にゅーよくごのみずくろいにさいしても、ぶるねるだにどなられるろすまんたち。	NO_LABEL
ロスマンは投槍に朝食の準備をするが、かえって手際がいいとブルネルダに誉められた。	ろすまんわなげやりにちょーしょくのじゅんびをするが、かえっててぎわがいいとぶるねるだにほめられた。	NO_LABEL
ロスマンはご褒美として、一握りの菓子をもらった。	ろすまんわごほーびとして、いちにぎりのかしをもらった。	NO_LABEL
ある朝、ロスマンはブルネルダを病人用の手押し車に乗せて玄関を出た。	あるあさ、ろすまんわぶるねるだをびょーにんよーのておしぐるまにのせてげんかんをでた。	NO_LABEL
人目につかないよう、早朝の出発となった。	ひとめにつかないよー、そーちょーのしゅっぱつとなった。	NO_LABEL
ブルネルダを灰色の布で包んで姿を隠すが、警官に見咎められる。	ぶるねるだをはいいろのぬのでつつんですがたをかくすが、けいかんにみとがめられる。	NO_LABEL
身分証明を見せてその場を凌ぐが、通行人も興味深そうに覗いてくる。	みぶんしょーめいをみせてそのばをしのぐが、つーこーにんもきょーみぶかそーにのぞいてくる。	NO_LABEL
中身はリンゴだと言い張り、ロスマンは先を急ぐ。	なかみわりんごだといーはり、ろすまんわさきをいそぐ。	NO_LABEL
やがて二十五番地の建物が見えてきた。	やがてにじゅーごばんちのたてものがみえてきた。	NO_LABEL
管理人に会い、ロスマンはほっと一息をついた。	かんりにんにあい、ろすまんわほっとひといきをついた。	NO_LABEL
ロスマンは街角でポスターを見かけた。	ろすまんわまちかどでぽすたーをみかけた。	NO_LABEL
そこには、オクラホマ劇場がクレイトンの競馬場で団員を募集する旨が書かれている。	そこにわ、おくらほまげきじょーがくれいとんのけいばじょーでだんいんをぼしゅーするむねがかかれている。	NO_LABEL
報酬は一切記載がないが、ロスマンは「条件不問」の文言に惹かれる。	NO_PRONOUNCE	NO_LABEL
交通費を勘定していると見知らぬ紳士が肩を叩き、クレイトン行きを励ましてくれた。	こーつーひをかんじょーしているとみしらぬしんしがかたをはたき、くれいとんいきをはげましてくれた。	NO_LABEL
ロスマンは地下鉄でクレイトンへ向かう。	ろすまんわちかてつでくれいとんえむかう。	NO_LABEL
競馬場の入り口では何百人もの女たちが、白い天使の出で立ちでトランペットを鳴らしていた。	けいばじょーのいりくちでわなんひゃくにんものおんなたちが、しろいてんしのいでたちでとらんぺっとをならしていた。	NO_LABEL
だが聴衆はあまりおらず、ロスマンは妻と乳母車の子供をつれた中年男性に話を聞くが、やはり応募者はほとんどいないという。	だがちょーしゅーわあまりおらず、ろすまんわつまとうばぐるまのこどもをつれたちゅーねんだんせいにはなしをきくが、やはりおーぼしゃわほとんどいないという。	NO_LABEL
男の妻に採用手続きの場所を確認するよう依頼され、舞台へ上がったロスマンは天使の1人に声をかけられる。	おとこのつまにさいよーてつずきのばしょをかくにんするよーいらいされ、ぶたいえあがったろすまんわてんしのひとりにこえをかけられる。	NO_LABEL
それは懐かしい女友達のファニーだった。	それわなつかしいおんなともだちのふぁにーだった。	NO_LABEL
再会を祝し、ロスマンはファニーのトランペットを借りた。	さいかいをしゅくし、ろすまんわふぁにーのとらんぺっとをかりた。	NO_LABEL
周りは好き勝手に吹いている中で、ロスマンは上手に演奏できた。	まわりわすきかってにふいているなかで、ろすまんわじょーずにえんそーできた。	NO_LABEL
男の楽団もいることを聞くが、ファニーは配属されても会えないかも知れないという。	おとこのがくだんもいることをきくが、ふぁにーわはいぞくされてもあえないかもしれないという。	NO_LABEL
オクラホマ劇場は範囲が見えないほど大きな世界一の大劇場だというのだ。	おくらほまげきじょーわはんいがみえないほどおーきなせかいいちのだいげきじょーだとゆうのだ。	NO_LABEL
採用場所が審判席であることを教えてもらい、ロスマンは人事主任に会う。	さいよーばしょがしんぱんせきであることをおしえてもらい、ろすまんわじんじしゅにんにあう。	NO_LABEL
家族連れの男も迎え入れ、採用面接が始まった。	かぞくずれのおとこもむかえいれ、さいよーめんせつがはじまった。	NO_LABEL
ロスマンは身分証を持たず、技術者として名乗り出る。	ろすまんわみぶんしょーをもたず、ぎじゅつしゃとしてなのりでる。	NO_LABEL
しかし技術者「志望」であることが分かると、別の窓口へ回される。	NO_PRONOUNCE	NO_LABEL
さらに別の窓口へ回され、結局「ヨーロッパの中学卒」窓口で採用となった。	NO_PRONOUNCE	NO_LABEL
ロスマンは担当の主任に「ネグロ」と偽名を名乗る。	NO_PRONOUNCE	NO_LABEL
正式に採用が決まり、外へ出ると先ほどの家族連れも採用が決まったと知らせてくれた。	せいしきにさいよーがきまり、そとえでるとさきほどのかぞくずれもさいよーがきまったとしらせてくれた。	NO_LABEL
ロスマンは自分の隊長に前職は事務所にいたこと、そこでの仕事には満足していなかったことを伝えた。	ろすまんわじぶんのたいちょーにまえしょくわじむしょにいたこと、そこでのしごとにわまんぞくしていなかったことをつたえた。	NO_LABEL
面談の結果ロスマンは「技術労働者」に決まった。	NO_PRONOUNCE	NO_LABEL
ファニーに伝えようとしたが、天使たちは既に次の場所へ出発したという。	ふぁにーにつたえようとしたが、てんしたちわすでにつぎのばしょえしゅっぱつしたという。	NO_LABEL
採用者に豪華な会食が振舞われ、その1人が長々と答弁を述べていた。	さいよーしゃにごーかなかいしょくがふるまわれ、そのひとりがながながととーべんをのべていた。	NO_LABEL
その宴席で、ロスマンはジャコモに再会した。	そのえんせきで、ろすまんわじゃこもにさいかいした。	NO_LABEL
彼はエレベーターボーイとして採用されたという。	かれわえれべーたーぼーいとしてさいよーされたという。	NO_LABEL
その時人事主任が壇上に現れ、オクラホマへの出発を告げた。	そのときじんじしゅにんがだんじょーにあらわれ、おくらほまえのしゅっぱつをつげた。	NO_LABEL
採用者たちは急いで駅へ向かい、列車に乗った。	さいよーしゃたちわいそいでえきえむかい、れっしゃにのった。	NO_LABEL
二日二晩の旅が続いた。	にのにばんのたびがつずいた。	NO_LABEL
ロスマンはジャコモと隣り合わせに座り、向かい合わせの少年たちとも親しくなった。	ろすまんわじゃこもととなりあわせにすわり、むかいあわせのしょーねんたちともしたしくなった。	NO_LABEL
第一日目、列車は山岳地帯を通った。	だいついたち、れっしゃわさんがくちたいをとーった。	NO_LABEL
川幅の広い渓流の上を、列車は走る。	かわはばのひろいけいりゅーのうえを、れっしゃわはしる。	NO_LABEL
水面に近いところを走ると、冷気がロスマンの顔にかかった。	すいめんにちかいところをはしると、れいきがろすまんのかおにかかった。	NO_LABEL
