「ありがとう…勇気」は、TOKIOの9作目のシングルである。	NO_PRONOUNCE	NO_LABEL
発売元はソニー・ミュージックレコーズ、販売元はソニー・ミュージックエンタテインメント。	はつばいもとわそにーみゅーじっくれこーず、はんばいもとわそにーみゅーじっくえんたていんめんと。	NO_LABEL
「ありがとう…勇気」は、フジテレビ系アトランタ五輪中継テーマ曲、および映画『That's カンニング! 史上最大の作戦?』主題歌に採用され、『第47回NHK紅白歌合戦』で歌われた。	NO_PRONOUNCE	NO_LABEL
また、c/wである「世界の屋根」は、フジテレビ系アトランタ五輪中継番組エンディングテーマ曲に採用された。	NO_PRONOUNCE	NO_LABEL
「世界の屋根」は、フジテレビ系アトランタ五輪中継番組のエンディングで1度だけオーケストラをバックに演奏し、歌っている。	NO_PRONOUNCE	NO_LABEL
その映像はビデオクリップとして『TOKIO VIDEO CLIP SELECTION 1994-1996』に収録されている。	NO_PRONOUNCE	NO_LABEL
CDでは長瀬の声は何故か入っておらず、全体を通して山口がリード・ボーカルをとっている。	NO_PRONOUNCE	NO_LABEL
