山口合同ガス株式会社は、山口県下関市に本社を置く、山口県の瀬戸内海側の8市を営業エリアとする一般ガス事業者である。	NO_PRONOUNCE	NO_LABEL
1915年2月18日に「下関瓦斯株式会社」として設立。	NO_PRONOUNCE	NO_LABEL
その後、1929年3月に防府瓦斯、1935年7月に徳山瓦斯、1977年12月に山口瓦斯、小野田瓦斯を合併し、現在の「山口合同ガス株式会社」となる。	NO_PRONOUNCE	NO_LABEL
バス事業者のサンデン交通とは経営者同士が親族であり、元国会議員の林義郎は子会社の西日本液化ガスの会長を兼ねていた。	ばすじぎょーしゃのさんでんこーつーとわけいえいしゃどーしがしんぞくであり、もとこっかいぎーんのはやしよしろーわこがいしゃのにしにほんえきかがすのかいちょーをかねていた。	NO_LABEL
ただし、相互にグループ会社とはなっていない。	ただし、そーごにぐるーぷかいしゃとわなっていない。	NO_LABEL
