エストニア・ソビエト社会主義共和国の国旗は、1940年から1988年にかけてエストニア・ソビエト社会主義共和国で用いられた国旗である。	えすとにあそびえとしゃかいしゅぎきょーわこくのこっきわ、せんきゅうひゃくよんじゅうねんからせんきゅうひゃくはちじゅうはちねんにかけてえすとにあそびえとしゃかいしゅぎきょーわこくでもちいられたこっきである。	NO_LABEL
1940年に、エストニアがソビエト連邦に併合された際に、最初の国旗が制定された。	せんきゅうひゃくよんじゅうねんに、えすとにあがそびえとれんぽーにへいごーされたさいに、さいしょのこっきがせいていされた。	NO_LABEL
ソビエト連邦の国旗を基にしたものであり、赤旗であり左上に金色の鎌と槌の紋様が付けられている。	そびえとれんぽーのこっきをもとにしたものであり、あかはたでありひだりうえにきんいろのかまとつちのもんよーがつけられている。	NO_LABEL
'ENSV'の文字はエストニア語で、エストニア・ソビエト社会主義共和国を意味する。	NO_PRONOUNCE	NO_LABEL
2代目の国旗は1953年2月6日に制定された。	にだいめのこっきわせんきゅうひゃくごじゅうさんねんにがつむいかにせいていされた。	NO_LABEL
これもソ連の国旗を基にしており、赤い星と鎌と槌が左上にあり、下部に青と白の波模様が付けられている。	これもそれんのこっきをもとにしており、あかいほしとかまとつちがひだりうえにあり、かぶにあおとしろのなみもよーがつけられている。	NO_LABEL
ラトビア・ソビエト社会主義共和国の国旗と類似しているが、波模様が尖っており、また最下部までに届いていない点が異なる。	らとびあそびえとしゃかいしゅぎきょーわこくのこっきとるいじしているが、なみもよーがとがっており、またさいかぶまでにとどいていないてんがことなる。	NO_LABEL
公式には裏面には星と鎌と槌の模様が無かった。	こーしきにわりめんにわほしとかまとつちのもよーがなかった。	NO_LABEL
