博多川は、福岡県福岡市博多区にある河川。	はかたがわわ、ふくおかけんふくおかしはかたくにあるかせん。	NO_LABEL
キャナルシティ博多近くで那珂川から分流し、博多区の市街地を流れ、須崎公園手前の須崎橋で再び那珂川に合流する。	きゃなるしてぃはかたちかくでなかがわからぶんりゅーし、はかたくのしがいちをながれ、すさきこーえんてまえのすさききょーでふたたびなかがわにごーりゅーする。	NO_LABEL
分流点にはゴム引布製起伏堰が設置され、普段は那珂川からの流入を防いでいるが、那珂川の水かさが増すと流れるようになっている。	ぶんりゅーてんにわごむひきぬのせいきふくぜきがせっちされ、ふだんわなかがわからのりゅーにゅーをふせいでいるが、なかがわのみずかさがますとながれるよーになっている。	NO_LABEL
中洲から天神にかけての地域は中世に至るまで博多湾に面した入り江となっており、冷泉津と呼ばれていた。	なかすからてんじんにかけてのちいきわちゅーせいにいたるまではかたわんにめんしたいりえとなっており、れいせんつとよばれていた。	NO_LABEL
また、現在の御笠川は比恵川と呼ばれ現在の住吉1丁目付近でこの入り江に注いでいた。	また、げんざいのみかさがわわひえがわとよばれげんざいのすみよしいちちょーめふきんでこのいりえにそそいでいた。	NO_LABEL
入り江は次第に陸化が進んで干潟となり、当時の比恵川下流部の流路が博多川の原型となった。	いりえわしだいにりくかがすすんでひがたとなり、とーじのひえがわしたるぶのりゅーろがはかたがわのげんけいとなった。	NO_LABEL
16世紀に比恵川の流路を北へ付け替えて直接博多湾に導く工事が行われ、1678年頃に入り江を区切る堤防がつくられるなどして中洲が陸地となった。	じゅうろくせいきにひえがわのりゅーろをきたえつけかえてちょくせつはかたわんにみちびくこーじがおこなわれ、せんろっぴゃくななじゅうはちねんごろにいりえをくぎるていぼーがつくられるなどしてなかすがりくちとなった。	NO_LABEL
これにより中洲の西側が那珂川の本流、東側が博多川となった。	これによりなかすのにしがわがなかがわのほんりゅー、ひがしがわがはかたがわとなった。	NO_LABEL
その後も陸化が進んで川幅が狭くなり現代に至っている。	そのごもりくかがすすんでかわはばがせまくなりげんだいにいたっている。	NO_LABEL
1991年から博多川夢回廊整備事業と呼ばれる親水環境整備により上流と下流を堰で区切る工事が施され、両岸に親水歩道が整備された。	せんきゅうひゃくきゅうじゅういちねんからはかたがわゆめかいろーせいびじぎょーとよばれるしんすいかんきょーせいびによりじょーりゅーとかりゅーをせきでくぎるこーじがほどこされ、りょーきしにしんすいほどーがせいびされた。	NO_LABEL
1999年からは博多座で催される六月歌舞伎に合わせて歌舞伎役者の「船乗り込み」が始まった。	NO_PRONOUNCE	NO_LABEL
