吉林大学は、中華人民共和国吉林省長春市朝陽区に本部がある12学部を擁する総合大学であり、中華人民共和国教育部直属の国家重点大学、211工程、985工程においても重点大学に選ばれている。	NO_PRONOUNCE	NO_LABEL
また、清華大学、北京大学、中国人民大学に並び、多くの政治家の出身校として有名である。	また、せいかだいがく、ぺきんだいがく、ちゅーごくじんみんだいがくにならび、おーくのせいじかのしゅっしんこーとしてゆーめいである。	NO_LABEL
特に化学、法学、物理学、哲学、数学、自動車、地学、基礎医学、精神神経医学、 考古学の分野が伝統的に強い。	とくにかがく、ほーがく、ぶつりがく、てつがく、すーがく、じどーしゃ、ちがく、きそいがく、せいしんしんけいいがく、こーこがくのぶんやがでんとーてきにつよい。	NO_LABEL
旧吉林大学、近隣の吉林工業大学・白求恩医科大学・長春科技大学・長春郵電学院の5大学が2000年に統合され、2004年、中国人民解放軍軍需大学も加入して現在に至る。	NO_PRONOUNCE	NO_LABEL
中国最大規模の大学を誇る。	ちゅーごくさいだいきぼのだいがくをほこる。	NO_LABEL
また校舎のいくつかは満州時代に日本が建築した政府系の建物をそのまま使用している。	またこーしゃのいくつかわまんしゅーじだいににっぽんがけんちくしたせいふけいのたてものをそのまましよーしている。	NO_LABEL
吉林工業大学は、中華人民共和国教育部直属の211工程重点大学であった。	きちばやしこーぎょーだいがくわ、ちゅーかじんみんきょーわこくきょーいくぶちょくぞくのにいちいちこーていじゅーてんだいがくであった。	NO_LABEL
白求恩医科大学は、中華人民共和国衛生部直属の重点医科大学であった。	はくもとむおんいかだいがくわ、ちゅーかじんみんきょーわこくえいせいぶちょくぞくのじゅーてんいかだいがくであった。	NO_LABEL
校名の「白求恩」の由来は、中国解放の為の戦いに命を捧げたカナダの外科医ノーマン・ベチューンを記念して作ったと言われている。	NO_PRONOUNCE	NO_LABEL
長春科技大学は、中華人民共和国国土資源部に直属する国家重点大学(地学）であった。	NO_PRONOUNCE	NO_LABEL
長春郵電学院は、中華人民共和国情報産業部に直属する、中国東北地区で唯一の電気通信工科大学であった。	NO_PRONOUNCE	NO_LABEL
中国人民解放軍軍需大学は、中国人民解放軍総後勤部に直属する大学であった。	ちゅーごくじんみんかいほーぐんぐんじゅだいがくわ、ちゅーごくじんみんかいほーぐんそーごつとむぶにちょくぞくするだいがくであった。	NO_LABEL
