サー・チャールズ・レオナード・ウーリーはイギリスの考古学者。	NO_PRONOUNCE	NO_LABEL
メソポタミアのウルの発掘はウーリーのよく知られた業績である。	めそぽたみあのうるのはっくつわうーりーのよくしられたぎょーせきである。	NO_LABEL
彼は"現代"考古学者のひとりとして考えられ、考古学への貢献により1935年、ナイトの称号をうけた。	NO_PRONOUNCE	NO_LABEL
牧師の息子としてロンドンのハクニーに生まれた。	ぼくしのむすことしてろんどんのはくにーにうまれた。	NO_LABEL
サリーにある公立の高校へ通い、オックスフォード大学で学んだ。	さりーにあるこーりつのこーこーえかよい、おっくすふぉーどだいがくでまなんだ。	NO_LABEL
1905年、ウーリーはオックスフォードにあるアシュモレアン博物館で補助学芸員となった。	せんきゅうひゃくごねん、うーりーわおっくすふぉーどにあるあしゅもれあんはくぶつかんでほじょがくげいいんとなった。	NO_LABEL
アーサー・エヴァンズにコルブリッジにあるローマ時代の遺跡の発掘調査員に指名され、ウーリーはここで考古学者としてのキャリアをスタートさせた。	NO_PRONOUNCE	NO_LABEL
後にウーリーは「私はかつて一度も考古学的な方法を勉強したことがなかった。	NO_PRONOUNCE	NO_LABEL
本からさえもだ。	ほんからさえもだ。	NO_LABEL
どう調査を行うか、どう基本的計画を立てるかさえまったくわからなかった」と言っている。	NO_PRONOUNCE	NO_LABEL
ロレンスとウーリーは1912年から1914年までカルケミシュでヒッタイト時代の遺跡の発掘を行った。	ろれんすとうーりーわせんきゅうひゃくじゅうにねんからせんきゅうひゃくじゅうよねんまでかるけみしゅでひったいとじだいのいせきのはっくつをおこなった。	NO_LABEL
大英博物館とペンシルベニア大学の共同調査の下、ウルでの発掘は1922年に始まり、ここでウーリーは王宮の墓地の発掘という貴重な発見をした。	だいえいはくぶつかんとぺんしるべにあだいがくのきょーどーちょーさのした、うるでのはっくつわせんきゅうひゃくにじゅうにねんにはじまり、ここでうーりーわおーきゅーのぼちのはっくつとゆうきちょーなはっけんをした。	NO_LABEL
アガサ・クリスティーの小説「メソポタミヤの殺人」はこの王宮墳墓の発見にモチーフを取っている。	NO_PRONOUNCE	NO_LABEL
クリスティはのちにウーリーのアシスタントのマックス・マローワンと結婚している。	くりすてぃわのちにうーりーのあしすたんとのまっくすまろーわんとけっこんしている。	NO_LABEL
今日のイラクにあるウルは多くのシュメールの王族の墓地であった。	きょーのいらくにあるうるわおーくのしゅめーるのおーぞくのぼちであった。	NO_LABEL
ウーリーは偉大な墳墓をいくつか発見した。	うーりーわいだいなふんぼをいくつかはっけんした。	NO_LABEL
墳墓の中にはシュメール文明がその絶頂期にあったころの大きな壁画が金銀の宝石、コップ、そのほかの服飾品とともに発見された。	ふんぼのなかにわしゅめーるぶんめいがそのぜっちょーきにあったころのおーきなへきががきんぎんのほーせき、こっぷ、そのほかのふくしょくひんとともにはっけんされた。	NO_LABEL
墳墓の中でも一番豪勢なものは女王Pu-Abiのものであり、それだけでも十分に驚くべき発見なのだが、それに加えてPu-Abiの墳墓は盗掘者たちの手がまったくついていなかった。	NO_PRONOUNCE	NO_LABEL
その墳墓の中からはシュメール語で彼女の名が刻まれた保存状態のいい円筒印章が見つかった。	そのふんぼのなかからわしゅめーるごでかのじょのながきざまれたほぞんじょーたいのいいえんとーいんしょーがみつかった。	NO_LABEL
女王の遺体は二人の召使とともに埋葬されており、おそらく死後も女王に仕えるために、この召使たちは毒を飲まされて死に至ったと考えられている。	じょおーのいたいわふたりのめしつかいとともにまいそーされており、おそらくしごもじょおーにつかえるために、このめしつかいたちわどくをのまされてしにいたったとかんがえられている。	NO_LABEL
ウーリーは見つかった副葬品のおかげで、Pu-Abiの葬儀を再現することができた。	NO_PRONOUNCE	NO_LABEL
今日、女王の頭飾り、円筒印章、女王の遺体はペンシルベニア大学博物館に展示されている。	きょー、じょおーのあたまかざり、えんとーいんしょー、じょおーのいたいわぺんしるべにあだいがくはくぶつかんにてんじされている。	NO_LABEL
1936年、ウルの発掘のあとウーリーは古代エーゲ文明とメソポタミア文明の関連性に興味をもち、1937年から1939年まで北シリアの地中海沿岸にあった古代都市Al Minaで、1946年から1949年までアララハでの調査を行った。	NO_PRONOUNCE	NO_LABEL
