スプリウス・セルウィリウス・ストルクトゥスは共和政ローマ初期の政治家・軍人。	NO_PRONOUNCE	NO_LABEL
紀元前476年に執政官を務めた。	きげんぜんよんひゃくななじゅうろくねんにしっせいかんをつとめた。	NO_LABEL
パトリキであるセルウィリウス氏族の出身。	ぱとりきであるせるうぃりうすしぞくのしゅっしん。	NO_LABEL
父は恐らく紀元前495年の執政官プブリウス・セルウィリウス・プリスクス・ストルクトゥスである。	ちちわおそらくきげんぜんよんひゃくきゅうじゅうごねんのしっせいかんぷぶりうすせるうぃりうすぷりすくすすとるくとぅすである。	NO_LABEL
ティトゥス・リウィウスはストルクトゥスのプラエノーメンをスプリウスとしているが、ハリカルナッソスのディオニュシオスとシケリアのディオドロスはガイウスとしている。	てぃとぅすりうぃうすわすとるくとぅすのぷらえのーめんをすぷりうすとしているが、はりかるなっそすのでぃおにゅしおすとしけりあのでぃおどろすわがいうすとしている。	NO_LABEL
カピトリヌスのファスティでは、紀元前463年の執政官プブリウス・セルウィリウス・プリスクスの父がスプリウスであり、紀元前418年の独裁官クィントゥス・セルウィリウス・プリスクス・フィデナスがプブリウスの子でスプリウスの孫であるため、ストルクトゥスのプラエノーメンはスプリウスである可能性が高い。	NO_PRONOUNCE	NO_LABEL
紀元前476年、ストルクトゥスは執政官に就任。	きげんぜんよんひゃくななじゅうろくねん、すとるくとぅすわしっせいかんにしゅーにん。	NO_LABEL
同僚執政官はアウルス・ウェルギニウス・トリコストゥス・ルティルスであった。	どーりょーしっせいかんわあうるすうぇるぎにうすとりこすとぅするてぃるすであった。	NO_LABEL
前年のクレメラ川の戦いでローマは敗北し。	ぜんねんのくれめらがわのたたかいでろーまわはいぼくし。	NO_LABEL
余勢をかったウェイイ軍はローマに進軍し、ティブル川を挟んでローマと向かい合うヤニクルムの丘（）を占領した。	よせいをかったうぇいーぐんわろーまにしんぐんし、てぃぶるがわをはさんでろーまとむかいあうやにくるむのおかかっこをせんりょーした。	NO_LABEL
執政官ガイウス・ホラティウス・プルウィッルスがこれを攻撃し勝利を得たものの、決定的ではなかった。	しっせいかんがいうすほらてぃうすぷるうぃっるすがこれをこーげきししょーりをえたものの、けっていてきでわなかった。	NO_LABEL
紀元前476年になってもウェイイ軍は撤退せず、ルティルスとストルクトゥスの両執政官はローマに留まり、この脅威に対処した。	きげんぜんよんひゃくななじゅうろくねんになってもうぇいーぐんわてったいせず、るてぃるすとすとるくとぅすのりょーしっせいかんわろーまにとまり、このきょーいにたいしょした。	NO_LABEL
ウェイイ軍はヤニクルムの丘を下ってティブル川を渡河し、ストルクトゥスの野営地を攻撃した。	うぇいーぐんわやにくるむのおかをくだっててぃぶるがわをとかし、すとるくとぅすのやえいちをこーげきした。	NO_LABEL
ストルクトゥスはこれを撃退し、ヤニクルムの丘に撤退させた。	すとるくとぅすわこれをげきたいし、やにくるむのおかにてったいさせた。	NO_LABEL
翌朝、ストルクトゥスはヤニクルムの丘の麓まで前進し、さらに丘を登ってウェイイ軍を攻撃した。	よくあさ、すとるくとぅすわやにくるむのおかのふもとまでぜんしんし、さらにおかをのぼってうぇいーぐんをこーげきした。	NO_LABEL
戦況はローマに不利なものであったが、このときルティルスが背後から攻撃した。	せんきょーわろーまにふりなものであったが、このときるてぃるすがはいごからこーげきした。	NO_LABEL
これでウェイイ軍は分断され、大敗北を喫した。	これでうぇいーぐんわぶんだんされ、だいはいぼくをきっした。	NO_LABEL
ハリカルナッソスのディオニュシオスの記述はやや異なり、ローマに飢餓が発生することを恐れ、両執政官が先手をとって攻撃したとする。	はりかるなっそすのでぃおにゅしおすのきじゅつわややことなり、ろーまにきががはっせいすることをおそれ、りょーしっせいかんがせんてをとってこーげきしたとする。	NO_LABEL
当初はローマが優勢であったが、ストルクトゥスの左翼が崩れて不利となり、その後ルティルスが別方向から攻撃して最終的にローマ軍が勝利した。	とーしょわろーまがゆーせいであったが、すとるくとぅすのさよくがくずれてふりとなり、そのごるてぃるすがべつほーこーからこーげきしてさいしゅーてきにろーまぐんがしょーりした。	NO_LABEL
ウェイイ軍はその夜に撤退した。	うぇいーぐんわそのよるにてったいした。	NO_LABEL
ローマ軍の損害も大きかったため、元老院は何れの執政官にも凱旋式の実施を認めなかった。	ろーまぐんのそんがいもおーきかったため、げんろーいんわいずれのしっせいかんにもがいせんしきのじっしをみとめなかった。	NO_LABEL
翌紀元前475年、ストルクトゥスの執政官任期が満了した後に、護民官ルキウス・カエディキウスとティトゥス・スタティウスは、前年のウェイイとの戦闘での不手際を理由にストルクトゥスを告訴した。	NO_PRONOUNCE	NO_LABEL
ティトゥス・リウィウスによれば、ストルクトゥスは自身を雄弁に弁護した。	てぃとぅすりうぃうすによれば、すとるくとぅすわじしんをゆーべんにべんごした。	NO_LABEL
特に、ストルクトゥスは前年に同様の理由でティトゥス・メネニウス・ラナトゥスを有罪として死に追いやった民会を非難した。	NO_PRONOUNCE	NO_LABEL
同僚執政官のルティルスも弁護に立ち、結果ストルクトゥスは無罪となった。	どーりょーしっせいかんのるてぃるすもべんごにたち、けっかすとるくとぅすわむざいとなった。	NO_LABEL
同年、執政官プブリウス・ウァレリウス・プブリコラがローマ軍の司令官としてエトルリアとそれと同盟したサビニと戦った。	どーねん、しっせいかんぷぶりうすうぁれりうすぷぶりこらがろーまぐんのしれいかんとしてえとるりあとそれとどーめいしたさびにとたたかった。	NO_LABEL
ストルクトゥスはこのときレガトゥスとして軍に加わった。	すとるくとぅすわこのときれがとぅすとしてぐんにくわわった。	NO_LABEL
ローマ軍はラティウム同盟とヘルニキからの援軍で増強されていた。	ろーまぐんわらてぃうむどーめいとへるにきからのえんぐんでぞーきょーされていた。	NO_LABEL
プブリコラはウェイイの城外に野営していたサビニ軍を攻撃し、出撃してきたウェイイ軍も撃破、両軍を城壁内に追い込んだ。	ぷぶりこらわうぇいーのしろがいにやえいしていたさびにぐんをこーげきし、しゅつげきしてきたうぇいーぐんもげきは、りょーぐんをじょーへきないにおいこんだ。	NO_LABEL
この勝利でプブリコラは凱旋式を実施している。	このしょーりでぷぶりこらわがいせんしきをじっししている。	NO_LABEL
