『伝説から神話へ -BUDOKAN…AT LAST-』は、山口百恵のライブ・アルバムとライブビデオ。	NO_PRONOUNCE	NO_LABEL
『伝説から神話へ -BUDOKAN…AT LAST-』は、山口百恵の6枚目のライブ・アルバム。	NO_PRONOUNCE	NO_LABEL
1980年11月19日にCBSソニーよりリリースされた。	せんきゅうひゃくはちじゅうねんじゅいちがつじゅうくにちにしーびーえすそにーよりりりーすされた。	NO_LABEL
全編曲: 服部克久。	NO_PRONOUNCE	NO_LABEL
『伝説から神話へ -BUDOKAN…AT LAST-』は、山口百恵の唯一のライブビデオ。	NO_PRONOUNCE	NO_LABEL
1980年11月19日にCBSソニーよりリリースされた。	せんきゅうひゃくはちじゅうねんじゅいちがつじゅうくにちにしーびーえすそにーよりりりーすされた。	NO_LABEL
ザ・ムスタッシュ	NO_PRONOUNCE	NO_LABEL
