PCRE（）は、 5 互換の正規表現をC言語で実装したライブラリである。	NO_PRONOUNCE	NO_LABEL
BSDライセンスで配布されている。	びーえすでぃーらいせんすではいふされている。	NO_LABEL
元は、メール転送エージェントの のために書かれたものであったが、現在では、、、、、などをはじめとした多数のソフトウェアに組み込まれている。	NO_PRONOUNCE	NO_LABEL
