宮丘公園は、札幌市西区にある公園。	みやおかこーえんわ、さっぽろしにしくにあるこーえん。	NO_LABEL
札幌市の市街地を公園や緑地の帯で包み込もうという「環状グリーンベルト構想」の一角であり、手稲山から連なる丘陵地にある。	NO_PRONOUNCE	NO_LABEL
公園内を北1条宮の沢通が縦断しており、公園内に生息する小動物の往来に配慮するために開削トンネル工法による宮丘トンネルを建設した。	こーえんないをきたいちじょーみやのさわどーりがじゅーだんしており、こーえんないにせいそくするしょーどーぶつのおーらいにはいりょするためにかいさくとんねるこーほーによるみやおかとんねるをけんせつした。	NO_LABEL
公園の下は札幌市水道局の西部配水池になっている。	こーえんのしたわさっぽろしすいどーきょくのせいぶはいすいちになっている。	NO_LABEL
展望台からは手稲地区や石狩湾から東の市街地にかけて180度の景色を楽しむことができる。	てんぼーだいからわていねちくやいしかりわんからひがしのしがいちにかけてひゃくはちじゅうどのけしきをたのしむことができる。	NO_LABEL
なお、クマの出没した形跡が見られることもあり、その場合は公園内が立入禁止となる。	なお、くまのしゅつぼつしたけいせきがみられることもあり、そのばあいわこーえんないがたちいりきんしとなる。	NO_LABEL
