マリー＝イザベル・ドルレアンは、フランス王ルイ・フィリップの王太孫、パリ伯フィリップの妻。	まりーいざべるどるれあんわ、ふらんすおーるいふぃりっぷのおーたまご、ぱりはくふぃりっぷのつま。	NO_LABEL
スペイン王女の称号も持っていた。	すぺいんおーじょのしょーごーももっていた。	NO_LABEL
スペイン語名はマリア・イサベル・デ・オルレアンス（）。	NO_PRONOUNCE	NO_LABEL
モンパンシエ公アントワーヌとその妻であるスペイン王女ルイサ・フェルナンダの長女として、セビーリャで生まれた。	NO_PRONOUNCE	NO_LABEL
スペイン王フェルナンド7世とフランス王ルイ・フィリップの孫にあたる。	NO_PRONOUNCE	NO_LABEL
1864年5月30日、父方の従兄にあたるパリ伯フィリップと結婚、8子をもうけた。	NO_PRONOUNCE	NO_LABEL
フランスから追われたフィリップ夫妻は、最初イギリスへ移った。	ふらんすからおわれたふぃりっぷふさいわ、さいしょいぎりすえうつった。	NO_LABEL
1871年に帰国が許され、一家はパリのオテル・マティニョンやノルマンディーのユー城で暮らした。	NO_PRONOUNCE	NO_LABEL
1886年、パリ伯一家は再びフランスを追放された。	せんはっぴゃくはちじゅうろくねん、ぱりはくいっかわふたたびふらんすをついほーされた。	NO_LABEL
1894年、亡命先のイギリス・バッキンガムシャーでパリ伯フィリップは死去した。	NO_PRONOUNCE	NO_LABEL
未亡人となったマリー＝イサベルはフランスのランダン城で暮らし、1919年にスペインのビリャマンリケ・デ・ラ・コンデサで死去した。	NO_PRONOUNCE	NO_LABEL
