EVEシリーズは、姫屋ソフトのゲームブランドのシーズウェアが製作したアドベンチャーゲームシリーズ。	いぶしりーずわ、ひめやそふとのげーむぶらんどのしーずうぇあがせいさくしたあどべんちゃーげーむしりーず。	NO_LABEL
1995年にPC-9800シリーズ用ソフトとして第1作となる『EVE burst error』が発売。	NO_PRONOUNCE	NO_LABEL
私立探偵・天城小次郎と国家エージェント・法条まりなの2人の主人公を交互に操作し物語を進行させる「マルチサイトシステム」が特徴の推理サスペンス調のアドベンチャーゲームである。	NO_PRONOUNCE	NO_LABEL
本作はアダルトゲーム市場で大ヒットを記録し、1997年には家庭用ゲーム機のセガサターンに移植され、20万本近いセールスを達成するなど、アドベンチャーゲームの歴史に名を刻む。	もとさくわあだるとげーむしじょーでだいひっとをきろくし、せんきゅうひゃくきゅうじゅうななにわかていよーげーむきのせがさたーんにいしょくされ、にじゅうまんほんちかいせーるすをたっせいするなど、あどべんちゃーげーむのれきしになをきざむ。	NO_LABEL
以降シリーズ化され、『EVE The Lost One』、『ADAM THE DOUBLE FACTOR』、『EVE ZERO』、『EVE The Fatal Attraction』、『EVE new generation』とリリースされた。	NO_PRONOUNCE	NO_LABEL
また、各ゲーム機などへの移植・リメイク版が制作されており、特に1作目は『EVE burst error PLUS』、『EVE』、『burst error EVE the 1st.』と数多い。	NO_PRONOUNCE	NO_LABEL
一方で、『EVE The Lost One』以降は、1作目の主要スタッフで企画・脚本・ゲームデザイン・プログラムを担当した剣乃ゆきひろ、キャラクターデザイン担当の田島直、音楽担当の梅本竜などはシーズウェアを退職しており、シリーズを重ねるたびに中核スタッフは変更されるようになった。	NO_PRONOUNCE	NO_LABEL
ゲーム売り上げ面も第2作『EVE The Lost One』では前作を上回るも、以降は下降線をたどっていった。	NO_PRONOUNCE	NO_LABEL
また、シーズウェアブランドは2003年以降事実上活動が停止し、販売元のゲームビレッジも『PLUS』の販売不振によりゲーム事業部が縮小された。	NO_PRONOUNCE	NO_LABEL
2006年以降は角川書店から発売されている。	にせんろくねんいこーわかどかわしょてんからはつばいされている。	NO_LABEL
なお、同シリーズの版権は他社へ移譲されたといわれていたが、2006年8月31日発売の『EVE new generation』には著作権者としてシーズウェアの名が記されている。	NO_PRONOUNCE	NO_LABEL
なお、本シリーズを題材にしたノベライズ本も出版されており、執筆者は『EVE The Lost One』のシナリオライターで後に直木賞受賞作家となる桜庭一樹。	NO_PRONOUNCE	NO_LABEL
ここでは各シリーズ作品とそのリメイク作、追加要素のある改題作のみ記述し機種移植作や限定版・廉価版などは除外するものとするが、1作目に関しては追加要素の変移がいちじるしく言葉通りの移植かリメイクかの線引が非常に難しいため、シリーズの原点である原作のみ示す。	NO_PRONOUNCE	NO_LABEL
執筆者は桜庭一樹。	しっぴつしゃわさくらばかずき。	NO_LABEL
