藤平 光一は、東京生まれ栃木県出身の日本の武道家。	ふじひらこーいちわ、とーきょーうまれとちぎけんしゅっしんのにっぽんのぶどーか。	NO_LABEL
心身統一合氣道の創始者。	NO_PRONOUNCE	NO_LABEL
1969年合氣道10段。	NO_PRONOUNCE	NO_LABEL
現一般社団法人心身統一合氣道会会長の藤平信一は息子。	NO_PRONOUNCE	NO_LABEL
幼少の頃は体が弱く、父親から柔道を教わった。	よーしょーのころわからだがよわく、ちちおやからじゅーどーをおそわった。	NO_LABEL
慶應義塾大学に入学後、肋膜炎を発症し山岡鉄舟の高弟小倉鉄樹などから禅や呼吸法を学び修行した結果、肋膜炎が完治した。	けいおーぎじゅくだいがくににゅーがくご、ろくまくえんをはっしょーしやまおかてっしゅーのこーていおぐらてつきなどからぜんやこきゅーほーをまなびしゅぎょーしたけっか、ろくまくえんがかんなおした。	NO_LABEL
19歳のときに合気道の開祖植芝盛平に入門する。	じゅうきゅうさいのときにあいきどーのかいそうえしばもりへいににゅーもんする。	NO_LABEL
慶應義塾大学経済学部卒業後、陸軍に入隊。	けいおーぎじゅくだいがくけいざいがくぶそつぎょーご、りくぐんににゅーたい。	NO_LABEL
中国へ派遣されたときの体験が「氣の原理」に大きく影響を与えた。	NO_PRONOUNCE	NO_LABEL
帰国後、中村天風に師事し、心身統一道を学ぶ。	きこくご、なかむらてんぷーにしじし、しんしんとーいつどーをまなぶ。	NO_LABEL
その後ハワイを始め、アメリカ各地で合気道を指導した。	そのごはわいをはじめ、あめりかかくちであいきどーをしどーした。	NO_LABEL
1969年、植芝盛平が亡くなる3ヶ月前に、公式に最高段位である10段を許される。	NO_PRONOUNCE	NO_LABEL
藤平は合気道で存命中に10段位を許された唯一の人物である。	NO_PRONOUNCE	NO_LABEL
当初は合気会の師範部長を務めていたが、二代道主植芝吉祥丸の指示でハワイ、アメリカ本土の諸道場から藤平の写真が取り外されるという事件が起こった。	とーしょわあいきかいのしはんぶちょーをつとめていたが、にだいどーしゅうえしばきっしょーまるのしじではわい、あめりかほんどのしょどーじょーからふじひらのしゃしんがとりはずされるとゆうじけんがおこった。	NO_LABEL
これを機に合気会から独立。	これをきにあいきかいからどくりつ。	NO_LABEL
1971年、氣の研究会を創設、1974年に心身統一合氣道会を立ち上げた。	NO_PRONOUNCE	NO_LABEL
1977年に、厚生省から国民の健康に寄与することを目的とした財団法人を認可され、「財団法人氣の研究会」となる。	NO_PRONOUNCE	NO_LABEL
1990年に「氣の郷」を設立。	NO_PRONOUNCE	NO_LABEL
企業向け、個人向けに「氣」の講習を行う。	NO_PRONOUNCE	NO_LABEL
2011年5月19日、肺炎のため死去。	にせんじゅういちねんごがつじゅうきゅうにち、はいえんのためしきょ。	NO_LABEL
91歳没。	きゅうじゅういっさいぼつ。	NO_LABEL
藤平光一は「氣」や「天地の理」を重んじ、心と体をひとつにする「心身統一」が重要であるとしている。	NO_PRONOUNCE	NO_LABEL
多くの問題はそれを行う人がうまく氣を使いこなしていないことや、心と体が不統一状態であることによってもたらされていると考えている。	NO_PRONOUNCE	NO_LABEL
心身統一合氣道はその概念を体現化しているものに過ぎず、あらゆるものに応用できるとしてスポーツ各界や企業研修、健康に対して氣の概念からアプローチしている。	NO_PRONOUNCE	NO_LABEL
プロ野球界に大きな影響を与えた。	ぷろやきゅーかいにおーきなえいきょーをあたえた。	NO_LABEL
藤平光一に影響を受けた有名人として、王貞治や長嶋茂雄、榎本喜八　広岡達朗等が挙げられる。	とうへいこーいちにえいきょーをうけたゆーめいじんとして、おーさだはるやながしましげお、えのもときはちひろーかたつろーとーがあげられる。	NO_LABEL
心身統一道は中村天風が説いた理論をもとにしている。	しんしんとーいつどーわなかむらてんぷーがといたりろんをもとにしている。	NO_LABEL
藤平光一が中国から帰国後、植芝盛平らと合気道の修行をしているとき、植芝が技を行うと円滑にいくが、弟子同士で行うと、そのようにならず力で頑張りあっている事に気付いた。	とうへいこーいちがちゅーごくからきこくご、うえしばもりへいらとあいきどーのしゅぎょーをしているとき、うえしばがわざをおこなうとえんかつにいくが、でしどーしでおこなうと、そのよーにならずちからでがんばりあっていることにきずいた。	NO_LABEL
その時に出会ったのが中村天風である。	そのときにであったのがなかむらてんぷーである。	NO_LABEL
中村は「心が体を動かす」と説き、そのことから「相手の氣を導いてから体を導く」ということを見出した。	NO_PRONOUNCE	NO_LABEL
また、相手の心を導く前に自らの心をコントロールできていなければ他者の心は導くことが出来ないと考え、心身統一道を土台とした心身統一合氣道を作り出した。	NO_PRONOUNCE	NO_LABEL
など	など	NO_LABEL
