1901年恐慌は、1901年にアメリカ合衆国のニューヨーク証券取引所で発生したノーザン・パシフィック鉄道の買収事件をきっかけに生じた恐慌である。	NO_PRONOUNCE	NO_LABEL
当時のアメリカの株式市場では、鉄道会社の株が大きな位置を占めていた。	とーじのあめりかのかぶしきしじょーでわ、てつどーがいしゃのかぶがおーきないちをしめていた。	NO_LABEL
アメリカの鉄道会社は完全な自由主義経済の中で運営されており、自動車交通も未発達であったこともあり、カルテル、トラストが横行していた。	あめりかのてつどーがいしゃわかんぜんなじゆーしゅぎけいざいのなかでうんえいされており、じどーしゃこーつーもみはったつであったこともあり、かるてる、とらすとがおーこーしていた。	NO_LABEL
例えば、一つの地域の鉄道ネットワークがすべて同じ鉄道会社で運営されるようになると、競争がないために運賃は高く、利便性は低く抑えられ、資本家のみが潤うような構図ができあがっていた。	たとえば、ひとつのちいきのてつどーねっとわーくがすべておなじてつどーがいしゃでうんえいされるよーになると、きょーそーがないためにうんちんわたかく、りべんせいわひくくおさえられ、しほんかのみがうるおうよーなこーずができあがっていた。	NO_LABEL
そのような状況の中で、ユニオン・パシフィック鉄道とノーザン・パシフィック鉄道のふたつの大陸横断鉄道が、それぞれ、鉄道の重要な結節点であったシカゴに自社のネットワークを延ばすことを画策した。	NO_PRONOUNCE	NO_LABEL
そのためには、新路線を建設するよりも、すでにシカゴに達している既存の鉄道会社、すなわちシカゴ・バーリントン・アンド・クインシー鉄道を買収し、自社のネットワークに組み込むことが得策であった。	NO_PRONOUNCE	NO_LABEL
CB&QはNP陣営に買収されるが、あきらめきれないUP陣営がCB&Qの親会社となったNPごと買収しようと画策した。	NO_PRONOUNCE	NO_LABEL
それにNP陣営が応酬したため、NPの株価は異常な上昇を続け、その暴騰に耐えきれなくなった多数の投資家たちの破産を招くことになった。	それにえぬぴーじんえいがおーしゅーしたため、えぬぴーのかぶかわいじょーなじょーしょーをつずけ、そのぼーとーにたえきれなくなったたすーのとーしかたちのはさんをまねくことになった。	NO_LABEL
最初にCB&QにアプローチしたのはNPであった。	NO_PRONOUNCE	NO_LABEL
NPは、銀行家のジョン・モルガンを後ろ盾に持つジェームズ・ジェローム・ヒルが率いる鉄道であった。	えぬぴーわ、ぎんこーかのじょんもるがんをうしろだてにもつじぇーむずじぇろーむひるがひきいるてつどーであった。	NO_LABEL
また、ウイリアム・ロックフェラーの後ろ盾を持つエドワード・ヘンリー・ハリマンが率いるUPもアプローチした。	NO_PRONOUNCE	NO_LABEL
CB&Qの社長であったチャールズ・エリオット・パーキンスは、1株200ドルを提示。	NO_PRONOUNCE	NO_LABEL
UPのハリマンらが想定していたよりも高額であったが、NPのヒルらはそれに同意し、ヒルとモルガンが率いるもう一つの大陸横断鉄道であるグレート・ノーザン鉄道とともにCB&Qの経営権を取得した。	NO_PRONOUNCE	NO_LABEL
このディールによりCB&Qの経営権に関する交渉はヒルとモルガン連合の勝利で決着したかに見えた。	NO_PRONOUNCE	NO_LABEL
ところがこれに対してUP陣営は、CB&Qの経営権を取得した親会社であるところのNPごとCB&Qの経営権を得るという画策を開始した。	NO_PRONOUNCE	NO_LABEL
現代でいうところのパックマン・ディフェンス方式である。	げんだいでいうところのぱっくまんでぃふぇんすほーしきである。	NO_LABEL
その策略は、モルガンと敵対していた投資銀行であるクーン・ローブ商会と、その頭取にしてかつてモルガンの強い影響下にあった銀行家・ジェイコブ・シフと共に進められた。	NO_PRONOUNCE	NO_LABEL
UPのハリマンは密かに株を買い進めたため、1901年4月から株価は急騰し、それを喜んだNPの重役までもが株を放出した。	NO_PRONOUNCE	NO_LABEL
5月に入ってさらに急騰し、5月4日土曜日、ハリマンはNP株の過半数にあと4千株、というところまでNP株を買い進めており、残る4千株をなんとしてでも買い進めるようにクーン・ローブ商会に命じたが、責任者にしてユダヤ教徒であるシフは安息日の土曜日を理由に寺院の礼拝に出席中であったために注文が実行されずにいた。	NO_PRONOUNCE	NO_LABEL
同日、NPのヒルがこの動きを察知し、イタリアにバケーションに出かけていたモルガンに対処を尋ねると、価格を問わず発行済み普通株の50%である37万5千株が確保できるよう15万株を買うようにと回答した。	NO_PRONOUNCE	NO_LABEL
翌5月5日は日曜日だったため、ヒル側は対策を練る時間を稼ぐことができた。	よくごがついつかわにちよーびだったため、ひるがわわたいさくをねるじかんをかせぐことができた。	NO_LABEL
ハリマンは優先株をコントロールすることができたが、ヒルは会社の内規で普通株の株主たちが優先株の発行を拒否することができることを知っていた。	はりまんわゆーせんかぶをこんとろーるすることができたが、ひるわかいしゃのないきでふつーかぶのかぶぬしたちがゆーせんかぶのはっこーをきょひすることができることをしっていた。	NO_LABEL
このハリマンとヒルの複雑な株の売り買いが株式市場に混乱を引き起こした。	このはりまんとひるのふくざつなかぶのうりかいがかぶしきしじょーにこんらんをひきおこした。	NO_LABEL
5月3日から日曜日を挟んで5月7日までにNPの株価は70ドルも上がり、同日の終値は143ドル。	ごがつみっかからにちよーびをはさんでごがつなのかまでにえぬぴーのかぶかわななじゅうどるもあがり、どーじつのおわりねわひゃくよんじゅうさんどる。	NO_LABEL
翌日には200ドルを超えた。	よくじつにわにひゃくどるをこえた。	NO_LABEL
この動きに乗った投機筋が近い将来の株価下落を見越しての証券会社や金融会社から株を借り、空売りを始めた。	このうごきにのったとーきすじがちかいしょーらいのかぶかげらくをみこしてのしょーけんがいしゃやきんゆーかいしゃからかぶをかり、からうりをはじめた。	NO_LABEL
株価の下落後に株を買い戻せば、その差額が利益となるためである。	かぶかのげらくごにかぶをかいもどせば、そのさがくがりえきとなるためである。	NO_LABEL
しかし、NP株は高騰し続けた。	しかし、えぬぴーかぶわこーとーしつずけた。	NO_LABEL
そのため、株を借りた投機家はその代金を精算せねばならず、そのために他社の株の売却をはじめた。	そのため、かぶをかりたとーきかわそのだいきんをせいさんせねばならず、そのためにたしゃのかぶのばいきゃくをはじめた。	NO_LABEL
その日のうちに他社の株は暴落した。	そのひのうちにたしゃのかぶわぼーらくした。	NO_LABEL
暴落した銘柄には、ハリマンのUPも含まれた。	NO_PRONOUNCE	NO_LABEL
翌5月8日、NP株は1000ドルを超えたが、ニューヨーク証券取引所開設以来の大暴落が市場を襲っていたため、それにつられてNP株がついに下落した。	よくごがつようか、えぬぴーかぶわせんどるをこえたが、にゅーよーくかぶしきしじょーかいせついらいのだいぼーらくがしじょーをおそっていたため、それにつられてなーすぷらくてぃしょなーかぶがついにげらくした。	NO_LABEL
この混乱は、モルガンのパートナーであるジョージ・パーキンスとシフ、もう一方の当事者であるハリマンとがともに動き、空売り側が1株150ドルで買い戻すことを許可することで収束に向かった。	NO_PRONOUNCE	NO_LABEL
これらの一連の動きをさして、ノーザン・パシフィック・コーナーという。	NO_PRONOUNCE	NO_LABEL
結果としてヒルとモルガン側が勝利を収めはしたが、翌年、NP、GN、CB&Qの持株会社ノーザン・セキュリティーズを設立した。	NO_PRONOUNCE	NO_LABEL
これにはハリマンやロックフェラーも参加した。	これにわはりまんやろっくふぇらーもさんかした。	NO_LABEL
しかし、1904年、反トラスト法のひとつであるシャーマン法に抵触するという判決が下った。	しかし、せんきゅうひゃくよねん、はんとらすとほーのひとつであるしゃーまんほーにていしょくするとゆうはんけつがくだった。	NO_LABEL
それまでの流れは、予審法廷では違法判決、巡回裁判所では合法判決、そして最高裁では違法5対合法4、かつ違法とした側の一人は補足意見つきで違法判決、というようなものであった。	NO_PRONOUNCE	NO_LABEL
そうした経緯もあり、判決により解体こそ命令されなかったが、事実上、利益の受け取りを禁止されたため、NPとGNの株を元の所有者に現在の資本比率に応じて返還し、99%減資を行った。	NO_PRONOUNCE	NO_LABEL
これにより、ハリマンの持株比率は以前よりも下がり、ヒルによるNP・GN支配はより強固なものとなった。	NO_PRONOUNCE	NO_LABEL
また、以後この三つの鉄道の協調体制は統合まで続くこととなった。	また、いごこのみっつのてつどーのきょーちょーたいせいわとーごーまでつずくこととなった。	NO_LABEL
