下里駅は、和歌山県東牟婁郡那智勝浦町大字下里にある、西日本旅客鉄道紀勢本線の駅である。	しもさとわ、わかやまけんひがしむろぐんなちかつーらちょーだいじかさとにある、にしにほんりょかくてつどーきせいほんせんのえきである。	NO_LABEL
相対式ホーム2面2線を有する地上駅である。	NO_PRONOUNCE	NO_LABEL
駅舎は紀伊田辺方面行きホームにあり、反対側の新宮方面行きホームへは太地寄りの跨線橋によって結ばれている。	えきしゃわきいたなべほーめんいきほーむにあり、はんたいがわのしんぐーかたもいきほーむえわたいじよりのこせんきょーによってむすばれている。	NO_LABEL
新宮駅管理の無人駅であり、自動券売機は設置されていない。	しんぐーえきかんりのむじんえきであり、じどーけんばいきわせっちされていない。	NO_LABEL
海際まで迫る山を太田川が削って出来た太田川河口の平地に広がる、下里集落の中心部にこの駅はある。	うみぎわまでせまるやまをおーたがわがけずってできたおーたがわかこーのひらちにひろがる、しもざとしゅーらくのちゅーしんぶにこのえきわある。	NO_LABEL
下里集落は1960年1月11日に那智勝浦町に組み入られるまでは下里町という単独の自治体であった。	しもざとしゅーらくわせんきゅうひゃくろくじゅうねんいちがつじゅういちにちになちかつーらちょーにくみはいられるまでわしもざとちょーとゆうたんどくのじちたいであった。	NO_LABEL
付近には中学校や下里古墳が、下里大橋を渡って向こうの高芝集落には小学校や町の役場の出張所などがある。	ふきんにわちゅーがっこーやしもさとこふんが、しもざとおーはしをわたってむこーのたかしばしゅーらくにわしょーがっこーやまちのやくばのしゅっちょーしょなどがある。	NO_LABEL
近年の1日平均乗車人員は以下の通り。	きんねんのついたちへいきんじょーしゃじんいんわいかのとーり。	NO_LABEL
