『天地を喰らう』は、本宮ひろ志の漫画。	NO_PRONOUNCE	NO_LABEL
『週刊少年ジャンプ』に連載された。	NO_PRONOUNCE	NO_LABEL
『三国志演義』を基にしているが、天界や魔界などが登場するなどオリジナルストーリーに近い内容になっている。	NO_PRONOUNCE	NO_LABEL
未完。	みかん。	NO_LABEL
単行本7巻、デラックス版4巻、文庫版4巻。	たんこーほんななかん、でらっくすばんよんかん、ぶんこばんよんかん。	NO_LABEL
連載は1983年に始まったが1984年に終了、物語としては劉備が国を興す前であり三国志らしい展開にはならなかった。	れんさいわせんきゅうひゃくはちじゅうさんねんにはじまったがせんきゅうひゃくはちじゅうよねんにしゅーりょー、ものがたりとしてわりゅーびがくにをおこすまえでありさんごくしらしいてんかいにわならなかった。	NO_LABEL
これについて作者は、単行本7巻巻末のあとがきで「ジャンプのアンケートではかなり低かったので連載は終了してしまったが、愛着がある作品だった」と語っている。	NO_PRONOUNCE	NO_LABEL
しかし、『コミックGON!』創刊号で当時の『週刊少年ジャンプ』各号のアンケート結果が公開されており、本作はアンケート人気の上位を維持し続けていたことが判明している。	NO_PRONOUNCE	NO_LABEL
人間の住む世界の他に天界・魔界・地獄界が存在するという伝奇的要素のある作品となっている。	NO_PRONOUNCE	NO_LABEL
この点では『水滸伝』や『西遊記』、『封神演義』に近い。	NO_PRONOUNCE	NO_LABEL
天界を率いる竜王の娘が若返るための儀式として、地上の人間と定期的に交わっている。	てんかいをひきいるりゅーおーのむすめがわかがえるためのぎしきとして、ちじょーのにんげんとていきてきにまじわっている。	NO_LABEL
交わった男は何でも望みを叶えることができる。	まじわったおとこわなにでものぞみをかなえることができる。	NO_LABEL
それによって曹操は天下を、孔明は知識を、劉備は肝っ玉を得る。	それによってそうそーわてんかを、ひろあきわちしきを、りゅーびわきもったまをえる。	NO_LABEL
なお、曹操と劉備は同一の竜神…竜王の娘・嵐と交わったが、実は劉備は天女とは交わっていなかった。	NO_PRONOUNCE	NO_LABEL
劉備が退治した黄巾賊首領張角の正体は「魔界の王」幻鐘大王であり、その死体を108に分割したものが108の魔星となり、108人に降り戦乱の元凶となる。	NO_PRONOUNCE	NO_LABEL
劉備・曹操にも落ち、劉備以外は魔性の虜になる。	NO_PRONOUNCE	NO_LABEL
天界の竜王をも従える「全宇宙の支配者」王皇大帝が戦乱に明け暮れる人類に怒り抹殺を宣言するが、竜王の懇願で劉備の働きを条件として保留され、嵐からその取り決めを知らされた劉備が物事の森羅万象を収め天下を統一する聖天子たるを宣言するための儀式「封禅の儀」に臨むところで終了する。	NO_PRONOUNCE	NO_LABEL
カプコンから、本作を基にしたファミリーコンピュータ用ロールプレイングゲームが発売されたほか、アーケードゲームが稼動され、ヒットした。	かぷこんから、もとさくをもとにしたふぁみりーこんぴゅーたよーろーるぷれいんぐげーむがはつばいされたほか、あーけーどげーむがかどーされ、ひっとした。	NO_LABEL
もっとも本宮がキャラクターデザインをしている点を除けば、漫画版との関連性はほとんど無い。	もっともほんぐーがきゃらくたーでざいんをしているてんをのぞけば、まんがばんとのかんれんせいわほとんどない。	NO_LABEL
上記のカプコンが発表したゲーム版がアジア圏ではかなり人気を博し、台湾ではファミコン版を基に勝手に作られた未認可のゲーム続編がいくつも存在している。	じょーきのかぷこんがはっぴょーしたげーむばんがあじあけんでわかなりにんきをはくし、たいわんでわふぁみこんばんをもとにかってにつくられたみにんかのげーむぞくへんがいくつもそんざいしている。	NO_LABEL
しかし本宮ひろ志のキャラクターまでは引き継かず、三国志を題材にした同名の作品の印象が強くなり、その中でも『呑食天地』シリーズはオンラインゲーム化までされた。	NO_PRONOUNCE	NO_LABEL
オンライン化された『呑食天地3』は『ほのぼのモグウ日記』というタイトルで日本でもサービスが開始されている。	NO_PRONOUNCE	NO_LABEL
セガのオンライントレーディングカードアーケードゲーム『三国志大戦』において、同作品中の劉備・関羽・張飛が「レジェンドカード」として登場している。	NO_PRONOUNCE	NO_LABEL
さらにVer2.1で諸葛亮・趙雲・呂布・馬超が追加された。	NO_PRONOUNCE	NO_LABEL
パソコン版はウィンキーソフト、PCエンジン版はNECアベニュー、パチスロはロデオ、パチンコは豊丸産業、ソーシャルゲームはCROOZ。	ぱそこんばんわうぃんきーそふと、ぴーしーえんじんばんわえぬいーしーあべにゅー、ぱちすろわろでお、ぱちんこわとよまるさんぎょー、そーしゃるげーむわくるーず。	NO_LABEL
それ以外の作品はカプコンが制作・販売。	NO_PRONOUNCE	NO_LABEL
なお、カプコン製作のゲームは、原作に登場する天上界、魔界のキャラクターは登場しない。	なお、かぷこんせいさくのげーむわ、げんさくにとーじょーするてんじょーかい、まかいのきゃらくたーわとーじょーしない。	NO_LABEL
