清川 新吾は日本の俳優。	きよかわしんごわにっぽんのはいゆー。	NO_LABEL
本名は峰新吾。	ほんみょーわみねしんご。	NO_LABEL
東京都渋谷区幡ヶ谷出身。	とーきょーとしぶやくはたがやしゅっしん。	NO_LABEL
法政大学卒業。	ほーせいだいがくそつぎょー。	NO_LABEL
細谷事務所に所属していた。	ほそやじむしょにしょぞくしていた。	NO_LABEL
父は元東宝プロデューサーの清川峰輔。	ちちわもととーほーぷろでゅーさーのきよかわみねすけ。	NO_LABEL
妻は女優の千曲里子。	つまわじょゆーのちくまさとご。	NO_LABEL
元妻は女優の泉京子。	もとつまわじょゆーのいずみきょーこ。	NO_LABEL
