六代目 瀬川 菊之丞3月25日 - 1976年11月3日）は、歌舞伎役者。	NO_PRONOUNCE	NO_LABEL
屋号は濱村屋。	やごーわはまむらや。	NO_LABEL
定紋は。	じょーもんわ。	NO_LABEL
本名は瀬川 豊太郎。	ほんみょーわせかわほーたろー。	NO_LABEL
東京浅草鳥越の生まれ。	とーきょーあさくさとりごえのうまれ。	NO_LABEL
1918年に 母方のいとこに当たる岩井久次郎の養子となる。	せんきゅうひゃくじゅうはちねんにははかたのいとこにあたるいわいきゅーじろーのよーしとなる。	NO_LABEL
1924年10月、大阪弁天座で瀬川仙魚を名のって初舞台。	せんきゅうひゃくにじゅうよねんじゅーがつ、おーさかべんてんざでせかわせんぎょをなのってはつぶたい。	NO_LABEL
のち二代目瀬川菊次郎を襲名し小芝居で活躍していたが、1932年4月梨園を離れ前進座に参加、翌1933年に六代目瀬川菊之丞を襲名した。	のちにだいめせかわきくじろーをしゅーめいししょーしばいでかつやくしていたが、せんきゅうひゃくさんじゅうにねんしがつりえんをはなれぜんしんざにさんか、よくせんきゅうひゃくさんじゅうさんねにろくだいめせがわきくのじょーをしゅーめいした。	NO_LABEL
脇役として、新作、丸本物、世話物などで活躍、。	NO_PRONOUNCE	NO_LABEL
1976年大阪中座の『新門辰五郎』の会津の小鉄が最後の舞台となり、同年11月3日梅田のホテル阪神で急死、69歳だった。	NO_PRONOUNCE	NO_LABEL
