登坂 広臣は、日本の歌手、俳優。	とさかひろおみわ、にっぽんのかしゅ、はいゆー。	NO_LABEL
三代目 J Soul Brothersのボーカル。	さんだいめじぇいそうるぶらざーずのぼーかる。	NO_LABEL
東京都出身。	とーきょーとしゅっしん。	NO_LABEL
身長178cm。	しんちょーひゃくななじゅうはちせんちめーとる。	NO_LABEL
血液型はA型。	けつえきがたわえーがた。	NO_LABEL
ソロ歌手活動はHIROOMI TOSAKA名義を使用。	NO_PRONOUNCE	NO_LABEL
窪田理容美容専門学校を卒業し美容師となるも半年で辞める。	くぼたりよーびよーせんもんがっこーをそつぎょーしびようしとなるもはんとしでやめる。	NO_LABEL
その後アパレル従業員を務めていた。	そのごあぱれるじゅーぎょーいんをつとめていた。	NO_LABEL
2010年2月より行われた「VOCAL BATTLE AUDITION 2」に参加。	NO_PRONOUNCE	NO_LABEL
9月15日、最終ライブ審査で合格し三代目 J Soul Brothersのボーカルに決定。	くがつじゅうごにち、さいしゅーらいぶしんさでごーかくしさんだいめじぇいそうるぶらざーずのぼーかるにけってい。	NO_LABEL
2014年、映画『ホットロード』で俳優デビュー。	NO_PRONOUNCE	NO_LABEL
2017年7月27日、配信シングル「WASTED LOVE」にてソロプロジェクトが始動。	NO_PRONOUNCE	NO_LABEL
未収録曲	みしゅーろくきょく	NO_LABEL
過去	かこ	NO_LABEL
