「哀しみのマンディ」は、1974年にリリースされたバリー・マニロウの楽曲およびシングル。	NO_PRONOUNCE	NO_LABEL
この曲は、元々は作曲家とが1971年に発表した「ブランディ」という楽曲であった。	NO_PRONOUNCE	NO_LABEL
この時は全英シングルチャートで12位を記録したが、テンポの早かったこのバージョンはアメリカ合衆国では失敗した。	このときわぜんえいしんぐるちゃーとでじゅうにーをきろくしたが、てんぽのはやかったこのばーじょんわあめりかがっしゅーこくでわしっぱいした。	NO_LABEL
1974年にバリー・マニロウによって「マンディ」の名でレコーディングされ、本作はマニロウの最初のBillboard Hot 100およびイージーリスニングチャート第1位獲得シングル、および初のゴールドシングルとなった。	NO_PRONOUNCE	NO_LABEL
スコット・イングリッシュが、気に入りの犬を題材にこの歌を書いたという説は、どうやら都市伝説のようである。	NO_PRONOUNCE	NO_LABEL
イングリッシュが語るには、ある記者が朝早く訪れて「ブランディ」とは誰かと尋ねてきたため、腹を立てたイングリッシュが記者を追い払うために「犬」の話を作り上げたのだという。	NO_PRONOUNCE	NO_LABEL
1971年のイングリッシュによるレコーディングとマニロウのレコーディングの間に、バンド「」が「ブランディ」（）というヒットソングを発表した。	NO_PRONOUNCE	NO_LABEL
そのため、マニロウがこの曲をレコーディングすることを決めた際、混同を避けるためにタイトルを「マンディ」に改めた。	NO_PRONOUNCE	NO_LABEL
マニロウにこの曲をレコーディングするよう勧めたのはクライヴ・デイヴィスである。	NO_PRONOUNCE	NO_LABEL
マニロウは最初この曲をイングリッシュのオリジナルと似たアップテンポの「バブルガム・ポップ・チューン」でレコーディングしたが、彼とプロデューサーのは完成した曲が気に入らなかったと伝えられている。	NO_PRONOUNCE	NO_LABEL
そのため、彼はこの曲をバラード調で歌い、より満足のいく結果となった。	そのため、かれわこのきょくをばらーどちょーでうたい、よりまんぞくのいくけっかとなった。	NO_LABEL
この曲はマニロウ初のヒットシングルであり、またクライヴ・デイヴィスのアリスタ・レコードレーベルからリリースされた作品として初めてBillboard Hot 100にチャートインしたヒット曲となった。	NO_PRONOUNCE	NO_LABEL
この曲には、後述するウエストライフ以外にもいくつか有名なカバーバージョンがある。	このきょくにわ、こーじゅつするうえすとらいふいがいにもいくつかゆーめいなかばーばーじょんがある。	NO_LABEL
「哀しみのマンディ」は2003年にアイルランド出身の男性ボーカルグループウエストライフによってカバーされ、4作目のスタジオ・アルバム『』からシングルカットされた2作目のシングルとしてリリースされた。	NO_PRONOUNCE	NO_LABEL
このシングルは、全英シングルチャートで1位を記録し、同バンド12作目となるチャート1位を記録したシングルとなった。	NO_PRONOUNCE	NO_LABEL
本作はイギリスにだけで190,000枚以上の売り上げを記録した。	NO_PRONOUNCE	NO_LABEL
