ジョージ・H・スミスは、アメリカ合衆国のSF作家。	NO_PRONOUNCE	NO_LABEL
アメリカ合衆国ミシシッピ州ビッグスバーグ生まれ。	あめりかがっしゅーこくみししっぴしゅーびっぐすばーぐうまれ。	NO_LABEL
カリフォルニア州で育ち、南カリフォルニア大学を卒業した。	かりふぉるにあしゅーでそだち、みなみかりふぉるにあだいがくをそつぎょーした。	NO_LABEL
ダイアナ・サマーズなど多くのペンネームでロマンス小説など100編以上の作品を執筆している。	NO_PRONOUNCE	NO_LABEL
日本語訳された作品には、異次元の地球である惑星アヌンを舞台にしたシリーズ第2作『第2次宇宙戦争』、および第3作『魔獣の棲む惑星』があるは未訳）。	NO_PRONOUNCE	NO_LABEL
