『召喚少女 〜ElementalGirl Calling〜』は、2007年12月6日に角川書店から発売されたPlayStation 2用育成シミュレーション・ロールプレイングゲーム。	NO_PRONOUNCE	NO_LABEL
ファンタジー世界の少年が21世紀初頭の日本から少女を召喚し、力を合わせて冒険していく物語。	ふぁんたじーせかいのしょーねんがにじゅういっせいきしょとーのにっぽんからしょーじょをしょーかんし、ちからをあわせてぼーけんしていくものがたり。	NO_LABEL
予約特典は、キャラクターデザインを務めたmooのゲーム関連イラスト10年分を収録した『moo art works 10th anniversary』。	NO_PRONOUNCE	NO_LABEL
ハードカバー装丁で全112ページという、付録にしては異例の豪華さだった。	NO_PRONOUNCE	NO_LABEL
剣と魔法が力を成すセルディアーシュの世界に覇をとなえる、リドラスヘイド王国。	けんとまほーがちからをなすせるでぃあーしゅのせかいにはをとなえる、りどらすへいどおーこく。	NO_LABEL
そこに生きる人間たちは、異種族「魔族」との戦争を100年にわたって続けてきた。	NO_PRONOUNCE	NO_LABEL
前線にほど近いホートウィッシュの街にはマグストラタム学院が設けられ、未来の英雄候補たちが修練を積んでいた。	ぜんせんにほどちかいほーとうぃっしゅのまちにわまぐすとらたむがくいんがもーけられ、みらいのえいゆーこーほたちがしゅーれんをつんでいた。	NO_LABEL
しかし主人公は栄えある学院生でありながら、精霊や獣を呼び出して行使する「召喚術」を一度も成功させたことがなかった。	NO_PRONOUNCE	NO_LABEL
このままでは落第必至というときに、彼が手に入れたのは不思議な品物「携帯電話」。	NO_PRONOUNCE	NO_LABEL
怪物に囲まれて窮地に陥った主人公の声が、携帯電話を通じて異界に届くと、彼の目の前には美しい少女が現れていた。	かいぶつにかこまれてきゅーちにおちいったしゅじんこーのこえが、けいたいでんわをつーじていかいにとどくと、かれのめのまえにわうつくしいしょーじょがあらわれていた。	NO_LABEL
キーアイテムである携帯電話を通じて、以下のようなさまざまなメニューを実行できる。	きーあいてむであるけいたいでんわをつーじて、いかのよーなさまざまなめにゅーをじっこーできる。	NO_LABEL
情報確認以外の作業を行うとバッテリーを消費し、電池切れになると通話やWEB閲覧ができなくなる。	NO_PRONOUNCE	NO_LABEL
充電は自宅等の拠点で行う。	じゅーでんわじたくとーのきょてんでおこなう。	NO_LABEL
学院では時間割に沿って授業が行われており、参加することで主人公のパラメータが上昇する。	がくいんでわじかんわりにそってじゅぎょーがおこなわれており、さんかすることでしゅじんこーのぱらめーたがじょーしょーする。	NO_LABEL
そして主人公の成長はそのまま召喚少女の強化につながっている。	そしてしゅじんこーのせいちょーわそのまましょーかんしょーじょのきょーかにつながっている。	NO_LABEL
早めに講堂に到着して準備する「タイムボーナス」や、基礎科目を順を追って受ける「チェインボーナス」など、能力値の上昇幅を増やす手段もある。	NO_PRONOUNCE	NO_LABEL
ただしパラメータには上限があり、レベルを上げずに講義に出席し続けてもいずれ成長は停止する。	ただしぱらめーたにわじょーげんがあり、れべるをあげずにこーぎにしゅっせきしつずけてもいずれせいちょーわていしする。	NO_LABEL
街の人々や学院の講師から、あるいはギルドを通じてさまざまなクエストが依頼される。	まちのひとびとやがくいんのこーしから、あるいわぎるどをつーじてさまざまなくえすとがいらいされる。	NO_LABEL
基本的に断ることが可能だが、ゲームクリアに必須のクエストもある。	きほんてきにことわることがかのーだが、げーむくりあにひっすのくえすともある。	NO_LABEL
一部の例外を除き、クエストを開始するには最低でも1人少女を召喚しておかねばならない。	いちぶのれいがいをのぞき、くえすとをかいしするにわさいていでもひとりしょーじょをしょーかんしておかねばならない。	NO_LABEL
クエスト進行中はクオータービュー画面となり、進行率100%に達するまで移動を続ける。	くえすとしんこーちゅーわくおーたーびゅーがめんとなり、しんこーりつひゃくぱーせんとにたっするまでいどーをつずける。	NO_LABEL
各地域の倉庫にクエストアイテムを収めることで進行速度を上げることができる。	かくちいきのそーこにくえすとあいてむをおさめることでしんこーそくどをあげることができる。	NO_LABEL
移動中に少女が何かを見つけると、先行して発見した内容をアピールしてくる。	いどーちゅーにしょーじょがなにかをみつけると、せんこーしてはっけんしたないよーをあぴーるしてくる。	NO_LABEL
主人公が少女に追いつくまでの間にアピールに応えると相手の機嫌が上昇し、発見物に対処することになる。	しゅじんこーがしょーじょにおいつくまでのまにあぴーるにこたえるとあいてのきげんがじょーしょーし、はっけんぶつにたいしょすることになる。	NO_LABEL
逆に無視すれば相手の機嫌は悪くなる。	ぎゃくにむしすればあいてのきげんわわるくなる。	NO_LABEL
なお、複数の召喚少女が同時にアピールを行っても、主人公が応えられるのは1人だけである。	なお、ふくすーのしょーかんしょーじょがどーじにあぴーるをおこなっても、しゅじんこーがこたえられるのわひとりだけである。	NO_LABEL
クエストを達成すると、報酬と経験を得られる。	くえすとをたっせいすると、ほーしゅーとけいけんをえられる。	NO_LABEL
そして規定の経験値を得ることで主人公のレベルが上がり、パラメータの最大値が増加する。	そしてきていのけいけんちをえることでしゅじんこーのれべるがあがり、ぱらめーたのさいだいちがぞーかする。	NO_LABEL
ただし増えるのはあくまで最大値だけであり、実際の能力は講義を受けないと向上しない。	ただしふえるのわあくまでさいだいちだけであり、じっさいののーりょくわこーぎをうけないとこーじょーしない。	NO_LABEL
クエスト進行中に敵と遭遇したり、シナリオの展開によって戦闘が発生する。	くえすとしんこーちゅーにてきとそーぐーしたり、しなりおのてんかいによってせんとーがはっせいする。	NO_LABEL
戦闘中でも携帯電話で少女を召喚できるが、会話やWEB閲覧はできない。	NO_PRONOUNCE	NO_LABEL
イベントによって発生した戦闘では自動的に召喚が行われることも多い。	いべんとによってはっせいしたせんとーでわじどーてきにしょーかんがおこなわれることもおーい。	NO_LABEL
戦闘中はスピードが速いユニットから行動ターンが回ってくる。	せんとーちゅーわすぴーどがはやいゆにっとからこーどーたーんがまわってくる。	NO_LABEL
複数ユニットが同時に行動可能になると、1ターン内に指示をまとめて出すことになる。	NO_PRONOUNCE	NO_LABEL
召喚少女たちの攻撃や補助の技は「奇跡」と呼ばれ、滞在時間を消費して行使される。	NO_PRONOUNCE	NO_LABEL
少女の代わりに主人公がサポートを行うこともできるが、1ターンには1度しか選べない。	NO_PRONOUNCE	NO_LABEL
攻撃にはそれぞれ有効な範囲があり、一部には相手の位置を移動させる効果が付随する。	こーげきにわそれぞれゆーこーなはんいがあり、いちぶにわあいてのいちをいどーさせるこーかがふずいする。	NO_LABEL
移動効果は1ターンの間持続するので、同時行動可能なユニットのうち1人が敵を宙に浮かせて回避不能にし、もう1人が本来命中率の低い攻撃を確実に当てるといったコンビネーションもできる。	NO_PRONOUNCE	NO_LABEL
戦闘に勝利することでも報酬と経験を得られる。	せんとーにしょーりすることでもほーしゅーとけいけんをえられる。	NO_LABEL
人間と敵対している種族。	にんげんとてきたいしているしゅぞく。	NO_LABEL
生来高い魔力を備えており、容姿は人間と変わらない者から角を持つ者、怪物然とした者までさまざまである。	せいらいたかいまりょくをそなえており、よーしわにんげんとかわらないものからかくをもつもの、かいぶつしかとしたものまでさまざまである。	NO_LABEL
実は、外部的要因によって生活圏を追われ、また闘争心をあおられている背景がある。	じつわ、がいぶてきよーいんによってせいかつけんをおわれ、またとーそーしんをあおられているはいけいがある。	NO_LABEL
いわゆる隠れキャラクター。	いわゆるかくれきゃらくたー。	NO_LABEL
携帯電話にある番号を入力すると出てくるのだが、すぐに通話が切れてしまう。	けいたいでんわにあるばんごーをにゅーりょくするとでてくるのだが、すぐにつーわがきれてしまう。	NO_LABEL
公式サイトによれば、コオルに余力があれば召喚少女として呼び出せたはずの人物だという。	こーしきさいとによれば、こおるによりょくがあればしょーかんしょーじょとしてよびだせたはずのじんぶつだという。	NO_LABEL
