「スロウライダー」は、1999年8月18日に発売されたサニーデイ・サービス通算11作目のシングル。	NO_PRONOUNCE	NO_LABEL
「スロウライダー」は『MUGEN』からの先行シングルでアルバム収録のものと同内容だが、エンディングが10秒ほど短い。	NO_PRONOUNCE	NO_LABEL
後にベスト・アルバム『Best Sky』に収録された。	NO_PRONOUNCE	NO_LABEL
2013年リリースの2枚組ベスト・アルバム『サニーデイ・サービス BEST 1995-2000』には、エンディングがフェード・アウトせず、終止まで行くミックスで収録された。	NO_PRONOUNCE	NO_LABEL
歌詞に“旅”がモチーフで登場することについて曽我部恵一は「別にテーマにしてるわけじゃないんだけどね。	NO_PRONOUNCE	NO_LABEL
そうしようと考えてるわけじゃない。	そーしよーとかんがえてるわけじゃない。	NO_LABEL
自分らがどこに向かってんだろうなってことも考えない。	じぶんらがどこにむかってんだろうなってこともかんがえない。	NO_LABEL
仮定したこともないよ。	かていしたこともないよ。	NO_LABEL
『ここまで来たんだな』なんてことも思わない。	NO_PRONOUNCE	NO_LABEL
それは全然思わないな。	それわぜんぜんおもわないな。	NO_LABEL
<スロウライダー>にしてもさ、“ゆっくり急げ”とか“急がばまわれ”とか、そういう感じだよね。	NO_PRONOUNCE	NO_LABEL
なんかこう、坂道を歩くように。	なんかこー、さかみちをあるくよーに。	NO_LABEL
相対的に物事を見てそんな風に思ってるわけじゃなくて、その逆。	そーたいてきにものごとをみてそんなかぜにおもってるわけじゃなくて、そのぎゃく。	NO_LABEL
周りもがんばってるから俺らもがんばろうとかさ、そういうところにはまると、ちょっとまずいなとは思うよね」「いろいろね、普通に『難しいもんだな』って感じるし、『わからないな』って思うよ。	NO_PRONOUNCE	NO_LABEL
だから“ゆっくり急げ”とかも、最近そういう風に考えるようになったんだよね。	NO_PRONOUNCE	NO_LABEL
“逡巡”がポイントなんだよね、結局すべて。	NO_PRONOUNCE	NO_LABEL
バンドも“逡巡”があるかどうかがポイントで、それが面白い。	NO_PRONOUNCE	NO_LABEL
だから、『我が道を行く』って感じではないのよ。	NO_PRONOUNCE	NO_LABEL
それはもう、全然ない。	それわもー、ぜんぜんない。	NO_LABEL
我が道を行きたいけど行けないっていうのがホントなんじゃない? 行けない中でいかに自分を保つかっていうかさ、自分を変化させていったり、周りを変化させていったりして、自分であり続けるみたいなことを続けるかどうか、なのかな?」「昔はね、『我が道を行く』って思ってたんですよ。	NO_PRONOUNCE	NO_LABEL
思わなくなったのは、成長したからじゃない? 今もこれからも結論を出さずに行こうとは思ってる。	NO_PRONOUNCE	NO_LABEL
それが自分なりのやり方だっていうか。	それがじぶんなりのやりかただっていうか。	NO_LABEL
ただね、サニーデイの音楽は、『人生そういうもんだよ』っていう歌じゃないよ。	NO_PRONOUNCE	NO_LABEL
結論を出す音楽じゃないんですよ。	けつろんをだすおんがくじゃないんですよ。	NO_LABEL
誰かの心に委ねる部分を残しておかないと意味がない。	だれかのこころにゆだねるぶぶんをのこしておかないといみがない。	NO_LABEL
答えを提示するんじゃなくて、過程を楽しむというか。	こたえをていじするんじゃなくて、かていをたのしむというか。	NO_LABEL
結論はね、変わっていく方が面白いと思う。	けつろんはね、かわっていくほーがおもしろいとおもう。	NO_LABEL
人によっても時代によっても。	ひとによってもじだいによっても。	NO_LABEL
今はその方がアグレッシブ…かも知れない」と、インタビューで語っていた。	NO_PRONOUNCE	NO_LABEL
「土曜日と日曜日」はオリジナル・アルバム未収録曲。	NO_PRONOUNCE	NO_LABEL
後にベスト・アルバム『Best Flower -B side collection-』に収録された。	NO_PRONOUNCE	NO_LABEL
CDシングルではモノラル・ミックスだが、アナログ12インチにはステレオ・ミックスで収録されている。	NO_PRONOUNCE	NO_LABEL
「スロウライダー REMIX」は杉浦英治によるタイトル・トラックのリミックス。	NO_PRONOUNCE	NO_LABEL
ロング・ヴァージョンがアナログ12インチに、そのエディット・ヴァージョンがCDシングルに、エディット・ヴァージョンのインストがアナログ12インチにそれぞれ収録されたが、いずれもこのシングルのみの収録。	NO_PRONOUNCE	NO_LABEL
CDは初回限定デジパック仕様、アナログ12インチはクリア・ヴィニール盤。	NO_PRONOUNCE	NO_LABEL
また、ジャケット表面はCDシングルがグリーン、アナログ12インチはオレンジが背景に使われ、裏面にはCDではスノードーム、アナログ12インチは大仏のミニチュアがレイアウトされた。	また、じゃけっとひょーめんわきゃっしゅでぃすぺんさーしんぐるがぐりーん、あなろぐじゅうにいんちわおれんじがはいけいにつかわれ、りめんにわきゃっしゅでぃすぺんさーでわすのーどーむ、あなろぐじゅうにいんちわだいぶつのみにちゅあがれいあうとされた。	NO_LABEL
アート・ディレクションを手がけた小田島等は「ノリノリでやらせていただいて、本当に楽しかったです。	NO_PRONOUNCE	NO_LABEL
曽我部くんていうのは本当に面白くて一緒にいて勉強になりました。	そがべくんてゆうのわほんとーにおもしろくていっしょにいてべんきょーになりました。	NO_LABEL
作品で気に入っているのはやっぱりオールタイムで<スロウライダー>。	NO_PRONOUNCE	NO_LABEL
この時期の頂点。	このじきのちょーてん。	NO_LABEL
セコハン・ポップっていうのを考えていて。	NO_PRONOUNCE	NO_LABEL
セコハンって、中古＝セコンドハンズね。	NO_PRONOUNCE	NO_LABEL
中古ポップ。	ちゅーこぽっぷ。	NO_LABEL
中古製品への愛情はありますね。	ちゅーこせいひんえのあいじょーわありますね。	NO_LABEL
新しいのに懐かしいっていうか、そういうものに永遠の構造を見出すというか。	あたらしいのになつかしいってゆうか、そーゆうものにえいえんのこーぞーをみいだすとゆうか。	NO_LABEL
最先端はよしなにして古い時代に属したいよね」と振り返っている。	NO_PRONOUNCE	NO_LABEL
「スロウライダー」には、スノードームをイメージしたスタジオでの演奏シーンによるプロモーション・ヴィデオが制作され、後にコンプリートPV集『TEENAGE FLASHBACK 1995-2000』に収録された。	NO_PRONOUNCE	NO_LABEL
