新潟県道560号田沢小栗山線は、新潟県十日町市および南魚沼市内の一般県道である。	にーがたけんどーごひゃくろくじゅうごーたざわこくりやませんわ、にーがたけんとーかまちしおよびみなみうおぬましないのいっぱんけんどーである。	NO_LABEL
通称魚沼スカイライン。	つーしょーうおぬますかいらいん。	NO_LABEL
魚沼丘陵を十二峠から八箇所山へ尾根伝いに走る新潟県の一般県道の路線の一つ。	うおぬまきゅーりょーをじゅーにとーげからはちかしょやまえおねずたいにはしるにーがたけんのいっぱんけんどーのろせんのひとつ。	NO_LABEL
魚沼丘陵の尾根に沿って国道17号と並走するように、南側の十日町市の十二峠・国道353号と北側の南魚沼市の八箇峠・国道253号とを結び、十日町盆地や六日町盆地を眺めることのできる眺望道路である。	NO_PRONOUNCE	NO_LABEL
1958年に開発計画を立案、1967年に着工された。	せんきゅうひゃくごじゅうはちねんにかいはつけいかくをりつあん、せんきゅうひゃくろくじゅうななねにちゃっこーされた。	NO_LABEL
そして、有料道路として1970年に開通。	そして、ゆーりょーどーろとしてせんきゅうひゃくななじゅうねんにかいつー。	NO_LABEL
その後、1977年に一般県道として無料開放された。	そのご、せんきゅうひゃくななじゅうななねんにいっぱんけんどーとしてむりょーかいほーされた。	NO_LABEL
道中には、魚沼展望台・十日町展望台・八箇峠見晴台がある。	NO_PRONOUNCE	NO_LABEL
十二峠入口と八箇峠入口には立て看板も存在する。	じゅーにとーげいりぐちとはっかとーげいりぐちにわたてかんばんもそんざいする。	NO_LABEL
冬期は閉鎖となり、一部の箇所は上越国際スキー場などゲレンデとして利用されている。	とーきわへいさとなり、いちぶのかしょわじょーえつこくさいすきーじょーなどげれんでとしてりよーされている。	NO_LABEL
新潟県は2008年4月1日から9月30日までの間、当路線と新潟県道50号小出奥只見線の一部区間の2路線に対する施設命名権の売却先公募を行った。	NO_PRONOUNCE	NO_LABEL
しかし応募企業はなく、売却計画は事実上頓挫した。	しかしおーぼきぎょーわなく、ばいきゃくけいかくわじじつじょーとんざした。	NO_LABEL
詳細は新潟県道50号小出奥只見線#施設命名権を参照。	NO_PRONOUNCE	NO_LABEL
全体的には1.5車線幅であるが新潟県道76号および新潟県道82号と交差する約2 km区間はセンターラインがある2車線である。	NO_PRONOUNCE	NO_LABEL
北側は道幅が狭くなる部分もある。	きたがわわみちはばがせまくなるぶぶんもある。	NO_LABEL
11月下旬から5月下旬にかけて冬季閉鎖がある。	じゅーいちがつげじゅんからごがつげじゅんにかけてとーきへいさがある。	NO_LABEL
また、大型車は通行禁止である。	また、おーがたしゃわつーこーきんしである。	NO_LABEL
道路沿いには魚沼展望台、十日町展望台、八箇峠展望台などに駐車場があり、ルート上に5カ所の展望台がある。	NO_PRONOUNCE	NO_LABEL
また、2017年11月25日に国道253号の指定を外れて編入された、十日町市・南魚沼市道八箇トンネル線との交差点から新潟県道74号との交差点までの区間も2車線である。	NO_PRONOUNCE	NO_LABEL
魚沼丘陵の十二峠と八箇峠を結ぶ山の尾根沿いにワインディングロードが走る。	うおぬまきゅーりょーのじゅーにとーげとはっかとーげをむすぶやまのおねぞいにわいんでぃんぐろーどがはしる。	NO_LABEL
石打、塩沢、六日町と関越自動車道に沿った盆地の街並が全線にわたり迫力のあるパノラマ風景が広がり、特に十日町展望台付近の小高い丘からは360度に視界が開ける。	いしうち、しおざわ、むいかまちとかんえつじどーしゃどーにそったぼんちのまちなみがぜんせんにわたりはくりょくのあるぱのらまふーけいがひろがり、とくにとーかまちてんぼーだいふきんのこだかいおかからわさんびゃくろくじゅうどにしかいがあける。	NO_LABEL
ルート上にある展望台からは、石内から南魚沼・塩沢方面の箱庭のような町並みや田園風景を展望できるほか、	NO_PRONOUNCE	NO_LABEL
八海山や越後駒ヶ岳をはじめとする山々を眺望できる。	はっかいさんやえちごこまがたけをはじめとするやまやまをちょーぼーできる。	NO_LABEL
