地金型金貨とは、投資用に発行されている金貨の一種。	じがねがたきんかとわ、とーしよーにはっこーされているきんかのいっしゅ。	NO_LABEL
収集型金貨が金地金価格よりはるかに高額で売買されるのに対し、金地金の時価相当分に、少額の上乗せ金を加算した時価で売買される。	しゅーしゅーがたきんかがきんじがねかかくよりはるかにこーがくでばいばいされるのにたいし、きんじがねのじかそーとーぶんに、しょーがくのうわのせきんをかさんしたじかでばいばいされる。	NO_LABEL
この上乗せ金を"プレミアム"と言い、プレミアムの額は、含まれる金の純分によって決まる。	NO_PRONOUNCE	NO_LABEL
純分1トロイオンスの金貨では5パーセント、1/2トロイオンスでは7パーセント、1/4トロイオンスでは9パーセント、1/10トロイオンスでは11パーセントとなっている。	NO_PRONOUNCE	NO_LABEL
近年において地金型金貨として発行されたものには法定通貨としての額面表示と共に、含有する金の量目の表示が刻まれていることが普通である。	きんねんにおいてじがねがたきんかとしてはっこーされたものにわほーていつーかとしてのがくめんひょーじとともに、がんゆーするきんのりょーめのひょーじがきざまれていることがふつーである。	NO_LABEL
品位が表示されていることもある。	ひんいがひょーじされていることもある。	NO_LABEL
額面と量目は必ずしも比例しない。	がくめんとりょーめわかならずしもひれいしない。	NO_LABEL
また額面は金貨の市価と比べて極めて低く設定されているので、実質的な意味はない。	またがくめんわきんかのしかとくらべてきめてひくくせっていされているので、じっしつてきないみわない。	NO_LABEL
最も代表的なメイプルリーフ金貨では、額面は市場価格の10分の1以下である。	NO_PRONOUNCE	NO_LABEL
以下は地金型として発行された主な金貨である。	いかわじがねがたとしてはっこーされたおもなきんかである。	NO_LABEL
また、ナポレオン金貨やソブリン金貨など、19世紀 ヨーロッパの金本位制時代に流通していた古金貨も、地金型金貨に含める場合もある。	また、なぽれおんきんかやそぶりんきんかなど、じゅうきゅうせいきよーろっぱのきんほんいせいじだいにりゅーつーしていたこきんかも、じがねがたきんかにふくめるばあいもある。	NO_LABEL
これらは、大量に現存している為に希少価値・歴史価値が低く、金地金なみの価格で小口投資用に取引されてきた為である。	NO_PRONOUNCE	NO_LABEL
戦争に伴う被占領やハイパーインフレを経験したヨーロッパ大陸諸国では、リスク回避のため資産の一部を金貨で保有する志向が強いとされる。	せんそーにともなうひせんりょーやはいぱーいんふれをけいけんしたよーろっぱたいりくしょこくでわ、りすくかいひのためしさんのいちぶをきんかでほゆーするしこーがつよいとされる。	NO_LABEL
