西倉吉駅は、鳥取県倉吉市西倉吉町にかつて置かれていた、日本国有鉄道倉吉線の駅である。	にしくらよしえきわ、とっとりけんくらよししにしくらよしちょーにかつておかれていた、にほんこくゆーてつどーくらよしせんのえきである。	NO_LABEL
倉吉線の廃線に伴い、1985年4月1日に廃駅となった。	くらよしせんのはいせんにともない、せんきゅうひゃくはちじゅうごねんしがつついたちにはいえきとなった。	NO_LABEL
廃止時点で、島式ホーム1面2線を有する地上駅であり、有人駅であった。	NO_PRONOUNCE	NO_LABEL
構内東側に駅舎があり、その南側に有蓋車用の貨物ホームが存在した。	こーないひがしがわにえきしゃがあり、そのみなみがわにゆーがいしゃよーのかもつほーむがそんざいした。	NO_LABEL
駅舎は撤去されているが、ホームの一部が保存され数メートルの線路が復元されている。	えきしゃわてっきょされているが、ほーむのいちぶがほぞんされすーめーとるのせんろがふくげんされている。	NO_LABEL
駅跡の敷地は、公園とトイレに整備されている。	えきあとのしきちわ、こーえんとといれにせいびされている。	NO_LABEL
西側の島式ホームも保存され公園の一部となっていたが、県道501号拡幅の際に撤去され現在の形となった。	NO_PRONOUNCE	NO_LABEL
なお、上小鴨駅跡まで続く遊歩道「花と緑のふれあいロード」の出発地点となっている。	NO_PRONOUNCE	NO_LABEL
