小川 隆は、日本の俳優である。	おがわたかしわ、にっぽんのはいゆーである。	NO_LABEL
本名小川 義照、戦後の一時期、老川 健とも名乗った。	ほんみょーおがわよしてる、せんごのいちじき、おいかわけんともなのった。	NO_LABEL
1891年10月21日、東京府東京市日本橋区馬喰町に生まれる。	せんはっぴゃくきゅうじゅういちねじゅーがつにじゅういちにち、とーきょーふとーきょーしにほんばしくばくろちょーにうまれる。	NO_LABEL
獣医学校に進学、同学を卒業したが、琵琶の教師になる。	じゅーいがっこーにしんがく、どーがくをそつぎょーしたが、びわのきょーしになる。	NO_LABEL
島村抱月による芸術演劇学校に入学、抱月らが1913年に設立した「第一次芸術座」に入団して創立メンバーとなり、同年、帝国劇場で上演された『サロメ』で初舞台を踏んだ。	NO_PRONOUNCE	NO_LABEL
1917年に同劇団を脱退した澤田正二郎らが結成した「新国劇」、中田正造の「新声劇」を経て、自らの名を冠した「小川隆一座」を結成した。	NO_PRONOUNCE	NO_LABEL
その後も明石潮の一座、伊川八郎らの「新潮座」といった劇団を転々としたという。	NO_PRONOUNCE	NO_LABEL
新たに「国劇第一線座」を主宰、1929年に日活と提携する。	NO_PRONOUNCE	NO_LABEL
この時期に前後して、6歳年下の新劇俳優・常盤操子と結婚しており、妻の常盤は、その前年、先に日活太秦撮影所に入社していた。	NO_PRONOUNCE	NO_LABEL
同年3月25日に公開されたサイレント映画『雲井龍雄』に主演して、映画界にデビューした。	NO_PRONOUNCE	NO_LABEL
このときに、小川の「国劇第一線座」から日活に入社した俳優に、小林重雄がいる。	NO_PRONOUNCE	NO_LABEL
1930年2月7日に公開された『貝殻一平 第一篇』に始まる4部作で主演、同年3月28日に公開された『高瀬舟』、1931年1月30日に公開された『恩愛五十両』に主演したほか、多くの作品に主演、大作では脇に回って好演した。	NO_PRONOUNCE	NO_LABEL
1933年からは、フリーランスとなった。	せんきゅうひゃくさんじゅうさんねからわ、ふりーらんすとなった。	NO_LABEL
1936年2月18日付の京都日出新聞では、「剣劇と映画で活躍した小川隆が廃業し、大阪で電気マッサージ、太陽燈治療所を開設」と報じられている。	NO_PRONOUNCE	NO_LABEL
1934年- 1939年の時期には、映画への出演記録は見当たらない。	NO_PRONOUNCE	NO_LABEL
1940年以降、フリーランスとして、日活京都撮影所のトーキー作品に出演し、脇を固めた。	せんきゅうひゃくよんじゅうねんいこー、ふりーらんすとして、にっかつきょーとさつえいしょのとーきーさくひんにしゅつえんし、わきをかためた。	NO_LABEL
1942年1月10日、戦時統制により、日活の製作部門が新興キネマなどと合併して大映が設立された後も、引き続いて日活京都撮影所改め大映京都撮影所の映画に出演した。	せんきゅうひゃくよんじゅうにねんいちがつとおか、せんじとーせいにより、にっかつのせいさくぶもんがしんこーきねまなどとがっぺいしてだいえいがせつりつされたのちも、ひきつずいてにっかつきょーとさつえいしょあらためだいえいきょーとうさつえいじょのえいがにしゅつえんした。	NO_LABEL
第二次世界大戦終結後は、大映京都撮影所の所属俳優となった。	だいにじせかいたいせんしゅーけつごわ、だいえいきょーとうさつえいじょのしょぞくはいゆーとなった。	NO_LABEL
1949年に一時的に「老川 健」と改名したが、のちにもとに戻している。	NO_PRONOUNCE	NO_LABEL
妻の常盤は1951年に引退したが、小川は、満62歳になった1953年11月12日に公開された『魔剣』で太閤秀吉を演じ、1954年3月3日に公開された『番町皿屋敷 お菊と播磨』に青山左近将監の役で出演したのを最後に引退した。	NO_PRONOUNCE	NO_LABEL
晩年は、歯科医の資格を取得し、京都府京都市右京区太秦多藪町にあった大映京都撮影所の同町内で、歯科医院を開業していたという。	ばんねんわ、しかいのしかくをしゅとくし、きょーとふきょーとしうきょーくうずまさたやぶまちにあっただいえいきょーとうさつえいじょのどーちょーないで、しかいいんをかいぎょーしていたという。	NO_LABEL
1959年9月、妻の常盤操子を病気によって亡くした。	せんきゅうひゃくごじゅうきゅうねんくがつ、つまのときわみさこをびょーきによってなくした。	NO_LABEL
その後、時期は不明であるが、『日本映画俳優全集・男優編』が発行された1979年10月23日の時点では、すでに死去したものとされている。	NO_PRONOUNCE	NO_LABEL
没年不詳。	ぼつねんふしょー。	NO_LABEL
すべてクレジットは「出演」である。	NO_PRONOUNCE	NO_LABEL
公開日の右側には役名、および東京国立近代美術館フィルムセンター、マツダ映画社所蔵などの上映用プリントの現存状況についても記す。	こーかいびのみぎがわにわやくめい、およびとーきょーこくりつきんだいびじゅつかんふぃるむせんたー、まつだえいがしゃしょぞーなどのじょーえいよーぷりんとのげんそんじょーきょーについてもしるす。	NO_LABEL
同センターなどに所蔵されていないものは、とくに1940年代以前の作品についてはほぼ現存しないフィルムである。	どーせんたーなどにしょぞーされていないものわ、とくにせんきゅうひゃくよんじゅうねんだいぜんのさくひんについてわほぼげんそんしないふぃるむである。	NO_LABEL
資料によってタイトルの異なるものは併記した。	しりょーによってたいとるのことなるものわへいきした。	NO_LABEL
すべて製作は「日活太秦撮影所」、配給は「日活」、すべてサイレント映画である。	NO_PRONOUNCE	NO_LABEL
すべて製作は「日活京都撮影所」、配給は「日活」、以降すべてトーキーである。	NO_PRONOUNCE	NO_LABEL
特筆以外すべて製作は「大映京都撮影所」、特筆以外すべて配給は「大映」である。	NO_PRONOUNCE	NO_LABEL
