ピバル酸は、"tert"-ブチル基を持つカルボン酸である。	NO_PRONOUNCE	NO_LABEL
異性体には吉草酸、イソ吉草酸、ヒドロアンゲリカ酸がある。	いせいたいにわきっそうさん、いそきっそうさん、ひどろあんげりかさんがある。	NO_LABEL
無色の液体もしくは白色結晶で、刺激臭を有する。	むしょくのえきたいもしくわはくしょくけっしょーで、しげきしゅーをゆーする。	NO_LABEL
単体は弱塩基で、水溶液は弱酸。	たんたいわじゃくえんきで、すいよーえきわじゃくさん。	NO_LABEL
 は 5.01。	NO_PRONOUNCE	NO_LABEL
強酸化剤と激しく反応する。	つよさんかざいとはげしくはんのーする。	NO_LABEL
多くの金属と反応して水素を生じる。	おーくのきんぞくとはんのーしてすいそをしょーじる。	NO_LABEL
立体障害による安定性を利用した保護基として使用される。	りったいしょーがいによるあんていせいをりよーしたほごきとしてしよーされる。	NO_LABEL
ピバル酸は "tert"-ブチルマグネシウムクロリドに二酸化炭素を吹き込んで製造される。	NO_PRONOUNCE	NO_LABEL
"tert"-ブチルシアニドの加水分解、2,2-ジメチルプロパン-2-オールのクロム酸酸化、ピナコロンの酸化、一酸化炭素とブタノール、イソブタノール、もしくはアセトンとの高温・高圧下の反応によっても合成される。	NO_PRONOUNCE	NO_LABEL
