『こりゃまた結構』は、1967年10月7日から同年12月30日までTBS系列局で放送されていたTBS製作のテレビドラマである。	NO_PRONOUNCE	NO_LABEL
ロート製薬の一社提供。	ろーとせいやくのいっしゃていきょー。	NO_LABEL
全13話。	ぜんじゅうさんわ。	NO_LABEL
大橋巨泉演じる幸福研究所所長の小吉が、町内で起こる事件を怪しげなギャンブル占いで次々と解決していくという内容のコメディドラマ。	おーはしきょせんえんじるこーふくけんきゅーじょしょちょーのこよしが、ちょーないでおこるじけんをあやしげなぎゃんぶるうらないでつぎつぎとかいけつしていくとゆうないよーのこめでぃどらま。	NO_LABEL
前作『窓からコンチワ』から引き続き巨泉、左とん平、由美かおるの3人がレギュラー出演していたほか、毎回さまざまな人物がゲスト出演していた。	NO_PRONOUNCE	NO_LABEL
TBSほかでは毎週土曜 19:30 - 20:00に放送されていたが、同時間帯に自社製作ドラマ『部長刑事』を放送していた朝日放送では3日遅れの火曜 19:30 - 20:00 に放送されていた。	NO_PRONOUNCE	NO_LABEL
