阿木津 英は日本の歌人。	あぎつえいわにっぽんのかじん。	NO_LABEL
短歌結社「八雁」主宰。	NO_PRONOUNCE	NO_LABEL
本名は末永英美子。	ほんみょーわすえながえみこ。	NO_LABEL
現代短歌にフェミニズム思想を導入し、女歌運動に影響を与える。	げんだいたんかにふぇみにずむしそーをどーにゅーし、おんなかうんどーにえいきょーをあたえる。	NO_LABEL
福岡県行橋市生まれ。	ふくおかけんゆくはししうまれ。	NO_LABEL
福岡県立京都高等学校卒業。	ふくおかけんりつみやここーとーがっこーそつぎょー。	NO_LABEL
九州大学文学部哲学科心理学専攻卒業。	きゅーしゅーだいがくぶんがくぶてつがくかしんりがくせんこーそつぎょー。	NO_LABEL
出版社、児童相談所の心理判定員、塾の教師などの職歴を重ねながら、作歌活動を続ける。	しゅっぱんしゃ、じどーそーだんじょのしんりはんていいん、じゅくのきょーしなどのしょくれきをかさねながら、さっかかつどーをつずける。	NO_LABEL
石田比呂志に師事し、1974年、石田が主宰する短歌結社「牙」に参加。	NO_PRONOUNCE	NO_LABEL
後に石田と結婚。	ごにいしだとけっこん。	NO_LABEL
1979年、「紫木蓮まで」30首にて短歌研究新人賞を受賞。	NO_PRONOUNCE	NO_LABEL
同年、短歌結社「未来」に所属するが後に退会。	NO_PRONOUNCE	NO_LABEL
1980年、第一歌集『紫木蓮まで・風舌』にて、現代歌人集会賞を受賞。	NO_PRONOUNCE	NO_LABEL
1984年、第二歌集『天の鴉片』にて現代歌人協会賞および熊日文学賞を受賞。	NO_PRONOUNCE	NO_LABEL
1985年、東京に移住。	せんきゅうひゃくはちじゅうごねん、とーきょーにいじゅー。	NO_LABEL
1987年、第三歌集『白微光』出版。	NO_PRONOUNCE	NO_LABEL
1991年、歌誌「あまだむ」を創刊主宰。	NO_PRONOUNCE	NO_LABEL
1994年、第四歌集『宇宙舞踏』出版。	NO_PRONOUNCE	NO_LABEL
2003年「巌のちから」30首によって短歌研究賞受賞。	NO_PRONOUNCE	NO_LABEL
石田死去による「牙」の解散後、2012年に島田幸典とともに「八雁」を創刊。	NO_PRONOUNCE	NO_LABEL
1983年5月、河野裕子・道浦母都子らと共に名古屋にてシンポジウム「おんな・短歌・おんな」を企画開催。	NO_PRONOUNCE	NO_LABEL
その他、2001年に「あまだむ」10周年記念シンポジウム「ナショナリズム・短歌・女性性」を開催するなど、多数のシンポジウムを企画。	NO_PRONOUNCE	NO_LABEL
現代短歌におけるフェミニズムの問題を追究し続けている。	げんだいたんかにおけるふぇみにずむのもんだいをついきゅーしつずけている。	NO_LABEL
