小沢コージは、日本の自動車評論家である。	おざわこーじわ、にっぽんのじどーしゃひょーろんかである。	NO_LABEL
「バラエティ自動車評論家」と自称し、独特の物言いで自動車雑誌を初めとする雑誌やウェブサイトに自動車関連の記事を寄稿している。	NO_PRONOUNCE	NO_LABEL
神奈川県横浜市出身。	かながわけんよこはまししゅっしん。	NO_LABEL
1989年に青山学院大学を卒業、本田技研工業に就職するも、半年で退社した。	せんきゅうひゃくはちじゅうきゅうねんにあおやまがくいんだいがくをそつぎょー、ほんだぎけんこーぎょーにしゅーしょくするも、はんとしでたいしゃした。	NO_LABEL
1990年春、出版社・二玄社に就職。	NO_PRONOUNCE	NO_LABEL
約3年間に渡って自動車雑誌「NAVI」の編集に携わった。	NO_PRONOUNCE	NO_LABEL
1993年、同社を退社しフリーとなる。	せんきゅうひゃくきゅうじゅうさんねん、どーしゃをたいしゃしふりーとなる。	NO_LABEL
一時、テレビのバラエティー番組「恋のから騒ぎ」に出演歴のあるタレント・眞野夏帆(旧名:塩村文夏）を弟子としていた。	NO_PRONOUNCE	NO_LABEL
現在は別に何名かのライター、アシスタントを抱えている。	げんざいわべつになんめいかのらいたー、あしすたんとをかかえている。	NO_LABEL
小沢による記事にはマニアを軽んずるような内容のものも目立ち、それに嫌悪感を抱く読者も少なくない。	おざわによるきじにわまにあをかろんずるよーなないよーのものもめだち、それにけんおかんをいだくどくしゃもすくなくない。	NO_LABEL
「ポルシェで女が釣れる！」「○○は精神病だった！」 などの記載をしたことがある。	NO_PRONOUNCE	NO_LABEL
またSMAPの流行歌「世界に一つだけの花」について、「ナンバーワンじゃなくてもいい、誰だってオンリーワン」の部分について、「クサくて優しいお友達ソング」と曲解したあげく「こんな曲が流行るから日本がダメになるんだ」などと批判するような自動車評論から逸脱した記事を書くことも多い。	NO_PRONOUNCE	NO_LABEL
文末には「!?」を多用する。	NO_PRONOUNCE	NO_LABEL
最も長い連載として、『ベストカー』の『愛のクルマバカ列伝』がある。	NO_PRONOUNCE	NO_LABEL
また、小沢は日本カー・オブ・ザ・イヤー選考委員であり、世界・カー・オブ・ザ・イヤー日本代表審査員のひとりでもある。	NO_PRONOUNCE	NO_LABEL
自身が所有する自動車は、ポルシェやロールスロイス、スバルの軽自動車などバラエティに富んでいる。	じしんがしょゆーするじどーしゃわ、ぽるしぇやろーるすろいす、すばるのけいじどーしゃなどばらえてぃにとんでいる。	NO_LABEL
