サムライ債は外国債券の一種であり、日本に居住していない海外の発行体が、日本国内市場で募集・発行する円建て債券。	NO_PRONOUNCE	NO_LABEL
日本を連想する言葉として「サムライ」の名があてられており、正式には円建外債という。	NO_PRONOUNCE	NO_LABEL
発行時に日本円で払い込み、利払い・償還金も日本円で支払われるのが一般的だが、利払いを外貨にするエイバース・デュアル債、償還金を外貨にする順デュアル債などもある。	NO_PRONOUNCE	NO_LABEL
日本法を準拠法とし、金融商品取引法に則って開示書類を作成し、原則として債券管理会社を設置する。	にっぽんほーをじゅんきょほーとし、きんゆーしょーひんとりひきほーにのっとってかいじしょるいをさくせいし、げんそくとしてさいけんかんりがいしゃをせっちする。	NO_LABEL
サムライ債の発行者側から見た利点としては、日本市場の規模の大きさからして巨額の資金を比較的低利で調達できる点、資金調達手段を多様化できる点があるが、欠点として日本市場特有の流動性の低さなどがある。	さむらいさいのはっこーしゃがわからみたりてんとしてわ、にほんしじょーのきぼのおーきさからしてきょがくのしきんをひかくてきていりでちょーたつできるてん、しきんちょーたつしゅだんをたよーかできるてんがあるが、けってんとしてにほんしじょーとくゆーのりゅーどーせいのひくさなどがある。	NO_LABEL
投資家側から見た利点としては、円建てであることから為替リスクが無い点、日本国債や日本企業の社債に比べて金利が高い点があるが、欠点として発行主体が海外にあるため信用リスクを評価しづらい点がある。	とーしかがわからみたりてんとしてわ、えんだてであることからかわせりすくがないてん、にほんこくさいやにほんきぎょーのしゃさいにくらべてきんりがたかいてんがあるが、けってんとしてはっこーしゅたいがかいがいにあるためしんよーりすくをひょーかしずらいてんがある。	NO_LABEL
最初のサムライ債は、1970年12月にアジア開発銀行が発行した60億円の債券であり、その背景には国際収支の黒字拡大と外貨準備の急増があった。	さいしょのさむらいさいわ、せんきゅうひゃくななじゅうねんじゅーにがつにあじあかいはつぎんこーがはっこーしたろくじゅうおくえんのさいけんであり、そのはいけいにわこくさいしゅーしのくろじかくだいとがいかじゅんびのきゅーぞーがあった。	NO_LABEL
当初は国際機関や政府機関などの公的機関によるストレートボンドのみだったが、1979年からは民間企業による起債が始まり、1996年には発行体の格付規制が撤廃されて途上国からの起債が活発化するなど、発行体や商品性の多様化が進んでいる。	とーしょわこくさいきかんやせいふきかんなどのこーてききかんによるすとれーとぼんどのみだったが、せんきゅうひゃくななじゅうきゅうねんからわみんかんきぎょーによるきさいがはじまり、せんきゅうひゃくきゅうじゅうろくねんにわはっこーたいのかくずけきせいがてっぱいされてとじょーこくからのきさいがかっぱつかするなど、はっこーたいやしょーひんせいのたよーかがすすんでいる。	NO_LABEL
2001年にはアルゼンチン政府が起債したサムライ債が事実上デフォルトとなり、リスクの高さが改めて浮き彫りになった。	にせんいちねんにわあるぜんちんせいふがきさいしたさむらいさいがじじつじょーでふぉるととなり、りすくのたかさがあらためてうきぼりになった。	NO_LABEL
