緑化工学とは、自然科学分野における農学生命科学のうち、緑化工についての学問である。	りょっかこーがくとわ、しぜんかがくぶんやにおけるのーがくせいめいかがくのうち、りょくかこーについてのがくもんである。	NO_LABEL
当該の学会としては、日本緑化工学会がある。	とーがいのがっかいとしてわ、にっぽんりょっかこーがくかいがある。	NO_LABEL
　	NO_PRONOUNCE	NO_LABEL
園芸・造園分野のうち緑化に関する技術、みどりを生やせる・または増やす技術を学術範囲としているが、農学・森林生態科学分野の技術を主に応用し、また生態保全学などの場所を蘇らせる自然再生、自然環境復元などをも範囲としてカバーしている。	NO_PRONOUNCE	NO_LABEL
緑化工学での緑化は、分化した生態系の修復や裸地に樹木草花を導入を意味し、本来的には法面保護など防災目的として発達した学問であったが、現在は修景緑化など、環境配慮やうるおいを与える等の目的から学術研究が多くなされてもいる。	りょっかこーがくでのりょくかわ、ぶんかしたせいたいけいのしゅーふくやはだかちにじゅもくくさばなをどーにゅーをいみし、ほんらいてきにわのりめんほごなどぼーさいもくてきとしてはったつしたがくもんであったが、げんざいわおさむけいりょくかなど、かんきょーはいりょやうるおいをあたえるひとしのもくてきからがくじゅつけんきゅーがおーくなされてもいる。	NO_LABEL
このため、屋上・壁面・人工地盤などの緑化、法面緑化など、日照の制約など、厳しい環境条件下で、植栽やその維持管理を可能にする技術の研究開発、緑化用資材や土壌開発・改良、緑化用植物・緑化用肥料、緑化資材といった材料研究やターフ状芝などや運動場の芝に適した土壌研究なども守備範囲としている。	NO_PRONOUNCE	NO_LABEL
なお、緑化工学技術者・従事者は、技術士の区分では、技術士総合技術監理部門では、森林－林業、技術士森林部門、また場合によっては技術士建設部門、技術士環境部門などを取得している。	NO_PRONOUNCE	NO_LABEL
緑化工関係の学科・講座・研究室等をもつあるいは教員がいる大学一覧。	NO_PRONOUNCE	NO_LABEL
これらの教員は通常は農学部出身で、農学系学部の造園や森林科学系の学科や課程、専攻分野に在籍していることが多い。	これらのきょーいんわつーじょーわのーがくぶしゅっしんで、のーがくけいがくぶのぞーえんやしんりんかがくけいのがっかやかてい、せんこーぶんやにざいせきしていることがおーい。	NO_LABEL
