トマ＝ロベール・ブジョーは、フランスの軍人である。	NO_PRONOUNCE	NO_LABEL
ビュジョーとも表記される。	びゅじょーともひょーきされる。	NO_LABEL
リモージュで生まれる。	りもーじゅでうまれる	NO_LABEL
1804年にナポレオン戦争においてナポレオン近衛連隊の擲弾兵として従軍し、ウルムの戦いやアウステルリッツの戦いに参加する。	せんはっぴゃくよんねんになぽれおんせんそーにおいてなぽれおんこのえれんたいのてきだんへいとしてじゅーぐんし、うるむのたたかいやあうすてるりっつのたたかいにさんかする。	NO_LABEL
スペインにおいても軍務に就き、オダールでの戦いでイギリス軍部隊を撃退して中佐に昇進し、帰国してさらに大佐に昇進する。	すぺいんにおいてもぐんむにつき、おだーるでのたたかいでいぎりすぐんぶたいをげきたいしてちゅーさにしょーしんし、きこくしてさらにたいさにしょーしんする。	NO_LABEL
復古したブルボン朝においては強制的に退役させられた。	ふっこしたぶるぼんちょーにおいてわきょーせいてきにたいえきさせられた。	NO_LABEL
ペリゴールで農業改革に取り組み、1829年に国会選挙で落選する。	ぺりごーるでのーぎょーかいかくにとりくみ、せんはっぴゃくにじゅうきゅうねんにこっかいせんきょでらくせんする。	NO_LABEL
しかし翌年のフランス7月革命を機に再び入隊して少将に任官され、同時に県議会議員と国民議会議員を兼任する。	しかしよくねんのふらんすしちがつかくめいをきにふたたびにゅーたいしてしょーしょーににんかんされ、どーじにけんぎかいぎーんとこくみんぎかいぎいんをけんにんする。	NO_LABEL
1836年にサン・メリー街の暴動においては暴動鎮圧作戦を指揮し、任務を達成するが市民への発砲などによって国内から批判を浴びることになる。	NO_PRONOUNCE	NO_LABEL
数ヶ月間当時のフランスの植民地アルジェリアに滞在するがアルジェリアの高級司令部には勤務せず、赴任していた。	すーかげつかんとーじのふらんすのしょくみんちあるじぇりあにたいざいするがあるじぇりあのこーきゅーしれいぶにわきんむせず、ふにんしていた。	NO_LABEL
しかし1839年にアルジェリア駐留軍総司令官の地位を求めて1840年にルイ・フィリップ王からアルジェリア総督を拝命する。	しかしせんはっぴゃくさんじゅうきゅうねんにあるじぇりあちゅーりゅーぐんそーしれいかんのちいをもとめてせんはっぴゃくよんじゅうねんにるいふぃりっぷおーからあるじぇりあそーとくをはいめいする。	NO_LABEL
そこでアルジェリアにおけるフランス軍部隊の編制・教義・戦術などを抜本的に変更して現地住民による抵抗を無力化に努め、1847年にはイスリィにおいて抵抗勢力の指導者であったアブド・アルカーディルを降伏させた。	NO_PRONOUNCE	NO_LABEL
この功績が認められてイスリィ公爵の地位を得る。	このこーせきがみとめられていすりぃこーしゃくのちいをえる。	NO_LABEL
しかしながらフランス政府と植民地運営において見解が相違したために本国に召還された。	しかしながらふらんすせいふとしょくみんちうんえいにおいてけんかいがそーいしたためにほんごくにしょーかんされた。	NO_LABEL
1848年における二月革命においてはパリ部隊の指揮を執るが、部隊行動は行っていない。	せんはっぴゃくよんじゅうはちねんにおけるにがつかくめいにおいてわぱりぶたいのしきをとるが、ぶたいこーどーわおこなっていない。	NO_LABEL
1849年においてヨーロッパ危機においてはアルプス軍の指揮を執るものの、同年にコレラによって死去する。	せんはっぴゃくよんじゅうきゅうねにおいてよーろっぱききにおいてわあるぷすぐんのしきをとるものの、どーねんにこれらによってしきょする。	NO_LABEL
任官した年においてはフランス軍は対反乱作戦に失敗し、戦力は陣地防御に釘付けにされ、兵站部隊は襲撃され、後方支援がアラブ人によって破壊された。	にんかんしたとしにおいてわふらんすぐんわたいはんらんさくせんにしっぱいし、せんりょくわじんちぼーぎょにくぎずけにされ、へいたんぶたいわしゅーげきされ、こーほーしえんがあらぶじんによってはかいされた。	NO_LABEL
フランス軍による報復攻撃でも敵は正面攻撃を回避して側面攻撃、落伍者の襲撃で疲弊させた。	ふらんすぐんによるほーふくこーげきでもてきわしょーめんこーげきをかいひしてそくめんこーげき、らくごしゃのしゅーげきでひへいさせた。	NO_LABEL
ブジョーは部隊を対反乱作戦のために再編し、従来の要塞構築ではなく斥候部隊と情報収集が重要だと考え方を転換した。	ぶじょーわぶたいをたいはんらんさくせんのためにさいへんし、じゅーらいのよーさいこーちくでわなくせっこーぶたいとじょほうしゅうしゅーがじゅーよーだとかんがえかたをてんかんした。	NO_LABEL
そして数百名から数千名の兵員から成る軽装部隊を編成して地方に派遣され、作戦においては予め選定した目標に一気に部隊を集中する行動を行った。	そしてすーひゃくめいからすーせんめいのへいいんからなるけいそーぶたいをへんせいしてちほーにはけんされ、さくせんにおいてわあらかじめせんていしたもくひょーにいっきにぶたいをしゅーちゅーするこーどーをおこなった。	NO_LABEL
また部隊の士気を向上させるために病気が横行する病院施設を整備し、衛生状態を改善した。	またぶたいのしきをこーじょーさせるためにびょーきがおーこーするびょーいんしせつをせいびし、えいせいじょーたいをかいぜんした。	NO_LABEL
さらに過重の重装備を軽量化して機動力を高め、大規模だった陣形を小型化して相互支援できるように射撃正面を重ねた。	さらにかじゅーのじゅーそーびをけいりょーかしてきどーりょくをたかめ、だいきぼだったじんけいをこがたかしてそーごしえんできるよーにしゃげきしょーめんをかさねた。	NO_LABEL
ブジョーはアラブの生活基盤を破壊することによって彼らを降伏させた。	ぶじょーわあらぶのせいかつきばんをはかいすることによってかれらをこーふくさせた。	NO_LABEL
そして「襲撃」は古来からアフリカで戦利品を獲得するために行われてきた大きな音声で敵を圧倒する襲撃の手法であったが、ブジョーはこの穀物の焼却や障害物の破壊を近代的な戦闘教義にまで発展させた。	NO_PRONOUNCE	NO_LABEL
ブジョーはアルジェリア各地でラジアを焦土作戦として実施し、移動性民族たちの生活基盤を徹底的かつ全面的に破壊した。	ぶじょーわあるじぇりあかくちでらじあをしょーどさくせんとしてじっしし、いどーせいみんぞくたちのせいかつきばんをてっていてきかつぜんめんてきにはかいした。	NO_LABEL
これは部隊の残忍性が大いに増大されることになり、1845年6月にエマブル・ペリシエ大佐がシェリフ地方海岸地帯に位置するダーラの洞窟に、アラブ人集団を罠で捕獲したときには最悪であった。	NO_PRONOUNCE	NO_LABEL
交渉の後にペリシエ大佐は洞窟に閉じ込めた上で洞窟の入り口で火を炊いて男女500人のアラブ人が窒息死した。	こーしょーののちにぺりしえたいさわどーくつにとじこめたうえでどーくつのいりくちでひをたいてだんじょごひゃくにんのあらぶじんがちっそくしした。	NO_LABEL
この行為が上院で報告されるとフランスでは抗議が噴出した。	このこーいがじょーいんでほーこくされるとふらんすでわこーぎがふんしゅつした。	NO_LABEL
ブジョーはしかしながらペリシエを賛美して同様の行為が行われることを示唆した。	ぶじょーわしかしながらぺりしえをさんびしてどーよーのこーいがおこなわれることをしさした。	NO_LABEL
同年8月にサンタルノ大佐は洞窟に逃げ込んだアラブ人を生き埋めにし、その後の2年間も大量虐殺は続いた。	どーねんはちがつにさんたるのたいさわどーくつににげこんだあらぶじんをいきうめにし、そのごのにねんかんもたいりょーぎゃくさつわつずいた。	NO_LABEL
アルジェリア征服が完了した後に一部の将校はフランス人移民の人種差別的行為を防止するために軍隊は働いていると考えるようになるが、アラブ人大衆の敵意と不信感は増大した。	あるじぇりあせいふくがかんりょーしたのちにいちぶのしょーこーわふらんすじんいみんのじんしゅさべつてきこーいをぼーしするためにぐんたいわはたらいているとかんがえるよーになるが、あらぶじんたいしゅーのてきいとふしんかんわぞーだいした。	NO_LABEL
ゆえにアラブ人の間でイスラームの信仰が復活し始めた際にも結束を強める恐れがあるとしてこれを警戒した。	ゆえにあらぶじんのまでいすらーむのしんこーがふっかつしはじめたさいにもけっそくをつよめるおそれがあるとしてこれをけいかいした。	NO_LABEL
またブジョーの成果はフランス国内の反発を生んでしまい、フランス兵の価値観を歪めてアフリカに秩序をもたらすというフランスの主張との乖離を生じさせた。	またぶじょーのせいかわふらんすこくないのはんぱつをうんでしまい、ふらんすへいのかちかんをゆがめてあふりかにちつじょをもたらすとゆうふらんすのしゅちょーとのかいりをしょーじさせた。	NO_LABEL
1846年にアレクシス・ド・トクヴィルはアルジェリアの軍当局の過剰な殺戮行為に衝撃を受けて批判し、これはフランス国内に19世紀末のドレフュス事件と重なって反軍活動を活性化させた。	NO_PRONOUNCE	NO_LABEL
さらにアルジェリア駐留フランス軍とフランスの関係は疎遠なものとなり、フランスのために命を懸けて戦っていると信じている軍人たちは自分たちが誤解されて理解されている、または無知にも拘らず批判されていることによって後々までフランスの社軍関係に影響を残した。	さらにあるじぇりあちゅーりゅーふらんすぐんとふらんすのかんけいわそえんなものとなり、ふらんすのためにいのちをかけてたたかっているとしんじているぐんじんたちわじぶんたちがごかいされてりかいされている、またわむちにもかかわらずひはんされていることによってあとあとまでふらんすのしゃぐんかんけいにえいきょーをのこした。	NO_LABEL
その後、マダガスカル総督を務めたジョゼフ・ガリエニやモロッコ総督であったリョーテによって、継承され発展し、アルジェリア戦争においてジャック・マシュによる苛烈な反乱鎮圧戦術に昇華された。	そのご、まだがすかるそーとくをつとめたじょぜふがりえにやもろっこそーとくであったりょーてによって、けいしょーされはってんし、あるじぇりあせんそーにおいてじゃっくましゅによるかれつなはんらんちんあつせんじゅつにしょーかされた。	NO_LABEL
