-ソルビトールデヒドロゲナーゼは、フルクトースとマンノース代謝酵素の一つで、次の化学反応を触媒する酸化還元酵素である。	NO_PRONOUNCE	NO_LABEL
反応式の通り、この酵素の基質は-ソルビトールと受容体、生成物は-ソルボースと還元型受容体である。	NO_PRONOUNCE	NO_LABEL
補因子としてFADを用いる。	NO_PRONOUNCE	NO_LABEL
組織名は-sorbitol:acceptor 1-oxidoreductaseで、別名に-sorbitol:1-oxidoreductaseがある。	NO_PRONOUNCE	NO_LABEL
