VIA Nanoは、台湾VIA Technologiesが販売するCPUの名称である。	NO_PRONOUNCE	NO_LABEL
VIA NanoはVIAが2008年5月に発表したCPU製品である。	NO_PRONOUNCE	NO_LABEL
従来の同社CPU製品同様にVIA傘下のセントールテクノロジーにより設計された。	じゅーらいのどーしゃしーぴーゆーせいひんどーよーにびあさんかのせんとーるてくのろじーによりせっけいされた。	NO_LABEL
開発コードネームはIsaiahまたはCNA/CNB/CNC/CNQ。	NO_PRONOUNCE	NO_LABEL
VIA C7の後継製品とされ、VIA製x86互換CPUとして初めてアウト・オブ・オーダー実行およびスーパースケーラ命令パイプラインを搭載する他、拡張命令としてSSE3命令・x64互換命令などがフルサポートがされた。	NO_PRONOUNCE	NO_LABEL
これにより前モデルであるC7から大幅に性能の向上がされているが、CNA/CNB/CNCにおいてはハードウェアマルチスレッディングやマルチコアといった並列化技術は搭載していない。	NO_PRONOUNCE	NO_LABEL
マルチコアは後にCNQコアにおいて搭載された、これはVIAのCPUがマルチコア化された初めての例である。	NO_PRONOUNCE	NO_LABEL
またAES暗号化エンジンPadLockによるハードウェア暗号化アクセラレーションをサポートする。	NO_PRONOUNCE	NO_LABEL
省電力技術Adaptive PowerSaverによる高度な省電力制御が可能であり、アイドル時の消費電力は100～200mWとなっている。	NO_PRONOUNCE	NO_LABEL
富士通の65nmプロセスルールとTSMCの40nmプロセスルールにより製造がされ、パッケージングはオンボード用のNanoBGA2のみで提供される。	NO_PRONOUNCE	NO_LABEL
VIA NanoのパッケージはVIA C7とピン互換性があり、C7対応にデザインされたシステムであれば容易に置換えが可能となっている。	NO_PRONOUNCE	NO_LABEL
2009年11月、VIAはマイナーチェンジとなるVIA Nano 3000シリーズを発表した。	NO_PRONOUNCE	NO_LABEL
これは従来のNanoプロセッサーに対し、20%低い消費電力で20%高い性能を実現したとされている。	これわじゅーらいのなのぷろせっさーにたいし、にじゅうぱーせんとひくいしょーひでんりょくでにじゅうぱーせんとたかいせいのーをじつげんしたとされている。	NO_LABEL
またCPU仮想化およびSSE4命令への対応といった新機能も搭載している。	NO_PRONOUNCE	NO_LABEL
Nano 3000シリーズの発表に伴い、従来モデルはNano 1000/2000シリーズと表記されている。	NO_PRONOUNCE	NO_LABEL
2011年1月、VIA Nano 3000をベースとしたデュアルコアCPUVIA Nano X2シリーズを発表した。	NO_PRONOUNCE	NO_LABEL
CentaurのコードネームがCNDではなくCNQになっているのはもともとQuadCore化を前提に設計されたためである	NO_PRONOUNCE	NO_LABEL
同年5月にはNano X2をベースにしたクアッドコアCPUであるVIA QuadCoreシリーズを発表した。	NO_PRONOUNCE	NO_LABEL
これは同じダイを基板上に2つ搭載する手法でクアッドコアを実現したCPUであり同じ手法を利用したCPUとしてはインテルのPentium DやCore2 Quadなどが知られている。	これわおなじだいをきばんじょーにふたつとーさいするしゅほーでくあっどこあをじつげんしたしーぴーゆーでありおなじしゅほーをりよーしたしーぴーゆーとしてわいんてるのぺんてぃあむでぃーやこあつーくあっどなどがしられている。	NO_LABEL
また、VIA Nanoプロセッサーには消費電力や発熱に応じてクロックを引き上げる自動オーバークロック機能を備えており、シングルスレッド時の性能を引き上げることが可能となっている。	NO_PRONOUNCE	NO_LABEL
VIA Nanoの製品ラインナップはメインストリームデスクトップ/ノートPC向けのLシリーズと、SFFデスクトップ/UMPC向けのUシリーズ及び組み込み向けのEシリーズに大別される。	NO_PRONOUNCE	NO_LABEL
また、ファンレス駆動が可能なCPUはEDENシリーズとしてモデルナンバーが付されているがここではIsaiahコアのEDENも合わせて表記する。	NO_PRONOUNCE	NO_LABEL
VIA Nano 2000 シリーズ	NO_PRONOUNCE	NO_LABEL
VIA Nano 3000 シリーズ	NO_PRONOUNCE	NO_LABEL
VIA Nano Dual Coreシリーズ 	NO_PRONOUNCE	NO_LABEL
VIA Nano 1000/2000 シリーズ	NO_PRONOUNCE	NO_LABEL
VIA Nano 3000シリーズ 	NO_PRONOUNCE	NO_LABEL
VIA Nano DualCoreシリーズ 	NO_PRONOUNCE	NO_LABEL
VIA QuadCoreシリーズ 	NO_PRONOUNCE	NO_LABEL
VIA Nano DualCoreシリーズ 	NO_PRONOUNCE	NO_LABEL
VIA QuadCore Processor 	NO_PRONOUNCE	NO_LABEL
VIAの公式ウェブサイトにおいて、VIA Nano L2200とIntel Atom N270と比較したベンチマークにおいて、PCMark 05で20％、3DMark2006で29％上回っていることが示されている。	NO_PRONOUNCE	NO_LABEL
またVIAの公式ウェブサイトにおいて、VIA Nano X2 U4300とIntel Atom D525と比較したベンチマークにおいて、50%高いベースクロックによって駆動するAtom Dシリーズに対し、VIA Nano X2が40%～35％程高いスコアを出していると公開し 、共に1ワット当たりの性能がAtomより高いことを主張している。	NO_PRONOUNCE	NO_LABEL
VIA QuadCoreの発表会場で公開されたベンチマーク結果によるとAMDE-350に比べ高い性能を発揮するとされている。	NO_PRONOUNCE	NO_LABEL
2014年7月にVIAグループのCPU開発会社であるCentaurTechnologyからVIA Nanoの後継CPUであるIsaiah IIのベンチマークが発表された。	NO_PRONOUNCE	NO_LABEL
VIA NanoはVIA C7同様にコンシューマ向けの単体販売はされておらず、主にVIA社製の産業向けシステムボードに搭載される形で販売されている。	NO_PRONOUNCE	NO_LABEL
Intel Atom同様にネットブック用CPUとも目されており、韓国サムスンおよび中国レノボがそれぞれNano U2250を搭載したNC20、Idea Pad S12を発売している他、台湾および中国の小規模メーカーに採用されている。	NO_PRONOUNCE	NO_LABEL
また日本のメジャーメーカーでは、日立製作所のシンクライアントに採用された例がある。	またにっぽんのめじゃーめーかーでわ、ひたちせいさくしょのしんくらいあんとにさいよーされたれいがある。	NO_LABEL
デルはVIA Nanoを採用したサーバ製品XS11-VX8を発表した。	NO_PRONOUNCE	NO_LABEL
これはVIA社製CPUがデルに採用された初の例であると同時に、VIA社製CPUが大手サーバベンダーのサーバ製品に採用された初の例でもある。	これわびあしゃせいしーぴーゆーがでるにさいよーされたはつのれいであるとどーじに、びあしゃせいしーぴーゆーがおーてさーばべんだーのさーばせいひんにさいよーされたはつのれいでもある。	NO_LABEL
ヒューレット・パッカードはThinclientにVIA製CPUを多く採用しておりNano搭載Thinclientとしてt5570 Thin Clientを発売している。	NO_PRONOUNCE	NO_LABEL
ZOTACはVIA Nano X2を採用したベアボーンキットZBOXNANO- VD01を発売している。	NO_PRONOUNCE	NO_LABEL
これは日本において一般向けに販売されているPCに初めてNano X2を搭載した例である。	NO_PRONOUNCE	NO_LABEL
