ビッケブランカは、日本のシンガーソングライター、ピアニスト。	びっけぶらんかわ、にっぽんのしんがーそんぐらいたー、ぴあにすと。	NO_LABEL
愛知県生まれ。	あいちけんうまれ。	NO_LABEL
学習院大学文学部中退。	がくしゅーいんだいがくぶんがくぶちゅーたい。	NO_LABEL
二人兄妹の長男。	ふたりきょーだいのちょーなん。	NO_LABEL
2012年	にせんじゅうにねん	NO_LABEL
2014年	にせんじゅうよねん	NO_LABEL
　　同日、未発表曲集「TUBERCULIN: Ghost」 をSoundcloudに限定公開。	NO_PRONOUNCE	NO_LABEL
2015年	にせんじゅうごねん	NO_LABEL
2016年	にせんじゅうろくねん	NO_LABEL
ハイトーンボイスとピアノを基軸に据えたアレンジが特徴。	はいとーんぼいすとぴあのをきじくにすえたあれんじがとくちょー。	NO_LABEL
影響を受けたアーティストにマイケル・ジャクソン、エルトン・ジョン、ビリー・ジョエル、ミーカを挙げている。	えいきょーをうけたあーてぃすとにまいけるじゃくそん、えるとんじょん、びりーじょえる、みーかをあげている。	NO_LABEL
作詞については『過去に自分が経験した「点」のような出来事を、脚本家の視点でより大げさに創作し「円」にする』 手法をとっているため、最終的に書きあがった歌詞が自分の経験とはかけ離れていることが多いと語っている。	NO_PRONOUNCE	NO_LABEL
ミュージックビデオではダンスするシーンが見られる が、本人にそのつもりはなく『あの程度でダンスなんていったら本物のダンサーの人達に申し訳ない。	NO_PRONOUNCE	NO_LABEL
ただ音楽に”ノ”っているだけ』 と語っている。	NO_PRONOUNCE	NO_LABEL
