埼玉県立特別支援学校さいたま桜高等学園は、埼玉県さいたま市桜区上大久保にある公立特別支援学校。	さいたまけんりつとくべつしえんがっこーさいたまさくらこーとーがくえんわ、さいたまけんさいたましさくらくかみおーくぼにあるこーりつとくべつしえんがっこー。	NO_LABEL
埼玉県初の特別支援学校高等部単独校として、埼玉県立特別支援学校羽生ふじ高等学園と同時に2007年に開校した。	さいたまけんはつのとくべつしえんがっこーこーとーぶたんどくこーとして、さいたまけんりつとくべつしえんがっこーはぶふじこーとーがくえんとどーじににせんななねんにかいこーした。	NO_LABEL
埼玉県立大学に統合され廃校となった埼玉県立衛生短期大学の校舎を全面改修し、新たに実習棟や生活ホーム棟、温室を建設している。	さいたまけんりつだいがくにとーごーされはいこーとなったさいたまけんりつえいせいたんきだいがくのこーしゃをぜんめんかいしゅーし、あらたにじっしゅーとーやせいかつほーむとー、おんしつをけんせつしている。	NO_LABEL
知的障害のある生徒の職業的自立を図ることだけでなく、知的障害養護学校の教室不足を解消するために、高等養護学校を設置すべきであると提言が出されたことに基づき開校した。	ちてきしょーがいのあるせいとのしょくぎょーてきじりつをはかることだけでなく、ちてきしょーがいよーごがっこーのきょーしつふそくをかいしょーするために、こーとーよーごがっこーをせっちすべきであるとていげんがだされたことにもとずきかいこーした。	NO_LABEL
埼玉県浦和大久保合同庁舎を挟み北には埼玉県立常盤高等学校が隣接している。	さいたまうらわおーくぼごーどーちょーしゃをはさみきたにわさいたまけんりつときわこーとーがっこーがりんせつしている。	NO_LABEL
普通科44人、職業科66人が在籍し、100％就労を目標に掲げ、職業科においては、「生産技術科」「家政技術科」「工業技術科」「環境・サービス科」を設置している。	NO_PRONOUNCE	NO_LABEL
