平野城は神戸市東灘区の御影山手にあった日本の城。	ひらのじょーわこーべしひがしなだくのみかげやまてにあったにっぽんのしろにほんのしろ。	NO_LABEL
別名、御影村城。	べつめい、みかげむらじょー。	NO_LABEL
1346年、赤松氏の家臣であった平野忠勝によって建てられた。	せんさんびゃくよんじゅうろくねん、あかまつしのかしんであったひらのただかつによってたてられた。	NO_LABEL
推定地は現在の阪急御影駅から神戸市立御影北小学校付近一帯。	すいていちわげんざいのはんきゅーみかげえきからこーべしりつみかげきたしょうがっこーふきんいったい。	NO_LABEL
城の東は湿地帯、西は谷川、北は山という地の利を生かした城であったことがうかがえる。	しろのひがしわしっちたい、にしわたにがわ、きたわやまとゆうちのりをいかしたしろであったことがうかがえる。	NO_LABEL
観応の擾乱により平野忠勝が敗れ帰農するまで忠勝の居城となっていた。	かんのうのじょーらんによりひらのただかつがやぶれきのーするまでただかつのきょじょーとなっていた。	NO_LABEL
