黄元は、中国三国時代の蜀漢の武将。	こうげんわ、ちゅーごくさんごくじだいのしょくかんのぶしょー。	NO_LABEL
222年、劉備が夷陵の戦いで陸遜に敗れ、白帝城において病に倒れたとの報を得て、年末に反乱を起こした。	にひゃくにじゅうにねん、りゅーびがいりょーのたたかいでりくそんにやぶれ、はくていじょーにおいてやまいにたおれたとのほーをえて、ねんまつにはんらんをおこした。	NO_LABEL
理由は諸葛亮に「虚言多し」として疎まれ、中枢から遠ざけられて、辺境地である漢嘉郡太守にされた事が動機と言われる。	NO_PRONOUNCE	NO_LABEL
当時、諸葛亮らは劉備重態のため白帝城に赴いており、成都は手薄だった。	とーじ、しょかつりょーらわりゅーびじゅーたいのためはくていじょーにおもむいており、せいとわてうすだった。	NO_LABEL
黄元は漢嘉郡から北上して臨邛県の城を焼き払い、成都を窺うまでの勢力を形成した。	NO_PRONOUNCE	NO_LABEL
だが成都にいた益州治中従事の楊洪は、皇太子の劉禅に進言して鄭綽や陳曶に南下を命じさせた。	NO_PRONOUNCE	NO_LABEL
成都の百官の大半は「黄元は成都を包囲できなかったら、南中を根拠地にするだろう」と見ていた。	NO_PRONOUNCE	NO_LABEL
しかし楊洪は「黄元は凶暴で、恩愛や信義を全く施していないため、そんな手を打てるはずがない。	NO_PRONOUNCE	NO_LABEL
せいぜい川の流れに乗って東へ下るだけだ。	せいぜいかわのながれにのってひがしえくだるだけだ。	NO_LABEL
もし陛下がご健全なら、自らお捕らえになるところだ。	もしへいかがごけんぜんなら、みずからおとらえになるところだ。	NO_LABEL
そうでなくても呉に出奔するくらいだ。	そーでなくてもごにしゅっぽんするくらいだ。	NO_LABEL
2将には南安の入口を遮断するように命じておいたから、程無く生け捕りにできるであろう」と断言した。	NO_PRONOUNCE	NO_LABEL
果たして春3月、黄元は討伐軍に捕らえられ成都に送られた上で、斬首された。	はたしてはるさんがつ、こうげんわとーばつぐんにとらえられせいとにおくられたうえで、ざんしゅされた。	NO_LABEL
なお、『三国志演義』には登場しない。	NO_PRONOUNCE	NO_LABEL
