『おニャン子クラブ大全集 for HiQualityCD 上・下巻 限定CD-BOX』は、おニャン子クラブのCD-BOX。	NO_PRONOUNCE	NO_LABEL
2008年9月17日発売。	にせんはちねんくがつじゅうしちにちはつばい。	NO_LABEL
発売元はポニーキャニオン。	はつばいもとわぽにーきゃにおん。	NO_LABEL
規格品番：PCCA-50002。	NO_PRONOUNCE	NO_LABEL
1980年代半ばに活動した女性アイドルグループ "おニャン子クラブ" のCD-BOXで、「おニャン子クラブ」名義で発売された全シングルA面／B面曲に全スタジオ・アルバム、ライブ・アルバムが収録されている。	NO_PRONOUNCE	NO_LABEL
また、同グループからソロ・デビューをした際、歌手名義に "with おニャン子クラブ" が付加されたものも対象作品として収録されている。	NO_PRONOUNCE	NO_LABEL
ここまでのDisc.1からDisc.4は、2005年7月6日に『おニャン子クラブ大全集・上巻』として4枚組でリリースされた。	NO_PRONOUNCE	NO_LABEL
また、下記のDisc.5からDisc.8は、同日に『おニャン子クラブ大全集・下巻』として同じく4枚組で発売された。	NO_PRONOUNCE	NO_LABEL
本ボックスは、メモリーテックが開発した高音質フォーマット「Hi Quality CD」仕様となっているため、2005年に発売された上・下巻のCDと比べてもマスターテープにより近い、クリアなサウンドとされる。	NO_PRONOUNCE	NO_LABEL
