大川 茂樹は、日本の工学者。	おーかわしげきわ、にっぽんのこーがくしゃ。	NO_LABEL
博士。	はかせ。	NO_LABEL
千葉工業大学工学部教授。	ちばこーぎょーだいがくこーがくぶきょーじゅ。	NO_LABEL
同大学副学長。	どーだいがくふくがくちょー。	NO_LABEL
専門分野は、音声言語処理、信号処理、ヒューマンインタフェース、コミュニケーションロボティクス。	せんもんぶんやわ、おんせいげんごしょり、しんごーしょり、ひゅーまんいんたふぇーす、こみゅにけーしょんろぼてぃくす。	NO_LABEL
千葉工業大学では吹奏楽部および写真部の顧問を務める。	ちばこーぎょーだいがくでわすいそーがくぶおよびしゃしんぶのこもんをつとめる。	NO_LABEL
アマチュアピアニスト、クラシック音楽評論家としても熱心に活動している。	あまちゅあぴあにすと、くらしっくおんがくひょーろんかとしてもねっしんにかつどーしている。	NO_LABEL
2011年、日本テレビ系『なるほどハイスクール』第1回および第5回に出演し、声の秘密や特殊なスピーカとマイクロホンについて解説し、AKB48と共演する。	NO_PRONOUNCE	NO_LABEL
