明石市立山手小学校は、兵庫県明石市にある公立小学校である。	あかししりつやまてしょうがっこーわ、ひょーごけんあかししにあるこーりつしょーがっこーである。	NO_LABEL
2013年現在の児童数は843名である。	NO_PRONOUNCE	NO_LABEL
ほとんどの児童は明石市立大久保北中学校へ進学するが、国私立中学校へ進学する児童もいる。	ほとんどのじどーわあかししりつおーくぼきたちゅうがっこーえしんがくするが、くにしりつちゅうがっこーえしんがくするじどーもいる。	NO_LABEL
