「Each Other's Way 〜旅の途中〜」は、EXILEの通算36枚目のシングル。	NO_PRONOUNCE	NO_LABEL
2011年2月9日にrhythm zoneから発売。	にせんじゅういちねんにがつここのかにりずむぞーんからはつばい。	NO_LABEL
・アルバム	NO_PRONOUNCE	NO_LABEL
・ベストアルバム	NO_PRONOUNCE	NO_LABEL
・ベストアルバム	NO_PRONOUNCE	NO_LABEL
