プラ＝ド＝モロ＝ラ＝プレストは、フランス、オクシタニー地域圏、ピレネー＝オリアンタル県のコミューン。	NO_PRONOUNCE	NO_LABEL
ヴァルスピール地方に属する。	NO_PRONOUNCE	NO_LABEL
城壁に囲まれた、石畳の伸びる中世の旧市街は、ラガルド要塞が見下ろしている。	じょーへきにかこまれた、いしだたみののびるちゅーせいのきゅーしがいわ、らがるどよーさいがみおろしている。	NO_LABEL
ピレネー条約で生じた新たな仏西国境を監視するため、ラガルド要塞は17世紀にヴォーバンによって建設された。	NO_PRONOUNCE	NO_LABEL
1956年6月の法令によって、ラ＝プレストの名称がプラ＝ド＝モロに付け足された。	NO_PRONOUNCE	NO_LABEL
ラ＝プレストは遠く離れた集落で、小さなスパの重要性が高まったため公認された。	NO_PRONOUNCE	NO_LABEL
2つの市街地は完全に独立しており、標高の高いテック谷を登る8kmの道路で接続されている。	ふたつのしがいちわかんぜんにどくりつしており、ひょーこーのたかいてっくたにをのぼるはちきろめーとるのどーろでせつぞくされている。	NO_LABEL
プラ＝ド＝モロは、テック川のほとり、標高735mの地点にある。	NO_PRONOUNCE	NO_LABEL
一方ラ＝プレストは標高1130mの地点にある。	NO_PRONOUNCE	NO_LABEL
スパのあるラ＝プレストへはさらに谷の上を8km行かなくてはならない。	NO_PRONOUNCE	NO_LABEL
走行可能な道路が終わった所は駐車場である。	そーこーかのーなどーろがおわったところわちゅーしゃじょーである。	NO_LABEL
また標高2465mのコスタボンヌ峰の登山口である。	またしるべこーによんひゃくろくじゅうごめーとるのこすたぼんぬほーのとざんぐちである。	NO_LABEL
9世紀末、当地は「未開の谷にある草原」と呼ばれ、フランク王国の影響下にあったバルセロナ伯の領地に属した。	NO_PRONOUNCE	NO_LABEL
テック川の上流域の開拓を目指した修道士たちは、プラ＝ド＝モロとなる農村を切り開いた。	NO_PRONOUNCE	NO_LABEL
教会がつくられたのは982年である。	きょーかいがつくられたのわきゅうひゃくはちじゅうにねんである。	NO_LABEL
カペー朝の成立とともにバルセロナ伯はフランク王国から離れた独自の地位を保つようになり、1137年にアラゴン連合王国が成立するとプラ＝ド＝モロはその統治の下に発展した。	NO_PRONOUNCE	NO_LABEL
13世紀のプラ＝ド＝モロはテック川を挟んで2つに分かれていた。	NO_PRONOUNCE	NO_LABEL
北部は住民が暮らす街であり、南部はバザルー伯の城と支配者階級の住宅があった。	ほくぶわじゅーみんがくらすまちであり、なんぶわばざるーはくのしろとしはいしゃかいきゅーのじゅーたくがあった。	NO_LABEL
コルベイユ条約後の1258年から、プラ＝ド＝モロはアラゴン王ハイメ1世の指揮の下発展していった。	NO_PRONOUNCE	NO_LABEL
中世からフランス革命までのモロの街は王家の街だった。	ちゅーせいからふらんすかくめいまでのもろのまちわおーけのまちだった。	NO_LABEL
支配権と司法は王に属していた。	しはいけんとしほーわおーにぞくしていた。	NO_LABEL
王立普通裁判所が置かれていた。	おーりつふつーさいばんしょがおかれていた。	NO_LABEL
プラ＝ド＝モロは以下の特権を得ていった。	NO_PRONOUNCE	NO_LABEL
1327年、プラの谷には1ダースほどの村があり、与えられた特権のため人口は1000人に達していた。	NO_PRONOUNCE	NO_LABEL
14世紀半ばに街が要塞化された。	じゅうよんせいきなかばにまちがよーさいかされた。	NO_LABEL
1428年、壁の一部が地震で破壊された。	せんよんひゃくにじゅうはちねん、かべのいちぶがじしんではかいされた。	NO_LABEL
15世紀には疫病の流行で人口が減少している。	じゅうごせいきにわやくびょーのりゅーこーでじんこーがげんしょーしている。	NO_LABEL
16世紀、プラ＝ド＝モロはリネン織物の生産と貿易で繁栄していた。	NO_PRONOUNCE	NO_LABEL
ヴァレスピールの自治体と同様にプラ＝ド＝モロもカステルヌ子爵の支配下にあった。	NO_PRONOUNCE	NO_LABEL
15世紀末に成立したスペイン王国によってカタロニアの勢力は抑圧され、プラ＝ド＝モロはヴァレスピールの住人と共に1640年に発生したカスティリア王に対する反乱に参加した。	NO_PRONOUNCE	NO_LABEL
その後、1659年のピレネー条約によってルシヨン全体とまとめてフランスへ割譲された。	そのご、せんろっぴゃくごじゅうきゅうねんのぴれねーじょーやくによってるしよんぜんたいとまとめてふらんすえかつじょーされた。	NO_LABEL
この新しい状況で経済は変わり、州の残りの部分からプラは孤立してしまった。	このあたらしいじょーきょーでけいざいわかわり、しゅーののこりのぶぶんからぷらわこりつしてしまった。	NO_LABEL
1661年、ルイ14世は、1292年以降廃止されていた塩税をルシヨン内で復活させた。	せんろっぴゃくろくじゅういちねん、るいじゅうよんせいわ、せんにひゃくきゅうじゅうにねんいこーはいしされていたしおぜいをるしよんないでふっかつさせた。	NO_LABEL
織物業者に率いられた住民たちは、税復活に反乱を起こした。	おりものぎょーしゃにひきいられたじゅーみんたちわ、ぜいふっかつにはんらんをおこした。	NO_LABEL
これがアンジュレの反乱（）で、迅速に反フランス暴動に変わり、1673年まで12年間続いた。	これがあんじゅれのはんらんかっこで、じんそくにはんふらんすぼうどーにかわり、せんろっぴゃくななじゅうさんねんまでじゅうにねんかんつずいた。	NO_LABEL
さらに、ラングドック地方の織物・羊毛産業保護の名目で勅令によってカタロニアに通じる通商路が閉鎖されてしまい、プラ＝ド＝モロの経済は劇的に衰退してしまう。	NO_PRONOUNCE	NO_LABEL
監視を厳しくするため、1674年にルイ14世は要塞建設を決めた。	かんしをきびしくするため、せんろっぴゃくななじゅうよんねんにるいじゅうよんせいわよーさいけんせつをきめた。	NO_LABEL
ラガルド要塞の建設は1677年に始まり、一部はヴォーバンが指揮し、1682年に完成した。	NO_PRONOUNCE	NO_LABEL
九年戦争時代の1691年、アレス峠から侵入してきたスペイン軍がプラ＝ド＝モロを包囲したが、陥落させられなかった。	NO_PRONOUNCE	NO_LABEL
ルシヨン戦争（）時代の1793年、プラ＝ド＝モロはアントニオ・リカルドス将軍率いるスペイン軍に占領された。	NO_PRONOUNCE	NO_LABEL
1794年、デュゴミエ率いるフランス軍がスペイン軍をピレネー山脈の反対側に押し返すまで、スペインによる占領が続いた。	せんななひゃくきゅうじゅうよんねん、でゅごみえひきいるふらんすぐんがすぺいんぐんをぴれねーさんみゃくのはんたいがわにおしかえすまで、すぺいんによるせんりょーがつずいた。	NO_LABEL
普仏戦争前、治療法を求めたナポレオン3世は、ラ＝プレストのスパまでの道を整備した。	NO_PRONOUNCE	NO_LABEL
1862年に創設されたコミューン、ル・テックはプラ＝ド＝モロの面積を分割してできた。	NO_PRONOUNCE	NO_LABEL
スペイン内に「カタルーニャ共和国」の確立を望んでいたカタルーニャ人政治家フランセスク・マシアは、当時のスペイン政府首相ミゲル・プリモ・デ・リベーラによってプラ＝ド＝モロで逮捕された。	NO_PRONOUNCE	NO_LABEL
1938年、コミューンに2本目の橋がかけられた。	せんきゅうひゃくさんじゅうはちね、こみゅーんににほんめのはしがかけられた。	NO_LABEL
それまでは18世紀に建設された、まちの主要門につながるデスパーニュ門しかなかった。	それまでわじゅうはっせいきにけんせつされた、まちのしゅよーもんにつながるですぱーにゅもんしかなかった。	NO_LABEL
レティラーダさなかの1939年1月27日からわずか2週間で、約10万人のスペイン難民がアレス峠を越えてプラ＝ド＝モロへやってきた。	NO_PRONOUNCE	NO_LABEL
これらの難民に対処するため、テック谷に4箇所の収容所が置かれた。	NO_PRONOUNCE	NO_LABEL
1939年2月13日、国境は閉鎖され、フランコ将軍率いる国民党に属する兵士たちが国境を監視するようになった。	せんきゅうひゃくさんじゅうきゅうねんにがつじゅうさんにち、こっきょーわへいさされ、ふらんこしょーぐんひきいるこくみんとーにぞくするへいしたちがこっきょーをかんしするよーになった。	NO_LABEL
プラ＝ド＝モロの難民収容所には35000人がいた。	NO_PRONOUNCE	NO_LABEL
1939年3月末、プラ＝ド＝モロの難民収容所は閉鎖された。	NO_PRONOUNCE	NO_LABEL
1940年10月、4日間続いた豪雨でテック川が氾濫し、プラの一部や谷、そしてデスパーニュ橋が被害を受けた。	せんきゅうひゃくよんじゅうねんじゅーがつ、よっかつずいたごーうでてっくがわがはんらんし、ぷらのいちぶやたに、そしてですぱーにゅきょーがひがいをうけた。	NO_LABEL
この大惨事でまちの風景は一変し、地域経済は温泉と観光に方向を転換した。	このだいさんじでまちのふーけいわいっぺんし、ちーきけいざいわおんせんとかんこーにほーこーをてんかんした。	NO_LABEL
第二次世界大戦中、プラ＝ド＝モロはいくつかあるスペインからの避難経路の1つだった。	NO_PRONOUNCE	NO_LABEL
プラとは牧草地を意味する。	ぷらとわぼくそーちをいみする。	NO_LABEL
934年にMollioneとして文献に記される。	NO_PRONOUNCE	NO_LABEL
これは境界を示す大きな石を意味している。	これわきょーかいをしめすおーきないしをいみしている。	NO_LABEL
2つの地名が連続して呼ばれるのは14世紀後半から見られる。	ふたつのちめいがれんぞくしてよばれるのわじゅうよんせいきこーはんからみられる。	NO_LABEL
1385年にはVallis de Pratis de Molloneと記された。	NO_PRONOUNCE	NO_LABEL
これらの異なった名称は、ラテン語のaquatisに対応する。	NO_PRONOUNCE	NO_LABEL
参照元:INSEE, 	NO_PRONOUNCE	NO_LABEL
