柿本 権一郎は、日本の海軍軍人。	かきもとけんいちろーわ、にっぽんのかいぐんぐんじん。	NO_LABEL
最終階級は海軍少将。	さいしゅーかいきゅーわかいぐんしょーしょー。	NO_LABEL
農業・柿本助五郎の息子として生れる。	NO_PRONOUNCE	NO_LABEL
五条中学校を経て、1913年12月、海軍兵学校を卒業。	ごじょーちゅーがっこーをへて、せんきゅうひゃくじゅうさんねんじゅーにがつ、かいぐんへいがっこーをそつぎょー。	NO_LABEL
2年次に学術優等章を授与された。	にねんじにがくじゅつゆーとーしょーをじゅよされた。	NO_LABEL
翌年12月、海軍少尉任官。	よくねんじゅーにがつ、かいぐんしょーいにんかん。	NO_LABEL
1920年11月、海軍水雷学校高等科を卒業し、第2水雷戦隊付兼参謀などを経て、1925年11月、海軍大学校を卒業した。	NO_PRONOUNCE	NO_LABEL
「比叡」通信長、佐世保鎮守府付、「霧島」通信長、軍令部出仕、水雷学校教官、海軍通信学校教官、海軍技術研究所員、艦政本部出仕、欧米出張、軍令部出仕などを経て、1935年11月、海軍大佐に進級。	NO_PRONOUNCE	NO_LABEL
この間の1929年に日本初の暗号機械の製作に成功し、この機械はロンドン海軍軍縮会議で使用された。	このかんのせんきゅうひゃくにじゅうきゅうねににっぽんはつのあんごーきかいのせいさくにせいこーし、このきかいわろんどんかいぐんぐんしゅくかいぎでしよーされた。	NO_LABEL
横須賀鎮守府付、「間宮」艦長、「高崎」「剣埼」の各艤装員長、軍令部出仕兼第4部第11課長、兼大本営通信部第12課長、軍令部課長、軍令部特務班長、兼第1連合通信隊司令官、大本営通信部特務班長などを務め、1941年10月に海軍少将となった。	NO_PRONOUNCE	NO_LABEL
1944年12月、予備役に編入された。	せんきゅうひゃくよんじゅうよねんじゅーにがつ、よびえきにへんにゅーされた。	NO_LABEL
のち二光電気社長に就任した。	のちにこーでんきしゃちょーにしゅーにんした。	NO_LABEL
