プラハの春音楽祭は、毎年春にチェコのプラハで開催されるクラシック、特に管弦楽や室内楽のための国際音楽祭。	ぷらはのはるおんがくさいわ、まいとしはるにちぇこのぷらはでかいさいされるくらしっく、とくにかんげんがくやしつないがくのためのこくさいおんがくさい。	NO_LABEL
ホスト役はチェコ・フィルハーモニー管弦楽団。	ほすとやくわちぇこふぃるはーもにー。	NO_LABEL
その他にも著名な音楽家やオーケストラが招かれる。	そのたにもちょめいなおんがくかやおーけすとらがまねかれる。	NO_LABEL
チェコ・フィルハーモニー管弦楽団創設50周年にあたる1946年に、エドヴァルド・ベネシュ大統領の後援で、首席指揮者のラファエル・クーベリックの指導のもと第1回の音楽祭が開催された。	NO_PRONOUNCE	NO_LABEL
ビロード革命による民主化直後の1990年には、1948年のチェコスロバキア共産党の政権の成立による共産化を嫌って西側へ亡命していた、クーベリックがチェコ・フィルと歴史的な再共演を果たしている。	NO_PRONOUNCE	NO_LABEL
会場は伝統的にヴルタヴァ川の岸にたつネオルネッサンス建築のルドルフィヌムというホールが使用される。	NO_PRONOUNCE	NO_LABEL
またその数倍のキャパシティを持つ市立会館も使用されることもある。	またそのすーばいのきゃぱしてぃをもつしりつかいかんもしよーされることもある。	NO_LABEL
2000年の会場は、市民会館をメインにルドフィヌス、聖ヴィート大聖堂、シュパニェルスキー庭園、聖ミクラーシュ教会、聖ヤクブ教会、聖ベトル＝聖パヴェル教会、聖イジー教会、聖ツィリル・メトデイ正教大聖堂、マーネス、ベルトラムカ別荘、国民劇場、ヤナーチェク・ホール等、25を超える会場が使用された。	NO_PRONOUNCE	NO_LABEL
毎回、スメタナの命日である5月12日に彼の代表作「わが祖国」の演奏で幕を開けることで知られる。	NO_PRONOUNCE	NO_LABEL
3週間にわたって開かれる。	さんしゅーかんにわたってひらかれる。	NO_LABEL
演奏会では記念年に当たる作曲家の作品が取り上げられたり、現代のチェコの作曲家の作品の初演が行われる。	えんそーかいでわきねんねんにあたるさっきょくかのさくひんがとりあげられたり、げんだいのちぇこのさっきょくかのさくひんのしょえんがおこなわれる。	NO_LABEL
また創設の翌年から若手演奏家のためのプラハの春国際音楽コンクールも開かれている。	またそーせつのよくねんからわかてえんそーかのためのぷらはのはるこくさいおんがくこんくーるもひらかれている。	NO_LABEL
