シックスペンスは、オーストラリア国内で流通する通貨。	しっくすぺんすわ、おーすとらりあこくないでりゅーつーするつーか。	NO_LABEL
1オーストラリア・ポンドの40分の1の価値を持つ。	NO_PRONOUNCE	NO_LABEL
1910年から1963年まで鋳造されており、現在はシックスペンス硬貨から5セント硬貨に置き換えられるまでは、オーストラリアの貨幣は英国通貨を中心としたポンド通貨圏に属しレートも基本的に英国に連動していた。	せんきゅうひゃくじゅうねんからせんきゅうひゃくろくじゅうさんねんまでちゅーぞーされており、げんざいわしっくすぺんすこーかからごせんとこーかにおきかえられるまでわ、おーすとらりあのかへいわえいこくつーかをちゅーしんとしたぽんどつーかけんにぞくしれーともきほんてきにえいこくにれんどーしていた。	NO_LABEL
対オーストラリアセントは5¢＝6豪ペンスとされた。	NO_PRONOUNCE	NO_LABEL
英国ではエリザベス2世時代のシックスペンス硬貨は全て白銅貨であるが、オーストラリアのエリザベス2世デザインのシックスペンス硬貨は1963年の鋳造終了まで銀貨（.500シルバー)で造られ続けたため、結婚式用のコインなどとして一部で人気がある。	NO_PRONOUNCE	NO_LABEL
