ローマは古代ローマの女神で、ローマという都市、ひいては国家を人格化した神である。	ろーまわこだいろーまのめがみで、ろーまとゆうとし、ひーてわこっかをじんかくかしたかみである。	NO_LABEL
アントニヌス・ピウス記念柱の基壇に描かれている。	あんとにぬすぴうすきねんばしらのきだんにえがかれている。	NO_LABEL
紀元前280年-276年と紀元前265年-242年のローマの硬貨に描かれたヘルメットを被った女神はローマだとされることもあるが、完全に特定されたわけではない。	きげんぜんにひゃくはちじゅうねんまいなすにななじゅうろくねんときげんぜんにひゃくろくじゅうごねんまいなすによんじゅうにねんのろーまのこーかにえがかれたへるめっとをこーむっためがみわろーまだとされることもあるが、かんぜんにとくていされたわけでわない。	NO_LABEL
古代ローマの初期の硬貨にはアマゾーンのような女性闘士が描かれたものもあり、ローマではないかと言われているが、女神というよりもゲニウスのようなものと解釈される。	こだいろーまのしょきのこーかにわあまぞーんのよーなじょせいとーしがえがかれたものもあり、ろーまでわないかといわれているが、めがみというよりもげにうすのよーなものとかいしゃくされる。	NO_LABEL
エンニウスは「祖国ローマ」をローマに擬人化し、キケロは彼女を「ローマ国家」だとしたが、どちらも「女神」ローマだとは言っていない。	NO_PRONOUNCE	NO_LABEL
ローマ神話の中でローマという名前からその家系が考案され、最終的にギリシアの女神とされた。	ろーましんわのなかでろーまとゆうなまえからそのかけいがこーあんされ、さいしゅーてきにぎりしあのめがみとされた。	NO_LABEL
初期の女神ローマへの信仰は紀元前195年のスミルナで確立した。	しょきのめがみろーまえのしんこーわきげんぜんひゃくきゅうじゅうごねんのすみるなでかくりつした。	NO_LABEL
これはおそらくローマとの同盟によってアンティオコス3世と対抗できたことに起因する。	これわおそらくろーまとのどーめいによってあんてぃおこすさんせいとたいこーできたことにきいんする。	NO_LABEL
Mellorはこの信仰をギリシアや東方の君主制の伝統とローマ共和政の慣習を結びつけるための宗教と政治をからめた外交政策の形態ではないかとしている。	NO_PRONOUNCE	NO_LABEL
ローマ国家を神聖なものとして人格化することで、その官職や共和国や都市が神聖で永遠のものであると認めさせたのである。	ろーまこっかをしんせいなものとしてじんかくかすることで、そのかんしょくやきょーわこくやとしがしんせいでえいえんのものであるとみとめさせたのである。	NO_LABEL
アテナイやロドス島は共和政の都市国家だったため、"Demos"を人格化した伝統的信仰があり、女神ローマを受け入れやすかった。	NO_PRONOUNCE	NO_LABEL
紀元前189年、デルポイとリュキアでは女神ローマの祭りが行われた。	きげんぜんひゃくはちじゅうきゅうねん、でるぽいとりゅきあでわめがみろーまのまつりがおこなわれた。	NO_LABEL
運動競技やヘレニズム文化全般の神聖なスポンサーとして女神ローマはすんなりと受け入れられ、祭りもよく行われるようになった。	うんどーきょーぎやへれにずむぶんかぜんぱんのしんせいなすぽんさーとしてめがみろーまわすんなりとうけいれられ、まつりもよくおこなわれるよーになった。	NO_LABEL
紀元前133年、アッタロス3世はペルガモンの人々と領土を女神ローマに遺贈した。	きげんぜんひゃくさんじゅうさんねん、あったろすさんせいわぺるがもんのひとびととりょーどをめがみろーまにいぞーした。	NO_LABEL
これによりアジア属州ができ、そこでも女神ローマへの信仰が急速に広まった。	これによりあじあぞくしゅーができ、そこでもめがみろーまえのしんこーがきゅーそくにひろまった。	NO_LABEL
ヘレニズムにおける宗教では、男神には男性の神官、女神には女性の神官が仕えたが、女神ローマの神官は男性だった。	へれにずむにおけるしゅーきょーでわ、おかみにわだんせいのしんかん、めがみにわじょせいのしんかんがつかえたが、めがみろーまのしんかんわだんせいだった。	NO_LABEL
これはおそらくローマの軍事力の力強さを認識していたためと思われる。	これわおそらくろーまのぐんじりょくのちからずよさをにんしきしていたためとおもわれる。	NO_LABEL
女神ローマの神職は他の神々の神職の中でも高位とされた。	めがみろーまのしんしょくわたのみわのしんしょくのなかでもこーいとされた。	NO_LABEL
アマゾーンが起源と思われる女神ローマだが、ギリシアの硬貨に描かれるローマは、ギリシアの女神のような城壁冠やフリギア風のヘルメットを被っている。	あまぞーんがきげんとおもわれるめがみろーまだが、ぎりしあのこーかにえがかれるろーまわ、ぎりしあのめがみのよーなじょーへきかんむりやふりぎあふーのへるめっとをこーむっている。	NO_LABEL
時には何も被っていない場合もある。	ときにわなにもこーむっていないばあいもある。	NO_LABEL
その後ローマは、ゼウスやフィデースと結び付けられるようになった。	そのごろーまわ、ぜうすやふぃでーすとむすびつけられるよーになった。	NO_LABEL
東方におけるローマ信仰は、ローマへの忠誠とローマによる庇護を求めるものだった。	とーほーにおけるろーましんこーわ、ろーまえのちゅーせいとろーまによるひごをもとめるものだった。	NO_LABEL
ローマ国家への敬意以外に女神ローマを信仰する理由は全くない。	ろーまこっかえのけいいいがいにめがみろーまをしんこーするりゆーわぜんくない。	NO_LABEL
Melinno of Lesbos のものとされる女神ローマを称えるサッポー詩体の詩が残っている。	NO_PRONOUNCE	NO_LABEL
共和政ローマ本体とギリシアより西の領域では、女神ローマへの信仰はほとんど見られない。	きょーわせいろーまほんたいとぎりしあよりにしのりょーいきでわ、めがみろーまえのしんこーわほとんどみられない。	NO_LABEL
女神ローマの神殿の遺跡は地中海東部でも少ない。	めがみろーまのしんでんのいせきわちちゅーかいとーぶでもすくない。	NO_LABEL
祭壇が4つ残っており、1体の意図的に切断された像が見つかっている。	NO_PRONOUNCE	NO_LABEL
ユリウス・カエサルは暗殺によって神格化され、ローマおよび東方植民地の守護神として信仰された。	ゆりうすかえさるわあんさつによってしんかくかされ、ろーまおよびとーほーしょくみんちのしゅごじんとしてしんこーされた。	NO_LABEL
カエサルの後継者アウグストゥスは内戦を終結させ、プリンケプスとなった。	かえさるのこーけいしゃあうぐすとぅすわないせんをしゅーけつさせ、ぷりんけぷすとなった。	NO_LABEL
そして紀元前30年ごろ、アジア属州やブリタンニアからはアウグストゥスを生きながら守護神として祀ることの許可を求める声が届いた。	そしてきげんぜんさんじゅうねんごろ、あじあぞくしゅーやぶりたんにあからわあうぐすとぅすをいきながらしゅごじんとしてまつることのきょかをもとめるこえがとどいた。	NO_LABEL
共和政ローマではヘレニズム的な君主制を軽蔑していたが、あからさまな拒絶は地方民と同盟国を怒らせる可能性があった。	きょーわせいろーまでわへれにずむてきなくんしゅせいをけいべつしていたが、あからさまなきょぜつわちほーみんとどーめいこくをおこらせるかのーせいがあった。	NO_LABEL
そこで、「非ローマ人は女神ローマと共にならアウグストゥスを守護神として信仰してもよい」という注意深い見解が示された。	NO_PRONOUNCE	NO_LABEL
このための神殿が2箇所で用意された。	NO_PRONOUNCE	NO_LABEL
すなわち女神ローマは最初期の「皇帝崇拝」の形態に吸収された。	NO_PRONOUNCE	NO_LABEL
あるいは東方からの観点では、伝統ある女神ローマ信仰の上にアウグストゥス信仰が接木するように生じた。	あるいわとーほーからのかんてんでわ、でんとーあるめがみろーましんこーのうえにあうぐすとぅすしんこーがつぎきするよーにしょーじた。	NO_LABEL
それ以降女神ローマは皇帝やその配偶者の神聖性を引き立てる役を担うことになったが、ギリシアの硬貨の図案には女神ローマを中央に配し皇帝などを従者のように配したものもある。	それいこーめがみろーまわこーていやそのはいぐーしゃのしんせいせいをひきたてるやくをになうことになったが、ぎりしあのこーかのずあんにわめがみろーまをちゅーおーにはいしこーていなどをじゅーしゃのよーにはいしたものもある。	NO_LABEL
皇帝崇拝は東方の独創性に対する実用的かつ巧妙な反応として生じた。	こーていすーはいわとーほーのどくそーせいにたいするじつよーてきかつこーみょーなはんのーとしてしょーじた。	NO_LABEL
伝統的宗教の要素をお色直しして共和政政府と混合し、元首の下での帝国の一体感を示す斬新な枠組みを生み出し、成功を収めた。	でんとーてきしゅーきょーのよーそをおいろなおししてきょーわせいせいふとこんごーし、げんしゅのしたでのていこくのいったいかんをしめすざんしんなわくぐみをうみだし、せいこーをおさめた。	NO_LABEL
西方のガリア、ゲルマン、ケルトには君主崇拝の伝統もローマ的な管理体制もなかった。	せいほーのがりあ、げるまん、けるとにわくんしゅすーはいのでんとーもろーまてきなかんりたいせいもなかった。	NO_LABEL
ルグドゥヌムには皇帝崇拝のセンターができ、ローマをモデルとした州あるいは自治体単位の議会が導入され、地元の上流階級の人々は皇帝崇拝の神職の選挙を通して市民権の利点を享受した。	るぐどぅぬむにわこーていすーはいのせんたーができ、ろーまをもでるとしたしゅーあるいわじちたいたんいのぎかいがどーにゅーされ、じもとのじょーりゅーかいきゅーのひとびとわこーていすーはいのしんしょくのせんきょをとーしてしみんけんのりてんをきょーじゅした。	NO_LABEL
その祭壇は女神ローマとアウグストゥスのものだった。	そのさいだんわめがみろーまとあうぐすとぅすのものだった。	NO_LABEL
その後、女神ローマは西方でも貨幣や金石文によく登場するようになった。	そのご、めがみろーまわせいほーでもかへいやきんせきぶんによくとーじょーするよーになった。	NO_LABEL
女神ローマに言及する文献は少ないが、それは無視されたからではなくあまりにも一般化したためではないかと推測される。	めがみろーまにげんきゅーするぶんけんわすくないが、それわむしされたからではなくあまりにもいっぱんかしたためでわないかとすいそくされる。	NO_LABEL
初期のアウグストゥスの時代、女神ローマは生きた皇帝の配偶者の上で称えられたと見られる。	しょきのあうぐすとぅすのじだい、めがみろーまわいきたこーていのはいぐーしゃのうえでとなえられたとみられる。	NO_LABEL
アフリカ属州では、女神ローマとアウグストゥスの神殿がレプティス・マグナとMactarにあった。	NO_PRONOUNCE	NO_LABEL
イタリア半島では6箇所の神殿が見つかっている。	NO_PRONOUNCE	NO_LABEL
ラティウムには2つあり、そのうち1つは個人が建てたものである。	らてぃうむにわふたつあり、そのうちひとつわこじんがたてたものである。	NO_LABEL
ティベリウスの時代には、オスティアに女神ローマとアウグストゥスの大きな神殿があった。	てぃべりうすのじだいにわ、おすてぃあにめがみろーまとあうぐすとぅすのおーきなしんでんがあった。	NO_LABEL
ローマ市内での初期の女神ローマへの信仰は、ハドリアヌスが建設したウェヌスとローマ神殿で、ウェヌスへの信仰と組み合わせたものだった。	ろーましないでのしょきのめがみろーまえのしんこーわ、はどりあぬすがけんせつしたうぇぬすとろーましんでんで、うぇぬすえのしんこーとくみあわせたものだった。	NO_LABEL
これは当時市内最大の神殿で、"" という祭りを形を変えて復活させる意図だったが、その祭りは女神のローマの東方での祭りに倣って "Romaea" と呼ばれるようになった。	NO_PRONOUNCE	NO_LABEL
この神殿にはヘレニズム風の女神ローマの座像があり、その右手にはローマの永遠性を象徴したパラディウムがあった。	このしんでんにわへれにずむふーのめがみろーまのざぞーがあり、そのみぎてにわろーまのえいえんせいをしょーちょーしたぱらでぃうむがあった。	NO_LABEL
ローマでは、これは斬新な具現化だった。	ろーまでわ、これわざんしんなぐげんかだった。	NO_LABEL
ギリシアでローマを威厳のある女神として解釈したことで、軍事支配の象徴だったものが帝国の庇護と厳粛さの象徴へと変わっていった。	ぎりしあでろーまをいげんのあるめがみとしてかいしゃくしたことで、ぐんじしはいのしょーちょーだったものがていこくのひごとげんしゅくさのしょーちょーえとかわっていった。	NO_LABEL
女神ローマは地位は不確かなものである。	めがみろーまわちいわふたしかなものである。	NO_LABEL
クロディウス・アルビヌスがセプティミウス・セウェルスにルグドゥヌムで敗北すると、ルグドゥヌムの神殿から女神ローマ信仰が排除された。	くろでぃうすあるびぬすがせぷてぃみうすせうぇるすにるぐどぅぬむではいぼくすると、るぐどぅぬむのしんでんからめがみろーましんこーがはいじょされた。	NO_LABEL
ローマとアウグストゥスは新たな抑圧された皇帝崇拝の対象となった。	ろーまとあうぐすとぅすわあらたなよくあつされたこーていすーはいのたいしょーとなった。	NO_LABEL
Fishwickはこのルグドゥヌムにおける儀礼の変化を奴隷による家長崇拝に類したものと解釈した。	NO_PRONOUNCE	NO_LABEL
このような時期がどのくらい続いたのかは不明だが、これは他に見られない独自の発展だった。	このよーなじきがどのくらいつずいたのかわふめいだが、これわたにみられないどくじのはってんだった。	NO_LABEL
その後のさらに混乱した時代でも、例えばプロブスはドミナートゥスの冠を被った姿を硬貨に描かせているが、裏面はウェヌスとローマの神殿を描いている。	そのごのさらにこんらんしたじだいでも、たとえばぷろぶすわどみなーとぅすのかんむりをこーむったすがたをこーかにえがかせているが、りめんわうぇぬすとろーまのしんでんをえがいている。	NO_LABEL
プロブスの肖像が専制君主の主権を示すのに対して、女神ローマはその主権があくまでもローマの伝統と帝国の統一に裏打ちされたものであることを示している。	ぷろぶすのしょーぞーがせんせいくんしゅのしゅけんをしめすのにたいして、めがみろーまわそのしゅけんがあくまでもろーまのでんとーとていこくのとーいつにうらうちされたものであることをしめしている。	NO_LABEL
