アトレチコ・ロライマ・クルーベは、ブラジル・ロライマ州ボア・ヴィスタを本拠地とするサッカークラブである。	NO_PRONOUNCE	NO_LABEL
単にロライマと呼ばれる場合もある。	たんにろらいまとよばれるばあいもある。	NO_LABEL
アトレチコ・ロライマ・クルーベは1944年10月1日に創設された。	あとれちころらいまくるーべわせんきゅうひゃくよんじゅうよねんじゅーがつついたちにそーせつされた。	NO_LABEL
これまでロライマ州選手権に20回優勝している。	これまでろらいましゅーせんしゅけんににじゅっかいゆーしょーしている。	NO_LABEL
1995年にはブラジル全国選手権セリエCに参戦し、第2ステージでナシオナルに敗れた。	NO_PRONOUNCE	NO_LABEL
2009年はブラジル全国選手権セリエDに参戦し、第1ステージで敗退した。	にせんきゅうねんわぶらじるぜんこくせんしゅけんせりえでぃにさんせんし、だいいちすてーじではいたいした。	NO_LABEL
ホームゲームはで行われる。	ほーむげーむわでおこなわれる。	NO_LABEL
収容人数は3,000人。	NO_PRONOUNCE	NO_LABEL
なし	なし	NO_LABEL
