鴨川 清作は、演出家である。	かもがわせいさくわ、えんしゅつかである。	NO_LABEL
元宝塚歌劇団理事。	もとたからずかかげきだんりじ。	NO_LABEL
宝塚歌劇団の演出家として活躍し、主にショーの作・演出を手がけた。	NO_PRONOUNCE	NO_LABEL
代表作に『シャンゴ』、『ノバ・ボサ・ノバ』、『ラ・ラ・ファンタシーク』などがある。	NO_PRONOUNCE	NO_LABEL
1954年に宝塚歌劇団に入団。	せんきゅうひゃくごじゅうよねんにたからずかかげきだんににゅーだん。	NO_LABEL
1976年8月、自身が手がけた作品である『ノバ・ボサ・ノバ』の再々演初日の前日に死去。	NO_PRONOUNCE	NO_LABEL
