大野城市立大野東中学校は、福岡県大野城市にある公立中学校。	おーのじょーしりつおーのひがしちゅうがっこーわ、ふくおかけんおーのじょーしにあるこーりつちゅーがっこー。	NO_LABEL
通称は「大東」。	NO_PRONOUNCE	NO_LABEL
大野城市の中心部に位置する。	おーのじょーしのちゅーしんぶにいちする。	NO_LABEL
大野東小学校の一部と大野北小学校の一部、大城小学校の一部の3つの小学校区から生徒が通っている。	おーのひがししょーがっこーのいちぶとおーのきたしょーがっこーのいちぶ、おおぎしょうがっこーのいちぶのみっつのしょーがっこーくからせいとがかよっている。	NO_LABEL
福岡県大野城市乙金台2丁目5番1号	ふくおかけんおーのじょーしおとがなだいにちょーめごばんいちごー	NO_LABEL
学校のすぐ近くには大野城市立大野東小学校がある。	がっこーのすぐちかくにわおーのじょーしりつおーのひがししょうがっこーがある。	NO_LABEL
また、近くには大城保育所、大野東児童保育所があり、大野城市東コミュニティセンターもある。	また、ちかくにわおーしろほいくしょ、おーのとおるわらべほいくしょがあり、おーのじょーしひがしこみゅにてぃせんたーもある。	NO_LABEL
大野東中学校は平成28年度現在、第1学年5クラス、第2学年5クラス、第3学年5クラスという構成である。	NO_PRONOUNCE	NO_LABEL
また、特別支援学級を3クラス設けている。	NO_PRONOUNCE	NO_LABEL
校内にはエレベーターがあり、バリアフリー化が進んでいる。	こーないにわえれべーたーがあり、ばりあふりーかがすすんでいる。	NO_LABEL
平成24年度には東西トイレ棟が、平成25年度には校舎すべてが改装工事に入る。	へいせいにじゅうよんねんどにわとーざいといれとーが、へいせいにじゅうごねんどにわこーしゃすべてがかいそーこーじにはいる。	NO_LABEL
本来なら1年度ずれ、平成24年度には改装工事が完了するはずだったが、東日本大震災の影響で資材が足らず、工事完了が遅れたが、平成25年度に工事完了した。	ほんらいならいちねんどずれ、へいせいにじゅうよんねんどにわかいそーこーじがかんりょーするはずだったが、ひがしにほんだいしんさいのえいきょーでしざいがたらず、こーじかんりょーがおくれたが、へいせいにじゅうごねんどにこーじかんりょーした。	NO_LABEL
大野東中学校は平成25年度現在、第43期生徒会が活動している。	おーのひがしちゅーがっこーわへいせいにじゅうごねんどげんざい、だいよんじゅうさんきせいとかいがかつどーしている。	NO_LABEL
生徒会は毎年11月に総務を役員選挙で、委員長などの拡大執行部を基本的には第2学年の面接で決定する。	NO_PRONOUNCE	NO_LABEL
総務は、生徒会長1名、副会長男女1名ずつ、書記と会計は1学年と2学年で1名ずつを選挙で選ぶ。	NO_PRONOUNCE	NO_LABEL
選挙権を持っているのは、大野東中学校生徒会員からなる。	せんきょけんをもっているのわ、おーのひがしちゅーがっこーせいとかいいんからなる。	NO_LABEL
拡大執行部は、学級委員長、学習委員長、生活委員長、給食委員長、美化委員長、保健体育委員長、文化委員長、部長会からなる。	かくだいしっこーぶわ、がっきゅーいーんちょー、がくしゅーいーんちょー、せいかついーんちょー、きゅーしょくいーんちょー、びかいーんちょー、ほけんたいーくいーんちょー、ぶんかいーんちょー、ぶちょーかいからなる。	NO_LABEL
男女は基本的に1名ずつ。	NO_PRONOUNCE	NO_LABEL
ただし、場合によっては男子のみ、女子のみという形もある。	ただし、ばあいによってわだんしのみ、じょしのみとゆうかたちもある。	NO_LABEL
各委員長2名。	NO_PRONOUNCE	NO_LABEL
体育祭の時は、それぞれ総務三役が実行委員長に、拡大執行部が係長になる。	たいーくさいのときわ、それぞれそーむさんやくがじっこーいーんちょーに、かくだいしっこーぶがかかりちょーになる。	NO_LABEL
ただし、生徒会から体育祭リーダーになった場合は、一般生徒から選出される。	ただし、せいとかいからたいーくさいりーだーになったばあいわ、いっぱんせいとからせんしゅつされる。	NO_LABEL
毎年6月に生徒総会がある。	まいとしろくがつにせいとそーかいがある。	NO_LABEL
また、定例で専門委員会を開く。	また、ていれいでせんもんいーんかいをひらく。	NO_LABEL
その他、緊急時に臨時専門委員会が開かれることもある。	そのた、きんきゅーじにりんじせんもんいーんかいがひらかれることもある。	NO_LABEL
専門委員は、各クラスから、男女2名選出。	NO_PRONOUNCE	NO_LABEL
部活動は運動部が9つで文化部が2つ。	ぶかつどーわうんどーぶがここのつでぶんかぶがふたつ。	NO_LABEL
種類は野球部、サッカー部、陸上部、ソフトテニス部、バレーボール部、バスケットボール部、バドミントン部、卓球部、剣道部、吹奏楽部、美術部である。	しゅるいわやきゅーぶ、さっかーぶ、りくじょーぶ、そふとてにすぶ、ばれーぼーるぶ、ばすけっとぼーるぶ、ばどみんとんぶ、たっきゅーぶ、けんどーぶ、すいそーがくぶ、びじゅつぶである。	NO_LABEL
かつては放送部や柔道部、家庭科部、華道部などがあったが、少子化や部員の減少のため、廃部されている。	かつてわほーそーぶやじゅーどーぶ、かていかぶ、かどーぶなどがあったが、しょーしかやぶいんのげんしょーのため、はいぶされている。	NO_LABEL
基本的にその年度に5人以上部員がいないと廃部となる。	きほんてきにそのねんどにごにんいじょーぶいんがいないとはいぶとなる。	NO_LABEL
大野東中学校の校舎には、全教室で冷暖房が完備されている。	おーのひがしちゅーがっこーのこーしゃにわ、ぜんきょーしつでれいだんぼーがかんびされている。	NO_LABEL
目加田誠の蔵書が、保管されている。	めかだまことのぞーしょが、ほかんされている。	NO_LABEL
