山田　隆博は、日本の元キックボクサー。	やまだたかひろわ、にっぽんのもときっくぼくさー。	NO_LABEL
千葉県出身。	ちばけんしゅっしん。	NO_LABEL
身長160cm、体重53kg。	しんちょーひゃくろくじゅうせんちめーとる、たいじゅーごじゅうさんきろぐらむ。	NO_LABEL
谷山ジム所属。	たにやまじむしょぞく。	NO_LABEL
元全日本キックボクシング連盟フライ級王者。	もとぜんにほんきっくぼくしんぐれんめいふらいきゅーおーじゃ。	NO_LABEL
