山口　洋典は、浄土宗の僧侶、上町台地からまちを考える会事務局長、政策学者。	やまぐちひろのりわ、じょーどしゅーのそーりょ、うえまちだいちからまちをかんがえるかいじむきょくちょー、せいさくがくしゃ。	NO_LABEL
立命館大学共通教育推進機構サービスラーニングセンター准教授。	りつめいかんだいがくきょーつーきょーいくすいしんきこーさーびすらーにんぐせんたーじゅんきょーじゅ。	NO_LABEL
静岡県磐田市生まれ。	しずおかけんいわたしうまれ。	NO_LABEL
立命館大学卒業。	りつめいかんだいがくそつぎょー。	NO_LABEL
大学卒業後は財団法人大学コンソーシアム京都に勤務。	だいがくそつぎょーごわざいだんほーじんだいがくこんそーしあむきょーとにきんむ。	NO_LABEL
インターンシップ事業等に従事する。	いんたーんしっぷじぎょーとーにじゅーじする。	NO_LABEL
2004年に研究主幹に着任。	にせんよねんにけんきゅーしゅかんにちゃくにん。	NO_LABEL
立命館大学在学中に、阪神・淡路大震災を経験。	りつめいかんだいがくざいがくちゅーに、はんしんあわじだいしんさいをけいけん。	NO_LABEL
震災のボランティア活動を通じてNPOの活動に関わり始める。	しんさいのぼらんてぃあかつどーをつーじてえぬぴーおーのかつどーにかかわりはじめる。	NO_LABEL
大学院在学中に、特定非営利活動法人きょうとNPOセンターの設立に参加。	だいがくいんざいがくちゅーに、とくていひえいりかつどーほーじんきょーとえぬぴーおーせんたーのせつりつにさんか。	NO_LABEL
2002年10月には米国国務省によるの()に参加するなど、業務と社会活動の両面でNPO分野の教育・人材育成に取り組む。	NO_PRONOUNCE	NO_LABEL
2002年より大阪大学大学院人間科学研究科ボランティア人間科学講座博士後期課程にて、コミュニティ・シンクタンクの展開におけるグループ・ダイナミックスを研究。	NO_PRONOUNCE	NO_LABEL
2004年12月博士論文「ネットワーク型まちづくりのグループ・ダイナミックス」を提出。	NO_PRONOUNCE	NO_LABEL
2005年3月、大阪大学にて博士の学位を取得。	にせんごねんさんがつ、おーさかだいがくにてはかせのがくいをしゅとく。	NO_LABEL
2004年4月には上町台地からまちを考える会の事務局長に着任。	にせんよねんしがつにわうえまちだいちからまちをかんがえるかいのじむきょくちょーにちゃくにん。	NO_LABEL
2006年4月に秋田光彦に請われ、日本でいちばん若者が集まるお寺として有名な大阪・天王寺にある浄土宗應典院の主幹に就任。	NO_PRONOUNCE	NO_LABEL
〈気づき、学び、遊び〉をコンセプトとした地域ネットワーク型寺院として「呼吸する、お寺」としての劇場空間にて展開される各事業の統括責任者として、地域に開かれた寺院の実践に取り組む。	NO_PRONOUNCE	NO_LABEL
 2006年10月には同志社大学大学院総合政策科学研究科助教授、2011年より立命館大学准教授。	にせんろくねんじゅーがつにわどーししゃだいがくだいがくいんそーごーせいさくかがくけんきゅーかじょきょーじゅ、にせんじゅういちねんよりりつめいかんだいがくじゅんきょーじゅ。	NO_LABEL
