ホウセンカはツリフネソウ科ツリフネソウ属の一年草。	ほーせんかわつりふねそーかつりふねそーぞくのいちねんくさ。	NO_LABEL
東南アジア原産。	とーなんあじあげんさん。	NO_LABEL
観賞用によく栽培される。	かんしょーよーによくさいばいされる。	NO_LABEL
茎は直立して葉は互生し、花は葉腋に2〜3花ずつ付き、左右相称で夏に咲く。	NO_PRONOUNCE	NO_LABEL
花弁とがくは各5枚で、下のがく片の後ろに距がある。	NO_PRONOUNCE	NO_LABEL
本来の花の色は赤だが、園芸品種の花には赤や白、ピンク、紫のものがあり、また、赤や紫と白の絞り咲きもある。	ほんらいのはなのいろわあかだが、えんげいひんしゅのはなにわあかやしろ、ぴんく、むらさきのものがあり、また、あかやむらさきとしろのしぼりさきもある。	NO_LABEL
現在の園芸種は、大半が椿咲きと呼ばれる八重咲きである。	げんざいのえんげいしゅわ、たいはんがつばきさきとよばれるやえざきである。	NO_LABEL
また、距のないものもある。	NO_PRONOUNCE	NO_LABEL
本来は草丈が60cmくらいになるが、近年草丈20〜30cmの矮性種が好まれている。	NO_PRONOUNCE	NO_LABEL
こぼれ種でもよく生えるほどの丈夫な植物で、よほど日当たりや水はけが悪くない限り、病虫害もほとんどなく育てやすい。	こぼれだねでもよくはえるほどのじょーぶなしょくぶつで、よほどひあたりやみずはけがわるくないかぎり、びょーちゅーがいもほとんどなくそだてやすい。	NO_LABEL
発芽温度は比較的高いので、東京付近では4月下旬から5月に播種する。	はつがおんどわひかくてきたかいので、とーきょーふきんでわよんがつげじゅんからごがつにはしゅする。	NO_LABEL
果実は蒴果で、熟すと果皮の内外の細胞の膨圧の差によって弾性の力を蓄積し、弾けて種を遠くに飛ばす。	NO_PRONOUNCE	NO_LABEL
自然に弾ける寸前となった果実は指で触るなどの些細な刺激でも容易に弾ける。	しぜんにはじけるすんぜんとなったかじつわゆびでさわるなどのささいなしげきでもよーいにはじける。	NO_LABEL
属名"Impatiens"もこのことによる。	NO_PRONOUNCE	NO_LABEL
赤いものは昔から女の子が爪を染めるのに使ったため、ツマクレナイ、ツマベニの名もある。	あかいものわむかしからおんなのこがつめをそめるのにつかったため、つまくれない、つまべにのなもある。	NO_LABEL
沖縄では「てぃんさぐ」と呼ばれ、民謡「てぃんさぐぬ花」は広く知られた童謡である。	NO_PRONOUNCE	NO_LABEL
その歌詞にもこの花で爪を染める話が扱われている。	そのかしにもこのはなでつめをそめるはなしがあつかわれている。	NO_LABEL
韓国では、爪にホウセンカの汁を塗り、初雪まで色が残っていたら恋が実ると言う伝承がある。	かんこくでわ、つめにほーせんかのしるをぬり、はつゆきまでいろがのこっていたらこいがみのるというでんしょーがある。	NO_LABEL
触れるとはじける果実は非常に目を引く特徴である。	ふれるとはじけるかじつわひじょーにめをひくとくちょーである。	NO_LABEL
花言葉の「私に触れないで」もそれに由来する。	NO_PRONOUNCE	NO_LABEL
歌謡曲にもあるが、いずれも種を飛ばすことに絡めてある。	かよーきょくにもあるが、いずれもたねをとばすことにからめてある。	NO_LABEL
現代医学的には誤りであるが、ホウセンカの種をそのまま飲めば、のどにつまった魚の骨が取れるという伝承が長野県秋山郷にあった。	げんだいいがくてきにわあやまりであるが、ほーせんかのたねをそのままのめば、のどにつまったうおのぼねがとれるとゆうでんしょーがながのけんあきやまごーにあった。	NO_LABEL
ホウセンカやツリフネソウのようなすぼんだ横向きの形の花はマルハナバチなどの大型のハナバチによる受粉に適応した形態であるが、アフリカホウセンカのように上に向けて大きく開いた花はチョウによる受粉に適応している可能性が高い。	ほーせんかやつりふねそーのよーなすぼんだよこむきのかたちのはなわまるはなばちなどのおーがたのはなばちによるじゅふんにてきおーしたけいたいであるが、あふりかほーせんかのよーにうえにむけておーきくひらいたはなわちょーによるじゅふんにてきおーしているかのーせいがたかい。	NO_LABEL
日本ではよくイチモンジセセリが訪花して距に深く口吻を挿しこみ、雄しべや雌しべに額を押し付けてつけて、受粉に与っている。	NO_PRONOUNCE	NO_LABEL
