函館市青函連絡船記念館摩周丸は北海道函館市にある博物館船である。	はこだてしせいかんれんらくせんきねんかんましゅーまるわほっかいどーはこだてしにあるはくぶつかんせんである。	NO_LABEL
日本国有鉄道青函航路に就航していた津軽丸型連絡船「摩周丸」の船体を使用し、内部も一部現役当時のものを残している。	NO_PRONOUNCE	NO_LABEL
津軽丸型第5船で、建造中の外舷色はうす緑色と乳白色で、当時就航中の八甲田丸や、先行して建造中の大雪丸と同色で、就航中の松前丸の緑色と象牙色とも似ていたため、竣工直前に新幹線の色ということで、藍色とクリーム色に変更して就航した。	NO_PRONOUNCE	NO_LABEL
就航後外舷上部は乳白色に戻され、更にその後象牙色に変更されたりはしたが、新造時より煙突色は外舷下部と同色で、終航まで大きな塗色変更はなかった。	しゅーこーごがいふなばたじょーぶわにゅーはくしょくにもどされ、さらにそのごぞーげいろにへんこーされたりはしたが、しんぞーじよりえんとつしょくわそとふなばたかぶとどーしょくで、おわりこーまでおーきなとしょくへんこーわなかった。	NO_LABEL
大雪丸・羊蹄丸同様、搭載主機械重量増加による機関部重量増加に対応するため、溝形プレスを施した薄鋼板“ハット・プレート”の使用範囲を増やすなどして船体軽量化に努めたが、唯一の外板への使用個所であった航海甲板の甲板室外板への使用は、前後の消音器室の側面に限るなど3隻中最も抑制的であった。	NO_PRONOUNCE	NO_LABEL
本船から、遊歩甲板室後壁の傾斜を直立とし、その分航海甲板を後方へ拡張できたため、航海甲板後端では、後部消音器室の後ろ側にも旅客の歩行スペースができ、手摺を設けて展望の便を図った。	ほんせんから、ゆーほかんぱんしつごかべのけいしゃをちょくりつとし、そのぶんこーかいかんぱんをこーほーえかくちょーできたため、こーかいかんぱんこーたんでわ、こーぶしょーおんきしつのうしろがわにもりょかくのほこーすぺーすができ、てすりをもーけててんぼーのびんをはかった。	NO_LABEL
また、寝台車航送の準備工事として、車両甲板の前部機関室囲壁船尾側、船2・3番線間に短いプラットホームと、そこから船楼甲板の2等出入口広間へ上る階段が設置されたが、国鉄が目論んだ旅客を寝かせたままでの寝台車航送を運輸省が許可せず、結局寝台車航送は実現しなかった。	NO_PRONOUNCE	NO_LABEL
しかし、この階段を使用することで、喫水線上約2mと低く、岸壁との間に容易にタラップを架けることのできる車両甲板中央部の舷門からの旅客の乗下船が可能となり、専用岸壁以外での客扱いができたため、摩周丸・羊蹄丸・十和田丸の3隻は、青函航路外への周遊船や、鉄道不通時の代行旅客輸送船としても使用された。	NO_PRONOUNCE	NO_LABEL
積載車両の横転を防ぐ甲種緊締具は、津軽丸就航時から、従来の重さ20kgのハサミ式のターンバックル方式から13kgの両側フック式に軽量化されたが、更なる軽量化を目指した鎖のレバー・ブロック方式も開発され、摩周丸以降の車載客船・車両渡船の船首側25mで採用された。	NO_PRONOUNCE	NO_LABEL
なお、函館市青函連絡船記念館摩周丸の前身は「函館シーポートプラザ」で、摩周丸はその一部という位置づけであった。	NO_PRONOUNCE	NO_LABEL
