荒川 俊三は、兵庫県出身の元プロ野球選手。	あらかわしゅんぞーわ、ひょーごけんしゅっしんのもとぷろやきゅーせんしゅ。	NO_LABEL
兵庫高校では第38回選抜高等学校野球大会に一番、センターで出場。	ひょーごこーこーでわだいさんじゅうはっかいせんばつこーとーがっこーやきゅーたいかいにいちばん、せんたーでしゅつじょー。	NO_LABEL
初戦で高知高校に敗れる。	しょせんでこーちこうこーにやぶれる。	NO_LABEL
高校卒業後は、かまぼこ製造業に就職したが、その後に近鉄の入団テストを受ける。	こーこーそつぎょーごわ、かまぼこせいぞーぎょーにしゅーしょくしたが、そのごにきんてつのにゅーだんてすとをうける。	NO_LABEL
打撃もよく、100メートル走と遠投でテスト生全員のトップで晴れて合格し、1966年にドラフト外で近鉄バファローズへ入団した。	だげきもよく、ひゃくめーとるそーととーとーでてすとせいぜんいんのとっぷではれてごーかくし、せんきゅうひゃくろくじゅうろくねんにどらふとがいできんてつばふぁろーずえにゅーだんした。	NO_LABEL
高校時代は大野姓で、プロ入り後に荒川姓となる。	こーこーじだいわおーのせいで、ぷろいりごにあらかわせいとなる。	NO_LABEL
近鉄では控え内野手でほとんど出場機会がなかったが、1968年7月21日東京スタジアムでの東京オリオンズ戦で乱闘の最中、もみ合いの中で榎本喜八をバットで殴打し、昏倒させた。	きんてつでわひかえないやしゅでほとんどしゅつじょーきかいがなかったが、せんきゅうひゃくろくじゅうはちねんしちがつにじゅういちにちとーきょーすたじあむでのとーきょーおりおんずせんでらんとーのさいちゅー、もみごういのなかでえのもときはちをばっとでおーだし、こんとーさせた。	NO_LABEL
同年8月9日、東京スタジアムを管理する南千住署が荒川を暴行事件の疑いで書類送検したが、オリオンズと近鉄の間に示談が成立。	どーねんはちがつここのか、とーきょーすたじあむをかんりするみなみせんじゅしょがあらかわをぼーこーじけんのうたがいでしょるいそーけんしたが、おりおんずときんてつのまにじだんがせいりつ。	NO_LABEL
南千住署は両球団から始末書及び「暴力行為は今後一切起こさない」旨の誓約書を提出させて、事件は解決した。	NO_PRONOUNCE	NO_LABEL
しかし、事件後も球界を代表する大打者に大怪我を負わせたことから、チーム内外の関係者から白い目で見られ、村八分に近い扱い受けたという。	しかし、じけんごもきゅーかいをだいひょーするだいだしゃにだいけがをおわせたことから、ちーむないがいのかんけいしゃからはくいめでみられ、むらはちぶにちかいあつかいうけたという。	NO_LABEL
1969年に現役引退。	せんきゅうひゃくろくじゅうきゅうねんにげんえきいんたい。	NO_LABEL
