成沢 栄寿は日本の歴史家。	なるさわえいじゅわにっぽんのれきしか。	NO_LABEL
専門は日本史、部落問題、歴史教育、同和教育。	せんもんわにほんし、ぶらくもんだい、れきしきょーいく、どーわきょーいく。	NO_LABEL
東京府出身。	とーきょーふしゅっしん。	NO_LABEL
戦前の融和運動家で戦後は部落解放全国委員会の常任中央委員などを歴任した成沢英雄を父として東京市足立区に生まれる。	せんぜんのゆーわうんどーかでせんごわぶらくかいほーぜんこくいーんかいのじょーにんちゅーおーいーんなどをれきにんしたなるさわひでおをちちとしてとーきょーしあだちくにうまれる。	NO_LABEL
祖父は上田藩穢多頭の分家の子孫。	そふわうえだはんえたとーのぶんけのしそん。	NO_LABEL
1944年、上田市の部落に疎開し、祖父から部落の歴史を聞かされる。	せんきゅうひゃくよんじゅうよねん、うえだしのぶらくにそかいし、そふからぶらくのれきしをきかされる。	NO_LABEL
新制中学校に入った頃から部落解放全国委員会の業務を手伝い、長野県立上田高等学校を経て早稲田大学に入学。	しんせいちゅーがっこーにはいったころからぶらくかいほーぜんこくいーんかいのぎょーむをてつだい、ながのけんりつうえだこーとーがっこーをへてわせだだいがくににゅーがく。	NO_LABEL
1955年、早稲田大学部落問題研究会の創立に参加、初代幹事長をつとめる。	せんきゅうひゃくごじゅうごねん、わせだだいがくぶらくもんだいけんきゅーかいのそーりつにさんか、しょだいかんじちょーをつとめる。	NO_LABEL
1959年、早稲田大学文学部哲学科東洋哲学専修卒業。	せんきゅうひゃくごじゅうきゅうねん、わせだだいがくぶんがくぶてつがくかとーよーてつがくせんしゅーそつぎょー。	NO_LABEL
1962年、早稲田大学大学院修士課程修了。	せんきゅうひゃくろくじゅうにねん、わせだだいがくだいがくいんしゅーしかていしゅーりょー。	NO_LABEL
1961年、東京立正高等学校教諭。	せんきゅうひゃくろくじゅういちねん、とーきょーりっしょうこーとーがっこーきょーゆ。	NO_LABEL
国民融合をめざす部落問題全国会議代表幹事ならびに同事務局長、全国部落問題研究協議会代表幹事、部落問題研究所理事、東京部落問題研究会事務局長などを歴任。	こくみんゆーごーをめざすぶらくもんだいぜんこくかいぎだいひょーかんじならびにどーじむきょくちょー、ぜんこくぶらくもんだいけんきゅーきょーぎかいだいひょーかんじ、ぶらくもんだいけんきゅーじょりじ、とーきょーぶらくもんだいけんきゅーかいじむきょくちょーなどをれきにん。	NO_LABEL
大東文化大学その他で歴史教育や同和教育を講義。	だいとーぶんかだいがくそのたでれきしきょーいくやどーわきょーいくをこーぎ。	NO_LABEL
1990年から1996年まで長野県短期大学教授。	せんきゅうひゃくきゅうじゅうねんからせんきゅうひゃくきゅうじゅうろくねんまでながのけんたんきだいがくきょーじゅ。	NO_LABEL
1996年から2000年まで同学長をつとめた。	せんきゅうひゃくきゅうじゅうろくねんからにせんねんまでどーがくちょーをつとめた。	NO_LABEL
2002年から部落問題研究所理事長。	にせんにねんからぶらくもんだいけんきゅーじょせんしゃどうれんめいのりじちょー。	NO_LABEL
