宮寺 勝利は、東京都目黒区出身の元プロ野球選手・解説者。	NO_PRONOUNCE	NO_LABEL
日体荏原高校では1958年に夏の甲子園都予選で5回戦まで進出するが、明治高に敗退。	にったいえばらこーこーでわせんきゅうひゃくごじゅうはちねんになつのこーしえんとよせんでごかいせんまでしんしゅつするが、めいじだかにはいたい。	NO_LABEL
高校卒業後は東洋大学に進学。	こーこーそつぎょーごわとーよーだいがくにしんがく。	NO_LABEL
東都大学リーグでは、高校同期の広沢忠雄とバッテリーを組み、1961年秋季二部リーグで優勝。	とーとだいがくりーぐでわ、こーこーどーきのひろさわただおとばってりーをくみ、せんきゅうひゃくろくじゅういちねんしゅーきにぶりーぐでゆーしょー。	NO_LABEL
入替戦で専大を降し、1962年春季リーグから一部リーグへの初昇格を果たす。	いれかえせんでせんだいをくだし、せんきゅうひゃくろくじゅうにねんしゅんきりーぐからいちぶりーぐえのはつしょーかくをはたす。	NO_LABEL
同季は三沢今朝治に次ぐ、リーグ2位の打率.409を記録し、ベストナインにも選出された。	NO_PRONOUNCE	NO_LABEL
大学卒業後の1963年に読売ジャイアンツへ入団するが、在籍中の公式戦出場は僅か32試合に留まった。	だいがくそつぎょーごのせんきゅうひゃくろくじゅうさんねんによみうりじゃいあんつえにゅーだんするが、ざいせきちゅーのこーしきせんしゅつじょーわわずかさんじゅうにしあいにとまった。	NO_LABEL
1967年、高倉照幸外野手との交換トレードで西鉄ライオンズへ移籍。	せんきゅうひゃくろくじゅうななね、たかくらてるゆきがいやしゅとのこーかんとれーどでにしてつらいおんずえいせき。	NO_LABEL
それまで正捕手だった和田博実が高倉の後の左翼手に回ったため、レギュラーとして127試合にマスクを被る。	NO_PRONOUNCE	NO_LABEL
同年にはオールスターゲームにも初出場。	どーねんにわおーるすたーげーむにもはつしゅつじょー。	NO_LABEL
1969年には故障もあり村上公康に定位置を譲るが、翌年には復活し、その後は村上や片岡新之介と激しいポジション争いが続いた。	せんきゅうひゃくろくじゅうきゅうねんにわこしょーもありむらかみきみやすにていいちをゆずるが、よくねんにわふっかつし、そのごわむらかみやかたおかしんのすけとはげしいぽじしょんあらそいがつずいた。	NO_LABEL
1974年には楠城徹の入団もあって出場機会が減り、同年限りで引退。	せんきゅうひゃくななじゅうよねんにわくすきとーるのにゅーだんもあってしゅつじょーきかいがへり、どーねんかぎりでいんたい。	NO_LABEL
2度目のオールスター戦出場を果たした1973年は、ライオンズとロッテオリオンズとの間に、ジム・ラフィーバーの獲得競争を巡る遺恨が尾を引いており、8月1日の試合で宮寺は、オリオンズの金田正一監督に「バカ野郎!!」と罵声を浴びせられた。	NO_PRONOUNCE	NO_LABEL
翌年4月27日のオリオンズ戦では、外野フライでタッチアップを試みた相手チームの三塁走者・弘田澄男を、片足を掛けるようにブロックした。	NO_PRONOUNCE	NO_LABEL
この行為が原因で金田が宮寺に蹴りを入れ、三塁手のドン・ビュフォードが飛び掛かって金田を押し倒し、これが両チーム入り乱れての乱闘に発展した。	このこーいがげんいんでかねだがみやでらにけりをいれ、さんるいしゅのどんびゅふぉーどがとびかかってかねだをおしたおし、これがりょーちーむいりみだれてのらんとーにはってんした。	NO_LABEL
引退後は稲尾和久が経営する「稲尾商事」に勤めながら、テレビ西日本で解説者を務めた。	NO_PRONOUNCE	NO_LABEL
現在も福岡県に在住し、少年野球チームの指導者として活躍している。	げんざいもふくおかけんにざいじゅーし、しょーねんやきゅーちーむのしどーしゃとしてかつやくしている。	NO_LABEL
