けがれなき聖母の騎士聖フランシスコ修道女会は、1949年、日本の長崎県で創立されたキリスト教 カトリックの女子修道会である。	けがれなきせいぼのきしふらんしすこしゅーどーじょかいわ、せんきゅうひゃくよんじゅうきゅうねん、にっぽんのながさきけんでそーりつされたきりすときょーかとりっくのじょししゅーどーかいである。	NO_LABEL
聖母の騎士修道女会は通称である。	せいぼのきししゅーどーじょかいわつーしょーである。	NO_LABEL
創立者は、コンベンツァル聖フランシスコ修道会のミェチスラオ・マリア・ミロハナ神父。	NO_PRONOUNCE	NO_LABEL
1930年4月、神学生の時にマキシミリアノ・コルベ神父とともに来日しその活動に従っていたミロハナ神父は、1946年、終戦によって長崎で多くの戦災孤児がいる状況をみて養護施設「聖母の騎士園」を設立する。	NO_PRONOUNCE	NO_LABEL
だが、ボランティアの協力だけではなく奉献された修道女の全面的な協力が必要であると痛感し、修道会の創立を決意する。	だが、ぼらんてぃあのきょーりょくだけでわなくほーけんされたしゅーどーじょのぜんめんてきなきょーりょくがひつよーであるとつーかんし、しゅーどーかいのそーりつをけついする。	NO_LABEL
1949年12月8日、志願者7名の着衣により「けがれなき聖母の騎士聖フランシスコ修道女会」が誕生し、1950年には教皇庁より長崎教区管轄の通常誓願修道会として正式な認可を受ける。	NO_PRONOUNCE	NO_LABEL
本会のモットーは「けがれなき聖母マリアを通してイエスのみ心へ」である。	NO_PRONOUNCE	NO_LABEL
会員たちはフランシスカンの霊性をいかしながら、自己を無条件・無制限に奉献する。	NO_PRONOUNCE	NO_LABEL
海外では創立者の故郷であるポーランドおよび韓国に修道院が設立されている。	かいがいでわそーりつしゃのこきょーであるぽーらんどおよびかんこくにしゅーどーいんがせつりつされている。	NO_LABEL
日本では、長崎県、佐賀県、大分県の支部で、知的障害者施設、重症心身障害者施設、養護施設、老人ホーム、保育園、幼稚園などの福祉事業や教育事業活動、出版事業活動を行っている。	にっぽんでわ、ながさきけん、さがけん、おーいたけんのしぶで、ちてきしょーがいしゃしせつ、じゅーしょーしんしんしょーがいしゃしせつ、よーごしせつ、ろーじんほーむ、ほいくえん、よーちえんなどのふくしじぎょーやきょーいくじぎょーかつどー、しゅっぱんじぎょーかつどーをおこなっている。	NO_LABEL
〒859-0167　長崎県諫早市小長井町遠竹2747-6　	NO_PRONOUNCE	NO_LABEL
