Mスポーツは、イギリスのカンブリアコッカーマスに拠点を置くモータースポーツ関連企業。	NO_PRONOUNCE	NO_LABEL
競技用車両の製造・販売・整備、ラリーチームの運営などを行う。	NO_PRONOUNCE	NO_LABEL
世界ラリー選手権にはマニュファクチャラーチームとして参戦している。	せかいらりーせんしゅけんにわまにゅふぁくちゃらーちーむとしてさんせんしている。	NO_LABEL
代表はマルコム・ウィルソン。	だいひょーわまるこむうぃるそん。	NO_LABEL
1979年、ラリードライバーのマルコム・ウィルソンがマルコム・ウィルソン・モータースポーツを設立。	NO_PRONOUNCE	NO_LABEL
個人のガレージチームに始まり、やがて他国の選手権出場者のサポートも請け負うようになる。	こじんのがれーじちーむにはじまり、やがてたこくのせんしゅけんしゅつじょーしゃのさぽーともうけおうよーになる。	NO_LABEL
ウィルソンはフォードとの関わりが深く、開発ドライバーを務めたり、1994年にはエスコートRSコスワースに乗ってイギリスラリー選手権を制覇している。	NO_PRONOUNCE	NO_LABEL
イギリス・フォードはエセックスボアハムにモータースポーツ部門の拠点を置いていたが、1996年末に体制を見直し、WRCのワークス活動をウィルソンのチームに委託することを決めた。	いぎりすふぉーどわえせっくすぼあはむにもーたーすぽーつぶもんのきょてんをおいていたが、せんきゅうひゃくきゅうじゅうろくねんまつにたいせいをみなおし、だぶりゅーあーるしーのわーくすかつどーをうぃるそんのちーむにいたくすることをきめた。	NO_LABEL
、MWM改めMスポーツは暫定的なワールドラリーカーエスコートWRCを投入し、カルロス・サインツとユハ・カンクネンが2度のワンツーフィニッシュを飾る。	NO_PRONOUNCE	NO_LABEL
にはコリン・マクレーが加入し、新車フォーカスWRCをデビューさせる。	にわこりんまくれーがかにゅーし、しんしゃふぉーかすだぶりゅーあーるしーをでびゅーさせる。	NO_LABEL
にはウィルソンの地元コッカーマス近郊にあるカントリーハウス「ドベンバイホール 」の敷地に大型ファクトリーが開設される。	NO_PRONOUNCE	NO_LABEL
2000年からにかけてサインツ・マクレーのコンビで計9勝を挙げるも、マニュファクチャラーズ選手権では王者プジョーの牙城は崩せなかった。	NO_PRONOUNCE	NO_LABEL
はスバルから移籍したデザイナー、クリスチャン・ロリオーが手がけたフォーカスWRC 03を投入。	NO_PRONOUNCE	NO_LABEL
ドライバーも若手主体に切り替え、マルコ・マルティンが新エースに台頭する。	どらいばーもわかてしゅたいにきりかえ、まるこまるてぃんがしんえーすにたいとーする。	NO_LABEL
はマーカス・グロンホルムとミッコ・ヒルボネンを擁し、フォードにとっては以来2度目のマニュファクチャラーズタイトルを獲得。	わまーかすぐろんほるむとみっこひるぼねんをよーし、ふぉーどにとってわいらいにどめのまにゅふぁくちゃらーずたいとるをかくとく。	NO_LABEL
翌もタイトルを連覇する。	よくもたいとるをれんぱする。	NO_LABEL
また、2006年よりマニュファクチャラー2規定が導入されると、ストバートの支援を受けるセカンドチームを設立し、ヘニング・ソルベルグやマルコムの息子マシュー・ウィルソンが所属する。	NO_PRONOUNCE	NO_LABEL
さらに、2007年からアルゼンチンのミュンヒス・フォードの運営も引き受ける。	NO_PRONOUNCE	NO_LABEL
グロンホルムの引退後、ヤリ＝マティ・ラトバラがストバートからワークスチームへ昇格し、ヒルボネンとのコンビで4年間戦うが、セバスチャン・ローブ擁するシトロエンの強さは揺るがず。	ぐろんほるむのいんたいご、やりまてぃらとばらがすとばーとからわーくすちーむえしょーかくし、ひるぼねんとのこんびでよんねんかんたたかうが、せばすちゃんろーぶよーするしとろえんのつよさわゆるがず。	NO_LABEL
は三代目のWRカーフィエスタRS WRCがデビューする。	NO_PRONOUNCE	NO_LABEL
はストバートやミュンヒスの撤退に続き、本体のフォード・ヨーロッパもこの年限りでワークス活動を終了すると表明。	NO_PRONOUNCE	NO_LABEL
以降はフォードからベース車両の提供と技術面の支援を受けながら、独立採算チームとしてWRC参戦を継続することになった。	いこーわふぉーどからべーすしゃりょーのていきょーとぎじゅつめんのしえんをうけながら、どくりつさいさんちーむとしてだぶりゅーあーるしーさんせんをけいぞくすることになった。	NO_LABEL
この年より「フォード」の名称を用いず、Mスポーツ名義でマニュファクチャラーチーム登録される。	NO_PRONOUNCE	NO_LABEL
以降はメインスポンサーなしでの参戦が続き、車両の開発・ドライバー起用において資金力に勝るワークス相手に苦戦が続く。	NO_PRONOUNCE	NO_LABEL
はフルシーズン参戦を確約できるだけの資金調達が難航し、開幕戦直前までマニュファクチャラー登録が遅れた。	わふるしーずんさんせんをかくやくできるだけのしきんちょーたつがなんこーし、かいまくせんちょくぜんまでまにゅふぁくちゃらーとーろくがおくれた。	NO_LABEL
は前年末にWRC撤退を表明したフォルクスワーゲンから4年連続王者セバスチャン・オジェを引き入れることに成功。	わぜんねんまつにだぶりゅーあーるしーてったいをひょーめいしたふぉるくすわーげんからよんねんれんぞくおーじゃせばすちゃんおじぇをひきいれることにせいこー。	NO_LABEL
オジェは開幕戦モンテカルロで優勝し、チームにとって2012年以来5年ぶりの勝利を記録した。	おじぇわかいまくせんもんてかるろでゆーしょーし、ちーむにとってにせんじゅうにねんいらいごねんぶりのしょーりをきろくした。	NO_LABEL
開発に投じる予算は限られているものの、新マシンは信頼性・安定性・速さ全てに優れており、オット・タナク、エルフィン・エバンスの二人にも初優勝をもたらした。	NO_PRONOUNCE	NO_LABEL
そして地元のラリーGBにおいてオジェのドライバーズタイトル5連覇とチームのマニュファクチャラーズタイトル獲得が決定。	そしてじもとのらりーじーびーにおいておじぇのどらいばーずたいとるごれんぱとちーむのまにゅふぁくちゃらーずたいとるかくとくがけってい。	NO_LABEL
マニュファクチャラーズ制覇はフォードワークス時代の2007年以来となるが、メーカーの直接支援を受けないプライベーターとしてはWRC史上初めての快挙であった。	まにゅふぁくちゃらーずせいはわふぉーどわーくすじだいのにせんななねんいらいとなるが、めーかーのちょくせつしえんをうけないぷらいべーたーとしてわだぶりゅーあーるしーしじょーはじめてのかいきょであった。	NO_LABEL
ベントレーとGT3規格のコンチネンタルGT3を共同開発。	べんとれーとじーてぃーすりーきかくのこんちねんたるじーてぃーすりーをきょーどーかいはつ。	NO_LABEL
2014年よりブランパン・GTシリーズに「ベントレー・チーム・Mスポーツ」として参戦している。	NO_PRONOUNCE	NO_LABEL
このマシンは2017年より日本のSUPER GTのGT300クラスにも登場する。	NO_PRONOUNCE	NO_LABEL
フォードはWRC撤退後、ラリークロス競技への関与を深めている。	ふぉーどわだぶりゅーあーるしーてったいご、らりーくろすきょーぎえのかんよをふかめている。	NO_LABEL
MスポーツはWRカーをベースにラリークロス用に改装したフィエスタST RXを開発し、2013年よりグローバル・ラリークロスや世界ラリークロス選手権に供給している。	NO_PRONOUNCE	NO_LABEL
2016年は人気レーサーのケン・ブロック擁するフーニガン・レーシング・ディヴィジョンとフォード・パフォーマンス、Mスポーツが共同企画でフォーカスRS RXを開発。	NO_PRONOUNCE	NO_LABEL
ブロックのチームメイト、アンドレアス・バックラッドがWorldRXシリーズランキング3位を獲得した。	ぶろっくのちーむめいと、あんどれあすばっくらっどがわーるどあーるえっくすしりーずらんきんぐさんいをかくとくした。	NO_LABEL
Mスポーツの企業経営を支える基盤として、プライベーター向けのラリーカー販売や、メンテナンスサポート、アフターパーツの供給といったカスタマービジネスがある。	NO_PRONOUNCE	NO_LABEL
現行の主力車種フォード・フィエスタに関しては、入門クラスのグループR1からR2・R5・S2000・RRC・WRCまでランナップを揃えている。	NO_PRONOUNCE	NO_LABEL
2013年からデリバリーを始めたフィエスタR5は世界各地の選手権で活躍し、製作台数が200台に達するヒットモデルとなっている。	NO_PRONOUNCE	NO_LABEL
これらの取扱いはポーランドのクラクフに設立したMスポーツ・ポーランドでも行われている。	NO_PRONOUNCE	NO_LABEL
JWRCのプロモーターにも就任しており、フィエスタR2は若手育成シリーズジュニア世界ラリー選手権のワンメイクマシンとなっている。	じぇいだぶりゅあーるしーのぷろもーたーにもしゅーにんしており、ふぃえすたあーるつーわわかていくせいしりーずじゅにあせかいらりーせんしゅけんのわんめいくましんとなっている。	NO_LABEL
またJWRCの成績優秀者に与えられるWRC2への参戦権についても、MスポーツがオペレーションするR5マシンをドライブすることになっている。	NO_PRONOUNCE	NO_LABEL
