マイケル・ウィンコットはカナダの俳優。	まいけるうぃんこっとわかなだのはいゆー。	NO_LABEL
オンタリオ州トロント出身。	おんたりおしゅーとろんとしゅっしん。	NO_LABEL
父親はイングランド生まれ、母親はイタリアのミラノ出身。	ちちおやわいんぐらんどうまれ、ははおやわいたりあのみらのしゅっしん。	NO_LABEL
二人は1952年にカナダに移民として移った。	ふたりわせんきゅうひゃくごじゅうにねんにかなだにいみんとしてうつった。	NO_LABEL
兄のジェフ・ウィンコットも俳優。	あにのじぇふうぃんこっともはいゆー。	NO_LABEL
短期間トロント大学で学んだ後、ジュリアード演劇学院で学ぶ。	たんきかんとろんとだいがくでまなんだのち、じゅりあーどえんげきがくいんでまなぶ。	NO_LABEL
1979年の映画デビュー以来、映画・舞台・テレビに多く出演、主にインディペンデント映画への出演や、ハリウッド映画での悪役で知られている。	NO_PRONOUNCE	NO_LABEL
