『アリと巨人』は、手塚治虫による日本の漫画作品。	NO_PRONOUNCE	NO_LABEL
掲載雑誌名および掲載時期は学習研究社刊行の『中学一年コース』と『中学二年コース』で、前者は1961年4月号から1962年3月号まで、後者は1962年4月号から1962年10月号までの期間に連載された。	NO_PRONOUNCE	NO_LABEL
『フィルムは生きている』に引き続いて、学習研究社の学年誌に掲載された作品。	NO_PRONOUNCE	NO_LABEL
手塚治虫漫画全集『アリと巨人』、講談社）の著者あとがきでは「学研さんは、好きなものを、好きなように書かせてくれるので好きです。	NO_PRONOUNCE	NO_LABEL
」と記している。	NO_PRONOUNCE	NO_LABEL
当初の構想では、クスノキと動物たちの対話のようなファンタスティック路線であったが、主人公の2人が勝手に動いてストーリーが出来上がっていったと、手塚治虫漫画全集版のあとがきで手塚は記している。	とーしょのこーそーでわ、くすのきとどーぶつたちのたいわのよーなふぁんたすてぃっくろせんであったが、しゅじんこーのふたりがかってにうごいてすとーりーができあがっていったと、てずかおさむまんがぜんしゅーばんのあとがきでてずかわしるしている。	NO_LABEL
戦災孤児のマサやんとムギやんは大の親友だったが、マサやんは新聞記者に、ムギやんは殺しも厭わないヤクザ者にと道を違える。	せんさいこじのまさやんとむぎやんわだいのしんゆーだったが、まさやんわしんぶんきしゃに、むぎやんわころしもいとわないやくざしゃにとみちをちがえる。	NO_LABEL
ムギやんは依頼を受け、××党の菅沼書記長を事故に見せかけて殺害するが、この菅沼事件が2人を巡り合わせる。	むぎやんわいらいをうけ、かけるかけるとーのすがぬましょきちょーをじこにみせかけてさつがいするが、このすがぬまじけんがふたりをめぐりあわせる。	NO_LABEL
マサやんは犯人への手掛かりをつかむが、ムギやんの属する組織に捕まる。	まさやんわはんにんえのてがかりをつかむが、むぎやんのぞくするそしきにつかまる。	NO_LABEL
ムギやんの懇願もあってマサやんの命は助かるが角膜を傷つけられ視力を失ってしまう。	むぎやんのこんがんもあってまさやんのいのちわたすかるがかくまくをきずつけられしりょくをうしなってしまう。	NO_LABEL
はるみの協力を得て、マサやんは事故の目撃者を見つけだし、犯人のモンタージュ作成に成功。	はるみのきょーりょくをえて、まさやんわじこのもくげきしゃをみつけだし、はんにんのもんたーじゅさくせいにせいこー。	NO_LABEL
犯人は全国指名手配となる。	はんにんわぜんこくしめいてはいとなる。	NO_LABEL
全国指名手配となったムギやんはアメリカに逃亡するためマサやんの元を訪れる。	ぜんこくしめいてはいとなったむぎやんわあめりかにとーぼーするためまさやんのもとをおとずれる。	NO_LABEL
はるみはムギやんが指名手配の男だと判ったが黙っていた。	はるみわむぎやんがしめいてはいのおとこだとわかったがだまっていた。	NO_LABEL
検問の警官も新聞記者のマサやんが同行しているということで信用し、ムギやんを空港まで通してしまう。	けんもんのけいかんもしんぶんきしゃのまさやんがどーこーしているとゆうことでしんよーし、むぎやんをくーこーまでとーしてしまう。	NO_LABEL
ムギやんを乗せた飛行機が飛び立った後に、はるみから真相を聞かされたマサやんは犯人逃亡幇助で自首をする。	むぎやんをのせたひこーきがとびたったのちに、はるみからしんそーをきかされたまさやんわはんにんとーぼーほーじょでじしゅをする。	NO_LABEL
数年が経ち、角膜移植により視力を取り戻したマサやんは、新聞でムギやんそっくりのアメリカ人ジョージ・Mの訪日を知ると、面会に行く。	NO_PRONOUNCE	NO_LABEL
ジョージ・Mは正しくムギやんであり、ムギやんは故郷に兵器工場を建てて錦を飾る計画を打ち明けた。	NO_PRONOUNCE	NO_LABEL
マサやんは故郷の村に教師として戻ってくる。	まさやんわこきょーのむらにきょーしとしてもどってくる。	NO_LABEL
村では景気が良くなるならと、クスノキを除いて森林も伐採し、兵器工場を受け入れるような雰囲気だったが、兵器工場で造っていたロボット・ミサイルが誤って民家に墜ち、10数人が亡くなったことで、工場の排斥運動が起きる。	NO_PRONOUNCE	NO_LABEL
そんなときに、台風が村を直撃し、村も工場も保水力を失った森林からの土石流に押しつぶされてしまう。	そんなときに、たいふーがむらをちょくげきし、むらもこーじょーもほすいりょくをうしなったしんりんからのどせきりゅーにおしつぶされてしまう。	NO_LABEL
ムギやんは工場と共に命を落し、マサやんたちはクスノキのある丘に避難できため危機を回避することができたのだった。	むぎやんわこーじょーとともにいのちをおとし、まさやんたちわくすのきのあるおかにひなんできためききをかいひすることができたのだった。	NO_LABEL
