カール・グレーベは、ドイツの化学者である。	かーるぐれーべわ、どいつのかがくしゃである。	NO_LABEL
ライプツィヒ大学、ケーニヒスベルク大学、ジュネーヴ大学で教授を務めた。	NO_PRONOUNCE	NO_LABEL
カール・リーバーマンと共に工業的に重要な染料であるアリザリンを初めて合成し、有機化学の基礎的な述語体系の構築に貢献した。	かーるりーばーまんとともにこーぎょーてきにじゅーよーなせんりょーであるありざりんをはじめてごーせいし、ゆーきかがくのきそてきなじゅつごたいけいのこーちくにこーけんした。	NO_LABEL
1841年にフランクフルト・アム・マインで生まれ、同地の職業高校を経てカールスルーエ大学に進んだ。	せんはっぴゃくよんじゅういちねんにふらんくふるとあむまいんでうまれ、どーちのしょくぎょーこうこーをへてかーるするーえだいがくにすすんだ。	NO_LABEL
その後、化学メーカーのマイスター・ルシウス・ウント・ブリューニングに勤め、フクシンの製造を監督し、ヨウ素を用いた紫色の染料の研究を行ったが、この研究により目の病気を患い、研究の第一線から退いた。	NO_PRONOUNCE	NO_LABEL
1862年にハイデルベルク大学のロベルト・ブンゼンの下で博士号を取得した。	せんはっぴゃくろくじゅうにねんにはいでるべるくだいがくのろべるとぶんぜんのしたではくしごーをしゅとくした。	NO_LABEL
1868年に教授資格試験の論文を書き、ライプツィヒ大学の教授となった。	せんはっぴゃくろくじゅうはちねんにきょーじゅしかくしけんのろんぶんをかき、らいぷつぃひだいがくのきょーじゅとなった。	NO_LABEL
1870年から1877年にはケーニヒスベルク大学、1878年から1906年にはジュネーヴ大学の教授を務めた。	NO_PRONOUNCE	NO_LABEL
この時期は、有機化学の構造理論と命名が発展していた時期で、グレーベは、ベンゼン環の置換に関する「オルト」「メタ」「パラ」という術語を作った。	NO_PRONOUNCE	NO_LABEL
グレーベは、1826年にフランスの化学者ピエール・ジャン・ロビケがアカネの根から単離していたアリザリンを、1868年にカール・リーバーマンと共に合成した。	NO_PRONOUNCE	NO_LABEL
この化学合成は、ドイツおよび世界の染料工業のマイルストーンとなり、またアカネの根を生産していたフランスの農業部門の崩壊の予兆となった。	このかがくごーせいわ、どいつおよびせかいのせんりょーこーぎょーのまいるすとーんとなり、またあかねのねをせいさんしていたふらんすののーぎょーぶもんのほーかいのよちょーとなった。	NO_LABEL
1927年にフランクフルトで死去した。	せんきゅうひゃくにじゅうななねんにふらんくふるとでしきょした。	NO_LABEL
グレーベの教え子には、メチリジンホスファンの研究で死亡し化学研究の初期の犠牲者の1人となったヴェラ・ボグダノフスカヤがいる。	NO_PRONOUNCE	NO_LABEL
グレーベの下での彼女の博士論文は、1892年のジベンジルケトンに関するものであった。	ぐれーべのしたでのかのじょのはくしろんぶんわ、せんはっぴゃくきゅうじゅうにねんのじべんじるけとんにかんするものであった。	NO_LABEL
