SoftBank 830SCは韓国のサムスン電子が開発した、ソフトバンクモバイルのW-CDMA通信方式の第3世代携帯電話である。	そふとばんくはちさんぜろえすしーわかんこくのさむすんでんしがかいはつした、そふとばんくもばいるのだぶりゅーしーでぃーえむえいつーしんほーしきのだいさんせだいけいたいでんわである。	NO_LABEL
SoftBank 731SCをベースモデルとした、アルマーニとサムスン電子とソフトバンクモバイル3社によるコラボモデルとなる携帯だが、機能は大幅にスペックアップされている。	NO_PRONOUNCE	NO_LABEL
側面のデザインは東京の夜景をヒントとしたデザインとなっている。	そくめんのでざいんわとーきょーのやけいをひんととしたでざいんとなっている。	NO_LABEL
アルマーニとのコラボモデルであることから、一部のEmporio Armaniの店舗でも販売された。	あるまーにとのこらぼもでるであることから、いちぶのえんぽりおあるまーにのてんぽでもはんばいされた。	NO_LABEL
830SC発売以前から、サムスンとアルマーニは海外向けにコラボモデルを販売してきており、ソフトバンクがそこに加わる形でコラボすることにより、この端末が誕生した。	NO_PRONOUNCE	NO_LABEL
