ドンカスターは、イングランド中北部サウス・ヨークシャー州の。	どんかすたーわ、いんぐらんどなかきたぶさうすよーくしゃーしゅーの。	NO_LABEL
2001年時点の人口は28万6866人。	NO_PRONOUNCE	NO_LABEL
ドン川のほとりに1世紀に建造されたローマの砦に由来する。	どんがわのほとりにいっせいきにけんぞーされたろーまのとりでにゆらいする。	NO_LABEL
歴史的には1595年から競馬が開催されたドンカスター競馬場が有名である。	れきしてきにわせんごひゃくきゅうじゅうごねんからけいばがかいさいされたどんかすたーけいばじょーがゆーめいである。	NO_LABEL
現在でも競馬が盛んであり、英国で最も古いクラシック競走であるセントレジャーステークス、世界で最も古い競走であるドンカスターカップ等が開催される。	げんざいでもけいばがさかんであり、えいこくでもっともふるいくらしっくであるせんとれじゃーすてーくす、せかいでもっともふるいきょーそーであるどんかすたーかっぷとーがかいさいされる。	NO_LABEL
このほか、ドンカスター・カレッジや国際輸送ターミナルが立地する。	NO_PRONOUNCE	NO_LABEL
デジタル回路の設計に必要なブール代数を考案したジョージ・ブールはドンカスター出身である。	でじたるかいろのせっけいにひつよーなぶーるだいすーをこーあんしたじょーじぶーるわどんかすたーしゅっしんである。	NO_LABEL
プロサッカークラブのドンカスター・ローヴァーズFCが本拠地を置く。	NO_PRONOUNCE	NO_LABEL
