アイオワ州立大学は、アメリカ合衆国アイオワ州エイムズに所在する州立総合大学。	あいおわしゅーりつだいがくわ、あめりかがっしゅーこくあいおわしゅーえいむずにしょざいするしゅーりつそーごーだいがく。	NO_LABEL
1858年に設置された。	せんはっぴゃくごじゅうはちねんにせっちされた。	NO_LABEL
正式名称は Iowa State University of Science and Technology 。	NO_PRONOUNCE	NO_LABEL
ビッグ12カンファレンス所属。	NO_PRONOUNCE	NO_LABEL
1858年、Iowa Agricultural College and Model Farmとして始まる。	NO_PRONOUNCE	NO_LABEL
1864年にはモリル・ランドグラント法により合衆国初のランドグラント大学としてIowa State College of Agriculture and Mechanic Artsが設立された。	NO_PRONOUNCE	NO_LABEL
設立当初から男女共学であり、主にアイオワ州の主産業である農業・畜産業の他、理工学に重点を置いた教育機関として発展。	NO_PRONOUNCE	NO_LABEL
1959年にIowa State University of Science and Technologyへと名前を変え、現在に至る。	NO_PRONOUNCE	NO_LABEL
活発な研究と高い教育レベルを背景に、1958年より北米トップクラスの研究型大学62校からなるアメリカ大学協会に名を連ねている。	NO_PRONOUNCE	NO_LABEL
アイオワ州立大学は以下の7学部から構成され、多様化する学生のニーズにあった教育の機会を提供している。	NO_PRONOUNCE	NO_LABEL
1922年に始まった学園祭VEISHEAは、当時存在した5つの学部の頭文字から名付けられた。	NO_PRONOUNCE	NO_LABEL
＊VEISHAは２０１４年に発生した前夜の暴動によって永久的に凍結されることが学長によって発表されている。	NO_PRONOUNCE	NO_LABEL
アイオワ州立大学は、州都デモインの北50マイルに位置する学生街エームズに拠点を構え、1900エーカーを超えるその広大な敷地には160以上の建物が立ち並ぶ。	NO_PRONOUNCE	NO_LABEL
四季の彩りを映すセントラルキャンパスは「全米で最も美しい25のキャンパス」の1つとして、トーマス・ゲインズの著書"The Campus As a Work of Art"にも挙げられている。	NO_PRONOUNCE	NO_LABEL
緑に覆われたキャンパスには2000を数えるアートが点在し、庭園や美術館なども一般に無料で開放されている。	NO_PRONOUNCE	NO_LABEL
またアメリカ合衆国エネルギー省エイムズ研究所をはじめ、数々の連邦政府研究施設をキャンパス内に擁すなど、政府研究機関・産業界との結びつきが強いことでも知られ、マンハッタン計画時の面影など、今なおキャンパス随所に見ることができる。	NO_PRONOUNCE	NO_LABEL
