『インテリビレッジの座敷童』は、電撃文庫より刊行されている鎌池和馬のライトノベル。	NO_PRONOUNCE	NO_LABEL
イラストは真早。	いらすとわまはや。	NO_LABEL
担当編集者は三木、小野寺、阿南。	たんとーへんしゅーしゃわみき、おのでら、あなん。	NO_LABEL
全9巻。	ぜんきゅうかん。	NO_LABEL
電撃イラスト大賞受賞者と電撃文庫作家のコラボレーション企画『illust×story』第3回として発表され電撃文庫MAGAZINEVol.22に掲載された短編作品『テクノビレッジの座敷童』の長編文庫化作品。	NO_PRONOUNCE	NO_LABEL
略称は「インテリ」など。	NO_PRONOUNCE	NO_LABEL
オカルトコメディとして紹介されているものの、視点主がバトルや謎解きなどで困難を打開する展開が多く少年漫画やミステリー的な作風が見受けられる。	おかるとこめでぃとしてしょーかいされているものの、してんぬしがばとるやなぞときなどでこんなんをだかいするてんかいがおーくしょーねんまんがやみすてりーてきなさくふーがみうけられる。	NO_LABEL
基本的には『陣内忍パート』、『内幕隼パート』、『菱神舞パート』といった形式でストーリーが構成されている。	NO_PRONOUNCE	NO_LABEL
地の文は視点キャラクターの一人称だが、所々で三人称の視点で描写される場面もある。	じのぶんわしてんきゃらくたーのいちにんしょーだが、ところどころでさんにんしょーのしてんでびょーしゃされるばめんもある。	NO_LABEL
その他にも、焼身自殺で目を回していた軍オタの『戦車』と小麦色の『太陽』、野次馬根性を発揮して携帯電話で事件現場を撮影していた『永遠』、胸の谷間に幽霊が映り込んだ『隠者』の靡、ポニーテールの『女教皇』やゴスロリの『死別』、細見で片眼鏡をかけた『魔術師』や密かに男の娘疑惑のある『術法』、スマホアプリで遊んでいるくるくる縦ロールの『運命』とお姉さん系の『欲望』とオドオド小動物系の『星』、メガネと帽子で変装している『教皇』と『月』、メモ魔の『悪魔』、掴み合いを起こした『塔』の前園と『均等』の魚沢、『恋人』、『皇帝』、『吊るされた男』、『愚者』や『宇宙』などがいる。	NO_PRONOUNCE	NO_LABEL
基本的に現実世界と同様だが、妖怪などのオカルトが存在し世間に認知されている架空の世界が舞台となる。	きほんてきにげんじつせかいとどーよーだが、よーかいなどのおかるとがそんざいしせけんににんちされているかくーのせかいがぶたいとなる。	NO_LABEL
