クタ・カスウルフはウェセックス初期の王族。	くたかすうるふわうぇせっくすしょきのおーぞく。	NO_LABEL
クスウィンの息子にしてチェウリンの孫になる。	くすうぃんのむすこにしてちぇうりんのまごになる。	NO_LABEL
その始祖を辿ればキュンリッチまで行き、またクタはエグバートにまでつながる後世のウェセックス王家の始祖となる。	そのしそをたどればきゅんりっちまでいき、またくたわえぐばーとにまでつながるこーせいのうぇせっくすおーけのしそとなる。	NO_LABEL
しかしチェウリンが592年に退位、その王位は傍流のチェオルの血統が就いたため、カスウルフ自身は王になった事はなかった。	しかしちぇうりんがごひゃくきゅうじゅうにねんにたいい、そのおーいわぼーりゅーのちぇおるのけっとーがついたため、かすうるふじしんわおーになったことわなかった。	NO_LABEL
また彼の没年も知られてはいない。	またかれのぼつねんもしられてわいない。	NO_LABEL
彼には兄弟がおり、キュネバルド、チェッダの名が記されている。	かれにわきょーだいがおり、きゅねばるど、ちぇっだのながしるされている。	NO_LABEL
また彼には息子がおり、名をチェオルワルドと言う。	またかれにわむすこがおり、なをちぇおるわるどという。	NO_LABEL
それ以外は何も記されてはいない。	それいがいわなにもしるされてわいない。	NO_LABEL
