INFOBAR 2は、KDDIおよび沖縄セルラー電話のauブランドで発表された携帯電話である。	いんふぉばーつーわ、けいでぃーでぃーあいおよびおきなわせるらーでんわのえーゆーぶらんどではっぴょーされたけいたいでんわである。	NO_LABEL
デザインは前身である初代INFOBARに引き続き深澤直人。	でざいんわぜんしんであるしょだいいんふぉばーにひきつずきふかさわなおと。	NO_LABEL
端末型番はW55SA。	NO_PRONOUNCE	NO_LABEL
設計、製造はこちらも引き続き鳥取三洋電機が行っており、au design project第7弾にして最後のモデルとなった。	NO_PRONOUNCE	NO_LABEL
2006年10月31日に、新たなコンセプトモデルとして発表され、KDDI DESIGNING STUDIOにて11月16日までの期間限定で展示された。	NO_PRONOUNCE	NO_LABEL
「口の中で溶けかけた飴」をイメージした丸みを帯びたデザインで、NISHIKIGOI、ANNINの2種類のほか、新たに3種類のカラーバリエーションがあった。	NO_PRONOUNCE	NO_LABEL
なお、製品版はNISHIKIGOI、SILVER、MIDORI、WARM GRAYの4色である。	NO_PRONOUNCE	NO_LABEL
2007年9月26日にKDDIより11月下旬以降に発売されると発表された。	にせんななねんくがつにじゅうろくにちにけいでぃーでぃーあいよりじゅーいちがつげじゅんいこーにはつばいされるとはっぴょーされた。	NO_LABEL
CDMA 1X WIN対応端末では5年目にして初のストレート端末である。	しーでぃーえむえーわんいちたいおーたんまつでわごねんめにしてはつのすとれーとたんまつである。	NO_LABEL
前身であるINFOBARでは外部に出ていたアンテナは本機では内蔵された。	ぜんしんであるいんふぉばーでわがいぶにでていたあんてなわほんきでわないぞーされた。	NO_LABEL
ワンセグのアンテナはau初の内蔵型で、本機以外のワンセグ受信用内蔵アンテナを搭載したWoooケータイ W53Hなどの端末と同様に、基本的に強電界エリアでの使用が前提となっている。	わんせぐのあんてなわえーゆーはつのないぞーがたで、ほんきいがいのわんせぐじゅしんよーないぞーあんてなをとーさいしたうーけーたいだぶりゅごじゅうさんえいちなどのたんまつとどーよーに、きほんてきにきょーでんかいえりあでのしよーがぜんていとなっている。	NO_LABEL
加えて、弱電界エリア対策のためイヤホンマイク用平型端子に外部アンテナを接続することも可能。	くわえて、じゃくでんかいえりあたいさくのためいやほんまいくよーへいがたたんしにがいぶあんてなをせつぞくすることもかのー。	NO_LABEL
ちなみにadp端末全シリーズ中では唯一、N800MHz帯エリアに対応している。	NO_PRONOUNCE	NO_LABEL
2007年秋冬モデルでは、既にCDMA 1X WINの上位規格にあたる「EV-DO Rev.A」に対応するW54SA、W54S、W56Tの3機種のベースバンドチップに米国クアルコム社製の最新チップセット「MSM7500」を採用すると発表されているが、この機種には従来のチップセット「MSM6550」が採用されているため「EV-DO Rev.A」には対応していない。	NO_PRONOUNCE	NO_LABEL
ほか	ほか	NO_LABEL
2008年8月22日に以下の不具合の修正がケータイアップデートにより行われた。	にせんはちねんはちがつにじゅうににちにいかのふぐあいのしゅーせいがけーたいあっぷでーとによりおこなわれた。	NO_LABEL
mixiの日記にINFOBAR 2生産工場の関係者と名乗る者により、「企業秘密漏洩します。	NO_PRONOUNCE	NO_LABEL
携帯は機械ではなく、人間様の手で作られている為、かーんなり適当です。	けいたいわきかいでわなく、にんげんさまのてでつくられているため、かーんなりてきとーです。	NO_LABEL
眠たい時とかそのまま流すよ。	ねむたいときとかそのままながすよ。	NO_LABEL
クシャミをよくするから、鼻水やら唾液ついとるよ。	くしゃみをよくするから、はなみずやらだえきついとるよ。	NO_LABEL
イヤホンとmicroSDのトコのビスが浮いてたから閉めてたら割れちゃったけどそのまま流しちゃったぁ。	いやほんとまいくろえすでぃーのとこのびすがういてたからしめてたらわれちゃったけどそのままながしちゃったぁ。	NO_LABEL
カメラ内の毛ゴミ……携帯振ったら消えたから流しちゃったぁ」との書き込みがなされ、ネット掲示板等で話題となった。	NO_PRONOUNCE	NO_LABEL
なお、当該記事はユーザーIDごと削除された。	なお、とーがいきじわゆーざーあいでぃごとさくじょされた。	NO_LABEL
三洋およびKDDIは「アルバイト作業員の書き込みは事実無根の冗談だったことを確認した」 としており、商品の信頼性については問題ないとコメントしていた。	NO_PRONOUNCE	NO_LABEL
