まなみのりさは、日本の女性3人組アイドルユニット。	まなみのりさわ、にっぽんのじょせいさんにんぐみあいどるゆにっと。	NO_LABEL
テイ・エス・エス・プロダクション系列のアクターズスクール広島出身。	NO_PRONOUNCE	NO_LABEL
、CANdiscから「I DOL DAMA☆C」でインディーズデビュー。	NO_PRONOUNCE	NO_LABEL
、ポニーキャニオンから「BLISTER/会いたくなったらたちまちおいで」でメジャーデビュー。	NO_PRONOUNCE	NO_LABEL
しかし、CD売り上げ不振のため、ポニーキャニオンとの契約は1年で終了し、再びインディーズからのリリースとなる。	しかし、きゃっしゅでぃすぺんさーうりあげふしんのため、ぽにーきゃにおんとのけいやくわいちねんでしゅーりょーし、ふたたびいんでぃーずからのりりーすとなる。	NO_LABEL
、「株式会社フォースミュージック」の創業記念コンベンションにて同社への移籍を発表。	NO_PRONOUNCE	NO_LABEL
、公式サイトにてアイアンクリエイティヴとの専属契約終了を発表。	NO_PRONOUNCE	NO_LABEL
6月28日、Twitterのアカウントが全メンバー変更される。	ろくがつにじゅうはちにち、ついったーのあかうんとがぜんめんばーへんこーされる。	NO_LABEL
7月1日、新オフィシャルサイト開設。	しちがつついたち、しんおふぃしゃるさいとかいせつ。	NO_LABEL
併せて、インディーズデビュー10周年記念日である8月8日に、東京・渋谷duo MUSIC EXCHANGEでワンマンライブ「まなみのりさ 10th Aniversaryライブ “いままでとこれからと”」開催を発表。	NO_PRONOUNCE	NO_LABEL
平安時代に安芸の国を舞台に活躍をしていた巫女3人衆と平清盛が1135年に出会い、運気を授け、清盛は躍進し全国を代表する武将となる。	へいあんじだいにあきのくにをぶたいにかつやくをしていたみこさんにんしゅーとたいらのきよもりがせんひゃくさんじゅうごねんにであい、うんきをさずけ、きよもりわやくしんしぜんこくをだいひょーするぶしょーとなる。	NO_LABEL
その後、に新しい平清盛のイメージとともに、清盛の愛したゆかりの地広島を県内外に広くPRするためにNHK大河ドラマ「平清盛」広島県推進協議会のイメージキャラクター「ひろしま清盛」によるPR隊「ひろしま清盛隊」が結成され、その中心的なユニットとして「ひろしま清盛美少女隊」が存在している。	NO_PRONOUNCE	NO_LABEL
まなみのりさのメンバーそっくりな3人組であり、PRイベントではまなみのりさの楽曲を披露するなどしているが、設定上はまなみのりさとは無関係ということになっている。	まなみのりさのめんばーそっくりなさんにんぐみであり、ぴーあーるいべんとでわまなみのりさのがっきょくをひろーするなどしているが、せっていじょーわまなみのりさとわむかんけいとゆうことになっている。	NO_LABEL
※時空を超えているため年齢はの時から変化はない。	NO_PRONOUNCE	NO_LABEL
、広島県・愛媛県から誕生したアイドルユニットまなみのりさ&ひめキュンフルーツ缶が「瀬戸内しまのわ応援隊」として任命された。	NO_PRONOUNCE	NO_LABEL
応援隊は、瀬戸内しまのわ実行委員会が実施するPR活動や，各種イベントに出演するほか，各々のタレント活動の中でも「瀬戸内しまのわ2014」をPR。	NO_PRONOUNCE	NO_LABEL
他多数	たたすー	NO_LABEL
