安楽寺は、兵庫県加古川市にある浄土宗の寺院。	あんらくじわ、ひょーごけんかこがわしにあるじょーどしゅーのじいん。	NO_LABEL
中道子山城建設にあたり、麓へ移転した。	ちゅーどーこやましろけんせつにあたり、ふもとえいてんした。	NO_LABEL
城山のふもとにある浄土宗の寺院で、本尊は阿弥陀如来。	しろやまのふもとにあるじょーどしゅーのじいんで、ほんぞんわあみだにょらい。	NO_LABEL
神姫バス｢門前｣ 加古川駅前5番のりば	NO_PRONOUNCE	NO_LABEL
