『ナイツ&マジック』は、天酒之瓢によるライトノベル、オンライン小説。	NO_PRONOUNCE	NO_LABEL
小説投稿サイト『小説家になろう』に掲載され、ヒーロー文庫より刊行された。	NO_PRONOUNCE	NO_LABEL
2016年より漫画化され、2017年にはアニメ化された。	にせんじゅうろくねんよりまんがかされ、にせんじゅうななねんにわあにめかされた。	NO_LABEL
なお、Web版のタイトルは『Knight's & Magic』と英語表記である。	NO_PRONOUNCE	NO_LABEL
また、初期設定を公開した『設定資料兼備忘録』や、記念短編なども同サイトにて公開されている。	NO_PRONOUNCE	NO_LABEL
異世界転生、魔法、巨大ロボットを主軸としたファンタジー作品。	いせかいてんせい、まほー、きょだいろぼっとをしゅじくとしたふぁんたじーさくひん。	NO_LABEL
2010年に『小説家になろう』にて掲載を開始し、2018年1月現在も連載が続いている。	NO_PRONOUNCE	NO_LABEL
2012年から2013年にかけて、大西域戦争期迄の設定が「Knight's & Magic設定資料兼備忘録」として投稿された。	NO_PRONOUNCE	NO_LABEL
他短編一編が投稿されている。	たたんぺんいちへんがとーこーされている。	NO_LABEL
大西域戦争期迄は、天酒之瓢自作の幻晶騎士画が挿絵として入ることがあった。	だいせいいきせんそーきまでわ、あまざけのひさごじさくのまぼろしあきらきしががさしえとしてはいることがあった。	NO_LABEL
2013年からヒーロー文庫より順次刊行されている。	にせんじゅうさんねんからひーろーぶんこよりじゅんじかんこーされている。	NO_LABEL
売上は2017年6月時点で計60万部、2017年7月時点で漫画版も含めたシリーズ総計で公称120万部。	うりあげわにせんじゅうななねんろくがつじてんでけいろくじゅうまんぶ、にせんじゅうななねんしちがつじてんでまんがばんもふくめたしりーずそーけいでこーしょーひゃくにじゅうまんぶ。	NO_LABEL
なお、文庫版では主人公の設定やストーリーにWeb版から変更されている部分がある。	なお、ぶんこばんでわしゅじんこーのせっていやすとーりーにうぇぶばんからへんこーされているぶぶんがある。	NO_LABEL
文庫版のイラストレーターは黒銀。	ぶんこばんのいらすとれーたーわくろぎん。	NO_LABEL
2016年より加藤拓弐により『ヤングガンガン』にて漫画化連載開始され、2017年9月現在も連載が続いている。	NO_PRONOUNCE	NO_LABEL
この漫画版は主婦の友社のWebコミックサイト『COMICAWA』でも一部が閲覧可能となっている。	NO_PRONOUNCE	NO_LABEL
逐次ヤングガンガンコミックスより単行本化されている。	ちくじやんぐがんがんこみっくすよりたんこーぼんかされている。	NO_LABEL
2016年9月にテレビアニメ化がアナウンスされ、2017年7月より9月まで放送された。	にせんじゅうろくねんくがつにてれびあにめかがあなうんすされ、にせんじゅうななねんしちがつよりくがつまでほーそーされた。	NO_LABEL
なお、テレビアニメ化に伴い、公式略称が『ナイツマ』と定められた。	NO_PRONOUNCE	NO_LABEL
交通事故で命を落としたロボットオタクの日本人、倉田翼は、異世界のエルネスティ・エチェバルリアに転生する。	こーつーじこでいのちをおとしたろぼっとおたくのにっぽんじん、くらたつばさわ、いせかいのえるねすてぃえちぇばるりあにてんせいする。	NO_LABEL
その世界は「幻晶騎士」と呼ばれる巨大ロボットが、主戦力として存在する世界だった。	NO_PRONOUNCE	NO_LABEL
前世のロボットオタクの血が抑えきれないエルネスティは、幻晶騎士のパイロットである「騎操士」を志し、幼少時より勉学などに励む。	NO_PRONOUNCE	NO_LABEL
そして学園生時代の訓練中に現れた師団級魔獣「陸皇亀」を討伐した事を切っ掛けに、自らが理想とするロボットを一から作り上げるために奮闘、その才能と実績で国王から幻晶騎士開発を主目的とした騎士団「銀鳳騎士団」を任されて団長となった。	NO_PRONOUNCE	NO_LABEL
その後もエルネスティは、西方諸国で起きた大乱に派遣されたり、人類未踏の地「ボキューズ大森海」の探索に深く関わるなど、数多の功績を打ち立てていくのであった。	NO_PRONOUNCE	NO_LABEL
web版では種族名のアルヴの代わりにエルフという用語が用いられている。	NO_PRONOUNCE	NO_LABEL
耳が長く体内に触媒結晶を有し、素で大規模高精度な魔法を揮う。	みみがながくたいないにしょくばいけっしょーをゆーし、もとでだいきぼだかせいどなまほーをふるう。	NO_LABEL
寿命は500年内外。	じゅみょーわごひゃくねんないがい。	NO_LABEL
100歳を超えると、眠りと思索の間に生きるようになる。	ひゃっさいをこえると、ねむりとしさくのまにいきるよーになる。	NO_LABEL
Web版のみに登場	うぇぶばんのみにとーじょー	NO_LABEL
Web版のみに登場。	うぇぶばんのみにとーじょー。	NO_LABEL
下記登場人物等の職務・階級の他に「初列」の人物がいる。	NO_PRONOUNCE	NO_LABEL
総じて何らかの魔法が使える獣のことを指す。	そーじてなんらかのまほーがつかえるししのことをさす。	NO_LABEL
討伐するのに必要な戦力で、師団級魔獣、旅団級魔獣、決闘級魔獣等と、個体評価は討伐するのに幻晶騎士何機分が必要になるかで判断される。	とーばつするのにひつよーなせんりょくで、しだんきゅーまじゅー、りょだんきゅーまじゅー、けっとーきゅーまじゅーとーと、こたいひょーかわとーばつするのにまぼろしあきらきしなんきぶんがひつよーになるかではんだんされる。	NO_LABEL
他にも小隊～大隊級といったランクもある模様。	NO_PRONOUNCE	NO_LABEL
決闘級未満の弱い魔獣は小型魔獣とされる。	けっとーきゅーみまんのよわいまじゅーわこがたまじゅーとされる。	NO_LABEL
ヒーロー文庫より刊行。	ひーろーぶんこよりかんこー。	NO_LABEL
作画は加藤拓弐。	さくがわかとーたくじ。	NO_LABEL
ヤングガンガンコミックスより刊行。	やんぐがんがんこみっくすよりかんこー。	NO_LABEL
2017年7月から同年9月までAT-X・TOKYO MX・BS11ほかにて放送された。	NO_PRONOUNCE	NO_LABEL
ナレーションはセレスティナ・エチェバルリア役の大原さやかが担当する。	NO_PRONOUNCE	NO_LABEL
第1話の本編放送後には、同話の解説コメンタリー付き特別番組『大事なことなのでもう一度放送しますスペシャル！』が放送された。	NO_PRONOUNCE	NO_LABEL
放送開始前の2017年7月1日には、同じくヒーロー文庫からのアニメ化にして同時期放送開始の『異世界食堂』と合同で第1話の先行上映会がTOHOシネマズ新宿にて開催され、舞台挨拶に本作からはエルネスティ・エチェバルリア役の高橋李依が登壇した。	NO_PRONOUNCE	NO_LABEL
ストーリーは原作小説の第1巻から第5巻までの内容を元にしつつも、再構成を経て省略されたエピソードが多く、キャラクターによっては登場を見送られている。	すとーりーわげんさくしょーせつのだいいちかんからだいごかんまでのないよーをもとにしつつも、さいこーせいをへてしょーりゃくされたえぴそーどがおーく、きゃらくたーによってわとーじょーをみおくられている。	NO_LABEL
最終話では大航空時代の幕開けが語られた。	さいしゅーわでわだいこーくーじだいのまくあけがかたられた。	NO_LABEL
バンダイのロボットフィギュアブランド「ROBOT魂」から、2017年10月に幻晶騎士2体が商品化されている。	NO_PRONOUNCE	NO_LABEL
同年5月の展示会で試作品が披露されている。	どーねんごがつのてんじかいでしさくひんがひろーされている。	NO_LABEL
また、グッドスマイルカンパニーが、エルネスティをねんどろいど化することを発表している。	また、ぐっどすまいるかんぱにーが、えるねすてぃをねんどろいどかすることをはっぴょーしている。	NO_LABEL
