斑師は、衛の君主。	はんしわ、まもるのくんしゅ。	NO_LABEL
襄公の孫。	じょーこーのまご。	NO_LABEL
『春秋左氏伝』では般師と表記。	NO_PRONOUNCE	NO_LABEL
荘公3年10月、晋が衛を攻撃し、荘公が出奔したため、晋は公子斑師を立てて衛君とした。	そーこーさんねんじゅーがつ、すすむがまもるをこーげきし、そーこーがしゅっぽんしたため、すすむわこーしはんしをたててまもるくんとした。	NO_LABEL
11月、荘公が鄄から衛に入ったため、斑師は逃亡した。	NO_PRONOUNCE	NO_LABEL
卿の石圃が荘公を怨んでいる匠氏を味方につけて荘公を攻撃した。	NO_PRONOUNCE	NO_LABEL
荘公は門を閉じて許しを請うたが、許してもらえず、北方の牆を越えようとして墜ち、股の骨を折った。	NO_PRONOUNCE	NO_LABEL
戎州の人がこれを攻めた。	じゅうしゅーのひとがこれをせめた。	NO_LABEL
太子疾と公子青が荘公を護衛しようとしたが戎州の人に殺された。	NO_PRONOUNCE	NO_LABEL
荘公は戎州の己氏の家に逃げ込んだが、そこの夫人が荘公に怨みがあったため、荘公を殺した。	そーこーわじゅうしゅーのおのれしのいえににげこんだが、そこのふじんがそーこーにうらみがあったため、そーこーをころした。	NO_LABEL
そこで衛の人は斑師を呼び戻してふたたび衛君とした。	そこでまもるのひとわはんしをよびもどしてふたたびまもるくんとした。	NO_LABEL
12月、斉が衛を攻撃して斑師を捕らえ、代わりに公子起を立てたため、公子起が衛君となった。	じゅーにがつ、ひとしがまもるをこーげきしてはんしをとらえ、かわりにこーしおこしをたてたため、こーしきがまもるくんとなった。	NO_LABEL
