第4アウトとは、野球において守備側が1イニング中に3個のアウトを取った後、さらにアピールプレイを行って成立させたアウトのことである。	NO_PRONOUNCE	NO_LABEL
"Official Baseball Rules" において「fourth out」と記されているが、公認野球規則においては「第4アウト」と訳されてはいない。	NO_PRONOUNCE	NO_LABEL
野球の試合において、守備側は1イニング中における3個目のアウトを成立させた後であってもアピールプレイを行うことが認められており、審判員がこのアピールを支持した場合、審判員はアウトを宣告する。	NO_PRONOUNCE	NO_LABEL
このアウトは、当該イニングにおける4番目に宣告されたアウトであるため、俗に「第4アウト」と呼ばれる。	NO_PRONOUNCE	NO_LABEL
しかし、野球では1イニングに記録されるアウトの個数は3個までであることから、第4アウトが発生した場合、3個目のアウト成立までに起こったプレイの記録は取り消され、4個目のアウト成立までのプレイが記録上の第3アウトとなる。	NO_PRONOUNCE	NO_LABEL
これはしばしば「第3アウトの置き換え」と呼ばれる。	NO_PRONOUNCE	NO_LABEL
ルールでは、第3アウトの発生より先に走者が本塁に触れていれば得点として認められるが、その走者に対してアピールアウトを取ることができる場合、守備側はそのアウトを4個目のアウトとして取得しアピールによって第3アウトに置き換えることで、一度認められた攻撃側の得点を無効にすることができる。	NO_PRONOUNCE	NO_LABEL
上記の事例の他に、守備側が本塁へ到達した走者にかかる第4アウトの可能性に気づかずアピールを行わなかったことによって、結果的にその走者の本塁到達が承認されるという事象も存在する。	NO_PRONOUNCE	NO_LABEL
水島新司の野球漫画『ドカベン』単行本35巻では、この一連のプレーにまつわるエピソードが描かれており、「ルールブックの盲点の1点」と呼ばれている。	NO_PRONOUNCE	NO_LABEL
神尾龍原作・中原裕作画の野球漫画『ラストイニング』では『ドカベン』で描かれた事象について、さらに詳しい解説を含んだストーリーが展開された。	NO_PRONOUNCE	NO_LABEL
「ボールを持って塁に触れる」という共通の動作のため、フォースアウトとアピールアウトが混同されていることが守備側の勘違いの要因とも言えるプレイであり、物語以外に現実の試合中においても度々起こる事象である。	NO_PRONOUNCE	NO_LABEL
夏の甲子園・神奈川県予選大会三回戦の、主人公の山田太郎が所属する明訓高校と好投手・不知火守を擁する白新高校との試合で描かれた。	NO_PRONOUNCE	NO_LABEL
試合は0-0のまま延長戦に突入し10回表、明訓高校の攻撃。	NO_PRONOUNCE	NO_LABEL
一死満塁で打者は微笑三太郎。	いっしまんるいでだしゃわほほえみさんたろー。	NO_LABEL
第2アウトは微笑、第3アウトは山田で、この一連のプレイで本塁上にいる岩鬼はアウトになっていない。	NO_PRONOUNCE	NO_LABEL
一塁走者の山田の第3アウトはフォースアウトではないため、第3アウト成立以前に成立した得点は有効である。	NO_PRONOUNCE	NO_LABEL
岩鬼は第3アウト成立前に本塁に到達しており、この走塁による得点は認められる。	NO_PRONOUNCE	NO_LABEL
ただし、岩鬼は三塁へのリタッチを行っていないため、白新高校側は第3アウト成立後であっても審判員に対して岩鬼の離塁が早かったことをアピールし、岩鬼をアピールアウトにして第3アウトの置き換えを行うことで岩鬼の得点を無効にすることができた。	NO_PRONOUNCE	NO_LABEL
岩鬼の得点が認められていることに気付かなかった白新高校ナインはアピールを行わず、野手全員がファウルラインを越えた時点でその権利を喪失した。	いわきのとくてんがみとめられていることにきずかなかったはくしんこーこーないんわあぴーるをおこなわず、のてぜんいんがふぁうるらいんをこえたじてんでそのけんりをそーしつした。	NO_LABEL
岩鬼の得点はそのまま認められ、明訓高校に1点が入った。	いわきのとくてんわそのままみとめられ、あきのりこーこーにいってんがはいった。	NO_LABEL
なお、試合はこの1点を守った明訓高校が1-0で勝利した。	NO_PRONOUNCE	NO_LABEL
夏の甲子園・埼玉県予選大会決勝戦の、主人公達の彩珠学院高校とライバル校の聖母学苑高校との試合で描かれた。	NO_PRONOUNCE	NO_LABEL
9回表、彩珠学院高校の攻撃。	きゅうかいひょー、あやたまがくいんこーこーのこーげき。	NO_LABEL
一死二・三塁で、打者は4番の大宮。	NO_PRONOUNCE	NO_LABEL
聖母学苑は、ベンチへ戻ろうとする間際に得点されていることに気づき、三塁走者がリタッチしていないことを主張して、第3アウトの置き換えを申し出るものの、彩珠学院側はアピールが遅いと主張した。	NO_PRONOUNCE	NO_LABEL
審判団は、アピール権の有無の判断基準となる投手及び内野手の全員がファウルラインを超えたことの確認を怠っており、判定に窮し、試合は一時中断となった。	しんぱんだんわ、あぴーるけんのうむのはんだんきじゅんとなるとーしゅおよびないやしゅのぜんいんがふぁうるらいんをこえたことのかくにんをおこたっており、はんていにきゅーし、しあいわいちじちゅーだんとなった。	NO_LABEL
協議の結果、「ファウルラインを超えていたかは確認できなかったが、聖母学苑の選手は明らかにベンチへ帰ろうとしており、プレイを放棄したと見なす」と判定し、聖母学苑のアピールを受け付けず、彩珠学院の得点が認められた。	NO_PRONOUNCE	NO_LABEL
1982年に開催された第64回全国高等学校野球選手権大会の1回戦・東海大甲府高校対境高校戦の4回裏、境高校の攻撃。	NO_PRONOUNCE	NO_LABEL
一死満塁の場面から打者がスクイズを試みたが、これが小フライとなった。	いっしまんるいのばめんからだしゃがすくいずをこころみたが、これがしょーふらいとなった。	NO_LABEL
この打球を一塁手が捕球し、ゆっくりと一塁を踏み、飛び出していた一塁走者がアウトになった。	このだきゅーをいちるいしゅがほきゅーし、ゆっくりといちるいをふみ、とびだしていたいちるいそーしゃがあうとになった。	NO_LABEL
しかし、その前に三塁を飛び出していた走者が本塁に滑り込んでいた。	しかし、そのまえにさんるいをとびだしていたそーしゃがほんるいにすべりこんでいた。	NO_LABEL
東海大甲府高校側から三塁走者の離塁についてのアピールが行われなかったので、この場合、境高校に1点が入るはずだが、このとき境高校の得点は記録されなかった。	とーかいだいこーふこーこーがわからさんるいそーしゃのりるいについてのあぴーるがおこなわれなかったので、このばあい、さかいこーこーにいってんがはいるはずだが、このときさかいこーこーのとくてんわきろくされなかった。	NO_LABEL
記者席では「このケースは境高校に先制点が入るはず」と一時騒然となり、試合後球審に質問したところ、球審は「一塁のアウトのほうが早かった」と答えたと伝えられている。	NO_PRONOUNCE	NO_LABEL
2009年4月12日のアリゾナ・ダイヤモンドバックス対ロサンゼルス・ドジャース戦の2回表、ドジャースの攻撃。	にせんきゅうねんしがつじゅうににちのありぞなだいやもんどばっくすたいろさんぜるすどじゃーすせんのにかいひょー、どじゃーすのこーげき。	NO_LABEL
一死二・三塁で打者ランディ・ウルフが放ったライナーの打球を投手のダン・ヘイレンが捕球して、二塁手のフェリペ・ロペスに送球、ロペスは飛び出していた二塁走者に触球した。	NO_PRONOUNCE	NO_LABEL
攻守交代のためダイヤモンドバックスの選手達はベンチへ戻った。	こーしゅこーたいのためだいやもんどばっくすのせんしゅたちわべんちえもどった。	NO_LABEL
ところがその後、ドジャースの監督ジョー・トーリらが、「二塁走者のアウトよりも早く、三塁走者のアンドレ・イーシアーが本塁に到達している」と主張し、これが認められ、得点が記録された。	NO_PRONOUNCE	NO_LABEL
このルールについてトーリは、ボブ・シェーファーベンチコーチが知っていて、監督に教えたとコメントしている。	NO_PRONOUNCE	NO_LABEL
ダイヤモンドバックス監督のボブ・メルビンも「審判が正しい」とし、異議を唱えることはしなかった。	NO_PRONOUNCE	NO_LABEL
2011年3月30日に行われた第83回選抜高等学校野球大会の第8日、履正社高校対九州学院高校戦の6回表、九州学院高校の攻撃中一死満塁で、打球を左翼手がファインプレーで捕球した。	にせんじゅういちねんさんがつさんじゅうにちにおこなわれただいはちじゅうさんかいせんばつこーとーがっこーやきゅーたいかいのだいようか、りせいしゃこうこーたいきゅーしゅーがくいんこーこーせんのろっかいひょー、きゅーしゅーがくいんこーこーのこーげきちゅーいっしまんるいで、だきゅーをさよくしゅがふぁいんぷれーでほきゅーした。	NO_LABEL
二塁走者が次の塁まで達しており、それを確認した左翼手は二塁までゆっくり走り、自ら二塁を踏んでアウトにした。	にるいそーしゃがつぎのるいまでたっしており、それをかくにんしたさよくしゅわにるいまでゆっくりはしり、みずからにるいをふんであうとにした。	NO_LABEL
三塁走者は打球を見て三塁の近くで立ち止まっていたが、二塁走者が既に三塁近くまで走っていたため戻らず、そのまま本塁に走った。	さんるいそーしゃわだきゅーをみてさんるいのちかくでたちどまっていたが、にるいそーしゃがすでにさんるいちかくまではしっていたためもどらず、そのままほんるいにはしった。	NO_LABEL
左翼手が二塁を踏む前に三塁走者が本塁に触れており、守備側はそのまま投手と内野手全員がファウルラインを越えたため、アピール権が消失した。	さよくしゅがにるいをふむまえにさんるいそーしゃがほんるいにふれており、しゅびがわわそのままとーしゅとないやしゅぜんいんがふぁうるらいんをこえたため、あぴーるけんがしょーしつした。	NO_LABEL
それを確認した審判団は三塁走者の得点を認めた。	それをかくにんしたしんぱんだんわさんるいそーしゃのとくてんをみとめた。	NO_LABEL
2012年8月13日に行われた第94回全国高等学校野球選手権大会の第6日、済々黌高校対鳴門高校戦の7回裏、済々黌高校の攻撃中一死一・三塁で、ライナーを遊撃手が捕球した。	NO_PRONOUNCE	NO_LABEL
一塁走者はヒットエンドラン、三塁走者もギャンブルスタートによって走り出しており、一塁走者は帰塁を諦めた。	いちるいそーしゃわひっとえんどらん、さんるいそーしゃもぎゃんぶるすたーとによってはしりだしており、いちるいそーしゃわきるいをあきらめた。	NO_LABEL
遊撃手は一塁手へゆっくり送球し、一塁手が一塁に触球して一塁走者をアウトにした。	ゆーげきしゅわいちるいしゅえゆっくりそーきゅーし、いちるいしゅがいちるいにさわたましていちるいそーしゃをあうとにした。	NO_LABEL
三塁走者は一瞬立ち止まりかけたものの本塁へ全力疾走しており、送球が一塁手に渡る前に本塁に到達していた。	さんるいそーしゃわいっしゅんたちどまりかけたもののほんるいえぜんりょくしっそーしており、そーきゅーがいちるいしゅにわたるまえにほんるいにとーたつしていた。	NO_LABEL
守備側はそのまま投手と内野手全員がファウルラインを越えたため、アピール権が消失した。	しゅびがわわそのままとーしゅとないやしゅぜんいんがふぁうるらいんをこえたため、あぴーるけんがしょーしつした。	NO_LABEL
それを確認した審判団は三塁走者の得点を認めた。	それをかくにんしたしんぱんだんわさんるいそーしゃのとくてんをみとめた。	NO_LABEL
済々黌高校は5回裏にも一死一・三塁の状況で同様の作戦を行い似たような結果になったが、このときは球審が本塁生還よりも第3アウトの方が先として退けていた。	NO_PRONOUNCE	NO_LABEL
この際の守備側は一塁走者に触球した後二塁塁審がすぐにアウトのコールをしなかったのを見てからさらに一塁にも触球しており、ルールに熟知していないことを悟られている。	このさいのしゅびがわわいちるいそーしゃにさわたましたのちにるいるいしんがすぐにあうとのこーるをしなかったのをみてからさらにいちるいにもさわたましており、るーるにじゅくちしていないことをさとられている。	NO_LABEL
前者の触球がアピールと認められたかは不明である。	ぜんしゃのさわたまがあぴーるとみとめられたかわふめいである。	NO_LABEL
なお済々黌高校の三塁走者は小学生時代、先述したドカベンにおけるエピソードを読んでおり、得点成立を狙っていたことを試合後に明かしている。	なおせいせいこーこーこーのさんるいそーしゃわしょーがくせいじだい、せんじゅつしたどかべんにおけるえぴそーどをよんでおり、とくてんせいりつをねらっていたことをしあいごにあかしている。	NO_LABEL
また、鳴門高校の捕手もルールは分かっていたが、打球の方向に集中していたため三塁走者が第3アウトよりも先に本塁に達したことを把握できず、審判員へアピール出来なかったと語っている。	NO_PRONOUNCE	NO_LABEL
まれに、人的ミスなどによる第4アウトが発生することもある。	NO_PRONOUNCE	NO_LABEL
第3アウトが成立したにもかかわらず、審判員等が気付かずにプレイすることで生ずることがあるが、この場合は第3アウト成立後の記録は抹消され無効となる。	NO_PRONOUNCE	NO_LABEL
1982年夏の「第64回全国高等学校野球選手権大会」の2回戦、益田対帯広農業の試合で9回表の益田の攻撃時に、帯広農業の投手は第3アウトに気付いていたが、4人の審判員のほか各選手らはそれに全く気付かず、第3アウト後も次の打者を出した。	NO_PRONOUNCE	NO_LABEL
後に記録員の指摘で間違いが判明した。	ごにきろくいんのしてきでまちがいがはんめいした。	NO_LABEL
原因はスコアボードのアウトを表示するカウントランプが故障により、1つしか灯っていなかったからだったという。	げんいんわすこあぼーどのあうとをひょーじするかうんとらんぷがこしょーにより、ひとつしかともっていなかったからだったという。	NO_LABEL
