国立宮古海上技術短期大学校は岩手県宮古市にある独立行政法人海技教育機構が管理運営する船員養成学校。	こくりつみやこかいじょーぎじゅつたんきだいがっこーわいわてけんみやこしにあるどくりつぎょーせいほーじんかいぎきょーいくきこーがかんりうんえいするせんいんよーせいがっこー。	NO_LABEL
平成20年度に短期大学校に昇格し、日本で3番目の海上技術短期大学校となった。	へいせいにじゅうねんどにたんきだいがっこーにしょーかくし、にっぽんでさんばんめのかいじょーぎじゅつたんぎだいがくとなった。	NO_LABEL
卒業時には4級海技士免状筆記試験免除の権利を得る。	NO_PRONOUNCE	NO_LABEL
モーダルシフトの進む中、内航海運船員の即戦力となっている。	もーだるしふとのすすむなか、ないこーかいうんせんいんのそくせんりょくとなっている。	NO_LABEL
