保科 孝一- 昭和30年7月2日）は、日本の国語学者。	NO_PRONOUNCE	NO_LABEL
上田萬年の弟子。	うえだかずとしのでし。	NO_LABEL
文部省嘱託として50年間、国語政策に関わった。	もんぶしょーしょくたくとしてごじゅうねんかん、こくごせいさくにかかわった。	NO_LABEL
置賜県米沢生まれ。	おきたまけんよねざわうまれ。	NO_LABEL
1897年帝国大学国文科卒。	せんはっぴゃくきゅうじゅうななねていこくだいがくこくぶんかそつ。	NO_LABEL
1898年文部省図書課嘱託となり、以来1947年まで一貫して国語政策に従事。	せんはっぴゃくきゅうじゅうはちねもんぶしょーとしょかしょくたくとなり、いらいせんきゅうひゃくよんじゅうななねまでいっかんしてこくごせいさくにじゅーじ。	NO_LABEL
小学校令策定に先だって、発音主義の假名遣いを上申。	しょーがっこーれいさくていにせんだって、はつおんしゅぎのかなずかいをじょーしん。	NO_LABEL
1901年国語調査委員会設置にあたり補助委員。	せんきゅうひゃくいちねんこくごちょーさいーんかいせっちにあたりほじょいいん。	NO_LABEL
1902年東京帝国大学助教授。	せんきゅうひゃくにねんとーきょーていこくだいがくじょきょーじゅ。	NO_LABEL
1904年教科書の国定化に伴い編修委員。	せんきゅうひゃくよねんきょーかしょのこくていかにともないへんしゅーいいん。	NO_LABEL
1911年文部省命令により国語国字問題の調査のためヨーロッパに出張、1913年帰国。	せんきゅうひゃくじゅういちねんもんぶしょーめいれいによりこくごこくじもんだいのちょーさのためよーろっぱにしゅっちょー、せんきゅうひゃくじゅうさんねんきこく。	NO_LABEL
1917年雑誌『國語敎育』創刊。	NO_PRONOUNCE	NO_LABEL
1927年教授に昇進して退職した。	せんきゅうひゃくにじゅうななねんきょーじゅにしょーしんしてたいしょくした。	NO_LABEL
東京高等師範学校教授、1930年東京文理科大学教授。	とーきょーこーとーしはんがっこーきょーじゅ、せんきゅうひゃくさんじゅうねんとーきょーぶんりかだいがくきょーじゅ。	NO_LABEL
八紘一宇が国是とされた戦中は、民族固有の精神が融け込んでいる国語を他の民族に移植し文化を普及するため、標準語統一の必要性を同化政策の観点から主張した。	はっこーいちうがこくぜとされたせんちゅーわ、みんぞくこゆーのせいしんがとけこんでいるこくごをたのみんぞくにいしょくしぶんかをふきゅーするため、ひょーじゅんごとーいつのひつよーせいをどーかせいさくのかんてんからしゅちょーした。	NO_LABEL
戦後は漢字制限、仮名遣い改定を実現させた。	せんごわかんじせいげん、かなずかいかいていをじつげんさせた。	NO_LABEL
