長谷川 清二郎は、将棋棋士。	はせがわきよじろーわ、しょーぎきし。	NO_LABEL
七段。	ななだん。	NO_LABEL
石井秀吉門下。	いしーひでよしもんか。	NO_LABEL
千葉県出身。	ちばけんしゅっしん。	NO_LABEL
1935年、大阪毎日新聞社主催の第1回全日本アマチュア選手権大会において、当時初段の関東代表として出場し優勝。	せんきゅうひゃくさんじゅうごねん、おーさかまいにちしんぶんしゃしゅさいのだいいっかいぜんにほんあまちゅあせんしゅけんたいかいにおいて、とーじしょだんのかんとーだいひょーとしてしゅつじょーしゆーしょー。	NO_LABEL
その後石井秀吉門下に入門。	そのごいしーひでよしもんかににゅーもん。	NO_LABEL
戦後、1946年の第1回順位戦に六段でB級に出場。	せんご、せんきゅうひゃくよんじゅうろくねのだいいっかいじゅんいせんにろくだんでびーきゅーにしゅつじょー。	NO_LABEL
1947年に七段昇段。	せんきゅうひゃくよんじゅうななねにななだんしょーだん。	NO_LABEL
だが、B級在籍の1947年限りで引退。	だが、びーきゅーざいせきのせんきゅうひゃくよんじゅうななねかぎりでいんたい。	NO_LABEL
