死海文書あるいは死海写本とは、1947年以降、死海の北西にある遺跡周辺で発見された972の写本群の総称。	NO_PRONOUNCE	NO_LABEL
主にヘブライ語聖書と聖書関連の文書からなっている。	おもにへぶらいごせいしょとせいしょかんれんのぶんしょからなっている。	NO_LABEL
死海文書の発見場所は1947年当時イギリス委任統治領であったが、現在ではヨルダン川西岸地区に属している。	しかいぶんしょのはっけんばしょわせんきゅうひゃくよんじゅうななねとーじいぎりすいにんとーちりょーであったが、げんざいでわよるだんがわせいがんちくにぞくしている。	NO_LABEL
「二十世紀最大の考古学的発見」ともいわれる。	NO_PRONOUNCE	NO_LABEL
なお、広義に死海文書という場合、クムランだけでなく20世紀後半の調査によってマサダやエン・ゲディ近くのナハル・ヘベルの洞窟から見つかった文書断片なども含むので、文書数には幅が生じる。	NO_PRONOUNCE	NO_LABEL
死海文書はヘブライ語聖書の最古の写本を含んでいて、宗教的にも歴史的にも大きな意味を持ち、第二神殿時代後期のユダヤ教の実情をうかがわせるものでもある。	しかいぶんしょわへぶらいごせいしょのさいこのしゃほんをふくんでいて、しゅーきょーてきにもれきしてきにもおーきないみをもち、だいにしんでんじだいこーきのゆだやきょーのじつじょーをうかがわせるものでもある。	NO_LABEL
文書は大部分がヘブライ語で書かれており、二割ほどのアラム語文書と、ごくわずかなギリシア語文書およびアラム語の方言であるナバテア語の文書を含んでいる。	ぶんしょわだいぶぶんがへぶらいごでかかれており、ふたつわりほどのあらむごぶんしょと、ごくわずかなぎりしあごぶんしょおよびあらむごのほーげんであるなばてあごのぶんしょをふくんでいる。	NO_LABEL
多くは羊皮紙であるが、一部パピルスもある。	おーくわよーひしであるが、いちぶぱぴるすもある。	NO_LABEL
文書の成立は内容および書体の分析と放射性炭素年代測定、質量分析法などから紀元前250年ごろから紀元70年の間と考えられている。	ぶんしょのせいりつわないよーおよびしょたいのぶんせきとほーしゃせいたんそねんだいそくてい、しつりょーぶんせきほーなどからきげんぜんにひゃくごじゅうねんごろからきげんななじゅうねんのまとかんがえられている。	NO_LABEL
死海文書を記したグループについては、伝統的にエッセネ派と同定する意見が主流だが、エルサレムのサドカイ派の祭司たちが書いた、あるいは未知のユダヤ教内グループによって書かれたとする意見もある。	しかいぶんしょをしるしたぐるーぷについてわ、でんとーてきにえっせねはとどーていするいけんがしゅりゅーだが、えるされむのさどかいはのさいしたちがかいた、あるいわみちのゆだやきょーないぐるーぷによってかかれたとするいけんもある。	NO_LABEL
死海文書の内容は大きく分けて三つに分類することができる。	しかいぶんしょのないよーわおーきくわけてみっつにぶんるいすることができる。	NO_LABEL
第一は「ヘブライ語聖書正典本文」、第二は「旧約聖書外典」と「偽典」とよばれる文書群、第三に「宗団文書」と呼ばれるもので、クムラン教団の規則や儀式書、『』と呼ばれる書などである。	NO_PRONOUNCE	NO_LABEL
1946年の終わりから1947年の初めのいずれかの時期に、ベドウィンのターミレ族の羊飼いムハンマド・エッ・ディーブとその従兄弟が、ヒベルト・クムランと呼ばれる遺跡の近くの洞窟の中で、古代の巻物の入った壷を発見した。	NO_PRONOUNCE	NO_LABEL
最初の発見に関しては、「子ヤギを追いかけていて、洞窟の中に石を投げ入れたところ、何かが割れる音がしたので入ってみた」などさまざまな逸話が語られるが、どこまでが真実かは、もはやわからない。	NO_PRONOUNCE	NO_LABEL
ベドウィンたちは、最初に見つけた四つの写本をベツレヘムの靴職人で古物も扱っていた「カンドー」ことハリル・イスカンダル・シャヒーンの元に持ち込んだ。	NO_PRONOUNCE	NO_LABEL
自身もシリア正教徒だったカンドーは、古代シリア語の文書かと思い、これを聖マルコ修道院の院長で、シリア正教会の大主教だったアタナシウス・イェシュア・サミュエルに見せた。	NO_PRONOUNCE	NO_LABEL
アタナシウスは、四つの写本を24パレスチナポンドで買い取った。	NO_PRONOUNCE	NO_LABEL
同じころ、ヘブライ大学考古学教授エレアザル・スケーニクとビンヤミン・マザールも、ベドウィンが発見した写本をカンドーが入手したことを知り、命の危険をおかしてベツレヘムに赴き、1947年11月29日にカンドーから『戦いの書』、『感謝の詩篇』と『イザヤ書』断片の三つを買い取った。	NO_PRONOUNCE	NO_LABEL
ここで、スケーニクは、あと四つの写本をアタナシウスが持っていることを知る。	ここで、すけーにくわ、あとよっつのしゃほんをあたなしうすがもっていることをしる。	NO_LABEL
1948年1月、スケーニクとマザールはアタナシウスと接触し、四つの写本の購入を図ったが話はまとまらなかった。	せんきゅうひゃくよんじゅうはちねいちがつ、すけーにくとまざーるわあたなしうすとせっしょくし、よっつのしゃほんのこーにゅーをはかったがはなしわまとまらなかった。	NO_LABEL
アタナシウスは、第三者の評価によって写本の真価を知るために、アメリカ・オリエント学研究所の研究者だったジョン・トレヴァーに写本を見せた。	NO_PRONOUNCE	NO_LABEL
トレヴァーは、写本の書体や語法がナッシュ・パピルスのそれと非常によく似ているとアタナシウスに告げた。	NO_PRONOUNCE	NO_LABEL
1948年2月21日、トレヴァーは、アタナシウスの持っていた写本を撮影したが、原本はその後インクの変質によって見にくくなり、トレヴァーの写真のほうが読みやすくなっている。	NO_PRONOUNCE	NO_LABEL
1948年4月、トレヴァーとスケーニクによって、世界に「死海周辺で古代の写本発見」の第一報がもたらされた。	NO_PRONOUNCE	NO_LABEL
当時知られていた旧約聖書の最古の写本を約1000年さかのぼる写本の発見は古代における旧約聖書の実情を示すものであり、イエス時代のユダヤ教の実態を知ることで、キリスト教誕生に関する新事実がわかるのではないかという期待が生まれた。	とーじしられていたきゅーやくせいしょのさいこのしゃほんをやくせんねんさかのぼるしゃほんのはっけんわこだいにおけるきゅーやくせいしょのじつじょーをしめすものであり、いえすじだいのゆだやきょーのじったいをしることで、きりすときょーたんじょーにかんするしんじじつがわかるのでわないかとゆうきたいがうまれた。	NO_LABEL
1948年5月に第一次中東戦争が勃発したが、アタナシウスは、写本を安全のためレバノンのベイルートに移していた。	せんきゅうひゃくよんじゅうはちねごがつにだいいちじちゅーとーせんそーがぼっぱつしたが、あたなしうすわ、しゃほんをあんぜんのためればのんのべいるーとにうつしていた。	NO_LABEL
この後、アタナシウスは、写本をベイルートからアメリカ合衆国に移し、各地の大学や博物館などに買取りを打診してまわった。	こののち、あたなしうすわ、しゃほんをべいるーとからあめりかがっしゅーこくにうつし、かくちのだいがくやはくぶつかんなどにかいとりをだしんしてまわった。	NO_LABEL
しかし、そもそも本物かどうかわからないという点と、もし本物だとしたら国宝級のものであり、所有権をめぐって国家間トラブルの招来が予想されることの二点を理由に、各地の施設が購入に二の足を踏んだ。	しかし、そもそもほんものかどーかわからないとゆうてんと、もしほんものだとしたらこくほーきゅーのものであり、しょゆーけんをめぐってこっかかんとらぶるのしょーらいがよそーされることのにてんをりゆーに、かくちのしせつがこーにゅーににのあしをふんだ。	NO_LABEL
最終的に、アタナシウスは、1954年6月1日のウォール・ストリート・ジャーナル紙に写本売り出しの広告を出した。	NO_PRONOUNCE	NO_LABEL
そこには、「売りたし。	NO_PRONOUNCE	NO_LABEL
四つの死海文書。	よっつのしかいぶんしょ。	NO_LABEL
少なくとも紀元前200年ごろにさかのぼる聖書テキスト。	すくなくともきげんぜんにひゃくねんごろにさかのぼるせいしょてきすと。	NO_LABEL
個人・団体を問わず教育機関や宗教施設に最高の贈り物」と書かれていた。	NO_PRONOUNCE	NO_LABEL
写本は、匿名の購入者によって25万USドルで購入された。	NO_PRONOUNCE	NO_LABEL
「匿名の購入者」は、実はイスラエル政府の意を受けたマザール教授とスケーニクの息子イガエル・ヤディンであった。	NO_PRONOUNCE	NO_LABEL
こうして、イスラエルは、最初の七つの写本を全て入手することに成功した。	こーして、いすらえるわ、さいしょのななつのしゃほんをすべてにゅーしゅすることにせいこーした。	NO_LABEL
ヤディンは、1967年の第三次中東戦争時には、ベツレヘムのカンドーの自宅から第11洞窟から出た『神殿の巻物』を回収している。	NO_PRONOUNCE	NO_LABEL
最初に出土した七つの写本は、エルサレムのパレスティナ考古学博物館に入った。	さいしょにしゅつどしたななつのしゃほんわ、えるされむのぱれすてぃなこーこがくはくぶつかんにはいった。	NO_LABEL
同博物館は、当時フランス・アメリカ・イギリスの各国政府が共同で運営していた。	NO_PRONOUNCE	NO_LABEL
ところが、1961年になって、ヨルダンが、死海文書はヨルダンの財産であると宣言、1966年には考古学博物館も国有化した。	ところが、せんきゅうひゃくろくじゅういちねんになって、よるだんが、しかいぶんしょわよるだんのざいさんであるとせんげん、せんきゅうひゃくろくじゅうろくねんにわこーこがくはくぶつかんもこくゆーかした。	NO_LABEL
イスラエルは、1967年の第三次中東戦争の後で考古学博物館にあった死海文書を回収し、イスラエル博物館内に新しく作られた「死海写本館」に移した。	NO_PRONOUNCE	NO_LABEL
ヨルダン政府による死海文書返還要求は、以後も繰り返されている。	よるだんせいふによるしかいぶんしょへんかんようきゅーわ、いごもくりかえされている。	NO_LABEL
1947年の写本発見から二年がたっても、研究者たちは、写本の出所である洞窟の発見にすら至っていなかったが、国連休戦監視部隊のベルギー人将校フィリップ・リッペンス大尉らが、ベドウィンから情報を得て洞窟を発見した。	NO_PRONOUNCE	NO_LABEL
委任統治領時代にイギリスによって設立されたヨルダン考古局の長官ジェラルド・ランケスター・ハーディングは、同地域の考古学遺跡を管轄していたため、このニュースを聞いてクムランの洞窟探索を企画し、エルサレム・フランス聖書考古学学院の所長で、ヘブライ語聖書の専門家のドミニコ会司祭を誘った。	NO_PRONOUNCE	NO_LABEL
1949年2月から3月にかけて二人の指揮のもと、アメリカ・オリエント学研究所も協力して第1洞窟が調査され、残っていた数百の写本断片が回収された。	NO_PRONOUNCE	NO_LABEL
その頃、ベドウィンたちも周辺の洞窟の探索を続け、考古学者たちを出し抜くようにさらなる写本を発見する。	そのころ、べどうぃんたちもしゅーへんのどーくつのたんさくをつずけ、こーこがくしゃたちをだしぬくよーにさらなるしゃほんをはっけんする。	NO_LABEL
1952年に新たな写本が市場にでたことから、ド・ヴォーの指揮下でフランスとアメリカの考古学者たちが共同で周辺の洞窟群を調査、新たに5つの洞窟から写本を回収した。	NO_PRONOUNCE	NO_LABEL
第3洞窟から発見された異色の発見物は「銅の巻物」と呼ばれるもので、その名のとおり薄い銅版に文字を刻んで巻物のように丸めたものであった。	NO_PRONOUNCE	NO_LABEL
また第4洞窟からは膨大な量の断片が発見され、それらをつなぎあわせて600の巻物が復元された。	NO_PRONOUNCE	NO_LABEL
これは死海文書の実に4分の3にあたる。	NO_PRONOUNCE	NO_LABEL
以後、ヒルベト・クムラン遺跡を含めて、周辺の調査が続けられたが、洞窟からの写本の発見は1956年の第11洞窟の発見が最後になった。	NO_PRONOUNCE	NO_LABEL
死海文書の研究は、特定の教派によらない超教派による国際的な委員会によって行われることになった。	しかいぶんしょのけんきゅーわ、とくていのきょーはによらないちょーきょーはによるこくさいてきないいんかいによっておこなわれることになった。	NO_LABEL
ド・ヴォーが委員会のリーダーになり、ヨゼフ・タデウス・ミリク、文献学）、パトリック・スキーハン、ジャン・スタルキー、モーリス・ベイェ、フランク・ムーア・クロス、クラウス・フンツィンガー、ゲッティンゲン大学）、、オックスフォード大学）、、そして後にド・ヴォーの後継者に指名される）といった気鋭の学者たちが集結した。	NO_PRONOUNCE	NO_LABEL
委員会の研究成果は『』叢書としてオックスフォード大学出版局から出版されることになった。	NO_PRONOUNCE	NO_LABEL
1951年にはド・ヴォーの指揮によるヒルベト・クムランの本格的な発掘調査も開始された。	NO_PRONOUNCE	NO_LABEL
調査チームはそこで洞窟にあったものと同じタイプの壷を発見し、ド・ヴォーは死海文書を作ったのがクムラン教団であることを確信した。	NO_PRONOUNCE	NO_LABEL
調査は1956年まで断続的に続けられたが、第二次中東戦争の勃発によって中止された。	ちょーさわせんきゅうひゃくごじゅうろくねんまでだんぞくてきにつずけられたが、だいにじちゅーとーせんそーのぼっぱつによってちゅーしされた。	NO_LABEL
遺跡の最後の調査は1958年に行われている。	いせきのさいごのちょーさわせんきゅうひゃくごじゅうはちねんにおこなわれている。	NO_LABEL
死海文書の価値に関して学者たちは当初から認めていたわけではなく、調査の結果を待って静観の姿勢をとるものが多かった。	しかいぶんしょのかちにかんしてがくしゃたちわとーしょからみとめていたわけでわなく、ちょーさのけっかをまってせいかんのしせいをとるものがおーかった。	NO_LABEL
研究の初期に死海文書への疑義を積極的に表明したのは、フィラデルフィアのドロプシー大学教授ソロモン・ザイトリンであった。	NO_PRONOUNCE	NO_LABEL
彼はラビ文献の専門家であったが、写本が偽作で金目当てに捏造されたものだと訴えた。	かれわらびぶんけんのせんもんかであったが、しゃほんがぎさくできむめあてにねつぞーされたものだとうったえた。	NO_LABEL
またイギリス人学者のゴドフリー・ドライバーも写本が紀元5世紀のものであると判断したが、後にこれを撤回し、紀元1世紀のものであるという説に同意している。	NO_PRONOUNCE	NO_LABEL
写本の研究が進むにしたがって1世紀ごろの成立ということに関しては多くの学者たちの認めるところとなっていった。	しゃほんのけんきゅーがすすむにしたがっていっせいきごろのせいりつとゆうことにかんしてわおーくのがくしゃたちのみとめるところとなっていった。	NO_LABEL
早くも1950年には最初の死海文書の公刊が行われた。	はやくもせんきゅうひゃくごじゅうねんにわさいしょのしかいぶんしょのこーかんがおこなわれた。	NO_LABEL
ジョン・トレヴァーと二人のアメリカ人研究者ミラー・バロウズ、ウィリアム・ブラウンリーの名義で『イザヤ書』、『ハバクク書註解』、続けて『』が出版された。	NO_PRONOUNCE	NO_LABEL
さらにスケーニクの監修した『イザヤ書』の第二の巻物、『感謝の詩篇』、『戦いの書』が1955年にヘブライ語版と英語版で出版された。	NO_PRONOUNCE	NO_LABEL
『外典創世記』もスケーニクの息子イガエル・ヤディンの努力によって1956年に出版された。	NO_PRONOUNCE	NO_LABEL
ド・ヴォー率いる委員会もDJD第一巻を1955年に世に問うた。	NO_PRONOUNCE	NO_LABEL
こうして1956年までに第1洞窟から発見されたすべての写本の内容が明らかにされた。	NO_PRONOUNCE	NO_LABEL
最初に発見された写本群が迅速に出版されたのを見て、世の研究者たちは残りの写本に関しても国際委員会が迅速に公刊してくれるだろうと期待を抱いたが、その期待は完全に裏切られることになる。	さいしょにはっけんされたしゃほんぐんがじんそくにしゅっぱんされたのをみて、よのけんきゅうしゃたちわのこりのしゃほんにかんしてもこくさいいーんかいがじんそくにこーかんしてくれるだろうときたいをだいたが、そのきたいわかんぜんにうらぎられることになる。	NO_LABEL
委員会によるDJDは第一巻、第二巻、第三巻、第四巻、第五巻と続けて出版され、第六巻と第七巻が思い出したように出版されたが、その作業は1960年代以降、遅々として進んでいなかった。	NO_PRONOUNCE	NO_LABEL
その最大の理由は第一洞窟から発見された写本がほぼ完全な形を保っていたのに対し、それ以外の洞窟から発見された写本はほとんどが膨大な量の断片であり、再構成にかかる時間が膨大なものであったことによる。	そのさいだいのりゆーわだいいちどーくつからはっけんされたしゃほんがほぼかんぜんなかたちをたもっていたのにたいし、それいがいのどーくつからはっけんされたしゃほんわほとんどがぼーだいなりょーのだんぺんであり、さいこーせいにかかるじかんがぼーだいなものであったことによる。	NO_LABEL
またリーダーのド・ヴォーが「委員会による公刊まで写本の内容を明かさない」よう委員たちに求めたことが国際的な非難を受けることになった。	NO_PRONOUNCE	NO_LABEL
肝心の委員会の中からも不協和音が聞こえるようになる。	かんじんのいーんかいのなかからもふきょーわおんがきこえるよーになる。	NO_LABEL
1956年に委員のがBBCの放送で「銅の巻物」の内容に言及し、ヨルダン考古局と共同して『銅の巻物の宝物』という著作を1960年に委員会の許可を得ずに出版した。	NO_PRONOUNCE	NO_LABEL
後にアレグロはこの「財宝」探索に乗り出す。	NO_PRONOUNCE	NO_LABEL
さらにアレグロはソルボンヌ大学教授の感化を受けて「死海文書の内容がキリスト教の起源に関する重大な発見をもたらす」ものだと主張するようになる。	NO_PRONOUNCE	NO_LABEL
1956年1月BBCのラジオ放送でアレグロは「死海文書の中に「義の教師なる人物がアレクサンドロス・ヤンナイオスによって捕らえられ、十字架にかけられ、弟子によっておろされ、その遺体が再臨の日まで守られること」が書かれており、これこそがキリスト教のルーツである」と述べ、大反響を巻き起こした。	NO_PRONOUNCE	NO_LABEL
3月16日にド・ヴォーと委員会はタイムズ紙に反論を掲載、そのような記述が死海文書にはないことを明らかにした。	NO_PRONOUNCE	NO_LABEL
後にアレグロ本人も「自分の推論」と認めている。	NO_PRONOUNCE	NO_LABEL
アレグロは1970年にはユダヤ教やキリスト教が幻覚剤であるベニテングタケの効果によって生まれたことを述べた『聖なるきのこと十字架』を出版して以降、学者として認められなくなった。	NO_PRONOUNCE	NO_LABEL
しかし、アレグロの主張はその後の死海文書をめぐる「カトリック教会の陰謀論」の原型として利用されることになる。	NO_PRONOUNCE	NO_LABEL
1967年の第三次中東戦争によって中東の政治情勢が大きく変化したことが、死海文書の研究継続に打撃を与えた。	せんきゅうひゃくろくじゅうななねのだいさんじちゅーとーせんそーによってちゅーとーのせいじじょーせいがおーきくへんかしたことが、しかいぶんしょのけんきゅーけいぞくにだげきをあたえた。	NO_LABEL
エルサレムとクムラン周辺がイスラエルの勢力下に入り、アメリカやイギリスの外交筋がエルサレムにおける紛争解決の日まで、一切の考古学的調査を控えるようにという要請を行った。	えるされむとくむらんしゅーへんがいすらえるのせいりょくかにはいり、あめりかやいぎりすのがいこーすじがえるされむにおけるふんそーかいけつのひまで、いっさいのこーこがくてきちょーさをひかえるよーにとゆうよーせいをおこなった。	NO_LABEL
これを受けてド・ヴォーのチームは活動を休止し、1971年にド・ヴォーが世を去ると死海文書の研究が著しく妨げられることになった。	NO_PRONOUNCE	NO_LABEL
1972年に死去したド・ヴォーに代わってが委員会のリーダーになると、作業の遅れが公然と非難されるようになる。	NO_PRONOUNCE	NO_LABEL
1972年8月9日付の『ニューヨーク・タイムズ』は死海文書を特集し、その中で新しい編集主幹は公刊の遅れによる「民衆の怒りを避けるよう」努力することを薦めた。	NO_PRONOUNCE	NO_LABEL
しかし、ベノワが委員会の代表をつとめていた12年の間に出版されたのはわずかDJD二冊に過ぎなかった。	NO_PRONOUNCE	NO_LABEL
ベノワは健康上の問題を理由に1984年に辞任、が後を継いだが、その頃には委員会はメンバーが亡くなったり、辞任したりで人材が枯渇しており、委員会の実務能力はないに等しかった。	べのわわけんこーじょーのもんだいをりゆーにせんきゅうひゃくはちじゅうよねんにじにん、がごをついだが、そのころにわいーんかいわめんばーがなくなったり、じにんしたりでじんざいがこかつしており、いーんかいのじつむのーりょくわないにひとしかった。	NO_LABEL
1987年は死海文書発見40周年の記念であったため、各国から死海文書研究と原典公刊の遅延を非難する声が再び巻き起こった。	せんきゅうひゃくはちじゅうななねわしかいぶんしょはっけんよんじゅうしゅーねんのきねんであったため、かっこくからしかいぶんしょけんきゅーとげんてんこーかんのちえんをひなんするこえがふたたびまきおこった。	NO_LABEL
これを受けてフランス聖書・考古学研究所はをリーダーにした調査チームを立ち上げ、ド・ヴォーが残した死海文書とクムラン遺跡に関する膨大な調査記録の編纂を開始した。	NO_PRONOUNCE	NO_LABEL
さらに死海文書を管理していたイスラエル古代遺跡管理局が、不適任という理由で1990年にストラグネルを委員会から外し、ヘブライ大学教授を新しい委員長に任命した。	さらにしかいぶんしょをかんりしていたいすらえるこだいいせきかんりきょくが、ふてきにんとゆうりゆーでせんきゅうひゃくきゅうじゅうねんにすとらぐねるをいーんかいからはずし、へぶらいだいがくきょーじゅをあたらしいいーんちょーににんめいした。	NO_LABEL
トーヴは手始めに委員会の人数を60名に増員し、世界中から優れた学者たちを招聘した。	NO_PRONOUNCE	NO_LABEL
トーヴの強力なリーダーシップのもと、世界が待ち望んでいた死海文書の公刊は急速に進展することになる。	NO_PRONOUNCE	NO_LABEL
一方でトーヴはド・ヴォーの「公刊されるまで委員会以外に文書の内容を示さない」というルールを継承しようとしていた。	NO_PRONOUNCE	NO_LABEL
しかし、1991年9月4日にアメリカのオハイオ州シンシナティにあるヒブル・ユニオン・カレッジに保管されていた死海文書の写真が『死海巻物未公刊本文予備版』と題して出版された。	NO_PRONOUNCE	NO_LABEL
これを受けて、9月22日にはカリフォルニア州パサデナにあったハンティントン・ライブラリーも保管していた死海文書の写真版の公開を決定。	これをうけて、くがつにじゅうににちにわかりふぉるにあしゅーぱさでなにあったはんてぃんとんらいぶらりーもほかんしていたしかいぶんしょのしゃしんばんのこーかいをけってい。	NO_LABEL
イスラエル古代遺跡管理局は当初法廷闘争を企図したが、世論に配慮して方向転換し、9月25日に「死海文書の写真の自由な利用を認める」旨を発表した。	NO_PRONOUNCE	NO_LABEL
最初の発見から44年をへて、初めて死海文書の全容が世界に示された。	さいしょのはっけんからよんじゅうよんねんをへて、はじめてしかいぶんしょのぜんよーがせかいにしめされた。	NO_LABEL
1991年にイギリスの作家とが『』の陰謀であると主張した。	NO_PRONOUNCE	NO_LABEL
同書によれば委員長のド・ヴォーはバチカンから「写本の年代を紀元前二世紀として新約聖書の成立年代から極力離すこと」と「カトリック教会の教義をおびやかす内容がある場合、決して公表させないこと」という二つの指令を受けていたとしている。	NO_PRONOUNCE	NO_LABEL
「カトリック教会の陰謀」というテーマで一般受けした同書ではあるが、学術的にはまったく意味のないものである。	NO_PRONOUNCE	NO_LABEL
オックスフォード大学の死海文書研究者ゲザ・ヴァーメシは成立年代に関しては非カトリックの学者たちによっても広く認められていること、委員の中にはカトリック教会と無関係の者も多く、ド・ヴォーのそのような指示があったとしても従う義理のないものが多いこと、最終的にすべての写本の内容が公開されているが、キリスト教もユダヤ教もどちらに関してもその土台をゆるがすような記述は何もないことなどをあげて、まったくのナンセンスと論破している。	NO_PRONOUNCE	NO_LABEL
ノートルダム大学の教授で死海文書の研究家ジェイムス・ヴァンダーカムもベイジェントとリーの著作について「死海文書のすべての巻物を利用することのできる今、誰もそこにキリスト教にダメージを与えたりするものや、バチカンが隠蔽しようとしたものを見出すことはできないでいる」と述べ、二人の陰謀説が「根も葉もない」もので、同書は「学問といかがわしさがこれほど奇怪に合体した書物を想像することは難しい」と切り捨てている。	NO_PRONOUNCE	NO_LABEL
ベイジェントとリーは1982年にも『レンヌ・ル・シャトーの謎』を出版してカトリック教会の陰謀論を展開している。	NO_PRONOUNCE	NO_LABEL
1991年、ロバート・アイゼンマンとジェームズ・ロビンソンの監修によってハンティントン・ライブラリー所蔵の写真が『写真版死海巻物』 () として公刊され、1992年には新委員長のトーヴによって全てのクムラン資料のマイクロフィルム版が出版された。	NO_PRONOUNCE	NO_LABEL
1997年にはオックスフォード大学出版局が全死海文書の写真デジタル版CDを出版、さらに2010年10月19日にはイスラエル考古学庁がグーグルと共同で全死海文書のデジタル写真をインターネット上で公開する計画を発表し、作業を進めている。	せんきゅうひゃくきゅうじゅうななにわおっくすふぉーどだいがくしゅっぱんきょくがぜんしかいぶんしょのしゃしんでじたるばんきゃっしゅでぃすぺんさーをしゅっぱん、さらににせんじゅうねんじゅーがつじゅうきゅうにちにわいすらえるこーこがくちょーがぐーぐるときょーどーでぜんしかいぶんしょのでじたるしゃしんをいんたーねっとじょーでこーかいするけいかくをはっぴょーし、さぎょーをすすめている。	NO_LABEL
ド・ヴォー及びその後継者の下で遅々として進まなかったDJDの刊行は、トーヴのもとで劇的に進行し、1995年から2000年までに第8巻から第38巻が一挙に刊行された。	NO_PRONOUNCE	NO_LABEL
第39巻は2002年、第40巻が2009年に出版されてようやく全作業が終了した。	だいさんじゅうきゅうかんわにせんにねん、だいよんじゅうかんがにせんきゅうねんにしゅっぱんされてよーやくぜんさぎょーがしゅーりょーした。	NO_LABEL
「死海写本」を「神戸聖書展」で展示 2万人以上が閲覧。	NO_PRONOUNCE	NO_LABEL
2001年5月9-14日 。	NO_PRONOUNCE	NO_LABEL
死海文書が発見されたクムラン周辺の洞窟群には発見順に番号がつけられている。	しかいぶんしょがはっけんされたくむらんしゅーへんのどーくつぐんにわはっけんじゅんにばんごーがつけられている。	NO_LABEL
第4洞窟と第7〜9洞窟はクムランに非常に近いが、第1、第3、第11洞窟はクムランから遠い場所にある。	NO_PRONOUNCE	NO_LABEL
クムラン周辺には100以上の洞窟があるが、写本が発見された洞窟は全部で11である。	NO_PRONOUNCE	NO_LABEL
以下に概要とそこからの出土品を示す。	いかにがいよーとそこからのしゅつどひんをしめす。	NO_LABEL
死海文書には断片にいたるまでほとんどすべてに整理記号がつけられている。	しかいぶんしょにわだんぺんにいたるまでほとんどすべてにせいりきごーがつけられている。	NO_LABEL
たとえば「1QIsaa」とあれば、「クムランの第一洞窟」から出土した「イザヤ書」の「一つ目」という意味である。	NO_PRONOUNCE	NO_LABEL
断片には整理番号がつけられている。	だんぺんにわせいりばんごーがつけられている。	NO_LABEL
たとえば「1QGen」は「1Q1」でもある。	NO_PRONOUNCE	NO_LABEL
1947年に発見された最初の洞窟。	せんきゅうひゃくよんじゅうななねにはっけんされたさいしょのどーくつ。	NO_LABEL
七つの写本が発見された。	ななつのしゃほんがはっけんされた。	NO_LABEL
二つの『イザヤ書』、『』、『ハバクク書註解』、『』、『外典創世記』。	NO_PRONOUNCE	NO_LABEL
そのほかに巻物を保管していた陶器の壷、布切れ、写本の断片などが発見されている。	そのほかにまきものをほかんしていたとーきのつぼ、ぬのぎれ、しゃほんのだんぺんなどがはっけんされている。	NO_LABEL
1952年に発見。	せんきゅうひゃくごじゅうにねんにはっけん。	NO_LABEL
33の文書の断片が300ほど発見された。	NO_PRONOUNCE	NO_LABEL
『ヨベル書』、『コヘレトの言葉』のヘブライ語原典を含む。	NO_PRONOUNCE	NO_LABEL
1952年3月14日に考古学者たちが発見。	せんきゅうひゃくごじゅうにねんさんがつじゅうよっかにこーこがくしゃたちがはっけん。	NO_LABEL
『ヨベル書』を含む14の文書と『銅の巻物』という銅板に文字を刻み込んだものが発見されたことで有名。	NO_PRONOUNCE	NO_LABEL
金や銀、銅などの隠し場所が記されている。	きんやぎん、どーなどのかくしばしょがしるされている。	NO_LABEL
1952年8月に発見され、9月22日〜29日に調査された。	NO_PRONOUNCE	NO_LABEL
クムラン遺跡から見えるほど近く、クムランの洞窟群の中でもっとも多くの写本が発見された。	くむらんいせきからみえるほどちかく、くむらんのどーくつぐんのなかでもっともおーくのしゃほんがはっけんされた。	NO_LABEL
洞窟内部は二つに仕切られていたが、写本はどちらから出てきたかわからないものもあるので基本的に「4Q」を付す。	NO_PRONOUNCE	NO_LABEL
第4洞窟からは15000の断片が発見され、500の写本が再構成された。	NO_PRONOUNCE	NO_LABEL
その中には9-10部の『ヨベル書』、21のテフィリン、7部のメズゾットが含まれていた。	NO_PRONOUNCE	NO_LABEL
1952年に第4洞窟に続いて発見された。	NO_PRONOUNCE	NO_LABEL
第5洞窟からは25の文書が、第6洞窟からは31の文書の断片が見つかった。	NO_PRONOUNCE	NO_LABEL
これらの洞窟もクムラン遺跡に近い。	これらのどーくつもくむらんいせきにちかい。	NO_LABEL
1957年に調査が行われたがわずかな断片のみ見つかった。	せんきゅうひゃくごじゅうしちねんにちょーさがおこなわれたがわずかなだんぺんのみみつかった。	NO_LABEL
第7洞窟からはギリシア語文書の断片のみが、第8洞窟からは創世記など5つの断片が、ほかに壷やランプ、革靴の底などが見つかった。	NO_PRONOUNCE	NO_LABEL
第9洞窟からは解読不能の小断片のみ。	だいくどーくつからわかいどくふのーのしょーだんぺんのみ。	NO_LABEL
ここからは小さな陶片が二つ見つかっただけである。	ここからわちーさなすえへんがふたつみつかっただけである。	NO_LABEL
1956年に発見され21のテキストが発見された。	NO_PRONOUNCE	NO_LABEL
その中でも特に『神殿の巻物』は死海文書の中でも最長で8.15mもある。	NO_PRONOUNCE	NO_LABEL
死海文書の内容は大きく三つのグループに分類される。	しかいぶんしょのないよーわおーきくみっつのぐるーぷにぶんるいされる。	NO_LABEL
それは「ヘブライ語聖書本文」、「旧約聖書外典・偽典」、そして「教団文書」と呼ばれるものである。	NO_PRONOUNCE	NO_LABEL
以下に文書の一覧を示し、複数の巻物が含まれる場合はその本数を記す。	いかにぶんしょのいちらんをしめし、ふくすーのまきものがふくまれるばあいわそのほんすーをしるす。	NO_LABEL
これらの中には一つの巻物に複数の書をまとめたものも含まれている。	これらのなかにわひとつのまきものにふくすーのしょをまとめたものもふくまれている。	NO_LABEL
死海文書の発見によって聖書テキストが、時代を経てどれほど変遷しているかを確認することができるようになった。	しかいぶんしょのはっけんによってせいしょてきすとが、じだいをへてどれほどへんせんしているかをかくにんすることができるよーになった。	NO_LABEL
死海文書以前に知られていた最古のヘブライ語写本は、925年頃書写されたと考えられるアレッポ写本であったので、最古の写本が一気に1000年さかのぼったのである。	しかいぶんしょいぜんにしられていたさいこのへぶらいごしゃほんわ、きゅうひゃくにじゅうごねんごろしょしゃされたとかんがえられるあれっぽしゃほんであったので、さいこのしゃほんがいっきにせんねんさかのぼったのである。	NO_LABEL
死海文書に含まれる聖書テキストを分析すると35%がマソラ本文と一致し、5%が七十人訳聖書の系統であり、5%がサマリア五書の系統に含まれるものである。	しかいぶんしょにふくまれるせいしょてきすとをぶんせきするとさんじゅうごぱーせんとがまそらほんもんといっちし、ごぱーせんとがしちじゅーにんやくせいしょのけいとーであり、ごぱーせんとがさまりあごしょのけいとーにふくまれるものである。	NO_LABEL
残りはまったく独自の系統に属するものである。	のこりわまったくどくじのけいとーにぞくするものである。	NO_LABEL
これによって当時のヘブライ語聖書の流動性が示され、第二神殿時代のユダヤ教の実情に光があてられた。	これによってとーじのへぶらいごせいしょのりゅーどーせいがしめされ、だいにしんでんじだいのゆだやきょーのじつじょーにひかりがあてられた。	NO_LABEL
1996年版の『オックスフォード考古学ガイド』は死海文書について、	NO_PRONOUNCE	NO_LABEL
死海文書の著者が誰であるかについては諸説あるが、現在に至るまでもっともよく知られ、広く支持されてきた学説は、死海文書の著者をクムラン教団の人々と考え、クムラン教団を古代ユダヤ教のグループであるエッセネ派の共同体とみなす説である。	しかいぶんしょのちょしゃがだれであるかについてわしょせつあるが、げんざいにいたるまでもっともよくしられ、ひろくしじされてきたがくせつわ、しかいぶんしょのちょしゃをくむらんきょーだんのひとびととかんがえ、くむらんきょーだんをこだいゆだやきょーのぐるーぷであるえっせねはのきょーどーたいとみなすせつである。	NO_LABEL
文書が発見された最初期においてエレアザル・スケーニクはすでにエッセネ派と死海文書を結びつけて考えていたし、ロラン・ド・ヴォーとヨゼフ・ミリクはクムラン遺跡の発掘によって「クムラン教団＝エッセネ派＝死海文書の書き手」という説に至った。	NO_PRONOUNCE	NO_LABEL
この説によれば、クムランに拠っていたエッセネ派の共同体によって死海文書が記され、ユダヤ戦争時の紀元66〜68年頃に戦火を避けるためにクムラン周辺の洞窟に隠されたとされる。	NO_PRONOUNCE	NO_LABEL
クムラン遺跡では一切の文書類が発見されていない。	くむらんいせきでわいっさいのぶんしょるいがはっけんされていない。	NO_LABEL
にもかかわらず「死海文書著者＝クムランのエッセネ派」という説が支持されてきたのは以下のような理由による。	NO_PRONOUNCE	NO_LABEL
まず第一に死海文書の共同体規則に書かれた入門者の受け入れの儀式が、フラヴィウス・ヨセフスが著作の中で言及するエッセネ派の入門式との共通点が多かったことがある。	NO_PRONOUNCE	NO_LABEL
さらに共同体規則にメンバーが財産を共有すると書かれていることもヨセフスの描くエッセネ派の特徴と合致している。	さらにきょーどーたいきそくにめんばーがざいさんをきょーゆーするとかかれていることもよせふすのえがくえっせねはのとくちょーとがっちしている。	NO_LABEL
第二に、ヒルベト・クムラン遺跡の部屋から二つのインクつぼと低い机が発掘され、この場所で写本の作成が行われていた可能性が示されたことがある。	NO_PRONOUNCE	NO_LABEL
ド・ヴォーはその部屋を「写字室」と呼んだ。	NO_PRONOUNCE	NO_LABEL
さらに発掘によってユダヤ人の使う儀式用の大きな浴槽が発見されたこともクムラン遺跡の住人がユダヤ人であったことの証左と考えられた。	さらにはっくつによってゆだやじんのつかうぎしきよーのおーきなよくそーがはっけんされたこともくむらんいせきのじゅーにんがゆだやじんであったことのしょーさとかんがえられた。	NO_LABEL
第三に1世紀のローマの著述家大プリニウスも著作において、死海の北西岸にエッセネ派の共同体があったと述べている。	だいさんにいっせいきのろーまのちょじゅつかだいぷりにうすもちょさくにおいて、しかいのほくせいがんにえっせねはのきょーどーたいがあったとのべている。	NO_LABEL
このように多くの傍証を挙げることができる「死海文書の著者＝クムラン教団＝エッセネ派」説だが、反論も多い。	NO_PRONOUNCE	NO_LABEL
死海文書の著者をクムラン教団と想定しながらもクムラン教団はエッセネ派ではないとみなす立場もある。	しかいぶんしょのちょしゃをくむらんきょーだんとそーていしながらもくむらんきょーだんわえっせねはでわないとみなすたちばもある。	NO_LABEL
この立場によれば、死海文書はエッセネ派ではない何らかのユダヤ教グループによって書かれたことになる。	このたちばによれば、しかいぶんしょわえっせねはでわないなんらかのゆだやきょーぐるーぷによってかかれたことになる。	NO_LABEL
クムラン教団の正体に関して近年もっとも注目された説が「クムラン教団＝サドカイ派」説である。	NO_PRONOUNCE	NO_LABEL
ニューヨーク大学のローレンス・シフマンの提唱するこの説では、死海文書の説はサドカイ派の祭司たちである。	NO_PRONOUNCE	NO_LABEL
その証左として、シフマンは第四洞窟出土の4QMMTをあげる。	そのしょーさとして、しふまんわだいよんどーくつしゅつどのよんくぉーたーえむえむてぃーをあげる。	NO_LABEL
彼は4QMMTこそサドカイ派の清浄・不浄規定そのものであるとし、死海文書に含まれる暦もまたサドカイ派の暦であるとしている。	NO_PRONOUNCE	NO_LABEL
1972年、スペインのイエズス会士ヨセフ・オキャラハンは第七洞窟から発見されたギリシア語の写本断片を新約聖書の一部であるという説を発表した。	NO_PRONOUNCE	NO_LABEL
これはコンピュータによる本文検索システムによる参照によって、旧約聖書本文では比定不可能であった当該パピルス片を新約本文と対照することで偶然発見に至ったものである。	これわこんぴゅーたによるほんぶんけんさくしすてむによるさんしょーによって、きゅーやくせいしょほんぶんでわひていふかのーであったとーがいぱぴるすへんをしんやくほんぶんとたいしょーすることでぐーぜんはっけんにいたったものである。	NO_LABEL
しかし当初、ほとんどの死海文書の研究家たちは「あまりに断片の文章が短すぎて判断できない」として即座にこれに反論した。	NO_PRONOUNCE	NO_LABEL
1980年にはアメリカのロバート・アイゼンマンがさらにその説を進めて、死海文書は初期キリスト教徒の手によるものであるという説を唱えた。	NO_PRONOUNCE	NO_LABEL
アイゼンマンは死海文書の言及する「義の教師」とはイエス亡きあとのエルサレムのキリスト教徒を率いた大ヤコブのことであり、「悪の祭司」とはパウロのことであるとする。	NO_PRONOUNCE	NO_LABEL
このような大胆な空想の飛躍に至らずとも、80年代以降もこの問題の真剣な学問的論議は継続している。	このよーなだいたんなくーそーのひやくにいたらずとも、はちじゅうねんだいいこーもこのもんだいのしんけんながくもんてきろんぎわけいぞくしている。	NO_LABEL
「反証不可能性」で科学と疑似科学に境界線を引いたことで有名な哲学者カール・ポパーは「断片7Q5とマルコによる福音書六章52-53節を同一と見なすことが、ただ一つ可能なものである」と、ドイツのカトリック学者フェルディナンド・ロールヒルシュの本件についての主張を支持している。	NO_PRONOUNCE	NO_LABEL
死海文書がクムランでなく、エルサレムで書かれたという立場をとる説もある。	しかいぶんしょがくむらんでなく、えるされむでかかれたとゆうたちばをとるせつもある。	NO_LABEL
カール・ハインリヒ・レングストルフが初めてこの説を唱え、エルサレムで書かれた文書群がローマ人の攻撃を避けるため、クムラン周辺に持ち出されて隠されたと考えた。	NO_PRONOUNCE	NO_LABEL
後にシカゴ大学のノーマン・ゴルブもこれを支持し、エルサレム神殿だけでなく、エルサレムの複数のグループによって書かれた文書群が運ばれたとする。	NO_PRONOUNCE	NO_LABEL
この説の傍証として、提唱者たちは死海文書は思想的に幅が広く、多くの筆記者の手によっていることをあげる。	このせつのぼーしょーとして、ていしょーしゃたちわしかいぶんしょわしそーてきにはばがひろく、おーくのひっきしゃのてによっていることをあげる。	NO_LABEL
