死んだ労働とは、マルクス経済学において、ある一つの生産部門において、投ぜられる機械・材料などにあらかじめ投ぜられた労働のこと。	NO_PRONOUNCE	NO_LABEL
対象化された労働。	たいしょーかされたろーどー。	NO_LABEL
対義語は生きた労働。	たいぎごわいきたろうどー。	NO_LABEL
カール・マルクスが『資本論』の中でこのように呼んだことで広くマルクス経済学の領域で使われるようになった表現である。	NO_PRONOUNCE	NO_LABEL
不変資本と言い換えることもできる。	ふへんしほんといーかえることもできる。	NO_LABEL
