三山は千葉県船橋市にある地名である。	みやまわちばけんふなばししにあるちめいである。	NO_LABEL
かつては御山と表記した。	かつてわおんやまとひょーきした。	NO_LABEL
現行行政地名は三山一丁目から三山九丁目。	げんこーぎょーせいちめいわみやまいっちょーめからみやまきゅーちょーめ。	NO_LABEL
郵便番号は274-0072	NO_PRONOUNCE	NO_LABEL
菊田川水系	きくたがわすいけい	NO_LABEL
住宅地の地価は、2014年1月1日の公示地価によれば、三山1-18-12の地点で10万5000円/mとなっている。	NO_PRONOUNCE	NO_LABEL
三山の地名の由来は御山又は宮山が変化したと考えられている。	みやまのちめいのゆらいわおやままたわみややまがへんかしたとかんがえられている。	NO_LABEL
三山の鎮守である二宮神社の神官の子孫で三山姓、御山姓が分布している。	みやまのちんじゅであるにのみやじんじゃのしんかんのしそんでみやませい、おんやませいがぶんぷしている。	NO_LABEL
土地が広く、1950年代あたりまでは東の方に「三山新田」という別の集落があった。	NO_PRONOUNCE	NO_LABEL
この東半分は元「今湊新田」であり、行徳湊村からの開拓者が開いた。	NO_PRONOUNCE	NO_LABEL
「今」とは「新」の意。	NO_PRONOUNCE	NO_LABEL
2017年11月1日現在の世帯数と人口は以下の通りである。	にせんじゅうななねんじゅーいちがつついたちげんざいのせたいすーとじんこーわいかのとーりである。	NO_LABEL
市立小・中学校に通う場合、学区は以下の通りとなる	しりつしょーちゅーがっこーにかようばあい、がっくわいかのとーりとなる	NO_LABEL
三山小学校の西、隣町田喜野井にある市立三田中学校・市立三田公民館との中間にNHK千葉放送局・チバテレ・bayfmの親局となる送信所があり、千葉県内のほか近隣都県の広い範囲に電波が発射されている。	NO_PRONOUNCE	NO_LABEL
（）	かっこ	NO_LABEL
ただしあくまでも千葉県域放送の親局であるため、それ以外の放送局の電波は直接東京スカイツリーまたは東京タワーを受信する。	ただしあくまでもちばけんいきほーそーのおやきょくであるため、それいがいのほーそーきょくのでんぱわちょくせつとーきょーすかいつりーまたわとーきょーたわーをじゅしんする。	NO_LABEL
全局2011年7月24日廃局	ぜんきょくにせんじゅういちねんしちがつにじゅうよっかはいきょく	NO_LABEL
この地域は鉄道駅から離れた地域のため、鉄道利用には不便である。	このちいきわてつどーえきからはなれたちいきのため、てつどーりよーにわふべんである。	NO_LABEL
JR津田沼駅から京成バス・大久保線の二宮神社行・三山車庫行・習志野出張所行き、船橋新京成バス・三山線の二宮神社前行が比較的利用しやすい。	NO_PRONOUNCE	NO_LABEL
また、バス不毛地帯であった三山1丁目地区には、田喜野井線が実証実験で運行中であったが、2013年春より本運行が開始された。	また、ばすふもーちたいであったみやまいちちょーめちくにわ、たきのいせんがじっしょーじっけんでうんこーちゅーであったが、にせんじゅうさんねんはるよりほんうんこーがかいしされた。	NO_LABEL
