ソラーロ。	そらーろ。	NO_LABEL
隣接するコムーネは以下の通り。	りんせつするこむーねわいかのとーり。	NO_LABEL
括弧内のVAはヴァレーゼ県、MBはモンツァ・エ・ブリアンツァ県所属を示す。	NO_PRONOUNCE	NO_LABEL
ソラーロには、以下の分離集落がある。	そらーろにわ、いかのぶんりしゅーらくがある。	NO_LABEL
Introini, Villaggio Brollo, S. Anna	NO_PRONOUNCE	NO_LABEL
