復興大臣は、復興庁に置かれる官職。	ふっこーだいじんわ、ふっこーちょーにおかれるかんしょく。	NO_LABEL
国務大臣をもって充てられる。	こくむだいじんをもってあてられる。	NO_LABEL
復興庁において、長である内閣総理大臣を助け、復興庁の事務を統括し、職員の服務について統督することをその職務とする。	ふっこーちょーにおいて、ちょーであるないかくそーりだいじんをたすけ、ふっこーちょーのじむをとーかつし、しょくいんのふくむについてみつるとくすることをそのしょくむとする。	NO_LABEL
本項では、東日本大震災の発生後に置かれ、復興庁の設置によりその職務が復興大臣に引き継がれた「東日本大震災復興対策担当大臣」についても記載する。	NO_PRONOUNCE	NO_LABEL
2011年3月11日の東日本大震災発生以降、菅第2次改造内閣の防災担当大臣であった松本龍が防災担当の国務大臣として震災への対応にあたった。	にせんじゅういちねんさんがつじゅういちにちのひがしにほんだいしんさいはっせいいこー、かんだいにじかいぞーないかくのぼーさいたんとーだいじんであったまつもとりゅーがぼーさいたんとーのこくむだいじんとしてしんさいえのたいおーにあたった。	NO_LABEL
復旧から復興へと対応が変化していく中で、4月11日の閣議において東日本大震災復興構想会議の創設が決定し、14日にはその第1回会合が開かれ、6月に入り、6月24日に東日本大震災復興基本法が公布・施行され、東日本大震災復興対策本部が設置された。	NO_PRONOUNCE	NO_LABEL
この復興対策基本法の中で東日本大震災復興対策担当大臣の設置についても法定され、6月27日にこれまで防災担当大臣として震災対応に当たってきた松本龍が就任した。	このふっこーたいさくきほんほーのなかでひがしにほんだいしんさいふっこーたいさくたんとーだいじんのせっちについてもほーていされ、ろくがつにじゅうしちにちにこれまでぼーさいたんとーだいじんとしてしんさいたいおーにあたってきたまつもとりゅーがしゅーにんした。	NO_LABEL
就任後間もなく訪問先の宮城県庁、岩手県庁での発言が批判を集め、7月5日、松本は大臣を辞任し、後任として防災担当の内閣府副大臣であった平野達男が東日本大震災復興対策担当大臣と防災担当大臣に就任した。	しゅーにんごまもなくほーもんさきのみやぎけんちょー、いわてけんちょーでのはつげんがひはんをあつめ、しちがついつか、まつもとわだいじんをじにんし、こーにんとしてぼーさいたんとーのないかくふふくだいじんであったひらのたつおがひがしにほんだいしんさいふっこーたいさくたんとーだいじんとぼーさいたんとーだいじんにしゅーにんした。	NO_LABEL
平野は菅内閣の総辞職に伴い成立した野田内閣でも留任した。	へいやわかんないかくのそーじしょくにともないせいりつしたのだないかくでもりゅーにんした。	NO_LABEL
2011年12月9日に成立した復興庁設置法では、復興庁の設置と、担当の大臣として復興大臣を置くことが定められた。	にせんじゅういちねんじゅーにがつここのかにせいりつしたふっこーちょーせっちほーでわ、ふっこーちょーのせっちと、たんとーのだいじんとしてふっこーだいじんをおくことがさだめられた。	NO_LABEL
復興庁の長は内閣総理大臣であり、復興大臣は内閣総理大臣を助け、復興庁の事務を統括し、職員の服務について統督することが任務とされている。	ふっこーちょーのちょーわないかくそーりだいじんであり、ふっこーだいじんわないかくそーりだいじんをたすけ、ふっこーちょーのじむをとーかつし、しょくいんのふくむについてみつるとくすることがにんむとされている。	NO_LABEL
このため、復興大臣は、閣僚名簿において国務大臣を列挙する場合には内閣官房長官の次、国家公安委員会委員長の前に置かれている。	このため、ふっこーだいじんわ、かくりょーめいぼにおいてこくむだいじんをれっきょするばあいにわないかくかんぼーちょーかんのつぎ、こっかこーあんいーんかいいーんちのまえにおかれている。	NO_LABEL
初代復興大臣には東日本大震災復興対策担当大臣を務めた平野達男が就任した。	しょだいふっこーだいじんにわひがしにほんだいしんさいふっこーたいさくたんとーだいじんをつとめたひらのたつおがしゅーにんした。	NO_LABEL
2012年2月14日、復興大臣設置後、政府は「政府として東日本大震災への対応を総括し、教訓をとりまとめ、今後の地震・津波災害対策に活かしていくことが非常に重要である」として、東日本大震災総括担当大臣を設置し、復興大臣と兼務させたが、12月26日の政権交代により、総括担当大臣は廃止された。	NO_PRONOUNCE	NO_LABEL
