アピタ緑店は、愛知県名古屋市緑区徳重にあるユニー株式会社のショッピングセンターである。	あぴたみどりてんわ、あいちけんなごやしみどりくとくしげにあるゆにーかぶしきがいしゃのしょっぴんぐせんたーである。	NO_LABEL
1986年6月に市街化の進み始めた徳重地区に開店した店舗で、名古屋市内のアピタとしては、「生活創庫アピタ名古屋駅店」に続く2店舗目であり、同店が閉店した現在、名古屋市内最古のアピタ店舗である。	NO_PRONOUNCE	NO_LABEL
1996年10月に増床オープンしている。	せんきゅうひゃくきゅうじゅうろくねんじゅーがつにぞーゆかおーぷんしている。	NO_LABEL
