達城郡は大韓民国大邱広域市の南西部にある郡である。	たつしろぐんわだいかんみんこくてぐこーいきしのなんせいぶにあるぐんである。	NO_LABEL
南部を慶尚南道、東部と西部を慶尚北道と接している。	なんぶをけいしょーなんどー、とーぶとせいぶをけいしょーほくどーとせっしている。	NO_LABEL
かつては現在の大邱広域市の区域の大半を占めていた。	かつてわげんざいのてぐこーいきしのくいきのたいはんをしめていた。	NO_LABEL
その名残で、郡庁は長らく郡内ではなく、大邱広域市南区大明洞に置かれていたが、2005年5月25日に郡内の論工邑へ移転した。	そのなごりで、ぐんちょーわながらくぐんないではなく、てぐこーいきしみなみくだいめいほらにおかれていたが、にせんごねんごがつにじゅうごにちにぐんないのろんこーゆーえいてんした。	NO_LABEL
