永浜 いりあは、日本のタレント、フィッシングナビゲーター。	ながはまいりあわ、にっぽんのたれんと、ふぃっしんぐなびげーたー。	NO_LABEL
所属事務所は株式会社SDM。	しょぞくじむしょわかぶしきがいしゃえすでぃーえむ。	NO_LABEL
1981年6月19日、大阪府に生まれる。	せんきゅうひゃくはちじゅういちねんろくがつじゅうきゅうにち、おーさかふにうまれる。	NO_LABEL
2002年、全日本GT選手権アメリカンレーシング・ロッテアイスクリームクイーンのレースクイーンとしてサーキットデビュー。	NO_PRONOUNCE	NO_LABEL
その後イエローコーン、東洋ゴム工業などのレースクイーンを歴任しながら、テレビ東京のアイドル番組『出動!ミニスカポリス』の10代目ミニスカポリスに抜擢。	NO_PRONOUNCE	NO_LABEL
同時期にCSのレースクイーン番組などにも出演していた。	どーじきにくれでぃすいすのれーすくいーんばんぐみなどにもしゅつえんしていた。	NO_LABEL
その後、元々釣り好きだったこともあり、釣り番組や釣り雑誌、ジョギング雑誌等に活躍の場を移し、アウトドア派の女性タレントに転進。	そのご、もともとつりすきだったこともあり、つりばんぐみやつりざっし、じょぎんぐざっしとーにかつやくのばをうつし、あうとどあはのじょうせいたれんとにてんしん。	NO_LABEL
小型船舶免許2級も持つ。	NO_PRONOUNCE	NO_LABEL
『開運!なんでも鑑定団』のアシスタントを務める。	NO_PRONOUNCE	NO_LABEL
釣り以外の趣味は、映画鑑賞、ヨガ、読書、ウォーキング、ショッピングなど。	つりいがいのしゅみわ、えいがかんしょー、よが、どくしょ、うぉーきんぐ、しょっぴんぐなど。	NO_LABEL
