サンバレンティンは日本中央競馬会に登録されていた元競走馬である。	さんばれんてぃんわにっぽんちゅーおーけいばかいにとーろくされていたもときょーそーばである。	NO_LABEL
馬名はアンデス山脈パタゴニア・アンデスの最高峰である「サン・バレンティン」が由来となっている。	NO_PRONOUNCE	NO_LABEL
半姉にオーバーザウォール、全弟にインティライミがいる。	はんあねにおーばーざうぉーる、ぜんおとーとにいんてぃらいみがいる。	NO_LABEL
2004年、3歳時の7月10日に阪神競馬場で行われた未勝利戦でデビューしたが11着だった。	にせんよねん、さんさいじのしちがつとおかにはんしんけいばじょーでおこなわれたみしょーりせんででびゅーしたがじゅういちちゃくだった。	NO_LABEL
そして次のデビュー2戦目で初勝利を挙げた。	そしてつぎのでびゅーにせんめではつしょーりをあげた。	NO_LABEL
しかしレース後は休養に入った。	しかしれーすごわきゅーよーにはいった。	NO_LABEL
2005年、この年は9戦して3勝を挙げ、12月には重賞初挑戦となった中日新聞杯に出走したが7着だった。	にせんごねん、このとしわきゅうせんしてさんしょーをあげ、じゅーにがつにわじゅーしょーはつちょーせんとなったちゅーにちしんぶんはいにしゅっそーしたがななちゃくだった。	NO_LABEL
オープン馬となるまでに5戦してそのうち中京スポーツ杯と大阪スポーツ杯を制し休養に入った。	おーぷんばとなるまでにごせんしてそのうちちゅーきょーすぽーつはいとおーさかすぽーつはいをせいしきゅーよーにはいった。	NO_LABEL
10月の富士ステークスで実戦復帰を迎えたものの7着だったが、次の福島記念を制して重賞初勝利を挙げた。	じゅーがつのふじすてーくすでじっせんふっきをむかえたもののななちゃくだったが、つぎのふくしまきねんをせいしてじゅーしょーはつしょーりをあげた。	NO_LABEL
しかし続く鳴尾記念は11着という結果に終わった。	しかしつずくなるおきねんわじゅういちちゃくとゆうけっかにおわった。	NO_LABEL
この年は重賞戦線を走り、5戦目の七夕賞を制して重賞2勝目を挙げた。	このとしわじゅーしょーせんせんをはしり、ごせんめのたなばたしょーをせいしてじゅーしょーにしょーめをあげた。	NO_LABEL
しかしその後4戦は大敗が続いた。	しかしそのごよんせんわたいはいがつずいた。	NO_LABEL
この年初戦のアメリカジョッキークラブカップは6着だったが、続く京都記念は12着、中京記念は12着、大阪-ハンブルクカップは5着、天皇賞では10着と前年後半に続き不振が目立っていた。	このねんしょせんのあめりかじょっきーくらぶかっぷわろくちゃくだったが、つずくきょーときねんわじゅうにちゃく、ちゅーきょーきねんわじゅうにちゃく、おーさかはんぶるくかっぷわごちゃく、てんのーしょーでわじゅうちゃくとぜんねんこーはんにつずきふしんがめだっていた。	NO_LABEL
4ヶ月の休養の後、9月15日の朝日チャレンジカップでの5着を最後に現役を引退、10月22日付でJRA競走馬登録を抹消され、現在は北海道苫小牧市にあるノーザンホースパークで乗馬として繋養されている。	NO_PRONOUNCE	NO_LABEL
