深堀事件は、元禄13年12月19日から12月20日にかけて起こった、肥前国天領長崎において長崎会所の役人と佐賀藩深堀領の武士の間に起こった騒動。	ふかほりじけんわ、げんろくじゅうさんねんじゅーにがつじゅうきゅうにちからじゅーにがつはつかにかけておこった、ひぜんのくにてんりょーながさきにおいてながさきかいしょのやくにんとさがはんふかほりりょーのぶしのまにおこったそーどー。	NO_LABEL
これにより双方に死者を出す騒ぎになった。	これによりそーほーにししゃをだすさわぎになった。	NO_LABEL
別名「深堀騒動」、「長崎喧嘩」「大音寺坂事件」とも。	NO_PRONOUNCE	NO_LABEL
この事件の起きた背景には、香焼瀬戸を通る長崎入港の貿易船から礼物を徴収する慣例があったが、長崎町人によってこの慣行を侵すなんらかの事態があったためとも言われている。	このじけんのおきたはいけいにわ、こうたきせとをとーるながさきにゅーこーのぼーえきせんかられいもつをちょーしゅーするかんれいがあったが、ながさきちょーじんによってこのかんこーをおかすなんらかのじたいがあったためともいわれている。	NO_LABEL
事件は12月19日、長崎・本博多町にある大音寺坂において、深堀領の武士深堀三右衛門・志波原武右衛門両名と、初の男孫の宮参りのお祝いでこの日に祝宴を張った長崎会所役人高木彦右衛門の家来の諍いから始まった。	NO_PRONOUNCE	NO_LABEL
おりからの雪で足場が悪く、当時69歳の三右衛門がついていた杖が払った泥が彦右衛門の使用人の惣内という人物にかかった。	おりからのゆきであしばがわるく、とーじろくじゅうきゅうさいのさんえもんがついていたつえがはらったどろがひこえもんのしよーにんのそーないとゆうじんぶつにかかった。	NO_LABEL
2人は非礼を詫びたが惣内達はこれを許さず、口論になった。	ふたりわひれいをわびたがそーないいたるわこれをゆるさず、こーろんになった。	NO_LABEL
この時の諍いはいったん収まったが、夕刻浦五島町にある深堀鍋島家の蔵屋敷に高木の家来10数人が屋敷内に乱入し、三右衛門と武右衛門の他、屋敷に居合わせた者たちに暴行を働いた上に大小の刀を奪った。	NO_PRONOUNCE	NO_LABEL
ことここにいたって深堀側も黙っているわけにはいかず、三右衛門の息子・嘉右衛門以下10名が深堀から長崎へ向かった。	NO_PRONOUNCE	NO_LABEL
彦右衛門は屋敷の門前で「昨日之相手出し可申候、打果し可申」と詰め寄る三右衛門と武右衛門に対して低姿勢で謝罪し、佐賀藩の長崎聞番である伊香賀利右衛門も穏便に済ますよう働きかけたが、ことは収まらなかった。	NO_PRONOUNCE	NO_LABEL
西浜町にあった高木彦右衛門屋敷に到着した深堀藩士10人に三右衛門・武右衛門の2人を加えた合計12名は、翌20日未明に屋敷へ討ち入った。	NO_PRONOUNCE	NO_LABEL
門番を斬り殺して大門を開け、門内に侵入すると、外からの加勢を防ぎ内からの逃亡をさせないために再び門を閉め裏口も固めた。	もんばんをきりころしておーもんをあけ、もんないにしんにゅーすると、そとからのかせいをふせぎないからのとーぼーをさせないためにふたたびもんをしめうらぐちもかためた。	NO_LABEL
屋敷に準備してあった弓の弦は切断され、槍も投げ捨てられた。	やしきにじゅんびしてあったゆみのつるわせつだんされ、やりもなげすてられた。	NO_LABEL
彦右衛門も刀を持ち出し応戦したが、討ち取られ死亡。	ひこえもんもかたなをもちだしおーせんしたが、うちとられしぼー。	NO_LABEL
本懐を遂げた後、深堀衆は彦右衛門の首を切断し槍先に突き刺して、深堀屋敷へ引き上げた。	ほんかいをとげたのち、ふかほりしゅーわひこえもんのくびをせつだんしやりさきにつきさして、ふかほりやしきえひきあげた。	NO_LABEL
城島次郎右衛門以下9名も後から駆けつけたが、既に彦右衛門は討たれていたため、戦闘には不参加であった。	NO_PRONOUNCE	NO_LABEL
なお、三右衛門は高木邸の玄関の式台で、武右衛門は中島川に架かる大橋）で、それぞれ切腹した。	NO_PRONOUNCE	NO_LABEL
しかし、死後2人の遺骸を検死したところ、腹部に切傷が無かったため、切腹したのではなく仲間の深堀衆から斬り殺されたとする説もある。	しかし、しごふたりのいがいをけんししたところ、ふくぶにきりきずがなかったため、せっぷくしたのではなくなかまのふかほりしゅーからきりころされたとするせつもある。	NO_LABEL
長崎聞番の伊香賀はただちに長崎奉行に事件を報告、家老・田代喜左衛門とともに口上書を提出した。	NO_PRONOUNCE	NO_LABEL
差出人名は最初に討ち入った10名であった。	NO_PRONOUNCE	NO_LABEL
奉行所は高木屋敷周辺で聞き取り調査するにつれ、実際に討ち入った人数はもっと多いのではないかと考え、これを問われた深堀側は合流した9名を追加した。	NO_PRONOUNCE	NO_LABEL
佐賀藩からも深堀屋敷警護のために本国から家来・足軽数十名を派遣・任務に就く。	NO_PRONOUNCE	NO_LABEL
長崎奉行は将軍・徳川綱吉、側用人・柳沢吉保以下江戸幕府首脳にこれを報告、判断を仰ぐことにした。	NO_PRONOUNCE	NO_LABEL
詮議には柳沢吉保の他、阿部正武・牧野成貞も参加。	NO_PRONOUNCE	NO_LABEL
鍋島家当主・官左衛門の先祖は島原の乱では抜群の働きをしたのだから家来も当時の強みを残しているのであろう、今度の仕儀もいささか強すぎた働きだったが、鍋島の家風であるゆえ致しかたない、と詮議は武士である鍋島家側に好意的なものであった。	NO_PRONOUNCE	NO_LABEL
翌年3月、深堀屋敷にて奉行所立会いのもと10名の切腹が行われた。	NO_PRONOUNCE	NO_LABEL
処罰はきわめて軽いものに留まった官左衛門は、逆に武士の一分を示したということで称賛を受け、祝賀に訪れる者さえもあったという。	しょばつわきわめてかるいものにとまったかんさえもんわ、ぎゃくにぶしのいちぶんをしめしたとゆうことでしょーさんをうけ、しゅくがにおとずれるものさえもあったという。	NO_LABEL
五島列島へ流された9名は、9年後の宝永6年に綱吉が亡くなったことによる恩赦で深堀へ戻ることができた。	NO_PRONOUNCE	NO_LABEL
現地では毎年、藩士の命日に法要が営まれている。	げんちでわまいとし、はんしのめいにちにほーよーがいとなまれている。	NO_LABEL
この事件は江戸をはじめ全国でも大きな話題となり、その様子は『元禄世間拙風聞集』『鸚鵡籠中記』『葉隠聞書』などにも記されている。	NO_PRONOUNCE	NO_LABEL
長崎出身の町人学者・西川如見が、その著作『町人嚢』において「武家に生れん事猶々迷惑なり、一生君におそれつかれかへて心のいとまなく、名利を第一として人の目をおどろかし、いかめしきふるまいをたのしみとせんよりは、ただ此町人こそ楽しけれ」と書いているのは、この事件を通して得た長崎町人の町人観・武士観を示していると言われている。	NO_PRONOUNCE	NO_LABEL
