「Spice Up Your Life」は、スパイス・ガールズのヒット曲。	NO_PRONOUNCE	NO_LABEL
ポップ・サンバ調の曲である。	NO_PRONOUNCE	NO_LABEL
2枚目のアルバム『Spiceworld』からの最初のシングルで、1997年10月13日にUKで、同月21日にUSでリリースされた。	NO_PRONOUNCE	NO_LABEL
スパイス・ガールズの初コンサート、イスタンブール公演でこの曲は披露された。	すぱいすがーるずのはつこんさーと、いすたんぶーるこーえんでこのきょくわひろーされた。	NO_LABEL
作詞はデビュー・アルバム『Spice』でもおなじみのマット・ロウとリチャード・スタッナード、そしてスパイス・ガールズ。	NO_PRONOUNCE	NO_LABEL
また、この曲はメンバーそれぞれソロ・パートがある。	NO_PRONOUNCE	NO_LABEL
スパイス・ガールズの数々のミュージック・ビデオの中でも最高のものと言われている。	すぱいすがーるずのかずかずのみゅーじっくびでおのなかでもさいこーのものといわれている。	NO_LABEL
多大な予算のもと製作されたこのビデオは「未来的な乗り物に乗り、社会のすべてを支配している。	NO_PRONOUNCE	NO_LABEL
」というセッティングである。	NO_PRONOUNCE	NO_LABEL
メンバーはこのビデオについて、「このビデオは1997年の夏に世界中で何百万枚ものアルバムを発売した私達を批判したプレスへのビデオよ。	NO_PRONOUNCE	NO_LABEL
」とコメント。	NO_PRONOUNCE	NO_LABEL
アルバム『Spice』で衝撃的なデビューを飾るとすぐに2枚目のアルバムをリリースしたスパイス・ガールズに批判的なコメントが寄せられた、という事実があり、それに対するコメントと思われる。	NO_PRONOUNCE	NO_LABEL
それらのプレスとは、ペプシ、チャンネル5、チュッパチャプス、ポラロイド、ASDA、インパルスであり、またこれらの会社はスパイス・ガールズのスポンサーでもある。	NO_PRONOUNCE	NO_LABEL
ビデオは宇宙船に乗ったスパイス・ガールズの5人がそれぞれ大きな看板に描かれたメンバーを見ていくというものである。	びでおわうちゅうせんにのったすぱいすがーるずのごにんがそれぞれおーきなかんばんにえがかれためんばーをみていくとゆうものである。	NO_LABEL
また、彼女達のヒット曲「Wannabe」、「Say You'll Be There」のビデオがバーで映し出されているというシーンがある。	NO_PRONOUNCE	NO_LABEL
リリースは1週間遅れた。	りりーすわいっしゅーかんおくれた。	NO_LABEL
発売を予定していた同じ週にエルトン・ジョンの "Candle In The Wind 1997" もリリースされる予定であり、またこの曲はその2ヶ月前に亡くなったダイアナ元妃に捧げる曲ということもあり、1週間遅らせて「Spice Up Your Life」をリリースした。	NO_PRONOUNCE	NO_LABEL
2曲ともUKチャートで大ヒットした。	にきょくともゆーけーちゃーとでだいひっとした。	NO_LABEL
「Spice Up Your Life」はスパイス・ガールズ5度目のナンバー1ソングである。	NO_PRONOUNCE	NO_LABEL
また、オーストラリアではチャート8位をマークした。	また、おーすとらりあでわちゃーとはちーをまーくした。	NO_LABEL
しかしアメリカではそれほどヒットには至らなかった。	しかしあめりかでわそれほどひっとにわいたらなかった。	NO_LABEL
また、このあたりからUKとUSの音楽性の違いに混乱するようになる。	NO_PRONOUNCE	NO_LABEL
それでもビルボードチャートでは18位をマークした。	それでもびるぼーどちゃーとでわじゅうはちーをまーくした。	NO_LABEL
UKでの売り上げ80万枚	ゆーけーでのうりあげはちじゅうまんまい	NO_LABEL
