ノルウェー・フォルシュテ・ディヴィションは、ノルウェーの国内サッカーリーグであり、同国のサッカーシステムにおいてエリテセリエンに次ぐ位置するリーグでもある。	NO_PRONOUNCE	NO_LABEL
2015年からは、OBOSが協賛企業になったため、OBOSリーガエン（）が正式名称になっている。	NO_PRONOUNCE	NO_LABEL
1963年から1990年の間、このリーグはアンレ・ディヴィションとと呼ばれていたが、1991年以降は3部リーグにその名前が引き継がれることになった。	NO_PRONOUNCE	NO_LABEL
2009年、エリテセリエン所属クラブの定数が14から16に拡張された。	NO_PRONOUNCE	NO_LABEL
従って、は移行措置期間としてエリテセリエン昇格クラブが多く、一方2部降格クラブが少なかった。	したがって、わいこーそちきかんとしてえりてせりえんしょーかくくらぶがおーく、いっぽーにぶこーかくくらぶがすくなかった。	NO_LABEL
2009年、リーグ戦優勝および2位クラブはエリテセリエンに自動昇格することになった。	にせんきゅうねん、りーぐせんゆーしょーおよびにーくらぶわえりてせりえんにじどーしょーかくすることになった。	NO_LABEL
また新しいプレーオフ制度もこの時に導入された、それはリーグ戦3位対4位、5位対エリテセリエン14位の勝者が昇格するというものであった。	またあたらしいぷれーおふせいどもこのときにどーにゅーされた、それわりーぐせんさんいたいよんい、ごいたいえりてせりえんじゅうよんいのしょーしゃがしょーかくするとゆうものであった。	NO_LABEL
またリーグ戦下位4クラブは、2部に降格。	NO_PRONOUNCE	NO_LABEL
2009年シーズンから、NRKは公式サイトを通じリーグ戦をストリーミング放送を無料配信を始めた。	NO_PRONOUNCE	NO_LABEL
