アイオン・スカイは、イギリス、アメリカ合衆国で活動する女優。	あいおんすかいわ、いぎりす、あめりかがっしゅーこくでかつどーするじょゆー。	NO_LABEL
本名はアイオン・スカイ・レイッチ、イギリスロンドン出身。	ほんみょーわあいおんすかいれいっち、いぎりすろんどんしゅっしん。	NO_LABEL
父は歌手のドノヴァン・フィリップス・レイッチ。	NO_PRONOUNCE	NO_LABEL
2006年VH1 にて、ティーンスター100人中、84位に選ばれた。	NO_PRONOUNCE	NO_LABEL
1992年ビースティー・ボーイズのアダム・ホロヴィッツと結婚したが1999年に離婚。	NO_PRONOUNCE	NO_LABEL
2008年12月29日歌手のと再婚。	にせんはちねんじゅーにがつにじゅうきゅうにちかしゅのとさいこん。	NO_LABEL
リーとの間に子供がいる。	りーとのまにこどもがいる。	NO_LABEL
