神置村はかつて岐阜県羽島郡に存在した村である。	かみおきむらわかつてぎふけんはしまぐんにそんざいしたむらである。	NO_LABEL
村名は、明治8年の2村の合併の際、東間島村が熊野神社、西間島村が八幡神社を鎮守として対立したのを、両者を併置して和合させようとしたことによる。	NO_PRONOUNCE	NO_LABEL
現在の各務原市稲羽地区神置町に該当する。	げんざいのかかみがはらしいねわちくかみおきちょーにがいとーする。	NO_LABEL
