コスキン・エン・ハポンは、福島県伊達郡川俣町で毎年開催されているフォルクローレの音楽祭である。	こすきんえんはぽんわ、ふくしまけんだてぐんかわまたちょーでまいとしかいさいされているふぉるくろーれのおんがくさいである。	NO_LABEL
10月の体育の日を絡めた3連休に実施されている。	じゅーがつのたいいくのひをからめたさんれんきゅーにじっしされている。	NO_LABEL
川俣町在住のフォルクローレ愛好家・長沼康光らが1955年に結成した「ノルテ・ハポン」の呼びかけで、1975年に川俣町福祉センターにおいてアマチュアの13グループで開催されたのが始まりである。	NO_PRONOUNCE	NO_LABEL
その後、参加者が増え1981年に会場を川俣町中央公民館に移し、2002年からは3日間の開催に拡大され、町をあげてのイベントとなっている。	そのご、さんかしゃがふえせんきゅうひゃくはちじゅういちねんにかいじょーをかわまたまちちゅーおーこーみんかんにうつし、にせんにねんからわみっかのかいさいにかくだいされ、まちをあげてのいべんととなっている。	NO_LABEL
現在では、国内外の一流のプロの演奏家も参加するようになり、国内最大のフォルクローレ・フェスティバルである。	NO_PRONOUNCE	NO_LABEL
初日には参加者や町民が中南米の衣装を身に着けたコスキン・パレードも行われる。	NO_PRONOUNCE	NO_LABEL
1日目、2日目は0時を超えて深夜まで開催される。	ついたち、ふつかわれいじをこえてしんやまでかいさいされる。	NO_LABEL
ポスターは初回から2015年までは神保亮が描いていたが、死去したため2016年のからは大町亨が描いている。	ぽすたーわしょかいからにせんじゅうごねんまでわじんぼあきらがえがいていたが、しきょしたためにせんじゅうろくねんのからわおーまちとーるがえがいている。	NO_LABEL
2016年現在、約180団体が参加している。	NO_PRONOUNCE	NO_LABEL
コスキン・エン・ハポンの名前はアルゼンチンのコスキン市で開かれるに由来する。	こすきんえんはぽんのなまえわあるぜんちんのこすきんしでひらかれるにゆらいする。	NO_LABEL
コスキン・エン・ハポンが広く知られるようになったことから、アルゼンチン共和国やコスキン市との国際交流も深まっている。	こすきんえんはぽんがひろくしられるよーになったことから、あるぜんちんきょーわこくやこすきんしとのこくさいこうりゅーもふかまっている。	NO_LABEL
2002年にサッカーのワールドカップが日本で開催された際には、アルゼンチン側からの要望があり、川俣町の住民でアルゼンチン・サッカー団の日本応援団を組織し、応援に当たった。	NO_PRONOUNCE	NO_LABEL
コスキン・エン・ハポンにはアルゼンチン駐日大使やコスキン市長も表敬に訪れるほか、川俣町も町長と関係者らがコスキン市を表敬訪問を行っている。	こすきんえんはぽんにわあるぜんちんちゅーにちたいしやこすきんしちょーもひょーけいにおとずれるほか、かわまたちょーもちょーちょーとかんけいしゃらがこすきんしをひょーけいほーもんをおこなっている。	NO_LABEL
また、1999年以来、アルゼンチンのコスキン音楽祭への日本代表派遣選考会も開催している。	また、せんきゅうひゃくきゅうじゅうきゅうねんいらい、あるぜんちんのこすきんおんがくさいえのにほんだいひょーはけんせんこーかいもかいさいしている。	NO_LABEL
メインステージ　川俣町中央公民館　（10月8日～10日)	NO_PRONOUNCE	NO_LABEL
サブステージ　絹蔵羽山の森美術館　道の駅川俣（9日のみ)	NO_PRONOUNCE	NO_LABEL
サブステージはメインステージでの出番待ちもしくは出番の終わった出演者を中心に構成される	さぶすてーじわめいんすてーじでのでばんまちもしくわでばんのおわったしゅつえんしゃをちゅーしんにこーせいされる	NO_LABEL
