小山水城は日本のミュージシャン。	こやまみずきわにっぽんのみゅーじしゃん。	NO_LABEL
歌手。	かしゅ。	NO_LABEL
作詞作曲家。	さくしさっきょくか。	NO_LABEL
ヴォーカル指導者、ヴォーカルアレンジャー。	NO_PRONOUNCE	NO_LABEL
岐阜県大垣市生まれ。	ぎふけんおーがきしうまれ。	NO_LABEL
岐阜県立大垣北高等学校卒業。	ぎふけんりつおーがききたこーとーがっこーそつぎょー。	NO_LABEL
上智大学文学部中退。	じょーちだいがくぶんがくぶちゅーたい。	NO_LABEL
幼少より音楽教師であった父:敏朗の影響でピアノや歌に触れ、クラッシック・演歌・ポップス等の手ほどきを受けて育つ。	NO_PRONOUNCE	NO_LABEL
又スポーツにも才能を発揮し陸上競技岐阜県大会で優勝。	またすぽーつにもさいのーをはっきしりくじょーきょーぎぎふけんたいかいでゆーしょー。	NO_LABEL
その後、小中高時代に両親の離婚再婚などの家庭環境を経、上京。	そのご、しょーちゅーだかじだいにりょーしんのりこんさいこんなどのかていかんきょーをへ、じょーきょー。	NO_LABEL
上智大学に入学。	じょーちだいがくににゅーがく。	NO_LABEL
上智大学ジャズ研・早稲田大学理工学部swing・東京学芸大学ジャズ研でジャズピアノとヴォ―カルを始める。	NO_PRONOUNCE	NO_LABEL
バーブラ・ストレイザンドに感銘を受けマーサ三宅・国分友里恵・本間勇輔らに師事。	NO_PRONOUNCE	NO_LABEL
銀座サイゼリア新人ジャズヴォーカルコンテストグランドチャンピオン大会優勝をきっかけに都内JAZZ-CLUB・Hotel・ライブハウスで活躍。	NO_PRONOUNCE	NO_LABEL
リチャード・パイン＆カンパニーやリッキー中山＆七福神らと共演する。	NO_PRONOUNCE	NO_LABEL
鳴瀬喜博が結成したファンクバンドCHAOSの女性リードボーカルとして、在学中からライブ活動やレコーディング活動に参加の傍ら、WARM(作曲・g;山本拓己、編曲・g;船守秀一、key;古川初穂、drms;鎌田清・b;ロドニードラマー他）でのボーカルと作詞で注目を集める。	NO_PRONOUNCE	NO_LABEL
また、スタジオレコーディング活動として他アーティストのサポート・映画やTVのサウンドトラックの挿入歌・J-waveのジングル等でも広く知られる。	NO_PRONOUNCE	NO_LABEL
ヴォーカル講師としてもAMVOX MUSIC SCHOOL・Hot Music Schoolにて早くから歌手の育成にも関わりながら(中家ひとみ・大塚雄一・カルロス菅野、他）、日本コロンビアより「エンジェルス・ドリーム」にてソロデビュー。	NO_PRONOUNCE	NO_LABEL
後，水城バンドとして活動、CD「ディスタント・ラバー」発売。	NO_PRONOUNCE	NO_LABEL
その他、小堺一機、松平健、研ナオコ、山岸ジュンシ&ボビー・ワトソンBand、斉藤誠、森高千里、遠藤律子、福井友美、ポンキッキ―ズ、むし丸Q、アニソンのゲストボーカル・サポートヴォーカルに参加している。	NO_PRONOUNCE	NO_LABEL
別名義として「nana」、「みずき」、「ディサロ水城」、「piece of cake」がある。	NO_PRONOUNCE	NO_LABEL
Favorite artists;　Sam Cooke, Marvin Gaye, Four Play, Diana Krall, Ivan Lince, Qiuncy Jones	NO_PRONOUNCE	NO_LABEL
国際結婚し、２児の母。	こくさいけっこんし、にじのはは。	NO_LABEL
繊維会社経営者であった母:桜子の影響で、手芸・裁縫・刺繍・料理など多才。	NO_PRONOUNCE	NO_LABEL
ターシャ・テューダー、サティシュ・クマール、アインシュタインなどを愛するナチュラリスト。	たーしゃてゅーだー、さてぃしゅくまーる、あいんしゅたいんなどをあいするなちゅらりすと。	NO_LABEL
一家はインテリスタ。	いっかわいんてりすた。	NO_LABEL
サントラ「あぶない刑事」	NO_PRONOUNCE	NO_LABEL
サントラ「EARTHIAN」プロデュース：濱田金吾	NO_PRONOUNCE	NO_LABEL
