劉 虹は、中華人民共和国の陸上競技選手。	りゅーにじわ、ちゅーかじんみんきょーわこくのりくじょーきょーぎせんしゅ。	NO_LABEL
江西省吉安市安福県出身。	こうせいしょーきつあんしあんふくけんしゅっしん。	NO_LABEL
競歩を専門とする。	きょーほをせんもんとする。	NO_LABEL
かつて20キロメートル競歩のアジア記録を保有していた選手で、世界陸上競技選手権大会では2009年から3大会連続でメダルを獲得している。	NO_PRONOUNCE	NO_LABEL
劉は2006年に世界ジュニア選手権とアジア競技大会で優勝し、世界に頭角を現した。	りゅーわにせんろくねんにせかいじゅにあせんしゅけんとあじあきょーぎたいかいでゆーしょーし、せかいにとーかくをあらわした。	NO_LABEL
翌2007年の世界選手権は19位と苦いデビュー戦となったが、2008年の北京オリンピックでは4位で競技を終えた。	よくにせんななねんのせかいせんしゅけんわじゅうきゅういとにがいでびゅーせんとなったが、にせんはちねんのぺきんおりんぴっくでわよんいできょーぎをおえた。	NO_LABEL
世界レベルの主要大会での最初のメダルは2009年の世界選手権で獲得した銅メダルであった。	せかいれべるのしゅよーたいかいでのさいしょのめだるわにせんきゅうねんのせかいせんしゅけんでかくとくしたどーめだるであった。	NO_LABEL
同年、中華人民共和国全国運動会で優勝を果たす。	どーねん、ちゅうかじんみんきょうわごくぜんこくうんどーかいでゆーしょーをはたす。	NO_LABEL
2009年のアジア選手権では失格となり、日本の川崎真裕美に優勝を渡した。	にせんきゅうねんのあじあせんしゅけんでわしっかくとなり、にっぽんのかわさきまゆみにゆーしょーをわたした。	NO_LABEL
劉は2010年のアジア競技大会で再度優勝を飾り、1時間30分06秒の大会新記録を樹立した。	NO_PRONOUNCE	NO_LABEL
2011年シーズンはスイス・ルガーノで開かれたの一戦で優勝という好調な滑り出しを見せた。	NO_PRONOUNCE	NO_LABEL
これに続いて江蘇省蘇州市の太倉市で開かれた世界競歩チャレンジの一戦で自己ベストと同タイムをマークし、アイルランド・ダブリンの拓かれた競歩チャレンジの一戦も制した。	NO_PRONOUNCE	NO_LABEL
そして世界選手権ではオルガ・カニスキナにあと一歩およばず、銀メダルとなった。	そしてせかいせんしゅけんでわおるがかにすきなにあといちほおよばず、ぎんめだるとなった。	NO_LABEL
2012年には、20km競歩でが10代の時にマークしたアジア記録1時間26分22秒を塗り替える1時間25分46秒を太倉市で記録した。	にせんじゅうにねんにわ、にじゅうきろめーとるきょーほでがじゅうだいのときにまーくしたあじあきろくいちじかんにじゅうろっぷんにじゅうにびょーをぬりかえるいちじかんにじゅうごふんよんじゅうろくびょーをたいそうしできろくした。	NO_LABEL
こうして臨んだロンドンオリンピックでも快走を見せるも4位とメダルを逃し、銅メダルを獲得した切陽什姐にアジア記録を破られてしまった。	NO_PRONOUNCE	NO_LABEL
しかしながら世界競歩チャレンジファイナルで切陽什姐に勝利したばかりでなく、が22歳のときにマークした5000メートル競歩のアジア記録を更新した。	NO_PRONOUNCE	NO_LABEL
2013年シーズンは世界競歩チャレンジの一戦であるメモリアル・アルビセッティにて1時間27分06秒の大会新記録を出した。	NO_PRONOUNCE	NO_LABEL
世界選手権ではが先行していたが、公道から陸上競技場に戻ってきたところでソコロワが失格となり、後を追っていた劉が銅メダルを獲得した。	せかいせんしゅけんではがせんこーしていたが、こーどーからりくじょーきょーぎじょーにもどってきたところでそころわがしっかくとなり、ごをおっていたりゅーがどーめだるをかくとくした。	NO_LABEL
