フランツ・ボルケナウは、オーストリア出身の社会学者、ジャーナリスト。	ふらんつぼるけなうわ、おーすとりあしゅっしんのしゃかいがくしゃ、じゃーなりすと。	NO_LABEL
フランクフルト学派の1人で、全体主義理論の先駆者の一人。	ふらんくふるとがくはのひとりで、ぜんたいしゅぎりろんのせんくしゃのひとり。	NO_LABEL
オーストリアのウィーン生まれ。	おーすとりあのうぃーんうまれ。	NO_LABEL
父は公務員だった。	ちちわこーむいんだった。	NO_LABEL
ライプツィヒ大学の学生として、マルクス主義と精神分析に大きな関心を寄せた。	らいぷつぃひだいがくのがくせいとして、まるくすしゅぎとせいしんぶんせきにおーきなかんしんをよせた。	NO_LABEL
1921年にドイツ共産党に加わり、コミンテルンのエージェントとして活動。	せんきゅうひゃくにじゅういちねんにどいつきょうさんとーにくわわり、こみんてるんのえーじぇんととしてかつどー。	NO_LABEL
1924年に大学卒業後はベルリンに移った。	せんきゅうひゃくにじゅうよねんにだいがくそつぎょーごわべるりんにうつった。	NO_LABEL
1929年、スターリニズムに反発し、コミンテルンを辞めた。	せんきゅうひゃくにじゅうきゅうね、すたーりにずむにはんぱつし、こみんてるんをやめた。	NO_LABEL
フランクフルト大学の社会問題研究所の研究員となり、カール・グリュンベルク () に師事した。	NO_PRONOUNCE	NO_LABEL
主な関心は、資本主義とイデオロギーの関係だった。	おもなかんしんわ、しほんしゅぎといでおろぎーのかんけいだった。	NO_LABEL
1933年に、ナチスによるユダヤ人への圧迫によりドイツから亡命し、ウィーン、パリ、パナマに移った。	せんきゅうひゃくさんじゅうさんねに、なちすによるゆだやじんえのあっぱくによりどいつからぼーめいし、うぃーん、ぱり、ぱなまにうつった。	NO_LABEL
1936年、スペイン内戦に参加し、1937年、『スペインの戦場』を発表。	NO_PRONOUNCE	NO_LABEL
著書『全体主義という敵』で、ファシズムと共産主義の実質的な同一性を記し、ロシアは「赤いファシズム」、ナチス・ドイツは「褐色のボルシェヴィズム」と呼んだ。	NO_PRONOUNCE	NO_LABEL
第二次世界大戦後はドイツに戻り、マールブルク大学で歴史学の教授を1年間務めたのち、ドイツのほかパリ・ローマ・チューリッヒでフリージャーナリストとして活動した。	NO_PRONOUNCE	NO_LABEL
チューリッヒで没した。	ちゅーりっひでぼっした。	NO_LABEL
ボルケナウの主著で、ナチス台頭期の1931年に執筆された。	ぼるけなうのしゅちょで、なちすたいとーきのせんきゅうひゃくさんじゅういちねにしっぴつされた。	NO_LABEL
1934年にパリで刊行。	せんきゅうひゃくさんじゅうよねんにぱりでかんこー。	NO_LABEL
封建社会の支配的イデオロギーとして中世哲学を挙げ、ルネサンス、宗教改革を経て、市民社会のイデオロギーが生まれるまでを論じている。	ほーけんしゃかいのしはいてきいでおろぎーとしてちゅーせいてつがくをあげ、るねさんす、しゅーきょーかいかくをへて、しみんしゃかいのいでおろぎーがうまれるまでをろんじている。	NO_LABEL
17世紀初めに機械論が勝利を収めるとして、ルネ・デカルト、ピエール・ガッサンディ、トマス・ホッブズ、ブレーズ・パスカルまでを取り上げている。	じゅうしちせいきはじめにきかいろんがしょーりをおさめるとして、るねでかると、ぴえーるがっさんでぃ、とますほっぶず、ぶれーずぱすかるまでをとりあげている。	NO_LABEL
日本では1935年に前半部分の翻訳書が出版され、1938年3月、ホッブズの章の部分訳が『唯物論研究』に掲載された。	NO_PRONOUNCE	NO_LABEL
丸山真男や奈良本辰也らに多大な影響を与えた。	まるやままさおやならもとたつやらにただいなえいきょーをあたえた。	NO_LABEL
