佐竹 義房- 貞享元年）は、佐竹氏一門の佐竹西家当主。	NO_PRONOUNCE	NO_LABEL
久保田藩大館3代所預。	くぼたはんおーだてさんだいしょあずか。	NO_LABEL
父は小場隆房。	ちちわこばたかふさ。	NO_LABEL
養父は小場義易。	よーふわおばよしやす。	NO_LABEL
子は佐竹義武。	こわさたけよしたけ。	NO_LABEL
通称は六郎、石見。	つーしょーわろくろー、いわみ。	NO_LABEL
寛永20年、小場隆房の子に生まれる。	かんえいにじゅうねん、こばたかふさのこにうまれる。	NO_LABEL
伯父の大館城代小場義易の養子となり家督相続し、大館城代を務めた。	おじのおーだてじょーだいおばよしやすのよーしとなりかとくそーぞくし、おーだてじょーだいをつとめた。	NO_LABEL
祖父小場義成の代からの新田開拓で、知行高が1万3000石となる。	NO_PRONOUNCE	NO_LABEL
万治年中に藩主佐竹義隆より佐竹姓を賜り、佐竹石見義房と名乗った。	まんじねんじゅーにはんしゅさたけよしたかよりさたけせいをたまわり、さたけいわみよしふさとなのった。	NO_LABEL
貞享元年死去。	ていきょーがんねんしきょ。	NO_LABEL
享年42。	NO_PRONOUNCE	NO_LABEL
