ソンクラー県南部工業団地）は、タイのタイ工業団地公社が管理する工業団地の一つ。	NO_PRONOUNCE	NO_LABEL
タイ南部ソンクラー県に位置する。	たいなんぶそんくらーけんにいちする。	NO_LABEL
1995年に開設。	せんきゅうひゃくきゅうじゅうごねんにかいせつ。	NO_LABEL
ソンクラー県南部工業団地は1995年に開発された工業団地。	そんくらーけんなんぶこーぎょーだんちわせんきゅうひゃくきゅうじゅうごねんにかいはつされたこーぎょーだんち。	NO_LABEL
タイ南部の深海港ソンクラー港、ハートヤイ国際空港、マレーシア国境が近く、マレーシアなとの物流拠点として開発が行われている。	たいなんぶのふかみこーそんくらーこー、はーとやいこくさいくうこー、まれーしあこっきょーがちかく、まれーしあなとのぶつりゅーきょてんとしてかいはつがおこなわれている。	NO_LABEL
タイヤ会社サイヤム・ミシュランなどが立地している	NO_PRONOUNCE	NO_LABEL
ソンクラー県 ハートヤイ郡 タムボン・チャルン ムー4、9/6 	NO_PRONOUNCE	NO_LABEL
