徳化県は中華人民共和国福建省の泉州市の管轄下にある県。	とくかけんわちゅーかじんみんきょーわこくふっけんしょーのせんしゅーしのかんかつかにあるけん。	NO_LABEL
付近では磁器の原料となるカオリナイトが豊富に採れるため古くから陶磁器生産が盛んであり、同県で焼かれる白磁は玉磁と呼ばれ珍重される。	NO_PRONOUNCE	NO_LABEL
中国三大陶都の一つでもある。	ちゅーごくさんだいすえとのひとつでもある。	NO_LABEL
県人民政府は潯中鎮にある。	NO_PRONOUNCE	NO_LABEL
