信宜市は中華人民共和国広東省茂名市に位置する県級市。	しんぎしわちゅーかじんみんきょーわこくかんとんしょーもめいしにいちするけんきゅーし。	NO_LABEL
南朝梁により梁徳県が設置され、隋代に懐徳県と改称された。	なんちょーやなによりりょーいさおけんがせっちされ、ずいだいにかいとくけんとかいしょーされた。	NO_LABEL
唐初に信義、潭峨、特亮の3県が新たに設置されたが、宋初に懐徳、潭峨、特亮の3県が信義県に編入され、更に太宗が即位した際の避諱により信宜と改称された。	NO_PRONOUNCE	NO_LABEL
1995年に県級市に昇格し現在に至る。	せんきゅうひゃくきゅうじゅうごねんにけんきゅーしにしょーかくしげんざいにいたる。	NO_LABEL
下部に1街道、18鎮を管轄する	NO_PRONOUNCE	NO_LABEL
