アレックス・サンチェス・セプルベーダは、プエルトリコのプロボクサー。	NO_PRONOUNCE	NO_LABEL
第3代WBO世界ミニマム級王者。	だいさんだいだぶりゅーびーおーせかいみにまむきゅーおーじゃ。	NO_LABEL
ミニマム級時代には驚異の切れ味のフックを武器にKOを量産した選手で、リカルド・ロペスとの死闘やホセ・ビクトル・ブルゴスとの3度に渡る激闘、ネルソン・ディーバとの第1戦での死闘、イヴァン・カルデロンとの新旧交代戦が有名。	NO_PRONOUNCE	NO_LABEL
1991年10月4日、プロデビューを果たし初回TKO勝ちで白星でデビューを飾る。	せんきゅうひゃくきゅうじゅういちねんじゅーがつよっか、ぷろでびゅーをはたししょかいてぃーけーおーがちでしろぼしででびゅーをかざる。	NO_LABEL
1993年12月22日、ホテル・カリビアン・ヒルトンでオルランド・マローネとWBO世界ミニマム級王座決定戦を行い、初回2分49秒TKO勝ちで王座を獲得に成功した。	NO_PRONOUNCE	NO_LABEL
1994年1月7日、スペインパルマ・デ・マヨルカのカジノ・デ・モロラでアルツロ・マヤンと対戦し、初回1分30秒TKO勝ちで初防衛に成功した。	NO_PRONOUNCE	NO_LABEL
1994年8月13日、ルーベン・ロドリゲス・コロシアムでカルロス・ファン・ロドリゲスと対戦し初回2分12秒KO勝ちで2度目の防衛に成功した。	NO_PRONOUNCE	NO_LABEL
1994年9月10日、ドイツアルスタドルフのスポッザーレでオスカー・アンドラーデと対戦し4回2分27秒TKO勝ちで3度目の防衛に成功した。	NO_PRONOUNCE	NO_LABEL
1995年1月28日、ラスベガスのMGMグランド・ガーデン・アリーナでラファエル・オロゾコと対戦し12回3-0の判定勝ちで4	NO_PRONOUNCE	NO_LABEL
1995年7月29日、サンアントニオのフリーマン・コロシアムでトーマス・リベラと対戦し12回3-0の判定勝ちで5度目の防衛に成功した。	NO_PRONOUNCE	NO_LABEL
1997年2月22日、元IBF世界ミニマム級王者エドガル・カルデナスと対戦し10回0-3の判定負けで初黒星が付いた。	NO_PRONOUNCE	NO_LABEL
1997年3月29日、ラスベガス・ヒルトンで後のIBF世界ライトフライ級王者ホセ・ビクトル・ブルゴスと対戦し12回3-0の判定勝ちで6度目の防衛に成功した。	NO_PRONOUNCE	NO_LABEL
1997年8月23日、ニューヨークのマディソン・スクエア・ガーデンでWBC世界ミニマム級王者リカルド・ロペスと対戦し5回1分58秒TKO負けで7度目の防衛に失敗し王座から陥落した。	せんきゅうひゃくきゅうじゅうななはちがつにじゅうさんにち、にゅーよーくのまでぃそんすくえあがーでんでだぶりゅーびーしーせかいみにまむきゅーおーじゃりかるどろぺすとたいせんしごかいいっぷんごじゅうはちびょーてぃーけーおーまけでななどめのぼーえいにしっぱいしおーざからかんらくした。	NO_LABEL
2002年5月11日、ホセ・ビクトル・ブルゴスと再戦し12回1-1の3者3様の引き分けでIBF世界ライトフライ級の指名挑戦権獲得ならず。	NO_PRONOUNCE	NO_LABEL
2003年2月15日、でIBF世界ライトフライ級王座決定戦をホセ・ビクトル・ブルゴスと対戦し12回1分50秒TKO負けで2階級制覇に失敗した。	にせんさんねんにがつじゅうごにち、であいびーえふせかいらいとふらいきゅーおーざけっていせんをほせびくとるぶるごすとたいせんしじゅうにかいいっぷんごじゅうびょーてぃーけーおーまけでにかいきゅーせいはにしっぱいした。	NO_LABEL
2003年12月6日、WBO世界ミニマム級王者イヴァン・カルデロンと対戦し12回0-3の判定負けで6年ぶりの王座返り咲きに失敗した。	NO_PRONOUNCE	NO_LABEL
2005年1月2日、WBO世界ライトフライ級王者ネルソン・ディーバと対戦し11回2分15秒TKO負けで2階級制覇に失敗した。	にせんごねんいちがつふつか、だぶりゅーびーおーせかいらいとふらいきゅーおーじゃねるそんでぃーばとたいせんしじゅういっかいにふんじゅうごびょーてぃーけーおーまけでにかいきゅーせいはにしっぱいした。	NO_LABEL
2008年2月23日、ネルソン・ディーバとWBAフェデボルライトフライ級王座決定戦を行い9回終了時危険で王座獲得に失敗した。	にせんはちねんにがつにじゅうさんにち、ねるそんでぃーばとだぶりゅーびーえーふぇでぼるらいとふらいきゅーおーざけっていせんをおこないきゅうかいしゅーりょーじきけんでおーざかくとくにしっぱいした。	NO_LABEL
2011年12月9日、WBCラテンアメリカフライ級暫定王座決定戦をグレン・ドネアと行い2回に2度倒され8回終了時棄権で王座獲得に失敗した試合を最後に現役を引退した。	にせんじゅういちねんじゅーにがつここのか、だぶりゅーびーしーらてんあめりかふらいきゅーざんていおーざけっていせんをぐれんどねあとおこないにかいににどたおされはっかいしゅーりょーじきけんでおーざかくとくにしっぱいしたしあいをさいごにげんえきをいんたいした。	NO_LABEL
