州間高速道路10号線は、アメリカ合衆国を横断する州間高速道路である。	しゅーかんこーそくどーろじゅうごーせんわ、あめりかがっしゅーこくをおーだんするしゅーかんこーそくどーろである。	NO_LABEL
I-10は、最南端に位置する東西・太平洋-大西洋横断高速道路である。	NO_PRONOUNCE	NO_LABEL
最西端はカリフォルニア州のサンタモニカで、最東端はフロリダ州のジャクソンビル。	さいせいたんわかりふぉるにあしゅーのさんたもにかで、さいひがしばたわふろりだしゅーのじゃくそんびる。	NO_LABEL
I-310とI-510はニューオーリンズの南のバイパスである。	NO_PRONOUNCE	NO_LABEL
I-610はニューオーリンズの中心部を避け、東西を通る。	NO_PRONOUNCE	NO_LABEL
バトンルージュとI-59間に位置するI-12は、I-10とI-59を結ぶ近道である。	NO_PRONOUNCE	NO_LABEL
これは、I-10がI-12よりも南側に曲がる為である。	NO_PRONOUNCE	NO_LABEL
2005年8月にはハリケーン・カトリーナの襲来で、ニューオーリンズ－ポントチャートレイン間のI-10が深刻な被害を受けた。	NO_PRONOUNCE	NO_LABEL
大動脈のエスカンビア・ベイブリッジとは違い、I-12がニューオーリンズのバイパスとしてあったため、レーク・ポンチャートレインとニューオーリンズの東からの往来が可能だった。	NO_PRONOUNCE	NO_LABEL
2005年10月14日の午後3：00には、東区間の破損部分は開放された。	NO_PRONOUNCE	NO_LABEL
　2006年1月6日の午前6:00には西区間の破損部分が開放された。	NO_PRONOUNCE	NO_LABEL
　この区間では、西行きの制限速度は45mphに、東行きの制限速度は60mphに設定された。	NO_PRONOUNCE	NO_LABEL
　特大・重量超過の車両は6車線道路が建設されるまで規制となっている。	NO_PRONOUNCE	NO_LABEL
　2008/2009年には西行き、2011年には東行きの新道路が完成する。	NO_PRONOUNCE	NO_LABEL
　	NO_PRONOUNCE	NO_LABEL
ミシシッピ州では、パスガゴーラ川が区間が開放され、通常に機能している。	みししっぴしゅーでわ、ぱすがごーらがわがくかんがかいほーされ、つーじょーにきのーしている。	NO_LABEL
I-610はテキサス州ヒューストンの環状道路でもある。	NO_PRONOUNCE	NO_LABEL
また、I-410はテキサス州サンアントニオの環状道路。	NO_PRONOUNCE	NO_LABEL
