荘口彰久のオールナイトニッポンRは、ニッポン放送他で深夜3時〜4時30分まで放送されていたラジオ番組。	NO_PRONOUNCE	NO_LABEL
ラジオパーソナリティは荘口彰久。	らじおぱーそなりてぃわそーぐちあきひさ。	NO_LABEL
通常のオールナイトニッポンと違い、27時の時報直後に番組名を言っていた。	つーじょーのおーるないとにっぽんとちがい、にじゅうしちじのじほーちょくごにばんぐみめいをいっていた。	NO_LABEL
また、荘口は火曜日の直前の番組である松村邦洋のオールナイトニッポンにも出演していた。	また、そーぐちわかよーびのちょくぜんのばんぐみであるまつむらくにひろのおーるないとにっぽんにもしゅつえんしていた。	NO_LABEL
電子メールをニッポン放送の番組の中で初めて起用し、火曜日放送当時は荘口の個人用メールアドレスを使用していた。	でんしめーるをにっぽんほーそーのばんぐみのなかではじめてきよーし、かよーびほーそーとーじわそーぐちのこじんよーめーるあどれすをしよーしていた。	NO_LABEL
ぽっぷん王国ミュージックスタジアム等からの当時の最新音楽情報のほか、ニッポン放送の当時の番組情報やその番組の裏話も虚実織り交ぜながら紹介した。	ぽっぷんおーこくみゅーじっくすたじあむとーからのとーじのさいしんおんがくじょーほーのほか、にっぽんほーそーのとーじのばんぐみじょうほーやそのばんぐみのうらばなしもきょじつおりまぜながらしょーかいした。	NO_LABEL
