門司港運転区は、福岡県北九州市門司区にかつて存在した、九州旅客鉄道本社鉄道事業本部の車両基地である。	もじこーうんてんくわ、ふくおかけんきたきゅーしゅーしもじくにかつてそんざいした、きゅーしゅーりょかくてつどーほんしゃてつどーじぎょーほんぶのしゃりょーきちである。	NO_LABEL
2011年の組織改正で検修部門が分離されて運転士所属区所となり、2013年3月16日には運転部門が廃止されたため、現在は乗務員宿泊所となっている。	にせんじゅういちねんのそしきかいせいでけんおさむぶもんがぶんりされてうんてんししょぞくくしょとなり、にせんじゅうさんねんさんがつじゅうろくにちにわうんてんぶもんがはいしされたため、げんざいわじょーむいんしゅくはくじょとなっている。	NO_LABEL
以上は2007年4月1日現在の配置車両で、2011年4月1日に小倉総合車両センター門司港派出に転属した。	いじょーわにせんななねんしがつついたちげんざいのはいちしゃりょーで、にせんじゅういちねんしがつついたちにこくらそーごーしゃりょーせんたーもじこーはしゅつにてんぞくした。	NO_LABEL
組織改編に伴う書類上の転属であり、チキ5200形以外はほぼ同数の車両が引き続き同所に配属されている。	そしきかいへんにともなうしょるいじょーのてんぞくであり、ちきごせんにひゃくがたいがいわほぼどーすーのしゃりょーがひきつずきどーしょにはいぞくされている。	NO_LABEL
など。	など。	NO_LABEL
