ベクトル解析における面積分は、曲面上でとった定積分であり、二重積分として捉えることもできる。	べくとるかいせきにおけるめんせきぶんわ、きょくめんじょーでとったていせきぶんであり、ふたえせきぶんとしてとらえることもできる。	NO_LABEL
線積分は一次元の類似物にあたる。	せんせきぶんわいちじげんのるいじぶつにあたる。	NO_LABEL
曲面が与えられたとき、その上のスカラー場やベクトル場を積分することができる。	きょくめんがあたえられたとき、そのうえのすからーばやべくとるばをせきぶんすることができる。	NO_LABEL
面積分は物理学、特に電磁気学の古典論に応用がある。	めんせきぶんわぶつりがく、とくにでんじきがくのこてんろんにおーよーがある。	NO_LABEL
滑らかな曲面 "S" 上の点座標 x =が独立な変数 "u", "v" の関数として x = "S":=, "y", "z") によって表されるとき、	NO_PRONOUNCE	NO_LABEL
を曲面 "S" = "S"の "u", "v" に関する面積要素あるいは面素と呼ぶ。	NO_PRONOUNCE	NO_LABEL
ここで、	ここで、	NO_LABEL
は、"S" の線素 "ds" = "Edu" + 2"Fdudv" + "Gdv" から定まる第一基本量	NO_PRONOUNCE	NO_LABEL
によって記述できて、面素 "d"σ はパラメータ "u", "v" の取り方に依らない。	NO_PRONOUNCE	NO_LABEL
曲面 "S" とその上で定義されたスカラー場 "f" を考える。	NO_PRONOUNCE	NO_LABEL
"S" が何らかの物質でできていて、"S" の各点 "x" において物質の密度が "f"であるものと考えるならば、"S" 上の "f" の面積分は "S" の単位厚さあたりの質量を与える。	NO_PRONOUNCE	NO_LABEL
つまり、面積分を計算する一つの方法論は、曲面を非常に小さい無数の小片に分割し、その各小片の密度は近似的に定数であると仮定して、各小片についてその面積と密度とを掛けて単位厚さあたりの質量を求め、それらをすべて足し上げて得られる数として "S" の単位厚さあたりの総質量を求めればよいということになる。	NO_PRONOUNCE	NO_LABEL
面積分の明示式を得るには、"S" の上に曲線座標系を取るための媒介変数が必要である。	NO_PRONOUNCE	NO_LABEL
そのような媒介変数表示を xと書いてが座標平面の適当な領域 "T" を動くものとすると、面積分は	NO_PRONOUNCE	NO_LABEL
と定義される。	とていぎされる。	NO_LABEL
ただし、右辺の縦棒で挟まれた式は "x"の二種類の偏微分同士の交叉積のノルム（）である。	NO_PRONOUNCE	NO_LABEL
例えば、一般の函数 "z" = "f"で与えられる曲面の表面積を求めるなら、r =として	NO_PRONOUNCE	NO_LABEL
を計算することになる。	をけいさんすることになる。	NO_LABEL
このとき、	このとき、	NO_LABEL
であるから、代入して整理すれば	であるから、だいにゅーしてせいりすれば	NO_LABEL
を得る。	をえる。	NO_LABEL
これが一般の函数で与えられた曲面の曲面積に対するよく知られた公式である。	これがいっぱんのかんすーであたえられたきょくめんのきょくめんせきにたいするよくしられたこーしきである。	NO_LABEL
式中で偏微分のクロス積として得られるベクトル	しきちゅーでへんびぶんのくろすせきとしてえられるべくとる	NO_LABEL
は、この曲面の法ベクトルとして理解することができる。	わ、このきょくめんのほーべくとるとしてりかいすることができる。	NO_LABEL
上記の公式にはクロス積が現れているから、この公式は曲線が三次元空間に埋め込まれているときのみ有効であることに注意。	じょーきのこーしきにわくろすせきがあらわれているから、このこーしきわきょくせんがさんじげんくーかんにうめこまれているときのみゆーこーであることにちゅーい。	NO_LABEL
"S" 上のベクトル場 v を考える。	NO_PRONOUNCE	NO_LABEL
つまり、"S" の各点 x に対して vがベクトルであるものとする。	NO_PRONOUNCE	NO_LABEL
ベクトル場の面積分は、成分ごとのスカラー場の面積分として定義することができる。	べくとるばのめんせきぶんわ、せいぶんごとのすからーばのめんせきぶんとしてていぎすることができる。	NO_LABEL
これは例えば、電荷を帯びた曲面から発生する電場のある固定された点における式や、物質面から発生する重力のある固定された点における値を表すのに利用される。	これわたとえば、でんかをおびたきょくめんからはっせいするでんじょーのあるこていされたてんにおけるしきや、ぶっしつめんからはっせいするじゅーりょくのあるこていされたてんにおけるねをあらわすのにりよーされる。	NO_LABEL
あるいは、ベクトル場の法成分を積分することもできる。	あるいわ、べくとるばのほーせいぶんをせきぶんすることもできる。	NO_LABEL
"S" を通過して流れる流体を考え、点 x における流体の速度 が vで与えられるものとすると、単位時間当たりに "S" を通過する流体の量として流束が定まる。	NO_PRONOUNCE	NO_LABEL
このように考えると、ベクトル場が各点で "S" に接するならば流束は 0 であることがわかる。	NO_PRONOUNCE	NO_LABEL
またそのことから、v が "S" に沿って流れるだけでなく、接成分も法成分も持つものならば、流束に寄与するのは法成分のみであることもわかる。	NO_PRONOUNCE	NO_LABEL
このような理由に基づけば、流束を求めるのに、各点でベクトル場 v と曲面 "S" の法ベクトルとの点乗積を取る必要があって、それはスカラー場を与えるから、そのスカラー場の面積分が既に述べた仕方で計算できる。	NO_PRONOUNCE	NO_LABEL
式でまとめれば、	しきでまとめれば、	NO_LABEL
と書ける。	とかける。	NO_LABEL
右辺のクロス積は媒介変数で表された "S" の法ベクトル場である。	NO_PRONOUNCE	NO_LABEL
この式の左辺は、右辺の式で「定義」されるものである。	NO_PRONOUNCE	NO_LABEL
曲面 "S" 上の微分 2-形式	NO_PRONOUNCE	NO_LABEL
が与えられ、が領域 "D" を動くとき	NO_PRONOUNCE	NO_LABEL
が "S" の向きを保つ媒介表示とすると、"f" の "S" 上の面積分は	NO_PRONOUNCE	NO_LABEL
で与えられる。	であたえられる。	NO_LABEL
ここで、	ここで、	NO_LABEL
は "S" に直交する面素である。	NO_PRONOUNCE	NO_LABEL
この 2-形式の面積分は、成分がであるようなベクトル場の面積分と同じものであることに注意。	NO_PRONOUNCE	NO_LABEL
発散定理やその一般化であるストークスの定理のような、面積分に対する有用な結果が微分幾何学やベクトル解析を用いて、様々に得られる。	はっさんていりやそのいっぱんかであるすとーくすのていりのよーな、めんせきぶんにたいするゆーよーなけっかがびぶんきかがくやべくとるかいせきをもちいて、さまざまにえられる。	NO_LABEL
面積分が、曲面 "S" の媒介変数表示を用いて定義されることに留意すべきである。	NO_PRONOUNCE	NO_LABEL
与えられた曲面に対して、その媒介変数表示はいくつも考えうる。	あたえられたきょくめんにたいして、そのばいかいへんすーひょーじわいくつもかんがえうる。	NO_LABEL
たとえば、球面上で北極と南極の位置を動かせば、球面上の各点の経度や緯度もそれに伴って変わる。	たとえば、きゅーめんじょーでほっきょくとなんきょくのいちをうごかせば、きゅーめんじょーのかくてんのけいどやいどもそれにともなってかわる。	NO_LABEL
故に、面積分の定義が媒介変数表示の取り方に依存するかどうかと考えるのは自然な疑問である。	ゆえに、めんせきぶんのていぎがばいかいへんすーひょーじのとりかたにいぞんするかどーかとかんがえるのわしぜんなぎもんである。	NO_LABEL
スカラー場の積分に関しては答えは単純で、どのような媒介変数表示を取っても面積分の値は同一である。	すからーばのせきぶんにかんしてわこたえわたんじゅんで、どのよーなばいかいへんすーひょーじをとってもめんせきぶんのねわどーいつである。	NO_LABEL
ベクトル場の面積分に対しては、法ベクトルが絡む所為で事態は少し複雑になるが、同じ曲面の二つの媒介変数表示が曲面の各点で同じ向きの法ベクトルを持つならば、いづれの媒介変数表示に関する面積分も同じ値を持つことが証明できる。	べくとるばのめんせきぶんにたいしてわ、ほーべくとるがからむしょいでじたいわすこしふくざつになるが、おなじきょくめんのふたつのばいかいへんすーひょーじがきょくめんのかくてんでおなじむきのほーべくとるをもつならば、いずれのばいかいへんすーひょーじにかんするめんせきぶんもおなじねをもつことがしょーめいできる。	NO_LABEL
ところが、それらの法ベクトルが互いに逆の向きを持つならば、一方の媒介変数表示に関して得られる面積分の値は他方に関するものの反数になる。	ところが、それらのほーべくとるがたがいにぎゃくのむきをもつならば、いっぽーのばいかいへんすーひょーじにかんしてえられるめんせきぶんのねわたほーにかんするもののはんすーになる。	NO_LABEL
このことから、曲面が与えられたときにはその一意的な媒介変数表示はどれも区別する必要はないが、ベクトル場を積分するときにはより進んで、各点の法線方向を決め、媒介変数表示は一貫した法線方向を持つものを選ばなければならないことがわかる。	このことから、きょくめんがあたえられたときにわそのいちいてきなばいかいへんすーひょーじわどれもくべつするひつよーわないが、べくとるばをせきぶんするときにわよりすすんで、かくてんのほーせんほーこーをきめ、ばいかいへんすーひょーじわいっかんしたほーせんほーこーをもつものをえらばなければならないことがわかる。	NO_LABEL
もう一つの問題は、曲面全体を覆うことのできる媒介変数表示を持たない曲面が存在することである。	もーひとつのもんだいわ、きょくめんぜんたいをおおうことのできるばいかいへんすーひょーじをもたないきょくめんがそんざいすることである。	NO_LABEL
そのような例として、円柱の表面として与えられる曲面を挙げることができる。	そのよーなれいとして、えんちゅーのひょーめんとしてあたえられるきょくめんをあげることができる。	NO_LABEL
この問題は、曲面をいくつかの小片に分割して、それぞれの小片で面積分を計算し、それらをすべて足し上げることで、すぐに解決できる。	このもんだいわ、きょくめんをいくつかのしょーへんにぶんかつして、それぞれのしょーへんでめんせきぶんをけいさんし、それらをすべてたしあげることで、すぐにかいけつできる。	NO_LABEL
これで実際にうまくいくのだが、ベクトル場の積分についてはやはり、分割の各小片での法ベクトルを、再びもとの一つの曲面に戻したときに方向が一貫性を持つように、気をつけて選ぶ必要がある。	これでじっさいにうまくいくのだが、べくとるばのせきぶんについてわやはり、ぶんかつのかくしょーへんでのほーべくとるを、ふたたびもとのひとつのきょくめんにもどしたときにほーこーがいっかんせいをもつよーに、きをつけてえらぶひつよーがある。	NO_LABEL
円柱の例で言えば、側面での法方向を立体の外向きに取ったならば、上面や底面でも同じく立体から外向きに法方向を取らねばならないということである。	えんちゅーのれいでいえば、そくめんでのほーほーこーをりったいのそとむきにとったならば、うわつらやていめんでもどうじくりったいからそとむきにほーほーこーをとらねばならないとゆうことである。	NO_LABEL
そうすると次の問題は、各点の法方向を曲面全体で一貫して入れることができない曲面の存在である。	そーするとつぎのもんだいわ、かくてんのほーほーこーをきょくめんぜんたいでいっかんしていれることができないきょくめんのそんざいである。	NO_LABEL
そのような曲面を小片に分割して各小片上に媒介変数をとり、再度もとのように貼合わせると、別々の小片に由来する法ベクトルの間で辻褄を合わせることができない。	そのよーなきょくめんをしょーへんにぶんかつしてかくしょーへんじょーにばいかいへんすーをとり、さいどもとのよーにはあわせると、べつべつのしょーへんにゆらいするほーべくとるのまでつじつまをあわせることができない。	NO_LABEL
つまり、ある二つの小片の間の繋ぎ目で法ベクトルの方向が反対になるのである。	つまり、あるふたつのしょーへんのまのつなぎめでほーべくとるのほーこーがはんたいになるのである。	NO_LABEL
このような曲面は向き付け不能であると言う。	このよーなきょくめんわむきずけふのーであるという。	NO_LABEL
向き付け不能な曲面の上でベクトル場の積分について記述することはできない。	むきずけふのーなきょくめんのうえでべくとるばのせきぶんについてきじゅつすることわできない。	NO_LABEL
