ウエストベンドは、アメリカ合衆国ウィスコンシン州南東部の都市。	うえすとべんどわ、あめりかがっしゅーこくうぃすこんしんしゅーなんとーぶのとし。	NO_LABEL
ミルウォーキーの北北西に位置し、同市郊外の中流階級以上の住宅地となっている。	みるうぉーきーのほくほくせいにいちし、どーしこーがいのちゅーりゅーかいきゅーいじょーのじゅーたくちとなっている。	NO_LABEL
ワシントン郡の郡庁所在地でもある。	わしんとんぐんのぐんちょーしょざいちでもある。	NO_LABEL
人口は28,152人で州内25位である。	NO_PRONOUNCE	NO_LABEL
ウエストベンドの由来は、市内を流れるミルウォーキー川の「西の蛇行」から来ている。	NO_PRONOUNCE	NO_LABEL
ウエストベンドはに位置している。	うえすとべんどわにいちしている。	NO_LABEL
アメリカ合衆国統計局によると、ウエストベンド市は総面積33.5km²である。	NO_PRONOUNCE	NO_LABEL
そのうち32.9km²が陸地で0.6km²が水域である。	NO_PRONOUNCE	NO_LABEL
総面積の1.86%が水域となっている。	NO_PRONOUNCE	NO_LABEL
ウエストベンドの主な交通機関は自家用車である。	うえすとべんどのおもなこーつーきかんわじかよーしゃである。	NO_LABEL
同市はミルウォーキーからのフリーウェイの終点になっている。	どーしわみるうぉーきーからのふりーうぇいのしゅーてんになっている。	NO_LABEL
ミルウォーキーのダウンタウンへは60km弱、車で所要45分ほどである。	みるうぉーきーのだうんたうんえわろくじゅうきろめーとるじゃく、くるまでしょよーよんじゅうごふんほどである。	NO_LABEL
航空機、アムトラック、グレイハウンドなどはすべてミルウォーキーから利用することになる。	こーくーき、あむとらっく、ぐれいはうんどなどわすべてみるうぉーきーからりよーすることになる。	NO_LABEL
州都マディソンに通ずる高速道路はなく、州道を走ることになる。	しゅーとまでぃそんにつーずるこーそくどーろわなく、しゅーどーをはしることになる。	NO_LABEL
西南西へ約120km、所要約2時間である。	せいなんせいえやくひゃくにじゅうきろめーとる、しょよーやくにじかんである。	NO_LABEL
ウエストエンドのダウンタウンには各種店舗が建ち並び、歴史的な建物も多い。	うえすとえんどのだうんたうんにわかくしゅてんぽがたちならび、れきしてきなたてものもおーい。	NO_LABEL
また治安が良いため、夜でも賑わっている。	またちあんがよいため、よるでもにぎわっている。	NO_LABEL
歴史的なウエストベンド劇場もダウンタウンに位置している。	れきしてきなうえすとべんどげきじょーもだうんたうんにいちしている。	NO_LABEL
また、毎年夏になるとダウンタウンではマックスウェル・ストリート・デイズとジャーマンフェストという、2つの大きなイベントが執り行われる。	NO_PRONOUNCE	NO_LABEL
市内には公園も多い。	しないにわこーえんもおーい。	NO_LABEL
ダウンタウンの北にはレグナー公園がある。	だうんたうんのきたにわれぐなーこーえんがある。	NO_LABEL
同公園は森林、野球場、サッカー場や人工のビーチを有する池を抱え、市民の憩いの場となっている。	どーこーえんわしんりん、やきゅーじょー、さっかーじょーやじんこーのびーちをゆーするいけをかかえ、しみんのいこいのばとなっている。	NO_LABEL
以下は2000年の国勢調査における人口統計データである。	いかわにせんねんのこくせいちょうさにおけるじんこーとーけいでーたである。	NO_LABEL
基礎データ	きそでーた	NO_LABEL
人種別人口構成	じんしゅべつじんこーこーせい	NO_LABEL
年齢別人口構成	ねんれいべつじんこーこーせい	NO_LABEL
世帯と家族	せたいとかぞく	NO_LABEL
収入と家計	しゅーにゅーとかけい	NO_LABEL
