ニーンブルク/ヴェーザー郡は、ドイツ連邦共和国ニーダーザクセン州中部、ヴェーザー川中流域に存在する郡である。	NO_PRONOUNCE	NO_LABEL
西はディープホルツ郡、北はフェルデン郡、東はハイデクライス郡およびハノーファー広域連合、南はシャウムブルク郡およびノルトライン＝ヴェストファーレン州ミンデン＝リュベッケ郡と境を接している。	NO_PRONOUNCE	NO_LABEL
1885年に、ホーヤ伯領のニーンブルク管区と自治都市ニーンブルクが合併してプロイセン領のニーンブルク郡が成立した。	せんはっぴゃくはちじゅうごねんに、ほーやはくりょーのにーんぶるくかんくとじちとしにーんぶるくががっぺいしてぷろいせんりょーのにーんぶるくぐんがせいりつした。	NO_LABEL
現在の郡域は1977年の地域・行政改革によってグラーフシャフト・ホーヤ郡の東部と廃止されたノイシュタット・アム・リューベンベルゲ郡に属すローデヴァルトとがニーンブルク/ヴェーザー郡に合併することで成立した。	NO_PRONOUNCE	NO_LABEL
一方、それまでニーンブルク郡に属していたヴィーデンザールはシャウムブルク郡に移管された。	NO_PRONOUNCE	NO_LABEL
ザムトゲマインデ・グラーフシャフト・ホーヤとザムトゲマインデ・アイストルプは合併が予定されている。	ざむとげまいんでぐらーふしゃふとほーやとざむとげまいんであいすとるぷわがっぺいがよていされている。	NO_LABEL
合併は2011年1月1日に発効する。	がっぺいわにせんじゅういちねんいちがつついたちにはっこーする。	NO_LABEL
新しいザムトゲマインデは「ザムトゲマインデ・グラーフシャフト・ホーヤ」の名前を引き継ぐことになっている。	NO_PRONOUNCE	NO_LABEL
2011年9月11日の郡議会議員選挙以降、ニーンブルク/ヴェーザー郡の郡議会の政党別議席数は以下の通り。	NO_PRONOUNCE	NO_LABEL
ニーンブルク/ヴェーザー郡の郡長は、2011年11月1日からデトレフ・コールマイアーが務めている。	NO_PRONOUNCE	NO_LABEL
上下二分割。	じょーげにぶんかつ。	NO_LABEL
下部はさらに左右二分割。	かぶわさらにさゆーにぶんかつ。	NO_LABEL
上部は赤地で、斜め十字に組み合わされた2つの馬の頭部。	じょーぶわあかじで、ななめじゅーじにくみあわされたふたつのうまのとーぶ。	NO_LABEL
これは郡内の農家の破風によく見られる意匠である。	これわぐんないののーかのはふによくみられるいしょーである。	NO_LABEL
下部向かって左は金地に赤い爪を持つ黒いクマの腕で、これはホーヤ伯を示している。	かぶむかってひだりわきんじにあかいつめをもつくろいくまのうでで、これわほーやはくをしめしている。	NO_LABEL
下部向かって右は青地に銀の水牛の角。	かぶむかってみぎわあおじにぎんのすいぎゅーのかく。	NO_LABEL
これはヴェルペ伯を表している。	NO_PRONOUNCE	NO_LABEL
ニーンブルク市には動物飼料産業やガラス産業の会社がある。	にーんぶるくしにわどーぶつしりょーさんぎょーやがらすさんぎょーのかいしゃがある。	NO_LABEL
また郡内にいくつかの基地を持つドイツ連邦軍も重要な経済ファクターである。	またぐんないにいくつかのきちをもつどいつれんぽーぐんもじゅーよーなけいざいふぁくたーである。	NO_LABEL
特にニーンブルクのランゲンダム市区には大規模な基地がある。	とくににーんぶるくのらんげんだむしくにわだいきぼなきちがある。	NO_LABEL
さらに、ニーンブルクには化学産業の工場もある。	さらに、にーんぶるくにわかがくさんぎょーのこーじょーもある。	NO_LABEL
ニーンブルクとシュトルツェナウには、レーン病院連盟に属すミッテルヴェーザー病院がある。	NO_PRONOUNCE	NO_LABEL
かつてホーヤにあった病院は閉鎖されている。	かつてほーやにあったびょーいんわへいさされている。	NO_LABEL
ヴェーザー川を利用した内陸航路が郡を南北に貫いている。	NO_PRONOUNCE	NO_LABEL
以下の連邦道が郡内を走っている。	いかのれんぽーどーがぐんないをはしっている。	NO_LABEL
さらに、L349号線やL351号線をはじめとする何本かの州道が郡内を通っている。	NO_PRONOUNCE	NO_LABEL
郡庁所在地のニーンブルクは、ハノーファー国営鉄道が建設し、1847年に開業した鉄道ブレーメン - ハノーファー線によって鉄道網に組み込まれた。	NO_PRONOUNCE	NO_LABEL
この路線から2本の支線が分岐した。	このろせんからにほんのしせんがぶんきした。	NO_LABEL
1910年にプロイセン国営鉄道が開通させたラーデン - ニーンブルク線と、1921/22年にドイツ帝国鉄道が建設したズリンゲンやディープホルツへ横断する路線である。	NO_PRONOUNCE	NO_LABEL
国営鉄道がウフテに到達する以前、1898/99年にこの町には2つの狭軌鉄道が造られていた。	NO_PRONOUNCE	NO_LABEL
ペータースハーゲンを経由してミンデンまでのミンデナー・クライスバーンと、レーブルク＝ロックムを経由してヴンストルフに至るシュタインフーダー・メーア鉄道である。	NO_PRONOUNCE	NO_LABEL
後者はレーゼ＝シュトルツェナウでドイツ帝国鉄道のニーンブルク＝ミンデン線と交差し、1921年からはシュタットハーゲン行きの支線も設けられた。	NO_PRONOUNCE	NO_LABEL
幹線鉄道ブレーメン - ハノーファー線からアイストルプで分岐する路線もあった。	NO_PRONOUNCE	NO_LABEL
1881年にホーヤ鉄道会社が建設した路線で、ヴェーザー川右岸をホーヤ旧駅まで運行した。	NO_PRONOUNCE	NO_LABEL
1912年にはヴェーザー川左岸に造られたクライン鉄道のホーヤ駅に乗り入れるために初めてヴェーザー川を渡った。	NO_PRONOUNCE	NO_LABEL
ホーヤ駅で狭軌のクライン鉄道ホーヤ - ジーケ - アーゼンドルフ線に接続した。	NO_PRONOUNCE	NO_LABEL
この路線は1900年にジーケまで、1905年にビュッケンまで開通していた。	このろせんわせんきゅうひゃくねんにじーけまで、せんきゅうひゃくごねんにびゅっけんまでかいつーしていた。	NO_LABEL
ただし、ホーヤ - ジーケへの直通列車が運行されるようになったのは、この2つの会社が1962/63年に合併してグラーフシャフト・ホーヤ交通会社となって以後であった。	NO_PRONOUNCE	NO_LABEL
郡内の鉄道の総延長は227kmあったが、現在運行しているのは73kmである。	ぐんないのてつどーのそーえんちょーわにひゃくにじゅうななきろめーとるあったが、げんざいうんこーしているのわななじゅうさんきろめーとるである。	NO_LABEL
この他に32kmが保存鉄道となっている。	このほかにさんじゅうにきろめーとるがほぞんてつどーとなっている。	NO_LABEL
廃線の状況は以下の通りである。	はいせんのじょーきょーわいかのとーりである。	NO_LABEL
幹線鉄道ブレーメン - ハノーファー線はノルトダイヒ- エムデン - ブレーメン中央駅 - ハノーファー中央駅と経由するレギオナルエクスプレスが運行している。	NO_PRONOUNCE	NO_LABEL
ニーンブルクには、オルデンブルク - ハノーファー - マクデブルク - ライプツィヒ/ベルリンと経由するインターシティーが2時間ごとに発着する。	NO_PRONOUNCE	NO_LABEL
また、ニーンブルク/ヴェーザー駅はハノーファー中央駅 - ハステに接続するハノーファーSバーン - 2の終着駅である。	NO_PRONOUNCE	NO_LABEL
ニーンブルク - ミンデン線のレーゼ＝シュトルツェナウとペータースハーゲン＝ラーデとの間は、平日にはビーレフェルト行きのレギオナルエクスプレス 78「ポルタ＝エクスプレス」が2時間ごとに運行している。	NO_PRONOUNCE	NO_LABEL
日曜・祝祭日にはハンブルク方面に接続するヴェーザー＝アラー鉄道が2時間ごとに運行している。	NO_PRONOUNCE	NO_LABEL
人口は 時点の数値である。	じんこーわじてんのすーちである。	NO_LABEL
フレッケンは、ゲマインデのなかでも古くから市場の開催権や一定の自治権を有していた町を指す。	ふれっけんわ、げまいんでのなかでもふるくからしじょーのかいさいけんやいっていのじちけんをゆーしていたまちをさす。	NO_LABEL
