ハミルトン・グリーンは、ガイアナの政治家である。	はみるとんぐりーんわ、がいあなのせいじかである。	NO_LABEL
1985年8月6日から1992年10月9日まで、人民民族会議が圧政を行っていた時代にガイアナ共和国首相を務めた。	せんきゅうひゃくはちじゅうごねんはちがつむいかからせんきゅうひゃくきゅうじゅうにねんじゅーがつここのかまで、じんみんみんぞくかいぎがあっせいをおこなっていたじだいにがいあなきょーわこくしゅしょーをつとめた。	NO_LABEL
ジョージタウン出身であり、ジョージタウンの市長も務めた。	じょーじたうんしゅっしんであり、じょーじたうんのしちょーもつとめた。	NO_LABEL
グリーンは、1992年にジミー・カーター大統領の監視の下、ガイアナで初めて行われた自由で公正な選挙の際に引退した。	ぐりーんわ、せんきゅうひゃくきゅうじゅうにねんにじみーかーたーだいとーりょーのかんしのした、がいあなではじめておこなわれたじゆーでこーせいなせんきょのさいにいんたいした。	NO_LABEL
1993年3月、彼は、政党を追放されたことで憲法上の権利を侵害されたとして、人民民族会議を訴えた。	せんきゅうひゃくきゅうじゅうさんねんさんがつ、かれわ、せいとーをついほーされたことでけんぽーじょーのけんりをしんがいされたとして、じんみんみんぞくかいぎをうったえた。	NO_LABEL
この後、彼は独自の政党民主フォーラムを立ち上げた。	こののち、かれわどくじのせいとーみんしゅふぉーらむをたちあげた。	NO_LABEL
2003年、彼は、文鮮明の主催したワールド・リーダーズ・サミットに出席した。	NO_PRONOUNCE	NO_LABEL
また、彼は天宙平和連合の評議会のメンバーである。	また、かれわてんちゅーへいわれんごーのひょーぎかいのめんばーである。	NO_LABEL
