太田 進一は同志社大学大学院教授。	おーたしんいちわどーししゃだいがくだいがくいんきょーじゅ。	NO_LABEL
大学院商学研究科教授、総合政策科学研究科教授を兼務。	だいがくいんしょーがくけんきゅーかきょーじゅ、そーごーせいさくかがくけんきゅーかきょーじゅをけんむ。	NO_LABEL
専攻は中小企業論、ネットワーク経営論。	せんこーわちゅーしょーきぎょーろん、ねっとわーくけいえいろん。	NO_LABEL
1942年神戸市生まれ。	せんきゅうひゃくよんじゅうにねんこーべしうまれ。	NO_LABEL
同志社大学商学部卒業、同大大学院商学研究科修士課程修了、商学博士。	どーししゃだいがくしょーがくぶそつぎょー、どーだいだいがくいんしょーがくけんきゅーかしゅーしかていしゅーりょー、しょーがくはかせ。	NO_LABEL
大阪府立商工経済研究所勤務、経済企画庁出向等を経て現職。	おーさかふりつしょーこーけいざいけんきゅうしょきんむ、けいざいきかくちょーしゅっこーとーをへてげんしょく。	NO_LABEL
主著に、「企業と政策―理論と実践のパラダイム転換」、「企業政策論と総合政策科学」、「知識ビジネス―オンライン取引と知識の商業化の統合」、「知識ネットワーキング―企業連携の創造」、「総合政策科学入門」、「ITと企業政策」、「ビジネスモデルと企業政策」等がある。	NO_PRONOUNCE	NO_LABEL
