ペトラリーア・ソプラーナは、イタリア共和国シチリア州パレルモ県にある、人口約3400人の基礎自治体。	ぺとらりーあそぷらーなわ、いたりあきょーわこくしちりあしゅーぱれるもけんにある、じんこーやくさんぜんよんひゃくにんのきそじちたい。	NO_LABEL
パレルモ県東部のコムーネ。	ぱれるもけんとーぶのこむーね。	NO_LABEL
チェファルーから南南東へ28km、エンナから北北西へ30km、県都パレルモから東南東へ75kmの距離にある。	ちぇふぁるーからなんなんとーえにじゅうはちきろめーとる、えんなからほくほくせいえさんじゅうきろめーとる、けんとぱれるもからとーなんとーえななじゅうごきろめーとるのきょりにある。	NO_LABEL
隣接するコムーネは以下の通り。	りんせつするこむーねわいかのとーり。	NO_LABEL
以下の分離集落がある。	いかのぶんりしゅーらくがある。	NO_LABEL
「イタリアの最も美しい村」クラブ加盟コムーネである。	NO_PRONOUNCE	NO_LABEL
