乗福寺は神奈川県藤沢市にある曹洞宗の寺院。	じょーふくじわかながわけんふじさわしにあるそーとーしゅーのじいん。	NO_LABEL
山号は万年山。	さんごーわはねやま。	NO_LABEL
長元年間に垂木御所の開基で真言宗の寺院として創建したが、宝泉寺6世朝岩による再興より曹洞宗となった。	NO_PRONOUNCE	NO_LABEL
明治、大正に2度火災にあい、寺の史料は当時の住職により記述された享保10年の『乗福寺縁起』が残るのみである。	NO_PRONOUNCE	NO_LABEL
注釈	ちゅーしゃく	NO_LABEL
出典	しゅってん	NO_LABEL
