四日市市役所は、日本の地方公共団体である四日市市の組織が入る施設である。	よっかいちしやくしょわ、にっぽんのちほーこーきょーだんたいであるよっかいちしのそしきがはいるしせつである。	NO_LABEL
所在地	しょざいち	NO_LABEL
業務内容	ぎょーむないよー	NO_LABEL
所在地	しょざいち	NO_LABEL
業務内容	ぎょーむないよー	NO_LABEL
所在地	しょざいち	NO_LABEL
業務内容	ぎょーむないよー	NO_LABEL
所在地	しょざいち	NO_LABEL
業務内容	ぎょーむないよー	NO_LABEL
