セガ・マスターシステムとは、セガ・エンタープライゼスが発売した、8ビットの家庭用ゲーム機である。	NO_PRONOUNCE	NO_LABEL
型式番号はMK-2000。	NO_PRONOUNCE	NO_LABEL
元々は日本で発売されていたセガ・マークIIIの北米市場向け機種として、1986年にセガの米国法人セガ・オブ・アメリカが発売した家庭用ゲーム機である。	もともとわにっぽんではつばいされていたせがまーくすりーのほくべいしじょーむけきしゅとして、せんきゅうひゃくはちじゅうろくねんにせがのべいこくほーじんせがおぶあめりかがはつばいしたかていよーげーむきである。	NO_LABEL
開発は日本のセガ本社とセガ・オブ・アメリカ共同で行われた。	かいはつわにっぽんのせがほんしゃとせがおぶあめりかきょーどーでおこなわれた。	NO_LABEL
その後、欧州など世界中で販売展開され、日本でも逆輸入の形で1987年10月18日に米国版をベースにFM音源や連射機能の内蔵など更なるマイナーチェンジを行い発売した。	そのご、おーしゅーなどせかいじゅーではんばいてんかいされ、にっぽんでもぎゃくゆにゅーのかたちでせんきゅうひゃくはちじゅうななねじゅーがつじゅうはちにちにべいこくばんをべーすにえふえむおんげんやれんしゃきのーのないぞーなどさらなるまいなーちぇんじをおこないはつばいした。	NO_LABEL
アメリカと日本ではライバル機である任天堂「ファミリーコンピュータ」の市場を崩せなかった一方で、ヨーロッパやブラジルでは大きな成功を収めた。	NO_PRONOUNCE	NO_LABEL
後継機である16ビットゲーム機「メガドライブ」の発売以降も、ヨーロッパとブラジルでは『ソニック・ザ・ヘッジホッグ2』や『Streets of Rage 2』『SAGAIA』『Winter Olympic '94』など、メガドライブ版と同じタイトルをリリースするソフト供給が続いたほか、欧州でのみリリースされたU.S. Gold社の『』や『』、ブラジルでのみリリースされた『Street Fighter II』、韓国でのみリリースされた『将軍の息子』など、いくつかの特徴的なタイトルもあった。	NO_PRONOUNCE	NO_LABEL
アメリカとヨーロッパでは1990年に筐体をコンパクトにし、ゲームソフトを1本内蔵、リセットボタン及びマイカードスロットが削除された「Sega Master System II」が発売された。	NO_PRONOUNCE	NO_LABEL
ブラジルではカートリッジスロットを廃して、あらかじめ132タイトルのゲームを内蔵した「Master System Evolution」と、コントローラ一体型で30タイトルのゲームを内蔵した「Master System Portátil」がブラジルの代理店であるTectoyによって2011年時点でも販売されている。	NO_PRONOUNCE	NO_LABEL
2011年現在、一部のゲームがWiiのバーチャルコンソールで提供されている。	にせんじゅういちねんげんざい、いちぶのげーむがうぃーのばーちゃるこんそーるでていきょーされている。	NO_LABEL
1986年に米国で発売以降、1987年以降に日本を含む世界中で販売が開始され、主に欧州と南米で普及した。	せんきゅうひゃくはちじゅうろくねんにべいこくではつばいいこー、せんきゅうひゃくはちじゅうななねいこーににっぽんをふくむせかいじゅーではんばいがかいしされ、おもにおーしゅーとなんべいでふきゅーした。	NO_LABEL
全世界累計販売台数はおよそ1,310万台。	NO_PRONOUNCE	NO_LABEL
任天堂が従来のファミリーコンピュータを新たに設計し直して北米市場向けに電磁波対策を施したNintendo Entertainment Systemを1985年に発売後、大成功を収めたのを受けて、セガもアメリカ市場へのマークIII投入を決断し、社内で開発コードが「M4」と名付けられたプロジェクトをスタート。	NO_PRONOUNCE	NO_LABEL
こうして誕生したのが「Master System」である。	NO_PRONOUNCE	NO_LABEL
なお米国においてはMaster Systemは周辺機器も含めたシステムの名称であり、特に本体だけを指す場合はPower Baseと呼ばれる。	NO_PRONOUNCE	NO_LABEL
米国版マスターシステムは、マークIIIに以下の小幅な改良を加えたものである。	べいこくばんますたーしすてむわ、まーくすりーにいかのこはばなかいりょーをくわえたものである。	NO_LABEL
最大の違いはデザインの変更である。	さいだいのちがいわでざいんのへんこーである。	NO_LABEL
米国では光線銃と対応ソフトが本体と同梱されたセット等も発売された。	べいこくでわこーせんじゅーとたいおーそふとがほんたいとどーこんされたせっととーもはつばいされた。	NO_LABEL
日本では光線銃用ソフトは発売されなかった。	にっぽんでわこーせんじゅーよーそふとわはつばいされなかった。	NO_LABEL
ちなみに光線銃の形状は日本でサバイバルゲーム用玩具として発売された『超高速光線銃ジリオン』と同じである。	NO_PRONOUNCE	NO_LABEL
カートリッジ端子に変更が加えられ、日本のマークIIIソフトが使用出来ない様になった。	かーとりっじたんしにへんこーがくわえられ、にっぽんのまーくすりーそふとがしよーできないよーになった。	NO_LABEL
ただし、カートリッジの各ピンの出力そのものは同じなので、日本のマークIII用ソフトを使用するための非公式のアダプタも存在した。	ただし、かーとりっじのかくぴんのしゅつりょくそのものわおなじなので、にっぽんのまーくすりーよーそふとをしよーするためのひこーしきのあだぷたもそんざいした。	NO_LABEL
また、逆に米国向けのカートリッジを日本版マスターシステムで使用するためのアダプタもあった。	また、ぎゃくにべいこくむけのかーとりっじをにほんばんますたーしすてむでしよーするためのあだぷたもあった。	NO_LABEL
なお対応ソフトは発売されていないが、内部的にはSG-1000/SC-3000互換モードも持っている。	NO_PRONOUNCE	NO_LABEL
発売はセガの米国法人であるセガ・オブ・アメリカによって行われた。	はつばいわせがのべいこくほーじんであるせがおぶあめりかによっておこなわれた。	NO_LABEL
なお、ソフトを挿さずに電源を入れ、警告メッセージ表示中に隠しコマンドを入れると迷路ゲームがプレイ出来る裏技が存在する。	なお、そふとをささずにでんげんをいれ、けいこくめっせーじひょーじちゅーにかくしこまんどをいれるとめいろげーむがぷれいできるうらわざがそんざいする。	NO_LABEL
日本版には存在しない。	にほんばんにわそんざいしない。	NO_LABEL
後期バージョンではあらかじめソフトが内蔵されており、ソフトを挿さずに電源を入れると内蔵ソフトが起動するようになっている。	こーきばーじょんでわあらかじめそふとがないぞーされており、そふとをささずにでんげんをいれるとないぞーそふとがきどーするよーになっている。	NO_LABEL
米国市場に投入された後、米国版をベースに、テレビ規格をNTSCからPALやSECAMにするなどしたマスターシステムが欧州で展開された。	べいこくしじょーにとーにゅーされたのち、べいこくばんをべーすに、てれびきかくをえぬてぃーえすしーからぱるやせかむにするなどしたますたーしすてむがおーしゅーでてんかいされた。	NO_LABEL
欧州ではU.S. Gold社などのセカンドパーティからソフトがリリースされる後押しもあり、任天堂のNESと互角のシェアを獲得し成功を収めた。	NO_PRONOUNCE	NO_LABEL
欧州での成功後、1989年にはテレビ規格をPAL-Mにして南米・ブラジルでも展開された。	NO_PRONOUNCE	NO_LABEL
米国版/欧州版/ブラジル版のマスターシステムは、各国のテレビ規格への対応のために本体の動作クロックが若干異なる以外は基本的に同一である。	NO_PRONOUNCE	NO_LABEL
また、映像信号の走査線数の違いによりアスペクト比が変わり、上下が潰れて若干横に間延びした表示となる。	また、えいぞーしんごーのそーさせんすーのちがいによりあすぺくとひがかわり、じょーげがつぶれてじゃっかんよこにまのびしたひょーじとなる。	NO_LABEL
マークIIIが販売されていた頃、日本でマークIIIの記事を扱うゲーム誌は数誌しか存在しなかった。	まーくすりーがはんばいされていたころ、にっぽんでまーくすりーのきじをあつかうげーむしわかずししかそんざいしなかった。	NO_LABEL
その中で、最も記事量が多かった『Beep!』誌上で当時「マークIII で発売を望む周辺機器」という読者アンケートが繰り返し行われていた。	NO_PRONOUNCE	NO_LABEL
そこでは常に、FM音源ユニットの発売が圧倒的な得票を得ていた。	そこでわつねに、えふえむおんげんゆにっとのはつばいがあっとーてきなとくひょーをえていた。	NO_LABEL
またそのアンケートでは、連射機能ユニットも常に上位に入っていた。	またそのあんけーとでわ、れんしゃきのーゆにっともつねにじょーいにはいっていた。	NO_LABEL
こうしたユーザーの声にセガが応える形で、マークIIIの外付けFM音源であるFMサウンドユニット発売や連射機能ユニットラピッドファイアユニットの発売に至る。	こーしたゆーざーのこえにせががこたえるかたちで、まーくすりーのそとずけえふえむおんげんであるえふえむさうんどゆにっとはつばいやれんしゃきのーゆにっとらぴっどふぁいあゆにっとのはつばいにいたる。	NO_LABEL
これと同時に、『これらオプションのFM音源や連射機能を内蔵したマークIII マイナーチェンジ版』の発売がセガ社内にて計画された。	NO_PRONOUNCE	NO_LABEL
セガは、海外展開を行っていたマスターシステムをベースに新たに設計し直す事とし、セガ社内で開発コードが「M4J」と名付けられたプロジェクトをスタートさせた。	NO_PRONOUNCE	NO_LABEL
こうして誕生したのが日本版の「マスターシステム」である。	NO_PRONOUNCE	NO_LABEL
日本版マスターシステムは、米国版マスターシステムをベースに更に以下の変更を加えた物である。	にほんばんますたーしすてむわ、べいこくばんますたーしすてむをべーすにさらにいかのへんこーをくわえたものである。	NO_LABEL
ソフトを挿さずに電源を入れると、カートリッジ未挿入の警告メッセージと『スペースハリアー』のステージイメージ映像と共に、FM音源のデモも兼ねて同ゲームのメインテーマが奏でられた。	NO_PRONOUNCE	NO_LABEL
ちなみに、ここで流れる曲がマスターシステムでFM音源とPSGを同時に音声出力させている唯一のサウンドである。	ちなみに、ここでながれるきょくがますたーしすてむでえふえむおんげんとぴーえすじーをどーじにおんせいしゅつりょくさせているゆいいつのさうんどである。	NO_LABEL
連射機能が標準搭載されているゲーム機はマスターシステムが初めてである。	れんしゃきのーがひょーじゅんとーさいされているげーむきわますたーしすてむがはじめてである。	NO_LABEL
コントローラに連射機能を持たせるのではなく、本体に連射機能・設定用ボタンを実装しているため、本機種用のコントローラーであれば種類を問わず同様の連射機能が付加される。	NO_PRONOUNCE	NO_LABEL
マスターシステムに付属しているコントローラの大きさは、ファミコンのコントローラより若干小さめ。	ますたーしすてむにふぞくしているこんとろーらのおーきさわ、ふぁみこんのこんとろーらよりじゃっかんちーさめ。	NO_LABEL
操作キーは四角に近い形に、真ん中に窪みの形状が付いているマークIII版ジョイパッドに少し段差をつけた形状になっている。	そーさきーわしかくにちかいかたちに、まんなかにくぼみのけいじょーがついているまーくすりーばんじょいぱっどにすこしだんさをつけたけいじょーになっている。	NO_LABEL
中央にあるカバーを取って、小さいスティックを差すとちょっとしたジョイスティックになる。	ちゅーおーにあるかばーをとって、ちーさいすてぃっくをさすとちょっとしたじょいすてぃっくになる。	NO_LABEL
操作した感じはマークIII版ジョイパッドより若干良くなっている。	そーさしたかんじわまーくすりーばんじょいぱっどよりじゃっかんよくなっている。	NO_LABEL
二つのボタンの方はマークIII版のジョイパッドと同じ感じで連打し易くなっている。	ふたつのぼたんのほーわまーくすりーばんのじょいぱっどとおなじかんじでれんだしやすくなっている。	NO_LABEL
今までの機種のコントローラにはボタンの表示がなく、ゲームユーザーを困惑させてきたが、本機種のコントローラには明記されており、二つのボタンの左側は、1,START。	NO_PRONOUNCE	NO_LABEL
右側は2と明記されている。	NO_PRONOUNCE	NO_LABEL
日本版マスターシステムのハード性能は、マークIIIにFMサウンドユニット・ラピッドファイアユニット・3-Dアダプタを全て装備した状態とほぼ同一である。	NO_PRONOUNCE	NO_LABEL
SG-1000互換の拡張端子が削除され、SG-1000シリーズ用オプションである外付けキーボードを必要とするBASIC等のソフトが使用出来なくなった。	えすじーせんごかんのかくちょーたんしがさくじょされ、えすじーせんしりーずよーおぷしょんであるそとずけきーぼーどをひつよーとするべーしっくとーのそふとがしよーできなくなった。	NO_LABEL
それ以外の対応ソフトウェアは100%の互換性がある。	それいがいのたいおーそふとうぇあわひゃくぱーせんとのごかんせいがある。	NO_LABEL
JOYポート7番ピンの扱いは海外版マスターシステムと同じ為、この機種においても光線銃の使用が可能である。	じょいぽーとななばんぴんのあつかいわかいがいばんますたーしすてむとおなじため、このきしゅにおいてもこーせんじゅーのしよーがかのーである。	NO_LABEL
韓国では元々OACSと言うメーカーが日本版マークIIIを輸入販売していた。	かんこくでわもともとおんえあくれでぃすいすというめーかーがにほんばんまーくすりーをゆにゅーはんばいしていた。	NO_LABEL
その後マスターシステムに切り替わり「GAMBOY」と言う名称で販売していたが、1989年にサムスン電子がライセンスを取得し「삼성 겜보이」の名で販売されるようになった。	NO_PRONOUNCE	NO_LABEL
韓国版は日本版マスターシステムがベースとなっており、RAPIDボタンや3-Dグラス端子も搭載している。	NO_PRONOUNCE	NO_LABEL
またカートリッジ端子も日本版と同じ形状である。	またかーとりっじたんしもにほんばんとおなじけいじょーである。	NO_LABEL
但しFM音源は搭載されていない。	ただしえふえむおんげんわとーさいされていない。	NO_LABEL
添付されているコントローラは韓国版オリジナルの物になっている。	てんぷされているこんとろーらわかんこくばんおりじなるのものになっている。	NO_LABEL
BIOSは日本版と同じなのでカートリッジ未挿入時の文章は日本語だが、FM音源が無いためBGMはPSG音源部分のみが流れる。	ばいおすわにほんばんとおなじなのでかーとりっじみそーにゅーじのぶんしょーわにほんごだが、えふえむおんげんがないためびーじーえむわぴーえすじーおんげんぶぶんのみがながれる。	NO_LABEL
マスターシステムIIに相当する「SAMSUNG GAMBOY II」も発売された。	NO_PRONOUNCE	NO_LABEL
ヨーロッパやブラジルなどで発売されたマスターシステムIIと同じ仕様ながら、カートリッジ端子のみが初代GAMBOYや日本版マスターシステムと同じ形状と言う、独自の仕様となっている。	NO_PRONOUNCE	NO_LABEL
ハングル版『アレックスキッドのミラクルワールド』を内蔵している。	NO_PRONOUNCE	NO_LABEL
1992年頃、サムスン電子が旧来の「三星」のロゴから国際的な「SAMSUNG」のロゴに変更するのとほぼ同時期に、「GAMBOY」が「ALADDINBOY」に、メガドライブに相当する「SUPER GAMBOY」も「SUPER ALADDINBOY」に、名称がそれぞれ変更された。	NO_PRONOUNCE	NO_LABEL
ソフトウェアのパッケージの異同が激しく、短期間の間に代理店の変更、ハードの名称変更、代理店のロゴ変更、国際版パッケージから韓国独自のパッケージへの変更などがあるため、コレクションする際に注意を要する。	そふとうぇあのぱっけーじのいどーがはげしく、たんきかんのまにだいりてんのへんこー、はーどのめいしょーへんこー、だいりてんのろごへんこー、こくさいばんぱっけーじからかんこくどくじのぱっけーじえのへんこーなどがあるため、これくしょんするさいにちゅーいをよーする。	NO_LABEL
詳細は不明であるが、中国圏向け仕様のマスターシステムIIの存在が確認されている。	NO_PRONOUNCE	NO_LABEL
本体裏に「SEGA ENTERPRISES. LTD.」と「MADE IN JAPAN」の表記があるが、セガの正規品であるかは不明である。	NO_PRONOUNCE	NO_LABEL
外箱の表記は「世嘉 Master System II」である。	NO_PRONOUNCE	NO_LABEL
中国圏向けマスターシステムIIは、添付されているマニュアルが英語・中国語・日本語で書かれている。	NO_PRONOUNCE	NO_LABEL
また「チャンネルの合わせ方」としてNTSCとPALの両モデル用の説明表記がある。	NO_PRONOUNCE	NO_LABEL
本体には「アレックスキッドのミラクルワールド」が内蔵されている。	NO_PRONOUNCE	NO_LABEL
中国・台湾モデル以外にはACアダプタのコンバージョンプラグが付属される。	NO_PRONOUNCE	NO_LABEL
また、香港では「世嘉电子智能机」の名称でマスターシステムが販売された。	NO_PRONOUNCE	NO_LABEL
ソフトウェアは、メーカー表記を削ったりタイトル名を改変した、いわゆる海賊版ソフトウェアの存在が確認されている。	そふとうぇあわ、めーかーひょーきをけずったりたいとるめいをかいへんした、いわゆるかいぞくばんそふとうぇあのそんざいがかくにんされている。	NO_LABEL
正規品のソフトウェアが存在するかは不明である。	せいきひんのそふとうぇあがそんざいするかわふめいである。	NO_LABEL
欧州及びブラジルでは、メガドライブ発売後もマスターシステムが長期にわたり併売されていたため、国内未発売のソフトが数多くリリースされた。	おーしゅーおよびぶらじるでわ、めがどらいぶはつばいごもますたーしすてむがちょーきにわたりへいばいされていたため、こくないみはつばいのそふとがかずおーくりりーすされた。	NO_LABEL
以下に、海外のみで発売された主なタイトルを挙げる。	いかに、かいがいのみではつばいされたおもなたいとるをあげる。	NO_LABEL
