神戸市バス石屋川営業所は、兵庫県神戸市灘区にある、神戸市バスの営業所である。	こーべしばすいしやがわえいぎょーしょわ、ひょーごけんこーべしなだくにある、こーべしばすのえいぎょーしょである。	NO_LABEL
最寄バス停は石屋川車庫前である。	もよりばすていわいしやがわしゃこまえである。	NO_LABEL
配置車両に表示されている営業者を表す記号は「石」である。	NO_PRONOUNCE	NO_LABEL
主として灘区を通る路線を担当している。	しゅとしてなだくをとーるろせんをたんとーしている。	NO_LABEL
本節では、石屋川営業所が現在運行を担当している路線について記述する。	ほんぶしでわ、いしやがわえいぎょーしょがげんざいうんこーをたんとーしているろせんについてきじゅつする。	NO_LABEL
現在石屋川営業所が担当する路線は8路線となっている。	NO_PRONOUNCE	NO_LABEL
これは、神戸市バスの8営業所の中では、最も少ない担当路線数である。	NO_PRONOUNCE	NO_LABEL
かつては、灘南北系統や16系統などを担当していたが、現在は多くの路線がエリアが重複する魚崎営業所に移管された。	NO_PRONOUNCE	NO_LABEL
特に2012年4月1日のダイヤ改正にあわせて行われた担当営業所の配分変更では、単独運行路線のうち32系統・100系統・102系統・103系統の4路線が魚崎営業所に完全に移管されたほか、26系統も魚崎営業所との共同運行に変更されている。	NO_PRONOUNCE	NO_LABEL
しかし、2015年4月のダイヤ改正で26系統、32系統、松陰女子大学輸送が再び石屋川営業所の単独当に変更された。	NO_PRONOUNCE	NO_LABEL
また、2016年の6月には36系統が魚崎営業所との共同管轄になり、担当に再び戻った。	NO_PRONOUNCE	NO_LABEL
さらに、2017年4月の改正では16系統が魚崎営業所との共同管轄になり、担当に再び戻った。	NO_PRONOUNCE	NO_LABEL
神戸市バスではダイヤ改正等にあわせて営業所間での運行路線の配分・調整が比較的頻繁に行われている。	NO_PRONOUNCE	NO_LABEL
運行区間	うんこーくかん	NO_LABEL
概要	がいよー	NO_LABEL
ダイヤ及び停留所	だいやおよびていりゅーじょ	NO_LABEL
運行区間	うんこーくかん	NO_LABEL
概要	がいよー	NO_LABEL
沿革	えんかく	NO_LABEL
ダイヤおよび停留所	だいやおよびていりゅーじょ	NO_LABEL
概要	がいよー	NO_LABEL
沿革	えんかく	NO_LABEL
概要	がいよー	NO_LABEL
ダイヤおよび停留所	だいやおよびていりゅーじょ	NO_LABEL
運行区間	うんこーくかん	NO_LABEL
概要	がいよー	NO_LABEL
ダイヤおよび停留所	だいやおよびていりゅーじょ	NO_LABEL
以前は三菱自動車製で統一されていた関係で、石屋川営業所所属の車両の車両番号は三菱自動車製に割り当てられる000〜299を使用している。	NO_PRONOUNCE	NO_LABEL
現在は、日野自動車製、いすゞ自動車製、三菱ふそうトラック・バス製、UDトラックス製の4メーカーがそろっている。	NO_PRONOUNCE	NO_LABEL
石屋川営業所が、魚崎営業所のエリア内で、2008年10月から12月にかけて、無断で臨時バスを増発していたことが、2009年2月28日の各種報道で発覚した。	いしやがわえいぎょーしょが、うおざきえいぎょーしょのえりあないで、にせんはちねんじゅーがつからじゅーにがつにかけて、むだんでりんじばすをぞーはつしていたことが、にせんきゅうねんにがつにじゅうはちにちのかくしゅほーどーではっかくした。	NO_LABEL
他の営業所の路線で臨時バスを運行する際には、担当営業所からの応援要請が必要になるが、石屋川営業所は、これを受けないまま、1日1〜3本程度、阪神御影駅から六甲ケーブル下駅まで臨時バスを走らせていたという。	NO_PRONOUNCE	NO_LABEL
また、これらの臨時バスを運転していた運転手が、総額約27万円の超過勤務手当を受け取っていた。	また、これらのりんじばすをうんてんしていたうんてんしゅが、そーがくやくにじゅうななまんえんのちょーかきんむてあてをうけとっていた。	NO_LABEL
事態を重視した神戸市交通局は、石屋川営業所の所長や副所長ら4人を減給、同営業所自動車部長を訓戒などの懲戒処分とした。	じたいをじゅーししたこーべしこーつーきょくわ、いしやがわえいぎょーしょのしょちょーやふくしょちょーらよにんをげんきゅー、どーえいぎょーしょじどーしゃぶちょーをくんかいなどのちょーかいしょぶんとした。	NO_LABEL
ただ、運転手については、運行管理の直接権限が無いとして、処分対象とはなっていないという。	ただ、うんてんしゅについてわ、うんこーかんりのちょくせつけんげんがないとして、しょぶんたいしょーとわなっていないという。	NO_LABEL
