PrivatePasswordとは、宇津雄一と藤井剛俊による音楽ユニット名。	NO_PRONOUNCE	NO_LABEL
宇津雄一がボーカルと作詞を主に担当し、藤井剛俊がキーボードと作曲を主に担当している。	うつゆーいちがぼーかるとさくしをおもにたんとーし、ふじーたけとしがきーぼーどとさっきょくをおもにたんとーしている。	NO_LABEL
1999年には、「WHAT'S NEXT? FOUR」に『喜怒哀楽』が収録された。	NO_PRONOUNCE	NO_LABEL
