ナンダは、ナミヘビ科ナンダ属に分類されるヘビ。	なんだわ、なみへびかなんだぞくにぶんるいされるへび。	NO_LABEL
アフガニスタン、イラン、インド、インドネシア、カンボジア、タイ、中国南部、台湾、トルクメニスタン、ネパール、パキスタン、バングラデシュ、ベトナム、マレーシア、ミャンマー、ラオス	あふがにすたん、いらん、いんど、いんどねしあ、かんぼじあ、たい、ちゅーごくなんぶ、たいわん、とるくめにすたん、ねぱーる、ぱきすたん、ばんぐらでしゅ、べとなむ、まれーしあ、みゃんまー、らおす	NO_LABEL
最大全長320cm。	さいだいぜんちょーさんびゃくにじゅうせんちめーとる。	NO_LABEL
体色は黒や褐色。	からだしょくわくろやかっしょく。	NO_LABEL
下半身や尾には不鮮明な横縞が入り、尾では網目状の斑紋になることもある。	かはんしんやおにわふせんめいなよこじまがはいり、おでわあみめじょーのはんもんになることもある。	NO_LABEL
眼は大型で、視覚は優れている。	めわおーがたで、しかくわすぐれている。	NO_LABEL
上下の唇にある鱗の間は黒い。	じょーげのくちびるにあるうろこのまわくろい。	NO_LABEL
草原や森林、農耕地等様々な環境に生息する。	そーげんやしんりん、のーこーちとーさまざまなかんきょーにせいそくする。	NO_LABEL
地表棲。	NO_PRONOUNCE	NO_LABEL
昼行性。	ちゅうこうせい。	NO_LABEL
外敵に襲われると素早く逃げる。	がいてきにおそわれるとすばやくにげる。	NO_LABEL
食性は動物食で両生類、爬虫類、鳥類、小型哺乳類等を食べる。	しょくせいわどーぶつしょくでりょーせいるい、はちゅーるい、ちょーるい、こがたほにゅーるいとーをたべる。	NO_LABEL
獲物は締め殺さず押さえつけて圧殺してから食べる。	えものわしめころさずおさえつけてあっさつしてからたべる。	NO_LABEL
繁殖形態は卵生で、1回に6-14個の卵を産む。	NO_PRONOUNCE	NO_LABEL
中国では食用とされることもある。	ちゅーごくでわしょくよーとされることもある。	NO_LABEL
調理法としては唐揚げ等がある。	ちょーりほーとしてわからあげとーがある。	NO_LABEL
食用の乱獲のため生息数は激減している。	しょくよーのらんかくのためせいそくすーわげきげんしている。	NO_LABEL
ペットとして飼育されることもあり、日本にも輸入されている。	ぺっととしてしいくされることもあり、にっぽんにもゆにゅーされている。	NO_LABEL
主に野生個体が流通し、生息地では保護されているため流通量は少ない。	おもにやせいこたいがりゅーつーし、せいそくちでわほごされているためりゅーつーりょうわすくない。	NO_LABEL
性質は神経質で環境の変化に弱く、飼育は難しい。	せいしつわしんけいしつでかんきょーのへんかによわく、しいくわむずかしい。	NO_LABEL
