マイケル・ブーブレは、カナダ・ブリティッシュコロンビア州バーナビー生まれの歌手、俳優。	NO_PRONOUNCE	NO_LABEL
本名はマイケル・スティーヴン・ブーブレ。	NO_PRONOUNCE	NO_LABEL
母方の祖父がイタリア出身のため、イタリアの市民権も持っている。	ははかたのそふがいたりあしゅっしんのため、いたりあのしみんけんももっている。	NO_LABEL
妹は女優のクリスタル・ブーブレ。	NO_PRONOUNCE	NO_LABEL
祖父の影響で、幼少の頃からスタンダード曲を聴いて育つ。	そふのえいきょーで、よーしょーのころからすたんだーどきょくをきいてそだつ。	NO_LABEL
父の鮭漁などを手伝いながらカナダで芸能活動を展開。	ちちのさけりょーなどをてつだいながらかなだでげいのーかつどーをてんかい。	NO_LABEL
10年以上の下積みの末、当時のカナダ首相ブライアン・マルルーニーの令嬢の結婚式で歌う機会を得る。	じゅうねんいじょーのしたずみのすえ、とーじのかなだしゅしょーぶらいあんまるるーにーのれいじょーのけっこんしきでうたうきかいをえる。	NO_LABEL
その時に歌った「マック・ザ・ナイフ」を、式に出席していたプロデューサーデイヴィット・フォスターが見て、「唯一無二の声!」と絶賛。	NO_PRONOUNCE	NO_LABEL
この運命的な出会いがきっかけになり、2003年に自身の名を冠したデビューアルバム『"Michael Bublé"』を発売、カナダ、イギリス、オーストラリアのチャートでTOP10入りを記録する。	NO_PRONOUNCE	NO_LABEL
結果的にこのアルバムは全世界で400万枚を売り上げ、12ヶ国でプラチナ・ディスク、3ヶ国でゴールド・ディスクを獲得することとなる。	NO_PRONOUNCE	NO_LABEL
2003年からブーブレは、音楽ディレクター兼ピアニストである当時23歳のアラン・チャン（Alan Chang)と出会いその後の音楽活動を共にしている。	NO_PRONOUNCE	NO_LABEL
二人は、世界各国を回りTVやラジオなどに出演している。	ふたりわ、せかいかっこくをまわりてぃーぶいやらじおなどにしゅつえんしている。	NO_LABEL
ちなみにチャンは、ブーブレの専属音楽ディレクター兼ピアニストを決めるオーディションに応募し、合格して専属ディレクターになった。	ちなみにちゃんわ、ぶーぶれのせんぞくおんがくでぃれくたーけんぴあにすとをきめるおーでぃしょんにおーぼし、ごーかくしてせんぞくでぃれくたーになった。	NO_LABEL
二人の共同作業の主な曲は、"Haven't Met You Yet”、"Home" 、"Cold December Night"などがある。	NO_PRONOUNCE	NO_LABEL
2004年、カナダのジュノー賞で最優秀新人賞を獲得。	にせんよねん、かなだのじゅのーしょーでさいゆーしゅーしんじんしょーをかくとく。	NO_LABEL
同年夏には『スパイダーマン2』のエンディング・テーマを担当する。	NO_PRONOUNCE	NO_LABEL
2005年にリリースした2ndアルバム『"IT'S TIME"』はアメリカでもヒットし、同アルバムからのシングル『"Home"』がビルボード誌のアダルト・コンテンポラリー・チャート・ナンバー1を獲得したのをはじめ、全世界の売上枚数が450万枚を突破、2006年のジュノー賞では最多4部門を受賞した。	NO_PRONOUNCE	NO_LABEL
今作、ライブCD・DVD『"Caught In The Act"』が、2年連続でグラミー賞にもノミネートされている。	NO_PRONOUNCE	NO_LABEL
私生活では、90年代の後半から付き合っていたカナダ人女優のDebbie Timussとこの年に別れている。	NO_PRONOUNCE	NO_LABEL
二人は、ミュージカル「Red Rock Diner and Forever Swing」(1996年）と「Dean Regan's Forever Swing」での共演をきっかけに交際を開始した。	NO_PRONOUNCE	NO_LABEL
デビーは、ブーブレのアルバム「It's Time」でバックコーラスを担当した。	NO_PRONOUNCE	NO_LABEL
「Home」は、ブーブレがイタリアに滞在していた時に共同作業者と共にデビーの為に書き上げた曲でデビーは「Home」のミュージックビデオに出演している。	NO_PRONOUNCE	NO_LABEL
デビーと婚約までしたが2005年の11月に別れてしまった。	でびーとこんやくまでしたがにせんごねんのじゅーいちがつにわかれてしまった。	NO_LABEL
この恋愛は、後にブーブレが「Lost」を作るきっかけになった。	NO_PRONOUNCE	NO_LABEL
2007年、3rdアルバム『"Call Me Irresponsible"』発売。	NO_PRONOUNCE	NO_LABEL
アメリカ、カナダ、ドイツ、オランダ、南アフリカ、オーストラリアの6ヶ国で初登場1位を獲得、売上枚数1200万枚を突破。	NO_PRONOUNCE	NO_LABEL
日本でも同年7月25日に発売された。	にっぽんでもどーねんしちがつにじゅうごにちにはつばいされた。	NO_LABEL
2008年、映画『プラダを着た悪魔』に出演したエミリー・ブラントと、2005年から2008年7月まで3年間交際。	NO_PRONOUNCE	NO_LABEL
エミリー・ブラントは、ブーブレの歌うMe And Mrs. Jonesのバックグラウンドコーラスを勤めた。	NO_PRONOUNCE	NO_LABEL
そして、ブーブレが作詞した「Everything」は、エミリー・ブラントの為に書いたものであった。	NO_PRONOUNCE	NO_LABEL
二人は、婚約をしていたがブーブレの浮気により婚約を解消し別れた。	ふたりわ、こんやくをしていたがぶーぶれのうわきによりこんやくをかいしょーしわかれた。	NO_LABEL
ブーブレは、この別れが彼にとって人生でベストでもワーストでもあり、あまりのショックにしばらくの間、セラピーを受けていた事やお互い若くて、ナイーブで愚かな間違いばかりしていた事、不安から沢山の間違いを犯したと数々のインタビューで語っている。	ぶーぶれわ、このわかれがかれにとってじんせいでべすとでもわーすとでもあり、あまりのしょっくにしばらくのま、せらぴーをうけていたことやおたがいわかくて、ないーぶでおろかなまちがいばかりしていたこと、ふあんからたくさんのまちがいをおかしたとかずかずのいんたびゅーでかたっている。	NO_LABEL
エミリー・ブラントは2010年に俳優のジョン・クラシンスキーと結婚をし、ブーブレはこの3ヵ月後に現在の妻であるアルゼンチンの人気女優でモデルのルイサナ・ラピラトと出合った。	NO_PRONOUNCE	NO_LABEL
2009年、4thアルバム『Crazy Love』は、発売と同時にアメリカ、カナダ、オーストラリア、アイルランド、イギリスはじめ世界各国でチャート1位を獲得。	NO_PRONOUNCE	NO_LABEL
発売2ヶ月で400万枚を突破し今尚その売上を伸ばし続けている。	NO_PRONOUNCE	NO_LABEL
ブーブレは、カナダのトークショー「George Stroumboulopoulos Tonight」のインタビューでジョージ・ストロンボロポロスにルイサナ・ラピラトとの出会いは、エミリー・ブラントと別れた3ヵ月後でちょうど別れた痛みが癒えていない時であったと公言している。	NO_PRONOUNCE	NO_LABEL
ブーブレは、アルゼンチン公演の後にあった打ち上げのホテルのドライブウェイに祖父と一緒にいた時に40フィート先に綺麗な女性を目撃した。	NO_PRONOUNCE	NO_LABEL
ブーブレは、祖父に「今までの人生で見た事もない美女を今見た」と祖父に言うと祖父は見過ごしたと言う。	NO_PRONOUNCE	NO_LABEL
その女性を見た瞬間、心に衝撃がはしり、ブーブレは祖父に「もう彼女には二度と会えないかもしれない」と言った。	NO_PRONOUNCE	NO_LABEL
打ち上げの会場にあるバーでお酒を飲んでいるとアルゼンチンのある音楽プロデューサーがブーブレに「アルゼンチンで有名な俳優と女優に会ってみませんか？」と誘い、連れて行かれた部屋にはドライブウェイで見かけた美女がブラッド・ピットをマッチョにしたような俳優と腕を組んで出てきたという。	NO_PRONOUNCE	NO_LABEL
それを見て二人がカップルだと思い、あきらめかけた時に二人がカップルではない事が分かり猛烈なアタックが始まった。	それをみてふたりがかっぷるだとおもい、あきらめかけたときにふたりがかっぷるでわないことがわかりもーれつなあたっくがはじまった。	NO_LABEL
ブーブレは翌日彼女と一緒にいた時に「俺は、君と結婚する。	NO_PRONOUNCE	NO_LABEL
ここに戻ってきて君と結婚するから」とラピラトに告げたという。	NO_PRONOUNCE	NO_LABEL
ラピラトの答えは「皆、私と結婚したいっていうのよね～」と言ったという。	NO_PRONOUNCE	NO_LABEL
この恋愛をきっかけにブーブレは、ヒット曲「素顔のきみに」を書き上げミュージック・ビデオでラピラトを起用し、共演している。	NO_PRONOUNCE	NO_LABEL
二人は、この年の11月に婚約をして、2011年の3月にアルゼンチンで結婚をした。	ふたりわ、このとしのじゅーいちがつにこんやくをして、にせんじゅういちねんのさんがつにあるぜんちんでけっこんをした。	NO_LABEL
2010年、第52回グラミー賞において「Michael Bublé Meets Madison Square Garden」が、ベスト・トラディショナル・ポップ・ボーカル・アルバムを受賞。	NO_PRONOUNCE	NO_LABEL
2010年2月28日、バンクーバーオリンピックの閉会式では、地元が生んだ世界的スターとして、カナダの準国歌とも言える愛国歌「ザ・メイプル・リーフ・フォーエヴァー」を15分に渡りパフォーマンス。	NO_PRONOUNCE	NO_LABEL
王立カナダ騎馬警察、アイスホッケー選手、カヌーなどのカナダの象徴的な名物が紹介される中で、カナダの象徴的歌手として歌い上げた。	おーりつかなだきばけいさつ、あいすほっけーせんしゅ、かぬーなどのかなだのしょーちょーてきなめいぶつがしょーかいされるなかで、かなだのしょーちょーてきかしゅとしてうたいあげた。	NO_LABEL
2010年3月より、アメリカ、カナダ、ヨーロッパなどを周る大規模なワールドツアーを実施。	にせんじゅうねんさんがつより、あめりか、かなだ、よーろっぱなどをしゅーるだいきぼなわーるどつあーをじっし。	NO_LABEL
のべ動員数は約100万人近くともいわれる。	のべどーいんすーわやくひゃくまんにんちかくともいわれる。	NO_LABEL
