アリソン・ヘイズは、アメリカ合衆国の女優である。	ありそんへいずわ、あめりかがっしゅーこくのじょゆーである。	NO_LABEL
1930年、ウェストバージニア州のチャールストンに生まれる。	せんきゅうひゃくさんじゅうねん、うぇすとばーじにあしゅーのちゃーるすとんにうまれる。	NO_LABEL
アイルランドとフランス系の家系だった。	あいるらんどとふらんすけいのかけいだった。	NO_LABEL
地元の高校を卒業後、ワシントン州にあるカトリック系の大学へ進学。	じもとのこーこーをそつぎょーご、わしんとんしゅーにあるかとりっくけいのだいがくえしんがく。	NO_LABEL
1949年にはその容姿の良さから、ワシントンで開催されたミスコン『Miss District of Columbia』へも選出されている。	NO_PRONOUNCE	NO_LABEL
1954年に『Francis Joins the WACS』というコメディ映画で映画デビュー。	NO_PRONOUNCE	NO_LABEL
同年に『異教徒の旗印』へも出演し、ジャック・パランスらと共演を果たした。	NO_PRONOUNCE	NO_LABEL
その後も、出演作品を増やしキャリアを構築。	そのごも、しゅつえんさくひんをふやしきゃりあをこーちく。	NO_LABEL
1950年代後半にはB級映画などへも出演しており、中でも『妖怪巨大女』ではそのタイトルロールを好演。	NO_PRONOUNCE	NO_LABEL
地球外生命体に遭遇してしまったがために身体が巨大化する主人公を喜々として演じている。	ちきゅーがいせいめいたいにそーぐーしてしまったがためにしんたいがきょだいかするしゅじんこーをききとしてえんじている。	NO_LABEL
同作品は興行的にも成功を収め、ポスター画家のレイノルド・ブラウンによる劇中の巨大化したヘイズが車を片手で持ちあげる姿が描かれた同作品の劇場用オリジナルポスターも様々な作品でパロディ化されるなどしている。	NO_PRONOUNCE	NO_LABEL
映画以外でもテレビシリーズ等への出演作品も多く、生涯を通して女優としてのキャリアを全うした。	えいがいがいでもてれびしりーずとーえのしゅつえんさくひんもおーく、しょーがいをとーしてじょゆーとしてのきゃりあをまっとーした。	NO_LABEL
1970年代中盤に白血病を患い、1977年2月27日にサンディエゴにある病院で死去した。	せんきゅうひゃくななじゅうねんだいちゅーばんにはっけつびょーをわずらい、せんきゅうひゃくななじゅうななねんにがつにじゅうしちにちにさんでぃえごにあるびょーいんでしきょした。	NO_LABEL
但し、死因に関しては病気の痛みから薬を過剰摂取したための自殺によるものという見方もある。	ただし、しいんにかんしてわびょーきのいたみからくすりをかじょーせっしゅしたためのじさつによるものとゆうみかたもある。	NO_LABEL
