レーナ・メラースは、ドイツの女子バレーボール選手。	れーなめらーすわ、どいつのじょしばれーぼーるせんしゅ。	NO_LABEL
ポジションはセッター。	ぽじしょんわせったー。	NO_LABEL
ドイツ代表。	どいつだいひょー。	NO_LABEL
2004年にTub Bocholtからバレーボール選手としてのキャリアを開始する。	NO_PRONOUNCE	NO_LABEL
2007年に行われたジュニアヨーロッパ選手権で金メダルを獲得した。	にせんななねんにおこなわれたじゅにあよーろっぱせんしゅけんできんめだるをかくとくした。	NO_LABEL
2008年、シニアのドイツ代表に初選出される。	にせんはちねん、しにあのどいつだいひょーにはつせんしゅつされる。	NO_LABEL
同年のワールドグランプリで代表デビューした。	どーねんのわーるどぐらんぷりでだいひょーでびゅーした。	NO_LABEL
2009/10シーズンにドイツ・ブンデスリーガにて優勝を果たした。	NO_PRONOUNCE	NO_LABEL
2012年、代表復帰し、ワールドグランプリでは7位に入った。	にせんじゅうにねん、だいひょーふっきし、わーるどぐらんぷりでわなないにはいった。	NO_LABEL
