大西 京子は日本のパズル作家。	おーにしきょーこわにっぽんのぱずるさっか。	NO_LABEL
覆面算の問題を多く作った。	ふくめんざんのもんだいをおーくつくった。	NO_LABEL
1924年、京城で生まれる。	せんきゅうひゃくにじゅうよねん、けいじょーでうまれる	NO_LABEL
名前の「京」は京城に由来している。	NO_PRONOUNCE	NO_LABEL
幼少期から学生時代を奉天市で過ごし、高校卒業後に洋裁の専門学校に入学する。	よーしょーきからがくせいじだいをほーてんしですごし、こーこーそつぎょーごによーさいのせんもんがっこーににゅーがくする。	NO_LABEL
1946年、日本に戻る。	せんきゅうひゃくよんじゅうろくね、にっぽんにもどる。	NO_LABEL
1970年代に「パズル数学入門」を読んで自作の覆面算を送ったことから田村と知り合い、田村の紹介で複数のパズル団体に入会する。	NO_PRONOUNCE	NO_LABEL
作品の発表場所と愛好家たちとの交流を得て大西は多くの作品を発表する。	さくひんのはっぴょーばしょとあいこーかたちとのこーりゅーをえておーにしわおーくのさくひんをはっぴょーする。	NO_LABEL
愛好家の中でも丸尾学との交流はかなり大西に影響を与えたとされる。	あいこーかのなかでもまるおまなぶとのこーりゅーわかなりおーにしにえいきょーをあたえたとされる。	NO_LABEL
1989年、肝臓癌で死去。	せんきゅうひゃくはちじゅうきゅうねん、かんぞーがんでしきょ。	NO_LABEL
没後に作品集『京子のパズル』が出版されている。	NO_PRONOUNCE	NO_LABEL
大西の作品の多くは覆面算である。	おーにしのさくひんのおーくわふくめんざんである。	NO_LABEL
他に裁ち合わせや文字陣も多く作っている。	たにたちあわせやもじじんもおーくつくっている。	NO_LABEL
少数ながら虫食い算やカックロの作例もある。	しょーすーながらむしくいさんやかっくろのさくれいもある。	NO_LABEL
作品の多くは所属していた「数芸パズル愛好会」と「関西ぱずる会」の会報に掲載された。	NO_PRONOUNCE	NO_LABEL
また、詰将棋パラダイス誌やパズル通信ニコリ誌の虫食算のコーナーでも問題を発表した。	また、つめしょーぎぱらだいすしやぱずるつーしんにこりしのむしくいさんのこーなーでももんだいをはっぴょーした。	NO_LABEL
会報に掲載された問題の中には他の会員によって他の媒体で紹介された問題もある。	かいほーにけいさいされたもんだいのなかにわたのかいいんによってたのばいたいでしょーかいされたもんだいもある。	NO_LABEL
大西の作品として、以下のようなものが知られている。	おーにしのさくひんとして、いかのよーなものがしられている。	NO_LABEL
