王 克敏は中華民国の政治家、銀行家、外交官。	おーかつとしわちゅーかみんこくのせいじか、ぎんこーか、がいこーかん。	NO_LABEL
北京政府、国民政府の政治家で、後に中華民国臨時政府の首脳となる。	ぺきんせいふ、こくみんせいふのせいじかで、のちにちゅーかみんこくりんじせいふのしゅのーとなる。	NO_LABEL
さらに汪兆銘の南京国民政府にも参加した。	さらにおうちょーめいのなんきんこくみんせいふにもさんかした。	NO_LABEL
字は叔魯。	NO_PRONOUNCE	NO_LABEL
郷試に合格した後の1901年、清朝により日本に派遣される。	きょうしにごーかくしたのちのせんきゅうひゃくいちねん、せいちょーによりにっぽんにはけんされる。	NO_LABEL
そこで浙江留日官費生経理員、留日浙江学生監督、駐日公使館参賛を歴任した。	そこでせっこーりゅうにちかんぴせいけいりいん、りゅうにちせっこーがくせいかんとく、ちゅーにちこーしかんさんさんをれきにんした。	NO_LABEL
1906年、留日学生副監督に就任した。	せんきゅうひゃくろくねん、りゅうにちがくせいふくかんとくにしゅーにんした。	NO_LABEL
翌年に帰国し、度支部、外務部で勤務した。	よくねんにきこくし、どしぶ、がいむぶできんむした。	NO_LABEL
1908年、直隷総督楊士襄の下で外交事務を担当する。	せんきゅうひゃくはちねん、ちょくれいそーとくやなぎしじょーのしたでがいこーじむをたんとーする。	NO_LABEL
1910年、直隷交渉使に就任した。	せんきゅうひゃくじゅうねん、ちょくれいこーしょーしにしゅーにんした。	NO_LABEL
1913年、王克敏はフランスへ外遊して、帰国後に中法実業銀行董事に就任した。	せんきゅうひゃくじゅうさんねん、おーこくびんわふらんすえがいゆーして、きこくごにちゅーほーじつぎょーぎんこーとうじにしゅーにんした。	NO_LABEL
1917年7月、中国銀行総裁となる。	せんきゅうひゃくじゅうしちねんしちがつ、ちゅーごくぎんこーそーさいとなる。	NO_LABEL
同年11月、王士珍臨時内閣で財政総長となり、さらに中国銀行総裁と塩務署督弁も兼務した。	どーねんじゅーいちがつ、おーしちんりんじないかくでざいせいそーちょーとなり、さらにちゅーごくぎんこーそーさいとしおつとむしょとくべんもけんむした。	NO_LABEL
1918年に辞任する。	せんきゅうひゃくじゅうはちねんにじにんする。	NO_LABEL
同年12月の南北政府による和平善後会議では、北京政府側代表の1人となった。	どーねんじゅーにがつのなんぼくせいふによるわへいぜんごかいぎでわ、ぺきんせいふがわだいひょーのひとりとなった。	NO_LABEL
1920年以降は、中法実業銀行総裁、天津保商銀行総理、中国銀行総裁などを歴任した。	せんきゅうひゃくにじゅうねんいこーわ、ちゅーほーじつぎょーぎんこーそーさい、てんしんほしょーぎんこーそーり、ちゅーごくぎんこーそーさいなどをれきにんした。	NO_LABEL
1923年7月、王克敏は高凌霨内閣で財政総長に就任した。	NO_PRONOUNCE	NO_LABEL
ところが、奉天派指導者・張作霖の反発を受け、わずか1週間で辞任に追い込まれた。	NO_PRONOUNCE	NO_LABEL
10月には中国銀行総裁からも辞任している。	じゅーがつにわちゅーごくぎんこーそーさいからもじにんしている。	NO_LABEL
しかし、同月に直隷派の曹錕が総統となると状況は一転する。	NO_PRONOUNCE	NO_LABEL
かねてから曹と交遊があった王は、曹が総統にあった間の多くの内閣で財政総長として起用された。	かねてからそとこーゆーがあったおーわ、そがそーとーにあったまのおーくのないかくでざいせいそーちょーとしてきよーされた。	NO_LABEL
1924年10月の北京政変により曹錕が拘禁されると、王はいったんは失脚した。	NO_PRONOUNCE	NO_LABEL
しかし、まもなく公職に復帰し、かつての政敵であった張作霖の下でも任用されている。	しかし、まもなくこーしょくにふっきし、かつてのせいてきであったちょーさくりんのしたでもにんよーされている。	NO_LABEL
関税自主委員会委員などをつとめた。	かんぜいじしゅいーんかいいいんなどをつとめた。	NO_LABEL
1928年6月に、中国国民党の北伐軍が張作霖を破ると、王克敏も指名手配されたため、大連に逃げ込んだ。	せんきゅうひゃくにじゅうはちねんろくがつに、ちゅーごくこくみんとーのきたきぐんがちょーさくりんをやぶると、おーこくびんもしめいてはいされたため、たいれんににげこんだ。	NO_LABEL
その後、張学良の庇護を受けて、東北辺防軍司令長官公署参議兼財務処処長として任用された。	そのご、ちょーがくりょーのひごをうけて、とーほくあたりぼーぐんしれいちょーかんこーしょさんぎけんざいむしょしょちょーとしてにんよーされた。	NO_LABEL
また、張学良の仲介により、1929年11月には指名手配も解除されている。	また、ちょーがくりょーのちゅーかいにより、せんきゅうひゃくにじゅうきゅうねじゅーいちがつにわしめいてはいもかいじょされている。	NO_LABEL
1932年以降は、東北政務委員会委員、北平政務委員会財務整理委員会副委員長、行政院駐平政務整理員会財務処主任、華北戦区救済委員会常務委員、天津特別市市長、代理行政院駐平政務整理委員会委員長、冀察政務委員会委員、冀察政務委員会経済委員会主席を歴任した。	NO_PRONOUNCE	NO_LABEL
しかし1935年9月、日本との交渉が不調に終わったことなどが原因で辞職し、上海に隠棲した。	しかしせんきゅうひゃくさんじゅうごねんくがつ、にっぽんとのこーしょーがふちょーにおわったことなどがげんいんでじしょくし、しゃんはいにいんせいした。	NO_LABEL
日中戦争が勃発した後の1937年10月、王克敏は北支那方面軍特務部長喜多誠一の仲介で北平に迎え入れられた。	にっちゅーせんそーがぼっぱつしたのちのせんきゅうひゃくさんじゅうななねじゅーがつ、おーこくびんわきたしなほーめんぐんとくむぶちょーきたせいーちのちゅーかいできたひらにむかえいれられた。	NO_LABEL
そして、王揖唐らとともに、親日政権樹立作業を開始する。	そして、おーゆうとーらとともに、しんにちせいけんじゅりつさぎょーをかいしする。	NO_LABEL
同年12月14日、中華民国臨時政府が成立すると、王克敏は行政委員会委員長兼議政委員会常務委員兼行政部総長に就任し、事実上の最高首脳となった。	どーねんじゅーにがつじゅうよっか、ちゅーかみんこくりんじせいふがせいりつすると、おーこくびんわぎょーせいいーんかいいーんちょーけんぎせいいーんかいじょーむいいんけんぎょーせいぶそーちょーにしゅーにんし、じじつじょーのさいこーしゅのーとなった。	NO_LABEL
翌年、王克敏は、南京で中華民国維新政府を樹立していた梁鴻志と合流の交渉を開始する。	よくねん、おーこくびんわ、なんきんでちゅーかみんこくいしんせいふをじゅりつしていたりょーこうしとごーりゅーのこーしょーをかいしする。	NO_LABEL
同年9月22日に中華民国政府連合委員会が北平で設立され、これが臨時政府と維新政府の連合機関となった。	どーねんくがつにじゅうににちにちゅーかみんこくせいふれんごーいーんかいがきたひらでせつりつされ、これがりんじせいふといしんせいふのれんごーきかんとなった。	NO_LABEL
1939年6月、王克敏は汪兆銘と合流の交渉を開始し、妥結に至っている。	せんきゅうひゃくさんじゅうきゅうねんろくがつ、おーこくびんわおうちょーめいとごーりゅーのこーしょーをかいしし、だけつにいたっている。	NO_LABEL
1940年3月に南京国民政府が成立し、王克敏の臨時政府、梁鴻志の維新政府はこれに併合された。	せんきゅうひゃくよんじゅうねんさんがつになんきんこくみんせいふがせいりつし、おーこくびんのりんじせいふ、りょーこうしのいしんせいふわこれにへいごーされた。	NO_LABEL
南京国民政府の下では、臨時政府の旧統治地域を中心に華北政務委員会が成立し、王克敏が委員長兼内政総署督弁に任命されている。	なんきんこくみんせいふのしたでわ、りんじせいふのきゅーとーちちいきをちゅーしんにかほくせいむいーんかいがせいりつし、おーこくびんがいーんちょーけんないせいそーしょとくべんににんめいされている。	NO_LABEL
しかし、王は興亜院華北連絡部部長・森岡皐や汪兆銘と対立したため、同年6月に辞任に追い込まれた。	NO_PRONOUNCE	NO_LABEL
以後しばらく、王克敏は国民政府中央政治委員会委員のみの地位にあった。	いごしばらく、おーこくびんわこくみんせいふちゅーおーせいじいーんかいいいんのみのちいにあった。	NO_LABEL
しかし1943年6月、華北政務委員会委員長に再任された。	しかしせんきゅうひゃくよんじゅうさんねろくがつ、かほくせいむいーんかいいーんちょーにさいにんされた。	NO_LABEL
中央政治委員会当然委員・延聘委員、最高国防会議委員、全国経済委員会副委員長、物資調査委員会委員長なども歴任している。	NO_PRONOUNCE	NO_LABEL
1945年2月、病身のために、各職から辞任した。	せんきゅうひゃくよんじゅうごねんにがつ、びょーしんのために、かくしょくからじにんした。	NO_LABEL
日本敗北後の同年12月6日、王克敏は漢奸として北平で逮捕される。	にっぽんはいぼくごのどーねんじゅーにがつむいか、おーこくびんわかんかんとしてきたひらでたいほされる。	NO_LABEL
同月25日、王は獄中で死去した。	どーげつにじゅうごにち、おーわごくちゅーでしきょした。	NO_LABEL
享年73。	NO_PRONOUNCE	NO_LABEL
一般には自殺したとされるが、病死説も有力である。	いっぱんにわじさつしたとされるが、びょーしせつもゆーりょくである。	NO_LABEL
