フウライチョウチョウウオは、スズキ目チョウチョウウオ科に分類される魚類の一種。	ふうらいちょうちょううおわ、すずきもくちょうちょううおかにぶんるいされるぎょるいのいっしゅ。	NO_LABEL
種小名は「放浪」を意味し、このような行動に由来している。	NO_PRONOUNCE	NO_LABEL
和名は風来坊のことで、種小名にちなんで名づけられた。	わめいわふーらいぼーのことで、たねしょーみょーにちなんでなずけられた。	NO_LABEL
沖縄ではカーサーと呼ばれるが、本種だけでなく、チョウチョウウオ科全般を指している。	おきなわでわかーさーとよばれるが、もとだねだけでなく、ちょうちょううおかぜんぱんをさしている。	NO_LABEL
観賞魚としても古くから有名である。	かんしょーぎょとしてもふるくからゆーめいである。	NO_LABEL
体長約20cm。	たいちょーやくにじゅうせんちめーとる。	NO_LABEL
チョウチョウウオ科のなかでは大型。	ちょうちょううおかのなかでわおーがた。	NO_LABEL
和名の由来でもある成魚の背びれの後方が糸状に長く伸びる。	わめいのゆらいでもあるせいぎょのせびれのこーほーがいとじょーにながくのびる。	NO_LABEL
模様は、白地に直交する黒線、目を通る太い黒帯、背びれから尾にかけて黄色い。	もよーわ、しろじにちょっこーするくろせん、めをとーるふといくろおび、せびれからおにかけてきいろい。	NO_LABEL
背びれ後方にはしりびれに向かって黒帯がある。	せびれこーほーにはしりびれにむかってくろおびがある。	NO_LABEL
成魚は、尾には真ん中をとおる太い横黒帯がある。	せいぎょわ、おにわまんなかをとーるふといよこくろおびがある。	NO_LABEL
似ている種でニセフウライチョウチョウウオ・ヒメフウライチョウチョウウオ・トゲチョウチョウウオ・インディアンバガボンドバタフライフィッシュがいる。	NO_PRONOUNCE	NO_LABEL
見分け方は、本種は背びれから尾にかけての黄色い部分の面積が小さいこと、背びれ後方が糸状に伸びないこと、背びれ後方はが黒点ではなく黒帯状となっていること、成魚は尾の真ん中を通る横帯、1本黒帯がある。	みわけかたわ、もとだねわせびれからおにかけてのきいろいぶぶんのめんせきがちーさいこと、せびれこーほーがいとじょーにのびないこと、せびれこーほーわがこくてんでわなくくろおびじょーとなっていること、せいぎょわおのまんなかをとーるよこたい、いっぽんくろおびがある。	NO_LABEL
以上の特徴があれば、本種である。	いじょーのとくちょーがあれば、もとだねである。	NO_LABEL
ニセフウライチョウはまず、体がより大型で体形も丸い。	にせふうらいちょーわまず、からだがよりおーがたでたいけいもまるい。	NO_LABEL
体側の黒色線が横に並んでいるので一目で解かる。	たいそくのこくしょくせんがよこにならんでいるのでいちもくでかいかる。	NO_LABEL
また、こちらのほうが、カラフルである。	また、こちらのほーが、からふるである。	NO_LABEL
ヒメフウライチョウはどちらかというと、ニセフウライチョウのほうに似ている。	ひめふうらいちょうわどちらかというと、にせふうらいちょーのほーににている。	NO_LABEL
体形も模様の入り方もニセフウライチョウにそっくりだ。	たいけいももよーのはいりかたもにせふうらいちょーにそっくりだ。	NO_LABEL
ただ、違いは目をとおる黒帯が途中で途切れている。	ただ、ちがいわめをとーるくろおびがとちゅーでとぎれている。	NO_LABEL
体側の模様が非常に似ているのがトゲチョウである。	たいそくのもよーがひじょーににているのがとげちょーである。	NO_LABEL
実際、本種といっしょにいることが多いので、見分けがつかない場合もあるが、良く見ると黄色い所の面積が広い場合はトゲチョウ、狭いのが本種である。	じっさい、もとだねといっしょにいることがおーいので、みわけがつかないばあいもあるが、よくみるときいろいところのめんせきがひろいばあいわとげちょー、せまいのがもとだねである。	NO_LABEL
インディアンバガボンドバタフライフィッシュは和名インドフウライチョウチョウウオのことで、フウライチョウで黄色いところがこの種では、黒い。	いんでぃあんばがぼんどばたふらいふぃっしゅわわめいいんどふうらいちょうちょううおのことで、ふうらいちょーできいろいところがこのたねでわ、くろい。	NO_LABEL
尻びれと尾の付け根が黄色である。	しりびれとおのつけねがきいろである。	NO_LABEL
見分け方としては、フウライチョウの黒いカラーパターンと覚えると良い。	みわけかたとしてわ、ふうらいちょーのくろいからーぱたーんとおぼえるとよい。	NO_LABEL
インド原産である。	いんどげんさんである。	NO_LABEL
雑食で、藻類、サンゴのポリプ、甲殻類などを食べる。	ざっしょくで、そーるい、さんごのぽりぷ、こーかくるいなどをたべる。	NO_LABEL
意外と他種といることが多い。	いがいとたたねといることがおーい。	NO_LABEL
幼魚は、死滅回遊魚として有名。	よーぎょわ、しめつかいゆーぎょとしてゆーめい。	NO_LABEL
本州で見られるのはほとんどが幼魚である。	ほんしゅーでみられるのわほとんどがよーぎょである。	NO_LABEL
1月になるにつれ、見られなくなり、夏になるとまた黒潮に乗って本州沿岸でみられる。	いちがつになるにつれ、みられなくなり、なつになるとまたくろしおにのってほんしゅーえんがんでみられる。	NO_LABEL
本州ではおおきくても5cm以内の個体で、成長するにつれ、深いところに移動する。	ほんしゅーでわおーきくてもごせんちめーとるいないのこたいで、せいちょーするにつれ、ふかいところにいどーする。	NO_LABEL
磯溜まりや堤防などにトゲチョウといっしょにいることが多い。	いそたまりやていぼーなどにとげちょーといっしょにいることがおーい。	NO_LABEL
自家採集の定番種でもある。	じかさいしゅーのていばんしゅでもある。	NO_LABEL
危険を感じても、サンゴや岩の下などに逃げ込むより、泳ぎ去ることが多い。	きけんをかんじても、さんごやいわのしたなどににげこむより、およぎさることがおーい。	NO_LABEL
サンゴ礁を中心に、その周辺の転石帯や砂底、ガレ場、岩礁域、漁港などで見られる。	さんごしょーをちゅーしんに、そのしゅーへんのてんせきたいやすなそこ、がれじょー、がんしょーいき、ぎょこーなどでみられる。	NO_LABEL
生息域がかなり広いので、沖縄では普通種であり、どこでもいる。	せいそくいきがかなりひろいので、おきなわでわふつーしゅであり、どこでもいる。	NO_LABEL
場所に餌付けされているところでは、よくトゲチョウに混じって群れに入っているが気が強くたいていは単独かペアでいる。	ばしょにえずけされているところでわ、よくとげちょーにまじってむれにはいっているがきがつよくたいていわたんどくかぺあでいる。	NO_LABEL
紅海、西部太平洋	こーかい、せいぶたいへいよー	NO_LABEL
本種は古くから観賞魚として関わっている。	もとだねわふるくからかんしょーぎょとしてかかわっている。	NO_LABEL
安価で丈夫なため、アケボノチョウ、トゲチョウ、ミゾレチョウと並び、初心者でも手軽な種としてすすめられる。	あんかでじょーぶなため、あけぼのちょう、とげちょー、みぞれちょうとならび、しょしんしゃでもてがるなたねとしてすすめられる。	NO_LABEL
しかし、気が強く複数で飼育する場合本種はボス的な存在になりかねない。	しかし、きがつよくふくすーでしいくするばあいもとだねわぼすてきなそんざいになりかねない。	NO_LABEL
組合わせは、同じタイプの丈夫な種に限る。	くみあわせわ、おなじたいぷのじょーぶなたねにかぎる。	NO_LABEL
毎年、夏になると本州の太平洋側の沿岸や関東近郊の伊豆や房総にやってくる本種を自家採集家やダイバーを、楽しませる。	まいとし、なつになるとほんしゅーのたいへいよーがわのえんがんやかんとーきんこーのいずやぼーそーにやってくるもとだねをじかさいしゅーかやだいばーを、たのしませる。	NO_LABEL
比較的シンプルな色彩だが、チョウチョウウオの仲間のためか人気はある。	ひかくてきしんぷるなしきさいだが、ちょうちょううおのなかまのためかにんきわある。	NO_LABEL
採集では、「並チョウ」に次いで多く取れる。	NO_PRONOUNCE	NO_LABEL
たまに、釣りで極小バリにアミエビをつけて垂らすと釣れるが、沖縄の人はほとんど食べないので、釣れても捨てられるかリリースされている。	たまに、つりできょくしょーばりにあみえびをつけてたらすとつれるが、おきなわのひとわほとんどたべないので、つれてもすてられるかりりーすされている。	NO_LABEL
