『ゴジラVS柳田理科雄』とは、柳田理科雄の「SF科学」考察本である。	NO_PRONOUNCE	NO_LABEL
2004年12月4日初版発行。	にせんよねんじゅーにがつよっかしょはんはっこー。	NO_LABEL
当初は『ゴジラ FINAL WARS』に関する書き下ろし原稿に、筆者のこれまでの著書からゴジラをテーマとする原稿を集めた形として制作されたが、最終的に一部原稿を除き書き下ろしされることとなった。	NO_PRONOUNCE	NO_LABEL
東宝の全面協力により、ポスターや写真などの資料が豊富に掲載されている。	とーほーのぜんめんきょーりょくにより、ぽすたーやしゃしんなどのしりょーがほーふにけいさいされている。	NO_LABEL
