ACMソフトウェアシステム賞（）は、「概念面あるいは商業面、または両面における成功で長きに渡って影響を及ぼしたソフトウェアシステムを開発した」個人または団体を選定し毎年表彰する賞である。	NO_PRONOUNCE	NO_LABEL
Association for Computing Machineryが1983年に創設した。	NO_PRONOUNCE	NO_LABEL
IBMがスポンサーとなっており、2011年時点で3万5千ドルの副賞も授与される。	NO_PRONOUNCE	NO_LABEL
以下にACMソフトウェアシステム賞を受賞したソフトウェアと受賞者を示す。	NO_PRONOUNCE	NO_LABEL
