阿部 牧郎は、日本の小説家。	あべまきおわ、にっぽんのしょーせつか。	NO_LABEL
京都府出身、高校時代を父の出身地である秋田県花輪町で過ごした。	きょーとふしゅっしん、こーこーじだいをちちのしゅっしんちであるあきたけんはなわまちですごした。	NO_LABEL
父は東大卒の京都府職員。	ちちわとーだいそつのきょーとふしょくいん。	NO_LABEL
母の叔父に横山助成がいる。	ははのおじによこやますけなりがいる。	NO_LABEL
京都大学文学部フランス文学科卒。	きょーとだいがくぶんがくぶふらんすぶんがくかそつ。	NO_LABEL
サラリーマン生活の傍ら作家活動に入り、1968年に『蛸と精鋭』が候補になって以後69～71年にかけて7回直木賞候補になる。	NO_PRONOUNCE	NO_LABEL
1987年『それぞれの終楽章』で第98回直木賞受賞。	NO_PRONOUNCE	NO_LABEL
処女作から受賞作までの悪戦苦闘の足跡を綴った自伝的小説に『大阪迷走記』がある。	NO_PRONOUNCE	NO_LABEL
官能小説家として多くの作品があるが、野球に関する小説も多く、直木賞候補になった『失われた球譜』以後『狼たちの笑う日』や『ドンキホーテ軍団』、『焦土の野球連盟』などフィクション、ノンフィクションの区別なく秀作がある。	NO_PRONOUNCE	NO_LABEL
また、『危機の外相 東郷茂徳』、『英雄の魂 小説石原莞爾』、『豪胆の人 帝国陸軍参謀長・長勇伝』などの評伝小説も多い。	NO_PRONOUNCE	NO_LABEL
読売ジャイアンツの大ファンである。	よみうりじゃいあんつのだいふぁんである。	NO_LABEL
また競馬ファンでもあり、1976年の春の天皇賞が一番印象に残っているとNHK競馬中継でゲストで出演した時に語っていた。	またけいばふぁんでもあり、せんきゅうひゃくななじゅうろくねんのはるのてんのーしょーがいちばんいんしょーにのこっているとえぬえいちけいけいばちゅーけいでげすとでしゅつえんしたときにかたっていた。	NO_LABEL
音楽に造詣が深く、管弦楽曲、ピアノ曲などのクラシック作品が効果的な情景描写として使われることも多い。	おんがくにぞーけいがふかく、かんげんがくきょく、ぴあのきょくなどのくらしっくさくひんがこーかてきなじょーけいびょーしゃとしてつかわれることもおーい。	NO_LABEL
また50代になってから正規のレッスンによりオーボエ演奏を習得した。	またごじゅうだいになってからせいきのれっすんによりおーぼええんそーをしゅーとくした。	NO_LABEL
