『この大空に、翼をひろげて』は、PULLTOPより2012年5月25日に発売された美少女アドベンチャーゲームである。	NO_PRONOUNCE	NO_LABEL
英語による副題は"Extend the little wings which fly in this sky highly."。	NO_PRONOUNCE	NO_LABEL
略称は「ころげて」。	NO_PRONOUNCE	NO_LABEL
「萌えゲーアワード2012」GOLD大賞受賞作。	NO_PRONOUNCE	NO_LABEL
本項では、2013年1月25日発売のファンディスク『この大空に、翼をひろげて FLIGHT DIARY』、2014年7月25日発売のバラエティパック『この大空に、翼をひろげて SNOW PRESENTS』、5pb.Gamesより2016年3月31日に発売されたコンシューマー移植版『この大空に、翼をひろげて -CRUISE SIGN-』についても記述する。	NO_PRONOUNCE	NO_LABEL
工学系の学園のソアリング部を舞台に、グライダーで空を飛ぶ夢を追う主人公やヒロインの思い、仲間達との絆を描く物語である。	こーがくけいのがくえんのそありんぐぶをぶたいに、ぐらいだーでそらをとぶゆめをおうしゅじんこーやひろいんのおもい、なかまたちとのきずなをえがくものがたりである。	NO_LABEL
PULLTOPのブランド10周年記念作品。	ぷるとっぷのぶらんどじゅうしゅーねんきねんさくひん。	NO_LABEL
キャッチコピーは「好きになるって、こういうこと。	NO_PRONOUNCE	NO_LABEL
きっと。	きっと。	NO_LABEL
」で、ディレクターのYowによれば「誰かを・何かを好きになる」ことが作品のコンセプト。	NO_PRONOUNCE	NO_LABEL
作品構想の発端は「空と車椅子の少女」で、その車椅子の少女を空へ連れて行ってあげたい、という思いから。	NO_PRONOUNCE	NO_LABEL
また、動力を積まないピュアグライダーを題材にしたのは、とても自由で魅力的に感じたからだという。	また、どーりょくをつまないぴゅあぐらいだーをだいざいにしたのわ、とてもじゆーでみりょくてきにかんじたからだという。	NO_LABEL
2010年に発売された『恋神 -ラブカミ-』と同じく、八島タカヒロ、基井あゆむ、田口まことが原画を担当した。	NO_PRONOUNCE	NO_LABEL
グラフィックチーフを兼任した八島にとっては2作目の原画担当で、『恋神 -ラブカミ-』では既存のPULLTOPユーザーを意識したキャラクターデザインだったが、本作では“新しいPULLTOP”を前面に出すため、キャラの頭身を高くするなどデザインを一新した。	NO_PRONOUNCE	NO_LABEL
予約特典のアペンドディスク『Sweet Love パッチ』を追加インストールすると、各ヒロインルートクリア後に追加ストーリーが見られるようになる。	NO_PRONOUNCE	NO_LABEL
PULLTOP初のファンディスクとして企画・制作された。	NO_PRONOUNCE	NO_LABEL
「受け継がれる翼」をテーマにした、本編の小鳥ルートのアフターストーリー、天音ルートのアフター・ビフォアストーリー、本編のキャラクター人気投票でサブキャラクターながらも上位に入ったほたる・佳奈子をヒロインとしたifストーリー、風戸姉妹ルートのアフターショートストーリー、姫城姉妹とのifストーリー、『PUSH!!』2012年5〜7月号に掲載された紺野アスタ作のノベルをゲーム化したストーリーなどが収録されている。	NO_PRONOUNCE	NO_LABEL
ファンディスクについては、ディレクターのYowは「やれたらいいな」という程度の気持ちだったが、企画・シナリオ担当の紺野アスタが作る気満々だったという。	NO_PRONOUNCE	NO_LABEL
もともと紺野は本編制作時に「これで受け入れられなければ、今後はシナリオの書き方を変える」と玉砕覚悟で臨んでいたが、制作中からチーム内でのシナリオの評判が良く、その後公開された体験版の評判も良かったため、本編の発売直前にファンディスク制作が決定した。	NO_PRONOUNCE	NO_LABEL
萌えゲーアワード2013 ファンディスク賞・金賞を受賞した。	NO_PRONOUNCE	NO_LABEL
小鳥と碧の同棲生活を描いたミニアドベンチャー、ソアリング部の冬合宿を描いたドラマCD、マキシシングルサウンドトラックを収録するバラエティパック。	ことりとへきのどーせいせいかつをえがいたみにあどべんちゃー、そありんぐぶのふゆがっしゅくをえがいたどらましーでぃー、まきししんぐるさうんどとらっくをしゅーろくするばらえてぃぱっく。	NO_LABEL
小鳥の3Dモデリングアニメーションや音声のバイノーラル録音など、臨場感を高める演出がなされている。	ことりのすりーでぃーもでりんぐあにめーしょんやおんせいのばいのーらるろくおんなど、りんじょーかんをたかめるえんしゅつがなされている。	NO_LABEL
萌えゲーアワード2014 金賞・3D賞を受賞し、3年連続3作続けての受賞となった。	NO_PRONOUNCE	NO_LABEL
PlayStation 3/PlayStation Vita用のコンシューマー移植版。	NO_PRONOUNCE	NO_LABEL
本編とファンディスクの内容に加えて、朱莉をヒロインとした追加シナリオ、青SHUN学園による新オープニングテーマなどを収録する。	ほんぺんとふぁんでぃすくのないよーにくわえて、あかりをひろいんとしたついかしなりお、せいしゅんがくえんによるしんおーぷにんぐてーまなどをしゅーろくする。	NO_LABEL
2012年12月14日に発表された「萌えゲーアワード2012」にて、GOLD大賞およびシナリオ賞・キャラクターデザイン賞・BGM賞の各部門で金賞を受賞した。	NO_PRONOUNCE	NO_LABEL
PULLTOPは美少女ゲームアワード時代の2007年度にも『遥かに仰ぎ、麗しの』で大賞を受賞しており、アワード初の同一ブランド2度目の大賞となった。	NO_PRONOUNCE	NO_LABEL
2014年4月25日に発表された「萌えゲーアワード2013」にて、ファンディスク賞部門の金賞を受賞した。	NO_PRONOUNCE	NO_LABEL
BugBug編集長の大澤は、本編でサブキャラクターだった姫城ほたると時雨佳奈子のヒロイン昇格、本編に続くアフター・ビフォアストーリーの収録などを作品の特徴として挙げ、「コンテンツが超充実で、これぞファンディスクという仕上がり」と評している。	NO_PRONOUNCE	NO_LABEL
水瀬碧は、故郷・風ヶ浦の街へ5年ぶりに帰ってきたが、母親の差し金で「トビウオ荘」こと恵風学園女子寮の寮母をすることになってしまう。	NO_PRONOUNCE	NO_LABEL
自分の目指す路を見失っていた碧だったが、帰って早々の車椅子の少女・小鳥との出会い、転入した恵風学園での幼なじみ・あげはとの再会、そして先輩・天音がたった1人でグライダーを作るソアリング部との関わりをきっかけに、新しい夢に向かって走り始める。	NO_PRONOUNCE	NO_LABEL
※各キャラクターの学年表記は、本編第1部→第2部。	NO_PRONOUNCE	NO_LABEL
ソアリング部は、学園裏庭にあるガレージで活動している。	そありんぐぶわ、がくえんうらにわにあるがれーじでかつどーしている。	NO_LABEL
グライダーを作り、上昇気流に乗せて滑翔させることが活動目的。	ぐらいだーをつくり、じょーしょーきりゅーにのせてかっしょーさせることがかつどーもくてき。	NO_LABEL
長い伝統のある部だが過去に一度廃部になっており、残されていたガレージやグライダーを天音達の代が発見して、活動を再開した。	ながいでんとーのあるぶだがかこにいちどはいぶになっており、のこされていたがれーじやぐらいだーをあまねたちのだいがはっけんして、かつどーをさいかいした。	NO_LABEL
その後は天音1人だけで細々と続けていたため再び廃部の危機だったが、碧達が入部して大きな転機を迎えることになる。	そのごわあまねひとりだけでこまごまとつずけていたためふたたびはいぶのききだったが、へきたちがにゅーぶしておーきなてんきをむかえることになる。	NO_LABEL
※初回限定版同梱特典のサウンドトラック『Perfect Wing』には、両曲のショートバージョンとBGMが収録。	NO_PRONOUNCE	NO_LABEL
別売のマキシシングルCD『Perfect Sky/Precious Wing』に、両曲のフルバージョン／インストゥルメンタルが収録されている。	NO_PRONOUNCE	NO_LABEL
