セルゲイ・アクサーコフ- 1859年4月30日）は、ロシアの小説家。	NO_PRONOUNCE	NO_LABEL
子供は評論家、詩人、スラブ主義者のコンスタンティン・アクサーコフとイヴァン・アクサーコフである。	NO_PRONOUNCE	NO_LABEL
1791年、バシコルトスタン共和国のウファに生まれ、カザン大学中退後、サンクトペテルブルク、モスクワに移る。	せんななひゃくきゅうじゅういちねん、ばしこるとすたんきょーわこくのうふぁにうまれ、かざんだいがくちゅーたいご、さんくとぺてるぶるく、もすくわにうつる。	NO_LABEL
1843年以降にニコライ・ゴーゴリ、イワン・ツルゲーネフをはじめ、作家や俳優と親交を深めるが、1859年にモスクワにて亡くなる。	せんはっぴゃくよんじゅうさんねんいこーににこらいごーごり、いわんつるげーねふをはじめ、さっかやはいゆーとしんこーをふかめるが、せんはっぴゃくごじゅうきゅうねんにもすくわにてなくなる。	NO_LABEL
代表作は1856年に著した『家族の記録』である。	NO_PRONOUNCE	NO_LABEL
