サドウスキーは、アメリカ合衆国のニューヨーク市クイーンズにある楽器企画製造・販売会社。	NO_PRONOUNCE	NO_LABEL
企画や営業などに携わる従業員は10名以下の小規模企業である。	NO_PRONOUNCE	NO_LABEL
ベースやギター、プリアンプ、弦、パーツ類などを扱う自社名を冠したプライベートブランドを展開している。	べーすやぎたー、ぷりあんぷ、つる、ぱーつるいなどをあつかうじしゃめいをかんしたぷらいべーとぶらんどをてんかいしている。	NO_LABEL
1979年にロジャー・サドウスキーがリペアショップとして創業。	NO_PRONOUNCE	NO_LABEL
当初はリペアショップとしてニューヨークでマーカス・ミラーなどを代表する顧客のベースを改造したり修理するのが専門であった。	とーしょわりぺあしょっぷとしてにゅーよーくでまーかすみらーなどをだいひょーするこきゃくのべーすをかいぞーしたりしゅーりするのがせんもんであった。	NO_LABEL
その後、シェクターやトム・アンダーソン、ワーモスなどに発注してベースギターやエレキギターの販売も始めた。	そのご、しぇくたーやとむあんだーそん、わーもすなどにはっちゅーしてべーすぎたーやえれきぎたーのはんばいもはじめた。	NO_LABEL
サドウスキーはリペアショップであったのもあり、創業当初からセットアップやモディファイに重きを置き、組み込みを除く木工や木材加工などの製造は全て外注である。	さどうすきーわりぺあしょっぷであったのもあり、そーぎょーとーしょからせっとあっぷやもでぃふぁいにおもきをおき、くみこみをのぞくもっこーやもくざいかこーなどのせいぞーわすべてがいちゅーである。	NO_LABEL
また、各部品自体も弦はリチャードココ、ピックアップはディマジオや、セイモア・ダンカン、ノードストランド、ローラーといった一流メーカーに特注品を発注する拘りもある。	また、かくぶひんじたいもつるわりちゃーどここ、ぴっくあっぷわでぃまじおや、せいもあだんかん、のーどすとらんど、ろーらーといったいちりゅーめーかーにとくちゅーひんをはっちゅーするかかわりもある。	NO_LABEL
また塗装は楽器専門の塗装会社のウィルキンズ・ギター・フィニッシュに委託している。	NO_PRONOUNCE	NO_LABEL
以下は主な製品。	いかわおもなせいひん。	NO_LABEL
本社で企画と組み込みまで行うベースギターとエレキギター、エレキナイロンギターのカスタムオーダー。	ほんしゃできかくとくみこみまでおこなうべーすぎたーとえれきぎたー、えれきないろんぎたーのかすたむおーだー。	NO_LABEL
ベースギターは34インチのスケール長であり、現在のモデルではそれ以外のスケールでは提供されていない。	べーすぎたーわさんじゅうよんいんちのすけーるちょーであり、げんざいのもでるでわそれいがいのすけーるでわていきょーされていない。	NO_LABEL
基本は受注生産であるが自社の店舗で完成品も販売している。	きほんわじゅちゅーせいさんであるがじしゃのてんぽでかんせいひんもはんばいしている。	NO_LABEL
ギターのシェイプはディンキーやテレキャスターのコピーモデルを採用している。	ぎたーのしぇいぷわでぃんきーやてれきゃすたーのこぴーもでるをさいよーしている。	NO_LABEL
ピックアップはロジャー・サドウスキーがディマジオに特注したピックアップを標準仕様としているが、顧客の希望によってセイモア・ダンカンやノードストランド、ローラーなどのメーカーの製品にすることも出来る。	NO_PRONOUNCE	NO_LABEL
サドウスキーの低コストパフォーマンスモデルである。	さどうすきーのていこすとぱふぉーまんすもでるである。	NO_LABEL
日本で制作する。	にっぽんでせいさくする。	NO_LABEL
サドウスキーのホームページの比較表によると、NYCとMetroLineの相違点は、ボディー加工がチャンバーなのか、ソリッドなのか、ハードウェアの素材、ボディーのトップくらいである。	NO_PRONOUNCE	NO_LABEL
ネックの補強ロッドは、NYCもMetroLineも同じく二つのグラファイト棒が入っている。	NO_PRONOUNCE	NO_LABEL
オカダインターナショナルが仲介の元、愛知県の寺田楽器に外注で製造し、自社でセットアップするアーチトップギターシリーズ。	おかだいんたーなしょなるがちゅーかいのもと、あいちけんのてらだがっきにがいちゅーでせいぞーし、じしゃでせっとあっぷするあーちとっぷぎたーしりーず。	NO_LABEL
ピックアップはディマジオ製の特注品。	ぴっくあっぷわでぃまじおせいのとくちゅーひん。	NO_LABEL
現在入手可能な5つのモデルには、ジム・ホールモデル、ジミー・ブルーノモデル、セミホローモデル、LS-17とSS-15などが存在する。	NO_PRONOUNCE	NO_LABEL
同社のアーチトップギターは多くのジャズ系のギタリストが演奏し、エンドースされている。	どーしゃのあーちとっぷぎたーわおーくのじゃずけいのぎたりすとがえんそーし、えんどーすされている。	NO_LABEL
また、同社はエレキギターのみならず、エレクトリック・ナイロン・ストリングスギターも製作しており、代表的な愛用者にはリー・リトナーがおり、同社のホームページでもフィーチャーされている。	NO_PRONOUNCE	NO_LABEL
多くの著名ベーシストにも愛用されている。	おーくのちょめいべーしすとにもあいよーされている。	NO_LABEL
サドウスキー・メトロラインはサドウスキーの代理店のオカダインターナショナルが1997年から国内向けに展開しているプライベートブランド。	NO_PRONOUNCE	NO_LABEL
資本関係はないが、元従業員の菊地嘉幸が社員として勤めていることから、名前の使用を認可されているコピーブランド。	しほんかんけいわないが、もとじゅーぎょーいんのきくちよしゆきがしゃいんとしてつとめていることから、なまえのしよーをにんかされているこぴーぶらんど。	NO_LABEL
製造は長野県のRedHouseやT's Guitarsなど。	NO_PRONOUNCE	NO_LABEL
SuhrやEMGといったブランドの代理店であるため、それらのピックアップを取り付けることでコストダウンを図っている。	NO_PRONOUNCE	NO_LABEL
設立当初はSadowsky TokyoやSadowsky TYOと名乗っていた。	NO_PRONOUNCE	NO_LABEL
