久田 宗也は、茶道表千家流久田家十二世家元。	ひさたしゅうやわ、さどーおもてせんけりゅーきゅーでんかじゅーにせいいえもと。	NO_LABEL
京都市生まれ。	きょーとしうまれ。	NO_LABEL
本名は和彦、号は半床庵・尋牛斎。	NO_PRONOUNCE	NO_LABEL
十一世無適斎宗也の長男。	NO_PRONOUNCE	NO_LABEL
京都大学文学部史学科史学科卒。	きょーとだいがくぶんがくぶしがっかしがっかそつ。	NO_LABEL
十三世即中斎千宗左に師事。	じゅーさんぜそくなかさいせんそうさにしじ。	NO_LABEL
