チャールズ・エバレット・ティルソンは、アメリカ合衆国・イリノイ州クック郡出身のプロ野球選手。	NO_PRONOUNCE	NO_LABEL
左投左打。	ひだりなげひだりうち。	NO_LABEL
MLB・シカゴ・ホワイトソックス所属。	NO_PRONOUNCE	NO_LABEL
のMLBドラフト2巡目でセントルイス・カージナルスから指名され、プロ入り。	NO_PRONOUNCE	NO_LABEL
契約後、傘下のルーキー級ガルフ・コーストリーグ・カージナルスでプロデビュー。	NO_PRONOUNCE	NO_LABEL
アパラチアンリーグのルーキー級でもプレーし、2球団合計で8試合に出場して打率.333・5打点・1盗塁の成績を残した。	NO_PRONOUNCE	NO_LABEL
は右肩の手術のため、全休した。	わみぎかたのしゅじゅつのため、ぜんきゅーした。	NO_LABEL
はA級ピオリア・チーフスとA+級でプレーし、2球団合計で109試合に出場して打率.302・4本塁打・30打点・15盗塁の成績を残した。	NO_PRONOUNCE	NO_LABEL
はA+級パームビーチとAA級スプリングフィールド・カージナルスでプレーし、2球団合計で120試合に出場して打率.289・7本塁打・53打点・12盗塁の成績を残した。	NO_PRONOUNCE	NO_LABEL
はAA級スプリングフィールドでプレーし、134試合に出場して打率.295・4本塁打・32打点・46盗塁の成績を残した。	NO_PRONOUNCE	NO_LABEL
オフにはアリゾナ・フォールリーグに参加し、に所属した。	おふにわありぞなふぉーるりーぐにさんかし、にしょぞくした。	NO_LABEL
11月20日にルール・ファイブ・ドラフトでの流出を防ぐためにカージナルスの40人枠入りした。	NO_PRONOUNCE	NO_LABEL
は開幕からAAA級メンフィス・レッドバーズでプレーし、100試合に出場して打率.282・4本塁打・34打点・15盗塁の成績を残した。	NO_PRONOUNCE	NO_LABEL
2016年7月31日にザック・デュークとのトレードで、シカゴ・ホワイトソックスへ移籍した。	にせんじゅうろくねんしちがつさんじゅういちにちにざっくでゅーくとのとれーどで、しかごほわいとそっくすえいせきした。	NO_LABEL
直後の8月2日にメジャー初昇格を果たすと、同日のデトロイト・タイガース戦にて8番・中堅手で先発出場してメジャー初打席で初安打を放った。	NO_PRONOUNCE	NO_LABEL
だが、5回裏にミゲル・カブレラが放った右中間への打球をダイビングキャッチしようとした際、左のハムストリングを痛めて途中退場して故障者リスト入り。	だが、ごかいうらにみげるかぶれらがはなったうちゅーかんえのだきゅーをだいびんぐきゃっちしよーとしたさい、ひだりのはむすとりんぐをいためてとちゅーたいじょーしてこしょーしゃりすといり。	NO_LABEL
以降の出場は無く、この1試合でシーズン終了となった。	いこーのしゅつじょーわなく、このいちしあいでしーずんしゅうりょーとなった。	NO_LABEL
