中津川市立田瀬小学校は、岐阜県中津川市田瀬にある公立小学校。	なかつがわしりつたせしょうがっこーわ、ぎふけんなかつがわしたせにあるこーりつしょーがっこー。	NO_LABEL
2020年に中津川市立下野小学校と統合して閉校する予定となっている。	にせんにじゅうねんになかつがわしりつしものしょうがっこーととーごーしてへいこーするよていとなっている。	NO_LABEL
北恵那交通バス停「向田瀬」下車徒歩10分	NO_PRONOUNCE	NO_LABEL
