『エクソダス 栄光への脱出』は、レオン・ユリスの執筆した1958年発表のアメリカ合衆国のベストセラー小説。	NO_PRONOUNCE	NO_LABEL
1947年にホロコースト生存者らを乗せてフランスからイギリス委任統治領パレスチナに向かおうとしてイギリス軍に制圧された不法移民船エクソダス号（）をモデルとした物語である。	せんきゅうひゃくよんじゅうななねにほろこーすとせいぞんしゃらをのせてふらんすからいぎりすいにんとーちりょーぱれすちなにむかおうとしていぎりすぐんにせいあつされたふほーいみんせんえくそだすごーかっこをもでるとしたものがたりである。	NO_LABEL
Exodusは「大挙した脱出」という意味だが、「出エジプト記」になぞらえてもいる。	NO_PRONOUNCE	NO_LABEL
1960年に映画化された。	せんきゅうひゃくろくじゅうねんにえいがかされた。	NO_LABEL
『栄光への脱出』（）は、1960年のアメリカ映画である。	NO_PRONOUNCE	NO_LABEL
ユナイテッド・アーティスツ配給。	ゆないてっどあーてぃすつはいきゅー。	NO_LABEL
監督はウィーン出身のユダヤ人、オットー・プレミンジャー、音楽はやはりウィーン出身のユダヤ系作曲家アーネスト・ゴールド、脚本はダルトン・トランボ、撮影はサム・リーヴィット。	NO_PRONOUNCE	NO_LABEL
主題歌の「Exodus」。	NO_PRONOUNCE	NO_LABEL
邦題は「栄光への脱出のテーマ」）もインストゥルメンタル曲としては、大ヒットとなった。	NO_PRONOUNCE	NO_LABEL
1961年ビルボード誌の週間ランキングでは、1月23日に最高位の第2位を獲得。	せんきゅうひゃくろくじゅういちねんびるぼーどしのしゅーかんらんきんぐでわ、いちがつにじゅうさんにちにさいこーいのだいにーをかくとく。	NO_LABEL
同誌1961年の年間ランキングでは第2位を記録した。	どーしせんきゅうひゃくろくじゅういちねんのねんかんらんきんぐでわだいにーをきろくした。	NO_LABEL
また、後にパット・ブーンが「This land is mine...」で始まる歌詞を付けて、彼自身でも歌っている。	NO_PRONOUNCE	NO_LABEL
イスラエルの建国を叙事詩的に描いた映画であり、原作小説にある反イギリス・反アラブ描写は抑えられているものの、イスラエル独立にあたっての内戦やユダヤ人・アラブ人双方の描き方に対して多くの論争がある。	NO_PRONOUNCE	NO_LABEL
またアメリカにおけるイスラエル支持の世論形成にも多くの影響を与えた。	またあめりかにおけるいすらえるしじのよろんけいせいにもおーくのえいきょーをあたえた。	NO_LABEL
ホロコーストを生き延びたヨーロッパのユダヤ人多数がパレスチナへ移民しようとしたが、そのほとんどはイギリスが設けた移民枠を超過した不法移民で、多くがイギリス軍に捕まりキプロス島の難民キャンプに送られていた。	ほろこーすとをいきのびたよーろっぱのゆだやじんたすーがぱれすちなえいみんしようとしたが、そのほとんどわいぎりすがもーけたいみんわくをちょーかしたふほーいみんで、おーくがいぎりすぐんにつかまりきぷろすとーのなんみんきゃんぷにおくられていた。	NO_LABEL
難民キャンプで看護婦として働いていたアメリカ人のヒロインの前に、エクソダスと名付けた貨物船を手に入れて彼らを極秘のうちにパレスチナへ送ろうとするユダヤ人で元兵士の主人公が登場する。	なんみんきゃんぷでかんごふとしてはたらいていたあめりかじんのひろいんのまえに、えくそだすとなずけたかもつせんをてにいれてかれらをごくひのうちにぱれすちなえおくろうとするゆだやじんでもとへいしのしゅじんこーがとーじょーする。	NO_LABEL
船に乗り込んだ移民たちはイギリス軍との緊迫した駆け引きの末にパレスチナへとたどり着くが、イスラエル建国への道のりは厳しく、次から次へと困難な状況が訪れる。	ふねにのりこんだいみんたちわいぎりすぐんとのきんぱくしたかけひきのすえにぱれすちなえとたどりつくが、いすらえるけんこくえのみちのりわきびしく、つぎからつぎえとこんなんなじょーきょーがおとずれる。	NO_LABEL
果たして彼らは「栄光への脱出」を実現できるだろうか。	NO_PRONOUNCE	NO_LABEL
キプロス、エルサレム、ハイファ、アッコ、カイサリア、クファール・カナ、アトリット	NO_PRONOUNCE	NO_LABEL
