『爆笑ザ・ヒント』は、1982年6月9日から同年9月28日までテレビ東京で放送されたクイズ番組である。	NO_PRONOUNCE	NO_LABEL
放送時間は毎週水曜 19:30 - 20:00だが、最終回は9月29日18:30 - 19:54にアニメ映画『ドラゴン水滸伝』が編成されたため、前日の9月28日22:00 - 22:30で放送した。	NO_PRONOUNCE	NO_LABEL
毎回、お笑いスターや各界有名人2組4名が、与えられた「隠し言葉」を10分以内に言い当てようという、推理ゲーム。	NO_PRONOUNCE	NO_LABEL
まずノーヒントで2分間、解答者にフリートークの時間を与える。	まずのーひんとでにふんかん、かいとーしゃにふりーとーくのじかんをあたえる。	NO_LABEL
この間、正解を探ろうと、解答者は次々と記憶を展開していく。	このかん、せいかいをさぐろうと、かいとーしゃわつぎつぎときおくをてんかいしていく。	NO_LABEL
この2分以内に正解が出ない場合には、更に2分刻みでヒントが与えられる。	このにふんいないにせいかいがでないばあいにわ、さらににふんきざみでひんとがあたえられる。	NO_LABEL
