大分市立寒田小学校は、大分県大分市大字寒田にある公立小学校である。	おーいたしりつそうだしょうがっこーわ、おーいたけんおーいたしだいじさわだにあるこーりつしょーがっこーである。	NO_LABEL
1978年に大分市立東稙田小学校から分離して開校した小学校である。	せんきゅうひゃくななじゅうはちねんにおーいたしりつひがしわさだしょうがっこーからぶんりしてかいこーしたしょーがっこーである。	NO_LABEL
ただし、東稙田小学校の源流を遡ると1877年11月に創設された寒田学校と1887年に創設された田尻学校にたどり着く。	ただし、ひがしわさだしょーがっこーのげんりゅーをさかのぼるとせんはっぴゃくななじゅうななねんじゅーいちがつにそーせつされたさわだがっこーとせんはっぴゃくはちじゅうしちねんにそーせつされたたじりがっこーにたどりつく。	NO_LABEL
寒田学校は1886年に寒田尋常小学校となり、1917年に田尻学校の後身の東稙田尋常高等小学校と統合された。	さわだがっこーわせんはっぴゃくはちじゅうろくねんにさわだじんじょーしょうがっこーとなり、せんきゅうひゃくじゅうしちねんにたじりがっこーのこーしんのひがしわさだじんじょーこーとーしょうがっこーととーごーされた。	NO_LABEL
美し野1-2丁目、サントピア西寒多、サントピア藤美園、寒田御苑、寒田ささむた苑、寒田南町1-4丁目、寒田北町1-4丁目、寒田西町、光吉御苑、スカイタウン寒田、寒田わかば台、宮崎台1-3丁目、大字鴛野、大字寒田、大字旦野原、大字曲、大字光吉、大字宮崎	NO_PRONOUNCE	NO_LABEL
