アラブ音楽とは、アラビア語を話す人々の音楽である。	あらぶおんがくとわ、あらびあごをはなすひとびとのおんがくである。	NO_LABEL
地域的には西南アジア、北アフリカを中心とした広がりを持ち、国としては、サウジアラビア、アラブ首長国連邦、バーレーン、クウェート、オマーン、カタール、シリア、イラク、レバノン、エジプト、チュニジア、アルジェリア、モロッコ、イエメンなどになる。	ちいきてきにわせいなんあじあ、きたあふりかをちゅーしんとしたひろがりをもち、くにとしてわ、さうじあらびあ、あらぶしゅちょーこくれんぽー、ばーれーん、くうぇーと、おまーん、かたーる、しりあ、いらく、ればのん、えじぷと、ちゅにじあ、あるじぇりあ、もろっこ、いえめんなどになる。	NO_LABEL
周辺のイラン、トルコの音楽などとも関わりを持つ。	しゅーへんのいらん、とるこのおんがくなどともかかわりをもつ。	NO_LABEL
単旋律的で、メロディーは中国音楽のような5音音階的なものではなく、7音音階的である。	NO_PRONOUNCE	NO_LABEL
中立音程などと言われる音程の使用が特徴的。	ちゅーりつおんていなどといわれるおんていのしよーがとくちょーてき。	NO_LABEL
メロディーには太鼓などによるリズム伴奏が付く事も特徴の一つ。	めろでぃーにわたいこなどによるりずむばんそーがつくこともとくちょーのひとつ。	NO_LABEL
近年では、アルジェリアのオラン地方に発するライがポピュラー音楽としての発展をとげ、中東のみならず欧州をはじめ世界中で親しまれている。	きんねんでわ、あるじぇりあのおらんちほーにはっするらいがぽぴゅらーおんがくとしてのはってんをとげ、ちゅーとーのみならずおーしゅーをはじめせかいじゅーでしたしまれている。	NO_LABEL
