エドゥアール・ジャン＝マリ・ステファンはフランスの天文学者である。	NO_PRONOUNCE	NO_LABEL
彼は1867年から1907年までマルセイユ天文台の台長であった。	かれわせんはっぴゃくろくじゅうしちねんからせんきゅうひゃくななねんまでまるせいゆてんもんだいのたいちょーであった。	NO_LABEL
また彼の専門は星雲の観測であったが、その課程でふたつの小惑星を発見した。	またかれのせんもんわせいうんのかんそくであったが、そのかていでふたつのしょーわくせいをはっけんした。	NO_LABEL
St Pezenneで生まれ、École Normale Superieurに通い、1862年にトップの成績で卒業した。	NO_PRONOUNCE	NO_LABEL
1867年にジェローム・E・コッジャが発見した彗星の存在を確認したことから、この彗星には38P/ステファン・オテルマ彗星と命名された。	NO_PRONOUNCE	NO_LABEL
同年には水星の日面通過の観測に成功している。	どーねんにわすいせいのにちめんつーかのかんそくにせいこーしている。	NO_LABEL
1874年には干渉計を用いることによりシリウスの角直径を測ることに成功した。	せんはっぴゃくななじゅうよねんにわかんしょーけいをもちいることによりしりうすのかくちょっけいをはかることにせいこーした。	NO_LABEL
1877年には、初めて反射鏡のついた望遠鏡を用いてペガスス座に5つの銀河からなる銀河団を発見し、現在ではステファンの五つ子と呼ばれている。	せんはっぴゃくななじゅうななねんにわ、はじめてはんしゃきょーのついたぼーえんきょーをもちいてぺがすすざにいつつのぎんがからなるぎんがだんをはっけんし、げんざいでわすてふぁんのいつつことよばれている。	NO_LABEL
