『Perfume Second Tour 2009 『直角二等辺三角形TOUR』』は、日本のテクノポップユニット、Perfumeの4作目の映像作品である。	NO_PRONOUNCE	NO_LABEL
2013年8月14日にBlu-ray Discも発売された。	にせんじゅうさんねんはちがつじゅうよっかにぶるーれいでぃすくもはつばいされた。	NO_LABEL
また、Perfumeが2009年に開催して本作に収録されたツアーや、同ツアーの写真集についても記述する。	また、ぱふゅーむがにせんきゅうねんにかいさいしてもとさくにしゅーろくされたつあーや、どーつあーのしゃしんしゅーについてもきじゅつする。	NO_LABEL
2009年夏から秋に行われたツアー『Perfume Second Tour 2009 『直角二等辺三角形TOUR』』から、DISC1には10月15日公演の模様を全曲分、DISC2には「NIGHT FLIGHT」、「edge」のマルチアングル、10月30日公演前の3人の舞台裏、衣装、公演後のサプライズなどの特典映像を収録している。	NO_PRONOUNCE	NO_LABEL
DISC1	でぃーあいえすしーわん	NO_LABEL
ENCORE	いーえぬこあ	NO_LABEL
DISC2	NO_PRONOUNCE	NO_LABEL
BDの初回プレス分には“オリジナルDVDジャケット”ステッカーが封入されている。	NO_PRONOUNCE	NO_LABEL
過去にリリースされていた6作のDVDがBD化された際に、本作もBD化した。	NO_PRONOUNCE	NO_LABEL
DVDは発売初週で約5.4万枚を売り上げ、オリコンで『Perfume First Tour 『GAME』』、『Perfume 『BUDOUKaaaaaaaaaaN!!!!!』』のDVDに続き、3作連続DVD総合ランキングで首位を獲得した。	NO_PRONOUNCE	NO_LABEL
女性グループによるミュージックDVDの3作連続総合首位は、モーニング娘。	NO_PRONOUNCE	NO_LABEL
以来8年半ぶりで、史上2組目。	NO_PRONOUNCE	NO_LABEL
『Perfume Second Tour 2009 『直角二等辺三角形TOUR』』は、Perfumeが2009年夏から秋にかけて開催したツアー。	NO_PRONOUNCE	NO_LABEL
10月14日 神奈川	じゅーがつじゅうよっかかながわ	NO_LABEL
『Perfume Livefolio』は、Perfumeが出した2冊目の写真集で、3枚目のアルバム『⊿』を携えて開催されたライブ・ツアー『直角二等辺三角形ツアー』の写真が収録されている。	NO_PRONOUNCE	NO_LABEL
