レト・ツィークラーは、スイス・ジュネーヴ出身のサッカー選手。	NO_PRONOUNCE	NO_LABEL
FCダラス所属。	えふしーだらすしょぞく。	NO_LABEL
ポジションは左サイドバック・左サイドハーフ。	NO_PRONOUNCE	NO_LABEL
スイスのグラスホッパー・クラブ・チューリッヒで頭角を現し、イングランドのトッテナム・ホットスパーFCを率いていたジャック・サンティニ監督に見い出され、2005年1月16日に移籍。	すいすのぐらすほっぱーくらぶちゅーりっひでとーかくをあらわし、いんぐらんどのとってなむほっとすぱーふっとぼーるくらぶをひきいていたじゃっくさんてぃにかんとくにみいだされ、にせんごねんいちがつじゅうろくにちにいせき。	NO_LABEL
ただし、その後就任したマルティン・ヨル監督が当面は彼を起用しない方針を決めたために、すぐにドイツのハンブルガーSVへ半年間のレンタル移籍をする。	ただし、そのごしゅーにんしたまるてぃんよるかんとくがとーめんわかれをきよーしないほーしんをきめたために、すぐにどいつのはんぶるがーえすふぁうえはんとしかんのれんたるいせきをする。	NO_LABEL
だが、チームが好調だったこともあり、定位置を獲得するには至らなかった。	だが、ちーむがこーちょーだったこともあり、ていいちをかくとくするにわいたらなかった。	NO_LABEL
ハンブルガーへのレンタルの後はイングランドに戻ってウィガン・アスレティックFCに半年のレンタル移籍。	はんぶるがーえのれんたるののちわいんぐらんどにもどってうぃがんあすれてぃっくふっとぼーるくらぶにはんとしのれんたるいせき。	NO_LABEL
2006-07シーズンは主にリザーブリーグで活躍。	NO_PRONOUNCE	NO_LABEL
正確なCK、FKによってアシストを重ね、リザーブチームの好調を支えた。	せいかくなしーけい、えふけーによってあしすとをかさね、りざーぶちーむのこーちょーをささえた。	NO_LABEL
2007年1月31日、イタリアのUCサンプドリアにレンタル移籍。	にせんななねんいちがつさんじゅういちにち、いたりあのうにおーねかるちょさんぷどりあにれんたるいせき。	NO_LABEL
シーズン終了後の7月3日に200万ユーロで完全移籍した。	しーずんしゅうりょーごのしちがつみっかににひゃくまんゆーろでかんぜんいせきした。	NO_LABEL
サンプドリアではサイドハーフから左サイドバックにコンバートされ、果敢なオーバーラップからのクロスとシュート武器に、セリエA屈指の左サイドバックに成長した。	さんぷどりあでわさいどはーふからひだりさいどばっくにこんばーとされ、かかんなおーばーらっぷからのくろすとしゅーとぶきに、せりえあーくっしのひだりさいどばっくにせいちょーした。	NO_LABEL
2009-10シーズンはチームのリーグ戦4位とチャンピオンズリーグ出場権獲得に貢献した。	NO_PRONOUNCE	NO_LABEL
しかし2010-11シーズンは一転して18位と低迷し、セリエBに降格。	NO_PRONOUNCE	NO_LABEL
2011年5月26日に移籍金なしでユヴェントスFCに移籍した。	NO_PRONOUNCE	NO_LABEL
しかし後にサンプドリア時代の恩師であるルイジ・デルネーリ監督とGMのジュゼッペ・マロッタの意向で獲得したことが判明。	しかしごにさんぷどりあじだいのおんしであるるいじでるねーりかんとくとじむのじゅぜっぺまろったのいこーでかくとくしたことがはんめい。	NO_LABEL
2010-11シーズン終了後にデルネーリが退任し、2011-12シーズンから就任したアントニオ・コンテ監督とはそりが合わず、9月3日にトルコのフェネルバフチェSKへレンタル移籍。	NO_PRONOUNCE	NO_LABEL
フェネルバフチェでは移籍直後よりスタメンに定着し、リーグ戦の出場時間ではジョセフ・ヨボ、ヴォルカン・デミレルに続く第3位の出場試合数となった。	NO_PRONOUNCE	NO_LABEL
このシーズン、ほぼフル出場でフェネルバフチェの準優勝に貢献したが、完全移籍とはならずに2012-13シーズンは一度ユヴェントスに復帰した。	NO_PRONOUNCE	NO_LABEL
背番号を与えられてプレシーズンマッチにも出場していたが、2012年9月6日にロシアのFCロコモティフ・モスクワへレンタル移籍。	せばんごーをあたえられてぷれしーずんまっちにもしゅつじょーしていたが、にせんじゅうにねんくがつむいかにろしあのふっとぼりにいくるぶろこもてぃふもすくわえれんたるいせき。	NO_LABEL
2年連続で主要リーグの移籍マーケットが閉じた後の移籍となった。	にねんれんぞくでしゅよーりーぐのいせきまーけっとがとじたのちのいせきとなった。	NO_LABEL
しかし、出場機会には恵まれず2013年1月31日に再びフェネルバフチェにレンタル移籍した。	しかし、しゅつじょーきかいにわめぐまれずにせんじゅうさんねんいちがつさんじゅういちにちにふたたびふぇねるばふちぇにれんたるいせきした。	NO_LABEL
2013年8月20日に、USサッスオーロ・カルチョにレンタル移籍が決定。	NO_PRONOUNCE	NO_LABEL
3シーズンぶりのイタリアでのプレーになる。	NO_PRONOUNCE	NO_LABEL
2014年8月20日、ユヴェントスとの契約を解除した。	NO_PRONOUNCE	NO_LABEL
翌年2月2日、FCシオンとシーズン終了までの契約を交わし母国に復帰した。	よくねんにがつふつか、ふっとぼーるくらぶどぅしおんとしーずんしゅうりょーまでのけいやくをかわしぼこくにふっきした。	NO_LABEL
トランクイロ・バルネッタやフィリップ・センデロス等と共に2002年のUEFA U-17欧州選手権で優勝し、2003年のFIFA U-17ワールドカップにも出場した。	とらんくいろばるねったやふぃりっぷせんでろすとーとともににせんにねんのうえふぁあんだーせぶんてぃーんおーしゅーせんしゅけんでゆーしょーし、にせんさんねんのふぃふぁあんだーせぶんてぃーんわーるどかっぷにもしゅつじょーした。	NO_LABEL
2005年3月26日2006 FIFAワールドカップ予選のフランス代表戦に先発出場しスイス代表として初キャップを記録した。	にせんごねんさんがつにじゅうろくにちにーまるまるろくふぃふぁわーるどかっぷよせんのふらんすだいひょーせんにせんぱつしゅつじょーしすいすだいひょーとしてはつきゃっぷをきろくした。	NO_LABEL
その後はU-21スイス代表に活躍の場を戻していたが、2008年11月19日の対フィンランド代表でフル出場を果たし初ゴールを記録した。	NO_PRONOUNCE	NO_LABEL
