中川 久美は、福島中央テレビの元女性アナウンサー。	なかがわくみわ、ふくしまちゅーおーてれびのもとじょせいあなうんさー。	NO_LABEL
山梨県甲府市出身。	やまなしけんこーふししゅっしん。	NO_LABEL
血液型はA型。	けつえきがたわえーがた。	NO_LABEL
山梨県立女子短期大学国文科卒業後、1988年に福島中央テレビ入社。	やまなしけんりつじょしたんきだいがくこくぶんかそつぎょーご、せんきゅうひゃくはちじゅうはちねんにふくしまちゅーおーてれびにゅーしゃ。	NO_LABEL
ゴジてれシャトルではメインキャスターや18時台のニュース担当キャスター含め13年間務めた。	ごじてれしゃとるでわめいんきゃすたーやじゅうはちじだいのにゅーすたんとーきゃすたーふくめじゅうさんねんかんつとめた。	NO_LABEL
ゴジてれシャトル降板後はアナウンサー職などを務める傍ら、在宅ホスピスなどといった医療問題に関する取材を行った。	ごじてれしゃとるこーばんごわあなうんさーしょくなどをつとめるかたわら、ざいたくほすぴすなどといったいりょーもんだいにかんするしゅざいをおこなった。	NO_LABEL
2009年3月に人事異動でアナウンサー職から離れ、現在は制作部に所属。	にせんきゅうねんさんがつにじんじいどーであなうんさーしょくからはなれ、げんざいわせいさくぶにしょぞく。	NO_LABEL
