涼宮 琴音は、日本のAV女優、ディアスグループ所属。	すずみやことねわ、にっぽんのえーぶいじょゆー、でぃあすぐるーぷしょぞく。	NO_LABEL
滋賀県彦根市出身。	しがけんひこねししゅっしん。	NO_LABEL
2012年にAVデビュー。	にせんじゅうにねんにえーぶいでびゅー。	NO_LABEL
「香椎みなみ」の芸名でロリ系パイパンの企画女優として活動。	NO_PRONOUNCE	NO_LABEL
2014年3月27日より、「白咲碧」名義でTwitterを開始した以降は「白咲碧」として活動。	NO_PRONOUNCE	NO_LABEL
所属事務所はスタイルワン。	しょぞくじむしょわすたいるわん。	NO_LABEL
2015年9月9日、前日に所属事務所を辞め新しい事務所にて活動を継続することを報告、10月1日に「涼宮琴音」へ改名したことを発表。	NO_PRONOUNCE	NO_LABEL
LANTANA所属となった。	らんたなしょぞくとなった。	NO_LABEL
2016年1月11日よりツイッターアカウントを「@suzumiya_Kotone」に変更、原因はアカウントの破損により復旧不能なため。	NO_PRONOUNCE	NO_LABEL
趣味はカラオケ、ペットショップ巡り、セックス。	しゅみわからおけ、ぺっとしょっぷめぐり、せっくす。	NO_LABEL
特技は料理かすこと、家事全般。	とくぎわりょーりかすこと、かじぜんぱん。	NO_LABEL
容姿が芦田愛菜に似てることでも有名。	よーしがあしだまなににてることでもゆーめい。	NO_LABEL
