マリア・ボルーノフは、オーストラリア出身の女性アイスダンス選手。	まりあぼるーのふわ、おーすとらりあしゅっしんのじょせいあいすだんすせんしゅ。	NO_LABEL
2006年以降四大陸フィギュアスケート選手権オーストラリア代表5回。	にせんろくねんいこーよんたいりくふぃぎゅあすけーとせんしゅけんおーすとらりあだいひょーごかい。	NO_LABEL
2006年オーストラリアフィギュアスケート選手権優勝。	にせんろくねんおーすとらりあふぃぎゅあすけーとせんしゅけんゆーしょー。	NO_LABEL
パートナーは夫のエフゲニイ・ボルーノフ。	ぱーとなーわおっとのえふげにいぼるーのふ。	NO_LABEL
