印東 常茂は、平安時代末期の武士。	いんとーつねしげわ、へいあんじだいまっきのぶし。	NO_LABEL
上総氏5代当主。	かずさしごだいとーしゅ。	NO_LABEL
平常澄の次男。	へいじょーきよしのじなん。	NO_LABEL
上総広常の兄。	かずさひろつねのあに。	NO_LABEL
子に長南重常、印東頼常、南郷師常、戸田常政。	こにちょーなんしげつね、いんとーよりつね、なんごーしつね、とだつねまさ。	NO_LABEL
常重とも。	つねしげとも。	NO_LABEL
下総国印東庄に因んで印東次郎と号した。	しもーさのくにしるしとーのしょーにちなんでいんとーじろーとごーした。	NO_LABEL
印東氏の祖。	いんとーしのそ。	NO_LABEL
兄・伊西常景が有していた上総氏及び房総平氏の惣領の座を、これを殺すことで強奪した。	NO_PRONOUNCE	NO_LABEL
しかし、常茂が暴力的に惣領の座を得たことは上総氏及び他の房総平氏の間で激しい反発心を引き起こし、多くが常茂の許を離れて、その弟である介八郎広常の許に去った。	しかし、つねしげがぼーりょくてきにそーりょーのざをえたことわかずさしおよびたのぼーそーへいしのまではげしいはんほっしんをひきおこし、おーくがつねしげのもとをはなれて、そのおとーとであるかいはちろーひろつねのもとにさった。	NO_LABEL
そこで常茂は当時下総の国守であった藤原親盛を通じて、その姻戚関係にあった平家と結びつくこてで自己の地盤を固めようとした。	そこでつねしげわとーじしもふさのこくしゅであったふじわらのちかもりをつーじて、そのいんせきかんけいにあったへいけとむすぶびつくこてでじこのじばんをかためようとした。	NO_LABEL
実際、常茂は大番役として京に上洛している。	じっさい、つねしげわおーばんやくとしてきょーにじょーらくしている。	NO_LABEL
常茂が上洛している間の治承4年8月4日に源頼朝が伊豆国で挙兵した。	つねしげがじょーらくしているまのちうけたまわよんねんはちがつよっかにみなもとのよりともがいずのくにできょへいした。	NO_LABEL
頼朝挙兵に、上総広常とその同族である千葉常胤が賛同して兵を挙げている。	よりともきょへいに、かずさひろつねとそのどーぞくであるちばつねたねがさんどーしてへいをあげている。	NO_LABEL
常茂の子息達は父親に反して広常に加勢したことが『源平闘諍録』に記載されている。	NO_PRONOUNCE	NO_LABEL
息子にも見捨てられた常茂は平維盛を大将とする頼朝追討軍に従事していたが、10月23日の富士川の戦いで広常に討ち果たされた。	むすこにもみすてられたつねしげわたいらのこれもりをたいしょーとするよりともついとーぐんにじゅーじしていたが、じゅーがつにじゅうさんにちのふじかわのたたかいでひろつねにうちはたされた。	NO_LABEL
かくして、房総平氏は広常の許で統一されることになった。	かくして、ぼーそーへいしわひろつねのもとでとーいつされることになった。	NO_LABEL
他方、父親と一線を画して源氏に加勢した常茂の子息は御家人として存続することが許された。	たほー、ちちおやといっせんをかくしてげんじにかせいしたつねしげのしそくわごけにんとしてそんぞくすることがゆるされた。	NO_LABEL
