ジアセチレンまたはブタジインは、化学式がCHの有機化合物である。	NO_PRONOUNCE	NO_LABEL
不飽和度が高く、三重結合を2つ持つ。	ふほーわどがたかく、さんじゅうけつごーをふたつもつ。	NO_LABEL
最も単純なポリイン化合物である。	もっともたんじゅんなぽりいんかごーぶつである。	NO_LABEL
ジアセチレンは土星の衛星タイタンの大気と原始惑星状星雲CRL618において特性振動モードによって確認されている。	NO_PRONOUNCE	NO_LABEL
タイタンの大気ではジアセチレンは、アセチレンとアセチレンの光分解によって生じるエチニルラジカルとの反応で生成する。	たいたんのたいきでわじあせちれんわ、あせちれんとあせちれんのひかりぶんかいによってしょーじるえちにるらじかるとのはんのーでせいせいする。	NO_LABEL
このラジカル種は低温でも効率的にアセチレンの三重結合に攻撃することができる。	このらじかるしゅわていおんでもこーりつてきにあせちれんのさんじゅうけつごーにこーげきすることができる。	NO_LABEL
