関東平野北西縁断層帯は、関東平野北西部と関東山地との境界付近からさいたま市見沼区および岩槻区にかけて分布する活断層帯である。	かんとーへいやほくせいえんだんそーたいわ、かんとーへいやほくせいぶとかんとーさんちとのきょーかいふきんからさいたましみぬまくおよびいわつきくにかけてぶんぷするかつだんそーたいである。	NO_LABEL
ほぼ並行する深谷断層帯と綾瀬川断層帯によって構成される断層帯である。	ほぼへいこーするふかやだんそーたいとあやせがわだんそーたいによってこーせいされるだんそーたいである。	NO_LABEL
想定される地震の発生確率は低い。	そーていされるじしんのはっせいかくりつわひくい。	NO_LABEL
本断層は、伊奈町付近を境に鴻巣－伊奈区間と伊奈－岩槻区間に分けられる。	NO_PRONOUNCE	NO_LABEL
南西側が北東側に対して相対的に隆起する逆断層と推定される。	なんせいがわがほくとーがわにたいしてそーたいてきにりゅーきするぎゃくだんそーとすいていされる。	NO_LABEL
断層形態、ずれの向きは不明である。	だんそーけいたい、ずれのむきわふめいである。	NO_LABEL
