長瀬 文男は、株式会社イマジカ・ロボット ホールディングス代表取締役会長。	ながせふみおわ、かぶしきがいしゃいまじかろぼっとほーるでぃんぐすだいひょーとりしまりやくかいちょ。	NO_LABEL
成蹊高等学校卒業。	せいけいこーとーがっこーそつぎょー。	NO_LABEL
1973年3月、成蹊大学工学部経営工学科卒業後、同年4月に三菱商事へ入社。	せんきゅうひゃくななじゅうさんねんさんがつ、せいけいだいがくこーがくぶけいえいこうがくかそつぎょーご、どーねんしがつにみつびししょーじえにゅーしゃ。	NO_LABEL
1980年8月、東洋現像所入社。	せんきゅうひゃくはちじゅうねんはちがつ、とーよーげんぞーしょにゅーしゃ。	NO_LABEL
1983年3月、米国・カリフォルニア大学ロサンゼルス校経営大学院でMBA取得。	NO_PRONOUNCE	NO_LABEL
1992年6月に同社代表取締役社長となり、2009年1月に株式会社ロボット代表取締役会長となる。	せんきゅうひゃくきゅうじゅうにねんろくがつにどーしゃだいひょーとりしまりやくしゃちょーとなり、にせんきゅうねんいちがつにかぶしきがいしゃろぼっとだいひょーとりしまりやくかいちょとなる。	NO_LABEL
2009年6月にイマジカ・ロボット ホールディングス代表取締役会長 グループCEOとなり、2011年4月、新IRHD代表取締役会長 グループCEOとなっている。	NO_PRONOUNCE	NO_LABEL
