フェンサリル（）は、北欧神話に出てくる、オーディンの妻の女神フリッグの住む宮殿のことである。	ふぇんさりるかっこわ、ほくおーしんわにでてくる、おーでぃんのつまのめがみふりっぐのすむきゅーでんのことである。	NO_LABEL
名前は「海の宮殿」の意味である。	NO_PRONOUNCE	NO_LABEL
『巫女の予言』には、フリッグが息子バルドルの死をフェンサリルで嘆くことが書かれている。	NO_PRONOUNCE	NO_LABEL
『グリームニルの言葉』には、フェンサリルが喩えようもなく豪華な場所であると書かれている。	NO_PRONOUNCE	NO_LABEL
さらに『ギュルヴィたぶらかし』には、バルドルがいかなる武器にも傷つかない様子を見たロキがフリッグにその理由を訊くため、フェンサリルを訪ねることが書かれている。	NO_PRONOUNCE	NO_LABEL
