『コート・ダジュール』は宝塚歌劇団によって制作された舞台作品。	NO_PRONOUNCE	NO_LABEL
雪組公演。	ゆきぐみこーえん。	NO_LABEL
形式名は「ミュージカル・ショー」。	NO_PRONOUNCE	NO_LABEL
16場。	NO_PRONOUNCE	NO_LABEL
作・演出は小原弘稔、演出は石田昌也。	NO_PRONOUNCE	NO_LABEL
併演作品は『ブルボンの封印』。	NO_PRONOUNCE	NO_LABEL
※『宝塚歌劇100年史』の宝塚大劇場公演参考。	NO_PRONOUNCE	NO_LABEL
南フランス、コート・ダジュールにある港を舞台とした作品。	みなみふらんす、こーとだじゅーるにあるみなとをぶたいとしたさくひん。	NO_LABEL
海軍軍人フィリップを中心に、その友人たちと彼らのガールフレンドが繰り広げられる、ほろ若くも淡い恋物語を歌とダンスで綴った作品。	かいぐんぐんじんふぃりっぷをちゅーしんに、そのゆーじんたちとかれらのがーるふれんどがくりひろげられる、ほろわかくもあわいこいものがたりをうたとだんすでつずったさくひん。	NO_LABEL
彼らの出会い、そして別れを歌とダンスのみのミュージカル・タッチで描き、宝塚では珍しい様式のショー作品であった。	NO_PRONOUNCE	NO_LABEL
※氏名の後ろに「宝塚」「東京」の文字がなければ両劇場。	NO_PRONOUNCE	NO_LABEL
※宝塚・東京共通。	NO_PRONOUNCE	NO_LABEL
＊東京公演では純名里沙はテレビ出演のため休演。	NO_PRONOUNCE	NO_LABEL
