ダン・リッキオは、アップルのハードウェアエンジニアリング担当上級副社長。	だんりっきおわ、あっぷるのはーどうぇあえんじにありんぐたんとーじょーきゅーふくしゃちょー。	NO_LABEL
1998年にプロダクトデザイン担当の副社長としてアップルに加わる。	せんきゅうひゃくきゅうじゅうはちねんにぷろだくとでざいんたんとーのふくしゃちょーとしてあっぷるにくわわる。	NO_LABEL
2010年にはiPadハードウェアエンジニアリング担当副社長となり、2012年6月、ボブ・マンズフィールドに代わり、ハードウェアエンジニアリング全般の責任者となることが発表された。	にせんじゅうねんにわあいぱっどはーどうぇあえんじにありんぐたんとーふくしゃちょーとなり、にせんじゅうにねんろくがつ、ぼぶまんずふぃーるどにかわり、はーどうぇあえんじにありんぐぜんぱんのせきにんしゃとなることがはっぴょーされた。	NO_LABEL
2012年8月、上級副社長への昇格が発表される。	にせんじゅうにねんはちがつ、じょーきゅーふくしゃちょーえのしょーかくがはっぴょーされる。	NO_LABEL
