JR東日本テクノロジー株式会社は、東京都新宿区に本社を置く、鉄道車両メンテナンスおよび鉄道車両製造を行う会社である。	じぇいあーるひがしにほんてくのろじーかぶしきがいしゃわ、とーきょーとしんじゅくくにほんしゃをおく、てつどーしゃりょーめんてなんすおよびてつどーしゃりょーせいぞーをおこなうかいしゃである。	NO_LABEL
東日本旅客鉄道の完全子会社。	ひがしにほんりょかくてつどーのかんぜんこがいしゃ。	NO_LABEL
東日本旅客鉄道や埼玉新都市交通などの鉄道車両及び車両基地設備に関する設計・メンテナンス・車両製造などを行っている。	NO_PRONOUNCE	NO_LABEL
メンテナンス業務では静態保存機などのアスベスト封じ込め・除去業務も行っている。	NO_PRONOUNCE	NO_LABEL
