荻野NAO之は日本の写真家。	おぎのなおゆきわにっぽんのしゃしんか。	NO_LABEL
東京都生まれ。	とーきょーとうまれ。	NO_LABEL
「モンゴロイド文化圏の暮らし」と「妹の力」をメインテーマとする。	NO_PRONOUNCE	NO_LABEL
作品様式はドキュメンタリー・アート。	NO_PRONOUNCE	NO_LABEL
特に荻野が合計10年暮らしたメキシコの先住民の祭や、京都の花街、京都・太秦の映画撮影所内の写真作品などで知られる。	NO_PRONOUNCE	NO_LABEL
2006年ニューヨークで開催された個展「Scent of Tibet」は、マグナム・フォトの写真家Steve McCurryと共に旅して撮影されたもの。	NO_PRONOUNCE	NO_LABEL
日本語、英語、スペイン語を話す。	にほんご、えいご、すぺいんごをはなす。	NO_LABEL
風の旅人、mia、Reader's Digest、Miroir de l'Art、BSC News Magazine、Tu Style、中国先鋒撮影、Marie Claire、Grazia Australia、Canon Photo Circle、撮影雑誌、デジタルカメラマガジン、tomorrow、AERA、家庭画報インターナショナル、htwi、日本カメラ、月刊カメラマン、フォトコンテスト、Photo Konicaなど	NO_PRONOUNCE	NO_LABEL
