フランシスコ・フランコ・イ・バアモンデは、スペインの軍人、スペイン軍大元帥、政治家、独裁者、首相を歴任した。	NO_PRONOUNCE	NO_LABEL
ガリシア出身。	がりしあしゅっしん。	NO_LABEL
一般には、フランシスコ・フランコとして知られる。	いっぱんにわ、ふらんしすこふらんことしてしられる。	NO_LABEL
称号は「カウディーリョ・デ・エスパーニャ」。	NO_PRONOUNCE	NO_LABEL
フランコは、スペイン北西部ガリシア地方の造船と海軍基地の町フェロルのフルトス・サアベドゥラー108番地で軍人の子として生まれた。	NO_PRONOUNCE	NO_LABEL
彼は5人の兄弟の二男で、兄、妹二人、弟ラモンがいた。	かれわごにんのきょーだいのじなんで、あに、いもーとににん、おとーとらもんがいた。	NO_LABEL
祖父と父は海軍主計准将までなっている。	そふとちちわかいぐんしゅけいじゅんしょーまでなっている。	NO_LABEL
出生時の洗礼名はフランシスコ・パウリーノ・エルメネヒルド・テオドゥロの鎮圧に当たった。	NO_PRONOUNCE	NO_LABEL
フランコは現地のアフリカ人部隊を指揮して反乱軍と戦い、その功績で陸軍少佐に昇進した。	ふらんこわげんちのあふりかじんぶたいをしきしてはんらんぐんとたたかい、そのこーせきでりくぐんしょーさにしょーしんした。	NO_LABEL
帰国後は、サラゴサの陸軍士官学校の校長を務めた。	きこくごわ、さらごさのりくぐんしかんがっこーのこーちょーをつとめた。	NO_LABEL
1931年、スペインではボルボン王朝が倒されて第二共和政が成立し、王族は国外へと追放された。	せんきゅうひゃくさんじゅういちね、すぺいんでわぼるぼんおーちょーがたおされてだいにきょーわせいがせいりつし、おーぞくわこくがいえとついほーされた。	NO_LABEL
フランコは、共和政府からラ・コルーニャとバレアレス諸島の軍政官に任じられ、その間に陸軍少将に昇進した。	ふらんこわ、きょーわせいふかららこるーにゃとばれあれすしょとーのぐんせいかんににんじられ、そのかんにりくぐんしょーしょーにしょーしんした。	NO_LABEL
1934年10月、右翼の内閣が成立し、左翼政党がこれに抗議してゼネラル・ストライキを呼びかけると、フランコはアストゥリアス地方でゼネストに決起した鉱山労働者を武力で鎮圧した。	せんきゅうひゃくさんじゅうよねんじゅーがつ、うよくのないかくがせいりつし、さよくせいとーがこれにこーぎしてぜねらるすとらいきをよびかけると、ふらんこわあすとぅりあすちほーでぜねすとにけっきしたこーざんろうどーしゃをぶりょくでちんあつした。	NO_LABEL
この功績により翌1935年、陸軍参謀総長に任命された。	このこーせきによりよくせんきゅうひゃくさんじゅうごねん、りくぐんさんぼーそうちょーににんめいされた。	NO_LABEL
以前は「スペイン内乱」と呼ばれていたが、スペインを代表する正統な政権が転覆していることや、反乱軍を支持した派閥も多いことから、現在では「スペイン内戦」の呼称がより一般的である。	NO_PRONOUNCE	NO_LABEL
1936年2月の総選挙で、左翼勢力を中心とする人民戦線内閣が誕生すると、右派として知られたフランコは参謀総長を解任され、カナリア諸島総督に左遷された。	せんきゅうひゃくさんじゅうろくねにがつのそーせんきょで、さよくせいりょくをちゅーしんとするじんみんせんせんないかくがたんじょーすると、うはとしてしられたふらんこわさんぼーそうちょーをかいにんされ、かなりあしょとーそーとくにさせんされた。	NO_LABEL
人民戦線政府は社会主義的理念に基づく改革を実行、教会財産を没収し、ブルジョワを弾圧した。	じんみんせんせんせいふわしゃかいしゅぎてきりねんにもとずくかいかくをじっこー、きょーかいざいさんをぼっしゅーし、ぶるじょわをだんあつした。	NO_LABEL
これは農民層に支持されたが、地主や資本家、カトリック教会などの保守勢力や知識層とは対立した。	これわのーみんそーにしじされたが、じぬしやしほんか、かとりっくきょーかいなどのほしゅせいりょくやちしきそーとわたいりつした。	NO_LABEL
同年7月にスペイン領モロッコと本土で軍隊が反乱を起こすと、フランコはモロッコに飛んで反乱軍を指揮し、本土に侵攻した。	どーねんしちがつにすぺいんりょーもろっことほんどでぐんたいがはんらんをおこすと、ふらんこわもろっこにとんではんらんぐんをしきし、ほんどにしんこーした。	NO_LABEL
保守勢力が反乱軍を支援したため、この反乱はスペインを二分する大規模な内戦に発展した。	ほしゅせいりょくがはんらんぐんをしえんしたため、このはんらんわすぺいんをにぶんするだいきぼなないせんにはってんした。	NO_LABEL
反乱軍の中心人物は当初将軍や将軍などであり、フランコは反乱側の一将軍でしかなかった。	はんらんぐんのちゅーしんじんぶつわとーしょしょーぐんやしょーぐんなどであり、ふらんこわはんらんがわのいちしょーぐんでしかなかった。	NO_LABEL
初戦に反乱軍は敗北を重ねるなど長期化の様相を見せ始めると、戦功のあるフランコと、戦前から人望が高かったモラが反乱側の人気を二分するようになる。	しょせんにはんらんぐんわはいぼくをかさねるなどちょーきかのよーそーをみせはじめると、せんこーのあるふらんこと、せんぜんからじんぼーがたかかったもらがはんらんがわのにんきをにぶんするよーになる。	NO_LABEL
その後モラが飛行機の墜落事故で死亡すると、フランコが反乱軍の指導者としての地位を固めた。	そのごもらがひこーきのついらくじこでしぼーすると、ふらんこがはんらんぐんのしどーしゃとしてのちいをかためた。	NO_LABEL
1936年10月1日にブルゴスにおいて、反乱軍の総司令官に指名され、国家元首に就任した。	せんきゅうひゃくさんじゅうろくねじゅーがつついたちにぶるごすにおいて、はんらんぐんのそーしれいかんにしめいされ、こっかげんしゅにしゅーにんした。	NO_LABEL
その際フランコは、軍総司令官としてヘネラリシモ、国家元首としてカウディーリョの称号を用いた。	そのさいふらんこわ、ぐんそーしれいかんとしてへねらりしも、こっかげんしゅとしてかうでぃーりょのしょーごーをもちいた。	NO_LABEL
また、フランコは総統就任以来、仮政府としてブルゴスに「国家行政委員会」を設置していたが、1938年1月30日にこれを改組して正式に内閣制度を導入、フランコは国家元首兼首相となった。	NO_PRONOUNCE	NO_LABEL
その後、フランコはドイツやイタリアの支援を受けて人民戦線政府勢力と戦った。	そのご、ふらんこわどいつやいたりあのしえんをうけてじんみんせんせんせいふせいりょくとたたかった。	NO_LABEL
反乱は陸軍主体で行なわれ、空軍と海軍の大部分は共和国側についたため、モロッコ軍を本土に送れず、ドイツの輸送機が活躍した。	はんらんわりくぐんしゅたいでおこなわれ、くーぐんとかいぐんのだいぶぶんわきょーわこくがわについたため、もろっこぐんをほんどにおくれず、どいつのゆそーきがかつやくした。	NO_LABEL
また日本はドイツとイタリアに次いでフランコ政権を承認した列強であり、フランコ政権が満州国を承認したのはその見返りであるとされている。	またにっぽんわどいつといたりあについでふらんこせいけんをしょーにんしたれっきょーであり、ふらんこせいけんがまんしゅーこくをしょーにんしたのわそのみかえりであるとされている。	NO_LABEL
なお、フランコに対する人民戦線政府は内部に共和主義者、共産主義者、無政府主義者を抱えていたため、統一性に欠けた。	なお、ふらんこにたいするじんみんせんせんせいふわないぶにきょーわしゅぎしゃ、きょーさんしゅぎしゃ、むせいふしゅぎしゃをかかえていたため、とーいつせいにかけた。	NO_LABEL
フランスが人民戦線を支援するも国内の反発で即座に中止、また人民戦線はソ連や国際旅団の支援を受けるも、ドイツ軍やイタリア軍、そして政府からの強力な支援を受けるナショナリスト軍に対する劣勢は覆せなかった。	ふらんすがじんみんせんせんをしえんするもこくないのはんぱつでそくざにちゅーし、またじんみんせんせんわそれんやこくさいりょだんのしえんをうけるも、どいつぐんやいたりあぐん、そしてせいふからのきょーりょくなしえんをうけるなしょなりすとぐんにたいするれっせいわくつがえせなかった。	NO_LABEL
1938年7月25日に始まった共和国軍の大攻勢となり、同年8月8日に公布された「国家元首法」によって緊急立法権が付与され、強大な権限を持って国家の再建に取り組むこととなる。	NO_PRONOUNCE	NO_LABEL
スペイン内戦終結直前の1939年3月27日、フランコは日独伊防共協定に加入し、同年5月には国際連盟から脱退した。	すぺいんないせんしゅーけつちょくぜんのせんきゅうひゃくさんじゅうきゅうねんさんがつにじゅうしちにち、ふらんこわにちどくいぼーきょーきょーていにかにゅーし、どーねんごがつにわこくさいれんめいからだったいした。	NO_LABEL
一方、9月に第二次世界大戦が勃発すると、フランコは国家が内戦により荒廃したために国力が参戦に耐えられないと判断して中立を宣言した。	いっぽー、くがつにだいにじせかいたいせんがぼっぱつすると、ふらんこわこっかがないせんによりこーはいしたためにこくりょくがさんせんにたえられないとはんだんしてちゅーりつをせんげんした。	NO_LABEL
しかし緒戦におけるドイツの勝利や優勢を見て、1940年6月10日イタリアの参戦直後に中立を放棄し、非交戦を宣言した。	しかししょせんにおけるどいつのしょーりやゆーせいをみて、せんきゅうひゃくよんじゅうねんろくがつとおかいたりあのさんせんちょくごにちゅーりつをほーきし、ひこーせんをせんげんした。	NO_LABEL
これによって枢軸国側に近づき、情報提供などで便宜を図った。	これによってすーじくこくがわにちかずき、じょーほーていきょーなどでべんぎをはかった。	NO_LABEL
非交戦宣言より数日後には国際管理都市であったタンジールに侵攻し、11月これをスペイン・モロッコ領として併合した。	NO_PRONOUNCE	NO_LABEL
並行してフランコは対英戦参戦の準備を行い、英国降伏直前の一週間にスペインが参戦することで、講和・戦後処理会議における発言権を確保しようと思考した。	NO_PRONOUNCE	NO_LABEL
同時に独英休戦の仲介をすることで、ジブラルタルと北アフリカの領土要求をドイツに認めさせようとしたのだが、ドイツの反応は冷淡だった。	どーじにどくえいきゅーせんのちゅーかいをすることで、じぶらるたるときたあふりかのりょーどよーきゅーをどいつにみとめさせようとしたのだが、どいつのはんのーわれいたんだった。	NO_LABEL
ドイツがフランス全土を占領し、連合国がヨーロッパ大陸から追い出された直後の1940年10月、スペイン内戦時代からの盟友であるナチス指導者でドイツ総統アドルフ・ヒトラーと、ヴィシー政権が統治していたフランスとスペインとの国境のアンダイエで会談し、その蜜月関係を世界中に対し誇示した。	NO_PRONOUNCE	NO_LABEL
ヒトラーはスペインの領土要求に対し、仏領北アフリカの大幅割譲はできないとしながら、対英戦後の英国植民地処理でスペインに代償が与えられるので領土調整は可能と述べた。	ひとらーわすぺいんのりょーどよーきゅーにたいし、ふつりょーきたあふりかのおーはばかつじょーわできないとしながら、たいえいせんごのえいこくしょくみんちしょりですぺいんにだいしょーがあたえられるのでりょーどちょーせいわかのーとのべた。	NO_LABEL
フランコはこの時ヒトラーが要求した英領ジブラルタル攻略作戦のための地上ルート提供や、独伊鋼鉄同盟参加と将来的な日独伊三国同盟への参加を約束し、条件として軍事･経済の「莫大な戦略物資」を要求しつつ、参戦の意思を宣誓した。	NO_PRONOUNCE	NO_LABEL
しかし、英国本土航空戦や地中海戦線特にギリシャ戦線での英国有利な状況と経済的な英米との依存関係はフランコの参戦意欲を減退させ、翌年にフランコはこの合意を無効とし、その後も参戦要求をかわし続けた。	しかし、えいこくほんどこーくーせんやちちゅーかいせんせんとくにぎりしゃせんせんでのえいこくゆーりなじょーきょーとけいざいてきなえいべいとのいぞんかんけいわふらんこのさんせんいよくをげんたいさせ、よくねんにふらんこわこのごーいをむこーとし、そのごもさんせんよーきゅーをかわしつずけた。	NO_LABEL
一方でヒトラーがソ連侵攻作戦バルバロッサ作戦を発動すると、国中の熱狂的なファシスト一万人近くを集め青師団を創設し、義勇兵部隊として、ドイツに送り込んでいる。	いっぽーでひとらーがそれんしんこーさくせんばるばろっささくせんをはつどーすると、くになかのねっきょーてきなふぁしすといちまんにんちかくをあつめあおしだんをそーせつし、ぎゆーへいぶたいとして、どいつにおくりこんでいる。	NO_LABEL
さらに内戦の経緯もあって、ソ連を仇敵と見なす国内世論とこれまでの自身の言動を無視できない面や内戦期におけるドイツ援助への返礼的意味合いもあった。	さらにないせんのけいいもあって、それんをきゅーてきとみなすこくないせろんとこれまでのじしんのげんどーをむしできないめんやないせんきにおけるどいつえんじょえのへんれいてきいみあいもあった。	NO_LABEL
1941年の真珠湾攻撃後には日本に祝電を送り、アメリカの不興を買った。	せんきゅうひゃくよんじゅういちねのしんじゅわんこーげきごにわにっぽんにしゅくでんをおくり、あめりかのふきょーをかった。	NO_LABEL
一方でスペインの旧植民地で権益が存在したフィリピンに日本軍が進攻すると、かつての植民地であるフィリピンに残る利権の扱いを巡り両国間で軋轢が生まれた。	いっぽーですぺいんのきゅーしょくみんちでけんえきがそんざいしたふぃりぴんににっぽんぐんがしんこーすると、かつてのしょくみんちであるふぃりぴんにのこるりけんのあつかいをめぐりりょーこくかんであつれきがうまれた。	NO_LABEL
しかし、1943年頃よりヨーロッパおよびアフリカ戦線において完全に連合国が優勢になると、再び中立を固持するという日和見な姿勢に終始した。	しかし、せんきゅうひゃくよんじゅうさんねごろよりよーろっぱおよびあふりかせんせんにおいてかんぜんにれんごーこくがゆーせいになると、ふたたびちゅーりつをこじするとゆうひよりみなしせいにしゅーしした。	NO_LABEL
1944年頃になると、青師団について連合国側各国から批判が集まり、対してフランコは撤兵を約束、国内に対して反対する者は厳罰に処する、と声明した。	せんきゅうひゃくよんじゅうよねんごろになると、あおしだんについてれんごーこくがわかっこくからひはんがあつまり、たいしてふらんこわてっぺいをやくそく、こくないにたいしてはんたいするものわげんばつにしょする、とせいめいした。	NO_LABEL
さらにアジア太平洋戦線においても日本軍が完全に劣勢となった1945年に起きたマニラの戦いにおいては、現地スペイン人の損害問題を理由に日本と断交した。	さらにあじあたいへいよーせんせんにおいてもにっぽんぐんがかんぜんにれっせいとなったせんきゅうひゃくよんじゅうごねんにおきたまにらのたたかいにおいてわ、げんちすぺいんじんのそんがいもんだいをりゆーににっぽんとだんこーした。	NO_LABEL
フランコは第二次世界大戦を次のように見ていた。	ふらんこわだいにじせかいたいせんをつぎのよーにみていた。	NO_LABEL
「世界では全く別の二つの戦争が戦われている。	NO_PRONOUNCE	NO_LABEL
第一にヨーロッパではソ連に対する戦争であり、第二に太平洋では日本に対する戦争である」とし、ドイツ、アメリカ、イギリスを含む「全キリスト教世界」は、野蛮で東洋的・共産主義的なロシアを共通の敵として戦うべきであるとした。	NO_PRONOUNCE	NO_LABEL
フランコはこの考えにそって連合国とドイツの講和調停を行った。	ふらんこわこのかんがえにそってれんごーこくとどいつのこーわちょーていをおこなった。	NO_LABEL
なお、この工作において「アジアにおけるヨーロッパの権益は完全に回復するべきものである」としており、非キリスト教国である日本の要求は考慮に入れていなかった。	NO_PRONOUNCE	NO_LABEL
また、ヨーロッパ及びアフリカ戦線においてドイツやイタリアの劣勢が決定的となり、またアジア太平洋戦線においても日本軍が劣勢の色を見せ始めていた1943年7月28日にアメリカに和平調停を申し出たが、その際には駐スペインのアメリカ大使に対して「彼らは基本的に蛮族である。	NO_PRONOUNCE	NO_LABEL
彼らは最悪の帝国主義者であり、中国および極東全域の支配をもくろんでいる。	かれらわさいあくのていこくしゅぎしゃであり、ちゅーごくおよびきょくとーぜんいきのしはいをもくろんでいる。	NO_LABEL
フィリピンに独立を保証するという彼らの最近の約束は全く信頼できない。	ふぃりぴんにどくりつをほしょーするとゆうかれらのさいきんのやくそくわぜんくしんらいできない。	NO_LABEL
スペインは日本に何らのシンパシーを抱いておらず、もし軍事的に弱体でなければ太平洋戦争において喜んでアメリカと協力したいところである」と述べている。	NO_PRONOUNCE	NO_LABEL
しかし、連合国もドイツもスペインの調停には耳を貸さなかった。	しかし、れんごーこくもどいつもすぺいんのちょーていにわみみをかさなかった。	NO_LABEL
結果としてスペインは、第二次世界大戦中において「中立国」として振る舞うことにより、自国及び植民地の戦禍を完全に免れたが、その風見鶏的な態度は連合国、特にアメリカに不信感を植え付けることとなった。	NO_PRONOUNCE	NO_LABEL
フランコ政権は、彼が内乱中に組織したファランヘ党の一党独裁の政権であり、その成立時からドイツとイタリアの支援を受け、軍隊とグアルディア・シビルによる厳しい支配を行った。	ふらんこせいけんわ、かれがないらんちゅーにそしきしたふぁらんへとーのいっとーどくさいのせいけんであり、そのせいりつじからどいつといたりあのしえんをうけ、ぐんたいとぐあるでぃあしびるによるきびしいしはいをおこなった。	NO_LABEL
そのため、第二次世界大戦終結後に成立した国際連合は、1946年12月の国連総会で、ファシズムの影響下にあるスペインを国連から排除する決議を採択した。	そのため、だいにじせかいたいせんしゅーけつごにせいりつしたこくさいれんごーわ、せんきゅうひゃくよんじゅうろくねじゅーにがつのこくれんそーかいで、ふぁしずむのえいきょーかにあるすぺいんをこくれんからはいじょするけつぎをさいたくした。	NO_LABEL
しかし、第二次世界大戦後の東西冷戦の激化により、イギリスやアメリカをはじめとする西側諸国は、反共産主義という共通点と、スペインが地中海の入り口という地政学的にも戦略的にも重要な位置にあり、さらにイギリス領ジブラルタルの地位を尊重しているという理由で、フランコ率いるスペインとの関係の修復を模索し始めた。	しかし、だいにじせかいたいせんごのとーざいれいせんのげきかにより、いぎりすやあめりかをはじめとするにしがわしょこくわ、はんきょーさんしゅぎとゆうきょーつーてんと、すぺいんがちちゅーかいのいりくちとゆうちせいがくてきにもせんりゃくてきにもじゅーよーないちにあり、さらにいぎりすりょーじぶらるたるのちいをそんちょーしているとゆうりゆーで、ふらんこひきいるすぺいんとのかんけいのしゅーふくをもさくしはじめた。	NO_LABEL
1953年9月に、アメリカはスペインとを締結した。	せんきゅうひゃくごじゅうさんねんくがつに、あめりかわすぺいんとをていけつした。	NO_LABEL
この協定によるアメリカの軍事援助と、国際的孤立から抜け出したことによる観光収入の増大で、スペインの国際収支は黒字に転じ、遅れていた主要産業も発展し始めた。	このきょーていによるあめりかのぐんじえんじょと、こくさいてきこりつからぬけだしたことによるかんこーしゅーにゅーのぞーだいで、すぺいんのこくさいしゅーしわくろじにてんじ、おくれていたしゅよーさんぎょーもはってんしはじめた。	NO_LABEL
こうして、スペイン史上初めて中産階級と呼べる層が出現した。	こーして、すぺいんしじょーはじめてちゅーさんかいきゅーとよべるそーがしゅつげんした。	NO_LABEL
フランコは、中産階級をバックに高まる自由主義運動を厳しく抑圧する一方、亡命者のメキシコやスイスなどからの帰国を認めた。	ふらんこわ、ちゅーさんかいきゅーをばっくにたかまるじゆーしゅぎうんどーをきびしくよくあつするいっぽー、ぼーめいしゃのめきしこやすいすなどからのきこくをみとめた。	NO_LABEL
また、1959年12月にはアメリカ合衆国のドワイト・D・アイゼンハワー大統領と会見する。	NO_PRONOUNCE	NO_LABEL
第二次世界大戦時には「中立国の指導者」という立場ながら、枢軸国が劣勢になる1944年ころまでは一貫して親ドイツの立場を保っていたフランコと、そのドイツを敵に連合国軍の司令官として戦っていたアイゼンハワーの会見は、序盤こそぎこちなかったものの、お互い軍人出身という出自や、上記のようなアメリカ側の事情もあり、最終的には2人とも打ち解け、別れの際に抱擁をかわした程だった。	NO_PRONOUNCE	NO_LABEL
これにより、アメリカとの関係は飛躍的に改善される。	これにより、あめりかとのかんけいわひやくてきにかいぜんされる。	NO_LABEL
その後、独裁を続けるフランコを支援することに対する国内世論からの批判を受けたアメリカなどの意向に配慮して、任命制の議員の一部を選挙制に切り替えるなど、冷戦の影響をうけて左右に揺れ動くスペイン国内の社会不安の緩和に努めた。	そのご、どくさいをつずけるふらんこをしえんすることにたいするこくないせろんからのひはんをうけたあめりかなどのいこーにはいりょして、にんめいせいのぎいんのいちぶをせんきょせいにきりかえるなど、れいせんのえいきょーをうけてさゆーにゆれうごくすぺいんこくないのしゃかいふあんのかんわにつとめた。	NO_LABEL
しかし、カタルーニャやバスク地方における独立意識を削ぐために、公の場でのカタルーニャ語やバスク語の使用を禁止するなど、一部では強硬な姿勢を取っており、この様なフランコの姿勢に対して「バスク祖国と自由」によるテロなどが活発化した。	NO_PRONOUNCE	NO_LABEL
なお、フランコは独裁者には珍しく比較的寛大な性格で、部下の進言や諫言にもよく耳を傾けて容れることが多く、彼らを処罰や粛清することはあまりなかった。	NO_PRONOUNCE	NO_LABEL
フランコは政権のあり方について、最終的には王制に移行するべきだと考えていた。	ふらんこわせいけんのありかたについて、さいしゅーてきにわおーせいにいこーするべきだとかんがえていた。	NO_LABEL
これは、フランコ政権が「個人的独裁制」なので、フランコ没後、政権の枠組みをそのままの形で継承することはあり得ないからである。	NO_PRONOUNCE	NO_LABEL
議会制民主主義はこの当時のスペインでは失敗を続けてきたので採用はできず、王制が最良だとしたのである。	ぎかいせいみんしゅしゅぎわこのとーじのすぺいんでわしっぱいをつずけてきたのでさいよーわできず、おーせいがさいりょーだとしたのである。	NO_LABEL
ただし、新たな王家を迎えるのかボルボーン王朝による王政復古とするのかはフランコも決めかねていた。	ただし、あらたなおーけをむかえるのかぼるぼーんおーちょーによるおーせいふっことするのかわふらんこもきめかねていた。	NO_LABEL
かつてスペインを治めていたアブスブルゴ家などへの接触もあったといわれる。	かつてすぺいんをおさめていたあぶすぶるごかなどえのせっしょくもあったといわれる。	NO_LABEL
1947年に、フランコは「王位継承法」を制定し、スペインを「王国」とすること、フランコが国家元首として「王国」の終身の「摂政」となること、フランコに後継の国王の指名権が付与されることなどを定めた。	NO_PRONOUNCE	NO_LABEL
この「王位継承法」は7月16日の国民投票で成立し、フランコは終身国家元首の地位を得た。	NO_PRONOUNCE	NO_LABEL
70歳を越え健康状態が悪化すると、フランコの後継者問題が表面化した。	ななじゅっさいをこえけんこーじょーたいがあっかすると、ふらんこのこーけいしゃもんだいがひょーめんかした。	NO_LABEL
前国王アルフォンソ13世の息子で、イタリアへ亡命しているフアン・デ・ボルボン・イ・バッテンベルグを呼び戻し次期国王とするのが自然であったが、フランコは「考え方が容共的すぎる」としてこれを避けた。	NO_PRONOUNCE	NO_LABEL
さらに一部にはフランコの娘に自らの地位を継がせ、カレーロ・ブランコをその下につけるという意見もあったが、これらの意見は王制移行を希望するフランコにより否定された。	NO_PRONOUNCE	NO_LABEL
最終的にフランコは、前国王アルフォンソ13世の孫でフアン・デ・ボルボンの息子であるフアン・カルロスを1969年に自らの後継者に指名し、将来の国王としての教育を受けさせる一方、その後自らは公の場に出ることを差し控えるようになった。	NO_PRONOUNCE	NO_LABEL
長い闘病生活の末に1975年に83歳で没した。	ながいとーびょーせいかつのすえにせんきゅうひゃくななじゅうごねんにはちじゅうさんさいでぼっした。	NO_LABEL
ヨーロッパにおいてドイツとイタリアのファシズム政権と同盟関係を結び、自らも国内にファシズム体制を築き上げた独裁者フランコは、ドイツとイタリアのファシズムが崩壊した後も、実に30年間にわたってその独裁体制を維持し続けた。	よーろっぱにおいてどいつといたりあのふぁしずむせいけんとどーめいかんけいをむすび、みずからもこくないにふぁしずむたいせいをきずきあげたどくさいしゃふらんこわ、どいつといたりあのふぁしずむがほーかいしたのちも、じつにさんじゅうねんかんにわたってそのどくさいたいせいをいじしつずけた。	NO_LABEL
フランコの支持基盤であった陸軍内部には王の帰還を求める声も強く、自身の没後は王族を擁き政治の実権は腹心のルイス・カレーロ・ブランコに与えようとした。	ふらんこのしじきばんであったりくぐんないぶにわおーのきかんをもとめるこえもつよく、じしんのぼつごわおーぞくをよーきせいじのじっけんわふくしんのるいすかれーろぶらんこにあたえようとした。	NO_LABEL
しかし、1973年にETAによるテロで乗っていた自動車ごとブランコが爆殺され（）、この計画は頓挫した。	しかし、せんきゅうひゃくななじゅうさんねんにいーてぃーえーによるてろでのっていたじどーしゃごとぶらんこがばくさつされかっこ、このけいかくわとんざした。	NO_LABEL
1975年にフランコが死ぬと、フランコの遺言どおりにスペインにボルボーン王朝が復活した。	せんきゅうひゃくななじゅうごねんにふらんこがしぬと、ふらんこのゆいごんどーりにすぺいんにぼるぼーんおーちょーがふっかつした。	NO_LABEL
フアン・カルロス1世は、即位前にフランコの指示で帝王学の教育を受けていたこともあり、そのままフランコの独裁政治を受け継ぐかと思われたが、即位後は、政治の民主化を推し進め、急速に西欧型の議会制民主主義および立憲君主制国家への転換を図った。	ふあんかるろすいっせいわ、そくいまえにふらんこのしじでていおーがくのきょーいくをうけていたこともあり、そのままふらんこのどくさいせいじをうけつぐかとおもわれたが、そくいごわ、せいじのみんしゅかをおしすすめ、きゅーそくにせいおーがたのぎかいせいみんしゅしゅぎおよびりっけんくんしゅせいこっかえのてんかんをはかった。	NO_LABEL
2007年10月31日、スペイン下院議会はスペイン内戦とフランコ政権下の犠牲者の名誉回復、公の場でのフランコ崇拝の禁止などを盛り込んだ「La Ley por la que se reconocen y amplían derechos y se establecen medidas en favor de quienes padecieron persecución o violencia durante la Guerra Civil y la Dictadura」通称「」を与党社会労働党などの賛成多数で可決（）。	NO_PRONOUNCE	NO_LABEL
同年、上院でも可決成立した。	どーねん、じょーいんでもかけつせいりつした。	NO_LABEL
2008年10月より、「歴史の記憶法」に基づき、予審判事は内戦被害者調査に着手。	NO_PRONOUNCE	NO_LABEL
10月には、スペイン内戦中とフランコ政権初期に、国民戦線軍によって住民が虐殺されるなどの「人道に対する罪」「戦争犯罪」が行われたとして、スペイン全土に1400か所あると思われる犠牲者が埋められている集団墓地の発掘や関係者の訴追など、人道犯罪調査を行うと発表した。	NO_PRONOUNCE	NO_LABEL
一方、ハビエル・サラゴサ検事局長は、1977年に制定された特赦法「移行協定」により恩赦が成立しているとして、フランコ政権下で行われた犯罪はすべて許されるという立場を示し、対立が起きた。	NO_PRONOUNCE	NO_LABEL
10月17日、ガルソン判事は、内戦中及び独裁政権時代に住民の殺害や拉致を命じたとして、すでに死去しているフランコ以下35人を「人道に対する罪」等で起訴した。	NO_PRONOUNCE	NO_LABEL
11月6日、ガルソン判事の調査が終了し、全国25カ所の集団墓地からの犠牲者発掘を命じた。	NO_PRONOUNCE	NO_LABEL
翌7日、サラゴサ検事は案件は全国管区裁判所の管轄外だとして異議申し立てを行い、これを受けて11月28日、全管裁刑事法廷は集団墓地からの遺体発掘命令を停止すると決定した。	よくなのか、さらごさけんじわあんけんわぜんこくかんくさいばんしょのかんかつがいだとしていぎもーしたてをおこない、これをうけてじゅーいちがつにじゅうはちにち、ぜんかんさいけいじほーていわしゅーだんぼちからのいたいはっくつめいれいをていしするとけっていした。	NO_LABEL
同法廷のペドラサ判事は異議申し立ての処理が終了するまでガルソン判事の発掘命令とフランコ裁判を中止すべきと要請、同法廷全体会議にかけられ、これが認められた。	どーほーていのぺどらさはんじわいぎもーしたてのしょりがしゅーりょーするまでがるそんはんじのはっくつめいれいとふらんこさいばんをちゅーしすべきとよーせい、どーほーていぜんたいかいぎにかけられ、これがみとめられた。	NO_LABEL
アムネスティは、内戦中及びフランコ政権下で市民11万4千人が殺害若しくは行方不明になっているとして、スペイン政府に犠牲者のための真実を解明するよう求めている。	NO_PRONOUNCE	NO_LABEL
なお、スペインには数多くのフランコ像があったが、2008年12月、サンタンデール市の広場の7メートルのブロンズ像を最後に、本土からすべて撤去された。	NO_PRONOUNCE	NO_LABEL
