藤原 冬緒は、平安時代前期の公卿。	ふじわらふゆおわ、へいあんじだいぜんきのくげ。	NO_LABEL
藤原京家、参議・藤原浜成の孫。	NO_PRONOUNCE	NO_LABEL
豊後守・藤原豊彦の三男。	NO_PRONOUNCE	NO_LABEL
官位は正三位・大納言。	NO_PRONOUNCE	NO_LABEL
儒学の才を謳われる一方、民政にも明るく、官田の設置を提唱して財政再建を行うなど、清和・陽成朝を支える能吏として活躍した。	NO_PRONOUNCE	NO_LABEL
60歳を過ぎてから公卿となり、80歳を越える長命を保って大納言に昇るなど、政治的には振るわなかった藤原京家においては際立った存在であり、結果的に京家出身の最後の公卿となった。	ろくじゅっさいをすぎてからくげとなり、はちじゅっさいをこえるちょーめいをたもってだいなごんにのぼるなど、せいじてきにわふるわなかったふじわらきょうけにおいてわきわだったそんざいであり、けっかてきにきょーかしゅっしんのさいごのくげとなった。	NO_LABEL
承和10年勘解由判官に任官。	うけたまわわじゅうねんかげゆほーがんににんかん。	NO_LABEL
のち、式部少/大丞を経て、六位蔵人に春宮少進を兼ねて仁明天皇と皇太子・道康親王の両方の身近に仕える。	NO_PRONOUNCE	NO_LABEL
承和14年に従五位下に叙爵し、右少弁に任ぜられる。	うけたまわわじゅうよんねんにじゅうごいのげにじょしゃくし、うしょーべんににんぜられる。	NO_LABEL
仁明朝末の嘉祥2年伊勢介として地方官に転じる。	にんみょーともすえのかしょーにねんいせかいとしてちほーかんにてんじる。	NO_LABEL
嘉祥3年文徳天皇の即位後、春宮亮として京官に復帰し、皇太子・惟仁親王に仕える。	NO_PRONOUNCE	NO_LABEL
仁寿2年右少弁に任ぜられて以降、左右少弁に春宮亮を兼ね、文徳朝でも再び天皇と皇太子の両方に身近に仕える。	じんじゅにねんうしょーべんににんぜられていこー、ひだりうしょーべんにとーぐーあきらをかね、ふみのりあさでもふたたびてんのーとこーたいしのりょーほーにみじかにつかえる。	NO_LABEL
またこの間の仁寿4年に従五位上に叙せられている。	またこのかんのじんじゅよんねんにじゅうごいのじょーにじょせられている。	NO_LABEL
斉衡2年肥後守として、再び地方官に転じる。	さいこーにねんひごのかみとして、ふたたびちほーかんにてんじる。	NO_LABEL
貞観元年正五位下・右中弁に叙任されると、清和朝では貞観2年従四位下、貞観6年従四位上、貞観9年右大弁と弁官を務めながら順調に昇進し、一方で大宰大弐・弾正大弼・勘解由長官を兼ねている。	NO_PRONOUNCE	NO_LABEL
この間の貞観4年参議以上の官職にある廷臣に対して、時の政治について議論させ諸政策の効果について詳らかにするよう詔勅が出された。	このかんのじょうかんよんねんさんぎいじょーのかんしょくにあるていしんにたいして、ときのせいじについてぎろんさせしょせいさくのこーかについてつまびらかにするよーしょーちょくがだされた。	NO_LABEL
この際、右大臣・藤原良相により参議未満の者で意見を述べさせるべき者の一人として、名声が広く伝わっており、器量や見識に優れ、その有能ぶりは吏幹と称されている、との理由で冬緒の名が挙げられている。	NO_PRONOUNCE	NO_LABEL
貞観11年12月参議に任ぜられ公卿に列した。	じょうかんじゅういちねんじゅーにがつさんぎににんぜられくげにれつした。	NO_LABEL
議政官として大宰大弐・民部卿等を兼帯し、貞観13年正四位下、貞観18年従三位に叙せられた。	NO_PRONOUNCE	NO_LABEL
大宰大弐在職中の貞観12年には新羅の来襲への対策も踏まえて以下を提言し、認められている。	おおみこともちのおおいすけざいしょくちゅーのじょうかんじゅうにねんにわしらぎのらいしゅーえのたいさくもふまえていかをていげんし、みとめられている。	NO_LABEL
清和朝末の貞観19年になると、70歳を越えた冬緒は度々辞官を願い出るが許されず、逆に同年10月に陽成天皇の即位に伴い中納言に昇進する。	せいわともすえのじょうかんじゅうきゅうねんになると、ななじゅっさいをこえたふゆおわたびたびじかんをねがいでるがゆるされず、ぎゃくにどーねんじゅーがつによーぜいてんのーのそくいにともないちゅーなごんにしょーしんする。	NO_LABEL
陽成朝でも昇進を重ね、元慶3年正三位、元慶6年大納言に至る。	よーぜいあさでもしょーしんをかさね、がんぎょーさんねんしょうさんい、がんぎょーろくねんだいなごんにいたる。	NO_LABEL
この間の元慶3年には民部卿として以下の提言を行い、採用されている。	このかんのがんぎょーさんねんにわみんぶきょーとしていかのていげんをおこない、さいよーされている。	NO_LABEL
仁和3年老齢を理由に致仕、致仕時の官位は大納言正三位兼行弾正尹。	にわさんねんろーれいをりゆーにちし、ちしじのかんいわだいなごんしょうさんいけんこーだんじょーのかみ。	NO_LABEL
寛平2年5月23日薨去。	かんぺいにねんごがつにじゅうさんにちこーきょ。	NO_LABEL
享年83。	NO_PRONOUNCE	NO_LABEL
最終官位は致仕大納言正三位。	さいしゅーかんいわちしだいなごんしょうさんい。	NO_LABEL
注記のないものは『六国史』による。	NO_PRONOUNCE	NO_LABEL
『尊卑分脈』による。	NO_PRONOUNCE	NO_LABEL
