永田 琴は、日本の映画監督、脚本家。	ながたことわ、にっぽんのえいがかんとく、きゃくほんか。	NO_LABEL
独立してからしばらくは永田 琴恵名義で活動していた。	どくりつしてからしばらくわながたことえめいぎでかつどーしていた。	NO_LABEL
関西学院大学商学部卒業。	かんせいがくいんだいがくしょーがくぶそつぎょー。	NO_LABEL
岩井俊二に師事し、数多くの作品で助監督経験を経て、2001年に独立し、フリーのディレクターとして企画や演出をするようになる。	いわいしゅんじにしじし、かずおーくのさくひんでじょかんとくけいけんをへて、にせんいちねんにどくりつし、ふりーのでぃれくたーとしてきかくやえんしゅつをするよーになる。	NO_LABEL
同年の『壁穴』で監督・脚本家デビュー。	NO_PRONOUNCE	NO_LABEL
2004年の『恋人日和』「イカルスの恋人たち」で劇場公開デビュー。	NO_PRONOUNCE	NO_LABEL
2006年に「渋谷区円山町」で本格的に長編映画を手掛ける。	NO_PRONOUNCE	NO_LABEL
2009年には『妄想姉妹〜文學という名のもとに〜』でテレビドラマの監督を務める。	NO_PRONOUNCE	NO_LABEL
2011年、ジンジャースタジオ株式会社を設立し、子どものための映画ワークショップ「えいがっこ！」を主催する。	NO_PRONOUNCE	NO_LABEL
