ニューマドリッド地震帯は、アメリカ合衆国中西部にある地震帯でイリノイ州、ミズーリ州、アーカンソー州、ケンタッキー州、テネシー州、ミシシッピ州の6つの州にまたがる活断層帯である。	にゅーまどりっどじしんたいわ、あめりかがっしゅーこくちゅーせいぶにあるじしんたいでいりのいしゅー、みずーりしゅー、あーかんそーしゅー、けんたっきーしゅー、てねしーしゅー、みししっぴしゅーのむっつのしゅーにまたがるかつだんそーたいである。	NO_LABEL
ニューマドリッド断層ともいう。	にゅーまどりっどだんそーともいう。	NO_LABEL
約300年から500年間隔で大地震を引き起こすと考えられており、近年発生した地震では1811年から1812年の冬季に連続して発生したニューマドリッド地震がある。	やくさんびゃくねんからごひゃくねんかんかくでおおじしんをひきおこすとかんがえられており、きんねんはっせいしたじしんでわせんはっぴゃくじゅういちねんからじょきょくせんはっぴゃくじゅうにねんのとーきにれんぞくしてはっせいしたにゅーまどりっどじしんがある。	NO_LABEL
