トミスラヴ・マリッチは、ドイツ出身の元サッカー選手、指導者。	NO_PRONOUNCE	NO_LABEL
元クロアチア代表。	もとくろあちあだいひょー。	NO_LABEL
現役時代のポジションはフォワード。	げんえきじだいのぽじしょんわふぉわーど。	NO_LABEL
出身地はドイツだが、両親ともクロアチア人でクロアチア国籍も持つ。	しゅっしんちわどいつだが、りょーしんともくろあちあじんでくろあちあこくせきももつ。	NO_LABEL
弟のマリオもクロアチア代表経験を持つサッカー選手。	おとーとのまりおもくろあちあだいひょーけいけんをもつさっかーせんしゅ。	NO_LABEL
シュトゥットガルト・キッカーズに所属していた1999-00シーズンには21得点を挙げて2部リーグ得点王に輝いた。	NO_PRONOUNCE	NO_LABEL
更にこのシーズンのDFBポカールにて、キッカーズはボルシア・ドルトムント、SCフライブルク等、ブンデスリーガに所属する格上のクラブを次々に破り、準決勝まで進出する。	さらにこのしーずんのでぃえふびーぽかーるにて、きっかーずわぼるしあどるとむんと、えすつぇーふらいぶるくとー、ぶんですりーがにしょぞくするかくあげのくらぶをつぎつぎにやぶり、じゅんけっしょーまでしんしゅつする。	NO_LABEL
マリッチは準々決勝フライブルク戦での決勝点を含む4得点の活躍で、この快進撃に大きく貢献した。	まりっちわじゅんじゅんけっしょーふらいぶるくせんでのけっしょーてんをふくむよんとくてんのかつやくで、このかいしんげきにおーきくこーけんした。	NO_LABEL
翌2000-01シーズンにはブンデスリーガのVfLヴォルフスブルクへ移籍。	NO_PRONOUNCE	NO_LABEL
2002年にはクロアチア代表に選出され、同年5月8日のハンガリー戦で代表デビューを飾った。	にせんにねんにわくろあちあだいひょーにせんしゅつされ、どーねんごがつようかのはんがりーせんでだいひょーでびゅーをかざった。	NO_LABEL
2005年、退団したエメルソンの代役としてロブソン・ポンテと共に浦和レッドダイヤモンズへ入団した。	にせんごねん、たいだんしたえめるそんのだいやくとしてろぶそんぽんてとともにうらわれっどだいやもんずえにゅーだんした。	NO_LABEL
2004年にも、浦和レッズのテストを受けたが不合格、早急に代役が必要なため、2004年にテストを受けたこともあるマリッチに白羽の矢が立った。	にせんよねんにも、うらわれっずのてすとをうけたがふごーかく、そーきゅーにだいやくがひつよーなため、にせんよねんにてすとをうけたこともあるまりっちにしらはのやがたった。	NO_LABEL
Jリーグ初ゴールは、2005年8月27日の名古屋グランパスエイト戦。	じぇいりーぐはつごーるわ、にせんごねんはちがつにじゅうしちにちのなごやぐらんぱすえいとせん。	NO_LABEL
第85回天皇杯では5試合連続6得点の活躍で、浦和の25年ぶりの天皇杯優勝に貢献。	だいはちじゅうごかいてんのーはいでわごしあいれんぞくろくとくてんのかつやくで、うらわのにじゅうごねんぶりのてんのーはいゆーしょーにこーけん。	NO_LABEL
その活躍の様子はクロアチアでも報道された。	そのかつやくのよーすわくろあちあでもほーどーされた。	NO_LABEL
2006年1月2日に浦和との契約が満了し退団。	にせんろくねんいちがつふつかにうらわとのけいやくがまんりょーしたいだん。	NO_LABEL
わずか半年の在籍であったが、天皇杯のタイトルをもたらした立役者であり、サポーターからも愛された。	わずかはんとしのざいせきであったが、てんのーはいのたいとるをもたらしたたてやくしゃであり、さぽーたーからもあいされた。	NO_LABEL
天皇杯決勝でのセレモニー終了後、国立競技場に残った多数のサポーターによるカーテンコールに見送られ、翌日1月2日には早朝にもかかわらず数百名のサポーターが帰国前のマリッチを一目見ようと練習場に駆けつけ、別れを惜しんだ。	てんのーはいけっしょーでのせれもにーしゅーりょーご、こくりつきょーぎじょーにのこったたすーのさぽーたーによるかーてんこーるにみおくられ、よくじついちがつふつかにわそーちょーにもかかわらずかずひゃくなのさぽーたーがきこくまえのまりっちをいちもくみようとれんしゅーじょーにかけつけ、わかれをおしんだ。	NO_LABEL
その後、2005-06年シーズン当時レギオナルリーガのTSG1899ホッフェンハイムに移籍。	NO_PRONOUNCE	NO_LABEL
2部昇格に貢献した。	にぶしょーかくにこーけんした。	NO_LABEL
またW杯ドイツ大会期間中、浦和はドイツ遠征を行ったが、その際にホッフェンハイムとの親善試合が行われた。	またわーるどかっぷどいつたいかいきかんちゅー、うらわわどいつえんせいをおこなったが、そのさいにほっふぇんはいむとのしんぜんじあいがおこなわれた。	NO_LABEL
2007年夏、チームの2部昇格を区切りとし、ホッフェンハイムのコーチに就任。	にせんななねんなつ、ちーむのにぶしょーかくをくぎりとし、ほっふぇんはいむのこーちにしゅーにん。	NO_LABEL
指導者への道を選んだ。	しどーしゃえのみちをえらんだ。	NO_LABEL
2010年4月にはサッカードイツ協会のS級ライセンスを取得。	にせんじゅうねんしがつにわさっかーどいつきょーかいのえすきゅーらいせんすをしゅとく。	NO_LABEL
同年7月30日、ホッフェンハイムとの契約を終えた。	どーねんしちがつさんじゅうにち、ほっふぇんはいむとのけいやくをおえた。	NO_LABEL
2015年1月、スロバキア1部リーグのDAC 1904 ドゥナイスカー・ストレダの監督に就任した。	NO_PRONOUNCE	NO_LABEL
!rowspan="2"|通算!!colspan="3"|ドイツ	NO_PRONOUNCE	NO_LABEL
!colspan="3"|日本	NO_PRONOUNCE	NO_LABEL
256||95||3||0||23||13||282||108	NO_PRONOUNCE	NO_LABEL
