デビスカップ2017は第106回のデビスカップであり、2月から11月にかけて世界各地で開催された男子テニスの大会である。	NO_PRONOUNCE	NO_LABEL
ドローは2016年9月23日にイギリスのロンドンで発表された。	どろーわにせんじゅうろくねんくがつにじゅうさんにちにいぎりすのろんどんではっぴょーされた。	NO_LABEL
決勝はホームアドバンテージを持つフランス・リールで開催。	NO_PRONOUNCE	NO_LABEL
またこの影響でラグビーのテストマッチ vs の試合は別会場で開催することになった。	NO_PRONOUNCE	NO_LABEL
初戦敗退の8チームと地域グループ勝ち抜け8チームが9月15-17日まで実施。	NO_PRONOUNCE	NO_LABEL
勝利国が翌年のワールドグループに昇格、または残留、敗戦国が地域グループ1に降格、または残留となる。	NO_PRONOUNCE	NO_LABEL
シード国	しーどこく	NO_LABEL
非シード国	ひしーどこく	NO_LABEL
この結果、カザフスタンとオランダ、ハンガリーがワールドグループ昇格。	このけっか、かざふすたんとおらんだ、はんがりーがわーるどぐるーぷしょーかく。	NO_LABEL
アルゼンチンとチェコ、ロシアが地域グループI降格。	NO_PRONOUNCE	NO_LABEL
その他の10チームは残留となった。	NO_PRONOUNCE	NO_LABEL
