松岡 大介は、日本の男性声優。	まつおかだいすけわ、にっぽんのだんせいせいゆー。	NO_LABEL
神奈川県出身。	かながわけんしゅっしん。	NO_LABEL
ベストポジション所属。	べすとぽじしょんしょぞく。	NO_LABEL
2010年3月まで東京俳優生活協同組合に所属していた。	にせんじゅうねんさんがつまでとーきょーはいゆーせいかつきょーどーくみあいにしょぞくしていた。	NO_LABEL
2004年	にせんよねん	NO_LABEL
2005年	にせんごねん	NO_LABEL
2006年	にせんろくねん	NO_LABEL
2007年	にせんななねん	NO_LABEL
2008年	にせんはちねん	NO_LABEL
2009年	にせんきゅうねん	NO_LABEL
2010年	にせんじゅうねん	NO_LABEL
2012年	にせんじゅうにねん	NO_LABEL
2016年	にせんじゅうろくねん	NO_LABEL
1998年	せんきゅうひゃくきゅうじゅうはちねん	NO_LABEL
2007年	にせんななねん	NO_LABEL
2007年	にせんななねん	NO_LABEL
2008年	にせんはちねん	NO_LABEL
2006年	にせんろくねん	NO_LABEL
1996年	せんきゅうひゃくきゅうじゅうろくねん	NO_LABEL
2005年	にせんごねん	NO_LABEL
2006年	にせんろくねん	NO_LABEL
2007年	にせんななねん	NO_LABEL
2011年	にせんじゅういちねん	NO_LABEL
2013年	にせんじゅうさんねん	NO_LABEL
2016年	にせんじゅうろくねん	NO_LABEL
