グランドラピッズは、アメリカ合衆国ミシガン州ロウアー半島の西部に位置する都市。	ぐらんどらぴっずわ、あめりかがっしゅーこくみしがんしゅーろうあーはんとーのせいぶにいちするとし。	NO_LABEL
西ミシガン地域の中心都市であり、ケント郡の郡庁所在地である。	にしみしがんちいきのちゅーしんとしであり、けんとぐんのぐんちょーしょざいちである。	NO_LABEL
人口は188,040人で、デトロイトに次ぐミシガン州第2の都市である。	NO_PRONOUNCE	NO_LABEL
ケント郡を中心に4郡にまたがる都市圏には988,938人、ミシガン湖岸のマスキーゴンなどを含む広域都市圏には1,379,237人の人口を抱える。	NO_PRONOUNCE	NO_LABEL
グランドラピッズは家具産業で知られ、「家具の街」と呼ばれている。	NO_PRONOUNCE	NO_LABEL
グランドラピッズは第38代大統領ジェラルド・R・フォードゆかりの街である。	ぐらんどらぴっずわだいさんじゅうはちだいだいとーりょーじぇらるどるどるふふぉーどゆかりのまちである。	NO_LABEL
フォードはグランドラピッズで少年期を過ごし、ベティ・ブルーマーと出会った。	NO_PRONOUNCE	NO_LABEL
2006年の暮れに死去したフォードはグランドラピッズの大統領博物館の敷地内に埋葬されている。	にせんろくねんのくれにしきょしたふぉーどわぐらんどらぴっずのだいとーりょーはくぶつかんのしきちないにまいそーされている。	NO_LABEL
グランドラピッズの玄関口となる空港、ジェラルド・R・フォード国際空港はフォードにちなんで名付けられた。	ぐらんどらぴっずのげんかんぐちとなるくーこー、じぇらるどるどるふふぉーどこくさいくうこーわふぉーどにちなんでなずけられた。	NO_LABEL
2,000年以上前、グランド川流域一帯には古代のアメリカ先住民の文化であるホープウェル文化が栄えていた。	NO_PRONOUNCE	NO_LABEL
1700年頃、ネイティブ・アメリカンのオタワ族はグランド川沿いにいくつもの村を創った。	せんななひゃくねんごろ、ねいてぃぶあめりかんのおたわぞくわぐらんどかわぞいにいくつものむらをつくった。	NO_LABEL
この地にヨーロッパ人が入植し始めたのは19世紀に入ったあたりであった。	このちによーろっぱじんがにゅーしょくしはじめたのわじゅうきゅうせいきにはいったあたりであった。	NO_LABEL
初期の入植者は主に毛皮の取引商であった。	しょきのにゅーしょくしゃわおもにけがわのとりひきしょーであった。	NO_LABEL
彼らはネイティブ・アメリカンから毛皮を買い、ヨーロッパから持ち込んだ金属製品や織物を売るという取引を行っていたため、必然的にオタワ族の村の近くに入植地を建設して住んでいた。	かれらわねいてぃぶあめりかんからけがわをかい、よーろっぱからもちこんだきんぞくせいひんやおりものをうるとゆうとりひきをおこなっていたため、ひつざんてきにおたわぞくのむらのちかくににゅーしょくちをけんせつしてすんでいた。	NO_LABEL
西ミシガンに最初の毛皮取引所を創設したのはジョセフ・マデリーンのラ・フランボワーズ夫妻であった。	NO_PRONOUNCE	NO_LABEL
夫妻の建てた取引所は現在のエイダの近くにあった。	ふさいのたてたとりひきじょわげんざいのえいだのちかくにあった。	NO_LABEL
1806年に夫が死去した後、マデリーン・ラ・フランボワーズは最初の取引所の西と北にも新たな取引所を創設し、事業を拡大した。	NO_PRONOUNCE	NO_LABEL
その後フランボワーズの会社とアメリカ毛皮会社は合併した。	そのごふらんぼわーずのかいしゃとあめりかけがわかいしゃわがっぺいした。	NO_LABEL
フランボワーズは41歳で退職し、西ミシガンを離れてマキナック島に移り住んだ。	ふらんぼわーずわよんじゅういっさいでたいしょくし、にしみしがんをはなれてまきなっくとーにうつりすんだ。	NO_LABEL
1825年、ケンタッキー州出身のバプテスト教会の宣教師、イサク・マッコイが布教のためにグランドラピッズを訪れた。	NO_PRONOUNCE	NO_LABEL
マッコイはグランドラピッズ最初の定住者となった。	まっこいわぐらんどらぴっずさいしょのていじゅーしゃとなった。	NO_LABEL
翌1826年にはデトロイト出身のルイス・キャンポーがグランド川の急流の東岸に取引所を建設した。	NO_PRONOUNCE	NO_LABEL
キャンポーは一旦デトロイトに帰ったが、その翌年に妻を連れ、5,000ドルの商品を持ってこの地に舞い戻り、地元のネイティブ・アメリカンと取引を始めた。	NO_PRONOUNCE	NO_LABEL
1831年、連邦によるノースウェスト準州の調査がグランド川の河岸まで進み、ケント郡の領域が定められた。	せんはっぴゃくさんじゅういちねん、れんぽーによるのーすうぇすとじゅんしゅーのちょーさがぐらんどがわのかわぎしまですすみ、けんとぐんのりょーいきがさだめられた。	NO_LABEL
郡名はニューヨークの弁護士ジェームズ・ケントにちなんでつけられた。	ぐんめいわにゅーよーくのべんごしじぇーむずけんとにちなんでつけられた。	NO_LABEL
同年、キャンポーは現在のグランドラピッズのダウンタウンにあたる291,000m²の土地を連邦政府から90ドルで購入し、「グランド川の急流」を意味するグランドラピッズという名をつけた。	NO_PRONOUNCE	NO_LABEL
 キャンポーのライバルであったルシアス・リヨンは残りの土地を購入し、ケント村と名づけた。	NO_PRONOUNCE	NO_LABEL
1830年代に入ると、グランドラピッズ一帯にはニューヨークやニューイングランドから人が移り住んでくるようになった。	せんはっぴゃくさんじゅうねんだいにはいると、ぐらんどらぴっずいったいにわにゅーよーくやにゅーいんぐらんどからひとがうつりすんでくるよーになった。	NO_LABEL
1836年には、ジョン・ボールはデトロイトを通り越してグランドラピッズに発展の可能性を見出し、この地を"the promised land, or at least the most promising one for my operations"と評した。	NO_PRONOUNCE	NO_LABEL
1838年には正式な村となり、村域も東西・南北それぞれ約1km程度に広がった。	NO_PRONOUNCE	NO_LABEL
1845年に初めて正式な統計が取られたときには、グランドラピッズの人口は1,510人を数え、村域も4km²に広がっていた。	NO_PRONOUNCE	NO_LABEL
1850年5月1日には市制を施行した。	せんはっぴゃくごじゅうねんごがつついたちにわしせいをしこーした。	NO_LABEL
市制施行時の人口は2,686人であった。	NO_PRONOUNCE	NO_LABEL
1857年には、グランドラピッズの市域は27km²に広がった。	NO_PRONOUNCE	NO_LABEL
現在のグランドラピッズの街の基礎が築かれたのは19世紀後半に入ってからであった。	げんざいのぐらんどらぴっずのまちのきそがきずかれたのわじゅうきゅうせいきこーはんにはいってからであった。	NO_LABEL
この頃、グランドラピッズは製材業と家具産業の中心地として栄えていくようになり、"Furniture City"と呼ばれるようになった。	NO_PRONOUNCE	NO_LABEL
1876年にフィラデルフィアで開かれた国際展示会では、グランドラピッズは高品質な家具を生産する街として世界中にその名を知らしめた。	せんはっぴゃくななじゅうろくねんにふぃらでるふぃあでひらかれたこくさいてんじかいでわ、ぐらんどらぴっずわこうひんしつなかぐをせいさんするまちとしてせかいじゅーにそのなをしらしめた。	NO_LABEL
また、この頃に始まった全米家具市は1960年代に至るまで75年間にわたって開かれていた。	また、このころにはじまったぜんべいかぐしわせんきゅうひゃくろくじゅうねんだにいたるまでななじゅうごねんかんにわたってひらかれていた。	NO_LABEL
現在では事務用家具の生産が中心になっている。	げんざいでわじむよーかぐのせいさんがちゅーしんになっている。	NO_LABEL
また、19世紀にはこの地にオランダ系の移民が大量に移入してきた。	また、じゅうきゅうせいきにわこのちにおらんだけいのいみんがたいりょーにいにゅーしてきた。	NO_LABEL
現在グランドラピッズに多く住むオランダ系住民の多くは、この頃に移入してきた移民の子孫である。	げんざいぐらんどらぴっずにおーくすむおらんだけいじゅーみんのおーくわ、このころにいにゅーしてきたいみんのしそんである。	NO_LABEL
交通網も確立されていった。	こーつーもーもかくりつされていった。	NO_LABEL
1867年にはグランドラピッズに鉄道が敷かれた。	せんはっぴゃくろくじゅうしちねんにわぐらんどらぴっずにてつどーがしかれた。	NO_LABEL
このグランドラピッズ・アンド・インディアナ鉄道はその数十年にわたって路線を拡大し、グランドラピッズを中心にしてマスキーゴンや北ミシガンのトラバースシティ、マッキノーシティへ、南へはカラマズーを経てインディアナ州に入りフォートウェインへ、さらに南下してシンシナティへと通じた。	NO_PRONOUNCE	NO_LABEL
またシカゴへ通じる路線も敷かれた。	またしかごえつーじるろせんもしかれた。	NO_LABEL
1926年にはスタウト航空による、全米最初の航空機の定期旅客便がグランドラピッズとデトロイトを結んだ。	せんきゅうひゃくにじゅうろくねんにわすたうとこーくーによる、ぜんべいさいしょのこーくーきのていきりょかくびんがぐらんどらぴっずとでとろいとをむすんだ。	NO_LABEL
1900年にはグランドラピッズの人口は87,565人を数えた。	NO_PRONOUNCE	NO_LABEL
1916年、市はミシガン州法のホーム・ルール・チャーターを受け入れ、全米でも最初の部類に入るシティー・マネージャー制を採用した。	NO_PRONOUNCE	NO_LABEL
現在でもグランドラピッズ (の市政はシティー・マネージャー制が採られている。	NO_PRONOUNCE	NO_LABEL
グランドラピッズはに位置している。	ぐらんどらぴっずわにいちしている。	NO_LABEL
市の中心部をグランド川が流れている。	しのちゅーしんぶをぐらんどがわがながれている。	NO_LABEL
かつてはこの付近は急流であったことから、「グランド川の急流」を意味するグランドラピッズという市名がついた。	NO_PRONOUNCE	NO_LABEL
市の標高は186mである。	しのひょーこーわひゃくはちじゅうろくめーとるである。	NO_LABEL
ミシガン湖の湖岸線からは約50km離れている。	みしがんこのこがんせんからわやくごじゅうきろめーとるはなれている。	NO_LABEL
州都ランシングからは西北西へ約100km、デトロイトからは西北西へ約250kmに位置している。	しゅーとらんしんぐからわせいほくせいえやくひゃくきろめーとる、でとろいとからわせいほくせいえやくにひゃくごじゅうきろめーとるにいちしている。	NO_LABEL
西ミシガン地域のもうひとつの主要都市であるカラマズーはグランドラピッズから南へ約80kmに位置している。	にしみしがんちいきのもーひとつのしゅよーとしであるからまずーわぐらんどらぴっずからみなみえやくはちじゅうきろめーとるにいちしている。	NO_LABEL
アメリカ合衆国統計局によると、グランドラピッズ市は総面積117.4km²である。	NO_PRONOUNCE	NO_LABEL
このうち115.6km²が陸地で1.8km²が水域である。	NO_PRONOUNCE	NO_LABEL
総面積の1.50%が水域となっている。	NO_PRONOUNCE	NO_LABEL
市の水域のほとんどはグランド川である。	しのすいいきのほとんどわぐらんどがわである。	NO_LABEL
ワシントンD.C.やアルバカーキなどと同様、グランドラピッズはNE、NW、SE、SWの4つの区域に分けられている。	NO_PRONOUNCE	NO_LABEL
これらの区域名は住所の一部にもなっている。	これらのくいきめいわじゅーしょのいちぶにもなっている。	NO_LABEL
南北はフルトン・ストリートを境に、東西はディビジョン・アベニューを境にそれぞれ分けられている。	NO_PRONOUNCE	NO_LABEL
グランドラピッズの気候は寒い冬と涼しい夏に特徴づけられる、大陸性の気候である。	ぐらんどらぴっずのきこーわさむいふゆとすずしいなつにとくちょーずけられる、たいりくせいのきこーである。	NO_LABEL
最も暖かい7月の平均気温は22℃、最高気温の平均は28℃で、日中でも32℃を超えることは少ない。	もっともあたたかいしちがつのへいきんきおんわにじゅうにどしー、さいこーきおんのへいきんわにじゅうはちどしーで、にっちゅーでもさんじゅうにどしーをこえることわすくない。	NO_LABEL
最も寒い1月の平均気温は氷点下4℃、最低気温の平均は氷点下8℃で、日中でも0℃に達さない日が続く。	もっともさむいいちがつのへいきんきおんわひょーてんかよんどしぃ、さいていきおんのへいきんわひょーてんかはちどしーで、にっちゅーでもぜろどしーにたっさないひがつずく。	NO_LABEL
降水量は1年を通じて概ね平均しているが、冬期の12月から3月にはやや少ない。	こーすいりょーわいちねんをつーじておーむねへいきんしているが、とーきのじゅーにがつからさんがつにわややすくない。	NO_LABEL
また、グランドラピッズはカナダからの寒気が湿気を増すミシガン湖の風下に位置しているため雪が多く、12月から3月にかけては月間20-55cm程度の降雪が見られる。	NO_PRONOUNCE	NO_LABEL
年間降水量は約980mm、年間降雪量は約190cmである。	ねんかんこーすいりょーわやくきゅうひゃくはちじゅうめーとるめーとる、ねんかんこーせつりょうわやくひゃくきゅうじゅうせんちめーとるである。	NO_LABEL
ケッペンの気候区分では、グランドラピッズは亜寒帯湿潤気候に属する。	けっぺんのきこーくぶんでわ、ぐらんどらぴっずわあかんたいしつじゅんきこーにぞくする。	NO_LABEL
グランドラピッズはアメリカ合衆国下院のミシガン第3選挙区の中心都市である。	NO_PRONOUNCE	NO_LABEL
1949年から1973年にかけては、後に第40代副大統領、そして第38代大統領となるジェラルド・R・フォードが同選挙区選出の下院議員であった。	せんきゅうひゃくよんじゅうきゅうねんからせんきゅうひゃくななじゅうさんねんにかけてわ、ごにだいよんじゅうだいふくだいとうりょー、そしてだいさんじゅうはちだいだいとーりょーとなるじぇらるどるどるふふぉーどがどーせんきょくせんしゅつのかいんぎーんであった。	NO_LABEL
フォードは2006年12月26日にカリフォルニア州パームスプリングスの自宅で死去し、2007年1月3日にグランドラピッズの大統領博物館敷地内に葬られた。	ふぉーどわにせんろくねんじゅーにがつにじゅうろくにちにかりふぉるにあしゅーぱーむすぷりんぐすのじたくでしきょし、にせんななねんいちがつみっかにぐらんどらぴっずのだいとーりょーはくぶつかんしきちないにほーむられた。	NO_LABEL
グランドラピッズとその周辺は伝統的に共和党が強い。	ぐらんどらぴっずとそのしゅーへんわでんとーてきにきょーわとーがつよい。	NO_LABEL
しかし、グランドラピッズの保守的な評判とは裏腹に、市民は共和党の中道派と民主党の保守派を選ぶ傾向がある。	しかし、ぐらんどらぴっずのほしゅてきなひょーばんとわうらはらに、しみんわきょーわとーのちゅーどーはとみんしゅとーのほしゅはをえらぶけいこーがある。	NO_LABEL
2000年と2004年の大統領選挙では、グランドラピッズ市単体では民主党のアル・ゴアとジョン・ケリーの得票がそれぞれ共和党のジョージ・W・ブッシュの得票を上回った。	にせんねんとにせんよねんのだいとーりょーせんきょでわ、ぐらんどらぴっずしたんたいでわみんしゅとーのあるごあとじょんけりーのとくひょーがそれぞれきょーわとーのじょーじうぉーかーぶっしゅのとくひょーをうわまわった。	NO_LABEL
ミシガン州法に基づき、グランドラピッズは1916年にシティー・マネージャー制を採用した。	NO_PRONOUNCE	NO_LABEL
この制度により、グランドラピッズの市政の責任は選出された市議員と雇われたシティー・マネージャーとに分けられる。	NO_PRONOUNCE	NO_LABEL
市議員は3つの地区からそれぞれ2名ずつが選出され、任期は4年である。	NO_PRONOUNCE	NO_LABEL
各地区2名のうち1名は2年ごとに改選となる。	NO_PRONOUNCE	NO_LABEL
これはちょうど日本の参議院の「3年ごとに半数改選」のルールに似ている。	NO_PRONOUNCE	NO_LABEL
市長は市議会の長を務め、任期は市議員と同じ4年である。	しちょーわしぎかいのちょーをつとめ、にんきわしぎいんとおなじよんねんである。	NO_LABEL
市議員の選挙は奇数年に行われる。	しぎいんのせんきょわきすーねんにおこなわれる。	NO_LABEL
市議会は条例の制定やシティー・マネージャーおよびその他公職員の採用に責任を負う。	NO_PRONOUNCE	NO_LABEL
グランドラピッズは豊かな森林資源と良好な環境によって、長きにわたり家具産業で栄えていた。	ぐらんどらぴっずわゆたかなしんりんしげんとりょーこーなかんきょーによって、ちょうきにわたりかぐさんぎょーでさかえていた。	NO_LABEL
その流れを汲み、今日ではオフィス家具産業が爛熟している。	そのながれをくみ、きょーでわおふぃすかぐさんぎょーがらんじゅくしている。	NO_LABEL
グランドラピッズに本社を置くアメリカン・シーティング社は1886年に創立して以来、事務所、教室、講堂などの椅子の製造に特化してきた。	NO_PRONOUNCE	NO_LABEL
同じくグランドラピッズに本社を置くスチールケース社は、1912年に創立したオフィス用家具メーカーで、世界100ヶ国以上でビジネスを展開している。	NO_PRONOUNCE	NO_LABEL
その他、ヘイワース、ハーマンミラーといった錚々たる企業がこの地に拠点を置いている。	NO_PRONOUNCE	NO_LABEL
また、歴代米国大統領積み木をはじめ、外国語のアルファベット積み木などを多数発表している木製玩具の老舗・アンクルグースの工房もグランドラピッズに設置している。	NO_PRONOUNCE	NO_LABEL
家具のほかには、グランドラピッズには自動車関連や航空機関連の製造業が興っていた。	かぐのほかにわ、ぐらんどらぴっずにわじどーしゃかんれんやこーくーきかんれんのせいぞーぎょーがおこっていた。	NO_LABEL
2007年にゼネラル・エレクトリック傘下に入った航空機エンジン・部品メーカー、GEアビエーション・システムズはグランドラピッズに本社を置いている。	NO_PRONOUNCE	NO_LABEL
ゼネラルモーターズは2009年まで、グランドラピッズに金属プレス工場を持っていた。	ぜねらるもーたーずわにせんきゅうねんまで、ぐらんどらぴっずにきんぞくぷれすこーじょーをもっていた。	NO_LABEL
1990年代以降、これらの製造業に代わってグランドラピッズの産業の中心となってきているのは健康科学分野である。	せんきゅうひゃくきゅうじゅうねんだいいこー、これらのせいぞーぎょーにかわってぐらんどらぴっずのさんぎょーのちゅーしんとなってきているのわけんこーかがくぶんやである。	NO_LABEL
19,000人の従業員と1,500人の内科医を抱える西ミシガン最大の医療サービス会社、スペクトラム・ヘルスはグランドラピッズに本社を置いている。	NO_PRONOUNCE	NO_LABEL
また、市内にはがんの研究所として1996年に創設されたバン・アンデル研究所をはじめ、グランドバレー州立大学のクック＝デボス健康科学センターやミシガン州立大学人間医学部など、複数の医療研究施設が立地している。	NO_PRONOUNCE	NO_LABEL
また、グランドラピッズ東郊のエイダにはアムウェイが本社を置いている。	また、ぐらんどらぴっずとーこーのえいだにわあむうぇいがほんしゃをおいている。	NO_LABEL
グランドラピッズの玄関口となる空港はダウンタウンの南東約11kmに立地するジェラルド・R・フォード国際空港である。	ぐらんどらぴっずのげんかんぐちとなるくーこーわだうんたうんのなんとーやくじゅういちきろめーとるにりっちするじぇらるどるどるふふぉーどこくさいくうこーである。	NO_LABEL
同空港には主要3社のほか、ミッドウェスト航空も就航しており、各航空会社のハブ空港からの便がある。	NO_PRONOUNCE	NO_LABEL
ダウンタウンの東で州間高速道路I-196がI-96本線から枝分かれし、ダウンタウンを東西に貫いている。	NO_PRONOUNCE	NO_LABEL
I-96本線はダウンタウンの北を通り、ミシガン湖岸の町マスキーゴンへと通じている。	NO_PRONOUNCE	NO_LABEL
一方、I-196はダウンタウンを過ぎると南西へ、さらにミシガン湖沿いに南へと進路を変え、ベントンハーバーでI-94に合流してシカゴへと通ずる。	NO_PRONOUNCE	NO_LABEL
グランドラピッズより東では、I-96は東南東へランシングやデトロイトへと通じており、州の大動脈としての役割を果たしている。	NO_PRONOUNCE	NO_LABEL
また、ダウンタウンを南北に縦断する高速道路規格の国道131号線はカラマズーへ通じている。	また、だうんたうんをなんぼくにじゅーだんするこーそくどーろきかくのこくどーひゃくさんじゅういちごーせんわからまずーえつーじている。	NO_LABEL
これらの高速道路上にはグレイハウンドや提携会社の中長距離バスが走っている。	これらのこーそくどーろじょーにわぐれいはうんどやていけいかいしゃのちゅーちょーきょりばすがはしっている。	NO_LABEL
また、市内にはアムトラックの駅もあり、シカゴからの中距離列車の終点となっている。	また、しないにわあむとらっくのえきもあり、しかごからのちゅーきょりれっしゃのしゅーてんとなっている。	NO_LABEL
このペレ・マーケット号は、シカゴからミシガン州に出ている、ミシガン線と呼ばれる3本の中距離列車のうち最も短いもので、シカゴ・グランドラピッズ間283kmを約4時間かけて走る。	NO_PRONOUNCE	NO_LABEL
ペレ・マーケット号はシカゴ行、グランドラピッズ行それぞれ1日1本ずつ運行されている。	NO_PRONOUNCE	NO_LABEL
市内の公共交通はインターアーバン交通パートナーシップ、通称ザ・ラピッドによって運営されている路線バス網によってカバーされている。	NO_PRONOUNCE	NO_LABEL
ザ・ラピッドは27系統を有し、グランドラピッズ市内のみならず、インターアーバンの名が示す通り隣接する郊外都市やグランドバレー州立大学などにもバスを走らせている。	NO_PRONOUNCE	NO_LABEL
また、ダウンタウンにはDASHと呼ばれるバスも走っている。	また、だうんたうんにわだっしゅとよばれるばすもはしっている。	NO_LABEL
これはDowntown Area SHuttleの略である。	NO_PRONOUNCE	NO_LABEL
このバスは3路線あり、いずれも市内の駐車場とダウンタウンの各所を結んで走っている。	NO_PRONOUNCE	NO_LABEL
グランドラピッズの中心部から西へ12マイル、アレンデールにはグランドバレー州立大学が1,304エーカーのキャンパスを構えている。	NO_PRONOUNCE	NO_LABEL
同学は1960年に創立した州立の総合大学で、学部に82、大学院に30の専攻を有し、学部生約21,000人、大学院生約3,300人を抱えている。	NO_PRONOUNCE	NO_LABEL
同学のスポーツチーム、レイカーズはNCAAのディビジョンIIに属し、男子9種目、女子11種目に参加している。	NO_PRONOUNCE	NO_LABEL
グランドラピッズの市内には、全米のリベラル・アーツ・カレッジの中で上位120位以内に入る評価を受けている、校名にジャン・カルヴァンの名を冠した改革派教会系のカルヴァン大学をはじめ、カトリック系のアクイナス大学、グランドラピッズ神学校を併設する無宗派のコーナーストーン大学、根本主義系のグレース聖書大学、アブラハム・カイパーの名を校名に冠した改革派教会系のカイパー大学といった、キリスト教系のリベラル・アーツ・カレッジ5校がキャンパスを構えている。	NO_PRONOUNCE	NO_LABEL
グランドラピッズのK-12課程はグランドラピッズ公立学区の運営する公立学校によって主にカバーされている。	ぐらんどらぴっずのけーするーとぅえるぶかていわぐらんどらぴっずこーりつがっくのうんえいするこーりつがっこーによっておもにかばーされている。	NO_LABEL
同学区は約1,400人の教師を擁し、約17,000人の児童・生徒を抱えている。	NO_PRONOUNCE	NO_LABEL
グランドラピッズのダウンタウンに位置するローザ・パークス・サークルは、南部における公民権運動の引き金となったモントゴメリー・バス・ボイコット事件で知られるローザ・パークスにちなんで名づけられている。	NO_PRONOUNCE	NO_LABEL
周囲にはアムウェイ・グランド・プラザ・ホテルやデボス・プレイス・コンベンションセンター、多目的屋内競技場であるバン・アンデル・アリーナが建っている。	NO_PRONOUNCE	NO_LABEL
この3つの建物はスカイウェイと呼ばれる屋内連絡通路でつながっている。	このみっつのたてものわすかいうぇいとよばれるおくないれんらくつーろでつながっている。	NO_LABEL
冬には、ローザ・パークス・サークルにはアイススケートのリンクが設けられる。	NO_PRONOUNCE	NO_LABEL
市内を流れるグランド川には魚道や遊歩道が設置されている。	しないをながれるぐらんどがわにわぎょどーやゆーほどーがせっちされている。	NO_LABEL
また、川沿いにはホープウェル族が土葬を行った塚が並んでいる。	また、かわぞいにわほーぷうぇるぞくがどそーをおこなったつかがならんでいる。	NO_LABEL
また、市の西側には動物園を有するジョン・ボール・パークがある。	NO_PRONOUNCE	NO_LABEL
市の北東にはグランドラピッズの街並みを見下ろすベルクナップ・ヒルの丘が連なっている。	NO_PRONOUNCE	NO_LABEL
グランドラピッズは西ミシガンの文化の中心でもあり、博物館・美術館も数多く建つ。	NO_PRONOUNCE	NO_LABEL
1854年に開館したバン・アンデル・ミュージアム・センターは全米でも最古の部類に入る博物館のひとつである。	NO_PRONOUNCE	NO_LABEL
同館はグランドラピッズとその周辺地域の歴史に関する展示物を常設展示しているほか、イベントとして世界のさまざまな歴史的展示物を展示している。	どーかんわぐらんどらぴっずとそのしゅーへんちーきのれきしにかんするてんじぶつをじょーせつてんじしているほか、いべんととしてせかいのさまざまなれきしてきてんじぶつをてんじしている。	NO_LABEL
また同館はプラネタリウムも併設している。	またどーかんわぷらねたりうむもへいせつしている。	NO_LABEL
同館は1994年にグランド川西岸の現位置に建てられた。	どーかんわせんきゅうひゃくきゅうじゅうよねんにぐらんどかわにしがんのげんいちにたてられた。	NO_LABEL
ダウンタウンの北西部に建つジェラルド・R・フォード大統領博物館は、フォードの大統領在任中の歴史や、フォード夫妻の人生のハイライトに関する事物を展示している。	だうんたうんのほくせいぶにたつじぇらるどるどるふふぉーどだいとーりょーはくぶつかんわ、ふぉーどのだいとーりょーざいにんちゅーのれきしや、ふぉーどふさいのじんせいのはいらいとにかんするじぶつをてんじしている。	NO_LABEL
他の大統領博物館とは異なり、ジェラルド・R・フォード大統領博物館は大統領図書館を併設していない。	たのだいとーりょーはくぶつかんとわことなり、じぇらるどるどるふふぉーどだいとーりょーはくぶつかんわだいとーりょーとしょかんをへいせつしていない。	NO_LABEL
ジェラルド・R・フォード大統領図書館はアナーバーにあるジェラルド・R・フォードの母校、ミシガン大学のキャンパス内に建てられている。	じぇらるどるどるふふぉーどだいとーりょーとしょかんわあなーばーにあるじぇらるどるどるふふぉーどのぼこー、みしがんだいがくのきゃんぱすないにたてられている。	NO_LABEL
大統領博物館の敷地内には2006年末にカリフォルニア州パームスプリングスの自宅で死去したフォードが埋葬されている。	だいとーりょーはくぶつかんのしきちないにわにせんろくねんまつにかりふぉるにあしゅーぱーむすぷりんぐすのじたくでしきょしたふぉーどがまいそーされている。	NO_LABEL
ダウンタウンに立地する都市現代美術館は、美術作品を展示するのみならず、映画館を併設し、さらに塑像製作スタジオも併設している。	だうんたうんにりっちするとしげんだいびじゅつかんわ、びじゅつさくひんをてんじするのみならず、えいがかんをへいせつし、さらにそぞーせいさくすたじおもへいせつしている。	NO_LABEL
グランドラピッズ美術館はダウンタウン、ローザ・パークス・サークルの南東に隣接して建っている。	NO_PRONOUNCE	NO_LABEL
同館は19世紀・20世紀の芸術作品をはじめ、デザインや写真などを常設展示している。	NO_PRONOUNCE	NO_LABEL
また、同館は図書館を併設しており、アメリカ州やヨーロッパの絵画、彫刻、写真、デザインや、モダニズムに関する書物を所蔵している。	また、どーかんわとしょかんをへいせつしており、あめりかしゅーやよーろっぱのかいが、ちょーこく、しゃしん、でざいんや、もだにずむにかんするしょもつをしょぞーしている。	NO_LABEL
ダウンタウンの東に位置する、国家歴史登録財にも指定されているヘリテージ・ヒル地区には、1,000軒を超えるビクトリア調の歴史的建造物が建ち並んでいる。	NO_PRONOUNCE	NO_LABEL
中でも有名なのは、フランク・ロイド・ライトが1908年に設計した地元商人メイヤー・メイの家である。	NO_PRONOUNCE	NO_LABEL
メイの家は1985年にスチールケース社によって修復され、無料の博物館になっている。	めいのいえわせんきゅうひゃくはちじゅうごねんにすちーるけーすしゃによってしゅーふくされ、むりょーのはくぶつかんになっている。	NO_LABEL
ヘリテージ・ヒル地区よりさらに東には、グランドラピッズを代表する歴史的建築物のひとつであるウェルシー・ストリート・シアターがある。	NO_PRONOUNCE	NO_LABEL
1969年にアレクサンダー・カルダーがバンデンバーグ・プラザに「ラ・グランデ・ビテス」というスタビルを制作してから、グランドラピッズのダウンタウンでは毎年芸術祭が開かれている。	NO_PRONOUNCE	NO_LABEL
6月最初の週末、バンデンバーグ・プラザ周辺の道路は通行止めとなり、フリーコンサートや芸術実演・販売など、芸術に関連したイベントが執り行われる。	NO_PRONOUNCE	NO_LABEL
このほかバンデンバーグ・プラザでは、夏季期間中いくつもの民族祭が開かれる。	NO_PRONOUNCE	NO_LABEL
グランドラピッズの夏はレイバー・デイの週の週末、セレブレーション・オン・ザ・グランドを以って終わる。	NO_PRONOUNCE	NO_LABEL
同イベントでもフリーコンサートが行われるほか、西ミシガン最大の花火大会が行われ、出店も出る。	どーいべんとでもふりーこんさーとがおこなわれるほか、にしみしがんさいだいのはなびたいかいがおこなわれ、しゅってんもでる。	NO_LABEL
セレブレーション・オン・ザ・グランドの運営は全てボランティアによってまかなわれている。	NO_PRONOUNCE	NO_LABEL
運営資金は企業からの後援や個人の寄付によって集められている。	うんえいしきんわきぎょーからのこーえんやこじんのきふによってあつめられている。	NO_LABEL
またボランティアスタッフの販売による収益も運営資金にあてられる。	またぼらんてぃあすたっふのはんばいによるしゅーえきもうんえいしきんにあてられる。	NO_LABEL
1973年、グランドラピッズのメイン・ストリート・アメリカでは"Sculpture off the Pedestal"と題したイベントが開かれた。	NO_PRONOUNCE	NO_LABEL
世界的に有名な13人の芸術家を集めて行われたこのイベントは、その名の通り道のわきに彫刻を制作・展示したものである。	NO_PRONOUNCE	NO_LABEL
同イベントは国の芸術支援協会による資金面での支援や州の芸術局による教育面での支援を取り付けると共に、個人レベル、企業レベル、業界レベルでの協力も得た。	どーいべんとわくにのげいじゅつしえんきょーかいによるしきんめんでのしえんやしゅーのげいじゅつきょくによるきょーいくめんでのしえんをとりつけるとともに、こじんれべる、きぎょーれべる、ぎょーかいれべるでのきょーりょくもえた。	NO_LABEL
各種イベントの収益も運営資金にあてられた。	かくしゅいべんとのしゅーえきもうんえいしきんにあてられた。	NO_LABEL
ボランティアによる運営や地元住民による芸術家への宿の提供などは、このイベントが地域に密着して行われたことをうかがわせるものであった。	ぼらんてぃあによるうんえいやじもとじゅーみんによるげいじゅつかえのやどのていきょーなどわ、このいべんとがちいきにみっちゃくしておこなわれたことをうかがわせるものであった。	NO_LABEL
グランドラピッズにはメジャープロスポーツのチームこそ置かれていないが、下部リーグのチームが2つ置かれている。	ぐらんどらぴっずにわめじゃーぷろすぽーつのちーむこそおかれていないが、かぶりーぐのちーむがふたつおかれている。	NO_LABEL
デトロイト・タイガース傘下のマイナーリーグの野球チーム、ウェストミシガン・ホワイトキャップスは北郊のコムストックパークに立地するフィフスサード・ボールパークを本拠地にしている。	NO_PRONOUNCE	NO_LABEL
また、デトロイト・レッドウィングスと提携しているAHLのグランドラピッズ・グリフィンズは、ダウンタウンに立地するバン・アンデル・アリーナを本拠地としている。	NO_PRONOUNCE	NO_LABEL
毎年5月には、フィフスサード銀行がスポンサーとなって、フィフスサード・リバー・ランという市民マラソン大会が行われる。	NO_PRONOUNCE	NO_LABEL
この大会では25km、10km、5kmの3コースでレースが行われる。	NO_PRONOUNCE	NO_LABEL
また、5-13歳の子供を対象としたジュニア部門では5km、1マイル、1/2マイルの3コースで行われる。	NO_PRONOUNCE	NO_LABEL
メインとなっている25kmのレースでは、無差別のオープン部門のほか、体重別や年齢別の部門もある。	めいんとなっているにじゅうごきろめーとるのれーすでわ、むさべつのおーぷんぶもんのほか、たいじゅーべつやねんれいべつのぶもんもある。	NO_LABEL
また、25kmと同じコースで車椅子・ハンドサイクルのレースも行われる。	NO_PRONOUNCE	NO_LABEL
5kmのコースでは、通常のレースのほか、ローラーブレードやスケートボードでの参加や、犬を連れての参加なども可能なフリースタイルの散歩部門もある。	ごきろめーとるのこーすでわ、つーじょーのれーすのほか、ろーらーぶれーどやすけーとぼーどでのさんかや、いぬをつれてのさんかなどもかのーなふりーすたいるのさんぽぶもんもある。	NO_LABEL
グランドラピッズの都市圏、および広域都市圏を形成する各郡の人口は以下の通りである。	ぐらんどらぴっずのとしけん、およびこーいきとしけんをけいせいするかくぐんのじんこーわいかのとーりである。	NO_LABEL
以下にグランドラピッズ市における1850年から2010年までの人口推移をグラフおよび表で示す。	いかにぐらんどらぴっずしにおけるせんはっぴゃくごじゅうねんからにせんじゅうねんまでのじんこーすいいをぐらふおよびひょーでしめす。	NO_LABEL
グランドラピッズは以下5都市と姉妹都市提携を結んでいる。	NO_PRONOUNCE	NO_LABEL
