1965年の血の日曜日事件は、1965年3月7日に、アメリカの公民権運動中にアラバマ州の都市セルマで起きた流血事件。	せんきゅうひゃくろくじゅうごねんのちのにちよーびじけんわ、せんきゅうひゃくろくじゅうごねんさんがつなのかに、あめりかのこーみんけんうんどーちゅーにあらばましゅーのとしせるまでおきたりゅーけつじけん。	NO_LABEL
1965年3月7日、525から600名ほどの公民権運動家達がセルマを出発する。	NO_PRONOUNCE	NO_LABEL
セルマの人口の半数ほどの黒人達は、差別と脅迫により有権者登録を妨害された。	せるまのじんこーのはんすーほどのこくじんたちわ、さべつときょーはくによりゆーけんしゃとーろくをぼーがいされた。	NO_LABEL
同じ年の2月18日に、公民権運動デモ中に警察官の暴力から喫茶店に避難していた両親を守ろうとした黒人、に警察官が発砲。	おなじとしのにがつじゅうはちにちに、こーみんけんうんどーでもちゅーにけいさつかんのぼーりょくからきっさてんにひなんしていたりょーしんをまもろうとしたこくじん、にけいさつかんがはっぽー。	NO_LABEL
ジャクソンは8日後の2月26日に感染症のため病院で死亡した。	じゃくそんわようかごのにがつにじゅうろくにちにかんせんしょーのためびょーいんでしぼーした。	NO_LABEL
3月7日のデモ隊は、州都モンゴメリーまで行進を続けることで、警官隊達が合衆国憲法違反をしたことをアピールしようとした。	さんがつなのかのでもたいわ、しゅーともんごめりーまでこーしんをつずけることで、けいかんたいたちががっしゅーこくけんぽーいはんをしたことをあぴーるしようとした。	NO_LABEL
キング牧師がセルマからモンゴメリーへのデモを組織したのは有権者登録をした黒人達を知事に保護させようとしたためである。	きんぐぼくしがせるまからもんごめりーえのでもをそしきしたのわゆーけんしゃとーろくをしたこくじんたちをちじにほごさせようとしたためである。	NO_LABEL
白人の知事はそのデモ行進が公共の秩序を乱す恐れがあるとしてこれを非難し、あらゆる手段を使ってデモの阻止を宣言。	はくじんのちじわそのでもこーしんがこーきょーのちつじょをみだすおそれがあるとしてこれをひなんし、あらゆるしゅだんをつかってでものそしをせんげん。	NO_LABEL
州兵やダラス郡保安官達が待ちかまえていたため最初の行進はたった6ブロック進んだだけであった。	NO_PRONOUNCE	NO_LABEL
報道機関の目の前で、彼らは無抵抗のデモ隊に対して棍棒や催涙ガス、鞭などを使ってセルマに追い返した。	ほーどーきかんのめのまえで、かれらわむていこーのでもたいにたいしてこんぼーやさいるいがす、むちなどをつかってせるまにおいかえした。	NO_LABEL
ひどい傷を負って血だらけで倒れる人々の残酷なシーンはテレビで報道され、白人を含む多くの人々は凄惨な弾圧映像に拒否感を覚え、以後の合衆国の投票権法の成立と公民権運動を後押しすることになった。	ひどいきずをおってちだらけでたおれるひとびとのざんこくなしーんわてれびでほーどーされ、はくじんをふくむおーくのひとびとわせいさんなだんあつえいぞーにきょひかんをおぼえ、いごのがっしゅーこくのとーひょーけんほーのせいりつとこーみんけんうんどーをあとおしすることになった。	NO_LABEL
という女性は、催涙ガスや殴打によって瀕死の重傷を負った。	とゆうじょせいわ、さいるいがすやおーだによってひんしのじゅーしょーをおった。	NO_LABEL
その写真は世界中の新聞やニュース雑誌の第1面や表紙に掲載された。	NO_PRONOUNCE	NO_LABEL
参加者の17人が病院に収容され、血の日曜日と呼ばれるようになった。	さんかしゃのじゅうしちにんがびょーいんにしゅーよーされ、ちのにちよーびとよばれるよーになった。	NO_LABEL
