『ビューティフル・ガールズ』は、1996年のアメリカ映画。	NO_PRONOUNCE	NO_LABEL
バーでピアノを弾きながら生計を立てているウィリーは、弁護士の恋人とも順調で、そろそろ定職に就こうかと考えている。	ばーでぴあのをはじきながらせいけいをたてているうぃりーわ、べんごしのこいびとともじゅんちょーで、そろそろていしょくにつこうかとかんがえている。	NO_LABEL
ウィリーは同窓会に出席するために故郷へ戻り、実家の父と弟への違和感をもちつつも、昔の仲間と他愛もない話をしたり酒を飲んだりして過ごす。	うぃりーわどーそーかいにしゅっせきするためにこきょーえもどり、じっかのちちとおとーとえのいわかんをもちつつも、むかしのなかまとたあいもないはなしをしたりさけをのんだりしてすごす。	NO_LABEL
そんなある日、ウィリーは実家の隣に引っ越してきていた13歳の美少女マーティと出会う。	そんなあるひ、うぃりーわじっかのとなりにひっこしてきていたじゅうさんさいのびしょーじょまーてぃとであう。	NO_LABEL
マーティとの関わりを通じて彼女に惹かれたウィリーは、自分の進もうとしている道に一抹の疑問を覚える。	まーてぃとのかかわりをつーじてかのじょにひかれたうぃりーわ、じぶんのすすもうとしているみちにいちまつのぎもんをおぼえる。	NO_LABEL
※括弧内は日本語吹替。	NO_PRONOUNCE	NO_LABEL
