ヤナバスキー場前駅は、長野県大町市平簗場にある、東日本旅客鉄道大糸線の駅である。	やなばすきーじょーまええきわ、ながのけんおーまちしたいらやなばにある、ひがしにほんりょかくてつどーおーいとせんのえきである。	NO_LABEL
駅番号は「17」。	NO_PRONOUNCE	NO_LABEL
名前のとおりヤナバスキー場の前にあり、スキーシーズンのみ列車が停車していた。	なまえのとーりやなばすきーじょーのまえにあり、すきーしーずんのみれっしゃがていしゃしていた。	NO_LABEL
2013年度シーズンについては同スキー場は営業休止しながらも、当駅の臨時停車は実施された。	にせんじゅうさんねんどしーずんについてわどーすきーじょーわえいぎょーきゅーししながらも、とーえきのりんじていしゃわじっしされた。	NO_LABEL
しかし、2016年度シーズンで再度営業休止となった際には当駅への停車自体が行われず、翌シーズン以降もスキー場の営業再開の目処が立たないことから、当駅も事実上休止の状態が続いている。	しかし、にせんじゅうろくねんどしーずんでさいどえいぎょーきゅーしとなったさいにわとーえきえのていしゃじたいがおこなわれず、よくしーずんいこーもすきーじょーのえいぎょーさいかいのめどがたたないことから、とーえきもじじつじょーきゅーしのじょーたいがつずいている。	NO_LABEL
休止届は出されていないため名目上は休止駅ではない。	きゅーしとどけわだされていないためめいもくじょーわきゅーしえきでわない。	NO_LABEL
スキー場会社が建設費を期成同盟会に寄付して建設された施設を国鉄に譲渡して開業した。	すきーじょーかいしゃがけんせつひをきせいどーめいかいにきふしてけんせつされたしせつをこくてつにじょーとしてかいぎょーした。	NO_LABEL
単式ホーム1面1線を有する地上駅。	NO_PRONOUNCE	NO_LABEL
駅の管理は信濃大町駅が行っている。	えきのかんりわしなのーおまちえきがおこなっている。	NO_LABEL
営業当時は概ね12月 - 翌年3月に限り営業しており、常備券による乗車券の委託発売があった。	NO_PRONOUNCE	NO_LABEL
「長野県統計書」によると、1日平均の乗車人員は以下の通りである。	NO_PRONOUNCE	NO_LABEL
いずれもスキー場に隣接している駅である。	いずれもすきーじょーにりんせつしているえきである。	NO_LABEL
