グレーター・ロンドン・カウンシルとは、1965年に設立され、1986年に廃止された、イギリスの大ロンドン地域の地方自治体。	ぐれーたーろんどんかうんしるとわ、せんきゅうひゃくろくじゅうごねんにせつりつされ、せんきゅうひゃくはちじゅうろくねんにはいしされた、いぎりすのだいろんどんちいきのちほーじちたい。	NO_LABEL
大ロンドン議会とも訳される。	だいろんどんぎかいともやくされる。	NO_LABEL
グレーター・ロンドン・カウンシルの設立以前には、Metropolitan Board of Works、London County Councilがあり、2000年以降は大ロンドン庁がある。	NO_PRONOUNCE	NO_LABEL
1934年から労働党がロンドン市議会を握り、1950年代には選挙で圧倒的に労働党が有利だった。	せんきゅうひゃくさんじゅうよねんからろーどーとーがろんどんしぎかいをにぎり、せんきゅうひゃくごじゅうねんだいにわせんきょであっとーてきにろーどーとーがゆーりだった。	NO_LABEL
この頃のロンドン市議会の管轄する地域はロンドン中心部のみであり、保守党はロンドン全体を管轄する団体を提案した。	このころのろんどんしぎかいのかんかつするちいきわろんどんちゅーしんぶのみであり、ほしゅとーわろんどんぜんたいをかんかつするだんたいをていあんした。	NO_LABEL
1957年に検討委員会が設立され、1960年には、52のロンドン行政区を設立し、市議会を、公共交通、道路、住宅供給、地域再生に限定した、権限の小さい自治体に変える提案がなされた。	NO_PRONOUNCE	NO_LABEL
この提案は、行政区の数が32に減らされたことを除いてはほぼこの通りに実現された。	NO_PRONOUNCE	NO_LABEL
大ロンドンはロンドンの各区、ミドルセックスのほか、エセックス、ハートフォードシャー、ケント、サリー各州の一部、クロイドン、イーストハム、ウェストハムに及んだ。	だいろんどんわろんどんのかっく、みどるせっくすのほか、えせっくす、はーとふぉーどしゃー、けんと、さりーかくしゅーのいちぶ、くろいどん、いーすとはむ、うぇすとはむにおよんだ。	NO_LABEL
境界付近には、増税を避けるために大ロンドンに入らない地域もあった。	きょーかいふきんにわ、ぞーぜいをさけるためにだいろんどんにはいらないちいきもあった。	NO_LABEL
初めての選挙は1964年4月9日に行われ、各区が代表を選出した。	はじめてのせんきょわせんきゅうひゃくろくじゅうよねんしがつここのかにおこなわれ、かっくがだいひょーをせんしゅつした。	NO_LABEL
保守党の思惑とは異なり、労働党が64議席、保守党が36議席を獲得した。	NO_PRONOUNCE	NO_LABEL
議長には保守党のビル・フィスケが就任した。	NO_PRONOUNCE	NO_LABEL
1967年の第2回選挙では、国政への不満から保守党の大勝利となり、保守党が82議席、労働党が18議席を獲得した。	NO_PRONOUNCE	NO_LABEL
これにより、33年ぶりに保守党の議長が誕生した。	これにより、さんじゅうさんねんぶりにほしゅとーのぎちょーがたんじょーした。	NO_LABEL
1970年も、議席は減らしたが保守党が勝利した。	せんきゅうひゃくななじゅうねんも、ぎせきわへらしたがほしゅとーがしょーりした。	NO_LABEL
1972年には小選挙区制に移行し、1973年の選挙では労働党が強力な社会主義を標榜し、57議席を獲得した。	NO_PRONOUNCE	NO_LABEL
保守党は33議席、自由党は2議席を獲得した。	NO_PRONOUNCE	NO_LABEL
1981年五月の選挙は、保守党サッチャー主義とマルクス主義的労働党の政治思想が争点となった。	せんきゅうひゃくはちじゅういちねんごがつのせんきょわ、ほしゅとーさっちゃーしゅぎとまるくすしゅぎてきろーどーとーのせいじしそーがそーてんとなった。	NO_LABEL
増税と大型事業の労働党が僅差で勝利した。	ぞーぜいとおーがたじぎょーのろーどーとーがきんさでしょーりした。	NO_LABEL
議長には、労働党左派のケン・リヴィングストンが労働党右派のアンドリュー・マッキントッシュに勝利した。	NO_PRONOUNCE	NO_LABEL
リヴィングストンの社会主義的な政策は、マーガレット・サッチャーの保守党政権と真っ向から対立する形になった。	NO_PRONOUNCE	NO_LABEL
1983年にはGLCを廃止することが閣議決定され、各区がそれぞれ機能を担うことになった。	せんきゅうひゃくはちじゅうさんねんにわじーえるしーをはいしすることがかくぎけっていされ、かっくがそれぞれきのーをになうことになった。	NO_LABEL
1985年の地方自治法は大きな反対を受けたが、1986年3月31日深夜で廃止されることが決定した。	せんきゅうひゃくはちじゅうごねんのちほーじちほーわおーきなはんたいをうけたが、せんきゅうひゃくはちじゅうろくねんさんがつさんじゅういちにちしんやではいしされることがけっていした。	NO_LABEL
