箱石駅は、岩手県宮古市箱石にある、東日本旅客鉄道山田線の駅。	はこいしえきわ、いわてけんみやこしはこいしにある、ひがしにほんりょかくてつどーやまだせんのえき。	NO_LABEL
単式ホーム1面1線を有する地上駅である。	NO_PRONOUNCE	NO_LABEL
ホームより一段低い所には両隣の川内駅・陸中川井駅と似た駅舎があったが、今は待合所になっている。	NO_PRONOUNCE	NO_LABEL
川内駅管理の無人駅。	かわうちえきかんりのむじんえき。	NO_LABEL
