金児 憲史は、日本の俳優。	かねこけんじわ、にっぽんのはいゆー。	NO_LABEL
石原プロモーション所属。	いしはらぷろもーしょんしょぞく。	NO_LABEL
広島県福山市出身。	ひろしまけんふくやまししゅっしん。	NO_LABEL
広島修道大学在学中 であった2000年に、石原プロ主催の「オロナミンC 1億人の心をつかむ男 新人発掘オーディション〜21世紀の石原裕次郎を探せ!〜」で、52005人の応募者の中から選ばれ石原プロ入り。	NO_PRONOUNCE	NO_LABEL
同年『はみだし刑事情熱系スペシャル』で俳優としてデビューした。	NO_PRONOUNCE	NO_LABEL
2015年2月、2014年11月に女優の楊原京子と婚姻届出したことを発表した。	にせんじゅうごねんにがつ、にせんじゅうよねんじゅーいちがつにじょゆーのやなぎはらきょーことこんいんとどけでしたことをはっぴょーした。	NO_LABEL
身長188cm。	しんちょーひゃくはちじゅうはちせんちめーとる。	NO_LABEL
血液型B型。	けつえきがたびーがた。	NO_LABEL
広島修道大学商学部国際商学科卒業。	ひろしましゅーどーだいがくしょーがくぶこくさいしょうがっかそつぎょー。	NO_LABEL
特技は乗馬、ピアノ、ギター、空手3段、殺陣、居合い3段。	NO_PRONOUNCE	NO_LABEL
資格は 普通自動車免許、大型自動二輪、大型自動車免許、小型船舶一級。	しかくわふつーじどーしゃめんきょ、おーがたじどーにりん、おーがたじどーしゃめんきょ、こがたせんぱくいっきゅー。	NO_LABEL
また、地元が広島であるためかなりの広島東洋カープのファンである。	また、じもとがひろしまであるためかなりのひろしまとーよーかーぷのふぁんである。	NO_LABEL
NHK総合	えぬえいちけいそうごー	NO_LABEL
日本テレビ系	にほんてれびけい	NO_LABEL
TBS系	てぃーびーえすけい	NO_LABEL
フジテレビ系	ふじてれびけい	NO_LABEL
テレビ朝日系	てれびあさひけい	NO_LABEL
テレビ東京系	てれびとーきょーけい	NO_LABEL
