『ボーマルシェ フィガロの誕生』は1996年のフランス映画。	NO_PRONOUNCE	NO_LABEL
後にオペラ化された戯曲「フィガロの結婚」「セビリアの理髪師」で知られる劇作家ボーマルシェの型破りな半生を描いた大作。	NO_PRONOUNCE	NO_LABEL
映画監督で劇作家のサシャ・ギトリが、余りにも大がかりで舞台上演が不可能と断念して未完成のままにしていた戯曲が原作となっている。	えいがかんとくでげきさっかのさしゃぎとりが、あまりにもおーがかりでぶたいじょーえんがふかのーとだんねんしてみかんせいのままにしていたぎきょくがげんさくとなっている。	NO_LABEL
これを映画用に劇作家ジャン＝クロード・ブリスヴィルと監督のエドワール・モリナロが脚色し直して、豪華キャストを配して完成させた作品である。	NO_PRONOUNCE	NO_LABEL
