ブルーフはニュージーランド南島の南海岸、サウスランド地区にある町・海港である。	NO_PRONOUNCE	NO_LABEL
この町はニュージーランドで最も南にある町である。	このまちわにゅーじーらんどでもっともみなみにあるまちである。	NO_LABEL
なお、さらに南にはスロープ・ポイントがあるものの、会話において国の最南端について触れる際には通常はこの町のことが引き合いに出される。	NO_PRONOUNCE	NO_LABEL
2001年のニュージーランド国勢調査によれば、この町には1935人の人が住んでおり、1996年からは150人ほど減少している。	NO_PRONOUNCE	NO_LABEL
ブルーフの町はブルーフ港の西側とアワルア湾が形作る半島の先端にある。	ぶるーふのまちわぶるーふこーのにしがわとあわるあわんがかたちずくるはんとーのせんたんにある。	NO_LABEL
港は町が面している狭い水道の入口に位置している。	みなとわまちがめんしているせまいすいどーのいりぐちにいちしている。	NO_LABEL
水道の向こう側にはニュージーランド唯一のアルミニウム精錬所・積出港のあるティワイ・ポイントがある。	NO_PRONOUNCE	NO_LABEL
ブルーフには死火山であるブルーフ丘がそびえたっており、ブルーフの町を強い西風から遮っている。	ぶるーふにわしかざんであるぶるーふおかがそびえたっており、ぶるーふのまちをつよいせいふーからさえぎっている。	NO_LABEL
この丘までの原生林を通り海岸沿いを歩く世界的な散歩道がある。	このおかまでのげんせいりんをとーりかいがんぞいをあるくせかいてきなさんぽみちがある。	NO_LABEL
この丘は、初期の捕鯨船団にOld Man's Bluff もしくはOld Man Bluffという名で知られており、この町はこの丘から名づけられた。	NO_PRONOUNCE	NO_LABEL
ブルーフはステートハイウェイ1号線でインバーカーギルの街から30kmほど南に進んだところにある。	ぶるーふわすてーとはいうぇいいちごーせんでいんばーかーぎるのまちからさんじゅうきろめーとるほどみなみにすすんだところにある。	NO_LABEL
ステートハイウェイ1号線は、この町の南1kmのところにあるスタイアリング・ポイントで終点となっている。	NO_PRONOUNCE	NO_LABEL
このスタイアリング・ポイントには、世界の主要な都市や観光地及び赤道・南極点までの距離・方角を指し示した標識が立っている。	NO_PRONOUNCE	NO_LABEL
また、メイン・サウスラインのインバーカーギルの駅から分岐するブルーフ支線の終点でもある。	NO_PRONOUNCE	NO_LABEL
ブルーフ支線はニュージーランドで最も早く開業した鉄道路線で、1867年2月5日に開業している。	ぶるーふしせんわにゅーじーらんどでもっともはやくかいぎょーしたてつどーろせんで、せんはっぴゃくろくじゅうしちねんにがついつかにかいぎょーしている。	NO_LABEL
ブルーフ港にはフォーボー海峡で60km南に隔てられたスチュアート島ハーフムーン・ベイへの双胴船のフェリーが発着している。	NO_PRONOUNCE	NO_LABEL
この港はまた、ニュージーランドの船による南極への玄関口でもある。	このみなとわまた、にゅーじーらんどのふねによるなんきょくえのげんかんぐちでもある。	NO_LABEL
この町にはかつて著名な場所として、Fred and Myrtle Fluteyによる、パウアハウスがあった。	NO_PRONOUNCE	NO_LABEL
Paua houseは普通のバンガローの外壁にまんべんなくパウア貝を貼り付けたものである。	NO_PRONOUNCE	NO_LABEL
この室内にもまたまんべんなくパウア貝による装飾が施されており、またパウア貝が飾られた装飾、家具、小物が大量に集められ、この家は博物館となっていた。	このしつないにもまたまんべんなくぱうあがいによるそーしょくがほどこされており、またぱうあがいがかざられたそーしょく、かぐ、こものがたいりょーにあつめられ、このいえわはくぶつかんとなっていた。	NO_LABEL
しかし、この家は2007年3月に売却され、クライストチャーチに移築のうえ展示されている。	しかし、このいえわにせんななねんさんがつにばいきゃくされ、くらいすとちゃーちにいちくのうえてんじされている。	NO_LABEL
ブルーフ港はフォーボー海峡でカキ漁をする漁船の母港でもある。	ぶるーふこーわふぉーぼーかいきょーでかきりょーをするぎょせんのぼこーでもある。	NO_LABEL
ブルーフのカキはジューシーかつ風味高いことで有名で、また全国的に美味として知られている。	ぶるーふのかきわじゅーしーかつふーみたかいことでゆーめいで、またぜんこくてきにびみとしてしられている。	NO_LABEL
不幸にもカキの生産量は、寄生虫であるBonamia exitiosaがカキの養殖場で蔓延したため、1990年代後半より著しく減少している。	NO_PRONOUNCE	NO_LABEL
