小島 政二郎1月31日 - 1994年3月24日）は、日本の小説家、随筆家、俳人。	NO_PRONOUNCE	NO_LABEL
俳号は燕子楼。	はいごーわつばめころー。	NO_LABEL
東京府東京市下谷区に生まれ育った。	とーきょーふとーきょーししたやくにうまれそだった。	NO_LABEL
生家は呉服商「柳河屋」。	NO_PRONOUNCE	NO_LABEL
京華中学を経て、慶應義塾大学文学部在学中から『三田文学』で作品を発表し始め、1916年に先輩作家の文章について批評した『オオソグラフィ』は森鴎外から認められるなど、学生時代から慶應義塾関係者内において、その名は知れ渡る。	NO_PRONOUNCE	NO_LABEL
卒業後は鈴木三重吉が主宰していた児童雑誌『赤い鳥』の編纂に携わる。	NO_PRONOUNCE	NO_LABEL
1919年に慶大文学部講師となり、最終的には同学部教授へ昇格し、1931年まで勤め、また1920年には『三田文学』編集委員となった。	NO_PRONOUNCE	NO_LABEL
1922年に親交があった講釈師・五代目神田伯龍を題材とした短篇『一枚看板』で文壇に認められ、1927年の『緑の騎士』で大衆的人気を得る。	NO_PRONOUNCE	NO_LABEL
以後多くの大衆小説を書き『花咲く樹』『人妻椿』『新妻鏡』など人気作を次々執筆し、映画化もされ、そちらも人気を集めるなど、戦前から戦後にかけて一世を風靡した。	NO_PRONOUNCE	NO_LABEL
1934年には直木賞・芥川賞の選考委員となる。	NO_PRONOUNCE	NO_LABEL
朝鮮藝術賞審査員など文壇の中心人物として活躍。	ちょーせんげいじゅつしょーしんさいんなどぶんだんのちゅーしんじんぶつとしてかつやく。	NO_LABEL
戦中はその作風から不遇だったが国文学の造詣深く『わが古典鑑賞』『眼中の人』などを発表。	NO_PRONOUNCE	NO_LABEL
前者は批評家としての見識が、後者については大正文壇史の生きる資料として、高く評価されている。	ぜんしゃわひひょーかとしてのけんしきが、こーしゃについてわたいしょーぶんだんしのいきるしりょーとして、たかくひょーかされている。	NO_LABEL
戦後も1946年に『三百六十五夜』を発表。	NO_PRONOUNCE	NO_LABEL
人気の旧作が再び映画化されるなど人気の健在ぶりを示した。	にんきのきゅーさくがふたたびえいがかされるなどにんきのけんざいぶりをしめした。	NO_LABEL
1951年から1968年にかけて雑誌「あまカラ」で長期連載された食味随筆『食いしん坊』は大きな反響を呼び、小島本人も「今まで誰からも褒められた作品は、この『食いしん坊』と『わが古典鑑賞』ぐらいだ」と語っている。	NO_PRONOUNCE	NO_LABEL
この随筆によって、食通としても知られるようになり、そのジャンルの随筆執筆も増える。	このずいひつによって、しょくつーとしてもしられるよーになり、そのじゃんるのずいひつしっぴつもふえる。	NO_LABEL
1950年代以後は、その発言･記述が文壇において物議を醸し、時に軋轢を生じる結果となっている。	NO_PRONOUNCE	NO_LABEL
長く務めた直木賞選考委員も最期は事実上解任されることとなり、長年の盟友であった佐佐木茂索からも遠ざけられた。	ながくつとめたなおきしょーせんこーいいんもさいごわじじつじょーかいにんされることとなり、ながねんのめいゆーであったささきもさくからもとーざけられた。	NO_LABEL
70歳を超え、文壇の長老の位置に属するようになっても『鴎外荷風万太郎』では慶應義塾の先輩である久保田万太郎の人間性について徹底的な批判を、『聖体拝受』で谷崎潤一郎の『痴人の愛』が、義妹との実事に基づくという文壇における公然の秘密を書き記し、長年格別の想いを抱いていた旧友について記した『芥川龍之介』など、筆に衰えは無く、むしろ鋭さを増していく。	NO_PRONOUNCE	NO_LABEL
1972年には雑誌連載をまとめた『小説・永井荷風』が作品を読んだ永井の遺族から出版許可が降りずお蔵入りになっている。	NO_PRONOUNCE	NO_LABEL
百歳の長寿を保ち、晩年まで意欲的に作品を発表し続けたが、1983年に自宅で大腿部を骨折。	ももとせのちょーじゅをたもち、ばんねんまでいよくてきにさくひんをはっぴょーしつずけたが、せんきゅうひゃくはちじゅうさんねんにじたくでだいたいぶをこっせつ。	NO_LABEL
本人の性格が苦痛を伴うリハビリに耐えられず、また夫人の性格から自宅での介護は難しいだろうと、小島本人の意思によって、亡くなるまで最初に入院した病院で生活を送ることとなった。	ほんにんのせいかくがくつーをともなうりはびりにたえられず、またふじんのせいかくからじたくでのかいごわむずかしいだろうと、こじまほんにんのいしによって、なくなるまでさいしょににゅーいんしたびょーいんでせいかつをおくることとなった。	NO_LABEL
入院生活中、90歳をいくつか超えた頃から徐々に意識が混濁し始めたこともあり、それからは執筆からは遠ざかった。	にゅーいんせいかつちゅー、きゅうじゅっさいをいくつかこえたころからじょじょにいしきがこんだくしはじめたこともあり、それからわしっぴつからわとーざかった。	NO_LABEL
久世光彦の『蕭々館日録』は、『眼中の人』を中心に小島作品で描かれた菊池寛、小島、芥川龍之介の関係をもとにした作品である。	NO_PRONOUNCE	NO_LABEL
