大世通宝は、琉球王国において発行された銭貨の一つ。	NO_PRONOUNCE	NO_LABEL
尚泰久王の時代に永楽通宝の『永楽』を『大世』と鑲置して発行された。	NO_PRONOUNCE	NO_LABEL
そのため大世と通寶とでは字の形がまるで違う。	そのためたいせとつーたからとでわじのかたちがまるでちがう。	NO_LABEL
形は円で直径はおおよそ23mm、中央には正方形の穴が開いている。	かたちわえんでちょっけいわおーよそにじゅうさんみりめーとる、ちゅーおーにわせいほーけいのあながひらいている。	NO_LABEL
重量は約4g。	じゅーりょーわやくよんぐらむ。	NO_LABEL
上下に大世、左右に通寶と書かれている。	じょーげにたいせ、さゆーにつーたからとかかれている。	NO_LABEL
大世とは尚泰久を大世主と呼んだことからきている。	たいせとわしょうたいきゅーをだいせぬしとよんだことからきている。	NO_LABEL
