主治医とは、ある患者の疾患の診療方針全般に対して主たる責任を有する医師のことである。	しゅじいとわ、あるかんじゃのしっかんのしんりょーほーしんぜんぱんにたいしてしゅたるせきにんをゆーするいしのことである。	NO_LABEL
外来診療や入院診療における「担当医」と同義であることが多いが、ある患者の身体・健康、その他の状態について最もよく理解している者であることが期待される。	NO_PRONOUNCE	NO_LABEL
複数の診療科を同時に受診している場合には複数の「担当医」が存在することになり、またひとつの診療科においても複数の医師によって構成される診療チームがひとりの患者を担当することもあるため、「主治医」の定義は必ずしも明確ではない。	NO_PRONOUNCE	NO_LABEL
また、テレビ番組『主治医が見つかる診療所』という番組名に見られるように、自分の身体や健康を任せるべき医師を「主治医」と解釈することもある。	NO_PRONOUNCE	NO_LABEL
それまで外来診療を受けていた患者がそれと同じ医療機関に入院した場合、外来でその患者の診療を担当していた医師とは別の医師が担当医になる場合がある。	それまでがいらいしんりょーをうけていたかんじゃがそれとおなじいりょーきかんににゅーいんしたばあい、がいらいでそのかんじゃのしんりょーをたんとーしていたいしとわべつのいしがたんとーいになるばあいがある。	NO_LABEL
その場合、患者が外来担当医を「主治医」だとして入院診療においても担当されることを希望しても、入院後に一度決まった担当医の変更は病院の効率的な運営という観点から困難なことが多い。	NO_PRONOUNCE	NO_LABEL
また、ユニークな制度として「主治医2人制度」がある。	NO_PRONOUNCE	NO_LABEL
外来では他の診療科の医師が患者に接することは少ないが、診察を受ける曜日や時間によって同じ診療科の中で別の医師が患者に接することになる。	がいらいでわたのしんりょーかのいしがかんじゃにせっすることわすくないが、しんさつをうけるよーびやじかんによっておなじしんりょーかのなかでべつのいしがかんじゃにせっすることになる。	NO_LABEL
この場合でも診療録に担当医として一人の医師が明確に記載されている。	このばあいでもしんりょーろくにたんとーいとしてひとりのいしがめいかくにきさいされている。	NO_LABEL
外来の場合は、かかりつけ医と同じであるとする解釈と、異なるとする解釈があり、後者ではかかりつけ医は患者が受ける医療を時系列で記録・管理し、適切な病院へ紹介すると考える。	NO_PRONOUNCE	NO_LABEL
日本医師会・四病院団体協議会では、2013年8月8日の「医療提供体制のあり方」において、かかりつけ医を「なんでも相談できる上、最新の医療情報を熟知して、必要な時には専門医、専門医療機関を紹介でき、身近で頼りになる地域医療、保健、福祉を担う総合的な能力を有する医師。	NO_PRONOUNCE	NO_LABEL
」と定義している。	NO_PRONOUNCE	NO_LABEL
それを踏まえ、日本医師会では、今後のさらなる少子高齢社会を見据え、地域住民から信頼される「かかりつけ医機能」のあるべき姿を評価し、その能力を維持・向上するための研修として、日医かかりつけ医機能研修制度を実施している。	NO_PRONOUNCE	NO_LABEL
また、かかりつけ医と、総合診療医について、各国のかかりつけ医制度との比較がたびたびなされている。	また、かかりつけいと、そーごーしんりょーいについて、かっこくのかかりつけいせいどとのひかくがたびたびなされている。	NO_LABEL
2014年の診療報酬改定にて、「地域包括診療料」および「地域包括診療加算」が新設され、2016年の診療報酬改定において、常勤医師が３人以上から２人以上になるなど施設基準が緩和された。	NO_PRONOUNCE	NO_LABEL
複数の慢性疾患を有する患者に対し、継続的かつホーリズム的医療を提供する場合に、以下のどちらかの算定を行うことができる。	ふくすーのまんせいしっかんをゆーするかんじゃにたいし、けいぞくてきかつほーりずむてきいりょーをていきょーするばあいに、いかのどちらかのさんていをおこなうことができる。	NO_LABEL
対象疾患は、高血圧症、糖尿病、脂質異常症、認知症の４疾病のうち、２つ以上を持つ患者。	たいしょーしっかんわ、こーけつあつしょー、とーにょーびょー、ししついじょーしょー、にんちしょーのよんしっぺいのうち、ふたついじょーをもつかんじゃ。	NO_LABEL
算定を行うに際し、主治医は以下の要件が求められている。	さんていをおこなうにさいし、しゅじいわいかのよーけんがもとめられている。	NO_LABEL
2016年の診療報酬改定において、複数疾患を有する認知症患者に対して、継続的かつ全人的な医療等を実施する場合に、主治医機能としての評価を行うため新設された。	にせんじゅうろくねんのしんりょーほうしゅーかいていにおいて、ふくすーしっかんをゆーするにんちしょーかんじゃにたいして、けいぞくてきかつぜんじんてきないりょーとーをじっしするばあいに、しゅじいきのーとしてのひょーかをおこなうためしんせつされた。	NO_LABEL
後期高齢者医療制度においては、かつて「高齢者担当医」制度があり、指定の慢性疾患に対する継続的な管理を行うことに対して診療報酬を月600点算定できた。	NO_PRONOUNCE	NO_LABEL
日本の社会保険制度のひとつである介護保険では、その適用の認定のために『主治医意見書』を必要とするが、ここでは主治医を「主治の医師」と定義している。	NO_PRONOUNCE	NO_LABEL
