片山 理恵子はスクウェア・エニックスの宣伝部所属。	かたやまりえこわすくーぇあえにっくすのせんでんぶしょぞく。	NO_LABEL
現在は主に『ファイナルファンタジーXI』の宣伝を担当している。	NO_PRONOUNCE	NO_LABEL
作家のかたやま和華は実姉。	さっかのかたやまわかわじっし。	NO_LABEL
元電波娘でもある。	もとでんぱむすめでもある。	NO_LABEL
以下には氏が直接関わっているものを記載する。	いかにわしがちょくせつかかわっているものをきさいする。	NO_LABEL
