「THE IDOLM@STER MASTER ARTIST」は、2007年7月18日から日本コロムビアよりリリースされているゲーム『THE IDOLM@STER』の企画アルバムシリーズ。	NO_PRONOUNCE	NO_LABEL
全員共通の新曲「i」、各キャラクターごとの新曲、カバー曲、過去のシリーズに収録された曲のソロリミックスを3曲、複数の録り下ろしトークなどを収録。	NO_PRONOUNCE	NO_LABEL
また、録り下ろしトークには、同時発売されている別CDのキャラクター1人も参加している。	また、ろくりおろしとーくにわ、どーじはつばいされているべつきゃっしゅでぃすぺんさーのきゃらくたーひとりもさんかしている。	NO_LABEL
最後のトークについては、各アイドルの口癖を真似するという内容になっている。	さいごのとーくについてわ、かくあいどるのくちぐせをまねするとゆうないよーになっている。	NO_LABEL
01 - 10の10枚購入特典として高木社長のフィギュアがプレゼントされた。	NO_PRONOUNCE	NO_LABEL
先着および予約特典として、ポストカード、また10枚を同一店舗で購入すると全11枚の収納BOXやテレホンカードがプレゼントされた。	せんちゃくおよびよやくとくてんとして、ぽすとかーど、またじゅうまいをどーいちてんぽでこーにゅーするとぜんじゅういちまいのしゅーのーぼっくすやてれほんかーどがぷれぜんとされた。	NO_LABEL
ちなみに、『FINALE』以外の帯の背面を番号順に並べると社長のシルエットが現れるほか、吹き出しの中の文字の内、色の違う字を並べ替えると『THE IDOLM@STER』になるという仕掛けがある。	NO_PRONOUNCE	NO_LABEL
新曲は太字、カバー曲は斜体で表記する。	しんきょくわふとじ、かばーきょくわしゃたいでひょーきする。	NO_LABEL
