M81は、おおぐま座にある渦巻銀河。	NO_PRONOUNCE	NO_LABEL
M81はおよそ2500億個の星を含み、銀河系よりも小規模であると考えられている。	NO_PRONOUNCE	NO_LABEL
M81は銀河の腕が中心部に向かって螺旋状に渦巻いているのがよく見え、渦巻銀河の構造がよくわかる。	NO_PRONOUNCE	NO_LABEL
ローウェル天文台の により、特別に恵まれた環境において肉眼で確認することができると報告されている。	ろーうぇるてんもんだいのにより、とくべつにめぐまれたかんきょーにおいてにくがんでかくにんすることができるとほーこくされている。	NO_LABEL
M81は双眼鏡でM82と並んで見え、小口径でも丸い形がはっきり見える。	NO_PRONOUNCE	NO_LABEL
M82の細長い形とは対照的である。	NO_PRONOUNCE	NO_LABEL
4インチ屈折で観察したマラスは「M81の中心部はブツブツし、外側の明るさと不同でぼんやりし、外側に沿って輪状の光点が見られる」としている。	NO_PRONOUNCE	NO_LABEL
口径20cmの望遠鏡では、大きな光斑の中に微妙な濃淡を観測できる。	こーけいにじゅうせんちめーとるのぼーえんきょーでわ、おーきなひかりむらのなかにびみょーなのーたんをかんそくできる。	NO_LABEL
渦状星雲の腕は口径40cmの望遠鏡から確認できる。	かじょーせいうんのうでわこーけいよんじゅうせんちめーとるのぼーえんきょーからかくにんできる。	NO_LABEL
口径50cmでは腕の濃淡や構造も確認できるようになる。	こーけいごじゅうせんちめーとるでわうでののーたんやこーぞーもかくにんできるよーになる。	NO_LABEL
M81とM82はM81銀河団と呼ばれる同一の銀河団に所属しており、お互いの銀河の中心核は15万光年しか離れていない。	NO_PRONOUNCE	NO_LABEL
数千万年前、M81とM82は接近遭遇し、M82は巨大なM81の重力の影響を受けて変形させられている。	NO_PRONOUNCE	NO_LABEL
1774年にヨハン・ボーデよってM82と同時に発見された。	NO_PRONOUNCE	NO_LABEL
ボーデは「M81は星雲状の光斑。	NO_PRONOUNCE	NO_LABEL
やや円形で、中央部に明るい核がある」と記した。	NO_PRONOUNCE	NO_LABEL
その他、1772年から78年にかけてによって、また1779年8月にはピエール・メシャンによってそれぞれ独立発見されている。	そのた、せんななひゃくななじゅうにねんからななじゅうはちねんにかけてによって、またせんななひゃくななじゅうきゅうねんはちがつにわぴえーるめしゃんによってそれぞれどくりつはっけんされている。	NO_LABEL
1781年にシャルル・メシエは「おおぐま座の耳に近い。	NO_PRONOUNCE	NO_LABEL
4等か5等星に平行しており、位置はこの星から決定した。	NO_PRONOUNCE	NO_LABEL
やや楕円。	ややだえん。	NO_LABEL
中心部ははっきりしており、3.5フィートの望遠鏡でよく見える」と記した。	NO_PRONOUNCE	NO_LABEL
ジョン・ハーシェルは「顕著。	NO_PRONOUNCE	NO_LABEL
非常に明るい核がある」と記した。	NO_PRONOUNCE	NO_LABEL
1889年にロベールが写真から渦状星雲であることを確認し「核があり、境界は不明瞭で星雲状物質の輪で囲まれている」と記している。	NO_PRONOUNCE	NO_LABEL
ロス卿は「アンドロメダ星雲に似て、渦状というのは回転している状態だろう」としており、実際にM81は回転が証明された最初の銀河となった。	NO_PRONOUNCE	NO_LABEL
