斤は、尺貫法の質量の単位である。	きんわ、しゃっかんほーのしつりょーのたんいである。	NO_LABEL
伝統的には1斤は16両と定義されるが、その値は時代と地域により異なる。	NO_PRONOUNCE	NO_LABEL
マレー語ではカティとなり、各国の斤を表す。	まれーごでわかてぃとなり、かっこくのきんをあらわす。	NO_LABEL
日本では、通常は1斤＝16両＝160匁とされる。	NO_PRONOUNCE	NO_LABEL
明治4年5月、新貨条例公布の際、当初は1戔＝3.756 574グラムとされたが、同年9月に訂正されて、1戔＝3.756 521グラムと定められた。	NO_PRONOUNCE	NO_LABEL
この換算値は度量衡取締条例にも引き継がれた。	このかんさんちわどりょーこーとりしまりじょーれいにもひきつがれた。	NO_LABEL
その後、1891年3月24日公布の度量衡法第5條において、換算の便宜のため、1匁＝3.75グラムとされた。	NO_PRONOUNCE	NO_LABEL
したがって、1斤 = 160匁 =600グラムとなった。	NO_PRONOUNCE	NO_LABEL
これとは別に、計量するものによって各種の「斤」が使用され、別名があった。	NO_PRONOUNCE	NO_LABEL
舶来品に対しては、1ポンドに値が近い120匁を1斤とし、これを英斤と呼んだ。	NO_PRONOUNCE	NO_LABEL
現在の日本では「斤」は、食パンの計量の単位としてのみ使われている。	NO_PRONOUNCE	NO_LABEL
これはパンが英斤を単位として売買された歴史に由来する。	これわぱんがえいきんをたんいとしてばいばいされたれきしにゆらいする。	NO_LABEL
ただし、1斤として売られたパンの質量は時代とともに少なくなった。	NO_PRONOUNCE	NO_LABEL
現在、公正競争規約は、食パンの1斤=340グラムと定めている。	NO_PRONOUNCE	NO_LABEL
漢代の斤は、現在よりずっと少なく、226.67グラムと推定されている。	NO_PRONOUNCE	NO_LABEL
鈞を参考のこと。	ひとしをさんこーのこと。	NO_LABEL
南北朝時代には南朝では変化が少なかったのに対し、北朝で1両の質量が増大した。	NO_PRONOUNCE	NO_LABEL
隋唐代には、従来の両と、その3倍の両の2種類が定義され、のちに前者を小称両、後者を大称両と呼んだ。	ずいとーだいにわ、じゅーらいのりょーと、そのさんばいのりょーのにしゅるいがていぎされ、のちにぜんしゃをしょーしょーりょー、こーしゃをだいしょーりょーとよんだ。	NO_LABEL
唐代以降は大称両のみが使われた。	とーだいいこーわだいしょーりょーのみがつかわれた。	NO_LABEL
1斤 = 16両の関係は変わらなかったので、1斤の質量も増大した。	NO_PRONOUNCE	NO_LABEL
唐の1斤は、西安市何家村出土の質量を記した金銀器から、約680gと推定されている。	NO_PRONOUNCE	NO_LABEL
清朝の標準とされた庫平両は清滅亡後の1915年に596.816グラムと定義された。	NO_PRONOUNCE	NO_LABEL
国民革命後の1929年に定められた市制では、メートル法を元に1斤=500グラムという切りのいい数値に改められた。	NO_PRONOUNCE	NO_LABEL
中華人民共和国は1959年、従来の1斤=16両を1斤=10両に十進化したが、1斤=500グラムの換算は保たれた。	NO_PRONOUNCE	NO_LABEL
近代の中国ではキログラムにも「斤」の字を宛てたため、市制の斤と区別するために「公斤」という。	NO_PRONOUNCE	NO_LABEL
台湾では、日本統治時代があったことから日本の尺貫法の影響を受け、単位名称以外は日本と同じ換算をする台制が広まっている。	たいわんでわ、にっぽんとーちじだいがあったことからにっぽんのしゃっかんほーのえいきょーをうけ、たんいめいしょーいがいわにっぽんとおなじかんさんをするたいせいがひろまっている。	NO_LABEL
台制の斤を特に台斤と呼び、1斤＝600グラムである。	NO_PRONOUNCE	NO_LABEL
香港とマカオでは「司馬斤」と呼ばれる604.78982グラムの斤が使用されている。	NO_PRONOUNCE	NO_LABEL
これは、清代に外国との貿易のために各国と結んだ単位についての協定における定義がそのまま使われているもので、元はヤード・ポンド法でポンドと定義されていた。	これわ、せいだいにがいこくとのぼーえきのためにかっこくとむすんだたんいについてのきょーていにおけるていぎがそのままつかわれているもので、もとわやーどぽんどほーでぽんどとていぎされていた。	NO_LABEL
シンガポールでは「斤」と呼ばれる0.6048キロの斤が使用されている。	NO_PRONOUNCE	NO_LABEL
これは、香港と同じで、清代に外国との貿易のために各国と結んだ単位についての協定における定義がそのまま使われているもので、もとはヤード・ポンド法でポンドと定義されていた。	これわ、ほんこんとおなじで、せいだいにがいこくとのぼーえきのためにかっこくとむすんだたんいについてのきょーていにおけるていぎがそのままつかわれているもので、もとわやーどぽんどほーでぽんどとていぎされていた。	NO_LABEL
マレーシアも、シンガポールと同様である。	まれーしあも、しんがぽーるとどーよーである。	NO_LABEL
