飯田市警察は、かつて存在した長野県飯田市の自治体警察である。	いーだしけいさつわ、かつてそんざいしたながのけんいーだしのじちたいけいさつである。	NO_LABEL
旧警察法施行で、従来の長野県警察部が解体され、1948年3月7日に飯田市警察署が設置された。	きゅーけいさつほーしこーで、じゅーらいのながのけんけいさつぶがかいたいされ、せんきゅうひゃくよんじゅうはちねさんがつなのかにいーだしけいさつしょがせっちされた。	NO_LABEL
その後、1954年に、旧警察法が全面改正される形で新警察法が公布された。	そのご、せんきゅうひゃくごじゅうよねんに、きゅーけいさつほーがぜんめんかいせいされるかたちでしんけいさつほーがこーふされた。	NO_LABEL
これにより国家地方警察と自治体警察が廃止され、新たに都道府県警察として長野県警察本部が発足。	これによりこっかちほーけいさつとじちたいけいさつがはいしされ、あらたにとどーふけんけいさつとしてながのけんけいさつほんぶがほっそく。	NO_LABEL
飯田市警察も長野県警察に統合され、姿を消した。	いーだしけいさつもながのけんけいさつにとーごーされ、すがたをけした。	NO_LABEL
