奥尻郡は、北海道檜山振興局の郡。	おくしりぐんわ、ほっかいどーひやましんこーきょくのぐん。	NO_LABEL
以下の1町を含む。	NO_PRONOUNCE	NO_LABEL
1879年に行政区画として発足して以来、郡域は上記1町のまま変更されていない。	NO_PRONOUNCE	NO_LABEL
日本書紀に記された、斉明天皇6年3月に阿倍比羅夫が粛慎の砦を陥落させた弊賂弁嶋は、現在の奥尻島にあたるといわれている。	にほんしょきにしるされた、さいめいてんのーろくねんさんがつにあべのひらふがしゅくしんのとりでをかんらくさせたへいまいないべんしまわ、げんざいのおくしりとーにあたるといわれている。	NO_LABEL
室町時代には、享徳3年8月28日に松前藩祖・武田信広公が漂着。	NO_PRONOUNCE	NO_LABEL
文明元年6月5日、若狭国の僧随芳が草庵を建立。	ぶんめいがんねんろくがついつか、わかさのくにのそーずいよしがそーあんをこんりゅー。	NO_LABEL
これは延徳2年大館に移り松前山法源寺となった。	これわえんとくにねんおーだてにうつりまさきさんほーげんじとなった。	NO_LABEL
弘治元年7月、上杉謙信の臣宇田遠江守師長が従者3名と漂着。	NO_PRONOUNCE	NO_LABEL
江戸時代、奥尻郡域は和人地となる。	えどじだい、おくしりぐんいきわわじんちとなる。	NO_LABEL
松前藩によってヲコシリ場所が開かれ、元和3年5月、松前山法源寺第4世芳龍が、現在の青苗地区に空谷大仙寺を建立。	まつまえはんによってをこしりばしょがひらかれ、げんなさんねんごがつ、まさきさんほーげんじだいよんせいよしりゅーが、げんざいのあおなえちくにくーこくたいせんじをこんりゅー。	NO_LABEL
寛文7年空谷山大仙寺が松前城下蔵町に移転。	ひろふみななねんそらややまたいせんじがまさきじょーかくらまちにいてん。	NO_LABEL
安永年間には薬師村の少彦名神社が創建されている。	やすながねんかんにわやくしむらのすくなひこなじんじゃがそーけんされている。	NO_LABEL
江戸時代後期の文化4年には、奥尻郡域は天領とされた。	えどじだいこーきのぶんかよんねんにわ、おくしりぐんいきわてんりょーとされた。	NO_LABEL
文政4年には松前藩の元に戻されたものの、安政2年再び天領となり津軽藩が警固をおこなった。	ぶんせいよんねんにわまつまえはんのもとにもどされたものの、あんせいにねんふたたびてんりょーとなりつがるはんがけいごをおこなった。	NO_LABEL
戊辰戦争終結直後の1869年8月15日、大宝律令の国郡里制を踏襲して奥尻郡が置かれた。	ぼしんせんそーしゅーけつちょくごのせんはっぴゃくろくじゅうきゅうねんはちがつじゅうごにち、たいほーりつりょーのこくぐんりせいをとーしゅーしておくしりぐんがおかれた。	NO_LABEL
