カラーテレビ（）とは映像に色が付いているテレビジョン放送、またはこれに対応したテレビ受像機である。	からーてれびかっことわえいぞーにいろがついているてれびじょんほうそー、またわこれにたいおーしたてれびじゅぞーきである。	NO_LABEL
日本で登場したばかりの頃は「総天然色テレビジョン」と呼ばれていた。	NO_PRONOUNCE	NO_LABEL
カラーテレビ放送の搬送波では輝度と色差の信号が送られ、受像器で両者を合成しカラー画像を作る。	からーてれびほーそーのはんそーはでわきどとしきさのしんごーがおくられ、じゅぞーきでりょーしゃをごーせいしからーがぞーをつくる。	NO_LABEL
輝度の信号はそれまでの白黒放送に相当するため、白黒放送の映像も見ることができ、上位互換性を保っている。	きどのしんごーわそれまでのしろくろほーそーにそーとーするため、しろくろほーそーのえいぞーもみることができ、じょーいごかんせいをたもっている。	NO_LABEL
また白黒テレビの受像器でも色は付かないものの映像を見ることができ、下位互換性を保っている。	またしろくろてれびのじゅぞーきでもいろわつかないもののえいぞーをみることができ、かいごかんせいをたもっている。	NO_LABEL
放送方式には日本やアメリカで使われるNTSC方式、ヨーロッパで使われるPAL方式、フランスやロシアで使われるSECAM方式がある。	ほーそーほーしきにわにっぽんやあめりかでつかわれるえぬてぃーえすしーほーしき、よーろっぱでつかわれるぱるほーしき、ふらんすやろしあでつかわれるせかむほーしきがある。	NO_LABEL
世界初のカラーの本放送は1954年1月23日、米NBCのニューヨーク局であるWNBC局が最初である。	せかいはつのからーのほんほーそーわせんきゅうひゃくごじゅうよねんいちがつにじゅうさんにち、べいえぬびーしーのにゅーよーくきょくであるだぶるえぬびーしーきょくがさいしょである。	NO_LABEL
日本では1960年9月10日に本放送開始。	にっぽんでわせんきゅうひゃくろくじゅうねんくがつとおかにほんほーそーかいし。	NO_LABEL
当時のカラーテレビは非常に高価であり、カラーで放送される番組もごくわずかしかなく、あまり普及しなかったが、1964年の東京オリンピックを前に各メーカーが宣伝に力を入れ始め、1968年4月からNHKがラジオ契約を廃止してカラー契約を創設することによりカラー放送を大幅に増やしたことなどから普及が促進され1968年頃から1970年代にかけて「パナカラー」）、「キドカラー」、「トリニトロンカラー」、「ユニカラー」）、「サンカラー」、「純白カラー」）、「ロングランカラー」、「ダイヤトロン」など各社から高性能カラーテレビが出揃った。	NO_PRONOUNCE	NO_LABEL
それと同時に大量生産で値段が下がったことによって爆発的に普及し、1973年にはカラーテレビの普及率が白黒テレビを上回った。	それとどーじにたいりょーせいさんでねだんがさがったことによってばくはつてきにふきゅーし、せんきゅうひゃくななじゅうさんねんにわからーてれびのふきゅーりつがしろくろてれびをうわまわった。	NO_LABEL
1969年には日本が世界で生産第1位国になるものの、1970年にアメリカにダンピング認定を受ける。	せんきゅうひゃくろくじゅうきゅうねんにわにっぽんがせかいでせいさんだいいちーこくになるものの、せんきゅうひゃくななじゅうねんにあめりかにだんぴんぐにんていをうける。	NO_LABEL
その後は日本国外への工場移転が進み、日本国内生産は薄型テレビへとシフトしていった。	そのごわにほんこくがいえのこーじょーいてんがすすみ、にほんこくないせいさんわうすがたてれびえとしふとしていった。	NO_LABEL
カラーテレビの普及促進などの目的から、カラーテレビ時代を意識した番組やプロスポーツチームも存在した。	からーてれびのふきゅーそくしんなどのもくてきから、からーてれびじだいをいしきしたばんぐみやぷろすぽーつちーむもそんざいした。	NO_LABEL
カラーテレビ普及初期の番組表には、カラー放送の番組には「カラー」の表記あるいはそれを表す記号がされ、テレビ放送でも番組開始の冒頭でカラー放送を示すマーク「【カラー】等、局によって異なる」を数秒間表示していた。	NO_PRONOUNCE	NO_LABEL
逆にカラー放送が急速に普及し、相対的に白黒番組の減少が著しくなった1971年頃より、白黒放送の番組に「モノクロ」と表記あるいはそれを表す記号がされるケースも見られた。	NO_PRONOUNCE	NO_LABEL
日本で完全にカラー放送となったのは1977年10月1日であった。	にっぽんでかんぜんにからーほーそーとなったのわせんきゅうひゃくななじゅうななねんじゅーがつついたちであった。	NO_LABEL
新聞表記の「モノクロ」表記およびそれを表す記号もこの日までに消滅した。	NO_PRONOUNCE	NO_LABEL
日本放送協会はかつて日本放送協会放送受信規約に於いてカラー契約、普通契約、衛星カラー契約及び衛星普通契約の4つを設けカラーとモノクロを区別していた。	にっぽんほーそーきょーかいわかつてにっぽんほーそーきょーかいほーそーじゅしんきやくにおいてからーけいやく、ふつーけいやく、えいせいからーけいやくおよびえいせいふつーけいやくのよっつをもーけからーとものくろをくべつしていた。	NO_LABEL
2007年10月1日に施行した現行の日本放送協会放送受信規約では、カラー契約及び普通契約は地上契約に衛星カラー契約及び衛星普通契約は衛星契約にそれぞれ統合されている。	にせんななねんじゅーがつついたちにしこーしたげんこーのにっぽんほーそーきょーかいほーそーじゅしんきやくでわ、からーけいやくおよびふつーけいやくわちじょーけいやくにえいせいからーけいやくおよびえいせいふつーけいやくわえいせいけいやくにそれぞれとーごーされている。	NO_LABEL
