河川環境楽園は、岐阜県各務原市川島笠田町にある公園で、複数主体による、国営公園、岐阜県営公園、独立行政法人土木研究所自然共生研究センター、東海北陸自動車道の川島パーキングエリア及びハイウェイオアシスからなる複合型公園で、環境共生テーマパークの総称である。	かせんかんきょーらくえんわ、ぎふけんかかみがはらしかわしまかさだまちにあるこーえんで、ふくすーしゅたいによる、こくえいこーえん、ぎふけんえいこーえん、どくりつぎょーせいほーじんどぼくけんきゅーじょしぜんきょーせいけんきゅーせんたー、とーかいほくりくじどーしゃどーのかわしまぱーきんぐえりあおよびはいうぇいおあしすからなるふくごーがたこーえんで、かんきょーきょーせいてーまぱーくのそーしょーである。	NO_LABEL
広域的に国営木曽三川公園三派川地区のひとつを構成している。	こーいきてきにこくえいきそさんせんこーえんさんぱせんちくのひとつをこーせいしている。	NO_LABEL
開園は平成11年7月17日。	かいえんわへいせいじゅういちねんしちがつじゅうしちにち。	NO_LABEL
平成17年に「水辺共生体験館」、「岐阜県河川環境研究所」がオープンした。	NO_PRONOUNCE	NO_LABEL
