仮言三段論法とは、論理学において、一般的に「大前提」のみを仮言命題にした三段論法のこと。	NO_PRONOUNCE	NO_LABEL
ただし、大前提・小前提・結論すべての命題が仮言命題である場合もある。	NO_PRONOUNCE	NO_LABEL
仮言的三段論法あるいは蓋然的三段論法とも。	かげんてきさんだんろんぽーあるいわがいぜんてきさんだんろんぽーとも。	NO_LABEL
また、論理学史では、ある種の論理的帰結を得る理論を指すこともある。	また、ろんりがくしでわ、あるたねのろんりてききけつをえるりろんをさすこともある。	NO_LABEL
仮言三段論法は古典論理の演繹の推論規則の1つであり、非古典論理学では採用されないこともある。	かげんさんだんろんぽーわこてんろんりのえんえきのすいろんきそくのひとつであり、ひこてんろんりがくでわさいよーされないこともある。	NO_LABEL
仮言三段論法は、以下の形式に従う妥当な論証である。	かげんさんだんろんぽーわ、いかのけいしきにしたがうだとーなろんしょーである。	NO_LABEL
記号的に表現すると次のようになる。	きごーてきにひょーげんするとつぎのよーになる。	NO_LABEL
言い換えれば、ある概念が別の概念を包含し、その別の概念が第三の概念を包含するとき、最初の概念は第三の概念を包含する。	いーかえれば、あるがいねんがべつのがいねんをほーがんし、そのべつのがいねんがだいさんのがいねんをほーがんするとき、さいしょのがいねんわだいさんのがいねんをほーがんする。	NO_LABEL
仮言三段論法の例を以下に示す。	かげんさんだんろんぽーのれいをいかにしめす。	NO_LABEL
仮言三段論法の利点は、事実に反する仮定を使うことができる点である。	かげんさんだんろんぽーのりてんわ、じじつにはんするかていをつかうことができるてんである。	NO_LABEL
つまり、前提として一般には偽であるような仮定を用いて、全体として真であるような論証を行うことができる。	つまり、ぜんていとしていっぱんにわにせであるよーなかていをもちいて、ぜんたいとしてしんであるよーなろんしょーをおこなうことができる。	NO_LABEL
妥当な仮言三段論法に使用可能な事実に反する仮定の例を以下に示す。	だとーなかげんさんだんろんぽーにしよーかのーなじじつにはんするかていのれいをいかにしめす。	NO_LABEL
