光は、第二次世界大戦前に中島飛行機が開発・製造した航空機用空冷星型エンジンでバルブ駆動方式はOHV。	NO_PRONOUNCE	NO_LABEL
海軍に光として、陸軍にはハ8として採用され、陸軍機にも搭載されている。	NO_PRONOUNCE	NO_LABEL
社内呼称はNAP。	NO_PRONOUNCE	NO_LABEL
陸軍の指示により1931年に開発を開始。	りくぐんのしじによりせんきゅうひゃくさんじゅういちねにかいはつをかいし。	NO_LABEL
ライト R-1820 サイクロンEの機構を参考にした発動機で1934年ハ8として制式採用になった。	NO_PRONOUNCE	NO_LABEL
更にその海軍型が製作され、最大出力が730馬力から770馬力に向上しており光発動機と命名され試作機に搭載された。	NO_PRONOUNCE	NO_LABEL
陸軍での呼称はハ8I。	NO_PRONOUNCE	NO_LABEL
この発動機はライトの了解なしにサイクロンを手本にしており、完全に複製したわけではないが厳密に言うとライトの権利を侵害した部分もあるため、NAP系列の量産が明確になった1934年9月に陸軍の指示により中島はライトからサイクロンFの製造権を購入している。	NO_PRONOUNCE	NO_LABEL
生産数は光が約20台、ハ8、ハ8I合計730台である。	NO_PRONOUNCE	NO_LABEL
続いて1934年1月にライト R-1820 サイクロンFの機構を殆どそのまま取り入れた発動機の開発を開始し、翌年4月に一号機が完成した。	NO_PRONOUNCE	NO_LABEL
1936年1月15日に海軍に光発動機一型、光発動機二型として制式採用となり、翌年10月光発動機三型が制式採用になった。	せんきゅうひゃくさんじゅうろくねいちがつじゅうごにちにかいぐんにひかりはつどーきいちがた、ひかりはつどーきにがたとしてせいしきさいよーとなり、よくねんじゅーがつこーはつどーきさんがたがせいしきさいよーになった。	NO_LABEL
陸軍ではハ8IIとして制式採用となっている。	NO_PRONOUNCE	NO_LABEL
生産数は光一型、二型、三型合わせて約1200台、ハ8IIが約200台である。	NO_PRONOUNCE	NO_LABEL
陸軍の懸念は的中し1937年にNAP系列の発動機を装備した神風号が訪欧飛行に成功した直後、神風号の発動機に関する情報を入手したライトが、製造権購入前にライトの発動機を模倣していたとして、製造権購入契約に基づいて同社に派遣されていた中島の技師の工場内立入りを禁止する事態になっている。	NO_PRONOUNCE	NO_LABEL
中島側が神風号の発動機とライト サイクロンとの相違点を説明して何とか解決した。	なかじまがわがかみかぜごーのはつどーきとらいとさいくろんとのそーいてんをせつめいしてなんとかかいけつした。	NO_LABEL
幸いにして大きな国際問題とはならなかったが、後発国が取った苦肉の策とは言えど誉められたものではない。	さいわいにしておーきなこくさいもんだいとわならなかったが、こーはつこくがとったくにくのさくとわいえどほめられたものでわない。	NO_LABEL
