自衛隊ペルシャ湾派遣は、湾岸戦争後の1991年にペルシャ湾に海上自衛隊の掃海部隊が派遣されたことをいう。	じえいたいぺるしゃわんはけんわ、わんがんせんそーごのせんきゅうひゃくきゅうじゅういちねんにぺるしゃわんにかいじょーじえいたいのそーかいぶたいがはけんされたことをいう。	NO_LABEL
自衛隊にとって初の海外実任務である。	じえいたいにとってはつのかいがいじつにんむである。	NO_LABEL
練習艦隊等による遠洋航海以外の海外実任務で、日本海軍・海上自衛隊の艦隊がインド洋を渡るのは、第一次世界大戦の地中海派遣、第二次世界大戦のインド洋作戦以来の出来事である。	NO_PRONOUNCE	NO_LABEL
また、他国領海付近における掃海作業は、朝鮮戦争での海上保安庁の特別掃海隊による活動）以来のことである。	NO_PRONOUNCE	NO_LABEL
1991年1月29日、自衛隊法第100条の5を根拠として、航空自衛隊輸送機による難民輸送が政令で認められた。	NO_PRONOUNCE	NO_LABEL
3月2日の国際連合安全保障理事会決議686を、翌3日イラクは受諾し、また4月3日の安保理決議687を、同6日イラクはこれを受諾し、4月11日に停戦が発効した。	NO_PRONOUNCE	NO_LABEL
停戦発効後、防衛庁長官は海上幕僚長に対し「ペルシャ湾における機雷等の除去の準備に関する長官指示」を発出した。	NO_PRONOUNCE	NO_LABEL
4月24日、長官は海上自衛隊に対し、「我が国船舶の航行の安全を確保するため、ペルシャ湾における機雷の除去及びその処理を行う。	NO_PRONOUNCE	NO_LABEL
」ことを目的とする「ペルシャ湾における機雷の除去及びその処理の実施に関する海上自衛隊一般命令」を発令した。	NO_PRONOUNCE	NO_LABEL
この命令は自衛隊法第99条を根拠として行われた。	このめいれいわじえいたいほーだいくきゅうじょーをこんきょとしておこなわれた。	NO_LABEL
法的には、公海上の作業ということで、海上自衛隊の通常業務という解釈がされた形である。	ほーてきにわ、こーかいじょーのさぎょーとゆうことで、かいじょーじえいたいのつーじょーぎょーむとゆうかいしゃくがされたかたちである。	NO_LABEL
自衛艦隊司令官に直属する「ペルシャ湾掃海派遣部隊」が編成され、4月26日に出発した。	NO_PRONOUNCE	NO_LABEL
掃海派遣部隊は、ペルシャ湾へ進出する途上で、スービック、シンガポール、ペナン、コロンボ、カラチドバイに寄港した。	そーかいはけんぶたいわ、ぺるしゃわんえしんしゅつするとじょーで、すーびっく、しんがぽーる、ぺなん、ころんぼ、からちどばいにきこーした。	NO_LABEL
その際には、ペルシャ湾への早期到着を最優先して、各寄港地では補給・整備のみに限り、現地在外公館や所在海軍部隊指揮官への表敬訪問をする程度にとどまった。	NO_PRONOUNCE	NO_LABEL
5月27日にドバイのアル・ラシット港に約7,000海里の航海を経て入港した。	NO_PRONOUNCE	NO_LABEL
そして、6月5日から9月11日までの99日間にわたり、米国及び他の多国籍軍派遣部隊と協力して掃海作業を実施した。	そして、ろくがついつかからくがつじゅういちにちまでのきゅうじゅうくにちかんにわたり、べいこくおよびたのたこくせきぐんはけんぶたいときょーりょくしてそーかいさぎょーをじっしした。	NO_LABEL
このペルシャ湾派遣に際し隊員家族との連絡手段のため補給艦「ときわ」内に「海上自衛隊ときわ船内郵便局」が設置された。	NO_PRONOUNCE	NO_LABEL
海上自衛隊の艦艇内に船内郵便局が設置されたのは、自衛隊創設後初のことであった。	かいじょーじえいたいのかんていないにせんないゆーびんきょくがせっちされたのわ、じえいたいそーせつごはつのことであった。	NO_LABEL
そのため、艦内郵便局の消印欲しさに激励手紙が送られる事態となり、寄港時を見計らって未使用切手に押印に押してもらおうとする業者もあった。	そのため、かんないゆーびんきょくのけしいんほしさにげきれいてがみがおくられるじたいとなり、きこーじをみはからってみしよーきってにおーいんにおしてもらおうとするぎょーしゃもあった。	NO_LABEL
以上、幹部76、准尉7、曹士428、総員511名で編成されていた。	NO_PRONOUNCE	NO_LABEL
また、これには医官、歯科医官、薬剤官の3名が含まれ、隊員の健康管理に当たった。	NO_PRONOUNCE	NO_LABEL
殉職者が発生した場合に備え、はやせには棺桶を作るための木材が積まれていた。	じゅんしょくしゃがはっせいしたばあいにそなえ、はやせにわかんおけをつくるためのもくざいがつまれていた。	NO_LABEL
また、当時の海上自衛隊には認識票を常時身につける習慣がなかったが、万が一に備えて認識票を配布したところ乗組員らの表情が曇ったため、落合は苦し紛れに「ただの迷子札」と説明したという。	NO_PRONOUNCE	NO_LABEL
なお自衛官二人がこの任務に就くことを拒否したとして自衛隊法違反の疑いで逮捕されている。	なおじえいかんふたりがこのにんむにつくことをきょひしたとしてじえいたいほーいはんのうたがいでたいほされている。	NO_LABEL
ペルシャ湾の機雷敷設海域には、1991年2月28日の戦闘停止直後から、米・英・ベルギー・サウジアラビアの4か国海軍の派遣部隊が掃海作業に従事していた。	NO_PRONOUNCE	NO_LABEL
また、日本部隊が到着するまでには、仏・独・伊・蘭の4か国も掃海部隊を派遣していた。	NO_PRONOUNCE	NO_LABEL
日本部隊と各国派遣部隊との関係は、指揮命令ではなく、協同の関係とされた。	にっぽんぶたいとかっこくはけんぶたいとのかんけいわ、しきめいれいでわなく、きょーどーのかんけいとされた。	NO_LABEL
7月20日までにMDA－7海域で日本部隊は17個の機雷を処分する。	NO_PRONOUNCE	NO_LABEL
その後、英・仏・独・伊・蘭・ベルギーの各部隊は、掃海終了宣言を発出して掃海作業を打ち切り帰国した。	NO_PRONOUNCE	NO_LABEL
日・米・サウジアラビアの掃海部隊はその後もMDA－10及びクウェイト沖の航路等において、掃海作業を継続した。	NO_PRONOUNCE	NO_LABEL
掃海派遣部隊は、この間、MDA－10において新たに計17個の機雷処分を行う。	NO_PRONOUNCE	NO_LABEL
また、サウジアラビア政府の要請に基づき、独自でカフジ沖の油井に至る航路の安全確認を実施する。	また、さうじあらびあせいふのよーせいにもとずき、どくじでかふじおきのゆせいにいたるこーろのあんぜんかくにんをじっしする。	NO_LABEL
爆破された計34個の機雷の処分方法としては、リモコン式処分具を使い、安全な遠隔操作により爆破されたものが5個、水中処分隊員が機雷に近づき、手作業で爆破準備したものが29個であった。	NO_PRONOUNCE	NO_LABEL
掃海海域には、イラン・イラク・クウェートの領海が含まれていたため、日本は自国の外交ルートを経由して交渉し、イランとの間では、7月20日にイラン軍の代表者を立ち会わせること等を条件として日本の掃海派遣部隊の領海立入りや掃海作業の実施について同意が成立した。	NO_PRONOUNCE	NO_LABEL
イラクからは7月25日に、クウェートからは8月12日に、領海内での掃海作業を認める正式な回答がなされた。	いらくからわしちがつにじゅうごにちに、くうぇーとからわはちがつじゅうににちに、りょーかいないでのそーかいさぎょーをみとめるせいしきなかいとーがなされた。	NO_LABEL
また、イラン及びクウェートの要請により、イランのバンダレ・アッバース港及びクウェートのアル・シュワイク港に寄港し、友好親善を図った。	NO_PRONOUNCE	NO_LABEL
湾岸戦争に際して日本は、130億ドルにも上る資金協力を行った。	NO_PRONOUNCE	NO_LABEL
それにもかかわらず、クウェートが湾岸戦争終結直後に、ワシントン・ポスト紙の全面を使って謝意を表した広告には、クウェート解放に貢献した全ての国の国旗が掲載されていたが、金銭的貢献しか行わなかった日本は除かれていた。	それにもかかわらず、くうぇーとがわんがんせんそーしゅーけつちょくごに、わしんとんぽすとしのぜんめんをつかってしゃいをあらわしたこーこくにわ、くうぇーとかいほーにこーけんしたすべてのくにのこっきがけいさいされていたが、きんせんてきこーけんしかおこなわなかったにっぽんわのぞかれていた。	NO_LABEL
しかし掃海部隊が派遣されたあとでは、クウェートでは、日本の国旗が新たに他国に加わって印刷された記念切手が発行されるなど、危険を伴った人的貢献への評価が一変した。	しかしそーかいぶたいがはけんされたあとでわ、くうぇーとでわ、にっぽんのこっきがあらたにたこくにくわわっていんさつされたきねんきってがはっこーされるなど、きけんをともなったじんてきこーけんえのひょーかがいっぺんした。	NO_LABEL
江田憲司は、90億ドルの支援金のほとんどは米国に渡り、クウェートに渡ったのは6億円にすぎなかったとしている。	えだけんじわ、きゅうじゅうおくどるのしえんきんのほとんどわべいこくにわたり、くうぇーとにわたったのわろくおくえんにすぎなかったとしている。	NO_LABEL
部隊や隊員に対しては、次の通りの表彰が行われた。	ぶたいやたいいんにたいしてわ、つぎのとーりのひょーしょーがおこなわれた。	NO_LABEL
また、この掃海作業により海自の掃海・掃討能力は技量についてはともかく、装備については諸外国に大きく劣ることが明らかになった。	NO_PRONOUNCE	NO_LABEL
その為、諸外国の掃海・掃討装備を導入したすがしま型掃海艇が建造されることになった。	NO_PRONOUNCE	NO_LABEL
