夏原 平和は日本の実業家である。	なつはらへいわわにっぽんのじつぎょーかである。	NO_LABEL
滋賀県彦根市出身。	しがけんひこねししゅっしん。	NO_LABEL
1957年に父・夏原平次郎が創業したスーパーマーケットチェーン・平和堂の現代表取締役社長。	NO_PRONOUNCE	NO_LABEL
滋賀県立彦根東高等学校を経て、1968年3月同志社大学法学部卒業。	しがけんりつひこねひがしこうとーをへて、せんきゅうひゃくろくじゅうはちねんさんがつどーししゃだいがくほーがくぶそつぎょー。	NO_LABEL
1968年4月平和堂入社。	せんきゅうひゃくろくじゅうはちねんしがつへいわどーにゅーしゃ。	NO_LABEL
1970年取締役、1975年専務取締役、1983年副社長に就任。	せんきゅうひゃくななじゅうねんとりしまりやく、せんきゅうひゃくななじゅうごねんせんむとりしまりやく、せんきゅうひゃくはちじゅうさんねんふくしゃちょーにしゅーにん。	NO_LABEL
1989年に代表取締役社長、2017年に代表取締役会長となり、現在に至る。	せんきゅうひゃくはちじゅうきゅうねんにだいひょーとりしまりやくしゃちょー、にせんじゅうななねんにだいひょーとりしまりやくかいちょとなり、げんざいにいたる。	NO_LABEL
この他、平和堂も出資・加盟する日本流通産業の代表取締役社長も務める。	NO_PRONOUNCE	NO_LABEL
