2000年シドニーオリンピックの個人参加選手団は、2000年シドニーオリンピックで東ティモール在籍の選手が「個人名義」で参加した選手団の総称。	NO_PRONOUNCE	NO_LABEL
オリンピックへの参加は通常国内オリンピック委員会名義での派遣となっている。	おりんぴっくえのさんかわつーじょーこくないおりんぴっくいーんかいめいぎでのはけんとなっている。	NO_LABEL
しかし、東ティモールがインドネシアからの独立準備中だったことと、国内オリンピック委員会が設立されていなかったことで、同国での参加ができなくなった。	しかし、ひがしてぃもーるがいんどねしあからのどくりつじゅんびちゅーだったことと、こくないおりんぴっくいーんかいがせつりつされていなかったことで、どーこくでのさんかができなくなった。	NO_LABEL
このため国際オリンピック委員会は、1992年バルセロナオリンピックにおいて、旧ユーゴスラビアがユーゴスラビア紛争によって国際連合の制裁下に置かれたため同国委員会の下で参加することが不可能になった際、IOCが同国選手団を独立参加で認めた経緯に鑑み、この問題の救済措置として個人名義での参加を認めた。	このためこくさいおりんぴっくいーんかいわ、せんきゅうひゃくきゅうじゅうにねんばるせろなおりんぴっくにおいて、きゅーゆーごすらびあがゆーごすらびあふんそーによってこくさいれんごーのせいさいかにおかれたためどーこくいーんかいのしたでさんかすることがふかのーになったさい、あいおーしーがどーこくせんしゅだんをどくりつさんかでみとめたけいいにかんがみ、このもんだいのきゅーさいそちとしてこじんめいぎでのさんかをみとめた。	NO_LABEL
個人参加選手団のIOCコードは英語の「Individual Olympic Athletes」からIOAが当てられ、国旗は五輪旗を使用した。	NO_PRONOUNCE	NO_LABEL
なお、東ティモールは2002年に独立。	なお、ひがしてぃもーるわにせんにねんにどくりつ。	NO_LABEL
国内オリンピック委員会は2003年に設立された。	こくないおりんぴっくいーんかいわにせんさんねんにせつりつされた。	NO_LABEL
設立前の2002年に開催された冬季オリンピックである2002年ソルトレークシティオリンピックには参加していないため、この名義での参加は2000年シドニーオリンピックのみであった。	せつりつまえのにせんにねんにかいさいされたとーきおりんぴっくであるにせんにねんそるとれーくしてぃおりんぴっくにわさんかしていないため、このめいぎでのさんかわにせんねんしどにーおりんぴっくのみであった。	NO_LABEL
また独立後も含めてメダル獲得者はいない。	またどくりつごもふくめてめだるかくとくしゃわいない。	NO_LABEL
