加賀 龍哉は、日本の男子元バレーボール選手。	かがたつやわ、にっぽんのだんしもとばれーぼーるせんしゅ。	NO_LABEL
北海道余市郡余市町出身。	ほっかいどーよいちぐんよいちちょーしゅっしん。	NO_LABEL
ポジションはミドルブロッカー。	ぽじしょんわみどるぶろっかー。	NO_LABEL
VプレミアリーグのFC東京に所属していた。	ぶいぷれみありーぐのえふしーとうきょーにしょぞくしていた。	NO_LABEL
小学校時代、余市沢町小学校野球少年団のエースとして活躍し、全道大会に出場。	しょーがっこーじだい、よいちさわちょーしょーがっこーやきゅーしょーねんだんのえーすとしてかつやくし、ぜんみちたいかいにしゅつじょー。	NO_LABEL
中学校時代も野球部に所属しエースだった。	ちゅーがっこーじだいもやきゅーぶにしょぞくしえーすだった。	NO_LABEL
中学3年で加賀のセンスを見抜いた野球部主将の薦めにより急遽バレー部へ入部、北海道選抜に選ばれた。	ちゅーがくさんねんでかがのせんすをみぬいたやきゅーぶしゅしょーのこもめによりきゅーきょばれーぶえにゅーぶ、ほっかいどーせんばつにえらばれた。	NO_LABEL
その後、東海大四高校を経て、早稲田大学を卒業後の2005年にFC東京へ入団。	そのご、とーかいだいよんこーこーをへて、わせだだいがくをそつぎょーごのにせんごねんにえふしーとうきょーえにゅーだん。	NO_LABEL
2007-2008年VチャレンジリーグのFC東京の優勝に貢献し、ブロック賞を初受賞した。	NO_PRONOUNCE	NO_LABEL
2010年、全日本代表登録メンバーに初選出された。	にせんじゅうねん、ぜんにほんだいひょーとーろくめんばーにはつせんしゅつされた。	NO_LABEL
2013/14シーズンをもって退部。	NO_PRONOUNCE	NO_LABEL
