『隼人が来る』は、フジテレビ系列にて1972年10月5日から1973年3月29日まで毎週木曜夜8時からの1時間枠で放映された高橋英樹主演の連続テレビ時代劇。	NO_PRONOUNCE	NO_LABEL
全25回。	ぜんにじゅうごかい。	NO_LABEL
享保年間、8代将軍・徳川吉宗より「諸国見廻役」の任を受けた花吹雪抜刀流の使い手である旗本・秋月隼人が浪人姿に身をやつし、河童の喜八を相棒に、諸国を隠密のうちに巡りながら諸藩の内に巣食う悪を懲らしめる。	NO_PRONOUNCE	NO_LABEL
高橋英樹は2002年に受けたインタビューの中で『レギュラーは二人と馬だけなので明けても暮れても「高橋英樹、左とん平、馬、殺陣師」しかスケジュール表に出てこず、きつかった』と当時の思い出を語っている。	NO_PRONOUNCE	NO_LABEL
徳川享保年間、時の将軍・吉宗の命を受けて、単身、密かに諸国をめぐる一人の男がいた。	NO_PRONOUNCE	NO_LABEL
いかなる場合でも、なんら公儀の庇護を得られず、それだけに彼の過ごす日々は、孤独と危険と、そして息苦しいまでの緊張の連続であった。	いかなるばあいでも、なんらこーぎのひごをえられず、それだけにかれのすごすひびわ、こどくときけんと、そしていきぐるしいまでのきんちょーのれんぞくであった。	NO_LABEL
その男、諸国見廻役・秋月隼人。	NO_PRONOUNCE	NO_LABEL
その使う剣は、花吹雪抜刀流。	そのつかうけんわ、はなふぶきばっとーりゅー。	NO_LABEL
