チョ・ヘジョンは、釜山広域市出身の韓国の女子バレーボール選手、指導者。	ちょへじょんわ、ぷさんくぁんにょっくししゅっしんのかんこくのじょしばれーぼーるせんしゅ、しどーしゃ。	NO_LABEL
1976年、モントリオールオリンピックに出場し、銅メダルを獲得。	せんきゅうひゃくななじゅうろくねん、もんとりおーるおりんぴっくにしゅつじょーし、どーめだるをかくとく。	NO_LABEL
韓国の球技初のメダルをもたらした。	かんこくのきゅーぎはつのめだるをもたらした。	NO_LABEL
ポジションはレフト。	ぽじしょんわれふと。	NO_LABEL
「空飛ぶ小鳥」（）の愛称で親しまれた。	NO_PRONOUNCE	NO_LABEL
2010年、GSカルテックスの監督に就任した。	にせんじゅうねん、じーえすかるてっくすのかんとくにしゅーにんした。	NO_LABEL
これは韓国のプロスポーツ史上初の女性監督であった。	これわかんこくのぷろすぽーつしじょーはつのじょせいかんとくであった。	NO_LABEL
