ブラッドリー・トーマス・リッジは、アメリカ合衆国カリフォルニア州サクラメント出身の元プロ野球選手。	NO_PRONOUNCE	NO_LABEL
のMLBドラフトでサンフランシスコ・ジャイアンツから42巡目で指名されたが、契約せずにノートルダム大学へ進学。	NO_PRONOUNCE	NO_LABEL
には80.1投球回で93個の三振を奪い8勝2敗を記録、ビッグ・イースト・カンファレンスの最優秀投手に選出される。	NO_PRONOUNCE	NO_LABEL
同年のMLBドラフト1巡目でヒューストン・アストロズから指名されプロ入り。	NO_PRONOUNCE	NO_LABEL
マイナー時代に度重なる故障を経験し、開幕までに4回の手術を受けている。	まいなーじだいにたびかさなるこしょーをけいけんし、かいまくまでによんかいのしゅじゅつをうけている。	NO_LABEL
4月26日の対アトランタ・ブレーブス戦においてメジャーデビューを果たし、には抑えのビリー・ワグナーにつなぐ中継ぎ投手として活躍。	しがつにじゅうろくにちのたいあとらんたぶれーぶすせんにおいてめじゃーでびゅーをはたし、にわおさえのびりーわぐなーにつなぐなかつぎとーしゅとしてかつやく。	NO_LABEL
が前年に記録したシーズン登板数球団新人記録に並ぶ78試合に登板し、28ホールドを記録。	NO_PRONOUNCE	NO_LABEL
被打率は.202でリーグの新人投手の中で最も低かった。	NO_PRONOUNCE	NO_LABEL
シーズン終了後の新人王投票でも5位に入っている。	しーずんしゅうりょーごのしんじんおーとーひょーでもごいにはいっている。	NO_LABEL
リッジをクローザーとしても使えると見た球団は、ワグナーをシーズン終了後の12月にトレードで放出。	りっじをくろーざーとしてもつかえるとみたきゅーだんわ、わぐなーをしーずんしゅうりょーごのじゅーにがつにとれーどでほーしゅつ。	NO_LABEL
当初はセットアッパーとして起用されたが、抑えのオクタビオ・ドーテルをシーズン途中の6月にトレード移籍させ、その後はリッジが中継ぎから抑えに転向。	とーしょわせっとあっぱーとしてきよーされたが、おさえのおくたびおどーてるをしーずんとちゅーのろくがつにとれーどいせきさせ、そのごわりっじがなかつぎからおさえにてんこー。	NO_LABEL
この年は29セーブを挙げた。	NO_PRONOUNCE	NO_LABEL
リリーフ投手としてのシーズン157奪三振はリーグ新記録であり、メジャー全体でも歴代4位となる多さだった。	NO_PRONOUNCE	NO_LABEL
は、奪三振率こそ13.12と前年より下がったものの、42セーブを挙げ、アストロズのポストシーズン進出に貢献。	NO_PRONOUNCE	NO_LABEL
特に6月21日 - 9月28日まで24連続セーブに成功。	NO_PRONOUNCE	NO_LABEL
年間40セーブ達成は、ワグナーに次ぎアストロズ史上2人目の快挙であった。	NO_PRONOUNCE	NO_LABEL
しかし、カージナルス相手に3勝1敗で迎えたリーグチャンピオンシップシリーズ第5戦で、リッジは9回にアルバート・プホルスに逆転3点本塁打を打たれる。	しかし、かーじなるすあいてにさんしょーいちはいでむかえたりーぐちゃんぴおんしっぷしりーずだいごせんで、りっじわきゅうかいにあるばーとぷほるすにぎゃくてんさんてんほんるいだをうたれる。	NO_LABEL
アストロズは第6戦に勝利しワールドシリーズ進出を決めたが、リッジはワールドシリーズで2敗を喫した。	あすとろずわだいろくせんにしょーりしわーるどしりーずしんしゅつをきめたが、りっじわわーるどしりーずでにはいをきっした。	NO_LABEL
翌年以降もリッジの不調は続く。	よくねんいこーもりっじのふちょーわつずく。	NO_LABEL
は8月31日に通算100セーブを達成したが、何度か抑えを外され、防御率は5.28。	NO_PRONOUNCE	NO_LABEL
もシーズン序盤に抑えの座をダン・ウィーラーに譲り、中盤にその座を取り戻したものの、セーブ数は2004年以降では最低の19に留まった。	NO_PRONOUNCE	NO_LABEL
シーズン終了後の11月7日、リッジはとともに、マイケル・ボーン、マイナーリーグ所属のとのトレードでフィラデルフィア・フィリーズへ移籍。	しーずんしゅうりょーごのじゅーいちがつなのか、りっじわとともに、まいけるぼーん、まいなーりーぐしょぞくのとのとれーどでふぃらでるふぃあふぃりーずえいせき。	NO_LABEL
フィリーズに移籍し、スプリング・トレーニングでオフに手術した右ひざを再び痛め、内視鏡手術を受け不安なスタート。	NO_PRONOUNCE	NO_LABEL
しかし、開幕からセーブ機会成功が続き、シーズン終了後にFAとなる前に球団は7月に3年総額3750万ドル、4年目の2012年は球団オプションで契約延長。	NO_PRONOUNCE	NO_LABEL
7月15日にヤンキースタジアムで開催されたオールスターゲームで、リッジは延長15回に登板。	しちがつじゅうごにちにやんきーすたじあむでかいさいされたおーるすたーげーむで、りっじわえんちょーじゅうごかいにとーばん。	NO_LABEL
2安打と四球で一死満塁でマイケル・ヤングにサヨナラ犠牲フライを打たれて敗戦投手になった。	にあんだとしきゅーでいっしまんるいでまいけるやんぐにさよならぎせいふらいをうたれてはいせんとーしゅになった。	NO_LABEL
後半戦も連続セーブの記録は途切れず、41セーブ機会全て成功。	NO_PRONOUNCE	NO_LABEL
セーブ失敗なしでシーズン40セーブ以上を挙げたのはエリック・ガニエに次ぎ、史上2人目のことであった。	NO_PRONOUNCE	NO_LABEL
プレーオフでも7回のセーブ機会すべてでセーブを記録。	ぷれーおふでもななかいのせーぶきかいすべてでせーぶをきろく。	NO_LABEL
28年ぶりのワールドシリーズ優勝に貢献した。	にじゅうはちねんぶりのわーるどしりーずゆーしょーにこーけんした。	NO_LABEL
2年間の不振から復活を果たしたリッジは、ナ・リーグカムバック賞を受賞し、サイ・ヤング賞の投票ではリリーフ投手として最高の4位に入った。	にねんかんのふしんからふっかつをはたしたりっじわ、なりーぐかむばっくしょーをじゅしょーし、さいやんぐしょーのとーひょーでわりりーふとーしゅとしてさいこーのよんいにはいった。	NO_LABEL
しかし翌は、31セーブを記録したが、11回のセーブ機会失敗、防御率7点台、8敗とセーブ失敗を繰り返した。	NO_PRONOUNCE	NO_LABEL
4月18日のパドレス戦で負け投手となったため、連続セーブ機会成功がメジャー史上当時歴代3位となる47で途切れた。	NO_PRONOUNCE	NO_LABEL
また、6月に故障者リスト入りした時や9月にライアン・マドソンがクローザーを務めた。	また、ろくがつにこしょーしゃりすといりしたときやくがつにらいあんまどそんがくろーざーをつとめた。	NO_LABEL
1月26日、ワシントン・ナショナルズと契約をした。	いちがつにじゅうろくにち、わしんとんなしょなるずとけいやくをした。	NO_LABEL
クローザーのドリュー・ストーレンにつなぐセットアッパーの役割を任された。	くろーざーのどりゅーすとーれんにつなぐせっとあっぱーのやくわりをまかされた。	NO_LABEL
スプリング・トレーニングで右ひじの炎症を発症したが、開幕には間に合ったものの、救援失敗が続き、さらに4月27日には故障者リスト入りし、復帰しても不安定な投球が続いたため、6月16日の対ニューヨーク・ヤンキース戦を最後に6月25日に解雇された。	NO_PRONOUNCE	NO_LABEL
シーズン終了後の12月2日に現役引退を表明した。	しーずんしゅうりょーごのじゅーにがつふつかにげんえきいんたいをひょーめいした。	NO_LABEL
8月1日、4年間在籍した古巣フィリーズと1日契約を結び、フィリーズの一員として正式に引退した	はちがつついたち、よんねんかんざいせきしたふるすふぃりーずとついたちけいやくをむすび、ふぃりーずのいちいんとしてせいしきにいんたいした	NO_LABEL
100mph近い速球にスライダーを交え、多くの三振を奪う。	NO_PRONOUNCE	NO_LABEL
2002年のデビュー以来毎年、投球回数を上回る数の奪三振を記録し、奪三振率が10を上回っている。	NO_PRONOUNCE	NO_LABEL
特に2004年には157奪三振を挙げ、リリーフ投手の奪三振数ナショナルリーグ記録を更新した。	NO_PRONOUNCE	NO_LABEL
