ティム・ホートンは、カナダ連邦オンタリオ州北部コクレーン生まれのアイスホッケー選手である。	てぃむほーとんわ、かなだれんぽーおんたりおしゅーほくぶこくれーんうまれのあいすほっけーせんしゅである。	NO_LABEL
NHLではトロント・メープルリーフスなどで非常にタフなディフェンス選手として鳴らした。	えぬえいちえるでわとろんとめーぷるりーふすなどでひじょーにたふなでぃふぇんすせんしゅとしてならした。	NO_LABEL
また、カナダ最大のコーヒー・ドーナツチェーン店「ティムホートンズ」の創業者である。	NO_PRONOUNCE	NO_LABEL
1930年生まれのティム・ホートンは北部オンタリオ地区の小さなホッケーリーグの選手として成長した。	せんきゅうひゃくさんじゅうねんうまれのてぃむほーとんわほくぶおんたりおちくのちーさなほっけーりーぐのせんしゅとしてせいちょーした。	NO_LABEL
NHLのドラフトにおいてトロント・メープルリーフスの指名を受け、同チームで17年間プレーし4度のスタンレー・カップ優勝を経験した。	えぬえいちえるのどらふとにおいてとろんとめーぷるりーふすのしめいをうけ、どーちーむでじゅうななねんかんぷれーしよんどのすたんれーかっぷゆーしょーをけいけんした。	NO_LABEL
その後は同じくNHLのニューヨーク・レンジャース、ピッツバーグ・ペンギンズ及びバッファロー・セイバーズでプレーした。	そのごわどうじくえぬえいちえるのにゅーよーくれんじゃーす、ぴっつばーぐぺんぎんずおよびばっふぁろーせいばーずでぷれーした。	NO_LABEL
非常に当たりが強く、重圧下での冷静さでも知られ、耐久力のあるディフェンス選手として活躍。	ひじょーにあたりがつよく、じゅーあつかでのれいせいさでもしられ、たいきゅーりょくのあるでぃふぇんすせんしゅとしてかつやく。	NO_LABEL
NHLのオールスター戦では3度の第1チーム選手と、同じく3度の第2チーム選手に選抜されている。	NO_PRONOUNCE	NO_LABEL
また、オールスター戦には7回の出場を果している。	また、おーるすたーせんにわななかいのしゅつじょーをはたしている。	NO_LABEL
ホートンは選手としても有能であったが、一般的にはむしろ事業家として知名度が高い。	ほーとんわせんしゅとしてもゆーのーであったが、いっぱんてきにわむしろじぎょーかとしてちめいどがたかい。	NO_LABEL
1964年には、オンタリオ州ハミルトンで自分の名前にちなむコーヒー、ドーナツ店の第一号店舗を開いた。	せんきゅうひゃくろくじゅうよねんにわ、おんたりおしゅーはみるとんでじぶんのなまえにちなむこーひー、どーなつてんのだいいちごーてんぽをひらいた。	NO_LABEL
初期のメニューにはいくつか彼のオリジナル料理が加えられた。	しょきのめにゅーにわいくつかかれのおりじなるりょーりがくわえられた。	NO_LABEL
1965年になって、彼は投資家のロン・ジョイスと共同経営を始めた。	NO_PRONOUNCE	NO_LABEL
のちにロンは、事業を承継して瞬く間にこのチェーンを数百万ドル規模のフランチャイズ事業へと発展させることとなった。	のちにろんわ、じぎょーをしょーけいしてまばたくまにこのちぇーんをすーひゃくまんどるきぼのふらんちゃいずじぎょーえとはってんさせることとなった。	NO_LABEL
1974年2月21日の早朝、セイバーズGMの George "Punch" Imlach から贈られたスポーツカー、デ・トマソ・パンテーラでトロントからニューヨーク州バッファローに向かって高速道路を運転していたが、車の制御を失い車は大破、自損事故により即死してしまった。	NO_PRONOUNCE	NO_LABEL
44歳であった。	よんじゅうよんさいであった。	NO_LABEL
彼は QEW と20号線との環状交差路を通過中であった。	NO_PRONOUNCE	NO_LABEL
この交差路はより適切なインターチェンジを作るためそれ以後撤去された。	このこーさろわよりてきせつないんたーちぇんじをつくるためそれいごてっきょされた。	NO_LABEL
結果的には、ホートンは時速100マイル超のスピードで走行していたことに加え、相当量のアルコールと前夜開催された古巣メープルリーフスとの試合であごを痛めたため、鎮痛剤を服用していたことがわかった。	NO_PRONOUNCE	NO_LABEL
葬儀にはNHL選手とりわけホートンが目をかけてその成長に重要な役割を担い、次シーズンにスタンレー・カップ決勝進出を果すこととなるセイバーズの若手選手が参列した。	そーぎにわえぬえいちえるせんしゅとりわけほーとんがめをかけてそのせいちょーにじゅーよーなやくわりをにない、じしーずんにすたんれーかっぷけっしょーしんしゅつをはたすこととなるせいばーずのわかてせんしゅがさんれつした。	NO_LABEL
彼には残された妻と1男4女がいた。	NO_PRONOUNCE	NO_LABEL
1977年にホッケーの殿堂入りを果たした。	せんきゅうひゃくななじゅうななねんにほっけーのでんどーいりをはたした。	NO_LABEL
またセイバーズ時代の背番号2が1996年に、メープルリーフス時代の背番号7が2016年10月15日に、それぞれ永久欠番になっている。	またせいばーずじだいのせばんごーにがせんきゅうひゃくきゅうじゅうろくねんに、めーぷるりーふすじだいのせばんごーなながにせんじゅうろくねんじゅーがつじゅうごにちに、それぞれえいきゅーけつばんになっている。	NO_LABEL
