久保 充広は、大阪府出身の元プロ野球選手。	くぼみつひろわ、おーさかふしゅっしんのもとぷろやきゅーせんしゅ。	NO_LABEL
近大附属高校では森岡裕之とバッテリーを組み、第74回全国高等学校野球選手権大会に出場した。	きんだいふぞくこーこーでわもりおかひろゆきとばってりーをくみ、だいななじゅうよんかいぜんこくこーとーがっこーやきゅーせんしゅけんたいかいにしゅつじょーした。	NO_LABEL
1992年ドラフト会議で近鉄バファローズから7位指名を受けて入団。	せんきゅうひゃくきゅうじゅうにねんどらふとかいぎできんてつばふぁろーずからなないしめいをうけてにゅーだん。	NO_LABEL
1995年オフに高嶋徹、堀江晃治との交換トレードで大島公一と共にオリックス・ブルーウェーブへ移籍。	せんきゅうひゃくきゅうじゅうごねんおふにたかしまとーる、ほりえこうじとのこーかんとれーどでおーしまこーいちとともにおりっくすぶるーうぇーぶえいせき。	NO_LABEL
1998年に一軍初出場。	せんきゅうひゃくきゅうじゅうはちねんにいちぐんはつしゅつじょー。	NO_LABEL
2002年に現役を引退。	にせんにねんにげんえきをいんたい。	NO_LABEL
引退後はオリックスのブルペン捕手に就任。	いんたいごわおりっくすのぶるぺんほしゅにしゅーにん。	NO_LABEL
2005年から2007年シーズンはサブマネージャー、2008年シーズンからは一軍マネージャーを務めている。	にせんごねんからにせんななねんしーずんわさぶまねーじゃー、にせんはちねんしーずんからわいちぐんまねーじゃーをつとめている。	NO_LABEL
