アレックス・サンドロ・ダ・シウバは、ブラジル・サンパウロ州出身の同国代表サッカー選手。	NO_PRONOUNCE	NO_LABEL
登録名はアレックス・シウバ。	とーろくめいわあれっくすしうば。	NO_LABEL
クラブ・ホルヘ・ウィルステルマン所属。	くらぶほるへうぃるすてるまんしょぞく。	NO_LABEL
ポジションはディフェンダー。	ぽじしょんわでぃふぇんだー。	NO_LABEL
サッカー選手のルイゾンは実兄。	さっかーせんしゅのるいぞんわじっけい。	NO_LABEL
192cmの長身で空中戦に抜群の強さを誇る。	ひゃくきゅうじゅうにせんちめーとるのちょーしんでくーちゅーせんにばつぐんのつよさをほこる。	NO_LABEL
DFながら常にオーバーラップし、攻撃に参加する。	でぃふぇんだーながらつねにおーばーらっぷし、こーげきにさんかする。	NO_LABEL
サンパウロFCに所属していた時の、対サントスFC戦で4人抜きゴールを決めた。	さんぱうろえふしーにしょぞくしていたときの、たいさんとすえふしーせんでよにんぬきごーるをきめた。	NO_LABEL
2008年、移籍金1300万ユーロでサンパウロFCからハンブルガーSVに移籍した。	NO_PRONOUNCE	NO_LABEL
2009年7月7日、親善試合で膝十字靭帯を断裂し、7ヶ月以上戦列を離れる見通しとなった。	NO_PRONOUNCE	NO_LABEL
2010年1月23日、ファン・ニステルローイのハンブルガーSV加入と同時にサンパウロFCにレンタル移籍した。	にせんじゅうねんいちがつにじゅうさんにち、ふぁんにすてるろーいのはんぶるがーえすふぁうかにゅーとどーじにさんぱうろえふしーにれんたるいせきした。	NO_LABEL
2011年7月、CRフラメンゴへ移籍。	にせんじゅういちねんしちがつ、ふらめんごえいせき。	NO_LABEL
2015年3月6日、ブラジリエンセFCに加入した。	にせんじゅうごねんさんがつむいか、ぶらじりえんせえふしーにかにゅーした。	NO_LABEL
