三浦 靖4月9日 - ）は、日本の政治家。	NO_PRONOUNCE	NO_LABEL
自由民主党所属の衆議院議員。	じゆーみんしゅとーしょぞくのしゅーぎーんぎーん。	NO_LABEL
元大田市議会議員。	もとおおだしぎかいぎーん。	NO_LABEL
島根県大田市生まれ。	しまねけんおおだしうまれ。	NO_LABEL
島根県立大田高等学校を経て、1997年、神奈川大学法学部を卒業。	しまねけんりつおーたこーとーがっこーをへて、せんきゅうひゃくきゅうじゅうなな、かながわだいがくほーがくぶをそつぎょー。	NO_LABEL
大学在学中から2005年3月まで亀井久興衆議院議員秘書を務める。	だいがくざいがくちゅーからにせんごねんさんがつまでかめいひさおきしゅーぎーんぎーんひしょをつとめる。	NO_LABEL
2006年4月大田市議会議員選挙に出馬し、初当選。	にせんろくねんしがつおおだしぎかいぎーんせんきょにしゅつばし、はつとーせん。	NO_LABEL
以後3期務める。	いごさんきつとめる。	NO_LABEL
2017年、第48回衆議院議員総選挙に比例中国ブロックに自由民主党から単独20位で出馬し、初当選した。	にせんじゅうななねん、だいよんじゅうはっかいしゅーぎーんぎーんそーせんきょにひれいちゅーごくぶろっくにじゆーみんしゅとーからたんどくにじゅういでしゅつばし、はつとーせんした。	NO_LABEL
10月31日、秋葉賢也、佐藤明男、鈴木貴子と額賀派に入会。	じゅーがつさんじゅういちにち、あきばけんや、さとーあきお、すずきたかことぬかがはににゅーかい。	NO_LABEL
