市川 松蔦は、歌舞伎役者の名跡。	いちかわまつつたわ、かぶきやくしゃのみょーせき。	NO_LABEL
屋号は若松屋。	やごーわわかまつや。	NO_LABEL
定紋は鬼蔦、替紋は松川菱。	じょーもんわおにずた、かえもんわまつかわひし。	NO_LABEL
「松蔦」は初代市川左團次の俳名に由来する。	NO_PRONOUNCE	NO_LABEL
左團次はこれを俳名としては使ったが、名跡として名乗ることはなかった。	NO_PRONOUNCE	NO_LABEL
この「松蔦」を名跡として使ったのは左團次の長女の高橋幸子が最初で、舞踊家として市川松蔦を一時期名乗ったが、やがて廃業。	NO_PRONOUNCE	NO_LABEL
次に左團次の門弟で幸子の夫となった初代市川延若が市川松蔦を名乗ったが、岳父と妻をはばかって自らは「二代目」としてこれを襲名した。	NO_PRONOUNCE	NO_LABEL
