ヌーアは、アイルランドで生まれ、イギリスとアメリカ合衆国で調教を受けた競走馬。	ぬーあわ、あいるらんどでうまれ、いぎりすとあめりかがっしゅーこくでちょーきょーをうけたきょーそーば。	NO_LABEL
ナスルーラの初年度産駒で、サイテーションを4度に渡って破るなど活躍し、ナスルーラがアメリカに輸入されるきっかけを作った。	なするーらのしょねんどさんこまで、さいてーしょんをよんどにわたってやぶるなどかつやくし、なするーらがあめりかにゆにゅーされるきっかけをつくった。	NO_LABEL
20世紀のアメリカ名馬100選では第69位に選ばれている。	にじっせいきのあめりかめいばひゃくせんでわだいろくじゅうきゅういにえらばれている。	NO_LABEL
ヌーアはアーガー・ハーン3世の持ち馬として2-3歳時はイギリスで走った。	NO_PRONOUNCE	NO_LABEL
2歳時にハンデ戦で2勝をあげると、3歳時はクラシックに挑戦。	にさいじにはんでせんでにしょーをあげると、さんさいじわくらしっくにちょーせん。	NO_LABEL
だが、ぶっつけで挑んだ2000ギニーは9着、続くエプソムダービーは3着に終わる。	だが、ぶっつけでいどんだにせんぎにーわきゅうちゃく、つずくえぷそむだーびーわさんちゃくにおわる。	NO_LABEL
古馬に挑んだエクリプスステークスでは1番人気に支持されるが、ペティション、サヤラジオに僅かに及ばず3着。	ふるうまにいどんだえくりぷすすてーくすでわいちばんにんきにしじされるが、ぺてぃしょん、さやらじおにわずかにおよばずさんちゃく。	NO_LABEL
続くダイオメドステークスで重賞初制覇を飾り、秋は最後の一冠セントレジャーステークスに挑むが8着に終わる。	つずくだいおめどすてーくすでじゅーしょーはつせいはをかざり、あきわさいごのいちかんせんとれじゃーすてーくすにいどむがはちちゃくにおわる。	NO_LABEL
この後61キログラムの斤量を克服してグレートフォールステークスを制するが、大舞台ではもう一歩の成績が続いたためかアメリカへの売却が決まる。	NO_PRONOUNCE	NO_LABEL
イギリス時代の通算成績は13戦4勝であった。	いぎりすじだいのつーさんせいせきわじゅうさんせんよんしょーであった。	NO_LABEL
グレートフォールステークスから約一年、じっくりと調教を積んだヌーアは10月からレースに復帰し、6戦を重ねるが僅か一勝に終わる。	ぐれーとふぉーるすてーくすからやくいちねん、じっくりとちょーきょーをつんだぬーあわじゅーがつかられーすにふっきし、ろくせんをかさねるがわずかいちしょーにおわる。	NO_LABEL
しかし年が明けると一気に才能が開花し、5歳2月のサンアントニオハンデキャップでは三冠馬サイテーションに半馬身差まで迫る3着。	しかしとしがあけるといっきにさいのーがかいかし、ごさいにがつのさんあんとにおはんできゃっぷでわさんかんばさいてーしょんにはんばしんさまでせまるさんちゃく。	NO_LABEL
そして西海岸の最強決定戦・サンタアニタハンデキャップ、サンフアンカピストラーノハンデキャップ、フォーティナイナーズハンデキャップ、ゴールデンゲートハンデキャップと、4戦連続でサイテーションを破る快挙を成し遂げる。	NO_PRONOUNCE	NO_LABEL
しかも4戦全てレコードのおまけ付きで、ナスルーラの底力とスピードをアメリカの生産者の目に焼き付けた。	しかもよんせんすべてれこーどのおまけつきで、なするーらのそこじからとすぴーどをあめりかのせいさんしゃのめにやきつけた。	NO_LABEL
秋はジョッキークラブゴールドカップでヒルプリンスに敗れるものの、ハリウッドゴールドカップではアソールト、ヒルプリンスの2頭のダービー馬をまたしてもレコードで破り、このレースを最後に引退した。	NO_PRONOUNCE	NO_LABEL
