ウィズダムは、三省堂が発行している英和辞典と和英辞典のシリーズ名。	うぃずだむわ、さんせいどーがはっこーしているえいわじてんとわえいじてんのしりーずめい。	NO_LABEL
大正11年発売の『袖珍コンサイス英和辞典』から長い歴史を誇るコンサイスシリーズを発刊している三省堂が、独自にコーパスを構築し編纂された新しい英和、和英辞典のシリーズである。	NO_PRONOUNCE	NO_LABEL
第二版の改訂と和英辞典の刊行に伴い、ウェブ上で使えるデュアル・ディクショナリーでのサービスが開始された。	NO_PRONOUNCE	NO_LABEL
書籍版の購入者がウェブで登録することで使用可能となる。	しょせきばんのこーにゅーしゃがうぇぶでとーろくすることでしよーかのーとなる。	NO_LABEL
オフラインの電子辞書としては2007年3月に発売されたエルゴソフトのegword Universal 2およびegbridge Universal 2にバンドルされたが、エルゴソフトのパッケージソフト撤退により翌年1月に販売終了している。	NO_PRONOUNCE	NO_LABEL
2008年7月5日には「ウィズダム英和辞典 第2版」と「ウィズダム和英辞典」を収録した「ウィズダム英和・和英辞典」が、2012年12月18日には「ウィズダム英和辞典 第3版」と「ウィズダム和英辞典 第2版」を収録した「ウィズダム英和・和英辞典 2」がリリースされた。	NO_PRONOUNCE	NO_LABEL
いずれも物書堂によりiOS向けに販売されている。	いずれもものかきどーによりあいおーえすむけにはんばいされている。	NO_LABEL
OS X Mountain Lion以降およびiOS 5以降の辞書アプリケーションにウィズダム英和・和英辞典が標準でインストールされている。	NO_PRONOUNCE	NO_LABEL
