『origin』はdoriko feat. 初音ミクのミニ・アルバム。	NO_PRONOUNCE	NO_LABEL
2015年9月2日、ビーイングから発売。	にせんじゅうごねんくがつふつか、びーいんぐからはつばい。	NO_LABEL
自身の制作およびVOCALOIDの原点をテーマにして制作した。	NO_PRONOUNCE	NO_LABEL
ジャケットデザインはちほPが担当した。	じゃけっとでざいんわちほぴーがたんとーした。	NO_LABEL
CDジャーナルは「しっとりとしたバラードの「あなたの願いをうたうもの」や「水彩画」、ポップな「魔女裁判」など、丁寧に作り込まれた楽曲はボカロ初心者の方にもお薦め」と評した。	NO_PRONOUNCE	NO_LABEL
全作詞・作曲・編曲：doriko	NO_PRONOUNCE	NO_LABEL
