株式会社関西放送制作は、大阪府大阪市浪速区にある番組制作会社。	かぶしきがいしゃかんさいほーそーせいさくわ、おーさかふおーさかしなにわくにあるばんぐみせいさくがいしゃ。	NO_LABEL
大阪では、老舗の番組制作会社。	おーさかでわ、しにせのばんぐみせいさくがいしゃ。	NO_LABEL
演歌百撰等の番組を制作している。	えんかひゃくせんとーのばんぐみをせいさくしている。	NO_LABEL
尚、同じ関西の名前を持つ関西テレビ放送及びラジオ関西と直接のつながりはない。	なお、おなじかんさいのなまえをもつかんさいてれびほうそーおよびらじおかんさいとちょくせつのつながりわない。	NO_LABEL
また、一時期、KBCという略称を用いたが、同じ略称である福岡の九州朝日放送とは当然関係ない。	また、いちじき、けーびーしーとゆうりゃくしょーをもちいたが、おなじりゃくしょーであるふくおかのきゅーしゅーあさひほーそーとわとーぜんかんけいない。	NO_LABEL
さらに、関東放送制作という会社も存在していたが関係ない。	さらに、かんとーほーそーせいさくとゆうかいしゃもそんざいしていたがかんけいない。	NO_LABEL
他	NO_PRONOUNCE	NO_LABEL
制作している番組作りの特徴と特色として、過去に制作されたラジオ番組に流れるCMのスポンサーへの営業も行っており、中には、日本財団・カバヤ食品・吉本興業等のCMも流れていた。	NO_PRONOUNCE	NO_LABEL
過去に制作されたラジオ番組の中には若者向けの番組もあったが、番組内にかける曲は大半が演歌だった。	かこにせいさくされたらじおばんぐみのなかにわわかものむけのばんぐみもあったが、ばんぐみないにかけるきょくわたいはんがえんかだった。	NO_LABEL
現在制作されている番組や過去に制作された番組等のお便り、プレゼントの応募の宛先は、浪速郵便局私書箱となっている。	げんざいせいさくされているばんぐみやかこにせいさくされたばんぐみとーのおたより、ぷれぜんとのおーぼのあてさきわ、なにわゆーびんきょくししょばことなっている。	NO_LABEL
