大轟の滝は徳島県那賀郡那賀町にある滝である。	おおとどろのたきわとくしまけんなかぐんなかちょーにあるたきである。	NO_LABEL
とくしま88景に選定されている。	NO_PRONOUNCE	NO_LABEL
那賀川の支流の沢谷川水域にある。	なかがわのしりゅーのさわだにがわすいいきにある。	NO_LABEL
落差20メートルの滝で3段になって流れる。	NO_PRONOUNCE	NO_LABEL
周囲は春には新緑、秋には紅葉が楽しめる。	しゅーいわはるにわしんりょく、あきにわこーよーがたのしめる。	NO_LABEL
毎年11月には滝のライトアップが行われる。	まいとしじゅーいちがつにわたきのらいとあっぷがおこなわれる。	NO_LABEL
国道193号脇より眺望できるため車で訪れることが容易である。	こくどーひゃくきゅうじゅうさんごーわきよりちょーぼーできるためくるまでおとずれることがよーいである。	NO_LABEL
