農林局は、琉球政府の行政事務部局のひとつ。	のーりんきょくわ、りゅーきゅーせいふのぎょーせいじむぶきょくのひとつ。	NO_LABEL
農林水産業関係を所掌した。	のーりんすいさんぎょーかんけいをしょしょーした。	NO_LABEL
1965年8月1日の機構改革において、経済局から分離したものである。	せんきゅうひゃくろくじゅうごねんはちがつついたちのきこーかいかくにおいて、けいざいきょくからぶんりしたものである。	NO_LABEL
農林局の所掌事務は以下の通りである。	のーりんきょくのしょしょーじむわいかのとーりである。	NO_LABEL
農林局の組織は以下の通りである。	のーりんきょくのそしきわいかのとーりである。	NO_LABEL
