パブリック・エナミーは、ニューヨークのロングアイランド出身のヒップホップ・グループである。	NO_PRONOUNCE	NO_LABEL
政府やマスメディアなど、既成の権威からの自立を訴える歌詞や、アメリカの社会・政治問題に対する積極的な活動で知られている。	NO_PRONOUNCE	NO_LABEL
「ローリング・ストーンの選ぶ歴史上最も偉大な100組のアーティスト」において第44位。	NO_PRONOUNCE	NO_LABEL
1982年 、チャックDのフリースタイルがリック・ルービンに見いだされ、その頃はまだ形成期にあったデフ・ジャム所属のグループとしてPEは結成された。	NO_PRONOUNCE	NO_LABEL
結成から5年後の1987年、デビューアルバム、『YO! BUM ラッシュ・ザ・ショウ』を発表した。	NO_PRONOUNCE	NO_LABEL
さらに1988年、ヒットシングル"Don't Believe the Hype"を含む2ndアルバム、『パブリック・エナミーII - "It Takes a Nation of Millions to Hold Us Back"』を発表し、前作より好調なランキングを得た。	NO_PRONOUNCE	NO_LABEL
彼らはさらに、1990年に3rdアルバム、『ブラック・プラネット - "Fear of a Black Planet"』をリリース。	NO_PRONOUNCE	NO_LABEL
このアルバムは、2008年現在、彼らのアルバムの中で最も売れたアルバムであり、アメリカ国会図書館の重要保存録音物として永久保存されている。	このあるばむわ、にせんはちねんげんざい、かれらのあるばむのなかでもっともうれたあるばむであり、あめりかこっかいとしょかんのじゅーよーほぞんろくおんぶつとしてえいきゅーほぞんされている。	NO_LABEL
収録されているシングル曲には、救急活動が黒人地区においては白人地区よりも遅く到着することを批判した"911 is a Joke"や、PE自身のことを歌ったと考えられている"Fight the Power"がある。	NO_PRONOUNCE	NO_LABEL
この曲はヒップホップ史上最も人気と影響力のある曲の一つであり、スパイク・リーが監督した映画、『ドゥ・ザ・ライト・シング』のテーマ曲でもあった。	NO_PRONOUNCE	NO_LABEL
パブリック・エナミーは様々な面において先駆者だったといえる。	ぱぶりっくえなみーわさまざまなめんにおいてせんくしゃだったといえる。	NO_LABEL
例えばターミネーターXは、"Rebel Without A Pause"で聴くことができるように、スクラッチをより洗練されたテクニックに昇華させたし、プロデューサーユニットのThe Bomb Squadは斬新なサンプリングやビートを提示した。	NO_PRONOUNCE	NO_LABEL
批評家のスティーブン・トーマスは「プロデューサーチームのthe Bomb Squadを通じてフリー・ジャズやハードファンク、さらにはミュジーク・コンクレートの要素さえも取り込んで、前例のないようなぎっしりとした凶暴なサウンドを作り上げた」と評した。	NO_PRONOUNCE	NO_LABEL
また、ラップの面においても、PEは政治的・社会的あるいは文化的な意識を、巧みで詩的なライムにのせることによってラップの世界を変革した。	NO_PRONOUNCE	NO_LABEL
PEは、世界ツアーを敢行した最初のラップグループでもあり、その結果、ヨーロッパやアジアのヒップホップ・コミュニティーの中で大きな人気と影響力を持つようになった。	NO_PRONOUNCE	NO_LABEL
また、アルバムをMP3フォーマットでリリースした最初のミュージシャンであり、インターネット経由の音楽配信の可能性を切り開いた。	また、あるばむをえむぴーすりーふぉーまっとでりりーすしたさいしょのみゅーじしゃんであり、いんたーねっとけいゆのおんがくはいしんのかのーせいをきりひらいた。	NO_LABEL
1991年、パブリック・エナミーはニューヨークのスラッシュメタルバンド、アンスラックスとの競演によって、ハードロックとヒップホップの融合を成功させた。	せんきゅうひゃくきゅうじゅういちねん、ぱぶりっくえなみーわにゅーよーくのすらっしゅめたるばんど、あんすらっくすとのきょーえんによって、はーどろっくとひっぷほっぷのゆーごーをせいこーさせた。	NO_LABEL
シングル曲「Bring the Noise」は、戦闘的な「ブラックパワー」的歌詞と破砕的なギター、そして時折顔をのぞかせるユーモアが特徴的だ。	NO_PRONOUNCE	NO_LABEL
お互いの敬意や、チャックDとアンスラックスのリーダーであるスコット・イアンとの間の個人的な友情によって結びつけられたこのコラボレーションによって、ロックファンは当時馴染みのなかったヒップホップを知ることになる。	おたがいのけいいや、ちゃっくでぃーとあんすらっくすのりーだーであるすこっといあんとのまのこじんてきなゆーじょーによってむすびつけられたこのこらぼれーしょんによって、ろっくふぁんわとーじなじみのなかったひっぷほっぷをしることになる。	NO_LABEL
また、外見上は全く異なる2つのグループは共同ツアーさえも行った。	また、がいけんじょーわまったくことなるふたつのぐるーぷわきょーどーつあーさえもおこなった。	NO_LABEL
フレイヴァー・フレイヴが、「奴らはこのツアーが実現することはないだろうと言ったんだ」という発言は、ロック界とヒップホップ界の双方で伝説的なものになった。	NO_PRONOUNCE	NO_LABEL
この当時では考えられなかったコラボレーションがなかったら、リンキン・パークのようなバンドは存在しなかっただろうし、ラップロックやニューメタルのようなジャンルは確立し得なかっただろうとさえ考えられている。	このとーじでわかんがえられなかったこらぼれーしょんがなかったら、りんきんぱーくのよーなばんどわそんざいしなかっただろうし、らっぷろっくやにゅーめたるのよーなじゃんるわかくりつしえなかっただろうとさえかんがえられている。	NO_LABEL
実際、ブラッド・デルソンとマイク・シノダがこのライブに影響を受け、現在のリンキン・パークが結成された。	じっさい、ぶらっどでるそんとまいくしのだがこのらいぶにえいきょーをうけ、げんざいのりんきんぱーくがけっせいされた。	NO_LABEL
2013年に、ロックの殿堂入りを果たした。	にせんじゅうさんねんに、ろっくのでんどーいりをはたした。	NO_LABEL
"パブリック・エナミー"が結成される前、チャックDは当時働いていたラジオ局WBAUの宣伝と、彼にバトルを挑んできたラッパーを受け流すためのテープを作った。	NO_PRONOUNCE	NO_LABEL
彼は地元のシーンの人々に虐げられているように感じていたので、そのテープを"パブリック・エナミー #1"と名づけた。	NO_PRONOUNCE	NO_LABEL
これが、チャックDの曲の中において「パブリック・エナミー」についての最初の言及である。	NO_PRONOUNCE	NO_LABEL
このシングルは、PE結成前にもかかわらず、ファレイヴァー・フレイヴの協力を得て制作されている。	NO_PRONOUNCE	NO_LABEL
PEは、戦闘的なブラックパワー運動のと連携していることでも有名である。	NO_PRONOUNCE	NO_LABEL
また、メンバーのプロフェッサー・グリフは反ユダヤ的と受け取られる発言をしており、それらの発言がもとでグループから追放された。	NO_PRONOUNCE	NO_LABEL
PE自体もFBIによる議会へのレポート「ラップミュージックとその国家安全保障への影響」に挙げられることになった。	NO_PRONOUNCE	NO_LABEL
こういった出来事やシングル曲"Swindler's Lust"の内容が原因で、PEは反中傷連盟から批判されることになる。	NO_PRONOUNCE	NO_LABEL
しかし、PEやファンの大部分はホロコーストを矮小化する意図はなく、奴隷制度がホロコーストに比肩するものであることを主張しただけだと弁護している。	NO_PRONOUNCE	NO_LABEL
さらに、あまり批判の的にはなっていないが、リーダーのチャックDはファイル共有の積極的な支持者であり、それによって音楽は生き続け、最終的にはより多くのアーティストを助けることになるだろう、と主張している。	さらに、あまりひはんのまとにわなっていないが、りーだーのちゃっくでぃーわふぁいるきょうゆーのせっきょくてきなしじしゃであり、それによっておんがくわいきつずけ、さいしゅーてきにわよりおーくのあーてぃすとをたすけることになるだろう、としゅちょーしている。	NO_LABEL
やや衰えが見えるとしても、PEはパフォーマンスや創作を続けている。	NO_PRONOUNCE	NO_LABEL
ターミネーターXは早めの引退をして、アトランタ出身のDJロードがグループのメインDJになった。	たーみねーたーえっくすわはやめのいんたいをして、あとらんたしゅっしんのでぃーじぇいろーどがぐるーぷのめいんでぃーじぇいになった。	NO_LABEL
チャックDとプロフェッサー・グリフはファンク・ロックバンドConfrontation Campのメンバーでもある。	NO_PRONOUNCE	NO_LABEL
チャックDの講義「ラップ、人種、現実と技術」は彼が参加しているグループFine Arts Militiaのアルバム"We Are Gathered Here"の歌詞のもとになった。	NO_PRONOUNCE	NO_LABEL
2004年にフレイヴァー・フレイヴはリアリティショー"The Surreal Life"と"Strange Love"に出演したが、彼の描写はファンやほかのバンドメンバーの間で大きな議論の的になった。	NO_PRONOUNCE	NO_LABEL
多くのファンやチャックD自身がフレイヴァーの子供たちや前妻に対する不当な行動についておおっぴらに批判した。	NO_PRONOUNCE	NO_LABEL
フレイヴァーは、イギリスのリアリティショー"The Farm"にも出演し、現在はの番組"Flavor of Love"に出演 している。	NO_PRONOUNCE	NO_LABEL
奇妙なことだが、PEは結局のところ中止になったハードコアとヘヴィメタルのロックフェスヘルフェスト'05に出演し"Between the Buried and Me"、"Ed Gein"、"From a Second Story Window"、"Ion Dissonance"、"Pig Destroyer"、"Suffocation"らと共演する予定だった。	NO_PRONOUNCE	NO_LABEL
2005年の9月にフレイヴァーはPEに戻り、ハリケーン・カトリーナに対する政治的な問題を批判した"Hell No We Ain't All Right"を録音した。	NO_PRONOUNCE	NO_LABEL
2006年年頭には、Parisによってプロデュースされた15曲を含む最新作"Rebirth of a Nation"がリリースされた。	NO_PRONOUNCE	NO_LABEL
パブリック・エナミーの多くの作品を手掛け、ときにグループの一部と考えられているプロデュース・グループである。	NO_PRONOUNCE	NO_LABEL
チャックDは、本名を省略した"カール ライダー"という別名で、ボム・スクワッドの一員としてリストアップされる。	NO_PRONOUNCE	NO_LABEL
