山梨県道18号上野原丹波山線は、山梨県上野原市棡原下椿から同県北都留郡丹波山村下組に至る主要地方道である。	やまなしけんどーじゅうはちごーうえのはらたばやませんわ、やまなしけんうえのはらしゆずりはらしもつばきからどーけんきたつるぐんたばやまむらしもぐみにいたるしゅよーちほーどーである。	NO_LABEL
山梨県郡内地方の上野原市から鶴峠を経て北都留郡小菅村へ、今川峠を経て同郡丹波山村へ至る。	やまなしけんぐんないちほーのうえのはらしからつるとーげをへてきたつるぐんこすげむらえ、いまがわとーげをへてどーぐんたばやまむらえいたる。	NO_LABEL
丹波山村と小菅村を結ぶ今川トンネルの構想があるが、実現には至ってはいない。	たばやまむらとこすげむらをむすぶいまがわとんねるのこーそーがあるが、じつげんにわいたってわいない。	NO_LABEL
