スーザーン・サアド・ザグルールは、エジプトの政治家。	すーざーんさあどざぐるーるわ、えじぷとのせいじか。	NO_LABEL
自由公正党所属のシューラー議会議員。	じゆーこーせいとーしょぞくのしゅーらーぎかいぎいん。	NO_LABEL
2011年～2012年の人民議会選挙、2012年のシューラー議会選挙を通し、個人枠で当選した唯一の女性候補である。	NO_PRONOUNCE	NO_LABEL
スエズ出身。	すえずしゅっしん。	NO_LABEL
スエズ運河大学卒、科学哲学博士、国立海洋学漁業研究所研究員。	すえずうんがだいがくそつ、かがくてつがくはかせ、こくりつかいよーがくぎょぎょーけんきゅーじょけんきゅーいん。	NO_LABEL
二児の母であり、2007年に「現代的母賞」（）を受賞している。	NO_PRONOUNCE	NO_LABEL
2012年3月、憲法制定会議の委員に選ばれる。	にせんじゅうにねんさんがつ、けんぽーせいていかいぎのいいんにえらばれる。	NO_LABEL
