川谷村は、かつて新潟県中頸城郡にあった村。	かわたにむらわ、かつてにーがたけんなかくびきぐんにあったむら。	NO_LABEL
1592年の御検地によると、川谷は美守郷に属し人口は309人。	せんごひゃくきゅうじゅうにねんのごけんちによると、かわたにわひだのもりさとにぞくしじんこーわさんびゃくくにん。	NO_LABEL
縄高は55石3斗1升9合で、本納は13石3斗2升3合6勺であった。	NO_PRONOUNCE	NO_LABEL
仮に4斗俵に換算すると、約138俵を生産し33俵余りを上納することから、残りの105俵で309人の村人が1年間生活しなければならない。	NO_PRONOUNCE	NO_LABEL
川谷村の百姓がいかに苦しい生活をしたかが計り知れる。	かわたにむらのひゃくしょーがいかにくるしいせいかつをしたかがはかりしれる。	NO_LABEL
古老の話によると、明治半ばの頃は米七分と粟三分ほどを混ぜ、大根を刻んで炊いた粟飯を主食とした。	ころーのはなしによると、めいじなかばのころわべいしちぶとあわさんふんほどをまぜ、だいこんをきざんでたいたあわめしをしゅしょくとした。	NO_LABEL
漬け物は大根をぬか漬けにしてたくあんとし、野菜は塩漬けとし、味噌漬けは高級であった。	つけものわだいこんをぬかずけにしてたくあんとし、やさいわしおずけとし、みそずけわこーきゅーであった。	NO_LABEL
また、味噌をこして汁として「すまし」を作り、醤油代わりとして日常用いたという。	NO_PRONOUNCE	NO_LABEL
1878年4月に告布された祠堂合祀令を受け、神明社、上川谷字中屋敷に鎮まる上川谷八幡社、上川谷字諏訪林に鎮まる諏訪社、上川谷字深沢に鎮まる春日社の四社を合併の上、春日社の社地へ上川神社と改称することを許可されたい旨を1907年9月11日に新潟県知事に提出し、許可を得て上川谷字深沢に社殿を造営した。	せんはっぴゃくななじゅうはちねんしがつにつげぬのされたしどーごーしれいをうけ、しんめいしゃ、かみかわたにじなかやしきにしずまるうえかわやつはちまんしゃ、かみかわたにじすわばやしにしずまるすわしゃ、かみかわたにじふかさわにしずまるしゅんじつしゃのよんしゃをがっぺいのうえ、かすがしゃのしゃちえかみかわじんじゃとかいしょーすることをきょかされたいむねをせんきゅうひゃくななねんくがつじゅういちにちににーがたけんちじにていしゅつし、きょかをえてじょーかわやつじふかさわにしゃでんをぞーえいした。	NO_LABEL
造営に際しては、三柱を字越道の若井家敷地に假遷座し、1909年3月に遷座式を挙行した。	NO_PRONOUNCE	NO_LABEL
字城ヶ沢の山腹に鎮座する。	NO_PRONOUNCE	NO_LABEL
創建年代は明らかでないが、1683年の川谷村御検地水帳によると、五畝歩の境内に「宮建て之れ有り」とある。	NO_PRONOUNCE	NO_LABEL
奥ノ院には「熊野修験神像」が安置されており、両手は前で供手して結び、熊野修験特有の兜巾形をした三角帽の宝冠を覆っている。	NO_PRONOUNCE	NO_LABEL
また、拝殿に掲げられてある「熊野三者の神縁」は正二位伯爵金子堅太郎が謹書したものである。	NO_PRONOUNCE	NO_LABEL
1683年の川谷村御検地水帳には「右木建古相見、除地粉無之ニ付、吟味之上除之」と記録されている。	NO_PRONOUNCE	NO_LABEL
天和検地の前は1598年に堀氏が行った検地であり、少なくとも慶長年間には御除地となっていたと考えられ、地蔵堂の創立は相当の古さがうかがえる。	てんわけんちのまえわせんごひゃくきゅうじゅうはちねんにほりしがおこなったけんちであり、すくなくともけいちょーねんかんにわごじょちとなっていたとかんがえられ、じぞーどーのそーりつわそーとーのふるさがうかがえる。	NO_LABEL
1875年9月には堂の半分に修学の場を設け、川谷村第二十七小学校区の分校が開校している。	せんはっぴゃくななじゅうごねんくがつにわどーのはんぶんにしゅーがくのばをもーけ、かわたにむらだいにじゅーななしょーがっこーくのぶんこーがかいこーしている。	NO_LABEL
松浦彦兵衛の弟の甚太郎を開基とする浄土真宗大谷派の寺院で、寺格は餘間。	NO_PRONOUNCE	NO_LABEL
甚太郎が教如証人の弟子となり、法西の名を賜った。	じんたろーがきょーにょしょーにんのでしとなり、ほーさいのなをたまわった。	NO_LABEL
1593年に阿弥陀如来像を授かり帰国し、小庵を建て霊室に安置したことに始まる。	せんごひゃくきゅうじゅうさんねんにあみだにょらいぞーをさずかりきこくし、こあんをたてれいしつにあんちしたことにはじまる。	NO_LABEL
第十二代住職の雄貫氏が1924年に群馬県渋川市で正蓮寺を開く。	だいじゅーふたよじゅーしょくのおぬきしがせんきゅうひゃくにじゅうよねんにぐんまけんしぶかわしでしょーれんじをひらく。	NO_LABEL
下川谷字平坪の地にあり、境内には欅の老樹がうっそうと繁みをなしていたと古老は伝えていた。	しもかわたにじひらつぼのちにあり、けいだいにわけやきのろーじゅがうっそーとしげみをなしていたところーわつたえていた。	NO_LABEL
長島氏の氏神として崇敬され、祭神は水都波売能売命をまつり、長島小平太ヱ門の祖が勧請したと伝えられる。	ながしましのうじがみとしてすーけいされ、さいじんわみずつわうりのーうりいのちをまつり、ながしまこへいたゑもんのそがかんじょーしたとつたえられる。	NO_LABEL
1903年東京彰星堂宇建立に際し大欅を寄進し、その後に熊野三社に合祀された。	せんきゅうひゃくさんねんとーきょーあきらぼしどーうこんりゅーにさいしだいけやきをきしんし、そのごにくまのさんしゃにごーしされた。	NO_LABEL
そのため、境内に残っていた樹木は伐採しており、現在は社の跡形も見られない。	そのため、けいだいにのこっていたじゅもくわばっさいしており、げんざいわしゃのあとかたもみられない。	NO_LABEL
桜坂峠には口留番所が設置されていた。	さくらざかとーげにわくちどめばんしょがせっちされていた。	NO_LABEL
昼は二人、夜は四人で村人が交代で警護の任につき、保倉村、魚沼郡、刈羽郡方面に行く人々の取り締まりに当たった。	ひるわふたり、よるわよにんでむらびとがこーたいでけいごのにんにつき、ほくらむら、うおぬまぐん、かりわぐんほーめんにいくひとびとのとりしまりにあたった。	NO_LABEL
