いわき市立泉中学校は、福島県いわき市泉町玉露にある公立中学校。	いわきしりついずみちゅうがっこーわ、ふくしまけんいわきしいずみまちたまつゆにあるこーりつちゅーがっこー。	NO_LABEL
略称は「泉中」。	NO_PRONOUNCE	NO_LABEL
学校のある場所は泉町北部丘陵地帯の南斜面に位置し、「花立の丘」と呼ばれている。	NO_PRONOUNCE	NO_LABEL
生徒数は、1年生259名・9クラス、2年生268名・9クラス、3年生258名・8クラスの785名である。	NO_PRONOUNCE	NO_LABEL
特別支援学級2クラスが含まれるいわき市で最も人数が多い。	NO_PRONOUNCE	NO_LABEL
直近では平成33年がピークとみられる。	ちょっきんでわへいせいさんじゅうさんねんがぴーくとみられる。	NO_LABEL
※仮設校舎が設営されて校庭が使用できなかった期間は、泉駅西側の常磐線沿いにある臨時グラウンドや泉小学校近くの市民グラウンド等を使用して、体育の授業や部活動が行われていた。	NO_PRONOUNCE	NO_LABEL
1校時50分で、1日の授業時間は主に金曜日が5時間授業、その他は6時間授業である。	NO_PRONOUNCE	NO_LABEL
泉中学校の生徒会は、生徒会総会を最高決定機関とする組織である。	いずみちゅうがっこーのせいとかいわ、せいとかいそーかいをさいこーけっていきかんとするそしきである。	NO_LABEL
総会の下には生徒会本部と中央委員会が設置されている。	そーかいのしたにわせいとかいほんぶとちゅーおーいーんかいがせっちされている。	NO_LABEL
さらに、生徒会本部の下には部活動委員会が、中央委員会の下には専門委員会、特別委員会、学年委員会が、それぞれ設置されている。	さらに、せいとかいほんぶのしたにわぶかつどーいーんかいが、ちゅーおーいーんかいのしたにわせんもんいーんかい、とくべついーんかい、がくねんいーんかいが、それぞれせっちされている。	NO_LABEL
これらとは別の独立した組織として、選挙管理委員会が設置されており、生徒会本部役員選挙の管理・開票・発表をする。	NO_PRONOUNCE	NO_LABEL
各学級代表1名からなる。	NO_PRONOUNCE	NO_LABEL
花立祭は、毎年10月の終わりごろから11月のはじめごろに行われる、クラス対抗の合唱コンクールをメインとした文化祭である。	はなたてさいわ、まいとしじゅーがつのおわりごろからじゅーいちがつのはじめごろにおこなわれる、くらすたいこーのがっしょーこんくーるをめいんとしたぶんかさいである。	NO_LABEL
合唱コンクールのほかに職員合唱や全校合唱、そしてアトラクションとしてダンスや演劇が行われ、毎年大いに盛り上がる泉中の最大の行事である。	がっしょーこんくーるのほかにしょくいんがっしょーやぜんこーがっしょー、そしてあとらくしょんとしてだんすやえんげきがおこなわれ、まいとしおーいにもりあがるいずなかのさいだいのぎょーじである。	NO_LABEL
泉中は部活動が盛んであることで有名で、各部が数多くの成績を残している。	いずなかわぶかつどーがさかんであることでゆーめいで、かくぶがすーおーくのせいせきをのこしている。	NO_LABEL
部活動は原則全員加入である。	ぶかつどーわげんそくぜんいんかにゅーである。	NO_LABEL
部活動の活動時間は、木曜日	ぶかつどーのかつどーじかんわ、もくよーび	NO_LABEL
以外の放課後と朝の時間である。	いがいのほーかごとあさのじかんである。	NO_LABEL
平成22年度には、陸上競技部が全国大会に出場した。	へいせいにじゅうにねんどにわ、りくじょーきょーぎぶがぜんこくたいかいにしゅつじょーした。	NO_LABEL
平成19年度には、男子バレーボール部と陸上競技部が全国大会に出場した。	へいせいじゅうきゅうねんどにわ、だんしばれーぼーるぶとりくじょーきょーぎぶがぜんこくたいかいにしゅつじょーした。	NO_LABEL
そのほか、毎年多くの部活動が東北大会や県大会に出場し、優秀な成績を収めている。	そのほか、まいとしおーくのぶかつどーがとーほくたいかいやけんたいかいにしゅつじょーし、ゆーしゅーなせいせきをおさめている。	NO_LABEL
また、部活動以外にも、野口英世賞や放送コンテスト、書道展や造形作品展、弁論大会など様々な分野で活躍している生徒が多数いる。	また、ぶかつどーいがいにも、のぐちひでよしょーやほーそーこんてすと、しょどーてんやぞーけいさくひんてん、べんろんたいかいなどさまざまなぶんやでかつやくしているせいとがたすーいる。	NO_LABEL
