大阪市立鯰江小学校は、大阪府大阪市城東区にある公立小学校。	おーさかしりつなまずえしょうがっこーわ、おーさかふおーさかしじょーとーくにあるこーりつしょーがっこー。	NO_LABEL
長年にわたって水泳指導に力を入れ、水泳に関する各種大会では好成績を修めている。	ながねんにわたってすいえいしどーにちからをいれ、すいえいにかんするかくしゅたいかいでわこーせいせきをおさめている。	NO_LABEL
明治時代初期の学制発布に伴い、第五大区第三中区東成郡第一番小学校として1874年5月17日に創立した。	NO_PRONOUNCE	NO_LABEL
当時の東成郡では最も早い時期に創立した学校の一つでもある。	とーじのひがしなりぐんでわもっともはやいじきにそーりつしたがっこーのひとつでもある。	NO_LABEL
開校当初の敷地は、東成郡今福村・皇大神宮北側にあった。	NO_PRONOUNCE	NO_LABEL
1886年には今福村・栄照寺南側付近に移転し、今福小学校と称した。	NO_PRONOUNCE	NO_LABEL
町村制施行により今福村などが合併して鯰江村が成立したことに伴い、学校の名称も鯰江小学校へと改称している。	ちょーそんせいしこーによりいまふくむらなどががっぺいしてなまずえむらがせいりつしたことにともない、がっこーのめいしょーもなまずえしょーがっこーえとかいしょーしている。	NO_LABEL
1906年には鯰江村大字今福小字中島974番地へと移転している。	NO_PRONOUNCE	NO_LABEL
1919年には東成郡榎本尋常小学校、1918年には東成郡鯰江第二尋常小学校を分離している。	せんきゅうひゃくじゅうきゅうねんにわひがしなりぐんえのもとじんじょーしょうがっこー、せんきゅうひゃくじゅうはちねんにわひがしなりぐんなまずえだいにじんじょーしょうがっこーをぶんりしている。	NO_LABEL
大阪市編入後の1926年には東成区今福町177番地へと移転している。	NO_PRONOUNCE	NO_LABEL
移転前の旧敷地には、1931年に大阪市鯰江第三尋常小学校が開校している。	いてんまえのきゅーしきちにわ、せんきゅうひゃくさんじゅういちねにおーさかしなまずえだいさんじんじょーしょうがっこーがかいこーしている。	NO_LABEL
高等科を併設していたが、高等科は1932年に廃止され、周辺の小学校の高等科を統合・集約する形で新設された大阪市城東高等小学校に移管されている。	NO_PRONOUNCE	NO_LABEL
城東高等小学校は1947年の学制改革で廃校となり、跡地は大阪市立放出中学校に転用されている。	じょーとーこーとーしょうがっこーわせんきゅうひゃくよんじゅうななねのがくせいかいかくではいこーとなり、あとちわおーさかしりつはなてんちゅうがっこーにてんよーされている。	NO_LABEL
国民学校令により1941年に大阪市鯰江国民学校と称し、1947年の学制改革により大阪市立鯰江小学校と改称した。	こくみんがっこーれいによりせんきゅうひゃくよんじゅういちねにおーさかしなまずえこくみんがっこーとしょーし、せんきゅうひゃくよんじゅうななねのがくせいかいかくによりおーさかしりつなまずえしょうがっこーとかいしょーした。	NO_LABEL
1980年には大阪市立鯰江東小学校を分離している。	せんきゅうひゃくはちじゅうねんにわおーさかしりつなまずえひがししょうがっこーをぶんりしている。	NO_LABEL
