『ヘビーユニット』は、1988年カネコが開発し、タイトーによって発売されたアーケード用横スクロールシューティングゲーム。	NO_PRONOUNCE	NO_LABEL
全5面構成で永久ループ。	NO_PRONOUNCE	NO_LABEL
戦闘機・ロボットと2つの自機形態がありアイテムにより変型する。	NO_PRONOUNCE	NO_LABEL
戦闘機形態では拡散するショットを前方に放ち、サブウエポンとしてミサイルを上下方に投下する。	せんとーきけいたいでわかくさんするしょっとをぜんぽーにはなち、さぶうえぽんとしてみさいるをじょーげかたにとーかする。	NO_LABEL
ロボット形態では高威力のビームライフルの他、サブウエポンとしてホーミングアタッカーを放つ。	ろぼっとけいたいでわこーいりょくのびーむらいふるのほか、さぶうえぽんとしてほーみんぐあたっかーをはなつ。	NO_LABEL
汎用性の高さではロボット形態が勝るが、機体の当たり判定が大きくなるというデメリットも生ずる。	はんよーせいのたかさでわろぼっとけいたいがまさるが、きたいのあたりはんていがおーきくなるとゆうでめりっともしょーずる。	NO_LABEL
シールドのない状態で敵や地形に衝突もしくは被弾すると自機は破壊され、1機減る。	NO_PRONOUNCE	NO_LABEL
残りの機体がなくなるとゲームオーバーだが、コンティニュー可能。	のこりのきたいがなくなるとげーむおーばーだが、こんてぃにゅーかのー。	NO_LABEL
