桶側胴は、当世具足の一種。	おけがわどーわ、とーせいぐそくのいっしゅ。	NO_LABEL
板札とよばれる細長い長方形の鉄板を鋲で留め合わせて作る。	いたさつとよばれるほそながいちょーほーけいのてっぱんをびょーでとめあわせてつくる。	NO_LABEL
その外観が桶の側面に似ている事から桶側胴の名が付いた。	そのがいかんがおけのそくめんににていることからおけがわどーのながついた。	NO_LABEL
鉄板の繋ぎ目が横方向になっている横矧胴、縦方向になっている縦矧胴に大別される。	てっぱんのつなぎめがよこほうこーになっているよこはぎどー、たてほうこーになっているたてはぎどーにたいべつされる。	NO_LABEL
比較的制作が簡単であり強度も高いことから室町時代後期に大いに普及した。	ひかくてきせいさくがかんたんでありきょーどもたかいことからむろまちじだいこーきにおーいにふきゅーした。	NO_LABEL
そのバリエーションも多く、戦国期における当世具足の代表的形式といえる。	そのばりえーしょんもおーく、せんごくきにおけるとーせいぐそくのだいひょーてきけいしきといえる。	NO_LABEL
