陰 夔は、中国の後漢時代末期の政治家、武将。	NO_PRONOUNCE	NO_LABEL
袁紹の三男袁尚の配下。	えんしょーのさんなんえんしょーのはいか。	NO_LABEL
かつては豫州刺史を務めたとされるため、袁氏家臣団の中でもかなり高位の人物と見られる。	かつてわよしゅーししをつとめたとされるため、えんしかしんだんのなかでもかなりこーいのじんぶつとみられる。	NO_LABEL
建安7年の袁紹没後に、長男の袁譚と三男の袁尚が後継争いを起こした。	けんあんななねんのえんしょーぼつごに、ちょーなんのえんたんとさんなんのえんしょーがこーけいあらそいをおこした。	NO_LABEL
その際に、騎都尉の崔琰を双方が招聘したが、崔琰は病気と称していずれにも与さなかった。	NO_PRONOUNCE	NO_LABEL
そのため崔琰は、怒った袁尚に収監されてしまう。	NO_PRONOUNCE	NO_LABEL
袁尚配下の陰夔と陳琳が取りなしたおかげで、なんとか赦免された。	NO_PRONOUNCE	NO_LABEL
建安9年、袁尚は、鄴を守備する袁尚の参謀審配を救援するために、鄴を包囲する曹操軍と戦う。	NO_PRONOUNCE	NO_LABEL
しかし敗北を積み重ね、ついには降伏の使者として陰夔と陳琳を曹操の下に派遣したが、拒絶される。	NO_PRONOUNCE	NO_LABEL
陰夔は都督将軍馬延・射声校尉郭昭と共に曹操に投降した。	NO_PRONOUNCE	NO_LABEL
小説『三国志演義』では、曹操への降伏の使者となった時のみ登場している。	NO_PRONOUNCE	NO_LABEL
