難波は、大阪府大阪市中央区・浪速区の地域名称。	NO_PRONOUNCE	NO_LABEL
または、中央区の町名。	またわ、ちゅーおーくのちょーめい。	NO_LABEL
本項では概ね同区域にかつて所在した大阪府西成郡難波村についても述べる。	ほんこーでわおーむねどーくいきにかつてしょざいしたおーさかふにしなりぐんなんばむらについてものべる。	NO_LABEL
難波は大阪の二大繁華街の一つであるミナミに包含され、一般的にはその玄関口となる難波駅や大阪難波駅周辺の繁華街を指す。	なんばわおーさかのにだいはんかがいのひとつであるみなみにほーがんされ、いっぱんてきにわそのげんかんぐちとなるなんばえきやおーさかなんばえきしゅーへんのはんかがいをさす。	NO_LABEL
ミナミが島之内の西半から難波駅界隈までの広範な地域を指すのに対し、難波は概ね道頓堀以南・千日前以西の地域を指し、老舗や高級店が多い心斎橋と比べ、ミナミの玄関口でもある難波は多種多様な商店が混在する。	NO_PRONOUNCE	NO_LABEL
場合によっては道頓堀・千日前・宗右衛門町・湊町・日本橋を含めた地域まで指すこともあり、今宮・木津といった南隣の地域にも難波を冠する施設等が散見される。	NO_PRONOUNCE	NO_LABEL
JR難波駅は難波駅や大阪難波駅と地下連絡通路などでつながっているが、長年親しまれてきた湊町駅という旧駅名と所在地の浪速区湊町という町名から、同駅周辺は現在でも湊町と呼ばれることが多い。	じぇいあーるなんばえきわなんばえきやおーさかなんばえきとちかれんらくつーろなどでつながっているが、ながねんしたしまれてきたみなとまちえきとゆうきゅーえきめいとしょざいちのなにわくみなとまちとゆうちょーめいから、どーえきしゅーへんわげんざいでもみなとまちとよばれることがおーい。	NO_LABEL
ただし、本来の湊町は道頓堀川南岸の一画に過ぎず、現行住居表示の湊町は大半がもと難波である。	ただし、ほんらいのみなとまちわどーとんぼりがわなんがんのいちかくにすぎず、げんこーじゅーきょひょーじのみなとまちわたいはんがもとなんばである。	NO_LABEL
現在の町名で難波と付くものには、	げんざいのちょーめいでなんばとつくものにわ、	NO_LABEL
がある。	がある。	NO_LABEL
大阪市営地下鉄の難波駅・大阪難波駅・高島屋・なんばマルイが難波に、千日前道具屋筋商店街やなんばグランド花月、YES-NAMBAビルが難波千日前に、なんばパークスや大阪府立体育会館が難波中に所在する。	NO_PRONOUNCE	NO_LABEL
南海難波駅と同駅ホーム下に位置するなんばCITYは難波と難波中に跨っている。	なんかいなんばえきとどーえきほーむかにいちするなんばしてぃわなんばとなんばなかにまたがっている。	NO_LABEL
難波の地名の由来となった西成郡難波村は、もともと南船場・島之内・下船場・堀江の一帯にあり、上難波村と下難波村に分かれていた。	NO_PRONOUNCE	NO_LABEL
現在ではほとんど難波と認識されることのない南船場に、難波別院・難波神社があるのはこのためである。	NO_PRONOUNCE	NO_LABEL
江戸時代初期に行われた大坂城下の拡張に伴い、上難波村はわずかに飛地としてその姿を残す程となり、大坂城下が幕府直轄地となる1619年には上難波村の人口は0人となっていた。	NO_PRONOUNCE	NO_LABEL
下難波村は元和・寛永年間に行われた新町遊廓の開発に伴い、道頓堀川以南へ移転となった。	NO_PRONOUNCE	NO_LABEL
1650年には木津川沿いの地域が西成郡西側町となり、下難波村から分割された。	せんろっぴゃくごじゅうねんにわきずがわぞいのちいきがにしなりぐんにしがわちょーとなり、しもなんばむらからぶんかつされた。	NO_LABEL
なお、南船場には上難波○○町という町名が大正初期まで、堀江には新難波○○町という町名が明治初期まで見られた。	NO_PRONOUNCE	NO_LABEL
そして、1700年に上難波村飛地が下難波村に編入され、難波村と改称された。	そして、せんななひゃくねんにかみなんばむらとびちがしもなんばむらにへんにゅーされ、なんばむらとかいしょーされた。	NO_LABEL
江戸時代の難波村は藍の産地で知られ、濃色に優れる阿波産の藍に対して難波産の藍は薄色に優れ、難波水藍とも呼ばれた。	えどじだいのなんばむらわあいのさんちでしられ、こしょくにすぐれるあわさんのあいにたいしてなんばさんのあいわすすきしょくにすぐれ、なんばすいあいともよばれた。	NO_LABEL
難波村のうち最も早く市街化されて大坂三郷へ組み込まれたのが、概ね現在の中央区難波にあたる難波新地である。	なんばむらのうちもっともはやくしがいかされておーさかさんごーえくみこまれたのが、おーむねげんざいのちゅーおーくなんばにあたるなんばしんちである。	NO_LABEL
大阪史上最大級の大火となった1724年の享保の大火の後に、天満橋南詰の本堺町・京橋一丁目・京橋北詰の相生西町と相生東町の一部が火除地となったため、その移転先として道頓堀の南西に元堺町・元京橋町・元相生町の3町が置かれた。	NO_PRONOUNCE	NO_LABEL
その後1765年にこれら3町と元伏見坂町の南側が開発され、ここに難波新地一丁目～三丁目が形成された。	NO_PRONOUNCE	NO_LABEL
明治に入ると、1872年に坂町が南坂町に、難波新地一丁目が南坂裏町に改称され、翌年には南坂裏町が南坂町に編入され、現在の千日前1丁目に組み込まれて行くことになったが、一方で1872年に元堺町・元京橋町・元相生町の3町が難波新地に編入され、難波新地一番町～四番町に再編。	NO_PRONOUNCE	NO_LABEL
翌年には難波村のうち市街化が見られた区域も難波新地に編入され、難波新地一番町～六番町に再編。	NO_PRONOUNCE	NO_LABEL
この明治初期に拡大された難波新地の範囲が概ね現在の中央区難波の範囲となっている。	このめいじしょきにかくだいされたなんばしんちのはんいがおーむねげんざいのちゅーおーくなんばのはんいとなっている。	NO_LABEL
1879年の郡区町村編制法により難波新地は大阪府南区に含まれ、1889年の市制施行によって、大阪市南区へ移行。	せんはっぴゃくななじゅうきゅうねんのぐんくちょーそんへんせいほーによりなんばしんちわおーさかふみなみくにふくまれ、せんはっぴゃくはちじゅうきゅうねんのしせいしこーによって、おーさかしみなみくえいこー。	NO_LABEL
また同年の町村制施行によって、難波村は西成郡西側町・材木置場町・西高津村字髭剃を取り込み、難波村大字難波・西側・材木置場・西高津となった。	NO_PRONOUNCE	NO_LABEL
1897年には難波村も大阪市南区へ編入された。	せんはっぴゃくきゅうじゅうななねにわなんばむらもおーさかしみなみくえへんにゅーされた。	NO_LABEL
1900年の大字改編により、大字難波に以下の16町が成立し、難波を冠する町名は難波新地の6町を含め22町となった。	NO_PRONOUNCE	NO_LABEL
なお、大字西側・材木置場は木津川町に、大字西高津は南阪町に改称された。	NO_PRONOUNCE	NO_LABEL
1925年、難波新地を除く16町は新設された浪速区へ編入され、同時に難波の冠称を廃した。	NO_PRONOUNCE	NO_LABEL
1943年には南区と浪速区の境界変更が行われ、河原町北部が南区へ編入された。	せんきゅうひゃくよんじゅうさんねにわみなみくとなにわくのきょーかいへんこーがおこなわれ、かわらまちほくぶがみなみくえへんにゅーされた。	NO_LABEL
さらに戦後になって、1967年には反物町が桜川町へ、小田町が塩草町へ編入された。	さらにせんごになって、せんきゅうひゃくろくじゅうななねにわたんものまちがさくらがわちょーえ、おたちょーがしおくさちょーえへんにゅーされた。	NO_LABEL
そして1980年に浪速区が、1982年に南区が現在の住居表示を実施。	そしてせんきゅうひゃくはちじゅうねんになにわくが、せんきゅうひゃくはちじゅうにねんになむくがげんざいのじゅーきょひょーじをじっし。	NO_LABEL
1989年に南区が東区と統合されて中央区となり、現在に至る。	せんきゅうひゃくはちじゅうきゅうねんになむくがとんくととーごーされてちゅーおーくとなり、げんざいにいたる。	NO_LABEL
このように現在ではもと難波新地・河原町・新川・蔵前町といった繁華街の範囲だけを指すことが一般的になっているが、歴史的にも現在の地域区分としても難波は繁華街以西の木津川付近までの地域を含む地名である。	NO_PRONOUNCE	NO_LABEL
南海難波駅周辺は再開発地域となっており、難波駅前の南街会館跡地には、丸井とTOHOシネマズが入居するなんばマルイが2006年9月22日にオープンした。	なんかいなんばえきしゅーへんわさいかいはつちいきとなっており、なんばえきまえのなんがいかいかんあとちにわ、まるいととうほうしねまずがにゅーきょするなんばまるいがにせんろくねんくがつにじゅうににちにおーぷんした。	NO_LABEL
2007年4月完成のなんばパークス2期にも大阪市内最大級のシネマコンプレックス「なんばパークスシネマ」が新設され、映画館数が一気に増えることになった。	NO_PRONOUNCE	NO_LABEL
また高島屋大阪店は、既存の本館の改修と新館の増床により、分散しているブランド品と洋品雑貨売り場、レストランをそれぞれ集約・拡張、2011年3月3日にグランドオープンした。	NO_PRONOUNCE	NO_LABEL
増床面積は2万2000平方メートルで、従前の店舗面積と合わせると7万8000平方メートルとなり、西日本最大級の百貨店へと変貌した。	NO_PRONOUNCE	NO_LABEL
高島屋はまた2007年に完成したなんばパークス2期の専門店街のプロデュースも行い、ミナミの集客作戦に大規模な投資をしている。	たかしまやわまたにせんななねんにかんせいしたなんばぱーくすにきのせんもんてんがいのぷろでゅーすもおこない、みなみのしゅーきゃくさくせんにだいきぼなとーしをしている。	NO_LABEL
難波大社- 天王寺区生玉町 - 初代天皇である神武天皇が即位前に創建した神社。	NO_PRONOUNCE	NO_LABEL
