breakthroughは、日本のサウンドアーティストグループ、プロジェクト、サウンドプロデューサーグループ。	NO_PRONOUNCE	NO_LABEL
2000年2月に結成。	にせんねんにがつにけっせい。	NO_LABEL
その後も様々なアーティストのトラック等を提供している。	そのごもさまざまなあーてぃすとのとらっくとーをていきょーしている。	NO_LABEL
reguler event	NO_PRONOUNCE	NO_LABEL
every 1st friday @ the room shibuya	NO_PRONOUNCE	NO_LABEL
http://www.theroom.jp/	NO_PRONOUNCE	NO_LABEL
項目未更新	こーもくみこーしん	NO_LABEL
項目未更新	こーもくみこーしん	NO_LABEL
