アーッレ・メリカントはフィンランドの作曲家。	あーっれめりかんとわふぃんらんどのさっきょくか。	NO_LABEL
父親は作曲家で音楽教授のオスカル・メリカント。	ちちおやわさっきょくかでおんがくきょーじゅのおすかるめりかんと。	NO_LABEL
1911年にヘルシンキで学んだ後、1912年から1914年までライプツィヒ音楽院に留学してマックス・レーガー、1915年から1915年までモスクワ音楽院でセルゲイ・ワシレンコに師事。	せんきゅうひゃくじゅういちねんにへるしんきでまなんだのち、せんきゅうひゃくじゅうにねんからせんきゅうひゃくじゅうよねんまでらいぷつぃひおんがくいんにりゅーがくしてまっくすれーがー、せんきゅうひゃくじゅうごねんからせんきゅうひゃくじゅうごねんまでもすくわおんがくいんでせるげいわしれんこにしじ。	NO_LABEL
1917年にはペトログラードに滞在し、この時期にアレクサンドル・スクリャービンの音楽を知って決定的な影響を受けた。	せんきゅうひゃくじゅうしちねんにわぺとろぐらーどにたいざいし、このじきにあれくさんどるすくりゃーびんのおんがくをしってけっていてきなえいきょーをうけた。	NO_LABEL
1919年にフィンランドで結婚。	せんきゅうひゃくじゅうきゅうねんにふぃんらんどでけっこん。	NO_LABEL
初期の交響詩《レンミンカイネン》"Lemminkäinen" や《交響曲 第1番 ロ短調》は、ジャン・シベリウスの影響のもとに国民楽派の作曲様式にしたがっているが、フィンランド独立後の1920年代にかけてモダニズムの方向を模索した。	NO_PRONOUNCE	NO_LABEL
交響詩《パン》では明らかにスクリャービンの《法悦の詩》や《プロメテ―焔の詩》に影響された楽想を随所に聞き取ることができる。	NO_PRONOUNCE	NO_LABEL
《クラリネットとホルン、弦楽六重奏のための協奏曲》はヨーロッパ大陸にその名を知らしめた作品で、響きは聴感的にパウル・ヒンデミットの作品に近い。	NO_PRONOUNCE	NO_LABEL
1920年代のメリカントは、同じくスクリャービンに心酔した、エルネスト・ペーングーやヴァイノ・ライティオの2人と並んでフィンランドの前衛音楽の推進者として悪名を馳せ、「恐るべき子供たち」たちとして、言うなれば「父なるシベリウスへの反逆児」として、はっきり言えば無視された。	NO_PRONOUNCE	NO_LABEL
このため彼らは、フィンランド楽壇で孤立し続けた。	このためかれらわ、ふぃんらんどがくだんでこりつしつずけた。	NO_LABEL
たとえばメリカントは、急進的な作風に傾く前に歌劇《ユハ》"Juha" を1920年に完成させていたものの、この作品が歌劇場に受理されたことはなかった。	NO_PRONOUNCE	NO_LABEL
このような状況が耐えられなかった彼らのうち、ライティオとメリカントは穏健な作風への回帰を余儀なくされ、転向のできなかったペーングーは自殺した。	このよーなじょーきょーがたえられなかったかれらのうち、らいてぃおとめりかんとわおんけんなさくふーえのかいきをよぎなくされ、てんこーのできなかったぺーんぐーわじさつした。	NO_LABEL
《ユハ》は現在フィンランド国内で、20世紀前半における最も重要なフィンランドの舞台音楽の一つとされている。	NO_PRONOUNCE	NO_LABEL
メリカントはすでに1930年代には後期ロマン派の様式に戻っているが、しかしかつてのような国民楽派の様式に戻ったわけではない。	めりかんとわすでにせんきゅうひゃくさんじゅうねんだいにわこーきろまんはのよーしきにもどっているが、しかしかつてのよーなこくみんがくはのよーしきにもどったわけでわない。	NO_LABEL
この時期に作曲された《4つの管弦楽曲》や《宗教的アンダンテ》は、分かりやすく印象深い旋律が使われているが、和声的にはいわゆる「中期スクリャービン」やモーリス・ラヴェルを思わせるところがある。	NO_PRONOUNCE	NO_LABEL
《ピアノ協奏曲 第2番》や《チェロ協奏曲 第2番 ニ短調》はより全音階的だが、独奏楽器の扱いやオーケストレーション、和声的感覚や旋律の歌わせ方がセルゲイ・プロコフィエフを連想させる。	NO_PRONOUNCE	NO_LABEL
《ピアノ協奏曲 第3番》はいくぶんバルトーク・ベーラに近い。	NO_PRONOUNCE	NO_LABEL
