料理研究家とは、一般に料理について研究し、人々に伝達する専門家である。	りょーりけんきゅーかとわ、いっぱんにりょーりについてけんきゅーし、ひとびとにでんたつするせんもんかである。	NO_LABEL
伝達は料理教室、料理本の執筆、あるいは料理番組などマスメディア出演を通じて料理を指導することで行われる。	でんたつわりょーりきょーしつ、りょーりぼんのしっぴつ、あるいわりょーりばんぐみなどますめでぃあしゅつえんをつーじてりょーりをしどーすることでおこなわれる。	NO_LABEL
一般大衆を対象とする場合と調理師などプロを対象とする場合とがある。	いっぱんたいしゅーをたいしょーとするばあいとちょーりしなどぷろをたいしょーとするばあいとがある。	NO_LABEL
また、料理の歴史、文化的側面や科学的側面を考究する者のように、自ら職業として料理する機会のない者を指すこともある。	また、りょーりのれきし、ぶんかてきそくめんやかがくてきそくめんをこーきゅーするもののよーに、みずからしょくぎょーとしてりょーりするきかいのないものをさすこともある。	NO_LABEL
は日本料理、洋食、中華料理の各分野について専門化がなされていたが、ではスピード料理やダイエット料理など、より実践的な視点での専門化も進んでいる。	わにほんりょーり、よーしょく、ちゅーかりょーりのかくぶんやについてせんもんかがなされていたが、ではすぴーどりょーりやだいえっとりょーりなど、よりじっせんてきなしてんでのせんもんかもすすんでいる。	NO_LABEL
食材や調理に関する専門知識、調理技術、デザイン感覚などに加えて、著述、対人折衝などの能力も要求される。	しょくざいやちょーりにかんするせんもんちしき、ちょーりぎじゅつ、でざいんかんかくなどにくわえて、ちょじゅつ、たいじんせっしょーなどののーりょくもよーきゅーされる。	NO_LABEL
プロの料理人が経験を重ねることにより料理研究家となることが多かったが、では料理教室の経営、調理師養成施設の教員、料理研究家の助手、書籍の編集者など出身分野はさまざまである。	ぷろのりょーりにんがけいけんをかさねることによりりょーりけんきゅーかとなることがおーかったが、ではりょーりきょーしつのけいえい、ちょーりしよーせいしせつのきょーいん、りょーりけんきゅーかのじょしゅ、しょせきのへんしゅーしゃなどしゅっしんぶんやわさまざまである。	NO_LABEL
「☆」印は実際に料理を作る料理人ではなく、評論などを通じて料理を研究する者。	NO_PRONOUNCE	NO_LABEL
