平塚 運一は、島根県八束郡津田村出身の版画家。	ひらつかうんいちわ、しまねけんやつかぐんつだむらしゅっしんのはんがか。	NO_LABEL
勲三等瑞宝章受章、松江市名誉市民。	くんさんとーずいほーしょーじゅしょー、まつえしめいよしみん。	NO_LABEL
1895年11月17日、島根県八束郡津田村に生まれた。	せんはっぴゃくきゅうじゅうごねんじゅーいちがつじゅうしちにち、しまねけんやつかぐんつだむらにうまれた。	NO_LABEL
島根県立松江商業学校に入学したが、1913年に中途退学し、松江市役所に勤務。	しまねけんりつまつえしょーぎょーがっこーににゅーがくしたが、せんきゅうひゃくじゅうさんねんにちゅーとたいがくし、まつえしやくしょにきんむ。	NO_LABEL
石井柏亭の洋画講習会がきっかけとなり、1915年に上京してデッサンに励み、さらに版画技術を会得。	いしーはくていのよーがこーしゅーかいがきっかけとなり、せんきゅうひゃくじゅうごねんにじょーきょーしてでっさんにはげみ、さらにはんがぎじゅつをえとく。	NO_LABEL
1916年には、二科展に版画作品が入選し、日本美術院展には油彩作品と水彩画作品が入選した。	せんきゅうひゃくじゅうろくねんにわ、にかてんにはんがさくひんがにゅーせんし、にほんびじゅついんてんにわゆさいさくひんとすいさいがさくひんがにゅーせんした。	NO_LABEL
1917年に帰郷して結婚し、公立小学校の図画教員となった。	せんきゅうひゃくじゅうしちねんにききょーしてけっこんし、こーりつしょーがっこーのずがきょーいんとなった。	NO_LABEL
1927年から棟方志功らを指導し、1928年には棟方や畦地梅太郎とともに雑誌『版』を創刊。	NO_PRONOUNCE	NO_LABEL
1930年には国画会の会員となった。	せんきゅうひゃくさんじゅうねんにわこくがかいのかいいんとなった。	NO_LABEL
1935年には東京美術学校の版画教室開設にともなって教壇に立ち、1941年からは日本女子高等学院や公立中学校でも教えた。	せんきゅうひゃくさんじゅうごねんにわとーきょーびじゅつがっこーのはんがきょーしつかいせつにともなってきょーだんにたち、せんきゅうひゃくよんじゅういちねからわにっぽんじょしこーとーがくいんやこーりつちゅーがっこーでもおしえた。	NO_LABEL
1946年には山根幹人らの協力を得て松江美術工芸研究所を開設した。	せんきゅうひゃくよんじゅうろくねにわやまねみきひとらのきょーりょくをえてまつえびじゅつこーげいけんきゅーじょをかいせつした。	NO_LABEL
1962年には渡米して、活動拠点をワシントンD.C.に移し、アメリカ各地で個展を開くとともに版画の普及に努めた。	せんきゅうひゃくろくじゅうにねんにわとべいして、かうどうきょてんをわしんとんでぃーしーにうつし、あめりかかくちでこてんをひらくとともにはんがのふきゅーにつとめた。	NO_LABEL
日本国内においても地方での版画普及活動に熱心であり、棟方、畦地、菊地隆知、北岡文雄など日本を代表する版画家を育てた。	にほんこくないにおいてもちほーでのはんがふきゅーかつどーにねっしんであり、むなかた、あぜち、きくちりゅうち、きたおかふみおなどにっぽんをだいひょーするはんがかをそだてた。	NO_LABEL
1977年には勲三等瑞宝章を受け、1989年には松江市名誉市民に推挙された。	せんきゅうひゃくななじゅうななねんにわくんさんとーずいほーしょーをうけ、せんきゅうひゃくはちじゅうきゅうねんにわまつえしめいよしみんにすいきょされた。	NO_LABEL
長野県内の版画普及に携わった功績を称えられ、1991年には須坂市に須坂版画美術館・平塚運一版画美術館が開館した。	NO_PRONOUNCE	NO_LABEL
1997年11月18日、102歳で逝去した。	せんきゅうひゃくきゅうじゅうななじゅーいちがつじゅうはちにち、ひゃくにさいでせいきょした。	NO_LABEL
