サルデーニャ（）は、イタリア半島西方、コルシカ島の南の地中海に位置するイタリア領の島。	さるでーにゃかっこわ、いたりあはんとーせいほー、こるしかとーのみなみのちちゅーかいにいちするいたりありょーのしま。	NO_LABEL
地中海ではシチリア島に次いで2番目に大きな島である。	ちちゅーかいでわしちりあとーについでにばんめにおーきなしまである。	NO_LABEL
周辺の島を含めて、サルデーニャ自治州を構成している。	しゅーへんのしまをふくめて、さるでーにゃじちしゅーをこーせいしている。	NO_LABEL
この州は、イタリアに5つある特別自治州のひとつである。	このしゅーわ、いたりあにいつつあるとくべつじちしゅーのひとつである。	NO_LABEL
州都はカリャリ。	しゅーとわかりゃり。	NO_LABEL
サルデーニャは、サルデーニャ語ではSardigna, Sardinna, Sardinnia 、イタリア語ではSardegna、カタルーニャ語ではSardenyaと綴る。	NO_PRONOUNCE	NO_LABEL
この違いの影響もあり、日本語ではイタリア語からのサルデーニャの他、ラテン語や英語のSardiniaに由来するサルディニア、サルジニア、サルヂニア、サルデニアなどの表記がある。	NO_PRONOUNCE	NO_LABEL
古代にこの島はフェニキア人によりイクヌーザと呼ばれており、現在は州都カリャリで製造される、サルデーニャで一番ポピュラーなビールにその名を残している。	こだいにこのしまわふぇにきあじんによりいくぬーざとよばれており、げんざいわしゅーとかりゃりでせいぞーされる、さるでーにゃでいちばんぽぴゅらーなびーるにそのなをのこしている。	NO_LABEL
また、イタリア半島を足だとすると、その足跡にあたるような島の形から、古代ギリシャ人はサンダリオンと呼んでいた。	また、いたりあはんとーをあしだとすると、そのあしあとにあたるよーなしまのかたちから、こだいぎりしゃじんわさんだりおんとよんでいた。	NO_LABEL
鰯の英語名サーディンはこの島から来ている。	いわしのえいごめいさーでぃんわこのしまからきている。	NO_LABEL
サルデーニャ島は西地中海の中央に位置している。	さるでーにゃとーわにしちちゅーかいのちゅーおーにいちしている。	NO_LABEL
島の面積は24,090km、人口165万人。	NO_PRONOUNCE	NO_LABEL
東のイタリア半島との間の海はティレニア海と呼ばれる。	ひがしのいたりあはんとーとのまのうみわてぃれにあかいとよばれる。	NO_LABEL
北側にはボニファシオ海峡を挟んでフランス領コルシカ島を望む。	きたがわにわぼにふぁしおかいきょーをはさんでふらんすりょーこるしかとーをのぞむ。	NO_LABEL
西側の海はサルデーニャ海と呼ばれており、真西にスペイン領バレアレス諸島がある。	にしがわのうみわさるでーにゃかいとよばれており、まにしにすぺいんりょーばれあれすしょとーがある。	NO_LABEL
南にチュニジア、南東にはシチリア島がある。	みなみにちゅにじあ、なんとーにわしちりあとーがある。	NO_LABEL
島全体がイタリア共和国のサルデーニャ自治州である。	しまぜんたいがいたりあきょーわこくのさるでーにゃじちしゅーである。	NO_LABEL
イタリア本土との歴史的・地理的・文化的な差異が大きいことから特別自治州という位置づけになっているが、海外領土ではなく、あくまでも本国の一部である。	NO_PRONOUNCE	NO_LABEL
州都のカリャリは島の南海岸に位置し、チュニジアの首都チュニスから北北西へ約283km、シチリア島のパレルモから西北西へ約388km、イタリアの首都ローマから南西へ約410km、バレアレス諸島のパルマ・デ・マヨルカから東へ約558kmの距離にある。	しゅーとのかりゃりわしまのみなみかいがんにいちし、ちゅにじあのしゅとちゅにすからほくほくせいえやくにひゃくはちじゅうさんきろめーとる、しちりあとーのぱれるもからせいほくせいえやくさんびゃくはちじゅうはちきろめーとる、いたりあのしゅとろーまからなんせいえやくよんひゃくじゅうきろめーとる、ばれあれすしょとーのぱるまでまよるかからひがしえやくごひゃくごじゅうはちきろめーとるのきょりにある。	NO_LABEL
オモデオ湖を始めとする54の貯水池がある。	NO_PRONOUNCE	NO_LABEL
人口3万人以上のコムーネは以下の通り。	じんこーさんまんにんいじょーのこむーねわいかのとーり。	NO_LABEL
人口は2011年1月1日現在。	じんこーわにせんじゅういちねんいちがつついたちげんざい。	NO_LABEL
州都カリャリ周辺のカリャリ都市圏には、島の人口の約25%にあたる約42万人が暮らす。	しゅーとかりゃりしゅーへんのかりゃりとしけんにわ、しまのじんこーのやくにじゅうごぱーせんとにあたるやくよんじゅうにまんにんがくらす。	NO_LABEL
他方、島の東部を中心として人口が稀薄であり、2011年現在の県別人口密度において、イタリアで最も低いオリアストラ県を筆頭として、ヌーオロ県、オルビア＝テンピオ県、オリスターノ県が人口密度の低さの上位に並んでいる。	NO_PRONOUNCE	NO_LABEL
サルデーニャは地中海性気候に属し、春と秋は暖かく、夏は暑く、冬は穏やかである。	さるでーにゃわちちゅーかいせいきこーにぞくし、はるとあきわあたたかく、なつわあつく、ふゆわおだやかである。	NO_LABEL
近年、旱魃が続いている。	きんねん、かんばつがつずいている。	NO_LABEL
新石器時代からローマ帝国の時代にかけて、ヌラーゲ人が上陸し、生活しはじめた。	しんせっきじだいからろーまていこくのじだいにかけて、ぬらーげじんがじょーりくし、せいかつしはじめた。	NO_LABEL
この謎に満ちた民族は、紀元前20世紀頃、東地中海からやって来たものと推測されている。	このなぞにみちたみんぞくわ、きげんぜんにじゅうせいきごろ、ひがしちちゅーかいからやってきたものとすいそくされている。	NO_LABEL
少しわかっていることは、エジプトの碑文に「海の民」という意味の名前で登場する人々を指しているということである。	NO_PRONOUNCE	NO_LABEL
その碑文の研究によると、彼らは、サルディスを出発し、ティレニア海にたどり着いた。	そのひぶんのけんきゅーによると、かれらわ、さるでぃすをしゅっぱつし、てぃれにあかいにたどりついた。	NO_LABEL
そこで、サルデーニャに行く者とエトルリアに行く者に分かれた、ということである。	そこで、さるでーにゃにいくものとえとるりあにいくものにわかれた、とゆうことである。	NO_LABEL
しかし、サルデーニャ人の起源に関する理論のほとんどは、遺伝学的な研究と民族の移動状況を重要視している。	しかし、さるでーにゃじんのきげんにかんするりろんのほとんどわ、いでんがくてきなけんきゅーとみんぞくのいどーじょーきょーをじゅーよーししている。	NO_LABEL
遺伝学的な研究によると、サルデーニャ人は周辺地域の人々や若い民族とは異なり、前インド＝ヨーロッパ人だとしている。	NO_PRONOUNCE	NO_LABEL
新石器時代以降の遺跡の散らばりぐあい、点在範囲、その大きさを調べれば、島の大体の人口がわかり、また彼らがこの島のどこに上陸し、定着したかがわかる。	しんせっきじだいいこーのいせきのちらばりぐあい、てんざいはんい、そのおーきさをしらべれば、しまのだいたいのじんこーがわかり、またかれらがこのしまのどこにじょーりくし、ていちゃくしたかがわかる。	NO_LABEL
1979年、15万年前にさかのぼる人類の痕跡が発見された。	NO_PRONOUNCE	NO_LABEL
ガッルーラからサルデーニャ北部に居住した最初の人間は、おそらくイタリア半島のトスカーナから渡ってきたとみられている。	がっるーらからさるでーにゃほくぶにきょじゅーしたさいしょのにんげんわ、おそらくいたりあはんとーのとすかーなからわたってきたとみられている。	NO_LABEL
島の中央部にはバレアレス海を渡り、イベリア半島から来た人々が居住したとも考えられている。	しまのちゅーおーぶにわばれあれすうみをわたり、いべりあはんとーからきたひとびとがきょじゅーしたともかんがえられている。	NO_LABEL
先史時代の矢じりや、現在カリャリの考古学博物館に納められている地中海地方の母神像から、高いレベルで石の彫刻を作る能力を持っていたと推測される。	せんしじだいのやじりや、げんざいかりゃりのこーこがくはくぶつかんにおさめられているちちゅーかいちほーのははしんぞーから、たかいれべるでいしのちょーこくをつくるのーりょくをもっていたとすいそくされる。	NO_LABEL
石器時代には既に、モンテ・アルチは重要な役割を演じていた。	NO_PRONOUNCE	NO_LABEL
この休火山は、黒曜石採掘と刃物・矢じりへの加工の中心地のひとつであった。	NO_PRONOUNCE	NO_LABEL
現在でも山腹では火山ガラスを見つけることが出来る。	げんざいでもさんぷくでわかざんがらすをみつけることができる。	NO_LABEL
サッサリの考古学博物館には、紀元前2600年頃の青銅器時代の土器が展示されている。	NO_PRONOUNCE	NO_LABEL
先史時代のサルデーニャは、ヌラーゲと呼ばれる独特の石造りの構造物に特徴づけられている。	せんしじだいのさるでーにゃわ、ぬらーげとよばれるどくとくのいしずくりのこーぞーぶつにとくちょーずけられている。	NO_LABEL
サルデーニャには複雑な構造のものから単純なものまで、大小7000のヌラーゲが現存している。	NO_PRONOUNCE	NO_LABEL
最も有名なのはカリャリ県バルーミニのヌラーゲ遺跡、スー・ヌラージ・ディ・バルーミニである。	もっともゆーめいなのわかりゃりけんばるーみにのぬらーげいせき、すーぬらーじでぃばるーみにである。	NO_LABEL
このヌラーゲは紀元前1800年から250年頃にわたって造られ、紀元前1200年から900年頃に全盛期を迎えた。	このぬらーげわきげんぜんせんはっぴゃくねんからにひゃくごじゅうねんごろにわたってつくられ、きげんぜんせんにひゃくねんからきゅうひゃくねんごろにぜんせいきをむかえた。	NO_LABEL
聖なる水場の隣に建てられ、墓の構造はドルメンと呼ばれる。	せいなるみずばのとなりにたてられ、はかのこーぞーわどるめんとよばれる。	NO_LABEL
この時代サルデーニャ人は既に、西地中海で交易を行っていたミケーネ人と接触していたことがわかっている。	このじだいさるでーにゃじんわすでに、にしちちゅーかいでこーえきをおこなっていたみけーねじんとせっしょくしていたことがわかっている。	NO_LABEL
エジプトを侵略した海洋民族シャルダナとサルデーニャとのつながりは真偽が疑わしく、立証されていない。	えじぷとをしんりゃくしたかいよーみんぞくしゃるだなとさるでーにゃとのつながりわしんぎがうたがわしく、りっしょーされていない。	NO_LABEL
墓場には沈みかけの船をかたどった墓石があり、長い航海中に惨事があったことを示している。	はかばにわしずみかけのふねをかたどったはかいしがあり、ながいこーかいちゅーにさんじがあったことをしめしている。	NO_LABEL
古代ギリシャで初めて地中海を西に航海したエウボイア人は、サルデーニャをHyknousaと呼んだ。	NO_PRONOUNCE	NO_LABEL
のちにラテン化しIchnusaとなった。	NO_PRONOUNCE	NO_LABEL
ノーラ遺跡の石碑は、フェニキア人がこの島をShardenと呼んだ証拠となっており、これがSardiniaという名前の由来となっている。	NO_PRONOUNCE	NO_LABEL
紀元前8世紀から、Tharros、Bithia、Sulcis、Nora、Karalisと、フェニキア人が都市や砦をいくつもサルデーニャに築いた。	NO_PRONOUNCE	NO_LABEL
フェニキア人はレバノンの出身で、地中海で交易を行っていた。	ふぇにきあじんわればのんのしゅっしんで、ちちゅーかいでこーえきをおこなっていた。	NO_LABEL
彼らは島のあらゆるエリアに定住した。	かれらわしまのあらゆるえりあにていじゅーした。	NO_LABEL
サルデーニャはカルタゴ、スペイン、ローヌ川、エトルリアの間にあったため、西地中海の中心として特別な地位を獲得していた。	さるでーにゃわかるたご、すぺいん、ろーぬがわ、えとるりあのまにあったため、にしちちゅーかいのちゅーしんとしてとくべつなちいをかくとくしていた。	NO_LABEL
イグレージアス周辺の鉱物地帯は、鉛や亜鉛の産地として重要であった。	いぐれーじあすしゅーへんのこーぶつちたいわ、なまりやあえんのさんちとしてじゅーよーであった。	NO_LABEL
都市は防御しやすく天然の港になる、多くは河口に近い半島部や島のような、戦略上の重要な地点に造られた。	としわぼーぎょしやすくてんねんのみなとになる、おーくわかこーにちかいはんとーぶやしまのよーな、せんりゃくじょーのじゅーよーなちてんにつくられた。	NO_LABEL
フェニキア人ののちに、紀元前500年ごろカルタゴ人がサルデーニャ周辺の地中海の覇権を確立した。	ふぇにきあじんののちに、きげんぜんごひゃくねんごろかるたごじんがさるでーにゃしゅーへんのちちゅーかいのはけんをかくりつした。	NO_LABEL
カルタゴの影響はサルデーニャのほぼ全域に及んでいる。	かるたごのえいきょーわさるでーにゃのほぼぜんいきにおよんでいる。	NO_LABEL
紀元前238年、ローマ人が島を獲得した。	きげんぜんにひゃくさんじゅうはちねん、ろーまじんがしまをかくとくした。	NO_LABEL
ローマはカルタゴと第一次ポエニ戦争を戦ったが、戦後にカルタゴの傭兵が反乱を起こしたため、ローマはこの年サルデーニャに上陸し、占領する機会を得た。	ろーまわかるたごとだいいちじぽえにせんそーをたたかったが、せんごにかるたごのよーへいがはんらんをおこしたため、ろーまわこのとしさるでーにゃにじょーりくし、せんりょーするきかいをえた。	NO_LABEL
ローマ人がサルデーニャを獲得した時点で、既に社会基盤と都市化された文化があった。	ろーまじんがさるでーにゃをかくとくしたじてんで、すでにしゃかいきばんととしかされたぶんかがあった。	NO_LABEL
サルデーニャはシチリアとともに、エジプト征服までのあいだローマの穀倉地帯のひとつでありつづけた。	さるでーにゃわしちりあとともに、えじぷとせいふくまでのあいだろーまのこくそーちたいのひとつでありつずけた。	NO_LABEL
フェニキア・カルタゴ文化は、ローマ人の支配下にあっても紀元後数世紀まで根強く残った。	NO_PRONOUNCE	NO_LABEL
Tharros、Nora、Bithia、Antas、Monte Siraiらは、建築と都市計画の調査に非常に重要な考古学遺跡となっている。	NO_PRONOUNCE	NO_LABEL
ローマ帝国の滅亡後、サルデーニャは何度と征服の対象とされている。	ろーまていこくのめつぼーご、さるでーにゃわなんどとせいふくのたいしょーとされている。	NO_LABEL
東ローマ帝国による帝国の一部としての奪還に先立ち、456年北アフリカのヴァンダル人に占領された。	NO_PRONOUNCE	NO_LABEL
711年からは、サラセン人による沿岸部の都市への攻撃が始まった。	ななひゃくじゅういちねんからわ、さらせんじんによるえんがんぶのとしえのこーげきがはじまった。	NO_LABEL
これが原因となり、9世紀には1800年の歴史を持つターロスが放棄され、内陸のオリスターノが取って代わった。	これがげんいんとなり、きゅうせいきにわせんはっぴゃくねんのれきしをもつたーろすがほーきされ、ないりくのおりすたーのがとってかわった。	NO_LABEL
アラブ人に対抗するために、海洋共和国であったピサとジェノヴァによる支援が求められた。	NO_PRONOUNCE	NO_LABEL
1063年から、この地域の東ローマ帝国の政治行政組織を踏襲する形で、審判による統治を意味するジュディカーティという制度が形成された。	せんろくじゅうさんねんから、このちいきのひがしろーまていこくのせいじぎょーせいそしきをとーしゅーするかたちで、しんぱんによるとーちをいみするじゅでぃかーてぃとゆうせいどがけいせいされた。	NO_LABEL
中世後期において最も特筆すべき、今に至るまで島のヒロインと慕われる人物は、ジュディカーティであったアルボレア国の妃エレオノーラ・ダルボレアである。	NO_PRONOUNCE	NO_LABEL
彼女は法制の整備に尽力し、1395年に発効した先進的な民法典カルタ・デ・ログは1827年まで使われた。	NO_PRONOUNCE	NO_LABEL
同じ時代、アラゴン＝カタルーニャ王国の影響が大きくなり、これはアラゴンによるサルデーニャ占領まで続いた。	NO_PRONOUNCE	NO_LABEL
アラゴンの塔と呼ばれた見張り台が沿岸部全域にわたって作られ、アラブ人の侵入を防ぐことに役立った。	あらごんのとーとよばれたみはりだいがえんがんぶぜんいきにわたってつくられ、あらぶじんのしんにゅーをふせぐことにやくだった。	NO_LABEL
これらの見張り台のいくつかは、ちょうど戦略上の重要地点にあったフェニキア都市の石を使って作られた。	これらのみはりだいのいくつかわ、ちょーどせんりゃくじょーのじゅーよーちてんにあったふぇにきあとしのいしをつかってつくられた。	NO_LABEL
教会建築への再利用としての好例は、古い都市オトカの跡に建てられたサンタ・ジュスタ教会にみられる。	きょーかいけんちくえのさいりよーとしてのこーれいわ、ふるいとしおとかのあとにたてられたさんたじゅすたきょーかいにみられる。	NO_LABEL
当時のスペインの影響の強さは、今でもアルゲーロ周辺でカタルーニャ語の方言が使われていることからも伺える。	とーじのすぺいんのえいきょーのつよさわ、いまでもあるげーろしゅーへんでかたるーにゃごのほーげんがつかわれていることからもうかがえる。	NO_LABEL
スペイン継承戦争でサルデーニャはスペインからオーストリアに渡った。	すぺいんけいしょーせんそーでさるでーにゃわすぺいんからおーすとりあにわたった。	NO_LABEL
しかし、旧領回復を目指すスペインは1717年にサルデーニャに侵攻。	しかし、きゅーりょーかいふくをめざすすぺいんわせんななひゃくじゅうななねんにさるでーにゃにしんこー。	NO_LABEL
四国同盟戦争を経て、1720年にシチリア島との交換によりサヴォイア家が領有した。	NO_PRONOUNCE	NO_LABEL
以後、イタリア統一の1861年まで、サルデーニャはピエモンテとともにサルデーニャ王国を形成していた。	いご、いたりあとーいつのせんはっぴゃくろくじゅういちねんまで、さるでーにゃわぴえもんてとともにさるでーにゃおーこくをけいせいしていた。	NO_LABEL
フランス革命戦争中の1793年には、フランス共和国軍がサルデーニャ島に侵攻したが、サルデーニャ人によって撃退された。	ふらんすかくめいせんそーちゅーのせんななひゃくきゅうじゅうさんねんにわ、ふらんすきょーわこくぐんがさるでーにゃとーにしんこーしたが、さるでーにゃじんによってげきたいされた。	NO_LABEL
サルデーニャ島の社会基盤の開発は遅れていたが、19世紀初期にカルロ・フェリーチェによる統治のもと、南のカリャリから北のサッサリに至る島の大動脈が建設され、いまでも彼の名がこの道につけられている。	NO_PRONOUNCE	NO_LABEL
1861年にサルデーニャ王国がイタリア統一を果たして国名を「イタリア王国」と改めた。	NO_PRONOUNCE	NO_LABEL
1883年にはカリャリからサッサリまでの鉄道が開通した。	せんはっぴゃくはちじゅうさんねんにわかりゃりからさっさりまでのてつどーがかいつーした。	NO_LABEL
ムッソリーニ政権下では、オリスターノ周辺の沼沢地が干拓され、最も成功した農村コミュニティとなったアルボレアの基盤が作られた。	むっそりーにせいけんかでわ、おりすたーのしゅーへんのしょーたくちがかんたくされ、もっともせいこーしたのーそんこみゅにてぃとなったあるぼれあのきばんがつくられた。	NO_LABEL
またムッソリーニは鉱業の中心地としてカルボーニアを建設した。	またむっそりーにわこーぎょーのちゅーしんちとしてかるぼーにあをけんせつした。	NO_LABEL
第二次世界大戦後、石炭の重要性は低下し、観光業が盛んとなった。	だいにじせかいたいせんご、せきたんのじゅーよーせいわていかし、かんこーぎょーがさかんとなった。	NO_LABEL
雇用を創出するための様々な施策は、安価な労働力をもっても埋め合わせることの出来ない高い運送費のために、これまでのところうまくいってはいない。	こよーをそーしゅつするためのさまざまなしさくわ、あんかなろーどーりょくをもってもうめあわせることのできないたかいうんそーひのために、これまでのところうまくいってわいない。	NO_LABEL
今日、サルデーニャは自治州であり、その歴史は言語と文化の中にいまだ息づいている。	きょー、さるでーにゃわじちしゅーであり、そのれきしわげんごとぶんかのなかにいまだいきずいている。	NO_LABEL
また注目すべきは沿岸部と内陸部の差異である。	またちゅーもくすべきわえんがんぶとないりくぶのさいである。	NO_LABEL
沿岸部は常に外部からの影響に対してよりオープンであった。	えんがんぶわつねにがいぶからのえいきょーにたいしてよりおーぷんであった。	NO_LABEL
今日サルデーニャは、船や飛行機の便がよい北部の海岸や島々と南部カリャリ周辺の海岸によって、最もよく知られている。	きょーさるでーにゃわ、ふねやひこーきのびんがよいほくぶのかいがんやしまじまとなんぶかりゃりしゅーへんのかいがんによって、もっともよくしられている。	NO_LABEL
サルデーニャ州は8つの県からなる。	さるでーにゃしゅーわやっつのけんからなる。	NO_LABEL
20世紀末にはカリャリ県、サッサリ県、ヌーオロ県、オリスターノ県の4県があったが、2005年に県の分割が行われ、オルビア＝テンピオ県、オリアストラ県、カルボーニア＝イグレージアス県、メディオ・カンピダーノ県が設立された。	NO_PRONOUNCE	NO_LABEL
左端の数字はISTATコード、アルファベット2文字は県名略記号を示す。	NO_PRONOUNCE	NO_LABEL
人口は2011年1月1日現在。	じんこーわにせんじゅういちねんいちがつついたちげんざい。	NO_LABEL
面積の単位はkm²。	NO_PRONOUNCE	NO_LABEL
サルデーニャ自治州では、2016年9月現在、県級行政区画の統廃合のプロセスが進められている。	さるでーにゃじちしゅーでわ、にせんじゅうろくねんくがつげんざい、けんきゅーぎょーせいくかくのとーはいごーのぷろせすがすすめられている。	NO_LABEL
2016年2月に新たな行政区画の設置が行われたが、地方自治上は過渡期である。	にせんじゅうろくねんにがつにあらたなぎょーせいくかくのせっちがおこなわれたが、ちほーじちじょーわかときである。	NO_LABEL
新制度では、サルデーニャ州の県級行政区画は5となる。	NO_PRONOUNCE	NO_LABEL
結果として2005年に新設された県がすべて消滅した。	けっかとしてにせんごねんにしんせつされたけんがすべてしょーめつした。	NO_LABEL
また、カリャリ県はカリャリ市周辺が大都市（）として再編され、その他は新設の南サルデーニャ県の一部となった。	また、かりゃりけんわかりゃりししゅーへんがだいとしかっことしてさいへんされ、そのたわしんせつのみなみさるでーにゃけんのいちぶとなった。	NO_LABEL
イタリアの一部であるサルデーニャの現在の通貨はユーロである。	いたりあのいちぶであるさるでーにゃのげんざいのつーかわゆーろである。	NO_LABEL
鉱業では、かつてファシズム時代にカルボーニアが炭坑都市として開発され栄えたほか、今日でも金と銀の鉱山が島内で操業している。	こーぎょーでわ、かつてふぁしずむじだいにかるぼーにあがたんこーとしとしてかいはつされさかえたほか、きょーでもきんとぎんのこーざんがとーないでそーぎょーしている。	NO_LABEL
現在はコスタ・ズメラルダに代表される観光業、工業、商業、サービス業、IT産業がサルデーニャの中心的な産業となっている。	NO_PRONOUNCE	NO_LABEL
ヨーロッパのインターネットプロバイダーとしてトップ企業となっているティスカリは、1998年に前州知事のレナート・ソルがカリャリで設立した。	NO_PRONOUNCE	NO_LABEL
またワインとローカル料理が有名になり、島の収入源として成長している。	またわいんとろーかるりょーりがゆーめいになり、しまのしゅーにゅーげんとしてせいちょーしている。	NO_LABEL
サルデーニャ州は、州法で住民に "popolo"という用語を用いている2つの州のうちのひとつである。	NO_PRONOUNCE	NO_LABEL
もうひとつの州であるヴェネト州における規定は国法に根拠をもつものではないが、特別自治州であるサルデーニャ州の規定は国法に根拠を持つ。	NO_PRONOUNCE	NO_LABEL
なお、いずれのケースにおいても、ほかのイタリア国民との間に権利の差異をもたらす法的な意味は持たないとされる。	なお、いずれのけーすにおいても、ほかのいたりあこくみんとのまにけんりのさいをもたらすほーてきないみわもたないとされる。	NO_LABEL
2006年の国立統計研究所の統計によれば、6歳以上の住民の家庭内での会話における言語状況は以下の通り。	にせんろくねんのこくりつとーけいけんきゅーじょのとーけいによれば、ろっさいいじょーのじゅーみんのかていないでのかいわにおけるげんごじょーきょーわいかのとーり。	NO_LABEL
イタリア語、他の言語（）についてのデータで、左列が全国平均、右列がサルデーニャ州の数値である。	いたりあご、たのげんごかっこについてのでーたで、ひだりれつがぜんこくへいきん、みぎれつがさるでーにゃしゅーのすーちである。	NO_LABEL
イタリア全土で公用語とされているのはイタリア語であるが、サルデーニャではサルデーニャ語が広く使われている。	いたりあぜんどでこーよーごとされているのわいたりあごであるが、さるでーにゃでわさるでーにゃごがひろくつかわれている。	NO_LABEL
サルデーニャ語はイタリア語の方言ではなく、ラテン語を起源とするロマンス語に属する言語である。	さるでーにゃごわいたりあごのほーげんでわなく、らてんごをきげんとするろまんすごにぞくするげんごである。	NO_LABEL
この言葉はカタルーニャ語やスペイン語の影響を受けており、土着のヌラーゲ文化を経由してフェニキア語からの影響も受けているとも考えられている。	このことばわかたるーにゃごやすぺいんごのえいきょーをうけており、どちゃくのぬらーげぶんかをけいゆしてふぇにきあごからのえいきょーもうけているともかんがえられている。	NO_LABEL
公的文書での使用はイタリア語によって行われているが、2006年に州政府は公文書に用いるためのサルデーニャ語の規範を制定している。	こーてきぶんしょでのしよーわいたりあごによっておこなわれているが、にせんろくねんにしゅーせいふわこーぶんしょにもちいるためのさるでーにゃごのきはんをせいていしている。	NO_LABEL
書記言語としてのサルデーニャ語の規範化問題は重要性を増しているが、正書法が確立されていないことから激しい議論やさまざまな提案が続いている。	しょきげんごとしてのさるでーにゃごのきはんかもんだいわじゅーよーせいをましているが、せいしょほーがかくりつされていないことからはげしいぎろんやさまざまなていあんがつずいている。	NO_LABEL
サルデーニャ語の方言は、大きく分けて2つある。	さるでーにゃごのほーげんわ、おーきくわけてふたつある。	NO_LABEL
州都カリャリを含む島の南半分で用いられているカンピダーノ方言、島の中北部を中心に用いられているログドーロ方言である。	しゅーとかりゃりをふくむしまのみなみはんぶんでもちいられているかんぴだーのほーげん、しまのなかほくぶをちゅーしんにもちいられているろぐどーろほーげんである。	NO_LABEL
島の最北部のサッサリ付近で使われているサッサリ方言や、ガッルーラ地方で用いられているガッルーラ方言は、コルシカ語の影響が大きく、コルシカ＝サルディニア方言／語と呼ばれる。	NO_PRONOUNCE	NO_LABEL
これら最北部の言語は、サルデーニャ語の一部ではなく独立した言語とみなされたり、あるいはコルシカ語の方言とみなされることもある。	これらさいほくぶのげんごわ、さるでーにゃごのいちぶでわなくどくりつしたげんごとみなされたり、あるいわこるしかごのほーげんとみなされることもある。	NO_LABEL
サルデーニャにはまたいくつかの言語島もみられる。	さるでーにゃにわまたいくつかのげんごとーもみられる。	NO_LABEL
北西部のアルゲーロ近辺では、アラゴン＝カタルーニャ王国の支配を経験した歴史的背景から、中世期の要素を受け継ぐカタルーニャ語の変種であるアルゲーロ方言が使用されている。	NO_PRONOUNCE	NO_LABEL
サルデーニャの南西沖にあるサンピエトロ島やサンタンティーオコ島では、ジェノヴァ地域からの移民が暮した経緯からリグリア語の変種であるタバルカ方言が使われている。	NO_PRONOUNCE	NO_LABEL
さらに少数の言語としてはアルボレーアやフェルティリアにおいて、1920年代から1930年代に北東イタリアから移住してきた人々によって、ヴェネト語、フリウリ語、イストリア語が話されている。	NO_PRONOUNCE	NO_LABEL
サルデーニャ料理は、イタリア料理のほか、アラブや北アフリカなどの料理の影響を受けて発展した。	さるでーにゃりょーりわ、いたりありょーりのほか、あらぶやきたあふりかなどのりょーりのえいきょーをうけてはってんした。	NO_LABEL
豊富な海産物や、島において牧畜される羊の肉などが主要な食材として用いられる。	ほーふなかいさんぶつや、しまにおいてぼくちくされるひつじのにくなどがしゅよーなしょくざいとしてもちいられる。	NO_LABEL
2010年にユネスコの無形文化遺産に指定された「地中海の食文化」の一部を構成する。	NO_PRONOUNCE	NO_LABEL
サルデーニャ料理の主役のひとつは、エビやマグロ、イワシ、貝などといったさまざまな海産物である。	さるでーにゃりょーりのしゅやくのひとつわ、えびやまぐろ、いわし、かいなどといったさまざまなかいさんぶつである。	NO_LABEL
日本のカラスミに相当する魚の卵巣の加工品「ボッタルガ」が、カリャリやトルトリ、サンタンティオコなど島内各地で生産されている。	NO_PRONOUNCE	NO_LABEL
日本のカラスミはボラの卵巣を加工したものであるが、ボッタルガにはボラに限らず、タラやマグロなど他の魚も使用される。	にっぽんのからすみわぼらのらんそーをかこーしたものであるが、ぼったるがにわぼらにかぎらず、たらやまぐろなどたのさかなもしよーされる。	NO_LABEL
サルデーニャの特徴的なパスタとして、クスクスに似た粒状のパスタである「フレグラ」や、ニョッキ状の「マロレッドゥス」などがある。	NO_PRONOUNCE	NO_LABEL
パスタは、魚介類とともにトマトベースのソースで煮られることが多い。	ぱすたわ、ぎょかいるいとともにとまとべーすのそーすでにられることがおーい。	NO_LABEL
堅く焼いた薄いパン「パーネ・カラザウ」は長期保存が可能な食材でもある。	NO_PRONOUNCE	NO_LABEL
これを用いた代表的な料理として、パーネ・カラザウとトマトソース、ペコリーノとをラザニア状に重ねた「パーネ・フラッタウ」がある。	NO_PRONOUNCE	NO_LABEL
サルデーニャはイタリアワインの生産が盛んな地域であり、多くのワインが原産地統制呼称の指定を受けている。	さるでーにゃわいたりあわいんのせいさんがさかんなちいきであり、おーくのわいんがげんさんちとーせいこしょーのしていをうけている。	NO_LABEL
サルデーニャ全域を名称保護地域とするものには以下がある。	さるでーにゃぜんいきをめいしょーほごちーきとするものにわいかがある。	NO_LABEL
北東部のガッルーラ地方、北西部のアルゲーロ周辺、中西部のオリスターノ周辺、南西部のスルチス地方が主要生産地であり、より限定された地域を指定したDOCワインも多い。	きたとうべのがっるーらちほー、ほくせいぶのあるげーろしゅーへん、ちゅーせいぶのおりすたーのしゅーへん、なんせいぶのするちすちほーがしゅよーせいさんちであり、よりげんていされたちいきをしていしたでぃーおーしーわいんもおーい。	NO_LABEL
ガッルーラ地方で生産されるヴェルメンティーノ・ディ・ガッルーラは、統制呼称の最上級にあたる保証つき統制原産地呼称に指定されている。	NO_PRONOUNCE	NO_LABEL
原産地名称保護の指定を受けたチーズとして以下がある。	げんさんちめいしょーほごのしていをうけたちーずとしていかがある。	NO_LABEL
サルデーニャ島では牧羊が盛んなことから、羊乳を用いたペコリーノが多く生産される、「ペコリーノ・ロマーノ」にはラツィオ州・トスカーナ州とともにサルデーニャ州も生産地域としての指定を受けている。	NO_PRONOUNCE	NO_LABEL
「ペコリーノ・サルド」はサルデーニャ産のペコリーノにのみ認められた名称である。	NO_PRONOUNCE	NO_LABEL
このほか、サルデーニャではカチョカヴァッロなども生産される。	NO_PRONOUNCE	NO_LABEL
サルデーニャ島のユニークなチーズとして、チーズバエの幼虫の働きでペコリーノの発酵をすすめたカース・マルツゥがある。	さるでーにゃとーのゆにーくなちーずとして、ちーずばえのよーちゅーのはたらきでぺこりーののはっこーをすすめたかーすまるつぅがある。	NO_LABEL
サルデーニャ島には世界遺産がひとつある。	さるでーにゃとーにわせかいいさんがひとつある。	NO_LABEL
メディオ・カンピダーノ県バルーミニにあるスー・ヌラージで、この遺跡は先史時代の石造建築であるヌラーゲを代表するものとして評価された。	NO_PRONOUNCE	NO_LABEL
フェニキア・ローマ時代の都市遺跡としては、オリスターノ近郊のターロス、カリアリ南郊プーラにあるノーラなどがある。	NO_PRONOUNCE	NO_LABEL
これらの文化遺産は、観光資源ともなっている。	これらのぶんかいさんわ、かんこーしげんともなっている。	NO_LABEL
この島には、リゾート地コスタ・ズメラルダやジェンナルジェントゥ山地など、多くの観光地がある。	NO_PRONOUNCE	NO_LABEL
有名なビーチの美しさだけでなく、多くの文化遺産は観光資源ともなっている。	ゆーめいなびーちのうつくしさだけでなく、おーくのぶんかいさんわかんこーしげんともなっている。	NO_LABEL
州内に本拠を置くプロサッカークラブとしては以下がある。	しゅーないにほんきょをおくぷろさっかーくらぶとしてわいかがある。	NO_LABEL
所属リーグは2012-13シーズン現在。	NO_PRONOUNCE	NO_LABEL
5部リーグのセリエDでは、ラツィオ州、カンパニア州のクラブとともにジローネGに属する。	ごぶりーぐのせりえでぃでわ、らつぃおしゅー、かんぱにあしゅーのくらぶとともにじろーねぎがにぞくする。	NO_LABEL
サルデーニャ州の地方リーグとして、エッチェッレンツァ・サルデーニャがある。	NO_PRONOUNCE	NO_LABEL
サルデーニャには3つの国際空港、2つの地方空港がある。	さるでーにゃにわみっつのこくさいくうこー、ふたつのちほーくーこーがある。	NO_LABEL
3つの国際空港は、イタリア本土の主要都市やその他のヨーロッパの諸都市との間を結んでいる。	みっつのこくさいくうこーわ、いたりあほんどのしゅよーとしやそのたのよーろっぱのしょとしとのまをむすんでいる。	NO_LABEL
サルデーニャ島内の航空便は、カリャリ - オルビア便、トルトリ - オルビア便が出ている程度に限られる。	NO_PRONOUNCE	NO_LABEL
この島ではいくつかの格安航空会社が運営されており、島の住民は格安チケットの恩恵を受けている。	このしまでわいくつかのかくやすこーくーがいしゃがうんえいされており、しまのじゅーみんわかくやすちけっとのおんけいをうけている。	NO_LABEL
オルビア空港に本拠を置くメリディアーナ・フライもその代表的なものである。	NO_PRONOUNCE	NO_LABEL
サルデーニャにはフェリーが発着する主要な港湾として以下がある。	さるでーにゃにわふぇりーがはっちゃくするしゅよーなこーわんとしていかがある。	NO_LABEL
これらの港湾に発着するフェリーは、イタリア本土、シチリア島、フランス本土、コルシカ島、スペインなどの諸港湾との間を結んでいる。	これらのこーわんにはっちゃくするふぇりーわ、いたりあほんど、しちりあとー、ふらんすほんど、こるしかとー、すぺいんなどのしょこーわんとのまをむすんでいる。	NO_LABEL
地元の船会社としてはサレマール社があり、サルデーニャ本島と離島とを結んでいる。	じもとのふねかいしゃとしてわされまーるしゃがあり、さるでーにゃほんとーとりとーとをむすんでいる。	NO_LABEL
サルデーニャ州はイタリアで高速道路が走っていない唯一の州である。	さるでーにゃしゅーわいたりあでこーそくどーろがはしっていないゆいいつのしゅーである。	NO_LABEL
しかしながら道路網は発達しており、スーペルストラーダとよばれる高規格道路が主要都市や交通拠点を結んでいる。	しかしながらどーろもーわはったつしており、すーぺるすとらーだとよばれるこーきかくどーろがしゅよーとしやこーつーきょてんをむすんでいる。	NO_LABEL
島の幹線となる道路は、島の最南部にある州都カリャリと、北西部にある第二の都市サッサリを結び、島の西部を南北に縦貫する国道131号「カルロ・フェリーチェ」であり、欧州自動車道路E25号線の一部にも指定されている。	NO_PRONOUNCE	NO_LABEL
国道131号ヌーオロ中央支線は、オリスターノで本線と分かれ、ヌーオロ県を横断して東海岸のオルビアとを結ぶ。	こくどーひゃくさんじゅういちごーぬーおろちゅーおーしせんわ、おりすたーのでほんせんとわかれ、ぬーおろけんをおーだんしてひがしかいがんのおるびあとをむすぶ。	NO_LABEL
このほか高規格の道路が、サッサリ - アルゲーロ間、サッサリ - テンピオ・パウザーニア間、サッサリ - オルビア間、カリャリ - トルトリ間、カリャリ - イグレージアス間、ヌーオロ - ラヌゼーイ間を結んでいる。	NO_PRONOUNCE	NO_LABEL
これら幹線道路では、交差点をなくして高速道路水準とするための事業が進められている。	これらかんせんどーろでわ、こーさてんをなくしてこーそくどーろすいじゅんとするためのじぎょーがすすめられている。	NO_LABEL
一方、内陸部や山間部の二線級道路は一般に狭隘でつづら折れが多く、最高速度も低く抑えられている。	いっぽー、ないりくぶやさんかんぶのにせんきゅーどーろわいっぱんにきょーあいでつずらおれがおーく、さいこーそくどもひくくおさえられている。	NO_LABEL
地元の公共バスは、公共交通事業体 Azienda Regionale Sarda Trasporti によって運営されている。	NO_PRONOUNCE	NO_LABEL
公共バスは、島内のすべての都市や村落を、少なくとも1日1本以上の本数で結んでいる。	こーきょーばすわ、とーないのすべてのとしやそんらくを、すくなくともついたちいっぽんいじょーのほんすーでむすんでいる。	NO_LABEL
しかしながら人口密度の低い地域の一部には公共バスが走っておらず、自動車が必要となる。	しかしながらじんこーみつどのていーちいきのいちぶにわこーきょーばすがはしっておらず、じどーしゃがひつよーとなる。	NO_LABEL
サルデーニャの鉄道システムは19世紀にイギリス人技術者ベンジャミン・パーシーの手によって発展を遂げた。	NO_PRONOUNCE	NO_LABEL
鉄道は全島を結んでいるが、異なる二つの事業者が存在する。	てつどーわぜんとーをむすんでいるが、ことなるふたつのじぎょーしゃがそんざいする。	NO_LABEL
すなわち、旧イタリア国鉄であるトレニタリアと、狭軌のサルデーニャ鉄道である。	すなわち、きゅーいたりあこくてつであるとれにたりあと、きょーきのさるでーにゃてつどーである。	NO_LABEL
トレニタリアの経営規模は大きく、島の主要都市や主要港を鉄道で結び、イタリア本土との間に鉄道連絡船も運営している。	とれにたりあのけいえいきぼわおーきく、しまのしゅよーとしやしゅよーこーをてつどーでむすび、いたりあほんどとのまにてつどーれんらくせんもうんえいしている。	NO_LABEL
島の西部で南北を縦貫する鉄道路線が島の幹線で、南部のカリャリと北部のサッサリおよびオルビアとを結ぶ。	しまのせいぶでなんぼくをじゅーかんするてつどーろせんがしまのかんせんで、なんぶのかりゃりとほくぶのさっさりおよびおるびあとをむすぶ。	NO_LABEL
このほか、カリャリからはカルボーニアおよびイグレージアスを結ぶ路線も出ている。	このほか、かりゃりからわかるぼーにあおよびいぐれーじあすをむすぶろせんもでている。	NO_LABEL
トレニタリアの車両は、アルストム社の"Minuetto"のような気動車が主力であるが、高速の振り子式車両も導入される。	NO_PRONOUNCE	NO_LABEL
一般にサルデーニャ鉄道の名で知られる狭軌鉄道は、ARSTの一部門であり、"ARST Gestione FdS"が正式名称である。	NO_PRONOUNCE	NO_LABEL
島の北部にサッサリとアルゲーロやポルト・トッレスなどを結ぶ路線、中部にマコメールとヌーオロを結ぶ路線、南部にカリャリとイジーリとを結ぶ路線があるが、カリャリやサッサリ近郊の電化されたトラムトレイン区間を除き、速度は遅い。	しまのほくぶにさっさりとあるげーろやぽるととっれすなどをむすぶろせん、ちゅーぶにまこめーるとぬーおろをむすぶろせん、なんぶにかりゃりといじーりとをむすぶろせんがあるが、かりゃりやさっさりきんこーのでんかされたとらむとれいんくかんをのぞき、そくどわおそい。	NO_LABEL
これら通年運行の路線以外にも、トレニーノ・ヴェルデという季節運行の観光路線があり、島内の最も自然豊かなエリアを走っている。	NO_PRONOUNCE	NO_LABEL
速度が遅い分、道路からは見えないような素晴らしい車窓を楽しむことができる。	そくどがおそいぶん、どーろからわみえないよーなすばらしいしゃそーをたのしむことができる。	NO_LABEL
南部ではカリャリ - アルバタックス、西部でマコメール - ボサ・マリーナ、北部ではサッサリ - パラウ間で運行されている。	NO_PRONOUNCE	NO_LABEL
FdSの路線はすべて狭軌であり、FSとFdSが共用するサッサリ駅構内には三線軌条区間が存在する。	NO_PRONOUNCE	NO_LABEL
サルデーニャは豊かな自然資源に恵まれており、チチュウカイモンクアザラシやイノシシをはじめ、多くの希少種の動植物が生息している。	さるでーにゃわゆたかなしぜんしげんにめぐまれており、ちちゅうかいもんくあざらしやいのししをはじめ、おーくのきしょーしゅのどーしょくぶつがせいそくしている。	NO_LABEL
一方、大陸部のどこにでもいるクサリヘビやマーモット等、多くの種が存在しないという特徴がある。	いっぽー、たいりくぶのどこにでもいるくさりへびやまーもっととー、おーくのたねがそんざいしないとゆうとくちょーがある。	NO_LABEL
