キルヒホッフの法則は、電気回路において任意の節点に流れ込む電流の総和、および任意の閉路の電圧の総和に関する法則である。	きるひほっふのほーそくわ、でんきかいろにおいてにんいのせってんにながれこむでんりゅーのそーわ、およびにんいのへいろのでんあつのそーわにかんするほーそくである。	NO_LABEL
線型回路、非線型回路を問わず成り立つ。	せんけいかいろ、ひせんけいかいろをとわずなりたつ。	NO_LABEL
電気工学で広く用いられる。	でんきこーがくでひろくもちいられる。	NO_LABEL
ドイツの1845年物理学者グスタフ・キルヒホフが発見した。	どいつのせんはっぴゃくよんじゅうごねんぶつりがくしゃぐすたふきるひほふがはっけんした。	NO_LABEL
キルヒホッフの法則には電流則と電圧則がある。	きるひほっふのほーそくにわでんりゅーそくとでんあつそくがある。	NO_LABEL
両法則ともマクスウェルの方程式から直接得ることはできるが、キルヒホッフはマクスウェルに先行して、代わりにゲオルク・オームによる研究を一般化した。	りょーほーそくともまくすうぇるのほーていしきからちょくせつえることわできるが、きるひほっふわまくすうぇるにせんこーして、かわりにげおるくおーむによるけんきゅーをいっぱんかした。	NO_LABEL
電気回路の任意の節点において、流れ込む向きを正と統一するとき、各線の電流 Iの総和は0となる。	NO_PRONOUNCE	NO_LABEL
節点法則、KCLということもある。	NO_PRONOUNCE	NO_LABEL
「流れ込む電流と流れ出す電流の和は0である」と「流れ込む電流の和と流れ出る電流の和の大きさは等しい」は符号を統一するかしないかの違いであり両者は等価である。	NO_PRONOUNCE	NO_LABEL
電気回路に任意の閉路をとり電圧の向きを一方向に取ったとき、閉路に沿った各素子の電圧 V の総和は 0 である。	NO_PRONOUNCE	NO_LABEL
閉路法則、KVLということもある。	NO_PRONOUNCE	NO_LABEL
マクスウェル方程式から以上の2法則を導出することができる。	NO_PRONOUNCE	NO_LABEL
電圧則の方は一つの式だけから導出できるのでこちらをまず導出する。	でんあつそくのほーわひとつのしきだけからどーしゅつできるのでこちらをまずどーしゅつする。	NO_LABEL
電圧則はファラデーの電磁誘導法則すなわち	でんあつそくわふぁらでーのでんじゆうどーほーそくすなわち	NO_LABEL
formula_3	NO_PRONOUNCE	NO_LABEL
の両辺を面積分する。	のりょーへんをめんせきぶんする。	NO_LABEL
このとき、左辺にはストークスの定理を適用し、右辺については変動磁場がないという仮定をおく。	このとき、さへんにわすとーくすのていりをてきよーし、うへんについてわへんどーじばがないとゆうかていをおく。	NO_LABEL
すると	すると	NO_LABEL
formula_4	NO_PRONOUNCE	NO_LABEL
を得るが、左辺は適当に回路上の区間を分割してその区間に対しての線積分をformula_5などと記述することでそのまま得られる。	NO_PRONOUNCE	NO_LABEL
一方で、電流則の方は連続の式を用いる。	いっぽーで、でんりゅーそくのほーわれんぞくのしきをもちいる。	NO_LABEL
連続の式はアンペール・マクスウェルの式	NO_PRONOUNCE	NO_LABEL
formula_6	NO_PRONOUNCE	NO_LABEL
に対して両辺divをとって、ガウスの法則を適用して得られる結果	NO_PRONOUNCE	NO_LABEL
formula_7	NO_PRONOUNCE	NO_LABEL
である。	である。	NO_LABEL
両辺体積積分をとるのだが、電荷密度は時間変化がないという仮定を置く。	りょーへんたいせきせきぶんをとるのだが、でんかみつどわじかんへんかがないとゆうかていをおく。	NO_LABEL
ガウスの公式によって	がうすのこーしきによって	NO_LABEL
formula_8	NO_PRONOUNCE	NO_LABEL
となるので、点に注目すれば、そこへ流れ込む全ての経路の電流を足し合わせることになり、電流法則である。	となるので、てんにちゅーもくすれば、そこえながれこむすべてのけいろのでんりゅーをたしあわせることになり、でんりゅーほーそくである。	NO_LABEL
