『里見の謎』は、サンテックジャパンよりプレイステーション用ソフトとして発売されたコンピュータRPGである。	NO_PRONOUNCE	NO_LABEL
製作総指揮は小澤夢生、監督・脚本は堀ちえみや岡田有希子等への楽曲提供や、光栄の『水滸伝・天命の誓い』の作曲などを担当した三井一正である。	NO_PRONOUNCE	NO_LABEL
なお、当ゲームシステムの統括は、秋篠雅弘が率いたJフォースで『あらいぐまラスカル』や『熱血大陸バーニングヒーローズ』を製作し、サンテックジャパンのアダルトゲームまで深く関わった横塚英一郎である。	NO_PRONOUNCE	NO_LABEL
横塚英一郎は、後述する「じどう」の名づけシステム、各種ゲームシステムの提案、また本作品のパッケージに貼り付けられた「オススメRPG」のシールを提案した人物である。	NO_PRONOUNCE	NO_LABEL
本作はサンテックジャパンのテレビゲーム初参入ソフトである。	もとさくわさんてっくじゃぱんのてれびげーむはつさんにゅーそふとである。	NO_LABEL
それまでは業務用カラオケなどの音源製作をメインに行う会社だった。	それまでわぎょーむよーからおけなどのおんげんせいさくをめいんにおこなうかいしゃだった。	NO_LABEL
「里見の謎」の「里見」や「タテヤマーナ」の町は、会社の所在地が千葉県館山市にあり、この地が南総里見八犬伝の所縁の地であることが由来となっている。	NO_PRONOUNCE	NO_LABEL
ただし、ゲーム本編の内容には南総里見八犬伝は全く関係しない。	ただし、げーむほんぺんのないよーにわなんそーさとみはっけんでんわぜんくかんけいしない。	NO_LABEL
本作品は音楽関係者中心で作ることをモットーとして製作された経緯がある。	ほんさくひんわおんがくかんけいしゃちゅーしんでつくることをもっとーとしてせいさくされたけいいがある。	NO_LABEL
そのため監督と脚本に本来の脚本家を使わずミュージシャンに一任したために、異様なシナリオやゲームシステムができ上がった。	そのためかんとくときゃくほんにほんらいのきゃくほんかをつかわずみゅーじしゃんにいちにんしたために、いよーなしなりおやげーむしすてむができあがった。	NO_LABEL
また、本作品のパッケージ裏面には「極上の音質と音楽表現！」と記載されている。	NO_PRONOUNCE	NO_LABEL
オープニングおよびエンディングのナレーション、挿入歌・ラストボス戦に流れる曲の歌唱は島紘子が担当している。	NO_PRONOUNCE	NO_LABEL
ちなみに、本作品で他にキャラボイスが充てられているのは主人公の犬だけである。	ちなみに、ほんさくひんでたにきゃらぼいすがあてられているのわしゅじんこーのいぬだけである。	NO_LABEL
CD-ROMのトラック2には警告メッセージが収録されている。	NO_PRONOUNCE	NO_LABEL
後半は島紘子の自己紹介をしており、芸能学校の宣伝や、ゲームの挿入歌2曲で9分弱ある。	こーはんわしまひろこのじこしょーかいをしており、げいのーがっこーのせんでんや、げーむのそーにゅーかにきょくできゅうふんじゃくある。	NO_LABEL
警告メッセージはプログラムの半分のサイズを使用している。	けいこくめっせーじわぷろぐらむのはんぶんのさいずをしよーしている。	NO_LABEL
プログラムと警告メッセージをあわせてもCD-ROMの容量の半分にも満たない。	ぷろぐらむとけいこくめっせーじをあわせてもしーでぃーろむのよーりょーのはんぶんにもみたない。	NO_LABEL
上記の経緯に加え、パッケージにはメーカーが自分で「オススメRPG」というシールを貼っていたこともあり、結果としてプレイステーション用ソフトの中で、屈指のバカゲーもしくはクソゲーとの評価がある。	NO_PRONOUNCE	NO_LABEL
オススメシールは販売店が貼ったと勘違いして購入した者も多かった。	おすすめしーるわはんばいてんがはったとかんちがいしてこーにゅーしたしゃもおーかった。	NO_LABEL
このシールは発売後にソニー側より不当表示のクレームを受けたため、後期出荷分には付いていない。	このしーるわはつばいごにそにーがわよりふとーひょーじのくれーむをうけたため、こーきしゅっかぶんにわついていない。	NO_LABEL
販売数が少なかったことから中古市場でもあまり目にすることはなく、また中古価格も高めで、特に「オススメRPG」シール付きの初期出荷品には高額なプレミアがついている。	NO_PRONOUNCE	NO_LABEL
当時としても時代錯誤感を催させるキャラクターデザイン、窮屈な世界観を醸し出す縦方向のみに伸びたフィールド、幻覚じみた荒唐無稽なストーリーなどからRPGとしての評価は低いが、ゲームシステム自体は特に破綻がないためプレイは問題なく行える。	とーじとしてもじだいさくごかんをもよおさせるきゃらくたーでざいん、きゅーくつなせかいかんをかもしだすたてほうこーのみにのびたふぃーるど、げんかくじみたこーとーむけいなすとーりーなどからあーるぴーじーとしてのひょーかわひくいが、げーむしすてむじたいわとくにはたんがないためぷれいわもんだいなくおこなえる。	NO_LABEL
本作のエンディングの末尾には「TO BE CONTINUED...」というメッセージが表示されるが、サンテックジャパンが倒産したため続編は出ていない。	NO_PRONOUNCE	NO_LABEL
また、サンテックジャパンのアダルトゲーム部門であるknightが発売した『さよならの微笑み』というゲームでは、登場人物が『里見の謎』というクソゲーをプレイしようとするセルフパロディがある。	NO_PRONOUNCE	NO_LABEL
このようなゲームが開発された背景には、ソニーが任天堂を出し抜くにはソフトの数で勝負する必要があると考えられたという。	このよーなげーむがかいはつされたはいけいにわ、そにーがにんてんどーをだしぬくにわそふとのかずでしょーぶするひつよーがあるとかんがえられたという。	NO_LABEL
小規模なソフトハウスも気軽にPSに参加できるよう、ハード参入への敷居を徹底的に下げ、多数のソフト開発メーカーの参加を可能にしたが、その結果として低質なゲームの発売も招かれたという。	しょーきぼなそふとはうすもきがるにぱられるかいてんにさんかできるよー、はーどさんにゅーえのしきいをてっていてきにさげ、たすーのそふとかいはつめーかーのさんかをかのーにしたが、そのけっかとしてていしつなげーむのはつばいもまねかれたという。	NO_LABEL
操作するキャラクターの名前入力画面において、自動で名前を決定してもらうシステムである。	そーさするきゃらくたーのなまえにゅーりょくがめんにおいて、じどーでなまえをけっていしてもらうしすてむである。	NO_LABEL
「じどう」を使用すると、使用するごとに一文字ずつ、五十音の中からランダムで文字が選択される。	NO_PRONOUNCE	NO_LABEL
例) 「そねゆあふ」「ぜぜぅちち」「やずかくづ」など。	NO_PRONOUNCE	NO_LABEL
ランダムの結果、時には「たゅー」「ょぬっっと」「ゅーじぉと」など、発音困難な名前が生成されることもある。	NO_PRONOUNCE	NO_LABEL
基本的に全てのマップが縦方向に連結されており、場面ごとの画面切り替えは現在いるマップの上端か下端で発生する。	きほんてきにすべてのまっぷがたてほうこーにれんけつされており、ばめんごとのがめんきりかえわげんざいいるまっぷのじょーたんかかたんではっせいする。	NO_LABEL
このため本作は縦スクロールRPGであり、常に上方向が「先に進む」となるため、次にどこへ向かえばよいか、迷いにくいようになっている。	NO_PRONOUNCE	NO_LABEL
また、スクロール自体は通常のRPGと同様に上下左右に自由に動き、マップの右上と左上から別の場所に進むなど分岐も多い。	また、すくろーるじたいわつーじょーのあーるぴーじーとどーよーにじょーげさゆーにじゆーにうごき、まっぷのみぎうえとひだりうえからべつのばしょにすすむなどぶんきもおーい。	NO_LABEL
画面切り替えポイントが左右にないというだけで、個々のマップには横に長いものもある。	がめんきりかえぽいんとがさゆーにないというだけで、ここのまっぷにわよこにながいものもある。	NO_LABEL
なお、横方向の画面切り替えも、ゲーム全編を通して1か所のみ存在する。	NO_PRONOUNCE	NO_LABEL
戦闘時画面に出てくる3体の敵に対して左から「□・△・○」のマークが割り振られており、コントローラーの該当ボタンを押すだけで敵にダメージを与えることができる。	NO_PRONOUNCE	NO_LABEL
魔法や道具、味方への回復なども他のボタンを併用して□・△・○で決定することで同様に行なえる。	NO_PRONOUNCE	NO_LABEL
単体攻撃のほか、同時押しで威力を分散した全体攻撃も可能である。	たんたいこーげきのほか、どーじおしでいりょくをぶんさんしたぜんたいこーげきもかのーである。	NO_LABEL
キャラクター単位で、個々に設定された速さを基準に行動権を取得し、個々にコマンド入力のうえ、そのコマンドを即座に実行というパターンを繰り返すことで戦闘は進行する。	きゃらくたーたんいで、ここにせっていされたはやさをきじゅんにこーどーけんをしゅとくし、ここにこまんどにゅーりょくのうえ、そのこまんどをそくざにじっこーとゆうぱたーんをくりかえすことでせんとーわしんこーする。	NO_LABEL
いわゆる従来のRPGのようなターン制の概念がない。	いわゆるじゅーらいのあーるぴーじーのよーなたーんせいのがいねんがない。	NO_LABEL
また、一般的なRPGの戦闘と異なり、敵に与えた、または敵から受けたダメージが数値で表記されない、動作を表すアニメーションがないか極端に短いなどの特徴がある。	また、いっぱんてきなあーるぴーじーのせんとーとことなり、てきにあたえた、またわてきからうけただめーじがすーちでひょーきされない、どーさをあらわすあにめーしょんがないかきょくたんにみじかいなどのとくちょーがある。	NO_LABEL
非常にスピーディーな戦闘が可能となる一方で、敵に与えたダメージ量が見えなかったり、敵味方ともに行動が一瞬で終了してしまうため、戦闘中の現状把握が難しいという問題もある。	ひじょーにすぴーでぃーなせんとーがかのーとなるいっぽーで、てきにあたえただめーじりょうがみえなかったり、てきみかたともにこーどーがいっしゅんでしゅーりょーしてしまうため、せんとーちゅーのげんじょーはーくがむずかしいとゆうもんだいもある。	NO_LABEL
フィールドやダンジョンで敵と遭遇した際に、即座に戦闘に移行するシステムである。	ふぃーるどやだんじょんでてきとそーぐーしたさいに、そくざにせんとーにいこーするしすてむである。	NO_LABEL
本作ではエンカウント時のソフト読み込み時間がほとんど発生せず、戦闘画面そのものが簡略であることも相まって、比較的早いタイミングで戦闘画面へ移行することができる。	もとさくでわえんかうんとじのそふとよみこみじかんがほとんどはっせいせず、せんとーがめんそのものがかんりゃくであることもあいまって、ひかくてきはやいたいみんぐでせんとーがめんえいこーすることができる。	NO_LABEL
本作品発売の約4年後に『ドラゴンクエストVII エデンの戦士たち』が同様のフラッシュエンカウントシステムを採用し話題となっているが、『ドラクエVII』がフラッシュエンカウントの導入によりフリーズが多発したのとは対照的に、本作では目立った弊害は起こっていない。	NO_PRONOUNCE	NO_LABEL
ある日、近所の海岸で釣りをしていた少年・ゆめわかは、謎の壷を手に入れる。	NO_PRONOUNCE	NO_LABEL
家に戻り、ゆめわかの母にその壷を見せたところ、母は明らかに何かを知っているような反応を示し、ゆめわかに今日はもう寝なさいと促した。	いえにもどり、ゆめわかのははにそのつぼをみせたところ、ははわあきらかになにかをしっているよーなはんのーをしめし、ゆめわかにきょーわもーねなさいとうながした。	NO_LABEL
翌日、ゆめわかの母は手紙を残して失踪していた。	よくじつ、ゆめわかのははわてがみをのこしてしっそーしていた。	NO_LABEL
手紙の内容に従い、ゆめわかは愛犬ラブリーと共にヘッケル博士を訪ねるため、タテヤマーナの町へ向かうのだった。	てがみのないよーにしたがい、ゆめわかわあいけんらぶりーとともにへっけるはかせをたずねるため、たてやまーなのまちえむかうのだった。	NO_LABEL
発売から5年後の2001年、サンテックジャパンのインディーズレーベル部門『サンテックレコード』のウェブサイトにて、サウンドトラックがCD-Rにより200枚限定で通販で販売された。	NO_PRONOUNCE	NO_LABEL
秋葉原のPCショップにも何枚か卸されて販売されたという。	あきはばらのぴーしーしょっぷにもなんまいかおろされてはんばいされたという。	NO_LABEL
特典として里見カードという全100種のトレーディングカードが4枚封入されていた。	とくてんとしてさとみかーどとゆうぜんひゃくしゅのとれーでぃんぐかーどがよんまいふーにゅーされていた。	NO_LABEL
ゲーム内で使用されたBGMとジングル集に島紘子の楽曲、さらに島紘子のファンへの新録音メッセージも収録され、「私もまた歌いたくなってきた」という発言をしている。	NO_PRONOUNCE	NO_LABEL
