株式会社住友銀行は、かつて存在した日本の都市銀行。	かぶしきがいしゃすみともぎんこーわ、かつてそんざいしたにっぽんのとしぎんこー。	NO_LABEL
略称は「住銀」。	NO_PRONOUNCE	NO_LABEL
2001年4月1日付でさくら銀行を吸収合併し、三井住友銀行となった。	にせんいちねんしがつついたちずけでさくらぎんこーをきゅーしゅーがっぺいし、みついすみともぎんこーとなった。	NO_LABEL
住友グループの中核で、本店は大阪市中央区の淀屋橋南西に置かれていた。	すみともぐるーぷのちゅーかくで、ほんてんわおーさかしちゅーおーくのよどやばしなんせいにおかれていた。	NO_LABEL
<br>	NO_PRONOUNCE	NO_LABEL
2001年4月にさくら銀行と合併して三井住友銀行となった。	にせんいちねんしがつにさくらぎんこーとがっぺいしてみついすみともぎんこーとなった。	NO_LABEL
<br>	NO_PRONOUNCE	NO_LABEL
先進的・効率的経営である一方、経営姿勢が慎重すぎるとして経済誌の顧客イメージランキングでは、常に他行の後塵を拝していたが、「収益の住友銀行」と異名をとるほどの高い収益性を持ち、その事が後のさくら銀行の救済合併に繋がった。	NO_PRONOUNCE	NO_LABEL
<br>	NO_PRONOUNCE	NO_LABEL
同じ大阪に本店を置く三和銀行、大和銀行と並ぶ在阪三大都市銀行の一行でもあった。	おなじおーさかにほんてんをおくさんわぎんこー、だいわぎんこーとならぶざいはんさんだいとしぎんこーのいちこーでもあった。	NO_LABEL
統一金融機関コードは0009で、三井住友銀行に引き継がれている。	NO_PRONOUNCE	NO_LABEL
当時の住友銀行は、以下のように経営理念を発表していた。	とーじのすみともぎんこーわ、いかのよーにけいえいりねんをはっぴょーしていた。	NO_LABEL
質の高い金融サービスの提供により、お客さまの信頼にこたえるとともに、健全な業績の伸長を通じて広く内外社会の発展に貢献する。	しつのたかいきんゆーさーびすのていきょーにより、おきゃくさまのしんらいにこたえるとともに、けんぜんなぎょーせきのしんちょーをつーじてひろくないがいしゃかいのはってんにこーけんする。	NO_LABEL
住友銀行のルーツは、住友家が別子銅山の経営を中心に発展を遂げていったことに始まる。	すみともぎんこーのるーつわ、すみともけがべっしどーざんのけいえいをちゅーしんにはってんをとげていったことにはじまる。	NO_LABEL
江戸時代初期である1662年泉屋平兵衛友貞が両替商を大阪と江戸で手掛けて以来、金融業務を始め、泉屋両替店がその起源といえるが、同店は1684年為替不達事件を起こし、江戸両替店が一時閉鎖の憂き目に遭う。	えどじだいしょきであるせんろっぴゃくろくじゅうにねんいずみやたいらひょーえともさだがりょーがえしょーをおーさかとえどでてがけていらい、きんゆーぎょーむをはじめ、いずみやりょーがえてんがそのきげんといえるが、どーてんわせんろっぴゃくはちじゅうよんねんかわせふたちじけんをおこし、えどりょーがえてんがいちじへいさのうきめにあう。	NO_LABEL
その後再興するが、1869年までに一度両替商を閉鎖、札差・蔵元としての業務には終止符を打った。	NO_PRONOUNCE	NO_LABEL
1875年に金融事業は並合業として再開、並合業は年々業容を拡大していった。	せんはっぴゃくななじゅうごねんにきんゆーじぎょーわなみごーぎょーとしてさいかい、なみごーぎょーわねんねんぎょーよーをかくだいしていった。	NO_LABEL
1890年銀行条令が発布されたのを機に、1895年5月、広島県尾道市で行われた住友家の重役会議で本格的な銀行業への進出が決定。	せんはっぴゃくきゅうじゅうねんぎんこーじょーれいがはっぷされたのをきに、せんはっぴゃくきゅうじゅうごねんごがつ、ひろしまけんおのみちしでおこなわれたすみともけのじゅーやくかいぎでほんかくてきなぎんこーぎょーえのしんしゅつがけってい。	NO_LABEL
同年11月1日住友本店銀行部として、住友吉左衛門の個人経営による資本金100万円の住友銀行が開業した。	どーねんじゅーいちがつついたちすみともほんてんぎんこーぶとして、すみともきちざえもんのこじんけいえいによるしほんきんひゃくまんえんのすみともぎんこーがかいぎょーした。	NO_LABEL
その後、初めての支店がその尾道市に開設されており、尾道支店として現存している。	そのご、はじめてのしてんがそのおのみちしにかいせつされており、おのみちしてんとしてげんそんしている。	NO_LABEL
1912年3月、株式会社に改組し、資本金1500万円の株式会社住友銀行が設立された。	せんきゅうひゃくじゅうにねんさんがつ、かぶしきがいしゃにかいそし、しほんきんせんごひゃくまんえんのかぶしきがいしゃすみともぎんこーがせつりつされた。	NO_LABEL
1912年、株式会社第六十一銀行を買収。	せんきゅうひゃくじゅうにねん、かぶしきがいしゃだいろくじゅーいちぎんこーをばいしゅー。	NO_LABEL
1919年末には預金残高3億4836万円、貸金残高2億6156万円と、第一銀行、三井銀行に次いで、全国第3位の規模となった。	NO_PRONOUNCE	NO_LABEL
一方、すでに外国業務を手掛けていたが、第一次世界大戦勃発に伴う輸出の急増、在外邦人の内地仕送りの増加から、海外拠点の開設が検討された。	いっぽー、すでにがいこくぎょーむをてがけていたが、だいいちじせかいたいせんぼっぱつにともなうゆしゅつのきゅーぞー、ざいがいほーじんのないちしおくりのぞーかから、かいがいきょてんのかいせつがけんとーされた。	NO_LABEL
かくして1916年、市中銀行のトップを切って、サンフランシスコ支店およびハワイ住友銀行を開設、さらに同年に上海とボンベイ、1917年に漢口、1918年にシアトルとロンドン、そしてニューヨークに拠点を開設、普通銀行の海外進出の先駆けとなった。	かくしてせんきゅうひゃくじゅうろくねん、しちゅーぎんこーのとっぷをきって、さんふらんしすこしてんおよびはわいすみともぎんこーをかいせつ、さらにどーねんにしゃんはいとぼんべい、せんきゅうひゃくじゅうしちねんにかんこー、せんきゅうひゃくじゅうはちねんにしあとるとろんどん、そしてにゅーよーくにきょてんをかいせつ、ふつーぎんこーのかいがいしんしゅつのさきがけとなった。	NO_LABEL
さらに、1924年にはロサンゼルス支店、1925年には加州住友銀行を設立する。	さらに、せんきゅうひゃくにじゅうよねんにわろさんぜるすしてん、せんきゅうひゃくにじゅうごねんにわかしゅーすみともぎんこーをせつりつする。	NO_LABEL
しかし、これらの海外拠点は、その後の第二次世界大戦で一時縮小を余儀なくされる。	しかし、これらのかいがいきょてんわ、そのごのだいにじせかいたいせんでいちじしゅくしょーをよぎなくされる。	NO_LABEL
その後、第一次世界大戦後の復興景気の反動から、1920年から1922年と金融不安が日本経済を襲い、同行もその影響から、預金、貸出金とも減少が続いた。	そのご、だいいちじせかいたいせんごのふっこーけいきのはんどーから、せんきゅうひゃくにじゅうねんからせんきゅうひゃくにじゅうにねんときんゆーふあんがにほんけいざいをおそい、どーこーもそのえいきょーから、よきん、かしだしきんともげんしょーがつずいた。	NO_LABEL
さらに、1927年、片岡直温蔵相の失言から、昭和金融恐慌が起こり多くの銀行が破綻したが、一方、預金は信用度の高い財閥系銀行に急速に集中し、住友銀行においてもその預金額は急増著しく、1929年末には普通銀行中首位を占めるに至るなど、業容は順調に拡大していった。	さらに、せんきゅうひゃくにじゅうななねん、かたおかなおはるぞーしょーのしつげんから、しょーわきんゆーきょうこーがおこりおーくのぎんこーがはたんしたが、いっぽー、よきんわしんよーどのたかいざいばつけいぎんこーにきゅーそくにしゅーちゅーし、すみともぎんこーにおいてもそのよきんがくわきゅーぞーいちじるしく、せんきゅうひゃくにじゅうきゅうねまつにわふつーぎんこーちゅーしゅいをしめるにいたるなど、ぎょーよーわじゅんちょーにかくだいしていった。	NO_LABEL
終戦直後の日本では、半年で物価が2倍以上に騰貴するようなインフレーションが進行したため、政府は1946年2月、金融緊急措置令、日本銀行券預入令、臨時財産調査令等を公布し、預金封鎖と新円への切り替えを実施したが、換物思想が優先し、金融機関の経営は困難を極めた。	しゅーせんちょくごのにっぽんでわ、はんとしでぶっかがにばいいじょーにとーきするよーないんふれーしょんがしんこーしたため、せいふわせんきゅうひゃくよんじゅうろくねにがつ、きんゆーきんきゅーそちれい、にっぽんぎんこーけんあずけいれれい、りんじざいさんちょーされいとーをこーふし、よきんふーさとしんえんえのきりかえをじっししたが、かんぶつしそーがゆーせんし、きんゆーきかんのけいえいわこんなんをきわめた。	NO_LABEL
そうした混乱の中、1945年11月には、GHQによる財閥解体方針が出され、住友本社は解散を余儀なくされるとともに、1948年には同行も行名を"大阪銀行"と改めたうえで再出発することとなった。	NO_PRONOUNCE	NO_LABEL
その後、経済が安定から復興へと進む中で同行は、預貸金の拡充、店舗網の整備、外国業務再開など業務の立て直しを進めていたが、1952年4月のサンフランシスコ平和条約発効に伴い、行名を住友銀行に復帰。	そのご、けいざいがあんていからふっこーえとすすむなかでどーこーわ、あずかかしきんのかくじゅー、てんぽもーのせいび、がいこくぎょーむさいかいなどぎょーむのたてなおしをすすめていたが、せんきゅうひゃくごじゅうにねんしがつのさんふらんしすこへいわじょーやくはっこーにともない、ぎょうみょーをすみともぎんこーにふっき。	NO_LABEL
堅実経営、精鋭主義を掲げ業績発展に取り組んでいった。	けんじつけいえい、せいえいしゅぎをかかげぎょーせきはってんにとりくんでいった。	NO_LABEL
行名の書体は伊藤東海が書したもので、1986年3月まで使用された。	ぎょうみょーのしょたいわいとーとーかいがしょしたもので、せんきゅうひゃくはちじゅうろくねんさんがつまでしよーされた。	NO_LABEL
住友銀行は長らく住友グループの中核として、先進的・効率的な経営で評価を得る一方、銀行の利益を死守するために、取引先企業の経営が傾き始めると容赦なく融資を引き上げるので「逃げの住友」と批判され、経済誌の顧客イメージランキングでは、常に他行の後塵を拝していた。	NO_PRONOUNCE	NO_LABEL
この体質が災いした出来事としては、後々に残る痛恨事として、1950年におけるトヨタ自動車との確執である。	このたいしつがわざわいしたできごととしてわ、あとあとにのこるつーこんごととして、せんきゅうひゃくごじゅうねんにおけるとよたじどーしゃとのかくしつである。	NO_LABEL
戦後の1950年、ドッジ・ラインに伴うデフレにより、トヨタ自動車は経営危機に陥った。	せんごのせんきゅうひゃくごじゅうねん、どっじらいんにともなうでふれにより、とよたじどーしゃわけいえいききにおちいった。	NO_LABEL
『トヨタの倒産は東海地方の経済に危機的状況をもたらす』と判断した日本銀行名古屋支店長・高梨壮夫の斡旋により、帝国銀行・東海銀行を中心とする銀行団の緊急融資の条件として、販売強化のためにトヨタ自動車販売株式会社が設立される再建策が決定された。	NO_PRONOUNCE	NO_LABEL
しかし、当時、帝銀・東海と共に主力銀行の一つであった住友銀行は、「機屋に貸せても、鍛冶屋には貸せない」とにべもなく峻拒、貸出金の回収に走り取引を打ち切った。	NO_PRONOUNCE	NO_LABEL
当時、トヨタとの取引銀行は都市銀行・地方銀行含め25行あったが、取引を断絶したのは住銀のみである。	NO_PRONOUNCE	NO_LABEL
倒産という最悪の事態を回避するため、トヨタに対して日銀や住銀を除いた取引銀行による協調融資団による再建策の一つとして、販売強化のためにトヨタ自動車販売株式会社が設立された。	とーさんとゆうさいあくのじたいをかいひするため、とよたにたいしてにちぎんやすみぎんをのぞいたとりひきぎんこーによるきょーちょーゆーしだんによるさいけんさくのひとつとして、はんばいきょーかのためにとよたじどーしゃはんばいかぶしきがいしゃがせつりつされた。	NO_LABEL
さらに再建策の一つとして、1600名の人員整理が発表された。	NO_PRONOUNCE	NO_LABEL
これに対抗し組合側が無期限のストライキに突入し、労使間対立が先鋭化。	これにたいこーしくみあいがわがむきげんのすとらいきにとつにゅーし、ろーしかんたいりつがせんえいか。	NO_LABEL
労働争議へと発展した。	ろーどーそーぎえとはってんした。	NO_LABEL
こうして、実質的創業者の豊田喜一郎がこの労働争議の責任を取り社長を辞任した。	こーして、じっしつてきそーぎょーしゃのとよだきいちろーがこのろーどーそーぎのせきにんをとりしゃちょーをじにんした。	NO_LABEL
組合側も断腸の思いで首切りを受け入れた。	くみあいがわもだんちょーのおもいでくびきりをうけいれた。	NO_LABEL
そして住銀との交渉過程や労働争議での心労がたたったのか、豊田は1952年3月に急逝した。	そしてすみぎんとのこーしょーかていやろーどーそーぎでのしんろーがたたったのか、とよだわせんきゅうひゃくごじゅうにねんさんがつにきゅーせいした。	NO_LABEL
その後、朝鮮戦争勃発による特需景気をきっかけに、トヨタ自動車は順調に経営再建を果たし日本を代表する製造業となった。	そのご、ちょーせんせんそーぼっぱつによるとくじゅけいきをきっかけに、とよたじどーしゃわじゅんちょーにけいえいさいけんをはたしにっぽんをだいひょーするせいぞーぎょーとなった。	NO_LABEL
再建策をまとめた高梨は後に日銀理事を経て、トヨタの強い推薦で日本自動車連盟初代会長に招かれた。	さいけんさくをまとめたたかなしわごににちぎんりじをへて、とよたのつよいすいせんでにっぽんじどーしゃれんめいしょだいかいちょーにまねかれた。	NO_LABEL
また、帝銀の支援をきっかけにトヨタは三井グループ入りすることになる。	また、ていぎんのしえんをきっかけにとよたわみついぐるーぷいりすることになる。	NO_LABEL
反面、取引を断絶した住銀に対しては、石田退三や歴代のトヨタ社長が取引再開を許さず、加えて名古屋を中心とする東海経済界では「住銀はいざとなったら頼りにならない」との風評が広がり、同地で住銀が苦戦する遠因となった。	NO_PRONOUNCE	NO_LABEL
なおトヨタの経営危機から15年後の1965年、当時業界6位で経営危機に瀕していたプリンス自動車に対して、同社のメインバンクである住銀の頭取・堀田庄三は専務・小川秀彦をプリンス自動車社長に派遣し、トヨタへの救済合併と取引再開を画策した。	NO_PRONOUNCE	NO_LABEL
しかし、当時のトヨタ会長・石田退三は「鍛冶屋の私どもでは不都合でしょうから」とこれを拒否している。	NO_PRONOUNCE	NO_LABEL
15年前の経営危機の際、喜一郎が緊急融資に駆けずり回る中、「機屋に貸せても、鍛冶屋には貸せない」と言い放ったのが、他ならぬ当時の住銀名古屋支店長・小川であり、融資担当常務・堀田であった。	NO_PRONOUNCE	NO_LABEL
トヨタ自動車と住友銀行との取引再開が本格化するのは、三井銀行の後身さくら銀行との合併により三井住友銀行が発足してからである。	とよたじどーしゃとすみともぎんこーとのとりひきさいかいがほんかくかするのわ、みついぎんこーのこーしんさくらぎんこーとのがっぺいによりみついすみともぎんこーがほっそくしてからである。	NO_LABEL
ただし、SMBC発足の際には、トヨタに対しかなりの根回しがなされた。	ただし、えすえむびーしーほっそくのさいにわ、とよたにたいしかなりのねまわしがなされた。	NO_LABEL
1952年、のちに「法皇」と呼ばれる堀田庄三が頭取に就任、「堅実経営」「合理的精神」「凡百の議論をやめ商道に徹せよ」の三点を掲げ、世上、堀田イズムと称された冷厳ともいえる合理主義的経営を行った。	NO_PRONOUNCE	NO_LABEL
この時代、日本経済は高度経済成長の波に乗り、住友銀行は増加する資金需要に応えるために、新種預金を相次いで創設するなど預金吸収に力を注ぐ一方、経営効率の向上に努めた結果、職員1人当たりの預金額は抜きんでて高いものとなった。	このじだい、にほんけいざいわこーどけいざいせいちょーのなみにのり、すみともぎんこーわぞーかするしきんじゅよーにこたえるために、しんしゅよきんをあいついでそーせつするなどよきんきゅーしゅーにちからをそそぐいっぽー、けいえいこーりつのこーじょーにつとめたけっか、しょくいんひとりあたりのよきんがくわぬきんでてたかいものとなった。	NO_LABEL
また、貸出面でも同行独白のダブル・チェックシステムを活用し、優良企業との取引を拡充していくと同時に、銀行の大衆化に対応して、1960年11月には自動車購入資金貸付を開始、日本における消費者金融の先べんをつけた。	NO_PRONOUNCE	NO_LABEL
堀田頭取時代、住友銀行は、取引先企業の経営が傾き始めると容赦なく融資を引き上げ、「がめつい」「逃げ足が速い」と批判された。	NO_PRONOUNCE	NO_LABEL
後にイトマン事件等の不祥事が続発するような、利益第一主義の遠因となったという指摘もある。	ごにいとまんじけんとーのふしょーじがぞくはつするよーな、りえきだいいちしゅぎのえんいんとなったとゆうしてきもある。	NO_LABEL
しかし入行直後に昭和金融恐慌を体験し、相続く銀行の破綻をつぶさに見つめてきた堀田は、「預金者のお金を厳格に運用するのは銀行の責務」とたじろがなかった。	NO_PRONOUNCE	NO_LABEL
融資においては事業の将来性と経営者の能力を厳密に評価した上で行い、マツダ、ブリヂストン、松下電器産業、三洋電機、武田薬品工業、アサヒビール、鹿島、コマツなどの、後に日本を代表する企業を育てていった。	ゆーしにおいてわじぎょーのしょーらいせいとけいえいしゃののーりょくをげんみつにひょーかしたうえでおこない、まつだ、ぶりじすとん、まつしたでんきさんぎょー、さんよーでんき、たけだやくひんこーぎょー、あさひびーる、かしま、こまつなどの、ごににっぽんをだいひょーするきぎょーをそだてていった。	NO_LABEL
また、1965年4月には大阪の戦後地銀であった河内銀行を吸収合併し、資金量で富士銀行に次ぐ2位に躍進、収益では全国の銀行でトップに立った。	また、せんきゅうひゃくろくじゅうごねんしがつにわおーさかのせんごちぎんであったかわちぎんこーをきゅーしゅーがっぺいし、しきんりょうでふじぎんこーにつぐにーにやくしん、しゅーえきでわぜんこくのぎんこーでとっぷにたった。	NO_LABEL
事務合理化の面では、同行は1967年4月に都市銀行初の総合オンラインシステムを稼働させ、1969年12月に日本初の現金自動支払機を大阪の梅田支店や東京の新宿支店に設置等、事務処理の効率化とサービスの向上を実現させている。	じむごーりかのめんでわ、どーこーわせんきゅうひゃくろくじゅうななねしがつにとしぎんこーはつのそーごーおんらいんしすてむをかどーさせ、せんきゅうひゃくろくじゅうきゅうねんじゅーにがつににっぽんはつのげんきんじどーしはらいきをおーさかのうめだしてんやとーきょーのしんじゅくしてんにせっちとー、じむしょりのこーりつかとさーびすのこーじょーをじつげんさせている。	NO_LABEL
また、この頃は関連会社も多く設立されている。	また、このころわかんれんがいしゃもおーくせつりつされている。	NO_LABEL
1967年12月には株式会社住友クレジットサービス、1968年9月には住友銀行を中心とする住友グループのリース会社として「総合リース株式会社」、1969年には日本情報サービス株式会社を設立している。	NO_PRONOUNCE	NO_LABEL
1973年秋のオイルショックをきっかけに引き起こされた内外経済の不況の中で、総合商社安宅産業破綻が露呈された。	せんきゅうひゃくななじゅうさんねんあきのおいるしょっくをきっかけにひきおこされたないがいけいざいのふきょーのなかで、そーごーしょーしゃあたかさんぎょーはたんがろていされた。	NO_LABEL
当時の経営陣は、安宅産業の経営危機が信用不安の引き金となって日本経済の危機につながることを危惧し、さまざまな検討、熟慮の末、安宅産業は伊藤忠商事との合併の道を選び、内外経済の混乱は避けられた。	とーじのけいえいじんわ、あたかさんぎょーのけいえいききがしんよーふあんのひきがねとなってにほんけいざいのききにつながることをきぐし、さまざまなけんとー、じゅくりょのすえ、あたかさんぎょーわいとーちゅーしょーじとのがっぺいのみちをえらび、ないがいけいざいのこんらんわさけられた。	NO_LABEL
しかしながら16行の銀行団の償却債権額は総額2,000億円にのぽり、住友銀行もそのうち1,132億円を負担、1977年9月末の決算で全額償却を余儀なくされた。	NO_PRONOUNCE	NO_LABEL
1977年、後に「住友銀行中興の祖」と呼ばれる、磯田一郎が頭取に就任。	NO_PRONOUNCE	NO_LABEL
磯田は、前述の安宅産業吸収合併で手腕を発揮したほか、東洋工業・アサヒビールなどの企業再建を手がけた。	NO_PRONOUNCE	NO_LABEL
また、1979年7月にマッキンゼーのコンサルティングにより導入した、総本部制・総本部長の青天井の決裁権限等に代表される機構改革は、迅速な意思決定を可能にした。	NO_PRONOUNCE	NO_LABEL
住友銀行を近畿の銀行から全国展開する上位行としての地位を築き、頭取就任から3年の1980年9月末の決算において都市銀行で収益トップの座となった。	すみともぎんこーをきんきのぎんこーからぜんこくてんかいするじょーいくだりとしてのちいをきずき、とーどりしゅーにんからさんねんのせんきゅうひゃくはちじゅうねんくがつまつのけっさんにおいてとしぎんこーでしゅーえきとっぷのざとなった。	NO_LABEL
一方、同時期の1978年、地元近畿地区の効率化を目指し、系列である関西相互銀行の吸収合併計画が進められたが、従業員・取引先の強固な反対運動が沸き起こり頓挫している。	NO_PRONOUNCE	NO_LABEL
業容面においては、1986年10月には東京の相互銀行平和相互銀行を合併することで、懸案であった首都圏における店舗を充実させ、全国で300力店におよぶネットワークを完成、預金量も富士銀行を逆転し、合併によって首位に立った第一勧業銀行に次ぐ都銀2位に躍進したが、救済合併した平和相銀の不良債権により、再び収益力の都銀1位の座を失うことになる。	NO_PRONOUNCE	NO_LABEL
磯田は「向こう傷を恐れるな」と大号令を発し、わずか2年後の1988年に都銀1位を奪回している。	NO_PRONOUNCE	NO_LABEL
こうした、磯田のバブル経済下における積極融資方針に、当時の頭取小松康は懐疑的であった。	こーした、いそだのばぶるけいざいかにおけるせっきょくゆーしほーしんに、とーじのとーどりこまつやすしわかいぎてきであった。	NO_LABEL
そもそも、小松は平和相互銀行の吸収合併も反対であったが、このことが磯田の逆鱗に触れ、2期目の任期満了を2ヶ月残し1987年10月に頭取を解任された。	NO_PRONOUNCE	NO_LABEL
これ以降、住友銀行の積極融資に歯止めが利かなくなり、さらに富士銀行との間に展開された「FS戦争」と呼ばれる融資競争は、バブル崩壊により膨大な不良債権を生み出すことになる。	NO_PRONOUNCE	NO_LABEL
なお、この頃、進展する国際化や金融自由化に対応するため、各国主要都市への拠点開設や、1984年、スイスの名門プライベート・バンキング・ゴッタルド銀行の買収、カード・リース等関連金融子会社の設立など、積極的な取り組みをみせた。	NO_PRONOUNCE	NO_LABEL
年号が平成に変わるころから、過剰な不動産・証券投資の反動が生じるなどのいわゆるバブル崩壊の影響が、日本経済に現れ始めた。	NO_PRONOUNCE	NO_LABEL
住友銀行でも、1990年5月、日本経済新聞のスクープによりイトマン事件が報道される。	すみともぎんこーでも、せんきゅうひゃくきゅうじゅうねんごがつ、にほんけいざいしんぶんのすくーぷによりいとまんじけんがほーどーされる。	NO_LABEL
住友銀行傘下のイトマン向け融資総額は1990年末には5,000億円を超えていたことが発覚。	NO_PRONOUNCE	NO_LABEL
事の起こりはイトマンが東京青山に東京本社を建てるための地上げが進まなかった際に、住友銀行名古屋支店が、イトマンに対し山口組の関係者である伊藤寿永光を仲介屋として紹介したことにあった。	ことのおこりわいとまんがとーきょーあおやまにとーきょーほんしゃをたてるためのじあげがすすまなかったさいに、すみともぎんこーなごやしてんが、いとまんにたいしやまぐちぐみのかんけいしゃであるいとーすえみつをちゅーかいやとしてしょーかいしたことにあった。	NO_LABEL
いきなりイトマンの幹部となった伊藤寿永光は、暴力団とのコネを使うことで地上げを次々と行い、その他の暴力団とのトラブルも収束させイトマンの不動産部門を担う筆頭常務にまでなった。	いきなりいとまんのかんぶとなったいとーすえみつわ、ぼーりょくだんとのこねをつかうことでじあげをつぎつぎとおこない、そのたのぼーりょくだんとのとらぶるもしゅーそくさせいとまんのふどーさんぶもんをになうひっとーじょーむにまでなった。	NO_LABEL
住友銀行はイトマンに巨額の不正融資を次々に行い、地上げをさせ、形の上では日本一の収益を上げていた。	すみともぎんこーわいとまんにきょがくのふせいゆーしをつぎつぎにおこない、じあげをさせ、かたちのうえでわにっぽんいちのしゅーえきをあげていた。	NO_LABEL
その結果として1990年3月末のイトマンの不動産関連の借入金は1兆1800億円にも達し、バブル崩壊とともに大部分が不良債権となった。	NO_PRONOUNCE	NO_LABEL
最後には不良債権の7000億円以上の金が行方不明となり、野村證券の田淵節也会長や中曽根康弘、佐藤信二、三塚博、亀井静香の名前が取り沙汰された。	さいごにわふりょーさいけんのななせんおくえんいじょーのきんがゆくえふめいとなり、のむらしょーけんのたぶちせつやかいちょーやなかそねやすひろ、さとーしんじ、みつずかひろし、かめいしずかのなまえがとりざたされた。	NO_LABEL
続く同年10月、横浜の住友銀行青葉台支店長が、蛇の目ミシン恐喝事件で注目されていた仕手集団「光進」に対し巨額融資の仲介を行い、出資法違反で逮捕された。	NO_PRONOUNCE	NO_LABEL
相次ぐ不祥事の中、同年9月、大蔵省銀行局検査が4か月の長きにわたって開始され、同年10月、当時会長だった磯田は辞任に追い込まれた。	あいつぐふしょーじのなか、どーねんくがつ、おーくらしょーぎんこーきょくけんさがよんかげつのちょうきにわたってかいしされ、どーねんじゅーがつ、とーじかいちょーだったいそだわじにんにおいこまれた。	NO_LABEL
バブル崩壊で発生した不良債権に対して、1995年3月期決算では8,000億円を超える償却処理を実施し、当時の金融界では異例の経常赤字決算となった。	NO_PRONOUNCE	NO_LABEL
不良債権処理を優先させたもので、他の都銀に先駆けて収益力を回復させる目論見であったが、その後も五月雨式に不良債権処理が続くことになる。	ふりょーさいけんしょりをゆーせんさせたもので、たのとぎんにさきがけてしゅーえきりょくをかいふくさせるもくろみであったが、そのごもさみだれしきにふりょーさいけんしょりがつずくことになる。	NO_LABEL
こうした過程で、“闇社会”との軋轢が徐々に表面化、1993年春から、住友グループ幹部宅を狙った襲撃事件が10件以上起きており、住友銀行横浜駅前支店で銃弾1発も打ち込まれていた。	NO_PRONOUNCE	NO_LABEL
また1994年9月14日に住友銀行取締役名古屋支店長がオートロック式のマンション内で後頭部を銃撃された。	またせんきゅうひゃくきゅうじゅうよねんくがつじゅうよっかにすみともぎんこーとりしまりやくなごやしてんちょーがおーとろっくしきのまんしょんないでこーとーぶをじゅーげきされた。	NO_LABEL
伊藤寿永光をイトマンに紹介したのが名古屋支店であったため、イトマン事件に関連する事件ではないかと報道された。	いとーすえみつをいとまんにしょーかいしたのがなごやしてんであったため、いとまんじけんにかんれんするじけんでわないかとほーどーされた。	NO_LABEL
1997年に、「最後のバンカー」と称される西川善文が頭取に就任する。	NO_PRONOUNCE	NO_LABEL
不良債権処理に伴い、海外拠点も縮小を余儀なくされ、1925年以来、第二次大戦を除き業況を拡大していた加州住友銀行は、1998年にZions Bancorpに売却し、1999年にはゴッタルド銀行も売却している。	NO_PRONOUNCE	NO_LABEL
1999年10月、住友銀行はさくら銀行との合併を発表する。	せんきゅうひゃくきゅうじゅうきゅうねんじゅーがつ、すみともぎんこーわさくらぎんこーとのがっぺいをはっぴょーする。	NO_LABEL
当時、さくら銀行は、不良債権処理に伴う株式含み益の大幅な減少や株価の低迷が続き、大きな負債を抱え経営危機に陥っており、経営の抜本改革を模索していた。	とーじ、さくらぎんこーわ、ふりょーさいけんしょりにともなうかぶしきふくみえきのおーはばなげんしょーやかぶかのていめいがつずき、おーきなふさいをかかえけいえいききにおちいっており、けいえいのばっぽんかいかくをもさくしていた。	NO_LABEL
一方、住友銀行は、バブルや失われた10年でも発生した不良債権の処理問題や、財務体質は強い ものの、企業・個人の顧客増が伸び悩み今後の収益の大幅な向上策を探っていたこと、また資産規模や収益で他を圧倒する東京三菱銀行との格差が大きく首都圏の顧客基盤は比較的弱いという悩みを抱えていた。	NO_PRONOUNCE	NO_LABEL
こうした両者の思惑が、300年間にわたる財閥の垣根を超えた合併を実現させたのである。	こーしたりょーしゃのおもわくが、さんびゃくねんかんにわたるざいばつのかきねをこえたがっぺいをじつげんさせたのである。	NO_LABEL
もっとも、当時の一般的な反応は、「住友銀行によるさくら銀行の救済」という捉え方であり、合併発表の記者会見では、「さくら銀は経営的に弱い銀行と見られていた。	NO_PRONOUNCE	NO_LABEL
なぜ、住友銀は救済する必要があったのか」との質問が出た。	NO_PRONOUNCE	NO_LABEL
これに対して、西川は「その意見には全く同意できない。	NO_PRONOUNCE	NO_LABEL
決して危ない銀行ではない。	けっしてあぶないぎんこーでわない。	NO_LABEL
今回の提携は救いの手をさしのべるというものでは絶対にない。	こんかいのていけいわすくいのてをさしのべるとゆうものでわぜったいにない。	NO_LABEL
救済という考えで提携するものではない。	きゅーさいとゆうかんがえでていけいするものでわない。	NO_LABEL
無責任なものの言い方には憤りを感じる」と回答している。	NO_PRONOUNCE	NO_LABEL
そして2001年4月1日、さくら銀行を合併し三井住友銀行となった。	そしてにせんいちねんしがつついたち、さくらぎんこーをがっぺいしみついすみともぎんこーとなった。	NO_LABEL
