三重県道22号伊勢南島線は、三重県伊勢市から南伊勢町に至る主要地方道である。	みえけんどーにじゅうにごーいせなんとーせんわ、みえけんいせしからみなみいせちょーにいたるしゅよーちほーどーである。	NO_LABEL
伊勢市と南伊勢町を結ぶ幹線道路である。	いせしとみなみいせちょーをむすぶかんせんどーろである。	NO_LABEL
大部分を三重交通の路線バスが通過する。	だいぶぶんをみえこーつーのろせんばすがつーかする。	NO_LABEL
2016年4月1日現在。	にせんじゅうろくねんしがつついたちげんざい。	NO_LABEL
伊勢市	いせし	NO_LABEL
度会町・南伊勢町	NO_PRONOUNCE	NO_LABEL
新野見坂トンネルのすぐ南にある。	にいのみざかとんねるのすぐみなみにある。	NO_LABEL
伊勢市	いせし	NO_LABEL
度会町	わたらいぐん	NO_LABEL
かつて南島街道と呼ばれていた道路であり、1888年3月に三重県庁へ工事の県費補助の申請が出され、道路に対して2894円55銭、橋梁に対して11円98銭2厘の補助を得て、1890年に宇治山田吉津線として工事は竣工した。	NO_PRONOUNCE	NO_LABEL
1901年になると、野見坂に隧道を通そうとする計画が持ち上がる。	せんきゅうひゃくいちねんになると、のみざかにずいどーをとーそうとするけいかくがもちあがる。	NO_LABEL
この時、地元ではトンネルの建設費を開通後、トンネルに通行税をかけてまかなおうとしたが、三重県から認められず、トンネル計画は頓挫してしまう。	このとき、じもとでわとんねるのけんせつひをかいつーご、とんねるにつーこーぜいをかけてまかなおうとしたが、みえけんからみとめられず、とんねるけいかくわとんざしてしまう。	NO_LABEL
1920年には三重県議会で「30ヶ年道路改良計画」に野見坂隧道が含められることになったが、これも実際の着工を見なかった。	NO_PRONOUNCE	NO_LABEL
事業は、御木本幸吉が5,000円を寄付したことによって動き出す。	NO_PRONOUNCE	NO_LABEL
この5,000円を原資に三重県へ働きかけ、1926年9月13日にようやく起工した。	NO_PRONOUNCE	NO_LABEL
工事は鹿町組が施工し、工費30余万円をもって1928年7月に野見坂隧道は開通した。	NO_PRONOUNCE	NO_LABEL
この出来事を『南島町史』は「南島町の夜明けに等しい」と記述している。	NO_PRONOUNCE	NO_LABEL
1959年1月25日に三重県道51号宇治山田吉津線が廃止される代わりに、三重県道108号伊勢南島線が指定され、2007年3月30日に三重県道22号伊勢南島線に改めることが公表された。	NO_PRONOUNCE	NO_LABEL
