「宙よ」は、2007年8月8日にリリースされた布施明のシングル。	NO_PRONOUNCE	NO_LABEL
発売・販売元はユニバーサル・ミュージック。	NO_PRONOUNCE	NO_LABEL
「宙よ」は、2007年から日本で放送された韓国ドラマ『朱蒙 -チュモン- Prince of the Legend』の主題歌。	NO_PRONOUNCE	NO_LABEL
この楽曲の詞はハングルで書かれたものを、布施自身が一かけて訳したものである。	このがっきょくのことばわはんぐるでかかれたものを、ふせじしんがいちかけてやくしたものである。	NO_LABEL
カップリング曲「この手のひらほどの倖せ」は、2005年に行われた春のコンサートで布施が朗読し、その後、パンフレットに掲載されていたものを書籍化された本の内容をテーマに布施自身が作詞・作曲をした楽曲。	NO_PRONOUNCE	NO_LABEL
この楽曲は、2007年5月にフジテレビで放送されている深夜番組『超V.I.P.』で、『朱蒙』の放送決定と予告、楽曲の起用などの情報とともに発売が先行的に発表された。	NO_PRONOUNCE	NO_LABEL
なお、この番組でパーソナリティーを務める中川翔子は『仮面ライダー響鬼』、主題歌『少年よ』『始まりの君へ』を通した布施のファンであり、それを聞いた布施は番組にVTRで出演しメッセージを送った。	NO_PRONOUNCE	NO_LABEL
なお、「宙よ」は同番組のエンディングテーマにたびたび起用された。	NO_PRONOUNCE	NO_LABEL
