花屋の政、および鍛冶屋の政は、必殺シリーズに登場した仕事人の一人。	はなやのまさ、およびかじやのせいわ、ひっさつしりーずにとーじょーしたしごとにんのひとり。	NO_LABEL
初登場作品は『必殺仕事人V』。	NO_PRONOUNCE	NO_LABEL
村上弘明が演じた。	むらかみひろあきがえんじた。	NO_LABEL
当初の表の稼業は花屋。	とーしょのひょーのかぎょーわはなや。	NO_LABEL
後に鍛冶屋に転職する。	ごにかじやにてんしょくする。	NO_LABEL
初登場時の設定年齢は24歳。	はつとーじょーじのせっていねんれいわにじゅうよんさい。	NO_LABEL
佐渡島の出身。	さどしまのしゅっしん。	NO_LABEL
幼い頃の名は政吉。	おさないころのなわまさよし。	NO_LABEL
父の政吉も仕事人であったが、政の少年時代に、役人の手で処刑された。	ちちのまさよしもしごとじんであったが、せいのしょーねんじだいに、やくにんのてでしょけいされた。	NO_LABEL
以後、生け花の師匠で、女仕事人のお京の元で育てられた。	いご、いけばなのししょーで、おんなしごとじんのおきょーのもとでそだてられた。	NO_LABEL
後に、実はお京が父を役人に売り飛ばしたと知った政は過去との決別のため、お京を自ら葬った。	ごに、じつわおきょーがちちをやくにんにうりとばしたとしったせいわかことのけつべつのため、おきょーをみずからほーむった。	NO_LABEL
女スリから、財布に名前と住所を書いた木札を付けている理由を聞かれた際に「子供の頃の自分がよく落し物をする所為で、母親が付けてくれたが、その母親も自分が殺してしまった」と話しており、お京のことが心の傷となって残っていることを窺わせる。	NO_PRONOUNCE	NO_LABEL
時代劇の登場人物としては珍しく髷を結っていないが、必殺シリーズでは髷を結わないキャラクターは若手の殺し屋の定番であり、仕事人シリーズでは当初、飾り職人の秀がこのポジションであったが、『必殺仕事人V』より、政が引き継いだ。	NO_PRONOUNCE	NO_LABEL
当時の村上弘明は時代劇を敬遠しており、政役としてオファーがあった際は「髷は結わなくていいから」と説得されたという。	NO_PRONOUNCE	NO_LABEL
なお、秀とキャラクターが被るため、同時出演の際はどちらかのイメージが変えられることになる。	なお、しゅーときゃらくたーがこーむるため、どーじしゅつえんのさいわどちらかのいめーじがかえられることになる。	NO_LABEL
そのため、映画『必殺4 恨みはらします』『必殺!5 黄金の血』での政は髷を結っている。	NO_PRONOUNCE	NO_LABEL
殺し技は当初、折り割った花の枝で悪人の延髄を刺していた。	ころしわざわとーしょ、おりわったはなのえだであくにんのえんずいをさしていた。	NO_LABEL
企画の段階では花の枝を悪人の脳天に刺す予定だったが、頭頂部に花が刺さった悪人の姿はあまりに滑稽すぎるために変更された。	きかくのだんかいでわはなのえだをあくにんののーてんにさすよていだったが、とーちょーぶにはながささったあくにんのすがたわあまりにこっけいすぎるためにへんこーされた。	NO_LABEL
『必殺仕事人V激闘編』で鍛冶屋に転職した後は『必殺仕置人』の棺桶の錠が使っていたものと似た、柄が木製の組換式手槍に持ち替えた。	NO_PRONOUNCE	NO_LABEL
作中の描写では、「自分の柄ではないので、辞めた」と本人が語っており、鍛冶屋に転職するとともに技を変えた。	NO_PRONOUNCE	NO_LABEL
金銭には煩い方ではないが、『激闘編』で、はぐれ仕事人の壱が高い助っ人料を取ることに関連して、何でも屋の加代が「政は金に煩くなく助かる」と発言した際、激昂しながら「俺だって金は欲しいよ！」と本音を吐き捨てている。	NO_PRONOUNCE	NO_LABEL
登場初期は若さ故に感情的に暴走しがちな熱血漢で、秀と比較されがちだったが、徐々に角が取れ、中村主水にとって、念仏の鉄、秀に次ぐ強力な仕事人仲間となった。	とーじょーしょきわわかさゆえにかんじょーてきにぼーそーしがちなねっけつかんで、しゅーとひかくされがちだったが、じょじょにかくがとれ、なかむらもんどにとって、ねんぶつのてつ、しゅーにつぐきょーりょくなしごとにんなかまとなった。	NO_LABEL
登場期間が長いため、主水とも打ち解け、主水が家に出入りするのも煙たがらず、仕事のための旅の道中では、親子のような気軽なやり取りを見せている。	とーじょーきかんがながいため、もんどともうちとけ、もんどがいえにでいりするのもけむたがらず、しごとのためのたびのどーちゅーでわ、おやこのよーなきがるなやりとりをみせている。	NO_LABEL
住居は最初、加代と同じ神田の大黒長屋だったが、『激闘編』から『風雲竜虎編』までは、金杉町源兵衛長屋に転居。	NO_PRONOUNCE	NO_LABEL
スペシャル『必殺ワイド・新春 久しぶり!主水、夢の初仕事 悪人チェック!!』では、神田に再び戻った。	NO_PRONOUNCE	NO_LABEL
必殺スペシャル時期には主水との付き合いが加代に次いで長い仲間となり、多くの戦いを経て『必殺スペシャル・新春 大暴れ仕事人! 横浜異人屋敷の決闘』を最後に、主水と組んでの裏稼業を離れた。	NO_PRONOUNCE	NO_LABEL
恋愛経験も多かったが、その多くが悲恋に終わった。	れんあいけいけんもおーかったが、そのおーくがひれんにおわった。	NO_LABEL
映画「必殺!5 黄金の血」では、霊感少女のお浅のために裏稼業から足を洗っていたが、お浅が地獄組に殺害され、彼女の恨みを晴らそうと憤るが、秀に「自分の血は自分で汚すな。	NO_PRONOUNCE	NO_LABEL
お浅を弔うのが、お前のやるべきことだ」と諭される。	NO_PRONOUNCE	NO_LABEL
最終決戦で、地獄組頭領の赤目の繰り出す蝙蝠の不意打ちから秀を救うが、その代償で赤目と刺し違え、致命傷を負う。	さいしゅーけっせんで、じごくぐみとーりょーのあかめのくりだすこーもりのふいうちからしゅーをすくうが、そのだいしょーであかめとさしちがえ、ちめいしょーをおう。	NO_LABEL
外道を葬った後に秀に看取られつつ、主水への別れの言葉を託し、息を引き取った。	げどーをほーむったのちにしゅーにみとられつつ、もんどえのわかれのことばをたくし、いきをひきとった。	NO_LABEL
この映画に関して、村上は「元仕事人で、そして最期は仕事人に戻って死んで行く…」と、自分が演じた役として納得していたようである。	NO_PRONOUNCE	NO_LABEL
この仕事の前に、政は秀に手槍を預けているが、最後の戦いで、政は手槍を使っている。	このしごとのまえに、せいわしゅーにてやりをあずけているが、さいごのたたかいで、せいわてやりをつかっている。	NO_LABEL
これは、最後の仕事の直前に秀が政に手槍を返すシーンが予定されていたものの、完成した作品ではそのシーンがカットされたためである。	これわ、さいごのしごとのちょくぜんにしゅーがせいにてやりをかえすしーんがよていされていたものの、かんせいしたさくひんでわそのしーんがかっとされたためである。	NO_LABEL
必殺シリーズ恒例の舞台『納涼必殺まつり』で初登場。	NO_PRONOUNCE	NO_LABEL
同時に登場した組紐屋の竜とともに、秀と勇次のコンビを引き継ぐ形で女性視聴者からの人気を獲得し、1980年代後半の第二次仕事人ブームを支える原動力となった。	どーじにとーじょーしたくみひもやのりゅーとともに、しゅーとゆーじのこんびをひきつぐかたちでじょせいしちょーしゃからのにんきをかくとくし、せんきゅうひゃくはちじゅうねんだいこーはんのだいにじしごとにんぶーむをささえるげんどーりょくとなった。	NO_LABEL
『必殺仕事人V・激闘編』の前夜祭として特番が放映され、主要出演者の『夢の必殺』が紹介された際、政はターザンのスタイルで密猟者を仕留めるという趣向であった。	NO_PRONOUNCE	NO_LABEL
番組内では村上の希望と言うことになっており、藤田まことから「あれの方がいいじゃない?」言われた村上は「考えておきます」と少し本気の様子を見せた。	NO_PRONOUNCE	NO_LABEL
