ティショフツェ連盟は1655年12月29日、大ヘトマンのスタニスワフ・レヴェラ・ポトツキと野戦ヘトマンのによってで締結された連盟。	NO_PRONOUNCE	NO_LABEL
スウェーデンからポーランド兵への給料支払いが滯っていたため、スタニスワフ・レヴェラ・ポトツキはカール10世への宣誓を破って、ティショフツェでポーランド貴族の反スウェーデン連盟を結成した。	NO_PRONOUNCE	NO_LABEL
ポーランド王ヤン2世カジミェシュもシレジアからプロパガンダを発し、クリミア・タタールを雇った。	NO_PRONOUNCE	NO_LABEL
でスウェーデン軍に撤退を強いたことで反スウェーデン陣営に自信がつき、さらにスウェーデン軍とロシア軍がリトアニアに圧政を敷いて平民反乱を引き起こしたことでスウェーデン軍は1659年から1660年にかけてリトアニアのヘトマンであるヴィンツェンティ・コルヴィン・ゴシェフスキに追い出された。	NO_PRONOUNCE	NO_LABEL
