山家藩は、丹波国何鹿郡山家周辺を領有した藩。	やまがはんわ、たんばのくにいかるがぐんやまがしゅーへんをりょーゆーしたはん。	NO_LABEL
藩庁は山家陣屋。	はんちょーわやまがじんや。	NO_LABEL
藩主家の谷家は公家の園家を通して皇室との縁が深く、現皇室にも谷家の血が入っている。	はんしゅかのたにやわくげのそのやをとーしてこーしつとのえんがふかく、げんこーしつにもたにやのちがはいっている。	NO_LABEL
藩祖・谷衛友は織田信長・豊臣秀吉に仕え、丹波国山家にて1万6000石を領した。	NO_PRONOUNCE	NO_LABEL
慶長5年の関ヶ原の戦いの際、衛友は西軍に属して小野木重勝らと行動を共にし、東軍に与した細川藤孝の丹後国田辺城を包囲する。	けいちょーごねんのせきがはらのたたかいのさい、まもるともわせいぐんにぞくしておのぎしげかつらとこーどーをともにし、とうぐんにくみしたほそかわふじたかのたんごのくにたなべじょーをほーいする。	NO_LABEL
しかし、西軍に属したのは本意でなかったため、歌道の師匠でもあった藤孝に内々に通じており、そのため、戦後は徳川家康から所領を安堵されている。	しかし、せいぐんにぞくしたのわほんいでなかったため、かどーのししょーでもあったふじたかにうちうちにつーじており、そのため、せんごわとくがわいえやすからしょりょーをあんどされている。	NO_LABEL
山家藩は、明治時代まで谷氏13代の支配が続いた。	やまがはんわ、めいじじだいまでたにはざましじゅうさんだいのしはいがつずいた。	NO_LABEL
しかし2代衛政の代に、弟の衛冬に1,500石、甥の衛之に2,500石、衛清に2,000石を徳川将軍家に直属する旗本家として分知したため、以後、藩の石高は1万石となった。	NO_PRONOUNCE	NO_LABEL
山家は山地が多く、稲作に適していなかったため、林業や特産品である黒谷和紙が藩財政を支えた。	やまがわさんちがおーく、いなさくにてきしていなかったため、りんぎょーやとくさんひんであるくろたにわしがはんざいせいをささえた。	NO_LABEL
明治維新期の動乱においては、いち早く官軍方に恭順を示した。	めいじいしんきのどーらんにおいてわ、いちはやくかんぐんかたにきょーじゅんをしめした。	NO_LABEL
明治4年、廃藩置県により山家県となり、京都府に編入された。	めいじよねん、はいはんちけんによりやまえけんとなり、きょーとふにへんにゅーされた。	NO_LABEL
明治2年藩主家は華族に列し、明治17年に子爵となった。	めいじにねんはんしゅかわかぞくにれっし、めいじじゅうしちねんにししゃくとなった。	NO_LABEL
外様、1万6000石→1万石	NO_PRONOUNCE	NO_LABEL
