『アステラス製薬 明日も元気!』は、TBSラジオをキーステーションにJRN系列3局で月 - 金曜日の午後に放送されていた健康情報番組である。	NO_PRONOUNCE	NO_LABEL
提供はアステラス製薬。	ていきょーわあすてらすせいやく。	NO_LABEL
1996年4月放送開始。	せんきゅうひゃくきゅうじゅうろくねんしがつほーそーかいし。	NO_LABEL
2017年3月末で放送を終了した。	にせんじゅうななねんさんがつまつでほーそーをしゅーりょーした。	NO_LABEL
週替わりでテーマを設け、気になる病気や健康についての正しい知識、役立つ情報を、質問するパーソナリティとそれに応答する医師の対話形式で伝える。	しゅーがわりでてーまをもーけ、きになるびょーきやけんこーについてのただしいちしき、やくだつじょーほーを、しつもんするぱーそなりてぃとそれにおーとーするいしのたいわけいしきでつたえる。	NO_LABEL
なお、毎週金曜日はその週のテーマについてリスナーから募集した質問に医師が回答する。	なお、まいしゅーきんよーびわそのしゅーのてーまについてりすなーからぼしゅーしたしつもんにいしがかいとーする。	NO_LABEL
全て月曜 - 金曜の放送。	NO_PRONOUNCE	NO_LABEL
放送時間の早い順から記載。	ほーそーじかんのはやいじゅんからきさい。	NO_LABEL
