SHINPEIは、日本のギタリスト、シンガーソングライターであり、BREAKERZのギタリストである。	しんぺいわ、にっぽんのぎたりすと、しんがーそんぐらいたーであり、ぶれいかーずのぎたりすとである。	NO_LABEL
本名は井上 慎平。	ほんみょーわいのうえしんぺい。	NO_LABEL
愛称は、シンピー。	あいしょーわ、しんぴー。	NO_LABEL
京都府出身。	きょーとふしゅっしん。	NO_LABEL
所属芸能事務所はZAIN ARTISTS。	しょぞくげいのーじむしょわずぁいんあーてぃすつ。	NO_LABEL
所属レコード会社はビーイング、所属レーベルはZAIN RECORDS 。	しょぞくれこーどがいしゃわびーいんぐ、しょぞくれーべるわずぁいんれこーど。	NO_LABEL
