ハプテンとは免疫原性を欠き、反応原性のみをもつ抗原。	はぷてんとわめんえきげんせいをかき、はんのーげんせいのみをもつこーげん。	NO_LABEL
つまり、特異抗体と反応はするが、抗体やリンパ球の増殖や分化を誘導しない性質をもつ物質。	つまり、とくいこーたいとはんのーわするが、こーたいやりんぱきゅーのぞーしょくやぶんかをゆーどーしないせいしつをもつぶっしつ。	NO_LABEL
不完全抗原とも呼ばれる。	ふかんぜんこーげんともよばれる。	NO_LABEL
脂質や核酸などの分子量数百以下の低分子。	ししつやかくさんなどのぶんしりょーすーひゃくいかのていぶんし。	NO_LABEL
ハプテンは高分子のキャリアータンパク質と結合することにより免疫原性をもつようになる。	はぷてんわこーぶんしのきゃりあーたんぱくしつとけつごーすることによりめんえきげんせいをもつよーになる。	NO_LABEL
薬物アレルギーはハプテンである薬剤が細胞質に結合し、免疫原性をもつことによって生じる。	やくぶつあれるぎーわはぷてんであるやくざいがさいぼーしつにけつごーし、めんえきげんせいをもつことによってしょーじる。	NO_LABEL
