宗願寺は、茨城県古河市中央町にある浄土真宗本願寺派の寺院。	そうがんじわ、いばらきけんこがしちゅーおーちょーにあるじょーどしんしゅーほんがんじはのじいん。	NO_LABEL
山号を足立山、院号を野田院という。	さんごーをあだちやま、いんごーをのだいんという。	NO_LABEL
鎌倉時代の建保5年、親鸞二十四輩の一人・西念が開山。	NO_PRONOUNCE	NO_LABEL
はじめは武蔵国足立郡野田にあったが戦火で焼失し、慶長2年、了念が現在地に再興した。	はじめわむさしのくにあだちぐんのだにあったがせんかでしょーしつし、けいちょーにねん、りょーねんがげんざいちにさいこーした。	NO_LABEL
明治44年2月、田中正造が請願書執筆のために宿泊。	めいじよんじゅうよねんにがつ、たなかしょうぞーがせいがんしょしっぴつのためにしゅくはく。	NO_LABEL
当時の古河町には数多くの支援者がいたが、この寺の住職・井上宗観もその一人であった。	NO_PRONOUNCE	NO_LABEL
昭和52年10月に死去した小説家および文学研究者の和田芳恵の墓碑があり、「静、寂」と刻まれている。	NO_PRONOUNCE	NO_LABEL
和田芳恵はこの寺で読売文学賞受賞作の「接木の台」や自伝抄を執筆した。	NO_PRONOUNCE	NO_LABEL
