尾添川は、石川県白山市を流れる手取川水系の川。	おぞがわわ、いしかわけんはくさんしをながれるてどりがわのかわ。	NO_LABEL
岩底谷川との合流地点から手取川合流地点まで一級河川の指定区間となっている。	いわそこたにがわとのごーりゅーちてんからてどりがわごーりゅーちてんまでいっきゅーかせんのしていくかんとなっている。	NO_LABEL
石川県白山市の南東部に源を発し北西に流れる。	いしかわけんはくさんしのなんとーぶにみなもとをはっしほくせいにながれる。	NO_LABEL
上流部は蛇谷川と呼ばれる。	じょーりゅーぶわじゃだにがわとよばれる。	NO_LABEL
白山国立公園の山間部を流れ、多くの渓流を集めて白山市瀬戸付近で手取川に合流する。	はくさんこくりつこーえんのさんかんぶをながれ、おーくのけいりゅーをあつめてはくさんしせとふきんでてどりがわにごーりゅーする。	NO_LABEL
流域には多くの滝があり、特に増水する春の雪融け時に見頃となる。	りゅーいきにわおーくのたきがあり、とくにぞーすいするはるのゆきとけじにみごろとなる。	NO_LABEL
川沿いに国道360号・白山白川郷ホワイトロードが走っており、多くの観光客を集める。	NO_PRONOUNCE	NO_LABEL
尾添川沿いから見える滝を上流から順に記載。	おぞがわぞいからみえるたきをじょーりゅーからじゅんにきさい。	NO_LABEL
