鈴谷 まやは日本の女性声優。	すずやまやわにっぽんのじょせいせいゆー。	NO_LABEL
フリー。	ふりー。	NO_LABEL
以前はアトリエピーチに所属していた。	いぜんわあとりえぴーちにしょぞくしていた。	NO_LABEL
石川県出身。	いしかわけんしゅっしん。	NO_LABEL
主にアダルトゲームに声をあてている。	おもにあだるとげーむにこえをあてている。	NO_LABEL
もともと美少女ゲームが好きで、将来の仕事を考えた時に、好きな美少女ゲームに関われる仕事として声優を選んだ。	もともとびしょーじょげーむがすきで、しょーらいのしごとをかんがえたときに、すきなびしょーじょげーむにかかわれるしごととしてせいゆーをえらんだ。	NO_LABEL
前所属事務所であるアトリエピーチにボイスサンプルを送って入社したが、養成所では同期が経験者ばかりで全然追いつけず、周囲の何倍も猛練習した。	ぜんしょぞくじむしょであるあとりえぴーちにぼいすさんぷるをおくってにゅーしゃしたが、よーせいしょでわどーきがけいけんしゃばかりでぜんぜんおいつけず、しゅーいのなんばいももーれんしゅーした。	NO_LABEL
アトリエピーチの養成所「桃塾」には1期生として入塾した。	NO_PRONOUNCE	NO_LABEL
同期生には藍川珪、ひうらまさこ、霧島はるながいる。	どーきせいにわあいかわけい、ひうらまさこ、きりしまはるながいる。	NO_LABEL
デビュー作は、モブでは2009年発売の『紫電〜円環の絆〜』。	NO_PRONOUNCE	NO_LABEL
名前付きの役は2010年発売の『ク・リトル・リトル 〜魔女の使役る、蟲神の触手〜』。	NO_PRONOUNCE	NO_LABEL
本編ではエッチシーンが無かったが、ファンディスク『ク・リトル・リトル 〜グレートハンティング〜』で陵辱シーンがあり、すごいインパクトだったという。	NO_PRONOUNCE	NO_LABEL
『恋愛0キロメートル』では、作品の面白さを壊さないようにと、一人でカラオケにこもって演じ方を考え抜いた。	NO_PRONOUNCE	NO_LABEL
『パステルチャイム3 バインドシーカー』では、アリスソフト作品に出演するのが一つの目標だったため、オーディション合格を知らされた時には涙が出たと語っている。	NO_PRONOUNCE	NO_LABEL
芸名は事務所の社長が付けたものだが、後で自身で調べて「鈴谷」も「まや」も軍艦の名前だと知り、社長に由来を確認したが「教えられない」とはぐらかされてしまった。	NO_PRONOUNCE	NO_LABEL
デビュー時より所属したアトリエピーチを2015年11月1日をもって退所、以後はフリーとして活動。	でびゅーじよりしょぞくしたあとりえぴーちをにせんじゅうごねんじゅーいちがつついたちをもってしさところ、いごわふりーとしてかつどー。	NO_LABEL
太字は主役・メインキャラクター	NO_PRONOUNCE	NO_LABEL
