中村喬は、中国文化史学者、立命館大学名誉教授。	なかむらたかしわ、ちゅーごくぶんかしがくしゃ、りつめいかんだいがくめいよきょーじゅ。	NO_LABEL
青木正児の四男として仙台市に生まれる。	あおきまさるのよんおとことしてせんだいしにうまれる。	NO_LABEL
中村家へ養子に入る。	なかむらかえよーしにはいる。	NO_LABEL
立命館大大学院東洋文学思想専攻博士課程中退。	りつめいかんだいだいがくいんとーよーぶんがくしそーせんこーはかせかていちゅーたい。	NO_LABEL
1994年「中国歳時史の研究」で立命館大文学博士。	NO_PRONOUNCE	NO_LABEL
立命館大文学部助教授、教授、2007年定年退任、名誉教授。	りつめいかんだいぶんがくぶじょきょーじゅ、きょーじゅ、にせんななねんていねんたいにん、めいよきょーじゅ。	NO_LABEL
