「暁のパラダイス・ロード」は、1983年3月21日に発売された、ALFEE15枚目のシングル、およびそこに収録される楽曲。	NO_PRONOUNCE	NO_LABEL
ジャケットは東京湾13号埋め立て地で撮影された。	じゃけっとわとーきょーわんじゅうさんごーうめたてちでさつえいされた。	NO_LABEL
後に10万人コンサートを開催した場所である。	ごにじゅうまんにんこんさーとをかいさいしたばしょである。	NO_LABEL
オリコンチャートは初登場の時点では50位だったが、その後順位を上げ、最終的には17位まで上り詰めた。	おりこんちゃーとわはつとーじょーのじてんでわごじゅういだったが、そのごじゅんいをあげ、さいしゅーてきにわじゅうなないまでのぼりつめた。	NO_LABEL
高見沢は著書の中で「これはヒットすると思ったが、結局17位になったのを最後に売り上げは落ちていった」と語っている。	NO_PRONOUNCE	NO_LABEL
オリジナルアルバムへは未収録であり、「通り雨」以来4作振りのこと。	NO_PRONOUNCE	NO_LABEL
「SUNSET SUMMER」以来2作振りに桜井がメインヴォーカルを務める。	NO_PRONOUNCE	NO_LABEL
発売当時、初の武道館公演が発表された直後であるため、武道館ライブのチケット申込用紙が封入されていた。	はつばいとーじ、はつのぶどーかんこーえんがはっぴょーされたちょくごであるため、ぶどーかんらいぶのちけっともーしこみよーしがふーにゅーされていた。	NO_LABEL
シングルの表ジャケットにてグループ名が片仮名表記の『アルフィー』と表記されるのは、本作を以って途切れる』では『ジ・アルフィー』と表記されている)。	NO_PRONOUNCE	NO_LABEL
全作詞・作曲：高見沢俊彦	NO_PRONOUNCE	NO_LABEL
