ハビタット評価認証制度は、日本生態系協会が2008年12月に創設した、生物多様性の保全や回復に資する取り組みを評価、認証する制度。	はびたっとひょーかにんしょーせいどわ、にっぽんせいたいけいきょーかいがにせんはちねんじゅーにがつにそーせつした、せいぶつたよーせいのほぜんやかいふくにしするとりくみをひょーか、にんしょーするせいど。	NO_LABEL
アメリカ合衆国内務省により開発されたハビタット評価手続きを応用して、日本で新たに構築された制度。	あめりかがっしゅーこくないむしょーによりかいはつされたはびたっとひょーかてつずきをおーよーして、にっぽんであらたにこーちくされたせいど。	NO_LABEL
「動物評価種のすみやすさ」と「みどりの地域らしさ」の観点から、生態系や生物多様性の相対的な価値を客観的、定量的に評価する。	NO_PRONOUNCE	NO_LABEL
企業・団体・行政等による生物多様性の保全や回復に資する取り組みを評価し、12段階にランク付けすることで、生物多様性の保全に貢献する事業を普及させることを目的としている。	NO_PRONOUNCE	NO_LABEL
