ハーデャチは、ウクライナのポルターヴァ州ハーデャチ地区にある都市である。	NO_PRONOUNCE	NO_LABEL
プセール川河岸に位置する。	ぷせーるがわかわぎしにいちする。	NO_LABEL
1533年に集落として創建された。	せんごひゃくさんじゅうさんねんにしゅーらくとしてそーけんされた。	NO_LABEL
1634年に都市となり、自治権を賜った。	せんろっぴゃくさんじゅうよんねんにとしとなり、じちけんをたまわった。	NO_LABEL
1658年にコサック国家とポーランド・リトアニア共和国の間にハーデャチ条約が結ばれた。	せんろっぴゃくごじゅうはちねんにこさっくこっかとぽーらんどりとあにあきょーわこくのまにはーでゃちじょーやくがむすばれた。	NO_LABEL
17世紀から18世紀末まで、コサック国家ハーデャチ連隊の連隊庁所在地であった。	じゅうしちせいきからじゅうはっせいきまつまで、こさっくこっかはーでゃちれんたいのれんたいちょーしょざいちであった。	NO_LABEL
面積は約17.78km。	NO_PRONOUNCE	NO_LABEL
人口は22,667 人。	NO_PRONOUNCE	NO_LABEL
