『銀座の踊子』は1950年2月7日に公開された日本映画。	NO_PRONOUNCE	NO_LABEL
製作は宝映プロダクション。	せいさくわたからうつぷろだくしょん。	NO_LABEL
配給は東宝。	はいきゅーわとーほー。	NO_LABEL
モノクロ、スタンダード。	ものくろ、すたんだーど。	NO_LABEL
真鍋八千代、俵藤丈夫を主体とする宝映プロダクションの第一作であり東宝自主再開の第一作品ともなるもの。	まなべやちよ、ひょうどーたけおをしゅたいとするたからうつぷろだくしょんのだいいちさくでありとーほーじしゅさいかいのだいいちさくひんともなるもの。	NO_LABEL
脚本は『右門捕物帖 謎の八十八夜』の八尋不二、監督田尻繁はPCL時代からの人で阿部豐、瀧澤英輔、山本嘉次郎らの助監を経て、この作品で一本立ちとなったもの。	NO_PRONOUNCE	NO_LABEL
撮影は『殿様ホテル』の曾田吉男、出演者では昨年東京新聞のニュー・フェイス・ノミネーションで合格した山本眞理江、日劇ダンシング・チームから荒川和子と大島由紀子、谷さゆりの四人が抜擢されたほか金子信雄、高原駿雄、渡辺篤、小夜福子、北沢彪などが加わる。	NO_PRONOUNCE	NO_LABEL
なお劇中レヴュー場面には灰田勝彦、笠置シヅ子、岸井明、益田隆、荻野幸久、あきれたぼういず、灰田晴彦とニュー・モアナ、後藤博とデキシー・ランダースなどのほか日劇ダンシング・チーム250名が出演する。	NO_PRONOUNCE	NO_LABEL
きらめく東京の不夜城日劇では今けんらんとレヴューが展開している。	NO_PRONOUNCE	NO_LABEL
ライン・ダンサーの瞳、マリ、由紀、光子は何れもソロ・ダンスの抜擢候補だったが、瞳はライン・ダンスに集団芸術の尊さを感じて演出助手笠原の奬める意見に反対であった。	NO_PRONOUNCE	NO_LABEL
しかし二人は愛し合っていた。	しかしふたりわあいしあっていた。	NO_LABEL
マリには戦前心を誓い合った永井という男がいたが彼は戦傷による発声障害と顔の傷痕のためにひがんで悪に走って密貿易団の一味に加わり、顔をマスクで隠してはマリに会いに来ていた。	まりにわせんぜんしんをちかいあったながいとゆうおとこがいたがかれわせんしょーによるはっせいしょーがいとかおのきずあとのためにひがんであくにはしってみつぼーえきだんのいちみにくわわり、かおをますくでかくしてわまりにかいーにきていた。	NO_LABEL
永井と同じ一味の大塚は永井の使いで度々マリを訪れている中に二人の仲は深くなった。	ながいとおなじいちみのおーつかわながいのつかいでたびたびまりをおとずれているなかにふたりのなかわふかくなった。	NO_LABEL
華やかな公演も楽日近く、次期公演の抜擢決定の日が来た。	はなやかなこーえんもらくびちかく、じきこーえんのばってきけっていのひがきた。	NO_LABEL
可憐な光子はふと傷めた脚の骨折から医師に引退を命ぜられた。	かれんなこーしわふといためたあしのこっせつからいしにいんたいをめいぜられた。	NO_LABEL
ソロ・ダンスは瞳と決まったが彼女はライン・ダンスの希望を捨てずにこれを断ったためにソロは秀才型の努力家由紀に決まった。	NO_PRONOUNCE	NO_LABEL
いよいよ初日の日、華やかなレヴューの開幕、マリと大塚に裏切られて復讐の鬼となった永井は拳銃を擬して二人に迫った。	NO_PRONOUNCE	NO_LABEL
轟音に騒然となる場内、追う永井、逃げる大塚、遂に警官隊に出動となった。	ごーおんにそーぜんとなるじょーない、おうながい、にげるおーつか、ついにけいかんたいにしゅつどーとなった。	NO_LABEL
興奮のうちに舞台はフィナーレが近付いて来る。	こーふんのうちにぶたいわふぃなーれがちかずいてくる。	NO_LABEL
……。	NO_PRONOUNCE	NO_LABEL
