銭唐県は中華人民共和国浙江省杭州市にかつて存在した県。	せんとーけんわちゅーかじんみんきょーわこくせっこーしょーこーしゅーしにかつてそんざいしたけん。	NO_LABEL
後に設置された銭塘県とは別の行政区画である。	ごにせっちされたせんとうけんとわべつのぎょーせいくかくである。	NO_LABEL
銭塘県は前222年に秦朝により会稽郡に設置された銭唐県である。	NO_PRONOUNCE	NO_LABEL
隋代には杭州が設置され、銭唐県に州治が設置された。	ずいだいにわこーしゅーがせっちされ、せんとーけんにしゆうじがせっちされた。	NO_LABEL
五代十国時代、呉越が杭州に建都すると、922年に銭唐県は銭塘県、塩官県に分割された。	ごだいじっこくじだい、ごえつがこーしゅーにけんとすると、きゅうひゃくにじゅうにねんにせんとーけんわせんとうけん、しおかんけんにぶんかつされた。	NO_LABEL
前222年、銭唐県が設置される。	ぜんにひゃくにじゅうにねん、せんとーけんがせっちされる。	NO_LABEL
922年、銭塘県及び塩官県に分割される。	きゅうひゃくにじゅうにねん、せんとうけんおよびしおかんけんにぶんかつされる。	NO_LABEL
