亀山 純生は、日本の哲学者、東京農工大学名誉教授。	かめやますみおわ、にっぽんのてつがくしゃ、とーきょーのーこーだいがくめいよきょーじゅ。	NO_LABEL
石川県生まれ。	いしかわけんうまれ。	NO_LABEL
1970年京都大学文学部哲学科卒、77年同大学院文学研究科博士課程単位取得退学。	せんきゅうひゃくななじゅうねんきょーとだいがくぶんがくぶてつがくかそつ、ななじゅうななねんどーだいがくいんぶんがくけんきゅーかはかせかていたんいしゅとくたいがく。	NO_LABEL
2004年「中世民衆思想と法然浄土教 〈歴史に埋め込まれた親鸞〉像への視座」で一橋大学博士。	NO_PRONOUNCE	NO_LABEL
審査員は平子友長、深澤英隆、若尾政希。	しんさいんわたいらこともなが、ふかさわひでたか、わかおまさき。	NO_LABEL
1983年東京農工大学工学部助教授、93年教授、95年農学部教授、農学研究院共生持続社会学部門教授。	せんきゅうひゃくはちじゅうさんねんとーきょーのーこーだいがくこーがくぶじょきょーじゅ、きゅうじゅうさんねんきょーじゅ、きゅうじゅうごねんのーがくぶきょーじゅ、のーがくけんきゅーいんきょーせいじぞくしゃかいがくぶもんきょーじゅ。	NO_LABEL
2013年定年退官、名誉教授。	にせんじゅうさんねんていねんたいかん、めいよきょーじゅ。	NO_LABEL
