レイ・ポーリックは、アメリカの競馬ジャーナリスト。	れいぽーりっくわ、あめりかのけいばじゃーなりすと。	NO_LABEL
アメリカの競馬専門誌「レーシングタイムズ」、デイリーレーシングフォーム、「サラブレッドタイムズ」の編集者を経たのち、1992年春から2007年秋までブラッド・ホースの編集長を務めた。	NO_PRONOUNCE	NO_LABEL
産経新聞社が発行する競馬専門誌『週刊Gallop』に連載を持つなど、日本においても競馬評論家として活動しており、しばしばブラッド・ホース誌上に日本関連の記事を寄稿することもあった。	NO_PRONOUNCE	NO_LABEL
