小林 正美- 1960年11月12日）は日本の政治家。	NO_PRONOUNCE	NO_LABEL
日本社会党衆議院議員。	にっぽんしゃかいとーしゅーぎーんぎーん。	NO_LABEL
三重県四日市市出身。	みえけんよっかいちししゅっしん。	NO_LABEL
衆議院議員の2期目を目指していた1960年の第29回衆議院議員総選挙中に急逝した。	しゅーぎーんぎーんのにきめをめざしていたせんきゅうひゃくろくじゅうねんのだいにじゅうきゅうかいしゅーぎーんぎーんそーせんきょちゅーにきゅーせいした。	NO_LABEL
