三ツ林 弥太郎は、日本の政治家。	みつばやしやたろーわ、にっぽんのせいじか。	NO_LABEL
埼玉県北葛飾郡幸手町出身。	さいたまけんきたかつしかぐんさってまちしゅっしん。	NO_LABEL
自由民主党衆議院議員、科学技術庁長官。	じゆーみんしゅとーしゅーぎーんぎーん、かがくぎじゅつちょーちょーかん。	NO_LABEL
埼玉県立杉戸農業学校、埼玉青年師範学校卒業。	さいたまけんりつすぎとのーぎょーがっこー、さいたませいねんしはんがっこーそつぎょー。	NO_LABEL
父は元幸手町長で元衆議院議員の三ッ林幸三。	ちちわもとさってちょーちょーでもとしゅーぎーんぎーんのさんっはやしこーぞー。	NO_LABEL
次男は自由民主党衆議院議員の三ッ林隆志。	じなんわじゆーみんしゅとーしゅーぎーんぎーんのさんっはやしたかし。	NO_LABEL
三男は同じく自由民主党衆議院議員の三ッ林裕巳。	さんなんわどうじくじゆーみんしゅとーしゅーぎーんぎーんのさんっはやしひろみ。	NO_LABEL
中選挙区時代は埼玉県第4区で小選挙区制導入後は埼玉県第14区を選挙区とした。	ちゅーせんきょくじだいわさいたまけんだいよんくでしょーせんきょくせいどーにゅーごわさいたまけんだいじゅうよんくをせんきょくとした。	NO_LABEL
