ネー()は、イタリア共和国リグーリア州ジェノヴァ県にある、人口約2,300人の基礎自治体。	NO_PRONOUNCE	NO_LABEL
隣接するコムーネは以下の通り。	りんせつするこむーねわいかのとーり。	NO_LABEL
括弧内のSPはラ・スペツィア県所属を示す。	かっこないのえすぴーわらすぺつぃあけんしょぞくをしめす。	NO_LABEL
ネーには以下の分離集落がある。	ねーにわいかのぶんりしゅーらくがある。	NO_LABEL
Arzeno, Botasi, Caminata, Castagnola, Chiesanuova, Frisolino, Graveglia, Nascio, Piandifieno, Pontori, Reppia, Sambuceto, Santa Lucia, Statale, Gaggia e Zerli	NO_PRONOUNCE	NO_LABEL
