ブルー・エンサインに配置し、残りの部分を青地にしたもの。	ぶるーえんさいんにはいちし、のこりのぶぶんをあおじにしたもの。	NO_LABEL
青地部分は無地のまま、あるいは紋章やその他のエンブレムが配置される場合がある。	あおちぶぶんわむじのまま、あるいわもんしょーやそのたのえんぶれむがはいちされるばあいがある。	NO_LABEL
ブルー・エンサインが登場して以来、イギリス国旗が変化するとともにブルー・エンサインも変化してきた。	ぶるーえんさいんがとーじょーしていらい、いぎりすこっきがへんかするとともにぶるーえんさいんもへんかしてきた。	NO_LABEL
1707年合同法によってスコットランドとイングランドおよびウェールズが合併し、グレートブリテン王国を形成した際、ブルー・エンサインも変更された。	せんななひゃくななねんごーどーほーによってすこっとらんどといんぐらんどおよびうぇーるずががっぺいし、ぐれーとぶりてんおーこくをけいせいしたさい、ぶるーえんさいんもへんこーされた。	NO_LABEL
1800年合同法にてアイルランドが加わった際には聖パトリキウス十字が追加され、それにより正式に1801年1月1日より現在のブルー・エンサインが導入された。	せんはっぴゃくねんごーどーほーにてあいるらんどがくわわったさいにわひじりぱとりきうすじゅーじがついかされ、それによりせいしきにせんはっぴゃくいちねんいちがつついたちよりげんざいのぶるーえんさいんがどーにゅーされた。	NO_LABEL
1864年のイギリス海軍の再編前は、無地のブルー・エンサインは海軍の三個艦隊のうちの一つ「青色艦隊」に使われていた。	NO_PRONOUNCE	NO_LABEL
1864年に枢密院令にて、レッド・エンサインは商船に、ブルー・エンサインは政府船もしくは海軍予備役船に、ホワイト・エンサインが海軍に割り当てられた。	せんはっぴゃくろくじゅうよねんにすーみついんれいにて、れっどえんさいんわしょーせんに、ぶるーえんさいんわせいふせんもしくわかいぐんよびえきせんに、ほわいとえんさいんがかいぐんにわりあてられた。	NO_LABEL
そのため1864年以降は、民間船でも下記の条件を満たすものだけが、レッド・エンサインではなく、無地のブルー・エンサインを使用することができる。	そのためせんはっぴゃくろくじゅうよねんいこーわ、みんかんせんでもかきのじょーけんをみたすものだけが、れっどえんさいんでわなく、むじのぶるーえんさいんをしよーすることができる。	NO_LABEL
一つ目は海軍軍人が船長及び一定人数の船員に含まれている商船。	ひとつめわかいぐんぐんじんがせんちょーおよびいっていにんずーのせんいんにふくまれているしょーせん。	NO_LABEL
二つ目は、長い歴史を持つイギリスのヨットクラブに所属するヨット。	ふたつめわ、ながいれきしをもついぎりすのよっとくらぶにしょぞくするよっと。	NO_LABEL
後者に関しては、第一次世界大戦と第二次世界大戦の最中はそれぞれ許可が中断された。	こーしゃにかんしてわ、だいいちじせかいたいせんとだいにじせかいたいせんのさいちゅーわそれぞれきょかがちゅーだんされた。	NO_LABEL
1864年以降、ブルー・エンサインは下記の用途に紋章付きで使用されている。	せんはっぴゃくろくじゅうよねんいこー、ぶるーえんさいんわかきのよーとにもんしょーつきでしよーされている。	NO_LABEL
かつては、下記の用途でも使用されていた。	かつてわ、かきのよーとでもしよーされていた。	NO_LABEL
また、それ以外にも独立前にこの商船用旗を使用した国・地域が非常に多い。	NO_PRONOUNCE	NO_LABEL
他多数	たたすー	NO_LABEL
