微分の記法とは、数学における微分を記号的に表記するための方法である。	びぶんのきほーとわ、すーがくにおけるびぶんをきごーてきにひょーきするためのほーほーである。	NO_LABEL
現在、数学関数や従属変数の微分を表す微分の記法として画一化・統一されたものはなく、複数の数学者によって異なる記法が提案されている。	NO_PRONOUNCE	NO_LABEL
それぞれの記法の有用性はその使用される分野・文脈・状況によって変化し、与えられた文脈によって複数の記法を使い分けることもしばしば有効である。	NO_PRONOUNCE	NO_LABEL
本項では比較的使用頻度が高い微分の記法を示す。	ほんこーでわひかくてきしよーひんどがたかいびぶんのきほーをしめす。	NO_LABEL
ゴットフリート・ライプニッツにより採用されたライプニッツの記法は数学分野で広く使用されている。	ごっとふりーとらいぷにっつによりさいよーされたらいぷにっつのきほーわすーがくぶんやでひろくしよーされている。	NO_LABEL
この記法は特に関数 が従属変数 と独立変数 の関数関係を表すものとみるときに用いられる。	このきほーわとくにかんすーがじゅーぞくへんすーとどくりつへんすーのかんすーかんけいをあらわすものとみるときにもちいられる。	NO_LABEL
この場合、導関数は	このばあい、どうかんすーわ	NO_LABEL
のように書かれ、"d y d x"と読むのが一般的である。	NO_PRONOUNCE	NO_LABEL
この関数の における値というのは の導関数の における値のことであり、従ってそれは	このかんすーのにおけるねとゆうのわのどうかんすーのにおけるねのことであり、したがってそれわ	NO_LABEL
と書かれる。	とかかれる。	NO_LABEL
変数 に対して導関数 が示す値は関数 の微分係数という。	へんすーにたいしてどうかんすーがしめすねわかんすーのびぶんけいすーという。	NO_LABEL
高階導関数は、 の 階の導関数に対して 	たかしなどうかんすーわ、のかいのどうかんすーにたいして	NO_LABEL
のように表される。	のよーにあらわされる。	NO_LABEL
これはそもそも、例えば三階導関数というのは	これわそもそも、たとえばさんかいどうかんすーとゆうのわ	NO_LABEL
のことであるということからくるもので、これをさらに緩く書いて	のことであるとゆうことからくるもので、これをさらにゆるくかいて	NO_LABEL
としたものが、上記の記法となっている。	としたものが、じょーきのきほーとなっている。	NO_LABEL
ライプニッツの記法における、 における微係数は次のような二種類の方法で表される。	らいぷにっつのきほーにおける、におけるびけいすーわつぎのよーなにしゅるいのほーほーであらわされる。	NO_LABEL
ライプニッツの記法は分母において微分すべき変数を明示的に示すことができる。	らいぷにっつのきほーわぶんぼにおいてびぶんすべきへんすーをめいじてきにしめすことができる。	NO_LABEL
これは偏微分を考える際に特に有用であり、また、連鎖律	これわへんびぶんをかんがえるさいにとくにゆーよーであり、また、れんさりつ	NO_LABEL
も見易く、覚えやすいものになる。	もみやすく、おぼえやすいものになる。	NO_LABEL
極限による微積分学の定式化においては、記号 は著者が異なればその意味も様々である。	きょくげんによるびせきぶんがくのていしきかにおいてわ、きごーわちょしゃがことなればそのいみもさまざまである。	NO_LABEL
現代、最も広く用いられる微分の現代的記法のひとつはジョゼフ＝ルイ・ラグランジュにより提唱されたプライム記号を用いたラグランジュの記法である。	げんだい、もっともひろくもちいられるびぶんのげんだいてききほーのひとつわじょぜふるいらぐらんじゅによりていしょーされたぷらいむきごーをもちいたらぐらんじゅのきほーである。	NO_LABEL
のように書かれる。	のよーにかかれる。	NO_LABEL
これ以降は、引き続きローマ数字や括弧書きで階数を施すことにより、例えば の四階導関数をそれぞれ や のように表すことがある。	これいこーわ、ひきつずきろーますーじやかっこがきでかいすーをほどこすことにより、たとえばのよんかいどうかんすーをそれぞれやのよーにあらわすことがある。	NO_LABEL
後者の記法はそのまま任意階数の導関数に拡張され、 の 階の導関数は のように表される。	こーしゃのきほーわそのままにんいかいすーのどうかんすーにかくちょーされ、のかいのどうかんすーわのよーにあらわされる。	NO_LABEL
レオンハルト・オイラーによるオイラーの記法は、微分演算子 を関数に前置する方法であり、関数 の導関数は次のように書き記される。	れおんはるとおいらーによるおいらーのきほーわ、びぶんえんざんしをかんすーにまえおきするほーほーであり、かんすーのどうかんすーわつぎのよーにかきしるされる。	NO_LABEL
従属変数 を微分するとき、独立変数 を下付きとして に付加する記法が一般的である。	じゅーぞくへんすーをびぶんするとき、どくりつへんすーをしたつきとしてにふかするきほーがいっぱんてきである。	NO_LABEL
しかし、独立変数が一つのみの場合は下付き添字は省略するのが通例である。	しかし、どくりつへんすーがひとつのみのばあいわしたつきそえじわしょーりゃくするのがつーれいである。	NO_LABEL
オイラーの記法は線型微分方程式の分野で有用である。	おいらーのきほーわせんけいびぶんほーていしきのぶんやでゆーよーである。	NO_LABEL
アイザック・ニュートンによるニュートンの記法は微分のドット記法とも呼ばれ、従属変数の上部にドット記号「・」を記して	NO_PRONOUNCE	NO_LABEL
などのように表す。	などのよーにあらわす。	NO_LABEL
しばしば速度や加速度のような時間微分の表現法として使用される。	しばしばそくどやかそくどのよーなじかんびぶんのひょーげんほーとしてしよーされる。	NO_LABEL
これはラグランジュの記法におけるプライム記号を直接的に置き換えたような用法も可能だが、その場合もやはり時間の関数 に対して使用するのが普通である。	これわらぐらんじゅのきほーにおけるぷらいむきごーをちょくせつてきにおきかえたよーなよーほーもかのーだが、そのばあいもやはりじかんのかんすーにたいしてしよーするのがふつーである。	NO_LABEL
ニュートンの記法は、力学および常微分方程式の理論で主に使用される。	にゅーとんのきほーわ、りきがくおよびじょうびぶんほーていしきのりろんでおもにしよーされる。	NO_LABEL
そこでは、一階および二階の微分のみを用い、そしてまた、時間に関する微分に対してのみこの記法を用いるということが普通にある。	そこでわ、いっかいおよびにかいのびぶんのみをもちい、そしてまた、じかんにかんするびぶんにたいしてのみこのきほーをもちいるとゆうことがふつーにある。	NO_LABEL
ベクトル解析は空間ベクトルの解析に多用され、場の理論、電磁気学等で有用な解析手法である。	べくとるかいせきわくーかんべくとるのかいせきにたよーされ、ばのりろん、でんじきがくとーでゆーよーなかいせきしゅほーである。	NO_LABEL
ここでは特化された微分の記法が用いられるが、極めて記号的な計算を可能とする。	ここでわとくかされたびぶんのきほーがもちいられるが、きめてきごーてきなけいさんをかのーとする。	NO_LABEL
ここでは三次元ユークリッド空間の例を示す。	ここでわさんじげんゆーくりっどくーかんのれいをしめす。	NO_LABEL
3次元ユークリッド空間上での 直交座標系 においてベクトル場 を formula_13、スカラー場 φ を formula_14 とする。	NO_PRONOUNCE	NO_LABEL
まず微分演算子としてナブラ記号 formula_15 を記号的に定める。	NO_PRONOUNCE	NO_LABEL
ここで記号的にとは、 をベクトルとして扱い、要素の偏微分記述が通常の項のように被演算項として扱われることを意味している。	ここできごーてきにとわ、をべくとるとしてあつかい、よーそのへんびぶんきじゅつがつーじょーのこーのよーにひえんざんこーとしてあつかわれることをいみしている。	NO_LABEL
これによりベクトル解析で繁用される微分操作が次のように非常に簡易かつ強力に書き記される。	これによりべくとるかいせきではんよーされるびぶんそーさがつぎのよーにひじょーにかんいかつきょーりょくにかきしるされる。	NO_LABEL
ベクトル解析で用いられるこれらの微分記法は記号演算として非常に強力である。	べくとるかいせきでもちいられるこれらのびぶんきほーわきごーえんざんとしてひじょーにきょーりょくである。	NO_LABEL
例えば通常のスカラー関数における積の微分公式 formula_36 に対して、スカラー場 と の積の勾配に関する積の微分公式は formula_37 のように全く同じ形式となる。	NO_PRONOUNCE	NO_LABEL
多変数解析やテンソル解析など、限定的な分野では個別の微分記法が必要に応じて使用される。	たへんすーかいせきやてんそるかいせきなど、げんていてきなぶんやでわこべつのびぶんきほーがひつよーにおーじてしよーされる。	NO_LABEL
関数 について、独立変数を下付き添字として次のように書き記す。	かんすーについて、どくりつへんすーをしたつきそえじとしてつぎのよーにかきしるす。	NO_LABEL
この記法は多変数関数の偏微分で特に有効である。	このきほーわたへんすーかんすーのへんびぶんでとくにゆーこーである。	NO_LABEL
例えば関数 について次のような記法ができる。	たとえばかんすーについてつぎのよーなきほーができる。	NO_LABEL
偏微分では常微分と明確に区別するために 記号の代わりに 記号が用いられる。	へんびぶんでわつねびぶんとめいかくにくべつするためにきごーのかわりにきごーがもちいられる。	NO_LABEL
例えば、関数 を や ではなく についての微分を表現するために、	たとえば、かんすーをやではなくについてのびぶんをひょーげんするために、	NO_LABEL
のような記法を使用する。	のよーなきほーをしよーする。	NO_LABEL
ここで、最後の二つの記法はユークリッド空間においても等価であるが、他の多様体では異なる。	ここで、さいごのふたつのきほーわゆーくりっどくーかんにおいてもとーかであるが、たのたよーたいでわことなる。	NO_LABEL
ミンコフスキー空間で用いられるダランベール演算子 () あるいは "box" 演算子 formula_42 のような特定の記法が特定の空間に対して開発されている。	NO_PRONOUNCE	NO_LABEL
他の限定的な微分の記法は様々な数学、物理学、工学の分野で散見される。	たのげんていてきなびぶんのきほーわさまざまなすーがく、ぶつりがく、こーがくのぶんやでさんけんされる。	NO_LABEL
