サイトウィナーはニュージーランドで生産され、香港ジョッキークラブに登録されていた競走馬。	さいとうぃなーわにゅーじーらんどでせいさんされ、ほんこんじょっきーくらぶにとーろくされていたきょーそーば。	NO_LABEL
※馬齢は香港表記とする。	NO_PRONOUNCE	NO_LABEL
4歳にしてようやく競走馬デビュー戦を迎え、2007年11月のパナソニックルミックスハンデキャップにフェリックス・コーツィーが騎乗してデビュー初戦で初勝利を挙げた。	よんさいにしてよーやくきょーそーばでびゅーせんをむかえ、にせんななねんじゅーいちがつのぱなそにっくるみっくすはんできゃっぷにふぇりっくすこーつぃーがきじょーしてでびゅーしょせんではつしょーりをあげた。	NO_LABEL
デビュー2戦目からはダグラス・ホワイトが主に騎乗し、マイル競走を中心に10走して4勝、2着3回、3着2回、5着1回と安定した成績を残してシーズンを終えて休養に入った。	NO_PRONOUNCE	NO_LABEL
休養を終えて2008年10月に実戦復帰初戦の重賞競走初挑戦となったナショナルデイカップは8着、続く一般競走も9着という結果に終わったが、11月のセンテナリーカップをホワイトが騎乗して制し6勝目を挙げた。	きゅーよーをおえてにせんはちねんじゅーがつにじっせんふっきしょせんのじゅーしょーきょーそーはつちょーせんとなったなしょなるでいかっぷわはちちゃく、つずくいっぱんきょーそーもきゅうちゃくとゆうけっかにおわったが、じゅーいちがつのせんてなりーかっぷをほわいとがきじょーしてせいしろくしょーめをあげた。	NO_LABEL
続くインターナショナルマイルトライアルでは、エジプシャンラーに敗れて2着だったが、1番人気で3着となったグッドババに先着している。	つずくいんたーなしょなるまいるとらいあるでわ、えじぷしゃんらーにやぶれてにちゃくだったが、いちばんにんきでさんちゃくとなったぐっどばばにせんちゃくしている。	NO_LABEL
そして次走はG1競走初挑戦となる香港マイルに出走したが8着という結果に終わった。	そしてつぎはしわぐれーどわんきょーそーはつちょーせんとなるほんこんまいるにしゅっそーしたがはちちゃくとゆうけっかにおわった。	NO_LABEL
2009年は年明けから重賞戦線を走り、5走してクイーンズシルヴァージュビリーカップの4着が最高順位で目立った成績を残せずにいた。	NO_PRONOUNCE	NO_LABEL
そんな中4月26日のチャンピオンズマイルにブレット・プレブルが初騎乗して出走することになったが、レース前は当時重賞競走の勝ち鞍もなく近走の成績も目立たないことから11頭中最低人気という評価だった。	NO_PRONOUNCE	NO_LABEL
しかしレースでは、道中2番手でレースを進めて、ゴール前で逃げるエジプシャンラーを捕らえ、同馬をアタマ差で交わして1着となり重賞及びG1競走初勝利を挙げた。	しかしれーすでわ、どーちゅーにばんてでれーすをすすめて、ごーるまえでにげるえじぷしゃんらーをとらえ、どーまをあたまさでかわしていちちゃくとなりじゅーしょーおよびぐれーどわんきょーそーはつしょーりをあげた。	NO_LABEL
同時に2009年のブリーダーズカップ・マイルへの優先出走権を獲得した。	どーじににせんきゅうねんのぶりーだーずかっぷまいるえのゆーせんしゅっそーけんをかくとくした。	NO_LABEL
その後アジアマイルチャレンジのボーナス獲得が懸かる安田記念に出走するため同じくサイズ厩舎に所属するアルマダと共に5月27日に初来日した。	そのごあじあまいるちゃれんじのぼーなすかくとくがかかるやすだきねんにしゅっそーするためどうじくさいずきゅーしゃにしょぞくするあるまだとともにごがつにじゅうしちにちにはつらいにちした。	NO_LABEL
そして、6月7日の安田記念では道中中団からレースを進めるも、最後の直線で伸びを欠いて6着に敗れた。	そして、ろくがつなのかのやすだきねんでわどーちゅーちゅーだんかられーすをすすめるも、さいごのちょくせんでのびをかいてろくちゃくにやぶれた。	NO_LABEL
休養を終えて2009年10月のナショナルデイカップから復帰したが6着、続く沙田トロフィーでは8着と不本意な結果が続いた。	きゅーよーをおえてにせんきゅうねんじゅーがつのなしょなるでいかっぷからふっきしたがろくちゃく、つずくすなたとろふぃーでわはちちゃくとふほんいなけっかがつずいた。	NO_LABEL
11月のインターナショナルマイルトライアルでは2年連続で2着となるも、本番の香港マイルでは見せ場なく11着と大敗を喫した。	じゅーいちがつのいんたーなしょなるまいるとらいあるでわにねんれんぞくでにちゃくとなるも、ほんばんのほんこんまいるでわみせばなくじゅういちちゃくとたいはいをきっした。	NO_LABEL
その後、7戦するがいずれも未勝利だった。	そのご、ななせんするがいずれもみしょーりだった。	NO_LABEL
休養を終えて2010年10月の沙田トロフィーから復帰したが13着、続くジョッキークラブマイルでは6着、12月の香港マイルでは7着、1月のスチュワーズカップは8着、2月の香港ゴールドカップは7着と惨敗が続いた。	きゅーよーをおえてにせんじゅうねんじゅーがつのすなたとろふぃーからふっきしたがじゅうさんちゃく、つずくじょっきーくらぶまいるでわろくちゃく、じゅーにがつのほんこんまいるでわななちゃく、いちがつのすちゅわーずかっぷわはちちゃく、にがつのほんこんごーるどかっぷわななちゃくとざんぱいがつずいた。	NO_LABEL
その後、チェアマンズトロフィーでは3着と好走するも、チャンピオンズマイルではエクステンションの7着に敗れた。	そのご、ちぇあまんずとろふぃーでわさんちゃくとこーはしするも、ちゃんぴおんずまいるでわえくすてんしょんのななちゃくにやぶれた。	NO_LABEL
5月のATVカップを制し8勝目を挙げ、6月のハッピーヴァレーヴァーズでは3着となる。	NO_PRONOUNCE	NO_LABEL
5戦するがいずれも未勝利となり、その後現役を引退した。	ごせんするがいずれもみしょーりとなり、そのごげんえきをいんたいした。	NO_LABEL
※香港の地元グループ制競走については国際セリ名簿基準委員会における国際格付けではないためHKG-Gと表記。	NO_PRONOUNCE	NO_LABEL
