部屋とは、壁、間仕切り、襖、床、天井などで仕切られ、生活の場などに用いられる、住居などの建物内部の隔てられた一空間のこと。	へやとわ、かべ、まじきり、ふすま、ゆか、てんじょーなどでしきられ、せいかつのばなどにもちいられる、じゅーきょなどのたてものないぶのへだてられたいちくーかんのこと。	NO_LABEL
部屋の中を室内、外を室外という。	へやのなかをしつない、そとをしつがいという。	NO_LABEL
すべての部屋が生活の場であるわけではなく、車庫、厩舎、物置部屋のようなものもあれば、玄関、廊下、風呂、便所のように敢えて部屋とは呼ばない箇所も含む。	すべてのへやがせいかつのばであるわけでわなく、しゃこ、きゅーしゃ、ものおきへやのよーなものもあれば、げんかん、ろーか、ふろ、べんじょのよーにあえてへやとわよばないかしょもふくむ。	NO_LABEL
なお、船上では通常「部屋」とは言わず、「キャビン」「船室」などの名称で呼ぶ。	NO_PRONOUNCE	NO_LABEL
部屋には通常、出入りをするための扉があり、自然光や外気を室内に取り込むための窓を持っていることが多い。	へやにわつーじょー、でいりをするためのとびらがあり、しぜんこーやがいきをしつないにとりこむためのまどをもっていることがおーい。	NO_LABEL
住宅以外でも建物、乗り物の中の特定用途に限定して、他から区別して設けられた空間に「部屋」という呼び名が付けられる。	NO_PRONOUNCE	NO_LABEL
会社、事業所では、事務室、執務室、社長室など。	かいしゃ、じぎょーしょでわ、じむしつ、しつむしつ、しゃちょーしつなど。	NO_LABEL
乗り物でも、操縦室、操舵室、客室など。	のりものでも、そーじゅーしつ、そーだしつ、きゃくしつなど。	NO_LABEL
そのほかの特殊なものでは、霊安室、映写室、会見室など。	そのほかのとくしゅなものでわ、れいあんしつ、えいしゃしつ、かいけんしつなど。	NO_LABEL
なお、会社、事業所、学校などの部屋の入り口には室名札が取り付けられていることが多い。	なお、かいしゃ、じぎょーしょ、がっこーなどのへやのいりくちにわしつなふだがとりつけられていることがおーい。	NO_LABEL
