エアポート快特とは、京浜急行電鉄・東京都交通局が運行する列車種別の一つである。	NO_PRONOUNCE	NO_LABEL
主に、羽田空港国内線ターミナル駅 -に直通し、押上駅からは、更に京成押上線・京成成田空港線・京成本線に直通するが、列車種別が変更される。	NO_PRONOUNCE	NO_LABEL
なお、当列車は羽田空港国内線ターミナル駅をすべての列車が着発するが、京成電鉄の成田空港駅をすべての列車が着発するわけではない。	なお、とーれっしゃわはねだくーこーこくないせんたーみなるえきをすべてのれっしゃがちゃくはつするが、けいせいでんてつのなりたくーこーえきをすべてのれっしゃがちゃくはつするわけでわない。	NO_LABEL
本項では過去に運行していた「エアポート特急」についても記述する。	NO_PRONOUNCE	NO_LABEL
1998年11月18日に羽田空港 - 成田空港間のアクセス列車を意図して、京急線内を快速特急と同じ駅に停車する羽田空港駅- 成田空港駅間運行の「エアポート快速特急」として設定された。	NO_PRONOUNCE	NO_LABEL
また、京急線内を特急と同じ駅に停車する羽田空港駅 - 青砥駅・京成高砂駅間運行の「エアポート特急」も同時に新設された。	NO_PRONOUNCE	NO_LABEL
これらの列車は交互に40分間隔で運行され、新たに都営浅草線内も急行運転とし、京成線ではいずれも「特急」として相互直通運転を行っていた。	NO_PRONOUNCE	NO_LABEL
「エアポート特急」は京急線内で特急停車駅に停車したが、上下とも平和島駅で快速特急を待避していた。	NO_PRONOUNCE	NO_LABEL
「エアポート快速特急」は京成上野駅 - 京成高砂駅間を往復する特急と、「エアポート特急」は上野駅 - 成田空港駅間を往復する特急と青砥で連絡していた。	NO_PRONOUNCE	NO_LABEL
なお、1999年7月31日の京浜急行電鉄のダイヤ改正に伴う運転系統・種別整理により「エアポート快速特急」は「エアポート快特」に改称され、「エアポート特急」は廃止され「エアポート快特」に格上げされた。	NO_PRONOUNCE	NO_LABEL
羽田・成田空港相互間のアクセスを意図して設定された列車であるが、空港相互間の利用者が少ないことや、京成線内において京成上野駅発着の特急との差別化を図れなかったことから、昼間時の「エアポート快特」については、2002年10月12日 のダイヤ改正で、京成線内の種別が快速に格下げされ京成成田駅発着に、2006年12月10日の改正では京成佐倉駅発着となり、京成線側の速達運転・直通運転区間が徐々に短縮されていった。	NO_PRONOUNCE	NO_LABEL
このため、羽田空港 - 成田空港間を直通運転するという当初の意図は弱くなった。	NO_PRONOUNCE	NO_LABEL
また、この頃には、京成本線内で「特急」・「通勤特急」となる平日夜間の一部の列車が、都営浅草線内で「エアポート快特」として運行されるようになるなど、都営浅草線内での急行運転を行うための東京都交通局独自の種別としての色合いが強くなっていた。	NO_PRONOUNCE	NO_LABEL
2010年5月16日の京急線のダイヤ改正で京急蒲田駅が通過駅となり、京急線内でも独自の停車駅を持つ列車となった。	にせんじゅうねんごがつじゅうろくにちのけいきゅーせんのだいやかいせいでけいきゅーかまたえきがつーかえきとなり、けいきゅーせんないでもどくじのていしゃえきをもつれっしゃとなった。	NO_LABEL
同時に京急線内のみ「エアポート快特」となる列車も新設され、昼間時は京急・都営線内「エアポート快特」と京急線内のみ「エアポート快特」の列車が交互に約20分間隔での運行となった。	NO_PRONOUNCE	NO_LABEL
その直後、2010年7月17日の成田スカイアクセス線開業に伴い、それまで京成線内快速・京成佐倉駅発着であった昼間時の京急・都営線内「エアポート快特」の京成線側の扱いを、成田スカイアクセス線経由成田空港駅発着の「アクセス特急」に変更し、昼間時の羽田・成田両空港直結列車の運行が再開された。	NO_PRONOUNCE	NO_LABEL
成田空港駅 - 羽田空港駅間の所要時間は最短103分である。	NO_PRONOUNCE	NO_LABEL
その後、2012年10月21日のダイヤ改正で、京急線内のみ「エアポート快特」となる列車は京急線内発着の列車を除き京急蒲田駅停車の快特となり、昼間時の運行が40分間隔へと戻された。	NO_PRONOUNCE	NO_LABEL
2016年11月19日の5社一斉ダイヤ改正現在、日中の列車は都営浅草線に直通し、押上駅から「アクセス特急」に変更の上成田スカイアクセス線に直通して、成田空港駅に到着するダイヤが約40分間隔で組まれている。	NO_PRONOUNCE	NO_LABEL
加えて、京急線内は「快特」、都営浅草線内は「エアポート快特」、京成線内は「快速特急」として、青砥駅または京成高砂駅まで運転される列車が約40分間隔で運転され、都営浅草線内は約20分間隔で「エアポート快特」が運行されている。	NO_PRONOUNCE	NO_LABEL
また成田空港駅、青砥駅からは、逆のパターンが組まれている。	またなりたくーこーえき、あおとえきからわ、ぎゃくのぱたーんがくまれている。	NO_LABEL
また早朝に京成本線宗吾参道駅始発として羽田空港行きが1本設定されている。	またそーちょーにけいせいほんせんそーごさんどーえきしはつとしてはねだくーこーいきがいっぽんせっていされている。	NO_LABEL
京成線内は「快速」、都営浅草線・京急線は「エアポート快特」として設定されている。	NO_PRONOUNCE	NO_LABEL
京成車で運転されているが以前は平日のみ都営車で運転されていた。	けいせいしゃでうんてんされているがいぜんわへいじつのみとえいしゃでうんてんされていた。	NO_LABEL
また同京成成田駅始発で羽田空港行きが1本設定されている。	またどーけいせいなりたえきしはつではねだくーこーいきがいっぽんせっていされている。	NO_LABEL
京成線内は「快速特急」、都営線内は「エアポート快特」、京急線内は「快特」で運転されている。	NO_PRONOUNCE	NO_LABEL
車両は都営車で運転されている。	しゃりょーわとえいしゃでうんてんされている。	NO_LABEL
夜間は、京成本線経由で運転される「エアポート快特」が京成線方面にのみ設定されているが、これらは京成線内は通常の「快速特急」、都営浅草線内のみ「エアポート快特」として運転され、京急線内は主に「エアポート急行」となるが、3本のみは京急線内もエアポート快特で運転される。	NO_PRONOUNCE	NO_LABEL
また前述の京成成田スカイアクセス線経由の列車はすべて成田空港駅着発だが、京成本線経由列車は2本のみ成田空港駅着で、他はすべて京成成田駅着となっている。	またぜんじゅつのけいせいなりたすかいあくせすせんけいゆのれっしゃわすべてなりたくーこーえきちゃくはつだが、けいせいほんせんけいゆれっしゃわにほんのみなりたくーこーえきぎで、たわすべてけいせいなりたえきぎとなっている。	NO_LABEL
土休日夕方北行に設定されている2本に限り、京急線内のみを「エアポート快特」として運転し、都営浅草線・京成線内は普通となる運用がある。	NO_PRONOUNCE	NO_LABEL
浅草線内エアポート快特、押上線内速達列車は、押上線内での種別呼称こそ異なるものの、品川駅 - 京成高砂駅間は同じ停車駅である。	NO_PRONOUNCE	NO_LABEL
英文種別名はLimited ExpressとAirport Limited ExpressとLTD RapidとRapid Expressと車両、案内板、発車標、各社局各駅毎で異なる表記となり、統一されていない。	NO_PRONOUNCE	NO_LABEL
また、下の写真にある通り、種別幕・種別表示器および路線図の案内では「エアポート」の代わりに飛行機のマークを頭に付け、「快特」と表記されている。	NO_PRONOUNCE	NO_LABEL
なお、2013年10月までは、都営線・京急線内の種別が「エアポート快特」になる羽田空港行きの列車は、京成線内でも種別名にを付し、「アクセス特急」・「快速」と表記されていた。	NO_PRONOUNCE	NO_LABEL
2012年10月21日からは、エアポート快特の表示が緑からオレンジに変更されている。	にせんじゅうにねんじゅーがつにじゅういちにちからわ、えあぽーとかいとくのひょーじがみどりからおれんじにへんこーされている。	NO_LABEL
昼間時に泉岳寺駅 - 羽田空港間を40分間隔で運行しており、都営線と相互直通運転する列車は都営線内も「エアポート快特」として運行されている。	NO_PRONOUNCE	NO_LABEL
途中停車駅は品川・羽田空港国際線ターミナルのみで、快特停車駅である京急蒲田駅を通過する。	NO_PRONOUNCE	NO_LABEL
これは都営線大門駅- 羽田空港間で競合する 東京モノレール羽田空港線の「空港快速」への対抗のためでもある。	NO_PRONOUNCE	NO_LABEL
駅の発車標では、『快特』と表示され、列車種別表示灯では、「」と表示されている。	NO_PRONOUNCE	NO_LABEL
2010年5月15日まで、快特と同一の停車駅で運行されており、主要駅に設置されている列車種別表示灯も他の快特と同じ「」が使用され、羽田空港行きの列車については駅の案内板でもマークが表示されず、他の快特と区別はされていなかった。	NO_PRONOUNCE	NO_LABEL
また、2010年5月16日のダイヤ改正から2012年10月20日までは、都営線内を各駅に停車し京急線内のみ「エアポート快特」となる列車が設定されており、京急線内では朝から昼間時に20分間隔で運行されていた。	NO_PRONOUNCE	NO_LABEL
2014年11月8日のダイヤ改正で、京急線内のみ「エアポート快特」として運転し、都営浅草線・京成線内は各駅に停車する運用が土休日に2本のみ復活した。	NO_PRONOUNCE	NO_LABEL
役職、施設、組織名等は当時のものである。	やくしょく、しせつ、そしきめいとーわとーじのものである。	NO_LABEL
2010年4月下旬、京急は本線と空港線の高架化事業完成に伴うダイヤ改正を発表、従来、京急蒲田駅に停車していた羽田空港発着「エアポート快特」・「快特」のほぼ全てが、京急蒲田駅を通過する「エアポート快特」へと鞍替えされることとなった。	NO_PRONOUNCE	NO_LABEL
これにより、日中の羽田空港発着の「快特」系列車の京急蒲田停車が消滅、羽田空港へは空港線内各駅停車の列車を利用せざるを得ない状況となり、品川方面への利用可能列車も減少した。	NO_PRONOUNCE	NO_LABEL
大田区や同駅周辺住民はダイヤ改正の起因となった高架化事業の総工費1650億円のうち、大田区が200億円を負担したことを根拠に「エアポート快特」の同駅通過に反対、大田区では「通過反対対策協議会」が組織され、通過反対の議決や今後の高架化事業の負担金の拠出拒否を示唆するなどした。	NO_PRONOUNCE	NO_LABEL
これに対して東京都知事の石原慎太郎が「3本は通過しても、他の6本は停車するのだから、別に停車しなくてよい」と発言した。	NO_PRONOUNCE	NO_LABEL
ただし、その後京急は2012年度のダイヤ改正での「蒲田停車」の可能性を決算会見で示唆した。	NO_PRONOUNCE	NO_LABEL
2012年7月31日、同年10月21日のダイヤ改正にて、昼間時の品川方面 - 羽田空港間運行の「エアポート快特」・「快特」を10分間隔とし、このうち40分に1本のみを「エアポート快特」、その他を「快特」とすることが発表された。	NO_PRONOUNCE	NO_LABEL
この改正により、「エアポート快特」の京急蒲田通過は継続されたものの、大多数の運行となる羽田空港発着「快特」は京急蒲田に停車することとなった。	NO_PRONOUNCE	NO_LABEL
昼間時に20分間隔で運行しており、浅草線内で通過駅を有する唯一の列車種別である。	ひるまじににじゅっぷんかんかくでうんこーしており、あさくさせんないでつーかえきをゆーするゆいいつのれっしゃしゅべつである。	NO_LABEL
都営線内では待避線のある押上駅でのみ緩急接続が行われる。	とえいせんないでわたいひせんのあるおしあげえきでのみかんきゅーせつぞくがおこなわれる。	NO_LABEL
都営線内で「エアポート快特」となる列車は、基本的には京急線内では「エアポート快特」または「快特」として運行されるが、北行の一部列車は京急線内で「エアポート急行」として運行される。	NO_PRONOUNCE	NO_LABEL
運行当初は朝夕の通勤時間帯には設定されていなかったが、2004年以降は平日の押上方面行きについてのみ、夕方以降も運行され、2013年以降は朝のラッシュ時にも都営浅草線内で1本設定されている。	うんこーとーしょわあさゆーのつーきんじかんたいにわせっていされていなかったが、にせんよねんいこーわへいじつのおしあげかたもいきについてのみ、ゆーがたいこーもうんこーされ、にせんじゅうさんねんいこーわあさのらっしゅじにもとえいあさくさせんないでいっぽんせっていされている。	NO_LABEL
なお、隅田川花火大会開催時は、通常通過する本所吾妻橋駅・蔵前駅・浅草橋駅に臨時停車する。	NO_PRONOUNCE	NO_LABEL
このため、北行のエアポート快特は東日本橋駅でアクセス特急・快速特急に種別変更する。	NO_PRONOUNCE	NO_LABEL
京急線・都営線内で「エアポート快特」となる列車が、昼間は「アクセス特急」として成田スカイアクセス線経由で羽田・成田両空港間を直結している。	NO_PRONOUNCE	NO_LABEL
一方、都営線内のみ「エアポート快特」となる列車は、昼間は「快速特急」として青砥駅または京成高砂駅で折り返し、青砥駅にて京成上野駅発着の京成本線経由の特急と接続する。	NO_PRONOUNCE	NO_LABEL
これらの列車は押上駅で種別表示を「快特」に変更する。	NO_PRONOUNCE	NO_LABEL
夜間は、京成本線経由で運転される「エアポート快特」が京成線方面にのみ設定されているが、これらは京成線内は通常の「快速特急」、都営浅草線内のみ「エアポート快特」として運転され、京急線内は主に「エアポート急行」となる。	NO_PRONOUNCE	NO_LABEL
また前述の成田スカイアクセス線経由の列車はすべて成田空港駅着発だが、京成本線経由列車は1本のみ成田空港駅着で、他はすべて京成成田駅着となっている。	またぜんじゅつのなりたすかいあくせすせんけいゆのれっしゃわすべてなりたくーこーえきちゃくはつだが、けいせいほんせんけいゆれっしゃわいっぽんのみなりたくーこーえきぎで、たわすべてけいせいなりたえきぎとなっている。	NO_LABEL
「エアポート快特」は、2002年10月11日まで京成線内を「特急」として運行されていたが、これ以外に京成上野駅 - 成田空港駅間や青砥駅で「エアポート快特」に接続する京成上野 - 高砂間の特急も「特急」とされていた。	NO_PRONOUNCE	NO_LABEL
単に「特急」とされたのは都営浅草線西馬込駅 - 成田空港駅間の特急と京成佐倉駅終着など成田空港発着でない特急のみであった。	NO_PRONOUNCE	NO_LABEL
なお、これらの「特急」も2013年までの「アクセス特急」「快速」と同様、京成線内では原則的に「」は発音しないものとされ、単に「とっきゅう」と読まれていた。	NO_PRONOUNCE	NO_LABEL
この特急に限り、京成3500形未更新車や旧3000系列の車両各形式を使用したこともあり、専用の種別板も用意されていた。	このとっきゅーにかぎり、けいせいさんぜんごひゃくがたみこーしんしゃやきゅーさんぜんけいれつのしゃりょーかくけいしきをしよーしたこともあり、せんよーのしゅべつばんもよーいされていた。	NO_LABEL
京急・京成・東京都交通局の車両が使われている。	NO_PRONOUNCE	NO_LABEL
当初より京急600形をのぞいては座席が長距離乗車を前提としたクロスシートではなく、通例の相互乗り入れ列車に使用されるロングシート車両が充当されている。	とーしょよりけいきゅーろっぴゃくがたをのぞいてわざせきがちょーきょりじょーしゃをぜんていとしたくろすしーとでわなく、つーれいのそーごのりーれれっしゃにしよーされるろんぐしーとしゃりょーがじゅーとーされている。	NO_LABEL
また、ダイヤが乱れた場合をのぞき都営浅草線と京成線内で使用する「停車駅予報装置」を搭載する車両のみがこの運用に入る。	NO_PRONOUNCE	NO_LABEL
以下の車両は特記しているものをのぞき、運行開始当初より使用している車両である。	いかのしゃりょーわとっきしているものをのぞき、うんこーかいしとーしょよりしよーしているしゃりょーである。	NO_LABEL
なお、すべて8両編成に組成された編成のみが使用されている。	なお、すべてはちりょーへんせいにそせいされたへんせいのみがしよーされている。	NO_LABEL
京成3500形は4両編成を2本連結した8両編成、その他の形式は8両固定編成で運行。	NO_PRONOUNCE	NO_LABEL
なお成田スカイアクセス直通可能車両であっても非直通の運用に就くこともある。	なおなりたすかいあくせすちょくつーかのーしゃりょーであってもひちょくつーのうんよーにつくこともある。	NO_LABEL
