大嶋 仁は、日本の比較文学者、福岡大学名誉教授。	おーしまひとしわ、にっぽんのひかくぶんがくしゃ、ふくおかだいがくめいよきょーじゅ。	NO_LABEL
鎌倉市生まれ。	かまくらしうまれ。	NO_LABEL
1975年東京大学文学部倫理学科卒、在学中にフランス政府給費留学生としてパリに2年滞在。	せんきゅうひゃくななじゅうごねんとーきょーだいがくぶんがくぶりんりがっかそつ、ざいがくちゅーにふらんすせいふきゅーひりゅーがくせいとしてぱりににねんたいざい。	NO_LABEL
1980年同大学院比較文学比較文化博士課程単位取得満期退学。	せんきゅうひゃくはちじゅうねんどーだいがくいんひかくぶんがくひかくぶんかはかせかていたんいしゅとくまんきたいがく。	NO_LABEL
静岡大学講師、バルセロナ、リマ、ブエノスアイレス、パリで教えた後、1995年福岡大学人文学部教授。	しずおかだいがくこーし、ばるせろな、りま、ぶえのすあいれす、ぱりでおしえたのち、せんきゅうひゃくきゅうじゅうごねんふくおかだいがくじんぶんがくぶきょーじゅ。	NO_LABEL
2016年退職、名誉教授。	にせんじゅうろくねんたいしょく、めいよきょーじゅ。	NO_LABEL
佐賀県唐津市で「からつ塾」の運営にも当たる。	NO_PRONOUNCE	NO_LABEL
2011-13年日本比較文学会会長。	NO_PRONOUNCE	NO_LABEL
