大向 一輝は、日本の情報学者。	おーむかいいっきわ、にっぽんのじょーほーがくしゃ。	NO_LABEL
学位は博士。	がくいわはかせ。	NO_LABEL
ハンドルネームはi2k。	NO_PRONOUNCE	NO_LABEL
国立情報学研究所コンテンツ科学研究系准教授、総合研究大学院大学准教授、株式会社グルコース取締役。	こくりつじょーほーがくけんきゅーこんてんつかがくけんきゅーけいじゅんきょーじゅ、そーごーけんきゅーだいがくいんだいがくじゅんきょーじゅ、かぶしきがいしゃぐるこーすとりしまりやく。	NO_LABEL
国立情報学研究所助教、総合研究大学院大学助教などを歴任した。	こくりつじょーほーがくけんきゅーじょじょきょー、そーごーけんきゅーだいがくいんだいがくじょきょーなどをれきにんした。	NO_LABEL
京都府京都市出身の情報学者である。	きょーとふきょーとししゅっしんのじょーほーがくしゃである。	NO_LABEL
国立情報学研究所准教授であり、グルコースの取締役を兼務する。	こくりつじょーほーがくけんきゅーじょじゅんきょーじゅであり、ぐるこーすのとりしまりやくをけんむする。	NO_LABEL
セマンティック・ウェブや参加型ウェブサービスに関する研究に従事し、国立情報学研究所の日本語論文データベース「CiNii」も担当する。	NO_PRONOUNCE	NO_LABEL
なお、ハンドルネームとして「i2k」を名乗ることもある。	NO_PRONOUNCE	NO_LABEL
1977年に生まれ、京都府京都市にて育った。	せんきゅうひゃくななじゅうななねんにうまれ、きょーとふきょーとしにてそだった。	NO_LABEL
1996年、同志社大学に入学し、工学部の知識工学科にて学んだ。	せんきゅうひゃくきゅうじゅうろくねん、どーししゃだいがくににゅーがくし、こーがくぶのちしきこーがっかにてまなんだ。	NO_LABEL
2000年に同志社大学を卒業すると、同大学の大学院に進み、工学研究科の知識工学専攻に在籍した。	にせんねんにどーししゃだいがくをそつぎょーすると、どーだいがくのだいがくいんにすすみ、こーがくけんきゅーかのちしきこーがくせんこーにざいせきした。	NO_LABEL
2002年に同志社大学の大学院を修了すると、総合研究大学院大学の大学院に移り、複合科学研究科の情報学専攻にて学んだ。	にせんにねんにどーししゃだいがくのだいがくいんをしゅーりょーすると、そーごーけんきゅーだいがくいんだいがくのだいがくいんにうつり、ふくごーかがくけんきゅーかのじょーほーがくせんこーにてまなんだ。	NO_LABEL
2005年、総合研究大学院大学を修了した。	にせんごねん、そーごーけんきゅーだいがくいんだいがくをしゅーりょーした。	NO_LABEL
総合研究大学院　情報学博士　論文は「パーソナルネットワークに基づく情報流通支援」	NO_PRONOUNCE	NO_LABEL
大学院を修了した2005年、国立情報学研究所に採用され、助教として勤務した。	だいがくいんをしゅーりょーしたにせんごねん、こくりつじょーほーがくけんきゅーにさいよーされ、じょきょーとしてきんむした。	NO_LABEL
2009年には国立情報学研究所の准教授に昇任するとともに、専門員を兼務することになった。	にせんきゅうねんにわこくりつじょーほーがくけんきゅーじょのじゅんきょーじゅにしょーにんするとともに、せんもんいんをけんむすることになった。	NO_LABEL
また、2006年から2010年まで、母校である総合研究大学院大学にて、助教に併任されていた。	また、にせんろくねんからにせんじゅうねんまで、ぼこーであるそーごーけんきゅーだいがくいんだいがくにて、じょきょーにへいにんされていた。	NO_LABEL
2010年からは、総合研究大学院大学の准教授に併任されている。	にせんじゅうねんからわ、そーごーけんきゅーだいがくいんだいがくのじゅんきょーじゅにへいにんされている。	NO_LABEL
総合研究大学院大学では、「知的ウェブシステム」などを講じた。	NO_PRONOUNCE	NO_LABEL
なお、2008年には、グルコースの取締役に就任している。	なお、にせんはちねんにわ、ぐるこーすのとりしまりやくにしゅーにんしている。	NO_LABEL
博士は情報学であるが、工学分野を研究している。	はかせわじょーほーがくであるが、こーがくぶんやをけんきゅーしている。	NO_LABEL
具体的な研究領域としては、セマンティック・ウェブやナレッジの共有などに取り組んでいる。	ぐたいてきなけんきゅーりょーいきとしてわ、せまんてぃっくうぇぶやなれっじのきょーゆーなどにとりくんでいる。	NO_LABEL
自身の研究に対して、大向は「『パーソナルネットワーク』を使って、情報のやり取りの無限の可能性を引き出していきたい」と抱負を語るとともに、「さまざまな形のコミュニケーションを支援するツールを開発していきたい」と述べている。	NO_PRONOUNCE	NO_LABEL
国立情報学研究所では、論文情報データベース「CiNii」の開発、運営に携わっている。	NO_PRONOUNCE	NO_LABEL
また、研究の一環としてRSSのフィードリーダー「glucose」を開発し、一般に公開している。	NO_PRONOUNCE	NO_LABEL
glucoseはダウンロード回数が70万回に達するなど、多くのユーザに利用されている。	NO_PRONOUNCE	NO_LABEL
