オサラン属は、ラン科の分類群の一つ。	おさらんぞくわ、らんかのぶんるいぐんのひとつ。	NO_LABEL
着生植物で、偽球茎を連続して並べる。	ちゃくせいしょくぶつで、にせきゅーけいをれんぞくしてならべる。	NO_LABEL
栽培されることもあるが、それほど重視されない。	さいばいされることもあるが、それほどじゅーしされない。	NO_LABEL
洋ランとしても扱われ、そちらでは学名カナ読みのエリアで通用する。	よーらんとしてもあつかわれ、そちらでわがくめいかなよみのえりあでつーよーする。	NO_LABEL
セッコク属やマメヅタラン属に似た着生のラン科植物。	せっこくぞくやまめずたらんぞくににたちゃくせいのらんかしょくぶつ。	NO_LABEL
偽球茎の基部から出る根で基物に張り付くように育つ。	にせきゅーけいのきぶからでるねでもとぶつにはりつくよーにそだつ。	NO_LABEL
ごく一部に地生の種がある。	ごくいちぶにちせいのたねがある。	NO_LABEL
偽球茎は１-数節を持ち、円柱状などで硬い。	NO_PRONOUNCE	NO_LABEL
新しい茎は古いものの基部から横に出るが、その間に匍匐茎を作らない。	あたらしいくきわふるいもののきぶからよこにでるが、そのかんにほふくけいをつくらない。	NO_LABEL
葉は偽球茎の先端に２－数枚をつける。	NO_PRONOUNCE	NO_LABEL
やや硬い革質のものもあるが、大きく広がる膜質の葉を持つものもある。	ややかたいかくしつのものもあるが、おーきくひろがるまくしつのはをもつものもある。	NO_LABEL
また、葉や花茎、花の外面に綿毛を生じる種がある。	また、はやかけい、はなのがいめんにわたげをしょーじるたねがある。	NO_LABEL
花は偽球茎の先端、または基部から出る花茎の先に総状、または単生する。	はなわにせきゅーけいのせんたん、またわきぶからでるかけいのさきにそーじょー、またわたんしょーする。	NO_LABEL
余り大きいものにはならない。	あまりおーきいものにわならない。	NO_LABEL
萼片は三枚がほぼ同型、背萼片は時に側萼片と合着、側萼片は基部で互いに融合して唇弁の基部で距か袋のような形を作る。	NO_PRONOUNCE	NO_LABEL
唇弁は三裂し、中央の裂辺がやや広がる、ずい柱は縁に時に翼を持ち、基部は脚になる。	NO_PRONOUNCE	NO_LABEL
葯は不完全ながら四室で花粉塊は8個、小柄がある。	NO_PRONOUNCE	NO_LABEL
和名は該当の種の偽鱗茎が並ぶ様子を機織り機の筬に見立てたもの。	わめいわがいとーのたねのぎりんけいがならぶよーすをはたおりきのおさにみたてたもの。	NO_LABEL
学名はギリシャ語の erionnに由来し、これは葉や茎などの毛の多い種があることにちなむ。	NO_PRONOUNCE	NO_LABEL
なお、日本産のものはいずれもマメヅタラン属やセッコク属と紛らわしい姿だが、葉が膜質で大きい種は、かなり異なった姿になる。	なお、にほんさんのものわいずれもまめずたらんぞくやせっこくぞくとまぎらわしいすがただが、はがまくしつでおーきいたねわ、かなりことなったすがたになる。	NO_LABEL
東アジアからマレーシア、インド、ポリネシアからオーストラリアにまで分布する。	ひがしあじあからまれーしあ、いんど、ぽりねしあからおーすとらりあにまでぶんぷする。	NO_LABEL
セッコク属やマメヅタラン属とはよく似ているが、マメヅタラン属とは偽球茎の間に匍匐茎がない点で異なる。	せっこくぞくやまめずたらんぞくとわよくにているが、まめずたらんぞくとわにせきゅーけいのまにほふくけいがないてんでことなる。	NO_LABEL
セッコク属とは花の構造でも似ているが、葯や花粉塊の構造がはっきりと異なっている。	NO_PRONOUNCE	NO_LABEL
世界で500種ほどが知られるが、日本では以下の3種と1変種が知られる。	NO_PRONOUNCE	NO_LABEL
オサランはムギランに似た小型種で、リュウキュウセッコクは草丈30cmほどの大型種。	おさらんわむぎらんににたこがたしゅで、りゅうきゅうせっこくわくさたけさんじゅうせんちめーとるほどのおーがたしゅ。	NO_LABEL
ちなみにオキナワセッコクはセッコク属の別種である。	ちなみにおきなわせっこくわせっこくぞくのべっしゅである。	NO_LABEL
日本産のものは山野草として栽培されることがある。	にほんさんのものわさんやそーとしてさいばいされることがある。	NO_LABEL
ただしそのための採集圧がひどく、各地で非常に減少しており、普通に手の届くところに見られることはまずない。	NO_PRONOUNCE	NO_LABEL
環境省のレッドデータではオサランが絶滅危惧II類、オオオサランとリュウキュウセッコクが絶滅危惧IBに指定されている。	NO_PRONOUNCE	NO_LABEL
国外のものについては洋ランとして栽培されるものがある。	こくがいのものについてわよーらんとしてさいばいされるものがある。	NO_LABEL
形態的には変異も多いが、評価は高くない。	けいたいてきにわへんいもおーいが、ひょーかわたかくない。	NO_LABEL
花色が黄緑色から白系の地味なものが多いことと、花の寿命が短いのが観賞の上での難点である。	はないろがきみどりしょくからはくけいのじみなものがおーいことと、はなのじゅみょーがみじかいのがかんしょーのうえでのなんてんである。	NO_LABEL
エリア・ヒアキントイデスやエリア・コロリアナが比較的よく知られる。	NO_PRONOUNCE	NO_LABEL
