ダブリン規約は、欧州連合加盟国といくつかのEU非加盟国における難民のアサイラム申請の処理をどの国が受け持つのかについての規則を定めたものである。	だぶりんきやくわ、おーしゅーれんごーかめいこくといくつかのいーゆーひかめいこくにおけるなんみんのあさいらむしんせいのしょりをどのくにがうけもつのかについてのきそくをさだめたものである。	NO_LABEL
2015年末時点でのダブリン規約は過去のダブリン規約に改訂が施されたものである	にせんじゅうごねんまつじてんでのだぶりんきやくわかこのだぶりんきやくにかいていがほどこされたものである	NO_LABEL
この規約に従いEU加盟国と非加盟国のうち、難民が最初に入った国で申請をしなくてはならない。	このきやくにしたがいいーゆーかめいこくとひかめいこくのうち、なんみんがさいしょにはいったくにでしんせいをしなくてわならない。	NO_LABEL
その理由は可能な限り早くアサイラム手続きを国に行わせることと二重申請を防ぐことにある。	そのりゆーわかのーなかぎりはやくあさいらむてつずきをくににおこなわせることとふたえしんせいをふせぐことにある。	NO_LABEL
難民が申請手続きをした後に別の国に移動した場合その難民は手続きをしている国に送り返される 。	なんみんがしんせいてつずきをしたのちにべつのくににいどーしたばあいそのなんみんわてつずきをしているくににおくりかえされる。	NO_LABEL
この規約は不公平だとの指摘もある。	このきやくわふこーへいだとのしてきもある。	NO_LABEL
EUの外側周辺諸国はEU圏外の国と接しているため難民流入の確率がその他のEU加盟国に比して高いために、	いーゆーのそとがわしゅーへんしょこくわいーゆーけんがいのくにとせっしているためなんみんりゅーにゅーのかくりつがそのたのいーゆーかめいこくにひしてたかいために、	NO_LABEL
必然的に申請処理の数が増えるからである。	ひつざんてきにしんせいしょりのかずがふえるからである。	NO_LABEL
このダブリン規約の下で英国は難民申請者をその難民が最初に入国したEU加盟国へ送り返すことができる。	このだぶりんきやくのしたでえいこくわなんみんしんせいしゃをそのなんみんがさいしょににゅーこくしたいーゆーかめいこくえおくりかえすことができる。	NO_LABEL
ジャン＝クロード・ユンケルはダブリン規約をさらに改訂する提案も行っている。	じゃんくろーどゆんけるわだぶりんきやくをさらにかいていするていあんもおこなっている。	NO_LABEL
その場合、難民が最初にアサイラム申請した国にその難民を強制送還できなくなる。	そのばあい、なんみんがさいしょにあさいらむしんせいしたくににそのなんみんをきょーせいそーかんできなくなる。	NO_LABEL
ユンケルらはその提案が2015年欧州難民危機を解決するための包括的アジェンダの一環であると主張している。	ゆんけるらわそのていあんがにせんじゅうごねんおーしゅーなんみんききをかいけつするためのほーかつてきあじぇんだのいっかんであるとしゅちょーしている。	NO_LABEL
欧州委員会はダブリン規約を廃止して移民と難民申請者をEU加盟国に配分する案も検討している。	おーしゅーいーんかいわだぶりんきやくをはいししていみんとなんみんしんせいしゃをいーゆーかめいこくにはいぶんするあんもけんとーしている。	NO_LABEL
配分人数はEU加盟国の富と人口に基づいて計算される。	はいぶんにんずーわいーゆーかめいこくのとみとじんこーにもとずいてけいさんされる。	NO_LABEL
英国はその制度からオプトアウトするのだろうが難民申請者を他のEU加盟国へ強制送還する権限を失う。	えいこくわそのせいどからおぷとあうとするのだろうがなんみんしんせいしゃをたのいーゆーかめいこくえきょーせいそーかんするけんげんをうしなう。	NO_LABEL
