『クライム・スピード』は、2014年にアメリカ合衆国で製作されたアクション映画。	NO_PRONOUNCE	NO_LABEL
1959年にアメリカ合衆国で製作された映画『』のリメイク。	NO_PRONOUNCE	NO_LABEL
監督は本作がハリウッドデビュー作となるサリク・アンドレアシアン。	かんとくわもとさくがはりうっどでびゅーさくとなるさりくあんどれあしあん。	NO_LABEL
出演はヘイデン・クリステンセン、エイドリアン・ブロディ、ジョーダナ・ブリュースター、エイコン。	しゅつえんわへいでんくりすてんせん、えいどりあんぶろでぃ、じょーだなぶりゅーすたー、えいこん。	NO_LABEL
2014年の『トロント国際映画祭』で上映された。	NO_PRONOUNCE	NO_LABEL
自動車修理工として働くジェームズは、爆弾製造の罪で半年間服役した過去を悔やみ、恋人であるエミリーのためにも真っ当な人生を歩もうと決意していた。	じどーしゃしゅーりこーとしてはたらくじぇーむずわ、ばくだんせいぞーのつみではんとしかんふくえきしたかこをくやみ、こいびとであるえみりーのためにもまっとーなじんせいをあゆもうとけついしていた。	NO_LABEL
そんな彼の前に10年間服役していた兄フランキーが現れる。	そんなかれのまえにじゅうねんかんふくえきしていたあにふらんきーがあらわれる。	NO_LABEL
自らを犯罪の道へと陥れた兄を避けるジェームズだったが、立派に更生してみせたと言うフランキーの言葉を信じて、彼の仕事を手伝うことにする。	みずからをはんざいのみちえとおとしいれたあにをさけるじぇーむずだったが、りっぱにこーせいしてみせたというふらんきーのことばをしんじて、かれのしごとをてつだうことにする。	NO_LABEL
早速フランキーはジェームズに仕事仲間であるシュガーとレイを紹介するが、彼らが計画している仕事というのが武装しての銀行強盗だということが判明する。	さっそくふらんきーわじぇーむずにしごとなかまであるしゅがーとれいをしょーかいするが、かれらがけいかくしているしごととゆうのがぶそーしてのぎんこーごうとーだとゆうことがはんめいする。	NO_LABEL
当然参加を拒否するジェームズだったが、抜ければエミリーにも危害を加えるとフランキーに脅された彼は、運転手役として強盗計画に参加するのであった。	とーぜんさんかをきょひするじぇーむずだったが、ぬければえみりーにもきがいをくわえるとふらんきーにおどされたかれわ、うんてんしゅやくとしてごーとーけいかくにさんかするのであった。	NO_LABEL
そして決行当日、当初は完璧だと思われた強盗計画だったが、些細なミスにより彼らは瞬く間に警官隊に包囲されてしまう。	そしてけっこーとーじつ、とーしょわかんぺきだとおもわれたごーとーけいかくだったが、ささいなみすによりかれらわまばたくまにけいかんたいにほーいされてしまう。	NO_LABEL
※括弧内は日本語吹替	NO_PRONOUNCE	NO_LABEL
