ロバート・フリップは、イギリス出身のミュージシャン、ギタリスト、作曲家。	ろばーとふりっぷわ、いぎりすしゅっしんのみゅーじしゃん、ぎたりすと、さっきょくか。	NO_LABEL
プログレッシブ・ロックの代表的バンド、キング・クリムゾンのギタリスト兼リーダーである。	ぷろぐれっしぶろっくのだいひょーてきばんど、きんぐくりむぞんのぎたりすとけんりーだーである。	NO_LABEL
「ローリング・ストーンの選ぶ歴史上最も偉大な100人のギタリスト」において2003年は第42位、2011年の改訂版では第62位。	NO_PRONOUNCE	NO_LABEL
幼少の頃から地元のクラシックギター教室に通っており、同じギター教室には後にキング・クリムゾンを一緒に結成することになるグレッグ・レイクも通っていた。	よーしょーのころからじもとのくらしっくぎたーきょーしつにかよっており、おなじぎたーきょーしつにわごにきんぐくりむぞんをいっしょにけっせいすることになるぐれっぐれいくもとーっていた。	NO_LABEL
18歳でボーンマスのマジェスティック・ホテルのジャズバンドの専属ギタリストになり3年間ステージをこなす。	じゅうはっさいでぼーんますのまじぇすてぃっくほてるのじゃずばんどのせんぞくぎたりすとになりさんねんかんすてーじをこなす。	NO_LABEL
前任ギタリストはアンディ・サマーズ。	ぜんにんぎたりすとわあんでぃさまーず。	NO_LABEL
1967年、後のキング・クリムゾンのメンバーとなるジャイルズ兄弟との3人で、ジャイルズ・ジャイルズ&フリップを結成して、アルバム1枚を発表する。	せんきゅうひゃくろくじゅうななね、ごのきんぐくりむぞんのめんばーとなるじゃいるずきょーだいとのさんにんで、じゃいるずじゃいるずあんどふりっぷをけっせいして、あるばむいちまいをはっぴょーする。	NO_LABEL
このバンドを母体に、イアン・マクドナルドとグレッグ・レイクが参加し、キング・クリムゾンへと発展することになった。	このばんどをぼたいに、いあんまくどなるどとぐれっぐれいくがさんかし、きんぐくりむぞんえとはってんすることになった。	NO_LABEL
1969年のバンド結成から現在に至るまで、ロバート・フリップはキング・クリムゾンにおける主導権を握り続けている。	せんきゅうひゃくろくじゅうきゅうねんのばんどけっせいからげんざいにいたるまで、ろばーとふりっぷわきんぐくりむぞんにおけるしゅどーけんをにぎりつずけている。	NO_LABEL
時に強権的なまでのリーダーシップを執ることがあり、それがバンド内に亀裂を生み出すことがあった。	ときにきょーけんてきなまでのりーだーしっぷをとることがあり、それがばんどないにきれつをうみだすことがあった。	NO_LABEL
メンバー・チェンジなどの人事的な決定権も握っており、ピート・シンフィールドやデヴィッド・クロスの脱退も実質的にはフリップによる解雇だと言われている。	NO_PRONOUNCE	NO_LABEL
そのリーダーシップと厳格な音楽への取り組みによって1960～1970年代のプログレッシヴ・ロック・ムーブメントを支え、その語義どおりの音楽スタイルから多くのアーティストに影響を与えてきた。	NO_PRONOUNCE	NO_LABEL
特に、インプロヴィゼーションを主体とした演奏方法で人気を博した。	NO_PRONOUNCE	NO_LABEL
デビュー・アルバム『クリムゾン・キングの宮殿』や『レッド』における彼のギター・プレイは非常に高く評価されている。	NO_PRONOUNCE	NO_LABEL
しかし本人はそうしたプログレとしてのイメージを刷新するごとく音楽的な変化を求め続けており、キング・クリムゾン自体のサウンドも時代時代によって大胆な変遷をたどった。	しかしほんにんわそーしたぷろぐれとしてのいめーじをさっしんするごとくおんがくてきなへんかをもとめつずけており、きんぐくりむぞんじたいのさうんどもじだいじだいによってだいたんなへんせんをたどった。	NO_LABEL
キング・クリムゾンでの活動以外にも、様々なアーティストと交流を持ってきた。	きんぐくりむぞんでのかつどーいがいにも、さまざまなあーてぃすととこーりゅーをもってきた。	NO_LABEL
デヴィッド・ボウイ、ブライアン・イーノ、ピーター・ガブリエル、ダリル・ホール、デヴィッド・バーン、アンディー・サマーズ、デヴィッド・シルヴィアンと、錚々たる個性派の面々と音楽活動を共にしてきた。	NO_PRONOUNCE	NO_LABEL
1974年のキング・クリムゾン解散後、「もうギターは弾かない」と決心し、半ば音楽業界から引退状態にあったが、デヴィッド・ボウイとブライアン・イーノの呼び掛けで音楽活動に復帰したという経緯がある。	NO_PRONOUNCE	NO_LABEL
また「フリッパートロニクス」や「サウンドスケイプ」と呼ばれる自身が開発した機材のライブ音源などを収録したソロ・ワークや、リーグ・オブ・ジェントルメン、プロジェクトといった外部ユニットの作品も多数発表している。	NO_PRONOUNCE	NO_LABEL
盟友・イーノと同じく、Microsoft Windowsの起動音の製作を手がけた経験もある。	NO_PRONOUNCE	NO_LABEL
2012年のフィナンシャル・タイムズとのインタビューで、「ユニバーサル・ミュージック社との版権を巡る係争に集中するため」としてミュージシャン活動からは引退したと明かした。	NO_PRONOUNCE	NO_LABEL
しかし翌年9月に係争が決着する目処が立ったとして、ミュージシャン活動への復帰とキング・クリムゾンの再始動を発表した。	しかしよくねんくがつにけいそーがけっちゃくするめどがたったとして、みゅーじしゃんかつどーえのふっきときんぐくりむぞんのさいしどーをはっぴょーした。	NO_LABEL
ビートルズやジミ・ヘンドリックスのファンで、ビートルズに関しては『サージェント・ペパーズ・ロンリー・ハーツ・クラブ・バンド』に感銘を受け、ミュージシャンを志したほどだという。	NO_PRONOUNCE	NO_LABEL
ちなみに、初期のクリムゾンは「ルーシー・イン・ザ・スカイ・ウィズ・ダイアモンズ」をカバーしていた。	NO_PRONOUNCE	NO_LABEL
ジミ・ヘンドリックスに対しては「天才だ」と称している。	NO_PRONOUNCE	NO_LABEL
ヘンドリックスも、フリップのギター・プレイに感銘を受け、フリップのライブを観た後に楽屋を訪れた際、「心臓に近いほうの左手で握手してくれ」と頼んだという。	NO_PRONOUNCE	NO_LABEL
その他の趣向としては、20世紀前半に活躍したクラシック音楽の作曲家バルトークも好んでおり、緻密な構造や旋律主体の楽曲など、作風にも影響が見られると言われる。	そのたのしゅこーとしてわ、にじっせいきぜんはんにかつやくしたくらしっくおんがくのさっきょくかばるとーくもこのんでおり、ちみつなこーぞーやせんりつしゅたいのがっきょくなど、さくふーにもえいきょーがみられるといわれる。	NO_LABEL
ロックのギタリストとしては珍しく、常に椅子に腰掛けてプレイすることでも知られる。	ろっくのぎたりすととしてわめずらしく、つねにいすにこしかけてぷれいすることでもしられる。	NO_LABEL
いわゆるリードギター的な主張には乏しいものの、バッキングとするにも強烈なパッセージや複雑なリックを機械的正確さで弾きこなす、シーケンシャルなプレイが持ち味である。	いわゆるりーどぎたーてきなしゅちょーにわとぼしいものの、ばっきんぐとするにもきょーれつなぱっせーじやふくざつなりっくをきかいてきせいかくさではじきこなす、しーけんしゃるなぷれいがもちあじである。	NO_LABEL
「Fracture」などに代表される激しいアルペジオや、ブリューのバックに徹する時の独特のエフェクト遣い、ライヴにおける奔放なインプロヴィゼーションでも知られている。	NO_PRONOUNCE	NO_LABEL
クロマチックスケールの多用も特徴。	くろまちっくすけーるのたよーもとくちょー。	NO_LABEL
ギブソン、フェルナンデス、東海楽器製造などのレスポール・タイプギター。	NO_PRONOUNCE	NO_LABEL
ギターシンセとしての機能とサスティナーがついたものも使用。	ぎたーしんせとしてのきのーとさすてぃなーがついたものもしよー。	NO_LABEL
80年代はGRギターシンセサイザーを使用していた。	はちじゅうねんだいわじーあーるぎたーしんせさいざーをしよーしていた。	NO_LABEL
レコーディングではストラトキャスター等使い分けている。	れこーでぃんぐでわすとらときゃすたーとーつかいわけている。	NO_LABEL
使用しているアンプに付いてはスリーオブアパーフェクトペアーの時期にはローランド社製のトランジスタアンプJC-120、デジタルアンプがブレイクした時期にはJOHNSON社のデジタルアンプを使用していた。	NO_PRONOUNCE	NO_LABEL
使用エフェクトはコルグのA-1、A-2、プログラム出来るタイプのサンズアンプ等。	NO_PRONOUNCE	NO_LABEL
使用機材に関連することであるが、レコーディング時ギターの音をより豊かにするためあらかじめ録音したギタートラックの音をJC-120で再生しさらにその音を録音するという手法を用いていた。	NO_PRONOUNCE	NO_LABEL
2014年頃のツアー時セッティングはMusic Radar記事に詳しい．それによると，Roland GR-1 Guitar Synth/US20 splitter，Fractal Audio Systems Axe FX II XL，Sound Sculpture Switchblade，Eventide H8000 and H3000/3500，Eventide Eclipse，Rocktron MIDI Raider，Boss Expression pedal，などを主として使用しているとのことである．	NO_PRONOUNCE	NO_LABEL
変則チューニングを常用する。	へんそくちゅーにんぐをじょーよーする。	NO_LABEL
始めたきっかけはNYのサウナに入っていた時に思いついたとギタークラフトのインタビュービデオで述べている。	はじめたきっかけわにゅーよーくのさうなにはいっていたときにおもいついたとぎたーくらふとのいんたびゅーびでおでのべている。	NO_LABEL
フリップが用いている変則チューニングの呼称については、フリップ自らが・チューニングと呼んでいた時期がある。	NO_PRONOUNCE	NO_LABEL
