道後姫塚は愛媛県松山市の地名。	どーごひめずかわえひめけんまつやましのちめい。	NO_LABEL
2012年1月1日現在の人口は301人、世帯数は159世帯。	NO_PRONOUNCE	NO_LABEL
郵便番号は790ｰ0858。	NO_PRONOUNCE	NO_LABEL
松山市南東部に位置する。	まつやましなんとーぶにいちする。	NO_LABEL
桜谷町、道後湯月町、道後湯之町、上市、石手、常光寺町と接している。	さくらだにちょー、どーごゆずきちょー、どーごゆのまち、かみいち、いして、じょーこーじちょーとせっしている。	NO_LABEL
市立の小・中学校に通う場合、道後小学校、道後中学校の学区となる。	しりつのしょーちゅーがっこーにかようばあい、どーごしょーがっこー、どーごちゅーがっこーのがっくとなる。	NO_LABEL
県道187号線が町内を走る。	けんどーひゃくはちじゅうななごーせんがちょーないをはしる。	NO_LABEL
道後温泉に近いため、宿泊施設が多い。	どーごおんせんにちかいため、しゅくはくしせつがおーい。	NO_LABEL
