『悪魔タッチでみ・る・く』は、奥村真理子による日本の漫画作品。	NO_PRONOUNCE	NO_LABEL
小学館の学年誌『小学二年生』で1987年に連載された。	NO_PRONOUNCE	NO_LABEL
魔界で暮らす悪魔の女の子・みるくは、誰かをいじめることも嘘をつくこともできない優しい性格。	NO_PRONOUNCE	NO_LABEL
しかしそんな性格は、悪魔としては異端で落ちこぼれであった。	しかしそんなせいかくわ、あくまとしてわいたんでおちこぼれであった。	NO_LABEL
やがて、みるくは魔界の女王によって使い魔のドラゴンとともに地上へ追放されてしまう。	やがて、みるくわまかいのじょおーによってつかいまのどらごんとともにちじょーえついほーされてしまう。	NO_LABEL
地上で渉という人間の少年と知り合ったみるくは、渉の家に居候しながら学校に通う生活を送ることになるが、彼との恋から人間になりたいと願うようになる。	ちじょーでわたるとゆうにんげんのしょーねんとしりあったみるくわ、わたるのいえにいそーろーしながらがっこーにかようせいかつをおくることになるが、かれとのこいからにんげんになりたいとねがうよーになる。	NO_LABEL
