ホロフォニクスとは、アルゼンチンの技術者ウーゴ・スカレーリによって開発された、立体的音響効果をもたらす録音技術の商標である。	ほろふぉにくすとわ、あるぜんちんのぎじゅつしゃうーごすかれーりによってかいはつされた、りったいてきおんきょーこーかをもたらすろくおんぎじゅつのしょーひょーである。	NO_LABEL
スカレーリは、この技術の公開は混乱をもたらすとし、未だに秘匿しているためにその詳細は明らかではないが、しかし実際には、後述するように、この種の録音技術は決して新しいものではない。	すかれーりわ、このぎじゅつのこーかいわこんらんをもたらすとし、いまだにひとくしているためにそのしょーさいわあきらかでわないが、しかしじっさいにわ、こーじゅつするよーに、このたねのろくおんぎじゅつわけっしてあたらしいものでわない。	NO_LABEL
1980年代、ミラノ工科大学に在学中にスカレーリが「発明」し、1983年、英国のCBSで公開された「スカレーリ・ホロフォニクス Zuccarelli Holophonics」という録音で一躍名声を得た。	NO_PRONOUNCE	NO_LABEL
これは、マッチを振る音や、ある人物が床屋を訪れる際の周囲の音、花火の音などを録音したものだが、スピーカーが二つであるにもかかわらず、あらゆる方向から音が伝わる感覚が聴覚に齎される。	これわ、まっちをふるおとや、あるじんぶつがとこやをおとずれるさいのしゅーいのおと、はなびのおとなどをろくおんしたものだが、すぴーかーがふたつであるにもかかわらず、あらゆるほーこーからおとがつたわるかんかくがちょーかくにもたらされる。	NO_LABEL
この一連の録音は、大きなセンセーションを巻き起こし、その後数年のうちにピンク・フロイドが録音に取り入れた。	このいちれんのろくおんわ、おーきなせんせーしょんをまきおこし、そのごすーねんのうちにぴんくふろいどがろくおんにとりいれた。	NO_LABEL
ホロフォニクスの技術に関するスカレーリの主張をめぐっては、論争がある。	ほろふぉにくすのぎじゅつにかんするすかれーりのしゅちょーをめぐってわ、ろんそーがある。	NO_LABEL
この技術のもたらす効果は、頭部のマネキンを用いたバイノーラル録音、あるいは音の頭部伝達を考慮した一般的な立体音響録音の効果と類似している。	このぎじゅつのもたらすこーかわ、とーぶのまねきんをもちいたばいのーらるろくおん、あるいわおとのとーぶでんたつをこーりょしたいっぱんてきなりったいおんきょーろくおんのこーかとるいじしている。	NO_LABEL
それらの一般的な技術と比較して、ホロフォニクスが実質的に異なる、あるいは優れているといういかなる明証もない。	それらのいっぱんてきなぎじゅつとひかくして、ほろふぉにくすがじっしつてきにことなる、あるいわすぐれているとゆういかなるめいしょーもない。	NO_LABEL
耳音響放射は確かに存在するが、それが音像定位の役割を果たすという彼の主張や、この音の「干渉」効果を説明するメカニズムを支持する研究はない。	NO_PRONOUNCE	NO_LABEL
逆に、頭部伝達関数統合やバイノーラル録音を経た適切な「空間手がかり」は、現場と比して遜色のないリアリスティックな立体的音響を再現するとする研究は多く存在する。	NO_PRONOUNCE	NO_LABEL
