和解とは、当事者間に存在する法律関係の争いについて、当事者が互いに譲歩し、争いを止める合意をすることをいう。	わかいとわ、とーじしゃかんにそんざいするほーりつかんけいのあらそいについて、とーじしゃがたがいにじょーほし、あらそいをとめるごーいをすることをいう。	NO_LABEL
大きく分けて、私法上の和解と裁判上の和解がある。	おーきくわけて、しほーじょーのわかいとさいばんじょーのわかいがある。	NO_LABEL
さらに、民事調停法や家事事件手続法に基づく調停も広い意味で和解の一種とされる。	さらに、みんじちょーていほーやかじじけんてつずきほーにもとずくちょーていもひろいいみでわかいのいっしゅとされる。	NO_LABEL
和解は日本では裁判外・裁判上を問わず多く利用されている当事者による自治的な紛争解決方法である。	NO_PRONOUNCE	NO_LABEL
和解は日本では欧米よりも利用度が高いとされ、訴訟では多くの時間と費用を要するとともに当事者間に決定的な亀裂を生じることにつながるため、日本では訴訟よりも迅速・円滑な紛争解決が図りやすい和解が好まれるとされる。	NO_PRONOUNCE	NO_LABEL
その反面、あいまいな妥協による和解は、近代的な権利義務意識の確立という観点からは問題視され、法の健全な発達を阻むおそれをもっているという指摘もなされている。	そのはんめん、あいまいなだきょーによるわかいわ、きんだいてきなけんりぎむいしきのかくりつとゆうかんてんからわもんだいしされ、ほーのけんぜんなはったつをはばむおそれをもっているとゆうしてきもなされている。	NO_LABEL
また、交通事故による被害の補償をめぐる交渉等では、職業的な第三者が交渉に介入し、しばしば弁護士法に触れるような活動が行われて問題視されることがある。	また、こーつーじこによるひがいのほしょーをめぐるこーしょーとーでわ、しょくぎょーてきなだいさんしゃがこーしょーにかいにゅーし、しばしばべんごしほーにふれるよーなかつどーがおこなわれてもんだいしされることがある。	NO_LABEL
2008年9月5日、福岡地方裁判所久留米支部で即日結審した弁護士法違反をめぐるケースでは、損害保険会社と示談交渉を行い約6,700万円の報酬を得ていた会社役員が懲役2年、罰金約3,600万円を命じられている。	NO_PRONOUNCE	NO_LABEL
司法政策上、和解には権利義務意識の点から考慮すべき問題もあるが、特に日本では和解が紛争解決において重要な役割を果たしており、近年では諸外国でも日本の和解や調停など訴訟によらない紛争処理手続の合理性が見直されつつある。	しほーせいさくじょー、わかいにわけんりぎむいしきのてんからこーりょすべきもんだいもあるが、とくににっぽんでわわかいがふんそーかいけつにおいてじゅーよーなやくわりをはたしており、きんねんでわしょがいこくでもにっぽんのわかいやちょーていなどそしょーによらないふんそーしょりてつずきのごーりせいがみなおされつつある。	NO_LABEL
なお、日本では2004年に裁判外紛争解決手続の利用の促進に関する法律が制定されている。	なお、にっぽんでわにせんよねんにさいばんがいふんそーかいけつてつずきのりよーのそくしんにかんするがせいていされている。	NO_LABEL
私法上の和解は、裁判外の和解ともいい、日本では典型契約の一種として扱われると異なり、新たな法律関係を作り出すことを目的とせず、既に存在している法律関係に関する争いの解決を目的とする点に特色がある。	しほーじょーのわかいわ、さいばんがいのわかいともいー、にっぽんでわてんけいけいやくのいっしゅとしてあつかわれるとことなり、あらたなほーりつかんけいをつくりだすことをもくてきとせず、すでにそんざいしているほーりつかんけいにかんするあらそいのかいけつをもくてきとするてんにとくしょくがある。	NO_LABEL
なお、日常用語としては示談という語が使われることもあるが、示談は一方が全面的に譲歩する場合もあり得るのに対し、私法上の和解は互譲が要件になっている、互譲性を重視しない有力説もあり見解が分かれる。	なお、にちじょーよーごとしてわじだんとゆうかたりがつかわれることもあるが、じだんわいっぽーがぜんめんてきにじょーほするばあいもありえるのにたいし、しほーじょーのわかいわごじょーがよーけんになっている、ごじょーせいをじゅーししないゆーりょくせつもありけんかいがわかれる。	NO_LABEL
和解契約の法的性質は諾成・有償・双務契約である。	NO_PRONOUNCE	NO_LABEL
和解契約が成立するためには、以下の要件を満たすことが必要である。	わかいけいやくがせいりつするためにわ、いかのよーけんをみたすことがひつよーである。	NO_LABEL
和解は当事者が争いをやめることを内容とするものであるから、これにより紛争は終結する（）。	わかいわとーじしゃがあらそいをやめることをないよーとするものであるから、これによりふんそーわしゅーけつするかっこ。	NO_LABEL
和解も法律行為の一種なので、本来ならば当事者に「要素の錯誤」があった場合には、その和解は無効であると主張しうるはずである。	NO_PRONOUNCE	NO_LABEL
これを和解の確定力あるいは和解の確定効という。	これをわかいのかくていりょくあるいわわかいのかくていこーという。	NO_LABEL
和解の確定効と錯誤の関係については古くから議論がある。	わかいのかくていこーとさくごのかんけいについてわふるくからぎろんがある。	NO_LABEL
交通事故による損害賠償請求権が発生した後、賠償額やその支払方法について和解が成立することがある。	こーつーじこによるそんがいばいしょーせいきゅーけんがはっせいしたのち、ばいしょーがくやそのしはらいほーほーについてわかいがせいりつすることがある。	NO_LABEL
ところが、示談の際には予測していなかった後遺症が発生した場合、後遺症により拡大した損害については、和解により損害賠償請求権が消滅したものとして扱われるのかが問題となる。	ところが、じだんのさいにわよそくしていなかったこーいしょーがはっせいしたばあい、こーいしょーによりかくだいしたそんがいについてわ、わかいによりそんがいばいしょーせいきゅーけんがしょーめつしたものとしてあつかわれるのかがもんだいとなる。	NO_LABEL
この点について、判例は、全損害を正確に把握し難い状況の下において早急に小額の賠償金をもって示談がされた場合、その示談によって被害者が放棄した損害賠償請求権は、示談当時に予想していた損害についてのもののみと解すべきであり、予想できなかった不測の再手術や後遺症が示談の後に発生した場合は、示談によりその損害についてまで損害賠償請求権を放棄した趣旨と解するのは、当事者の合理的意思に合致するものではないと判断している。	このてんについて、はんれいわ、ぜんそんがいをせいかくにはあくしがたいじょーきょーのしたにおいてそーきゅーにしょーがくのばいしょーきんをもってじだんがされたばあい、そのじだんによってひがいしゃがほーきしたそんがいばいしょーせいきゅーけんわ、じだんとーじによそーしていたそんがいについてのもののみとかいすべきであり、よそーできなかったふそくのさいしゅじゅつやこーいしょーがじだんののちにはっせいしたばあいわ、じだんによりそのそんがいについてまでそんがいばいしょーせいきゅーけんをほーきしたしゅしとかいするのわ、とーじしゃのごーりてきいしにがっちするものでわないとはんだんしている。	NO_LABEL
不法で無効な法律関係を前提として締結される和解契約は公序良俗に反し無効である。	ふほーでむこーなほーりつかんけいをぜんていとしてていけつされるわかいけいやくわこーじょりょーぞくにはんしむこーである。	NO_LABEL
裁判上の和解とは、裁判所が関与する和解のことをいい、訴え提起前の和解と訴訟上の和解に分かれる。	さいばんじょーのわかいとわ、さいばんしょがかんよするわかいのことをいい、うったえていきまえのわかいとそしょーじょーのわかいにわかれる。	NO_LABEL
裁判上の和解が成立した場合は、和解の内容が和解調書に記載され、その記載内容は確定判決と同一の効力を有する（）。	さいばんじょーのわかいがせいりつしたばあいわ、わかいのないよーがわかいちょーしょにきさいされ、そのきさいないよーわかくていはんけつとどーいつのこーりょくをゆーするかっこ。	NO_LABEL
したがって、和解調書は、確定判決と同様、債務名義となり、これに基づいて強制執行をすることができる。	したがって、わかいちょーしょわ、かくていはんけつとどーよー、さいむめいぎとなり、これにもとずいてきょーせいしっこーをすることができる。	NO_LABEL
すなわち、債務者が債権者に対して一定の給付をする旨の内容の和解がされているにもかかわらず、債務者が任意にその和解に基づく給付をしない場合は、債権者は、別途判決を得ることなく、民事執行法が定める手続に基づき、債務者の不動産や債権に対して強制執行をすることができる。	すなわち、さいむしゃがさいけんしゃにたいしていっていのきゅーふをするむねのないよーのわかいがされているにもかかわらず、さいむしゃがにんいにそのわかいにもとずくきゅーふをしないばあいわ、さいけんしゃわ、べっとはんけつをえることなく、みんじしっこーほーがさだめるてつずきにもとずき、さいむしゃのふどーさんやさいけんにたいしてきょーせいしっこーをすることができる。	NO_LABEL
この点は私法上の和解と異なる点である。	このてんわしほーじょーのわかいとことなるてんである。	NO_LABEL
訴え提起前の和解は、起訴前の和解ともいい、民事訴訟の対象となる法律関係に関する争いについて、当事者双方が簡易裁判所に出頭してする和解のことをいうともいう。	うったえていきまえのわかいわ、きそまえのわかいともいー、みんじそしょーのたいしょーとなるほーりつかんけいにかんするあらそいについて、とーじしゃそーほーがかんいさいばんしょにしゅっとーしてするわかいのことをいうともいう。	NO_LABEL
この制度の趣旨は、将来の訴訟の予防を目的として、訴えを提起する前に裁判所の関与の下に和解をするところにある。	このせいどのしゅしわ、しょーらいのそしょーのよぼーをもくてきとして、うったえをていきするまえにさいばんしょのかんよのしたにわかいをするところにある。	NO_LABEL
もっとも、実際上の運用では、起訴前の和解の申立てをする前に当事者間に既に合意が成立していることが多く、もっぱら簡易に債務名義を作成する目的で行われているのが実情である。	もっとも、じっさいうえのうんよーでわ、きそまえのわかいのもうしたてをするまえにとーじしゃかんにすでにごーいがせいりつしていることがおーく、もっぱらかんいにさいむめいぎをさくせいするもくてきでおこなわれているのがじつじょーである。	NO_LABEL
つまり、公正証書の代用で使われることが多い。	つまり、こーせいしょーしょのだいよーでつかわれることがおーい。	NO_LABEL
これは公正証書による債務名義は金銭に対する強制執行のみ可能なのに対し、建物の明け渡しなどの履行の債務名義が必要な場合に多用される。	これわこーせいしょーしょによるさいむめいぎわきんせんにたいするきょーせいしっこーのみかのーなのにたいし、たてもののあけわたしなどのりこーのさいむめいぎがひつよーなばあいにたよーされる。	NO_LABEL
簡易裁判所によっては合意済みの事件に対する申立てに対して「民事上の争い」の実態がないとして受付を拒むケースがある。	NO_PRONOUNCE	NO_LABEL
訴訟上の和解とは、訴訟継続中に、当事者が訴訟上の請求に関して双方の主張を譲歩して、口頭弁論期日等において、権利関係に関する合意と訴訟終了についての合意をすることをいう。	そしょーじょーのわかいとわ、そしょーけいぞくちゅーに、とーじしゃがそしょーじょーのせいきゅーにかんしてそーほーのしゅちょーをじょーほして、こーとーべんろんきじつとーにおいて、けんりかんけいにかんするごーいとそしょーしゅーりょーについてのごーいをすることをいう。	NO_LABEL
訴訟で権利関係や訴訟終了についての合意が成立した場合でも、相互の譲歩がなければ、訴訟上の和解ではない。	そしょーでけんりかんけいやそしょーしゅーりょーについてのごーいがせいりつしたばあいでも、そーごのじょーほがなければ、そしょーじょーのわかいでわない。	NO_LABEL
被告が原告の請求を認めて争わない旨陳述した場合は請求の認諾といい、逆に原告が請求に理由がないことを認めて争わない旨陳述した場合は請求の放棄という。	ひこくがげんこくのせいきゅーをみとめてあらそわないむねちんじゅつしたばあいわせいきゅーのにんだくといい、ぎゃくにげんこくがせいきゅーにりゆーがないことをみとめてあらそわないむねちんじゅつしたばあいわせいきゅーのほーきという。	NO_LABEL
請求の放棄・認諾は、当事者の一方のみの行為によって訴訟が終了する点で訴訟上の和解とは異なる。	NO_PRONOUNCE	NO_LABEL
もっとも、互譲があるか否かについては、訴訟上の請求についての互譲だけではなく、合意の内容を総合的に判断する。	もっとも、ごじょーがあるかいなかについてわ、そしょーじょーのせいきゅーについてのごじょーだけでわなく、ごーいのないよーをそーごーてきにはんだんする。	NO_LABEL
例えば、訴訟上の請求について被告が全面的に原告の言い分を認めた場合でも、訴訟の対象にはなっていなかった別の法律関係について原告が譲歩する旨の合意がされている場合は、訴訟上の和解として扱われる。	たとえば、そしょーじょーのせいきゅーについてひこくがぜんめんてきにげんこくのいーぶんをみとめたばあいでも、そしょーのたいしょーにわなっていなかったべつのほーりつかんけいについてげんこくがじょーほするむねのごーいがされているばあいわ、そしょーじょーのわかいとしてあつかわれる。	NO_LABEL
訴訟上の和解は、民事訴訟における紛争の解決手段として非常に重要な役割を担っている。	そしょーじょーのわかいわ、みんじそしょーにおけるふんそーのかいけつしゅだんとしてひじょーにじゅーよーなやくわりをになっている。	NO_LABEL
日本全国の地方裁判所における、平成18年の第1審民事通常訴訟事件の既済件数は14万2976件であったが、そのうち判決が6万0543件であったのに対し、和解は4万6426件、その他が3万6007件であった。	NO_PRONOUNCE	NO_LABEL
同じく簡易裁判所では、既済件数38万2753件のうち、判決15万3118件、和解8万0093件、その他14万9542件であった。	NO_PRONOUNCE	NO_LABEL
裁判所は、訴訟のどの段階でも、和解を試みることができる（）。	さいばんしょわ、そしょーのどのだんかいでも、わかいをこころみることができるかっこ。	NO_LABEL
和解には、判決と異なり、柔軟な解決ができる、早期・円満に紛争を終わらせることができ、控訴等による費用や時間の負担を避けることができる、債務者による任意の履行が期待しやすいなどのメリットがあることから、裁判所も積極的に和解成立に向けての協議を主導することが多い。	NO_PRONOUNCE	NO_LABEL
前述のとおり、裁判上の和解が成立した場合の和解調書の記載は、確定判決と同一の効力を有する。	ぜんじゅつのとーり、さいばんじょーのわかいがせいりつしたばあいのわかいちょーしょのきさいわ、かくていはんけつとどーいつのこーりょくをゆーする。	NO_LABEL
しかし、和解が成立した後に、自分の意図とは違った和解調書が作成されたとか、自分の意思に反した和解がされたなどという主張がされ、当該和解をめぐって再度争いが発生することがあり得る。	しかし、わかいがせいりつしたのちに、じぶんのいととわちがったわかいちょーしょがさくせいされたとか、じぶんのいしにはんしたわかいがされたなどとゆうしゅちょーがされ、とーがいわかいをめぐってさいどあらそいがはっせいすることがありえる。	NO_LABEL
そのため、訴訟上の和解の内容を争う手続を許容するか、許容するとしてどのような手続によるかが問題となる。	そのため、そしょーじょーのわかいのないよーをあらそうてつずきをきょよーするか、きょよーするとしてどのよーなてつずきによるかがもんだいとなる。	NO_LABEL
この点は、にいう「確定判決と同一の効力」に既判力が含まれるのか否かという点との関係でも問題となるが、一般的には、和解の無効を主張する方法については、以下の方法のいずれによってもよいと考えられている。	NO_PRONOUNCE	NO_LABEL
なお、再審の訴え（）を認める見解もあるが、旧民事訴訟法上の再審の訴えに関する大審院判例は、和解について再審の訴えを認めていない。	なお、さいしんのうったえかっこをみとめるけんかいもあるが、きゅーみんじそしょーほーじょーのさいしんのうったえにかんするだいしんいんはんれいわ、わかいについてさいしんのうったえをみとめていない。	NO_LABEL
