2000/2001 ISUグランプリファイナルは、2001年2月15日から2月18日まで日本の東京代々木第一体育館で開催されたフィギュアスケートのISUグランプリシリーズのファイナル大会。	NO_PRONOUNCE	NO_LABEL
男子シングルと女シングルの参加枠は6人、ペアとアイスダンスの参加枠は6組となった。	NO_PRONOUNCE	NO_LABEL
これ以後、6人、6組となる。	NO_PRONOUNCE	NO_LABEL
今大会は前回大会と同じ競技方法を採用した。	こんたいかいわぜんかいたいかいとおなじきょーぎほーほーをさいよーした。	NO_LABEL
男子シングル、女子シングル、ペアはショートプログラム、フリースケーティングで暫定順位を決定、アイスダンスはオリジナルダンス、フリーダンスで暫定順位を決定し、それぞれ暫定1位と暫定2位、暫定3位と暫定4位、暫定5位と暫定6位が再度フリースケーティングおよびフリーダンスを行い直接対決する競技方法であった。	だんししんぐる、じょししんぐる、ぺあわしょーとぷろぐらむ、ふりーすけーてぃんぐでざんていじゅんいをけってい、あいすだんすわおりじなるだんす、ふりーだんすでざんていじゅんいをけっていし、それぞれざんていいちーとざんていにー、ざんていさんいとざんていよんい、ざんていごいとざんていろくいがさいどふりーすけーてぃんぐおよびふりーだんすをおこないちょくせつたいけつするきょーぎほーほーであった。	NO_LABEL
そのため順位点と最終順位が異なることがある。	そのためじゅんいてんとさいしゅーじゅんいがことなることがある。	NO_LABEL
男子シングルはヤグディンとプルシェンコのライバル対決に注目が集まった。	だんししんぐるわやぐでぃんとぷるしぇんこのらいばるたいけつにちゅーもくがあつまった。	NO_LABEL
お互いにショートから4回転ジャンプを跳び異次元の戦いを見せるも、2度目のフリースケーティングで4回転コンビネーションジャンプを2度成功させたプルシェンコに軍配が上がった。	おたがいにしょーとからよんかいてんじゃんぷをとびいじげんのたたかいをみせるも、にどめのふりーすけーてぃんぐでよんかいてんこんびねーしょんじゃんぷをにどせいこーさせたぷるしぇんこにぐんばいがあがった。	NO_LABEL
ヤグディンも4回転を2度成功させ、ミスは2度目の4回転トウループでわずかに着氷が乱れただけだった。	やぐでぃんもよんかいてんをにどせいこーさせ、みすわにどめのよんかいてんとーるーぷでわずかにちゃくひょーがみだれただけだった。	NO_LABEL
NHK解説の五十嵐文男は「オリンピックより価値のある試合」「めったに見られる試合じゃない」と評した。	NO_PRONOUNCE	NO_LABEL
