康楽館は、秋田県鹿角郡小坂町にある小坂町立の芝居小屋。	こうらくかんわ、あきたけんかずのぐんおさかちょーにあるこさかちょーりつのしばいごや。	NO_LABEL
建物は国の重要文化財である。	たてものわくにのじゅーよーぶんかざいである。	NO_LABEL
旧金毘羅大芝居や永楽館とともに、日本最古級の劇場の一つとして知られる。	きゅーこんぴらおおしばいやえいらくかんとともに、にっぽんさいこきゅーのげきじょーのひとつとしてしられる。	NO_LABEL
2011年に指定管理者制度を導入し、町の直営から第三セクター企業小坂まちづくり株式会社の管理に移行した。	にせんじゅういちねんにしていかんりしゃせいどをどーにゅーし、まちのちょくえいからだいさんせくたーきぎょーこさかまちずくりかぶしきがいしゃのかんりにいこーした。	NO_LABEL
木造2階建、切妻造妻入りで、屋根は銅板葺とする。	もくぞーにかいけん、きりずまずくりつまいりで、やねわどーいたぶきとする。	NO_LABEL
平面規模は正面約28.2メートル、奥行約38.2メートル。	NO_PRONOUNCE	NO_LABEL
小坂鉱山を経営していた合名会社藤田組によって建てられたもので、棟札により明治43年の建築であることが判明する。	こさかこーざんをけいえいしていたごーめいがいしゃふじたぐみによってたてられたもので、むなふだによりめいじよんじゅうさんねんのけんちくであることがはんめいする。	NO_LABEL
設計者は小坂鉱山工作課営繕掛長の山本辰之助とされる。	せっけいしゃわこさかこーざんこーさくかえいぜんかけちょーのやまもとたつのすけとされる。	NO_LABEL
下見板張りの白塗り、上げ下げ式窓と鋸歯状の軒飾りが並び洋館風の外観を持つ一方、桟敷、花道、切穴など典型的な和風芝居小屋の内装で、和洋折衷の造りが特徴である。	したみいたばりのしろぬり、あげさげしきまどときょしじょーののきかざりがならびよーかんふーのがいかんをもついっぽー、さじき、かどー、せつあななどてんけいてきなわふーしばいごやのないそーで、わよーせっちゅーのつくりがとくちょーである。	NO_LABEL
移築や復元を行わず、現在も利用されている和洋折衷の木造芝居小屋として最古である。	いちくやふくげんをおこなわず、げんざいもりよーされているわよーせっちゅーのもくぞーしばいごやとしてさいこである。	NO_LABEL
当館より9年古い1901年築の永楽館は、2008年に創建時への復元工事をして再利用されている。	とーかんよりきゅうねんふるいせんきゅうひゃくいちねんちくのえいらくかんわ、にせんはちねんにそーけんじえのふくげんこーじをしてさいりよーされている。	NO_LABEL
現存する日本最古の劇場である1835年築の旧金毘羅大芝居は、1972年から1976年にかけて移築復元されている。	げんそんするにっぽんさいこのげきじょーであるせんはっぴゃくさんじゅうごねんちくのきゅーこんぴらおおしばいわ、せんきゅうひゃくななじゅうにねんからせんきゅうひゃくななじゅうろくねんにかけていちくふくげんされている。	NO_LABEL
歌舞伎大芝居などの特別な公演がある日と休館日以外は常設公演の有無に関わらず施設内を見学でき、特に12月から3月の舞台が空いている場合に限り、舞台を回す体験などができる。	かぶきだいしばいなどのとくべつなこーえんがあるひときゅーかんびいがいわじょーせつこーえんのうむにかかわらずしせつないをけんがくでき、とくにじゅーにがつからさんがつのぶたいがあいているばあいにかぎり、ぶたいをまわすたいけんなどができる。	NO_LABEL
