朱鞠内駅は、北海道雨竜郡幌加内町字朱鞠内にあった北海道旅客鉄道深名線の駅である。	しゅまりないえきわ、ほっかいどーうりゅーぐんほろかないちょーじしゅまりないにあったほっかいどーりょかくてつどーしんめいせんのえきである。	NO_LABEL
電報略号はマリ。	でんぽーりゃくごーわまり。	NO_LABEL
深名線の廃線に伴い1995年9月4日に廃駅となった。	しんめいせんのはいせんにともないせんきゅうひゃくきゅうじゅうごねんくがつよっかにはいえきとなった。	NO_LABEL
廃止時点で、相対式ホーム2面2線を有する地上駅で、列車交換可能な交換駅であった。	NO_PRONOUNCE	NO_LABEL
互いのホームは駅舎側ホーム中央部分と対向側ホーム南側を結んだ構内踏切で連絡した。	たがいのほーむわえきしゃがわほーむちゅーおーぶぶんとたいこーがわほーむみなみがわをむすんだこーないふみきりでれんらくした。	NO_LABEL
駅舎側ホーム、対向側ホーム共に上下線共用となっていた。	えきしゃがわほーむ、たいこーがわほーむどもにじょーげせんきょーよーとなっていた。	NO_LABEL
対向側ホームの外側1線が側線となっており、そのほか駅舎側本線の名寄方から分岐し駅舎北側のホーム切欠き部分の貨物ホームへの貨物側線を1線有していた。	NO_PRONOUNCE	NO_LABEL
1983年時点では構内外側にさらに3線の側線を有し、最も外側の側線からは名寄方に分岐して転車台を有し、その先で更に3線に分岐し車庫に至る行き止まりの側線を有した。	NO_PRONOUNCE	NO_LABEL
その後1993年までには撤去された。	そのごせんきゅうひゃくきゅうじゅうさんねんまでにわてっきょされた。	NO_LABEL
職員配置駅で、駅舎は構内の西側に位置しホーム中央部分に接していた。	しょくいんはいちえきで、えきしゃわこーないのにしがわにいちしほーむちゅーおーぶぶんにせっしていた。	NO_LABEL
駅舎は1964年の大火の後に建て替えられた耐火ブロック造の平屋の建物であった。	えきしゃわせんきゅうひゃくろくじゅうよねんのたいかののちにたてかえられたたいかぶろっくみやつこのひらやのたてものであった。	NO_LABEL
1983年時点では駅舎内にキクの造花や木の根の大株が飾られていた。	せんきゅうひゃくはちじゅうさんねんじてんでわえきしゃないにきくのぞーかやきのねのおおかぶがかざられていた。	NO_LABEL
また、「わたしの旅スタンプ」が設置されていた。	NO_PRONOUNCE	NO_LABEL
ちなみに焼失した旧駅舎は一部二階建ての木造で、面積は旧駅舎の方が1.5倍程広かった。	ちなみにしょーしつしたきゅーえきしゃわいちぶにかいだてのもくぞーで、めんせきわきゅーえきしゃのほーがいちてんごばいほどひろかった。	NO_LABEL
また、旧駅舎も開設当初は北母子里駅より若干大きい程度の平屋であったが、1956年までに増改築されている。	また、きゅーえきしゃもかいせつとーしょわきたもしりえきよりじゃっかんおーきいていどのひらやであったが、せんきゅうひゃくごじゅうろくねんまでにぞーかいちくされている。	NO_LABEL
名羽線が開業すれば、当駅は名羽線と深名線とをスイッチバックで接続する乗換駅になる予定だった。	めいはねせんがかいぎょーすれば、とーえきわめいはねせんとしんめいせんとをすいっちばっくでせつぞくするのりかええきになるよていだった。	NO_LABEL
当駅の所在する地名より。	とーえきのしょざいするちめいより。	NO_LABEL
地名は、アイヌ語由来とされるが、諸説ある。	ちめいわ、あいぬごゆらいとされるが、しょせつある。	NO_LABEL
当駅ができる以前は湖畔駅近くの三股が朱鞠内の中心市街であったが、当駅がかなり離れた位置に設置されたため、駅の建設と共に多くが三股から移転して新市街が形成された。	とーえきができるいぜんわこはんえきちかくのみまたがしゅまりないのちゅーしんしがいであったが、とーえきがかなりはなれたいちにせっちされたため、えきのけんせつとともにおーくがみつまたからいてんしてしんしがいがけいせいされた。	NO_LABEL
また駅構内の南北両端に接する敷地にはそれぞれ木工所が開設されて、特に北側の三津橋木工所は専用線が廃止された後も長く操業を続けていた。	またえきこーないのなんぼくりょーたんにせっするしきちにわそれぞれもっこーしょがかいせつされて、とくにきたがわのみつはしもっこーしょわせんよーせんがはいしされたのちもながくそーぎょーをつずけていた。	NO_LABEL
駅前広場には「歓迎 道立朱鞠内湖公園」と記載された鉄製のアーチが設置されていた。	NO_PRONOUNCE	NO_LABEL
廃駅後しばらくは駅舎がバス待合所として再利用され、相対式ホームも残っていた。	はいえきごしばらくわえきしゃがばすまちあいじょとしてさいりよーされ、そーたいしきほーむものこっていた。	NO_LABEL
2000年初頭時点では駅舎は現役当時のままと言える状態であったが、同年夏に跡地の再利用として全て解体され、跡地は「朱鞠内コミュニティー公園」となった。	NO_PRONOUNCE	NO_LABEL
駅舎跡地にはバス待合所が新築され、ロータリー内に駅名標とレールの一部が移設されている。	えきしゃあとちにわばすまちあいじょがしんちくされ、ろーたりーないにえきめいひょーとれーるのいちぶがいせつされている。	NO_LABEL
また、2000年時点では駅跡の湖畔方にあった最初の踏切附近から左側に分岐する未成線の名羽線の道床が残存しており、2010年時点でも同様であった。	また、にせんねんじてんでわえきあとのこはんかたにあったさいしょのふみきりふきんからひだりがわにぶんきするみせいせんのめいはねせんのどーしょーがざんそんしており、にせんじゅうねんじてんでもどーよーであった。	NO_LABEL
