コゼットは小惑星帯に位置する小惑星である。	こぜっとわしょーわくせいたいにいちするしょーわくせいである。	NO_LABEL
1918年12月14日、フランソワ・ゴネシアがアルジェで発見した。	せんきゅうひゃくじゅうはちねんじゅーにがつじゅうよっか、ふらんそわごねしあがあるじぇではっけんした。	NO_LABEL
ゴネシアの娘にちなんで名づけられた。	ごねしあのむすめにちなんでなずけられた。	NO_LABEL
