ESTsoftは1992年創業の韓国のソフトウェア開発企業。	いすとそふとわせんきゅうひゃくきゅうじゅうにねんそーぎょーのかんこくのそふとーぇあかいはつきぎょー。	NO_LABEL
PC用ユーティリティからビジネスソフトまで活動は多岐に及ぶ。	ぴーしーよーゆーてぃりてぃからびじねすそふとまでかつどーわたきにおよぶ。	NO_LABEL
作成したソフトウェアは「ALTools」の名称で呼ばれ、一貫して接頭語に「AL」を用いている。	NO_PRONOUNCE	NO_LABEL
「AL」とは韓国語で「卵」を意味する。	NO_PRONOUNCE	NO_LABEL
つまり、「ALTools」とは「道具の卵」の意味である。	NO_PRONOUNCE	NO_LABEL
