新道場駅は、かつて兵庫県有馬郡道場村日下部にあった、鉄道省有馬線の駅である。	しんどーじょーえきわ、かつてひょーごけんありまぐんどーじょーむらくさかべにあった、てつどーしょーありませんのえきである。	NO_LABEL
有馬線の休止に伴い、1943年に休止されたままとなっている。	ありませんのきゅーしにともない、せんきゅうひゃくよんじゅうさんねにきゅーしされたままとなっている。	NO_LABEL
1915年に有馬線の開業に伴い、当駅が開業した。	せんきゅうひゃくじゅうごねんにありませんのかいぎょーにともない、とーえきがかいぎょーした。	NO_LABEL
駅前には周辺から運ばれた農産物や干鰯、竹細工、筆軸、石筆、木材、清酒などの生産物が納められた倉庫群があり、また客待ちの人力車も常駐し盛況であったという。	えきまえにわしゅーへんからはこばれたのーさんぶつやほしか、たけざいく、ふでじく、せきひつ、もくざい、せいしゅなどのせいさんぶつがおさめられたそーこぐんがあり、またきゃくまちのじんりきしゃもじょーちゅーしせいきょーであったという。	NO_LABEL
しかし、1928年に神戸有馬電気鉄道三田線の開通により、駅から500m程の所に道場川原駅が開業すると、瞬く間に客足を奪われる事となった。	しかし、せんきゅうひゃくにじゅうはちねんにこーべありまでんきてつどーみたせんのかいつーにより、えきからごひゃくめーとるほどのところにどーじょーちょぬぉんえきがかいぎょーすると、まどかくかんにきゃくあしをうばわれることとなった。	NO_LABEL
単式ホーム1面1線のみを持つ地上駅。	NO_PRONOUNCE	NO_LABEL
廃止後、駅跡はないが線路跡や橋桁の一部などが、残っている。	はいしご、えきあとわないがせんろあとやはしげたのいちぶなどが、のこっている。	NO_LABEL
