ダグラス・ヒューブラーは、アメリカ合衆国のコンセプチュアルアーティスト。	だぐらすひゅーぶらーわ、あめりかがっしゅーこくのこんせぷちゅあるあーてぃすと。	NO_LABEL
ミシガン州アナーバー出身。	みしがんしゅーあなーばーしゅっしん。	NO_LABEL
1948年Cleveland School of the Artsおよびパリのアカデミー・ジュリアンで学んだ後、1952年ミシガン大学卒業、1955年同大学においてMFA取得。	NO_PRONOUNCE	NO_LABEL
初期は画家として活動を始め、1966年には木とフォルミカを用いたミニマル・アートの彫刻に移行する。	しょきわがかとしてかつどーをはじめ、せんきゅうひゃくろくじゅうろくねんにわきとふぉるみかをもちいたみにまるあーとのちょーこくにいこーする。	NO_LABEL
1967年からは地図を用いた作品を制作。	せんきゅうひゃくろくじゅうななねからわちずをもちいたさくひんをせいさく。	NO_LABEL
"Site Sculpture Project, Windham College Pentagon, Putney, Vermont"は地図と写真、テキストによる作品で、地図上に五角形を描くように五つの地点で撮影を行った。	NO_PRONOUNCE	NO_LABEL
1968年以降は立体作品の制作をやめ、「Duration Pieces」、「Variable Pieces」、「Location Pieces」の三つのシリーズを開始。	NO_PRONOUNCE	NO_LABEL
これは主に日常生活における出来事を取り扱い、写真、地図、ドローイング、テキストによるドキュメンタリースタイルの作品である。	これわおもににちじょーせいかつにおけるできごとをとりあつかい、しゃしん、ちず、どろーいんぐ、てきすとによるどきゅめんたりーすたいるのさくひんである。	NO_LABEL
1969年1月、ジョセフ・コスース、ロバート・バリーのキュレーションによる歴史的なグループ展に参加する。	せんきゅうひゃくろくじゅうきゅうねんいちがつ、じょせふこすーす、ろばーとばりーのきゅれーしょんによるれきしてきなぐるーぷてんにさんかする。	NO_LABEL
この展示にあたりヒューブラーは有名なステートメントを残す。	このてんじにあたりひゅーぶらーわゆーめいなすてーとめんとをのこす。	NO_LABEL
「The world is full of objects, more or less interesting; I do not wish to add any more.」	NO_PRONOUNCE	NO_LABEL
初期の代表作の一つである "Duration Piece #5"は10点の白黒写真にテキストが添えられている。	NO_PRONOUNCE	NO_LABEL
これはセントラルパークで鳥の鳴き声が聞こえるたびにその方向にカメラを向け写真を撮影した作品である。	これわせんとらるぱーくでとりのなきごえがきこえるたびにそのほーこーにかめらをむけしゃしんをさつえいしたさくひんである。	NO_LABEL
1971年から開始された"Variable Piece #70Global" シリーズにおいては「全ての人の生の存在を写真としてドキュメントする」ことを目的とし、偶然道で出会った人や知り合いをはじめ膨大な量の写真を使用し、一定のテーマに沿ってテキストとともに額に収められる。	NO_PRONOUNCE	NO_LABEL
1980年代からは絵画と自身の作品を組み合わせた"The Great Corrector"シリーズを開始。	NO_PRONOUNCE	NO_LABEL
これは「the Great Corrector」という架空の人物に扮し、パブロ・ピカソ、マティス、ブリューゲル、ヒエロニムス・ボスなどの著名な絵画を撮影し、それらを「より良くする」ための試みである。	NO_PRONOUNCE	NO_LABEL
"Buried Treasure"シリーズにおいてはモネ、ゴッホ、ゴーギャン、キリコなどの著名な絵画を複製し、違法美術商に関するテキストを添えて提示している。	NO_PRONOUNCE	NO_LABEL
1976-1988年にはカリフォルニア芸術大学で教鞭をとり、マイク・ケリー、クリストファー・ウィリアムスなどの世代に影響を及ぼした。	NO_PRONOUNCE	NO_LABEL
