「ビーサン」は、Silent Sirenの3枚目のシングル。	NO_PRONOUNCE	NO_LABEL
2013年8月14日にドリーミュージックから発売された。	にせんじゅうさんねんはちがつじゅうよっかにどりーみゅーじっくからはつばいされた。	NO_LABEL
初回限定生産版には、生写真1枚ランダム封入とサイサイフリマ or グッズプレゼント応募券封入	NO_PRONOUNCE	NO_LABEL
