野島 直人は、日本の俳優、タレント。	のじまなおとわ、にっぽんのはいゆー、たれんと。	NO_LABEL
埼玉県越谷東高校出身。	さいたまけんこしがやひがしこーこーしゅっしん。	NO_LABEL
血液型A型。	けつえきがたえーがた。	NO_LABEL
身長公称173cm　体重63kg　靴のサイズ27cm。	しんちょーこーしょーひゃくななじゅうさんせんちめーとるたいじゅーろくじゅうさんきろぐらむくつのさいずにじゅうななせんちめーとる。	NO_LABEL
右利き。	みぎりき。	NO_LABEL
パシフィックボイス所属。	ぱしふぃっくぼいすしょぞく。	NO_LABEL
あだなは「ノジ」「のじくん」「なおちゃん」。	NO_PRONOUNCE	NO_LABEL
出身は埼玉県春日部市だが、母親が帰省中に生まれたので生まれは群馬県館林市。	しゅっしんわさいたまけんかすかべしだが、ははおやがきせいちゅーにうまれたのでうまれわぐんまけんたてばやしし。	NO_LABEL
高校時代まで野球漬け。	こーこーじだいまでやきゅーずけ。	NO_LABEL
ミュージカルなどの観劇は中学生時代から趣味として観ていたが目立つことがしたいと突然思い「目指せ甲子園！」から「劇団四季入団」を目標に高校野球引退後ボイストレーニングを受け始める。	NO_PRONOUNCE	NO_LABEL
そしてその年の劇団四季の歌唱クラシック部門に聴講生として合格。	そしてそのとしのげきだんしきのかしょーくらしっくぶもんにちょーこーせいとしてごーかく。	NO_LABEL
その後、劇団四季39期研修生となり初舞台は「九郎衛門」の主役太郎坊役に大抜擢されて俳優スタートをきる。	NO_PRONOUNCE	NO_LABEL
劇団四季時代は「九郎衛門」「赤毛のアン」「青い鳥」などに出演。	NO_PRONOUNCE	NO_LABEL
退団後は現在所属しているパシフィックボイスに所属。	たいだんごわげんざいしょぞくしているぱしふぃっくぼいすにしょぞく。	NO_LABEL
2004年 平林勇監督の短編映画「VS」に出演。	NO_PRONOUNCE	NO_LABEL
また2006年 同監督の短編映画『ドロン』主演作がグラナダ国際短編映画祭、釜山国際短編映画祭、トロントジャパニーズ映画祭でそれぞれグランプリを獲る。	NO_PRONOUNCE	NO_LABEL
2008年 短編映画『BABIN』においてもロカルノ国際映画祭審査員特別賞および学生審査員賞を獲り海外での評価も高い。	NO_PRONOUNCE	NO_LABEL
2010年 短編映画『shikasha』はカンヌ映画祭2010 監督週間 短編部門にノミネート。	NO_PRONOUNCE	NO_LABEL
また、2008年には毎日更新！をテーマに「無意味の意味の意味」という動画配信をYouTubeにて1年半行った。	NO_PRONOUNCE	NO_LABEL
2011年 帝国劇場開場100周年記念公演「レ・ミゼラブル」ではマリウス役に抜擢される。	NO_PRONOUNCE	NO_LABEL
2000年	にせんねん	NO_LABEL
2002年	にせんにねん	NO_LABEL
2005年	にせんごねん	NO_LABEL
2006年	にせんろくねん	NO_LABEL
2007年	にせんななねん	NO_LABEL
2008年	にせんはちねん	NO_LABEL
2009年	にせんきゅうねん	NO_LABEL
2010年	にせんじゅうねん	NO_LABEL
2011年	にせんじゅういちねん	NO_LABEL
2012年	にせんじゅうにねん	NO_LABEL
2013年	にせんじゅうさんねん	NO_LABEL
2014年	にせんじゅうよねん	NO_LABEL
2015年	にせんじゅうごねん	NO_LABEL
2016年	にせんじゅうろくねん	NO_LABEL
2009年	にせんきゅうねん	NO_LABEL
2012年	にせんじゅうにねん	NO_LABEL
幼稚園年長時にペルテス氏病を患い小学校5年生までコルセットでの生活を送る。	よーちえんねんちょーじにぺるてすしびょーをわずらいしょーがっこーごねんせいまでこるせっとでのせいかつをおくる。	NO_LABEL
その後、過酷なリハビリ期間を経て小学校6年生で小学校での初めての運動会に参加。	そのご、かこくなりはびりきかんをへてしょーがっこーろくねんせいでしょーがっこーでのはじめてのうんどーかいにさんか。	NO_LABEL
当時読売巨人軍の吉村禎章選手が試合中の接触事故による怪我でリハビリをする姿をTVでみて「自分もこの病気を克服し同じ病気の人の光にないたい」と思い「プロ野球選手」を目指すようになる。	NO_PRONOUNCE	NO_LABEL
中学は春日部中野中、一年生から試合に出場し三年生の時には主将に選ばれ歴代三本の指にはいると言われるほど厳しい主将とし語り継がれる。	ちゅーがくわかすかべなかのなか、いちねんせいからしあいにしゅつじょーしさんねんせいのときにわしゅしょーにえらばれれきだいみつもとのゆびにわいるといわれるほどきびしいしゅしょーとしかたりつがれる。	NO_LABEL
そのかいあって毎年一回戦敗退していたチームを市内3位まで導く。	そのかいあってまいとしいちかいせんはいたいしていたちーむをしないさんいまでみちびく。	NO_LABEL
高校時代は捕手と一塁手を兼任。	こーこーじだいわほしゅといちるいしゅをけんにん。	NO_LABEL
一年生新人大会から三年生まで全ての大会にベンチ入りをした。	いちねんせいしんじんたいかいからさんねんせいまですべてのたいかいにべんちいりをした。	NO_LABEL
また三年生のとき朝日新聞「捕手にみる高校野球」の「ムードメーカー」特集でトリを飾り注目選手となる。	NO_PRONOUNCE	NO_LABEL
埼玉西武ライオンズ大島裕之外野手が同世代を代表する選手。	さいたませいぶらいおんずおーしまひろゆきがいやしゅがどーせだいをだいひょーするせんしゅ。	NO_LABEL
そしてこの時の体重は最大時で104kgの巨漢。	そしてこのときのたいじゅーわさいだいじでひゃくよんきろぐらむのきょかん。	NO_LABEL
当時は「L」が一番ちいさいサイズだと思っていたというくらいの体型だった。	NO_PRONOUNCE	NO_LABEL
高校野球引退後、劇団四季入団を目指しボイストレーニング＆ピアノを開始。	こーこーやきゅーいんたいご、げきだんしきにゅーだんをめざしぼいすとれーにんぐあんどぴあのをかいし。	NO_LABEL
劇団四季オーディションの前に国立音楽大学を受験、見事？失敗したが、その後劇団四季オーディションに歌唱クラシック部門で受験し聴講生として合格。	NO_PRONOUNCE	NO_LABEL
この部門の合格者は3名だった.	NO_PRONOUNCE	NO_LABEL
2000年39期研究生となり、2001年劇団四季入団を果たし、ファミリーミュージカル「九郎衛門」の主役太郎坊役でデビュー。	NO_PRONOUNCE	NO_LABEL
研究所時好きな女性にフラれ、何かを変えたいと思って「ダイエット」を決意し見事体重61kgまで減量成功。	NO_PRONOUNCE	NO_LABEL
しかし食事制限で絞った為、リバウンドして苦戦していた。	しかししょくじせいげんでしぼったため、りばうんどしてくせんしていた。	NO_LABEL
現在は本人もBlogで公開しているように縄跳びでの減量を続けている。	NO_PRONOUNCE	NO_LABEL
一日一万五千回を跳んでいる。	ひといちいちまんごせんかいをとんでいる。	NO_LABEL
愛用の縄跳びはTANITA「カロリージャンプ」。	NO_PRONOUNCE	NO_LABEL
趣味はプロ野球観戦。	しゅみわぷろやきゅーかんせん。	NO_LABEL
その中でもファーム観戦。	そのなかでもふぁーむかんせん。	NO_LABEL
ファーム観戦は一軍の様な華やかさがないので野球の本質をみれるから好き。	ふぁーむかんせんわいちぐんのよーなはなやかさがないのでやきゅーのほんしつをみれるからすき。	NO_LABEL
観戦は今の自分との対話する時間。	かんせんわいまのじぶんとのたいわするじかん。	NO_LABEL
他は城巡り。	たわしろめぐり。	NO_LABEL
劇団四季時代旅公演が大半だった為、情緒溢れる様式が心地よく趣味になる。	げきだんしきじだいたびこーえんがたいはんだったため、じょーちょあふれるよーしきがここちよくしゅみになる。	NO_LABEL
ちなみに一番気に入っている城は兵庫県にある「竹田城址」。	NO_PRONOUNCE	NO_LABEL
ここは雲海がみられる。	ここわうんかいがみられる。	NO_LABEL
高校野球からそのまま劇団四季に入団した為かアスリートの様なファイト溢れる言葉を多用しているので、周囲から「熱い男」「情熱的な男」と評されている。	NO_PRONOUNCE	NO_LABEL
ある意味臭過ぎとの意見もある。	あるいみしゅーすぎとのいけんもある。	NO_LABEL
代表的な言葉は「情熱に勝るものなし」。	NO_PRONOUNCE	NO_LABEL
