桂昌寺は岐阜県郡上市美並町にある寺。	けいしょうじわぎふけんぐじょうしみなみまちにあるてら。	NO_LABEL
境内に咲くぼたんの花が有名。	けいだいにさくぼたんのはながゆーめい。	NO_LABEL
なお副住職の清水宗元は可児市のソシエダーデ・エドカショナル・ブラジリアン・スクールの教員であり、ブラジリアン柔術団体の代表。	なおふくじゅーしょくのしみずそうげんわかにしのそしえだーでえどかしょなるぶらじりあんすくーるのきょーいんであり、ぶらじりあんじゅーじゅつだんたいのだいひょー。	NO_LABEL
