ムスタファ・ケマルのサムスン上陸は、1919年5月19日に、オスマン帝国監察官ムスタファ・ケマル・パシャが貨客船バンドゥルマ号での航海の後にサムスンに上陸した事件である。	NO_PRONOUNCE	NO_LABEL
トルコ共和国国民教育省によると、この事件はトルコ独立戦争の実質的な開始点とされている。	とるこきょーわこくこくみんきょーいくしょーによると、このじけんわとるこどくりつせんそーのじっしつてきなかいしてんとされている。	NO_LABEL
サムスンにおけるギリシャ系武装組織とトルコの民衆の間に発生した衝突を収束させるため、オスマン帝国政府によりムスタファ・ケマル・パシャが第9軍監察官に任命された。	NO_PRONOUNCE	NO_LABEL
このため、ムスタファ・ケマルはバンドゥルマ号で監察担当地区に行き1週間にわたりホテルに滞在した。	このため、むすたふぁけまるわばんどぅるまごーでかんさつたんとーちくにいきいっしゅーかんにわたりほてるにたいざいした。	NO_LABEL
この間、同地域で発生した衝突の原因を調査し、進駐軍に対するトルコ人の抵抗組織の創設に自ら積極的な役割を果たした。	このかん、どーちいきではっせいしたしょーとつのげんいんをちょーさし、しんちゅーぐんにたいするとるこじんのていこーそしきのそーせつにみずからせっきょくてきなやくわりをはたした。	NO_LABEL
ムスタファ・ケマル・パシャは、この1週間後にに移った。	NO_PRONOUNCE	NO_LABEL
その17日後、ハウザを離れアマスィヤに向かった。	そのじゅうしちにちご、はうざをはなれあますぃやにむかった。	NO_LABEL
オスマン帝国は、1918年終盤、第一次世界大戦に敗北しムドロス休戦協定に署名し、帝国の解体過程の末期症状を呈していた。	おすまんていこくわ、せんきゅうひゃくじゅうはちねんしゅーばん、だいいちじせかいたいせんにはいぼくしむどろすきゅーせんきょーていにしょめいし、ていこくのかいたいかていのまっきしょうじょーをていしていた。	NO_LABEL
欧州諸国により「瀕死の病人」と見做されたオスマン帝国は、休戦協定によりボスポラス海峡の支配権、地下資源の使用権、陸海軍の指揮権を連合国側に譲渡した。	NO_PRONOUNCE	NO_LABEL
ムドロス休戦協定締結後、イズミルはギリシャ、アダナはフランス、アンタルヤ及びコンヤはイタリアによって占領された。	むどろすきゅーせんきょーていていけつご、いずみるわぎりしゃ、あだなわふらんす、あんたるやおよびこんやわいたりあによってせんりょーされた。	NO_LABEL
これらのほかに、ウルファ、マラシュ、アンテプ、、サムスンにはイギリスが進駐し、イスタンブールにはイギリス艦隊が投錨した。	NO_PRONOUNCE	NO_LABEL
これらに対する反抗として、トルコ人によって、や、併合拒絶の諸協会などの結社が設立され、占領状況を収束させるための方策が考えられはじめた。	これらにたいするはんこーとして、とるこじんによって、や、へいごーきょぜつのしょきょーかいなどのけっしゃがせつりつされ、せんりょーじょーきょーをしゅーそくさせるためのほーさくがかんがえられはじめた。	NO_LABEL
この時期の全てのオスマン帝国の地域と同様、サムスンにおいても進駐軍とトルコの民衆の間で武力衝突が発生しはじめていた。	このじきのすべてのおすまんていこくのちいきとどーよー、さむすんにおいてもしんちゅーぐんととるこのみんしゅーのまでぶりょくしょーとつがはっせいしはじめていた。	NO_LABEL
これに対し、連合国はオスマン帝国に対しの署名で最後通牒を発し、当該地域における混乱の解消を求め、さもなければムドロス休戦協定第7条を理由として当該地域の占領するであろうことを宣言した。	これにたいし、れんごーこくわおすまんていこくにたいしのしょめいでさいごつうちょーをはっし、とーがいちいきにおけるこんらんのかいしょーをもとめ、さもなければむどろすきゅーせんきょーていだいななじょーをりゆーとしてとーがいちいきのせんりょーするであろうことをせんげんした。	NO_LABEL
当時の軍務大臣と大宰相は、混乱の解消任務においてはムスタファ・ケマルが適任であると判断し、ムスタファ・ケマル・パシャは、この任務をアブク・アフメト・パシャより知らされ、任務を受諾した。	NO_PRONOUNCE	NO_LABEL
ケマルはこの会談の後、当時の参謀本部次長と面会し権限について話し合った。	けまるわこのかいだんののち、とーじのさんぼーほんぶじちょーとめんかいしけんげんについてはなしあった。	NO_LABEL
ムスタファ・ケマル・パシャは第9軍監察官に任命され、権限付与の勅令に署名が為された。	NO_PRONOUNCE	NO_LABEL
さらに、ムスタファ・ケマルはこの勅令にあるいくつかの解釈をみずから書いた。	さらに、むすたふぁけまるわこのみことのりれいにあるいくつかのかいしゃくをみずからかいた。	NO_LABEL
勅令による視察官の任務と権限はおよそ次のようなものであった:	NO_PRONOUNCE	NO_LABEL
さらに勅令でとが第9軍監察官ムスタファ・ケマルに指揮下に入り、監督官の管轄地区に隣接する、、、、の各県及び隣接地区に所在の各軍団も監察官の申し出に留意しなくてはならないことが定められた。	NO_PRONOUNCE	NO_LABEL
この勅令により、第9軍監察官ムスタファ・ケマルはアナトリアの東部全域に命令を下すことができる地位についた。	このみことのりれいにより、だいきゅうぐんかんさつかんむすたふぁけまるわあなとりあのとーぶぜんいきにめいれいをくだすことができるちいについた。	NO_LABEL
1919年5月15日の会談後、ムスタファ・ケマル・パシャのために準備され、彼をサムスンに運ぶことになるバンドゥルマ号の船長を職務室に呼ばせ、旅程に関する情報を得るとともに、翌日の正午頃に出航することを伝えた。	NO_PRONOUNCE	NO_LABEL
出航当日、バンドゥルマはスィルケジ駅の沖でイギリス人により臨検を受けた。	しゅっこーとーじつ、ばんどぅるまわすぃるけじえきのおきでいぎりすじんによりりんけんをうけた。	NO_LABEL
ムスタファ・ケマル・パシャは、内火艇でをはなれ、沖で乗船した。	NO_PRONOUNCE	NO_LABEL
出航前にヒュセイン・ラウフ・ベイはムスタファ・ケマル・パシャに、進駐軍の魚雷艇に追跡されて沈没させられる可能性があるという情報を得たことを明らかにしたが、航行は計画通りに行われた。	NO_PRONOUNCE	NO_LABEL
バンドゥルマ号はムスタファ・ケマル・パシャと18人の軍人を乗せ、1919年5月16日正午ごろイスタンブールからサムスンに向けて出航した。	NO_PRONOUNCE	NO_LABEL
ヒュセイン・ラウフ・ベイが言及したイギリス船は、バンドゥルマ号を追跡しはじめたものの、黒海へ出た後、嵐のなかで見失った。	NO_PRONOUNCE	NO_LABEL
ムスタファ・ケマル・パシャは、船長イスマイル・ハック・ベイに対し、陸に近い航路を航行すること、敵の攻撃があれば船を最寄りの海岸に接岸させることを命令した。	NO_PRONOUNCE	NO_LABEL
厳しい気候のもと荒れた海を航行するバンドゥルマ号は、5月17日の夜23時ごろにイネボル港に入港し、翌日の5月18日の正午ごろスィノプ港に接岸した。	きびしいきこーのもとあれたうみをこーこーするばんどぅるまごーわ、ごがつじゅうしちにちのよるにじゅうさんじごろにいねぼるこーににゅーこーし、よくじつのごがつじゅうはちにちのしょーごごろすぃのぷみなとにせつがんした。	NO_LABEL
ヒクメット・ベイ中尉は、短艇で上陸し航行中であることをサムスンの第15師団司令部に電報で報告した。	NO_PRONOUNCE	NO_LABEL
そしてバンドゥルマ号は、この電報の翌日、1919年5月19日にサムスンに到着した。	そしてばんどぅるまごーわ、このでんぽーのよくじつ、せんきゅうひゃくじゅうきゅうねんごがつじゅうきゅうにちにさむすんにとーちゃくした。	NO_LABEL
5月19日にサムスンのテュテュン埠頭に到着したムスタファ・ケマル・パシャは任務の遂行に着手し、幾つかの調査を行った。	NO_PRONOUNCE	NO_LABEL
調査の結果、ギリシャ系武装集団がムスリム民衆を攻撃し、地方官吏たちが外国の干渉もあって事件に介入できていないという結論に達した。	ちょーさのけっか、ぎりしゃけいぶそーしゅーだんがむすりむみんしゅーをこーげきし、ちほーかんりたちががいこくのかんしょーもあってじけんにかいにゅーできていないとゆうけつろんにたっした。	NO_LABEL
このため、ジャニクの軍政官を更迭して代わりを任命し、当該地域で発生している混乱に、外国軍隊に留意することなく、直接介入するよう命じた。	このため、じゃにくのぐんせいかんをこーてつしてかわりをにんめいし、とーがいちいきではっせいしているこんらんに、がいこくぐんたいにりゅーいすることなく、ちょくせつかいにゅーするよーめいじた。	NO_LABEL
エルズルムの第15軍団及びアンカラの第20軍団と連絡を取り、監察官の任務の一つである「地域に存在していると主張されるトルコ人の抵抗組織の解散」の実施を棚上げし、自らの手で国民的な抵抗組織の設立を主導した。	NO_PRONOUNCE	NO_LABEL
ムスタファ・ケマル・パシャは、イギリスの監視下にあるサムスンでは国民運動の指揮が不可能でろうとの見解に至り、5月25日にハウザに向けて出発した 。	NO_PRONOUNCE	NO_LABEL
ハウザ滞在中に、アンカラの第20軍団司令官アリ・フアト・パシャおよびコンヤの第二軍監察官と電報を交わし、国内の情況を知ろうと努めた。	NO_PRONOUNCE	NO_LABEL
サムスンに1週間、ハウザに17日間滞在したムスタファ・ケマルはこの間、アナトリアおよび民衆の国民の概況について情報を得ながら、国民運動の思想面における基を築いた 。	さむすんにいっしゅーかん、はうざにじゅうななにちかんたいざいしたむすたふぁけまるわこのかん、あなとりあおよびみんしゅーのこくみんのがいきょーについてじょーほーをえながら、こくみんうんどーのしそーめんにおけるもとをきずいた。	NO_LABEL
このほか、1919年5月28日に権利擁護の諸協会に送付した回状でイズミル占領に対する抗議活動の実行を要求し、この結果、アナトリア全土で96の集会が開催された。	NO_PRONOUNCE	NO_LABEL
オスマン政府はこれに満足せず、ムスタファ・ケマル・パシャのイスタンブールへの召喚を命じた。	NO_PRONOUNCE	NO_LABEL
オスマン帝国陸軍省に時間稼ぎの電報を送った監察官は、1919年6月12日にアマスィヤに向けて出発し、そこでを発表して国民闘争の開始を公然と表明した。	おすまんていこくりくぐんしょーにじかんかせぎのでんぽーをおくったかんさつかんわ、せんきゅうひゃくじゅうきゅうねんろくがつじゅうににちにあますぃやにむけてしゅっぱつし、そこでをはっぴょーしてこくみんとーそーのかいしをこーぜんとひょーめいした。	NO_LABEL
