味間村は、兵庫県多紀郡にあった村。	あじまむらわ、ひょーごけんたきぐんにあったむら。	NO_LABEL
現在の篠山市の西部、篠山川の左岸、福知山線・篠山口駅および舞鶴若狭自動車道・丹南篠山口インターチェンジの周辺にあたる。	NO_PRONOUNCE	NO_LABEL
現在は旧村域に舞鶴若狭自動車道の丹南篠山口インターチェンジが所在するが、当時は未開通。	げんざいわきゅーそんいきにまいずるわかさじどーしゃどーのたんなんささやまぐちいんたーちぇんじがしょざいするが、とーじわみかいつー。	NO_LABEL
