斎藤 静樹は日本の会計学者。	さいとーしずきわにっぽんのかいけいがくしゃ。	NO_LABEL
武蔵大学経済学部卒、東京大学大学院経済学研究科博士課程修了。	むさしだいがくけいざいがくぶそつ、とーきょーだいがくだいがくいんけいざいがくけんきゅーかはかせかていしゅーりょー。	NO_LABEL
東京大学名誉教授。	とーきょーだいがくめいよきょーじゅ。	NO_LABEL
明治学院大学名誉教授。	めいじがくいんだいがくめいよきょーじゅ。	NO_LABEL
企業会計基準委員会初代委員長。	きぎょーかいけいきじゅんいーんかいしょだいいーんちょー。	NO_LABEL
主要研究テーマ は企業会計の基礎理論、会計基準の国際比較など。	しゅよーけんきゅーてーまわきぎょーかいけいのきそりろん、かいけいきじゅんのこくさいひかくなど。	NO_LABEL
『会計基準の研究』、『企業会計とディスクロージャー』など著書多数あり。	NO_PRONOUNCE	NO_LABEL
