St.Cherishは、2006年度スーパー耐久シリーズのイメージガールを務めた、2人組の女性アイドルグループである。	せんとちぇりっしゅわ、にせんろくねんどすーぱーたいきゅーしりーずのいめーじがーるをつとめた、ふたりぐみのじょせいあいどるぐるーぷである。	NO_LABEL
スタイルコーポレーション所属。	すたいるこーぽれーしょんしょぞく。	NO_LABEL
現在も語り継がれる、歴代スーパー耐久イメージガール史上最高のユニットとして知られている。	げんざいもかたりつがれる、れきだいすーぱーたいきゅーいめーじがーるしじょーさいこーのゆにっととしてしられている。	NO_LABEL
前年度の「桜三世’05」同様の3人組としてスタートしたが、後に1名が脱退し2人編成となった。	NO_PRONOUNCE	NO_LABEL
歴代のS耐イメージガールとしては最小人数編成となったユニットであったが、歌とダンスのみならず楽器にも挑戦する等の意欲的な活動を行い、絶大な人気を得た。	れきだいのえすたいいめーじがーるとしてわさいしょーにんずーへんせいとなったゆにっとであったが、うたとだんすのみならずがっきにもちょーせんするひとしのいよくてきなかつどーをおこない、ぜつだいなにんきをえた。	NO_LABEL
