松葉ヶ谷は、神奈川県鎌倉市大町の名越に含まれる一地域名。	まつばがやつわ、かながわけんかまくらしおーまちのなごしにふくまれるいちちいきめい。	NO_LABEL
建長5年に日蓮が、安房国清澄寺から鎌倉に入り、松葉ヶ谷草庵を構えた場所。	けんちょーごねんににちれんが、あわのくにせいちょーじからかまくらにはいり、まつばがやつそーあんをかまえたばしょ。	NO_LABEL
その後、文永8年までの約18年間、日蓮の布教活動のための起居の場所となる。	そのご、ふみながはちねんまでのやくじゅうはちねんかん、にちれんのふきょーかつどーのためのききょのばしょとなる。	NO_LABEL
また、文応元年に『立正安国論』を著した場所。	NO_PRONOUNCE	NO_LABEL
「草庵跡」は、妙法寺、長勝寺、安国論寺の三寺である。	NO_PRONOUNCE	NO_LABEL
江戸時代の安永年間頃、妙法寺と長勝寺の間で松葉ヶ谷の法難の旧跡を巡って論争が起こり、20年以上争われたが、結論が出なかったといい、正式な跡地は確認されていない。	えどじだいのやすながねんかんごろ、みょーほーじとちょーしょーじのまでまつばがやつのほーなんのきゅーせきをめぐってろんそーがおこり、にじゅうねんいじょーあらそわれたが、けつろんがでなかったといい、せいしきなあとちわかくにんされていない。	NO_LABEL
建て直しや、流罪の前後で移転があったとも考えられている。	たてなおしや、るざいのぜんごでいてんがあったともかんがえられている。	NO_LABEL
いくつかの説が有る。	いくつかのせつがある。	NO_LABEL
日蓮四大法難と呼ばれるものの一つ。	にちれんよんだいほーなんとよばれるもののひとつ。	NO_LABEL
日蓮が、文応元年7月16日）に鎌倉幕府の五代執権北条時頼へ『立正安国論』を提出し、その内容が当時起こっていた地震、異常気象、疫病、飢餓は、法然を始めとする念仏教や禅教などの邪教に起因するものとし、幕府へ宗教政策の転換を促す内容であったため、その約1ヶ月後の8月27日に浄土教信者である念仏者たちによって草庵を夜間襲撃・焼き討ちされた事件を言う。	NO_PRONOUNCE	NO_LABEL
日蓮は富木常忍のいる下総国中山に避難した。	にちれんわときじょうにんのいるしもーさのくにちゅーざんにひなんした。	NO_LABEL
襲撃の黒幕に幕府為政者、鎌倉宗教界の実力者である北条重時、6代執権北条長時、大仏朝直、極楽寺忍性、蘭渓道隆、念阿良忠がいたと言われる。	しゅーげきのくろまくにばくふいせいしゃ、かまくらしゅーきょーかいのじつりょくしゃであるほーじょーしげとき、ろくだいしっけんほーじょーながとき、だいぶつあさなお、ごくらくじにんせい、らんけいどうりゅー、ねんあらちゅーがいたといわれる。	NO_LABEL
その後、日蓮は鎌倉に戻り、弘長元年5月12日に伊豆へ流罪となる。	そのご、にちれんわかまくらにもどり、ひろなががんねんごがつじゅうににちにいずえるざいとなる。	NO_LABEL
