アンツィオは、アメリカ海軍のミサイル巡洋艦。	あんつぃおわ、あめりかかいぐんのみさいるじゅんよーかん。	NO_LABEL
タイコンデロガ級ミサイル巡洋艦の22番艦。	たいこんでろがきゅーみさいるじゅんよーかんのにじゅうにばんかん。	NO_LABEL
艦名は第二次世界大戦におけるアンツィオ上陸作戦に因む。	かんめいわだいにじせかいたいせんにおけるあんつぃおじょーりくさくせんにちなむ。	NO_LABEL
ミシシッピ州パスカグーラのインガルス造船所で1989年8月21日に起工し、1990年11月2日に進水、1992年5月2日に就役した。	みししっぴしゅーぱすかぐーらのいんがるすぞーせんじょでせんきゅうひゃくはちじゅうきゅうねんはちがつにじゅういちにちにきこーし、せんきゅうひゃくきゅうじゅうねんじゅーいちがつふつかにしんすい、せんきゅうひゃくきゅうじゅうにねんごがつふつかにしゅーえきした。	NO_LABEL
アンツィオはバージニア州ノーフォークを母港として活動した。	あんつぃおわばーじにあしゅーのーふぉーくをぼこーとしてかつどーした。	NO_LABEL
2000年4月6日に、東地中海での演習中イスラエル国防軍のジェリコ・ミサイルが予告なしにアンツィオの25から40マイルの水域に着水した。	NO_PRONOUNCE	NO_LABEL
2004年にアンツィオはニューヨークでのフリート・ウィークに参加した。	NO_PRONOUNCE	NO_LABEL
