岡 浩也は東京都出身。	おかひろなりわとーきょーとしゅっしん。	NO_LABEL
子役として活動した元俳優。	こやくとしてかつどーしたもとはいゆー。	NO_LABEL
TBS系列で放送されたドラマ「ケンちゃんシリーズ」の2代目ケンちゃんとして活動した。	NO_PRONOUNCE	NO_LABEL
後年は子供のロックバンド「P.T.A.」のメインボーカル&ギターとしても活動していた。	NO_PRONOUNCE	NO_LABEL
10代後半で芸能界を引退。	じゅうだいこーはんでげいのーかいをいんたい。	NO_LABEL
慶應義塾志木高等学校、北里大学医学部卒業後、現在は医師。	けいおーぎじゅくしきこーとーがっ、きたさとだいがくいがくぶそつぎょーご、げんざいわいし。	NO_LABEL
東京MXテレビの坂本知子アナウンサーが小学生時代、岡と同じ塾に通っていた。	とーきょーえむえっくすてれびのさかもとともこあなうんさーがしょーがくせいじだい、おかとおなじじゅくにかよっていた。	NO_LABEL
岡がケンちゃんシリーズに出演していたのは7歳から15歳にかけてで、学年に置き換えると小学1年から中学3年にかけてであるが、演じていたケンジ及びケンイチは、岡の実年齢より2学年下に設定されており、初登場の「ケンにいちゃん」では幼稚園の年長で、最後の出演作の「なかよしケンちゃん」では中学1年生であった。	NO_PRONOUNCE	NO_LABEL
岡がケンちゃんシリーズに出演していた期間は、半ズボンの全盛期と言える時代であり、ケンちゃんも劇中で小学校を卒業するまでは一年中半ズボンを穿いていた。	おかがけんちゃんしりーずにしゅつえんしていたきかんわ、はんずぼんのぜんせいきといえるじだいであり、けんちゃんもげきちゅーでしょーがっこーをそつぎょーするまでわいちねんちゅーはんずぼんをはいていた。	NO_LABEL
岡本人は「カレー屋ケンちゃん」の出演中に小学校を卒業し中学生になっていたが、次作の「ケンちゃんチャコちゃん」までは劇中で小学生であったため、半ズボンで番組に出演していた。	NO_PRONOUNCE	NO_LABEL
精神科医として活動。	せいしんかいとしてかつどー。	NO_LABEL
