『志村劇場』は、2012年4月11日から2013年3月27日までフジテレビ系列で毎週水曜深夜の1:10 - 1:40	NO_PRONOUNCE	NO_LABEL
で放送されていたコント・紀行バラエティ番組であり、志村けんの冠番組である。	NO_PRONOUNCE	NO_LABEL
イザワオフィス制作。	いざわおふぃすせいさく。	NO_LABEL
当番組の前身である『志村けんのだいじょうぶだぁII』・『志村屋です。	NO_PRONOUNCE	NO_LABEL
』・『志村軒』では、志村運送やだんご屋、ラーメン屋を舞台とするコント番組であったが、当番組からはショートコントとロケとの2本立てとなっている。	NO_PRONOUNCE	NO_LABEL
志村のコント冠番組の中でのショートコントは、『志村塾』以来、7年半ぶりとなる。	NO_PRONOUNCE	NO_LABEL
前番組『志村軒』でのレギュラーであった、森下悠里と桃瀬美咲に代わり、当番組から亜里沙、森田涼花が新たにレギュラーに加わる。	NO_PRONOUNCE	NO_LABEL
また、谷澤恵里香が『志村屋です。	NO_PRONOUNCE	NO_LABEL
』以来およそ2年ぶりの復帰となった。	NO_PRONOUNCE	NO_LABEL
2012年10月からはロケコーナー「気まま旅」がメインとなり、コントは過去の番組からのアーカイブを使用している。	NO_PRONOUNCE	NO_LABEL
過去の出演者	かこのしゅつえんしゃ	NO_LABEL
