特別業務の局は、無線局の種別の一つである。	とくべつぎょーむのきょくわ、むせんきょくのしゅべつのひとつである。	NO_LABEL
総務省令電波法施行規則には種々の無線局について種別を定義しているが、いずれにもあてはまらないときに指定される種別である。	そーむしょーれいでんぱほーしこーきそくにわしゅじゅのむせんきょくについてしゅべつをていぎしているが、いずれにもあてはまらないときにしていされるしゅべつである。	NO_LABEL
電波法施行規則第4条第1項第29号に「特別業務を行う無線局」と定義している。	NO_PRONOUNCE	NO_LABEL
特別業務とは、第3条第1項第20号に「前各号に規定する業務及び電気通信業務のいずれにも該当しない無線通信業務であつて、一定の公共の利益のために行われるもの」 と定義している。	NO_PRONOUNCE	NO_LABEL
実務上は、何らかの目的の為の特定または不特定の者に向けての一方的な送信、放送に類似した同報通信	じつむじょーわ、なんらかのもくてきのためのとくていまたわふとくていのものにむけてのいっぽーてきなそーしん、ほーそーにるいじしたどーほーつーしん	NO_LABEL
がほとんどである。	がほとんどである。	NO_LABEL
用途は公共業務用が主で一部に一般事業用がある。	よーとわこーきょーぎょーむよーがおもでいちぶにいっぱんじぎょーよーがある。	NO_LABEL
これは、定義に「公共の利益のため」とあるからで免許人は官公庁や公益性を持つ民間団体に限られる。	NO_PRONOUNCE	NO_LABEL
局数の推移に見るとおり水防水利道路用が多数を占めるが、これはVICSと呼ばれる道路交通情報通信用無線ビーコン及び路側放送の道路管理者が保有するもので、中でもVICS用ビーコンが多数である。	つぼねすーのすいいにみるとーりすいぼーすいりどーろよーがたすーをしめるが、これわびっくすとよばれるどーろこーつーじょうほーつーしんよーむせんびーこんおよびろそくほうそーのどーろかんりしゃがほゆーするもので、なかでもびっくすよーびーこんがたすーである。	NO_LABEL
その他、	そのた、	NO_LABEL
などがある。	などがある。	NO_LABEL
海上保安庁が実施していた船舶気象通報も特別業務の局によるものであった。	かいじょーほあんちょーがじっししていたせんぱくきしょーつうほーもとくべつぎょーむのきょくによるものであった。	NO_LABEL
種別コードはSP。	しゅべつこーどわえすぴー。	NO_LABEL
免許の有効期間は5年。	めんきょのゆーこーきかんわごねん。	NO_LABEL
但し、当初に限り有効期限は5年以内の一定の11月30日となる。	ただし、とーしょにかぎりゆーこーきげんわごねんいないのいっていのじゅーいちがつさんじゅうにちとなる。	NO_LABEL
VICS用ビーコンは技術基準適合証明の対象であり、適合表示無線設備になれば簡易な免許手続の規定が適用され、予備免許や落成検査が省略されて免許される。	びっくすよーびーこんわぎじゅつきじゅんてきごーしょーめいのたいしょーであり、てきごーひょーじむせんせつびになればかんいなめんきょてつずきのきていがてきよーされ、よびめんきょやらくせいけんさがしょーりゃくされてめんきょされる。	NO_LABEL
電波法第16条第1項ただし書および電波法施行規則第10条の2により、VICS用ビーコンと空中線電力10W以下の路側放送以外の局は運用開始の届出を要する。	NO_PRONOUNCE	NO_LABEL
無線局運用規則第140条により、VICS用ビーコンと空中線電力10W以下の路側放送以外の局は次の事項が告示される。	NO_PRONOUNCE	NO_LABEL
特別業務の局は、陸上の無線局であり、最低でも第三級陸上特殊無線技士以上の無線従事者による管理を要するのが原則である。	とくべつぎょーむのきょくわ、りくじょーのむせんきょくであり、さいていでもだいさんきゅーりくじょーとくしゅむせんぎしいじょーのむせんじゅーじしゃによるかんりをよーするのがげんそくである。	NO_LABEL
例外を規定する電波法施行規則第33条の無線従事者を要しない「簡易な操作」から特別業務の局に係わるものを抜粋する。	NO_PRONOUNCE	NO_LABEL
適合表示無線設備には、技適マークの表示が義務付けられている。	てきごーひょーじむせんせつびにわ、ぎてきまーくのひょーじがぎむずけられている。	NO_LABEL
また、技術基準適合証明番号又は工事設計認証番号の表示も必須とされ、VICS用ビーコンを表す記号は番号の英字の1-2字目のPZである。	NO_PRONOUNCE	NO_LABEL
但し、2013年4月以降の工事設計認証番号に記号表示は無い。	ただし、にせんじゅうさんねんしがついこーのこーじせっけいにんしょーばんごーにきごーひょーじわない。	NO_LABEL
1950年　電波法施行規則制定	せんきゅうひゃくごじゅうねんでんぱほーしこーきそくせいてい	NO_LABEL
時に定義された。	ときにていぎされた。	NO_LABEL
ここで特別業務とは、「前各号に規定する業務及び公衆通信業務を除いた業務であつて、一定の公共の利益のために行われるもの」 と定義された。	NO_PRONOUNCE	NO_LABEL
免許の有効期間は5年。	めんきょのゆーこーきかんわごねん。	NO_LABEL
但し、当初の有効期限は電波法施行の日から2年6ヶ月後までとされた。	NO_PRONOUNCE	NO_LABEL
1952年　12月1日に最初の再免許がなされた。	せんきゅうひゃくごじゅうにねんじゅーにがつついたちにさいしょのさいめんきょがなされた。	NO_LABEL
1985年　定義が「前各号に規定する業務及び電気通信業務を除いた業務であつて、一定の公共の利益のために行われるもの」 と改正された。	NO_PRONOUNCE	NO_LABEL
1994年　	せんきゅうひゃくきゅうじゅうよねん	NO_LABEL
1996年　同一免許人所属の路側放送の無線業務日誌は地方電気通信監理局を含む。	せんきゅうひゃくきゅうじゅうろくねんどーいちめんきょじんしょぞくのろそくほうそーのむせんぎょーむにっしわちほーでんきつーしんかんりきょくをふくむ。	NO_LABEL
）管内で共用できるものとされた。	NO_PRONOUNCE	NO_LABEL
1998年　路側放送用及びアマチュア局に対する規正通信用は定期検査を実施しないものとされた。	せんきゅうひゃくきゅうじゅうはちねんろそくほうそーよーおよびあまちゅあきょくにたいするきせいつーしんよーわていきけんさをじっししないものとされた。	NO_LABEL
2002年　定義が現行のものとなった。	にせんにねんていぎがげんこーのものとなった。	NO_LABEL
2004年　空中線電力10W以下の路側放送は告示が不要とされた。	にせんよねんくーちゅーせんでんりょくじゅうわっといかのろそくほうそーわこくじがふよーとされた。	NO_LABEL
2009年　特別業務の局は全て無線業務日誌の備付けが不要とされた。	にせんきゅうねんとくべつぎょーむのきょくわすべてむせんぎょーむにっしのそなえつけがふよーとされた。	NO_LABEL
マーチス、VOLMET放送、路側放送、潮流放送はベリカードを発行しているが、本来は本項の局にはそのような義務はなく、業務ではなく厚意によるものである。	NO_PRONOUNCE	NO_LABEL
しおかぜについてはその性格上ベリカードと称することも微妙なため、一定の手続きに対する感謝状としている。	しおかぜについてわそのせいかくじょーべりかーどとしょーすることもびみょーなため、いっていのてつずきにたいするかんしゃじょーとしている。	NO_LABEL
