郜 永清、清末の白蓮教徒の蜂起の指導者。	NO_PRONOUNCE	NO_LABEL
河南省商丘金楼寨出身。	NO_PRONOUNCE	NO_LABEL
祖父の代からの白蓮教徒で、1861年に「終末は近い。	NO_PRONOUNCE	NO_LABEL
救済を求める者は金楼寨に集まれ」と宣言し、衆を集めて蜂起した。	NO_PRONOUNCE	NO_LABEL
金楼寨はセンゲリンチン率いる清軍に包囲されたが、白蓮教徒たちは捻軍の援助を得、安徽省の捻軍の王明と李永年が金楼寨に入って防衛に加わった。	NO_PRONOUNCE	NO_LABEL
郜永清が戦死した後は弟の妻の郜姚氏が戦闘を継続したが、1862年3月16日に104日間の戦闘の末に金楼寨は陥落し、郜姚氏ら1400人余りが殺害された。	NO_PRONOUNCE	NO_LABEL
