『らぶりー♥デコレーション!!』は、五十嵐かおるによる日本の漫画作品。	NO_PRONOUNCE	NO_LABEL
『ちゃお』にて2004年8月号から2005年1月号まで連載された。	NO_PRONOUNCE	NO_LABEL
五十嵐かおるにとって第6の単行本となる作品。	NO_PRONOUNCE	NO_LABEL
ケーキ屋の娘と見習いパティシエが、ひょんなことで父が留守している間に、ケーキ職人として成長する姿を綴っている。	けーきやのむすめとみならいぱてぃしえが、ひょんなことでちちがるすしているまに、けーきしょくにんとしてせいちょーするすがたをつずっている。	NO_LABEL
