山形 頼洋は、日本の哲学者。	やまがたよりひろわ、にっぽんのてつがくしゃ。	NO_LABEL
宮崎県生まれ。	みやざきけんうまれ。	NO_LABEL
1966年京都大学文学部卒業、同大学院文学研究科博士課程単位取得退学。	せんきゅうひゃくろくじゅうろくねんきょーとだいがくぶんがくぶそつぎょー、どーだいがくいんぶんがくけんきゅーかはかせかていたんいしゅとくたいがく。	NO_LABEL
パリ第10大学。	NO_PRONOUNCE	NO_LABEL
1989年「感情と自然 自然の内的経験について」で大阪大学文学博士。	NO_PRONOUNCE	NO_LABEL
大阪外国語大学講師、大阪大学文学部助教授、1995年教授、2002年名誉教授、同志社大学文学部教授。	おーさかがいこくごだいがくこーし、おーさかだいがくぶんがくぶじょきょーじゅ、せんきゅうひゃくきゅうじゅうごねんきょーじゅ、にせんにねんめいよきょーじゅ、どーししゃだいがくぶんがくぶきょーじゅ。	NO_LABEL
専攻は哲学・倫理学。	NO_PRONOUNCE	NO_LABEL
