髙坂 美惠子は、日本の女子陸上競技選手。	NO_PRONOUNCE	NO_LABEL
兵庫県津名郡広石村出身。	ひょーごけんつなぐんひろいしむらしゅっしん。	NO_LABEL
専門はやり投げ。	せんもんわやりなげ。	NO_LABEL
兵庫県立三原高等学校、日本体育大学卒。	ひょーごけんりつみはらこーとーがっこー、にほんたいいくだいがくそつ。	NO_LABEL
1973年にマニラで開催されたアジア陸上競技選手権大会で優勝、翌年のテヘランで開催されたアジア競技大会でも準優勝している。	せんきゅうひゃくななじゅうさんねんにまにらでかいさいされたあじありくじょーきょーぎせんしゅけんたいかいでゆーしょー、よくねんのてへらんでかいさいされたあじあきょーぎたいかいでもじゅんゆーしょーしている。	NO_LABEL
日本陸上競技選手権大会では1972年、73年、75年に優勝している。	にほんりくじょーきょーぎせんしゅけんたいかいでわせんきゅうひゃくななじゅうにねん、ななじゅうさんねん、ななじゅうごねんにゆーしょーしている。	NO_LABEL
元神戸学院大学の経営学部の教授。	もとこーべがくいんだいがくのけいえいがくぶのきょーじゅ。	NO_LABEL
