ポワンタピートル国際空港は、フランスの海外県グアドループのポワンタピートルにある国際空港である。	ぽわんたぴーとるこくさいくうこーわ、ふらんすのかいがいけんぐあどるーぷのぽわんたぴーとるにあるこくさいくうこーである。	NO_LABEL
グアドループ県最大の空港であり、同県の玄関口となっている。	ぐあどるーぷけんさいだいのくーこーであり、どーけんのげんかんぐちとなっている。	NO_LABEL
空港はポワンタピートル市街地から北北西に約2.4km離れたレ＝ザビームにある。	NO_PRONOUNCE	NO_LABEL
2008年の年間利用者数は200～250万人と推定され、グラントレー・アダムス国際空港に次いで、小アンティル諸島でもっとも利用の多い空港の一つである。	NO_PRONOUNCE	NO_LABEL
