スレッド局所記憶は、もしくは大域的なメモリをスレッドごとに局所的に使用するためのコンピュータプログラミングの方法である。	すれっどきょくしょきおくわ、もしくわたいいきてきなめもりをすれっどごとにきょくしょてきにしよーするためのこんぴゅーたぷろぐらみんぐのほーほーである。	NO_LABEL
プロセス内のスレッドはすべてアドレス空間を共有しており、同じプロセスのスレッドから参照する際、静的変数やグローバル変数は同じメモリ番地に配置される。	ぷろせすないのすれっどわすべてあどれすくーかんをきょーゆーしており、おなじぷろせすのすれっどからさんしょーするさい、せいてきへんすーやぐろーばるへんすーわおなじめもりばんちにはいちされる。	NO_LABEL
一方スタック上の変数はすべてのスレッドが自分のスタックを持つためスレッドに対して局所的であり、異なるメモリ番地に存在する。	いっぽーすたっくじょーのへんすーわすべてのすれっどがじぶんのすたっくをもつためすれっどにたいしてきょくしょてきであり、ことなるめもりばんちにそんざいする。	NO_LABEL
同じ静的変数・グローバル変数を参照する二つのスレッドが実際には異なるメモリ番地を参照できることが望ましい場合がある。	NO_PRONOUNCE	NO_LABEL
たとえば典型的な例としてC言語のエラーコードを格納する変数 codice_1 がある。	NO_PRONOUNCE	NO_LABEL
少なくともメモリアドレスを格納できるサイズの変数をスレッドに対して局所的にすることが可能なら、メモリブロックを確保し、そのメモリアドレスをスレッドローカルな変数に格納すれば、原理的には任意のサイズのメモリブロックをスレッド局所にすることが可能である。	すくなくともめもりあどれすをかくのーできるさいずのへんすーをすれっどにたいしてきょくしょてきにすることがかのーなら、めもりぶろっくをかくほし、そのめもりあどれすをすれっどろーかるなへんすーにかくのーすれば、げんりてきにわにんいのさいずのめもりぶろっくをすれっどきょくしょにすることがかのーである。	NO_LABEL
API 関数 TlsAlloc を用いると、未使用の "TLS スロット番号"を取得できる。	NO_PRONOUNCE	NO_LABEL
これによりその番号は使用中となる。	これによりそのばんごーわしよーちゅーとなる。	NO_LABEL
次にTlsGetValue および TlsSetValue 関数を用いて、番号によって識別されるスレッドローカルな変数に対する読み書きができる。	NO_PRONOUNCE	NO_LABEL
TlsSetValue は現在のスレッドの変数にしか影響を与えない。	NO_PRONOUNCE	NO_LABEL
TlsFree 関数を用いると、"TLS スロット番号" を解放することができる。	NO_PRONOUNCE	NO_LABEL
番号は再び未使用となり、あらたな TlsAlloc により再度使用される。	NO_PRONOUNCE	NO_LABEL
POSIXスレッドでの TLSは、Windows における TlsAlloc などの関数や機能と同様である。	NO_PRONOUNCE	NO_LABEL
pthread_key_create で"key"を生成し、このキーはpthread_setspecific によってデータと関連付けることができる。	NO_PRONOUNCE	NO_LABEL
データは pthread_getspecific を用いて取得することができる。	NO_PRONOUNCE	NO_LABEL
スレッド固有データが NULL でなければ、スレッドが終了する際 "destructor" が呼ばれる。	NO_PRONOUNCE	NO_LABEL
また、"key" は pthread_key_delete で破棄しなければならない。	NO_PRONOUNCE	NO_LABEL
プログラマが適切な API 関数を呼ぶのではなく、プログラミング言語自体が TLS をサポートするよう拡張することもできる。	ぷろぐらまがてきせつなえーぴーあいかんすーをよぶのでわなく、ぷろぐらみんぐげんごじたいがてぃーえるえすをさぽーとするよーかくちょーすることもできる。	NO_LABEL
C言語では C11 からキーワード _Thread_local を用いて TLS を使用できる。	NO_PRONOUNCE	NO_LABEL
C++ では C++11 においてスレッドに関する規定とキーワード thread_local が導入され以下のケース全てで TLS を使用できる。	NO_PRONOUNCE	NO_LABEL
codice_2 を下記のように使用する:	NO_PRONOUNCE	NO_LABEL
また非定数初期化子の使用やコンストラクタ・デストラクタを呼び出すクラスも使用できる。	NO_PRONOUNCE	NO_LABEL
C++11 より前から以下の処理系では独自に TLS を実装している。	NO_PRONOUNCE	NO_LABEL
Windows Vista および Server 2008 より前の Windows では、codice_3 は実行ファイルにリンクされた DLL でのみ動作し、codice_4 でロードされる DLL では動作しない。	NO_PRONOUNCE	NO_LABEL
TLS の使用にはこれ以外にもルールが存在する。	てぃーえるえすのしよーにわこれいがいにもるーるがそんざいする。	NO_LABEL
MSDN の "Rules and Limitations for TLS" 参照。	NO_PRONOUNCE	NO_LABEL
静的フィールドは、ThreadStaticAttributeでマークすることができる:	NO_PRONOUNCE	NO_LABEL
また、API によって動的にスレッド局所変数を割り当てることもできる。	また、えーぴーあいによってどーてきにすれっどきょくしょへんすーをわりあてることもできる。	NO_LABEL
Java ではスレッドローカルの変数は、クラスによって実現されている。	じゃばでわすれっどろーかるのへんすーわ、くらすによってじつげんされている。	NO_LABEL
codice_5 のオブジェクトは、オブジェクトの codice_6 や codice_7 をコールする各スレッドごとに変数の異なるインスタンスを保持する。	NO_PRONOUNCE	NO_LABEL
以下は、	いかわ、	NO_LABEL
codice_8 オブジェクトを保持するcodice_5 を用いた例である:	NO_PRONOUNCE	NO_LABEL
はじめのコードで codice_5 オブジェクト codice_11 を	NO_PRONOUNCE	NO_LABEL
宣言、インスタンス化し、呼び出すスレッドから他の値が格納されなければ初期値 1 を返す。	NO_PRONOUNCE	NO_LABEL
以下のコードは、現在の実行スレッドから値を 1 増やす。	NO_PRONOUNCE	NO_LABEL
codice_12	NO_PRONOUNCE	NO_LABEL
は、現在のスレッドに関連付けられた codice_8 オブジェクトを返す。	NO_PRONOUNCE	NO_LABEL
コードでは codice_14 を呼び出してスレッドに関連付けた値を設定する	NO_PRONOUNCE	NO_LABEL
（上記の例は J2SE 5.0 で追加された と ボックス化を使用している)。	NO_PRONOUNCE	NO_LABEL
Delphi や Free Pascal では、'var' ではなく予約語 'threadvar' を用いてスレッド局所記憶を用いることができる。	NO_PRONOUNCE	NO_LABEL
Perl のスレッドは言語の進化に伴って CPAN で大半のコードが利用可能になった後で追加された。	ぱーるのすれっどわげんごのしんかにともなってくぱんでたいはんのこーどがりよーかのーになったのちでついかされた。	NO_LABEL
その結果、 Perl では既存の非スレッドサポートのコードがスレッドのサポートにより影響を受けにくいようすべての変数をスレッドローカルとして扱うことになった。	そのけっか、ぱーるでわきそんのひすれっどさぽーとのこーどがすれっどのさぽーとによりえいきょーをうけにくいよーすべてのへんすーをすれっどろーかるとしてあつかうことになった。	NO_LABEL
逆に Perl では、スレッドで共有される変数は attribte を用いて作成することができる。	NO_PRONOUNCE	NO_LABEL
Python バージョン 2.4 以降では、threading モジュールの local クラスを使ってスレッド局所記憶を作成することができる。	NO_PRONOUNCE	NO_LABEL
Ruby では、スレッド局所変数は []=および[] メソッドを使ってアクセスすることができる。	NO_PRONOUNCE	NO_LABEL
D言語 の D2 では、グローバル変数および静的変数がデフォルトでスレッド局所変数になった。	でぃーげんごのでぃーつーでわ、ぐろーばるへんすーおよびせいてきへんすーがでふぉるとですれっどきょくしょへんすーになった。	NO_LABEL
この場合、スレッド間で共有される変数は shared修飾子もしくは __gshared属性 を用いて作成することができる。	NO_PRONOUNCE	NO_LABEL
