井垣 清明は日本の書家。	いがききよあきわにっぽんのしょか。	NO_LABEL
井垣北城長子。	いがきほくじょーちょーし。	NO_LABEL
中国大陸にもたびたび訪問、中華人民共和国河南省信陽市のホームページでは「書法理論家」と紹介されている。	NO_PRONOUNCE	NO_LABEL
東京都日中友好協会理事。	とーきょーとにっちゅーゆーこーきょーかいりじ。	NO_LABEL
東京都板橋区在住。	とーきょーといたばしくざいじゅー。	NO_LABEL
