『Dramatic Actors File』は、NHKのドラマから注目の男性俳優を紹介する日本のドキュメンタリーテレビ番組であり、NHKが放送する。	NO_PRONOUNCE	NO_LABEL
ドラマ撮影の現場に密着し、彼の個性、魅力に迫る。	どらまさつえいのげんばにみっちゃくし、かれのこせい、みりょくにせまる。	NO_LABEL
さらに、ドラマ以外の仕事、プライベートシーンにも潜入。	さらに、どらまいがいのしごと、ぷらいべーとしーんにもせんにゅー。	NO_LABEL
普段見ることのできない「素顔」も切り取る。	NO_PRONOUNCE	NO_LABEL
2011年4月4日からNHKワンセグ2で放送開始。	にせんじゅういちねんしがつよっかからえぬえいちけいわんせぐつーでほーそーかいし。	NO_LABEL
翌週、Eテレでも再放送する。	よくしゅー、いーてれでもさいほーそーする。	NO_LABEL
