『鬼退治』は、1971年1月7日から同年4月1日まで、NET系列のナショナルゴールデン劇場の枠で放送されたテレビドラマ。	NO_PRONOUNCE	NO_LABEL
全13回。	ぜんじゅうさんかい。	NO_LABEL
主演は三田佳子。	しゅえんわみたよしこ。	NO_LABEL
美人で気立ては良いが料理や裁縫が苦手な妻と過保護で育った夫。	びじんできだてわよいがりょーりやさいほーがにがてなつまとかほごでそだったおっと。	NO_LABEL
当分は二人きりの新婚家庭のはずだったが、結局同居することになった夫の母や度々出入りを重ねる夫の妹・夫の母の妹、の三人を相手に奮闘するホームコメディ。	NO_PRONOUNCE	NO_LABEL
「鬼退治」という題名には、鬼は心の中にいる、それをみんなで退治しよううというテーマが込められている。	NO_PRONOUNCE	NO_LABEL
ほか	ほか	NO_LABEL
