鈴木重子は静岡県浜松市出身のヴォーカリスト。	NO_PRONOUNCE	NO_LABEL
静岡大学教育学部附属浜松中学校・静岡県立浜松北高等学校・東京大学法学部卒業。	NO_PRONOUNCE	NO_LABEL
数年、司法試験に挑むも挫折。	すーねん、しほーしけんにいどむもざせつ。	NO_LABEL
1995年BMGビクターよりデビュー。	せんきゅうひゃくきゅうじゅうごねんびーえむじーびくたーよりでびゅー。	NO_LABEL
名門ブルーノート・ニューヨークに、日本人ヴォーカリストとして初めて出演する。	NO_PRONOUNCE	NO_LABEL
平和の歌を集めるプロジェクト“Breath for Peace”の発起人。	NO_PRONOUNCE	NO_LABEL
ふじのくに静岡大使。	ふじのくにしずおかたいし。	NO_LABEL
浜松市やらまいか大使。	はままつしやらまいかたいし。	NO_LABEL
身長171cm。	しんちょーひゃくななじゅういちせんちめーとる。	NO_LABEL
A型。	えーがた。	NO_LABEL
その他	そのた	NO_LABEL
その他	そのた	NO_LABEL
ほか多数	ほかたすー	NO_LABEL
