相模三浦氏は、中世に活躍した武家の一族で三浦氏宗家滅亡後に相模国三浦郡に拠って勢力を伸ばした。	さがみみうらしわ、ちゅーせいにかつやくしたぶけのいちぞくでみうらしそーけめつぼーごにさがみのくにみうらぐんによってせいりょくをのばした。	NO_LABEL
鎌倉時代の宝治元年に勃発した宝治合戦で、執権北条氏に御家人三浦氏一族は滅ぼされた。	かまくらじだいのほうじがんねんにぼっぱつしたほうじかっせんで、しっけんほうじょーにごけにんみうらしいちぞくわほろぼされた。	NO_LABEL
その後、三浦氏傍流である佐原氏出身の三浦盛時により家が再興され、執権北条氏の御内人として活動した。	そのご、みうらしぼーりゅーであるさはらししゅっしんのみうらもりときによりいえがさいこーされ、しっけんほうじょーのおんうちひととしてかつどーした。	NO_LABEL
元弘年間、足利尊氏が鎌倉幕府に対し兵を挙げると、時の三浦氏当主三浦時継は子・高継と共に足利方について戦う。	NO_PRONOUNCE	NO_LABEL
鎌倉幕府が滅び、建武政権が成立した後は、時継は相模国・武蔵国などの地頭となった。	NO_PRONOUNCE	NO_LABEL
その後、時継は中先代の乱）において北条方について処刑された。	NO_PRONOUNCE	NO_LABEL
子の高継は尊氏の下に残り、中先代の乱鎮圧後も尊氏に付き従って箱根・竹ノ下の戦いや多々良浜の戦い）で戦功を上げた。	NO_PRONOUNCE	NO_LABEL
南北朝の分裂以降は関東においても地域を二分する争いが頻発し、混沌とした時代となった。	なんぼくちょーのぶんれついこーわかんとーにおいてもちいきをにぶんするあらそいがひんぱつし、こんとんとしたじだいとなった。	NO_LABEL
その中で高継・高通父子は、南朝方の北畠顕家の軍勢によって鎌倉を追われた尊氏の子義詮を保護する）など基本的に北朝方について活動し、一連の戦功によって相模国守護に任じられる。	NO_PRONOUNCE	NO_LABEL
だが、高通は観応の擾乱）において直義方に属し、更に直義が滅ぼされた後も新田氏らと結んで鎌倉府を脅かした。	NO_PRONOUNCE	NO_LABEL
そのため、翌年鎌倉を奪回した尊氏は高通から相模守護職を剥奪したうえで追放した。	そのため、よくねんかまくらをだっかいしたたかししわこーどーりからさがみしゅごしきをはくだつしたうえでついほーした。	NO_LABEL
これにより三浦氏は一旦没落するものの、尊氏没後の貞治3年に鎌倉公方足利基氏によって直義方の重鎮であった上杉憲顕が赦免されると、高通も赦されて再び相模国の守護に任じられた。	これによりみうらしわいったんぼつらくするものの、たかししぼつごのじょうじさんねんにかまくらくぼーあしかがもとーじによってちょくぎほーのじゅーちんであったうえすぎのりあきがしゃめんされると、こーどーりもゆるされてふたたびさがみのくにのしゅごににんじられた。	NO_LABEL
高通の後は子の高連が継ぎ、天授3年から応永9年までの25年間にわたり相模守護を務めている。	こーどーりののちわこのこーれんがつぎ、てんじゅさんねんからおおえきゅうねんまでのにじゅうごねんかんにわたりさがみしゅごをつとめている。	NO_LABEL
しかし室町時代中期、高連の子にあたる三浦高明の代に上杉禅秀の乱）に加担した事を理由に鎌倉公方足利持氏により相模守護職を奪われた。	NO_PRONOUNCE	NO_LABEL
三浦氏一族はこれを深く恨み、永享10年に永享の乱が勃発すると、高明の子時高は持氏を裏切って鎌倉府を攻め滅ぼし、新しく守護となった扇谷上杉氏の勢力下に入った。	みうらしいちぞくわこれをふかくうらみ、えいきょーじゅうねんにえいきょうのらんがぼっぱつすると、こーめいのこときたかわじしをうらぎってかまくらふをせめほろぼし、あたらしくしゅごとなったおーぎやうえすぎしのせいりょくかにはいった。	NO_LABEL
その後の享徳の乱に始まる関東の争乱では、時高は扇谷上杉家の重臣として活躍し、三浦郡・鎌倉郡などを支配し相模国内に大きく勢力を拡げた。	NO_PRONOUNCE	NO_LABEL
時高は長らく嗣子に恵まれず、主君である扇谷上杉持朝の次男・高救を養子としていた。	NO_PRONOUNCE	NO_LABEL
しかし、後年実子高教が誕生すると高救やその子三浦義同と対立し、やがて両者を追放した。	しかし、こーねんじっしこーきょーがたんじょーするとこーきゅーやそのこみうらよしあつとたいりつし、やがてりょーしゃをついほーした。	NO_LABEL
明応3年9月23日、時高・高教父子は大森氏の支援を受けた高救・義同に居城新井城を攻められて滅亡し、義同が三浦氏の家督を奪った。	NO_PRONOUNCE	NO_LABEL
晴れて三浦氏の当主となった義同は関係が悪化していた扇谷上杉朝良と和睦し、伊豆から日の出の勢いにあった伊勢宗瑞に対抗する。	はれてみうらしのとーしゅとなったよしどーわかんけいがあっかしていたおーぎやうえすぎともよしとわぼくし、いずからひのでのいきおいにあったいせそーずいにたいこーする。	NO_LABEL
宗瑞が扇谷上杉家の重臣・大森氏を小田原城から追放するという事件を起こすと、義同は大森氏を保護して宗瑞と戦うが、宗瑞の提案によって伊勢－扇谷上杉の間に和解が成立すると、義同も一旦は宗瑞と和睦する。	NO_PRONOUNCE	NO_LABEL
しかし立河原の戦い）以降、宗瑞と朝良は再び対立を起こし、朝良の傘下にあった義同も必然的に宗瑞と争うようになった。	NO_PRONOUNCE	NO_LABEL
永正10年、宗瑞は遂に三浦氏を討つべく大軍を以って攻勢を仕掛けた。	NO_PRONOUNCE	NO_LABEL
これに対して三浦軍は防戦するも住吉城・岡崎城が相次いで陥落するなど奮わず、さらには頼みの綱であった扇谷上杉家の援軍も悉く伊勢軍に遮られ、徐々に新井城に追い詰められていった。	NO_PRONOUNCE	NO_LABEL
そして永正13年、三年間の長期にわたる籠城戦の末に義同は自刃、子の三浦義意は戦死した。	そしてえいしょーじゅうさんねん、さんねんかんのちょーきにわたるかごじょーせんのすえにぎどーわじじん、このみうらよしおきわせんしした。	NO_LABEL
これによって相模三浦氏は滅亡し、相模は宗瑞により平定された。	これによってさがみみうらしわめつぼーし、さがみわそーずいによりへいていされた。	NO_LABEL
なお、安房里見氏重臣・正木通綱を時高あるいは義同の遺児とする説があるが、近年では別の三浦氏庶流の出身であるとも言われている。	NO_PRONOUNCE	NO_LABEL
　	NO_PRONOUNCE	NO_LABEL
また、江戸時代に3代にかけて江戸幕府に仕えた三浦氏があり、相模三浦氏との関係は不詳であるものの、三浦義周、義如、義和と続いた。	NO_PRONOUNCE	NO_LABEL
