馮元興は、北魏の官僚・学者。	NO_PRONOUNCE	NO_LABEL
字は子盛。	じわこさかり。	NO_LABEL
本貫は東魏郡肥郷県。	ほんがんわとうぎぐんこえごーけん。	NO_LABEL
若い頃は伯父の馮僧集に従って平原にあり、中山の張吾貴や常山の房虬を師として学び、三礼に通じ、文才があった。	NO_PRONOUNCE	NO_LABEL
23歳のとき、郷里に帰って学問を教え、弟子は数百人となった。	にじゅうさんさいのとき、きょーりにかえってがくもんをおしえ、でしわすーひゃくにんとなった。	NO_LABEL
孝廉に推挙され、また秀才に挙げられた。	こーれんにすいきょされ、またしゅーさいにあげられた。	NO_LABEL
御史中尉の王顕の推薦を受けて検校御史となった。	ぎょしちゅーいのおーあらわのすいせんをうけてけんぎょーぎょしとなった。	NO_LABEL
まもなく殿中に転じ、奉朝請に任ぜられ、三度高句麗への使者に立った。	まもなくでんちゅーにてんじ、たてまつあさうけににんぜられ、さんどこーくりえのししゃにたった。	NO_LABEL
江陽王元継が司徒となると、元興はその下で記室参軍となり、元叉の知遇をえた。	こーよーおーもとつぐがしととなると、げんこーわそのしたできしつさんぐんとなり、げんさのちぐーをえた。	NO_LABEL
元叉が北魏の朝政をつかさどるようになると、元興は召されて尚書殿中郎となり、中書舎人を兼ね、御史をつとめた。	げんさがほくぎのちょーせいをつかさどるよーになると、げんこーわめされてしょーしょでんちゅーろーとなり、ちゅーしょとねりをかね、ぎょしをつとめた。	NO_LABEL
元叉の腹心として、身を低くして時事の相談に応じた。	げんさのふくしんとして、みをひくくしてじじのそーだんにおーじた。	NO_LABEL
太保の崔光が臨終にあたって元興を侍読に推薦した。	たいほのちぇがんがりんじゅーにあたってげんこーをじどくにすいせんした。	NO_LABEL
元興は式乾殿で孝明帝に杜預の『春秋経伝集解』を講義した。	NO_PRONOUNCE	NO_LABEL
元叉が粛清をおそれて自ら軍権を返上しようと考え、元興を訪れて相談した。	げんさがしゅくせいをおそれてみずからぐんけんをへんじょーしようとかんがえ、げんこーをおとずれてそーだんした。	NO_LABEL
元興が「公のお考えが分かりません」と言うと、元叉は「卿はわたしが乱を起こすことを望んでいるというのか」と訊ねた。	NO_PRONOUNCE	NO_LABEL
元興はあえて言を発することなく、叛乱を勧めた。	げんこーわあえてげんをはっすることなく、はんらんをすすめた。	NO_LABEL
元叉が死を賜ると、元興も官爵を奪われて蟄居させられた。	げんさがしをたまわると、げんこーもかんしゃくをうばわれてちっきょさせられた。	NO_LABEL
自らの境遇を「有草生碧池、無根緑水上、脆弱悪風波、危微苦驚浪」という浮萍詩を作って託した。	NO_PRONOUNCE	NO_LABEL
丞相の高陽王元雍に召されてその下で働いた。	じょーしょーのたかひおーげんやすしにめされてそのしたではたらいた。	NO_LABEL
しばらくして、官を去って郷里に帰った。	しばらくして、かんをさってきょーりにかえった。	NO_LABEL
僕射の元羅が東道大使となると、元興は東魏郡太守に任じられた。	ぼくやのげんらがとーどーたいしとなると、げんこーわとうぎぐんたいしゅににんじられた。	NO_LABEL
まもなく母の喪のため家に帰った。	まもなくははのものためいえにかえった。	NO_LABEL
529年、上党王元天穆が邢杲を討つと、元興は召されて大将軍従事中郎となった。	NO_PRONOUNCE	NO_LABEL
元顥が洛陽に入ると、元興は平北将軍・光禄大夫となり、中書舎人を兼ねた。	NO_PRONOUNCE	NO_LABEL
孝荘帝が洛陽に帰ると、元天穆の下で太宰諮議参軍となり、征虜将軍の位を加えられた。	こーそーていがらくよーにかえると、げんてんぼくのしたでだざいはかぎさんぐんとなり、せいとりこしょーぐんのくらいをくわえられた。	NO_LABEL
531年、安東将軍・光禄大夫となり、中書舎人を兼ねた。	NO_PRONOUNCE	NO_LABEL
532年、家で死去した。	ごひゃくさんじゅうにねん、いえでしきょした。	NO_LABEL
征東将軍・斉州刺史の位を追贈された。	NO_PRONOUNCE	NO_LABEL
『文集』百余篇があった。	NO_PRONOUNCE	NO_LABEL
元興は寒門の出身で、元叉の勢力をたのんで任用されたため、当時の人に非難された。	げんこーわかんもんのしゅっしんで、げんさのせいりょくをたのんでにんよーされたため、とーじのひとにひなんされた。	NO_LABEL
家は貧しかったが、食客数十人をかかえており、衣食をともにして、吝嗇な様子を見せなかった。	いえわまずしかったが、しょっきゃくすーじゅーにんをかかえており、いしょくをともにして、りんしょくなよーすをみせなかった。	NO_LABEL
郷里の治安が乱れていたため、たびたび監軍となったが、元興の処断の多くは郷里の人々にうらまれた。	NO_PRONOUNCE	NO_LABEL
