ジュメイラ・アイランズは、アラブ首長国連邦のドバイにナキール社によって建設された、巨大人造湖の中の人工島群リゾート。	じゅめいらあいらんずわ、あらぶしゅちょーこくれんぽーのどばいになきーるしゃによってけんせつされた、きょだいじんぞーこのなかのじんこーとーぐんりぞーと。	NO_LABEL
2006年に完成。	にせんろくねんにかんせい。	NO_LABEL
ジュメイラ・アイランズは50もの人工島からなり、そのうちの46島は住居用である。	NO_PRONOUNCE	NO_LABEL
それぞれの島には全てプール付の16の高級ヴィラが配され、計736のヴィラが建設された。	NO_PRONOUNCE	NO_LABEL
50の島は大きな湖の中に配されている。	NO_PRONOUNCE	NO_LABEL
ジュメイラ・アイランズの傍には、同じくナキール社が開発したパーム・アイランド、ジュメイラ・レイク・タワーズがある。	じゅめいらあいらんずのはたにわ、どうじくなきーるしゃがかいはつしたぱーむあいらんど、じゅめいられいくたわーずがある。	NO_LABEL
