アナトは、カナンのウガリット神話の主神バアルの妹にて妻とされる、愛と戦いの女神。	あなとわ、かなんのうがりっとしんわのしゅしんばあるのいもーとにてつまとされる、あいとたたかいのめがみ。	NO_LABEL
また、狩猟の女神であり、豊穣の女神でもあると考えられている。	また、しゅりょーのめがみであり、ほーじょーのめがみでもあるとかんがえられている。	NO_LABEL
嵐と慈雨の神バアルの配偶女神としてバアルに特に結合して語られる事が多く、古くは最高神イルの娘にて妻と位置付けられたが、後に嵐と慈雨の神バアルが人気を得て信仰の中心となるとイルの娘でありバアルの妹であり妻の位置づけになった。	あらしとじうのかみばあるのはいぐーめがみとしてばあるにとくにけつごーしてかたられることがおーく、ふるくわさいこーしんいるのむすめにてつまといちずけられたが、ごにあらしとじうのかみばあるがにんきをえてしんこーのちゅーしんとなるといるのむすめでありばあるのいもーとでありつまのいちずけになった。	NO_LABEL
神話によれば数々の戦いで多くの敵を殺した非常に好戦的な女神である。	しんわによればかずかずのたたかいでおーくのてきをころしたひじょーにこーせんてきなめがみである。	NO_LABEL
この時には腰まで血の海で浸されるほど多くの人間を殺してまわり、死者の頭や手を自分の腰に着けたという。	このときにわこしまでちのうみでひたされるほどおーくのにんげんをころしてまわり、ししゃのあたまやてをじぶんのこしにつけたという。	NO_LABEL
その一方で処女の称号でも呼ばれているが、これはウガリットの女神たちへの尊称であり、アナトは数々の神々の母神でもある。	そのいっぽーでしょじょのしょーごーでもよばれているが、これわうがりっとのめがみたちえのそんしょーであり、あなとわかずかずのみわのははしんでもある。	NO_LABEL
またバアルの姉妹の中で一番美しいとされ、兄バアルへの従順さと熱愛でも知られる二面性のある女神である。	またばあるのしまいのなかでいちばんうつくしいとされ、あにばあるえのじゅーじゅんさとねつあいでもしられるふたおもてせいのあるめがみである。	NO_LABEL
こうした二面性のある性格から、同じく愛と戦いの女神であるメソポタミア神話のイナンナ/イシュタルと起源を同じくすると考えられており、同じくバアルの陪神であり、語源的にその名をイシュタルと同じくするアスタルトと同一視する説もある。	NO_PRONOUNCE	NO_LABEL
キプロスでは同じ戦いの女神であり、名前のよく似たアテーナーと同一視され、また、こうしたアナトの性質は、民間信仰における移行期、神々の権威が一時的に失墜する時の女性の役割を反映していると考えられている。	きぷろすでわおなじたたかいのめがみであり、なまえのよくにたあてーなーとどーいつしされ、また、こーしたあなとのせいしつわ、みんかんしんこーにおけるいこーき、みわのけんいがいちじてきにしっついするときのじょせいのやくわりをはんえいしているとかんがえられている。	NO_LABEL
兄であるバアルを熱愛し、彼が「自分には専用の神殿が無い」と嘆いた際には、最高神イルの元に赴き、頭蓋を叩き割ると恫喝までして神殿を要求している。	NO_PRONOUNCE	NO_LABEL
実際にはこれは失敗しており、後にイルの妻アーシラトに贈り物をして、神殿建設の願いを叶える。	じっさいにわこれわしっぱいしており、のちにいるのつまあーしらとにおくりものをして、しんでんけんせつのねがいをかなえる。	NO_LABEL
この神話は雨季の先触れである雷光と雷鳴の神であるバアルと豊穣の女神であるアナトの結合を意味すると考えられ。	このしんわわうきのさきぶれであるらいこーとらいめいのかみであるばあるとほーじょーのめがみであるあなとのけつごーをいみするとかんがえられ。	NO_LABEL
実際、神話に関わりのあった時期が明確に述べられており、新年祭の豊穣祭儀を説明するものであり神殿をもったバアルの権力を象徴しているものと考えられる。	じっさい、しんわにかかわりのあったじきがめいかくにのべられており、しんねんさいのほーじょーさいぎをせつめいするものでありしんでんをもったばあるのけんりょくをしょーちょーしているものとかんがえられる。	NO_LABEL
さらにバアルを殺したモートを切り刻み、箕でふるい、これを焼き、臼でひき、畑に撒くという壮絶な復讐を果たした。	さらにばあるをころしたもーとをきりきざみ、みのでふるい、これをやき、うすでひき、はたけにまくとゆうそーぜつなふくしゅーをはたした。	NO_LABEL
モートの死体を畑に撒いたことによりバアルは復活し、その7年後にモートも復活した。	もーとのしたいをはたけにまいたことによりばあるわふっかつし、そのななねんごにもーともふっかつした。	NO_LABEL
この神話はエジプト神話でオシリスがセトに殺され、その屍が粉々にされて撒き散らされた後、オシリスの妹であり妻であるイシスが嘆きながら死体を集める神話と同じモチーフであり、これは一年の季節のサイクル、すなわち不毛の冬と作物が実る春から秋の四季の移ろいを説明するものであり、また、数年ごとのモートの復活で豊作と不作の繰り返される農耕の周年のサイクルを反映したものと考えられている。	このしんわわえじぷとしんわでおしりすがせとにころされ、そのかばねがこなごなにされてまきちらされたのち、おしりすのいもーとでありつまであるいしすがなげきながらしたいをあつめるしんわとおなじもちーふであり、これわいちねんのきせつのさいくる、すなわちふもーのふゆとさくもつがみのるはるからあきのしきのうつろいをせつめいするものであり、また、すーねんごとのもーとのふっかつでほーさくとふさくのくりかえされるのーこーのしゅーねんのさいくるをはんえいしたものとかんがえられている。	NO_LABEL
バアルがヤム＝ナハルを倒し、自分の神殿を完成させた祝賀会が開かれた後、アナトは兵士たちを神殿に招いた後に発作的に殺戮の衝動に駆られ、神殿の戸を閉めて集まった兵士たちを殺しつくし、膝まで血の中に漬かり満足すると、神殿を清めて喜びを表わしたとされる。	NO_PRONOUNCE	NO_LABEL
また、アナトは、ヤム＝ナハルと同類の生き物であるレビヤタンをバアルと共に倒したとされる。	NO_PRONOUNCE	NO_LABEL
ある時アナトは、ハルナイムの王が工芸神に頼んで、息子の為に特別に作らせた弓を手に入れようと考えた。	あるときあなとわ、はるないむのおーがこーげいしんにたのんで、むすこのためにとくべつにつくらせたゆみをてにいれようとかんがえた。	NO_LABEL
彼女はアクハトに金や銀、不死の命とその弓を交換しようと持ちかけるが、アクハトは頑としてこれを拒んだ。	かのじょわあくはとにきんやぎん、ふしのいのちとそのゆみをこーかんしようともちかけるが、あくはとわがんとしてこれをこばんだ。	NO_LABEL
これに怒るアナトはイルの下へ行き、アクハトに復讐する事を告げた。	これにおこるあなとわいるのしたえいき、あくはとにふくしゅーすることをつげた。	NO_LABEL
イルはこれを咎めるが彼女は聞かず、自身に仕える戦士・ヤトパンを鷲に変えて他の鷲達と共に送り込み、アクハトを殺させた。	NO_PRONOUNCE	NO_LABEL
すると、アクハトの死と共に地上に乾季が訪れた。	すると、あくはとのしとともにちじょーにかんきがおとずれた。	NO_LABEL
アナトは自分の所業を後悔した。	あなとわじぶんのしょぎょーをこーかいした。	NO_LABEL
そしてアクハトの姉バグハトは弟の喪が明けた後、復讐を誓い、弟の仇であるヤトバンを探し出し殺した。	そしてあくはとのあねばぐはとわおとーとのもがあけたのち、ふくしゅーをちかい、おとーとのあだであるやとばんをさがしだしころした。	NO_LABEL
その後の物語の詳細は粘土板の消失で不明だが、おそらくアクハトは蘇生し、地上にはまた雨が降るようになったと思われる。	そのごのものがたりのしょーさいわねんどばんのしょーしつでふめいだが、おそらくあくはとわそせいし、ちじょーにわまたあめがふるよーになったとおもわれる。	NO_LABEL
