ヘンク・ティメルは、オランダ出身の元サッカー選手。	へんくてぃめるわ、おらんだしゅっしんのもとさっかーせんしゅ。	NO_LABEL
ポジションはゴールキーパー。	ぽじしょんわごーるきーぱー。	NO_LABEL
元オランダ代表。	もとおらんだだいひょー。	NO_LABEL
妻はスピードスケート選手で長野オリンピック・スピードスケート金メダリストのマリアンヌ・ティメル。	NO_PRONOUNCE	NO_LABEL
33歳でオランダ代表に初招集された遅咲きである。	さんじゅうさんさいでおらんだだいひょーにはつしょーしゅーされたおそざきである。	NO_LABEL
2008-09シーズン終了後フェイエノールトを退団し現役を引退した。	NO_PRONOUNCE	NO_LABEL
翌年3月、第3GKまで全員が故障したSCヘーレンフェーンのトライアルに合格し、2009-10シーズン終了まで契約。	NO_PRONOUNCE	NO_LABEL
6月に再び現役を退いた。	ろくがつにふたたびげんえきをしりぞいた。	NO_LABEL
