bjリーグ ジュニアユースバスケットボールカップは、若年層を対象としたバスケットボール大会である。	びーじぇーりーぐじゅにあゆーすばすけっとぼーるかっぷわ、じゃくねんそーをたいしょーとしたばすけっとぼーるたいかいである。	NO_LABEL
通称bjカップ。	つーしょーびーじぇいかっぷ。	NO_LABEL
2008年にbjリーグの理念のひとつである「グローカル＆コミュニティ」に基づき中学生年代によるbjリーグ ジュニアバスケットボール大会として創設。	NO_PRONOUNCE	NO_LABEL
bjリーグ所属球団の本拠地である都府県の中学校あるいは中学1・2年生のチームを対象とし、各本拠地で予選を開催。	NO_PRONOUNCE	NO_LABEL
予選を勝ち抜いたチームは決勝大会へ進む。	よせんをかちぬいたちーむわけっしょーたいかいえすすむ。	NO_LABEL
優勝チームはアメリカ合衆国・テキサス州の国際大会へ招待。	NO_PRONOUNCE	NO_LABEL
一般社団法人bjリーグアカデミー発足後の2013-14シーズンからは同法人主催となり、bjリーグ ジュニアユースバスケットボールカップに改称された。	NO_PRONOUNCE	NO_LABEL
2016-17シーズンよりbjリーグがBリーグに統合されたのを受けて、大会名を「バスケットボールジャパンカップ」に改称した。	NO_PRONOUNCE	NO_LABEL
バスケットボールジャパンカップとしては旧bjリーグカップを継承するU-14に加え、U-18、U-15、U-12、U-10の五つの年代で大会が開かれる。	NO_PRONOUNCE	NO_LABEL
予選は7月から10月にかけてbjリーグ球団のホームタウン12ヶ所で開催。	NO_PRONOUNCE	NO_LABEL
決勝大会は稲城市総合体育館・帝京大学八王子キャンパスで12月25・26日に開催。	NO_PRONOUNCE	NO_LABEL
予選は8月から11月にかけてbjリーグ球団のホームタウンに長野を加えた14ヶ所で開催。	NO_PRONOUNCE	NO_LABEL
決勝大会は所沢市民体育館・狭山市市民体育館で1月4～6日に開催。	NO_PRONOUNCE	NO_LABEL
