『Angelic Smile／WINTER PARTY』は、BREAKERZの3枚目のシングル。	NO_PRONOUNCE	NO_LABEL
2008年11月5日にZAIN RECORDSから発売された。	にせんはちねんじゅーいちがついつかにずぁいんれこーどからはつばいされた。	NO_LABEL
「Angelic Smile」PV	NO_PRONOUNCE	NO_LABEL
「WINTER PARTY」PV	NO_PRONOUNCE	NO_LABEL
