松本 香苗は、日本のアイドル歌手。	まつもとかなえわ、にっぽんのあいどるかしゅ。	NO_LABEL
東京都出身でマーベルエール所属。	とーきょーとしゅっしんでまーべるえーるしょぞく。	NO_LABEL
愛称は「かなりん」。	NO_PRONOUNCE	NO_LABEL
学習院女子大学国際文化交流学部日本文化学科出身。	がくしゅーいんじょしだいがくこくさいぶんかこーりゅーがくぶにっぽんぶんかがっかしゅっしん。	NO_LABEL
