ドナウ川のシーチは、1775年から1828年までオスマン帝国領のドナウ川の下流に存在したウクライナ・コサックの軍事組織である。	どなうがわのしーちわ、せんななひゃくななじゅうごねんからせんはっぴゃくにじゅうはちねんまでおすまんていこくりょーのどなうがわのかりゅーにそんざいしたうくらいなこさっくのぐんじそしきである。	NO_LABEL
この組織を中心とした軍隊はドナウ川コサック軍あるいはドナウ・コサックと呼ばれる。	NO_PRONOUNCE	NO_LABEL
1775年、ロシア帝国は、それまでウクライナ・コサックの本拠地であったを破壊した。	せんななひゃくななじゅうごねん、ろしあていこくわ、それまでうくらいなこさっくのほんきょちであったをはかいした。	NO_LABEL
数千人のコサックは迫害、流刑と強制的農奴化から逃れ、オスマン帝国領のドナウ川の下流、ドブロジャ地方にたどり着いた。	すーせんにんのこさっくわはくがい、るけいときょーせいてきのーどかからのがれ、おすまんていこくりょーのどなうがわのかりゅー、どぶろじゃちほーにたどりついた。	NO_LABEL
オスマン帝国の政府はコサックの忠誠と軍役と引き換えにコサックの内政自治権を認め、南ブーフ川とドナウ川の間の領地を下賜した。	おすまんていこくのせいふわこさっくのちゅーせいとぐんえきとひきかえにこさっくのないせいじちけんをみとめ、みなみぶーふがわとどなうがわのまのりょーちをかしした。	NO_LABEL
そこでコサックはドナウ川河口に新しい根拠地を創建したが、その領地では以前にヘクラソフ衆というロシア・コサックの一派がオスマン帝国の皇帝の保護を受けて住んでいたので、領土争いが始まった。	NO_PRONOUNCE	NO_LABEL
結局、7000人のウクライナ・コサックはオスマン帝国のシリストラ州のセイメニ地方へ移住され、残りの8000人は神聖ローマ帝国皇帝のヨーゼフ2世の招待に応じてバナト地方でオーストリアの国境防衛軍として置かれた。	けっきょく、ななせんにんのうくらいなこさっくわおすまんていこくのしりすとらしゅーのせいめにちほーえいじゅーされ、のこりのはっせんにんわしんせいろーまていこくこーていのよーぜふにせいのしょーたいにおーじてばなとちほーでおーすとりあのこっきょーぼーえいぐんとしておかれた。	NO_LABEL
しかし、後者はゲルマン系の官僚主義とコサックの理想に反する厳しい管理に対して耐え切れず、1805年にオーストリアを離れてオスマン帝国のセイメニ地方へ戻った。	しかし、こーしゃわげるまんけいのかんりょーしゅぎとこさっくのりそーにはんするきびしいかんりにたいしてたえきれず、せんはっぴゃくごねんにおーすとりあをはなれておすまんていこくのせいめにちほーえもどった。	NO_LABEL
1813年の春、ウクライナ・コサックはドナウ川のカテルレーズ地方で新たなシーチを創立したが、2年後、それをドナウ川の支流であるドナヴェツィ川へ移動した。	NO_PRONOUNCE	NO_LABEL
このシーチの組織はザポロージャのシーチと同様なものだった。	このしーちのそしきわざぽろーじゃのしーちとどーよーなものだった。	NO_LABEL
最高機関は軍事議会が存在し、そこでコサックの長官である軍隊長、軍裁判官、書記官、軍律取締役と通詞役が選ばれていた。	さいこーきかんわぐんじぎかいがそんざいし、そこでこさっくのちょーかんであるぐんたいちょー、ぐんさいばんかん、しょきかん、ぐんりつとりしまりやくとつーじやくがえらばれていた。	NO_LABEL
コサック全員が軍事議会に参議権を持ち、長官選挙での被選挙権・選挙権を有していた。	NO_PRONOUNCE	NO_LABEL
シーチは、短期間内でウクライナ人の政治的・社会的な中心となり、そこへロシアの支配下にあるウクライナから迫害を受けた下級コサックと農民が次々と逃亡していった。	NO_PRONOUNCE	NO_LABEL
ドナウ川のコサックは正教徒であったが、オスマン帝国の軍隊として同教徒であったセルビア人、ギリシア人、ルーマニア人の反乱者と戦わねばならなかった。	どなうがわのこさっくわせいきょーとであったが、おすまんていこくのぐんたいとしてどーきょーとであったせるびあじん、ぎりしあじん、るーまにあじんのはんらんしゃとたたかわねばならなかった。	NO_LABEL
また、ウクライナに帰りたいという思いを抱くコサックも少なくなかった。	また、うくらいなにかえりたいとゆうおもいをいだくこさっくもすくなくなかった。	NO_LABEL
1828年、露土戦争の最中に、イスラム教徒への不満と故国への郷愁を理由に、ヨスィプ・フラドクィーイが率いる1500人のウクライナ・コサックは、イズマイール市の辺りでオスマン帝国側からロシア帝国側へ寝返った。	NO_PRONOUNCE	NO_LABEL
それらのコサックはロシア軍の枠組みでアゾフ・コサック軍として編制された。	NO_PRONOUNCE	NO_LABEL
しかし、フラドクィーイの行動によってオスマン帝国に残されたコサックはオスマン帝国政府による厳しい沙汰を受けた。	しかし、ふらどくぃーいのこーどーによっておすまんていこくにのこされたこさっくわおすまんていこくせいふによるきびしいさたをうけた。	NO_LABEL
コサックの棟梁であるイヴァン・バランと長官たちが捕らえられて牢屋に入られ、シーチにいたコサックは全員が殺害され、シーチの教会、学校、図書館などが防備施設とともに焼かれた。	NO_PRONOUNCE	NO_LABEL
