川島葵のココロサプリは東海ラジオ放送で放送されていたラジオ番組。	かわしまあおいのこころさぷりわとーかいらじおほーそーでほーそーされていたらじおばんぐみ。	NO_LABEL
ココロの栄養剤とサブタイトルが付く。	こころのえいよーざいとさぶたいとるがつく。	NO_LABEL
2008年4月7日より川島葵のこどもさぷりに模様替えしたが、2009年4月より再びココロサプリに変更になり、2010年4月よりココロサプリに変更になる。	にせんはちねんしがつなのかよりかわしまあおいのこどもさぷりにもよーがえしたが、にせんきゅうねんしがつよりふたたびこころさぷりにへんこーになり、にせんじゅうねんしがつよりこころさぷりにへんこーになる。	NO_LABEL
普段、生活している中で起きる行動などから、その人がどのような心理状態にあるのかを、川島・源石両アナウンサーが演じるドラマを通して専門家が解説する。	NO_PRONOUNCE	NO_LABEL
後番組の川島葵のこどもさぷりでも同様の流れで進行していた。	こーばんぐみのかわしまあおいのこどもさぷりでもどーよーのながれでしんこーしていた。	NO_LABEL
