静的破砕剤とは、発破など爆薬のように瞬間的な力ではなく、時間を掛けて膨張する力で硬質な対象物を破砕する薬剤である。	せいてきはさいざいとわ、はっぱなどばくやくのよーにしゅんかんてきなちからでわなく、じかんをかけてぼーちょーするちからでこーしつなたいしょーぶつをはさいするやくざいである。	NO_LABEL
主に不要な建築物や岩の破砕に用いられる。	おもにふよーなけんちくぶつやいわのはさいにもちいられる。	NO_LABEL
静的破砕剤は、建物なら爆破解体などのような爆薬を使用することができない場所にあるものを壊す際に用いられる。	せいてきはさいざいわ、たてものならばくはかいたいなどのよーなばくやくをしよーすることができないばしょにあるものをこわすさいにもちいられる。	NO_LABEL
爆破解体はアメリカ合衆国などでは超高層ビルや巨大なスタジアムなど、破壊して撤去するにしても時間とコストが掛かるような場合に用いられる解体手法ではあるが、日本のオフィス街のようにビルが隣接していたり、火薬の取締り規則が厳しく使える状況にない場所も少なくない。	ばくはかいたいわあめりかがっしゅーこくなどでわちょーこーそーびるやきょだいなすたじあむなど、はかいしててっきょするにしてもじかんとこすとがかかるよーなばあいにもちいられるかいたいしゅほーでわあるが、にっぽんのおふぃすがいのよーにびるがりんせつしていたり、かやくのとりしまりきそくがきびしくつかえるじょーきょーにないばしょもすくなくない。	NO_LABEL
こういった場では手作業と小型建設機械で時間を掛けて解体するしかないが、それでも手に余る巨大な建物の場合はあまりに非効率である。	こーいったばでわてさぎょーとこがたけんせつきかいでじかんをかけてかいたいするしかないが、それでもてにあまるきょだいなたてもののばあいわあまりにひこーりつである。	NO_LABEL
静的破砕剤は、爆破解体が起こす爆音が周囲に騒音としてや振動のような形で公害を引き起こすことを防止できるが、同時に山野のダム建設工事などに伴う発破作業とその騒音により周辺生態系への悪影響が懸念される場合にも用いられる。	せいてきはさいざいわ、ばくはかいたいがおこすばくおんがしゅーいにそーおんとしてやしんどーのよーなかたちでこーがいをひきおこすことをぼーしできるが、どーじにさんやのだむけんせつこーじなどにともなうはっぱさぎょーとそのそーおんによりしゅーへんせいたいけいえのあくえいきょーがけねんされるばあいにももちいられる。	NO_LABEL
破砕対象に穿った穴に充填して使用されるが、この穴をあける際にも静穏性の高い工作機械があるため、破砕作業中の騒音を抑止することが出来、また周囲への破片や埃が飛び散る被害も抑えることができる。	はさいたいしょーにうがったあなにじゅーてんしてしよーされるが、このあなをあけるさいにもせいおんせいのたかいこーさくきかいがあるため、はさいさぎょーちゅーのそーおんをよくしすることができ、またしゅーいえのはへんやほこりがとびちるひがいもおさえることができる。	NO_LABEL
静的破砕剤は凝固の過程で体積が増加する性質があり、生石灰法と呼ばれるものでは、一種のコンクリートである。	せいてきはさいざいわぎょーこのかていでたいせきがぞーかするせいしつがあり、せいせっかいほーとよばれるものでわ、いっしゅのこんくりーとである。	NO_LABEL
これは約300kg/cm程度の圧力を発生させるが、これを破砕対象に穿った穴に充填して固まりながら膨張するのを待つ。	NO_PRONOUNCE	NO_LABEL
一つ一つの膨張圧は穴の周囲に向かって均等に発生するが、これを30～60cm程度の一定間隔ごとに一列に並べて空けた穴に充填してやることで、列の左右に押し広げる合成された力が生まれ、対象を割ることができる。	NO_PRONOUNCE	NO_LABEL
凝固時間は静的破砕剤の種類にもよるが30分から1時間程度で、その凝固後の2～24時間ほどの間に十分な圧力を発生させる。	NO_PRONOUNCE	NO_LABEL
ただし反応速度や膨張の量は周辺の気温にも影響されるため、周辺気温によって幾つかのタイプを使い分ける必要もある。	ただしはんのーそくどやぼーちょーのりょーわしゅーへんのきおんにもえいきょーされるため、しゅーへんきおんによっていくつかのたいぷをつかいわけるひつよーもある。	NO_LABEL
バルクタイプとカプセルタイプがあり、バルクタイプは使用直前に水と混ぜて攪拌し、破砕対象に穿った穴に充填する。	ばるくたいぷとかぷせるたいぷがあり、ばるくたいぷわしよーちょくぜんにみずとまぜてかくはんし、はさいたいしょーにうがったあなにじゅーてんする。	NO_LABEL
カプセルタイプでは水を含ませた後に穴に入れる。	かぷせるたいぷでわみずをふくませたのちにあなにいれる。	NO_LABEL
なお生石灰式などの静的破砕剤は反応中は強いアルカリ性を示すため、不用意に手や目にこれら薬剤がつかないよう、ゴム手袋やゴーグルなどの防護装備を必要とする。	なおせいせっかいしきなどのせいてきはさいざいわはんのーちゅーわつよいあるかりせいをしめすため、ふよーいにてやめにこれらやくざいがつかないよー、ごむてぶくろやごーぐるなどのぼーごそーびをひつよーとする。	NO_LABEL
