『タマ&フレンズ 探せ!魔法のプニプニストーン』は、アニメ番組である。	NO_PRONOUNCE	NO_LABEL
基本設定はグループ・タックが制作し、実質的制作は韓国の同友アニメーションである。	きほんせっていわぐるーぷたっくがせいさくし、じっしつてきせいさくわかんこくのどーゆーあにめーしょんである。	NO_LABEL
ソニー・クリエイティブプロダクツのファンシー文具の人気キャラクター『タマ&フレンズ』からの派生作品。	NO_PRONOUNCE	NO_LABEL
一部キャラクターデザインを除いて、設定やストーリーなどの諸要素は完全に本作オリジナル。	いちぶきゃらくたーでざいんをのぞいて、せっていやすとーりーなどのしょよーそわかんぜんにもとさくおりじなる	NO_LABEL
制作の全般を韓国のアニメ会社に任せている所が特徴である。	せいさくのぜんぱんをかんこくのあにめがいしゃにまかせているところがとくちょーである。	NO_LABEL
また、松田聖子がゲスト声優として自ら名前をつけたキャラクターで出演している。	また、まつだせいこがげすとせいゆーとしてみずからなまえをつけたきゃらくたーでしゅつえんしている。	NO_LABEL
同じ『タマ&フレンズ』からの派生作品である『3丁目のタマ うちのタマ知りませんか?』との違いは、『3丁目のタマ-』は町内を舞台にした穏やかな物語であったが、本作は地球外の動物だけが暮らす惑星を舞台にした冒険物となっている。	NO_PRONOUNCE	NO_LABEL
全26話。	ぜんにじゅうろくわ。	NO_LABEL
2006年5月6日よりアニマックスで放送された。	にせんろくねんごがつむいかよりあにまっくすでほーそーされた。	NO_LABEL
このほか、以下のとおり独立局でも放送されている。	このほか、いかのとーりどくりつきょくでもほーそーされている。	NO_LABEL
2010年4月7日に、ストーリー全26話と特典映像が収録されたパーフェクトDVDがポニーキャニオンより発売された。	にせんじゅうねんしがつなのかに、すとーりーぜんにじゅうろくわととくてんえいぞーがしゅーろくされたぱーふぇくとでぃーぶいでぃーがぽにーきゃにおんよりはつばいされた。	NO_LABEL
特典映像には、予告編やリビリビ博士の発明品のほか、タマ&フレンズ3丁目物語より、「タマが生まれた時の話」、「タマとポチの大冒険」の2話が収録されている。	NO_PRONOUNCE	NO_LABEL
世界中にある魔法の玉「プニプニストーン」を集め、4つの月が肉球形に近付くと偉大な力を得られるという世界。	NO_PRONOUNCE	NO_LABEL
3匹の猫は、猫の王国より王の密かな命を受け、旅立つ事になる。	NO_PRONOUNCE	NO_LABEL
一行は、8つのプニダマを得るべく長い長い旅に出発する。	いっこーわ、やっつのぷにだまをえるべくながいながいたびにしゅっぱつする。	NO_LABEL
タマ・ハット・シマ以外は、エンディングでは声優のみが表記される。	NO_PRONOUNCE	NO_LABEL
発売元：ソニーレコード	NO_PRONOUNCE	NO_LABEL
ソニー・クリエイティブプロダクツから、キャラクターグッズが発売されている。	そにーくりえいてぃぶぷろだくつから、きゃらくたーぐっずがはつばいされている。	NO_LABEL
