斉藤 恵一は、北海道札幌市西区出身のバスケットボール選手である。	さいとーけいいちわ、ほっかいどーさっぽろしにしくしゅっしんのばすけっとぼーるせんしゅである。	NO_LABEL
ポジションはスモールフォワード/パワーフォワード。	NO_PRONOUNCE	NO_LABEL
193cm、85kg。	ひゃくきゅうじゅうさんせんちめーとる、はちじゅうごきろぐらむ。	NO_LABEL
イカイレッドチンプス所属。	いかいれっどちんぷすしょぞく。	NO_LABEL
宮の丘中学校でバスケットボールを始め、東海大学第四高校、宮田自動車を経て、2005年のbjリーグドラフト全体13位で仙台89ERSに入団。	みやのおかちゅーがっこーでばすけっとぼーるをはじめ、とーかいだいがくだいよんこーこー、みやたじどーしゃをへて、にせんごねんのびーじぇーりーぐどらふとぜんたいじゅうさんいでせんだいえいてぃないなーずににゅーだん。	NO_LABEL
2007年、実業団のイカイに入団。	にせんななねん、じつぎょーだんのいかいににゅーだん。	NO_LABEL
