『TWO-F』は、2005年公開の田川幹太監督のオリジナルビデオである。	NO_PRONOUNCE	NO_LABEL
平凡なOL生活を送っていた今日子は、白昼、謎の女・リエに拉致される。	NO_PRONOUNCE	NO_LABEL
監禁された今日子はリエの一方的で異常な愛情と暴力を浴びせ続けられ、尊厳を踏みにじられる。	かんきんされたきょーこわりえのいっぽーてきでいじょーなあいじょーとぼーりょくをあびせつずけられ、そんげんをふみにじられる。	NO_LABEL
偶然、訪れた刑事やリエの奴隷と化している青年が入り乱れ、衝撃のラストへ突き進む。	ぐーぜん、おとずれたけいじやりえのどれいとかしているせいねんがいりみだれ、しょーげきのらすとえつきすすむ。	NO_LABEL
