ウダーは、新しい電子楽器のひとつ。	うだーわ、あたらしいでんしがっきのひとつ。	NO_LABEL
円柱系の操作部を両手で挟み込み、全ての指を使って和音演奏する独特の操作系を特徴とし、宇田道信が発明した。	えんちゅーけいのそーさぶをりょーてではさみこみ、すべてのゆびをつかってわおんえんそーするどくとくのそーさけいをとくちょーとし、うだみちのぶがはつめいした。	NO_LABEL
宇田により開発されたことからこのように命名された。	うだによりかいはつされたことからこのよーにめいめいされた。	NO_LABEL
発音はギターと同じ。	はつおんわぎたーとおなじ。	NO_LABEL
操作部は薄い円盤型の基部と、円盤の平面の両側に12角形の円柱型をした握り筒、更に握り筒の外側に手で操作部を掴む助けになるフックがついている。	NO_PRONOUNCE	NO_LABEL
現行の色は黒である。	げんこーのいろわくろである。	NO_LABEL
手を当てるところもある。	てをあてるところもある。	NO_LABEL
円柱部にある「ロープ」と呼ばれる感圧帯を押す事で発音する。	NO_PRONOUNCE	NO_LABEL
ロープの直下に感圧形のセンサが384個内蔵されており、複数の指を検出する事ができる。	NO_PRONOUNCE	NO_LABEL
また、ロープは螺旋状になっており、螺旋が基部から遠くに向かうほど発音の音程が高くなる。	また、ろーぷわらせんじょーになっており、らせんがきぶからとーくにむかうほどはつおんのおんていがたかくなる。	NO_LABEL
又左右対称にできている。	またさゆーたいしょーにできている。	NO_LABEL
螺旋が一周する事で1オクターブの音程変化となり、現行のウダーは螺旋は円柱部を4周している。	NO_PRONOUNCE	NO_LABEL
さらに、円柱部の12角形の面の中央が平均律の基音に一致するよう調律されている。	NO_PRONOUNCE	NO_LABEL
ただしウダー自体は無段階に発音できるため、平均律だけではなく、純正律など他の音律で演奏することも可能。	ただしうだーじたいわむだんかいにはつおんできるため、へいきんりつだけでわなく、じゅんせいりつなどたのおんりつでえんそーすることもかのー。	NO_LABEL
ロープを押さえると下にある複数のセンサーが反応する。	ろーぷをおさえるとしたにあるふくすーのせんさーがはんのーする。	NO_LABEL
圧力センサーから指の位置と圧力を算出する。	あつりょくせんさーからゆびのいちとあつりょくをさんしゅつする。	NO_LABEL
これによりウダーは運指データを生成する。	これによりうだーわうんゆびでーたをせいせいする。	NO_LABEL
運指データはタッパーに送られMIDIに変換される。	うんゆびでーたわたっぱーにおくられみでぃにへんかんされる。	NO_LABEL
MIDIに応じてMIDI音源が、音データを生成し、音データがアンプにより増幅され、スピーカーによって音が鳴る。	みでぃにおーじてみでぃおんげんが、おとでーたをせいせいし、おとでーたがあんぷによりぞーふくされ、すぴーかーによっておとがなる。	NO_LABEL
和音が演奏できる楽器であり、かつ音程が音階と関係なく自由に取れるため、一人の奏者が和音のそれぞれの音をポルタメントして別の和音に移行できる。	わおんがえんそーできるがっきであり、かつおんていがおんかいとかんけいなくじゆーにとれるため、ひとりのそーしゃがわおんのそれぞれのおとをぽるためんとしてべつのわおんにいこーできる。	NO_LABEL
又、ドの位置が決まっていない。	また、どのいちがきまっていない。	NO_LABEL
イベントでも見られる通り温かい癒しの音色が印象的であるが、ウダーそのものには音源は内蔵しておらず、外付けのMIDI音源、その先につなぐアンプなどが必要である。	いべんとでもみられるとーりあたたかいいやしのねいろがいんしょーてきであるが、うだーそのものにわおんげんわないぞーしておらず、そとずけのみでぃおんげん、そのさきにつなぐあんぷなどがひつよーである。	NO_LABEL
出力はMIDIではない独自仕様になっており、MIDI音源につなぐために変換アダプタを使っている。	しゅつりょくわみでぃでわないどくじしよーになっており、みでぃおんげんにつなぐためにへんかんあだぷたをつかっている。	NO_LABEL
あくまでも「ウダーの音」というよりはウダーに合った音色を選んでいるだけであることに注意されたい。	NO_PRONOUNCE	NO_LABEL
大人の科学版開発以降はMIDI音源ではなくPSoCを使った専用音源となっている。	NO_PRONOUNCE	NO_LABEL
まず、電子楽器なので電源を入れる。	まず、でんしがっきなのででんげんをいれる。	NO_LABEL
その後、フックを両手の指の間に入れ、両手の掌で本体を包み込むように掴む。	そのご、ふっくをりょーてのゆびのまにいれ、りょーてのてのひらでほんたいをつつみこむよーにつかむ。	NO_LABEL
膝に乗せるとひき易い。	ひざにのせるとひきやすい。	NO_LABEL
指を良く開き、円筒部の面の中央を押さえるよう指を動かし、囲むような指使いでロープを押さえて演奏する。	ゆびをよくひらき、えんとーぶのめんのちゅーおーをおさえるよーゆびをうごかし、かこむよーなゆびずかいでろーぷをおさえてえんそーする。	NO_LABEL
特定の旋律を演奏する前に、指と指の間隔でどの音階が出るのかを良く訓練する必要がある。	とくていのせんりつをえんそーするまえに、ゆびとゆびのかんかくでどのおんかいがでるのかをよくくんれんするひつよーがある。	NO_LABEL
『大人の科学』のふろくを目指しており、2011楽器フェアの学研ブースではウダーの変遷についての展示があった。	NO_PRONOUNCE	NO_LABEL
また、2012年中の販売を目指し、テストユーザーが募集されている。	また、にせんじゅうにねんちゅーのはんばいをめざし、てすとゆーざーがぼしゅーされている。	NO_LABEL
開発履歴については公式開発履歴を参照。	かいはつりれきについてわこーしきかいはつりれきをさんしょー。	NO_LABEL
