ルドルフ＝クリストフ・フォン・ゲルスドルフ男爵は、ドイツの軍人。	るどるふくりすとふふぉんげるすどるふだんしゃくわ、どいつのぐんじん。	NO_LABEL
最終階級はドイツ国防軍少将。	さいしゅーかいきゅーわどいつこくぼーぐんしょーしょー。	NO_LABEL
ヒトラー暗殺計画参加者の一人。	ひとらーあんさつけいかくさんかしゃのひとり。	NO_LABEL
シレジアのリューベンに、男爵エルンスト・フォン・ゲルスドルフ騎兵大尉の次男として生まれる。	NO_PRONOUNCE	NO_LABEL
母親は伯爵家の出身。	ははおやわはくしゃくかのしゅっしん。	NO_LABEL
アビトゥーア合格までリューベンの学校に学び、1923年に士官候補生としてヴァイマル共和国軍陸軍に入営した。	NO_PRONOUNCE	NO_LABEL
1934年にシレジアの財閥フォン・クラマスタ家の一族である女性と結婚、一女をもうけた。	NO_PRONOUNCE	NO_LABEL
先祖代々が勤務したブレスラウの近衛騎兵部隊で軍人の教育を受け、1926年に少尉、1938年に騎兵大尉に昇進。	せんぞだいだいがきんむしたぶれすらうのこのえきへいぶたいでぐんじんのきょーいくをうけ、せんきゅうひゃくにじゅうろくねんにしょーい、せんきゅうひゃくさんじゅうはちねにきへいたいいにしょーしん。	NO_LABEL
1938年から1939年まではベルリンの陸軍大学で学んで参謀教育を受けた。	せんきゅうひゃくさんじゅうはちねからせんきゅうひゃくさんじゅうきゅうねんまでわべるりんのりくぐんだいがくでまなんでさんぼーきょーいくをうけた。	NO_LABEL
陸軍大学を優秀な成績で卒業した後、原隊に復帰して1939年9月のポーランド侵攻に従軍。	りくぐんだいがくをゆーしゅーなせいせきでそつぎょーしたのち、げんたいにふっきしてせんきゅうひゃくさんじゅうきゅうねんくがつのぽーらんどしんこーにじゅーぐん。	NO_LABEL
いとこであるファビアン・フォン・シュラーブレンドルフの仲介により中央軍集団に転属となり、バルバロッサ作戦に従軍。	いとこであるふぁびあんふぉんしゅらーぶれんどるふのちゅーかいによりちゅーおーぐんしゅーだんにてんぞくとなり、ばるばろっささくせんにじゅーぐん。	NO_LABEL
ついでアプヴェーアの連絡将校として参謀本部で偵察課長となる。	NO_PRONOUNCE	NO_LABEL
この転属は、ヒトラー暗殺計画を練るヘニング・フォン・トレスコウらによる働きかけで実現したものだった。	このてんぞくわ、ひとらーあんさつけいかくをねるへにんぐふぉんとれすこーらによるはたらきかけでじつげんしたものだった。	NO_LABEL
1943年4月、ゲルスドルフは偶然カティンの森で4000人以上のポーランド軍将校の遺体を発見した。	せんきゅうひゃくよんじゅうさんねしがつ、げるすどるふわぐーぜんかてぃんのもりでよんせんにんいじょーのぽーらんどぐんしょーこーのいたいをはっけんした。	NO_LABEL
これは1940年にソ連内務人民委員部により殺害され埋められたカティンの森事件の犠牲者のものだった。	これわせんきゅうひゃくよんじゅうねんにそれんないむじんみんいーんぶによりさつがいされうめられたかてぃんのもりじけんのぎせいしゃのものだった。	NO_LABEL
1943年3月13日、トレスコウがアドルフ・ヒトラー総統を飛行機に仕掛けた爆弾で暗殺しようとして失敗した後、ゲルスドルフは自分が自爆してヒトラーを暗殺する決意を固めた。	せんきゅうひゃくよんじゅうさんねさんがつじゅうさんにち、とれすこーがあどるふひとらーそーとーをひこーきにしかけたばくだんであんさつしよーとしてしっぱいしたのち、げるすどるふわじぶんがじばくしてひとらーをあんさつするけついをかためた。	NO_LABEL
1943年3月21日の英雄記念日にベルリンでソ連軍から捕獲した武器の展示会をヒトラーが参観し、ゲルスドルフが専門家としてその説明係を務めることになった。	せんきゅうひゃくよんじゅうさんねさんがつにじゅういちにちのえいゆーきねんびにべるりんでそれんぐんからほかくしたぶきのてんじかいをひとらーがさんかんし、げるすどるふがせんもんかとしてそのせつめいがかりをつとめることになった。	NO_LABEL
ゲルスドルフはコートのポケットに隠し持った爆弾でゲーリング、ヒムラー、カイテル、デーニッツ、フォン・ボック、ミルヒら首脳陣をまとめて暗殺しようとした。	NO_PRONOUNCE	NO_LABEL
ゲルスドルフは時限装置を仕掛けたが、ヒトラーは立ち止まること無く展示会場を抜け、予想より早く会場を後にした。	げるすどるふわじげんそーちをしかけたが、ひとらーわたちどまることなくてんじかいじょーをぬけ、よそーよりはやくかいじょーをごにした。	NO_LABEL
ゲルスドルフはトイレに入って10分の時限装置を止めた。	げるすどるふわといれにはいってじゅっぷんのじげんそーちをとめた。	NO_LABEL
この後ゲルスドルフは東部戦線に転属となった。	こののちげるすどるふわとーぶせんせんにてんぞくとなった。	NO_LABEL
1944年、ヒトラー暗殺を試みるクラウス・フォン・シュタウフェンベルクのために、ヴェッセル・フライターク・フォン・ローリングホーフェンが密かに用意した爆弾と時限装置を保管した。	NO_PRONOUNCE	NO_LABEL
暗殺作戦は失敗したが、逮捕された同志たちが口を割らなかったためにゲルスドルフは逮捕・処刑を免れた。	NO_PRONOUNCE	NO_LABEL
このためゲルスドルフはヒトラー暗殺計画参加者の数少ない生き残りとなった。	このためげるすどるふわひとらーあんさつけいかくさんかしゃのかずすくないいきのこりとなった。	NO_LABEL
1944年、フランスに転属となり、1944年8月にファレーズ・ポケット突破作戦の立案により騎士鉄十字章を受章した。	せんきゅうひゃくよんじゅうよねん、ふらんすにてんぞくとなり、せんきゅうひゃくよんじゅうよねんはちがつにふぁれーずぽけっととっぱさくせんのりつあんによりきしてつじゅーじしょーをじゅしょーした。	NO_LABEL
1945年に少将に昇進。	せんきゅうひゃくよんじゅうごねんにしょーしょーにしょーしん。	NO_LABEL
終戦時にアメリカ軍の捕虜となり、1947年に釈放された。	しゅーせんじにあめりかぐんのほりょとなり、せんきゅうひゃくよんじゅうななねにしゃくほーされた。	NO_LABEL
戦後、西ドイツのドイツ連邦軍に復帰しようとしたが、コンラート・アデナウアー首相の首相府長官を務めるハンス・グロプケ。	NO_PRONOUNCE	NO_LABEL
のちに乗馬の際の事故で半身不随になった。	のちにじょーばのさいのじこではんしんふずいになった。	NO_LABEL
1979年、福祉活動での功績によりドイツ連邦共和国功労勲章大十字章を受章した。	せんきゅうひゃくななじゅうきゅうねん、ふくしかつどーでのこーせきによりどいつれんぽーきょーわこくこーろーくんしょーだいじゅーじしょーをじゅしょーした。	NO_LABEL
ミュンヘンで死去した。	みゅんへんでしきょした。	NO_LABEL
オイスキルヒェンの兵舎はゲルスドルフを顕彰して「男爵ゲルスドルフ少将兵舎」と命名されている。	NO_PRONOUNCE	NO_LABEL
