ニューアーバニズム（）は、1980年代後半から1990年代にかけて、主に北米で発生した都市設計の動き。	にゅーあーばにずむかっこわ、せんきゅうひゃくはちじゅうねんだいこーはんからせんきゅうひゃくきゅうじゅうねんだいにかけて、おもにほくべいではっせいしたとしせっけいのうごき。	NO_LABEL
ヨーロッパではコンパクトシティ、イギリスではアーバンビレッジが同様の概念を打ち立てている。	よーろっぱでわこんぱくとしてぃ、いぎりすでわあーばんびれっじがどーよーのがいねんをうちたてている。	NO_LABEL
1980年代に、それまでの自動車中心の郊外住宅開発に対する批判から、ニューアーバニズムが唱えられるようになった。	せんきゅうひゃくはちじゅうねんだいに、それまでのじどーしゃちゅーしんのこーがいじゅーたくかいはつにたいするひはんから、にゅーあーばにずむがとなえられるよーになった。	NO_LABEL
伝統回帰的な都市計画といわれ、鉄道駅を中心に、商業施設や住宅地がその周りを囲んでいる、といった都市モデルが想定されている。	でんとーかいきてきなとしけいかくといわれ、てつどーえきをちゅーしんに、しょーぎょーしせつやじゅーたくちがそのまわりをかこんでいる、といったとしもでるがそーていされている。	NO_LABEL
過度な自動車依存を解消するための、鉄道やバスなど公共交通を基本とした都市構造である。	かどなじどーしゃいぞんをかいしょーするための、てつどーやばすなどこーきょーこーつーをきほんとしたとしこーぞーである。	NO_LABEL
ポートランドなどで、鉄道駅を中心にパークアンドライドなどの計画が進められている。	ぽーとらんどなどで、てつどーえきをちゅーしんにぱーくあんどらいどなどのけいかくがすすめられている。	NO_LABEL
ニューアーバニズム主義者は、土地利用に関する全ての側面を改善することを目的とし、地域レベルから地区レベルまでの都市計画や都市設計に影響を与えている。	にゅーあーばにずむしゅぎしゃわ、とちりよーにかんするすべてのそくめんをかいぜんすることをもくてきとし、ちいきれべるからちくれべるまでのとしけいかくやとしせっけいにえいきょーをあたえている。	NO_LABEL
開発、再開発や再生などの事業を通し、人間規模の職住近接型まちづくりを目指している。	かいはつ、さいかいはつやさいせいなどのじぎょーをとーし、にんげんきぼのしょくじゅーきんせつがたまちずくりをめざしている。	NO_LABEL
交通は自転車や公共交通を車より優先させている。	こーつーわじてんしゃやこーきょーこーつーをくるまよりゆーせんさせている。	NO_LABEL
ピーター・カルソープ、アンドレス・デュアーニらによって、アワニー原則が提唱され、ニューアーバニズム憲章にまとめられた。	NO_PRONOUNCE	NO_LABEL
メキシコ湾に面したフロリダ州・のプロジェクトがニューアーバニズムの実践例としてよく知られている。	NO_PRONOUNCE	NO_LABEL
シーサイドをDPZがデザインの基本とした考え方は、古き良き時代のアメリカ、歩いてゆける規模の街、デザインコードの統一などであった。	しーさいどをでぃーぴーずぃーがでざいんのきほんとしたかんがえかたわ、こきよきじだいのあめりか、あるいてゆけるきぼのまち、でざいんこーどのとーいつなどであった。	NO_LABEL
32haの敷地に整然と区画された街路のロケ地としても有名になった。	NO_PRONOUNCE	NO_LABEL
同様の政策は日本でも試みられているが、コンパクトシティという言葉が多く使われるようになっている。	どーよーのせいさくわにっぽんでもこころみられているが、こんぱくとしてぃとゆうことばがおーくつかわれるよーになっている。	NO_LABEL
青森市、仙台市、稚内市をはじめとした東北・北海道の都市と神戸市がその事例である。	NO_PRONOUNCE	NO_LABEL
次の都市、地域、および開発地区の一覧は、ニューアーバニズムの例である。	つぎのとし、ちいき、およびかいはつちくのいちらんわ、にゅーあーばにずむのれいである。	NO_LABEL
