ザ・ランチャーズは、1962年に結成されたグループ・サウンズのバンド。	ざらんちゃーずわ、せんきゅうひゃくろくじゅうにねんにけっせいされたぐるーぷさうんずのばんど。	NO_LABEL
1967年11月に、シングル「真冬の帰り道」でデビュー。	NO_PRONOUNCE	NO_LABEL
1971年解散。	せんきゅうひゃくななじゅういちねんかいさん。	NO_LABEL
加山雄三主演の「若大将シリーズ」が始まったころ、藤本真澄プロデューサーが加山に「会社の人間で演奏できるやつを集めてバンドをやれ。	NO_PRONOUNCE	NO_LABEL
映画でも使うぞ」と指示して、加山がメンバーをかき集めて1962年結成した。	NO_PRONOUNCE	NO_LABEL
「進水する」という意味でザ・ランチャーズと名付けられる。	NO_PRONOUNCE	NO_LABEL
第一期のメンバーは、加山雄三、二瓶正也、津田彰、佐竹弘行、三木敏彦、速水洸の6人。	だいいっきのめんばーわ、かやまゆうぞー、にへいまさなり、つだあきら、さたけひろゆき、みきとしひこ、はやみこーのろくにん。	NO_LABEL
東宝の俳優らを中心メンバーにしてスタートしたが、それぞれの本業が忙しくなり、活動が困難になったため、一旦活動を停止する。	とーほーのはいゆーらをちゅーしんめんばーにしてすたーとしたが、それぞれのほんぎょーがいそがしくなり、かつどーがこんなんになったため、いったんかつどーをていしする。	NO_LABEL
1964年、加山雄三は従弟の喜多嶋瑛、喜多嶋修の兄弟と、大矢茂の4人で、第二期ザ・ランチャーズを再結成した。	せんきゅうひゃくろくじゅうよねん、かやまゆうぞーわじゅーていのきたじまえい、きたじまおさむのきょーだいと、おーやしげるのよにんで、だいにきざらんちゃーずをさいけっせいした。	NO_LABEL
1967年、喜多嶋瑛、喜多嶋修、大矢茂、渡辺有三の4人で第三期ザ・ランチャーズとなり、同年11月に東芝音楽工業よりシングル「真冬の帰り道」でデビュー。	NO_PRONOUNCE	NO_LABEL
同じく加山雄三と縁の深いザ・ワイルドワンズは明快なサウンドによって独自の個性を発揮したが、一方のランチャーズは全員慶大生という育ちの良さを売り物にするもメンバーの個性が乏しく、それに加えて明確なサウンドを打ち出すことも出来ず、そして常に加山雄三のバックバンドのイメージが付きまとった。	おなじくかやまゆうぞーとえんのふかいざわいるどわんずわめいかいなさうんどによってどくじのこせいをはっきしたが、いっぽーのらんちゃーずわぜんいんけいだいせいとゆうそだちのよさをうりものにするもめんばーのこせいがとぼしく、それにくわえてめいかくなさうんどをうちだすこともできず、そしてつねにかやまゆうぞーのばっくばんどのいめーじがつきまとった。	NO_LABEL
デビュー曲以後はこれといったヒット曲に恵まれず、1969年10月にドラムスを喜多嶋瑛から河手政次に交代しながら活動を続けていたが、1971年春に解散した。	でびゅーきょくいごわこれといったひっときょくにめぐまれず、せんきゅうひゃくろくじゅうきゅうねんじゅーがつにどらむすをきたじまえいからかわでまさつぐにこーたいしながらかつどーをつずけていたが、せんきゅうひゃくななじゅういちねんはるにかいさんした。	NO_LABEL
1994年7月、島英二を始めとするザ・ワイルドワンズのメンバーらによりランチャーズの名を冠する「加山雄三&ハイパーランチャーズ」が結成された。	NO_PRONOUNCE	NO_LABEL
