篠田 有香は日本の女性声優、MC、レポーター、ライター。	しのだゆかわにっぽんのじょせいせいゆー、えむしー、れぽーたー、らいたー。	NO_LABEL
愛知県出身。	あいちけんしゅっしん。	NO_LABEL
アル・シェア所属。	あるしぇあしょぞく。	NO_LABEL
以前はアールグルッペや劇団K-Showに所属していた。	NO_PRONOUNCE	NO_LABEL
本業は声優だが、MCやレポーター、ライターなど幅広い分野で活動している。	ほんぎょーわせいゆーだが、えむしーやれぽーたー、らいたーなどはばひろいぶんやでかつどーしている。	NO_LABEL
常にプラス思考で何があってもポジティブに受け止め、周りにいる人達を明るくし、楽しませている。	つねにぷらすしこーでなにがあってもぽじてぃぶにうけとめ、まわりにいるひとたちをあかるくし、たのしませている。	NO_LABEL
座右の銘は、「人生無駄なし」、「希望のあるところに道はある」、「元気に笑顔で無理はせず」。	NO_PRONOUNCE	NO_LABEL
声優向きの大きく通る声、大きいリアクションでその場にいる誰よりも目立つ。	せいゆーむきのおーきくとーるこえ、おーきいりあくしょんでそのばにいるだれよりもめだつ。	NO_LABEL
上記より大雑把なイメージを持つかもしれないが、こまめに更新するブログやTwitterへの返信、趣味の映画鑑賞でもとても細かい部分まで観て感想をブログに綴っているなど実はマメな性格である。	じょーきよりおーざっぱないめーじをもつかもしれないが、こまめにこーしんするぶろぐやついったーえのへんしん、しゅみのえいがかんしょーでもとてもこまかいぶぶんまでみてかんそーをぶろぐにつずっているなどじつわまめなせいかくである。	NO_LABEL
また、手先が器用である。	また、てさきがきよーである。	NO_LABEL
小さい頃からTVゲームやミニ四駆をして育ち、今でもTVゲーム・PCゲーム・ミニ四駆・サバイバルゲームなどいわゆる男性向けの趣味にも抵抗無く楽しんでいる。	NO_PRONOUNCE	NO_LABEL
その半面、美少女戦士セーラームーンやT.M.Revolutionをこよなく愛するという一面も併せ持つ。	そのはんめん、びしょーじょせんしせーらーむーんやてぃーえむれぼりゅーしょんをこよなくあいするとゆういちめんもあわせもつ。	NO_LABEL
また、スマートフォンアプリのゲームでは、自身が声優を務めるゲーム以外にも幅広くプレイを行うほどのゲーム愛好家である。	また、すまーとふぉんあぷりのげーむでわ、じしんがせいゆーをつとめるげーむいがいにもはばひろくぷれいをおこなうほどのげーむあいこーかである。	NO_LABEL
人の話を聞くこと。	ひとのはなしをきくこと。	NO_LABEL
映画鑑賞。	えいがかんしょー。	NO_LABEL
DVD鑑賞。	でぃーぶいでぃーかんしょー。	NO_LABEL
写真を撮ること。	しゃしんをとること。	NO_LABEL
散歩。	さんぽ。	NO_LABEL
イラストを描くこと。	いらすとをえがくこと。	NO_LABEL
フィギュアスケート観戦。	ふぃぎゅあすけーとかんせん。	NO_LABEL
散歩は休みの日だけでなく、仕事の合間の移動時間などでも電車の数駅分歩いてしまうほどの散歩好きである。	さんぽわやすみのひだけでなく、しごとのあいまのいどーじかんなどでもでんしゃのすーえきぶんあるいてしまうほどのさんぽすきである。	NO_LABEL
大きいリアクション。	おーきいりあくしょん。	NO_LABEL
どこでも寝られる。	どこでもねられる。	NO_LABEL
早起き。	はやおき。	NO_LABEL
マーチングバンド。	まーちんぐばんど。	NO_LABEL
ダンス。	だんす。	NO_LABEL
学生時代は、マーチングバンド部に所属していた。	がくせいじだいわ、まーちんぐばんどぶにしょぞくしていた。	NO_LABEL
甘いもの特にチョコレートとカフェラテ、アイスラテが大好物である。	あまいものとくにちょこれーととかふぇらて、あいすらてがだいこーぶつである。	NO_LABEL
生のトマトやフルーツ全般が苦手である。	なまのとまとやふるーつぜんぱんがにがてである。	NO_LABEL
ライブ配信サイト「SHOWROOM」内にて、自身の番組「篠田有香no部屋 〜ザリケルもいるよ‼︎〜」を不定期にて配信している。	NO_PRONOUNCE	NO_LABEL
放送開始当初、アンケートにて視聴者を「狛犬」、自身を「姫」と呼ぶことが決まり、それが自身のニックネーム「姫」に繋がっている。	NO_PRONOUNCE	NO_LABEL
このような経緯から自身のファンのことを親しみを込めて「狛犬」と呼ぶことが多い。	NO_PRONOUNCE	NO_LABEL
そのなかでひょんなことからザリガニの話題となり、トントン拍子でなぜかザリガニの人形を購入が誕生。	そのなかでひょんなことからざりがにのわだいとなり、とんとんびょーしでなぜかざりがにのにんぎょーをこーにゅーがたんじょー。	NO_LABEL
ザリケルと名付けられ、現在は上記配信にて欠かせないマスコット的存在の相方となっている。	ざりけるとなずけられ、げんざいわじょーきはいしんにてかかせないますこっとてきそんざいのあいかたとなっている。	NO_LABEL
同じ事務所で声優の丸山エレキ、ゲームライターのたてりょうたと3人でユニット「マルボカ」を結成。	NO_PRONOUNCE	NO_LABEL
ゲーム情報サイト『ジーパラドットコム』内にてゲームバラエティ『マルチでボカン』を定期的に配信を行っている。	NO_PRONOUNCE	NO_LABEL
