安彦 忠彦は、日本の教育学者。	やすひこただひこわ、にほんのきょーいくがくしゃ。	NO_LABEL
名古屋大学名誉教授。	なごやだいがくめいよきょーじゅ。	NO_LABEL
1942年東京都生まれ。	せんきゅうひゃくよんじゅうにねんとーきょーとうまれ。	NO_LABEL
東京大学教育学部卒業、同大学院教育学研究科博士課程1年中退。	とーきょーだいがくきょーいくがくぶそつぎょー、どーだいがくいんきょーいくがくけんきゅーかはかせかていいちねんちゅーたい。	NO_LABEL
大阪大学文学部助手、愛知教育大学教育学部専任講師、同助教授、名古屋大学助教授、同教授、早稲田大学教育・総合科学学術院特任教授を経て、2012年4月より神奈川大学特別招聘教授。	NO_PRONOUNCE	NO_LABEL
名古屋大学教育学部附属中学校・高等学校長、同大学教育学部長などを歴任。	なごやだいがくきょーいくがくぶふぞくちゅーがっこーこーとーがっこちょー、どーだいがくきょーいくがくぶちょーなどをれきにん。	NO_LABEL
2005年1月より第3期中央教育審議会委員。	にせんごねんいちがつよりだいさんきちゅーおーきょーいくしんぎかいいいん。	NO_LABEL
専攻は教育課程論を中心に、教育方法、教育評価。	せんこーわきょーいくかていろんをちゅーしんに、きょーいくほーほー、きょーいくひょーか。	NO_LABEL
博士。	はかせ。	NO_LABEL
