アーキビストとは、永久保存価値のある情報を査定、収集、整理、保存、管理し、閲覧できるよう整える専門職を指す。	あーきびすととわ、えいきゅーほぞんかちのあるじょーほーをさてい、しゅーしゅー、せいり、ほぞん、かんりし、えつらんできるよーととのえるせんもんしょくをさす。	NO_LABEL
アーキビストの扱う情報は、写真、ビデオ、録音、手紙、書類、電磁的記録など様々な形式を取る。	あーきびすとのあつかうじょーほーわ、しゃしん、びでお、ろくおん、てがみ、しょるい、でんじてききろくなどさまざまなけいしきをとる。	NO_LABEL
アリゾナ州立図書館デジタル行政資料部長のリチャード・ピアスモーゼスの言葉を借りるなら、アーキビストとは「確実な過去の記憶として永続的な価値を持つ記録」を保存し、「その記録の山の中から、その人が必要としている情報をみつけ、その情報を理解する手助け」をする者である。	NO_PRONOUNCE	NO_LABEL
日本では日本語の訳語が定着していないことからも察せられるように、認知度が低い専門職であるが、例えば日本の図書館において書籍、雑誌のみならず、歴史資料の古文書、古写真、行政資料などの非定型の記録類も、司書が保存管理を担うことが多い。	にっぽんでわにほんごのやくごがていちゃくしていないことからもさっせられるよーに、にんちどがひくいせんもんしょくであるが、たとえばにっぽんのとしょかんにおいてしょせき、ざっしのみならず、れきししりょーのこもんじょ、こしゃしん、ぎょーせいしりょーなどのひていけいのきろくるいも、ししょがほぞんかんりをになうことがおーい。	NO_LABEL
あるいは図書館ではなく博物館において学芸員が非記録性の資料類と同様に管理を行うことも常態である。	あるいわとしょかんでわなくはくぶつかんにおいてがくげいいんがひきろくせいのしりょーるいとどーよーにかんりをおこなうこともじょーたいである。	NO_LABEL
しかし、すべての欧米諸国や少なからぬ非欧米諸国では、これらは司書や、日本の学芸員に相当するとされるキュレーターの担当分野ではなく、アーキビストの担当分野とされる。	しかし、すべてのおーべいしょこくやすくなからぬひおーべいしょこくでわ、これらわししょや、にっぽんのがくげいいんにそーとーするとされるきゅれーたーのたんとーぶんやでわなく、あーきびすとのたんとーぶんやとされる。	NO_LABEL
アーキビストの仕事は新たなコレクションを入手したり査定すること、記録を順番に並べたり説明書きを加えること、閲覧者に利用案内をすること、資料の保存処理を行うことなどである。	あーきびすとのしごとわあらたなこれくしょんをにゅーしゅしたりさていすること、きろくをじゅんばんにならべたりせつめいがきをくわえること、えつらんしゃにりよーあんないをすること、しりょーのほぞんしょりをおこなうことなどである。	NO_LABEL
アーキビストは記録を整理する際、二つの重要なルールに従う。	あーきびすとわきろくをせいりするさい、ふたつのじゅーよーなるーるにしたがう。	NO_LABEL
記録の出処や権利保持者、そして元の順序である。	きろくのしゅっしょやけんりほじしゃ、そしてもとのじゅんじょである。	NO_LABEL
倫理に照らし合わせる作業も怠ってはならない。	りんりにてらしあわせるさぎょーもおこたってわならない。	NO_LABEL
このような一般の目には見えない作業と同時に、コレクションの翻訳や説明を加えて閲覧者を助けたり、問い合わせに答えたりする。	このよーないっぱんのめにわみえないさぎょーとどーじに、これくしょんのほんやくやせつめいをくわえてえつらんしゃをたすけたり、といあわせにこたえたりする。	NO_LABEL
アーキビストは政府機関、地方自治体、博物館、病院、歴史協会、非営利や営利団体、大企業、大学などで働いている。	あーきびすとわせいふきかん、ちほーじちたい、はくぶつかん、びょーいん、れきしきょーかい、ひえいりやえいりだんたい、だいきぎょー、だいがくなどではたらいている。	NO_LABEL
またその他にも、研究や展示や家系図作成に携わる人間などが貴重であるとする資料を保管している場所でも仕事に就いている。	またそのたにも、けんきゅーやてんじやかけいずさくせいにたずさわるにんげんなどがきちょーであるとするしりょーをほかんしているばしょでもしごとについている。	NO_LABEL
大家族あるいは個人の膨大なコレクションの整理に従事する者もいる。	だいかぞくあるいわこじんのぼーだいなこれくしょんのせいりにじゅーじするものもいる。	NO_LABEL
アーキビストはしばしば教育者でもある。	あーきびすとわしばしばきょーいくしゃでもある。	NO_LABEL
自身が管理するコレクションに関連するテーマについて大学で講義を持つことも珍しくはない。	じしんがかんりするこれくしょんにかんれんするてーまについてだいがくでこーぎをもつこともめずらしくわない。	NO_LABEL
文化機関や地方自治体に雇用されているアーキビストは、利用者がコレクションの閲覧方法を知ってコレクションについて理解を深められるよう教育的なプログラムを用意したり、コレクションに関心がない人々に働きかけるプログラムを考え出すこともよくある。	ぶんかきかんやちほーじちたいにこよーされているあーきびすとわ、りよーしゃがこれくしょんのえつらんほーほーをしってこれくしょんについてりかいをふかめられるよーきょーいくてきなぷろぐらむをよーいしたり、これくしょんにかんしんがないひとびとにはたらきかけるぷろぐらむをかんがえだすこともよくある。	NO_LABEL
コレクションの展示、プロモーション・イベント、メディアでの紹介にまで仕事が及ぶこともある。	NO_PRONOUNCE	NO_LABEL
アメリカ合衆国においては、アメリカ議会図書館とアメリカ・アーキビスト協会がアーカイブ目録索引符号化の標準規格であるEADを共同で導入して以来、年々高まる資料のオンライン閲覧の要求とも相まって、アーキビストには1990年代より情報処理の知識を要求されるようになっている。	NO_PRONOUNCE	NO_LABEL
研究者にオンラインで目録索引を提供するために、アーキビストの多くは基本的なXMLを心得ている。	けんきゅうしゃにおんらいんでもくろくさくいんをていきょーするために、あーきびすとのおーくわきほんてきなえっくすえむえるをこころえている。	NO_LABEL
様々な仕事内容や職場環境であるため、アーキビストは広い範囲の技能を必要とする。	さまざまなしごとないよーやしょくばかんきょーであるため、あーきびすとわひろいはんいのぎのーをひつよーとする。	NO_LABEL
ほとんどのアーキビストは、大学院で1年ないし2年プログラムのアーカイブ学の修士学位か高等免状を持っている。	ほとんどのあーきびすとわ、だいがくいんでいちねんないしにねんぷろぐらむのあーかいぶがくのしゅーしがくいかこーとーめんじょーをもっている。	NO_LABEL
アーキビストは、単にアーカイブ学を修めるだけでは不十分で、扱う資料の専門知識、記録管理の最先端知識、公開審査に関する法的知識、修復・保存のハイテク技術といった学術・技術的背景を求められる。	NO_PRONOUNCE	NO_LABEL
そのため大多数のアーキビストはアーカイブ学の他に、図書館学、図書館情報学、歴史学、政治学、法学、記録管理学、コンピュータ・サイエンス学といった専門分野で修士学位を持っている。	NO_PRONOUNCE	NO_LABEL
英国では2006年現在、アーキビスト協会認定のアーカイブ管理の修士課程コースはフルタイムとパートタイム合わせて4つある。	えいこくでわにせんろくねんげんざい、あーきびすときょーかいにんていのあーかいぶかんりのしゅーしかていこーすわふるたいむとぱーとたいむあわせてよっつある。	NO_LABEL
モジュール方式の遠隔教育コースも増え続けている。	もじゅーるほーしきのえんかくきょーいくこーすもふえつずけている。	NO_LABEL
英国のコースに入学するには関連する職歴あるいはボランティア歴が必要とされるため、ほとんどの学生は1年の見習い契約を結ぶ。	えいこくのこーすににゅーがくするにわかんれんするしょくれきあるいわぼらんてぃあれきがひつよーとされるため、ほとんどのがくせいわいちねんのみならいけいやくをむすぶ。	NO_LABEL
アーキビストは図書館学や図書情報学の博士号を得ることも可能である。	あーきびすとわとしょかんがくやとしょじょーほーがくのはくしごーをえることもかのーである。	NO_LABEL
Ph.D.を持ったアーキビストはしばしば教鞭を取ったり、大学のアーカイブ学部長などを務めることがある。	ぴーえっちでぃーをもったあーきびすとわしばしばきょーべんをとったり、だいがくのあーかいぶがくぶちょーなどをつとめることがある。	NO_LABEL
学位ではなくアーキビストの免状のみを取れるコースもある。	がくいでわなくあーきびすとのめんじょーのみをとれるこーすもある。	NO_LABEL
アイルランドでは、アイルランド国立大学ユニバーシティー・カレッジ・ダブリン校にてアーキビスト協会から認定されたアーカイブ学の高等免状を得ることができる。	NO_PRONOUNCE	NO_LABEL
アメリカ合衆国では、アーキビストの免状プログラムを得るための補助的なクラスを公認アーキビスト学会が行っている。	あめりかがっしゅーこくでわ、あーきびすとのめんじょーぷろぐらむをえるためのほじょてきなくらすをこーにんあーきびすとがっかいがおこなっている。	NO_LABEL
公認アーキビスト学会が発行する免許に批判的なグループは、年間会員費、免許試験内容の理論面と実践面のバランス、会員の5年毎の免許更新などに反発している。	こーにんあーきびすとがっかいがはっこーするめんきょにひはんてきなぐるーぷわ、ねんかんかいいんひ、めんきょしけんないよーのりろんめんとじっせんめんのばらんす、かいいんのごねんごとのめんきょこーしんなどにはんぱつしている。	NO_LABEL
英国ではアーキビスト協会の訓練コースを履修すると免状が与えられる。	えいこくでわあーきびすときょーかいのくんれんこーすをりしゅーするとめんじょーがあたえられる。	NO_LABEL
多くのアーキビストはアメリカ合衆国アーキビスト協会、カナダアーキビスト協会、英国・アイルランドアーキビスト協会や各地域の協会などの専門組織に属している。	NO_PRONOUNCE	NO_LABEL
これらの組織はメンバーやアーキビストに興味を持つ者が、継続して職を極めていけるよう専門クラスを設けている。	これらのそしきわめんばーやあーきびすとにきょーみをもつものが、けいぞくしてしょくをきわめていけるよーせんもんくらすをもーけている。	NO_LABEL
アーキビスト分野で著名な先駆者はイギリスのサー・ヒラリー・ジェンキンソン、アメリカのT. R.シェレンバーグ、アーンスト・ポズナーとマーガレット・クロス・ノートンであろう。	NO_PRONOUNCE	NO_LABEL
1922年、ヒラリー・ジェンキンソンはアーカイブを初めて学術的に見た『アーカイブ管理の手引き』を出版した。	NO_PRONOUNCE	NO_LABEL
この本の中で、ジェンキンソンはアーカイブの倫理面と物理面の両方を守ることがアーカイブ作業の中心的な信条となるべきだと述べている。	このほんのなかで、じぇんきんそんわあーかいぶのりんりめんとぶつりめんのりょーほーをまもることがあーかいぶさぎょーのちゅーしんてきなしんじょーとなるべきだとのべている。	NO_LABEL
この信条をもとに、彼はアーカイブとはどのようなもので、どのような働きをなすものかを考えた。	このしんじょーをもとに、かれわあーかいぶとわどのよーなもので、どのよーなはたらきをなすものかをかんがえた。	NO_LABEL
1949年にジェンキンソンはSirの称号を与えられている。	NO_PRONOUNCE	NO_LABEL
1956年、T. R. シェレンバーグは『近代のアーカイブス』を出版した。	NO_PRONOUNCE	NO_LABEL
学術的な教科書として書かれたもので、アーカイブに関する方法論を定義し、アーキビストの仕事の流れや整理について詳しい技術的な指導を含んでいる。	がくじゅつてきなきょーかしょとしてかかれたもので、あーかいぶにかんするほーほーろんをていぎし、あーきびすとのしごとのながれやせいりについてくわしいぎじゅつてきなしどーをふくんでいる。	NO_LABEL
1972年、アーンスト・ポズナーは『古代世界のアーカイブ』を出版した。	NO_PRONOUNCE	NO_LABEL
この本で彼はアーキビストは新しい仕事ではなく、歴史の記録を見れば昔から様々な社会に存在していたことを強調している。	このほんでかれわあーきびすとわあたらしいしごとでわなく、れきしのきろくをみればむかしからさまざまなしゃかいにそんざいしていたことをきょーちょーしている。	NO_LABEL
1975年にマーガレット・クロス・ノートンによるエッセイを集めたものが『アーカイブスとノートン：アーカイブと記録管理についてのマーガレット・クロス・ノートンの著作』として出版された。	NO_PRONOUNCE	NO_LABEL
ノートンはアメリカ・アーカイブス協会設立者の一人であり、イリノイ州の公文書館で数十年働いた経験をもとにエッセイを書いている。	NO_PRONOUNCE	NO_LABEL
アーキビストや公文書館の先駆けとなったイギリス、フランスを始めとするヨーロッパ諸国、アメリカ、カナダ、オーストラリアなどには大学院や国立アーキビスト養成学校が存在する。	あーきびすとやこーぶんしょかんのさきがけとなったいぎりす、ふらんすをはじめとするよーろっぱしょこく、あめりか、かなだ、おーすとらりあなどにわだいがくいんやこくりつあーきびすとよーせいがっこーがそんざいする。	NO_LABEL
スタートの遅れたアジアでも、既に中国の大学院にはアーキビストの博士・修士課程、韓国にも修士課程がある。	NO_PRONOUNCE	NO_LABEL
またこれらの国では公文書館や記録管理局にアーキビストの採用枠が法律で定められており、専門職として確立している。	またこれらのくにでわこーぶんしょかんやきろくかんりきょくにあーきびすとのさいよーわくがほーりつでさだめられており、せんもんしょくとしてかくりつしている。	NO_LABEL
つまり薬局に薬剤師の配置が義務づけられるように、公文書館にはアーキビストが必要とされている。	つまりやっきょくにやくざいしのはいちがぎむずけられるよーに、こーぶんしょかんにわあーきびすとがひつよーとされている。	NO_LABEL
大学院や国立高等養成機関で専門の学業を積んだ海外のアーキビストに比べ、日本では国外でアーカイブ学を修めたごく少数を除いては、まったく基礎知識のないまま辞令によって公文書館に異動する者が大多数で、仕事をしながら徐々に学んでいくOJT形態を取っているのが実情である。	だいがくいんやこくりつこーとーよーせいきかんでせんもんのがくぎょーをつんだかいがいのあーきびすとにくらべ、にっぽんでわこくがいであーかいぶがくをおさめたごくしょーすーをのぞいてわ、まったくきそちしきのないままじれいによってこーぶんしょかんにいどーするものがだいたすーで、しごとをしながらじょじょにまなんでいくおーじぇーてぃーけいたいをとっているのがじつじょーである。	NO_LABEL
　大学院レベルでアーカイブ関連の学位を設ける大学が二-三あるのみで、カリキュラムも統一されておらず、卒業生が公文書館に就職することもほとんどない。	NO_PRONOUNCE	NO_LABEL
アーカイブ職に就いている者の大部分は大学の専攻の一科目や特別講義、公文書館や資料館主催のアーカイブ講座や研修会を終了しただけであり、これは「アーカイブ先進国」においてはアーキビスト助手や公文書館ボランティアレベルの教育内容である。	NO_PRONOUNCE	NO_LABEL
もちろん資格を定める法律もなく、アーキビストという名称も社会に浸透していない。	もちろんしかくをさだめるほーりつもなく、あーきびすととゆうめいしょーもしゃかいにしんとーしていない。	NO_LABEL
これは日本におけるアーカイブズに対する認識の低さが背景にあると見られる。	これわにっぽんにおけるあーかいぶずにたいするにんしきのひくさがはいけいにあるとみられる。	NO_LABEL
日本では、永久保存されるべき記録と言えば、歴史的価値の高い資料を連想しがちである。	にっぽんでわ、えいきゅーほぞんされるべききろくといえば、れきしてきかちのたかいしりょーをれんそーしがちである。	NO_LABEL
アーカイブ学は歴史学の補助的学問だと思い込み、アーキビストを歴史資料館や博物館の学芸員のように考えるきらいがある。	あーかいぶがくわれきしがくのほじょてきがくもんだとおもいこみ、あーきびすとをれきししりょーかんやはくぶつかんのがくげいいんのよーにかんがえるきらいがある。	NO_LABEL
しかし保存すべき資料は国宝級の古文書や史料だけを指すのではない。	しかしほぞんすべきしりょーわこくほーきゅーのこもんじょやしりょーだけをさすのでわない。	NO_LABEL
官公署が作成する公文書、いわゆる「お役所の書類」も確実な歴史の記録であり、行政の記録である。	NO_PRONOUNCE	NO_LABEL
公文書の永久保存・一般公開は、行政の透明化や不祥事の歯止めに繋がり、非常に重要な意味を持つ。	NO_PRONOUNCE	NO_LABEL
また、法律や政策の立案プロセスが保存されていることは、後世の政策転換や法文の修正が必要になったときに、重要な指針となる。	また、ほーりつやせいさくのりつあんぷろせすがほぞんされていることわ、こーせいのせいさくてんかんやほーぶんのしゅーせいがひつよーになったときに、じゅーよーなししんとなる。	NO_LABEL
日本人の間で公文書保存の意識が希薄であるのは、ひとつは情報公開、国民の知る権利、市民オンブズマンといった民主主義的概念が近年まで社会に浸透していなかったためであるし、非民主的な運営をされている国家でも公文書保存制度が充実していることが少なくないことを考えると、近現代の日本社会に図書館や博物館も含めて実物資料を保存する社会システムが根付かなかった原因をより深く分析する必要性もある。	にっぽんじんのまでこーぶんしょほぞんのいしきがきはくであるのわ、ひとつわじょーほーこーかい、こくみんのしるけんり、しみんおんぶずまんといったみんしゅしゅぎてきがいねんがきんねんまでしゃかいにしんとーしていなかったためであるし、ひみんしゅてきなうんえいをされているこっかでもこーぶんしょほぞんせいどがじゅーじつしていることがすくなくないことをかんがえると、きんげんだいのにほんしゃかいにとしょかんやはくぶつかんもふくめてじつぶつしりょーをほぞんするしゃかいしすてむがねつかなかったげんいんをよりふかくぶんせきするひつよーせいもある。	NO_LABEL
官僚機構が縦割りの小さなセクトに細分化されて、蓄積された資料に基づく情報を指針とした戦略的な行政が行いがたいという現状も、公文書の保存の必要性を行政が実感していないひとつの要因である。	かんりょーきこーがたてわりのちーさなせくとにさいぶんかされて、ちくせきされたしりょーにもとずくじょーほーをししんとしたせんりゃくてきなぎょーせいがおこないがたいとゆうげんじょーも、こーぶんしょのほぞんのひつよーせいをぎょーせいがじっかんしていないひとつのよーいんである。	NO_LABEL
1987年の公文書館法を経て、1999年にようやく情報公開法が施行されたが、こうした法律の整備は従来未整理のまま放置されていた公文書から保存公開されるものを選抜するプロセスで、重要な公文書の意図的な廃棄を誘発していることも指摘されている。	せんきゅうひゃくはちじゅうななねのこーぶんしょかんほーをへて、せんきゅうひゃくきゅうじゅうきゅうねんによーやくじょーほーこーかいほーがしこーされたが、こーしたほーりつのせいびわじゅーらいみせいりのままほーちされていたこーぶんしょからほぞんこーかいされるものをせんばつするぷろせすで、じゅーよーなこーぶんしょのいとてきなはいきをゆーはつしていることもしてきされている。	NO_LABEL
こういった行政の遅れが、公文書館やアーキビストの認知不足に繋がっていると言えよう。	こーいったぎょーせいのおくれが、こーぶんしょかんやあーきびすとのにんちふそくにつながっているといえよう。	NO_LABEL
アーキビスト養成教育や認定資格を設立し、アーキビスト間の交流や研究の共有を目的として2004年4月に日本アーカイブズ学会が設立された。	あーきびすとよーせいきょーいくやにんていしかくをせつりつし、あーきびすとかんのこーりゅーやけんきゅーのきょーゆーをもくてきとしてにせんよねんしがつににほんあーかいぶずがっかいがせつりつされた。	NO_LABEL
2008年4月、学習院大学大学院人文社会研究科にアーカイブズ学専攻課程が設置された。	にせんはちねんしがつ、がくしゅーいんだいがくだいがくいんじんぶんしゃかいけんきゅーかにあーかいぶずがくせんこーかていがせっちされた。	NO_LABEL
国立公文書館の公式サイトに紹介されているアーキビストの仕事手順は、規模の差こそあれ他の公文書館とも共通するものである。	こくりつこーぶんしょかんのこーしきさいとにしょーかいされているあーきびすとのしごとてじゅんわ、きぼのさこそあれほかのこーぶんしょかんともきょーつーするものである。	NO_LABEL
アーキビストの職場は、空調で資料保存に最適な温度と湿度に保たれており快適であるが、燻蒸に用いた化学物質の残留や古文書に付着したカビや細かい塵による健康被害がないよう防毒や防塵に留意すべきである。	あーきびすとのしょくばわ、くーちょーでしりょーほぞんにさいてきなおんどとしつどにたもたれておりかいてきであるが、くんじょーにもちいたかがくぶっしつのざんりゅーやこもんじょにふちゃくしたかびやこまかいちりによるけんこーひがいがないよーぼーどくやぼーじんにりゅーいすべきである。	NO_LABEL
日本の現状ではアーキビスト職の確立が第一の目標であるが、ハイテク知識を持つアーキビストの養成も急がれる。	にっぽんのげんじょーでわあーきびすとしょくのかくりつがだいいちのもくひょーであるが、はいてくちしきをもつあーきびすとのよーせいもいそがれる。	NO_LABEL
オンラインで閲覧できるデジタル・アーカイブスの公開、電子メールや電子ファイルといった電磁的記録の保存、莫大な資料のデジタル圧縮保存などアーカイブズの世界でもコンピューター化が進む一方である。	NO_PRONOUNCE	NO_LABEL
実際にデジタル移行を行うのは技術者や作業者であるが、アーキビストはコンピュータの知識なくして閲覧方法の指導やデジタル処理の指示を行うことはできない。	じっさいにでじたるいこーをおこなうのわぎじゅつしゃやさぎょーしゃであるが、あーきびすとわこんぴゅーたのちしきなくしてえつらんほーほーのしどーやでじたるしょりのしじをおこなうことわできない。	NO_LABEL
また媒体の劣化にともなう資料修復と保管に関する化学的、物理的な基礎知識も必要とされる。	またばいたいのれっかにともなうしりょーしゅーふくとほかんにかんするかがくてき、ぶつりてきなきそちしきもひつよーとされる。	NO_LABEL
日本の古文書は色あせや虫害の少ない和紙であり、洋紙の中でも劣化が特に激しいサルファイト・パルプ製造の導入が遅れたという二つの幸運に恵まれ、欧米に比べて劣化資料が少ない。	NO_PRONOUNCE	NO_LABEL
しかし江戸時代後期から絵草紙などに用いられた虫喰いにあう劣悪和紙、物資の少ない太平洋戦争直後の粗悪な仙花紙、その後1980年代に中性紙が開発されるまで使われていた酸性紙など、今後資料を保存していく上で資料劣化問題を避けては通れない。	しかしえどじだいこーきからえぞーしなどにもちいられたむしくいにあうれつあくわし、ぶっしのすくないたいへいよーせんそーちょくごのそあくなせんかし、そのごせんきゅうひゃくはちじゅうねんだいにちゅーせいしがかいはつされるまでつかわれていたさんせいしなど、こんごしりょーをほぞんしていくうえでしりょーれっかもんだいをさけてわとーれない。	NO_LABEL
痛んだ部分を修復する技術や、劣化が著しい資料のマイクロフィルム化や光ディスクへのデジタル化に関する知識、更に永続性があり物理的劣化が少なくより記録密度の高い媒体開発の最先端情報を持ち、資料閲覧者の利用方法とのバランスを考えて、修復や媒体変換の提案を出すのもアーキビストの役目である。	いたんだぶぶんをしゅーふくするぎじゅつや、れっかがいちじるしいしりょーのまいくろふぃるむかやひかりでぃすくえのでじたるかにかんするちしき、さらにえいぞくせいがありぶつりてきれっかがすくなくよりきろくみつどのこういばいたいかいはつのさいせんたんじょーほーをもち、しりょーえつらんしゃのりよーほーほーとのばらんすをかんがえて、しゅーふくやばいたいへんかんのていあんをだすのもあーきびすとのやくめである。	NO_LABEL
