『板東英二の虹スタ!』は、2004年7月3日から2007年3月31日までテレビ愛知で放送された情報番組。	NO_PRONOUNCE	NO_LABEL
テレビ愛知栄サテライトスタジオからの生放送。	てれびあいちさかえさてらいとすたじおからのなまほーそー。	NO_LABEL
この項目では、2003年4月19日から2004年6月26日まで同局で放送された前身番組『板東英二のここに住マッシュ!』についても触れる。	NO_PRONOUNCE	NO_LABEL
当時テレビ愛知が単発番組放送枠として使っていた土曜13時00分枠で、月に1回のペースで放送される住宅情報番組としてスタートした。	NO_PRONOUNCE	NO_LABEL
同タイトルを冠していた当時は、主に東海3県各地の住宅物件情報や住宅のリフォームに関する情報を取り扱っていた。	どーたいとるをかんしていたとーじわ、おもにとーかいさんけんかくちのじゅーたくぶっけんじょーほーやじゅーたくのりふぉーむにかんするじょーほーをとりあつかっていた。	NO_LABEL
出演者全員がスタジオレギュラーとリポーターを兼任していたのが特徴で、司会の板東英二自身もリポーターを務めるなど、この当時から既に番組のスタイルは確立されていた。	しゅつえんしゃぜんいんがすたじおれぎゅらーとりぽーたーをけんにんしていたのがとくちょーで、しかいのばんどーえいじじしんもりぽーたーをつとめるなど、このとーじからすでにばんぐみのすたいるわかくりつされていた。	NO_LABEL
2004年4月3日放送分からは同タイトルを冠したまま土曜12時30分枠でレギュラー番組化され、非常に短い期間ではあったが同年6月26日まで週に1回のペースで放送されていた。	にせんよねんしがつみっかほーそーぶんからわどーたいとるをかんしたままどよーじゅうにじさんじゅっぷんわくでれぎゅらーばんぐみかされ、ひじょーにみじかいきかんでわあったがどーねんろくがつにじゅうろくにちまでしゅーにいっかいのぺーすでほーそーされていた。	NO_LABEL
前述の『板東英二のここに住マッシュ!』が放送時間の変更を機に改題リニューアルしたもので、同タイトルへの改題以後は住宅関連の情報のほかにも、東海3県各地の行楽情報や日本各地の特産品情報といったより日常生活に即した話題も取り上げるようになった。	NO_PRONOUNCE	NO_LABEL
ハイビジョン制作の番組だったが、一部のコーナーは回によってハイビジョンで制作されたり標準画質で制作されたりと線引きが曖昧で、これらが渾然一体と化した構成の番組だった。	はいびじょんせいさくのばんぐみだったが、いちぶのこーなーわかいによってはいびじょんでせいさくされたりひょーじゅんがしつでせいさくされたりとせんひきがあいまいで、これらがこんぜんいったいとかしたこーせいのばんぐみだった。	NO_LABEL
いずれもJST。	いずれもじぇいえすてぃー。	NO_LABEL
このほか、実施企画の内容によっては一級建築士や若い女性モデルなどが出演することもあった。	このほか、じっしきかくのないよーによってわいっきゅーけんちくしやわかいじょせいもでるなどがしゅつえんすることもあった。	NO_LABEL
