楊 宇朝は、朝鮮の独立運動家。	ぱくそらあさわ、ちょーせんのどくりつうんどーか。	NO_LABEL
独立後は大韓民国において実業家となった。	どくりつごわだいかんみんこくにおいてじつぎょーかとなった。	NO_LABEL
雅名は少碧。	がめいわしょーへき。	NO_LABEL
平壌出身で漢学を勉強してから1915年に上海市に渡った。	ぴょんやんしゅっしんでかんがくをべんきょーしてからせんきゅうひゃくじゅうごねんにしゃんはいしにわたった。	NO_LABEL
上海には申圭植などの民族主義独立活動家が設立した同済社が組織されていたが、同済社負担で翌年アメリカ合衆国へ留学を行った。	しゃんはいにわさるけいうえなどのみんぞくしゅぎどくりつかつどーかがせつりつしたどーすみしゃがそしきされていたが、どーすみしゃふたんでよくねんあめりかがっしゅーこくえりゅーがくをおこなった。	NO_LABEL
1917年、21歳でインディアナ州の小学校で勉強を始め、中学校卒業後の1924年にマサチューセッツ州の織造学校に入学して紡織技術を勉強した。	せんきゅうひゃくじゅうしちねん、にじゅういっさいでいんでぃあなしゅーのしょーがっこーでべんきょーをはじめ、ちゅーがっこーそつぎょーごのせんきゅうひゃくにじゅうよねんにまさちゅーせっつしゅーのおみやつこがっこーににゅーがくしてぼーしょくぎじゅつをべんきょーした。	NO_LABEL
1925年に安昌浩の興士団に加入し、1927年にしばらく帰国してから、また上海に渡って興士団を通じて独立運動に参加した。	せんきゅうひゃくにじゅうごねんにあんちゃんほのおきもりだんにかにゅーし、せんきゅうひゃくにじゅうななねんにしばらくきこくしてから、またしゃんはいにわたっておきもりだんをつーじてどくりつうんどーにさんかした。	NO_LABEL
以後韓国独立党に加わって活動して機関紙《韓声》を発行し、大韓民国臨時政府に参加して韓国光復軍政訓処に勤務中に光復を迎えた。	NO_PRONOUNCE	NO_LABEL
光復後には帰国して紡織産業界で実業家として働いた。	こうふくごにわきこくしてぼーしょくさんぎょーかいでじつぎょーかとしてはたらいた。	NO_LABEL
中国で独立活動家チェ・ソンファが生まれ、妻と一緒に育児日記を兼ねた日記帳を1946年の帰国まで作成した。	NO_PRONOUNCE	NO_LABEL
この日記は、外孫娘にあたるキム・ヒョンジュというタイトルで出版した。	このにっきわ、そとまごむすめにあたるきむひょんじゅとゆうたいとるでしゅっぱんした。	NO_LABEL
1963年に建国勲章独立章を授与され、1999年に国家報勲処選定9月の独立運動家に選出された。	せんきゅうひゃくろくじゅうさんねんにけんこくくんしょーどくりつしょーをじゅよされ、せんきゅうひゃくきゅうじゅうきゅうねんにこっかほーくんしょせんていくがつのどくりつうんどーかにせんしゅつされた。	NO_LABEL
遺言は以下のようなものであった。	ゆいごんわいかのよーなものであった。	NO_LABEL
