グリーンチャンネル地方競馬中継は、2012年4月4日からグリーンチャンネルで放送されている地方競馬中継番組である。	ぐりーんちゃんねるちほーけいばちゅーけいわ、にせんじゅうにねんしがつよっかからぐりーんちゃんねるでほーそーされているちほーけいばちゅーけいばんぐみである。	NO_LABEL
2011年以前もJBCや南関東のJpnI競走を中心に中継放送していたが、南関東の場合は南関東地方競馬チャンネルのサイマル放送、ほかの競馬場についても場内放送をそのまま中継放送していた。	にせんじゅういちねんいぜんもじぇいびいしーやみなみかんとーのじーわんきょーそーをちゅーしんにちゅーけいほーそーしていたが、みなみかんとーのばあいわみなみかんとーちほーけいばちゃんねるのさいまるほうそー、ほかのけいばじょーについてもじょーないほーそーをそのままちゅーけいほーそーしていた。	NO_LABEL
2012年4月からはダートグレード競走を中心に独自制作で中継放送されることになった。	にせんじゅうにねんしがつからわだーとぐれーどきょうそーをちゅーしんにどくじせいさくでちゅーけいほーそーされることになった。	NO_LABEL
同年10月以降、JRAの即PAT、A-PATで地方競馬の一部の重賞競走も購入できるようになったため、基幹競走となる1着賞金1000万円以上の重賞競走も中継する。	NO_PRONOUNCE	NO_LABEL
それにより、ほぼ毎週の放送となっている。	それにより、ほぼまいしゅーのほーそーとなっている。	NO_LABEL
2017年4月からは日曜日にも放送されることになった。	にせんじゅうななねんしがつからわにちよーびにもほーそーされることになった。	NO_LABEL
ただし、日曜日に放送する場合は一部中央競馬中継で放送するレースもあるほか、中央競馬中継の後に流す単独番組は平日版とは異なるキャストで放送している。	ただし、にちよーびにほーそーするばあいわいちぶちゅーおーけいばちゅーけいでほーそーするれーすもあるほか、ちゅーおーけいばちゅーけいののちにながすたんどくばんぐみわへいじつばんとわことなるきゃすとでほーそーしている。	NO_LABEL
なお、レース映像、実況については場内放送と同じものが使用されている。	なお、れーすえいぞー、じっきょーについてわじょーないほーそーとおなじものがしよーされている。	NO_LABEL
スカパー!、インターネット中継など標準放送で中継されている競馬場でも、場内放送のマスタがハイビジョンに対応している競馬場については、この番組でもハイビジョンで放送されている。	すかぱー、いんたーねっとちゅーけいなどひょーじゅんほーそーでちゅーけいされているけいばじょーでも、じょーないほーそーのますたがはいびじょんにたいおーしているけいばじょーについてわ、このばんぐみでもはいびじょんでほーそーされている。	NO_LABEL
平日の放送では上野か玉木、日曜の放送では山本か梅田どちらかほぼ交互で1人が司会を担当する。	へいじつのほーそーでわうえのかたまき、にちよーのほーそーでわやまもとかうめだどちらかほぼこーごでひとりがしかいをたんとーする。	NO_LABEL
2017年4月以降はどちらかほぼ交互で1名が毎回出演する。	NO_PRONOUNCE	NO_LABEL
平日の放送のみ出演する。	へいじつのほーそーのみしゅつえんする。	NO_LABEL
日曜版はゲスト解説者として競馬愛好家のタレントや下記以外の競馬評論家らが参加する。	にちよーばんわげすとかいせつしゃとしてけいばあいこーかのたれんとやかきいがいのけいばひょーろんからがさんかする。	NO_LABEL
いずれも2014年4月現在。	いずれもにせんじゅうよねんしがつげんざい。	NO_LABEL
チャンネルによって有料と無料に分かれる。	ちゃんねるによってゆーりょーとむりょーにわかれる。	NO_LABEL
