大阪市立長吉西中学校は、大阪府大阪市平野区にある公立中学校。	おーさかしりつながよしにしちゅーがっこーわ、おーさかふおーさかしひらのくにあるこーりつちゅーがっこー。	NO_LABEL
地域の生徒数の増加により、1969年に大阪市立長吉中学校から分離開校した。	ちいきのせいとすーのぞーかにより、せんきゅうひゃくろくじゅうきゅうねんにおーさかしりつながよしちゅうがっこーからぶんりかいこーした。	NO_LABEL
創立記念日は10月24日。	そーりつきねんびわじゅーがつにじゅうよっか。	NO_LABEL
校訓は「自主・協調・勤勉・健康」。	NO_PRONOUNCE	NO_LABEL
