ジョセフ・フォン・スタンバーグは、アメリカ合衆国の映画監督、脚本家、映画プロデューサーである。	じょせふふぉんすたんばーぐわ、あめりかがっしゅーこくのえいがかんとく、きゃくほんか、えいがぷろでゅーさーである。	NO_LABEL
ドイツ語読みはヨーゼフ・フォン・シュテルンベルク。	NO_PRONOUNCE	NO_LABEL
マレーネ・ディートリヒとのコンビで有名。	まれーねでぃーとりひとのこんびでゆーめい。	NO_LABEL
オーストリア＝ハンガリー帝国時代のウィーンにドイツ系ユダヤ人の子として生まれる。	おーすとりあはんがりーていこくじだいのうぃーんにどいつけいゆだやじんのことしてうまれる	NO_LABEL
誕生名はヨーナス・シュテルンベルク。	NO_PRONOUNCE	NO_LABEL
彼の父親は元陸軍の兵士で、ほとんど家庭を省みなかったという。	かれのちちおやわもとりくぐんのへいしで、ほとんどかていをかえりみなかったという。	NO_LABEL
7歳の時、家族と共に米国に移民、3年後ウィーンへ戻り、14歳で再びニューヨークへ帰る。	ななさいのとき、かぞくとともにべいこくにいみん、さんねんごうぃーんえもどり、じゅうよんさいでふたたびにゅーよーくえかえる。	NO_LABEL
ハイスクールを貧困のため中退、レース屋、婦人帽子屋、織物業者などを転々とする。	はいすくーるをひんこんのためちゅーたい、れーすや、ふじんぼーしや、おりものぎょーしゃなどをてんてんとする。	NO_LABEL
本来は作家志望だったがアルバイトの映写係をきっかけに映画の世界へ転じる。	ほんらいわさっかしぼーだったがあるばいとのえいしゃがかりをきっかけにえいがのせかいえてんじる。	NO_LABEL
ハリウッドで、フィルム補修技師、撮影助手、編集技師、助監督をつとめ、若い俳優ジョージ・K・アーサーに資金を調達してもらい、わずか3,500ドルで『救ひを求むる人々』を製作した。	NO_PRONOUNCE	NO_LABEL
この映画は先輩エリッヒ・フォン・シュトロハイムの自然主義の流れをくむが、渋い内容に映画会社は全く取り合わない。	このえいがわせんぱいえりっひふぉんしゅとろはいむのしぜんしゅぎのながれをくむが、しぶいないよーにえいががいしゃわまったくとりあわない。	NO_LABEL
チャールズ・チャップリン邸に強引に持ち込み見てもらい、当時チャップリンが創業者の一人であったユナイテッド・アーティスツが配給し上映した。	ちゃーるずちゃっぷりんていにごーいんにもちこみみてもらい、とーじちゃっぷりんがそーぎょーしゃのひとりであったゆないてっどあーてぃすつがはいきゅーしじょーえいした。	NO_LABEL
チャップリンに目をつけたのは、彼が貧乏人に理解があると睨んだためであった。	ちゃっぷりんにめをつけたのわ、かれがびんぼーにんにりかいがあるとにらんだためであった。	NO_LABEL
次にパラマウント映画でハリウッド・デビュー。	NO_PRONOUNCE	NO_LABEL
意識してドイツ系の格式ばった姓の前置詞「フォン」を名乗り、ジョセフの綴りも意識してドイツ語にこだわる。	NO_PRONOUNCE	NO_LABEL
ギャングの生活に哀愁を込めた米国映画最古のギャング映画と言われる『暗黒街』、社会の底辺に住んでいる人々の純情な恋模様を描いた『紐育の波止場』は両作品とも興業的に成功した。	NO_PRONOUNCE	NO_LABEL
映画は音の出るトーキー時代を迎え、ドイツの大プロデューサー、エーリヒ・ポマーは、ドイツ映画界最初のトーキー映画として『嘆きの天使』の監督に、ドイツ在住経験のあるスタンバーグに白羽の矢を立てた。	NO_PRONOUNCE	NO_LABEL
世間知らずの真面目な高校教師がキャバレーのダンサーのローラローラの色香の虜になり、日参するが、学校を追われ、旅興行の道化役者となり、最後は捨てられた死体が高校の教室に転がる。	せけんしらずのまじめなこーこーきょーしがきゃばれーのだんさーのろーらろーらのいろかのとりこになり、にっさんするが、がっこーをおわれ、たびこーぎょーのどーけやくしゃとなり、さいごわすてられたしたいがこーこーのきょーしつにころがる。	NO_LABEL
スタンバーグを代表する傑作で、まさに退廃的な美貌と脚線美の新人の女優ディートリヒと手を携えてハリウッドに戻った。	すたんばーぐをだいひょーするけっさくで、まさにたいはいてきなびぼーときゃくせんびのしんじんのじょゆーでぃーとりひとてをたずさえてはりうっどにもどった。	NO_LABEL
この時期、エルンスト・ルビッチ、ビリー・ワイルダー、フリッツ・ラングらドイツからハリウッドに移った監督は数多いが、ほぼアメリカ育ちで、いわばドイツに逆上陸した彼の例は非常に珍しい。	このじき、えるんすとるびっち、びりーわいるだー、ふりっつらんぐらどいつからはりうっどにうつったかんとくわかずおーいが、ほぼあめりかそだちで、いわばどいつにぎゃくじょーりくしたかれのれいわひじょーにめずらしい。	NO_LABEL
パラマウントはメトロ・ゴールドウィン・メイヤーのグレタ・ガルボに対抗すべく、切り札としてディートリヒを売り出した。	ぱらまうんとわめとろごーるどうぃんめいやーのぐれたがるぼにたいこーすべく、きりふだとしてでぃーとりひをうりだした。	NO_LABEL
片道切符で砂漠に流れた酒場女を描いた『モロッコ』はスタンバーグとのコンビの名声を確実にした。	NO_PRONOUNCE	NO_LABEL
その後戦争未亡人がスパイとして銃殺される『間諜X27』、動乱の中国に舞台を置いた『上海特急』、家庭と愛人との板挟み『ブロンド・ヴィナス』、女王の一代記『恋のページェント』。	NO_PRONOUNCE	NO_LABEL
それぞれの作品では舞台も役柄も異なるがスタンバーグが独特の映像美の中にディートリヒをいかに引き立たせることに専念していたことは誰の目にも明らかであった。	それぞれのさくひんでわぶたいもやくがらもことなるがすたんばーぐがどくとくのえいぞーびのなかにでぃーとりひをいかにひきたたせることにせんねんしていたことわだれのめにもあきらかであった。	NO_LABEL
このような監督と女優との結びつきは映画史上例を見なかった。	このよーなかんとくとじょゆーとのむすびつきわえいがしじょーれいをみなかった。	NO_LABEL
『西班牙狂想曲』を最後にスキャンダル化した愛も破れ、このコンビは解消したのであった。	NO_PRONOUNCE	NO_LABEL
『モロッコ』と『上海特急』でアカデミー監督賞にノミネートされている。	NO_PRONOUNCE	NO_LABEL
1930年代後半以降、会社との意見の相違も多く、作品は思うにまかせなかった。	せんきゅうひゃくさんじゅうねんだいこーはんいこー、かいしゃとのいけんのそーいもおーく、さくひんわおもうにまかせなかった。	NO_LABEL
気力と精根を使い果たした彼は、名声を失い、急速に衰えてしまったのである。	きりょくとせいこんをつかいはたしたかれわ、めいせいをうしない、きゅーそくにおとろえてしまったのである。	NO_LABEL
これは、まさに「ハリウッド」の神話の一つである。	NO_PRONOUNCE	NO_LABEL
1952年に公開された『マカオ』がハリウッドで撮った最後の映画となり、日本で撮影して1953年に公開された日本映画『アナタハン』が最後の映画となった。	NO_PRONOUNCE	NO_LABEL
1949年から1950年にかけて一部を撮影した『ジェット・パイロット』は1957年に公開されている。	NO_PRONOUNCE	NO_LABEL
1959年から1963年にかけてカリフォルニア大学ロサンゼルス校の映画科で教鞭をとった。	せんきゅうひゃくごじゅうきゅうねんからせんきゅうひゃくろくじゅうさんねんにかけてかりふぉるにあだいがくろさんぜるすこーのえいがかできょーべんをとった。	NO_LABEL
1969年、75歳で心臓麻痺によりハリウッドでその生涯を終えた。	せんきゅうひゃくろくじゅうきゅうねん、ななじゅうごさいでしんぞーまひによりはりうっどでそのしょーがいをおえた。	NO_LABEL
