ハビタット評価手続きは、保全すべき野生動物のハビタットの観点から生態系の価値を定量的に評価する手法。	はびたっとひょーかてつずきわ、ほぜんすべきやせいどーぶつのはびたっとのかんてんからせいたいけいのかちをていりょーてきにひょーかするしゅほー。	NO_LABEL
1970年代にアメリカ合衆国内務省によって開発された。	せんきゅうひゃくななじゅうねんだいにあめりかがっしゅーこくないむしょーによってかいはつされた。	NO_LABEL
ハビタット評価手続きでは、ある土地において実施されるプロジェクトにより得られる生態系の価値を、「質」と「量」と「時間」という3つの観点から評価する。	NO_PRONOUNCE	NO_LABEL
合意形成のツールとして、開発事業にかかわる環境アセスメントにおける代償ミティゲーションの評価に使われることが多いが、自然再生プロジェクトや野生動物の保護管理などにも利用される。	ごーいけいせいのつーるとして、かいはつじぎょーにかかわるかんきょーあせすめんとにおけるだいしょーみてぃげーしょんのひょーかにつかわれることがおーいが、しぜんさいせいぷろじぇくとややせいどーぶつのほごかんりなどにもりよーされる。	NO_LABEL
通常、ハビタット評価手続きは、HEPチームの設置、保全目標を踏まえた評価種の選定、ベースラインの設定、将来のハビタット状態の予測、影響量と代償量の算定といった手順で実施される。	つーじょー、はびたっとひょーかてつずきわ、へっぷちーむのせっち、ほぜんもくひょーをふまえたひょーかしゅのせんてい、べーすらいんのせってい、しょーらいのはびたっとじょーたいのよそく、えいきょーりょうとだいしょーりょうのさんていといったてじゅんでじっしされる。	NO_LABEL
ハビタット適性指数は、ある土地が有している、特定の野生動物にとってのハビタットとしての適性を示す指数。	はびたっとてきせいしすーわ、あるとちがゆーしている、とくていのやせいどーぶつにとってのはびたっととしてのてきせいをしめすしすー。	NO_LABEL
ハビタットの適性値は、0から1の範囲で示される。	NO_PRONOUNCE	NO_LABEL
ハビタット評価手続きにおいて、「質」の部分を表す。	NO_PRONOUNCE	NO_LABEL
HSI=小評価区域の生息地の状態/理想的な生息地の状態	NO_PRONOUNCE	NO_LABEL
45頁より引用	NO_PRONOUNCE	NO_LABEL
