トロカデロは、スウェーデンのリンゴ - オレンジ風味のカフェイン入りソフトドリンクである。	NO_PRONOUNCE	NO_LABEL
トロカデロは主にスウェーデン北部で一般的な飲料であり、1953年からサトゥルヌス社で生産されている。	とろかでろわおもにすうぇーでんほくぶでいっぱんてきないんりょーであり、せんきゅうひゃくごじゅうさんねんからさとぅるぬすしゃでせいさんされている。	NO_LABEL
コッパルベリ社、スペンドラップ社、ニュッケル醸造を含む幾つかのスウェーデンのブルワリーでもトロカデロは生産されている。	こっぱるべりしゃ、すぺんどらっぷしゃ、にゅっけるじょーぞーをふくむいくつかのすうぇーでんのぶるわりーでもとろかでろわせいさんされている。	NO_LABEL
