ナショナルサッカーリーグは、オーストラリアで開催されていた国内サッカーリーグである。	なしょなるさっかーりーぐわ、おーすとらりあでかいさいされていたこくないさっかーりーぐである。	NO_LABEL
略称はNSL。	NO_PRONOUNCE	NO_LABEL
長年、オーストラリアのサッカーはオセアニアサッカー連盟の強豪として名を馳せるものの、ワールドカップサッカーでは大陸代表になっても、当時のシステムでは大陸間プレーオフを勝ち上がらないと出場できないことになっていたため、1974年西ドイツ大会を最後に出場から遠ざかっていた。	ながねん、おーすとらりあのさっかーわおせあにあさっかーれんめいのきょーごーとしてなをはせるものの、わーるどかっぷさっかーでわたいりくだいひょーになっても、とーじのしすてむでわたいりくかんぷれーおふをかちあがらないとしゅつじょーできないことになっていたため、せんきゅうひゃくななじゅうよねんにしどいつたいかいをさいごにしゅつじょーからとーざかっていた。	NO_LABEL
またオーストラリアのサッカーはオーストラリアン・フットボールに人気が取られており、リーグ戦の観客動員も今ひとつであった。	NO_PRONOUNCE	NO_LABEL
そこでオーストラリアのサッカーのレベルアップを図るためにということで、セミプロ組織としてのナショナルサッカーリーグが創設されることになった。	そこでおーすとらりあのさっかーのれべるあっぷをはかるためにとゆうことで、せみぷろそしきとしてのなしょなるさっかーりーぐがそーせつされることになった。	NO_LABEL
大まかなシーズンの流れは、13チームの1クラス制による2回戦総当たりホーム・アンド・アウェーでリーグ戦を行い、その後上位6チームが準決勝リーグをさらに2回総当りを行い、上位2チームが優勝決定戦を争うという3ステップでリーグ戦を行うというものであった。	NO_PRONOUNCE	NO_LABEL
リーグの最後期にはパース・グローリーFCや、シドニー・ユナイテッドFC、ウーロンゴン・ウルブスなどが地域密着のチーム運営を進めつつリーグ戦で常に上位に君臨する名門チームに成長した。	NO_PRONOUNCE	NO_LABEL
その後、財政破綻の問題や民族色が強いチームがほとんどで、それぞれのチームのサポーターが衝突していた問題などを一挙に解決し、さらなるレベルアップを図るために、2005-06シーズンの大会から参加チームを8チームに厳選して完全プロリーグ「Aリーグ」と組織改編して開催することにした。	NO_PRONOUNCE	NO_LABEL
Aリーグのスポンサーには、韓国のヒュンダイ・モーターズやリーボックなどがついた。	NO_PRONOUNCE	NO_LABEL
NSLは多くの問題があった。	NO_PRONOUNCE	NO_LABEL
一つは財政破綻の問題である。	ひとつわざいせいはたんのもんだいである。	NO_LABEL
1970年代から2004年までの間にNSLの累積赤字は日本円で約400億円に上るまでになっていた。	NO_PRONOUNCE	NO_LABEL
毎年、政府はNSLに対して、補助金を支給してきたが、その使途も不透明であった。	NO_PRONOUNCE	NO_LABEL
そのため、政府としてもNSL改革は急務であった。	NO_PRONOUNCE	NO_LABEL
他の問題として、NSLのクラブのほとんどが移民のチームだったことがある。	NO_PRONOUNCE	NO_LABEL
小都市のチームこそ、多人種混合チームも存在したが、大都市では移民のそれぞれの出身国のクラブが競い合っていた。	しょーとしのちーむこそ、たじんしゅこんごーちーむもそんざいしたが、だいとしでわいみんのそれぞれのしゅっしんこくのくらぶがきそいあっていた。	NO_LABEL
その為、試合では民族間の代理戦争とも言えるサポーター同士の衝突が頻繁に起きた。	そのため、しあいでわみんぞくかんのだいりせんそーともいえるさぽーたーどーしのしょーとつがひんぱんにおきた。	NO_LABEL
例えば、クロアチア系移民のチームのシドニー・ユナイテッドとギリシャ系移民のチームのシドニー・オリンピックの試合では、クロアチア系移民とギリシャ系移民が衝突するわけである。	NO_PRONOUNCE	NO_LABEL
そのような民族色が強い移民のチーム同士のリーグ戦に一般の国民が興味を抱くわけがなく、さらにチーム間のサポーター同士の衝突もあり、一般国民にとってのサッカーのイメージは暴力的で民族色の強い移民のスポーツというものであった。	そのよーなみんぞくしょくがつよいいみんのちーむどーしのりーぐせんにいっぱんのこくみんがきょーみをいだくわけがなく、さらにちーむかんのさぽーたーどーしのしょーとつもあり、いっぱんこくみんにとってのさっかーのいめーじわぼーりょくてきでみんぞくしょくのつよいいみんのすぽーつとゆうものであった。	NO_LABEL
オーストラリアサッカー連盟も何の手も打たなかったわけではなく、1990年代からNSLのチーム名に民族的な由来を示すような名前をつけることを禁止し、「都市名のみ」または「都市名＋愛称」の新しい名称に変えることを義務付けるなど、移民のスポーツからの脱却を図ったが、決定的な解決にはならなかった。	NO_PRONOUNCE	NO_LABEL
これらの問題を全て解決するために、2003年に就任したFrank Lowyオーストラリアサッカー連盟会長の下、NSLを清算し、2004年11月に同国初のプロリーグAリーグを発足させた。	NO_PRONOUNCE	NO_LABEL
Aリーグは『民族』ではなく、日本のJリーグ同様『地域性』をコンセプトにすえ、1都市1チームを原則として、民族色の強いチームを排除し、暴力的なイメージを一新させた。	NO_PRONOUNCE	NO_LABEL
なお、Aリーグに加入できなかったNSLのチームは、規模を縮小し、Aリーグとは別の独自のリーグ戦を開催している。	NO_PRONOUNCE	NO_LABEL
Aリーグは2005年8月より本格的にリーグ戦を開始し、Aリーグ全体平均観客動員数1万人を記録。	えーりーぐわにせんごねんはちがつよりほんかくてきにりーぐせんをかいしし、えーりーぐぜんたいへいきんかんきゃくどーいんすーいちまんにんをきろく。	NO_LABEL
Aリーグは、移民のスポーツであり、マイナースポーツであるとのオーストラリアのサッカーのイメージを一新させることに成功した。	えーりーぐわ、いみんのすぽーつであり、まいなーすぽーつであるとのおーすとらりあのさっかーのいめーじをいっしんさせることにせいこーした。	NO_LABEL
