三ヶ日駅は、静岡県浜松市北区三ヶ日町三ヶ日にある天竜浜名湖鉄道天竜浜名湖線の駅。	みっかびえきわ、しずおかけんはままつしきたくみっかびちょーみっかびにあるてんりゅーはまなこてつどーてんりゅーはまなこせんのえき。	NO_LABEL
サザンオールスターズの桑田佳祐が『白い恋人達』を弾き語りするコカコーラのCMが撮影されたことで知られる。	NO_PRONOUNCE	NO_LABEL
駅舎のみでホームに屋根はないが、CM撮影時にはセットで屋根が建てられた。	えきしゃのみでほーむにやねわないが、こんぴゅーたみゅーじっくまがじんさつえいじにわせっとでやねがたてられた。	NO_LABEL
2面3線のホームを有する地上駅。	NO_PRONOUNCE	NO_LABEL
業務委託駅である。	ぎょーむいたくえきである。	NO_LABEL
※3番線は休日運行のトロッコ列車"そよかぜ"のホームとなっていたが、列車の運転取り止めによって指定が解除されている。	NO_PRONOUNCE	NO_LABEL
本屋が、国の登録有形文化財として登録されている。	ほんやが、くにのとーろくゆーけいぶんかざいとしてとーろくされている。	NO_LABEL
レンタサイクルが用意されている。	れんたさいくるがよーいされている。	NO_LABEL
静岡県統計年鑑によれば、2015年度の乗車人員は1日平均226人で天浜線の駅の中で6番目に多い。	しずおかけんとーけいねんかんによれば、にせんじゅうごねんどのじょーしゃじんいんわついたちへいきんにひゃくにじゅうろくにんでてんはませんのえきのなかでろくばんめにおーい。	NO_LABEL
近年の乗車人員は以下の通りである。	きんねんのじょーしゃじんいんわいかのとーりである。	NO_LABEL
旧三ケ日町時代の中心駅	きゅーみっかびまちじだいのちゅーしんえき	NO_LABEL
