マーティン・ソレルはイギリスの実業家。	まーてぃんそれるわいぎりすのじつぎょーか。	NO_LABEL
世界有数の広告代理店であるWPPグループの創業者であり、CEOを務める。	せかいゆーすーのこーこくだいりてんであるだぶるぴーぴーぐるーぷのそーぎょーしゃであり、しーいーおーをつとめる。	NO_LABEL
1945年にロンドンのユダヤ人の家庭に生まれた。	せんきゅうひゃくよんじゅうごねんにろんどんのゆだやじんのかていにうまれた。	NO_LABEL
ハーバード大学でMBAを取得したのち、1975年にサーチ&サーチ社に入社。	NO_PRONOUNCE	NO_LABEL
1977年から1984年まで、同社の財務を担当した。	せんきゅうひゃくななじゅうななねんからせんきゅうひゃくはちじゅうよねんまで、どーしゃのざいむをたんとーした。	NO_LABEL
1985年、ワイヤー&プラスチック社の株式を取得、1986年には同社の代表取締役に就任した。	NO_PRONOUNCE	NO_LABEL
その後1987年にJWT、1989年にはオグルヴィグループに敵対的買収を仕掛けた。	NO_PRONOUNCE	NO_LABEL
2000年以降には、ヤング・アンド・ルビカム社も買収した。	にせんねんいこーにわ、やんぐあんどるびかむしゃもばいしゅーした。	NO_LABEL
1997年、外務英連邦省より英国産業大使に任命され、様々な執務を行った。	せんきゅうひゃくきゅうじゅうなな、がいむえいれんぽーしょーよりえいこくさんぎょーたいしににんめいされ、さまざまなしつむをおこなった。	NO_LABEL
1998年にはハーバード・ビジネス・スクールとインド商科大学院の理事に就任。	せんきゅうひゃくきゅうじゅうはちねんにわはーばーどびじねすすくーるといんどしょーかだいがくいんのりじにしゅーにん。	NO_LABEL
同年より、WPPと資本業務提携した日本の広告代理店アサツー ディ・ケイの取締役を務めている。	どーねんより、だぶりゅーぴーぴーとしほんぎょーむていけいしたにっぽんのこーこくだいりてんあさつーでぃけいのとりしまりやくをつとめている。	NO_LABEL
2007年、ハーバード・ビジネス・スクール最高の栄誉であるAlumni Achievement Awardを授与された。	NO_PRONOUNCE	NO_LABEL
