親子酒は、古典落語の演目の一つ。	おやこざけわ、こてんらくごのえんもくのひとつ。	NO_LABEL
原話は上方の初代露の五郎兵衛が宝永4年に出版した笑話本「露休置土産」の一遍である「親子共に大上戸」。	NO_PRONOUNCE	NO_LABEL
主な演者として、5代目古今亭志ん生や5代目柳家小さん、8代目三笑亭可楽、10代目金原亭馬生、5代目鈴々舎馬風などがいる。	おもなえんじゃとして、ごだいめここんていしんしょーやごだいめやなぎやこさん、はちだいめさんしょうていからく、じゅうだいめきんげんていばしょー、ごだいめれいれいしゃばふーなどがいる。	NO_LABEL
ある商家に、共に酒好きな大旦那と若旦那の親子がいた。	あるしょーかに、ともにさけすきなだいだんなとわかだんなのおやこがいた。	NO_LABEL
父親である大旦那は、息子の酒癖が非常に悪いことを心配し、「お前だけに酒を止めろとは言わない。	NO_PRONOUNCE	NO_LABEL
共に禁酒をしよう」と話をする。	NO_PRONOUNCE	NO_LABEL
息子も承知し、しばらくは何事もなかったが、2週間ほど経つと、他に楽しみのない大旦那は、酒が恋しくて仕方がなくなる。	むすこもしょーちし、しばらくわなにごともなかったが、にしゅーかんほどたつと、たにたのしみのないだいだんなわ、さけがこいしくてしかたがなくなる。	NO_LABEL
息子が出かけていたある晩、女房に頼み込み、遂に酒に手を出してしまう。	むすこがでかけていたあるばん、にょーぼーにたのみこみ、ついにさけにてをだしてしまう。	NO_LABEL
したたかに酔い、気分も良くなっているところへ、息子が帰ってくる。	したたかによい、きぶんもよくなっているところえ、むすこがかえってくる。	NO_LABEL
慌てて場を取り繕い、父親は「酔っている姿など見せない」と、息子を迎えるが、帰ってきた息子も同様にしたたかに酔い上機嫌であった。	NO_PRONOUNCE	NO_LABEL
呆れた父親が「なぜ酔っているんだ」と問うと、出入り先の旦那に相手をさせられたと言い、「酒は止められませんね」などと言う。	NO_PRONOUNCE	NO_LABEL
父親は怒り、女房に向かって「婆さん、こいつの顔はさっきからいくつにも見える。	NO_PRONOUNCE	NO_LABEL
こんな化け物に身代は渡せない」と言った。	NO_PRONOUNCE	NO_LABEL
すると息子もこう返す。	するとむすこもこーかえす。	NO_LABEL
「俺だって、こんなぐるぐる回る家は要りません」	NO_PRONOUNCE	NO_LABEL
もともと短い噺なので、かつては一席噺として演じられることは少なく、酒の噺のマクラや、オムニバスの一編として使われていた。	もともとみじかいはなしなので、かつてわいっせきはなしとしてえんじられることわすくなく、さけのはなしのまくらや、おむにばすのいちへんとしてつかわれていた。	NO_LABEL
上方の演出では息子が酔っ払ってうどん屋などに絡んだ挙句、帰宅して父親のやり取りになる。	かみがたのえんしゅつでわむすこがよっぱらってうどんやなどにからんだあげく、きたくしてちちおやのやりとりになる。	NO_LABEL
