『百鬼夜行抄』は、今市子の漫画、及びそれを原作としたテレビドラマ。	NO_PRONOUNCE	NO_LABEL
1995年、「ネムキ vol.23」にて連載開始。	NO_PRONOUNCE	NO_LABEL
2016年7月現在、単行本25巻、文庫版16巻が刊行されている。	にせんじゅうろくねんしちがつげんざい、たんこーほんにじゅうごかん、ぶんこばんじゅうろくかんがかんこーされている。	NO_LABEL
また、2005年「平成17年度文化庁メディア芸術祭」漫画部門審査委員会推薦作品に選ばれ、2006年「平成18年度文化庁メディア芸術祭」漫画部門優秀賞を受賞した。	NO_PRONOUNCE	NO_LABEL
NHK-BS2「BSマンガ夜話」第24弾2002年10月30日放映の第96回で取り上げられている。	NO_PRONOUNCE	NO_LABEL
「ネムキ」が2012年12月発売号で休刊したのに伴い、朝日新聞出版が2013年4月に創刊した漫画雑誌「Nemuki＋」に移籍した。	NO_PRONOUNCE	NO_LABEL
基本的には1話完結のストーリー。	きほんてきにわいちわかんけつのすとーりー。	NO_LABEL
ジャンルはホラーだが、伏線が張ってあることが多くミステリー的な要素も含まれている。	じゃんるわほらーだが、ふくせんがはってあることがおーくみすてりーてきなよーそもふくまれている。	NO_LABEL
一般的な妖怪物・霊能物のセオリーとも言うべき勧善懲悪的な退治や除霊というよりも、普通の生活には存在しない幻想的な世界や物語を描く事をメインに置いた作品である。	NO_PRONOUNCE	NO_LABEL
もともとは『精進おとしの客』という読み切りで発表された作品で、それ以前にも一度、設定などが多少違うものの同人誌に、『守護神』という読み切りで描かれている。	NO_PRONOUNCE	NO_LABEL
不可思議な力を持っていた幻想作家・飯嶋蝸牛。	NO_PRONOUNCE	NO_LABEL
その孫である飯嶋律と従姉の飯嶋司、広瀬晶は祖父からの遺伝で魑魅魍魎と触れ合う能力を持つ。	そのまごであるいーじまただしとじゅーしのいーじまつかさ、ひろせあきらわそふからのいでんでちみもーりょーとふれあうのーりょくをもつ。	NO_LABEL
妖魔が原因となった心筋梗塞で命を落とした律の父・孝弘の体を借りた妖魔青嵐、庭の桜の木に住む酒好きな使い魔尾黒・尾白と生活していく中で、常人の目に映らぬ世界に住む妖怪や妖魔らと関わる様子を幻想的なタッチで描いている。	NO_PRONOUNCE	NO_LABEL
花組芝居により、2003年1月と2006年9月の2度舞台化されている。	はなぐみしばいにより、にせんさんねんいちがつとにせんろくねんくがつのにどぶたいかされている。	NO_LABEL
内容は「花貝の使者」のストーリーに「闇からの呼び声」などを加えたもの	NO_PRONOUNCE	NO_LABEL
内容は「晴れ着」のストーリーに「神借り」などを加えたもの	NO_PRONOUNCE	NO_LABEL
毎週土曜日、日本テレビの黄金の舌枠で放送された。	まいしゅーどよーび、にほんてれびのおーごんのしたわくでほーそーされた。	NO_LABEL
全9回。	ぜんきゅうかい。	NO_LABEL
DVDには放送された9話に未放送のDVDオリジナルの3話が追加されている。	でぃーぶいでぃーにわほーそーされたきゅうわにみほーそーのでぃーぶいでぃーおりじなるのさんわがついかされている。	NO_LABEL
※括弧内は登場話	NO_PRONOUNCE	NO_LABEL
2005年8月12日より順次配信された。	にせんごねんはちがつじゅうににちよりじゅんじはいしんされた。	NO_LABEL
藤岡美暢のシナリオによるアドベンチャー・ノベル化。	NO_PRONOUNCE	NO_LABEL
ダウンロードアプリの全6話。	だうんろーどあぷりのぜんろくわ。	NO_LABEL
