フェロー諸島沖海戦は第二次世界大戦中の海戦の一つ。	ふぇろーしょとーおきかいせんわだいにじせかいたいせんちゅーのかいせんのひとつ。	NO_LABEL
1939年11月23日に、北大西洋へ進出しようとしたドイツの巡洋戦艦2隻がイギリスの補助巡洋艦と遭遇し、それを撃沈した。	NO_PRONOUNCE	NO_LABEL
この戦闘の結果、ドイツ艦は出撃を取りやめドイツへ引き返した。	このせんとーのけっか、どいつかんわしゅつげきをとりやめどいつえひきかえした。	NO_LABEL
第二次世界大戦の開戦以降大西洋とインド洋でドイツのポケット戦艦アドミラル・グラーフ・シュペーが通商破壊戦を行っており、イギリス艦隊はこれを捕捉するため多数の部隊を展開させていた。	NO_PRONOUNCE	NO_LABEL
それを妨害し、アドミラル・グラーフ・シュペーへの圧力を低減するためドイツは巡洋戦艦シャルンホルストとグナイゼナウをアイスランド南方へ出撃させることにした。	NO_PRONOUNCE	NO_LABEL
11月21日、シャルンホルストとグナイゼナウはマルシャル中将の指揮の下ヴィルヘルムスハーフェンを出撃した。	NO_PRONOUNCE	NO_LABEL
この出撃には軽巡洋艦ケルン、ライプツィヒ、駆逐艦ベルント・フォン・アルニム、カール・ガルスター、エーリッヒ・ギーゼも同行した。	NO_PRONOUNCE	NO_LABEL
これらは22日に巡洋戦艦2隻と分かれてポケット戦艦リュッツオーなどと共にスカゲラク海峡へ通商破壊戦に向かった。	NO_PRONOUNCE	NO_LABEL
巡洋戦艦2隻は荒天の中を航行した。	NO_PRONOUNCE	NO_LABEL
欺瞞のためイギリスの戦闘旗を掲げるということもしていたが、イギリスに発見されることはなく、23日の午後にはフェロー諸島の北西に到達していた。	ぎまんのためいぎりすのせんとーきをかかげるとゆうこともしていたが、いぎりすにはっけんされることわなく、にじゅうさんにちのごごにわふぇろーしょとーのほくせいにとーたつしていた。	NO_LABEL
イギリスはこの海域に巡洋艦や商船改造の補助巡洋艦を配置して哨戒をおこなっており、この時は軽巡洋艦ニューカッスル、デリー、カリプソ、シアリーズ、補助巡洋艦ラワルピンディがその任務に就いていた。	いぎりすわこのかいいきにじゅんよーかんやしょーせんかいぞーのほじょじゅんよーかんをはいちしてしょーかいをおこなっており、このときわけいじゅんよーかんにゅーかっする、でりー、かりぷそ、しありーず、ほじょじゅんよーかんらわるぴんでぃがそのにんむについていた。	NO_LABEL
その中の1隻補助巡洋艦ラワルピンディとシャルンホルストが遭遇した。	NO_PRONOUNCE	NO_LABEL
ドイツ艦2隻は旗艦グナイゼナウが先頭でシャルンホルストとは20km距離を開けていた。	NO_PRONOUNCE	NO_LABEL
16時7分、ラワルピンディを発見したシャルンホルストが進路を変更し、ラワルピンディの方へ向かった。	じゅうろくじななふん、らわるぴんでぃをはっけんしたしゃるんほるすとがしんろをへんこーし、らわるぴんでぃのほーえむかった。	NO_LABEL
シャルンホルストは停船を命じ艦名を尋ねたが、ラワルピンディは「F=A=M」と答えるのみで停船はしなかった。	NO_PRONOUNCE	NO_LABEL
17時3分、両艦は交戦を開始した。	じゅうしちじさんぷん、りょーかんわこーせんをかいしした。	NO_LABEL
すぐにラワルピンディにシャルンホルストの砲弾が命中し、ラワルピンディは炎上した。	すぐにらわるぴんでぃにしゃるんほるすとのほーだんがめいちゅーし、らわるぴんでぃわえんじょーした。	NO_LABEL
ラワルピンディはドイッチュラントと交戦中であるとの電文を発したが、17時6分に受けた命中弾で艦長は戦死し無線室も破壊された。	らわるぴんでぃわどいっちゅらんととこーせんちゅーであるとのでんぶんをはっしたが、じゅうしちじろっぷんにうけためいちゅーだんでかんちょーわせんししむせんしつもはかいされた。	NO_LABEL
シャルンホルストも砲弾の破片によって被害が生じた。	しゃるんほるすともほーだんのはへんによってひがいがしょーじた。	NO_LABEL
グナイゼナウも17時11分に戦闘に加わったが、17時16分に砲撃は中止された。	ぐないぜなうもじゅうしちじじゅういっぷんにせんとーにくわわったが、じゅうしちじじゅうろっぷんにほーげきわちゅーしされた。	NO_LABEL
シャルンホルストが生存者救助に向かい27名を救助した。	NO_PRONOUNCE	NO_LABEL
だが19時15分に、ラワルピンディからの報告を受けてやってきたイギリスの軽巡洋艦ニューカッスルが発見されたため救助作業は中止された。	だがじゅうくじじゅうごふんに、らわるぴんでぃからのほーこくをうけてやってきたいぎりすのけいじゅんよーかんにゅーかっするがはっけんされたためきゅーじょさぎょーわちゅーしされた。	NO_LABEL
イギリスに発見され、イギリスの本国艦隊が捜索に出撃したことから、マルシャル中将はイギリスの包囲網から逃れるため北大西洋への出撃は中止して北上した。	いぎりすにはっけんされ、いぎりすのほんごくかんたいがそーさくにしゅつげきしたことから、まるしゃるちゅーじょーわいぎりすのほーいもーからのがれるためきたたいせいよーえのしゅつげきわちゅーししてほくじょーした。	NO_LABEL
なお、ラワルピンディの生存者はシャルンホルストの救助された27名のほか、イギリスの補助巡洋艦チトラルによって11名が救助されている。	NO_PRONOUNCE	NO_LABEL
ニューカッスルは19時24分にドイツ艦を見失った。	にゅーかっするわじゅうくじにじゅうよんぷんにどいつかんをみうしなった。	NO_LABEL
イギリス海軍はクライドから本国艦隊の戦艦ネルソン、ロドネーと重巡洋艦デヴォンシャー、駆逐艦7隻を出撃させ、そのほかにも多数の巡洋艦を捜索に当てた。	NO_PRONOUNCE	NO_LABEL
さらに、船団護衛中であった戦艦ウォースパイトも捜索に加わった。	さらに、せんだんごえいちゅーであったせんかんうぉーすぱいともそーさくにくわわった。	NO_LABEL
加えて、ハリファックスからは巡洋戦艦レパルスと空母フューリアスが出撃した。	くわえて、はりふぁっくすからわじゅんよーせんかんれぱるすとくーぼふゅーりあすがしゅつげきした。	NO_LABEL
25日にはブレストから戦艦ダンケルクなどからなるフランス艦隊も出撃し、これに巡洋戦艦フッドも加わった。	にじゅうごにちにわぶれすとからせんかんだんけるくなどからなるふらんすかんたいもしゅつげきし、これにじゅんよーせんかんふっどもくわわった。	NO_LABEL
だが、シャルンホルストとグナイゼナウは26日に嵐にまぎれて発見されることなくノルウェー沖を南下し、27日に無事にヴィルヘルムスハーフェンに帰還した。	NO_PRONOUNCE	NO_LABEL
帰投後、マルシャルはニューカスルを攻撃しようとせず逃走したことを非難された。	きとーご、まるしゃるわにゅーかするをこーげきしようとせずとーそーしたことをひなんされた。	NO_LABEL
これに対しマルシャルは、主力艦は夜間に魚雷を持った相手に近づくべきではないとされていると反論した。	これにたいしまるしゃるわ、しゅりょくかんわやかんにぎょらいをもったあいてにちかずくべきでわないとされているとはんろんした。	NO_LABEL
