越後三大花火とは新潟県内で行われるぎおん柏崎まつり、長岡まつり、片貝まつりの3つの花火大会のことを指し、新潟県内だけでなく全国的に見ても屈指の花火大会である。	えちごさんだいはなびとわにーがたけんないでおこなわれるぎおんかしわざきまつり、ながおかまつり、かたかいまつりのみっつのはなびたいかいのことをさし、にーがたけんないだけでなくぜんこくてきにみてもくっしのはなびたいかいである。	NO_LABEL
それらの花火打ち上げ場所の特徴からそれぞれ「海の柏崎、川の長岡、山の片貝」と呼ばれる。	NO_PRONOUNCE	NO_LABEL
ぎおん柏崎まつりは新潟県柏崎市で行われるまつり。	ぎおんかしわざきまつりわにーがたけんかしわざきしでおこなわれるまつり。	NO_LABEL
など	など	NO_LABEL
長岡まつりは新潟県長岡市で行われるまつり。	ながおかまつりわにーがたけんながおかしでおこなわれるまつり。	NO_LABEL
など	など	NO_LABEL
日本三大花火大会の1つとして華やかさ・派手さを評価され、選ばれている。	NO_PRONOUNCE	NO_LABEL
片貝まつりの正式名称は新潟県小千谷市片貝町の浅原神社秋季大祭。	かたかいまつりのせいしきめいしょーわにーがたけんおじやしかたかいまちのあさはらじんじゃしゅーきたいさい。	NO_LABEL
片貝まつりの花火は浅原神社への奉納煙火である。	かたかいまつりのはなびわあさはらじんじゃえのほーのーえんかである。	NO_LABEL
など	など	NO_LABEL
