山岡事件とは、1965年に発生した競馬法違反事件で、中央競馬史上最大と言われる不正事件の通称である。	やまおかじけんとわ、せんきゅうひゃくろくじゅうごねんにはっせいしたけいばほーいはんじけんで、ちゅーおーけいばしじょーさいだいといわれるふせいじけんのつーしょーである。	NO_LABEL
名称については、事件の中心人物であった山岡忞に由来する。	NO_PRONOUNCE	NO_LABEL
八百長が仕組まれたとされる競走のひとつ「たちばな賞」で、のちの天皇賞馬カブトシローが勝利していることから、競馬関係の出版物などにおけるカブトシローに関する記事や随筆では、馬をめぐるエピソードのひとつとして大なり小なり触れられることが多い事件である。	NO_PRONOUNCE	NO_LABEL
1965年夏、日立建設機械で発生した巨額横領事件に絡んだ恐喝事件で逮捕された暴力団構成員が、その取り調べの中で中央競馬の騎手を抱き込んで八百長行為を仕組んでいたという自白を行った。	せんきゅうひゃくろくじゅうごねんなつ、ひたちけんせつきかいではっせいしたきょがくおーりょーじけんにからんだきょーかつじけんでたいほされたぼーりょくだんこーせいいんが、そのとりしらべのなかでちゅーおーけいばのきしゅをだきこんでやおちょーこーいをしくんでいたとゆうじはくをおこなった。	NO_LABEL
これを受けて警視庁及び日本中央競馬会が調査に乗り出し、9月には中央競馬の騎手山岡忞の他、暴力団員など2名が贈賄罪の容疑で、騎手の中沢一男および高橋勇が同じく収賄罪の容疑で逮捕された。	NO_PRONOUNCE	NO_LABEL
さらに後日、騎手の関口薫も八百長に関与していた事が発覚、山岡ら4名の騎手はその後起訴され有罪となり、また、いずれも競馬法の規則により競馬関与禁止処分が下され、競馬界から事実上の永久追放とされた。	NO_PRONOUNCE	NO_LABEL
山岡らの供述によると、八百長は1965年3月6日、東京競馬第8競走・たちばな賞と、同年4月10日の第3競走のサラブレッド障害で行われたとされる。	NO_PRONOUNCE	NO_LABEL
被疑者たちの供述から捜査の手はさらに南関東公営競馬にも波及し、大井競馬場では千葉藤男・阿久津稔の騎手2名が同様の不正敗退行為を行ったとして逮捕された。	NO_PRONOUNCE	NO_LABEL
この事件が社会に及ぼした影響は極めて大きく、競馬公正確保を巡って国会では日本中央競馬会理事長の石坂弘を参考人招致しての質疑が行われる事態となり、その後もしばらくの間は特にギャンブルを嫌い「公営ギャンブル廃止論」を声高に叫ぶ事を選挙の集票手段とする事も多かった社会党などの左派系野党からの追及や競馬自体への攻撃は凄まじいものがあった。	NO_PRONOUNCE	NO_LABEL
また、山岡が過去には天皇賞や有馬記念を勝利したことのある一流の騎手であったことが中央競馬の関係者に大きな衝撃を与えた。	また、やまおかがかこにわてんのーしょーやありまきねんをしょーりしたことのあるいちりゅーのきしゅであったことがちゅーおーけいばのかんけいしゃにおーきなしょーげきをあたえた。	NO_LABEL
山岡事件の後、競馬界では厩舎区画への出入りの制限の強化、出走予定の人馬の保護、競馬関係者の予想行為の禁止等、様々な規制が明文化される事となった。	やまおかじけんののち、けいばかいでわきゅーしゃくかくえのでいりのせいげんのきょーか、しゅっそーよていのじんばのほご、けいばかんけいしゃのよそーこーいのきんしとー、さまざまなきせいがめいぶんかされることとなった。	NO_LABEL
また、中央競馬における現在の様なトレーニングセンター方式での人馬の管理の方向を決定付ける一因になったとも言われている。	また、ちゅーおーけいばにおけるげんざいのよーなとれーにんぐせんたーほーしきでのじんばのかんりのほーこーをけっていつけるいちいんになったともいわれている。	NO_LABEL
山岡らの供述によると、カブトシローに騎乗した山岡は暴力団員と手を組み、レース前に本命馬であるサンキュウプリンスに騎乗した中沢を饗応し、サンキュウプリンスを不正に敗退させる様に指示した。	やまおからのきょーじゅつによると、かぶとしろーにきじょーしたやまおかわぼーりょくだんいんとてをくみ、れーすまえにほんめいばであるさんきゅーぷりんすにきじょーしたなかざわをきょーおーし、さんきゅーぷりんすをふせいにはいたいさせるよーにしじした。	NO_LABEL
レースでは山岡の騎乗するカブトシローが勝利し、中沢のサンキュウプリンスは終始後方のまま5着に敗退した。	れーすでわやまおかのきじょーするかぶとしろーがしょーりし、なかざわのさんきゅうぷりんすわしゅーしこーほーのままごちゃくにはいたいした。	NO_LABEL
なお、たちばな賞が八百長であったことに異を唱えた者も数多く存在する。	なお、たちばなしょーがやおちょーであったことにことをとなえたものもかずおーくそんざいする。	NO_LABEL
同レースのパトロールフィルムを見た大川慶次郎、虫明亜呂無、寺山修司は「どこが八百長なのか分からない」と発言した。	NO_PRONOUNCE	NO_LABEL
また、三木晴男や渡辺敬一郎は、サンキュウプリンスが実際には本命馬ではなく4番人気であり、八百長によって故意に敗退させるとすれば1番人気であった競走馬が対象となったはずであるとして八百長に懐疑的な見解を述べている。	また、みきはるおやわたなべけいいちろーわ、さんきゅーぷりんすがじっさいにわほんめいばでわなくよんばんにんきであり、やおちょーによってこいにはいたいさせるとすればいちばんにんきであったきょーそーばがたいしょーとなったはずであるとしてやおちょーにかいぎてきなけんかいをのべている。	NO_LABEL
