岡崎 万寿秀は日本の政治家、俳人。	おかざきまんすしゅーわにっぽんのせいじか、はいじん。	NO_LABEL
元衆議院議員。	もとしゅーぎーんぎーん。	NO_LABEL
日本共産党名誉幹部会顧問を経て、現在は同党名誉役員。	にほんきょーさんとーめいよかんぶかいこもんをへて、げんざいわどーとーめいよやくいん。	NO_LABEL
俳号は万寿。	はいごーわまんことぶき。	NO_LABEL
佐賀県唐津市出身。	さがけんからつししゅっしん。	NO_LABEL
1953年に中央大学法学部を卒業後、日本共産党の理論誌『前衛』の編集長を経て、1983年の第37回衆議院議員総選挙に榊利夫の後継として旧東京2区から出馬し初当選。	NO_PRONOUNCE	NO_LABEL
以後1986年の第38回衆議院議員総選挙でも再選を果たすものの、第39回、第40回の各衆院選で次点に終わる。	いごせんきゅうひゃくはちじゅうろくねんのだいさんじゅうはっかいしゅーぎーんぎーんそーせんきょでもさいせんをはたすものの、だいさんじゅうきゅうかい、だいよんじゅっかいのかくしゅーいんせんでじてんにおわる。	NO_LABEL
俳号は万寿。	はいごーわまんことぶき。	NO_LABEL
古沢太穂に学び、1998年に「道標」同人となる。	NO_PRONOUNCE	NO_LABEL
2000年に「青い閃光」で第28回新俳句人連盟賞受賞。	NO_PRONOUNCE	NO_LABEL
2002年には金子兜太の「海程」同人となる。	NO_PRONOUNCE	NO_LABEL
現代俳句協会会員。	げんだいはいくきょーかいかいいん。	NO_LABEL
