オイゲン・フリードリヒ・カール・パウル・ルートヴィヒ・フォン・ヴュルテンベルクは、ヴュルテンベルクの王族でロシア帝国の将軍。	NO_PRONOUNCE	NO_LABEL
ヴュルテンベルク王フリードリヒ1世の甥。	NO_PRONOUNCE	NO_LABEL
オイゲンはプロイセンの将軍だった同名の父ヴュルテンベルク公オイゲンと、母のシュトルベルク＝ゲーデルン侯女ルイーゼの間に長男として生まれた。	NO_PRONOUNCE	NO_LABEL
父の妹はロシア皇帝パーヴェル1世の皇后マリヤ・フョードロヴナだったため、オイゲンは叔母のつてで幼い頃からロシア宮廷で育つことになった。	NO_PRONOUNCE	NO_LABEL
皇后の甥であるオイゲンのスピード出世はすでにサンクトペテルブルク士官学校在学中から始まっていたが、1802年に皇帝パーヴェル1世が暗殺されたためしばらく昇進は止まった。	NO_PRONOUNCE	NO_LABEL
オイゲンはシュレージエンの実家で、プロイセンの将軍ルートヴィヒ・フォン・ヴォルツォーゲン男爵より高度な軍人教育を受けた。	NO_PRONOUNCE	NO_LABEL
オイゲンはロシア軍に再出仕して1805年には少将にまで昇進していた。	おいげんわろしあぐんにさいしゅっししてせんはっぴゃくごねんにわしょーしょーにまでしょーしんしていた。	NO_LABEL
オイゲンは1806年から1807年にかけ、東プロイセンでのフランス帝国軍との戦闘に従事し、1810年にはトルコ遠征軍に加わった。	おいげんわせんはっぴゃくろくねんからせんはっぴゃくななねんにかけ、ひがしぷろいせんでのふらんすていこくぐんとのせんとーにじゅーじし、せんはっぴゃくじゅうねんにわとるこえんせいぐんにくわわった。	NO_LABEL
1812年に始まるロシア戦役、そして解放戦争を指揮した軍司令官の一人として、オイゲンは歴史的な役割を担うことになった。	じょきょくせんはっぴゃくじゅうにねんにはじまるろしあせんえき、そしてかいほーせんそーをしきしたぐんしれいかんのひとりとして、おいげんわれきしてきなやくわりをになうことになった。	NO_LABEL
オイゲンはスモレンスクの戦場で中将に任官した。	おいげんわすもれんすくのせんじょーでちゅーじょーににんかんした。	NO_LABEL
彼はミハイル・バルクライ・ド・トーリが最高司令官を務めるロシア西部軍の師団長であった。	かれわみはいるばるくらいどとーりがさいこーしれいかんをつとめるろしあせいぶぐんのしだんちょーであった。	NO_LABEL
オイゲンはボロジノの戦いの後で退却する大陸軍にタルチノ、クラスノイ、カリシュで奇襲をかけて武名を揚げた。	おいげんわぼろじののたたかいののちでたいきゃくするたいりくぐんにたるちの、くらすのい、かりしゅできしゅーをかけてぶめいをあげた。	NO_LABEL
ヴァルティナ・グラの戦いおよびクルムの戦いでは、オイゲンとその麾下の軍隊はフランス軍の猛攻を前に絶望的な状況下で防衛戦を乗り切った。	NO_PRONOUNCE	NO_LABEL
1813年5月20日から21日にかけて続いたバウツェンの戦いの直後、オイゲンは翌22日のライヒェンバッハ・マルケルスドルフの戦いで大陸軍を追撃することに成功した。	NO_PRONOUNCE	NO_LABEL
1813年10月16日に始まったライプツィヒの戦いでは、オイゲンは最激戦区となったマルククレーベルクのヴァッハウ地区に攻撃をしかけた。	NO_PRONOUNCE	NO_LABEL
ヴァッハウへと切り込んだことにより、オイゲンの師団はクライスト将軍率いるプロイセン第2軍団と同様に夥しい戦死者を出した。	NO_PRONOUNCE	NO_LABEL
しかしこの日はナポレオン軍がライプツィヒ南部に陣取る同盟軍の弱体な戦列を突破すべく軍全体をそちらに投入したため、ヴァッハウにいた同盟軍は危機を逃れた。	NO_PRONOUNCE	NO_LABEL
ライプツィヒの街には、オイゲンの活躍を称えて彼の名前を冠した「オイゲン公子通り」がある。	NO_PRONOUNCE	NO_LABEL
1814年のフランス進駐以後、オイゲンは様々な戦いに参加した。	せんはっぴゃくじゅうよんねんのふらんすしんちゅーいご、おいげんわさまざまなたたかいにさんかした。	NO_LABEL
1828年のトルコとの戦いではロシア軍第7軍団を指揮している。	NO_PRONOUNCE	NO_LABEL
オイゲンは1829年に退役し、1822年に父の死に伴って相続したシュレージエンの所領カールスルーエで、余生の大半を過ごした。	おいげんわせんはっぴゃくにじゅうきゅうねんにたいえきし、せんはっぴゃくにじゅうにねんにちちのしにともなってそーぞくしたしゅれーじえんのしょりょーかーるするーえで、よせいのたいはんをすごした。	NO_LABEL
彼は父と同様に1820年からヴュルテンベルク王国貴族院議員となったが、自ら議場には赴かず、もっぱら代理人を立てた。	NO_PRONOUNCE	NO_LABEL
オイゲンは1817年、ヴァルデック＝ピルモント侯ゲオルク1世の娘マティルデと結婚した。	NO_PRONOUNCE	NO_LABEL
夫妻は3人の子女をもうけたが、マティルデは1825年に亡くなった。	ふさいわさんにんのしじょをもーけたが、まてぃるでわせんはっぴゃくにじゅうごねんになくなった。	NO_LABEL
1825年、オイゲンはホーエンローエ＝ランゲンブルク侯カール・ルートヴィヒの娘ヘレーネと再婚し、4人の子女をもうけた。	NO_PRONOUNCE	NO_LABEL
