野原 夕里香は、日本のAV女優。	のはらゆーりこーわ、にっぽんのえーぶいじょゆー。	NO_LABEL
身長：163cm。	NO_PRONOUNCE	NO_LABEL
スリーサイズ：B90・W60・H92。	NO_PRONOUNCE	NO_LABEL
血液型：A型。	NO_PRONOUNCE	NO_LABEL
趣味はお菓子作り、特技はスキー、バドミントン。	しゅみわおかしずくり、とくぎわすきー、ばどみんとん。	NO_LABEL
新潟県出身。	にーがたけんしゅっしん。	NO_LABEL
1994年9月30日、アトラス21から、『名器嬢』でデビューした。	NO_PRONOUNCE	NO_LABEL
