豊ノ花 光義は、福岡県小倉市出身で時津風部屋所属の元大相撲力士。	ゆたかのはなみつよしわ、ふくおかけんこくらししゅっしんでときつかぜべやしょぞくのもとおーずもーりきし。	NO_LABEL
本名は大見芳光。	ほんみょーわおーみよしみつ。	NO_LABEL
身長175cm、体重98kg。	しんちょーひゃくななじゅうごせんちめーとる、たいじゅーきゅうじゅうはちきろぐらむ。	NO_LABEL
得意手は右四つ、寄り。	とくいしゅわみぎよっつ、より。	NO_LABEL
最高位は十両5枚目。	さいこーいわじゅーりょーごまいめ。	NO_LABEL
山口県下関市の三井造船所で働いていたところ、横綱・双葉山にスカウトされて荒汐部屋に入門、1941年5月に初土俵を踏んだ。	NO_PRONOUNCE	NO_LABEL
1943年1月には、師匠が双葉山道場に弟子を譲って部屋を閉じたため移籍した。	せんきゅうひゃくよんじゅうさんねいちがつにわ、ししょーがふたばやまどーじょーにでしをゆずってへやをとじたためいせきした。	NO_LABEL
幕下時代の1945年5月に入営し、翌1946年11月に幕下格で時津風部屋に復帰した。	まくしたじだいのせんきゅうひゃくよんじゅうごねんごがつににゅーえいし、よくせんきゅうひゃくよんじゅうろくねじゅーいちがつにまくしたかくでときつかぜへやにふっきした。	NO_LABEL
右四つからの寄りを得意とし、1951年9月場所で新十両に昇進した。	みぎよっつからのよりをとくいとし、せんきゅうひゃくごじゅういちねんくがつばしょでしんじゅうりょーにしょーしんした。	NO_LABEL
1場所で幕下に陥落するも2場所で十両に復帰し、その後は約5年間、十両通算18場所を務めるも入幕はかなわず、1956年9月場所を全休して引退した。	NO_PRONOUNCE	NO_LABEL
引退後は年寄・荒汐を襲名して時津風部屋の部屋付き親方として後進の指導にあたった。	NO_PRONOUNCE	NO_LABEL
なお、実弟の大見信昭は、元夕刊フジの相撲記者である。	なお、じっていのおーみのぶあきわ、もとゆーかんふじのすもーきしゃである。	NO_LABEL
