Xlink KaiとはPlayStation Portableなどのゲーム機の通信機能を使い、インターネットを介して他のプレイヤーと交流や対戦を楽しむためのツール。	NO_PRONOUNCE	NO_LABEL
Xlink Kaiサーバーはプラネックスコミュニケーションズが運営している。	NO_PRONOUNCE	NO_LABEL
このサービスはPlayStation Portableのアドホック・モードを使い、協力プレイや、対戦などを実現することで知られる。	このさーびすわぷれいすてーしょんぽーたぶるのあどほっくもーどをつかい、きょーりょくぷれいや、たいせんなどをじつげんすることでしられる。	NO_LABEL
本来PSPのアドホック・モードはPSP同士で直接通信をするものであるが、このXlink Kaiを使用することによって、インフラストラクチャー・モードのようにインターネットを介し日本国内は勿論、世界各国プレイヤーとの対戦を実現する。	NO_PRONOUNCE	NO_LABEL
このXlink Kaiは無線LANに対応したネットワークアダプタとXlink Kaiと対応OSが搭載されたパソコン、PSPと、アドホックモードに対応したUMDソフトが必要になる。	NO_PRONOUNCE	NO_LABEL
ネットワークアダプタをアドホックモードに設定し、PSPのチャンネルと同じものに設定。	ねっとわーくあだぷたをあどほっくもーどにせっていし、ぴーえすぴーのちゃんねるとおなじものにせってい。	NO_LABEL
Xlink Kaiは使用するネットワークアダプタを選択、ポート番号などを入力すればできる。	NO_PRONOUNCE	NO_LABEL
Xlink Kaiのサーバーの中にはさらにゲーム別のサーバーが振り分けられており、そこに表記してあるゲームソフトが使用できる。	NO_PRONOUNCE	NO_LABEL
尚、Xlink Kaiを使用するにはXtagと呼ばれるIDを登録しなければならない。	NO_PRONOUNCE	NO_LABEL
また、PSP以外のゲーム機のサーバーも置かれている。	また、ぴーえすぴーいがいのげーむきのさーばーもおかれている。	NO_LABEL
サーバーの置かれていないゲームソフトで対応しているソフトもあり、その場合は「Other」サーバーを用いる。	NO_PRONOUNCE	NO_LABEL
※2011年8月3日現在	NO_PRONOUNCE	NO_LABEL
