小網屋は、茨城県土浦市にかつて存在した日本の百貨店。	こあみやわ、いばらきけんつちうらしにかつてそんざいしたにっぽんのひゃっかてん。	NO_LABEL
1912年に個人で呉服販売業を開業し、1951年4月に法人化して、同年に小網屋ショッピングデパートを開店した地場資本の老舗百貨店で土浦駅前に店舗を構えていた。	せんきゅうひゃくじゅうにねんにこじんでごふくはんばいぎょーをかいぎょーし、せんきゅうひゃくごじゅういちねんしがつにほーじんかして、どーねんにこあみやしょっぴんぐでぱーとをかいてんしたじばしほんのしにせひゃっかてんでつちうらえきまえにてんぽをかまえていた。	NO_LABEL
茨城県龍ケ崎市米町に1960年頃出店した小網屋竜ヶ崎店を横町に移転し、新築の竜ヶ崎ショッピングセンターにスーパーマーケットのカスミストアーと、当時本店土浦にあった森永エンゼル食堂の2店と共に核店舗として出店する。	NO_PRONOUNCE	NO_LABEL
1980年頃に改装をし、リニューアルオープン。	せんきゅうひゃくはちじゅうねんごろにかいそーをし、りにゅーあるおーぷん。	NO_LABEL
1989年にも老朽化のため改装をした。	せんきゅうひゃくはちじゅうきゅうねんにもろーきゅーかのためかいそーをした。	NO_LABEL
1995年頃に閉店。	せんきゅうひゃくきゅうじゅうごねんごろにへいてん。	NO_LABEL
その後1998年に解体され、跡地に現在は常陽銀行竜崎支店が移転して営業している。	そのごせんきゅうひゃくきゅうじゅうはちねんにかいたいされ、あとちにげんざいわじょーよーぎんこーたつざきしてんがいてんしてえいぎょーしている。	NO_LABEL
1990年に茨城県岩井市岩井に開業したショッピングセンタープリオ101にスーパーマーケットのカスミと共に核店舗として出店するなどして多店化も図ったが、プリオ101の近隣に1996年以降相次いで大型店が出店したために撤退に追い込まれ、1997年10月には土浦駅前の再開発ビルウララがイトーヨーカドー土浦店を核店舗として開業して競争が激化したため、1999年2月21日に本店を閉店して百貨店事業から撤退し、2001年8月23日に約59.55億円の負債をかかえて水戸地方裁判所土浦支部へ特別清算開始を申立て倒産した。	NO_PRONOUNCE	NO_LABEL
土浦本店の跡地は高層マンションとなり、ショッピングセンタープリオ101は2006年12月末に閉鎖となった。	NO_PRONOUNCE	NO_LABEL
竜ヶ崎店は閉店後別の店が入ったが、のちに解体され跡地は常陽銀行となっている。	りゅーがさきてんわへいてんごべつのみせがはいったが、のちにかいたいされあとちわじょーよーぎんこーとなっている。	NO_LABEL
水海道店は1995年に建て替え工事を行い、カスミだけの店舗になったがその後カスミは閉店した。	みつかいどーてんわせんきゅうひゃくきゅうじゅうごねんにたてかえこーじをおこない、かすみだけのてんぽになったがそのごかすみわへいてんした。	NO_LABEL
なお、1982年9月開業した土浦市内の土浦ショッピングプラザの核店舗の一つとして営業していた小網屋は別法人マルコピアタウン小網屋が運営していたが、2012年1月10日に閉店した。	なお、せんきゅうひゃくはちじゅうにねんくがつかいぎょーしたつちうらしないのつちうらしょっぴんぐぷらざのかくてんぽのひとつとしてえいぎょーしていたこあみやわべつほーじんまるこぴあたうんこあみやがうんえいしていたが、にせんじゅうにねんいちがつとおかにへいてんした。	NO_LABEL
かつて小網屋には、「小網屋理念並びに小網屋合言葉」という経営理念があった。	NO_PRONOUNCE	NO_LABEL
開店前の朝礼で社員は御唱和していた。	かいてんまえのちょーれいでしゃいんわごしょーわしていた。	NO_LABEL
台詞は、	だいしわ、	NO_LABEL
「顧客第一真心奉仕。	NO_PRONOUNCE	NO_LABEL
『小網屋理念、並びに小網屋合言葉』御唱和ください。	NO_PRONOUNCE	NO_LABEL
接客は親切・明朗・迅速。	NO_PRONOUNCE	NO_LABEL
」となっている。	NO_PRONOUNCE	NO_LABEL
