Honda熊本硬式野球部は、熊本県菊池郡大津町に本拠地を置き、日本野球連盟に加盟する社会人野球の企業チームである。	ほんだくまもとこーしきやきゅーぶわ、くまもとけんきくちぐんおおずまちにほんきょちをおき、にほんやきゅーれんめいにかめいするしゃかいじんやきゅーのきぎょーちーむである。	NO_LABEL
運営母体は、本田技研工業。	うんえいぼたいわ、ほんだぎけんこーぎょー。	NO_LABEL
、本田技研工業の熊本製作所で『本田技研熊本硬式野球部』として創部。	NO_PRONOUNCE	NO_LABEL
に日本選手権に初出場し、の日本選手権では準優勝を果たした。	ににほんせんしゅけんにはつしゅつじょーし、のにほんせんしゅけんでわじゅんゆうしょーをはたした。	NO_LABEL
、都市対抗野球に初出場を果たした。	NO_PRONOUNCE	NO_LABEL
、チーム名を『ホンダ熊本硬式野球部』に改称した。	NO_PRONOUNCE	NO_LABEL
、都市対抗野球で準優勝を果たした。	NO_PRONOUNCE	NO_LABEL
、チーム名を『Honda熊本硬式野球部』に改称した。	NO_PRONOUNCE	NO_LABEL
、4月16日に発生した熊本地震により工場が被災し操業停止となり、完全復旧は8月までかかることになった。	NO_PRONOUNCE	NO_LABEL
チームは茨城県で行なわれるJABA日立市長杯争奪大会の予選リーグ参加を予定していたが急遽棄権し、フェリーとバスを乗り継ぎ熊本に戻った。	ちーむわいばらきけんでおこなわれるじゃばひたちしちょーはいそーだつたいかいのよせんりーぐさんかをよていしていたがきゅーきょきけんし、ふぇりーとばすをのりつぎくまもとにもどった。	NO_LABEL
一時的に活動を休止したが、4月21日から活動を再開し、選手たちは練習後に支援物資の仕分けや引越しの手伝い等のボランティア活動に従事した。	いちじてきにかつどーをきゅーししたが、しがつにじゅういちにちからかつどーをさいかいし、せんしゅたちわれんしゅーごにしえんぶっしのしわけやひっこしのてつだいとーのぼらんてぃあかつどーにじゅーじした。	NO_LABEL
その中で、同年の都市対抗野球に九州第1代表として出場を決め、開会式ではボランティア等の震災支援が評価され、同じく熊本に本拠地を置く鮮ど市場ゴールデンラークスと共に「地域の元気　総務大臣賞」の表彰を受けた。	NO_PRONOUNCE	NO_LABEL
試合は初戦で日本新薬に逆転負けを喫したが、スタンドには熊本のご当地キャラクターであるくまモンが登場し、社員や家族、私設応援団、浜松や栃木の工場などから約1万5000人の応援が詰めかけた。	NO_PRONOUNCE	NO_LABEL
