新高浜駅は、かつて茨城県小美玉市栗又四ケ2400番地4にあった、鹿島鉄道鹿島鉄道線の駅である。	NO_PRONOUNCE	NO_LABEL
2007年4月1日、鹿島鉄道線の廃線にともない、廃駅となった。	にせんななねんしがつついたち、かしまてつどーせんのはいせんにともない、はいえきとなった。	NO_LABEL
現在は、関鉄グリーンバスのバス停留所となっている。	げんざいわ、かんてつぐりーんばすのばすていりゅーじょとなっている。	NO_LABEL
単式ホーム1面1線のみを有する地上駅。	NO_PRONOUNCE	NO_LABEL
ほぼ東西に走る線路の北側にホームを添えた形となっていた。	ほぼとーざいにはしるせんろのきたがわにほーむをそえたかたちとなっていた。	NO_LABEL
ホームの中ほどに長いすをそなえた簡単な上屋が設けられており、この上屋の玉里方に北側への出口があった。	ほーむのなかほどにながいすをそなえたかんたんなうわやがもーけられており、このうわやのたまさとかたにきたがわえのでぐちがあった。	NO_LABEL
元来より無人駅であるが、出口にはラッチが設置され、夕方などの混雑時には集札が行われることもあった。	がんらいよりむじんえきであるが、でぐちにわらっちがせっちされ、ゆーがたなどのこんざつじにわしゅーさつがおこなわれることもあった。	NO_LABEL
駅の北を鹿島鉄道に並行する形で国道355号が東西に走る。	えきのきたをかしまてつどーにへいこーするかたちでこくどーさんびゃくごじゅうごごーがとーざいにはしる。	NO_LABEL
駅の出口を出ると小さな広場があり、広場を出ると国道355号の新高浜駅入口交差点である。	えきのでぐちをでるとちーさなひろばがあり、ひろばをでるとこくどーさんびゃくごじゅうごごーのしんたかはまえきいりぐちこーさてんである。	NO_LABEL
国道を挟んだ駅前には玉里B&G海洋センターがあり、北へ進むと100mほどのところに小美玉市玉里運動公園が、300mほどのところに野村田池がある。	NO_PRONOUNCE	NO_LABEL
駅南側にはクレハ・ぺんてるの工場などがある玉里工業団地が広がる。	NO_PRONOUNCE	NO_LABEL
名前こそ「新高浜」であるが、高浜駅とは数キロ離れていて、乗り換え等の互換性はない。	NO_PRONOUNCE	NO_LABEL
また、新高浜駅は小美玉市、高浜駅は石岡市にある。	また、しんたかはまえきわおみたまし、たかはまえきわいしおかしにある。	NO_LABEL
