1932年レークプラシッドオリンピックは、1932年2月4日から15日まで、アメリカ合衆国ニューヨーク州のレークプラシッドで行われた冬季オリンピックである。	せんきゅうひゃくさんじゅうにねんれーくぷらしっどおりんぴっくわ、せんきゅうひゃくさんじゅうにねんにがつよっかからじゅうごにちまで、あめりかがっしゅーこくにゅーよーくしゅーのれーくぷらしっどでおこなわれたとーきおりんぴっくである。	NO_LABEL
ジャンプはビルガー・ルードを筆頭にノルウェーが表彰台を独占。	NO_PRONOUNCE	NO_LABEL
日本勢は安達五郎が8位に食い込んだ。	にっぽんぜいわあだちごろーがはちーにくいこんだ。	NO_LABEL
安達はそれまで国内の30m級の台で練習を重ねていたとはいえ五輪で使われるサイズの台を飛んだことがなく、初日の練習で転倒して5日間の入院を余儀なくされが、本番では見事なジャンプを2本揃えた。	あだちわそれまでこくないのさんじゅうめーとるきゅーのだいでれんしゅーをかさねていたとわいえごりんでつかわれるさいずのだいをとんだことがなく、しょにちのれんしゅーでてんとーしていつかのにゅーいんをよぎなくされが、ほんばんでわみごとなじゃんぷをにほんそろえた。	NO_LABEL
その後、1980年に同じレークプラシッドで行われた大会ではジャンプ会場で大歓声を受けたという。	そのご、せんきゅうひゃくはちじゅうねんにおなじれーくぷらしっどでおこなわれたたいかいでわじゃんぷかいじょーでだいかんせいをうけたという。	NO_LABEL
暖冬のためボブスレー競技が閉会式後に開催されるというハプニングもあった。	だんとーのためぼぶすれーきょーぎがへいかいしきごにかいさいされるとゆうはぷにんぐもあった。	NO_LABEL
