VN1500バルカンは、川崎重工業モーターサイクル&エンジンカンパニーが製造・発売していたクルーザータイプのオートバイの車種。	NO_PRONOUNCE	NO_LABEL
本稿では、同社「バルカン」シリーズのうち、VN1500系の各モデルを「VN1500バルカン」として解説する。	NO_PRONOUNCE	NO_LABEL
第1世代のVN1500バルカンは、1987年に発売された。	NO_PRONOUNCE	NO_LABEL
輸出専用モデルであり、欧州一般市場では「VN-15」、北米市場では「VULCAN88」の名称で販売された。	NO_PRONOUNCE	NO_LABEL
後にD型以降のバルカンシリーズが登場してからも、基本グレードについては1999年モデルのA13型まで製造された。	NO_PRONOUNCE	NO_LABEL
第2世代のVN1500バルカンは、1996年にフルモデルチェンジを受け、以降は「VULCAN1500」の統一名称で販売された。	NO_PRONOUNCE	NO_LABEL
日本国内市場への導入は翌年1997年モデルから行われ、1999年モデルまで販売された。	にほんこくないしじょーえのどーにゅーわよくねんせんきゅうひゃくきゅうじゅうななもでるからおこなわれ、せんきゅうひゃくきゅうじゅうきゅうねんもでるまではんばいされた。	NO_LABEL
2003年モデルとして排気量を拡大したVN1600が発表されて以降も併売されたが2008年のVN1500N8Fをもって生産が終了した。	NO_PRONOUNCE	NO_LABEL
D型以降のVNシリーズとは別系統。	NO_PRONOUNCE	NO_LABEL
北米仕様の名称「88」は1442ccの排気量を表すキュービックインチ単位。	NO_PRONOUNCE	NO_LABEL
C型以前のVNシリーズとは別系統。	NO_PRONOUNCE	NO_LABEL
