高松市道瓦町松島線は、香川県高松市塩上町一丁目から高松市松島町二丁目へ至る市道である。	たかまつしどーかわらまちまつしませんわ、かがわけんたかまつししおがみちょーいっちょーめからたかまつしまつしまちょーにちょーめえいたるしどーである。	NO_LABEL
路線番号はA0449。	NO_PRONOUNCE	NO_LABEL
通行の運用上や都市計画道路として指定されているのは都市計画道路福岡多肥上町線との交点までであるが、市道としての終点は約50mほど東進したところで突き当たる御坊川に沿った市道福岡町46号線との交点である。	NO_PRONOUNCE	NO_LABEL
当市道は大部分が都市計画道路に指定されており、指定名は市道名と同じく瓦町松島線。	とーしどーわだいぶぶんがとしけいかくどーろにしていされており、していめいわしどーめいとどうじくかわらちょーまつしません。	NO_LABEL
瓦町松島線は当市道のうち、起点-都市計画道路福岡多肥上町線からなる。	NO_PRONOUNCE	NO_LABEL
1946年6月5日、戦災復興院告示第39号により指定。	NO_PRONOUNCE	NO_LABEL
車線数・名称の変更などを除く最終決定日は1998年7月10日。	NO_PRONOUNCE	NO_LABEL
最終告示は、2004年5月17日の高松市告示第325号。	NO_PRONOUNCE	NO_LABEL
なし	なし	NO_LABEL
