備中高松駅は、岡山県岡山市北区高松にある、西日本旅客鉄道吉備線の駅である。	びっちゅーたかまつえきわ、おかやまけんおかやましきたくたかまつにある、にしにほんりょかくてつどーきびせんのえきである。	NO_LABEL
駅名の由来は地元にある城名である。	えきめいのゆらいわじもとにあるしろめいである。	NO_LABEL
香川県の高松駅とは一切無関係である。	かがわけんのたかまつえきとわいっさいむかんけいである。	NO_LABEL
区別をつけるために「備中高松」としている。	NO_PRONOUNCE	NO_LABEL
最上稲荷への初詣参拝客の輸送対策として、12月31日・1月1日は当駅止まりの臨時列車が運行される。	NO_PRONOUNCE	NO_LABEL
なお中国鉄道時代の1911年から1944年まで、ここから最上稲荷門前の稲荷山駅へ至る稲荷山線が分岐していた。	なおちゅーごくてつどーじだいのせんきゅうひゃくじゅういちねんからせんきゅうひゃくよんじゅうよねんまで、ここからさいじょういなりもんぜんのいなりやまえきえいたるとーかやませんがぶんきしていた。	NO_LABEL
日中時間帯には当駅で岡山方面に折り返す列車も設定されている。	にっちゅーじかんたいにわとーえきでおかやまほーめんにおりかえすれっしゃもせっていされている。	NO_LABEL
相対式ホーム2面2線を有し、列車交換が可能な地上駅。	NO_PRONOUNCE	NO_LABEL
コンクリート一階建ての駅舎が置かれる。	こんくりーといちかいだてのえきしゃがおかれる。	NO_LABEL
互いのホームは跨線橋で連絡している。	たがいのほーむわこせんきょーでれんらくしている。	NO_LABEL
なお、この駅は駅舎側が2番のりば、反対側が1番のりばとなっている。	なお、このえきわえきしゃがわがにばんのりば、はんたいがわがいちばんのりばとなっている。	NO_LABEL
1番のりば側には初詣客対応のための臨時出入口が設置されている。	いちばんのりばがわにわはつもーできゃくたいおーのためのりんじでいりぐちがせっちされている。	NO_LABEL
岡山駅が管理し、ジェイアール西日本岡山メンテックが駅業務を受託する業務委託駅である。	おかやまえきがかんりし、じぇいあーるにしにほんおかやまめんてっくがえきぎょーむをじゅたくするぎょーむいたくえきである。	NO_LABEL
みどりの窓口は、2007年2月15日から営業開始。	みどりのまどぐちわ、にせんななねんにがつじゅうごにちからえいぎょーかいし。	NO_LABEL
ICOCA利用可能駅であり、ICOCAの相互利用対象であるPiTaPaも利用可能。	いこかりよーかのーえきであり、いこかのそーごりよーたいしょーであるぴたぱもりよーかのー。	NO_LABEL
2007年7月に自動改札機が設置されたが、簡易型であるため、降車客の乗車券は駅係員が集札する。	にせんななねんしちがつにじどーかいさつきがせっちされたが、かんいがたであるため、こーしゃきゃくのじょーしゃけんわえきかかりーんがしゅーさつする。	NO_LABEL
自動券売機設置駅。	じどーけんばいきせっちえき。	NO_LABEL
近年の1日平均乗車人員は以下の通りである。	きんねんのついたちへいきんじょーしゃじんいんわいかのとーりである。	NO_LABEL
