ブラウン運動とは、液体のような溶媒中に浮遊する微粒子が、不規則に運動する現象である。	ぶらうんうんどーとわ、えきたいのよーなよーばいちゅーにふゆーするびりゅーしが、ふきそくにうんどーするげんしょーである。	NO_LABEL
1827年、ロバート・ブラウンが、水の浸透圧で破裂した花粉から水中に流出し浮遊した微粒子を、顕微鏡下で観察中に発見し、論文「植物の花粉に含まれている微粒子について」で発表した。	NO_PRONOUNCE	NO_LABEL
この現象は長い間原因が不明のままであったが、1905年、アインシュタインにより、熱運動する媒質の分子の不規則な衝突によって引き起こされているという論文が発表された。	このげんしょーわながいあいだげんいんがふめいのままであったが、せんきゅうひゃくごねん、あいんしゅたいんにより、ねつうんどーするばいしつのぶんしのふきそくなしょーとつによってひきおこされているとゆうろんぶんがはっぴょーされた。	NO_LABEL
この論文により当時不確かだった原子および分子の存在が、実験的に証明出来る可能性が示された。	このろんぶんによりとーじふたしかだったげんしおよびぶんしのそんざいが、じっけんてきにしょーめいできるかのーせいがしめされた。	NO_LABEL
後にこれは実験的に検証され、原子や分子が確かに実在することが確認された。	のちにこれわじっけんてきにけんしょーされ、げんしやぶんしがたしかにじつざいすることがかくにんされた。	NO_LABEL
同じころ、グラスゴーの物理学者が1905年にアインシュタインと同じ式に到達し、ポーランドの物理学者も1906年に彼自身によるブラウン運動の理論を発表した。	おなじころ、ぐらすごーのぶつりがくしゃがせんきゅうひゃくごねんにあいんしゅたいんとおなじしきにとーたつし、ぽーらんどのぶつりがくしゃもせんきゅうひゃくろくねんにかれじしんによるぶらうんうんどーのりろんをはっぴょーした。	NO_LABEL
数学のモデルとしては、フランス人のルイ・バシュリエは、株価変動の確率モデルとして1900年パリ大学に「投機の理論」と題する博士論文を提出した。	NO_PRONOUNCE	NO_LABEL
今に言う、ランダムウォークのモデルで、ブラウン運動がそうである、という重要な論文であるが、当時のフランスの有力数学者たちに理解されず、出版は大幅に遅れた。	いまにいう、らんだむうぉーくのもでるで、ぶらうんうんどーがそーである、とゆうじゅーよーなろんぶんであるが、とーじのふらんすのゆーりょくすーがくしゃたちにりかいされず、しゅっぱんわおーはばにおくれた。	NO_LABEL
ブラウン運動と言う言葉はかなり広い意味で使用されることもあり、類似した現象として、電気回路における熱雑音や、希薄な気体中に置かれた、微小な鏡の不規則な振動などもブラウン運動の範疇として説明される。	ぶらうんうんどーということばわかなりひろいいみでしよーされることもあり、るいじしたげんしょーとして、でんきかいろにおけるねつざつおんや、きはくなきたいちゅーにおかれた、びしょーなかがみのふきそくなしんどーなどもぶらうんうんどーのはんちゅーとしてせつめいされる。	NO_LABEL
ブラウン運動について以下の式が成り立っている。	ぶらうんうんどーについていかのしきがなりたっている。	NO_LABEL
ここで、上式左辺はブラウン運動する物体の平衡位置 からのずれの2乗の平均である。	NO_PRONOUNCE	NO_LABEL
 は気体定数、 は絶対温度、 は易動度、 は十分経過した時間である。	わきたいていすー、わぜったいおんど、わえきどーど、わじゅーぶんけいかしたじかんである。	NO_LABEL
そして、 がアボガドロ定数である。	そして、があぼがどろていすーである。	NO_LABEL
アボガドロ定数以外は、観測によって求められる量であり、フランスの物理化学者ジャン・ペランが1908年、という値を得ている。	あぼがどろていすーいがいわ、かんそくによってもとめられるりょーであり、ふらんすのぶつりかがくしゃじゃんぺらんがせんきゅうひゃくはちねん、とゆうねをえている。	NO_LABEL
水中で浸透圧により破裂した花粉から流出した微粒子ではなく、花粉そのものがブラウン運動すると間違われることがある。	すいちゅーでしんとーあつによりはれつしたかふんからりゅーしゅつしたびりゅーしでわなく、かふんそのものがぶらうんうんどーするとまちがわれることがある。	NO_LABEL
一般書などに限らず、高名な学者や学術書や教科書にも見られた。	いっぱんしょなどにかぎらず、こーみょーながくしゃやがくじゅつしょやきょーかしょにもみられた。	NO_LABEL
最近でもマスコミの記事や、インターネット上の検索サイトで検索すると大学のウェブ上のアインシュタインの業績説明は誤ったままの説明になっていることが多い。	さいきんでもますこみのきじや、いんたーねっとじょーのけんさくさいとでけんさくするとだいがくのうぇぶじょーのあいんしゅたいんのぎょーせきせつめいわあやまったままのせつめいになっていることがおーい。	NO_LABEL
1905年のアインシュタインの論文によって、ブラウン運動は原子の存在を明白に証拠付ける事実となった。	せんきゅうひゃくごねんのあいんしゅたいんのろんぶんによって、ぶらうんうんどーわげんしのそんざいをめいはくにしょーこつけるじじつとなった。	NO_LABEL
その内容を要約すると以下のようになる。	そのないよーをよーやくするといかのよーになる。	NO_LABEL
ブラウン運動の数学的に厳密なモデルとして、ノーバート・ウィーナーの名を冠してウィーナー過程と呼ばれる連続型確率過程がある。	ぶらうんうんどーのすーがくてきにげんみつなもでるとして、のーばーとうぃーなーのなをかんしてうぃーなーかていとよばれるれんぞくがたかくりつかていがある。	NO_LABEL
ウィーナー過程は離散型である乱歩の極限となる確率過程として確率論、確率解析において非常に重要な概念である。	うぃーなーかていわりさんがたであるらんぽのきょくげんとなるかくりつかていとしてかくりつろん、かくりつかいせきにおいてひじょーにじゅーよーながいねんである。	NO_LABEL
ウィーナー過程のランダムさは、ブラウン運動のモデルに相応しく至る所通常の意味では微分不可能なほどであるが、その軌跡は連続性を持ち、ある種の測度としてウィーナー過程の存在を肯定する。	うぃーなーかていのらんだむさわ、ぶらうんうんどーのもでるにふさわしくいたるところつーじょーのいみでわびぶんふかのーなほどであるが、そのきせきわれんぞくせいをもち、あるたねのそくどとしてうぃーなーかていのそんざいをこーていする。	NO_LABEL
そしてこれが微分によってある種の無限小余剰項を生むという規約を設けた特別の微分を考えることにより、確率積分などの概念が定式化され、確率解析と呼ばれる一分野が展開される。	そしてこれがびぶんによってあるたねのむげんしょーよじょーこーをうむとゆうきやくをもーけたとくべつのびぶんをかんがえることにより、かくりつせきぶんなどのがいねんがていしきかされ、かくりつかいせきとよばれるいちぶんやがてんかいされる。	NO_LABEL
非常に多くの粒子の影響がブラウン運動の不規則さを生むという考え方は、やはり多数の原因によって複雑な変動を示す株取引などの経済活動などにも応用することができるため、ウィーナー過程や確率微分を応用した確率解析は、金融工学などの分野でも盛んに用いられている。	ひじょーにおーくのりゅーしのえいきょーがぶらうんうんどーのふきそくさをうむとゆうかんがえかたわ、やはりたすーのげんいんによってふくざつなへんどーをしめすかぶとりひきなどのけいざいかつどーなどにもおーよーすることができるため、うぃーなーかていやかくりつびぶんをおーよーしたかくりつかいせきわ、きんゆーこーがくなどのぶんやでもさかんにもちいられている。	NO_LABEL
簡単のため1次元ウィーナー過程について述べる。	かんたんのためいちじげんうぃーなーかていについてのべる。	NO_LABEL
