古川 恵実子は、神奈川県出身のタレント、DJ。	ふるかわえみこわ、かながわけんしゅっしんのたれんと、でぃーじぇい。	NO_LABEL
1992年、ニューモモコグランプリに選ばれる。	せんきゅうひゃくきゅうじゅうにねん、にゅーももこぐらんぷりにえらばれる。	NO_LABEL
その後CM、グラビアで活動する。	そのごこんぴゅーたみゅーじっくまがじん、ぐらびあでかつどーする。	NO_LABEL
当時はオフィスパレットに所属していた。	とーじわおふぃすぱれっとにしょぞくしていた。	NO_LABEL
2010年3月までbayfmでラジオパーソナリティを務めた。	にせんじゅうねんさんがつまでべいえふえむでらじおぱーそなりてぃをつとめた。	NO_LABEL
