芳一は日本の漫画家。	よしかずわにほんのまんがか。	NO_LABEL
主にテレビゲームを題材としたパロディ4コマ漫画などを手がけていた。	おもにてれびげーむをだいざいとしたぱろでぃよんこままんがなどをてがけていた。	NO_LABEL
1995年頃に双葉社から刊行された4コマまんが王国にてデビュー。	せんきゅうひゃくきゅうじゅうごねんごろにふたばしゃからかんこーされたよんこままんがおーこくにてでびゅー。	NO_LABEL
1996年から、ゲームシステムと現実との相違・矛盾を突くシュールネタへと作風の方向性を転換し、短期間で大ブレイク。	NO_PRONOUNCE	NO_LABEL
4コマまんが王国の新作家陣の一角として1997年まで大いに人気を博すことになる。	よんこままんがおーこくのしんさっかじんのいっかくとしてせんきゅうひゃくきゅうじゅうななまでおーいににんきをはくすことになる。	NO_LABEL
しかしこの作風は長く続かず、1998年以降はネタの質が低下。	しかしこのさくふーわながくつずかず、せんきゅうひゃくきゅうじゅうはちねんいこーわねたのしつがていか。	NO_LABEL
同年内には4コマまんが王国から姿を消すなど、漫画家としては短命に終わった側面もある。	どーねんないにわよんこままんがおーこくからすがたをけすなど、まんがかとしてわたんめいにおわったそくめんもある。	NO_LABEL
ゲームシステムと現実との相違・矛盾を突くシュールネタが最大の特徴で、ゲームのシナリオやキャラクターの性格といった他のゲームコミック漫画家がネタに採用しがちなネタは少ない。	NO_PRONOUNCE	NO_LABEL
特にスーパーマリオ64・マリオカート64といったゲーム機・ゲームシステムとして新機軸を多数備えていたNINTENDO64のゲームソフトを題材としたゲームコミックでは真価を発揮した。	NO_PRONOUNCE	NO_LABEL
