追跡ハイクとは、グループ単位で行う野外レクリエーションゲームのひとつ。	ついせきはいくとわ、ぐるーぷたんいでおこなうやがいれくりえーしょんげーむのひとつ。	NO_LABEL
追跡ハイキングともいうが、追跡ハイクの呼び名が広く知られている。	ついせきはいきんぐともいうが、ついせきはいくのよびながひろくしられている。	NO_LABEL
先行者と追跡者に分かれ、先行者が残した手がかりをたどっていく、ゲーム化された知的なハイキング。	せんこーしゃとついせきしゃにわかれ、せんこーしゃがのこしたてがかりをたどっていく、げーむかされたちてきなはいきんぐ。	NO_LABEL
一般的に先行者は熟練した指導者が勤める。	いっぱんてきにせんこーしゃわじゅくれんしたしどーしゃがつとめる。	NO_LABEL
追跡者が年少者なら、追跡理由に地域の伝説などの物語性を加味して実施すると効果的であるが、年齢が上がっている場合は地域の文化遺産などを利用して知的探求心に訴えて行うことが肝要である。	ついせきしゃがねんしょーしゃなら、ついせきりゆーにちいきのでんせつなどのものがたりせいをかみしてじっしするとこーかてきであるが、ねんれいがあがっているばあいわちいきのぶんかいさんなどをりよーしてちてきたんきゅーしんにうったえておこなうことがかんよーである。	NO_LABEL
また追跡ハイクは、ボーイスカウトの活動によく利用されている。	またついせきはいくわ、ぼーいすかうとのかつどーによくりよーされている。	NO_LABEL
参加者の年齢、人数により実施地を選定する必要がある。	さんかしゃのねんれい、にんずーによりじっしちをせんていするひつよーがある。	NO_LABEL
また、自然、地域生活、歴史遺産など注目する対象を何にするかによっても変わってくる。	また、しぜん、ちいきせいかつ、れきしいさんなどちゅーもくするたいしょーをなににするかによってもかわってくる。	NO_LABEL
実施地が決まったら、事前に実地踏破をしてコースを決定していく。	じっしちがきまったら、じぜんにじっちとーはをしてこーすをけっていしていく。	NO_LABEL
当日は、あらかじめ決めておいたコース上に、手がかりとなる目印をつけていく。	とーじつわ、あらかじめきめておいたこーすじょーに、てがかりとなるめじるしをつけていく。	NO_LABEL
この場合、追跡者が道に迷わないよう細心の注意を払う必要がある。	このばあい、ついせきしゃがみちにまよわないよーさいしんのちゅーいをはらうひつよーがある。	NO_LABEL
また、途中で取られたり壊されたりしないよう工夫しなければならない。	また、とちゅーでとられたりこわされたりしないよーくふーしなければならない。	NO_LABEL
なお、目印は、終了後には、必ず取り去るようにする。	なお、めじるしわ、しゅーりょーごにわ、かならずとりさるよーにする。	NO_LABEL
目印の大切さは、「登山で案内の矢印を勝手に消したり、書き換えたりすると遭難する」というような例を交えて参加者に伝えるのも一つの方法である。	NO_PRONOUNCE	NO_LABEL
目印には、自然物を利用した目印、人工のものを利用した目印、既存の物に書いた目印の3種類がある。	めじるしにわ、しぜんぶつをりよーしためじるし、じんこーのものをりよーしためじるし、きそんのものにかいためじるしのさんしゅるいがある。	NO_LABEL
目印を単純に追っていくだけでなく、途中で課題を出すことにより、変化に富んだコース設定ができる。	めじるしをたんじゅんにおっていくだけでなく、とちゅーでかだいをだすことにより、へんかにとんだこーすせっていができる。	NO_LABEL
課題は、植物観察、史跡からの出題、遊びを取り入れたものなどあらゆることが可能である。	かだいわ、しょくぶつかんさつ、しせきからのしゅつだい、あそびをとりいれたものなどあらゆることがかのーである。	NO_LABEL
また、カードを利用するなどで無人化することも考えられる。	また、かーどをりよーするなどでむじんかすることもかんがえられる。	NO_LABEL
