ASPARAGUSは日本のスリーピースロックバンド。	あすぱらがすわにっぽんのすりーぴーすろっくばんど。	NO_LABEL
3P3B所属。	さんぴーさんびーしょぞく。	NO_LABEL
現メンバー	げんめんばー	NO_LABEL
元メンバー	もとめんばー	NO_LABEL
2002年2月に横浜にて結成。	にせんにねんにがつによこはまにてけっせい。	NO_LABEL
3P3B Ltd.内に自主レーベル「STACKERS」を設立し、同年11月11日に1stアルバム「Tiger Style」をリリースする。	NO_PRONOUNCE	NO_LABEL
2004年には、2枚のアルバムを自主レーベルのSTACKERSとPIZZA OF DEATH RECORDSより同時リリースするというインディーズ界では初めての試みを行い、初めての全国ツアーを成し遂げる。	NO_PRONOUNCE	NO_LABEL
それからも、積極的にライブ活動を行っていたが、2006年に、ベースの山下が脱退。	それからも、せっきょくてきにらいぶかつどーをおこなっていたが、にせんろくねんに、べーすのやましたがだったい。	NO_LABEL
翌年1月25日に、元SHORT CIRCUITの原直央を新ベーシストとして迎え、10月10日に3年ぶりのアルバム「MONT BLANC」をリリース。	NO_PRONOUNCE	NO_LABEL
以降も、変わらずライブ活動に重きを置いて活動している。	いこーも、かわらずらいぶかつどーにおもきをおいてかつどーしている。	NO_LABEL
また、不定期で自主企画イベント「BKTS」を主催しており、the band apart、COMEBACK MY DAUGHTERS、lostage等のバンドなどが参加している。	NO_PRONOUNCE	NO_LABEL
メロディック・ハードコアを基調としつつ、アコースティックサウンドも取り入れ、親交を持ち共作も行っているヒダカトオルは「アコースティックギターでモッシュを起こす唯一のバンド」と評している。	NO_PRONOUNCE	NO_LABEL
