『渋谷怪談2』は、日本のホラー映画。	NO_PRONOUNCE	NO_LABEL
2004年2月7日に公開。	にせんよねんにがつなのかにこーかい。	NO_LABEL
同時公開された『渋谷怪談』の続編であり、前作同様に都市伝説を題材とし、東京都渋谷区を舞台とした作品である。	NO_PRONOUNCE	NO_LABEL
渋谷の怪事件から約半年後。	しぶやのかいじけんからやくはんとしご。	NO_LABEL
高校受験に成功した久保綾乃は、かつての家庭教師で廃人同様となっている八島リエカの手から、渋谷のコインロッカーの鍵を受け取った。	こーこーじゅけんにせいこーしたくぼあやのわ、かつてのかていきょーしではいじんどーよーとなっているやしまりえかのてから、しぶやのこいんろっかーのかぎをうけとった。	NO_LABEL
それ以来綾乃は、赤ん坊の声や姿といった幻覚に襲われ始める。	それいらいあやのわ、あかんぼーのこえやすがたといったげんかくにおそわれはじめる。	NO_LABEL
その頃の綾乃たちの世代の間では、渋谷に恋が叶うコインロッカーがあるという噂で持ちきりだったが、そのロッカーを使った者は次々に謎の死を遂げていた。	そのころのあやのたちのせだいのまでわ、しぶやにこいがかなうこいんろっかーがあるとゆううわさでもちきりだったが、そのろっかーをつかったものわつぎつぎになぞのしをとげていた。	NO_LABEL
あのロッカーこそが元凶だと確信した綾乃は、多くの犠牲者たちの死に立ち会ってきた掛沢医師とともに、コインロッカーに立ち向かう。	あのろっかーこそがげんきょーだとかくしんしたあやのわ、おーくのぎせいしゃたちのしにたちあってきたかけざわいしとともに、こいんろっかーにたちむかう。	NO_LABEL
前作『渋谷怪談』および本作上映前の2004年1月12日に、原作小説『渋谷怪談』が発行されているが、映画『渋谷怪談』はこの小説の前半部分にあたり、後半部分のエピソードを映画化したものが本作である。	NO_PRONOUNCE	NO_LABEL
今回より、諸々の怪現象の元凶である少女の霊として「サッちゃん」の名が作中に登場するが、これは童謡の『サッちゃん』において、「サッちゃんがバナナを半分しか食べられないのは事故死したため」「サッちゃんの歌詞の隠された意味を知ると殺される」といった都市伝説に由来する。	NO_PRONOUNCE	NO_LABEL
ほかにも「あたしたち友達だよね?」「ベッドの下」「死ねばよかったのに」といった著名な都市伝説が、作中の題材とされている。	NO_PRONOUNCE	NO_LABEL
監督の堀江慶は、ホラー映画ならではの「生きるか死ぬか」といった精神状態に加えて、せっかくの出逢いが死によって永遠の別れとなる運命に視聴者を共感させることを、本作での描写の狙いとしている。	NO_PRONOUNCE	NO_LABEL
DVDは上映と同年の2004年6月25日に『渋谷怪談2 デラックス版』として発売。	NO_PRONOUNCE	NO_LABEL
前作のDVD『渋谷怪談 デラックス版』、および両作品を同梱したDVD-BOX『渋谷怪談BOX』との同時発売である。	NO_PRONOUNCE	NO_LABEL
続編『サッちゃん 続・渋谷怪談』は映画ではなく、書き下ろし小説として発表され、本作の主人公・久保綾乃のその後が描かれている。	NO_PRONOUNCE	NO_LABEL
映像作品としては、ネット配信による『渋谷怪談 サッちゃんの都市伝説』が続編にあたる。	NO_PRONOUNCE	NO_LABEL
2008年4月23日には、これまでの映像作品をすべて網羅するDVD-BOX『渋谷怪談 “最凶”大全集』に収録されて発売された。	NO_PRONOUNCE	NO_LABEL
