『朝のワイドショー ○○と90分』は、1970年3月30日から同年10月2日まで日本テレビ系列局で放送された日本テレビ製作のワイドショーである。	NO_PRONOUNCE	NO_LABEL
タイトルの「○○」の箇所には、当日の司会者の名前が入っていた。	NO_PRONOUNCE	NO_LABEL
放送時間は毎週月曜 - 金曜 9:30 - 11:00。	NO_PRONOUNCE	NO_LABEL
1969年10月に『奥さまハプニングサロン』で朝のワイドショー戦線に参入した日本テレビだが、半年で終了。	NO_PRONOUNCE	NO_LABEL
今度は5組の芸能人が日替わりで司会を担当する形式へと変わった。	NO_PRONOUNCE	NO_LABEL
