『パラノーマル・アクティビティ2』は、2010年のアメリカ映画。	NO_PRONOUNCE	NO_LABEL
2009年に北米で公開された『パラノーマル・アクティビティ』の続編。	NO_PRONOUNCE	NO_LABEL
続編であるが内容的には『パラノーマル・アクティビティ』の前日談である。	NO_PRONOUNCE	NO_LABEL
ある日クリスティとダニエルが帰宅すると家が荒らされていた。	あるひくりすてぃとだにえるがきたくするといえがあらされていた。	NO_LABEL
しかし、無くなったものはクリスティの姉ケイティから貰ったペンダントだけだった。	しかし、なくなったものわくりすてぃのあねけいてぃからもらったぺんだんとだけだった。	NO_LABEL
防犯の為にダニエルは家中に防犯カメラを設置するが、その日を境にしてクリスティの周りで次々に不可思議な現象が起こるようになる。	ぼーはんのためにだにえるわいえじゅーにぼーはんかめらをせっちするが、そのひをさかいにしてくりすてぃのまわりでつぎつぎにふかしぎなげんしょーがおこるよーになる。	NO_LABEL
悪魔の仕業だと怯えるクリスティだがダニエルは聞く耳を持たなかった。	あくまのしわざだとおびえるくりすてぃだがだにえるわきくみみをもたなかった。	NO_LABEL
だがそのうち、クリスティは悪魔にとり憑かれたように豹変してしまう。	だがそのうち、くりすてぃわあくまにとりつかれたよーにひょーへんしてしまう。	NO_LABEL
悪魔の存在を信じたダニエルは儀式により、とり憑いた悪魔をクリスティの肉親であるケイティーに移動させたのだが…	NO_PRONOUNCE	NO_LABEL
パラマウントとドリームワークスによってマイケル・R・ペリーが脚本家として雇われ、前作で脚本、監督を勤めたオーレン・ペリは製作のみに留まった。	ぱらまうんととどりーむわーくすによってまいけるあーるぺりーがきゃくほんかとしてやとわれ、ぜんさくできゃくほん、かんとくをつとめたおーれんぺりわせいさくのみにとまった。	NO_LABEL
監督には当初、『ソウ6』のケヴィン・グルタートが雇われる予定であった。	NO_PRONOUNCE	NO_LABEL
しかしながら、『ソウ』シリーズのスタジオ側がグルタートに『ソウ ザ・ファイナル 3D』を撮らせるためにその話は無くなり、代わりにトッド・ウィリアムズが監督に就任した。	NO_PRONOUNCE	NO_LABEL
2010年5月に製作が開始された。	にせんじゅうねんごがつにせいさくがかいしされた。	NO_LABEL
2010年6月30日公開の『エクリプス/トワイライト・サーガ』に予告編が初めて付けられた。	NO_PRONOUNCE	NO_LABEL
世界最速公開は2010年10月20日のフランスであり、製作国のアメリカ合衆国は2日後の22日である。	せかいさいそくこーかいわにせんじゅうねんじゅーがつはつかのふらんすであり、せいさくこくのあめりかがっしゅーこくわふつかごのにじゅうににちである。	NO_LABEL
日本では2011年2月11日に公開された。	にっぽんでわにせんじゅういちねんにがつじゅういちにちにこーかいされた。	NO_LABEL
配給は、前作のプレシディオに代わってパラマウントが務める。	はいきゅーわ、ぜんさくのぷれしでぃおにかわってぱらまうんとがつとめる。	NO_LABEL
