ネムゼティ・バイノクシャーグIは、ハンガリーにおけるサッカーのトップディビジョンである。	NO_PRONOUNCE	NO_LABEL
1901年に設立された。	せんきゅうひゃくいちねんにせつりつされた。	NO_LABEL
UEFAは2017年現在、このリーグをヨーロッパにおいて第33位に位置づけている。	うえふぁわにせんじゅうななねんげんざい、このりーぐをよーろっぱにおいてだいさんじゅうさんいにいちずけている。	NO_LABEL
12チームが参加し、他のチームとホーム・アンド・アウェーによる3回総当たり戦を行なう。	NO_PRONOUNCE	NO_LABEL
1位のチームにはUEFAチャンピオンズリーグ予選2回戦、2位、3位および4位のクラブにはUEFAヨーロッパリーグ予選1回戦、マジャル・クパ優勝クラブにはUEFAヨーロッパリーグ予選2回戦の出場資格が与えられる。	いちーのちーむにわうえふぁちゃんぴおんずりーぐよせんにかいせん、にー、さんいおよびよんいのくらぶにわうえふぁよーろっぱりーぐよせんいちかいせん、まじゃるくぱゆーしょーくらぶにわうえふぁよーろっぱりーぐよせんにかいせんのしゅつじょーしかくがあたえられる。	NO_LABEL
下位2クラブは2部リーグのNB IIに降格し、NB IIの上位2クラブがNB Iに入れ替わって昇格する。	NO_PRONOUNCE	NO_LABEL
