スチュアート郡はアメリカ合衆国ジョージア州に位置する郡である。	すちゅあーとぐんわあめりかがっしゅーこくじょーじあしゅーにいちするぐんである。	NO_LABEL
2000年現在、人口は5,252人である。	NO_PRONOUNCE	NO_LABEL
この郡の郡庁所在地はランプキンである。	このぐんのぐんちょーしょざいちわらんぷきんである。	NO_LABEL
アメリカ合衆国統計局によると、この郡は総面積1,200 kmである。	NO_PRONOUNCE	NO_LABEL
このうち1,188 kmが陸地で12 kmが水地域である。	NO_PRONOUNCE	NO_LABEL
総面積の0.98%が水地域となっている。	NO_PRONOUNCE	NO_LABEL
2000年現在の国勢調査で、この郡は人口5,252人、2,007世帯、及び1,348家族が暮らしている。	NO_PRONOUNCE	NO_LABEL
人口密度は4/kmである。	NO_PRONOUNCE	NO_LABEL
2/kmの平均的な密度に2,354軒の住宅が建っている。	NO_PRONOUNCE	NO_LABEL
この郡の人種的な構成は白人37.11%、アフリカン・アメリカン61.54%、先住民0.25%、アジア0.17%、太平洋諸島系0.00%、その他の人種0.11%、及び混血0.82%である。	NO_PRONOUNCE	NO_LABEL
ここの人口の1.50%はヒスパニックまたはラテン系である。	NO_PRONOUNCE	NO_LABEL
この郡内の住民は24.90%が18歳未満の未成年、18歳以上24歳以下が8.00%、25歳以上44歳以下が25.30%、45歳以上64歳以下が23.30%、及び65歳以上が18.50%にわたっている。	NO_PRONOUNCE	NO_LABEL
中央値年齢は39歳である。	ちゅーおーちねんれいわさんじゅうきゅうさいである。	NO_LABEL
女性100人ごとに対して男性は91.50人である。	NO_PRONOUNCE	NO_LABEL
18歳以上の女性100人ごとに対して男性は85.40人である。	NO_PRONOUNCE	NO_LABEL
この郡内の世帯ごとの平均的な収入は24,789米ドルであり、家族ごとの平均的な収入は29,611米ドルである。	NO_PRONOUNCE	NO_LABEL
男性は27,568米ドルに対して女性は19,035米ドルの平均的な収入がある。	NO_PRONOUNCE	NO_LABEL
この郡の一人当たりの収入は16,071米ドルである。	NO_PRONOUNCE	NO_LABEL
人口の22.20%及び家族の17.20%は貧困線以下である。	NO_PRONOUNCE	NO_LABEL
全人口のうち18歳未満の30.40%及び65歳以上の21.90%は貧困線以下の生活を送っている。	NO_PRONOUNCE	NO_LABEL
