表現文化社は、日本の出版社で、主に葬祭関係を扱っている。	ひょーげんぶんかしゃわ、にっぽんのしゅっぱんしゃで、おもにそーさいかんけいをあつかっている。	NO_LABEL
代表者は葬送ジャーナリストの碑文谷創。	だいひょーしゃわそーそーじゃーなりすとのひもんやはじめ。	NO_LABEL
2016年9月28日付の社告で『SOGI』の休刊と事務所閉鎖を告知し、10月4日東京地裁にて破産手続きの開始決定を受ける。	NO_PRONOUNCE	NO_LABEL
東京都新宿区信濃町10	NO_PRONOUNCE	NO_LABEL
