冷水機とは、飲料水を冷やして、供給するための電気製品。	れいすいきとわ、いんりょーすいをひやして、きょーきゅーするためのでんきせいひん。	NO_LABEL
英語の由来から、ウォータークーラーとも呼ばれる。	えいごのゆらいから、うぉーたーくーらーともよばれる。	NO_LABEL
正しい名前はプレッシャー型 ウォータークーラーである。	ただしいなまえわぷれっしゃーがたうぉーたーくーらーである。	NO_LABEL
飲料水を冷やしておくための電気製品である。	いんりょーすいをひやしておくためのでんきせいひんである。	NO_LABEL
日本国内においては、主に床置き型と卓上型の2種類がある。	にほんこくないにおいてわ、おもにゆかおきがたとたくじょーがたのにしゅるいがある。	NO_LABEL
前者は、蛇口近くのボタンを押すか、床付近にあるペダルを足で踏んで水を出す。	ぜんしゃわ、じゃぐちちかくのぼたんをおすか、ゆかふきんにあるぺだるをあしでふんでみずをだす。	NO_LABEL
後者は、ボタンを押すか、コップでレバーを押して水を出す。	こーしゃわ、ぼたんをおすか、こっぷでればーをおしてみずをだす。	NO_LABEL
また、卓上型には湯やお茶などが出る機能が付いたものもあるが、幼児による火傷の被害が出たこともあり、近年では湯が出る側のレバーは一度ボタンのようなものを強く押してからでないと出ないような安全性を高めたものになっている。	また、たくじょーがたにわゆやおちゃなどがでるきのーがついたものもあるが、よーじによるかしょーのひがいがでたこともあり、きんねんでわゆがでるがわのればーわいちどぼたんのよーなものをつよくおしてからでないとでないよーなあんぜんせいをたかめたものになっている。	NO_LABEL
卓上型は水道管に直結されたものと、内部にタンクを持ち、水を貯蔵するものとがある。	たくじょーがたわすいどーかんにちょっけつされたものと、ないぶにたんくをもち、みずをちょぞーするものとがある。	NO_LABEL
床置き型はすべて水道管に直結されている。	ゆかおきがたわすべてすいどーかんにちょっけつされている。	NO_LABEL
また、近年ではアメリカで主流のタンク貯蔵の床置き型もある。	また、きんねんでわあめりかでしゅりゅーのたんくちょぞーのゆかおきがたもある。	NO_LABEL
こちらは、水が入っている別体のタンクを上部にセットしておき、レバーで水を出す。	こちらわ、みずがはいっているべつたいのたんくをじょーぶにせっとしておき、ればーでみずをだす。	NO_LABEL
重力によって水を出すため、電動ポンプを必要としない。	じゅーりょくによってみずをだすため、でんどーぽんぷをひつよーとしない。	NO_LABEL
日本では、アクアクララなどがウォーターサーバーのレンタル事業を積極的に展開をしている。	にっぽんでわ、あくあくららなどがうぉーたーさーばーのれんたるじぎょーをせっきょくてきにてんかいをしている。	NO_LABEL
アメリカなどでは、水道管直結の床置き型はなく、その代わりに壁掛け型や壁埋め込み型が普及している。	あめりかなどでわ、すいどーかんちょっけつのゆかおきがたわなく、そのかわりにかべかけがたやかべうめこみがたがふきゅーしている。	NO_LABEL
日本では、主に学校や公共施設、セルフサービス式の会社や工場などの社内食堂・飲食店などにある事が多い。	NO_PRONOUNCE	NO_LABEL
かつては、0系新幹線や国鉄型特急車両などの列車内にも設けられる事が多かったが、衛生面での問題や、ミネラルウォーターの普及により、今ではほとんど見られなくなっている。	かつてわ、ぜろけいしんかんせんやこくてつがたとっきゅーしゃりょーなどのれっしゃないにももーけられることがおーかったが、えいせいめんでのもんだいや、みねらるうぉーたーのふきゅーにより、いまでわほとんどみられなくなっている。	NO_LABEL
タンク貯蔵型は、小規模病院の待合室や携帯電話販売店などにある事が多い。	たんくちょぞーがたわ、しょーきぼびょーいんのまちあいしつやけいたいでんわはんばいてんなどにあることがおーい。	NO_LABEL
アメリカでは、トイレの近くに置いてある事が非常に多い。	あめりかでわ、といれのちかくにおいてあることがひじょーにおーい。	NO_LABEL
又、日本国内においてアメリカ製の壁掛けタイプや冷却機器の壁内隠ぺいタイプは、車椅子でも利用しやすいデザインを有し、バリアフリータイプとして、日本国内の公共施設などに設置されている。	また、にほんこくないにおいてあめりかせいのかべかけたいぷやれいきゃくききのかべうちいんぺいたいぷわ、くるまいすでもりよーしやすいでざいんをゆーし、ばりあふりーたいぷとして、にほんこくないのこーきょーしせつなどにせっちされている。	NO_LABEL
国内販売されているのは、「オアシス」ブランドと「サンロック」ブランドがあるが、どちらも米国ＯＡＳＩＳ社製で	NO_PRONOUNCE	NO_LABEL
同一デザインである。	どーいちでざいんである。	NO_LABEL
ただし、国内にて国内法に適合するよう加工されており、構造は若干異なる。	ただし、こくないにてこくないほーにてきごーするよーかこーされており、こーぞーわじゃっかんことなる。	NO_LABEL
韓国では、タンク貯蔵型の冷水機が、百貨店や銀行などに多数設置されており、自由に利用することが出来る。	かんこくでわ、たんくちょぞーがたのれいすいきが、ひゃっかてんやぎんこーなどにたすーせっちされており、じゆーにりよーすることができる。	NO_LABEL
