BAZRAは、日本のスリーピースロックバンド。	ばずらわ、にっぽんのすりーぴーすろっくばんど。	NO_LABEL
1997年結成。	せんきゅうひゃくきゅうじゅうななけっせい。	NO_LABEL
LOST IN TIME、銀杏BOYZなどと交流がある。	ろすといんたいむ、ぎんなんぼーいずなどとこーりゅーがある。	NO_LABEL
2002年DAIZAWA RECORDSからインディーズデビュー。	にせんにねんだいざわれこーずからいんでぃーずでびゅー。	NO_LABEL
2005年cutting edgeからメジャーデビュー。	にせんごねんかってぃんぐえっじからめじゃーでびゅー。	NO_LABEL
2008年契約終了。	にせんはちねんけいやくしゅーりょー。	NO_LABEL
2008年『千回目の日曜日』リリース後に、井上鉄平の持病の悪化により、不定期な活動となっていたが、体調も回復して、結成20周年となる2017年の夏にニューアルバムを古巣DAIZAWA RECORDSよりリリース。	NO_PRONOUNCE	NO_LABEL
