木下薬品株式会社は、本店を奈良県奈良市福智院町22に、本社を奈良県奈良市池田町210-4に置いていた主に医薬品・医療機器の卸売りを扱う企業である。	NO_PRONOUNCE	NO_LABEL
現在は共創未来グループの一社「合同東邦」となっている。	NO_PRONOUNCE	NO_LABEL
奈良県の医薬品卸業社は「山野隆雲堂」「森田草楽堂」「浦西薬品」「山本薬品」「神田大薬局」「木下薬品」「竹利薬局」「ハザマ薬局」が主なものであった。	NO_PRONOUNCE	NO_LABEL
