株式会社CATAMARANは、東京都渋谷区に本社を置く日本のスタンドアップパドルメーカー。	かぶしきがいしゃかたまらんわ、とーきょーとしぶやくにほんしゃをおくにっぽんのすたんどあっぷぱどるめーかー。	NO_LABEL
かつては芸能プロダクションの経営を行っていた。	かつてわげいのーぷろだくしょんのけいえいをおこなっていた。	NO_LABEL
※SPROUT事業部所属者も含む	NO_PRONOUNCE	NO_LABEL
