世界の小さな国は、NHKの10分の紀行番組で、2006年4月放送開始。	せかいのちーさなくにわ、えぬえいちけいのじゅっぷんのきこーばんぐみで、にせんろくねんしがつほーそーかいし。	NO_LABEL
2007年4月からハイビジョン放送でも再放送された。	にせんななねんしがつからはいびじょんほーそーでもさいほーそーされた。	NO_LABEL
世界の小国を毎回1つずつとりあげ、人や遺跡、特産物などさまざまな視点から紹介する。	せかいのしょーこくをまいかいひとつずつとりあげ、ひとやいせき、とくさんぶつなどさまざまなしてんからしょーかいする。	NO_LABEL
40ヶ国を扱う。	NO_PRONOUNCE	NO_LABEL
