四国サッカーリーグは、日本の四国地方の4県に所在する第1種登録のクラブチームが参加するサッカーリーグである。	NO_PRONOUNCE	NO_LABEL
日本全国に9つある地域リーグの一つである。	にっぽんぜんこくにここのつあるちーきりーぐのひとつである。	NO_LABEL
日本サッカー協会の公式見解としてはJ3リーグと日本フットボールリーグを3部相当で並列させているが、JFLを4部とみなした場合は、四国リーグは5部に相当する。	にほんさっかーきょーかいのこーしきけんかいとしてわじぇいすりーりーぐとにほんふっとぼーるりーぐをさんぶそーとーでへいれつさせているが、じぇいえふえるをよんぶとみなしたばあいわ、しこくりーぐわごぶにそーとーする。	NO_LABEL
1部の優勝チームは全国地域サッカーリーグ決勝大会に出場し、各地域リーグ優勝チームと対戦。	いちぶのゆーしょーちーむわぜんこくちーきさっかーりーぐけっしょーたいかいにしゅつじょーし、かくちーきりーぐゆーしょーちーむとたいせん。	NO_LABEL
原則、上位2チームが全国リーグである日本フットボールリーグへ自動昇格、3位のチームはJFL16位チームとの入れ替え戦に進出することができるが、JFLにて降昇格や退会などの理由によりチーム数に変動があった場合、昇格枠は変更される。	NO_PRONOUNCE	NO_LABEL
なお、1976年以前は、当時の全国リーグであった日本サッカーリーグへの昇格は、全国社会人サッカー選手権大会の成績により決定していた。	なお、せんきゅうひゃくななじゅうろくねんいぜんわ、とーじのぜんこくりーぐであったにほんさっかーりーぐえのしょーかくわ、ぜんこくしゃかいじんさっかーせんしゅけんたいかいのせいせきによりけっていしていた。	NO_LABEL
1977年以降、全国リーグへの昇格権利は、同年に新設された 前述の全国地域リーグ決勝大会に移行された。	せんきゅうひゃくななじゅうななねんいこー、ぜんこくりーぐえのしょーかくけんりわ、どーねんにしんせつされたぜんじゅつのぜんこくちーきりーぐけっしょーたにいこーされた。	NO_LABEL
しかし、2006年以降、全国社会人サッカー選手権大会の上位チームにも全国地域サッカーリーグ決勝大会への出場権が付与されたため、四国リーグを含む地域リーグの1部優勝チームのみならず、リーグ下位チームや下部カテゴリである都道府県リーグのチームにもJFL昇格への門戸が広がった。	しかし、にせんろくねんいこー、ぜんこくしゃかいじんさっかーせんしゅけんたいかいのじょーいちーむにもぜんこくちーきさっかーりーぐけっしょーたいかいえのしゅつじょーけんがふよされたため、しこくりーぐをふくむちーきりーぐのいちぶゆーしょーちーむのみならず、りーぐかいちーむやかぶかてごりであるとどーふけんりーぐのちーむにもじぇいえふえるしょーかくえのもんこがひろがった。	NO_LABEL
また、各地域リーグ優勝チームと全社上位枠で出場チーム数が定数に達しなかった場合、登録チーム数が多い地域の2位チームが出場できる。	また、かくちいきりーぐゆうしょーちーむとぜんしゃじょーいわくでしゅつじょーちーむすーがていすーにたっしなかったばあい、とーろくちーむすーがおーいちいきのにーちーむがしゅつじょーできる。	NO_LABEL
