ガス室は毒ガスによって中に入れられたものを殺傷する密閉された部屋。	がすしつわどくがすによってなかにいれられたものをさっしょーするみっぺいされたへや。	NO_LABEL
ナチス・ドイツが絶滅収容所で用いたとされる。	なちすどいつがぜつめつしゅーよーじょでもちいたとされる。	NO_LABEL
使用されたのは、主に燻蒸殺虫剤のチクロンBで天井の穴から投げ込まれたとされ、犠牲者が死に絶えるまで、20分ほどだったという。	しよーされたのわ、おもにくんじょーさっちゅーざいのちくろんびーでてんじょーのあなからなげこまれたとされ、ぎせいしゃがしにたえるまで、にじゅっぷんほどだったという。	NO_LABEL
なお、「チクロンBは殺虫剤に過ぎず、連続的大量殺人は不可能である。	NO_PRONOUNCE	NO_LABEL
ナチスによるユダヤ人殺害にガス室は用いられていない」と主張する者も存在する。	NO_PRONOUNCE	NO_LABEL
アメリカ合衆国のいくつかの州では、ガス室による死刑を執行している。	あめりかがっしゅーこくのいくつかのしゅーでわ、がすしつによるしけいをしっこーしている。	NO_LABEL
死刑囚は密閉されたガス室内の椅子に固縛され、外部操作によって椅子の下に置かれた硫酸容器の中に青酸ナトリウムが落ちると、青酸ガスが発生し、死刑囚を死に至らしめる。	しけいしゅーわみっぺいされたがすしつないのいすにかたばくされ、がいぶそーさによっていすのしたにおかれたりゅーさんよーきのなかにせいさんなとりゅーむがおちると、せいさんがすがはっせいし、しけいしゅーをしにいたらしめる。	NO_LABEL
あらかじめ装着された長い聴診器により、外部から医師が死を判定する。	あらかじめそーちゃくされたながいちょーしんきにより、がいぶからいしがしをはんていする。	NO_LABEL
判事や許可を受けた報道関係者に見えるように、ガラスの大きな窓を備えている。	はんじやきょかをうけたほーどーかんけいしゃにみえるよーに、がらすのおーきなまどをそなえている。	NO_LABEL
1979年公開のアメリカのドキュメント映画「ジャンク 死と惨劇」には、実際の死刑囚に対するガス処刑風景が記録されており、処刑時の死刑囚の様子を見ることが出来る。	NO_PRONOUNCE	NO_LABEL
執行後のガス室は壁面に付着した青酸ガス成分を除去するため、毎回の洗浄作業が必要となる。	しっこーごのがすしつわへきめんにふちゃくしたせいさんがすせいぶんをじょきょするため、まいかいのせんじょーさぎょーがひつよーとなる。	NO_LABEL
この作業に対する防護措置、危険手当、各種消耗品等の負担は大きく、現在のアメリカにおいて最もハイコストな死刑方法である。	このさぎょーにたいするぼーごそち、きけんてあて、かくしゅしょーもーひんとーのふたんわおーきく、げんざいのあめりかにおいてもっともはいこすとなしけいほーほーである。	NO_LABEL
実際、1999年以降ガス室による処刑は行われていない。	じっさい、せんきゅうひゃくきゅうじゅうきゅうねんいこーがすしつによるしょけいわおこなわれていない。	NO_LABEL
家畜を安全、能率的かつ安価に屠殺するためガス室が使用されている。	かちくをあんぜん、のーりつてきかつあんかにとさつするためがすしつがしよーされている。	NO_LABEL
また、飼い主に捨てられた犬猫などのペット動物を殺処分する場合に用いられることもある。	また、かいぬしにすてられたいぬねこなどのぺっとどーぶつをさつしょぶんするばあいにもちいられることもある。	NO_LABEL
有毒ガスではなく二酸化炭素を用いるケースが多い。	ゆーどくがすでわなくにさんかたんそをもちいるけーすがおーい。	NO_LABEL
動物は充満した二酸化炭素により、イヌでは30〜40％CO2と酸素により1、2分間で麻酔導入され、ネコでは60％CO2の吸入で45秒後に意識を消失し、5分以内に呼吸が停止する。	NO_PRONOUNCE	NO_LABEL
これらのガス室は「ドリームボックス」と呼ばれることがある。	NO_PRONOUNCE	NO_LABEL
二酸化炭素の使用は米国獣医学会においても適切な手段のうちのひとつとされる。	にさんかたんそのしよーわべいこくじゅーいがっかいにおいてもてきせつなしゅだんのうちのひとつとされる。	NO_LABEL
死亡後の遺体はそのまま焼却炉へと落とされ、焼却処分される。	しぼーごのいたいわそのまましょーきゃくろえとおとされ、しょーきゃくしょぶんされる。	NO_LABEL
焼却処分の後、遺骨は粉砕処理され、産業廃棄物処理業者へと引き渡される。	しょーきゃくしょぶんののち、いこつわふんさいしょりされ、さんぎょーはいきぶつしょりぎょーしゃえとひきわたされる。	NO_LABEL
このような方法に対して反対する者もいる。	このよーなほーほーにたいしてはんたいするものもいる。	NO_LABEL
