西谷墳墓群は、島根県出雲市大津町字西谷にある弥生時代後期から古墳時代前期の墳墓群。	にしだにふんぼぐんわ、しまねけんいずもしおーつちょーじにしだににあるやよいじだいこーきからこふんじだいぜんきのふんぼぐん。	NO_LABEL
国の史跡。	くにのしせき。	NO_LABEL
出雲市街南東部の標高40メートル程度の丘陵に存在する。	いずもしがいなんとーぶのしるべこーよんぜろめーとるていどのきゅーりょーにそんざいする。	NO_LABEL
弥生時代後期から古墳時代前期にかけての2世紀末から3世紀に築造されたと考えられている。	やよいじだいこーきからこふんじだいぜんきにかけてのにせいきまつからさんせいきにちくぞーされたとかんがえられている。	NO_LABEL
1953年に確認され、現在は27号までと番外5号までの32基の墳墓、古墳と横穴墓が確認されている。	せんきゅうひゃくごじゅうさんねんにかくにんされ、げんざいわにじゅうななごーまでとばんがいごごーまでのさんじゅうにきのふんぼ、こふんとおうけつぼがかくにんされている。	NO_LABEL
このうち、1～4・6・9号の6基が四隅突出型墳丘墓である。	NO_PRONOUNCE	NO_LABEL
四隅突出型墳丘墓は出雲地方を中心とした特徴的な形をした弥生時代の墳丘墓で、この西谷墳墓群や安来市の荒島墳墓群に巨大なものが見られる。	よすみとっしゅつがたふんきゅーぼわいずもちほーをちゅーしんとしたとくちょーてきなかたちをしたやよいじだいのふんきゅーぼで、このにしだにふんぼぐんややすぎしのあらしまふんぼぐんにきょだいなものがみられる。	NO_LABEL
1983年より1992年までの10年にわたり島根大学考古学研究室を主体に3号墓を中心に発掘調査が行われ、水銀朱や弥生土器が出土し祭祀の跡も確認された。	せんきゅうひゃくはちじゅうさんねんよりせんきゅうひゃくきゅうじゅうにねんまでのじゅうねんにわたりしまねだいがくこーこがくけんきゅーしつをしゅたいにさんごーはかをちゅーしんにはっくつちょーさがおこなわれ、すいぎんしゅややよいどきがしゅつどしさいしのあともかくにんされた。	NO_LABEL
これらの様子からこの時代の出雲地方に「王」が存在したことがうかがえる。	NO_PRONOUNCE	NO_LABEL
2000年に国の史跡に指定された。	にせんねんにくにのしせきにしていされた。	NO_LABEL
現在、1号墓～6号墓の並ぶ丘陵は「西谷墳墓群史跡公園・出雲弥生の森」として整備が進められている。	NO_PRONOUNCE	NO_LABEL
１～4・6・9号の6基については、四隅突出型墳丘墓である。	NO_PRONOUNCE	NO_LABEL
これらは斜面に葺き石が施されていた。	これらわしゃめんにふきせきがほどこされていた。	NO_LABEL
その他、5・7・8号など18基の方形墳丘墓、11・25号など4基の円形墳丘墓が確認されており、2号墓東側斜面には横穴墓群がある。	NO_PRONOUNCE	NO_LABEL
以下、各四隅突出型墳丘墓を中心に記述する。	いか、かくよすみとっしゅつがたふんきゅーぼをちゅーしんにきじゅつする。	NO_LABEL
南側部のみが確認されており、規模は不明。	みなみがわぶのみがかくにんされており、きぼわふめい。	NO_LABEL
方形部南北35メートル×東西24メートルの長方形四隅突出型墳丘墓。	NO_PRONOUNCE	NO_LABEL
斜面に葺き石が施されていることが確認された。	しゃめんにふきせきがほどこされていることがかくにんされた。	NO_LABEL
ガラス腕輪が発見されている。	がらすうでわがはっけんされている。	NO_LABEL
島根大学によって発掘調査された。	しまねだいがくによってはっくつちょーさされた。	NO_LABEL
方形部は東西40メートル×南北30メートル、高さ4.5メートル、突出部の付け根の幅7～8メートル、長さ6～7メートルの幅広大形で、中期後葉にはささやかな突出部であったが、後期後葉になると大きく幅広い突出部に発達している。	NO_PRONOUNCE	NO_LABEL
この突出部上面が墳頂への墓道と考えられている。	このとっしゅつぶうわつらがふんちょーえのはかどーとかんがえられている。	NO_LABEL
斜面は貼石で覆われ、突出部から墳頂にかけての稜線部分は石を敷き詰めた道のようになっており、墳丘頂上には、八つの埋葬施設があり、首長とその家族のためのいくつかの墓壙が掘られていた。	しゃめんわはいしでおおわれ、とっしゅつぶからふんちょーにかけてのりょーせんぶぶんわいしをしきつめたみちのよーになっており、ふんきゅーちょーじょーにわ、やっつのまいそーしせつがあり、しゅちょーとそのかぞくのためのいくつかのはかはらがほられていた。	NO_LABEL
そのうちの最大の墓壙の上には4つの柱穴が検出されており、何らかの施設があったものと考えられている。	そのうちのさいだいのはかはらのうえにわよっつのちゅうけつがけんしゅつされており、なんらかのしせつがあったものとかんがえられている。	NO_LABEL
その墓壙から他地域からの搬入されたものも多数含まれている。	そのはかはらからたちいきからのはんにゅーされたものもたすーふくまれている。	NO_LABEL
方形周溝型弥生墳丘墓の周溝の堀残し部分が渡り土堤で出入り口になっており、それが四隅突出型弥生墳丘墓の突出部と関するのではないかとの考えも出されている。	ほーけいしゅーみぞがたやよいふんきゅーぼのしゅーみぞのほりのこしぶぶんがわたりどてででいりぐちになっており、それがよすみとっしゅつがたやよいふんきゅーぼのとっしゅつぶとかんするのでわないかとのかんがえもだされている。	NO_LABEL
9号墓に次ぐ規模の四隅突出型弥生墳丘墓である。	きゅうごーはかにつぐきぼのよすみとっしゅつがたやよいふんきゅーぼである。	NO_LABEL
江戸時代には仏教施設があり周囲に基壇が設けられていた。	えどじだいにわぶっきょーしせつがありしゅーいにきだんがもーけられていた。	NO_LABEL
1983年より詳細な調査が行われ、上部に首長が埋葬された第1主体があり、脇にその家族が被葬された第4主体がある。	NO_PRONOUNCE	NO_LABEL
第1主体には深さ1メートルで二重の構造の土壙が掘られ、木棺の外側に木槨をもつものである。	NO_PRONOUNCE	NO_LABEL
木棺内は水銀朱が敷きつめられており、大型22個、小型25個程の碧玉製管玉の他に、ガラス小玉100個以上とコバルトブルーのガラス製勾玉2個、玉、鉄剣が発掘された。	NO_PRONOUNCE	NO_LABEL
埋土上から二百数十個の土器が検出されている。	うまつちがみからにひゃくすーじゅーこのどきがけんしゅつされている。	NO_LABEL
この土器のなかには吉備の特殊器台・特殊壺や北陸地方の土器に似ているものが多い。	このどきのなかにわきびのとくしゅきだいとくしゅつぼやほくりくちほーのどきににているものがおーい。	NO_LABEL
墓穴の周囲に4箇所の柱穴が検出された。	NO_PRONOUNCE	NO_LABEL
この柱穴は首長の葬送の際に建てられた葬祭用四阿で、次期首長候補を中心に葬儀が執り行われたと推定されている。	このちゅうけつわしゅちょーのそーそーのさいにたてられたそーさいよーあずまやで、じきしゅちょーこーほをちゅーしんにそーぎがとりおこなわれたとすいていされている。	NO_LABEL
現在、斜面に葺き石が施されるなど築造当時の姿に復元作業が行われている。	げんざい、しゃめんにふきせきがほどこされるなどちくぞーとーじのすがたにふくげんさぎょーがおこなわれている。	NO_LABEL
方形部は東西32メートル×南北26メートル。	NO_PRONOUNCE	NO_LABEL
この墳墓群の中で最初に確認された墳墓で、1953年の造成工事の際に墳墓であることが確認された。	このふんぼぐんのなかでさいしょにかくにんされたふんぼで、せんきゅうひゃくごじゅうさんねんのぞーせいこーじのさいにふんぼであることがかくにんされた。	NO_LABEL
この墳墓にも斜面に葺き石が施されている。	このふんぼにもしゃめんにふきせきがほどこされている。	NO_LABEL
地元産の壺などの大量の土器、吉備産の特殊土器が発掘された。	じもとさんのつぼなどのたいりょーのどき、きびさんのとくしゅどきがはっくつされた。	NO_LABEL
2世紀末に築造されたと推定される。	にせいきまつにちくぞーされたとすいていされる。	NO_LABEL
規模は22メートル×17メートル、高さ2メートル程度の方形または楕円形の墳墓と推定されている。	NO_PRONOUNCE	NO_LABEL
築造年代は不明。	ちくぞーねんだいわふめい。	NO_LABEL
一部が確認されており、規模は不明である。	いちぶがかくにんされており、きぼわふめいである。	NO_LABEL
古墳時代に入り築造された方墳もしくは前方後方墳と推定される。	こふんじだいにはいりちくぞーされたほーふんもしくわぜんぽーこうえんふんとすいていされる。	NO_LABEL
方形部は東西42メートル×南北35メートル、高さ5メートル、この墳墓群中最大規模の四隅突出型墳丘墓である。	NO_PRONOUNCE	NO_LABEL
墳頂には三谷神社が祀られている。	ふんちょーにわみたにじんじゃがまつられている。	NO_LABEL
2000年3月、国の史跡に指定される。	にせんねんさんがつ、くにのしせきにしていされる。	NO_LABEL
3号墓の南隣にある。	さんごーはかのなんりんにある。	NO_LABEL
墳丘の西側と南側は原形を留めていない。	ふんきゅーのにしがわとみなみがわわげんけいをとめていない。	NO_LABEL
一辺8メートル程度の方墳または円墳と推察される。	NO_PRONOUNCE	NO_LABEL
幅70センチメートル、深さ40センチメートルの土壙が一部に確認されており周囲に廻っていたと推定される。	はばななじゅうせんちめーとる、ふかさよんじゅうせんちめーとるのどはらがいちぶにかくにんされておりしゅーいにまわっていたとすいていされる。	NO_LABEL
土壙より弥生時代終末期の3世紀前半の土器が発掘されておりこの時期に築造されたと推定されている。	どはらよりやよいじだいしゅーまつきのさんせいきぜんはんのどきがはっくつされておりこのじきにちくぞーされたとすいていされている。	NO_LABEL
