岩手県警察は、岩手県が設置した警察組織。	いわてけんけいさつわ、いわてけんがせっちしたけいさつそしき。	NO_LABEL
岩手県内を管轄区域とし、岩手県警と略称する。	いわてけんないをかんかつくいきとし、いわてけんけいとりゃくしょーする。	NO_LABEL
警察法上、岩手県公安委員会の管理を受けるが、給与支払者は岩手県知事である。	けいさつほーじょー、いわてけんこーあんいーんかいのかんりをうけるが、きゅーよしはらいしゃわいわてけんちじである。	NO_LABEL
また警察庁東北管区警察局の管理を受ける。	またけいさつちょーとーほくかんくけいさつきょくのかんりをうける。	NO_LABEL
本部所在地は盛岡市内丸8-10。	NO_PRONOUNCE	NO_LABEL
2009年4月現在。	にせんきゅうねんしがつげんざい。	NO_LABEL
警察署数は16。	NO_PRONOUNCE	NO_LABEL
警察車両ナンバー地名表記は以前は全て「岩手」だったが、2014年11月17日より岩手県下でも「ご当地ナンバー」制度が導入された。	NO_PRONOUNCE	NO_LABEL
これに伴い盛岡東・盛岡西・紫波3署管内登録車には「盛岡」ナンバーが、水沢・一関・千厩4署管内登録車には「平泉」ナンバーがそれぞれ交付され、これら警察署に配置されている車両は今後の更新時に「盛岡」及び「平泉」ナンバーへと置き換わる。	NO_PRONOUNCE	NO_LABEL
岩手県は寒冷地域ではあるものの、日本海側ほど積雪量は多くない。	いわてけんわかんれいちいきでわあるものの、にほんかいがわほどせきせつりょうわおーくない。	NO_LABEL
このため車両用の信号機は県内全域で横型を採用しており、縦型は秋田県寄りの西和賀町や、狭い道路の交差点で用いられる程度である。	このためしゃりょーよーのしんごうきわけんないぜんいきでよこがたをさいよーしており、たてがたわあきたけんよりのにしわがまちや、せまいどーろのこーさてんでもちいられるていどである。	NO_LABEL
メーカーはコイト電工・京三製作所・日本信号・信号電材・オムロン・松下通信工業が主体だが、近年は星和電機製のLED信号機も採用し始めている。	NO_PRONOUNCE	NO_LABEL
従来より設置されている樹脂製灯器は青森県警・秋田県警・山形県警・愛知県警・奈良県警・大阪府警等が採用しているのと同タイプである。	NO_PRONOUNCE	NO_LABEL
これに対しLED灯器は全て金属製であり、愛知県警のような樹脂LEDはない。	これにたいしえるいーでぃーとーきわすべてきんぞくせいであり、あいちけんけいのよーなじゅしえるいーでぃーわない。	NO_LABEL
なお、岩手県警の場合、灯器の裏側に製造年を示すアルファベット2文字が書かれたシールが貼られている。	NO_PRONOUNCE	NO_LABEL
音響式信号機は設置費用の一部が1978年以来毎年12月24・25両日にIBCラジオで放送されている「ラジオチャリティーミュージックソン」の募金で賄われており、それにより設置された音響信号機には「IBCラジソン通りゃんせ基金より贈呈」と書かれた青色ステッカーが貼られている。	NO_PRONOUNCE	NO_LABEL
自動車警ら・交通機動・高速隊用パトカーは大半がトヨタ・クラウン・ゼロクラウンや日産・クルー、ミニパトは主に日産・キューブやスズキ・スイフト・ワゴンR、トヨタ・プラッツ・プリウス、事故処理車はトヨタ・ハイエースやランドクルーザー等が多く用いられている。	NO_PRONOUNCE	NO_LABEL
捜査用車両では日産・エルグランド・ティアナ・キャラバン、トヨタ・アルファード・ノア・ハイエース、ホンダ・ステップワゴンなどが用いられている。	NO_PRONOUNCE	NO_LABEL
また最近導入された警察車両はブレーキランプや方向指示ランプがLED化されている。	またさいきんどーにゅーされたけいさつしゃりょーわぶれーきらんぷやほーこーしじらんぷがえるいーでぃーかされている。	NO_LABEL
なお警察車両のナンバープレート地名表記は県内全署「岩手」である。	NO_PRONOUNCE	NO_LABEL
