第13代ウォリック伯爵リチャード・ド・ビーチャムは、イングランドの貴族、軍人。	NO_PRONOUNCE	NO_LABEL
百年戦争におけるイングランド軍の指揮官の一人。	ひゃくねんせんそーにおけるいんぐらんどぐんのしきかんのひとり。	NO_LABEL
1382年1月25日か28日、第12代ウォリック伯爵トマス・ド・ビーチャムとその妻マーガレットの長男としてウスターシャー・に生まれる。	NO_PRONOUNCE	NO_LABEL
1399年のヘンリー4世の戴冠式の際、19歳にしてバス騎士団ナイトに叙された。	せんさんびゃくきゅうじゅうきゅうねんのへんりーよんせいのたいかんしきのさい、じゅうきゅうさいにしてばすきしだんないとにじょされた。	NO_LABEL
1401年4月8日に父が死去し、第13代ウォリック伯位を継承した。	せんよんひゃくいちねんしがつようかにちちがしきょし、だいじゅうさんだいうぉりっくはくいをけいしょーした。	NO_LABEL
所領はウスターシャー・ウォリックシャーを中心に18州にも及ぶ広大な領土だった上、2度の結婚で更に領土を増やし大貴族としての地位を確立した。	NO_PRONOUNCE	NO_LABEL
青年時代から一貫してランカスター王家のために行動した。	せいねんじだいからいっかんしてらんかすたーおーけのためにこーどーした。	NO_LABEL
1403年のでヘンリー・パーシー軍と戦い、国王軍の勝利に貢献した。	せんよんひゃくさんねんのでへんりーぱーしーぐんとたたかい、こくおーぐんのしょーりにこーけんした。	NO_LABEL
さらにウェールズに転戦してオワイン・グリンドゥール軍の掃討作戦にも参加した。	さらにうぇーるずにてんせんしておわいんぐりんどぅーるぐんのそーとーさくせんにもさんかした。	NO_LABEL
1403年にガーター騎士団ナイトに叙せられたといわれているが、彼のガーター騎士叙任年には異論もある。	せんよんひゃくさんねんにがーたーきしだんないとにじょせられたといわれているが、かれのがーたーきしじょにんねんにわいろんもある。	NO_LABEL
1408年にはヨーロッパ各地やエルサレムの聖地巡礼を行った。	せんよんひゃくはちねんにわよーろっぱかくちやえるされむのせいちじゅんれいをおこなった。	NO_LABEL
パリにも訪問し、シャルル6世の歓待を受けた。	NO_PRONOUNCE	NO_LABEL
1414年にはロラード派の反乱の鎮圧に参加している。	せんよんひゃくじゅうよんねんにわろらーどはのはんらんのちんあつにさんかしている。	NO_LABEL
1413年にヘンリー5世が即位するとその側近となる。	せんよんひゃくじゅうさんねんにへんりーごせいがそくいするとそのそっきんとなる。	NO_LABEL
1415年から再開された百年戦争でもヘンリー5世に従ってフランスに出陣し、指揮権を任されてフランス軍に対して連勝を重ねた。	せんよんひゃくじゅうごねんからさいかいされたひゃくねんせんそーでもへんりーごせいにしたがってふらんすにしゅつじんし、しきけんをまかされてふらんすぐんにたいしてれんしょーをかさねた。	NO_LABEL
1420年のトロワ条約締結に至る環境作りに大きく貢献した。	せんよんひゃくにじゅうねんのとろわじょーやくていけつにいたるかんきょーずくりにおーきくこーけんした。	NO_LABEL
1427年には婿のジョン・タルボットらと共にモンタルジへの出兵の指揮を執っているがフランス軍に敗退している。	せんよんひゃくにじゅうななねんにわむこのじょんたるぼっとらとともにもんたるじえのしゅっぺいのしきをとっているがふらんすぐんにはいたいしている。	NO_LABEL
1428年から開始されたオルレアン包囲戦は、主戦派のウォリック伯と第4代ソールズベリー伯トマス・モンタキュートが摂政ベッドフォード公ジョンにゴリ押しした作戦だったという。	NO_PRONOUNCE	NO_LABEL
しかし、11月にソールズベリー伯が戦死して包囲戦は停滞、翌1429年にジャンヌ・ダルクの活躍で包囲網が崩壊して作戦は失敗した。	しかし、じゅーいちがつにそーるずべりーはくがせんししてほーいせんわていたい、よくせんよんひゃくにじゅうきゅうねんにじゃんぬだるくのかつやくでほーいもーがほーかいしてさくせんわしっぱいした。	NO_LABEL
1427年以来、ルーアンの総督を務めており、捕虜になったジャンヌが1430年12月23日にルーアンに連行されてきた際には、ブーヴルイユ城で彼女と対面した。	NO_PRONOUNCE	NO_LABEL
ジャンヌと彼の関係はわからないが、ジャンヌはこの城で囚人扱いを受けており、それを命じたのがウォリック伯であることに疑問の余地はない。	じゃんぬとかれのかんけいわわからないが、じゃんぬわこのしろでしゅーじんあつかいをうけており、それをめいじたのがうぉりっくはくであることにぎもんのよちわない。	NO_LABEL
一方、ジャンヌの処刑から2ヶ月後の1431年8月11日にジャン・ポトン・ド・ザントライユもブーヴルイユ城へ収容されたが、こちらはタルボットとの捕虜交換の目論見があったため優遇している。	NO_PRONOUNCE	NO_LABEL
1428年には幼王ヘンリー6世の教育係に任命されている。	NO_PRONOUNCE	NO_LABEL
1437年にはノルマンディー及びフランスの総督に任命されたが、1439年4月30日にルーアンで死去した。	せんよんひゃくさんじゅうななねんにわのるまんでぃーおよびふらんすのそーとくににんめいされたが、せんよんひゃくさんじゅうきゅうねんしがつさんじゅうにちにるーあんでしきょした。	NO_LABEL
遺体はイングランドへ搬送され、ウォリックの教会に葬られた。	いたいわいんぐらんどえはんそーされ、うぉりっくのきょーかいにほーむられた。	NO_LABEL
ウォリック伯位は後妻との間の息子に受け継がれ、1445年にヘンリーは公爵に昇叙されたが翌1446年に急死、孫娘でウォリック伯位を継いだも1449年に死亡、伯位は同名の叔母でヘンリーの妹の夫リチャード・ネヴィルに受け継がれていった。	NO_PRONOUNCE	NO_LABEL
1401年4月8日に父から以下の爵位を継承した。	せんよんひゃくいちねんしがつようかにちちからいかのしゃくいをけいしょーした。	NO_LABEL
1397年にイギリス一の資産家の女子相続人であると結婚した。	せんさんびゃくきゅうじゅうななねんにいぎりすいちのしさんかのじょしそーぞくじんであるとけっこんした。	NO_LABEL
彼女は第5代と第3代マーガレット・ド・リールの間の娘であり、母から第4代リール女男爵位、父から第6代バークリー女男爵位を継承した。	NO_PRONOUNCE	NO_LABEL
彼女との間に以下の三女を儲けたが、そのためにエリザベスの保有する2つの男爵位は誰にも継承させられず、彼女の死とともに休止状態となった	かのじょとのまにいかのさんじょをもーけたが、そのためにえりざべすのほゆーするふたつのだんしゃくいわだれにもけいしょーさせられず、かのじょのしとともにきゅーしじょーたいとなった	NO_LABEL
エリザベスと死別した後の1423年にグロスター伯の娘で第5代と結婚した。	えりざべすとしべつしたのちのせんよんひゃくにじゅうさんねんにぐろすたーはくのむすめでだいごだいとけっこんした。	NO_LABEL
彼女も資産家である。	かのじょもしさんかである。	NO_LABEL
彼女との間に以下の1男1女を儲ける。	NO_PRONOUNCE	NO_LABEL
