THAI FIGHTは、2010年からタイでスタートした大規模なムエタイの大会である。	NO_PRONOUNCE	NO_LABEL
日本総責任者はセンチャイジム会長であるセーンチャイ・トングライセーン。	NO_PRONOUNCE	NO_LABEL
2000年代に入って以降、経済成長が著しいタイでは、もともとは賭けの対象で、貧困層のスポーツとみなされていたムエタイから一般層が離れている傾向がある。	にせんねんだいにはいっていこー、けいざいせいちょーがいちじるしいたいでわ、もともとわかけのたいしょーで、ひんこんそーのすぽーつとみなされていたむえたいからいっぱんそーがはなれているけいこーがある。	NO_LABEL
そこで、国技であるムエタイの隆盛を目指すため、タイ政府も協力し、より広い層にエンターテインメントとして楽しめる競技を国を挙げて目指してTHAI FIGHTは発足された。	NO_PRONOUNCE	NO_LABEL
大会の様子はタイのテレビ局である3チャンネルで生中継され、トーナメントの優勝者には賞金200万バーツとスポンサーであるISUZUのピックアップトラック1台が与えられる 。	NO_PRONOUNCE	NO_LABEL
2011年には日本を含む世界5カ国で大規模な興行を実施する予定である	NO_PRONOUNCE	NO_LABEL
試合にはタイ人だけでなく、世界中のナックモエが出場している。	しあいにわたいじんだけでなく、せかいじゅーのなっくもえがしゅつじょーしている。	NO_LABEL
通常のムエタイは3分5ラウンド制だが、THAI FIGHTでは3分3ラウンド制を採用。	NO_PRONOUNCE	NO_LABEL
そのため、通常のムエタイよりもパンチの打ち合いなども多く、試合がアグレッシブなものとなっている。	そのため、つーじょーのむえたいよりもぱんちのうちあいなどもおーく、しあいがあぐれっしぶなものとなっている。	NO_LABEL
THAI FIGHTのプロモーターであるアカポン・アンマニーは、「THAI FIGHTではTHAI FIGHTのスタイルで試合をすべきであり、通常のムエタイスタイルの試合は嫌いだ。	NO_PRONOUNCE	NO_LABEL
そういう試合をする選手は試合後に呼び出して注意する」と言う旨の発言を日本のメディアのインタビューでしている。	NO_PRONOUNCE	NO_LABEL
選手は黒か白のいずれかの色の同じデザインのトランクスと、黒か白のグローブを着用して闘う。	せんしゅわくろかしろのいずれかのいろのおなじでざいんのとらんくすと、くろかしろのぐろーぶをちゃくよーしてたたかう。	NO_LABEL
大会の開会式では古式ムエタイの舞や、タイの音楽の演奏などもあり、エンターテインメント性が高い大会となっている。	たいかいのかいかいしきでわこしきむえたいのまいや、たいのおんがくのえんそーなどもあり、えんたーていんめんとせいがたかいたいかいとなっている。	NO_LABEL
