サンダンスキはブルガリア南西部の町、およびそれを中心とした基礎自治体。	さんだんすきわぶるがりあなんせいぶのまち、およびそれをちゅーしんとしたきそじちたい。	NO_LABEL
ブラゴエヴグラト州に属する。	NO_PRONOUNCE	NO_LABEL
1949年までの旧称はスヴェティ・ブラチ。	NO_PRONOUNCE	NO_LABEL
革命組織内部マケドニア革命組織の指導者のひとりであったブルガリアの革命家ヤネ・サンダンスキにちなんで命名された。	NO_PRONOUNCE	NO_LABEL
ピリン山脈のふもと、サンダンスカ・ビストリツァ川の両岸に広がっている。	NO_PRONOUNCE	NO_LABEL
またサンダンスキは紀元前73年から紀元前71年にかけて反乱を起こしたローマ帝国の奴隷スパルタクスの出身地である。	またさんだんすきわきげんぜんななじゅうさんねんからきげんぜんななじゅういちねんにかけてはんらんをおこしたろーまていこくのどれいすぱるたくすのしゅっしんちである。	NO_LABEL
サンダンスキは地理的、気候的条件に恵まれ、ブルガリアで最も年間平均気温は高く、鉱泉も湧き出ているため、サンダンスキはブルガリアでは保養観光地として名高い。	さんだんすきわちりてき、きこーてきじょーけんにめぐまれ、ぶるがりあでもっともねんかんへいきんきおんわたかく、こーせんもわきでているため、さんだんすきわぶるがりあでわほよーかんこーちとしてなだかい。	NO_LABEL
サンダンスキ基礎自治体が存在している。	さんだんすききそじちたいがそんざいしている。	NO_LABEL
