石角悠起は、日本のプロボクサー。	いしずみゆーきわ、にっぽんのぷろぼくさー。	NO_LABEL
大阪府枚方市出身。	おーさかふひらかたししゅっしん。	NO_LABEL
階級はフェザー級。	かいきゅーわふぇざーきゅー。	NO_LABEL
デビュー当時は大阪帝拳ジム所属。	でびゅーとーじわおーさかていけんじむしょぞく。	NO_LABEL
2009年よりフリーとなったが2011年10月から大阪天神ボクシングジムとマネージメント契約を結ぶ。	にせんきゅうねんよりふりーとなったがにせんじゅういちねんじゅーがつからおーさかてんじんぼくしんぐじむとまねーじめんとけいやくをむすぶ。	NO_LABEL
大阪帝拳ジムでボクシングを始めるが、タイバンコクに渡り、現地のプロライセンス取得。	おーさかていけんじむでぼくしんぐをはじめるが、たいばんこくにわたり、げんちのぷろらいせんすしゅとく。	NO_LABEL
2006年10月9日、大阪市内でデビュー戦を行い、1Rバッティングにより試合続行不可能となりドロー。	NO_PRONOUNCE	NO_LABEL
JBCでの日本国内戦績は、1勝4負1引き分けとし引退する。	NO_PRONOUNCE	NO_LABEL
2010年6月13日に守口ロイヤルパインズホテルでの山口賢一の凱旋試合でフリーデビュー。	にせんじゅうねんろくがつじゅうさんにちにもりぐちろいやるぱいんずほてるでのやまぐちけんいちのがいせんしあいでふりーでびゅー。	NO_LABEL
3回TKO勝利。	さんかいてぃーけーおーしょーり。	NO_LABEL
2011年9月17日中国天津でWBOユースタイトルマッチ決定戦に出場し10R判定負け	NO_PRONOUNCE	NO_LABEL
その後タイバンコクラジャスタジアムで3戦2勝1負としタイ国内ランキングSフェザー級2位にランクする。	NO_PRONOUNCE	NO_LABEL
2012年12月30日空位のSフェザー級のタイ国内タイトル戦でフルマークの判定勝ちをし日本人初のフリー選手でのチャンピオンになる。	NO_PRONOUNCE	NO_LABEL
その後帰国。	そのごきこく。	NO_LABEL
2013年8月11日大阪ナスキーホールで凱旋試合をし見事3RTKO勝ちを収める。	にせんじゅうさんねんはちがつじゅういちにちおーさかなすきーほーるでがいせんしあいをしみごとすりーあーるてぃーけーおーがちをおさめる。	NO_LABEL
現在は某パチンコ店で働きながらトレーニングをしている。	げんざいわぼーぱちんこてんではたらきながらとれーにんぐをしている。	NO_LABEL
