伏見 譲は、日本の物理学者、生物物理学者、進化分子工学者である。	ふしみゆずるわ、にっぽんのぶつりがくしゃ、せいぶつぶつりがくしゃ、しんかぶんしこーがくしゃである。	NO_LABEL
東京都出身。	とーきょーとしゅっしん。	NO_LABEL
東京大学理学部卒業、東京大学大学院博士課程中退。	とーきょーだいがくりがくぶそつぎょー、とーきょーだいがくだいがくいんはかせかていちゅーたい。	NO_LABEL
伏見譲は、東京大学物理学科卒の物理学者だが、生物物理、進化分子工学へと移行し、現在では日本の進化分子工学の権威である。	ふしみゆずるわ、とーきょーだいがくぶつりがっかそつのぶつりがくしゃだが、せいぶつぶつり、しんかぶんしこーがくえといこーし、げんざいでわにっぽんのしんかぶんしこーがくのけんいである。	NO_LABEL
特に進化可能性理論分野を得意とする。	とくにしんかかのーせいりろんぶんやをとくいとする。	NO_LABEL
また、ファージを使った蛋白質進化観測機械セルスタットを時代に先駆けて1982年に開発している。	また、ふぁーじをつかったたんぱくしつしんかかんそくきかいせるすたっとをじだいにさきがけてせんきゅうひゃくはちじゅうにねんにかいはつしている。	NO_LABEL
更にファージを用いた進化リアクターの究極形として"in vitro" virusを1993年に提唱した。	NO_PRONOUNCE	NO_LABEL
尚、本人はアルファベットで名前を綴るときにはYuzuru Husimiとするので検索の際には注意が必要である。	NO_PRONOUNCE	NO_LABEL
父親は著名な物理学者であり参議院議員も勤めた伏見康治である。	ちちおやわちょめいなぶつりがくしゃでありさんぎーんぎーんもつとめたふしみこーじである。	NO_LABEL
J Theor Biol. 2003 Jan 7;220:107-21.	NO_PRONOUNCE	NO_LABEL
