マルディン県はトルコ南東部、南東アナトリアに位置する県。	まるでぃんけんわとるこなんとーぶ、なんとーあなとりあにいちするけん。	NO_LABEL
2000年の人口は83万人程度であったが、下降傾向にある。	にせんねんのじんこーわはちじゅうさんまんにんていどであったが、かこーけいこーにある。	NO_LABEL
西にシャンルウルファ県、北にディヤルバクル、バトマン、北東にスィイルト、東にシュルナクと接しており、南部はシリア国境である。	にしにしゃんるうるふぁけん、きたにでぃやるばくる、ばとまん、ほくとーにすぃいると、ひがしにしゅるなくとせっしており、なんぶわしりあこっきょーである。	NO_LABEL
県都はマルディン。	けんとわまるでぃん。	NO_LABEL
伝統的にアナトリアとメソポタミアの境界部に存在した地域であり、多くの民族が暮らしている。	でんとーてきにあなとりあとめそぽたみあのきょーかいぶにそんざいしたちいきであり、おーくのみんぞくがくらしている。	NO_LABEL
マルディン、ミドヤット、イェシリー、サヴラ、オマーリ地区ではアラブ人が多数派であり、少数民族にはクルド人、シリア人、トルコ人があげられる。	NO_PRONOUNCE	NO_LABEL
また、その他の地域はクルド人が主要民族となる地域であり、アラブ人、アッシリア人、シリア人、トルコ人が少数派となっている。	また、そのたのちいきわくるどじんがしゅよーみんぞくとなるちいきであり、あらぶじん、あっしりあじん、しりあじん、とるこじんがしょーすーはとなっている。	NO_LABEL
地元のシリア・クリスチャンの共同体はアッシリア人のジェノサイドによって著しく数を減らし、トルコにある2つの最古の修道院から支援されている。	NO_PRONOUNCE	NO_LABEL
クリスチャン共同体はミドヤット市のトル・アブディンの街に集中しており、小さな共同体がおおよそ100もあり、シリア・クリスチャンの中心地となっている。	NO_PRONOUNCE	NO_LABEL
政治的に、この地域は現代イスラム主義の公正発展党、さらにクルド人愛国派の民主人民党、そして正道党が同じ程度の勢力で競い合っている。	せいじてきに、このちいきわげんだいいすらむしゅぎのこーせいはってんとー、さらにくるどじんあいこくはのみんしゅじんみんとー、そしてせいどーとーがおなじていどのせいりょくできそいあっている。	NO_LABEL
1970年代から1980年代にかけてはクルド独立派の勢力とトルコ軍が大きな衝突を起こした。	せんきゅうひゃくななじゅうねんだいからせんきゅうひゃくはちじゅうねんだいにかけてわくるどどくりつはのせいりょくととるこぐんがおーきなしょーとつをおこした。	NO_LABEL
失業、貧困がネックとなっており、この県からの人口の流出は激しい。	しつぎょー、ひんこんがねっくとなっており、このけんからのじんこーのりゅーしゅつわはげしい。	NO_LABEL
このため西南方面エーゲ海岸地方への移住者が出ている。	このためせいなんほーめんえーげかいがんちほーえのいじゅーしゃがでている。	NO_LABEL
この件を解決するために空港の整備、アンカラ - バグダード間の中心都市としての改良などインフラ整備が政治的に行われている。	NO_PRONOUNCE	NO_LABEL
マルディンはアラム語で"要塞"を意味する。	NO_PRONOUNCE	NO_LABEL
