星形要塞は火砲に対応するため15世紀半ば以降のイタリアで発生した築城方式。	ほしがたよーさいわかほーにたいおーするためじゅうごせいきなかばいこーのいたりあではっせいしたちくじょーほーしき。	NO_LABEL
イタリア式築城術、稜堡式城郭、ヴォーバン様式という名で分類されることもある。	NO_PRONOUNCE	NO_LABEL
これらは最初、15世紀中ごろにイタリアで見られることとなった。	これらわさいしょ、じゅうごせいきちゅーごろにいたりあでみられることとなった。	NO_LABEL
中世に見られた垂直で高い城壁を持つ円形の城塞は、火砲の普及後、その脆弱性が露わになった。	ちゅーせいにみられたすいちょくでたかいじょーへきをもつえんけいのじょーさいわ、かほーのふきゅーご、そのぜいじゃくせいがろわになった。	NO_LABEL
一方、星形要塞は多くの稜堡を持ち、それぞれがお互いをカバーするように設計されている。	NO_PRONOUNCE	NO_LABEL
複雑な対称構造を構成する要素として、半月堡、角堡、王冠堡といった外塁が設置されることもある。	NO_PRONOUNCE	NO_LABEL
15世紀末から16世紀初めにかけてのイタリア半島へのフランス軍の侵入により、星形築城術はさらなる発展を遂げた。	じゅうごせいきまつからじゅうろくせいきはじめにかけてのいたりあはんとーえのふらんすぐんのしんにゅーにより、ほしがたちくじょーじゅつわさらなるはってんをとげた。	NO_LABEL
フランス軍は新型の火砲を装備しており、伝統的な中世からの城壁は容易に破壊することができた。	ふらんすぐんわしんがたのかほーをそーびしており、でんとーてきなちゅーせいからのじょーへきわよーいにはかいすることができた。	NO_LABEL
新型火砲の威力に対抗するため、城壁は低く、分厚くなり、砲弾によって砕け散らないように土と煉瓦を含む多くの材料で作られた。	しんがたかほーのいりょくにたいこーするため、じょーへきわひくく、ぶあつくなり、ほーだんによってくだけちらないよーにどとれんがをふくむおーくのざいりょーでつくられた。	NO_LABEL
そして最も重要な改良点として稜堡が作られ、新時代の要塞を特徴付けた。	NO_PRONOUNCE	NO_LABEL
要塞の防御力強化のためには多数の方向からの援護射撃が不可欠だが、その完成形として星形の要塞が出現した。	よーさいのぼーぎょりょくきょーかのためにわたすーのほーこーからのえんごしゃげきがふかけつだが、そのかんせいがたとしてほしがたのよーさいがしゅつげんした。	NO_LABEL
フィレンツェでミケランジェロによって土木工学の分野に採用され、ペルッツィおよびスカモッツィによって16世紀に発展を遂げた。	ふぃれんつぇでみけらんじぇろによってどぼくこーがくのぶんやにさいよーされ、ぺるっつぃおよびすかもっつぃによってじゅうろくせいきにはってんをとげた。	NO_LABEL
1530年代から1540年代にイタリアで発展したこの築城術は、続く3世紀にわたってヨーロッパ中に広まり、イタリアの建築家たちは各所で新しい要塞の建築に携わった。	せんごひゃくさんじゅうねんだいからでんごひゃくよんじゅうねんだいにいたりあではってんしたこのちくじょーじゅつわ、つずくさんせいきにわたってよーろっぱちゅーにひろまり、いたりあのけんちくかたちわかくしょであたらしいよーさいのけんちくにたずさわった。	NO_LABEL
ルイ14世の技術顧問であった17世紀後半の建築家、クーホルンとヴォーバンは論理的に究極の形式にまで発展させる思想を持っていた。	NO_PRONOUNCE	NO_LABEL
、掩郭、王冠堡、角堡、カーベット、フォッセ・ブレイ、急斜面、城壁と胸壁の間に突き出たふち石、射撃用足場、外堀の内岸などを獲得した。	NO_PRONOUNCE	NO_LABEL
」"Fortresses... acquired ravelins and redoubts, bonnettes and Lunette, tenailles and tenaillons, counterguards and crownworks and hornworks and curvettes and fausse brayes and scarps and cordons and banquettes and ounterscarps..."）	NO_PRONOUNCE	NO_LABEL
これらを獲得した星形要塞は、ルネサンス期の都市設計理念に影響を与えたすべての理想的な計画に深く感銘を与えた、1つの都市の型に魅せられていた。	これらをかくとくしたほしがたよーさいわ、るねさんすきのとしせっけいりねんにえいきょーをあたえたすべてのりそーてきなけいかくにふかくかんめいをあたえた、ひとつのとしのかたにみせられていた。	NO_LABEL
それは星型に形成された都市である。	それわほしがたにけいせいされたとしである。	NO_LABEL
」"The Renaissance was hypnotized by one city type which for a century and a half—from Filarete to Scamozzi—was impressed upon all utopian schemes: this is the star-shaped city."）。	NO_PRONOUNCE	NO_LABEL
その後、19世紀に榴弾が開発されると、築城術はさらに大きな変更を迫られることとなる。	そのご、じゅうきゅうせいきにりゅーだんがかいはつされると、ちくじょーじゅつわさらにおーきなへんこーをせまられることとなる。	NO_LABEL
星形要塞の原型は、中世の小高い丘に建てられた「とりで」であった。	NO_PRONOUNCE	NO_LABEL
敵が放つ矢より、さらに高い位置にある要塞から放たれた矢のほうが遠くまで飛んだ。	てきがはなつやより、さらにたかいいちにあるよーさいからはなたれたやのほーがとーくまでとんだ。	NO_LABEL
攻撃側は梯子をかけて城壁を越えるか、城壁の下に向けて地下道を掘るか、または城門を破壊するしかなかった。	こーげきがわわはしごをかけてじょーへきをこえるか、じょーへきのしたにむけてちかどーをほるか、またわじょーもんをはかいするしかなかった。	NO_LABEL
攻めにくく守りやすい要塞は、戦術の要諦となった。	せめにくくまもりやすいよーさいわ、せんじゅつのよーていとなった。	NO_LABEL
新規の効果的で機動的な包囲に際し、火砲が15世紀の軍事戦略に組み込まれた。	しんきのこーかてきできどーてきなほーいにさいし、かほーがじゅうごせいきのぐんじせんりゃくにくみこまれた。	NO_LABEL
これに対する軍事技術者たちの反応は、防壁を壕の中に埋め、土塁を前面に盛るというアレンジであった。	これにたいするぐんじぎじゅつしゃたちのはんのーわ、ぼーへきをごーのなかにうめ、どるいをぜんめんにもるとゆうあれんじであった。	NO_LABEL
これによって火砲は破壊的な直射による攻撃を行えなくなり、防壁の頂上まで盛られた土塁は瞰射の衝撃を吸収した。	NO_PRONOUNCE	NO_LABEL
状況が許しさえすれば、マルタのマノエル要塞のように、壕は天然の岩を開削して設けられ、壕の背後の壁は加工しない岩壁のままだった。	じょーきょーがゆるしさえすれば、まるたのまのえるよーさいのよーに、ごーわてんねんのいわをかいさくしてもーけられ、ごーのはいごのかべわかこーしないいわかべのままだった。	NO_LABEL
防壁は低められ、より攻撃されやすくなった。	ぼーへきわひくめられ、よりこーげきされやすくなった。	NO_LABEL
さらに悪いことに、以前から塔の設計として主流であった丸い形状は、「死角」つまり「安全地帯」を作り出した。	NO_PRONOUNCE	NO_LABEL
ここは防御砲火から比較的に遮蔽されていた。	ここわぼーぎょほーかからひかくてきにしゃへいされていた。	NO_LABEL
防壁の他の場所からの直接射撃は、屈曲した壁面に沿って撃ち込めなかったからである。	ぼーへきのほかのばしょからのちょくせつしゃげきわ、くっきょくしたへきめんにそってうちこめなかったからである。	NO_LABEL
これを避けるべく、円形や角形をした塔は、強襲してくる歩兵に遮蔽地帯を与えないよう、ダイヤモンド型に展張成型された稜堡に変わった。	NO_PRONOUNCE	NO_LABEL
壕と防壁は、攻撃側の歩兵を注意深く作られた殺傷地帯へと導いた。	ごーとぼーへきわ、こーげきがわのほへいをちゅーいぶかくつくられたさっしょーちたいえとみちびいた。	NO_LABEL
ここにあびせる防御砲火は、壁を強襲しようと試みる歩兵部隊を壊滅できた。	ここにあびせるぼーぎょほーかわ、かべをきょーしゅーしようとこころみるほへいぶたいをかいめつできた。	NO_LABEL
これらによって、歩兵には防御砲火からの遮蔽物がなかった。	これらによって、ほへいにわぼーぎょほーかからのしゃへいぶつがなかった。	NO_LABEL
さらに巧妙な変更は、受動的な防御を能動的なものへと移行させたことだった。	さらにこーみょーなへんこーわ、じゅどーてきなぼーぎょをのーどーてきなものえといこーさせたことだった。	NO_LABEL
低められた防壁はより強襲されやすくなり、かつ攻撃側が壕の外にある斜面を占領でき、大砲をそこに設置できれば、斜堤を利用した直射による防護は失われた。	ひくめられたぼーへきわよりきょーしゅーされやすくなり、かつこーげきがわがごーのそとにあるしゃめんをせんりょーでき、たいほーをそこにせっちできれば、はすつつみをりよーしたちょくしゃによるぼーごわうしなわれた。	NO_LABEL
そこで要塞の造形は、基地の防壁を攻略しようとする攻撃側に対して縦射または側面攻撃が最大限に利用できるよう設計された。	そこでよーさいのぞーけいわ、きちのぼーへきをこーりゃくしようとするこーげきがわにたいしてたてしゃまたわそくめんこーげきがさいだいげんにりよーできるよーせっけいされた。	NO_LABEL
要塞内部のぎざぎざしていて星形の箇所にある各火点は、火砲を遮蔽していた。	よーさいないぶのぎざぎざしていてほしがたのかしょにあるかくひてんわ、かほーをしゃへいしていた。	NO_LABEL
これらの火砲は、近隣の火点の角の下を直接狙える射線をもっていた。	これらのかほーわ、きんりんのひてんのかくのしたをちょくせつねらえるいせんをもっていた。	NO_LABEL
これは、星型の各点が敵の砲撃から防御されている間は保持された。	これわ、ほしがたのかくてんがてきのほーげきからぼーぎょされているまわほじされた。	NO_LABEL
このようにして要塞は、防御側の砲列に指令して火網が連動できる複合的な形状に発展した。	このよーにしてよーさいわ、ぼーぎょがわのほーれつにしれいしてひもーがれんどーできるふくごーてきなけいじょーにはってんした。	NO_LABEL
前面の砲兵は、防御構造の奥からの直射によって防壁を防衛し、斜面を制した。	ぜんめんのほーへいわ、ぼーぎょこーぞーのおくからのちょくしゃによってぼーへきをぼーえいし、しゃめんをせいした。	NO_LABEL
防衛側の火砲は単に防壁の攻略を試みる歩兵の撃退を意図するだけでなく、要塞の脆い箇所の防壁を直射しようと接近する敵の火砲の排除を試みた。	ぼーえいがわのかほーわたんにぼーへきのこーりゃくをこころみるほへいのげきたいをいとするだけでなく、よーさいのもろいかしょのぼーへきをちょくしゃしようとせっきんするてきのかほーのはいじょをこころみた。	NO_LABEL
要塞の防御の要点は、要塞を囲んでいる壕の外側の角へと移行した。	よーさいのぼーぎょのよーてんわ、よーさいをかこんでいるごーのそとがわのかくえといこーした。	NO_LABEL
これは防御道、または遮蔽道として知られている。	これわぼーぎょどー、またわしゃへいどーとしてしられている。	NO_LABEL
防御側は覆われた壕の中を比較的安全に移動でき、斜堤を支配下に保持すべく、対抗策をとって備えることができた。	ぼーぎょがわわおおわれたごーのなかをひかくてきあんぜんにいどーでき、はすつつみをしはいかにほじすべく、たいこーさくをとってそなえることができた。	NO_LABEL
溝の外部にある開かれた斜面には、斜堤への敵の接近を許さないように、防御の土塁が築かれ、またこのような火点は防壁を直接支援することができた。	みぞのがいぶにあるひらかれたしゃめんにわ、はすつつみえのてきのせっきんをゆるさないよーに、ぼーぎょのどるいがきずかれ、またこのよーなひてんわぼーへきをちょくせつしえんすることができた。	NO_LABEL
また、を、掘り返すことによって迎撃し、要塞防壁に対する掘削戦術の試みを中断させた。	また、を、ほりかえすことによってげいげきし、よーさいぼーへきにたいするくっさくせんじゅつのこころみをちゅーだんさせた。	NO_LABEL
中世の防御施設と比較し、要塞はより低くなり、面積を巨大化していた。	ちゅーせいのぼーぎょしせつとひかくし、よーさいわよりひくくなり、めんせきをきょだいかしていた。	NO_LABEL
これは防御力をもたせた堡塁を重ねて縦深的な防御を提供した。	これわぼーぎょりょくをもたせたほるいをかさねてたてふかてきなぼーぎょをていきょーした。	NO_LABEL
攻撃側は、火砲を防御構造の内側の層に用いるために、これを打ち負かすことが必要となった。	こーげきがわわ、かほーをぼーぎょこーぞーのうちがわのそーにもちいるために、これをうちまかすことがひつよーとなった。	NO_LABEL
火砲を防御する砲撃陣地は、外部からの砲撃に対して相当抗堪できた。	かほーをぼーぎょするほーげきじんちわ、がいぶからのほーげきにたいしてそーとーこーたまできた。	NO_LABEL
これは要塞の内部の方向に開かれており、防御の有用性を損ねるだけでなく、攻撃側にとってぜひとも攻略すべき点となった。	これわよーさいのないぶのほーこーにひらかれており、ぼーぎょのゆーよーせいをそこねるだけでなく、こーげきがわにとってぜひともこーりゃくすべきてんとなった。	NO_LABEL
しかしこれは、防御砲火によって生じる大量の砲煙を消すために容認された。	しかしこれわ、ぼーぎょほーかによってしょーじるたいりょーのほーえんをけすためによーにんされた。	NO_LABEL
この様式の防御施設は、実体弾の直撃によって大きな損害を与える砲を、攻撃側が装備している間は、防御効果を保持していた。	このよーしきのぼーぎょしせつわ、じったいだんのちょくげきによっておーきなそんがいをあたえるほーを、こーげきがわがそーびしているまわ、ぼーぎょこーかをほじしていた。	NO_LABEL
黒色火薬のような低威力の炸薬だけを用いているうちは、榴弾は防御施設に対して大きな効果を発揮しなかった。	こくしょくかやくのよーなていいりょくのさくやくだけをもちいているうちわ、りゅーだんわぼーぎょしせつにたいしておーきなこーかをはっきしなかった。	NO_LABEL
臼砲と高性能爆薬の開発、砲弾の破壊力の増大、さらにそれらを大仰角から砲撃する瞰射は、星形要塞のような防御物の幾何学的に入り組んだ構造を無効とした。	NO_PRONOUNCE	NO_LABEL
戦争はより機動的に変化するようになっていた。	せんそーわよりきどーてきにへんかするよーになっていた。	NO_LABEL
とはいえ、旧式の要塞戦術を脱却するには長い年月を要した。	とわいえ、きゅーしきのよーさいせんじゅつをだっきゃくするにわながいとしつきをよーした。	NO_LABEL
このような新しい防御施設を構築するには莫大なお金がかかるため、従来からの防御物で間に合わせることも多かった。	このよーなあたらしいぼーぎょしせつをこーちくするにわばくだいなおかねがかかるため、じゅーらいからのぼーぎょぶつでまにあわせることもおーかった。	NO_LABEL
中世のカーテンウォールを取り壊しこの手前に壕をつくり、掘削から生じた土を壁の背後に積み重ねた。	ちゅーせいのかーてんうぉーるをとりこわしこのてまえにごーをつくり、くっさくからしょーじたどをかべのはいごにつみかさねた。	NO_LABEL
正規の設計では砲弾の衝撃を吸収するために紐で結束したレンガを用いたが、予算を間に合わせるためにこうした防御構造を無視してコストを切り下げ、代替としてもっと多量の土を用いることも多かった。	せいきのせっけいでわほーだんのしょーげきをきゅーしゅーするためにひもでけっそくしたれんがをもちいたが、よさんをまにあわせるためにこーしたぼーぎょこーぞーをむししてこすとをきりさげ、だいたいとしてもっとたりょーのどをもちいることもおーかった。	NO_LABEL
中世の円形の塔を低め、これの内部を土で埋め立てることで構造を強化した。	ちゅーせいのえんけいのとーをひくめ、これのないぶをどでうめたてることでこーぞーをきょーかした。	NO_LABEL
正面からの攻撃と、に対抗するために壁の外の壕の広さと深さをより大きくすることも必然となった。	しょーめんからのこーげきと、にたいこーするためにかべのそとのごーのひろさとふかさをよりおーきくすることもひつぜんとなった。	NO_LABEL
1520年頃から、堡塁は大きく緩やかに傾斜した斜面をもった、土でできた斜堤と呼ばれるものに変わっていく。	せんごひゃくにじゅうねんごろから、ほるいわおーきくゆるやかにけいしゃしたしゃめんをもった、どでできたはすつつみとよばれるものにかわっていく。	NO_LABEL
これは壕の前におかれ、内部を砲兵の水平射撃から完全に遮蔽した。	これわごーのまえにおかれ、ないぶをほーへいのすいへいしゃげきからかんぜんにしゃへいした。	NO_LABEL
また敵の砲兵の、至近距離からの砲撃の能力を除去することもできる。	またてきのほーへいの、しきんきょりからのほーげきののーりょくをじょきょすることもできる。	NO_LABEL
仰角が高いほどストッピングパワーは低下した。	ぎょーかくがたかいほどすとっぴんぐぱわーわていかした。	NO_LABEL
イタリア式築城術の最初の重要な実例は、イタリアのラツィオ州チヴィタヴェッキアに所在する教皇領の港湾に築かれたものである。	NO_PRONOUNCE	NO_LABEL
原型の城壁は低められて分厚くされた。	げんけいのじょーへきわひくめられてぶあつくされた。	NO_LABEL
これは構造材の石が砲撃により砕ける傾向があったからである。	これわこーぞーざいのいしがほーげきによりくだけるけいこーがあったからである。	NO_LABEL
イタリア式築城術の本当の有効性が発揮された最初の大きな戦闘は、フィレンツェの兵とフランス陸軍からなる連合軍に対し、1500年に行われたピサの防衛であった。	いたりあしきちくじょーじゅつのほんとーのゆーこーせいがはっきされたさいしょのおーきなせんとーわ、ふぃれんつぇのへいとふらんすりくぐんからなるれんごーぐんにたいし、せんごひゃくねんにおこなわれたぴさのぼーえいであった。	NO_LABEL
フランス軍の火砲により、元あった中世の防御施設が崩壊しはじめ、ピサ人は脅かされている部分の背後に土塁を構築した。	ふらんすぐんのかほーにより、もとあったちゅーせいのぼーぎょしせつがほーかいしはじめ、ぴさじんわおびやかされているぶぶんのはいごにどるいをこーちくした。	NO_LABEL
そこでは、土の防壁のスロープが雲梯を防御できること、さらにカーテンウォールよりも多量の砲撃を防ぐことがわかった。	そこでわ、どのぼーへきのすろーぷがうなてをぼーぎょできること、さらにかーてんうぉーるよりもたりょーのほーげきをふせぐことがわかった。	NO_LABEL
第二の包囲は1509年にパドヴァで行われた。	NO_PRONOUNCE	NO_LABEL
修道士にして技術者であったジョバンニ・ジョコンドはヴェネツィアの都市防衛で信用を得ており、都市の中世的な防壁を減らし、幅の広い壕で市を囲んだ。	NO_PRONOUNCE	NO_LABEL
これは壕の中へ射線を散開させるよう低く設けられた銃眼からの側面射撃によって一掃が可能だった。	これわごーのなかえいせんをさんかいさせるよーひくくもーけられたじゅーがんからのそくめんしゃげきによっていっそーがかのーだった。	NO_LABEL
こうした低い城壁に対して砲撃はほとんど効果を発揮できなかったことが判明し、多くの犠牲を出しながら攻撃を繰り返したフランス軍と連合軍の攻城兵は成果を挙げられないまま撤退した。	こーしたひくいじょーへきにたいしてほーげきわほとんどこーかをはっきできなかったことがはんめいし、おーくのぎせいをだしながらこーげきをくりかえしたふらんすぐんとれんごーぐんのおさむしろへいわせいかをあげられないままてったいした。	NO_LABEL
1801年にベトナム阮朝の阮福暎はフエを制圧し、同地を阮朝の首都に定め、星型の城郭を持つ王城の建設を行った。	NO_PRONOUNCE	NO_LABEL
ただしこれは完全な星型ではなく、四角型の城壁に星型の要素を取り入れたものである。	ただしこれわかんぜんなほしがたでわなく、しかくがたのじょーへきにほしがたのよーそをとりいれたものである。	NO_LABEL
ベトナムでは他にクアンチ、タインホア（）など、北中部地方にいくつかの星形城塞が築かれている。	べとなむでわたにくあんち、たいんほあかっこなど、ほくちゅーぶちほーにいくつかのほしがたじょーさいがきずかれている。	NO_LABEL
米英戦争において、1814年のボルティモアの戦いの一部を構成するフォートマクヘンリーの砲撃戦では、アメリカの兵力は25時間の艦砲射撃に耐えてイギリスの侵入をくじいた。	べいえいせんそーにおいて、せんはっぴゃくじゅうよんねんのぼるてぃもあのたたかいのいちぶをこーせいするふぉーとまくへんりーのほーげきせんでわ、あめりかのへいりょくわにじゅうごじかんのかんぽうしゃげきにたえていぎりすのしんにゅーをくじいた。	NO_LABEL
ジェフリー・パーカーの著した『1560年から1660年の軍事の革命：一つの神話?』の記事に、近代ヨーロッパ初期におけるイタリア式築城術の出現と、そういった防御施設の奪取の難しさが軍事戦略を深く変化させる結果となり、「戦争は一連の長引く包囲となった」とパーカーは指摘している。	NO_PRONOUNCE	NO_LABEL
開かれた場所での激戦は、イタリア式築城術がある地域では「無関係になった」。	NO_PRONOUNCE	NO_LABEL
最後にパーカーは「軍事的な地理学では」ほかの言葉では、イタリア式築城術の有無において、これが存在する地域では近世の初期に軍事戦略が確立された、と反論した。	NO_PRONOUNCE	NO_LABEL
これは1955年に歴史家のマイケル・ロバーツがクイーンズ大学ベルファストに就任した時の講座で提唱した、軍事の革命という命題の大きな変更となる。	これわせんきゅうひゃくごじゅうごねんにれきしかのまいけるろばーつがくいーんずだいがくべるふぁすとにしゅーにんしたときのこーざでていしょーした、ぐんじのかくめいとゆうめいだいのおーきなへんこーとなる。	NO_LABEL
パーカーの、軍事の革命という概念は一部の研究者からかなりの批判を招いた。	ぱーかーの、ぐんじのかくめいとゆうがいねんわいちぶのけんきゅうしゃからかなりのひはんをまねいた。	NO_LABEL
星形要塞は、多数の小銃で要塞を防御する際に、死角を無くすための形状であった。	ほしがたよーさいわ、たすーのしょーじゅーでよーさいをぼーぎょするさいに、しかくをなくすためのけいじょーであった。	NO_LABEL
大砲は要塞を攻撃するための兵器としては有効であったが、要塞に攻め寄せる多数の兵士を迎撃する兵器としての有効性は低かったからである。	たいほーわよーさいをこーげきするためのへいきとしてわゆーこーであったが、よーさいにせめよせるたすーのへいしをげいげきするへいきとしてのゆーこーせいわひくかったからである。	NO_LABEL
ところが榴弾が開発されると、大砲によって多数の兵士を攻撃する事も可能となり、要塞防御兵器としての有効性が高まる事となる。	ところがりゅーだんがかいはつされると、たいほーによってたすーのへいしをこーげきすることもかのーとなり、よーさいぼーぎょへいきとしてのゆーこーせいがたかまることとなる。	NO_LABEL
また、星形要塞は大仰角からの砲撃に対しては無力であった。	また、ほしがたよーさいわだいぎょーかくからのほーげきにたいしてわむりょくであった。	NO_LABEL
そのため、掩体壕の中に大砲を配置するようになった。	そのため、えんたいごーのなかにたいほーをはいちするよーになった。	NO_LABEL
掩体壕の中に大砲を配置するようになると、要塞の形状にも変化が見られる。	えんたいごーのなかにたいほーをはいちするよーになると、よーさいのけいじょーにもへんかがみられる。	NO_LABEL
複雑な凹凸がある星型から単純な多角形となり、掩体壕をその多角形の辺の中心部分に突出して配置する、多角形要塞が誕生した。	ふくざつなおーとつがあるほしがたからたんじゅんなたかくがたとなり、えんたいごーをそのたかっけいのあたりのちゅーしんぶぶんにとっしゅつしてはいちする、たかっけいよーさいがたんじょーした。	NO_LABEL
そして機関銃の実用化により、それも掩体壕の中に配置された。	そしてきかんじゅーのじつよーかにより、それもえんたいごーのなかにはいちされた。	NO_LABEL
しかしながら、星形要塞から多角形要塞への移行が一気に進んだ訳ではない。	しかしながら、ほしがたよーさいからたかっけいよーさいえのいこーがいっきにすすんだわけでわない。	NO_LABEL
多角形要塞への移行が進む過程において、要塞そのものの価値が低下していった。	たかっけいよーさいえのいこーがすすむかていにおいて、よーさいそのもののかちがていかしていった。	NO_LABEL
まず軍隊の機動性の増大は、要塞の存在を無視してそれらを迂回しての軍事行動を可能とした。	まずぐんたいのきどーせいのぞーだいわ、よーさいのそんざいをむししてそれらをうかいしてのぐんじこうどーをかのーとした。	NO_LABEL
また、大砲の発達、機関銃の発達、有刺鉄線の実用化は、本格的な要塞を構築せずとも塹壕でも十分な防御を可能とした。	また、たいほーのはったつ、きかんじゅーのはったつ、ゆーしてっせんのじつよーかわ、ほんかくてきなよーさいをこーちくせずともざんごーでもじゅーぶんなぼーぎょをかのーとした。	NO_LABEL
そのため第一次世界大戦においては、長大な塹壕による防御線が主体となった。	そのためだいいちじせかいたいせんにおいてわ、ちょーだいなざんごーによるぼーぎょせんがしゅたいとなった。	NO_LABEL
逆にその後は戦車や航空機の実用化により、塹壕も含めて長大な防衛線が無力化した。	ぎゃくにそのごわせんしゃやこーくーきのじつよーかにより、ざんごーもふくめてちょーだいなぼーえいせんがむりょくかした。	NO_LABEL
こうして星形要塞のみならず要塞そのものが衰退していく事になるが、死角が無いという星形要塞の形状はその後も有効性があったため、基地防衛のための機関銃陣地など、限定されたシチュエーションにおいては、星形要塞類似の陣地の構築は現代でも行われている。	こーしてほしがたよーさいのみならずよーさいそのものがすいたいしていくことになるが、しかくがないとゆうほしがたよーさいのけいじょーわそのごもゆーこーせいがあったため、きちぼーえいのためのきかんじゅーじんちなど、げんていされたしちゅえーしょんにおいてわ、ほしがたよーさいるいじのじんちのこーちくわげんだいでもおこなわれている。	NO_LABEL
日本の稜堡築城には、誤りと思われる部分が見られる。	NO_PRONOUNCE	NO_LABEL
フランクからフェイス前面の堀内が撃てないか、または射線に死角があるという誤りは多い。	ふらんくからふぇいすぜんめんのほりうちがうてないか、またわいせんにしかくがあるとゆうあやまりわおーい。	NO_LABEL
