お江戸吉原事件帖は、テレビ東京の「金曜時代劇」枠で2007年10月26日から12月21日まで放送された時代劇。	NO_PRONOUNCE	NO_LABEL
 字幕放送と地上デジタル放送では連動データ放送を実施。	じまくほうそーとちじょーでじたるほーそーでわれんどーでーたほうそーをじっし。	NO_LABEL
2008年5月から時代劇専門チャンネルで再放送されている。	にせんはちねんごがつからじだいげきせんもんちゃんねるでさいほーそーされている。	NO_LABEL
2013年3月6日から3月19日まで、BSジャパンで再放送されていた。	にせんじゅうさんねんさんがつむいかからさんがつじゅうきゅうにちまで、びーえすじゃぱんでさいほーそーされていた。	NO_LABEL
遊郭・吉原を舞台に、遊女を泣かせる男を懲らしめる4人の女たちの物語である。	NO_PRONOUNCE	NO_LABEL
