BISHOPは、株式会社日商総合企画のアダルトゲームブランドである。	びしょっぷわ、かぶしきがいしゃにっしょーそーごーきかくのあだるとげーむぶらんどである。	NO_LABEL
発売するすべての作品が抜きゲーを意識しており、陵辱色の強い内容が特徴だが、正統派の恋愛ゲームも作成している。	はつばいするすべてのさくひんがぬきげーをいしきしており、りょーじょくしょくのつよいないよーがとくちょーだが、せいとーはのれんあいげーむもさくせいしている。	NO_LABEL
毎年コンスタントに作品を発売しては、安定した業績を残してるアダルトメーカーの一つ。	まいとしこんすたんとにさくひんをはつばいしてわ、あんていしたぎょーせきをのこしてるあだるとめーかーのひとつ。	NO_LABEL
前身はアダルトゲーム販売を中心としたパソコン・ゲームショップの「ビショップ」。	NO_PRONOUNCE	NO_LABEL
xyzブランドを展開していた有限会社グランブルーと両社の社長同士が懇意にしていたことから、XYZのソフトデバッグを担当したのがBISHOPブランドの出発点となる。	えっくすわいずぃーぶらんどをてんかいしていたゆーげんがいしゃぐらんぶるーとりょーしゃのしゃちょーどーしがこんいにしていたことから、えっくすわいずぃーのそふとでばっぐをたんとーしたのがびしょっぷぶらんどのしゅっぱつてんとなる。	NO_LABEL
2007年10月6日発売の『XYZ ODLADZ1000』から1998年の自社ブランド第1作『紅い瞳のセラフ』までは、販売を含めて有限会社グランブルーからリリースされた。	NO_PRONOUNCE	NO_LABEL
その後自社開発の環境を整え、自社ブランド第2作『メイズ 〜迷図〜』以降の作品に関しては、日商総合企画がリリースを行っている。	NO_PRONOUNCE	NO_LABEL
なおゲームショップとしての「ビショップ」は2007年に一度閉店し、同年10月から「PC PRO SHOP ＠アットマーク AT-MARK」として営業を再開している。	NO_PRONOUNCE	NO_LABEL
北海道えろげー組合加盟。	ほっかいどーえろげーくみあいかめい。	NO_LABEL
