東京法経学院は、司法書士、行政書士、測量士補、土地家屋調査士、宅地建物取引士、社会保険労務士などの法律系国家資格取得を目的とした、老舗の法律専門学校。	とーきょーほーけいがくいんわ、しほーしょし、ぎょーせいしょし、そくりょーしほ、とちかおくちょーさし、たくちたてものとりひきし、しゃかいほけんろーむしなどのほーりつけいこっかしかくしゅとくをもくてきとした、しにせのほーりつせんもんがっこー。	NO_LABEL
運営会社は、株式会社東京法経学院で、東京都新宿区本塩町に本社を置く。	うんえいがいしゃわ、かぶしきがいしゃとーきょーほーけいがくいんで、とーきょーとしんじゅくくほんしおちょーにほんしゃをおく。	NO_LABEL
関連した『月刊 不動産法律セミナー』などの出版物の出版も行う。	NO_PRONOUNCE	NO_LABEL
キャッチフレーズは「高実績と信頼 大人が選ぶ LICENSE SCHOOL」。	NO_PRONOUNCE	NO_LABEL
特に土地家屋調査士試験の受験指導においては、例年80%を超える合格者占有率を誇る。	とくにとちかおくちょーさししけんのじゅけんしどーにおいてわ、れいねんはちじゅうぱーせんとをこえるごーかくしゃせんゆーりつをほこる。	NO_LABEL
1961年8月1日に、司法書士試験指導会として設立。	せんきゅうひゃくろくじゅういちねんはちがつついたちに、しほーしょししけんしどーかいとしてせつりつ。	NO_LABEL
1967年に、土地家屋調査士・宅地建物取引士などの受験指導も開始し、東京法経学院と改称。	NO_PRONOUNCE	NO_LABEL
司法書士講座担当	しほーしょしこーざたんとー	NO_LABEL
行政書士講座担当 	ぎょーせいしょしこーざたんとー	NO_LABEL
土地家屋調査士講座担当	とちかおくちょーさしこーざたんとー	NO_LABEL
