山潟村は、かつて新潟県中蒲原郡にあった村。	やまがたむらわ、かつてにーがたけんなかかんばらぐんにあったむら。	NO_LABEL
1901年11月1日の合併によって消滅し、現在は新潟市江南区の一部となっている。	せんきゅうひゃくいちねんじゅーいちがつついたちのがっぺいによってしょーめつし、げんざいわにーがたしこーなんくのいちぶとなっている。	NO_LABEL
以下の記述は合併直前当時の旧山潟村に関しての記述であり、現在では名称等が異なる場合がある。	いかのきじゅつわがっぺいちょくぜんとーじのきゅーやまがたむらにかんしてのきじゅつであり、げんざいでわめいしょーとーがことなるばあいがある。	NO_LABEL
なお、ここに記述されていない内容に関しては新潟市などの記事を参照。	なお、ここにきじゅつされていないないよーにかんしてわにーがたしなどのきじをさんしょー。	NO_LABEL
山潟村は、合併した村名を継承する以下の大字で構成される。	やまがたむらわ、がっぺいしたむらなをけいしょーするいかのだいじでこーせいされる。	NO_LABEL
注釈	ちゅーしゃく	NO_LABEL
出典	しゅってん	NO_LABEL
