アントン・ヴォロディームィロヴィチ・コワレフスキーは、ウクライナの元フィギュアスケート選手。	NO_PRONOUNCE	NO_LABEL
2006年トリノオリンピック、2010年バンクーバーオリンピックウクライナ代表。	にせんろくねんとりのおりんぴっく、にせんじゅうねんばんくーばーおりんぴっくうくらいなだいひょー。	NO_LABEL
2003年クリスタルスケート優勝。	にせんさんねんくりすたるすけーとゆーしょー。	NO_LABEL
1985年3月9日、キエフで生まれる。	せんきゅうひゃくはちじゅうごねんさんがつここのか、きえふでうまれる	NO_LABEL
1989年にスケートを始めた。	せんきゅうひゃくはちじゅうきゅうねんにすけーとをはじめた。	NO_LABEL
2005-2006シーズン、ウクライナ選手権で初優勝し、トリノオリンピックに出場した。	NO_PRONOUNCE	NO_LABEL
2010-2011シーズン、世界選手権ではパーソナルベストを更新し、過去最高タイの16位の成績を残した。	NO_PRONOUNCE	NO_LABEL
シーズン終了後、ウクライナスケート連盟からの支援が無くなり、スケートを続けることができなくなったために引退を決めた。	しーずんしゅうりょーご、うくらいなすけーとれんめいからのしえんがなくなり、すけーとをつずけることができなくなったためにいんたいをきめた。	NO_LABEL
引退後はアイスショーでスケートを続けている。	いんたいごわあいすしょーですけーとをつずけている。	NO_LABEL
