『トリコロールに燃えて』は、2004年のイギリス・カナダ合作の恋愛映画。	NO_PRONOUNCE	NO_LABEL
R-15指定。	あーるじゅうごしてい。	NO_LABEL
第二次世界大戦前後のヨーロッパを舞台に、奔放な恋に生きる女性を描いている。	だいにじせかいたいせんぜんごのよーろっぱをぶたいに、ほんぽーなこいにいきるじょせいをえがいている。	NO_LABEL
第二次世界大戦直前のイギリス、大学生のガイはひょんなことで上流階級の奔放な娘ギルダに出会う。	だいにじせかいたいせんちょくぜんのいぎりす、だいがくせいのがいわひょんなことでじょーりゅーかいきゅーのほんぽーなむすめぎるだにであう。	NO_LABEL
強く惹かれ合い一夜を共にするが、ギルダは去ってしまった。	つよくひかれあいいちやをともにするが、ぎるだわさってしまった。	NO_LABEL
3年後、大学を卒業したガイはギルダから手紙をもらいパリに向かう。	さんねんご、だいがくをそつぎょーしたがいわぎるだからてがみをもらいぱりにむかう。	NO_LABEL
女優や写真家など次々と好きなことをしているギルダに再会したガイは、彼女の友人でスペイン内戦を逃れてきたミアも加えた三人で同居を始める。	じょゆーやしゃしんかなどつぎつぎとすきなことをしているぎるだにさいかいしたがいわ、かのじょのゆーじんですぺいんないせんをのがれてきたみあもくわえたさんにんでどーきょをはじめる。	NO_LABEL
