久保 司郎は、日本の工学者。	くぼしろーわ、にっぽんのこーがくしゃ。	NO_LABEL
摂南大学教授、理工学部融合科学研究所所長。	せつなんだいがくきょーじゅ、りこーがくぶゆーごーかがくけんきゅうしょしょちょー。	NO_LABEL
専門は機械工学。	せんもんわきかいこーがく。	NO_LABEL
工学博士。	こーがくはかせ。	NO_LABEL
日本材料学会会長。	にっぽんざいりょーがっかいかいちょー。	NO_LABEL
日本機械学会会長。	にほんきかいがっかいかいちょー。	NO_LABEL
1971年、大阪大学工学部機械工学科を卒業。	せんきゅうひゃくななじゅういちねん、おーさかだいがくこーがくぶきかいこーがっかをそつぎょー。	NO_LABEL
1976年に大阪大学大学院工学研究科産業機械工学専攻博士課程を修了し、博士号を取得。	せんきゅうひゃくななじゅうろくねんにおーさかだいがくだいがくいんこーがくけんきゅーかさんぎょーきかいこーがくせんこーはかせかていをしゅーりょーし、はくしごーをしゅとく。	NO_LABEL
博士論文は「クリ－プき裂挙動に関する力学的研究」。	NO_PRONOUNCE	NO_LABEL
1981年より大阪大学工学部講師、1982年に助教授を経て、1990年に教授に就任した。	せんきゅうひゃくはちじゅういちねんよりおーさかだいがくこーがくぶこーし、せんきゅうひゃくはちじゅうにねんにじょきょーじゅをへて、せんきゅうひゃくきゅうじゅうねんにきょーじゅにしゅーにんした。	NO_LABEL
2009年には大阪大学学際融合教育研究センターのセンター長を務めた。	にせんきゅうねんにわおーさかだいがくがくさいゆーごーきょーいくけんきゅーせんたーのせんたーちょーをつとめた。	NO_LABEL
2013年、大阪大学名誉教授となり、同年より摂南大学教授。	にせんじゅうさんねん、おーさかだいがくめいよきょーじゅとなり、どーねんよりせつなんだいがくきょーじゅ。	NO_LABEL
2015年に摂南大学理工学部融合科学研究所所長に就任。	にせんじゅうごねんにせつなんだいがくりこーがくぶゆーごーかがくけんきゅうしょしょちょーにしゅーにん。	NO_LABEL
