トヨタ・アギアおよびダイハツ・アイラは、トヨタ自動車とダイハツ工業が共同開発した小型ハッチバックである。	NO_PRONOUNCE	NO_LABEL
インドネシアで生産が行われ、国内市場で販売されるほかフィリピンなどに輸出されている。	いんどねしあでせいさんがおこなわれ、こくないしじょーではんばいされるほかふぃりぴんなどにゆしゅつされている。	NO_LABEL
また、マレーシアではプロドゥアが姉妹車のアジアを製造・販売している。	NO_PRONOUNCE	NO_LABEL
アギア/アイラはインドネシア政府が打ち出したローコストグリーンカー政策に適合する車種として開発された。	NO_PRONOUNCE	NO_LABEL
LCGC政策はタイ王国のエコカー政策と似たもので、サイズ、燃費、価格、部品現地調達率などの基準を満たした国内生産車をLCGCとして認定し、税制上の優遇措置を行うものである。	NO_PRONOUNCE	NO_LABEL
開発にあたってはミライースのノウハウが導入されているほか、アストラ・インターナショナルとの現地合弁であるアストラ・ダイハツ・モーターが参画している。	NO_PRONOUNCE	NO_LABEL
生産は新しく建設されたADMのカラワン組立工場にて行われる。	NO_PRONOUNCE	NO_LABEL
エンジンは当初1KR-FE型 直列3気筒 1.0Lのみが用意され、これに5速MTまたは4速ATが組み合わせられる。	NO_PRONOUNCE	NO_LABEL
アギア/アイラは2012年のインドネシア国際モーターショーにて初公開されたが、肝心の政府のLCGC政策公布が行われないために市販車の製造および販売開始は予定より遅れた。	NO_PRONOUNCE	NO_LABEL
2013年4月22日にADMのカラワン組立工場の開所式が行われ、同年9月9日にようやく発売が開始された。	NO_PRONOUNCE	NO_LABEL
2014年2月、トヨタ・モーター・フィリピンが「ウィゴ」の車名で販売を開始した。	NO_PRONOUNCE	NO_LABEL
2017年にフェイスリフトが行われ、アギア/ウィゴの方は近年のトヨタ車に共通するキーンルックに近いフロントフェイスに改められた。	NO_PRONOUNCE	NO_LABEL
また、従来の1.0Lに加えて3NR-FE型 直列4気筒 1.2Lもラインナップに加わった。	NO_PRONOUNCE	NO_LABEL
