鷲羽岳は飛騨山脈の大町市と富山市にまたがる標高2,924 mの山である。	NO_PRONOUNCE	NO_LABEL
1934年12月4日に中部山岳国立公園に指定され、山域はその特別保護地区になっている。	せんきゅうひゃくさんじゅうよねんじゅーにがつよっかにちゅーぶさんがくこくりつこーえんにしていされ、やまいきわそのとくべつほごちくになっている。	NO_LABEL
また日本百名山にも選定されている。	またにほんひゃくめいざんにもせんていされている。	NO_LABEL
北アルプスのほぼ中央部、黒部川の源流に位置する。	きたあるぷすのほぼちゅーおーぶ、くろべがわのげんりゅーにいちする。	NO_LABEL
「裏銀座」と呼ばれる飛騨山脈主稜線の縦走路上にあり、山の奥深い位置にあるため、登山道を利用して複数日かけて登頂されることが多い。	NO_PRONOUNCE	NO_LABEL
山頂は森林限界のハイマツ帯で見晴らしが良く、飛騨山脈の大部分の山々を見渡すことができる。	さんちょーわしんりんげんかいのはいまつたいでみはらしがよく、ひださんみゃくのだいぶぶんのやまやまをみわたすことができる。	NO_LABEL
山の北側はデイサイト、南側は花崗閃緑岩から成る。	やまのきたがわわでいさいと、みなみがわわみかげせんりょくがんからなる。	NO_LABEL
現在の鷲羽岳は明治の登山黎明期までは東鷲羽岳あるいは龍池ヶ岳と呼ばれていて、現在の三俣蓮華岳が鷲羽岳であった。	NO_PRONOUNCE	NO_LABEL
戦国時代末期以後の加賀藩政時代より、北アルプスの大半は加賀藩の奥山廻りによって調査され、1697年に「鷲ノ羽岳」の山名や地形が絵図にされていた。	NO_PRONOUNCE	NO_LABEL
 特にこの現在の三俣蓮華岳付近は、加賀藩政時代は三国境としての重要さから詳細に調査されていた。	とくにこのげんざいのみつまたれんげだけふきんわ、かがはんせいじだいわさんこっきょーとしてのじゅーよーさからしょーさいにちょーさされていた。	NO_LABEL
鷲羽池について、1810年の山廻り日記『文化七年 上奥山御境目廻リ 桐沢半六』には、「八月二日晴天鷲羽嶽江登、鷲ノ羽嶽頭方角鷲羽嶽ノ巳ノ方池有ル 此ノ池甚タ減水、水三分程有ル」と記されている。	NO_PRONOUNCE	NO_LABEL
1910年、日本山岳会の小島烏水と高頭仁兵衛が、上高地の上條嘉門次を案内人として信州方面から登山したとき、彼らにとってはこの山域は処女地であった。	せんきゅうひゃくじゅうねん、にほんさんがくかいのこじまうすいとたかとーじんべえが、かみこーちのかみじょーかもんじをあんないじんとしてしんしゅーほーめんからとざんしたとき、かれらにとってわこのやまいきわしょじょちであった。	NO_LABEL
このとき三俣蓮華岳について越中側での呼び名を知らなかった案内人の嘉門次に、「飛騨の猟師が、この山で熊を射止めた。	NO_PRONOUNCE	NO_LABEL
そうして熊の膽のつもりで俗称蓮華膽を腹から引き出して喰ったので信州の猟師達が嘲笑って蓮華喰みの岳と言ったのを略して蓮華と呼んでいる」と説明されたのである。	NO_PRONOUNCE	NO_LABEL
当時の参謀本部陸地測量部の5万分の1地形図では、従来の越中側の山名を踏襲して現在の三俣蓮華岳が鷲羽岳と記されていた。	NO_PRONOUNCE	NO_LABEL
そこで日本山岳会の面々は、、陸地測量部に調査不十分であると地図の訂正を強く求めた。	NO_PRONOUNCE	NO_LABEL
その結果、1930年の修正版で改訂されて現在に至っている。	そのけっか、せんきゅうひゃくさんじゅうねんのしゅーせいばんでかいていされてげんざいにいたっている。	NO_LABEL
山名の由来は、三俣蓮華岳から眺めた鷲が羽ばたいている山容からきているとされている。	やまなのゆらいわ、みつまたれんげだけからながめたわしがはばたいているさんよーからきているとされている。	NO_LABEL
1907年夏、志村烏嶺は北アルプスの最奥地、黒部川源流域の人跡未踏の深山を求め、高瀬渓谷から烏帽子岳に登り、現在のいわゆる裏銀座コースを縦走して鷲羽岳に初登頂を行った。	せんきゅうひゃくななねんなつ、しむらうれいわきたあるぷすのさいおーち、くろべがわげんりゅーいきのじんせきみとーのみやまをもとめ、たかせけいこくからえぼしおだけにのぼり、げんざいのいわゆるうらぎんざこーすをじゅーそーしてわしばだけにはつとーちょーをおこなった。	NO_LABEL
その時の紀行文「日本アルプス縦走記」が当時の山岳雑誌『山岳』の巻頭を飾った。	NO_PRONOUNCE	NO_LABEL
その中で志村は「これは破天荒の壮挙、未曾有の壮挙、誰かその一部たりとも、日本アルプスの峻嶺を、その山稜に沿ふて、縦走せしものありや」と自慢し、「久恋の鷲羽岳」に到達したくだりでは「未だかつて、採集家等の、一度も足跡を印せし事なし」として「鷲羽の絶頂より、南方眼下に、又、一湖水を発見す、こは全く一噴火口なり、恐らく何人の耳にも新しき事実なるべし」と書いた。	NO_PRONOUNCE	NO_LABEL
この他にも、明治後半頃の『山岳』に載せられた紀行文には、随所に人跡未踏の山の初登頂や初縦走の話題で盛り上がっていた。	NO_PRONOUNCE	NO_LABEL
烏帽子岳から槍ヶ岳への裏銀座のルート上にあり、多数のルートがある。	えぼしだけからやりがだけえのうらぎんざのるーとじょーにあり、たすーのるーとがある。	NO_LABEL
以下がその一例である。	いかがそのいちれいである。	NO_LABEL
1956年9月に開設された湯俣温泉から三俣山荘までの伊藤新道は荒廃して通行困難となっている。	せんきゅうひゃくごじゅうろくねんくがつにかいせつされたゆまたおんせんからみつまたさんそーまでのいとーしんどーわこーはいしてつーこーこんなんとなっている。	NO_LABEL
最寄りの山小屋は三俣山荘で、ハイマツ帯を抜けた後に砂礫地の急坂が山頂まで続く。	もよりのやまごやわみつまたさんそーで、はいまつたいをぬけたのちにされきちのきゅーざかがさんちょーまでつずく。	NO_LABEL
周辺の登山道上には、登山者用の山小屋とキャンプ指定地がある。	しゅーへんのとざんどーじょーにわ、とざんしゃよーのやまごやときゃんぷしていちがある。	NO_LABEL
山頂から南東450 m程の位置に鷲羽池がある。	NO_PRONOUNCE	NO_LABEL
鷲羽岳南東斜面に形成された火山で、鷲羽池火口は鮮明な火口地形が残る。	わしばだけなんとーしゃめんにけいせいされたかざんで、わしばいけかこーわせんめいなかこーちけいがのこる。	NO_LABEL
12万年前以降に活動し、安山岩～デイサイトの溶岩流を東南に流出している。	NO_PRONOUNCE	NO_LABEL
火口地形が鮮明なため過去1万年内に噴火した可能性があるという説もあるが、気象庁の指定する活火山には指定されていない。	かこーちけいがせんめいなためかこいちまんねんないにふんかしたかのーせいがあるとゆうせつもあるが、きしょーちょーのしていするかっかざんにわしていされていない。	NO_LABEL
鷲羽池火口東南にある硫黄沢では1990年代中頃まで活発な噴気活動が認められている。	わしばいけかこーとーなんにあるいおーさわでわせんきゅうひゃくきゅうじゅうねんだいなかごろまでかっぱつなふんきかつどーがみとめられている。	NO_LABEL
以下の源流となる河川は日本海へ流れる。	いかのげんりゅーとなるかせんわにほんかいえながれる。	NO_LABEL
鷲羽岳と三俣蓮華岳との鞍部が黒部川と高瀬川との分水嶺となっている。	わしばだけとみつまたれんげだけとのあんぶがくろべがわとたかせがわとのぶんすいれいとなっている。	NO_LABEL
