中日本航空株式会社は、愛知県西春日井郡豊山町に本社を置く大手の産業航空会社。	なかにほんこーくーかぶしきがいしゃわ、あいちけんにしかすがいぐんとよやまちょーにほんしゃをおくおーてのさんぎょーこーくーがいしゃ。	NO_LABEL
略称はNNK。	NO_PRONOUNCE	NO_LABEL
本社を置いている県営名古屋空港を拠点に自社保有の飛行機・ヘリコプターを日本全国で運航しており、航空事業・調査測量事業を手掛ける。	NO_PRONOUNCE	NO_LABEL
名鉄グループ傘下。	めいてつぐるーぷさんか。	NO_LABEL
小型飛行機・ヘリコプターなど70機を保有し、運送事業・使用事業として航空機を運航している。	NO_PRONOUNCE	NO_LABEL
1984年に日本の事業会社として初めて救急医療専用ヘリコプターの運航を開始して以来ドクターヘリ運航のパイオニアである。	せんきゅうひゃくはちじゅうよねんににっぽんのじぎょーがいしゃとしてはじめてきゅーきゅーいりょーせんよーへりこぷたーのうんこーをかいししていらいどくたーへりうんこーのぱいおにあである。	NO_LABEL
2017年4月現在、ドクターヘリ運航箇所数は国内最多。	にせんじゅうななねんしがつげんざい、どくたーへりうんこーかしょすーわこくないさいた。	NO_LABEL
また各県に配備されている防災ヘリコプターの運航や、機体搭載用の専用ストレッチャーを備えた小型固定翼機による患者輸送、脳死ドナーから提供された移植用臓器の搬送など、EMS事業に積極的に参加している。	またかくけんにはいびされているぼーさいへりこぷたーのうんこーや、きたいとーさいよーのせんよーすとれっちゃーをそなえたこがたこていよくきによるかんじゃゆそー、のーしどなーからていきょーされたいしょくよーぞーきのはんそーなど、いーえむえすじぎょーにせっきょくてきにさんかしている。	NO_LABEL
このほか、テレビ局の報道取材ヘリの運航、遠隔地への物資輸送、旅客輸送、イベント輸送等を全国で行っている。	このほか、てれびきょくのほーどーしゅざいへりのうんこー、えんかくちえのぶっしゆそー、りょかくゆそー、いべんとゆそーとーをぜんこくでおこなっている。	NO_LABEL
その他、航空機を使用した写真撮影やレーザー計測などの調査・測量事業なども手掛けている。	NO_PRONOUNCE	NO_LABEL
第二次世界大戦後は日本において一切の航空事業が禁止されていたが、サンフランシスコ平和条約が発効し航空事業が本格的に解禁された1952年以降、航空会社が次々と誕生した。	だいにじせかいたいせんごわにっぽんにおいていっさいのこーくーじぎょーがきんしされていたが、さんふらんしすこへいわじょーやくがはっこーしこーくーじぎょーがほんかくてきにかいきんされたせんきゅうひゃくごじゅうにねんいこー、こーくーがいしゃがつぎつぎとたんじょーした。	NO_LABEL
江南市で鉄工所を営んでいた青山利光は、太平洋戦争で生き残ったパイロット経験者を集め、セスナ式170B型を2機保有する会社を設立した。	NO_PRONOUNCE	NO_LABEL
なお、設立当初の小牧飛行場は在日米軍の管理下にあったが、基地内に設けた仮テント式の基地からの出発となった。	なお、せつりつとーしょのこまきひこーじょーわざいにちべいぐんのかんりかにあったが、きちないにもーけたかりてんとしきのきちからのしゅっぱつとなった。	NO_LABEL
1960年3月に名古屋鉄道と中日新聞社が資本参加したほか、1963年1月に全日本空輸からDC-3型機2機を購入し、定期路線の運航を本格的に開始した。	NO_PRONOUNCE	NO_LABEL
しかし、東海道新幹線の開通による影響で名古屋 - 東京路線の運航が困難になったことから、定期路線の人員と機材を全日空へ譲渡し、ヘリコプター部門に力を入れ始めた。	NO_PRONOUNCE	NO_LABEL
1964年にシコルスキー式S62A型によって北アルプスの穂高岳山荘へ物資輸送を行なったのをきっかけに、ヘリコプターによる物資輸送の事業が本格的に始まった。	NO_PRONOUNCE	NO_LABEL
1969年に航空による漁業パトロールがヘリコプターから小型飛行機に切り替わったのを機にこの分野にも関わり、1980年9月からセスナ式404型機を使用し、東北・北海道の沖合1,000kmの東経155度線にまでにおよぶ取締りを行った。	NO_PRONOUNCE	NO_LABEL
マイカー時代の到来と共に各ラジオ局で始まった交通情報では空から各地の状況を即時に伝えるシステムが人気を博し、1970年から3年以上にわたって行われた。	まいかーじだいのとーらいとともにかくらじおきょくではじまったこーつーじょうほーでわそらからかくちのじょーきょーをそくじにつたえるしすてむがにんきをはくし、せんきゅうひゃくななじゅうねんからさんねんいじょーにわたっておこなわれた。	NO_LABEL
1971年にアメリカからフェアチャイルドK-22を購入し、航空測量事業が本格化した。	NO_PRONOUNCE	NO_LABEL
翌1972年にはスイス・ウイルド社の航測カメラRC-10を導入した。	NO_PRONOUNCE	NO_LABEL
また、ジルコ社が開発した国産第1号の赤外線スキャナを利用して火力発電所の調査を行い、リモートセンシングの第一人者として温排水調査や地熱調査をしばらくの間独占した。	また、じるこしゃがかいはつしたこくさんだいいちごーのせきがいせんすきゃなをりよーしてかりょくはつでんしょのちょーさをおこない、りもーとせんしんぐのだいいちにんしゃとしてあつしはいすいちょーさやちねつちょーさをしばらくのまどくせんした。	NO_LABEL
1984年4月 - 日本の事業会社で初めて「ヘリコプター救急搬送業務」を開始した。	NO_PRONOUNCE	NO_LABEL
現在のドクターヘリの基礎を築く。	げんざいのどくたーへりのきそをきずく。	NO_LABEL
1988年、地方都市間を結んでいる定期路線の全てを名古屋鉄道と全日空が共同で設立した新会社「中日本エアラインサービス」へ移管し、定期路線からは撤退した。	NO_PRONOUNCE	NO_LABEL
2006年1月より本社第二格納庫の建設作業が行われ、9月より運用が開始された。	にせんろくねんいちがつよりほんしゃだいにかくのーこのけんせつさぎょーがおこなわれ、くがつよりうんよーがかいしされた。	NO_LABEL
2010年12月 - 大学共同利用機関法人情報・システム研究機構「国立極地研究所」の業務で、第52次南極地域観測隊へ、ヘリコプター・パイロット・整備士を派遣。	NO_PRONOUNCE	NO_LABEL
南極大陸で物資・人員輸送を行った。	NO_PRONOUNCE	NO_LABEL
2015年4月 - 商品販売事業本部を名鉄協商株式会社へ譲渡した。	NO_PRONOUNCE	NO_LABEL
2015年6月 - 県営名古屋空港に飛来した「ソーラーインパルス2」の機体およびスタッフの日本滞在を24時間体制でサポートした。	NO_PRONOUNCE	NO_LABEL
現在使用中の航空機。	げんざいしよーちゅーのこーくーき。	NO_LABEL
貸切、空撮、EMS、貨物輸送、教育・訓練、遊覧、農林水産、宣伝に使用。	NO_PRONOUNCE	NO_LABEL
現在は運航していないが、過去に使用したことのある航空機。	げんざいわうんこーしていないが、かこにしよーしたことのあるこーくーき。	NO_LABEL
