ターネラは小惑星帯に位置する小惑星。	たーねらわしょーわくせいたいにいちするしょーわくせい。	NO_LABEL
1929年8月1日、南アフリカのユニオン天文台でシリル・ジャクソンによって発見された。	せんきゅうひゃくにじゅうきゅうねはちがつついたち、みなみあふりかのゆにおんてんもんだいでしりるじゃくそんによってはっけんされた。	NO_LABEL
イギリスの天文学者、地震学者ハーバート・ターナーに因んで命名された。	いぎりすのてんもんがくしゃ、じしんがくしゃはーばーとたーなーにちなんでめいめいされた。	NO_LABEL
