アンドレ・ウィナーは、グレナダの男性総合格闘家。	あんどれうぃなーわ、ぐれなだのだんせいそーごーかくとーか。	NO_LABEL
セントジョージズ出身。	せんとじょーじずしゅっしん。	NO_LABEL
イギリス・イングランド在住。	NO_PRONOUNCE	NO_LABEL
チーム・ラフハウス所属。	NO_PRONOUNCE	NO_LABEL
イギリス人の父親とアフリカ系カリブ人の母親の間にグレナダ・セントジョージズで生まれ、7歳で家族とともにイングランド・レスターに移住した。	NO_PRONOUNCE	NO_LABEL
16歳から極真空手を始め、2006年7月15日に総合格闘技デビュー。	じゅうろっさいからきょくしんからてをはじめ、にせんろくねんしちがつじゅうごにちにそーごーかくとーぎでびゅー。	NO_LABEL
2009年、The Ultimate Fighterのにライト級選手として参加。	NO_PRONOUNCE	NO_LABEL
チーム・イギリス入りを賭けた1回戦ではガリー・ケリーに1RにパウンドでTKO勝ち。	NO_PRONOUNCE	NO_LABEL
2回戦ではサンチノ・デフランコに1RにパウンドでTKO勝ち。	NO_PRONOUNCE	NO_LABEL
準決勝ではキャメロン・ダラーに1Rに三角絞めで一本勝ちで決勝進出を決めた。	NO_PRONOUNCE	NO_LABEL
6月20日、で行われた決勝では同じチーム・イギリスのロス・ピアソンと対戦し、判定負けで準優勝となった。	NO_PRONOUNCE	NO_LABEL
2009年11月14日、UFC 105でローランド・デルガドと対戦し、右フックで失神KO勝ち。	NO_PRONOUNCE	NO_LABEL
2010年3月31日、でハファエロ・オリヴェイラと対戦し、3-0の判定勝ちを収めた。	NO_PRONOUNCE	NO_LABEL
8月28日、UFC 118でニック・レンツと対戦し、0-3の判定負けを喫した。	NO_PRONOUNCE	NO_LABEL
11月13日、UFC 122でデニス・シヴァーと対戦し、チョークスリーパーで一本負けを喫した。	NO_PRONOUNCE	NO_LABEL
