桶町千葉道場は、幕末に千葉定吉によって開かれた、北辰一刀流の道場。	おけまちちばどうじょーわ、ばくまつにちばさだきちによってひらかれた、ほくしんいっとうりゅーのどーじょー。	NO_LABEL
江戸の桶町八重洲にあった。	えどのおけまちやえすにあった。	NO_LABEL
主な門人に千葉重太郎、千葉さな子、土佐藩士の坂本龍馬、柏尾馬之助らがいた。	おもなもんじんにちばじゅうたろー、ちばさなこ、とさはんしのさかもとりょうま、かしおうまのすけらがいた。	NO_LABEL
定吉の兄・千葉周作が神田於玉ヶ池で開いていた玄武館が「大千葉」と通称されたのに対し、こちらは｢小千葉」と呼ばれた。	NO_PRONOUNCE	NO_LABEL
玄武館の千葉一族の多くが水戸藩に仕官したのに対し、定吉・重太郎は共に鳥取藩の江戸藩邸に仕官した。	NO_PRONOUNCE	NO_LABEL
