教育目的は「心と福祉と魂の高度な専門家を養成する」。	NO_PRONOUNCE	NO_LABEL
学校名の「ルーテル」は宗教改革の中心人物マルティン・ルターからきている。	NO_PRONOUNCE	NO_LABEL
大学の東門の塀には、ルターの言葉「自分のためでなく、隣人のために生きて、仕える生に神の祝福があるように」がドイツ語で書かれている。	NO_PRONOUNCE	NO_LABEL
日本福音ルーテル教会と日本ルーテル教団が創立の母体であり、両教団の牧師を養成するための神学校である日本ルーテル神学校を併設している。	にっぽんふくいんるーてるきょーかいとにほんるーてるきょーだんがそーりつのぼたいであり、りょーきょーだんのぼくしをよーせいするためのしんがっこーであるにっぽんるーてるしんがっこーをへいせつしている。	NO_LABEL
なお、熊本の九州ルーテル学院大学とは姉妹校の関係にある。	なお、くまもとのきゅーしゅーるーてるがくいんだいとわしまいこーのかんけいにある。	NO_LABEL
2014年4月より、1学部1学科5コース制へ改編された。	NO_PRONOUNCE	NO_LABEL
「キリストの心を心とする」	NO_PRONOUNCE	NO_LABEL
「一人ひとりを大切にする教育」を通じて「キリストの心を心として神と世に仕える」人材を育成する	NO_PRONOUNCE	NO_LABEL
1学年定員90名。	NO_PRONOUNCE	NO_LABEL
学生全員分のメールボックスがある。	がくせいぜんいんぶんのめーるぼっくすがある。	NO_LABEL
学生のクリスチャンの割合は10%程度。	がくせいのくりすちゃんのわりあいわじゅうぱーせんとていど。	NO_LABEL
福祉実習教育は、文部科学省の平成19年度特色ある大学教育支援プログラムで、「包括的実習指導教育システムの構築〜段階的スキルアップとトライアングル指導の確立」が採択されている。	NO_PRONOUNCE	NO_LABEL
総合人間学研究科臨床心理学専攻は、日本臨床心理士資格認定協会の第一種指定校。	そーごーにんげんがくけんきゅーかりんしょーしんりがくせんこーわ、にほんりんしょーしんりししかくにんていきょーかいのだいいっしゅしていこー。	NO_LABEL
臨床心理士合格率は、2012年度92%、2013年度71%、2014年度91%。	りんしょーしんりしごーかくりつわ、にせんじゅうにねんどきゅうじゅうにぱーせんと、にせんじゅうさんねんどななじゅういちぱーせんと、にせんじゅうよんねんどきゅうじゅういちぱーせんと。	NO_LABEL
※人間成長とカウンセリング研究所は、2012年7月31日に閉所	NO_PRONOUNCE	NO_LABEL
ほか	ほか	NO_LABEL
学園祭として「愛祭」が開催される。	NO_PRONOUNCE	NO_LABEL
校舎は建築家村野藤吾が78歳の時に設計したもので、その代表作の一つと言われている。	こーしゃわけんちくかむらのとーごがななじゅうはっさいのときにせっけいしたもので、そのだいひょーさくのひとつといわれている。	NO_LABEL
隣接する東京神学大学とは単位互換制度を設けている。	りんせつするとーきょーしんがくだいがくとわたんいごかんせいどをもーけている。	NO_LABEL
近隣の国際基督教大学との交流は2013年現在行われていないが、学生は相互の図書館を利用することができる。	きんりんのこくさいきりすときょーだいがくとのこーりゅーわにせんじゅうさんねんげんざいおこなわれていないが、がくせいわそーごのとしょかんをりよーすることができる。	NO_LABEL
なお、在校生以外も申請をすれば図書館の利用が可能となる。	なお、ざいこーせいいがいもしんせいをすればとしょかんのりよーがかのーとなる。	NO_LABEL
