学生募集は2004年度まで。	がくせいぼしゅーわにせんよんねんどまで。	NO_LABEL
2005年度より宮城大学食産業学部の設置により短期大学は学生募集を停止し、2006年3月31日廃止。	にせんごねんどよりみやぎだいがくしょくさんぎょーがくぶのせっちによりたんきだいがくわがくせいぼしゅーをていしし、にせんろくねんさんがつさんじゅういちにちはいし。	NO_LABEL
歴代学長	れきだいがくちょー	NO_LABEL
