沖縄県宮古事務所は、沖縄県宮古島市に設置されている県の出先機関。	おきなわけんみやこじむしょわ、おきなわけんみやこじましにせっちされているけんのでさききかん。	NO_LABEL
宮古島や多良間島などの宮古諸島における事務を担当。	みやこじまやたらまとーなどのみやこしょとーにおけるじむをたんとー。	NO_LABEL
事務所長は県企画部に属し、部長級として扱われる。	じむしょちょーわけんきかくぶにぞくし、ぶちょーきゅーとしてあつかわれる。	NO_LABEL
かつては地方自治法上の支庁である宮古支庁として設置されていたが、県の行政改革の一環として2009年3月をもって支庁が廃止され、現在の宮古事務所となった。	かつてわちほーじちほーじょーのしちょーであるみやこしちょーとしてせっちされていたが、けんのぎょーせいかいかくのいっかんとしてにせんきゅうねんさんがつをもってしちょーがはいしされ、げんざいのみやこじむしょとなった。	NO_LABEL
これに伴い、県税･土木などの支庁が管轄していた各機関は本庁の直轄となっている。	NO_PRONOUNCE	NO_LABEL
