『ルパン三世VS名探偵コナン THE MOVIE』は2013年12月7日に公開された日本のアニメ映画で、モンキー・パンチ原作の『ルパン三世』と青山剛昌原作の『名探偵コナン』のクロスオーバー作品である。	NO_PRONOUNCE	NO_LABEL
上映時間は107分。	じょーえいじかんわひゃくななふん。	NO_LABEL
興行収入は42億6,000万円。	NO_PRONOUNCE	NO_LABEL
本作は下記に記した複数の周年記念映画でもある。	もとさくわかきにしるしたふくすーのしゅーねんきねんえいがでもある。	NO_LABEL
第37回日本アカデミー賞優秀アニメーション作品賞受賞作品。	だいさんじゅうななかいにっぽんあかでみーしょーゆーしゅーあにめーしょんさくひんしょーじゅしょーさくひん。	NO_LABEL
キャッチコピーは、 「決着つけようぜ―。	NO_PRONOUNCE	NO_LABEL
」「奇跡の対決、開幕―」「この世に 解けない謎 盗めない宝は … 塵ひとつ存在しねぇ!!」 「幻の秘宝を巡る大事件発生! 熱狂的な大歓声の中、激突するルパンとコナン。	NO_PRONOUNCE	NO_LABEL
アクション×ナゾトキの真骨頂! この冬、たったひとつの真実が、あなたの心を盗み出す!」「12.7 SAT 米花町にルパン三世、現る。	NO_PRONOUNCE	NO_LABEL
」「今世紀最大の宿命の対決」「やっぱ、ルパコナでしょ。	NO_PRONOUNCE	NO_LABEL
」。	NO_PRONOUNCE	NO_LABEL
2009年3月27日に放送されたテレビスペシャル『ルパン三世VS名探偵コナン』が好評だったことを受け、企画された。	NO_PRONOUNCE	NO_LABEL
ストーリーとしては単独で起きた事件だが、前作の続編的になっている部分もある。	すとーりーとしてわたんどくでおきたじけんだが、ぜんさくのぞくへんてきになっているぶぶんもある。	NO_LABEL
『ルパン』としては、1996年に上映された第6作『ルパン三世 DEAD OR ALIVE』以来17年半ぶりの新作映画であるとともに、2011年に石川五ェ門・峰不二子・銭形警部の各声優陣が変更されてから初の映画でもある。	NO_PRONOUNCE	NO_LABEL
『コナン』の方も、2009年に毛利小五郎の声優が変更されており、両作共に一部のキャストを変更してから初の共演となる。	NO_PRONOUNCE	NO_LABEL
また、本作を『コナン』の劇場版作品として数えると、年に2本公開されたのは初のことであり、劇場版の時系列的には第17作『名探偵コナン 絶海の探偵』と第18作『名探偵コナン 異次元の狙撃手』の間の出来事となる。	NO_PRONOUNCE	NO_LABEL
監督は前作から引き続き亀垣一が担当。	かんとくわぜんさくからひきつずきかめがきはじめがたんとー。	NO_LABEL
一部を除き、全パートの絵コンテも担当している。	いちぶをのぞき、ぜんぱーとのえこんてもたんとーしている。	NO_LABEL
本作のゲストキャラクターは、後述する登場人物の関係から、全てルパン側のデザインとなっている。	もとさくのげすときゃらくたーわ、こーじゅつするとーじょーじんぶつのかんけいから、すべてるぱんがわのでざいんとなっている。	NO_LABEL
前作に引き続き、本作の脚本を担当した前川淳は、文化放送・超!A&G+によるインターネットラジオ番組『諏訪道彦のスワラジ』にゲストとして登場した際、本作の脚本の執筆は1年掛けて2012年10月に完了させたことを明かした。	NO_PRONOUNCE	NO_LABEL
本作では、『コナン』の原作者である青山剛昌が積極的に制作に参加している。	NO_PRONOUNCE	NO_LABEL
青山は、アイデア提供や演出、一部の絵コンテも担当し、モンキー・パンチによる原作『ルパン』のハードボイルドな雰囲気が少しでも出るよう工夫したと話しており、前作では殆ど描かれなかった銃撃シーンも多く登場した。	NO_PRONOUNCE	NO_LABEL
音楽は『ルパン』のTV第2シリーズ放送開始から現在まで『ルパン』音楽を制作・担当し続けている大野雄二による55曲、『コナン』のTVアニメ放送開始から現在まで『コナン』音楽を制作・担当し続けている大野克夫による47曲の全102曲であり、全曲とも新規書き下ろしである。	NO_PRONOUNCE	NO_LABEL
前作では安定したストーリーを目指した脚本づくりもあり、『ルパン』の世界観に『コナン』の人物が登場するという趣向で『コナン』の人物が絞られ、あまり登場しなかったが、本作では『コナン』の世界観に『ルパン』の人物が登場するという前作と逆転した趣向と劇場版ならではの豪華さを追求し、前作では未登場だった少年探偵団や怪盗キッド、警察関係者など『コナン』劇場版のレギュラー陣が数多く登場する。	NO_PRONOUNCE	NO_LABEL
劇場版『コナン』への登場自体が初のキャラクターも多く、第10作『探偵たちの鎮魂歌』に顔だけ登場した宮本由美と、本作公開当時におけるアニメ初登場から日の浅い三池苗子が共に初登場したほか、FBI捜査官のジョディ・スターリングとジェイムズ・ブラックが、翌年公開の第18作『異次元の狙撃手』に先駆けて初登場した。	NO_PRONOUNCE	NO_LABEL
オープニングはコナンがルパン側を、ルパンがコナン側を紹介する構成になっており、『ルパン』側の人物紹介は、同作のパイロット版をリメイクしたものとなっている一方、『コナン』側の人物紹介は、同作の劇場版シリーズでお馴染みの映像を本作のために新たに描き起こしたものになっている。	NO_PRONOUNCE	NO_LABEL
台詞はルパン側はTV第1シリーズの2代目オープニング、コナン側は第11作『紺碧の棺』をベースにしている。	NO_PRONOUNCE	NO_LABEL
劇場版『コナン』シリーズの恒例となっている「阿笠博士のダジャレクイズ」は今作でも行われているが、もう一つの「工藤新一と毛利蘭の過去のエピソード」は無かった。	NO_PRONOUNCE	NO_LABEL
そのため、工藤新一の出番は極めて少なく、冒頭の解説を除けばシルエットで登場するのみに止まり、新一役の山口勝平による台詞は一言もなかった。	そのため、くどーしんいちのでばんわきめてすくなく、ぼーとーのかいせつをのぞけばしるえっとでとーじょーするのみにとまり、しんひとやくのやまぐちかっぺいによるだいしわひとこともなかった。	NO_LABEL
これは『コナン』映画史上初めてであり、山口は黒羽快斗役のみ演じた。	NO_PRONOUNCE	NO_LABEL
また本編の台詞回しや一部シーンでは、『ルパン』のTV第1シリーズを意識した演出も見られる。	NO_PRONOUNCE	NO_LABEL
2013年4月20日に『名探偵コナン 絶海の探偵』の本編上映終了後、劇場版『コナン』の次作の特報とともに10秒程度のルパンとコナンのスペシャル映像が流れ、本作の公開が舞台挨拶で正式に発表された。	NO_PRONOUNCE	NO_LABEL
翌日の『コナン』のテレビアニメ放送時にもスペシャル映像が公開された。	NO_PRONOUNCE	NO_LABEL
2013年6月29日・30日には次世代ワールドホビーフェア'13 Summerの少年サンデーブースにおいて、特報第1弾が先行公開された。	NO_PRONOUNCE	NO_LABEL
2013年8月から特報第1弾の劇場公開・テレビ放映、特製VSクリアファイルの特典付き前売り券第1弾の先着10万名限定販売、特製うちわやチラシの配布、ルパン三世のコスチュームを身に着けた江戸川コナンの劇場訪問やテレビ出演など、公開に先駆けて早い段階から積極的な宣伝活動が行われた。	NO_PRONOUNCE	NO_LABEL
2013年9月8日には、京都国際マンガ・アニメフェア2013の日本テレビブースにおいて、『ルパン』担当である中谷敏夫と『コナン』担当の諏訪道彦の両プロデューサーによる本作のトークイベントが行われた。	NO_PRONOUNCE	NO_LABEL
2013年9月17日にはゲスト声優が発表され、本作オリジナルの登場人物であるアラン・スミシー役に『ルパン』世代代表として俳優の内野聖陽、クラウディア役に『コナン』世代代表として女優の夏菜がそれぞれ起用された。	NO_PRONOUNCE	NO_LABEL
また、同日には日本テレビ系列の情報バラエティ番組『ZIP!』とニュース番組『news every.』でゲスト声優へのインタビューが放送されたほか、20日にはシネマトゥデイにより予告編が先行公開された。	NO_PRONOUNCE	NO_LABEL
そして、21日にはYouTube・東宝公式チャンネルにて特報第1弾・特報第2弾・予告編が公開され、本作の公式サイトのリニューアルも行われた。	NO_PRONOUNCE	NO_LABEL
なお、こちらの予告編では特典付き前売り券第1弾・第2弾の告知もされている。	NO_PRONOUNCE	NO_LABEL
2013年10月12日から、特典付き前売り券第2弾である「ルパンからの秘密のメッセージ入り・奇跡のコラボファイル」付き前売り券が先着5万名限定で販売された。	NO_PRONOUNCE	NO_LABEL
さらに同日から、『大泥棒vs名探偵!お宝奪還ナゾトキキャンペーン』が開催された。	NO_PRONOUNCE	NO_LABEL
ルパンから出題された5つの謎解きを行い、本作の限定アイテムを抽選で入手するというもので、キャンペーン期間は2014年1月5日18時までとなっていた。	るぱんからしゅつだいされたいつつのなぞときをおこない、もとさくのげんていあいてむをちゅーせんでにゅーしゅするとゆうもので、きゃんぺーんきかんわにせんじゅうよねんいちがついつかじゅうはちじまでとなっていた。	NO_LABEL
2013年10月以降は企業とのタイアップ・キャンペーンが数多く行われ、エクソンモービルグループのセルフサービスステーションであるエクスプレス、明治の冷凍食品、森永乳業のプリン、シダックス・コミュニティーのカラオケレストラン、第一屋製パン、セブン-イレブンにて、それぞれで開催された。	NO_PRONOUNCE	NO_LABEL
また、セブン-イレブンとのキャンペーン・タイアップでは新規アニメーションを起用したテレビCMが制作・放送された。	NO_PRONOUNCE	NO_LABEL
2013年11月7日にはゲスト声優の第2弾が発表され、本作オリジナルの登場人物として、ルパンと因縁のある殺し屋であるキング役に『名探偵コナン 11人目のストライカー』以来2度目のアニメ映画出演となる三浦知良が起用されることが明らかとなった。	NO_PRONOUNCE	NO_LABEL
また、同日には99RadioServiceと本作オリジナル登場人物のエミリオ・バレッティ役である入野自由による劇中歌『wonderland』の制作および本作への提供が発表された。	NO_PRONOUNCE	NO_LABEL
2013年11月14日には本作の完成披露試写会が行われた。	にせんじゅうさんねんじゅーいちがつじゅうよっかにわもとさくのかんせいひろーししゃかいがおこなわれた。	NO_LABEL
『ルパン』・『コナン』両作のメインキャスト、本作のゲスト声優である内野聖陽と夏菜が登壇し、日本テレビアナウンサーの桝太一の司会による舞台挨拶を行った。	NO_PRONOUNCE	NO_LABEL
また、『ルパン』原作者のモンキー・パンチと『コナン』原作者の青山剛昌も登壇した。	NO_PRONOUNCE	NO_LABEL
2013年11月15日にはNNSのアナウンサー9名の出演が発表され、公式サイトの更新が行われた。	NO_PRONOUNCE	NO_LABEL
2013年12月からはテレビ初公開である本作の本編映像を使用したテレビCM「アクション篇」・「コメディ篇」が放送された。	NO_PRONOUNCE	NO_LABEL
また、同年12月5日からは本作の公開記念特番『奇跡の対決SP』が日本テレビ系列各局で放送された。	NO_PRONOUNCE	NO_LABEL
また、12月31日に放送された『ダウンタウンのガキの使いやあらへんで!! 大晦日年越しSP 絶対に笑ってはいけない地球防衛軍24時』の放送時には同番組のレギュラー陣同様、コナンにルパンが「アウト」を宣告されてしまうというCMが放送された。	NO_PRONOUNCE	NO_LABEL
本作とのタイアップとして、セガプライズによるルパンのコスチュームを身に着けたコナンのプレミアムフィギュア、キーチェーン・マスコット、ビッグブランケット、そしてバンプレストによる主要キャラクターのワールドコレクタブルフィギュア、怪盗キッドのコスチュームを身に纏ったルパンのプライズフィギュアの販売が決定された。	NO_PRONOUNCE	NO_LABEL
また、本作の公開記念として、2013年9月24日発売の小学館・少年サンデーS10月1日増刊号から「名探偵コナン 特別編」の作画を担当している阿部ゆたか/丸伝次郎による前作のコミカライズ版が連載開始され、3号連続の掲載となり、11月18日には単行本の販売も決定した。	NO_PRONOUNCE	NO_LABEL
さらに、前作のDVD・BDのスペシャルプライス版が2013年11月20日から2014年2月20日までの期間限定で販売された。	NO_PRONOUNCE	NO_LABEL
どちらも本編映像に加え、原作者対談の特典映像が封入されている。	どちらもほんぺんえいぞーにくわえ、げんさくしゃたいだんのとくてんえいぞーがふーにゅーされている。	NO_LABEL
前作と同様に、公開記念としてメモリアルカレッジリングが製作され、2013年11月15日から受注生産での販売が決定した。	ぜんさくとどーよーに、こーかいきねんとしてめもりあるかれっじりんぐがせいさくされ、にせんじゅうさんねんじゅーいちがつじゅうごにちからじゅちゅーせいさんでのはんばいがけっていした。	NO_LABEL
ルパンをイメージした赤い石、ルビーシンセティックを施した「ルパンver.」、コナンをイメージした青い石、ブルーサファイアを施した「コナンver.」と2種類あり、リングの腕にはルパン、コナンがそれぞれ彫り込まれ、劇場公開年月日がメモリアルとして刻まれている。	NO_PRONOUNCE	NO_LABEL
製作は2008年よりルパン関連のアクセサリーを作り続けているマジェスフィッセンによる。	せいさくわにせんはちねんよりるぱんかんれんのあくせさりーをつくりつずけているまじぇすふぃっせんによる。	NO_LABEL
2013年12月4日には大野雄二・大野克夫による本作のオリジナル・サウンドトラックが販売、12月5日には本作の小説版の販売が決定した。	NO_PRONOUNCE	NO_LABEL
公開前日である2013年12月6日には、『金曜ロードSHOW!』にて前作の2度目の再放送が行われた。	NO_PRONOUNCE	NO_LABEL
また、CS局でも2013年11月頃から本作の公開を記念した特別放送枠で過去の『ルパン』の劇場版・テレビスペシャル版、『コナン』のスペシャル版・劇場版の放送を行っている。	NO_PRONOUNCE	NO_LABEL
2014年6月4日には、BDとDVDが小学館、バップから発売。	にせんじゅうよねんろくがつよっかにわ、びーでぃーとでぃーぶいでぃーがしょーがくかん、ばっぷからはつばい。	NO_LABEL
BD版及びDVD豪華版には、本編ディスクに亀垣一監督、ルパン・コナン各プロデューサーによるオーディオコメンタリー、特報・劇場予告編を収録し、「映画公開記念!「ルパン三世VS名探偵コナン THE MOVIE」奇跡の対決SP」を収録した特典DVDとポストカード3枚を封入するほか、登場人物たちが東都ベルツリータワーの前に勢揃いして記念写真を撮ったという体裁の描き下ろしスリーブケースが付属している。	NO_PRONOUNCE	NO_LABEL
DVD通常版には本編及び特報・劇場予告編を収録。	NO_PRONOUNCE	NO_LABEL
本作の公開を受け、京都・東映太秦映画村で2013年11月30日から2014年2月14日まで本作の企画展『ルパン三世・名探偵コナンの世界展』が開催された。	NO_PRONOUNCE	NO_LABEL
東映傘下である映画村で東宝配給の本作が特集されるという、異例の企画である。	とーえいさんかであるえいがむらでとーほーはいきゅーのもとさくがとくしゅーされるとゆう、いれいのきかくである。	NO_LABEL
ライバル同士と言われた2社のタッグは東映側からの提案から始まり、東宝側が快諾した。	NO_PRONOUNCE	NO_LABEL
2013年12月7日から全国329スクリーンで公開され、オープニング2日間で観客動員数53万9132人、興行収入6億4,983万5,000円を記録し、映画観客動員ランキングで初登場第1位となった。	NO_PRONOUNCE	NO_LABEL
同時に、ぴあの調査による初日満足度ランキングにおいても満足度93.7を獲得して第1位となった。	NO_PRONOUNCE	NO_LABEL
公開第2週目の週末も観客動員数40万8,717人、興行収入4億7,317万2,850円を記録して観客動員ランキング第1位となり、2週連続の首位を獲得。	NO_PRONOUNCE	NO_LABEL
公開から9日間で動員数120万人を突破した。	こーかいからここのかでどーいんすーひゃくにじゅうまんにんをとっぱした。	NO_LABEL
公開第6週目の1月7日には累計動員数300万人、興行収入36億3,650万850円に到達し、劇場版『コナン』シリーズの最高興収記録を上回った。	NO_PRONOUNCE	NO_LABEL
公開第7週目には興行収入が40億786万900円となり、『ルパン』、『コナン』の両作品を通じて初の40億円突破を達成し、最終興行収入は42億6,000万円を記録した。	NO_PRONOUNCE	NO_LABEL
2015年1月30日には『金曜ロードSHOW!』において地上波で初放送された。	NO_PRONOUNCE	NO_LABEL
本編を枠内に収めるための再編集が施される一方、CM内ではコナンとキッドによる本作に絡めた新録ナレーション付きの『名探偵コナン 業火の向日葵』の予告が流された。	NO_PRONOUNCE	NO_LABEL
関東地区での平均視聴率は14.9%を記録した。	かんとーちくでのへいきんしちょーりつわじゅうよんてんきゅうぱーせんとをきろくした。	NO_LABEL
2016年10月7日には『ルパン三世』の放送開始45周年を記念した「3週連続ルパン祭り」の第1弾として放送された。	NO_PRONOUNCE	NO_LABEL
2015年1月30日分と同じく、再編集されている。	にせんじゅうごねんいちがつさんじゅうにちぶんとどうじく、さいへんしゅーされている。	NO_LABEL
関東地区での平均視聴率は10.3%を記録した。	かんとーちくでのへいきんしちょーりつわじゅうてんさんぱーせんとをきろくした。	NO_LABEL
ある日、月島の宝石店へ怪盗キッドがダイヤを盗みに入るが、本物のキッドである黒羽快斗はその様子を「誰だあいつ」と怪訝そうにうかがっていた。	NO_PRONOUNCE	NO_LABEL
コナンはスケボーに乗ってキッドを追跡するが、あと一歩のところで突如現れた何者かにスケボーを真っ二つにされ、取り逃がしてしまう。	こなんわすけぼーにのってきっどをついせきするが、あといちほのところでとつじょあらわれたなにものかにすけぼーをまっふたつにされ、とりにがしてしまう。	NO_LABEL
その手口から、コナンはルパン一味の石川五ェ門が斬鉄剣でスケボーを切断した事や、キッドがルパン三世の変装であった事に気付く。	そのてぐちから、こなんわるぱんいちみのいしかわごぇもんがざんてつけんですけぼーをせつだんしたことや、きっどがるぱんさんせいのへんそーであったじにきずく。	NO_LABEL
一方、追跡を振り切ったルパンはアラン・スミシーという謎の男に連絡を取る。	いっぽー、ついせきをふりきったるぱんわあらんすみしーとゆうなぞのおとこにれんらくをとる。	NO_LABEL
不二子を人質に取られたルパンは、テストとしてキッドに変装して盗みをさせられていたのだ。	ふふたごをひとじちにとられたるぱんわ、てすととしてきっどにへんそーしてぬすみをさせられていたのだ。	NO_LABEL
翌日、コナンは少年探偵団と阿笠博士の家に居た。	よくじつ、こなんわしょーねんたんていだんとあがさひろしのいえにいた。	NO_LABEL
コナンがルパンの日本滞在理由を思案していた時、テレビで海外の人気アイドル・エミリオが来日したというニュースが流れ、少年探偵団はエミリオに釘付けになるが、そのニュース映像にかつてヴェスパニア王国の事件捜査でコナンと手を組んだルパン一味の次元大介の姿を見付けたコナンは、ルパン一味が何かを企んでいると睨む。	NO_PRONOUNCE	NO_LABEL
同じ頃、米花町の銀行の金庫で厳重に保管されている宝石「チェリーサファイア」を頂くという、ルパンからの予告状が警察へ届き、万全の態勢を敷いて待ち構える銭形と佐藤、高木だったが、ルパンにまんまと出し抜かれ、町を滅茶苦茶にされた挙句チェリーサファイアを奪われてしまった。	NO_PRONOUNCE	NO_LABEL
その頃、鈴木財閥の情報力を駆使し、園子はエミリオの宿泊するホテルを突き止め、蘭、コナン、そしてクラウディア目当ての小五郎は突き止めた園子と共にホテルへ押し掛けるが、4人はそこでエミリオの日本公演が何者かによって脅迫されている事を知る。	そのころ、すずきざいばつのじょーほーりょくをくしし、そのこわえみりおのしゅくはくするほてるをつきとめ、らん、こなん、そしてくらうでぃあめあてのこごろーわつきとめたそのことともにほてるえおしかけるが、よにんわそこでえみりおのにっぽんこーえんがなにものかによってきょーはくされていることをしる。	NO_LABEL
コナンは1人、次元の目的を探ろうと調べていると、ホテルから抜け出したエミリオと一緒に行動しているという連絡を蘭から受ける。	こなんわひとり、じげんのもくてきをさぐろうとしらべていると、ほてるからぬけだしたえみりおといっしょにこーどーしているとゆうれんらくをらんからうける。	NO_LABEL
エミリオ達がいるベルツリータワーに到着したコナンと次元は、蘭達が危機的状況に陥っている事に気付く。	えみりおたちがいるべるつりーたわーにとーちゃくしたこなんとじげんわ、らんたちがききてきじょうきょーにおちいっていることにきずく。	NO_LABEL
2人の機転で無事に助けられホテルに戻ったエミリオはクラウディアから厳しい叱責を受けるが、ベルツリータワーでの一件を通じて、気持ちを切り替え、ライブへの意欲を見せる。	ふたりのきてんでぶじにたすけられほてるにもどったえみりおわくらうでぃあからきびしいしっせきをうけるが、べるつりーたわーでのいっけんをつーじて、きもちをきりかえ、らいぶえのいよくをみせる。	NO_LABEL
その頃、単独でルパンのアジトを突き止める事に成功した少年探偵団はアジトに乗り込むが、あっさりと五ェ門に一服盛られて眠らされてしまう。	そのころ、たんどくでるぱんのあじとをつきとめることにせいこーしたしょーねんたんていだんわあじとにのりこむが、あっさりとごぇもんにいっぷくもられてねむらされてしまう。	NO_LABEL
眠らされた探偵団達は不二子によって阿笠博士の家へ返されるが、代わりに拉致同然に同行させられた灰原は、豪華なホテルで下にも置かない待遇を受け、浴室で永遠の若さを叶えるという薬アポトキシンに関する情報を求められる。	ねむらされたたんていだんたちわふふたごによってあがさひろしのいええかえされるが、かわりにらちどーぜんにどーこーさせられたはいばらわ、ごーかなほてるでしたにもおかないたいぐーをうけ、よくしつでえいえんのわかさをかなえるとゆうくすりあぽときしんにかんするじょーほーをもとめられる。	NO_LABEL
ライブ前日、スタッフ達は本番への準備に大忙しの中、クラウディアは1人、エミリオがまだ無名だった頃に思いを馳せる。	らいぶぜんじつ、すたっふたちわほんばんえのじゅんびにおーいそがしのなか、くらうでぃあわひとり、えみりおがまだむめいだったころにおもいをはせる。	NO_LABEL
その頃、チェリーサファイア捜索を続けていた銭形達は、ルチアーノが小物のマフィアと密輸業者という顔を持ち、彼が日本で何らかの取引を計画している事を知るが、情報を得てもルパンの目的は不明のままライブ当日を迎えてしまう。	そのころ、ちぇりーさふぁいあそーさくをつずけていたぜにがたたちわ、るちあーのがこもののまふぃあとみつゆぎょーしゃとゆうかおをもち、かれがにっぽんでなんらかのとりひきをけいかくしていることをしるが、じょーほーをえてもるぱんのもくてきわふめいのままらいぶとーじつをむかえてしまう。	NO_LABEL
クラウディアからの情報によって、アラン・スミシーなる人物とルチアーノが接触するだろう事を予想して銭形達は網を張るが、裏をかかれライブ会場から抜け出されてしまう。	くらうでぃあからのじょーほーによって、あらんすみしーなるじんぶつとるちあーのがせっしょくするだろうことをよそーしてぜにがたたちわあみをはるが、うらをかかれらいぶかいじょーからぬけだされてしまう。	NO_LABEL
同じ頃、独自にルパンを追っていたコナンは「ある場所」へ向かっていた。	NO_PRONOUNCE	NO_LABEL
アランとルチアーノの取引が行われる場所である羽田空港旧整備地区では、アランとルチアーノが互いに挨拶を済ませるが、ルチアーノの条件がチェリーサファイアではないと知り、アランは動揺する。	あらんとるちあーののとりひきがおこなわれるばしょであるはねだくーこーきゅーせいびちくでわ、あらんとるちあーのがたがいにあいさつをすませるが、るちあーののじょーけんがちぇりーさふぁいあでわないとしり、あらんわどーよーする。	NO_LABEL
その瞬間、ルパンが現れ、更にFBIを引き連れたコナンも登場し、混戦模様となる中、ルパンを狙う銃口からルパンを庇った事でコナンが負傷してアランの人質となってしまい、チェリーサファイアとコナンの双方を手に入れたアランは飛行機で逃走を図る。	そのしゅんかん、るぱんがあらわれ、さらにえふびーあいをひきつれたこなんもとーじょーし、こんせんもよーとなるなか、るぱんをねらうじゅーこーからるぱんをかばったことでこなんがふしょーしてあらんのひとじちとなってしまい、ちぇりーさふぁいあとこなんのそーほーをてにいれたあらんわひこーきでとーそーをはかる。	NO_LABEL
遅れてやって来た不二子の助けを借りてアラン達の乗る飛行機に飛び移ったルパンはコナンと合流し、2人はタッグを組む事になった。	おくれてやってきたふじこのたすけをかりてあらんたちののるひこーきにとびうつったるぱんわこなんとごーりゅーし、ふたりわたっぐをくむことになった。	NO_LABEL
ルチアーノの暴挙により墜落の危機に陥った飛行機は辛うじて体勢を立て直す事には成功したものの、パイロットは死亡し、アランも瀕死の状態になっていた。	るちあーののぼーきょによりついらくのききにおちいったひこーきわかろーじてたいせいをたてなおすことにわせいこーしたものの、ぱいろっとわしぼーし、あらんもひんしのじょーたいになっていた。	NO_LABEL
飛行機の応急操縦と機器の修理をしながら真実が語られるが、ヴェスパニア鉱石を表沙汰にしたくないヴェスパニアとジランバより日本へ「航空機撃墜要請」がなされており、防空司令部より2人が乗る飛行機の撃墜命令が出されていた。	NO_PRONOUNCE	NO_LABEL
最初の攻撃は辛くも回避したものの、回避手段のチャフも撃ち尽くして絶体絶命の状態に陥ってしまい、最後の手段として、ヴェスパニア鉱石から作ったチェリーサファイアを使って危機を脱する作戦を決行する。	NO_PRONOUNCE	NO_LABEL
機体損傷によって極限まで追い詰められた2人だったが、コナンの機転とルパンの操縦技術によって作戦は成功し、攻撃は回避できたものの、飛行機も含め真相は全て海の中へと沈んでしまった。	きたいそんしょーによってきょくげんまでおいつめられたふたりだったが、こなんのきてんとるぱんのそーじゅーぎじゅつによってさくせんわせいこーし、こーげきわかいひできたものの、ひこーきもふくめしんそーわすべてうみのなかえとしずんでしまった。	NO_LABEL
後日、目的の一つであるヴェスパニア鉱石が他国に渡る事を阻止する事には成功したものの、奪還自体には失敗してしまったルパンは、手ぶらで帰るわけにはいかないと美術館に潜入し、お宝を頂こうとするが、そのお宝は勝手に名を騙った仕返しで既にキッドに盗まれた後であり、更に銭形や服部らに現場に踏み込まれ、這う這うの体で逃げ出したところで物語は終わる。	NO_PRONOUNCE	NO_LABEL
全員が前作の時点でコナンや蘭と面識があり、銭形以外はコナンと灰原の素性を知っている。	ぜんいんがぜんさくのじてんでこなんやらんとめんしきがあり、ぜにがたいがいわこなんとはいばらのすじょーをしっている。	NO_LABEL
本作では『ルパン三世』の過去のTVシリーズや劇場版、TVスペシャルのゲストキャラクターがモブとして登場している。	NO_PRONOUNCE	NO_LABEL
いずれもスター・システムによる出演で、台詞もなく過去の作品とは設定が異なる。	いずれもすたーしすてむによるしゅつえんで、だいしもなくかこのさくひんとわせっていがことなる。	NO_LABEL
前作で活躍の場があまり見られなかった、いわゆる『ルパン』お馴染みの乗り物や武器が本作では数多く登場している。	NO_PRONOUNCE	NO_LABEL
