超攻戦士ザクレスは、アオシマが1983年に発売していたオリジナルSFロボットプラモデルのシリーズ。	ちょーおさむせんしざくれすわ、あおしまがせんきゅうひゃくはちじゅうさんねんにはつばいしていたおりじなるえすえふろぼっとぷらもでるのしりーず。	NO_LABEL
ガンプラブームに各模型メーカーがこぞってSFアニメプラモデルに参入したなか、アオシマが展開したオリジナルシリーズ。	がんぷらぶーむにかくもけいめーかーがこぞってえすえふあにめぷらもでるにさんにゅーしたなか、あおしまがてんかいしたおりじなるしりーず。	NO_LABEL
各100円。	かくひゃくえん。	NO_LABEL
それまでの人気アニメによく似たデザインが特徴。	それまでのにんきあにめによくにたでざいんがとくちょー。	NO_LABEL
デザインはスフィウスLABが担当。	NO_PRONOUNCE	NO_LABEL
スフィウスLABは出版、映像美術方面で活躍する美術デザイン制作集団。	NO_PRONOUNCE	NO_LABEL
トミーの玩具商品「ゾイド」シリーズの初期から中期にかけての商品デザインや美術背景制作などに多数参加している。	NO_PRONOUNCE	NO_LABEL
のちにパッケージを変更し、「スペースクロス」というシリーズとして、同じ100円で販売された。	NO_PRONOUNCE	NO_LABEL
さらに後年、フルタ製菓より本製品が同梱された食玩として、「マイプラモデルチョコ」が発売された。	NO_PRONOUNCE	NO_LABEL
シリーズ名は『超攻戦士ザクレス』だが、「DIMENSION MODEL」という別の肩書きもあった。	NO_PRONOUNCE	NO_LABEL
