『くるくるくるりん』は、2001年3月21日にゲームボーイアドバンスのソフトとして任天堂から発売されたアクションゲーム。	NO_PRONOUNCE	NO_LABEL
続編に、『くるりんパラダイス』『くるりんスカッシュ!』がある。	NO_PRONOUNCE	NO_LABEL
クルリンの弟妹たちが外の国で迷子になっており、クルリンはヘリリンに乗って弟妹を探しにいく。	くるりんのていまいたちがそとのくにでまいごになっており、くるりんわへりりんにのってていまいをさがしにいく。	NO_LABEL
国は10国あり、1国につき3のステージをクリアする。	NO_PRONOUNCE	NO_LABEL
3つめの場所で、弟妹がどこかにいるので、拾ってゴールすれば、ひとり助けたことになる。	みっつめのばしょで、ていまいがどこかにいるので、ひろってごーるすれば、ひとりたすけたことになる。	NO_LABEL
弟たちを探してクルリンが特殊ヘリコプター『ヘリリン』を使って冒険するモード。	NO_PRONOUNCE	NO_LABEL
プロペラの長さは「ふつう」「やさしい」の中から選ぶ。	NO_PRONOUNCE	NO_LABEL
選んだモードによって初期のステージ記録が異なる。	えらんだもーどによってしょきのすてーじきろくがことなる。	NO_LABEL
テキストを読み進めるとカカーリンから「トレーニングを受ける?」と聞かれる。	NO_PRONOUNCE	NO_LABEL
「うけるよ」を選択するとトレーニングの画面に移り、「やめとく」を選ぶとワールドマップの「草原1」からゲームがスタートする。	NO_PRONOUNCE	NO_LABEL
冒険モードの苦手なエリアを練習するモード。	ぼーけんもーどのにがてなえりあをれんしゅーするもーど。	NO_LABEL
エリアの数はチェックポイントの数＋１となる。	えりあのかずわちぇっくぽいんとのかずたすいちとなる。	NO_LABEL
画面の色が全部を通して簡略化されている。	がめんのいろがぜんぶをとーしてかんりゃくかされている。	NO_LABEL
冒険モードプロローグの「トレーニング」を全てクリア又はトレーニングをスキップで選択可能。	NO_PRONOUNCE	NO_LABEL
ポーズメニューから「おてほんをみる」を選択することで、壁に全くぶつけずに1エリアを通過する映像を見ることが出来る。	NO_PRONOUNCE	NO_LABEL
1エリア通過後出現するポーズメニューで「つづきをみる」を選べば次のエリアのお手本が見られる。	NO_PRONOUNCE	NO_LABEL
ポーズメニューを開いてもBGMは止まらない。	ぽーずめにゅーをひらいてもびーじーえむわとまらない。	NO_LABEL
隠しワールドは練習できない。	かくしわーるどわれんしゅーできない。	NO_LABEL
セレクトボタンによるプロペラの長さ変更はこのモードのみチェックポイントでも可能。	せれくとぼたんによるぷろぺらのながさへんこーわこのもーどのみちぇっくぽいんとでもかのー。	NO_LABEL
レベル別の短いコースに挑戦することができる。	れべるべつのみじかいこーすにちょーせんすることができる。	NO_LABEL
ただし、	ただし、	NO_LABEL
という所がぼうけんモードと異なる点。	とゆうところがぼーけんもーどとことなるてん。	NO_LABEL
このモードにも隠しステージがある。	このもーどにもかくしすてーじがある。	NO_LABEL
通信ケーブルを使って対戦するモード。	つーしんけーぶるをつかってたいせんするもーど。	NO_LABEL
「ちょうせん」モードの50ステージで対戦可能。	NO_PRONOUNCE	NO_LABEL
対戦モードは下記の通り。	たいせんもーどわかきのとーり。	NO_LABEL
対戦するステージがランダムで選ばれる。	たいせんするすてーじがらんだむでえらばれる。	NO_LABEL
試合回数を設定可能。	しあいかいすーをせっていかのー。	NO_LABEL
好きなステージを選んで対戦可能。	すきなすてーじをえらんでたいせんかのー。	NO_LABEL
モードとコースを選んだらハートの数とプロペラの長さをプレイヤーごとに設定する。	もーどとこーすをえらんだらはーとのかずとぷろぺらのながさをぷれいやーごとにせっていする。	NO_LABEL
対戦モードではできるだけ早くゴールすることが目的となる。	たいせんもーどでわできるだけはやくごーるすることがもくてきとなる。	NO_LABEL
ハートが無くなったらスタートエリアからやり直し。	はーとがなくなったらすたーとえりあからやりなおし。	NO_LABEL
冒険モードで取ったアイテムをプロペラに装飾するモード。	ぼーけんもーどでとったあいてむをぷろぺらにそーしょくするもーど。	NO_LABEL
うさぎ先生にヘリリンの動かし方を教わることができる。	うさぎせんせいにへりりんのうごかしかたをおそわることができる。	NO_LABEL
全5ステージ。	NO_PRONOUNCE	NO_LABEL
なお、前述のことから、このトレーニングは省略することもできる。	なお、ぜんじゅつのことから、このとれーにんぐわしょーりゃくすることもできる。	NO_LABEL
特に難しいところもない。	とくにむずかしいところもない。	NO_LABEL
十字ボタンに慣れるようにゆっくり進めばよい。	じゅーじぼたんになれるよーにゆっくりすすめばよい。	NO_LABEL
このワールドはステージ1から、バネが登場する。	このわーるどわすてーじわんから、ばねがとーじょーする。	NO_LABEL
このワールドはステージ2を除くバネがあり、大変入り組んだ難しいステージ。	このわーるどわすてーじつーをのぞくばねがあり、たいへんいりくんだむずかしいすてーじ。	NO_LABEL
道の角やくぼみを利用して急がずにヘリリンを動かす事が重要。	みちのかくやくぼみをりよーしていそがずにへりりんをうごかすことがじゅーよー。	NO_LABEL
どんどん道幅が狭くなる。	どんどんみちはばがせまくなる。	NO_LABEL
このワールドはステージ2を除くバネがない。	このわーるどわすてーじつーをのぞくばねがない。	NO_LABEL
このワールドではバネがいっぱい出てくる。	このわーるどでわばねがいっぱいでてくる。	NO_LABEL
後述でも記載するが、上手く使えば有効なバネでも、使わない方が有利なバネも出て来る。	こーじゅつでもきさいするが、うまくつかえばゆーこーなばねでも、つかわないほーがゆーりなばねもでてくる。	NO_LABEL
通路がとても分かりにくく出来ている。	つーろがとてもわかりにくくできている。	NO_LABEL
通れるかどうかをよく確かめてから進む必要がある。	とーれるかどーかをよくたしかめてからすすむひつよーがある。	NO_LABEL
このワールドのステージ2だけ、このゲームで唯一チェックポイントを通過しなくてもゴール出来る。	このわーるどのすてーじつーだけ、このげーむでゆいいつちぇっくぽいんとをつーかしなくてもごーるできる。	NO_LABEL
雲の国と同じように通路が分かりにくくなっている。	くものくにとおなじよーにつーろがわかりにくくなっている。	NO_LABEL
このワールドのステージ3だけ、バネが中心になる。	このわーるどのすてーじすりーだけ、ばねがちゅーしんになる。	NO_LABEL
このワールドは、迷路みたいな道になっている。	このわーるどわ、めいろみたいなみちになっている。	NO_LABEL
全エリアを通して障害物が出て来る。	ぜんえりあをとーしてしょーがいぶつがでてくる。	NO_LABEL
ステージ1はピストン、ステージ2は鉄球、ステージ3は全ての障害物が登場する。	すてーじわんわぴすとん、すてーじつーわてっきゅー、すてーじすりーわすべてのしょーがいぶつがとーじょーする。	NO_LABEL
このワールドはステージ3を除く、チェックポイントが3つある長いステージ。	このわーるどわすてーじすりーをのぞく、ちぇっくぽいんとがみっつあるながいすてーじ。	NO_LABEL
スタートエリアから最初のチェックポイントまで障害物は存在しないが、道がシビア。	すたーとえりあからさいしょのちぇっくぽいんとまでしょーがいぶつわそんざいしないが、みちがしびあ。	NO_LABEL
ステージ1で登場する障害物は無し→ピストン→鉄球→大砲、ステージ2は無し→大砲→鉄球→ピストン、ステージ3は無し→鉄球とピストン→大砲。	NO_PRONOUNCE	NO_LABEL
全ステージをプロペラの長さを変更せずにノーミスでクリアすると出現。	ぜんすてーじをぷろぺらのながさをへんこーせずにのーみすでくりあするとしゅつげん。	NO_LABEL
道がかなり長くて難しいうえに、チェックポイントが3つしかない。	みちがかなりながくてむずかしいうえに、ちぇっくぽいんとがみっつしかない。	NO_LABEL
その代わりデフォルトの記録が無くなっている。	そのかわりでふぉるとのきろくがなくなっている。	NO_LABEL
だから最初にプロペラの長さを変更せずにゴールさえすれば新記録は安易に出せる。	だからさいしょにぷろぺらのながさをへんこーせずにごーるさえすればしんきろくわあんいにだせる。	NO_LABEL
中心に向かって動く模様の中に居れば絶対にダメージは受けない。	ちゅーしんにむかってうごくもよーのなかにおればぜったいにだめーじわうけない。	NO_LABEL
やさしいモードはこの模様がある場所以外でも、止まってもダメージを受けない場所が多い。	やさしいもーどわこのもよーがあるばしょいがいでも、とまってもだめーじをうけないばしょがおーい。	NO_LABEL
ヘリリンの回転する方向を逆に出来る便利な仕掛け。	へりりんのかいてんするほーこーをぎゃくにできるべんりなしかけ。	NO_LABEL
バネは回転しているときに正面から当てないと回転方向は変わらない。	ばねわかいてんしているときにしょーめんからあてないとかいてんほーこーわかわらない。	NO_LABEL
当たったときに★印が出れば逆回転に成功したことが分かる。	NO_PRONOUNCE	NO_LABEL
上手く利用すれば有利なバネでも、使わない方が有利なものや、使わなくてもいいバネも存在する。	うまくりよーすればゆーりなばねでも、つかわないほーがゆーりなものや、つかわなくてもいいばねもそんざいする。	NO_LABEL
場合に応じて使い分けよう。	ばあいにおーじてつかいわけよう。	NO_LABEL
縦向きの物は上下に、横向きの物は左右に一定間隔で動く障害物。	たてむきのものわじょーげに、よこむきのものわさゆーにいっていかんかくでうごくしょーがいぶつ。	NO_LABEL
2つ縦並び、もしくは横並びになっている物も存在。	ふたつたてならび、もしくわよこならびになっているものもそんざい。	NO_LABEL
ピストン同士が貫通することは無い。	ぴすとんどーしがかんつーすることわない。	NO_LABEL
効果音と共に通気口から通気口に向かって一定間隔で動く。	こーかおんとともにつーきこーからつーきこーにむかっていっていかんかくでうごく。	NO_LABEL
鉄球同士が衝突する事は無いし、鉄球が無いときにヘリリンが通気口に触れてもダメージは受けない。	てっきゅーどーしがしょーとつすることわないし、てっきゅーがないときにへりりんがつーきこーにふれてもだめーじわうけない。	NO_LABEL
壁からヘリリンの方向を向いて弾を撃ってくる。	かべからへりりんのほーこーをむいてたまをうってくる。	NO_LABEL
砲台はヘリリンが通る場所に置かれている事は無い。	ほーだいわへりりんがとーるばしょにおかれていることわない。	NO_LABEL
発射した後で方向を変えることは無い。	はっしゃしたのちでほーこーをかえることわない。	NO_LABEL
ヘリリンにぶつかるか、壁にぶつかると弾は消える。	へりりんにぶつかるか、かべにぶつかるとたまわきえる。	NO_LABEL
弾同士が接触すると貫通する。	たまどーしがせっしょくするとかんつーする。	NO_LABEL
