ケネディは、アメリカ海軍の駆逐艦。	けねでぃわ、あめりかかいぐんのくちくかん。	NO_LABEL
クレムソン級駆逐艦の1隻。	NO_PRONOUNCE	NO_LABEL
艦名はジョン・ペンドルトン・ケネディに因む。	かんめいわじょんぺんどるとんけねでぃにちなむ。	NO_LABEL
ケネディは1918年9月25日にカリフォルニア州サンフランシスコのベスレヘム造船で起工する。	けねでぃわせんきゅうひゃくじゅうはちねんくがつにじゅうごにちにかりふぉるにあしゅーさんふらんしすこのべすれへむぞーせんできこーする。	NO_LABEL
1919年1月18日にユージーン・F・エスナー夫人によって進水し、1920年8月5日に艦長チャールズ・ジェファーソン・パリッシュ少佐の指揮下就役する。	NO_PRONOUNCE	NO_LABEL
母港であるカリフォルニア州サンディエゴには1920年10月7日に到着し、太平洋艦隊に合流、西海岸沿いに訓練および艦隊演習を行う。	ぼこーであるかりふぉるにあしゅーさんでぃえごにわせんきゅうひゃくにじゅうねんじゅーがつなのかにとーちゃくし、たいへいよーかんたいにごーりゅー、にしかいがんぞいにくんれんおよびかんたいえんしゅーをおこなう。	NO_LABEL
ケネディは砲術訓練、水雷訓練、航空機の護衛任務、艦隊演習、陸軍との合同演習などで多忙の時期を過ごした。	けねでぃわほーじゅつくんれん、すいらいくんれん、こーくーきのごえいにんむ、かんたいえんしゅー、りくぐんとのごーどーえんしゅーなどでたぼーのじきをすごした。	NO_LABEL
1924年の春にパナマ運河を通過し、カリブ海で艦隊と共に活動する。	せんきゅうひゃくにじゅうよねんのはるにぱなまうんがをつーかし、かりぶかいでかんたいとともにかつどーする。	NO_LABEL
4月22日にサンディエゴに帰還し、母港での任務を再開した。	しがつにじゅうににちにさんでぃえごにきかんし、ぼこーでのにんむをさいかいした。	NO_LABEL
1925年6月13日に出航、ハワイ沖での艦隊演習および訓練に向かった。	せんきゅうひゃくにじゅうごねんろくがつじゅうさんにちにしゅっこー、はわいおきでのかんたいえんしゅーおよびくんれんにむかった。	NO_LABEL
この巡航でケネディは戦闘艦隊と共に、サモアのパゴパゴ、オーストラリアやニュージーランドの港を訪問し、サンディエゴには9月26日に帰還した。	このじゅんこーでけねでぃわせんとーかんたいとともに、さもあのぱごぱご、おーすとらりあやにゅーじーらんどのみなとをほーもんし、さんでぃえごにわくがつにじゅうろくにちにきかんした。	NO_LABEL
1927年には再びカリブ海に向かい演習に参加する。	せんきゅうひゃくにじゅうななねんにわふたたびかりぶかいにむかいえんしゅーにさんかする。	NO_LABEL
この時にはバージニア州ノーフォーク、ニューヨークを訪問し、5月22日にサンディエゴに帰還している。	このときにわばーじにあしゅーのーふぉーく、にゅーよーくをほーもんし、ごがつにじゅうににちにさんでぃえごにきかんしている。	NO_LABEL
1928年4月9日に再びハワイに向けて出航、大規模艦隊演習に参加し、2ヶ月後にサンディエゴに帰還した。	NO_PRONOUNCE	NO_LABEL
1929年の夏に予備役兵の訓練巡航を行った後、ケネディは9月27日にサンディエゴに到着、同地で1930年5月1日に退役した。	せんきゅうひゃくにじゅうきゅうねのなつによびえきへいのくんれんじゅんこーをおこなったのち、けねでぃわくがつにじゅうしちにちにさんでぃえごにとーちゃく、どーちでせんきゅうひゃくさんじゅうねんごがつついたちにたいえきした。	NO_LABEL
船体は1931年3月19日に売却され、ロンドン海軍軍縮条約に従いスクラップとして廃棄された。	せんたいわせんきゅうひゃくさんじゅういちねさんがつじゅうきゅうにちにばいきゃくされ、ろんどんかいぐんぐんしゅくじょーやくにしたがいすくらっぷとしてはいきされた。	NO_LABEL
