MetacityはX Window System用のウィンドウマネージャで、GNOME 2では標準のウィンドウマネージャだった。	NO_PRONOUNCE	NO_LABEL
GTK+2で書かれており、GNOMEなしで使うこともできる。	NO_PRONOUNCE	NO_LABEL
GNOME 3からはGNOMEの標準ウィンドウマネージャはMutterになった。	NO_PRONOUNCE	NO_LABEL
レッドハット社のHavoc Penningtonによって開発され、2001年にバージョン2.3として初リリースされた。	NO_PRONOUNCE	NO_LABEL
「大人のための退屈なウィンドウマネージャ」と作者が説明しているように、シンプルで余計な機能がない。	NO_PRONOUNCE	NO_LABEL
カスタマイズをしない人の使用を想定し、デフォルトの状態で最も使いやすいように設計されている。	かすたまいずをしないじんのしよーをそーていし、でふぉるとのじょーたいでもっともつかいやすいよーにせっけいされている。	NO_LABEL
GNOME 2.2からSawfish（）に取ってかわり標準ウィンドウマネージャとなったためGNOMEプロジェクトの一部となったが、GNOMEとは独立に利用することもできる。	NO_PRONOUNCE	NO_LABEL
ライセンスはGPLである。	らいせんすわじーぴーえるである。	NO_LABEL
GNOMEの標準ウィンドウマネージャとしては、それ以前のものに比べ設定項目が非常に少なく、標準とすることには異論もあった。	ぐのーむのひょーじゅんうぃんどーまねーじゃとしてわ、それいぜんのものにくらべせっていこーもくがひじょーにすくなく、ひょーじゅんとすることにわいろんもあった。	NO_LABEL
Metacityを肯定する意見としては、GNOMEはEnlightenmentやSawfishのような沢山の設定項目を必要としないようなコンピュータユーザをターゲットとしているからであると言える。	NO_PRONOUNCE	NO_LABEL
否定する意見としてはUNIXアプリケーションにおける操作性と柔軟性の良さがないと言える。	ひていするいけんとしてわゆにっくすあぷりけーしょんにおけるそーさせいとじゅーなんせいのよさがないといえる。	NO_LABEL
なお、柔軟性の欠如を解決するためのアドオンも開発された。	なお、じゅーなんせいのけつじょをかいけつするためのあどおんもかいはつされた。	NO_LABEL
