交響詩『禿山の一夜』ニ短調は、モデスト・ムソルグスキー作曲の管弦楽曲。	NO_PRONOUNCE	NO_LABEL
長らくリムスキー＝コルサコフが編曲した版が広く知られていたが、近年ムソルグスキー自身の手による原典版も知られるようになり、こちらもムソルグスキーの典型的作風を示すものとして普及している。	ながらくりむすきーこるさこふがへんきょくしたばんがひろくしられていたが、きんねんむそるぐすきーじしんのてによるげんてんばんもしられるよーになり、こちらもむそるぐすきーのてんけいてきさくふーをしめすものとしてふきゅーしている。	NO_LABEL
原型はメグデンの戯曲『魔女』に基づき構想されたオペラ『禿山』である。	NO_PRONOUNCE	NO_LABEL
1860年頃に作曲したピアノ曲『聖ヨハネ祭前夜の禿山』で「聖ヨハネ祭の前夜に不思議な出来事が起こる」というヨーロッパの言い伝えの一種、「聖ヨハネ祭前夜、禿山に地霊チェルノボグが現れ手下の魔物や幽霊、精霊達と大騒ぎするが、夜明けとともに消え去っていく」とのロシアの民話を元に作られている。	NO_PRONOUNCE	NO_LABEL
聖ヨハネ祭は夏至の夜の祭りであり、題材としてはシェイクスピアの『夏の夜の夢』と同様であるといえる。	NO_PRONOUNCE	NO_LABEL
ムソルグスキーの楽曲の例に漏れず、『禿山の一夜』も何度もお蔵入りと改訂・編曲が繰り返された。	NO_PRONOUNCE	NO_LABEL
その結果、今日までに様々なバージョンが残されている状態にあり、それぞれ特徴ある楽曲となっている。	そのけっか、きょーまでにさまざまなばーじょんがのこされているじょーたいにあり、それぞれとくちょーあるがっきょくとなっている。	NO_LABEL
なお、指揮者クラウディオ・アバドはこれらの4つの版についていずれもレコーディングしているほどのムソルグスキーフリークである。	なお、しきしゃくらうでぃおあばどわこれらのよっつのばんについていずれもれこーでぃんぐしているほどのむそるぐすきーふりーくである。	NO_LABEL
未完のオペラ『サランボー』において、初めて『禿山の一夜』のモチーフが登場したとされている。	NO_PRONOUNCE	NO_LABEL
独立した曲としては明確に現存せず、アバドが『サランボー』の一節「巫女たちの合唱」として録音しているにとどまっている。	NO_PRONOUNCE	NO_LABEL
『禿山の一夜』の原曲と言えるのは第3幕第1場の最後あたりという。	NO_PRONOUNCE	NO_LABEL
現在ムソルグスキーの手によるオリジナル版として知られているもの。	げんざいむそるぐすきーのてによるおりじなるばんとしてしられているもの。	NO_LABEL
ゴーゴリの戯曲『聖ヨハネ祭の夜の禿山』に基づいた形のもので、後述のリムスキー＝コルサコフ版と区別するために、この戯曲の題名で呼ばれることもある。	NO_PRONOUNCE	NO_LABEL
当時の五人組においてアカデミック色が強かったバラキレフやリムスキー＝コルサコフらは、その粗野なオーケストレーションを批判し、バラキレフは演奏を断った。	とーじのごにんぐみにおいてあかでみっくしょくがつよかったばらきれふやりむすきーこるさこふらわ、そのそやなおーけすとれーしょんをひはんし、ばらきれふわえんそーをことわった。	NO_LABEL
リムスキー＝コルサコフにあてた手紙には、「魔物たちの集合〜そのおしゃべりとうわさ話〜サタンの行列〜サタンの邪教賛美〜魔女たちの盛大な夜会」という4つの場面が曲想として構成されていると記されている。	NO_PRONOUNCE	NO_LABEL
初演は作曲後100年以上を経た1968年に行われ、以後広く知られるところとなった。	しょえんわさっきょくごひゃくねんいじょーをへたせんきゅうひゃくろくじゅうはちねんにおこなわれ、いごひろくしられるところとなった。	NO_LABEL
アバドの指揮によるCDで聴くことができる。	あばどのしきによるきゃっしゅでぃすぺんさーできくことができる。	NO_LABEL
1874年から1880年にかけて作曲されたムソルグスキー晩年のオペラ『ソローチンツィの市』の第3幕第1場の合唱曲「若者の夢」として、『禿山の一夜』が用いられている。	NO_PRONOUNCE	NO_LABEL
ムソルグスキーがオペラ自体を未完のまま没したため、ほとんど知られることなく長年放置され、1913年に初演された。	むそるぐすきーがおぺらじたいをみかんのままぼっしたため、ほとんどしられることなくながねんほーちされ、せんきゅうひゃくじゅうさんねんにしょえんされた。	NO_LABEL
オペラの一節であることからテノール・バスと児童合唱により構成された、魔物の咆吼ともいえる合唱が秀逸である。	NO_PRONOUNCE	NO_LABEL
原典版にはなかった「教会の鐘」とその後の「悪魔たちの退散」はこの版に収められている。	NO_PRONOUNCE	NO_LABEL
原典版にはこのシーンがないため、リムスキー＝コルサコフによる編曲で追加されたものと思われている場合もあるが、このシーンはムソルグスキーのこの版がオリジナルである。	げんてんばんにわこのしーんがないため、りむすきーこるさこふによるへんきょくでついかされたものとおもわれているばあいもあるが、このしーんわむそるぐすきーのこのばんがおりじなるである。	NO_LABEL
なお、同年にピアノ版も作曲されている。	なお、どーねんにぴあのばんもさっきょくされている。	NO_LABEL
1881年のムソルグスキー没後、彼の才能を何とかして世に知らしめたいと考えたリムスキー＝コルサコフは、未発表だったムソルグスキーの作品から『禿山の一夜』を採り上げた。	NO_PRONOUNCE	NO_LABEL
上述の通り「若者の夢」のために用意された合唱版は、ムソルグスキーがピアノ版に編曲していたが、リムスキー＝コルサコフはこの両者を参考にして一部補筆し、オーケストレーションについては全面的にやりなおして、1886年に発表した。	NO_PRONOUNCE	NO_LABEL
現在『禿山の一夜』として知られる楽曲はこの改訂版である。	NO_PRONOUNCE	NO_LABEL
五人組のアカデミズムの立場を代表するリムスキー＝コルサコフの手により編曲されたことにより、原典版とはかなり異なる洗練された印象を受ける。	ごにんぐみのあかでみずむのたちばをだいひょーするりむすきーこるさこふのてによりへんきょくされたことにより、げんてんばんとわかなりことなるせんれんされたいんしょーをうける。	NO_LABEL
そのため、原典版において感じられるムソルグスキーの粗野で魅力でもあるイメージがいささか失われたうらみが残るが、それでもムソルグスキーの描いた荒々しく不気味なイメージを、リムスキー＝コルサコフ得意の華麗なオーケストレーションで表現してみせたことで、この曲は広く普及した。	そのため、げんてんばんにおいてかんじられるむそるぐすきーのそやでみりょくでもあるいめーじがいささかうしなわれたうらみがのこるが、それでもむそるぐすきーのえがいたあらあらしくぶきみないめーじを、りむすきーこるさこふとくいのかれいなおーけすとれーしょんでひょーげんしてみせたことで、このきょくわひろくふきゅーした。	NO_LABEL
リムスキー＝コルサコフの意図したとおりに、未完の大器ともいえるムソルグスキーの名声を轟かせた貢献は大きい。	りむすきーこるさこふのいとしたとーりに、みかんのたいきともいえるむそるぐすきーのめいせいをとどろかせたこーけんわおーきい。	NO_LABEL
なお、この曲はディズニーが1940年に作ったアニメーション映画『ファンタジア』にも取り上げられている。	NO_PRONOUNCE	NO_LABEL
TVの不気味なシーンの効果音として頻繁に使われるなど日頃耳にする機会は多く、たとえば松本清張の『けものみち』がNHKでテレビドラマ化されたときにも主題曲として使用されていた。	NO_PRONOUNCE	NO_LABEL
