サフォケイションは、アメリカ合衆国出身のデスメタル・バンド。	NO_PRONOUNCE	NO_LABEL
1990年代米デスメタル・シーンの創生期から支えたグループの一つ。	NO_PRONOUNCE	NO_LABEL
一度解散したが、2003年から活動を再開した。	いちどかいさんしたが、にせんさんねんからかつどーをさいかいした。	NO_LABEL
ブルータル・デスメタルへの多大なる影響を与えたバンドである。	ぶるーたるですめたるえのただいなるえいきょーをあたえたばんどである。	NO_LABEL
テクニカルで濃密なギタープレイとブラストビートを取り入れた典型的なデスメタルであるが、と共に、昨今のUSデスメタルに与えた影響は大きく、その先駆的存在と考えられている。	NO_PRONOUNCE	NO_LABEL
ヴォーカルのフランク・マレンは、デスメタル独特のガテラル・ヴォーカルを最初に使ったシンガーの一人とされる。	NO_PRONOUNCE	NO_LABEL
マイク・スミス、テレンス・ホッブスの二人がメタル・ミュージシャンには珍しい黒人であることも特徴の一つ。	NO_PRONOUNCE	NO_LABEL
1990年に結成の解釈もあるが、1988年頃から活動を始めていた。	せんきゅうひゃくきゅうじゅうねんにけっせいのかいしゃくもあるが、せんきゅうひゃくはちじゅうはちねんごろからかつどーをはじめていた。	NO_LABEL
カンニバル・コープス、マルヴォレント・クリエイション、イモレイションらと共にニューヨークを中心に活動を行い、デス、モービッド・エンジェル、オビチュアリー、ディーサイドらフロリダ勢と共に、1990年代初頭のアメリカデスメタルシーンの創生期を支え、世界中のデスメタルバンドに影響を与えた。	NO_PRONOUNCE	NO_LABEL
また、彼らがレコーディングに使用したフロリダ州タンパのとそこを拠点に活躍していたプロデューサーのが作り出すサウンドは世界中のデスメタルバンドの憧れになり、世界中から次々とデスメタルバンドがレコーディングに訪れるようになった。	また、かれらがれこーでぃんぐにしよーしたふろりだしゅーたんぱのとそこをきょてんにかつやくしていたぷろでゅーさーのがつくりだすさうんどわせかいじゅーのですめたるばんどのあこがれになり、せかいじゅーからつぎつぎとですめたるばんどがれこーでぃんぐにおとずれるよーになった。	NO_LABEL
1998年に一度解散するがその後再結成、現在も活動中。	せんきゅうひゃくきゅうじゅうはちねんにいちどかいさんするがそのごさいけっせい、げんざいもかつどーちゅー。	NO_LABEL
一度解散したために来日することはないだろうと考えられていたが、再結成後の2005年4月に来日を果たした。	いちどかいさんしたためにらいにちすることわないだろうとかんがえられていたが、さいけっせいごのにせんごねんしがつにらいにちをはたした。	NO_LABEL
