開架式図書館とは、書架が公開されている図書館のことである。	かいかしきとしょかんとわ、しょかがこーかいされているとしょかんのことである。	NO_LABEL
資料を手にとって見ることができ、実際の本を見ながら探すことができる。	しりょーをてにとってみることができ、じっさいのほんをみながらさがすことができる。	NO_LABEL
ほとんどの公共図書館はこの方式を採用している。	ほとんどのこーきょーとしょかんわこのほーしきをさいよーしている。	NO_LABEL
通常、開架式図書館では来館者が本をその場で読むことができるよう、読書のためのスペースが用意されている。	つーじょー、かいかしきとしょかんでわらいかんしゃがほんをそのばでよむことができるよー、どくしょのためのすぺーすがよーいされている。	NO_LABEL
また、蔵書を検索するための端末を設置している図書館も多い。	また、ぞーしょをけんさくするためのたんまつをせっちしているとしょかんもおーい。	NO_LABEL
図書の性質によって一部を開架、一部を閉架とする図書館もある。	としょのせいしつによっていちぶをかいか、いちぶをへいかとするとしょかんもある。	NO_LABEL
