工作機械は、金属、木材、石材、樹脂等に切断、穿孔、研削、研磨、圧延、鍛造、折り曲げ等の加工を施すための機械である。	こーさくきかいわ、きんぞく、もくざい、せきざい、じゅしとーにせつだん、せんこー、けんさく、けんま、あつえん、たんぞー、おりまげとーのかこーをほどこすためのきかいである。	NO_LABEL
一般に加工対象物または工具の運動によって、加工対象物を削り取り目的の形状に加工する。	いっぱんにかこーたいしょーぶつまたわこーぐのうんどーによって、かこーたいしょーぶつをけずりとりもくてきのけいじょーにかこーする。	NO_LABEL
工作機械を構成する要素は3つあり、加工対象物または工具に運動を与える動力、動力を特定の運動に変える案内機構、加工対象物を削り取る加工工具からなる。	こーさくきかいをこーせいするよーそわみっつあり、かこーたいしょーぶつまたわこーぐにうんどーをあたえるどーりょく、どーりょくをとくていのうんどーにかえるあんないきこー、かこーたいしょーぶつをけずりとるかこーこーぐからなる。	NO_LABEL
おもな工作機械として、旋盤、ボール盤、中ぐり盤、フライス盤、歯切り盤、研削盤などがある。	おもなこーさくきかいとして、せんばん、ぼーるばん、なかぐりばん、ふらいすばん、はぎりばん、けんさくばんなどがある。	NO_LABEL
近年では、数値制御を行うNC加工で、機械加工を自動化した工作機械が主流である。	きんねんでわ、すーちせいぎょをおこなうえぬしーかこーで、きかいかこーをじどーかしたこーさくきかいがしゅりゅーである。	NO_LABEL
これらの機能を搭載した工作機械は「マシニングセンタ」「ターニングセンタ」などと呼ばれている。	NO_PRONOUNCE	NO_LABEL
