リーガ1 2014-15は、1909-10シーズンに創設されてから97シーズン目のリーガ1である。	NO_PRONOUNCE	NO_LABEL
2014年7月25日から2015年5月30日まで実施された。	にせんじゅうよねんしちがつにじゅうごにちからにせんじゅうごねんごがつさんじゅうにちまでじっしされた。	NO_LABEL
ステアウア・ブカレストが3シーズン連続となる通算26回目の優勝を果たした。	NO_PRONOUNCE	NO_LABEL
最終節までステアウア・ブカレストと優勝争いを演じたASAトゥルグ・ムレシュが2位に入った。	さいしゅーせつまですてあうあぶかれすととゆーしょーあらそいをえんじたあさとぅるぐむれしゅがにーにはいった。	NO_LABEL
2013-14シーズンのリーガ1から16位のポリ・ティミショアラ、17位のサジェアタ・ナヴォダリ、18位のコロナ・ブラショヴ、財政問題を抱える5位のヴァスルイがリーガ2に降格した。	NO_PRONOUNCE	NO_LABEL
ヴァスルイの代わりに、自動降格圏内の15位に終わったFCブラショヴがリーガ1に残留した。	NO_PRONOUNCE	NO_LABEL
2002年創設のヴァスルイは2005-06シーズンから9シーズン連続でリーガ1に所属し、2008-09シーズンから2012-13シーズンまでの5シーズン連続で2回のUEFAチャンピオンズリーグを含む欧州カップ戦に出場していた。	NO_PRONOUNCE	NO_LABEL
2014年7月、ヴァスルイはリーガ2に所属することを拒否し、クラブは解散した。	NO_PRONOUNCE	NO_LABEL
しかし、クラブは支援者によって新たに創設され、2014-15シーズンのリーガ4に参戦した。	NO_PRONOUNCE	NO_LABEL
2013-14シーズンのリーガ2から、セリアI優勝のCSMSヤシと2位のラピド・ブカレスト、セリアII優勝のCSUクラヨーヴァと2位のASAトゥルグ・ムレシュがリーガ1に昇格した。	NO_PRONOUNCE	NO_LABEL
当初、ラピド・ブカレストはリーガ1のライセンスを取得できなかったが、スポーツ仲裁裁判所に提訴し、2014年6月30日にTASがラピド・ブカレストの主張を認める決定をしたため、リーガ1昇格が決定した。	NO_PRONOUNCE	NO_LABEL
2014-15シーズンは18チームがホーム・アンド・アウェー方式の2回戦総当たり戦を実施して順位を決定する。	NO_PRONOUNCE	NO_LABEL
優勝チームはUEFAチャンピオンズリーグ 2015-16予選2回戦、2位チームはUEFAヨーロッパリーグ 2015-16予選2回戦、3位チームは同予選1回戦、クパ・ロムニエイ優勝チームは同予選3回戦の出場権を獲得する。	NO_PRONOUNCE	NO_LABEL
また、2015-16シーズンからレギュレーションが変更され、参加クラブが18から14に削減されるため、今シーズンは下位6チームがリーガ2に自動降格する。	NO_PRONOUNCE	NO_LABEL
クパ・ロムニエイ 2014-15は、1933-34シーズンに創設されてから77シーズン目のクパ・ロムニエイである。	NO_PRONOUNCE	NO_LABEL
ステアウア・ブカレストが決勝でUクルジュに3-0で勝利し、通算22回目の優勝を果たした。	NO_PRONOUNCE	NO_LABEL
全得点に絡む2ゴール1アシストを記録したアドリアン・ポパが決勝戦の最優秀選手に選ばれた。	NO_PRONOUNCE	NO_LABEL
ステアウア・ブカレストはクパ・リギー、リーガ1と合わせて史上初となる国内3冠を達成した。	NO_PRONOUNCE	NO_LABEL
2013-14シーズン優勝のアストラ・ジュルジュは初戦でリーガ2所属のCSミオヴェニに1-3で敗れた。	NO_PRONOUNCE	NO_LABEL
