テンテコマイは、富士急ハイランドにあるタワー型回転アトラクション。	てんてこまいわ、ふじきゅーはいらんどにあるたわーがたかいてんあとらくしょん。	NO_LABEL
2016年7月16日開業。	にせんじゅうろくねんしちがつじゅうろくにちかいぎょー。	NO_LABEL
キャッチコピーは「お好きに遊ばせ。	NO_PRONOUNCE	NO_LABEL
」。	NO_PRONOUNCE	NO_LABEL
なお、本項目では同じ富士急グループの遊園地であるさがみ湖リゾート プレジャーフォレストに同時に開業した類似のアトラクション「極楽パイロット」についても解説する。	NO_PRONOUNCE	NO_LABEL
高さ39メートルの鉄塔の周囲を、1人乗りの飛行機型のライドに乗って32メートルの高さまで上昇し水平旋回する。	NO_PRONOUNCE	NO_LABEL
更にはライドの左右に付いている翼を互い違いにタイミング良く動かす事によりライドが左右に揺れ、最終的には360度きりもみ回転させる事が可能。	さらにわらいどのさゆーについているつばさをたがいちがいにたいみんぐよくうごかすことによりらいどがさゆーにゆれ、さいしゅーてきにわさんびゃくろくじゅうどきりもみかいてんさせることがかのー。	NO_LABEL
1度回転し始めたら翼を傾けた状態でキープすれば連続回転させる事ができ、正に「テンテコマイ」な状態になるとの事。	NO_PRONOUNCE	NO_LABEL
絶叫系アトラクションの導入は、2011年開業の高飛車以来となる。	ぜっきょーけいあとらくしょんのどーにゅーわ、にせんじゅういちねんかいぎょーのたかびしゃいらいとなる。	NO_LABEL
ライドは翼に受けた風の抵抗によって回転する仕組みの為、風の強さや向きによって回転数が変化する。	らいどわつばさにうけたかぜのていこーによってかいてんするしくみのため、かぜのつよさやむきによってかいてんすーがへんかする。	NO_LABEL
回転数はライド毎に計測されており、最後にスタッフが「ベスト・オブ・テンテコマイ」として最も回転したライドの番号と回転数を発表する。	NO_PRONOUNCE	NO_LABEL
2017年12月現在の最高記録は113回となっている。	にせんじゅうななねんじゅーにがつげんざいのさいこーきろくわひゃくじゅうさんかいとなっている。	NO_LABEL
2016年8月11日より、最高記録を更新した場合は「回転数×1,000円分」の賞金が貰えるイベントが開催されていた。	NO_PRONOUNCE	NO_LABEL
貰える金額は最高10万円。	もらえるきんがくわさいこーじゅうまんえん。	NO_LABEL
アトラクション利用チケットの場合は回転数に関係なく最高46,000円。	NO_PRONOUNCE	NO_LABEL
なお、記録更新しなくても上位5位以内に入れば富士急ハイランドフリーパス割引券が貰えた。	なお、きろくこーしんしなくてもじょーいごいいないにはいればふじきゅーはいらんどふりーぱすわりびきけんがもらえた。	NO_LABEL
2017年2月28日終了。	にせんじゅうななねんにがつにじゅうはちにちしゅーりょー。	NO_LABEL
イベント開催時の最高記録は70回。	いべんとかいさいじのさいこーきろくわななじゅっかい。	NO_LABEL
2016年10月より、ルーレットが示した数字とピッタリ同じ回転数だった場合、回転数に応じた商品が貰えるイベントが開催されていた。	にせんじゅうろくねんじゅーがつより、るーれっとがしめしたすーじとぴったりおなじかいてんすーだったばあい、かいてんすーにおーじたしょーひんがもらえるいべんとがかいさいされていた。	NO_LABEL
2017年2月28日終了。	にせんじゅうななねんにがつにじゅうはちにちしゅーりょー。	NO_LABEL
回転数と商品は以下の通り。	かいてんすーとしょーひんわいかのとーり。	NO_LABEL
2017年3月1日より、乗客全員の合計回転数に応じた商品が貰えるイベントが開催されていた。	にせんじゅうななねんさんがつついたちより、じょーきゃくぜんいんのごーけいかいてんすーにおーじたしょーひんがもらえるいべんとがかいさいされていた。	NO_LABEL
2017年4月20日終了。	にせんじゅうななねんしがつはつかしゅーりょー。	NO_LABEL
回転数と商品は以下の通りだが、富士急賞は1度も出ていない。	かいてんすーとしょーひんわいかのとーりだが、ふじきゅーしょーわいちどもでていない。	NO_LABEL
2017年6月17日より、「艦隊これくしょん -艦これ-」のイベント『「艦これ」鎮守府瑞雲祭り in 富士急ハイランド泊地』が開催。	NO_PRONOUNCE	NO_LABEL
各ライドに瑞雲のラッピングが施され、乗車毎に最も回転した場合はオリジナルポストカードが貰えた。	かくらいどにずいうんのらっぴんぐがほどこされ、じょーしゃごとにもっともかいてんしたばあいわおりじなるぽすとかーどがもらえた。	NO_LABEL
2017年7月30日終了。	にせんじゅうななねんしちがつさんじゅうにちしゅーりょー。	NO_LABEL
極楽パイロットは、さがみ湖リゾート プレジャーフォレストにテンテコマイと同日に開業した回転型アトラクション。	ごくらくぱいろっとわ、さがみこりぞーとぷれじゃーふぉれすとにてんてこまいとどーじつにかいぎょーしたかいてんがたあとらくしょん。	NO_LABEL
キャッチコピーは「風をあやつれ!」。	NO_PRONOUNCE	NO_LABEL
テンテコマイと同様、ライドに付いた翼を操縦し、風の抵抗を利用して360度回転させる点は共通であるが、こちらは巨大なアームの先端にライドが12機付いており、直径27メートルの円を描きながら斜めに旋回する。	NO_PRONOUNCE	NO_LABEL
既存の大空天国と共に標高370メートルの山頂に設置されており、同園の2大大空を感じるアトラクションとなっている。	NO_PRONOUNCE	NO_LABEL
2017年4月現在の最高記録は145回となっている。	にせんじゅうななねんしがつげんざいのさいこーきろくわひゃくよんじゅうごかいとなっている。	NO_LABEL
