愛子駅は、宮城県仙台市青葉区愛子中央一丁目にある、東日本旅客鉄道仙山線の駅である。	あやしえきわ、みやぎけんせんだいしあおばくあやしちゅうおーいっちょーめにある、ひがしにほんりょかくてつどーせんざんせんのえきである。	NO_LABEL
仙台方面からの列車は大部分が当駅で折り返しとなり、以西では快速列車・普通列車合わせて毎時1 - 2本が運行されるのみである。	NO_PRONOUNCE	NO_LABEL
「秋保温泉口」の副名を持つ。	NO_PRONOUNCE	NO_LABEL
1929年に仙山東線の終点駅として開業した。	せんきゅうひゃくにじゅうきゅうねにせんざんとーせんのしゅーてんえきとしてかいぎょーした。	NO_LABEL
関山街道の愛子宿の近くにできた駅で、当時の広瀬村の中心駅であり、合併して宮城村ができるとその中心駅となった。	せきやまかいどーのあやししゅくのちかくにできたえきで、とーじのひろせむらのちゅーしんえきであり、がっぺいしてみやぎむらができるとそのちゅーしんえきとなった。	NO_LABEL
西に路線が延長されるまでは、機関車の転車台を備えていた。	にしにろせんがえんちょーされるまでわ、きかんしゃのてんしゃだいをそなえていた。	NO_LABEL
2001年、皇太子徳仁親王夫妻の長女である敬宮愛子内親王の誕生によって全国的に有名な駅になった。	にせんいちねん、こーたいしなるひとしんのーふさいのちょーじょであるとしのみやあいこないしんのーのたんじょーによってぜんこくてきにゆーめいなえきになった。	NO_LABEL
入場券は普段1日1枚ほどしか売れないが、名前が発表された12月7日には記念に買い求める行列ができ夕方までに1000枚以上売れた。	にゅーじょーけんわふだんついたちいちまいほどしかうれないが、なまえがはっぴょーされたじゅーにがつなのかにわきねんにかいもとめるぎょーれつができゆーがたまでにせんまいいじょーうれた。	NO_LABEL
JR東日本によると、7 - 11日の5日間で約3万3200枚売れたという。	NO_PRONOUNCE	NO_LABEL
単式ホーム1面1線と島式ホーム1面2線、計2面3線のホームを持つ地上駅。	NO_PRONOUNCE	NO_LABEL
開業以来の木造駅舎は単式ホームに面しており、互いのホームは仙台方にある構内踏切で連絡している。	かいぎょーいらいのもくぞーえきしゃわたんしきほーむにめんしており、たがいのほーむわせんだいかたにあるこーないふみきりでれんらくしている。	NO_LABEL
構内踏切にはスロープがあり、車椅子などが使用可能。	こーないふみきりにわすろーぷがあり、くるまいすなどがしよーかのー。	NO_LABEL
駅出入口付近と北側を結ぶ歩道橋が設けられている。	えきでいりぐちふきんときたがわをむすぶほどーきょーがもーけられている。	NO_LABEL
直営駅で、みどりの窓口・自動券売機・自動改札機・LEDの発車案内が設置されている。	NO_PRONOUNCE	NO_LABEL
2014年3月末までは、キオスクも営業していた。	にせんじゅうよねんさんがつまつまでわ、きおすくもえいぎょーしていた。	NO_LABEL
管理駅として国見駅 - 奥新川駅間の各駅を管理下に置く。	NO_PRONOUNCE	NO_LABEL
JRの特定都区市内制度における「仙台市内」の駅である。	NO_PRONOUNCE	NO_LABEL
1960年度は869人であった。	せんきゅうひゃくろくじゅうねんどわはっぴゃくろくじゅうくにんであった。	NO_LABEL
1960年代後半から1970年代前半にかけて減少し、1975年度から1981年度までは600人前後で推移した。	せんきゅうひゃくろくじゅうねんだいこーはんからせんきゅうひゃくななじゅうねんだいぜんはんにかけてげんしょーし、せんきゅうひゃくななじゅうごねんどからせんきゅうひゃくはちじゅういちねんどまでわろっぴゃくにんぜんごですいいした。	NO_LABEL
その後増え続けて1985年度に1,111人になり、さらに増えて現在の水準になった。	NO_PRONOUNCE	NO_LABEL
線路は東西に走り、駅舎の南に駅前広場がある。	せんろわとーざいにはしり、えきしゃのみなみにえきまえひろばがある。	NO_LABEL
広場の中心にある枝垂れ桜は、愛子駅の開業時に近くの子愛観音堂から分けてもらったものである。	ひろばのちゅーしんにあるしだれざくらわ、あやしえきのかいぎょーじにちかくのこあやしかんのんどーからわけてもらったものである。	NO_LABEL
現位置には2000年頃に移された。	げんいちにわにせんねんごろにうつされた。	NO_LABEL
広場の南に、東西に国道457号が並走する。	ひろばのみなみに、とーざいにこくどーよんひゃくごじゅうななごーがなみはしする。	NO_LABEL
これは古くからの作並街道である。	これわふるくからのさくなみかいどーである。	NO_LABEL
現在、国道48号は愛子バイパスとして駅の南約600メートルをやはり東西に走る。	げんざい、こくどーよんじゅうはちごーわあやしばいぱすとしてえきのみなみやくろっぴゃくめーとるをやはりとーざいにはしる。	NO_LABEL
駅の周りは東西に長い市街地で、北は約600から800メートル先を流れる広瀬川まで住宅地である。	NO_PRONOUNCE	NO_LABEL
1987年の合併までは宮城町の中心駅であり、国道48号の手前にある仙台市宮城総合支所はもとの町役場である。	せんきゅうひゃくはちじゅうななねのがっぺいまでわみやぎちょーのちゅーしんえきであり、こくどーよんじゅうはちごーのてまえにあるせんだいしみやぎそーごーししょはもとのまちやくばである。	NO_LABEL
同支所の敷地内には図書館などが入る広瀬文化センターなど市の複合施設が立地する。	どーししょのしきちないにわとしょかんなどがはいるひろせぶんかせんたーなどしのふくごーしせつがりっちする。	NO_LABEL
その南は水田で、さらに南に錦が丘の住宅地があり、山林・丘陵地につながる。	NO_PRONOUNCE	NO_LABEL
駅前広場からは、宮城県道134号愛子停車場線が南に伸び、国道48号との交点で宮城県道132号秋保温泉愛子線に通じる。	えきまえひろばからわ、みやぎけんどーひゃくさんじゅうよんごーあやしていしゃじょーせんがみなみにのび、こくどーよんじゅうはちごーとのこーてんでみやぎけんどーひゃくさんじゅうにごーあきうおんせんあやしせんにつーじる。	NO_LABEL
駅ロータリー内の「愛子駅」停留所と、駅から南の国道457号に設置されている「愛子駅前」停留所がある。	NO_PRONOUNCE	NO_LABEL
設定本数は「愛子駅前」停留所の方が多い。	NO_PRONOUNCE	NO_LABEL
