ニッポン・ニュー・マーケット・ヘラクレスは、かつて大阪証券取引所が開設していた新興企業向けの市場。	NO_PRONOUNCE	NO_LABEL
2010年10月12日、運営するヘラクレスと、新興企業向け市場の旧ジャスダックとNEOを市場統合し「新ジャスダック」とした。	NO_PRONOUNCE	NO_LABEL
1999年6月15日、アメリカのNASDAQを運営するナスダック・ストック・マーケットとソフトバンクが折半出資により、ナスダック・ジャパン・プランニング株式会社の設立を発表した。	NO_PRONOUNCE	NO_LABEL
2000年5月8日、「ナスダック・ジャパン」の名称で、大阪証券取引所に新興企業向けの市場として開設され、同年6月19日から売買が開始された。	NO_PRONOUNCE	NO_LABEL
略称はナス、ナスダックJとされることが多かった。	NO_PRONOUNCE	NO_LABEL
開設当初は、アメリカやヨーロッパの市場を接続することでの24時間取引、また外国株式を日本語で情報開示することや円貨建てでの売買なども考案されていた。	かいせつとーしょわ、あめりかやよーろっぱのしじょーをせつぞくすることでのにじゅうよじかんとりひき、またがいこくかぶしきをにほんごでじょーほーかいじすることやえんかだてでのばいばいなどもこーあんされていた。	NO_LABEL
しかし、システム上や証券取引法の問題などで計画は進まず、また新規上場企業が見込みより大幅に少なく経営環境が悪化し、多額の累積赤字を発生させたことから、NASDAQ側の意向で2002年8月16日にナスダック・ジャパン株式会社は取締役会で営業停止を決議。	NO_PRONOUNCE	NO_LABEL
同年10月15日をもって、大証との業務提携を解消した。	どーねんじゅーがつじゅうごにちをもって、だいしょーとのぎょーむていけいをかいしょーした。	NO_LABEL
NASDAQの撤退により、その後は大阪証券取引所が独自に運営することになり、市場名を公募することになった。	なすだっくのてったいにより、そのごわおーさかしょーけんとりひきじょがどくじにうんえいすることになり、しじょーめいをこーぼすることになった。	NO_LABEL
その結果、452件の応募の中から「ニッポン・ニュー・マーケット-ヘラクレス」が正式名称に選ばれた。	NO_PRONOUNCE	NO_LABEL
2002年12月16日より改称され、大証単独での運営となっている。	にせんにねんじゅーにがつじゅうろくにちよりかいしょーされ、だいしょーたんどくでのうんえいとなっている。	NO_LABEL
2003年4月に大阪証券取引所の新市場部制度を廃止し、新市場部銘柄をヘラクレスのグロースへ承継する。	にせんさんねんしがつにおーさかしょーけんとりひきじょのにいちばぶせいどをはいしし、にいちばぶめいがらをへらくれすのぐろーすえしょーけいする。	NO_LABEL
同年7月にヘラクレス指数の算出を開始した。	どーねんしちがつにへらくれすしすーのさんしゅつをかいしした。	NO_LABEL
同年10月にはヘラクレス指数の前場終了後の算出・公表を開始している。	NO_PRONOUNCE	NO_LABEL
2006年1月、新売買システムが稼動し、同年2月、新売買システムが稼動した。	にせんろくねんいちがつ、しんばいばいしすてむがかどーし、どーねんにがつ、しんばいばいしすてむがかどーした。	NO_LABEL
2010年10月12日、運営するヘラクレス、NEOと、新興企業向け市場のジャスダックを統合し「新ジャスダック」とした。	NO_PRONOUNCE	NO_LABEL
上場審査基準は、一定の資産や売上実績のある企業を想定した「スタンダード」と、今後の成長性が見込めるベンチャー企業を想定した「グロース」に分かれていた。	NO_PRONOUNCE	NO_LABEL
この体裁は統合とのジャスダックにも踏襲されており、所属カテゴリーもそれぞれに系譜されている。	このていさいわとーごーとのじゃすだっくにもとーしゅーされており、しょぞくかてごりーもそれぞれにけいふされている。	NO_LABEL
2004年4月1日には、大阪証券取引所自らがヘラクレスに上場を果たした。	にせんよねんしがつついたちにわ、おーさかしょーけんとりひきじょみずからがへらくれすにじょーじょーをはたした。	NO_LABEL
2005年は年間約13億株、約9兆7千億円の売買が行われている。	NO_PRONOUNCE	NO_LABEL
4月1日、新市場部銘柄がヘラクレス・グロース銘柄として継承。	NO_PRONOUNCE	NO_LABEL
なお、継承された銘柄は、当初よりヘラクレスに上場していたものとして扱われる。	なお、けいしょーされためいがらわ、とーしょよりへらくれすにじょーじょーしていたものとしてあつかわれる。	NO_LABEL
