ブスルファンは、アルキル化剤に分類される抗悪性腫瘍剤である。	ぶするふぁんわ、あるきるかざいにぶんるいされるこーあくせいしゅよーざいである。	NO_LABEL
日本では協和発酵キリンからブスルフェクス点滴静注用の商品名で、大原薬品工業からマブリン散の商品名で製造販売されている。	にっぽんでわきょーわはっこーきりんからぶするふぇくすてんてきせいちゅーよーのしょーひんめいで、おーはらやくひんこーぎょーからまぶりんちのしょーひんめいでせいぞーはんばいされている。	NO_LABEL
ブスルフェクス点滴静注用は造血幹細胞移植の前治療に使用される注射剤であるが、マブリン散は慢性骨髄性白血病の治療を目的とする経口剤である。	ぶするふぇくすてんてきせいちゅーよーわぞーけつかんさいぼーいしょくのぜんちりょーにしよーされるちゅーしゃざいであるが、まぶりんちわまんせいこつずいせいはっけつびょのちりょーをもくてきとするけいこーざいである。	NO_LABEL
ブスルファンは日本ではマブリン散が以前から使用されていたが、2006年には注射剤が認可を受け、ブスルフェクス点滴静注用として製造販売されている。	ぶするふぁんわにっぽんでわまぶりんちがいぜんからしよーされていたが、にせんろくねんにわちゅーしゃざいがにんかをうけ、ぶするふぇくすてんてきせいちゅーよーとしてせいぞーはんばいされている。	NO_LABEL
骨髄抑制、静脈閉塞性肝疾患、間質性肺炎、肺線維症、白内障など。	こつずいよくせい、じょーみゃくへいそくせいかんしっかん、かんしつせいはいえん、はいせんいしょー、はくないしょーなど。	NO_LABEL
細胞内において、DNAをアルキル化する作用があり、それによって細胞増殖が抑制される。	さいぼーないにおいて、でぃーえぬえーをあるきるかするさよーがあり、それによってさいぼーぞーしょくがよくせいされる。	NO_LABEL
なお、本剤は発がん性があることが指摘されており、白血病の治療で本剤を使用した患者の中に二次がんが発症したという報告がある。	なお、ほんざいわはつがんせいがあることがしてきされており、はっけつびょーのちりょーでほんざいをしよーしたかんじゃのなかににじがんがはっしょーしたとゆうほーこくがある。	NO_LABEL
