セリー・オーク駅は、イングランド中部バーミンガムの南西郊セリー・オークにある鉄道駅。	せりーおーくえきわ、いんぐらんどちゅーぶばーみんがむのみなみせいこーせりーおーくにあるてつどーえき。	NO_LABEL
セリー・オーク駅は、南方のレディッチから、バーミンガム・ニューストリート駅を経由して北方のリッチフィールドに至るクロス＝シティ線の駅である。	NO_PRONOUNCE	NO_LABEL
この駅は、ミッドランド鉄道の支線であるバーミンガム・ウェスト・サバーバン鉄道は、郊外住宅地区として発展を始めたばかりだった。	NO_PRONOUNCE	NO_LABEL
この駅はその後、大きく手が加えられており、今日ではミッドランド鉄道時代の施設は残っていない。	このえきわそのご、おーきくてがくわえられており、きょーでわみっどらんどてつどーじだいのしせつわのこっていない。	NO_LABEL
1978年、現在のクロス＝シティ線として鉄道が再開された際に、この駅も、沿線の他の駅とともに完全に施設が造り直された。	NO_PRONOUNCE	NO_LABEL
現在、この駅に停車するのはクロス＝シティ線の電車だけである。	NO_PRONOUNCE	NO_LABEL
歩行者と車両のアクセスは、Bristol Road（）から Heeley Road を経ることになる。	NO_PRONOUNCE	NO_LABEL
駅と軌道は、盛土の上に設けられている。	えきときどーわ、もりつちのうえにもーけられている。	NO_LABEL
西ミッドランド旅客交通局の管轄で、運賃ゾーンは2に属する。	NO_PRONOUNCE	NO_LABEL
近年に至り、駅の用地は拡張されて新たに93台分の無料駐車場が設けられ、セリー・オーク駅は新たなパーク・アンド・ライドの接続点となっている。	NO_PRONOUNCE	NO_LABEL
プラットホーム間の移動は屋根付きの跨線橋があるが、車椅子や階段が使えない乗客は、A38までいったん出て反対側のホームへ回る必要がある。	NO_PRONOUNCE	NO_LABEL
跨線橋からは、ボーンブルックやバーミンガム大学、さらにはバーミンガム市中心部が眺望できる。	こせんきょーからわ、ぼーんぶるっくやばーみんがむだいがく、さらにわばーみんがむしちゅーしんぶがちょーぼーできる。	NO_LABEL
セリー・オーク駅には、当時のセントラル・トレインズによって2006年に設置された、リアルタイムで運行情報を表示する出発案内板がある。	せりーおーくえきにわ、とーじのせんとらるとれいんずによってにせんろくねんにせっちされた、りあるたいむでうんこーじょうほーをひょーじするしゅっぱつあんないばんがある。	NO_LABEL
自動券売機2台と、切符売り場の窓口2つが設けられている。	NO_PRONOUNCE	NO_LABEL
