愛知県第1区は、かつて存在した衆議院の選挙区。	あいちけんだいーちくわ、かつてそんざいしたしゅーぎいんのせんきょく。	NO_LABEL
定数は名古屋市全域のときは5、1967年の愛知県第6区との分割によって定数3となり、1975年の法改正によって4に増加した。	NO_PRONOUNCE	NO_LABEL
現在の小選挙区では、1区、2区全域と、5区の一部に該当する。	げんざいのしょーせんきょくでわ、いちく、にくぜんいきと、ごくのいちぶにがいとーする。	NO_LABEL
※自治体の名称は第40回衆議院議員総選挙時点のものである。	NO_PRONOUNCE	NO_LABEL
第40回衆議院議員総選挙　7月18日執行）	NO_PRONOUNCE	NO_LABEL
当日有権者数：791,127人 　投票率：58.19%	NO_PRONOUNCE	NO_LABEL
第39回衆議院議員総選挙　2月18日執行）	NO_PRONOUNCE	NO_LABEL
当日有権者数：774,174人 　投票率：64.17%	NO_PRONOUNCE	NO_LABEL
第38回衆議院議員総選挙　7月6日執行）	NO_PRONOUNCE	NO_LABEL
当日有権者数：757,459人 　投票率：59.03%	NO_PRONOUNCE	NO_LABEL
第37回衆議院議員総選挙　12月18日執行）	NO_PRONOUNCE	NO_LABEL
当日有権者数：742,635人 　投票率：57.32%	NO_PRONOUNCE	NO_LABEL
第36回衆議院議員総選挙　6月22日執行）	NO_PRONOUNCE	NO_LABEL
当日有権者数：732,393人 　投票率：65.78%	NO_PRONOUNCE	NO_LABEL
第35回衆議院議員総選挙　10月7日執行）	NO_PRONOUNCE	NO_LABEL
当日有権者数：728,357人 　投票率：58.11%	NO_PRONOUNCE	NO_LABEL
第34回衆議院議員総選挙　12月5日執行）	NO_PRONOUNCE	NO_LABEL
当日有権者数：724,481人 　投票率:55.52%	NO_PRONOUNCE	NO_LABEL
第33回衆議院議員総選挙　12月10日執行）	NO_PRONOUNCE	NO_LABEL
当日有権者数：717,148人 　投票率：55.53%	NO_PRONOUNCE	NO_LABEL
第32回衆議院議員総選挙　12月27日執行）	NO_PRONOUNCE	NO_LABEL
当日有権者数：698,458人 　投票率：56.74%	NO_PRONOUNCE	NO_LABEL
第31回衆議院議員総選挙　1月29日執行）	NO_PRONOUNCE	NO_LABEL
当日有権者数：659,221人 　投票率：59.66%	NO_PRONOUNCE	NO_LABEL
第30回衆議院議員総選挙　11月21日執行）	NO_PRONOUNCE	NO_LABEL
当日有権者数：1,120,698人 　投票率：56.90%	NO_PRONOUNCE	NO_LABEL
第29回衆議院議員総選挙　11月20日執行）	NO_PRONOUNCE	NO_LABEL
当日有権者数：921,067人 　投票率：60.65%	NO_PRONOUNCE	NO_LABEL
第28回衆議院議員総選挙　5月22日執行）	NO_PRONOUNCE	NO_LABEL
当日有権者数：827,782人 　投票率：70.04%	NO_PRONOUNCE	NO_LABEL
第27回衆議院議員総選挙　2月27日執行）	NO_PRONOUNCE	NO_LABEL
当日有権者数：695,395人 　投票率：61.93%	NO_PRONOUNCE	NO_LABEL
第26回衆議院議員総選挙　4月19日執行）	NO_PRONOUNCE	NO_LABEL
当日有権者数：650,675人 　投票率：57.70%	NO_PRONOUNCE	NO_LABEL
第25回衆議院議員総選挙　10月1日執行）	NO_PRONOUNCE	NO_LABEL
当日有権者数：649,326人 　投票率：59.16%	NO_PRONOUNCE	NO_LABEL
第24回衆議院議員総選挙　1月23日執行）	NO_PRONOUNCE	NO_LABEL
当日有権者数：493,052人 　投票率：74.34%	NO_PRONOUNCE	NO_LABEL
第23回衆議院議員総選挙　4月25日執行）	NO_PRONOUNCE	NO_LABEL
当日有権者数：422,255人 　投票率：63.65%	NO_PRONOUNCE	NO_LABEL
