ソシエテ・ユーロピーネ・デ・プロパルジオンSociété européenne de propulsion 略称SEPとはフランスの会社でスネクマの前身で現在のサフラングループである。	NO_PRONOUNCE	NO_LABEL
主要な活動はロケットエンジン、人工衛星の機構、耐熱材料の開発であった。	しゅよーなかつどーわろけっとえんじん、じんこーえいせいのきこー、たいねつざいりょーのかいはつであった。	NO_LABEL
SEPは1969年SEPRとスネクマの宇宙機器部門が合併して設立され、1971年にヴェロニクのエンジンを開発したヴェルノンの国防省の弾道技術・航空力学研究所が加わった。	NO_PRONOUNCE	NO_LABEL
ヨーロッパ共同でのアリアン計画でのロケット開発における産業活動は新たに創設されたソシエテ・ユーロピーネ・デ・プロパルジオンに分離された。	よーろっぱきょーどーでのありあんけいかくでのろけっとかいはつにおけるさんぎょーかつどーわあらたにそーせつされたそしえてゆーろぴーねでぷろぱるじおんにぶんりされた。	NO_LABEL
防衛分野の活動はLRBAの元に留まった。	NO_PRONOUNCE	NO_LABEL
SEPは1997年に法人化され、フランス政府が最大の株主であるスネクマの一部門になった。	NO_PRONOUNCE	NO_LABEL
持ち株会社のスネクマの再編により消えた。	もちかぶがいしゃのすねくまのさいへんによりきえた。	NO_LABEL
活動はスネクマに引き継がれ、小型と大型の液体燃料ロケットエンジンと人工衛星の機器はSnecma Moteursが、固体燃料ロケットエンジン、複合材はSnecma Propulsion Solideが引き継いだ。	NO_PRONOUNCE	NO_LABEL
スネクマとSAGEMグループの合併によりスネクマ モートルズはスネクマから社名を引き継いだ。	NO_PRONOUNCE	NO_LABEL
SEPは4箇所の拠点で活動した: 	NO_PRONOUNCE	NO_LABEL
ヴィラローチェは2006年に閉鎖された。	NO_PRONOUNCE	NO_LABEL
人工衛星の機構はContraves AGに移転した。	NO_PRONOUNCE	NO_LABEL
人工衛星の推進系はヴェルノンに移転した。	NO_PRONOUNCE	NO_LABEL
液体燃料ロケットエンジン: 	NO_PRONOUNCE	NO_LABEL
固体燃料ロケットエンジン： 	NO_PRONOUNCE	NO_LABEL
イオンロケットエンジン: 	NO_PRONOUNCE	NO_LABEL
