カストロ・デ・レイ。	かすとろでれい。	NO_LABEL
住民呼称はcastrexo/-a。	NO_PRONOUNCE	NO_LABEL
カスティーリャ語による表記はCastro de Rey。	かすてぃーりゃごによるひょーきわかすとろでぃーいーれい。	NO_LABEL
ガリシア語話者の自治体住民に占める割合は98.78％。	NO_PRONOUNCE	NO_LABEL
カストロ・デ・レイはルーゴ県の中部に位置し、コマルカ・ダ・テーラ・チャに属する。	かすとろでれいわるーごけんのちゅーぶにいちし、こまるかだてーらちゃにぞくする。	NO_LABEL
北がア・パストリーサ、東がポルと、南がカストロベルデ、ルーゴ、オウテイロ・デ・レイと、西がコスペイトの各自治体と隣接、自治体の中心地区はカストロ・デ・レイ教区のカストロ・デ・レイ地区。	きたがあぱすとりーさ、ひがしがぽると、みなみがかすとろべるで、るーご、おうていろでれいと、にしがこすぺいとのかくじちたいとりんせつ、じちたいのちゅーしんちくわかすとろでれいきょーくのかすとろでれいちく。	NO_LABEL
自治体首長はガリシア社会党のフアン・ホセ・ディアス・バリーニョ、自治体評議員は、ガリシア国民党：6、ガリシア社会党：4、ガリシア民族主義ブロック：2、TEGA：1となっている。	NO_PRONOUNCE	NO_LABEL
カストロ・デ・レイは25の教区に分けられる。	NO_PRONOUNCE	NO_LABEL
太字は自治体中心地区のある教区。	ふとじわじちたいちゅーしんちくのあるきょーく。	NO_LABEL
