梅田駅は、大阪府大阪市北区梅田三丁目にある阪神電気鉄道の駅である。	うめだえきわ、おーさかふおーさかしきたくーめださんちょーめにあるはんしんでんきてつどーのえきである。	NO_LABEL
駅番号はHS 01。	NO_PRONOUNCE	NO_LABEL
本線の起点であり、同線から分岐している阪神なんば線の大阪難波駅とともに大阪側のターミナル駅として機能している。	ほんせんのきてんであり、どーせんからぶんきしているはんしんなんばせんのおーさかなんばえきとともにおーさかがわのたーみなるえきとしてきのーしている。	NO_LABEL
大阪難波駅と同様に大阪側のターミナル駅であることを明確にするため、車内アナウンスでは「大阪、大阪梅田・終点です。	NO_PRONOUNCE	NO_LABEL
」のように案内されるほか、阪急の梅田駅と区別し「阪神梅田駅」と呼ばれることもある。	NO_PRONOUNCE	NO_LABEL
駅自動放送においても同様で、阪急の乗り入れる新開地駅や高速神戸駅、乗り入れ先の山陽電鉄線内では「阪神梅田」、阪神線内では「大阪梅田」の呼称が用いられている。	NO_PRONOUNCE	NO_LABEL
切符売り場には、往復乗車券専用の自動券売機が設置されている。	きっぷうりばにわ、おーふくじょーしゃけんせんよーのじどーけんばいきがせっちされている。	NO_LABEL
甲子園球場でイベントが開催される日には梅田駅 - 甲子園駅間の、また尼崎競艇開催時には梅田駅 - 尼崎センタープール前駅間の、十日えびす大祭では梅田駅 - 西宮駅間の往復乗車券が、それぞれ発売される。	NO_PRONOUNCE	NO_LABEL
なおイベントの開催がない時や、イベント開催日でもイベント終了時点では往復乗車券専用の券売機は電源が切られタッチパネルにはカバーが掛けられている。	なおいべんとのかいさいがないときや、いべんとかいさいびでもいべんとしゅーりょーじてんでわおーふくじょーしゃけんせんよーのけんばいきわでんげんがきられたっちぱねるにわかばーがかけられている。	NO_LABEL
阪神梅田駅 - 阪神神戸三宮駅間を経路に含む通勤定期券を所持している場合、その定期券で阪急梅田駅、阪急神戸三宮駅でも乗降することができる。	NO_PRONOUNCE	NO_LABEL
逆に、阪急梅田駅 - 阪急神戸三宮駅間を経路に含む通勤定期券を所持している場合でも、阪神梅田駅、阪神神戸三宮駅で乗降することができる。	NO_PRONOUNCE	NO_LABEL
なお、定期券の券面記載の経路に含まれていない側の途中駅で降りる場合や今津駅での乗り継ぎの場合は別途運賃が必要となる。	なお、ていきけんのけんめんきさいのけいろにふくまれていないがわのとちゅーえきでおりるばあいやいまずえきでののりつぎのばあいわべっとうんちんがひつよーとなる。	NO_LABEL
本線- 阪神なんば線の新線区間の通勤定期券を利用する場合、梅田駅に限りそのまま乗降が可能である。	NO_PRONOUNCE	NO_LABEL
シンセサイザーによる発車メロディが流れる。	しんせさいざーによるはっしゃめろでぃがながれる。	NO_LABEL
また、注意喚起のため、列車が発車する直前からホームを離れるまで「●番線の電車が発車します、ご注意ください」が繰り返し流れる。	NO_PRONOUNCE	NO_LABEL
一方、列車到着時は、大阪難波駅を除く他の全ての駅で流れる「線路は続くよどこまでも」は流れず、いきなり「まもなく、●番線に電車が参ります」のアナウンスが流れる。	NO_PRONOUNCE	NO_LABEL
頭端式ホーム5面4線を有する地下駅で、プラットホームはJR大阪駅と阪神百貨店間の道路の地下2階にある。	NO_PRONOUNCE	NO_LABEL
改札口はホーム車止め側の東改札のほか、地下1階には阪神百貨店の西側に西改札がある。	かいさつぐちわほーむくるまどめがわのひがしかいさつのほか、ちかいっかいにわはんしんひゃっかてんのにしがわににしかいさつがある。	NO_LABEL
エレベーター・エスカレーターは東改札のみ設置。	NO_PRONOUNCE	NO_LABEL
また、西改札においては、2015年12月19日より南側に東西自由通路を開設したことによりコンコースが分断されたため、新たに4番線降車ホーム専用の出口専用改札口を設置した。	また、にしかいさつにおいてわ、にせんじゅうごねんじゅーにがつじゅうきゅうにちよりみなみがわにとーざいじゆーつーろをかいせつしたことによりこんこーすがぶんだんされたため、あらたによんばんせんこーしゃほーむせんよーのでぐちせんよーかいさつぐちをせっちした。	NO_LABEL
ホームは北側から1番線降車用、1・2番線乗車用、2・3番線降車用、3・4番線乗車用、4番線降車用の順となっている。	NO_PRONOUNCE	NO_LABEL
3・4番線乗車用ホームのうち、4番線側はコンコースとの階段と干渉しているため実質の有効長が5両分しかなく、通常は普通列車の発着に限定して使用されている。	NO_PRONOUNCE	NO_LABEL
2017年夏には、乗車側・降車側ともに4番線ホームは西改札側のうち乗降口のない箇所に転落防止柵を設置したため、当面は急行系車両の発着はなくなった。	NO_PRONOUNCE	NO_LABEL
なお、かつて平日朝ラッシュ時に梅田駅到着後折り返し回送となる6両編成の列車が4番線に着発していた時代は、降車用ホームのみ開扉していた。	なお、かつてへいじつあさらっしゅじにうめだえきとーちゃくごおりかえしかいそーとなるろくりょーへんせいのれっしゃがよんばんせんにちゃくはつしていたじだいわ、こーしゃよーほーむのみかいとびらしていた。	NO_LABEL
ちなみに、1番線も元は5両分程度の有効長しかなかったが区間特急の新設に合わせて1981年にホームを掘り込んで東駅長室方向に線路を伸ばして6両対応とした。	NO_PRONOUNCE	NO_LABEL
ターミナル駅として高頻度で運行される列車の発着を円滑に行うことを考慮し、複雑な配線を採用していた。	たーみなるえきとしてこーひんどでうんこーされるれっしゃのはっちゃくをえんかつにおこなうことをこーりょし、ふくざつなはいせんをさいよーしていた。	NO_LABEL
現在の配線は以前よりも簡略化されているが、地下駅ゆえの空間的制約によりいまだに複雑な配線となっているため、列車は大きく揺れる。	げんざいのはいせんわいぜんよりもかんりゃくかされているが、ちかえきゆえのくーかんてきせいやくによりいまだにふくざつなはいせんとなっているため、れっしゃわおーきくゆれる。	NO_LABEL
例えば列車が3番線に入線する際、通過する5基の分岐器全てで分岐側に進入するため、列車は何度も大きく揺れる。	たとえばれっしゃがさんばんせんににゅーせんするさい、つーかするごきのぶんききすべてでぶんきがわにしんにゅーするため、れっしゃわなんどもおーきくゆれる。	NO_LABEL
今後、隣接する阪神百貨店の建て替えに合わせて、2015年3月3日より大規模な駅改良工事に着手する。	こんご、りんせつするはんしんひゃっかてんのたてかえにあわせて、にせんじゅうごねんさんがつみっかよりだいきぼなえきかいりょーこーじにちゃくしゅする。	NO_LABEL
計画では、現在の1番線の北側に新たに一線を設けて現3番線を廃止し、ホームの拡幅と4番線の延伸、ホームドアの設置、西改札にもエレベーター・エスカレーターの増設が行なわれることになっている。	NO_PRONOUNCE	NO_LABEL
完成は2022年度末を予定している。	かんせいわにせんにじゅうにねんどまつをよていしている。	NO_LABEL
2016年次の1日平均乗降人員は167,058人である。	NO_PRONOUNCE	NO_LABEL
阪神電鉄の駅の中では第1位。	はんしんでんてつのえきのなかでわだいいちー。	NO_LABEL
同社の中で乗降客数が最も多い駅であるが、2000年度以降は20万人を割り込んでいる。	どーしゃのなかでじょーこーきゃくすーがもっともおーいえきであるが、にせんねんどいこーわにじゅうまんにんをわりこんでいる。	NO_LABEL
その後は18万人程度で推移していたが、2009年3月に阪神なんば線が開業し、大物駅以東からは当駅を介さずに難波方面へ向かえるようになったため、2010年度の乗降人員は前年度より17,000人程度減少した。	NO_PRONOUNCE	NO_LABEL
その結果、乗降人員は1960年代前半の水準にまで落ち込んでいる。	そのけっか、じょーこーじんいんわせんきゅうひゃくろくじゅうねんだいぜんはんのすいじゅんにまでおちこんでいる。	NO_LABEL
また、	また、	NO_LABEL
各年次の1日乗降・乗車人員数は下表の通りである。	NO_PRONOUNCE	NO_LABEL
出典: 大阪府統計年鑑・大阪市統計書	NO_PRONOUNCE	NO_LABEL
駅南部から南西部には、阪神グループの商業施設である阪神百貨店梅田本店やハービスOSAKA、ハービスENT、ホテル阪神などが建ち並んでいるため、この地域を指して「阪神村」と呼ばれることがある。	NO_PRONOUNCE	NO_LABEL
駅南部はダイヤモンド地区となっている。	えきなんぶわだいやもんどちくとなっている。	NO_LABEL
駅北部はJR大阪駅および大阪ステーションシティとなっている。	えきほくぶわじぇいあーるおーさかえきおよびおーさかすてーしょんしてぃとなっている。	NO_LABEL
駅北東部は阪急梅田駅や阪急百貨店うめだ本店をはじめとする阪急関連の施設が立ち並んでおり、「阪急村」と呼ばれる。	NO_PRONOUNCE	NO_LABEL
