愛新覚羅 胤禟は、清の康熙帝の九男。	NO_PRONOUNCE	NO_LABEL
母は宜妃のゴロロ氏。	ははわむべひのごろろし。	NO_LABEL
名は雍正帝の即位後に允禟と改めている。	NO_PRONOUNCE	NO_LABEL
康熙帝の時代、グサイ・ベイセに封じられた。	NO_PRONOUNCE	NO_LABEL
思案敏捷で、外国語ができ、戦車を設計した。	しあんびんしょーで、がいこくごができ、せんしゃをせっけいした。	NO_LABEL
胤禩と特に仲が良かった。	NO_PRONOUNCE	NO_LABEL
雍正帝が即位すると、初め西寧駐在を命じられたが、着任が遅れたために弾劾された。	ようせいていがそくいすると、はじめにしやすしちゅーざいをめいじられたが、ちゃくにんがおくれたためにだんがいされた。	NO_LABEL
雍正3年に軍糧の横領で罪に問われ、接見した官僚に対する不遜な行いという口実でベイセ位を剥奪された。	ようせいさんねんにぐんかてのおーりょーでつみにとわれ、せっけんしたかんりょーにたいするふそんなおこないとゆうこーじつでべいせいをはくだつされた。	NO_LABEL
翌年、皇籍も剥奪され、サスヘと改名させられた上、劣悪な環境に監禁された。	よくねん、こうせきもはくだつされ、さすへとかいめいさせられたうえ、れつあくなかんきょーにかんきんされた。	NO_LABEL
まもなく、胤禟は「腹痛」で急死した。	NO_PRONOUNCE	NO_LABEL
乾隆帝により名と皇族の地位が回復され、子孫も皇族として扱われた。	けんりゅうていによりなとこーぞくのちいがかいふくされ、しそんもこーぞくとしてあつかわれた。	NO_LABEL
