Cray-2は、1985年にクレイ・リサーチ社が提供したベクトル型スーパーコンピュータである。	NO_PRONOUNCE	NO_LABEL
リリース当時、世界最高速の座をNEC SX-2から取り戻した。	NO_PRONOUNCE	NO_LABEL
Cray-2は1990年、ETA-10Gにその座を明け渡した。	NO_PRONOUNCE	NO_LABEL
Cray-1の成功と同時に、シーモア・クレイは直ちにその後継機の設計に入った。	NO_PRONOUNCE	NO_LABEL
1979年、大企業となったクレイ・リサーチの中で彼は絶え間ない雑事の割り込みに悩まされ、以前にもあったように管理職を辞任して新たな研究所を設立することにした。	NO_PRONOUNCE	NO_LABEL
ミネアポリスのCDCからウィスコンシン州チペワ・フォールズに移ったときと同様、クレイ社の上層部は彼の要望を理解し、コロラド州ボルダーの新たな研究所開設をサポートした。	NO_PRONOUNCE	NO_LABEL
この新たなCray Labsで独立コンサルタントとして働きつつ、彼はチームをまとめて完全に新しい設計に取り組み始めた。	NO_PRONOUNCE	NO_LABEL
この研究所は後に閉鎖され、10年後にコロラドスプリングスに新たな研究所が開設されることになる。	このけんきゅーじょわごにへいさされ、じゅうねんごにころらどすぷりんぐすにあらたなけんきゅーじょがかいせつされることになる。	NO_LABEL
クレイは以前に高速化に関して3つの改良を同時に行うという問題に取り組んだことがある。	くれいわいぜんにこーそくかにかんしてみっつのかいりょーをどーじにおこなうとゆうもんだいにとりくんだことがある。	NO_LABEL
機能ユニット数を増やして並列性を増し、高密度実装によって信号遅延を短くし、各コンポーネントを高速化することによって全体のクロックを高速化する。	きのーゆにっとすーをふやしてへいれつせいをまし、こーみつどじっそーによってしんごーちえんをみじかくし、かくこんぽーねんとをこーそくかすることによってぜんたいのくろっくをこーそくかする。	NO_LABEL
このような設計の典型例としてCDC 8600がある。	NO_PRONOUNCE	NO_LABEL
ECL技術で高速化した4台のCDC 7600を1m四方のサイズに詰め込み、8ナノ秒のサイクル時間で駆動した。	NO_PRONOUNCE	NO_LABEL
しかし、このサイクル時間を達成するために必要な高密度実装のせいで、マシンは頻繁にダウンした。	しかし、このさいくるじかんをたっせいするためにひつよーなこーみつどじっそーのせいで、ましんわひんぱんにだうんした。	NO_LABEL
回路基板が稠密に実装されたため、一つのトランジスタの誤動作がモジュール全体の障害を引き起こし、基板上のトランジスタ数が多いために全体としての故障率が極めて高くなってしまったのである。	かいろきばんがちょーみつにじっそーされたため、ひとつのとらんじすたのごどーさがもじゅーるぜんたいのしょーがいをひきおこし、きばんじょーのとらんじすたすーがおーいためにぜんたいとしてのこしょーりつがきめてたかくなってしまったのである。	NO_LABEL
この問題の解決策として他の業者が既に採用していたのは、集積回路を使うことであった。	このもんだいのかいけつさくとしてたのぎょーしゃがすでにさいよーしていたのわ、しゅーせきかいろをつかうことであった。	NO_LABEL
各ICは自動化された製造プロセスによって複数の部品を組み込んだ回路を内部に構成している。	かくあいしーわじどーかされたせいぞーぷろせすによってふくすーのぶひんをくみこんだかいろをないぶにこーせいしている。	NO_LABEL
ICが故障したら別のICに差し替えるのである。	あいしーがこしょーしたらべつのあいしーにさしかえるのである。	NO_LABEL
8600がデザインされた頃、単純なMOSFETベースの技術ではクレイが必要とした性能を達成できなかった。	NO_PRONOUNCE	NO_LABEL
しかし着実な改良により、1970年代中盤にはCray-1で 12.5nsの速度で動作できるまでになった。	NO_PRONOUNCE	NO_LABEL
実際、Cray-1 ではICによるサイズの低減効果で回路を 8600 よりも多く搭載でき、性能も若干向上した。	NO_PRONOUNCE	NO_LABEL
ICは進化し続けたが、ICの物理的な大きさは主に機械的な限界に制限された。	あいしーわしんかしつずけたが、あいしーのぶつりてきなおーきさわおもにきかいてきなげんかいにせいげんされた。	NO_LABEL
つまり、部品としてのICを半田付けするためには、ある程度の大きさが必要だったのである。	つまり、ぶひんとしてのあいしーをはんだつけするためにわ、あるていどのおーきさがひつよーだったのである。	NO_LABEL
マイクロプロセッサの進化を見ればわかるとおり、そのような密度的な進化も可能なのだが、クレイが使っていたICの頃はIC自体の実装密度が低く、改良は停滞期にあった。	まいくろぷろせっさのしんかをみればわかるとーり、そのよーなみつどてきなしんかもかのーなのだが、くれいがつかっていたあいしーのころわあいしーじたいのじっそーみつどがひくく、かいりょーわていたいきにあった。	NO_LABEL
クレイが常に課していた目標である Cray-1 の10倍の性能を達成するには、マシンはさらに複雑化する。	NO_PRONOUNCE	NO_LABEL
そのため、彼は再び 8600 の時のような解決策を採用した。	NO_PRONOUNCE	NO_LABEL
すなわち、高密度実装によってクロックを倍にして、プロセッサ数を増やし、それによって発生する熱の問題に対処しようとした。	すなわち、こーみつどじっそーによってくろっくをばいにして、ぷろせっさすーをふやし、それによってはっせいするねつのもんだいにたいしょしようとした。	NO_LABEL
クレイはまた、シリコン技術の進歩がほとんど終息したと思っていた。	くれいわまた、しりこんぎじゅつのしんぽがほとんどしゅーそくしたとおもっていた。	NO_LABEL
Cray-1 の 12.5ns というサイクル時間を半分にすることは可能だろうとは思っていたが、簡単とは思えなかった。	NO_PRONOUNCE	NO_LABEL
しかし、代わりにガリウムヒ素ベースの回路を使うという可能性があった。	しかし、かわりにがりゅーむひそべーすのかいろをつかうとゆうかのーせいがあった。	NO_LABEL
GaAsでは、少なくとも10倍のスイッチング速度を低電力で達成でき、結果として発熱も少ない。	NO_PRONOUNCE	NO_LABEL
1970年代終盤から80年代初期にかけて、コンピュータ業界全体が GaAs を広範囲に採用しかけているように見えた。	NO_PRONOUNCE	NO_LABEL
クレイ社のチームは他社を打ち負かすためにロックウェル・インターナショナルの半導体部門と共に働いた。	くれいしゃのちーむわたしゃをうちまかすためにろっくうぇるいんたーなしょなるのはんどーたいぶもんとともにはたらいた。	NO_LABEL
しかし、チップは生産可能な状態ではなく、Cray-2は既存のシリコンベースの設計で行くしかなかった。	NO_PRONOUNCE	NO_LABEL
別の設計問題はプロセッサと主記憶装置の間の増大する性能差である。	べつのせっけいもんだいわぷろせっさとしゅきおくそーちのまのぞーだいするせいのーさである。	NO_LABEL
CDC 6600の時代にはメモリはプロセッサと同じスピードで動き、主要な問題はデータを如何にしてメモリに送り込むか、であった。	NO_PRONOUNCE	NO_LABEL
クレイは小型のコンピュータを10台追加して、それらが低速な外部記憶装置を制御し、メインのプロセッサが演算している間にそれらがメモリ上にデータを一気に書き込むことでそれを解決した。	NO_PRONOUNCE	NO_LABEL
この解決策は、もはや何の役にも立たない。	このかいけつさくわ、もはやなにのやくにもたたない。	NO_LABEL
メモリは、データセット全体を読み込めるくらい大容量になったが、プロセッサはメモリよりずっと速く動作し、しばしばメモリからデータが到着するのをずっと待つことになってしまう。	めもりわ、でーたせっとぜんたいをよみこめるくらいだいよーりょーになったが、ぷろせっさわめもりよりずっとはやくどーさし、しばしばめもりからでーたがとーちゃくするのをずっとまつことになってしまう。	NO_LABEL
4つのプロセッサを追加することはこの問題をさらに悪化させた。	よっつのぷろせっさをついかすることわこのもんだいをさらにあっかさせた。	NO_LABEL
この問題を避けるために、新たな設計では 128Kバイトの極めて高速なメモリを中心に置き、「バックグラウンド・プロセッサ」を4個それぞれ独立した高速なパイプでその高速メモリに接続するようになった。	NO_PRONOUNCE	NO_LABEL
いわゆるキャッシュメモリであり、「フォアグラウンド・プロセッサ」がメインメモリとキャッシュメモリの間に置かれ、複数のGビットレベルのチャネルでデータをやり取りした。	NO_PRONOUNCE	NO_LABEL
フォアグラウンド・プロセッサはコンピュータ全体を制御し、記憶装置と複数のチャネルを効率的に動作させる。	NO_PRONOUNCE	NO_LABEL
バックグラウンド・プロセッサが実行すべき命令はデータ用のパイプとは別に8個の16ワードバッファで供給される。	NO_PRONOUNCE	NO_LABEL
現在では、このフォアグラウンド・プロセッサは「ロード/ストア・ユニット」と呼ばれ、CPUの中に組み込まれている。	NO_PRONOUNCE	NO_LABEL
主記憶装置は同時並行的に異なる領域にアクセスできるようになっており、プログラマは高い並列性を得るためにデータを分散させて配置することができた。	しゅきおくそーちわどーじへいこーてきにことなるりょーいきにあくせすできるよーになっており、ぷろぐらまわたかいへいれつせいをえるためにでーたをぶんさんさせてはいちすることができた。	NO_LABEL
この手法の問題点は、フォアグラウンド・プロセッサにデータを集めさせたり、分散させたりする機能を組み込むことがコストを増大させる点である。	NO_PRONOUNCE	NO_LABEL
また、データセットが非常に小さく、分散させることができない場合、単純なアーキテクチャのマシンよりも性能が悪化する。	また、でーたせっとがひじょーにちーさく、ぶんさんさせることができないばあい、たんじゅんなあーきてくちゃのましんよりもせいのーがあっかする。	NO_LABEL
Cray-2 ではICを目一杯実装した大型の回路基板を使うよう設計された。	NO_PRONOUNCE	NO_LABEL
そのため、半田付けが極めて困難となったが、実装密度は性能目標を達成するにはまだ不十分であった。	そのため、はんだずけがきわめてこんなんとなったが、じっそーみつどわせいのーもくひょーをたっせいするにわまだふじゅーぶんであった。	NO_LABEL
チームはこの設計問題に関して二年間働き、誰もがシーモア・クレイが「あきらめた」と言ってプロジェクトを中止して全員をクビにしてくれないだろうかと思い始めた。	NO_PRONOUNCE	NO_LABEL
レス・デイビスは、この問題の優先順位を低くすることを決めた。	NO_PRONOUNCE	NO_LABEL
いくつかの小さな人員移動の後、チームは以前のように作業を続行した。	いくつかのちーさなじんいんいどーののち、ちーむわいぜんのよーにさぎょーをぞっこーした。	NO_LABEL
6ヶ月後、クレイは解決策を得た。	NO_PRONOUNCE	NO_LABEL
彼は主要な技術者を集めて会議を開き、問題の新しい解決策を見せた。	かれわしゅよーなぎじゅつしゃをあつめてかいぎをひらき、もんだいのあたらしいかいけつさくをみせた。	NO_LABEL
大きなひとつの回路基板ではなく、8枚のカードを三次元的に積み重ね、それらの間をピンで縦に繋ぐのである。	おーきなひとつのかいろきばんでわなく、はちまいのかーどをさんじげんてきにつみかさね、それらのまをぴんでたてにつなぐのである。	NO_LABEL
カードは互いに接するように実装されたので、高さはわずか3インチ程度だった。	かーどわたがいにせっするよーにじっそーされたので、たかさわわずかさんいんちていどだった。	NO_LABEL
しかし、この実装密度では従来の冷却方式が全く使い物にならない。	しかし、このじっそーみつどでわじゅーらいのれいきゃくほーしきがぜんくつかいものにならない。	NO_LABEL
ICの周囲に空気が流れる隙間がほとんどなかった。	あいしーのしゅーいにくーきがながれるすきまがほとんどなかった。	NO_LABEL
代わりにシステム全体を3Mが開発した新しい不活性液体フロリナート () のタンクに浸すことになった。	かわりにしすてむぜんたいをすりーえむがかいはつしたあたらしいふかっせいえきたいふろりなーとかっこのたんくにひたすことになった。	NO_LABEL
液体は熱せられると筐体の上部に上がっていくので、ポンプで蒸発冷却を使った別の装置に送り込み、冷却した後で再度コンピュータ側の筐体に戻す。	えきたいわねっせられるときょうたいのじょーぶにあがっていくので、ぽんぷでじょーはつれいきゃくをつかったべつのそーちにおくりこみ、れいきゃくしたのちでさいどこんぴゅーたがわのきょうたいにもどす。	NO_LABEL
この新しい設計が開始されたのは1982年であり、最初の設計開始から数年が経っていた。	このあたらしいせっけいがかいしされたのわせんきゅうひゃくはちじゅうにねんであり、さいしょのせっけいかいしからすーねんがたっていた。	NO_LABEL
その間、スティーブ・チェンらはクレイ社本部でCray X-MPを開発しており、それが Cray-2 の売れ行きに重大な影響を及ぼすと思われた。	NO_PRONOUNCE	NO_LABEL
この内部の脅威と日本から出てきたいくつかの Cray-1 風のマシンに対抗するため、Cray-2 のメモリシステムは改良され、サイズを増やすと共に各プロセッサのパイプ数を増やし、性能は劇的に改善された。	NO_PRONOUNCE	NO_LABEL
1985年に Cray-2 がリリースされた時、開発の遅れはあまりにも大きく、性能上の利点はメモリの高速性だけとなっていて、大きなデータセットを処理する場合以外には購入する意味は無かった。	NO_PRONOUNCE	NO_LABEL
この大型のメモリは軽視すべきではない。	このおーがたのめもりわけいしすべきでわない。	NO_LABEL
最初に出荷された Cray-2 に搭載されたメモリ容量は、それまでに出荷された全クレイ製品に搭載されたメモリの合計よりも大容量だった。	NO_PRONOUNCE	NO_LABEL
シミュレーションは、2-D領域や劣悪な3-Dから、より素晴らしい3-D領域に進展した。	NO_PRONOUNCE	NO_LABEL
というのも遅い仮想記憶に依存しない計算が可能だったからである。	とゆうのもおそいかそーきおくにいぞんしないけいさんがかのーだったからである。	NO_LABEL
スペースを時間と交換するこの単純さは、スーパーコンピュータそのものである。	すぺーすをじかんとこーかんするこのたんじゅんさわ、すーぱーこんぴゅーたそのものである。	NO_LABEL
Cray-2はアメリカ国防総省とアメリカ合衆国エネルギー省のために主に開発された。	NO_PRONOUNCE	NO_LABEL
用途は核兵器研究や海洋学が想定された。	よーとわかくへいきけんきゅーやかいよーがくがそーていされた。	NO_LABEL
しかしそれだけに留まらず、Cray-2 は軍用以外の機関、大学、企業など世界中で導入された。	NO_PRONOUNCE	NO_LABEL
Cray-2の後継としてCray-3が開発されたものの、開発時の問題のために1つのシステムが構築されたのみで開発資金は回収できなかった。	NO_PRONOUNCE	NO_LABEL
Cray-2の精神はクレイ社のCray X1 () に受け継がれた。	NO_PRONOUNCE	NO_LABEL
