クワミ・ブラウンは、アメリカ合衆国サウスカロライナ州チャールストン出身の元バスケットボール選手。	くわみぶらうんわ、あめりかがっしゅーこくさうすかろらいなしゅーちゃーるすとんしゅっしんのもとばすけっとぼーるせんしゅ。	NO_LABEL
主なポジションはセンター。	おもなぽじしょんわせんたー。	NO_LABEL
グリン・アカデミー高を卒業後、フロリダ大学に進学する予定だったが取り止め、2001年のNBAドラフトで全体の1位指名をワシントン・ウィザーズから受けNBA入りした。	NO_PRONOUNCE	NO_LABEL
NBA史上で初めて高校卒業でのドラフト1位指名となった。	えぬびーえーしじょーではじめてこーこーそつぎょーでのどらふといちいしめいとなった。	NO_LABEL
更に、当時ウィザーズの選手編成担当のマイケル・ジョーダンに指名されたこともあり、期待が高まっていた。	さらに、とーじうぃざーずのせんしゅへんせいたんとーのまいけるじょーだんにしめいされたこともあり、きたいがたかまっていた。	NO_LABEL
しかし、ルーキーシーズンは思ったような活躍ができずに終わる。	しかし、るーきーしーずんわおもったよーなかつやくができずにおわる。	NO_LABEL
2年目、3年目と徐々に数字を伸ばしたが、4年目の04-05シーズンには怪我も手伝って不調。	NO_PRONOUNCE	NO_LABEL
23年ぶりにプレイオフ1回戦の壁を破り、すばらしいシーズンを送ったチームとは裏腹に、ブラウンは練習の無断欠席により、プレイオフの出場停止処分を受けてしまい、ギルバート・アリーナスらチームメイトとの確執も表面化した。	にじゅうさんねんぶりにぷれいおふいちかいせんのかべをやぶり、すばらしいしーずんをおくったちーむとわうらはらに、ぶらうんわれんしゅーのむだんけっせきにより、ぷれいおふのしゅつじょーていししょぶんをうけてしまい、ぎるばーとありーなすらちーむめいととのかくしつもひょーめんかした。	NO_LABEL
04-05シーズン終了後、ウィザーズとの契約は更新されずフリーエージェントになり、サイン・アンド・トレードでロサンゼルス・レイカーズに移籍した。	NO_PRONOUNCE	NO_LABEL
レイカーズでは3シーズン過ごしたものの成績はパッとせず出場時間も毎年減少し居場所を失っていく。	NO_PRONOUNCE	NO_LABEL
そして2008年1月のパウ・ガソルとのトレード要員としてメンフィス・グリズリーズへ放出。	そしてにせんはちねんいちがつのぱうがそるとのとれーどよーいんとしてめんふぃすぐりずりーずえほーしゅつ。	NO_LABEL
グリズリーズでは過去最低の成績でシーズンを終えた。	ぐりずりーずでわかこさいていのせいせきでしーずんをおえた。	NO_LABEL
2008年のオフはグリズリーズと契約延長はされず、再びフリーエージェントとなりデトロイト・ピストンズと2年800万ドルで契約した。	にせんはちねんのおふわぐりずりーずとけいやくえんちょーわされず、ふたたびふりーえーじぇんととなりでとろいとぴすとんずとにねんはっぴゃくまんどるでけいやくした。	NO_LABEL
ピストンズ移籍後、08-09シーズンは58試合に出場し、平均4.2得点、5.0リバウンド。	NO_PRONOUNCE	NO_LABEL
09-10シーズンは48試合に出場し、平均3.3得点3.7リバウンドと高額契約の期待には応えられなかった。	NO_PRONOUNCE	NO_LABEL
シーズン後、かつて自身を指名したジョーダンがオーナーを務めるシャーロット・ボブキャッツへ移籍した。	しーずんご、かつてじしんをしめいしたじょーだんがおーなーをつとめるしゃーろっとぼぶきゃっつえいせきした。	NO_LABEL
2011年12月14日、ゴールデンステート・ウォリアーズへ移籍するも	にせんじゅういちねんじゅーにがつじゅうよっか、ごーるでんすてーとうぉりあーずえいせきするも	NO_LABEL
2012年3月13日、アンドリュー・ボーガットとのトレードで、モンタ・エリス、エペイ・ウドゥと共にミルウォーキー・バックスに放出。	にせんじゅうにねんさんがつじゅうさんにち、あんどりゅーぼーがっととのとれーどで、もんたえりす、えぺいうどぅとともにみるーぉーきーばっくすにほーしゅつ。	NO_LABEL
ウォリアーズ在籍時の負傷の為に、バックスでは不出場に終わる。	うぉりあーずざいせきじのふしょーのために、ばっくすでわふしゅつじょーにおわる。	NO_LABEL
2012年7月20日、フィラデルフィア・セブンティシクサーズへ移籍。	にせんじゅうにねんしちがつはつか、ふぃらでるふぃあせぶんてぃしくさーずえいせき。	NO_LABEL
 2013年11月20日、シクサーズを解雇され、その後は引退状態となった。	にせんじゅうさんねんじゅーいちがつはつか、しくさーずをかいこされ、そのごわいんたいじょーたいとなった。	NO_LABEL
史上初の高卒でのNBAドラフト全体1位指名を受けた選手だが、これまでのブラウンの成績は一流のビッグマンとはかけ離れたものであるばかりか、その成績は年々右肩下がりでチームでもお払い箱の状態になっていった。	しじょーはつのこーそつでのえぬびーえーどらふとぜんたいいちーしめいをうけたせんしゅだが、これまでのぶらうんのせいせきわいちりゅーのびっぐまんとわかけはなれたものであるばかりか、そのせいせきわねんねんみぎかたさがりでちーむでもおはらいばこのじょーたいになっていった。	NO_LABEL
オフェンス能力は乏しく、期待されたディフェンス面でもブロックショットやリバウンドなどセンターとして及第点には至らなかった。	おふぇんすのーりょくわとぼしく、きたいされたでぃふぇんすめんでもぶろっくしょっとやりばうんどなどせんたーとしてきゅーだいてんにわいたらなかった。	NO_LABEL
さらにコート外でも非常に問題行動が多く、ブラウンは近年のドラフトにおいての最悪の失敗例とまで揶揄されてしまった。	さらにこーとがいでもひじょーにもんだいこーどーがおーく、ぶらうんわきんねんのどらふとにおいてのさいあくのしっぱいれいとまでやゆされてしまった。	NO_LABEL
しかし、デトロイト・ピストンズとの契約の際、世間の評価とは裏腹に非常に高評価を受けての契約だった。	しかし、でとろいとぴすとんずとのけいやくのさい、せけんのひょーかとわうらはらにひじょーにこーひょーかをうけてのけいやくだった。	NO_LABEL
当時のピストンズのGMはNBAでも評価の高い敏腕のジョー・デュマースであったが、上記のとおり期待を裏切る結果となった。	とーじのぴすとんずのじむわえぬびーえーでもひょーかのたかいびんわんのじょーでゅまーすであったが、じょーきのとーりきたいをうらぎるけっかとなった。	NO_LABEL
