高 覧は、中国後漢時代末期の武将。	こーらんわ、ちゅーごくこーかんじだいまっきのぶしょー。	NO_LABEL
名は高奐ともいう。	なわこーかんともいう。	NO_LABEL
袁紹配下。	えんしょーはいか。	NO_LABEL
正史では建安5年10月、官渡の戦いで烏巣の攻撃に向かった曹操の留守を衝くため、同僚の張郃と共に曹操の本陣に攻撃を仕掛けた。	せいしでわけんあんごねんじゅーがつ、かんとのたたかいでからすすのこーげきにむかったそうそーのるすをつくため、どーりょーのちょーこーとともにそうそーのほんじんにこーげきをしかけた。	NO_LABEL
しかし、最終的には攻め落とせず、烏巣を陥落させ戻ってきた曹操に降伏した。	しかし、さいしゅーてきにわせめおとせず、からすすをかんらくさせもどってきたそうそーにこーふくした。	NO_LABEL
記述はこれのみであり、張郃と異なり曹操の下での活躍は全く無い。	きじゅつわこれのみであり、ちょーこーとことなりそうそーのしたでのかつやくわぜんくない。	NO_LABEL
一方、小説『三国志演義』では、高覧の活躍が大いに描かれている。	NO_PRONOUNCE	NO_LABEL
顔良・文醜亡き後の袁紹軍において、高覧は張郃と共に2枚看板的な勇将として登場する。	NO_PRONOUNCE	NO_LABEL
官渡の戦いでは許褚と互角に一騎討ちを繰り広げる。	かんとのたたかいでわきょちょとごかくにいっきうちをくりひろげる。	NO_LABEL
烏巣の兵糧庫が曹操軍に急襲された際には、高覧は張郃と共に曹操軍の本陣を攻撃したが、反撃を受けて大敗を喫してしまう。	からすすのひょーろーこがそうそーぐんにきゅーしゅーされたさいにわ、こーらんわちょーこーとともにそうそーぐんのほんじんをこーげきしたが、はんげきをうけてたいはいをきっしてしまう。	NO_LABEL
すると、本陣攻撃を進言した郭図が、自分の作戦の失敗を押し付けようと図り、張郃と高覧について袁紹に讒言する。	すると、ほんじんこーげきをしんげんしたかくとが、じぶんのさくせんのしっぱいをおしつけようとはかり、ちょーこーとこーらんについてえんしょーにざんげんする。	NO_LABEL
また一方で郭図が、張郃と高覧に袁紹が2人を粛清しようとしていると連絡したため、怒った高覧は袁紹からの帰還督促の使者を斬り捨て、さらに張郃も説き伏せて共に曹操に投降することとなっている。	またいっぽーでかくとが、ちょーこーとこーらんにえんしょーがふたりをしゅくせいしようとしているとれんらくしたため、おこったこーらんわえんしょーからのきかんとくそくのししゃをきりすて、さらにちょーこーもときふせてともにそうそーにとーこーすることとなっている。	NO_LABEL
曹操は降伏してきた高覧を、偏将軍・東莱侯に封じる。	NO_PRONOUNCE	NO_LABEL
その後、高覧は張郃と共に先鋒を務め、袁紹軍を撃破している。	そのご、こーらんわちょーこーとともにせんぽーをつとめ、えんしょーぐんをげきはしている。	NO_LABEL
倉亭の戦いでは、右翼5番手として戦い、またしても袁紹軍撃破に貢献する。	そうていのたたかいでわ、うよくごばんてとしてたたかい、またしてもえんしょーぐんげきはにこーけんする。	NO_LABEL
また、汝南で勢力を築きつつあった劉備の討伐に参加し、反乱軍の一人劉辟を討ち取るなどして、劉備を自害寸前まで追いつめている。	NO_PRONOUNCE	NO_LABEL
しかし、救援として駆けつけた趙雲に馬上から突き落とされ生死不明となり、以後登場しなくなる。	しかし、きゅーえんとしてかけつけたちょーうんにもうえからつきおとされせいしふめいとなり、いごとーじょーしなくなる。	NO_LABEL
