杉山 直樹は日本の指揮者。	すぎやまなおきわにっぽんのしきしゃ。	NO_LABEL
埼玉県生まれ。	さいたまけんうまれ。	NO_LABEL
ロマン派のオペラや交響曲を得意とする。	ろまんはのおぺらやこーきょーきょくをとくいとする。	NO_LABEL
武蔵野音楽大学中退後ウィーン国立音楽大学トロンボーン科に留学。	むさしのおんがくだいがくちゅーたいごうぃーんこくりつおんがくだいがくとろんぼーんかにりゅーがく。	NO_LABEL
1983年以降、指揮者ヘルベルト・ケーゲル、また、ケーゲルの没後はクルト・レーデルに師事。	せんきゅうひゃくはちじゅうさんねんいこー、しきしゃへるべるとけーげる、また、けーげるのぼつごわくるとれーでるにしじ。	NO_LABEL
音楽マネージメント、企業メセナ協議会に勤務した後、高崎芸術短期大学講師となるが解雇される。	おんがくまねーじめんと、きぎょーめせなきょーぎかいにきんむしたのち、たかさきげいじゅつたんきだいがくこーしとなるがかいこされる。	NO_LABEL
ハンガリーのエルヌ・ドホナーニ管弦楽団、チェコのモラヴィアフィルハーモニー管弦楽団などのオーケストラに客演するほか、新国立劇場でのナクソス島のアリアドネ、その他にヘンゼルとグレーテルなどのオペラを指揮。	NO_PRONOUNCE	NO_LABEL
指揮講習会では10年間にわたってレーデルのアシスタントをつとめる。	しきこーしゅーかいでわじゅうねんかんにわたってれーでるのあしすたんとをつとめる。	NO_LABEL
ペーター・コルネリウスのオペラ「バグダッドの理髪師」を日本初演。	NO_PRONOUNCE	NO_LABEL
翻訳に「指揮のテクニック」「トロンボーン教程」がある。	NO_PRONOUNCE	NO_LABEL
リヒャルト・シュトラウスの著作権をめぐって英国の大手出版社、ブージー・アンド・ホークスと争い、弁護士を立てずに法廷に立って最高裁判所まですべての裁判を勝訴、日本におけるリヒャルト・シュトラウスの著作権が終了したことを証明した。	りひゃるとしゅとらうすのちょさくけんをめぐってえいこくのおーてしゅっぱんしゃ、ぶーじーあんどほーくすとあらそい、べんごしをたてずにほーていにたってさいこーさいばんしょまですべてのさいばんをしょーそ、にっぽんにおけるりひゃるとしゅとらうすのちょさくけんがしゅーりょーしたことをしょーめいした。	NO_LABEL
日独楽友協会代表として日独の音楽家の交流にも功績がある。	にちどくらくともきょーかいだいひょーとしてにちどくのおんがくかのこーりゅーにもこーせきがある。	NO_LABEL
