ナムイエット島は、南沙諸島のティザード堆と呼ばれる環礁の一部を形成している島である。	なむいえっととーわ、なんさしょとーのてぃざーどうずたかとよばれるかんしょーのいちぶをけいせいしているしまである。	NO_LABEL
この環礁には南沙諸島最大の太平島もある。	このかんしょーにわなんさしょとーさいだいのたいへいとーもある。	NO_LABEL
面積は0.053km。	NO_PRONOUNCE	NO_LABEL
最高地点の海抜は6.2mで、南沙諸島の中で最高である。	さいこーちてんのかいばつわろくてんにめーとるで、なんさしょとーのなかでさいこーである。	NO_LABEL
第二次世界大戦以前の日本が統治していた時期には南小島と呼ばれていた。	だいにじせかいたいせんいぜんのにっぽんがとーちしていたじきにわみなみこじまとよばれていた。	NO_LABEL
ベトナムが実効支配しているが、中華人民共和国、台湾およびフィリピンも主権を主張している。	べとなむがじっこーしはいしているが、ちゅーかじんみんきょーわこく、たいわんおよびふぃりぴんもしゅけんをしゅちょーしている。	NO_LABEL
1973年、南ベトナム軍がこの島に駐留した。	せんきゅうひゃくななじゅうさんねん、みなみべとなむぐんがこのしまにちゅーりゅーした。	NO_LABEL
