.30-06スプリングフィールド弾とは、1906年にアメリカ陸軍が開発し、規格化が行われた弾薬で、1960年代から1970年代初期まで使用された。	NO_PRONOUNCE	NO_LABEL
他の名称には7.62x63mm、ウィンチェスター社では「30 Gov't 06」ともされている。	NO_PRONOUNCE	NO_LABEL
読み方は「thirty-aught-six」もしくは「thirty-oh-six」である。	NO_PRONOUNCE	NO_LABEL
.30とは弾丸の直径を表したもので、また06とは採用年である1906年を示したものである。	NO_PRONOUNCE	NO_LABEL
本弾薬は、、.30-40クラグ弾を代替した。	NO_PRONOUNCE	NO_LABEL
.30-06弾はアメリカ陸軍の主力小銃および機関銃の弾薬用として50年近く用いられ、7.62x51mm NATO弾および5.56x45mm NATO弾に代替された。	NO_PRONOUNCE	NO_LABEL
この両方の弾薬は現在、アメリカ軍とNATOの任務に使用されている。	このりょーほーのだんやくわげんざい、あめりかぐんとなとーのにんむにしよーされている。	NO_LABEL
.30-06スプリングフィールド弾は競技用実包として非常に人気があり、全ての主要メーカーがこの弾薬を製造している。	NO_PRONOUNCE	NO_LABEL
ヨーロッパの軍隊の多くは20世紀を迎える頃に、新しい弾薬を採用する過程にあった。	よーろっぱのぐんたいのおーくわにじっせいきをむかえるころに、あたらしいだんやくをさいよーするかていにあった。	NO_LABEL
これは弾頭部分が尖鋭に加工された、弾頭を使用するものだった。	これわだんとーぶぶんがせんえいにかこーされた、だんとーをしよーするものだった。	NO_LABEL
フランスでは1898年、ドイツでは1905年、ロシアでは1908年、そしてイギリスでは1910年に弾種変更が行われていた。	ふらんすでわせんはっぴゃくきゅうじゅうはちね、どいつでわせんきゅうひゃくごねん、ろしあでわせんきゅうひゃくはちねん、そしていぎりすでわせんきゅうひゃくじゅうねんにたましゅへんこーがおこなわれていた。	NO_LABEL
しかし1903年の時点でアメリカ軍の装備した.30-03弾は、弾丸重量14g、蛋形、銃口初速700m/sというものに過ぎず、進行する技術革新にすみやかに落伍した。	NO_PRONOUNCE	NO_LABEL
こうした理由により、弾頭がスピッツァー形状、弾底がフラットベースで弾丸重量9.7g、射出のために薬莢ネック部分がわずかに短くされた新型弾薬筒が開発された。	こーしたりゆーにより、だんとーがすぴっつぁーけいじょー、たまそこがふらっとべーすでだんがんじゅーりょーきゅうてんななぐらむ、しゃしゅつのためにやっきょーねっくぶぶんがわずかにみじかくされたしんがただんやくとーがかいはつされた。	NO_LABEL
この弾薬のは約0.405であり、銃口初速820m/s、初活力は3,292ジュールを達成した。	NO_PRONOUNCE	NO_LABEL
スプリングフィールドM1903小銃は初期の.30-03弾薬とともに使用されていたが、これらは.30-06スプリングフィールド弾に適合するよう速やかに改修され、アメリカ陸軍により「M1906」と呼称された。	NO_PRONOUNCE	NO_LABEL
小銃の改修作業にはブリーチ部分での銃身の短縮化と、薬室の再切削が含まれた。	しょーじゅーのかいしゅーさぎょーにわぶりーちぶぶんでのじゅーしんのたんしゅくかと、やくしつのさいせっさくがふくまれた。	NO_LABEL
このような改修により、新しい弾丸の縮小されたが、ライフリングへ到達するまで長い距離を推進する必要がなくなった。	このよーなかいしゅーにより、あたらしいだんがんのしゅくしょーされたが、らいふりんぐえとーたつするまでながいきょりをすいしんするひつよーがなくなった。	NO_LABEL
他の改修は「ロッド銃剣」を撤廃したことなどである。	NO_PRONOUNCE	NO_LABEL
初期のスプリングフィールド銃のこの装備品はトラブルが多いものだった。	しょきのすぷりんぐふぃーるどじゅーのこのそーびひんわとらぶるがおーいものだった。	NO_LABEL
第一次世界大戦で集積された戦訓は、最大有効射程の点でアメリカの機関銃より他国のそれが遙かに勝ることを示していた。	だいいちじせかいたいせんでしゅーせきされたせんくんわ、さいだいゆーこーしゃていのてんであめりかのきかんじゅーよりたこくのそれがはるかにまさることをしめしていた。	NO_LABEL
加えて、軽迫撃砲と大砲の大規模投入よりもまず、アメリカ歩兵連隊の戦術では長射程の機関銃による弾幕射撃や間接射撃が重要と考えられた。	くわえて、けいはくげきほーとたいほーのだいきぼとーにゅーよりもまず、あめりかほへいれんたいのせんじゅつではちょーしゃていのきかんじゅーによるだんまくしゃげきやかんせつしゃげきがじゅーよーとかんがえられた。	NO_LABEL
こうした理由から、1926年、アメリカ軍の武器科では新型の推進薬を充填した.30 M1普通弾のカートリッジを開発した。	NO_PRONOUNCE	NO_LABEL
これは弾丸重量11.3g、弾尾が9度のボートテール形状を持ち、弾道係数は約0.560、銃口初速が800m/s、初活力は3,650ジュールを達成した。	NO_PRONOUNCE	NO_LABEL
さらにこの弾丸は飛行中の空気抵抗を減らした結果、射程にともなう急激な減速や横風による横弾の発生を減らし、また機関銃と小銃の両方の使用において、最大有効射程と超音速で飛翔する領域をかなり増大させた。	さらにこのだんがんわひこーちゅーのくーきていこーをへらしたけっか、しゃていにともなうきゅーげきなげんそくやおーふーによるよこだんのはっせいをへらし、またきかんじゅーとしょーじゅーのりょーほーのしよーにおいて、さいだいゆーこーしゃていとちょーおんそくでひしょーするりょーいきをかなりぞーだいさせた。	NO_LABEL
最大射程は約5,030mに達した。	NO_PRONOUNCE	NO_LABEL
これに加え、真鍮製の被甲が開発された。	これにくわえ、しんちゅーせいのひかぶとがかいはつされた。	NO_LABEL
これは初期のM1906弾薬が悩まされた、銃身内の金属の汚れをほぼ除去するものだった。	NO_PRONOUNCE	NO_LABEL
アメリカ軍の戦時の余剰な弾薬は総計20億発となり、陸軍の規定では最古の弾薬を最初に訓練で消費するよう求めた。	あめりかぐんのせんじのよじょーなだんやくわそーけいにじゅうおくはつとなり、りくぐんのきていでわさいこのだんやくをさいしょにくんれんでしょーひするよーもとめた。	NO_LABEL
結果、旧来の.30-06弾薬も訓練に消費された。	NO_PRONOUNCE	NO_LABEL
この古いM1906弾薬がすべて撃ち尽くされるまで、.30 M1普通弾の在庫はゆっくりと増大した。	NO_PRONOUNCE	NO_LABEL
1936年、.30 M1普通弾の最大射程が多くの範囲で安全制限を超えていることが判明した。	NO_PRONOUNCE	NO_LABEL
一通の緊急指示が出され、可能な限り速やかに、初期のM1906弾薬と腔外弾道を適合させた大量の弾薬を製造するよう命令がなされた。	NO_PRONOUNCE	NO_LABEL
1938年開発の新しい弾薬は基本的に古いM1906弾の複製だったが、IMR 4895推進薬を充填し、また新規に弾尾がフラットベースとなった。	NO_PRONOUNCE	NO_LABEL
さらに真鍮製の被甲を持ち、異なる成分の鉛合金によって弾丸重量が従来の9.7gから9.8gへと変化した。	さらにしんちゅーせいのひかぶとをもち、ことなるせいぶんのなまりごーきんによってだんがんじゅーりょーがじゅーらいのきゅうてんななぐらむからきゅうてんはちぐらむえとへんかした。	NO_LABEL
この1938年式の弾薬である.30 M2普通弾は、初速855m/s、初活力3,600ジュールを達成し、最大射程は約3,150mだった。	NO_PRONOUNCE	NO_LABEL
軍事用途では、30-06弾はボルトアクション方式のスプリングフィールドM1903小銃、M1917エンフィールド小銃、半自動式のM1ガーランド小銃、M1941ジョンソン小銃、Famage マウザー、ブローニングM1918自動小銃、およびM1917とM1919シリーズを含む多数の機関銃に使用された。	NO_PRONOUNCE	NO_LABEL
これは第一次・第二次の両世界大戦に投入されたほか、朝鮮戦争でもアメリカ合衆国に貢献した。	NO_PRONOUNCE	NO_LABEL
また最後の大規模な使用はベトナム戦争だった。	またさいごのだいきぼなしよーわべとなむせんそーだった。	NO_LABEL
相当量の余剰な薬莢がリロード用に大量使用されるだけでなく、何十種類にもおよぶ商業用弾薬やワイルドキャット・カートリッジの基礎を作り出した。	そーとーりょうのよじょーなやっきょーがりろーどよーにたいりょーしよーされるだけでなく、なんじゅーしゅるいにもおよぶしょーぎょーよーだんやくやわいるどきゃっとかーとりっじのきそをつくりだした。	NO_LABEL
1908年、レバーアクション方式のウィンチェスター モデル1895小銃は.30-06弾薬を採用し、商業用に量産された最初の競技用小銃になった。	NO_PRONOUNCE	NO_LABEL
現在でも本弾薬は狩猟用として非常に普遍的な銃弾で、近距離から中距離にいるバイソンやサンバー、熊など大型の標的への使用に適している。	げんざいでもほんだんやくわしゅりょーよーとしてひじょーにふへんてきなじゅーだんで、きんきょりからちゅーきょりにいるばいそんやさんばー、くまなどおーがたのひょーてきえのしよーにてきしている。	NO_LABEL
弾道学的に、従来設計された弾薬の中でも.30-06弾は最も用途が広いものの1種である。	NO_PRONOUNCE	NO_LABEL
強力なハンドロード弾薬と小銃は上記の標的を処理でき、また.30-06弾は多くの「マグナム」弾に対抗する性能を持つ。	NO_PRONOUNCE	NO_LABEL
この弾薬は、装填できる銃器が余剰となっていて手に入りやすいこと、商業的な弾薬の需要、そして威力の点から、北アメリカの狩猟用として最も人気のある弾のひとつという地位を維持している。	このだんやくわ、そーてんできるじゅーきがよじょーとなっていててにはいりやすいこと、しょーぎょーてきなだんやくのじゅよー、そしていりょくのてんから、きたあめりかのしゅりょーよーとしてもっともにんきのあるたまのひとつとゆうちいをいじしている。	NO_LABEL
北アメリカで見つかるどのような獲物、小型であっても大型で重量があるものでも、適切なハンドロードによってこの弾薬は対応できる。	きたあめりかでみつかるどのよーなえもの、こがたであってもおーがたでじゅーりょーがあるものでも、てきせつなはんどろーどによってこのだんやくわたいおーできる。	NO_LABEL
.30-06弾薬は射程900mの射撃を予期して設計されている。	NO_PRONOUNCE	NO_LABEL
1906年、原型のM1906 .30-06弾薬は弾丸重量9.7g、平底で白銅の被甲を施した弾丸を装着していた。	NO_PRONOUNCE	NO_LABEL
第一次世界大戦後のアメリカ軍は、長距離射撃能力を持つもっと良い機関銃を必要とした。	だいいちじせかいたいせんごのあめりかぐんわ、ちょーきょりしゃげきのーりょくをもつもっとよいきかんじゅーをひつよーとした。	NO_LABEL
そこでヨーロッパから報告された兵器性能に基づき、流線形で弾尾がボートテール形状、重量11.2gで真鍮を使用した弾丸が用いられた。	そこでよーろっぱからほーこくされたへいきせいのーにもとずき、りゅうせんけいでたまおがぼーとてーるけいじょー、じゅーりょーじゅういちてんにぐらむでしんちゅーをしよーしただんがんがもちいられた。	NO_LABEL
.30-06弾薬は11.2gの弾丸を装着し、「カートリッジ、.30、M1普通弾」と呼ばれた。	NO_PRONOUNCE	NO_LABEL
.30-06弾は、日本が採用した小型の三十年式実包よりはるかに強力であり、後継の九九式普通実包に相当した。	NO_PRONOUNCE	NO_LABEL
新型のM1弾薬は、M1906弾よりも相当に弾道が正確なことが判明した 。	NO_PRONOUNCE	NO_LABEL
1938年、平底型の弾丸が.30-06薬莢と組み合わされ、M2普通弾となった。	NO_PRONOUNCE	NO_LABEL
これは銃身を汚さないタイプで弾丸重量は9.8gだった。	これわじゅーしんをよごさないたいぷでだんがんじゅーりょーわきゅうてんはちぐらむだった。	NO_LABEL
M2普通弾の仕様書では、銃口初速840m/sという最小限の速度を義務づけており、これは銃口から24mの距離で測定された。	NO_PRONOUNCE	NO_LABEL
M2普通弾は軍用小銃と機関銃向けに制式採用されていた弾薬で、これはスプリングフィールドM14小銃およびM60機関銃が使用する7.62x51mm NATO弾に代替された。	NO_PRONOUNCE	NO_LABEL
小銃で使用するにあたり、M2普通弾は初期のM1弾薬よりも弾道が不正確なことが判明した。	しょーじゅーでしよーするにあたり、えむつーふつーだんわしょきのえむいちだんやくよりもだんどーがふせいかくなことがはんめいした。	NO_LABEL
弾丸重量9.7gのM2普通弾に適合する小銃でさえ、射程180mで直径130mmという目標への集弾率が最善と思われ、そしてもっと多数の小銃ではより低い精度しか発揮できなかった。	だんがんじゅーりょーきゅうてんななぐらむのえむつーふつーだんにてきごーするしょーじゅーでさえ、しゃていひゃくはちじゅうめーとるでちょっけいひゃくさんじゅうめーとるめーとるとゆうもくひょーえのしゅーだんりつがさいぜんとおもわれ、そしてもっとたすーのしょーじゅーでわよりひくいせいどしかはっきできなかった。	NO_LABEL
アメリカ海兵隊では狙撃手と訓練された射手のためにM1弾薬のストックをとっておいたが、この処置は第二次世界大戦の初期に行われたソロモン諸島の戦いを通じて行われた。	あめりかかいへいたいでわそげきしゅとくんれんされたしゃしゅのためにえむいちだんやくのすとっくをとっておいたが、このしょちわだいにじせかいたいせんのしょきにおこなわれたそろもんしょとーのたたかいをつーじておこなわれた。	NO_LABEL
一部の狙撃手による精度を向上させる努力は、もっと重量のある.30-06 M2徹甲弾薬の使用にむけられたが、これは朝鮮戦争の際にも再び実行された。	NO_PRONOUNCE	NO_LABEL
ほかの兵員はデンバー武器科が製造した大量のM2弾薬を探しており、この弾薬は長距離狙撃の際に他の戦時弾薬工場で量産された弾薬よりも正確であることが確認された。	ほかのへいいんわでんばーぶきかがせいぞーしたたいりょーのえむつーだんやくをさがしており、このだんやくわちょーきょりそげきのさいにたのせんじだんやくこーじょーでりょーさんされただんやくよりもせいかくであることがかくにんされた。	NO_LABEL
商業向けに製造され、.30-06弾薬を装填する小銃は狩猟用として人気がある。	NO_PRONOUNCE	NO_LABEL
現在のメーカー製.30-06弾薬は、7.1gから14.3gまで様々に異なる弾丸重量を持つ実体弾であり、サボ付きの減口径弾を使用すれば重量は3.6gに低下する。	NO_PRONOUNCE	NO_LABEL
推進薬は初速と圧力を減らすよう量を加減して詰めることができ、また同様に、強力な銃器用に初速と圧力を強化することもできる。	すいしんやくわしょそくとあつりょくをへらすようりょーをかげんしてつめることができ、またどーよーに、きょーりょくなじゅーきよーにしょそくとあつりょくをきょーかすることもできる。	NO_LABEL
.30-06弾薬は世界で最も人気のある競技用弾薬の一種である。	NO_PRONOUNCE	NO_LABEL
多くの狩猟用弾薬は3,000ft-lbs以上の初活力を持ち、運動エネルギーを急激に目標へ移し替えられるエクスパンディング弾丸を用いる。	NO_PRONOUNCE	NO_LABEL
上記の表は、一般的な弾丸重量という条件下において、商業用.30-06弾薬に詰められた推進薬で達成できる典型的な銃口初速と、幾種類かのリローディングマニュアルによって報告された最大の銃口初速を一緒に示したものである。	NO_PRONOUNCE	NO_LABEL
ホジドン社、ノスラー社およびバーンズ社は、24インチ長の銃身を想定した速度を報告している。	ほじどんしゃ、のすらーしゃおよびばーんずしゃわ、にじゅうよんいんちちょーのじゅーしんをそーていしたそくどをほーこくしている。	NO_LABEL
ホーナディ社とシュペーア社では22インチ銃身のための速度を報告している。	ほーなでぃしゃとしゅぺーあしゃでわにじゅうにいんちじゅーしんのためのそくどをほーこくしている。	NO_LABEL
このデータはすべて、10インチで1回転という施条転度を持つ銃身用のもので、これは最も重量のある弾丸を安定させるために必要とされる。	このでーたわすべて、じゅういんちでいちかいてんとゆうしじょーてんどをもつじゅーしんよーのもので、これわもっともじゅーりょーのあるだんがんをあんていさせるためにひつよーとされる。	NO_LABEL
最高の銃口初速はノスラー社が弾丸重量10.69gで報告しており、重量のある弾丸は推進薬に緩燃性のダブルベースパウダーを使用する。	NO_PRONOUNCE	NO_LABEL
より新しい7.62x51mm NATO弾/.308ウィンチェスター弾薬は、標準的な軍用.30-06弾と同様の性能を、より小型の薬莢に詰めた推進薬で実現した。	NO_PRONOUNCE	NO_LABEL
しかし.30-06弾薬はもっと大きな薬莢容積を持っており、もし射手が望めば、もっと強い力を生み出す薬量を詰めることができる。	NO_PRONOUNCE	NO_LABEL
.30-06弾薬が、長年にわたりとても根強い人気を保ち続けた弾薬である1つの理由は、この弾薬筒の威力の上限が、大部分の射手にとり受け入れられるものだったことである。	NO_PRONOUNCE	NO_LABEL
射撃時にトリガーのみを引き、ほかは後方に支持物を置かず後退するに任せる依託射撃、いわゆるフリー・リコイル状態において反動のエネルギーが27.1ジュールよりも大きい時、大部分の射手は強い衝撃で萎縮する。	NO_PRONOUNCE	NO_LABEL
また、3.63kg重の小銃から.30-06弾を撃つ際、10.69gの弾丸を883.9m/sで撃ち出すと反動のエネルギーは27.3ジュールとなる。	NO_PRONOUNCE	NO_LABEL
反動を嫌う射手はもっと軽量な銃弾を選ぶことができる。	はんどーをきらうしゃしゅわもっとけいりょーなじゅーだんをえらぶことができる。	NO_LABEL
上記と同じ3.63kg重の小銃により、9.72gの弾丸を887.0m/sで撃ち出すとき、反動のエネルギーは23.9ジュールが生み出されるに過ぎない。	NO_PRONOUNCE	NO_LABEL
若年の射手は、7.13g、8.10gまたは8.42gのようなもっと軽量の弾丸で射撃を始めることができる。	NO_PRONOUNCE	NO_LABEL
.30-06スプリングフィールド弾は水に換算して4.43mlの薬莢容積を持つ。	NO_PRONOUNCE	NO_LABEL
弾薬の外形は、非常に過酷な条件下でも、ボルトアクション方式の小銃および機関銃が両方とも給弾と排莢を円滑に行えるよう設計されている。	だんやくのがいけいわ、ひじょーにかこくなじょーけんかでも、ぼるとあくしょんほーしきのしょーじゅーおよびきかんじゅーがりょーほーともきゅーだんとはいさやをえんかつにおこなえるよーせっけいされている。	NO_LABEL
C.I.Pによる.30-06スプリングフィールド弾のカートリッジ寸法。	NO_PRONOUNCE	NO_LABEL
すべてのサイズはmm表記である。	NO_PRONOUNCE	NO_LABEL
アメリカでは薬莢のショルダー部の角度をalpha/2、17.5度と規定した。	NO_PRONOUNCE	NO_LABEL
「加盟国内で流通する武器弾薬の安全保証を行う国際機関」によれば、通常この弾薬に用いる施条転度は254mm、施条数が4条、ライフリング頂部腔径7.62mm、ライフリング深部腔径7.82mmである。	NO_PRONOUNCE	NO_LABEL
施条幅は4.49mm。	NO_PRONOUNCE	NO_LABEL
使用される雷管は大型小銃用のものが使われる。	しよーされるらいかんわおーがたしょーじゅーよーのものがつかわれる。	NO_LABEL
公式ガイドラインに従えば、.30-06弾薬の薬莢は405MPaまでの圧力を処理することができる。	NO_PRONOUNCE	NO_LABEL
C.I.P.の基準に従う国家では、全てのライフル用弾薬の薬莢と弾頭の組み合わせを顧客に販売するにあたり、このC.I.P.圧力で最大125％に耐えることを証明しなければならない。	NO_PRONOUNCE	NO_LABEL
は、おそらく.30-06弾薬と弾道が最も近しく、対をなすヨーロッパの弾薬である。	NO_PRONOUNCE	NO_LABEL
「注」.30-06弾薬は、多種のそれぞれ異なる弾丸が異なる仕様で商業用に量産されている。	NO_PRONOUNCE	NO_LABEL
