早川　敬之は、フジテレビジョンのゼネラル・プロデューサーでテレビプロデューサー・映画プロデューサー。	NO_PRONOUNCE	NO_LABEL
「NHKスペシャル」「クローズアップ現代」「ETV特集」等NHKドキュメンタリーのディレクターを経て、シンガポールにてVCを起業。	NO_PRONOUNCE	NO_LABEL
主としてＩＴメディア系企業への出投資を手がけ、2010年より現職。	しゅとしてあいてぃーめでぃあけいきぎょーえのしゅつとーしをてがけ、にせんじゅうねんよりげんしょく。	NO_LABEL
仙台市生まれ。	せんだいしうまれ。	NO_LABEL
1994年NHKに入局。	せんきゅうひゃくきゅうじゅうよねんえぬえいちけいににゅーきょく。	NO_LABEL
テレビドキュメンタリーのディレクター・プロデューサーとして核問題、アジア経済等のテーマを手がけ、アジアテレビ映像祭グランプリ地方の時代映像祭グランプリ文化庁芸術祭（'03)等受賞作品多数。	NO_PRONOUNCE	NO_LABEL
フジテレビ入社後は編成部副部長、編成センター・メディアプロデュース部副部長を歴任しデジタル化を推進。	NO_PRONOUNCE	NO_LABEL
現在編成開発部にてインターネットと映像製作の融合領域における企画立案およびビジネス展開を行う。	げんざいへんせいかいはつぶにていんたーねっととえいぞーせいさくのゆーごーりょーいきにおけるきかくりつあんおよびびじねすてんかいをおこなう。	NO_LABEL
シカゴ大学経営大学院MBA、シンガポール国立大学公共政策大学院MPA、United States-Japan Foundation Scott M. Johnson Fellow。	NO_PRONOUNCE	NO_LABEL
