『ボールズ・トゥ・ザ・ウォール』は、ドイツのヘヴィメタル・バンド、アクセプトが1983年に発表した5作目のスタジオ・アルバム。	NO_PRONOUNCE	NO_LABEL
本作を制作していた当時、ウド・ダークシュナイダーは一時的にバンドを脱退しており、ウルフ・ホフマンは2002年のインタビューにおいて「違う奴とやってみたけど、結局それはそれで間違っていて、適任の奴は見つからなかった」「誰を代役にしようとしたかは思い出せない。	NO_PRONOUNCE	NO_LABEL
君が名前を知っているような奴じゃないな。	きみがなまえをしっているよーなやつじゃないな。	NO_LABEL
俺が覚えている限りでは、ウドが最初に脱退したのは『ボールズ・トゥ・ザ・ウォール』をレコーディングしていた頃だった」と語っている。	NO_PRONOUNCE	NO_LABEL
本作ではマネージャーのギャビー・ホークが「デフィ」という変名で全曲の歌詞を書き、以後の作品でもデフィが作詞を担当するようになった。	NO_PRONOUNCE	NO_LABEL
ハーマン・フランクは本作を最後に一度バンドを脱退するが、2005年の再々結成ツアーより復帰している。	はーまんふらんくわもとさくをさいごにいちどばんどをだったいするが、にせんごねんのさいさいけっせいつあーよりふっきしている。	NO_LABEL
母国ドイツにおいて自身初のアルバム・チャート入りを果たし、最高59位を記録。	NO_PRONOUNCE	NO_LABEL
スウェーデンでは前作『レストレス・アンド・ワイルド』に引き続きアルバム・チャート入りして、1983年11月15日付のチャートにおいて初登場10位を記録。	NO_PRONOUNCE	NO_LABEL
また、アクセプトは本作でアメリカ進出も果たした。	また、あくせぷとわもとさくであめりかしんしゅつもはたした。	NO_LABEL
タイトル曲のミュージック・ビデオがMTVでヘヴィ・ローテーションとなって、本作はBillboard 200で最高74位を記録。	NO_PRONOUNCE	NO_LABEL
更に1990年11月には、RIAAによってゴールドディスクに認定された。	さらにせんきゅうひゃくきゅうじゅうねんじゅーいちがつにわ、りあーによってごーるどでぃすくににんていされた。	NO_LABEL
Eduardo Rivadaviaはオールミュージックにおいて5点満点中4.5点を付け、タイトル曲を「歌詞はヒステリックでナンセンスとはいえ、その後広く知られていく、モダンでゆっくりと行進するようなメタル・アンセムの典型を示した、拳を掲げずにいられない名曲」と評し、本作を「前作『レストレス・アンド・ワイルド』と同様、極めて重要なヘヴィメタル・アルバムであり、金銭的に余裕のあるファンは両方とも押さえるべき」と評している。	NO_PRONOUNCE	NO_LABEL
また、による2012年の企画「America's Hard 100」では、タイトル曲「ボールズ・トゥ・ザ・ウォール」が5位にランク・インした。	NO_PRONOUNCE	NO_LABEL
全曲ともウド・ダークシュナイダー、ウルフ・ホフマン、ピーター・バルテス、ステファン・カウフマン、デフィの共作。	NO_PRONOUNCE	NO_LABEL
