IPマルチメディアサブシステムは、Internet Protocolマルチメディアサービスのためのアーキテクチャ的フレームワークである。	あいぴーまるちめでぃあさぶしすてむわ、いんたーねっとぷろとこるまるちめでぃあさーびすのためのあーきてくちゃてきふれーむわーくである。	NO_LABEL
当初、携帯電話の標準化プロジェクト3GPPがGSMの次のモバイルネットワークのビジョンの一部として設計したものである。	とーしょ、けいたいでんわのひょーじゅんかぷろじぇくとすりーじーぴーぴーがじーえすえむのつぎのもばいるねっとわーくのびじょんのいちぶとしてせっけいしたものである。	NO_LABEL
当初はGPRS上での「インターネットサービス」の提供方法を表すものだった。	NO_PRONOUNCE	NO_LABEL
このビジョンを後にGPRS以外の無線LANやCDMA2000や有線といったネットワークをサポートするよう3GPP、3GPP2、TISPANが改訂した。	NO_PRONOUNCE	NO_LABEL
Release8から3GPP2の仕様をAnnexに登録し相互に包含するようになった。	NO_PRONOUNCE	NO_LABEL
インターネットとの連携を容易にするため、IMSは可能な限りIETFのプロトコルを採用している。	NO_PRONOUNCE	NO_LABEL
3GPPによれば、IMSはアプリケーションの標準化を意図したものではなく、無線または有線の端末からマルチメディアアプリケーションにアクセスする手段を与えることで Fixed Mobile Convergenceの一形態を意図している。	NO_PRONOUNCE	NO_LABEL
このため水平な制御層を用意し、アクセスネットワークをサービス層から分離する。	このためすいへいなせいぎょそーをよーいし、あくせすねっとわーくをさーびすそーからぶんりする。	NO_LABEL
論理アーキテクチャの観点からすると、制御層が共通の水平な層として存在するため、サービス毎に独自の制御機能を持つ必要がない。	ろんりあーきてくちゃのかんてんからすると、せいぎょそーがきょーつーのすいへいなそーとしてそんざいするため、さーびすごとにどくじのせいぎょきのーをもつひつよーがない。	NO_LABEL
しかし実装においては、それが必ずしもコストと複雑性の低減に結びついていない。	しかしじっそーにおいてわ、それがかならずしもこすととふくざつせいのていげんにむすびついていない。	NO_LABEL
無線および有線のネットワーク間でサービスを配備してアクセスさせる類似技術として謳われているFixed Mobile Convergenceのコアのアーキテクチャであり、ソフトスイッチ、SIPを組み合わせたものである。	NO_PRONOUNCE	NO_LABEL
安価な技術の寄せ集めにより特定サービスをくみ上げることはできるが、相互接続性に問題が生じやすい。	あんかなぎじゅつのよせあつめによりとくていさーびすをくみあげることわできるが、そーごせつぞくせいにもんだいがしょーじやすい。	NO_LABEL
IMSは統合型サービスであるがゆえに相互接続の為のパラメータが少ないとして問題解決の一つとして評価されている。	NO_PRONOUNCE	NO_LABEL
従来の無線/有線の運用業者の制御外でコンテンツに容易にアクセスできる機構が増えており、IMSは岐路に立たされている。	NO_PRONOUNCE	NO_LABEL
しかし、標準化の世界ではIMSありきで他の技術も標準化がすすめられており、IdM, IPTV等の新世代接続基盤技術として期待されている。	NO_PRONOUNCE	NO_LABEL
IMSは1999年に設立された 3G.IP という業界団体が最初に定義した。	NO_PRONOUNCE	NO_LABEL
3G.IPが定義したIMSアーキテクチャは3GPPで採用され、3G携帯電話システムの標準規格の一部となった。	NO_PRONOUNCE	NO_LABEL
SIPベースのマルチメディア機能が追加された Release 5 で最初に採用された。	NO_PRONOUNCE	NO_LABEL
従来のGSMおよびGPRSネットワークもサポートされている。	じゅーらいのじーえすえむおよびじーぴーあーるえすねっとわーくもさぽーとされている。	NO_LABEL
3GPP2はCDMA2000の Multimedia Domainを 3GPP IMS ベースとした。	NO_PRONOUNCE	NO_LABEL
3GPP Release 6 は無線LANとの連携を追加した。	NO_PRONOUNCE	NO_LABEL
Release 7 は固定電話網との連携を追加した。	NO_PRONOUNCE	NO_LABEL
これには TISPAN R1.1 の AGCFと PESが導入され、公衆交換電話網のサービスを継承できるようにしている。	NO_PRONOUNCE	NO_LABEL
Release 8では Common IMSとして 3GPP2の技術等を包含するようになり、LTE技術と合わせて次世代無線網として期待されている。	NO_PRONOUNCE	NO_LABEL
Release9,Release 10は 2011年に公開され、Release 11、Release 12、Release13と審議が続いている。	NO_PRONOUNCE	NO_LABEL
Rel-8以降がLTE、Rel-10以降がLTE Advancedを包含している。	NO_PRONOUNCE	NO_LABEL
現在では、ETSIによりTS123.228およびTS124.229, ITU-Tにおいて Y.2001, Y.2011, TTCにおいて JT-Y2001, JT2011として採用されている。	NO_PRONOUNCE	NO_LABEL
3GPP 各リリースと ITU-T の連携については、Q.1741.を参照のこと。	NO_PRONOUNCE	NO_LABEL
この図の各部分の機能は以下に解説する。	このずのかくぶぶんのきのーわいかにかいせつする。	NO_LABEL
IPマルチメディア・コアネットワーク・サブシステムは様々な機能の集合体であり、それらを標準化されたインタフェースでリンクし、全体として1つのIMS管理ネットワークを形成する。	NO_PRONOUNCE	NO_LABEL
機能は必ずしも1つの装置に対応しない。	きのーわかならずしもひとつのそーちにたいおーしない。	NO_LABEL
2つの機能を1つのノードで実現してもよいし、1つの機能を2つ以上のノードに分散してもよい。	ふたつのきのーをひとつののーどでじつげんしてもよいし、ひとつのきのーをふたついじょーののーどにぶんさんしてもよい。	NO_LABEL
規模拡大、負荷分散、組織的問題などのため、各ノードは1つのネットワークに複数存在してもよい。	きぼかくだい、ふかぶんさん、そしきてきもんだいなどのため、かくのーどわひとつのねっとわーくにふくすーそんざいしてもよい。	NO_LABEL
詳しい最新の情報は 3GPPTS23.228 Figure 4が常に更新されているのでこれを参照されたい。	NO_PRONOUNCE	NO_LABEL
ユーザーは様々な手段でIMSネットワークに接続でき、その多くは標準の Internet Protocolを使う。	NO_PRONOUNCE	NO_LABEL
IMS端末は、直接IMSネットワークに登録でき、別のIMSネットワークや国であってもローミングによって登録できる。	NO_PRONOUNCE	NO_LABEL
その場合に必要なことは、IPを使い Session Initiation Protocolユーザーエージェントを動作させることだけである。	NO_PRONOUNCE	NO_LABEL
有線アクセス、モバイルアクセス、無線アクセスが全てサポートされている。	ゆーせんあくせす、もばいるあくせす、むせんあくせすがすべてさぽーとされている。	NO_LABEL
POTSなどの電話システム、H.323やIMS非互換なVoIPシステムはゲートウェイ経由でサポートされている。	NO_PRONOUNCE	NO_LABEL
Release 8 以降、2Gまたは3Gの交換回線網も、ICSをサポートしていればIMSへのアクセスネットワークとして使える。	NO_PRONOUNCE	NO_LABEL
「ホーム加入者サーバ; "Home Subscriber Server"」または "User Profile Server Function"は、呼を実際に扱うIMSネットワーク実体をサポートするデータベースである。	NO_PRONOUNCE	NO_LABEL
そのデータベースには加入者関連情報が格納されており、ユーザーの認証と認可を実施し、加入者の位置情報やIP情報を提供できる。	そのでーたべーすにわかにゅーしゃかんれんじょーほーがかくのーされており、ゆーざーのにんしょーとにんかをじっしし、かにゅーしゃのいちじょうほーやあいぴーじょーほーをていきょーできる。	NO_LABEL
これはGSMのおよびに似ている。	これわじーえすえむのおよびににている。	NO_LABEL
""は、複数のHSSを使う際にユーザーアドレスをマッピングするために使われる。	NO_PRONOUNCE	NO_LABEL
HSSとSLFはDIAMETERプロトコルで通信する。	NO_PRONOUNCE	NO_LABEL
DIAMETERはAAA操作を実施するためのプロトコルであり、通常と比べて、UAR/UAA, SAR/SAA, LIR/LIA, MAR/MAA, RTR/RTA, PPA/PPR, AV-Req/AV-Req-Resに変更がある。	NO_PRONOUNCE	NO_LABEL
通常の3GPPネットワークは以下のような識別子を使う。	つーじょーのすりーじーぴーぴーねっとわーくわいかのよーなしきべつしをつかう。	NO_LABEL
IMSIはSIMカードに格納されている電話ごとの識別子である。	NO_PRONOUNCE	NO_LABEL
プライバシー強化のため、地理的位置ごとにTMSIが生成される。	NO_PRONOUNCE	NO_LABEL
IMSI/TMSIはユーザーの識別に使われ、IMEIは電話機の識別に使われる。	NO_PRONOUNCE	NO_LABEL
MSISDNはユーザーの電話番号である。	NO_PRONOUNCE	NO_LABEL
IMSではさらに IP Multimedia Private Identityと IP Multimedia Public Identityも必要となる。	NO_PRONOUNCE	NO_LABEL
これらは電話番号や何らかの数値ではなく Uniform Resource Identifierであり、数字列の場合も文字列の場合もある。	NO_PRONOUNCE	NO_LABEL
1つのIMPIに複数のIMPUが対応することがある。	NO_PRONOUNCE	NO_LABEL
IMPUを複数の電話で共有することもでき、複数の電話が同じアイデンティティに到達できる。	NO_PRONOUNCE	NO_LABEL
HSSのデータベースには、IMPU、IMPI、IMSI、MSISDN、加入者のサービスプロフィール、サービストリガー、その他の情報が格納されている。	NO_PRONOUNCE	NO_LABEL
また、AVPとしては、Visited-Network-Identifier, Destination-Host, Destination-Realm, Server-Name, Server-Capabilities, Wildcarded-Public-Identity, UAR-Flags, Supported-Features, User-Data-Already-Available, SCSCF-Restoration-Info, Multiple-Registration-Infication, Session-Priority, Experimental-Result等がある。	NO_PRONOUNCE	NO_LABEL
また、鍵交換で必要な、Confidentiality-Key, Integrity-Key 等が用意されている。	NO_PRONOUNCE	NO_LABEL
この他にユーザが現在どこのネットワークに居るかを管理する SLF, E-CSCFの為に場所情報を提供する LRFがある。	NO_PRONOUNCE	NO_LABEL
Session Initiation Protocolサーバやプロキシのいくつかの役割をまとめて "Call Session Control Function"と呼び、IMSでのSIP信号パケットを処理するのに使う。	NO_PRONOUNCE	NO_LABEL
「アプリケーションサーバ; "Application server"」はサービス群をホスティングし実行する。	NO_PRONOUNCE	NO_LABEL
Sh, ISCインターフェースを持つ。	NO_PRONOUNCE	NO_LABEL
S-CSCFとのインタフェースには Session Initiation Protocolを使う。	NO_PRONOUNCE	NO_LABEL
3GPPが開発したアプリケーションサーバの一例として Voice Call Continuity Functionがある。	NO_PRONOUNCE	NO_LABEL
サービスによってはSIPプロキシモード、SIP UAモード、SIP B2BUAインタフェースでHSSに問い合わせる。	さーびすによってわえすあいぴーぷろきしもーど、えすあいぴーうーあもーど、えすあいぴーびーつーびーうーあいんたふぇーすでえいちえすえすにといあわせる。	NO_LABEL
"Media Resource Function"はメディア操作やトーンやアナウンスなどの再生といったメディア関連機能を提供する。	NO_PRONOUNCE	NO_LABEL
各MRFはさらに "Media Resource Function Controller"と "Media Resource Function Processor"に分割される。	NO_PRONOUNCE	NO_LABEL
"Breakout Gateway Control Function"は、電話番号に基づくルーティング機能を持つ。	NO_PRONOUNCE	NO_LABEL
IMS側から公衆交換電話網や公衆移動体網などの回線交換網の電話に発呼する場合のみ使われる。	NO_PRONOUNCE	NO_LABEL
外部 IMSと接続する場合は、 TrGW, IBCF経由で　Iziインターフェース、Iciインターフェース経由で接続する。	NO_PRONOUNCE	NO_LABEL
PSTN/CSゲートウェイは、PSTN回線交換網とのインタフェース機能を有する。	NO_PRONOUNCE	NO_LABEL
シグナリングに関して、回線交換網ではSS7の下位レイヤにMTPを使っているが、IMSではRTP を使う。	NO_PRONOUNCE	NO_LABEL
メディアリソースとは、メディアプレーンにおいて運用され、IMSコア機能の制御下にあるコンポーネント。	NO_PRONOUNCE	NO_LABEL
すなわち、 ""と ""を指す。	NO_PRONOUNCE	NO_LABEL
Next Generation Network 相互接続には以下の4種類がある。	NO_PRONOUNCE	NO_LABEL
NGN相互接続モードは直接と間接がある。	えぬじーえぬそーごせつぞくもーどわちょくせつとかんせつがある。	NO_LABEL
直接相互接続は、2つのネットワークドメインの間に中間のネットワークドメインがない場合を指す。	ちょくせつそーごせつぞくわ、ふたつのねっとわーくどめいんのまにちゅーかんのねっとわーくどめいんがないばあいをさす。	NO_LABEL
間接相互接続は、1つの層で見たとき、2つのネットワークドメインの間に中間のドメインが1つ以上存在し、トラフィックがそこを経由する場合を指す。	かんせつそーごせつぞくわ、ひとつのそーでみたとき、ふたつのねっとわーくどめいんのまにちゅーかんのどめいんがひとついじょーそんざいし、とらふぃっくがそこをけいゆするばあいをさす。	NO_LABEL
オフライン課金は、ユーザーが定期的に支払いをする場合である。	おふらいんかきんわ、ゆーざーがていきてきにしはらいをするばあいである。	NO_LABEL
オンライン課金はプリペイドサービスやリアルタイムのクレジット制御によるポストペイドサービスで使われる。	おんらいんかきんわぷりぺいどさーびすやりあるたいむのくれじっとせいぎょによるぽすとぺいどさーびすでつかわれる。	NO_LABEL
同一セッションで両方が適用されることもある。	どーいちせっしょんでりょーほーがてきよーされることもある。	NO_LABEL
TS 43.020で定義されたようなセキュリティアルゴリズムを "Early GSM algorithms" という。	NO_PRONOUNCE	NO_LABEL
TS 33.203 および TS33.102 で定義されたセキュリティは、USIM/ISIMインタフェースの欠如とIPv4が優勢な状況ではしばらく実現できないだろうと予想されていた。	NO_PRONOUNCE	NO_LABEL
このような状況で重大な脅威に対する保護を提供するため、3GPPは一種のセキュリティ機構を TR33.978 で定義したものをこれを非公式に "early IMS security" と呼ぶ。	NO_PRONOUNCE	NO_LABEL
Release 8 以降ではSIMを利用するTS33.203およびTS33.102のタイプのものは3GPPに記載されている。	NO_PRONOUNCE	NO_LABEL
SIMを使わないタイプとしてソフトフォン等利用できる共有秘密鍵タイプの通信セキュリティの確保も標準化されている。	えすあいえむをつかわないたいぷとしてそふとふぉんとーりよーできるきょーゆーひみつかぎたいぷのつーしんせきゅりてぃのかくほもひょーじゅんかされている。	NO_LABEL
UEとP-CSCFの間のセキュリティについてと、NNI間の通信についてZa,Zcインターフェース等で暗号化が必須とされている。	NO_PRONOUNCE	NO_LABEL
