上の原グラウンドは、東京都町田市の野津田公園内にある多目的球技場。	うえのはらぐらうんどわ、とーきょーとまちだしののずたこーえんないにあるたもくてききゅーぎじょー。	NO_LABEL
指定管理者制度に基づき、スポーツパークパートナーズまちだが管理運営を行っている。	していかんりしゃせいどにもとずき、すぽーつぱーくぱーとなーずまちだがかんりうんえいをおこなっている。	NO_LABEL
2005年4月オープン。	にせんごねんしがつおーぷん。	NO_LABEL
上の原グラウンドはサッカー用として設計されているが、少年野球に限り、野球場としても使用されている。	うえのはらぐらうんどわさっかーよーとしてせっけいされているが、しょーねんやきゅーにかぎり、やきゅーじょーとしてもしよーされている。	NO_LABEL
この他、ソフトボール、ラクロス、ターゲットバードゴルフ場としても利用可能である。	このほか、そふとぼーる、らくろす、たーげっとばーどごるふじょーとしてもりよーかのーである。	NO_LABEL
野津田公園内には、FC町田ゼルビアのホームスタジアムである町田市立陸上競技場などがある。	のずたこーえんないにわ、えふしーまちだぜるびあのほーむすたじあむであるまちだしりつりくじょーきょーぎじょーなどがある。	NO_LABEL
フィールドはクレー。	ふぃーるどわくれー。	NO_LABEL
スタンドはメインスタンドのみで、サッカーは見やすいが、野球観戦時の快適性は考えられていない。	すたんどわめいんすたんどのみで、さっかーわみやすいが、やきゅーかんせんじのかいてきせいわかんがえられていない。	NO_LABEL
また、クラブハウスが付属している。	また、くらぶはうすがふぞくしている。	NO_LABEL
