一柳 みるは、日本の女優、声優。	いちりゅーみるわ、にっぽんのじょゆー、せいゆー。	NO_LABEL
和歌山県出身、血液型はAB型。	わかやまけんしゅっしん、けつえきがたわえーびーがた。	NO_LABEL
劇団昴所属。	げきだんすばるしょぞく。	NO_LABEL
玉川大学文学部芸術学科演劇専攻卒。	たまがわだいがくぶんがくぶげいじゅつがっかえんげきせんこーそつ。	NO_LABEL
1979年に劇団昴に入団し、翌年にデビュー。	せんきゅうひゃくななじゅうきゅうねんにげきだんすばるににゅーだんし、よくねんにでびゅー。	NO_LABEL
以後、劇団昴の看板女優として、シェイクスピア劇を中心に活躍。	いご、げきだんすばるのかんばんじょゆーとして、しぇいくすぴあげきをちゅーしんにかつやく。	NO_LABEL
舞台以外ではテレビドラマや吹き替えなどに客演。	ぶたいいがいでわてれびどらまやふきかえなどにきゃくえん。	NO_LABEL
近年では東海テレビの製作する昼ドラマの常連として作品に彩を加えている。	きんねんでわとーかいてれびのせいさくするひるどらまのじょーれんとしてさくひんにいろどりをくわえている。	NO_LABEL
