ロマン・セルゲーエヴィチ・コストマロフは、ロシア出身の男性フィギュアスケート選手。	NO_PRONOUNCE	NO_LABEL
2006年トリノオリンピックアイスダンス金メダリスト。	にせんろくねんとりのおりんぴっくあいすだんすきんめだりすと。	NO_LABEL
2004年、2005年世界フィギュアスケート選手権アイスダンスチャンピオン。	にせんよねん、にせんごねんせかいふぃぎゅあすけーとせんしゅあいすだんすちゃんぴおん。	NO_LABEL
パートナーはタチアナ・ナフカなど。	ぱーとなーわたちあななふかなど。	NO_LABEL
ロシア語では「ラマーン・スィルギェーイェヴィチュ・カスタマーラフ」が近い。	NO_PRONOUNCE	NO_LABEL
