株式会社エーライツは、東京都渋谷区に本社を置く日本の芸能プロダクション。	かぶしきがいしゃえーらいつわ、とーきょーとしぶやくにほんしゃをおくにっぽんのげいのーぷろだくしょん。	NO_LABEL
株式会社エーチームのグループ会社であり、主にエーチームグループの新人タレントが所属している。	かぶしきがいしゃえーちーむのぐるーぷかいしゃであり、おもにえーちーむぐるーぷのしんじんたれんとがしょぞくしている。	NO_LABEL
また、株式会社エープラス、芸能スクールの株式会社エーチームアカデミーも同グループの会社である。	また、かぶしきがいしゃえーぷらす、げいのーすくーるのかぶしきがいしゃえーちーむあかでみーもどーぐるーぷのかいしゃである。	NO_LABEL
エーチームアカデミーに通っている生徒が所属している。	えーちーむあかでみーにかよっているせいとがしょぞくしている。	NO_LABEL
東京本社の他、大阪府大阪市中央区西心斎橋に大阪オフィスを、福岡県福岡市中央区警固に福岡オフィスを設けている。	とーきょーほんしゃのほか、おーさかふおーさかしちゅーおーくにししんさいばしにおーさかおふぃすを、ふくおかけんふくおかしちゅーおーくけごにふくおかおふぃすをもーけている。	NO_LABEL
2017年10月閲覧時点	にせんじゅうななねんじゅーがつえつらんじてん	NO_LABEL
