コブラクラッチは、プロレス技の一種である。	こぶらくらっちわ、ぷろれすわざのいちしゅである。	NO_LABEL
日本名は毒蛇絞め。	にほんめいわどくへびしめ。	NO_LABEL
相手の背後に自身の体を回り込ませて左手で掴んだ相手の左腕を相手の顎の下に持っていって、相手の右首筋に自身の右腕を巻きつけて相手の左手首を右手で掴み直して自由になった左手を相手の首と左腕の間にある隙間に下から差し込み、左手で自身の右手首を掴み、相手の体を左右に揺すって首に絡みつかせた腕で相手の頚部を圧迫する。	あいてのはいごにじしんのからだをまわりこませてひだりてでつかんだあいてのさわんをあいてのあごのしたにもっていって、あいてのみぎくびすじにじしんのうわんをまきつけてあいてのひだりてくびをみぎてでつかみなおしてじゆーになったひだりてをあいてのくびとさわんのまにあるすきまにしたからさしこみ、ひだりてでじしんのみぎてくびをつかみ、あいてのからだをさゆーにゆすってくびにからみつかせたうでであいてのけいぶをあっぱくする。	NO_LABEL
古くからヒールのレスラーがフィニッシュ・ホールドとして使用しているが、現在はベビーフェイスのレスラーも派生技を中心にフィニッシュ・ホールドとして使用している。	ふるくからひーるのれすらーがふぃにっしゅほーるどとしてしよーしているが、げんざいわべびーふぇいすのれすらーもはせいわざをちゅーしんにふぃにっしゅほーるどとしてしよーしている。	NO_LABEL
