電卓付き腕時計は、電卓を内蔵したディジタルブレスレットである。	でんたくつきうでどけいわ、でんたくをないぞーしたでぃじたるぶれすれっとである。	NO_LABEL
普通は時計がある面にボタンがとりつけられている。	ふつーわとけいがあるめんにぼたんがとりつけられている。	NO_LABEL
1970年代に初めて登場し1980年代に人気のピークを迎え、現在でも作られている。	せんきゅうひゃくななじゅうねんだいにはじめてとーじょーしせんきゅうひゃくはちじゅうねんだいににんきのぴーくをむかえ、げんざいでもつくられている。	NO_LABEL
最も有名なブランドはカシオ・データバンクのシリーズであるが、タイメックスのものも人気があった。	もっともゆーめいなぶらんどわかしおでーたばんくのしりーずであるが、たいめっくすのものもにんきがあった。	NO_LABEL
電卓付き腕時計は、1970年半ばに初めてパルサーとヒューレット・パッカードのものが登場した。	でんたくつきうでどけいわ、せんきゅうひゃくななじゅうねんなかばにはじめてぱるさーとひゅーれっとぱっかーどのものがとーじょーした。	NO_LABEL
パルサーやタイメックスなど、いくつかの時計メーカーも製造してきたが、日本のエレクトロニクス会社のカシオが最も多くのモデルを製造してきた。	ぱるさーやたいめっくすなど、いくつかのとけいめーかーもせいぞーしてきたが、にっぽんのえれくとろにくすかいしゃのかしおがもっともおーくのもでるをせいぞーしてきた。	NO_LABEL
1980年代半ば、カシオは電卓機能だけでなく、予定、名前、住所、電話番号も保存することができるデータバンクを製作した。	せんきゅうひゃくはちじゅうねんだいなかば、かしおわでんたくきのーだけでなく、よてい、なまえ、じゅーしょ、でんわばんごーもほぞんすることができるでーたばんくをせいさくした。	NO_LABEL
大量生産の電卓付き腕時計は1980年代初頭に登場し、ほとんどが80年代半ばに生産された。	たいりょーせいさんのでんたくつきうでどけいわせんきゅうひゃくはちじゅうねんだいしょとーにとーじょーし、ほとんどがはちじゅうねんだいなかばにせいさんされた。	NO_LABEL
実用的で便利な電子デバイスとしての電卓付き腕時計の将来は、PDA、携帯電話やその他の有力な多機能コンパクトコンピュータデバイスの導入に影響を受けている。	じつよーてきでべんりなでんしでばいすとしてのでんたくつきうでどけいのしょーらいわ、ぴーでぃーえー、けいたいでんわやそのたのゆーりょくなたきのーこんぱくとこんぴゅーたでばいすのどーにゅーにえいきょーをうけている。	NO_LABEL
その結果、多くの電卓付き腕時計は見た目を良さを目的に使われている。	そのけっか、おーくのでんたくつきうでどけいわみためをよさをもくてきにつかわれている。	NO_LABEL
