ラケル・ジマーマンは、ブラジルのファッションモデル。	らけるじまーまんわ、ぶらじるのふぁっしょんもでる。	NO_LABEL
14歳の時にポルト・アレグレでスカウトされ、日本とパリで活動。	じゅうよんさいのときにぽるとあれぐれですかうとされ、にっぽんとぱりでかつどー。	NO_LABEL
スティーヴン・マイゼル撮影のイタリア版『ヴォーグ誌』2000年9月号の表紙で注目を集めた。	NO_PRONOUNCE	NO_LABEL
その後、本格的な活動が始まった。	そのご、ほんかくてきなかつどーがはじまった。	NO_LABEL
彼女の学校の友人は彼女がモデル活動を続ける様に説得した。	かのじょのがっこーのゆーじんわかのじょがもでるかつどーをつずけるよーにせっとくした。	NO_LABEL
ジマーマンはモデル活動後の人生設計について、創造的な何かをしたいと語っている。	じまーまんわもでるかつどーごのじんせいせっけいについて、そーぞーてきななにかをしたいとかたっている。	NO_LABEL
シャネル、プラダ、バレンシアガ、エルメス、グッチ、ディオール、クロエ、マックスマーラ、ヴェルサーチ、ルイ・ヴィトン、フェンディ、ジョルジオ・アルマーニ、ドルチェ&ガッバーナ、エスカーダ、H&M、ヴァレンティノ・ガラヴァーニのキャンペーンモデルをつとめた。	NO_PRONOUNCE	NO_LABEL
2002年、2005年、2006年とヴィクトリアズ・シークレットのショーに出演。	NO_PRONOUNCE	NO_LABEL
ジマーマンはこれまでに、ブラジル・アメリカ・イタリア・フランス・日本・中国・ギリシャ・ドイツ・ロシア版のそれぞれの『ヴォーグ』、『ハーパーズ バザー』『ELLE』『ヌメロ』『ロフィシェル』『Marie claire』『i-D』『V』『フランス』などの表紙を飾っている。	NO_PRONOUNCE	NO_LABEL
2007年5月、アメリカ版『ヴォーグ』の記事で「新しいスーパーモデル」として、ドウツェン・クロース、キャロライン・トレンティーニ、ヒラリー・ローダ、サーシャ・ピヴォヴァロヴァ、アギネス・ディーン、ココ・ロシャ、ジェシカ・スタム、シャネル・イマン、リリー・ドナルドソンと並び紹介された。	NO_PRONOUNCE	NO_LABEL
フランス版『ヴォーグ』が発表した「2000年代のトップモデル30」に選出された。	NO_PRONOUNCE	NO_LABEL
2011年、レディー・ガガのシングル「ボーン・ディス・ウェイ」のミュージック・ビデオに助産師役で出演。	NO_PRONOUNCE	NO_LABEL
カメラマンのルイ・サンチェス・ブランコと結婚し、現在ニューヨークで暮らしている。	NO_PRONOUNCE	NO_LABEL
