ヒドロペルオキシルラジカル、またはペルヒドロキシルラジカル () は、化学式が HO で表される、形式的にスーパーオキシドアニオンがプロトン化されたラジカルである。	ひどろぺるおきしるらじかる、またわぺるひどろきしるらじかるかっこわ、かがくしきがふっかーであらわされる、けいしきてきにすーぱーおきしどあにおんがぷろとんかされたらじかるである。	NO_LABEL
ヒドロペルオキシルラジカルは、スーパーオキシドアニオン Oにプロトンが付加して生成する。	NO_PRONOUNCE	NO_LABEL
スーパーオキシドアニオン <ce>O2^-</ce> とヒドロペルオキシルラジカルは、水溶液中で平衡状態にある。	NO_PRONOUNCE	NO_LABEL
このは4.88を示す。	NO_PRONOUNCE	NO_LABEL
したがって、代表的な細胞の細胞質基質内のスーパーオキシドアニオンの約0.3%は、プロトン化された状態で存在する。	したがって、だいひょーてきなさいぼーのさいぼーしつきしつないのすーぱーおきしどあにおんのやくれいてんさんぱーせんとわ、ぷろとんかされたじょーたいでそんざいする。	NO_LABEL
主に還元剤の働きをする <ce>O2^-</ce> と違い は、ビタミンEや脂質二重層中の多価不飽和脂肪酸からの水素原子の脱離など、いくつかの生物学的に重要な反応において酸化剤の働きをすることができる。	NO_PRONOUNCE	NO_LABEL
また、これは脂質過酸化反応の重要なイニシエーターでもある。	また、これわししつかさんかはんのーのじゅーよーないにしえーたーでもある。	NO_LABEL
誘電率はに強い影響を与えるため、とても低い誘電率の空気中では、光化学的に生成される <ce>O2^-</ce> はほとんど として存在する。	NO_PRONOUNCE	NO_LABEL
非常に強い反応性をもつ は、特定の有機汚染物質を分解させることによる「空気の洗剤」の働きをする。	NO_PRONOUNCE	NO_LABEL
 の化学は地球化学にとって重要である。	のかがくわちきゅーかがくにとってじゅーよーである。	NO_LABEL
ヒドロペルオキシルラジカルは対流圏において炭化水素の酸化によってつくられ、成層圏でのオゾン層破壊の一因となっている。	ひどろぺるおきしるらじかるわたいりゅーけんにおいてたんかすいそのさんかによってつくられ、せいそーけんでのおぞんそーはかいのいちいんとなっている。	NO_LABEL
