デ・ロイテルは、小惑星帯の小惑星。	NO_PRONOUNCE	NO_LABEL
パロマー天文台のトム・ゲーレルスとライデン天文台のファン・ハウテン夫妻が発見した。	NO_PRONOUNCE	NO_LABEL
17世紀の英蘭戦争で海軍提督として活躍したオランダの海軍提督、ミヒール・デ・ロイテルから命名された。	じゅうしちせいきのえいらんせんそーでかいぐんていとくとしてかつやくしたおらんだのかいぐんていとく、みひーるでろいてるからめいめいされた。	NO_LABEL
