『クイーンズブレイド グリムワール』とは、『クイーンズブレイド リベリオン』の続編、『クイーンズブレイド』シリーズ第3作目に当たる。	NO_PRONOUNCE	NO_LABEL
クイーンズブレイド グリムワールは、『ロストワールド』シリーズのバリエーションとなるゲームブック。	NO_PRONOUNCE	NO_LABEL
ゲームブックとしての構成・装丁は前作クイーンズブレイド リベリオンと同様。	NO_PRONOUNCE	NO_LABEL
今までのシリーズとは違い別の世界メルフェアランドでクイーンズブレイドは行われており、世界観、キャラクターは御伽噺や日本昔話をモチーフとしている。	いままでのしりーずとわちがいべつのせかいめるふぇあらんどでくいーんずぶれいどわおこなわれており、せかいかん、きゃらくたーわおとぎはなしやにっぽんむかしばなしをもちーふとしている。	NO_LABEL
前作、前々作のキャラと違い、一人のキャラに一つ何かしら特殊能力を有している。	ぜんさく、まえまえさくのきゃらとちがい、ひとりのきゃらにひとつなにかしらとくしゅのーりょくをゆーしている。	NO_LABEL
またキャラクターの関係図は付いていない。	またきゃらくたーのかんけいずわついていない。	NO_LABEL
レイナやアンネロッテ達が元いた世界とは別の世界。	れいなやあんねろってたちがもといたせかいとわべつのせかい。	NO_LABEL
そこは永遠の夏を迎えている、メルフェアランドと呼ばれていた。	そこわえいえんのなつをむかえている、めるふぇあらんどとよばれていた。	NO_LABEL
しかし、突如として現れた「冬の魔王」が平和を脅かし始める。	NO_PRONOUNCE	NO_LABEL
メルフェアランドを統治する「裸の女王様」は、魔王を阻止する為闘技会「クイーンズブレイド」を開催。	NO_PRONOUNCE	NO_LABEL
そして、ある者は元にいた世界に帰るため、ある者は宿敵を打倒するため、ある者は魔王を倒す剣「クイーンズブレイド」を入手するため、各々がそれぞれの目的を果たすため集まるのだった。	NO_PRONOUNCE	NO_LABEL
以下五十音順	いかごじゅーおんじゅん	NO_LABEL
