阿達羅尼師今は、新羅の第8代の王であり、先代の逸聖尼師今の長男。	あだつらにしきんわ、しらぎのだいはちだいのおーであり、せんだいのいつせいにしきんのちょーなん。	NO_LABEL
姓は朴。	せいわほー。	NO_LABEL
母は朴氏の支所礼王の娘の阿礼夫人、王妃は第6代の娘の内礼夫人。	ははわぼくしのししょれいおーのむすめのあれいふじん、おーひわだいろくだいのむすめのうちれいふじん。	NO_LABEL
154年2月に先王が死去し、王位に就いた。	ひゃくごじゅうよんねんにがつにせんおーがしきょし、おーいについた。	NO_LABEL
北方の靺鞨に備えるために、新羅と百済とは緩やかな同盟の態勢を保っていたが、阿達羅尼師今の時代から、交戦状態に入ることとなった。	NO_PRONOUNCE	NO_LABEL
165年10月に阿飡の吉宣が謀反を起こそうとして発覚し、誅滅を恐れて百済に亡命した。	NO_PRONOUNCE	NO_LABEL
阿達羅尼師今は百済に吉宣の身柄返還を求めたが、百済の蓋婁王がこれをかくまったため、百済への侵攻を開始した。	NO_PRONOUNCE	NO_LABEL
このときは百済軍が籠城してよく守ったため新羅軍は食料が尽きて撤退したが、167年7月には百済が新羅の西部辺境2城を奪って住民1千人を捕虜とすると、同年8月には一吉飡の興宣に兵2万を率いて百済を討たせるとともに、阿達羅尼師今自身も8千の騎兵を率いて漢水まで出撃した。	NO_PRONOUNCE	NO_LABEL
百済はこれを恐れ、先に捕虜とした住民を返還し和睦を求めた。	くだらわこれをおそれ、さきにほりょとしたじゅーみんをへんかんしわぼくをもとめた。	NO_LABEL
しかし170年10月には百済は再び新羅の国境付近に侵攻した。	しかしひゃくななじゅうねんじゅーがつにわくだらわふたたびしらぎのこっきょーふきんにしんこーした。	NO_LABEL
この後暫く直接の交戦記事は見られなくなるが、次王の188年以降、頻繁に交戦記事が見られるようになる。	こののちしばらくちょくせつのこーせんきじわみられなくなるが、つぎおーのひゃくはちじゅうはちねんいこー、ひんぱんにこーせんきじがみられるよーになる。	NO_LABEL
173年5月、倭の女王卑彌呼が使者を送ってきたとする。	NO_PRONOUNCE	NO_LABEL
しかしこれは、『三国志』東夷伝倭人条の景初2年記事からの造作であり、かつ干支を一運遡らせたもの、と考えられている。	NO_PRONOUNCE	NO_LABEL
184年3月に在位31年にして死去した。	ひゃくはちじゅうよねんさんがつにざいいさんじゅういちねんにしてしきょした。	NO_LABEL
埋葬地については記述がない。	まいそーちについてわきじゅつがない。	NO_LABEL
『三国史記』新羅本紀・伐休尼師今紀では阿達羅尼師今に子がいなかったため伐休尼師今が王位についたとするが、遥か後代の第53代神徳王は阿達羅尼師今の遠孫とされている。	NO_PRONOUNCE	NO_LABEL
このことについては神話の造作であったり王統系譜の造作であり、史実として論じるべき問題ではないと井上秀雄は述べている。	このことについてわしんわのぞーさであったりおーとーけいふのぞーさであり、しじつとしてろんじるべきもんだいでわないといのーえひでおわのべている。	NO_LABEL
