ナーヴェ・サン・ロッコ。	NO_PRONOUNCE	NO_LABEL
トレント自治県北部に位置するコムーネ。	とれんとじちけんほくぶにいちするこむーね。	NO_LABEL
県都トレントから北へ10km、州都ボルツァーノから南南西へ41kmの距離にある。	けんととれんとからきたえじゅうきろめーとる、しゅーとぼるつぁーのからなんなんせいえよんじゅういちきろめーとるのきょりにある。	NO_LABEL
隣接するコムーネは以下の通り。	りんせつするこむーねわいかのとーり。	NO_LABEL
トレント自治県が設置した広域行政組織 「ロタリアーナ＝ケーニヒスベルク」に属する。	NO_PRONOUNCE	NO_LABEL
