グローランサーシリーズは、アトラスより発売されている、コンピュータRPGのシリーズ作品。	ぐろーらんさーしりーずわ、あとらすよりはつばいされている、こんぴゅーたあーるぴーじーのしりーずさくひん。	NO_LABEL
略称としては「GL」と表記されることが多い。	NO_PRONOUNCE	NO_LABEL
その他「グロラン」などと呼ばれることもある。	NO_PRONOUNCE	NO_LABEL
ナンバリングタイトルのジャンルは全て「ノンストップドラマチックRPG」で、第1作以外にはサブタイトルが存在する。	NO_PRONOUNCE	NO_LABEL
「グローランサー」とは「光の救世主」の意味を持ち、各作品の主人公を指す言葉である。	NO_PRONOUNCE	NO_LABEL
『II』のみRPGというよりはシミュレーションRPGに近いシステムになっていて、他の作品とゲーム性やシナリオの描き方がやや異なる。	NO_PRONOUNCE	NO_LABEL
『II』以外の各作品の違いとしては、『I』と『Ⅳ』はシンボルエンカウントで、『Ⅲ』はフィールドマップ上のみランダムエンカウントという違いがある。	NO_PRONOUNCE	NO_LABEL
画面内の敵を全滅させれば勝利だが、同じマップの画面外に敵がいた場合は戦いの気配を嗅ぎ付けて接近して来る。	がめんないのてきをぜんめつさせればしょーりだが、おなじまっぷのがめんがいにてきがいたばあいわたたかいのけはいをかぎつけてせっきんしてくる。	NO_LABEL
『III』のダンジョンでは別のマップからも敵が乱入する場合がある。	NO_PRONOUNCE	NO_LABEL
そして、『V』と『VI』はシームレス戦闘が採用されており、移動マップと戦闘マップの区別が完全に取り払われた。	NO_PRONOUNCE	NO_LABEL
その為、画面内の敵だけでなく、マップ内の敵を全て倒さなければ戦闘終了とはならない。	そのため、がめんないのてきだけでなく、まっぷないのてきをすべてたおさなければせんとーしゅーりょーとわならない。	NO_LABEL
1999年にシリーズ第1作が発売。	NO_PRONOUNCE	NO_LABEL
2005年には『グローランサーIV Return』がシリーズ初の番外編として発売された。	NO_PRONOUNCE	NO_LABEL
2009年には第1作がPSPでリメイクされ、初めての携帯ゲームでの発売となった。	NO_PRONOUNCE	NO_LABEL
2011年には第4作が大幅な追加要素を加え、新生作としてPSPにリメイクされた。	NO_PRONOUNCE	NO_LABEL
作品の舞台は『I』～『III』までが同一の世界で、時系列では『III』が最も古く次に『I』、『II』と続く。	NO_PRONOUNCE	NO_LABEL
『V』と『VI』も共通した世界である。	NO_PRONOUNCE	NO_LABEL
『IV』のみが完全に独立した世界となっているが、『I』～『III』の世界とも次元を隔てた繋がりがある。	NO_PRONOUNCE	NO_LABEL
キャラクターデザイン・作画監督は全編を通してうるし原智志が担当している。	NO_PRONOUNCE	NO_LABEL
『ノンストップドラマチックRPG』と銘打たれた、独自のゲームシステムが最大の特徴。	NO_PRONOUNCE	NO_LABEL
本シリーズは戦闘もシナリオの一部と位置付けており、イベント戦闘において、NPCの兵士や民間人が戦闘に参加したり、マップに仕掛けられたトラップなどを解除しつつ敵を撃破したり、装置や軍旗などを破壊されないように守りつつ敵を倒したり、敵を見つからないように隠密行動をして目的を遂行する……といった、多彩なギミックが戦闘に盛り込まれており、ただ単純に敵を倒すのとは違い、力押しだけではクリアできない『作戦の立案』がプレイヤーに要求される。	NO_PRONOUNCE	NO_LABEL
多くのイベント戦闘の場合、主人公側に不利な状況から戦闘が始まり、それを如何に覆すかが鍵となる。	おーくのいべんとせんとーのばあい、しゅじんこーがわにふりなじょーきょーからせんとーがはじまり、それをいかがにくつがえすかがかぎとなる。	NO_LABEL
場合によっては敵の増援が現れたり、友軍が助けに来たり、第三勢力を交えた三つ巴の戦いが行われたりと、文字通りシナリオの一部として機能した戦闘が繰り広げられる。	ばあいによってわてきのぞーえんがあらわれたり、ゆーぐんがたすけにきたり、だいさんせいりょくをまじえたみつどもえのたたかいがおこなわれたりと、もじどーりしなりおのいちぶとしてきのーしたせんとーがくりひろげられる。	NO_LABEL
この戦闘システムは、ゲーム性の異なる『II』と、ランダムエンカウント制を採用している『III』を除く全てのナンバリングタイトルにおける、フィールド戦闘においても大きな意味合いを持つ。	NO_PRONOUNCE	NO_LABEL
木や岩場、ダンジョン内の入り組んだ通路など、移動マップの地形がそのまま戦闘にも影響する。	きやいわば、だんじょんないのいりくんだつーろなど、いどーまっぷのちけいがそのまませんとーにもえいきょーする。	NO_LABEL
例えば、通路が入り組んでいる屋内マップでは、弓矢などを使う間接攻撃タイプのキャラクターは敵を射程内に収めるのに時間がかかるので不利。	たとえば、つーろがいりくんでいるおくないまっぷでわ、ゆみやなどをつかうかんせつこーげきたいぷのきゃらくたーわてきをしゃていないにおさめるのにじかんがかかるのでふり。	NO_LABEL
一方、防御力の高い前衛キャラならば、狭い通路に陣取って敵の進路を塞いで『渋滞』を引き起こし、後衛の魔法使いタイプの味方を守る……といった戦い方が出来る。	NO_PRONOUNCE	NO_LABEL
逆に、視界が開けた平原のようなマップであれば、弓矢を使うキャラクターは画面の広範囲を射程内に収める事が出来るし、前衛キャラはいわゆる『渋滞』が発生しない為、自由に敵を狙える。	NO_PRONOUNCE	NO_LABEL
敵も同じ条件の為、魔法使いや間接攻撃キャラは敵の接近を許しがちになり、大ダメージを受ける危険性が上がる。	てきもおなじじょーけんのため、まほーつかいやかんせつこーげききゃらわてきのせっきんをゆるしがちになり、だいだめーじをうけるきけんせいがあがる。	NO_LABEL
また、高低差によるハンディキャップも存在しており、低い位置から高所に立つ敵を間接攻撃で狙う事は出来ないが、高所からは一方的に狙える。	また、こーていさによるはんでぃきゃっぷもそんざいしており、ていーいちからこーしょにたつてきをかんせつこーげきでねらうことわできないが、こーしょからわいっぽーてきにねらえる。	NO_LABEL
こういった地形の把握も、戦闘を上手く運ぶ為に必要である。	こーいったちけいのはあくも、せんとーをうまくはこぶためにひつよーである。	NO_LABEL
他にも、魔法には詠唱時間が、物理攻撃や道具の使用には硬直時間と呼ばれる無防備な隙が存在する。	たにも、まほーにわえいしょーじかんが、ぶつりこーげきやどーぐのしよーにわこーちょくじかんとよばれるむぼーびなひまがそんざいする。	NO_LABEL
また、敵の攻撃を受けても硬直時間が発生する為、如何に効率良く攻めて隙を減らして戦うかが重要になる。	また、てきのこーげきをうけてもこーちょくじかんがはっせいするため、いかがにこーりつよくせめてひまをへらしてたたかうかがじゅーよーになる。	NO_LABEL
また、イベント戦闘が突然起こる可能性がある都合上、エンカウント戦闘では極力MPを節約して戦わないと、イベント戦闘が困難なものになる。	また、いべんとせんとーがとつぜんおこるかのーせいがあるつごーじょー、えんかうんとせんとーでわきょくりょくえむぴーをせつやくしてたたかわないと、いべんとせんとーがこんなんなものになる。	NO_LABEL
『V』と『VI』では戦闘がシームレス化した。	NO_PRONOUNCE	NO_LABEL
その為、フィールド戦闘において、フィールド上の敵モンスターがこちらに気付く前に魔法で不意打ちを加えるなど、新たな戦略を立てることが出来るようになった。	そのため、ふぃーるどせんとーにおいて、ふぃーるどじょーのてきもんすたーがこちらにきずくまえにまほーでふいうちをくわえるなど、あらたなせんりゃくをたてることができるよーになった。	NO_LABEL
但し、前述のようにそのマップに存在する敵を全滅させなければ勝利扱いにはならない。	ただし、ぜんじゅつのよーにそのまっぷにそんざいするてきをぜんめつさせなければしょーりあつかいにわならない。	NO_LABEL
本シリーズは全編に渡ってマルチエンディングが採用されている。	ほんしりーずわぜんぺんにわたってまるちえんでぃんぐがさいよーされている。	NO_LABEL
仲間キャラには全員に好感度が設定されており、主人公の言動や行動、起こしたイベント、戦闘の結果など様々な要因で変動する。	なかまきゃらにわぜんいんにこーかんどがせっていされており、しゅじんこーのげんどーやこーどー、おこしたいべんと、せんとーのけっかなどさまざまなよーいんでへんどーする。	NO_LABEL
この好感度が一定以上の仲間とはエンディングを迎える事が可能である。	このこーかんどがいっていいじょーのなかまとわえんでぃんぐをむかえることがかのーである。	NO_LABEL
多くの場合は好感度以外にもキャラ毎の条件が必要な場合がある。	おーくのばあいわこーかんどいがいにもきゃらごとのじょーけんがひつよーなばあいがある。	NO_LABEL
また、作品によっては仲間キャラ以外にもサブキャラクターや妖精キャラにもエンディングが存在する場合がある。	また、さくひんによってわなかまきゃらいがいにもさぶきゃらくたーやよーせいきゃらにもえんでぃんぐがそんざいするばあいがある。	NO_LABEL
この好感度やエンディング条件を満たす上で重要になってくるのが『休暇』である。	NO_PRONOUNCE	NO_LABEL
『I』と『IV』ではストーリーが進む毎に数日の休暇を取る事になり、街でのんびりと過ごしつつ仲間達とのイベントを起こす事になる。	NO_PRONOUNCE	NO_LABEL
また、主人公が自分の町を持つ事も可能で、仲間を誘って食事に行ったり美術館や劇場に行くと行った過ごし方もある。	また、しゅじんこーがじぶんのまちをもつこともかのーで、なかまをさそってしょくじにいったりびじゅつかんやげきじょーにいくとおこなったすごしかたもある。	NO_LABEL
主人公の町は『I』では行楽地だが、『IV』では主人公達の拠点となる。	NO_PRONOUNCE	NO_LABEL
『III』では主人公達はアパートで暮らす事になり、ストーリーが進む度に解散してそれぞれの部屋で休めるようになる。	NO_PRONOUNCE	NO_LABEL
この時に仲間の部屋を訪れる事でイベントが発生する。	このときになかまのへやをおとずれることでいべんとがはっせいする。	NO_LABEL
イベントが発生する時以外に訪れても出てくれない。	いべんとがはっせいするときいがいにおとずれてもでてくれない。	NO_LABEL
『V』と『VI』では休暇も領地も存在しないが、ストーリー中にしばしば解散して自由行動を取る機会があり、この時に仲間と会話してイベントを起こす事になる。	NO_PRONOUNCE	NO_LABEL
『II』では好感度やエンディング条件は主にストーリーに関係ない場所で起こるサブイベントに依存する。	NO_PRONOUNCE	NO_LABEL
『II』以外の作品の主人公は全員喋らない。	NO_PRONOUNCE	NO_LABEL
作中の行動や言動は全てプレイヤーに委ねられ、選択肢で決定する。	さくちゅーのこーどーやげんどーわすべてぷれいやーにゆだねられ、せんたくしでけっていする。	NO_LABEL
これらの選択によって主人公の性格や仲間達からの評価が変動し、性格によっては選べなくなる選択肢も存在する。	これらのせんたくによってしゅじんこーのせいかくやなかまたちからのひょーかがへんどーし、せいかくによってわえらべなくなるせんたくしもそんざいする。	NO_LABEL
但し、喋らないのは主人公として登場した作品のみで、続編や番外編に再登場した際はこの限りではない。	ただし、しゃべらないのわしゅじんこーとしてとーじょーしたさくひんのみで、ぞくへんやばんがいへんにさいとーじょーしたさいわこのかぎりでわない。	NO_LABEL
『II』のみ主人公は喋り、性格も最初から設定されているが選択肢は存在する。	NO_PRONOUNCE	NO_LABEL
主人公の初期設定として「キャラメイク」が存在する。	NO_PRONOUNCE	NO_LABEL
これは数々のイベント、選択肢、或いは戦闘などで主人公の行動を問い、その結果に応じて初期パラメータや性格が判定されると言うものである。	これわかずかずのいべんと、せんたくし、あるいわせんとーなどでしゅじんこーのこーどーをとい、そのけっかにおーじてしょきぱらめーたやせいかくがはんていされるというものである。	NO_LABEL
特に『I』『V』『VI』は非常に多くのイベントが用意されており、有能な主人公を作るには試行錯誤が必要である。	NO_PRONOUNCE	NO_LABEL
『IV』にはキャラメイクは存在しない。	NO_PRONOUNCE	NO_LABEL
『II』以外の喋らない主人公には、代弁者として妖精が付き添う。	NO_PRONOUNCE	NO_LABEL
妖精の定義は作品毎に異なり、例えば『I』では「ホムンクルス」。	NO_PRONOUNCE	NO_LABEL
『IV』では「使い魔」という扱いになり、更に『IV』は三種類の中から好きなタイプを選ぶ事が出来る。	NO_PRONOUNCE	NO_LABEL
性格も作品それぞれで、主人公に忠実な者もいれば、あれこれ指示する者、手厳しいツッコミを入れる者や何となく付いて来てるだけの者も存在する。	せいかくもさくひんそれぞれで、しゅじんこーにちゅーじつなものもいれば、あれこれしじするもの、てきびしいつっこみをいれるものやなんとなくついてきてるだけのものもそんざいする。	NO_LABEL
『IV』以降では妖精を育成する事が可能になり、パラメータに応じて様々なコマンドが実行可能になる。	NO_PRONOUNCE	NO_LABEL
育成の仕方は作品によって異なり、アイテムや現金が必要な場合やイベント戦闘をこなす必要がある場合がある。	いくせいのしかたわさくひんによってことなり、あいてむやげんきんがひつよーなばあいやいべんとせんとーをこなすひつよーがあるばあいがある。	NO_LABEL
『IV』以降の妖精は複数あるコスチュームを収集し、着替えさせることが可能。	NO_PRONOUNCE	NO_LABEL
また、『III』以外では条件を満たせば妖精と恋仲になる事も出来る。	NO_PRONOUNCE	NO_LABEL
一度、ストーリーをクリアすると、アイテム等を引き継いだ状態で本編の二、三週目を序盤からスタートできる。	いちど、すとーりーをくりあすると、あいてむとーをひきついだじょーたいでほんぺんのに、さんしゅーめをじょばんからすたーとできる。	NO_LABEL
『II』に搭載されたシステム。	NO_PRONOUNCE	NO_LABEL
主人公の選択肢次第でシナリオが変化する。	しゅじんこーのせんたくししだいでしなりおがへんかする。	NO_LABEL
仲間を裏切って敵側に協力することになるため、基本的にキャラクターとのエンディングは迎えられなくなる。	なかまをうらぎっててきがわにきょーりょくすることになるため、きほんてきにきゃらくたーとのえんでぃんぐわむかえられなくなる。	NO_LABEL
後にPSP版でリメイクされた『I』と『IV』にもこのシステムが実装された。	NO_PRONOUNCE	NO_LABEL
『I』の場合は旧ルートと新ルートの二種類があるが、『IV』は多岐に及んでおり、ヒロイックなものから仲間たちを裏切って殺害する暗いものまで存在する。	NO_PRONOUNCE	NO_LABEL
