NANAの登場人物では、矢沢あい原作の漫画作品『NANA』に登場する人物を解説する。	NO_PRONOUNCE	NO_LABEL
なお、記述されている年齢は、物語の舞台である2002年時点のものである。	なお、きじゅつされているねんれいわ、ものがたりのぶたいであるにせんにねんじてんのものである。	NO_LABEL
通称「ブラスト」。	NO_PRONOUNCE	NO_LABEL
「ブルート」を解散したヤスとレンを中心に、レンの後輩であったノブと、その場にたまたま居合わせたナナを誘って結成されたパンクバンド。	NO_PRONOUNCE	NO_LABEL
「海辺の町」でアマチュアとして活動していたが、レンの脱退で活動停止。	NO_PRONOUNCE	NO_LABEL
その後、上京したナナを追ってノブが合流、ベーシストとして新たにシンが加入したことに加え、ヤスも再びドラムでの参加を決意し、新生ブラストとして活動を再開する。	そのご、じょーきょーしたななをおってのぶがごーりゅー、べーしすととしてあらたにしんがかにゅーしたことにくわえ、やすもふたたびどらむでのさんかをけついし、しんせいぶらすととしてかつどーをさいかいする。	NO_LABEL
ライブへの出演で人気は高まっていたが、ナナとレンの熱愛が報道された事もあり、一気にメジャーデビューまで登りつめる。	らいぶえのしゅつえんでにんきわたかまっていたが、ななとれんのねつあいがほーどーされたこともあり、いっきにめじゃーでびゅーまでのぼりつめる。	NO_LABEL
現在はトラネスに劣らない大人気バンドになったが、マスコミなどへの露出や曲調の変化などが原因でアマチュア時代からのファンが急激に離れてしまう。	げんざいわとらねすにおとらないだいにんきばんどになったが、ますこみなどえのろしゅつやきょくちょーのへんかなどがげんいんであまちゅあじだいからのふぁんがきゅーげきにはなれてしまう。	NO_LABEL
2001年の賞レースを総なめにし、「赤白歌合戦」にも出場し、翌2002年には初の大都市での全国ツアーも予定されていたが、公演直前にシンの不祥事でツアーは全公演中止となり、活動休止に追い込まれてしまう。	NO_PRONOUNCE	NO_LABEL
デビュー後のリリース作品はデビューシングル「Blast!」、アルバム「BLACK SPOT」の二作。	NO_PRONOUNCE	NO_LABEL
所属事務所は四海コーポレーション、レコード会社はガイアレコード。	しょぞくじむしょわしかいこーぽれーしょん、れこーどがいしゃわがいあれこーど。	NO_LABEL
通称「トラネス」。	NO_PRONOUNCE	NO_LABEL
レイラとタクミを中心に結成されたロックバンド。	れいらとたくみをちゅーしんにけっせいされたろっくばんど。	NO_LABEL
ブラストと同じ「海辺の町」でインディーズとして活動し、後にブラストを脱退したレンが加入してメジャーデビュー。	NO_PRONOUNCE	NO_LABEL
押しも押されもせぬ超人気バンドとなるが、賞レースは辞退している。	おしもおされもせぬちょーにんきばんどとなるが、しょーれーすわじたいしている。	NO_LABEL
本編中での最新作はアルバム「TRIGGER」、シングル「TRUST」。	NO_PRONOUNCE	NO_LABEL
未来のシーンでは死亡したレン以外のメンバーが何らかの理由でロンドンに移住しており、活動はしていない模様。	みらいのしーんでわしぼーしたれんいがいのめんばーがなんらかのりゆーでろんどんにいじゅーしており、かつどーわしていないもよー。	NO_LABEL
所属事務所はCOOKIE MUSIC。	NO_PRONOUNCE	NO_LABEL
このサーチのスクープが物語を大きく動かすきっかけになっている。	このさーちのすくーぷがものがたりをおーきくうごかすきっかけになっている。	NO_LABEL
