ブルガリア国家国境警察庁は、ブルガリア共和国の国境警備隊、沿岸警備隊を管掌する機関。	ぶるがりあこっかこっきょーけいさつちょーわ、ぶるがりあきょーわこくのこっきょーけいびたい、えんがんけいびたいをかんしょーするきかん。	NO_LABEL
内務省に所属する。	ないむしょーにしょぞくする。	NO_LABEL
通称、国境警察ともいう。	つーしょー、こっきょーけいさつともいう。	NO_LABEL
共産政権時代は、国境軍（）という軍事組織であったが、1997年、警察組織に改編された。	きょーさんせいけんじだいわ、こっきょーぐんかっことゆうぐんじそしきであったが、せんきゅうひゃくきゅうじゅうなな、けいさつそしきにかいへんされた。	NO_LABEL
