富田の焼き蛤は、四日市市富田地区の名物食品だった郷土料理である。	とみだのやきはまぐりわ、よっかいちしとみだちくのめいぶつしょくひんだったきょーどりょーりである。	NO_LABEL
江戸時代の桑名藩領朝明郡富田の蛤料理で、桑名藩領であったため、「桑名の焼き蛤」と呼ばれるようになった。	NO_PRONOUNCE	NO_LABEL
江戸時代は盛んであった「富田の焼き蛤」であったが、現在では焼き蛤料理は富田地区には存在しない。	NO_PRONOUNCE	NO_LABEL
江戸時代の東海道五十三次には何か所か松並木があった。	えどじだいのとーかいどーごじゅーさんつぎにわなんかしょかまつなみきがあった。	NO_LABEL
富田付近も松並木であり、松毬を燃料にする江戸時代の桑名藩領の富田地域民の知恵も面白い歴史研究となっている。	とみたふきんもまつなみきであり、まつぼっくりをねんりょーにするえどじだいのくわなはんりょーのとみたちいきみんのちえもおもしろいれきしけんきゅーとなっている。	NO_LABEL
江戸時代の歴史史料である『本朝食鑑』では、蛤の食べ方について「焼くが最上である。	NO_PRONOUNCE	NO_LABEL
煮るが次である。	にるがつぎである。	NO_LABEL
辛子酢や生姜酢で生であえるのが良い」とされている。	NO_PRONOUNCE	NO_LABEL
さらに、「焼いて食べるには、松ぼっくりの火が最良であり、蕨火炭火を使用するのがそれに次ぐ第2番目の方法である」と記述されているが、その理由については同書中に面白い説明がある。	NO_PRONOUNCE	NO_LABEL
「およそ伊勢国の桑名藩である通称伊勢国桑名の伊勢湾の海の焼き蛤が良いとされているが、中でも最高級品である桑名藩領富田の焼き蛤について、富田の土地の人々の間では松ぼっくりで焼くと味が良くなり、蛤で食中毒する危険性がなくなると言われている。	NO_PRONOUNCE	NO_LABEL
また、松が枯れそうになった時に、富田の焼き蛤数個を砕いて根のまわりの溝に入れて土をかぶせておけばだんだんと蘇る。	また、まつがかれそーになったときに、とみだのやきはまぐりすーこをくだいてねのまわりのみぞにいれてどをかぶせておけばだんだんとよみがえる。	NO_LABEL
あるいは、焼き蛤の煮汁を冷まして溝に入れておくのが良い」旨が記述され、富田の焼き蛤と松の木は元々相性が良いか天性を持っているとしている。	NO_PRONOUNCE	NO_LABEL
