高砂町は、兵庫県高砂市南東部にある地域である。	たかさごちょーわ、ひょーごけんたかさごしなんとーぶにあるちいきである。	NO_LABEL
本項ではかつて同地域に所在した加古郡高砂町についても述べる。	ほんこーでわかつてどーちいきにしょざいしたかこぐんたかさごちょーについてものべる。	NO_LABEL
山陽電気鉄道本線の高砂駅周辺、加古川河口右岸に位置する。	さんよーでんきてつどーほんせんのたかさごえきしゅーへん、かこがわかこーうがんにいちする。	NO_LABEL
兵庫県道718号明石高砂線の相生橋で加古川市と結ばれている。	ひょーごけんどーななひゃくじゅうはちごーあかしたかさごせんのあいおいきょーでかこがわしとむすばれている。	NO_LABEL
高砂町相生町、高砂町藍屋町、高砂町朝日町一 - 三丁目、高砂町今津町、高砂町魚町、高砂町戎町、高砂町沖浜町、高砂町鍵町、高砂町鍛冶屋町、高砂町狩網町、高砂町北渡海町、高砂町北本町、高砂町細工町、高砂町栄町、高砂町材木町、高砂町清水町、高砂町次郎助町、高砂町船頭町、高砂町大工町、高砂町高瀬町、高砂町田町、高砂町釣舟町、高砂町西宮町、高砂町農人町、高砂町浜田町一 - 二丁目、高砂町東農人町、高砂町東浜町、高砂町東宮町、高砂町松波町、高砂町南材木町、高砂町南渡海町、高砂町南浜町、高砂町南本町、高砂町宮前町、高砂町向島町、高砂町横町、高砂町猟師町の37町のほか、西畑一 - 四丁目から成る。	NO_PRONOUNCE	NO_LABEL
