大田関雎高等学校は、大韓民国大田広域市西区にある公立の高等学校。	てじょんぐぁんじょごどぅんはっきょわ、だいかんみんこくてじょんこーいきしにしくにあるこーりつのこーとーがっこー。	NO_LABEL
1998年に設置された。	せんきゅうひゃくきゅうじゅうはちねんにせっちされた。	NO_LABEL
中国古典, 『詩経』の「国風」の「周南篇」の詩「関雎」に由来する校名。	NO_PRONOUNCE	NO_LABEL
大田関雎高等学校の教育理念は 『正心, 自律, 創造』。	NO_PRONOUNCE	NO_LABEL
 白松, 木蓮は校木, 校花。	NO_PRONOUNCE	NO_LABEL
クラブ活動は跆拳道クラブが有名。	くらぶかつどーわたいけんどーくらぶがゆーめい。	NO_LABEL
文化祭は「白松祭」と呼ばれ冬に行われる。	NO_PRONOUNCE	NO_LABEL
多くの来場者で賑わう。	おーくのらいじょーしゃでにぎわう。	NO_LABEL
2007年 今までの卒業生は約 2700人	にせんななねんいままでのそつぎょーせいわやくにせんななひゃくにん	NO_LABEL
大田関雎高等学校の公式サイト	てじょんぐぁんじょごどぅんはっきょのこーしきさいと	NO_LABEL
