中田 武雄は、日本の政治家。	なかたたけおわ、にっぽんのせいじか。	NO_LABEL
元いわき市長。	もといわきしちょー。	NO_LABEL
いわき市生まれ。	いわきしうまれ。	NO_LABEL
福島県議会議長を経て、1986年に現職の田畑金光を破っていわき市長となる。	ふくしまけんぎかいぎちょーをへて、せんきゅうひゃくはちじゅうろくねんにげんしょくのたばたかねみつをやぶっていわきしちょーとなる。	NO_LABEL
1990年に再選を目指したが、公示直前に病に倒れ、出馬を断念した。	せんきゅうひゃくきゅうじゅうねんにさいせんをめざしたが、こーじちょくぜんにやまいにたおれ、しゅつばをだんねんした。	NO_LABEL
2007年8月19日死去。	にせんななねんはちがつじゅうきゅうにちしきょ。	NO_LABEL
