ショクダイオオコンニャクは、サトイモ科・コンニャク属の植物。	NO_PRONOUNCE	NO_LABEL
別名スマトラオオコンニャク。	べつめいすまとらおおこんにゃく。	NO_LABEL
インドネシア、スマトラ島の熱帯雨林に自生する。	いんどねしあ、すまとらとーのねったいうりんにじせいする。	NO_LABEL
7年に一度2日間しか咲かない、世界最大の花として有名になった。	ななねんにいちどふつかしかさかない、せかいさいだいのはなとしてゆーめいになった。	NO_LABEL
花序とその付属体、および仏炎苞の複合体は直径1.5mに達するとされ、その縦寸は3.5mまでになった記録もある。	かじょとそのふぞくたい、およびふつえんつとのふくごーたいわちょっけいいちてんごめーとるにたっするとされ、そのたてすんわさんてんごめーとるまでになったきろくもある。	NO_LABEL
肉穂花序の先端は棍棒状の付属体となり、その下の仏炎苞に包まれた部分の上部に雄花、下部に雌花が密生する。	にくほかじょのせんたんわこんぼーじょーのふぞくたいとなり、そのしたのふつえんつとにつつまれたぶぶんのじょーぶにおばな、かぶにめばながみっせいする。	NO_LABEL
コンニャクなどほかのコンニャク属の植物と同様に、種子から発芽した実生個体は、毎年1枚だけの巨大な葉を展開して同化産物を球茎に蓄積し、数年がかりで巨大な球茎を形成する。	こんにゃくなどほかのこんにゃくぞくのしょくぶつとどーよーに、しゅしからはつがしたみしょーこたいわ、まいとしいちまいだけのきょだいなはをてんかいしてどーかさんぶつをきゅーけいにちくせきし、すーねんがかりできょだいなきゅーけいをけいせいする。	NO_LABEL
生活史の最後の年には光合成を行う葉に替わって球茎から花序だけを伸張させ、それまでに蓄積した同化産物をすべて有性生殖に向けて使い切る。	せいかつしのさいごのとしにわこーごーせいをおこなうはにかわってきゅーけいからかじょだけをしんちょーさせ、それまでにちくせきしたどーかさんぶつをすべてゆーせいせいしょくにむけてつかいきる。	NO_LABEL
開花はわずか2日ときわめて短く、開花初日には花序先端の付属体から腐臭を発して甲虫を集める。	かいかわわずかふつかときわめてみじかく、かいかしょにちにわかじょせんたんのふぞくたいからふしゅーをはっしてかぶとむしをあつめる。	NO_LABEL
開花後8時間ほどで悪臭の最高潮に達するとされている。	かいかごはちじかんほどであくしゅーのさいこーちょーにたっするとされている。	NO_LABEL
これらの甲虫は上に向けて漏斗状に展開した仏炎苞に着地すると這い上がれずに転がり落ち、中心の花序の部分に集められる。	これらのかぶとむしわうえにむけてろーとじょーにてんかいしたふつえんつとにちゃくちするとはいあがれずにころがりおち、ちゅーしんのかじょのぶぶんにあつめられる。	NO_LABEL
ここに他の花に誘引されて花粉をつけた個体がいると、花序最下部の雌花群の柱頭に花粉がなすりつけられ、受粉が成立する。	ここにたのはなにゆーいんされてかふんをつけたこたいがいると、かじょさいかぶのめばなぐんのちゅーとーにかふんがなすりつけられ、じゅふんがせいりつする。	NO_LABEL
翌日になると雌花の受粉機能は停止し、替わって雄花群の葯から花粉があふれ出して甲虫の体に降りかかり、次いで付属体と仏炎苞が枯死崩壊して虫の脱出が起きる。	NO_PRONOUNCE	NO_LABEL
受粉が成立した雌花は成熟するとサトイモ科の植物に広く見られる朱色の液果となり、鳥に食べられて種子散布がおきると考えられている。	じゅふんがせいりつしためばなわせいじゅくするとさといもかのしょくぶつにひろくみられるしゅいろのえきはてとなり、とりにたべられてしゅしさんぷがおきるとかんがえられている。	NO_LABEL
花の形が燭台に似ることからショクダイオオコンニャクの名がある。	はなのかたちがしょくだいににることからしょくだいおおこんにゃくのながある。	NO_LABEL
別名スマトラオオコンニャク。	べつめいすまとらおおこんにゃく。	NO_LABEL
英名"Titan arum"。	NO_PRONOUNCE	NO_LABEL
その強烈な腐臭から死体花、お化けのように見えるのでお化け蒟蒻とも呼ばれる。	そのきょーれつなふしゅーからしたいはな、おばけのよーにみえるのでおばけこんにゃくともよばれる。	NO_LABEL
有名なラフレシアの最大種である"" の花は最大で直径90cmと、送粉者を誘引して受粉系となる単位器官としてはこれより小型である。	NO_PRONOUNCE	NO_LABEL
しかし "R. arnoldii" が単体の花であるのに対し、ショクダイオオコンニャクの巨大な「花」は花序であり、そこに密生する個々の単体の花はごく小さい。	NO_PRONOUNCE	NO_LABEL
そのため、単体の花としては "R. arnoldii" が世界最大である。	NO_PRONOUNCE	NO_LABEL
両者とも腐臭を放って腐肉や獣糞で繁殖する昆虫を集めて花粉を媒介させるが、ラフレシアがクロバエ科のハエに依存しているのに対し、ショクダイオオコンニャクは糞虫やシデムシ類といった甲虫によって花粉が媒介される点が異なる。	りょーしゃともふしゅーをはなってふにくやししくそではんしょくするこんちゅーをあつめてかふんをばいかいさせるが、らふれしあがくろばえかのはえにいぞんしているのにたいし、しょくだいおおこんにゃくわくそむしやしでむしるいといったかぶとむしによってかふんがばいかいされるてんがことなる。	NO_LABEL
具体的には、シデムシ科の "Diamesus osculans" 、ハネカクシ科オオハネカクシ属の"Creophilus flavipennis" が、送粉に大きく寄与している	NO_PRONOUNCE	NO_LABEL
