『Songs』は、織田哲郎のセルフカバーアルバム。	NO_PRONOUNCE	NO_LABEL
1993年に、作曲家部門1位を取ったことを理由に、オリジナルアルバム『T』と同時に発売したセルフカバーアルバム。	NO_PRONOUNCE	NO_LABEL
「OH SHINY DAYS」を歌い、T-BOLAN「サヨナラから始めよう」のレコーディングで参加したTWINZERの生沢佑一、「このまま君だけを奪い去りたい」、「翼を広げて」の原曲を歌ったDEENの池森秀一、「チョット」の原曲を歌った大黒摩季、また「咲き誇れ愛しさよ」では元ZABADAKの上野洋子がコーラスで参加している。	NO_PRONOUNCE	NO_LABEL
また、「SUMMER DREAM」は初めて楽器を使用せず、鈴木康志のコーラスを使用した楽曲。	NO_PRONOUNCE	NO_LABEL
「咲き誇れ愛しさよ」、TUBE、亜蘭知子らのプロジェクトユニット「渚のオールスターズ」名義で歌った「Be My Venus」以外の全曲は、『complete of 織田哲郎 at the BEING studio』に収録されている。	NO_PRONOUNCE	NO_LABEL
