蕭子明は、南朝斉の皇族。	NO_PRONOUNCE	NO_LABEL
西陽王。	にしびおー。	NO_LABEL
武帝蕭賾の十男。	NO_PRONOUNCE	NO_LABEL
字は雲光。	じわくもこー。	NO_LABEL
蕭賾と蔡婕妤のあいだの子として生まれた。	NO_PRONOUNCE	NO_LABEL
483年1月、武昌王に封じられた。	よんひゃくはちじゅうさんねんいちがつ、たけまさおーにふーじられた。	NO_LABEL
485年、国璽を失い、西陽王に改封された。	よんひゃくはちじゅうごねん、こくじをうしない、にしびおーにあらためふーされた。	NO_LABEL
488年11月、持節・都督南兗兗徐青冀五州軍事・冠軍将軍・南兗州刺史となった。	NO_PRONOUNCE	NO_LABEL
490年、征虜将軍に進んだ。	よんひゃくきゅうじゅうねん、せいとりこしょーぐんにすすんだ。	NO_LABEL
492年、左将軍に進み、督会稽東陽臨海永嘉新安五郡軍事・会稽郡太守となった。	NO_PRONOUNCE	NO_LABEL
子明は容姿が明るく清らかであったため、かれを見た士女は感嘆する者が多かった。	こめいわよーしがあかるくきよらかであったため、かれをみたしじょわかんたんするものがおーかった。	NO_LABEL
493年、蕭昭業が即位すると、子明は平東将軍に進んだ。	NO_PRONOUNCE	NO_LABEL
494年、右将軍・中書令となった。	NO_PRONOUNCE	NO_LABEL
494年、侍中に転じ、右将軍のまま驍騎将軍を兼ねた。	よんひゃくきゅうじゅうよんねん、じちゅーにてんじ、うしょーぐんのままぎよきしょーぐんをかねた。	NO_LABEL
同年、撫軍将軍に転じた。	どーねん、なでぐんしょーぐんにてんじた。	NO_LABEL
495年6月、明帝の命により弟の南海王蕭子罕・邵陵王蕭子貞とともに殺害された。	NO_PRONOUNCE	NO_LABEL
享年は17。	NO_PRONOUNCE	NO_LABEL
