セントジョンザバプテスト郡であり、同郡で人口最大の町はラプラスである。	せんとじょんざばぷてすとぐんであり、どーぐんでじんこーさいだいのまちわらぷらすである。	NO_LABEL
セントジョンザバプテスト郡はオーリンズ準州で当初定められた19郡の１つである。	NO_PRONOUNCE	NO_LABEL
ニューオーリンズ・メテリー・ケナー大都市圏に属し、またニューオーリンズ・メテリー・ボガルーサ広域都市圏を構成している。	NO_PRONOUNCE	NO_LABEL
18世紀と19世紀は、1720年代に大挙して移民してきたドイツ人開拓者が開いたミシシッピ川沿い、ジャーマン・コーストの一部と考えられていた。	じゅうはっせいきとじゅうきゅうせいきわ、せんななひゃくにじゅうねんだいにたいきょしていみんしてきたどいつじんかいたくしゃがひらいたみししっぴがわぞい、じゃーまんこーすとのいちぶとかんがえられていた。	NO_LABEL
1811年1月8日、ジャーマン・コースト暴動と呼ばれるアメリカ史の中でも最大級の奴隷反乱が始まったのがここだった。	せんはっぴゃくじゅういちねんいちがつようか、じゃーまんこーすとぼーどーとよばれるあめりかしのなかでもさいだいきゅーのどれいはんらんがはじまったのがここだった。	NO_LABEL
短期間ではあるが、川沿いのプランテーションから200人以上の奴隷が集まり、セントチャールズ郡を通ってニューオーリンズまで行進した。	たんきかんでわあるが、かわぞいのぷらんてーしょんからにひゃくにんいじょーのどれいがあつまり、せんとちゃーるずぐんをとーってにゅーおーりんずまでこーしんした。	NO_LABEL
郡内には全国的に認められている19世紀プランテーションの建築物が3つある。	ぐんないにわぜんこくてきにみとめられているじゅうきゅうせいきぷらんてーしょんのけんちくぶつがみっつある。	NO_LABEL
すなわち、エバーグリーン・プランテーション、ホィットニー・プランテーション歴史地区、およびサンフランシスコ・プランテーション・ハウスである。	NO_PRONOUNCE	NO_LABEL
セントジョンザバプテスト郡はルイジアナで2番目の恒久的開拓地であり、ジャーマン・コーストの一部と考えられていた。	せんとじょんざばぷてすとぐんわるいじあなでにばんめのこーきゅーてきかいたくちであり、じゃーまんこーすとのいちぶとかんがえられていた。	NO_LABEL
その開拓地は1720年代初期にドイツ人開拓者集団によって設立された。	そのかいたくちわせんななひゃくにじゅうねんだいしょきにどいつじんかいたくしゃしゅーだんによってせつりつされた。	NO_LABEL
多くの家族が、現在ルーシー、ゲリービル、リザーブと呼ばれるミシシッピ川周辺の地域に町を設立した。	おーくのかぞくが、げんざいるーしー、げりーびる、りざーぶとよばれるみししっぴがわしゅーへんのちいきにまちをせつりつした。	NO_LABEL
この地域は七年戦争後の1768年までフランスの統治下にあり、その後はスペインに移された。	このちいきわしちねんせんそーごのせんななひゃくろくじゅうはちねんまでふらんすのとーちかにあり、そのごわすぺいんにうつされた。	NO_LABEL
この頃、多くのフランス人子孫であるアカディア人が、現在のノヴァスコシアからイギリスに追放されて南ルイジアナに到着し始めていた。	NO_PRONOUNCE	NO_LABEL
イギリスは七年戦争に勝利し、カナダのフランス領を占領していた。	いぎりすわななねんせんそーにしょーりし、かなだのふらんすりょーをせんりょーしていた。	NO_LABEL
現在のウォレスに最初のアカディア人集落が設立された。	げんざいのうぉれすにさいしょのあかでぃあじんしゅーらくがせつりつされた。	NO_LABEL
ドイツとフランスの文化が相伴って栄えるようになったが、フランス語が支配的な言語になった。	どいつとふらんすのぶんかがあいともなってさかえるよーになったが、ふらんすごがしはいてきなげんごになった。	NO_LABEL
彼らはクレオールと呼ばれる文化を発展させた。	かれらわくれおーるとよばれるぶんかをはってんさせた。	NO_LABEL
地域の開拓者達は、その時代に地域を支配していたスペインあるいはフランスの政府から土地の特許を取得した。	ちいきのかいたくしゃたちわ、そのじだいにちいきをしはいしていたすぺいんあるいわふらんすのせいふからとちのとっきょをしゅとくした。	NO_LABEL
これら特許には概して川に面した狭い土地が含まれ、ニューオーリンズや世界の市場に商品を行き来させるために都合が良かった。	これらとっきょにわがいしてかわにめんしたせまいとちがふくまれ、にゅーおーりんずやせかいのしじょーにしょーひんをいききさせるためにつごーがよかった。	NO_LABEL
その他の土地は川から離れ湿地帯まで奥深く入っていた。	そのたのとちわかわからはなれしっちたいまでおくふかくはいっていた。	NO_LABEL
これがフランスの決めた土地分割のやり方だった。	これがふらんすのきめたとちぶんかつのやりかただった。	NO_LABEL
物資の輸送の大半はボートを使いバイユーや湖を通って行われたが、19世紀に入るとミシシッピ川もよく使われた。	ぶっしのゆそーのたいはんわぼーとをつかいばいゆーやみずうみをとーっておこなわれたが、じゅうきゅうせいきにはいるとみししっぴがわもよくつかわれた。	NO_LABEL
セントジョンザバプテスト郡となった領域は標高9フィートの肥沃な土地があり、農業には優れた場所であることが分かった。	NO_PRONOUNCE	NO_LABEL
18世紀後半、農園主たちは労働集約型のサトウキビ栽培と加工に力を入れるようになり、奴隷の労働力に対する需要が増した。	じゅうはっせいきこーはん、のーえんぬしたちわろーどーしゅーやくがたのさとーきびさいばいとかこーにちからをいれるよーになり、どれいのろーどーりょくにたいするじゅよーがました。	NO_LABEL
砂糖の生産は農園主とニューオーリンズにとって繁栄を意味していた。	さとーのせいさんわのーえんぬしとにゅーおーりんずにとってはんえいをいみしていた。	NO_LABEL
砂糖で富を得た農園主たちは華美な家屋や別荘を建設した。	さとーでとみをえたのーえんぬしたちわかびなかおくやべっそーをけんせつした。	NO_LABEL
郡内に残っている3つの家屋が国家的建築物として、また歴史的意義あるものとして認知されている。	ぐんないにのこっているみっつのかおくがこっかてきけんちくぶつとして、またれきしてきいぎあるものとしてにんちされている。	NO_LABEL
ミシシッピ川西岸には、ホィットニー・プランテーション歴史地区とされる家屋と別荘の大きな集合と、アメリカ合衆国国定歴史建造物に指定されたエバーグリーン・プランテーションがある。	NO_PRONOUNCE	NO_LABEL
東岸にはやはり国定歴史建造物に指定されたサンフランシスコ・プランテーション・ハウスがある。	NO_PRONOUNCE	NO_LABEL
サンフランシスコ・プランテーション・ハウスとエバーグリーン・プランテーションは観光客に公開されている。	NO_PRONOUNCE	NO_LABEL
ホィットニー・プランテーションは改修が予定されている。	NO_PRONOUNCE	NO_LABEL
ホィットニー・プランテーションとエバーグリーン・プランテーションはどちらも、ルイジアナ・アフリカ系アメリカ人歴史の道にある26か所に含まれている。	NO_PRONOUNCE	NO_LABEL
1811年、ジャーマン・コースト暴動が郡内で始まった。	せんはっぴゃくじゅういちねん、じゃーまんこーすとぼーどーがぐんないではじまった。	NO_LABEL
アメリカ史の中でも最大級の奴隷反乱だったが、短期間で終息した。	あめりかしのなかでもさいだいきゅーのどれいはんらんだったが、たんきかんでしゅーそくした。	NO_LABEL
奴隷達は2人の白人を殺したが、民兵隊との戦いや、その後の素早い裁判によって96人の奴隷が命を失った。	どれいたちわふたりのはくじんをころしたが、みんぺいたいとのたたかいや、そのごのすばやいさいばんによってきゅうじゅうろくにんのどれいがいのちをうしなった。	NO_LABEL
奴隷達は5つのプランテーションを攻撃し、3軒の家屋を燃やした。	NO_PRONOUNCE	NO_LABEL
ハイチから来た混血の奴隷チャールズ・デスロンデスが暴動の首謀者の一人だった。	NO_PRONOUNCE	NO_LABEL
デスロンデスとその追随者達はフランス革命とハイチ革命の理想とその成果に影響を受けていた。	ですろんですとそのついずいしゃたちわふらんすかくめいとはいちかくめいのりそーとそのせいかにえいきょーをうけていた。	NO_LABEL
途中にあるプランテーションから200人以上の奴隷が集まり、セントチャールズ郡を通ってニューオーリンズまで行進したが、その後に多くの抵抗に遭った。	とちゅーにあるぷらんてーしょんからにひゃくにんいじょーのどれいがあつまり、せんとちゃーるずぐんをとーってにゅーおーりんずまでこーしんしたが、そのごにおーくのていこーにあった。	NO_LABEL
彼らは計画通り武器を入手できず、武装の整った民兵隊に敗北した。	かれらわけいかくどーりぶきをにゅーしゅできず、ぶそーのととのったみんぺいたいにはいぼくした。	NO_LABEL
これらの衝突と、裁判後の処刑によりデスロンデスと95人の奴隷が殺された。	これらのしょーとつと、さいばんごのしょけいによりですろんですときゅうじゅうごにんのどれいがころされた。	NO_LABEL
南北戦争や奴隷解放の数十年も前のことであり、その行動は自由に対する深い願望を表現していた。	なんぼくせんそーやどれいかいほーのすーじゅーねんもまえのことであり、そのこーどーわじゆーにたいするふかいがんぼーをひょーげんしていた。	NO_LABEL
開拓者の家族が増加するに連れて、子供達を教育したいという需要も大きくなった。	かいたくしゃのかぞくがぞーかするにつれて、こどもたちをきょーいくしたいとゆうじゅよーもおーきくなった。	NO_LABEL
南北戦争以前、通常の農園主は北部のカレッジを卒業した家庭教師を雇い、その教師達は家族とともに通常2年間といった長期に滞在することが多かった。	なんぼくせんそーいぜん、つーじょーののーえんぬしわほくぶのかれっじをそつぎょーしたかていきょーしをやとい、そのきょーしたちわかぞくとともにつーじょーにねんかんといったちょーきにたいざいすることがおーかった。	NO_LABEL
家庭教師は農園主の子供達全てを教育することになったが、農園主の家族は近所の子供達も授業を受けられるように手配することがあった。	かていきょーしわのーえんぬしのこどもたちすべてをきょーいくすることになったが、のーえんぬしのかぞくわきんじょのこどもたちもじゅぎょーをうけられるよーにてはいすることがあった。	NO_LABEL
南北戦争後の1869年、フランス語の授業を望む家族達が、その文化を継続させるために私設の学校を作った。	なんぼくせんそーごのせんはっぴゃくろくじゅうきゅうねん、ふらんすごのじゅぎょーをのぞむかぞくたちが、そのぶんかをけいぞくさせるためにしせつのがっこーをつくった。	NO_LABEL
これはレコンストラクション時代の州議会で初めて公立学校を作ったときでもあった。	これわれこんすとらくしょんじだいのしゅーぎかいではじめてこーりつがっこーをつくったときでもあった。	NO_LABEL
最初の高等学校は1909年にエドガードとリザーブに設立された。	さいしょのこーとーがっこーわせんきゅうひゃくきゅうねんにえどがーどとりざーぶにせつりつされた。	NO_LABEL
子供達は馬に曳かせたバスや列車で通学した。	こどもたちわうまにひかせたばすやれっしゃでつーがくした。	NO_LABEL
アメリカ合衆国国勢調査局に拠れば、郡域全面積は348平方マイルであり、このうち陸地219平方マイル、水域は129平方マイルで水域率は37.07％である。	NO_PRONOUNCE	NO_LABEL
セントジョンザバプテスト郡はメキシコ湾からミシシッピ川を遡ること130マイル、ニューオーリンズ市からも上流に30マイルに位置している。	NO_PRONOUNCE	NO_LABEL
この地域はリバー地域と呼ばれ、天然資源が豊富であり、「サンベルト」と呼ばれる気象にある。	NO_PRONOUNCE	NO_LABEL
ニューオーリンズの平均月間気温は、1月の 55.1から7月の 83.7まで変化し、降水量は年間平均53.2インチ、月間では10月の2.52インチから7月の7.17インチまである。	NO_PRONOUNCE	NO_LABEL
ニューオーリンズとリバー地域は原料が手に入りやすく、天然ガス、石油、硫黄、塩、生皮の生産では国内でも上位を維持している。	にゅーおーりんずとりばーちいきわげんりょーがてにはいりやすく、てんねんがす、せきゆ、いおー、しお、なまかわのせいさんでわこくないでもじょーいをいじしている。	NO_LABEL
ケイ砂、ライム、粘土、木材、海産物など多様な産物も多量に生産されている。	けいすな、らいむ、ねんど、もくざい、かいさんぶつなどたよーなさんぶつもたりょーにせいさんされている。	NO_LABEL
セントジョンザバプテスト郡はミシシッピ川によって二分されている。	せんとじょんざばぷてすとぐんわみししっぴがわによってにぶんされている。	NO_LABEL
事実上は南北に分かれているが、北部は東岸、南部は西岸と呼び習わされている。	じじつじょーわなんぼくにわかれているが、ほくぶわとーがん、なんぶわせいがんとよびならわされている。	NO_LABEL
ミシシッピ川は重要な輸送路であり、地域の重工業を支えている。	みししっぴがわわじゅーよーなゆそーろであり、ちいきのじゅーこーぎょーをささえている。	NO_LABEL
セントジョンザバプテスト郡は東をセントチャールズ郡とポンチャートレイン湖、北をポンチャートレイン湖とモーリパス湖、南をラフォーシェ郡とアレマンズ湖、西をセントジェームズ郡と接している。	せんとじょんざばぷてすとぐんわひがしをせんとちゃーるずぐんとぽんちゃーとれいんこ、きたをぽんちゃーとれいんこともーりぱすこ、みなみをらふぉーしぇぐんとあれまんずこ、にしをせんとじぇーむずぐんとせっしている。	NO_LABEL
「リバー郡部」を構成する4郡の1つであり、リバー郡部の中心と称している。	NO_PRONOUNCE	NO_LABEL
州内のこの地域はセントジェームズ郡、アセンション郡、セントチャールズ郡と共に、ミシシッピ川のニューオーリンズからバトンルージュまでの地域を構成している。	しゅーないのこのちいきわせんとじぇーむずぐん、あせんしょんぐん、せんとちゃーるずぐんとともに、みししっぴがわのにゅーおーりんずからばとんるーじゅまでのちいきをこーせいしている。	NO_LABEL
これらの郡は全て少なくとも1つの化学プラントあるいは石油プラントがあり、地域の雇用を賄っている。	これらのぐんわすべてすくなくともひとつのかがくぷらんとあるいわせきゆぷらんとがあり、ちいきのこよーをまかなっている。	NO_LABEL
セントジョンザバプテスト郡には約239平方マイルの陸地があり、その大部分は水域や湿地を含んでいる。	NO_PRONOUNCE	NO_LABEL
湿地は現在連邦法で保護され、アメリカ陸軍工兵司令部あるいはアメリカ合衆国野生生物魚類保護局が許可する範囲に開発が制限されている。	しっちわげんざいれんぽーほーでほごされ、あめりかりくぐんこーへいしれいぶあるいわあめりかがっしゅーこくやせいせいぶつぎょるいほごきょくがきょかするはんいにかいはつがせいげんされている。	NO_LABEL
郡内の高台は沖積平野であり、ミシシッピ川の両岸にある。	ぐんないのたかだいわちゅーせきへいやであり、みししっぴがわのりょーきしにある。	NO_LABEL
ミシシッピ川から毎年流れてくる堆積物が肥沃な土壌を作り、昔からサトウキビ、大豆、トウモロコシ、また時には綿花などが栽培されてきた。	みししっぴがわからまいとしながれてくるたいせきぶつがひよくなどじょーをつくり、むかしからさとーきび、だいず、とーもろこし、またときにわめんかなどがさいばいされてきた。	NO_LABEL
このことと、ミシシッピ川という天然の輸送路があることで、下流域には多くの農場とプランテーションが造られてきた。	このことと、みししっぴがわとゆうてんねんのゆそーろがあることで、かりゅーいきにわおーくののーじょーとぷらんてーしょんがつくられてきた。	NO_LABEL
プランテーションの多くは単に広大な土地があり、質素な中規模の家や離れが高台に作られていた。	ぷらんてーしょんのおーくわたんにこーだいなとちがあり、しっそなちゅーきぼのいえやはなれがたかだいにつくられていた。	NO_LABEL
しかしその中には宮殿のような邸宅になったものもあった。	しかしそのなかにわきゅーでんのよーなていたくになったものもあった。	NO_LABEL
岸に沿った高台は農作物を栽培するために使われ、湿地は木材の伐採、および狩猟、漁労に使われて価値があった。	きしにそったたかだいわのーさくもつをさいばいするためにつかわれ、しっちわもくざいのばっさい、およびしゅりょー、ぎょろーにつかわれてかちがあった。	NO_LABEL
現存の堤防やポンプ設備が作られるまで、高潮に対して安全な場所はほとんどなかった。	げんそんのていぼーやぽんぷせつびがつくられるまで、こーちょーにたいしてあんぜんなばしょわほとんどなかった。	NO_LABEL
今日でも郡内の大半は洪水の危険性が高いと見なされている。	きょーでもぐんないのたいはんわこーずいのきけんせいがたかいとみなされている。	NO_LABEL
東岸の主要道はエアライン・ハイウェイである。	NO_PRONOUNCE	NO_LABEL
この5車線、アスファルト舗装の道路は、バトンルージュとニューオーリンズを結ぶ主要道だった。	NO_PRONOUNCE	NO_LABEL
現在でも交通量が多いが、多くは郡北部を通る州間高速道路10号線に回っている。	げんざいでもこーつーりょーがおーいが、おーくわぐんほくぶをとーるしゅーかんこーそくどーろじゅうごーせんにまわっている。	NO_LABEL
州間高速道路10号線は入線が制御された規格道路であり、郡内には2か所のインターチェンジがある。	NO_PRONOUNCE	NO_LABEL
州間高速道路55号線は郡内を南北に貫き、北のミシシッピ州ジャクソンとその先まで繋がっている。	NO_PRONOUNCE	NO_LABEL
ラプラス市の北東部で州間高速道路10号線と交差している。	らぷらすしのほくとーぶでしゅーかんこーそくどーろじゅうごーせんとこーさしている。	NO_LABEL
リバーロード、別名ジェファーソン・ハイウェイはルイジアナ州道44号線であり、2車線、アスファルト舗装であり、ミシシッピ川に並行してうねりながら通っている。	NO_PRONOUNCE	NO_LABEL
重工業の工場の多くがこの道路沿いにある。	じゅーこーぎょーのこーじょーのおーくがこのどーろぞいにある。	NO_LABEL
西岸の開発が進んだ地帯はルイジアナ州道18号線沿いにある。	せいがんのかいはつがすすんだちたいわるいじあなしゅーどーじゅうはちごーせんぞいにある。	NO_LABEL
東岸の州道44号線と同様、ミシシッピ川に並行して曲がりくねりながら通っている。	NO_PRONOUNCE	NO_LABEL
さらにルイジアナ州道3127号線、別名リバー・パリッシーズ・ハイウェイは東岸のエアライン・ハイウェイとほぼ同じ役割を果たすものである。	NO_PRONOUNCE	NO_LABEL
リバーロードほど曲がりくねっておらず、交通量も少ない。	りばーろーどほどまがりくねっておらず、こーつーりょーもすくない。	NO_LABEL
この道路は上流のドナルドソンビルに繋がっている。	このどーろわじょーりゅーのどなるどそんびるにつながっている。	NO_LABEL
アセンション郡に行くにはミシシッピ川に架かるサンシャイン橋を使う。	あせんしょんぐんにいくにわみししっぴがわにかかるさんしゃいんきょーをつかう。	NO_LABEL
この道路の側はどちらも開発が進んでおらず、概して湿地に囲まれている。	このどーろのがわわどちらもかいはつがすすんでおらず、がいしてしっちにかこまれている。	NO_LABEL
ルイジアナ州道3213号線に架かる退役兵記念橋、別名グラマシー橋は東岸のセントジェームズ郡グラマシーとラッチャー近くに発し、ルイジアナ州道641号線を経由して州間高速道路10号線やエアライン・ハイウェイに繋がっている。	NO_PRONOUNCE	NO_LABEL
西岸の付け根はウォレス近くにあり、2008年に開通したルイジアナ州道3127号線に繋がっている。	NO_PRONOUNCE	NO_LABEL
この橋の開通で西岸の開発に期待が寄せられた。	このはしのかいつーでせいがんのかいはつにきたいがよせられた。	NO_LABEL
西岸にはリザーブとエドガードでの渡し舟もあり、またセントチャールズ郡にあるヘイルボッグス橋も使える。	せいがんにわりざーぶとえどがーどでのわたしぶねもあり、またせんとちゃーるずぐんにあるへいるぼっぐすきょーもつかえる。	NO_LABEL
以下は2000年の国勢調査による人口統計データである。	いかわにせんねんのこくせいちょうさによるじんこーとーけいでーたである。	NO_LABEL
セントジョンザバプテスト郡には下記の8つの町がある。	せんとじょんざばぷてすとぐんにわかきのやっつのまちがある。	NO_LABEL
セントジョンザバプテスト郡	せんとじょんざばぷてすとぐん	NO_LABEL
セントジョンザバプテスト郡教育委員会が地元の10の公立学校を運営している。	NO_PRONOUNCE	NO_LABEL
ニューオーリンズ大教区が5つの宗教学校を運営しており、他に2つの私立学校もある。	にゅーおーりんずだいきょーくがいつつのしゅーきょーがっこーをうんえいしており、たにふたつのしりつがっこーもある。	NO_LABEL
地理	ちり	NO_LABEL
