巨樹とは、極めて大きい樹木のこと。	きょじゅとわ、きめておーきいじゅもくのこと。	NO_LABEL
巨木、大木、大樹などともいう。	きょぼく、たいぼく、たいじゅなどともいう。	NO_LABEL
どちらかというと高さより太さに主眼が置かれる言葉である。	どちらかというとたかさよりふとさにしゅがんがおかれることばである。	NO_LABEL
木の測りかたには何通りかあり国際的に統一されているわけではない。	きのはかりかたにわなんとーりかありこくさいてきにとーいつされているわけでわない。	NO_LABEL
ヨーロッパでは胸高130cmを幹を図る位置としている。	よーろっぱでわむなだかひゃくさんじゅうせんちめーとるをみきをはかるいちとしている。	NO_LABEL
日本の環境省の巨樹調査での調査木は地上から約130cmの位置での幹周が300cm以上の木を対象としている。	にっぽんのかんきょーしょーのきょじゅちょーさでのちょーさきわちじょーからやくひゃくさんじゅうせんちめーとるのいちでのみきしゅーがさんびゃくせんちめーとるいじょーのきをたいしょーとしている。	NO_LABEL
なお、計測基準は決められてはいるが、個々の木によって形は様々であり、数値だけで樹木の大きさを測るのは困難である。	なお、けいそくきじゅんわきめられてはいるが、ここのきによってかたちわさまざまであり、すーちだけでじゅもくのおーきさをはかるのわこんなんである。	NO_LABEL
例えばカツラの巨樹の多くが主幹を失い、ヒコバエの束といった様相で、ガジュマルでは発達した気根によって幹のみを計測できない。	たとえばかつらのきょじゅのおーくがしゅかんをうしない、ひこばえのたばといったよーそーで、がじゅまるでわはったつしたきこんによってみきのみをけいそくできない。	NO_LABEL
そういった事情で、環境省の調査結果や現地の解説版、愛好家のサイトとの間で測定値が異なることが多々見受けられる。	そういったじじょーで、かんきょーしょーのちょーさけっかやげんちのかいせつばん、あいこーかのさいととのまでそくていちがことなることがたたみうけられる。	NO_LABEL
1988年度から、1992年度にかけて実施された、環境庁所管の緑の国勢調査とも呼ばれる自然環境保全基礎調査の第4回において、「巨樹・巨木林調査」の項目が増え、他の調査項目と共に全国調査が行われ、初めて全国の巨樹の実態が明らかにされた。	NO_PRONOUNCE	NO_LABEL
この初回の調査では約5万6000本が報告され、2000年に行われたフォローアップ調査により追加報告が寄せられ、約6万8000本へとデータ数が増加した。	NO_PRONOUNCE	NO_LABEL
データベースは東京都にある奥多摩町立日原森林館のサイトにおいて一般にも公開されており、地域や樹種等を絞った検索も可能である。	でーたべーすわとーきょーとにあるおくたまちょーりつひわらしんりんかんのさいとにおいていっぱんにもこーかいされており、ちいきやきしゅとーをしぼったけんさくもかのーである。	NO_LABEL
なお、調査漏れの巨樹も多数あると推測され、一般に対しても調査漏れの巨樹について調査協力を求めており、個人が調査票やマニュアルなどに基づいて調査結果を報告することも可能である。	なお、ちょーさもれのきょじゅもたすーあるとすいそくされ、いっぱんにたいしてもちょーさもれのきょじゅについてちょーさきょーりょくをもとめており、こじんがちょーさひょーやまにゅあるなどにもとずいてちょーさけっかをほーこくすることもかのーである。	NO_LABEL
愛好家らによって新たな巨樹が次々と報告されている。	あいこーからによってあらたなきょじゅがつぎつぎとほーこくされている。	NO_LABEL
世界の中心とされた古代都市エリドゥには巨樹「キスカヌ ()」が立っていた。	NO_PRONOUNCE	NO_LABEL
各地の世界樹・生命樹伝承の祖ともされる。	NO_PRONOUNCE	NO_LABEL
菩提樹の巨樹「アシュヴァッタ ()」。	NO_PRONOUNCE	NO_LABEL
『日本書紀』景行18年7月4日条に、筑紫後国の三池に倒れた巨樹があり、長さは970丈にもなり、橋代わりにされていた。	NO_PRONOUNCE	NO_LABEL
当時の人々は、「朝霜の 御木のさお橋 まえつきみ い渡らすも 御木のさお橋」と歌った。	NO_PRONOUNCE	NO_LABEL
老人がいうに、この椚が倒れる前は、朝日の影で杵島山を隠し、夕日の影で阿蘇山を隠すほどだったと語り、天皇はこの倒木を神木とし、この国を「御木の国」と呼ぶことにした。	NO_PRONOUNCE	NO_LABEL
『播磨国風土記』には、仁徳天皇の治世に楠があり、朝日には淡路島を隠し、夕日には大倭島根をその大樹による影で隠したと記述されている。	NO_PRONOUNCE	NO_LABEL
その大樹を伐り、舟を造ったが、その速き事、飛ぶが如く。	そのたいじゅをきり、ふねをつくったが、そのはやきこと、とぶがしく。	NO_LABEL
一楫に七波を去き越えた。	いちかじにしちなみをさきこえた。	NO_LABEL
よって、「速鳥」と号けられた。	NO_PRONOUNCE	NO_LABEL
ある日、一度だけ目的に間に合わなかった為、和歌で「何が速鳥か」とその名を揶揄されている。	NO_PRONOUNCE	NO_LABEL
なお、この速鳥という船名は『続日本紀』天平宝字2年3月条にも、播磨の船として見ることができる。	NO_PRONOUNCE	NO_LABEL
『今昔物語集』巻第三十一には、近江国栗太郡に柞の巨樹があったとの伝説が記述されている。	NO_PRONOUNCE	NO_LABEL
その幹回りは700尋にもなり、朝日の影は丹波国をさし、夕陽の影は伊勢国にさした。	NO_PRONOUNCE	NO_LABEL
その木はあまりに大きく、栗太郡はおろか、志賀・甲賀の三郡の百姓は田畑を作ることさえできなかった。	NO_PRONOUNCE	NO_LABEL
そのことを天皇に訴えたところ、願いが聞き入れられ、遣いにより、巨樹は切り倒され、田畑を耕すことができるようになり、豊穣を得ることができた。	そのことをてんのーにうったえたところ、ねがいがききいれられ、つかいにより、きょじゅわきりたおされ、たはたをたがやすことができるよーになり、ほーじょーをえることができた。	NO_LABEL
今でも、その郡にはその時の子孫がいるという。	いまでも、そのぐんにわそのときのしそんがいるという。	NO_LABEL
この伝説は後世でも類型派生しており、室町時代成立の『三国伝記』では、ハハソから栗の木へと変わり、郡名由来譚となっている。	NO_PRONOUNCE	NO_LABEL
いずれも「大開発の時代」に生じた伝説とされる。	NO_PRONOUNCE	NO_LABEL
