国鉄タキ42250形貨車は、かつて日本国有鉄道及び1987年4月の国鉄分割民営化後は、日本貨物鉄道に在籍した私有貨車である。	こくてつたきよんまんにせんにひゃくごじゅうがたかしゃわ、かつてにほんこくゆーてつどーおよびせんきゅうひゃくはちじゅうななねしがつのこくてつぶんかつみんえいかごわ、にほんかもつてつどーにざいせきしたしゆーかしゃである。	NO_LABEL
本形式は、ナフタリン専用の32t積タンク車として1978年3月9日から1979年10月27日にかけて2ロット5両が製作された。	NO_PRONOUNCE	NO_LABEL
この内4両はタキ1500形からの改造車である。	NO_PRONOUNCE	NO_LABEL
改造内容はタンク体は種車のものを活用して温水加熱装置、外板が装備された。	かいぞーないよーわたんくたいわたねしゃのものをかつよーしておんすいかねつそーち、そとばんがそーびされた。	NO_LABEL
所有者は、日本陸運産業の1社のみであり、その常備駅は、総武本線越中島支線の越中島駅、鹿児島本線の西八幡駅であったがその後全車京葉臨海鉄道臨海本線の、村田駅常備となった。	NO_PRONOUNCE	NO_LABEL
全車生涯所有者が変わることなく運用された。	ぜんしゃしょーがいしょゆーしゃがかわることなくうんよーされた。	NO_LABEL
ナフタリンを専用種別とする形式には、他には例がなく本形式が唯一の存在であった。	なふたりんをせんよーしゅべつとするけいしきにわ、たにわれいがなくほんけいしきがゆいいつのそんざいであった。	NO_LABEL
1979年10月より化成品分類番号「40」）が標記された。	NO_PRONOUNCE	NO_LABEL
塗色は、黒色であり、全長は13,700mm、全幅は2,600mm、全高は3,863mm、台車中心間距離は9,600mm、実容積は33.3m、自重は21.6t、換算両数は積車5.5、空車2.0、台車はベッテンドルフ式のTR41DS13又はTR225であった。	NO_PRONOUNCE	NO_LABEL
1987年4月の国鉄分割民営化時には全車がJR貨物に継承されたが、1996年1月に最後まで在籍した1両が廃車となり、同時に形式消滅となった。	NO_PRONOUNCE	NO_LABEL
各年度による製造会社と両数、所有者は次のとおりである。	かくねんどによるせいぞーかいしゃとりょーかず、しょゆーしゃわつぎのとーりである。	NO_LABEL
