『クランチ』は、アメリカ合衆国のヘヴィメタル・バンド、インペリテリが2000年に発表したスタジオ・アルバム。	NO_PRONOUNCE	NO_LABEL
フル・レングスのスタジオ・アルバムとしては6作目に当たる。	NO_PRONOUNCE	NO_LABEL
以前からバンドのツアー・ドラマーを務めてきたグレン・ソーベルが、正式メンバーとしてレコーディングに参加した。	NO_PRONOUNCE	NO_LABEL
ボーカリストのロブ・ロックは、本作の音楽性について「よりヘヴィでダークなサウンドを得るために、楽器のチューニングを下げた。	NO_PRONOUNCE	NO_LABEL
このアルバムで、インペリテリの伝統を引き継ぎながら、面白味のある新しい要素を加えてみたのさ」と説明している。	NO_PRONOUNCE	NO_LABEL
イギリスのレーベル「ドリーム・キャッチャー」からは、1996年のアルバム『スクリーミング・シンフォニー』と抱き合せた2枚組CDとして発売され、ディスク1に収録された本作は曲順が変更されて、更に「フォエヴァー・ユアーズ」と「テキサス・ニュークリア・ブギー」が外された代わりに「Freak Show」が追加された。	NO_PRONOUNCE	NO_LABEL
5. 9.はインストゥルメンタルで、クリス・インペリテリ作曲。	NO_PRONOUNCE	NO_LABEL
その他の曲は作詞：ロブ・ロック／作曲：クリス・インペリテリ。	NO_PRONOUNCE	NO_LABEL
