神東郡は、兵庫県にあった郡。	じんとうぐんわ、ひょーごけんにあったぐん。	NO_LABEL
1879年に行政区画として発足した当時の郡域は、下記の区域にあたる。	せんはっぴゃくななじゅうきゅうねんにぎょーせいくかくとしてほっそくしたとーじのぐんいきわ、かきのくいきにあたる。	NO_LABEL
古代の神崎郡が平安時代末期に市川を境に神東郡・神西郡に分割されて成立。	NO_PRONOUNCE	NO_LABEL
