ルイス・ガスマンは、アメリカ合衆国の俳優。	るいすがすまんわ、あめりかがっしゅーこくのはいゆー。	NO_LABEL
プエルトリコ出身。	ぷえるとりこしゅっしん。	NO_LABEL
1957年にプエルトリコで生まれ。	せんきゅうひゃくごじゅうしちねんにぷえるとりこでうまれ。	NO_LABEL
母親は病院職員で、義父はテレビの修理工だった。	ははおやわびょーいんしょくいんで、ぎふわてれびのしゅーりこーだった。	NO_LABEL
その後、渡米してニューヨークのグリニッジ・ヴィレッジで育つ。	NO_PRONOUNCE	NO_LABEL
高校卒業後はニューヨーク市立大学シティカレッジ卒。	こーこーそつぎょーごわにゅーよーくしりつだいがくしてぃかれっじそつ。	NO_LABEL
俳優として活動する前には若者に対するソーシャルワーカーやイベントアレンジャーとして働いていた。	はいゆーとしてかつどーするまえにわわかものにたいするそーしゃるわーかーやいべんとあれんじゃーとしてはたらいていた。	NO_LABEL
後に学生映画への出演や路上でパフォーマンスを披露するなどをして活動を開始。	ごにがくせいえいがえのしゅつえんやろじょーでぱふぉーまんすをひろーするなどをしてかつどーをかいし。	NO_LABEL
1977年に舞台を映画化した『Short Eyes』で俳優デビュー。	NO_PRONOUNCE	NO_LABEL
1980年代に入ると本格的に役者としての活動をし始めて、人気テレビシリーズ『特捜刑事マイアミ・バイス』や、高倉健とマイケル・ダグラスが共演したことや大阪を舞台にしたことで話題となった『ブラック・レイン』などへ出演した。	NO_PRONOUNCE	NO_LABEL
出演する作品には警察官か、悪役の共謀者を演じることが多い。	しゅつえんするさくひんにわけいさつかんか、あくやくのきょーぼーしゃをえんじることがおーい。	NO_LABEL
また、スティーブン・ソダーバーグやポール・トーマス・アンダーソン作品の常連でもある。	また、すてぃーぶんそだーばーぐやぽーるとーますあんだーそんさくひんのじょーれんでもある。	NO_LABEL
尊敬する俳優はマーロン・ブランドと答えている。	そんけいするはいゆーわまーろんぶらんどとこたえている。	NO_LABEL
近年ではコメディ映画への出演も多く、アダム・サンドラー、ジム・キャリーらとも共演を果たした。	きんねんでわこめでぃえいがえのしゅつえんもおーく、あだむさんどらー、じむきゃりーらともきょーえんをはたした。	NO_LABEL
現在はアメリカで活躍するラテン系俳優として着実な地位を確立している。	げんざいわあめりかでかつやくするらてんけいはいゆーとしてちゃくじつなちいをかくりつしている。	NO_LABEL
1985年に結婚した妻アンジェリータとの間に5児がある。	せんきゅうひゃくはちじゅうごねんにけっこんしたつまあんじぇりーたとのまにごじがある。	NO_LABEL
