のほほん族は2002年にトミーから発売された電子玩具およびキャラクターグッズ。	のほほんぞくわにせんにねんにとみーからはつばいされたでんしおもちゃおよびきゃらくたーぐっず。	NO_LABEL
現在はトミーの後継企業であるタカラトミーを経て、子会社のタカラトミーアーツから発売されている。	げんざいわとみーのこーけいきぎょーであるたからとみーをへて、こがいしゃのたからとみーあーつからはつばいされている。	NO_LABEL
自然に満ちた不思議な世界に「のほほん族」が楽しく暮らしているという世界観のもと、2頭身で丸い頭、全身パステルカラーのキャラクターの玩具を中心に展開されている。	NO_PRONOUNCE	NO_LABEL
主力商品はソーラーパネル発電でゆらゆらと動く人形「のほほん族」。	NO_PRONOUNCE	NO_LABEL
「のほほん族」のキャラクターを使ったグッズや、他企業とのコラボ商品なども販売されている。	NO_PRONOUNCE	NO_LABEL
また「のほほん族」の仕組みを流用した他のキャラクター商品などもラインナップに加えられている。	NO_PRONOUNCE	NO_LABEL
2012年時点で、世界30カ国で販売、累計800万個以上。	NO_PRONOUNCE	NO_LABEL
発売開始からしばらくは「ひだまりの民」の名称であったが、2006年ごろから「のほほん族」となった。	NO_PRONOUNCE	NO_LABEL
太陽電池内蔵により、電池不要でキャラクターの頭が左右に揺れる。	たいよーでんちないぞーにより、でんちふよーできゃらくたーのあたまがさゆーにゆれる。	NO_LABEL
頭が前後に動くものや足や胴体が動くもの、キャラクター以外が動くものもある。	あたまがぜんごにうごくものやあしやどーたいがうごくもの、きゃらくたーいがいがうごくものもある。	NO_LABEL
通常商品のほか、御当地ものや季節もの、Dr.コパと娘のドーター・コパの監修による風水タイプも発売されている。	つーじょーしょーひんのほか、ごとーちものやきせつもの、どくたーこぱとむすめのどーたーこぱのかんしゅーによるふーすいたいぷもはつばいされている。	NO_LABEL
2007年に全世界で500万個達成記念でトウモロコシ素材のプラスチックを使用した「とうもろこしのほほん族」が発売された。	NO_PRONOUNCE	NO_LABEL
価格は1000円から2000円程度。	かかくわせんえんからにせんえんていど。	NO_LABEL
ディズニーキャラクター、ポケモンキャラクター、ハローキティ、ピングー、PostPetのキャラクターのモモなどいろいろな種類がある。	でぃずにーきゃらくたー、ぽけもんきゃらくたー、はろーきてぃ、ぴんぐー、ぽすとぺっとのきゃらくたーのももなどいろいろなしゅるいがある。	NO_LABEL
キャラクターが体を揺らしながらはなうたを歌う。	きゃらくたーがからだをゆらしながらはなうたをうたう。	NO_LABEL
1体に3曲収録されており、2〜3体をコードでつなぐことでハーモニーを奏でさせる機能がある。	NO_PRONOUNCE	NO_LABEL
「ひだまりの民」とは違い、乾電池を使用する。	NO_PRONOUNCE	NO_LABEL
2002年から2003年にかけて10種類程度が発売された。	にせんにねんからにせんさんねんにかけてじゅうしゅるいていどがはつばいされた。	NO_LABEL
のほほん族のキャラクターのぬいぐるみやマスコットなど多数販売され、またゲームセンターの景品などとして使われている。	のほほんぞくのきゃらくたーのぬいぐるみやますこっとなどたすーはんばいされ、またげーむせんたーのけいひんなどとしてつかわれている。	NO_LABEL
2004年から販売された、鉢植えの観葉植物を模したインテリア風玩具。	にせんよねんからはんばいされた、はちうえのかんよーしょくぶつをもしたいんてりあふーおもちゃ。	NO_LABEL
太陽電池内蔵により、ソーラーパネルに光が当たるとふたばが揺れる。	たいよーでんちないぞーにより、そーらーぱねるにひかりがあたるとふたばがゆれる。	NO_LABEL
