大秦は、中国の史書に記載されている国名で、ローマ帝国、のち東ローマ帝国のことを指すとされる。	おおはたわ、ちゅーごくのししょにきさいされているこくめいで、ろーまていこく、のちひがしろーまていこくのことをさすとされる。	NO_LABEL
「ローマ帝国」を現代中国語で書くと「」となる。	NO_PRONOUNCE	NO_LABEL
「和帝の永元九年に西域都護の班超が甘英を使者として大秦に派遣した」	NO_PRONOUNCE	NO_LABEL
「桓帝の延憙九年に大秦国王の安敦が遣わした使者が日南郡に訪れて象牙・犀角・玳瑁を献上した。	NO_PRONOUNCE	NO_LABEL
初めて交流を持つことができた」	NO_PRONOUNCE	NO_LABEL
「大秦には普段は王はおらず、国に災難があった場合には優れた人物を選んで王とする。	NO_PRONOUNCE	NO_LABEL
災難が終われば王は解雇されるが、王はそれを恨まない」	NO_PRONOUNCE	NO_LABEL
「大秦より使者が訪れた。	NO_PRONOUNCE	NO_LABEL
国王の名を滅加伊霊改撒という。	NO_PRONOUNCE	NO_LABEL
かつて九百余年前に朝貢したがその後朝貢せず、今再びやって来た」	NO_PRONOUNCE	NO_LABEL
補足　『宋史』巻490・列伝第249「外国六」の「拂菻」の条では、北宋の元豊四年＝1081年に朝貢使を派遣してきた「拂菻国」の王の名を「滅力伊霊改撒」と記す。	NO_PRONOUNCE	NO_LABEL
