親学推進議員連盟は2012年に発足した日本の超党派の議員連盟。	おやがくすいしんぎーんれんめいわにせんじゅうにねんにほっそくしたにっぽんのちょーとーはのぎーんれんめい。	NO_LABEL
別表記は「「親学」推進議員連盟」。	NO_PRONOUNCE	NO_LABEL
「親の役割や家庭のあるべき姿を考える」超党派議員により2012年4月10日に設立された。	NO_PRONOUNCE	NO_LABEL
設立総会が国会内で開かれ、安倍晋三を会長、鳩山由紀夫を顧問として発足。	せつりつそーかいがこっかいないでひらかれ、あべしんぞーをかいちょー、はとやまゆきおをこもんとしてほっそく。	NO_LABEL
設立総会には議員本人49名、代理32名が参加。	NO_PRONOUNCE	NO_LABEL
親学推進協会の木村治美会長と高橋史朗理事長が提言をおこなったほか、元埼玉県教育委員の松居和や、TOSS代表の向山洋一ら100名が参加した。	NO_PRONOUNCE	NO_LABEL
親学推進議員連盟は活動方針として「親学」を推進する家庭教育支援法の2012年内制定、政府への推進本部設置や地方自治体での条例制定、国民運動の推進などを謳った。	NO_PRONOUNCE	NO_LABEL
高橋史朗の著書によれば、設立趣意書には「他に責任転嫁しないで、主体変容すること、自分が変わることによって、大災害などの国家的危機を乗り越えてきた日本人の精神的伝統を、親学によって甦らせ、危機に瀕する日本の教育を再生していきたい」と記されているとされる。	NO_PRONOUNCE	NO_LABEL
連盟の活動として公開勉強会と世話人会を開催した。	れんめいのかつどーとしてこーかいべんきょーかいとせわにんかいをかいさいした。	NO_LABEL
2012年5月末に同連盟は発達障害は「伝統的な子育て」で「予防」できるという趣旨の勉強会を行った。	NO_PRONOUNCE	NO_LABEL
連盟事務局長の下村博文のブログでの報告に対して抗議が殺到し、下村はブログで謝罪した。	れんめいじむきょくちょーのしもむらはくぶんのぶろぐでのほーこくにたいしてこーぎがさっとーし、しもむらわぶろぐでしゃざいした。	NO_LABEL
勉強会の資料は科学的根拠を欠くとして日本発達障害ネットワークとアスペ・エルデの会が会長の安倍晋三に要望書を送った。	べんきょーかいのしりょーわかがくてきこんきょをかくとしてにほんはったつしょーがいねっとわーくとあすぺえるでのかいがかいちょーのあべしんぞーによーぼーしょをおくった。	NO_LABEL
同年5月、大阪維新の会は親学を提唱する高橋史朗の助言を受けた「家庭教育支援条例」案を大阪市会に提出したが、批判を受け撤回した。	NO_PRONOUNCE	NO_LABEL
2012年4月設立時に81人、同年6月に66人が所属していた。	にせんじゅうにねんしがつせつりつじにはちじゅういちにん、どーねんろくがつにろくじゅうろくにんがしょぞくしていた。	NO_LABEL
設立時会長は安倍晋三、副会長は伊吹文明、河村建夫、中曽根弘文、塩谷立、中山恭子、小沢鋭仁、羽田雄一郎、牧義夫、田島一成、常任幹事は山谷えり子、有村治子、事務局長は下村博文。	せつりつじかいちょーわあべしんぞー、ふくかいちょーわいぶきぶんめい、かわむらたけお、なかそねひろふみ、しおのやりゅー、なかやまきょーこ、おざわさきひと、はたゆういちろー、まきよしお、たじまいっせい、じょーにんかんじわやまたにえりこ、ありむらはるこ、じむきょくちょーわしもむらはくぶん。	NO_LABEL
2011年に沖縄県、大阪、熊本県、埼玉県、2012年10月に長野県で親学推進の議員連盟が発足した。	にせんじゅういちねんにおきなわけん、おーさか、くまもとけん、さいたまけん、にせんじゅうにねんじゅーがつにながのけんでおやがくすいしんのぎーんれんめいがほっそくした。	NO_LABEL
