ルカ・ヨヴィッチは、ボスニア・ヘルツェゴビナ・ビイェリナ出身のプロサッカー選手。	NO_PRONOUNCE	NO_LABEL
アイントラハト・フランクフルト所属。	あいんとらはとふらんくふるとしょぞく。	NO_LABEL
ポジションは、フォワード。	ぽじしょんわ、ふぉわーど。	NO_LABEL
レッドスター・ベオグラードの下部組織出身。	れっどすたーべおぐらーどのかぶそしきしゅっしん。	NO_LABEL
2014年5月のFKヴォイヴォディナ・ノヴィサド戦で、同クラブの最年少記録保持者であるデヤン・スタンコビッチを上回る16歳5ヶ月5日でプロデビューを果たした。	NO_PRONOUNCE	NO_LABEL
2016年2月、ポルトガル王者のSLベンフィカと2021年までの契約を結んだ。	にせんじゅうろくねんにがつ、ぽるとがるおーしゃのすぽるちりすぼあいべんふぃかとにせんにじゅういちねんまでのけいやくをむすんだ。	NO_LABEL
2017年6月、アイントラハト・フランクフルトにレンタル移籍することが発表された。	にせんじゅうななねんろくがつ、あいんとらはとふらんくふるとにれんたるいせきすることがはっぴょーされた。	NO_LABEL
期間は2年で買い取りオプションが付随している。	きかんわにねんでかいとりおぷしょんがふずいしている。	NO_LABEL
各年代でセルビア代表に選出されている。	かくねんだいでせるびあだいひょーにせんしゅつされている。	NO_LABEL
2013年12月のクロアチア戦ではハットトリックを達成した。	にせんじゅうさんねんじゅーにがつのくろあちあせんでわはっととりっくをたっせいした。	NO_LABEL
主要大会ではUEFA U-19欧州選手権2014に参加、ゴールも挙げた。	NO_PRONOUNCE	NO_LABEL
