有馬 理絵は、日本のクラリネット奏者。	ありまりえわ、にっぽんのくらりねっとそーしゃ。	NO_LABEL
奈良県奈良市出身。	ならけんならししゅっしん。	NO_LABEL
12歳よりクラリネットを始める。	じゅうにさいよりくらりねっとをはじめる。	NO_LABEL
奈良市立春日中学校、奈良県立平城高等学校を経て、1997年、京都市立芸術大学を首席で卒業。	ならしりつかすがちゅうがっこー、ならけんりつへいじょうこーとーがっこーをへて、せんきゅうひゃくきゅうじゅうなな、きょーとしりつげいじゅつだいがくをしゅせきでそつぎょー。	NO_LABEL
音楽学部賞を受賞。	おんがくがくぶしょーをじゅしょー。	NO_LABEL
読売新聞社新人演奏会、朝日新聞社推薦演奏会、ヤマハ管楽器新人演奏会に出演。	よみうりしんぶんしゃしんじんえんそーかい、あさひしんぶんしゃすいせんえんそーかい、やまはかんがっきしんじんえんそーかいにしゅつえん。	NO_LABEL
同年、東京藝術大学大学院に入学。	どーねん、とーきょーげいじゅつだいがくだいがくいんににゅーがく。	NO_LABEL
1999年、同大学院を修了。	せんきゅうひゃくきゅうじゅうきゅうねん、どーだいがくいんをしゅーりょー。	NO_LABEL
朝比奈千足、村瀬二朗、村井祐児、鈴木良昭、三界秀実の各氏に師事した。	あさひなちたる、むらせにろー、むらいゆーじ、すずきよしあき、みかいひでみのかくしにしじした。	NO_LABEL
第68回日本音楽コンクールクラリネット部門入選。	だいろくじゅうはっかいにっぽんおんがくこんくーるくらりねっとぶもんにゅーせん。	NO_LABEL
第18回日本管打楽器コンクールクラリネット部門入賞。	だいじゅうはっかいにほんかんだがっきこんくーるくらりねっとぶもんにゅーしょー。	NO_LABEL
現在、日本各地でオーケストラ、吹奏楽、ソロ、室内楽等プレイヤーとして幅広く活躍。	げんざい、にっぽんかくちでおーけすとら、すいそーがく、そろ、しつないがくとーぷれいやーとしてはばひろくかつやく。	NO_LABEL
NHK-FM「名曲リサイタル」、宮崎国際室内音楽祭、清里音楽祭、アフィニス夏の音楽祭、トンヨン国際音楽祭等に出演。	NO_PRONOUNCE	NO_LABEL
また、「知られざる作品を広めるコンサート」シリーズに出演し、レベッカ・クラーク、マリオ・カステルヌオーヴォ＝テデスコの作品を演奏。	NO_PRONOUNCE	NO_LABEL
その他ズーラシアンブラス、アールレスピランのメンバーとして現代音楽作品、新曲初演を数多く手がける。	そのたずーらしあんぶらす、あーるれすぴらんのめんばーとしてげんだいおんがくさくひん、しんきょくしょえんをかずおーくてがける。	NO_LABEL
2007年、東京佼成ウインドオーケストラに入団し現在に至る。	にせんななねん、とーきょーこうせいういんどおーけすとらににゅーだんしげんざいにいたる。	NO_LABEL
洗足学園音楽大学非常勤講師。	せんぞくがくえんおんがくだいがくひじょーきんこーし。	NO_LABEL
