ダニエル・ブレット・ワイスは、アメリカ合衆国の小説家、脚本家、ディレクター、プロデューサーである。	NO_PRONOUNCE	NO_LABEL
2003年にコンピュータゲームを題材とした小説『』で作家デビューする。	NO_PRONOUNCE	NO_LABEL
デイヴィッド・ベニオフと共に活動しており、2011年からは2人でジョージ・R・R・マーティンの小説を原作としたHBOのテレビシリーズ『ゲーム・オブ・スローンズ』のプロデューサー、ショーランナー、脚本を務めており、数々のプライムタイム・エミー賞を受賞している。	NO_PRONOUNCE	NO_LABEL
イリノイ州シカゴで生まれ育つ。	いりのいしゅーしかごでうまれそだつ。	NO_LABEL
ウェズリアン大学を卒業し、ダブリン大学トリニティ・カレッジでアイルランド文学の 、 でクリエイティブ・ライティングの を取得した。	NO_PRONOUNCE	NO_LABEL
2003年に処女作『ラッキー・ワンダー・ボーイ』を発表する。	NO_PRONOUNCE	NO_LABEL
2003年にワイスは大学以来の友人であるデイヴィッド・ベニオフと共にウォルフガング・ペーターゼンが監督予定であったオースン・スコット・カードの小説『エンダーのゲーム』を原作とした映画の新脚本執筆のために雇われた。	NO_PRONOUNCE	NO_LABEL
しかしながらこの脚本は結局使われなかった。	しかしながらこのきゃくほんわけっきょくつかわれなかった。	NO_LABEL
ワイスはと共にアレックス・ガーランドが執筆したバンジーのコンピュータゲーム『HALO』の映画脚本の書き直しのために雇われ、2006年に完成させたが、2007年に監督のニール・ブロムカンプはプロジェクトの中止を発表した。	NO_PRONOUNCE	NO_LABEL
他に『アイ・アム・レジェンド』の続編の脚本にも取り組んでいたが、プロジェクトは中止された。	NO_PRONOUNCE	NO_LABEL
2011年5月にフランシス・ローレンスはもう続編が実現しないだろうと述べた。	にせんじゅういちねんごがつにふらんしすろーれんすわもーぞくへんがじつげんしないだろうとのべた。	NO_LABEL
2011年からはジョージ・R・R・マーティンの小説を原作としたテレビシリーズ『ゲーム・オブ・スローンズ』でベニオフと共に脚本・製作総指揮を務めている。	NO_PRONOUNCE	NO_LABEL
二人は大部分のエピソードの脚本を担当するとともに、一部のエピソードの監督も務めている。	ふたりわだいぶぶんのえぴそーどのきゃくほんをたんとーするとともに、いちぶのえぴそーどのかんとくもつとめている。	NO_LABEL
2015年と2016年にはベニオフとともにプライムタイム・エミー賞脚本賞ドラマシリーズ部門と作品賞ドラマシリーズ部門を連続して受賞している。	にせんじゅうごねんとにせんじゅうろくねんにわべにおふとともにぷらいむたいむえみーしょーきゃくほんしょーどらましりーずぶもんとさくひんしょーどらましりーずぶもんをれんぞくしてじゅしょーしている。	NO_LABEL
2014年4月10日、ワイスと共同でスティーヴン・ハンターの小説『ダーティーホワイトボーイズ』の映画化の製作、脚本、監督を務めることが発表された。	NO_PRONOUNCE	NO_LABEL
2017年7月19日、ワイスとベニオフが『ゲーム・オブ・スローンズ』終了後にHBOでドラマシリーズ"Confederate"を製作すると発表された。	NO_PRONOUNCE	NO_LABEL
2018年2月6日、ウォルト・ディズニー・プロダクションはワイスとベニオフが、やはり『ゲーム・オブ・スローンズ』終了後に『スターウォーズ』の新シリーズを製作すると発表した。	NO_PRONOUNCE	NO_LABEL
