数学における LF-空間は、ベクトル空間の一類で、一口に言えばシュヴァルツ超函数の構成法を抽象化するものである。	NO_PRONOUNCE	NO_LABEL
LF-空間の名は、それがフレシェ空間の増大列の合併になっていることに由来する。	えるえふくーかんのなわ、それがふれしぇくーかんのぞーだいれつのがっぺいになっていることにゆらいする。	NO_LABEL
LF-空間とは、局所凸空間 "E" であって、以下の性質を持つフレシェ空間の列を持つものを言う。	NO_PRONOUNCE	NO_LABEL
このような性質を満たすフレシェ空間列を LF-空間 "E" の定義列と呼ぶ。	NO_PRONOUNCE	NO_LABEL
特に定義列の各項がバナハ空間である場合の LF-空間を LB-空間とも呼ぶ。	NO_PRONOUNCE	NO_LABEL
任意のフレシェ空間 "E" は、定値列 "E" = "E" を定義列として、LF-空間である。	NO_PRONOUNCE	NO_LABEL
K-値有限列全体の成す数列空間 "c" = "c"は、-番目以降の全ての項が 0 となるような数列全体の成す部分空間を K と同一視するとき、K を定義列とする LF-空間、特に LB-空間を成す。	NO_PRONOUNCE	NO_LABEL
空間 "c" の位相は、任意の半ノルムが位相を定める最も細かい凸位相である。	NO_PRONOUNCE	NO_LABEL
シュヴァルツ超函数論における構成を振り返ると、コンパクト集合 "K" ⊂ R と "K" に台を持つ無限回微分可能函数の空間 "C"に対し、開集合 Ω ⊂ R 上の試験函数の空間は	NO_PRONOUNCE	NO_LABEL
で与えられる。	であたえられる。	NO_LABEL
formula_2 は任意の包含写像	NO_PRONOUNCE	NO_LABEL
を連続とする最も細かい位相を持つから、formula_4 は LF-空間である。	NO_PRONOUNCE	NO_LABEL
定義フレシェ空間列は、Ω 内のコンパクト集合列で、各 "K" が "K" の内部に含まれ、かつ "E" 全ての合併が Ω を被覆するものに対する) で与えられる。	NO_PRONOUNCE	NO_LABEL
ここで、formula_2 の位相が、コンパクト集合列の取り方に依らないことに注意。	NO_PRONOUNCE	NO_LABEL
LF-空間 "E" における有界性は、"E" の定義列を用いて次のように述べることができる：	NO_PRONOUNCE	NO_LABEL
LF-空間 "E" から別の局所凸空間 "F" への線型作用素の連続性は、"E" の定義列によって次のように特徴付けることができる：	NO_PRONOUNCE	NO_LABEL
線型作用素 "T": "E" → "F" が連続となるのは、任意の制限	NO_PRONOUNCE	NO_LABEL
が全て連続となるときである。	がすべてれんぞくとなるときである。	NO_LABEL
任意の LF-空間は完備である。	にんいのえるえふくーかんわかんびである。	NO_LABEL
LF-空間は樽型、有界型かつであり、ウェブを持つ。	えるえふくーかんわたるがた、ゆーかいがたかつであり、うぇぶをもつ。	NO_LABEL
故に、バナッハ空間論でよく知られた古典的な三定理は LF-空間に対して一般化することができる。	ゆえに、ばなっはくーかんろんでよくしられたこてんてきなさんていりわえるえふくーかんにたいしていっぱんかすることができる。	NO_LABEL
シュヴァルツ超函数論では、開集合 Ω ⊂ R 上の超函数を、線型写像	NO_PRONOUNCE	NO_LABEL
で、以下の連続性条件:	NO_PRONOUNCE	NO_LABEL
を満たすものと定義する。	をみたすものとていぎする。	NO_LABEL
この定義において、この連続性条件が位相に関する連続性を表していることは、一見してわかりよいものではない。	このていぎにおいて、このれんぞくせいじょーけんがいそーにかんするれんぞくせいをあらわしていることわ、いっけんしてわかりよいものでわない。	NO_LABEL
実はこれに関しては、formula_2 がボルノロジー空間ゆえ、点列連続性を考えれば十分なのである。	NO_PRONOUNCE	NO_LABEL
つまり、コンパクト集合 "K" ⊂ Ω について "C"上の "T" に対する制約条件を与えることに他ならない。	NO_PRONOUNCE	NO_LABEL
先に述べた LF-空間上の線型作用素の連続性に対する性質から、実際に formula_2 の LF-空間としての位相に関する連続性が導かれる。	NO_PRONOUNCE	NO_LABEL
このようにして、LF-空間 formula_2 上の連続線型汎函数として定義されるシュヴァルツ超函数の概念的構造が表される。	NO_PRONOUNCE	NO_LABEL
