ブリーダーズゴールドジュニアカップは、ホッカイドウ競馬で施行される地方競馬の重賞競走である。	ぶりーだーずごーるどじゅにあかっぷわ、ほっかいどーけいばでしこーされるちほーけいばのじゅーしょーきょーそーである。	NO_LABEL
netkeiba.comより優勝杯の提供を受けており、名称は「netkeiba.com杯 ブリーダーズゴールドジュニアカップ」と表記している。	NO_PRONOUNCE	NO_LABEL
2007年に新設された、サラブレッド系2歳馬による重賞競走。	にせんななねんにしんせつされた、さらぶれっどけいにさいばによるじゅーしょーきょーそー。	NO_LABEL
ホッカイドウ競馬は2歳馬戦の比率が高いため、その位置づけを強化する重要レースとして創設され、第1回の賞金は道営記念と同額の1000万円が設定された。	ほっかいどーけいばわにさいばせんのひりつがたかいため、そのいちずけをきょーかするじゅーよーれーすとしてそーせつされ、だいいっかいのしょーきんわどうえいきねんとどーがくのせんまんえんがせっていされた。	NO_LABEL
施行時期については、ホッカイドウ競馬ではこれまで8月 - 9月の2歳馬戦に魅力が乏しかったことから決められた。	NO_PRONOUNCE	NO_LABEL
2016年現在、ホッカイドウ競馬2歳三冠の二冠目に位置づけられている。	にせんじゅうろくねんげんざい、ほっかいどーけいばにさいさんかんのにかんめにいちずけられている。	NO_LABEL
2014年現在、ホッカイドウ競馬で施行している重賞競走では、本競走と道営記念のみ交流競走に指定されていない。	にせんじゅうよねんげんざい、ほっかいどーけいばでしこーしているじゅーしょーきょーそーでわ、ほんきょーそーとどうえいきねんのみこーりゅーきょーそーにしていされていない。	NO_LABEL
2012年よりJRA認定競走としても施行され、優勝馬は認定馬となる。	にせんじゅうにねんよりじぇいあーるえーにんていきょーそーとしてもしこーされ、ゆーしょーばわにんていばとなる。	NO_LABEL
2008年までは旭川競馬場で施行していたが、2009年より門別競馬場に変更され、2015年からは再びダート1600mで施行されている。	にせんはちねんまでわあさひかわけいばじょーでしこーしていたが、にせんきゅうねんよりもんべつけいばじょーにへんこーされ、にせんじゅうごねんからわふたたびだーとせんろっぴゃくめーとるでしこーされている。	NO_LABEL
スタリオンシリーズ競走に指定されており、以下に掲げる種牡馬の種付権が副賞となっている。	すたりおんしりーずきょーそーにしていされており、いかにかかげるしゅぼばのたねつけけんがふくしょーとなっている。	NO_LABEL
2009年と2010年及び2013年は朝日杯フューチュリティステークスに向けたステップレースへの北海道ブロック代表馬選定競走に指定され、本競走の勝馬はデイリー杯2歳ステークス・京王杯2歳ステークス・東京スポーツ杯2歳ステークスのいずれかに出走できた。	NO_PRONOUNCE	NO_LABEL
現在はサンライズカップが選定競走に指定されている。	げんざいわさんらいずかっぷがせんていきょーそーにしていされている。	NO_LABEL
