『鍵師』は、1990年代にフジテレビ系列『金曜エンタテイメント』で放送されていたテレビドラマシリーズの1つ。	NO_PRONOUNCE	NO_LABEL
1993年から1997年にかけて全5作が放送された。	NO_PRONOUNCE	NO_LABEL
東京の下町で深川ロック・サービスの幟を自転車に立てて営業をする錠前屋、水谷浩二を主人公としたドラマ。	NO_PRONOUNCE	NO_LABEL
主人公と岸田今日子演ずる母親の二人の軽妙なやりとりは、渡辺・岸田出演でほぼ同時期に放送された『御家人斬九郎』と同様である。	NO_PRONOUNCE	NO_LABEL
第1作では、浩二には死んだ兄の妻である義姉と甥がいるとの設定であるが、第2作以降には登場しない。	NO_PRONOUNCE	NO_LABEL
