DJ JIN、1973年3月24日）は、日本のヒップホップグループRHYMESTERの2代目DJ。	NO_PRONOUNCE	NO_LABEL
血液型O型。	けつえきがたおーがた。	NO_LABEL
神奈川県横浜市出身。	かながわけんよこはまししゅっしん。	NO_LABEL
早稲田大学に入学し、「早稲田大学ソウルミュージック研究会ギャラクシー」に在籍し、16代部長を務めた。	NO_PRONOUNCE	NO_LABEL
横浜Circusに行って以来、DJを志すようになり、音楽サークルの先輩であった宇多丸やMummy-Dらが結成していたRHYMESTERの初代DJ・DJ Chocolate不在時に代打として参加し始め、1994年頃に正式メンバーとなる。	NO_PRONOUNCE	NO_LABEL
音楽プロデューサーとしての初作品は、RHYMESTER“B-BOYイズム”。	NO_PRONOUNCE	NO_LABEL
「キング・オブ・ステージ」と呼ばれるRHYMESTERのライヴの演奏をひとり支える。	NO_PRONOUNCE	NO_LABEL
クラブDJとしては、ヒップホップ中心にジャンル／年代問わず、様々な曲を独特な流れでプレイするスタイルが持ち味とされている。	NO_PRONOUNCE	NO_LABEL
時にラップを披露することもある「マイク持つDJ」。	NO_PRONOUNCE	NO_LABEL
FUNKY GRAMMAR UNIT所属。	NO_PRONOUNCE	NO_LABEL
ヒップホップのみならず、ファンク／ソウル／ジャズなど、複数の音楽からサウンドを作り出す。	NO_PRONOUNCE	NO_LABEL
RHYMESTER外の活動としては、クラブイベントをきっかけにbreakthroughというプロジェクトを立ち上げている。	NO_PRONOUNCE	NO_LABEL
趣味は格闘技と野球である。	しゅみわかくとーぎとやきゅーである。	NO_LABEL
2007年、2度目となる入籍をしたことを7月9日にブログで発表した。	にせんななねん、にどめとなるにゅーせきをしたことをしちがつここのかにぶろぐではっぴょーした。	NO_LABEL
入籍日は2007年7月7日。	にゅーせきびわにせんななねんしちがつなのか。	NO_LABEL
2008年に長女誕生、2011年に長男誕生。	にせんはちねんにちょーじょたんじょー、にせんじゅういちねんにちょーなんたんじょー。	NO_LABEL
同年12月21日には日本語ラップのミックスCD『The Groovement』をリリースした。	NO_PRONOUNCE	NO_LABEL
RHYMESTER及びbreakthroughの作品は除く	NO_PRONOUNCE	NO_LABEL
