ペトリネット（）とは、カール・アダム・ペトリが1962年に発表した離散分散システムを数学的に表現する手法である。	ぺとりねっとかっことわ、かーるあだむぺとりがせんきゅうひゃくろくじゅうにねんにはっぴょーしたりさんぶんさんしすてむをすーがくてきにひょーげんするしゅほーである。	NO_LABEL
モデリング言語としては分散システムを注釈付の有向2部グラフとして視覚的に表現する。	もでりんぐげんごとしてわぶんさんしすてむをちゅーしゃくずけのゆーこーにぶぐらふとしてしかくてきにひょーげんする。	NO_LABEL
ペトリネットは、視覚的、数学的な離散事象システムをモデル化するツールの一つであり、	ぺとりねっとわ、しかくてき、すーがくてきなりさんじしょーしすてむをもでるかするつーるのひとつであり、	NO_LABEL
名前は創始者のカール・アダム・ペトリに由来する。	なまえわそーししゃのかーるあだむぺとりにゆらいする。	NO_LABEL
有向2部グラフ formula_1 で表現され、	NO_PRONOUNCE	NO_LABEL
頂点集合の2分割 formula_2 がそれぞれ、	NO_PRONOUNCE	NO_LABEL
プレース、トランジション	ぷれーす、とらんじしょん	NO_LABEL
という2種類のノードに対応する。	とゆうにしゅるいののーどにたいおーする。	NO_LABEL
アークは、プレースから出てトランジションに入るか、	あーくわ、ぷれーすからだしてとらんじしょんにはいるか、	NO_LABEL
トランジションから出てプレースに入る。	とらんじしょんからだしてぷれーすにはいる。	NO_LABEL
あるプレース formula_3 に対し、非負整数 formula_4 が割り当てられたとき、	NO_PRONOUNCE	NO_LABEL
プレース formula_5 は formula_4 個のトークンでマーキングされていると言い、	NO_PRONOUNCE	NO_LABEL
このときトークンはプレース formula_5 内の formula_4 個の点として図示される。	NO_PRONOUNCE	NO_LABEL
ペトリネットは、マーキングによりシステムの状態を表現し、	ぺとりねっとわ、まーきんぐによりしすてむのじょーたいをひょーげんし、	NO_LABEL
特に、マーキングの初期状態のことを初期マーキングと呼ぶ。	とくに、まーきんぐのしょきじょーたいのことをしょきまーきんぐとよぶ。	NO_LABEL
マーキングはトランジションの発火により遷移する。	まーきんぐわとらんじしょんのはっかによりせんいする。	NO_LABEL
ペトリネットのサブクラスとして、ステートマシンやマークグラフ等がある。	ぺとりねっとのさぶくらすとして、すてーとましんやまーくぐらふとーがある。	NO_LABEL
ステートマシンはそれぞれのトランジションから多くとも1本のアークが出るか、	すてーとましんわそれぞれのとらんじしょんからおーくともいっぽんのあーくがでるか、	NO_LABEL
それぞれのトランジションに多くとも1本のアークが入る。	それぞれのとらんじしょんにおーくともいっぽんのあーくがはいる。	NO_LABEL
マークグラフはそれぞれのプレースから多くとも1本のアークが出るか、	まーくぐらふわそれぞれのぷれーすからおーくともいっぽんのあーくがでるか、	NO_LABEL
それぞれのプレースに多くとも1本のアークが入る。	それぞれのぷれーすにおーくともいっぽんのあーくがはいる。	NO_LABEL
また、モノイドの性質も持つ。	また、ものいどのせいしつももつ。	NO_LABEL
