ナプシス株式会社は、スペインのオープンソースソフトウェアをビジネスとして展開する企業。	なぷしすかぶしきがいしゃわ、すぺいんのおーぷんそーすそふとうぇあをびじねすとしててんかいするきぎょー。	NO_LABEL
2003年設立。	にせんさんねんせつりつ。	NO_LABEL
POSシステムソフトウエア『nTPV』を主力商品としている。	NO_PRONOUNCE	NO_LABEL
また、LinuxクラスターやLinuxカーネルを専門とし、企業向けにセキュリティーやサーバなどのLinuxサービスを提供している。	また、りなっくすくらすたーやりなっくすかーねるをせんもんとし、きぎょーむけにせきゅりてぃーやさーばなどのりなっくすさーびすをていきょーしている。	NO_LABEL
