土肥 修司は、日本の医師、麻酔科医。	どいしゅーじわ、にっぽんのいし、ますいかい。	NO_LABEL
市立室蘭総合病院病院事業管理者。	しりつむろらんそーごーびょーいんびょーいんじぎょーかんりしゃ。	NO_LABEL
2010年3月まで岐阜大学副学長、同大学医学部麻酔・疼痛治療学教室教授。	NO_PRONOUNCE	NO_LABEL
第99回医師国家試験 副委員長及び第100回医師国家試験 試験委員長を務めた。	だいきゅうじゅうきゅうかいいしこっかしけんふくいーんちょーおよびだいひゃっかいいしこっかしけんしけんいーんちょーをつとめた。	NO_LABEL
プロレスラー力道山の死因に関して聞き取り調査を行い、著書『麻酔と蘇生』を発表。	NO_PRONOUNCE	NO_LABEL
1945年北海道生まれ、1969年札幌医科大学卒業。	せんきゅうひゃくよんじゅうごねんほっかいどーうまれ、せんきゅうひゃくろくじゅうきゅうねんさっぽろいかだいがくそつぎょー。	NO_LABEL
米国マイアミ大学麻酔科レジデント、エール大学リサーチフェロー、旭川赤十字病院麻酔科・集中治療部長、札幌医科大学講師・助教授、筑波大学助教授・手術部長、米国ジョンズ・ホプキンス大学招聘助教授を経て、1990年から岐阜大学麻酔・蘇生学教授、同附属病院集中治療部長、救急部長、手術部長を併任。	NO_PRONOUNCE	NO_LABEL
2004年麻酔・疼痛制御学教授、岐阜大学評議員、医学系研究科副科長、医学部副学部長、岐阜大学副学長。	NO_PRONOUNCE	NO_LABEL
2010年3月岐阜大学を退職し現在、市立室蘭総合病院病院事業管理者。	にせんじゅうねんさんがつぎふだいがくをたいしょくしげんざい、しりつむろらんそーごーびょーいんびょーいんじぎょーかんりしゃ。	NO_LABEL
他分担多数	たぶんたんたすー	NO_LABEL
