山之口 貘9月11日 - 1963年7月19日）は、沖縄県那覇区東町大門前出身の詩人である。	NO_PRONOUNCE	NO_LABEL
本名は、山口 重三郎。	ほんみょーわ、やまぐちしげさぶろー。	NO_LABEL
薩摩国口之島から、琉球王国へ移住した帰化人の子孫。	さつまのくにくちのしまから、りゅーきゅーおーこくえいじゅーしたきかじんのしそん。	NO_LABEL
197編の詩を書き4冊の詩集を出した。	NO_PRONOUNCE	NO_LABEL
名前の表記は、けもの偏の「獏」ではなくムジナ偏の「貘」である。	NO_PRONOUNCE	NO_LABEL
人生の様々な場面を純朴で澄んだ目線で描いた。	じんせいのさまざまなばめんをじゅんぼくですんだめせんでえがいた。	NO_LABEL
『妹へおくる手紙』、『生活の柄』、『自己紹介』、『結婚』、『頭をかかえる宇宙人』、『年越の詩』、『思ひ出』では上京して金に苦労した自己を赤裸々に描いた。	NO_PRONOUNCE	NO_LABEL
『借金を背負って』では借金の返済と借り入れを繰り返す生活を、『告別式』では借金を完済できずに死んだ自分の死後を描く。	NO_PRONOUNCE	NO_LABEL
決して悲惨や陰鬱ではなく寧ろ可笑しみがある詩である。	けっしてひさんやいんうつでわなくむしろおかしみがあるしである。	NO_LABEL
蹴られた猫が宇宙まで飛翔する『猫』、自分が地球に立つのではなく地球が自分に付着する『夜景』等、壮大で愉快な幻想を描いた楽しい詩も書いた。	NO_PRONOUNCE	NO_LABEL
『僕の詩』では、自己の詩の世界は実際の世界よりも大きいと主張している。	NO_PRONOUNCE	NO_LABEL
『思弁』や『雲の上』では戦争や衝突を繰り返す大国の理不尽さを、『鮪に鰯』ではビキニ核実験を描き、『貘』では獏に核兵器廃絶の願いを託した。	NO_PRONOUNCE	NO_LABEL
声高に世界平和や軍縮を叫ぶのではなく、そして皮肉や批判を込めるのではなく、あくまで静かに崇高な思いを込めた詩である。	こわだかにせかいへいわやぐんしゅくをさけぶのでわなく、そしてひにくやひはんをこめるのでわなく、あくまでしずかにすーこーなおもいをこめたしである。	NO_LABEL
故郷を描いた詩も書いた。	こきょーをえがいたしもかいた。	NO_LABEL
『沖縄風景』では軍鶏が飼われていた庭を、『がじまるの木』では大きなガジュマルの木を、『耳と波上風景』では美しい東シナ海を描いた。	NO_PRONOUNCE	NO_LABEL
『不沈母艦沖縄』では沖縄戦で無残に破壊された遠い故郷を想い、『沖縄よどこへ行く』では日中米などに翻弄された沖縄の歴史・文化を辿りつつ、アメリカ統治下に置かれた故郷の日本への復帰を切実に願った。	NO_PRONOUNCE	NO_LABEL
『弾を浴びた島』では久し振りの帰郷で、琉球語が消失した戦後の姿に直面した困惑を描いた。	NO_PRONOUNCE	NO_LABEL
フォーク歌手の高田渡が『生活の柄』『結婚』『鮪に鰯』など、山之口の詩の多くを歌った。	NO_PRONOUNCE	NO_LABEL
また、大工哲弘、石垣勝治、佐渡山豊、嘉手苅林次らのミュージシャンと共に山之口の詩に曲をつけたアルバム『貘-詩人・山之口貘をうたう』を作成した。	NO_PRONOUNCE	NO_LABEL
第百四十七銀行沖縄支店勤務の父・重珍、母カマトの三男として生まれる。	NO_PRONOUNCE	NO_LABEL
童名は三郎。	わらべめいわさぶろー。	NO_LABEL
1917年4月に沖縄県立第一中学校に入学する。	せんきゅうひゃくじゅうしちねんしがつにおきなわけんりつだいいちちゅうがっこーににゅーがくする。	NO_LABEL
学校では標準語を用いる様に指導されたが反発してわざと琉球語を用いた。	がっこーでわひょーじゅんごをもちいるよーにしどーされたがはんぱつしてわざとりゅーきゅーごをもちいた。	NO_LABEL
1918年から詩を書き始める。	せんきゅうひゃくじゅうはちねんからしをかきはじめる。	NO_LABEL
ウォルト・ホイットマン、島崎藤村、室生犀星の詩を読んだ。	うぉるとほいっとまん、しまざきとーそん、むろーさいせいのしをよんだ。	NO_LABEL
また大杉栄の影響を受けた。	またおーすぎさかえのえいきょーをうけた。	NO_LABEL
1921年に一中を退学する。	せんきゅうひゃくにじゅういちねんにいちちゅーをたいがくする。	NO_LABEL
1922年の秋に上京して日本美術学校に入学。	せんきゅうひゃくにじゅうにねんのあきにじょーきょーしてにっぽんびじゅつがっこーににゅーがく。	NO_LABEL
入学式の時に、南風原朝光と出会う。	にゅーがくしきのときに、はえばらともみつとであう。	NO_LABEL
一か月後に退学する。	いっかげつごにたいがくする。	NO_LABEL
1923年の春に家賃が払えなくなって下宿屋から夜逃げをし、一中の上級生の友人と駒込の家に移住する。	せんきゅうひゃくにじゅうさんねんのはるにやちんがはらえなくなってげしゅくやからよにげをし、いちちゅーのじょーきゅーせいのゆーじんとこまごめのいえにいじゅーする。	NO_LABEL
同年9月1日に関東大震災で罹災し無賃で機関車と船に乗って帰郷する。	どーねんくがつついたちにかんとーだいしんさいでりさいしむちんできかんしゃとふねにのってききょーする。	NO_LABEL
父が事業に失敗し自宅も売却されて、家族は離散していた。	ちちがじぎょーにしっぱいしじたくもばいきゃくされて、かぞくわりさんしていた。	NO_LABEL
石川啄木、若山牧水の歌、ラビンドラナート・タゴールの詩を読んだ。	いしかわたくぼく、わかやまぼくすいのうた、らびんどらなーとたごーるのしをよんだ。	NO_LABEL
1924年の夏に再び上京する。	せんきゅうひゃくにじゅうよねんのなつにふたたびじょーきょーする。	NO_LABEL
1926年から書籍取次店店員や汲み取り作業員等の様々な仕事を勤め、家が無いので公園や知人の家で寝泊りした。	せんきゅうひゃくにじゅうろくねんからしょせきとりつぎてんてんいんやくみとりさぎょーいんとーのさまざまなしごとをつとめ、いえがないのでこーえんやちじんのいえでねとまりした。	NO_LABEL
同年11月に佐藤春夫と知り合う。	どーねんじゅーいちがつにさとーはるおとしりあう。	NO_LABEL
1927年、佐藤から高橋新吉を紹介される。	せんきゅうひゃくにじゅうななねん、さとーからたかはししんきちをしょーかいされる。	NO_LABEL
1929年から東京鍼灸医学研究所の事務員になる。	せんきゅうひゃくにじゅうきゅうねからとーきょーしんきゅーいがくけんきゅーじょのじむいんになる。	NO_LABEL
1930年に伊波普猷の家に住まわせて貰う。	せんきゅうひゃくさんじゅうねんにいはふゆーのいえにすまわせてもらう。	NO_LABEL
1931年に『改造』4月号で初めて雑誌で詩を発表する。	NO_PRONOUNCE	NO_LABEL
以降は様々な雑誌に詩を発表する。	いこーわさまざまなざっしにしをはっぴょーする。	NO_LABEL
1932年に金子光晴と知り合う。	せんきゅうひゃくさんじゅうにねんにかねこみつはるとしりあう。	NO_LABEL
1933年、貘をモデルとした佐藤春夫の小説『放浪三昧』が脱稿される。	NO_PRONOUNCE	NO_LABEL
1936年に鍼灸医学研究所を辞職。	せんきゅうひゃくさんじゅうろくねにしんきゅーいがくけんきゅーじょをじしょく。	NO_LABEL
半年ほど隅田川のダルマ船に乗る。	はんとしほどすみだがわのだるませんにのる。	NO_LABEL
1937年10月に金子の立会いの下で見合いをして同年12月に安田静江と結婚する10月）。	NO_PRONOUNCE	NO_LABEL
1938年8月に初の詩集『思弁の苑』を発表する。	NO_PRONOUNCE	NO_LABEL
1939年6月から東京府職業紹介所に勤める。	せんきゅうひゃくさんじゅうきゅうねんろくがつからとーきょーふしょくぎょーしょーかいしょにつとめる。	NO_LABEL
1940年12月、第二詩集『山之口貘詩集』を発表。	NO_PRONOUNCE	NO_LABEL
1944年12月、妻静江の実家茨城へ疎開。	せんきゅうひゃくよんじゅうよねんじゅーにがつ、つましずえのじっかいばらきえそかい。	NO_LABEL
1948年3月に紹介所を辞職し以降は執筆活動に専念する。	せんきゅうひゃくよんじゅうはちねさんがつにしょーかいしょをじしょくしいこーわしっぴつかつどーにせんねんする。	NO_LABEL
同年に火野葦平と知り合う。	どーねんにひのあしへいとしりあう。	NO_LABEL
1958年7月、第三詩集『定本山之口貘詩集』を発表。	NO_PRONOUNCE	NO_LABEL
同年11月6日に34年振りに沖縄に帰る。	どーねんじゅーいちがつむいかにさんじゅうよんねんふりにおきなわにかえる。	NO_LABEL
首里高校で帰郷記念の座談会が行われ大城立裕等が出席した。	しゅりこーこーでききょーきねんのざだんかいがおこなわれおおしろたつひろとーがしゅっせきした。	NO_LABEL
1959年1月6日に東京の自宅に帰る。	せんきゅうひゃくごじゅうきゅうねんいちがつむいかにとーきょーのじたくにかえる。	NO_LABEL
胃癌を発病して1963年3月に入院、同年7月16日に手術を受けるが、7月19日に新宿区戸塚の病院で死去する。	いがんをはつびょーしてせんきゅうひゃくろくじゅうさんねんさんがつににゅーいん、どーねんしちがつじゅうろくにちにしゅじゅつをうけるが、しちがつじゅうきゅうにちにしんじゅくくとつかのびょーいんでしきょする。	NO_LABEL
59歳没。	ごじゅうきゅうさいぼつ。	NO_LABEL
葬儀委員長は金子が務めた。	そーぎいーんちょーわかねこがつとめた。	NO_LABEL
墓地は東京都立八柱霊園。	ぼちわとーきょーとりつやはしられいえん。	NO_LABEL
法名は、南溟院釋重思居士。	NO_PRONOUNCE	NO_LABEL
1964年12月、第四詩集『鮪に鰯』が刊行される。	NO_PRONOUNCE	NO_LABEL
