ハンス・ガル- 1987年10月3日 エディンバラ）はオーストリアおよびスコットランドの作曲家・指揮者・ピアニスト・音楽学者。	NO_PRONOUNCE	NO_LABEL
後半生はナチスを逃れてイギリスに渡った。	こーはんせいわなちすをのがれていぎりすにわたった。	NO_LABEL
シェーンベルクより15歳若いが、いわばブラームスの孫弟子として、ウィーンの後期ロマン主義音楽の薫り高い伝統を守り抜くことに努めた。	しぇーんべるくよりじゅうごさいわかいが、いわばぶらーむすのまごでしとして、うぃーんのこーきろまんしゅぎおんがくのかおりたかいでんとーをまもりぬくことにつとめた。	NO_LABEL
ブルックナーの心酔者で同様の立場をとったのが、ヨーゼフ・マルクスである。	ぶるっくなーのしんすいしゃでどーよーのたちばをとったのが、よーぜふまるくすである。	NO_LABEL
ハンガリーの東欧系ユダヤ人医師の家庭に生れる。	はんがりーのとーおーけいゆだやじんいしのかていにうまれる。	NO_LABEL
1908年から1912年までチェルノヴィッツ出身のオイゼビウス・マンディチェフスキに作曲を師事すると同時に、1913年までウィーン大学で音楽学を専攻する。	NO_PRONOUNCE	NO_LABEL
すでに1909年から、対位法および和声法の教師としてウィーン音楽アカデミーに勤めていた。	すでにせんきゅうひゃくきゅうねんから、たいいほーおよびわせいほーのきょーしとしてうぃーんおんがくあかでみーにつとめていた。	NO_LABEL
1919年からウィーン大学で音楽理論の講師として勤務。	せんきゅうひゃくじゅうきゅうねんからうぃーんだいがくでおんがくりろんのこーしとしてきんむ。	NO_LABEL
1929年にマインツ高等音楽学校の校長に就任すべくオーストリアを離れる。	せんきゅうひゃくにじゅうきゅうねにまいんつこーとーおんがくがっこーのこーちょーにしゅーにんすべくおーすとりあをはなれる。	NO_LABEL
しかし、早くも1933年にナチ党の権力掌握にともない、血筋を理由にドイツを追われる。	しかし、はやくもせんきゅうひゃくさんじゅうさんねになちとーのけんりょくしょーあくにともない、ちすじをりゆーにどいつをおわれる。	NO_LABEL
さしあたってウィーンで指揮者として働くが、1938年にナチス・ドイツによるオーストリア併合のため、イングランドに移住した。	さしあたってうぃーんでしきしゃとしてはたらくが、せんきゅうひゃくさんじゅうはちねになちすどいつによるおーすとりあへいごーのため、いんぐらんどにいじゅーした。	NO_LABEL
ようやく1945年にエディンバラ大学に音楽理論、対位法および作曲の講師として職を得る。	よーやくせんきゅうひゃくよんじゅうごねんにえでぃんばらだいがくにおんがくりろん、たいいほーおよびさっきょくのこーしとしてしょくをえる。	NO_LABEL
さらに、エディンバラ室内管弦楽団の指揮者も務めた。	さらに、えでぃんばらしつないかんげんがくだんのしきしゃもつとめた。	NO_LABEL
その後1965年に退任後もイギリスで余生を送った。	そのごせんきゅうひゃくろくじゅうごねんにたいにんごもいぎりすでよせいをおくった。	NO_LABEL
ガルは1915年と1958年に2度オーストリア政府より叙勲され、1926年にはウィーン市から作曲賞を、1964年には大英帝国勲位を、1971年にはオーストリア十字勲章を授与された。	がるわせんきゅうひゃくじゅうごねんとせんきゅうひゃくごじゅうはちねんににどおーすとりあせいふよりじょくんされ、せんきゅうひゃくにじゅうろくねんにわうぃーんしからさっきょくしょーを、せんきゅうひゃくろくじゅうよねんにわだいえいていこくくんいを、せんきゅうひゃくななじゅういちねんにわおーすとりあじゅーじくんしょーをじゅよされた。	NO_LABEL
ガルはかなり早くから個人様式を発達させ、生涯にわたってそれに忠実であり続けた。	がるわかなりはやくからこじんよーしきをはったつさせ、しょーがいにわたってそれにちゅーじつでありつずけた。	NO_LABEL
ガルにとっておそらく最も重要な作曲家はブラームスであり、ガルの音楽様式はブラームス作品から形成された。	がるにとっておそらくもっともじゅーよーなさっきょくかわぶらーむすであり、がるのおんがくよーしきわぶらーむすさくひんからけいせいされた。	NO_LABEL
ガルは作曲技巧を巧みにコントロールした。	がるわさっきょくぎこーをたくみにこんとろーるした。	NO_LABEL
その上、旋律能力にもたいへん恵まれ、この意味で、シューベルト以来のウィーン楽派の伝統に立っている。	そのうえ、せんりつのーりょくにもたいへんめぐまれ、このいみで、しゅーべるといらいのうぃーんらくはのでんとーにたっている。	NO_LABEL
そもそも隠し立てようのない伝統主義者であり、最後の作品まで調性を保ち続けた。	そもそもかくしだてよーのないでんとーしゅぎしゃであり、さいごのさくひんまでちょーせいをたもちつずけた。	NO_LABEL
モダニズムの風潮は、彼には馴染めぬままだった。	もだにずむのふーちょーわ、かれにわなじめぬままだった。	NO_LABEL
ガルの音楽語法はリヒャルト・シュトラウスほど進歩的ではないが、その影響力は歌劇において歴然と認められる。	がるのおんがくごほーわりひゃるとしゅとらうすほどしんぽてきでわないが、そのえいきょーりょくわかげきにおいてれきぜんとみとめられる。	NO_LABEL
19世紀末の音楽と比べると、半音階的和声法もさして顕著ではない。	じゅうきゅうせいきまつのおんがくとくらべると、はんおんかいてきわせいほーもさしてけんちょでわない。	NO_LABEL
ガルはその代わりに、ますます過去の音楽に心を開き、J.S.バッハに影響された豊かなポリフォニーや、ウィーン古典派から派生した音楽語法の明晰さといったものを音楽表現に利用した。	がるわそのかわりに、ますますかこのおんがくにこころをひらき、じぇーえすばっはにえいきょーされたゆたかなぽりふぉにーや、うぃーんこてんはからはせいしたおんがくごほーのめいせきさといったものをおんがくひょーげんにりよーした。	NO_LABEL
ガル作品には、しばしばユーモラスな要素が見出される。	がるさくひんにわ、しばしばゆーもらすなよーそがみいだされる。	NO_LABEL
音楽学者としてのガルは、たとえばウィーン古典派について活躍し、この主題に関する重要な貢献を行った。	おんがくがくしゃとしてのがるわ、たとえばうぃーんこてんはについてかつやくし、このしゅだいにかんするじゅーよーなこーけんをおこなった。	NO_LABEL
