色冠または青冠は、百人一首の絵札を利用したカードゲームである。	いろかんむりまたわあおかんむりわ、ひゃくにんいっしゅのえさつをりよーしたかーどげーむである。	NO_LABEL
百人一首の絵札を利用する。	ひゃくにんいっしゅのえさつをりよーする。	NO_LABEL
絵札は、描かれている人物によって以下のように分類される。	えさつわ、えがかれているじんぶつによっていかのよーにぶんるいされる。	NO_LABEL
2人対2人の4人で行われる。	ふたりたいふたりのよにんでおこなわれる。	NO_LABEL
パートナーが向かいに来るように席を決める。	ぱーとなーがむかいにくるよーにせきをきめる。	NO_LABEL
ただし、天智天皇と持統天皇は特殊なカードである。	ただし、てんじてんのーとじとうてんのーわとくしゅなかーどである。	NO_LABEL
両者とも、他の札の代わりに使用することができる。	りょーしゃとも、たのさつのかわりにしよーすることができる。	NO_LABEL
また、天智天皇を出された場合、次の人はこれを受けることができない。	また、てんじてんのーをだされたばあい、つぎのひとわこれをうけることができない。	NO_LABEL
持統天皇が出された場合、次の人は天智天皇以外出すことはできない。	じとうてんのーがだされたばあい、つぎのひとわてんじてんのーいがいだすことわできない。	NO_LABEL
