ダミアン・モリは、オーストラリア・メルボルン出身の元サッカー選手、指導者。	NO_PRONOUNCE	NO_LABEL
ポジションはフォワード。	ぽじしょんわふぉわーど。	NO_LABEL
オーストラリア代表歴代最多得点記録を保持していた。	おーすとらりあだいひょーれきだいさいたとくてんきろくをほじしていた。	NO_LABEL
主にオーストラリアの国内リーグNSLでプレー。	NO_PRONOUNCE	NO_LABEL
1995年から2003年にかけて5度の得点王、2度のジョニー・ウォーレン・メダルに輝いた。	NO_PRONOUNCE	NO_LABEL
1996年には、キックオフ直後にセンターサークルからそのままロングシュートを決め、開始3.69秒という世界最速ゴール記録を作っている。	NO_PRONOUNCE	NO_LABEL
1997年にドイツ・ブンデスリーガのボルシアMGに移籍するが、わずか6試合の出場で無得点に終わった。	NO_PRONOUNCE	NO_LABEL
1992年のバルセロナオリンピックにネディエリコ・ゼリッチ、トニー・ポポヴィッチ、スティーブ・コリカらと共に出場。	NO_PRONOUNCE	NO_LABEL
グループステージのデンマーク戦でゴールを決めるなど、オーストラリアの準決勝進出に貢献した。	ぐるーぷすてーじのでんまーくせんでごーるをきめるなど、おーすとらりあのじゅんけっしょーしんしゅつにこーけんした。	NO_LABEL
1992年9月4日のソロモン諸島戦でA代表デビュー。	せんきゅうひゃくきゅうじゅうにねんくがつよっかのそろもんしょとーせんでえいだいひょーでびゅー。	NO_LABEL
以後10年間に渡って通算45試合に出場し、29得点を挙げた。	いごじゅうねんかんにわたってつーさんよんじゅうごしあいにしゅつじょーし、にじゅうきゅうとくてんをあげた。	NO_LABEL
2014年にティム・ケーヒルに抜かれるまで、オーストラリア代表歴代最多得点記録を保持していた。	にせんじゅうよねんにてぃむけーひるにぬかれるまで、おーすとらりあだいひょーれきだいさいたとくてんきろくをほじしていた。	NO_LABEL
アデレード・シティFCの監督を務める。	NO_PRONOUNCE	NO_LABEL
