山田屋 庄次郎は、江戸時代末期から明治時代にかけての地本問屋。	やまだやしょーじろーわ、えどじだいまっきからめいじじだいにかけてのじほんとんや。	NO_LABEL
錦樹堂、錦橋堂、山庄と号す 。	にしきじゅどー、にしきばしどー、やましょーとごーす。	NO_LABEL
文化から明治にかけて歌川広重、豊原国周の錦絵を出版している。	ぶんかからめいじにかけてうたがわひろしげ、とよはらくにちかのにしきえをしゅっぱんしている。	NO_LABEL
始め中橋広小路で、後に安政以降、南小伝馬町2丁目で営業している。	はじめなかはしひろこーじで、のちにやすまさいこー、みなみこでんまちょーにちょーめでえいぎょーしている。	NO_LABEL
