Hire'sはアメリカ合衆国のルートビア・ブランドである。	NO_PRONOUNCE	NO_LABEL
読み方はハイアーズ、ハイレスとあり、日本ではあまり普及しなかったブランドである。	よみかたわはいあーず、はいれすとあり、にっぽんでわあまりふきゅーしなかったぶらんどである。	NO_LABEL
1876年にチャールズ・エルマー・ハイレスが名字をブランドに掲げたルートビアメーカーを発足。	NO_PRONOUNCE	NO_LABEL
独特のハーブ酵母と糖分を用いた飲料で、その後禁酒法も相まって全米に広がっていった。	どくとくのはーぶこーぼととーぶんをもちいたいんりょーで、そのごきんしゅほーもあいまってぜんべいにひろがっていった。	NO_LABEL
1989年にキャドバリー・シュウェップス社に買収された。	せんきゅうひゃくはちじゅうきゅうねんにきゃどばりーしゅうぇっぷすしゃにばいしゅーされた。	NO_LABEL
日本でも一時期沖縄県のみで製造販売され、沖縄バヤリースが受け持っていたものの短期間で撤廃し、現在ではかろうじて輸入されている状態だが、沖縄県以外では手に入りにくい。	にっぽんでもいちじきおきなわけんのみでせいぞーはんばいされ、おきなわばやりーすがうけもっていたもののたんきかんでてっぱいし、げんざいでわかろーじてゆにゅーされているじょーたいだが、おきなわけんいがいでわてにはいりにくい。	NO_LABEL
