レンスクは、ロシア連邦サハ共和国にある都市である。	れんすくわ、ろしあれんぽーさはきょーわこくにあるとしである。	NO_LABEL
レナ川上流にある港湾都市で、レナ石柱自然公園があることでも知られる。	れなかわかみりゅーにあるこーわんとしで、れなせきちゅーしぜんこーえんがあることでもしられる。	NO_LABEL
サハ共和国の南西部に位置し、レンスク地区の中心地となっている。	さはきょーわこくのなんせいぶにいちし、れんすくちくのちゅーしんちとなっている。	NO_LABEL
人口は24,558である。	NO_PRONOUNCE	NO_LABEL
レンスクの北方には世界有数のダイアモンド鉱山ミールヌイやウダーチヌイがあり、レンスクはそのベースキャンプとしてダイアモンド採掘企業アルローサの支社が置かれている。	れんすくのほっぽーにわせかいゆーすーのだいあもんどこーざんみーるぬいやうだーちぬいがあり、れんすくわそのべーすきゃんぷとしてだいあもんどさいくつきぎょーあるろーさのししゃがおかれている。	NO_LABEL
その他、林業、建材、食品などの企業もある。	そのた、りんぎょー、けんざい、しょくひんなどのきぎょーもある。	NO_LABEL
中心市街はレナ川の北岸に広がっており、レナ高地の南縁にあたる。	ちゅーしんしがいわれながわのほくがんにひろがっており、れなこーちのみなみえんにあたる。	NO_LABEL
レンスクの標高は比較的低く、周りは緩やかな盆地状となっており、気候はシベリアの典型的な内陸性気候の傾向が強い。	れんすくのひょーこーわひかくてきひくく、まわりわゆるやかなぼんちじょーとなっており、きこーわしべりあのてんけいてきなないりくせいきこーのけいこーがつよい。	NO_LABEL
レナ川は水運の面でも使われており、川を上るとバイカル湖などに行くことができ、川を下ると800km東にあるサハ共和国の首都ヤクーツクなどに行くことができる。	れながわわすいうんのめんでもつかわれており、かわをのぼるとばいかるこなどにいくことができ、かわをくだるとはっぴゃくきろめーとるひがしにあるさはきょーわこくのしゅとやくーつくなどにいくことができる。	NO_LABEL
川の交通は主に貨物船に使用されており、沿岸には石油基地が設けられている。	かわのこーつーわおもにかもつせんにしよーされており、えんがんにわせきゆきちがもーけられている。	NO_LABEL
道路は東の首都ヤクーツク方面、北のヴィリュイ川流域方面へと伸びているが、レナ川北岸を通って西へ行く道路は100km先のニュヤで止まってしまっている。	NO_PRONOUNCE	NO_LABEL
2006年現在、サハ共和国で4番目に大きい都市となっているが、交通手段は小さな空港、レナ川の水運、ヤクーツクやサハ共和国西部の集落を結ぶ道路しかないため、ロシア政府はヤクーツク、トンモト方面とレンスクを結ぶ鉄道を通す計画を発表している。	にせんろくねんげんざい、さはきょーわこくでよんばんめにおーきいとしとなっているが、こーつーしゅだんわちーさなくーこー、れながわのすいうん、やくーつくやさはきょーわこくせいぶのしゅーらくをむすぶどーろしかないため、ろしあせいふわやくーつく、とんもとほーめんとれんすくをむすぶてつどーをとーすけいかくをはっぴょーしている。	NO_LABEL
　	NO_PRONOUNCE	NO_LABEL
2012年7月3日、レナ石柱自然公園は世界遺産に登録された。	にせんじゅうにねんしちがつみっか、れなせきちゅーしぜんこーえんわせかいいさんにとーろくされた。	NO_LABEL
現在のレンスクの場所にはエヴェン人の集落ムフトゥイがあったが、1663年にバイカル湖方面から河を下って来たロシア人がこの地に入植した。	NO_PRONOUNCE	NO_LABEL
ムフトゥイ改めムフトゥヤは18世紀のヴィトゥス・ベーリングによる第二次カムチャツカ探検の基地として機能し、河港などが作られた。	NO_PRONOUNCE	NO_LABEL
19世紀から20世紀にかけては政治犯の流刑地にもなった。	じゅうきゅうせいきからにじっせいきにかけてわせいじはんのるけいちにもなった。	NO_LABEL
1950年代には北のヴィリュイ川流域でダイアモンド鉱山の発見と開発があり、ムフトゥヤにも影響が及んだ。	NO_PRONOUNCE	NO_LABEL
ミールヌイ鉱山はムフトゥヤから250kmの位置にあり、ムフトゥヤは最寄りの町としてミールヌイ開発の基地になった。	みーるぬいこーざんわむふとぅやからにひゃくごじゅうきろめーとるのいちにあり、むふとぅやわもよりのまちとしてみーるぬいかいはつのきちになった。	NO_LABEL
ミールヌイとの間には道路も建設された。	みーるぬいとのまにわどーろもけんせつされた。	NO_LABEL
1963年には市に昇格し、この時レンスクと改名された。	せんきゅうひゃくろくじゅうさんねんにわしにしょーかくし、このときれんすくとかいめいされた。	NO_LABEL
1998年には雪解け水や氷によるレナ川の大洪水が起こり大きな被害を受け50名近くが死亡・行方不明となった。	NO_PRONOUNCE	NO_LABEL
500戸近くの家屋が全壊となり、復旧活動を行ってきた。	NO_PRONOUNCE	NO_LABEL
2001年春にも大洪水が起こって市街地が水没し、建物の大半が破壊された。	にせんいちねんはるにもだいこーずいがおこってしがいちがすいぼつし、たてもののたいはんがはかいされた。	NO_LABEL
現在のレンスク市街は、洪水後にほぼ完全に作りなおされた街並みである。	げんざいのれんすくしがいわ、こーずいごにほぼかんぜんにつくりなおされたまちなみである。	NO_LABEL
