張邵は、東晋から南朝宋にかけての官僚。	NO_PRONOUNCE	NO_LABEL
字は茂宗。	じわしげむね。	NO_LABEL
本貫は呉郡呉県。	ほんがんわくれぐんくれけん。	NO_LABEL
張敞の子として生まれた。	ちょーしょーのことしてうまれた。	NO_LABEL
はじめ晋の琅邪国内史王誕の下で龍驤府功曹となった。	NO_PRONOUNCE	NO_LABEL
桓玄が王誕を広州に左遷すると、王誕と親しかった者はみな離れたが、ひとり張邵だけが情誼を捨てず、涙を流して見送った。	NO_PRONOUNCE	NO_LABEL
変乱が相次ぎ、飢饉が発生すると、張邵は王誕の妻子のために食糧を送った。	NO_PRONOUNCE	NO_LABEL
桓玄が帝位を簒奪すると、張邵の父の張敞は尚書となったが、答弁を誤ったために廷尉卿に降格された。	NO_PRONOUNCE	NO_LABEL
劉裕が桓玄を討つために起兵すると、張邵は父の誠実を劉裕に訴え、劉裕は張敞に対する悪口を吐いた者は処罰するよう部下に命じた。	NO_PRONOUNCE	NO_LABEL
後に張敞は呉郡太守となった。	ごにちょーしょーわくれぐんたいしゅとなった。	NO_LABEL
王謐が揚州刺史となると、張邵は召されて揚州主簿となった。	NO_PRONOUNCE	NO_LABEL
劉毅が亜相となって権勢を握ったが、ひとり張邵は近づこうとしなかった。	NO_PRONOUNCE	NO_LABEL
劉穆之が張邵のことを劉裕に報告すると、張邵はますます劉裕に信任されて、太尉参軍に任じられ、長流賊曹を代行した。	NO_PRONOUNCE	NO_LABEL
410年、盧循が建康に迫ると、張邵は劉裕の命を受けて南城を守った。	NO_PRONOUNCE	NO_LABEL
412年、劉藩が処刑されると、張邵はその夜のうちに大軍を出動させるための舟の準備をさせた。	NO_PRONOUNCE	NO_LABEL
朝になって劉裕が劉毅を討つべく出動の準備を命じると、すぐさま軍が応じたため、その早さをいぶかしんで訊ねると、軍官僚たちは昨夜のうちに張邵の命を受けていたことを報告した。	NO_PRONOUNCE	NO_LABEL
劉裕は張邵が自分と同じ憂慮を共有していたことを知った。	NO_PRONOUNCE	NO_LABEL
413年、劉裕の嫡子の劉義符が征虜府を開くと、張邵はその下で録事参軍となった。	NO_PRONOUNCE	NO_LABEL
劉義符が中軍将軍の号を受けると、張邵はその下で諮議参軍に転じ、記室を兼ねた。	NO_PRONOUNCE	NO_LABEL
416年、劉裕が北伐を開始すると、劉穆之と張邵に留守を委ねた。	NO_PRONOUNCE	NO_LABEL
青州刺史の檀祗が広陵に駐屯していたが、滁中で反乱が起こり、広陵を襲撃された。	NO_PRONOUNCE	NO_LABEL
劉穆之は敗北の場合をおそれて建康から軍を出動させようとしたが、張邵は檀祗兄弟を信任してその必要はないと主張した。	NO_PRONOUNCE	NO_LABEL
張邵の予見どおり檀祗は広陵を守りきった。	NO_PRONOUNCE	NO_LABEL
417年、劉穆之が死去したため、建康の朝廷は動揺し、徐羨之にその任を代行させようとした。	よんひゃくじゅうななねん、りゅーぼくしがしきょしたため、けんこーのちょーていわどーよーし、じょともこれにそのにんをだいこーさせようとした。	NO_LABEL
張邵は劉義符を立てて北方にいる劉裕と相談するよう主張し、朝廷での議論を劉裕に報告した。	NO_PRONOUNCE	NO_LABEL
418年、劉裕が劉義符を荊州に赴任させようとしたが、張邵は嫡子を地方に送るのはよろしくないと進言し、聞き入れられた。	NO_PRONOUNCE	NO_LABEL
劉義隆が中郎将・荊州刺史となると、張邵はその下で司馬となり、南郡相を兼ねて、荊州の事務を決裁した。	NO_PRONOUNCE	NO_LABEL
420年、劉裕が帝位につくと、張邵は功績により臨沮伯に封じられた。	NO_PRONOUNCE	NO_LABEL
422年、荊州が分割されて湘州が立てられると、張邵は湘州刺史となった。	NO_PRONOUNCE	NO_LABEL
劉裕は代行の役所を置く考えであったが、張邵が長沙に代官を置くのは統治の妨げになると主張したため、劉裕はその意見を聞き入れた。	NO_PRONOUNCE	NO_LABEL
426年、謝晦が反乱を起こすと、張邵に書簡を送ってきたが、張邵は書簡の函を開くこともせず文帝のもとに届け出た。	NO_PRONOUNCE	NO_LABEL
428年、征虜将軍の号を受け、寧蛮校尉・雍州刺史を兼ね、都督を加えられた。	NO_PRONOUNCE	NO_LABEL
襄陽に赴任すると、城壁を築き、河川の堤防や堰を改修し、新田数千頃を開墾した。	じょーよーにふにんすると、じょーへきをきずき、かせんのていぼーやせきをかいしゅーし、しんでんすーせんごろをかいこんした。	NO_LABEL
丹川・淅川の少数民族がたびたび反乱を起こしていたため、張邵はその首領を誘って騙し討ちにし、その徒党を襲撃した。	NO_PRONOUNCE	NO_LABEL
このため諸族の信頼を失い、反乱はむしろ多発して、水陸の交通は寸断された。	このためしょぞくのしんらいをうしない、はんらんわむしろたはつして、すいりくのこーつーわすんだんされた。	NO_LABEL
少数民族たちは張邵の子の張敷が襄陽から建康に帰るところを襲撃して拉致しようと計画した。	NO_PRONOUNCE	NO_LABEL
たまたま柔然の使者が建康に向かっていたが、これが張敷と勘違いされて捕らえられた。	たまたまじゅうぜんのししゃがけんこーにむかっていたが、これがちょーふとかんちがいされてとらえられた。	NO_LABEL
この事件のため、張邵は揚烈将軍に降格された。	NO_PRONOUNCE	NO_LABEL
江夏王劉義恭が江陵に駐屯すると、張邵はその下で撫軍長史となり、持節・南蛮校尉をつとめた。	NO_PRONOUNCE	NO_LABEL
雍州で245万の不正な私財を蓄えた罪により、廷尉に取り調べられて免官され、爵位と封土を剥奪された。	NO_PRONOUNCE	NO_LABEL
後に呉興郡太守となり、死去した。	ごにごこーぐんたいしゅとなり、しきょした。	NO_LABEL
再び爵位を贈られた。	ふたたびしゃくいをおくられた。	NO_LABEL
諡は簡伯といった。	おくりなわかんはくといった。	NO_LABEL
