ファンタジアンは1985年にクリスタルソフトが発売した8ビットパソコン用のファンタジーRPG。	ふぁんたじあんわせんきゅうひゃくはちじゅうごねんにくりすたるそふとがはつばいしたはちびっとぱそこんよーのふぁんたじーあーるぴーじー。	NO_LABEL
日本産のコンピュータRPGとしてはかなり初期の作品である。	にほんさんのこんぴゅーたあーるぴーじーとしてわかなりしょきのさくひんである。	NO_LABEL
PC-8800シリーズ用とX1の2機種で発売された。	NO_PRONOUNCE	NO_LABEL
供給メディアはカセットテープと5インチ2Dのフロッピーディスク。	きょーきゅーめでぃあわかせっとてーぷとごいんちつーでぃーのふろっぴーでぃすく。	NO_LABEL
また、現在レトロゲームダウンロードサイトプロジェクトEGGにてWindowsへの移植版が販売中。	また、げんざいれとろげーむだうんろーどさいとぷろじぇくとえっぐにてうぃんどうずえのいしょくばんがはんばいちゅー。	NO_LABEL
ウィザードリィシリーズを基にした3Dダンジョンゲームだが、戦闘になるとウルティマシリーズのようにトップビューの戦闘マップが表示され、敵の動きにあわせてプレイヤーキャラクターを移動して攻撃するリアルタイム性のあるタクティカルコンバットが繰り広げられる。	うぃざーどりぃしりーずをもとにしたすりーでぃーだんじょんげーむだが、せんとーになるとうるてぃましりーずのよーにとっぷびゅーのせんとーまっぷがひょーじされ、てきのうごきにあわせてぷれいやーきゃらくたーをいどーしてこーげきするりあるたいむせいのあるたくてぃかるこんばっとがくりひろげられる。	NO_LABEL
このゲームは初期のファンタジーコンピュータRPGにしては珍しくキャラクターの種族や性別、職業などテーブルトークファンタジーRPGのように細かな設定をすることができた。	このげーむわしょきのふぁんたじーこんぴゅーたあーるぴーじーにしてわめずらしくきゃらくたーのしゅぞくやせいべつ、しょくぎょーなどてーぶるとーくふぁんたじーあーるぴーじーのよーにこまかなせっていをすることができた。	NO_LABEL
1989年に続編アドヴァンスト・ファンタジアンも発売された。	NO_PRONOUNCE	NO_LABEL
種族は７種類ありこの中から選ぶことができる。	しゅぞくわななしゅるいありこのなかからえらぶことができる。	NO_LABEL
種族や性別によって就くことができない職業もある。	しゅぞくやせいべつによってつくことができないしょくぎょーもある。	NO_LABEL
職業は戦士系と盗賊系、僧侶系、魔術師系の4種類8職業がある。	NO_PRONOUNCE	NO_LABEL
職業はそれぞれ下位職業と上位職業があり、下位職業のキャラクターがレベル10に達していてそれぞれの特殊アイテムがあれば上位職業に昇格することができる。	しょくぎょーわそれぞれかいしょくぎょーとじょーいしょくぎょーがあり、かいしょくぎょーのきゃらくたーがれべるてんにたっしていてそれぞれのとくしゅあいてむがあればじょーいしょくぎょーにしょーかくすることができる。	NO_LABEL
このことをこのゲームではクラスチェンジと呼んでいる。	このことをこのげーむでわくらすちぇんじとよんでいる。	NO_LABEL
クラスチェンジすると能力値は種族ごとの基本値に経験値は0になってしまう。	NO_PRONOUNCE	NO_LABEL
また種族によっては上位職業になることができないこともある。	またしゅぞくによってわじょーいしょくぎょーになることができないこともある。	NO_LABEL
Battler、Fighter。	NO_PRONOUNCE	NO_LABEL
クラスチェンジにはHelm of Aslanが必要である。	NO_PRONOUNCE	NO_LABEL
ただしHalflingは男女ともにFighterにクラスチェンジできない。	NO_PRONOUNCE	NO_LABEL
Thief、Robber。	NO_PRONOUNCE	NO_LABEL
クラスチェンジにはCrystal Idolが必要である。	NO_PRONOUNCE	NO_LABEL
ただしHalf-Elfの女性とElfの男女はRobberにクラスチェンジできない。	NO_PRONOUNCE	NO_LABEL
Monk、Clergy。	NO_PRONOUNCE	NO_LABEL
クラスチェンジにはStaff of Sageが必要である。	NO_PRONOUNCE	NO_LABEL
ただしHumanの女性とHalf-Orcの男女はClergyにクラスチェンジできない。	NO_PRONOUNCE	NO_LABEL
Illusionist、Magician。	NO_PRONOUNCE	NO_LABEL
クラスチェンジにはRing of Galdが必要である。	NO_PRONOUNCE	NO_LABEL
ただしDwarfの男女とGnomeの男性はMagicianにクラスチェンジできない。	NO_PRONOUNCE	NO_LABEL
ファンタジアンの呪文はキャラクターのレベルが上がると同じ呪文でもMPの消費量が減少していく。	ふぁんたじあんのじゅもんわきゃらくたーのれべるがあがるとおなじじゅもんでもえむぴーのしょーひりょーがげんしょーしていく。	NO_LABEL
またクラスチェンジし上級職業になると一部の呪文を除き効果が倍になる。	またくらすちぇんじしじょーきゅーしょくぎょーになるといちぶのじゅもんをのぞきこーかがばいになる。	NO_LABEL
基本的に敵に対して攻撃をする呪文である。	きほんてきにてきにたいしてこーげきをするじゅもんである。	NO_LABEL
他に防御力を高める呪文などがある。	たにぼーぎょりょくをたかめるじゅもんなどがある。	NO_LABEL
魔術系クラスのキャラクターしか唱えられない。	まじゅつけいくらすのきゃらくたーしかとなえられない。	NO_LABEL
クラスチェンジすると呪文の先頭にMaが付く。	NO_PRONOUNCE	NO_LABEL
基本的にキャラクターの回復・防御力向上・復活を行う呪文である。	NO_PRONOUNCE	NO_LABEL
クラスチェンジすると一呪文の先頭にLaが付く。	NO_PRONOUNCE	NO_LABEL
このゲームの目的は地下迷宮に潜んでいる大賢者ガザールによって傷ついた魔王ビルアデスを倒し、Elven Seedを解き放つことである。	NO_PRONOUNCE	NO_LABEL
このゲームは青地に白の独自のウインドウシステムを持っていて、テンキーを中心とした操作体系となっており、名前入力以外はテンキーとその周辺のキーで操作ができるようになっていた。	このげーむわあおじにしろのどくじのういんどうしすてむをもっていて、てんきーをちゅーしんとしたそーさたいけいとなっており、なまえにゅーりょくいがいわてんきーとそのしゅーへんのきーでそーさができるよーになっていた。	NO_LABEL
Oh!MZ誌ではこのゲームの記事が特別に作られた。	NO_PRONOUNCE	NO_LABEL
だが、この雑誌の読者投稿欄にこの記事を、ファンタジアンを流行らせようとしたものと批判する投稿が載ることがあった。	だが、このざっしのどくしゃとうこーらんにこのきじを、ふぁんたじあんをはやらせようとしたものとひはんするとーこーがのることがあった。	NO_LABEL
またこの雑誌ではこのゲームの3D表示がこのゲームに神秘を感じさせるという評価が載ったことがあった。	またこのざっしでわこのげーむのすりーでぃーひょーじがこのげーむにしんぴをかんじさせるとゆうひょーかがのったことがあった。	NO_LABEL
このゲームは下位職業だけでもボスキャラであるビルアデスを倒すことができる。	このげーむわかいしょくぎょーだけでもぼすきゃらであるびるあですをたおすことができる。	NO_LABEL
また、『ウィザードリィ』の様にクリア後もプレイし、アイテム集めを楽しんだりできる。	NO_PRONOUNCE	NO_LABEL
