ルイス島は、スコットランド西部、アウター・ヘブリディーズに属する島。	るいすとーわ、すこっとらんどせいぶ、あうたーへぶりでぃーずにぞくするしま。	NO_LABEL
島の南部はハリス島と呼ばれている。	しまのなんぶわはりすとーとよばれている。	NO_LABEL
2つの名前は同じ島にもかかわらず併用されており、ルイス島の方が一般的である。	ふたつのなまえわおなじしまにもかかわらずへいよーされており、るいすとーのほーがいっぱんてきである。	NO_LABEL
ハリス島部分も含めたルイス島はアウター・ヘブリディーズのみならず、インナー・ヘブリディーズも含めたヘブリディーズ諸島で最も大きな島である。	はりすとーぶぶんもふくめたるいすとーわあうたーへぶりでぃーずのみならず、いんなーへぶりでぃーずもふくめたへぶりでぃーずしょとーでもっともおーきなしまである。	NO_LABEL
島で最も大きな町はストーノーウェイであり、アウター・ヘブリディーズの行政の中心になっている。	しまでもっともおーきなまちわすとーのーうぇいであり、あうたーへぶりでぃーずのぎょーせいのちゅーしんになっている。	NO_LABEL
夏と冬の気温差がわずかで年間通して冷涼である。	なつとふゆのきおんさがわずかでねんかんとーしてれいりょーである。	NO_LABEL
秋になると降雨量130ミリメートルを超え、強風が吹く。	NO_PRONOUNCE	NO_LABEL
北極との間を行き来する渡り鳥の中継地にあたり、また、アメリカ大陸から北ヨーロッパへ向かってふく風の避難地にもなる。	ほっきょくとのまをいききするわたりどりのちゅーけいちにあたり、また、あめりかたいりくからきたよーろっぱえむかってふくふーのひなんちにもなる。	NO_LABEL
海鳥の種類も多い。	うみどりのしゅるいもおーい。	NO_LABEL
アトランティックサーモンが島の河で釣れる。	あとらんてぃっくさーもんがしまのかわでつれる。	NO_LABEL
島の湖はブラウントラウトなどの魚のすみかである。	しまのみずうみわぶらうんとらうとなどのうおのすみかである。	NO_LABEL
ストーノーウェイ港では、アザラシを見ることができ、運が良ければイルカ、サメ、まれにはクジラが見られる。	すとーのーうぇいこーでわ、あざらしをみることができ、うんがよければいるか、さめ、まれにわくじらがみられる。	NO_LABEL
島固有のほ乳類は、アカシカとカワウソのみである。	しまこゆーのほにゅーるいわ、あかしかとかわうそのみである。	NO_LABEL
ウサギも至る所にいるが、これは後世に島外から持ち込まれて繁殖した。	うさぎもいたるところにいるが、これわこーせいにしまがいからもちこまれてはんしょくした。	NO_LABEL
ルイス島にヘビは生息しておらず、爬虫類は唯一、トカゲがいる。	るいすとーにへびわせいそくしておらず、はちゅーるいわゆいいつ、とかげがいる。	NO_LABEL
かつて島は森林で覆われていたが、焼き畑と羊の放牧により減少し、今はごくわずかしか残っていない。	かつてしまわしんりんでおおわれていたが、やきはたけとひつじのほーぼくによりげんしょーし、いまわごくわずかしかのこっていない。	NO_LABEL
多種の植物があるが、ヒースが島の至る所に生えている。	たしゅのしょくぶつがあるが、ひーすがしまのいたるところにはえている。	NO_LABEL
泥炭が島中にあり、燃料として利用される。	でいたんがしまなかにあり、ねんりょーとしてりよーされる。	NO_LABEL
定期フェリーでスコットランド本土と結ばれている。	ていきふぇりーですこっとらんどほんどとむすばれている。	NO_LABEL
ストーノーウェイ空港からは、アバディーン、エディンバラ、インヴァネス、グラスゴーへの便がある。	NO_PRONOUNCE	NO_LABEL
8000年前の泥炭を調査したところ、人が定住した証拠が見つかっている。	NO_PRONOUNCE	NO_LABEL
ケルト系のゲール人が定住。	けるとけいのげーるじんがていじゅー。	NO_LABEL
マン王国の一部となった。	まんおーこくのいちぶとなった。	NO_LABEL
キリスト教の布教は7世紀から8世紀に行われた。	きりすときょーのふきょーわななせいきからはちせいきにおこなわれた。	NO_LABEL
9世紀からたびたびヴァイキングの略奪を受け、一時期はノルウェー王の勢力下に下った。	NO_PRONOUNCE	NO_LABEL
スコットランド王国に復帰したのは13世紀に入ってからである。	すこっとらんどおーこくにふっきしたのわじゅうさんせいきにはいってからである。	NO_LABEL
スコットランド長老派教会の信者が多い一方、ケルトの伝説も多く伝えられている。	すこっとらんどちょーろーはきょーかいのしんじゃがおーいいっぽー、けるとのでんせつもおーくつたえられている。	NO_LABEL
18世紀、チャールズ・エドワード・ステュアート王子の反乱に加わって敗れた後、アメリカ大陸への移民が増えた。	じゅうはっせいき、ちゃーるずえどわーどすてゅあーとおーじのはんらんにくわわってやぶれたのち、あめりかたいりくえのいみんがふえた。	NO_LABEL
現在に至るまで、小規模な農業や羊の放牧が主である。	げんざいにいたるまで、しょーきぼなのーぎょーやひつじのほーぼくがおもである。	NO_LABEL
島特産の『ハリス・ツィード』と呼ばれる織物が知られる。	NO_PRONOUNCE	NO_LABEL
「地元の羊毛を使いアウター・ヘブリディーズで手織りされ諸島内で完成された物」のみ、ハリス・ツイードの名で呼ばれると厳格に決められている。	NO_PRONOUNCE	NO_LABEL
