松平 忠光は、戸田松平家信濃国松本藩の嫡子。	まつだいらただみつわ、とだまつへいかしなののくにまつもとはんのちゃくし。	NO_LABEL
戸田氏嫡流である松平康長の次男。	とだしちゃくりゅーであるまつだいらやすながのじなん。	NO_LABEL
徳川家康の甥にあたる。	とくがわいえやすのおいにあたる。	NO_LABEL
正室は徳島藩祖・蜂須賀家政の娘・実相院。	NO_PRONOUNCE	NO_LABEL
武蔵国東方城に生まれる。	むさしのくにとーほーじょーにうまれる。	NO_LABEL
慶長17年、徳川秀忠に初見して元服・叙任。	NO_PRONOUNCE	NO_LABEL
備前国一文字の刀と「忠」の偏諱を賜り、松平忠長と称す。	NO_PRONOUNCE	NO_LABEL
のちに松平忠光と改める。	のちにまつだいらただみつとあらためる。	NO_LABEL
大坂の陣には父と共に、今福の戦いや天王寺口の合戦に参戦した。	おーさかのじんにわちちとともに、いまふくのたたかいやてんのーじぐちのかっせんにさんせんした。	NO_LABEL
元和5年に兄・永兼が没したため、嫡子となる。	NO_PRONOUNCE	NO_LABEL
元和9年に将軍徳川家光の上洛に従い、参内の守衛となる。	げんなきゅうねんにしょーぐんとくがわいえみつのじょーらくにしたがい、さんだいのしゅえいとなる。	NO_LABEL
寛永3年、再び家光上洛に随行し、後水尾天皇の二条城御幸の守衛に当たる。	かんえいさんねん、ふたたびいえみつじょーらくにずいこーし、ごみずのおてんのーのにじょーじょーみゆきのしゅえいにあたる。	NO_LABEL
父の康長は松本藩領安曇郡大町組、池田組、松川組の計1万5000石を忠光に分知させ、支藩として立藩させる計画で、元和5年、千国街道池田宿に若松城の築城が起工されたが、家督を相続することなく寛永6年に早世したため沙汰止みとなった。	NO_PRONOUNCE	NO_LABEL
享年32。	NO_PRONOUNCE	NO_LABEL
代わって弟の庸直が嫡子となった。	かわっておとーとのいさおじかがちゃくしとなった。	NO_LABEL
