國立南京中央國術館』とは、戦前の中華民国の首都南京に所在した、国術の研究と優れた武術家の養成のために、中国国民党政府によって発足された、中国武術の全国的統一組織であった。	NO_PRONOUNCE	NO_LABEL
1928年3月に設立され、当初の名称は國術研究館と称されていた。	せんきゅうひゃくにじゅうはちねんさんがつにせつりつされ、とーしょのめいしょーわぐぉーしゅーけんきゅーかんとしょーされていた。	NO_LABEL
1928年6月に名称を中央國術館に改め本格的な活動をはじめる。	せんきゅうひゃくにじゅうはちねんろくがつにめいしょーをちゅーおーぐぉーしゅーかんにあらためほんかくてきなかつどーをはじめる。	NO_LABEL
初代館長は西北軍閥の張之江将軍、副館長は東北軍閥の李景林将軍が就任。	しょだいかんちょーわせいほくぐんばつのちょーのこーしょーぐん、ふくかんちょーわとーほくぐんばつのりけいりんしょーぐんがしゅーにん。	NO_LABEL
教習学科は、少林門と武当門の二学科が設立されていた。	きょーしゅーがっかわ、わかばやしもんとたけとーもんのにがっかがせつりつされていた。	NO_LABEL
最盛期には中国全土に分館を設立し日中戦争が激化して南京が陥落した後も、本部を内陸の重慶に移して存続されたが、日中戦争終結後に再開された内戦により中国共産党が勝利し、中華人民共和国が成立すると1949年10月に消滅を余儀なくされた。	さいせいきにわちゅーごくぜんどにぶんかんをせつりつしにっちゅーせんそーがげきかしてなんきんがかんらくしたのちも、ほんぶをないりくのたーちんにうつしてそんぞくされたが、にっちゅーせんそーしゅーけつごにさいかいされたないせんによりちゅーごくきょーさんとーがしょーりし、ちゅーかじんみんきょーわこくがせいりつするとせんきゅうひゃくよんじゅうきゅうねんじゅーがつにしょーめつをよぎなくされた。	NO_LABEL
理事会理事長　 ・　李烈鈞、戴季陶	NO_PRONOUNCE	NO_LABEL
名誉館長　 　　・　馮玉祥	NO_PRONOUNCE	NO_LABEL
中央国術館館長　・　張之江	NO_PRONOUNCE	NO_LABEL
副館長　　　　　・　李景林	NO_PRONOUNCE	NO_LABEL
中央国術館門長　・　少林門門長　・　王子平	NO_PRONOUNCE	NO_LABEL
科長　　　　　　・　馬英図　　馬裕甫	NO_PRONOUNCE	NO_LABEL
教授内容　　　　・　少林拳、　八極拳、　劈掛拳、　査拳、　弾腿	NO_PRONOUNCE	NO_LABEL
武當門門長　　　・　高振東。	NO_PRONOUNCE	NO_LABEL
　科長　・　柳印虎	NO_PRONOUNCE	NO_LABEL
教授内容　　　　・　太極拳、　形意拳、　八卦掌	NO_PRONOUNCE	NO_LABEL
※その後、少林門、武當門の廃止により、後期の組織構成は以下の通りとなった。	NO_PRONOUNCE	NO_LABEL
中央国術館館長　・　張之江	NO_PRONOUNCE	NO_LABEL
　　　　副館長　・　李景林から　二、張驤伍　三、鈕永健　四、張樹聲　五、1939年より陳泮嶺	NO_PRONOUNCE	NO_LABEL
中央国術館顧問　・　張洪之。	NO_PRONOUNCE	NO_LABEL
　　　　教務處　・　馬良、　呉俊山、　孫玉銘、　郝鴻昌	NO_PRONOUNCE	NO_LABEL
　　　　編審處　・　唐豪、　姜容樵　副處長　・　黄柏年	NO_PRONOUNCE	NO_LABEL
　　　　審編員　・　金一明	NO_PRONOUNCE	NO_LABEL
　　　　総務處　・　李滋茂、　朱家驊	NO_PRONOUNCE	NO_LABEL
全國國術考試は、また‘國術國考’あるいは‘國考　’とも称されており、これは当事の国家機関下で開催された初の正式な武術考試であるが、様々な要因から挙行されたのはわずか二回のみである。	NO_PRONOUNCE	NO_LABEL
場所は南京公共體育場。	NO_PRONOUNCE	NO_LABEL
全國國術考試には中国全土より武術家が参加したが、正試種目では流血する場面がたびたびあったことから、‘現代体育化の精神に反するもの’との批判もあった。	NO_PRONOUNCE	NO_LABEL
預試種目では套路演練、正試種目では両者が自由に打ち合う格闘試合が行なわれた。	あずかこころしゅもくでわとうろえんねり、せいこころしゅもくでわりょーしゃがじゆーにうちあうかくとーしあいがおこなわれた。	NO_LABEL
一、第一回全國國術考試----1928年10月11日から19日。	NO_PRONOUNCE	NO_LABEL
二、第二回全國國術考試----1933年10月20日から30日。	NO_PRONOUNCE	NO_LABEL
呉翼輝	ごつばさてる	NO_LABEL
王子平	おーじだいら	NO_LABEL
馬英図	ばえいと	NO_LABEL
韓化臣	かんかしん	NO_LABEL
張玉衛	ちょーぎょくまもる	NO_LABEL
陳照丕	NO_PRONOUNCE	NO_LABEL
陳子明	ちんこあきら	NO_LABEL
顧汝章	こじょしょー	NO_LABEL
常東昇、呉志青	じょうとうしょー、ごこころざしあお	NO_LABEL
陳泮嶺	ちんばんれい	NO_LABEL
孫禄堂	そんろくどー	NO_LABEL
楊澄甫	ようちょうほ	NO_LABEL
唐豪	とーごー	NO_LABEL
黄柏年	きはだねん	NO_LABEL
姜容樵	きょーようしょー	NO_LABEL
孫錫坤	まごすずひつじさる	NO_LABEL
金一明	きむいちめい	NO_LABEL
温敬銘	ぬるけいめい	NO_LABEL
張文廣	ちょーぶんひろし	NO_LABEL
鄭懐賢	ていやすかた	NO_LABEL
劉玉華	りゅーたまはな	NO_LABEL
傅淑雲	でんよしくも	NO_LABEL
金石生	かねいしせい	NO_LABEL
寇運興	こーうんきょー	NO_LABEL
張爾鼎	ちょーなんじかなえ	NO_LABEL
翟漣源	NO_PRONOUNCE	NO_LABEL
《国術館考絛例》	NO_PRONOUNCE	NO_LABEL
《中央国術館組織大綱》	NO_PRONOUNCE	NO_LABEL
《省、市国術館組織大綱》	NO_PRONOUNCE	NO_LABEL
《縣国術館組織大綱》	NO_PRONOUNCE	NO_LABEL
《少林武當考》	NO_PRONOUNCE	NO_LABEL
《査拳図説》	NO_PRONOUNCE	NO_LABEL
《達磨剣》	NO_PRONOUNCE	NO_LABEL
《青萍剣》	NO_PRONOUNCE	NO_LABEL
《君子剣》	NO_PRONOUNCE	NO_LABEL
《太行拳術》	NO_PRONOUNCE	NO_LABEL
《少林拳》	NO_PRONOUNCE	NO_LABEL
《三十二勢長拳》	NO_PRONOUNCE	NO_LABEL
《石頭拳術秘訣》	NO_PRONOUNCE	NO_LABEL
《寫真太師虎尾鞭》	NO_PRONOUNCE	NO_LABEL
その他	そのた	NO_LABEL
《国術旬刊》	NO_PRONOUNCE	NO_LABEL
《国術周刊》	NO_PRONOUNCE	NO_LABEL
《国術季刊》	NO_PRONOUNCE	NO_LABEL
《国術特刊》など。	NO_PRONOUNCE	NO_LABEL
