カミンズ（）はアメリカ合衆国のディーゼルエンジンメーカー。	かみんずかっこわあめりかがっしゅーこくのでぃーぜるえんじんめーかー。	NO_LABEL
1919年創業。	せんきゅうひゃくじゅうきゅうねんそーぎょー。	NO_LABEL
本社はインディアナ州コロンバスにある。	ほんしゃわいんでぃあなしゅーころんばすにある。	NO_LABEL
ディーゼルおよび天然ガスエンジン、発電機、ディーゼルエンジン用各種コンポーネントの生産・販売・アフターサービスを行っている。	NO_PRONOUNCE	NO_LABEL
190以上の国と地域に600以上の販売会社・代理店、7200店以上のディーラー、約55000人の従業員を擁する、国際的ディーゼルエンジンメーカー。	NO_PRONOUNCE	NO_LABEL
ニューヨーク証券取引所に上場しており、2017年12月期の売上高は204億2800万US$、純利益は9億9900万US$。	NO_PRONOUNCE	NO_LABEL
アメリカ国外での売上高が全体の約46%を占める。	あめりかこくがいでのうりあげだかがぜんたいのやくよんじゅうろくぱーせんとをしめる。	NO_LABEL
エンジン事業では排気量2.8 - 95Lのディーゼルおよび天然ガスエンジンのサプライヤーとして国際的に大きなシェアを持つ。	NO_PRONOUNCE	NO_LABEL
北アメリカでの大型トラック用エンジンの市場占有率は約38%を占める。	きたあめりかでのおーがたとらっくよーえんじんのしじょーせんゆーりつわやくさんじゅうはちぱーせんとをしめる。	NO_LABEL
エンジン本体のほか、発電機や各種コンポーネント事業も展開している。	えんじんほんたいのほか、はつでんきやかくしゅこんぽーねんとじぎょーもてんかいしている。	NO_LABEL
発電機は“Onan”、ターボチャージャーは“Holset”、エアクリーナーなどのフィルター類は“Fleetguard”のブランド名を持つ。	NO_PRONOUNCE	NO_LABEL
※は合弁会社による生産。	NO_PRONOUNCE	NO_LABEL
1919年に創業者のクレシー・ライル・カミンズが、カミンズ・エンジン社を設立したことに始まる。	NO_PRONOUNCE	NO_LABEL
カミンズは1908年からしばらくの間、コロンバスの銀行家で投資家でもあったウィリアム・グラントン・アーウィンの自家用車運転手を勤めていたことがあったが、次世代の内燃機関であったディーゼルエンジン開発に強い関心を抱いており、アーウィンに懇請したことでその後援を得て、エンジン開発事業に乗り出したのである。	NO_PRONOUNCE	NO_LABEL
当初はオランダのHvid社のライセンス供与を受けた6馬力の農業用エンジンを生産した。	NO_PRONOUNCE	NO_LABEL
この小型エンジンは流通大手シアーズ・ローバックでも扱われた。	NO_PRONOUNCE	NO_LABEL
高速エンジンの大型化を図ったカミンズ社であったが、1924年には船舶用エンジン開発に失敗して倒産の危機に瀕する。	こーそくえんじんのおーがたかをはかったかみんずしゃであったが、せんきゅうひゃくにじゅうよねんにわせんぱくよーえんじんかいはつにしっぱいしてとーさんのききにひんする。	NO_LABEL
それでも辛うじて事業の継続を得、この過程で、技術者のヌードセンの協力をも得て効率に優れる直噴式高速ディーゼルエンジンの開発を進展させた。	NO_PRONOUNCE	NO_LABEL
1929年には、パッカードの中古リムジンに、自社製のディーゼルエンジンを搭載した試作車をウィリアム・アーウィンが運転し、ニューヨークの自動車ショーに直接乗り付けて出展した。	NO_PRONOUNCE	NO_LABEL
特製パッカードはディーゼルエンジンならではの経済性を発揮し、「1ドル39セントの燃料費でインディアナ州からニューヨーク市へ行けた」とアピールされた。	NO_PRONOUNCE	NO_LABEL
これによって市場の評価を得たことで、カミンズ社は自動車用エンジンメーカーとしても販路を広げることになり、経営はようやく軌道に乗った。	これによってしじょーのひょーかをえたことで、かみんずしゃわじどーしゃよーえんじんめーかーとしてもはんろをひろげることになり、けいえいわよーやくきどーにのった。	NO_LABEL
小型船舶やトラック用のエンジン開発などの実績を積み、第二次世界大戦中はアメリカを筆頭とする連合国軍に各種の軍用エンジンとして採用された。	こがたせんぱくやとらっくよーのえんじんかいはつなどのじっせきをつみ、だいにじせかいたいせんちゅーわあめりかをひっとーとするれんごーこくぐんにかくしゅのぐんよーえんじんとしてさいよーされた。	NO_LABEL
1950年代はアメリカにおける州間高速道路網の拡充を受けて、大いに業績を伸ばした。	せんきゅうひゃくごじゅうねんだいわあめりかにおけるしゅーかんこーそくどーろもーのかくじゅーをうけて、おーいにぎょーせきをのばした。	NO_LABEL
出力・経済性のみならず、耐久性・信頼性にも優れていることが評価されて、多くの大型トラック・メーカーから標準エンジンとして採用され、当時で売上高は1億USドルにも達している。	NO_PRONOUNCE	NO_LABEL
またこの時期にインディ500にも参戦、1952年にはターボ・ディーゼルエンジンを搭載する「カミンズ・ディーゼル・スペシャル」でポールポジションを獲得した。	NO_PRONOUNCE	NO_LABEL
さらに1950年代以降はアメリカ国外にも大々的に進出し、自社工場および合弁会社の生産拠点を世界各地に設置したことで、98か国2,500箇所にサービス拠点を擁するまでになった。	NO_PRONOUNCE	NO_LABEL
カミンズの汎用ディーゼルエンジンは、自動車向けのオンロードエンジンとそれ以外の産業用途のに大別される。	かみんずのはんよーでぃーぜるえんじんわ、じどーしゃむけのおんろーどえんじんとそれいがいのさんぎょーよーとのにたいべつされる。	NO_LABEL
前者が“Interact System”シリーズでエンジン型式が“IS*”、後者が“Quantum System”シリーズで型式は“QS*”となる。	NO_PRONOUNCE	NO_LABEL
その次位の数字はおおよその排気量をリットルで示しており、15LクラスのXシリーズの型式名を指す場合オンロードが“ISX15”、ノンロードが“QSX15”となる。	NO_PRONOUNCE	NO_LABEL
ただし、2017年以後の新たな排出ガス規制適合エンジンにはオンロード/ノンロードの区別がなくなり双方X15、B6.7などと表記する。	NO_PRONOUNCE	NO_LABEL
なお、原設計が1970年代以前のエンジンは型式表記方法が異なり、排気量を立方インチで表し、ターボには“T”、アフタークーラーには“A”を付ける。	NO_PRONOUNCE	NO_LABEL
汎用エンジンはオンロード/ノンロード用途ともに、ブロック全体が赤く塗装されているのが特徴である。	NO_PRONOUNCE	NO_LABEL
旧カミンズ・マークルーザー・ディーゼル社製など、一部の船舶用エンジンはブロックが白く塗装されている。	NO_PRONOUNCE	NO_LABEL
ディーゼルエンジンをベースとしたオットーサイクル式天然ガスエンジンもラインアップされており、型式末尾に“G”または“N”が付く。	NO_PRONOUNCE	NO_LABEL
以下、主要なノンロードエンジンを挙げる。	いか、しゅよーなのんろーどえんじんをあげる。	NO_LABEL
すべて4ストロークの直噴式でターボ・アフタークーラー付きである。	NO_PRONOUNCE	NO_LABEL
このほか、排出ガス規制適用除外分野や途上国向けに旧式エンジンも継続生産されている。	このほか、はいしゅつがすきせいてきよーじょがいぶんややとじょーこくむけにきゅーしきえんじんもけいぞくせいさんされている。	NO_LABEL
2017年現在、ピックアップトラック用としてラム・トラックスと北米日産にエンジンを供給している。	にせんじゅうななねんげんざい、ぴっくあっぷとらっくよーとしてらむとらっくすとほくべいにっさんにえんじんをきょーきゅーしている。	NO_LABEL
ラムにはダッジブランド時代の1989年より、タイタンには2015年よりカミンズ製ディーゼルエンジンを搭載したモデルが設定されている。	らむにわだっじぶらんどじだいのせんきゅうひゃくはちじゅうきゅうねんより、たいたんにわにせんじゅうごねんよりかみんずせいでぃーぜるえんじんをとーさいしたもでるがせっていされている。	NO_LABEL
ピックアップトラック用エンジンは、汎用タイプと異なりブロックが黒く塗装されている。	ぴっくあっぷとらっくよーえんじんわ、はんよーたいぷとことなりぶろっくがくろくとそーされている。	NO_LABEL
仕様は以下の通り。	しよーわいかのとーり。	NO_LABEL
なお、ラム1500に設定されている“3.0L EcoDiesel V6”エンジンはFCA系の製である。	NO_PRONOUNCE	NO_LABEL
日本法人のカミンズジャパンは、1961年10月に小松製作所との合弁会社小松カミンズ販売として設立された。	にほんほーじんのかみんずじゃぱんわ、せんきゅうひゃくろくじゅういちねんじゅーがつにこまつせいさくしょとのごーべんがいしゃこまつかみんずはんばいとしてせつりつされた。	NO_LABEL
同年11月にコマツはカミンズとディーゼルエンジン部門で技術提携し、のちにコマツ小山工場でカミンズNシリーズのライセンス生産が開始される。	NO_PRONOUNCE	NO_LABEL
小松カミンズ販売は1985年1月にカミンズの完全子会社となりカミンズディーゼルと改称、コマツのライセンス契約も終了したが、1993年11月には合弁会社コマツカミンズエンジンをコマツ小山工場内に設立し1995年11月より同工場でカミンズB・Cシリーズの生産を開始した。	NO_PRONOUNCE	NO_LABEL
また、1998年1月にはディーゼルエンジンの共同研究および開発を行う合弁会社アイ・ピー・エーを設立するなど、カミンズの日本進出当初よりコマツとは密接な関係にある。	NO_PRONOUNCE	NO_LABEL
日本の自動車メーカーが国内向け車両にカミンズ製ディーゼルエンジンを採用した例は全くなく、アメリカ車好きの好事家向けに上記ピックアップトラックが少数並行輸入される程度であるため、一般にカミンズの知名度は低い。	にっぽんのじどーしゃめーかーがこくないむけしゃりょーにかみんずせいでぃーぜるえんじんをさいよーしたれいわぜんくなく、あめりかしゃすきのこーずかむけにじょーきぴっくあっぷとらっくがしょーすーへいこーゆにゅーされるていどであるため、いっぱんにかみんずのちめいどわひくい。	NO_LABEL
日本ではアメリカ製トラックのように社外エンジンを自由に選べず、自動車メーカーがシャシとエンジンを一貫して生産するか、自社の系列企業からエンジンを調達するのが一般的である。	にっぽんでわあめりかせいとらっくのよーにしゃがいえんじんをじゆーにえらべず、じどーしゃめーかーがしゃしとえんじんをいっかんしてせいさんするか、じしゃのけいれつきぎょーからえんじんをちょーたつするのがいっぱんてきである。	NO_LABEL
このような事情が、日本でカミンズのような独立系メーカーのエンジンが自動車業界で普及しない要因となっている。	このよーなじじょーが、にっぽんでかみんずのよーなどくりつけいめーかーのえんじんがじどーしゃぎょーかいでふきゅーしないよーいんとなっている。	NO_LABEL
緑ナンバーの事業用自動車での採用事例としては、中国・製中型観光バスYBL6805Hの日本向け仕様車がカミンズ製ISB4.5エンジンを搭載している。	NO_PRONOUNCE	NO_LABEL
公道を走らない構内車両や輸出車では、宇部興産専用道路を走行するケンワースのトラクタT609がカミンズISX15エンジンを搭載している。	NO_PRONOUNCE	NO_LABEL
過去の事例では1950年代にチリへ輸出した富士重工業製バスにはカミンズ製エンジンが搭載されていた。	かこのじれいでわせんきゅうひゃくごじゅうねんだいにちりえゆしゅつしたふじじゅーこーぎょーせいばすにわかみんずせいえんじんがとーさいされていた。	NO_LABEL
また、1980年にモリタがコマツと共同開発した空港用化学消防車KFM-125にカミンズ製VTA-1710エンジンが搭載されていた。	NO_PRONOUNCE	NO_LABEL
コンポーネント部門ではHolsetブランドのVGターボがUDトラックスのGH11エンジンに採用されている。	NO_PRONOUNCE	NO_LABEL
建設機械などの特殊自動車にはカミンズ製ディーゼルエンジンの採用が多く見られる。	けんせつきかいなどのとくしゅじどーしゃにわかみんずせいでぃーぜるえんじんのさいよーがおーくみられる。	NO_LABEL
通称“オフロード法”2014年排出ガス基準適合のカミンズ製エンジンを採用したメーカーに日立建機、住友重機械建機クレーン、コベルコ建機、タダノ、KATO HICOM、諸岡、古河ロックドリルなどが挙げられる。	NO_PRONOUNCE	NO_LABEL
過去にはコマツ製建設機械にカミンズNシリーズやVTA-1710エンジンを採用する事例も見られた。	NO_PRONOUNCE	NO_LABEL
国際海事機関の定める第2次排出ガス規制に適合する排気量2.8 - 60Lのディーゼルエンジンをプレジャーボートや商船向けに供給している。	NO_PRONOUNCE	NO_LABEL
船舶向け排出ガス規制は他分野ほど規制値が厳しくないため、QSB5.9やQSM11などやや古い型式のエンジンも継続して採用されている。	NO_PRONOUNCE	NO_LABEL
1950年代から東急車輛製造などの国外輸出用車両には搭載実績があったが、最大ユーザーの日本国有鉄道が国産設計エンジンに偏重し、輸入エンジン採用を忌避したことから、日本国内向けとしての導入は非常に遅くなった。	せんきゅうひゃくごじゅうねんだいからとーきゅーしゃりょーせいぞーなどのこくがいゆしゅつよーしゃりょーにわとーさいじっせきがあったが、さいだいゆーざーのにほんこくゆーてつどーがこくさんせっけいえんじんにへんちょーし、ゆにゅーえんじんさいよーをきひしたことから、にほんこくないむけとしてのどーにゅーわひじょーにおそくなった。	NO_LABEL
採用は専用線や私鉄が先行し、1976年に三井鉱山田川工場No.4、私鉄では1982年に大井川鐵道井川線のDD20形ディーゼル機関車に搭載されたのが最初となっている。	NO_PRONOUNCE	NO_LABEL
大井川での導入当初は、コマツがライセンス生産したNシリーズの垂直シリンダ型・NTA-855系が採用されていた。	NO_PRONOUNCE	NO_LABEL
国鉄分割民営化後の1989年、東海旅客鉄道の特急「ひだ」「南紀」で使われていたキハ80系気動車を置き換えるべく開発されたキハ85系気動車に水平シリンダ型・NTA-855-R-1が搭載された。	NO_PRONOUNCE	NO_LABEL
キハ80系等の旧式なDMH17Hは自然吸気エンジンで、17.0Lの排気量に比し出力180馬力と非力だったが、DMF14HZでは基本設計こそ1960年代のものながら直接噴射式エンジンにインタークーラーとターボチャージャーを装着して350馬力とDMH17Hの1.5基～2基分に匹敵する出力を発揮し、段数を増やした新型変速機との組み合わせで電車特急と遜色ない性能を確保した。	NO_PRONOUNCE	NO_LABEL
この実績からJR東海では標準エンジンとして本格採用、日本のほとんどの鉄道事業者や鉄道ファンから認識されていなかったカミンズは一躍メジャーな存在となった。	このじっせきからじぇいあーるとーかいでわひょーじゅんえんじんとしてほんかくさいよー、にっぽんのほとんどのてつどーじぎょーしゃやてつどーふぁんからにんしきされていなかったかみんずわいちやくめじゃーなそんざいとなった。	NO_LABEL
以後、東日本旅客鉄道キハ100系・110系気動車、名古屋鉄道キハ8500系気動車にも搭載、JR東海とJR東日本では一部在来車のエンジンもDMF14HZに載せ替えられている。	NO_PRONOUNCE	NO_LABEL
なお、日本向けNTA-855-R系エンジンは、スコットランドのノース・ラナークシャーにあるショッツ工場で生産されていた。	NO_PRONOUNCE	NO_LABEL
このため、日本の鉄道業界への本格導入当初、カミンズを英国企業と誤解する事例もあった。	このため、にほんのてつどーぎょーかいえのほんかくどーにゅーとーしょ、かみんずをえいこくきぎょーとごかいするじれいもあった。	NO_LABEL
その後導入のN14系はブラジルやインドで生産されている。	NO_PRONOUNCE	NO_LABEL
