プレヴェン州はブルガリア中北部に位置するブルガリアの州。	NO_PRONOUNCE	NO_LABEL
州都はプレヴェン。	NO_PRONOUNCE	NO_LABEL
プレヴェン州はドナウ平原の中に位置している。	NO_PRONOUNCE	NO_LABEL
州の北にはドナウ川が流れており、ルーマニアとの国境となっている。	しゅーのきたにわどなうがわがながれており、るーまにあとのこっきょーとなっている。	NO_LABEL
ドナウ川沿いの町ベレネ近くにある川の中州もプレヴェン州に含まれる。	NO_PRONOUNCE	NO_LABEL
プレヴェン州は西にヴェリコ・タルノヴォ州、南にロヴェチ州、東にヴラツァ州と接している。	NO_PRONOUNCE	NO_LABEL
州にはオスム川、ビト川、イスクル川などが南のバルカン山脈から流れ、ドナウ川に注ぎ込んでいる。	しゅーにわおすむがわ、びとがわ、いすくるがわなどがみなみのばるかんさんみゃくからながれ、どなうがわにそそぎこんでいる。	NO_LABEL
2003年の州の人口は311,985人であり、その民族別人口比率は次の通り。	NO_PRONOUNCE	NO_LABEL
