「無重力アリア」は、榊原ゆいの29枚目のシングル。	NO_PRONOUNCE	NO_LABEL
2012年2月22日にb-greenから発売された。	NO_PRONOUNCE	NO_LABEL
前作「Blue mind」から7ヶ月ぶりのリリースとなるシングル。	NO_PRONOUNCE	NO_LABEL
表題曲「無重力アリア」は、カードゲーム『アクエリアンエイジ 魔力の水嶺』のオープニングテーマに起用され、ジャケットイラストにも作中に登場するレミリア・スウェーデンボルグが緋賀ゆかりの描き下ろしによりデザインされている。	NO_PRONOUNCE	NO_LABEL
なお初回生産分には『アクエリアンエイジ』のPRカードが封入されている。	NO_PRONOUNCE	NO_LABEL
