2チェインズはアメリカ合衆国ジョージア州カレッジパーク出身のラッパーである。	にちぇいんずわあめりかがっしゅーこくじょーじあしゅーかれっじぱーくしゅっしんのらっぱーである。	NO_LABEL
1997年、高校時代の友人であるDolla Boyと共に、ヒップホップ・デュオ「プレイヤズ・サークル ()」を結成する。	NO_PRONOUNCE	NO_LABEL
この当時はTity Boiと名乗っていた。	NO_PRONOUNCE	NO_LABEL
Playaz Circleは同郷出身のラッパー、リュダクリスのレーベルであるディスタービング・ダ・ピースと契約し、2枚のアルバムをリリースした。	NO_PRONOUNCE	NO_LABEL
2011年、それまで名乗っていたTity Boiから、2チェインズに改名し、ミックステープ『T.R.U. REALigon』をリリース、ビルボードR&B/Hip-Hopアルバム・チャートの58位にランクインした。	NO_PRONOUNCE	NO_LABEL
以来、カニエ・ウエストの『Mercy』、ニッキー・ミナージュの『Beez in the Trap』を始め、数多くの客演をこなす。	NO_PRONOUNCE	NO_LABEL
2012年8月14日、デフ・ジャム・レコードより、ソロデビューアルバム『』をリリース、初週14万7千枚を売り上げ、全米チャート初登場1位に輝く。	NO_PRONOUNCE	NO_LABEL
その後もセールスは伸び続け、結果的にゴールドディスクに認定されている。	そのごもせーるすわのびつずけ、けっかてきにごーるどでぃすくににんていされている。	NO_LABEL
2013年9月10日、2ndアルバムをリリース。	にせんじゅうさんねんくがつとおか、せかんどあるばむをりりーす。	NO_LABEL
アメリカで発売初週に6万3000枚を売り上げ、Billboard 200チャートで3位を記録した。	NO_PRONOUNCE	NO_LABEL
