ライオネル・ド・ロスチャイルド男爵は、イギリスの銀行家、政治家。	らいおねるどろすちゃいるどだんしゃくわ、いぎりすのぎんこーか、せいじか。	NO_LABEL
英国ロスチャイルド家嫡流の第2代当主。	えいこくろすちゃいるどけちゃくりゅーのだいにだいとーしゅ。	NO_LABEL
英国ロスチャイルド家の祖であるネイサン・メイヤー・ロスチャイルドの長男として生まれる。	NO_PRONOUNCE	NO_LABEL
弟にアンソニー、ナサニエル、メイヤーがいる。	おとーとにあんそにー、なさにえる、めいやーがいる。	NO_LABEL
当時イギリスと同君連合にあったドイツ連邦領邦ハノーファー王国のゲッティンゲン大学で学ぶ。	とーじいぎりすとどーくんれんごーにあったどいつれんぽーりょーほーはのーふぁーおーこくのげってぃんげんだいがくでまなぶ。	NO_LABEL
1836年に父ネイサンが死去するとニューコートの銀行業を継承した。	せんはっぴゃくさんじゅうろくねんにちちねいさんがしきょするとにゅーこーとのぎんこーぎょーをけいしょーした。	NO_LABEL
ただし彼はまだ若年だったので、ロスチャイルド家全体の統括はパリ家の祖で叔父にあたるジェームズが中心となって行うようになった。	ただしかれわまだじゃくねんだったので、ろすちゃいるどかぜんたいのとーかつわぱりかのそでおじにあたるじぇーむずがちゅーしんとなっておこなうよーになった。	NO_LABEL
1838年6月にオーストリアから授与されている男爵の称号を帯びる勅許を得る。	せんはっぴゃくさんじゅうはちねんろくがつにおーすとりあからじゅよされているだんしゃくのしょーごーをおびるちょっきょをえる。	NO_LABEL
1847年のアイルランド大飢饉では800万ポンドの義援金を調達した。	せんはっぴゃくよんじゅうななねんのあいるらんどだいききんでわはっぴゃくまんぽんどのぎえんきんをちょーたつした。	NO_LABEL
1854年のクリミア戦争ではユダヤ人迫害を推進するロシア帝国に対する反発からイギリス・フランス・トルコ陣営を金銭面から支援した。	NO_PRONOUNCE	NO_LABEL
英仏軍の軍事費を調達し、トルコにも巨額の借款を与えた。	えいふつぐんのぐんじひをちょーたつし、とるこにもきょがくのしゃっかんをあたえた。	NO_LABEL
政治家たちの中でもとりわけ同じユダヤ人のベンジャミン・ディズレーリと親しくした。	せいじかたちのなかでもとりわけおなじゆだやじんのべんじゃみんでぃずれーりとしたしくした。	NO_LABEL
ディズレーリは毎週のように週末にはピカデリーにあるライオネル邸を訪れて夕食の御相伴にあずかっていた。	でぃずれーりわまいしゅーのよーにしゅーまつにわぴかでりーにあるらいおねるていをおとずれてゆーしょくのごしょーばんにあずかっていた。	NO_LABEL
1875年にエジプトのスエズ運河の株がフランスに買い取られそうになった際には当時首相になっていたディズレーリの求めに応じて緊急に400万ポンドの借款を英国政府に与え、ディズレーリはその金でイスマーイール・パシャの所持しているスエズ運河の株を買収している。	せんはっぴゃくななじゅうごねんにえじぷとのすえずうんがのかぶがふらんすにかいとられそーになったさいにわとーじしゅしょーになっていたでぃずれーりのもとめにおーじてきんきゅーによんひゃくまんぽんどのしゃっかんをえいこくせいふにあたえ、でぃずれーりわそのきんでいすまーいーるぱしゃのしょじしているすえずうんがのかぶをばいしゅーしている。	NO_LABEL
これについてディズレーリはヴィクトリア女王への報告書の中で「英貨400万ポンド、それを彼らは瞬く間に用意したのです。	NO_PRONOUNCE	NO_LABEL
そんなことをやってのける会社はロスチャイルド家以外にはありません。	そんなことをやってのけるかいしゃわろすちゃいるどけいがいにわありません。	NO_LABEL
彼らは見事にやってのけたのです」と絶賛している。	NO_PRONOUNCE	NO_LABEL
これ以外にもしばしば英国政府に借款を与え、その総額は4億ポンドにも達する。	これいがいにもしばしばえいこくせいふにしゃっかんをあたえ、そのそーがくわよんおくぽんどにもたっする。	NO_LABEL
父が1835年に購入したガナーズベリー・パークに大改築を加え、女王の庭園以外に並ぶものがないといわれるほど美しい庭園を完成させた。	NO_PRONOUNCE	NO_LABEL
巨大な日本庭園もあり、後にここを訪問した駐英日本大使は「すばらしい。	NO_PRONOUNCE	NO_LABEL
日本にもこんな立派な庭園はありませんよ」という感想を漏らしたという。	NO_PRONOUNCE	NO_LABEL
ヨーロッパの水銀鉱山を傘下に収めていくことに熱意を持っていた。	よーろっぱのすいぎんこーざんをさんかにおさめていくことにねついをもっていた。	NO_LABEL
晩年の1870年代にセシル・ローズが南アフリカでダイアモンド王国建設を開始しはじめると、ロスチャイルド家も積極的に南アフリカに進出して同地の銅や硝酸ソーダの企業に融資を開始した。	ばんねんのせんはっぴゃくななじゅうねんだいにせしるろーずがみなみあふりかでだいあもんどおーこくけんせつをかいししはじめると、ろすちゃいるどかもせっきょくてきにみなみあふりかにしんしゅつしてどーちのどーやしょーさんそーだのきぎょーにゆーしをかいしした。	NO_LABEL
1847年に金融の中心地であるからホイッグ党候補として出馬した。	せんはっぴゃくよんじゅうななねんにきんゆーのちゅーしんちであるからほいっぐとーこーほとしてしゅつばした。	NO_LABEL
しかし彼はキリスト教徒としての宣誓を行うことを拒んでいたため、当選しても議員にはなれないと言われていた。	しかしかれわきりすときょーととしてのせんせいをおこなうことをこばんでいたため、とーせんしてもぎいんにわなれないといわれていた。	NO_LABEL
それについてライオネルは「世界中で最も富み、最も重要で、最も知性ある選挙区の代表者が議会入りすることを、言葉上の形式を理由に拒否することなどできないと確信しています」と演説して反論した。	NO_PRONOUNCE	NO_LABEL
ライオネルはこの選挙に見事当選を果たし、これを受けて庶民院はユダヤ教式の宣誓を認めてユダヤ人議員を認めるべきとする決議を通したが、貴族院によって否決されてしまった。	らいおねるわこのせんきょにみごととーせんをはたし、これをうけてしょみんいんわゆだやきょーしきのせんせいをみとめてゆだやじんぎいんをみとめるべきとするけつぎをとーしたが、きぞくいんによってひけつされてしまった。	NO_LABEL
普段はろくに登院もしない貴族たちが「無礼なユダヤ人」に分際を弁えさせようと続々とロンドンにやって来て反対票を投じていく有様だった。	NO_PRONOUNCE	NO_LABEL
だがライオネルは諦めず、その後も選挙のたびにシティ・オブ・ロンドン選挙区から出馬して当選を続けた。	だがらいおねるわあきらめず、そのごもせんきょのたびにしてぃおぶろんどんせんきょくからしゅつばしてとーせんをつずけた。	NO_LABEL
そしてそのたびにユダヤ教宣誓を認めるべきとする動議を提出されるも貴族院に否決され続けた。	そしてそのたびにゆだやきょーせんせいをみとめるべきとするどーぎをていしゅつされるもきぞくいんにひけつされつずけた。	NO_LABEL
1858年に至って宣誓の方式は庶民院・貴族院でそれぞれ独自に定めるという法案が可決されたことで、庶民院においてはユダヤ教の宣誓が認められるようになった。	NO_PRONOUNCE	NO_LABEL
ここにライオネルは誰にも憚ることなくユダヤ教の宣誓に基づき、庶民院の議席に座ることができるようになった。	NO_PRONOUNCE	NO_LABEL
これを喜んだロンドン・ユダヤ人協会から「市民的自由と宗教的自由のための戦いに勝利した」とする祝電を送られた。	NO_PRONOUNCE	NO_LABEL
11年の苦難の末に手に入れた議席であったが、ライオネルが庶民院に登院することはほとんどなかった。	じゅういちねんのくなんのすえにてにいれたぎせきであったが、らいおねるがしょみんいんにとーいんすることわほとんどなかった。	NO_LABEL
議場で演説を行うことも一度もなかった。	ぎじょーでえんぜつをおこなうこともいちどもなかった。	NO_LABEL
彼は自分が議員活動をしたかったのではなく、自らが先例となることで同胞たちに議会の扉を開きたかったのである。	かれわじぶんがぎいんかつどーをしたかったのでわなく、みずからがせんれいとなることでどーほーたちにぎかいのとびらをひらきたかったのである。	NO_LABEL
続いて貴族院への門を開かせることを目指し、1869年に首相ウィリアム・グラッドストンに叙爵の推挙をしてもらったが、この時にはヴィクトリア女王の反発を買って退けられた。	NO_PRONOUNCE	NO_LABEL
ユダヤ人であること、また貴族の条件である地主の面より、企業家・投機家の面の方が強いと看做されたためだった。	NO_PRONOUNCE	NO_LABEL
結局ライオネルの代に貴族になる事は叶わず、彼の息子であるナサニエルの代の1885年になってロスチャイルド男爵の爵位を与えられることになる。	けっきょくらいおねるのだいにきぞくになることわかなわず、かれのむすこであるなさにえるのだいのせんはっぴゃくはちじゅうごねんになってろすちゃいるどだんしゃくのしゃくいをあたえられることになる。	NO_LABEL
1870年に次弟ナサニエル、1874年には三弟メイヤー、1876年には長弟アンソニーが死去する。	せんはっぴゃくななじゅうねんにじおとーとなさにえる、せんはっぴゃくななじゅうよねんにわさんおとーとめいやー、せんはっぴゃくななじゅうろくねんにわちょーおとーとあんそにーがしきょする。	NO_LABEL
ライオネルも弟たちの後を追うように1879年に死去した。	らいおねるもおとーとたちののちをおうよーにせんはっぴゃくななじゅうきゅうねんにしきょした。	NO_LABEL
1836年にナポリ家の祖であるカール・マイアー・フォン・ロートシルトの娘と結婚し、彼女との間に以下の5子を儲ける。	NO_PRONOUNCE	NO_LABEL
