アスカクリチャンは日本の競走馬である。	あすかくりちゃんわにっぽんのきょーそーばである。	NO_LABEL
馬名の意味は冠名＋愛称。	うまめいのいみわかんむりめいたすあいしょー。	NO_LABEL
主な勝ち鞍は2013年のアルゼンチン共和国杯、2012年の七夕賞。	おもなかちくらわにせんじゅうさんねんのあるぜんちんきょーわこくはい、にせんじゅうにねんのたなばたしょー。	NO_LABEL
アスカクリチャンは2009年9月6日、小倉芝1200mの2歳新馬戦で酒井学とのコンビでデビューしたが3着に敗れる。	あすかくりちゃんわにせんきゅうねんくがつむいか、こくらしばせんにひゃくめーとるのにさいしんばせんでさかいまなぶとのこんびででびゅーしたがさんちゃくにやぶれる。	NO_LABEL
その後5戦出走したが、掲示板には載るものの勝ち切ることができなかった。	そのごごせんしゅっそーしたが、けいじばんにわのるもののかちきることができなかった。	NO_LABEL
年が明けて3歳になったアスカクリチャンだったが、なかなか勝ち切れず、初勝利を挙げたのは5月の新潟芝1600mの3歳未勝利戦だった。	としがあけてさんさいになったあすかくりちゃんだったが、なかなかかちきれず、はつしょーりをあげたのわごがつのにーがたしばせんろっぴゃくめーとるのさんさいみしょーりせんだった。	NO_LABEL
デビューから11戦目のことだった。	でびゅーからじゅういちせんめのことだった。	NO_LABEL
初勝利の後、500万下条件戦を2戦したが、いずれも3着に敗れた。	はつしょーりののち、ごひゃくまんかじょーけんせんをにせんしたが、いずれもさんちゃくにやぶれた。	NO_LABEL
5月の新潟競馬で復帰したアスカクリチャンは2戦目の松浜特別で差し切り勝ちを決め、1年ぶりに勝ち星を挙げた。	ごがつのにーがたけいばでふっきしたあすかくりちゃんわにせんめのまつはまとくべつでさしきりかちをきめ、いちねんぶりにかちぼしをあげた。	NO_LABEL
1年ぶりに勝利したアスカクリチャンは夏になると新潟で2戦し、村上特別、月岡温泉特別を連勝した。	いちねんぶりにしょーりしたあすかくりちゃんわなつになるとにーがたでにせんし、むらかみとくべつ、つきおかおんせんとくべつをれんしょーした。	NO_LABEL
その後、アスカクリチャンは清水ステークス5着、紅葉ステークス2着と1600万下条件戦で好走すると、12月の阪神で行われたゴールデンホイップトロフィーで勝利し、オープン入りを果たした。	NO_PRONOUNCE	NO_LABEL
オープン入りしたアスカクリチャンは京都金杯6着、東京新聞杯10着と重賞の壁に跳ね返され、一旦夏まで休養することになった。	おーぷんいりしたあすかくりちゃんわきょーときんぱいろくちゃく、とーきょーしんぶんはいじゅうちゃくとじゅーしょーのかべにはねかえされ、いったんなつまできゅーよーすることになった。	NO_LABEL
夏に復帰すると、7月の福島で行われた七夕賞では14番人気と低評価だったが、1番人気のトーセンラーの追撃を振り切り、重賞初制覇を果たした。	なつにふっきすると、しちがつのふくしまでおこなわれたたなばたしょーでわじゅうよんばんにんきとていひょーかだったが、いちばんにんきのとーせんらーのついげきをふりきり、じゅーしょーはつせいはをはたした。	NO_LABEL
重賞初制覇を果たしたアスカクリチャンだったが、その後は小倉記念6着、新潟記念3着、福島記念10着、金鯱賞7着といまいちな成績で終わった。	じゅーしょーはつせいはをはたしたあすかくりちゃんだったが、そのごわこくらきねんろくちゃく、にーがたきねんさんちゃく、ふくしまきねんじゅうちゃく、きんこしょーななちゃくといまいちなせいせきでおわった。	NO_LABEL
4月に休養から復帰したアスカクリチャンだったが、産経大阪杯は7着、読売マイラーズカップは11着、新潟大賞典は8着と春シーズンは不振から抜け出せなかった。	しがつにきゅーよーからふっきしたあすかくりちゃんだったが、さんけいおーさかはいわななちゃく、よみうりまいらーずかっぷわじゅういちちゃく、にーがただいしょうてんわはちちゃくとはるしーずんわふしんからぬけだせなかった。	NO_LABEL
抜け出すきっかけになったのは7月の函館記念。	ぬけだすきっかけになったのわしちがつのはこだてきねん。	NO_LABEL
ここで3着になると、札幌記念2着、オールカマー5着と好走。	ここでさんちゃくになると、さっぽろきねんにちゃく、おーるかまーごちゃくとこーはし。	NO_LABEL
そして、オープン特別のアイルランドトロフィーで4着になったアスカクリチャンは11月の東京で行われたアルゼンチン共和国杯で直線で鋭く抜け出し重賞2勝目を飾った。	そして、おーぷんとくべつのあいるらんどとろふぃーでよんちゃくになったあすかくりちゃんわじゅーいちがつのとーきょーでおこなわれたあるぜんちんきょーわこくはいでちょくせんでするどくぬけだしじゅーしょーにしょーめをかざった。	NO_LABEL
重賞2勝目を飾ったアスカクリチャンは香港へ遠征し、香港ヴァーズに出走したが7着に終わった。	NO_PRONOUNCE	NO_LABEL
同年は日経賞から復帰したが8着に終わった。	どーねんわにっけいしょーからふっきしたがはちちゃくにおわった。	NO_LABEL
その後、天皇賞18着、目黒記念10着、函館記念11着と二桁着順が続いた。	そのご、てんのーしょーじゅうはちちゃく、めぐろきねんじゅうちゃく、はこだてきねんじゅういちちゃくとにけたちゃくじゅんがつずいた。	NO_LABEL
不振から抜け出すためにダートの重賞エルムステークスを使ったが12着に敗れた。	ふしんからぬけだすためにだーとのじゅーしょーえるむすてーくすをつかったがじゅうにちゃくにやぶれた。	NO_LABEL
そして新潟記念6着、オールカマー12着と2戦使って迎えた天皇賞では、優勝したスピルバーグから4秒2、17着のトーセンジョーダンからも3秒2も離された18着に敗れた。	NO_PRONOUNCE	NO_LABEL
ゴール後、騎乗していた三浦皇成が異変を感じ、すぐに下馬。	ごーるご、きじょーしていたみうらこーせいがいへんをかんじ、すぐにげば。	NO_LABEL
診療所で診察した結果、レース中に左後肢の繋靱帯断裂を発症していたことが判明。	しんりょーじょでしんさつしたけっか、れーすちゅーにひだりあとあしのけいじんたいだんれつをはっしょーしていたことがはんめい。	NO_LABEL
競走能力喪失と診断され、事実上引退が決まり、11月12日付で競走馬登録を抹消された。	きょーそーのーりょくそーしつとしんだんされ、じじつじょーいんたいがきまり、じゅーいちがつじゅうににちずけできょーそーばとーろくをまっしょーされた。	NO_LABEL
その後は治療に専念し、白馬牧場にて種牡馬に転身した。	そのごわちりょーにせんねんし、はくばぼくじょーにてしゅぼばにてんしんした。	NO_LABEL
