錦海湾は、瀬戸内海の備讃瀬戸にある湾。	きんかいわんわ、せとないかいのびさんせとにあるわん。	NO_LABEL
岡山県瀬戸内市南部にある。	おかやまけんせとーちしなんぶにある。	NO_LABEL
1950年代後半に大部分が干拓され、1960年代から1970年代前半には塩田として、1970年代後半から2000年代には製塩工場や産業廃棄物最終処分場として使用された。	せんきゅうひゃくごじゅうねんだいこーはんにだいぶぶんがかんたくされ、せんきゅうひゃくろくじゅうねんだからせんきゅうひゃくななじゅうねんだいぜんはんにわえんでんとして、せんきゅうひゃくななじゅうねんだいこーはんからにせんねんだいにわせいえんこーじょーやさんぎょーはいきぶつさいしゅーしょぶんじょーとしてしよーされた。	NO_LABEL
2018年には日本最大のメガソーラーが操業開始予定である。	にせんじゅうはちねんにわにっぽんさいだいのめがそーらーがそーぎょーかいしよていである。	NO_LABEL
東西2.8km、南北1.8kmであり、面積は約500ヘクタール/5kmである。	NO_PRONOUNCE	NO_LABEL
干拓地内部の海抜は地形図によればマイナス1m程度だが、瀬戸内市の調査では北端部を除く大部分が海抜0m以下であり、南部ではマイナス2.9mの地点が、中央部ではマイナス3.2mの地点が確認された。	かんたくちないぶのかいばつわちけいずによればまいなすいちめーとるていどだが、せとーちしのちょーさでわほくたんぶをのぞくだいぶぶんがかいばつぜろめーとるいかであり、なんぶでわまいなすにてんきゅうめーとるのちてんが、ちゅーおーぶでわまいなすさんてんにめーとるのちてんがかくにんされた。	NO_LABEL
干拓前、湾の北側には邑久郡邑久町が、南側には邑久郡牛窓町があり、干拓地は両町におおむね等しく分割された。	かんたくまえ、わんのきたがわにわおくぐんおくちょーが、みなみがわにわおくぐんうしまどちょーがあり、かんたくちわりょーちょーにおーむねひとしくぶんかつされた。	NO_LABEL
2004年には邑久町・牛窓町・長船町が合併して瀬戸内市となり、現在は干拓地の全域が瀬戸内市域である。	NO_PRONOUNCE	NO_LABEL
干拓地の周囲には北東から反時計回りに邑久町尻海、牛窓町長浜の集落が立地している。	かんたくちのしゅーいにわほくとーからはんとけいまわりにおくちょうしりみ、うしまどちょうながはまのしゅーらくがりっちしている。	NO_LABEL
北東端には玉津港や排水ポンプ場、南東端には師楽港や鈴井海岸などがある。	ほくとーたんにわたまつみなとやはいすいぽんぷじょー、なんとーたんにわしらくみなとやすずいかいがんなどがある。	NO_LABEL
1996年時点では干拓地の大部分が湿地だが、西端部や南端部の一部は耕地として使用されている。	せんきゅうひゃくきゅうじゅうろくねんじてんでわかんたくちのだいぶぶんがしっちだが、せいたんぶやなんたんぶのいちぶわこーちとしてしよーされている。	NO_LABEL
岡山県の年間降水量は1,105mmであり、長野県・香川県に次いで47都道府県中3番目に少ない。	NO_PRONOUNCE	NO_LABEL
また降水量1mm以下の日数は年276.8日であり、山梨県や兵庫県を凌いで47都道府県中もっとも多い。	NO_PRONOUNCE	NO_LABEL
これらの気候特性を生かし、岡山県では2013年8月末時点で14ヶ所のメガソーラーが稼働している。	NO_PRONOUNCE	NO_LABEL
1905年には塩の専売制が実施され、政府は生産性の低い塩田を整理するため、1910年から翌年にかけて第1次塩業整理を行なった。	せんきゅうひゃくごねんにわしおのせんばいせいがじっしされ、せいふわせいさんせいのていーえんでんをせいりするため、せんきゅうひゃくじゅうねんからよくねんにかけてだいいちじしおぎょーせいりをおこなった。	NO_LABEL
気候条件の良い瀬戸内地域は廃止の対象となった塩田が少なく、瀬戸内地域の塩業が全国に占める割合は塩田面積で約90%、生産量で約80%となった。	きこーじょーけんのよいせとうちちいきわはいしのたいしょーとなったえんでんがすくなく、せとうちちいきのしおぎょーがぜんこくにしめるわりあいわえんでんめんせきでやくきゅうじゅうぱーせんと、せいさんりょーでやくはちじゅうぱーせんととなった。	NO_LABEL
江戸時代から約300年間に渡って入浜式による製塩が行なわれてきたが、1950年代半ばには全国の入浜式塩田が流下式に転換されており、錦海塩田はその流れで建設されている。	えどじだいからやくさんびゃくねんかんにわたっていりはましきによるせいえんがおこなわれてきたが、せんきゅうひゃくごじゅうねんだいなかばにわぜんこくのいりはましきえんでんがりゅーかしきにてんかんされており、きんかいえんでんわそのながれでけんせつされている。	NO_LABEL
なお、錦海湾北岸の尻海には湾の干拓前から玉津塩田が存在した。	なお、きんかいわんほくがんのしりみにわわんのかんたくまえからたまつえんでんがそんざいした。	NO_LABEL
1956年に錦海湾の干拓工事が開始され、入口を1,800mの堤防で閉め切って約500ヘクタールの干拓地が造成された。	NO_PRONOUNCE	NO_LABEL
1956年に錦海塩業組合が設立され、1959年には製塩工場が完成して運転を開始。	せんきゅうひゃくごじゅうろくねんにきんかいしおぎょーくみあいがせつりつされ、せんきゅうひゃくごじゅうきゅうねんにわせいえんこーじょーがかんせいしてうんてんをかいし。	NO_LABEL
1960年には340ヘクタールの全塩田が完成し、錦海塩業組合は株式会社に改組された。	NO_PRONOUNCE	NO_LABEL
開発資本が広範囲から調達されたこと、入浜式塩田からの転換ではなく初めから流下式塩田として出発したことなどを特徴とした。	かいはつしほんがこーはんいからちょーたつされたこと、いりはましきえんでんからのてんかんでわなくはじめからりゅーかしきえんでんとしてしゅっぱつしたことなどをとくちょーとした。	NO_LABEL
錦海塩田は「東洋一の規模」を誇ったが、日本国内の総製塩量が増大して生産過剰状態となった。	NO_PRONOUNCE	NO_LABEL
1959年から翌年にかけて行なわれた第3次塩業整理では瀬戸内西部の塩田の多くが廃止されたが、瀬戸内地域以外ではより多くの塩田が廃止され、瀬戸内地域の塩田占有率は97%にも達した。	せんきゅうひゃくごじゅうきゅうねんからよくねんにかけておこなわれただいさんじしおぎょーせいりでわせとうちせいぶのえんでんのおーくがはいしされたが、せとうちちいきいがいでわよりおーくのえんでんがはいしされ、せとうちちいきのえんでんせんゆーりつわきゅうじゅうななぱーせんとにもたっした。	NO_LABEL
やがてイオン交換膜製塩法式が実用化され、1967年には錦海塩田でも塩田とイオン交換膜工場が同時に稼働。	やがていおんこーかんまくせいえんほーしきがじつよーかされ、せんきゅうひゃくろくじゅうななねにわきんかいえんでんでもえんでんといおんこーかんまくこーじょーがどーじにかどー。	NO_LABEL
塩田の労働力不足はイオン式への転換を促し、1970年には工場での生産量が塩田の生産量を上回った。	えんでんのろーどーりょくふそくわいおんしきえのてんかんをうながし、せんきゅうひゃくななじゅうねんにわこーじょーでのせいさんりょーがえんでんのせいさんりょーをうわまわった。	NO_LABEL
同年から翌年の第4次塩業整理で全国の塩田が全廃し、錦海塩田の塩田としての歴史は10年ほどに終わった。	どーねんからよくねんのだいよんじしおぎょーせいりでぜんこくのえんでんがぜんぱいし、きんかいえんでんのえんでんとしてのれきしわじゅうねんほどにおわった。	NO_LABEL
内海山田、赤穂、坂出、鳴門、いわき、崎戸島とともに、日本の製塩事業は7地域7企業に集約された。	NO_PRONOUNCE	NO_LABEL
なお、1968年には関西圏新空港の第1次候補5ヶ所のひとつに錦海湾が挙げられたが、すぐに候補から除外され、結局関西国際空港は調査開始から四半世紀後の1994年、大阪府の泉佐野市沖に建設されている。	NO_PRONOUNCE	NO_LABEL
塩田跡地は土地が低いため盛土が必要であり、塩分残留があるため農業用地や用水型工業用地には不向きである。	しおだあとちわとちがひくいためもりつちがひつよーであり、えんぶんざんりゅーがあるためのーぎょーよーちやよーすいがたこーぎょーよーちにわふむきである。	NO_LABEL
各地の塩田跡地は火力発電所、重化学工業用地、養殖場、ゴルフ場などに転用されている。	かくちのえんでんあとちわかりょくはつでんしょ、じゅーかがくこうぎょーよーち、よーしょくじょー、ごるふじょーなどにてんよーされている。	NO_LABEL
1978年には製塩工場と共存する形で、錦海塩業が塩田跡地で産業廃棄物最終処分事業を開始。	せんきゅうひゃくななじゅうはちねんにわせいえんこーじょーときょーぞんするかたちで、きんかいしおぎょーがえんでんあとちでさんぎょーはいきぶつさいしゅーしょぶんじぎょーをかいし。	NO_LABEL
製塩事業は2002年に廃止されたが、産廃処分事業は2008年まで継続された。	せいえんじぎょーわにせんにねんにはいしされたが、さんぱいしょぶんじぎょーわにせんはちねんまでけいぞくされた。	NO_LABEL
錦海塩業は2009年に自己破産を申請し、干拓地の排水ポンプの運転が中止される見込みとなった。	きんかいしおぎょーわにせんきゅうねんにじこはさんをしんせいし、かんたくちのはいすいぽんぷのうんてんがちゅーしされるみこみとなった。	NO_LABEL
排水ポンプの停止は干拓地や周辺低地への浸水につながるため、2010年には瀬戸内市が塩田跡地を取得した。	はいすいぽんぷのていしわかんたくちやしゅーへんていちえのしんすいにつながるため、にせんじゅうねんにわせちうちしがえんでんあとちをしゅとくした。	NO_LABEL
利用されなくなった塩田跡地には塩性湿地が形成され、日本の重要湿地500にも選出された。	りよーされなくなったしおだあとちにわえんせいしっちがけいせいされ、にほんのじゅーよーしっちごひゃくにもせんしゅつされた。	NO_LABEL
瀬戸内市は塩田取得後に自然環境調査を実施。	せちうちしわえんでんしゅとくごにしぜんかんきょーちょーさをじっし。	NO_LABEL
2012年9月にはメガソーラー建設構想の概要を発表し、塩田跡地約500ヘクタールのうち400ヘクタールに出力250MWpの発電所を建設するとした。	NO_PRONOUNCE	NO_LABEL
事業者は「瀬戸内Kirei未来創り連合体」であり、くにうみアセットマネジメント、ゴールドマン・サックス証券、東洋エンジニアリング、自然電力、日本IBM、NTT西日本、ジャーマン・インターナショナルの7社による連合体である。	NO_PRONOUNCE	NO_LABEL
くにうみアセットマネジメントが全体総括を行ない、くにうみアセットマネジメントとゴールドマン・サックス証券が資金調達などを、東洋エンジニアリングと自然電力と日本IBMが発電事業を、日本IBMとNTT西日本とジャーマン・インターナショナルがまちづくり事業を担当する。	NO_PRONOUNCE	NO_LABEL
2013年2月に瀬戸内市はより具体的な内容を発表し、4月には300ページ超の「錦海塩田跡地活用基本計画」を発表した。	NO_PRONOUNCE	NO_LABEL
出力は230 MWpに抑えられたが、完成すれば日本最大級となる。	NO_PRONOUNCE	NO_LABEL
跡地の東側の湿地帯には岡山県で初めてチュウヒの営巣が確認されたため、この区域は自然環境保護ゾーンとして現状のまま残すとし、整備面積は約250ヘクタールに縮小された。	NO_PRONOUNCE	NO_LABEL
この際の発表では推定事業費550-820億円、同年11月に着工し、2018年9月の操業開始を目指すとしている。	NO_PRONOUNCE	NO_LABEL
FIT制度での固定買い取り価格42円での売電収入を20年間にわたって確保する事業計画を立てている。	えふあいてぃーせいどでのこていかいとりかかくよんじゅうにえんでのうりでんしゅーにゅーをにじゅうねんかんにわたってかくほするじぎょーけいかくをたてている。	NO_LABEL
