迪化街は台北市の街区。	てきかがいわたいほくしのがいく。	NO_LABEL
歴史のある商店街、問屋街であり観光地としても扱われる。	れきしのあるしょーてんがい、とんやがいでありかんこーちとしてもあつかわれる。	NO_LABEL
本項では迪化街という名の街路の、周辺エリアとしての迪化街を扱う。	ほんこーでわてきかがいとゆうなのがいろの、しゅーへんえりあとしてのてきかがいをあつかう。	NO_LABEL
住所表記は台北市大同区迪化街。	じゅーしょひょーきわたいほくしだいとうくてきかがい。	NO_LABEL
台北駅から西方にあたる。	たいぺいえきからせいほーにあたる。	NO_LABEL
東西の幅は100メートル、南北の長さは約977メートルほどの細長い形で、9ヘクタールの面積を街区として含む。	NO_PRONOUNCE	NO_LABEL
台北市街地の北部にあたり、かつて大稻埕と呼ばれた地域の一部で、2000年公示の都市計画法に定められた「大稻埕歷史風貌特定專用區」という区画の一角をなす。	NO_PRONOUNCE	NO_LABEL
現行の行政区分上では大同区に含まれる。	げんこーのぎょーせいくぶんじょーでわだいとうくにふくまれる。	NO_LABEL
域内人口は約6,000人。	NO_PRONOUNCE	NO_LABEL
域内にはおよそ370棟の建物が並び、その半分程度にあたる178棟が歴史的建築物とされている。	NO_PRONOUNCE	NO_LABEL
200棟ほどが1階部分を店舗として利用している。	NO_PRONOUNCE	NO_LABEL
幅 8 メートルの迪化街という名のメインストリートに面した建物は、隣家と壁体を共有する形で密集し、裏手の路地は幅 1 メートルほどしかない。	NO_PRONOUNCE	NO_LABEL
建物のプランをみると、間口は 5.0 - 5.5メートルほどであるが、奥行きが50メートルに達するものもあり細長い矩形をなす。	NO_PRONOUNCE	NO_LABEL
建築様式は一定ではなく、さまざまな様式が混交している。	けんちくよーしきわいっていでわなく、さまざまなよーしきがこんこーしている。	NO_LABEL
バロック風の商館を起源に持つものや、洋館、昭和に入ってから建てられたモダニズム建築も見られる。	ばろっくふーのしょーかんをきげんにもつものや、よーかん、しょーわにはいってからたてられたもだにずむけんちくもみられる。	NO_LABEL
古惠菁の分類によれば、古い順に閩南式、倣洋楼式、洋楼式、バロック式、近代建築式の5様式に分けられ、林美吟らの分類によれば閩南式、洋楼式、バロック式、近代建築式と4様式に分類している。	NO_PRONOUNCE	NO_LABEL
いずれもファサードを特徴づけるベランダである亭仔脚をもつ。	NO_PRONOUNCE	NO_LABEL
これは街路に面した建物の正面に作られた、隣家と連結されたアーケード、商店街の屋根のような公共的な側面をもつ構造物である。	これわがいろにめんしたたてもののしょーめんにつくられた、りんかとれんけつされたあーけーど、しょーてんがいのやねのよーなこーきょーてきなそくめんをもつこーぞーぶつである。	NO_LABEL
アーケードなので1階部分が通行可能になっており、雨や日差しを避けることができる。	あーけーどなのでいっかいぶぶんがつーこーかのーになっており、あめやひざしをさけることができる。	NO_LABEL
一方で店舗が飲食用のテーブルを出していたりと占有し、通り抜けしにくい状態となっている風景も見られる。	いっぽーでてんぽがいんしょくよーのてーぶるをだしていたりとせんゆーし、とーりぬけしにくいじょーたいとなっているふーけいもみられる。	NO_LABEL
この施設は清朝時代に起源を見る指摘もあるが、日本による台湾統治の時代に法律によって設置が規定された構造体である。	このしせつわせいちょーじだいにきげんをみるしてきもあるが、にっぽんによるたいわんとーちのじだいにほーりつによってせっちがきていされたこーぞーたいである。	NO_LABEL
 当初は幅も高さも地方ごとにまちまちであったが、1900年にアーケードの幅および高さが規定されるようになった。	とーしょわはばもたかさもちほーごとにまちまちであったが、せんきゅうひゃくねんにあーけーどのはばおよびたかさがきていされるよーになった。	NO_LABEL
長らく完全に公共物であったが1999年以降は店舗による買戻しと私有が認められているので、公私の境はなお曖昧である。	ながらくかんぜんにこーきょーぶつであったがせんきゅうひゃくきゅうじゅうきゅうねんいこーわてんぽによるかいもどしとしゆーがみとめられているので、こーしのさかいわなおあいまいである。	NO_LABEL
かつて大滔捏と呼ばれる前のこの一帯は平埔族の一部族であったケタガラン人の部落であった。	NO_PRONOUNCE	NO_LABEL
1853年に艋舺から分類械闘の結果として漳州人に追放された泉州人が、艋舺の北へあたるこの地へ集団で移住した事が大滔捏の起源とされる。	NO_PRONOUNCE	NO_LABEL
1887年には淡水港の一部に組み込まれ、それにともなってアメリカおよびドイツが領事館を設置、本島人も商館を置いたため艋舺をしのぐ隆盛を見せた。	NO_PRONOUNCE	NO_LABEL
日本による台湾統治の時代が始まった1895年にはおそらく都市計画なしで自然と発生した街区が媽祖宮を中心に、おおむね東西南北方向に区分けする街路をもって形成されていた。	にっぽんによるたいわんとーちのじだいがはじまったせんはっぴゃくきゅうじゅうごねんにわおそらくとしけいかくなしでしぜんとはっせいしたがいくがまそみやをちゅーしんに、おーむねよもひろほーこーにくわけするがいろをもってけいせいされていた。	NO_LABEL
1900年に著された『東京帝国大学台湾土木事業報告書』によれば当時の台湾は未整備の市街地ばかりで道路は狭いし不潔であったとしているが、台北城内と台南の一部、それにこの地域はそれほど酷くないと評価している。	NO_PRONOUNCE	NO_LABEL
1905年に計画され1910年ごろに収束したと見られている第5次計画事業によってこの一帯も整備されたが、比較的清潔であったため街路はおおむね既存のまま流用されたと見られている。	せんきゅうひゃくごねんにけいかくされせんきゅうひゃくじゅうねんごろにしゅーそくしたとみられているだいごじけいかくじぎょーによってこのいったいもせいびされたが、ひかくてきせいけつであったためがいろわおーむねきそんのままりゅーよーされたとみられている。	NO_LABEL
一方でこの地域の中心的存在であった媽祖宮は工事の際に撤去されてしまったり、区画整理のために10万円を投じて600戸以上の家屋が破却されたりと、必要が有れば旧来の古跡も構わず整理される結果となった。	NO_PRONOUNCE	NO_LABEL
このような手法は台湾総督府の内部からも批判する者がでた。	このよーなしゅほーわたいわんそーとくふのないぶからもひはんするものがでた。	NO_LABEL
なお、この馬祖宮は移設されており現在も命脈を保っている。	なお、このばそみやわいせつされておりげんざいもめいみゃくをたもっている。	NO_LABEL
第二次世界大戦では台湾も空襲の対象となったが、この一帯は空襲を受けずに済んだため、旧来の建築が残されることとなった。	だいにじせかいたいせんでわたいわんもくーしゅーのたいしょーとなったが、このいったいわくーしゅーをうけずにすんだため、きゅーらいのけんちくがのこされることとなった。	NO_LABEL
日本が去って後 1947年、中華民国政府により迪化街と名付けられた。	にっぽんがさってごせんきゅうひゃくよんじゅうななね、ちゅーかみんこくせいふによりてきかがいとなずけられた。	NO_LABEL
旧来の狭隘な幅員の街路を主要な要因として、1970年ごろから明らかに衰退が始まった。	きゅーらいのきょーあいなふくいんのがいろをしゅよーなよーいんとして、せんきゅうひゃくななじゅうねんごろからあきらかにすいたいがはじまった。	NO_LABEL
1977年には道幅を広げるという再開発の計画が持ち上がり、伝統的な建物が撤去されるかもしれないという危機的状況に陥った。	せんきゅうひゃくななじゅうななねんにわみちはばをひろげるとゆうさいかいはつのけいかくがもちあがり、でんとーてきなたてものがてっきょされるかもしれないとゆうききてきじょうきょーにおちいった。	NO_LABEL
1983年にも計画案は出されたが、これらは反対運動により立ち消えとなり、2000年には景観保護区域の指定を受けた。	せんきゅうひゃくはちじゅうさんねんにもけいかくあんわだされたが、これらわはんたいうんどーによりたちぎえとなり、にせんねんにわけいかんほごくいきのしていをうけた。	NO_LABEL
先述の「大稻埕歷史風貌特定專用區」である。	NO_PRONOUNCE	NO_LABEL
補修や改修も進み、活気が戻ってきた。	ほしゅーやかいしゅーもすすみ、かっきがもどってきた。	NO_LABEL
現在は旧正月前ともなると台北中から買い物客が訪れる商店街であり、「台北市を代表する観光地の一つ」でもある。	NO_PRONOUNCE	NO_LABEL
迪化街という名称は1947年、すなわち中華民国政府による命名であり、それまでにはいくつかの呼び名があった。	てきかがいとゆうめいしょーわせんきゅうひゃくよんじゅうななね、すなわちちゅーかみんこくせいふによるめいめいであり、それまでにわいくつかのよびながあった。	NO_LABEL
日本統治より前に大滔捏の中北街と呼ばれていた箇所が現在の迪化街にあたる。	NO_PRONOUNCE	NO_LABEL
これに南街、中街を含める資料もある。	これになんがい、ちゅーがいをふくめるしりょーもある。	NO_LABEL
その後日本統治の時代になると永楽町と呼ばれるようになり、メインストリートは永楽町通りと呼ばれるようになった。	そのごにっぽんとーちのじだいになるとえいらくちょーとよばれるよーになり、めいんすとりーとわえいらくちょーどーりとよばれるよーになった。	NO_LABEL
現行の名称である迪化街と名付けられるのは日本が去って後 1947年になってからで、中華民国政府による命名である。	げんこーのめいしょーであるてきかがいとなずけられるのわにっぽんがさってごせんきゅうひゃくよんじゅうななねになってからで、ちゅーかみんこくせいふによるめいめいである。	NO_LABEL
新疆省のウルムチの古称「迪化」に由来する。	NO_PRONOUNCE	NO_LABEL
乾物の問屋が多いとされる迪化街であるが、以下のような名所、旧跡および観光施設が存在する。	かんぶつのとんやがおーいとされるてきかがいであるが、いかのよーなめいしょ、きゅーせきおよびかんこーしせつがそんざいする。	NO_LABEL
