『花の番地』は、1962年11月19日から1963年12月30日までTBS系列局で放送されていた朝日放送製作のテレビドラマである。	NO_PRONOUNCE	NO_LABEL
共進社油脂工業の一社提供。	きょーしんしゃゆしこうぎょーのいっしゃていきょー。	NO_LABEL
全58回。	ぜんごじゅうはっかい。	NO_LABEL
放送時間は毎週月曜 20:00 - 20:30。	NO_PRONOUNCE	NO_LABEL
世田谷に住む貿易会社重役の未亡人・園ゆき江、しっかり者のOLである長女・朝子、元気ハツラツな高校生である次女・光子の3人が繰り広げるドラマ。	NO_PRONOUNCE	NO_LABEL
年頃の娘2人を持った母親の喜びと悩み、そしてその娘たちの生活を描く。	としごろのむすめふたりをもったははおやのよろこびとなやみ、そしてそのむすめたちのせいかつをえがく。	NO_LABEL
光子を演じていたのは前作『シャボン玉ミコちゃん』で主役を務めていた弘田三枝子で、共進社油脂工業提供ドラマに2作続けての起用となった。	NO_PRONOUNCE	NO_LABEL
