沖縄美ら海水族館は、沖縄本島北西部の本部半島備瀬崎近くにある国営沖縄記念公園・海洋博覧会地区の 水族館で、管理・運営は一般財団法人沖縄美ら島財団。	NO_PRONOUNCE	NO_LABEL
「チュらうみ」とは沖縄の方言で「清〔きよ〕ら海」という意味。	NO_PRONOUNCE	NO_LABEL
大水槽を泳ぐジンベエザメやイルカショーが人気で、沖縄県の著名な観光地となっている。	だいすいそーをおよぐじんべえざめやいるかしょーがにんきで、おきなわけんのちょめいなかんこーちとなっている。	NO_LABEL
2005年にアメリカのジョージア水族館が開館されるまでは世界最大の水族館であった。	にせんごねんにあめりかのじょーじあすいぞくかんがかいかんされるまでわせかいさいだいのすいぞくかんであった。	NO_LABEL
水族館内には水量7,500mの世界最大級の大水槽『黒潮の海』を設置するほか、総展示槽数は77槽。	NO_PRONOUNCE	NO_LABEL
「沖縄の海との出会い」をコンセプトに、イノー、珊瑚礁、黒潮の海、深海と様々な海の生物を紹介している。	NO_PRONOUNCE	NO_LABEL
なかでも世界で初めて長期飼育に成功したジンベエザメやナンヨウマンタが人気の展示となっており、ジンベエザメは水族館のキャラクターともなっている。	なかでもせかいではじめてちょーきしいくにせいこーしたじんべえざめやなんようまんたがにんきのてんじとなっており、じんべえざめわすいぞくかんのきゃらくたーともなっている。	NO_LABEL
また、「サメ博士の部屋」では、サメについての様々な知識を学ぶことができる他、併設されている「危険ザメの海」水槽には、沖縄近海にも生息する危険ザメの一種であるオオメジロザメやイタチザメなどのサメ数種類も飼育されている。	NO_PRONOUNCE	NO_LABEL
2008年7月末の飼育数は約740種21,000点。	NO_PRONOUNCE	NO_LABEL
水族館の1階から2階を貫く「黒潮の海」水槽は、長さ35m×幅27m、深さ10m、水量7,500mで世界でも有数の大きさを誇る。	NO_PRONOUNCE	NO_LABEL
観客と大水槽を隔てるアクリルパネルは高さ8.2m、幅22.5m、厚さ60cm、パネル総重量は135トンあり、ギネスブック公認の世界最大のアクリルパネルとなっていたが、2008年10月にオープンしたドバイ水族館のアクリルパネルに記録を更新された。	NO_PRONOUNCE	NO_LABEL
この「黒潮の海」水槽には、全長8.6mものジンベエザメやナンヨウマンタをはじめ、サメやエイ、その他黒潮の多種多様な回遊魚たちが泳いでおり、来館者の視界いっぱいに水槽が広がる雄大な光景を見せている。	NO_PRONOUNCE	NO_LABEL
ジンベエザメは餌を採る際に口を水面に向け垂直の姿勢をとるが、成熟すれば全長9メートルに達するといわれるジンベエザメの尾が水底をこすらないように水槽の深さは10mとされたのである。	NO_PRONOUNCE	NO_LABEL
この大水槽では給餌解説が行われるほか、上部から水槽を観察する「黒潮探検」や水槽に隣接したカフェ「オーシャンブルー」などもあり、沖縄美ら海水族館のハイライトとなっている。	NO_PRONOUNCE	NO_LABEL
海洋博公園内に「オキちゃん劇場」「イルカラグーン」「ウミガメ館」「マナティー館」がある。	NO_PRONOUNCE	NO_LABEL
無料施設で、バンドウイルカ、ミナミバンドウイルカ、オキゴンドウ、カマイルカ、シワハイルカのショーや飼育を見学することができる。	むりょーしせつで、ばんどういるか、みなみばんどういるか、おきごんどー、かまいるか、しわはいるかのしょーやしいくをけんがくすることができる。	NO_LABEL
2005年に病気で尾びれの大半を失ったバンドウイルカの「フジ」が人工の尾びれを付けショーに復活したことが話題となったほか、岩貞るみこによって『もういちど宙へ』のタイトルで書籍化され、2007年にこれを原作として映画『ドルフィンブルー フジ、もういちど宙へ』が製作されたほか、2007年4月時点では水族館公認のイルカ飼育チームのウェブサイトが公開されていた。	NO_PRONOUNCE	NO_LABEL
メキシコ合衆国大統領から贈られたマナティーが飼育・展示されている。	NO_PRONOUNCE	NO_LABEL
1978年に贈られたオスの「ユカタン」、1997年に贈られたメスの「マヤ」、オスの「琉」の3頭の他、マナティー館で生まれたメスの「ユマ」がいる。	NO_PRONOUNCE	NO_LABEL
タイマイ、アオウミガメ、アカウミガメ、クロウミガメ、ヒメウミガメの5種類のウミガメを飼育・展示している。	NO_PRONOUNCE	NO_LABEL
水族館本体は新水族館開館に伴い、また、イルカスタジオ、海の保育園および水族館アーケード部は、コンクリートの劣化等により、2007年1月末から使用を休止し、すべて撤去されている。	すいぞくかんほんたいわしんすいぞくかんかいかんにともない、また、いるかすたじお、うみのほいくえんおよびすいぞくかんあーけーどぶわ、こんくりーとのれっかとーにより、にせんななねんいちがつまつからしよーをきゅーしし、すべててっきょされている。	NO_LABEL
沖縄本土復帰記念事業として1975年に本部町で開催された沖縄国際海洋博覧会において、海洋生物園が出展された。	おきなわほんどふっききねんじぎょーとしてせんきゅうひゃくななじゅうごねんにもとぶちょーでかいさいされたおきなわこくさいかいよーはくらんかいにおいて、かいよーせいぶつえんがしゅってんされた。	NO_LABEL
その後、博覧会跡地に国営沖縄海洋博覧会記念公園を整備するにあたり、博覧会施設を受け継いで1979年8月に開館した。	そのご、はくらんかいあとちにこくえいおきなわかいよーはくらんかいきねんこーえんをせいびするにあたり、はくらんかいしせつをうけついでせんきゅうひゃくななじゅうきゅうねんはちがつにかいかんした。	NO_LABEL
開館当時、水量1,100トンの水槽は世界最大であった。	NO_PRONOUNCE	NO_LABEL
バブル崩壊後の1991年頃から入館者数が減少し始めたことに加え、短期間の博覧会用に建設した施設のため老朽化が著しくなってきたことから、内閣府沖縄総合事務局が主体となって新館を建設し、旧来の水族館を2002年8月31日に閉館、沖縄本土復帰30周年に合わせて同年11月1日に新館を開館させた。	ばぶるほーかいごのせんきゅうひゃくきゅうじゅういちねんごろからにゅーかんしゃすーがげんしょーしはじめたことにくわえ、たんきかんのはくらんかいよーにけんせつしたしせつのためろーきゅーかがいちじるしくなってきたことから、ないかくふおきなわそーごーじむきょくがしゅたいとなってしんかんをけんせつし、きゅーらいのすいぞくかんをにせんにねんはちがつさんじゅういちにちにへいかん、おきなわほんどふっきさんじゅうしゅーねんにあわせてどーねんじゅーいちがつついたちにしんかんをかいかんさせた。	NO_LABEL
同時に現名称に改称された。	どーじにげんめいしょーにかいしょーされた。	NO_LABEL
管理運営は海洋博覧会記念公園管理財団が行っている。	かんりうんえいわかいよーはくらんかいきねんこーえんかんりざいだんがおこなっている。	NO_LABEL
旧館閉館前の1年間の入館者数は43万人強であったが、新館開館後の1年間のそれは275万人に激増した。	NO_PRONOUNCE	NO_LABEL
当時は、2001年9月11日に発生したアメリカ同時多発テロ事件により、在日米軍基地が多い沖縄県が旅行先として敬遠されて観光客数が激減した後、2002年11月に中国で発生したSARSにより、今度は日本国外への旅行客が沖縄へ旅行先を振り替えたという観光客の傾向があり、また、ドラマ『ちゅらさん』に代表される沖縄ブームもあった。	NO_PRONOUNCE	NO_LABEL
2005年度の入館者数は242万5176人で、以降おおむね横ばいであり2012年度は281万1480人であった。	NO_PRONOUNCE	NO_LABEL
通算来館者は2006年11月12日には1,000万人、2010年3月30日には2,000万人に達したと発表している。	NO_PRONOUNCE	NO_LABEL
休園日 ： 12月の第1水曜日とその翌日	NO_PRONOUNCE	NO_LABEL
海洋博公園の入場は 無料 となっている。	かいよーはくこーえんのにゅーじょーわむりょーとなっている。	NO_LABEL
身体障がい者手帳、療育手帳ならびに精神障がい者保健福祉手帳の交付を受けている方は無料です。	しんたいしょうがいしゃてちょー、りょーいくてちょーならびにせいしんしょうがいしゃほけんふくしてちょーのこーふをうけているほーわむりょーです。	NO_LABEL
また上記の手帳をお持ちの方に付き添いでご入館される方も、1名様まで無料で入館できます。	NO_PRONOUNCE	NO_LABEL
各種クレジットカード、Edy、nanaco、QUICPay、WAONでの支払い可能。	かくしゅくれじっとかーど、えでぃ、ななこ、くいっくぺい、わおんでのしはらいかのー。	NO_LABEL
水族館入口のチケット売り場のほか、沖縄県内のコンビニエンスストア、道の駅許田、那覇空港の観光案内所などでは、割引料金で前売券を購入することができる。	すいぞくかんいりぐちのちけっとうりばのほか、おきなわけんないのこんびにえんすすとあ、みちのえききょだ、なはくーこーのかんこーあんないしょなどでわ、わりびきりょーきんでまえうりけんをこーにゅーすることができる。	NO_LABEL
那覇空港から、沖縄自動車道経由で、約2時間	なはくーこーから、おきなわじどーしゃどーけいゆで、やくにじかん	NO_LABEL
那覇空港から約2時間10分 ～ 2時間30分	NO_PRONOUNCE	NO_LABEL
2017年7月から、那覇バス・琉球バス・沖縄バスによる、系統番号 117の路線が開設され、直行するバスが1日下り20便、上り22便となった。	NO_PRONOUNCE	NO_LABEL
