鹿谷郷は台湾南投県西南部の郷。	ろくこくきょーわたいわんなんとーけんせいなんぶのさと。	NO_LABEL
台湾烏龍茶として有名な「凍頂烏龍茶」の産地である。	NO_PRONOUNCE	NO_LABEL
鹿谷郷の最も古い記録としては1741年前後に漳州の人が番仔寮及び大園に入植した記録がある。	NO_PRONOUNCE	NO_LABEL
その後は泉州より林埔(現在の竹山）に入植し、その後周辺地域が開発され、初郷庄、新寮庄、坪仔頂庄、車輄寮庄、小半天庄、内樹皮庄等の集落が形成され現在に至っている。	NO_PRONOUNCE	NO_LABEL
もと「羌仔寮」と呼ばれていたが、1920年の地方制度實施の際、「羌仔寮」の意義を取って內地風の「鹿谷」に改められた。	NO_PRONOUNCE	NO_LABEL
国家森林遊楽区の一つである渓頭森林遊楽区と渓頭森林遊楽区周辺代表的な郷土料理店「紫林荘」である。	NO_PRONOUNCE	NO_LABEL
渓頭森林遊楽区は台湾の中部に位置する。	けいあたましんりんゆーらくくわたいわんのちゅーぶにいちする。	NO_LABEL
気候は温暖で降水量は約3,000mm、海抜は500〜2000mにおよぶことから動植物の種類が豊富である。	NO_PRONOUNCE	NO_LABEL
風光明媚なこの土地は、観光地として人気があり、年間111万人の観光客が訪れており、南投県の経済発展に寄与している。	NO_PRONOUNCE	NO_LABEL
渓頭森林遊楽区は国立台湾大学農学院が管理しており、面積は25kmである。	けいあたましんりんゆーらくくわこくりつたいわんだいがくのーがくいんがかんりしており、めんせきわにじゅうごきろめーとるである。	NO_LABEL
渓頭森林遊楽区には銀杏および孟宗竹など温帯の植物が生い茂っている。	けいあたましんりんゆーらくくにわいちょーおよびもーそーちくなどおんたいのしょくぶつがおいしげっている。	NO_LABEL
また、台湾杉や柳杉などの高木の森林地、遊歩道が整備されているため森林浴を楽しむことができる。	また、たいわんすぎややなぎすぎなどのたかぎのしんりんち、ゆーほどーがせいびされているためしんりんよくをたのしむことができる。	NO_LABEL
遊歩道の沿道には樹齢2800年、樹囲16mの檜「渓頭神木」がある。	NO_PRONOUNCE	NO_LABEL
また、渓頭森林遊楽区は、多種類の蝶や野鳥が生息しているため動物保護だけでなく、環境教育や学術研究の場としての役割もはたしている。	また、けいあたましんりんゆーらくくわ、たしゅるいのちょーややちょーがせいそくしているためどーぶつほごだけでなく、かんきょーきょーいくやがくじゅつけんきゅーのばとしてのやくわりもはたしている。	NO_LABEL
一方、紫林荘は渓頭森林遊楽区に行く途中にある台湾料理店であり、南投県では伝統的な郷土料理店の一つに数えられる。	いっぽー、むらさきりんそーわけいあたましんりんゆーらくくにいくとちゅーにあるたいわんりょーりてんであり、なんとーけんでわでんとーてきなきょーどりょーりてんのひとつにかぞえられる。	NO_LABEL
この店は1980年の夏に開店して以来26年間経営されている。	このみせわせんきゅうひゃくはちじゅうねんのなつにかいてんしていらいにじゅうろくねんかんけいえいされている。	NO_LABEL
この間1986年の韋恩台風、1995年の賀伯台風、1999年の九二一集集大地震、2001年の桃芝台風などの自然災害に見舞われた。	NO_PRONOUNCE	NO_LABEL
とりわけ桃芝台風の襲来時には、紫林荘は壊滅状態にあった。	とりわけももしばたいふーのしゅーらいじにわ、むらさきりんそーわかいめつじょーたいにあった。	NO_LABEL
半年後経営は再開されたが、売り上げは安定しなかった。	はんとしごけいえいわさいかいされたが、うりあげわあんていしなかった。	NO_LABEL
紫林荘の名称の由来は、店の周囲にある竹林の葉の色が冬季に濃い赤紫に変化することによる。	むらさきりんそーのめいしょーのゆらいわ、みせのしゅーいにあるちくりんのはのいろがとーきにこいあかむらさきにへんかすることによる。	NO_LABEL
紫林荘の建物の敷地は約700mであり、駐車場は約1,500mである。	NO_PRONOUNCE	NO_LABEL
店内には約120卓ある。	NO_PRONOUNCE	NO_LABEL
店の2階と3階には宴会場もあり、会社の研修や会議、団体客の食事などに利用されている。	みせのにかいとさんかいにわえんかいじょーもあり、かいしゃのけんしゅーやかいぎ、だんたいきゃくのしょくじなどにりよーされている。	NO_LABEL
建物や卓・椅子は地元の木材を使用している。	NO_PRONOUNCE	NO_LABEL
料理は竹筍料理が代表であり、山菜、虹鱒、山鶏など現地の食材を使う。	りょーりわたけたけのこりょーりがだいひょーであり、さんさい、にじます、さんけいなどげんちのしょくざいをつかう。	NO_LABEL
角肉と桂筍煮込み、緑筍サラダ、孟宗筍の冬筍鍋など季節によって異なる料理が作られる。	すみにくとかつらたけのこにこみ、みどりたけのこさらだ、もーそーたけのこのふゆたけのこなべなどきせつによってことなるりょーりがつくられる。	NO_LABEL
