『鯨神』は、宇能鴻一郎の小説。	NO_PRONOUNCE	NO_LABEL
1961年7月に文藝春秋の雑誌「文学界」に掲載。	NO_PRONOUNCE	NO_LABEL
同年第46回芥川賞受賞。	どーねんだいよんじゅうろっかいあくたがわしょーじゅしょー。	NO_LABEL
翌1962年に大映で映画化された。	よくせんきゅうひゃくろくじゅうにねんにだいえいでえいがかされた。	NO_LABEL
宇能は前年『光の飢え』が芥川賞候補となったが次点に終わり、本作で受賞の栄誉となった。	NO_PRONOUNCE	NO_LABEL
選評では井上靖が「野性的なエネルギーに満ちた」作品と激賞し、他の選考委員も賛意もしくは中立意見だった中、佐藤春夫のみが「古拙な趣きは認められずただ荒っぽいだけ」と反対意見を述べた。	NO_PRONOUNCE	NO_LABEL
翌1962年に文芸春秋社より単行本化され、1981年に中央公論社より文庫本化された。	よくせんきゅうひゃくろくじゅうにねんにぶんげいしゅんじゅーしゃよりたんこーぼんかされ、せんきゅうひゃくはちじゅういちねんにちゅーおーこーろんしゃよりぶんこぼんかされた。	NO_LABEL
表題作の他、「地獄銛」「光の飢え」「西洋祈りの女」の4編を収録。	NO_PRONOUNCE	NO_LABEL
1971年にさいとう・たかをにより漫画化された。	せんきゅうひゃくななじゅういちねんにさいとーたかおによりまんがかされた。	NO_LABEL
『鯨神』は、大映が製作・配給し、1962年7月15日に公開された日本の映画、特撮映画。	NO_PRONOUNCE	NO_LABEL
大映東京撮影所作品。	だいえいとーきょーさつえいしょさくひん。	NO_LABEL
100分、モノクロ、大映スコープ。	ひゃっぷん、ものくろ、だいえいすこーぷ。	NO_LABEL
明治時代初期、九州沿岸には、代々悪魔の鯨と恐れられる巨大な鯨が現れ、その凶暴な性格によりすでに何十人もの漁師が命を落としていた。	めいじじだいしょき、きゅーしゅーえんがんにわ、だいだいあくまのくじらとおそれられるきょだいなくじらがあらわれ、そのきょーぼーなせいかくによりすでになんじゅーにんものりょーしがいのちをおとしていた。	NO_LABEL
村人が鯨神と恐れるその鯨に父と兄を殺された若き漁師・シャキは、鯨神への復讐を誓う。	NO_PRONOUNCE	NO_LABEL
村の鯨名主は、鯨を倒した者に娘・トヨと屋敷を与えるという。	NO_PRONOUNCE	NO_LABEL
そんな時、村に流しの鯨漁師・紀州が現れる。	NO_PRONOUNCE	NO_LABEL
紀州はシャキと反目し、彼に恋焦がれる貧家の娘・エイを犯すが、シャキは鯨神を倒すことのみに執念を燃やし、トヨやエイの愛を受け入れることはなかった。	NO_PRONOUNCE	NO_LABEL
そして、再び現れた鯨神に対し、紀州は無謀にもその背に取り憑く。	NO_PRONOUNCE	NO_LABEL
村人たちの執念の銛が無数に鯨神へ打ち込まれ、怒り狂った鯨神とシャキの最後の戦いが始まる。	NO_PRONOUNCE	NO_LABEL
やがて、瀕死となりながらも勝利したシャキは、自分自身が鯨神と化していくのを感じるのだった。	やがて、ひんしとなりながらもしょーりしたしゃきわ、じぶんじしんがくじらがみとかしていくのをかんじるのだった。	NO_LABEL
同作の芥川賞受賞後、大映はすぐさま映画化権を獲得した。	どーさくのあくたがわしょーじゅしょーご、だいえいわすぐさまえいがかけんをかくとくした。	NO_LABEL
その際、宇能は大映から100万円の原作料を提示されたという。	そのさい、そらのーわだいえいからひゃくまんえんのげんさくりょーをていじされたという。	NO_LABEL
社会派の作品が多い新藤兼人の脚本を、『悪名』などで大映時代劇の屋台骨を担った田中徳三が監督し、東宝の怪獣映画などで有名な伊福部昭が音楽を担当した。	NO_PRONOUNCE	NO_LABEL
特殊撮影はクレジット上は小松原力となっているが、実質的には的場徹が取り仕切った。	とくしゅさつえいわくれじっとじょーわこまつばらつとむとなっているが、じっしつてきにわまとばとーるがとりしきった。	NO_LABEL
当時、大映は京都撮影所に特撮プールを持っていたため、特撮は主に京都で撮影した。	とーじ、だいえいわきょーとさつえいしょにとくさつぷーるをもっていたため、とくさつわおもにきょーとでさつえいした。	NO_LABEL
鯨神の造形は大橋史典が行い、全長30メートルにも及ぶ実物大のスケールモデルと、5.5メートルのモデルを800万円の巨費を投じて作成したが、造形は素晴らしかったもののほとんど動かせず、結局は高山良策がミニチュアを作成し、ほとんどはそれで撮影したという。	NO_PRONOUNCE	NO_LABEL
結果として、実物大モデルは俳優との絡みのシーンに、5.5メートルのモデルは潜水シーンのみに利用された。	NO_PRONOUNCE	NO_LABEL
それ以外にも、鯨神登場の前兆となる海鳥の群舞をアニメーションで表現するなど、大映らしい特殊撮影が効果を上げている。	それいがいにも、くじらがみとーじょーのぜんちょーとなるうみどりのぐんぶをあにめーしょんでひょーげんするなど、だいえいらしいとくしゅさつえいがこーかをあげている。	NO_LABEL
本郷功次郎と勝新太郎が鯨神の背に乗っているスチールは、アニメ合成を担当したうしおそうじによる切り貼りであった。	ほんごーこうじろーとかつしんたろーがくじらがみのせにのっているすちーるわ、あにめごーせいをたんとーしたうしおそーじによるきりはりであった。	NO_LABEL
