イザベラ・ブラックモーアは、カナダ・メソジスト教会婦人伝道会の宣教師である。	いざべらぶらっくもーあわ、かなだめそじすときょーかいふじんでんどーかいのせんきょーしである。	NO_LABEL
1863年にカナダのノバスコシア州のオンズローで生まれる。	せんはっぴゃくろくじゅうさんねんにかなだののばすこしあしゅーのおんずろーでうまれる	NO_LABEL
1889年7月トルロの師範学校を卒業して、教育宣教師として来日する。	せんはっぴゃくはちじゅうきゅうねんしちがつとるろのしはんがっこーをそつぎょーして、きょーいくせんきょーしとしてらいにちする。	NO_LABEL
1889年に東洋英和女学校の英語科教員になる。	せんはっぴゃくはちじゅうきゅうねんにとーよーえいわじょがっこーのえいごかきょーいんになる。	NO_LABEL
1891年に山梨英和女学校に移籍するが、1895年12月に東洋英和女学校に校長として復職する。	せんはっぴゃくきゅうじゅういちねにやまなしえいわじょがっこーにいせきするが、せんはっぴゃくきゅうじゅうごねんじゅーにがつにとーよーえいわじょがっこーにこーちょーとしてふくしょくする。	NO_LABEL
三期にわたり校長を務める。	さんきにわたりこーちょーをつとめる。	NO_LABEL
1918年高等科が東京女子大学に併合すると、東京女子大学の理事長になる。	せんきゅうひゃくじゅうはちねんこーとーかがとーきょーじょしだいがくにへいごーすると、とーきょーじょしだいがくのりじちょーになる。	NO_LABEL
1895年から、1923年までカナダ・メソジスト婦人伝道会日本総理を務める。	NO_PRONOUNCE	NO_LABEL
また、多くの社会事業に携わり、永坂孤女院を設立して運営したり、日本基督婦人矯風会理事を務めたりした。	また、おーくのしゃかいじぎょーにたずさわり、ながさかこにょいんをせつりつしてうんえいしたり、にっぽんきりすとふじんきょーふーかいりじをつとめたりした。	NO_LABEL
1925年三期目の校長を終えるとカナダに帰国した。	せんきゅうひゃくにじゅうごねんさんきめのこーちょーをおえるとかなだにきこくした。	NO_LABEL
