LAUGHIN' NOSEは、日本のパンク・ロックバンド。	NO_PRONOUNCE	NO_LABEL
サポートメンバー	さぽーとめんばー	NO_LABEL
ギター	ぎたー	NO_LABEL
ベース	べーす	NO_LABEL
ドラムス	どらむす	NO_LABEL
日本に確たるハードコアパンクシーンが形成される以前から、その中心的バンドとして活動していた。	にっぽんにかくたるはーどこあぱんくしーんがけいせいされるいぜんから、そのちゅーしんてきばんどとしてかつどーしていた。	NO_LABEL
メジャーデビュー前である1980年代前半から、THE WILLARD、有頂天と並び、「インディーズ御三家」といわれる程の人気を博した。	NO_PRONOUNCE	NO_LABEL
この「インディーズ御三家」という名称こそが、現在日本語として「インディーズ」という単語が浸透するきっかけとなっている。	NO_PRONOUNCE	NO_LABEL
バンド名の名付け親は初代ギタリストのアカベー。	ばんどめいのなずけおやわしょだいぎたりすとのあかべー。	NO_LABEL
自分達でレーベル「AAレコード」を設立し、音源を発売していた。	NO_PRONOUNCE	NO_LABEL
また、インディーズシーンで活躍する他のバンドの音源のリリースも積極的に行った。	また、いんでぃーずしーんでかつやくするほかのばんどのおんげんのりりーすもせっきょくてきにいった。	NO_LABEL
インディーズでの人気を得た後、1980年代にはメジャーデビューし活動。	いんでぃーずでのにんきをえたのち、せんきゅうひゃくはちじゅうねんだいにわめじゃーでびゅーしかつどー。	NO_LABEL
当時の「バンドブーム」の先駆けとなる。	NO_PRONOUNCE	NO_LABEL
1991年に一旦解散するが、1995年から再びインディーズシーンでの活動を再開。	せんきゅうひゃくきゅうじゅういちねんにいったんかいさんするが、せんきゅうひゃくきゅうじゅうごねんからふたたびいんでぃーずしーんでのかつどーをさいかい。	NO_LABEL
日本を代表する「パンクロックバンド」の１つとして、増子直純、難波章浩、大槻ケンジ、森若香織、ATSUSHI、桑原康伸、峯田和伸、JOE ALCOHOL、セイジ、石坂マサヨ、千秋、吉田豪、など多くのミュージシャン他からもリスペクトを受けている。	NO_PRONOUNCE	NO_LABEL
2011年には結成30周年を迎えた。	にせんじゅういちねんにわけっせいさんじゅうしゅーねんをむかえた。	NO_LABEL
現在も新曲の発売、ライブツアー、イベント参加、グッズ販売等、ライブハウスを中心に活動を続けている。	げんざいもしんきょくのはつばい、らいぶつあー、いべんとさんか、ぐっずはんばいとー、らいぶはうすをちゅーしんにかつどーをつずけている。	NO_LABEL
1981年12月、大阪で結成。	せんきゅうひゃくはちじゅういちねんじゅーにがつ、おーさかでけっせい。	NO_LABEL
1985年4月28日、新宿スタジオアルタ前にて自分たちの作品が収められたソノシート「聖者が街にやってくる」を事前に無料配布告知したところファンおよそ1300人が集まり、全国ニュースでも取り上げられる。	NO_PRONOUNCE	NO_LABEL
また、メジャーデビュー1か月前の10月26日、日比谷野外音楽堂でのライブで4000人を超えるファンを動員した。	また、めじゃーでびゅーいっかげつまえのじゅーがつにじゅうろくにち、ひびややがいおんがくどーでのらいぶでよんせんにんをこえるふぁんをどーいんした。	NO_LABEL
同年11月21日、VAPよりメジャーデビュー。	どーねんじゅーいちがつにじゅういちにち、ばっぷよりめじゃーでびゅー。	NO_LABEL
順調な活動を続けていたさなかの1987年4月19日に 日比谷野外音楽堂でのライブ中、ステージに詰め掛けたファンが将棋倒しになり、3人の死者を出す事故が発生。	じゅんちょーなかつどーをつずけていたさなかのせんきゅうひゃくはちじゅうななねしがつじゅうきゅうにちにひびややがいおんがくどーでのらいぶちゅー、すてーじにつめかけたふぁんがしょーぎだおしになり、さんにんのししゃをだすじこがはっせい。	NO_LABEL
バンドは責任を取る形で謹慎。	ばんどわせきにんをとるかたちできんしん。	NO_LABEL
しかし多くのファンの後押しにより活動を再開する。	しかしおーくのふぁんのあとおしによりかつどーをさいかいする。	NO_LABEL
1988年1月、VAPから東芝EMIにレコード会社移籍。	せんきゅうひゃくはちじゅうはちねんいちがつ、ばっぷからとーしばいーえむあいにれこーどがいしゃいせき。	NO_LABEL
1989年5月、PONとNAOKIが脱退を表明し、8月にMZA有明で脱退ライブを3日間開催。	NO_PRONOUNCE	NO_LABEL
その3日後のイベントから新メンバーにBELLEYが加入。	NO_PRONOUNCE	NO_LABEL
追って10月のイベントからWANG-TANGが加入。	NO_PRONOUNCE	NO_LABEL
12月、都内近郊ライブハウスで「襲名披露ライブ」を開催。	NO_PRONOUNCE	NO_LABEL
1990年2月19日、ニューアルバム発売3日前に「16歳のファン限定」イベント「SIXTEEN'S PARTY」を原宿RUIDOで開催。	NO_PRONOUNCE	NO_LABEL
その後はBELLEYの逮捕、MARUの脱退等もあったが、サポートメンバーにHIROKIを加え全国ツアー「TOUR PUNK IT UP」を展開するなど活動。	NO_PRONOUNCE	NO_LABEL
1991年、ニューアルバム発売後の「POWER AND GLORY INTERNATIONAL TOUR '91」を経て、8月20日のイベントに出演後バンドは解散。	NO_PRONOUNCE	NO_LABEL
1995年、CHARMYとPONが意気投合し、約3年半ぶりに活動を再開。	NO_PRONOUNCE	NO_LABEL
1月8日、旧新宿ロフトで再始動ライブを行い同時に自主レーベル「Letsrock・AAレコード」も復活させる。	NO_PRONOUNCE	NO_LABEL
同年7月、AKIOがVANILLAのメジャーデビューに伴い脱退、約4年ぶりにBELLEYが復帰加入。	NO_PRONOUNCE	NO_LABEL
1997年、WANG-TANGが脱退し、KENJIが加入。	NO_PRONOUNCE	NO_LABEL
1998年、BELLEYが脱退し、THE RYDERSに加入。	NO_PRONOUNCE	NO_LABEL
トレードの形となり、THE RYDERSで活動していたKASUGAが加入。	NO_PRONOUNCE	NO_LABEL
2004年10月30日 17年ぶりに日比谷野外音楽堂でライブを行う。	にせんよねんじゅーがつさんじゅうにちじゅうななねんぶりにひびややがいおんがくどーでらいぶをおこなう。	NO_LABEL
1987年事故当時のメンバーもゲストとして参加した。	せんきゅうひゃくはちじゅうななねじことーじのめんばーもげすととしてさんかした。	NO_LABEL
2006年、YOSSYが脱退。	NO_PRONOUNCE	NO_LABEL
1980年代にTHE WILLARDのドラマーとしても活躍していたKYOYAがサポートメンバーで参加し、その後正式に加入。	NO_PRONOUNCE	NO_LABEL
2007年9月24日 日比谷野外音楽堂のライブ『ラフィン祭り』ではメジャー時代に在籍したメンバーがゲストとして参加。	NO_PRONOUNCE	NO_LABEL
第2部では約17年ぶりに、SIXTEEN期メンバーが揃い演奏。	NO_PRONOUNCE	NO_LABEL
この日のラストナンバー「GET THE GLORY」は当時のメンバーがゲスト4人と共に演奏。	NO_PRONOUNCE	NO_LABEL
2008年4月、KASUGAが脱退。	NO_PRONOUNCE	NO_LABEL
翌5月、THE RYDERS脱退後フリーで活動していたBELLEYが約10年ぶりに復帰加入。	NO_PRONOUNCE	NO_LABEL
2011年1月、EDWINとのコラボ企画で「LONDON SLIM　ラフィンモデル」を限定復刻発売。	NO_PRONOUNCE	NO_LABEL
また、翌2012年にも「DENIM JACKET　ラフィンモデル」を発売。	NO_PRONOUNCE	NO_LABEL
2011年4月、同3月11日に発生した東北地方太平洋沖地震・東日本大震災に際し、2007年9月24日の日比谷野音でのライブを撮影した映像をチャリティーDVDとして発売し、5月に義援金として売り上げの全額を寄付。	NO_PRONOUNCE	NO_LABEL
2011年12月2日、WOWOWプライム-ノンフィクションWにて、結成30周年を迎え初の公式ドキュメンタリーフィルム『ラフィンノーズという生き方』が放送。	NO_PRONOUNCE	NO_LABEL
2013年5月、全国ツアー終了後にKYOYAが脱退。	NO_PRONOUNCE	NO_LABEL
2013年12月、同年内の活動をもってBELLEYが脱退。	NO_PRONOUNCE	NO_LABEL
