ヨナス・ラーシュ・ビョルクマンは、スウェーデン・出身の男子プロテニス選手。	NO_PRONOUNCE	NO_LABEL
ダブルスの名手であり、男子ダブルスでキャリア・グランドスラムを達成した選手。	だぶるすのめいしゅであり、だんしだぶるすできゃりあぐらんどすらむをたっせいしたせんしゅ。	NO_LABEL
自己最高ランキングはシングルス4位、ダブルス1位。	じこさいこーらんきんぐわしんぐるすよんい、だぶるすいちー。	NO_LABEL
ATPツアーでは、シングルス6勝、ダブルス54勝をあげた。	えーてぃーぴーつあーでわ、しんぐるすろくしょー、だぶるすごじゅうよんしょーをあげた。	NO_LABEL
右利き、バックハンド・ストロークは両手打ち。	NO_PRONOUNCE	NO_LABEL
6歳からテニスを始め、1991年にプロ入り。	ろっさいからてにすをはじめ、せんきゅうひゃくきゅうじゅういちねんにぷろいり。	NO_LABEL
男子テニスツアー下部組織の大会を回っていた頃、1993年4月に名古屋で行われたトーナメントでパトリック・ラフターを破って優勝したこともある。	だんしてにすつあーかぶそしきのたいかいをまわっていたころ、せんきゅうひゃくきゅうじゅうさんねんしがつになごやでおこなわれたとーなめんとでぱとりっくらふたーをやぶってゆーしょーしたこともある。	NO_LABEL
同年の全米オープンで4大大会初出場を果たす。	NO_PRONOUNCE	NO_LABEL
1994年から男子テニス国別対抗戦デビスカップスウェーデン代表選手となり、1994年、1997年、1998年の3度スウェーデン代表のデビスカップ優勝に貢献した。	せんきゅうひゃくきゅうじゅうよねんからだんしてにすくにべつたいこーせんでびすかっぷすーぇーでんだいひょーせんしゅとなり、せんきゅうひゃくきゅうじゅうよねん、せんきゅうひゃくきゅうじゅうなな、せんきゅうひゃくきゅうじゅうはちねんのさんどすーぇーでんだいひょーのでびすかっぷゆーしょーにこーけんした。	NO_LABEL
1994年全米オープン男子シングルスでは準々決勝に進出した。	せんきゅうひゃくきゅうじゅうよねんぜんべいおーぷんだんししんぐるすでわじゅんじゅんけっしょーにしんしゅつした。	NO_LABEL
1996年アトランタ五輪にスウェーデン代表選手として初出場したが、シングルス・ダブルスともに1回戦で敗退した。	NO_PRONOUNCE	NO_LABEL
1997年にヨナス・ビョルクマンはATPツアーでシングルスで初優勝を果たし、この年にシングルスで3勝をあげたほか、全米オープンでは、自身初の4大大会ベスト4に進出し、グレグ・ルーゼドスキーに1-6, 6-3, 6-3, 3-6, 5-7のフルセットで惜敗した。	NO_PRONOUNCE	NO_LABEL
その後は、主にダブルスで好成績を残す。	そのごわ、おもにだぶるすでこーせいせきをのこす。	NO_LABEL
1998年全豪オープンではヤッコ・エルティンとペアを組み、ウッディーズを破り、4大大会ダブルス初優勝を飾った。	NO_PRONOUNCE	NO_LABEL
1999年全豪オープン男子ダブルスでは、パトリック・ラフターとペアを組んで、決勝でマヘシュ・ブパシリーンダー・パエス組を6-3, 4-6, 6-4, 6-7, 6-4で破り2連覇を達成。	NO_PRONOUNCE	NO_LABEL
2001年全豪オープン男子ダブルスでは、トッド・ウッドブリッジとのペアで2年ぶり3度目の優勝を飾った。	にせんいちねんぜんごーおーぷんだんしだぶるすでわ、とっどうっどぶりっじとのぺあでにねんぶりさんどめのゆーしょーをかざった。	NO_LABEL
このウッドブリッジとのペアでは、2002年から2004年にかけてウィンブルドン選手権男子ダブルス3連覇を達成している。	このうっどぶりっじとのぺあでわ、にせんにねんからにせんよねんにかけてうぃんぶるどんせんしゅけんだんしだぶるすさんれんぱをたっせいしている。	NO_LABEL
加えて、2003年全米オープンにおいて、男子ダブルス初優勝を果たした。	くわえて、にせんさんねんぜんべいおーぷんにおいて、だんしだぶるすはつゆーしょーをはたした。	NO_LABEL
ウッドブリッジが2005年に引退した後、ビョルクマンは2007年まで大半のトーナメントでミルヌイと組み、2005年全仏オープンではミルヌイとのペアでブライアン兄弟を2-6, 6-1, 6-4の逆転で破り、同大会男子ダブルス初優勝を飾るとともに、男子ダブルスキャリア・グランドスラムという偉業を達成した。	NO_PRONOUNCE	NO_LABEL
翌2006年全仏オープンでもミルヌイとのペアで前年同様にブライアン兄弟のペアを破り男子ダブルス2連覇を成し遂げた。	NO_PRONOUNCE	NO_LABEL
これが、自身最後のグランドスラムタイトルである。	これが、じしんさいごのぐらんどすらむたいとるである。	NO_LABEL
さらにビョルクマンは2006年ウィンブルドン選手権男子シングルスで4大大会では9年ぶり2度目となる準決勝進出を果たした。	NO_PRONOUNCE	NO_LABEL
1回戦で第12シードの同じスウェーデンのトーマス・ヨハンソンを3-6, 7-6, 6-1, 6-1で破って弾みをつけ、4回戦ではミルヌイを6-3, 7-64-6, 2-6, 6-3の、準々決勝では第14シードのラデク・ステパネクに7-6, -6, 6-7, 7-6, 6-4のフルセットで勝利、準決勝では、第1シードのロジャー・フェデラーに2-6, 0-6, 2-6と完敗した。	NO_PRONOUNCE	NO_LABEL
現役最後の年2008年はケビン・ウリエットと組み、ウィンブルドン選手権男子ダブルスでウリエットとのペアで4年ぶり4度目の決勝進出を果たしたが、第2シードのダニエル・ネスター/ネナド・ジモニッチ組に6-7, 7-6, 3-6, 3-6で敗れて優勝を逃した。	NO_PRONOUNCE	NO_LABEL
2008年のシーズンを最後に36歳で現役を引退、17年間のプロ生活に終止符を打った。	にせんはちねんのしーずんをさいごにさんじゅうろっさいでげんえきをいんたい、じゅうななねんかんのぷろせいかつにしゅーしふをうった。	NO_LABEL
その後、ビョルクマンは2013年10月、地元のストックホルム・オープンのダブルスにロベルト・リンドステットと組み5年ぶりにツアーに出場し準優勝している。	そのご、びょるくまんわにせんじゅうさんねんじゅーがつ、じもとのすとっくほるむおーぷんのだぶるすにろべるとりんどすてっととくみごねんぶりにつあーにしゅつじょーしじゅんゆーしょーしている。	NO_LABEL
