大峰岳とは、青森県深浦町の山である。	おーみねだけとわ、あおもりけんふかうらまちのやまである。	NO_LABEL
白神山地の中にあり、大峰岳から東側一帯は世界遺産の緩衝地帯になっている。	しらかみさんちのなかにあり、おーみねだけからひがしがわいったいわせかいいさんのかんしょーちたいになっている。	NO_LABEL
大峰岳は白神岳の十二湖コース登山道の途中にある。	おーみねだけわしらがみだけのじゅーにここーすとざんどーのとちゅーにある。	NO_LABEL
西には三角点がある小峰岳がある。	にしにわさんかくてんがあるこみねだけがある。	NO_LABEL
通常は小峰岳へ向かう稜線の端に大峰岳の山頂が設定されていて、ここに山頂表示もある。	つーじょーわこみねだけえむかうりょーせんのはしたにおーみねだけのさんちょーがせっていされていて、ここにさんちょーひょーじもある。	NO_LABEL
白神岳登山口の白神岳案内板や地元で配布しているパンフレットもこの位置と標高に山頂が示されている。	しらかみだけとざんぐちのしらがみだけあんないばんやじもとではいふしているぱんふれっともこのいちとひょーこーにさんちょーがしめされている。	NO_LABEL
しかし『白神岳』西口正司や1960年代の「能代山の会」の白神岳概念図、『白神山地修験の源流行』北川山人などでは、を大峰岳としている。	NO_PRONOUNCE	NO_LABEL
また各社の電子地形図もこの地点を山頂としている。	またかくしゃのでんしちけいずもこのちてんをさんちょーとしている。	NO_LABEL
ここは何の表示もないちょっとしたピークとなっている。	ここわなにのひょーじもないちょっとしたぴーくとなっている。	NO_LABEL
『白神岳』では「大峰岳の山頂は三角点がないので、確認できていないまま長い稜線の道を進むと、やがて小峰岳に向かう稜線に達し、90度向きを変えて少し進んだ所から向白神の山並みが絶景となって展望される。	NO_PRONOUNCE	NO_LABEL
どれが向白神か見当がつかない。	どれがこーしらかみかけんとーがつかない。	NO_LABEL
ここから大峰の下りとなり、大きな下りは高度差約100mである」としている。	NO_PRONOUNCE	NO_LABEL
大峰岳の南はロープつきの急坂になっており、北は上記のように長い稜線になっている。	おーみねだけのみなみわろーぷつきのきゅーざかになっており、きたわじょーきのよーにながいりょーせんになっている。	NO_LABEL
江戸時代、菅江真澄は1796年7月西津軽郡深浦から出羽との国境である大間越まで来たとき、「浜つたひ　小岑大嶺雲ふかく　いざしらかみの嶺ぞ見やらぬ」と『外浜奇勝』で詠んでいる。	NO_PRONOUNCE	NO_LABEL
