田中 護は、日本の俳優。	たなかまもるわ、にっぽんのはいゆー。	NO_LABEL
北海道出身。	ほっかいどーしゅっしん。	NO_LABEL
エースエージェント所属。	えーすえーじぇんとしょぞく。	NO_LABEL
かつては鈴井貴之の主催する劇団「OOPARTS」に所属していた。	NO_PRONOUNCE	NO_LABEL
身長171cm。	しんちょーひゃくななじゅういちせんちめーとる。	NO_LABEL
体重65kg。	たいじゅーろくじゅうごきろぐらむ。	NO_LABEL
血液型はO型。	けつえきがたわおーがた。	NO_LABEL
マッシュルームカットが特徴的な人物である。	まっしゅるーむかっとがとくちょーてきなじんぶつである。	NO_LABEL
