ライオンゴロシは、ゴマ科の植物の1種である。	らいおんごろしわ、ごまかのしょくぶつのいちしゅである。	NO_LABEL
木質でかぎづめのある果実をつけることが特徴で、英名の「devil's claw」、「grapple plant」の由来となった。	NO_PRONOUNCE	NO_LABEL
属名である「"Harpagophytum"」は、英名「grapple plant」をギリシャ語に訳した言葉である。	NO_PRONOUNCE	NO_LABEL
種小名である「"procumbens"」は前立腺を意味し、茎が地面を這っている状態から名付けられた。	NO_PRONOUNCE	NO_LABEL
果実のかぎづめにより動物の毛やひづめに絡み付き、それにより広く散布され、自生範囲を広げている。	かじつのかぎづめによりどーぶつのけやひづめにからみつき、それによりひろくさんぷされ、じせいはんいをひろげている。	NO_LABEL
ライオンの口にこの果実が絡み付くと、その痛さのあまり餌をとることができず餓死したことから、「ライオンゴロシ」という名がつけられたと言われる。	NO_PRONOUNCE	NO_LABEL
ライオンゴロシは、水分の多い塊茎を持つ多年草である。	らいおんごろしわ、すいぶんのおーいかいけいをもつたねんそーである。	NO_LABEL
地上茎は、地面を這いながら年間2m成長する。	ちじょーくきわ、じめんをはいながらねんかんにめーとるせいちょーする。	NO_LABEL
地上茎は、一次塊茎から成長する。	ちじょーくきわ、いちじかいけいからせいちょーする。	NO_LABEL
塊茎から成長した主根は、地下2m近くまで成長する。	かいけいからせいちょーしたしゅねわ、ちかにめーとるちかくまでせいちょーする。	NO_LABEL
二次塊茎は、一次塊茎から長さ25cm、厚さ6cmまで成長する。	にじかいけいわ、いちじかいけいからながさにじゅうごせんちめーとる、あつさろくせんちめーとるまでせいちょーする。	NO_LABEL
二次塊茎には、デンプンなどの光合成の生成物が含まれる。	にじかいけいにわ、でんぷんなどのこーごーせいのせいせいぶつがふくまれる。	NO_LABEL
葉は単生で対生であり、長さ6.5cm、幅4cmになる。	はわたんせいでたいせいであり、ながさろくてんごせんちめーとる、はばよんせんちめーとるになる。	NO_LABEL
葉には切れ込みがある。	はにわきれこみがある。	NO_LABEL
花は、5 - 6cmの長さで、筒状の花をつける。	NO_PRONOUNCE	NO_LABEL
花の色は、明るいムラサキ色あるいはピンク色であるが、筒の内部は黄色である。	はなのいろわ、あかるいむらさきいろあるいわぴんくいろであるが、つつのないぶわきいろである。	NO_LABEL
夏期に咲く。	かきにさく。	NO_LABEL
果実は1月に成熟する。	かじつわいちがつにせいじゅくする。	NO_LABEL
大きく直径12cmに達し、4つのかぎづめがある。	おーきくちょっけいじゅうにせんちめーとるにたっし、よっつのかぎづめがある。	NO_LABEL
種子は、暗茶色あるいは黒色である。	しゅしわ、くらちゃいろあるいわこくしょくである。	NO_LABEL
主に南アフリカのカラハリ砂漠のほか、アンゴラ、ボツワナ、ザンビア、ジンバブエ、ナミビア、モザンビークでも自生している。	おもにみなみあふりかのからはりさばくのほか、あんごら、ぼつわな、ざんびあ、じんばぶえ、なみびあ、もざんびーくでもじせいしている。	NO_LABEL
草本や低木が生えた放牧地、砂地や粘土質の土壌にて生育している。	そーほんやていぼくがはえたほーぼくち、すなじやねんどしつのどじょーにてせいいくしている。	NO_LABEL
ライオンゴロシには、2つの亜種がある。	らいおんごろしにわ、ふたつのあしゅがある。	NO_LABEL
ライオンゴロシは、カラハリ砂漠に住む住民によって数世紀に渡り、医薬草として消化器系の病気から伝染病の幅広い病気や傷の治療に利用されてきた。	らいおんごろしわ、からはりさばくにすむじゅーみんによってすーせいきにわたり、いやくそーとしてしょーかきけいのびょーきからでんせんびょーのはばひろいびょーきやきずのちりょーにりよーされてきた。	NO_LABEL
塊茎の抽出物は、インドリド配糖体、フィトステロイド、フラボノイドなどが含まれており、それらは変性の慢性関節リウマチ、骨関節症、腱炎、心臓病の治療に効用があるとされる。	かいけいのちゅーしゅつぶつわ、いんどりどはいとーたい、ふぃとすてろいど、ふらぼのいどなどがふくまれており、それらわへんせいのまんせいかんせつりうまち、こつかんせつしょー、けんえん、しんぞーびょーのちりょーにこーよーがあるとされる。	NO_LABEL
塊茎は、地元住民によって収穫され、彼らの収入源となっている。	かいけいわ、じもとじゅーみんによってしゅーかくされ、かれらのしゅーにゅーげんとなっている。	NO_LABEL
現在、その効能は西洋医学でも利用され、錠剤として処方されている。	げんざい、そのこーのーわせいよーいがくでもりよーされ、じょーざいとしてしょほーされている。	NO_LABEL
