ジアペルタはアメリカ、ニューメキシコ州の上部白亜系の地層から発見されたアンキロサウルス科の曲竜類恐竜の絶滅種である。	じあぺるたわあめりか、にゅーめきしこしゅーのじょーぶはくあけいのちそーからはっけんされたあんきろさうるすかのきょくりゅーるいきょーりゅーのぜつめつしゅである。	NO_LABEL
現在のところタイプ種"Z. sanjuanensis" 一種のみが発見されている。	NO_PRONOUNCE	NO_LABEL
2011年にRobert Michael Sullivan率いるとの共同調査隊はカートランド累層で発掘調査を行った。	NO_PRONOUNCE	NO_LABEL
そしてニューメキシコ州の にあるカートランド層のハンターウォッシュ部層とデナジン部層で"Z. sanjuanensis"の多数の化石を発見した。	NO_PRONOUNCE	NO_LABEL
"Z. sanjuanensis"はホロタイプであるNMMNH P-64484を含む多数の化石により新種と同定された。	NO_PRONOUNCE	NO_LABEL
このホロタイプはデナジン部層で発見されたものであり、1つの下顎を欠くものの完全な頭骨、第一、第二ハーフリング、および多数の部分的なで構成される。	このほろたいぷわでなじんぶそーではっけんされたものであり、ひとつのしもあごをかくもののかんぜんなずこつ、だいいち、だいにはーふりんぐ、およびたすーのぶぶんてきなでこーせいされる。	NO_LABEL
また、この種のものとされる別の標本NMMNH P-66930はデナジン部層より古いハンターウォッシュ部層で発見されたもので、第一ハーフリングである。	NO_PRONOUNCE	NO_LABEL
2014年にVictoria Arbour、Michael Burns、Robert Sullivan、、 Amanda Cantrell、Joshua Fry および Thomas Suazoによりタイプ種"Ziapelta sanjuanensis" として命名、記載された。	NO_PRONOUNCE	NO_LABEL
属名"Ziapelta" はジアの宗教イメージであり、ニューメキシコ州の旗にも使用されているジアの太陽シンボルとアンキロサウルス科の皮骨を表し、ラテン語で「盾」を意味する語である""にちなんだものである。	NO_PRONOUNCE	NO_LABEL
種小名"sanjuanensis" は化石の発見地であるサンファン郡に由来する。	NO_PRONOUNCE	NO_LABEL
"Z. sanjuanensis"は3つの固有派生形質がある。	NO_PRONOUNCE	NO_LABEL
口吻部の中ほどにある骨の板"caputegula"が大きく、目立ち、おおよそ三角形をしている。	NO_PRONOUNCE	NO_LABEL
鱗状骨の角は基部から先端まで10 cmほどと長く、先端が前方に曲がっている。	NO_PRONOUNCE	NO_LABEL
頭骨の基部付近に深い3つの溝がある。	ずこつのきぶふきんにふかいみっつのみぞがある。	NO_LABEL
頭骨背面部の角は太く、下に曲がっている。	ずこつはいめんぶのかくわふとく、したにまがっている。	NO_LABEL
前眼窩部は凸状であり、が幅広くて、四角く、頭部の装飾を覆いっている。	ぜんがんかぶわとつじょーであり、がはばひろくて、しかくく、とーぶのそーしょくをおおいっている。	NO_LABEL
上顎骨は長さ12 cmほどで両側に18本ずつの歯がある。	NO_PRONOUNCE	NO_LABEL
ハーフリングの皮骨は高さが2.4 cmから11 cmと様々である。	NO_PRONOUNCE	NO_LABEL
全長は成長した個体では5 mから6 mである。	NO_PRONOUNCE	NO_LABEL
ジアペルタはアンキロサウルス科に分類されており、おそらくカナダのに近縁である。	じあぺるたわあんきろさうるすかにぶんるいされており、おそらくかなだのにきんえんである。	NO_LABEL
同時代に同じ地域に生息していたノドケファロサウルスとは近縁ではない。	どーじだいにおなじちいきにせいそくしていたのどけふぁろさうるすとわきんえんでわない。	NO_LABEL
