マジノ線は、フランス・ドイツ国境を中心に構築されたフランスの対ドイツ要塞線である。	NO_PRONOUNCE	NO_LABEL
当時のフランス陸軍大臣アンドレ・マジノの名を冠してマジノ線と称する。	とーじのふらんすりくぐんだいじんあんどれまじののなをかんしてまじのせんとしょーする。	NO_LABEL
北はロンヴィから南は地中海フランス・イタリア国境にまで至る、長大な複合要塞である。	NO_PRONOUNCE	NO_LABEL
なお、一般にはバーゼル以北を「マジノ線」と呼び、対イタリア防衛を主眼とした南部の要塞線は「アルパイン線」と称する。	NO_PRONOUNCE	NO_LABEL
フランスは第一次世界大戦において甚大な物的、人的損害を被った。	ふらんすわだいいちじせかいたいせんにおいてじんだいなぶってき、じんてきそんがいをこーむった。	NO_LABEL
敵国ドイツは大戦に敗北したが、その事をもってドイツの脅威が去ったと捉える者は少なく、ドイツに対する軍事的劣勢の解消が喫緊の課題とされた。	てっこくどいつわたいせんにはいぼくしたが、そのことをもってどいつのきょーいがさったととらえるものわすくなく、どいつにたいするぐんじてきれっせいのかいしょーがきっきんのかだいとされた。	NO_LABEL
先の大戦の経験から消耗戦を恐れ、防衛重視の戦略に傾倒したフランスは、戦闘員の不足を補う方策として、国境地帯における要塞の建設を軍事戦略の柱として位置付けた。	さきのたいせんのけいけんからしょーもーせんをおそれ、ぼーえいじゅーしのせんりゃくにけいとーしたふらんすわ、せんとーいんのふそくをおぎなうほーさくとして、こっきょーちたいにおけるよーさいのけんせつをぐんじせんりゃくのはしらとしていちずけた。	NO_LABEL
第一次世界大戦後の一時的なフランスの少子化・人口減少も、これを推し進めた。	NO_PRONOUNCE	NO_LABEL
第一次大戦下の「塹壕戦」による膠着した戦闘の様子は小説「西部戦線異状なし」に鮮明に描かれているが、最前線に塹壕を構築し、両軍がにらみ合いを続け、双方が笛の音を合図に一進一退の突撃を繰り返す、お互いに塹壕を掘っては取り合うという戦い方は、多くの兵士の命を意味もなく無駄にするだけであった。	NO_PRONOUNCE	NO_LABEL
西部戦線は、互いの国民を大量に動員し、大量に消費しあう戦争であった。	せいぶせんせんわ、たがいのこくみんをたいりょーにどーいんし、たいりょーにしょーひしあうせんそーであった。	NO_LABEL
生身の人間の貧弱な防御力と兵器の絶大な攻撃力、両者のあまりのアンバランスが、約500万人の犠牲者を生み出した。	なまみのにんげんのひんじゃくなぼーぎょりょくとへいきのぜつだいなこーげきりょく、りょーしゃのあまりのあんばらんすが、やくごひゃくまんにんのぎせいしゃをうみだした。	NO_LABEL
戦後、西部戦線参戦国ならばどの国にも例外なく厭戦感が蔓延していた。	せんご、せいぶせんせんさんせんこくならばどのくににもれいがいなくえんせんかんがまんえんしていた。	NO_LABEL
構想自体はマジノが提唱する前から存在したが、「一定の間隔ごとに要塞群を配備すべきだ」とする要塞地帯委員長ジョゼフ・ジョフル元帥と、「連続した要塞線を構築すべきだ」とする陸軍最高顧問フィリップ・ペタン元帥との間に確執が生じ、妥協案として対ドイツ国境においてはペタンの案が、また対ベルギー・ルクセンブルク国境においてはジョフルの案が採用された。	NO_PRONOUNCE	NO_LABEL
もっとも、対ベルギー国境部分に関しては、ドイツへの宣戦布告後に本格的な建造が始まったが、結局間に合わなかった。	もっとも、たいべるぎーこっきょーぶぶんにかんしてわ、どいつえのせんせんふこくごにほんかくてきなけんぞーがはじまったが、けっきょくまにあわなかった。	NO_LABEL
1936年、幾多の曲折を経てマジノ線は竣工。	せんきゅうひゃくさんじゅうろくね、いくたのきょくせつをへてまじのせんわしゅんこー。	NO_LABEL
総工費は約160億フラン、維持費・補強費として更に140億フランが投じられた。	NO_PRONOUNCE	NO_LABEL
難攻不落を期待されたが、第二次世界大戦開戦後の1940年に、ドイツ軍はマジノ線を迂回しアルデンヌ奇襲により国境を越える。	なんこーふらくをきたいされたが、だいにじせかいたいせんかいせんごのせんきゅうひゃくよんじゅうねんに、どいつぐんわまじのせんをうかいしあるでんぬきしゅーによりこっきょーをこえる。	NO_LABEL
アルデンヌの森は自然の要害で、重砲や戦車は通れず行軍は不可能であるとフランス軍は判定していたため、要塞構想の範囲から全く外れていた。	あるでんぬのもりわしぜんのよーがいで、じゅーほーやせんしゃわとーれずこーぐんわふかのーであるとふらんすぐんわはんていしていたため、よーさいこーそーのはんいからまったくはずれていた。	NO_LABEL
しかし、アルデンヌから国内に雪崩れ込んだドイツ軍の前に、フランスは満足な抵抗もできぬまま敗北を喫するに至った。	しかし、あるでんぬからこくないにゆきくずれこんだどいつぐんのまえに、ふらんすわまんぞくなていこーもできぬままはいぼくをきっするにいたった。	NO_LABEL
1944年、ノルマンディー上陸作戦を経て連合国軍が反攻を開始するとドイツ軍は守勢に回った。	せんきゅうひゃくよんじゅうよねん、のるまんでぃーじょーりくさくせんをへてれんごーこくぐんがはんこーをかいしするとどいつぐんわしゅせいにまわった。	NO_LABEL
連合軍が独仏国境に迫ると、マジノ線の要塞はドイツ軍の防御拠点として利用された。	れんごーぐんがどくふつこっきょーにせまると、まじのせんのよーさいわどいつぐんのぼーぎょきょてんとしてりよーされた。	NO_LABEL
しかし、一定の防御効果はあったものの、長期にわたって連合国軍を阻止することは出来なかった。	しかし、いっていのぼーぎょこーかわあったものの、ちょーきにわたってれんごーこくぐんをそしすることわできなかった。	NO_LABEL
当時の最新建築技術と火力を用い、峻険な地形を活用した構造となっている。	とーじのさいしんけんちくぎじゅつとかりょくをもちい、しゅんけんなちけいをかつよーしたこーぞーとなっている。	NO_LABEL
108の主要塞を15kmの間隔で配置、連絡通路として地下鉄を通している。	NO_PRONOUNCE	NO_LABEL
要塞には火砲を戦艦に準じた構造の隠ぺい型の砲塔や射撃装置を配置、前方には対戦車用に配置された鉄骨と対歩兵用の鉄条網地帯を設けている。	よーさいにわかほーをせんかんにじゅんじたこーぞーのいんぺいがたのほーとーやしゃげきそーちをはいち、ぜんぽーにわたいせんしゃよーにはいちされたてっこつとたいほへいよーのてつじょーもーちたいをもーけている。	NO_LABEL
厚さ350cm以上のコンクリートで防御され、発電室や武器弾薬庫は全て数十mの地下に建造、更に各区画は装甲鉄扉で区分された。	あつささんびゃくごじゅうせんちめーとるいじょーのこんくりーとでぼーぎょされ、はつでんしつやぶきだんやくこわすべてすーじゅーめーとるのちかにけんぞー、さらにかくくかくわそーこーてっぴでくぶんされた。	NO_LABEL
マジノ線構想の戦略上の問題として、以下の点が指摘されている。	まじのせんこーそーのせんりゃくじょーのもんだいとして、いかのてんがしてきされている。	NO_LABEL
巨費を投じて築造されたにも拘らずドイツ軍の侵攻を許した事から、「無用の長物」の代名詞として引き合いに出される事が多いが、正面からの攻撃に対しては一定の効果があった。	NO_PRONOUNCE	NO_LABEL
また、対ベルギー国境に強固な要塞群が築かれなかったのは予算不足でも隣国に対する配慮でもなく、来るべき次の戦争において、ドイツ軍に正面攻撃を躊躇わせ、先の大戦同様ベルギーを通るように仕向けるための高等戦略であったとする説もある。	また、たいべるぎーこっきょーにきょーこなよーさいぐんがきずかれなかったのわよさんふそくでもりんごくにたいするはいりょでもなく、きたるべきつぎのせんそーにおいて、どいつぐんにしょーめんこーげきをためらわせ、さきのたいせんどーよーべるぎーをとーるよーにしむけるためのこーとーせんりゃくであったとするせつもある。	NO_LABEL
実際、ベルギー側からマジノ線をベルギー国境まで延ばしてほしいという要望が盛んにあったが、フランス側にはベルギー国境をあえて開放することで、以下のような利点があった。	じっさい、べるぎーがわからまじのせんをべるぎーこっきょーまでのばしてほしいとゆうよーぼーがさかんにあったが、ふらんすがわにわべるぎーこっきょーをあえてかいほーすることで、いかのよーなりてんがあった。	NO_LABEL
マジノ線から動かせなかったというのは、ドイツ軍がジークフリート線をマジノ線に対面させる形で建設させていたため動かせなかったというのがある。	まじのせんからうごかせなかったとゆうのわ、どいつぐんがじーくふりーとせんをまじのせんにたいめんさせるかたちでけんせつさせていたためうごかせなかったとゆうのがある。	NO_LABEL
塹壕戦の発想で動いているため敵が強固な陣地を築いている時は相応の戦力で挑むしかなかったというのがある。	ざんごーせんのはっそーでうごいているためてきがきょーこなじんちをきずいているときわそーおーのせんりょくでいどむしかなかったとゆうのがある。	NO_LABEL
ドイツ軍は対フランス戦線においてマジノ線を突破するために、さまざまな大口径の砲を開発することとなったが、それらが実際にフランス戦線で用いられることはなく、後に主戦場となる東部戦線において用いられた。	どいつぐんわたいふらんすせんせんにおいてまじのせんをとっぱするために、さまざまなだいこーけいのほーをかいはつすることとなったが、それらがじっさいにふらんすせんせんでもちいられることわなく、のちにしゅせんじょーとなるとーぶせんせんにおいてもちいられた。	NO_LABEL
大きな要塞のいくつかは一般公開されており内部を見学することができる。	おーきなよーさいのいくつかわいっぱんこーかいされておりないぶをけんがくすることができる。	NO_LABEL
小規模な砦やトーチカは放置され畑や草原の中に埋もれている。	しょーきぼなとりでやとーちかわほーちされはたけやそーげんのなかにうずもれている。	NO_LABEL
