浦河沖地震は、1982年3月21日午前11時32分06秒に北海道日高支庁浦河郡浦河町南西沖20kmを震源として発生した。	NO_PRONOUNCE	NO_LABEL
地震の規模を示すMは7.1。	NO_PRONOUNCE	NO_LABEL
震源に最も近い浦河町では、震度6を記録した。	しんげんにもっともちかいうらかわちょーでわ、しんどろくをきろくした。	NO_LABEL
札幌市・帯広市・小樽市・岩見沢市・苫小牧市・倶知安町・広尾町・青森県むつ市で震度4を観測するなど、北海道全域と東北地方北部を中心に強い揺れを感じた。	NO_PRONOUNCE	NO_LABEL
「震度6」を北海道で観測したのは1952年以来のことあった。	NO_PRONOUNCE	NO_LABEL
北海道・東北地方のほぼ全域と、関東から中部地方の一部まで揺れを感じた。	NO_PRONOUNCE	NO_LABEL
また、震源域から100kmも離れた札幌市でも、局所的に震度5に相当する揺れを感じた。	また、しんげんいきからひゃくきろめーとるもはなれたさっぽろしでも、きょくしょてきにしんどごにそーとーするゆれをかんじた。	NO_LABEL
震源断層のパラメータは以下の通り。	しんげんだんそーのぱらめーたわいかのとーり。	NO_LABEL
被害は浦河町とその周辺に集中した。	ひがいわうらかわちょーとそのしゅーへんにしゅーちゅーした。	NO_LABEL
浦河町では、ブロック塀や自動販売機がバタバタと倒れ、電柱や煙突も傾いた。	うらかわちょーでわ、ぶろっくべいやじどーはんばいきがばたばたとたおれ、でんちゅーやえんとつもかたむいた。	NO_LABEL
窓ガラスもほとんどが割れ、地面に散乱した。	まどがらすもほとんどがわれ、じめんにさんらんした。	NO_LABEL
地震観測の最前線となった浦河測候所では3台ある地震計のうち2台が落下し、破損。	NO_PRONOUNCE	NO_LABEL
そのうちの1台は、地震を感じるセンサーのバネが折れた。	NO_PRONOUNCE	NO_LABEL
さらに、大通りの商店街は軒並み損壊。	さらに、おーどーりのしょーてんがいわのきなみそんかい。	NO_LABEL
モルタルの壁がそっくり剥がれた店もあった。	もるたるのかべがそっくりはがれたみせもあった。	NO_LABEL
浦河町に隣接する静内町・三石町でも様々な被害が発生した。	NO_PRONOUNCE	NO_LABEL
静内町では、静内川にかかる橋が倒壊、隆起・沈降の影響で通行不能となった。	NO_PRONOUNCE	NO_LABEL
総被害は、負傷者167名、全壊13棟、半壊28棟、一部損壊675棟、その他22棟、船舶転覆等6隻であった。	NO_PRONOUNCE	NO_LABEL
浦河港および室蘭港の港湾施設に約3.5億円の被害。	NO_PRONOUNCE	NO_LABEL
津波は浦河港で80cm、青森県八戸で28cmが観測されたが、大きな被害はなく火災も発生しなかった。	つなみわうらかわこーではちじゅうせんちめーとる、あおもりけんはちのへでにじゅうはちせんちめーとるがかんそくされたが、おーきなひがいわなくかさいもはっせいしなかった。	NO_LABEL
最大余震は、本震から約8時間後の午後7時22分34秒に発生したM5.8であった。	NO_PRONOUNCE	NO_LABEL
浦河町で震度4を記録したが、大きな被害はなかった。	うらかわちょーでしんどよんをきろくしたが、おーきなひがいわなかった。	NO_LABEL
浦河町長の池田拓は、普段は揚がらないメヌケという高級魚が地震の前に大量に水揚げされた、と語っている。	うらかわちょーちょーのいけだたくわ、ふだんわあがらないめぬけとゆうこーきゅーぎょがじしんのまえにたいりょーにみずあげされた、とかたっている。	NO_LABEL
2011年9月7日には新ひだか町三石地区で最大震度5強を観測する群発地震活動があった。	にせんじゅういちねんくがつなのかにわしんひだかちょーみついしちくでさいだいしんどごきょーをかんそくするぐんぱつじしんかつどーがあった。	NO_LABEL
11月24日にもM6.2の地震が発生し、浦河町で震度5弱、北海道・東北で震度1以上が観測された。	NO_PRONOUNCE	NO_LABEL
2016年1月14日にもM6.7の地震が発生し、新冠町・浦河町・様似町・函館市、及び青森県東通村で最大震度5弱を記録した。	NO_PRONOUNCE	NO_LABEL
