4-オキソプロリンレダクターゼは、次の化学反応を触媒する酸化還元酵素である。	NO_PRONOUNCE	NO_LABEL
すなわち、この酵素の基質は4-ヒドロキシ-L-プロリンとNAD、生成物は4-オキソプロリンとNADHとHである。	NO_PRONOUNCE	NO_LABEL
アルギニンおよびプロリン代謝酵素の一つで、組織名は4-hydroxy-L-proline:NAD oxidoreductase、別名にはhydroxy-L-proline oxidaseがある。	NO_PRONOUNCE	NO_LABEL
