ジチオエリトリトールとは、四炭糖エリトロースの硫黄誘導体のひとつ。	じちおえりとりとーるとわ、よんすみとーえりとろーすのいおーゆーどーたいのひとつ。	NO_LABEL
エリトリトールの両端のヒドロキシ基がチオール基に変わったもので、メソ体となっている。	えりとりとーるのりょーたんのひどろきしきがちおーるもとにかわったもので、めそたいとなっている。	NO_LABEL
ジチオトレイトールのエピマーにあたる。	じちおとれいとーるのえぴまーにあたる。	NO_LABEL
分子式は CHOS。	NO_PRONOUNCE	NO_LABEL
DTT と同様に、DTE は優れた還元剤である。	NO_PRONOUNCE	NO_LABEL
DTE の標準還元電位は DTT ほど負側ではない、すなわち還元力は DTT に及ばない。	NO_PRONOUNCE	NO_LABEL
これはおそらく酸化を受けて生じる環状のジスルフィドについて、ヒドロキシ基どうしに立体反発があるためと考えられている。	これわおそらくさんかをうけてしょーじるかんじょーのじするふぃどについて、ひどろきしきどーしにりったいはんぱつがあるためとかんがえられている。	NO_LABEL
