レッド・エンサインは、イギリス商船旗の名称。	れっどえんさいんわ、いぎりすしょーせんきのめいしょー。	NO_LABEL
別名レッド・ダスター。	NO_PRONOUNCE	NO_LABEL
赤地の左上隅にイギリスの国旗がデザインされている。	あかじのひだりうえすみにいぎりすのこっきがでざいんされている。	NO_LABEL
用途により、無地の部分に紋章や星などが配されることもある。	よーとにより、むじのぶぶんにもんしょーやほしなどがはいされることもある。	NO_LABEL
また、時期によって左上隅にイングランドまたはスコットランド国旗を配したものも存在した。	また、じきによってひだりうえすみにいんぐらんどまたわすこっとらんどこっきをはいしたものもそんざいした。	NO_LABEL
17世紀前半からイギリス海軍によって使用され、また1674年にチャールズ2世の勅令によりイギリス商船によっても使用された。	じゅうしちせいきぜんはんからいぎりすかいぐんによってしよーされ、またせんろっぴゃくななじゅうよんねんにちゃーるずにせいのちょくれいによりいぎりすしょーせんによってもしよーされた。	NO_LABEL
当初はイングランド国旗を配したデザインであった。	とーしょわいんぐらんどこっきをはいしたでざいんであった。	NO_LABEL
同時期にはスコットランド海軍でも同様にスコットランド国旗を配したものが用いられた。	どーじきにわすこっとらんどかいぐんでもどーよーにすこっとらんどこっきをはいしたものがもちいられた。	NO_LABEL
1707年にイングランドとスコットランドが合同し、グレートブリテン王国が成立するとカントン部にはユニオン・フラッグが配された。	NO_PRONOUNCE	NO_LABEL
さらに、1800年の合同法により、グレートブリテン及びアイルランド連合王国が成立すると、ユニオン・フラッグの更新に合わせて、デザインも更新されている。	NO_PRONOUNCE	NO_LABEL
イギリス海軍においてもレッド・エンサインをはじめ、ホワイト・ブルーの三色が用いられてきたが、1864年の勅令により使用法が整理され、レッド・エンサインは商船用、ホワイト・エンサインが海軍用、ブルー・エンサインが政府及び海軍予備役用とされた。	NO_PRONOUNCE	NO_LABEL
原則として、イギリスにおいては、現在でもこの分類が使われている。	げんそくとして、いぎりすにおいてわ、げんざいでもこのぶんるいがつかわれている。	NO_LABEL
国旗、商船旗ではないが、レッド・エンサインを現在使用している例。	こっき、しょーせんきでわないが、れっどえんさいんをげんざいしよーしているれい。	NO_LABEL
