二式小銃は、第二次世界大戦時の大日本帝国陸軍の小銃。	にしきしょうじゅーわ、だいにじせかいたいせんじのだいにっぽんていこくりくぐんのしょーじゅー。	NO_LABEL
有坂銃の一つである九九式短小銃をベースとして、挺進兵が落下傘降下時に不便なく小銃を携行できるよう2つに分割可能にした挺進連隊用の特殊兵器である。	ありさかじゅーのひとつであるきゅーきゅーしきたんしょーじゅーをべーすとして、ていしんへいがらっかさんこーかじにふべんなくしょーじゅーをけいこーできるよーふたつにぶんかつかのーにしたていしんれんたいよーのとくしゅへいきである。	NO_LABEL
挺進落下傘/挺身落下傘からテラ銃、二式テラ銃とも称される。	NO_PRONOUNCE	NO_LABEL
ドイツ国防軍のKar98kには空軍降下猟兵用に試作された特殊型が2種類あり、一つは銃身と機関部の境で回転させて前後2つに分解する方式であった。	NO_PRONOUNCE	NO_LABEL
その機構を帝国陸軍が模倣した物が試製一〇〇式小銃と試製一式小銃であった。	そのきこーをていこくりくぐんがもほーしたものがしせいいちれいれいしきしょーじゅーとしせいいっしきしょーじゅーであった。	NO_LABEL
試製一〇〇式小銃は九九式短小銃を基に、Kar98kの分解方式の機構を完全に模倣したものであったが、ネジ山噛合い式機構には高精度の製造技術が要求され、当時の日本の工業力では大量生産が難しかった為、その後G33/40の銃床折り畳み機構を模倣し、三八式騎銃をベースにして試製一式の開発に挑んだ。	NO_PRONOUNCE	NO_LABEL
これは試製一式小銃が正式な名称だが、試製一式テラ銃とも三八式テラ銃とも呼ばれる。	これわしせいいっしきしょーじゅーがせいしきなめいしょーだが、しせいいっしきてらじゅーともさんはちしきてらじゅーともよばれる。	NO_LABEL
こちらも蝶番の耐久性に難があり、試作のままで終わる事となった。	こちらもちょーつがいのたいきゅーせいになんがあり、しさくのままでおわることとなった。	NO_LABEL
なお、前述のKar98kを基にしたテイクダウン及びフォールディングストックのライフルは、日本の試製一〇〇式や試製一式よりも完成度が高かったものの、二式小銃のような本格的な量産には至ってはいない。	NO_PRONOUNCE	NO_LABEL
これら二つの試作銃と同時期に、九九式短小銃を基に四四式騎銃のスパイク式折畳み銃剣を装備した試製テラ銃が開発される。	これらふたつのしさくじゅーとどーじきに、きゅーきゅーしきたんしょーじゅーをもとによんよんしききじゅーのすぱいくしきおりたたみじゅーけんをそーびしたしせいてらじゅーがかいはつされる。	NO_LABEL
海外では"Experimental 99 Paratrooper Rifle"とも呼ばれるこの銃は、試製一〇〇式小銃の分解方式をより簡素化し、銃身と機関部は差込み式に改め、銃の左側面からクサビ型の部品を差し込み、ネジを回して固定する方式を採っていた。	NO_PRONOUNCE	NO_LABEL
レシーバーには型式を示す刻印は無く、シリアルナンバーと工廠マークから名古屋工廠で7挺程が試作されたとみられるこの試製テラ銃は、銃剣が四四式と共通である事、機関部へのクサビの差し込み方向が左右逆である事、槓桿がねじ込み式で取り外しが可能である事を除いては、二式小銃とほぼ同じ構造であり、この銃の開発を経由して二式小銃は制式採用に至ったものとみられる。	NO_PRONOUNCE	NO_LABEL
一般的な歩兵用の小銃では落下傘降下時に長い銃身が邪魔になるため、九九式短小銃をベースに前後に分解可能にし、挺進兵がこれを携行したまま降下できるよう、帝国陸軍の空挺部隊たる挺進連隊用に開発された特殊兵器が二式小銃である。	いっぱんてきなほへいよーのしょーじゅーでわらっかさんこーかじにながいじゅーしんがじゃまになるため、きゅーきゅーしきたんしょーじゅーをべーすにぜんごにぶんかいかのーにし、ていしんへいがこれをけいこーしたままこーかできるよー、ていこくりくぐんのくーていぶたいたるていしんれんたいよーにかいはつされたとくしゅへいきがにしきしょうじゅーである。	NO_LABEL
降下時は分解して専用の銃袋に収納・携行し、着地後に組み立てる。	NO_PRONOUNCE	NO_LABEL
銃身を含む前部と機関部を含む後部に分解する事ができ、分解結合は後部の右側面にあるネジを回すだけで簡単に行う事ができる。	じゅーしんをふくむぜんぶときかんぶをふくむこーぶにぶんかいすることができ、ぶんかいけつごーわこーぶのみぎがわめんにあるねじをまわすだけでかんたんにおこなうことができる。	NO_LABEL
前部から伸びた薬室部分を後部の穴に嵌め、後部の右側面に付いた横にスライドするクサビで薬室を穴の上方に押えつけることで結合し、クサビの端のネジを回して固定する。	ぜんぶからのびたやくしつぶぶんをこーぶのあなにはめ、こーぶのみぎがわめんについたよこにすらいどするくさびでくすりしつをあなのかみがたにおさえつけることでけつごーし、くさびのはじのねじをまわしてこていする。	NO_LABEL
分解はこの逆である。	ぶんかいわこのぎゃくである。	NO_LABEL
ただしこの簡略な仕組みにより通常の九九式短小銃より命中精度は若干劣る。	ただしこのかんりゃくなしくみによりつーじょーのきゅーきゅーしきたんしょーじゅーよりめいちゅーせいどわじゃっかんおとる。	NO_LABEL
二式小銃用には、三十年式銃剣を短くした二式銃剣を使用する。	にしきしょうじゅーよーにわ、さんじゅーねんしきじゅーけんをみじかくしたにしきじゅーけんをしよーする。	NO_LABEL
二式小銃自体の量産・実戦配備は太平洋戦争開戦しばらくからであり、空挺部隊の訓練や緒戦の蘭印作戦における有名なパレンバン空挺作戦では、通常の九九式短小銃が主力小銃として使用されていた。	NO_PRONOUNCE	NO_LABEL
訓練や同作戦においては一〇〇式輸送機・ロ式輸送機から降下する挺進兵は九四式拳銃と九七式手榴弾のみを携行し、かさばる九九式短小銃は九七式重爆撃機から別途落下傘投下される物量箱に納められ、着地後にこれを発見・回収し戦闘を開始するものとされていた。	NO_PRONOUNCE	NO_LABEL
しかしながら同作戦では風に流されるなどして物量箱を発見できず、手持ちの九四式拳銃と九七式手榴弾のみで戦わざるを得ない挺進兵が続出したことも問題となっていた。	しかしながらどーさくせんでわかぜにながされるなどしてぶつりょーばこをはっけんできず、てもちのきゅーよんしきけんじゅーときゅーななしきてりゅーだんのみでたたかわざるをえないていしんへいがぞくしゅつしたことももんだいとなっていた。	NO_LABEL
上述の通り二式小銃の部隊配備時には既に緒戦の大規模空挺作戦は終了しており2月14日に実施）、分解結合の利点を活かす機会も少なく、通常の九九式短小銃と同様に扱われ一般部隊にも配備された。	NO_PRONOUNCE	NO_LABEL
但し、1943年10月からは通常の二式小銃とは別に、既存の九九式短小銃を二式小銃と同様の分解結合構造に改造する事で、調達を容易とする事を狙った九九式小銃の生産も開始されている。	ただし、せんきゅうひゃくよんじゅうさんねじゅーがつからわつーじょーのにしきしょうじゅーとわべつに、きそんのきゅーきゅーしきたんしょーじゅーをにしきしょうじゅーとどーよーのぶんかいけつごーこーぞーにかいぞーすることで、ちょーたつをよーいとすることをねらったくくしきしょーじゅーのせいさんもかいしされている。	NO_LABEL
敗戦後は警察予備隊や、東南アジアの独立義勇軍、ベトミンなどの鹵獲兵器として1960年代まで使用されていた。	はいせんごわけいさつよびたいや、とーなんあじあのどくりつぎゆーぐん、べとみんなどのろかくへいきとしてせんきゅうひゃくろくじゅうねんだまでしよーされていた。	NO_LABEL
変わったところでは、分解可能という特性から、アメリカ映画において小道具として用いられた。	かわったところでわ、ぶんかいかのーとゆうとくせいから、あめりかえいがにおいてこどーぐとしてもちいられた。	NO_LABEL
総生産数は計約19,000挺で、これは1942年から1944年の間に生産された。	NO_PRONOUNCE	NO_LABEL
