小出 英教は、丹波園部藩の第9代藩主。	こいでひでのりわ、たんばそのべはんのだいきゅうだいはんしゅ。	NO_LABEL
吉親系小出家9代。	よしちかしけいしょーしゅっけきゅうだい。	NO_LABEL
肥前大村藩主・大村純昌の8男。	NO_PRONOUNCE	NO_LABEL
正室は小出英発の3女。	NO_PRONOUNCE	NO_LABEL
天保13年4月15日、園部藩主・小出英発の養嗣子となる。	NO_PRONOUNCE	NO_LABEL
天保14年9月20日、養父の英発の隠居により家督を継いだ。	てんぽーじゅうよんねんくがつはつか、よーふのえいはつのいんきょによりかとくをついだ。	NO_LABEL
同年12月16日、従五位下加賀守に叙任する。	どーねんじゅーにがつじゅうろくにち、じゅうごいのげかがまもるにじょにんする。	NO_LABEL
後に信濃守に改める。	ごにしなのまもるにあらためる。	NO_LABEL
天保15年4月、常盤橋門番を命じられる。	てんぽーじゅうごねんしがつ、ときわばしもんばんをめいじられる。	NO_LABEL
安政2年10月10日、養父に先立って27歳の若さで死去し、跡を長男・英尚が継いだ。	NO_PRONOUNCE	NO_LABEL
