ミューザ川崎は、神奈川県川崎市の「川崎西口地区第一種市街地再開発事業」として都市公団が施行した都市再生プロジェクトであり、以下の施設からなる。	NO_PRONOUNCE	NO_LABEL
川崎駅西口再開発事業の一環として川崎市幸区に建設され、2003年12月に竣工した。	かわさきえきにしぐちさいかいはつじぎょーのいっかんとしてかわさきしさいわいくにけんせつされ、にせんさんねんじゅーにがつにしゅんこーした。	NO_LABEL
駅に隣接する立地条件を生かすため、オフィスビルと文化・商業施設として作られた。	NO_PRONOUNCE	NO_LABEL
川崎駅西口からペデストリアンデッキで繋がっており、これまで拠点となる施設が無かった川崎駅西口の新しい名物となっている。	かわさきえきにしぐちからぺですとりあんでっきでつながっており、これまできょてんとなるしせつがなかったかわさきえきにしぐちのあたらしいめいぶつとなっている。	NO_LABEL
またペデストリアンデッキで、駅の南東側の川崎日航ホテルや川崎ルフロンとも繋がっている。	またぺですとりあんでっきで、えきのなんとーがわのかわさきにっこーほてるやかわさきるふろんともつながっている。	NO_LABEL
ミューザ川崎シンフォニーホールは2011年3月11日の東日本大震災によって天井が大規模に崩落し、その結果2013年4月1日まで休館。	みゅーざかわさきしんふぉにーほーるわにせんじゅういちねんさんがつじゅういちにちのひがしにほんだいしんさいによっててんじょーがだいきぼにほーらくし、そのけっかにせんじゅうさんねんしがつついたちまできゅーかん。	NO_LABEL
