ヤール () は、中世スウェーデンにおけるステンキル家やフォルクング家などの国王家級の家に与えられた称号。	やーるかっこわ、ちゅーせいすうぇーでんにおけるすてんきるかやふぉるくんぐかなどのこくおーかきゅーのいえにあたえられたしょーごー。	NO_LABEL
日本語では「将軍」と訳される場合もある。	NO_PRONOUNCE	NO_LABEL
12世紀前半以降は、もっぱらスウェーデン王に準ずる個人の称号となった。	じゅうにせいきぜんはんいこーわ、もっぱらすーぇーでんおーにじゅんずるこじんのしょーごーとなった。	NO_LABEL
プロコピオスによれば、数世代にわたってヨーロッパ大陸中を襲撃してまわったヘルール族が、敗北を喫して512年に故地スカンディナヴィアに撤退した。	NO_PRONOUNCE	NO_LABEL
しかし彼らの故地は既にデーン人に占領されていたため、 イェート人や英語の伯の語源となった。	しかしかれらのこちわすでにでーんじんにせんりょーされていたため、いぇーとじんやえいごのはくのごげんとなった。	NO_LABEL
この語は「読み書きができる者」を示していると考えられており、彼らは北ドイツから文字の存在していなかったスカンディナヴィアにルーン文字をもたらした。	NO_PRONOUNCE	NO_LABEL
おそらくは、ヘルール族のルーン文字を読み解く知識は人々を統率する能力に直結しており、ヘルール族がスカンディナヴィアの人々と少しずつ融和していく過程で、ヤールの称号は指導者の身分を意味するようになった。	NO_PRONOUNCE	NO_LABEL
アイスランドのサガなどでは、ヤールは王の次に身分の高い族長のようなもので、国王軍の中では元帥の役割を果たしている。	あいすらんどのさがなどでわ、やーるわおーのつぎにみぶんのたかいぞくちょーのよーなもので、こくおーぐんのなかでわげんすいのやくわりをはたしている。	NO_LABEL
あらゆる中世の文書において、ヤールは明確に国王直属の指導者と位置付けられていた。	あらゆるちゅーせいのぶんしょにおいて、やーるわめいかくにこくおーちょくぞくのしどーしゃといちずけられていた。	NO_LABEL
その伝説的な起源は、アイスランドのエッダ詩『リーグルの詩』にみることができる。	NO_PRONOUNCE	NO_LABEL
スウェーデンの歴史上では、ヤールは地方の支配者とも、国王に任命される副王のようなものともとらえることができる立場で、ヴェステルイェートランドやエステルイェートランド、 Svitjodなどの歴史的なスウェーデンの地域を統治していた。	NO_PRONOUNCE	NO_LABEL
時には、スウェーデン国外の地域のヤールもスウェーデンのヤールと同様に任命されることがあった。	ときにわ、すうぇーでんこくがいのちいきのやーるもすうぇーでんのやーるとどーよーににんめいされることがあった。	NO_LABEL
このケースの一例がヨーン・ヤールで、記録によれば、彼は東方のノヴゴロドで略奪行為を指揮していた。	NO_PRONOUNCE	NO_LABEL
ノルウェーでは各地域にヤールが存在したが、この名称は14世紀にはオークニー諸島のみで用いられるようになった。	のるうぇーでわかくちいきにやーるがそんざいしたが、このめいしょーわじゅうよんせいきにわおーくにーしょとーのみでもちいられるよーになった。	NO_LABEL
10世紀の中ごろから、スウェーデンではヤールは王権に付く一人に与えられる称号となり、地方の支配者はドゥクスまたデュークすなわち公と呼ばれるようになっていった。	じっせいきのなかごろから、すうぇーでんでわやーるわおーけんにつくひとりにあたえられるしょーごーとなり、ちほーのしはいしゃわどぅくすまたでゅーくすなわちおーやけとよばれるよーになっていった。	NO_LABEL
12世紀後半から13世紀にかけて、スウェーデンのヤールとなった、ウルフ・フォース、ビルイェル・ヤールらは国王をもしのぐ権力を持ち、実質的なスウェーデン王国の支配者となった。	じゅうにせいきこーはんからじゅうさんせいきにかけて、すうぇーでんのやーるとなった、うるふふぉーす、びるいぇるやーるらわこくおーをもしのぐけんりょくをもち、じっしつてきなすーぇーでんおーこくのしはいしゃとなった。	NO_LABEL
1250年にフォルクング家がスウェーデン王位を継承するようになって以降、ヤールは公に包含されるようになり、その役割や権限は1266年にビルイェル・ヤールが死去した後に国王のものとなった。	せんにひゃくごじゅうねんにふぉるくんぐかがすーぇーでんおーいをけいしょーするよーになっていこー、やーるわおーやけにほーがんされるよーになり、そのやくわりやけんげんわせんにひゃくろくじゅうろくねんにびるいぇるやーるがしきょしたのちにこくおーのものとなった。	NO_LABEL
"諸家"	NO_PRONOUNCE	NO_LABEL
"フォルクング家"	NO_PRONOUNCE	NO_LABEL
ステンキル家	すてんきるか	NO_LABEL
