スタインシャーは、ノルウェー、ヌール・トロンデラーグ県の都市。	NO_PRONOUNCE	NO_LABEL
面積564平方キロメートル、人口20,451人。	NO_PRONOUNCE	NO_LABEL
ボラレイネンにある岩絵に、トナカイとクマが描かれていることから、石器時代から定住者がいたとされている。	ぼられいねんにあるいわえに、となかいとくまがえがかれていることから、せっきじだいからていじゅーしゃがいたとされている。	NO_LABEL
同じ地域のバーダールにさらに6000年ほど古い壁画が残る。	NO_PRONOUNCE	NO_LABEL
スタインシャーは、ヴァイキング時代初頭に最も強力な地盤の一つであった。	NO_PRONOUNCE	NO_LABEL
キリスト教伝来以前のノルウェーでは、Mæreが古代スカンディナヴィア人の宗教的な場所として、神に供物を捧げたり、季節ごとの会合が行われていた。	NO_PRONOUNCE	NO_LABEL
現代史では、スタインシャーは2度の大きな災害に生き残った。	げんだいしでわ、すたいんしゃーわにどのおーきなさいがいにいきのこった。	NO_LABEL
最初は1900年に起きた大火で、町の南部分を焼失した。	さいしょわせんきゅうひゃくねんにおきたたいかで、まちのなんぶぶんをしょーしつした。	NO_LABEL
2度目の災難は、1940年4月21日に起きた。	にどめのさいなんわ、せんきゅうひゃくよんじゅうねんしがつにじゅういちにちにおきた。	NO_LABEL
第二次世界大戦中、ドイツ空軍の爆撃機He111が飛来し、町の大半が空襲に遭ったのである。	NO_PRONOUNCE	NO_LABEL
スタインシャー十字架教会のような、多くの価値ある歴史的建造物が失われた。	すたいんしゃーじゅーじかきょーかいのよーな、おーくのかちあるれきしてきけんぞーぶつがうしなわれた。	NO_LABEL
スタインシャーの歴史を物語るものの大半がこの攻撃で破壊されたのである。	すたいんしゃーのれきしをものがたるもののたいはんがこのこーげきではかいされたのである。	NO_LABEL
しかし町はアメリカ軍の援助で1945年以降素早く再建された。	しかしまちわあめりかぐんのえんじょでせんきゅうひゃくよんじゅうごねんいこーすばやくさいけんされた。	NO_LABEL
現在のスタインシャーの建物は1950年代から1960年代の間に建てられたもので、トロンヘイムやオーレスンにある戦前のアール・ヌーヴォー様式のものはほとんどない。	NO_PRONOUNCE	NO_LABEL
空襲後も残った歴史的建造物は、鉄道駅と大学である。	くーしゅーごものこったれきしてきけんぞーぶつわ、てつどーえきとだいがくである。	NO_LABEL
これらはアール・ヌーヴォー様式である。	NO_PRONOUNCE	NO_LABEL
かつてこの地にあった古い農地名"Steinkjer"に由来する。	NO_PRONOUNCE	NO_LABEL
"steinn"は石、岩を意味し、"ker"は『魚を捕まえる柵』である。	NO_PRONOUNCE	NO_LABEL
1957年から使用している。	せんきゅうひゃくごじゅうしちねんからしよーしている。	NO_LABEL
6つの角のある星を表す。	むっつのかくのあるほしをあらわす。	NO_LABEL
スタインシャーはトロンヘイム・フィヨルドの北の分枝ベイスタ・フィヨルドの最奥部にある。	NO_PRONOUNCE	NO_LABEL
西はヴェランとの境界線となる山地である。	NO_PRONOUNCE	NO_LABEL
スタインシャーから東へ60キロ行くと、隣国スウェーデンである。	すたいんしゃーからひがしえろくじゅうきろいくと、りんごくすうぇーでんである。	NO_LABEL
北はスノーサとナムダールセイ、南はインデロイとヴェーダールである。	NO_PRONOUNCE	NO_LABEL
海岸から60キロ内陸にあり、スタインシャーは狭いスカルンスンデ水道を通し大西洋とつながっている。	かいがんからろくじゅうきろないりくにあり、すたいんしゃーわせまいすかるんすんですいどーをとーしたいせいよーとつながっている。	NO_LABEL
ノルウェー最長の斜張橋スカーンスンスブルア橋がスカルンスネとの間に架かっている。	のるうぇーさいちょーのしゃちょーきょーすかーんすんすぶるあきょーがすかるんすねとのまにかかっている。	NO_LABEL
観光客はスカルンスネを通過する大型船でスタインシャーへ入ることができる。	かんこーきゃくわすかるんすねをつーかするおーがたせんですたいんしゃーえはいることができる。	NO_LABEL
毎年沿岸高速船がフィヨルドを130キロ以上旅するクルーズをし、スタインシャーへも寄港する。	まいとしえんがんこーそくせんがふぃよるどをひゃくさんじゅうきろいじょーたびするくるーずをし、すたいんしゃーえもきこーする。	NO_LABEL
低地の農業地帯と同じく、うねりのある丘とうっそうとしたトウヒの森林が点在する。	ていちののーぎょーちたいとどうじく、うねりのあるおかとうっそーとしたとうひのしんりんがてんざいする。	NO_LABEL
スタインシャーはE6道路でトロンヘイムから120キロ北の地点にある。	NO_PRONOUNCE	NO_LABEL
トロンヘイムとスタインシャーの間にあるトロンヘイム・フィヨルド南部と東部は、300,000万人ほどの人口を抱えている。	NO_PRONOUNCE	NO_LABEL
トロンヘイムから鉄道ヌールランバネン線で来ることができる。	とろんへいむからてつどーぬーるらんばねんせんでくることができる。	NO_LABEL
豊富な種類の野生動物がある。	ほーふなしゅるいのやせいどーぶつがある。	NO_LABEL
ロムセン湖にはミミカイツブリの生息地である。	ろむせんみずうみにわみみかいつぶりのせいそくちである。	NO_LABEL
森林地帯や農村地帯は一般的なノハラツグミやワキアカツグミが生息する。	しんりんちたいやのーそんちたいわいっぱんてきなのはらつぐみやわきあかつぐみがせいそくする。	NO_LABEL
スタインシャーは、面積の広い自治体である。	すたいんしゃーわ、めんせきのひろいじちたいである。	NO_LABEL
人口の半分が都市に集中し、残りは村落に住む。	じんこーのはんぶんがとしにしゅーちゅーし、のこりわそんらくにすむ。	NO_LABEL
しかし町の多くは現在都市化が進行し、住宅やビルの建設が進む。	しかしまちのおーくわげんざいとしかがしんこーし、じゅーたくやびるのけんせつがすすむ。	NO_LABEL
北方の豊かな農業地帯でもある。	ほっぽーのゆたかなのーぎょーちたいでもある。	NO_LABEL
外見からも典型的な農業中心の自治体である。	がいけんからもてんけいてきなのーぎょーちゅーしんのじちたいである。	NO_LABEL
おまけに、広大な森林地帯が近い。	おまけに、こーだいなしんりんちたいがちかい。	NO_LABEL
市内で最も高いビルは40メートルあり、数キロ離れた南部からも見える。	NO_PRONOUNCE	NO_LABEL
"Kirknesvaag Sag & Høvleri"は大規模な製材企業である。	NO_PRONOUNCE	NO_LABEL
市中心部の半分以上は製材業の広大な工業団地である。	しちゅーしんぶのはんぶんいじょーわせいざいぎょーのこーだいなこーぎょーだんちである。	NO_LABEL
海運はヌール・トロンデラーグ県の豊富な木材とセルロース運搬に関わっている。	NO_PRONOUNCE	NO_LABEL
オウシュウトウヒが重要種である。	おうしゅうとうひがじゅーよーしゅである。	NO_LABEL
スタインシャーより北部の地域とは地理的隔たりがある。	すたいんしゃーよりほくぶのちいきとわちりてきへだたりがある。	NO_LABEL
北部の内陸地方よりはさらに過酷な気候である。	ほくぶのないりくちほーよりわさらにかこくなきこーである。	NO_LABEL
スタインシャーの1月の平均気温は－5℃で、北方の海岸地帯より寒い。	NO_PRONOUNCE	NO_LABEL
夏は北方よりも温かく長いため、野菜や穀物の生育に適している。	なつわほっぽーよりもあたたかくながいため、やさいやこくもつのせいいくにてきしている。	NO_LABEL
スタインシャーは、人口の密集し温暖な南ノルウェーと、人口が希薄で酷寒の北ノルウェーとの境界の町といわれる。	すたいんしゃーわ、じんこーのみっしゅーしおんだんなみなみのるうぇーと、じんこーがきはくでこっかんのきたのるうぇーとのきょーかいのまちといわれる。	NO_LABEL
