大悲願寺は、東京都あきる野市横沢にある真言宗豊山派の寺院。	だいひがんじわ、とーきょーとあきるのしよこさわにあるしんごんしゅーぶざんはのじいん。	NO_LABEL
山号は金色山。	さんごーわかないろさん。	NO_LABEL
院号は吉祥院。	いんごーわきっしょーいん。	NO_LABEL
本尊は大日如来。	ほんぞんわだいにちにょらい。	NO_LABEL
寺伝によると創建は1191年で、武蔵国平山の武将平山季重が醍醐寺三宝院の僧を招いて開山としたとされる。	てらでんによるとそーけんわせんひゃくきゅうじゅういちねんで、むさしのくにひらやまのぶしょーひらやますえしげがだいごじさんぼーいんのそーをまねいてかいさんとしたとされる。	NO_LABEL
江戸時代には江戸幕府から朱印状を与えられていた。	えどじだいにわえどばくふからしゅいんじょーをあたえられていた。	NO_LABEL
1794年に観音堂を建立。	せんななひゃくきゅうじゅうよんねんにかんのんどーをこんりゅー。	NO_LABEL
1824年から1827年にかけては観音堂内陣に欄間彫刻や向拝を追加。	せんはっぴゃくにじゅうよんねんからせんはっぴゃくにじゅうななねんにかけてわかんのんどーないじんにらんまちょーこくやこーはいをついか。	NO_LABEL
1834年から1842年にかけても彫刻や飾り板を観音堂内陣に追加したことがわかっている。	せんはっぴゃくさんじゅうよねんからせんはっぴゃくよんじゅうにねんにかけてもちょーこくやかざりいたをかんのんどーないじんについかしたことがわかっている。	NO_LABEL
1951年に観音堂を改修し、屋根を茅葺きから本瓦葺きに変更。	せんきゅうひゃくごじゅういちねんにかんのんどーをかいしゅーし、やねをかやぶきからほんかわらぶきにへんこー。	NO_LABEL
1978年3月16日に本堂が東京都有形文化財、1995年6月1日に観音堂が西多摩郡五日市町の有形文化財指定を受ける。	せんきゅうひゃくななじゅうはちねんさんがつじゅうろくにちにほんどーがとーきょーとゆーけいぶんかざい、せんきゅうひゃくきゅうじゅうごねんろくがつついたちにかんのんどーがにしたまぐんいつかいちちょーのゆーけいぶんかざいしていをうける。	NO_LABEL
2005年から2007年にかけて観音堂を半解体修理。	にせんごねんからにせんななねんにかけてかんのんどーをはんかいたいしゅーり。	NO_LABEL
屋根を銅板葺きに変更。	やねをどーいたぶきにへんこー。	NO_LABEL
