麻生 誠は、日本の教育社会学者、大阪大学・放送大学名誉教授。	NO_PRONOUNCE	NO_LABEL
東京生まれ。	とーきょーうまれ。	NO_LABEL
東京教育大学附属高等学校卒業、東京大学教育学部卒業、同・大学院教育学研究科博士課程満期退学、日本育英会専門員、東京学芸大学学芸学部講師、助教授、大阪大学人間科学部助教授、教授。	NO_PRONOUNCE	NO_LABEL
95年定年退官、名誉教授、放送大学教授、副学長、名誉教授、東京女学館理事長、東京女学館大学学長を歴任。	きゅうじゅうごねんていねんたいかん、めいよきょーじゅ、ほーそーだいがくきょーじゅ、ふくがくちょー、めいよきょーじゅ、とーきょーじょがっかんせんしゃどうれんめいのりじちょー、とーきょーじょがっかんだいがくがくちょーをれきにん。	NO_LABEL
