ネメシス。	ねめしす。	NO_LABEL
擬人化による成立のため、成立は比較的遅く、その神話は少ない。	ぎじんかによるせいりつのため、せいりつわひかくてきおそく、そのしんわわすくない。	NO_LABEL
主に有翼の女性として表される。	おもにゆーつばさのじょせいとしてあらわされる。	NO_LABEL
ヘーシオドスの『神統記』ではニュクスの娘とされる。	NO_PRONOUNCE	NO_LABEL
ゼウスはネメシスと交わろうとしたが、ネメシスはいろいろに姿を変えて逃げ、ネメシスがガチョウに変じたところゼウスは白鳥となってついに交わり、女神は卵を生んだ。	ぜうすわねめしすとまじわろうとしたが、ねめしすわいろいろにすがたをかえてにげ、ねめしすががちょーにへんじたところぜうすわはくちょーとなってついにまじわり、めがみわたまごをうんだ。	NO_LABEL
この卵を羊飼いが見つけてスパルタの王妃レーダーに与え、これからヘレネーとディオスクーロイが生まれたとされる。	このたまごをひつじかいがみつけてすぱるたのおーひれーだーにあたえ、これからへれねーとでぃおすくーろいがうまれたとされる。	NO_LABEL
ただしゼウスがこのとき白鳥となって交わったのはレーダーであるという伝承もある。	ただしぜうすがこのときはくちょーとなってまじわったのわれーだーであるとゆうでんしょーもある。	NO_LABEL
ネメシスのもっとも知られた神殿はアッティカ北部のにあり、ペイディアースの刻んだ神像があった。	ねめしすのもっともしられたしんでんわあってぃかほくぶのにあり、ぺいでぃあーすのきざんだしんぞーがあった。	NO_LABEL
ここでのネメシスはアルテミスに似た性格の女神とされ、ラムヌースの女神とも呼ばれた。	ここでのねめしすわあるてみすににたせいかくのめがみとされ、らむぬーすのめがみともよばれた。	NO_LABEL
またボイオーティアではアドラストスが始めたとされるネメシス・アドラステイア、すなわち必然のネメシスの崇拝があった。	NO_PRONOUNCE	NO_LABEL
ニュンペーのエーコーの愛を拒んだナルキッソスに罰を与えたのはネメシスであるとされる。	にゅんぺーのえーこーのあいをこばんだなるきっそすにばちをあたえたのわねめしすであるとされる。	NO_LABEL
ギリシア悲劇においては、アーテーやエリーニュスらと似たような役割、神罰の執行者としてしばしば言及される。	ぎりしあひげきにおいてわ、あーてーやえりーにゅすらとにたよーなやくわり、しんばつのしっこーしゃとしてしばしばげんきゅーされる。	NO_LABEL
アテーナイではネメシスの祭、ネメセイアが行われた。	あてーないでわねめしすのまつり、ねめせいあがおこなわれた。	NO_LABEL
これは十分な祭祀を受けなかった死者の恨みが、生者に対して向かわぬよう、執り成しを乞うことを主な目的とした。	これわじゅーぶんなさいしをうけなかったししゃのうらみが、しょーじゃにたいしてむかわぬよー、とりなしをこうことをおもなもくてきとした。	NO_LABEL
スミュルナで崇拝されたネメシスは、二つの姿をもつものとされ、アルテミスよりアプロディーテーに似た性格の女神であった。	すみゅるなですーはいされたねめしすわ、ふたつのすがたをもつものとされ、あるてみすよりあぷろでぃーてーににたせいかくのめがみであった。	NO_LABEL
この二重性の起源は不詳であるが、ネメシス自体の性格の二重性あるいはスミュルナの市が新旧二つの部分からなっていたことの反映であるとも推測される。	このにじゅうせいのきげんわふしょーであるが、ねめしすじたいのせいかくのにじゅうせいあるいわすみゅるなのしがしんきゅーふたつのぶぶんからなっていたことのはんえいであるともすいそくされる。	NO_LABEL
