tmは、イタリアのオートバイメーカーである。	たうんみーてぃんぐわ、いたりあのおーとばいめーかーである。	NO_LABEL
日本での正規輸入代理店は北海道夕張郡栗山町に所在する株式会社うえさか貿易。	にっぽんでのせいきゆにゅーだいりてんわほっかいどーゆーばりぐんくりやまちょーにしょざいするかぶしきがいしゃうえさかぼーえき。	NO_LABEL
元々はレーシングカート用レシプロエンジンメーカーとして設立。	もともとわれーしんぐかーとよーれしぷろえんじんめーかーとしてせつりつ。	NO_LABEL
その後、二輪車の製造に着手。	そのご、にりんしゃのせいぞーにちゃくしゅ。	NO_LABEL
一般にレースに参加しているメーカーはレースに出場させるワークスマシンと市販車を全くの別仕様で制作しているが、tmの特徴としては、ワークスマシンを市販車としてそのまま販売しているというところにある。	いっぱんにれーすにさんかしているめーかーわれーすにしゅつじょーさせるわーくすましんとしはんしゃをぜんくのべつしよーでせいさくしているが、たうんみーてぃんぐのとくちょーとしてわ、わーくすましんをしはんしゃとしてそのままはんばいしているとゆうところにある。	NO_LABEL
創立は1977年。	そーりつわせんきゅうひゃくななじゅうななねん。	NO_LABEL
現在の正式社名は「tm racing S.P.A.」。	NO_PRONOUNCE	NO_LABEL
イタリア中部、アドリア海沿いの町ペサロに本社工場がある。	いたりあちゅーぶ、あどりあかいぞいのまちぺさろにほんしゃこーじょーがある。	NO_LABEL
製品としてはレーシングカート用の2ストロークレーシングエンジンの単体、2ストロークエンジンを搭載したモトクロス用、エンデューロ用、及びスーパーモタード用の車両などである。	NO_PRONOUNCE	NO_LABEL
2000年より4ストロークレーシングエンジンの製作を開始。	NO_PRONOUNCE	NO_LABEL
2ストロークエンジンは現在でも単体販売を行っているが、4ストロークエンジンについては単体での発売はされておらず、同社の製作するモトクロス・エンデューロ・スーパーモタード用のそれぞれのモデルに搭載して販売されている。	NO_PRONOUNCE	NO_LABEL
いずれの製品も完全なレーシング・競技用として非常に品質が高く、性能も優れている。	NO_PRONOUNCE	NO_LABEL
尚、エンデューロ、及びスーパーモタード用の車両は日本のでレギュレーション対応のためにナンバープレートを取得し公道を走行することも可能。	なお、えんでゅーろ、およびすーぱーもたーどよーのしゃりょーわにっぽんのでれぎゅれーしょんたいおーのためになんばーぷれーとをしゅとくしこーどーをそーこーすることもかのー。	NO_LABEL
日本での輸入販売開始は1995年から、また1996年モデルのリリースはエンデューロ用モデルからとなっている。	にっぽんでのゆにゅーはんばいかいしわせんきゅうひゃくきゅうじゅうごねんから、またせんきゅうひゃくきゅうじゅうろくねんもでるのりりーすわえんでゅーろよーもでるからとなっている。	NO_LABEL
