鎌倉時代の人物一覧では、鎌倉時代の主要な人物を一覧で示す。	かまくらじだいのじんぶついちらんでわ、かまくらじだいのしゅよーなじんぶつをいちらんでしめす。	NO_LABEL
か	NO_PRONOUNCE	NO_LABEL
さ	NO_PRONOUNCE	NO_LABEL
た	NO_PRONOUNCE	NO_LABEL
な	NO_PRONOUNCE	NO_LABEL
は	NO_PRONOUNCE	NO_LABEL
ま	NO_PRONOUNCE	NO_LABEL
や	NO_PRONOUNCE	NO_LABEL
ら	NO_PRONOUNCE	NO_LABEL
わ	NO_PRONOUNCE	NO_LABEL
