全日本ラリー選手権とはJAF登録クラブ・団体が主催する国内ラリーのシリーズ戦で、日本最高峰のモータースポーツ選手権の1つである。	NO_PRONOUNCE	NO_LABEL
1979年の全日本ラリードライバー選手権を前身として1980年から全日本ラリー選手権となった。	せんきゅうひゃくななじゅうきゅうねんのぜんにほんらりーどらいばーせんしゅけんをぜんしんとしてせんきゅうひゃくはちじゅうねんからぜんにほんらりーせんしゅけんとなった。	NO_LABEL
2000年以降の運営支援は同年に発足したJRCAにより行われ、JAF公認規定の元で全国各地の主催者により、2012年以降は4月 - 10月の期間に年間9戦が開催されている。	NO_PRONOUNCE	NO_LABEL
参戦するドライバー及びコ・ドライバーは、国内B級以上のライセンスが必要となる。	さんせんするどらいばーおよびこどらいばーわ、こくないびーきゅーいじょーのらいせんすがひつよーとなる。	NO_LABEL
クラスは排気量を基準として6つに分けられ、2006年からは2005年までのクラス順位とは別に、全クラスを含めて真のNo.1を決める総合順位が設定された。	くらすわはいきりょーをきじゅんとしてむっつにわけられ、にせんろくねんからわにせんごねんまでのくらすじゅんいとわべつに、ぜんくらすをふくめてしんのなんばーわんをきめるそーごーじゅんいがせっていされた。	NO_LABEL
使用車両はグループN規定に近い国内規定に準じたもので改造範囲が狭く、室内は内張りが除かれロールケージが取り付けられているが、エンジンはリストリクターの装着を除けば市販車とほぼ同じである。	NO_PRONOUNCE	NO_LABEL
競技区間は閉鎖されたコースのSSと、一般車両に混じり移動する区間のリエゾンに分かれ、それぞれの規則に則って走行する。	きょーぎくかんわへいさされたこーすのえすえすと、いっぱんしゃりょーにまじりいどーするくかんのりえぞんにわかれ、それぞれのきそくにのっとってそーこーする。	NO_LABEL
近年は、SUPER GTのGT300クラスと同様に、キャラクターやイラストなどがボディに描かれた痛車も増加している。	NO_PRONOUNCE	NO_LABEL
これは注目を集める目的も有るが、SUPER GTを始めとするオンロードレースと異なり、プロモーターが存在せず、各地の主催者が持ち回りで開催しているため、将来的な競技継続の観点からも国内ラリーの認知度を高めて新規の客層を開拓する必要性が高まったことによる。	これわちゅーもくをあつめるもくてきもあるが、すーぱーじーてぃーをはじめとするおんろーどれーすとことなり、ぷろもーたーがそんざいせず、かくちのしゅさいしゃがもちまわりでかいさいしているため、しょーらいてきなきょーぎけいぞくのかんてんからもこくないらりーのにんちどをたかめてしんきのきゃくそーをかいたくするひつよーせいがたかまったことによる。	NO_LABEL
イベントにより1日間 - 3日間で行われ、それぞれの1日をDAYと呼称する。	NO_PRONOUNCE	NO_LABEL
DAYは、実質的なレース区間であるSSと計測地点のTC、SSとSSを結ぶ移動区間となるリエゾンに分けられ、競技はアイテナリーと呼ばれるタイムスケジュール表に沿って進められる。	NO_PRONOUNCE	NO_LABEL
スタート間隔はイベントに異なるが、通常は1分、上位のドライバーは2分となっている。	すたーとかんかくわいべんとにことなるが、つーじょーわいっぷん、じょーいのどらいばーわにふんとなっている。	NO_LABEL
競技前にレッキと呼ばれる下見走行を行い、ドライバーとコ・ドライバーはコース状況を把握してペースノートの製作を行う。	きょーぎまえにれっきとよばれるしたみそーこーをおこない、どらいばーとこどらいばーわこーすじょーきょーをはあくしてぺーすのーとのせいさくをおこなう。	NO_LABEL
コースは実際に競技で使われるコースを走れるが、使用する車は競技車両ではなく一般車両となる。	こーすわじっさいにきょーぎでつかわれるこーすをはしれるが、しよーするくるまわきょーぎしゃりょーでわなくいっぱんしゃりょーとなる。	NO_LABEL
シェイクダウンと呼ばれる、実際に競技車両を使用して最終チェックを行った後、違反の有無を確認する車検後に、競技車両は、ドライバーを含め全ての関係者は競技開始まで触れることが出来ないパルクフェルメと呼ばれる車両保管所に置かれる。	しぇいくだうんとよばれる、じっさいにきょーぎしゃりょーをしよーしてさいしゅーちぇっくをおこなったのち、いはんのうむをかくにんするしゃけんごに、きょーぎしゃりょーわ、どらいばーをふくめすべてのかんけいしゃわきょーぎかいしまでふれることができないぱるくふぇるめとよばれるしゃりょーほかんしょにおかれる。	NO_LABEL
一般公道を移動する区間で、道路交通法に従い一般車両に混じって走行し、TCに入る時間は車両毎に指定されている。	いっぱんこーどーをいどーするくかんで、どーろこーつーほーにしたがいいっぱんしゃりょーにまじってそーこーし、てぃーしーにはいるじかんわしゃりょーごとにしていされている。	NO_LABEL
道路運送車両法に定められた保安基準を満たしていない場合は公道走行を止められる可能性があり、特にSSでのトラブルで車が破損した場合などに問題となる。	どーろうんそーしゃりょーほーにさだめられたほあんきじゅんをみたしていないばあいわこーどーそーこーをとめられるかのーせいがあり、とくにえすえすでのとらぶるでくるまがはそんしたばあいなどにもんだいとなる。	NO_LABEL
リエゾンも競技の一部であり、主催者から示されるコマ図に従って走行するというラリー競技当初の姿が現在も残っている。	りえぞんもきょーぎのいちぶであり、しゅさいしゃからしめされるこまずにしたがってそーこーするとゆうらりーきょーぎとーしょのすがたがげんざいものこっている。	NO_LABEL
一般公道を閉鎖して作られたタイムトライアル区間のスペシャルステージで、SSと呼ばれる。	いっぱんこーどーをへいさしてつくられたたいむとらいあるくかんのすぺしゃるすてーじで、えすえすとよばれる。	NO_LABEL
スタート地点はTC内に設置され、ドライバーは全開でアタックする。	すたーとちてんわてぃーしーないにせっちされ、どらいばーわぜんかいであたっくする。	NO_LABEL
各DAY最後のSS終了後はTCに移動してリエゾンを通り、サービスパークと呼ばれる本部に戻る。	NO_PRONOUNCE	NO_LABEL
その後、車両は再びパルクフェルメに保管されて次のDAYの競技開始を待つ。	NO_PRONOUNCE	NO_LABEL
安全基準や改造基準はFIAのグループNを基準としているが、室内の内張り、インドアパネル、3点式シートベルトの取り外しが禁止されているほか、タイヤ、ホイールのサイズが細かく制定されている。	NO_PRONOUNCE	NO_LABEL
RF車両についてはコスト削減を考えRN、RJ車両よりもロールケージバー等、安全基準が緩和されている。	NO_PRONOUNCE	NO_LABEL
なお、RF車両の参戦資格は2014年限りとなっている。	なお、あーるえふしゃりょーのさんせんしかくわにせんじゅうよねんかぎりとなっている。	NO_LABEL
分類はFIAのグループN規定をベースとして日本独自の規定を加えたものである。	NO_PRONOUNCE	NO_LABEL
2008年からは「スーパー1500」がJN1.5クラスとして、2009年にJN2クラスとして導入。	NO_PRONOUNCE	NO_LABEL
2014年には2013年までの4クラスが再編され全6クラスとなった。	NO_PRONOUNCE	NO_LABEL
2016年からJN6クラスは4WDに限定されている。	NO_PRONOUNCE	NO_LABEL
ターボ車の排気量は1.7倍換算となる。	たーぼしゃのはいきりょーわいちてんななばいかんさんとなる。	NO_LABEL
1位 - 8位までに、それぞれ10-8-6-5-4-3-2-1ポイントが与えられ、ステージ距離や路面により係数が掛けられる。	NO_PRONOUNCE	NO_LABEL
50km - 100kmのターマックを1.0として、グラベルが1.2。	NO_PRONOUNCE	NO_LABEL
50km未満はターマック・グラベル共に0.8、50 - 100kmは、100 -150km未満は、ターマックが1.2、グラベルが1.5、150km以上はターマックが1.5、グラベルが2.0となる。	NO_PRONOUNCE	NO_LABEL
獲得ポイントはクラス順位と総合順位の両方に加算され、8戦以上に出場している場合は上位7戦分のポイントで計算される。	かくとくぽいんとわくらすじゅんいとそーごーじゅんいのりょーほーにかさんされ、はちせんいじょーにしゅつじょーしているばあいわじょーいななせんぶんのぽいんとでけいさんされる。	NO_LABEL
2011年からは、クラス別に各DAYの1 - 3位に上位から1 - 3ポイントが与えられるデイポイント制が導入された。	NO_PRONOUNCE	NO_LABEL
1979年に全日本ラリードライバー選手権として始まり、翌1980年より現在の大会名となる。	せんきゅうひゃくななじゅうきゅうねんにぜんにほんらりーどらいばーせんしゅけんとしてはじまり、よくせんきゅうひゃくはちじゅうねんよりげんざいのたいかいめいとなる。	NO_LABEL
当初はエンジン排気量1.3L以下のAクラスと1.3L以上のBクラスの2クラスで争われた。	NO_PRONOUNCE	NO_LABEL
1984年からは1L以下を加えて排気量の少ない順からA - Cの3クラスとなり、1987年 - 2002年はFIAが定めたクラスに基づき、1L以下、1.6L以下、1.6L以上とされた。	NO_PRONOUNCE	NO_LABEL
1995年から第2部門として2WDのみによる選手権が始まり、1998年 - 2005年までは2WD部門と4WD部門とで駆動方式別の選手権を開催していた。	NO_PRONOUNCE	NO_LABEL
また、各部門内で排気量により分類を行い、全クラスで優勝者・選手権保持者が決定していた。	NO_PRONOUNCE	NO_LABEL
2006年、アベレージラリー→SSラリー方式に変更された。	NO_PRONOUNCE	NO_LABEL
2000年代、日本でもWRCイベントを開催しようという機運が高まり、手始めとして2001年に第19回スパイク・インターナショナル 日本アルペンラリーが国内初のFIA規定による国際レースとして開催され、国内のラリー競技も日本独自の方式からFIAが定める国際基準に合わせる動きが起こる。	NO_PRONOUNCE	NO_LABEL
2003年、エンジン排気量に掛ける過給器の係数とラリー競技車両の安全基準を国際基準に準拠させ、翌2004年からはWRCラリージャパンが開催されている。	にせんさんねん、えんじんはいきりょうにかけるかきゅーきのけいすーとらりーきょーぎしゃりょーのあんぜんきじゅんをこくさいきじゅんにじゅんきょさせ、よくにせんよねんからわだぶりゅーあーるしーらりーじゃぱんがかいさいされている。	NO_LABEL
2006年、従来のレギュレーションを大幅に見直した新規定が導入された事に伴い、2WDと4WDという駆動方式別の部門が廃止されたことにより、全ての車両は駆動方式に関わらず同じ土俵で戦うこととなった。	NO_PRONOUNCE	NO_LABEL
同時にアベレージ・ラリーを廃止し、SSのタイムを争うSSラリーに統一した。	NO_PRONOUNCE	NO_LABEL
2006年、WRCを始めとする国際ラリーに合わせて総合順位の制度が導入された。	にせんろくねん、だぶりゅーあーるしーをはじめとするこくさいらりーにあわせてそーごーじゅんいのせいどがどーにゅーされた。	NO_LABEL
従来のチャンピオンは、クラスや駆動方式毎に6名に分けられていたが、新規定ではドライバーズポイントは各クラス+総合順位に与えられることになり、チャンピオンドライバーが統一された。	NO_PRONOUNCE	NO_LABEL
2005年まで総合順位の制度が無く、クラス及び駆動方式別のタイトルとなっていた。	にせんごねんまでそーごーじゅんいのせいどがなく、くらすおよびくどーほーしきべつのたいとるとなっていた。	NO_LABEL
