ユリアン・グリゴリェヴィチ・シトコヴェツキーは、ロシアのヴァイオリニスト。	NO_PRONOUNCE	NO_LABEL
キエフにてユダヤ系として生まれる。	きえふにてゆだやけいとしてうまれる	NO_LABEL
8歳の時にソ連を訪れていたジャック・ティボーの前で演奏して激賞された。	はっさいのときにそれんをおとずれていたじゃっくてぃぼーのまえでえんそーしてげきしょーされた。	NO_LABEL
1934年に地元の交響楽団とメンデルスゾーンのヴァイオリン協奏曲を演奏して脚光を浴びた。	NO_PRONOUNCE	NO_LABEL
1945年には全ソ連青少年コンクールに出場して優勝を飾った。	せんきゅうひゃくよんじゅうごねんにわぜんそれんせいしょーねんこんくーるにしゅつじょーしてゆーしょーをかざった。	NO_LABEL
1947年、プラハのユース・フェスティヴァルのコンクールに出場し、レオニード・コーガンと第1位を分け合っている。	NO_PRONOUNCE	NO_LABEL
1950年にはピアニストのベラ・ダヴィドヴィチと結婚。	NO_PRONOUNCE	NO_LABEL
1952年にはポーランドのポズナニで開催された第2回ヴィエニャフスキ国際コンクールで第2位を獲得。	NO_PRONOUNCE	NO_LABEL
1955年に開催されたエリザベト王妃国際コンクールで第2位を獲得。	せんきゅうひゃくごじゅうごねんにかいさいされたえりざべとおーひこくさいこんくーるでだいにーをかくとく。	NO_LABEL
1956年に肺癌を発病し、闘病生活を送るも、モスクワで死去。	せんきゅうひゃくごじゅうろくねんにはいがんをはつびょーし、とーびょーせいかつをおくるも、もすくわでしきょ。	NO_LABEL
ベラ・ダヴィドヴィチとの間の息子ドミトリー・シトコヴェツキーもヴァイオリニストである。	NO_PRONOUNCE	NO_LABEL
