鉄道駅は、鉄道を構成する施設の一つで、列車への旅客の乗降、貨物の積降に使用する場所。	てつどーえきわ、てつどーをこーせいするしせつのひとつで、れっしゃえのりょかくのじょーこー、かもつのせきくだにしよーするばしょ。	NO_LABEL
英語では「station ステーション」、フランス語では「gare ギャール」と言う。	NO_PRONOUNCE	NO_LABEL
現在、日本では一般に「駅」と呼ぶが、「停車場」などとも呼ばれる。	NO_PRONOUNCE	NO_LABEL
なお、もっぱら貨物の取り扱いをする駅は「貨物駅」という。	NO_PRONOUNCE	NO_LABEL
路面電車の発着場所は、停留場、電停とも呼ばれる。	ろめんでんしゃのはっちゃくばしょわ、ていりゅーじょー、でんていともよばれる。	NO_LABEL
呼称については地域差が大きい。	こしょーについてわちーきさがおーきい。	NO_LABEL
たとえば東京都内の場合、都電ではかつては「電車の停留場」と呼ばれ、現在は「都電の停留場」と呼ばれている。	NO_PRONOUNCE	NO_LABEL
一方で、東急世田谷線は鉄道線と同様に「駅」と呼ばれているが路面電車の根拠となる軌道法による正式名称ではない。	NO_PRONOUNCE	NO_LABEL
東京都内では昔も今も「電停」と呼ばれることは、まれである。	NO_PRONOUNCE	NO_LABEL
東京以外では「○○電停」の呼称が一般に通用する地域もある。	NO_PRONOUNCE	NO_LABEL
明治時代に日本に鉄道が導入された際、英語の " の日本語訳が確定せず、	NO_PRONOUNCE	NO_LABEL
などと呼ばれた。	などとよばれた。	NO_LABEL
明治10年代くらいから「停車場」が用いられ、正式な訳語となった。	NO_PRONOUNCE	NO_LABEL
一方で利用者は、街道の宿場を意味する「驛」を用いた。	NO_PRONOUNCE	NO_LABEL
鉄道の発達に伴って、明治中頃までに街道の「駅」はその地位を失い、鉄道の「駅」に人々が集うようになったため、宿場を指して「駅」と言わなくなっていった。	NO_PRONOUNCE	NO_LABEL
鉄道関係者も " を時に「駅」、時に「停車場」と用語を混用したため、鉄道省は、1936年に職制を改正し、「駅」と「停車場」との呼び分けを明確にした。	NO_PRONOUNCE	NO_LABEL
駅には固有の名称である駅名がつけられている。	えきにわこゆーのめいしょーであるえきめいがつけられている。	NO_LABEL
駅名は主に所在地の地名や人物名など伝統的な呼称から採られることも多かったため漢字表記またはそれを主体としたものが圧倒的に多いが、近年は施設名などに由来した平仮名や片仮名表記のものも散見される。	えきめいわおもにしょざいちのちめいやじんぶつめいなどでんとーてきなこしょーからとられることもおーかったためかんじひょーきまたわそれをしゅたいとしたものがあっとーてきにおーいが、きんねんわしせつめいなどにゆらいしたひらがなやかたかなひょーきのものもさんけんされる。	NO_LABEL
なお、日本で初めて片仮名表記のみの呼称を用いた駅は1961年に開業した「ハイランド駅」である。	NO_PRONOUNCE	NO_LABEL
鉄道駅は鉄道の路線において、数百メートルから数キロメートルの間隔で設けられる。	てつどーえきわてつどーのろせんにおいて、すーひゃくめーとるからすーきろめーとるのかんかくでもーけられる。	NO_LABEL
駅の設置間隔は概ね人口密度と密接な関わりがあるが、地形にも左右されるため、隆起の多い地形に比べ平坦な地形のほうが設置できる土地が確保しやすく、駅間隔が狭い傾向にある。	えきのせっちかんかくわおーむねじんこーみつどとみっせつなかかわりがあるが、ちけいにもさゆーされるため、りゅーきのおーいちけいにくらべへいたんなちけいのほーがせっちできるとちがかくほしやすく、えきかんかくがせまいけいこーにある。	NO_LABEL
また設置間隔は列車の運行速度にも相関し、高速鉄道では数十キロメートルから数百キロメートルの間隔で設置される。	またせっちかんかくわれっしゃのうんこーそくどにもそーかんし、こーそくてつどーでわすーじゅーきろめーとるからすーひゃくきろめーとるのかんかくでせっちされる。	NO_LABEL
鉄道駅は駅舎とプラットホーム、線路などから構成される。	てつどーえきわえきしゃとぷらっとほーむ、せんろなどからこーせいされる。	NO_LABEL
鉄道駅の構造は、プラットホームの位置によって、地上駅、高架駅、地下駅に分類できる。	てつどーえきのこーぞーわ、ぷらっとほーむのいちによって、ちじょーえき、こーかえき、ちかえきにぶんるいできる。	NO_LABEL
しかし増築を重ねた駅舎や、新路線の開通などで駅の規模が拡張された駅舎では多くのホームを有し、この3つのうちのひとつに限定できないことも多い。	しかしぞーちくをかさねたえきしゃや、しんろせんのかいつーなどでえきのきぼがかくちょーされたえきしゃでわおーくのほーむをゆーし、このみっつのうちのひとつにげんていできないこともおーい。	NO_LABEL
また半地下式や盛土式のように、定義の仕方によって扱いが異なってくるものもある。	またはんちかしきやもりつちしきのよーに、ていぎのしかたによってあつかいがことなってくるものもある。	NO_LABEL
駅舎は本屋とも呼ばれ、典型的な旅客駅舎は、切符売り場、改札口、事務室、待合室、コンコース、売店、観光案内所などを備えた施設になっている。	えきしゃわほんやともよばれ、てんけいてきなりょかくえきしゃわ、きっぷうりば、かいさつぐち、じむしつ、まちあいしつ、こんこーす、ばいてん、かんこーあんないしょなどをそなえたしせつになっている。	NO_LABEL
駅舎と本屋は同義語と捉えて問題ない駅がほとんどであるが、本屋とは、鉄道事業者が定めた駅の中心点を含めた構造物またはエリアを示すものである。	えきしゃとほんやわどーぎごととらえてもんだいないえきがほとんどであるが、ほんやとわ、てつどーじぎょーしゃがさだめたえきのちゅーしんてんをふくめたこーぞーぶつまたわえりあをしめすものである。	NO_LABEL
建物を大規模化し、駅機能以外の機能をふんだんに盛り込んだ駅舎のことを特に駅ビルと呼ぶ。	たてものをだいきぼかし、えききのーいがいのきのーをふんだんにもりこんだえきしゃのことをとくにえきびるとよぶ。	NO_LABEL
駅ビルには、テナントとして百貨店をはじめとする各種の店舗、企業のオフィス、ホテルなどが入っていることが多い。	えきびるにわ、てなんととしてひゃっかてんをはじめとするかくしゅのてんぽ、きぎょーのおふぃす、ほてるなどがはいっていることがおーい。	NO_LABEL
一方、小規模な駅にはプラットホームと線路だけで構成され、駅舎を持たないものもある。	いっぽー、しょーきぼなえきにわぷらっとほーむとせんろだけでこーせいされ、えきしゃをもたないものもある。	NO_LABEL
地平駅舎は、一般的には駅舎およびホームが取り付けの道路と同じ、またはほとんど同じ高さにある駅のこと。	ちへいえきしゃわ、いっぱんてきにわえきしゃおよびほーむがとりつけのどーろとおなじ、またわほとんどおなじたかさにあるえきのこと。	NO_LABEL
片側ホームであればホーム高さ分を盛土して道路‐駅舎‐ホーム間が段差無しで直結できる。	NO_PRONOUNCE	NO_LABEL
古くからの駅の構造であるが、線路を挟んだ向かい側からの利用は不便となり、また、都市を分断するなどの理由から後述の橋上駅舎や高架駅に改築された駅も存在する。	ふるくからのえきのこーぞーであるが、せんろをはさんだむかいがわからのりよーわふべんとなり、また、としをぶんだんするなどのりゆーからこーじゅつのきょうじょうえきしゃやこーかえきにかいちくされたえきもそんざいする。	NO_LABEL
ホームと駅舎のどちらか一方、または両方が築堤などの上にあり、標高差が少しある場合もある。	ほーむとえきしゃのどちらかいっぽー、またわりょーほーがちくていなどのうえにあり、ひょーこーさがすこしあるばあいもある。	NO_LABEL
利点としては、駅舎正面のホームに限ればバリアフリーであり、一線スルーを応用して駅舎正面に列車を着発させ利便性を高めることができる。	りてんとしてわ、えきしゃしょーめんのほーむにかぎればばりあふりーであり、いっせんするーをおーよーしてえきしゃしょーめんにれっしゃをちゃくはつさせりべんせいをたかめることができる。	NO_LABEL
また、建設費が安く、改修や改良の工事がたやすい。	また、けんせつひがやすく、かいしゅーやかいりょーのこーじがたやすい。	NO_LABEL
行き止まりでない駅においてホームが二つ以上あったり、駅舎とホームの間に線路がある場合、乗客は線路を渡ることになるが、このとき改札内の跨線橋あるいは地下道による上下動が生じる。	ゆきどまりでないえきにおいてほーむがふたついじょーあったり、えきしゃとほーむのまにせんろがあるばあい、じょーきゃくわせんろをわたることになるが、このときかいさつないのこせんきょーあるいわちかどーによるじょーげどーがしょーじる。	NO_LABEL
跨線橋も地下道も置かない駅では、構内踏切を通ることとなるため安全面でやや不安を抱え、構内踏切に遮断機が設置されている場合は、列車が発車するのを待たないと線路を渡ることができない。	こせんきょーもちかどーもおかないえきでわ、こーないふみきりをとーることとなるためあんぜんめんでややふあんをかかえ、こーないふみきりにしゃだんきがせっちされているばあいわ、れっしゃがはっしゃするのをまたないとせんろをわたることができない。	NO_LABEL
橋上駅舎を持つ駅を橋上駅と呼ぶ。	きょうじょうえきしゃをもつえきをきょうじょうえきとよぶ。	NO_LABEL
跨線橋と駅舎を一体化したような形で、ホームや線路の上空に改札など従来の駅舎にあった諸施設が設置され、外部やホームには階段やエスカレータやエレベーターで接続される。	こせんきょーとえきしゃをいったいかしたよーなかたちで、ほーむやせんろのじょーくーにかいさつなどじゅーらいのえきしゃにあったしょしせつがせっちされ、がいぶやほーむにわかいだんやえすかれーたやえれべーたーでせつぞくされる。	NO_LABEL
例えば鉄道が市街地を東西方向に通過している場合、線路を挟んで改札を2つ作るより、橋上の1か所に切符売り場や改札を統合する方が管理もしやすく、人件費など運用コストも削減できる。	NO_PRONOUNCE	NO_LABEL
また、鉄道で分断されていた南北の市街地を結ぶ自由通路を兼ねる場合もある。	また、てつどーでぶんだんされていたなんぼくのしがいちをむすぶじゆーつーろをかねるばあいもある。	NO_LABEL
橋上駅舎化により新たに設置した階段部分、エレベーター部分がかつての駅舎部分より小さく収まれば、店舗や駅前広場など有効活用できるスペースが生まれる。	きょうじょうえきしゃかによりあらたにせっちしたかいだんぶぶん、えれべーたーぶぶんがかつてのえきしゃぶぶんよりちーさくおさまれば、てんぽやえきまえひろばなどゆーこーかつよーできるすぺーすがうまれる。	NO_LABEL
地上ホームではなくて、掘割にプラットホームがある場合も橋上駅舎と呼ぶ。	ちじょーほーむでわなくて、ほりわりにぷらっとほーむがあるばあいもきょうじょうえきしゃとよぶ。	NO_LABEL
橋上駅舎とは逆に、駅舎のみを地下に設置した地下駅舎もある。	きょうじょうえきしゃとわぎゃくに、えきしゃのみをちかにせっちしたちかえきしゃもある。	NO_LABEL
効果としては橋上駅舎と似ている。	こーかとしてわきょうじょうえきしゃとにている。	NO_LABEL
橋上駅舎よりは上下する距離が短いが、構内が暗いなどの欠点もある。	きょうじょうえきしゃよりわじょーげするきょりがみじかいが、こーないがくらいなどのけってんもある。	NO_LABEL
地上にはホームのほかに出入口が設けられるが、地下鉄の駅出入口のように小規模のものもあれば、一般の地上駅舎なみの立派な出入口を設けている例も見られる。	ちじょーにわほーむのほかにでいりぐちがもーけられるが、ちかてつのえきでいりぐちのよーにしょーきぼのものもあれば、いっぱんのちじょーえきしゃなみのりっぱなでいりぐちをもーけているれいもみられる。	NO_LABEL
高架駅とは、鉄道が高架化された場合など、ホームが高架部分にある駅のことである。	こーかえきとわ、てつどーがこーかかされたばあいなど、ほーむがこーかぶぶんにあるえきのことである。	NO_LABEL
この場合、駅舎も高架の部分に造られる場合と、階段を下りた高架下などの地上に造られる場合がある。	このばあい、えきしゃもこーかのぶぶんにつくられるばあいと、かいだんをおりたこーかしたなどのちじょーにつくられるばあいがある。	NO_LABEL
駅舎は高架下を利用して設置されていることが多い。	えきしゃわこーかしたをりよーしてせっちされていることがおーい。	NO_LABEL
高架線で開通した路線の駅や、地上を走る路線の高架化による連続立体交差事業に伴って、古くからの地上駅が高架駅に改築された場合が多い。	こーかせんでかいつーしたろせんのえきや、ちじょーをはしるろせんのこーかかによるれんぞくりったいこーさじぎょーにともなって、ふるくからのちじょーえきがこーかえきにかいちくされたばあいがおーい。	NO_LABEL
広義では築堤も高架であり、築堤上にホームを持つものも高架駅と言える。	こーぎでわちくていもこーかであり、ちくていじょーにほーむをもつものもこーかえきといえる。	NO_LABEL
踏切が無いのが特徴で、高架駅の利点というより高架橋の利点であるが、高架下が有効に使用できる。	ふみきりがないのがとくちょーで、こーかえきのりてんというよりこーかきょーのりてんであるが、こーかしたがゆーこーにしよーできる。	NO_LABEL
駅舎を高架下に設置する場合は駅舎の用地取得が省け、また利用価値の高い駅周辺の土地を有効活用できる。	えきしゃをこーかしたにせっちするばあいわえきしゃのよーちしゅとくがはぶけ、またりよーかちのこういえきしゅーへんのとちをゆーこーかつよーできる。	NO_LABEL
高架下に駅舎を設置する場合、乗客が駅両側から改札まで等しい距離で到達できる。	こーかしたにえきしゃをせっちするばあい、じょーきゃくがえきりょーがわからかいさつまでひとしいきょりでとーたつできる。	NO_LABEL
ホーム間の連絡通路が高架下に設けられることも多く、この場合ホームまでの上下移動が、橋上駅舎を設置した地上駅の半分で済み便利である。	ほーむかんのれんらくつーろがこーかしたにもーけられることもおーく、このばあいほーむまでのじょーげいどーが、きょうじょうえきしゃをせっちしたちじょーえきのはんぶんですみべんりである。	NO_LABEL
しかし問題として、高架の建設費がかさんだり、車椅子やベビーカーなどの交通弱者の場合には駅員や周りの人の手助けが必要になったりする点がある。	しかしもんだいとして、こーかのけんせつひがかさんだり、くるまいすやべびーかーなどのこーつーじゃくしゃのばあいにわえきいんやまわりのひとのてだすけがひつよーになったりするてんがある。	NO_LABEL
近年はエレベーターなどの設置によりバリアフリー化を図っているので、後者については解消が進んでいる。	きんねんわえれべーたーなどのせっちによりばりあふりーかをはかっているので、こーしゃについてわかいしょーがすすんでいる。	NO_LABEL
地下駅とは、鉄道が地下化された場合など、ホームが地下部分にある駅のことである。	ちかえきとわ、てつどーがちかかされたばあいなど、ほーむがちかぶぶんにあるえきのことである。	NO_LABEL
地下路線、あるいは地下化による連続立体交差化が行われた区間における構造で、駅舎は地上か地下、またはその両方に跨って設置される。	ちかろせん、あるいわちかかによるれんぞくりったいこーさかがおこなわれたくかんにおけるこーぞーで、えきしゃわちじょーかちか、またわそのりょーほーにまたがってせっちされる。	NO_LABEL
多くは地下鉄のような都市トンネル内にあるが、中には山岳トンネル内に設けられている駅もある。	おーくわちかてつのよーなとしとんねるないにあるが、なかにわさんがくとんねるないにもーけられているえきもある。	NO_LABEL
また特殊な例では、かつて海底トンネル内に位置する駅もあった。	またとくしゅなれいでわ、かつてかいていとんねるないにいちするえきもあった。	NO_LABEL
広義には掘割の中にプラットホームを設けた構造の駅を含む。	こーぎにわほりわりのなかにぷらっとほーむをもーけたこーぞーのえきをふくむ。	NO_LABEL
他の駅構造と比べて地上の構造物が少ないため、土地の占有や景観への影響が比較的小さく済むほか、日照の遮断や駅周辺への騒音も起こりにくい点が特長である。	たのえきこーぞーとくらべてちじょーのこーぞーぶつがすくないため、とちのせんゆーやけいかんえのえいきょーがひかくてきちーさくすむほか、にっしょーのしゃだんやえきしゅーへんえのそーおんもおこりにくいてんがとくちょーである。	NO_LABEL
一方で駅を地下に建設する特性上、建設費や維持管理性、駅の拡張性については他の駅構造と比べ劣ることが多い。	いっぽーでえきをちかにけんせつするとくせいじょー、けんせつひやいじかんりせい、えきのかくちょーせいについてわたのえきこーぞーとくらべおとることがおーい。	NO_LABEL
また他の地下構造物と同様に密閉空間であり、特に深度が深い場合や構内が複雑な場合は火災や浸水、停電などに弱い。	またたのちかこーぞーぶつとどーよーにみっぺいくーかんであり、とくにしんどがふかいばあいやこーないがふくざつなばあいわかさいやしんすい、ていでんなどによわい。	NO_LABEL
加えて利用者が方向を見失いやすいため、駅の建設や改修にあたっては、防災や乗り換えの簡便さ、さらにバリアフリーなどへの総合的な配慮が必要となる。	くわえてりよーしゃがほーこーをみうしないやすいため、えきのけんせつやかいしゅーにあたってわ、ぼーさいやのりかえのかんべんさ、さらにばりあふりーなどえのそーごーてきなはいりょがひつよーとなる。	NO_LABEL
鉄道駅が扱うものは大きく分けて旅客と貨物に大別できる。	てつどーえきがあつかうものわおーきくわけてりょかくとかもつにたいべつできる。	NO_LABEL
以下、旅客を扱う駅である旅客駅と、貨物を扱う貨物駅の2つに大別して解説する。	いか、りょかくをあつかうえきであるりょかくえきと、かもつをあつかうかもつえきのふたつにたいべつしてかいせつする。	NO_LABEL
旅客駅は旅客の乗降のために設けられた駅であり、旅客の乗降に適した設備を有している。	りょかくえきわりょかくのじょーこーのためにもーけられたえきであり、りょかくのじょーこーにてきしたせつびをゆーしている。	NO_LABEL
複数の路線が乗り入れる主要な旅客駅では、周辺の駅に比べ利用者が多くなる傾向にあり、そういった駅では駅員が配属され、特殊な切符の発券窓口などもある。	ふくすーのろせんがのりいれるしゅよーなりょかくえきでわ、しゅーへんのえきにくらべりよーしゃがおーくなるけいこーにあり、そういったえきでわえきいんがはいぞくされ、とくしゅなきっぷのはっけんまどぐちなどもある。	NO_LABEL
それ以外の駅でも駅員は配属されることもあるが、国際的に見た場合、駅業務が無人化されている場合が多く、発券機や自動改札といった機械設備が人間に代わって駅業務を果たしているところもある。	それいがいのえきでもえきいんわはいぞくされることもあるが、こくさいてきにみたばあい、えきぎょーむがむじんかされているばあいがおーく、はっけんきやじどーかいさつといったきかいせつびがにんげんにかわってえきぎょーむをはたしているところもある。	NO_LABEL
旅客駅は主に駅舎、待合室、プラットホーム、線路、跨線橋などから構成されているが、駅によっては乗車設備のみであることもあるため一概に言うことは難しい。	りょかくえきわおもにえきしゃ、まちあいしつ、ぷらっとほーむ、せんろ、こせんきょーなどからこーせいされているが、えきによってわじょーしゃせつびのみであることもあるためいちがいにいうことわむずかしい。	NO_LABEL
基本的には駅舎の内部には発券設備、待合施設、改札口が備え付けられているが、小規模な駅ではいずれも簡略化されることが多い。	きほんてきにわえきしゃのないぶにわはっけんせつび、まちあいしせつ、かいさつぐちがそなえつけられているが、しょーきぼなえきでわいずれもかんりゃくかされることがおーい。	NO_LABEL
なお、信用乗車方式を採用する場合は規模に関わらず最小限の設備に抑えられている。	なお、しんよーじょーしゃほーしきをさいよーするばあいわきぼにかかわらずさいしょーげんのせつびにおさえられている。	NO_LABEL
旅客を取り扱う駅では、一般には乗降のための設備を持っており、乗降するための台をプラットホームと呼ぶ。	りょかくをとりあつかうえきでわ、いっぱんにわじょーこーのためのせつびをもっており、じょーこーするためのだいをぷらっとほーむとよぶ。	NO_LABEL
列車の長さよりも長く設けることが多いが、乗降口に合わせてその都度階段などを置いて対応している場合もある。	れっしゃのながさよりもながくもーけることがおーいが、じょーこーぐちにあわせてそのつどかいだんなどをおいてたいおーしているばあいもある。	NO_LABEL
ホームに並行する形でホームの片側または両側に線路が敷かれる。	ほーむにへいこーするかたちでほーむのかたがわまたわりょーがわにせんろがしかれる。	NO_LABEL
複数の線路を有する駅では、複数の乗り場に「○番線」「○番ホーム」「○番のりば」「プラットフォーム○」のように番号を付けて旅客の便を図っている。	NO_PRONOUNCE	NO_LABEL
そのほか、運行時刻を掲載した時刻表が備え付けられていることがある。	そのほか、うんこーじこくをけいさいしたじこくひょーがそなえつけられていることがある。	NO_LABEL
ホームへ入場する際に改札を通る場合がある。	ほーむえにゅーじょーするさいにかいさつをとーるばあいがある。	NO_LABEL
無人駅や、路線によっては改札が省略され、列車への乗車後に運賃を支払う場合もある。	むじんえきや、ろせんによってわかいさつがしょーりゃくされ、れっしゃえのじょーしゃごにうんちんをしはらうばあいもある。	NO_LABEL
一般に改札を通る場合、乗車する列車の区間の相当する運賃や、それに相当する乗車券が必要になる。	いっぱんにかいさつをとーるばあい、じょーしゃするれっしゃのくかんのそーとーするうんちんや、それにそーとーするじょーしゃけんがひつよーになる。	NO_LABEL
乗車券は駅の中の窓口や、券売機等を通じて購入することが多い。	じょーしゃけんわえきのなかのまどぐちや、けんばいきとーをつーじてこーにゅーすることがおーい。	NO_LABEL
また、乗車しなくてもホームに立ち入るために入場券が必要になる場合もある。	また、じょーしゃしなくてもほーむにたちいるためににゅーじょーけんがひつよーになるばあいもある。	NO_LABEL
複数の乗り場がある場合は線路を渡るか、連絡通路を通り別のホームへ移動する。	ふくすーののりばがあるばあいわせんろをわたるか、れんらくつーろをとーりべつのほーむえいどーする。	NO_LABEL
規模の大きい駅になると、駅舎もそれに伴って大きくなる。	きぼのおーきいえきになると、えきしゃもそれにともなっておーきくなる。	NO_LABEL
大型化された駅舎には、駅ビルと呼ばれ、商業施設やオフィス、ホテルなどが入居する例もある。	おーがたかされたえきしゃにわ、えきびるとよばれ、しょーぎょーしせつやおふぃす、ほてるなどがにゅーきょするれいもある。	NO_LABEL
鉄道駅の構内には特有の設備が存在することがある。	てつどーえきのこーないにわとくゆーのせつびがそんざいすることがある。	NO_LABEL
鉄道変電所や信号機、また多数の線路を分岐するための分岐器が設置される。	てつどーへんでんしょやしんごうき、またたすーのせんろをぶんきするためのぶんききがせっちされる。	NO_LABEL
駅には駅員が常駐していることが望ましいが、利用者の少ない駅では駅員が配属されない傾向がある。	えきにわえきいんがじょーちゅーしていることがのぞましいが、りよーしゃのすくないえきでわえきいんがはいぞくされないけいこーがある。	NO_LABEL
このような無人化された駅は無人駅と呼ばれ、駅員がやるべき仕事を機械化していたり、駅業務そのものを行わなかったりする。	このよーなむじんかされたえきわむじんえきとよばれ、えきいんがやるべきしごとをきかいかしていたり、えきぎょーむそのものをおこなわなかったりする。	NO_LABEL
また反対に駅員がいる駅を有人駅と呼ぶ。	またはんたいにえきいんがいるえきをゆーじんえきとよぶ。	NO_LABEL
駅舎や周辺の管理は、有人駅であれば基本的に駅員が行うことになるが、無人駅では管理している鉄道会社が定期的に行うこともあれば、駅の周辺に住む住民によって管理されることもある。	えきしゃやしゅーへんのかんりわ、ゆーじんえきであればきほんてきにえきいんがおこなうことになるが、むじんえきでわかんりしているてつどーがいしゃがていきてきにおこなうこともあれば、えきのしゅーへんにすむじゅーみんによってかんりされることもある。	NO_LABEL
常時乗客の乗降に使用される一般的な常設駅の他に、特定の季節または日に限って使用される臨時駅がある。	じょーじじょーきゃくのじょーこーにしよーされるいっぱんてきなじょーせつえきのほかに、とくていのきせつまたわひにかぎってしよーされるりんじえきがある。	NO_LABEL
ただし、毎日営業するものの、営業時間が限られている駅については常設駅として扱われる。	ただし、まいにちえいぎょーするものの、えいぎょーじかんがかぎられているえきについてわじょーせつえきとしてあつかわれる。	NO_LABEL
駅は適宜必要に応じて新駅として新設されたり、既存駅を廃止して廃駅にされたり、信号場に変更されたりするが、鉄道路線の新設や廃止に伴って行われることが多い。	えきわてきぎひつよーにおーじてしんえきとしてしんせつされたり、きそんえきをはいししてはいえきにされたり、しんごーじょーにへんこーされたりするが、てつどーろせんのしんせつやはいしにともなっておこなわれることがおーい。	NO_LABEL
新設される場合、現代では環境アセスメントが行われることがある。	しんせつされるばあい、げんだいでわかんきょーあせすめんとがおこなわれることがある。	NO_LABEL
新設費用は、その路線を営む鉄道事業会社が負担する場合と、地元自治体あるいは沿線企業が負担する場合がある。	しんせつひよーわ、そのろせんをいとなむてつどーじぎょーかいしゃがふたんするばあいと、じもとじちたいあるいわえんせんきぎょーがふたんするばあいがある。	NO_LABEL
単独で廃止される場合は、駅の維持費が収入を大きく上回り維持が不可能になったときや、物理的な問題で廃止ぜざるを得なくなることが多い。	たんどくではいしされるばあいわ、えきのいじひがしゅーにゅーをおーきくうわまわりいじがふかのーになったときや、ぶつりてきなもんだいではいしぜざるをえなくなることがおーい。	NO_LABEL
鉄道駅を廃止した後は、都市部であれば再開発が行われることが多いが、都市部でない場合はそのまま放置されることも少なくない。	てつどーえきをはいししたのちわ、としぶであればさいかいはつがおこなわれることがおーいが、としぶでないばあいわそのままほーちされることもすくなくない。	NO_LABEL
また建造物が撤去されて更地とされることもある。	またけんぞーぶつがてっきょされてさらちとされることもある。	NO_LABEL
駅はプラットホームを含め、比較的広大な土地を有することが多く、ターミナル駅では顕著である。	えきわぷらっとほーむをふくめ、ひかくてきこーだいなとちをゆーすることがおーく、たーみなるえきでわけんちょである。	NO_LABEL
そのためまとまった形での再開発が行われることもある。	そのためまとまったかたちでのさいかいはつがおこなわれることもある。	NO_LABEL
都市においては、鉄道駅の周辺は人が容易に集まることができるため、大規模なターミナル駅などの鉄道駅の周辺は特に商業が活発化し、地価が高騰する傾向にある。	としにおいてわ、てつどーえきのしゅーへんわひとがよーいにあつまることができるため、だいきぼなたーみなるえきなどのてつどーえきのしゅーへんわとくにしょーぎょーがかっぱつかし、ちかがこーとーするけいこーにある。	NO_LABEL
またそうでなくても、ターミナル駅から近い都市部の駅の周辺では大規模な住宅が建設されやすく、都市の中の位置づけとしては大きな役目を担っている。	またそーでなくても、たーみなるえきからちかいとしぶのえきのしゅーへんでわだいきぼなじゅーたくがけんせつされやすく、としのなかのいちずけとしてわおーきなやくめをになっている。	NO_LABEL
多くの都市の場合、ターミナル駅が都市の中心部として発達している。	おーくのとしのばあい、たーみなるえきがとしのちゅーしんぶとしてはったつしている。	NO_LABEL
都市計画や交通計画において鉄道は大きな存在を担っている。	としけいかくやこーつーけいかくにおいててつどーわおーきなそんざいをになっている。	NO_LABEL
これに対して、地方においては、市町村内に駅がある場合でも、駅が町の中核とはなっていない例も多い。	これにたいして、ちほーにおいてわ、しちょーそんないにえきがあるばあいでも、えきがまちのちゅーかくとわなっていないれいもおーい。	NO_LABEL
鉄道駅の存在は鉄道への乗降を行うためだけに留まらず、駅前にバス停を置くことでバスへの乗り継ぎが行えるようになっていたり、タクシーとも連絡できるようになっていたりと交通の節点としての役割を担うことができる。	てつどーえきのそんざいわてつどーえのじょーこーをおこなうためだけにとまらず、えきまえにばすていをおくことでばすえののりつぎがおこなえるよーになっていたり、たくしーともれんらくできるよーになっていたりとこーつーのせってんとしてのやくわりをになうことができる。	NO_LABEL
また郊外の駅では、都市部への自動車の流入を減らすように鉄道駅を活用することが20世紀後半から行われ始めるようになった。	またこーがいのえきでわ、としぶえのじどーしゃのりゅーにゅーをへらすよーにてつどーえきをかつよーすることがにじっせいきこーはんからおこなわれはじめるよーになった。	NO_LABEL
パークアンドライドという考えはこれの典型的な例であり、郊外の駅の周辺に駐車場を用意し、自動車と鉄道の乗り換えをスムーズにするというものである。	ぱーくあんどらいどとゆうかんがえわこれのてんけいてきなれいであり、こーがいのえきのしゅーへんにちゅーしゃじょーをよーいし、じどーしゃとてつどーののりかえをすむーずにするとゆうものである。	NO_LABEL
『都市の価値を紡ぐ50のトピックスTopic19　鉄道駅の利用者に対するわかりやすさ』においては、ケヴィン・リンチが著書『都市のイメージ』で提唱したイメージアビリティ5要素「パス」「エッジ」「ディストリクト」「ノード」「ランドマーク」を用いて、日本の都市における鉄道駅の多くは今やこれら5要素すべてを併せ持つ複雑な存在であると論じている。	NO_PRONOUNCE	NO_LABEL
この論に拠ると、例えば上述の乗り継ぎ点・パークアンドライドについては鉄道駅の「ノード」要素が強く表れたものと見ることができる。	NO_PRONOUNCE	NO_LABEL
