スリクソンは、住友ゴム工業の子会社であるダンロップスポーツが所有する、ゴルフとテニス用品に特化したブランド。	すりくそんわ、すみともごむこーぎょーのこがいしゃであるだんろっぷすぽーつがしょゆーする、ごるふとてにすよーひんにとくかしたぶらんど。	NO_LABEL
、ゴルフボールであり、世界的にもっと多くゴルフボールに関する特許を取得しているほか、かつてはなど複数の主要メーカーに製品を供給し、大きな成功を収めた。	NO_PRONOUNCE	NO_LABEL
このブランドは、ゴルフクラブや、その他のゴルフ関連商品も全面的に製造している。	このぶらんどわ、ごるふくらぶや、そのたのごるふかんれんしょーひんもぜんめんてきにせいぞーしている。	NO_LABEL
「スリクソン Srixon」は、もともと住友ゴム工業が、1996年以来、おもに東南アジアの子会社で製造し、日本以外の市場向けに低価格で供給していたゴルフボールのブランドであった。	NO_PRONOUNCE	NO_LABEL
日本国内では、1999年から、スリクソン・ブランドのゴルフボールなどの販売が始まった。	NO_PRONOUNCE	NO_LABEL
スリクソンは、2001年の時点で、住友ゴム工業や傘下企業にとって「世界戦略ブランド」と位置付けられており、同年には、東南アジアでのスリクソン・ブランドのゴルフクラブの販売が開始された。	NO_PRONOUNCE	NO_LABEL
2003年、住友ゴム工業のスポーツ事業部門からの分社独立によってSRIスポーツ株式会社が設立され、同社から2005年にゴルフボール「スリクソン Z-UR」が発売された。	NO_PRONOUNCE	NO_LABEL
2006年10月に、SRIスポーツは東証1部に上場し、以降、堅調に成長した。	にせんろくねんじゅーがつに、えすあーるあいすぽーつわとーしょーいちぶにじょーじょーし、いこー、けんちょーにせいちょーした。	NO_LABEL
2007年10月、SRIスポーツは、アメリカ合衆国のゴルフクラブ・メーカー、を取得し、翌年にはスリクソンの事業とクリーブランドゴルフとの統合が発表された	NO_PRONOUNCE	NO_LABEL
2007年には、スリクソンのブランドでゴルフクラブが発売され、さらにゴルフボールのラインもリニューアルされた。	にせんななねんにわ、すりくそんのぶらんどでごるふくらぶがはつばいされ、さらにごるふぼーるのらいんもりにゅーあるされた。	NO_LABEL
テニスボールがスリクソンのブランドで発売されたのもこの年であった。	てにすぼーるがすりくそんのぶらんどではつばいされたのもこのとしであった。	NO_LABEL
2012年2月、SRIスポーツは、ダンロップスポーツに社名変更した。	にせんじゅうにねんにがつ、えすあーるあいすぽーつわ、だんろっぷすぽーつにしゃめいへんこーした。	NO_LABEL
2014年から、従前の「福島オープンゴルフ」の主催者に日本ゴルフツアー機構とダンロップスポーツが加わり、新たに「ダンロップ・スリクソン福島オープン」が男子ツアーの公式戦として開催されるようになっている。	NO_PRONOUNCE	NO_LABEL
2015年4月、ダンロップスポーツとデサントは、「スリクソンブランドのゴルフアパレル分野の業務提携」を発表した。	NO_PRONOUNCE	NO_LABEL
これによれば、企画制作などはデサントが行うこと。	これによれば、きかくせいさくなどわでさんとがおこなうこと。	NO_LABEL
ウェアの販売はデサントが、アクセサリー類の販売はダンロップスポーツが行うこと、となっている。	うぇあのはんばいわでさんとが、あくせさりーるいのはんばいわだんろっぷすぽーつがおこなうこと、となっている。	NO_LABEL
SRIスポーツは、以前から、他の主要なゴルフ用品ブランドにゴルフボールを製造供給しており、特にダンロップ・スラセンジャーには、ハイエンド商品であるの「"Maxfli Tour Balata HT"」を含む様々な製品を供給していたが、現在は自社ブランドであるスリクソンで様々なゴルフボールを市場に出している。	NO_PRONOUNCE	NO_LABEL
2011年には、新たにZ-STAR XVが導入された。	NO_PRONOUNCE	NO_LABEL
スリクソンのZ-STAR XVは、スイングの速いゴルファー向きに設計されている。	NO_PRONOUNCE	NO_LABEL
スリクソンは、各種のゴルフクラブや関連用品も広く揃えている。	すりくそんわ、かくしゅのごるふくらぶやかんれんよーひんもひろくそろえている。	NO_LABEL
ドライバー	どらいばー	NO_LABEL
フェアウェイウッド、ユーティリティ	ふぇあうぇいうっど、ゆーてぃりてぃ	NO_LABEL
アイアン、ウェッジ	あいあん、うぇっじ	NO_LABEL
パター	ぱたー	NO_LABEL
スリクソンは、世界中の主要なツアーで活躍する数多くのプロゴルファーとスポンサー契約を結んでいる。	すりくそんわ、せかいじゅーのしゅよーなつあーでかつやくするすーおーくのぷろごるふぁーとすぽんさーけいやくをむすんでいる。	NO_LABEL
以下のリストには、過去の一時期に契約があった者も含まれている。	いかのりすとにわ、かこのいちじきにけいやくがあったものもふくまれている。	NO_LABEL
PGAツアー	ぴーじーえーつあー	NO_LABEL
ヨーロピアンツアー	よーろぴあんつあー	NO_LABEL
チャンピオンズツアー	ちゃんぴおんずつあー	NO_LABEL
LPGAツアー	えるぴーじーえーつあー	NO_LABEL
ATPツアー	えーてぃーぴーつあー	NO_LABEL
WTAツアー	だぶりゅーてぃーえーつあー	NO_LABEL
