Wake Up メロディーは、綜合放送製作のラジオ番組である。	NO_PRONOUNCE	NO_LABEL
放送局によっては、編集後に「レディス・ハンドブック」などの別タイトルで放送されている。	NO_PRONOUNCE	NO_LABEL
パーソナリティの日常で起きた出来事、映画や本の紹介など、様々な話題を音楽と共に送る。	ぱーそなりてぃのにちじょーでおきたできごと、えいがやほんのしょーかいなど、さまざまなわだいをおんがくとともにおくる。	NO_LABEL
放送局によって10分・15分・20分と放送時間が異なる。	NO_PRONOUNCE	NO_LABEL
放送時間が10分以上のネット局で放送されている。	ほーそーじかんがじゅっぷんいじょーのねっときょくでほーそーされている。	NO_LABEL
うち、「今週の歌orメロディー」は放送時間が20分のネット局のみ放送。	NO_PRONOUNCE	NO_LABEL
また、週一回放送のネット局ではいずれかひとつのコーナーが放送されるが、週によって放送されるコーナーは異なる。	また、しゅーいちかいほーそーのねっときょくでわいずれかひとつのこーなーがほーそーされるが、しゅーによってほーそーされるこーなーわことなる。	NO_LABEL
