海野 清は、彫金家、日本芸術院会員、人間国宝。	うみのきよしわ、ちょーきんか、にほんげいじゅついんかいいん、にんげんこくほー。	NO_LABEL
海野勝珉の三男として東京に生まれる。	NO_PRONOUNCE	NO_LABEL
1911年、東京美術学校金工科卒。	せんきゅうひゃくじゅういちねん、とーきょーびじゅつがっこーきんこーかそつ。	NO_LABEL
父および加納夏雄に師事。	ちちおよびかのーなつおにしじ。	NO_LABEL
1919年、母校助教授、1928年、帝展特選、1929年から帝展、新文展審査員を務める。	せんきゅうひゃくじゅうきゅうねん、ぼこーじょきょーじゅ、せんきゅうひゃくにじゅうはちねん、みかどてんとくせん、せんきゅうひゃくにじゅうきゅうねからみかどてん、しんぶんてんしんさいんをつとめる。	NO_LABEL
1932年、教授、フランスへ留学し1934年、帰国。	せんきゅうひゃくさんじゅうにねん、きょーじゅ、ふらんすえりゅーがくしせんきゅうひゃくさんじゅうよねん、きこく。	NO_LABEL
1943年、勲三等瑞宝章受章。	せんきゅうひゃくよんじゅうさんね、くんさんとーずいほーしょーじゅしょー。	NO_LABEL
1947年、帝国芸術院会員、1949年、東京芸術大学教授、日展運営会常任理事、1955年、重要無形文化財保持者に認定、全日本工芸美術家協会会長、日本彫金家会会長。	せんきゅうひゃくよんじゅうななね、ていこくげいじゅついんかいいん、せんきゅうひゃくよんじゅうきゅうねん、とーきょーげいじゅつだいがくきょーじゅ、にってんうんえいかいじょーにんりじ、せんきゅうひゃくごじゅうごねん、じゅーよーむけいぶんかざいほじしゃににんてい、ぜんにほんこーげいびじゅつかきょーかいかいちょー、にっぽんちょーきんかかいかいちょー。	NO_LABEL
