ナチス・ドイツの経済では、1933年から1945年までのドイツ、いわゆるナチス・ドイツ時代のドイツ経済について記述する。	なちすどいつのけいざいでわ、せんきゅうひゃくさんじゅうさんねからせんきゅうひゃくよんじゅうごねんまでのどいつ、いわゆるなちすどいつじだいのどいつけいざいについてきじゅつする。	NO_LABEL
ヴァイマル共和政時代のドイツ経済は、一時好調であったものの1929年の世界恐慌と1931年の金融恐慌によって壊滅的な状況に陥った。	NO_PRONOUNCE	NO_LABEL
失業率は40％に達し、社会情勢も不安定となった。	NO_PRONOUNCE	NO_LABEL
この情勢下で政権を握ったのがアドルフ・ヒトラー率いる国家社会主義ドイツ労働者党であった。	このじょーせいかでせいけんをにぎったのがあどるふひとらーひきいるこっかしゃかいしゅぎどいつろうどであった。	NO_LABEL
ヒトラー政権は前政権からの雇用増加政策と、経済相兼ライヒスバンク総裁ヒャルマル・シャハトの指導による新規の計画等によって失業を改善し、1937年にはほぼ完全雇用を達成した。	ひとらーせいけんわぜんせいけんからのこよーぞーかせいさくと、けいざいしょーけんらいひすばんくそーさいひゃるまるしゃはとのしどーによるしんきのけいかくとーによってしつぎょーをかいぜんし、せんきゅうひゃくさんじゅうななねにわほぼかんぜんこよーをたっせいした。	NO_LABEL
恐慌からの回復に関しては、同時期にアメリカで行われたニューディール政策よりも効率的であったという仮説も近年有力になってきているが、その回復は賃金の増大や民間消費拡大も伴わない景気回復であった。	きょーこーからのかいふくにかんしてわ、どーじきにあめりかでおこなわれたにゅーでぃーるせいさくよりもこーりつてきであったとゆうかせつもきんねんゆーりょくになってきているが、そのかいふくわちんぎんのぞーだいやみんかんしょーひかくだいもともなわないけいきかいふくであった。	NO_LABEL
しかもドイツ経済の足かせであった外貨不足や、輸入困難による資源不足は解決されなかった上に、軍備拡大のために膨大な国家債務を抱えることになった。	しかもどいつけいざいのあしかせであったがいかふそくや、ゆにゅーこんなんによるしげんふそくわかいけつされなかったうえに、ぐんびかくだいのためにぼーだいなこっかさいむをかかえることになった。	NO_LABEL
1936年からは自給自足経済の成立を唱えた「第二次四カ年計画」を開始するが、資源難と労働力不足は改善されず、軍拡も不完全なまま第二次世界大戦の開始を迎えた。	NO_PRONOUNCE	NO_LABEL
戦争が始まると戦争経済体制に移行し、1940年に創設されたが指導する体制になった。	せんそーがはじまるとせんそーけいざいたいせいにいこーし、せんきゅうひゃくよんじゅうねんにそーせつされたがしどーするたいせいになった。	NO_LABEL
またポーランド人やユダヤ人の強制労働による占領地からの搾取も始まった。	またぽーらんどじんやゆだやじんのきょーせいろうどーによるせんりょーちからのさくしゅもはじまった。	NO_LABEL
1942年にアルベルト・シュペーアが軍需大臣となると、ドイツの軍需生産はいよいよ拡大されて「総力戦」体制の構築が進んだ。	NO_PRONOUNCE	NO_LABEL
しかし戦局の悪化とともにドイツ経済は悪化の一途をたどり、敗戦を迎えた。	しかしせんきょくのあっかとともにどいつけいざいわあっかのいっとをたどり、はいせんをむかえた。	NO_LABEL
経済におけるナチズムのイデオロギーは不鮮明である。	けいざいにおけるなちずむのいでおろぎーわふせんめいである。	NO_LABEL
結党時からのメンバーで25カ条綱領の策定にも携わり、党の経済委員会の座長を務めていたゴットフリート・フェーダーは「利子奴隷制の打破」や「企業の国有化」、「国際金融資本との戦い」を持論としていた。	NO_PRONOUNCE	NO_LABEL
ヒトラー自身も「我が闘争」においてフェーダーの主張を一部取り入れているが、同時に「国家は民族的な組織であって経済組織ではない」「国家は特定の経済観または経済政策とは全く無関係である」とも述べており、統一的なナチス経済政策というものは存在しなかった。	NO_PRONOUNCE	NO_LABEL
一方で経済政策について熱心であったのはグレゴール・シュトラッサーを中心とするナチス左派と呼ばれる社会主義的改革を求める派閥であった。	いっぽーでけいざいせいさくについてねっしんであったのわぐれごーるしゅとらっさーをちゅーしんとするなちすさはとよばれるしゃかいしゅぎてきかいかくをもとめるはばつであった。	NO_LABEL
しかしヒトラーが政権獲得のために保守派や財界に接近すると、左派は猛反発した。	しかしひとらーがせいけんかくとくのためにほしゅはやざいかいにせっきんすると、さはわもーはんぱつした。	NO_LABEL
ヒトラーは1926年のバンベルク会議で左派を押さえこんだが、その後も一定の勢力は保持していた。	ひとらーわせんきゅうひゃくにじゅうろくねんのばんべるくかいぎでさはをおさえこんだが、そのごもいっていのせいりょくわほじしていた。	NO_LABEL
1932年7月にナチ党が公表した経済振興策はシュトラッサーが起草したものであった。	せんきゅうひゃくさんじゅうにねんしちがつになちとーがこーひょーしたけいざいしんこーさくわしゅとらっさーがきそーしたものであった。	NO_LABEL
この振興策には道路網計画などの一部は後のナチス時代において実行されるが、この計画の実質的な発案者はユダヤ人のロベルト・フリートレンダー＝プレヒトル（）であった。	NO_PRONOUNCE	NO_LABEL
また5月にはフェーダーの持論に基づく、全銀行・信用供給機関の国有化を提案している。	NO_PRONOUNCE	NO_LABEL
政権獲得後にはこれらの計画は白紙に戻され、フェーダーや左派の思想がそのまま実行される事はなかった。	せいけんかくとくごにわこれらのけいかくわはくしにもどされ、ふぇーだーやさはのしそーがそのままじっこーされることわなかった。	NO_LABEL
しかし経済政策の基本には、民族共同体の構築と、その生存のための領土拡大、そのための軍拡があった。	しかしけいざいせいさくのきほんにわ、みんぞくきょーどーたいのこーちくと、そのせいぞんのためのりょーどかくだい、そのためのぐんかくがあった。	NO_LABEL
個別政策においても経済団体統制に用いられた「指導者原理」、農業政策における独立小農民保護政策、労働環境からの女性排除、そして経済の脱ユダヤ化などはナチズムの思想に基づくものであった。	NO_PRONOUNCE	NO_LABEL
第一次世界大戦後のヴェルサイユ条約によって莫大な賠償金を負わされたドイツの経済はきわめて不安定であった。	NO_PRONOUNCE	NO_LABEL
フランスのルール占領に対する抵抗が引き起こしたインフレーションは天文学的な規模におよんだが、ライヒスマルクの新規発行によって終息した。	ふらんすのるーるせんりょーにたいするていこーがひきおこしたいんふれーしょんわてんもんがくてきなきぼにおよんだが、らいひすまるくのしんきはっこーによってしゅーそくした。	NO_LABEL
その後黄金の20年代（）と呼ばれる好景気期を実現した。	そのごおーごんのにじゅうねんだいかっことよばれるこーけいききをじつげんした。	NO_LABEL
しかし1928年頃から次第に景気は後退を始め、1928年半ば頃には159万人だった失業者が、1929年半ば頃までに20万人増加した。	NO_PRONOUNCE	NO_LABEL
1929年10月に世界恐慌が始まると、アメリカをはじめとする外資によって支えられていたドイツ経済はたちまち破綻した。	せんきゅうひゃくにじゅうきゅうねじゅーがつにせかいきょうこーがはじまると、あめりかをはじめとするがいしによってささえられていたどいつけいざいわたちまちはたんした。	NO_LABEL
国内の需要は極端に減少し、財・サービスの輸出入は落ち込んだ。	NO_PRONOUNCE	NO_LABEL
産業構造は第一次世界大戦期からの重工業・化学製品重視政策が継続されていた。	NO_PRONOUNCE	NO_LABEL
1930年に首相となったハインリヒ・ブリューニング首相は金融安定化策で不況に対応しようとした。	せんきゅうひゃくさんじゅうねんにしゅしょーとなったはいんりひぶりゅーにんぐしゅしょーわきんゆーあんていかさくでふきょーにたいおーしようとした。	NO_LABEL
しかし景気悪化状況での経済対策には財源が必要であり、増税が不可避であった。	しかしけいきあっかじょーきょーでのけいざいたいさくにわざいげんがひつよーであり、ぞーぜいがふかひであった。	NO_LABEL
しかし増税策は議会の反対にあって否決され、ブリューニングは大統領緊急令や複数化の選挙による強行突破で予算や金融政令を成立させた。	しかしぞーぜいさくわぎかいのはんたいにあってひけつされ、ぶりゅーにんぐわだいとーりょーきんきゅーれいやふくすーかのせんきょによるきょーこーとっぱでよさんやきんゆーせいれいをせいりつさせた。	NO_LABEL
ブリューニングが選択した政策は税収増加・福祉予算等の政府支出の削減・物価の抑制を主眼としたデフレ政策であり、彼は「飢餓の首相」と国内から批判を受けた。	NO_PRONOUNCE	NO_LABEL
一方でハインリヒ・ブラウンス（）前労相の指揮の元、外国融資を資金として大規模な公共事業計画を立案していた。	NO_PRONOUNCE	NO_LABEL
1931年3月23日にはオーストリアとの関税同盟を結んだ。	せんきゅうひゃくさんじゅういちねさんがつにじゅうさんにちにわおーすとりあとのかんぜいどーめいをむすんだ。	NO_LABEL
しかしこれはヴェルサイユ条約の「ドイツ・オーストリア合邦禁止」規定に抵触するとして連合国諸国から強い反発を受け、フランスは制裁としてオーストリアの資本を引き揚げた。	NO_PRONOUNCE	NO_LABEL
これを受けてオーストリア最大の銀行クレジット・アンシュタルト()が破綻した。	NO_PRONOUNCE	NO_LABEL
この事はヨーロッパの金融危機を招き、1931年7月にはドイツ第2位の大銀行ダナート銀行（）が支払い停止に陥り閉鎖、大統領令で8月までドイツ全土の銀行が閉鎖されたもののドイツ全土に広がった金融危機は収まらず不況はさらに悪化した。	このことわよーろっぱのきんゆーききをまねき、せんきゅうひゃくさんじゅういちねしちがつにわどいつだいにーのだいぎんこーだなーとぎんこーかっこがしはらいていしにおちいりへいさ、だいとーりょーれいではちがつまでどいつぜんどのぎんこーがへいさされたもののどいつぜんどにひろがったきんゆーききわおさまらずふきょーわさらにあっかした。	NO_LABEL
外資もあてに出来ない状況となり、インフレの再来を恐れる世論やライヒスバンクが大規模な財政出動に反対したため、公共事業計画は縮小された上に実施されなかった。	がいしもあてにできないじょーきょーとなり、いんふれのさいらいをおそれるせろんやらいひすばんくがだいきぼなざいせいしゅつどーにはんたいしたため、こーきょーじぎょーけいかくわしゅくしょーされたうえにじっしされなかった。	NO_LABEL
1932年2月には登録失業者が600万人、非登録失業者を加えた推計が778万人に達し、ピークを迎えた。	NO_PRONOUNCE	NO_LABEL
産業総失業者割合は40％を超え、同時期のイギリスやアメリカの2倍近くに達している。	NO_PRONOUNCE	NO_LABEL
金・外貨準備も減少が止まらず、すべての金・外貨管理をライヒスバンクが監督するよう制限を行ったが、1932年2月には10億マルクを割り込んでいる。	NO_PRONOUNCE	NO_LABEL
5月にはブリューニングが失脚し、フランツ・フォン・パーペン内閣が成立した。	ごがつにわぶりゅーにんぐがしっきゃくし、ふらんつふぉんぱーぺんないかくがせいりつした。	NO_LABEL
パーペン政権では租税証券を開始した。	ぱーぺんせいけんでわそぜいしょーけんをかいしした。	NO_LABEL
また同年12月3日に首相となったシュライヒャーも雇用創出国家弁務官にギュンター・ゲーレケを決定し、ライヒスバンクによる部分的な同意も行われたが、翌1933年1月にシュライヒャー内閣が倒れたため実行に移されなかった。	NO_PRONOUNCE	NO_LABEL
この両内閣はブリューニング内閣のデフレ政策を転換し、景気も反転ないし底入れした。	このりょーないかくわぶりゅーにんぐないかくのでふれせいさくをてんかんし、けいきもはんてんないしそこいれした。	NO_LABEL
この間政局もきわめて不安定であり、ドイツ共産党と国家社会主義ドイツ労働者党は勢力を拡張した。	このかんせいきょくもきわめてふあんていであり、どいつきょうさんとーとこっかしゃかいしゅぎどいつろうどわせいりょくをかくちょーした。	NO_LABEL
特に企業経営者などには右派が多く、共産党に対抗するためナチスに対する資金援助を行った。	とくにきぎょーけいえいしゃなどにわうはがおーく、きょーさんとーにたいこーするためなちすにたいするしきんえんじょをおこなった。	NO_LABEL
1932年11月19日にライヒスバンク元総裁ヒャルマル・シャハト、合同製鋼社長フリッツ・ティッセン（）、ヴィルヘルム・クーノ元首相ら「ケップラー・グループ」。	NO_PRONOUNCE	NO_LABEL
1933年1月30日にはヒトラー内閣が成立した。	せんきゅうひゃくさんじゅうさんねいちがつさんじゅうにちにわひとらーないかくがせいりつした。	NO_LABEL
経済対策に当たる経済相・農業食糧相にはナチ党と連立を組んだドイツ国家人民党のアルフレート・フーゲンベルクが就任した。	NO_PRONOUNCE	NO_LABEL
ライヒスバンク総裁ハンス・ルター、ルートヴィヒ・シュヴェリン・フォン・クロージク財務相はパーペン内閣、シュライヒャー内閣と続けて留任した。	NO_PRONOUNCE	NO_LABEL
政権獲得後の2月1日にヒトラーは国民へのラジオ放送で「二つの偉大な四カ年計画」として第一次四カ年計画の開始を発表し、失業者の削減と自動車産業の拡大を訴えた。	NO_PRONOUNCE	NO_LABEL
しかし、その後にナチ党は国会議事堂放火事件後の二つの大統領緊急令、全権委任法によってきわめて強力な独裁権力を確立した。	しかし、そのごになちとーわこっかいぎじどーほーかじけんごのふたつのだいとーりょーきんきゅーれい、ぜんけんいにんほーによってきわめてきょーりょくなどくさいけんりょくをかくりつした。	NO_LABEL
ナチ党がまず行った経済政策は、ナチ党の思想に基づくよう政治・経済・産業界を再構成する強制的同一化であった。	NO_PRONOUNCE	NO_LABEL
失業対策は前政権のパーペン計画・緊急計画を蹈襲するのみで、労働政策のとりまとめが開始されたのは5月1日になってからだった。	NO_PRONOUNCE	NO_LABEL
3月にはライヒスバンク総裁ルターがナチ党と対立して更迭され、ナチ党の支持者であったシャハトが再任された。	さんがつにわらいひすばんくそーさいるたーがなちとーとたいりつしてこーてつされ、なちとーのしじしゃであったしゃはとがさいにんされた。	NO_LABEL
シャハトは8月からは経済相も兼ね、1935年5月21日には戦争経済全権にも就任、この後の経済政策を主導する事になる。	しゃはとわはちがつからわけいざいしょーもかね、せんきゅうひゃくさんじゅうごねんごがつにじゅういちにちにわせんそーけいざいぜんけんにもしゅーにん、こののちのけいざいせいさくをしゅどーすることになる。	NO_LABEL
5月2日にはすべての労働組合は解散され、ロベルト・ライが率いるドイツ労働戦線に一本化された。	ごがつふつかにわすべてのろーどーくみあいわかいさんされ、ろべるとらいがひきいるどいつろーどーせんせんにいっぽんかされた。	NO_LABEL
これにより労使関係調整はナチ党の手中に落ちた。	これによりろーしかんけいちょーせいわなちとーのしゅちゅーにおちた。	NO_LABEL
7月15日には「強制カルテル法」が施行され、新規企業設立の禁止、同業企業によるカルテル設立の強制と、国家による監視と規制が行われる体制が始まった。	NO_PRONOUNCE	NO_LABEL
9月13日には「帝国食糧団体暫定設立法」によって分野別の経済団体が設立され、国がその指導者を任命することによって経済活動を統制する仕組みが定められた。	NO_PRONOUNCE	NO_LABEL
指導者制度はナチズムの基本概念である指導者原理に基づくものであり、経済団体は国家の下部機構として動くようになった。	しどーしゃせいどわなちずむのきほんがいねんであるしどーしゃげんりにもとずくものであり、けいざいだんたいわこっかのかぶきこーとしてうごくよーになった。	NO_LABEL
11月16日には価格停止令が布告され、商品の価格と原価の管理を国が行う事とになった。	じゅーいちがつじゅうろくにちにわかかくていしれいがふこくされ、しょーひんのかかくとげんかのかんりをくにがおこなうこととになった。	NO_LABEL
1934年2月には経済有機的構成準備法が施行され、企業は各分野の経済集団もしくはライヒ工業集団の地方組織に入る事が義務づけられた。	せんきゅうひゃくさんじゅうよねんにがつにわけいざいゆーきてきこーせいじゅんびほーがしこーされ、きぎょーわかくぶんやのけいざいしゅーだんもしくわらいひこーぎょーしゅーだんのちほーそしきにはいることがぎむずけられた。	NO_LABEL
7月、シャハトは経済措置法によってから9月までの間、既存の法律の枠を超えて権限行使する権限を手に入れた。	しちがつ、しゃはとわけいざいそちほーによってからくがつまでのま、きそんのほーりつのわくをこえてけんげんこーしするけんげんをてにいれた。	NO_LABEL
この権限に基づき8月20日には商工会議所令が発せられ、商工会議所の権限が拡大された上で、経済大臣が会頭・副会頭の任免権を含む監督権を持つ事となった。	NO_PRONOUNCE	NO_LABEL
これによって商工会議所の主要人事の大半はナチ党関連の人物が占める事となり、全国の中小企業もナチ党体制に組み込まれた。	これによってしょーこーかいぎしょのしゅよーじんじのたいはんわなちとーかんれんのじんぶつがしめることとなり、ぜんこくのちゅーしょーきぎょーもなちとーたいせいにくみこまれた。	NO_LABEL
こうした企業統制化の影響で、株式会社数は1933年の9148社から1934年8618社、1935年7840社、1936年7204社と明確に減少し、資本集中が顕著となった。	NO_PRONOUNCE	NO_LABEL
5月31日にヒトラーは指導的経済人と会議を行い、この席で道路網整備と住宅増加が雇用増大の出発点であるとした。	ごがつさんじゅういちにちにひとらーわしどーてきけいざいじんとかいぎをおこない、このせきでどーろもーせいびとじゅーたくぞーかがこよーぞーだいのしゅっぱつてんであるとした。	NO_LABEL
また大企業からの要請に基づき、租税の5年間据え置きと、社会政策支出削減によって予算を均整化する方針を固めた。	まただいきぎょーからのよーせいにもとずき、そぜいのごねんかんすえおきと、しゃかいせいさくししゅつさくげんによってよさんをきんせいかするほーしんをかためた。	NO_LABEL
これ以降6月1日には第一次失業減少法、9月21日には第二次失業減少法、9月23日からはアウトバーンの建設といった半奉仕活動的な雇用による失業抑制策がとられた。	これいこーろくがつついたちにわだいいちじしつぎょーげんしょーほー、くがつにじゅういちにちにわだいにじしつぎょーげんしょーほー、くがつにじゅうさんにちからわあうとばーんのけんせつといったはんほーしかつどーてきなこよーによるしつぎょーよくせいさくがとられた。	NO_LABEL
また結婚奨励金や家事手伝いの奨励により、女性を労働から家庭に送り込む事を奨励したが、生活消費を増加させる効果もあった。	またけっこんしょーれいきんやかじてつだいのしょーれいにより、じょせいをろーどーからかていにおくりこむことをしょーれいしたが、せいかつしょーひをぞーかさせるこーかもあった。	NO_LABEL
これらの政策によって登録労働者は1933年のうちに200万人減少したが、奉仕活動的な雇用や統計操作を含むものであり、再軍備や軍需拡大による雇用創出が行われるまでの時間稼ぎ的な性格のものであった。	これらのせいさくによってとーろくろーどーしゃわせんきゅうひゃくさんじゅうさんねのうちににひゃくまんにんげんしょーしたが、ほーしかつどーてきなこよーやとーけいそーさをふくむものであり、さいぐんびやぐんじゅかくだいによるこよーそーしゅつがおこなわれるまでのじかんかせぎてきなせいかくのものであった。	NO_LABEL
一方で企業に対して租税減免措置がとられ、自動車産業に対する保護育成策もとられた。	いっぽーできぎょーにたいしてそぜいげんめんそちがとられ、じどーしゃさんぎょーにたいするほごいくせいさくもとられた。	NO_LABEL
また低調であった民間投資を集中するため、重点的事業でない繊維・紙パルプ・ラジオ・自動車部品製造などの分野には投資禁止措置がとられた。	NO_PRONOUNCE	NO_LABEL
1934年3月をピークとして雇用創出での雇用は減少しはじめ、1935年には20万人程度まで低下した。	せんきゅうひゃくさんじゅうよねんさんがつをぴーくとしてこよーそーしゅつでのこよーわげんしょーしはじめ、せんきゅうひゃくさんじゅうごねんにわにじゅうまんにんていどまでていかした。	NO_LABEL
この間に生産財製造業や建築業、自動車産業での雇用が進んだ。	このかんにせいさんざいせいぞーぎょーやけんちくぎょー、じどーしゃさんぎょーでのこよーがすすんだ。	NO_LABEL
また1935年3月16日には正式に再軍備、徴兵制が再開されたことで国防軍に86万人が吸収されたこともあって失業問題は解決され、ほぼ完全雇用が達成された。	またせんきゅうひゃくさんじゅうごねんさんがつじゅうろくにちにわせいしきにさいぐんび、ちょーへいせいがさいかいされたことでこくぼーぐんにはちじゅうろくまんにんがきゅーしゅーされたこともあってしつぎょーもんだいわかいけつされ、ほぼかんぜんこよーがたっせいされた。	NO_LABEL
また大規模な公共投資は直接的な雇用だけではなく、関連企業の投資を促して景気回復を促した。	まただいきぼなこーきょーとーしわちょくせつてきなこよーだけでわなく、かんれんきぎょーのとーしをうながしてけいきかいふくをうながした。	NO_LABEL
1936年には国民総生産が1932年比で50％増加し、1936年には国民所得が42％、工商業各指数生産指数が88％、財・サービスへの公共支出が130％、民間消費指数が16％増加した。	NO_PRONOUNCE	NO_LABEL
しかし各種政策への出資に伴い、1933年から1937年の期間で国家債務が110億マルク増大していた。	NO_PRONOUNCE	NO_LABEL
産業面では公共事業に直結する生産財製造業や建築業の活況が景気を支えた。	さんぎょーめんでわこーきょーじぎょーにちょっけつするせいさんざいせいぞーぎょーやけんちくぎょーのかっきょーがけいきをささえた。	NO_LABEL
特に自動車産業の成長が目立ち、1934年の生産額は過去最高の1928年比で148％、1935年には200％を超えた。	NO_PRONOUNCE	NO_LABEL
さらに雇用数は1934年には過去最高の1928年の水準に達し、1935年にはこの水準をも超過した。	さらにこよーすーわせんきゅうひゃくさんじゅうよねんにわかこさいこーのせんきゅうひゃくにじゅうはちねんのすいじゅんにたっし、せんきゅうひゃくさんじゅうごねんにわこのすいじゅんをもちょーかした。	NO_LABEL
さらに石炭・冶金・機械工業企業では総利益が2倍になっている。	NO_PRONOUNCE	NO_LABEL
この一方でヴァイマル時代からの外貨不足状況は変わっておらず、原材料である生糸や綿の輸入が進まなかったため、消費財分野の主力である繊維工業は停滞し、消費財分野全体の雇用者もほとんど増加しなかった。	NO_PRONOUNCE	NO_LABEL
また、統制による賃金抑制は国内消費水準回復の遅滞を招いた。	また、とーせいによるちんぎんよくせいわこくないしょーひすいじゅんかいふくのちたいをまねいた。	NO_LABEL
また、同時期には食糧相リヒャルト・ヴァルター・ダレが推進した血と土イデオロギーに基づく農本主義的農業政策が行われたが、自立小農民を保護する政策は経営合理化を妨げ、増産につながらなかった。	NO_PRONOUNCE	NO_LABEL
また農地の長子単独相続を定めたために次男以下の離農が進み、農業振興とは逆行する事態が発生した。	またのーちのちょーしたんどくそーぞくをさだめたためにじなんいかのりのーがすすみ、のーぎょーしんこーとわぎゃっこーするじたいがはっせいした。	NO_LABEL
この事と天候不順が重なり、食料輸入が1936年代の課題となる。	このこととてんこーふじゅんがかさなり、しょくりょーゆにゅーがせんきゅうひゃくさんじゅうろくねだいのかだいとなる。	NO_LABEL
「帝国アウトバーン会社の設立に関する法律」によって6月30日に、ドイツ国営鉄道の子会社帝国アウトバーン会社（）が設立され、技術者であったフリッツ・トートが「ドイツ道路総監」に任命された。	NO_PRONOUNCE	NO_LABEL
アウトバーン関連には1935年6月までに4億マルクが投資され、最大12万人の雇用が行われた。	あうとばーんかんれんにわせんきゅうひゃくさんじゅうごねんろくがつまでによんおくまるくがとーしされ、さいだいじゅうにまんにんのこよーがおこなわれた。	NO_LABEL
ただし、アウトバーン関連労働者の一部に対しては少額の手当と衣食住の支給が行われたのみであり、賃金と呼べるほどのものは受け取っていなかった。	ただし、あうとばーんかんれんろーどーしゃのいちぶにたいしてわしょーがくのてあてといしょくじゅーのしきゅーがおこなわれたのみであり、ちんぎんとよべるほどのものわうけとっていなかった。	NO_LABEL
また、ヒトラーは一家が一台乗用車を保有できるという「国民車」構想を喧伝し、それは後の「KdF-Wagen」の完成につながった。	NO_PRONOUNCE	NO_LABEL
自動車税法改定により、自動車・オートバイの購入には免税措置が行われた。	NO_PRONOUNCE	NO_LABEL
また第一次ラインハルト計画では設備投資に対する各種税の免除、租税軽減法では工場建物改修費用の一割が減免された。	まただいいちじらいんはるとけいかくでわせつびとーしにたいするかくしゅぜいのめんじょ、そぜいけいげんほーでわこーじょーたてものかいしゅーひよーのいちわりがげんめんされた。	NO_LABEL
第二次ラインハルト計画では住宅建設促進のため、住宅補修や改築に資金援助を行ったほか、借り入れを行った際の利子肩代わりも行った。	だいにじらいんはるとけいかくでわじゅーたくけんせつそくしんのため、じゅーたくほしゅーやかいちくにしきんえんじょをおこなったほか、かりいれをおこなったさいのりしかたがわりもおこなった。	NO_LABEL
このため1934年の住宅建築数は新築の割合が少ないとはいえ、1929年の水準に戻っている。	このためせんきゅうひゃくさんじゅうよねんのじゅーたくけんちくすーわしんちくのわりあいがすくないとわいえ、せんきゅうひゃくにじゅうきゅうねのすいじゅんにもどっている。	NO_LABEL
重工業・化学分野の産業育成も継続された。	NO_PRONOUNCE	NO_LABEL
これらの措置の財源としては、ヒトラーが増税を否定し、公債発行も困難であったため、割引手形という手段にたよるほかはなかった。	これらのそちのざいげんとしてわ、ひとらーがぞーぜいをひていし、こーさいはっこーもこんなんであったため、わりびきてがたとゆうしゅだんにたよるほかわなかった。	NO_LABEL
雇用創出に関しては国が支払いを保証する3ヶ月の雇用創出手形が創出された。	NO_PRONOUNCE	NO_LABEL
この手形は3ヶ月期限であったが、借り換えによって最大5年までの割り引き期限延長が可能であった。	NO_PRONOUNCE	NO_LABEL
しかし雇用創出以外の公共事業や軍需面でも資金が必要であったが、公然たる多額の公債発行は破滅的なインフレを招く危険性があり、シャハトは一種の抜け穴を利用する事にした。	しかしこよーそーしゅついがいのこーきょーじぎょーやぐんじゅめんでもしきんがひつよーであったが、こーぜんたるたがくのこーさいはっこーわはめつてきないんふれをまねくきけんせいがあり、しゃはとわいっしゅのぬけあなをりよーすることにした。	NO_LABEL
1933年5月、国防省とライヒスバンクは「冶金研究協会」を設立した。	NO_PRONOUNCE	NO_LABEL
同社は国防省とライヒスバンクによって手形引受機関として作成されたペーパーカンパニーであり、資本金はクルップ・シーメンス・ラインメタル・が25万マルクずつ拠出している。	NO_PRONOUNCE	NO_LABEL
公共事業や軍需の発注を受けた会社は「冶金研究会社」相手に3ヶ月期限の手形を振り出し、この手形をライヒスバンクが割り引くことで支払いにあてることになっていた。	NO_PRONOUNCE	NO_LABEL
この手形も雇用創出手形と同様支払期間は延長可能であったが、割引き機関はライヒスバンクのみであった。	このてがたもこよーそーしゅつてがたとどーよーしはらいきかんわえんちょーかのーであったが、わりびききかんわらいひすばんくのみであった。	NO_LABEL
また支払保証や予算に対する償還計上も行われなかった。	またしはらいほしょーやよさんにたいするしょーかんけいじょーもおこなわれなかった。	NO_LABEL
ナチス政府にとって、金融恐慌の再来を防ぐ金融システム構築と、軍事費捻出の両方の政策の鍵が国内預金量の半分を占める全国の貯蓄銀行であった。	なちすせいふにとって、きんゆーきょーこーのさいらいをふせぐきんゆーしすてむこーちくと、ぐんじひねんしゅつのりょーほーのせいさくのかぎがこくないよきんりょうのはんぶんをしめるぜんこくのちょちくぎんこーであった。	NO_LABEL
貯蓄銀行は1931年の改革によって独立公法人となっており、政府にとって利用しやすい存在であった。	ちょちくぎんこーわせんきゅうひゃくさんじゅういちねのかいかくによってどくりつこーほーじんとなっており、せいふにとってりよーしやすいそんざいであった。	NO_LABEL
政府は「国民貯蓄会議」を設立し、「貯蓄は労働とパンをもたらす。	NO_PRONOUNCE	NO_LABEL
浪費は国家建設のサボタージュ」と喧伝した。	NO_PRONOUNCE	NO_LABEL
また労働戦線傘下の「歓喜力行団」による「旅行貯蓄」や、「オリンピック貯蓄」「ヒトラーユーゲント貯蓄」など特別貯蓄制度も貯蓄熱をあおった。	NO_PRONOUNCE	NO_LABEL
全国の預金量に対する貯蓄銀行の割合は1930年には42.4％、1933年には53.5％で115億マルク、1935年には58.1％、1939年には57.4％と増加し、開戦後の1939年年末には193億マルクに達した。	NO_PRONOUNCE	NO_LABEL
貯蓄銀行はこの膨大な資金力で公債を買い支え、「静かな戦時貯蓄」と呼ばれるもう一つの戦争財源となった。	NO_PRONOUNCE	NO_LABEL
1936年夏頃には外貨不足と2年連続の農業不振が重なって、ドイツ経済は深刻な原料危機を迎えており、景気失速の危険があった。	せんきゅうひゃくさんじゅうろくねなつごろにわがいかふそくとにねんれんぞくののーぎょーふしんがかさなって、どいつけいざいわしんこくなげんりょーききをむかえており、けいきしっそくのきけんがあった。	NO_LABEL
この危機を乗り越える方策としては協調外交と軍拡の減速に政策を切り替えるか、軍備拡大を続けて領土拡大によって占領地から収奪するかという二つの道があったが、ヒトラーとナチ党にとっては後者以外の選択はあり得なかった。	このききをのりこえるほーさくとしてわきょーちょーがいこーとぐんかくのげんそくにせいさくをきりかえるか、ぐんびかくだいをつずけてりょーどかくだいによってせんりょーちからしゅーだつするかとゆうふたつのみちがあったが、ひとらーとなちとーにとってわこーしゃいがいのせんたくわありえなかった。	NO_LABEL
このため前者の路線を志向するシャハトは放逐される運命であった。	このためぜんしゃのろせんをしこーするしゃはとわほーちくされるうんめいであった。	NO_LABEL
さらに食糧輸入への外貨割当拡充をめぐってシャハトと食糧相ダレが深刻な対立を開始した。	さらにしょくりょーゆにゅーえのがいかわりあてかくじゅーをめぐってしゃはととしょくりょーしょーだれがしんこくなたいりつをかいしした。	NO_LABEL
ヒトラーの命令でナチ党No2の航空相ヘルマン・ゲーリングが仲介に入り、彼は外貨・原料問題の全権を掌握した。	NO_PRONOUNCE	NO_LABEL
8月の夏期休暇の最中、ヒトラーはオーバーザルツベルクのベルクホーフにおいて、「第二次四カ年計画」の秘密覚書を書き上げた。	NO_PRONOUNCE	NO_LABEL
この覚書には「4年以内に戦争を可能ならしめるための国防経済体制」への移行計画が書かれていた。	NO_PRONOUNCE	NO_LABEL
9月9日、ヒトラーはニュルンベルク党大会において、覚書に基づいた「自給経済体制」の確立を目指す第二次四カ年計画の開始を発表した。	NO_PRONOUNCE	NO_LABEL
10月18日には「四カ年計画施行令」が発令され、ゲーリングが四カ年計画受託官として、計画遂行のための全権を付与された。	NO_PRONOUNCE	NO_LABEL
シャハトはゲーリングと対立し、11月に経済相を辞任した。	しゃはとわげーりんぐとたいりつし、じゅーいちがつにけいざいしょーをじにんした。	NO_LABEL
以降ゲーリングが経済相も兼ねる事となり、経済分野の全権を掌握する事となった。	いこーげーりんぐがけいざいしょーもかねることとなり、けいざいぶんやのぜんけんをしょーあくすることとなった。	NO_LABEL
計画が進展する1938年頃には過剰な通貨供給と軍需拡大によってさらに景気が過熱し、インフレの危機と外貨不足がいっそう深刻化した。	けいかくがしんてんするせんきゅうひゃくさんじゅうはちねごろにわかじょーなつーかきょーきゅーとぐんじゅかくだいによってさらにけいきがかねつし、いんふれのききとがいかふそくがいっそーしんこくかした。	NO_LABEL
このため1936年11月の「物価ストップ令」など物価抑制措置が相次いでとられた。	NO_PRONOUNCE	NO_LABEL
また資本集中もいっそう進み、ドイツ企業の12.5％を占める500万マルク以上の大株式会社が、全企業の資本金総額の78.5％を占めるようになっていた。	NO_PRONOUNCE	NO_LABEL
四カ年計画による自給経済構築とは、外貨不足により輸入が困難であるため、資源の国内自給を高めるものである。	よんかねんけいかくによるじきゅーけいざいこーちくとわ、がいかふそくによりゆにゅーがこんなんであるため、しげんのこくないじきゅーをたかめるものである。	NO_LABEL
ゲーリングが12月17日の演説で「政治の必要に応じて採算を無視した生産を行わねばならない。	NO_PRONOUNCE	NO_LABEL
どのくらい費用がかかってもかまわない。	どのくらいひよーがかかってもかまわない。	NO_LABEL
戦争に勝利すれば十分に償いがつくからだ。	せんそーにしょーりすればじゅーぶんにつぐないがつくからだ。	NO_LABEL
」と語ったように、計画の実行は経済性を無視したものであった。	NO_PRONOUNCE	NO_LABEL
1937年2月にはヴァルター・フンクが経済相と戦争経済特命委員に就任したが、フンクはゲーリングの腹心であり、大きな路線変更は行われなかった。	NO_PRONOUNCE	NO_LABEL
この四カ年計画で実権を握ったのは、最終的にはゲーリングに次ぐナンバー2となったIG・ファルベンのカール・クラウホ（）であった。	NO_PRONOUNCE	NO_LABEL
四カ年計画では戦時の輸入途絶を前提として、化学繊維や人造石油・合成ゴムなどの代用品開発が推進された。	NO_PRONOUNCE	NO_LABEL
また1937年7月には国営企業として「ヘルマン・ゲーリング国家工場」が設立され、これまで不採算のため放棄されてきた国内資源の開発にあたった。	NO_PRONOUNCE	NO_LABEL
四カ年計画のために投じられた資金は、ドイツ全体の設備投資金額の半分以上を占める莫大なものであった。	よんかねんけいかくのためにとーじられたしきんわ、どいつぜんたいのせつびとーしきんがくのはんぶんいじょーをしめるばくだいなものであった。	NO_LABEL
また四カ年計画の技術者はIG・ファルベンの関係者が多く、1939年の段階で20％、戦時には30％がIG・ファルベン出身者であった。	NO_PRONOUNCE	NO_LABEL
また10月29日の執行令により四カ年計画局にライヒ価格形成監理局が設置され、経済集団と連携して全国の価格を監視した。	またじゅーがつにじゅうきゅうにちのしっこーれいによりよんかねんけいかくきょくにらいひかかくけいせいかんりきょくがせっちされ、けいざいしゅーだんとれんけいしてぜんこくのかかくをかんしした。	NO_LABEL
しかしドイツ国内の資源類は偏っており、また軍需産業への労働力集中は農業人口の減少を招き、食糧自給が困難になった。	しかしどいつこくないのしげんるいわかたよっており、またぐんじゅさんぎょーえのろーどーりょくしゅーちゅーわのーぎょーじんこーのげんしょーをまねき、しょくりょーじきゅーがこんなんになった。	NO_LABEL
1937年11月5日の秘密会議でヒトラー自身も完全な自給経済体制構築は不可能であると述べ、自給が可能であるのは石炭・鉄鉱石・軽金属・食用油にすぎず、食糧にいたっては「まったく無理」であるとした。	NO_PRONOUNCE	NO_LABEL
ヒトラーは食糧自給のためにはヨーロッパ内での領土獲得が不可欠であると述べ、近い将来における戦争準備推進を要求した。	ひとらーわしょくりょーじきゅーのためにわよーろっぱないでのりょーどかくとくがふかけつであるとのべ、ちかいしょーらいにおけるせんそーじゅんびすいしんをよーきゅーした。	NO_LABEL
1938年になると四カ年計画の軍備への傾斜がいっそう鮮明となった。	せんきゅうひゃくさんじゅうはちねになるとよんかねんけいかくのぐんびえのけいしゃがいっそーせんめいとなった。	NO_LABEL
7月以降いくつかの部分計画が追加されたが、四カ年計画としてのまとまりを欠くようになった。	しちがついこーいくつかのぶぶんけいかくがついかされたが、よんかねんけいかくとしてのまとまりをかくよーになった。	NO_LABEL
12月にはアウトバーン総監であったフリッツ・トートが建設経済統制特命委員に任ぜられ、彼の指揮下にある「トート機関」が、アウトバーンの他に西部国境の要塞線ジークフリート線などの軍事施設建設を開始している。	NO_PRONOUNCE	NO_LABEL
1939年頃には四カ年計画の機構すらも統一性を失っていった。	せんきゅうひゃくさんじゅうきゅうねんごろにわよんかねんけいかくのきこーすらもとーいつせいをうしなっていった。	NO_LABEL
これらの政策で石炭は8000万トンの増産に成功し、鉄鉱石生産高は1932年の260万トンから1938年の1500万トンへ急成長した。	NO_PRONOUNCE	NO_LABEL
しかし自給の努力にもかかわらず、物資備蓄ははかばかしく進展せず、1939年10月の時点でガソリン、ゴム、鉄鉱石、銅、ボーキサイトの備蓄量はわずか半年分に過ぎなかった。	しかしじきゅーのどりょくにもかかわらず、ぶっしびちくわはかばかしくしんてんせず、せんきゅうひゃくさんじゅうきゅうねんじゅーがつのじてんでがそりん、ごむ、てっこーせき、どー、ぼーきさいとのびちくりょうわわずかはんとしぶんにすぎなかった。	NO_LABEL
また、政府は耐久消費財や住宅建設の削減といった国民生活に負担のかかる政策を好まなかったため、戦争準備に全力を注げたわけではなかった。	また、せいふわたいきゅーしょーひざいやじゅーたくけんせつのさくげんといったこくみんせいかつにふたんのかかるせいさくをこのまなかったため、せんそーじゅんびにぜんりょくをそそげたわけでわなかった。	NO_LABEL
ナチスは発足時から反ユダヤ主義を掲げており、政権獲得後にはユダヤ人商店に対するボイコットなどを扇動していた。	なちすわほっそくじからはんゆだやしゅぎをかかげており、せいけんかくとくごにわゆだやじんしょーてんにたいするぼいこっとなどをせんどーしていた。	NO_LABEL
しかしシャハトは1935年11月に全国の商工会議所会頭にユダヤ人の「自由な経済活動」を保障する必要性を説く書簡を送るなど、経済分野を阻害する反ユダヤ主義には反対の立場を取っていた。	NO_PRONOUNCE	NO_LABEL
しかし1937年後半以降、「経済の脱ユダヤ化」、ユダヤ人の土地取得が禁止された。	NO_PRONOUNCE	NO_LABEL
またこうして譲渡された経営に勤務していたユダヤ人は解雇が厳命された。	またこーしてじょーとされたけいえいにきんむしていたゆだやじんわかいこがげんめいされた。	NO_LABEL
こうして1938年のうちにユダヤ経営の大半はドイツから姿を消し、ユダヤ人の9割が経済基盤を失った。	こーしてせんきゅうひゃくさんじゅうはちねのうちにゆだやけいえいのたいはんわどいつからすがたをけし、ゆだやじんのきゅうわりがけいざいきばんをうしなった。	NO_LABEL
このためこの年はヴォルフガング・ヴィッパーマン（）によって「ドイツユダヤ人の財政の死」と表現されている。	NO_PRONOUNCE	NO_LABEL
さらに1939年にはユダヤ人保有の金・銀・プラチナや宝飾品の供出が義務づけられるなど、迫害はますます進行した。	NO_PRONOUNCE	NO_LABEL
1937年の時点でメフォ手形の発行額は120億マルクに達していた。	NO_PRONOUNCE	NO_LABEL
シャハトはこれ以上の増発は国家の支払い能力を超えるとして、1938年にメフォ手形を発行停止にした。	しゃはとわこれいじょーのぞーはつわこっかのしはらいのーりょくをこえるとして、せんきゅうひゃくさんじゅうはちねにめふぉてがたをはっこーていしにした。	NO_LABEL
しかし軍拡のためにはさらなる資金が必要であり、ゲーリングらはメフォ手形の償還を行わず、中長期債による資金調達を開始した。	しかしぐんかくのためにわさらなるしきんがひつよーであり、げーりんぐらわめふぉてがたのしょーかんをおこなわず、ちゅーちょーきさいによるしきんちょーたつをかいしした。	NO_LABEL
シャハトらライヒスバンク首脳はこれに抗議し、1939年1月7日に債券増発の危険性を警告する書簡をヒトラーに送った。	しゃはとららいひすばんくしゅのーわこれにこーぎし、せんきゅうひゃくさんじゅうきゅうねんいちがつなのかにさいけんぞーはつのきけんせいをけいこくするしょかんをひとらーにおくった。	NO_LABEL
ヒトラーは激怒してシャハトらを更迭し、フンクをライヒスバンク総裁に据えて人事を一新した。	ひとらーわげきどしてしゃはとらをこーてつし、ふんくをらいひすばんくそーさいにすえてじんじをいっしんした。	NO_LABEL
6月15日にはライヒスバンク法が制定され、独立性を失ったライヒスバンクは国家に従属する一官庁に位置づけられた。	ろくがつじゅうごにちにわらいひすばんくほーがせいていされ、どくりつせいをうしなったらいひすばんくわこっかにじゅーぞくするいちかんちょーにいちずけられた。	NO_LABEL
しかしメフォ手形及びライヒスバンク・ライヒ政府が発行した手形の債務は短期金融市場を圧迫し、さらにヒトラーの拡張政策による軍備費の増大もあり、1938年9月と12月にはライヒ政府が支払困難になるという事態に陥っている。	NO_PRONOUNCE	NO_LABEL
9月にはドイツ国営鉄道やライヒスポストの資金を流用して乗り切ったものの、12月には20億ライヒスマルクの不足が出ている。	くがつにわどいつこくえいてつどーやらいひすぽすとのしきんをりゅーよーしてのりきったものの、じゅーにがつにわにじゅうおくらいひすまるくのふそくがでている。	NO_LABEL
1939年5月、国防軍は二種類の租税証券を発行して軍事費調達に当たった。	せんきゅうひゃくさんじゅうきゅうねんごがつ、こくぼーぐんわにしゅるいのそぜいしょーけんをはっこーしてぐんじひちょーたつにあたった。	NO_LABEL
この増発は証券の相場下落や受け取り拒否を招いたために発行は11月に停止され、ライヒスバンクが引き取る形となった。	このぞーはつわしょーけんのそーばげらくやうけとりきょひをまねいたためにはっこーわじゅーいちがつにていしされ、らいひすばんくがひきとるかたちとなった。	NO_LABEL
また政府はライヒスバンクから無制限に信用供与を受け、それで政府財政をやりくりする事態となっていた。	またせいふわらいひすばんくからむせいげんにしんよーきょーよをうけ、それでせいふざいせいをやりくりするじたいとなっていた。	NO_LABEL
ライヒスバンクの対政府信用はさらに増加し、インフレ圧力が強まった。	らいひすばんくのたいせいふしんよーわさらにぞーかし、いんふれあつりょくがつよまった。	NO_LABEL
1935年にザールラントがドイツに復帰し、ドイツの石炭収入は飛躍的に増加した。	せんきゅうひゃくさんじゅうごねんにざーるらんとがどいつにふっきし、どいつのせきたんしゅーにゅーわひやくてきにぞーかした。	NO_LABEL
1938年3月13日にはオーストリアが併合され、ドイツ経済域に組み込まれた。	せんきゅうひゃくさんじゅうはちねさんがつじゅうさんにちにわおーすとりあがへいごーされ、どいつけいざいいきにくみこまれた。	NO_LABEL
オーストリアには60万人の失業者が存在するなど不況のまっただ中であったが、4億シリングにのぼる金・外貨準備と水力発電を含む膨大な資源も獲得した。	NO_PRONOUNCE	NO_LABEL
3月23日にはオーストリア経済復興令が発令され、公共事業による雇用拡充が行われた。	さんがつにじゅうさんにちにわおーすとりあけいざいふっこーれいがはつれいされ、こーきょーじぎょーによるこよーかくじゅーがおこなわれた。	NO_LABEL
同年11月には継続して失業している者は10万人に減少したと発表されている。	どーねんじゅーいちがつにわけいぞくしてしつぎょーしているものわじゅうまんにんにげんしょーしたとはっぴょーされている。	NO_LABEL
同年10月にはミュンヘン会談の結果、チェコスロバキアからズデーテン地方を獲得した。	どーねんじゅーがつにわみゅんへんかいだんのけっか、ちぇこすろばきあからずでーてんちほーをかくとくした。	NO_LABEL
政府はこれによって同地の繊維・ガラス・陶磁器工業を手に入れた。	NO_PRONOUNCE	NO_LABEL
さらに翌1939年3月にはチェコをベーメン・メーレン保護領として支配下に置き、同地の鉱山や当時世界有数の武器工場を手に入れた。	NO_PRONOUNCE	NO_LABEL
また、外貨不足にあえぐドイツにとって、保護領の外国貿易は貴重な外貨供給源であった。	また、がいかふそくにあえぐどいつにとって、ほごりょーのがいこくぼーえきわきちょーながいかきょーきゅーげんであった。	NO_LABEL
ヴァイマル共和国時代からの重要な政治課題が膨大な失業者問題であった。	NO_PRONOUNCE	NO_LABEL
1927年から機械力より人力を優先させる公共事業で雇用を創出しようという雇用創出計画が策定され、パーペン・シュライヒャー政権時代に決定されていた。	NO_PRONOUNCE	NO_LABEL
ナチス政府はパーペン計画と緊急計画を継承した上で、主要な雇用創出計画を1933年中に策定した。	なちすせいふわぱーぺんけいかくときんきゅーけいかくをけいしょーしたうえで、しゅよーなこよーそーしゅつけいかくをせんきゅうひゃくさんじゅうさんねちゅーにさくていした。	NO_LABEL
組閣後の2月1日にヒトラーは農民救済と失業問題解決を公約し、ヒトラーを議長、財務相クロージク、経済・農業相フーゲンベルク、労相フランツ・ゼルテ、労働担当国家弁務官ゲーレケによる雇用創出委員会を再スタートさせた。	NO_PRONOUNCE	NO_LABEL
しかしナチ党を無視した政策を取ろうとしたゲーレケは3月に横領の疑いで逮捕され、ナチ党主導による雇用政策があらためて開始される事になった。	しかしなちとーをむししたせいさくをとろうとしたげーれけわさんがつにおーりょーのうたがいでたいほされ、なちとーしゅどーによるこよーせいさくがあらためてかいしされることになった。	NO_LABEL
6月1日には第一次失業減少法、通称第一次ラインハルト計画がスタートした。	ろくがつついたちにわだいいちじしつぎょーげんしょーほー、つーしょーだいいちじらいんはるとけいかくがすたーとした。	NO_LABEL
6月27日には「帝国アウトバーン会社の設立に関する法律」が公布され、7月15日には租税軽減法、9月21日には第二次失業減少法、通称第二次ラインハルト計画がスタートした。	NO_PRONOUNCE	NO_LABEL
雇用創出の一方で、ナチス・ドイツ政府は追加雇用（）と呼ばれる失業者数の削減政策を取った。	こよーそーしゅつのいっぽーで、なちすどいつせいふわついかこよーかっことよばれるしつぎょーしゃすーのさくげんせいさくをとった。	NO_LABEL
これは工業生産過程外で失業労働力を吸収し、労働市場の過密を緩和させるものであった。	これわこーぎょーせいさんかていがいでしつぎょーろーどーりょくをきゅーしゅーし、ろーどーしじょーのかみつをかんわさせるものであった。	NO_LABEL
この追加雇用には緊急事業や1931年から始まった労働奉仕などがある。	このついかこよーにわきんきゅーじぎょーやせんきゅうひゃくさんじゅういちねからはじまったろーどーほーしなどがある。	NO_LABEL
これらの事業に参加した労働者は衣食住は現物支給されたものの、賃金と呼べるほどのものは受け取っておらず、期間も短かった。	これらのじぎょーにさんかしたろーどーしゃわいしょくじゅーわげんぶつしきゅーされたものの、ちんぎんとよべるほどのものわうけとっておらず、きかんもみじかかった。	NO_LABEL
また大卒の若者を一年間農業年季奉仕（）に出し、労働市場への労働力供給を延期させた。	まただいそつのわかものをいちねんかんのーぎょーねんきほーしかっこにだし、ろーどーしじょーえのろーどーりょくきょーきゅーをえんきさせた。	NO_LABEL
さらに女子労働力の削減政策も行われた。	さらにじょしろーどーりょくのさくげんせいさくもおこなわれた。	NO_LABEL
第一次ラインハルト計画では結婚奨励と女子家事手伝いに対する優遇措置が盛り込まれ、女性の労働市場から家庭への移動が促進された。	だいいちじらいんはるとけいかくでわけっこんしょーれいとじょしかじてつだいにたいするゆーぐーそちがもりこまれ、じょせいのろーどーしじょーからかていえのいどーがそくしんされた。	NO_LABEL
労働者はドイツ労働戦線に加盟し、その指導に従うようになった。	ろーどーしゃわどいつろーどーせんせんにかめいし、そのしどーにしたがうよーになった。	NO_LABEL
労働戦線の組織歓喜力行団は労働者に余暇・スポーツ・演奏会・祭典を提供し、その中でナチズムの浸透を図った。	NO_PRONOUNCE	NO_LABEL
一方で賃金抑制策のため、景気が回復しても労働者の時間当たりの収益は伸びなかった。	いっぽーでちんぎんよくせいさくのため、けいきがかいふくしてもろーどーしゃのじかんあたりのしゅーえきわのびなかった。	NO_LABEL
原則的に一日8時間、週40時間労働が定められていたが、労働力不足が深刻になると労働時間を延ばすことで対応した。	げんそくてきにひといちはちじかん、しゅーよんじゅうじかんろーどーがさだめられていたが、ろーどーりょくふそくがしんこくになるとろーどーじかんをのばすことでたいおーした。	NO_LABEL
また失業保険の保険料も引き下げられることはなく、支払い条件も厳格化された。	またしつぎょーほけんのほけんりょーもひきさげられることわなく、しはらいじょーけんもげんかくかされた。	NO_LABEL
集められた資金は本来の役割ではなく、公共投資のための基金となった。	あつめられたしきんわほんらいのやくわりでわなく、こーきょーとーしのためのききんとなった。	NO_LABEL
諸計画を合計するとドイツ国家は1933年から1935年にかけて雇用創出費として50億マルク投じ、うち30億マルクは雇用創出手形によって調達された。	しょけいかくをごーけいするとどいつこっかわせんきゅうひゃくさんじゅうさんねからせんきゅうひゃくさんじゅうごねんにかけてこよーそーしゅつひとしてごじゅうおくまるくとーじ、うちさんじゅうおくまるくわこよーそーしゅつてがたによってちょーたつされた。	NO_LABEL
この手形償還は1938年までに終了したが、財源は不明確である。	このてがたしょーかんわせんきゅうひゃくさんじゅうはちねまでにしゅーりょーしたが、ざいげんわふめいかくである。	NO_LABEL
また、雇用に関する減免税は1933～1934年にかけて7億9000万マルク、租税証券発行も12億790万マルクに達した。	NO_PRONOUNCE	NO_LABEL
政府は雇用創出のため、機械力などによる経済合理化を制限する事で、人手を増加させる方策をとった。	せいふわこよーそーしゅつのため、きかいりょくなどによるけいざいごーりかをせいげんすることで、ひとでをぞーかさせるほーさくをとった。	NO_LABEL
第一次ラインハルト計画や1933年7月15日の「タバコ産業における機械使用の制限に関する法」には機械力制限が明記されており、事業資金中の賃金費用の割合が増大した。	NO_PRONOUNCE	NO_LABEL
事業資金全体に占める賃金割合はパーペン計画では43.8％、緊急計画では38.0％、アウトバーン建設では46％、第一次ラインハルト計画に至っては70％であった。	NO_PRONOUNCE	NO_LABEL
パーペン計画、緊急計画、第一次ラインハルト計画の三計画によって1935年までに50万人の雇用が生み出され、さらにドイツ国鉄も4万人の職員を雇用した上に6万人を短期雇用し、さらに発注によって工業・手工業界に25万人の雇用を生み出した。	NO_PRONOUNCE	NO_LABEL
また郵便事業などの公社も個別に雇用を増大させている。	またゆーびんじぎょーなどのこーしゃもこべつにこよーをぞーだいさせている。	NO_LABEL
1933年の一年間で失業者は200万人減少したが、工業雇用の回復よりも失業者数の減少が大きいなど、再び生産過程に吸収されたのはその7割ほどであった。	せんきゅうひゃくさんじゅうさんねのいちねんかんでしつぎょーしゃわにひゃくまんにんげんしょーしたが、こーぎょーこよーのかいふくよりもしつぎょーしゃすーのげんしょーがおーきいなど、ふたたびせいさんかていにきゅーしゅーされたのわそのななわりほどであった。	NO_LABEL
また従来失業者にカウントされていた失対労働者、農業補助者、勤労奉仕者を労働者として数えるという統計操作も行われていた。	またじゅーらいしつぎょーしゃにかうんとされていたしつたいろーどーしゃ、のーぎょーほじょしゃ、きんろーほーししゃをろーどーしゃとしてかぞえるとゆうとーけいそーさもおこなわれていた。	NO_LABEL
しかし失業者を減少させるという社会政策的には大きな意味があり、ナチス政権の安定化に寄与した。	しかししつぎょーしゃをげんしょーさせるとゆうしゃかいせいさくてきにわおーきないみがあり、なちすせいけんのあんていかにきよした。	NO_LABEL
1935年以降の再軍備による軍の雇用もあり、1937年には失業者数を求人者数が上回り、ほぼ完全雇用が達成された。	せんきゅうひゃくさんじゅうごねんいこーのさいぐんびによるぐんのこよーもあり、せんきゅうひゃくさんじゅうななねにわしつぎょーしゃすーをきゅーじんしゃすーがうわまわり、ほぼかんぜんこよーがたっせいされた。	NO_LABEL
完全雇用は達成されたものの、業種間の労働者需要に偏りがあり、特に建築・金属の分野では熟練工が不足していた。	NO_PRONOUNCE	NO_LABEL
またヒトラーの志向する自給自足経済には、労働力の再配置が不可欠であった。	またひとらーのしこーするじきゅーじそくけいざいにわ、ろーどーりょくのさいはいちがふかけつであった。	NO_LABEL
このため政府は1934年12月29日の「熟練金属労働者配置令」、1935年2月26日の「労働手帳導入に関する法律」、1936年6月26日の「公共建築事業実施に際しての労働力需要の届け出に関する命令」など、労働力需給を国が調整するための法律を次々と制定し始めた。	NO_PRONOUNCE	NO_LABEL
軍需産業の活況に伴い景気が上昇することで、民間における労働力需要はますます高まった。	ぐんじゅさんぎょーのかっきょーにともないけいきがじょーしょーすることで、みんかんにおけるろーどーりょくじゅよーわますますたかまった。	NO_LABEL
政府は賃金を上昇させない政策を取っていたが、企業は残業時間を増やしたり、手当を増額する事で給与を上げ、労働力の争奪に走った。	せいふわちんぎんをじょーしょーさせないせいさくをとっていたが、きぎょーわざんぎょーじかんをふやしたり、てあてをぞーがくすることできゅーよをあげ、ろーどーりょくのそーだつにはしった。	NO_LABEL
このため政府の監視にもかかわらずじわじわと給与水準は上昇した。	このためせいふのかんしにもかかわらずじわじわときゅーよすいじゅんわじょーしょーした。	NO_LABEL
1938年5月からは西部国境の要塞線ジークフリート線の建設が始まったが、総工費35億マルクにのぼるこの要塞線の構築には10万人の工兵隊と、トート機関による35万人の労働奉仕者が参加し、国内の労働市場はさらに逼迫した。	せんきゅうひゃくさんじゅうはちねごがつからわせいぶこっきょーのよーさいせんじーくふりーとせんのけんせつがはじまったが、そーこーひさんじゅうごおくまるくにのぼるこのよーさいせんのこーちくにわじゅうまんにんのこーへいたいと、とーときかんによるさんじゅうごまんにんのろーどーほーししゃがさんかし、こくないのろーどーしじょーわさらにひっぱくした。	NO_LABEL
政府は労働力の確保のため、6月22日に「国策上特に重要なる任務の為の労働力需要確保令」を発令し、国民に政府が求める職場での労働、もしくは職業訓練を受ける義務を課した。	NO_PRONOUNCE	NO_LABEL
これにより、国民の職業選択の自由は失われた。	これにより、こくみんのしょくぎょーせんたくのじゆーわうしなわれた。	NO_LABEL
世界恐慌以降の貿易低調により、ナチス・ドイツ時代を通じて貿易額は恐慌以前より低い水準であった。	せかいきょうこーいこーのぼーえきていちょーにより、なちすどいつじだいをつーじてぼーえきがくわきょーこーいぜんよりひくいすいじゅんであった。	NO_LABEL
ナチス・ドイツ時代を通じて輸入は1938年第四四半期の15.92億マルク、輸出は1937年第四四半期の16.288億マルクが最高であり、いずれも1930年の水準の半分以下であった。	NO_PRONOUNCE	NO_LABEL
ただし世界貿易に占めるドイツ貿易の割合は1929年とほぼ変わりない水準を維持している。	ただしせかいぼーえきにしめるどいつぼーえきのわりあいわせんきゅうひゃくにじゅうきゅうねとほぼかわりないすいじゅんをいじしている。	NO_LABEL
ドイツ最大の貿易相手は恐慌以前からアメリカであったが、1930年代以降その割合は急速に低下した。	どいつさいだいのぼーえきあいてわきょーこーいぜんからあめりかであったが、せんきゅうひゃくさんじゅうねんだいいこーそのわりあいわきゅーそくにていかした。	NO_LABEL
1938年の時点で対米輸出はわずか2.8％まで低下している。	NO_PRONOUNCE	NO_LABEL
同様にイギリス・フランスとの通商関係も悪化していき、かわって北欧、東南欧、中南米の比重が高まった。	NO_PRONOUNCE	NO_LABEL
シャハトは二国間主義によってこれらの国との通商関係構築を行ったが、それはアメリカのコーデル・ハル国務長官の多国間主義的貿易自由化政策と対立するものであった。	しゃはとわにこくかんしゅぎによってこれらのくにとのつーしょーかんけいこーちくをおこなったが、それわあめりかのこーでるはるこくむちょーかんのたこくかんしゅぎてきぼーえきじゆーかせいさくとたいりつするものであった。	NO_LABEL
しかしシャハトの貿易拡大路線はヒトラーやゲーリングが志向する自給自足経済と異なっており、それはシャハトの失脚にもつながる事となった。	しかししゃはとのぼーえきかくだいろせんわひとらーやげーりんぐがしこーするじきゅーじそくけいざいとことなっており、それわしゃはとのしっきゃくにもつながることとなった。	NO_LABEL
ドイツは金本位制を保持していたが、海外でのマルクの実勢レートはかなり低下していた。	どいつわきんほんいせいをほじしていたが、かいがいでのまるくのじっせいれーとわかなりていかしていた。	NO_LABEL
外貨不足は健全な貿易を大きく阻害した。	がいかふそくわけんぜんなぼーえきをおーきくそがいした。	NO_LABEL
さらに世界恐慌以降の世界的な貿易停滞は外貨獲得の機会を減少させた。	さらにせかいきょうこーいこーのせかいてきなぼーえきていたいわがいかかくとくのきかいをげんしょーさせた。	NO_LABEL
この外資不足を改善するため、ヴァイマル政府は外貨管理、輸入制限、外国債務の元利支払い停止などの政策を打っていたが、外貨増収には至らなかった。	NO_PRONOUNCE	NO_LABEL
このため輸出振興策として1932年に「追加的輸出手続」制度を採用した。	NO_PRONOUNCE	NO_LABEL
これは輸出業者が輸出代金の一部として、ドイツの対外債権を外国市場から買い入れ、国内の債務者に売り渡すことを認めたものである。	これわゆしゅつぎょーしゃがゆしゅつだいきんのいちぶとして、どいつのたいがいさいけんをがいこくしじょーからかいいれ、こくないのさいむしゃにうりわたすことをみとめたものである。	NO_LABEL
対外債権は海外で安く取引されており、債務者に売ることで輸出業者は利益を得ることが出来た。	たいがいさいけんわかいがいでやすくとりひきされており、さいむしゃにうることでゆしゅつぎょーしゃわりえきをえることができた。	NO_LABEL
この他にも様々な外貨使用削減の方策がとられており、シャハトの証言によると、ドイツ貿易の80％は交換・清算・補償などで決済されており、自由な貿易は20％以下であった。	NO_PRONOUNCE	NO_LABEL
外貨不足を補うため、外債の利子送金を停止する計画を建てた。	がいかふそくをおぎなうため、がいさいのりしそーきんをていしするけいかくをたてた。	NO_LABEL
これに債権国は反発し、輸出超過再建の差し押さえを行うなど、貿易関係でも摩擦が続いていた。	これにさいけんこくわはんぱつし、ゆしゅつちょーかさいけんのさしおさえをおこなうなど、ぼーえきかんけいでもまさつがつずいていた。	NO_LABEL
また軍備拡大に伴って原料輸入が増大する事で工業製品の生産コストが上がり、輸出が不振となったため、ヴァイマル時代からの外貨不足はますます深刻となった。	NO_PRONOUNCE	NO_LABEL
1934年1月時点での貿易赤字は2200万マルク、12月には4500万マルク、翌1935年1月には1億500マルクと増加する一方であった。	NO_PRONOUNCE	NO_LABEL
外貨準備もこれに伴って減少し、1934年6月には1億マルクを割り込む危険水域に突入した。	がいかじゅんびもこれにともなってげんしょーし、せんきゅうひゃくさんじゅうよねんろくがつにわいちおくまるくをわりこむきけんすいーきにとつにゅーした。	NO_LABEL
1934年に9月にシャハトがこの状況を打開するため貿易管理政策「新計画（）」を策定したが、あくまで一時的なものであった。	NO_PRONOUNCE	NO_LABEL
新計画の骨子である補助金による輸出奨励はダンピングととられる恐れがあり、食糧事情が逼迫する中で輸入の抑制を長く続けられるものではなかった。	しんけいかくのこっしであるほじょきんによるゆしゅつしょーれいわだんぴんぐととられるおそれがあり、しょくりょーじじょーがひっぱくするなかでゆにゅーのよくせいをながくつずけられるものでわなかった。	NO_LABEL
1935年3月にシャハトは、ZAVの手続きを簡略化するかわりに輸出促進補助金の資金を経済集団から「自発的に」拠出させる法律を制定したが、拠出金を負担する企業は価格に転嫁することも出来ずに苦しんだ。	NO_PRONOUNCE	NO_LABEL
シャハトは国庫から拠出するよう望んだが、クロージク財務相が拒否した。	しゃはとわこっこからきょしゅつするよーのぞんだが、くろーじくざいむしょーがきょひした。	NO_LABEL
しかしこの補助金政策によって、輸出価格を安く抑えることが出来たため、輸出増加に一定の効果があった。	しかしこのほじょきんせいさくによって、ゆしゅつかかくをやすくおさえることができたため、ゆしゅつぞーかにいっていのこーかがあった。	NO_LABEL
外貨準備は1935年に一時的に1億マルクを超えたものの、以降も概して低水準であった。	がいかじゅんびわせんきゅうひゃくさんじゅうごねんにいちじてきにいちおくまるくをこえたものの、いこーもがいしてていすいじゅんであった。	NO_LABEL
また1936年秋に金ブロックなどは、外貨不足がアンシュルスやズデーテン併合、ポーランド侵攻などの冒険的政策の決定的要因になったという見方をしている。	またせんきゅうひゃくさんじゅうろくねあきにきむぶろっくなどわ、がいかふそくがあんしゅるすやずでーてんへいごー、ぽーらんどしんこーなどのぼーけんてきせいさくのけっていてきよーいんになったとゆうみかたをしている。	NO_LABEL
財務相クロージクはナチス・ドイツの租税政策として「税の社会的公平」「税による人口政策の保護」「租税立法の範囲内における人格的価値」「経済的・社会的関係の考慮」をあげていた。	NO_PRONOUNCE	NO_LABEL
この思想に基づいて1934年10月16日に制定された「ライヒ所得税法」によって既婚者や子女を持つ家庭は優遇される一方、8000マルク以上の高額所得者や独身者などには負担が増える事になった。	NO_PRONOUNCE	NO_LABEL
1938年の改正により、既婚者の所得税緩和が行われる一方で、教会税の控除制限やユダヤ人家庭に対する子女控除の除外が行われた。	せんきゅうひゃくさんじゅうはちねのかいせいにより、きこんしゃのしょとくぜいかんわがおこなわれるいっぽーで、きょーかいぜいのこーじょせいげんやゆだやじんかていにたいするしじょこーじょのじょがいがおこなわれた。	NO_LABEL
1939年の改正では結婚後5年を経ても子女を持たない既婚者と独身者の差別化が果たされた。	せんきゅうひゃくさんじゅうきゅうねんのかいせいでわけっこんごごねんをへてもしじょをもたないきこんしゃとどくしんしゃのさべつかがはたされた。	NO_LABEL
ナチ党の思想による民族共同体内では民族の平準化が行われるが、共同体に属さないユダヤ人やスラブ人に対しては徹底的な差別を行うものであった。	なちとーのしそーによるみんぞくきょーどーたいないでわみんぞくのへいじゅんかがおこなわれるが、きょーどーたいにぞくさないゆだやじんやすらぶじんにたいしてわてっていてきなさべつをおこなうものであった。	NO_LABEL
このため戦時に突入するとポーランド人、ロマに対しては子女控除は認められなくなった。	このためせんじにとつにゅーするとぽーらんどじん、ろまにたいしてわしじょこーじょわみとめられなくなった。	NO_LABEL
当時のドイツは債務国であり、公的・民間をあわせた対外債務は1933年2月28日の段階で187億2千万ライヒスマルクに達していた。	NO_PRONOUNCE	NO_LABEL
対象国はアメリカが40％を占め、次いでオランダとスイスの順であった。	NO_PRONOUNCE	NO_LABEL
この膨大な債務は1931年のスターリング・ポンド切り下げと、1933年春のアメリカ合衆国ドル切り下げによって1933年中に42億ライヒスマルク減少し、1940年9月末の時点では1933年から比べて96億ライヒスマルク減少している。	このぼーだいなさいむわせんきゅうひゃくさんじゅういちねのすたーりんぐぽんどきりさげと、せんきゅうひゃくさんじゅうさんねはるのあめりかがっしゅーこくどるきりさげによってせんきゅうひゃくさんじゅうさんねちゅーによんじゅうにおくらいひすまるくげんしょーし、せんきゅうひゃくよんじゅうねんくがつまつのじてんでわせんきゅうひゃくさんじゅうさんねからくらべてきゅうじゅうろくおくらいひすまるくげんしょーしている。	NO_LABEL
ナチ党はヴェルサイユ条約の破棄を主張しており、ヒトラーも1933年2月3日にハンマーシュタイン＝エクヴォルト兵務局長宅で開かれた会談（）において、国防軍首脳に再軍備を約束していた。	NO_PRONOUNCE	NO_LABEL
また2月8日の閣議では「あらゆる公的な雇用創出措置助成は、ドイツ民族の再武装化にとって必要か否かという観点から判断されるべきであり、この考えが、何時でも何処でも、中心にされねばならない」「すべてを国防軍へということが、今後4～5年間の至上原則であるべきだ」と言明するなど、ナチ時代の経済政策はすべて軍備増強を念頭に置かれたものであった。	NO_PRONOUNCE	NO_LABEL
1933年の予算では直接的な軍事費は激増こそはしなかったものの、ドイツ航空省を設置して空軍の創設準備を開始していた。	せんきゅうひゃくさんじゅうさんねのよさんでわちょくせつてきなぐんじひわげきぞーこそわしなかったものの、どいつこーくーしょーをせっちしてくーぐんのそーせつじゅんびをかいししていた。	NO_LABEL
また雇用計画である緊急計画の費用のうち1億9千万マルクを始めとして、雇用創出費用の一部を再軍備費として流用することには、ヒトラー自身の強いリーダーシップがあった。	NO_PRONOUNCE	NO_LABEL
また自動車産業の育成や、民間施設への地下防空壕建設など、軍事費には含まれないものの準軍事的な政策も多く見られる。	またじどーしゃさんぎょーのいくせいや、みんかんしせつえのちかぼーくーごーけんせつなど、ぐんじひにわふくまれないもののじゅんぐんじてきなせいさくもおーくみられる。	NO_LABEL
8月1日には軍備計画が立てられ、1939年10月1日の時点で平時軍83万人、戦時軍462万人の編成を目標としていた。	NO_PRONOUNCE	NO_LABEL
一方で雇用問題が一段落した1935年5月21日にはシャハトが戦争経済全権に就任しているなど、将来の戦争計画も明らかにしている。	いっぽーでこよーもんだいがいちだんらくしたせんきゅうひゃくさんじゅうごねんごがつにじゅういちにちにわしゃはとがせんそーけいざいぜんけんにしゅーにんしているなど、しょーらいのせんそーけいかくもあきらかにしている。	NO_LABEL
軍事費は1933年度の7億2千万マルクから1934年度には33億マルクと大幅に増額し、以降も増大を続けた。	NO_PRONOUNCE	NO_LABEL
第二次四カ年計画が始まった1936年には前年比から倍増し、一つの画期となった。	だいにじよんかねんけいかくがはじまったせんきゅうひゃくさんじゅうろくねにわぜんねんひからばいぞーし、ひとつのがきとなった。	NO_LABEL
これらの事情から研究者での間では、雇用問題が解決されてから軍備増強が本格化されたという「二段階説」と、政権獲得後から軍備が継続されていたという「一段階説」がある。	NO_PRONOUNCE	NO_LABEL
増大する軍事費で重要な位置を占めたのがメフォ手形であり、1933年から1937年までの軍事費総計324億ライヒスマルクの内、メフォ手形によって捻出されたのは3分の2に近い204億ライヒスマルクであった。	NO_PRONOUNCE	NO_LABEL
1941年に海軍財政局は1933年以降の状態を回顧して、困難がなかったわけではないが、「常にほとんど無制限に提供された」としている。	NO_PRONOUNCE	NO_LABEL
再軍備宣言が行われ、第二次四カ年計画期に入ると軍事準備は公然化したものとなった。	さいぐんびせんげんがおこなわれ、だいにじよんかねんけいかくきにはいるとぐんじじゅんびわこーぜんかしたものとなった。	NO_LABEL
しかしドイツ経済の抱える資源不足や労働者不足は軍備の分野でも問題となっていた。	しかしどいつけいざいのかかえるしげんふそくやろーどーしゃふそくわぐんびのぶんやでももんだいとなっていた。	NO_LABEL
四カ年計画の責任者でもあり、空軍司令官であるゲーリングは空軍に対する資源割り当てを増やす傾向があり、海軍や陸軍との間で熾烈な資源争奪戦が行われた。	よんかねんけいかくのせきにんしゃでもあり、くーぐんしれいかんであるげーりんぐわくーぐんにたいするしげんわりあてをふやすけいこーがあり、かいぐんやりくぐんとのまでしれつなしげんそーだつせんがおこなわれた。	NO_LABEL
ヴェルナー・フォン・ブロンベルク国防相はヒトラーの調停を求め、1937年11月3日に軍首脳とヒトラーによる秘密会議が開催された。	NO_PRONOUNCE	NO_LABEL
しかしこの席でヒトラーは食糧問題や原料問題を解決するための土地をヨーロッパに求める、すなわち領土拡張政策を強く主張した。	しかしこのせきでひとらーわしょくりょーもんだいやげんりょーもんだいをかいけつするためのとちをよーろっぱにもとめる、すなわちりょーどかくちょーせいさくをつよくしゅちょーした。	NO_LABEL
具体的には「1938年から1945年」の間に好機が訪れれば、チェコスロバキアやオーストリアに対して軍事活動を起こす事を表明したが、陸軍や海軍は難色を示した。	NO_PRONOUNCE	NO_LABEL
この後、ブロンベルク国防相や陸軍総司令官ヴェルナー・フォン・フリッチュはナチ党の策動によるスキャンダルで失脚させられ、国防軍も完全にナチ党勢力下に入った。	NO_PRONOUNCE	NO_LABEL
その後も党機関や各軍の資源・労働力争奪戦はやまず、効率的な軍拡は行われなかった。	NO_PRONOUNCE	NO_LABEL
1938年になると財政状態が危機を迎えたため、予定されていた予算が初めて実行されないという事態を迎え、12月には国防軍最高司令部が軍事費の抑制を各軍に呼びかけている。	せんきゅうひゃくさんじゅうはちねになるとざいせいじょーたいがききをむかえたため、よていされていたよさんがはじめてじっこーされないとゆうじたいをむかえ、じゅーにがつにわこくぼーぐんさいこーしれいぶがぐんじひのよくせいをかくぐんによびかけている。	NO_LABEL
第二次世界大戦開始時の航空機生産はイギリスと同程度、戦車にいたってはイギリス以下であった。	だいにじせかいたいせんかいしじのこーくーきせいさんわいぎりすとどーていど、せんしゃにいたってわいぎりすいかであった。	NO_LABEL
1939年8月30日、戦時総動員体制の最高中枢機関として国防閣僚会議（）が設置された。	せんきゅうひゃくさんじゅうきゅうねんはちがつさんじゅうにち、せんじそーどーいんたいせいのさいこーちゅーすーきかんとしてこくぼーかくりょーかいぎかっこがせっちされた。	NO_LABEL
しかし基本的な経済政策は第二次四ヵ年計画期の継続であり、経済計画の統一性がより失われていった。	しかしきほんてきなけいざいせいさくわだいにじよんかねんけいかくきのけいぞくであり、けいざいけいかくのとーいつせいがよりうしなわれていった。	NO_LABEL
しかしそれは一面では変化する状況に応じやすいという事でもあり、戦況や占領地の変化に適合した政策が取れるということでもあった。	しかしそれわいちめんでわへんかするじょーきょーにおーじやすいとゆうことでもあり、せんきょーやせんりょーちのへんかにてきごーしたせいさくがとれるとゆうことでもあった。	NO_LABEL
1940年3月には軍需省が設置され、トートが軍需大臣となった。	せんきゅうひゃくよんじゅうねんさんがつにわぐんじゅしょーがせっちされ、とーとがぐんじゅだいじんとなった。	NO_LABEL
戦争開始後には軍事費と軍需生産が増加したが、フランスとポーランドを支配下においてなお、1940年から1941年にかけては軍需物資増産は停滞した。	せんそーかいしごにわぐんじひとぐんじゅせいさんがぞーかしたが、ふらんすとぽーらんどをしはいかにおいてなお、せんきゅうひゃくよんじゅうねんからせんきゅうひゃくよんじゅういちねにかけてわぐんじゅぶっしぞーさんわていたいした。	NO_LABEL
食糧調達は海外輸入が途絶したが、非制圧諸国からの移入により状況は悪化しなかった。	しょくりょーちょーたつわかいがいゆにゅーがとぜつしたが、ひせいあつしょこくからのいにゅーによりじょーきょーわあっかしなかった。	NO_LABEL
軍以外の食糧消費額は1942年までに20％減少したが、これは肉類が減少してジャガイモや豆が増加するといった質の悪化によるもので、カロリーベースではほとんど変化はなかった。	NO_PRONOUNCE	NO_LABEL
独ソ戦開始後の1941年6月23日にゲーリングは特別軍備計画いわゆる「ゲーリング計画」を発した。	NO_PRONOUNCE	NO_LABEL
空軍力を2年から2年半の間に4倍拡張するほか、軽金属・航空燃料・火薬・爆薬の大増産を行う大規模な計画であったが、空軍偏重に対する陸軍や軍需企業の強い抵抗を招いた。	NO_PRONOUNCE	NO_LABEL
一方で損耗も増加し、軍需生産の先行きが悲観的であると感じた軍需相トートは、早期終戦をヒトラーに進言していた。	いっぽーでそんもーもぞーかし、ぐんじゅせいさんのさきゆきがひかんてきであるとかんじたぐんじゅしょーとーとわ、そーきしゅーせんをひとらーにしんげんしていた。	NO_LABEL
戦費調達は債券増発でまかなわれることになり、債務は1944年11月までの間に3091億ライヒスマルク増加した。	NO_PRONOUNCE	NO_LABEL
ライヒスバンクの対政府信用供与も倍増以上となり、1941年の時点で200億ライヒスマルクを突破した。	NO_PRONOUNCE	NO_LABEL
独ソ戦が停滞の様相を見せ始めた1942年1月にヒトラーは総統布告を出し、消費生活を犠牲にしてでも軍需、とくにUボートや東部戦線用の戦車に代表される兵器の生産拡大を命令した。	どくそせんがていたいのよーそーをみせはじめたせんきゅうひゃくよんじゅうにねんいちがつにひとらーわそーとーふこくをだし、しょーひせいかつをぎせいにしてでもぐんじゅ、とくにゆーぼーとやとーぶせんせんよーのせんしゃにだいひょーされるへいきのせいさんかくだいをめいれいした。	NO_LABEL
2月にトートが航空機事故で死亡すると、後任には建築家アルベルト・シュペーアが任じられた。	にがつにとーとがこーくーきじこでしぼーすると、こーにんにわけんちくかあるべるとしゅぺーあがにんじられた。	NO_LABEL
シュペーアはトートの敷いた軍需省機構改革路線を引き継ぎ、4月には軍需省傘下の中央計画庁が設置された。	しゅぺーあわとーとのしきいたぐんじゅしょーきこーかいかくろせんをひきつぎ、しがつにわぐんじゅしょーさんかのちゅーおーけいかくちょーがせっちされた。	NO_LABEL
軍需省への権限集中は進み、3月には航空機を除く空軍兵器と軍艦の生産権限、5月には国防省の経済軍需局を吸収し、国防省の発言力は低下した。	ぐんじゅしょーえのけんげんしゅーちゅーわすすみ、さんがつにわこーくーきをのぞくくーぐんへいきとぐんかんのせいさんけんげん、ごがつにわこくぼーしょーのけいざいぐんじゅきょくをきゅーしゅーし、こくぼーしょーのはつげんりょくわていかした。	NO_LABEL
シュペーアは兵器生産に関わる戦車をはじめとする13の分野の中央委員会と、ボールベアリングなど部品ごとに産業リングを組織した。	NO_PRONOUNCE	NO_LABEL
これにより、兵器発注に関する固定価格制度、一工場一製品大量生産の原則が普及し、兵器類の大増産につながった。	これにより、へいきはっちゅーにかんするこていかかくせいど、いちこーじょーいちせいひんたいりょーせいさんのげんそくがふきゅーし、へいきるいのだいぞーさんにつながった。	NO_LABEL
1942年から1944年の間に工業純生産額が10％伸びたが、軍需物資生産額は3倍に増加し、全体の40％を占めることになった。	NO_PRONOUNCE	NO_LABEL
軍需生産のピークは1944年7月であり、自動車と戦艦が減少したほかはいずれも増大したが、特に戦車の増産が大きかった。	ぐんじゅせいさんのぴーくわせんきゅうひゃくよんじゅうよねんしちがつであり、じどーしゃとせんかんがげんしょーしたほかわいずれもぞーだいしたが、とくにせんしゃのぞーさんがおーきかった。	NO_LABEL
一方で消費財生産は1940年を100とすると44年には食糧が88、皮革・繊維・被服の分野は79にまで減少した。	NO_PRONOUNCE	NO_LABEL
また穀倉地であったウクライナやポーランドを奪還されて以降は、食糧調達を国内生産に頼らざるを得なくなった。	またこくそーちであったうくらいなやぽーらんどをだっかんされていこーわ、しょくりょーちょーたつをこくないせいさんにたよらざるをえなくなった。	NO_LABEL
ヒトラーは総力戦によって国民生活に負担をかけることを躊躇しており、戦局が一時的に好転すると1942年1月の布告を後悔する言動を見せたり、1943年4月に民需品購入の「無用な制限」を望まない旨を言明していたが、1944年以降は食料品の不足が明らかになった。	NO_PRONOUNCE	NO_LABEL
また1943年からは連合軍の戦略爆撃が盛んになり、1944年9～10月の爆撃ではダイムラー・ベンツの工場が操業停止に追い込まれるなど多大な損害を与えた。	NO_PRONOUNCE	NO_LABEL
政府は空爆の被害を抑えるため、生産拠点の移転・疎開・分散化を図ったが、すでに戦後を考えていた企業経営者による消極的抵抗も見られた。	NO_PRONOUNCE	NO_LABEL
しかし1944年6月にはソ連軍のバグラチオン作戦の開始、米英軍によるノルマンディー上陸作戦による西部戦線の再構築とフランス失陥によって、ドイツは戦時経済の基盤としてきた占領地の多くを失った。	しかしせんきゅうひゃくよんじゅうよねんろくがつにわそれんぐんのばぐらちおんさくせんのかいし、べいえいぐんによるのるまんでぃーじょーりくさくせんによるせいぶせんせんのさいこーちくとふらんすしっかんによって、どいつわせんじけいざいのきばんとしてきたせんりょーちのおーくをうしなった。	NO_LABEL
そして8月にはドイツの主要な石油供給源であったルーマニアのプロイェシュティ油田を喪失し、燃料不足はさらに深刻になった。	そしてはちがつにわどいつのしゅよーなせきゆきょーきゅーげんであったるーまにあのぷろいぇしゅてぃゆでんをそーしつし、ねんりょーふそくわさらにしんこくになった。	NO_LABEL
1945年には戦局がさらに悪化し、ドイツ国民の平均摂取カロリーは2100キロカロリー、外国人は2000キロカロリー、強制労働者にいたっては生存も維持できない量であった。	NO_PRONOUNCE	NO_LABEL
3月20日、ヒトラーは通称「ネロ指令」と呼ばれる命令を出し、退却地の生産施設をすべて破壊するよう命じた。	NO_PRONOUNCE	NO_LABEL
この命令はシュペーアの判断によって実行されなかったが、すでにドイツ経済は末期状態となっており、5月に終戦を迎えた。	このめいれいわしゅぺーあのはんだんによってじっこーされなかったが、すでにどいつけいざいわまっきじょーたいとなっており、ごがつにしゅーせんをむかえた。	NO_LABEL
ポーランド侵攻が開始された9月1日には「労働移動制限令」が発令され、労働力の戦時配置が開始された。	NO_PRONOUNCE	NO_LABEL
1939年9月1日から1940年9月1日までの間に314万人の男子が国防軍に徴兵され、国防軍が動員した労働力総計は1940年に570万人、1942年5月には940万人に達した。	NO_PRONOUNCE	NO_LABEL
このため国防軍を除く労働人口は1942年までに3910万人から3130万人へと減少していた。	NO_PRONOUNCE	NO_LABEL
1939年3月に施行されていた「ヒトラーユーゲント法第二施行令」によって勤労奉仕義務を持つ10歳から18歳の男女青少年を徴用した。	NO_PRONOUNCE	NO_LABEL
しかし一方で、女子労働者は出生前の兵士と結婚する事例が増えた事、さらに既婚者は夫の労働時間が増えて収入は増えたが、商品を買う機会が減少したこともあり、女子労働者は30万人減少している。	しかしいっぽーで、じょしろーどーしゃわしゅっせいまえのへいしとけっこんするじれいがふえたこと、さらにきこんしゃわおっとのろーどーじかんがふえてしゅーにゅーわふえたが、しょーひんをかうきかいがげんしょーしたこともあり、じょしろーどーしゃわさんじゅうまんにんげんしょーしている。	NO_LABEL
また、軍需工場によっては労働力を過剰に確保し、一種の飼い殺し状態にすることもあった。	また、ぐんじゅこーじょーによってわろーどーりょくをかじょーにかくほし、いっしゅのかいごろしじょーたいにすることもあった。	NO_LABEL
政府はこれを補うため、戦争捕虜や囚人の労働力を利用した。	せいふわこれをおぎなうため、せんそーほりょやしゅーじんのろーどーりょくをりよーした。	NO_LABEL
対ポーランド戦勝利によって35万人の戦争捕虜と、その他外国人労働者29万5千人が戦争遂行上の重要産業に追加供給された）。	NO_PRONOUNCE	NO_LABEL
しかし独ソ戦開始準備のため労働力はさらに逼迫したため、1941年2月にはゲーリングの布告で軍需省に労働力配置を監督する「軍需大臣点検委員会」が設置された。	NO_PRONOUNCE	NO_LABEL
6月20日には委員会の権限はさらに強化され、軍需産業への労働力配置転換をすすめたが、1941年末までに38万4千人と、当初の目標を10万人下回った。	NO_PRONOUNCE	NO_LABEL
独ソ戦の開始はさらに労働力の逼迫を招き、ユダヤ人が軍需工場から追放されたことによってより悪化した。	どくそせんのかいしわさらにろーどーりょくのひっぱくをまねき、ゆだやじんがぐんじゅこーじょーからついほーされたことによってよりあっかした。	NO_LABEL
1942年5月までに420万人の外国人が投入されたが、それを含めても非国防軍労働力は10％減少している。	NO_PRONOUNCE	NO_LABEL
これら労働者は人種によって格付けされ、西欧人・東欧人はドイツ人とほぼ同じ待遇を受けたものの、チェコスロバキア人やポーランド人やソ連人は冷遇された。	NO_PRONOUNCE	NO_LABEL
労働者の中でもロシア人に対する待遇は悪く、1941年11月には彼らの「自給」が要求された。	NO_PRONOUNCE	NO_LABEL
この際に食糧次官ヘルベルト・バッケはわらくずや木の葉を混ぜたパンのみを支給することを提案している。	このさいにしょくりょーじかんへるべるとばっけわわらくずやこのはをまぜたぱんのみをしきゅーすることをていあんしている。	NO_LABEL
この提案自体は通らなかったものの、食糧事情は劣悪であり、1942年4月2日のの報告では12％のロシア人捕虜が死亡、生存している捕虜も30％以上は労働不能状態である上に、移送されてきたロシア人労働者にはすでに飢餓浮腫が見られたという。	NO_PRONOUNCE	NO_LABEL
さらに過酷な条件の労働者としてはユダヤ人がいたが、彼らに関しては労働を通じた絶滅が行われた。	さらにかこくなじょーけんのろーどーしゃとしてわゆだやじんがいたが、かれらにかんしてわろーどーおつーじたぜつめつがおこなわれた。	NO_LABEL
1942年5月にはシュペーアの主導でフリッツ・ザウケルが労働力配置総監に任じられ、労働力調整の全責任者となった。	せんきゅうひゃくよんじゅうにねんごがつにわしゅぺーあのしゅどーでふりっつざうけるがろーどーりょくはいちそーかんににんじられ、ろーどーりょくちょーせいのぜんせきにんしゃとなった。	NO_LABEL
ザウケルはソ連領を含む東部占領地域から150万人のソ連人男女をドイツに連行するなど、徴用による労働力確保をさらに推し進めた。	ざうけるわそれんりょーをふくむとーぶせんりょーちーきからひゃくごじゅうまんにんのそれんじんだんじょをどいつにれんこーするなど、ちょーよーによるろーどーりょくかくほをさらにおしすすめた。	NO_LABEL
このため強制労働者数はさらに増加し、1944年5月には750万人と、国防軍を除くドイツ総労働力数の五分の一を占めるまでになった。	このためきょーせいろーどーしゃすーわさらにぞーかし、せんきゅうひゃくよんじゅうよねんごがつにわななひゃくごじゅうまんにんと、こくぼーぐんをのぞくどいつそーろーどーりょくすーのごぶのいちをしめるまでになった。	NO_LABEL
また、強制労働者の待遇改善も行われたが、党や政府関係者による横流しが頻発したため、根本的な解決にはならなかった。	また、きょーせいろうどーしゃのたいぐーかいぜんもおこなわれたが、とーやせいふかんけいしゃによるよこながしがひんぱつしたため、こんぽんてきなかいけつにわならなかった。	NO_LABEL
一方で1942年には女子労働力の徴用が開始されたが、前線兵士への悪影響が考慮され、1944年の時点でもほとんど伸びなかった。	いっぽーでせんきゅうひゃくよんじゅうにねんにわじょしろーどーりょくのちょーよーがかいしされたが、ぜんせんへいしえのあくえいきょーがこーりょされ、せんきゅうひゃくよんじゅうよねんのじてんでもほとんどのびなかった。	NO_LABEL
1943年12月には西欧占領地労働者のドイツ国内への移送を優先させるザウケルと、現地で労働させるべきとするシュペーアの関係が悪化した。	せんきゅうひゃくよんじゅうさんねじゅーにがつにわせいおーせんりょーちろーどーしゃのどいつこくないえのいそーをゆーせんさせるざうけると、げんちでろーどーさせるべきとするしゅぺーあのかんけいがあっかした。	NO_LABEL
1944年になるとイタリア・フランスでは労働力徴用が「完全な失敗」と認めざるを得ない状況になり、さらに占領地失陥によって国外労働力確保はさらに困難になった。	NO_PRONOUNCE	NO_LABEL
この経緯によってザウケルの権力は失墜し、シュペーアの軍需省によって権限が吸収されていった。	このけいいによってざうけるのけんりょくわしっついし、しゅぺーあのぐんじゅしょーによってけんげんがきゅーしゅーされていった。	NO_LABEL
占領地においてはの傘下にあったよって、ユダヤ人等が所有する外貨・貴金属・ダイヤモンド・銀行預金等の押収を行った。	NO_PRONOUNCE	NO_LABEL
