北アイルランド同盟党は、北アイルランドの政党。	きたーいるらんどどーめいとーわ、きたあいるらんどのせいとー。	NO_LABEL
単に「同盟党」とも言う。	NO_PRONOUNCE	NO_LABEL
現党首はナオミ・ロング。	NO_PRONOUNCE	NO_LABEL
北アイルランドと英国との統一を望むユニオニスト、アイルランド統一を望むナショナリストの双方を支持しない層から一定の支持を受けている。	きたあいるらんどとえいこくとのとーいつをのぞむゆにおにすと、あいるらんどとーいつをのぞむなしょなりすとのそーほーをしじしないそーからいっていのしじをうけている。	NO_LABEL
北アイルランド議会では90議席中8議席を保有する。	NO_PRONOUNCE	NO_LABEL
北アイルランド同盟党はリベラリズムを標榜しており、自由主義インターナショナルに加盟している。	きたーいるらんどどーめいとーわりべらりずむをひょーぼーしており、じゆーしゅぎいんたーなしょなるにかめいしている。	NO_LABEL
このため自由民主党の北アイルランドにおける姉妹政党とみなされる場合もある。	このためじゆーみんしゅとーのきたあいるらんどにおけるしまいせいとーとみなされるばあいもある。	NO_LABEL
