「愛は力」は、チベット族中国人女性歌手alanとテノール歌手福井敬によるコラボレーション・シングル。	NO_PRONOUNCE	NO_LABEL
楽曲のジャンルはオペラ。	がっきょくのじゃんるわおぺら。	NO_LABEL
2011年1月1日にavex traxよりリリース。	にせんじゅういちねんいちがつついたちにえいべっくすとらっくすよりりりーす。	NO_LABEL
テレビ東京の2011年1月2日放送予定の7時間時代劇『戦国疾風伝 二人の軍師 秀吉に天下を獲らせた男たち』の主題歌。	NO_PRONOUNCE	NO_LABEL
収録曲は1曲。	しゅーろくきょくわいちきょく。	NO_LABEL
