塀とは、家や敷地などにおいて、他との境界に設置する囲いのこと。	へいとわ、いえやしきちなどにおいて、たとのきょーかいにせっちするかこいのこと。	NO_LABEL
目的としては、区画と目隠しの2つの意味がある。	もくてきとしてわ、くかくとめかくしのふたつのいみがある。	NO_LABEL
塀と類似した意味で用いられる用語に「壁」があるが、壁は建築物の外壁や内部を間仕切る内壁を指すのに対し、塀にはこういった用法はない。	NO_PRONOUNCE	NO_LABEL
塀とほぼ同じ意味を持つものに垣があるが、こちらは生垣や石垣など、現在ではもっぱら限定された意味で用いられる。	へいとほぼおなじいみをもつものにかきがあるが、こちらわいけがきやいしがきなど、げんざいでわもっぱらげんていされたいみでもちいられる。	NO_LABEL
材質により、板塀、土塀、築地塀、コンクリート塀などに分類される。	ざいしつにより、いたへい、どべい、ついじべい、こんくりーとへいなどにぶんるいされる。	NO_LABEL
窯業地として知られる佐賀県有田町では「トンバイ塀」と称する塀がある。	NO_PRONOUNCE	NO_LABEL
これは、トンバイや不要となった陶石などを赤土に混ぜて固めて塀材として使用したものである。	これわ、とんばいやふよーとなったすえせきなどをあかつちにまぜてかためてへいざいとしてしよーしたものである。	NO_LABEL
日本においては、1960年代以降の高度経済成長期、内部を見通すことのできないコンクリート製の高いブロック塀が多く設置されたが、地震によるブロック塀の倒壊が問題視されるようになったことや、内部が見通せないことは外から敷地内の犯罪に気付かないケースなど防犯上も問題があるとされ、近年ではブロックを2、3段程度重ねた上にアルミ製のフェンスを設置するケースが多く見受けられる。	NO_PRONOUNCE	NO_LABEL
敷地の境界に設置されるものであるため、住宅が密集する日本においてはしばしば紛争の原因となることがある。	しきちのきょーかいにせっちされるものであるため、じゅーたくがみっしゅーするにっぽんにおいてわしばしばふんそーのげんいんとなることがある。	NO_LABEL
主なものとしては、	おもなものとしてわ、	NO_LABEL
が挙げられる。	があげられる。	NO_LABEL
設置に当たっては双方で費用を折半して土地の境界線上に設置される場合もあるが、後々のメンテナンス時の煩雑さを嫌い、片方が全額を負担して自らの敷地内に収まるよう設置することも多い。	せっちにあたってわそーほーでひよーをせっぱんしてとちのきょーかいせんじょーにせっちされるばあいもあるが、あとあとのめんてなんすじのはんざつさをきらい、かたほーがぜんがくをふたんしてみずからのしきちないにおさまるよーせっちすることもおーい。	NO_LABEL
双方が独自に設置したために二重になっている塀を見かけることも稀にある。	そーほーがどくじにせっちしたためにふたえになっているへいをみかけることもまれにある。	NO_LABEL
