アンテ・チョリッチは、クロアチア・ザグレブ出身のサッカー選手。	NO_PRONOUNCE	NO_LABEL
GNKディナモ・ザグレブ所属。	ぐらじゃんすきのごめつにくるぶでぃなもざぐれぶしょぞく。	NO_LABEL
ポジションはミッドフィールダー。	ぽじしょんわみっどふぃーるだー。	NO_LABEL
2006年からNKザグレブのユースチームでプレーし、2009年にレッドブル・ザルツブルクユース、2013年からGNKディナモ・ザグレブユースでプレーした。	にせんろくねんからえぬけいざぐれぶのゆーすちーむでぷれーし、にせんきゅうねんにれっどぶるざるつぶるくゆーす、にせんじゅうさんねんからぐらじゃんすきのごめつにくるぶでぃなもざぐれぶゆーすでぷれーした。	NO_LABEL
2014年4月16日、RNKスプリト戦で交代途中出場でプロデビューを果たし、5月10日、NKイストラ1961戦でプロ初得点を記録した。	NO_PRONOUNCE	NO_LABEL
クロアチア代表として各年代でプレーし、2016年5月27日、モルドバ代表との国際親善試合で、ミラン・バデリとの交代によりA代表デビューを果たした。	くろあちあだいひょーとしてかくねんだいでぷれーし、にせんじゅうろくねんごがつにじゅうしちにち、もるどばだいひょーとのこくさいしんぜんじあいで、みらんばでりとのこーたいによりえいだいひょーでびゅーをはたした。	NO_LABEL
