ピンクノイズとは、パワーが周波数に反比例する雑音のこと。	ぴんくのいずとわ、ぱわーがしゅーはすーにはんぴれいするざつおんのこと。	NO_LABEL
同じ周波数成分を持つ光がピンク色に見えることからピンクノイズと呼ばれる。	おなじしゅーはすーせいぶんをもつひかりがぴんくいろにみえることからぴんくのいずとよばれる。	NO_LABEL
いわゆる1/fゆらぎを持った信号源をマクロに見た場合も似た感じになる。	いわゆるえふぶんのいちゆらぎをもったしんごーげんをまくろにみたばあいもにたかんじになる。	NO_LABEL
ピンクノイズの波形は、フラクタル状になっていることが知られている。	ぴんくのいずのはけいわ、ふらくたるじょーになっていることがしられている。	NO_LABEL
オクターブバンドと呼ばれる帯域ごとのエネルギーが一様になるため、様々な音響測定に使用される。	おくたーぶばんどとよばれるたいいきごとのえねるぎーがいちよーになるため、さまざまなおんきょーそくていにしよーされる。	NO_LABEL
ピンクノイズまたは1/fノイズは 、周波密度が周波数の逆数となるような周波スペクトルをもった信号、または過程を指す。	NO_PRONOUNCE	NO_LABEL
ピンクノイズという名前は、ホワイトノイズとレッドノイズの中間であることにちなむ。	ぴんくのいずとゆうなまえわ、ほわいとのいずとれっどのいずのちゅーかんであることにちなむ。	NO_LABEL
科学論文では1/fノイズは、より幅広く、下記式のスペクトル密度を持つ各種ノイズを指す。	NO_PRONOUNCE	NO_LABEL
ここで、formula_2は周波数で、0<"α"<2を満たす"α"は1に近い値をとる。	NO_PRONOUNCE	NO_LABEL
これらの"1/f類似"のノイズは、自然の中に広くみられ、多くの分野において、様々な研究対象となっている。	NO_PRONOUNCE	NO_LABEL
