司法試験とは、一般に、裁判官、検察官又は弁護士等になるための国家資格、すなわち法曹資格を付与するための国家試験をいう。	しほーしけんとわ、いっぱんに、さいばんかん、けんさつかんまたわべんごしとーになるためのこっかしかく、すなわちほーそーしかくをふよするためのこっかしけんをいう。	NO_LABEL
国によっては判検弁統一の司法試験が存在しなかったり、司法試験自体が存在しない場合もある。	くにによってわはんけんべんとーいつのしほーしけんがそんざいしなかったり、しほーしけんじたいがそんざいしないばあいもある。	NO_LABEL
オーストラリアには司法試験に相当するものがなく、法学士もしくは法務博士の学位を取得後、法律事務所で実務修習を受けて適性があると評価された者のみが弁護士資格を得ることができる。	おーすとらりあにわしほーしけんにそーとーするものがなく、ほーがくしもしくわほーむはくしせんもんしょくのがくいをしゅとくご、ほーりつじむしょでじつむしゅーしゅーをうけててきせいがあるとひょーかされたもののみがべんごししかくをえることができる。	NO_LABEL
台湾ではかつての日本と同様に、弁護士国家試験と、裁判官、検察官の採用試験が別個に行われている。	たいわんでわかつてのにっぽんとどーよーに、べんごしこっかしけんと、さいばんかん、けんさつかんのさいよーしけんがべっこにおこなわれている。	NO_LABEL
フランスにおいては、かつての日本と同様に、弁護士国家試験と、司法官の採用試験が別個に行われている。	ふらんすにおいてわ、かつてのにっぽんとどーよーに、べんごしこっかしけんと、しほーかんのさいよーしけんがべっこにおこなわれている。	NO_LABEL
ドイツでは司法試験は州政府によって行われ、そのうち第一次司法試験は大学の法学部の卒業資格試験も兼ねている。	どいつでわしほーしけんわしゅーせいふによっておこなわれ、そのうちだいいちじしほーしけんわだいがくのほーがくぶのそつぎょーしかくしけんもかねている。	NO_LABEL
2年間の実務修習を終えて第二次司法試験に合格すると判検事および法学を専門とする行政官に任官し、あるいは弁護士、公証人になることができる。	にねんかんのじつむしゅーしゅーをおえてだいにじしほーしけんにごーかくするとはんけんじおよびほーがくをせんもんとするぎょーせいかんににんかんし、あるいわべんごし、こーしょーにんになることができる。	NO_LABEL
第二次司法試験合格で得られる法曹資格は全州共通である。	だいにじしほーしけんごーかくでえられるほーそーしかくわぜんしゅーちょんじゅきょーつーである。	NO_LABEL
ハンガリーにおける司法試験は""Jogi Szakvizsga""と呼ばれ、直訳すると法律専門職試験となる。	NO_PRONOUNCE	NO_LABEL
試験は、	しけんわ、	NO_LABEL
の3科目からなり、合格すると法曹候補生になることができ、その後一定の実務経験を積むことで正式に判検事に任官、あるいは弁護士になることができる。	NO_PRONOUNCE	NO_LABEL
日本においては、1923年以前は、判検弁統一の法曹資格試験は存在せず、裁判官と検察官の候補生である司法官試補の採用試験である判事検事登用試験と、弁護士試験が別個に行われていた。	にっぽんにおいてわ、せんきゅうひゃくにじゅうさんねんいぜんわ、はんけんべんとーいつのほーそーしかくしけんわそんざいせず、さいばんかんとけんさつかんのこーほせいであるしほーかんしほのさいよーしけんであるはんじけんじとーよーしけんと、べんごししけんがべっこにおこなわれていた。	NO_LABEL
1923年の両試験廃止から1949年の旧司法試験開始までは、高等試験司法科が統一の法曹国家試験となった。	せんきゅうひゃくにじゅうさんねんのりょーしけんはいしからせんきゅうひゃくよんじゅうきゅうねんのきゅーしほーしけんかいしまでわ、こーとーしけんしほーかがとーいつのほーそーこっかしけんとなった。	NO_LABEL
新旧司法試験は、法曹、すなわち裁判官、検察官又は弁護士になろうとする者に対して、それに必要な学識及び応用能力を問うことを目的とした国家試験である。	しんきゅーしほーしけんわ、ほーそー、すなわちさいばんかん、けんさつかんまたわべんごしになろうとするものにたいして、それにひつよーながくしきおよびおーよーのーりょくをとうことをもくてきとしたこっかしけんである。	NO_LABEL
直接的には、裁判所法66条2項で定める司法修習生になるための採用試験である。	NO_PRONOUNCE	NO_LABEL
2000年代以降、司法制度改革に伴って、司法試験の概要は大きく変化した。	にせんねんだいいこー、しほーせいどかいかくにともなって、しほーしけんのがいよーわおーきくへんかした。	NO_LABEL
2005年以前の司法試験および2006年から2011年までの移行期間中に現行の司法試験と並行して実施された「旧司法試験」については「旧司法試験」を参照。	NO_PRONOUNCE	NO_LABEL
2006年に始まった現行の司法試験については「司法試験」を参照	NO_PRONOUNCE	NO_LABEL
韓国における司法試験は、2009年の法曹養成制度の転換により、2017年が最終実施となる予定である。	かんこくにおけるしほーしけんわ、にせんきゅうねんのほーそーよーせいせいどのてんかんにより、にせんじゅうななねんがさいしゅーじっしとなるよていである。	NO_LABEL
イギリスにおいては、法曹はバリスタとソリシタに分かれており、いずれも大学法学士取得か共通資格試験合格ののち実務教育・実務研修を経て資格を取得できる。	NO_PRONOUNCE	NO_LABEL
アメリカでは州ごとに司法試験が行われており、合格で得られる法曹資格は当該州限定である。	あめりかでわしゅーごとにしほーしけんがおこなわれており、ごーかくでえられるほーそーしかくわとーがいしゅーげんていである。	NO_LABEL
司法試験の受験資格はアメリカ法曹協会が認証したロースクールで法務博士の学位を取得することである。	しほーしけんのじゅけんしかくわあめりかほーそーきょーかいがにんしょーしたろーすくーるでほーむはくしせんもんしょくのがくいをしゅとくすることである。	NO_LABEL
外国の法曹資格を有する者や法律事務所で一定の実務経験を有する者に受験資格を認める州もある。	がいこくのほーそーしかくをゆーするものやほーりつじむしょでいっていのじつむけいけんをゆーするものにじゅけんしかくをみとめるしゅーもある。	NO_LABEL
