『ドラゴンハート 新たなる旅立ち』は2000年製作のアメリカ製ビデオ映画。	NO_PRONOUNCE	NO_LABEL
84分。	はちじゅうよんぷん。	NO_LABEL
1996年製作のアメリカ映画『ドラゴンハート』の続編。	NO_PRONOUNCE	NO_LABEL
『ドラゴンハート』から四年を隔てて制作された続編。	NO_PRONOUNCE	NO_LABEL
ストーリーは前作から数十年の時を経ており、前作の登場人物であるボーエン、ギルバートなどは回想や台詞の中に登場するのみである。	すとーりーわぜんさくからすーじゅーねんのときをへており、ぜんさくのとーじょーじんぶつであるぼーえん、ぎるばーとなどわかいそーやだいしのなかにとーじょーするのみである。	NO_LABEL
スタッフ・キャストも前作と共通する者は少なく、引き続いて参加している主なメンバーは製作のラファエラ・デ・ラウレンティスのみである。	NO_PRONOUNCE	NO_LABEL
修道院で厠番をする見習いの青年ジョフは、いつか騎士になることを夢見て日々の生活を送っていた。	しゅーどーいんでかわやばんをするみならいのせいねんじょふわ、いつかきしになることをゆめみてひびのせいかつをおくっていた。	NO_LABEL
ある日ジョフは、友人のマンセルからこっそり盗んだ鍵で、入ることを禁じられていた扉をくぐる。	あるひじょふわ、ゆーじんのまんせるからこっそりぬすんだかぎで、はいることをきんじられていたとびらをくぐる。	NO_LABEL
ジョフがその奥で出会ったのは、遠い昔に死んだ最後のドラゴンとされるドレイコが遺した、ドレイクという名の若いドラゴンだった。	じょふがそのおくでであったのわ、とーいむかしにしんださいごのどらごんとされるどれいこがのこした、どれいくとゆうなのわかいどらごんだった。	NO_LABEL
一方、巷では「彗星が夜空を横切るとき、ドラゴンの心臓が人類の運命を変える」という予言がまことしやかに流れ、予告されたその日を目前にし、様々な思惑が動き出していた。	NO_PRONOUNCE	NO_LABEL
※括弧内は日本語吹き替え	NO_PRONOUNCE	NO_LABEL
