『ローマ帽子の謎』は、1929年に発表されたエラリー・クイーンの長編推理小説。	NO_PRONOUNCE	NO_LABEL
作家エラリー・クイーンの処女作であると同時に、エラリー・クイーンが初登場する作品であり、タイトルに国名が含まれる、いわゆる「国名シリーズ」の第1作でもある。	NO_PRONOUNCE	NO_LABEL
連日大入り満員を続けていたニューヨークのローマ劇場で、上演中に一人の観客が「人殺しだ……殺された」とうめき声を残して死亡した。	NO_PRONOUNCE	NO_LABEL
ただちに劇場の出入り口は封鎖され、ニューヨーク市警のリチャード・クイーン警視と、警視の息子で推理作家のエラリー・クイーンが捜査を開始する。	NO_PRONOUNCE	NO_LABEL
やがて、被害者が強請りをやっていた悪徳弁護士であること、殺害に使われた毒物がガソリンから容易に生成可能なテトラエチル鉛であること、被害者が持っていた飲み物からは毒物が検出されなかったこと、さらに被害者が殺される直前まで持っていたシルクハットが紛失しており、劇場内のどこにもないことが判明する。	やがて、ひがいしゃがねだりをやっていたあくとくべんごしであること、さつがいにつかわれたどくぶつががそりんからよーいにせいせいかのーなてとらえちるなまりであること、ひがいしゃがもっていたのみものからわどくぶつがけんしゅつされなかったこと、さらにひがいしゃがころされるちょくぜんまでもっていたしるくはっとがふんしつしており、げきじょーないのどこにもないことがはんめいする。	NO_LABEL
エラリーは、犯人は被害者から強請られていた人物の一人であり、犯人を強請るための書類がシルクハットの中に隠されていたため、帽子ごと持ち去らざるを得なかったと推理する。	えらりーわ、はんにんわひがいしゃからねだられていたじんぶつのひとりであり、はんにんをねだるためのしょるいがしるくはっとのなかにかくされていたため、ぼーしごともちさらざるをえなかったとすいりする。	NO_LABEL
そしてついに、エラリーは犯人を突き止めるが、物的証拠や目撃証言が全くないため逮捕に踏み切れない。	そしてついに、えらりーわはんにんをつきとめるが、ぶってきしょーこやもくげきしょーげんがぜんくないためたいほにふみきれない。	NO_LABEL
万策尽きたかに思われたが、犯人をもう1回強請れば、また同じ毒を持って殺しにくるのではと考えつく。	ばんさくつきたかにおもわれたが、はんにんをもーいっかいねだれば、またおなじどくをもってころしにくるのでわとかんがえつく。	NO_LABEL
その提案を聞いたクイーン警視が犯人に罠を仕掛ける。	そのていあんをきいたくいーんけいしがはんにんにわなをしかける。	NO_LABEL
