2008年の南オセチア紛争、別名ロシア・グルジア戦争は、ジョージアとロシア連邦間の戦争。	NO_PRONOUNCE	NO_LABEL
南オセチアやアブハジアの分離派と統一派の戦いでもある。	みなみおせちあやあぶはじあのぶんりはととーいつはのたたかいでもある。	NO_LABEL
2008年8月に始まり、陸戦、航空戦、海戦の全てが行われた。	にせんはちねんはちがつにはじまり、りくせん、こーくーせん、かいせんのすべてがおこなわれた。	NO_LABEL
別名8月戦争とも。	べつめいはちがつせんそーとも。	NO_LABEL
かつての1991年から1992年にかけての南オセチア紛争は、グルジア人とオセット人との間に起こったものであり、ジョージア国内の非政府支配地域である南オセチアをロシアに帰属させるかどうかが争われたものであった。	かつてのせんきゅうひゃくきゅうじゅういちねんからせんきゅうひゃくきゅうじゅうにねんにかけてのみなみおせちあふんそーわ、ぐるじあじんとおせっとじんとのまにおこったものであり、じょーじあこくないのひせいふしはいちいきであるみなみおせちあをろしあにきぞくさせるかどーかがあらそわれたものであった。	NO_LABEL
この戦争後も、南オセチア内にはグルジアの支配下にある地区があり、グルジア系住民も残った。	このせんそーごも、みなみおせちあないにわぐるじあのしはいかにあるちくがあり、ぐるじあけいじゅーみんものこった。	NO_LABEL
同じジョージア領内のアブハジアも似たような状況だった。	おなじじょーじありょーないのあぶはじあもにたよーなじょーきょーだった。	NO_LABEL
そのような背景があり、2008年の夏には関係地域でかなりの緊張が高まっていた。	そのよーなはいけいがあり、にせんはちねんのなつにわかんけいちいきでかなりのきんちょーがたかまっていた。	NO_LABEL
2008年8月7日の午後、グルジア軍は南オセチア地区の首都ツヒンヴァリに陸軍、空軍を投入して大規模な軍事攻撃を行った。	NO_PRONOUNCE	NO_LABEL
グルジア軍の主張によれば、先に軍事行動を起こしたのはロシア軍である。	ぐるじあぐんのしゅちょーによれば、さきにぐんじこうどーをおこしたのわろしあぐんである。	NO_LABEL
ジョージアの行動は関係各国の一部から支持を受けたが、ジョージアの首都トビリシの関連行事などで表明されたグルジアの主張は必ずしも信じがたい。	じょーじあのこーどーわかんけいかっこくのいちぶからしじをうけたが、じょーじあのしゅととびりしのかんれんぎょーじなどでひょーめいされたぐるじあのしゅちょーわかならずしもしんじがたい。	NO_LABEL
ロシアはグルジア軍の動きを受けて南オセチアに軍を差し向け、グルジア領内への爆撃を開始した<ref name="ger/">http://www.heritage.org/research/RussiaandEurasia/wm2017.cfm </ref>。	NO_PRONOUNCE	NO_LABEL
コーカサス研究の廣瀬陽子によれば、ジョージアが主張した「ロシアから挑発があったから攻撃した」という主張は正当性があるとしている。	NO_PRONOUNCE	NO_LABEL
この戦闘開始時、ロシアのメドヴェージェフ大統領は休暇中、プーチン首相は北京オリンピックの開会式に出席しており不在であった。	NO_PRONOUNCE	NO_LABEL
グルジア軍はこの隙を突いて攻撃したとも言われている。	ぐるじあぐんわこのひまをついてこーげきしたともいわれている。	NO_LABEL
翌8月8日、ロシア海軍はグルジア沿岸を封鎖し、陸兵を展開し、パラシュート部隊も投入した。	よくはちがつようか、ろしあかいぐんわぐるじあえんがんをふーさし、りくへいをてんかいし、ぱらしゅーとぶたいもとーにゅーした。	NO_LABEL
ロシア軍とそれに同調するアブハジア軍は事実上の国境であるコドリ渓谷を越えてグルジア西部に進入した。	ろしあぐんとそれにどーちょーするあぶはじあぐんわじじつじょーのこっきょーであるこどりけいこくをこえてぐるじあせいぶにしんにゅーした。	NO_LABEL
この後5日間は激しい戦闘が行われ、グルジア軍は南オセチア及びアブハジアから撤退した。	こののちいつかわはげしいせんとーがおこなわれ、ぐるじあぐんわみなみおせちあおよびあぶはじあからてったいした。	NO_LABEL
ロシア軍は追撃の手を緩めず、これまでグルジアが支配していたポティやゴリといった都市を占領した。	ろしあぐんわついげきのてをゆるめず、これまでぐるじあがしはいしていたぽてぃやごりといったとしをせんりょーした。	NO_LABEL
当時欧州連合理事会議長国であったフランスの仲介で8月12日に休戦提案が行われ、8月15日にはグルジアがトビリシで、8月16日にはロシアがモスクワで署名に応じた。	とーじおーしゅーれんごーりじかいぎちょーこくであったふらんすのちゅーかいではちがつじゅうににちにきゅーせんていあんがおこなわれ、はちがつじゅうごにちにわぐるじあがとびりしで、はちがつじゅうろくにちにわろしあがもすくわでしょめいにおーじた。	NO_LABEL
8月12日にはロシアのメドヴェージェフ大統領から、ロシア軍のグルジア領内での軍事活動に対する停止命令が出ていたが、そのときは実際の戦闘は停止していなかった。	NO_PRONOUNCE	NO_LABEL
ロシア側の停戦受け入れ後、ロシア軍はグルジア領内からの撤退を開始した。	ろしあがわのていせんうけいれご、ろしあぐんわぐるじありょーないからのてったいをかいしした。	NO_LABEL
ただし完全なものではなく、アブハジアや南オセチアに接するグルジア領内のポティ、セナキ、ペレヴィに「軍事中立地帯」と称して軍を残した。	NO_PRONOUNCE	NO_LABEL
2008年8月26日、ロシアは国際的にはグルジア領とされている南オセチアとアブハジアの独立を承認した。	にせんはちねんはちがつにじゅうろくにち、ろしあわこくさいてきにわぐるじありょーとされているみなみおせちあとあぶはじあのどくりつをしょーにんした。	NO_LABEL
10月8日、ロシア軍は国際合意を受けてグルジア領内から完全に撤退した。	じゅーがつようか、ろしあぐんわこくさいごーいをうけてぐるじありょーないからかんぜんにてったいした。	NO_LABEL
ロシアは、この戦争前にグルジア軍が支配していた地域を含めたアブハジアと南オセチア領内に、同政府の合意の下、軍を残した。	ろしあわ、このせんそーまえにぐるじあぐんがしはいしていたちいきをふくめたあぶはじあとみなみおせちありょーないに、どーせいふのごーいのした、ぐんをのこした。	NO_LABEL
グルジアは2008年8月28日、これを「ロシア軍占領地域」と呼んでいる。	NO_PRONOUNCE	NO_LABEL
この戦争後もグルジアとロシアの間では、軍事的緊張が続いている。	このせんそーごもぐるじあとろしあのまでわ、ぐんじてききんちょーがつずいている。	NO_LABEL
2009年2月23日には、ロシア政府の批判者ならびに軍事アナリストであるパーウェル・フェルゲンハウアーが、南オセチアに作られたロシア軍の基地からミヘイル・サアカシュヴィリ政権を倒すためにロシアがグルジアに侵攻する予定であると主張した。	NO_PRONOUNCE	NO_LABEL
この戦争はさまざまな名称で呼ばれている。	このせんそーわさまざまなめいしょーでよばれている。	NO_LABEL
その一部を挙げると、	そのいちぶをあげると、	NO_LABEL
この紛争の背景には、昔このあたり一帯をソビエト連邦が支配していたこと、そのソ連がいくつかの自治共和国による連邦制の形を取っていたこと、その区分がこのあたりに暮らしていたグルジア人、オセット人、アブハズ人の居住地域と一致していなかったことと深くかかわりがある。	このふんそーのはいけいにわ、むかしこのあたりいったいをそびえとれんぽーがしはいしていたこと、そのそれんがいくつかのじちきょーわこくによるれんぽーせいのかたちをとっていたこと、そのくぶんがこのあたりにくらしていたぐるじあじん、おせっとじん、あぶはずじんのきょじゅーちいきといっちしていなかったこととふかくかかわりがある。	NO_LABEL
このあたりは19世紀初頭から徐々にロシア帝国に併合されていき、19世紀の終わりには完全にロシアの支配下に入った。	このあたりわじゅうきゅうせいきしょとーからじょじょにろしあていこくにへいごーされていき、じゅうきゅうせいきのおわりにわかんぜんにろしあのしはいかにはいった。	NO_LABEL
そのロシアが1917年に滅びたのを受け、グルジアは1918年に一時的にロシアからの独立を果たすものの、1922年にはロシア帝国の後を継いだソビエト連邦に再び併合された。	そのろしあがせんきゅうひゃくじゅうしちねんにほろびたのをうけ、ぐるじあわせんきゅうひゃくじゅうはちねんにいちじてきにろしあからのどくりつをはたすものの、せんきゅうひゃくにじゅうにねんにわろしあていこくののちをついだそびえとれんぽーにふたたびへいごーされた。	NO_LABEL
その際に南オセチアはグルジア社会主義共和国内の自治州となり、北オセチアはロシア・ソビエト社会主義連邦共和国内の自治州となった。	NO_PRONOUNCE	NO_LABEL
1985年にミハイル・ゴルバチョフがソ連の指導者となって以降、ソ連からの独立を宣言する地域が続出し、南オセチア議会も1989年に独立を宣言する。	せんきゅうひゃくはちじゅうごねんにみはいるごるばちょふがそれんのしどーしゃとなっていこー、それんからのどくりつをせんげんするちいきがぞくしゅつし、みなみおせちあぎかいもせんきゅうひゃくはちじゅうきゅうねんにどくりつをせんげんする。	NO_LABEL
グルジアはそれに異議を唱えて1991年1月に南オセチアに軍を送って戦争となった。	ぐるじあわそれにいぎをとなえてせんきゅうひゃくきゅうじゅういちねんいちがつにみなみおせちあにぐんをおくってせんそーとなった。	NO_LABEL
この戦争での死者は2000人以上と見られている。	このせんそーでのししゃわにせんにんいじょーとみられている。	NO_LABEL
戦争中は両軍によって数々の残虐行為が行われた。	せんそーちゅーわりょーぐんによってかずかずのざんぎゃくこーいがおこなわれた。	NO_LABEL
グルジアあるいは南オセチア内の住居を追われたオセット人は10万人に達し、一方で2万3千人のグルジア人が南オセチアに留まった。	NO_PRONOUNCE	NO_LABEL
その結果、戦後の南オセチア人口は7万人に減り、グルジア人の割合は5分の1に上がった。	NO_PRONOUNCE	NO_LABEL
グルジアは戦争中の1991年4月にソ連からの独立を宣言し、12月にソ連解体が決まったため正式に独立国となった。	ぐるじあわせんそーちゅーのせんきゅうひゃくきゅうじゅういちねんしがつにそれんからのどくりつをせんげんし、じゅーにがつにそれんかいたいがきまったためせいしきにどくりつこくとなった。	NO_LABEL
1992年に停戦が合意され、南オセチアの中心都市ツヒンヴァリの周りに「グルジア・オセチア間紛争解決合同調整委員会」の管理下で、ロシア、グルジア、南オセチア3者による平和維持軍が置かれ、南オセチアは事実上独立状態になった。	NO_PRONOUNCE	NO_LABEL
2003年11月、いわゆる「バラ革命」と呼ばれる政変でグルジアのシェワルナゼ大統領が失脚し、野党が政権を奪取。	NO_PRONOUNCE	NO_LABEL
代わって翌年1月にアメリカ合衆国と関係の深いミヘイル・サアカシュヴィリが大統領に就くと、彼は治安と軍事を含めた国内の支配力強化に乗り出した。	NO_PRONOUNCE	NO_LABEL
一方で南オセチアでは2006年、独立に関する国民投票が行われ、完全独立に賛成する投票が99%に上った。	いっぽーでみなみおせちあでわにせんろくねん、どくりつにかんするこくみんとうひょーがおこなわれ、かんぜんどくりつにさんせいするとーひょーがきゅうじゅうきゅうぱーせんとにのぼった。	NO_LABEL
同時期、南オセチアで少数民族となるグルジア人らも彼らだけの住民投票を行い、こちらはグルジアへの残留が確認された。	どーじき、みなみおせちあでしょーすーみんぞくとなるぐるじあじんらもかれらだけのじゅーみんとうひょーをおこない、こちらわぐるじあえのざんりゅーがかくにんされた。	NO_LABEL
グルジア政府はロシア政府に対し「南オセチアにエドゥアルド・ココイトゥイによる傀儡政権を立て、そこを国家として承認し、ロシア連邦保安庁とロシア陸軍を入れる行為は事実上の併合だ」と非難している。	NO_PRONOUNCE	NO_LABEL
2007年にはグルジアは国内総生産の6%を軍事費に回している。	にせんななねんにわぐるじあわこくないそーせいさんのろくぱーせんとをぐんじひにまわしている。	NO_LABEL
この短期間での軍事費上昇率は世界でも稀である。	このたんきかんでのぐんじひじょーしょーりつわせかいでもまれである。	NO_LABEL
2008年5月にロシア連邦大統領となったドミートリー・メドヴェージェフは「ロシア市民が存在する限り、その生活と尊厳を守る」と宣言している。	NO_PRONOUNCE	NO_LABEL
南オセチアではロシア人の人口比率が低いにも関わらず、南オセット人の8分の7はロシアのパスポートを所有している。	NO_PRONOUNCE	NO_LABEL
ロイターは「南オセット人の3分の2はロシアで収入を得ており、ロシアがなければ生活が立ち行かない。	NO_PRONOUNCE	NO_LABEL
特にロシアの大ガス会社ガスプロムの新ガスパイプライン建設により、南オセチアは数百万ドルの金とエネルギー供給を受けている」と報じている。	NO_PRONOUNCE	NO_LABEL
2008年の4月中旬、ロシア外務省は、ウラジーミル・プーチン首相の談話として、ロシア政府はアブハジアと南オセチアに対し、他のロシア連邦の地方区分と同様の経済、外交、行政関係を結びたいと発表した。	にせんはちねんのよんがつちゅーじゅん、ろしあがいむしょーわ、うらじーみるぷーちんしゅしょーのだんわとして、ろしあせいふわあぶはじあとみなみおせちあにたいし、たのろしあれんぽーのちほーくぶんとどーよーのけいざい、がいこー、ぎょーせいかんけいをむすびたいとはっぴょーした。	NO_LABEL
ロシアはそれらのグルジアで分離独立運動が盛んな地域との結びつきを強めようとしたが、それらの地域はアメリカ合衆国とも繋がりが深く、アメリカはグルジア軍に対して鉄道や装備の援助を行った	ろしあわそれらのぐるじあでぶんりどくりつうんどーがさかんなちいきとのむすびつきをつよめようとしたが、それらのちいきわあめりかがっしゅーこくともつながりがふかく、あめりかわぐるじあぐんにたいしててつどーやそーびのえんじょをおこなった	NO_LABEL
グルジアには石油やガスの備蓄が乏しかったため、この援助によってグルジアは西側諸国からの物資供給を受けるのが容易になった。	ぐるじあにわせきゆやがすのびちくがとぼしかったため、このえんじょによってぐるじあわにしがわしょこくからのぶっしきょーきゅーをうけるのがよーいになった。	NO_LABEL
アメリカにとっては、2005年に完成したアゼルバイジャンとトルコを結ぶバクー・トビリシ・ジェイハンパイプラインが、ロシアやイランを経由せずに中東の石油を得るための重要な手段であったため、その中継地であるグルジアの援助は非常に重要であった。	あめりかにとってわ、にせんごねんにかんせいしたあぜるばいじゃんととるこをむすぶばくーとびりしじぇいはんぱいぷらいんが、ろしあやいらんをけいゆせずにちゅーとーのせきゆをえるためのじゅーよーなしゅだんであったため、そのちゅーけいちであるぐるじあのえんじょわひじょーにじゅーよーであった。	NO_LABEL
ロシアとの対抗上、グルジアのサアカシュヴィリ大統領はグルジアのNATO加盟を目指した。	NO_PRONOUNCE	NO_LABEL
2008年4月、NATOは実施時期は未定としながらもグルジアの加盟に合意した。	にせんはちねんしがつ、なとーわじっしじきわみていとしながらもぐるじあのかめいにごーいした。	NO_LABEL
ロシアはそれに対して、これはNATOの東側への拡張行為であり脅威を感じている、と発表した。	ろしあわそれにたいして、これわなとーのひがしがわえのかくちょーこーいでありきょーいをかんじている、とはっぴょーした。	NO_LABEL
ロシアのプーチン首相も、NATOの拡張主義にロシアは反対する、との談話を発表した。	ろしあのぷーちんしゅしょーも、なとーのかくちょーしゅぎにろしあわはんたいする、とのだんわをはっぴょーした。	NO_LABEL
というのも1990年、当時のアメリカ国務長官ジェイムズ・ベイカーがソ連のゴルバチョフ書記長に対して、ソ連がドイツ再統一を認めるのであれば、NATOは東側に1インチも進まない、と語っていたからである。	とゆうのもせんきゅうひゃくきゅうじゅうねん、とーじのあめりかこくむちょーかんじぇいむずべいかーがそれんのごるばちょふしょきちょーにたいして、それんがどいつさいとーいつをみとめるのであれば、なとーわひがしがわにいちいんちもすすまない、とかたっていたからである。	NO_LABEL
ただしベイカーの談話は外交上あいまいな表現を含ませたものであった。	ただしべいかーのだんわわがいこーじょーあいまいなひょーげんをふくませたものであった。	NO_LABEL
2008年5月、ロシア平和維持軍の兵力は、アブハジアで約2,000人、南オセチアで約1,000人になっていた。	NO_PRONOUNCE	NO_LABEL
2008年になって以降、グルジアとロシアは互いに相手が戦争準備を進めているとの非難を始めた。	にせんはちねんになっていこー、ぐるじあとろしあわたがいにあいてがせんそーじゅんびをすすめているとのひなんをはじめた。	NO_LABEL
2008年4月、ロシアは、グルジアがアブハジア東部のコドリ渓谷に1500名もの兵士と警官を動員し、アブハジアに侵略しようとしている、との見解を発表した。	NO_PRONOUNCE	NO_LABEL
ロシアは、グルジアのそのような行為は南オセチア地域でも動乱の原因になるだろう、とも語った。	ろしあわ、ぐるじあのそのよーなこーいわみなみおせちあちいきでもどーらんのげんいんになるだろう、ともかたった。	NO_LABEL
それに対してグルジアの内閣報道官であるShota Utiashviliは「グルジアが軍を増強したという事実は一切無い。	NO_PRONOUNCE	NO_LABEL
ロシアの声明は率直に言って間違いだ」と発表した。	NO_PRONOUNCE	NO_LABEL
後のことになるが、国際連合グルジア監視団は、コドリ渓谷及びアブハジア周辺での軍備増強は、ロシアグルジア双方ともに無かったと発表している。	ごのことになるが、こくさいれんごーぐるじあかんしだんわ、こどりけいこくおよびあぶはじあしゅーへんでのぐんびぞーきょーわ、ろしあぐるじあそーほーともになかったとはっぴょーしている。	NO_LABEL
同じく4月、ロシアはアブハジアの平和維持軍を、数百のパラシュート部隊を投入して2,542人にまで増強した。	NO_PRONOUNCE	NO_LABEL
ただし、1994年の独立国家共同体首脳会議時の取り決めに基づいて、3千人以内には抑えている。	NO_PRONOUNCE	NO_LABEL
ロシアの外交部長セルゲイ・ラブロフは「ロシアはまだ戦争準備ができていないが、攻撃されれば報復することになるだろう」との声明を発表した。	NO_PRONOUNCE	NO_LABEL
EUの外交政策部長ハビエル・ソラナも「たとえ取り決めの範囲内であろうとも、我々はこの地で緊張が高まるのを望んではおらず、現時点で兵力を増やすのは賢明な判断とは言えない」との声明を発表した。	NO_PRONOUNCE	NO_LABEL
その後、グルジアはロシア軍がアブハジア上空を飛行するグルジアの無人偵察機を打ち落としたとして非難を表明した。	そのご、ぐるじあわろしあぐんがあぶはじあじょーくーをひこーするぐるじあのむじんていさつきをうちおとしたとしてひなんをひょーめいした。	NO_LABEL
しかしロシアはこの問題への関与を否定し、アブハズ人の反政府組織によるものだろうと答えている。	しかしろしあわこのもんだいえのかんよをひていし、あぶはずじんのはんせいふそしきによるものだろうとこたえている。	NO_LABEL
グルジアの内務長官がイギリスBBCのビデオ録画に公式な立場で参加して、ロシア軍がアブハジアで公然と軍を展開したとの談話を発表した。	ぐるじあのないむちょーかんがいぎりすびりおねあぼーいずくらぶのびでおろくがにこーしきなたちばでさんかして、ろしあぐんがあぶはじあでこーぜんとぐんをてんかいしたとのだんわをはっぴょーした。	NO_LABEL
グルジア側は「ロシア軍の動きを見れば、彼らが平和維持軍とは程遠いものだとすぐに分かる」と反論し、さらにロシアはその見解を否定した。	NO_PRONOUNCE	NO_LABEL
南オセチアに軍事機を飛ばしたことに対して、双方が停戦合意違反だと批判しあった。	みなみおせちあにぐんじきをとばしたことにたいして、そーほーがていせんごーいいはんだとひはんしあった。	NO_LABEL
2008年の6月から8月初旬にかけて、両国は共に軍事演習を行っている。	にせんはちねんのろくがつからはちがつしょじゅんにかけて、りょーこくわともにぐんじえんしゅーをおこなっている。	NO_LABEL
グルジアはアメリカと共に2008年初頭演習を行い、ロシアはコーカサス軍事演習を行っている。	ぐるじあわあめりかとともににせんはちねんしょとーえんしゅーをおこない、ろしあわこーかさすぐんじえんしゅーをおこなっている。	NO_LABEL
それぞれの演習が終わった8月2日にも、ロシア軍は自国に戻らずにグルジア国境に居座り続けた。	それぞれのえんしゅーがおわったはちがつふつかにも、ろしあぐんわじこくにもどらずにぐるじあこっきょーにいすわりつずけた。	NO_LABEL
8月5日、ロシア大使のユリ・ポヴォフは、同地域で緊張が高まっているとの談話を発表した。	NO_PRONOUNCE	NO_LABEL
駐ロ南オセチア大使のドミトリー・メドイェーェフはモスクワに対し、北オセチアを中心とする義勇兵が続々と南オセチアに集まりつつあると公表した。	NO_PRONOUNCE	NO_LABEL
ロシアNGOである軍事技術総合研究所発行の英文雑誌『モスクワ防衛の真実』は「8月初旬、グルジア軍は秘密裏に、南オセチア紛争地帯にあるグルジア支配下の飛地に多くの軍事力を集めつつあった。	NO_PRONOUNCE	NO_LABEL
グルジア軍が投入したのは第2、第3、第4歩兵旅団全部と砲兵旅団、第1旅団の一部、ゴリ戦車大隊、あわせると軽歩兵大隊9、戦車大隊5、大砲大隊8、その他特殊部隊であり、兵力1万6千名である」と報じている。	NO_PRONOUNCE	NO_LABEL
2008年8月初旬、南オセチア紛争地帯では小規模な砲撃や衝突が頻発し、両軍に多数の死者が出た。	にせんはちねんはちがつしょじゅん、みなみおせちあふんそーちたいでわしょーきぼなほーげきやしょーとつがひんぱつし、りょーぐんにたすーのししゃがでた。	NO_LABEL
これに関してグルジア、南オセチアの双方が、相手側の暴力から始まったものだと主張した。	これにかんしてぐるじあ、みなみおせちあのそーほーが、あいてがわのぼーりょくからはじまったものだとしゅちょーした。	NO_LABEL
南オセチア側は1992年に設立されたグルジア・オセチア紛争解決合同調整委員会の分科会として、8月6日に南オセチアの首都ツヒンヴァリにて、グルジア、南オセチア、ロシア、北オセチアそれぞれが委員を選出しての話し合いを提案した。	NO_PRONOUNCE	NO_LABEL
これに対してグルジアは、グルジア以外の3地域がいずれもロシア側であることから、この提案には応じなかった。	NO_PRONOUNCE	NO_LABEL
ロシアの新聞ネザヴィシマヤ・ガゼタは目撃情報として、グルジア軍が8月6日、南オセチアの首都ツヒンヴァリに未統制ながらも激しい砲撃を開始したと伝えた。	NO_PRONOUNCE	NO_LABEL
その目撃によると、用いられたのは迫撃砲、大砲、狙撃銃である。	そのもくげきによると、もちいられたのわはくげきほー、たいほー、そげきじゅーである。	NO_LABEL
南オセチア軍は公式に、グルジア陸軍がツヒンヴァリ全域を攻撃する準備をしているとの推測を伝えている。	NO_PRONOUNCE	NO_LABEL
ロシア紙からの特派員は、ツヒンヴァリに一晩中迫撃砲と大砲による砲撃が続けられたと報じている。	NO_PRONOUNCE	NO_LABEL
グルジア政府の8月7日午後2時頃の公式発表によると、「同日夜明け前、南オセチアのアブネヴィからグルジア軍陣地に向けて、オセチア軍による大砲攻撃が数時間にわたって行われた」とされる。	NO_PRONOUNCE	NO_LABEL
グルジアの首相ラド・グルゲニゼは、この攻撃によってグルジアの平和維持軍兵士が2名死亡したと主張している。	NO_PRONOUNCE	NO_LABEL
午後3時、欧州安全保障協力機構の監視員がパトロール時に、南オセチア国境沿いであるゴリ北方に、多数のグルジア軍の大砲とBM-21ロケットランチャーを目撃している。	NO_PRONOUNCE	NO_LABEL
午後7時、グルジアのサアカシュヴィリ大統領は停戦合意を一方的に宣言し、グルジア州長官のテルミ・ヤコヴァシュヴィリを通してロシアの平和維持軍司令官マラート・クラフメートフに伝言した。	NO_PRONOUNCE	NO_LABEL
なお、ヤコヴァシュヴィリはロシア側主席交渉人のユリ・ポポフ、およびオセチア代表にも会おうとしたが叶わなかった。	NO_PRONOUNCE	NO_LABEL
グルジア軍によれば、停戦を宣言した後も紛争はますます激化したという。	ぐるじあぐんによれば、ていせんをせんげんしたのちもふんそーわますますげきかしたという。	NO_LABEL
一方、南オセチアは「グルジア軍やグルジア支配地域に砲撃を加えた事実はない」と反論している。	NO_PRONOUNCE	NO_LABEL
またツヒンヴァリのOSCE監視グループのひとつからも「グルジア側からの砲撃前に南オセチア側から砲撃が開始された事実は無い」との報告が出ており、ドイツの週刊誌デア・シュピーゲルの報道によればNATOの公式声明でも「小規模な戦闘は別にしてグルジアを挑発するような行動はなされていない」と報告されている。	NO_PRONOUNCE	NO_LABEL
ロシア及びオセチア政府は、サアカシュヴィリの停戦宣言はグルジア軍が本格的な攻撃をするための配置に付く時間稼ぎでしかないとの見解を示している。	NO_PRONOUNCE	NO_LABEL
午後11時からのニュース報道でグルジアのサアカシュヴィリ大統領は「グルジアの村が砲撃を受けているが、グルジア政府は南オセチアにおける犯罪者による統治から秩序ある政治体制へと強権を発動してでも回復する」との談話を発表した。	NO_PRONOUNCE	NO_LABEL
午後11時30分、グルジア軍はツヒンヴァリへの本格的な攻撃を開始した。	NO_PRONOUNCE	NO_LABEL
11時45分、OSCEの監視員は、ツヒンヴァリに15〜20秒おきに砲撃が起こっていると報告している。	NO_PRONOUNCE	NO_LABEL
グルジア軍が使用したのはロケットランチャー27台で、152mm砲やクラスター爆弾も使用された。	NO_PRONOUNCE	NO_LABEL
3旅団が夜通し攻撃を行った。	NO_PRONOUNCE	NO_LABEL
グルジア側は、先にロシア軍が仕掛けてきたからそれに対応したのだと主張しているが、その主張は国際的には支持されていない。	ぐるじあがわわ、さきにろしあぐんがしかけてきたからそれにたいおーしたのだとしゅちょーしているが、そのしゅちょーわこくさいてきにわしじされていない。	NO_LABEL
グルジアの報道機関及びロシアからの情報によると、グルジアからの攻撃よりも前、ロシアの第58軍の一部がロキトンネル経由で南オセチア領に移動しているとされるが、11月6日のニューヨーク・タイムズが報じたところによるとグルジアやその同盟国は、ロシア軍がグルジア攻撃前に越境した事、オセチア内のグルジア人居留地区に対してグルジア軍が介入しなければならないほどひどい状況に置かれていた事を示す証拠を提示していない。	NO_PRONOUNCE	NO_LABEL
8月8日の早朝、グルジア軍はツヒンヴァリに向けて、作戦名「地域一掃作戦」と呼ばれる軍事行動を開始した。	NO_PRONOUNCE	NO_LABEL
グルジア軍はツヒンヴァリ周辺の高地にある南オセチア支配下の村をいくつか占領した。	NO_PRONOUNCE	NO_LABEL
8時、グルジア軍の歩兵および戦車がツヒンヴァリに侵入し、駐留するオセチア軍およびロシア軍と激しい戦闘になった。	NO_PRONOUNCE	NO_LABEL
朝の内に、グルジアは声明を発表し、ツヒンヴァリを包囲し、南オセチアの8つの村を占拠したと伝えた。	NO_PRONOUNCE	NO_LABEL
グルジアの公式発表によると、10時には1500人のグルジア陸軍がツヒンヴァリの中央部に進入した。	NO_PRONOUNCE	NO_LABEL
ただし、それ以上の進軍は阻止され、3時間後にはロシア軍の大砲と空爆により退却を余儀なくされた。	ただし、それいじょーのしんぐんわそしされ、さんじかんごにわろしあぐんのたいほーとくーばくによりたいきゃくをよぎなくされた。	NO_LABEL
一方グルジア側は、午前10時頃、ロシア軍の航空機がグルジアの領空を侵犯したと発表している。	いっぽーぐるじあがわわ、ごぜんじゅうじごろ、ろしあぐんのこーくーきがぐるじあのりょーくーをしんぱんしたとはっぴょーしている。	NO_LABEL
昼の12時15分、南オセチアの合同平和維持軍のロシア人司令官マラート・クラフメートフ将軍はOSCEに対し、自分の部隊が攻撃を受けており、死傷者が出ていることを報告している。	ひるのじゅうにじじゅうごふん、みなみおせちあのごーどーへいわいじぐんのろしあじんしれいかんまらーとくらふめーとふしょーぐんわおすきーにたいし、じぶんのぶたいがこーげきをうけており、ししょーしゃがでていることをほーこくしている。	NO_LABEL
ロシア軍の公式報道によると、ツヒンヴァリに配置されたロシア平和維持軍兵士13人が死亡、35人が負傷した。	NO_PRONOUNCE	NO_LABEL
南オセチアにはロケット砲を含む激しい砲撃が加えられ、ツヒンヴァリの多くが破壊された。	NO_PRONOUNCE	NO_LABEL
ロシア側のメディアが報じたところによると、グルジア軍によるツヒンヴァリへの攻撃は広範囲にわたっている。	NO_PRONOUNCE	NO_LABEL
ロシア軍は平和維持軍基地が攻撃され、「グルジア軍による殺戮行為」を受けた南オセチア市民を守るための行動を開始すると発表した。	NO_PRONOUNCE	NO_LABEL
その発表によると、グルジア軍の砲撃によるツヒンヴァリでの死者は2,000名以上である。	NO_PRONOUNCE	NO_LABEL
そのうち民間人が何人であったかは情報源により異なっているが、ツヒンヴァリにある病院の医者は、44名の死者が運び込まれたと証言している。	NO_PRONOUNCE	NO_LABEL
その医者によれば、病院は18時間にもわたって火災に襲われた。	そのいしゃによれば、びょーいんわじゅうはちじかんにもわたってかさいにおそわれた。	NO_LABEL
ヒューマン・ライツ・ウォッチの報告によると、病院はBM-21ロケットランチャーによる攻撃を受けている。	NO_PRONOUNCE	NO_LABEL
BBCはグルジア軍がツヒンヴァリを攻撃するに当たって、民間人を意図的に攻撃したという確かな証拠が見つかったと報じている。	NO_PRONOUNCE	NO_LABEL
ヒューマン・ライツ・ウォッチは、グルジア軍が民間人避難用の地下シェルターに対して攻撃したとの証拠をつかんだと発表している。	ひゅーまんらいつうぉっちわ、ぐるじあぐんがみんかんじんひなんよーのちかしぇるたーにたいしてこーげきしたとのしょーこをつかんだとはっぴょーしている。	NO_LABEL
午前2時頃、国際報道機関はロシアの戦車がロキトンネルを通じて進んでいることを報じた。	ごぜんにじごろ、こくさいほーどーきかんわろしあのせんしゃがろきとんねるをつーじてすすんでいることをほーじた。	NO_LABEL
ロシアの上級報道官によると、8月8日の夜明け前、ロシア軍の初動部隊として第135連隊に対し、ロキトンネルを通ってツヒンヴァリのロシア軍を強化するよう命令が下り、実際にロキトンネルを通過した時刻は午後2時30分頃であった。	NO_PRONOUNCE	NO_LABEL
ツヒンヴァリに到着したのは日没後であり、そこでグルジア軍による激しい抵抗にあったという。	NO_PRONOUNCE	NO_LABEL
一方でグルジア側は、トンネル付近でロシア軍と激しい戦闘になったのは、8月8日の夜明けより大分前とのことであった。	いっぽーでぐるじあがわわ、とんねるふきんでろしあぐんとはげしいせんとーになったのわ、はちがつようかのよあけよりだいぶまえとのことであった。	NO_LABEL
8月8日夜の間中、ツヒンヴァリを中心とした南オセチアで激しい戦闘が行われた。	NO_PRONOUNCE	NO_LABEL
南オセチアの町や村での戦闘には、地元義勇兵や志願兵も加わり、ロシア軍はグルジア本軍との戦闘に当たった。	みなみおせちあのまちやむらでのせんとーにわ、じもとぎゆーへいやしがんへいもくわわり、ろしあぐんわぐるじあほんぐんとのせんとーにあたった。	NO_LABEL
ロシア軍はグルジア軍の砲兵隊も攻撃し、ロシア空軍はグルジア軍の司令部を爆撃した。	ろしあぐんわぐるじあぐんのほーへいたいもこーげきし、ろしあくーぐんわぐるじあぐんのしれいぶをばくげきした。	NO_LABEL
ロシアの特殊部隊が報じたところによると、グルジア軍はロキトンネルの破壊を企て、南オセチアに援軍が行くのを防ごうとした。	ろしあのとくしゅぶたいがほーじたところによると、ぐるじあぐんわろきとんねるのはかいをくわだて、みなみおせちあにえんぐんがいくのをふせごうとした。	NO_LABEL
ロシア軍がロキトンネルを通って進軍する間にもグルジア軍としばしば遭遇した。	ろしあぐんがろきとんねるをとーってしんぐんするまにもぐるじあぐんとしばしばそーぐーした。	NO_LABEL
8月9日、ツヒンヴァリでは激しい戦闘が続き、グルジア軍からも戦車部隊による激しい反撃があった。	NO_PRONOUNCE	NO_LABEL
徐々に戦闘は激化し、この日の終わりには南オセチアではロシア軍はグルジア軍の2倍にまで増えた。	じょじょにせんとーわげきかし、このひのおわりにわみなみおせちあでわろしあぐんわぐるじあぐんのにばいにまでふえた。	NO_LABEL
ロシアの英文雑誌『モスクワ防衛の真実』によると、8月10日の朝、グルジア軍はツヒンヴァリの大部分を押さえ、オセチア軍とロシア平和維持軍を北方へと追いやった。	NO_PRONOUNCE	NO_LABEL
しかし、時間が経つにつれロシア軍が優勢となり、これがこの戦争の転換点になった。	しかし、じかんがたつにつれろしあぐんがゆーせいとなり、これがこのせんそーのてんかんてんになった。	NO_LABEL
8月10日の夜にはツヒンヴァリからグルジア軍は一掃され、市の南方に引き下がった。	NO_PRONOUNCE	NO_LABEL
要地であるプリシ高地もまたロシア軍が占拠した。	よーちであるぷりしこーちもまたろしあぐんがせんきょした。	NO_LABEL
グルジアの砲兵隊も大部分が敗れた。	ぐるじあのほーへいたいもだいぶぶんがやぶれた。	NO_LABEL
その間にオセチア軍はロシア軍の支援を受け、アケアベチ、ケヒヴィ、クルタ、タマラシェニといった、南オセチア北部からツヒンヴァリまでの地域を占領した。	NO_PRONOUNCE	NO_LABEL
グルジア軍の残存部隊もやがて沈黙した。	ぐるじあぐんのざんそんぶたいもやがてちんもくした。	NO_LABEL
最後に残ったツヒンヴァリ北部のツェモ＝ニコシのグルジア軍も破られた。	NO_PRONOUNCE	NO_LABEL
その後もグルジア軍は数箇所の高地からツヒンヴァリに砲撃を加えた。	NO_PRONOUNCE	NO_LABEL
それも8月11日の終わりには完全に駆逐され、南オセチアからグルジア軍は撤退した。	それもはちがつじゅういちにちのおわりにわかんぜんにくちくされ、みなみおせちあからぐるじあぐんわてったいした。	NO_LABEL
ロシア軍は翌朝には南オセチア外のグルジア領内にまで侵入した。	ろしあぐんわよくあさにわみなみおせちあがいのぐるじありょーないにまでしんにゅーした。	NO_LABEL
グルジアの残存部隊は、ツヒンヴァリとグルジアの首都トビリシの間にあるゴリに集結した。	NO_PRONOUNCE	NO_LABEL
一方、グルジアの防衛長官によると、ツヒンヴァリへの侵攻は3回行われた。	NO_PRONOUNCE	NO_LABEL
最後の攻撃は、グルジアの公式発表によると地獄さながらであった。	さいごのこーげきわ、ぐるじあのこーしきはっぴょーによるとじごくさながらであった。	NO_LABEL
結局、ツヒンヴァリの占領は3昼夜で終わり、グルジアの砲撃隊は全滅または撤退し、ツヒンヴァリ市外へと撤退した。	NO_PRONOUNCE	NO_LABEL
時は開戦時にまで遡る。	ときわかいせんじにまでさかのぼる。	NO_LABEL
南オセチア国境に近いツヒンヴァリから25キロメートル南にあるグルジアの主要都市ゴリは、グルジア軍のツヒンヴァリ攻撃拠点であった。	NO_PRONOUNCE	NO_LABEL
開戦後、ロシア空軍により数回に分けて爆撃された。	かいせんご、ろしあくーぐんによりすーかいにわけてばくげきされた。	NO_LABEL
ロイターが報じたところによると、8月9日の午前6時ごろ、ロシアの戦闘機2機が、ゴリ付近のグルジア砲撃地点を爆撃した。	NO_PRONOUNCE	NO_LABEL
2機目による爆撃で、ドイツ人ジャーナリストが1名死亡した。	NO_PRONOUNCE	NO_LABEL
空対地ミサイルはゴリの病院を破壊した。	くうたいちみさいるわごりのびょーいんをはかいした。	NO_LABEL
ロシア軍によると、爆弾3発がグルジア軍の貯蔵施設及び5階建て建築物のひとつに直撃した。	ろしあぐんによると、ばくだんさんばつがぐるじあぐんのちょぞーしせつおよびごかいだてけんちくぶつのひとつにちょくげきした。	NO_LABEL
それにより軍貯蔵施設の爆薬に引火して大爆発が起こった。	それによりぐんちょぞーしせつのばくやくにいんかしてだいばくはつがおこった。	NO_LABEL
一方グルジア政府の報告によると、ゴリのアパートに直撃した爆弾により60人の民間人が死亡した。	いっぽーぐるじあせいふのほーこくによると、ごりのあぱーとにちょくげきしたばくだんによりろくじゅうにんのみんかんじんがしぼーした。	NO_LABEL
8月10日の夜、多数の民間人がゴリ市外へと逃げ出した。	はちがつとおかのよる、たすーのみんかんじんがごりしがいえとにげだした。	NO_LABEL
翌日までに5万6千人がこの地区から離れた。	NO_PRONOUNCE	NO_LABEL
8月11日の午後5時、ツヒンヴァリでの敗戦を受けて、ゴリのグルジア軍も混乱の中、撤退を始めた。	NO_PRONOUNCE	NO_LABEL
イギリスの新聞タイムズが報じたところによると、ゴリに残された住民の証言として、グルジア軍の撤退は突然のように始まったと伝えている。	いぎりすのしんぶんたいむずがほーじたところによると、ごりにのこされたじゅーみんのしょーげんとして、ぐるじあぐんのてったいわとつぜんのよーにはじまったとつたえている。	NO_LABEL
ロシアの英文雑誌『モスクワ防衛の真実』によると、ゴリを放棄したグルジア軍は混乱の中、一路グルジアの首都トビリシに向かっていったと伝えている。	NO_PRONOUNCE	NO_LABEL
イスラム系の報道局アルジャジーラの記者は、ロシア軍の猛烈な砲撃が撤退するグルジア軍の戦車に直撃したのを目撃している。	いすらむけいのほーどーきょくあるじゃじーらのきしゃわ、ろしあぐんのもーれつなほーげきがてったいするぐるじあぐんのせんしゃにちょくげきしたのをもくげきしている。	NO_LABEL
国際人権団体の ヒューマン・ライツ・ウォッチは、この攻撃の際、ロシア軍がグルジアの民間人居留地域にクラスター爆弾を使用し、無差別殺人を行ったと告発した。	こくさいじんけんだんたいのひゅーまんらいつうぉっちわ、このこーげきのさい、ろしあぐんがぐるじあのみんかんじんきょりゅーちいきにくらすたーばくだんをしよーし、むさべつさつじんをおこなったとこくはつした。	NO_LABEL
HRWによると、8月12日のゴリへのクラスター爆弾投下で、少なくとも民間人8名が死亡し、12名が負傷したとのことである。	NO_PRONOUNCE	NO_LABEL
ロシア軍はゴリに残るグルジアの残存部隊の掃討を開始した。	ろしあぐんわごりにのこるぐるじあのざんそんぶたいのそーとーをかいしした。	NO_LABEL
8月13日頃、ロシア陸軍がゴリに到着した。	はちがつじゅうさんにちごろ、ろしありくぐんがごりにとーちゃくした。	NO_LABEL
この頃にはグルジアの残存部隊もいなくなり、完全にロシア軍により制圧された。	このころにわぐるじあのざんそんぶたいもいなくなり、かんぜんにろしあぐんによりせいあつされた。	NO_LABEL
8月14日、ロシア国防省の公式報道として、ロシア軍の司令官ヴャチェスラフ・ボリソフは、ゴリの町はグルジア警察とロシア軍の合同部隊によって統治されたと発表した。	NO_PRONOUNCE	NO_LABEL
ボリゾフは、ロシア軍を2日後に出発させるとも発表している。	ぼりぞふわ、ろしあぐんをふつかごにしゅっぱつさせるともはっぴょーしている。	NO_LABEL
ロシア軍はゴリ郊外の軍貯蔵所から軍事物資と爆薬を運び出したと発表した。	ろしあぐんわごりこーがいのぐんちょぞーしょからぐんじぶっしとばくやくをはこびだしたとはっぴょーした。	NO_LABEL
ロシア軍はトビリシに続く道路にも進軍したが、トビリシから1時間の位置で北方へと転進し、そこで宿営した。	ろしあぐんわとびりしにつずくどーろにもしんぐんしたが、とびりしからいちじかんのいちでほっぽーえとてんしんし、そこでしゅくえいした。	NO_LABEL
このときグルジア軍はトビリシまであと10キロメートルのところまでを押さえていた。	このときぐるじあぐんわとびりしまであとじゅうきろめーとるのところまでをおさえていた。	NO_LABEL
ロシア軍は、ゴリ市民のための人道援助活動の申し出を断っている。	ろしあぐんわ、ごりしみんのためのじんどーえんじょかつどーのもーしでをことわっている。	NO_LABEL
国際連合はゴリの絶望的な状況に対して最低限の食料援助を実現するよう要請している。	こくさいれんごーわごりのぜつぼーてきなじょーきょーにたいしてさいていげんのしょくりょーえんじょをじつげんするよーよーせいしている。	NO_LABEL
8月15日、ロシア軍はいくらかの人道支援受け入れを認めたが、ゴリの封鎖はここが戦略拠点であることを理由に解かなかった。	はちがつじゅうごにち、ろしあぐんわいくらかのじんどいしえんうけいれをみとめたが、ごりのふーさわここがせんりゃくきょてんであることをりゆーにとかなかった。	NO_LABEL
8月17日、ヒューマン・ライツ・ウォッチは、ゴリからきたグルジア人にインタビューし、周辺の村を調査して、南オセチア軍が民間人の車を破壊し、戦闘予定地域から民間人を強制退去させ、ロシア軍の進軍を助けた。	はちがつじゅうしちにち、ひゅーまんらいつうぉっちわ、ごりからきたぐるじあじんにいんたびゅーし、しゅーへんのむらをちょーさして、みなみおせちあぐんがみんかんじんのくるまをはかいし、せんとーよていちいきからみんかんじんをきょーせいたいきょさせ、ろしあぐんのしんぐんをたすけた。	NO_LABEL
ゴリ付近の村に残った住民の電話インタビューによると、南オセチア義勇軍による略奪や放火を目撃したが、住居を空けると義勇軍に襲撃される恐れがあるためそこを離れられなかったという。	ごりふきんのむらにのこったじゅーみんのでんわいんたびゅーによると、みなみおせちあぎゆーぐんによるりゃくだつやほーかをもくげきしたが、じゅーきょをあけるとぎゆーぐんにしゅーげきされるおそれがあるためそこをはなれられなかったという。	NO_LABEL
あるロシア軍の士官は、まだ戦闘中であり、ロシア軍は統制が取れているのだがオセチア人が略奪をしているのだと語っている。	あるろしあぐんのしかんわ、まだせんとーちゅーであり、ろしあぐんわとーせいがとれているのだがおせちあじんがりゃくだつをしているのだとかたっている。	NO_LABEL
別のロシア士官は「我々は警察ではなくあくまでも軍なので、警察活動をしないのだ」とも語っている。	NO_PRONOUNCE	NO_LABEL
ロシアの人権団体メモリアルは、南オセチア義勇軍の攻撃はほとんど虐殺行為のようなものだと解説している。	ろしあのじんけんだんたいめもりあるわ、みなみおせちあぎゆーぐんのこーげきわほとんどぎゃくさつこーいのよーなものだとかいせつしている。	NO_LABEL
ロシア軍の占領は8月22日まで続いた	ろしあぐんのせんりょーわはちがつにじゅうににちまでつずいた	NO_LABEL
話は再び開戦の8月8日に戻る。	はなしわふたたびかいせんのはちがつようかにもどる。	NO_LABEL
同日、黒海艦隊旗艦のミサイル巡洋艦「モスクワ」、カシン型駆逐艦「スメトリーヴイ」、揚陸艦、コルベット等がアブハジア沖へ派遣された。	NO_PRONOUNCE	NO_LABEL
ロシア艦隊は、アブハジア沿岸のパトロール、スフミへの兵員・武器等の輸送活動に従事した。	NO_PRONOUNCE	NO_LABEL
8月10日、兵員を乗せてノヴォロシースクからスフミへ向かう揚陸艦2隻、コルベット2隻から成るロシア艦隊は、スフミへ入港する直前、グルジア海軍戦闘艇5隻の襲撃を受けたが、ナヌチュカIII型ミサイルコルベット「ミラーシュ」の反撃により、グルジア哨戒艇「ゲオルギー・トレリ」を撃沈、もう1隻の哨戒艇を破壊し、グルジア海軍部隊はポティへ逃走した。	NO_PRONOUNCE	NO_LABEL
これは1945年以降、ロシア海軍が海戦を行った初の事例である。	これわせんきゅうひゃくよんじゅうごねんいこー、ろしあかいぐんがかいせんをおこなったはつのじれいである。	NO_LABEL
8月9日、ノヴォロシースク第7空挺師団、プスコフ第76空挺師団、黒海艦隊の第20機動ライフル部隊と2軍団からなる9,000人をアブハジアの主戦線外に配置した。	NO_PRONOUNCE	NO_LABEL
その助力もあり、アブハジア軍はコドリ渓谷からグルジア軍を追い出すのに成功した。	そのじょりょくもあり、あぶはじあぐんわこどりけいこくからぐるじあぐんをおいだすのにせいこーした。	NO_LABEL
8月10日、アブハジアは全軍を投入して、コドリ渓谷に残っていた1,000人のグルジア軍を駆逐するのに成功したと発表した。	NO_PRONOUNCE	NO_LABEL
翌8月11日、ロシア軍はアブハジアに落下傘部隊を送り、グルジア支配地域の軍事施設を破壊して、グルジア軍のこの地域からの南オセチア方面への支援を防いだ。	よくはちがつじゅういちにち、ろしあぐんわあぶはじあにらっかさんぶたいをおくり、ぐるじあしはいちいきのぐんじしせつをはかいして、ぐるじあぐんのこのちいきからのみなみおせちあほーめんえのしえんをふせいだ。	NO_LABEL
ロシア軍はほとんど抵抗を受けることなくセナキ付近のグルジア軍基地を11日中に破壊した。	ろしあぐんわほとんどていこーをうけることなくせなきふきんのぐるじあぐんきちをじゅういちにちちゅーにはかいした。	NO_LABEL
ロシア軍機もセナキ基地のグルジア軍ヘリコプターを破壊している。	ろしあぐんきもせなききちのぐるじあぐんへりこぷたーをはかいしている。	NO_LABEL
ロシア軍はグルジア支配地域のポティの港湾施設も占領した。	ろしあぐんわぐるじあしはいちいきのぽてぃのこーわんしせつもせんりょーした。	NO_LABEL
8月12日、アブハジアはグルジアに反抗してのコドリ・ゴーグ地域の軍事行動を開始したと発表した。	NO_PRONOUNCE	NO_LABEL
同日グルジア軍は、この撤退はあくまでもグルジア側に積極的な攻撃の意思が無いことを示すためであったと発表している。	どーじつぐるじあぐんわ、このてったいわあくまでもぐるじあがわにせっきょくてきなこーげきのいしがないことをしめすためであったとはっぴょーしている。	NO_LABEL
グルジア軍とアブハジア軍の戦闘は8月13日の終わりまで続き、コドリ渓谷のグルジア軍はそこに住む1500人のグルジア系住民と共に撤退した。	ぐるじあぐんとあぶはじあぐんのせんとーわはちがつじゅうさんにちのおわりまでつずき、こどりけいこくのぐるじあぐんわそこにすむせんごひゃくにんのぐるじあけいじゅーみんとともにてったいした。	NO_LABEL
8月12日、ロシア海軍特殊部隊を乗せた揚陸艦2隻はポティ港内へ進入、停泊していたグルジア海軍のミサイル艇「ディオスクリア」「トビリシ」、その他の哨戒艇を爆破し、グルジア海軍は壊滅した。	NO_PRONOUNCE	NO_LABEL
8月14日、ロシア軍はポティに入り、軍事設備を破壊した。	はちがつじゅうよっか、ろしあぐんわぽてぃにはいり、ぐんじせつびをはかいした。	NO_LABEL
さらにポティとグルジアの首都トビリシを結ぶ高速道路も支配した。	さらにぽてぃとぐるじあのしゅととびりしをむすぶこーそくどーろもしはいした。	NO_LABEL
4日後、ロシア軍はポティに近づいたグルジア軍22名を捕虜とした。	NO_PRONOUNCE	NO_LABEL
この捕虜はロシア軍が占領したセナキのグルジア軍基地に連れて行かれた。	このほりょわろしあぐんがせんりょーしたせなきのぐるじあぐんきちにつれていかれた。	NO_LABEL
ロシアの英文雑誌『モスクワ防衛の真実』によると、8月13日から15日にかけてロシアのパラシュート部隊がポティに次々と降り立ち、軍事物資を外部に運び出している。	NO_PRONOUNCE	NO_LABEL
ツヒンヴァリがロシア軍に奪還された8月10日、国外の大方の見方では戦闘は終結すると思われていた。	NO_PRONOUNCE	NO_LABEL
欧州連合とアメリカ合衆国は、停戦の調停に乗り出そうとした。	おーしゅーれんごーとあめりかがっしゅーこくわ、ていせんのちょーていにのりだそうとした。	NO_LABEL
ところがロシアは、先にグルジアが南オセチアから完全撤退して今後南オセチアとアブハジアに武力を用いないことを宣誓しなければ和平交渉に応じないとした。	ところがろしあわ、さきにぐるじあがみなみおせちあからかんぜんてったいしてこんごみなみおせちあとあぶはじあにぶりょくをもちいないことをせんせいしなければわへいこーしょーにおーじないとした。	NO_LABEL
ゴリの町で戦闘が行われていた8月12日、ロシアの大統領メドヴェージェフは、グルジアでの軍事行動を終結するよう命令を出したとの談話を発表した。	NO_PRONOUNCE	NO_LABEL
メドヴェージェフは「作戦は成功裏に終結し、平和維持軍と民間人の立場も回復した。	NO_PRONOUNCE	NO_LABEL
侵略者は多大の損害を受けて消えうせた」と語っている。	NO_PRONOUNCE	NO_LABEL
同じ8月12日の遅く、メドヴェージェフは欧州連合の理事会議長、フランス大統領のサルコジと面談し、サルコジの提案した6項目からなる和平案に同意した。	NO_PRONOUNCE	NO_LABEL
その日の夜遅く、グルジア大統領のサアカシュヴィリも同意した。	NO_PRONOUNCE	NO_LABEL
サルコジの最初の計画では、和平案は4項目だったが、ロシアが残り2項目を追加した。	さるこじのさいしょのけいかくでわ、わへいあんわよんこーもくだったが、ろしあがのこりにこーもくをついかした。	NO_LABEL
グルジアは追加の2項を付帯事項にするよう要望したが、ロシアが拒絶したため、サルコジがグルジアを説得して同意に漕ぎ着けた。	NO_PRONOUNCE	NO_LABEL
8月14日、南オセチアの大統領エドゥアルド・ココイトゥイとアブハジアの大統領セルゲイ・バガプシュも和平案にサインした。	はちがつじゅうよっか、みなみおせちあのだいとーりょーえどぅあるどここいとぅいとあぶはじあのだいとーりょーせるげいばがぷしゅもわへいあんにさいんした。	NO_LABEL
ただし停戦合意後にも戦闘は続いた。	ただしていせんごーいごにもせんとーわつずいた。	NO_LABEL
『モスクワ防衛の真実』によると、グルジア軍の武器の鹵獲及び破壊のための攻撃は続けられ、「グルジア軍の完全非武装化」の行動が続けられた。	NO_PRONOUNCE	NO_LABEL
イギリスのガーディアンの記者は8月13日、ロシア軍と非正規の軍が進軍を続けている以上「停戦がなされたと言うのはおかしい」と語っている。	NO_PRONOUNCE	NO_LABEL
8月14日にはグルジアとロシアの合同警察によるゴリの治安維持も破綻した。	はちがつじゅうよっかにわぐるじあとろしあのごーどーけいさつによるごりのちあんいじもはたんした。	NO_LABEL
ロイターが伝えた8月15日の情報によると、ロシア軍は戦争中とほぼ同じトビリシから55キロメートルの地点まで迫っている。	NO_PRONOUNCE	NO_LABEL
ロシア軍は重要な道路交差点であるイゴエチまで進軍した。	ろしあぐんわじゅーよーなどーろこーさてんであるいごえちまでしんぐんした。	NO_LABEL
同日、アメリカの国務長官ライスはトビリシに向かい、グルジア大統領サアカシュヴィリはその目の前で6項目の合意にサインした。	NO_PRONOUNCE	NO_LABEL
ロシアとグルジアは8月19日に捕虜の交換を行った。	ろしあとぐるじあわはちがつじゅうきゅうにちにほりょのこーかんをおこなった。	NO_LABEL
グルジアによると、ロシアの軍人5人と、民間人2人を含むグルジア人15人が交換された。	ぐるじあによると、ろしあのぐんじんごにんと、みんかんじんふたりをふくむぐるじあじんじゅうごにんがこーかんされた。	NO_LABEL
