歯科衛生士養成所とは、歯科衛生士を養成する施設のことで歯科衛生士学校とも呼ばれる。	しかえいせいしよーせいじょとわ、しかえいせいしをよーせいするしせつのことでしかえいせいしがっこーともよばれる。	NO_LABEL
2014年4月現在、日本では大学8校、短期大学12校、専門学校136校の合計156校で教育が行われている。	NO_PRONOUNCE	NO_LABEL
私立では3年間でおおよそ300万〜500万ほどの学費がかかる。	NO_PRONOUNCE	NO_LABEL
長く2年制の学校が存在したが、2010年4月以降は、全員が3年以上の教育を受けている。	ながくにねんせいのがっこーがそんざいしたが、にせんじゅうねんしがついこーわ、ぜんいんがさんねんいじょーのきょーいくをうけている。	NO_LABEL
多くの養成所は女子の入学しか認めていないが、大学に歯科衛生士養成課程が新設されてからは、男子学生の入学希望者も増えている。	おーくのよーせいしょわじょしのにゅーがくしかみとめていないが、だいがくにしかえいせいしよーせいかていがしんせつされてからわ、だんしがくせいのにゅーがくきぼーしゃもふえている。	NO_LABEL
なお、2012年6月30日の時点で男性歯科衛生士は43名となっており、勤務先の大半は歯科診療所である。	NO_PRONOUNCE	NO_LABEL
また近年、4年制大学への養成課程新設が増加している。	またきんねん、よねんせいだいがくえのよーせいかていしんせつがぞーかしている。	NO_LABEL
【大学】 ※は開設年度〈2017年12月20日現在〉	NO_PRONOUNCE	NO_LABEL
【短期大学・専門学校】	NO_PRONOUNCE	NO_LABEL
