若狭 繁行は、樺太出身の元スキージャンプオリンピック代表選手。	わかさしげゆきわ、からふとしゅっしんのもとすきーじゃんぷおりんぴっくだいひょーせんしゅ。	NO_LABEL
スキー解説者。	すきーかいせつしゃ。	NO_LABEL
樺太生まれで、終戦による引き揚げで歌志内市へ移住した。	からふとうまれで、しゅーせんによるひきあげでうたしないしえいじゅーした。	NO_LABEL
歌神小学校のときジャンプを始め、歌志内高校2年時に全国高校スキー優勝。	かしんしょーがっこーのときじゃんぷをはじめ、うたしないこーこーにねんじにぜんこくこーこーすきーゆーしょー。	NO_LABEL
その素質に目をつけた中央大学のスキー部は高校3年の若狭を中央大学付属杉並高校に転校させ囲い込みを図った。	そのそしつにめをつけたちゅーおーだいがくのすきーぶわこーこーさんねんのわかさをちゅーおーだいがくふぞくすぎなみこうこーにてんこーさせかこいこみをはかった。	NO_LABEL
中央大学に進学後2年生と4年生の2度全日本学生選手権で優勝し、また1962年の第2回ユニバーシアード冬季大会個人純ジャンプで金メダルを獲得した。	ちゅーおーだいがくにしんがくごにねんせいとよんねんせいのにどぜんにほんがくせいせんしゅけんでゆーしょーし、またせんきゅうひゃくろくじゅうにねんのだいにかいゆにばーしあーどとーきたいかいこじんじゅんじゃんぷできんめだるをかくとくした。	NO_LABEL
1962年ノルディックスキー世界選手権に出場、65m級50位、90m級18位だった。	せんきゅうひゃくろくじゅうにねんのるでぃっくすきーせかいせんしゅけんにしゅつじょー、ろくじゅうごめーとるきゅーごじゅうい、きゅうじゅうめーとるきゅーじゅうはちーだった。	NO_LABEL
中大卒業後は北海道拓殖銀行に入行、1964年のインスブルックオリンピック代表に選ばれたが本大会では補欠にまわり出場しなかった。	ちゅーだいそつぎょーごわほっかいどーたくしょくぎんこーににゅーこー、せんきゅうひゃくろくじゅうよねんのいんすぶるっくおりんぴっくだいひょーにえらばれたがほんたいかいでわほけつにまわりしゅつじょーしなかった。	NO_LABEL
1972年の札幌オリンピックではジャンプ競技の中継解説者を務めた。	せんきゅうひゃくななじゅうにねんのさっぽろおりんぴっくでわじゃんぷきょーぎのちゅーけいかいせつしゃをつとめた。	NO_LABEL
歌志内の有名人紹介	うたしないのゆーめいじんしょーかい	NO_LABEL
