施設とは、仏教で「仮の指定・設定」といった原義の語であり、「概念」を意味する語。	NO_PRONOUNCE	NO_LABEL
仮設・仮説、説仮、仮名等とも。	NO_PRONOUNCE	NO_LABEL
下述するように、仏教では、ギリシア哲学にも見られるように、言葉や概念は、社会的・世俗的な約束事として、仮に設定しているものに過ぎないという発想が、少なくとも部派仏教の段階では既に確立していた。	NO_PRONOUNCE	NO_LABEL
そしてこれは、「二諦論」における片方の「世俗諦」とも結合したものでもあり、仏教が主張する「世界の実相」としての「勝義諦」と、対を成すものでもあった。	NO_PRONOUNCE	NO_LABEL
説一切有部の初期の論書である『六足論』の中には、概念説明論としての『施設論』がある。	NO_PRONOUNCE	NO_LABEL
分別説部、すなわち南伝上座部仏教に伝承される『パーリ語仏典』の論蔵にも、概念説明論としての『人施設論』が含まれている。	NO_PRONOUNCE	NO_LABEL
また、大衆部から分岐した部派の中には、その名もずばり「説仮部」という部派がある。	NO_PRONOUNCE	NO_LABEL
大乗仏教においては、中観派の祖・ナーガールジュナによって、「相依性」に則った「無自称」「法空」、すなわち「法すらも仮のもの」という考えが主張されたため、仮説・仮名と看做される領域が一挙に拡大・普遍化された。	NO_PRONOUNCE	NO_LABEL
その主張は、『中論』の、第24章18詩である、	NO_PRONOUNCE	NO_LABEL
「衆因縁生の法、我即ち是れ無なりと説く。	NO_PRONOUNCE	NO_LABEL
亦た是れ仮名と為す。	またたぜれかめいとなす。	NO_LABEL
亦是れ中道の義なり。	またぜれちゅーどーのぎなり。	NO_LABEL
」	NO_PRONOUNCE	NO_LABEL
に象徴的に示されている。	にしょーちょーてきにしめされている。	NO_LABEL
