古平郡は、北海道後志総合振興局の郡。	ふるびらぐんわ、ほっかいどーしりべしそーごーしんこーきょくのぐん。	NO_LABEL
以下の1町を含む。	NO_PRONOUNCE	NO_LABEL
1879年に行政区画として発足して以来、郡域は上記1町のまま変更されていない。	NO_PRONOUNCE	NO_LABEL
江戸時代、古平郡域は和人地となる。	えどじだい、ふるびらぐんいきわわじんちとなる。	NO_LABEL
松前藩によってフルビラ場所が開かれていた。	まつまえはんによってふるびらばしょがひらかれていた。	NO_LABEL
陸上交通は、余市から古平境界までの2里余の道を余市場所請負人竹屋長左衛門が開削している。	NO_PRONOUNCE	NO_LABEL
江戸時代後期の文化4年には古平郡域は天領とされたが、文政4年には一旦松前藩の領に戻された。	えどじだいこーきのぶんかよんねんにわふるびらぐんいきわてんりょーとされたが、ぶんせいよんねんにわいったんまつまえはんのりょーにもどされた。	NO_LABEL
弘化4年恵比須神社が創建される。	こうかよんねんえびすじんじゃがそーけんされる。	NO_LABEL
安政2年古平郡域は再び天領となり庄内藩の警固地となっている。	やすまさにねんふるびらぐんいきわふたたびてんりょーとなりしょーないはんのけいごちとなっている。	NO_LABEL
安政5年禅源寺が開山している。	やすまさごねんぜんげんじがかいさんしている。	NO_LABEL
慶応3年5月には琴平神社が鎮座。	けいおーさんねんごがつにわことひらじんじゃがちんざ。	NO_LABEL
戊辰戦争終結直後の1869年8月15日、大宝律令の国郡里制を踏襲して古平郡が置かれた。	ぼしんせんそーしゅーけつちょくごのせんはっぴゃくろくじゅうきゅうねんはちがつじゅうごにち、たいほーりつりょーのこくぐんりせいをとーしゅーしてふるびらぐんがおかれた。	NO_LABEL
