安井 算知- 元禄16年3月12日）は、囲碁の棋士で、家元安井家の二世安井算知。	NO_PRONOUNCE	NO_LABEL
三世名人碁所。	さんぜめいじんごどころ。	NO_LABEL
九世安井算知と区別して名人算知と呼ぶこともある。	きゅーせいやすいさんちとくべつしてめいじんさんちとよぶこともある。	NO_LABEL
山城国の生まれ。	やましろのくにのうまれ。	NO_LABEL
寛永5年12歳で徳川家光に召し出される。	かんえいごねんじゅうにさいでとくがわいえみつにめしだされる。	NO_LABEL
後に一世安井算哲の没した慶安5年に、算哲の実子の春海、知哲が幼少であったため、安井家を継いで二世安井算知となる。	ごにいっせいやすいさんてつのぼっしたけいあんごねんに、さんてつのじっしのはるみ、ちあきらがよーしょーであったため、やすいけをついでにせいやすいさんちとなる。	NO_LABEL
この間は算哲と算知と二つの安井家が併存していて、碁家としての名跡を継いだものと見られる。	このかんわさんてつとさんちとふたつのやすいけがへいそんしていて、ごかとしてのみょーせきをついだものとみられる。	NO_LABEL
また算知は会津藩主松平肥後守からも扶持、屋敷を受けていた。	またさんちわあいずはんしゅまつだいらひごのかみからもふち、やしきをうけていた。	NO_LABEL
寛永3年に二世名人中村道碩が死去した後、後継者を決めるため、正保2年から本因坊算悦との間での争碁として互先による六番碁を御城碁にて行う。	NO_PRONOUNCE	NO_LABEL
承応2年までで双方先番を勝っての3勝3敗となり決着がつかなかった。	NO_PRONOUNCE	NO_LABEL
この六番碁が日本最初の争碁となった。	NO_PRONOUNCE	NO_LABEL
算悦は万治元年死去し、その10年後の寛文8年に算知は保科正之などへ嘆願し、欠所となっていた名人碁所に就く。	さんえつわまんじがんねんしきょし、そのじゅうねんごのひろふみはちねんにさんちわほしなまさゆきなどえたんがんし、けつしょとなっていためいじんごどころにつく。	NO_LABEL
しかし算悦を継いだ3世本因坊道悦はこれを不服として争碁を申し込み、同年から道悦定先による六十番碁を打つこととなる。	NO_PRONOUNCE	NO_LABEL
16局までで道悦9勝3敗4持碁で手合割を先相先に手直りし、延宝3年に二十番で12勝4敗1持碁となったところで打ち止めとなった。	NO_PRONOUNCE	NO_LABEL
この時点での手合割は先相先であり、後世に「算知に一日の長」とも評されるが、58歳の算知は碁所を返上した。	NO_PRONOUNCE	NO_LABEL
また道悦も2年後に隠居し本因坊道策に家督を継がせ、道策が名人碁所に就く。	またどーえつもにねんごにいんきょしほんいんぼーどーさくにかとくをつがせ、みちさくがめいじんごどころにつく。	NO_LABEL
算知は元禄9年まで御城碁の立ち会いに出仕したが、元禄10年に引退し、先代算哲の子安井知哲に家督を継がせる。	さんちわげんろくきゅうねんまでおしろごのたちあいにしゅっししたが、げんろくじゅうねんにいんたいし、せんだいさんてつのこやすいちてつにかとくをつがせる。	NO_LABEL
元禄16年、京都にて87歳で死去し、京都寂光寺に葬られた。	げんろくじゅうろくねん、きょーとにてはちじゅうななさいでしきょし、きょーとじゃっこーでらにほーむられた。	NO_LABEL
権大納言勧修寺晴豊の第六子で鹿苑寺住持の鳳林承章の日記『隔蓂記』では、算知を初めとした碁打ちとの交流が記されている。	NO_PRONOUNCE	NO_LABEL
明暦3年から万治2年の間に、算知を招いて北野社衆を交えた碁会を開き、算知は2世算哲、息子の小三郎などを伴い、公家や僧達とも対局した。	めいれきさんねんからまんちにねんのまに、さんちをまねいてきたのしゃしゅーをまじえたごかいをひらき、さんちわにせいさんてつ、むすこのこさぶろーなどをともない、くげやそーたちともたいきょくした。	NO_LABEL
この時期は算知は京都に居住しており、林門入斎とも交流があり、また在京の囲碁強豪法橋中西玄碩の子の玄悦を弟子にするなどした。	このじきわさんちわきょーとにきょじゅーしており、はやしもんにゅーさいともこーりゅーがあり、またざいきょーのいごきょーごーほっきょーなかにしげんせきのこのげんえつをでしにするなどした。	NO_LABEL
門入斎の死去2年後の寛文9年に、弟子の一人に林家の家督を継がせて二世林門入とし、これが家元林家となった。	かどにゅーときのしきょにねんごのひろふみきゅうねんに、でしのひとりにはやしやのかとくをつがせてにせいりんかどにゅーとし、これがいえもとはやしやとなった。	NO_LABEL
