「private wing」は、石田燿子の15作目のシングル。	NO_PRONOUNCE	NO_LABEL
2010年3月17日にコロムビアミュージックエンタテインメントからリリースされた。	にせんじゅうねんさんがつじゅうしちにちにころむびあみゅーじっくえんたていんめんとからりりーすされた。	NO_LABEL
「private wing」は、ニンテンドーDS用ソフト『ストライクウィッチーズ-蒼空の電撃戦 新隊長 奮闘する-』と『ストライクウィッチーズ -あなたとできること A Little Peaceful Days-』と『ストライクウィッチーズ 白銀の翼』のオープニングテーマになっている。	NO_PRONOUNCE	NO_LABEL
2曲目の坂本美緒と竹井醇子が歌う「ブックマーク ア・ヘッド」は、『ストライクウィッチーズ-蒼空の電撃戦 新隊長 奮闘する-』のエンディングテーマに、3曲目の諏訪天姫と中島錦が歌うブックマーク ア・ヘッドは『ストライクウィッチーズ -あなたとできること A Little Peaceful Days-』のエンディングテーマに採用されている。	NO_PRONOUNCE	NO_LABEL
