ニコラス・ジェリー・ジョナスは、アメリカ合衆国の歌手、俳優。	NO_PRONOUNCE	NO_LABEL
身長175cm。	しんちょーひゃくななじゅうごせんちめーとる。	NO_LABEL
1992年9月16日、アメリカ合衆国のテキサス州ダラスで父のポール・ジョナスと母のデニーゼ・ジョナスの下に三男として生まれ、11歳のときニューヨークに引っ越す。	NO_PRONOUNCE	NO_LABEL
兄弟はニックを含め4人で同じポップ・グループのジョナス・ブラザーズに所属している長男のケビンと、次男のジョー、そしてジョナス・ブラザーズには所属していない四男のフランキー。	きょーだいわにっくをふくめよにんでおなじぽっぷぐるーぷのじょなすぶらざーずにしょぞくしているちょーなんのけびんと、じなんのじょー、そしてじょなすぶらざーずにわしょぞくしていないよんなんのふらんきー。	NO_LABEL
フランキーはノア・サイラスと共に映画『崖の上のポニョ』の英語吹替をし、そうすけを担当した。	NO_PRONOUNCE	NO_LABEL
言葉を話す前から歌っていたというニックは6歳のとき理髪店で歌っていたところ、スカウトされてエージェントと契約。	ことばをはなすまえからうたっていたとゆうにっくわろっさいのときりはつてんでうたっていたところ、すかうとされてえーじぇんととけいやく。	NO_LABEL
最初はCMやなどに出演するだけで映画やドラマのゲストで出演する事はなかった。	さいしょわこんぴゅーたみゅーじっくまがじんやなどにしゅつえんするだけでえいがやどらまのげすとでしゅつえんすることわなかった。	NO_LABEL
けなげな努力が実り1999年のクリスマス・シーズンにチャンスがやってきた。	NO_PRONOUNCE	NO_LABEL
11歳だったニックは当時マディソン・スクウェア・ガーデンで上演されていたミュージカル『クリスマス・キャロル』にTiny Tim役で抜擢されたのを機に、2001年『アニーよ銃をとれ』で念願のブロードウェーデビュー。	NO_PRONOUNCE	NO_LABEL
翌2002年には『美女と野獣』に出演し、2003年には『レ・ミゼラブル』、『サウンド・オブ・ミュージック』と、立て続けに大作の舞台に立ったほか、ブロードウェーの人気アーティストが名を連ねるクリスマス・コンピレーション・アルバムで、「Joy to the World」を発表。	NO_PRONOUNCE	NO_LABEL
同曲は父ポールと書き上げたオリジナルで、コーラスには『美女と野獣』のキャストが参加。	NO_PRONOUNCE	NO_LABEL
クリスチャン・ラジオでもオンエアチャートをにぎわせた。	NO_PRONOUNCE	NO_LABEL
そして2004年には本格的に音楽活動をスタートさせる。	そしてにせんよねんにわほんかくてきにおんがくかつどーをすたーとさせる。	NO_LABEL
同年秋にはコロムビア・レコードからニックのシングル2タイトルをリリース。	NO_PRONOUNCE	NO_LABEL
年末にはアルバムの発売も予定されていたが、延期ののち枚数限定でリリースされている。	ねんまつにわあるばむのはつばいもよていされていたが、えんきののちまいすーげんていでりりーすされている。	NO_LABEL
2005年にレコード会社の社長は兄弟が書き上げた楽曲に着目し、3人グループでのアーティスト契約を打診した。	にせんごねんにれこーどがいしゃのしゃちょーわきょーだいがかきあげたがっきょくにちゃくもくし、さんにんぐるーぷでのあーてぃすとけいやくをだしんした。	NO_LABEL
サウンドの方向性についても、彼らが制作した楽曲に加えてイギリスの人気グループ・バステッドの「YEAR3000」と「WHAT I GO TO SCHOOL FOR」カヴァーを指示。	NO_PRONOUNCE	NO_LABEL
ポップ・パンクの要素を盛り込むことでより広い層へのアピールアピールを狙った。	ぽっぷぱんくのよーそをもりこむことでよりひろいそーえのあぴーるあぴーるをねらった。	NO_LABEL
しかし、デビュー時期の見極めに関しては慎重で、アルバム発売日は未定のままで、3人は長いツアー生活をスタート。	しかし、でびゅーじきのみきわめにかんしてわしんちょーで、あるばむはつばいびわみていのままで、さんにんわながいつあーせいかつをすたーと。	NO_LABEL
バックストリート・ボーイズやジェシー・マッカートニーらメジャーアーティストのツアーに加わり、オープニングアクトをつとめた。	ばっくすとりーとぼーいずやじぇしーまっかーとにーらめじゃーあーてぃすとのつあーにくわわり、おーぷにんぐあくとをつとめた。	NO_LABEL
2007年、ディズニー・チャンネルのオーディションに合格した3人は2008年、オリジナル・ムービー「キャンプ・ロック」に出演。	NO_PRONOUNCE	NO_LABEL
兄のジョーがデミ・ロヴァートと主役を演じたがニックはほとんど登場しなかった。	NO_PRONOUNCE	NO_LABEL
ディズニー・スターはハリウッド・レコードに多く、3人も声をかけられ移籍。	NO_PRONOUNCE	NO_LABEL
2007年8月7日に放たれたアルバム『Jonas Brothers』は、発売一週間でBillboard 200の5位にランクイン。	NO_PRONOUNCE	NO_LABEL
そして、新作お披露目の場として彼らに用意されたのは、マイリー・サイラスのアリーナツアーのオープニングアクト。	そして、しんさくおひろめのばとしてかれらによーいされたのわ、まいりーさいらすのありーなつあーのおーぷにんぐあくと。	NO_LABEL
2008年8月12日、待望の3rdアルバム『A Little Bit Longer』が発売され、前作同様にダブルプラチナムを獲得してチャートを席巻し、世界中で34個のプラチナとゴールドを獲得。	NO_PRONOUNCE	NO_LABEL
全米で100万人を動員したヘッドライン・ツアー『Burnin' Up Tour』も大盛況のうちに終了。	NO_PRONOUNCE	NO_LABEL
ケビンが言うにニックは「グループの核」なのだとか。	NO_PRONOUNCE	NO_LABEL
2008年の「American Music Awards」で最優秀新人賞を受賞、「MTV Video Music Awards」「MTV Europe Music Awards」「グラミー賞」では最優秀新人賞にノミネート。	NO_PRONOUNCE	NO_LABEL
また、ローリング・ストーン誌の表紙を飾り、ジョナス掲載号が2008年で1番の売上げを記録。	また、ろーりんぐすとーんしのひょーしをかざり、じょなすけいさいごーがにせんはちねんでいちばんのうりあげをきろく。	NO_LABEL
秋には写真集を出版し、初日で100万部を売上げ、驚異的な数字を記録。	あきにわしゃしんしゅーをしゅっぱんし、しょにちでひゃくまんぶをうりあげ、きょーいてきなすーじをきろく。	NO_LABEL
これもすべてニックのおかげだとジョーは語った。	これもすべてにっくのおかげだとじょーわかたった。	NO_LABEL
2009年には、アメリカ新大統領のバラク・オバマの就任式のために行われたライヴ「Kids' Inaugural:We Are The Future」のイベントに出演し、オバマの娘も大ファンという熱狂ぶり。	NO_PRONOUNCE	NO_LABEL
またニックのパフォーマンスもとてもよく評価された。	またにっくのぱふぉーまんすもとてもよくひょーかされた。	NO_LABEL
2月には昨年行った「Burnin Up TOUR」の模様を映画化した3Dコンサート映画が全米を皮切りに全世界で公開が決定。	NO_PRONOUNCE	NO_LABEL
アメリカでは興行成績初登場2位を獲得。	あめりかでわこーぎょーせいせきはつとーじょーにーをかくとく。	NO_LABEL
 5月からは、ワールド・ツアーが南米からスタートし、北米、ヨーロッパと決定。	NO_PRONOUNCE	NO_LABEL
その中にはニュー・ヨークのナッソー・コロシアムやロサンゼルスのステイプル・センターの3days、さらにロンドンのウェンブリー・アリーナを含むアリーナ・コンサートが開催。	NO_PRONOUNCE	NO_LABEL
ニックはいずれもドラム担当が多かったがギターも上手でファンを熱狂させた。	にっくわいずれもどらむたんとーがおーかったがぎたーもじょーずでふぁんをねっきょーさせた。	NO_LABEL
2008年、「キャンプ・ロック」に出演しほとんど出演しなかったニックだったが、2010年に「キャンプ・ロック 2」で主要人物になった。	NO_PRONOUNCE	NO_LABEL
ニックは「光栄だよ、これはすばらしいことだし夢がかなって嬉しいんだ」と心の内を打ち明けた。	NO_PRONOUNCE	NO_LABEL
またNick Jonas and the Administrationというバンドを結成し「Who I Am」が全米で大ヒット。	NO_PRONOUNCE	NO_LABEL
ライブも大変のようで体調を崩してしまうこともあるという。	らいぶもたいへんのよーでたいちょーをくずしてしまうこともあるという。	NO_LABEL
2016年7月2日、ジョイントツアーのフロリダ州オーランド公演に、6月12日に同州で起きた銃撃事件の被害者たちを招待した。	にせんじゅうろくねんしちがつふつか、じょいんとつあーのふろりだしゅーおーらんどこーえんに、ろくがつじゅうににちにどーしゅーでおきたじゅーげきじけんのひがいしゃたちをしょーたいした。	NO_LABEL
デミ・ロヴァートと共に、グラミー歌手をゲストに迎え、彼女のヒット曲「Rise Up」を一緒にパフォーマンス。	NO_PRONOUNCE	NO_LABEL
この間、スクリーンには、事件で命を落とした被害者たちの名前が表示。	このかん、すくりーんにわ、じけんでいのちをおとしたひがいしゃたちのなまえがひょーじ。	NO_LABEL
そして、最後には6月10日にファンの目前で射殺された歌手クリスティーナ・グリミーの名前も映し出され、現地で起きた2件の悲しい事件被害者たちを観客とともに偲んだ。	そして、さいごにわろくがつとおかにふぁんのもくぜんでしゃさつされたかしゅくりすてぃーなぐりみーのなまえもうつしだされ、げんちでおきたにけんのかなしいじけんひがいしゃたちをかんきゃくとともにしのんだ。	NO_LABEL
2006年6月11日、マイリー・サイラスと出会ったその日に恋人になった。	にせんろくねんろくがつじゅういちにち、まいりーさいらすとであったそのひにこいびとになった。	NO_LABEL
関係は長く続き両親も公認の仲。	かんけいわながくつずきりょーしんもこーにんのなか。	NO_LABEL
マイリーもニックも筋金入りのクリスチャンとあって交際が順調に進んだといっても過言ではないとマイリーがインタビューで話した。	まいりーもにっくもすじがねいりのくりすちゃんとあってこーさいがじゅんちょーにすすんだといってもかごんでわないとまいりーがいんたびゅーではなした。	NO_LABEL
ニックはニューヨークからマイリーの住むロサンゼルスに引っ越してきた。	にっくわにゅーよーくからまいりーのすむろさんぜるすにひっこしてきた。	NO_LABEL
その上歩いて2分程度の場所だった。	そのうえあるいてにふんていどのばしょだった。	NO_LABEL
しかしお互いにスーパー・スターとだけあって多忙の日々が続いたという。	NO_PRONOUNCE	NO_LABEL
マイリーのアリーナツアー中にニックが別れを切り出したという。	まいりーのありーなつあーちゅーににっくがわかれをきりだしたという。	NO_LABEL
ツアー中だったため気まずい関係は続き最終的にツアー中に振ったことを後悔したニック。	つあーちゅーだったためきまずいかんけいわつずきさいしゅーてきにつあーちゅーにふったことをこーかいしたにっく。	NO_LABEL
理由はマイリーが髪を黒く染めたこと。	りゆーわまいりーがかみをくろくそめたこと。	NO_LABEL
ニックがマイリーの茶色い髪が好きだったこともあるがファンを驚かせてしまったのだ。	にっくがまいりーのちゃいろいかみがすきだったこともあるがふぁんをおどろかせてしまったのだ。	NO_LABEL
ツアーではステージでキスすることもあったが破局するしかなかったという。	つあーでわすてーじできすすることもあったがはきょくするしかなかったという。	NO_LABEL
2007年12月19日にきっぱり別れた。	にせんななねんじゅーにがつじゅうきゅうにちにきっぱりわかれた。	NO_LABEL
その後マイリーがニックに「7things」を宛てたためニックはマイリーに「sorry」を書き、歌でのやりとりをするように。	NO_PRONOUNCE	NO_LABEL
それからはセレーナ・ゴメスと交際。	それからわせれーなごめすとこーさい。	NO_LABEL
約半年で別れる。	やくはんとしでわかれる。	NO_LABEL
理由はマイリーと多忙で別れたことを後悔したからだという。	りゆーわまいりーとたぼーでわかれたことをこーかいしたからだという。	NO_LABEL
マイリーもニックの後に交際したジャスティンと破局していたため復縁。	まいりーもにっくののちにこーさいしたじゃすてぃんとはきょくしていたためふくえん。	NO_LABEL
2009年6月、ニックはマイリーの映画の撮影が行われるジョージア州までロサンゼルスから行き来していた。	にせんきゅうねんろくがつ、にっくわまいりーのえいがのさつえいがおこなわれるじょーじあしゅーまでろさんぜるすからいききしていた。	NO_LABEL
ジェット・スキーでキスしたりラブラブだったが7月に破局。	NO_PRONOUNCE	NO_LABEL
マイリーが共演者に恋したためである。	まいりーがきょーえんしゃにこいしたためである。	NO_LABEL
それからはセレーナと付き合ったりルーシー・ジョーンズや「ジョナス」で共演中のニコール・アンダーソンと交際していたが、今はフリーだという。	NO_PRONOUNCE	NO_LABEL
