児玉 淳一郎- 1916年4月30日）は、幕末の武士、明治初期の官吏、慶應義塾法律科初代講師、大審院判事、貴族院議員。	NO_PRONOUNCE	NO_LABEL
中定勝と共に、日本において最初の近代的代言人といわれる。	なかさだまさるとともに、にっぽんにおいてさいしょのきんだいてきだいげんにんといわれる。	NO_LABEL
長州藩士・児玉伝兵衛の第三子。	NO_PRONOUNCE	NO_LABEL
藩校明倫館で学んだ後、長崎でフルベッキや芳川顕正から英語を教わり、明治2年6月、長州藩留学生として渡米し、法律を学んで、明治3年11月25日に一旦帰朝する。	はんこーめいりんかんでまなんだのち、ながさきでふるべっきやよしかわあきまさからえいごをおそわり、めいじにねんろくがつ、ちょーしゅーはんりゅーがくせいとしてとべいし、ほーりつをまなんで、めいじさんねんじゅーいちがつにじゅうごにちにいったんきちょーする。	NO_LABEL
翌月さらに太政官留学生となり、「刑法」修学の目的で再渡米し、ワシントン大学や同府裁判所で司法事務を見習い、岩倉使節団一行が同府に立ち寄った際には、司法理事官・佐々木高行の米国法律取調の事務手伝いを命じられたと言う。	NO_PRONOUNCE	NO_LABEL
明治6年4月29日に帰朝している。	めいじろくねんしがつにじゅうきゅうにちにきちょーしている。	NO_LABEL
帰朝後まもなく司法省十等出仕に任じられたが、その低い地位を不満として江藤新平に辞職届を出して辞職している。	きちょーごまもなくしほーしょーじゅーとーしゅっしににんじられたが、そのひくいちいをふまんとしてえとーしんぺいにじしょくとどけをだしてじしょくしている。	NO_LABEL
その後、児玉は福澤諭吉を慕って、三田山上の慶應義塾の出版局二階に寓居し、慶應義塾の塾生を集めて、英米法の講義を行った。	そのご、こだまわふくざわゆきちをしたって、みたさんじょーのけいおーぎじゅくのしゅっぱんきょくにかいにぐーきょし、けいおーぎじゅくのじゅくせいをあつめて、えいべいほーのこーぎをおこなった。	NO_LABEL
その講義内容は不明だとしながらも、児玉の著書『人間交法』が、おそらく講義の内容であったのではと推測している。	NO_PRONOUNCE	NO_LABEL
のちに相馬永胤らが集い、夜間法律科へと発展した。	のちにそーまながたねらがつどい、やかんほーりつかえとはってんした。	NO_LABEL
次いで代言人となり、明治23年10月には大審院判事となった。	ついでだいげんにんとなり、めいじにじゅうさんねんじゅーがつにわだいしんいんはんじとなった。	NO_LABEL
また、明治27年4月18日から大正5年4月30日まで貴族院勅撰議員を務めた。	また、めいじにじゅうななねんしがつじゅうはちにちからたいしょーごねんしがつさんじゅうにちまできぞくいんちょくせんぎいんをつとめた。	NO_LABEL
