エクシリムは、カシオ計算機のデジタルカメラ、またはカメラ機能重視型の携帯電話のブランドである。	えくしりむわ、かしおけいさんきのでじたるかめら、またわかめらきのーじゅーしがたのけいたいでんわのぶらんどである。	NO_LABEL
カシオは日本で初めてデジタルカメラ「QV-10」を市販して以来、一般ユーザーやプロ仕様のデジタルカメラを製造してきた。	NO_PRONOUNCE	NO_LABEL
当時のデジタルカメラはシャッターを押してから写真が取り込まれるまで時間がかかり、またサイズも従前のフィルムカメラと同じように大きめのサイズが主流だったため、ポケットなどへ入れての携帯など不便な面も多かった。	とーじのでじたるかめらわしゃったーをおしてからしゃしんがとりこまれるまでじかんがかかり、またさいずもじゅーぜんのふぃるむかめらとおなじよーにおーきめのさいずがしゅりゅーだったため、ぽけっとなどえいれてのけいたいなどふべんなめんもおーかった。	NO_LABEL
そこで、シャッターを押してから瞬時に写真を取り込めるようにする「ウェアラブル・カードカメラ」というコンセプトとともに、小型・軽量化でポケットなどへの携帯をよりしやすくしたカードサイズデジタルカメラである、初代のエクシリムを開発した。	NO_PRONOUNCE	NO_LABEL
ブランド名のエクシリムはラテン語の「並外れた」「驚き」を意味する「Eximius」と、英語の「Slim」を合体させた造語で、究極の薄さのデジタルカメラという意味が込められている。	NO_PRONOUNCE	NO_LABEL
実際、初期のEX-S1は名刺入れに入る程薄く小さい。	NO_PRONOUNCE	NO_LABEL
最近発売されたモデルでは、ビデオカメラ並みの1秒30フレームの高画質ムービー映像が撮影でき、高画質の写真撮影、手ぶれ補正機能や、人物・夜景など様々なシチュエーションに合せた写真の高画質撮影が楽しめるベストショット機能、マイクロレコーダー機能や、音楽やポッドキャスティングの番組が聴けるMP-3プレーヤーとしても使える機能も備わったものもある。	NO_PRONOUNCE	NO_LABEL
EX-S1の成功からカシオではエクシリムを主力ブランドとした。	NO_PRONOUNCE	NO_LABEL
初代のエクシリムは単焦点だったが、現在では3倍ズームレンズを搭載したエクシリムカードシリーズがその系統を継いでいる。	しょだいのえくしりむわたんしょーてんだったが、げんざいでわさんばいずーむれんずをとーさいしたえくしりむかーどしりーずがそのけいとーをついでいる。	NO_LABEL
また、派生モデルとしてマニュアル撮影や動画撮影を強化したエクシリムプロシリーズ、ズームレンズを搭載して省電力化を売りにしたエクシリムズームシリーズなどが存在する。	また、はせいもでるとしてまにゅあるさつえいやどーがさつえいをきょーかしたえくしりむぷろしりーず、ずーむれんずをとーさいしてしょーでんりょくかをうりにしたえくしりむずーむしりーずなどがそんざいする。	NO_LABEL
現在発売されている機種の多くはペンタックス製smcレンズを搭載している。	げんざいはつばいされているきしゅのおーくわぺんたっくすせいえすえむしーれんずをとーさいしている。	NO_LABEL
単焦点レンズを搭載した初代エクシリムとその派生機。	たんしょーてんれんずをとーさいしたしょだいえくしりむとそのはせいき。	NO_LABEL
現在はズームレンズ採用のエクシリム・カードシリーズにラインアップされている。	NO_PRONOUNCE	NO_LABEL
以前まではEXILIM CARD、EXILIM ZOOM、EXILIM Hi-ZOOMと分かれていたシリーズが、現在は統合されている。	NO_PRONOUNCE	NO_LABEL
単焦点のSシリーズとほぼ同サイズのボディにズームレンズを組み込んだもの。	NO_PRONOUNCE	NO_LABEL
ボディはステンレス製。	ぼでぃわすてんれすせい。	NO_LABEL
ズームレンズを搭載したシリーズで単焦点レンズを搭載したSシリーズと差別化を行っていたが、CARDシリーズもズームレンズを搭載したために現在ではバッテリーライフや、比較的安価な製品などで差別化を行っている。	NO_PRONOUNCE	NO_LABEL
エクシリム・ズームシリーズと比較して高倍率のズームレンズとCCDシフト方式の手ぶれ補正機能を搭載する。	NO_PRONOUNCE	NO_LABEL
シリーズ初の屈曲式光学ズームを採用したことで高倍率機ながらコンパクトなボディを実現した。	しりーずはつのくっきょくしきこーがくずーむをさいよーしたことでこーばいりつきながらこんぱくとなぼでぃをじつげんした。	NO_LABEL
撮影機能においてはエクシリム・プロのようにシャッタースピード優先、露出優先などの撮影ができる多機能型である。	NO_PRONOUNCE	NO_LABEL
撮影補助機能として、通常のフラッシュの他に携帯電話などに搭載される白色LEDを使用したフォトライトを搭載している。	さつえいほじょきのーとして、つーじょーのふらっしゅのほかにけいたいでんわなどにとーさいされるはくしょくえるいーでぃーをしよーしたふぉとらいとをとーさいしている。	NO_LABEL
EXILIM CARDのように動画撮影を得意としており、V7,V8ではH.264方式でステレオ音声のMPEG4ムービーを撮影できる。	NO_PRONOUNCE	NO_LABEL
コンパクト機では数少ない、動画撮影中に光学ズームを併用した撮影も可能となっている。	こんぱくときでわかずすくない、どーがさつえいちゅーにこーがくずーむをへいよーしたさつえいもかのーとなっている。	NO_LABEL
近年発表のないEXILIM PROの発展型と推測される。	NO_PRONOUNCE	NO_LABEL
公式に「EXILIM Hi-ZOOM」としてラインアップされている機種は「EX-H15」まで。	NO_PRONOUNCE	NO_LABEL
この項目には「EXILIM Hi-ZOOM」として位置づけられたものと、光学ズームが10倍以上のものを掲載する。	NO_PRONOUNCE	NO_LABEL
ハイスピードムービーや一押し30枚連写など、高速撮影に特化したシリーズ。	はいすぴーどむーびーやいちおしさんじゅうまいれんうつしなど、こーそくさつえいにとくかしたしりーず。	NO_LABEL
2008年に初号機であるEX-F1が発売され、以降コンパクトモデルのFCシリーズとフラッグシップモデルのFHシリーズに分かれていたが、2010年にZRシリーズの初号機であるZR10が発売されてからはZRシリーズがメインとなっている。	NO_PRONOUNCE	NO_LABEL
型番に付けられている「S」はゴルファー向けモデルとなる。	NO_PRONOUNCE	NO_LABEL
単焦点レンズを搭載し、ボディの液晶画面とフレーム部分が回転する「エレメントスタイル」を採用したシリーズ。	NO_PRONOUNCE	NO_LABEL
単焦点レンズを搭載し、レンズとモニターが分離されている機種。	たんしょーてんれんずをとーさいし、れんずともにたーがぶんりされているきしゅ。	NO_LABEL
いわゆるアクションカムのような機種で、主にアウトドアでの利用が想定されている。	いわゆるあくしょんかむのよーなきしゅで、おもにあうとどあでのりよーがそーていされている。	NO_LABEL
かつては「EXILIM FR」というブランドで展開していたが、FR100発売後はFR10もEXILIM Outdoor Recorderとして併売されている。	NO_PRONOUNCE	NO_LABEL
耐衝撃・防水・防塵・耐低温性能に特化したシリーズ。	NO_PRONOUNCE	NO_LABEL
シャッタースピード優先、露出優先などの撮影ができる多機能型。	しゃったーすぴーどゆーせん、ろしゅつゆーせんなどのさつえいができるたきのーがた。	NO_LABEL
ズームシリーズの高機能型に吸収統合されており近年新製品は出ていなかったが、高速化を図ったF1が発売された。	ずーむしりーずのこーきのーがたにきゅーしゅーとーごーされておりきんねんしんせいひんわでていなかったが、こーそくかをはかったえふわんがはつばいされた。	NO_LABEL
NECカシオ モバイルコミュニケーションズが開発および製造するEXILIMエンジンfor Mobileを搭載したカメラ付き携帯電話である。	NO_PRONOUNCE	NO_LABEL
au・ソフトバンクモバイル・NTTドコモから販売されるカメラ機能に特化したモデルのみにこの愛称が付いている。	NO_PRONOUNCE	NO_LABEL
携帯電話でありながら高い画素数を持つCMOSが搭載されており、手振れ補正、9点オートフォーカスなどが搭載されている。	けいたいでんわでありながらたかいがそすーをもつしーもすがとーさいされており、てふれほせい、きゅうてんおーとふぉーかすなどがとーさいされている。	NO_LABEL
エクシリムケータイの愛称のない、500万画素以上のデジタルカメラ搭載機種を以下に記す。	えくしりむけーたいのあいしょーのない、ごひゃくまんがそいじょーのでじたるかめらとーさいきしゅをいかにしるす。	NO_LABEL
