渕 正信は、日本のプロレスラー。	ふちまさのぶわ、にっぽんのぷろれすらー。	NO_LABEL
福岡県北九州市戸畑区出身。	ふくおかけんきたきゅーしゅーしとばたくしゅっしん。	NO_LABEL
全日本プロレス所属。	ぜんにほんぷろれすしょぞく。	NO_LABEL
愛称は「フッチー」。	NO_PRONOUNCE	NO_LABEL
八幡大学付属高校時代はレスリングと陸上競技で鍛えあげる。	やはただいがくふぞくこーこーじだいわれすりんぐとりくじょーきょーぎできたえあげる。	NO_LABEL
八幡大学進学も中退し、日本プロレスへ入門を目指し上京するが、列車の中で読んだ九州スポーツで、日プロの崩壊を知り、一旦九州に帰る。	やはただいがくしんがくもちゅーたいし、にほんぷろれすえにゅーもんをめざしじょーきょーするが、れっしゃのなかでよんだきゅーしゅーすぽーつで、にちぷろのほーかいをしり、いったんきゅーしゅーにかえる。	NO_LABEL
その後1974年4月10日に全日本プロレスに入門。	そのごせんきゅうひゃくななじゅうよねんしがつとおかにぜんにほんぷろれすににゅーもん。	NO_LABEL
入門わずか12日で徳島県三好市四国電力横広場での大仁田厚戦でデビュー。	にゅーもんわずかじゅうににちでとくしまけんみよしししこくでんりょくよこひろばでのおおにたあつしせんででびゅー。	NO_LABEL
当時は大仁田とハル薗田と共に若手三羽烏の一人として頭角をあらわしていった。	とーじわおーにたとはるそのだとともにわかてさんばがらすのひとりとしてとーかくをあらわしていった。	NO_LABEL
1980年に海外武者修行に出発、プエルトリコにて大仁田と合流し、1981年3月よりマサ・フチのリングネームでテネシー州メンフィスのCWAに参戦。	NO_PRONOUNCE	NO_LABEL
トージョー・ヤマモトをマネージャーに迎え、大仁田とのコンビでジェリー・ローラー&ビル・ダンディーやロックンロール・エクスプレスとAWA南部タッグ王座を争い、同タイトルを通算3回獲得した。	NO_PRONOUNCE	NO_LABEL
全日本プロレスのレスラーには珍しく、カール・ゴッチより指導を受けている。	ぜんにほんぷろれすのれすらーにわめずらしく、かーるごっちよりしどーをうけている。	NO_LABEL
1983年6月にはチャボ・ゲレロの持つNWAインターナショナル・ジュニアヘビー級王座に挑戦を果たした後に凱旋帰国し、日本で8月31日に再度挑戦するも王座奪取ならず。	NO_PRONOUNCE	NO_LABEL
その後は、ジュニアに転向したマイティ井上や、移籍してきたグラン浜田、マジック・ドラゴン、2代目タイガーマスクらのサポートに回ったり、怪我から復帰してきた大仁田と前座で闘っていたが、2代目タイガーのヘビー級転向を受けて、再度ジュニアの表舞台に立ち、1987年に小林邦昭から世界ジュニアヘビー級王座を初奪取、以降5度同王座を獲得し、ジュニアヘビー級のトップレスラーとしての地位を確立する。	NO_PRONOUNCE	NO_LABEL
その一方で、三沢光晴率いる超世代軍とジャンボ鶴田率いる鶴田軍との抗争では鶴田軍についてメインイベントなどで戦う他、永源遙や大熊元司らと共に悪役商会の一員としてジャイアント馬場、ラッシャー木村らのファミリー軍団と抗争を繰り広げるなど、名バイプレイヤーとして分裂前の全日本を支えた。	そのいっぽーで、みさわみつはるひきいるちょーせだいぐんとじゃんぼつるたひきいるつるたぐんとのこーそーでわつるたぐんについてめいんいべんとなどでたたかうほか、えいげんはるかやおーくまもとしらとともにあくやくしょーかいのいちいんとしてじゃいあんとばば、らっしゃーきむららのふぁみりーぐんだんとこーそーをくりひろげるなど、めいばいぷれいやーとしてぶんれつまえのぜんにほんをささえた。	NO_LABEL
2000年に起こった大量離脱騒動で、中堅レスラーとして活躍していた渕はトップを張らざるを得なくなった。	にせんねんにおこったたいりょーりだつそうどーで、ちゅーけんれすらーとしてかつやくしていたふちわとっぷをはらざるをえなくなった。	NO_LABEL
同年8月の新日本プロレスG1 CLIMAX大会において、渕はスーツ姿でリングに上がり「30年の長い間、全日本プロレスと新日本プロレスとの間には、厚い壁がありました。	NO_PRONOUNCE	NO_LABEL
今日、その壁をぶち破りに来ました。	きょー、そのかべをぶちやぶりにきました。	NO_LABEL
全日本プロレスは選手2人しかいませんが、看板の大きさとプライドは新日本に負けてはいない!」と歴史に残るマイクアピールを行い、新日本プロレス現場責任者の長州力と固い握手を交わした。	NO_PRONOUNCE	NO_LABEL
またこのとき現れた蝶野正洋が「ここはテメェの上がるリングじゃねぇんだオラ! とっとと降りろ!」と激怒して被っていた帽子を投げつけたが渕は余裕綽々の態度を崩さず、蝶野の帰り際には「蝶野、忘れ物だ」と帽子を放り返し、格負けしない振る舞いを見せ付けた。	NO_PRONOUNCE	NO_LABEL
最後には「我々は逃げも隠れもしない! 蝶野、来るなら来い!」「新日本プロレスのファンの皆様、どうも大変お騒がせしました」としめくくったことから、会場からは異例の大「フッチー」コールが沸き起こった。	NO_PRONOUNCE	NO_LABEL
武藤敬司、小島聡らが移籍し、徐々に所属選手も増え団体として活気を徐々に取り戻してくると、再び中堅ベテランレスラーとしてガッチリ脇を固め、リング外ではスポークスマンとして今日まで活躍している。	むとーけいじ、こじまさとしらがいせきし、じょじょにしょぞくせんしゅもふえだんたいとしてかっきをじょじょにとりもどしてくると、ふたたびちゅーけんべてらんれすらーとしてがっちりわきをかため、りんぐがいでわすぽーくすまんとしてきょーまでかつやくしている。	NO_LABEL
大のキティちゃん好きとしても知られ、全日本のスポンサーであるあすなろ舎から作ってもらった世界に一着しかないキティちゃんのガウンを着ての入場は現在の全日前座名物の一つともなっている。	だいのきてぃちゃんすきとしてもしられ、ぜんにほんのすぽんさーであるあすなろしゃからつくってもらったせかいにいちちゃくしかないきてぃちゃんのがうんをきてのにゅーじょーわげんざいのぜんじつぜんざめいぶつのひとつともなっている。	NO_LABEL
結婚経験がなく、『週刊ゴング』や『週刊プロレス』の読者コーナーに度々渕独身ネタが投稿・掲載されることがあるほか、木村からネタにされたことも多い。	NO_PRONOUNCE	NO_LABEL
永源が「渕が結婚しないのは、マザコンだからだよ」とネタにしている。	NO_PRONOUNCE	NO_LABEL
渕が開発した低空ドロップキックの開発は多くのプロレスラー、特にジュニアヘビー級のファイトスタイルに極めて大きな影響を及ぼす。	ふちがかいはつしたていくーどろっぷきっくのかいはつわおーくのぷろれすらー、とくにじゅにあへびーきゅーのふぁいとすたいるにきわめておーきなえいきょーをおよぼす。	NO_LABEL
低空ドロップキックと無数の関節・ストレッチ技、ナックルパートや顔面キック、アトミック・ドロップの体勢からの急所攻撃など、テクニックとラフを兼ね備えた観客を強く刺激するファイトスタイルを確立してジュニアのみならず三沢らヘビー級とも堂々渡り合い、以後渕は「赤鬼」の異名を取った。	NO_PRONOUNCE	NO_LABEL
後述の世界ジュニア最多防衛記録元保持者であったが故に、TAKAみちのくが14度目の防衛の対戦相手として決めていたのが渕であったり、前保持者近藤修司が執拗に渕との世界ジュニア戦を要求していたなど、全日本ジュニアでの影響力は依然衰えていないが、体力的な衰えは隠せず、菊タロー、荒谷と共にお笑いスタイルの第一試合で興行を暖める役に徹している。	こーじゅつのせかいじゅにあさいたぼーえいきろくもとほじしゃであったがゆえに、たかみちのくがじゅうよんどめのぼーえいのたいせんあいてとしてきめていたのがふちであったり、ぜんほじしゃこんどーしゅーじがしつよーにふちとのせかいじゅにあせんをよーきゅーしていたなど、ぜんにほんじゅにあでのえいきょーりょくわいぜんおとろえていないが、たいりょくてきなおとろえわかくせず、きくたろー、あらやとともにおわらいすたいるのだいいちしあいでこーぎょーをあたためるやくにてっしている。	NO_LABEL
なお、菊タローにはシングルで1度も負けていない。	なお、きくたろーにわしんぐるでいちどもまけていない。	NO_LABEL
渕は和田京平レフェリーと共に、団体生え抜きの人物として全日本プロレスの看板を守り通す重鎮でもあったが、2009年より全日本プロレスの所属レスラーとしての契約をしていない事と同社取締役を同年に辞任していた事が判明し、以降フリーランスの立場で全日本プロレスに参戦していた。	ふちわわだきょーへいれふぇりーとともに、だんたいはえぬきのじんぶつとしてぜんにほんぷろれすのかんばんをまもりとーすじゅーちんでもあったが、にせんきゅうねんよりぜんにほんぷろれすのしょぞくれすらーとしてのけいやくをしていないこととどーしゃとりしまりやくをどーねんにじにんしていたことがはんめいし、いこーふりーらんすのたちばでぜんにほんぷろれすにさんせんしていた。	NO_LABEL
契約的には問題が無いため、他団体への出場も可能で、実際にオファーも来ていたが、他団体の興行には出場せず、全日本プロレスの興行にのみ出場している。	けいやくてきにわもんだいがないため、ただんたいえのしゅつじょーもかのーで、じっさいにおふぁーもきていたが、ただんたいのこーぎょーにわしゅつじょーせず、ぜんにほんぷろれすのこーぎょーにのみしゅつじょーしている。	NO_LABEL
「全日本プロレスが消滅したら、引退する」と公言もしているほど、全日本愛は誰にも負けない。	NO_PRONOUNCE	NO_LABEL
2013年7月14日、全日本プロレス取締役相談役の就任を発表。	にせんじゅうさんねんしちがつじゅうよっか、ぜんにほんぷろれすとりしまりやくそーだんやくのしゅーにんをはっぴょー。	NO_LABEL
2014年還暦記念特別試合を1月に3月には40周年特別記念試合を行った。	にせんじゅうよねんかんれききねんとくべつしあいをいちがつにさんがつにわよんじゅうしゅーねんとくべつきねんしあいをおこなった。	NO_LABEL
12月14日、後楽園ホールで行われた全日本プロレス「和田京平レフェリー40周年&還暦記念大会〜和田京平プロデュース〜」では青木篤志の持つ世界ジュニアヘビー級選手権に5年ぶりに挑戦し、20分以上闘ったが青木の肩固めでギブアップ負けした。	NO_PRONOUNCE	NO_LABEL
