テクノスジャパンは、	てくのすじゃぱんわ、	NO_LABEL
三者の間に関係はない。	さんしゃのまにかんけいわない。	NO_LABEL
以下では、2.について記す。	NO_PRONOUNCE	NO_LABEL
株式会社テクノスジャパン は、1981年から1996年にかけて存在した日本のゲームソフトウェア開発会社。	かぶしきがいしゃてくのすじゃぱんわ、せんきゅうひゃくはちじゅういちねんからせんきゅうひゃくきゅうじゅうろくねんにかけてそんざいしたにっぽんのげーむそふとーぇあかいはつかいしゃ。	NO_LABEL
データイーストの専務だった瀧邦夫を中心としたデータイーストの元スタッフによって1981年に設立。	でーたいーすとのせんむだったたきくにおをちゅーしんとしたでーたいーすとのもとすたっふによってせんきゅうひゃくはちじゅういちねんにせつりつ。	NO_LABEL
ただし、1982年にはデータイースト製「プロテニス」のコピー基板を製造販売したとして訴訟を起こされ、またその際「データイースト社内からデータが盗難された」旨の主張があったことから、必ずしも両者の関係は友好的ではなかったとみられる。	NO_PRONOUNCE	NO_LABEL
なお訴訟は翌年8月、テクノスジャパンほか1社が謝罪し和解した。	NO_PRONOUNCE	NO_LABEL
『くにおくんシリーズ』により、一躍ヒットメーカーとなり横スクロール格闘アクションゲームのブームを作る。	NO_PRONOUNCE	NO_LABEL
一般的な呼び方は「テクノス」で、社名ロゴやテレビ・コマーシャルでも略称のテクノスという名前が強調された。	NO_PRONOUNCE	NO_LABEL
「ゲームをシステムと捉え、+aとなる要素を付け足して1+1=3にする」という姿勢で、同じシステムを使い回すような単なる続編は作らなかった。	NO_PRONOUNCE	NO_LABEL
また、キャラクターの名前は社員から採られることがあった。	また、きゃらくたーのなまえわしゃいんからとられることがあった。	NO_LABEL
『熱血硬派』というタイトルで開発が進められていた作品には大ヒットするという確信があったようで、社長の名前に因み『くにおくん』と付けた。	NO_PRONOUNCE	NO_LABEL
1986年にアーケードゲームとして発売した『熱血硬派くにおくん』は予想通りにヒットし、家庭用ゲーム機に場を移すなどして後々シリーズ化していくことになった。	NO_PRONOUNCE	NO_LABEL
本社は創業当初、東京都新宿区西新宿にあり、のちに同区歌舞伎町へ移転。	ほんしゃわそーぎょーとーしょ、とーきょーとしんじゅくくにししんじゅくにあり、のちにどーくかぶきちょーえいてん。	NO_LABEL
1992年には中野区新井に自社ビルとして「テクノス中野ビル」を建設し、移転した。	NO_PRONOUNCE	NO_LABEL
しかし『くにおくんシリーズ』に頼りすぎたため、ゲーム機の進化についていけず新たなヒット作に恵まれなかった。	NO_PRONOUNCE	NO_LABEL
このため、バブルの頃をピークに売上が低調に推移し、本社建設費が利益を圧迫しはじめ、経営不振に陥る。	このため、ばぶるのころをぴーくにうりあげがていちょーにすいいし、ほんしゃけんせつひがりえきをあっぱくしはじめ、けいえいふしんにおちいる。	NO_LABEL
1995年12月15日には事務所が閉鎖し事実上の業務停止。	せんきゅうひゃくきゅうじゅうごねんじゅーにがつじゅうごにちにわじむしょがへいさしじじつじょーのぎょーむていし。	NO_LABEL
1996年初頭に倒産した。	せんきゅうひゃくきゅうじゅうろくねんしょとーにとーさんした。	NO_LABEL
かつての自社ビルはオーナーやテナントが変わった後も長年そのままの名称で存在していたが、2013年10月1日をもってビル名称が「いちご中野ノースビル」に変更された。	NO_PRONOUNCE	NO_LABEL
テクノスジャパンの倒産後、『くにおくんシリーズ』の版権はミリオンへ移動し、アトラスやアークシステムワークスが移植作を発売していた。	NO_PRONOUNCE	NO_LABEL
2015年6月12日付で、ミリオンが保有していた『くにおくんシリーズ』等のテクノスジャパン関連の版権は全てアークシステムワークスに譲渡され、これにより、アークシステムワークスがテクノスジャパンのタイトルの版権を保持する事になった。	NO_PRONOUNCE	NO_LABEL
同日よりアークシステムワークス運営のテクノス公式サイトが仮オープンし、同年8月11日に本サイトが正式オープンした。	どーじつよりあーくしすてむわーくすうんえいのてくのすこーしきさいとがかりおーぷんし、どーねんはちがつじゅういちにちにほんさいとがせいしきおーぷんした。	NO_LABEL
