Conaryはフリーソフトウェア / オープンソースのパッケージ管理システムである。	NO_PRONOUNCE	NO_LABEL
レッドハットの元社員が設立したrPath社によって開発された。	NO_PRONOUNCE	NO_LABEL
分散されたオンラインリポジトリに対して、依存関係を自動的に解決するパッケージインストールに焦点を合わせている。	ぶんさんされたおんらいんりぽじとりにたいして、いぞんかんけいをじどーてきにかいけつするぱっけーじいんすとーるにしょーてんをあわせている。	NO_LABEL
Foresight LinuxとrPath Linuxで採用されている。	NO_PRONOUNCE	NO_LABEL
ConaryはRPM、CVS、Portageなどの優れた点を集め、さらにいくつか優れた機能を追加し、明解なリビジョン・コントロールを行う先進的な次世代パッケージ管理システムである。	NO_PRONOUNCE	NO_LABEL
Conaryはアップデートされる必要があるパッケージにおいて特定のファイルだけをアップデートする。	NO_PRONOUNCE	NO_LABEL
この振る舞いは回線使用量とソフトウェアパッケージのアップデートに必要な時間を最小化する。	このふるまいわかいせんしよーりょうとそふとうぇあぱっけーじのあっぷでーとにひつよーなじかんをさいしょーかする。	NO_LABEL
このConaryの振る舞いはRPMやDEBなどパッケージ全体がダウンロードされる他のファイルフォーマットとは対照をなしている。	NO_PRONOUNCE	NO_LABEL
