リリパットアーミーIIは、日本の劇団。	NO_PRONOUNCE	NO_LABEL
座長はわかぎゑふ。	ざちょーわわかぎえふ。	NO_LABEL
1986年中島らも主催・笑殺軍団リリパットアーミーとして設立。	NO_PRONOUNCE	NO_LABEL
当時のメンバーとして桂吉朝、松尾貴史、チチ松村などが参加。	とーじのめんばーとしてかつらきっちょー、まつおたかし、ちちまつむらなどがさんか。	NO_LABEL
その後、リリパットアーミーに改名し、設立時から参加していたわかぎゑふらも加わる。	そのご、りりぱっとあーみーにかいめいし、せつりつじからさんかしていたわかぎえふらもくわわる。	NO_LABEL
2003年、わかぎゑふが2代目座長を継ぎ、リリパットアーミーIIに改名。	NO_PRONOUNCE	NO_LABEL
2003年	にせんさんねん	NO_LABEL
2004年	にせんよねん	NO_LABEL
2005年	にせんごねん	NO_LABEL
2006年	にせんろくねん	NO_LABEL
2007年	にせんななねん	NO_LABEL
2008年	にせんはちねん	NO_LABEL
リリパットアーミーII座長わかぎゑふが1994年に作った演劇ユニット。	NO_PRONOUNCE	NO_LABEL
20世紀の大阪の人情劇を中心に描かれている。	にじっせいきのおーさかのにんじょーげきをちゅーしんにえがかれている。	NO_LABEL
大阪の芝居らしい「お」で始まるタイトルでも有名。	NO_PRONOUNCE	NO_LABEL
繰り返し何度も上演されても観客を動員することから関西小劇場界のネオ商業演劇といわれている。	くりかえしなんどもじょーえんされてもかんきゃくをどーいんすることからかんさいしょーげきじょーかいのねおしょーぎょーえんげきといわれている。	NO_LABEL
2001年「お祝い」でわかぎゑふが大阪府舞台芸術賞奨励賞を受賞。	NO_PRONOUNCE	NO_LABEL
1994年	せんきゅうひゃくきゅうじゅうよねん	NO_LABEL
1995年	せんきゅうひゃくきゅうじゅうごねん	NO_LABEL
1997年	せんきゅうひゃくきゅうじゅうなな	NO_LABEL
2000年	にせんねん	NO_LABEL
2001年	にせんいちねん	NO_LABEL
2002年	にせんにねん	NO_LABEL
2003年	にせんさんねん	NO_LABEL
2004年	にせんよねん	NO_LABEL
2005年	にせんごねん	NO_LABEL
2006年	にせんろくねん	NO_LABEL
2007年	にせんななねん	NO_LABEL
2008年	にせんはちねん	NO_LABEL
2009年	にせんきゅうねん	NO_LABEL
玉造小劇店	たまつくりしょーげきてん	NO_LABEL
