『To LOVEる -とらぶる-』は、矢吹健太朗・長谷見沙貴による日本の漫画、およびそれを原作とするアニメ。	NO_PRONOUNCE	NO_LABEL
本項では、本作品のスピンオフ作品、『To LOVEる -とらぶる- ダークネス』についても説明する。	NO_PRONOUNCE	NO_LABEL
男子高校生・結城梨斗を主人公とし、三角関係を軸に展開されたラブコメディ作品。	NO_PRONOUNCE	NO_LABEL
『週刊少年ジャンプ』において、2006年21・22号から2009年40号まで連載された。	NO_PRONOUNCE	NO_LABEL
全162話。	ぜんひゃくろくじゅうにわ。	NO_LABEL
単行本は全18巻で、累計発行部数は700万部を超える。	たんこーぼんわぜんじゅうはちかんで、るいけいはっこーぶすーわななひゃくまんぶをこえる。	NO_LABEL
また、矢吹はこの作品について2016年に、「最近はラブコメというよりなんか別物になりつつある漫画を描いている」と語ったこともある。	NO_PRONOUNCE	NO_LABEL
ヒロインであるララや春菜はもちろん、登場する女性キャラクターのほとんどが、美女・美少女として描かれているのが特徴。	NO_PRONOUNCE	NO_LABEL
メディアミックスも展開され、2008年4月から9月までテレビアニメ第1期が放送された。	めでぃあみっくすもてんかいされ、にせんはちねんしがつからくがつまでてれびあにめだいいっきがほーそーされた。	NO_LABEL
テレビアニメ放送終了後の2009年からは、単行本限定版同梱のOVAが発売されている。	てれびあにめほーそーしゅーりょーごのにせんきゅうねんからわ、たんこーほんげんていばんどーこんのおーぶいえーがはつばいされている。	NO_LABEL
連載終了後の2010年には『もっとTo LOVEる -とらぶる-』のタイトルで再度テレビアニメ化され、同年10月から12月まで放送された。	NO_PRONOUNCE	NO_LABEL
前作の『BLACK CAT』に似た設定が一部に見受けられる。	NO_PRONOUNCE	NO_LABEL
物語は基本的に1～2話完結であるが、『とらぶるクエスト』編は6話構成となった。	NO_PRONOUNCE	NO_LABEL
少年誌の限界ともいえる過激なお色気の描写が多く、特に単行本では本誌掲載時のものから修正が外され、より過激になっている。	しょーねんしのげんかいともいえるかげきなおいろけのびょーしゃがおーく、とくにたんこーほんでわほんしけいさいじのものからしゅーせいがはずされ、よりかげきになっている。	NO_LABEL
それ故、海外版単行本では現地出版社において再修正のうえ発行されている場合がある。	それこ、かいがいばんたんこーほんでわげんちしゅっぱんしゃにおいてさいしゅーせいのうえはっこーされているばあいがある。	NO_LABEL
海外でも翻訳されて単行本が発売されているが、過激な描写が多いため、香港では購入に際して年齢制限が設けられ、台湾では現地で修正された上で発売されている。	かいがいでもほんやくされてたんこーほんがはつばいされているが、かげきなびょーしゃがおーいため、ほんこんでわこーにゅーにさいしてねんれいせいげんがもーけられ、たいわんでわげんちでしゅーせいされたうえではつばいされている。	NO_LABEL
日本でも、『赤マルジャンプ』2007 WINTERの付録として「To LOVEる -とらぶる- ミニイラスト集」がついてきた際、イラスト集の最終ページに描かれたララと春菜の入浴シーンで、イラストの大部分が泡で隠されるという自主規制がなされた。	NO_PRONOUNCE	NO_LABEL
ジャンプSQ.編集部によるとダークネス単行本1巻から16巻までで登場した乳首の総数は1601個で、左乳首は797個、右乳首は804個であった。	NO_PRONOUNCE	NO_LABEL
キャラ別では1位はモモの249個、2位はララの200個、3位はメアの141個で、リトは8個であった。	NO_PRONOUNCE	NO_LABEL
『ジャンプスクエア』2010年11月号から2017年4月号まで、スピンオフ作品『To LOVEる -とらぶる- ダークネス』が連載。	NO_PRONOUNCE	NO_LABEL
『TL』に引き続き、矢吹健太朗、長谷見沙貴が制作を担当する。	NO_PRONOUNCE	NO_LABEL
また、季刊誌『ジャンプSQ.19』2010年冬号から2014年8月発売のVol.15まで『To LOVEる -とらぶる- ダークネス 番外編』が連載された。	NO_PRONOUNCE	NO_LABEL
ただし「スピンオフ」と銘打っているものの、実質的には『TL』の正当な続編となっている。	NO_PRONOUNCE	NO_LABEL
主人公はリトとモモの2人になっており、三角関係を主軸に据えた『TL』とはやや路線が異なり、「バトル路線」と「ハーレム路線」の2つを軸に据えた話が展開される。	NO_PRONOUNCE	NO_LABEL
また、青年層も対象読者に含めているジャンプスクエアに移籍したために、女性キャラクターのお色気の描写は『TL』よりも過激になっている。	NO_PRONOUNCE	NO_LABEL
2014年、福島県で9巻のみ青少年保護育成条例に基づく有害図書に指定された。	にせんじゅうよねん、ふくしまけんできゅうかんのみせいしょーねんほごいくせいじょーれいにもとずくゆーがいとしょにしていされた。	NO_LABEL
福島県条例による有害図書指定に伴い、Amazon.co.jpやHOBBY STOCKなどでは、１８歳未満者への関連商品の販売を自粛する措置が行われている。	NO_PRONOUNCE	NO_LABEL
2017年3月時点で、本作と前作『To LOVEる -とらぶる-』を合わせた単行本のシリーズ累計発行部数は1600万部を超えている。	NO_PRONOUNCE	NO_LABEL
2012年10月から12月までTVアニメ第1期が、2015年7月から10月までTVアニメ第2期が放送された。	にせんじゅうにねんじゅーがつからじゅーにがつまでてれびあにめだいいっきが、にせんじゅうごねんしちがつからじゅーがつまでてれびあにめだいにきがほーそーされた。	NO_LABEL
作中でララが発明した機械。	さくちゅーでららがはつめいしたきかい。	NO_LABEL
発明品の名称は、一部を除き「擬態語もしくは擬音語の繰り返し+機能に関連する英語+くん」で統一されている。	NO_PRONOUNCE	NO_LABEL
意図した機能を発揮することを前提に作られているのだが、計算通りの機能を果たしたとしても効果が強力すぎたり、服が脱げたりするといった欠点を抱えている品が多く、作中でトラブルを引き起こす原因になることもしばしば。	いとしたきのーをはっきすることをぜんていにつくられているのだが、けいさんどーりのきのーをはたしたとしてもこーかがきょーりょくすぎたり、ふくがぬげたりするといったけってんをかかえているしながおーく、さくちゅーでとらぶるをひきおこすげんいんになることもしばしば。	NO_LABEL
リトからは「どこか抜けてるけど何かすごい」と評されている。	NO_PRONOUNCE	NO_LABEL
全てアニメ第1期に登場。	すべてあにめだいいっきにとーじょー。	NO_LABEL
いずれも、漫画：矢吹健太朗・脚本：長谷見沙貴。	NO_PRONOUNCE	NO_LABEL
集英社の〈ジャンプ・コミックス〉より発行。	NO_PRONOUNCE	NO_LABEL
『TL』単行本の表紙は、女性キャラクターがメインとして大きく描かれ、その付近にリトが小さく描かれる構成となっている。	NO_PRONOUNCE	NO_LABEL
ただし、第14巻の限定版の表紙だけはリトと美柑がペアでともに大きく描かれている。	ただし、だいじゅうよんかんのげんていばんのひょーしだけわりととみかんがぺあでともにおーきくえがかれている。	NO_LABEL
おまけとして、矢吹と長谷見の2人が各キャラクターの裏設定を説明するコーナーが収録されているほか、長谷見によるザスティンを主役とした小説が掲載された巻もある。	おまけとして、やぶきとはせみのふたりがかくきゃらくたーのうらせっていをせつめいするこーなーがしゅーろくされているほか、はせみによるざすてぃんをしゅやくとしたしょーせつがけいさいされたまきもある。	NO_LABEL
2007年42号で発売を発表、2008年2月29日発売。	NO_PRONOUNCE	NO_LABEL
ISBN 9784089011614。	NO_PRONOUNCE	NO_LABEL
特典としてジャケットの絵をあしらったポストカードと、初回限定版には描き下ろしのミニクリアファイルが同封された。	とくてんとしてじゃけっとのえをあしらったぽすとかーどと、しょかいげんていばんにわえがきおろしのみにくりあふぁいるがどーふーされた。	NO_LABEL
原作話数の太字はサブタイトルが一致している話数を示す。	げんさくはなしすーのふとじわさぶたいとるがいっちしているはなしすーをしめす。	NO_LABEL
『TL』第27話でリトが誕生日を迎え、第49話で登場人物が進級したが、第107話では作中の季節が秋から夏に戻るという展開がなされた。	NO_PRONOUNCE	NO_LABEL
作中でもリトが「この前まで秋だったような」と気にしていたが、ララから「細かい事は気にしない」と言われている。	NO_PRONOUNCE	NO_LABEL
金色の闇や霧崎恭子など、矢吹の前作『BLACK CAT』の登場人物をモデルにした人物が作中に登場している。	NO_PRONOUNCE	NO_LABEL
一方で、『TL』終了後に矢吹が連載した漫画『迷い猫オーバーラン!』には本作品のキャラクターがゲスト出演しており、また漫画版『迷い猫オーバーラン!』第4話では主人公の都築巧が「ちょっとしたTo Loveる」と発言する場面がある。	NO_PRONOUNCE	NO_LABEL
『週刊少年ジャンプ』連載の他作品とコラボレーションしたこともあり、『赤マルジャンプ』2007 SPRINGの表紙では、ララと『銀魂』の神楽が互いの衣装を交換した。	NO_PRONOUNCE	NO_LABEL
また、週刊少年ジャンプ2010年05・06号では『いぬまるだしっ』とのコラボ企画「To Loveるだしっ」が掲載された。	NO_PRONOUNCE	NO_LABEL
この企画では、ララの発明品「とらぶるトラベラー」の力でリトとララが『いぬまるだしっ』の世界に出現している。	NO_PRONOUNCE	NO_LABEL
メディアミックスを受けてグッズが多数制作・発売されているが、アニメ化が発表される前の2007年の夏に開催された「ワンダーフェスティバル2007夏」で1/8スケールのララのフィギュアが展示されたことがある。	NO_PRONOUNCE	NO_LABEL
このフィギュアは同年12月21日よりジャンプショップなどで発売された。	このふぃぎゅあわどーねんじゅーにがつにじゅういちにちよりじゃんぷしょっぷなどではつばいされた。	NO_LABEL
2016年5月25日には作品の10周年を記念し、コミックとらのあなにてモモの実物大フィギュアが10体限定の受注生産で販売された	NO_PRONOUNCE	NO_LABEL
『TRANS BOY』は、矢吹健太朗が『週刊少年ジャンプ』2004年37・38合併号に掲載した読切で、『TL』のプロトタイプとなった作品。	NO_PRONOUNCE	NO_LABEL
公式データブック『ぱ～ふぇくとらぶる!』に収録されている。	NO_PRONOUNCE	NO_LABEL
「主人公である平凡な男子高校生と宇宙の天才少女が出会う」という導入部は『TL』と同じだが、ヒロイン「北条ララ」の性格などに多少の差異がある。	NO_PRONOUNCE	NO_LABEL
内容は『TL』よりもバトル漫画に近く、ラブコメディの『TL』とは作風が異なるが、『TL』も当初は「リトと他の婚約者候補の戦いを描く」というバトル漫画になる予定であったことが後に語られている。	NO_PRONOUNCE	NO_LABEL
制作期間が2週間と短く、矢吹にとって若干不本意な作品となったが、ヒロインの北条ララだけは「描いてて楽しかった」ことから、後の『TL』へと繋がった。	NO_PRONOUNCE	NO_LABEL
以下の出典は『集英社BOOK NAVI』内のページ。	NO_PRONOUNCE	NO_LABEL
書誌情報の発売日の出典としている。	しょしじょうほーのはつばいびのしゅってんとしている。	NO_LABEL
