コンソン島は、南シナ海にあるコンダオ諸島内の島。	こんそんとーわ、みなみしなかいにあるこんだおしょとーないのしま。	NO_LABEL
ベトナムのバリア＝ブンタウ省に属し、12の島群からなる同諸島の中でも最大規模を誇る。	NO_PRONOUNCE	NO_LABEL
ブンタウから約185キロ、ホーチミン市から230キロ離れ、主島の最高点は584メートル、面積は75.15平方キロ。	NO_PRONOUNCE	NO_LABEL
同島は早くから西洋に認識されており、クラウディオス・プトレマイオスの著書『』にはその名が示されている。	NO_PRONOUNCE	NO_LABEL
また、マルコ・ポーロもコンドール島の名で記録を残している。	また、まるこぽーろもこんどーるとーのなできろくをのこしている。	NO_LABEL
1702年、イギリス東インド会社が同島がベトナムの影響下にないことを確認し支配下に置いたが、1705年3月にスラウェシ島からの傭兵の攻撃を受け壊滅する。	せんななひゃくにねん、いぎりすひがしいんどがいしゃがどーとーがべとなむのえいきょーかにないことをかくにんししはいかにおいたが、せんななひゃくごねんさんがつにすらうぇしとーからのよーへいのこーげきをうけかいめつする。	NO_LABEL
1787年、ルイ16世は復権を狙う広南国の末裔グエン・フック・アインとヴェルサイユ条約を締結。	NO_PRONOUNCE	NO_LABEL
軍事的協力と引き換えに同島の支配権を獲得した。	ぐんじてききょーりょくとひきかえにどーとーのしはいけんをかくとくした。	NO_LABEL
フランスはこの島をプロコンドール島と命名し、1861年を開設。	ふらんすわこのしまをぷろこんどーるとーとめいめいし、せんはっぴゃくろくじゅういちねんをかいせつ。	NO_LABEL
独立運動を展開した政治犯の流刑地に利用した。	どくりつうんどーをてんかいしたせいじはんのるけいちにりよーした。	NO_LABEL
著名な収監者にはファム・ヴァン・ドンやレ・ドゥク・ト、ヴォー・ティ・サウがいる。	NO_PRONOUNCE	NO_LABEL
1954年に同刑務所はベトナム国政府、続くベトナム共和国の管轄となり、ベトナム戦争中にはベトナム民主共和国側の捕虜や協力者が多数収監された。	せんきゅうひゃくごじゅうよねんにどーけいむしょわべとなむこくせいふ、つずくべとなむきょーわこくのかんかつとなり、べとなむせんそーちゅーにわべとなむみんしゅきょーわこくがわのほりょやきょーりょくしゃがたすーしゅーかんされた。	NO_LABEL
現在はココヤシやコーヒー豆の栽培が行われる。	げんざいわここやしやこーひーまめのさいばいがおこなわれる。	NO_LABEL
ホーチミン市との間に定期船が通い、空港も開設されている。	ほーちみんしとのまにていきせんがかよい、くーこーもかいせつされている。	NO_LABEL
自然が豊かなことで知られており、2013年にはロンリープラネットにて「世界でも最も神秘的な島トップ9」の一つに選定された。	NO_PRONOUNCE	NO_LABEL
