藤木 大地は、日本の声楽家，カウンターテナー歌手である。	NO_PRONOUNCE	NO_LABEL
所属事務所はAMATI。	NO_PRONOUNCE	NO_LABEL
宮崎県に生まれる。	みやざきけんにうまれる。	NO_LABEL
宮崎大学教育学部附属中学校時代に合唱部に所属し，宮崎県立宮崎大宮高等学校入学後はテノールとして声楽を始める。	NO_PRONOUNCE	NO_LABEL
東京藝術大学音楽学部声楽科卒業後，新国立劇場オペラ研修所第5期生修了。	NO_PRONOUNCE	NO_LABEL
2003年、新国立劇場にテノールとしてデビュー。	にせんさんねん、しんこくりつげきじょーにてのーるとしてでびゅー。	NO_LABEL
2011年、カウンターテナーに声種を転向する。	にせんじゅういちねん、かうんたーてなーにこえしゅをてんこーする。	NO_LABEL
2012年、第81回日本音楽コンクール声楽部門にて優勝を収める。	にせんじゅうにねん、だいはちじゅういっかいにっぽんおんがくこんくーるせいがくぶもんにてゆーしょーをおさめる。	NO_LABEL
2013年、ボローニャ歌劇場、日生劇場にデビュー。	にせんじゅうさんねん、ぼろーにゃかげきじょー、にっせいげきじょーにでびゅー。	NO_LABEL
ウィーン国立歌劇場と日本人カウンターテナーとして初めて、客演契約を結ぶ。	うぃーんこくりつかげきじょーとにっぽんじんかうんたーてなーとしてはじめて、きゃくえんけいやくをむすぶ。	NO_LABEL
2014年、NHKニューイヤーオペラコンサートに初出演。	にせんじゅうよねん、えぬえいちけーにゅーいやーおぺらこんさーとにはつしゅつえん。	NO_LABEL
2015年、NHKニューイヤーオペラコンサートに２年連続出演。	にせんじゅうごねん、えぬえいちけーにゅーいやーおぺらこんさーとににねんれんぞくしゅつえん。	NO_LABEL
ウィーン国立歌劇場と２シーズン連続の客演契約を結ぶ。	うぃーんこくりつかげきじょーとにしーずんれんぞくのきゃくえんけいやくをむすぶ。	NO_LABEL
第19回松方ホール音楽賞を、カウンターテナーとして初めて受賞。	だいじゅうきゅうかいまつかたほーるおんがくしょーを、かうんたーてなーとしてはじめてじゅしょー。	NO_LABEL
2016年、NHKニューイヤーオペラコンサートに3年連続出演。	にせんじゅうろくねん、えぬえいちけーにゅーいやーおぺらこんさーとにさんねんれんぞくしゅつえん。	NO_LABEL
第25回青山音楽賞青山賞を受賞。	だいにじゅうごかいあおやまおんがくしょーあおやましょーをじゅしょー。	NO_LABEL
兵庫県立芸術文化センターに主演。	ひょーごけんりつげいじゅつぶんかせんたーにしゅえん。	NO_LABEL
題名のない音楽会を歌唱。	だいめいのないおんがくかいをかしょー。	NO_LABEL
2017年、NHKニューイヤーオペラコンサートに4年連続出演。	にせんじゅうななねん、えぬえいちけーにゅーいやーおぺらこんさーとによんねんれんぞくしゅつえん。	NO_LABEL
ウィーン国立歌劇場と3シーズン連続の客演契約を結び、2016/2017シーズンにアリベルト・ライマン作曲のメデアにおけるヘロルド役で、日本人カウンターテナーとして史上初めて同歌劇場にデビューすることが、2016年4月6日にウィーン国立歌劇場のマーラーザールで行われた記者会見で発表された。	NO_PRONOUNCE	NO_LABEL
4月にキングインターナショナルよりファーストソロCD（共演は福田進一	NO_PRONOUNCE	NO_LABEL
