のMLBオールスターゲームはアメリカンリーグとナショナルリーグの間で行われた53回目のオールスターゲームである。	のえむえるびーおーるすたーげーむわあめりかんりーぐとなしょなるりーぐのまでおこなわれたごじゅうさんかいめのおーるすたーげーむである。	NO_LABEL
1982年7月13日にモントリオール・エクスポズの本拠地オリンピック・スタジアムで行われた。	せんきゅうひゃくはちじゅうにねんしちがつじゅうさんにちにもんとりおーるえくすぽずのほんきょちおりんぴっくすたじあむでおこなわれた。	NO_LABEL
試合結果は1 - 4でナショナルリーグが勝利した。	NO_PRONOUNCE	NO_LABEL
MVPは2回に勝ち越し2点本塁打を放ったデーブ・コンセプシオンが受賞した。	えむぶいぴーわにかいにかちこしにてんほんるいだをはなったでーぶこんせぷしおんがじゅしょーした。	NO_LABEL
先発は野手はファンの投票、投手は各チームの監督によって選ばれた。	せんぱつわやしゅわふぁんのとーひょー、とーしゅわかくちーむのかんとくによってえらばれた。	NO_LABEL
