『Happy Sunday ココSmile』は、2009年4月4日から2011年3月27日までくまもと県民テレビで放送されていた情報番組。	NO_PRONOUNCE	NO_LABEL
略称「ココスマ」。	NO_PRONOUNCE	NO_LABEL
放送開始から2010年3月までは『Happy空間三年坂 ココSmile』というタイトルで放送されていた。	NO_PRONOUNCE	NO_LABEL
番組終了時の放送時間は毎週日曜日 10:30 - 11:25。	NO_PRONOUNCE	NO_LABEL
熊本県内のグルメ情報・ファッション情報・行楽情報など、地域のトレンド情報を取り上げていた情報番組である。	NO_PRONOUNCE	NO_LABEL
この他に、就職活動の応援企画や新社会人をテーマにした企画など、熊本の若者を応援する企画も実施していた。	このほかに、しゅーしょくかつどーのおーえんきかくやしんしゃかいじんをてーまにしたきかくなど、くまもとのわかものをおーえんするきかくもじっししていた。	NO_LABEL
本番組は収録番組で、熊本市にある商業施設「カリーノ下通」内の蔦屋書店熊本三年坂のイベントスペースで週に1回番組の公開収録が行われていた。	NO_PRONOUNCE	NO_LABEL
公開収録には、番組MCの田中洋平とKKTアナウンサーの畑中香保里のほか、番組レギュラーの古澤栄基と広崎みさのいずれか1人が加わっていた。	こーかいしゅーろくにわ、ばんぐみえむしーのたなかよーへいとけーけーてぃーあなうんさーのはたなかかほりのほか、ばんぐみれぎゅらーのふるさわえいきとひろさきみさのいずれかひとりがくわわっていた。	NO_LABEL
本番組は取材VTRも含めて全てハイビジョン制作となっており、アナログ放送ではレターボックス形式で放送されていた。	ほんばんぐみわしゅざいぶいてぃーあーるもふくめてすべてはいびじょんせいさくとなっており、あなろぐほうそーでわれたーぼっくすけいしきでほーそーされていた。	NO_LABEL
ただし、ピラーボックス化したのは2009年6月6日放送分からである。	ただし、ぴらーぼっくすかしたのわにせんきゅうねんろくがつむいかほーそーぶんからである。	NO_LABEL
放送開始から半年間は土曜日 11:35 - 12:00に放送されていたが、2009年秋の改編で放送日時が日曜日 11:45 - 12:30に変更。	NO_PRONOUNCE	NO_LABEL
同時に放送時間も20分拡大されて45分番組になった。	どーじにほーそーじかんもにじゅっぷんかくだいされてよんじゅうごふんばんぐみになった。	NO_LABEL
放送時間の拡大によって新コーナーの「素敵ジョシへの道」などがスタートし、同時にスタジオセットも変更された。	NO_PRONOUNCE	NO_LABEL
さらにそれから半年後の2010年4月4日、番組タイトルが『Happy Sunday ココSmile』に変更された。	NO_PRONOUNCE	NO_LABEL
また、放送時間が1時間15分前倒しの10:30 - 11:25になり、放送時間も10分拡大されて55分番組になった。	NO_PRONOUNCE	NO_LABEL
「ココスマ調査隊」などの新しいコーナーや企画がスタートし、新たに8名のレギュラー出演者が起用された。	NO_PRONOUNCE	NO_LABEL
熊本県宇城市出身のシンガーソングライター・際田まみが番組テーマソングやCM前に流すサウンドロゴを担当している。	NO_PRONOUNCE	NO_LABEL
オープニング・エンディングテーマ曲は以下の通り。	NO_PRONOUNCE	NO_LABEL
