エンヤはアイルランドの歌手・作曲家・音楽家。	NO_PRONOUNCE	NO_LABEL
レコーディングでは様々な楽器を自身で演奏するマルチプレイヤーでもある。	れこーでぃんぐでわさまざまながっきをじしんでえんそーするまるちぷれいやーでもある。	NO_LABEL
アイルランドの伝統的な文脈の上で、テクノロジーを活かした作曲を行っている。	あいるらんどのでんとーてきなぶんみゃくのうえで、てくのろじーをいかしたさっきょくをおこなっている。	NO_LABEL
144チャンネルのデジタル・マルチトラック・レコーダを活かした、壁のように立ちはだかる多重コーラスが特徴的である。	NO_PRONOUNCE	NO_LABEL
"Orinoco Flow"の世界的大ヒットにより、ニューエイジ・ミュージック・ブームの火付け役となった。	NO_PRONOUNCE	NO_LABEL
ケルト音楽に影響を受けて独自の音楽を展開する女性ミュージシャンであり、音楽プロデューサーを務めるニッキー・ライアンと、その妻であり歌詞を手掛けるローマ・ライアンとの共同プロジェクト名でもある。	NO_PRONOUNCE	NO_LABEL
生まれ故郷であるアイルランドで活動を続けており、各国でアルバムが発売され、映画『ロード・オブ・ザ・リング』の主題歌「メイ・イット・ビー」も担当するなど、世界的な人気を得ている。	NO_PRONOUNCE	NO_LABEL
日本でもCMや番組のエンディングなどに彼女の曲が多用されている。	にっぽんでもこんぴゅーたみゅーじっくまがじんやばんぐみのえんでぃんぐなどにかのじょのきょくがたよーされている。	NO_LABEL
日本で爆発的に売れたのは、1992年にトム・クルーズが主演した映画『遥かなる大地へ』のサウンドトラックとして使われた「Book Of Days」からである。	NO_PRONOUNCE	NO_LABEL
日本では一般層を中心に、癒し系音楽の第1人者として認知されている。	にっぽんでわいっぱんそーをちゅーしんに、いやしけいおんがくのだいひとりしゃとしてにんちされている。	NO_LABEL
曲調は曲の断片を少し聞いただけでも彼女のものと判るほど特徴がある。	きょくちょーわきょくのだんぺんをすこしきいただけでもかのじょのものとわかるほどとくちょーがある。	NO_LABEL
クラシックと教会音楽を基礎に、故国アイルランドの音楽など、さまざまな要素を含有しており、ワルツ調の3拍子やその他変拍子の曲も見受けられる。	NO_PRONOUNCE	NO_LABEL
メインボーカルやバックコーラスを彼女自身の声で幾度も録音し、重ねることでダイナミックかつ荘厳なサウンドを生み出すのが一番の特徴。	めいんぼーかるやばっくこーらすをかのじょじしんのこえでいくどもろくおんし、かさねることでだいなみっくかつそーごんなさうんどをうみだすのがいちばんのとくちょー。	NO_LABEL
そのエンヤ自身の声のコーラスと彼女自身が好む深いエコーが、終始一貫して広がりのある音を生む。	そのえんやじしんのこえのこーらすとかのじょじしんがこのむふかいえこーが、しゅーしいっかんしてひろがりのあるおとをうむ。	NO_LABEL
テクノロジーを全面的に使用しているが、表現内容はアコースティック感を強く志向している。	てくのろじーをぜんめんてきにしよーしているが、ひょーげんないよーわあこーすてぃっくかんをつよくしこーしている。	NO_LABEL
初期の作品はアナログ/デジタル双方のシンセサイザーを駆使し、神話の世界をモチーフにした歌詞と共に、他の何とも似ていない力強く重厚な世界観を特徴としていたが、アルバム「メモリー・オブ・トゥリーズ」を発表したあたりから、神話の世界にとらわれることなく作曲をするようになり、曲自体もシンセサイザーを使いながらも主役はアコースティック楽器(またはそれに近い音声）やピアノとなり、明るく柔らかな曲調のものが増えてきた。	NO_PRONOUNCE	NO_LABEL
その上で、アルバムに収録される曲の中には、必ず落ち着いた曲調のピアノ独奏曲が入る。	そのうえで、あるばむにしゅーろくされるきょくのなかにわ、かならずおちついたきょくちょーのぴあのどくそーきょくがはいる。	NO_LABEL
また、彼女の曲は「ビジブル」と言われる。	NO_PRONOUNCE	NO_LABEL
歌詞は基本的に英語であるが、曲により、ゲール語、ラテン語で書かれている場合がある。	かしわきほんてきにえいごであるが、きょくにより、げーるご、らてんごでかかれているばあいがある。	NO_LABEL
5thアルバム『アマランタイン』では、さらに日本語、ローマ･ライアンとともに作った架空の言語、“Loxian”で書かれた曲が収録されている。	NO_PRONOUNCE	NO_LABEL
彼女のアルバムリリース間隔は、4 - 6年である。	NO_PRONOUNCE	NO_LABEL
独特の製作手法から1曲に費やす手間が多く、エンヤ自身が完璧主義者であるがゆえに、アルバム1枚を完成させるのに時間がかかる上、全精力を使ってアルバムをリリースした後は1年ほど休暇をとるためでもある。	どくとくのせいさくしゅほーからいちきょくについやすてまがおーく、えんやじしんがかんぺきしゅぎしゃであるがゆえに、あるばむいちまいをかんせいさせるのにじかんがかかるうえ、ぜんせいりょくをつかってあるばむをりりーすしたのちわいちねんほどきゅーかをとるためでもある。	NO_LABEL
また、コンサート/ライブなどのスタジオ外部での活動の構想が、ファーストアルバムを発表した初期の頃からあるにもかかわらず、ここでも独自の制作方法が実現を難しくしてしまっている。	NO_PRONOUNCE	NO_LABEL
このように活動内容は外部から見る限りそれほど活発とは思えないが、耳なじみの良い音に加え、何年か続く「癒し」ブーム、過去のナンバーがTVCMやドラマ、映画のテーマとして使用されるために、リスナーの印象が薄れにくく、それも人気を維持している。	NO_PRONOUNCE	NO_LABEL
2005年5月9日、アイルランドを訪問されていた天皇皇后両陛下は、ダブリン市長公邸にてアイルランド文芸関係者と歓談の場を持った。	にせんごねんごがつここのか、あいるらんどをほーもんされていたてんのーこーごーりょーへいかわ、だぶりんしちょーこーていにてあいるらんどぶんげいかんけいしゃとかんだんのばをもった。	NO_LABEL
そこには皇后陛下の希望で特別にEnyaも招待された。	そこにわこーごーへいかのきぼーでとくべつにえんやもしょーたいされた。	NO_LABEL
天皇皇后が日本でEnyaの音楽を聴くことを知り、Enyaは感激したという。	てんのーこーごーがにっぽんでえんやのおんがくをきくことをしり、えんやわかんげきしたという。	NO_LABEL
また、日本の着物が好きで、来日すると買ってしまうという。	また、にっぽんのきものがすきで、らいにちするとかってしまうという。	NO_LABEL
