窒素は原子番号 7 の元素。	NO_PRONOUNCE	NO_LABEL
元素記号は <ce>N</ce>。	NO_PRONOUNCE	NO_LABEL
原子量は 14.007。	NO_PRONOUNCE	NO_LABEL
空気の約78.08 %を占めるほか、アミノ酸をはじめとする多くの生体物質中に含まれており、地球のほぼすべての生物にとって必須の元素である。	NO_PRONOUNCE	NO_LABEL
一般に「窒素」という場合は、窒素の単体である窒素分子を指すことが多い。	NO_PRONOUNCE	NO_LABEL
窒素分子は常温では無味無臭の気体として安定した形で存在する。	ちっそぶんしわじょーおんでわむみむしゅーのきたいとしてあんていしたがたでそんざいする。	NO_LABEL
また、液化した窒素分子は冷却剤としてよく使用されるが、液体窒素温度から液化する。	また、えきかしたちっそぶんしわれいきゃくざいとしてよくしよーされるが、えきたいちっそおんどからえきかする。	NO_LABEL
窒素は、かつて物が燃える元と考えられていた燃素の研究の過程で発見されたもので、最初に単体分離を行った者の特定は困難である。	ちっそわ、かつてものがもえるもととかんがえられていたねんそのけんきゅーのかていではっけんされたもので、さいしょにたんたいぶんりをおこなったもののとくていわこんなんである。	NO_LABEL
1772年、ダニエル・ラザフォードが窒素を単体分離し、その中に生物を入れると窒息して死んでしまうことからと命名した。	せんななひゃくななじゅうにねん、だにえるらざふぉーどがちっそをたんたいぶんりし、そのなかにせいぶつをいれるとちっそくしてしんでしまうことからとめいめいした。	NO_LABEL
ドイツ語では <ruby lang="de">Sticken<rp></rp></ruby>と <ruby lang="de">Stoff<rp></rp></ruby>を組み合わせて <ruby lang="de">Stickstoff<rp></rp></ruby> と呼ばれており、日本語の名称「窒素」はこれを訳したものである。	NO_PRONOUNCE	NO_LABEL
ほぼ同じ時期にカール・ヴィルヘルム・シェーレとヘンリー・キャベンディッシュも単体分離したと言われており、シェーレは酸素を「火の空気」、窒素を「駄目な空気」と命名した。	NO_PRONOUNCE	NO_LABEL
窒素が元素であることを発見したのはフランスのアントワーヌ・ラヴォアジエで、フランス語で「生きられないもの」という意味の と命名した。	NO_PRONOUNCE	NO_LABEL
窒素の英語名「<ruby lang="en">nitrogen<rp></rp></ruby>」は、ギリシア語のとに由来している。	NO_PRONOUNCE	NO_LABEL
近年の需要に対応して、2005年に日本工業規格に規定の純度が高められた。	きんねんのじゅよーにたいおーして、にせんごねんににっぽんこーぎょーきかくにきていのじゅんどがたかめられた。	NO_LABEL
窒素は窒素族元素の一つ。	ちっそわちっそぞくげんそのひとつ。	NO_LABEL
生物にとっては非常に重要でアミノ酸やタンパク質、核酸塩基など、あらゆるところに含まれる。	せいぶつにとってわひじょーにじゅーよーであみのさんやたんぱくしつ、かくさんえんきなど、あらゆるところにふくまれる。	NO_LABEL
これらの窒素化合物を分解すると生体に有害なアンモニアとなるが、動物は窒素を無害で水溶性の尿素として代謝する。	これらのちっそかごーぶつをぶんかいするとせいたいにゆーがいなあんもにあとなるが、どーぶつわちっそをむがいですいよーせいのにょーそとしてたいしゃする。	NO_LABEL
しかし、貯蔵はできないためそのほとんどは尿として体外に排泄する。	しかし、ちょぞーわできないためそのほとんどわにょーとしてたいがいにはいせつする。	NO_LABEL
そのため、アミノ酸合成に必要な窒素は再利用ができず、持続的に摂取する必要がある。	そのため、あみのさんごーせいにひつよーなちっそわさいりよーができず、じぞくてきにせっしゅするひつよーがある。	NO_LABEL
ただし、窒素分子は非常に安定した分子であるためにほとんどの生物は大気中の窒素分子を利用することができず、微生物などが窒素固定によって作り出す窒素化合物を摂取することで体内に窒素原子を取り込んでいる。	ただし、ちっそぶんしわひじょーにあんていしたぶんしであるためにほとんどのせいぶつわたいきちゅーのちっそぶんしをりよーすることができず、びせいぶつなどがちっそこていによってつくりだすちっそかごーぶつをせっしゅすることでたいないにちっそげんしをとりこんでいる。	NO_LABEL
こうした窒素化合物はやはり微生物による脱窒の過程を経て再び大気中に放散され、窒素循環と呼ばれるサイクルを形成している。	こーしたちっそかごーぶつわやはりびせいぶつによるだっちつのかていをへてふたたびたいきちゅーにほーさんされ、ちっそじゅんかんとよばれるさいくるをけいせいしている。	NO_LABEL
植物にとっては、リン酸、カリウムと並んで肥料の三要素の一つであり、特に葉を大きくする作用が強いため、葉肥と呼ばれる。	しょくぶつにとってわ、りんさん、かりゅーむとならんでひりょーのさんよーそのひとつであり、とくにはをおーきくするさよーがつよいため、はこえとよばれる。	NO_LABEL
窒素分子は化学式 <ce>N_2</ce> で表され、常温常圧で無色無臭の気体として存在する。	NO_PRONOUNCE	NO_LABEL
分子量 28.014、融点 -210 ℃、沸点 -195.8 ℃、比重 0.808。	NO_PRONOUNCE	NO_LABEL
大気中に最も多く含まれる気体で、大気中の濃度は地上でおよそ78%である。	たいきちゅーにもっともおーくふくまれるきたいで、たいきちゅーののーどわちじょーでおよそななじゅうはちぱーせんとである。	NO_LABEL
常温常圧下では、極めて不活性かつ、アルゴン等の希ガスに比べると安価な気体であるため、嫌気性条件や乾燥条件を設定する際に用いられることが多い。	NO_PRONOUNCE	NO_LABEL
1964年、山本明夫らのグループによって、窒素分子のコバルト錯体が報告されている。	せんきゅうひゃくろくじゅうよねん、やまもとあきおらのぐるーぷによって、ちっそぶんしのこばるとさくたいがほーこくされている。	NO_LABEL
このテーマは、森美和子らによって、窒素分子を活性化して有機化合物に組み込む研究に発展した。	このてーまわ、もりみわこらによって、ちっそぶんしをかっせいかしてゆーきかごーぶつにくみこむけんきゅーにはってんした。	NO_LABEL
なお、2004年になって窒素を1,700℃、110万気圧で圧縮することにより、窒素原子が3本の腕で蜂の巣状のネットワーク「ポリ窒素」を作ることが判明した	NO_PRONOUNCE	NO_LABEL
p. 10。	NO_PRONOUNCE	NO_LABEL
このポリ窒素は、核兵器を除いた中では最大の威力を有する爆薬に比べて4倍以上のエネルギーを有すると考えられている。	このぽりちっそわ、かくへいきをのぞいたなかでわさいだいのいりょくをゆーするばくやくにくらべてよんばいいじょーのえねるぎーをゆーするとかんがえられている。	NO_LABEL
窒素は工業分野ではあらゆる用途にて広く使われている。	ちっそわこーぎょーぶんやでわあらゆるよーとにてひろくつかわれている。	NO_LABEL
また窒素単体だけでなくその化合物もさまざまな用途に広く使用される。	またちっそたんたいだけでなくそのかごーぶつもさまざまなよーとにひろくしよーされる。	NO_LABEL
窒素化合物を生産する工業は窒素工業と総称され、化学工業の重要な一分野となっている。	ちっそかごーぶつをせいさんするこーぎょーわちっそこーぎょーとそーしょーされ、かがくこうぎょーのじゅーよーないちぶんやとなっている。	NO_LABEL
窒素ガスの2004年度日本国内生産量は9,058,978千立方メートル、工業消費量は3,594,480千立方メートル、液化窒素の2004年度日本国内生産量は2,222,270千立方メートル、工業消費量は361,051千立方メートルである。	NO_PRONOUNCE	NO_LABEL
窒素化合物には、アンモニアや硝酸のような無機化合物から、各種ニトロ化合物や複素環式化合物などの有機化合物まで、非常に多くの種類がある。	ちっそかごーぶつにわ、あんもにあやしょーさんのよーなむきかごーぶつから、かくしゅにとろかごーぶつやふくそかんしきかごーぶつなどのゆーきかごーぶつまで、ひじょーにおーくのしゅるいがある。	NO_LABEL
ここでは主に無機化合物について概説する。	ここでわおもにむきかごーぶつについてがいせつする。	NO_LABEL
窒素と酸素からできる化合物を窒素酸化物という。	ちっそとさんそからできるかごーぶつをちっそさんかぶつという。	NO_LABEL
略称 NOx。	りゃくしょーえぬおーえっくす。	NO_LABEL
大気汚染の原因物質の一つとされるが、窒素と酸素を混合して高温に加熱すると自然と生成するため、排出の抑制は難しい。	たいきおせんのげんいんぶっしつのひとつとされるが、ちっそとさんそをこんごーしてこーおんにかねつするとしぜんとせいせいするため、はいしゅつのよくせいわむずかしい。	NO_LABEL
窒素のオキソ酸は慣用名をもつ。	ちっそのおきそさんわかんよーめいをもつ。	NO_LABEL
次にそれらを挙げる。	つぎにそれらをあげる。	NO_LABEL
"※オキソ酸塩名称の'-'にはカチオン種の名称が入る"	NO_PRONOUNCE	NO_LABEL
窒化物とは、窒素と窒素よりも陽性の元素から構成される化合物である。	NO_PRONOUNCE	NO_LABEL
場合によってはアジ化物も含める場合もある。	ばあいによってわあじかぶつもふくめるばあいもある。	NO_LABEL
オーロラが起きる場合、窒素は赤、青、紫色の光を放出する。	おーろらがおきるばあい、ちっそわあか、あお、むらさきいろのひかりをほーしゅつする。	NO_LABEL
窒素を主体とする大気は地球のほかに、土星の衛星であるタイタンも保持している。	ちっそをしゅたいとするたいきわちきゅーのほかに、どせいのえいせいであるたいたんもほじしている。	NO_LABEL
タイタンの大気は地球よりも濃密であり、気圧は地球の1.5倍にも上るが、その大気の97%は窒素によって占められている。	たいたんのたいきわちきゅーよりものーみつであり、きあつわちきゅーのいちてんごばいにものぼるが、そのたいきのきゅうじゅうななぱーせんとわちっそによってしめられている。	NO_LABEL
