許映皓は、韓国の囲碁棋士。	もとうつあきらわ、かんこくのいごきし。	NO_LABEL
ソウル出身、韓国棋院所属、九段。	そうるしゅっしん、かんこくきいんしょぞく、くだん。	NO_LABEL
BCカード杯新人王戦優勝、三星火災杯世界囲碁マスターズ準優勝など。	びーしーかーどはいしんじんおーせんゆーしょー、さむすんかさいはいせかいいごますたーずじゅんゆうしょーなど。	NO_LABEL
2000年世界青少年囲碁選手権大会青年組優勝。	にせんねんせかいせいしょーねんいごせんしゅけんたいかいせいねんぐみゆーしょー。	NO_LABEL
2001年入段。	にせんいちねんにゅーだん。	NO_LABEL
2002年SKガス杯新鋭プロ十傑戦8位。	にせんにねんえすけーがすはいしんえいぷろじっけつせんはちー。	NO_LABEL
2003年農心辛ラーメン杯出場。	にせんさんねんのんしむしんらーめんはいしゅつじょー。	NO_LABEL
2004年電子ランド杯王中王戦青龍部ベスト16。	にせんよねんでんしらんどはいおーちゅーおーせんせいりゅーぶべすとじゅうろく。	NO_LABEL
2006年五段、新人王戦決勝で元晟湊を2-0で破り優勝。	NO_PRONOUNCE	NO_LABEL
2007年、2007マスターズトーナメント戦優勝、三星火災杯に出場しベスト16、六段。	NO_PRONOUNCE	NO_LABEL
2009年七段、三星火災杯ベスト8進出。	にせんきゅうねんななだん、さんせいかさいはいべすとえいとしんしゅつ。	NO_LABEL
2010年GSカルテックス杯プロ棋戦、物価情報杯プロ棋戦ベスト8、国手戦ベスト4。	にせんじゅうねんじーえすかるてっくすはいぷろきせん、ぶっかじょうふはいぷろきせんべすとえいと、こくしゅせんべすとふぉー。	NO_LABEL
同年三星火災杯で準優勝し、これにより八段昇段。	どーねんさんせいかさいはいでじゅんゆーしょーし、これによりはったんしょーだん。	NO_LABEL
また63勝19敗の成績で勝数3位、勝率2位。	またろくじゅうさんしょーじゅうきゅうはいのせいせきでかちすーさんい、しょーりつにー。	NO_LABEL
2011年BCカード杯でベスト4進出、九段。	にせんじゅういちねんびーしーかーどはいでべすとふぉーしんしゅつ、くだん。	NO_LABEL
2012年BCカード杯出場。	にせんじゅうにねんびーしーかーどはいしゅつじょー。	NO_LABEL
2015年三星火災杯出場。	にせんじゅうごねんさんせいかさいはいしゅつじょー。	NO_LABEL
2016年KBS杯ベスト4。	にせんじゅうろくねんけーびーえすはいべすとふぉー。	NO_LABEL
2017年GSカルテックス杯ベスト4。	にせんじゅうななねんじーえすかるてっくすはいべすとふぉー。	NO_LABEL
韓国囲碁リーグでは2004年から新星建設チームなどで出場。	かんこくいごりーぐでわにせんよねんからしんせいけんせつちーむなどでしゅつじょー。	NO_LABEL
2011年には中国乙級リーグに蘇泊爾杭州チームの主将として出場。	にせんじゅういちねんにわちゅーごくおつきゅーりーぐにそはくなんじこーしゅーちーむのしゅしょーとしてしゅつじょー。	NO_LABEL
韓国棋士ランキングでは2010年4位。	かんこくきしらんきんぐでわにせんじゅうねんよんい。	NO_LABEL
国際棋戦	こくさいきせん	NO_LABEL
国内棋戦	こくないきせん	NO_LABEL
