ジェリーとジャンボは、1953年2月21日に公開された『トムとジェリー』シリーズの短編映画作品。	NO_PRONOUNCE	NO_LABEL
真夜中に走っていたサーカスの汽車。	まよなかにはしっていたさーかすのきしゃ。	NO_LABEL
子ゾウのジャンボは母親と眠っていたところ、汽車から転げ落ちてしまう。	こぞーのじゃんぼわははおやとねむっていたところ、きしゃからころげおちてしまう。	NO_LABEL
そして転がった末に、トムの家へと入り込む。	そしてころがったすえに、とむのいええとはいりこむ。	NO_LABEL
一方、眠りにつこうとしてベッドに入ったトムは、寝床に違和感を覚える。	いっぽー、ねむりにつこうとしてべっどにはいったとむわ、ねどこにいわかんをおぼえる。	NO_LABEL
何とジャンボがベッドの下にいたのだ。	なにとじゃんぼがべっどのしたにいたのだ。	NO_LABEL
トムを乗せたまま走り出したジャンボは眠るトムを振り落とした挙句、物陰から鼻を使ってトムのミルクを盗み飲みする。	とむをのせたままはしりだしたじゃんぼわねむるとむをふりおとしたあげく、ものかげからはなをつかってとむのみるくをぬすみのみする。	NO_LABEL
その頃、ジェリーは冷蔵庫からミルク盗み飲みしていた。	そのころ、じぇりーわれいぞーこからみるくぬすみのみしていた。	NO_LABEL
そこへトムがやってきて、自分のミルクを盗み飲みしたのがジェリーだと疑い、殴りつける。	そこえとむがやってきて、じぶんのみるくをぬすみのみしたのがじぇりーだとうたがい、なぐりつける。	NO_LABEL
すんでのとこでジャンボは鼻でジェリーを吸い取って救う。	すんでのとこでじゃんぼわはなでじぇりーをすいとってすくう。	NO_LABEL
それから２匹は意気投合して落花生を盗みにかかるが、それもトムにばれてしまい、物置部屋に追い詰められてしまう。	それからにひきわいきとーごーしてらっかせいをぬすみにかかるが、それもとむにばれてしまい、ものおきへやにおいつめられてしまう。	NO_LABEL
そこでジェリーはジャンボに自分と同じ色のペンキを塗りつけ、「巨大ネズミ」に化けさせる。	NO_PRONOUNCE	NO_LABEL
何も知らないトムは、ジェリーと巨大ネズミの入れ替わり立ち代りに混乱し、やけになって散弾銃を打ちまくる。	なにもしらないとむわ、じぇりーときょだいねずみのいれかわりたちかわりにこんらんし、やけになってさんだんじゅーをうちまくる。	NO_LABEL
そこへ母象が、ジャンボを探してやってくる。	そこえははぞーが、じゃんぼをさがしてやってくる。	NO_LABEL
そして、ジャンボは母親にペンキを塗りつけ、超巨大ネズミに化けさせた。	そして、じゃんぼわははおやにぺんきをぬりつけ、ちょーきょだいねずみにばけさせた。	NO_LABEL
ジェリーに巨大ネズミ、そして超巨大ネズミ。	じぇりーにきょだいねずみ、そしてちょーきょだいねずみ。	NO_LABEL
混乱するトムはついに発狂し、地平線のかなたへ走り去っていくのだった。	こんらんするとむわついにはっきょーし、ちえいせんのかなたへはしりさっていくのだった。	NO_LABEL
