巨勢 邑治）は、飛鳥時代から奈良時代にかけての貴族。	NO_PRONOUNCE	NO_LABEL
名は祖父とも記される。	なわそふともしるされる。	NO_LABEL
左大臣・巨勢徳多の孫で、中納言・巨勢黒麻呂の子。	NO_PRONOUNCE	NO_LABEL
官位は正三位・中納言。	NO_PRONOUNCE	NO_LABEL
持統天皇7年事情を知りながら官物を盗難させたため、冠位を二階下げられた上で監物の官職を解任された。	じとうてんのーななねんじじょーをしりながらかんもつをとーなんさせたため、かんいをにかいさげられたうえでけんもつのかんしょくをかいにんされた。	NO_LABEL
内蔵寮允・大伴男人ら他の関係者も断罪されており、内蔵寮の倉庫から官物を盗み出した横領事件と推測される。	NO_PRONOUNCE	NO_LABEL
文武天皇5年正月に務大肆・三河守の官位にあったが、遣唐使大位に任ぜられる。	NO_PRONOUNCE	NO_LABEL
同年3月の大宝令による位階制度の制定を通じて従五位下に叙爵。	どーねんさんがつのたいほーれいによるいかいせいどのせいていをつーじてじゅうごいのげにじょしゃく。	NO_LABEL
同年唐に向けて出航するも風浪が激しくて渡海できず、その後遣唐使節の交替があって邑治は遣唐副使に昇格し、翌大宝2年6月に唐に渡る。	どーねんとーにむけてしゅっこーするもふーろーがはげしくてとかいできず、そのごけんとーしぶしのこーたいがあってむらおさむわやとーふくしにしょーかくし、よくたいほーにねんろくがつにとーにわたる。	NO_LABEL
遣唐執節使・粟田真人らは慶雲元年帰国するが、邑治は唐に残留して慶雲4年3月に帰国を果たす。	NO_PRONOUNCE	NO_LABEL
渡唐の功労により5月に綿・麻布・鍬・籾を与えられ、8月に位階を進めれた。	NO_PRONOUNCE	NO_LABEL
元明朝に入り、和銅元年播磨守に任ぜられると、和銅5年従四位下、和銅8年従四位上・右大弁に叙任されるなど、要職を務めて順調に昇進する。	NO_PRONOUNCE	NO_LABEL
元正朝では、養老2年中納言に任ぜられて公卿に列すと、養老3年正四位下・摂津国摂官、養老5年従三位と急速に昇進を果たした。	NO_PRONOUNCE	NO_LABEL
聖武朝の神亀元年2月に正三位に昇叙されるが、同年6月6日薨去。	しょうむあさのしんきがんねんにがつにしょうさんいにしょーじょされるが、どーねんろくがつむいかこーきょ。	NO_LABEL
最終官位は中納言正三位。	さいしゅーかんいわちゅーなごんしょうさんい。	NO_LABEL
『六国史』による。	NO_PRONOUNCE	NO_LABEL
