チェリーは、日本たばこ産業から製造・販売されていた日本のたばこの銘柄の一つ。	NO_PRONOUNCE	NO_LABEL
なお、明治期に実質的な別商品が同名称で販売されていたこともあるため、当項では双方を併記する。	なお、めいじきにじっしつてきなべつしょーひんがどーめいしょーではんばいされていたこともあるため、とーこーでわそーほーをへいきする。	NO_LABEL
1904年6月29日、いわゆる「官製煙草」として大蔵省専売局が最初に発売した銘柄のひとつ。	NO_PRONOUNCE	NO_LABEL
バージニア葉を使用した甘みと細巻きが特徴の両切たばこで、10本入りの通常パッケージの他、10本入りや50本入りの丸缶も一時期存在した。	ばーじにあはをしよーしたあまみとほそまきがとくちょーのりょーぎりたばこで、じゅっぽんいりのつーじょーぱっけーじのほか、じゅっぽんいりやごじゅっぽんいりのまるかんもいちじきそんざいした。	NO_LABEL
戦時中は敵性語にあたるとして「櫻」に改称されている。	NO_PRONOUNCE	NO_LABEL
発売翌年の1905年に、斜め格子模様のピンク色の下地に桜の線画があしらわれたパッケージデザインに変更された。	はつばいよくねんのせんきゅうひゃくごねんに、ななめこーしもよーのぴんくいろのしたじにさくらのせんががあしらわれたぱっけーじでざいんにへんこーされた。	NO_LABEL
以降、細部の変更や櫻への改称はあったものの、基本的なデザインが変更されることはなかった。	いこー、さいぶのへんこーやさくらえのかいしょーわあったものの、きほんてきなでざいんがへんこーされることわなかった。	NO_LABEL
また、桜の線画は2代目に継承されている。	また、さくらのせんがわにだいめにけいしょーされている。	NO_LABEL
著名な愛飲者に池波正太郎、横光利一、山本五十六などがおり、池波は「チェリーのうまさは、ピースどころじゃない」と語ったという。	NO_PRONOUNCE	NO_LABEL
1970年に日本専売公社から発売された。	せんきゅうひゃくななじゅうねんににっぽんせんばいこーしゃからはつばいされた。	NO_LABEL
日本初のアメリカンブレンドのたばこで、パッケージはえんじ色の下地に初代から継承された桜の線画があしらわれた落ち着いたデザインになっていた。	にっぽんはつのあめりかんぶれんどのたばこで、ぱっけーじわえんじしょくのしたじにしょだいからけいしょーされたさくらのせんががあしらわれたおちついたでざいんになっていた。	NO_LABEL
なお、初代とは異なり、吸い口はフィルター付きとなった。	なお、しょだいとわことなり、すいぐちわふぃるたーつきとなった。	NO_LABEL
著名な愛飲者に青木幹雄、橋本龍太郎、細野晴臣、市川崑、宮崎駿、柄谷行人、森敦のなどがいる。	ちょめいなあいいんしゃにあおきみきお、はしもとりゅうたろー、ほそのはるおみ、いちかわこん、みやざきはやお、からたにこうじん、もりあつしのなどがいる。	NO_LABEL
架空の人物では『間違った子を魔法少女にしてしまった』の真風羽華代や『ドラえもん』ののび太のパパや『太陽にほえろ!』のジーパン刑事、吉田音が描いたビッ子さんなど。	NO_PRONOUNCE	NO_LABEL
ごく短い期間ではあるが、日本で一番売れていたたばことなったこともあった。	ごくみじかいきかんでわあるが、にっぽんでいちばんうれていたたばことなったこともあった。	NO_LABEL
東日本大震災による工場の被災により生産の中断に追い込まれたが、2011年5月12日には販売量が少ないことを理由に、そのまま販売を再開せず廃止することが発表された。	ひがしにほんだいしんさいによるこーじょーのひさいによりせいさんのちゅーだんにおいこまれたが、にせんじゅういちねんごがつじゅうににちにわはんばいりょうがすくないことをりゆーに、そのままはんばいをさいかいせずはいしすることがはっぴょーされた。	NO_LABEL
