シッキム闘争会議は、インドの政党。	しっきむとーそーかいぎわ、いんどのせいとー。	NO_LABEL
地方政党の1つとして位置づけられ、シッキム州で活動している。	ちほーせいとーのひとつとしていちずけられ、しっきむしゅーでかつどーしている。	NO_LABEL
略称は「SSP」。	NO_PRONOUNCE	NO_LABEL
シッキム王国併合後初となる1979年州議会選挙では、ナル・バハドゥール・バンダーリー率いるが過半数を占め、バンダーリーが州首相となった。	しっきむおーこくへいごーあとはつとなるせんきゅうひゃくななじゅうきゅうねんしゅーぎかいせんきょでわ、なるばはどぅーるばんだーりーひきいるがかはんすーをしめ、ばんだーりーがしゅーしゅしょーとなった。	NO_LABEL
1984年、バンダーリーは連邦政府政権）との対立から一時的にその座を追われてしまう。	NO_PRONOUNCE	NO_LABEL
しかしバンダーリーは同年中に新たにシッキム闘争会議を結成し、州政権奪還を目指して動き始める。	しかしばんだーりーわどーねんちゅーにあらたにしっきむとーそーかいぎをけっせいし、しゅーせいけんだっかんをめざしてうごきはじめる。	NO_LABEL
SSPはネパール語をインド憲法第8附則言語とすることを主張するなど、シッキムで多数派を占めるネパール系住民の権利・利益の擁護を提唱した。	NO_PRONOUNCE	NO_LABEL
その結果、翌1985年の州議会選挙では32議席中30議席を占める圧勝、州首相に返り咲いた。	NO_PRONOUNCE	NO_LABEL
続く1989年選挙では州議会全32議席を獲得する完勝を収めている。	NO_PRONOUNCE	NO_LABEL
ちなみにネパール語は1992年に憲法第8附則言語とされた。	NO_PRONOUNCE	NO_LABEL
しかしSSP政権が長期化するに従い、SSPの内部でバンダーリーのリーダーシップに対する反発も浮上してくる。	しかしえすえすぴーせいけんがちょーきかするにしたがい、えすえすぴーのないぶでばんだーりーのりーだーしっぷにたいするはんぱつもふじょーしてくる。	NO_LABEL
1993年、バンダーリーの独裁的な性格や特権層との癒着に反発した党内有力者のパワン・クマール・チャムリンが離党、新たにシッキム民主戦線を結党した。	せんきゅうひゃくきゅうじゅうさんねん、ばんだーりーのどくさいてきなせいかくやとっけんそーとのゆちゃくにはんぱつしたとーないゆーりょくしゃのぱわんくまーるちゃむりんがりとー、あらたにしっきむみんしゅせんせんをけっとーした。	NO_LABEL
1994年の州議会選挙はSSPとSDFの一騎討ちの様相を呈し、結果はSDFが19議席、SSPが10議席となり、SSP政権はここに終焉した。	NO_PRONOUNCE	NO_LABEL
SSPの敗因としては、約15年に及ぶバンダーリー政権が村落開発を進めなかったことへの不満が住民の間で募っていたのに対し、SDFが草の根を志向し村落開発重視の姿勢を見せたことが指摘されている。	NO_PRONOUNCE	NO_LABEL
1996年のローク・サバー選挙でも、シッキム州に割り当てられていた1議席をSSPは喪失し、SDFに奪われている。	NO_PRONOUNCE	NO_LABEL
1999年州議会選挙も、チャムリン率いるSDFとバンダーリー率いるSSPとの一騎討ちとなったが、SDF24議席、SSP7議席と差が開いてしまった。	NO_PRONOUNCE	NO_LABEL
そして2004年州議会選挙の直前には、バンダーリーがSSPを離党して旧敵だったINCに参加し、SSPには有力な政治家がほとんどいなくなってしまった。	NO_PRONOUNCE	NO_LABEL
そのためSSPは、2004年州議会選挙で候補を1人しか立てることができず、同年の連邦下院選挙でも候補は立てたものの、いずれもほとんど得票できず惨敗に終わっている。	そのためえすえすぴーわ、にせんよねんしゅーぎかいせんきょでこーほをひとりしかたてることができず、どーねんのれんぽーかいんせんきょでもこーほわたてたものの、いずれもほとんどとくひょーできずざんぱいにおわっている。	NO_LABEL
この結果、SSPは州議会での議席も全て喪失した。	このけっか、えすえすぴーわしゅーぎかいでのぎせきもすべてそーしつした。	NO_LABEL
SSPは2009年の州議会選挙や連邦下院選挙に候補を立てておらず、ほぼ解散状態にあると見られていた。	えすえすぴーわにせんきゅうねんのしゅーぎかいせんきょやれんぽーかいんせんきょにこーほをたてておらず、ほぼかいさんじょーたいにあるとみられていた。	NO_LABEL
ところが2013年5月、バンダーリーはSSP党首として復帰を果たした。	ところがにせんじゅうさんねんごがつ、ばんだーりーわえすえすぴーとーしゅとしてふっきをはたした。	NO_LABEL
これにより、SSPも組織としての活動を再開し、2014年のシッキム州議会選挙・連邦下院選挙に参戦すると見られていた。	NO_PRONOUNCE	NO_LABEL
しかし選挙直前の3月22日、バンダーリーは政界引退を表明し、1973年以来40年以上にわたる政治家としての活動を終了した。	しかしせんきょちょくぜんのさんがつにじゅうににち、ばんだーりーわせいかいいんたいをひょーめいし、せんきゅうひゃくななじゅうさんねんいらいよんじゅうねんいじょーにわたるせいじかとしてのかつどーをしゅーりょーした。	NO_LABEL
あわせてバンダーリーはこの選挙でSDFに挑戦した新党シッキム革命戦線への支持を表明し、SSPは参戦しなかった。	NO_PRONOUNCE	NO_LABEL
