イワンのばかはロシアの民話にしばしば登場する男性キャラクター。	いわんのばかわろしあのみんわにしばしばとーじょーするだんせいきゃらくたー。	NO_LABEL
極めて純朴愚直な男ではあるが最後には幸運を手にすることが多い。	きわめてじゅんぼくぐちょくなおとこでわあるがさいごにわこーうんをてにすることがおーい。	NO_LABEL
ロシア語では。	ろしあごでわ。	NO_LABEL
日本では帝政ロシア時代の小説家レフ・トルストイによる彼を主人公とした作品で特によく知られ、長谷川天渓 訳『大悪魔と小悪魔』や内田魯庵訳『馬鹿者イワン』などをはじめ多くの和訳がある。	NO_PRONOUNCE	NO_LABEL
以下はこの作品についての説明である。	いかわこのさくひんについてのせつめいである。	NO_LABEL
1885年9月頃に書かれたが、発表されたのは翌1886年である。	せんはっぴゃくはちじゅうごねんくがつごろにかかれたが、はっぴょーされたのわよくせんはっぴゃくはちじゅうろくねんである。	NO_LABEL
原題は""で、和訳の題は『イワンのばか』、『イワンの馬鹿』、『大悪魔と小悪魔』、『馬鹿者イワン』、『イワンのまぬけ』、『イワンのばかとその二人の兄弟』など。	NO_PRONOUNCE	NO_LABEL
昔ある国に、軍人のセミョーン、布袋腹のタラース、ばかのイワンと、彼らの妹で啞のマルタの4兄弟がいた。	NO_PRONOUNCE	NO_LABEL
ある日、都会へ出ていた兄たちが実家に戻ってきて「生活に金がかかって困っているので、財産を分けてほしい」と父親に言った。	NO_PRONOUNCE	NO_LABEL
彼らの親不孝ぶりに憤慨している父親がイワンにそのことを言うと、ばかのイワンは「どうぞ、みんな二人に分けてお上げなさい」というので父親はその通りにした。	NO_PRONOUNCE	NO_LABEL
3人の間に諍いが起きるとねらっていた悪魔は何も起こらなかったのに腹を立て、3匹の小悪魔を使って、3人の兄弟にちょっかいを出す。	NO_PRONOUNCE	NO_LABEL
権力欲の権化であるセミョーンと金銭欲の象徴のようなタラースは小悪魔たちに酷い目に合わされるが、ばかのイワンだけは、いくら悪魔が痛めても屈服せず、小悪魔たちを捕まえてしまう。	けんりょくよくのごんげであるせみょーんときんせんよくのしょーちょーのよーなたらーすわこあくまたちにひどいめにあわされるが、ばかのいわんだけわ、いくらあくまがいためてもくっぷくせず、こあくまたちをつかまえてしまう。	NO_LABEL
小悪魔たちは、一振りすると兵隊がいくらでも出る魔法の穂や揉むと金貨がいくらでも出る魔法の葉、どんな病気にも効く木の根を出して助けを求める。	こあくまたちわ、いちふりするとへいたいがいくらでもでるまほーのほやもむときんかがいくらでもでるまほーのは、どんなびょーきにもきくきのねをだしてたすけをもとめる。	NO_LABEL
イワンが小悪魔を逃がしてやるとき、「イエス様がお前にお恵みをくださるように」と言ったので、それ以来、小悪魔は地中深く入り、二度と出てこなかった。	NO_PRONOUNCE	NO_LABEL
イワンは手に入れた宝で、それで戦争をしたり贅沢をしたりするわけではなく、兵隊には踊らせたり唄わせたりして楽しみ、金貨は女や子供にアクセサリーや玩具として与えてしまう。	いわんわてにいれたたからで、それでせんそーをしたりぜいたくをしたりするわけでわなく、へいたいにわおどらせたりうたわせたりしてたのしみ、きんかわおんなやこどもにあくせさりーやおもちゃとしてあたえてしまう。	NO_LABEL
無一文になった兄たちがイワンの所にかえってくると、イワンは喜んで養ってやったが、兄嫁たちには「こんな百姓家には住めない」と言われるので、イワンは兄たちの住む小屋を造った。	NO_PRONOUNCE	NO_LABEL
兄たちはイワンが持っている兵隊や金貨を見て「それがあれば今までの失敗を取り戻せる」と考え、イワンは兄たちに要求されて兵隊や金貨を渡してやる。	NO_PRONOUNCE	NO_LABEL
兄たちはそれを元手にして、やがて王様になった。	あにたちわそれをもとでにして、やがておーさまになった。	NO_LABEL
イワンは住んでいる国の王女が難病になったとき、小悪魔からもらった木の根で助けたので、王女の婿になって王様になった。	いわんわすんでいるくにのおーじょがなんびょーになったとき、こあくまからもらったきのねでたすけたので、おーじょのむこになっておーさまになった。	NO_LABEL
しかし「体を動かさないのは性に合わない」ので、ただ人民の先頭に立って以前と同じく畑仕事をした。	NO_PRONOUNCE	NO_LABEL
イワンの妻は夫を愛していたので、マルタに畑仕事を習って夫を手伝うようになった。	いわんのつまわおっとをあいしていたので、まるたにはたけしごとをならっておっとをてつだうよーになった。	NO_LABEL
イワンの王国の掟は「働いて手に胼胝がある者だけ、食べる権利がある。	NO_PRONOUNCE	NO_LABEL
手に胼胝のないものは、そのお余りを食べよ」と言うことだけだった。	NO_PRONOUNCE	NO_LABEL
ある日、小悪魔を倒された大悪魔は、人間に化けて兄弟たちの所にやってくる。	あるひ、こあくまをたおされただいあくまわ、にんげんにばけてきょーだいたちのところにやってくる。	NO_LABEL
セミョーンは将軍に化けた悪魔に騙されて戦争をして、タラースは商人に化けた悪魔に騙されて財産を巻き上げられて、再び無一文になる。	せみょーんわしょーぐんにばけたあくまにだまされてせんそーをして、たらーすわしょーにんにばけたあくまにだまされてざいさんをまきあげられて、ふたたびむいちもんになる。	NO_LABEL
最後に大悪魔はイワンを破滅させるために将軍に化けて軍隊を持つように仕向けるが、イワンの国では人民は皆ばかで、ただ働くだけなので悪魔に騙されない。	さいごにだいあくまわいわんをはめつさせるためにしょーぐんにばけてぐんたいをもつよーにしむけるが、いわんのくにでわじんみんわみなばかで、ただはたらくだけなのであくまにだまされない。	NO_LABEL
今度は商人に化けて金貨をばらまくが、イワンの国ではみんな衣食住は満ち足りており、金を見ても誰も欲しがらない。	こんどわしょーにんにばけてきんかをばらまくが、いわんのくにでわみんないしょくじゅーわみちたりており、きんをみてもだれもほっしがらない。	NO_LABEL
そればかりか、悪魔は金で家を建てることができず、食べ物を買えないので残り物しか食べられず、逆に困窮して行く。	そればかりか、あくまわきんでいえをたてることができず、たべものをかえないのでのこりものしかたべられず、ぎゃくにこんきゅーしていく。	NO_LABEL
しまいに悪魔は「手で働くより、頭を使って働けば楽をして儲けることができる」と王や人民に演説するが、誰も悪魔を相手にしなかった。	NO_PRONOUNCE	NO_LABEL
その日も悪魔は、高い櫓の上で、頭で働くことの意義を演説していたが、とうとう力尽きて、頭でとんとんと梯子を一段一段たたきながら地上に落ちた。	そのひもあくまわ、たかいろのうえで、あたまではたらくことのいぎをえんぜつしていたが、とーとーちからつきて、あたまでとんとんとはしごをいちだんいちだんたたきながらちじょーにおちた。	NO_LABEL
ばかのイワンはそれを見て、「頭で働くとは、このことか。	NO_PRONOUNCE	NO_LABEL
これでは頭に胼胝よりも大きな瘤ができるだろう。	これでわあたまにたこよりもおーきなこぶができるだろう。	NO_LABEL
どんな仕事ができたか、見てやろう」と悪魔の所にやってくるが、ただ地が裂けて、悪魔は穴に吸い込まれてしまっただけだった。	NO_PRONOUNCE	NO_LABEL
