日本基督教団弘前教会教会堂は、1906年に弘前メソヂスト教会の教会堂として青森県弘前市に建設されている建物。	にほんきりすときょーだんひろさききょーかいきょうかいどーわ、せんきゅうひゃくろくねんにひろさきめそぢすときょーかいのきょーかいどーとしてあおもりけんひろさきしにけんせつされているたてもの。	NO_LABEL
1993年、青森県重宝に指定される。	せんきゅうひゃくきゅうじゅうさんねん、あおもりけんちょーほーにしていされる。	NO_LABEL
1906年に建設されている当教会堂は、左右に配置されたフランスゴシック風の双塔や、外壁に設けられている控え壁と尖塔アーチの窓が印象的な建築物である。	せんきゅうひゃくろくねんにけんせつされているとーきょーかいどーわ、さゆーにはいちされたふらんすごしっくふーのそーとーや、がいへきにもーけられているひかえかべとせんとーあーちのまどがいんしょーてきなけんちくぶつである。	NO_LABEL
高さの強調が特徴であるゴシック風でありながら正面外壁に各階を区切る水平方向を強調するような蛇腹が設けられている意匠的な不整合や、内部天井を高くするために屋根組に取り入れられた変則トラス構造が構造的に不安定であるといった部分はあるものの、築後100年以上経過しても現役の教会堂として利用されており、またモチーフにしたといわれるフランス＝パリのノートルダム大聖堂 を十分に彷彿させる外観となっている。	NO_PRONOUNCE	NO_LABEL
また、内部や祭壇は白漆喰の質素な造りとなっているが、ナルティクス2階には襖に仕切られた畳敷の3室が配置されているところが日本の教会堂ならではといえるが、襖を取り払うと礼拝堂内を見渡せる約30畳の大広間となり、収容人員を増やすことが出来るという実用的な設計ともなっている。	NO_PRONOUNCE	NO_LABEL
教会の設立は1875年で、横浜から帰郷し東奥義塾塾長となっていた本多庸一や一緒に弘前に来て東奥義塾の英語教師となっていた宣教師ジョン・イングらにより設立された、東北地方で最も古い教会であるとともに全国でも7番目に古いプロテスタント教会である。	きょーかいのせつりつわせんはっぴゃくななじゅうごねんで、よこはまからききょーしひがしおーぎじゅくじゅくちょーとなっていたほんだよーいちやいっしょにひろさきにきてひがしおーぎじゅくのえいごきょーしとなっていたせんきょーしじょんいんぐらによりせつりつされた、とーほくちほーでもっともふるいきょーかいであるとともにぜんこくでもななばんめにふるいぷろてすたんときょーかいである。	NO_LABEL
1875年6月6日、東奥義塾の旧弘前藩の士族である上級生14名に洗礼を授けた。	NO_PRONOUNCE	NO_LABEL
7月3日に7人に洗礼を授けた。	しちがつみっかにしちにんにせんれいをさずけた。	NO_LABEL
そこで、10月2日に本多庸一が弘前公会を設立した。	そこで、じゅーがつふつかにほんだよーいちがひろさきこーかいをせつりつした。	NO_LABEL
横浜、東京につぐ長老派の3番目の公会である。	よこはま、とーきょーにつぐちょーろーはのさんばんめのこーかいである。	NO_LABEL
横浜公会にならい超教派主義であった。	よこはまこーかいにならいちょーきょーはしゅぎであった。	NO_LABEL
1876年、本多が長老派であったが、弘前公会は長老派よりメソジスト派に編入され、1876年10月2日に弘前メソジスト教会が成立する。	せんはっぴゃくななじゅうろくねん、ほんだがちょーろーはであったが、ひろさきこーかいわちょーろーはよりめそじすとはにへんにゅーされ、せんはっぴゃくななじゅうろくねんじゅーがつふつかにひろさきめそじすときょーかいがせいりつする。	NO_LABEL
同年に婦人の受洗者があった。	どーねんにふじんのじゅせんしゃがあった。	NO_LABEL
1877年から教会学校が開かれ、四季会が出来て、礼拝堂の敷地は元寺町に定められた。	せんはっぴゃくななじゅうななねんからきょーかいがっこーがひらかれ、しきかいができて、れいはいどーのしきちわもとてらまちにさだめられた。	NO_LABEL
当時、差別されていた町や土手町にも講義所が設立されて、中田千代、重治親子が出席するようになった。	とーじ、さべつされていたまちやどてちょーにもこーぎしょがせつりつされて、なかだちよ、しげはるおやこがしゅっせきするよーになった。	NO_LABEL
1878年本多庸一が執事の按手を受けて、黒石や青森に伝道を開始した。	せんはっぴゃくななじゅうはちねんほんだよーいちがしつじのあんしゅをうけて、くろいしやあおもりにでんどーをかいしした。	NO_LABEL
イングが去った後は、デビソンが宣教師として来たが一年で函館に行った。	いんぐがさったのちわ、でびそんがせんきょーしとしてきたがいちねんではこだてにいった。	NO_LABEL
その後、宣教師はいなかった。	そのご、せんきょーしわいなかった。	NO_LABEL
さらに和徳町にも講義所が設けられた。	さらにわとくまちにもこーぎしょがもーけられた。	NO_LABEL
1880年に最初の教会堂が建設された。	せんはっぴゃくはちじゅうねんにさいしょのきょーかいどーがけんせつされた。	NO_LABEL
1885年に本多は相原英賢に牧師を引き継いで仙台に転任する。	せんはっぴゃくはちじゅうごねんにほんだわあいはらえいけんにぼくしをひきついでせんだいにてんにんする。	NO_LABEL
その頃、カロライン・ライトの出資により、来徳女学校が教会内に設立された。	NO_PRONOUNCE	NO_LABEL
中田久吉が牧師であった1900年に、創立25周年を記念して、「弘前美以教会略史」を編纂した。	NO_PRONOUNCE	NO_LABEL
これを元に後に、1925年に五十年史、1955年に八十年史を編纂した。	これをもとにごに、せんきゅうひゃくにじゅうごねんにいとしふみ、せんきゅうひゃくごじゅうごねんにはちじゅーねんしをへんさんした。	NO_LABEL
1941年の日本基督教団の設立によって、日本基督教団所属の教会になり、今日に至る。	せんきゅうひゃくよんじゅういちねのにほんきりすときょーだんのせつりつによって、にほんきりすときょーだんしょぞくのきょーかいになり、きょーにいたる。	NO_LABEL
1880年に建てられた教会堂は木造平屋建ての小規模な和風建築だった。	せんはっぴゃくはちじゅうねんにたてられたきょーかいどーわもくぞーひらやだてのしょーきぼなわふーけんちくだった。	NO_LABEL
1897年に山鹿元次郎牧師のもとで建てられた教会堂は、堀江佐吉によるもので正面中央に尖塔を配置したゴシック風の洋風建築だったが、1904年に焼失してしまい、現在の教会堂が建てられたものである。	せんはっぴゃくきゅうじゅうななねにやまがもとじろーぼくしのもとでたてられたきょーかいどーわ、ほりえさきちによるものでしょーめんちゅーおーにせんとーをはいちしたごしっくふーのよーふーけんちくだったが、せんきゅうひゃくよねんにしょーしつしてしまい、げんざいのきょーかいどーがたてられたものである。	NO_LABEL
設計は櫻庭駒五郎が手がけて、施工は堀江佐吉の四男である斎藤伊三郎が請け負った。	せっけいわさくらばこまごろーがてがけて、しこーわほりえさきちのよんなんであるさいとーいさぶろーがうけおった。	NO_LABEL
