イバン語はダヤク族の支族であるイバン族によって話されている言語である。	いばんごわだやくぞくのしぞくであるいばんぞくによってはなされているげんごである。	NO_LABEL
イバン族はマレーシアのサラワク州、インドネシアの西カリマンタン州、ブルネイに居住する。	いばんぞくわまれーしあのさらわくしゅー、いんどねしあのにしかりまんたんしゅー、ぶるねいにきょじゅーする。	NO_LABEL
イバン語はオーストロネシア語族のマレー・ポリネシア語派に属する。	NO_PRONOUNCE	NO_LABEL
言語学的分類において、マレー語と関係しており、サラワク・マレー語に近い関係にある。	NO_PRONOUNCE	NO_LABEL
Anthony Richards, "An Iban-English Dictionary". Oxford University Press, 1981. [Paperback reprint in the 1990s by Penerbit Fajar Bakti, Petaling Jaya.]	NO_PRONOUNCE	NO_LABEL
Otto Steinmayer, "Jalai Jako' Iban, a basic grammar of the Iban language of Sarawak". Klasik Publishing House: Kuching, 1999.	NO_PRONOUNCE	NO_LABEL
Renang Anak Ansali, "Jaku Iban serta basa kitai". University of London Magazine, 2002.	NO_PRONOUNCE	NO_LABEL
Omniglot: Useful Iban phrases: http://omniglot.com/language/phrases/iban.php	NO_PRONOUNCE	NO_LABEL
