BMW 018はBMW AGによって計画されたドイツの初期の軸流式 ターボジェットエンジンである。	NO_PRONOUNCE	NO_LABEL
018の設計は1940年に開始された。	NO_PRONOUNCE	NO_LABEL
全体的に003に似ているが12段の軸流式圧縮機と3段のタービンを備え、推力はである。	NO_PRONOUNCE	NO_LABEL
第二次世界大戦の終結までに完成しなかった。	だいにじせかいたいせんのしゅーけつまでにかんせいしなかった。	NO_LABEL
