ポール・ラドニックは、アメリカ合衆国の劇作家・脚本家・小説家。	NO_PRONOUNCE	NO_LABEL
劇作家としての代表作には『くたばれハムレット』, 『ジェフリー』,"The Most Fabulous Story Ever Told", "Valhalla","The New Century" などがある。	NO_PRONOUNCE	NO_LABEL
ニュージャージー州ピスカタウェイ・タウンシップ育ち。	NO_PRONOUNCE	NO_LABEL
ゲイであることを公表しており、Libby Gelman-Waxnerという変名で""誌に寄稿もしている。	NO_PRONOUNCE	NO_LABEL
彼の小説には、イーヴリン・ウォーの初期作品、特に""を思わせるようなゲイを題材にしたコメディ『あそぶが勝ちよ』や、アメリカ合衆国におけるユダヤ人の生活を描いた『これいただくわ』、そして "Extasy Club"がある。	NO_PRONOUNCE	NO_LABEL
