株式会社ケーブルテレビ富山は、富山県のケーブルテレビ局。	かぶしきがいしゃけーぶるてれびとやまわ、とやまけんのけーぶるてれびきょく。	NO_LABEL
1996年4月開局で、略称はCTT。	NO_PRONOUNCE	NO_LABEL
富山県富山市に本社を置き、テレビ放送・インターネットサービス・直収電話・MVNO事業を展開している北陸電力の持分法適用会社で、富山県ケーブルテレビ協議会に加盟する事業者。	NO_PRONOUNCE	NO_LABEL
太字はHD画質のチャンネル	ふとじわえいちでぃーがしつのちゃんねる	NO_LABEL
地上波・コミチャンは、パススルー方式およびトランスモジュレーション方式で放送しているため市販の地上デジタルチューナー搭載機器およびSTBで視聴可能	NO_PRONOUNCE	NO_LABEL
BSは市販のBSデジタルチューナー搭載機器およびSTBで視聴可能。	ばすすとっぷわしはんのびーえすでじたるちゅーなーとーさいききおよびえすてぃーびーでしちょーかのー。	NO_LABEL
デジタルサービスではSTBでのみ視聴可能<br>CSはSTBでのみ視聴可能	NO_PRONOUNCE	NO_LABEL
●：視聴可能<br>★：ペイチャンネル	NO_PRONOUNCE	NO_LABEL
終了した番組	しゅーりょーしたばんぐみ	NO_LABEL
放送終了したチャンネル	ほーそーしゅーりょーしたちゃんねる	NO_LABEL
