西脇市駅は、兵庫県西脇市野村町にある、西日本旅客鉄道加古川線の駅。	にしわきしえきわ、ひょーごけんにしわきしのむらちょーにある、にしにほんりょかくてつどーかこがわせんのえき。	NO_LABEL
加古川駅が管理し、ジェイアール西日本交通サービスが駅業務を受託する業務委託駅となっている。	かこがわえきがかんりし、じぇいあーるにしにほんこーつーさーびすがえきぎょーむをじゅたくするぎょーむいたくえきとなっている。	NO_LABEL
みどりの窓口を併設する。	みどりのまどぐちをへいせつする。	NO_LABEL
1990年3月31日までは鍛冶屋線の起点であり、その当時は野村駅を名乗っていた。	せんきゅうひゃくきゅうじゅうねんさんがつさんじゅういちにちまでわかじやせんのきてんであり、そのとーじわのむらえきをなのっていた。	NO_LABEL
西脇市街へは、当駅から鍛冶屋線で一駅進んだ西脇駅の方が近かったが、同路線の廃止に伴い当駅が代わって「西脇」を駅名に冠するようになった。	NO_PRONOUNCE	NO_LABEL
単式ホーム1面1線と島式ホーム1面2線を持つ地上駅になっている。	NO_PRONOUNCE	NO_LABEL
多くの駅では駅舎側が1番のりばとなっているが、当駅では逆に駅舎の反対側から番号が振られている。	おーくのえきでわえきしゃがわがいちばんのりばとなっているが、とーえきでわぎゃくにえきしゃのはんたいがわからばんごーがふられている。	NO_LABEL
日中は加古川方面の列車が3番のりば、谷川方面の列車が1番のりばに発着しているため、同一平面上での乗り換えは基本的に行わない。	にっちゅーわかこがわほーめんのれっしゃがさんばんのりば、たにがわほーめんのれっしゃがいちばんのりばにはっちゃくしているため、どーいちへいめんじょーでののりかえわきほんてきにおこなわない。	NO_LABEL
車庫がある厄神駅と同様、列車の夜間滞泊が行われる駅である。	しゃこがあるやくじんえきとどーよー、れっしゃのやかんとどこーはくがおこなわれるえきである。	NO_LABEL
運行上の境界駅となっており、この駅から谷川方面は本数が少なくなる。	うんこーじょーのきょーかいえきとなっており、このえきからたにがわほーめんわほんすーがすくなくなる。	NO_LABEL
また、当駅を越えて運転される列車も下り列車1本のみで、それ以外は当駅で乗り換えとなる。	また、とーえきをこえてうんてんされるれっしゃもくだりれっしゃいっぽんのみで、それいがいわとーえきでのりかえとなる。	NO_LABEL
日中時間帯の加古川方面は1時間あたり1本運行されており、始発は5時47分、終電は21時46分で、到着は23時32分である。	にっちゅーじかんたいのかこがわほーめんわいちじかんあたりいっぽんうんこーされており、しはつわごじよんじゅうななふん、しゅーでんわにじゅういちじよんじゅうろっぷんで、とーちゃくわにじゅうさんじさんじゅうにふんである。	NO_LABEL
谷川方面は1日9本であり、始発は平日で5時18分、終電は20時51分で、到着は22時41分である。	たにがわほーめんわついたちきゅうほんであり、しはつわへいじつでごじじゅうはっぷん、しゅーでんわにじゅうじごじゅういっぷんで、とーちゃくわにじゅうにじよんじゅういっぷんである。	NO_LABEL
2001年3月2日までは当駅と加古川駅を結ぶ快速列車が運転されていたが、現在は当駅発着の列車はすべて普通列車となっている。	にせんいちねんさんがつふつかまでわとーえきとかこがわえきをむすぶかいそくれっしゃがうんてんされていたが、げんざいわとーえきはっちゃくのれっしゃわすべてふつーれっしゃとなっている。	NO_LABEL
「兵庫県統計書」によると、2016年度の1日平均乗車人員は779人である。	NO_PRONOUNCE	NO_LABEL
近年の1日平均乗車人員は以下の通りである。	きんねんのついたちへいきんじょーしゃじんいんわいかのとーりである。	NO_LABEL
駅前にはやや小さな駅前広場があり、タクシーの待ち合いが設けられている。	えきまえにわややちーさなえきまえひろばがあり、たくしーのまちあいがもーけられている。	NO_LABEL
当駅は市街の南外れに位置する。	とーえきわしがいのみなみはずれにいちする。	NO_LABEL
1980年代はじめにたのきんトリオがブームになったとき、当時野村駅を名乗っていた当駅と北条線田原駅の存在が話題になったことがあった。	せんきゅうひゃくはちじゅうねんだいはじめにたのきんとりおがぶーむになったとき、とーじのむらえきをなのっていたとーえきとほーじょーせんたはらえきのそんざいがわだいになったことがあった。	NO_LABEL
当駅の駅スタンプの他に、社町駅・滝野駅・滝駅・比延駅・日本へそ公園駅・黒田庄駅・本黒田駅・船町口駅・久下村駅の駅スタンプも当駅で管理されている。	NO_PRONOUNCE	NO_LABEL
ただし、山と渓谷社発行の「スタンプで巡る鉄道の旅 JR西日本約550駅」には収録されていない。	NO_PRONOUNCE	NO_LABEL
