万巻は、奈良時代の僧。	まんがんわ、ならじだいのそー。	NO_LABEL
万巻上人、萬巻上人などとも呼ばれる。	まんがんしょーにん、よろずまきしょーにんなどともよばれる。	NO_LABEL
修験道にも精通し、箱根山で箱根三所権現を感得した。	しゅげんどーにもせいつーし、はこねやまではこねさんしょごんげんをかんとくした。	NO_LABEL
『筥根山縁起』によれば、養老年間に京都の沙弥智仁に生まれた男子であり、20歳で受具剃髪し、一万巻にも及ぶ経典を呼んだので万巻と称され、日本全国の霊場を巡行した。	NO_PRONOUNCE	NO_LABEL
天平勝宝元年鹿島郡大領中臣連千徳、元宮司中臣鹿島連大宗とともに鹿島神宮寺の建立をした。	てんぴょーしょーほうがんねんかしまぐんだいりょーなかとみれんせんとく、もとぐーじなかとみかしまれんたいそーとともにかしまじんぐーじのこんりゅーをした。	NO_LABEL
なお、鹿島から箱根に向かう途中、海に炎が上がり魚が死んで漁民が苦悩しているのを目撃したので読経をすると、薬師如来が顕われて法力で温泉を海から山に移すように教導したので、37日間の断食祈祷で実現したとされる。	なお、かしまからはこねにむかうとちゅー、うみにほのおがあがりぎょがしんでぎょみんがくのーしているのをもくげきしたのでどきょーをすると、やくしにょらいがあらわわれてほーりきでおんせんをうみからやまにうつすよーにきょーどーしたので、さんじゅうななにちかんのだんじききとーでじつげんしたとされる。	NO_LABEL
これが熱海温泉の由来とも伝承されている。	これがあたみおんせんのゆらいともでんしょーされている。	NO_LABEL
天平宝字元年朝廷の命を受けて、箱根山の山岳信仰を束ねる目的で箱根山に入山し、神山や駒ケ岳で3年間修行して、相模国大早河上湖池水辺で難行苦行の功で箱根三所権現を感得した。	てんぴょーほうじがんねんちょーていのいのちをうけて、はこねやまのさんがくしんこーをたばねるもくてきではこねやまにいりやまし、かみやまやこまがたけでさんねんかんしゅぎょーして、さがみのくにおおはやかわかみこいけみずべでなんぎょーくぎょーのこーではこねさんしょごんげんをかんとくした。	NO_LABEL
そして、夢の中の神託により、箱根権現を祀る社殿を建立した。	そして、ゆめのなかのしんたくにより、はこねごんげんをまつるしゃでんをこんりゅーした。	NO_LABEL
また、芦ノ湖に住む9つの頭を持つ毒龍が荒れ狂って村民を苦しめていたのを法力で調伏したとされる。	また、あしのこにすむここのつのあたまをもつどくりゅーがあれくるってそんみんをくるしめていたのをほーりきでちょーぶくしたとされる。	NO_LABEL
調伏された九頭龍は懺悔して宝珠・錫杖・水瓶を持って万巻上人に帰依したので、湖の主・水神として祀る社殿を建立した。	NO_PRONOUNCE	NO_LABEL
天平宝字7年多度権現の神託で多度神宮寺を建立した。	てんぴょーほうじななねんたどごんげんのしんたくでたどじんぐーじをこんりゅーした。	NO_LABEL
万巻の没年は不明だが、その「奥津城」は、箱根神社の北参道の入り口近くにあり、現在、毎月24日に月次祭が行われている。	NO_PRONOUNCE	NO_LABEL
