インダストリアル・ロックは1970年代後半にインダストリアル・ミュージックとロックが交わり生まれた音楽ジャンル。	NO_PRONOUNCE	NO_LABEL
ハードロックとヘヴィメタルの間に厳密な境界線が無いように、“インダストリアル・メタル”と同義として扱われることも多い。	NO_PRONOUNCE	NO_LABEL
始祖はポストパンク・グループで、クローム、キリング・ジョーク、スワンズ、フィータス、ビッグ・ブラックなど。	NO_PRONOUNCE	NO_LABEL
1992年にナイン・インチ・ネイルズとミニストリーがブレイクし、広く知られるジャンルとなった。	せんきゅうひゃくきゅうじゅうにねんにないんいんちねいるずとみにすとりーがぶれいくし、ひろくしられるじゃんるとなった。	NO_LABEL
