夏原 諒は、東京都出身の俳優。	なつはらりょーわ、とーきょーとしゅっしんのはいゆー。	NO_LABEL
父は俳優の加藤剛。	ちちわはいゆーのかとーごー。	NO_LABEL
母は女優・声優の伊藤牧子。	NO_PRONOUNCE	NO_LABEL
弟に加藤頼。	おとーとにかとーらい。	NO_LABEL
本名は加藤 大治郎、旧芸名は夏原遼	ほんみょーわかとーだいじろー、きゅーげいめいわなつはらりょー	NO_LABEL
身長177cm。	しんちょーひゃくななじゅうななせんちめーとる。	NO_LABEL
血液型A型。	けつえきがたえーがた。	NO_LABEL
イザワオフィス所属。	いざわおふぃすしょぞく。	NO_LABEL
