藤田 幽谷- 1826年12月29日）は、江戸時代後期の儒学者・水戸学者・民政家。	NO_PRONOUNCE	NO_LABEL
水戸城下で古着商藤田屋を営む与右衛門の次男、母は根本氏の娘。	みとじょーかでふるぎしょーふじたやをいとなむようえもんのじなん、ははわねもとしのむすめ	NO_LABEL
祖父に与左衛門。	そふによざえもん。	NO_LABEL
子に藤田東湖。	こにふじたとーこ。	NO_LABEL
常陸水戸生まれ。	ひたちみとうまれ。	NO_LABEL
名は一正。	なわかずまさ。	NO_LABEL
通称は熊之介、後に与介、また次郎左衛門。	つーしょーわくまのかい、のちにあずかかい、またじろーざえもん。	NO_LABEL
字は子定。	じわこじょー。	NO_LABEL
水戸学中興の祖。	みとがくちゅーこーのそ。	NO_LABEL
水戸城下の奈良屋町に生まれる。	みとじょーかのならやちょーにうまれる。	NO_LABEL
幼少の頃から学問で頭角を現すようになり、寺社奉行下役の小川勘助や医師の青木侃斎に学ぶ。	よーしょーのころからがくもんでとーかくおあらわすよーになり、じしゃぶぎょーしたやくのおがわかんすけやいしのあおきただしときにまなぶ。	NO_LABEL
侃斎の推挙を受け、彰考館編修で後に総裁となる立原翠軒の門人となる。	ただしときのすいきょをうけ、しょうこーかんへんしゅーでのちにそーさいとなるたちはらすいけんのもんじんとなる。	NO_LABEL
1788年にはその推薦で彰考館に入る。	せんななひゃくはちじゅうはちねんにわそのすいせんでしょうこーかんにはいる。	NO_LABEL
1789年には正式に館員となり、水戸藩の修史事業である『大日本史』の編纂に携わる。	NO_PRONOUNCE	NO_LABEL
水戸藩では徳川光圀の百遠忌に向けて写本を献本するため『大日本史』の校訂と浄書を行っていたが、『大日本史』の題号に国号を憚るべきとする題号問題が発生していた。	NO_PRONOUNCE	NO_LABEL
翠軒が藩主治保からこの問題を諮問されている間に幽谷は翠軒を差し置いて題号を『史稿』に改めるべきであるとする意見書を提出し、翠軒の修史方針や藩主治保の修学態度、さらには藩政改革の提言や対外情勢への意見などを著作で発表し、一時は編修職を解任される。	NO_PRONOUNCE	NO_LABEL
この史館動揺は党派的な対立に発展する。	このしかんどーよーわとーはてきなたいりつにはってんする。	NO_LABEL
1807年彰考館の総裁に就任、150石を受ける。	NO_PRONOUNCE	NO_LABEL
著作である『勧農或問』は水戸藩天保の改革の農村対策に影響を与えた。	NO_PRONOUNCE	NO_LABEL
1812年再び総裁を専任。	じょきょくせんはっぴゃくじゅうにねんふたたびそーさいをせんにん。	NO_LABEL
門人に次男である藤田東湖、豊田天功、会沢正志斎らがおり、彼らは水戸学の尊王攘夷思想を全国に広める活動を行った。	もんじんにじなんであるふじたとーこ、とよだてんこー、あいざわせいしさいらがおり、かれらわみとがくのそんのーじょーいしそーをぜんこくにひろめるかつどーをおこなった。	NO_LABEL
著書に『正名論』など。	NO_PRONOUNCE	NO_LABEL
