株式会社ケースエンターテイメントは、日本の芸能事務所。	かぶしきがいしゃけーすえんたーていめんとわ、にっぽんのげいのーじむしょ。	NO_LABEL
主にアーティスト・モデル・タレント・役者のマネージメントを行っている。	NO_PRONOUNCE	NO_LABEL
常に時代の変化に合わせた「現実」を捉え、様々な「ケース」に対応し、時には「変わり者」として、「エンターテイメント」を通して多くの皆様に感動を提供するといったコンセプトを持つ、エンターテイメント会社である。	NO_PRONOUNCE	NO_LABEL
