富士山頂サブミリ波望遠鏡とは、東京大学が採択を受けた21世紀COEプログラム「初期宇宙の探求」、国立天文台、分子科学研究所によって開発・設置・運用が行われていた、サブミリ波帯域での宇宙電波を観測する電波望遠鏡のこと。	NO_PRONOUNCE	NO_LABEL
富士山頂にでは大気圧が地表の約1/2に低下し、大気が薄くなる分だけ、宇宙電波の観測にも適している。	NO_PRONOUNCE	NO_LABEL
そのため、国立天文台、分子科学研究所の協力を経て、富士山頂に宇宙電波観測施設を建設して運用を行う計画が始まった。	そのため、こくりつてんもんだい、ぶんしかがくけんきゅーじょのきょーりょくをへて、ふじさんちょーにうちゅーでんぱかんそくしせつをけんせつしてうんよーをおこなうけいかくがはじまった。	NO_LABEL
1998年夏に運用を開始、2005年夏に運用を終了。	せんきゅうひゃくきゅうじゅうはちねんなつにうんよーをかいし、にせんごねんなつにうんよーをしゅーりょー。	NO_LABEL
小さいながらも、サブミリ波帯域での観測成果を上げた。	ちーさいながらも、さぶみりはたいいきでのかんそくせいかをあげた。	NO_LABEL
また開発・運用を行った学生から7名の博士号授与者が生まれた。	NO_PRONOUNCE	NO_LABEL
ASTE望遠鏡やALMA観測計画への道しるべともなった望遠鏡でもある。	NO_PRONOUNCE	NO_LABEL
同じような、小型で多くの成果を挙げた電波望遠鏡としては、名古屋大学の「なんてん」が挙げられる。	NO_PRONOUNCE	NO_LABEL
富士山頂とはいえ、観測者が望遠鏡現地に滞在しての観測では負担が大きいことなどから、東京大学本郷キャンパスから遠隔制御で運用できる電波望遠鏡の検討を行った。	ふじさんちょーとわいえ、かんそくしゃがぼーえんきょーげんちにたいざいしてのかんそくでわふたんがおーきいことなどから、とーきょーだいがくほんごーきゃんぱすからえんかくせいぎょでうんよーできるでんぱぼうえんきょーのけんとーをおこなった。	NO_LABEL
また、富士山頂は、冬季には積雪があるため、望遠鏡本体を収納するドーム施設が必要とのことで、1964年に気象庁で運営を開始し、現在は運用を中止している富士山レーダードームに似せたドーム施設を建設することになった。	また、ふじさんちょーわ、とーきにわせきせつがあるため、ぼーえんきょーほんたいをしゅーのーするどーむしせつがひつよーとのことで、せんきゅうひゃくろくじゅうよねんにきしょーちょーでうんえいをかいしし、げんざいわうんよーをちゅーししているふじさんれーだーどーむににせたどーむしせつをけんせつすることになった。	NO_LABEL
1995年には、口径1.2mサブミリ波望遠鏡、ドーム施設、衛星通信施設からなる、富士山頂サブミリ波望遠鏡の開発を開始し、1998年7月には富士山頂へ設置し、運用を開始。	せんきゅうひゃくきゅうじゅうごねんにわ、こーけいいちてんにめーとるさぶみりはぼーえんきょー、どーむしせつ、えいせいつーしんしせつからなる、ふじさんちょーさぶみりはぼうえんきょーのかいはつをかいしし、せんきゅうひゃくきゅうじゅうはちねんしちがつにわふじさんちょーえせっちし、うんよーをかいし。	NO_LABEL
建設時は、ヘリコプターによって、地上の機材を運び上げる方式で建設を行った。	けんせつじわ、へりこぷたーによって、ちじょーのきざいをはこびあげるほーしきでけんせつをおこなった。	NO_LABEL
これらの機材は、気象庁東京管区気象台富士山測候所から6600Vの電源の供給を受けることで運用を行った。	NO_PRONOUNCE	NO_LABEL
しかしながら、2004年10月に富士山測候所の非常駐化が行われ、冬季には無人となることになった。	しかしながら、にせんよねんじゅーがつにふじさんそっこーじょのひじょーちゅーかがおこなわれ、とーきにわむじんとなることになった。	NO_LABEL
測候所から電源供給を受けてきていたため、送電は東京大学の責任と管理の下で行う事になり、実際に許認可などを経て遠隔送電制御施設を設置し送電を行った。	そっこーじょからでんげんきょーきゅーをうけてきていたため、そーでんわとーきょーだいがくのせきにんとかんりのしたでおこなうことになり、じっさいにきょにんかなどをへてえんかくそーでんせいぎょしせつをせっちしそーでんをおこなった。	NO_LABEL
しかしながら、2004年の冬季には2度の落雷によって送電設備が停止したり、遠隔制御設備が被害を受けたため、2005年夏季をもって、観測を完了することになった。	しかしながら、にせんよねんのとーきにわにどのらくらいによってそーでんせつびがていししたり、えんかくせいぎょせつびがひがいをうけたため、にせんごねんかきをもって、かんそくをかんりょーすることになった。	NO_LABEL
「小型であるが、最先端のサブミリ波宇宙電波観測を目指そう」を合言葉に開発が行われた。	NO_PRONOUNCE	NO_LABEL
パラボラアンテナは口径1.2mのアルミニウム削り出しであり、350GHz/500GHzの両周波数帯を同時に受信できる超伝導受信機、900MHz帯域のAOSや衛星通信による遠隔制御システムなどを開発した。	NO_PRONOUNCE	NO_LABEL
特に難易度の高かったAOSについては、分子科学研究所の協力によって開発された、高純度のピエゾ素子によって、GHz帯域に達する広帯域スペクトル観測を可能にした。	NO_PRONOUNCE	NO_LABEL
これによって、ダイナミックかつ高速で運動する、炭素原子の放つ電波を捉え、星間分子雲の成り立ちや分布についての大きな知見が得られた。	これによって、だいなみっくかつこーそくでうんどーする、たんそげんしのはなつでんぱをとらえ、せいかんぶんしくものなりたちやぶんぷについてのおーきなちけんがえられた。	NO_LABEL
