岡田　裕也は、日本のプロレスのレフェリー。	おかだゆーやわ、にっぽんのぷろれすのれふぇりー。	NO_LABEL
静岡県出身、プロレスリングBASARA所属。	しずおかけんしゅっしん、ぷろれすりんぐばさらしょぞく。	NO_LABEL
2013年12月26日新木場大会にて、レフェリーデビュー。	にせんじゅうさんねんじゅーにがつにじゅうろくにちしんきばたいかいにて、れふぇりーでびゅー。	NO_LABEL
