高橋 啓は、北海道帯広市出身の日本の翻訳家。	たかはしあきらわ、ほっかいどーおびひろししゅっしんのにっぽんのほんやくか。	NO_LABEL
早稲田大学第1文学部卒業。	NO_PRONOUNCE	NO_LABEL
主としてフランス語・英語の翻訳を行う。	NO_PRONOUNCE	NO_LABEL
パスカル・キニャールの訳者として知られる。	ぱすかるきにゃーるのやくしゃとしてしられる。	NO_LABEL
北海道帯広柏葉高等学校を卒業後、1972年に早稲田大学第1文学部に入学し、仏文を専攻する。	NO_PRONOUNCE	NO_LABEL
1978年に卒業後、教科書出版社に入社するも、2年後に退社。	せんきゅうひゃくななじゅうはちねんにそつぎょーご、きょーかしょしゅっぱんしゃににゅーしゃするも、にねんごにたいしゃ。	NO_LABEL
1982年から1984年にかけてアルジェリアに渡り、現場通訳の仕事をこなす。	せんきゅうひゃくはちじゅうにねんからせんきゅうひゃくはちじゅうよねんにかけてあるじぇりあにわたり、げんばつーやくのしごとをこなす。	NO_LABEL
帰国後に翻訳会社で一時的に勤務した後、30代半ばで独立。	きこくごにほんやくかいしゃでいちじてきにきんむしたのち、さんじゅうだいなかばでどくりつ。	NO_LABEL
当初は産業翻訳を手がけていたが、1988年の「FDG 社長学入門」を切っ掛けに本の翻訳を行うようになる。	NO_PRONOUNCE	NO_LABEL
その後高橋はパスカル・キニャールの「めぐり逢う朝」の原著に出会い、パリへ飛びキニャールに面会。	NO_PRONOUNCE	NO_LABEL
以降文学の翻訳が増えるようになる。	いこーぶんがくのほんやくがふえるよーになる。	NO_LABEL
キニャールの他にはフィリップ・クローデル、ニコラ・ブーヴィエらのの翻訳も手がけており、2009年10月には、初監督作品「ずっとあなたを愛してる」の日本公開に際して来日したクローデルと東京日仏学院で対談を行っている	NO_PRONOUNCE	NO_LABEL
2009年3月からは東京から帯広に居を移し、翻訳業を続ける傍ら帯広大谷短期大学でフランス語講師の仕事も行っている。	にせんきゅうねんさんがつからわとーきょーからおびひろにきょをうつし、ほんやくぎょーをつずけるかたわらおびひろおーたにたんきだいがくでふらんすごこーしのしごともおこなっている。	NO_LABEL
翻訳を担当したローラン・ビネ『HHhH プラハ、1942年』が、2014年本屋大賞翻訳小説部門で第1位。	NO_PRONOUNCE	NO_LABEL
