チーロ・インモービレ ;は、イタリア・カンパニア州ナポリ県トッレ・アンヌンツィアータ出身のサッカー選手。	NO_PRONOUNCE	NO_LABEL
セリエAのSSラツィオに所属している。	NO_PRONOUNCE	NO_LABEL
イタリア代表。	いたりあだいひょー。	NO_LABEL
ポジションはフォワード。	ぽじしょんわふぉわーど。	NO_LABEL
2002年からソレント・カルチョの下部組織に所属し、2008年6月にユヴェントスFCの下部組織へ移籍。	NO_PRONOUNCE	NO_LABEL
ユヴェントスのプリマヴェーラ時代には、で準決勝、決勝と2試合連続ドッピエッタを記録し、チームを4年ぶりの優勝に導いた。	NO_PRONOUNCE	NO_LABEL
続く、に行われた同大会でも、決勝戦のエンポリFC戦で上げたトリプレッタを含む10ゴールをあげるなど大会連覇に貢献し、得点王と共に同大会の最優秀選手に選ばれた。	つずく、におこなわれたどーたいかいでも、けっしょーせんのえんぽりふっとぼーるくらぶせんであげたとりぷれったをふくむじゅうごーるをあげるなどたいかいれんぱにこーけんし、とくてんおーとともにどーたいかいのさいゆーしゅーせんしゅにえらばれた。	NO_LABEL
2008-09シーズン、3月14日のボローニャFC戦にてアレッサンドロ・デル・ピエロと交代で途中出場し、19歳でセリエAデビュー。	NO_PRONOUNCE	NO_LABEL
2009-10シーズン、CLのFCジロンダン・ボルドー戦ではリードされている68分に途中出場し、CLデビューを飾った。	NO_PRONOUNCE	NO_LABEL
2010-11シーズンは、チームメイトのルカ・マッローネと共にACシエーナとローン契約を結んだ。	NO_PRONOUNCE	NO_LABEL
シエナでは出場機会に恵まれず、1月にはUSグロッセートへレンタル移籍した。	NO_PRONOUNCE	NO_LABEL
2011-12シーズンはペスカーラへレンタル移籍。	NO_PRONOUNCE	NO_LABEL
ペスカーラではレギュラーポジションを確保し、ゴールを量産。	ぺすかーらでわれぎゅらーぽじしょんをかくほし、ごーるをりょーさん。	NO_LABEL
セリエB得点王に輝き、ペスカーラのセリエA昇格に貢献した。	せりえびーとくてんおーにかがやき、ぺすかーらのせりえあーしょーかくにこーけんした。	NO_LABEL
2012-13シーズンは2012年1月に共同保有権を獲得したジェノアCFCでプレー	NO_PRONOUNCE	NO_LABEL
2013年7月12日、ユヴェントスがジェノアから保有権を買い戻しトリノFCへ共同保有で移籍した。	NO_PRONOUNCE	NO_LABEL
2013-14シーズンは開幕からゴールを量産、2014年3．22のリボルノ戦でキャリア初のハットトリックを成し遂げるなど、22ゴールを決め、自身初のセリエA得点王となった。	NO_PRONOUNCE	NO_LABEL
2014年6月、ブンデスリーガのボルシア・ドルトムントへの移籍が決定。	にせんじゅうよねんろくがつ、ぶんですりーがのぼるしあどるとむんとえのいせきがけってい。	NO_LABEL
入れ替わりでバイエルン・ミュンヘンへ移籍したロベルト・レバンドフスキの穴埋めを期待されるも、リーグ戦24試合3得点という結果に終わった。	いれかわりでばいえるんみゅんへんえいせきしたろべるとればんどふすきのあなうめをきたいされるも、りーぐせんにじゅうよんしあいさんとくてんとゆうけっかにおわった。	NO_LABEL
2015年7月、セビージャFCへ1年間の期限付き移籍が発表された。	にせんじゅうごねんしちがつ、せびーじゃふとぼるくるぶえいちねんかんのきげんつきいせきがはっぴょーされた。	NO_LABEL
11月8日のレアル・マドリード戦で同点ゴールを決め、移籍後初得点を記録したが、僅か8試合2ゴールで、2016年1月14日、古巣トリノFCへ期限付き移籍した。	じゅーいちがつようかのれあるまどりーどせんでどーてんごーるをきめ、いせきごはつとくてんをきろくしたが、わずかはちしあいにごーるで、にせんじゅうろくねんいちがつじゅうよっか、ふるすとりのふっとぼーるくらぶえきげんつきいせきした。	NO_LABEL
2016年7月、SSラツィオに完全移籍での入団が決定。	NO_PRONOUNCE	NO_LABEL
開幕戦でゴールを決めるなど、セリエAでシーズン中36試合で23ゴールを決める活躍を見せた 。	NO_PRONOUNCE	NO_LABEL
2017年スーペルコッパ・イタリアーナではユヴェントス相手に2ゴールを決め優勝に貢献。	NO_PRONOUNCE	NO_LABEL
3節ACミラン戦ではハットトリックを決めた。	さんせつえーしーみらんせんでわはっととりっくをきめた。	NO_LABEL
2018年1月SPAL戦では4ゴールも決めた。	NO_PRONOUNCE	NO_LABEL
またUEFAヨーロッパリーグラウンド32のステアウア戦でもハットトリックを成し遂げた。	NO_PRONOUNCE	NO_LABEL
2014年3月5日のスペインとの親善試合でイタリア代表デビュー。	にせんじゅうよねんさんがついつかのすぺいんとのしんぜんじあいでいたりあだいひょーでびゅー。	NO_LABEL
同年に開催されたFIFAワールドカップにも出場、同年9月4日のオランダとの親善試合で代表初得点を挙げた。	どーねんにかいさいされたふぃふぁわーるどかっぷにもしゅつじょー、どーねんくがつよっかのおらんだとのしんぜんじあいでだいひょーはつとくてんをあげた。	NO_LABEL
2016年ユーロフランス大会の23人のメンバーに選出された。	にせんじゅうろくねんゆーろふらんすたいかいのにじゅうさんにんのめんばーにせんしゅつされた。	NO_LABEL
