セネガル料理は、アフリカ大陸西岸の国家セネガルの料理である。	せねがるりょーりわ、あふりかたいりくせいがんのこっかせねがるのりょーりである。	NO_LABEL
元来この地に居住していたウォロフ族の食文化が、11世紀に定着したイスラム教の影響を受け、大航海時代以降はヨーロッパ諸国も加わった。	がんらいこのちにきょじゅーしていたうぉろふぞくのしょくぶんかが、じゅういちせいきにていちゃくしたいすらむきょーのえいきょーをうけ、だいこーかいじたいいこーわよーろっぱしょこくもくわわった。	NO_LABEL
特に1960年までこの地を植民地としていたフランスの影響は大きく、魚をファルシにする調理法などに名残を見ることができる。	とくにせんきゅうひゃくろくじゅうねんまでこのちをしょくみんちとしていたふらんすのえいきょーわおーきく、さかなをふぁるしにするちょーりほーなどになごりをみることができる。	NO_LABEL
これら各地の食文化を受け継いだセネガル料理は、アフリカでも特に洗練されているといわれ、世界各国にセネガル料理専門店がある。	これらかくちのしょくぶんかをうけついだせねがるりょーりわ、あふりかでもとくにせんれんされているといわれ、せかいかっこくにせねがるりょーりせんもんてんがある。	NO_LABEL
乾燥地帯ではモロコシやトウジンビエ、フォニオを原料としたはったい粉やクスクス、ウガリのような湯練り粉が主食とされ、新鮮な牛乳や肉の煮込み汁を添えて食べる。	かんそーちたいでわもろこしやとうじんびえ、ふぉにおをげんりょーとしたはったいこやくすくす、うがりのよーなゆねりこがしゅしょくとされ、しんせんなぎゅーにゅーやにくのにこみじるをそえてたべる。	NO_LABEL
一方、年間降水量が1500ミリにも達するカザマンス地方では、古くから稲が栽培され、居住するジョラ族は米に依存した食生活を送っている。	NO_PRONOUNCE	NO_LABEL
炊いた飯に川魚の煮込み汁をかけて食する。	たいためしにかわざかなのにこみじるをかけてしょくする。	NO_LABEL
ジョラ語で「稲」は「カンマーノ」、「籾」は「バトージャール」、「米」は「ジャチョプ」、「飯」は「シナング」と言い、全て「Rice」で統一する英語と異なり、稲作に対する思い入れが伺える。	NO_PRONOUNCE	NO_LABEL
現在では年間降水量500ミリ程度の首都・ダカールでも米食は広まっているが、その需要に応えるべく、タイやパキスタンからインディカ米が輸入されている。	NO_PRONOUNCE	NO_LABEL
インディカ米は粒が長いため、輸送途中で砕けやすいが、この「砕け米」は、大量の油やスープとともに炊き、手で食するセネガル料理における米利用法と相性が良い。	NO_PRONOUNCE	NO_LABEL
そのため、現地では粒揃いの米よりも砕け米が高値で取引されており、完全な粒の米をわざわざ砕いて売る例すらある。	そのため、げんちでわつぶぞろいのべいよりもくだけまいがたかねでとりひきされており、かんぜんなつぶのこめをわざわざくだいてうるれいすらある。	NO_LABEL
米は湯を沸かした鍋の上にザルや金属製の甑を仕掛けて蒸した後、湯やスープに入れて炊き上げる。	べいわゆをわかしたなべのうえにざるやきんぞくせいのこしきをしかけてむしたのち、ゆやすーぷにいれてたきあげる。	NO_LABEL
米料理の代表例が、「チェブジェン」である。	NO_PRONOUNCE	NO_LABEL
フランスの影響で現在ではパンも好まれている。	ふらんすのえいきょーでげんざいでわぱんもこのまれている。	NO_LABEL
ダンガナと呼ばれる朝食専門の屋台では、フランス直伝のバゲットの薄切りとインスタントコーヒーが日本円で20円ほどで供されている。	だんがなとよばれるちょーしょくせんもんのやたいでわ、ふらんすじきでんのばげっとのうすぎりといんすたんとこーひーがにほんえんでにじゅうえんほどできょーされている。	NO_LABEL
大西洋で水揚げされるマグロ、メカジキ、シマアジ、マトウダイなどの魚、海岸のマングローブ地帯に住むロブスターがセネガル料理の素材である。	たいせいよーでみずあげされるまぐろ、めかじき、しまあじ、まとうだいなどのさかな、かいがんのまんぐろーぶちたいにすむろぶすたーがせねがるりょーりのそざいである。	NO_LABEL
特にニシン科の魚「ヤーボイ」は煮込み料理や炊き込み飯の材料にされるほか、ケチャという食品に加工され、魚醤のように料理の味付けに使用される。	NO_PRONOUNCE	NO_LABEL
家畜の肉としては鶏肉、羊肉、牛肉、山羊肉がポピュラーであるが、国民の大部分がイスラム教徒のため、豚肉は使用されない。	かちくのにくとしてわけいにく、ようにく、ぎゅーにく、やぎにくがぽぴゅらーであるが、こくみんのだいぶぶんがいすらむきょーとのため、ぶたにくわしよーされない。	NO_LABEL
農業生産物としては、米やクスクス以外に落花生、サツマイモ、レンズマメ、マニオク、さらにキャベツ、ナス、南瓜が使用され、肉や魚とともに煮込んで米飯やクスクス、パンとともに食される。	のーぎょーせいさんぶつとしてわ、べいやくすくすいがいにらっかせい、さつまいも、れんずまめ、まにおく、さらにきゃべつ、なす、かぼちゃがしよーされ、にくやさかなとともににこんでべいはんやくすくす、ぱんとともにしょくされる。	NO_LABEL
トマトは最も人気のある野菜である。	とまとわもっともにんきのあるやさいである。	NO_LABEL
その他、バオバブの実、マンゴー、オレンジ、グレープフルーツ、さらにコートジボワールから輸入されたバナナやパイナップルなど、さまざまな果物類がデザートに供される。	そのた、ばおばぶのみ、まんごー、おれんじ、ぐれーぷふるーつ、さらにこーとじぼわーるからゆにゅーされたばななやぱいなっぷるなど、さまざまなくだものるいがでざーとにきょーされる。	NO_LABEL
塩、胡椒、唐辛子のほか、タマリンドが使用される。	しお、こしょー、とーがらしのほか、たまりんどがしよーされる。	NO_LABEL
アフリカ独特のものとしては、マメ科植物の実を茹でて醗酵させた納豆のような食品「ネテトゥ」、魚の干物「ケチャ」、そして巻貝の干物「イェット」が挙げられる。	NO_PRONOUNCE	NO_LABEL
ケチャやイェットは独特の臭気を発するが、これがセネガル人にとっては郷愁に映るという。	けちゃやいぇっとわどくとくのしゅーきをはっするが、これがせねがるじんにとってわきょーしゅーにうつるという。	NO_LABEL
しかし日本人にとっての納豆と同じく、臭みのせいでイェットを嫌うセネガル人も多い。	しかしにっぽんじんにとってのなっとーとどうじく、くさみのせいでいぇっとをきらうせねがるじんもおーい。	NO_LABEL
なお、近年では煮込み料理や炊き込み飯を作る際、固形ブイヨンの使用が浸透している。	なお、きんねんでわにこみりょーりやたきこみめしをつくるさい、こけいぶいよんのしよーがしんとーしている。	NO_LABEL
セネガル料理は主に「ベンナ・チン」と「ニャーリ・チン」に分類される。	NO_PRONOUNCE	NO_LABEL
それぞれ、「鍋一つで作れる食事」「鍋二つで作れる食事」の意で、前者は「炊き込み飯」「雑炊」、後者は「ご飯と味噌汁」「ご飯とおかず」「カレーライス」をイメージすればわかりやすい。	NO_PRONOUNCE	NO_LABEL
ベンナ・チンには、以下の例がある。	NO_PRONOUNCE	NO_LABEL
ニャーリ・チンには、以下の例がある。	NO_PRONOUNCE	NO_LABEL
その他、さまざまな料理。	そのた、さまざまなりょーり。	NO_LABEL
味付け、魚、鶏肉、羊肉や牛肉のトマトとピーナッツバター醤油で野菜で調理したもの。	あじつけ、さかな、けいにく、ようにくやぎゅーにくのとまととぴーなっつばたーしょーゆでやさいでちょーりしたもの。	NO_LABEL
紅茶、コーヒーが飲用されている。	こーちゃ、こーひーがいんよーされている。	NO_LABEL
サバンナ地帯の村では、薬缶で煮出した緑茶に大量の砂糖を入れて飲む。	さばんなちたいのむらでわ、やかんでにだしたりょくちゃにたいりょーのさとーをいれてのむ。	NO_LABEL
西アフリカ特有の嗜好品・コーラの実も盛んに使用される。	NO_PRONOUNCE	NO_LABEL
雨量が豊かでアブラヤシが自生している地方ではヤシ酒が愛飲されている。	うりょーがゆたかであぶらやしがじせいしているちほーでわやししゅがあいいんされている。	NO_LABEL
ヤシの大木の先端から伸びる花の軸を切り、切り口にヒョウタンをあてがい、滴る汁を受ける。	やしのたいぼくのせんたんからのびるはなのじくをきり、きりくちにひょーたんをあてがい、したたるしるをうける。	NO_LABEL
中で自然に醗酵して酒になる。	なかでじねんにはっこーしてさけになる。	NO_LABEL
しかしセネガルはイスラム教国であるため、法律で禁じられていないものの飲酒は憚れる行為である。	NO_PRONOUNCE	NO_LABEL
酒好きは「マキ」と呼ばれる食堂に出入りする。	NO_PRONOUNCE	NO_LABEL
マキはフランス語で「藪・茂み」を意味するmaquisから派生した言葉で、「アジト」といった意味合いの秘密食堂。	NO_PRONOUNCE	NO_LABEL
コートジボワールにも同じ名のレストランがある。	こーとじぼわーるにもおなじなのれすとらんがある。	NO_LABEL
ここではビールやウイスキーをおおっぴらに飲める。	ここでわびーるやういすきーをおーっぴらにのめる。	NO_LABEL
床にゴザを敷き、男女別の大皿に料理を盛りつける。	ゆかにござをしき、だんじょべつのおーざらにりょーりをもりつける。	NO_LABEL
その周囲に男女別に家族が陣取るが、家長のみがあぐらをかき、それ以外の者は立て膝で座る。	そのしゅーいにだんじょべつにかぞくがじんどるが、かちょーのみがあぐらをかき、それいがいのものわたてひざですわる。	NO_LABEL
年少の者は、座る際の床面積が広くてはいけない。	ねんしょーのものわ、すわるさいのゆかめんせきがひろくてわいけない。	NO_LABEL
家長が「アイチャ」と一声かけて食事が始まる。	NO_PRONOUNCE	NO_LABEL
改まった席ではイスラムの祈りの文句「ビスミッラ」と唱え、家族もそれに和す。	NO_PRONOUNCE	NO_LABEL
しかし食事に入ると口を聞かず、味に関する論評もしない。	しかししょくじにはいるとくちをきかず、あじにかんするろんぴょーもしない。	NO_LABEL
食事は基本的に手食であるが、左手は一切使われない。	しょくじわきほんてきにてしょくであるが、ひだりてわいっさいつかわれない。	NO_LABEL
大きな肉をちぎるなど、片手のみでの作業が難しい場合は同席者の右手を借りる。	おーきなにくをちぎるなど、かたてのみでのさぎょーがむずかしいばあいわどーせきしゃのみぎてをかりる。	NO_LABEL
都市部では20世紀後半からスプーンの使用が広まったが、右手のみの使用は変わらない。	としぶでわにじっせいきこーはんからすぷーんのしよーがひろまったが、みぎてのみのしよーわかわらない。	NO_LABEL
家長は食事の終盤に魚の頭や肉が残った背骨など、特別味わいがある部分をしゃぶる特権がある。	かちょーわしょくじのしゅーばんにうおのあたまやにくがのこったせぼねなど、とくべつあじわいがあるぶぶんをしゃぶるとっけんがある。	NO_LABEL
これは客人にも勧めない。	これわきゃくじんにもすすめない。	NO_LABEL
食事が終わり、皆が手を洗ったところでコップの水を回し飲みして口直しする。	しょくじがおわり、みながてをあらったところでこっぷのみずをまわしのみしてくちなおしする。	NO_LABEL
小さな子供以外は、食事中に汚れた手で水を飲むことは憚られる。	NO_PRONOUNCE	NO_LABEL
