上水内北部広域農道は、長野県長野市から上水内郡信濃町に至る広域農道。	かみみのちほくぶこーいきのうどーわ、ながのけんながのしからかみみのちぐんしなのまちにいたるこーいきのうどー。	NO_LABEL
北信五岳のすべてが沿道から望めることから、北信五岳道路と呼ばれている。	ほくしんごがくのすべてがえんどーからのぞめることから、ほくしんごがくどーろとよばれている。	NO_LABEL
長野市・上水内郡飯綱町・同郡信濃町にまたがる上水内北部広域営農団地を受益地として、農作物を上信越自動車道信州中野ICから輸送することを目的に整備された。	NO_PRONOUNCE	NO_LABEL
長野市豊野町蟹沢と同市吉を結ぶ豊野幹線と、長野市豊野町大倉と上水内郡信濃町古間とを結ぶ信濃幹線の2路線から成る。	NO_PRONOUNCE	NO_LABEL
長野県道29号中野豊野線の信州中野IC方面から国道18号飯綱町方面、長野市若槻・長野市街地への短絡路として機能する。	NO_PRONOUNCE	NO_LABEL
この区間については、豊野ラインと呼ばれている。	このくかんについてわ、とよのらいんとよばれている。	NO_LABEL
大方交差点で豊野幹線から分岐し、飯綱町を経て信濃町に至る路線。	おーかたこーさてんでとよのかんせんからぶんきし、いーずなまちをへてしなのまちにいたるろせん。	NO_LABEL
飯綱町の一部区間については、長野県営ふるさと農道三水地区として整備された。	いーずなまちのいちぶくかんについてわ、ながのけんえいふるさとのうどーさみずちくとしてせいびされた。	NO_LABEL
国道18号の東側に並行しており、同国道のバイパスとしても機能している。	こくどーじゅうはちごーのひがしがわにへいこーしており、どーこくどーのばいぱすとしてもきのーしている。	NO_LABEL
この区間については、信濃ラインと呼ばれている。	このくかんについてわ、しなのらいんとよばれている。	NO_LABEL
周辺はりんごなどの生産地である。	しゅーへんわりんごなどのせいさんちである。	NO_LABEL
