スコラード累層はカナダ・アルバータ州南部にある白亜紀後期の地層の一つ。	NO_PRONOUNCE	NO_LABEL
そこで見つかる化石は白亜紀後期と暁新世前期の中間期間のものを含んでおり、K-Pg境界の前、間、そして後の化石が同居している。	NO_PRONOUNCE	NO_LABEL
 その化石記録と優れた石炭産地であるがゆえに経済的な意味でも重要視されている。	そのかせききろくとすぐれたせきたんさんちであるがゆえにけいざいてきないみでもじゅーよーしされている。	NO_LABEL
スコラード累層は主に砂岩とシルトで構成され、泥岩が介在する。	すこらーどるいそーわおもにしゃがんとしるとでこーせいされ、でいがんがかいざいする。	NO_LABEL
上部には石炭層が見られ、わずかにベントナイトも含まれる。	じょーぶにわせきたんそーがみられ、わずかにべんとないともふくまれる。	NO_LABEL
 堆積物は山脈から河川系による西への流送と川の氾濫による浸食で堆積されたものと思われる。	たいせきぶつわさんみゃくからかせんけいによるにしえのながれおくとかわのはんらんによるしんしょくでたいせきされたものとおもわれる。	NO_LABEL
スコラード累層はエドモントン層群の最上層として分類されることが多いが、より伝統的な分類ではパスカプー累層の一部に含まれていた。	すこらーどるいそーわえどもんとんそーぐんのさいじょーそーとしてぶんるいされることがおーいが、よりでんとーてきなぶんるいでわぱすかぷーるいそーのいちぶにふくまれていた。	NO_LABEL
 それは石炭の豊富な上部のアードリー石炭域と、石炭をさほど保存していない下部領域とに細分されるが、どちらの層もまだ正式な名前は与えられていない。	それわせきたんのほーふなじょーぶのあーどりーせきたんいきと、せきたんをさほどほぞんしていないかぶりょーいきとにさいぶんされるが、どちらのそーもまだせいしきななまえわあたえられていない。	NO_LABEL
恐竜や微生物の化石証拠や白亜紀の終末であることを示すイリジウムが堆積している事に基づき、アードリー石炭域の最下部には K-Pg境界が生じており 、上層部が暁新世前期、下層部が白亜紀後期の地層であることを示している。	NO_PRONOUNCE	NO_LABEL
スコラード累層は現在においてアルバータ州南部の準表層にある 。	すこらーどるいそーわげんざいにおいてあるばーたしゅーなんぶのじゅんひょーそーにある。	NO_LABEL
そしてそれはレッドディア川沿岸に沿ってトロックーまでに渡り広範囲に露頭している。	そしてそれわれっどでぃあがわえんがんにそってとろっくーまでにわたりこーはんいにろとーしている。	NO_LABEL
上層、下層共に東西に薄い。	じょーそー、かそーどもにとーざいにうすい。	NO_LABEL
各層の厚さは、ロッキー山脈近くの300ｍから南部中央部付近の100ｍ未満の範囲に渡る。	NO_PRONOUNCE	NO_LABEL
スコラード累層は、アルバータ州南西部の平野の白亜紀後期のバトル累層、北西平野のワピチ累層、そして麓のブラゼアウ累層とは層序的に一致しない。	すこらーどるいそーわ、あるばーたしゅーなんせいぶのへいやのはくあきこーきのばとるるいそー、ほくせいへいやのわぴちるいそー、そしてふもとのぶらぜあうるいそーとわそーじょてきにいっちしない。	NO_LABEL
パスカプー累層が侵食によって除去された場合、スコラード累層は表面に露出しているか、または第四紀の堆積物によって覆われていたと思われる事から、パスカプー累層の堆積は層序学的には考慮すべきではない。	ぱすかぷーるいそーがしんしょくによってじょきょされたばあい、すこらーどるいそーわひょーめんにろしゅつしているか、またわだいよんきのたいせきぶつによっておおわれていたとおもわれることから、ぱすかぷーるいそーのたいせきわそーじょがくてきにわこーりょすべきでわない。	NO_LABEL
スコラードは、アルバータ平原南部にあるウィロウクリーク累層およびアルバータ・フットヒルズのコールスパー累層と同時代の層である。	NO_PRONOUNCE	NO_LABEL
上部のアードリー石炭域はコールスパー累層のコールスパー石炭域下部と層序的に一致する。	じょーぶのあーどりーせきたんいきわこーるすぱーるいそーのこーるすぱーせきたんいきかぶとそーじょてきにいっちする。	NO_LABEL
そしてサスカチュワン州南部のレイヴンクラッグ累層下部とも同一である。	NO_PRONOUNCE	NO_LABEL
 白亜紀後期の層については、サスカチュワン州のフレンチマン累層、モンタナ州のヘルクリーク累層、ワイオミング州のランス累層と一致する。	はくあきこーきのそーについてわ、さすかちゅわんしゅーのふれんちまんるいそー、もんたなしゅーのへるくりーくるいそー、わいおみんぐしゅーのらんするいそーといっちする。	NO_LABEL
スコラード累層は古脊椎動物化石を豊富に保存している。	すこらーどるいそーわこせきついどーぶつかせきをほーふにほぞんしている。	NO_LABEL
特に恐竜が目立ち、哺乳類は稀で、植物は広範囲に渡って見られる。	とくにきょーりゅーがめだち、ほにゅーるいわまれで、しょくぶつわこーはんいにわたってみられる。	NO_LABEL
スコラード累層はK-Pg境界を跨いでいる為、そこで発見される恐竜は中生代最後のものであり、上部で発見される哺乳類は大量絶滅後の哺乳類の時代の黎明期のものということになる。	NO_PRONOUNCE	NO_LABEL
