ヤッペ・ニルセンは、ノルウェーの作家、美術史家。	やっぺにるせんわ、のるうぇーのさっか、びじゅつしか。	NO_LABEL
クリスチャニアで生まれた。	くりすちゃにあでうまれた。	NO_LABEL
長編小説2篇と、短編小説数篇を著したが、主に美術批評家としての"Dagbladet"紙への寄稿で知られる。	NO_PRONOUNCE	NO_LABEL
同紙には、1908年から亡くなるまで寄稿を続けた。	どーしにわ、せんきゅうひゃくはちねんからなくなるまできこーをつずけた。	NO_LABEL
画家エドヴァルド・ムンク、画家、作家ハンス・イェーゲルと親しく、クリスチャニア・ボヘミアンの一員と言われる。	NO_PRONOUNCE	NO_LABEL
1891年、ニルセンは、クリスチャン・クローグの妻で、ニルソンより10歳上のオーダ・クローグと不倫関係になったといわれる。	NO_PRONOUNCE	NO_LABEL
ムンクは、この不倫関係を『メランコリー』という絵画の題材としている。	NO_PRONOUNCE	NO_LABEL
ニルセンの最初の小説"Nemesis"には、Nils Falkという若い作家が10歳上の人妻と不倫関係を持つ話が登場する。	NO_PRONOUNCE	NO_LABEL
ムンクは、1909年、ニルセンの肖像画を描いている。	むんくわ、せんきゅうひゃくきゅうねん、にるせんのしょーぞーがをえがいている。	NO_LABEL
また、1925年から1926年には、ニルセンと医師Lucien Dedichenとを描いた作品を制作している。	NO_PRONOUNCE	NO_LABEL
そのほか、ヘンリック・イプセンと並んだデッサンも制作している。	そのほか、へんりっくいぷせんとならんだでっさんもせいさくしている。	NO_LABEL
1909年、ニルセンと、国立美術館の館長イェンス・ティースは、ムンクの油絵100点と版画200点の大展覧会を開催した。	せんきゅうひゃくきゅうねん、にるせんと、こくりつびじゅつかんのかんちょーいぇんすてぃーすわ、むんくのあぶらえひゃってんとはんがにひゃってんのだいてんらんかいをかいさいした。	NO_LABEL
この展覧会は成功に終わり、ムンクが一般的に認知されるについて大きな役割を果たした。	このてんらんかいわせいこーにおわり、むんくがいっぱんてきににんちされるについておーきなやくわりをはたした。	NO_LABEL
