高橋 五郎は、ドキュメンタリー映像プロデューサー・作家。	NO_PRONOUNCE	NO_LABEL
1940年、静岡県焼津生まれ。	せんきゅうひゃくよんじゅうねん、しずおかけんやいずうまれ。	NO_LABEL
日本初の求人専門の写真週刊誌を都内ＪＲと地下鉄で発売、1960年代初頭、太陽電池と半導体の現物をアメリカから日本へ初めて持ち込み、旧通産省において国内大手電機メーカーへ初公開。	にっぽんはつのきゅーじんせんもんのしゃしんしゅーかんしをとないじぇいあーるとちかてつではつばい、せんきゅうひゃくろくじゅうねんだしょとー、たいよーでんちとはんどーたいのげんぶつをあめりかからにっぽんえはじめてもちこみ、きゅーつーさんしょーにおいてこくないおーてでんきめーかーえはつこーかい。	NO_LABEL
スペイン政府と王室のための、歴史的文物類と王室所有の秘蔵品をスペイン史上初めて映像に収録。	すぺいんせいふとおーしつのための、れきしてきぶんぶつるいとおーしつしょゆーのひぞーひんをすぺいんしじょーはじめてえいぞーにしゅーろく。	NO_LABEL
1980年代には、再生医療の開発・研究のために、カリフォルニア大学バークレー校とバイオ・タイム社として、世界初の人工血液開発実験に成功、その全記録映像を世界へ配信。	NO_PRONOUNCE	NO_LABEL
主な映像企画作品に「零戦第4617号」、「アルタミラ原始洞窟絵画」、「スペイン王室の記録」「幻の巨大地下壕」、「広島原爆はナチス製だった!?」など多数。	NO_PRONOUNCE	NO_LABEL
「大人の流儀」誌上において、メディアで初めて南朝系天皇の末裔・小野寺直氏と氏が所有継承する「三種の神器」を映像化して紹介し、話題を呼んだ。	NO_PRONOUNCE	NO_LABEL
美幌の自衛隊基地の地下から、旧日本軍が戦中にアジア各地で集めた天皇の金塊や山下財宝を埋めた地下壕を発見。	びほろのじえいたいきちのちかから、きゅーにほんぐんがせんちゅーにあじあかくちであつめたてんのーのきんかいややましたざいほーをうめたちかごーをはっけん。	NO_LABEL
著書の大半は、バチカン、ナチス、日本の三重スパイであったベラスコからの伝聞情報と、独自の情報網を掛け合わせた分析に基づいて書かれている。	ちょしょのたいはんわ、ばちかん、なちす、にっぽんのさんじゅうすぱいであったべらすこからのでんぶんじょーほーと、どくじのじょーほーもーをかけあわせたぶんせきにもとずいてかかれている。	NO_LABEL
第二次大戦前からバチカンのスパイとしても活躍していたベラスコから、スパイだから知り得る近代世界の裏側を聞かされおり、他の著者の陰謀情報とは一線を画す内容が多い。	だいにじたいせんまえからばちかんのすぱいとしてもかつやくしていたべらすこから、すぱいだからしりえるきんだいせかいのうらがわをきかされおり、たのちょしゃのいんぼーじょーほーとわいっせんをかくすないよーがおーい。	NO_LABEL
いずれの書籍は、日本国民全員が、日本国政府から知らされていない真実の歴史を知ることになる。	いずれのしょせきわ、にっぽんこくみんぜんいんが、にっぽんこくせいふからしらされていないしんじつのれきしをしることになる。	NO_LABEL
　高橋五郎 Channel 天皇の金塊	NO_PRONOUNCE	NO_LABEL
