劉 亜男は、中華人民共和国のバレーボール選手である。	りゅーあおとこわ、ちゅーかじんみんきょーわこくのばれーぼーるせんしゅである。	NO_LABEL
元中華人民共和国代表。	もとちゅーかじんみんきょーわこくだいひょー。	NO_LABEL
アテネオリンピック金メダリスト。	あてねおりんぴっくきんめだりすと。	NO_LABEL
遼寧省大連市出身。	りょーねいしょーだいれんしゅっしん。	NO_LABEL
1991年の地元のアマチュアチームに入団しバレーボールを始める。	せんきゅうひゃくきゅうじゅういちねんのじもとのあまちゅあちーむににゅーだんしばれーぼーるをはじめる。	NO_LABEL
1994年には遼寧省ユースチームに選出され、1998年にナショナルユースチーム入りを果たした。	せんきゅうひゃくきゅうじゅうよねんにわりょーねいしょーゆーすちーむにせんしゅつされ、せんきゅうひゃくきゅうじゅうはちねんになしょなるゆーすちーむいりをはたした。	NO_LABEL
2001年にナショナルチーム入りした。	にせんいちねんになしょなるちーむいりした。	NO_LABEL
2000年代前半の中国バレーボールチームの黄金期を支えた一人で、馮坤とのコンビは有名である。	NO_PRONOUNCE	NO_LABEL
