大阪府社会人サッカーリーグとは、全国の各都道府県にあるサッカーの都道府県リーグのひとつ。	おーさかふしゃかいじんさっかーりーぐとわ、ぜんこくのかくとどーふけんにあるさっかーのとどーふけんりーぐのひとつ。	NO_LABEL
大阪府のクラブチームが参加するリーグである。	おーさかふのくらぶちーむがさんかするりーぐである。	NO_LABEL
2013年度は4部構成である。	にせんじゅうさんねんどわよんぶこーせいである。	NO_LABEL
各リーグ1回戦総当りとし順位を決定する。	かくりーぐいちかいせんそーあたりとしじゅんいをけっていする。	NO_LABEL
1部リーグ上位2チームには関西府県サッカーリーグ決勝大会の参加権利を得る。	NO_PRONOUNCE	NO_LABEL
同大会優勝で、関西サッカーリーグ2部昇格、2位は入れ替え戦に出場。	どーたいかいゆーしょーで、かんさいさっかーりーぐにぶしょーかく、にーわいれかえせんにしゅつじょー。	NO_LABEL
昇降格数は、日本フットボールリーグ・関西サッカーリーグの昇降格数により変更がある。	NO_PRONOUNCE	NO_LABEL
