佐藤 瞳は、北海道函館市出身の日本の女子卓球選手。	さとーひとみわ、ほっかいどーはこだてししゅっしんのにっぽんのじょしたっきゅーせんしゅ。	NO_LABEL
ミキハウス所属。	みきはうすしょぞく。	NO_LABEL
ITTF世界ランキング最高位は9位。	あいてぃーてぃーえふせかいらんきんぐさいこーいわきゅうい。	NO_LABEL
段級位は5段。	NO_PRONOUNCE	NO_LABEL
函館市の生まれ。	はこだてしのうまれ。	NO_LABEL
小学2年で地元の少年団で卓球を始める。	しょーがくにねんでじもとのしょーねんだんでたっきゅーをはじめる。	NO_LABEL
2012年地元の函館市立尾札部中学校3年の時に全国中学校卓球大会で優勝、札幌大谷中学校・高等学校1年でインターハイ準優勝など実績を積み、2013年から積極的にITTFワールドツアーに転戦。	にせんじゅうにねんじもとのはこだてしりつおさつべちゅーがっこーさんねんのときにぜんこくちゅーがっこーたっきゅーたいかいでゆーしょー、さっぽろおおたにちゅーがっこーこーとーがっこーいちねんでいんたーはいじゅんゆうしょーなどじっせきをつみ、にせんじゅうさんねんからせっきょくてきにあいてぃーてぃーえふわーるどつあーにてんせん。	NO_LABEL
2014年6月の韓国オープンではU-21部門でシングル初優勝、11月のスウェーデンオープンでも優勝を果たし、世界ジュニア卓球選手権団体準優勝、この年ワールドツアーU-21部門のポイントランク1位になる。	NO_PRONOUNCE	NO_LABEL
2015年、平成26年全日本卓球選手権ではベスト8に進出。	にせんじゅうごねん、へいせいにじゅうろくねんぜんにほんたっきゅーせんしゅけんでわべすとえいとにしんしゅつ。	NO_LABEL
2016年、高校卒業後ミキハウスに入社、5月のクロアチアオープンではランキングの格上の福原愛、伊藤美誠を破り、決勝では平野美宇を破りツアー初優勝。	にせんじゅうろくねん、こーこーそつぎょーごみきはうすににゅーしゃ、ごがつのくろあちあおーぷんでわらんきんぐのかくあげのふくはらあい、いとーみまをやぶり、けっしょーでわひらのみうをやぶりつあーはつゆーしょー。	NO_LABEL
平成28年度全日本卓球選手権では自身初のベスト4に入る。	へいせいにじゅうはちねんどぜんにほんたっきゅーせんしゅけんでわじしんはつのべすとふぉーにはいる。	NO_LABEL
2017年1月、5月開催の第54回世界卓球選手権個人戦に推薦枠で代表に初選出、3月のチャレンジシリーズのベラルーシ、4月のタイオープンと2大会連続で優勝、アジア選手権では団体、女シングルス、ダブルスに出場、団体には出場に恵まれず、シングルスでも初戦敗退と結果は振るわなかったがダブルスでは橋本帆乃香とのペアで銅メダルを獲得。	NO_PRONOUNCE	NO_LABEL
またチャレンジシリーズスロベニアオープンで優勝。	またちゃれんじしりーずすろべにあおーぷんでゆーしょー。	NO_LABEL
第54回世界卓球選手権個人戦では1回戦、2回戦と順調に勝ち進んだが3回戦でエリザベタ・サマラ（）にフルゲームで敗れた。	だいごじゅうよんかいせかいたっきゅーせんしゅけんこじんせんでわいちかいせん、にかいせんとじゅんちょーにかちすすんだがさんかいせんでえりざべたさまらかっこにふるげーむでやぶれた。	NO_LABEL
2017年のカタールオープンの決勝トーナメントのリー・ジェ（）戦では1ラリーで10分13秒、766回ラリーが続いた。	NO_PRONOUNCE	NO_LABEL
国際卓球連盟は「卓球史上最長のラリーになるはずです」と動画付きで紹介した。	NO_PRONOUNCE	NO_LABEL
