大原美術館は、岡山県倉敷市にある美術館で、公益財団法人大原美術館が運営する。	おおはらびじゅつかんわ、おかやまけんくらしきしにあるびじゅつかんで、こーえきざいだんほーじんおおはらびじゅつかんがうんえいする。	NO_LABEL
倉敷美観地区の一角をなす。	くらしきびかんちくのいっかくをなす。	NO_LABEL
館長は西洋美術史家の高階秀爾。	かんちょーわせいよーびじゅつしかのたかしな。	NO_LABEL
2003年には分館が、DOCOMOMO JAPAN選定 日本におけるモダン・ムーブメントの建築に選ばれている。	NO_PRONOUNCE	NO_LABEL
大原美術館は、倉敷の実業家大原孫三郎が、自身がパトロンとして援助していた洋画家児島虎次郎に託して収集した西洋美術、エジプト・中近東美術、中国美術などを展示するため、1930年に開館した。	NO_PRONOUNCE	NO_LABEL
西洋美術、近代美術を展示する美術館としては日本最初のものである。	せいよーびじゅつ、きんだいびじゅつをてんじするびじゅつかんとしてわにっぽんさいしょのものである。	NO_LABEL
第二次大戦後、日本にも西洋近代美術を主体とした美術館が数多く誕生したが、日本に美術館というもの自体が数えるほどしか存在しなかった昭和初期、一地方都市にすぎなかった倉敷にこのような美術館が開館したのは画期的なことであった。	だいにじたいせんご、にっぽんにもせいよーきんだいびじゅつをしゅたいとしたびじゅつかんがかずおーくたんじょーしたが、にっぽんにびじゅつかんとゆうものじたいがかぞえるほどしかそんざいしなかったしょーわしょき、いちちほーとしにすぎなかったくらしきにこのよーなびじゅつかんがかいかんしたのわかっきてきなことであった。	NO_LABEL
ニューヨーク近代美術館の開館が1929年であったことを考えれば、創設者大原孫三郎の先見性は特筆すべきであろう。	にゅーよーくきんだいびじゅつかんのかいかんがせんきゅうひゃくにじゅうきゅうねであったことをかんがえれば、そーせつしゃおーはらまごさぶろーのせんけんせいわとくひつすべきであろう。	NO_LABEL
しかし、開館当初は一日の来館者ゼロという日もあったほど注目度は低かった。	しかし、かいかんとーしょわひといちのらいかんしゃぜろとゆうひもあったほどちゅーもくどわひくかった。	NO_LABEL
大原孫三郎は1880年、親の代から紡績業を営む、倉敷の名家に生まれた。	おーはらまごさぶろーわせんはっぴゃくはちじゅうねん、おやのだいからぼーせきぎょーをいとなむ、くらしきのめいかにうまれた。	NO_LABEL
日本の児童福祉の先駆者であり、岡山孤児院の創設者である石井十次との出会いが大原の人生を変えたという。	にっぽんのじどーふくしのせんくしゃであり、おかやまこじいんのそーせつしゃであるいしーじゅーじとのであいがおーはらのじんせいをかえたという。	NO_LABEL
プロテスタント信者であった石井の影響で自らもプロテスタントに改宗した大原は、事業で得た富を社会へ還元することの重要性に目覚め、大原社会問題研究所、労働科学研究所、倉敷中央病院などを次々と設立した。	ぷろてすたんとしんじゃであったいしいのえいきょーでみずからもぷろてすたんとにかいしゅーしたおーはらわ、じぎょーでえたとみをしゃかいえかんげんすることのじゅーよーせいにめざめ、おーはらしゃかいもんだいけんきゅ、ろーどーかがくけんきゅーしょ、くらしきちゅーおーびょーいんなどをつぎつぎとせつりつした。	NO_LABEL
大原にとっては美術館の創設も社会貢献の一環という認識だったようだ。	おーはらにとってわびじゅつかんのそーせつもしゃかいこーけんのいっかんとゆうにんしきだったよーだ。	NO_LABEL
大原は、自分と1歳違いの洋画家・児島虎次郎にことのほか目をかけ、パトロンとして生涯援助していた。	NO_PRONOUNCE	NO_LABEL
児島は1908年から足掛け5年間、大原の援助でヨーロッパへ留学していた。	こじまわせんきゅうひゃくはちねんからあしかけごねんかん、おーはらのえんじょでよーろっぱえりゅーがくしていた。	NO_LABEL
彼はその後もさらに1919年5月–1921年1月と1922年5月–1923年3月の2回に亙って、大原の援助で渡欧している。	NO_PRONOUNCE	NO_LABEL
その主たる目的は画業の研鑚であったが、児島は、ヨーロッパへ行く機会のない、多くの日本の画家たちのために、西洋名画の実物を日本へもたらすことの必要性を大原に説いた。	NO_PRONOUNCE	NO_LABEL
大原は児島の考えに賛同し、何を購入するかについては児島に一任した。	おーはらわこじまのかんがえにさんどーし、なにをこーにゅーするかについてわこじまにいちにんした。	NO_LABEL
こうして児島はヨーロッパで多くの西洋絵画を購入したのである。	こーしてこじまわよーろっぱでおーくのせいよーかいがをこーにゅーしたのである。	NO_LABEL
大原コレクションの最初の作品となったのは、児島と同世代のフランスの画家・エドモン＝フランソワ・アマン＝ジャンの『髪』という作品であった。	NO_PRONOUNCE	NO_LABEL
これは児島が1度目の滞欧中の1912年、アマン＝ジャン本人から購入したもので、翌1913年に東京上野の竹之台陳列館で開催された光風会展覧会に出品された。	NO_PRONOUNCE	NO_LABEL
当時、日本国内では西洋絵画の実物に接する機会はほとんどなく、この作品の公開は反響を呼んだ。	とーじ、にほんこくないでわせいよーかいがのじつぶつにせっするきかいわほとんどなく、このさくひんのこーかいわはんきょーをよんだ。	NO_LABEL
美術館所蔵品の中核をなす作品の多くは、1920年から1923年の間に児島虎次郎によって、おもにパリにおいて収集された。	びじゅつかんしょぞーひんのちゅーかくをなすさくひんのおーくわ、せんきゅうひゃくにじゅうねんからせんきゅうひゃくにじゅうさんねんのまにこじまとらじろーによって、おもにぱりにおいてしゅーしゅーされた。	NO_LABEL
モネの『睡蓮』は晩年の画家本人から児島が直接購入したものであり、マティスの『画家の娘―マティス嬢の肖像』も画家本人が気に入って長らく手元に置いていた作品を無理に譲ってもらったものだという。	NO_PRONOUNCE	NO_LABEL
大原美術館の代名詞のようになっているエル・グレコ『受胎告知』は、1922年、3回目の渡欧中だった児島が、パリの画廊で売りに出ているものを偶然見出したもの。	NO_PRONOUNCE	NO_LABEL
児島はこんな機会は二度とないと思ったが、非常に高価で手持ちの金もなかったため、この時ばかりは大原に写真を送り購入を相談した。	こじまわこんなきかいわにどとないとおもったが、ひじょーにこーかでてもちのきんもなかったため、このときばかりわおーはらにしゃしんをおくりこーにゅーをそーだんした。	NO_LABEL
現在ではこの名画が日本にあることは奇蹟だといわれている。	げんざいでわこのめいががにっぽんにあることわきせきだといわれている。	NO_LABEL
その他、トゥールーズ＝ロートレック『マルトX夫人の肖像―ボルドー』、ゴーギャン『かぐわしき大地』などの名品は児島の収集品である。	NO_PRONOUNCE	NO_LABEL
これらの西洋美術の他に、エジプト美術、ペルシャ陶器、中国美術なども児島は収集した。	これらのせいよーびじゅつのほかに、えじぷとびじゅつ、ぺるしゃとーき、ちゅーごくびじゅつなどもこじまわしゅーしゅーした。	NO_LABEL
これらの収集品は、美術館開館以前にも何度か公開され、評判を得ていた。	これらのしゅーしゅーひんわ、びじゅつかんかいかんいぜんにもなんどかこーかいされ、ひょーばんをえていた。	NO_LABEL
1929年、児島が他界し、これを大いに悲しんだ大原は、児島の功績を記念する意味をもって、その翌年に大原美術館を開館した。	せんきゅうひゃくにじゅうきゅうね、こじまがたかいし、これをおーいにかなしんだおーはらわ、こじまのこーせきをきねんするいみをもって、そのよくねんにおおはらびじゅつかんをかいかんした。	NO_LABEL
しかし、大原美術館には、児島虎次郎以外のルートから入手した作品もある。	しかし、おおはらびじゅつかんにわ、こじまとらじろーいがいのるーとからにゅーしゅしたさくひんもある。	NO_LABEL
ルノワール『泉による女』は、大原孫三郎が援助していた画家のひとりである満谷国四郎が入手したものであり、ピカソ『鳥籠』、ドラン『イタリアの女』、スーティン『鴨』などは画商・福島繁太郎のコレクションに入っていたものを第二次大戦後、大原美術館が入手したものである。	NO_PRONOUNCE	NO_LABEL
また、大原孫三郎の後を嗣いだ大原總一郎も文化人として知られ、フォーヴィスム以降の現代絵画、近代日本洋画など、新たな収集品を付け加えた。	また、おーはらまごさぶろーののちをついだおーはらそーいちろーもぶんかじんとしてしられ、ふぉーびすむいこーのげんだいかいが、きんだいにっぽんよーがなど、あらたなしゅーしゅーひんをつけくわえた。	NO_LABEL
なお、第二次世界大戦の末期、一式陸上攻撃機などを製造していた三菱重工業水島航空機製作所が何度も爆撃され、隣県の広島市には原子爆弾が投下されたが、倉敷市中心部は全く爆撃されなかった。	なお、だいにじせかいたいせんのまっき、いっしきりくじょーこーげききなどをせいぞーしていたみつびしじゅーこーぎょーみずしまこーくーきせいさくしょがなんどもばくげきされ、りんけんのひろしましにわげんしばくだんがとーかされたが、くらしきしちゅーしんぶわぜんくばくげきされなかった。	NO_LABEL
これは米軍関係者に、大原美術館のコレクションを知っていた者がいたからといわれることもあるが、ウォーナーリストなどにも載っておらず史料的な裏づけはない。	これわべいぐんかんけいしゃに、おおはらびじゅつかんのこれくしょんをしっていたものがいたからといわれることもあるが、うぉーなーりすとなどにものっておらずしりょーてきなうらずけわない。	NO_LABEL
実際には、軍事目標たる戦闘機の製造工場から破壊するのは当然であり、倉敷市街への爆撃に向けて目標情報票も作成されていた。	じっさいにわ、ぐんじもくひょーたるせんとーきのせいぞーこーじょーからはかいするのわとーぜんであり、くらしきしがいえのばくげきにむけてもくひょーじょーほーひょーもさくせいされていた。	NO_LABEL
さらに、現在では米軍が日本の文化財に配慮して爆撃を控えたとする説自体が疑問視されている。	さらに、げんざいでわべいぐんがにっぽんのぶんかざいにはいりょしてばくげきをひかえたとするせつじたいがぎもんしされている。	NO_LABEL
薬師寺主計の設計による、イオニア式柱を有する古典様式の本館のほかに、1961年に藤島武二、青木繁、岸田劉生、小出楢重など日本の洋画家の作品や現代美術の作品を展示する分館、同年に河井寛次郎、バーナード・リーチ、濱田庄司、富本憲吉の作品を展示する陶器館が開館。	やくしじかずえのせっけいによる、いおにあしきばしらをゆーするこてんよーしきのほんかんのほかに、せんきゅうひゃくろくじゅういちねんにふじしまたけじ、あおきしげる、きしだりゅーせい、こいでならしげなどにっぽんのよーがかのさくひんやげんだいびじゅつのさくひんをてんじするぶんかん、どーねんにかわいかんじろー、ばーなーどりーち、はまだしょーじ、とみもとけんきちのさくひんをてんじするとーきかんがかいかん。	NO_LABEL
1963年には棟方志功および芹沢銈介の作品を展示する板画館と染色館が開館した。	NO_PRONOUNCE	NO_LABEL
なお、現在は、陶器、板画、染色の展示室を「工芸館」と総称している。	NO_PRONOUNCE	NO_LABEL
1970年には東洋館が開館し、1972年には館から離れた倉敷アイビースクエアに児島虎次郎記念館が開館した。	せんきゅうひゃくななじゅうねんにわとーよーかんがかいかんし、せんきゅうひゃくななじゅうにねんにわかんからはなれたくらしきあいびーすくえあにこじまとらじろーきねんかんがかいかんした。	NO_LABEL
上記展示館のうち児島虎次郎記念館は2017年12月27日に閉館予定。	じょーきてんじかんのうちこじまとらじろーきねんかんわにせんじゅうななねんじゅーにがつにじゅうしちにちにへいかんよてい。	NO_LABEL
後継施設として、旧中国銀行倉敷本町出張所の建物内に「新児島館」が2020年に開館予定である。	NO_PRONOUNCE	NO_LABEL
1934年7月31日付けで、以下の9件が「重要美術品等ノ保存ニ関スル法律」に基づき重要美術品に認定されている。	NO_PRONOUNCE	NO_LABEL
