ヴィエンチャンは、ラオス人民民主共和国の首都。	NO_PRONOUNCE	NO_LABEL
 メコン川沿いに広がる町。	めこんがわぞいにひろがるまち。	NO_LABEL
タイ王国とは、メコン川で国境を隔てている。	たいおーこくとわ、めこんがわでこっきょーをへだてている。	NO_LABEL
隣国の度重なる侵攻にさらされてきたものの、仏教国の首都として政治や文化の中心を担ってきており、数々の仏教寺院や仏塔を残す。	りんごくのたびかさなるしんこーにさらされてきたものの、ぶっきょーこくのしゅととしてせいじやぶんかのちゅーしんをになってきており、かずかずのぶっきょーじいんやぶっとーをのこす。	NO_LABEL
「ビャクダンのある城壁地」という意味や「月の都」という意味があるが、ラオス情報文化省は様々な説を紹介している。	NO_PRONOUNCE	NO_LABEL
街路樹が多く「森の都」とも呼ばれる。	NO_PRONOUNCE	NO_LABEL
ヴィエンチャンはヴィエンチャン都のうち、首都機能を持つ、チャンタブリー郡、シーコッタボーン郡、サイセーター郡、シーサッタナーク郡、ハートサーイフォン郡をさして言う。	NO_PRONOUNCE	NO_LABEL
日本語では「ヴィエンチャン」あるいは「ビエンチャン」と表記する。	NO_PRONOUNCE	NO_LABEL
タイ語のローマ字における "v" は日本語におけるワ行であるため「ウィエンチャン」と書く場合もあるが、ラーオ語の "v" は「ヴァヴィヴヴェヴォ」、ときに「バビブベボ」に近い音になる。	NO_PRONOUNCE	NO_LABEL
メコン川はヴィエンチャンに至るまで渓谷を流れ下っているが、ヴィエンチャンから下流では河岸平野を形成している。	NO_PRONOUNCE	NO_LABEL
メコンの左岸にヴィエンチャンの市街が、右岸にウドーンターニーなどタイ王国の国土が広がる。	NO_PRONOUNCE	NO_LABEL
河口からの距離は1600km弱。	かこーからのきょりわせんろっぴゃくきろめーとるじゃく。	NO_LABEL
同国の交通の中心となっている。	どーこくのこーつーのちゅーしんとなっている。	NO_LABEL
人口は推計70万人。	じんこーわすいけいななじゅうまんにん。	NO_LABEL
中心部には、外国人観光客向けのゲストハウスが集まっている。	ちゅーしんぶにわ、がいこくじんかんこーきゃくむけのげすとはうすがあつまっている。	NO_LABEL
ヴィエンチャンの街は12世紀に既に形成されていた。	NO_PRONOUNCE	NO_LABEL
セーターティラート王がビルマ族のタウングー王朝の圧迫から1560年にラーンサーン王国の都をルアンパバーンからヴィエンチャンに遷都した。	NO_PRONOUNCE	NO_LABEL
ラオス政府情報文化省版「ラオスの歴史」によれば、ヴィエンチャンがラオス・ラーンサーン王国の首都になったときの正式名称は、 「プラ・ナコーン・チャンタブリー・シー・サッタナーカナフット・ウッタマ・ラーサターニー」。	NO_PRONOUNCE	NO_LABEL
「イサーン・タイ・英語辞典」では、「サッタナーカナフット」を「サタ」「ナーカ」「ナフット」に分解して、「サッタナーカナフット」を「百万頭の象」のパーリ語訳と言う解釈を乗せている。	NO_PRONOUNCE	NO_LABEL
ラオス情報文化省版「ラオスの歴史」では、「サッタ」を7に、「ナーカ」をナーガに解して、「7つの頭を持ったナーガ」と解釈している。	NO_PRONOUNCE	NO_LABEL
また、セーターティラート王は、ヴィエンチャンに遷都する前に、パニャー・チャンタブリー・シー・サッタンマタイロークをヴィエンチャンの領主に任じている。	NO_PRONOUNCE	NO_LABEL
この領主が建てたお寺が今もヴィエンチャンにある「チャン寺」で、これは「チャンタブリー・シー・サッタンマタイローク寺」の略称。	NO_PRONOUNCE	NO_LABEL
ラオス情報文化省版「ラオスの歴史」は、ヴィエンチャンのチャンは栴檀だという伝承を紹介している。	NO_PRONOUNCE	NO_LABEL
プーカオクワーイに住む仙人の兄弟が、ヴィエンチャンが出来る前の土地にクーンの木とチャンの木で目印をつけたという。	NO_PRONOUNCE	NO_LABEL
しかし、同書が正式な説として採用しているのは以下の説である。	しかし、どーしょがせいしきなせつとしてさいよーしているのわいかのせつである。	NO_LABEL
ナンスー・ウランタートという本に記されているもので、釈迦と弟子のアーナンダがポーンパナオ近辺に来たときに、「ここらにはナーガが虎が多い」と言った。	NO_PRONOUNCE	NO_LABEL
その後、シコータボーン王国の領主の血筋の一人がヴィエンチャン市内の北の外れのカオリヤオ地区に移住してきた時、孫娘のインタサワーンロンホートが、釈迦が「虎が多い」と言った所に住んでいたブーリーチャンという農民と結婚した。	NO_PRONOUNCE	NO_LABEL
それを聞いたシコータボーン王国のパニャー・スミッタタムマヴォンサーが農民を祝福して、パークカディン以北の領有権をブーリーチャンに与えたのが、ヴィエンチャンの始まりという。	NO_PRONOUNCE	NO_LABEL
1707年、ラーンサーン王国が分裂した際、ヴィエンチャン王国の首都となる。	NO_PRONOUNCE	NO_LABEL
1779年、チャクリー王国のチャオプラヤー・チャックリー将軍に征服され、チャクリー王国の領土となる。	NO_PRONOUNCE	NO_LABEL
1827年、アヌ王がクーデターに失敗した際、シャム軍に滅ぼされる。	せんはっぴゃくにじゅうななねん、あぬおーがくーでたーにしっぱいしたさい、しゃむぐんにほろぼされる。	NO_LABEL
1893年、ラオスがフランスの保護国となり、1899年にその首都とされた。	せんはっぴゃくきゅうじゅうさんね、らおすがふらんすのほごこくとなり、せんはっぴゃくきゅうじゅうきゅうねんにそのしゅととされた。	NO_LABEL
第二次世界大戦中は日本に占領されるが、1945年4月にフランスが再び進駐した。	だいにじせかいたいせんちゅーわにっぽんにせんりょーされるが、せんきゅうひゃくよんじゅうごねんしがつにふらんすがふたたびしんちゅーした。	NO_LABEL
1947年にラオス王国が成立するとその首都とされた。	せんきゅうひゃくよんじゅうななねにらおすおーこくがせいりつするとそのしゅととされた。	NO_LABEL
ラオス内戦が起こるとヴィエンチャンは荒廃する。	NO_PRONOUNCE	NO_LABEL
1960年8月、コーン・レー大尉がヴィエンチャンを掌握、スワンナ・プーマが首相に就いた。	NO_PRONOUNCE	NO_LABEL
1975年、パテート・ラーオが進軍しラオス人民民主共和国が誕生し、その首都となった。	せんきゅうひゃくななじゅうごねん、ぱてーとらーおがしんぐんしらおすじんみんみんしゅきょーわこがたんじょーし、そのしゅととなった。	NO_LABEL
ベトナム戦争時には、アメリカ合衆国国際開発庁が置かれていた。	べとなむせんそーじにわ、あめりかがっしゅーこくこくさいかいはつちょーがおかれていた。	NO_LABEL
サバナ気候。	さばなきこー。	NO_LABEL
11月から3月は乾季で4月から7ヶ月間はモンスーンとなる。	NO_PRONOUNCE	NO_LABEL
メコン川をはさんでタイのノーンカーイ県の国境に面していて、ヴィエンチャンの郊外から対岸のタイ領へ行く船が出ており、ヴィエンチャンの住民はビザ無しでノーンカーイまで行くことが国際協定によって許されている。	NO_PRONOUNCE	NO_LABEL
ノーンカーイには、1994年4月に開通したタイ=ラオス友好橋を渡っても行くことができ、ヴィエンチャン発バンコク行きなどの国境を越えるバスも運行されている。	NO_PRONOUNCE	NO_LABEL
市内にはヴィエンチャン市バス公社によるバスが運行されており、タラートサオに隣接するCBSから発着する。	NO_PRONOUNCE	NO_LABEL
CBSからは市内バスのみならず都市間バスも発着する。	しーびーえすからわしないばすのみならずとしかんばすもはっちゃくする。	NO_LABEL
なお、2008年7月には、友好橋を渡る鉄道も竣工した。	なお、にせんはちねんしちがつにわ、ゆーこーきょーをわたるてつどーもしゅんこーした。	NO_LABEL
タイのノーンカーイ駅から線路を約5キロ延長し、川に架かる友好橋を通ってラオス側に延長し、ヴィエンチャン郊外にターナレーン駅を設置した。	NO_PRONOUNCE	NO_LABEL
竣工後試運転が行われて来たが、2009年3月6日に、1日2往復の定期旅客列車の運行が始まった。	NO_PRONOUNCE	NO_LABEL
新駅は、ヴィエンチャンとはやや離れているためバスが新駅からヴィエンチャンまで連絡するが、いずれは、ヴィエンチャンの中心部まで鉄道を9キロ延伸する予定。	NO_PRONOUNCE	NO_LABEL
