播磨灘は、瀬戸内海東部の海域。	はりまなだわ、せとないかいとーぶのかいいき。	NO_LABEL
兵庫県南西部の南側に位置し、東は淡路島、西は小豆島、南は四国で区切られて西北部に家島諸島がある。	ひょーごけんなんせいぶのみなみがわにいちし、ひがしわあわじしま、にしわあずしま、みなみわしこくでくぎられてせいほくにいえしましょとーがある。	NO_LABEL
面積約2500 km。	NO_PRONOUNCE	NO_LABEL
深さ40 m前後であるが、海峡部では100 mを越えるところもある。	NO_PRONOUNCE	NO_LABEL
近畿地方から中国地方・四国地方・九州地方方面への重要な航路が横断する。	NO_PRONOUNCE	NO_LABEL
岩礁が多く、鯛などの好漁場。	がんしょーがおーく、たいなどのこーぎょじょー。	NO_LABEL
イカナゴもよく獲れ、イカナゴの釘煮は播州の特産品であったが、海砂の採取によってイカナゴの生息地が打撃を受けたことから減産している。	いかなごもよくえれ、いかなごのくぎにわばんしゅーのとくさんひんであったが、うみすなのさいしゅによっていかなごのせいそくちがだげきをうけたことからげんさんしている。	NO_LABEL
