『マスカレード・イブ』は、集英社文庫から刊行された東野圭吾の連作推理小説。	NO_PRONOUNCE	NO_LABEL
『「マスカレード」シリーズ』の第2作で、前作『マスカレード・ホテル』の前日憚となる連作短編集。	NO_PRONOUNCE	NO_LABEL
2013年に『小説すばる』で発表された2編と、2014年に発表した1編に加えて、書き下ろしの「マスカレード・イブ」が収録され、前作からの主人公コンビ・新田と尚美が出会う前の、2人の新人時代も含めたそれぞれのストーリーや、前作で触れられていた台詞や場面に関するエピソードも明かされている。	NO_PRONOUNCE	NO_LABEL
東野の提案で単行本化を経ずにいきなり文庫として刊行され、発売から約1か月半で発行部数100万部を記録した。	とーののていあんでたんこーほんかをへずにいきなりぶんことしてかんこーされ、はつばいからやくいっかげつはんではっこーぶすーひゃくまんぶをきろくした。	NO_LABEL
※新田と尚美を始め、前作からの登場人物については「マスカレード」シリーズ#主な登場人物を参照	NO_PRONOUNCE	NO_LABEL
初出：『小説すばる』2013年2月号	NO_PRONOUNCE	NO_LABEL
初出：『小説すばる』2013年7月号	NO_PRONOUNCE	NO_LABEL
初出：『小説すばる』2014年11月号	NO_PRONOUNCE	NO_LABEL
初出：書き下ろし	NO_PRONOUNCE	NO_LABEL
