サイルータイ王は別名、マハータンマラーチャー2世とも言う。	さいるーたいおーわべつめい、まはーたんまらーちゃーにせいともいう。	NO_LABEL
タイの古代王朝スコータイ王朝の7代目の王。	たいのこだいおーちょーすこーたいおうちょーのななだいめのおー。	NO_LABEL
1378年にアユタヤー王国のボーロマラーチャーティラート1世によってスコータイはカンペーンペットとピサヌロークに二分され属国化された。	せんさんびゃくななじゅうはちねんにあゆたやーおーこくのぼーろまらーちゃーてぃらーといっせいによってすこーたいわかんぺーんぺっととぴさぬろーくににぶんされぞっこくかされた。	NO_LABEL
サイルータイ王はピサヌロークの王になった。	さいるーたいおーわぴさぬろーくのおーになった。	NO_LABEL
