ソフィアは、ブルガリアの首都。	そふぃあわ、ぶるがりあのしゅと。	NO_LABEL
ヴィトシャ山のふもとに位置し、ブルガリアの政治・経済・文化・教育の中心地である。	NO_PRONOUNCE	NO_LABEL
2008年の人口は1,346,665人である。	NO_PRONOUNCE	NO_LABEL
北緯42度42分、東経23度20分。	ほくいよんじゅうにどよんじゅうにふん、とーけいにじゅうさんどにじゅっぷん。	NO_LABEL
ヨーロッパ最古の都市の一つであり、セルディカ、スレデツ、トリアディツァと呼ばれた。	よーろっぱさいこのとしのひとつであり、せるでぃか、すれでつ、とりあでぃつぁとよばれた。	NO_LABEL
その歴史は7千年以上に及ぶとされる。	NO_PRONOUNCE	NO_LABEL
有史以前の集落跡が現在のソフィアの中心やの付近、オベリャなどで見つかっている。	ゆーしいぜんのしゅーらくあとがげんざいのそふぃあのちゅーしんやのふきん、おべりゃなどでみつかっている。	NO_LABEL
トラキア人が最も重要視していた、鉱泉の周囲に町を築いた紀元前7世紀にさかのぼる城壁は良いコンディションで保存されている。	とらきあじんがもっともじゅーよーししていた、こーせんのしゅーいにまちをきずいたきげんぜんななせいきにさかのぼるじょーへきわよいこんでぃしょんでほぞんされている。	NO_LABEL
鉱泉は現在も湧水がある。	こーせんわげんざいもわきみずがある。	NO_LABEL
時代の変遷とともに幾つかの異なる名前で呼ばれてきたソフィアの数千年にわたる歴史の痕跡は、今日でもその一部を見ることができる。	じだいのへんせんとともにいくつかのことなるなまえでよばれてきたそふぃあのすーせんねんにわたるれきしのこんせきわ、きょーでもそのいちぶをみることができる。	NO_LABEL
ソフィアの歩みは、町がバルカン半島の中心に位置していることと大きく関連している。	そふぃあのあゆみわ、まちがばるかんはんとーのちゅーしんにいちしていることとおーきくかんれんしている。	NO_LABEL
ソフィアはブルガリアの西部にあり、ヴィトシャ山のふもと、の中にあり、周囲の全方位を山に取り囲まれている。	NO_PRONOUNCE	NO_LABEL
渓谷はブルガリア全土でも最大級のものであり、面積1186平方キロメートル、平均標高は550メートルである。	NO_PRONOUNCE	NO_LABEL
3つの山道が町を通っており、古代にはアドリア海、中央ヨーロッパ、黒海、エーゲ海を結ぶ重要な交易路であった。	みっつのさんどーがまちをとーっており、こだいにわあどりあかい、ちゅーおーよーろっぱ、こっかい、えーげかいをむすぶじゅーよーなこーえきろであった。	NO_LABEL
、ペルロフスカ川（ / "Perlovska Reka") などの細い河川が町を通過している。	NO_PRONOUNCE	NO_LABEL
イスクル川はソフィア近郊を流れている。	いすくるがわわそふぃあきんこーをながれている。	NO_LABEL
町は多くの湧水、熱水泉で知られている。	まちわおーくのわきみず、ねっすいせんでしられている。	NO_LABEL
近くにはダムによる人造湖が20世紀に建造された。	ちかくにわだむによるじんぞーこがにじっせいきにけんぞーされた。	NO_LABEL
ソフィアは、ブルガリア第2の都市プロヴディフから北西に130キロメートルであり、ブルガスから340キロメートル、ヴァルナから380キロメートルである。	NO_PRONOUNCE	NO_LABEL
ソフィアは近隣の3箇国からそれぞれ200キロメートル以内にあり、セルビアとの国境の町から55キロメートル、マケドニア共和国との国境の町ギュエシェヴォから113キロメートル、ギリシャとの国境の町クラタからは183キロメートルである。	NO_PRONOUNCE	NO_LABEL
ソフィアの気候はケッペンの気候区分では湿潤大陸性気候と温暖湿潤気候が接しており、年間の平均気温は11.4℃である。	そふぃあのきこーわけっぺんのきこーくぶんでわしつじゅんたいりくせいきこーとおんだんしつじゅんきこーがせっしており、ねんかんのへいきんきおんわじゅういちてんよんどしーである。	NO_LABEL
寒い日には特に1月は気温が-15℃ 以下かさらに低下することもある。	さむいひにわとくにいちがつわきおんがまいなすじゅうごどしーいかかさらにていかすることもある。	NO_LABEL
霧の発生は特に季節の始まりに見られる。	きりのはっせいわとくにきせつのはじまりにみられる。	NO_LABEL
年間平均のソフィアの降雪量は90cmで、降雪日は60日である。	ねんかんへいきんのそふぃあのこーせつりょうわきゅうじゅうせんちめーとるで、こーせつびわろくじゅうにちである。	NO_LABEL
夏は日が良く照り、やや暑い。	なつわひがよくてり、ややあつい。	NO_LABEL
夏のソフィア市街は標高が高いため、他のブルガリアの地域よりもやや涼しい。	なつのそふぃあしがいわひょーこーがたかいため、たのぶるがりあのちいきよりもややすずしい。	NO_LABEL
しかし、ソフィアでも高温に達したり特に7月や8月には35℃ を超える熱波にさらされることもある。	しかし、そふぃあでもこーおんにたっしたりとくにしちがつやはちがつにわさんじゅうごどしーをこえるねっぱにさらされることもある。	NO_LABEL
春や秋はソフィアでは短く、天気も不安定で変わり易い。	はるやあきわそふぃあでわみじかく、てんきもふあんていでかわりやすい。	NO_LABEL
年間平均降水量は587mmで、晩春や初夏の雷雨にピークに達する。	ねんかんへいきんこーすいりょーわごひゃくはちじゅうななめーとるめーとるで、ばんしゅんやしょかのらいうにぴーくにたっする。	NO_LABEL
ソフィアはかつてはトラキア人の集落であり、セルディカまたはサルディカと呼ばれていた。	そふぃあわかつてわとらきあじんのしゅーらくであり、せるでぃかまたわさるでぃかとよばれていた。	NO_LABEL
おそらくこの呼称はトラキア人の部族セルディに由来するものと考えられる。	おそらくこのこしょーわとらきあじんのぶぞくせるでぃにゆらいするものとかんがえられる。	NO_LABEL
紀元前500年ごろ、別の部族オドリュシがこの地域に居住していた。	きげんぜんごひゃくねんごろ、べつのぶぞくおどりゅしがこのちいきにきょじゅーしていた。	NO_LABEL
彼らは独自の王国（）を持った部族として知られる。	かれらわどくじのおーこくかっこをもったぶぞくとしてしられる。	NO_LABEL
紀元前4世紀の短い間、町はピリッポス2世とその息子アレクサンドロス大王によって支配された。	きげんぜんよんせいきのたんいま、まちわぴりっぽすにせいとそのむすこあれくさんどろすだいおーによってしはいされた。	NO_LABEL
紀元前29年、セルディカは古代ローマによって征服された。	きげんぜんにじゅうきゅうねん、せるでぃかわこだいろーまによってせいふくされた。	NO_LABEL
町は地域の中核とされ、トラヤヌス帝の時代にウルピア・セルディカと改称された。	NO_PRONOUNCE	NO_LABEL
セルディカについて言及した最古の文献は紀元前100年頃のクラウディオス・プトレマイオスによるものであると見られる。	せるでぃかについてげんきゅーしたさいこのぶんけんわきげんぜんひゃくねんごろのくらうでぃおすぷとれまいおすによるものであるとみられる。	NO_LABEL
セルディカは拡大し、やぐら、防壁、公衆浴場、役所、礼拝所、公共のバシリカ、アンフィテアトルム、裁判所、会同、劇場などが建造された。	せるでぃかわかくだいし、やぐら、ぼーへき、こーしゅーよくじょー、やくしょ、れいはいしょ、こーきょーのばしりか、あんふぃてあとるむ、さいばんしょ、かいどー、げきじょーなどがけんぞーされた。	NO_LABEL
ディオクレティアヌスがダキアをダキア・リペンシスとに分割した際、セルディカはダキア・メディテラネアの首都とされた。	NO_PRONOUNCE	NO_LABEL
町はその後1世紀半にわたって拡大を続け、政治・経済の中心地となった。	まちわそのごいっせいきはんにわたってかくだいをつずけ、せいじけいざいのちゅーしんちとなった。	NO_LABEL
町はキリスト教を公式の宗教として受け入れた最初の町の一つとなった。	まちわきりすときょーをこーしきのしゅーきょーとしてうけいれたさいしょのまちのひとつとなった。	NO_LABEL
そのため、コンスタンティヌス1世がセルディカを「我がローマ」と呼んだことはとても自然なことであろう。	NO_PRONOUNCE	NO_LABEL
セルディカはそれほど大きくはなかったものの、その都市設計の計画と建築は壮麗であり、多くの娯楽と活発で社会的な生活があった。	せるでぃかわそれほどおーきくわなかったものの、そのとしせっけいのけいかくとけんちくわそーれいであり、おーくのごらくとかっぱつでしゃかいてきなせいかつがあった。	NO_LABEL
東ローマ帝国のユスティニアヌス1世の時代には繁栄を謳歌した。	ひがしろーまていこくのゆすてぃにあぬすいっせいのじだいにわはんえいをおーかした。	NO_LABEL
この時のセルディカは巨大な城壁に囲まれており、その一部は現在も見られる。	このときのせるでぃかわきょだいなじょーへきにかこまれており、そのいちぶわげんざいもみられる。	NO_LABEL
町は447年にフン族によって破壊されたものの、ユスティニアヌスによって復興され、一時期トリアディツァと呼ばれた。	まちわよんひゃくよんじゅうななねんにふんぞくによってはかいされたものの、ゆすてぃにあぬすによってふっこーされ、いちじきとりあでぃつぁとよばれた。	NO_LABEL
ソフィアは、809年のクルム・ハーンの時代に、長期にわたるの後に初めて第一次ブルガリア帝国の一部となった。	NO_PRONOUNCE	NO_LABEL
その後、町はスラヴ語でスレデツと呼ばれるようになった。	NO_PRONOUNCE	NO_LABEL
町は重要な要塞と政治の拠点となった。	まちわじゅーよーなよーさいとせいじのきょてんとなった。	NO_LABEL
ヨハネス1世ツィミスケスの時代の971年にブルガリア北東部が陥落すると、ブルガリアの大主教ダミアンはソフィアをその主教座とした。	よはねすいっせいつぃみすけすのじだいのきゅうひゃくななじゅういちねんにぶるがりあきたとうべがかんらくすると、ぶるがりあのだいしゅきょーだみあんわそふぃあをそのしゅきょーざとした。	NO_LABEL
幾度にも及んだ攻城戦が失敗に終わると、町は1018年に東ローマ帝国の手に落ちたが、イヴァン・アセン1世の時代に再度第二次ブルガリア帝国によって再征服された。	NO_PRONOUNCE	NO_LABEL
12世紀から14世紀にかけて、ソフィアは交易と工芸の拠点となった。	じゅうにせいきからじゅうよんせいきにかけて、そふぃあわこーえきとこーげいのきょてんとなった。	NO_LABEL
ヴワディスワフ3世による1443年のソフィアへの進軍が終わってからは、町のキリスト教徒の指導者らは抹殺され、オスマン帝国のルメリア州の州都となり、その後4世紀以上にわたってオスマン帝国の支配が続いた。	NO_PRONOUNCE	NO_LABEL
町にはトルコ人が住むようになった。	まちにわとるこじんがすむよーになった。	NO_LABEL
16世紀にソフィアの都市設計と外観はオスマン様式となり、多くのモスク、泉、ハマムが設けられた。	じゅうろくせいきにそふぃあのとしせっけいとがいかんわおすまんよーしきとなり、おーくのもすく、いずみ、はまむがもーけられた。	NO_LABEL
この間、町の人口は7千人から、17世紀中期には5万5千人に膨れ上がった。	NO_PRONOUNCE	NO_LABEL
町はブルガリア人の反乱者 () によって1599年に数週間にわたって包囲された。	まちわぶるがりあじんのはんらんしゃかっこによってせんごひゃくきゅうじゅうきゅうねんにすーしゅーかんにわたってほーいされた。	NO_LABEL
1610年、カトリック教会はルメリアのカトリック教徒のためのソフィア管区を設置し、1715年にカトリック教徒の大半が流出するまで維持された。	せんろっぴゃくじゅうねん、かとりっくきょーかいわるめりあのかとりっくきょーとのためのそふぃあかんくをせっちし、せんななひゃくじゅうごねんにかとりっくきょーとのたいはんがりゅーしゅつするまでいじされた。	NO_LABEL
16世紀には126世帯のユダヤ人の世帯があり、967年からソフィアにはシナゴーグがある。	NO_PRONOUNCE	NO_LABEL
ソフィアは露土戦争のさなかの1878年1月4日にロシア帝国によって征服され、1879年には新たに誕生した自治公国である大ブルガリア公国の首都となった。	そふぃあわろとせんそーのさなかのせんはっぴゃくななじゅうはちねんいちがつよっかにろしあていこくによってせいふくされ、せんはっぴゃくななじゅうきゅうねんにわあらたにたんじょーしたじちこーこくであるだいぶるがりあこーこくのしゅととなった。	NO_LABEL
ソフィアはによって首都候補として提案され、1879年4月3日に認められた。	そふぃあわによってしゅとこーほとしてていあんされ、せんはっぴゃくななじゅうきゅうねんしがつみっかにみとめられた。	NO_LABEL
解放されたときの人口は11,649人であった。	NO_PRONOUNCE	NO_LABEL
町が一般的にソフィアと呼ばれるようになったのは、1376年に聖ソフィア聖堂が立てられた後と考えられている。	まちがいっぱんてきにそふぃあとよばれるよーになったのわ、せんさんびゃくななじゅうろくねんにきよしそふぃあせいどーがたてられたのちとかんがえられている。	NO_LABEL
しかしながら、資料によって19世紀末まで、町はソフィア、スレデツの両方の呼称で呼ばれていた。	しかしながら、しりょーによってじゅうきゅうせいきまつまで、まちわそふぃあ、すれでつのりょーほーのこしょーでよばれていた。	NO_LABEL
によって1382年にソフィアはオスマン帝国に包囲され、長期間にわたる攻城戦の末に町はオスマン帝国に制圧された。	によってせんさんびゃくはちじゅうにねんにそふぃあわおすまんていこくにほーいされ、ちょーきかんにわたるこうじょうせんのすえにまちわおすまんていこくにせいあつされた。	NO_LABEL
1878年にソフィアがオスマン帝国の支配から解放された後、ブルガリア人の革命委員会からは古い呼称であるスレデツを維持したいという強い願望が出されていたが、ロシア人の支配者は呼称をソフィアと決定した。	せんはっぴゃくななじゅうはちねんにそふぃあがおすまんていこくのしはいからかいほーされたのち、ぶるがりあじんのかくめいいーんかいからわふるいこしょーであるすれでつをいじしたいとゆうつよいがんぼーがだされていたが、ろしあじんのしはいしゃわこしょーをそふぃあとけっていした。	NO_LABEL
解放後の数十年の間で、主にブルガリアの他の地域からの大規模な人口流入により、町の人口は一挙に膨れ上がった。	かいほーごのすーじゅーねんのまで、おもにぶるがりあのほかのちいきからのだいきぼなじんこーりゅーにゅーにより、まちのじんこーわいっきょにふくれあがった。	NO_LABEL
公国は1908年にブルガリア王国となった。	こーこくわせんきゅうひゃくはちねんにぶるがりあおーこくとなった。	NO_LABEL
1925年にブルガリア共産党によって聖ネデリャ教会襲撃事件が引き起こされ、170人が死亡、500人が負傷したといわれている。	せんきゅうひゃくにじゅうごねんにぶるがりあきょうさんとーによってせいねでりゃきょーかいしゅーげきじけんがひきおこされ、ひゃくななじゅうにんがしぼー、ごひゃくにんがふしょーしたといわれている。	NO_LABEL
第二次世界大戦の間、ソフィアはを受けた。	だいにじせかいたいせんのま、そふぃあわをうけた。	NO_LABEL
後に町はソビエト連邦に征服された。	ごにまちわそびえとれんぽーにせいふくされた。	NO_LABEL
アメリカ合衆国、イギリス、フランスの支援の下でのソ連による征服に続いて、ドイツと同盟を結んでいたブルガリアの政府は共産主義者に取って代わられた。	あめりかがっしゅーこく、いぎりす、ふらんすのしえんのしたでのそれんによるせいふくにつずいて、どいつとどーめいをむすんでいたぶるがりあのせいふわきょーさんしゅぎしゃにとってかわられた。	NO_LABEL
プラハ、ワルシャワ、ブカレストなどと同様に、ソフィアは社会主義国家であるブルガリア人民共和国の首都となった。	ぷらは、わるしゃわ、ぶかれすとなどとどーよーに、そふぃあわしゃかいしゅぎこっかであるぶるがりあじんみんきょーわこくのしゅととなった。	NO_LABEL
ブルガリアはこの戦争で領土を失うことは無かったが、多くの人命が失われ、また、ブルガリア国外のブルガリア人との結びつきは大きく損なわれた。	ぶるがりあわこのせんそーでりょーどをうしなうことわなかったが、おーくのじんめいがうしなわれ、また、ぶるがりあこくがいのぶるがりあじんとのむすびつきわおーきくそこなわれた。	NO_LABEL
この間、ソフィアの人口は急速に拡大し、工業発展が重視され、多くの新しい工場や製作所が町とその周囲に建造された。	このかん、そふぃあのじんこーわきゅーそくにかくだいし、こーぎょーはってんがじゅーしされ、おーくのあたらしいこーじょーやせいさくしょがまちとそのしゅーいにけんぞーされた。	NO_LABEL
これによって郊外に多くの新しい町が生まれ、交通ネットワークが拡大した。	これによってこーがいにおーくのあたらしいまちがうまれ、こーつーねっとわーくがかくだいした。	NO_LABEL
ソフィアは28個あるブルガリアの州の内の一つである。	NO_PRONOUNCE	NO_LABEL
ソフィア市街地の他に、州としてのソフィアの領域には3つの町と34の村がある。	NO_PRONOUNCE	NO_LABEL
州としてのソフィアは、24の基礎自治体に分けられている。	NO_PRONOUNCE	NO_LABEL
それぞれの基礎自治体には選挙によって選ばれた区長と、区議会がある。	それぞれのきそじちたいにわせんきょによってえらばれたくちょーと、くぎかいがある。	NO_LABEL
州の首班は州知事である。	しゅーのしゅはんわしゅーちじである。	NO_LABEL
州議会の議員は4年ごとに選挙によって選出される。	しゅーぎかいのぎいんわよんねんごとにせんきょによってせんしゅつされる。	NO_LABEL
1999年のデータによると、ソフィア全域の人口は1,246,651人であり、人口密度は917.8人/平方キロメートルとなっている。	NO_PRONOUNCE	NO_LABEL
女性1000人に対して男性は1114人である。	NO_PRONOUNCE	NO_LABEL
人口1000人あたりの年間出生率は7.9であり、民主化以降は低下を続けている。	NO_PRONOUNCE	NO_LABEL
年間死亡率は12.2であり、上昇傾向にある。	NO_PRONOUNCE	NO_LABEL
そのため人口は年間4.3%の自然減となる。	そのためじんこーわねんかんよんてんさんぱーせんとのしぜんげんとなる。	NO_LABEL
しかし、ブルガリアの他の地域から首都への移住によって、ソフィアの人口は増加している。	しかし、ぶるがりあのほかのちいきからしゅとえのいじゅーによって、そふぃあのじんこーわぞーかしている。	NO_LABEL
1000人あたり5.7人が結婚し、乳幼児死亡率は乳児出生数1000人あたり11人であり、1980年の18.9よりも減少している。	NO_PRONOUNCE	NO_LABEL
2001年の国勢調査によると、ソフィアの人口のうち96%はブルガリア人であり、その他の少数民族としては、18000人が自らをロマと自認し、6000人がトルコ人、3000人がロシア人、1700人がアルメニア人、1200人がギリシャ人であるとしている。	にせんいちねんのこくせいちょうさによると、そふぃあのじんこーのうちきゅうじゅうろくぱーせんとわぶるがりあじんであり、そのたのしょーすーみんぞくとしてわ、いちまんはっせんにんがみずからをろまとじにんし、ろくせんにんがとるこじん、さんぜんにんがろしあじん、せんななひゃくにんがあるめにあじん、せんにひゃくにんがぎりしゃじんであるとしている。	NO_LABEL
失業率はブルガリアの他の地域よりも明確に少なく、労働力人口のうち2.45%が1999年の時点で失業者であり、減少傾向にある。	NO_PRONOUNCE	NO_LABEL
ブルガリア全土での失業率は2007年7月1日の時点で7.25%であり、これも減少傾向にある。	NO_PRONOUNCE	NO_LABEL
失業者にしめる高学歴者の割合は27%であり、ブルガリア全体での割合7%よりも明確に高く、首都の傾向を表している。	しつぎょーしゃにしめるこーがくれきしゃのわりあいわにじゅうななぱーせんとであり、ぶるがりあぜんたいでのわりあいななぱーせんとよりもめいかくにたかく、しゅとのけいこーをあらわしている。	NO_LABEL
ソフィアが1879年に首都に指定されたとき、ソフィアはブルガリア全土ではプロヴディフ、ルセ、ヴァルナ、シュメンについで5番目の人口規模であった。	NO_PRONOUNCE	NO_LABEL
1892年までプロヴディフがブルガリアで最大の人口を持っていたが、それ以降ソフィアがこれを上回った。	NO_PRONOUNCE	NO_LABEL
ソフィアには多様なナイトライフの場があり、多種多様なナイトクラブ、ライブハウス、パブ、メハナ（）、レストランなどがある。	そふぃあにわたよーなないとらいふのばがあり、たしゅたよーなないとくらぶ、らいぶはうす、ぱぶ、めはなかっこ、れすとらんなどがある。	NO_LABEL
街では世界的に有名なスターたちのコンサートも開かれ、エルトン・ジョン、デペッシュ・モード、アイアン・メイデン、レイ・チャールズ、、メタリカ、キッス、マリリン・マンソン、エロス・ラマゾッティ、DJ Tiesto、Korn、ジューダス・プリースト、ロビン・ギブ、カイリー・ミノーグ、リアーナ、ジーマ・ビラーンらがソフィアでコンサートを開いた。	NO_PRONOUNCE	NO_LABEL
ソフィアには多くの博物館があり、特に国立歴史博物館、地球人類博物館、国立工芸博物館、、国立考古学博物館、ブルガリア国立外国アート・ギャラリー（）などのアート・ギャラリーもある。	NO_PRONOUNCE	NO_LABEL
ソフィアには聖キリル・メトディイ国立図書館、ソフィア国家図書館、英国協会、ロシア文化協会、ポーランド文化協会、ハンガリー協会、チェコおよびスロバキア文化協会、イタリア文化協会、フランス文化協会、ゲーテ協会、セルバンテス協会などがある。	NO_PRONOUNCE	NO_LABEL
子ども連れの家族はかつてソフィアランドで遊ぶことができた。	こどもずれのかぞくわかつてそふぃあらんどであそぶことができた。	NO_LABEL
ソフィアランドはソフィア動物公園に隣接した遊園地であったが、2006年に閉鎖した。	そふぃあらんどわそふぃあどーぶつこーえんにりんせつしたゆーえんちであったが、にせんろくねんにへいさした。	NO_LABEL
ソフィアでは映画産業が活性化しており、国際的な映画プロダクションが拠点を置いている。	そふぃあでわえいがさんぎょーがかっせいかしており、こくさいてきなえいがぷろだくしょんがきょてんをおいている。	NO_LABEL
ヴィトシャ通りはヴィトシカとも呼ばれ、2005年のクッシュマン・アンド・ウェイクフィールドの調査によれば世界で22番目の商業的に高級な通りにランクされ、多くのブティックや宝飾店が並び、国際的なファッションデザイナーの展示がある。	NO_PRONOUNCE	NO_LABEL
ソフィアの観光のみどころには、次のようなものがある:	NO_PRONOUNCE	NO_LABEL
その他の場所	そのたのばしょ	NO_LABEL
屋外のランドマーク	おくがいのらんどまーく	NO_LABEL
その他	そのた	NO_LABEL
ソフィアはブルガリアの有力な経済的拠点であり、多くのブルガリアの大企業や国際的企業が本社を置いている。	そふぃあわぶるがりあのゆーりょくなけいざいてききょてんであり、おーくのぶるがりあのだいきぎょーやこくさいてききぎょーがほんしゃをおいている。	NO_LABEL
ソフィアはまたブルガリアの金融センターであり、ブルガリア国立銀行やブルガリア証券取引所、金融監督委員会や、ブルガリア国内で業務をする多くの市中銀行の本社が置かれている。	そふぃあわまたぶるがりあのきんゆーせんたーであり、ぶるがりあこくりつぎんこーやぶるがりあしょーけんとりひきじょ、きんゆーかんとくいーんかいや、ぶるがりあこくないでぎょーむをするおーくのしちゅーぎんこーのほんしゃがおかれている。	NO_LABEL
建設、貿易、輸送もまた地元経済の重要な一角をなしている。	けんせつ、ぼーえき、ゆそーもまたじもとけいざいのじゅーよーないっかくをなしている。	NO_LABEL
ソフィアは、IBMやヒューレット・パッカード、ソニーなどの多国籍企業のアウトソーシング先となっている。	そふぃあわ、あいびーえむやひゅーれっとぱっかーど、そにーなどのたこくせききぎょーのあうとそーしんぐさきとなっている。	NO_LABEL
ブルガリアの経済発展を受けて、ソフィアの不動産市場は急上昇している。	ぶるがりあのけいざいはってんをうけて、そふぃあのふどーさんしじょーわきゅーじょーしょーしている。	NO_LABEL
2007年でのアパート価格は2003年の3倍にも達している。	にせんななねんでのあぱーとかかくわにせんさんねんのさんばいにもたっしている。	NO_LABEL
建設産業は新しい住宅やオフィスビルディング、ホテル、ビジネス・パーク、ショッピング・モールや物流施設の建設によって発展し、失業率は2.5%であり、ブルガリア全国平均の6.25%と比べて低く抑えられている。	NO_PRONOUNCE	NO_LABEL
インフラストラクチャーの発展と戦略的位置によって、ソフィアは国際的な鉄道、自動車の交通網の中心となっている。	いんふらすとらくちゃーのはってんとせんりゃくてきいちによって、そふぃあわこくさいてきなてつどー、じどーしゃのこーつーもーのちゅーしんとなっている。	NO_LABEL
3つの汎ヨーロッパ運輸回廊、4、8、および10がソフィアを通過している。	NO_PRONOUNCE	NO_LABEL
海運を除く主要な交通機関が整備されている。	かいうんをのぞくしゅよーなこーつーきかんがせいびされている。	NO_LABEL
ソフィアには8つの鉄道駅があり、その中で最大のものはソフィア中央駅である。	そふぃあにわやっつのてつどーえきがあり、そのなかでさいだいのものわそふぃあちゅーおーえきである。	NO_LABEL
そのすぐ隣にはソフィア中央バスステーションがあり、これはブルガリアで最大で最も現代的なバス・ターミナルである。	NO_PRONOUNCE	NO_LABEL
その他のソフィア各地のバス・ステーションからも都市間・国際交通が可能である。	NO_PRONOUNCE	NO_LABEL
ソフィア空港は新しく第2ターミナルが建設され、2006年に完成した。	そふぃあくーこーわあたらしくだいにたーみなるがけんせつされ、にせんろくねんにかんせいした。	NO_LABEL
2007年には270万人の旅客が利用した。	にせんななねんにわにひゃくななじゅうまんにんのりょかくがりよーした。	NO_LABEL
公共交通機関はバスおよびトロリーバスを中心に整備されており、市内各地を巡回している。	こーきょーこーつーきかんわばすおよびとろりーばすをちゅーしんにせいびされており、しないかくちをじゅんかいしている。	NO_LABEL
ソフィア地下鉄は1998年に開業したばかりであり、2路線が開通している。	NO_PRONOUNCE	NO_LABEL
既存の路線の延伸や3号線が計画中・建設中であり、地下鉄網の充実が図られている。	NO_PRONOUNCE	NO_LABEL
ソフィア地下鉄の計画の骨子には3本の路線、47の駅が含まれている。	NO_PRONOUNCE	NO_LABEL
私有のバンによる巡回輸送も有力かしてきており、公営の交通機関よりも早く、タクシーよりも安い。	しゆーのばんによるじゅんかいゆそーもゆーりょくかしてきており、こーえいのこーつーきかんよりもはやく、たくしーよりもやすい。	NO_LABEL
2005年の時点で、このような運営形態のバンは368台あり、都心部と郊外に48路線を持っている。	NO_PRONOUNCE	NO_LABEL
また、およそ6,000台の営業許可を受けたタクシーが運行しており、更におよそ2,000台が違法営業していると見られている。	NO_PRONOUNCE	NO_LABEL
タクシーは他のヨーロッパ諸国に比べて安価であり、町の有力な交通手段となっている。	たくしーわたのよーろっぱしょこくにくらべてあんかであり、まちのゆーりょくなこーつーしゅだんとなっている。	NO_LABEL
1990年代の自動車保有比率の上昇によって、ソフィアで登録を受けた自動車の台数は1百万台を超えている。	NO_PRONOUNCE	NO_LABEL
ソフィアは道路の舗装と修復が十分ではなく、ほとんどの通りは貧弱な状態にある。	そふぃあわどーろのほそーとしゅーふくがじゅーぶんでわなく、ほとんどのとーりわひんじゃくなじょーたいにある。	NO_LABEL
交通量の増大と大気汚染は町ではより深刻な問題となっている。	こーつーりょーのぞーだいとたいきおせんわまちではよりしんこくなもんだいとなっている。	NO_LABEL
地下鉄システムの整備によってこれらの問題が解決することが期待されている。	ちかてつしすてむのせいびによってこれらのもんだいがかいけつすることがきたいされている。	NO_LABEL
ソフィアには独特の、大規模なコジェネレーション・システムが稼動している。	NO_PRONOUNCE	NO_LABEL
ソフィア全域に相当する900,000の世帯と5,900の会社が一元的に熱供給を受けており、ガスおよび石油火力による発電の廃熱を利用している。	NO_PRONOUNCE	NO_LABEL
多くの古代ローマやビザンティンの建築物が町とその周囲に残されている。	おーくのこだいろーまやびざんてぃんのけんちくぶつがまちとそのしゅーいにのこされている。	NO_LABEL
最も特筆すべきものとして、10世紀のボヤナ教会や、ソフィアで現存する最古の建築物と考えられている聖ゲオルギ聖堂、初期ビザンティン時代の建築である聖ソフィア聖堂などがある。	もっともとくひつすべきものとして、じっせいきのぼやなきょーかいや、そふぃあでげんそんするさいこのけんちくぶつとかんがえられているきよしげおるぎせいどー、しょきびざんてぃんじだいのけんちくであるきよしそふぃあせいどーなどがある。	NO_LABEL
中世の興味深い建築物として聖ペトカ教会がある。	ちゅーせいのきょーみぶかいけんちくぶつとしてきよしぺとかきょーかいがある。	NO_LABEL
これは街の最も中心に位置しており、周囲を取り巻くツム・デパート、旧共産党本部、シェラトン・ホテルという3つのスターリン様式の建築群と好対照を成している。	NO_PRONOUNCE	NO_LABEL
1878年のブルガリア解放と、ブルガリア自治公国成立後にその首都となったソフィアでは、アレクサンダル公がオーストリア＝ハンガリー帝国の建築家らを招き、新しい首都の建築デザインを形作った。	せんはっぴゃくななじゅうはちねんのぶるがりあかいほーと、ぶるがりあじちこーこくせいりつごにそのしゅととなったそふぃあでわ、あれくさんだるおーやけがおーすとりあはんがりーていこくのけんちくからをまねき、あたらしいしゅとのけんちくでざいんをかたちずくった。	NO_LABEL
このときブルガリアに招かれた建築家には、フリードリヒ・グリュナンガー、ヴィクトル・ルンペルマイヤー（）らがいる。	NO_PRONOUNCE	NO_LABEL
これらの建築家によって、ブルガリアに新しく誕生した政府が必要とする重要な公共施設の大半や、有力者らの家屋が設計された。	これらのけんちくかによって、ぶるがりあにあたらしくたんじょーしたせいふがひつよーとするじゅーよーなこーきょーしせつのたいはんや、ゆーりょくしゃらのかおくがせっけいされた。	NO_LABEL
後に、外国で教育を受けた多くのブルガリア人の建築家がソフィアの建築に貢献した。	ごに、がいこくできょーいくをうけたおーくのぶるがりあじんのけんちくかがそふぃあのけんちくにこーけんした。	NO_LABEL
ソフィア中心部の建築は、新バロック様式、新ロココ様式、新ルネッサンス様式、新古典主義建築などが入り混じり、後にはウィーン分離派の影響も重要な役割を果たした。	そふぃあちゅーしんぶのけんちくわ、しんばろっくよーしき、しんろここよーしき、しんるねっさんすよーしき、しんこてんしゅぎけんちくなどがはいりまじり、ごにわうぃーんぶんりはのえいきょーもじゅーよーなやくわりをはたした。	NO_LABEL
ソフィア中心にこの時代に立てられた重要な建築物には、王宮、国立民俗博物館、イヴァン・ヴァゾフ国立劇場、旧国立印刷局、ブルガリア議会、ブルガリア科学アカデミーなどがある。	NO_PRONOUNCE	NO_LABEL
第二次世界大戦の後、ブルガリアに共産主義政府が樹立される1944年以降は、建築の様式は大幅に入れ替わった。	だいにじせかいたいせんののち、ぶるがりあにきょーさんしゅぎせいふがじゅりつされるせんきゅうひゃくよんじゅうよねんいこーわ、けんちくのよーしきわおーはばにいれかわった。	NO_LABEL
スターリン様式の公共の建築物が街の中心に現れるようになり、郊外の多くは共産主義時代の高層建築とブルータリズム建築（）が占めるようになった。	すたーりんよーしきのこーきょーのけんちくぶつがまちのちゅーしんにあらわれるよーになり、こーがいのおーくわきょーさんしゅぎじだいのこーそーけんちくとぶるーたりずむけんちくかっこがしめるよーになった。	NO_LABEL
1988年に共産主義体制が崩壊すると、ソフィアはビジネス街と郊外の大規模な建築を見るようになった。	せんきゅうひゃくはちじゅうはちねんにきょーさんしゅぎたいせいがほーかいすると、そふぃあわびじねすがいとこーがいのだいきぼなけんちくをみるよーになった。	NO_LABEL
現代的で摩天楼のような、ガラスで表面を覆われたオフィス・ビルディングや、高級住宅街も建設された。	NO_PRONOUNCE	NO_LABEL
ソフィアには16の大学がある。	NO_PRONOUNCE	NO_LABEL
はブルガリアで最も権威のある大学とみなされ、1888年に創設された。	わぶるがりあでもっともけんいのあるだいがくとみなされ、せんはっぴゃくはちじゅうはちねんにそーせつされた。	NO_LABEL
同大学では毎年14000人の新入生を受け入れている。	どーだいがくでわまいとしいちまんよんせんにんのしんにゅーせいをうけいれている。	NO_LABEL
その他の重要な大学には、、、、、、、がある。	NO_PRONOUNCE	NO_LABEL
更に、国家の機関として、がソフィアに置かれている。	さらに、こっかのきかんとして、がそふぃあにおかれている。	NO_LABEL
は1860年に創設され、アメリカ合衆国の国外では最古のアメリカの教育機関と見られている。	わせんはっぴゃくろくじゅうねんにそーせつされ、あめりかがっしゅーこくのこくがいでわさいこのあめりかのきょーいくきかんとみられている。	NO_LABEL
同学校ではブルガリアで特に優秀な学生らに教育を施している。	どーがっこーでわぶるがりあでとくにゆーしゅーながくせいらにきょーいくをほどこしている。	NO_LABEL
ソフィアはブルガリアの首都であることから、スポーツ活動の拠点ともなっており、ソフィアを拠点とする数多くのスポーツ・クラブがある。	NO_PRONOUNCE	NO_LABEL
その中には、ブルガリア1部リーグのサッカー・クラブであるPFC CSKAソフィアおよびレフスキ・ソフィア、ロコモティフ・ソフィア、スラヴィア・ソフィアや、かつて有力なクラブであったアカデミク・ソフィア、セプテムヴリ・ソフィアなどがある。	NO_PRONOUNCE	NO_LABEL
ブルガリアのスポーツにおけるソフィアの優位性は、ソフィアに拠点を置いているチームによるものであり、その中には既に解散したチームによる貢献もある。	ぶるがりあのすぽーつにおけるそふぃあのゆーいせいわ、そふぃあにきょてんをおいているちーむによるものであり、そのなかにわすでにかいさんしたちーむによるこーけんもある。	NO_LABEL
1923年にリーグが創設されて以来、このチームは解散までの間に何度もチャンピオンの座に輝いた。	せんきゅうひゃくにじゅうさんねんにりーぐがそーせつされていらい、このちーむわかいさんまでのまになんどもちゃんぴおんのざにかがやいた。	NO_LABEL
サッカーがソフィアを含むブルガリア全土で最も人気のあるスポーツであるが、バスケットボールやバレーボールもまたソフィアでは伝統あるスポーツである。	さっかーがそふぃあをふくむぶるがりあぜんどでもっともにんきのあるすぽーつであるが、ばすけっとぼーるやばれーぼーるもまたそふぃあでわでんとーあるすぽーつである。	NO_LABEL
最も良く知られたチームにはPBCルコイル・アカデミク（）があり、ユーロリーグにおいて2度チャンピオンとなった。	NO_PRONOUNCE	NO_LABEL
バレーボールはメジャーのクラブこそないものの、ブルガリアは常にバレーボルでは世界でトップ・クラスにある。	NO_PRONOUNCE	NO_LABEL
ブルガリア・バレーボール連盟（）は世界で2番目に古く、また同連盟によるソフィアでのエクシビジョン・トーナメントによって、1957年にIOCはバレーボールをオリンピック競技種目とした。	NO_PRONOUNCE	NO_LABEL
テニスもまた、ソフィアでは人気のあるスポーツである。	てにすもまた、そふぃあでわにんきのあるすぽーつである。	NO_LABEL
テニス・コート施設には、かつてWTAトップ10にランキングされたマグダレナ・マレーバの設立したものもある。	NO_PRONOUNCE	NO_LABEL
ラグビーはあまりブルガリアでは盛んではないものの、ソフィアには複数のラグビー・クラブがある。	NO_PRONOUNCE	NO_LABEL
その他には、特に個人競技が盛んであり、ボクシング、レスリング、アーチェリーなども国立スポーツ・アカデミーや各所のスポーツ・クラブで練習することができる。	NO_PRONOUNCE	NO_LABEL
これは、共産主義時代には、全てのスポーツ・クラブを統制し、全てのスポーツができるように整備されたことによる。	NO_PRONOUNCE	NO_LABEL
ソフィアは1992年と1994年の冬季オリンピックの開催地として立候補したが、それぞれ2位、3位に終わり、落選している。	そふぃあわせんきゅうひゃくきゅうじゅうにねんとせんきゅうひゃくきゅうじゅうよねんのとーきおりんぴっくのかいさいちとしてりっこーほしたが、それぞれにー、さんいにおわり、らくせんしている。	NO_LABEL
ソフィアはまた2014年の冬季オリンピックの開催地への立候補を申請したものの、候補地となることはできなかった。	そふぃあわまたにせんじゅうよねんのとーきおりんぴっくのかいさいちえのりっこーほをしんせいしたものの、こーほちとなることわできなかった。	NO_LABEL
ソフィアは、および、、を開催した。	NO_PRONOUNCE	NO_LABEL
ソフィアは多くのスポーツ開催地を擁し、43000人収容のヴァシル・レフスキ国立競技場、CSKAソフィアのブルガルスカ・アルミヤ競技場、コロモティフ競技場（）などがあり、数多くの音楽コンサートなども開かれる。	NO_PRONOUNCE	NO_LABEL
このほかの重要なスポーツ施設としては、3000人収容のウニヴェルシアデ・ホールがあり、バスケットボールなどの屋内イベントが開催される。	NO_PRONOUNCE	NO_LABEL
また、2つのスケート場があり、冬季スポーツ宮殿、スラヴィア冬季競技上は、ともに2つのリンクを持っている。	NO_PRONOUNCE	NO_LABEL
また、5,000人収容可能のボリソヴァ・グラディナ（）は自転車競技場である。	NO_PRONOUNCE	NO_LABEL
この競技場は改修が行われている。	このきょーぎじょーわかいしゅーがおこなわれている。	NO_LABEL
ほとんどのサッカー競技場はテニス・コート、アストロターフ（）人工芝のピッチやその他のスポーツ施設を併設し、またそれ以外の市内各所にも同様のスポーツ施設がある。	NO_PRONOUNCE	NO_LABEL
その他にも、サッカー・クラブに属していない多目的のスポーツ施設は市内各所にあり、国立スポーツ・アカデミーやブルガリア科学アカデミー（）などが保有している。	NO_PRONOUNCE	NO_LABEL
市内には15の水泳施設があり、その多くは屋外型である。	NO_PRONOUNCE	NO_LABEL
それらのほぼ全てが競技の開催ができるように設計されており、それぞれ数百の観客席を持つ。	それらのほぼすべてがきょーぎのかいさいができるよーにせっけいされており、それぞれすーひゃくのかんきゃくせきをもつ。	NO_LABEL
また、2つのゴルフ・コースがソフィアの東に隣接しており、共にエリン・ペリンにある。	NO_PRONOUNCE	NO_LABEL
また、イフティマンには乗馬クラブもある。	また、いふてぃまんにわじょーばくらぶもある。	NO_LABEL
ソフィアの市民が幅広く利用できる主な行楽としては、町の周辺に広がる自然豊かな公園があり、その多くは森林である。	そふぃあのしみんがはばひろくりよーできるおもなこーらくとしてわ、まちのしゅーへんにひろがるしぜんゆたかなこーえんがあり、そのおーくわしんりんである。	NO_LABEL
市中心にはボリソヴァ・グラディナ公園があるほか、町の南や西、北にも大きな公園があり、またそのほかにも小さな公園が多くある。	NO_PRONOUNCE	NO_LABEL
その中で特筆すべきものには市公園はバルカン半島で最古の国立公園である。	そのなかでとくひつすべきものにわしこーえんわばるかんはんとーでさいこのこくりつこーえんである。	NO_LABEL
ヴィトシャ自然公園はソフィアの南に位置するヴィトシャ山の大部分を覆い、その広さはおよそ270 平方キロメートルに及ぶ。	NO_PRONOUNCE	NO_LABEL
多くのソフィア市民が週末に山にハイキングに出かける。	おーくのそふぃあしみんがしゅーまつにやまにはいきんぐにでかける。	NO_LABEL
ヴィトシャ山にはバンガローや複数のスキー場があり、街から近い山地の利点が十分に活用されている。	NO_PRONOUNCE	NO_LABEL
ブルガリアで最大規模の通信、テレビ、ラジオ、ケーブル・テレビ、新聞、雑誌、ウェブ・ポータルの会社がソフィアに拠点を置いている。	NO_PRONOUNCE	NO_LABEL
ソフィアに本社を構えるテレビ局としては、ブルガリア国立放送やBTVなどがある。	NO_PRONOUNCE	NO_LABEL
発行部数の多い新聞には、24チャサ、セガ（）などがある。	NO_PRONOUNCE	NO_LABEL
ソフィアで生まれた著名人	そふぃあでうまれたちょめいじん	NO_LABEL
