トヨタグループはトヨタ自動車とその源流となった豊田自動織機を中核とした企業グループである。	とよたぐるーぷわとよたじどーしゃとそのげんりゅーとなったとよたじどーしょっきをちゅーかくとしたきぎょーぐるーぷである。	NO_LABEL
愛知県刈谷市の豊田自動織機や、そこから分社したトヨタ自動車を中心とした企業構成で、資本関係や技術提携のあるトヨタグループ主要企業、並びに豊田自動織機やトヨタ自動車から分社化した事業会社、機能会社を指す。	あいちけんかりやしのとよたじどーしょっきや、そこからぶんしゃしたとよたじどーしゃをちゅーしんとしたきぎょーこーせいで、しほんかんけいやぎじゅつていけいのあるとよたぐるーぷしゅよーきぎょー、ならびにとよたじどーしょっきやとよたじどーしゃからぶんしゃかしたじぎょーがいしゃ、きのーかいしゃをさす。	NO_LABEL
またトヨタ自動車のサプライヤーや系列企業などの意味で称されることもある。	またとよたじどーしゃのさぷらいやーやけいれつきぎょーなどのいみでしょーされることもある。	NO_LABEL
トヨタ自動車やその母体となった豊田自動織機が出資、設立した企業により構成される。	とよたじどーしゃやそのぼたいとなったとよたじどーしょっきがしゅっし、せつりつしたきぎょーによりこーせいされる。	NO_LABEL
トヨタ自動車の発展と共に形成されてきたグループゆえ、自動車関連の事業を行う企業が多い。	とよたじどーしゃのはってんとともにけいせいされてきたぐるーぷゆえ、じどーしゃかんれんのじぎょーをおこなうきぎょーがおーい。	NO_LABEL
トヨタグループの部品サプライヤーにはアイシン精機やデンソーなど、技術力が評価され、トヨタグループ以外の自動車メーカーにも部品供給をしている企業も多い。	とよたぐるーぷのぶひんさぷらいやーにわあいしんせいきやでんそーなど、ぎじゅつりょくがひょーかされ、とよたぐるーぷいがいのじどーしゃめーかーにもぶひんきょーきゅーをしているきぎょーもおーい。	NO_LABEL
それら企業力のあるグループ企業の中には、事業規模の拡大に伴う関連会社の設立により独自の企業グループも構成するようになっている。	それらきぎょーりょくのあるぐるーぷきぎょーのなかにわ、じぎょーきぼのかくだいにともなうかんれんがいしゃのせつりつによりどくじのきぎょーぐるーぷもこーせいするよーになっている。	NO_LABEL
アイシン精機、デンソー、豊田通商などがそれら企業に該当する。	あいしんせいき、でんそー、とよたつーしょーなどがそれらきぎょーにがいとーする。	NO_LABEL
豊田自動織機をはじめ、デンソー、アイシン精機、トヨタ紡織、トヨタ車体など、愛知県刈谷市に本社を構えるトヨタグループの会社が多い。	とよたじどーしょっきをはじめ、でんそー、あいしんせいき、とよたぼーしょく、とよたしゃたいなど、あいちけんかりやしにほんしゃをかまえるとよたぐるーぷのかいしゃがおーい。	NO_LABEL
上記13社にトヨタ自動車の傘下である国内自動車メーカー2社及び住宅メーカー1社を含めた企業グループ。	NO_PRONOUNCE	NO_LABEL
上記16社にトヨタ自動車の直轄工場と同列の国内生産子会社1社を含めた企業グループ。	NO_PRONOUNCE	NO_LABEL
2018年5月現在。	にせんじゅうはちねんごがつげんざい。	NO_LABEL
トヨタ自動車、豊田自動織機、豊田通商、トヨタ車体などグループ各企業のHPにおける関連企業、トヨタグループ紹介のページではここまでである。	とよたじどーしゃ、とよたじどーしょっき、とよたつーしょー、とよたしゃたいなどぐるーぷかくきぎょーのえいちぴーにおけるかんれんきぎょー、とよたぐるーぷしょーかいのぺーじでわここまでである。	NO_LABEL
トヨタ自動車の直轄工場と同列の国内生産子会社1社を含めた企業グループ。	NO_PRONOUNCE	NO_LABEL
下記企業も2012年6月までは含まれており、「トヨタグループ19社」であった。	NO_PRONOUNCE	NO_LABEL
トヨタ自動車の関連企業、トヨタ自動車と縁が深い企業など。	とよたじどーしゃのかんれんきぎょー、とよたじどーしゃとえんがふかいきぎょーなど。	NO_LABEL
トヨタ自動車のサプライヤーを「トヨタグループ」と称することもある。	NO_PRONOUNCE	NO_LABEL
豊田利三郎、豊田喜一郎らが豊田佐吉の遺訓としてまとめたトヨタグループ憲章。	とよだりざぶろー、とよだきいちろーらがとよださきちのいくんとしてまとめたとよたぐるーぷけんしょー。	NO_LABEL
1935年10月30日に制定。	せんきゅうひゃくさんじゅうごねんじゅーがつさんじゅうにちにせいてい。	NO_LABEL
グループの中核企業であるトヨタ自動車は財務体質が極めて優良であり、トヨタグループは三大財閥グループやメガバンク系グループとは一線を画する独立系の企業集団と見られている。	ぐるーぷのちゅーかくきぎょーであるとよたじどーしゃわざいむたいしつがきわめてゆーりょーであり、とよたぐるーぷわさんだいざいばつぐるーぷやめがばんくけいぐるーぷとわいっせんをかくするどくりつけいのきぎょーしゅーだんとみられている。	NO_LABEL
しかしそのトヨタ自動車は1949年のドッジ・ラインの影響で経営危機時に、当時のメインバンクであった住友グループの大阪銀行から融資を断られ、結局、日本銀行の斡旋で銀行団の融資を受けている。	しかしそのとよたじどーしゃわせんきゅうひゃくよんじゅうきゅうねんのどっじらいんのえいきょーでけいえいききじに、とーじのめいんばんくであったすみともぐるーぷのおーさかぎんこーからゆーしをことわられ、けっきょく、にっぽんぎんこーのあっせんでぎんこーだんのゆーしをうけている。	NO_LABEL
この時、三井グループの帝国銀行が日銀の要請に応じ、三菱グループの千代田銀行が拒否したことから、トヨタは三井グループを構成する二木会・三井業際研究所・綱町三井倶楽部に加盟する一方、三菱グループとは一切の関係を絶っていた。	NO_PRONOUNCE	NO_LABEL
トヨタグループと三菱グループとの間に再びつながりが出来るのは、海外事業関係で取引のあった東京銀行が三菱銀行に合併されてからといわれる。	とよたぐるーぷとみつびしぐるーぷとのまにふたたびつながりができるのわ、かいがいじぎょーかんけいでとりひきのあったとーきょーぎんこーがみつびしぎんこーにがっぺいされてからといわれる。	NO_LABEL
また、1997年に三井グループのさくら銀行の経営不安説が流れた際は、トヨタに増資を要請する事態にまで陥った。	また、せんきゅうひゃくきゅうじゅうななにみついぐるーぷのさくらぎんこーのけいえいふあんせつがながれたさいわ、とよたにぞーしをよーせいするじたいにまでおちいった。	NO_LABEL
いくらトヨタが優良企業で、かつて帝国銀行に経営危機を救ってもらったからとは言え、メーカーが銀行の救済をするというのは異例の事態であった。	いくらとよたがゆーりょーきぎょーで、かつてていこくぎんこーにけいえいききをすくってもらったからとわいえ、めーかーがぎんこーのきゅーさいをするとゆうのわいれいのじたいであった。	NO_LABEL
一方、三井グループの帝国銀行と共に日銀の要請に応じてトヨタに融資した銀行の中には東海銀行がある。	いっぽー、みついぐるーぷのていこくぎんこーとともににちぎんのよーせいにおーじてとよたにゆーししたぎんこーのなかにわとーかいぎんこーがある。	NO_LABEL
また、トヨタ関連の企業の多くは本社のある愛知県を拠点とする東海銀行を長くメインバンクにしていた。	また、とよたかんれんのきぎょーのおーくわほんしゃのあるあいちけんをきょてんとするとーかいぎんこーをながくめいんばんくにしていた。	NO_LABEL
この関係から、トヨタはUFJホールディングス設立時にその大株主となったとなる三和銀行をメインバンクとしており、三和銀行の大口取引先で構成する「みどり会」のメンバーである。	NO_PRONOUNCE	NO_LABEL
トヨタにとっても、三和銀行は準メインバンクと位置付けられていた。	とよたにとっても、さんわぎんこーわじゅんめいんばんくといちずけられていた。	NO_LABEL
）。	NO_PRONOUNCE	NO_LABEL
不良債権問題を背景とする銀行再編成の渦中で、経営困難に陥ったUFJHDの救済に三井グループ・住友グループの三井住友フィナンシャルグループと三菱グループの三菱東京フィナンシャル・グループが名乗りを上げていたが、UFJHDはMTFGとの合併を選んだ。	NO_PRONOUNCE	NO_LABEL
2005年に入り、三菱UFJフィナンシャル・グループと三菱重工業は相次いで、トヨタグループから社外取締役を迎えている、三菱重工業にはアイシン精機元会長の和田明広が取締役として入った。	NO_PRONOUNCE	NO_LABEL
両者は共にトヨタ副社長経験者である）。	NO_PRONOUNCE	NO_LABEL
現在のトヨタは、三菱重工・三菱航空機の推進するMRJ計画に大きく出資している。	NO_PRONOUNCE	NO_LABEL
また、三菱航空機はMRJの製造にトヨタ生産方式を採用する方向で検討しており、製造段階でトヨタから指導及び技術支援を得る考えである。	また、みつびしこーくーきわえむあーるじぇいのせいぞーにとよたせいさんほーしきをさいよーするほーこーでけんとーしており、せいぞーだんかいでとよたからしどーおよびぎじゅつしえんをえるかんがえである。	NO_LABEL
