発達性協調運動障害とは、協調的運動がぎこちない、あるいは全身運動や微細運動がとても不器用な障害を言う。	はったつせいきょーちょーうんどーしょーがいとわ、きょーちょーてきうんどーがぎこちない、あるいわぜんしんうんどーやびさいうんどーがとてもぶきよーなしょーがいをいう。	NO_LABEL
そのために、学習や日常生活に大きな影響を及ぼしている場合である。	そのために、がくしゅーやにちじょーせいかつにおーきなえいきょーをおよぼしているばあいである。	NO_LABEL
協調運動とは、諸種の別々の動作を1つにまとめる運動を言う。	きょーちょーうんどーとわ、しょしゅのべつべつのどーさをひとつにまとめるうんどーをいう。	NO_LABEL
たとえば、縄跳びは手で縄を回しながら、タイミング良く飛ぶという協調運動であり、かなり高度な協調運動である。	たとえば、なわとびわてでなわをまわしながら、たいみんぐよくとぶとゆうきょーちょーうんどーであり、かなりこーどなきょーちょーうんどーである。	NO_LABEL
ラジオ体操も、手と足、右手と左手等の動きが別々のものを統一して行うので協調運動の一種と言える。	らじおたいそーも、てとあし、みぎてとひだりてとーのうごきがべつべつのものをとーいつしておこなうのできょーちょーうんどーのいちしゅといえる。	NO_LABEL
他にも、ボールが片手で投げられないとか、ドリブルができない、自転車に乗れない等の困難を示すことがある。	たにも、ぼーるがかたてでなげられないとか、どりぶるができない、じてんしゃにのれないひとしのこんなんをしめすことがある。	NO_LABEL
また、楽器の演奏や図工での道具を使うこともこの範疇である。	また、がっきのえんそーやずこーでのどーぐをつかうこともこのはんちゅーである。	NO_LABEL
上記のような全身運動ばかりではなく、ボタンをかけることができない、靴の左右を度々まちがえる、箸を使えない等の微細運動にも困難を示す場合がある。	じょーきのよーなぜんしんうんどーばかりでわなく、ぼたんをかけることができない、くつのさゆーをたびたびまちがえる、はしをつかえないひとしのびさいうんどーにもこんなんをしめすばあいがある。	NO_LABEL
全身運動とともに微細運動の両方に困難を示す場合は、軽度とは言えない運動障害を持っている。	ぜんしんうんどーとともにびさいうんどーのりょーほーにこんなんをしめすばあいわ、けいどとわいえないうんどーしょーがいをもっている。	NO_LABEL
学校の教科で考えると、体育や音楽、図工が極端に苦手な子は、この障害の可能性がある。	がっこーのきょーかでかんがえると、たいいくやおんがく、ずこーがきょくたんににがてなこわ、このしょーがいのかのーせいがある。	NO_LABEL
ただ、LDやADHDとの合併が三割から五割あると言われているし、精神遅滞との合併も一部認められているので、その場合は広い範囲での学習困難をきたすことになる。	ただ、らいぶどあやえーでぃーえいちでぃーとのがっぺいがさんわりからごわりあるといわれているし、せいしんちたいとのがっぺいもいちぶみとめられているので、そのばあいわひろいはんいでのがくしゅーこんなんをきたすことになる。	NO_LABEL
このような運動障害は、身体疾患や神経疾患、広汎性発達障害にも見られるが、その場合は発達性協調運動障害と同時には診断されない。	このよーなうんどーしょーがいわ、しんたいしっかんやしんけいしっかん、こーはんせいはったつしょーがいにもみられるが、そのばあいわはったつせいきょーちょーうんどーしょーがいとどーじにわしんだんされない。	NO_LABEL
国際的診断基準が規定する順位では、より重度を優先順位とするからである。	こくさいてきしんだんきじゅんがきていするじゅんいでわ、よりじゅーどをゆーせんじゅんいとするからである。	NO_LABEL
俳優ダニエル・ラドクリフは、この障害があることを明らかにしている。	はいゆーだにえるらどくりふわ、このしょーがいがあることをあきらかにしている。	NO_LABEL
