十二所は神奈川県鎌倉市鎌倉地域にある大字。	じゅうにしょわかながわけんかまくらしかまくらちいきにあるだいじ。	NO_LABEL
鎌倉市の北東端に位置し、横浜市金沢区と接する。	かまくらしのほくとーたんにいちし、よこはましかなざわくとせっする。	NO_LABEL
住居表示未実施区域。	じゅーきょひょーじみじっしくいき。	NO_LABEL
郵便番号は248-0001。	NO_PRONOUNCE	NO_LABEL
地名の由来は、天保9年まで光触寺境内にあった鎮守熊野三山の「熊野十二所権現社」に由来する。	NO_PRONOUNCE	NO_LABEL
新編鎌倉志では「民家が十二軒あったことによる」と記載されているが、これは俗説である。	NO_PRONOUNCE	NO_LABEL
初見は文和4年9月の『頬焼阿弥陀縁起奥書』に「十二所道場」と記載されている。	NO_PRONOUNCE	NO_LABEL
この道場は光触寺を指している。	このどーじょーわこうしょくじをさしている。	NO_LABEL
熊野社は「大倉の熊野堂」と称し、鎌倉における熊野信仰の拠点であった。	NO_PRONOUNCE	NO_LABEL
上杉禅秀の乱では鎌倉公方足利持氏が岩殿寺から十二所を経て小坪、由比ヶ浜、佐助へと逃走したという記録が残っている。	うえすぎぜんしゅーのらんでわかまくらくぼーあしかがもちうじががんでんじからじゅうにしょをへてこつぼ、ゆいがはま、さすけえととーそーしたとゆうきろくがのこっている。	NO_LABEL
天正19年の「徳川家康寄進状」では十二所において建長寺、東慶寺両寺の寺領が寄進されている。	NO_PRONOUNCE	NO_LABEL
幕末には五十八貫余の寺領があった。	ばくまつにわごじゅーはちかんよのじりょーがあった。	NO_LABEL
新編相模国風土記稿において二階堂村には民戸26戸と記載され、明治3年には家数42戸、人別198人とされている。	NO_PRONOUNCE	NO_LABEL
2018年1月1日現在の世帯数と人口は以下の通りである。	にせんじゅうはちねんいちがつついたちげんざいのせたいすーとじんこーわいかのとーりである。	NO_LABEL
市立小・中学校に通う場合、学区は以下の通りとなる。	しりつしょーちゅーがっこーにかようばあい、がっくわいかのとーりとなる。	NO_LABEL
