工藤 祐生は、神奈川県相模原市出身のサッカー選手。	くどーゆーきわ、かながわけんさがみはらししゅっしんのさっかーせんしゅ。	NO_LABEL
Jリーグ・SC相模原所属。	NO_PRONOUNCE	NO_LABEL
ポジションはディフェンダー。	ぽじしょんわでぃふぇんだー。	NO_LABEL
1||0||colspan="2"|-||0||0||1||0	NO_PRONOUNCE	NO_LABEL
64||3||colspan="2"|-||colspan="2"|-||64||3	NO_PRONOUNCE	NO_LABEL
1||0||colspan=2|-||colspan=2|-||1||0	NO_PRONOUNCE	NO_LABEL
16||1||colspan=2|-||colspan=2|-||16||1	NO_PRONOUNCE	NO_LABEL
12||1||colspan="2"|-||colspan=2|-||12||1	NO_PRONOUNCE	NO_LABEL
94||5||0||0||0||0||94||5	NO_PRONOUNCE	NO_LABEL
