ファーマナ・アンド・オマーは、イギリスの北アイルランド南西部の行政区。	ふぁーまなあんどおまーわ、いぎりすのきたあいるらんどなんせいぶのぎょーせいく。	NO_LABEL
中心都市はエニスキレンとオマー。	ちゅーしんとしわえにすきれんとおまー。	NO_LABEL
2015年の人口は11万5311人、面積は2846.77km2、人口密度は40.5人/km2。	NO_PRONOUNCE	NO_LABEL
2015年4月1日に、とが合併して設置された。	にせんじゅうごねんしがつついたちに、とががっぺいしてせっちされた。	NO_LABEL
