桑村 さや香は、日本の脚本家。	くわむらさやかわ、にっぽんのきゃくほんか。	NO_LABEL
埼玉県入間市出身。	さいたまけんいるまししゅっしん。	NO_LABEL
東京工芸大学芸術学部映像学科卒業。	とーきょーこーげいだいがくげいじゅつかくぶえいぞーがっかそつぎょー。	NO_LABEL
オリガミクスパートナーズ所属。	おりがみくすぱーとなーずしょぞく。	NO_LABEL
2008年に『輪廻の雨』で第21回フジテレビヤングシナリオ大賞受賞。	NO_PRONOUNCE	NO_LABEL
映画『ストロボ・エッジ』や『』を手がけた後、2015年の月9ドラマ『恋仲』を担当している。	NO_PRONOUNCE	NO_LABEL
