銭函インターチェンジは、北海道小樽市星野町にある札樽自動車道のインターチェンジ。	ぜにばこいんたーちぇんじわ、ほっかいどーおたるしほしのちょーにあるさっそんじどーしゃどーのいんたーちぇんじ。	NO_LABEL
下り線の場合、石狩市や札幌市手稲区方面への最寄ICとなる。	くだりせんのばあい、いしかりしやさっぽろしていねくほーめんえのもよりあいしーとなる。	NO_LABEL
銭函	ぜにばこ	NO_LABEL
星置	ほしおき	NO_LABEL
IC出口から、小樽市道銭函山手線を介して高架橋で国道337号と接続している。	あいしーでぐちから、おたるしどーぜにばこやまのてせんをかいしてこーかきょーでこくどーさんびゃくさんじゅうななとせつぞくしている。	NO_LABEL
国道5号と道央圏連絡道路もIC近傍でランプ形式で接続しているが、銭函ICと国道5号はここで接続せず、1kmほど小樽市寄りにある道道147号銭函インター線から利用しなければならない。	NO_PRONOUNCE	NO_LABEL
料金体系・収受方法については東日本高速道路から注意喚起されている。	NO_PRONOUNCE	NO_LABEL
