適応的差分パルス符号変調とは自然信号に対する圧縮方式の一つである。	てきおーてきさぶんぱるすふごーへんちょーとわしぜんしんごーにたいするあっしゅくほーしきのひとつである。	NO_LABEL
主に音声信号に用いられる。	おもにおんせいしんごーにもちいられる。	NO_LABEL
過去に復号された信号標本と現在の信号標本との差分信号を符号化する差分パルス符号変調を改良し、量子化幅を適応的に変化させるものである。	かこにふくごーされたしんごーひょーほんとげんざいのしんごーひょーほんとのさぶんしんごーをふごーかするさぶんぱるすふごーへんちょーをかいりょーし、りょーしかはばをてきおーてきにへんかさせるものである。	NO_LABEL
