カフェ・マキアートを注いだものである。	かふぇまきあーとをちゅういだものである。	NO_LABEL
マキアートとは、イタリア語で「染みのついた」と言う意味で、エスプレッソに注いだミルクの跡が染みの様に見えることから名づけられた。	NO_PRONOUNCE	NO_LABEL
本来はエスプレッソにスプーン1杯程度のミルクを落としたものであるが、カフェによってはエスプレッソとミルクを1:1の割合で加えたりとばらつきがある。	NO_PRONOUNCE	NO_LABEL
