一般社団法人千葉県マンション管理士会は、、千葉県が地盤のマンション管理士会。	NO_PRONOUNCE	NO_LABEL
会員数は90名程度。	NO_PRONOUNCE	NO_LABEL
千葉県内自治体と連携してマンション管理組合向けのセミナー・相談会を開催するとともに会員相互の交流・研鑽を行っている。	NO_PRONOUNCE	NO_LABEL
マンション管理士会の全国組織である日本マンション管理士会連合会の会員管理士会である。	まんしょんかんりしかいのぜんこくそしきであるにほんまんしょんかんりしれんごーかいのかいいんかんりしかいである。	NO_LABEL
