新川は、群馬県桐生市を流れていた川である。	しんかわわ、ぐんまけんきりゅーしをながれていたかわである。	NO_LABEL
利根川水系に属する渡良瀬川と桐生川を結んでいた。	とねがわすいけいにぞくするわたらせがわときりゅーがわをむすんでいた。	NO_LABEL
現在では大部分が埋め立てられ、緑地や道路となっている。	げんざいでわだいぶぶんがうめたてられ、りょくちやどーろとなっている。	NO_LABEL
桐生市元宿町で渡良瀬川から分岐し、市内を東に流れ、浜松町で桐生川と合流していた。	きりゅーしもとじゅくちょーでわたらせがわからぶんきし、しないをひがしにながれ、はままつちょーできりゅーがわとごーりゅーしていた。	NO_LABEL
かつては下瀞堀と呼ばれ、中世には柄杓山城外郭の要害として、渡良瀬川北岸の丸山砦と桐生川東岸の浅間山砦を結んでいた。	かつてわしもとろほりとよばれ、ちゅーせいにわひしゃくやまじょーがいかくのよーがいとして、わたらせがわほくがんのまるやまとりでときりゅーがわとーがんのあさまさんさいをむすんでいた。	NO_LABEL
1910年の洪水や、1947年のカスリーン台風による洪水では、家屋や橋が流される被害が出た。	せんきゅうひゃくじゅうねんのこーずいや、せんきゅうひゃくよんじゅうななねのかすりーんたいふーによるこーずいでわ、かおくやはしがながされるひがいがでた。	NO_LABEL
1953年には河川敷に新川児童遊園地が開園したが、1971年に遊園地は桐生が岡公園に移設された。	せんきゅうひゃくごじゅうさんねんにわかせんしきにしんかわじどーゆーえんちがかいえんしたが、せんきゅうひゃくななじゅういちねんにゆーえんちわきりゅーがおかこーえんにいせつされた。	NO_LABEL
巴町から浜松町までの区間は埋め立て工事によって、現在はコロンバス通りとなっている。	ともえちょーからはままつちょーまでのくかんわうめたてこーじによって、げんざいわころんばすどーりとなっている。	NO_LABEL
川岸町の旧盛運橋周辺に旧河道の跡が見られ、新川公園や新川バラ園など付近の施設に名残りを留めている。	かわぎしちょーのきゅーせいうんきょーしゅーへんにきゅーかどーのあとがみられ、しんかわこーえんやしんかわばらえんなどふきんのしせつになごりをとめている。	NO_LABEL
