星子 敏雄は、日本の政治家。	ほしことしおわ、にっぽんのせいじか。	NO_LABEL
熊本市長。	くまもとしちょー。	NO_LABEL
熊本県鹿本郡稲田村出身。	くまもとけんかもとぐんいなだむらしゅっしん。	NO_LABEL
1928年東京帝国大学法学部政治学科卒。	せんきゅうひゃくにじゅうはちねんとーきょーていこくだいがくほーがくぶせいじがっかそつ。	NO_LABEL
同年満州に渡り、関東庁に勤務する。	どーねんまんしゅーにわたり、かんとーちょーにきんむする。	NO_LABEL
その後奉天省、満州国総務庁で勤務し、1945年満州国警務総局長に就任した。	そのごほーてんしょー、まんしゅーこくそーむちょーできんむし、せんきゅうひゃくよんじゅうごねんまんしゅーこくけいむそーきょくちょーにしゅーにんした。	NO_LABEL
同年、ソ連軍が満州に侵入し、星子はソ連軍に拘束され、シベリアに抑留される。	どーねん、それんぐんがまんしゅーにしんにゅーし、ほしこわそれんぐんにこーそくされ、しべりあによくりゅーされる。	NO_LABEL
1956年帰国。	せんきゅうひゃくごじゅうろくねんきこく。	NO_LABEL
1963年熊本市助役に就任。	せんきゅうひゃくろくじゅうさんねんくまもとしじょやくにしゅーにん。	NO_LABEL
1970年熊本市長選挙に立候補して当選、4期16年務めた。	せんきゅうひゃくななじゅうねんくまもとしちょーせんきょにりっこーほしてとーせん、よんきじゅうろくねんつとめた。	NO_LABEL
1986年に引退。	せんきゅうひゃくはちじゅうろくねんにいんたい。	NO_LABEL
1995年死去。	せんきゅうひゃくきゅうじゅうごねんしきょ。	NO_LABEL
