木下 高男は、共同テレビジョンの演出家。	きのしたたかおわ、きょーどーてれびじょんのえんしゅつか。	NO_LABEL
横浜放送映画専門学院卒業。	よこはまほーそーえいがせんもんがそつぎょー。	NO_LABEL
専門学校卒業後、フリーランスの時期を経て現所属のベイシスへ。	せんもんがっこーそつぎょーご、ふりーらんすのじきをへてげんしょぞくのべいしすえ。	NO_LABEL
福本義人や若松節朗、小野原和宏の下で助監督としてのキャリアを重ねる。	ふくもとよしひとやわかまつせつろー、おのはらかずひろのしたでじょかんとくとしてのきゃりあをかさねる。	NO_LABEL
1990年『奇妙な出来事』で演出デビューを果たす。	NO_PRONOUNCE	NO_LABEL
1995年の『木曜の怪談』内の「怪奇倶楽部」で初のメイン、1997年の『彼女たちの結婚』で1時間連続ものの初のメインを務める。	NO_PRONOUNCE	NO_LABEL
以降、共同テレビ制作のドラマを中心に活動する。	いこー、きょーどーてれびせいさくのどらまをちゅーしんにかつどーする。	NO_LABEL
財前直見や上戸彩や松たか子、萩原健一といった女優や俳優と仕事をする機会が多い。	ざいぜんなおみやうえとあややまつたかこ、はぎわらけんいちといったじょゆーやはいゆーとしごとをするきかいがおーい。	NO_LABEL
1990年	せんきゅうひゃくきゅうじゅうねん	NO_LABEL
1991年	せんきゅうひゃくきゅうじゅういちねん	NO_LABEL
1992年	せんきゅうひゃくきゅうじゅうにねん	NO_LABEL
1993年	せんきゅうひゃくきゅうじゅうさんねん	NO_LABEL
1994年	せんきゅうひゃくきゅうじゅうよねん	NO_LABEL
1995年	せんきゅうひゃくきゅうじゅうごねん	NO_LABEL
1995年 - 1996年	NO_PRONOUNCE	NO_LABEL
1997年	せんきゅうひゃくきゅうじゅうなな	NO_LABEL
1998年	せんきゅうひゃくきゅうじゅうはちねん	NO_LABEL
1999年	せんきゅうひゃくきゅうじゅうきゅうねん	NO_LABEL
2000年	にせんねん	NO_LABEL
2001年	にせんいちねん	NO_LABEL
2002年	にせんにねん	NO_LABEL
2003年	にせんさんねん	NO_LABEL
2004年	にせんよねん	NO_LABEL
2005年	にせんごねん	NO_LABEL
2006年	にせんろくねん	NO_LABEL
2007年	にせんななねん	NO_LABEL
2008年	にせんはちねん	NO_LABEL
2009年	にせんきゅうねん	NO_LABEL
2010年	にせんじゅうねん	NO_LABEL
2011年	にせんじゅういちねん	NO_LABEL
2012年	にせんじゅうにねん	NO_LABEL
2013年	にせんじゅうさんねん	NO_LABEL
2014年	にせんじゅうよねん	NO_LABEL
2015年	にせんじゅうごねん	NO_LABEL
2016年	にせんじゅうろくねん	NO_LABEL
2017年	にせんじゅうななねん	NO_LABEL
2018年	にせんじゅうはちねん	NO_LABEL
