甲田四郎は、日本の詩人。	こーだしろーわ、にっぽんのしじん。	NO_LABEL
東京都生まれ。	とーきょーとうまれ。	NO_LABEL
本名・山中一雄。	NO_PRONOUNCE	NO_LABEL
中央大学卒。	ちゅーおーだいがくそつ。	NO_LABEL
東京の下町で和菓子店を経営しながら詩作を行う。	とーきょーのしたまちでわがしてんをけいえいしながらしさくをおこなう。	NO_LABEL
「潮流詩派の会」、「垂線」、現代詩人会会員。	NO_PRONOUNCE	NO_LABEL
1990年『大手が来る』で第23回小熊秀雄賞、2002年『陣場金次郎洋品店の夏』で第4回小野十三郎賞、2014年『送信』で第32回現代詩人賞受賞。	NO_PRONOUNCE	NO_LABEL
