橋立丸は、日本海洋漁業統制株式会社が太平洋戦争中の1944年に建造した戦時標準船仕様のタンカーで、戦後に捕鯨母船へ改装された。	はしだてまるわ、にっぽんかいよーぎょぎょーとーせいかぶしきがいしゃがたいへいよーせんそーちゅーのせんきゅうひゃくよんじゅうよねんにけんぞーしたせんじひょーじゅんせんしよーのたんかーで、せんごにほげいぼせんえかいそーされた。	NO_LABEL
南極海での捕鯨や石油輸入に従事し、日本の戦後復興に貢献した。	なんきょくかいでのほげいやせきゆゆにゅーにじゅーじし、にっぽんのせんごふっこーにこーけんした。	NO_LABEL
本船は、太平洋戦争における日本の第1次戦時標準船のうち大型タンカー規格である1TL型戦時標準船の18番船として、川崎重工業神戸造船所で建造された。	NO_PRONOUNCE	NO_LABEL
1944年5月10日に起工、173日間で竣工に至っている。	せんきゅうひゃくよんじゅうよねんごがつとおかにきこー、ひゃくななじゅうさんにちかんでしゅんこーにいたっている。	NO_LABEL
1TL型戦時標準船のうち戦時中に竣工したものとしては最終にあたる。	NO_PRONOUNCE	NO_LABEL
船名は天橋立に由来し、船主の日本水産が所有する石油タンカー「厳島丸」および「松島丸」と合わせて日本三景にちなむ船名が揃っている。	NO_PRONOUNCE	NO_LABEL
1TL型戦標船は川崎型油槽船相当の補給艦などに転用可能な高性能タンカーで、主機関へ生産能力に比較的余裕がある蒸気タービンエンジンを採用し、船体のを曲線ではなく直線で構成するなど若干の簡易化を施した設計となっている。	NO_PRONOUNCE	NO_LABEL
1TL型の後期建造船である本船は初期に起工された船とは細部に違いがあり、初期には単脚型だった2本のマストが補給艦としての運用に便利な門型に変更され、船尾構造物後端に自衛武装用の角型砲座が設置されるなどしている。	NO_PRONOUNCE	NO_LABEL
各種の自衛用火器のほか、魚雷撃退用の展開ブームや、レーダー逆探知用の電波探知機なども装備された。	かくしゅのじえいよーかきのほか、ぎょらいげきたいよーのてんかいぶーむや、れーだーぎゃくたんちよーのでんぱたんちきなどもそーびされた。	NO_LABEL
1944年11月14日、「橋立丸」は、最初の航海としてヒ81船団へ加入してシンガポールへ石油の積み取りに向かうことになった。	NO_PRONOUNCE	NO_LABEL
船団は途中で輸送船2隻と護衛の空母「神鷹」が撃沈されたものの、「橋立丸」は12月4日にシンガポールへ無事に到着した。	NO_PRONOUNCE	NO_LABEL
「橋立丸」はさっそくガソリンを満載すると、同様にヒ81船団で到着したタンカー2隻および新規加入のタンカー2隻とともにヒ82船団を編成、12月12日に日本へと出航した。	NO_PRONOUNCE	NO_LABEL
ヒ82船団はインドシナ半島沖でアメリカ潜水艦「フラッシャー」の猛攻を受け、同月22日に「音羽山丸」「ありた丸」「御室山丸」が撃沈された。	NO_PRONOUNCE	NO_LABEL
逃げのびた「橋立丸」は積荷のガソリンを台湾の守備隊用に回すことになり、経由地の高雄でヒ82船団を離脱して荷を降ろした。	NO_PRONOUNCE	NO_LABEL
荷降ろしを終えた「橋立丸」は、再びシンガポールからの石油輸送任務を命じられた。	NO_PRONOUNCE	NO_LABEL
1945年1月8日に門司から高雄へ到着したヒ87船団に途中加入すると、10日に高雄を出て南下した。	せんきゅうひゃくよんじゅうごねんいちがつようかにもんじからたかおえとーちゃくしたひはちじゅうななせんだんにとちゅーかにゅーすると、とおかにたかおをだしてなんかした。	NO_LABEL
アメリカ海軍第38任務部隊が付近で行動中と判明したため、船団は香港へ退避したが、15日から16日にかけて猛烈な空襲にさらされた。	NO_PRONOUNCE	NO_LABEL
船団は壊滅状態に陥り、「橋立丸」も損傷した。	NO_PRONOUNCE	NO_LABEL
ただし、日本水産の社史では香港ではなく高雄で至近弾により損傷としている。	ただし、にっぽんすいさんのしゃしでわほんこんでわなくたかおでしきんだんによりそんしょーとしている。	NO_LABEL
「橋立丸」は護衛艦2隻を伴ってヒ87B船団として航海を続行するよう一旦は指示されたが、ガス爆発による損傷が大きく修理のため日本へ回航することになった。	NO_PRONOUNCE	NO_LABEL
ホモ01船団へ加入した「橋立丸」は、1945年2月3日に香港を出港。	NO_PRONOUNCE	NO_LABEL
2月11日に杭州湾内の地点で機雷に接触して小破し、海防艦「粟国」の護衛で船団から離脱した。	NO_PRONOUNCE	NO_LABEL
その後しばらくの行動は不明であるが、3月16日に上海沖で「橋立丸」は貨客船「吉林丸」とモタ02船団またはモタ502船団を組み、駆逐艦「桜」と第二十一号掃海艇の護衛を受けて出航、3月19日に門司へ到着した。	NO_PRONOUNCE	NO_LABEL
内地に帰りついたものの、すでに戦況の悪化から南方航路は閉鎖されていたため、「橋立丸」は修理の価値がないと判断された。	NO_PRONOUNCE	NO_LABEL
大阪港へ係留され、損傷状態のままで終戦の日を迎えた。	おーさかこーえけいりゅーされ、そんしょーじょーたいのままでしゅーせんのひをむかえた。	NO_LABEL
終戦後の食糧難の中、日本政府は、大洋漁業の働きかけを受けて、鯨肉生産による食糧確保と鯨油輸出による外貨獲得を目的とする南極海での捕鯨再開を計画した。	しゅーせんごのしょくりょーなんのなか、にっぽんせいふわ、たいよーぎょぎょーのはたらきかけをうけて、げいにくせいさんによるしょくりょーかくほとげいゆゆしゅつによるがいかかくとくをもくてきとするなんきょくかいでのほげいさいかいをけいかくした。	NO_LABEL
日本水産は、巨額の投資を要する捕鯨再開に積極的ではなかったが、政府の強い要請と支援約束で出漁を決めた。	にっぽんすいさんわ、きょがくのとーしをよーするほげいさいかいにせっきょくてきでわなかったが、せいふのつよいよーせいとしえんやくそくでしゅつりょーをきめた。	NO_LABEL
連合国軍最高司令官総司令部の許可も下りた。	れんごーこくぐんさいこーしれいかんそーしれいぶのきょかもおりた。	NO_LABEL
日本水産は戦前に3隻の捕鯨母船を保有していたが、全て戦没していたため、新規に調達の必要があった。	NO_PRONOUNCE	NO_LABEL
そこで、持ち船の「橋立丸」を捕鯨母船に改装することとなった。	NO_PRONOUNCE	NO_LABEL
工事は、戦前に「第三図南丸」など日本水産の捕鯨母船を建造した日立造船が受注し、因島工場で行われた。	NO_PRONOUNCE	NO_LABEL
1946年10月15日に完工している。	せんきゅうひゃくよんじゅうろくねじゅーがつじゅうごにちにかんこーしている。	NO_LABEL
船尾に鯨を引き上げるためのスリップウェイを設けるなど外観はほとんど原形をとどめない大改装であったが、工期を第1回の出漁に間に合わせるため鯨油生産設備はクワナーボイラー3基だけで忍び、解剖甲板上にタンカー時代の配管が露出したままなど各部に不具合が残っていた。	せんびにくじらをひきあげるためのすりっぷうぇいをもーけるなどがいかんわほとんどげんけいをとどめないだいかいそーであったが、こーきをだいいっかいのしゅつりょーにまにあわせるためげいゆせいさんせつびわくわなーぼいらーさんきだけでしのび、かいぼーかんぱんじょーにたんかーじだいのはいかんがろしゅつしたままなどかくぶにふぐあいがのこっていた。	NO_LABEL
1946年11月7日、橋立丸船団は、第1次南氷洋捕鯨へ向けて大阪港から出航した。	せんきゅうひゃくよんじゅうろくねじゅーいちがつなのか、はしだてまるせんだんわ、だいいちじなんぴょーよーほげいえむけておーさかこーからしゅっこーした。	NO_LABEL
随伴船は、キャッチャーボート5隻と鯨肉を持ち帰るための塩蔵工船「多度津丸」、鯨油中積用のタンカー「さんぢゑご丸」であった。	NO_PRONOUNCE	NO_LABEL
南極海に到着した橋立丸船団は操業を開始したが、「橋立丸」の処理能力が小さいことから成績は低調で、捕獲頭数はシロナガスクジラ換算391.5単位、生産物は鯨油3700トン・鯨肉10608トンにとどまった。	NO_PRONOUNCE	NO_LABEL
なお、大洋漁業の「第一日新丸」はクワナーボイラー内部に材料を破砕するための刃を備えるなど相対的に優れた処理能力を有したため、橋立丸船団より149BWU・生産物6千トンも多い成果を挙げている。	NO_PRONOUNCE	NO_LABEL
翌年度以降も「橋立丸」は捕鯨母船として船団を率いて、第2次南氷洋捕鯨から第5次南氷洋捕鯨まで南極海へ出漁した。	NO_PRONOUNCE	NO_LABEL
次第に陣容も強化され、例えば第3次南氷洋捕鯨での橋立丸船団は塩蔵工船「多度津丸」・冷凍工船「摂津丸」・中積タンカー「玉栄丸」・1000トン級冷凍船2隻・350トン級キャッチャーボート7隻の本船以下13隻で構成されていた。	NO_PRONOUNCE	NO_LABEL
漁獲成績は、第2次で383BWU、第3次で504BWU、第4次で632BWU、第5次で550BWU及びマッコウクジラと記録されている。	NO_PRONOUNCE	NO_LABEL
母船としての能力不足は否めず大洋漁業の第一日新丸船団に比べて成績は不良で、船団長がたびたび交代させられている。	ぼせんとしてののーりょくふそくわいなめずたいよーぎょぎょーのだいいちにちしんまるせんだんにくらべてせいせきわふりょーで、せんだんちょーがたびたびこーたいさせられている。	NO_LABEL
この間、1950年9月3日には日立造船築港工場へ係留して整備中にジェーン台風の影響により座礁したが、同年末の第5次南氷洋捕鯨までには復旧されている。	このかん、せんきゅうひゃくごじゅうねんくがつみっかにわひたちぞーせんちっこーこーじょーえけいりゅーしてせいびちゅーにじぇーんたいふーのえいきょーによりざしょーしたが、どーねんまつのだいごじなんぴょーよーほげいまでにわふっきゅーされている。	NO_LABEL
また、オーストラリア政府から戦争賠償として本船と「第一日新丸」を譲渡するよう要求があったが、アメリカ合衆国の反対により実現を免れた。	NO_PRONOUNCE	NO_LABEL
捕鯨以外に、1948年8月には日本のタンカーとして戦後初めて中東航路へ就航し、イラン産の石油を運んでいる。	ほげいいがいに、せんきゅうひゃくよんじゅうはちねはちがつにわにっぽんのたんかーとしてせんごはじめてちゅーとーこーろえしゅーこーし、いらんさんのせきゆをはこんでいる。	NO_LABEL
「橋立丸」の捕鯨母船としての能力不足に悩んだ日本水産は、戦前の持ち船でチューク諸島に沈没している捕鯨母船「第三図南丸」の再就役を計画した。	NO_PRONOUNCE	NO_LABEL
1950年10月から4カ月半がかりで「第三図南丸」の海洋サルベージは成功し、「図南丸」と改称して第6次南氷洋捕鯨から「橋立丸」に替わって出漁することとなった。	NO_PRONOUNCE	NO_LABEL
1951年5月8日、「橋立丸」は飯野海運へ売却された。	NO_PRONOUNCE	NO_LABEL
飯野海運では石油タンカーとして使用され、イランやバーレーンからの石油輸入に従事した。	いーのかいうんでわせきゆたんかーとしてしよーされ、いらんやばーれーんからのせきゆゆにゅーにじゅーじした。	NO_LABEL
1957年7月には、同じく飯野海運が所有していた1TL型戦標船「東亜丸」の後を追うように内外海運へ譲渡される。	NO_PRONOUNCE	NO_LABEL
その後、廃船になって1960年4月20日にスクラップとして解体された。	そのご、はいせんになってせんきゅうひゃくろくじゅうねんしがつはつかにすくらっぷとしてかいたいされた。	NO_LABEL
