桃井 和馬は、日本の写真家、ジャーナリスト。	ももいかずまわ、にっぽんのしゃしんか、じゃーなりすと。	NO_LABEL
東京都出身。	とーきょーとしゅっしん。	NO_LABEL
テンプル大学日本校アメリカ研究学科卒業。	てんぷるだいがくにっぽんこーあめりかけんきゅーがっかそつぎょー。	NO_LABEL
世界140カ国を取材し、紛争・地球環境などを題材に宗教的な文明論を展開している。	NO_PRONOUNCE	NO_LABEL
第32回太陽賞受賞。	だいさんじゅうにかいたいよーしょーじゅしょー。	NO_LABEL
