『ジプシー男爵』は、ヨハン・シュトラウス2世のオペレッタ。	NO_PRONOUNCE	NO_LABEL
『こうもり』に次いで有名である。	NO_PRONOUNCE	NO_LABEL
1885年10月24日、シュトラウスの60歳の誕生日の前日に、『こうもり』と同じくウィーンのアン・デア・ウィーン劇場で初演された。	NO_PRONOUNCE	NO_LABEL
ハンガリー人の作家の短編小説『シャーッフィ』を基に、ハンガリー人ジャーナリストのが書き上げた台本には、ハンガリー情緒がふんだんに盛り込まれている。	NO_PRONOUNCE	NO_LABEL
わずか6週間で書き上げたといわれる『こうもり』とは異なり、シュトラウスはこの作品を2年の歳月をかけて作曲した。	NO_PRONOUNCE	NO_LABEL
初演は大成功を収め、以後ハンガリーを題材にしたオペレッタが数多く作曲され、人気を博していくことになる。	しょえんわだいせいこーをおさめ、いごはんがりーをだいざいにしたおぺれったがかずおーくさっきょくされ、にんきをはくしていくことになる。	NO_LABEL
序曲や第3幕で演奏される凱旋の入場行進曲、そして劇中で使われるワルツを用いて作曲された『宝のワルツ』などは、演奏会で単独でも演奏される。	NO_PRONOUNCE	NO_LABEL
芝居を好んだという当時のオーストリア皇帝フランツ・ヨーゼフ1世は、この『ジプシー男爵』を大いに気に入り、劇場の皇帝席にシュトラウスを呼び寄せた。	NO_PRONOUNCE	NO_LABEL
シュトラウスは非常に興奮しながら、その時のことを友人グスタフ・レヴィにこう語った。	NO_PRONOUNCE	NO_LABEL
シュトラウスは当初『ジプシー男爵』を、オペレッタではなく「喜劇的オペラ」と名付けようとしていたという。	NO_PRONOUNCE	NO_LABEL
シュトラウスは、オペレッタばかりでなくオペラにも進出したいと考えるようになっていた。	しゅとらうすわ、おぺれったばかりでなくおぺらにもしんしゅつしたいとかんがえるよーになっていた。	NO_LABEL
皇帝から不用意に飛び出た「オペラ」発言は、そんなシュトラウスに大きな喜びをあたえたのである。	NO_PRONOUNCE	NO_LABEL
