仲谷 めいは、兵庫県神戸市出身のシンガーソングライター、クリエイター、著作家、コラムニスト、である。	なかたにめいわ、ひょーごけんこーべししゅっしんのしんがーそんぐらいたー、くりえいたー、ちょさくか、こらむにすと、である。	NO_LABEL
キャッチフレーズは「4月うまれだけどmeiです」。	NO_PRONOUNCE	NO_LABEL
2006年	にせんろくねん	NO_LABEL
芸術で生きたいと思い立ち衝動だけで作詞と作曲を始める。	げいじゅつでいきたいとおもいたちしょーどーだけでさくしとさっきょくをはじめる。	NO_LABEL
作曲知識が無い状態でキャッチーで記憶に残るメロディーを目標方針にオリジナルな作品を制作しはじめる。	さっきょくちしきがないじょーたいできゃっちーできおくにのこるめろでぃーをもくひょーほーしんにおりじなるなさくひんをせいさくしはじめる。	NO_LABEL
2008年	にせんはちねん	NO_LABEL
沢田研二の『人間60年・ジュリー祭り』にコーラス隊でアルト担当する。	NO_PRONOUNCE	NO_LABEL
2009年	にせんきゅうねん	NO_LABEL
GIZA BADオーディションに最終審査まで残っている。	ぎざばっどおーでぃしょんにさいしゅーしんさまでのこっている。	NO_LABEL
この頃から神戸から上京し東京に拠点を置き、Zepp OSAKAでのオーディションやTBSカウントダウンTV赤坂SACASオーディション等、多数のオーディションを受けている。	NO_PRONOUNCE	NO_LABEL
Zepp OSAKAでのオーディションではBEST OF SINGER全国決勝大会まで上がっている。	NO_PRONOUNCE	NO_LABEL
東京での生活では歯科衛生士をしながら音楽活動を行っていた。	とーきょーでのせいかつでわしかえいせいしをしながらおんがくかつどーをおこなっていた。	NO_LABEL
mei tubeという本人の動画をYouTubeにUPしていた。	NO_PRONOUNCE	NO_LABEL
2010年	にせんじゅうねん	NO_LABEL
フジテレビのMusic on Saturday、NHKの番組テレ遊びパフォー!、東京MXTVのmero.jpミュージックChannel、出演。	NO_PRONOUNCE	NO_LABEL
週刊プレイボーイ2010年9月20日号職業選手名鑑第35回歯科衛生士のページに本人が掲載されている。	しゅーかんぷれいぼーいにせんじゅうねんくがつはつかごーしょくぎょーせんしゅめいかんだいさんじゅうごかいしかえいせいしのぺーじにほんにんがけいさいされている。	NO_LABEL
この頃通常ライブの他にストリートライブなども精力的に行う。	このころつーじょーらいぶのほかにすとりーとらいぶなどもせいりょくてきにおこなう。	NO_LABEL
一週間でO脚を直し、日本テレビ魔女たちの22時で『ひどいO脚で24年間悩み続けていたのにたった一週間で美脚を手に入れ足まで長くなってしまった25歳の魔女』として紹介された。	NO_PRONOUNCE	NO_LABEL
2011年	にせんじゅういちねん	NO_LABEL
Tシャツのデザインも始める。	てぃーしゃつのでざいんもはじめる。	NO_LABEL
2012年	にせんじゅうにねん	NO_LABEL
タイ情報誌CHAOでライターデビューをする。	NO_PRONOUNCE	NO_LABEL
AIDS募金Tシャツをデザインし売上金をタイのバーン・ミットラトーンに自ら寄付を行う。	NO_PRONOUNCE	NO_LABEL
2013年	にせんじゅうさんねん	NO_LABEL
1月からオーストラリアでワーキング・ホリデーを行う。	いちがつからおーすとらりあでわーきんぐほりでーをおこなう。	NO_LABEL
オーストラリア生活情報サイト「NICHIGO PRESS」でコラム「4月生まれだけど、meiです！」を連載。	NO_PRONOUNCE	NO_LABEL
2014年	にせんじゅうよねん	NO_LABEL
ワイルドビジョン所属	わいるどびじょんしょぞく	NO_LABEL
歯科衛生士の資格を取得している。	しかえいせいしのしかくをしゅとくしている。	NO_LABEL
またタイでマッサージ留学、英語の語学留学の経験を持つ。	またたいでまっさーじりゅーがく、えいごのごがくりゅーがくのけいけんをもつ。	NO_LABEL
Raztoroblueという自社レーベルを持っている。	NO_PRONOUNCE	NO_LABEL
日本初の国際派ノマドアーティストである。	にっぽんはつのこくさいはのまどあーてぃすとである。	NO_LABEL
シングル	しんぐる	NO_LABEL
アルバム	あるばむ	NO_LABEL
写真集	しゃしんしゅー	NO_LABEL
書籍	しょせき	NO_LABEL
電子書籍	でんししょせき	NO_LABEL
