ウェブ魚拓とは、WWW上のウェブサイトをキャッシュとして保存する無料のサービスである。	うぇぶぎょたくとわ、すりーだぶりゅーじょーのうぇぶさいとをきゃっしゅとしてほぞんするむりょーのさーびすである。	NO_LABEL
日本の株式会社アフィリティーが2006年より運営している。	にっぽんのかぶしきがいしゃあふぃりてぃーがにせんろくねんよりうんえいしている。	NO_LABEL
一種のスナップショットによるウェブアーカイブである。	いっしゅのすなっぷしょっとによるうぇぶあーかいぶである。	NO_LABEL
新聞社などニュースサイトの記事を引用・リンクした場合、時間の経過により、引用・リンク元の記事ページが削除され、デッドリンクとなるために、利用者や閲覧者にとって不便であった。	NO_PRONOUNCE	NO_LABEL
典型的な例として、2005年日本国際博覧会の期間中、主要各紙サイトでは万博特集コーナーが設けられていたが、2007年5月時点ではいずれも削除されている。	てんけいてきなれいとして、にせんごねんにっぽんこくさいはくらんかいのきかんちゅー、しゅよーかくしさいとでわばんぱくとくしゅーこーなーがもーけられていたが、にせんななねんごがつじてんでわいずれもさくじょされている。	NO_LABEL
2007年時点で、例外的に過去の記事が保存されているニュースサイトは、インプレスのPCウォッチなど一部の専門的なものに限られ、非常に少ない。	にせんななねんじてんで、れいがいてきにかこのきじがほぞんされているにゅーすさいとわ、いんぷれすのぴーしーうぉっちなどいちぶのせんもんてきなものにかぎられ、ひじょーにすくない。	NO_LABEL
かつては毎日新聞や産経新聞も、自社ウェブサイトを開設した1996年頃からの掲載記事を保存していたが、廃止。	かつてわまいにちしんぶんやさんけいしんぶんも、じしゃうぇぶさいとをかいせつしたせんきゅうひゃくきゅうじゅうろくねんごろからのけいさいきじをほぞんしていたが、はいし。	NO_LABEL
ネット上にて、リンク切れとなった過去の記事内容を閲覧する方法としては、商用の記事検索サービスもある。	ねっとじょーにて、りんくぎれとなったかこのきじないよーをえつらんするほーほーとしてわ、しょーよーのきじけんさくさーびすもある。	NO_LABEL
このようなときに、ウェブ魚拓のキャッシュ機能を利用して、サイトの内容を保存していれば、引用・リンク元のページが消えたとしても、ウェブ魚拓のキャッシュから当時の記事を見ることができる。	NO_PRONOUNCE	NO_LABEL
アメリカのアーカイブサイトであるインターネットアーカイブと異なり、クローラを使って自律的に自動で片っ端から集めるのではなく、利用者が目的のURLを入力して保存する形式である。	あめりかのあーかいぶさいとであるいんたーねっとあーかいぶとことなり、くろーらをつかってじりつてきにじどーでかたっぱしからあつめるのでわなく、りよーしゃがもくてきのゆーあーるえるをにゅーりょくしてほぞんするけいしきである。	NO_LABEL
また、ウェブ魚拓では画像データやFLASHなどのデータも保存されるので、ほぼ完全にページの内容を再現することができる点が優れている。	また、うぇぶぎょたくでわがぞーでーたやふらっしゅなどのでーたもほぞんされるので、ほぼかんぜんにぺーじのないよーをさいげんすることができるてんがすぐれている。	NO_LABEL
ただし、ウェブ魚拓によるアクセスを遮断しているサイトも増えている。	ただし、うぇぶぎょたくによるあくせすをしゃだんしているさいともふえている。	NO_LABEL
サーバは、2010年まではシリコンバレーに設置の専用サーバを借りていたが、2015年現在は国内のサーバを利用している。	さーばわ、にせんじゅうねんまでわしりこんばれーにせっちのせんよーさーばをかりていたが、にせんじゅうごねんげんざいわこくないのさーばをりよーしている。	NO_LABEL
2010年11月12日、バックアップ処理の誤動作で2007年前半以前の魚拓のファイルが失われたことが明らかにされた。	にせんじゅうねんじゅーいちがつじゅうににち、ばっくあっぷしょりのごどーさでにせんななねんぜんはんいぜんのぎょたくのふぁいるがうしなわれたことがあきらかにされた。	NO_LABEL
また、2017年4月7日には取得禁止タグでnoindexを対象としていたが、noarchiveも追加されたと公表している。	NO_PRONOUNCE	NO_LABEL
