ルビは小惑星帯の小惑星である。	るびわしょーわくせいたいのしょーわくせいである。	NO_LABEL
1979年8月14日、チェコのクレット天文台のズデニカ・ヴァーヴロヴァーが発見した。	NO_PRONOUNCE	NO_LABEL
クレット天文台で飼われていた発見者のペットの犬の名前から命名された。	くれっとてんもんだいでかわれていたはっけんしゃのぺっとのいぬのなまえからめいめいされた。	NO_LABEL
