福山暁の星小学校は、広島県福山市西深津町にある私立のミッション系の小学校。	ふくやまあけのほししょうがっこーわ、ひろしまけんふくやましにしふかつちょーにあるしりつのみっしょんけいのしょーがっこー。	NO_LABEL
カトリックの女子修道会である援助マリア会によって設立された学校法人福山暁の星学院が運営している。	かとりっくのじょししゅーどーかいであるえんじょまりあかいによってせつりつされたがっこーほーじんふくやまあけのほしがくいんがうんえいしている。	NO_LABEL
女子のみ福山暁の星女子中学校・高等学校へ進学する。	じょしのみふくやまあけのほしじょしちゅーがっこーこーとーがっこーえしんがくする。	NO_LABEL
福山暁の星幼稚園からの内部進学もある。	ふくやまあきらのほしよーちえんからのないぶしんがくもある。	NO_LABEL
校章の中の星は、聖母マリアの象徴である明けの明星を表している。	こーしょーのなかのほしわ、せいぼまりあのしょーちょーであるあけのみょうじょーをあらわしている。	NO_LABEL
「聖母マリアの暖かな愛の光に導かれ、私たちの心も希望に満ち、清純に、健やかに育まれるように」との願いを込めたものとされる。	NO_PRONOUNCE	NO_LABEL
麦は、「一粒の麦が地に落ちて死ねば、多くの実を結ぶ」という聖句の心を表していて、「自らの真心の犠牲によって、他人に平和と救いの豊かな実りを捧げるように」との意味を込めたものとされる。	NO_PRONOUNCE	NO_LABEL
Marie Auxiliatriceとは、フランス語で援助マリアという意味。	NO_PRONOUNCE	NO_LABEL
これは暁の星学院の設立母体である援助マリア修道会の名称であると同時に、全ての人の母として力強い助けの手を差し延べる聖母マリアを表す言葉である。	これわあかつきのほしがくいんのせつりつぼたいであるえんじょまりあしゅーどーかいのめいしょーであるとどーじに、すべてのひとのははとしてちからずよいたすけのてをさしのべるせいぼまりあをあらわすことばである。	NO_LABEL
小舟は、「私たちの人生は、大海に浮かぶ小舟のように困難や危険に満ちているが、援助マリアの助けで勇気と希望をもって永遠の幸せの港へと航海して行く」という人生の航路を象徴している。	NO_PRONOUNCE	NO_LABEL
　　ちなみに制服は初代校長メール・マリー・イレーヌによるもの。	NO_PRONOUNCE	NO_LABEL
