OJ 287 は、ほぼ一定の周期で爆発的な増光を見せるとかげ座BL型の活動銀河核である。	NO_PRONOUNCE	NO_LABEL
1891年に写真観測で発見され、オハイオ・スカイサーベイ () によって電波源であることが判明した。	NO_PRONOUNCE	NO_LABEL
中心部にはこれ以前に知られていた最大のものより6倍以上大きい、180億太陽質量という超巨大なブラックホールがある。	NO_PRONOUNCE	NO_LABEL
計算上、OJ 287 のシュヴァルツシルト半径は約530億kmにもなる。	NO_PRONOUNCE	NO_LABEL
これは冥王星の平均公転半径の9倍にも達する。	これわめいおーせいのへいきんこーてんはんけいのきゅうばいにもたっする。	NO_LABEL
OJ 287 の光度曲線は 11 - 12 年の周期で変化し、増光の極大には2つの狭いピークがある。	NO_PRONOUNCE	NO_LABEL
これは、小さなブラックホールが、大きなブラックホールの周囲を 11 - 12 年で公転していることを示す。	NO_PRONOUNCE	NO_LABEL
増光は、この連星系の伴星が近点の前後で主星の降着円盤を突き抜ける時に観測されるのである。	ぞーこーわ、このれんせいけいのともぼしがきんてんのぜんごでおもぼしのこーちゃくえんばんをつきぬけるときにかんそくされるのである。	NO_LABEL
1988年に OJ 287 がブラックホール連星系である可能性が示唆され、その後1994年、1995年、2005年に増光が観測された。	NO_PRONOUNCE	NO_LABEL
2007年9月13日に起きると予測された次の増光を観測するため、フィンランド・トゥオルラ天文台のマウリ・ヴァルトネンを中心に、日本の大阪教育大学も含む世界規模の観測ネットワークが組織され、予測通りの増光を検出することに成功した。	NO_PRONOUNCE	NO_LABEL
この観測結果を元に質量が算出され、アメリカ天文学会第211回総会で発表された。	このかんそくけっかをもとにしつりょーがさんしゅつされ、あめりかてんもんがっかいだいにひゃくじゅういっかいそーかいではっぴょーされた。	NO_LABEL
増光のタイミングから伴星の楕円軌道の歳差がわかり、アインシュタインの一般相対性理論を用いて中央のブラックホールの質量を計算することができる。	ぞーこーのたいみんぐからともぼしのだえんきどーのさいさがわかり、あいんしゅたいんのいっぱんそーたいせいりろんをもちいてちゅーおーのぶらっくほーるのしつりょーをけいさんすることができる。	NO_LABEL
伴星の軌道の歳差がまだ限られた回数しか観測されていないために測定の精度は低いが、更に観測を続けることによって補正できるだろう。	ともぼしのきどーのさいさがまだかぎられたかいすーしかかんそくされていないためにそくていのせいどわひくいが、さらにかんそくをつずけることによってほせいできるだろう。	NO_LABEL
伴星の軌道は重力波を放射しながら縮小しつつあり、およそ1万年後には主星と合体すると予測されている。	ともぼしのきどーわじゅーりょくはをほーしゃしながらしゅくしょーしつつあり、およそいちまんねんごにわしゅほしとがったいするとよそくされている。	NO_LABEL
これらの研究は『アストロフィジカル・ジャーナル』に掲載された。	NO_PRONOUNCE	NO_LABEL
