小池 聰行は、日本の実業家で、オリコンの創業者。	こいけそうこーわ、にっぽんのじつぎょーかで、おりこんのそーぎょーしゃ。	NO_LABEL
北海道三石郡三石町出身。	ほっかいどーみついしぐんみついしまちしゅっしん。	NO_LABEL
同志社大学文学部社会学科新聞学専攻卒業。	どーししゃだいがくぶんがくぶしゃかいがっかしんぶんがくせんこーそつぎょー。	NO_LABEL
雪印乳業宣伝部勤務、会社経営を経て、1967年に株式会社オリジナルコンフィデンスを創業。	ゆきじるしにゅーぎょーせんでんぶきんむ、かいしゃけいえいをへて、せんきゅうひゃくろくじゅうななねにかぶしきがいしゃおりじなるこんふぃでんすをそーぎょー。	NO_LABEL
業界・一般向け音楽エンタテインメント情報提供の草分けとして尽力。	NO_PRONOUNCE	NO_LABEL
レコード売り上げの公査部数を発表する機関として注目を集めた。	れこーどうりあげのこうさぶすーをはっぴょーするきかんとしてちゅーもくをあつめた。	NO_LABEL
ビデオリサーチや日本ABC協会と並ぶ公査機関であるといえる。	びでおりさーちやにほんえーびーしーきょうかいとならぶこうさきかんであるといえる。	NO_LABEL
数々のメディアに自ら出演する機会も多く、業界内外の多方面から慕われる存在であった。	かずかずのめでぃあにみずからしゅつえんするきかいもおーく、ぎょーかいないがいのたほーめんからしたわれるそんざいであった。	NO_LABEL
無類のおもちゃ好きで、オリコン社内に「童心ランド」と称するおもちゃ部屋を作った。	NO_PRONOUNCE	NO_LABEL
1980年代半ば、アイドル歌手などに対し「アーティスト」という呼称を用いた。	NO_PRONOUNCE	NO_LABEL
2001年1月20日に急逝、享年70。	NO_PRONOUNCE	NO_LABEL
法名は、宇童院釋聡無。	ほーみょーわ、そらわらべいんしゃくさとしむ。	NO_LABEL
彼の没後、長男の小池恒が跡を継ぎ、株式会社オリコン代表取締役社長に就任した。	かれのぼつご、ちょーなんのこいけこーがあとをつぎ、かぶしきがいしゃおりこんだいひょーとりしまりやくしゃちょーにしゅーにんした。	NO_LABEL
カラオケの十八番は、矢沢永吉「時間よとまれ」。	NO_PRONOUNCE	NO_LABEL
　	NO_PRONOUNCE	NO_LABEL
