SPACE TRIALはFM-FUJIで月曜〜金曜深夜、INTER FMとKiss FM KOBEが土曜深夜に放送しているアーティスト総合番組である。	NO_PRONOUNCE	NO_LABEL
番組では、いくつかの細かい番組を約15分〜20分間隔で放送していく。	NO_PRONOUNCE	NO_LABEL
提供はa records。	NO_PRONOUNCE	NO_LABEL
毎週土曜 26:30〜27:30に放送。	NO_PRONOUNCE	NO_LABEL
毎週月曜〜金曜 25:00〜25:15に放送中。	NO_PRONOUNCE	NO_LABEL
毎週土曜 25:00〜25:30	NO_PRONOUNCE	NO_LABEL
毎週火曜日23:00〜23:30	NO_PRONOUNCE	NO_LABEL
毎週土曜 26:30〜28:30に放送。	NO_PRONOUNCE	NO_LABEL
2008.1まで。	NO_PRONOUNCE	NO_LABEL
以降は26:30〜27:30で一部番組放送中	NO_PRONOUNCE	NO_LABEL
毎週日曜 19:00〜19:30に放送。	NO_PRONOUNCE	NO_LABEL
2008.1で終了。	NO_PRONOUNCE	NO_LABEL
一部番組は土曜深夜、火曜深夜へ。	いちぶばんぐみわどよーしんや、かよーしんやえ。	NO_LABEL
