世界の放送方式	せかいのほーそーほーしき	NO_LABEL
高精細度テレビジョン放送に対して従来のテレビ放送の画質は標準テレビジョン放送とも言われ、ここでは主に標準テレビに分類される方式について記述している。	こーせいさいどてれびじょんほうそーにたいしてじゅーらいのてれびほうそーのがしつわひょーじゅんてれびじょんほうそーともいわれ、ここでわおもにひょーじゅんてれびにぶんるいされるほーしきについてきじゅつしている。	NO_LABEL
アナログのカラーテレビ放送方式には大別してNTSC、PAL、SECAMの3方式がある。	NO_PRONOUNCE	NO_LABEL
1秒当たりの画面の更新回数である前述のコマ数は、開発した国家の交流の電源周波数が深く関わっている。	いちびょーあたりのがめんのこーしんかいすーであるぜんじゅつのこますーわ、かいはつしたこっかのこーりゅーのでんげんしゅうはすーがふかくかかわっている。	NO_LABEL
