真鍋 譲治は、日本の漫画家。	まなべじょーじわ、にほんのまんがか。	NO_LABEL
香川県高松市出身。	かがわけんたかまつししゅっしん。	NO_LABEL
代表作に『銀河戦国群雄伝ライ』および『アウトランダーズ』がある。	NO_PRONOUNCE	NO_LABEL
アニメーターの真鍋譲治とは同姓同名の別人。	あにめーたーのまなべじょーじとわどーせいどーめいのべつじん。	NO_LABEL
同人サークル「スタジオかつ丼」を主宰し、同人活動では男性向けの二次創作物や雑誌連載時に未完のまま終わってしまった漫画作品の続編を発行している。	NO_PRONOUNCE	NO_LABEL
大阪にあるデザイン専門学校に在学していた頃、白泉社に作品を持ち込んだことがきっかけで漫画雑誌『月刊コミコミ』での連載を始める。	NO_PRONOUNCE	NO_LABEL
1984年、「空白海域V-2」でデビュー。	NO_PRONOUNCE	NO_LABEL
1989年からは同人活動も開始させる。	せんきゅうひゃくはちじゅうきゅうねんからわどーじんかつどーもかいしさせる。	NO_LABEL
初期はSF漫画を描いていたが、成年漫画と同人誌で活動するほか、専門学校で漫画家プロ養成科担当特別講師も務めている。	しょきわえすえふまんがをえがいていたが、せいねんまんがとどーじんしでかつどーするほか、せんもんがっこーでまんがかぷろよーせいかたんとーとくべつこーしもつとめている。	NO_LABEL
爆発を描くことが好きで、アニメを視聴する際も爆発シーンを真っ先にチェックするほど。	ばくはつをえがくことがすきで、あにめをしちょーするさいもばくはつしーんをまっさきにちぇっくするほど。	NO_LABEL
またモデルガン集めなどの趣味もあった。	またもでるがんあつめなどのしゅみもあった。	NO_LABEL
