囲碁とは、2人で行うボードゲームの一種。	いごとわ、ふたりでおこなうぼーどげーむのいっしゅ。	NO_LABEL
交互に盤上に石を置いていき、自分の石で囲んだ領域の広さを争う。	こーごにばんじょーにいしをおいていき、じぶんのいしでかこんだりょーいきのひろさをあらそう。	NO_LABEL
単に碁とも呼ばれる。	たんにごともよばれる。	NO_LABEL
2人のプレイヤーが、碁石と呼ばれる白黒の石を、通常19×19の格子が描かれた碁盤と呼ばれる板へ交互に配置する。	NO_PRONOUNCE	NO_LABEL
一度置かれた石は、相手の石に全周を取り囲まれない限り、取り除いたり移動することはできない。	いちどおかれたいしわ、あいてのいしにぜんしゅーをとりかこまれないかぎり、とりのぞいたりいどーすることわできない。	NO_LABEL
ゲームの目的は、自分の色の石によって盤面のより広い領域を確保することである。	げーむのもくてきわ、じぶんのいろのいしによってばんめんのよりひろいりょーいきをかくほすることである。	NO_LABEL
アブストラクトゲーム、ボードゲームの一種で、ゲーム理論の言葉で言えば二人零和有限確定完全情報ゲームである。	あぶすとらくとげーむ、ぼーどげーむのいっしゅで、げーむりろんのことばでいえばににんぜろわゆうげんかくていかんぜんじょうほうげーむである。	NO_LABEL
勝敗は、より大きな地を確保することで決定される。	しょーはいわ、よりおーきなちをかくほすることでけっていされる。	NO_LABEL
ゲームの終了は、将棋やチェスと同じように、一方が負けを認めることもしくは双方の「もう打つべきところがない」という合意によって行われる。	NO_PRONOUNCE	NO_LABEL
他のボードゲームと比較した場合の特異な特徴は、ルール上の制約が極めて少ないこと、パスが認められていることが挙げられる。	たのぼーどげーむとひかくしたばあいのとくいなとくちょーわ、るーるじょーのせいやくがきわめてすくないこと、ぱすがみとめられていることがあげられる。	NO_LABEL
発祥は中国と考えられ、少なくとも2000年以上前から東アジアを中心に親しまれてきた。	はっしょーわちゅーごくとかんがえられ、すくなくともにせんねんいじょーまえからひがしあじあをちゅーしんにしたしまれてきた。	NO_LABEL
そうした文化・歴史の中で爛柯をはじめとしたさまざまな別称を持つ。	NO_PRONOUNCE	NO_LABEL
日本でも平安時代から広く親しまれ、枕草子や源氏物語といった古典作品にも数多く登場する。	にっぽんでもへいあんじだいからひろくしたしまれ、まくらのそーしやげんじものがたりといったこてんさくひんにもかずおーくとーじょーする。	NO_LABEL
戦国期には武将のたしなみでもあり、庶民にも広く普及した。	せんごくきにわぶしょーのたしなみでもあり、しょみんにもひろくふきゅーした。	NO_LABEL
江戸時代には家元四家を中心としたプロ組織もでき、興隆の時期を迎えた。	えどじだいにわいえもとよんいえをちゅーしんとしたぷろそしきもでき、こーりゅーのじきをむかえた。	NO_LABEL
明治以降も引き続き広く親しまれ、近年ではインターネットを経由して対戦するネット碁も盛んである。	めいじいこーもひきつずきひろくしたしまれ、きんねんでわいんたーねっとをけいゆしてたいせんするねっとごもさかんである。	NO_LABEL
西洋的な価値観からはチェスなどと同様マインドスポーツでもあり、国際囲碁連盟は国際オリンピック委員会が承認する国際スポーツ団体総連合に加盟し、五輪競技としての採用を目指している。	せいよーてきなかちかんからわちぇすなどとどーよーまいんどすぽーつでもあり、こくさいいごれんめいわこくさいおりんぴっくいーんかいがしょーにんするこくさいすぽーつだんたいそーれんごーにかめいし、ごりんきょーぎとしてのさいよーをめざしている。	NO_LABEL
中国・広州で開催される2010年アジア競技大会では競技種目として採用された。	NO_PRONOUNCE	NO_LABEL
日本では古くから親しまれ、駄目、布石、捨て石、定石など、数多くの囲碁用語は、そのまま日本語の慣用句としても定着している。	にっぽんでわふるくからしたしまれ、だめ、ふせき、すていし、じょーせきなど、かずおーくのいごよーごわ、そのままにほんごのかんよーくとしてもていちゃくしている。	NO_LABEL
「碁」という字は本来は「棋・棊」の異体字で、意味も発音も同じだった。	NO_PRONOUNCE	NO_LABEL
現在も中国では「围棋」と書く。	NO_PRONOUNCE	NO_LABEL
日本漢字音での「ゴ」と「キ」の音の違いは呉音と漢音の違いに由来する。	NO_PRONOUNCE	NO_LABEL
囲碁の実際の起源ははっきりとはわかっていない。	いごのじっさいのきげんわはっきりとわわかっていない。	NO_LABEL
少なくとも春秋時代には成立していたようで、『論語』・『孟子』の中には碁の話題が出てくる。	NO_PRONOUNCE	NO_LABEL
中国碁は前漢時代17路盤であったと考えられている。	NO_PRONOUNCE	NO_LABEL
伝統的な中国碁は、盤上に多くの石を載せたほうが勝ちというルールであった。	でんとーてきなちゅーごくごわ、ばんじょーにおーくのいしをのせたほーがかちとゆうるーるであった。	NO_LABEL
初期の碁石は、唐宋期のものが残っている。	しょきのごいしわ、とーそーきのものがのこっている。	NO_LABEL
その後5世紀には朝鮮へ、7世紀頃に日本に伝わったとされる。	そのごごせいきにわちょーせんえ、ななせいきごろににっぽんにつたわったとされる。	NO_LABEL
そのころから日本の貴族を中心に広く遊ばれ、正倉院には碁盤と碁石が収められている。	そのころからにっぽんのきぞくをちゅーしんにひろくあそばれ、しょうそういんにわごばんとごいしがおさめられている。	NO_LABEL
清少納言や紫式部も碁をよく打ったとされ、枕草子や源氏物語中にも囲碁と思われるものが登場する。	せいしょーなごんやむらさきしきぶもごをよくうったとされ、まくらのそーしやげんじものがたりちゅーにもいごとおもわれるものがとーじょーする。	NO_LABEL
室町時代末期からは碁打ちが公家や武将に招かれるなどの専業化も進むとともに、それまでの事前置石制から自由布石への移行も起こった。	むろまちじだいまっきからわごうちがくげやぶしょーにまねかれるなどのせんぎょーかもすすむとともに、それまでのじぜんおきいしせいからじゆーふせきえのいこーもおこった。	NO_LABEL
戦国時代には戦国武将たちに大いに好まれ、織田信長に日海が名人の称号を許されたと言われる。	せんごくじだいにわせんごくぶしょーたちにおーいにこのまれ、おだのぶながににっかいがめいじんのしょーごーをゆるされたといわれる。	NO_LABEL
江戸時代には幕府から家禄を受ける家元制度が成立し、囲碁の技術が飛躍的に向上するとともに、将軍御目見えによる御城碁が行われたり、碁会所が生まれるなど庶民の娯楽としても定着した。	えどじだいにわばくふからかろくをうけるいえもとせいどがせいりつし、いごのぎじゅつがひやくてきにこーじょーするとともに、しょーぐんおめみえによるおしろごがおこなわれたり、ごかいしょがうまれるなどしょみんのごらくとしてもていちゃくした。	NO_LABEL
1999年ごろには漫画『ヒカルの碁』の影響で若年層にも囲碁ブームが生まれた。	NO_PRONOUNCE	NO_LABEL
囲碁は日本のみならず中華人民共和国、中華民国、韓国、北朝鮮などでも盛んに行われ、その他にも北アメリカ・南アメリカ、ヨーロッパなどでも行われている。	NO_PRONOUNCE	NO_LABEL
今日、囲碁は世界80ヶ国以上で打たれており、世界選手権も行われている。	NO_PRONOUNCE	NO_LABEL
レジャー白書によると、日本の囲碁人口は2015年で推計250万人である。	れじゃーはくしょによると、にっぽんのいごじんこーわにせんじゅうごねんですいけいにひゃくごじゅうまんにんである。	NO_LABEL
2013年の年齢別構成は男＋女合計で10歳代11.8%、60歳以上8.1%であった。	にせんじゅうさんねんのねんれいべつこーせいわおとこたすおんなごーけいでじゅっさいだいじゅういちてんはちぱーせんと、ろくじゅっさいいじょーはちてんいちぱーせんとであった。	NO_LABEL
囲碁のルールには、いわゆる日本ルールと中国ルール、中国ルールを元に台湾で考案された計点制ルールなどがある。	いごのるーるにわ、いわゆるにっぽんるーるとちゅーごくるーる、ちゅーごくるーるをもとにたいわんでこーあんされたけいてんせいるーるなどがある。	NO_LABEL
いずれもゲームの進め方や勝敗の判定に大きな違いはないが、細かい違いはある。	いずれもげーむのすすめかたやしょーはいのはんていにおーきなちがいわないが、こまかいちがいわある。	NO_LABEL
以下は日本ルールを元に説明する。	いかわにっぽんるーるをもとにせつめいする。	NO_LABEL
主なルールは5つ。	おもなるーるわいつつ。	NO_LABEL
石を取るルールと自殺手の禁止のルールによって、囲碁では下図のような石の配置には決してなり得ない。	いしをとるるーるとじさつしゅのきんしのるーるによって、いごでわしたずのよーないしのはいちにわけっしてなりえない。	NO_LABEL
しかしその直後、今度は下図のように黒1子がアタリとなっている。	NO_PRONOUNCE	NO_LABEL
白がbに打って黒石を取り返すと、上図の形に戻ってしまう。	NO_PRONOUNCE	NO_LABEL
この形をコウと呼ぶ。	このかたちをこーとよぶ。	NO_LABEL
これを繰り返すと永遠に対局が終わらないため、同一局面の反復は禁止とされている。	これをくりかえすとえいえんにたいきょくがおわらないため、どーいちきょくめんのはんぷくわきんしとされている。	NO_LABEL
つまり上図で黒がaと取った直後に、白がbと取り返すのは反則となる。	NO_PRONOUNCE	NO_LABEL
詳しくはコウの項目を参照。	くわしくわこーのこーもくをさんしょー。	NO_LABEL
囲碁におけるハンディキャップ戦として置碁がある。	いごにおけるはんでぃきゃっぷせんとしておきごがある。	NO_LABEL
これは実力が下位のものが黒を持ち、あらかじめ盤上に黒石を置いた状態でスタートするものである。	これわじつりょくがかいのものがくろをもち、あらかじめばんじょーにくろいしをおいたじょーたいですたーとするものである。	NO_LABEL
あらかじめ置かれた石を「置石」という。	NO_PRONOUNCE	NO_LABEL
実力差によって、置石は普通2子から9子の範囲で調節される。	NO_PRONOUNCE	NO_LABEL
なお、置碁においては白が先に着手するため、1子の置石は置碁ではなく定先にあたる。	NO_PRONOUNCE	NO_LABEL
詳しくは置碁の項目を参照。	くわしくわおきごのこーもくをさんしょー。	NO_LABEL
先に述べた着手禁止点のルールから、二ヶ所の離れた空間を持った石は、決して取り上げることができないことになる。	さきにのべたちゃくしゅきんしてんのるーるから、にかしょのはなれたくーかんをもったいしわ、けっしてとりあげることができないことになる。	NO_LABEL
たとえば下図左上の黒は周辺をびっしりと白に囲まれているが、白からはaにもbにも打てないのでこの黒の一団を取り上げることができない。	NO_PRONOUNCE	NO_LABEL
この場合、「黒は生きている」という言い方をする。	NO_PRONOUNCE	NO_LABEL
すなわち、眼を2つ作ることができればその石は生きになる。	すなわち、めをふたつつくることができればそのいしわいきになる。	NO_LABEL
なお、下図右下の黒は独立した2ヶ所の眼を持っているわけではないため、白からcとdに打って取ることができる。	NO_PRONOUNCE	NO_LABEL
これは二眼ではなく、黒は「死に」ということになる。	NO_PRONOUNCE	NO_LABEL
通常、対局が始まるとしばらくは布石が行われる。	つーじょー、たいきょくがはじまるとしばらくわふせきがおこなわれる。	NO_LABEL
大体の場合は碁盤の四隅に打つことから始まる。	だいたいのばあいわごばんのよすみにうつことからはじまる。	NO_LABEL
なお、初手を四隅に打つ場合は、白番が右手で打ちやすい隅を残すため、慣例的に右上隅に打つ。	なお、しょてをよすみにうつばあいわ、しろばんがみぎてでうちやすいすみをのこすため、かんれいてきにみぎうえすみにうつ。	NO_LABEL
近年では隅の着点は小目と星が全体の8割以上を占め、高目や目外しなどの位の高い着点はやや特殊な打ち方とされる。	きんねんでわすみのちゃくてんわこもくとほしがぜんたいのはちわりいじょーをしめ、たかめやめはずしなどのくらいのこういぎてんわややとくしゅなだちほーとされる。	NO_LABEL
これはその他の隅の占め方が、地に甘いとされているからであり、現代は実利が重視されているということを表しているともいえる。	これわそのたのすみのしめかたが、ちにあまいとされているからであり、げんだいわじつりがじゅーしされているとゆうことをあらわしているともいえる。	NO_LABEL
しかし、実利が重視されているといっても、最も地に辛い三々は目外しよりも打たれる頻度は低い。	NO_PRONOUNCE	NO_LABEL
これは碁が、単に地を奪い合えば良いというだけのゲームではないことの表れであろう。	これわごが、たんにちをうばいあえばよいというだけのげーむでわないことのあらわれであろう。	NO_LABEL
以下は19路の布石の例である。	NO_PRONOUNCE	NO_LABEL
中盤は死活の絡んだ戦いになる。	ちゅーばんわしかつのからんだたたかいになる。	NO_LABEL
互いに死活がはっきりしていない弱い石を意識しながら打ち進める。	たがいにしかつがはっきりしていないよわいいしをいしきしながらうちすすめる。	NO_LABEL
攻め、サバキ、シノギの技量が問われる。	せめ、さばき、しのぎのぎりょーがとわれる。	NO_LABEL
中盤は、もっとも作戦が富んだところである。	ちゅーばんわ、もっともさくせんがとんだところである。	NO_LABEL
基本的な構想をいくつか挙げると、	きほんてきなこーそーをいくつかあげると、	NO_LABEL
などがある。	などがある。	NO_LABEL
高等戦術の例として、自分の模様に隙を残しておいてあえて打ち込ませ、イジメながら各所で得を図ったり、序盤は地で先攻し、相手の模様が完成する直前に打ち込みで荒らす手法などがある。	こーとーせんじゅつのれいとして、じぶんのもよーにひまをのこしておいてあえてうちこませ、いじめながらかくしょでとくをはかったり、じょばんわちでせんこーし、あいてのもよーがかんせいするちょくぜんにうちこみであらすしゅほーなどがある。	NO_LABEL
ヨセは双方共に死活の心配がなくなり、互いの地の境界線を確定させる段階を指す。	よせわそーほーどもにしかつのしんぱいがなくなり、たがいのちのきょーかいせんをかくていさせるだんかいをさす。	NO_LABEL
ただしヨセは必ずしも終盤に起こるものではなく、局面によっては序盤・中盤のように手数が少ない場合でも大ヨセが打たれることがある。	NO_PRONOUNCE	NO_LABEL
互いの地に、およそ20目以下10目以上の差がつくヨセを大ヨセ、およそ10目以下を小ヨセと呼ぶ。	NO_PRONOUNCE	NO_LABEL
序盤・中盤・終盤には明確な区別はなく、ほとんど序盤のないまま戦いに突入したり、ヨセに入ってからの駆け引きで中盤に逆戻りすることもある。	NO_PRONOUNCE	NO_LABEL
大まかに囲っている地域と最終的な地との間には大きな違いがあり、ゲームの進行と共に、景色が大きく入れ替わる。	おーまかにかこっているちいきとさいしゅーてきなちとのまにわおーきなちがいがあり、げーむのしんこーとともに、けしきがおーきくいれかわる。	NO_LABEL
相手が囲おうとしているところに石を突入させて生きてしまえば、そこは自分の地となる。	あいてがかこおうとしているところにいしをとつにゅーさせていきてしまえば、そこわじぶんのちとなる。	NO_LABEL
相手が地だと思って囲っている壁の一部を、国境を侵害するように切り取ってしまえば、地はそれだけ減ってしまう。	あいてがちだとおもってかこっているかべのいちぶを、こっきょーをしんがいするよーにきりとってしまえば、ちわそれだけへってしまう。	NO_LABEL
逆に、相手が生きると思っている石を殺してしまえば、そこは自分の地となる。	ぎゃくに、あいてがいきるとおもっているいしをころしてしまえば、そこわじぶんのちとなる。	NO_LABEL
戦いの中で相手の地や石と自分の地や石を奪い合う、フリカワリという戦略もある。	たたかいのなかであいてのちやいしとじぶんのちやいしをうばいあう、ふりかわりとゆうせんりゃくもある。	NO_LABEL
最終的に相手の石が生きることができず、かつ境界が破られないような領域が地となる。	さいしゅーてきにあいてのいしがいきることができず、かつきょーかいがやぶられないよーなりょーいきがちとなる。	NO_LABEL
つまるところ、囲碁は石の効率を競い合うゲームといえる。	つまるところ、いごわいしのこーりつをきそいあうげーむといえる。	NO_LABEL
一般に、両者が最善を尽くしている状況では、相手の石の生きにくさと模様の広さとの間にはトレードオフの関係がある。	いっぱんに、りょーしゃがさいぜんをつくしているじょーきょーでわ、あいてのいしのいきにくさともよーのひろさとのまにわとれーどおふのかんけいがある。	NO_LABEL
相手の生きがほぼ見込めない領域のことを確定地と呼び、これを優先する考え方を実利重視という。	あいてのいきがほぼみこめないりょーいきのことをかくていちとよび、これをゆーせんするかんがえかたをじつりじゅーしという。	NO_LABEL
これに対して、将来の利得を重視する考え方が、厚みである。	これにたいして、しょーらいのりとくをじゅーしするかんがえかたが、あつみである。	NO_LABEL
経営における短期と長期のバランスに似て、この実利と厚みの絶妙なバランスが囲碁の戦略できわめて困難なポイントである。	けいえいにおけるたんきとちょーきのばらんすににて、このじつりとあつみのぜつみょーなばらんすがいごのせんりゃくできわめてこんなんなぽいんとである。	NO_LABEL
とりわけ、厚みの形式的表現が極めて困難なことが、コンピュータ囲碁ソフトの最大の壁であるとも言われる。	とりわけ、あつみのけいしきてきひょーげんがきわめてこんなんなことが、こんぴゅーたいごそふとのさいだいのかべであるともいわれる。	NO_LABEL
基本的に序盤は隅から打ち進めるのが効率がよいといわれる。	きほんてきにじょばんわすみからうちすすめるのがこーりつがよいといわれる。	NO_LABEL
これはある一定の地を得るために必要な石数が、中央より辺、辺より隅の方が少なくて済むためであり、その分効率がよいとされるためである。	これわあるいっていのちをえるためにひつよーないしすーが、ちゅーおーよりあたり、あたりよりすみのほーがすくなくてすむためであり、そのぶんこーりつがよいとされるためである。	NO_LABEL
近年のプロの対局では、第一手のほぼ全てが隅から始まっている。	きんねんのぷろのたいきょくでわ、だいいってのほぼすべてがすみからはじまっている。	NO_LABEL
第一手を中央に打った対局も存在するが、多くの場合趣向と評される。	だいいってをちゅーおーにうったたいきょくもそんざいするが、おーくのばあいしゅこーとひょーされる。	NO_LABEL
囲碁のルールは非常に単純であるが、そこから派生する効率の良いほぼ必然的な着手の仕方、つまり石の形を理解することである程度の棋力を得ることができる。	いごのるーるわひじょーにたんじゅんであるが、そこからはせいするこーりつのよいほぼひつぜんてきなちゃくしゅのしかた、つまりせきのかたちをりかいすることであるていどのきりょくをえることができる。	NO_LABEL
効率のよい形を「好形」、悪い形を「愚形」「凝り形」などと呼ぶ。	NO_PRONOUNCE	NO_LABEL
「空き三角は愚形」「二目の頭見ずハネよ」など、格言になっている石の形は多く存在する。	NO_PRONOUNCE	NO_LABEL
碁を打つ上で重要な要素として厚みがある。	ごをうつうえでじゅーよーなよーそとしてあつみがある。	NO_LABEL
言い換えれば勢力のようなものである。	いーかえればせいりょくのよーなものである。	NO_LABEL
例として三間ヒラキの真ん中に打ち込もうとする場合、ただの三間ヒラキに打ち込むより、ヒラキを成す一方の石が2石の連続した形である場合のほうが、より打ち込みは無謀と感じるだろう。	NO_PRONOUNCE	NO_LABEL
これは打ち込まれた石を勢力に追い詰めることで、取ることができないにしても相当いじめられることが予想されるからである。	これわうちこまれたいしをせいりょくにおいつめることで、とることができないにしてもそーとーいじめられることがよそーされるからである。	NO_LABEL
これ以外にも有効に石を連続させておくことで大模様を形成できたり、盤上で不意に発生したシチョウに対しシチョウあたりの効果を発揮するなど、あらゆる可能性をもっている。	これいがいにもゆーこーにいしをれんぞくさせておくことでだいもよーをけいせいできたり、ばんじょーでふいにはっせいしたしちょーにたいししちょーあたりのこーかをはっきするなど、あらゆるかのーせいをもっている。	NO_LABEL
囲碁はお互いに着手する回数はほぼ同じなため、その中でいかに効率よく局面を進め、最終的により多くの地を獲得するかが重要になる。	いごわおたがいにちゃくしゅするかいすーわほぼおなじなため、そのなかでいかにこーりつよくきょくめんをすすめ、さいしゅーてきによりおーくのちをかくとくするかがじゅーよーになる。	NO_LABEL
この石の効率のことを「石の働き」とも言い、効率が良い状態を「石の働きが良い」、効率が悪い状態を「石の働きが悪い」と言う。	NO_PRONOUNCE	NO_LABEL
石の効率は石の形とも密接な関係にあり、愚形や凝り形と呼ばれる形は総じて石の働きが悪い形でもある。	いしのこーりつわいしのかたちともみっせつなかんけいにあり、ぐがたやこりがたとよばれるかたちわそーじていしのはたらきがあくいがたでもある。	NO_LABEL
また、石の働きの評価方法に「手割り計算」がある。	NO_PRONOUNCE	NO_LABEL
局所において白黒双方の形が定まった時点で互いの働きのない石を除外していき、どちらの方が除外した数が多いか、または白黒同じ数だけ取り除き、その時に残った石の働きにより形勢を判断する方法である。	きょくしょにおいてしろくろそーほーのかたちがさだまったじてんでたがいのはたらきのないいしをじょがいしていき、どちらのほーがじょがいしたかずがおーいか、またわしろくろおなじかずだけとりのぞき、そのときにのこったいしのはたらきによりけいせいをはんだんするほーほーである。	NO_LABEL
手割り計算の概念を最初に編み出したのは本因坊道策とされており、これによって局所戦に終始する旧来の碁の時代が終わり、石の効率を追求するという近代碁の概念が確立された。	てわりけいさんのがいねんをさいしょにあみだしたのわほんいんぼーどーさくとされており、これによってきょくしょせんにしゅーしするきゅーらいのごのじだいがおわり、いしのこーりつをついきゅーするとゆうきんだいごのがいねんがかくりつされた。	NO_LABEL
囲碁の力量を数値で表すための段級位制度が存在している。	いごのりきりょーをすーちであらわすためのだんきゅーいせいどがそんざいしている。	NO_LABEL
アマチュアとプロで認定の仕組みが異なっており、アマチュアでは日本棋院・関西棋院が認定をしている。	NO_PRONOUNCE	NO_LABEL
アマチュアは、初心者は30～50級から始まり、最高位は八段である.。	NO_PRONOUNCE	NO_LABEL
段級位の認定を受ければ、免状を発行してもらうことができる。	だんきゅーいのにんていをうければ、めんじょーをはっこーしてもらうことができる。	NO_LABEL
プロは初段から始まり、最高位は九段である。	ぷろわしょだんからはじまり、さいこーいわきゅーだんである。	NO_LABEL
プロ棋士同士の対局の成績によって昇段が行われる。	ぷろきしどーしのたいきょくのせいせきによってしょーだんがおこなわれる。	NO_LABEL
日本では室町時代末期から棋士による大会が行われていた。	にっぽんでわむろまちじだいまっきからきしによるたいかいがおこなわれていた。	NO_LABEL
20世紀に入り日本棋院が設立されると、新聞社の協賛により多くの大会が開催されるようになった。	にじっせいきにはいりにほんきいんがせつりつされると、しんぶんしゃのきょーさんによりおーくのたいかいがかいさいされるよーになった。	NO_LABEL
また、戦後からは韓国・中国を中心として世界規模の大会も開催されるようになった。	NO_PRONOUNCE	NO_LABEL
室町時代末期に囲碁を専業とする者が現れたが組織化までは至らなかった。	むろまちじだいまっきにいごをせんぎょーとするものがあらわれたがそしきかまでわいたらなかった。	NO_LABEL
江戸時代に家元が幕府より俸禄を受けるようになり公認の職業として職業棋士が成立し、家元を中心とする組織化が行われた。	えどじだいにいえもとがばくふよりほうろくをうけるよーになりこーにんのしょくぎょーとしてしょくぎょーきしがせいりつし、いえもとをちゅーしんとするそしきかがおこなわれた。	NO_LABEL
明治になると俸禄が停止され家元制度が弱体、愛好者や新聞社と契約を結ぶものも現れ、職業棋士組織も乱立したが、これらが連合し日本棋院が生まれた。	めいじになるとほうろくがていしされいえもとせいどがじゃくたい、あいこーしゃやしんぶんしゃとけいやくをむすぶものもあらわれ、しょくぎょーきしそしきもらんりつしたが、これらがれんごーしにほんきいんがうまれた。	NO_LABEL
人工知能AlphaGoの対局では世界で約6000万人が観戦した。	じんこーちのーあるふぁごのたいきょくでわせかいでやくろくせんまんにんがかんせんした。	NO_LABEL
世界競技人口は約4000万人にのぼる。	せかいきょーぎじんこーわやくよんせんまんにんにのぼる。	NO_LABEL
『レジャー白書』によると、1年に1回以上囲碁の対局をおこなう、いわゆる「囲碁人口」は、1982年の1130万人から、2004年450万人、2006年360万人、2015年250万人と漸減傾向が続いている。	NO_PRONOUNCE	NO_LABEL
囲碁は、そのルールの単純性と複雑なゲーム性から、コンピュータの研究者たちの格好の研究材料となってきた。	いごわ、そのるーるのたんじゅんせいとふくざつなげーむせいから、こんぴゅーたのけんきゅうしゃたちのかっこーのけんきゅーざいりょーとなってきた。	NO_LABEL
他のゲームと比較した囲碁の特徴としては、盤面が広く、また着手可能な手が非常に多いため、盤面状態の種類およびゲーム木がきわめて複雑になることが挙げられる。	たのげーむとひかくしたいごのとくちょーとしてわ、ばんめんがひろく、またちゃくしゅかのーなてがひじょーにおーいため、ばんめんじょーたいのしゅるいおよびげーむきがきわめてふくざつになることがあげられる。	NO_LABEL
盤面状態の種類は、チェスで10、シャンチーで10、将棋で10と見積もられるのに対し、囲碁では10と見積もられる。	NO_PRONOUNCE	NO_LABEL
また、ゲーム木の複雑性は、チェスで10、シャンチーで10、将棋で10と見積もられるのに対し、囲碁では10と見積もられており、チェス、シャンチー、将棋と比較して囲碁の方がゲームとして複雑であるとされてきた。	NO_PRONOUNCE	NO_LABEL
チェスの世界では、1996年のガルリ・カスパロフとの対局で、初めて単一のゲームで世界チャンピオンにコンピュータが勝利した。	ちぇすのせかいでわ、せんきゅうひゃくきゅうじゅうろくねんのがるりかすぱろふとのたいきょくで、はじめてたんいつのげーむでせかいちゃんぴおんにこんぴゅーたがしょーりした。	NO_LABEL
また、1997年にはオセロの世界チャンピオンであった村上健がコンピュータとの6番勝負で6戦全敗し、2006年にはシャンチーのプログラムが大師との対局に勝利、2012年には将棋棋士の米長邦雄がコンピュータに敗れた。	また、せんきゅうひゃくきゅうじゅうななにわおせろのせかいちゃんぴおんであったむらかみけんがこんぴゅーたとのろくばんしょーぶでろくせんぜんぱいし、にせんろくねんにわしゃんちーのぷろぐらむがだいしとのたいきょくにしょーり、にせんじゅうにねんにわしょーぎきしのよねながくにおがこんぴゅーたにやぶれた。	NO_LABEL
その一方でコンピュータ囲碁の棋力は伸び悩み、2000年代初頭においてもアマチュアの有段者に及ばない程度の棋力であったが、2000年代後半に入るとモンテカルロ法を採用したコンピュータの登場により棋力が上昇し、2012年ごろにはアマ六・七段程度の棋力に達した。	NO_PRONOUNCE	NO_LABEL
その後、2016年にディープラーニングの技術を用いたGoogle DeepMind社の開発したAlphaGoが、ヨーロッパのプロ棋士樊麾二段に2015年10月に勝利していたことが公表され、2016年3月に行われた韓国のトップ棋士である李世乭との5番勝負も4勝1敗で制した。	NO_PRONOUNCE	NO_LABEL
Google DeepMind社の発表前は、他のコンピュータプログラムの棋力はまだアマ六・七段程度であり、トップ選手が公の舞台で敗れるかなり前からコンピュータの高い実力が広く知られていた他のゲームとは異なる展開を見せた。	NO_PRONOUNCE	NO_LABEL
囲碁にはさまざまな別称・雅称があるが、それらの中には中国の故事に由来するものも多い。	NO_PRONOUNCE	NO_LABEL
そのような故事由来の異称の代表である爛柯は中国の神話・伝説を記した『述異記』の次のような話に由来する。	NO_PRONOUNCE	NO_LABEL
晋の時代、木こりの王質が信安郡の石室山に入ったところ童子たちが碁を打っているのを見つけた。	すすむのじだい、きこりのおーしつがのぶやすぐんのいしむろさんにはいったところどーじたちがごをうっているのをみつけた。	NO_LABEL
碁を眺めていた王質は童子からナツメをもらい、飢えを感じることはなかった。	ごをながめていたおーしつわどーじからなつめをもらい、うえをかんじることわなかった。	NO_LABEL
しばらくして童子から言われて斧を見ると、その柄が朽ちていることに気付いた。	しばらくしてどーじからいわれておのをみると、そのえがくちていることにきずいた。	NO_LABEL
王質が山を下り村に帰ると知っている人は誰一人いなくなっていた。	おーしつがやまをくだりむらにかえるとしっているひとわだれいちにんいなくなっていた。	NO_LABEL
この爛柯の故事は、囲碁に没入したときの時間感覚の喪失を、斧の柄が腐るという非日常な事象で象徴的に表している。	このらんかのこじわ、いごにぼつにゅーしたときのじかんかんかくのそーしつを、おののえがくさるとゆうひにちじょーなじしょーでしょーちょーてきにあらわしている。	NO_LABEL
また山中の童子などの神仙に通じる存在から、こうした時間を忘れての没入を神秘的なものとしてとらえていることもうかがえる。	またさんちゅーのどーじなどのしんせんにつーじるそんざいから、こーしたじかんをわすれてのぼつにゅーをしんぴてきなものとしてとらえていることもうかがえる。	NO_LABEL
この例と同様に、碁を打つことを神秘的にとらえた異称として坐隠がある。	このれいとどーよーに、ごをうつことをしんぴてきにとらえたいしょーとしてすわこもがある。	NO_LABEL
これは碁にのめりこむさまを座る隠者に通じるとしたもので、手談と同じく『世説新語』の「巧芸」に囲碁の別称として記されている。	NO_PRONOUNCE	NO_LABEL
手談は字の通り、互いに碁を打つことを話をすることと結び付けたものである。	てだんわじのとーり、たがいにごをうつことをはなしをすることとむすびつけたものである。	NO_LABEL
囲碁の用具に着目した異称として烏鷺がある。	いごのよーぐにちゃくもくしたいしょーとしてうろがある。	NO_LABEL
碁石の黒白をカラスとサギにたとえている。	ごいしのくろしろをからすとさぎにたとえている。	NO_LABEL
方円は碁石と碁盤の形からつけられたもので、本来は天円地方で古代中国の世界観を示していた。	ほーえんわごいしとごばんのかたちからつけられたもので、ほんらいわてんえんちほーでこだいちゅーごくのせかいかんをしめしていた。	NO_LABEL
のちに円形の碁石と正方形の碁盤から囲碁の別称となった。	のちにえんけいのごいしとせいほーけいのごばんからいごのべっしょーとなった。	NO_LABEL
「烏鷺の争い」とも言う。	NO_PRONOUNCE	NO_LABEL
『太平広記』巻四十「巴邛人」の話も別称の由来となっている。	NO_PRONOUNCE	NO_LABEL
巴邛に住むある男が橘の庭園を持っていたが、あるとき霜がおりた後で橘の実を収穫した。	NO_PRONOUNCE	NO_LABEL
しかし3、4斗も入りそうな甕のように大きな実が二つ残り、それらを摘んで割ってみると、中には老人が二人ずつ入っていた。	NO_PRONOUNCE	NO_LABEL
この老人たちは橘の実の中で碁を打っていた。	このろーじんたちわたちばなのみのなかでごをうっていた。	NO_LABEL
この話から囲碁は橘中の楽とも呼ばれる。	このはなしからいごわたちばなちゅーのらくともよばれる。	NO_LABEL
ただし、原文では老人が遊んでいたのは碁ではなく「象戯」である。	NO_PRONOUNCE	NO_LABEL
碁盤には、「天元→北極星」、「星→星」、「19路×19路＝361 → 1年365日」、「四隅→春夏秋冬」など、自然界・宇宙を抽象的に意味づけているとの主張もあるが、361日と365日は10年で40日も差があり、こじつけという見方もある。	NO_PRONOUNCE	NO_LABEL
