POV-Rayは、多くのコンピュータプラットフォームで利用できるレイトレーシングソフトウェア。	NO_PRONOUNCE	NO_LABEL
プログラムのソースコードが一般に公開されているオープンソースの3Dレンダリングエンジンの一つで、独自のC言語風の構造化ドキュメントによりデータを入力し、マクロ関数による半自動配置ができるので、シミュレータとしての利用も可能である。	ぷろぐらむのそーすこーどがいっぱんにこーかいされているおーぷんそーすのすりーでぃーれんだりんぐえんじんのひとつで、どくじのしーげんごふーのこーぞーかどきゅめんとによりでーたをにゅーりょくし、まくろかんすーによるはんじどーはいちができるので、しみゅれーたとしてのりよーもかのーである。	NO_LABEL
また、数学的モデリングに強い。	また、すーがくてきもでりんぐにつよい。	NO_LABEL
拡張版を自由に作成、配布できるという性格から、学術的な新技法の試験実装にもよく用いられる。	かくちょーばんをじゆーにさくせい、はいふできるとゆうせいかくから、がくじゅつてきなしんぎほーのしけんじっそーにもよくもちいられる。	NO_LABEL
公式版の他に、v3.5に対応する複数の独自拡張版が公開されている。	NO_PRONOUNCE	NO_LABEL
v3.7からはライセンスがAGPLv3に変更された。	NO_PRONOUNCE	NO_LABEL
1980年代、David Kirk Buckは自身のAmigaにUnixのレイトレーシングソフトのソースコードをダウンロードし、しばらく検証した上で、独自のレイトレーシングソフトを作ることを決意した。	NO_PRONOUNCE	NO_LABEL
名前は彼自身のイニシャルを取ってDKBTraceと名づけ、需要を見込んで掲示板に投稿した。	NO_PRONOUNCE	NO_LABEL
1987年にAaron A. CollinsがDKBTraceをダウンロードし、x86用の開発を開始。	NO_PRONOUNCE	NO_LABEL
David Buck本人と協力して他の機能の追加も行った。	NO_PRONOUNCE	NO_LABEL
ソフトウェアが次第に評価を得て需要と期待が増える中、	そふとうぇあがしだいにひょーかをえてじゅよーときたいがふえるなか、	NO_LABEL
彼らだけでは開発が存続できなくなったため、1991年7月にプログラマを集めてチームが結成された。	かれらだけでわかいはつがそんぞくできなくなったため、せんきゅうひゃくきゅうじゅういちねんしちがつにぷろぐらまをあつめてちーむがけっせいされた。	NO_LABEL
同時にDavidはソフトウェアに自身のイニシャルを含めるのは適切でないと感じ、名前を変更することにした。	どーじにだびでわそふとうぇあにじしんのいにしゃるをふくめるのわてきせつでないとかんじ、なまえをへんこーすることにした。	NO_LABEL
「STAR」という候補もあったが、結局「Persistence of Vision Raytracer」に決定した。	NO_PRONOUNCE	NO_LABEL
POV-Rayの機能は開発当初から充実していたが、近年のバージョンでは以下の機能を搭載している。	NO_PRONOUNCE	NO_LABEL
POV-Rayにはサードパーティによるサポートが多いのが魅力である。	NO_PRONOUNCE	NO_LABEL
多くのツール、テクスチャ、モデル、背景、チュートリアルがWeb上から使用可能である。	おーくのつーる、てくすちゃ、もでる、はいけい、ちゅーとりあるがうぇぶじょーからしよーかのーである。	NO_LABEL
