堀 幸雄は、日本の評論家。	ほりゆきおわ、にっぽんのひょーろんか。	NO_LABEL
東京府生まれ。	とーきょーふうまれ。	NO_LABEL
1953年青山学院大学商学部卒業、毎日新聞社入社。	せんきゅうひゃくごじゅうさんねんあおやまがくいんだいがくしょーがくぶそつぎょー、まいにちしんぶんしゃにゅーしゃ。	NO_LABEL
1986年愛媛大学教授。	せんきゅうひゃくはちじゅうろくねんえひめだいがくきょーじゅ。	NO_LABEL
1989年東北福祉大学教授。	せんきゅうひゃくはちじゅうきゅうねんとーほくふくしだいがくきょーじゅ。	NO_LABEL
1999年東北文化学園大学教授、2003年退職。	せんきゅうひゃくきゅうじゅうきゅうねんとーほくぶんかがくえんだいがくきょーじゅ、にせんさんねんたいしょく。	NO_LABEL
右翼研究もおこなう。	うよくけんきゅーもおこなう。	NO_LABEL
明治大学講師も務めた	めいじだいがくこーしもつとめた	NO_LABEL
