『ポケパーク2 〜Beyond the World〜』は2011年11月12日に株式会社ポケモンから発売されたWii用のゲームソフト。	NO_PRONOUNCE	NO_LABEL
『ポケパークWii 〜ピカチュウの大冒険〜』の続編。	NO_PRONOUNCE	NO_LABEL
スタンスは前作と同じだが、内容は前作のパラレルワールドといえる。	すたんすわぜんさくとおなじだが、ないよーわぜんさくのぱられるわーるどといえる。	NO_LABEL
前作同様にピカチュウをフィールド上で操作できる事に加え、ストーリーを進める事でミジュマル、ツタージャ、ポカブをフィールド上で操作できるようになる。	ぜんさくどーよーにぴかちゅーをふぃーるどじょーでそーさできることにくわえ、すとーりーをすすめることでみじゅまる、つたーじゃ、ぽかぶをふぃーるどじょーでそーさできるよーになる。	NO_LABEL
この4匹のスペックはそれぞれ異なり、状況に合わせて操作キャラを切り替えながら、ストーリーを攻略していく。	NO_PRONOUNCE	NO_LABEL
またアトラクションも一新されており、今作では一度クリアしたアトラクションを最大4人でプレイする事が可能である。	またあとらくしょんもいっしんされており、こんさくでわいちどくりあしたあとらくしょんをさいだいよにんでぷれいすることがかのーである。	NO_LABEL
前作では、友達にしたポケモンはアトラクションに参加できるが、今作では、プレーヤーのバトルを助けてくれたり、ウィッシュパークへの扉の鍵を開けることができる。	ぜんさくでわ、ともだちにしたぽけもんわあとらくしょんにさんかできるが、こんさくでわ、ぷれーやーのばとるをたすけてくれたり、うぃっしゅぱーくえのとびらのかぎをあけることができる。	NO_LABEL
毎週木曜には、TVCMが次々と変更されている。	まいしゅーもくよーにわ、てれびしーえむがつぎつぎとへんこーされている。	NO_LABEL
ホームページでは、金曜になると変更されたCMが追加される。	ほーむぺーじでわ、きんよーになるとへんこーされたこんぴゅーたみゅーじっくまがじんがついかされる。	NO_LABEL
沢山のポケモンが暮らす世界「ポケパーク」。	NO_PRONOUNCE	NO_LABEL
沢山の友達を作るため、ポケパークを訪れたピカチュウとポッチャマはそこで話題になっているという、もう一つの世界「ウィッシュパーク」に行く事になった。	NO_PRONOUNCE	NO_LABEL
扉を通ってウィッシュパークへやって来た2匹。	NO_PRONOUNCE	NO_LABEL
だが、この世界のポケモンたちはデスカーンらの手によってウィッシュパークの虜となってしまっていた。	だが、このせかいのぽけもんたちわですかーんらのてによってうぃっしゅぱーくのとりことなってしまっていた。	NO_LABEL
そこへやって来たミジュマルと共にウィッシュパークを脱出しようとするピカチュウたちだが･･･。	NO_PRONOUNCE	NO_LABEL
ウィッシュパークの虜となったポケモンを救うべく、ピカチュウたちの冒険が始まる―。	NO_PRONOUNCE	NO_LABEL
ピカチュウ達を操作してストーリーを進めていく点は前作と同様。	ぴかちゅーたちをそーさしてすとーりーをすすめていくてんわぜんさくとどーよー。	NO_LABEL
フィールド上には様々なポケモンがおり、『ちからくらべ』で勝ったり、『お願い』を聞いてあげることで友達になることができる。	NO_PRONOUNCE	NO_LABEL
友達になったポケモンは前作と異なり、アトラクションで使用することはできないものの、バトルでピンチになった時に呼び出して攻撃してもらう事ができる。	ともだちになったぽけもんわぜんさくとことなり、あとらくしょんでしよーすることわできないものの、ばとるでぴんちになったときによびだしてこーげきしてもらうことができる。	NO_LABEL
エンディング前は各エリアでウィッシュパークへの扉を開く際、Wiiリモコンを振って『ともだちパワー』を溜めるミニゲームに挑戦する必要があり、そのエリアで作った友達の数が多いほど、パワーが溜まりやすくなる。	NO_PRONOUNCE	NO_LABEL
ストーリーの節目ではアトラクションやバトルに挑戦する場面があり、これをクリアしないとストーリーを進める事ができない。	すとーりーのふしめでわあとらくしょんやばとるにちょーせんするばめんがあり、これをくりあしないとすとーりーをすすめることができない。	NO_LABEL
初回挑戦時には、前作同様目標記録が設定されており、これを超えることでアトラクションクリアとなる。	しょかいちょーせんじにわ、ぜんさくどーよーめひょーきろくがせっていされており、これをこえることであとらくしょんくりあとなる。	NO_LABEL
概要にもある通り、一度クリアしたアトラクションは最大4人でプレイすることが可能。	がいよーにもあるとーり、いちどくりあしたあとらくしょんわさいだいよにんでぷれいすることがかのー。	NO_LABEL
括弧内は演じたポケモンを記載。	かっこないわえんじたぽけもんをきさい。	NO_LABEL
※間違いあり	NO_PRONOUNCE	NO_LABEL
