西 真利奈は、日本のヘアメイクアップアーティスト。	にしまりなわ、にっぽんのへあめいくあっぷあーてぃすと。	NO_LABEL
セントラルジャパン所属。	せんとらるじゃぱんしょぞく。	NO_LABEL
愛知県立豊田西高校卒業、名城大学農学部応用生物科学科卒業、大学に通いながらヘアメイク三輪ひろこに師事を受ける。	あいちけんりつとよだにしこうこーそつぎょー、めいじょーだいがくのーがくぶおーよーせいぶつかがくかそつぎょー、だいがくにかよいながらへあめいくみわひろこにしじをうける。	NO_LABEL
2011 年セントラルジャパン所属。	NO_PRONOUNCE	NO_LABEL
2014 年に自らのヘアメイクサロン Vijolla をオープン。	NO_PRONOUNCE	NO_LABEL
2016 年にはメイク留学のため渡仏。	NO_PRONOUNCE	NO_LABEL
パリの Ecole de Maquillage Fleurimon にて、より大胆に、繊細に、腕に磨きをかけた。	NO_PRONOUNCE	NO_LABEL
帰国後、現在、名古屋を拠点に、その人らしさを大切にし、ヘアメイクをすることでモチベーションを上げてもらうことをモットーとして、撮影・サロンで活躍している。	NO_PRONOUNCE	NO_LABEL
時代の流れに敏感で見極める目を持つため、ファッションと絡めたヘアメイクを得意とする。	じだいのながれにびんかんでみきわめるめをもつため、ふぁっしょんとからめたへあめいくをとくいとする。	NO_LABEL
Instagram でもメイク動画や閲覧者のリクエストに応える画像を配信していてフォロワー約 1 万人を持ちアイコンとなりつつある。	NO_PRONOUNCE	NO_LABEL
