知立市立知立小学校は、愛知県知立市に位置する公立小学校である。	ちりゅーしりつちりゅーしょうがっこーわ、あいちけんちりゅーしにいちするこーりつしょーがっこーである。	NO_LABEL
略称は知小。	りゃくしょーわちしょー。	NO_LABEL
名鉄知立駅から直線距離にして800m程度北東に位置している。	めいてつちりゅーえきからちょくせんきょりにしてはっぴゃくめーとるていどほくとーにいちしている。	NO_LABEL
1873年9月24日、「第二大学区内第七番中学区内第二十三番小学知立学校」として、了運寺庫裡を仮教室として創立された。	NO_PRONOUNCE	NO_LABEL
詳細は不明であり、児童数も極めて少数、特に女子は１～２名であり、男女共学だったという。	NO_PRONOUNCE	NO_LABEL
大正3年に東教室を分離した。	たいしょーさんねんにひがしきょーしつをぶんりした。	NO_LABEL
昭和13年に高等科を分離した。	しょーわじゅうさんねんにこーとーかをぶんりした。	NO_LABEL
昭和13年8月、現在地に移転した。	しょーわじゅうさんねんはちがつ、げんざいちにいてんした。	NO_LABEL
