『武田英子のニュースにタッチ!』は、ラジオ大阪で2013年4月1日から9月27日まで、毎週月 - 金曜日18:00 - 19:00に放送されていたニュース・音楽番組である。	NO_PRONOUNCE	NO_LABEL
放送日のニュース・出来事を伝える一方で、複数の楽曲を放送していた。	NO_PRONOUNCE	NO_LABEL
2013年9月27日の放送で終了。	にせんじゅうさんねんくがつにじゅうしちにちのほーそーでしゅーりょー。	NO_LABEL
なおラジオ大阪では、2013年9月30日から、当番組月 - 木曜日の放送枠を新番組『スパメン!』に統合。	NO_PRONOUNCE	NO_LABEL
武田もアシスタントとして、同番組に引き続き出演する。	たけだもあしすたんととして、どーばんぐみにひきつずきしゅつえんする。	NO_LABEL
