管弦楽のためのラプソディは、外山雄三によって作曲された管弦楽曲である。	かんげんがくのためのらぷそでぃわ、とやまゆうぞーによってさっきょくされたかんげんがくきょくである。	NO_LABEL
外山自身も指揮をしているNHK交響楽団が1960年に行った海外演奏旅行にあたり、作曲された。	とやまじしんもしきをしているえぬえいちけいこーきょーがくだんがせんきゅうひゃくろくじゅうねんにいったかいがいえんそーりょこーにあたり、さっきょくされた。	NO_LABEL
完成は同年7月で、同月に岩城宏之指揮のNHK交響楽団により東京都体育館にて初演された。	かんせいわどーねんしちがつで、どーげつにいわきひろゆきしきのえぬえいちけいこーきょーがくだんによりとーきょーとたいいくかんにてしょえんされた。	NO_LABEL
日本の民謡が素材となっており、和太鼓、チャンチキ、ボンゴといった打楽器も多用されている。	にっぽんのみんよーがそざいとなっており、わだいこ、ちゃんちき、ぼんごといっただがっきもたよーされている。	NO_LABEL
演奏時間は約7分。	えんそーじかんわやくななふん。	NO_LABEL
なお、2001年に改訂されている。	なお、にせんいちねんにかいていされている。	NO_LABEL
完成当初は22分ほどの長さであったが、N響との練習の際に岩城によって大幅にカットされ、現在演奏される形になった。	かんせいとーしょわにじゅうにふんほどのながさであったが、えぬきょーとのれんしゅーのさいにいわきによっておーはばにかっとされ、げんざいえんそーされるかたちになった。	NO_LABEL
作曲者の外山としては不本意なはずであったが、岩城によるとだいぶ後になって外山から「今となってみるとあのカットのおかげで、この曲はある意味では大ヒット作品になった」と言われ、大変恐縮したとのことである。	NO_PRONOUNCE	NO_LABEL
フルート3、オーボエ2、クラリネット2、ファゴット2、ホルン4、トランペット3、トロンボーン3、チューバ、ティンパニ、拍子木、鐘、うちわ太鼓、締太鼓、ウッドブロック、大太鼓、ボンゴ、チャンチキ、鈴、長太鼓、ハープ、弦五部	NO_PRONOUNCE	NO_LABEL
「急-緩-急」の三部形式で、前奏 - A- B- C- コーダの構造を取る。	NO_PRONOUNCE	NO_LABEL
拍子木を主体とする前奏の後、『あんたがたどこさ』をきっかけとして、同曲を主旋律にしながらも対旋律に『ソーラン節』が奏でられる。	NO_PRONOUNCE	NO_LABEL
更に『炭坑節』、『串本節』といった民謡の旋律が次々と現れて盛り上がると一旦静まり、鈴の音に続いてフルートによる『信濃追分』の静かなメロディーが奏でられる。	NO_PRONOUNCE	NO_LABEL
鈴の弱奏の後、静寂を拍子木が打ち破って『八木節』の旋律が導かれ、再び盛り上がりをみせる。	NO_PRONOUNCE	NO_LABEL
ハープのグリッサンドによってクライマックスを迎え、速いリズムによる総奏で終盤を迎えて曲を終える。	はーぷのぐりっさんどによってくらいまっくすをむかえ、はやいりずむによるそーそーでしゅーばんをむかえてきょくをおえる。	NO_LABEL
藤田玄播による吹奏楽編曲版も存在する。	ふじたげんばによるすいそーがくへんきょくばんもそんざいする。	NO_LABEL
