『凛とジェシカのファイト一発』は、つくばテレビが制作しエンタ!371で2013年7月から放送していたバラエティ番組。	NO_PRONOUNCE	NO_LABEL
セクシー女優桜木凛と希崎ジェシカの冠番組。	せくしーじょゆーさくらぎりんときざきじぇしかのかんむりばんぐみ。	NO_LABEL
2017年にリニューアルして、4月に桜木凛の引退に伴い終了した。	にせんじゅうななねんにりにゅーあるして、しがつにさくらぎりんのいんたいにともないしゅーりょーした。	NO_LABEL
桜木凛と希崎ジェシカの二人が対決する番組。	さくらぎりんときざきじぇしかのふたりがたいけつするばんぐみ。	NO_LABEL
勝者にはご褒美、敗者には罰ゲームが用意されている。	しょーしゃにわごほーび、はいしゃにわばつげーむがよーいされている。	NO_LABEL
対決は1回の放送内で数回行われ、その都度勝敗を決めていき、その合計がその回の勝敗を決定する。	たいけつわいっかいのほーそーないですーかいおこなわれ、そのつどしょーはいをきめていき、そのごーけいがそのかいのしょーはいをけっていする。	NO_LABEL
初回にボウリンクに続いて収録した「卓球しりとり」は、希崎が余りにも球技が不得手なために桜木のマネージャーが代打ちを行ったが、しりとりの内容もヒドく、一旦はお蔵入りとなった。	NO_PRONOUNCE	NO_LABEL
『かすみレディオ』#15の「かすみのダメ出し反省会」でダメ出しを食らうシーンで一部がオンエアされ、本作のDVDには収録されたが、レギュラー放送では流れていない。	NO_PRONOUNCE	NO_LABEL
オープニングなど画面に向かって並ぶ場合の位置は、視聴者から見て左が桜木、右が希崎、というのが基本である。	おーぷにんぐなどがめんにむかってならぶばあいのいちわ、しちょーしゃからみてひだりがさくらぎ、みぎがまれさき、とゆうのがきほんである。	NO_LABEL
タイトルコールは、	たいとるこーるわ、	NO_LABEL
とコールするのが通例である。	とこーるするのがつーれいである。	NO_LABEL
カスオと凛太郎が#4に登場するが、それぞれかすみ果穂と桜木凛の男装である。	NO_PRONOUNCE	NO_LABEL
『あいの恋文』、『あいのエチュード』などで希志あいのが行っている男装キャラの派生で、設定上は男装ではなく男である。	NO_PRONOUNCE	NO_LABEL
基本的にゲストはないが、番組開始後、希崎が短期の休業に入ったため、#4~5は代わりにかすみ果穂が参加している。	NO_PRONOUNCE	NO_LABEL
かすみは他に#24、27に参加している。	NO_PRONOUNCE	NO_LABEL
コラボを除いた純然たるゲストは、#23の栗山夢衣のみである。	NO_PRONOUNCE	NO_LABEL
通算成績は桜木21勝、希崎８勝、かすみ果穂３勝、引き分け３。	つーさんせいせきわさくらぎにじゅういちしょー、まれさきはちしょー、かすみかほさんしょー、ひきわけさん。	NO_LABEL
番組合同企画もあり、『かすみレディオ』、『あいのエチュード』等と対決している。	NO_PRONOUNCE	NO_LABEL
『あいのエチュード』の希志あいのは、初音みのりと共に#15で対決。	NO_PRONOUNCE	NO_LABEL
翌年も「希志あいのリベンジ企画」として、#29、30で再戦した。	NO_PRONOUNCE	NO_LABEL
なお、この時の希志のレギュラー番組は『SPICE×BOYS』であり、男装5人組の番組だったが、他のレギュラーではなく初音をパートナーに選んでいる。	NO_PRONOUNCE	NO_LABEL
番組内で何度も行われている『たびとも』は、本来は独立した番組の企画である。	NO_PRONOUNCE	NO_LABEL
2名以上の女優を旅行させ、手持ちカメラで本人たちに撮影させるなど、プライベート感を演出している。	NO_PRONOUNCE	NO_LABEL
「たびともプラン」と呼ばれる指示書に従い行動する。	NO_PRONOUNCE	NO_LABEL
番組の最後には、互いへの手紙を朗読するのが恒例になっている。	ばんぐみのさいごにわ、たがいえのてがみをろーどくするのがこーれいになっている。	NO_LABEL
『凛とジェシカのファイト一発』番組外でのコラボ。	NO_PRONOUNCE	NO_LABEL
日付は初回放送日。	ひずけわしょかいほうそーび。	NO_LABEL
