消費革命とは消費者の生活様式が急激に変化するということ。	しょーひかくめいとわしょーひしゃのせいかつよーしきがきゅーげきにへんかするとゆうこと。	NO_LABEL
日本では1950年代後半からの所得水準の向上により、高額な商品が消費されるようになった時期が消費革命とされる。	にっぽんでわせんきゅうひゃくごじゅうねんだいこーはんからのしょとくすいじゅんのこーじょーにより、こーがくなしょーひんがしょーひされるよーになったじきがしょーひかくめいとされる。	NO_LABEL
当時の経済白書でも所得革命という言葉が用いられている。	とーじのけいざいはくしょでもしょとくかくめいとゆうことばがもちいられている。	NO_LABEL
この頃から家庭での支出の割合では、家電や自転車、オートバイ、一部には自動車などの耐久消費財の比重が高まり、また合成繊維やプラスチックのような製品も普及して、重化学工業製品が生活に浸透している。	このころからかていでのししゅつのわりあいでわ、かでんやじてんしゃ、おーとばい、いちぶにわじどーしゃなどのたいきゅーしょーひざいのひじゅーがたかまり、またごーせいせんいやぷらすちっくのよーなせいひんもふきゅーして、じゅーかがくこうぎょーせいひんがせいかつにしんとーしている。	NO_LABEL
食生活でも洋食の割合が増加しており、他には娯楽や旅行などの支出も多くなっている。	しょくせいかつでもよーしょくのわりあいがぞーかしており、たにわごらくやりょこーなどのししゅつもおーくなっている。	NO_LABEL
