チャールズ・コーニックはドイツ出身でイギリスで活動した博物学者である、	ちゃーるずこーにっくわどいつしゅっしんでいぎりすでかつどーしたはくぶつがくしゃである、	NO_LABEL
カール・ケーニヒとしてブラウンシュヴァイクで生まれ、ゲッティンゲン大学で学んだ。	NO_PRONOUNCE	NO_LABEL
1800年の終わりにイギリスに渡り、イギリス王妃シャーロット・オブ・メクレンバーグ＝ストレリッツの博物学コレクションの管理のために働いた。	せんはっぴゃくねんのおわりにいぎりすにわたり、いぎりすおーひしゃーろっとおぶめくれんばーぐすとれりっつのはくぶつがくこれくしょんのかんりのためにはたらいた。	NO_LABEL
その後、博物学者ジョゼフ・バンクスの司書だったヨナス・ドリュアンデルの助手を務め、1807年にジョージ・ショーの後を継いで大英博物館の博物学部門の専門職員助手になり、その後専門職員となった。	そのご、はくぶつがくしゃじょぜふばんくすのししょだったよなすどりゅあんでるのじょしゅをつとめ、せんはっぴゃくななねんにじょーじしょーののちをついでだいえいはくぶつかんのはくぶつがくぶもんのせんもんしょくいんじょしゅになり、そのごせんもんしょくいんとなった。	NO_LABEL
専門職員助手になった1807年に、名前をイギリス風の「チャールズ・コーニック」に改めた。	NO_PRONOUNCE	NO_LABEL
様々な雑誌のために論文を書いた他、1805年から1807年の間、ジョン・シムの『植物学紀要』に執筆した。	NO_PRONOUNCE	NO_LABEL
古代生物への関心が高まった時代の学者で、大英博物館の化石標本を記述した著書 "Icones fossilium sectiles"がある。	NO_PRONOUNCE	NO_LABEL
1810年に王立協会の会員に選ばれた。	せんはっぴゃくじゅうねんにおーりつきょーかいのかいいんにえらばれた。	NO_LABEL
ロンドンにて没した。	ろんどんにてぼっした。	NO_LABEL
