マコーマック 明子は、フリーアナウンサー。	まこーまっくあきこわ、ふりーあなうんさー。	NO_LABEL
かつては旧姓の平野 明子名義で活動をおこなっていた。	かつてわきゅーせいのひらのあきこめいぎでかつどーをおこなっていた。	NO_LABEL
和歌山県紀の川市出身。	わかやまけんきのかわししゅっしん。	NO_LABEL
生田教室修了。	いくたきょーしつしゅーりょー。	NO_LABEL
神戸学院大学卒業後和歌山放送のアナウンサーとなり、その後フリーとなった。	こーべがくいんだいがくそつぎょーごわかやまほーそーのあなうんさーとなり、そのごふりーとなった。	NO_LABEL
関西地区を中心に活動している。	かんさいちくをちゅーしんにかつどーしている。	NO_LABEL
2009年にオーストラリア出身の男性と結婚。	にせんきゅうねんにおーすとらりあしゅっしんのだんせいとけっこん。	NO_LABEL
その後出産のため一時休業していたが、2010年7月より朝日放送アナウンサー・武田和歌子が産休に入ることになったことに伴い、武田が担当している『武田和歌子のぴたっと。	NO_PRONOUNCE	NO_LABEL
』の代理パーソナリティとして復帰した。	NO_PRONOUNCE	NO_LABEL
武田和歌子の復帰に伴い2011年3月に『武田和歌子のぴたっと。	NO_PRONOUNCE	NO_LABEL
』の担当は終了。	NO_PRONOUNCE	NO_LABEL
終了直後の2011年4月より育児トーク番組『マコーマック明子のつれづれなるママに』を担当している。	NO_PRONOUNCE	NO_LABEL
本人は産休からの復帰・『武田和歌子のぴたっと。	NO_PRONOUNCE	NO_LABEL
』出演の際、旧姓の「平野明子」名義での活動を考えていたが、朝日放送の担当者から結婚後の姓の「マコーマック明子」名義での活動を強くすすめられて承諾。	NO_PRONOUNCE	NO_LABEL
「マコーマック明子」名義での活動は『ぴたっと。	NO_PRONOUNCE	NO_LABEL
』出演時限定で考えているとも話したことがあるが、『ぴたっと。	NO_PRONOUNCE	NO_LABEL
』降板後の2011年4月以降も「マコーマック明子」名義で出演している。	NO_PRONOUNCE	NO_LABEL
