いよ西条インターチェンジは、愛媛県西条市飯岡にある松山自動車道のインターチェンジである。	いよさいじょーいんたーちぇんじわ、えひめけんさいじょーしいーおかにあるまつやまじどーしゃどーのいんたーちぇんじである。	NO_LABEL
1991年3月28日に供用が開始された。	せんきゅうひゃくきゅうじゅういちねんさんがつにじゅうはちにちにきょーよーがかいしされた。	NO_LABEL
このインターチェンジは、西条市中心部から離れ利用しづらい位置にあるが、計画段階で隣接する新居浜市の当時の革新市政が市内へのインターチェンジ建設に反対したことで、妥協策で西条市と新居浜市の中間である現在地に1か所のインターチェンジとして落ち着いた経緯がある。	NO_PRONOUNCE	NO_LABEL
その後、新居浜市が保守市政になり建設誘致で市街地に近い新居浜ICが設置されることとなったが、すでに建設段階にあったこのインターチェンジは移動できず、西条市にとっては不便な存在になってしまった。	そのご、にーはましがほしゅしせいになりけんせつゆーちでしがいちにちかいにいはまあいしーがせっちされることとなったが、すでにけんせつだんかいにあったこのいんたーちぇんじわいどーできず、さいじょーしにとってわふべんなそんざいになってしまった。	NO_LABEL
新居浜市西部の住民には下り方面への出入口として便利が良く、「新居浜西インターチェンジ」と揶揄されることもある。	NO_PRONOUNCE	NO_LABEL
山陽自動車道の西条ICと区別するため、伊予国の「いよ」が冠された。	NO_PRONOUNCE	NO_LABEL
