『新・喜びも悲しみも幾歳月』は、1986年6月28日に日本で公開された映画。	NO_PRONOUNCE	NO_LABEL
転勤の多い燈台守一家の生活を13年にわたって描く。	てんきんのおーいとーだいもりいっかのせいかつをじゅうさんねんにわたってえがく。	NO_LABEL
原作・脚本・監督は『この子を残して』の木下恵介、撮影は『泰造』の岡崎宏三がそれぞれ担当。	NO_PRONOUNCE	NO_LABEL
主題歌は、加藤登紀子。	しゅだいかわ、かとーときこ。	NO_LABEL
