ピノは、1986年に発表されたナムコのアクションゲーム『トイポップ』の主人公及び、BNEIの野球ゲーム『ファミスタシリーズ』などに登場する架空のプロ野球チーム「ナムコスターズ」に登録された架空のプロ野球選手である。	NO_PRONOUNCE	NO_LABEL
『プロ野球 ファミスタ リターンズ』での担当声優は落合福嗣。	NO_PRONOUNCE	NO_LABEL
『トイポップ』は画面固定のアクションゲームで、悪い魔女に捕らわれた仲間を救いにピノとパートナーのアチャが行くというストーリーである。	NO_PRONOUNCE	NO_LABEL
メルヘンタッチで可愛らしいグラフィックとは裏腹に、難易度は異常に高かった。	めるへんたっちでかわいらしいぐらふぃっくとわうらはらに、なんいどわいじょーにたかかった。	NO_LABEL
アーケードゲームとして登場した後、家庭用ゲーム機への移植は、登場から9年たった1995年にプレイステーション用ソフトとして発売された『ナムコミュージアム』が初めてかつ唯一である。	NO_PRONOUNCE	NO_LABEL
そのためもあり、同時期のナムコのゲームの中では知名度がいささか低い。	そのためもあり、どーじきのなむこのげーむのなかでわちめいどがいささかひくい。	NO_LABEL
なお、パソコンではX1やWindowsに移植されており、2007年には携帯電話アプリ版が登場している。	なお、ぱそこんでわえっくすわんやうぃんどうずにいしょくされており、にせんななねんにわけいたいでんわあぷりばんがとーじょーしている。	NO_LABEL
ピノは1プレイヤー側の主人公である。	NO_PRONOUNCE	NO_LABEL
名前の由来はピノキオから。	なまえのゆらいわぴのきおから。	NO_LABEL
2プレイヤー側のアチャより若干足が速い。	NO_PRONOUNCE	NO_LABEL
プレイ中に箱の中から出現するアイテムの一つである「ブーツ」を取ると、一定時間であるがプレイヤーが制御不能に陥るほどの俊足となる。	NO_PRONOUNCE	NO_LABEL
後述する「ピノ＝俊足」の定義は、この現象によるものと推察できる。	NO_PRONOUNCE	NO_LABEL
ファミスタシリーズにおける「ピノ」は、打ってから1塁到達までわずか2.5秒と実際のプロ野球選手よりも速い走力を持つ超俊足のバッターとして知られる。	NO_PRONOUNCE	NO_LABEL
『プロ野球ファミリースタジアム』では代打として登録されており。	NO_PRONOUNCE	NO_LABEL
翌年の『ファミスタ'87』より一番打者として固定され、家庭用ゲーム機版を中心にナムコスターズの登場する作品で概ね登録されている。	NO_PRONOUNCE	NO_LABEL
このうち、MSX2版『プロ野球ファミリースタジアム』では未登録となっている。	NO_PRONOUNCE	NO_LABEL
このことについて、当時のゲーム雑誌『MSXマガジン』では「寄る年波には勝てない」と理由づけされている。	NO_PRONOUNCE	NO_LABEL
主に初期の作品では、選手名表記は平仮名が基本だったため「ぴの」であったが、『スーパーファミスタ2』以降は基本的に「ピノ」で定着している。	NO_PRONOUNCE	NO_LABEL
投打は、基本的に左投げ左打ちとなっているが、『SUPERワールドスタジアムシリーズ』では、右投げ右打ちとなっている。	NO_PRONOUNCE	NO_LABEL
背番号は、元々8に設定されていたが、『SUPERワールドスタジアムシリーズ』、『プロ野球 ファミスタオンライン』以降の作品では2に設定されている。	NO_PRONOUNCE	NO_LABEL
『ファミスタ64』で設定されている誕生日は6月12日。	NO_PRONOUNCE	NO_LABEL
同作のガイドブックでは、誕生日の欄に生年も含まれており、1974年6月12日と記載。	どーさくのがいどぶっくでわ、たんじょーびのらんにせいねんもふくまれており、せんきゅうひゃくななじゅうよねんろくがつじゅうににちときさい。	NO_LABEL
これは、松井秀喜と同じ生年月日である。	これわ、まついひできとおなじせいねんがっぴである。	NO_LABEL
また、同作は出身地が沖縄県に設定されている。	また、どーさくわしゅっしんちがおきなわけんにせっていされている。	NO_LABEL
2011年発売の『プロ野球 ファミスタ2011』では、ナムコスターズが1990年代以降のキャラクター中心になった事に伴い、主砲のパックらと共に、1980年代までのキャラクターで構成される新チームナムコレジェンズの所属となっている。	NO_PRONOUNCE	NO_LABEL
一方で、『プロ野球 ファミスタオンラインシリーズ』では引き続きナムコスターズの選手として登録されている。	NO_PRONOUNCE	NO_LABEL
既婚者であり、「ピノジュニア」という俊足の息子がいる。	NO_PRONOUNCE	NO_LABEL
作品によってはフライを打ち上げない限りゴロさえ転がせば、かなりの確率で出塁でき、三塁までの盗塁成功率も高く、そこからスクイズすれば1点が取れる場合がある。	さくひんによってわふらいをうちあげないかぎりごろさえころがせば、かなりのかくりつでしゅつるいでき、さんるいまでのとーるいせいこーりつもたかく、そこからすくいずすればいってんがとれるばあいがある。	NO_LABEL
登場している作品の多くは、ゲーム中に表示される成績は打率2割5分前後、本塁打5本以下であるが、一部作品では2割7分以上の打率が表示されていることもある。	とーじょーしているさくひんのおーくわ、げーむちゅーにひょーじされるせいせきわだりつにわりごふんぜんご、ほんるいだごほんいかであるが、いちぶさくひんでわにわりななふんいじょーのだりつがひょーじされていることもある。	NO_LABEL
守備力は、作品によって変動が激しい時期もあったが、概ね平均ないしはそれより上のレベルをキープしている。	しゅびりょくわ、さくひんによってへんどーがはげしいじきもあったが、おーむねへいきんないしわそれよりうえのれべるをきーぷしている。	NO_LABEL
シリーズを通して作中最速というわけではなく、漫画『巨人の星』に登場する俊足選手・速水譲次がモデルとされるアニメスターズの「はやみ」などに作中最速の地位を取られていたこともある。	NO_PRONOUNCE	NO_LABEL
また初期やPS版以降の作品では、ゴロさえ転がせば確実に出塁出来る、というほどの走力は設定されていない。	またしょきやぱられるかいてんばんいこーのさくひんでわ、ごろさえころがせばかくじつにしゅつるいできる、というほどのはしちからわせっていされていない。	NO_LABEL
人並み外れた足の速さをもつことについて、トイポップ・初代ファミスタ双方の開発を担当した岸本好弘が『スーパーファミスタ2百科』でのインタビューにおいて、「目立たせようと思った」という旨の発言している。	NO_PRONOUNCE	NO_LABEL
走力の参考の目安として、発売日の直近のシーズンのリーグ盗塁王の作中での走力も記す。	はしちからのさんこーのめやすとして、はつばいびのちょっきんのしーずんのりーぐとーるいおーのさくちゅーでのはしちからもしるす。	NO_LABEL
『ファミスタ'89』以外はすべてシーズン終了後に当たる12月発売。	NO_PRONOUNCE	NO_LABEL
'90以降は、発売翌年の年度をタイトルに入れている。	NO_PRONOUNCE	NO_LABEL
また、『ファミスタ'88』から'92までの実在選手は変名を用いている）。	NO_PRONOUNCE	NO_LABEL
発売はいずれも2月下旬 - 3月であるため、リーグ盗塁王は発売前年の盗塁王を記す。	NO_PRONOUNCE	NO_LABEL
1作目『スーパーファミスタ』は便宜上1と記す。	NO_PRONOUNCE	NO_LABEL
なお、1は打点の項目が無い。	NO_PRONOUNCE	NO_LABEL
打撃成績などは表示されないため、走力のみ記す。	だげきせいせきなどわひょーじされないため、はしちからのみしるす。	NO_LABEL
また、複数のレアリティが存在するため、ピノは最高レアリティカード、盗塁王選手は最多盗塁カードの数値を示す。	また、ふくすーのれありてぃがそんざいするため、ぴのわさいこーれありてぃかーど、とーるいおーせんしゅわさいたとーるいかーどのすーちをしめす。	NO_LABEL
テレビ番組『プロ野球ニュース』の「プロ野球選手が選ぶ20世紀ベストナイン」という企画で、当時オリックス・ブルーウェーブの谷佳知は外野手部門で、イチローを外してピノを選んでいる。	NO_PRONOUNCE	NO_LABEL
2007年、千葉ロッテマリーンズの早川大輔は、幼いころからの理想の野球選手としてぴのを挙げており、将来的には登録名を「ぴの早川」にしたいと『東京スポーツ』紙上で語っていた。	NO_PRONOUNCE	NO_LABEL
現実に、足の速い野球選手を指して「ピノみたいだ」と形容されることがある。	NO_PRONOUNCE	NO_LABEL
以下、その事例である。	いか、そのじれいである。	NO_LABEL
