イソチアゾリノンは複素環式化合物の一種で、イソチアゾリン-3-オン、イソチアゾロンともいう。	NO_PRONOUNCE	NO_LABEL
IUPAC名は1,2-チアゾール-3-オン。	NO_PRONOUNCE	NO_LABEL
イソチアゾールまたは4-イソチアゾリンの3位がカルボニルになった形に当たる。	NO_PRONOUNCE	NO_LABEL
イソチアゾリノンの誘導体には、イソチアゾリン系と総称される殺菌・防かび・防藻・防腐剤が数種類あり、食品・医療用を除く、シャンプー・化粧品・糊その他工業製品用の防腐剤、冷却水用殺菌剤等として広く用いられる。	NO_PRONOUNCE	NO_LABEL
次のような種類がある。	つぎのよーなしゅるいがある。	NO_LABEL
