中文洞は、西帰浦市の行政洞。	ちゅんむんどんわ、そぎぽしのぎょーせいほら。	NO_LABEL
 の大浦洞、中文洞、河源洞、廻水洞の範囲を管轄する。	のたいほどー、ちゅんむんどん、かわげんほら、まわりすいどーのはんいをかんかつする。	NO_LABEL
 面積は56.44平方kmであり、人口は2011年3月31日現在、3,453世帯、8,913人である。	NO_PRONOUNCE	NO_LABEL
中文洞は、法律第3425号により西帰邑一円と中文面を合併して西帰浦市を設置した1981年7月1日に成立した12の行政洞のひとつで、中文洞）と、大浦洞）と、河源洞）、廻水洞）を統合して作った行政単位である	NO_PRONOUNCE	NO_LABEL
中文洞の一角は、1980年代から韓国観光公社によって中文観光団地として開発が進められ、リゾートホテルや博物館、遊園地、植物園等の観光施設が集中的に立地しており、カジノを備えたホテルやゴルフ場、海水浴場もある。	ちゅんむんどんのいっかくわ、せんきゅうひゃくはちじゅうねんだいからかんこくかんこーこーしゃによってちゅーぶんかんこーだんちとしてかいはつがすすめられ、りぞーとほてるやはくぶつかん、ゆーえんち、しょくぶつえんとーのかんこーしせつがしゅーちゅーてきにりっちしており、かじのをそなえたほてるやごるふじょー、かいすいよくじょーもある。	NO_LABEL
済州島で最初に下水処理施設が整備されたのも、この地区であった。	さいしゅーとーでさいしょにげすいしょりしせつがせいびされたのも、このちくであった。	NO_LABEL
中文は、テレビドラマ『オールイン 運命の愛』や映画『シュリ』のロケ地にも使われた。	NO_PRONOUNCE	NO_LABEL
