「ドジ田ドジ郎の幸運」は、藤子・F・不二雄の読み切り漫画作品。	NO_PRONOUNCE	NO_LABEL
1970年『S-Fマガジン』11月臨時増刊号にて掲載。	NO_PRONOUNCE	NO_LABEL
単行本収録時にはいくつか変更された点がある。	たんこーほんしゅーろくじにわいくつかへんこーされたてんがある。	NO_LABEL
『藤子・F・不二雄 SF短編PERFECT版』第1集に収録。	NO_PRONOUNCE	NO_LABEL
主人公「ドジ田ドジ郎」は、麻雀をやれば放銃し、交差点にさしかかれば信号が赤になり、タクシーを拾おうと思えば撥ねられるなど、何をやっても凄まじいまでについてない男だった。	NO_PRONOUNCE	NO_LABEL
そんなある日のこと、彼の前に偶然を操作する「偶然係長のゴンスケサン」と名乗るロボットが現れた。	NO_PRONOUNCE	NO_LABEL
彼は主人公がそれまでついてなかった分、バカづきにつかせてやるというが…。	NO_PRONOUNCE	NO_LABEL
