マルマン株式会社（）は、ゴルフ用品の製造販売のほかトーナメント戦などゴルフ関連事業、及び禁煙パイポほか健康食品の製造販売を行う企業。	まるまんかぶしきがいしゃかっこわ、ごるふよーひんのせいぞーはんばいのほかとーなめんとせんなどごるふかんれんじぎょー、およびきんえんぱいぽほかけんこーしょくひんのせいぞーはんばいをおこなうきぎょー。	NO_LABEL
本社は東京都千代田区。	ほんしゃわとーきょーとちよだく。	NO_LABEL
2011年から2017年までは韓国コスモグループ傘下。	にせんじゅういちねんからにせんじゅうななねんまでわかんこくこすもぐるーぷさんか。	NO_LABEL
かつては、時計や携帯ライター等もグループで手がけていたが、関係事業は2003年に株式会社マルマンプロダクツへ営業譲渡し、株式を売却した。	かつてわ、とけいやけいたいらいたーとーもぐるーぷでてがけていたが、かんけいじぎょーわにせんさんねんにかぶしきがいしゃまるまんぷろだくつええいぎょーじょーとし、かぶしきをばいきゃくした。	NO_LABEL
1950年2月に、創業者の片山豊が日本ゴールドメタル工業株式会社を設立。	せんきゅうひゃくごじゅうねんにがつに、そーぎょーしゃのかたやまゆたかがにっぽんごーるどめたるこーぎょーかぶしきがいしゃをせつりつ。	NO_LABEL
その後、1952年に株式会社丸萬に、そして1962年にはマルマン株式会社に商号変更している。	そのご、せんきゅうひゃくごじゅうにねんにかぶしきがいしゃまるよろずに、そしてせんきゅうひゃくろくじゅうにねんにわまるまんかぶしきがいしゃにしょーごーへんこーしている。	NO_LABEL
1955年から時計バンドの製造販売を始め、1959年からはガスライターの販売を始める。	せんきゅうひゃくごじゅうごねんからとけいばんどのせいぞーはんばいをはじめ、せんきゅうひゃくごじゅうきゅうねんからわがすらいたーのはんばいをはじめる。	NO_LABEL
その後、ゴルフ用品の製造販売を始め、1971年にはゴルフ用品部門を独立させてマルマンゴルフ株式会社を設立し、カーボンシャフト、メタルウッド、高反発ドライバーなどを開発している。	そのご、ごるふよーひんのせいぞーはんばいをはじめ、せんきゅうひゃくななじゅういちねんにわごるふよーひんぶもんをどくりつさせてまるまんごるふかぶしきがいしゃをせつりつし、かーぼんしゃふと、めたるうっど、こーはんぱつどらいばーなどをかいはつしている。	NO_LABEL
このほか、1977年からはゴルフトーナメントの開催を始めるなど、ゴルフ業界では有名な企業となった。	このほか、せんきゅうひゃくななじゅうななねんからわごるふとーなめんとのかいさいをはじめるなど、ごるふぎょーかいでわゆーめいなきぎょーとなった。	NO_LABEL
1984年に禁煙グッズの「禁煙パイポ」を開発し、「私はこれでタバコを止めました。	NO_PRONOUNCE	NO_LABEL
私はこれで会社を辞めました」というCMが有名になる。	NO_PRONOUNCE	NO_LABEL
1986年には健康食品の販売を始めている。	せんきゅうひゃくはちじゅうろくねんにわけんこーしょくひんのはんばいをはじめている。	NO_LABEL
また、1990年代にはホームセンターを中心に大宇電子のOEM製品を「MARUMAN」ブランドでテレビや家電製品を販売していた。	NO_PRONOUNCE	NO_LABEL
バブル崩壊後、ゴルフブームの低迷や消費の冷え込みもあり、過剰在庫を抱えて販売不振となったが、大規模なリストラを断行し再建、ヴィーナスファンド投資事業組合が出資することになる。	NO_PRONOUNCE	NO_LABEL
多角化していた事業をゴルフ事業と健康食品事業に絞り、2001年5月にSFCGの大島健伸代表のプライベートファンド傘下の休眠会社2社を受け皿会社として営業譲渡し、株式会社マルマンコーポレーションとマルマンゴルフ株式会社として再出発した。	NO_PRONOUNCE	NO_LABEL
2003年には、株式会社マルマンコーポレーションがマルマンゴルフ株式会社を吸収合併し、事業を1社に集約し、マルマン株式会社と商号を変更している。	NO_PRONOUNCE	NO_LABEL
事業の再生が完了、2005年7月に大阪証券取引所ヘラクレス市場に株式を上場。	じぎょーのさいせいがかんりょー、にせんごねんしちがつにおーさかしょーけんとりひきじょへらくれすしじょーにかぶしきをじょーじょー。	NO_LABEL
2006年以降、会社分割により子会社を設立し、ゴルフ用品販売事業をマルマンゴルフ株式会社、健康食品事業をマルマンバイオ株式会社、海外への販売事業をエムアイトレーディング株式会社としたが、2009年には再び本体が吸収合併した。	にせんろくねんいこー、かいしゃぶんかつによりこがいしゃをせつりつし、ごるふよーひんはんばいじぎょーをまるまんごるふかぶしきがいしゃ、けんこーしょくひんじぎょーをまるまんばいおかぶしきがいしゃ、かいがいえのはんばいじぎょーをえむあいとれーでぃんぐかぶしきがいしゃとしたが、にせんきゅうねんにわふたたびほんたいがきゅーしゅーがっぺいした。	NO_LABEL
同年に筆頭株主SFCGが民事再生申立を行なったため、中国系のリーディング証券の取りまとめにより2011年に韓国LG電子の創業一族である許京秀が経営する韓国コスモグループの投資会社コスモ&カンパニーが筆頭株主となる。	NO_PRONOUNCE	NO_LABEL
同年、香港と上海に、2013年には北京に現地法人を設立し中国市場開拓にシフトした。	どーねん、ほんこんとしゃんはいに、にせんじゅうさんねんにわぺきんにげんちほーじんをせつりつしちゅーごくしじょーかいたくにしふとした。	NO_LABEL
創業者の片山豊（1920-1997)は、岡山県出身。	NO_PRONOUNCE	NO_LABEL
明治大学経営学科卒業後、日本水産に入社し、半年後に経営方針を重役に手紙で送りつけるなどのエピソードを持つ。	めいじだいがくけいえいがっかそつぎょーご、にっぽんすいさんににゅーしゃし、はんとしごにけいえいほーしんをじゅーやくにてがみでおくりつけるなどのえぴそーどをもつ。	NO_LABEL
三河島工場長を務めたのち、1948年独立、マルマンの前身・日本特殊金工業を設立。	NO_PRONOUNCE	NO_LABEL
1960年に国産第一号のガスライターの丸萬製品を販売開始し、ライターが150円から300円ほどの時代に3300円のライターを発売し成功するも、消費財の直販事業｢動くデパート｣で失敗。	NO_PRONOUNCE	NO_LABEL
1971年マルマンゴルフ設立、金属加工技術の強みを生かして1981年に業界に先駆けてメタルウッド『ダンガン』を発売し爆発的に売れ、急成長する。	NO_PRONOUNCE	NO_LABEL
日本初の電気金張法の完成、ガスライターの開発、世界初の電子ライターの開発、喫煙関連商品・禁煙具、ゴルフ用品、時計、家電、健康食品、宝飾品などの技術開発と事業拡大により、企業グループを形成した。	NO_PRONOUNCE	NO_LABEL
