アメージング・レース ASIAは、AXNで放送されるアメージング・レースのアジア版。	あめーじんぐれーすえいじあわ、えーえっくすえぬでほーそーされるあめーじんぐれーすのあじあばん。	NO_LABEL
2005年10月、AXNイーストアジアはアメージング・レースのアジア版の制作権をCBSから獲得した。	にせんごねんじゅーがつ、えーえっくすえぬいーすとあじあわあめーじんぐれーすのあじあばんのせいさくけんをしーびーえすからかくとくした。	NO_LABEL
番組はオーストラリアのプロダクションであるアクティブTVと、ブエナ・ビスタ・インターナショナルテレビジョン・アジアパシフィックとの共同制作である。	NO_PRONOUNCE	NO_LABEL
司会はシンガポール出身の中国系アメリカ人俳優であるアラン・ウーが務める。	NO_PRONOUNCE	NO_LABEL
優勝ペアへの賞金は10万ドルであり、アメリカ版アメージング・レースの優勝賞金100万ドルとは大きな開きがある。	ゆーしょーぺあえのしょーきんわじゅうまんどるであり、あめりかばんあめーじんぐれーすのゆーしょーしょーきんひゃくまんどるとわおーきなひらきがある。	NO_LABEL
このことについて、リッキー・オウは「金銭ではなく冒険と機会こそが、この世界最高のリアリティ番組に存在する」と述べた。	NO_PRONOUNCE	NO_LABEL
ルールや参加資格の多くはアメリカ版と共通している。	るーるやさんかしかくのおーくわあめりかばんときょーつーしている。	NO_LABEL
参加者は2人1組10チームで行われ、アジア出身者、およびアジアに長期間暮らしている非アジア人で、以前から何らかの関係を持つ2人組である必要がある。	NO_PRONOUNCE	NO_LABEL
21歳以上、国際免許証とパスポートを持ち、英語を話せることが条件になる。	にじゅういっさいいじょー、こくさいめんきょしょーとぱすぽーとをもち、えいごをはなせることがじょーけんになる。	NO_LABEL
出身は一ヶ国でなくても構わない。	しゅっしんわいちかこくでなくてもかまわない。	NO_LABEL
参加国は中東・オーストラリア・ニュージーランドを除くアジア各国である。	NO_PRONOUNCE	NO_LABEL
なお日本はシーズン1では除外されていたが、日本でも放送開始されたシーズン2からは参加できるようになり、シーズン2では日本チームも参加している。	なおにっぽんわしーずんわんでわじょがいされていたが、にっぽんでもほーそーかいしされたしーずんつーからわさんかできるよーになり、しーずんつーでわにほんちーむもさんかしている。	NO_LABEL
シーズン1は放送に先駆け、2006年7月8日からプロモーションツアーを開始し、11月9日に放送開始。	しーずんわんわほーそーにさきがけ、にせんろくねんしちがつようかからぷろもーしょんつあーをかいしし、じゅーいちがつここのかにほーそーかいし。	NO_LABEL
10チームが参加した。	NO_PRONOUNCE	NO_LABEL
日本ではAXNにて2008年1月より、第2シーズンが放送された。	NO_PRONOUNCE	NO_LABEL
前述のようにルールや用語はアメリカ版と共通している。	ぜんじゅつのよーにるーるやよーごわあめりかばんときょーつーしている。	NO_LABEL
ここでは主にアメリカ版とアジア版の違いについて記述する。	ここでわおもにあめりかばんとあじあばんのちがいについてきじゅつする。	NO_LABEL
基本的なルールはアメージング・レースを参照。	きほんてきなるーるわあめーじんぐれーすをさんしょー。	NO_LABEL
イールドはシーズン1から登場、Uターンはシーズン3から登場。	いーるどわしーずんわんからとーじょー、ゆーたーんわしーずんすりーからとーじょー。	NO_LABEL
アメリカ版ではシーズン12でUターンが導入されてからイールドは登場しなくなったが、アジア版ではUターン登場後もイールドは採用されている。	あめりかばんでわしーずんとぅえんてぃでゆーたーんがどーにゅーされてからいーるどわとーじょーしなくなったが、あじあばんでわゆーたーんとーじょーごもいーるどわさいよーされている。	NO_LABEL
チームはレースを通してイールドとUターンはそれぞれ1回ずつ使用可能。	ちーむわれーすをとーしていーるどとゆーたーんわそれぞれいっかいずつしよーかのー。	NO_LABEL
シーズン1のノンエリミネーションレッグ最下位のペナルティは「所持金の没収と次回のレッグの資金の剥奪」。	NO_PRONOUNCE	NO_LABEL
シーズン2からシーズン3は「所持金の没収と次回のレッグの資金の剥奪」と「次レッグで1位でチェックインできなければピットストップ到着時に30分のペナルティ」を併用。	NO_PRONOUNCE	NO_LABEL
シーズン4からは「次レッグで1位でチェックインできなければピットストップ到着時に30分のペナルティ」のみとなった。	NO_PRONOUNCE	NO_LABEL
アジア版ではシーズン3を除き第1レッグはノンエリミネーションレッグが配置されている。	NO_PRONOUNCE	NO_LABEL
アメリカ版で登場したスピードバンプはシーズン4放送終了現在採用されていない。	あめりかばんでとーじょーしたすぴーどばんぷわしーずんふぉーほーそーしゅーりょーげんざいさいよーされていない。	NO_LABEL
※順はによる。	NO_PRONOUNCE	NO_LABEL
※太字はアメリカバージョンが訪れていない国・地域。	NO_PRONOUNCE	NO_LABEL
また、チェコ共和国はアメリカバージョンよりも先に訪れている。	また、ちぇこきょーわこくわあめりかばーじょんよりもさきにおとずれている。	NO_LABEL
アメリカ版のシーズン16のシンガポールレッグでは、ホストのアラン・ウーがクルーを渡す役としてゲスト出演した。	NO_PRONOUNCE	NO_LABEL
