『撃てない警官』は、安東能明による推理小説。	NO_PRONOUNCE	NO_LABEL
柴崎令司を主人公とした警察小説。	しばざきれいじをしゅじんこーとしたけいさつしょーせつ。	NO_LABEL
一話完結型の連作短編集となっており、『撃てない警官』には7編が収められている。	NO_PRONOUNCE	NO_LABEL
作品はシリーズ化されており、撃てない警官シリーズの第1作目。	NO_PRONOUNCE	NO_LABEL
2010年、この本に収められた「随監」で日本推理作家協会賞を受賞した。	NO_PRONOUNCE	NO_LABEL
WOWOW連続ドラマW『撃てない警官』としてテレビドラマ化され、2016年1月より放映された。	NO_PRONOUNCE	NO_LABEL
柴崎令司は警視庁でエリート街道を進むキャリア組。	しばざきれいじわけいしちょーでえりーとかいどーをすすむきゃりあぐみ。	NO_LABEL
30代という若さで警部。	さんじゅうだいとゆうわかさでけいぶ。	NO_LABEL
警視庁総務部で係長を務めつつ、さらなる出世を虎視眈々と狙っていた。	けいしちょーそーむぶでかかりちょーをつとめつつ、さらなるしゅっせをこしたんたんとねらっていた。	NO_LABEL
ある日、課長の中田から柴崎のもとに、部下の木戸和彦を射撃訓練に参加させる旨の指示が入り、木戸を訓練に向かわせた。	あるひ、かちょーのなかたからしばざきのもとに、ぶかのきどかずひこをしゃげきくんれんにさんかさせるむねのしじがはいり、きどをくんれんにむかわせた。	NO_LABEL
しかし鬱病を患っていた木戸は、射撃訓練の直後にトイレで拳銃自殺してしまった。	しかしうつびょーをわずらっていたきどわ、しゃげきくんれんのちょくごにといれでけんじゅーじさつしてしまった。	NO_LABEL
上司からの指示によって柴崎は許可を出した筈だったが、その証拠は何者かに消し去られていた。	じょーしからのしじによってしばざきわきょかをだしたはずだったが、そのしょーこわなにものかにけしさられていた。	NO_LABEL
柴崎は一人で責任を背負わされ、綾瀬署に左遷されることとなってしまった。	しばざきわひとりでせきにんをせおわされ、あやせしょにさせんされることとなってしまった。	NO_LABEL
柴崎は身の潔白を証明するために独自で調査を進めるが、そこで施設課の石岡と出会う。	しばざきわみのけっぱくをしょーめいするためにどくじでちょーさをすすめるが、そこでしせつかのいしおかとであう。	NO_LABEL
綾瀬署赴任の直前、ついに事件の真実に気付いた柴崎だが、自分にも非が無いわけではないために左遷の決定は覆らないと臍を噛む。	あやせしょふにんのちょくぜん、ついにじけんのしんじつにきずいたしばざきだが、じぶんにもひがないわけでわないためにさせんのけっていわくつがえらないとほぞおかむ。	NO_LABEL
しかし柴崎はいつか本庁に復帰することを心に誓い、石岡にその協力を約束させる。	しかししばざきわいつかほんちょーにふっきすることをこころにちかい、いしおかにそのきょーりょくをやくそくさせる。	NO_LABEL
綾瀬署に赴任すると柴崎は警務課課長代理に任じられた。	あやせしょにふにんするとしばざきわけいむかかちょーだいりににんじられた。	NO_LABEL
本庁復帰のための裏工作に執念を燃やす一方、柴崎は綾瀬署内でさまざまなトラブルに巻き込まれていく。	ほんちょーふっきのためのうらこーさくにしゅーねんをもやすいっぽー、しばざきわあやせしょないでさまざまなとらぶるにまきこまれていく。	NO_LABEL
柴崎は上司である助川副署長と共に、トラブル解決のために奔走しはじめる。	しばざきわじょーしであるすけがわふくしょちょーとともに、とらぶるかいけつのためにほんそーしはじめる。	NO_LABEL
時には事件をもみ消し、時には告発し、時には事を収める。	ときにわじけんをもみけし、ときにわこくはつし、ときにわことをおさめる。	NO_LABEL
警察管理職の悲喜交交のエピソード集。	けいさつかんりしょくのひきこもごものえぴそーどしゅー。	NO_LABEL
『撃てない警官』は、安東能明による同名の推理小説を原作としたテレビドラマ。	NO_PRONOUNCE	NO_LABEL
テレビドラマ化にあたっては一部設定が変更されている。	てれびどらまかにあたってわいちぶせっていがへんこーされている。	NO_LABEL
2016年1月10日から2016年2月7日まで、WOWOW「連続ドラマW」枠で放送された。	NO_PRONOUNCE	NO_LABEL
主演は田辺誠一。	しゅえんわたなべせいーち。	NO_LABEL
共演は石黒賢、中越典子他。	きょーえんわいしぐろけん、なかごしのりこた。	NO_LABEL
監督は映画『西の魔女が死んだ』『8月のクリスマス』などを手掛けた長崎俊一が務め、劇中音楽は『あまちゃん』などを手がけた大友良英が担当する。	NO_PRONOUNCE	NO_LABEL
