佐藤 純通は、日本の法律家。	さとーじゅんどーりわ、にっぽんのほーりつか。	NO_LABEL
司法書士。	しほーしょし。	NO_LABEL
北海道出身。	ほっかいどーしゅっしん。	NO_LABEL
日本司法書士会連合会元会長。	にほんしほーしょしかいれんごーかもとかいちょー。	NO_LABEL
司法書士法人横浜中央法務事務所所長。	しほーしょしほーじんよこはまちゅうおーほーむじむしょしょちょー。	NO_LABEL
1971年中央大学法学部卒業。	せんきゅうひゃくななじゅういちねんちゅーおーだいがくほーがくぶそつぎょー。	NO_LABEL
1981年司法書士登録。	せんきゅうひゃくはちじゅういちねんしほーしょしとーろく。	NO_LABEL
事務所開業後、日本司法学院講師や、1993年桐蔭横浜学園大学法学部非常勤講師等を経て、1997年神奈川県司法書士会会長に就く。	じむしょかいぎょーご、にっぽんしほーがくいんこーしや、せんきゅうひゃくきゅうじゅうさんねんきりかげよこはまがくえんだいがくほーがくぶひじょーきんこーしとーをへて、せんきゅうひゃくきゅうじゅうななかながわけんしほーしょしかいかいちょーにつく。	NO_LABEL
2001年日本司法書士会連合会副会長。	にせんいちねんにほんしほーしょしかいれんごーかふくかいちょー。	NO_LABEL
2004年横浜国立大学法科大学院非常勤講師。	にせんよねんよこはまこくりつだいがくほーかだいがくいんひじょーきんこーし。	NO_LABEL
2005年司法書士総合研究所所長。	にせんごねんしほーしょしそーごーけんきゅーじょしょちょー。	NO_LABEL
2007年日本司法書士会連合会会長。	にせんななねんにほんしほーしょしかいれんごーかかいちょー。	NO_LABEL
2009年日本司法書士会連合会名誉会長。	にせんきゅうねんにほんしほーしょしかいれんごーかめいよかいちょー。	NO_LABEL
2014年黄綬褒章受章。	にせんじゅうよねんおーじゅほうしょーじゅしょー。	NO_LABEL
この他、総務省公的個人認証サービス普及拡大検討委員会委員、日本司法書士会連合会電子認証局局長、法務省登記識別情報制度研究会委員等を歴任。	このほか、そーむしょーこーてきこじんにんしょーさーびすふきゅーかくだいけんとーいーんかいいいん、にほんしほーしょしかいれんごーかでんしにんしょーきょくきょくちょー、ほーむしょーとーきしきべつじょうほーせいどけんきゅーかいいいんとーをれきにん。	NO_LABEL
現在も、一般社団法人日本財産管理協会副理事長や、総務省電子政府推進委員、司法アクセス学会理事、日本比較法研究所嘱託研究員などを兼職。	げんざいも、いっぱんしゃだんほーじんにほんざいさんかんりきょーかいふくせんしゃどうれんめいのりじちょーや、そーむしょーでんしせいふすいしんいいん、しほーあくせすがっかいりじ、にっぽんひかくほーけんきゅーじょしょくたくけんきゅーいんなどをけんしょく。	NO_LABEL
2004年の不動産登記法改正に司法書士の立場から立法段階から関わった。	にせんよねんのふどーさんとーきほーかいせいにしほーしょしのたちばからりっぽーだんかいからかかわった。	NO_LABEL
