清原 道雄は、平安時代初期から前期にかけての貴族。	きよはらみちおわ、へいあんじだいしょきからぜんきにかけてのきぞく。	NO_LABEL
名は通雄とも記される。	なわみちおともしるされる。	NO_LABEL
肥後守・清原有雄の子。	NO_PRONOUNCE	NO_LABEL
子に海雄がいる。	こにうみおがいる。	NO_LABEL
官位は従五位下・駿河守。	NO_PRONOUNCE	NO_LABEL
斉衡4年従五位下・大学頭に叙任される。	NO_PRONOUNCE	NO_LABEL
天安2年11月に清和天皇の即位に伴って宮内少輔に任ぜられるが、翌天安3年正月には早くも上野介として地方官に転じる。	あまやすにねんじゅーいちがつにせいわてんのーのそくいにともなってみやうちしょーほににんぜられるが、よくちょなんさんねんしょーがつにわはやくもうえのかいとしてちほーかんにてんじる。	NO_LABEL
その後、貞観9年駿河守と、引き続き地方官を務めた。	そのご、じょうかんきゅうねんするがまもると、ひきつずきちほーかんをつとめた。	NO_LABEL
『六国史』による。	NO_PRONOUNCE	NO_LABEL
