1965年のサンケイスワローズでは、1965年シーズンの国鉄スワローズ及びサンケイスワローズの動向をまとめる。	せんきゅうひゃくろくじゅうごねんのさんけいすわろーずでわ、せんきゅうひゃくろくじゅうごねんしーずんのこくてつすわろーずおよびさんけいすわろーずのどーこーをまとめる。	NO_LABEL
この年のサンケイスワローズは、林義一監督の2年目のシーズンである。	このとしのさんけいすわろーずわ、はやしぎーちかんとくのにねんめのしーずんである。	NO_LABEL
国鉄スワローズとしてシーズンを開幕したが、4月23日、国鉄が球団の経営権をサンケイ新聞とフジテレビに譲渡することを発表し、5月10日からチーム名をサンケイスワローズに改称した。	こくてつすわろーずとしてしーずんをかいまくしたが、しがつにじゅうさんにち、こくてつがきゅーだんのけいえいけんをさんけいしんぶんとふじてれびにじょーとすることをはっぴょーし、ごがつとおかからちーむめいをさんけいすわろーずにかいしょーした。	NO_LABEL
前年オフにエース・金田正一が、B級10年選手の特権を行使して巨人へ移籍したことで、国鉄スワローズの身売りは時間の問題となったが、譲渡先が判明しないままシーズンを迎えた。	NO_PRONOUNCE	NO_LABEL
この年は緊縮政策により金田は元より、宮本敏雄ら一部の選手を整理したことで戦力は大幅低下、大方の予想は最下位は元より「30勝も危ない」と思われ、スタート当初はどん底状態だった。	NO_PRONOUNCE	NO_LABEL
そんな中4月23日、国鉄が球団の経営権をサンケイ新聞・フジテレビに譲渡することを発表、ここに「国鉄スワローズ」の幕が降ろされることになり、その後4月26日に球団譲渡をきっかけにチーム一新を図ろうと林義一監督が辞任、砂押邦信コーチが3年振りに監督に復帰、そして5月10日からチームは「サンケイスワローズ」に変更された。	NO_PRONOUNCE	NO_LABEL
なお既にサンケイ新聞社は神宮球場移転を前提として、1962年の段階で球団に資本参加している。	なおすでにさんけいしんぶんしゃわじんぐーきゅーじょーいてんをぜんていとして、せんきゅうひゃくろくじゅうにねんのだんかいできゅーだんにしほんさんかしている。	NO_LABEL
金田が抜けたことで懸念された投手陣はなんとか踏ん張ったが、打線があまりにも貧弱となり、結局サンケイ初年は最下位でスタート。	かねだがぬけたことでけねんされたとーしゅじんわなんとかふんばったが、だせんがあまりにもひんじゃくとなり、けっきょくさんけいしょねんわさいかいですたーと。	NO_LABEL
それでも勝利数は44勝と、チームとしては頑張った方であった。	それでもしょーりすーわよんじゅうよんしょーと、ちーむとしてわがんばったほーであった。	NO_LABEL
シーズンオフ、この年南海監督を勇退した鶴岡一人を新監督として、東京と争ったが、後任・蔭山和夫が就任4日で急逝、鶴岡は南海監督に復帰となって破談、結局新監督は飯田徳治ヘッドコーチとなった。	NO_PRONOUNCE	NO_LABEL
河本はドラフト1位拒否の第１号。	かわもとわどらふといちーきょひのだいいちごー。	NO_LABEL
