ホウズキとは、カサゴ目フサカサゴ科ホウズキ属に分類される魚の一種。	ほうずきとわ、かさごめふさかさごかほうずきぞくにぶんるいされるうおのいっしゅ。	NO_LABEL
メバル科に分類されることもある。	めばるかにぶんるいされることもある。	NO_LABEL
体色は全体的に鮮やかな赤色をしており、背鰭に鋭い棘が12本並んでいる。	からだしょくわぜんたいてきにあざやかなあかいろをしており、せびれにするどいとげがじゅうにほんならんでいる。	NO_LABEL
体長は成魚でおよそ45cmほどになる。	たいちょーわせいぎょでおよそよんじゅうごせんちめーとるほどになる。	NO_LABEL
日本の岩手県以南から九州にかけての太平洋側の深海に分布する。	にっぽんのいわてけんいなんからきゅーしゅーにかけてのたいへいよーがわのしんかいにぶんぷする。	NO_LABEL
食用になる。	しょくよーになる。	NO_LABEL
アコウダイにとてもよく似ていることから、しばしばアコウダイと間違えられるが、アコウダイは同じフサカサゴ科ではあるがメバル属であり、ホウズキとはあくまで別種である。	あこーだいにとてもよくにていることから、しばしばあこーだいとまちがえられるが、あこーだいわおなじふさかさごかでわあるがめばるぞくであり、ほうずきとわあくまでべっしゅである。	NO_LABEL
背鰭の棘の数と尾鰭後部の形状などで判別することができる。	せびれのとげのかずとおびれこーぶのけいじょーなどではんべつすることができる。	NO_LABEL
