インドネシア・エアアジアは、インドネシアのジャカルタを本拠地とするインドネシアの格安航空会社である。	いんどねしあえああじあわ、いんどねしあのじゃかるたをほんきょちとするいんどねしあのかくやすこーくーがいしゃである。	NO_LABEL
2004年にエアアジアの子会社となった「AWAIR」が、2005年12月に「インドネシア・エアアジア」に社名変更。	NO_PRONOUNCE	NO_LABEL
インドネシアの国内線を運航している。	いんどねしあのこくないせんをうんこーしている。	NO_LABEL
ジャカルタのスカルノハッタ国際空港を拠点としている。	じゃかるたのすかるのはったこくさいくうこーをきょてんとしている。	NO_LABEL
受託手荷物は有料で15,000ルピアである。	NO_PRONOUNCE	NO_LABEL
座席は革張りだが、汚れても掃除をしやすいためである。	ざせきわかわばりだが、よごれてもそーじをしやすいためである。	NO_LABEL
45,000から75,000ルピアで事前座席指定ができる。	NO_PRONOUNCE	NO_LABEL
機内への飲食物の持ち込みは禁止で、飲料、軽食が機内販売されている。	きないえのいんしょくぶつのもちこみわきんしで、いんりょー、けいしょくがきないはんばいされている。	NO_LABEL
2008年11月10日をもって燃油サーチャージを廃止したが、2011年5月3日以降の国際線予約については徴収を再開した。	にせんはちねんじゅーいちがつとおかをもってねんゆさーちゃーじをはいししたが、にせんじゅういちねんごがつみっかいこーのこくさいせんよやくについてわちょーしゅーをさいかいした。	NO_LABEL
