レイモンド・Z・ガランはアメリカ合衆国のSF作家。	NO_PRONOUNCE	NO_LABEL
原語における姓の発音は"balloon"と同じ韻。	NO_PRONOUNCE	NO_LABEL
日本語表記はガルーンやギャランなども。	にほんごひょーきわがるーんやぎゃらんなども。	NO_LABEL
ウィスコンシン州ビーヴァー・ダムで生まれた。	NO_PRONOUNCE	NO_LABEL
第二次世界大戦に先立つ何年かの間に職を転々とし、世界中を放浪してまわる。	だいにじせかいたいせんにさきだつなんねんかのまにしょくをてんてんとし、せかいじゅーをほーろーしてまわる。	NO_LABEL
1930年代に多くの作品をパルプ・マガジンに売り、初期に活躍したSFパルプ作家のひとりとなる。	せんきゅうひゃくさんじゅうねんだいにおーくのさくひんをぱるぷまがじんにうり、しょきにかつやくしたえすえふぱるぷさっかのひとりとなる。	NO_LABEL
ファーストコンタクト・テーマの短編「火星人774号」"Old Faithful"は、最初に有名になった彼の小説である。	NO_PRONOUNCE	NO_LABEL
"The Gentle Brain"はアーサー・オールポートという変名で、"Science Fiction Quarterly" 誌に発表された。	NO_PRONOUNCE	NO_LABEL
ガランの筆名としては他に、ダウ・エルスター、E・V・レイモンド、ウィリアム・キャラハンというものもある。	NO_PRONOUNCE	NO_LABEL
彼の最初の著書 "People Minus X" は1957年にから出版された。	NO_PRONOUNCE	NO_LABEL
続いて1961年には "The Planet Strappers" がから出た。	NO_PRONOUNCE	NO_LABEL
1978年にはから彼の初期作品選集 "The Best of Raymond Z. Gallun" が出ている。	NO_PRONOUNCE	NO_LABEL
1985年に開催されたSFコンベンション第4回でI-CON功労賞を受賞しているが、この賞は後にレイモンド・Z・ガラン賞と改名された。	NO_PRONOUNCE	NO_LABEL
ガラン自身が部分的に執筆し、ジェフリー・M・エリオットが完成させた自伝 "Starclimber" が死後、2007年に出版された。	NO_PRONOUNCE	NO_LABEL
また、エリック・レイフ・デイヴィンの "Pioneers of Wonder: Conversations With the Founders of Science Fiction" には、その人生と経歴についてガランへの広範なインタビューが収録されている。	NO_PRONOUNCE	NO_LABEL
他、多数。	た、たすー。	NO_LABEL
