片渕悦久は、アメリカ文学者、大阪大学教授。	かたふちのぶひさわ、あめりかぶんがくしゃ、おーさかだいがくきょーじゅ。	NO_LABEL
佐賀県唐津市生まれ。	さがけんからつしうまれ。	NO_LABEL
1988年佐賀大学教育学部中学英語卒、1995年大阪大学大学院文学研究科博士課程単位修得退学、北陸大学専任講師、1996年同志社女子大学専任講師、2000年同現代社会学部助教授、2003年大阪大学文学研究科助教授、07年准教授、2013年教授。	NO_PRONOUNCE	NO_LABEL
2007年「回想・思索・物語 ユダヤ系アメリカ作家としてのソール・ベロー」で阪大文学博士。	NO_PRONOUNCE	NO_LABEL
専門はアメリカ文学。	せんもんわあめりかぶんがく。	NO_LABEL
