三重県道・奈良県道・京都府道82号上野南山城線は、三重県伊賀市を起点とし、京都府相楽郡南山城村に至る主要地方道。	みえけんどーならけんどーきょーとふどーはちじゅうにごーうえのみなみやましろせんわ、みえけんいがしをきてんとし、きょーとふさがなかぐんみなみやましろむらにいたるしゅよーちほーどー。	NO_LABEL
本路線は、全国的にも珍しい3府県を通る路線である。	NO_PRONOUNCE	NO_LABEL
2005年度	にせんごねんど	NO_LABEL
平日24時間交通量	へいじつにじゅうよじかんこーつーりょー	NO_LABEL
休日24時間交通量	きゅーじつにじゅうよじかんこーつーりょー	NO_LABEL
平日12時間交通量	へいじつじゅうにじかんこーつーりょー	NO_LABEL
※現在はいずれも欠番になっている。	NO_PRONOUNCE	NO_LABEL
※ 交差する場所の括弧書きは地名、それ以外は交差点名で表示	NO_PRONOUNCE	NO_LABEL
