費用とは、生産や取引などの経済活動に伴って支払う金銭である。	ひよーとわ、せいさんやとりひきなどのけいざいかつどーにともなってしはらうきんせんである。	NO_LABEL
費用は、適用範囲などの違いから様々な形で記述される。	ひよーわ、てきよーはんいなどのちがいからさまざまなかたちできじゅつされる。	NO_LABEL
ある人が1時間当たり3,000円の仕事を依頼されたにもかかわらず、昼寝をしたとしよう。	NO_PRONOUNCE	NO_LABEL
機会費用を無視した場合、昼寝の費用はゼロ円である。	きかいひよーをむししたばあい、ひるねのひよーわぜろえんである。	NO_LABEL
実際に金銭の支払いは存在しないからである。	じっさいにきんせんのしはらいわそんざいしないからである。	NO_LABEL
しかし、昼寝の機会費用は1時間当たり3,000円である。	NO_PRONOUNCE	NO_LABEL
この所得を得る機会を犠牲にしているからである。	このしょとくをえるきかいをぎせいにしているからである。	NO_LABEL
理論的な経済学においては、断り書きがない場合の「費用」とは機会費用を指すことが多い。	NO_PRONOUNCE	NO_LABEL
企業会計において、費用とは、経済的価値の減少のことをいう。	きぎょーかいけいにおいて、ひよーとわ、けいざいてきかちのげんしょーのことをいう。	NO_LABEL
逆に、収益とは経済的価値の増加のことをいう。	ぎゃくに、しゅーえきとわけいざいてきかちのぞーかのことをいう。	NO_LABEL
損益計算書において、収益から費用を差し引いた額を利益という。	そんえきけいさんしょにおいて、しゅーえきからひよーをさしひいたがくをりえきという。	NO_LABEL
通常、費用は金銭の支出を伴うため、金銭の支出と同時に計上される。	つーじょー、ひよーわきんせんのししゅつをともなうため、きんせんのししゅつとどーじにけいじょーされる。	NO_LABEL
しかし、減価償却費のように金銭の支出を伴わない費用もある。	しかし、げんかしょーきゃくひのよーにきんせんのししゅつをともなわないひよーもある。	NO_LABEL
このため、損益計算書によって示される利益とキャッシュ・フロー計算書によって示される現金収支は一致しない。	このため、そんえきけいさんしょによってしめされるりえきときゃっしゅふろーけいさんしょによってしめされるげんきんしゅーしわいっちしない。	NO_LABEL
費用の発生と金銭の支出は時間的にずれることも多い。	ひよーのはっせいときんせんのししゅつわじかんてきにずれることもおーい。	NO_LABEL
物品やサービスの購入とそれに対する支払いが一致しないことが多いためである。	ぶっぴんやさーびすのこーにゅーとそれにたいするしはらいがいっちしないことがおーいためである。	NO_LABEL
また、金銭の支出は費用の発生だけではなく資産の購入であることも、費用の発生と金銭の支出が一致しない理由としてある。	また、きんせんのししゅつわひよーのはっせいだけでわなくしさんのこーにゅーであることも、ひよーのはっせいときんせんのししゅつがいっちしないりゆーとしてある。	NO_LABEL
その他に、繰延資産のように一過的な支出であってもその効力が支出以後にも及ぶ場合、資産として計上されることもある。	そのたに、くりのべしさんのよーにいっかてきなししゅつであってもそのこーりょくがししゅついごにもおよぶばあい、しさんとしてけいじょーされることもある。	NO_LABEL
修繕のための支出も収益的支出と、資本的支出の差もある。	しゅーぜんのためのししゅつもしゅーえきてきししゅつと、しほんてきししゅつのさもある。	NO_LABEL
以上のことにより、減価償却費の計上の他にも金銭の支出と費用の計上が一致しないことがある。	いじょーのことにより、げんかしょーきゃくひのけいじょーのほかにもきんせんのししゅつとひよーのけいじょーがいっちしないことがある。	NO_LABEL
