名題とは、次のいずれかを意味する歌舞伎用語。	なだいとわ、つぎのいずれかをいみするかぶきよーご。	NO_LABEL
歌舞伎の演目の正式な題名を、はじめ江戸では名題といい、上方では外題といった。	かぶきのえんもくのせいしきなだいめいを、はじめえどでわなだいといい、かみがたでわげだいといった。	NO_LABEL
しかし後代になると江戸でも「外題」が使われるようになり、「名題」は次第に駆逐されていった。	NO_PRONOUNCE	NO_LABEL
かつて芝居小屋入口の上方には、その日の演目を紹介した名題看板が掲げられていた。	かつてしばいごやいりぐちのかみがたにわ、そのひのえんもくをしょーかいしたなだいかんばんがかかげられていた。	NO_LABEL
今でいう公演予告のポスターで、各演目の代表的な場面を描いた眼目の脇には、演目の外題が芝居文字と呼ばれる書体で太々く墨書きされており、そこにはその日出演する主な役者の名跡と定紋も列挙されていた。	NO_PRONOUNCE	NO_LABEL
ここから、名題看板に載るような役者のことを名題役者・看板役者などと呼ぶようになり、これが名のある歌舞伎役者として認められたことを示すひとつの目安となった。	NO_PRONOUNCE	NO_LABEL
江戸後期に書かれた百科事典の『守貞謾稿』の後集・卷之二には：	NO_PRONOUNCE	NO_LABEL
とある。	とある。	NO_LABEL
役者の世界は徒弟制であり、とりわけ江戸期は厳格な階級制度をとった。	やくしゃのせかいわとていせいであり、とりわけえどきわげんかくなかいきゅーせいどをとった。	NO_LABEL
やがて「名題」は、座頭に次ぐ役者の階級を指す言葉となった。	NO_PRONOUNCE	NO_LABEL
名題以外の役者における階級は以下のようになる。	なだいいがいのやくしゃにおけるかいきゅーわいかのよーになる。	NO_LABEL
幕末から明治期にかけて、次のように再編された。	ばくまつからめいじきにかけて、つぎのよーにさいへんされた。	NO_LABEL
名題以外の役者は部屋割りで定められた、ひとつの大きな部屋に雑居した。	なだいいがいのやくしゃわへやわりでさだめられた、ひとつのおーきなへやにざっきょした。	NO_LABEL
地位の低い俳優を「大部屋俳優」と呼ぶ習慣はこのことに由来している。	NO_PRONOUNCE	NO_LABEL
また、江戸の芝居小屋においては、大部屋は三階にあることが多かったことから「三階さん」とも呼ばれた。	NO_PRONOUNCE	NO_LABEL
大部屋から名代にまでなったのは初代の中村仲蔵などごく少数であった。	おーべやからなだいにまでなったのわしょだいのなかむらなかぞーなどごくしょーすーであった。	NO_LABEL
現在でも歌舞伎役者は名題と名題下の二種に大別されている。	げんざいでもかぶきやくしゃわなだいとなだいしたのにしゅにたいべつされている。	NO_LABEL
しかしその基準や昇進手続きは、看板に名が載れば良かったかつてとは比較にならないほど複雑で迂遠な手続きを必要とするものになっている。	しかしそのきじゅんやしょーしんてつずきわ、かんばんにながのればよかったかつてとわひかくにならないほどふくざつでうえんなてつずきをひつよーとするものになっている。	NO_LABEL
その概略は次の通り：	NO_PRONOUNCE	NO_LABEL
