寺久保は神奈川県横浜市中区の町名。	てらくぼわかながわけんよこはましなかくのちょーめい。	NO_LABEL
住居表示未実施で、丁目は設けられていない。	じゅーきょひょーじみじっしで、ひのとめわもーけられていない。	NO_LABEL
郵便番号は231-0855。	NO_PRONOUNCE	NO_LABEL
面積は0.148km。	NO_PRONOUNCE	NO_LABEL
中区西部の根岸台地に位置し、北西は塚越、北東は簑沢、東は根岸台、南は根岸旭台、西は磯子区下町、坂下町および同馬場町に接する。	なかくせいぶのねぎしだいちにいちし、ほくせいわつかごし、ほくとーわみのさわ、ひがしわねぎしだい、みなみわねぎしあさひだい、にしわいそごくしもちょー、さかしたちょーおよびどーばばちょーにせっする。	NO_LABEL
町の半分以上を在日米軍の根岸住宅地区が占め、地区内に専用の小学校などがある。	まちのはんぶんいじょーをざいにちべいぐんのねぎしじゅーたくちくがしめ、ちくないにせんよーのしょーがっこーなどがある。	NO_LABEL
元は中区根岸町の一部で、1933年4月1日に分離・新設された。	NO_PRONOUNCE	NO_LABEL
町名は、平らな入谷の地形を意味する「テラウチ」と同義とみられる。	NO_PRONOUNCE	NO_LABEL
2017年12月31日現在の世帯数と人口は以下の通りである。	にせんじゅうななねんじゅーにがつさんじゅういちにちげんざいのせたいすーとじんこーわいかのとーりである。	NO_LABEL
市立小・中学校に通う場合、学区は以下の通りとなる。	しりつしょーちゅーがっこーにかようばあい、がっくわいかのとーりとなる。	NO_LABEL
