林村ゆかりは、歌手、美容家、タレント。	はやしむらゆかりわ、かしゅ、びよーか、たれんと。	NO_LABEL
本名木村ゆかり。	ほんみょーきむらゆかり。	NO_LABEL
岡山県出身。	おかやまけんしゅっしん。	NO_LABEL
血液型A型。	けつえきがたえーがた。	NO_LABEL
身長160cm。	しんちょーひゃくろくじゅうせんちめーとる。	NO_LABEL
愛称はゆかりん。	あいしょーわゆかりん。	NO_LABEL
愛犬はチワワのうぶ。	あいけんわちわわのうぶ。	NO_LABEL
二十歳の時に、自身で作詞作曲を手がけた自主制作ミニアルバム「you make me feel so good / FLUiD」を作成。	NO_PRONOUNCE	NO_LABEL
JTB MISICよりデビューミニアルバム「瞬間」を発売。	NO_PRONOUNCE	NO_LABEL
東京、川崎、岡山の3箇所でインストアイベントも開催した。	NO_PRONOUNCE	NO_LABEL
アロマセラピスト、ビューティアドバイザーの資格を持つマルチアーティスト。	あろませらぴすと、びゅーてぃあどばいざーのしかくをもつまるちあーてぃすと。	NO_LABEL
インスタグラマーとしても活躍中。	いんすたぐらまーとしてもかつやくちゅー。	NO_LABEL
美容師一家に生まれ、美容師資格を持つ。	びようしいっかにうまれ、びようししかくをもつ。	NO_LABEL
兄はヘアサロンairで執行役員ディレクターであり、月間200万PVを越えるブロガーでもある美容師木村直人。	NO_PRONOUNCE	NO_LABEL
美容学校卒業後、25歳で上京しジャズバーで歌い始め、配信サイトやYouTubeで音楽配信を始める。	びよーがっこーそつぎょーご、にじゅうごさいでじょーきょーしじゃずばーでうたいはじめ、はいしんさいとやゆーちゅーぶでおんがくはいしんをはじめる。	NO_LABEL
その後、パフォーマンスの動画配信をするようになり、YoutubeやSHOWROOMで活躍。	NO_PRONOUNCE	NO_LABEL
現在は17LIVEの配信サイトで活動中。	NO_PRONOUNCE	NO_LABEL
オリジナル曲をiTunesにて配信している。	おりじなるきょくをあいちゅーんずにてはいしんしている。	NO_LABEL
美容師免許を生かし、美容についての発信も行っている。	びようしめんきょをいかし、びよーについてのはっしんもおこなっている。	NO_LABEL
