プルメリア（）はキョウチクトウ科インドソケイ属に属する植物の一般的な名称である。	ぷるめりあかっこわきょーちくとーかいんどそけいぞくにぞくするしょくぶつのいっぱんてきなめいしょーである。	NO_LABEL
通常落葉樹で、花を付ける小灌木である。	NO_PRONOUNCE	NO_LABEL
17世紀のフランス植物学者であるシャルル・プリュミエにちなんで名付けられている。	じゅうしちせいきのふらんすしょくぶつがくしゃであるしゃるるぷりゅみえにちなんでなずけられている。	NO_LABEL
中南米、カリブ海諸国の原産で、300種類が確認されている。	ちゅーなんべい、かりぶかいしょこくのげんさんで、さんびゃくしゅるいがかくにんされている。	NO_LABEL
樹液には毒性があり、目や皮膚に悪い。	じゅえきにわどくせいがあり、めやひふにわるい。	NO_LABEL
赤い花のプルメリアはニカラグアの国花である。	あかいはなのぷるめりあわにからぐあのこっかである。	NO_LABEL
タヒチ、フィジー、サモア、ハワイ、ニュージーランドなどの太平洋の島々でレイに好んで使われるのは、プルメリアの花である。	たひち、ふぃじー、さもあ、はわい、にゅーじーらんどなどのたいへいよーのしまじまでれいにこのんでつかわれるのわ、ぷるめりあのはなである。	NO_LABEL
花は女性の髪にも飾られ、未婚者は頭の右に、既婚者は左に飾る。	はなわじょせいのかみにもかざられ、みこんしゃわあたまのみぎに、きこんしゃわひだりにかざる。	NO_LABEL
インドでは、赤い花のプルメリアの香りを入れた香をチャンパと呼び、ナグ・チャンパ（）などがある。	NO_PRONOUNCE	NO_LABEL
