ダーウィンの日は、1809年2月12日に誕生したチャールズ・ダーウィンを祝う記念日である。	だーうぃんのひわ、せんはっぴゃくきゅうねんにがつじゅうににちにたんじょーしたちゃーるずだーうぃんをいわうきねんびである。	NO_LABEL
 ダーウィンの科学への貢献を呼び物とし、科学全般を促進させるための日として制定されている。	だーうぃんのかがくえのこーけんをよびものとし、かがくぜんぱんをそくしんさせるためのひとしてせいていされている。	NO_LABEL
ダーウィンの日は、世界で名高い。	だーうぃんのひわ、せかいでなだかい。	NO_LABEL
ダーウィンの仕事の称賛と彼の人生に対する賛辞は、1882年4月19日に73歳で亡くなって以来散発的に組織的に行われる。	だーうぃんのしごとのしょーさんとかれのじんせいにたいするさんじわ、せんはっぴゃくはちじゅうにねんしがつじゅうきゅうにちにななじゅうさんさいでなくなっていらいさんぱつてきにそしきてきにおこなわれる。	NO_LABEL
1842年からダーウィンが家族とともに住んでいたロンドンの南の郊外のにあるにて行事が行われた。	せんはっぴゃくよんじゅうにねんからだーうぃんがかぞくとともにすんでいたろんどんのみなみのこーがいのにあるにてぎょーじがおこなわれた。	NO_LABEL
ダーウィンの日は、ジョージア大学からも祝われる。	だーうぃんのひわ、じょーじあだいがくからもいわわれる。	NO_LABEL
行事はフランクリン美術工芸大学によって共同となり、科学は植物生物学と遺伝学で行われた。	ぎょーじわふらんくりんびじゅつこーげいだいがくによってきょーどーとなり、かがくわしょくぶつせいぶつがくといでんがくでおこなわれた。	NO_LABEL
