群馬県立境高等学校は、群馬県佐波郡境町に存在していた県立高校。	ぐんまけんりつさかいこうとうがっこーわ、ぐんまけんさばぐんさかいちょーにそんざいしていたけんりつこーこー。	NO_LABEL
女子高である。	じょしこーである。	NO_LABEL
群馬県立伊勢崎東高等学校と合併し、群馬県立伊勢崎高等学校となったため、閉校した。	ぐんまけんりついせさきひがしこーとーがっこーとがっぺいし、ぐんまけんりついせさきこーとーがっこーとなったため、へいこーした。	NO_LABEL
