1990年-1991年のJSLは、1部が1990年10月28日から1991年5月5日まで、2部が1990年9月8日から1991年3月31日まで行われた。	せんきゅうひゃくきゅうじゅうねんまいなすいちきゅうひゃくきゅうじゅういちねんのじぇいえすえるわ、いちぶがせんきゅうひゃくきゅうじゅうねんじゅーがつにじゅうはちにちからせんきゅうひゃくきゅうじゅういちねんごがついつかまで、にぶがせんきゅうひゃくきゅうじゅうねんくがつようかからせんきゅうひゃくきゅうじゅういちねんさんがつさんじゅういちにちまでおこなわれた。	NO_LABEL
優勝は、1部が読売サッカークラブ、2部が日立製作所サッカー部であった。	ゆーしょーわ、いちぶがよみうりさっかーくらぶ、にぶがひたちせいさくしょさっかーぶであった。	NO_LABEL
このシーズンから三菱重工業サッカー部は三菱自動車工業へ移管され三菱自動車工業サッカー部になった。	このしーずんからみつびしじゅーこーぎょーさっかーぶわみつびしじどーしゃこーぎょーえいかんされみつびしじどーしゃこーぎょーさっかーぶになった。	NO_LABEL
このシーズンからフジタ工業クラブサッカー部がフジタサッカークラブに名称を変更した。	このしーずんからふじたこーぎょーくらぶさっかーぶがふじたさっかーくらぶにめいしょーをへんこーした。	NO_LABEL
