アンドレアス・ヴァイマンは、オーストリア・ウィーン出身のサッカー選手。	NO_PRONOUNCE	NO_LABEL
ダービー・カウンティFC所属。	だーびーかうんてぃふっとぼーるくらぶしょぞく。	NO_LABEL
ポジションはフォワード。	ぽじしょんわふぉわーど。	NO_LABEL
ウィーン生まれ。	うぃーんうまれ。	NO_LABEL
1998年に地元のFCシュタドラウでサッカーを始め、2005年にSKラピート・ヴィーンの下部組織へと移った。	NO_PRONOUNCE	NO_LABEL
2007年にはイングランド・プレミアリーグのアストン・ヴィラFCに引き抜かれ、2010年にトップチームでデビュー。	NO_PRONOUNCE	NO_LABEL
2011年にはレンタルで2度、ワトフォードFCに移籍した。	にせんじゅういちねんにわれんたるでにど、わとふぉーどふっとぼーるくらぶにいせきした。	NO_LABEL
2012-13シーズンよりレギュラーの座を掴んでいる。	NO_PRONOUNCE	NO_LABEL
2015年6月18日、チャンピオンシップのダービー・カウンティFCに4年契約で移籍。	にせんじゅうごねんろくがつじゅうはちにち、ちゃんぴおんしっぷのだーびーかうんてぃふっとぼーるくらぶによんねんけいやくでいせき。	NO_LABEL
ダレン・ベントと再びチームメイトとなった。	だれんべんととふたたびちーむめいととなった。	NO_LABEL
2016-17シーズンはスティーヴ・マクラーレンの構想外となりリーグ戦1試合のスタメン出場に留まる。	NO_PRONOUNCE	NO_LABEL
2017年1月19日、かつてヴィラ時代に指揮を受けたポール・ランバート率いるウルヴァーハンプトン・ワンダラーズFCにシーズン終了まで期限付き移籍することが発表された。	NO_PRONOUNCE	NO_LABEL
各世代のオーストリア代表に選出され、2012年10月12日のカザフスタン戦でA代表デビューを果たした。	かくせだいのおーすとりあだいひょーにせんしゅつされ、にせんじゅうにねんじゅーがつじゅうににちのかざふすたんせんでえいだいひょーでびゅーをはたした。	NO_LABEL
