『あつまれ!クイズショー』は、1971年10月1日から1972年9月29日までNET系列で放送された、子供向けのクイズ番組である。	NO_PRONOUNCE	NO_LABEL
前番組『クイズ大作戦』から引き続き、東鳩製菓が一社提供している。	NO_PRONOUNCE	NO_LABEL
『クイズ大作戦』を再リニューアルした番組で、司会は黒柳徹子から天地総子に代わり、内容も更にショーアップした。	NO_PRONOUNCE	NO_LABEL
前期は小学生5名1組で構成された4チームがトーナメント方式で争い、優勝者を決める形式だったが、後期は3チームがそれぞれ怪獣の頭を模した解答席に座り、坂本新兵が出す「いじわるクイズ」、無着成恭が出す物知りクイズ、そしてラストは出場者自ら作ったクイズを天地・坂本・松島トモ子・初代林家木久蔵の4名に出し、4名が答えられないと1点追加となる「カタキウチ・クイズ」で得点争いをする形式となった。	NO_PRONOUNCE	NO_LABEL
なおどちらも優勝者には豪華賞品が与えられ、参加者全員には東鳩製菓のお菓子がプレゼントされた。	なおどちらもゆーしょーしゃにわごーかしょーひんがあたえられ、さんかしゃぜんいんにわとうはとせいかのおかしがぷれぜんとされた。	NO_LABEL
また番組内では、漫画家の峯たろうが視聴者に出すクイズのコーナーや、『クイズ大作戦』から引き続き行われた、天地と坂本のコント形式による東鳩製菓の生CMが有った。	NO_PRONOUNCE	NO_LABEL
放送は1年で終了し、これで1966年3月開始の『まんが海賊クイズ』以来約6年半続いた東鳩製菓一社提供の子供向けクイズ番組は、事実上終了した。	NO_PRONOUNCE	NO_LABEL
いずれも日本時間。	いずれもにほんじかん。	NO_LABEL
また他にも、ゴリラの着ぐるみマスコットが居た。	またたにも、ごりらのきぐるみますこっとがいた。	NO_LABEL
「のつもりソング」	NO_PRONOUNCE	NO_LABEL
「毎日新聞」縮刷版	NO_PRONOUNCE	NO_LABEL
