モンターニャ・イン・ヴァルテッリーナ。	NO_PRONOUNCE	NO_LABEL
ソンドリオ県中部、ヴァルテッリーナに位置する。	NO_PRONOUNCE	NO_LABEL
県都ソンドリオから東北東へ2km、ティラーノから西へ22km、州都ミラノから北東へ97kmの距離にある。	けんとそんどりおからとーほくとーえにきろめーとる、てぃらーのからにしえにじゅうにきろめーとる、しゅーとみらのからほくとーえきゅうじゅうななきろめーとるのきょりにある。	NO_LABEL
隣接するコムーネは以下の通り。	りんせつするこむーねわいかのとーり。	NO_LABEL
