はまぐり犬ははまぐりを被った犬のキャラクター。	はまぐりけんわはまぐりをこーむったいぬのきゃらくたー。	NO_LABEL
三重県桑名市の非公認キャラクターとして2017年2月にtwitter、instagram上に登場を確認。	みえけんくわなしのひこーにんきゃらくたーとしてにせんじゅうななねんにがつについったー、いんすたぐらむじょーにとーじょーをかくにん。	NO_LABEL
お館様探しをしながら、桑名の観光や名物・イベントを訪ね歩いている。	NO_PRONOUNCE	NO_LABEL
SNS上での活動しか現在は確認出来ていないが、三重での人気は既にそこそこあるもよう。	えすえぬえすじょーでのかつどーしかげんざいわかくにんできていないが、みえでのにんきわすでにそこそこあるもよー。	NO_LABEL
地元のJFLヴィアティン三重を応援していることが度々確認されている。	NO_PRONOUNCE	NO_LABEL
桑名の萌えキャラくはないなの飼い犬との噂もある。	くわなのもえきゃらくわないなのかいいぬとのうわさもある。	NO_LABEL
お館様を探しているとのことだが、誰がお館様なのかは特定できておらず不明。	おたてさまをさがしているとのことだが、だれがおたてさまなのかわとくていできておらずふめい。	NO_LABEL
本人は顔は覚えているよう。	ほんにんわかおわおぼえているよー。	NO_LABEL
好物は桑名の名産「桑名はまぐり」で食べ過ぎがこの姿にしたとかどうとか本人は言っている。	NO_PRONOUNCE	NO_LABEL
