メルー山は、タンザニアのキリマンジャロの70キロメートル西に位置する、休止中の成層火山である。	めるーさんわ、たんざにあのきりまんじゃろのななじゅうきろめーとるにしにいちする、きゅーしちゅーのせいそーかざんである。	NO_LABEL
標高は4,562.13メートルで、アフリカで第5番目に高い山である。	NO_PRONOUNCE	NO_LABEL
晴れた日にはキリマンジャロから見える。	はれたひにわきりまんじゃろからみえる。	NO_LABEL
メルー山はタンザニア、アルーシャ州のアルーシャという都市の北に位置している。	めるーさんわたんざにあ、あるーしゃしゅーのあるーしゃとゆうとしのきたにいちしている。	NO_LABEL
タンザニアではキリマンジャロに次いで、2番目に高い山である。	たんざにあでわきりまんじゃろについで、にばんめにたかいやまである。	NO_LABEL
モメラ門から始まるモメラ道はこの山の東にあり、メルー山の登山道となっている。	もめらもんからはじまるもめらどーわこのやまのひがしにあり、めるーさんのとざんどーとなっている。	NO_LABEL
この山の大部分が8,000年前の噴火によって失われた。	NO_PRONOUNCE	NO_LABEL
この時の噴火は1980年にアメリカワシントン州のセント・ヘレンズ山で起きた噴火と似ている。	このときのふんかわせんきゅうひゃくはちじゅうねんにあめりかわしんとんしゅーのせんとへれんずさんでおきたふんかとにている。	NO_LABEL
メルー山は最近では1910年に小規模な噴火が起きた。	めるーさんわさいきんでわせんきゅうひゃくじゅうねんにしょーきぼなふんかがおきた。	NO_LABEL
小さな円錐とクレーターが周辺にいくつか見られるがこれらは過去の火山活動によるだと考えられている。	ちーさなえんすいとくれーたーがしゅーへんにいくつかみられるがこれらわかこのかざんかつどーによるだとかんがえられている。	NO_LABEL
メルー山はアルーシャ国立公園の中央に位置している。	めるーさんわあるーしゃこくりつこーえんのちゅーおーにいちしている。	NO_LABEL
その肥沃な斜面は周囲のサバンナにそびえて、鳥、猿とヒョウなど400種近くの多様な野生生物の住処である森を支えている。	NO_PRONOUNCE	NO_LABEL
