トリゼンフーズ株式会社は、福岡市に本社を置く鶏肉卸売や外食事業を行う企業である。	とりぜんふーずかぶしきがいしゃわ、ふくおかしにほんしゃをおくけいにくおろしうりやがいしょくじぎょーをおこなうきぎょーである。	NO_LABEL
ブランド鳥「華味鳥」の養鶏・販売のほか、水炊き店の「博多華味鳥」を経営する。	NO_PRONOUNCE	NO_LABEL
また、九州プロレスの活動のひとつ、慰問活動「じじばば元気にするバイ」を応援している。	NO_PRONOUNCE	NO_LABEL
創業は1949年。	そーぎょーわせんきゅうひゃくよんじゅうきゅうねん。	NO_LABEL
2010年に中国大連に大連鳥善餐饮有限公司を設立し、「博多華味鳥大連店」を出店した。	NO_PRONOUNCE	NO_LABEL
その後、2014年秋から同店を台湾でも展開している。	そのご、にせんじゅうよねんあきからどーてんをたいわんでもてんかいしている。	NO_LABEL
2017年 1月には糸島市の新工場建設が着工する。	にせんじゅうななねんいちがつにわいとしましのしんこーじょーけんせつがちゃっこーする。	NO_LABEL
設備投資額はおよそ7億円という。	せつびとーしがくわおよそななおくえんという。	NO_LABEL
