坂村 吉正は、衆議院議員。	さかむらよしまさわ、しゅーぎーんぎーん。	NO_LABEL
群馬県出身。	ぐんまけんしゅっしん。	NO_LABEL
群馬県立館林中学校、旧制一高文科、東京帝国大学法学部卒業。	ぐんまけんりつたてばやしちゅうがっこー、きゅーせいいちだかぶんか、とーきょーていこくだいがくほーがくぶそつぎょー。	NO_LABEL
1958年の北西太平洋日ソ漁業委員会第二回会議に水産庁生産部長として参加。	せんきゅうひゃくごじゅうはちねんのほくせいたいへいよーびそぎょぎょーいーんかいだいにかいかいぎにすいさんちょーせいさんぶちょーとしてさんか。	NO_LABEL
農林省農林経済局長を経て、1963年の第30回衆議院議員総選挙群馬2区に自由民主党から出馬し、初当選。	のーりんしょーのーりんけいざいきょくちょーをへて、せんきゅうひゃくろくじゅうさんねんのだいさんじゅっかいしゅーぎーんぎーんそーせんきょぐんまにくにじゆーみんしゅとーからしゅつばし、はつとーせん。	NO_LABEL
以後4期連続当選。	いごよんきれんぞくとーせん。	NO_LABEL
1967年、米価審議会委員。	せんきゅうひゃくろくじゅうななね、べいかしんぎかいいいん。	NO_LABEL
1968年1月、衆議院農林水産委員会理事。	せんきゅうひゃくろくじゅうはちねんいちがつ、しゅーぎいんのーりんすいさんいーんかいりじ。	NO_LABEL
同年11月、第2次佐藤第2次改造内閣防衛政務次官。	どーねんじゅーいちがつ、だいにじさとーだいにじかいぞーないかくぼーえいせいむじかん。	NO_LABEL
1976年の第34回衆議院議員総選挙に出馬せず、政界引退。	せんきゅうひゃくななじゅうろくねんのだいさんじゅうよんかいしゅーぎーんぎーんそーせんきょにしゅつばせず、せいかいいんたい。	NO_LABEL
