ナターシャ・オキーフは、イングランドの舞台・テレビ・映画女優である。	NO_PRONOUNCE	NO_LABEL
 ブライトン出身。	ぶらいとんしゅっしん。	NO_LABEL
イギリスのテレビシリーズ『Misfits/ミスフィッツ-俺たちエスパー!』のアビー役、ITVのテレビシリーズ『』のフェドーラ役、『SHERLOCK』の元日スペシャル『忌まわしき花嫁』でのエミリア・リコレッティ役などで知られている。	NO_PRONOUNCE	NO_LABEL
ので育ち、に通って指導を受け、いくつかの舞台作品に出演した。	のでそだち、にかよってしどーをうけ、いくつかのぶたいさくひんにしゅつえんした。	NO_LABEL
オキーフの最初の活動は、2008年の『フォーリング・ダウン』のミュージックビデオで、一夜公演やドラッグを楽しむロイヤル・ファミリーのメンバーを演じることだった。	NO_PRONOUNCE	NO_LABEL
このミュージックビデオは、オアシス解散前最後のシングルのために撮影されたものである。	このみゅーじっくびでおわ、おあしすかいさんぜんさいごのしんぐるのためにさつえいされたものである。	NO_LABEL
同じ年に、彼女は長編映画""Abraham's Point""にも出演している。	NO_PRONOUNCE	NO_LABEL
2010年・2012年には、BBC Threeのドラマシリーズ『』で、2シーズンにわたりサディー役を演じている。	NO_PRONOUNCE	NO_LABEL
この作品は、スコットランド・グラスゴーに住む、レズビアンたちの生活を描いたものである。	NO_PRONOUNCE	NO_LABEL
2012年・2013年には、のコメディ・ドラマ『Misfits/ミスフィッツ-俺たちエスパー!』の最終2シーズンで、主要人物のアビー・スミスを演じている。	NO_PRONOUNCE	NO_LABEL
この作品は、ロンドンでに携わる不良たちが、ひょんなことから超能力を身につける筋書きである。	このさくひんわ、ろんどんでにたずさわるふりょーたちが、ひょんなことからちょーのーりょくをみにつけるすじがきである。	NO_LABEL
2013年には、『』と『』の2本のテレビドラマに出演したほか、長編映画『フィルス』、『』にも出演している。	NO_PRONOUNCE	NO_LABEL
2015年には、ITVのテレビシリーズ『』で、主人公の敵と恋仲にあるフェドーラ役を演じた。	NO_PRONOUNCE	NO_LABEL
2016年には、『SHERLOCK』のスペシャル『SHERLOCK/シャーロック 忌まわしき花嫁』に出演し、タイトルロールである「忌まわしき花嫁」のエミリア・リコレッティを演じた。	NO_PRONOUNCE	NO_LABEL
