ラテン・オナーズとは、主にアメリカ合衆国の大学において成績上位の生徒が受賞する称号の総称である。	らてんおなーずとわ、おもにあめりかがっしゅーこくのだいがくにおいてせいせきじょーいのせいとがじゅしょーするしょーごーのそーしょーである。	NO_LABEL
大学によって称号を授与する基準は異なるが、GPAが主な判断材料となる。	だいがくによってしょーごーをじゅよするきじゅんわことなるが、じーぴーえーがおもなはんだんざいりょーとなる。	NO_LABEL
例えば、ラテン・オナーズを受賞した皇太子徳仁親王妃雅子の場合、学位はハーバード大学、B.A. in Economics, "magna cum laude"となる。	NO_PRONOUNCE	NO_LABEL
ラテン・オナーズには下記のような種類がある。	らてんおなーずにわかきのよーなしゅるいがある。	NO_LABEL
