『WORLD CLUB Champion Football』はセガ・インタラクティブが発売したトレーディングカードアーケードゲーム。	NO_PRONOUNCE	NO_LABEL
ヨーロッパのサッカーリーグを題材にしたゲームである。	よーろっぱのさっかーりーぐをだいざいにしたげーむである。	NO_LABEL
公式サイトによるとジャンルはスポーツカードゲームとされている。	こーしきさいとによるとじゃんるわすぽーつかーどげーむとされている。	NO_LABEL
略称WCCF。	りゃくしょーだぶりゅーしーしーえふ。	NO_LABEL
アーケードゲームにトレーディングカードゲームの要素を組み合わせた新感覚ゲームとして登場した。	あーけーどげーむにとれーでぃんぐかーどげーむのよーそをくみあわせたしんかんかくげーむとしてとーじょーした。	NO_LABEL
最初にスターターパックと呼ばれるカードセットを購入し、ゲームを開始。	さいしょにすたーたーぱっくとよばれるかーどせっとをこーにゅーし、げーむをかいし。	NO_LABEL
プレイのたびにランダムで1枚ずつ、新しい選手カードが入手でき、また、それらのカードを他のプレイヤーと交換することもできる。	ぷれいのたびにらんだむでいちまいずつ、あたらしいせんしゅかーどがにゅーしゅでき、また、それらのかーどをたのぷれいやーとこーかんすることもできる。	NO_LABEL
その為、ゲーム以上にカード収集を楽しんだり、コミュニケーションを楽しむユーザーも多い。	そのため、げーむいじょーにかーどしゅーしゅーをたのしんだり、こみゅにけーしょんをたのしむゆーざーもおーい。	NO_LABEL
トレーディングカードアーケードゲームの先駆けとして登場し、この作品のヒットをきっかけにして現在は様々なカードゲームがゲームセンターで楽しめるようになった。	とれーでぃんぐかーどあーけーどげーむのさきがけとしてとーじょーし、このさくひんのひっとをきっかけにしてげんざいわさまざまなかーどげーむがげーむせんたーでたのしめるよーになった。	NO_LABEL
トレーディングカードアーケードゲームというジャンルの隆盛は、ソーシャルゲームにも引き継がれ、『拡散性ミリオンアーサー』のプロデューサーの一人である安藤武博は「ここ10年のアーケードゲームや現在携帯電話を席巻中の“カードバトル系ゲーム”の始祖は、セガのアーケードゲームである『ダービーオーナーズクラブ』『WORLD CLUB Champion Football』『甲虫王者ムシキング』『三国志大戦』で、これらがなければ市場の様相は変わっていたんじゃないか」と語っている。	NO_PRONOUNCE	NO_LABEL
実際のサッカーと同じ11人分の選手カードを、自由に組み合わせてチームを作る。	じっさいのさっかーとおなじじゅういちにんぶんのせんしゅかーどを、じゆーにくみあわせてちーむをつくる。	NO_LABEL
それをフィールドを模した筐体の上に自由に配置し、試合展開に合わせて選手カードを移動することで試合が進行する。	それをふぃーるどをもしたきょうたいのうえにじゆーにはいちし、しあいてんかいにあわせてせんしゅかーどをいどーすることでしあいがしんこーする。	NO_LABEL
この「フィールド型の入力デバイス」が本作品最大の特徴である。	NO_PRONOUNCE	NO_LABEL
また、2008-2009バージョンでは全国ネットワーク対戦が実装され、全国のプレイヤーとの対戦が可能になった。	NO_PRONOUNCE	NO_LABEL
2010-2011バージョンではアジア諸国での稼働が順次開始されている。	NO_PRONOUNCE	NO_LABEL
なお、基本プレイ料金は1クレジット200円、3クレジット500円。	NO_PRONOUNCE	NO_LABEL
他のアーケードゲーム同様、稼動期間が長くなるとクレジットサービス等を行い事実上の値下げを行う店舗も多い。	たのあーけーどげーむどーよー、かどーきかんがながくなるとくれじっとさーびすとーをおこないじじつじょーのねさげをおこなうてんぽもおーい。	NO_LABEL
カードは1試合終了後に1枚払い出される。	かーどわいちしあいしゅーりょーごにいちまいはらいだしされる。	NO_LABEL
また、現在は1クレジット終了後にクレジットを消化して最大2枚追加の払い出しができる。	NO_PRONOUNCE	NO_LABEL
2004-2005バージョン以前のシリーズに関しては2017年3月31日を以って修理サポートが終了した。	NO_PRONOUNCE	NO_LABEL
2008年以降に発売された8Pメイン筐体並びに4Pメイン筐体のメインDLPプロジェクターは、8Pメイン筐体が三菱電機製と東芝製の2種があり、4Pメイン筐体は三菱電機製のみを採用している。	NO_PRONOUNCE	NO_LABEL
8Pメイン筐体用メインDLPプロジェクターの修理サポートは、三菱電機製が2016年9月30日を以って、東芝製が同年12月31日を以ってそれぞれサポートを終了した他、4Pメイン筐体用メインDLPプロジェクターの修理サポートも2018年4月30日を以って終了する予定。	NO_PRONOUNCE	NO_LABEL
サポート終了後は代替品としてMINIメインキャビネットを用意するとしている。	さぽーとしゅーりょーごわだいたいひんとしてみにめいんきゃびねっとをよーいするとしている。	NO_LABEL
現在稼動中の2017-2018バージョンに基づいて解説する。	NO_PRONOUNCE	NO_LABEL
ゲームはまずチームマネージメントと呼ばれる試合前の準備を行い、試合に向かう。	げーむわまずちーむまねーじめんととよばれるしあいまえのじゅんびをおこない、しあいにむかう。	NO_LABEL
時間はプレイするモードや試合展開等にもよるが、チームマネージメントは約2分程度、試合は約5分程度となっている。	じかんわぷれいするもーどやしあいてんかいとーにもよるが、ちーむまねーじめんとわやくにふんていど、しあいわやくごふんていどとなっている。	NO_LABEL
チームマネージメントでは以下のことを行い、チーム力の向上や選手のマネジメントを図ることができる。	ちーむまねーじめんとでわいかのことをおこない、ちーむりょくのこーじょーやせんしゅのまねじめんとをはかることができる。	NO_LABEL
1回の育成パートに与えられた行動回数はチーム練習および休養が最大1回、選手個人のマネジメントが最大3回、各種育成アイテム使用で1回である。	いっかいのいくせいぱーとにあたえられたこーどーかいすーわちーむれんしゅーおよびきゅーよーがさいだいいっかい、せんしゅこじんのまねじめんとがさいだいさんかい、かくしゅいくせいあいてむしよーでいっかいである。	NO_LABEL
これ以外にも、チームや選手の状態に応じて様々なイベントが起こる。	これいがいにも、ちーむやせんしゅのじょーたいにおーじてさまざまないべんとがおこる。	NO_LABEL
その中にはチームの成長の上で重要なものもあるため、育成パートの開始直後のイベント通知を見逃さないようにしたい。	そのなかにわちーむのせいちょーのうえでじゅーよーなものもあるため、いくせいぱーとのかいしちょくごのいべんとつーちをみのがさないよーにしたい。	NO_LABEL
また、キャプテン・セットプレーのキッカーの指名、背番号の変更、チームや監督のデータ確認や登録選手の変更、クラブハウスで選手達が着るジャージ、監督称号、スタジアムの横断幕の設定もこのパートで行うことができる。	NO_PRONOUNCE	NO_LABEL
基本的には行動回数にカウントされず好きな時に設定等ができるが、育成パート終了の時間が迫っている場合には選択できないものもある。	きほんてきにわこーどーかいすーにかうんとされずすきなときにせっていとーができるが、いくせいぱーとしゅーりょーのじかんがせまっているばあいにわせんたくできないものもある。	NO_LABEL
試合は基本的に自動で進む。	しあいわきほんてきにじどーですすむ。	NO_LABEL
プレイヤーは監督となり、戦術ボタンを使用しチームに指示を出す。	ぷれいやーわかんとくとなり、せんじゅつぼたんをしよーしちーむにしじをだす。	NO_LABEL
シュートは自動で打たないため、点を取るにはシュートボタンを押す必要がある。	しゅーとわじどーでうたないため、てんをとるにわしゅーとぼたんをおすひつよーがある。	NO_LABEL
また、ゴールキーパーを飛び出させたい時はゴールキーパーボタンを長押しする。	また、ごーるきーぱーをとびださせたいときわごーるきーぱーぼたんをながおしする。	NO_LABEL
試合時間が短い上、プレイヤーが意図的にボールをアウトすることができないため、交代をする際は早めに選手を入れ替えておくことが重要となる。	しあいじかんがみじかいうえ、ぷれいやーがいとてきにぼーるをあうとすることができないため、こーたいをするさいわはやめにせんしゅをいれかえておくことがじゅーよーとなる。	NO_LABEL
試合パート中は、画面左側にはチームの成長を示すパラメータと、現在の監督の指示を表す方向キーが表示されている。	しあいぱーとちゅーわ、がめんひだりがわにわちーむのせいちょーをしめすぱらめーたと、げんざいのかんとくのしじをあらわすほーこーきーがひょーじされている。	NO_LABEL
これらの表示が必要ない、あるいはもっと広くフィールドを見たいと思った場合はデータボタンで消すことができる。	これらのひょーじがひつよーない、あるいわもっとひろくふぃーるどをみたいとおもったばあいわでーたぼたんでけすことができる。	NO_LABEL
画面右側には、自分と相手の選手配置が分かるフィールド、現在設定しているチームスタイルチームの士気ゲージのグラフが表示されている。	がめんみぎがわにわ、じぶんとあいてのせんしゅはいちがわかるふぃーるど、げんざいせっていしているちーむすたいるちーむのしきげーじのぐらふがひょーじされている。	NO_LABEL
チームの士気は日々の練習で増減するほか、試合中にも選手の活躍や監督の采配により増減する。	ちーむのしきわひびのれんしゅーでぞーげんするほか、しあいちゅーにもせんしゅのかつやくやかんとくのさいはいによりぞーげんする。	NO_LABEL
チームの士気が高いほうが選手たちの動きが良くなる。	ちーむのしきがたかいほーがせんしゅたちのうごきがよくなる。	NO_LABEL
また試合中士気ゲージがMAXの状態でキープレイヤーボタンを長押しすると一定時間スペシャルコマンドを発動でき、チームスタイルのランク上昇や専用のスーパープレイを出すことができる。	またしあいちゅーしきげーじがまっくすのじょーたいできーぷれいやーぼたんをながおしするといっていじかんすぺしゃるこまんどをはつどーでき、ちーむすたいるのらんくじょーしょーやせんよーのすーぱーぷれいをだすことができる。	NO_LABEL
先述の通り、本作品ではフィールド型デバイスに選手カードを置くことにより、その選手のゲーム上でのポジショニングを指定する。	せんじゅつのとーり、ほんさくひんでわふぃーるどがたでばいすにせんしゅかーどをおくことにより、そのせんしゅのげーむじょーでのぽじしょにんぐをしていする。	NO_LABEL
これを最大11人分行うことで、チームのフォーメーションを決定する。	これをさいだいじゅういちにんぶんおこなうことで、ちーむのふぉーめーしょんをけっていする。	NO_LABEL
ゴールキーパーに必ず1人配置されるため、残りの10人で、実際のサッカーと同じ4-4-2や4-3-3といったフォーメーションを組むことができる。	NO_PRONOUNCE	NO_LABEL
選手配置にはかなりの自由度があり、ディフェンス4人を高い位置に挙げてラインコントロールを行ったり、ミッドフィールダーを中央に集めて中央突破を図るなど、様々なフォーメーションを組むことができる。	せんしゅはいちにわかなりのじゆーどがあり、でぃふぇんすよにんをたかいいちにあげてらいんこんとろーるをおこなったり、みっどふぃーるだーをちゅーおーにあつめてちゅーおーとっぱをはかるなど、さまざまなふぉーめーしょんをくむことができる。	NO_LABEL
なお、特定のエリアに特定のポジションの選手を配置しなければならないということはなく、ディフェンスエリアにフォワードの選手を配置することも、その逆も可能であり、フィールドプレイヤー全員がゴールキーパーという配置も可能である。	なお、とくていのえりあにとくていのぽじしょんのせんしゅをはいちしなければならないとゆうことわなく、でぃふぇんすえりあにふぉわーどのせんしゅをはいちすることも、そのぎゃくもかのーであり、ふぃーるどぷれいやーぜんいんがごーるきーぱーとゆうはいちもかのーである。	NO_LABEL
また、実際のサッカーでは有り得ないようなフォーメーションを組むことも可能である。	また、じっさいのさっかーでわありえないよーなふぉーめーしょんをくむこともかのーである。	NO_LABEL
一例として、ネットワーク対戦が可能になった2004-2005バージョンと2005-2006バージョンでは、ディフェンスエリアにディフェンダーを3人ずつ2列、計6人配置して守りを固める「6バック」が大流行し、ネットワーク大会では6-1-3や7-1-2といったフォーメーションばかりが見られた。	NO_PRONOUNCE	NO_LABEL
2006-2007バージョン以降では、このようなフォーメーションを組むと一種のペナルティとしてチームの士気が大幅に下がるようになった。	NO_PRONOUNCE	NO_LABEL
2006-2007バージョンから採用されたシステムである。	NO_PRONOUNCE	NO_LABEL
チームの1名をキープレイヤーとして設定し、その選手の配置等の条件を満たすとチームスタイルが発動する。	NO_PRONOUNCE	NO_LABEL
チームスタイルはチーム全体の動きに影響するものもあれば、キープレイヤー個人にのみ効果が限定されるものもある。	ちーむすたいるわちーむぜんたいのうごきにえいきょーするものもあれば、きーぷれいやーこじんにのみこーかがげんていされるものもある。	NO_LABEL
チームスタイルは同じ選手でも基本的にはカード毎に違うものが設定されているため、チームスタイルを優先し選手選考をすることで、パラメータの低いカードにも陽が当たる画期的なシステムであるといえる。	ちーむすたいるわおなじせんしゅでもきほんてきにわかーどごとにちがうものがせっていされているため、ちーむすたいるをゆーせんしせんしゅせんこーをすることで、ぱらめーたのひくいかーどにもひがあたるかっきてきなしすてむであるといえる。	NO_LABEL
2008-2009バージョンからは特定の選手をキープレイヤーに設定し、さらに特殊能力等の条件を満たすと発動するレアチームスタイルが追加された。	NO_PRONOUNCE	NO_LABEL
また2009-2010バージョンからは同じスキル名を持つ複数の選手の条件を満たし、そのうちの1人をキープレイヤーに設定すると発動するコンビネーションチームスタイルと、特定の国籍を持つ16人のチームで、チームグラフ等の条件を満たした上でキープレイヤーを設定しないことで発動するナショナルチームスタイルが追加された。	NO_PRONOUNCE	NO_LABEL
ちなみに、AIの動きの差に起因した、いわゆる「勝ちやすい」チームスタイルが存在して大流行を見せるのは致し方ない部分である。	NO_PRONOUNCE	NO_LABEL
2006-2007バージョンの『降臨』や2008-2009バージョンの『ラインブレイク』などがその代表例であり、有効と言われるチームスタイルを持つ過去のカードがネットオークションで急騰したこともある。	NO_PRONOUNCE	NO_LABEL
2011-2012バージョンからは、これまで100近くあったチームスタイルが整理・統合され、今までのほとんどの選手のチームスタイルが変更された。	NO_PRONOUNCE	NO_LABEL
また、攻撃・守備・補助の3カテゴリーに分類され、それぞれのカテゴリーのチームスタイルを同時に発動させることが可能である。	NO_PRONOUNCE	NO_LABEL
2015-2016バージョンでは、クラブチームスタイルと進化チームスタイルが登場した。	NO_PRONOUNCE	NO_LABEL
過去のバージョンではセンターモニターにて固定のスケジュールを見ながら希望の大会に出場するという形式だったが、現在稼動中の2017-2018バージョンでは「育成モード」として、全てCPU戦にて希望の大会に出場する形式となった。	NO_PRONOUNCE	NO_LABEL
このモードではプレイヤーの好きなタイミングで試合を始めることができる。	このもーどでわぷれいやーのすきなたいみんぐでしあいをはじめることができる。	NO_LABEL
大きくトーナメント戦とリーグ戦に分けられる。	おーきくとーなめんとせんとりーぐせんにわけられる。	NO_LABEL
大会毎にランクが設定されており、ランク毎に出場資格も以下に設定されている。	たいかいごとにらんくがせっていされており、らんくごとにしゅつじょーしかくもいかにせっていされている。	NO_LABEL
・ランクS:レギュラーリーグプレミアディビジョンに所属	NO_PRONOUNCE	NO_LABEL
・ランクA:レギュラーリーグ1stディビジョン以上に所属	NO_PRONOUNCE	NO_LABEL
・ランクB:条件なし	NO_PRONOUNCE	NO_LABEL
・オーシャンズカップ:ランクSの内いずれかを優勝。	NO_PRONOUNCE	NO_LABEL
参加後出場権は一旦消滅する。	さんかごしゅつじょーけんわいったんしょーめつする。	NO_LABEL
CPUの強さはランクに比例して強くなっていく。	しーぴーゆーのつよさわらんくにひれいしてつよくなっていく。	NO_LABEL
オーシャンズカップでは過去バージョンのオールスターチーム「WCCFスターズ」が登場する。	NO_PRONOUNCE	NO_LABEL
トーナメント制・2試合。	NO_PRONOUNCE	NO_LABEL
H&Aトーナメント制・3試合。	NO_PRONOUNCE	NO_LABEL
リーグ制・3試合。	NO_PRONOUNCE	NO_LABEL
トーナメント制・3試合。	NO_PRONOUNCE	NO_LABEL
H&Aトーナメント制・4試合。	NO_PRONOUNCE	NO_LABEL
リーグ&タイトルマッチ制・4試合。	NO_PRONOUNCE	NO_LABEL
トーナメント制・4試合。	NO_PRONOUNCE	NO_LABEL
H&Ａトーナメント制・5試合。	NO_PRONOUNCE	NO_LABEL
リーグ&トーナメント制・5試合。	NO_PRONOUNCE	NO_LABEL
タイトルマッチ制・1試合。	NO_PRONOUNCE	NO_LABEL
下から2ndディビジョン、1stディビジョン、プレミアディビジョンの3部制。	NO_PRONOUNCE	NO_LABEL
1シーズン7試合にて優勝・昇格・降格が決定する。	NO_PRONOUNCE	NO_LABEL
チームのホームタウンによって、9つの地域リーグに分けられ、対戦するCPUチームも地域別に異なってくる。	ちーむのほーむたうんによって、ここのつのちーきりーぐにわけられ、たいせんするしーぴーゆーちーむもちーきべつにことなってくる。	NO_LABEL
特定の試合ではミッションが発生し、クリアするとコンディションが上がるなどの効果がある。	とくていのしあいでわみっしょんがはっせいし、くりあするとこんでぃしょんがあがるなどのこーかがある。	NO_LABEL
プレミアディビジョンで6位以上の成績を収めるとチャレンジツアーの挑戦権を獲得できる。	ぷれみあでぃびじょんでろくいいじょーのせいせきをおさめるとちゃれんじつあーのちょーせんけんをかくとくできる。	NO_LABEL
イギリス・スペイン・イタリア・ドイツ・ヨーロッパ・アメリカ大陸・アフリカ・アジアの8つの地域から希望の遠征先を選択する。	NO_PRONOUNCE	NO_LABEL
契約中のスポンサーによって選択可能な地域が増えることがある。	けいやくちゅーのすぽんさーによってせんたくかのーなちいきがふえることがある。	NO_LABEL
チャレンジツアー中は通常の練習がツアー交流戦に変化する。	ちゃれんじつあーちゅーわつーじょーのれんしゅーがつあーこーりゅーせんにへんかする。	NO_LABEL
ツアー交流戦ではチーム全体が大幅に成長する他、勝利すると「進化チームスタイル」を獲得できることがある。	NO_PRONOUNCE	NO_LABEL
進化チームスタイルを獲得するとチームスタイルに「G」の文字が付き、発動している選手の能力が向上したり、通常のチームスタイルより効果が上がるなどのメリットがある。	NO_PRONOUNCE	NO_LABEL
試合では各地域の強豪クラスのチームと2連戦を行う。	NO_PRONOUNCE	NO_LABEL
条件を満たして2連勝すると、各地域の最強クラスのチームと対戦することが出来る。	じょーけんをみたしてにれんしょーすると、かくちいきのさいきょーくらすのちーむとたいせんすることができる。	NO_LABEL
2013-2014バージョンから導入された。	NO_PRONOUNCE	NO_LABEL
このモードでは監督任期を減らさずに様々な大会がプレイできる。	このもーどでわかんとくにんきをへらさずにさまざまなたいかいがぷれいできる。	NO_LABEL
現在稼動中の2017-2018バージョンでは、4つのモードがプレイできる。	NO_PRONOUNCE	NO_LABEL
2016-2017バージョンから導入された。	NO_PRONOUNCE	NO_LABEL
同じ店舗のプレイヤーと協力し、毎週開催されているランキングにて全国No.1店舗を目指すモード。	おなじてんぽのぷれいやーときょーりょくし、まいしゅーかいさいされているらんきんぐにてぜんこくなんばーわんてんぽをめざすもーど。	NO_LABEL
全国の店舗ベストイレブンとのCPU戦を行い、試合での獲得ポイントの合計で競う形式である。	ぜんこくのてんぽべすといれぶんとのしーぴーゆーせんをおこない、しあいでのかくとくぽいんとのごーけいできそうけいしきである。	NO_LABEL
ユニオントロフィーをプレイするとWGと呼ばれるチーム強化費を獲得でき、WCCF.NETで育成アイテムの購入やガチャで使用することができる。	NO_PRONOUNCE	NO_LABEL
プレイした店舗が上位入賞等をすると獲得できるWGは増える。	NO_PRONOUNCE	NO_LABEL
2008-2009バージョンから2013-2014バージョンまで開催されていたワールドトロフィーに代わり、2015-2016バージョンより導入されたネットワーク対戦の大会。	NO_PRONOUNCE	NO_LABEL
出場権はレギュラーリーグプレミアディビジョン所属で獲得できる。	しゅつじょーけんわれぎゅらーりーぐぷれみあでぃびじょんしょぞくでかくとくできる。	NO_LABEL
5つのクラスに分けられ、1週間のランキングの結果により昇格・残留・降格・CPUとのプレイオフが発生する。	NO_PRONOUNCE	NO_LABEL
ローカルクラスのみCPU戦のみで、それ以外のクラスは全て対人戦となり、対戦相手が見つからない場合はCPUとのフレンドリーマッチになる。	ろーかるくらすのみしーぴーゆーせんのみで、それいがいのくらすわすべてたいじんせんとなり、たいせんあいてがみつからないばあいわしーぴーゆーとのふれんどりーまっちになる。	NO_LABEL
どのクラスでも規定の試合数毎にアイテムを獲得することができる。	どのくらすでもきていのしあいすーごとにあいてむをかくとくすることができる。	NO_LABEL
ワールドクラスAでランキング1位を獲得すると、特殊称号『グランドチャンピオン』とレアアイテムが授与される。	NO_PRONOUNCE	NO_LABEL
毎日4回、決まった時間に開催される店舗内大会。	まいにちよんかい、きまったじかんにかいさいされるてんぽないたいかい。	NO_LABEL
最大8チーム参加、レギュレーションはU-5Rかつ監督任期を1試合消化していれば参加可能。	NO_PRONOUNCE	NO_LABEL
優勝すると、当日の4回目のユニバーサルカップ終了後に開催される、データ対戦によるユニバーサルチャンピオンシップに自動的にエントリーされ、優勝するとエリアチャンピオンシップにエントリーされる。	ゆーしょーすると、とーじつのよんかいめのゆにばーさるかっぷしゅーりょーごにかいさいされる、でーたたいせんによるゆにばーさるちゃんぴおんしっぷにじどーてきにえんとりーされ、ゆーしょーするとえりあちゃんぴおんしっぷにえんとりーされる。	NO_LABEL
詳細はデータ対戦の項目を参照。	しょーさいわでーたたいせんのこーもくをさんしょー。	NO_LABEL
対戦申し込みにて他のプレイヤーとワンマッチができるモード。	たいせんもーしこみにてたのぷれいやーとわんまっちができるもーど。	NO_LABEL
2004-2005バージョンから開始された、全国からサーバー上に集まったクラブチームがネットワーク上で対戦するネットワーク大会。	NO_PRONOUNCE	NO_LABEL
2005-2006バージョンにて一旦終了し、2009-2010バージョンから大幅な進化を加え復活した。	NO_PRONOUNCE	NO_LABEL
この項では現在稼働中の2017-2018バージョンのデータ対戦を解説する。	NO_PRONOUNCE	NO_LABEL
前述の対戦モードのユニバーサルチャンピオンシップを優勝した店舗によって8つのエリアに分けられ、月曜から土曜まで行われるエリア大会エリアチャンピオンシップを戦い、優勝すれば毎週日曜日に8つのエリアから60チームが集う全国大会ジャパンウィナーズチャンピオンシップに出場できる。	NO_PRONOUNCE	NO_LABEL
2010-2011バージョンから台湾、香港、シンガポール、インドネシアのアジア諸国で展開されるのに伴いアジア地域限定の大会アジアチャンピオンシップが新設され、さらにジャパンウィナーズチャンピオンシップとアジアチャンピオンシップのベスト8以上のチームでデータ対戦世界一を決めるワールドウィナーズチャンピオンシップも開催されることになった。	NO_PRONOUNCE	NO_LABEL
また、上記の大会とは別に2012-2013バージョンから100円を追加投入することでエントリーできるゴールデンチャンピオンシップが新設された。	NO_PRONOUNCE	NO_LABEL
結果はエントリーの翌日にWCCF.NETで確認でき、上位入賞で育成アイテムを獲得できる。	けっかわえんとりーのよくじつにだぶりゅーしーしーえふどっとねっとでかくにんでき、じょーいにゅーしょーでいくせいあいてむをかくとくできる。	NO_LABEL
毎週月曜日から土曜日まで各トーナメント128チームでのノックアウト方式で行われる。	NO_PRONOUNCE	NO_LABEL
この大会に優勝すると、日曜日に開催される全国大会、ジャパンウィナーズチャンピオンシップの出場権を獲得できる。	このたいかいにゆーしょーすると、にちよーびにかいさいされるぜんこくたいかい、じゃぱんうぃなーずちゃんぴおんしっぷのしゅつじょーけんをかくとくできる。	NO_LABEL
優勝者には特殊称号『将軍』とレアアイテムが授与される。	NO_PRONOUNCE	NO_LABEL
毎週日曜日に開催される。	まいしゅーにちよーびにかいさいされる。	NO_LABEL
A〜Pグループの16のグループに各グループ4チームでのリーグ戦を行い、各リーグ1位のみが決勝トーナメントに進出する。	NO_PRONOUNCE	NO_LABEL
決勝トーナメントでベスト8に進出すると自動的にワールドウィナーズチャンピオンシップの出場権を獲得する。	けっしょーとーなめんとでべすとえいとにしんしゅつするとじどーてきにわーるどうぃなーずちゃんぴおんしっぷのしゅつじょーけんをかくとくする。	NO_LABEL
 優勝者には特殊称号『王者』とレアアイテムが授与される。	NO_PRONOUNCE	NO_LABEL
2010-2011バージョンにて新設された、アジア諸国の店舗でエントリーされたチームが集う大会。	NO_PRONOUNCE	NO_LABEL
ジャパンウィナーズチャンピオンシップと同じく日曜日に開催される。	じゃぱんうぃなーずちゃんぴおんしっぷとおなじくにちよーびにかいさいされる。	NO_LABEL
日本と同じく、アジア諸国の店舗のユニバーサルチャンピオンシップを優勝するとエントリーされる。	にっぽんとおなじく、あじあしょこくのてんぽのゆにばーさるちゃんぴおんしっぷをゆーしょーするとえんとりーされる。	NO_LABEL
128チームのトーナメント戦。	NO_PRONOUNCE	NO_LABEL
ベスト8に進出すると自動的にワールドウィナーズチャンピオンシップの出場権を獲得する。	べすとえいとにしんしゅつするとじどーてきにわーるどうぃなーずちゃんぴおんしっぷのしゅつじょーけんをかくとくする。	NO_LABEL
優勝者には特殊称号『アジア王者』とレアアイテムが授与される。	NO_PRONOUNCE	NO_LABEL
なお大会の放映は日本では見ることが出来ない。	なおたいかいのほーえいわにっぽんでわみることができない。	NO_LABEL
毎週日曜日に開催される。	まいしゅーにちよーびにかいさいされる。	NO_LABEL
ジャパンウィナーズチャンピオンシップとアジアウィナーズチャンピオンシップのベスト8以上のチーム計16チームで争われる世界大会。	NO_PRONOUNCE	NO_LABEL
トーナメント方式で行われる。	とーなめんとほーしきでおこなわれる。	NO_LABEL
この大会で優勝すると特殊称号『世界王者』と限定アイテムが授与される。	NO_PRONOUNCE	NO_LABEL
データ対戦の大会の結果やセンターモニターでの放映予定は、公式ウェブサイトのランキングページにて確認出来る他、公式ツイッターでも毎日19時頃にその日開催された大会の結果を確認することが可能。	でーたたいせんのたいかいのけっかやせんたーもにたーでのほーえいよていわ、こーしきうぇぶさいとのらんきんぐぺーじにてかくにんできるほか、こーしきついったーでもまいにちじゅうくじごろにそのひかいさいされたたいかいのけっかをかくにんすることがかのー。	NO_LABEL
02-03までのカード排出チームはイタリアのプロサッカーリーグセリエAのみであったが、以降のバージョンアップでは登場するチームが増えていった。	NO_PRONOUNCE	NO_LABEL
04-05では、イタリアだけでなくFAプレミアリーグ、リーガエスパニョーラエールディビジのクラブが追加されプレイヤーのメンバー選考の幅が飛躍的に広がった。	NO_PRONOUNCE	NO_LABEL
さらに05-06からはリーグ・アンフランスとブンデスリーガ、06-07では登場チームが欧州の枠を飛び越え、ブラジルとアルゼンチンのクラブが追加された。	NO_PRONOUNCE	NO_LABEL
さらに09-10ではポルトガルからFCポルト、10-11ではCSKAモスクワがロシアサッカー・プレミアリーグから初の収録チームとなった。	NO_PRONOUNCE	NO_LABEL
カード化される欧州クラブの基準の一つに、そのシーズンのUEFAチャンピオンズリーグ出場があると考えられているが、07-08にエール・ディヴィジで6位に終わったフェイエノールトが08-09シリーズで引き続き収録された例もあり、版権契約の形態がチームやリーグによってさまざまであるという推測ができる。	NO_PRONOUNCE	NO_LABEL
また、現役選手だけに留まらず、過去の名選手がカード化されていることも本ゲームの特徴である。	また、げんえきせんしゅだけにとまらず、かこのめいせんしゅがかーどかされていることもほんげーむのとくちょーである。	NO_LABEL
まだ現役を続けているスーパースターを絶頂期の能力でカード化したレジェンドカード、またカード化時点で既に現役を引退しているスーパースターをカード化したオールタイムレジェンドカードは、トレーディングカードとしての人気も非常に高いものとなっている。	まだげんえきをつずけているすーぱーすたーをぜっちょーきののーりょくでかーどかしたれじぇんどかーど、またかーどかじてんですでにげんえきをいんたいしているすーぱーすたーをかーどかしたおーるたいむれじぇんどかーどわ、とれーでぃんぐかーどとしてのにんきもひじょーにたかいものとなっている。	NO_LABEL
さらに09-10では元サッカー日本代表、日本代表のレジェンド、元日本代表のオールタイムレジェンド、そして2010年で活躍中の現役日本代表がそれぞれカード化された。	NO_PRONOUNCE	NO_LABEL
10-11、11-12、そして12-13でも現役日本代表選手がカード化されている。	NO_PRONOUNCE	NO_LABEL
ゲームで使用するカードには、「クラブチームカード」と「選手カード」がある。	NO_PRONOUNCE	NO_LABEL
筐体が設置されている場所付近にある自動販売機で、カードスリーブ、スターターパックが購入できる。	きょうたいがせっちされているばしょふきんにあるじどーはんばいきで、かーどすりーぶ、すたーたーぱっくがこーにゅーできる。	NO_LABEL
11-12からはAimeを別に購入する必要がある。	NO_PRONOUNCE	NO_LABEL
選手カードのサイズは一般的なサイズ）より、長手方向が短い81mm×58mmである。	NO_PRONOUNCE	NO_LABEL
これは、アサヒ飲料「オー・プラス」の販促キャンペーンの中田英寿カードを参考にしたものだが、試作品で筐体サイズがあまりにも大きくなってしまったための苦肉の策である、とも言っている。	NO_PRONOUNCE	NO_LABEL
セガ・インタラクティブは2015年7月16日に、偽造選手カードによる不正プレイが行われていることを確認していることを明らかにした。	せがいんたらくてぃぶわにせんじゅうごねんしちがつじゅうろくにちに、ぎぞーせんしゅかーどによるふせいぷれいがおこなわれていることをかくにんしていることをあきらかにした。	NO_LABEL
通称「監督カード」。	NO_PRONOUNCE	NO_LABEL
ひとつのクラブチームに1枚必要。	ひとつのくらぶちーむにいちまいひつよー。	NO_LABEL
ICカードであり、監督の成績や能力、登録選手やその能力の一部が記録される。	あいしーかーどであり、かんとくのせいせきやのーりょく、とーろくせんしゅやそののーりょくのいちぶがきろくされる。	NO_LABEL
クラブチームカード1枚で100試合の監督任期がある。	くらぶちーむかーどいちまいでひゃくしあいのかんとくにんきがある。	NO_LABEL
監督任期が終了したカードに新規のカードを重ねて筐体にセットする事で、監督能力や記録の継承が行える。	かんとくにんきがしゅーりょーしたかーどにしんきのかーどをかさねてきょうたいにせっとすることで、かんとくのーりょくやきろくのけいしょーがおこなえる。	NO_LABEL
11-12ではクラブチームカードからAimeへデータを移行することになり、その役目を終える。	NO_PRONOUNCE	NO_LABEL
選手カードはイタリアのスポーツトレーディングカード企業であるパニーニ社と提携し、パニーニ社が権利を持つ選手写真を使用している。	せんしゅかーどわいたりあのすぽーつとれーでぃんぐかーどきぎょーであるぱにーにしゃとていけいし、ぱにーにしゃがけんりをもつせんしゅしゃしんをしよーしている。	NO_LABEL
カードには、ポジションとオフェンス、ディフェンス、テクニック、パワー、スピード、スタミナの6項目の能力値と特殊能力が設定されており、これらで選手カードの能力・特徴が表現されていく。	NO_PRONOUNCE	NO_LABEL
また、簡単な選手紹介も表記されている。	また、かんたんなせんしゅしょーかいもひょーきされている。	NO_LABEL
ただし、06-07バージョンで追加された「チームスタイル」をはじめ、各選手には公表されていない様々な裏データが存在する。	NO_PRONOUNCE	NO_LABEL
これらは全て筐体に登録されており、カードを使用するときに筐体から呼び出す形のため、カードから直接データを読み取る事は不可能である。	これらわすべてきょうたいにとーろくされており、かーどをしよーするときにきょうたいからよびだすかたちのため、かーどからちょくせつでーたをよみとることわふかのーである。	NO_LABEL
代表的な裏データとして「選手の相性」がある。	NO_PRONOUNCE	NO_LABEL
これはある計算式で選手をカテゴライズし、各カテゴリーごとに選手間連携の上がりやすさを決めたものである。	これわあるけいさんしきでせんしゅをかてごらいずし、かくかてごりーごとにせんしゅかんれんけいのあがりやすさをきめたものである。	NO_LABEL
2016-2017バージョンからは役割適性の項目が追加された。	NO_PRONOUNCE	NO_LABEL
キャプテン適性、フリーキッカー適性、コーナーキッカー適性、PK適性の4つで、B〜Sのランクがある。	NO_PRONOUNCE	NO_LABEL
カードのレアリティは3種類。	かーどのれありてぃわさんしゅるい。	NO_LABEL
チームに含まれるカードの種類とその枚数によって決められたチームのカテゴリをレギュレーションと呼ぶ。	ちーむにふくまれるかーどのしゅるいとそのまいすーによってきめられたちーむのかてごりをれぎゅれーしょんとよぶ。	NO_LABEL
レギュレーションには以下の4種類がある。	れぎゅれーしょんにわいかのよんしゅるいがある。	NO_LABEL
すべてレギュラーカードのみで構成されたチーム。	すべてれぎゅらーかーどのみでこーせいされたちーむ。	NO_LABEL
俗に「全白」などとも呼ばれる。	NO_PRONOUNCE	NO_LABEL
本作品ではいわゆる無名選手はレギュラーカードでカード化されることが多いため、戦力としての制限が厳しい半面、勝った際の監督年俸が上がりやすく、負けても監督年俸の下がり幅が小さい。	ほんさくひんでわいわゆるむめいせんしゅわれぎゅらーかーどでかーどかされることがおーいため、せんりょくとしてのせいげんがきびしいはんめん、かったさいのかんとくねんぽーがあがりやすく、まけてもかんとくねんぽーのしたがりはばがちーさい。	NO_LABEL
ただし、シリーズを重ねるにつれ、キャリアのピークを過ぎたかつての超一流選手がレギュラーカードでカード化されることも珍しくなくなった。	ただし、しりーずをかさねるにつれ、きゃりあのぴーくをすぎたかつてのちょーいちりゅーせんしゅがれぎゅらーかーどでかーどかされることもめずらしくなくなった。	NO_LABEL
そういった選手を用いることで、レギュラーで勝ちを重ねるのは以前よりも難しいことではなくなっている。	そういったせんしゅをもちいることで、れぎゅらーでかちをかさねるのわいぜんよりもむずかしいことでわなくなっている。	NO_LABEL
スペシャルカード、レアカードの合計枚数が5枚以下。	すぺしゃるかーど、れあかーどのごーけいまいすーがごまいいか。	NO_LABEL
メンバー選考が比較的自由に行える上、チームが財政難に陥るリスクも小さい。	めんばーせんこーがひかくてきじゆーにおこなえるうえ、ちーむがざいせいなんにおちいるりすくもちーさい。	NO_LABEL
さらに、レギュラーまたはU-5でのみ参加可能なネットワーク大会等があるため、現在最も流行しているレギュレーションと言える。	NO_PRONOUNCE	NO_LABEL
レアカードの使用枚数が控えメンバーも含め5枚以下、スペシャルカードの使用枚数は自由。	れあかーどのしよーまいすーがひかえめんばーもふくめごまいいか、すぺしゃるかーどのしよーまいすーわじゆー。	NO_LABEL
かなり自由にメンバー選考が行える半面、財政難のリスクも大きい。	かなりじゆーにめんばーせんこーがおこなえるはんめん、ざいせいなんのりすくもおーきい。	NO_LABEL
レアカードが6枚以上のチーム。	れあかーどがろくまいいじょーのちーむ。	NO_LABEL
例えば16枚全てをレアカードにするなども可能で、使用するカードの制限は一切ないが、チームが財政難に陥るリスクは非常に大きい。	たとえばじゅうろくまいすべてをれあかーどにするなどもかのーで、しよーするかーどのせいげんわいっさいないが、ちーむがざいせいなんにおちいるりすくわひじょーにおーきい。	NO_LABEL
本作品ではレギュレーションに関連して、有名選手のレギュラーカードが好まれる傾向がある。	ほんさくひんでわれぎゅれーしょんにかんれんして、ゆーめいせんしゅのれぎゅらーかーどがこのまれるけいこーがある。	NO_LABEL
レギュラーカードはレギュレーションの制限を受けないため、同一選手のレギュラーカードとスペシャルカードが存在する場合、スペシャルカードに比べパラメータが若干落ちていたとしてもレギュラーカードを使い、U-5にするためのレアやスペシャルカードの枠を他選手にまわすといった選考方法を採るプレイヤーが多い。	NO_PRONOUNCE	NO_LABEL
排出停止となったバージョンのレギュラーカードに関しては、ネットオークションなどでレアカード以上の値段がつくこともある。	はいしゅつていしとなったばーじょんのれぎゅらーかーどにかんしてわ、ねっとおーくしょんなどでれあかーどいじょーのねだんがつくこともある。	NO_LABEL
2012年秋から開始された無料のデータ管理サービス。	にせんじゅうにねんあきからかいしされたむりょーのでーたかんりさーびす。	NO_LABEL
Aimeのカード番号、またはSEGA IDを用い、Aimeに登録されたクラブと監督の過去30試合の戦歴や能力、記録などを閲覧できる。	あいみーのかーどばんごー、またわせがあいでぃーをもちい、あいみーにとーろくされたくらぶとかんとくのかこさんじゅうしあいのせんれきやのーりょく、きろくなどをえつらんできる。	NO_LABEL
また、簡単なプロフィールを作成して、フレンドを作成したり、1日1回引けるビンゴボールをフレンドとシェアすることも可能。	また、かんたんなぷろふぃーるをさくせいして、ふれんどをさくせいしたり、ついたちいっかいひけるびんごぼーるをふれんどとしぇあすることもかのー。	NO_LABEL
2013年春には新コンテンツの協会がオープン。	にせんじゅうさんねんはるにわしんこんてんつのきょーかいがおーぷん。	NO_LABEL
2012-2013バージョンの大会からは、U-5に加え、新バージョンのカードを8枚以上使用しなければならないレギュレーション、通称『NEW8』が導入されている。	NO_PRONOUNCE	NO_LABEL
WCCFでは2014年より、ゲーム中に登場する女性秘書などを「WCCFガール」として一般から公募している。	NO_PRONOUNCE	NO_LABEL
