徳田町は、江戸期から現在にかけての青森県弘前市の地名。	とくだちょーわ、えどきからげんざいにかけてのあおもりけんひろさきしのちめい。	NO_LABEL
郵便番号は036-8032。	NO_PRONOUNCE	NO_LABEL
2017年6月1日現在の人口は170人、世帯数は87世帯。	NO_PRONOUNCE	NO_LABEL
青森県道31号弘前鯵ケ沢線沿いに位置し、北は和徳町、東は南横町・北柳町・南柳町・山下町、南東は田代町、南から西にかけて徒町、西は徒町川端町に接する。	NO_PRONOUNCE	NO_LABEL
市立小・中学校に通う場合、学区は以下の通りとなる。	しりつしょーちゅーがっこーにかようばあい、がっくわいかのとーりとなる。	NO_LABEL
角川日本地名大辞典 2 青森県	NO_PRONOUNCE	NO_LABEL
