『WWF WRESTLEMANIA 2000』は、THQより発売されたNINTENDO64用3D対戦格闘ゲームである。	NO_PRONOUNCE	NO_LABEL
2000年4月2日にアメリカ合衆国のプロレス団体WWE（当時はWWF)が開催した年間最大の興行およびPPVを題材とした作品となっている。	NO_PRONOUNCE	NO_LABEL
開発は株式会社アキが担当したNINTENDO64版とナツメが担当したゲームボーイカラー版がある。	かいはつわかぶしきがいしゃあきがたんとーしたにんてんどうろくじゅうよんばんとなつめがたんとーしたげーむぼーいからーばんがある。	NO_LABEL
株式会社アキが開発を担当し、日本では2000年2月11日にアスミック・エースエンタテインメントから発売。	かぶしきがいしゃあきがかいはつをたんとーし、にっぽんでわにせんねんにがつじゅういちにちにあすみっくえーすえんたていんめんとからはつばい。	NO_LABEL
北米・欧州では1999年にTHQから発売されている。	NO_PRONOUNCE	NO_LABEL
アキのバーチャル・プロレスリングシリーズのエンジンを元に開発されているため操作が行い易いやすくレスラーや繰り出せる技も豊富なのが特徴である。	あきのばーちゃるぷろれすりんぐしりーずのえんじんをもとにかいはつされているためそーさがおこないやすいやすくれすらーやくりだせるわざもほーふなのがとくちょーである。	NO_LABEL
日本版と海外版が存在するが、日本版は一部が日本語化されているだけでほとんどが英語のままである。	にほんばんとかいがいばんがそんざいするが、にほんばんわいちぶがにほんごかされているだけでほとんどがえいごのままである。	NO_LABEL
NINTENDO64の振動パックに対応しており、臨場感のあるプレイが可能となっている。	にんてんどうろくじゅうよんのしんどーぱっくにたいおーしており、りんじょーかんのあるぷれいがかのーとなっている。	NO_LABEL
オリジナルレスラーを作成できるモード。	おりじなるれすらーをさくせいできるもーど。	NO_LABEL
バーチャル・プロレスリングシリーズが元になっているので自由度が高いエディットが可能となっている。	ばーちゃるぷろれすりんぐしりーずがもとになっているのでじゆーどがたかいえでぃっとがかのーとなっている。	NO_LABEL
作成したレスラーは各モードで使用できる。	さくせいしたれすらーわかくもーどでしよーできる。	NO_LABEL
データを削除したりできる。	でーたをさくじょしたりできる。	NO_LABEL
■はGB版参戦選手	NO_PRONOUNCE	NO_LABEL
