月城原子力発電所は、大韓民国慶尚北道慶州市陽北面にある原子力発電所。	うぉるそんげんしりょくはつでんしょわ、だいかんみんこくけいしょーほくどーきょんじゅしひほくめんにあるげんしりょくはつでんしょ。	NO_LABEL
運営は韓国水力原子力がおこなっている。	うんえいわかんこくすいりょくげんしりょくがおこなっている。	NO_LABEL
総出力は新月城原子力発電所とあわせて477.9万kWである。	NO_PRONOUNCE	NO_LABEL
1号機から4号機まで、原子炉に世界的に少数派であるCANDU炉を使用していることが特徴。	NO_PRONOUNCE	NO_LABEL
1号機は、韓国内で2番目の原子力発電所として1982年に稼働を開始した。	いちごーきわ、かんこくないでにばんめのげんしりょくはつでんしょとしてせんきゅうひゃくはちじゅうにねんにかどーをかいしした。	NO_LABEL
3、4号機は1990年代に稼働を開始している。	NO_PRONOUNCE	NO_LABEL
2012年7月には新月城1号機が稼働した。	にせんじゅうにねんしちがつにわしんげつじょーいちごーきがかどーした。	NO_LABEL
2015年2月27日、設計寿命とされる30年が過ぎていた1号機の稼動期間を2022年まで延長することが決定したが、安全性についてIAEAの最新の基準を満たしていないという指摘がなされている。	にせんじゅうごねんにがつにじゅうしちにち、せっけいじゅみょーとされるさんじゅうねんがすぎていたいちごーきのかどーきかんをにせんにじゅうにねんまでえんちょーすることがけっていしたが、あんぜんせいについてあいえーいーえーのさいしんのきじゅんをみたしていないとゆうしてきがなされている。	NO_LABEL
月城原発においては過去に故障などのトラブルが50回以上を数えるといい、2012年11月で30年の設計寿命をむかえる1号機は過去10年間で8回故障、特に2012年に入ってからは4回故障している。	うぉるそんげんぱつにおいてわかこにこしょーなどのとらぶるがごじゅっかいいじょーをかぞえるといい、にせんじゅうにねんじゅーいちがつでさんじゅうねんのせっけいじゅみょーをむかえるいちごーきわかこじゅうねんかんではっかいこしょー、とくににせんじゅうにねんにはいってからわよんかいこしょーしている。	NO_LABEL
2012年7月に稼働した新月城1号機でも2013年4月に異常停止が発生。	にせんじゅうにねんしちがつにかどーしたしんげつじょーいちごーきでもにせんじゅうさんねんしがつにいじょーていしがはっせい。	NO_LABEL
5月になって制御ケーブルが試験結果を偽装した不良品であったことが判明したため新古里原子力発電所2号機とともに運転を中止している	ごがつになってせいぎょけーぶるがしけんけっかをぎそーしたふりょーひんであったことがはんめいしたためしんごりげんしりょくはつでんしょにごーきとともにうんてんをちゅーししている	NO_LABEL
