ジェーン・ルードンはイギリスの作家である。	じぇーんるーどんわいぎりすのさっかである。	NO_LABEL
1827年に22世紀に科学者がミイラを復活させるという設定のSFを発表した。	せんはっぴゃくにじゅうななねんににじゅうにせいきにかがくしゃがみいらをふっかつさせるとゆうせっていのえすえふをはっぴょーした。	NO_LABEL
有名な造園家、ジョン・クラウディウス・ルードンと結婚し、園芸や自然科学の分野の著作も行った。	NO_PRONOUNCE	NO_LABEL
バーミンガムのエッジバストンで実業家の娘に生まれた。	ばーみんがむのえっじばすとんでじつぎょーかのむすめにうまれた。	NO_LABEL
12歳で母親をなくし、1年間父親と、ヨーロッパ本土に渡りそこでいくつかの言語を学んだ。	じゅうにさいでははおやをなくし、いちねんかんちちおやと、よーろっぱほんどにわたりそこでいくつかのげんごをまなんだ。	NO_LABEL
父親の事業がうまくいかなくなりエッジバストンの屋敷で家事を手伝った。	ちちおやのじぎょーがうまくいかなくなりえっじばすとんのやしきでかじをてつだった。	NO_LABEL
屋敷の庭で園芸や栽培に関する基本的な知識を得たされる。	やしきのにわでえんげいやさいばいにかんするきほんてきなちしきをえたされる。	NO_LABEL
1824年に父親が死に、生活を支えるために文筆活動をする道を選び、1827年に匿名で小説 ""The Mummy!: A Tale of the Twenty-Second Century""を発表した。	NO_PRONOUNCE	NO_LABEL
これは女性作家による最も早いサイエンス・フィクション作品の一つであるとされ、22世紀の技術は発達したが、道徳的に破綻したイギリスを舞台に科学者が蘇らせたミイラが国の秩序を回復させるという物語である。	これわじょせいさっかによるもっともはやいさいえんすふぃくしょんさくひんのひとつであるとされ、にじゅうにせいきのぎじゅつわはったつしたが、どーとくてきにはたんしたいぎりすをぶたいにかがくしゃがよみがえらせたみいらがくにのちつじょをかいふくさせるとゆうものがたりである。	NO_LABEL
この物語はナポレオンのエジプト遠征で高まったエジプトの遺物の研究や1821年にイギリスの劇場でミイラが公開されたことに着想を得たのだと思われ、また1818年にメアリー・シェリーの小説『フランケンシュタイン』の成功にも影響を受けたと考えられる。	NO_PRONOUNCE	NO_LABEL
この小説について多くの好意的な書評が書かれた。	このしょーせつについておーくのこーいてきなしょひょーがかかれた。	NO_LABEL
その中には、未来の作物の栽培法の着想に興味を持ち、園芸雑誌に書評を書いた造園家、ジョン・ルードンがいて、ルードンの希望で2人は面会し、短いつきあいの後、1830年に2人は結婚した。	NO_PRONOUNCE	NO_LABEL
夫妻の間に、児童向けの著作を行ったことで知られるアグネス・ルードンが生まれた。	NO_PRONOUNCE	NO_LABEL
結婚後は夫の仕事に興味を持ち、女性の立場で、""Gardening for Ladies""などの女性園芸愛好家のための多くの著作を行った。	NO_PRONOUNCE	NO_LABEL
