青梅市交通公園とは、東京都青梅市にある交通公園である。	おーめしこーつーこーえんとわ、とーきょーとおーめしにあるこーつーこーえんである。	NO_LABEL
1981年10月3日開園、4日から一般公開された。	せんきゅうひゃくはちじゅういちねんじゅーがつみっかかいえん、よっかからいっぱんこーかいされた。	NO_LABEL
1980年10月に着工され、総事業費8億6000万円を投じて建設された。	せんきゅうひゃくはちじゅうねんじゅーがつにちゃっこーされ、そーじぎょーひはちおくろくせんまんえんをとーじてけんせつされた。	NO_LABEL
敷地面積は9900平方メートルで、保育園や幼稚園、小学校、交通少年団などが交通安全教室に利用してきた。	NO_PRONOUNCE	NO_LABEL
少子化により利用者は減少傾向にある。	しょーしかによりりよーしゃわげんしょーけいこーにある。	NO_LABEL
2017年の『青梅市公共施設等総合管理計画』は、管理棟が耐震基準を満たしていないことを指摘し、「廃止も含めてあり方を検討する」としている。	NO_PRONOUNCE	NO_LABEL
