文田 博資は、大阪府大阪市出身のシンガーソングライター。	ふみたひろしわ、おーさかふおーさかししゅっしんのしんがーそんぐらいたー。	NO_LABEL
ヒロスケとしてフォーライフレコードに所属し、1980年代に活動。	ひろすけとしてふぉーらいふれこーどにしょぞくし、せんきゅうひゃくはちじゅうねんだいにかつどー。	NO_LABEL
アルバム2枚とシングル数枚を製作。	あるばむにまいとしんぐるすーまいをせいさく。	NO_LABEL
妻はタレントの兵藤ゆき。	つまわたれんとのひょーどーゆき。	NO_LABEL
