『チョコレートTV』は、水野宗徳の小説。	NO_PRONOUNCE	NO_LABEL
『本とも』と『問題小説』に掲載され、2012年2月17日に単行本が徳間書店から、2014年6月6日に徳間文庫版が刊行された。	NO_PRONOUNCE	NO_LABEL
2014年にはテレビドラマ『おわこんTV』が、7月1日から8月19日まで放送された。	NO_PRONOUNCE	NO_LABEL
テレビ局・テレビ番組制作会社で働く裏方たち「テレビマン」の様々な失敗談や奮闘ぶりを6つのエピソードに分けたオムニバスとなっている。	NO_PRONOUNCE	NO_LABEL
『おわこんTV』は、日本のテレビドラマ。	NO_PRONOUNCE	NO_LABEL
主演 ： 千葉真一。	NO_PRONOUNCE	NO_LABEL
2014年7月1日から8月19日まで全8回をNHK BSプレミアム・プレミアムよるドラマで放送された。	NO_PRONOUNCE	NO_LABEL
タイトルの「おわこん」は「終わったコンテンツ」を意味する。	NO_PRONOUNCE	NO_LABEL
サブタイトルは「このドラマ、NHK的に大丈夫？」。	NO_PRONOUNCE	NO_LABEL
ドラマ・バラエティーのコンテンツと人材を輩出してきた業界ドラマを、フジテレビジョンとともに展開してきた共同テレビが制作に携わっている。	NO_PRONOUNCE	NO_LABEL
千葉真一は往年の男臭い演技とは一味違う軽いタッチで、主人公の名物社長・荒巻源次郎を演じている。	NO_PRONOUNCE	NO_LABEL
第1, 2回「ドキュメンタリーは真実ですか？」は文化庁芸術祭参加作品として、10月19日にNHK総合テレビジョンで放送された。	NO_PRONOUNCE	NO_LABEL
このドラマがきっかけで戸次重幸と市川由衣が知り合い、2015年に結婚した。	このどらまがきっかけでとつぎしげゆきといちかわゆいがしりあい、にせんじゅうごねんにけっこんした。	NO_LABEL
テレビ番組制作会社「チョコレートTV」の荒巻源次郎は、業界のウラのウラまで知り尽くす名物社長。	NO_PRONOUNCE	NO_LABEL
社員20名の規模ながらバラエティーやドキュメンタリー、ドラマなどの制作を請け負っている。	NO_PRONOUNCE	NO_LABEL
テレビ業界が栄華を極めたのは過去の話で、普通の会社と変わらず、キー局やスポンサーに気を使うのに今日も必死。	てれびぎょーかいがえいがをきわめたのわかこのはなしで、ふつーのかいしゃとかわらず、きーきょくやすぽんさーにきをつかうのにきょーもひっし。	NO_LABEL
少ない予算と厳しい視聴率競争の中で、荒巻と社員が一丸となって番組制作に打ち込み、テレビ業界の荒波を乗り切っていく。	すくないよさんときびしいしちょーりつきょーそーのなかで、あらまきとしゃいんがいちがんとなってばんぐみせいさくにうちこみ、てれびぎょーかいのあらなみをのりきっていく。	NO_LABEL
