「恋せよ女の子」は、田村ゆかりの8作目のシングル。	NO_PRONOUNCE	NO_LABEL
2005年5月25日、KONAMIより発売。	にせんごねんごがつにじゅうごにち、こなみよりはつばい。	NO_LABEL
『A&Gメディアステーション こむちゃっとカウントダウン』の「こむチャート」で、自身2度目の返り咲きVを達成した楽曲。	NO_PRONOUNCE	NO_LABEL
また、1位獲得回数は計7回で、「童話迷宮」「Princess Rose」と並んで自身タイ記録。	NO_PRONOUNCE	NO_LABEL
