『パンドラの復活』は、青山広美原作、つかさつよし作画による、日本の漫画である 。	NO_PRONOUNCE	NO_LABEL
『ビッグコミック』2012年16号から同年24号まで連載された。	NO_PRONOUNCE	NO_LABEL
単行本は2013年2月に小学館から全1巻で刊行された。	たんこーぼんわにせんじゅうさんねんにがつにしょーがくかんからぜんいちかんでかんこーされた。	NO_LABEL
2011年3月11日の太平洋岸大震災から1年。	にせんじゅういちねんさんがつじゅういちにちのたいへいよーがんだいしんさいからいちねん。	NO_LABEL
謎のテロリスト「パンドラ」は、東京都東太川市のM貯水池に放射能汚染コンクリート片を設置し、原発事故の戦犯13人を処刑せよ、さもなくば放射性瓦礫を日本中にばらまく、と脅迫する。	NO_PRONOUNCE	NO_LABEL
3人の捜査官山村、黒塚、京極がパンドラを追う。	さんにんのそーさかんさんそん、くろつか、きょーごくがぱんどらをおう。	NO_LABEL
犯人の正体、真の目的は…。	はんにんのしょーたい、しんのもくてきわさいれんす	NO_LABEL
