築地病院は、1875年5月22日に、東京府築地に開院した、キリスト教系の病院である。	つきじびょーいんわ、せんはっぴゃくななじゅうごねんごがつにじゅうににちに、とーきょーふつきじにかいいんした、きりすときょーけいのびょーいんである。	NO_LABEL
正式には健康社と呼ばれた。	せいしきにわけんこーしゃとよばれた。	NO_LABEL
現在の聖路加国際病院の前身に当たる。	げんざいのせいるかこくさいびょーいんのぜんしんにあたる。	NO_LABEL
ロバート・デイヴィッドスン宣教師の日本語教師で後に日本基督教会の牧師として活躍した三浦徹の南小田原町3丁目の持ち家で開業し、翌年南小田原町4丁目に移転した。	NO_PRONOUNCE	NO_LABEL
施療棟と入院棟を持ち、医学生の養成も行う、当時最新の西洋医学の病院であった。	せりょーとーとにゅーいんとーをもち、いがくせいのよーせいもおこなう、とーじさいしんのせいよーいがくのびょーいんであった。	NO_LABEL
スコットランド一致長老教会海外伝道局は、開業にあたり600ポンドを出資した、キリスト教系の病院である。	NO_PRONOUNCE	NO_LABEL
ミッションの宣教目的のために医療費は無料だったので、民間には大盛況で年間の来院者は14000人ほどになった。	みっしょんのせんきょーもくてきのためにいりょーひわむりょーだったので、みんかんにわだいせいきょーでねんかんのらいいんしゃわいちまんよんせんにんほどになった。	NO_LABEL
スコットランド一致長老教会の医療宣教師ヘンリー・フォールズが医師として就任した。	すこっとらんどいっちちょーろーきょーかいのいりょーせんきょーしへんりーふぉーるずがいしとしてしゅーにんした。	NO_LABEL
フォールズは外科医、眼科医として活躍した。	ふぉーるずわげかい、がんかいとしてかつやくした。	NO_LABEL
フォールズはグラスゴー医科大学の防腐処理術やコレラの治療などを導入した。	ふぉーるずわぐらすごーいかだいがくのぼーふしょりじゅつやこれらのちりょーなどをどーにゅーした。	NO_LABEL
外国人薬剤師や日本人助手櫛部漸などを雇った。	がいこくじんやくざいしやにっぽんじんじょしゅくしべすすむなどをやとった。	NO_LABEL
後に、櫛部漸は京橋区桶町で開業医になる。	ごに、くしべすすむわきょーばしくおけまちでかいぎょーいになる。	NO_LABEL
フォールズは1886年に離日し、その後病院は次第に荒廃した。	ふぉーるずわせんはっぴゃくはちじゅうろくねんにりにちし、そのごびょーいんわしだいにこーはいした。	NO_LABEL
1902年、米国聖公会のルドルフ・トイスラーが病院の建物を買い取り、新たな病院を設立した。	せんきゅうひゃくにねん、べいこくせいこーかいのるどるふといすらーがびょーいんのたてものをかいとり、あらたなびょーいんをせつりつした。	NO_LABEL
それが聖路加国際病院である。	それがひじりるかこくさいびょーいんである。	NO_LABEL
したがって、本院は聖路加国際病院の前身ではあるが、直接のつながりは持っていない。	したがって、ほんいんわせいるかこくさいびょーいんのぜんしんでわあるが、ちょくせつのつながりわもっていない。	NO_LABEL
東京公会の長老で後に牧師になった奥野昌綱が入院中に、『やまいの床にも』と題する讃美歌を作った。	NO_PRONOUNCE	NO_LABEL
それが後に讃美歌397番になった。	NO_PRONOUNCE	NO_LABEL
