加藤 充志8月14日 - ）は、日本の囲碁棋士。	NO_PRONOUNCE	NO_LABEL
東京都出身、日本棋院所属、菊池康郎に師事、九段。	とーきょーとしゅっしん、にほんきいんしょぞく、きくちやすろーにしじ、くだん。	NO_LABEL
JT杯星座囲碁選手権戦優勝など。	じぇいてぃーはいせいざいごせんしゅけんせんゆーしょーなど。	NO_LABEL
中央を好む棋風。	ちゅーおーをこのむきふー。	NO_LABEL
東京都江東区生まれ。	とーきょーとこーとーくうまれ。	NO_LABEL
9歳の時に祖父から囲碁を学び、菊池康郎の緑星囲碁学園に通う。	きゅうさいのときにそふからいごをまなび、きくちやすろーのりょくせいいごがくえんにかよう。	NO_LABEL
1986年少年少女囲碁大会小学生の部で5位入賞。	せんきゅうひゃくはちじゅうろくねんしょーねんしょーじょいごたいかいしょーがくせいのぶでごいにゅーしょー。	NO_LABEL
その後日本棋院院生となり、1990年入段。	そのごにほんきいんいんせいとなり、せんきゅうひゃくきゅうじゅうねんにゅーだん。	NO_LABEL
1992年棋聖戦三段戦優勝。	せんきゅうひゃくきゅうじゅうにねんきせいせんさんだんせんゆーしょー。	NO_LABEL
1993年四段時に日中スーパー囲碁で4人抜きし「スーパーアツシ君」と呼ばれる。	NO_PRONOUNCE	NO_LABEL
1996年、棋聖戦五段戦優勝、選抜戦でも優勝し、最高棋士決定戦進出。	せんきゅうひゃくきゅうじゅうろくねん、きせいせんごだんせんゆーしょー、せんばつせんでもゆーしょーし、さいこーきしけっていせんしんしゅつ。	NO_LABEL
1997年には六段戦優勝するが選抜戦では準優勝。	せんきゅうひゃくきゅうじゅうななにわろくだんせんゆーしょーするがせんばつせんでわじゅんゆうしょー。	NO_LABEL
1998年JT杯で獅子座の部に優勝して本戦出場、決勝で趙治勲を破って棋戦初優勝。	せんきゅうひゃくきゅうじゅうはちねんじぇいてぃーはいでししざのぶにゆーしょーしてほんせんしゅつじょー、けっしょーでちょーちくんをやぶってきせんはつゆーしょー。	NO_LABEL
2001年王座戦挑戦者決定戦に進出するが趙治勲に敗れる。	にせんいちねんおーざせんちゃれんじゃーけっていせんにしんしゅつするがちょーちくんにやぶれる。	NO_LABEL
同年八段。	どーねんはちだん。	NO_LABEL
2005年から4期連続棋聖戦リーグ入り、2006年はBリーグで4-1と小林覚と同率ながら序列により2位。	にせんごねんからよんきれんぞくきせいせんりーぐいり、にせんろくねんわあるいはびーりーぐでしっぴんとこばやしさとるとどーりつながらじょれつによりにー。	NO_LABEL
2008年NHK杯ベスト4。	にせんはちねんえぬえいちけいはいべすとふぉー。	NO_LABEL
2009年九段。	にせんきゅうねんくだん。	NO_LABEL
好きな碁は本因坊秀和、本因坊秀策。	すきなごわほんいんぼーしゅーわ、ほんいんぼーしゅーさく。	NO_LABEL
プロレスの川田利明のファン。	ぷろれすのかわだとしあきのふぁん。	NO_LABEL
「4人抜き」第8回日中スーパー囲碁第4戦 張文東-加藤充志1993年7月21日	NO_PRONOUNCE	NO_LABEL
黒1から3が面白いコンビネーション。	NO_PRONOUNCE	NO_LABEL
その後上辺を荒らしに来た白を攻め損ねて黒不利となるが、中盤に左下のコウ争いを制して逆転。	そのごうわべをあらしにきたしろをせめそこねてくろふりとなるが、ちゅーばんにひだりしたのこーあらそいをせいしてぎゃくてん。	NO_LABEL
228手まで黒11目半勝。	NO_PRONOUNCE	NO_LABEL
4人抜きを果たした。	よにんぬきをはたした。	NO_LABEL
