IBM 5120コンピューティング・システムは、IBMが1980年に発表したデスクトップコンピュータである。	NO_PRONOUNCE	NO_LABEL
IBM 5110のデスクトップ版で、IBM 5110 モデル3とも呼ばれる。	NO_PRONOUNCE	NO_LABEL
IBM 5120は1980年2月に、IBM 5110ポータブルコンピュータの後継のデスクトップとして発表された。	NO_PRONOUNCE	NO_LABEL
CPUのIBM PALM、内蔵の2つの8インチ 1.2MB フロッピーディスクドライブと、9インチのモノクロームモニター、プログラム言語のBASIC、32KBのRAMを備え、そしてオプションで、追加の8インチ 1.2 MB フロッピーディスクを持つスタンドアロンのIBM 5114 ディスケット装置を使用できた。	NO_PRONOUNCE	NO_LABEL
大きなスクリーンサイズや、前身を超える性能の他に、IBM 5120はいくつかのユーザビリティ上の利点を併せ持って設計された。	NO_PRONOUNCE	NO_LABEL
そのユーザビリティの機能や外見により、IBM 5120は2つの主要な工業デザイン賞を受賞し、「考え抜かれたクリーン」、「繊細な細部が使用時の大きな助けとなる」、「品質といえる」などと記述された	NO_PRONOUNCE	NO_LABEL
IBM 5120は1980年に、それまでで最も低価格なIBMビジネスコンピュータとして販売された。	NO_PRONOUNCE	NO_LABEL
オプションにより、全体のシステム価格は $9,340 から $23,990 の範囲だった。	NO_PRONOUNCE	NO_LABEL
そのオフィスイメージを強調するため、IBMは同年に6つの新プログラムをリリースした 。	そのおふぃすいめーじをきょーちょーするため、あいびーえむわどーねんにむっつのしんぷろぐらむをりりーすした。	NO_LABEL
