岩谷 可奈子は、日本のテレビプロデューサー。	いわたにかなこわ、にっぽんのてれびぷろでゅーさー。	NO_LABEL
NHK職員。	えぬえいちけいしょくいん。	NO_LABEL
2012年時点の役職は、NHK制作局第2制作センター・ドラマ番組部チーフ・プロデューサー。	NO_PRONOUNCE	NO_LABEL
東京都出身。	とーきょーとしゅっしん。	NO_LABEL
1986年に東京大学を卒業し、NHKに入局。	せんきゅうひゃくはちじゅうろくねんにとーきょーだいがくをそつぎょーし、えぬえいちけいににゅーきょく。	NO_LABEL
番組制作局ドラマ部に配属され、2年後、松江局へ異動。	ばんぐみせいさくきょくどらまぶにはいぞくされ、にねんご、まつえきょくえいどー。	NO_LABEL
1991年に東京のドラマ部に戻った後、2004年からチーフプロデューサーを務める。	せんきゅうひゃくきゅうじゅういちねんにとーきょーのどらまぶにもどったのち、にせんよねんからちーふぷろでゅーさーをつとめる。	NO_LABEL
