有松 昇- 1974年）は、日本の官僚、法学者。	NO_PRONOUNCE	NO_LABEL
東京府出身。	とーきょーふしゅっしん。	NO_LABEL
麹町小学校、府立一中、旧制第一高等学校を経て、大正13年東京帝国大学法学部卒業。	こーじまちしょーがっこー、ふりついっちゅー、きゅーせいだいいちこーとーがっこーをへて、たいしょーじゅうさんねんとーきょーていこくだいがくほーがくぶそつぎょー。	NO_LABEL
内務省に入省し、地方府部長・拓務書記官などを歴任。	NO_PRONOUNCE	NO_LABEL
その後、衆議院書記官・内務省警察講習所教頭・行政裁判所評定官・衆議院専門員などを務めた。	NO_PRONOUNCE	NO_LABEL
その間、各国の議会制度、地方制度、警察制度などを研究のため、欧米各国を視察。	そのかん、かっこくのぎかいせいど、ちほーせいど、けいさつせいどなどをけんきゅーのため、おーべいかっこくをしさつ。	NO_LABEL
愛知学院大学法学部教授・昭和女子大学教授を歴任した。	NO_PRONOUNCE	NO_LABEL
他、論文多数。	た、ろんぶんたすー。	NO_LABEL
父は法制局長官などを務めた有松英義。	ちちわほーせいきょくちょーかんなどをつとめたありまつひでよし。	NO_LABEL
