神戸丸は、四国フェリーが運航していたフェリー。	こーべまるわ、しこくふぇりーがうんこーしていたふぇりー。	NO_LABEL
本項目では1991年就航の3代目を取り扱う。	ほんこーもくでわせんきゅうひゃくきゅうじゅういちねんしゅーこーのさんだいめをとりあつかう。	NO_LABEL
神戸丸の代船として讃岐造船鉄工所で建造され、1991年10月14日に就航した。	こーべまるのだいふねとしてさぬきぞーせんてっこーじょでけんぞーされ、せんきゅうひゃくきゅうじゅういちねんじゅーがつじゅうよっかにしゅーこーした。	NO_LABEL
1995年に発生した阪神淡路大震災では、同航路で運航されていた六甲丸、生駒丸、こんぴら2、りつりん2、神高丸の各船と合わせて1月24日から2月2日まで入浴施設の提供を行った。	NO_PRONOUNCE	NO_LABEL
1998年の航路廃止により係船された。	せんきゅうひゃくきゅうじゅうはちねんのこーろはいしによりけいせんされた。	NO_LABEL
2000年、機関室での火災により修理が必要となったりつりん2の代船として加藤汽船に用船され就航した。	NO_PRONOUNCE	NO_LABEL
「りつりん2」の復帰後も予備船として引き続き就航したが、2003年10月、加藤汽船からジャンボフェリーへの航路移管にあたって引退した。	NO_PRONOUNCE	NO_LABEL
2004年、韓国の南海高速に売却され、NAMHAE GOSOK CAR FERRY NO.7となり、鹿洞 - 済州島航路に就航している。	NO_PRONOUNCE	NO_LABEL
四国フェリー	しこくふぇりー	NO_LABEL
加藤汽船	かとーきせん	NO_LABEL
南海高速	なんかいこーそく	NO_LABEL
船体側面は青のラインに赤のSマークがデザインされていた。	NO_PRONOUNCE	NO_LABEL
ファンネルは通常のデザインで左舷後部に1本設置されていた。	ふぁんねるわつーじょーのでざいんでさげんこーぶにいっぽんせっちされていた。	NO_LABEL
1997年5月18日、1時25分ごろ、神戸港から高松港に向かっていた本船は、小豆島地蔵埼灯台の南南西930メートルの地点で、小型タンカー裕洋丸と衝突した。	NO_PRONOUNCE	NO_LABEL
備讃瀬戸東航路東口へ向かって西行していた本船の右舷船首が、同航していた裕洋丸の左舷船首に後方から約15度の角度で衝突、直後に本船の右舷後部と裕洋丸の左舷後部が再度衝突した。	びさんせとひがしこーろひがしぐちえむかってさいぎょーしていたほんせんのうげんせんしゅが、どーこーしていたやすひろまるのさげんせんしゅにこーほーからやくじゅうごどのかくどでしょーとつ、ちょくごにほんせんのうげんこーぶとやすひろまるのさげんこーぶがさいどしょーとつした。	NO_LABEL
衝突により、本船は右舷船首部に軽微な凹損および右舷後部に擦過傷を生じ、裕洋丸は左舷船首部および左舷後部に凹損を生じた。	NO_PRONOUNCE	NO_LABEL
本船は衝突約6分前に裕洋丸を確認していたが、左舷45度から方位の変化なく接近する第三船の動向に集中しており、衝突約3分前には、第三船と衝突の危険を感じて、極微速前進として第三船と裕洋丸へ探照灯を照射したが、衝突に至った。	ほんせんわしょーとつやくろっぷんまえにやすひろまるをかくにんしていたが、さげんよんじゅうごどからほーいのへんかなくせっきんするだいさんせんのどーこーにしゅーちゅーしており、しょーとつやくさんぷんまえにわ、だいさんせんとしょーとつのきけんをかんじて、ごくびそくぜんしんとしてだいさんせんとやすひろまるえたんしょーとーをしょーしゃしたが、しょーとつにいたった。	NO_LABEL
事故原因は、本船が動静監視不十分で、衝突回避措置をとらなかったことにより発生したが、裕洋丸が動静監視不十分で、警告信号を行わず衝突回避措置をとらなかったことも一因とされた。	じこげんいんわ、ほんせんがどーせいかんしふじゅーぶんで、しょーとつかいひそちをとらなかったことによりはっせいしたが、やすひろまるがどーせいかんしふじゅーぶんで、けいこくしんごーをおこなわずしょーとつかいひそちをとらなかったこともいちいんとされた。	NO_LABEL
