加藤 一昭は、愛知県出身の元プロ野球選手。	かとーかずあきわ、あいちけんしゅっしんのもとぷろやきゅーせんしゅ。	NO_LABEL
1957年の登録名は加藤 晃朗、1958年と1959年は加藤 晃郎。	せんきゅうひゃくごじゅうしちねんのとーろくめいわかとーあきろー、せんきゅうひゃくごじゅうはちねんとせんきゅうひゃくごじゅうきゅうねんわかとーあきろー。	NO_LABEL
一宮中学校から明治大学へ進学。	いちのみやちゅーがっこーからめいじだいがくえしんがく。	NO_LABEL
大学卒業後、1950年に中日ドラゴンズへ入団。	だいがくそつぎょーご、せんきゅうひゃくごじゅうねんにちゅーにちどらごんずえにゅーだん。	NO_LABEL
2年目に初勝利を挙げるが思うような結果は残せず、1953年に内野手へ転向。	にねんめにはつしょーりをあげるがおもうよーなけっかわのこせず、せんきゅうひゃくごじゅうさんねんにないやしゅえてんこー。	NO_LABEL
1954年は、社会人野球の大生相互銀行に所属。	せんきゅうひゃくごじゅうよねんわ、しゃかいじんやきゅーのおはえそーごぎんこーにしょぞく。	NO_LABEL
1955年にトンボユニオンズへ移籍し、1956年は5番・一塁手で136試合に出場し、規定打席にも初めて到達した。	NO_PRONOUNCE	NO_LABEL
1957年に高橋と大映との合併によって大映ユニオンズへ移籍。	せんきゅうひゃくごじゅうしちねんにたかはしとだいえいとのがっぺいによってだいえいゆにおんずえいせき。	NO_LABEL
1958年は近鉄パールスへ移籍し、1959年に現役を引退した。	せんきゅうひゃくごじゅうはちねんわきんてつぱーるすえいせきし、せんきゅうひゃくごじゅうきゅうねんにげんえきをいんたいした。	NO_LABEL
