ジョン・アヴネットは、アメリカ合衆国の映画監督、脚本家、映画プロデューサーである。	NO_PRONOUNCE	NO_LABEL
1949年11月17日、ニューヨーク州ニューヨーク市ブルックリン区に生まれる。	せんきゅうひゃくよんじゅうきゅうねんじゅーいちがつじゅうしちにち、にゅーよーくしゅーにゅーよーくしぶるっくりんくにうまれる。	NO_LABEL
1971年、サラ・ローレンス大学を卒業した。	NO_PRONOUNCE	NO_LABEL
1991年、『フライド・グリーン・トマト』で長編映画監督デビューを果たす。	NO_PRONOUNCE	NO_LABEL
1997年には、リチャード・ギア主演の『北京のふたり』を監督した。	NO_PRONOUNCE	NO_LABEL
2008年、ロバート・デ・ニーロとアル・パチーノを主演に迎えた監督作品『ボーダー』が公開された。	NO_PRONOUNCE	NO_LABEL
