怪指紋（かいしもん、原題："Find the Woman")は、1922年のアメリカ合衆国のサイレント映画。	NO_PRONOUNCE	NO_LABEL
本作の監督はトム・テリス が務め、主演はアルマ・ルーベンスが務めた。	NO_PRONOUNCE	NO_LABEL
制作はウィリアム・ランドルフ・ハーストが所有するコスモポリタン・プロダクションが行い、配給はパラマウント映画が行った。	NO_PRONOUNCE	NO_LABEL
不完全なプリントはアメリカ議会図書館に保管されている。	ふかんぜんなぷりんとわあめりかぎかいとしょかんにほかんされている。	NO_LABEL
