株式会社アルファポイントは、名古屋市中区大須に本社を置く、広告代理業・イベント＆プロモーション事業・ITソリューション事業・デザイン業務・旅行事業の5つを事業柱とした企業。	NO_PRONOUNCE	NO_LABEL
1984年に設立して以来、広告・イベントを中心に、業務を拡大。	NO_PRONOUNCE	NO_LABEL
現在は、5つの事業柱とその融合で顧客課題のソリューションを展開している。	げんざいわ、いつつのじぎょーばしらとそのゆーごーでこきゃくかだいのそりゅーしょんをてんかいしている。	NO_LABEL
CM・広告、各種販促ツール、演劇の全国興業の企画・制作	NO_PRONOUNCE	NO_LABEL
演劇の全国興行、全国キャンペーンから地域の産業展、総合ポップカルチャーイベントなど	えんげきのぜんこくこーぎょー、ぜんこくきゃんぺーんからちいきのさんぎょーてん、そーごーぽっぷかるちゃーいべんとなど	NO_LABEL
インターネット、モバイル製品・サービスを駆使した商品展開	NO_PRONOUNCE	NO_LABEL
ホームページの企画・設計・デザイン、導入サポート、SEO対策。	NO_PRONOUNCE	NO_LABEL
行政事業案内・会社案内・施設案内のパンフレット、チラシ・フライヤーなどのハンドアウト、ポスターやロゴマークなどのビジュアルツールなど	NO_PRONOUNCE	NO_LABEL
海外・国内の個人から団体旅行、個人・グループの海外留学の手配、保険加入手配	NO_PRONOUNCE	NO_LABEL
