華 陽子は、元宝塚歌劇団花組娘役スターで、現在は昭和プロダクション所属の女優・タレント。	NO_PRONOUNCE	NO_LABEL
兵庫県芦屋市出身。	ひょーごけんあしやししゅっしん。	NO_LABEL
身長161cm。	しんちょーひゃくろくじゅういちせんちめーとる。	NO_LABEL
宝塚歌劇団時代の愛称はようこ、よーちん。	たからずかかげきだんじだいのあいしょーわよーこ、よーちん。	NO_LABEL
1983年に宝塚音楽学校へ入学し、1985年に卒業と同時に第71期生として宝塚歌劇団へ入団。	せんきゅうひゃくはちじゅうさんねんにたからずかおんがくがっこーえにゅーがくし、せんきゅうひゃくはちじゅうごねんにそつぎょーとどーじにだいななじゅういっきせいとしてたからずかかげきだんえにゅーだん。	NO_LABEL
入団時の成績は6番。	にゅーだんじのせいせきわろくばん。	NO_LABEL
『愛あれば命は永遠に』で初舞台を踏み、後に花組に配属される。	NO_PRONOUNCE	NO_LABEL
同期生には轟悠、愛華みれ、真琴つばさ、稔幸、鮎ゆうきなどがいる。	どーきせいにわとどろきゆー、あいかみれ、まことつばさ、としゆき、あゆゆーきなどがいる。	NO_LABEL
1987年の『あの日薔薇一輪』にて新人公演の初ヒロインを務め、1989年『硬派・坂本竜馬!』で宝塚バウホール公演の初ヒロインを務める。	NO_PRONOUNCE	NO_LABEL
1988年には池田銀行のイメージガールに就任し、1989年の宝塚歌劇ニューヨーク公演のメンバーにも選抜された。	せんきゅうひゃくはちじゅうはちねんにわいけだぎんこーのいめーじがーるにしゅーにんし、せんきゅうひゃくはちじゅうきゅうねんのたからずかかげきにゅーよーくこーえんのめんばーにもせんばつされた。	NO_LABEL
1993年6月28日『メランコリック・ジゴロ／ラ・ノーバ』の千秋楽をもって、宝塚歌劇団を退団。	NO_PRONOUNCE	NO_LABEL
1995年から本格的に女優業に復帰し、復帰後は女優やタレント、リポーターとして活動している。	せんきゅうひゃくきゅうじゅうごねんからほんかくてきにじょゆーぎょーにふっきし、ふっきごわじょゆーやたれんと、りぽーたーとしてかつどーしている。	NO_LABEL
