ISSEI NORO INSPIRITSは、野呂一生により2008年に結成されたフュージョンバンド。	いっせいのろいんすぴりっつわ、のろいっせいによりにせんはちねんにけっせいされたふゅーじょんばんど。	NO_LABEL
同年にアルバム『INNER TIMES』でデビュー、最新作は2017年7月19日発表のアルバム『TURNING』。	NO_PRONOUNCE	NO_LABEL
2006年の野呂自身によるカシオペア活動休止表明後に結成された、野呂のソロ活動におけるメインプロジェクトである。	にせんろくねんののろじしんによるかしおぺあかつどーきゅーしひょーめいごにけっせいされた、のろのそろかつどーにおけるめいんぷろじぇくとである。	NO_LABEL
野呂はリーダー兼メインコンポーザーとして勤めたカシオペアでの活動の合間をぬって、1985年より断続的ながらソロアルバム制作に加え、2001年からはリーダーライブ等のソロプロジェクト活動をしていたが、それらの音楽性は意図してカシオペアとは対照的なものとしてきた。	のろわりーだーけんめいんこんぽーざーとしてつとめたかしおぺあでのかつどーのあいまをぬって、せんきゅうひゃくはちじゅうごねんよりだんぞくてきながらそろあるばむせいさくにくわえ、にせんいちねんからわりーだーらいぶとーのそろぷろじぇくとかつどーをしていたが、それらのおんがくせいわいとしてかしおぺあとわたいしょーてきなものとしてきた。	NO_LABEL
しかし、カシオペアを活動休止させた翌2007年、カシオペアとそれまでのソロプロジェクトを分け隔てなく考えた、野呂曰く「自分がやりたいことをとことん追求」したアルバム『INNER TIMES』を制作し、レコーディングメンバーを制作中にバンド化させて、ソロ名義ではなくそのバンド名のISSEI NORO INSPIRITS名義で発表する。	NO_PRONOUNCE	NO_LABEL
バンド名は造語で、元気の複数形、さらにISSEI NOROの精神からも来ている。	ばんどめいわぞーごで、げんきのふくすーけい、さらにいっせいのろのせいしんからもきている。	NO_LABEL
メンバーは結成以来固定されていて、活動休止させたカシオペアから唯一人引き連れてきた神保彰、カシオペア活動休止後に知り合った扇谷研人と箭島裕治、そして以前のソロプロジェクトから引き続いて林良が参加している。	めんばーわけっせいいらいこていされていて、かつどーきゅーしさせたかしおぺあからただいちにんひきつれてきたじんぼあきら、かしおぺあかつどーきゅーしごにしりあったおーぎやけんととやじまゆーじ、そしていぜんのそろぷろじぇくとからひきつずいてはやしりょーがさんかしている。	NO_LABEL
このメンバーの顔ぶれについて野呂は絶賛を惜しまないが、唯一の悩みどころとして、皆多忙なために一堂に会してのレコーディングやライブが出来る機会が限られていることを挙げている。	このめんばーのかおぶれについてのろわぜっさんをおしまないが、ゆいいつのなやみどころとして、みなたぼーなためにいちどーにかいしてのれこーでぃんぐやらいぶができるきかいがかぎられていることをあげている。	NO_LABEL
現在までに発表されたすべての作品は野呂のセルフ・プロデュース、野呂の作編曲によるもので占められている。	NO_PRONOUNCE	NO_LABEL
また、ライブでも演奏曲目は野呂作曲によるもので占められ、ISSEI NORO INSPIRITSのほかに以前のソロアルバムからの楽曲も加えて演奏されているが、カシオペア名義の楽曲は演奏されていない。	また、らいぶでもえんそーきょくもくわのろさっきょくによるものでしめられ、いっせいのろいんすぴりっつのほかにいぜんのそろあるばむからのがっきょくもくわえてえんそーされているが、かしおぺあめいぎのがっきょくわえんそーされていない。	NO_LABEL
2012年4月20日、カシオペアが6年ぶりの活動再開を表明したその日付の野呂自身のブログ「ISSEI NORO LIFE」にて、ISSEI NORO INSPIRITSを活動継続していくことも表明。	NO_PRONOUNCE	NO_LABEL
2013年、二年ぶりとなるアルバム『MOVEMENT』を発表し、記念ライブも行った。	NO_PRONOUNCE	NO_LABEL
2015年、アルバム『432H』を発表。	NO_PRONOUNCE	NO_LABEL
野呂は前年春の段階で既に収録曲全ての作曲を終えていて、メンバーに書きあげた譜面も渡していたものの、併行して活動中であるCASIOPEA 3rdのスケジュールを優先させて、レコーディングはこの年までずれ込んだため、前作から二年半ぶりという長いインターバルとなった。	のろわぜんねんはるのだんかいですでにしゅーろくきょくすべてのさっきょくをおえていて、めんばーにかきあげたふめんもわたしていたものの、へいこーしてかつどーちゅーであるかしおぺあさーどのすけじゅーるをゆーせんさせて、れこーでぃんぐわこのとしまでずれこんだため、ぜんさくからにねんはんぶりとゆうながいいんたーばるとなった。	NO_LABEL
