草泥馬とは、中国のネット上の電子掲示板、動画などで現れる架空の動物である。	そうでいばとわ、ちゅーごくのねっとじょーのでんしけいじばん、どーがなどであらわれるかくーのどーぶつである。	NO_LABEL
英語では"grass-mud horse"と呼ばれている。	NO_PRONOUNCE	NO_LABEL
「草泥馬」はシマウマやアルパカの姿で表現され、2009年の初め頃から動画サイトなどに投稿され始めた。	NO_PRONOUNCE	NO_LABEL
「草泥馬」は英語の"fuck your mother"に同じ意味の中国語の卑語「、cào nǐ mā、ㄘㄠˋ ㄋㄧˇ ㄇㄚ-」に類似する音の漢字を当てて動物の名前のようにしたものである。	NO_PRONOUNCE	NO_LABEL
元々は2009年初頭に始まった、政府諸機関がネット上から低俗な言葉などを一掃しようとした運動（）に対して、百度百科に「草泥馬」、「四大神獣」という題名の虚構記事が書かれたことがきっかけだった。	NO_PRONOUNCE	NO_LABEL
「四大神獣」は、ネット検閲で削除されてしまう言葉に、同音、声調違いのままで動物の名前のようになる別の漢字を当てはめて、架空の珍獣4体の名前を作り上げ、その生態を面白おかしく書いたものであった。	NO_PRONOUNCE	NO_LABEL
中国のネチズンたちによってこれらのキャラクターを使った風刺がなされるようになり、その中でも「草泥馬」は実写のアルパカの映像を使ったドキュメンタリー風の動画や、童謡を模したアニメーションなどがYoutubeで140万ページビューに達したことで広く知られるようになった。	NO_PRONOUNCE	NO_LABEL
2009年2月9日のCCTV関連ビル火災が起こった際には、CCTVの報道姿勢に否定的なネチズンが火災の画像を元に、「草泥馬」がビルを襲っているコラージュ画像を作っている。	NO_PRONOUNCE	NO_LABEL
キャラクターはさらに増え続け、現在は「十大神獣」となっている。	NO_PRONOUNCE	NO_LABEL
「四大神獣」と比べて他の「六大神獣」はさほど有名ではない。	NO_PRONOUNCE	NO_LABEL
