トムスク州はロシア連邦中部の州。	とむすくしゅーわろしあれんぽーちゅーぶのしゅー。	NO_LABEL
州都はトムスク。	しゅーとわとむすく。	NO_LABEL
シベリア連邦管区に属する。	しべりあれんぽーかんくにぞくする。	NO_LABEL
この地域は、クラスノヤルスク時間帯の標準時を使用している。	このちいきわ、くらすのやるすくじかんたいのひょーじゅんじをしよーしている。	NO_LABEL
時差はUTC+7時間で、夏時間はない。	NO_PRONOUNCE	NO_LABEL
西シベリア平原の南東部、州を南東から北西に向かって流れるオビ川とその支流のチュリム川、ケチ川の流域に広がる。	にししべりあへいげんのなんとーぶ、しゅーをなんとーからほくせいにむかってながれるおびがわとそのしりゅーのちゅりむがわ、けちがわのりゅーいきにひろがる。	NO_LABEL
大部分はタイガや沼地で覆われている。	だいぶぶんわたいがやぬまちでおおわれている。	NO_LABEL
東にクラスノヤルスク地方、北にチュメニ州、西にオムスク州、南にノヴォシビルスク州、ケメロヴォ州と隣り合う。	NO_PRONOUNCE	NO_LABEL
1604年にトムスク市が建設されて以後、ロシア人の入植が始まった。	せんろっぴゃくよんねんにとむすくしがけんせつされていご、ろしあじんのにゅーしょくがはじまった。	NO_LABEL
1804年にトムスク県が設置される。	せんはっぴゃくよんねんにとむすくけんがせっちされる。	NO_LABEL
1830年代に金鉱が発見され、19世紀末にはシベリア鉄道が開通して急速に発展した。	せんはっぴゃくさんじゅうねんだいにきんこーがはっけんされ、じゅうきゅうせいきまつにわしべりあてつどーがかいつーしてきゅーそくにはってんした。	NO_LABEL
1944年8月13日に、ノヴォシビルスク州の分割にともない、トムスク州とされた。	NO_PRONOUNCE	NO_LABEL
原油や天然ガスを産する。	げんゆやてんねんがすをさんする。	NO_LABEL
主な産業は化学工業、石油精製、石油工業、木材加工など。	おもなさんぎょーわかがくこうぎょー、せきゆせいせい、せきゆこーぎょー、もくざいかこーなど。	NO_LABEL
州都トムスクのほかに、主な都市はセヴェルスク、ストレジェヴォイ、アシノ、コルパシェヴォ、ケドロヴイなど。	NO_PRONOUNCE	NO_LABEL
