つがる市は、青森県中西部の市。	つがるしわ、あおもりけんちゅーせいぶのし。	NO_LABEL
青森県内の平仮名市名としては、むつ市に次いで2例目。	NO_PRONOUNCE	NO_LABEL
2011年6月22日、つがる市議会は定数を24から20とする条例改正案を可決した。	NO_PRONOUNCE	NO_LABEL
定数変更は2015年の市議選から適用された。	ていすーへんこーわにせんじゅうごねんのしぎせんからてきよーされた。	NO_LABEL
青森県議会の議員はつがる市選挙区、定員1名で構成される。	NO_PRONOUNCE	NO_LABEL
・三方荒神鹿島獅子…育成小学校	NO_PRONOUNCE	NO_LABEL
〔桑野木田字千年〕県天然記念物、1878年に植栽された日本随一のりんごの古木。	NO_PRONOUNCE	NO_LABEL
