坂口 拓は石川県出身の日本のアクション監督、アクションコーディネーター、映画監督。	さかぐちたくわいしかわけんしゅっしんのにっぽんのあくしょんかんとく、あくしょんこーでぃねーたー、えいがかんとく。	NO_LABEL
ワーサル所属。	わーさるしょぞく。	NO_LABEL
俳優で主にアクション俳優で主役として活動している。	はいゆーでおもにあくしょんはいゆーでしゅやくとしてかつどーしている。	NO_LABEL
『あずみ』、『東京残酷警察』、『戦闘少女 血の鉄仮面伝説』など脇役、悪役も演じることが多い。	NO_PRONOUNCE	NO_LABEL
2013年3月4日に俳優業を引退したが、2014年5月にTAK∴として復帰した。	NO_PRONOUNCE	NO_LABEL
アクション監督時には匠馬敏郎名義でクレジットされることがある。	あくしょんかんとくじにわしょうまとしおめいぎでくれじっとされることがある。	NO_LABEL
出演作は省略。	しゅつえんさくわしょーりゃく。	NO_LABEL
