マリー・ド・モンフェラートはエルサレム王国の女王。	まりーどもんふぇらーとわえるされむおーこくのじょおー。	NO_LABEL
マリーはフランス語名で、イタリア語名はマリーア・ディ・モンフェッラートまたはマリーア・ディ・ジェルサレンメ。	NO_PRONOUNCE	NO_LABEL
イタリアのモンフェッラート侯コンラート1世とエルサレム女王イザベル1世の長女。	いたりあのもんふぇっらーとほーこんらーといっせいとえるされむじょおーいざべるいっせいのちょーじょ。	NO_LABEL
父が1192年4月にティールで暗殺教団によって殺されると、母イザベルは身重の身で5月にシャンパーニュ伯アンリ2世と再婚した。	ちちがせんひゃくきゅうじゅうにねんしがつにてぃーるであんさつきょーだんによってころされると、ははいざべるわみおものみでごがつにしゃんぱーにゅはくあんりにせいとさいこんした。	NO_LABEL
その後生まれたのがマリーであった。	そのごうまれたのがまりーであった。	NO_LABEL
1205年、母の死にともない13歳で即位。	せんにひゃくごねん、ははのしにともないじゅうさんさいでそくい。	NO_LABEL
母の異父弟ベイルート卿ジャンが摂政をつとめた。	ははのいふおとーとべいるーときょーじゃんがせっしょーをつとめた。	NO_LABEL
1210年9月14日、ジャン・ド・ブリエンヌとアクラで政略結婚。	せんにひゃくじゅうねんくがつじゅうよっか、じゃんどぶりえんぬとあくらでせいりゃくけっこん。	NO_LABEL
長女ヨランドを1212年に出産後、産褥熱でマリーは死亡した。	ちょーじょよらんどをせんにひゃくじゅうにねんにしゅっさんご、さんじょくねつでまりーわしぼーした。	NO_LABEL
ヨランドはただちに即位し、ジャンがヨランドの摂政となった。	よらんどわただちにそくいし、じゃんがよらんどのせっしょーとなった。	NO_LABEL
マリーの直系の子孫は、1268年にコンラート3世が南イタリアで処刑されたことで絶えた。	まりーのちょっけいのしそんわ、せんにひゃくろくじゅうはちねんにこんらーとさんせいがみなみいたりあでしょけいされたことでたえた。	NO_LABEL
その後、マリーの異父妹アリス・ド・シャンパーニュの血統が、エルサレム王位を継いだ。	NO_PRONOUNCE	NO_LABEL
