光照寺は愛知県名古屋市南区にある、浄土宗尾張教区城南組に所属する寺院である。	こーしょーじわあいちけんなごやしみなみくにある、じょーどしゅーおわりきょーくしろみなみぐみにしょぞくするじいんである。	NO_LABEL
13世紀初め頃に山田重忠により建立。	じゅうさんせいきはじめごろにやまだしげただによりこんりゅー。	NO_LABEL
開山上人は、名古屋市東区の建中寺の第2世が住職を務めた。	かいさんしょーにんわ、なごやしひがしくのけんちゅうじのだいにせいがじゅーしょくをつとめた。	NO_LABEL
現在は第23世朋譽智弘上人が住職である。	NO_PRONOUNCE	NO_LABEL
末寺として、名古屋市熱田区慈教寺がある。	まつじとして、なごやしあつたくじきょーてらがある。	NO_LABEL
愛知県名古屋市南区星崎2丁目61	NO_PRONOUNCE	NO_LABEL
名鉄名古屋本線 本星崎駅から徒歩約8分	めいてつなごやほんせんもとほしざきえきからとほやくはっぷん	NO_LABEL
