八田 宗吉10月9日 - 1938年1月16日）は、日本の政治家、実業家、陸軍軍人である。	NO_PRONOUNCE	NO_LABEL
幼名は吉之丞。	よーめいわきちのじょー。	NO_LABEL
立憲政友会所属の衆議院議員。	りっけんせいゆーかいしょぞくのしゅーぎーんぎーん。	NO_LABEL
馬議員、鉄道代議士、百姓代議士などの異名があった。	うまぎいん、てつどーだいぎし、ひゃくしょーだいぎしなどのいみょーがあった。	NO_LABEL
 日本医科大学教授で衆議院議員の八田貞義は息子。	にっぽんいかだいがくきょーじゅでしゅーぎーんぎーんのはったさだよしわむすこ。	NO_LABEL
福島県河沼郡日橋村出身。	ふくしまけんかわぬまぐんびはしむらしゅっしん。	NO_LABEL
福島中学を経て、陸軍軍人となり歩兵大尉まで進級している。	ふくしまちゅーがくをへて、りくぐんぐんじんとなりほへいたいいまでしんきゅーしている。	NO_LABEL
故郷である日橋村村長となったのが政治家としての第一歩で、県議会議員、参事会員を歴任。	こきょーであるにっぱしむらそんちょーとなったのがせいじかとしてのだいいっぽで、けんぎかいぎーん、さんじかいいんをれきにん。	NO_LABEL
実業家としては福島県農工銀行、只見川水力電気、日本化学工業、会津電力の役員を務めている。	じつぎょーかとしてわふくしまけんのーこーぎんこー、ただみがわすいりょくでんき、にほんかがくこーぎょー、あいずでんりょくのやくいんをつとめている。	NO_LABEL
1917年福島二区から衆議院議員に初当選。	せんきゅうひゃくじゅうしちねんふくしまにくからしゅーぎーんぎーんにはつとーせん。	NO_LABEL
立憲政友会に所属し、当選は8回を数える。	りっけんせいゆーかいにしょぞくし、とーせんわはっかいをかぞえる。	NO_LABEL
陸軍省参与官、馬政調査委員を務め、日本競馬会の設立や競馬法の成立に尽力。	りくぐんしょーさんよかん、うままさしちょーさいいんをつとめ、にっぽんけいばかいのせつりつやけいばほーのせいりつにじんりょく。	NO_LABEL
会津地域の鉄道整備にも努めている。	あいずちいきのてつどーせいびにもつとめている。	NO_LABEL
 稚松会会員。	いとけなまつあいかいいん。	NO_LABEL
日本中央競馬会 日本競馬140年の歴史	にっぽんちゅーおーけいばかいにっぽんけいばひゃくよんじゅうねんのれきし	NO_LABEL
