平井 香菜子は、日本の元バレーボール選手。	ひらいかなこわ、にっぽんのもとばれーぼーるせんしゅ。	NO_LABEL
ニックネームはアン。	にっくねーむわあん。	NO_LABEL
プレミアリーグ・久光製薬スプリングスに所属していた。	NO_PRONOUNCE	NO_LABEL
三重県津市出身。	みえけんつししゅっしん。	NO_LABEL
両親の影響で中学1年よりバレーボールを始める。	りょーしんのえいきょーでちゅーがくいちねんよりばれーぼーるをはじめる。	NO_LABEL
筑波大学進学後、2005年イズミルユニバーシアード大会に参加、また2007年8月に行われたバンコクユニバーシアード大会において、5位入賞に貢献した。	つくばだいがくしんがくご、にせんごねんいずみるゆにばーしあーどたいかいにさんか、またにせんななねんはちがつにおこなわれたばんこくゆにばーしあーどたいかいにおいて、ごいにゅーしょーにこーけんした。	NO_LABEL
2012年3月、全日本メンバーに登録され、同年5月20日のロンドン五輪世界最終予選で全日本デビューを果たしたが、オリンピック出場メンバー12名には選出されなかった。	NO_PRONOUNCE	NO_LABEL
2012/13Vプレミアリーグでは、チーム6年ぶりの優勝に貢献し、自らもベスト6に輝いた。	NO_PRONOUNCE	NO_LABEL
2013年5月の第62回黒鷲旗大会でも優勝に貢献し、黒鷲賞、ベスト6を獲得した。	にせんじゅうさんねんごがつのだいろくじゅうにかいくろわしきたいかいでもゆーしょーにこーけんし、くろわししょー、べすとしっくすをかくとくした。	NO_LABEL
2013年も全日本メンバーに登録され、5月からのヨーロッパ遠征では主将に任命された。	にせんじゅうさんねんもぜんにほんめんばーにとーろくされ、ごがつからのよーろっぱえんせいでわしゅしょーににんめいされた。	NO_LABEL
2014年10月1日を以て、現役を引退することが発表された。	にせんじゅうよねんじゅーがつついたちをもって、げんえきをいんたいすることがはっぴょーされた。	NO_LABEL
Vプレミアリーグレギュラーラウンドにおける個人成績は下記の通り。	ぶいぷれみありーぐれぎゅらーらうんどにおけるこじんせいせきわかきのとーり。	NO_LABEL
