中西 敏夫は、日本の薬剤師。	なかにしとしおわ、にっぽんのやくざいし。	NO_LABEL
社団法人日本薬剤師会元会長。	しゃだんほーじんにほんやくざいしかいもとかいちょー。	NO_LABEL
愛知県生まれ。	あいちけんうまれ。	NO_LABEL
1960年近畿大学薬学部卒業。	せんきゅうひゃくろくじゅうねんきんきだいがくやくがくぶそつぎょー。	NO_LABEL
1961年愛知県名古屋市で中西薬局を開設。	せんきゅうひゃくろくじゅういちねんあいちけんなごやしでなかにしやっきょくをかいせつ。	NO_LABEL
1983年株式会社中部調剤センター・アールシー薬局開設。	NO_PRONOUNCE	NO_LABEL
1981年から愛知県薬剤師会理事、1992年から日本薬剤師会常務理事、2000年から日本薬剤師会副会長などを務めるかたわら、厚生省医療保険福祉審議会委員などを歴任した。	せんきゅうひゃくはちじゅういちねんからあいちけんやくざいしかいりじ、せんきゅうひゃくきゅうじゅうにねんからにほんやくざいしかいじょーむりじ、にせんねんからにほんやくざいしかいふくかいちょーなどをつとめるかたわら、こーせいしょーいりょーほけんふくししんぎかいいいんなどをれきにんした。	NO_LABEL
2002年～2008年日本薬剤師会副会長を3期6年務める。	NO_PRONOUNCE	NO_LABEL
2014年9月15日、肺塞栓のため死去。	NO_PRONOUNCE	NO_LABEL
78歳没。	ななじゅうはっさいぼつ。	NO_LABEL
