『裸でどこ行くの?』は、1969年製作・公開、パスクァーレ・フェスタ・カンパニーレ監督のイタリア映画である。	NO_PRONOUNCE	NO_LABEL
イタリア式コメディの1作である。	NO_PRONOUNCE	NO_LABEL
本作は、1969年、チェッキ・ゴーリ・グループ代表のマリオ・チェッキ・ゴーリが経営するフェア・フィルムが製作、同年完成した。	NO_PRONOUNCE	NO_LABEL
オッタヴィオ・イェンマの執筆した原案を、イェンマ、パスクァーレ・フェスタ・カンパニーレ、サンドロ・コンティエンツァ、ルイジ・マレルバの4人が脚本を共同執筆した。	NO_PRONOUNCE	NO_LABEL
プロデューサーのマリオ・チェッキ・ゴーリが法律家の役で出演している。	ぷろでゅーさーのまりおちぇっきごーりがほーりつかのやくでしゅつえんしている。	NO_LABEL
本作は、イタリアでは、同年9月12日、西ドイツでは翌1970年4月24日に公開された。	もとさくわ、いたりあでわ、どーねんくがつじゅうににち、にしどいつでわよくせんきゅうひゃくななじゅうねんしがつにじゅうよっかにこーかいされた。	NO_LABEL
2010年1月19日、「89分」のヴァージョンでDVDがチェッキ・ゴーリ・ヴィデオによりイタリアで発売された。	NO_PRONOUNCE	NO_LABEL
日本では、2011年2月現在に至るまで劇場公開、テレビ放映、DVD等のビデオグラム販売等は行われていない。	にっぽんでわ、にせんじゅういちねんにがつげんざいにいたるまでげきじょーこーかい、てれびほーえい、でぃーぶいでぃーとーのびでおぐらむはんばいとーわおこなわれていない。	NO_LABEL
若い銀行員のマンフレードがある朝、目が醒めると隣に美女が全裸で眠っていた。	わかいぎんこういんのまんふれーどがあるあさ、めがさめるととなりにびじょがぜんらでねむっていた。	NO_LABEL
全裸のトニーノによれば、前夜に出逢って、スピード結婚したのだという。	ぜんらのとにーのによれば、ぜんやにであって、すぴーどけっこんしたのだという。	NO_LABEL
マンフレードは昨夜のことは酔っ払っていてまったく憶えていない。	まんふれーどわさくやのことわよっぱらっていてまったくおぼえていない。	NO_LABEL
マンフレードと同じ建物に住む社長とその夫人を、妻トニーノの裸族という性癖や自由奔放な性格が、とんでもない事件につぎつぎに巻き込んでいく。	まんふれーどとおなじたてものにすむしゃちょーとそのふじんを、つまとにーののらぞくとゆうせいへきやじゆーほんぽーなせいかくが、とんでもないじけんにつぎつぎにまきこんでいく。	NO_LABEL
