『COMPLEX 20110730 日本一心』は、COMPLEXのライブビデオ。	NO_PRONOUNCE	NO_LABEL
DVD盤は2011年11月10日までローソンのロッピーにて予約受付、11月21日よりローソン店頭引渡しという完全予約限定販売だった。	でぃーぶいでぃーばんわにせんじゅういちねんじゅーいちがつとおかまでろーそんのろっぴーにてよやくうけつけ、じゅーいちがつにじゅういちにちよりろーそんてんとーひきわたしとゆうかんぜんよやくげんていはんばいだった。	NO_LABEL
Blu-ray盤は2012年6月20日までローソンのロッピーにて予約受付、7月30日よりローソン店頭引渡となる完全予約限定販売だった。	NO_PRONOUNCE	NO_LABEL
Blu-ray盤にのみ特典として2枚組のライブCD『COMPLEX 20110731 日本一心』が付属した。	NO_PRONOUNCE	NO_LABEL
曲目・曲順はライブビデオと同様。	NO_PRONOUNCE	NO_LABEL
ただし収録されたのは2日目の2011年7月31日のライブ音源となった。	ただししゅーろくされたのわふつかのにせんじゅういちねんしちがつさんじゅういちにちのらいぶおんげんとなった。	NO_LABEL
ライブで演奏された曲目・曲順は1990年11月8日での東京ドームライブと同じである。	NO_PRONOUNCE	NO_LABEL
『19901108』として作品化されたライブビデオおよびライブアルバムでは全曲の収録は行われなかったが、今作品では全曲が演奏順で収録されている。	NO_PRONOUNCE	NO_LABEL
