『怒りの湖底怪獣・ネッシーの大逆襲』はアメリカの映画作品。	NO_PRONOUNCE	NO_LABEL
第二次世界大戦中、ネス湖にドイツ空軍の爆撃機が墜落。	だいにじせかいたいせんちゅー、ねすこにどいつくーぐんのばくげききがついらく。	NO_LABEL
さらにその現場でネッシーが目撃される。	さらにそのげんばでねっしーがもくげきされる。	NO_LABEL
40年後、ネッシーを探していたダイバーが、湖底で爆撃機とネッシーの卵を発見。	よんじゅうねんご、ねっしーをさがしていただいばーが、こていでばくげききとねっしーのたまごをはっけん。	NO_LABEL
卵を捕獲するが、卵を取り返そうと怒ったネッシーの親によってダイバーが一人食われてしまう。	たまごをほかくするが、たまごをとりかえそうとおこったねっしーのおやによってだいばーがひとりくわれてしまう。	NO_LABEL
ダイバーの雇い主である興行師は卵を持って逃走する。	だいばーのやといぬしであるこーぎょーしわたまごをもってとーそーする。	NO_LABEL
翌日、ネス湖にネッシーの調査のために学者が訪れ、地元の貴族の老人とその孫娘とともにネッシーを捜索する。	よくじつ、ねすこにねっしーのちょーさのためにがくしゃがおとずれ、じもとのきぞくのろーじんとそのまごむすめとともにねっしーをそーさくする。	NO_LABEL
さらに湖に墜落した爆撃機を秘密裏に爆破しようと軍も登場。	さらにみずうみについらくしたばくげききをひみつりにばくはしよーとぐんもとーじょー。	NO_LABEL
親ネッシーは卵を探して陸上を徘徊し、遭遇した人間を襲っていた。	しんねっしーわたまごをさがしてりくじょーをはいかいし、そーぐーしたにんげんをおそっていた。	NO_LABEL
卵を盗んだ興行師はネッシーに食われてしまい、湖に沈んだ爆撃機に関する陰謀も明らかとなる。	たまごをぬすんだこーぎょーしわねっしーにくわれてしまい、みずうみにしずんだばくげききにかんするいんぼーもあきらかとなる。	NO_LABEL
ネッシーは爆撃機もろとも爆破されるが、学者と孫娘はネッシーの卵を湖に帰すのだった。	ねっしーわばくげききもろともばくはされるが、がくしゃとまごむすめわねっしーのたまごをみずうみにきすのだった。	NO_LABEL
