『バガー・ヴァンスの伝説』は、2000年のアメリカ映画。	NO_PRONOUNCE	NO_LABEL
スティーヴン・プレスフィールドの小説をロバート・レッドフォード監督が映画化したゴルフ映画である。	NO_PRONOUNCE	NO_LABEL
1930年代のジョージア州サバンナ。	せんきゅうひゃくさんじゅうねんだいのじょーじあしゅーさばんな。	NO_LABEL
ラナルフ・ジュナは天才ゴルファーとして将来を期待されていたが、第一次世界大戦の時に受けたショックで自堕落な生活を送るようになっていた。	NO_PRONOUNCE	NO_LABEL
だが、そんな彼の前に突然現れたキャディー、バガー・ヴァンスの助けによって次第に過去の自分を取り戻していく。	NO_PRONOUNCE	NO_LABEL
北米2061館で公開され、初週末3日間で約1151万ドルを稼ぎ、『チャーリーズ・エンジェル』、5週目の『ミート・ザ・ペアレンツ』に次いで初登場3位となった。	NO_PRONOUNCE	NO_LABEL
