『放課後ティータイムII』は、「放課後ティータイム」の1枚目のフルアルバム。	NO_PRONOUNCE	NO_LABEL
2010年10月27日にポニーキャニオンから発売された。	にせんじゅうねんじゅーがつにじゅうしちにちにぽにーきゃにおんからはつばいされた。	NO_LABEL
TBS系列で放送のテレビアニメ『けいおん!!』の劇中歌を収録した作品。	NO_PRONOUNCE	NO_LABEL
「放課後ティータイム」とは、同作に登場する平沢唯、秋山澪、田井中律、琴吹紬、中野梓のキャラクター5人によるバンドユニット。	NO_PRONOUNCE	NO_LABEL
歌っているのは、各キャラクターの声を演じる豊崎愛生、日笠陽子、佐藤聡美、寿美菜子、竹達彩奈の5人の声優。	うたっているのわ、かくきゃらくたーのこえをえんじるとよさきあき、ひかさよーこ、さとーさとみ、ことぶきみなこ、たけたつあやなのごにんのせいゆー。	NO_LABEL
CDは2枚組の構成になっている。	きゃっしゅでぃすぺんさーわにまいぐみのこーせいになっている。	NO_LABEL
前作『放課後ティータイム』はミニアルバムであったが、本作はフルアルバムとなっている。	NO_PRONOUNCE	NO_LABEL
Disc-1には、すでにシングルで発売されている『ぴゅあぴゅあはーと』『ごはんはおかず/U&I』をはじめ、第24話「卒業式!」で演奏された『天使にふれたよ!』、劇中ではタイトルや歌詞の一部のみ出た曲などの未発表曲、ボーナストラックの計10曲を収録している。	NO_PRONOUNCE	NO_LABEL
Disc-2には、第23話「放課後!」の劇中で、カセットに録音した音源を再現する形で収録しており、曲目もDisc-1のうち『天使にふれたよ!』『放課後ティータイム』の2曲を除く全曲に、前作のアルバム『放課後ティータイム』収録の4曲を加えた形で構成、メンバー5人と、途中より軽音楽部顧問の山中さわ子の会話部分 も含めて収録している。	NO_PRONOUNCE	NO_LABEL
ヴォーカル、演奏ともに、Disc-1とは別の録音テイクが使われている。	NO_PRONOUNCE	NO_LABEL
また、初回限定盤ではCD2枚に加え、Disc-2の内容を収録したカセットテープが同梱される。	NO_PRONOUNCE	NO_LABEL
これまで発表された劇中歌同様、作詞・作曲は設定上登場人物が手掛けたことになっているが、実作詞・作編曲は別の人物が担当している。	NO_PRONOUNCE	NO_LABEL
2013年3月20日に発売された『K-ON! MUSIC HISTORY'S BOX』で、本作の「Disc-1」がディスク4、「Disc-2」がディスク5として収録されている。	NO_PRONOUNCE	NO_LABEL
オリコンチャートでは、2010年10月26日付のアルバムデイリーランキングで初登場1位を獲得、初日だけで5万枚以上売り上げる猛烈なスタートを切った。	NO_PRONOUNCE	NO_LABEL
以降29日までの4日間にわたり1位を守った。	いこーにじゅうくにちまでのよっかにわたりいちーをまもった。	NO_LABEL
また、同年11月8日付週間チャートでも、前作『放課後ティータイム』に続いて2作連続で1位となり、初動売り上げ枚数も前作初動の約2倍となる12.7万枚を記録した。	NO_PRONOUNCE	NO_LABEL
売り上げは2週目で1stアルバム『放課後ティータイム』の累計売上を上回った。	NO_PRONOUNCE	NO_LABEL
また、アニメキャラクター名義としては史上初の初動10万枚突破作品となり、声優のアルバムとしても林原めぐみの「iravati」に次ぐ初動第2位となった。	NO_PRONOUNCE	NO_LABEL
月間順位では、声優関連、アニメキャラクター名義のアルバムとしては過去最高の3位にランクインし、オリコン史上初の2か月連続TOP10入りを記録した。	NO_PRONOUNCE	NO_LABEL
2010年の年間チャートでは36位にランクインし、オリコン史上初めて声優によるアルバムが年間TOP50に入った。	にせんじゅうねんのねんかんちゃーとでわさんじゅうろくいにらんくいんし、おりこんしじょーはじめてせいゆーによるあるばむがねんかんとぅぴーごじゅーにはいった。	NO_LABEL
日本レコード協会より2010年10月度ゴールド認定作品 、2012年度1月度プラチナ認定作品と発表された。	にほんれこーどきょーかいよりにせんじゅうねんじゅーがつどごーるどにんていさくひん、にせんじゅうにねんどいちがつどぷらちなにんていさくひんとはっぴょーされた。	NO_LABEL
『けいおん!』関連のCDのゴールド認定は、第1期・第2期を通して今回が8作目となり、プラチナ認定は今作が初となる。	NO_PRONOUNCE	NO_LABEL
なお、アニメキャラクターのCDによるオリコン週間1位は、その後「μ's Best Album Best Live! collection II」が獲得している。	NO_PRONOUNCE	NO_LABEL
