舟入南町停留場は、広島市中区舟入南四丁目・五丁目にある広島電鉄江波線の路面電車停留場である。	NO_PRONOUNCE	NO_LABEL
1943年12月に土橋から舟入本町までの区間が開通した江波線は、その半年後の1944年6月に舟入本町から延伸、舟入南町停留場はこのとき路線の終点として開業した。	せんきゅうひゃくよんじゅうさんねじゅーにがつにどばしからふないりほんまちまでのくかんがかいつーしたえばせんわ、そのはんとしごのせんきゅうひゃくよんじゅうよねんろくがつにふないりほんまちからえんしん、ふないりみなみまちていりゅーじょーわこのときろせんのしゅーてんとしてかいぎょーした。	NO_LABEL
しかしその翌年の1945年8月6日には広島市に原爆が投下され、江波線をはじめとして広島電鉄の市内電車は全線が不通となる。	しかしそのよくねんのせんきゅうひゃくよんじゅうごねんはちがつむいかにわひろしましにげんばくがとーかされ、えばせんをはじめとしてひろしまでんてつのしないでんしゃわぜんせんがふつーとなる。	NO_LABEL
江波線が被爆から復旧したのは1947年11月のことで、このとき停留場名は江波口停留場へと改称された。	えばせんがひばくからふっきゅーしたのわせんきゅうひゃくよんじゅうななねじゅーいちがつのことで、このときていりゅーじょーめいわえばぐちていりゅーじょーえとかいしょーされた。	NO_LABEL
路線はその後1954年には当停留場から延長され、新たに江波口停留場が開業、このころ当停留場はグランド口停留場へと改称された。	ろせんわそのごせんきゅうひゃくごじゅうよねんにわとーていりゅーじょーからえんちょーされ、あらたにえばぐちていりゅーじょーがかいぎょー、このころとーていりゅーじょーわぐらんどぐちていりゅーじょーえとかいしょーされた。	NO_LABEL
この「グランド」は西区観音新町にある広島県総合グランドを指す。	NO_PRONOUNCE	NO_LABEL
その後1960年ころには舟入南町へと改称され、開業時の停留場名に戻っている。	そのごせんきゅうひゃくろくじゅうねんころにわふないりみなみまちえとかいしょーされ、かいぎょーじのていりゅーじょーめいにもどっている。	NO_LABEL
江波線の軌道は道路上に敷かれた併用軌道であり、当停留場も道路上にホームが設けられている。	えばせんのきどーわどーろじょーにしかれたへいよーきどーであり、とーていりゅーじょーもどーろじょーにほーむがもーけられている。	NO_LABEL
ホームは低床式で2面あり、南北方向に伸びる2本の線路を挟んで配置されている。	NO_PRONOUNCE	NO_LABEL
ただし互いのホームは斜向かいに位置していて、北に土橋方面へ向かう上りホームが、南に江波方面へ向かう下りホームがある。	ただしたがいのほーむわはすむかいにいちしていて、きたにどばしほーめんえむかうのぼりほーむが、みなみにえばほーめんえむかうくだりほーむがある。	NO_LABEL
かつては両ホームが線路を挟んで向かい合う相対式ホームであった。	かつてわりょーほーむがせんろをはさんでむかいあうそーたいしきほーむであった。	NO_LABEL
両ホームともに、連接車両に対応した長さを持つ。	りょーほーむともに、れんせつしゃりょーにたいおーしたながさをもつ。	NO_LABEL
当停留場には広島電鉄で運行されている系統のうち、6号線、8号線、9号線が乗り入れている。	とーていりゅーじょーにわひろしまでんてつでうんこーされているけいとーのうち、ろくごーせん、はちごーせん、きゅうごーせんがのりいれている。	NO_LABEL
停留場名になっている「舟入南町」という町名は1968年に廃止されていて、現在は「舟入南」となっている。	NO_PRONOUNCE	NO_LABEL
