商原君- 1733年7月31日は、李氏朝鮮の王族。	NO_PRONOUNCE	NO_LABEL
本貫は全州李氏。	ほんがんわぜんしゅーりし。	NO_LABEL
幼名は「尚大」、初名は「晋錫」。	NO_PRONOUNCE	NO_LABEL
諱は「糼」。	NO_PRONOUNCE	NO_LABEL
密豊君第二子。	みつゆたかくんだいにし。	NO_LABEL
昭顕世子の玄孫に当たり、実父の密豊君は李麟佐の乱に於いて国王に推戴されたが不発に終わり賜死されている。	しょうけんせいしのげんそんにあたり、じっぷのみつゆたかくんわりりんさのらんにおいてこくおーにすいたいされたがふはつにおわりたまものしされている。	NO_LABEL
17歳で卒去した。	じゅうななさいでそっきょした。	NO_LABEL
卒後は延齢君からの家督相続は解消されて、改めて延齢君の家督相続は洛川君が受けている。	そつごわよんりょんぐんからのかとくそーぞくわかいしょーされて、あらためてよんりょんぐんのかとくそーぞくわらくがわくんがうけている。	NO_LABEL
1715年密豊君第二子として誕生した。	せんななひゃくじゅうごねんみつゆたかくんだいにしとしてたんじょーした。	NO_LABEL
1728年1月17日延齢君の家督相続を受けて、名を「晋錫」から「糼」に改名して、商原君に封爵、承憲大夫の官位を受ける。	NO_PRONOUNCE	NO_LABEL
この時は13歳であり、王室典範では王族は15歳未満では君号を封爵しないと有るが、英祖の特命によって挙行された。	NO_PRONOUNCE	NO_LABEL
1728年李麟佐の乱に於いて密豊君が賜死された際には、臣下からは商原君も同罪に処刑すべきと進言したが、英祖の特命によって免罪となった。	せんななひゃくにじゅうはちねんりりんさのらんにおいてみつゆたかくんがたまものしされたさいにわ、しんかからわしょーはらくんもどーざいにしょけいすべきとしんげんしたが、えいそのとくめいによってめんざいとなった。	NO_LABEL
1733年7月31日卒去した。	せんななひゃくさんじゅうさんねんしちがつさんじゅういちにちそっきょした。	NO_LABEL
8月1日限りで朝市を停止して、処刑、屠殺などを禁止した。	はちがつついたちかぎりであさいちをていしして、しょけい、とさつなどをきんしした。	NO_LABEL
8月7日延齢君からの家督相続は解消された。	はちがつなのかよんりょんぐんからのかとくそーぞくわかいしょーされた。	NO_LABEL
婚約については宋成明の娘が候補に上がったが、宋成明が密豊君は反逆者であるから受け入れないと固辞した。	こんやくについてわそーしげあきのむすめがこーほにあがったが、そーしげあきがみつゆたかくんわとりずなーであるからうけいれないとこじした。	NO_LABEL
