相原 恭子は、日本の著作家、写真家。	あいはらきょーこわ、にっぽんのちょさくか、しゃしんか。	NO_LABEL
慶應義塾大学文学部哲学科卒業。	けいおーぎじゅくだいがくぶんがくぶてつがくかそつぎょー。	NO_LABEL
ドイツ政府観光局勤務を経て、1994年より作家・写真家活動に入る。	NO_PRONOUNCE	NO_LABEL
エッセイやノンフィクションと写真を組み合わせた著書を発表。	えっせいやのんふぃくしょんとしゃしんをくみあわせたちょしょをはっぴょー。	NO_LABEL
ヨーロッパ、京都花街、ビールを中心とする食文化などをテーマに執筆、写真撮影、講演を続ける。	よーろっぱ、きょーとはなまち、びーるをちゅーしんとするしょくぶんかなどをてーまにしっぴつ、しゃしんさつえい、こーえんをつずける。	NO_LABEL
京都花街に関しては、日本在住の日本人で、ヨーロッパ文化に精通し、英語で原稿を書き、写真も撮影できる人を探していた「Carlton Books, London, UK」から依頼を受けて、撮影・執筆を開始。	NO_PRONOUNCE	NO_LABEL
2000年に英語の著書「Geisha - A living tradition」が刊行され、ハンガリー語、フランス語、ポーランド語に翻訳され、ヨーロッパ、北米、南米、オセアニアなど各国で刊行されている。	NO_PRONOUNCE	NO_LABEL
その後、日本国内でも、文藝春秋、小学館、弘文堂、淡交社などから京都花街に関する著書が刊行され、2011年には国際交流基金やその他のスポンサーの助成・後援により、エストニアとハンガリーで、京都花街と着物に関する写真展を講演会が開催。	NO_PRONOUNCE	NO_LABEL
2015年3月には国際交流基金、その他のスポンサーの助成・後援によりスペイン7都市の大学や文化センターにて講演会「日本文化の豊かさ　京都花街　舞妓と芸妓の世界」が開催。	NO_PRONOUNCE	NO_LABEL
)	NO_PRONOUNCE	NO_LABEL
＜ヨーロッパ＞	NO_PRONOUNCE	NO_LABEL
＜ビールと食文化＞	NO_PRONOUNCE	NO_LABEL
＜京都花街＞	NO_PRONOUNCE	NO_LABEL
　「着物との対話」　	NO_PRONOUNCE	NO_LABEL
「着物との対話」　	NO_PRONOUNCE	NO_LABEL
「知っていそうで知らない日本文化　～日本文化の豊かさ　京都花街　舞妓・芸妓の世界～」	NO_PRONOUNCE	NO_LABEL
主催：国際交流基金マドリード日本文化センター　後援：各大学、kyocera、日本大使館	NO_PRONOUNCE	NO_LABEL
　　第1回　サラゴサ大学、第2回　カサ・アジア、第3回　グラナダ大学、第4回　マラガ大学、第5回　セヴィリア大学、第6回　サンティアゴ大学、第7回　国際交流基金マドリード日本文化センター	NO_PRONOUNCE	NO_LABEL
