『たのしい一年生』は、かつて存在した日本の学年別の総合雑誌である。	NO_PRONOUNCE	NO_LABEL
編集・発行講談社。	NO_PRONOUNCE	NO_LABEL
「講談社の繪本」シリーズとして学期ごとに発行した書籍『タノシイ一年生』、『國民學校タノシイ一年生』、同じく同絵本シリーズの『たのしい一年生』を前身とする。	NO_PRONOUNCE	NO_LABEL
1956年9月月刊誌化、1963年3月休刊。	せんきゅうひゃくごじゅうろくねんくがつげっかんしか、せんきゅうひゃくろくじゅうさんねんさんがつきゅーかん。	NO_LABEL
本項では、追って創刊されたが短命に終わった『たのしい二年生』、『たのしい三年生』、『たのしい四年生』、『たのしい五年生』、『たのしい六年生』についても詳述する。	NO_PRONOUNCE	NO_LABEL
休刊後の時期にかつて存在した、同社による同名の小学校入学準備雑誌については、	きゅーかんごのじきにかつてそんざいした、どーしゃによるどーめいのしょーがっこーにゅーがくじゅんびざっしについてわ、	NO_LABEL
大日本雄辯會講談社が、第二次世界大戦後の「講談社の絵本」の前身となる「講談社の繪本」のリリースを、1936年12月に開始し、その2年後の1939年4月、同シリーズの第104巻として、尋常小学校への新入学に向けた書籍『タノシイ一年生』を発行したのが、そもそもの始まりであった。	NO_PRONOUNCE	NO_LABEL
監修に迎えた東京高等師範学校訓導であった教育学者の田中豊太郎、東京市緑尋常小学校第6代校長の福島鶴吉、東京目白保姆学校の創立者・和田實を迎える。	NO_PRONOUNCE	NO_LABEL
1945年の第二次世界大戦後は、野間省一が4代目社長に就任し、「講談社の繪本」は「講談社の絵本」と新字体になるとともに通巻を改め、1950年3月15日には、戦前と同じく学期始めごとの書籍として、『たのしい一年生 だい一がっき』を刊行した。	NO_PRONOUNCE	NO_LABEL
このシリーズは、1956年3月発行の『たのしい一年生 だい一がっき』まで続いた。	NO_PRONOUNCE	NO_LABEL
当時の編集長は、常務取締役編集局長の高村重惟であった。	とーじのへんしゅーちょーわ、じょーむとりしまりやくへんしゅーきょくちょーのこーむらしげたもつであった。	NO_LABEL
この時点で同社は、戦前戦後を通じて、「講談社の絵本」シリーズを始め、書籍においても雑誌においても、小学校1年生向け以外の学年誌は、まだ発行していなかった。	NO_PRONOUNCE	NO_LABEL
同年9月、2学期の開始に向けて同シリーズを月刊誌化し、『たのしい一年生』を創刊、創刊号を9月号とした。	NO_PRONOUNCE	NO_LABEL
同誌が対象とするのは「1949年4月2日 - 1950年4月1日生まれ」の学年で、これは第一次ベビーブームにおけるピークを示す時期を含む学年であった。	NO_PRONOUNCE	NO_LABEL
幼稚園児に対しても、同年1月から『こどもクラブ』を『幼稚園くらぶ』と改称していたが、『たのしい一年生』創刊後の同年12月には、『たのしい幼稚園』と改め、誌名を連携させた。	NO_PRONOUNCE	NO_LABEL
この新たに創刊した『たのしい一年生』には、監修者に当時東京教育大学教授でありのちに和光大学を創設することになる梅根悟、東京大学教育学部教授の海後宗臣、東京学芸大学学長であった教育学者・木下一雄の3名を迎え、創刊号には「監修者のことば おかあさまへ」を掲載した。	NO_PRONOUNCE	NO_LABEL
同創刊号にはほかに、剣道家の佐藤卯吉が「おかあさまがたが待っていた雑誌」、戦前の綴方教育で知られる松本正勝が「新学習雑誌に期待する」、東京教育大学の山田栄が「すぐれた学習雑誌」、同じく教育学者の内田安久が「一年生の栄養になる雑誌」といった賛辞・推薦文をそれぞれ掲載し、同社の野間省一が社長名で「新しい時代に新しい学習雑誌を」という一文を掲載している。	NO_PRONOUNCE	NO_LABEL
1961年1月発売の『たのしい一年生』1月号誌上で、永田竹丸が同誌に連載していた『びっくるくん』が第1回講談社児童漫画賞を受賞したことを発表、受賞作家の永田についての紹介記事を掲載している。	NO_PRONOUNCE	NO_LABEL
1963年3月、前年度の各学年末に向けて発行された3月号をもって、すべての学年誌を休刊する。	せんきゅうひゃくろくじゅうさんねんさんがつ、ぜんねんどのかくがくねんまつにむけてはっこーされたさんがつごーをもって、すべてのがくねんしをきゅーかんする。	NO_LABEL
『出版年鑑1966』によれば、小学生の総数のピークを過ぎたことが、講談社の学年誌事業の整理の一因であるとし、「児童向け雑誌の乱立時代」は過ぎたと総括している。	NO_PRONOUNCE	NO_LABEL
したがって、同年4月に小学校に入学する「1956年4月2日 - 1957年4月1日生まれ」の学年は、リアルタイムで『たのしい一年生』ならびに「講談社の学年誌」を手にすることができない最初の学年となった。	NO_PRONOUNCE	NO_LABEL
1956年度の始まる1956年4月に小学校に入学した「1949年4月2日 - 1950年4月1日生まれ」の学年を「1949年度生まれ」と呼ぶとして、同学年の児童たちが入学を目前とした同年3月には、「講談社の絵本561」として『たのしい一年生 だい一がっき』が発行された。	NO_PRONOUNCE	NO_LABEL
同年9月に月刊誌『たのしい一年生』が創刊、翌1957年1月には『たのしい二年生』および『たのしい三年生』、1958年4月には『たのしい四年生』、1959年4月には『たのしい五年生』、1960年4月には『たのしい六年生』がそれぞれ創刊しており、同学年は、1961年度末の1962年3月の小学校卒業まで、休刊をみることなく講談社の学年誌を享受できたことになる。	NO_PRONOUNCE	NO_LABEL
この「1949年度生まれ」の学年より1学年早い「1948年度生まれ」4月2日 - 1949年4月1日生まれ）の学年の児童たちは、「講談社の絵本」としての『たのしい一年生 だい三がっき』を購読した後、2年次に進級する1956年4月になると、講談社が購読対象とする学年誌がなかったが、3学期を迎える翌1957年1月には『たのしい二年生』が創刊され、同年4月からは、同誌と同時に創刊された『たのしい三年生』を購読することができた。	NO_PRONOUNCE	NO_LABEL
その後は、この学年が進級する4月ごとに『たのしい四年生』、『たのしい五年生』、『たのしい六年生』がそれぞれ創刊しており、同学年は、1960年度末の1961年3月の小学校卒業まで、2年次の空白期を除いて、休刊をみることなく講談社の学年誌を享受できたことになる。	NO_PRONOUNCE	NO_LABEL
「1949年度生まれ」の学年より1学年遅い「1950年度生まれ」4月2日 - 1951年4月1日生まれ）の学年の児童たちは、1957年4月の小学校進学時には、すでに前年9月に月刊誌『たのしい一年生』が創刊されており、のちに『たのしい六年生』が休刊するのは、1962年度末の1963年3月に発行された号を最後としており、これは同学年の卒業時である。	NO_PRONOUNCE	NO_LABEL
同学年は、小学校卒業まで、休刊や空白時期をみることなく講談社の学年誌を享受できた「最初で最後の学年」である。	NO_PRONOUNCE	NO_LABEL
「1951年度生まれ」4月2日 - 1952年4月1日生まれ）の学年、「1952年度生まれ」4月2日 - 1953年4月1日生まれ）の学年、「1953年度生まれ」4月2日 - 1954年4月1日生まれ）の学年、「1954年度生まれ」4月2日 - 1955年4月1日生まれ）の学年、「1955年度生まれ」4月2日 - 1956年4月1日生まれ）の学年はそれぞれ、『たのしい五年生』、『たのしい四年生』、『たのしい三年生』、『たのしい二年生』、『たのしい一年生』の最後の購読対象学年であり、それぞれが6年次、5年次、4年次、3年次、2年次に進級した1963年4月には、講談社が購読対象とする学年誌が存在しなかった。	NO_PRONOUNCE	NO_LABEL
同様に、「1956年度生まれ」4月2日 - 1957年4月1日生まれ）の学年が小学校に進学したときには、講談社が購読対象とする学年誌がすべて存在しなくなっていた。	NO_PRONOUNCE	NO_LABEL
以下は、国立国会図書館蔵書にみる、各誌におけるおもな掲載作品の一覧である。	いかわ、こくりつこっかいとしょかんぞーしょにみる、かくしにおけるおもなけいさいさくひんのいちらんである。	NO_LABEL
題名・作者名の後にあるひらがな表記等は、単純なよみがなではなく、すべて連載中の別題あるいは別名・別表記、もしくはより知られた表記である。	NO_PRONOUNCE	NO_LABEL
伝記ものの題名の後にある表記は、正確な人名である。	でんきもののだいめいののちにあるひょーきわ、せいかくなじんめいである。	NO_LABEL
『たのしい二年生』は、かつて存在した日本の学年別の総合雑誌である。	NO_PRONOUNCE	NO_LABEL
編集・発行講談社。	NO_PRONOUNCE	NO_LABEL
1957年1月創刊、1963年3月休刊。	せんきゅうひゃくごじゅうしちねんいちがつそーかん、せんきゅうひゃくろくじゅうさんねんさんがつきゅーかん。	NO_LABEL
『たのしい三年生』は、かつて存在した日本の学年別の総合雑誌である。	NO_PRONOUNCE	NO_LABEL
編集・発行講談社。	NO_PRONOUNCE	NO_LABEL
1957年1月創刊、1963年3月休刊。	せんきゅうひゃくごじゅうしちねんいちがつそーかん、せんきゅうひゃくろくじゅうさんねんさんがつきゅーかん。	NO_LABEL
『たのしい四年生』は、かつて存在した日本の学年別の総合雑誌である。	NO_PRONOUNCE	NO_LABEL
編集・発行講談社。	NO_PRONOUNCE	NO_LABEL
1958年4月創刊、1963年3月休刊。	せんきゅうひゃくごじゅうはちねんしがつそーかん、せんきゅうひゃくろくじゅうさんねんさんがつきゅーかん。	NO_LABEL
前身雑誌は『幼年クラブ』で、1958年3月に発行された第14巻第3号を最後に誌名を変更、『たのしい四年生』へと発展した。	NO_PRONOUNCE	NO_LABEL
講談社の学年誌全6誌のうちで、唯一、新創刊ではない雑誌である。	NO_PRONOUNCE	NO_LABEL
『たのしい五年生』は、かつて存在した日本の学年別の総合雑誌である。	NO_PRONOUNCE	NO_LABEL
編集・発行講談社。	NO_PRONOUNCE	NO_LABEL
1959年4月創刊、1963年3月休刊。	せんきゅうひゃくごじゅうきゅうねんしがつそーかん、せんきゅうひゃくろくじゅうさんねんさんがつきゅーかん。	NO_LABEL
『たのしい六年生』は、かつて存在した日本の学年別の総合雑誌である。	NO_PRONOUNCE	NO_LABEL
編集・発行講談社。	NO_PRONOUNCE	NO_LABEL
1960年4月創刊、1963年3月休刊。	せんきゅうひゃくろくじゅうねんしがつそーかん、せんきゅうひゃくろくじゅうさんねんさんがつきゅーかん。	NO_LABEL
講談社の学年誌のうちで、もっとも短命に終った。	こーだんしゃのがくねんしのうちで、もっともたんめいにおわった。	NO_LABEL
