趙允旋は、韓国の政治家。	ちょゆんそんわ、かんこくのせいじか。	NO_LABEL
ハンナラ党で朴槿恵の側近として活躍し、朴槿恵大統領政権下では女性家族部長官、政務首席秘書官、文化体育観光部長官を歴任した。	はんならとーでぱくくねのそっきんとしてかつやくし、ぱくくねだいとーりょーせいけんかでわじょせいかぞくぶちょーかん、せいむしゅせきひしょかん、ぶんかたいーくかんこーぶちょーかんをれきにんした。	NO_LABEL
2016年9月5日には文化体育観光部長官に就任し、平昌オリンピックの主任大臣となった。	にせんじゅうろくねんくがついつかにわぶんかたいーくかんこーぶちょーかんにしゅーにんし、ぴょんちゃんおりんぴっくのしゅにんだいじんとなった。	NO_LABEL
しかし政務首席秘書官だった当時、金淇春元大統領秘書室長の指示で政府に批判的な文化人らのリストを作成していたとして、2017年1月21日に金と共に職権乱用容疑で逮捕され同日中に長官を辞任した。	NO_PRONOUNCE	NO_LABEL
その後、2月7日に起訴された。	そのご、にがつなのかにきそされた。	NO_LABEL
2017年7月27日、文化人らのリストについて直接の関与は認定されなかったが、リストの存在を知っていながら国会で知らないと虚偽の証言を行ったとして、ソウル中央地裁にて、懲役1年、執行猶予2年の有罪判決を言い渡された。	にせんじゅうななねんしちがつにじゅうしちにち、ぶんかじんらのりすとについてちょくせつのかんよわにんていされなかったが、りすとのそんざいをしっていながらこっかいでしらないときょぎのしょーげんをおこなったとして、そうるちゅーおーちさいにて、ちょーえきいちねん、しっこーゆーよにねんのゆーざいはんけつをいーわたされた。	NO_LABEL
検察が上訴、1月23日にソウル高等地裁は、重要な役割を担っていたとして禁錮2年の実刑判決を言い渡した。	けんさつがじょーそ、いちがつにじゅうさんにちにそうるこーとーちさいわ、じゅーよーなやくわりをになっていたとしてきんこにねんのじっけいはんけつをいーわたした。	NO_LABEL
