伊東 千尋は日本の工学者、和歌山大学システム工学部教授。	いとーちひろわにっぽんのこーがくしゃ、わかやまだいがくしすてむこーがくぶきょーじゅ。	NO_LABEL
ジアセチレン結晶を固相光重合させたポリジアセチレン結晶の研究者。	じあせちれんけっしょーをこそーこーじゅーごーさせたぽりじあせちれんけっしょーのけんきゅうしゃ。	NO_LABEL
名古屋大学工学部原子核工学科卒業。	なごやだいがくこーがくぶげんしかくこーがっかそつぎょー。	NO_LABEL
名古屋大学大学院工学研究科結晶材料工学専攻、日本学術振興会特別研究員、名古屋大学大学院理学研究科物理学修了。	なごやだいがくだいがくいんこーがくけんきゅーかけっしょーざいりょーこーがくせんこー、にほんがくじゅつしんこーかいとくべつけんきゅーいん、なごやだいがくだいがくいんりがくけんきゅーかぶつりがくしゅーりょー。	NO_LABEL
旭化成工業、同ポリマー開発研究所を経て、名古屋大学理学部助手、1999年、和歌山大学システム工学部助教授。	あさひかせいこーぎょー、どーぽりまーかいはつけんきゅーじょをへて、なごやだいがくりがくぶじょしゅ、せんきゅうひゃくきゅうじゅうきゅうねん、わかやまだいがくしすてむこーがくぶじょきょーじゅ。	NO_LABEL
「光励起による物質の構造変革、光励起による新物質の創出」というテーマで研究活動をしている。	NO_PRONOUNCE	NO_LABEL
