トーマス永井は洋画家。	とーますながいわよーがか。	NO_LABEL
魔術的リアリズムの担い手として独自の作風を確立。	まじゅつてきりありずむのにないてとしてどくじのさくふーをかくりつ。	NO_LABEL
しかし太平洋戦争の混乱によりその業績は長らく埋もれたままになっていた。	しかしたいへいよーせんそーのこんらんによりそのぎょーせきわながらくうずもれたままになっていた。	NO_LABEL
忘れられた洋画家として近年評価が急速に高まってきている。	わすれられたよーがかとしてきんねんひょーかがきゅーそくにたかまってきている。	NO_LABEL
本名は永井富三	ほんみょーわながいとみぞー	NO_LABEL
