森下は、東京都江東区の町名。	もりしたわ、とーきょーとこーとーくのちょーめい。	NO_LABEL
現行行政地名は森下一丁目から森下五丁目。	げんこーぎょーせいちめいわもりしたいっちょーめからもりしたごちょーめ。	NO_LABEL
郵便番号は135-0004。	NO_PRONOUNCE	NO_LABEL
東京都江東区の北西部に位し、深川地域に属する。	とーきょーとこーとーくのほくせいぶにくらいし、ふかがわちいきにぞくする。	NO_LABEL
北で墨田区菊川、東で猿江、南で白河、西で高橋・常盤及び新大橋と隣接する。	NO_PRONOUNCE	NO_LABEL
町域の東辺を大横川、南辺を小名木川と接する。	ちょういきのひがしあたりをおーよこがわ、なんべをおなぎがわとせっする。	NO_LABEL
商業地として多くの商店が軒を連ねている。	しょーぎょーちとしておーくのしょーてんがのきをつらねている。	NO_LABEL
木場に所在する深川警察署 ・深川消防署の管轄区域内にあたる。	NO_PRONOUNCE	NO_LABEL
江戸時代には深川神明宮の門前町として栄えてきた場所である。	えどじだいにわふかがわしんめいぐーのもんぜんちょーとしてさかえてきたばしょである。	NO_LABEL
現在では周辺と同様の住宅地、商業地となったが、この区域にはかつては隣接する猿江と並んでドヤ街が存在し、日雇い労働者が多く暮らしていた。	げんざいでわしゅーへんとどーよーのじゅーたくち、しょーぎょーちとなったが、このくいきにわかつてわりんせつするさるえとならんでどやがいがそんざいし、ひやといろーどーしゃがおーくくらしていた。	NO_LABEL
森下三丁目にある木場公共職業安定所深川労働出張所では、現在も労務者の手配を行っている。	もりしたさんちょーめにあるきばこーきょーしょくぎょーあんていしょふかがわろーどーしゅっちょーしょでわ、げんざいもろーむしゃのてはいをおこなっている。	NO_LABEL
また、深川労働出張所の周囲にはビジネスホテル街があるが、これはかつての簡易宿泊所が姿を変えたものである。	また、ふかがわろーどーしゅっちょーしょのしゅーいにわびじねすほてるがいがあるが、これわかつてのかんいしゅくはくしょがすがたをかえたものである。	NO_LABEL
カレーパン発祥とされる店舗が存在することからカレーパン発祥地の常盤と共に、森下は「カレーパンのまち」としての側面を持つ。	NO_PRONOUNCE	NO_LABEL
江戸初期に深い森があったためといわれる。	えどしょきにふかいもりがあったためといわれる。	NO_LABEL
2017年12月1日現在の世帯数と人口は以下の通りである。	にせんじゅうななねんじゅーにがつついたちげんざいのせたいすーとじんこーわいかのとーりである。	NO_LABEL
区立小・中学校に通う場合、学区は以下の通りとなる。	くりつしょーちゅーがっこーにかようばあい、がっくわいかのとーりとなる。	NO_LABEL
町域内には、森下駅前、新大橋、森下五丁目の停留所がある。	ちょういきないにわ、もりしたえきまえ、しんおーはし、もりしたごちょーめのていりゅーじょがある。	NO_LABEL
以下の路線が町域内を通っており、東京都交通局により運行されている。	いかのろせんがちょういきないをとーっており、とーきょーとこーつーきょくによりうんこーされている。	NO_LABEL
