『生きとし生けるもの』は、2017年に公開された日本のドキュメンタリー映画。	NO_PRONOUNCE	NO_LABEL
監督は北海道在住、旭川市生まれの今津秀邦。	かんとくわほっかいどーざいじゅー、あさひかわしうまれのいまずひでくに。	NO_LABEL
ナレーションは俳優の津川雅彦。	なれーしょんわはいゆーのつがわまさひこ。	NO_LABEL
監修は旭山動物園元園長の小菅正夫である。	かんしゅーわあさひやまどーぶつえんもとえんちょーのこすげまさおである。	NO_LABEL
初監督を務めた今津秀邦は、旭山動物園のポスター用写真の撮影などを担当する写真家。	はつかんとくをつとめたいまずひでくにわ、あさひやまどーぶつえんのぽすたーよーしゃしんのさつえいなどをたんとーするしゃしんか。	NO_LABEL
キャッチコピーは「いちど限りの、永遠。	NO_PRONOUNCE	NO_LABEL
」	NO_PRONOUNCE	NO_LABEL
約5年の歳月をかけ、北海道に生息する野生動物の日常を映像に記録したドキュメンタリー映画。	やくごねんのさいげつをかけ、ほっかいどーにせいそくするやせいどーぶつのにちじょーをえいぞーにきろくしたどきゅめんたりーえいが。	NO_LABEL
北海道の大自然の中で生きるキタキツネ、マガン、シロザケ、エゾヒグマ、エゾナキウサギなどの動物たちの姿を、臨場感溢れる映像で描いている。	ほっかいどーのだいしぜんのなかでいきるきたきつね、まがん、しろざけ、えぞひぐま、えぞなきうさぎなどのどーぶつたちのすがたを、りんじょーかんあふれるえいぞーでえがいている。	NO_LABEL
野生動物と自然界に存在するすべてのものがお互いを必要とし、自然の営みの中でそれぞれの命を全うする。	やせいどーぶつとしぜんかいにそんざいするすべてのものがおたがいをひつよーとし、しぜんのいとなみのなかでそれぞれのいのちをまっとーする。	NO_LABEL
動物たちのひたむきに生きる姿は、まるでドラマを演じる役者のようである。	どーぶつたちのひたむきにいきるすがたわ、まるでどらまをえんじるやくしゃのよーである。	NO_LABEL
全編に台詞はなくナレーションは冒頭と最後の2か所のみである。	NO_PRONOUNCE	NO_LABEL
「誘い人」である津川雅彦は、観客を北海道の大自然へと招く。	NO_PRONOUNCE	NO_LABEL
