サカテペケス県は、グアテマラに22ある県のひとつ。	NO_PRONOUNCE	NO_LABEL
1542年11月21日からサンタ・マルタ大地震で壊滅する1773年7月29日まで存在した、サカテペケス市にちなみ命名された。	せんごひゃくよんじゅうにねんじゅーいちがつにじゅういちにちからさんたまるたおおじしんでかいめつするせんななひゃくななじゅうさんねんしちがつにじゅうきゅうにちまでそんざいした、さかてぺけすしにちなみめいめいされた。	NO_LABEL
「サカテペケス」は地元のマヤのことばで「草地の丘」を意味する。	NO_PRONOUNCE	NO_LABEL
人口は26万5500人。	NO_PRONOUNCE	NO_LABEL
主要都市には県都アンティグア・グアテマラとシウダー・ビエハが挙げられる。	NO_PRONOUNCE	NO_LABEL
グアカラテ川、ロス・エンクエントロス川、ラス・カニャス川、ペンサティボ・イ・スンパンゴ川などの河川が流れる。	NO_PRONOUNCE	NO_LABEL
県は下記の16市からなる。	NO_PRONOUNCE	NO_LABEL
