京王ユース・プラザ株式会社は、東京都八王子市川町にある高尾の森わくわくビレッジの運営を行う株式会社。	NO_PRONOUNCE	NO_LABEL
京王グループに属する。	けいおーぐるーぷにぞくする。	NO_LABEL
本社は、東京都多摩市関戸。	ほんしゃわ、とーきょーとたましせきど。	NO_LABEL
東京都との契約に基づくPFI事業である「高尾の森わくわくビレッジ」の運営を、京王電鉄・レストラン京王・京王設備サービス・京王建設・京王観光・京王エージェンシーと共同して行っている。	NO_PRONOUNCE	NO_LABEL
東京都八王子市川町55にあるレクリエーション施設。	NO_PRONOUNCE	NO_LABEL
2004年3月に閉校した東京都立八王子高陵高等学校の施設を再利用し、その周辺の自然を通じたコミュニケーションを図る目的で翌2005年4月に開設された。	にせんよねんさんがつにへいこーしたとーきょーとりつはちおーじこーりょーこーとーがっこーのしせつをさいりよーし、そのしゅーへんのしぜんをつーじたこみゅにけーしょんをはかるもくてきでよくにせんごねんしがつにかいせつされた。	NO_LABEL
毎年11月には、「高尾の森わくわくビレッジ わくわくフェスティバル」を開催している。	NO_PRONOUNCE	NO_LABEL
おもに東京都立八王子高陵高等学校の当時の遺構をめぐるツアーや、観光バスの撮影会、アスレチック体験や、Nゲージ鉄道模型運転会が開催される。	おもにとーきょーとりつはちおーじこーりょーこーとーがっこーのとーじのいこーをめぐるつあーや、かんこーばすのさつえいかい、あすれちっくたいけんや、えぬげーじてつどーもけいうんてんかいがかいさいされる。	NO_LABEL
