大曽根 寛は日本の学者。	おーそねひろしわにっぽんのがくしゃ。	NO_LABEL
放送大学教授。	ほーそーだいがくきょーじゅ。	NO_LABEL
専門は福祉政策・社会保障法。	NO_PRONOUNCE	NO_LABEL
1950年、東京都に生まれる。	せんきゅうひゃくごじゅうねん、とーきょーとにうまれる。	NO_LABEL
1975年に法政大学法学部法律学科を卒業し、法政大学大学院社会科学研究科私法学専攻博士前期課程を修了後、1985年に東京都立大学大学院社会科学研究科博士後期課程を満期退学する。	せんきゅうひゃくななじゅうごねんにほーせいだいがくほーがくぶほーりつがっかをそつぎょーし、ほーせいだいがくだいがくいんしゃかいかがくけんきゅーかしほーがくせんこーはかせぜんきかていをしゅーりょーご、せんきゅうひゃくはちじゅうごねんにとーきょーとりつだいがくだいがくいんしゃかいかがくけんきゅーかはかせこーきかていをまんきたいがくする。	NO_LABEL
1984年に雇用開発センター研究員、1988年に愛知県立大学文学部専任講師、1991年に同大助教授、1996年に同大教授に就任し、2002年に放送大学教授に就任し、現在に至る。	せんきゅうひゃくはちじゅうよねんにこよーかいはつせんたーけんきゅーいん、せんきゅうひゃくはちじゅうはちねんにあいちけんりつだいがくぶんがくぶせんにんこーし、せんきゅうひゃくきゅうじゅういちねんにどーだいじょきょーじゅ、せんきゅうひゃくきゅうじゅうろくねんにどーだいきょーじゅにしゅーにんし、にせんにねんにほーそーだいがくきょーじゅにしゅーにんし、げんざいにいたる。	NO_LABEL
