せとしおは、海上自衛隊の潜水艦。	せとしおわ、かいじょーじえいたいのせんすいかん。	NO_LABEL
おやしお型潜水艦の10番艦。	おやしおがたせんすいかんのじゅうばんかん。	NO_LABEL
艦名は瀬戸の潮から由来し、この名を受け継いだ日本の艦艇としては、ゆうしお型潜水艦「せとしお」に続き2代目にあたる。	NO_PRONOUNCE	NO_LABEL
「せとしお」は、中期防衛力整備計画に基づく平成14年度計画2700トン型潜水艦8114号艦として、三菱重工業神戸造船所で2003年1月23日に起工され、2005年10月5日に同造船所で挙行された命名・進水式において、防衛庁長官 大野功統により「せとしお」と命名され進水、2006年7月6日に公試開始、2007年2月28日に就役し、同日付で第2潜水隊群第4潜水隊に編入され横須賀に配備された。	NO_PRONOUNCE	NO_LABEL
2014年8月22日、米国派遣訓練に参加するため横須賀を出港し、9月中旬から10月下旬までハワイ方面に滞在して諸訓練を実施し、11月22日、横須賀へ帰港した。	にせんじゅうよねんはちがつにじゅうににち、べいこくはけんくんれんにさんかするためよこすかをしゅっこーし、きゅうがつちゅーじゅんからじゅーがつげじゅんまではわいほーめんにたいざいしてしょくんれんをじっしし、じゅーいちがつにじゅうににち、よこすかえきこーした。	NO_LABEL
現在、第2潜水隊群第4潜水隊に所属し、定係港は横須賀である。	NO_PRONOUNCE	NO_LABEL
