八里村は茨城県那珂郡にかつて存在した村である。	はちりむらわいばらきけんなかぐんにかつてそんざいしたむらである。	NO_LABEL
村名は八つの村が合併したため八里村となった。	むらなわやっつのむらががっぺいしたためはちさとむらとなった。	NO_LABEL
変遷表	へんせんひょー	NO_LABEL
総数 [単位： 人]	NO_PRONOUNCE	NO_LABEL
総数 [単位： 世帯]	NO_PRONOUNCE	NO_LABEL
