青葉山トンネルは、宮城県仙台市青葉区を東西に走る長さ2,233mの仙台西道路内のトンネルである。	NO_PRONOUNCE	NO_LABEL
1983年5月14日暫定2車線の対面通行で供用開始。	せんきゅうひゃくはちじゅうさんねんごがつじゅうよっかざんていにしゃせんのたいめんつうこーできょーよーかいし。	NO_LABEL
これにより広瀬川沿いを走る国道48号の渋滞がほぼ解消され、朝夕の仙台宮城インターチェンジの閉鎖はなくなった。	これによりひろせがわぞいをはしるこくどーよんじゅうはちごーのじゅーたいがほぼかいしょーされ、あさゆーのせんだいみやぎいんたーちぇんじのへいさわなくなった。	NO_LABEL
さらに、本トンネルを含む仙台西道路が1986年日本の道百選に選定。	さらに、ほんとんねるをふくむせんだいにしどーろがせんきゅうひゃくはちじゅうろくねんにっぽんのみちひゃくせんにせんてい。	NO_LABEL
1987年全線が4車線化され、よりスムーズな走行が可能となった。	NO_PRONOUNCE	NO_LABEL
その後、本トンネルでの車線変更が可能となった。	そのご、ほんとんねるでのしゃせんへんこーがかのーとなった。	NO_LABEL
また仙台西道路では川内トンネル以西の制限速度が50kmから60kmに緩和された。	またせんだいにしどーろでわかわうちとんねるいせいのせいげんそくどがごじゅうきろめーとるからろくじゅうきろめーとるにかんわされた。	NO_LABEL
本トンネルでは、仙台市街地方面の立町交差点での渋滞の影響で朝夕または土日祝日などは非常に混雑し、ひどい時には愛子バイパスまで伸びることもある。	ほんとんねるでわ、せんだいしがいちほーめんのたてまちこーさてんでのじゅーたいのえいきょーであさゆーまたわどにちしゅくじつなどわひじょーにこんざつし、ひどいときにわあやしばいぱすまでのびることもある。	NO_LABEL
一方で、平日の日中はそれほど混んでおらず、制限速度の60kmを守るドライバーは少なく100kmを超える速度で走る車もいる。	いっぽーで、へいじつのにっちゅーわそれほどこんでおらず、せいげんそくどのろくじゅうきろめーとるをまもるどらいばーわすくなくひゃくきろめーとるをこえるそくどではしるくるまもいる。	NO_LABEL
走行には十分に注意する必要がある。	そーこーにわじゅーぶんにちゅーいするひつよーがある。	NO_LABEL
本トンネル内では、国土交通省によるAMラジオの混雑情報や、宮城県でラジオの県域放送をしている3局、すなわちNHK FMとDate fmのFM2局、および、AM局のTBCラジオなどの放送局による混雑情報が聴取できるようになっている。	NO_PRONOUNCE	NO_LABEL
