『マンガのマ』は、武内こずえによる日本の少女漫画作品。	NO_PRONOUNCE	NO_LABEL
集英社の漫画雑誌『りぼん』および『りぼんスペシャル』にて全8話が連載された。	NO_PRONOUNCE	NO_LABEL
単行本は、同社のりぼんマスコットコミックスより全2巻が刊行された。	たんこーぼんわ、どーしゃのりぼんますこっとこみっくすよりぜんにかんがかんこーされた。	NO_LABEL
ちなみに後年、武内の代表作となった『チョコタン！』の第45話に、大人になった主人公のありすと葉月がゲスト出演している。	NO_PRONOUNCE	NO_LABEL
平凡な中学生の広瀬ありすは、ふとしたきっかけでクラスメイトの宇佐美葉月がマンガ家を目指していることを知り、自分もマンガ家になることを決意。	へいぼんなちゅーがくせいのひろせありすわ、ふとしたきっかけでくらすめいとのうさみはずきがまんがかをめざしていることをしり、じぶんもまんがかになることをけつい。	NO_LABEL
中途半端な自分に悩みながらも、葉月や周囲の人々に励まされながら、マンガ家デビューを夢見て発行部数150万部の少女月刊誌「ハート」への投稿に情熱を傾ける。	NO_PRONOUNCE	NO_LABEL
