小島 梨里杏は、日本の女優。	こじまりさとあんずわ、にっぽんのじょゆー。	NO_LABEL
レプロエンタテインメント所属。	れぷろえんたていんめんとしょぞく。	NO_LABEL
東京都出身。	とーきょーとしゅっしん。	NO_LABEL
負けず嫌い、人に弱みを見せたくない、人のことを気にかけて心配する性格である。	まけずぎらい、ひとによわみをみせたくない、ひとのことをきにかけてしんぱいするせいかくである。	NO_LABEL
『烈車戦隊トッキュウジャー』で監督を務めた加藤弘之は「フワッとした子」と評している。	NO_PRONOUNCE	NO_LABEL
キリンプロに所属時の趣味は映画・音楽鑑賞、ダンス、お菓子作り、カメラであり、特技は歌をうたうこと、茶道としていた。	NO_PRONOUNCE	NO_LABEL
現在の趣味は人間観察、音楽連想、映画・舞台鑑賞、旅行、写真であり、特技は作詞としている。	NO_PRONOUNCE	NO_LABEL
CDアルバム「烈車戦隊トッキュウジャー キャラクターソングス レインボーライン」の内の1曲である「Yellow Heart」という曲で作詞を披露している。	NO_PRONOUNCE	NO_LABEL
また、陶芸も趣味のひとつであるとTwitter上にて公表している。	また、とーげいもしゅみのひとつであるとついったーじょーにてこーひょーしている。	NO_LABEL
芸能界に入ったきっかけは『天才てれびくんワイド』に出てみたかったからとモーニング娘。	NO_PRONOUNCE	NO_LABEL
に入りたかったからであり、この仕事をするには事務所に入らないといけないと母親から教わり、キリンプロに所属することに。	にはいりたかったからであり、このしごとをするにわじむしょにはいらないといけないとははおやからおそわり、きりんぷろにしょぞくすることに。	NO_LABEL
小学校の頃は学業を優先していた為、レギュラーの仕事は出来ず、主演の方の幼少期やCM、広告が中心に。	しょーがっこーのころわがくぎょーをゆーせんしていたため、れぎゅらーのしごとわできず、しゅえんのほーのよーしょーきやこんぴゅーたみゅーじっくまがじん、こーこくがちゅーしんに。	NO_LABEL
20歳までに何かを起こせなければ芸能界の仕事を辞めようと考えていたが、19歳の時に『絶狼-ZERO- -BLACK BLOOD-』や『烈車戦隊トッキュウジャー』のオーディションに合格し、続けていくことを決意した。	NO_PRONOUNCE	NO_LABEL
梨里杏から小島梨里杏へ改名した理由については、『烈車戦隊トッキュウジャー』を終えて、より芝居に力を入れていきたいと思い、また、女優として生きていくと心に決めた時により自分らしさ、人間らしさを求めていく為に苗字からはじまる名前にした方が良いと思ったゆえとのことである。	NO_PRONOUNCE	NO_LABEL
以前は血液型をA型としていたが、現在はO型と公表している。	いぜんわけつえきがたをえーがたとしていたが、げんざいわおーがたとこーひょーしている。	NO_LABEL
ベイビーレイズJAPANの林愛夏がTwitterで「大好きな私のお姉ちゃん」とツイートしているが、実際の姉妹ではなく、あくまでも事務所の先輩・後輩という関係である。	NO_PRONOUNCE	NO_LABEL
また、年の離れた姉がいることが本人のTwitterにてツイートされている。	また、としのはなれたあねがいることがほんにんのついったーにてついーとされている。	NO_LABEL
ペットのシュナウザーの名前はロイくんである。	ぺっとのしゅなうざーのなまえわろいくんである。	NO_LABEL
