桐朋中学校・高等学校は、東京都国立市中三丁目に所在し、中高一貫教育を提供する私立男子中学校・高等学校。	NO_PRONOUNCE	NO_LABEL
高等学校において、中学校もしくは小学校から入学し、または幼稚園から入園した内部進学の生徒と高等学校から入学した外部進学の生徒が高等学校第1学年から混合してクラスを編成する併設混合型中高一貫校。	NO_PRONOUNCE	NO_LABEL
学校法人桐朋学園によって運営されている。	がっこーほーじんとーほーがくえんによってうんえいされている。	NO_LABEL
桐朋学園男子部門の一つであり、桐朋学園音楽部門である女子校の桐朋女子中学校・高等学校とは併設校に当たる。	とーほーがくえんだんしぶもんのひとつであり、とーほーがくえんおんがくぶもんであるじょしこーのとーほーじょしちゅうがっこーこーとーがっこーとわへいせつこーにあたる。	NO_LABEL
「桐朋」の名称は、桐朋学園の前身母体である山水育英会が戦後解体の危機に陥った際、これを救った東京文理科大学・東京高等師範学校の校章「五三の桐」に由来し、同校との協力の関係「桐の朋」を意味する。	NO_PRONOUNCE	NO_LABEL
そのため現在でも、毎年同校からの体育の教育実習の受け入れを行っている。	そのためげんざいでも、まいとしどーこーからのたいいくのきょーいくじっしゅーのうけいれをおこなっている。	NO_LABEL
「桐」を学校名に用いている桐蔭学園、桐光学園とは関係はない。	NO_PRONOUNCE	NO_LABEL
元々軍人子弟養成の学校であったが開校すぐに終戦を迎えたため、軍系列として廃校の危機を迎えた。	もともとぐんじんしていよーせいのがっこーであったがかいこーすぐにしゅーせんをむかえたため、ぐんけいれつとしてはいこーのききをむかえた。	NO_LABEL
そこで、旧東京教育大学の支援を得て校内を刷新した。	そこで、きゅーとーきょーきょーいくだいがくのしえんをえてこーないをさっしんした。	NO_LABEL
学費などを定めた学則以外に、他校で言うところの校則が存在しない。	がくひなどをさだめたがくそくいがいに、たこーでいうところのこーそくがそんざいしない。	NO_LABEL
毎年6月上旬に行われる学園祭。	まいとしろくがつじょーじゅんにおこなわれるがくえんさい。	NO_LABEL
来場者数の合計はおよそ1万人であり、桐朋最大の行事である。	らいじょーしゃすーのごーけいわおよそいちまんにんであり、とーほーさいだいのぎょーじである。	NO_LABEL
クラス単位の出し物はほとんどなく、各クラブや有志団体がほとんどである。	くらすたんいのだしものわほとんどなく、かくくらぶやゆーしだんたいがほとんどである。	NO_LABEL
各クラブ、特に文化部はそのほとんどが何らかの形で出展。	かくくらぶ、とくにぶんかぶわそのほとんどがなんらかのかたちでしゅってん。	NO_LABEL
一方、露店およびに喫茶は有志団体による参加が多く、毎年10以上軒を連ねる。	NO_PRONOUNCE	NO_LABEL
露店およびに喫茶では現金は使用できず、食券を購入する必要がある。	ろてんおよびにきっさでわげんきんわしよーできず、しょっけんをこーにゅーするひつよーがある。	NO_LABEL
その他、中学生による学年単位での展示である「学年参加」、自由研究の展示、生徒会やPTAのバザー、桐朋祭実行委員会主催の著名人講演会などがある。	NO_PRONOUNCE	NO_LABEL
また、高校生によるバンド団体もあるが、近隣への配慮のためか、ステージ上では演奏せず一教室を締め切って「ロックエリア」とし、そこで演奏を行っている。	NO_PRONOUNCE	NO_LABEL
中学1〜3年生の行事。	NO_PRONOUNCE	NO_LABEL
毎年5月上旬に実施されている。	まいとしごがつじょーじゅんにじっしされている。	NO_LABEL
中1が高水三山、中2が日の出・大塚山、中3が裏高尾縦走である。	NO_PRONOUNCE	NO_LABEL
なお、遠足委員の生徒は、遠足担当の教員と一緒に「下見」を行い、ホームルームで他の生徒に報告をする。	NO_PRONOUNCE	NO_LABEL
中1、中2、高1の行事。	ちゅーいち、ちゅーに、こーいちのぎょーじ。	NO_LABEL
中1が磐梯、中2が尾瀬、高1が白馬にそれぞれ3泊4日で行く。	NO_PRONOUNCE	NO_LABEL
中1では磐梯山、高1では白馬乗鞍岳に登る。	ちゅーいちでわばんだいさん、こーいちでわはくばのりくらだけにのぼる。	NO_LABEL
中2では尾瀬ケ原の山小屋で一泊する。	ちゅーにでわおぜがはらのやまごやでいっぱくする。	NO_LABEL
どれも、今では珍しい本格的な山の行事である。	どれも、いまでわめずらしいほんかくてきなやまのぎょーじである。	NO_LABEL
なお、2011年は震災の影響で、中1は志賀高原、中2は富士五湖へ行った。	なお、にせんじゅういちねんわしんさいのえいきょーで、ちゅーいちわしがこーげん、ちゅーにわふじごこえいった。	NO_LABEL
中学は6月の1回、高校は5月と9月の2回行われ、サッカー、ソフトボール、バスケ、バレー、卓球の5種目でもってクラス間で争われる。	ちゅーがくわろくがつのいっかい、こーこーわごがつとくがつのにかいおこなわれ、さっかー、そふとぼーる、ばすけ、ばれー、たっきゅーのごしゅめでもってくらすかんであらそわれる。	NO_LABEL
2007年の秋、各競技の代表が走る、150mリレーが行われたが、2008年度以降は行われていない。	にせんななねんのあき、かくきょーぎのだいひょーがはしる、ひゃくごじゅうめーとるりれーがおこなわれたが、にせんはちねんどいこーわおこなわれていない。	NO_LABEL
特に高校には運動会がないため、貴重なクラス単位での行事である。	とくにこーこーにわうんどーかいがないため、きちょーなくらすたんいでのぎょーじである。	NO_LABEL
運動会と違って平日に行われ、保護者の参観はない。	うんどーかいとちがってへいじつにおこなわれ、ほごしゃのさんかんわない。	NO_LABEL
例年、学年で北東北を巡るという4泊5日の計画で行われる。	NO_PRONOUNCE	NO_LABEL
初日に新幹線で八戸まで行った後、三内丸山遺跡、奥入瀬渓流、龍泉洞、田老、中尊寺などを見学し、再び新幹線を利用して帰京する。	しょにちにしんかんせんではちのへまでいったのち、さんないまるやまいせき、おいらせけいりゅー、りゅーせんどー、たろー、ちゅーそんじなどをけんがくし、ふたたびしんかんせんをりよーしてききょーする。	NO_LABEL
基本的にはクラス別行動だが、三日目のみはコース別行動になる。	きほんてきにわくらすべつこーどーだが、みっかのみわこーすべつこーどーになる。	NO_LABEL
このコースは各自、事前に選択をする。	このこーすわかくじ、じぜんにせんたくをする。	NO_LABEL
初日に宿泊する蔦温泉およびに酸ケ湯温泉は湯治場として有名である。	しょにちにしゅくはくするつたおんせんおよびにさんけゆおんせんわとーじばとしてゆーめいである。	NO_LABEL
また、事前学習として、地学の授業では東北地方太平洋沖地震と田老の津波を学び、国語の授業では『おくのほそ道』の暗誦が行われている。	NO_PRONOUNCE	NO_LABEL
例年、クラスごとに関西、四国、中部、中国などの希望する各地に2泊したのちに京都に集まり、そこで2泊し帰京という4泊5日の計画で行われる。	NO_PRONOUNCE	NO_LABEL
選択可能な地域としては、大阪、奈良、神戸、広島、四国、石川などがある。	せんたくかのーなちいきとしてわ、おーさか、なら、こーべ、ひろしま、しこく、いしかわなどがある。	NO_LABEL
修学旅行委員として選出された生徒が、旅行会社の担当者と共に準備を進める。	しゅーがくりょこーいいんとしてせんしゅつされたせいとが、りょこーがいしゃのたんとーしゃとともにじゅんびをすすめる。	NO_LABEL
中学・高校にそれぞれ生徒会が存在する。	NO_PRONOUNCE	NO_LABEL
制度上の組織構成は中学、高校とも全く同じである。	せいどじょーのそしきこーせいわちゅーがく、こーこーともぜんくおなじである。	NO_LABEL
原則すべて生徒が自主的に運営する。	げんそくすべてせいとがじしゅてきにうんえいする。	NO_LABEL
教職員としては生徒会担当教員がおり会則上、生徒会は助言を受けるとされている。	きょーしょくいんとしてわせいとかいたんとーきょーいんがおりかいそくじょー、せいとかいわじょげんをうけるとされている。	NO_LABEL
生徒会の最高機関で、全生徒会員による。	せいとかいのさいこーきかんで、ぜんせいとかいいんによる。	NO_LABEL
中学、高校は別々に学期末などに開かれる。	ちゅーがく、こーこーわべつべつにがっきまつなどにひらかれる。	NO_LABEL
中高共通事案については学園総会があるが、中高全体では人数過多のために開催場所がないため、近年は開かれていない。	なかだかきょーつーじあんについてわがくえんそーかいがあるが、なかだかぜんたいでわにんずーかたのためにかいさいばしょがないため、きんねんわひらかれていない。	NO_LABEL
中学高校の総務委員や各委員会委員長、クラブ評議員会議長以下三役などによって構成される、総会に次ぐ機関である。	ちゅーがくこーこーのそーむいいんやかくいーんかいいーんちょー、くらぶひょーぎいんかいぎちょーいかさんやくなどによってこーせいされる、そーかいにつぐきかんである。	NO_LABEL
クラブ・同好会の設立および改廃など、生徒会運営上の実質的な審議権を持つ。	NO_PRONOUNCE	NO_LABEL
中高の主要役員全員が参加する必要があるため、2008年度1学期までは重大な議案が発生した時しか開かれなかったが、2008年度2学期より総務委員会の方針変更によって生徒会則の規定に則り定期開催されるようになった。	なかだかのしゅよーやくいんぜんいんがさんかするひつよーがあるため、にせんはちねんどいちがっきまでわじゅーだいなぎあんがはっせいしたときしかひらかれなかったが、にせんはちねんどにがっきよりそーむいーんかいのほーしんへんこーによってせいとかいそくのきていにのっとりていきかいさいされるよーになった。	NO_LABEL
直属の下部組織には桐朋祭実行委員会や新聞局、スポーツ大会実行委員会、図書委員会などがある。	ちょくぞくのかぶそしきにわとーほーさいじっこーいーんかいやしんぶんきょく、すぽーつたいかいじっこーいーんかい、としょいーんかいなどがある。	NO_LABEL
中高それぞれ8名の委員で構成される。	NO_PRONOUNCE	NO_LABEL
事実上、総務委員長が他校との交流などの際は生徒会長の役割を果たす。	じじつじょー、そーむいーんちょーがたこーとのこーりゅーなどのさいわせいとかいちょーのやくわりをはたす。	NO_LABEL
実質的な生徒会運営のほとんどを司っており行政に近い役割である。	じっしつてきなせいとかいうんえいのほとんどをつかさどっておりぎょーせいにちかいやくわりである。	NO_LABEL
委員長や副委員長は生徒全員の選挙によって選出される。	いーんちょーやふくいーんちょーわせいとぜんいんのせんきょによってせんしゅつされる。	NO_LABEL
各クラスより4名選出され、構成される。	NO_PRONOUNCE	NO_LABEL
中学は72名、高校は84名。	NO_PRONOUNCE	NO_LABEL
クラス委員会と校内自治委員会に分かれ分担して業務を行う。	くらすいいんかいとこーないじちいーんかいにわかれぶんたんしてぎょーむをおこなう。	NO_LABEL
原則対等であるが、全体で活動する場合はクラス委員長が生徒委員会委員長も受け持ち、校内自治委員長が副委員長となる。	げんそくたいとーであるが、ぜんたいでかつどーするばあいわくらすいーんちょーがせいといーんかいいーんちょーもうけもち、こーないじちいーんちょーがふくいーんちょーとなる。	NO_LABEL
委員長は互選による。	いーんちょーわごせんによる。	NO_LABEL
ただし、高校生徒委員会は校内自治、クラス委員会ではなく、校内の環境など学校生活に関する問題を審議する「日常生活班」、生徒会会則改正に関する問題を審議する「会則改正班」といったような分け方をされており、編成については年度毎に正副生徒委員長が決定している。	NO_PRONOUNCE	NO_LABEL
各委員会や部活動への監査権限を持つ。	かくいーんかいやぶかつどーえのかんさけんげんをもつ。	NO_LABEL
会計監査時期にしか実質的に活動しないため、存在感は薄いが、図書委員会などと違い完全な独立機関である。	かいけいかんさじきにしかじっしつてきにかつどーしないため、そんざいかんわうすいが、としょいーんかいなどとちがいかんぜんなどくりつきかんである。	NO_LABEL
会計等、不正審査に関して強い権限を持つが、他の運営に関しては全く権限がなく、主要委員会の中で唯一中央委員会に委員を派遣しない。	かいけいとー、ふせいしんさにかんしてつよいけんげんをもつが、たのうんえいにかんしてわまったくけんげんがなく、しゅよーいーんかいのなかでゆいいつちゅーおーいーんかいにいいんをはけんしない。	NO_LABEL
委員はすべて生徒全員の選挙によって選出される。	いいんわすべてせいとぜんいんのせんきょによってせんしゅつされる。	NO_LABEL
　高校1年の2学期から委員募集が始まる。	こーこーいちねんのにがっきからいいんぼしゅーがはじまる。	NO_LABEL
組織としては、実行委員長をトップに、副実行委員長、そして総務・物品・会計・飲食・音響・プログラム・催し物・装飾の各委員長およびに委員から構成される。	NO_PRONOUNCE	NO_LABEL
全委員を併せると大規模な組織となるが、立場上は、生徒会の下部組織であり、生徒会の中央委員会にて委員長の承認・任命がなされている。	NO_PRONOUNCE	NO_LABEL
35のクラブと8つの同好会がある。	NO_PRONOUNCE	NO_LABEL
各クラブはクラブ評議員会に属し、総務委員会などと協議の上で予算が組まれる。	かくくらぶわくらぶひょーぎいんかいにぞくし、そーむいーんかいなどときょーぎのうえでよさんがくまれる。	NO_LABEL
ただし、同好会はこれに属さず、予算もないため各会員の自費で運営される。	ただし、どーこーかいわこれにぞくさず、よさんもないためかくかいいんのじひでうんえいされる。	NO_LABEL
公式サイトを参照。	こーしきさいとをさんしょー。	NO_LABEL
大学入試結果	だいがくにゅーしけっか	NO_LABEL
学園の南側に隣接して建設された高層マンション「クリオレミントンヴィレッジ国立」について景観や日照権などを巡って事業者の明和地所に対して訴訟が起こされ、学園も原告として加わっていた。	NO_PRONOUNCE	NO_LABEL
詳しくは「国立マンション訴訟」を参照。	NO_PRONOUNCE	NO_LABEL
裁判自体はマンションは適法として確定。	さいばんじたいわまんしょんわてきほーとしてかくてい。	NO_LABEL
