『Das Geheimnis der Geige ゲンのバイオリン』は、NHKラジオ第2放送で2006年4月から同年9月まで放送されていた、ドイツ語講座入門編の物語である。	NO_PRONOUNCE	NO_LABEL
講師は慶應義塾大学専任講師の太田達也で、ドイツ語初心者にも取り組みやすい内容になっている他、推理小説のようなストーリー展開となっているため、同様の語学講座の中でも人気があるものの一つである。	こーしわけいおーぎじゅくだいがくせんにんこーしのおーたたつやで、どいつごしょしんしゃにもとりくみやすいないよーになっているほか、すいりしょーせつのよーなすとーりーてんかいとなっているため、どーよーのごがくこーざのなかでもにんきがあるもののひとつである。	NO_LABEL
日本からドイツの大学を受験するためにやってきた弦。	にっぽんからどいつのだいがくをじゅけんするためにやってきたつる。	NO_LABEL
しかし、電車の中で知り合った女性とバイオリンを取り違えてしまう。	しかし、でんしゃのなかでしりあったじょせいとばいおりんをとりちがえてしまう。	NO_LABEL
おばのオーム夫人と取り違えられたバイオリンを探す旅に出るが・・・	NO_PRONOUNCE	NO_LABEL
前述の通り、語学講座では最初は簡単な単語や文法のみの文章から入るため、全体の物語としてはおかしなものになってしまうことが多いが、この物語の場合は、そのようなことがほとんどなく、全体を通して完成度の高いものとなっている。	ぜんじゅつのとーり、ごがくこーざでわさいしょわかんたんなたんごやぶんぽーのみのぶんしょーからはいるため、ぜんたいのものがたりとしてわおかしなものになってしまうことがおーいが、このものがたりのばあいわ、そのよーなことがほとんどなく、ぜんたいをとーしてかんせいどのたかいものとなっている。	NO_LABEL
しかしながら、それは本文のみのことであり、ナレーション等には難しい表現も多く現れ、初心者には日本語の訳がなければ理解できないものもある。	しかしながら、それわほんぶんのみのことであり、なれーしょんとーにわむずかしいひょーげんもおーくあらわれ、しょしんしゃにわにほんごのわけがなければりかいできないものもある。	NO_LABEL
いずれにせよ、語学講座としてのテキストとしては素晴らしいものであり、また、普通の小説としても通用するような内容で、人気が高い。	いずれにせよ、ごがくこーざとしてのてきすととしてわすばらしいものであり、また、ふつーのしょーせつとしてもつーよーするよーなないよーで、にんきがたかい。	NO_LABEL
日本からの留学生が外国を旅行するというだけのものは他にも多々あるが、この作品の場合にはそれがバイオリンを探す旅になっており、話の内容が二転三転し、続きが楽しみになるようになっているので、学習者からしても飽きずに続けられる要因の一つとなっているものと思われる。	にっぽんからのりゅーがくせいががいこくをりょこーするというだけのものわたにもたたあるが、このさくひんのばあいにわそれがばいおりんをさがすたびになっており、はなしのないよーがにてんさんてんし、つずきがたのしみになるよーになっているので、がくしゅーしゃからしてもあきずにつずけられるよーいんのひとつとなっているものとおもわれる。	NO_LABEL
だが、物語の終盤の展開が速く、特にゲンの入試があってからは、すぐ合格発表となったりして、面白みに欠ける部分もある。	だが、ものがたりのしゅーばんのてんかいがはやく、とくにげんのにゅーしがあってからわ、すぐごーかくはっぴょーとなったりして、おもしろみにかけるぶぶんもある。	NO_LABEL
しかし、やはりこの作品の本当の目的はドイツ語の習得にある為、少々の展開の違和感はしょうがないことである。	しかし、やはりこのさくひんのほんとーのもくてきわどいつごのしゅーとくにあるため、しょーしょーのてんかいのいわかんわしょーがないことである。	NO_LABEL
