横須賀城は、遠江国城東郡横須賀に戦国時代から江戸時代にあった日本の城。	よこすかじょーわ、とーとーみのくにじょーとーぐんよこすかにせんごくじだいからえどじだいにあったにっぽんのしろにほんのしろ。	NO_LABEL
平城。	ひらじろ。	NO_LABEL
徳川家康は武田氏の高天神城を締め付ける付城群の中核として、大須賀康高に命じて築いた城郭である。	とくがわいえやすわたけだしのたかてんじんじょーをしめつけるつけしろぐんのちゅーかくとして、おーすがやすたかにめいじてきずいたじょーかくである。	NO_LABEL
大須賀家2代の後、渡瀬家1代、有馬家1代、その後、再び大須賀家2代となるが除封され、能見家2代、井上家2代、本多家1代とめまぐるしく藩主が代わり、西尾忠成が2万5千石で入封し、以後7代をもって明治維新を迎える。	NO_PRONOUNCE	NO_LABEL
西尾家歴代の藩主のなかで忠尚は名君の誉れ高く、若年寄を務め5千石加増され、都合3万5千石になり、老中も務めている。	NO_PRONOUNCE	NO_LABEL
横須賀城の特徴は他に類を見ない天竜川より運ばれた玉石垣を用いた築城法である。	よこすかじょーのとくちょーわたにるいをみないてんりゅーがわよりはこばれたたまいしがきをもちいたちくじょーほーである。	NO_LABEL
天守閣は三層四階であった。	てんしゅかくわさんそーよんかいであった。	NO_LABEL
宝永地震のため湊が隆起してしまい、用水路を作って凌いだ。	ほーえいじしんのためみなとがりゅーきしてしまい、よーすいろをつくってしのいだ。	NO_LABEL
石垣、堀、土塁等が残り、現在公園として整備されている。	いしがき、ほり、どるいとーがのこり、げんざいこーえんとしてせいびされている。	NO_LABEL
国の史跡に指定されている。	くにのしせきにしていされている。	NO_LABEL
また、不開門が城跡の北西にある撰要寺に、町番所が市役所大須賀支所北側に、それぞれ移築され現存している。	また、ふかいもんがじょーせきのほくせいにあるせんよーてらに、まちばんしょがしやくしょおおすかししょきたがわに、それぞれいちくされげんそんしている。	NO_LABEL
これらの移築建造物は、掛川市文化財に指定されている。	これらのいちくけんぞーぶつわ、かけがわしぶんかざいにしていされている。	NO_LABEL
このほか、袋井市の油山寺には旧御殿の一部が移築されている。	このほか、ふくろいしのゆうざんじにわきゅーごてんのいちぶがいちくされている。	NO_LABEL
