ハンティンドンは、イングランド・ケンブリッジシャーのマーケット・タウン。	NO_PRONOUNCE	NO_LABEL
1205年にジョン王によって行政的には非都市ディストリクトのに属している。	せんにひゃくごねんにじょんおーによってぎょーせいてきにわひとしでぃすとりくとのにぞくしている。	NO_LABEL
以前は歴史的カウンティのハンティンドンシャーのカウンティ・タウンであったが、現在は非都市ディストリクトのハンティンドンシャーの行政上の中心である。	NO_PRONOUNCE	NO_LABEL
1559年にオリバー・クロムウェルが誕生した地として知られている。	せんごひゃくごじゅうきゅうねんにおりばーくろむうぇるがたんじょーしたじとしてしられている。	NO_LABEL
アングロ・サクソン人およびデーン人によって町は創設された。	あんぐろさくそんじんおよびでーんじんによってまちわそーせつされた。	NO_LABEL
