ローイエット・ユナイテッドFCは、タイのローイエット県をホームタウンとするサッカークラブ。	NO_PRONOUNCE	NO_LABEL
2011年からリージョナルリーグ・ディヴィジョン2の東北部リーグで3連覇している。	NO_PRONOUNCE	NO_LABEL
2011年と2012年はチャンピオンシップでグループリーグ4位に終わり、タイ・ディヴィジョン1リーグへの昇格を逃した。	NO_PRONOUNCE	NO_LABEL
2013年はチャンピオンシップのグループAで優勝し、ディヴィジョン1への初昇格を決めた。	NO_PRONOUNCE	NO_LABEL
