ブラックホールファイアウォールは、ブラックホールへ落ち込む観測者が事象の地平線で高エネルギーな量子の壁に出くわすのではないかという仮想的な現象である。	ぶらっくほーるふぁいあうぉーるわ、ぶらっくほーるえおちこむかんそくしゃがじしょーのちへいせんでこーえねるぎーなりょーしのかべにでくわすのでわないかとゆうかそーてきなげんしょーである。	NO_LABEL
「ファイアウォール」現象は2012年に、、、、によりと一見、不整合性を持つように見える解として提示された。	NO_PRONOUNCE	NO_LABEL
提案は、2012年の論文の筆者の頭文字をとって、 "AMPS" ファイアウォールと名付けられた。	NO_PRONOUNCE	NO_LABEL
この不整合を解消するためにファイアウォールを使うことは、2013年になっても高エネルギー物理学者の間で論争となっている<ref name="nature/Fire in the hole">Astrophysics: Fire in the hole! http://www.nature.com/news/astrophysics-fire-in-the-hole-1.12726</ref>。	NO_PRONOUNCE	NO_LABEL
前と同じ著者による別な論文 で、同じ考え方が過去にも提案されてきたと主張した。	まえとおなじちょしゃによるべつなろんぶんで、おなじかんがえかたがかこにもていあんされてきたとしゅちょーした。	NO_LABEL
これらの中でも、ウィンタバーグの提案は重要であると主張した。	これらのなかでも、うぃんたばーぐのていあんわじゅーよーであるとしゅちょーした。	NO_LABEL
ホーキング輻射だけの単独な輻射は、2つの互いに粒子を意味する。	ほーきんぐふくしゃだけのたんどくなふくしゃわ、ふたつのたがいにりゅーしをいみする。	NO_LABEL
出てくる粒子は、ホーキング輻射として放射され、落ち込む粒子はブラックホールへ飲み込まれる。	でてくるりゅーしわ、ほーきんぐふくしゃとしてほーしゃされ、おちこむりゅーしわぶらっくほーるえのみこまれる。	NO_LABEL
レオナルド・サスカインドや他の学者による広く受け入れられている研究に従えば、出てくる粒子は前にブラックホールから発射された全てのホーキング輻射と、もつれねばならない。	NO_PRONOUNCE	NO_LABEL
これがパラドックスを作り出す。	これがぱらどっくすをつくりだす。	NO_LABEL
全ての量子系のように「一夫一婦制のもつれ」と呼ばれる原理に従うと、出てくる粒子は同時に 2つの独立した系と完全にもつれ合うことはできない。	NO_PRONOUNCE	NO_LABEL
さらにここでは、出てくる粒子は落ち込んだ粒子と過去にホーキング輻射された粒子とも独立にもつれ合っているように見える。	さらにここでわ、でてくるりゅーしわおちこんだりゅーしとかこにほーきんぐふくしゃされたりゅーしともどくりつにもつれあっているよーにみえる。	NO_LABEL
パラドックスを解消するために、物理学者たちは結局、3つの時間発展で検証されている理論のうちの 1つをあきらめざるを得ないかもしれない。	ぱらどっくすをかいしょーするために、ぶつりがくしゃたちわけっきょく、みっつのじかんはってんでけんしょーされているりろんのうちのひとつをあきらめざるをえないかもしれない。	NO_LABEL
3つとはアインシュタインの等価原理、、現在の場の量子論である。	NO_PRONOUNCE	NO_LABEL
ある科学者は、量子的もつれは落ち込む粒子と出て行く粒子の間でもつれを断ち切ってはならないと言っている。	あるかがくしゃわ、りょーしてきもつれわおちこむりゅーしとでていくりゅーしのまでもつれをたちきってわならないといっている。	NO_LABEL
このもつれを破ることは、エネルギーの量を思いもよらぬものとするかもしれず、従ってブラックホールの事象の地平線では、何者も焼却してしまうようなブラックホールファイアウォールを作る。	このもつれをやぶることわ、えねるぎーのりょーをおもいもよらぬものとするかもしれず、したがってぶらっくほーるのじしょーのちへいせんでわ、なにものもしょーきゃくしてしまうよーなぶらっくほーるふぁいあうぉーるをつくる。	NO_LABEL
この解決方法は、自由落下と空中に浮いていることとは区別できないとするアインシュタインの等価原理を破ることを要求する。	このかいけつほーほーわ、じゆーらっかとくーちゅーにういていることとわくべつできないとするあいんしゅたいんのとーかげんりをやぶることをよーきゅーする。	NO_LABEL
等価原理の破れは、「とんでもない」特徴付けであり、「レンガ以上のものが突然あらわれ、顔面にぶつかるようなファイアウォールは空中に、突然あらわれることは単純にはできない」と反対する科学者もいる。	NO_PRONOUNCE	NO_LABEL
実際は輻射される粒子とそれ以前にホーキング輻射された粒子の間にもつれは存在しない、とする科学者もいる。	じっさいわふくしゃされるりゅーしとそれいぜんにほーきんぐふくしゃされたりゅーしのまにもつれわそんざいしない、とするかがくしゃもいる。	NO_LABEL
この解決方法は、ブラックホール情報喪失を起こすことになり、ユニタリ性を極端に壊してしまう。	このかいけつほーほーわ、ぶらっくほーるじょーほーそーしつをおこすことになり、ゆにたりせいをきょくたんにこわしてしまう。	NO_LABEL
ほかには、スティーブン・ギディングスのように、量子場理論を変更し、量子的なもつれが出て行く粒子と落ち込む粒子のゆっくりと解消していくようにし、結果としてブラックホールの内部のエネルギーが緩やかに開放され、最後にはファイアウォールがなくなる。	NO_PRONOUNCE	NO_LABEL
ジュアン・マルダセーナやレオナルド・サスカインドは、出て行く粒子と落ち込む粒子はなにかワームホールのようなものでつながっていて、独立した系ではなくなっているではと示唆している。	NO_PRONOUNCE	NO_LABEL
しかし、2013年に、この仮説はまだ検討作業進行中である。	しかし、にせんじゅうさんねんに、このかせつわまだけんとーさぎょーしんこーちゅーである。	NO_LABEL
<ref name="nytimes/Mystery Wrapped"></ref>	NO_PRONOUNCE	NO_LABEL
の描像は、「ノーヘア」真空を弦の量子状態と取り替えることでジレンマを解決する。	NO_PRONOUNCE	NO_LABEL
このように、ブラックホールの公式の歴史を持っていて、出力されてくるホーキング輻射とは明白に関係する。	このよーに、ぶらっくほーるのこーしきのれきしをもっていて、しゅつりょくされてくるほーきんぐふくしゃとわめいはくにかんけいする。	NO_LABEL
スティーヴン・ホーキングは、2014年1月に主要メディアを通した非公式な提案であるが、ブラックホールの事象の地平面を「見かけ上の地平線」へ置き換えるという提案を行った。	NO_PRONOUNCE	NO_LABEL
「見かけ上の地平線」においては、落下する物質は一旦停止した後でリリースされる。	NO_PRONOUNCE	NO_LABEL
しかし、何を正確に提案しようとしているのか、どのようにパラドックスが解決されているのかについて、混乱しているのではとする物理学者もいる。	しかし、なにをせいかくにていあんしようとしているのか、どのよーにぱらどっくすがかいけつされているのかについて、こんらんしているのでわとするぶつりがくしゃもいる。	NO_LABEL
ブラックホールファイアウォールは、ブラックホールの事象の地平線に存在して、事象の地平線の外側にいる観察者には見ることができないのかもしれない。	ぶらっくほーるふぁいあうぉーるわ、ぶらっくほーるのじしょーのちへいせんにそんざいして、じしょーのちへいせんのそとがわにいるかんさつしゃにわみることができないのかもしれない。	NO_LABEL
事象の地平線を通過しブラックホールの中へ落ち込む物質は、直ちにファイアウォールで、全ての熱い「煮えたぎった粒子の渦」で「カリカリに焼かれて」しまうかもしれない。	NO_PRONOUNCE	NO_LABEL
