1995年カタール・エクソンモービル・オープンは1995年1月2日から1月9日にかけてカタール・ドーハにて開催されたATPツアーワールドシリーズ大会である。	NO_PRONOUNCE	NO_LABEL
 ステファン・エドベリ def. マグヌス・ラーソン, 7–6, 6–1	NO_PRONOUNCE	NO_LABEL
 ステファン・エドベリ / マグヌス・ラーソン def. アンドレイ・オルホフスキー / ヤン・シーメリンク, 7–6, 6–2	NO_PRONOUNCE	NO_LABEL
