フルィボーチカは、ウクライナのキエフ州ビーラ・ツェールクヴァ地区にある村。	NO_PRONOUNCE	NO_LABEL
1500年に創建された。	せんごひゃくねんにそーけんされた。	NO_LABEL
面積は約1.0km²。	NO_PRONOUNCE	NO_LABEL
人口は415人。	じんこーわよんひゃくじゅうごにん。	NO_LABEL
フルィビーチカとも。	ふるぃびーちかとも。	NO_LABEL
