『ふくろうの河』を受賞。	NO_PRONOUNCE	NO_LABEL
オリジナルは3部作で構成されているが、『ふくろうの河』は3部。	NO_PRONOUNCE	NO_LABEL
ロベール・アンリコは、アメリカ合衆国の作家アンブローズ・ビアスの、南北戦争下の兵士と市民を描いた短編小説集『生のさなかにも』から3つの短編を選んでそれぞれ短編映画とした。	NO_PRONOUNCE	NO_LABEL
第3部である『ふくろうの河』は「アウル・クリーク橋の一事件」を映画化したものである。	NO_PRONOUNCE	NO_LABEL
1964年にはアメリカのテレビドラマシリーズ『トワイライト・ゾーン』の第5シーズンで142話「アウル・クリーク橋の一事件」としても放送された。	NO_PRONOUNCE	NO_LABEL
南北戦争中のアラバマ州のアウル・クリーク鉄橋で、農場主ペイトン・ファーカーが、南軍に味方して鉄橋を破壊しようとしたスパイ容疑で絞首刑にされようとしていた。	NO_PRONOUNCE	NO_LABEL
彼は残してきた農場や妻子のことを思いながら、もう一度家に戻れたらと思いを巡らせる。	かれわのこしてきたのーじょーやさいしのことをおもいながら、もーいちどいえにもどれたらとおもいをめぐらせる。	NO_LABEL
絞首刑が執行されたが、首を吊るす縄が途中で切れたためファーカーは川に落ち、そのまま逃げ出した。	こーしゅけいがしっこーされたが、くびをつるすなわがとちゅーできれたためふぁーかーわかわにおち、そのままにげだした。	NO_LABEL
銃弾をかいくぐって川を泳ぎ、野山を走り、かろうじて逃げおおせたファーカーは、死に直面する前には思いもしなかったほど樹にも草にも鮮烈な印象を受ける。	じゅーだんをかいくぐってかわをおよぎ、のやまをはしり、かろーじてにげおーせたふぁーかーわ、しにちょくめんするまえにわおもいもしなかったほどきにもくさにもせんれつないんしょーをうける。	NO_LABEL
森の道をたどったファーカーはやがて一軒の家にたどり着く。	もりのみちをたどったふぁーかーわやがていっけんのいえにたどりつく。	NO_LABEL
そこは妻と子供が暮らす自分の家であった。	そこわつまとこどもがくらすじぶんのいえであった。	NO_LABEL
ファーカーが我が家に駆け寄り、妻を抱きしめようとした瞬間、強い衝撃と共にファーカーの体がアウル・クリーク鉄橋からぶら下がった。	NO_PRONOUNCE	NO_LABEL
すべては処刑の瞬間に彼の強い願望が見せた幻覚だったのだ。	すべてわしょけいのしゅんかんにかれのつよいがんぼーがみせたげんかくだったのだ。	NO_LABEL
2006年4月28日、3000本限定で発売された。	NO_PRONOUNCE	NO_LABEL
のちに「キネマ旬報推薦 ヨーロッパ名画 DVDコレクションBOX」に収録され発売されている。	NO_PRONOUNCE	NO_LABEL
