仏壇とは、	ぶつだんとわ、	NO_LABEL
家庭内の仏壇について、チベット仏教では屋内の壁の1面程度を占めるサイズの祭壇上に本尊や供物などを、日本仏教では宗派ごとに指定された様式にて、木製の箱=仏壇の内部に本尊や脇侍の像・掛軸・供物などに加え、先祖供養のための位牌や過去帳、法名軸などを祀る。	NO_PRONOUNCE	NO_LABEL
内部は仏教各宗派の本山寺院の仏堂を模した豪華な作りになっている。	ないぶわぶっきょーかくしゅーはのほんざんじいんのぶつどーをもしたごーかなつくりになっている。	NO_LABEL
大きく分類する場合は、金仏壇・唐木仏壇・家具調仏壇に分けられる。	NO_PRONOUNCE	NO_LABEL
仏壇の起源については「持仏堂→仏壇説」と「魂棚→仏壇説」の2説ある。	NO_PRONOUNCE	NO_LABEL
古代インドでは、土を積み上げて「壇」を作り、そこを神聖な場所として「神」を祀っていた。	NO_PRONOUNCE	NO_LABEL
やがて風雨をしのぐために土壇の上に屋根が設けられた。	やがてふーうをしのぐためにどだんのうえにやねがもーけられた。	NO_LABEL
これが寺院の原型である。	これがじいんのげんけいである。	NO_LABEL
それを受け継ぎ仏壇の「壇」は土偏である。	NO_PRONOUNCE	NO_LABEL
白鳳14年3月27日、天武天皇が「諸国の家毎に仏舎を作り、乃ち仏像及び経を置きて以て礼拝供養せよ」との詔を出した。	NO_PRONOUNCE	NO_LABEL
それにちなみ全日本宗教用具協同組合では毎月27日を「仏壇の日」に制定している。	NO_PRONOUNCE	NO_LABEL
ただし、この詔は現在の仏壇の直接の起源ではない。	ただし、このみことのりわげんざいのぶつだんのちょくせつのきげんでわない。	NO_LABEL
貴族などの上流階級においては、持仏堂を持つものもあった。	きぞくなどのじょーりゅーかいきゅーにおいてわ、じぶつどーをもつものもあった。	NO_LABEL
藤原頼通の平等院鳳凰堂や足利義満の鹿苑寺などがある。	ふじわらのよりみちのびょーどーいんほうおうどーやあしかがよしみつのろくおんじなどがある。	NO_LABEL
また『更級日記』の作者、菅原孝標女が薬師仏を等身に造って屋敷内で祀ったというのも仏壇の源流である。	NO_PRONOUNCE	NO_LABEL
竹田聴洲によると、上記のような持仏堂が縮小・矮小化し屋内に取り込まれることによって仏間を経て仏壇に変化したとしている。	NO_PRONOUNCE	NO_LABEL
室町時代、浄土真宗中興の祖である本願寺八世・蓮如が布教の際に「南无阿弥陀仏」と書いた掛軸を信徒に授け、仏壇に祀ることを奨励した。	NO_PRONOUNCE	NO_LABEL
仏壇を作る際に本山を真似たところから、現在の金仏壇の元となる。	ぶつだんをつくるさいにほんざんをまねたところから、げんざいのきんぶつだんのもととなる。	NO_LABEL
それゆえ、浄土真宗では仏壇に対しての決まりごとが多い。	それゆえ、じょーどしんしゅーでわぶつだんにたいしてのきまりごとがおーい。	NO_LABEL
なお、現在でも浄土真宗において、仏壇の本尊は掛軸であり、菩提寺を通して本山から取り寄せたものとされる。	なお、げんざいでもじょーどしんしゅーにおいて、ぶつだんのほんぞんわかけじくであり、ぼだいじをとーしてもとやまからとりよせたものとされる。	NO_LABEL
なお、仏壇は仏教国であるタイなどでも見られない。	なお、ぶつだんわぶっきょーこくであるたいなどでもみられない。	NO_LABEL
それは寺院が生活の身近にあり、家の中に改めて小さな寺を作る必要がないからであり、供養壇としての流れが加わっているためでもある。	それわじいんがせいかつのみじかにあり、いえのなかにあらためてちーさなてらをつくるひつよーがないからであり、くよーだんとしてのながれがくわわっているためでもある。	NO_LABEL
モンゴルではゲルの中にチベット仏教の仏壇を設けることがある。	もんごるでわげるのなかにちべっとぶっきょーのぶつだんをもーけることがある。	NO_LABEL
盆に先祖や新仏の霊を迎える祭壇のことを魂棚という。	ぼんにせんぞやしんぼとけのれいをむかえるさいだんのことをたましーたなという。	NO_LABEL
形状は地域・時代によって様々であるが、四隅に竹や木で四本柱を建て板を渡したものや茶卓を使用する場合もある。	NO_PRONOUNCE	NO_LABEL
柳田國男はこの魂棚が盆のみの設置から常設化され仏壇になったとしている。	やなぎたくにおわこのたましーたながぼんのみのせっちからじょーせつかされぶつだんになったとしている。	NO_LABEL
現在、仏壇の起源については竹田のいう「持仏堂→仏壇説」の方が有力視されている。	NO_PRONOUNCE	NO_LABEL
江戸時代、幕府の宗教政策である寺請制度により、何れかの寺院を菩提寺と定めその檀家になることが義務付けられた。	えどじだい、ばくふのしゅーきょーせいさくであるてらうけせいどにより、いずれかのじいんをぼだいじとさだめそのだんかになることがぎむずけられた。	NO_LABEL
その証として各戸ごとに仏壇を設け、朝・夕礼拝し、先祖の命日には僧侶を招き供養するという習慣が確立した。	NO_PRONOUNCE	NO_LABEL
社会が安定し、庶民の暮らしが豊かになってきたことも背景に、庶民にまで浸透した。	しゃかいがあんていし、しょみんのくらしがゆたかになってきたこともはいけいに、しょみんにまでしんとーした。	NO_LABEL
また日光東照宮などに見るように、元禄期の社寺建築技術の隆盛が各地に影響を与えた。	またにっこーとうしょうぐーなどにみるよーに、げんろくきのしゃじけんちくぎじゅつのりゅーせいがかくちにえいきょーをあたえた。	NO_LABEL
金仏壇産地の多くは、その頃に宮大工が興したと言われている。	きんぶつだんさんちのおーくわ、そのころにみやだいくがおこしたといわれている。	NO_LABEL
この点についても諸説存在する。	このてんについてもしょせつそんざいする。	NO_LABEL
鎌倉時代に禅宗と共に位牌が持ち込まれると次第に浄土真宗以外の各宗派で用いられるようになり、江戸時代には一般化した。	かまくらじだいにぜんしゅーとともにいはいがもちこまれるとしだいにじょーどしんしゅーいがいのかくしゅーはでもちいられるよーになり、えどじだいにわいっぱんかした。	NO_LABEL
その位牌を置くために位牌壇を作ったり、浄土真宗を真似て仏壇を使用するようになった。	そのいはいをおくためにいはいだんをつくったり、じょーどしんしゅーをまねてぶつだんをしよーするよーになった。	NO_LABEL
その後、浄土真宗の仏壇と区別するために禅宗様が生まれる。	そのご、じょーどしんしゅーのぶつだんとくべつするためにぜんしゅーよーがうまれる。	NO_LABEL
そのために他宗では浄土真宗ほど仏壇に対して厳しくない。	そのためにたしゅーでわじょーどしんしゅーほどぶつだんにたいしてきびしくない。	NO_LABEL
なお神道には仏壇にあたる祖霊舎がある。	なおしんとーにわぶつだんにあたるそれいしゃがある。	NO_LABEL
神棚に神を祀り、祖霊舎には先祖を祀る。	かみだなにかみをまつり、それいしゃにわせんぞをまつる。	NO_LABEL
これは供養壇が神道風に発展したものである。	これわくよーだんがしんとーふーにはってんしたものである。	NO_LABEL
ただし、江戸時代までの神棚には先祖も同時に奉られていた。	ただし、えどじだいまでのかみだなにわせんぞもどーじにたてまつられていた。	NO_LABEL
寺院の住職家族用の仏壇を特に「御内仏」という。	NO_PRONOUNCE	NO_LABEL
小型の寺院という考え方であれば本堂があるので必要がないはずだが、先祖供養の観点から別途用意されることが多い。	こがたのじいんとゆうかんがえかたであればほんどーがあるのでひつよーがないはずだが、せんぞくよーのかんてんからべっとよーいされることがおーい。	NO_LABEL
仏壇には扉が付いている。	ぶつだんにわとびらがついている。	NO_LABEL
寺院の山門を見立てたものと言われる。	じいんのさんもんをみたてたものといわれる。	NO_LABEL
また寺院の本堂において内陣との境には巻障子がある。	またじいんのほんどーにおいてないじんとのさかいにわまきしょーじがある。	NO_LABEL
そのため、仏壇の扉の内側も障子が付く。	そのため、ぶつだんのとびらのうちがわもしょーじがつく。	NO_LABEL
仏壇内部は基本的に三段になっており、中の一番高い中央の檀を「須弥壇」と呼ぶ。	NO_PRONOUNCE	NO_LABEL
須弥山を象ったものとされる。	しゅみせんをかたどったものとされる。	NO_LABEL
須弥壇の上は「宮殿」と呼ばれ、本尊をまつる。	NO_PRONOUNCE	NO_LABEL
各宗派の本山寺院の内陣を模して造られるため、宗派によりつくりが異なる。	かくしゅーはのほんざんじいんのないじんをもしてつくられるため、しゅーはによりつくりがことなる。	NO_LABEL
その左右には脇侍仏や祖師をまつる。	そのさゆーにわきょうじわきじふつやそしをまつる。	NO_LABEL
須弥壇を含めた最上段には「高欄」が付く。	NO_PRONOUNCE	NO_LABEL
その下の段に位牌を置く。	そのしたのだんにいはいをおく。	NO_LABEL
位牌が複数ある場合は、向かって右・左・右と交互に並べる。	NO_PRONOUNCE	NO_LABEL
戦後、仏壇の左右両側面の上部に穴が開けられるようになった。	せんご、ぶつだんのさゆーりょーそくめんのじょーぶにあながあけられるよーになった。	NO_LABEL
これは灯籠の配線用のコードを通すためのものである。	これわとうろーのはいせんよーのこーどをとーすためのものである。	NO_LABEL
唐木仏壇ではほとんど差異がないが、金仏壇では特に以下の違いが顕著である。	からきぶつだんでわほとんどさいがないが、きんぶつだんでわとくにいかのちがいがけんちょである。	NO_LABEL
この他にも特徴があるが、地域差がある。	このほかにもとくちょーがあるが、ちーきさがある。	NO_LABEL
日蓮正宗や創価学会の仏壇は他宗派の仏壇と比べて構造が全く異なり、寺院の厨子に模した扉が内部に取り付けられ、最近では厨子型の仏壇も多く作られており、厨子の扉は電動式で開閉するものが主流である。	にちれんしょうしゅーやそーかがっかいのぶつだんわたしゅーはのぶつだんとくらべてこーぞーがまったくことなり、じいんのずしにもしたとびらがないぶにとりつけられ、さいきんでわずしがたのぶつだんもおーくつくられており、ずしのとびらわでんどーしきでかいへいするものがしゅりゅーである。	NO_LABEL
寺院同様、須弥壇の上に厨子を置くだけの場合もある。	じいんどーよー、しゅみだんのうえにずしをおくだけのばあいもある。	NO_LABEL
仏壇・仏具の寸法は尺貫法が基本になる。	NO_PRONOUNCE	NO_LABEL
仏壇の規模の表し方は金仏壇では「代」という単位が用いられる。	NO_PRONOUNCE	NO_LABEL
これは中に掛けられる掛軸の大きさのことを指しており、これが3幅掛けられるだけの内のりがあることを示す。	NO_PRONOUNCE	NO_LABEL
その際の掛軸とは、浄土真宗の本山から取り寄せた掛軸を指す。	そのさいのかけじくとわ、じょーどしんしゅーのほんざんからとりよせたかけじくをさす。	NO_LABEL
20代・30代・50代・70代・100代・120代・150代・200代がある。	NO_PRONOUNCE	NO_LABEL
浄土真宗各派でサイズは多少異なるが仏壇サイズは同じで作られる。	じょーどしんしゅーかくはでさいずわたしょーことなるがぶつだんさいずわおなじでつくられる。	NO_LABEL
各産地により差異があるが具体的には、	かくさんちによりさいがあるがぐたいてきにわ、	NO_LABEL
あくまで内のりであるので、同じ50代でも外寸法は異なる。	あくまでうちのりであるので、おなじごじゅうだいでもそとすんぽーわことなる。	NO_LABEL
「代」という単位は浄土真宗に基き、江戸時代における本尊のサイズごとの代価の名残であり、金仏壇と浄土真宗の繋がりの強さを感じさせる。	NO_PRONOUNCE	NO_LABEL
中に入れるものの大きさが基準となっている、単位しては珍しい例。	なかにいれるもののおーきさがきじゅんとなっている、たんいしてわめずらしいれい。	NO_LABEL
これの他に唐木仏壇と同様に外寸寸法表記を用いる地域も多い。	これのほかにからきぶつだんとどーよーにそとすんずんほーひょーきをもちいるちいきもおーい。	NO_LABEL
仏壇の規模の表し方は、高さ×戸幅の外寸寸法が用いられる。	ぶつだんのきぼのひょうしかたわ、たかさかけるとはばのそとすんずんほーがもちいられる。	NO_LABEL
戸幅とは、扉を閉めた時の扉部分の全体幅である。	とはばとわ、とびらをしめたときのとびらぶぶんのぜんたいはばである。	NO_LABEL
土地柄によっては戸幅が先で高さが後に表される所もある。	とちがらによってわとはばがさきでたかさがごにあらわされるところもある。	NO_LABEL
あくまで戸幅であるので、同じ43-20でも全体幅・奥行きは異なる。	NO_PRONOUNCE	NO_LABEL
たんすの上に置くような小型の仏壇の規模の表し方は、総丈を「号」もしくは「丈」で表す。	NO_PRONOUNCE	NO_LABEL
仏壇は「一基」、「一本」、「一台」で数えられる。	NO_PRONOUNCE	NO_LABEL
「基」は据え付けるという意味の助数詞。	NO_PRONOUNCE	NO_LABEL
据え付けるというのは施主の家に納まるということであるので、生産段階、販売段階では「台」と「本」が主に使用される。	NO_PRONOUNCE	NO_LABEL
展示本数、生産本数という。	てんじほんすー、せいさんほんすーという。	NO_LABEL
仏壇の内部及び、その周りに仏具を厳かに飾ることを、荘厳という。	ぶつだんのないぶおよび、そのまわりにぶつぐをおごそかにかざることを、そーごんという。	NO_LABEL
仏像もしくは掛軸の本尊を祀る。	ぶつぞーもしくわかけじくのほんぞんをまつる。	NO_LABEL
本尊は祀る対象のものであり、仏具とは呼ばない。	ほんぞんわまつるたいしょーのものであり、ぶつぐとわよばない。	NO_LABEL
そもそも仏壇とは本尊を祀ったものであり、本尊を入れる前のものは家具と同じであり、本尊を安置し、仏具によって荘厳して初めて仏壇としての機能を果たすことになる。	そもそもぶつだんとわほんぞんをまつったものであり、ほんぞんをいれるまえのものわかぐとおなじであり、ほんぞんをあんちし、ぶつぐによってしょーごんしてはじめてぶつだんとしてのきのーをはたすことになる。	NO_LABEL
仏具の内容は宗派により異なる。	ぶつぐのないよーわしゅーはによりことなる。	NO_LABEL
また同じ名前の仏具でも宗派により形や色が違う。	またおなじなまえのぶつぐでもしゅーはによりかたちやいろがちがう。	NO_LABEL
浄土真宗系は黒塗り・紺系、他宗は朱塗り・朱色系のものが使用される。	NO_PRONOUNCE	NO_LABEL
以下のものは仏壇に入れるべきではないとされる。	いかのものわぶつだんにいれるべきでわないとされる。	NO_LABEL
仏教は本来「ご利益信仰」では無いという観点から見れば祀るべきではないが実際には仏尊や先祖への感謝などの気持ちで地方の旧家等も含め仏壇に祀ることは多い。	NO_PRONOUNCE	NO_LABEL
仏壇を購入したら僧侶に開眼を依頼する。	ぶつだんをこーにゅーしたらそーりょにかいがんをいらいする。	NO_LABEL
いわゆる「精根入れ」のことで、仏像や掛軸、位牌に対して行う。	NO_PRONOUNCE	NO_LABEL
これをすることによって初めてご本尊や位牌が礼拝の対象になり、仏壇も箱から仏壇になる。	これをすることによってはじめてごほんぞんやいはいがれいはいのたいしょーになり、ぶつだんもはこからぶつだんになる。	NO_LABEL
宗派により、入仏式、御移し、入魂式、お霊入れ、お魂入れなどと言う。	しゅーはにより、にゅーぶっしき、ごうつし、じっこんしき、おれいいれ、おたましーいれなどという。	NO_LABEL
祝い事であり、水引は紅白となる。	いわいごとであり、みずひきわこーはくとなる。	NO_LABEL
表書きは「開眼供養料」、「入仏式 御布施」などとする。	NO_PRONOUNCE	NO_LABEL
購入日から余程日があいていなければ、法要の際に一緒に依頼することが多い。	こーにゅーびからよほどひがあいていなければ、ほーよーのさいにいっしょにいらいすることがおーい。	NO_LABEL
仏壇を処分する際には「精根抜き」をする。	NO_PRONOUNCE	NO_LABEL
また仏壇の移動・洗濯などの際にも、一旦「精根抜き」をしてから終了後に「精根入れ」をする。	NO_PRONOUNCE	NO_LABEL
日蓮正宗では、新たに本尊が下付された場合に僧侶の導師により入仏式が行われ、寺院が新たに創設された場合や本堂安置の本尊を新たに迎えた場合、本堂が建て替えられた場合に法主を迎えて入仏式が行われる。	にちれんしょうしゅーでわ、あらたにほんぞんがかふされたばあいにそーりょのどーしによりにゅーぶっしきがおこなわれ、じいんがあらたにそーせつされたばあいやほんどーあんちのほんぞんをあらたにむかえたばあい、ほんどーがたてかえられたばあいにほっしゅをむかえてにゅーぶっしきがおこなわれる。	NO_LABEL
引越しや仏壇の購入の場合は遷座式として行われる場合が多い。	ひっこしやぶつだんのこーにゅーのばあいわせんざしきとしておこなわれるばあいがおーい。	NO_LABEL
仏壇に対し「精根抜き」「精根入れ」は行わない。	NO_PRONOUNCE	NO_LABEL
また、浄土真宗では入仏式と呼ばれるが、本尊に仏を入れるといった考えがないため、正確には「入仏慶讚法要」と呼ばれる。	NO_PRONOUNCE	NO_LABEL
近年、ペットは家族の一員となっている。	きんねん、ぺっとわかぞくのいちいんとなっている。	NO_LABEL
そこでペットの死に際し、人間と同じように葬儀やお墓、仏壇を用意するケースも増えている。	そこでぺっとのしにさいし、にんげんとおなじよーにそーぎやおはか、ぶつだんをよーいするけーすもふえている。	NO_LABEL
原則的に、ペットは人間と同じ仏壇には祀らない。	げんそくてきに、ぺっとわにんげんとおなじぶつだんにわまつらない。	NO_LABEL
祀る場合は、別途設けることになる。	まつるばあいわ、べっともーけることになる。	NO_LABEL
それは住む世界が違うからだと言われる。	それわすむせかいがちがうからだといわれる。	NO_LABEL
写真や位牌の他に、祀るとすれば馬頭観音や観音菩薩を置く。	しゃしんやいはいのほかに、まつるとすればばとーかんのんやかんのんぼさつをおく。	NO_LABEL
仏壇や仏具・神棚・墓石などの祭祀財産は、相続税について課税財産と扱わない。	NO_PRONOUNCE	NO_LABEL
つまり非課税である。	つまりひかぜいである。	NO_LABEL
これは仏壇は個人のものではなく、共有財産と捉えられるからである。	これわぶつだんわこじんのものでわなく、きょーゆーざいさんととらえられるからである。	NO_LABEL
ただし、純金の仏像など純然たる信仰の対象とは考えにくいものは課税財産となる。	ただし、じゅんきんのぶつぞーなどじゅんぜんたるしんこーのたいしょーとわかんがえにくいものわかぜいざいさんとなる。	NO_LABEL
