助任本町は、徳島県徳島市の町名。	すけとーほんちょーわ、とくしまけんとくしましのちょーめい。	NO_LABEL
現行行政地名は助任本町一丁目から助任本町七丁目。	げんこーぎょーせいちめいわすけとーほんちょーいっちょーめからすけとーほんちょーななちょーめ。	NO_LABEL
2009年12月現在の徳島市の調査による人口は1,157人、世帯数は558世帯。	NO_PRONOUNCE	NO_LABEL
郵便番号は〒770-0816。	NO_PRONOUNCE	NO_LABEL
徳島市の北東部に位置し、渭北地区に属する。	NO_PRONOUNCE	NO_LABEL
南は助任川に面しており、北は吉野川堤で限られる。	みなみわすけとうがわにめんしており、きたわよしのがわつつみでかぎられる。	NO_LABEL
南から北へ一丁目から七丁目と細長く分布。	みなみからきたえいっちょーめからななちょーめとほそながくぶんぷ。	NO_LABEL
住宅地域で一丁目から四丁目までは商業地、五丁目から七丁目までは主に住宅地として利用される。	じゅーたくちいきでいっちょーめからよんちょーめまでわしょーぎょーち、ごちょーめからななちょーめまでわおもにじゅーたくちとしてりよーされる。	NO_LABEL
六丁目には日本キリスト教団徳島北教会や蜂須賀家の守護神である日枝神社が置かれる。	ろくちょうのめにわにほんきりすときょーだんとくしまきたきょーかいやはちすかかのしゅごじんであるひえじんじゃがおかれる。	NO_LABEL
元は助任町・下助任町・前川町の各一部で、昭和17年に現在の町名となった。	NO_PRONOUNCE	NO_LABEL
当町は第二次世界大戦前から一丁目から七丁目まで約1,200mに及ぶ一直線の道路が敷かれていた。	NO_PRONOUNCE	NO_LABEL
かつては一丁目から三丁目までを表丁、このすぐ東通りを裏ノ丁といい、この一円が助任町と呼ばれる所である。	かつてわいっちょーめからさんちょーめまでをおもてひのと、このすぐあずまどーりをうらのちょーといい、このいちえんがすけとーまちとよばれるところである。	NO_LABEL
四丁目から七丁目までは大岡本丁といい、武家屋敷が並んでいた。	よんちょーめからななちょーめまでわおーおかほんちょーといい、ぶけやしきがならんでいた。	NO_LABEL
七丁目は御鉄砲町とも言われ、鉄砲組が住んで北方の防備に当たった。	ななちょーめわごてっぽーちょーともいわれ、てっぽーぐみがすんでほっぽーのぼーびにあたった。	NO_LABEL
この直線道路は撫養本道と言われ、堤防外の中州から対岸の川内町鈴江と別宮に向けて、二航路の渡船が出ていた。	このちょくせんどーろわむやほんどーといわれ、ていぼーがいのなかすからたいがんのかわうちちょーすずえとべつくにむけて、にこーろのとせんがでていた。	NO_LABEL
