腕章は、腕に巻いたり付けたりする事で身に付ける記章。	わんしょーわ、うでにまいたりつけたりすることでみにつけるきしょー。	NO_LABEL
英語では、特に軍用の腕章、および準軍事組織や警察や政党などの使う腕章を、かつての甲冑において腕全体を守っていた腕当てにちなんで「」と呼ぶ。	NO_PRONOUNCE	NO_LABEL
入場許可証として使用されるものはアームパスと呼ぶ。	にゅーじょーきょかしょーとしてしよーされるものわあーむぱすとよぶ。	NO_LABEL
腕に巻く腕章は大きく目立つため、遠くからでも判別しやすい。	うでにまくわんしょーわおーきくめだつため、とーくからでもはんべつしやすい。	NO_LABEL
そのため公然とその者の所属、役割など示す場合によく使われる。	そのためこーぜんとそのもののしょぞく、やくわりなどしめすばあいによくつかわれる。	NO_LABEL
例えば私服や工兵用の作業服など、通常は階級章をつけない服の上に所属する組織や階級を示す腕章を巻くことで警察官や軍人であることが示されることがある。	たとえばしふくやこーへいよーのさぎょーふくなど、つーじょーわかいきゅーしょーをつけないふくのうえにしょぞくするそしきやかいきゅーをしめすわんしょーをまくことでけいさつかんやぐんじんであることがしめされることがある。	NO_LABEL
憲兵や衛生兵、赤十字社関係者は、自らの地位を周知させるため所属する組織の腕章を巻く。	けんぺいやえいせいへい、せきじゅーじしゃかんけいしゃわ、みずからのちいをしゅーちさせるためしょぞくするそしきのわんしょーをまく。	NO_LABEL
またハーグ陸戦条約では、腕章で交戦資格のある団体に所属していることを示せば捕虜の待遇を受ける事ができる。	またはーぐりくせんじょーやくでわ、わんしょーでこーせんしかくのあるだんたいにしょぞくしていることをしめせばほりょのたいぐーをうけることができる。	NO_LABEL
社会的な変動期には、特定の政治運動を支持していることや政党に属していることを示すためにも腕章は使われる。	しゃかいてきなへんどーきにわ、とくていのせいじうんどーをしじしていることやせいとーにぞくしていることをしめすためにもわんしょーわつかわれる。	NO_LABEL
ヴァイマル共和政時代のドイツではナチスは街頭での示威活動の際に鉤十字の入った赤い腕章を身につけており、敵対するドイツ共産党やドイツ社会民主党も同様に腕章を使用していた。	NO_PRONOUNCE	NO_LABEL
またユダヤ人迫害の際には、差別されるべき存在の目印としてダビデの星を縫い付けた腕章をつけさせた。	またゆだやじんはくがいのさいにわ、さべつされるべきそんざいのめじるしとしてだびでのほしをぬいつけたわんしょーをつけさせた。	NO_LABEL
現在の日本でも日本共産党では街頭宣伝の際、取材担当者は党名入り腕章をつける。	げんざいのにっぽんでもにほんきょーさんとーでわがいとーせんでんのさい、しゅざいたんとーしゃわとーめいいりわんしょーをつける。	NO_LABEL
事件・事故・災害などの際、報道関係者は一般人との識別のため「PRESS」「報道」「取材」等の腕章をつけている。	NO_PRONOUNCE	NO_LABEL
黒い腕章は、葬儀や集会、スポーツ競技の場などで、死んで間もない関係者に対する弔意を示すために使われる。	くろいわんしょーわ、そーぎやしゅーかい、すぽーつきょーぎのばなどで、しんでまもないかんけいしゃにたいするちょーいをしめすためにつかわれる。	NO_LABEL
いずれにせよ、腕章は特定の集団、立場にあることを周囲に周知させるためという特徴がある。	いずれにせよ、わんしょーわとくていのしゅーだん、たちばにあることをしゅーいにしゅーちさせるためとゆうとくちょーがある。	NO_LABEL
なお、サッカーにおける「キャプテンマーク」腕章は走り回っているうちに抜け落ちたりしては問題なので布の帯ではなく、伸縮性のあるジャージ状バンドである。	NO_PRONOUNCE	NO_LABEL
日本では“緑の地に白い2本線”の交通警察部門または交通指導員・交通警備の腕章がよく知られている。	NO_PRONOUNCE	NO_LABEL
由来は路面電車の軌道であるという。	ゆらいわろめんでんしゃのきどーであるという。	NO_LABEL
帯状で脱落防止紐や安全ピンの付いた形式が一般的である。	おびじょーでだつらくぼーしひもやあんぜんぴんのついたけいしきがいっぱんてきである。	NO_LABEL
しかし国や組織によっては肩章を通して吊り下げるために、中央部分が盛り上がりスロットを入れた山形になっている形式の物も存在している。	しかしくにやそしきによってわけんしょーをとーしてつりさげるために、ちゅーおーぶぶんがもりあがりすろっとをいれたやまがたになっているけいしきのものもそんざいしている。	NO_LABEL
