『地球に落ちて来た男』は、1976年制作のイギリスのSF映画。	NO_PRONOUNCE	NO_LABEL
ウォルター・テヴィス原作のSF小説の映画化。	NO_PRONOUNCE	NO_LABEL
ニコラス・ローグ監督、デヴィッド・ボウイの初主演映画。	NO_PRONOUNCE	NO_LABEL
ボウイは第4回サターンSF映画賞主演男優賞を受賞した。	ぼういわだいよんかいさたーんえすえふえいがしょーしゅえんだんゆーしょーをじゅしょーした。	NO_LABEL
当初、上映時間は119分だったが、1999年に139分の完全版が公開された。	とーしょ、じょーえいじかんわひゃくじゅうきゅうふんだったが、せんきゅうひゃくきゅうじゅうきゅうねんにひゃくさんじゅうきゅうふんのかんぜんばんがこーかいされた。	NO_LABEL
ある日、宇宙船がアメリカ・ニューメキシコの砂漠地帯に落下する。	NO_PRONOUNCE	NO_LABEL
しばらくして後、トーマスという非常に美しい容姿を持った1人の男が弁護士のもとを訪れ、人知を超えた9つの特許を元に巨大企業を作り上げる。	しばらくしてご、とーますとゆうひじょーにうつくしいよーしをもったひとりのおとこがべんごしのもとをおとずれ、じんちをこえたここのつのとっきょをもとにきょだいきぎょーをつくりあげる。	NO_LABEL
実は彼は落下した宇宙船に乗っていた宇宙人で、地球にやってきたのは、不毛の地となりつつある母星を救うという目的のためだった。	じつわかれわらっかしたうちゅうせんにのっていたうちゅーじんで、ちきゅーにやってきたのわ、ふもーのちとなりつつあるははぼしをすくうとゆうもくてきのためだった。	NO_LABEL
しかし、そのビジネスの成功はやがて思わぬ結果を招く…。	NO_PRONOUNCE	NO_LABEL
2015年にオフブロードウェイで舞台化され、ボウイ自身もプロデュースを担当することが発表された。	にせんじゅうごねんにおふぶろーどうぇいでぶたいかされ、ぼういじしんもぷろでゅーすをたんとーすることがはっぴょーされた。	NO_LABEL
舞台化作品のためにボウイ自身が新曲を書きおろし、さらに過去の楽曲がアレンジされて提供される。	ぶたいかさくひんのためにぼういじしんがしんきょくをかきおろし、さらにかこのがっきょくがあれんじされてていきょーされる。	NO_LABEL
