ウィリアム・マクマスター・マードックは、イギリスの航海士。	うぃりあむまくますたーまーどっくわ、いぎりすのこーかいし。	NO_LABEL
客船タイタニック号に一等航海士として乗船しており、同船の沈没事故により命を落とした。	きゃくせんたいたにっくごーにいっとーこーかいしとしてじょーせんしており、どーせんのちんぼつじこによりいのちをおとした。	NO_LABEL
1873年、スコットランド・の船乗りの家庭に生まれる。	NO_PRONOUNCE	NO_LABEL
1887年、を卒業。	せんはっぴゃくはちじゅうしちねん、をそつぎょー。	NO_LABEL
リバプールのWilliam Joyce & Coy社で5年間航海士訓練生として勤務。	NO_PRONOUNCE	NO_LABEL
必要な免許を取った後、ホワイト・スター・ライン社に入社。	ひつよーなめんきょをとったのち、ほわいとすたーらいんしゃににゅーしゃ。	NO_LABEL
1900年から1912年にかけて、セルティック号、ジャーマニック号、アドリアティック号などに乗務。	せんきゅうひゃくねんからせんきゅうひゃくじゅうにねんにかけて、せるてぃっくごー、じゃーまにっくごー、あどりあてぃっくごーなどにじょーむ。	NO_LABEL
タイタニック号の姉妹船、オリンピック号にも1911年から1年近く乗務した。	たいたにっくごーのしまいせん、おりんぴっくごーにもせんきゅうひゃくじゅういちねんからいちねんちかくじょーむした。	NO_LABEL
1903年、ニュージーランドで教師をしていたエイダ・フローレンスと出会う。	NO_PRONOUNCE	NO_LABEL
1912年3月、タイタニック号乗務を命じられる。	せんきゅうひゃくじゅうにねんさんがつ、たいたにっくごーじょーむをめいじられる。	NO_LABEL
マードックは当初航海士長だったが、大型船舶の航海士長の経験がないことをスミス船長に憂慮され、オリンピック号の航海士長だったヘンリー・ティングル・ワイルドが航海士長として急遽転属することになり、マードックは一等航海士に格下げされた。	まーどっくわとーしょこーかいしちょーだったが、おーがたせんぱくのこーかいしちょーのけいけんがないことをすみすせんちょーにゆーりょされ、おりんぴっくごーのこーかいしちょーだったへんりーてぃんぐるわいるどがこーかいしちょーとしてきゅーきょてんぞくすることになり、まーどっくわいっとーこーかいしにかくさげされた。	NO_LABEL
スミス船長、ワイルド航海士長、マードック一等航海士、ライトラー二等航海士の4人が交代制でブリッジの指揮を執った。	すみすせんちょー、わいるどこーかいしちょー、まーどっくいっとーこーかいし、らいとらーにとーこーかいしのよにんがこーたいせいでぶりっじのしきをとった。	NO_LABEL
1912年4月14日午後11時40分にタイタニックが氷山に衝突した際にはマードックが当直だった。	せんきゅうひゃくじゅうにねんしがつじゅうよっかごごじゅういちじよんじゅっぷんにたいたにっくがひょーざんにしょーとつしたさいにわまーどっくがとーちょくだった。	NO_LABEL
衝突直前、氷山を発見したマストの見張りからの電話で「正面に氷山があります」との報告を受けた六等航海士はすぐにマードックに対してその言葉を繰り返して報告した。	NO_PRONOUNCE	NO_LABEL
マードックは操舵員に「おも舵一杯」と指示。	NO_PRONOUNCE	NO_LABEL
さらに機関室用信号機を使って両エンジンに全速後進の指示を出した。	さらにきかんしつよーしんごうきをつかってりょーえんじんにぜんそくこーしんのしじをだした。	NO_LABEL
結果、氷山への正面衝突は免れたものの、船体右舷と氷山が接触した。	けっか、ひょーざんえのしょーめんしょーとつわまぬかれたものの、せんたいうげんとひょーざんがせっしょくした。	NO_LABEL
マードックはすぐにボイラー室と機関室の防水壁を閉じるスイッチを押し、ブリッジへ戻ってきたスミス船長に状況を報告した。	まーどっくわすぐにぼいらーしつときかんしつのぼーすいかべをとじるすいっちをおし、ぶりっじえもどってきたすみすせんちょーにじょーきょーをほーこくした。	NO_LABEL
その後、トマス・アンドリューズの船室でタイタニックが沈没するであろう旨の状況説明を受けたスミス船長は、4月15日に入った午前0時5分頃に救命ボートの準備をするよう指示を出し、マードックは乗客を集める準備にかかった。	NO_PRONOUNCE	NO_LABEL
さらに午後0時20分、スミス船長はマードックを右舷ボート、二等航海士ライトラーを左舷ボート担当に任じた。	さらにごごれいじにじゅっぷん、すみすせんちょーわまーどっくをうげんぼーと、にとーこーかいしらいとらーをさげんぼーとたんとーににんじた。	NO_LABEL
またスミス船長は「婦女子優先」を命じていたが、この命令をライトラーは徹底したのに対し、マードックは緩やかに適用した。	NO_PRONOUNCE	NO_LABEL
たとえば主人と離れたがらない夫人などの場合、マードックは座席に余裕があれば夫と一緒に乗ることを許可することが多かった。	たとえばしゅじんとはなれたがらないふじんなどのばあい、まーどっくわざせきによゆーがあればおっとといっしょにのることをきょかすることがおーかった。	NO_LABEL
それによって余計な遅れをなくそうという考えからだった。	それによってよけいなおくれをなくそうとゆうかんがえからだった。	NO_LABEL
ライトラーによれば、マードックは2時15分頃、折り畳み式のA号ボートを吊り柱に取り付けようと悪戦苦闘していたところ、船首が沈んで船尾が上がるにつれてボートデッキを上がってくる水に飲み込まれて命を落としたという。	NO_PRONOUNCE	NO_LABEL
39歳没	さんじゅうきゅうさいぼつ	NO_LABEL
1997年の映画『タイタニック』は、マードックを賄賂を受け取ったあげく、乗客を射殺した殺人者かのように描いたため、その家族やダルビーティ市民から批判を集めた。	NO_PRONOUNCE	NO_LABEL
1998年に20世紀フォックスの副社長スコット・ニーソンがマードックの80歳の甥のところへ出向いて謝罪を行っている。	NO_PRONOUNCE	NO_LABEL
