双田橋は、山梨県甲斐市下今井と南アルプス市上高砂・野牛島を結ぶ釜無川に架かる橋である。	NO_PRONOUNCE	NO_LABEL
橋名は両岸の旧自治体名であった、現甲斐市の旧双葉町の「双」と、現南アルプス市の旧八田村の「田」から名付けられた。	NO_PRONOUNCE	NO_LABEL
釜無川と御勅使川との合流地点すぐの場所にある橋であり、現在の橋は長さ359.5m、幅員15.3m、6径間の連続鋼製箱桁橋として2004年3月31日に開通した。	NO_PRONOUNCE	NO_LABEL
旧橋は山梨県道118号線に指定されていたが、新橋開通後は一般国道に移管され、国道52号甲西道路に指定されている。	ふるはしわやまなしけんどーひゃくじゅうはちごーせんにしていされていたが、しんばしかいつーごわいっぱんこくどーにいかんされ、こくどーごじゅうにごーこーさいどーろにしていされている。	NO_LABEL
新橋開通からわずか3年後の2007年にひび割れが見つかり、現在対応と対策が行われている。	しんばしかいつーからわずかさんねんごのにせんななねんにひびわれがみつかり、げんざいたいおーとたいさくがおこなわれている。	NO_LABEL
