『杉沢村伝説 完全無削除 絶対恐怖版』は、2000年公開の田川幹太監督のオリジナルビデオである。	NO_PRONOUNCE	NO_LABEL
ストーリーテラーは桜金造。	すとーりーてらーわさくらきんぞー。	NO_LABEL
20世紀末に流行した地図から消えた幻の村杉沢村にスポットを当てたモキュメンタリー作品である。	にじっせいきまつにりゅーこーしたちずからきえたまぼろしのむらすぎさわむらにすぽっとをあてたもきゅめんたりーさくひんである。	NO_LABEL
映像制作スタッフのメンバーが幻の村・杉沢村の詳細を知る少女と出会い、場所を知る事になり杉沢村のある山に潜入。	NO_PRONOUNCE	NO_LABEL
が、道中、度重なるアクシデントに見舞われ、スタッフ間の争いと恐怖が場を混沌へと導く。	が、どーちゅー、たびかさなるあくしでんとにみまわれ、すたっふかんのあらそいときょーふがばをこんとんえとみちびく。	NO_LABEL
そして問題の杉沢村に辿りつくが、そこには予想だにしない事態がスタッフを待ち受けていた。	そしてもんだいのすぎさわむらにたどりつくが、そこにわよそーだにしないじたいがすたっふをまちうけていた。	NO_LABEL
再現ドラマ	さいげんどらま	NO_LABEL
