村田 喜一- 1987年）は、日本の農学者・水産学者・栄養学者。	NO_PRONOUNCE	NO_LABEL
農学博士。	のーがくはかせ。	NO_LABEL
医学博士。	いがくはくし。	NO_LABEL
北海道大学名誉教授。	ほっかいどーだいがくめいよきょーじゅ。	NO_LABEL
元函館大学学長。	もとはこだてだいがくがくちょー。	NO_LABEL
石川県河北郡津幡町出身	いしかわけんかほくぐんつばたまちしゅっしん	NO_LABEL
専門は食品衛生学。	せんもんわしょくひんえいせいがく。	NO_LABEL
また、畜産学や水産食品化学の第一人者として知られ、各種ミルクの成分分析と水産皮革の実用化に貢献、特に急速皮革なめし法の研究は高く評価されている。	また、ちくさんがくやすいさんしょくひんかがくのだいいちにんしゃとしてしられ、かくしゅみるくのせいぶんぶんせきとすいさんひかくのじつよーかにこーけん、とくにきゅーそくひかくなめしほーのけんきゅーわたかくひょーかされている。	NO_LABEL
『北海道人物・人材リスト　2004　あーお』	NO_PRONOUNCE	NO_LABEL
