冠岳区は大韓民国ソウル特別市南部にある区。	くぁなくくわだいかんみんこくそーるとくべつしなんぶにあるく。	NO_LABEL
冠岳山の丘陵地帯にあるソウル郊外の住宅地。	かんむりだけさんのきゅーりょーちたいにあるそうるこーがいのじゅーたくち。	NO_LABEL
冠岳区はソウル市の南部に位置する。	くぁなくくわそーるしのなんぶにいちする。	NO_LABEL
幾度かの行政区画の調整と洞の統廃合を経て、現在は21ヶ洞が設置されている。	NO_PRONOUNCE	NO_LABEL
区長は1995年より公選制となり、4年毎に選挙が行われる。	くちょーわせんきゅうひゃくきゅうじゅうごねんよりこーせんせいとなり、よんねんごとにせんきょがおこなわれる。	NO_LABEL
現在の区長は柳鍾。	NO_PRONOUNCE	NO_LABEL
1991年4月に設置され、定数22名。	NO_PRONOUNCE	NO_LABEL
中選挙区と比例代表の並立制で4年毎に選挙が行われる。	ちゅーせんきょくとひれいだいひょーのへいりつせいでよんねんごとにせんきょがおこなわれる。	NO_LABEL
6つの部局の下に34の課が設置されている。	NO_PRONOUNCE	NO_LABEL
ソウル冠岳警察署の下に地区隊と派出所、治安センターが23箇所に設置されている。	NO_PRONOUNCE	NO_LABEL
消防署は1箇所、その下に119安全センターが4箇所に設置されている。	NO_PRONOUNCE	NO_LABEL
学校は95箇所に設置されている。	NO_PRONOUNCE	NO_LABEL
冠岳区はソウル特別市銅雀冠岳教育支援庁の所属である。	くぁなくくわそーるとくべつしどーすずめかんむりだけきょーいくしえんちょーのしょぞくである。	NO_LABEL
日付は姉妹都市締結日	ひずけわしまいとしていけつび	NO_LABEL
