セイヨウオオバコは、オオバコ科オオバコ属に分類される植物。	せいようおおばこわ、おーばこかおーばこぞくにぶんるいされるしょくぶつ。	NO_LABEL
和名はオニオオバコともされる。	わめいわおにおおばこともされる。	NO_LABEL
原産地はヨーロッパとアジア北部、アジア中央部の大部分である。	げんさんちわよーろっぱとあじあほくぶ、あじあちゅーおーぶのだいぶぶんである。	NO_LABEL
しかし、世界各地で雑草として帰化している。	しかし、せかいかくちでざっそーとしてきかしている。	NO_LABEL
ヨーロッパを原産地とする。	よーろっぱをげんさんちとする。	NO_LABEL
日本には北海道から沖縄までの全国に移入分布する。	にっぽんにわほっかいどーからおきなわまでのぜんこくにいにゅーぶんぷする。	NO_LABEL
セイヨウオオバコは多年生の草本で、ロゼット状に葉をつける。	せいようおおばこわたねんせいのそーほんで、ろぜっとじょーにはをつける。	NO_LABEL
葉は丸く、通常長さ5-20cm、幅4-9cm程度であるが、まれに長さ30cm、幅17cm程度まで大きくなることもある。	NO_PRONOUNCE	NO_LABEL
 花は穂状花序で、花の色は緑がかった茶色。	はなわすいじょーかじょで、はなのいろわみどりがかったちゃいろ。	NO_LABEL
各花は紫色のおしべを持つ。	かくはなわむらさきいろのおしべをもつ。	NO_LABEL
花茎は直立し、長さ13-15cm程度になる。	NO_PRONOUNCE	NO_LABEL
土壌の貧弱な道端や踏み付けの多いところでも生育する。	どじょーのひんじゃくなみちばたやふみつけのおーいところでもせいいくする。	NO_LABEL
また草原でも普通に生育し、農作物の雑草としてもよく見られる。	またそーげんでもふつーにせいいくし、のーさくもつのざっそーとしてもよくみられる。	NO_LABEL
花は風媒花で、直立した穂状花序で生産される種子によって主に繁殖する。	はなわふーばいかで、ちょくりつしたすいじょーかじょでせいさんされるしゅしによっておもにはんしょくする。	NO_LABEL
以下の3亜種が知られている。	NO_PRONOUNCE	NO_LABEL
セイヨウオオバコの種子は穀物や農作物の種子によく混じっている。	せいようおおばこのしゅしわこくもつやのーさくもつのしゅしによくまじっている。	NO_LABEL
そのため、世界各国で帰化し、地域によっては侵略的外来種として扱われている。	そのため、せかいかっこくできかし、ちいきによってわしんりゃくてきがいらいしゅとしてあつかわれている。	NO_LABEL
ネイティブアメリカンは、白人が通った道にセイヨウオオバコが生えることから、セイヨウオオバコを「白人の足跡」「イギリス人の足」と呼んだ。	NO_PRONOUNCE	NO_LABEL
日本でも身近な植物であり、子供の間では2本の茎を絡めて互いに引っ張り合い茎の強さを競う「オオバコ相撲」と呼ばれる遊びが行われる。	NO_PRONOUNCE	NO_LABEL
セイヨウオオバコの葉は薬草として用いられることがある。	せいようおおばこのはわやくそーとしてもちいられることがある。	NO_LABEL
また歴史的に、傷の治療やヘビによる咬傷の治療にも用いられた。	またれきしてきに、きずのちりょーやへびによるこーしょーのちりょーにももちいられた。	NO_LABEL
またセイヨウオオバコは、肌荒れ防止効果があるとされるアラントインを含んでおり、同じくアラントインを含むヒレハリソウの製剤に代わってセイヨウオオバコの抽出成分が用いられることもある。	またせいようおおばこわ、はだあれぼーしこーかがあるとされるあらんといんをふくんでおり、どうじくあらんといんをふくむひれはりそーのせいざいにかわってせいようおおばこのちゅーしゅつせいぶんがもちいられることもある。	NO_LABEL
またセイヨウオオバコは、肝毒性を抑止する効果があるとされるアウクビンも含有している。	またせいようおおばこわ、かんどくせいをよくしするこーかがあるとされるあうくびんもがんゆーしている。	NO_LABEL
