ソコニシン科は、スズキ目スズキ亜目に所属する魚類の分類群の一つ。	そこにしんかわ、すずきもくすずきあめにしょぞくするぎょるいのぶんるいぐんのひとつ。	NO_LABEL
ソコニシンなど外洋で生活する深海魚を中心に、少なくとも1属7種が含まれる。	NO_PRONOUNCE	NO_LABEL
科名の由来は、ギリシア語の「bathys」とラテン語の「clupea」から。	NO_PRONOUNCE	NO_LABEL
ソコニシン科の魚類はすべて海水魚で、西部太平洋からインド洋にかけて、およびメキシコ湾周辺の外洋に分布する。	そこにしんかのぎょるいわすべてかいすいぎょで、せいぶたいへいよーからいんどよーにかけて、およびめきしこわんしゅーへんのがいよーにぶんぷする。	NO_LABEL
海底から離れた深海の中層を漂泳して生活するものとみられ、水深300-800mの範囲からの報告が多い。	NO_PRONOUNCE	NO_LABEL
日本近海からはソコニシン1種のみが知られていたが、2014年に新種として "Bathyclupea nikparini" が高知沖から報告されている。	NO_PRONOUNCE	NO_LABEL
採集されることが比較的稀なグループであり、本科魚類の生活史についてはほとんどわかっていない。	さいしゅーされることがひかくてきまれなぐるーぷであり、ほんかぎょるいのせいかつしについてわほとんどわかっていない。	NO_LABEL
左右に平たく側扁し、イワシやニシン類と似た体型をもつ。	NO_PRONOUNCE	NO_LABEL
一般的に小型の魚類で、体長は最大でも20cm程度である。	いっぱんてきにこがたのぎょるいで、たいちょーわさいだいでもにじゅうせんちめーとるていどである。	NO_LABEL
背鰭は1つで、体の後方寄りに位置する。	せびれわひとつで、からだのこーほーよりにいちする。	NO_LABEL
背鰭の棘条を欠き、軟条は8-10本。	NO_PRONOUNCE	NO_LABEL
臀鰭の基底は長く、1本の棘条と24-39本の軟条で構成される。	NO_PRONOUNCE	NO_LABEL
背鰭・臀鰭ともに鱗で覆われ、本科の英語での別名「deep-sea scalyfin」の由来となっている。	NO_PRONOUNCE	NO_LABEL
胸鰭は26-30軟条で、鰭条はやや長い。	NO_PRONOUNCE	NO_LABEL
口は前上顎骨と主上顎骨によって縁取られる。	くちわまえかみがっこつとしゅじょーがっこつによってえんとられる。	NO_LABEL
椎骨は31個。	NO_PRONOUNCE	NO_LABEL
ソコニシン科にはNelsonの体系において、ソコニシン属のみ1属7種が認められている。	NO_PRONOUNCE	NO_LABEL
これに加えて、2014年には日本近海産の1種を含む2種が新種として記載されたほか、新属として 属の設置が提唱された。	これにくわえて、にせんじゅうよねんにわにっぽんきんかいさんのいちしゅをふくむにしゅがしんしゅとしてきさいされたほか、しんぞくとしてぞくのせっちがていしょーされた。	NO_LABEL
本科はかつてニシン類と近縁と考えられ、1940年代には独立の「ソコニシン目」としてニシン目に続く位置に置かれたこともあるが、以後はスズキ目の一部としての位置付けが確立している。	NO_PRONOUNCE	NO_LABEL
