伊勢商人は、大阪商人、近江商人と並ぶ日本三大商人の1つである。	いせしょーにんわ、おーさかしょーにん、おーみしょーにんとならぶにほんさんだいしょーにんのひとつである。	NO_LABEL
江戸時代の伊勢国出身の商人で、安土桃山時代の16世紀後半から、本所となる伊勢以外にも江戸、大阪、京都などいわゆる三都に出店し日本全国に商売のネットワークを広げていった。	えどじだいのいせのくにしゅっしんのしょーにんで、あずちももやまじだいのじゅうろくせいきこーはんから、ほんじょとなるいせいがいにもえど、おーさか、きょーとなどいわゆるさんとにしゅってんしにっぽんぜんこくにしょーばいのねっとわーくをひろげていった。	NO_LABEL
伊勢商人として、最も代表的な存在は江戸に呉服店越後屋を出店し三井の基礎を作った三井高利である。	いせしょーにんとして、もっともだいひょーてきなそんざいわえどにごふくてんえちごやをしゅってんしみついのきそをつくったみついたかとしである。	NO_LABEL
伊勢商人の屋号は主に「伊勢屋」「丹波屋」など。	NO_PRONOUNCE	NO_LABEL
江戸では主に伝馬町界隈に出店する事が多かったようである。	えどでわおもにてんまちょーかいわいにしゅってんすることがおーかったよーである。	NO_LABEL
又江戸では伊勢出身の商人はかなり多かったらしく「江戸名物は伊勢屋、稲荷に犬の糞」と言われていた。	NO_PRONOUNCE	NO_LABEL
伊勢商人は、元々、戦国時代中期から日本に流入してきた木綿を全国に出歩いて行って売りさばいていた存在であった。	いせしょーにんわ、もともと、せんごくじだいちゅーきからにっぽんにりゅーにゅーしてきたもめんをぜんこくにであるいていってうりさばいていたそんざいであった。	NO_LABEL
当時の木綿は高級生地であったため、これらから得た利益が彼らを豪商と呼ばれる存在へと高めていった。	とーじのもめんわこーきゅーきじであったため、これらからえたりえきがかれらをごーしょーとよばれるそんざいえとたかめていった。	NO_LABEL
木綿・呉服のほか、材木・紙・酒を扱った伊勢商人がおり、金融業・両替商となる者もいた。	NO_PRONOUNCE	NO_LABEL
伊勢おしろいも主な取引品目の一つである。	いせおしろいもおもなとりひきひんもくのひとつである。	NO_LABEL
江戸時代前期に当たる寛永年間から中期に当たる元禄年間にかけて、続々と江戸や大阪、京に出店するものが現れた。	えどじだいぜんきにあたるかんえいねんかんからちゅーきにあたるげんろくねんかんにかけて、ぞくぞくとえどやおーさか、きょーにしゅってんするものがあらわれた。	NO_LABEL
これは江戸幕府による支配が安定し、経済制度の整備が進められたことを反映している。	これわえどばくふによるしはいがあんていし、けいざいせいどのせいびがすすめられたことをはんえいしている。	NO_LABEL
伊勢商人のキャラクターとしては彼らの商売はかなり手堅かったことから「近江泥棒、伊勢乞食」と言う言葉が残されている。	NO_PRONOUNCE	NO_LABEL
また伊勢商人独自の情報ネットワークが指摘されており、特に伊勢参りに向かう人々が安濃津や松阪を経由していく事から、彼から諸国の情報を手に入れられたことが伊勢商人の発展につながっていると見られている。	またいせしょーにんどくじのじょーほーねっとわーくがしてきされており、とくにいせまいりにむかうひとびとがあのつやまつさかをけいゆしていくことから、かれからしょこくのじょーほーをてにいれられたことがいせしょーにんのはってんにつながっているとみられている。	NO_LABEL
