ピアリーは、月にある大きなクレーターであり、月の北極点のごく近くに位置する。	ぴありーわ、つきにあるおーきなくれーたーであり、つきのほっきょくてんのごくちかくにいちする。	NO_LABEL
西洋人として最初に北極点に到達したアメリカの探検家ロバート・エドウィン・ピアリーにちなんで名づけられた。	NO_PRONOUNCE	NO_LABEL
高緯度に位置するため、ピアリーの内側には太陽の光がほとんど入らず、クレーター底の南側は一年を通して完全に影に覆われている。	こーいどにいちするため、ぴありーのうちがわにわたいよーのひかりがほとんどはいらず、くれーたーそこのみなみがわわいちねんをとーしてかんぜんにかげにおおわれている。	NO_LABEL
地球からは、月の北側の縁にピアリーを見ることができる。	ちきゅーからわ、つきのきたがわのえんにぴありーをみることができる。	NO_LABEL
ピアリーは円に近い形状をしており、北東の周壁は外側へ膨らんでいる。	ぴありーわえんにちかいけいじょーをしており、ほくとーのしゅーへきわそとがわえふくらんでいる。	NO_LABEL
南西の周壁には小さなクレーターが付随しており、切れ目ができている。	なんせいのしゅーへきにわちーさなくれーたーがふずいしており、きれめができている。	NO_LABEL
ピアリーの底面は他のクレーターに比べて平坦であるが、小さなクレーターが数多く存在する。	ぴありーのていめんわたのくれーたーにくらべてへいたんであるが、ちーさなくれーたーがかずおーくそんざいする。	NO_LABEL
小さなクレーターは、特に東半分に多く見られる。	ちーさなくれーたーわ、とくにひがしはんぶんにおーくみられる。	NO_LABEL
ピアリーの周壁によってクレーター底の南側3分の1は完全に影に覆われているため、ピアリーの存在を確認することは容易ではない。	ぴありーのしゅーへきによってくれーたーそこのみなみがわさんぶんのいちわかんぜんにかげにおおわれているため、ぴありーのそんざいをかくにんすることわよーいでわない。	NO_LABEL
ピアリーの北西には月の北極点が存在する。	ぴありーのほくせいにわつきのほっきょくてんがそんざいする。	NO_LABEL
ピアリーの南の周壁には底面を溶岩で覆われたバードが接しており、ピアリーの東にはエルミートが存在する。	ぴありーのみなみのしゅーへきにわていめんをよーがんでおおわれたばーどがせっしており、ぴありーのひがしにわえるみーとがそんざいする。	NO_LABEL
月の北極点をはさんだ反対側にはロジェストヴェンスキーが存在する。	NO_PRONOUNCE	NO_LABEL
