魔法少女とは、作中において魔法などの不思議な力を使い、騒動を巻き起こしたり事件を解決したりする少女をさすキャラクター類型である。	まほーしょーじょとわ、さくちゅーにおいてまほーなどのふしぎなちからをつかい、そーどーをまきおこしたりじけんをかいけつしたりするしょーじょをさすきゃらくたーるいけいである。	NO_LABEL
似た概念として魔女っ子ないしは魔女っ娘がある。	にたがいねんとしてまじょっこないしわまじょっむすめがある。	NO_LABEL
魔法少女が誕生した要因として、日本でも大人気であった海外テレビドラマ『奥さまは魔女』や『かわいい魔女ジニー』など、いわゆる善き魔女ものドラマの影響を受けている可能性もある。	NO_PRONOUNCE	NO_LABEL
これらは魔女を「悪魔の手先であり、人々を不幸に陥れる邪悪な存在」とするキリスト教的な見方ではなく、魔法は使えるものの、ごく普通の日常を送る隣人として、魔女達の等身大の生活を描いた『メリー・ポピンズ』系のエブリデイ・マジックなホームコメディであった。	NO_PRONOUNCE	NO_LABEL
当初の魔法少女はこれら魔女達の少女版である要素がかなり強いが、変身して姿を変えたり、戦闘に特化するなど、後に日本ならではの独自の発展を遂げることとなる。	とーしょのまほーしょーじょわこれらまじょたちのしょーじょばんであるよーそがかなりつよいが、へんしんしてすがたをかえたり、せんとーにとくかするなど、ごににっぽんならでわのどくじのはってんをとげることとなる。	NO_LABEL
魔法少女の基本的な要素は、ヒロインが周囲の誰も持っていない力を使えることである。	まほーしょーじょのきほんてきなよーそわ、ひろいんがしゅーいのだれももっていないちからをつかえることである。	NO_LABEL
この力は、より上位の力の持ち主から授けられたものと、生まれつき有しているものの2つに大別できる。	このちからわ、よりじょーいのちからのもちぬしからさずけられたものと、うまれつきゆーしているもののふたつにたいべつできる。	NO_LABEL
さらに生来の力は、最初から使いこなせている場合と、成長にしたがって発現する場合とがある。	さらにせいらいのちからわ、さいしょからつかいこなせているばあいと、せいちょーにしたがってはつげんするばあいとがある。	NO_LABEL
なお、魔法少女が行使する力は、文字通りの意味での魔法や魔術であるとは限らない。	なお、まほーしょーじょがこーしするちからわ、もじどーりのいみでのまほーやまじゅつであるとわかぎらない。	NO_LABEL
忍術使いの『さるとびエッちゃん』やサイボーグの『ミラクル少女リミットちゃん』が他の魔法少女作品と一緒に「変身少女」というカテゴリで扱われた例があり、また、超常的ではない手品使いの『怪盗セイント・テール』やコンピュータ・ネットワーク上の仮想空間で活躍する『コレクター・ユイ』を魔法少女に分類する文献もある。	NO_PRONOUNCE	NO_LABEL
魔法少女の年齢は多くが10歳から14歳であるが、これは第二次性徴期にあたる。	まほーしょーじょのねんれいわおーくがじゅっさいからじゅうよんさいであるが、これわだいにじせいちょーきにあたる。	NO_LABEL
魔法少女の「変身」は、子供から女性への成熟を象徴している。	NO_PRONOUNCE	NO_LABEL
大人になりたいというのは子供がよく抱きがちな願望であり、魔法少女はしばしばヒロインが成長した姿へと変身する。	おとなになりたいとゆうのわこどもがよくいだきがちながんぼーであり、まほーしょーじょわしばしばひろいんがせいちょーしたすがたえとへんしんする。	NO_LABEL
そうした作品では変身した自分と本当の自分との違いに悩むという二重生活の困難さが主題であり、特に恋愛が絡むと事態はいっそう複雑になる。	そーしたさくひんでわへんしんしたじぶんとほんとーのじぶんとのちがいになやむとゆうにじゅうせいかつのこんなんさがしゅだいであり、とくにれんあいがからむとじたいわいっそーふくざつになる。	NO_LABEL
ヒロインが憧れる少年が、彼女の変身した姿のほうに恋したりするのである。	ひろいんがあこがれるしょーねんが、かのじょのへんしんしたすがたのほーにこいしたりするのである。	NO_LABEL
こうした筋書は、人々の見た目に惑わされがちな傾向への批評である。	こーしたすじがきわ、ひとびとのみためにまどわされがちなけいこーえのひひょーである。	NO_LABEL
魔法少女は常に純真で無垢であり、純粋さを別にすれば普通の女の子である。	まほーしょーじょわつねにじゅんしんでむくであり、じゅんすいさをべつにすればふつーのおんなのこである。	NO_LABEL
たいていの魔法少女は力を振るうためにコンパクト、ステッキ、クリスタルといったアクセサリーを用いるが、それらの道具が実際に力の源であることは稀であり、ヒロインの純真さこそが愛と命の力を引き出す鍵である。	たいていのまほーしょーじょわちからをふるうためにこんぱくと、すてっき、くりすたるといったあくせさりーをもちいるが、それらのどーぐがじっさいにちからのみなもとであることわまれであり、ひろいんのじゅんしんさこそがあいといのちのちからをひきだすかぎである。	NO_LABEL
魔法少女は人語を解する不思議なペット等の「マスコット」をお供にすることが多い。	NO_PRONOUNCE	NO_LABEL
これは『さるとびエッちゃん』の大阪弁を喋る犬「ブク」が嚆矢で、以後、『魔法使いチャッピー』の車を運転するパンダ「ドンちゃん」など単独の存在だったが、1982年の『魔法のプリンセスミンキーモモ』以来、魔法少女は複数のマスコットをお供にすることが多くなった。	NO_PRONOUNCE	NO_LABEL
魔法少女が感情に基づいて行動するのに対し、マスコットは理性の役割をし、彼女たちをたしなめ諭そうとする。	まほーしょーじょがかんじょーにもとずいてこーどーするのにたいし、ますこっとわりせいのやくわりをし、かのじょたちをたしなめさとそうとする。	NO_LABEL
両者はしばしば喧嘩するが、魔法少女は助言から学ぶことで感情を制する術を身につけていき、マスコットの側も感情から出た行動が困難であっても正しい道に通じることを理解していく。	りょーしゃわしばしばけんかするが、まほーしょーじょわじょげんからまなぶことでかんじょーをせいするじゅつをみにつけていき、ますこっとのがわもかんじょーからでたこーどーがこんなんであってもただしいみちにつーじることをりかいしていく。	NO_LABEL
ここで重要なのは、ほとんどのマスコットが男性であることである。	ここでじゅーよーなのわ、ほとんどのますこっとがだんせいであることである。	NO_LABEL
魔法少女とマスコットの関係は、夫婦や親友同士のように、意思の疎通と理解こそが良好な関係を築く秘訣であることを示している。	まほーしょーじょとますこっとのかんけいわ、ふーふやしんゆーどーしのよーに、いしのそつーとりかいこそがりょーこーなかんけいをきずくひけつであることをしめしている。	NO_LABEL
また、1990年代の『美少女戦士セーラームーン』以降、「バトル」をメインとした魔法少女も確立された。	NO_PRONOUNCE	NO_LABEL
『スーパードール★リカちゃん』のように主人公が戦わず、マスコットである「ドールナイツ」が代わりに戦う作品や、『魔法騎士レイアース』のように巨大ロボットが登場して戦う作品もある。	NO_PRONOUNCE	NO_LABEL
魔法の力には制限が課せられていることがある。	まほーのちからにわせいげんがかせられていることがある。	NO_LABEL
使える期間は1年間だけ、秘密を知られてはならない、などの例がある。	つかえるきかんわいちねんかんだけ、ひみつをしられてわならない、などのれいがある。	NO_LABEL
魔法少女が特別な力を捨てて普通の女の子に戻ることを望む場合がある。	まほーしょーじょがとくべつなちからをすててふつーのおんなのこにもどることをのぞむばあいがある。	NO_LABEL
これは、「普通」で「平均的」であることは決して悪いものではなく、ただ「自分であること」が何よりすばらしいことなのだ、という理想を示している。	NO_PRONOUNCE	NO_LABEL
日本の魔法少女作品は、横山光輝原作で、東映動画によりアニメ化された『魔法使いサリー』がジャンル第一作であるとされている。	NO_PRONOUNCE	NO_LABEL
『サリー』では、人間の世界にやってきた大魔王の娘サリーを取り巻く人間模様と、魔法を使っての人助けを軸とした人情ドラマをメインとしている。	NO_PRONOUNCE	NO_LABEL
『サリー』を皮切りに、東映製作で1980年代初頭まで断続的に放送された魔法少女作品群は、現在では「東映魔女っ子シリーズ」と総称されている。	NO_PRONOUNCE	NO_LABEL
サリーに続いて東映動画でアニメ化された赤塚不二夫原作の『ひみつのアッコちゃん』では、鏡の精から魔法のコンパクトを授かった人間の少女・鏡アツ子が登場する。	NO_PRONOUNCE	NO_LABEL
ここに、『サリー』の「異世界からの訪問者」という設定に対し、『アッコ』の「魔法の力を授かった人間の少女」という設定が示され、以後の魔法少女アニメに於ける「先天型魔法少女」「後天型魔法少女」の二大主流ジャンルの原型が確立された。	NO_PRONOUNCE	NO_LABEL
もっとも、同時期に流行した「変身ヒーロー」が人間から超人へ変身する以外に設定上の共通点を持たないように、東映の魔女っ子アニメは「魔女っ子＝不思議な力を持つ少女」つまり「魔法少女の類型」を踏襲した少女が活躍するエブリデイ・マジック作品であった事実は後々まで様々な派生作品を生み出す源になる。	NO_PRONOUNCE	NO_LABEL
また、『魔法使いサリー』のすぐ後にこちらはアメリカ映画『メリー・ポピンズ』の影響で同じ横山光輝原作の『コメットさん』が実写メディアで製作されている。	NO_PRONOUNCE	NO_LABEL
この時期、児童向けの映像作品はアニメーションと実写の児童向けドラマも同様に展開されており、NETでは1969年に『ひみつのアッコちゃん』と平行して土曜には『魔女シリーズ』として魔法少女アニメの祖となったドラマ『奥さまは魔女』を放送し、同放送枠で海外魔法ドラマ『かわいい魔女ジニー』【第2シリーズ】や松竹製作の『魔女はホットなお年頃』と二年にわたって魔法物のドラマを放送した。	NO_PRONOUNCE	NO_LABEL
この枠は『仮面ライダー』にとってかわられるが、その影響を受ける形で『仮面ライダー』の作者の石ノ森章太郎原作の『好き! すき!! 魔女先生』において、アニメに20年先駆けて美少女戦士が登場している。	NO_PRONOUNCE	NO_LABEL
アニメのジャンルでは『アッコ』の後も東映製作によりシリーズを重ね、当時の少女漫画の影響を受ける形で登場した、1974年の『魔女っ子メグちゃん』の主人公として登場したお転婆でコケティッシュなメグのキャラクターは、『サリー』の優等生的な魔法少女像を払拭し、これ以降の魔法少女物では、やんちゃな主人公が幅を利かせることになる。	NO_PRONOUNCE	NO_LABEL
また、クールなライバルヒロインのノンや、滑稽な調査官チョーサン、闇の女王サターンは、後の魔法少女作品のサブキャラクター像に大きな影響を与えている。	また、くーるならいばるひろいんののんや、こっけいなちょーさかんちょーさん、やみのじょおーさたーんわ、ごのまほーしょーじょさくひんのさぶきゃらくたーぞーにおーきなえいきょーをあたえている。	NO_LABEL
1980年代に入ると『魔法少女ララベル』を最後に東映製作の作品は一時中断し、葦プロダクション制作の『魔法のプリンセスミンキーモモ』と、スタジオぴえろ制作の『魔法の天使クリィミーマミ』から始まるぴえろ魔法少女シリーズが、第二期魔法少女ブームを引き起こす。	NO_PRONOUNCE	NO_LABEL
『モモ』では、夢と魔法の国フェナリナーサのプリンセスである少女モモの人間界での活躍が、『マミ』では、魔法のステッキでアイドルに変身する人間の少女森沢優を取り巻く事件が、それぞれコミカルなタッチで描かれる。	NO_PRONOUNCE	NO_LABEL
この両作品は本来の視聴対象である低年齢の女児のみにとどまらず、十代後半から二十代に至る男性層の間でも人気を博し、「魔法少女」ジャンルのファン対象を大きく広げる事になった。	NO_PRONOUNCE	NO_LABEL
その背景要因として、社会的なアイドルブームがある。	そのはいけいよーいんとして、しゃかいてきなあいどるぶーむがある。	NO_LABEL
1980年代末から1990年代初めにかけては、過去の人気作品のリメイクが行われた。	せんきゅうひゃくはちじゅうねんだいまつからせんきゅうひゃくきゅうじゅうねんだいはじめにかけてわ、かこのにんきさくひんのりめいくがおこなわれた。	NO_LABEL
当時はアニメ冬の時代でリバイバルブームでもあり『ひみつのアッコちゃん』が、第1作を凌ぐほどの人気は得られなかったと評される一方で、マーチャンダイジングが成功し、バンダイによる女児玩具の強化が行われ、続いて『魔法使いサリー』が製作され、その一環で実写の『東映不思議コメディーシリーズ』で石ノ森章太郎原作の『魔法少女ちゅうかなぱいぱい!』が製作され、以後、同シリーズで1990年代初頭まで同ジャンルの作品群が製作された。	NO_PRONOUNCE	NO_LABEL
武内直子原作の『美少女戦士セーラームーン』の成功は、アニメ版『赤ずきんチャチャ』、『魔法騎士レイアース』、『愛天使伝説ウェディングピーチ』、『ナースエンジェルりりかSOS』等の作品を生み出し、戦闘美少女系魔法少女作品は魔法少女の一ジャンルとなった。	NO_PRONOUNCE	NO_LABEL
「バトル」「戦隊モノ」「恋愛」などの要素は後の作品に影響を与えている。	NO_PRONOUNCE	NO_LABEL
1995年には、OVAシリーズ『天地無用!』のスピンオフ作品『魔法少女プリティサミー』が制作された。	NO_PRONOUNCE	NO_LABEL
本作は視聴対象を明確に女児以外の層に想定して制作され、同種の高年齢視聴者向け魔法少女アニメの先駆けとなった。	もとさくわしちょーたいしょーをめいかくにじょじいがいのそーにそーていしてせいさくされ、どーしゅのこーねんれいしちょーしゃむけまほーしょーじょあにめのさきがけとなった。	NO_LABEL
1990年代後半から2000年代序盤にかけてCLAMP原作で設定やビジュアルが従来の作品の型にはまらない『カードキャプターさくら』が制作された。	NO_PRONOUNCE	NO_LABEL
バラバラになった魔法のカードを集めるという展開や魔法を使う少年のライバルが出現するなどのそれまでの魔法少女作品になかった要素がある。	ばらばらになったまほーのかーどをあつめるとゆうてんかいやまほーをつかうしょーねんのらいばるがしゅつげんするなどのそれまでのまほーしょーじょさくひんになかったよーそがある。	NO_LABEL
街で起こる事件をカードの魔法で解決するという従来の魔法少女やバトルヒロイン的な要素も持ち合わせた作品であった。	まちでおこるじけんをかーどのまほーでかいけつするとゆうじゅーらいのまほーしょーじょやばとるひろいんてきなよーそももちあわせたさくひんであった。	NO_LABEL
1999年には『おジャ魔女どれみ』シリーズが制作される。	NO_PRONOUNCE	NO_LABEL
主人公による人助けという点で『サリー』に代表される古典的魔法少女の流れと複数の主人公格のキャラクターの登場および魔法を行使するために変身を要するという点で『美少女戦士セーラームーン』に代表される戦闘美少女の流れを、それぞれ継承している。	NO_PRONOUNCE	NO_LABEL
安野モヨコが王道的な魔法少女を意識した『シュガシュガルーン』を執筆、この形態を扱った少女漫画としては久しぶりの作品となり、2005年にはアニメ化された。	NO_PRONOUNCE	NO_LABEL
なお、『東京ミュウミュウ』、『マーメイドメロディー ぴちぴちピッチ』、『プリキュアシリーズ』等の1990年代の戦闘美少女系魔法少女の流れを受け継いだ作品も多数制作されている。	NO_PRONOUNCE	NO_LABEL
『マーメイドメロディー ぴちぴちピッチ』は歌と人魚をテーマとして取り入れ、歌を使った戦闘をメインとした。	NO_PRONOUNCE	NO_LABEL
『プリキュアシリーズ』は男児向けヒーロー物のような肉弾戦の描写に力を入れた「魔法少女格闘物」を標榜し、ロングランヒットとなっている。	NO_PRONOUNCE	NO_LABEL
『魔法少女隊アルス』や『ふしぎ星の☆ふたご姫』、『プリキュアシリーズ』で初めて純然な魔法少女の要素を組み込んだ『魔法つかいプリキュア!』などのように魔法界型アニメも作られている。	NO_PRONOUNCE	NO_LABEL
また、ゲーム原作の『オシャレ魔女 ラブandベリー』が大ヒットした。	NO_PRONOUNCE	NO_LABEL
魔法少女ものの本流ではないが、この時期には魔法少女のフォーマットを利用した男性向けアニメが次々と現れた。	まほーしょーじょもののほんりゅーでわないが、このじきにわまほーしょーじょのふぉーまっとをりよーしただんせいむけあにめがつぎつぎとあらわれた。	NO_LABEL
毒のある描写を盛り込んだ『ぷにぷに☆ぽえみぃ』、『ナースウィッチ小麦ちゃんマジカルて』をはじめとする邪道魔法少女三部作、軍事・政治・英語の卑語などの際どいギャグを盛り込んだヒライユキオの『魔法の海兵隊員ぴくせる☆まりたん』、アニメより規制の緩い小説という媒体を利用したミステリ要素のある『新本格魔法少女りすか』、少年漫画的な要素を強く出した『魔法少女リリカルなのはシリーズ』、ミリタリー系少女バトルの先駆にもなった『ストライクウィッチーズ』、自動車産業であるスバルのプロモーションのために製作された『放課後のプレアデス』、魔法少女をモチーフとしたダーク・ファンタジー『魔法少女まどか☆マギカ』などである。	NO_PRONOUNCE	NO_LABEL
特に『魔法少女まどか☆マギカ』は社会現象とまでされる大きな盛り上がりを見せた。	NO_PRONOUNCE	NO_LABEL
また、近年においては男性の主人公が何らかの理由により能力を発動する際、魔法少女の力をふるうのにふさわしい少女の体へと性転換させられる作品や、逆に『魔法少女 俺』のような、普段は普通の少女だが変身すると青年になるという作品、また『魔法少女プリティ☆ベル』や『魔法☆中年おじまじょ5』などといった、ボディビルダーやサラリーマンといった中年の男性が肉体的にはそのままに魔法少女の衣装をまとって戦う作品など、ある種のミスマッチを売りにした「キワモノ系」というべきものも登場している。	NO_PRONOUNCE	NO_LABEL
その他、魔法少女という存在をゾンビ映画のゾンビのような「日常を破壊し仲間を増やしながら殺戮を繰り返す、人間に対する脅威」として描いたパニックホラー的な作品『魔法少女・オブ・ジ・エンド』や、不幸な境遇に置かれた少女達が｢魔法少女サイト｣という不気味なサイトから贈られたステッキを用い、寿命を削りながら戦う物語である｢魔法少女サイト｣、特定の街に魔法少女が増えすぎたため彼女達によるバトルロワイヤルを余儀なくされた魔法少女達を描く『魔法少女育成計画』などもある。	NO_PRONOUNCE	NO_LABEL
アニメの魔法少女物は吹き替えや字幕付で輸出され、世界各地で放送されているものの、魔女という設定を比較的正確に伝えるものに対して日本の作品は馴染みのない魔女設定を極めて曖昧且つファンタジー寄りに処理した事で独自のジャンルとして形成されている。	あにめのまほーしょーじょぶつわふきかえやじまくずけでゆしゅつされ、せかいかくちでほーそーされているものの、まじょとゆうせっていをひかくてきせいかくにつたえるものにたいしてにっぽんのさくひんわなじみのないまじょせっていをきわめてあいまいかつふぁんたじーよりにしょりしたことでどくじのじゃんるとしてけいせいされている。	NO_LABEL
欧米では、『セーラームーン』に代表される美少女戦士系ジャンルが魔法少女物の典型・事実標準であると受け止められており、"" を主にこのジャンルを指すのに使うアニメファンも少なくない。	NO_PRONOUNCE	NO_LABEL
特に北米では、2006年の時点で、東映・葦プロ・ぴえろなどの戦闘要素が皆無ないしメインでは無い魔法少女アニメというものがほとんどまったく公開されておらず、これら本来の魔法少女については存在自体があまり知られていないため、上記のようなややずれた理解もやむを得ない。	NO_PRONOUNCE	NO_LABEL
北米向きにローカライズされた『おジャ魔女どれみ』が4Kids TVで放映された例を除けば『魔法のステージファンシーララ』などごくわずかの比較的マイナーな作品が、例外的に深夜に有料テレビで放送されたりDVD発売されたものの、歴史的にも重要な『魔法のプリンセスミンキーモモ』さえ正式に紹介されるには至っていないし、上記のDVDも商業的には成功しなかった。	NO_PRONOUNCE	NO_LABEL
厳密に言うと『ミンキーモモ』のうち、OVA『夢の中の輪舞』は子供向けVHSとして吹き替え版が北米でも発売されたようであるが、一般の認知は著しく低い。	NO_PRONOUNCE	NO_LABEL
他方、イタリアなどヨーロッパの一部では、葦プロ・ぴえろなどに代表される非戦闘系の魔法少女物が、多少の改変はあったものの、代表的なものはすべて吹き替え放映されている。	NO_PRONOUNCE	NO_LABEL
そのため、これらの国のアニメファンは本来の魔法少女をよく知っていて作品の愛好者も多く、"mahō shōjo" ないし "majokko" という語を日本語とほぼ同じ意味で使う。	NO_PRONOUNCE	NO_LABEL
魔法少女ジャンルの影響を受けた海外作品としては、イタリアのアニメーション製作会社 Rainbow S.r.l. による『Winx Club』や、フランスでアニメ化されたイタリアのエリサベッタ・ニョネの漫画『ウィッチ -W.I.T.C.H.-』、フランスで製作された『』が挙げられる。	NO_PRONOUNCE	NO_LABEL
これらの作品では、魔法の力を授かったティーンエイジャーの少女たちと悪の勢力との戦いが描かれる。	これらのさくひんでわ、まほーのちからをさずかったてぃーんえいじゃーのしょーじょたちとあくのせいりょくとのたたかいがえがかれる。	NO_LABEL
2000年代には、アメリカ合衆国で1962年からアーチー・コミックスにより出版され、1970年にアニメ化され、日本では1971年に『かわいい魔女サブリナ』のタイトルで放送された、魔法使いと人間のハーフの少女サブリナの生活を描いたアメリカン・コミックス『』シリーズが、メキシコ系アメリカ人の漫画家タニア・デル・リオにより、日本の漫画風のスタイルでリメイクされた。	NO_PRONOUNCE	NO_LABEL
中国では2008年に『巴拉拉小魔仙』が特撮テレビドラマとして放映され、2011年には続編である『巴拉拉小魔仙2彩虹心石』がテレビアニメとして放送された。	NO_PRONOUNCE	NO_LABEL
2013年には初の劇場版が公開され、2016年時点で特撮テレビドラマ2作、テレビアニメ3作、特撮映画3作が製作されている。	NO_PRONOUNCE	NO_LABEL
韓国では2016年に韓国国産アニメの魔法少女物として、『シークレット・ジュジ』、『フラワーリングハート』『ソフィー・ルビー』、が製作され放送された。	NO_PRONOUNCE	NO_LABEL
