鈴木 右文は、日本の英語学者、言語学者。	すずきゆーぶんわ、にっぽんのえいごがくしゃ、げんごがくしゃ。	NO_LABEL
現在、九州大学言語文化研究院言語環境学部門言語情報学教授、同大学大学院経済学府産業マネジメント専攻教授。	NO_PRONOUNCE	NO_LABEL
専門は、英語教育であり、特に英文法理論、コンピュータによる英語教育をテーマとすると同時に趣味でもある映画関係の授業も行っている。	せんもんわ、えいごきょーいくであり、とくにえいぶんぽーりろん、こんぴゅーたによるえいごきょーいくをてーまとするとどーじにしゅみでもあるえいがかんけいのじゅぎょーもおこなっている。	NO_LABEL
FM FUKUOKA「BBIQモーニングビジネススクール」スピーカーもつとめる。	NO_PRONOUNCE	NO_LABEL
