霊巌寺は、中国の山東省済南市長清区にある仏教寺院。	れいがんじわ、ちゅーごくのさんとーしょーさいなんしちょーせいくにあるぶっきょーじいん。	NO_LABEL
中国各地の名山中でも屈指の名刹として知られ、玉泉寺・棲霞寺・国清寺とともに、天下の四絶の一つに数えられている。	NO_PRONOUNCE	NO_LABEL
東岳泰山の北西方に当たり、長清県城から見て南東に当たる霊巌山・方山の山麓に位置する。	NO_PRONOUNCE	NO_LABEL
山懐に抱かれ、清泉が巡流する幽邃の古寺として知られている。	やまふところにいだかれ、きよいずみがじゅんりゅーするゆーすいのふるでらとしてしられている。	NO_LABEL
霊巌寺近郊への仏教流入は、五胡十六国にまで遡り得る。	れいがんじきんこーえのぶっきょーりゅーにゅーわ、ごこじゅうろっこくにまでさかのぼりえる。	NO_LABEL
それは、後趙・竺僧朗が、寺を建てたとする記録に相当する。	NO_PRONOUNCE	NO_LABEL
竺僧朗は、仏図澄の弟子であり、冉閔の乱を避けて、351年に泰山の金輿谷に精舎を建立したという。	じくそうろーわ、ぶっとちょーのでしであり、ぜんびんのらんをさけて、さんびゃくごじゅういちねんにたいざんのきんこしたににしょーじゃをこんりゅーしたという。	NO_LABEL
僧朗は、前秦の苻堅ら、各地の争覇者の帰依を受け、広壮な伽藍を重建した。	そーろーわ、ぜんしんのふけんら、かくちのそーはしゃのきえをうけ、こーそーながらんをじゅーけんした。	NO_LABEL
苻堅らの帰心するさまは、『広弘明集』などに残された書簡等に見ることができる。	NO_PRONOUNCE	NO_LABEL
北魏の正光中、法定という僧が、霊巌寺を朗公谷寺の遺址に建立したという。	ほくぎのせいこーちゅー、ほーていとゆうそーが、れいがんじをろーおーやけたにてらののこしにこんりゅーしたという。	NO_LABEL
その後、北周の廃仏によって断絶するが、隋代になって、583年に復興された。	そのご、きたあまねのはいぼとけによってだんぜつするが、ずいだいになって、ごひゃくはちじゅうさんねんにふっこーされた。	NO_LABEL
文帝が595年に泰山に巡幸した際、曇遷の建言によって、寺地が拡充された。	ぶんていがごひゃくきゅうじゅうごねんにたいざんにじゅんこーしたさい、どんせんのけんげんによって、てらちがかくじゅーされた。	NO_LABEL
『続高僧伝』巻18の曇遷伝では、宝山道場と寺名を記すが、当時から霊巌寺の名で知られていたようである。	NO_PRONOUNCE	NO_LABEL
