虎城山城は、紀伊国にあった日本の城。	こじょーやまじょーわ、きーくににあったにっぽんのしろにほんのしろ。	NO_LABEL
別名は古座浦城。	べつめいわこざうらしろ。	NO_LABEL
1581年、高河原貞盛が虎城山に築城した。	せんごひゃくはちじゅういちねん、たかがはらさだもりがとらしろやまにちくじょーした。	NO_LABEL
貞盛の子家盛が創建したと言われる青原寺の裏山に当たり、寺を建てる際に城の一部を用いたとされる。	さだもりのこやもりがそーけんしたといわれるせいげんじのうらやまにあたり、てらをたてるさいにしろのいちぶをもちいたとされる。	NO_LABEL
1600年の関ヶ原の戦いで家盛が西軍に属したため、改易となり、城も廃城となったが家盛の子孫が城跡に代々住居を構えていたという。	せんろっぴゃくねんのせきがはらのたたかいでやもりがせいぐんにぞくしたため、かいえきとなり、しろもはいじょーとなったがやもりのしそんがじょーせきにだいだいじゅーきょをかまえていたという。	NO_LABEL
城は山城で、土塁がわずかに残っている。	しろわやましろで、どるいがわずかにのこっている。	NO_LABEL
