「ただいま」は、JUJUの楽曲。	NO_PRONOUNCE	NO_LABEL
JUJUの21枚目のシングルとして、2012年6月13日にソニー・ミュージックアソシエイテッドレコーズから発売された。	じゅじゅのにじゅういちまいめのしんぐるとして、にせんじゅうにねんろくがつじゅうさんにちにそにーみゅーじっくあそしえいてっどれこーずからはつばいされた。	NO_LABEL
表題曲は、テレビドラマ『もう一度君に、プロポーズ』の主題歌に起用された。	NO_PRONOUNCE	NO_LABEL
