NetBeansとは、オラクルを中心としたコミュニティにより開発されている、オープンソースの統合開発環境である。	ねっとびーんずとわ、おらくるをちゅーしんとしたこみゅにてぃによりかいはつされている、おーぷんそーすのとーごーかいはつかんきょーである。	NO_LABEL
Java/PHP/C言語/C++/JavaScript/Groovy等のいくつかのプログラミング言語に対応している。	NO_PRONOUNCE	NO_LABEL
NetBeans Platformを利用して開発されており、様々なモジュールを組み込むことが可能である。	ねっとびーんずぷらっとふぉーむをりよーしてかいはつされており、さまざまなもじゅーるをくみこむことがかのーである。	NO_LABEL
NetBeansの特徴の一つであるGUIエディタもその一つである。	ねっとびーんずのとくちょーのひとつであるじーゆーあいえでぃたもそのひとつである。	NO_LABEL
ほぼ100%Javaで書かれている統合開発環境である。	ほぼひゃくぱーせんとじゃばでかかれているとーごーかいはつかんきょーである。	NO_LABEL
バージョン4.0以降は、Java仮想マシン自体の大幅な高速化もあって、ネイティブな環境との速度差は感じないとされる。	NO_PRONOUNCE	NO_LABEL
このソフトウェアはJavaを開発しているオラクルが開発していることから、最新版のJavaにいち早く対応できるという利点がある。	このそふとうぇあわじゃばをかいはつしているおらくるがかいはつしていることから、さいしんばんのじゃばにいちはやくたいおーできるとゆうりてんがある。	NO_LABEL
Java SE 5.0が登場した際には他のIDEに先んじて、新機能であるジェネリックやアノテーションに対応した。	NO_PRONOUNCE	NO_LABEL
またGUI開発はNetBeansがJava IDEの中で秀でており、「フリーデザイン」によるコンポーネントの配置などの優れた機能を持つ。	NO_PRONOUNCE	NO_LABEL
NetBeansは始めから多言語に対応しており日本語などの多くの言語をインストール直後から利用可能である。	ねっとびーんずわはじめからたげんごにたいおーしておりにほんごなどのおーくのげんごをいんすとーるちょくごからりよーかのーである。	NO_LABEL
パッケージによって異なるが開発できる言語として、Java・JavaScript・PHP・C/C++・Groovyがある。	NO_PRONOUNCE	NO_LABEL
またWebアプリケーションを動作させるのに必要なApache Tomcat・GlassFishといったアプリケーションサーバが同封されているパッケージもあるため、別途インストールすることなく利用できる。	NO_PRONOUNCE	NO_LABEL
Java IDEとして既に広く使われているEclipseと比較されることが多い。	NO_PRONOUNCE	NO_LABEL
現状、シェア、多機能性、プラグインの豊富さは、Eclipseに一日の長がある。	NO_PRONOUNCE	NO_LABEL
NetBeansは3.51までJava Look&Feelを使用していたため、特にWindowsユーザーに受け入れられにくかったようである。	NO_PRONOUNCE	NO_LABEL
3.6でLook&FeelをSystemLook&Feelに変更したことにより、ユーザーが増加しはじめた。	NO_PRONOUNCE	NO_LABEL
4.0からJava SE / EEのリファレンス的な開発環境としての側面が強まっている。	NO_PRONOUNCE	NO_LABEL
5.5からは、WebサービスやパーシスタンスAPI等に対するスムーズな開発を可能にしており、UMLやJSFのビジュアル開発なども取り込まれた。	NO_PRONOUNCE	NO_LABEL
6.0ではRubyやJavaScriptのサポート、プロファイラの統合、ビジュアルWebJSFと通常のWEBプロジェクトの統合、Swingアプリケーションフレームワーク、そして大幅なエディタの見直しやレスポンスの改善などがあげられる。	NO_PRONOUNCE	NO_LABEL
Java言語以外のサポート、複数バージョンのTomcatサーブレットコンテナや各種アプリケーションサーバの対応など標準機能でカバーする範囲が広がったのが特徴である。	じゃばげんごいがいのさぽーと、ふくすーばーじょんのとむきゃっとさーぶれっとこんてなやかくしゅあぷりけーしょんさーばのたいおーなどひょーじゅんきのーでかばーするはんいがひろがったのがとくちょーである。	NO_LABEL
また、使用者の利用するパッケージを選択できるインストーラもいままでになかったものである。	また、しよーしゃのりよーするぱっけーじをせんたくできるいんすとーらもいままでになかったものである。	NO_LABEL
6.1では新たに暫定版ではあるもののPHP対応がされた。	NO_PRONOUNCE	NO_LABEL
また、Rubyの更なるサポート、JavaScriptの本格サポートなどJava以外の言語の対応が充実したのも特徴である。	また、るびーのさらなるさぽーと、じゃばすくりぷとのほんかくさぽーとなどじゃばいがいのげんごのたいおーがじゅーじつしたのもとくちょーである。	NO_LABEL
また、標準API以外のサポートは珍しいのだが、Spring2.5がWebプロジェクトのフレームワークとしてサポートされた。	NO_PRONOUNCE	NO_LABEL
JSR311 としてRESTful Web サービスもサポートされ、Javaの最新技術も引き続き先行搭載されていくようである。	NO_PRONOUNCE	NO_LABEL
バージョン管理システムとしてMercurialが標準サポートされたが、これはNetBeans自体のバージョン管理にMercurialを使うようになったためだろう。	ばーじょんかんりしすてむとしてまーきゅりあるがひょーじゅんさぽーとされたが、これわねっとびーんずじたいのばーじょんかんりにまーきゅりあるをつかうよーになったためだろう。	NO_LABEL
6.5では新たに暫定版ではあるもののPythonに対応した。	NO_PRONOUNCE	NO_LABEL
またPHPが正式に標準対応した。	またぴーえいちぴーがせいしきにひょーじゅんたいおーした。	NO_LABEL
そのほかJavaScriptのフレームワークにも対応し、prototype.js、jQueryなどをすぐに設定し使用することが可能になり、それぞれのフレームワークに合わせた補完も効くように強化された。	そのほかじゃばすくりぷとのふれーむわーくにもたいおーし、ぷろとたいぷどっとじぇいえす、じぇいくえりーなどをすぐにせっていししよーすることがかのーになり、それぞれのふれーむわーくにあわせたほかんもきくよーにきょーかされた。	NO_LABEL
NetBeansのJavaは標準API以外のサポートが比較的珍しいのだがHibernateがサポートされ、HQLを即座に試せるようになっている。	NO_PRONOUNCE	NO_LABEL
データベースの扱いが強化され、データの編集にSQLをうたなくても容易に行えるようになった。	でーたべーすのあつかいがきょーかされ、でーたのへんしゅーにしーくえるをうたなくてもよーいにおこなえるよーになった。	NO_LABEL
6.4以前は英語版から一ヶ月程度遅れてML版が登場するのが普通であったが、6.5以降では同時リリースされている。	NO_PRONOUNCE	NO_LABEL
6.7ではJIRA と Bugzillaといった課題追跡に対応した。	NO_PRONOUNCE	NO_LABEL
また、継続的インテグレーションツールであるHudsonとの統合機能も追加された。	NO_PRONOUNCE	NO_LABEL
プロジェクトの形式として従来のAntベースのもののほかにMaven2が標準でサポートされた。	NO_PRONOUNCE	NO_LABEL
あわせてPHPUnit、Selenium、Ruby のリモートデバッグ、C / C++でのプロファイリングなどがサポートされたこともあり、品質向上のための機能が大幅に強化されたのが本バージョンでの最大の特徴である。	NO_PRONOUNCE	NO_LABEL
その後7.0でPythonとRubyのサポートが外され、7.1でJavaFXとCSS3のサポートが追加された。	NO_PRONOUNCE	NO_LABEL
7.2ではパフォーマンスチューニングが中心であったが、Amazon Elastic Beanstalk等クラウドリソースへの対応やSubversionがリリースに組み込まれる等の新機軸もある。	NO_PRONOUNCE	NO_LABEL
7.3では新しいJavaScriptエンジン、組み込みWebkitブラウザ、FirefoxやChromeとの連携、そしてHTML5やCSS3への対応強化等、Webアプリケーション開発を中心とした大型の変更が予定されている。	NO_PRONOUNCE	NO_LABEL
なお、オラクルがサポートしているわけではないが、Scalaも動作する。	なお、おらくるがさぽーとしているわけでわないが、すからもどーさする。	NO_LABEL
こちらはScala開発チームが公式のプラグインをリリースしている。	こちらわすからかいはつちーむがこーしきのぷらぐいんをりりーすしている。	NO_LABEL
NetBeansは、1996年に始まったチェコの学生によるプロジェクトであるXelfiにその源流を持つ。	NO_PRONOUNCE	NO_LABEL
XelfiはJavaで書かれた最初のIDEであり、1997年に最初のプレリリースが行われている。	NO_PRONOUNCE	NO_LABEL
やがてXelfiは、チェコの実業家Roman Stanekの支援を得て、ネットワーク環境を前提としたJava Beansコンポーネント開発用のIDEとして開発が進められることになった。	NO_PRONOUNCE	NO_LABEL
この基本構想が、NetBeansの名前の由来となっている。	このきほんこーそーが、ねっとびーんずのなまえのゆらいとなっている。	NO_LABEL
NetBeansの名を冠した最初のリリースは、1999年である。	ねっとびーんずのなをかんしたさいしょのりりーすわ、せんきゅうひゃくきゅうじゅうきゅうねんである。	NO_LABEL
この1999年は、NetBeansにとって重要な年であった。	このせんきゅうひゃくきゅうじゅうきゅうねんわ、ねっとびーんずにとってじゅーよーなとしであった。	NO_LABEL
より良いJava開発環境を求めていたサンが、NetBeansと契約。	よりよいじゃばかいはつかんきょーをもとめていたさんが、ねっとびーんずとけいやく。	NO_LABEL
サンは、その後別のツールであるForteを獲得したが、ForteではなくNetBeansをForte for Javaの名の下にリリースを行った。	NO_PRONOUNCE	NO_LABEL
これは当時の知名度を優先したビジネス判断であった。	これわとーじのちめいどをゆーせんしたびじねすはんだんであった。	NO_LABEL
しかし、ほどなくNetBeansの名は復活し、現在に至っている。	しかし、ほどなくねっとびーんずのなわふっかつし、げんざいにいたっている。	NO_LABEL
なお、Xelfiに関わったメンバーの多くは、現在もNetBeansコミュニティで活躍している。	NO_PRONOUNCE	NO_LABEL
NetBeansの主要な機能は以下の通りである。	ねっとびーんずのしゅよーなきのーわいかのとーりである。	NO_LABEL
標準で必要な機能が多く提供されているが、プラグインにより追加機能を使用することができる。	ひょーじゅんでひつよーなきのーがおーくていきょーされているが、ぷらぐいんによりついかきのーをしよーすることができる。	NO_LABEL
NetBeansコミュニティーや多くのベンダーから提供されている。	ねっとびーんずこみゅにてぃーやおーくのべんだーからていきょーされている。	NO_LABEL
JavaのビルドにApache Antが標準となっており、コンパイル作業が楽に行える。	NO_PRONOUNCE	NO_LABEL
クラス・変数・関数等のコード支援があり、開発者の手助けをしてくれる。	NO_PRONOUNCE	NO_LABEL
また、JavadocにJava SEのAPI日本語ドキュメントを指定すればクラスやメソッドのコード補完中に小窓が現れて日本語の説明文を読むことができる。	NO_PRONOUNCE	NO_LABEL
リファクタリングにより安全にクラス名・メソッド名・変数名の変更等が行える。	NO_PRONOUNCE	NO_LABEL
JDBCドライバーを使うことで、データベース管理システムに接続することができ、データ操作が行える。	じぇーでぃーびーしーどらいばーをつかうことで、でーたべーすかんりしすてむにせつぞくすることができ、でーたそーさがおこなえる。	NO_LABEL
バージョン管理システムとして、CVS・Mercurial・Subversionの3つが利用できる。	NO_PRONOUNCE	NO_LABEL
ユニットテストにxUnitであるJUnitやPHPUnitが使用することができる。	ゆにっとてすとにえっくすゆにっとであるじぇいゆにっとやぴーえいちぴーゆにっとがしよーすることができる。	NO_LABEL
IDE自体がJavaで書かれていることから、Java VMを搭載したオペレーティングシステム上で動作が可能である。	あいでぃーいーじたいがじゃばでかかれていることから、じゃばぶいえむをとーさいしたおぺれーてぃんぐしすてむじょーでどーさがかのーである。	NO_LABEL
なお公式にサポートしているオペレーティングシステムは、以下のものである。	なおこーしきにさぽーとしているおぺれーてぃんぐしすてむわ、いかのものである。	NO_LABEL
その他、Oracle Enterprise Linux 5、Ubuntu 8.x および 10.04、Red Hat Enterprise Linux など、ほかのさまざまなLinuxディストリビューションで動作することも確認されている。	NO_PRONOUNCE	NO_LABEL
またFreeBSDのportsコレクションにも組み込まれている。	またふりーびーえすでぃーのぽーつこれくしょんにもくみこまれている。	NO_LABEL
NetBeansのコードの大部分は、Common Development and Distribution LicenseとGNU General Public License v2のデュアルライセンスの下でソースコードを公開している。	NO_PRONOUNCE	NO_LABEL
CDDLは、Mozilla Public LicenseをベースとしたOSI承認ライセンスの一つである。	NO_PRONOUNCE	NO_LABEL
2010年の1月にオラクルがサン・マイクロシステムズを買収した。	にせんじゅうねんのいちがつにおらくるがさんまいくろしすてむずをばいしゅーした。	NO_LABEL
元々オラクルはJavaの統合開発環境JDeveloperを開発しており、サン・マイクロシステムズのNetBeansとはライバル製品のため、経営戦略により消えるのではないかと危惧された。	もともとおらくるわじゃばのとーごーかいはつかんきょーじぇいでべろっぱーをかいはつしており、さんまいくろしすてむずのねっとびーんずとわらいばるせいひんのため、けいえいせんりゃくによりきえるのでわないかときぐされた。	NO_LABEL
しかしオラクルはJDeveloperを置き換える計画はないとしている。	しかしおらくるわじぇいでべろっぱーをおきかえるけいかくわないとしている。	NO_LABEL
また、NetBeansをJavaエコシステムの重要要素と見なしており、Java開発に使用するIDEの選択肢を開発者が持ち続けることは重要であると考えているとし、開発を継続するとしている	また、ねっとびーんずをじゃばえこしすてむのじゅーよーよーそとみなしており、じゃばかいはつにしよーするあいでぃーいーのせんたくしをかいはつしゃがもちつずけることわじゅーよーであるとかんがえているとし、かいはつをけいぞくするとしている	NO_LABEL
2010年1月27日のOracle + Sun Strategy Update Webcastにおいて、OracleがNetBeans IDEを今度の計画のなかでどう位置づけているかが発表された。	NO_PRONOUNCE	NO_LABEL
発表されたスライドショーから関係する部分を抜き出すと	はっぴょーされたすらいどしょーからかんけいするぶぶんをぬきだすと	NO_LABEL
となっており、従来の方針をそのまま継続する形となっている。	となっており、じゅーらいのほーしんをそのままけいぞくするかたちとなっている。	NO_LABEL
オラクルはまたEclipseへの投資を継続する方針も表明している。	NO_PRONOUNCE	NO_LABEL
IDEにはそれぞれ一長一短があり、多様であるべきとの考えからである。	あいでぃーいーにわそれぞれいっちょーいったんがあり、たよーであるべきとのかんがえからである。	NO_LABEL
ねこび〜ん は NetBeans のキャラクター。	ねこびーんわねっとびーんずのきゃらくたー。	NO_LABEL
カネウチカズコにより作成され、日本コミュニティを介して提唱されたマスコットキャラ。	かねうちかずこによりさくせいされ、にっぽんこみゅにてぃをかいしてていしょーされたますこっときゃら。	NO_LABEL
猫とNetBeansをかけあわせたもの。	ねことねっとびーんずをかけあわせたもの。	NO_LABEL
Creative Commons 表示-継承 2.1 日本ライセンスされている。	NO_PRONOUNCE	NO_LABEL
2008年2月27日、仙台のグループ「東北デベロッパーズコミュニティ」の設立総会後に行われた懇親会・二次会で、カネウチカズコが見せたキャラクター画像を見て、「NetBeansのキャラクターが欲しい」という話となり、ここからねこび〜んが誕生するきっかけとなった。	NO_PRONOUNCE	NO_LABEL
イベントでの利用やグッズ制作にも多数使われるようになっている。	いべんとでのりよーやぐっずせいさくにもたすーつかわれるよーになっている。	NO_LABEL
