ハネウェル ALF 502 はライカミングが開発してアライドシグナルを経て現在はハネウェル・エアロスペースが生産するギヤードターボファンエンジンである。	NO_PRONOUNCE	NO_LABEL
1980年に認証を取得してBAe 146やボンバルディア チャレンジャー 600に搭載される。	NO_PRONOUNCE	NO_LABEL
高推力のLF 507はBAe 146の更新型アブロ RJに搭載される。	NO_PRONOUNCE	NO_LABEL
初期に開発されたYF102は試作機であるノースロップ YA-9に搭載された。	NO_PRONOUNCE	NO_LABEL
原型となったエンジンは、CH-47ヘリコプター用のターボシャフト・エンジンT55-712であり、軸流式＋遠心式コンプレッサを備えるなど、ターボファン・エンジンとしては異色な形式である。	NO_PRONOUNCE	NO_LABEL
