環境プランナーとは、環境に関する民間資格のひとつであり、評価・登録制度及び研修機関の認定は一般社団法人環境プランニング学会が行っている。	NO_PRONOUNCE	NO_LABEL
2013年1月時点、約2,200人の有資格者が登録されている。	NO_PRONOUNCE	NO_LABEL
ビジネスと環境の両立を組織のために提言・実行及び指導ができる人材の育成を目的に、平成13年に創設された。	NO_PRONOUNCE	NO_LABEL
資格制度では「環境プランナーベーシック」「環境プランナー」「環境プランナーER」「環境プランナーERO」という４つのグレードがあり、資格要件は、環境に関する学士・修士・博士課程などの在籍や2年以上の業務経験および20時間以上の専門講義の修了等があり、各修了試験に合格することが義務づけられている。	NO_PRONOUNCE	NO_LABEL
環境プランナー登録者総数は、2013年1月時点、約2,200人 となっている。	NO_PRONOUNCE	NO_LABEL
中位資格である環境プランナーERが、環境省の中小企業向けEMS「エコアクション21」における審査人の受験資格のひとつとなっている。	NO_PRONOUNCE	NO_LABEL
