東北大学流体科学研究所は、流動科学を対象とした、国立大学法人東北大学の附置研究所の一つである。	とーほくだいがくりゅーたいかがくけんきゅうしょわ、りゅーどーかがくをたいしょーとした、こくりつだいがくほーじんとーほくだいがくのふちけんきゅーじょのひとつである。	NO_LABEL
同大片平キャンパス内に所在する。	どーおーかたひらきゃんぱすないにしょざいする。	NO_LABEL
流体や熱の流れを研究対象とする、世界でも珍しい研究所である。	りゅーたいやねつのながれをけんきゅーたいしょーとする、せかいでもめずらしいけんきゅーじょである。	NO_LABEL
前身の高速力学研究所は、設立当時工学部機械工学科水力学実験室教授の沼地福三郎が高速な水流を主な題材にキャビテーションの研究に取り組んでおり、この研究の蓄積が研究所発足の端緒となった。	ぜんしんのこーそくりきがくけんきゅーじょわ、せつりつとーじこーがくぶきかいこーがっかすいりょくがくじっけんしつきょーじゅのぬまちふくさぶろーがこーそくなすいりゅーをおもなだいざいにきゃびてーしょんのけんきゅーにとりくんでおり、このけんきゅーのちくせきがけんきゅーじょほっそくのたんしょとなった。	NO_LABEL
「高速力学に関する学理およびその応用の研究」を設置目的として発足し、ジェットエンジン・エネルギー変換機器などの開発や、流体に関する基礎研究を行っていた。	NO_PRONOUNCE	NO_LABEL
1989年に高速力学研究所が名称を変更し、流体科学研究所となる。	せんきゅうひゃくはちじゅうきゅうねんにこーそくりきがくけんきゅーじょがめいしょーをへんこーし、りゅーたいかがくけんきゅうしょとなる。	NO_LABEL
設置目的を「流体に関する学理およびその応用の研究」と改め、主に4つの研究部門と流体融合研究センターで流動科学に関する研究を行っている。	NO_PRONOUNCE	NO_LABEL
超高温のジェットエンジン内部といった、極限状態での熱流動現象を研究する部門。	ちょーこーおんのじぇっとえんじんないぶといった、きょくげんじょーたいでのねつりゅーどーげんしょーをけんきゅーするぶもん。	NO_LABEL
以下の4分野からなる。	いかのよんぷんのからなる。	NO_LABEL
流体の機能・知能化を目指す部門。	NO_PRONOUNCE	NO_LABEL
以下の5分野からなる。	いかのごふんのからなる。	NO_LABEL
半導体加工プロセスなどに見られる、極小スケールの熱流動現象を研究する分野。	はんどーたいかこーぷろせすなどにみられる、きょくしょーすけーるのねつりゅーどーげんしょーをけんきゅーするぶんや。	NO_LABEL
以下の3分野からなる。	いかのさんぷんのからなる。	NO_LABEL
乱流などの複雑な流動現象を解明する分野。	らんりゅーなどのふくざつなりゅーどーげんしょーをかいめいするぶんや。	NO_LABEL
以下の4分野からなる。	いかのよんぷんのからなる。	NO_LABEL
実験と計算を融合させた新しい手法を用い、分野横断的な研究を行う。	じっけんとけいさんをゆーごーさせたあたらしいしゅほーをもちい、ぶんやおーだんてきなけんきゅーをおこなう。	NO_LABEL
例として、CFD を用いた次世代超音速旅客機の提案、エアロトレインに関する研究が挙げられる。	れいとして、しーえふでぃーをもちいたじせだいちょーおんそくりょかくきのていあん、えあろとれいんにかんするけんきゅーがあげられる。	NO_LABEL
