イン・スクエア・サークルは、1985年に発表されたスティーヴィー・ワンダーのアルバム。	NO_PRONOUNCE	NO_LABEL
20枚目のオリジナル・アルバム。	にじゅうまいめのおりじなるあるばむ。	NO_LABEL
第一弾シングル「パートタイム・ラヴァー」が全米1位を獲得。	NO_PRONOUNCE	NO_LABEL
アール・クルーが参加したバラード「オーヴァージョイド」は、日本でオンワード樫山「23区」のコマーシャルソングに使われた。	NO_PRONOUNCE	NO_LABEL
また、メアリー・J・ブライジがカヴァー。	NO_PRONOUNCE	NO_LABEL
「イッツ・ロング」は、南アフリカ共和国のアパルトヘイトを批判したプロテストソングで、コサ語のコーラスを取り入れた。	NO_PRONOUNCE	NO_LABEL
