「DOOR TO DOOR〜僕は脳性まひのトップセールスマン〜」は、2009年3月29日にTBS系列で放送された単発スペシャルのテレビドラマである。	NO_PRONOUNCE	NO_LABEL
アメリカの実在の人物ビル・ポーターの半生を原作とし、脳性まひによる障害を抱えながらもセールスマンとして活躍する青年を二宮和也が演じる。	NO_PRONOUNCE	NO_LABEL
「少しは、恩返しができたかな」「マラソン」に続く、二宮主演の感動ドラマ第3弾となる。	NO_PRONOUNCE	NO_LABEL
視聴率9.3%。	しちょーりつきゅうてんさんぱーせんと。	NO_LABEL
"Ten Things I Learned from Bill Porter", Shelly Brady, 2002.　邦訳　シェリー・ブレイディ　『きっと「イエス」と言ってもらえる』　宇丹貴代実訳、草思社、2004年。	NO_PRONOUNCE	NO_LABEL
