小沢 文夫は、愛知県出身の元プロ野球選手。	おざわふみおわ、あいちけんしゅっしんのもとぷろやきゅーせんしゅ。	NO_LABEL
愛知県立岡崎北高等学校から愛知大学を経て、1955年にトンボユニオンズへ入団。	あいちけんりつおかざききたこーとーがっこーからあいちだいがくをへて、せんきゅうひゃくごじゅうごねんにとんぼゆにおんずえにゅーだん。	NO_LABEL
1956年オフに球団が吸収合併したため1957年は近鉄パールスへ移籍。	せんきゅうひゃくごじゅうろくねんおふにきゅーだんがきゅーしゅーがっぺいしたためせんきゅうひゃくごじゅうしちねんわきんてつぱーるすえいせき。	NO_LABEL
同年引退。	どーねんいんたい。	NO_LABEL
