股野 琢– 大正10年10月13日）は、日本の宮内官僚。	NO_PRONOUNCE	NO_LABEL
漢学者。	かんがくしゃ。	NO_LABEL
字は子玉、号は藍田。	じわこだま、ごーわあいだ。	NO_LABEL
播磨国龍野藩に藩儒股野景質の長男として生まれ、大坂、江戸に遊学した。	はりまのくにたつのはんにはんじゅまたのけいしつのちょーなんとしてうまれ、おーさか、えどにゆーがくした。	NO_LABEL
1871年、教部省宣教掛として出仕。	せんはっぴゃくななじゅういちねん、きょーぶしょーせんきょーかけとしてしゅっし。	NO_LABEL
その後、太政官に入り、内閣記録局長に昇進した。	そのご、だじょーかんにはいり、ないかくきろくきょくちょーにしょーしんした。	NO_LABEL
1889年、宮内省に転じ、書記官、文事秘書官、局長、別当を歴任し、帝室博物館総長兼内大臣秘書官長に至った。	せんはっぴゃくはちじゅうきゅうねん、くないしょーにてんじ、しょきかん、ぶんじひしょかん、きょくちょー、べっとーをれきにんし、ていしつはくぶつかんそーちょーけんないだいじんひしょかんちょーにいたった。	NO_LABEL
さらに臨時帝室編修局編修官長、宮中顧問官を務めた。	さらにりんじていしつへんしゅーきょくへんしゅーかんちょー、きゅーちゅーこもんかんをつとめた。	NO_LABEL
