サン＝ジュアン＝ド＝マルヌは、フランス、ヌーヴェル＝アキテーヌ地域圏、ドゥー＝セーヴル県のコミューン。	NO_PRONOUNCE	NO_LABEL
県北東部にあり、ヴィエンヌ県と接している。	NO_PRONOUNCE	NO_LABEL
直線距離では、町はエルヴォーの9km北東、トゥアールの南東16kmにある。	NO_PRONOUNCE	NO_LABEL
町では県道37号線、46号線、64号線、147号線が交差している。	NO_PRONOUNCE	NO_LABEL
サン＝ジュアン＝ド＝マルヌの古名はEnsionであり、以下のようにつづられた。	NO_PRONOUNCE	NO_LABEL
Ansion、Hension、Enixio、Ansio、Enessioである。	NO_PRONOUNCE	NO_LABEL
町の名は976年のジョフロワ1世・ダンジューの憲章において、サン・ジュアン・ド・リュド教会の名を復元するものとされた。	NO_PRONOUNCE	NO_LABEL
参照元:1962年から1999年までは複数コミューンに住所登録をする者の重複分を除いたもの。	NO_PRONOUNCE	NO_LABEL
それ以降は当該コミューンの人口統計によるもの。	それいこーわとーがいこみゅーんのじんこーとーけいによるもの。	NO_LABEL
1999年までEHESS/Cassini、2004年以降INSEE。	NO_PRONOUNCE	NO_LABEL
