マリーニョことマリオ・セルジオ・サントス・コスタは、ブラジル・アラゴアス州ペネド市出身のプロサッカー選手。	NO_PRONOUNCE	NO_LABEL
中国サッカー・スーパーリーグ・長春亜泰足球倶楽部所属。	NO_PRONOUNCE	NO_LABEL
ポジションは攻撃的ミッドフィールダー、フォワード。	ぽじしょんわこーげきてきみっどふぃーるだー、ふぉわーど。	NO_LABEL
ユース時代を過ごしたフルミネンセFCでプロデビュー。	ゆーすじだいをすごしたふるみねんせでぷろでびゅー。	NO_LABEL
2009年にSCインテルナシオナルに移籍し、その後複数クラブへの期限付き移籍などを経て2015年にクルゼイロECに移籍した。	にせんきゅうねんにすぽるちくるーびいんてるなしおなるにいせきし、そのごふくすーくらぶえのきげんつきいせきなどをへてにせんじゅうごねんにくるぜいろにいせきした。	NO_LABEL
2016年シーズンよりECヴィトーリアに期限付き移籍。	NO_PRONOUNCE	NO_LABEL
バイーア州選手権2016では、10試合に出場して3得点を記録するなどチームの優勝に貢献した。	NO_PRONOUNCE	NO_LABEL
これらの功績が評価され、2016年6月に完全移籍した。	これらのこーせきがひょーかされ、にせんじゅうろくねんろくがつにかんぜんいせきした。	NO_LABEL
2017年より、中国サッカー・スーパーリーグの長春亜泰足球倶楽部に加入することが発表された。	にせんじゅうななねんより、ちゅーごくさっかーすーぱーりーぐのちょーしゅんあたいそっきゅうくらぶにかにゅーすることがはっぴょーされた。	NO_LABEL
