谷塚は、埼玉県草加市の町名。	やつかわ、さいたまけんそーかしのちょーめい。	NO_LABEL
現行行政地名は谷塚一丁目および二丁目。	げんこーぎょーせいちめいわやつかいっちょーめおよびにちょーめ。	NO_LABEL
郵便番号は340-0028。	NO_PRONOUNCE	NO_LABEL
草加市の南部に位置する。	そーかしのなんぶにいちする。	NO_LABEL
谷塚駅東口の南側にあたり、東京都と隣接する。	やつかえきひがしぐちのみなみがわにあたり、とーきょーととりんせつする。	NO_LABEL
主に住宅地となっている。	おもにじゅーたくちとなっている。	NO_LABEL
2017年10月1日現在の世帯数と人口は以下の通りである。	にせんじゅうななねんじゅーがつついたちげんざいのせたいすーとじんこーわいかのとーりである。	NO_LABEL
市立小・中学校に通う場合、学区は以下の通りとなる。	しりつしょーちゅーがっこーにかようばあい、がっくわいかのとーりとなる。	NO_LABEL
東武伊勢崎線谷塚駅	とーぶいせざきせんやつかえき	NO_LABEL
