OpenSeaMapは利用可能な航海情報や地理データを集結して世界中の海図を作成する共同作業プロジェクトである。	NO_PRONOUNCE	NO_LABEL
海図は公式サイトでの閲覧以外にも、手持ちの電子機器にダウンロードした利用が可能である。	かいずわこーしきさいとでのえつらんいがいにも、てもちのでんしききにだうんろーどしたりよーがかのーである。	NO_LABEL
オープンストリートマップの一部であり、共に同じデータベースを使用し、地理および海洋データを補完している。	おーぷんすとりーとまっぷのいちぶであり、ともにおなじでーたべーすをしよーし、ちりおよびかいよーでーたをほかんしている。	NO_LABEL
オープンデータベースライセンスに則した利用が可能であり、参照元としてOpenSeaMapの記載が必要だが使用料やライセンスによる使用制限に縛られることなく、印刷物やウェブサイト、アプリケーションに利用できる。	NO_PRONOUNCE	NO_LABEL
海図には灯台や各種航路標識、その他の航法援助や港湾施設なども含まれる。	かいずにわとーだいやかくしゅこーろひょーしき、そのたのこーほーえんじょやこーわんしせつなどもふくまれる。	NO_LABEL
各種表示は国際水路機関のS-57に準拠している。	NO_PRONOUNCE	NO_LABEL
データベースは、3次元に対応していないことから水深の立体表示が不可能である。	でーたべーすわ、さんじげんにたいおーしていないことからすいしんのりったいひょーじがふかのーである。	NO_LABEL
しかし、将来的には水深測量モデルを用いて海底の描画に対応するよう取り組んでいる。	しかし、しょーらいてきにわすいしんそくりょーもでるをもちいてかいていのびょーがにたいおーするよーとりくんでいる。	NO_LABEL
OSMをベース にしたOpenLayersによる多層のデータが表示されており、OSMの全オブジェクトの他にも航路標識法や各種港、船レースイベント情報等の追加レイヤーが使用できる。	おーえすえむをべーすにしたおーぷんれいやーずによるたそーのでーたがひょーじされており、おーえすえむのぜんおぶじぇくとのほかにもこーろひょーしきほーやかくしゅこー、ふねれーすいべんとじょうほーとーのついかれいやーがしよーできる。	NO_LABEL
ロシア語、スペイン語、イタリア語、英語、ドイツ語、フランス語の六言語に翻訳されており、ツールや凡例は英語、ドイツ語、フランス語のインターフェースが利用できる。	ろしあご、すぺいんご、いたりあご、えいご、どいつご、ふらんすごのろくげんごにほんやくされており、つーるやはんれいわえいご、どいつご、ふらんすごのいんたーふぇーすがりよーできる。	NO_LABEL
海図の地名は各地域の言語で記載されており、日々地図作成者により更新され続けている。	かいずのちめいわかくちいきのげんごできさいされており、ひびちずさくせいしゃによりこーしんされつずけている。	NO_LABEL
地図上の港湾や停泊地、ヨットハーバーはポップアップウインドウにて詳細が表示され、記載内容は編集可能である。	ちずじょーのこーわんやていはくち、よっとはーばーわぽっぷあっぷういんどうにてしょーさいがひょーじされ、きさいないよーわへんしゅーかのーである。	NO_LABEL
SkipperGuide を含むウィキプロジェクトによると、5000箇所の港湾が世界中で利用されており、600箇所の停泊地に詳細な説明が加えられている。	NO_PRONOUNCE	NO_LABEL
全地域の風速や気圧などの気象データに基づく天気図が描画されており、データは一日2〜3回更新され、三日後までの予想天気図が利用できる。	NO_PRONOUNCE	NO_LABEL
100から10000mまでの海底の深度に伴い、23段階に海の色調を塗り分けている。	NO_PRONOUNCE	NO_LABEL
海図データの編集には以下の2方式がある。	NO_PRONOUNCE	NO_LABEL
地図の編集に際してメールアドレスの入力を含むアカウント登録をする必要がある。	ちずのへんしゅーにさいしてめーるあどれすのにゅーりょくをふくむあかうんととーろくをするひつよーがある。	NO_LABEL
XML-RPCのインタフェースを用いたプログラムによる利用も可能である。	えっくすえむえるあーるぴーしーのいんたふぇーすをもちいたぷろぐらむによるりよーもかのーである。	NO_LABEL
