長崎三菱信用組合は、長崎県長崎市に本店を置く信用組合。	ながさきみつびししんよーくみあいわ、ながさきけんながさきしにほんてんをおくしんよーくみあい。	NO_LABEL
愛称はりょうしん、設立当初は三菱重工業長崎造船所をはじめとする三菱関連企業の従業員の福利厚生を向上させるために設立された職域信用組合である。	あいしょーわりょーしん、せつりつとーしょわみつびしじゅーこーぎょーながさきぞうせんしょをはじめとするみつびしかんれんきぎょーのじゅーぎょーいんのふくりこーせいをこーじょーさせるためにせつりつされたしょくいきしんよーくみあいである。	NO_LABEL
そのため、主な取引先は関係企業と従業員であるが、近年は地域密着という方針を併せて打ち出し、新聞、テレビなどに住宅ローンや定期預金などをPRする広告を打つなど、関係先以外の顧客開拓にも力を入れている。	そのため、おもなとりひきさきわかんけいきぎょーとじゅーぎょーいんであるが、きんねんわちーきみっちゃくとゆうほーしんをあわせてうちだし、しんぶん、てれびなどにじゅーたくろーんやていきよきんなどをぴーあーるするこーこくをうつなど、かんけいさきいがいのこきゃくかいたくにもちからをいれている。	NO_LABEL
