「ワインレッドの心」は、安全地帯の4枚目のシングル。	NO_PRONOUNCE	NO_LABEL
1983年11月25日にリリースされた。	せんきゅうひゃくはちじゅうさんねんじゅーいちがつにじゅうごにちにりりーすされた。	NO_LABEL
表題曲「ワインレッドの心」は、サントリー「赤玉パンチ」CMイメージソング、またフジテレビ系・ナショナル木曜劇場ドラマ「間違いだらけの夫選び」エンディングテーマとして使われた。	NO_PRONOUNCE	NO_LABEL
オリコンでは初の1位獲得となり、翌年1984年の年間チャート2位に輝いた。	おりこんでわはつのいちーかくとくとなり、よくねんせんきゅうひゃくはちじゅうよねんのねんかんちゃーとにーにかがやいた。	NO_LABEL
売上枚数は71.4万枚。	NO_PRONOUNCE	NO_LABEL
安全地帯の代表曲の一つである。	あんぜんちたいのだいひょーきょくのひとつである。	NO_LABEL
作詞を行った井上陽水が後に自身のアルバム『9.5カラット』にてセルフカバーをしている。	NO_PRONOUNCE	NO_LABEL
自身のコンサート及び音楽番組などで披露する際には、発売当初からキーを半音下げて披露している。	じしんのこんさーとおよびおんがくばんぐみなどでひろーするさいにわ、はつばいとーしょからきーをはんおんさげてひろーしている。	NO_LABEL
2010年には、活動再開の安全地帯によりセルフカバーされ、シングル「蒼いバラ／ワインレッドの心」に両A面曲として収録された。	NO_PRONOUNCE	NO_LABEL
ライブにおいて他のミュージシャンとのコラボレーションが行われており、2012年12月5日にグランドプリンスホテル新高輪「飛天」から生放送された『2012 FNS歌謡祭』では安全地帯×ATSUSHIにより、また2013年7月31日に国立代々木競技場第一体育館から生放送された『FNSうたの夏まつり』では安全地帯×徳永英明×沖仁×上妻宏光×宮本笑里により披露されている。	NO_PRONOUNCE	NO_LABEL
全作曲：玉置浩二、編曲：安全地帯・星勝	NO_PRONOUNCE	NO_LABEL
