可兒 春琳- 大正9年7月25日）は、幕末の大垣藩士、廃藩置県後は陸軍軍人。	NO_PRONOUNCE	NO_LABEL
日清戦争、日露戦争で数々の武功をあげ、陸軍少将となった。	にっしんせんそー、にちろせんそーでかずかずのぶこーをあげ、りくぐんしょーしょーとなった。	NO_LABEL
大垣藩士可兒幾平の長子として大垣田町に生まれる。	おーがきはんしかにいくたいらのちょーしとしてだいかきたまちにうまれる。	NO_LABEL
幼名は幾太郎。	よーめいわいくたろー。	NO_LABEL
後に惇藏、明治5年には春琳と改めた。	のちにあつしくら、めいじごねんにわはるりんとあらためた。	NO_LABEL
幼き頃より学問に秀でており、文久3年より家老付壮士となる。	おさなきころよりがくもんにひいでており、ぶんきゅーさんねんよりかろーずけそーしとなる。	NO_LABEL
元治元年の禁門の変では、深草で長州軍を破り初陣を飾った。	もとはるがんねんのきんもんのへんでわ、ふこそでちょーしゅーぐんをやぶりういじんをかざった。	NO_LABEL
慶応3年2月より、京都の衣棚にある赤松小三郎の英国兵学塾に入塾する。	けいおーさんねんにがつより、きょーとのころものたなにあるあかまつこさぶろーのえいこくへいがくじゅくににゅーじゅくする。	NO_LABEL
可兒は塾に寄宿し、当時英国式兵学の第一人者であった赤松の傍らでその薫陶を受けた。	かにわじゅくにきしゅくし、とーじえいこくしきへいがくのだいいちにんしゃであったあかまつのかたわらでそのくんとーをうけた。	NO_LABEL
赤松が同年9月3日、門人の薩摩藩士中村半次郎に暗殺されると、かねて薩摩藩士が自分たちを探索しているのを感じ取っていた可兒は、「若し薩摩藩士襲来せば結束して応酬、一戦すべし」と身構えたという。	NO_PRONOUNCE	NO_LABEL
身の危険を感じた可兒は、京都を脱して大垣に帰国。	みのきけんをかんじたかにわ、きょーとをだっしておーがきにきこく。	NO_LABEL
藩校で洋学及び新式砲術を教授した後、藩命によって大坂城守備の任に就く。	はんこーでよーがくおよびしんしきほーじゅつをきょーじゅしたのち、はんいのちによっておおさかじょーしゅびのにんにつく。	NO_LABEL
鳥羽・伏見の戦いが勃発すると幕府方として勇戦するも、敗北。	とばふしみのたたかいがぼっぱつするとばくふかたとしてゆーせんするも、はいぼく。	NO_LABEL
大垣藩が新政府軍に就くと、謹慎処分を受けた後、北越戦争に参加。	おーがきはんがしんせいふぐんにつくと、きんしんしょぶんをうけたのち、ほくえつせんそーにさんか。	NO_LABEL
長岡の激戦で武功をあげ、戦後150石を賜った。	NO_PRONOUNCE	NO_LABEL
廃藩置県後は、陸軍軍人。	はいはんちけんごわ、りくぐんぐんじん。	NO_LABEL
日清戦争では大隊長として出征。	にっしんせんそーでわだいたいちょーとしてしゅっせい。	NO_LABEL
1895年8月1日、歩兵中佐に昇進し、後備歩兵第29連隊長に就任。	NO_PRONOUNCE	NO_LABEL
戦功によって勲四等旭日小綬章を賜った。	せんこーによってくんよんとーきょくじつしょーじゅしょーをたまわった。	NO_LABEL
1896年5月21日、仙台連隊区司令官に就任し、1897年9月22日、歩兵第5連隊長に転じた。	NO_PRONOUNCE	NO_LABEL
1900年10月31日に歩兵大佐に昇進。	せんきゅうひゃくねんじゅーがつさんじゅういちにちにほへいたいさにしょーしん。	NO_LABEL
日露戦争が勃発すると、第一軍の後備歩兵13旅団後備歩兵第29連隊の連隊長として出征。	NO_PRONOUNCE	NO_LABEL
沙河会戦では蓮花山の夜襲攻撃を行いこれを占領。	さかかいせんでわれんげさんのやしゅーこーげきをおこないこれをせんりょー。	NO_LABEL
奉天会戦では、歩兵第4連隊と共に紅土嶺に籠るロシア軍の攻撃を行い、正確な砲撃により攻略に成功した。	NO_PRONOUNCE	NO_LABEL
さらに進んで高台嶺のロシア軍攻撃に参加。	さらにすすんでたかだいみねのろしあぐんこーげきにさんか。	NO_LABEL
高台嶺では、ロシア軍の猛反撃を受け、可兒連隊も隊員の3分の2を失うという凄惨な戦いとなったが、遂にこれを攻略。	たかだいみねでわ、ろしあぐんのもーはんげきをうけ、かにれんたいもたいいんのさんぶんのにをうしなうとゆうせいさんなたたかいとなったが、ついにこれをこーりゃく。	NO_LABEL
可兒本人も、敵弾が鼻から右頬に貫通するという重傷を負ったが、一か月入院した後に復隊した。	かにほんにんも、てきだんがはなからみぎほーにかんつーするとゆうじゅーしょーをおったが、いっかげつにゅーいんしたのちにふくたいした。	NO_LABEL
第一軍司令官黒木為楨から二度に渡って感状を受けた。	NO_PRONOUNCE	NO_LABEL
1905年11月30日、陸軍少将に昇進し、同年12月27日、予備役に編入された。	せんきゅうひゃくごねんじゅーいちがつさんじゅうにち、りくぐんしょーしょーにしょーしんし、どーねんじゅーにがつにじゅうしちにち、よびえきにへんにゅーされた。	NO_LABEL
