大久保 忠鎮- 正徳元年9月20日）は、江戸幕府の旗本。	NO_PRONOUNCE	NO_LABEL
幕府目付。	ばくふめずけ。	NO_LABEL
通称は権左衛門。	つーしょーわごんざえもん。	NO_LABEL
浅野長矩の刃傷の際に吉良義央への取調べにあたり、また長矩の切腹の副検死役をつとめた。	あさのながのりのにんじょーのさいにきらよしひさえのとりしらべにあたり、またながのりのせっぷくのふくけんしやくをつとめた。	NO_LABEL
大身旗本の大久保忠貞の四男として生まれる。	たいしんはたもとのおーくぼたださだのよんおとことしてうまれる	NO_LABEL
家督は長兄忠重が継いだため、別家を興した。	かとくわちょーけいただしげがついだため、べっけをおこした。	NO_LABEL
明暦3年6月25日はじめて将軍徳川家綱に拝謁。	めいれきさんねんろくがつにじゅうごにちはじめてしょーぐんとくがわいえつなにはいえつ。	NO_LABEL
万治2年7月11日書院番に列した。	まんじにねんしちがつじゅういちにちしょいんばんにれつした。	NO_LABEL
寛文元年12月12日に切米300俵を支給され、寛文9年閏10月18日勤務が精勤であるため黄金2枚を受けた。	NO_PRONOUNCE	NO_LABEL
しかし40年近く書院番からの出世はなく、元禄10年9月15日になってようやく目付に就任した。	しかしよんじゅうねんちかくしょいんばんからのしゅっせわなく、げんろくじゅうねんくがつじゅうごにちになってよーやくめつけにしゅーにんした。	NO_LABEL
12月18日に布衣の着用を許された。	じゅーにがつじゅうはちにちにふいのちゃくよーをゆるされた。	NO_LABEL
22日に200表を加増され、さらに28日には切米を所領に改められて、上野国群馬郡、緑野郡、多胡郡において都合500石を領した。	NO_PRONOUNCE	NO_LABEL
元禄13年3月15日には徳川家光の五十回忌の式典に出席するために日光山へ赴いた。	げんろくじゅうさんねんさんがつじゅうごにちにわとくがわいえみつのごじゅっかいきのしきてんにしゅっせきするためににっこーさんえおもむいた。	NO_LABEL
元禄14年3月14日、播磨赤穂藩主の浅野長矩が江戸城内にて高家吉良義央に刃傷に及んだ。	げんろくじゅうよんねんさんがつじゅうよっか、はりまあこーはんしゅのあさのながのりがえどじょーないにてたかいえきらよしひさににんじょーにおよんだ。	NO_LABEL
この際に忠鎮は、久留正清とともに目付として吉良義央の取調べにあたった。	このさいにちゅーちんわ、くるまさきよとともにめつけとしてきらよしひさのとりしらべにあたった。	NO_LABEL
しかし義央は「拙者は何の恨みを受ける覚えもありません。	NO_PRONOUNCE	NO_LABEL
まったくもって内匠頭が乱心したとしか思えません。	まったくもってたくみあたまがらんしんしたとしかおもえません。	NO_LABEL
またこの老齢ですから、何を恨まれたのかいちいち覚えておりません」と答えている。	NO_PRONOUNCE	NO_LABEL
結局、将軍徳川綱吉の即断により長矩は即日切腹に処され、義央には何のお咎めもなかった。	けっきょく、しょーぐんとくがわつなよしのそくだんによりながのりわそくじつせっぷくにしょされ、よしひさにわなにのおとがめもなかった。	NO_LABEL
その後、大目付の庄田安利が長矩の切腹の検死役正使となり、忠鎮と目付の多門重共が副検死役となり、長矩を預かっている陸奥国一関藩主田村建顕の屋敷へ派遣された。	そのご、おーめつけのしょーだやすとしがながのりのせっぷくのけんしやくせいしとなり、ただししずみとめつけのおかどしげともがふくけんしやくとなり、ながのりをあずかっているむつのくにいちぜきはんしゅたむらたつあきのやしきえはけんされた。	NO_LABEL
切腹に当たって庄田が大名の切腹の場にふさわしくない庭先でやらせようとしたのに対して、忠鎮と多門はその処置に抗議。	せっぷくにあたってしょーだがだいみょーのせっぷくのばにふさわしくないにわさきでやらせようとしたのにたいして、ただししずみとたもんわそのしょちにこーぎ。	NO_LABEL
しかし庄田は激怒して取り合わなかったことが『多門筆記』に記されている。	NO_PRONOUNCE	NO_LABEL
結局、長矩は庭先で切腹させられた。	けっきょく、ながのりわにわさきでせっぷくさせられた。	NO_LABEL
元禄15年6月3日には出羽国庄内藩主酒井忠真に預けられていた本多政利の家臣久林八大夫と清水源左衛門の取調べを命じられて庄内に赴いた。	げんろくじゅうごねんろくがつみっかにわでわのくにしょーないはんしゅさかいただざねにあずけられていたほんだまさとしのかしんひさばやしやひろおっととしみずみなもとさえもんのとりしらべをめいじられてしょーないにおもむいた。	NO_LABEL
しかしこの時の取調べが怠慢であったとして逼塞を命じられ、12月24日には許されたものの目付職は取り上げられて小普請にされた。	しかしこのときのとりしらべがたいまんであったとしてひっそくをめいじられ、じゅーにがつにじゅうよっかにわゆるされたもののめつけしょくわとりあげられてこぶしんにされた。	NO_LABEL
また将軍拝謁も禁止されたが、元禄16年4月25日に将軍拝謁は許された。	またしょーぐんはいえつもきんしされたが、げんろくじゅうろくねんしがつにじゅうごにちにしょーぐんはいえつわゆるされた。	NO_LABEL
正徳元年9月20日に死去。	しょーとくがんねんくがつはつかにしきょ。	NO_LABEL
享年74。	NO_PRONOUNCE	NO_LABEL
本妙寺に葬られた。	ほんみょーじにほーむられた。	NO_LABEL
法名は日休。	ほーみょーわにちきゅー。	NO_LABEL
家督は長男の忠興が継いだ。	かとくわちょーなんのただこーがついだ。	NO_LABEL
