ファンガタウファ環礁は、南太平洋にあるフランス領ポリネシアの島。	ふぁんがたうふぁかんしょーわ、みなみたいへいよーにあるふらんすりょーぽりねしあのしま。	NO_LABEL
トゥアモトゥ諸島の一部であり、位置は、南緯22°15′、西経138°45′である。	NO_PRONOUNCE	NO_LABEL
同環礁は近くにあるムルロア環礁と共に、およそ200回の核実験が行われた実験場であった。	どーかんしょーわちかくにあるむるろあかんしょーとともに、およそにひゃっかいのかくじっけんがおこなわれたじっけんじょーであった。	NO_LABEL
礁湖への進入は環礁最北部にある0.5マイルの水路から行う。	NO_PRONOUNCE	NO_LABEL
水路は幅が約60m、深さは6.5mである。	すいろわはばがやくろくじゅうめーとる、ふかさわろくてんごめーとるである。	NO_LABEL
礁湖の北東部には長さ12mの桟橋があり、2.5mの幅を持つ。	NO_PRONOUNCE	NO_LABEL
もう一つの桟橋は礁湖の東部にあり、50mの長さと5mの幅を持つ。	NO_PRONOUNCE	NO_LABEL
ここには荷揚げ用ランプも設置されている。	ここにわにあげよーらんぷもせっちされている。	NO_LABEL
水路の両岸には信号が設置されている。	すいろのりょーきしにわしんごーがせっちされている。	NO_LABEL
環礁の北東部には中規模の輸送機が着陸できる滑走路があったが廃棄された。	かんしょーのきたとうべにわちゅーきぼのゆそーきがちゃくりくできるかっそーろがあったがはいきされた。	NO_LABEL
ファンガタウファ環礁への水路はチェーンによって封鎖されているが、フランス軍当局によって解除されることがある。	ふぁんがたうふぁかんしょーえのすいろわちぇーんによってふーさされているが、ふらんすぐんとーきょくによってかいじょされることがある。	NO_LABEL
ファンガタウファ環礁は軍用地となっており、その範囲は環礁によって囲まれる礁湖を含んでいる。	NO_PRONOUNCE	NO_LABEL
用地内には許可なしで立ち入ることはできない。	よーちないにわきょかなしでたちいることわできない。	NO_LABEL
ファンガタウファ環礁はフランスが1968年8月24日に初めて行った二段階熱核実験、コード名「カノープス "Canopus"」が行われた実験場であった。	NO_PRONOUNCE	NO_LABEL
2.6メガトンの核爆発が生じた。	NO_PRONOUNCE	NO_LABEL
同環礁ではいくつかの地下核実験と同様に三度の大気中核実験が行われた。	どーかんしょーでわいくつかのちかかくじっけんとどーよーにさんどのたいきちゅーかくじっけんがおこなわれた。	NO_LABEL
現在ファンガタウファ環礁は様々な種類の鳥類が保護される野生生物サンクチュアリとして役立っている。	げんざいふぁんがたうふぁかんしょーわさまざまなしゅるいのちょーるいがほごされるやせいせいぶつさんくちゅありとしてやくだっている。	NO_LABEL
