トムス童夢・セリカCは、1982年世界耐久選手権日本大会参戦のためにトムスと童夢が開発した日本初のグループCカー。	NO_PRONOUNCE	NO_LABEL
エンジンはトヨタのWRC用グループB・セリカツインカムターボにも搭載される4T-G型 2.1リットル直列4気筒 ツインカムターボ。	NO_PRONOUNCE	NO_LABEL
本来グループCは純粋なレーシングマシンなのだが、トヨタが予算を宣伝部から捻出するため市販車であるセリカのイメージを残すことを要望し、ルーフにA60系セリカのイメージが強く残ったスタイルとなった。	ほんらいぐるーぷしーわじゅんすいなれーしんぐましんなのだが、とよたがよさんをせんでんぶからねんしゅつするためしはんしゃであるせりかのいめーじをのこすことをよーぼーし、るーふにえーろくけいせりかのいめーじがつよくのこったすたいるとなった。	NO_LABEL
イメージは残っているがセリカのパーツは一切使わない純粋なグループCカーである。	いめーじわのこっているがせりかのぱーつわいっさいつかわないじゅんすいなぐるーぷしーかーである。	NO_LABEL
デビュー戦は8月の鈴鹿1000kmだが、1周もできないままリタイヤとなる。	でびゅーせんわはちがつのすずかいっせんきろだが、いっしゅーもできないままりたいやとなる。	NO_LABEL
「本番」の10月のWEC富士6時間では、カウルのトラブルで一時遅れるも完走を果たし、5位に入賞する。	NO_PRONOUNCE	NO_LABEL
これに気をよくしたトヨタは、翌年セリカのイメージの呪縛を解き、完全ウィングカーで市販車のイメージを一切持たないグループCカー、トムス・83Cを投入することとなった。	NO_PRONOUNCE	NO_LABEL
なお1983年4月の鈴鹿500km、6月の富士500kmには、セリカCのフロントカウルを一部改良したトムス・82Cとしてエントリーしている。	NO_PRONOUNCE	NO_LABEL
