バハーイー教徒に対する迫害の項目では、バハーイー教の信者に対する他宗教からの迫害について記述する。	ばはーいーきょーとにたいするはくがいのこーもくでわ、ばはーいーきょーのしんじゃにたいするたしゅーきょーからのはくがいについてきじゅつする。	NO_LABEL
歴史的経緯によりバハーイー教徒に対する迫害はほとんどがイスラム教徒によるものである。	れきしてきけいーによりばはーいーきょーとにたいするはくがいわほとんどがいすらむきょーとによるものである。	NO_LABEL
バハーイー教はイスラム教シーア派のセクト指導者であったバーブが自らを救世主・預言者として宣言し創始したバーブ教から発展したものである。	NO_PRONOUNCE	NO_LABEL
バハーイー教はイスラム教から発展した宗教であるが、アブラハムの宗教の枠を超えすべての偉大な世界宗教の開祖を預言者と認めるなど世界の一体化が進む近現代の時代状況を反映した宗教であった。	ばはーいーきょーわいすらむきょーからはってんしたしゅーきょーであるが、あぶらはむのしゅうきょーのわくをこえすべてのいだいなせかいしゅうきょーのかいそをよげんしゃとみとめるなどせかいのいったいかがすすむきんげんだいのじだいじょーきょーをはんえいしたしゅーきょーであった。	NO_LABEL
バハーイー教はムハンマドをもってすべての宗教の預言者の封印とするイスラム教の教条的な解釈からすれば『異端』『悪魔の教え』『邪教』であり、スンナ派、シーア派を問わずイスラム原理主義者からは『カーフィル』『邪教徒』とすさまじい憎悪を浴びせられた。	NO_PRONOUNCE	NO_LABEL
そのためバハーイー教の歴史は当初からイスラム教徒による宗教的迫害が付きまとっていた。	そのためばはーいーきょーのれきしわとーしょからいすらむきょーとによるしゅーきょーてきはくがいがつきまとっていた。	NO_LABEL
イランは憲法でシーア派イスラームを国教としており、シーア派の聖職者による神権政治がしかれている。	いらんわけんぽーでしーあはいすらーむをこっきょーとしており、しーあはのせいしょくしゃによるしんけんせいじがしかれている。	NO_LABEL
イスラム共和国ではシーア派の中でも十二イマーム派が宗教的ヒエラルキーの頂点に立ち、次に他のシーア派やスンナ派が位置する。	いすらむきょーわこくでわしーあはのなかでもじゅーにいまーむはがしゅーきょーてきひえらるきーのちょーてんにたち、つぎにたのしーあはやすんなはがいちする。	NO_LABEL
ここまでが完全な市民権を認められた宗教であり、その下にゾロアスター教、キリスト教、ユダヤ教の三宗教が位置する。	ここまでがかんぜんなしみんけんをみとめられたしゅーきょーであり、そのしたにぞろあすたーきょー、きりすときょー、ゆだやきょーのさんしゅーきょーがいちする。	NO_LABEL
これら三宗教の信者はかつての『ズィンミー』に相当するとされ、一定の人権を保障されている。	NO_PRONOUNCE	NO_LABEL
しかしバハーイー教には信教の自由は法的に与えられておらず、イスラーム革命の指導者ホメイニーもバハーイー教を邪教と断じ、受け入れられないと発言している。	しかしばはーいーきょーにわしんきょーのじゆーわほーてきにあたえられておらず、いすらーむかくめいのしどーしゃほめいにーもばはーいーきょーをじゃきょーとだんじ、うけいれられないとはつげんしている。	NO_LABEL
上記の事情によりイランではバハーイー教徒は偽装棄教を強いられており、信仰が発覚した場合投獄される。	じょーきのじじょーによりいらんでわばはーいーきょーとわぎそーききょーをしいられており、しんこーがはっかくしたばあいとーごくされる。	NO_LABEL
最悪の場合はシャリーアによって定められた『背教罪』により死刑に処され、実際に処刑された例もあるため問題視されている。	NO_PRONOUNCE	NO_LABEL
バハーイー教徒の学生は自らの信仰を隠さない限り、大学に入学することはできない。	ばはーいーきょーとのがくせいわみずからのしんこーをかくさないかぎり、だいがくににゅーがくすることわできない。	NO_LABEL
大学の入学試験の際は上記の認可された4宗教の信者であると証明する必要があるからである。	NO_PRONOUNCE	NO_LABEL
そのためバハーイー教の信者は大学教育をあきらめるか、信仰を偽るかを選択させられる。	そのためばはーいーきょーのしんじゃわだいがくきょーいくをあきらめるか、しんこーをいつわるかをせんたくさせられる。	NO_LABEL
このような状況下でイランのバハーイー教徒の中には子弟に海外に留学を行わせるなどの手段をとるものもいる。	このよーなじょーきょーかでいらんのばはーいーきょーとのなかにわしていにかいがいにりゅーがくをおこなわせるなどのしゅだんをとるものもいる。	NO_LABEL
またバハーイー教の初期指導者たちの墓はイランにあり、バハーイー教徒の聖地となっているが、それらの施設の破壊なども行われている。	またばはーいーきょーのしょきしどーしゃたちのはかわいらんにあり、ばはーいーきょーとのせいちとなっているが、それらのしせつのはかいなどもおこなわれている。	NO_LABEL
政権系のメディアではバハーイー教の初期指導者たちは『シオニスト』で、バハーイー教は『イスラム教徒を堕落させるために作り上げられた邪教』という宣伝が盛んに行われている。	NO_PRONOUNCE	NO_LABEL
エジプトでは1925年にバハーイー教はイスラム教から独立した宗教として公認されたが、現在ではイスラム原理主義者の勢力によってコプト教徒に次ぐ攻撃対象とされている。	えじぷとでわせんきゅうひゃくにじゅうごねんにばはーいーきょーわいすらむきょーからどくりつしたしゅーきょーとしてこーにんされたが、げんざいでわいすらむげんりしゅぎしゃのせいりょくによってこぷときょーとにつぐこーげきたいしょーとされている。	NO_LABEL
保守的・教条的なイスラム法学者はバハーイー教徒を『イスラームからの離脱者であり死刑に処すべき』というファトワーを発することもある。	NO_PRONOUNCE	NO_LABEL
欧州連合、国際連合、アムネスティ・インターナショナルなどは盛んにイランやエジプトでのバハーイー教徒への迫害を批判する声明を出している。	おーしゅーれんごー、こくさいれんごー、あむねすてぃいんたーなしょなるなどわさかんにいらんやえじぷとでのばはーいーきょーとえのはくがいをひはんするせいめいをだしている。	NO_LABEL
