塚本 八雲は、小林尽の漫画『スクールランブル』や、テレビアニメ『スクールランブル』などの派生作品に登場する架空の人物。	NO_PRONOUNCE	NO_LABEL
アニメの声優は能登麻美子。	あにめのせいゆーわのとまみこ。	NO_LABEL
その他の人物についてはスクールランブルの登場人物を参照。	そのたのじんぶつについてわすくーるらんぶるのとーじょーじんぶつをさんしょー。	NO_LABEL
塚本天満の1歳下の妹で、『School Rumble 増刊号』における主人公。	NO_PRONOUNCE	NO_LABEL
はかなげな雰囲気を持った美少女。	はかなげなふんいきをもったびしょーじょ。	NO_LABEL
セミロングの黒髪、赤色のツリ目、やや太い垂れ眉が特徴。	せみろんぐのくろかみ、あかいろのつりめ、ややふといたれまゆがとくちょー。	NO_LABEL
普段は髪をそのまま下ろしているが、家事をするときには後ろで束ねている。	ふだんわかみをそのままおろしているが、かじをするときにわうしろでたばねている。	NO_LABEL
身長は姉よりも高い。	しんちょーわあねよりもたかい。	NO_LABEL
制服のリボンは紐である。	せいふくのりぼんわひもである。	NO_LABEL
広い昔ながらの蔵つき日本家屋に天満や黒猫の伊織と一緒に暮らしている。	ひろいむかしながらのぞーつきにほんかおくにてんまやくろねこのいおりといっしょにくらしている。	NO_LABEL
姉妹仲は非常に良く、好きな時代劇をよく一緒に見たりしている。	しまいなかわひじょーによく、すきなじだいげきをよくいっしょにみたりしている。	NO_LABEL
また、時代小説を読むのが趣味で、他に浴衣も好きである。	また、じだいしょーせつをよむのがしゅみで、たにゆかたもすきである。	NO_LABEL
両親に関する描写は、僅かに父親の影が描かれたことがあるだけで、現在どこでどのようにしているのかは不明である。	りょーしんにかんするびょーしゃわ、わずかにちちおやのかげがえがかれたことがあるだけで、げんざいどこでどのよーにしているのかわふめいである。	NO_LABEL
このような厳しい状況の中、昔からずっとそばにいて自分を支えてくれた天満のことは誰よりも大切に思っており、天満を馬鹿にする者はたとえ誰であっても許さない。	このよーなきびしいじょーきょーのなか、むかしからずっとそばにいてじぶんをささえてくれたてんまのことわだれよりもたいせつにおもっており、てんまをばかにするものわたとえだれであってもゆるさない。	NO_LABEL
実際に、それが原因で普段の八雲では考えられないような過激な行動に出たことも何度かあった。	じっさいに、それがげんいんでふだんのやくもでわかんがえられないよーなかげきなこーどーにでたこともなんどかあった。	NO_LABEL
しかし、逆に姉離れできていない一面も見受けられる。	しかし、ぎゃくにあねはなれできていないいちめんもみうけられる。	NO_LABEL
ちなみに、子供の頃は今とは正反対の短気で自己主張が強い性格をしていたため、当時から天然ボケな性格であった天満に対して怒ったような物言いをすることもよくあった。	ちなみに、こどものころわいまとわせいはんたいのたんきでじこしゅちょーがつよいせいかくをしていたため、とーじからてんねんぼけなせいかくであったてんまにたいしておこったよーなものいーをすることもよくあった。	NO_LABEL
また、当時は知能とは裏腹にやや舌足らずであった。	また、とーじわちのーとわうらはらにややしたたらずであった。	NO_LABEL
しっかり者で世話好きなため、他人が困っているところを見ると放ってはおけない性格である。	しっかりしゃでせわすきなため、たにんがこまっているところをみるとはなってわおけないせいかくである。	NO_LABEL
さらに、他人の失敗をさりげなくフォローするのが得意である。	さらに、たにんのしっぱいをさりげなくふぉろーするのがとくいである。	NO_LABEL
責任感は相当強い。	せきにんかんわそーとーつよい。	NO_LABEL
将来のこともそれなりに考えており、臨床心理学に興味を持っている。	しょーらいのこともそれなりにかんがえており、りんしょーしんりがくにきょーみをもっている。	NO_LABEL
それゆえに栄養士や介護士、看護師といった人の世話をする職業を目指していたが、播磨の漫画を手伝うようになってからは漫画の編集者という選択肢も考えている。	それゆえにえいよーしやかいごし、かんごしといったひとのせわをするしょくぎょーをめざしていたが、はりまのまんがをてつだうよーになってからわまんがのへんしゅーしゃとゆうせんたくしもかんがえている。	NO_LABEL
昔から家事を任されていたせいか料理や裁縫など家事全般が得意で、塚本家の台所はほぼ彼女が担っており、朝食や弁当の準備をするために毎朝早起きする習慣がついている。	むかしからかじをまかされていたせいかりょーりやさいほーなどかじぜんぱんがとくいで、つかもとかのだいどころわほぼかのじょがになっており、ちょーしょくやべんとーのじゅんびをするためにまいあさはやおきするしゅーかんがついている。	NO_LABEL
ただし、たまには寝坊してしまうこともある。	ただし、たまにわねぼーしてしまうこともある。	NO_LABEL
伊織の世話も主に彼女の仕事であるが、本人にとっては仕事というよりも、むしろ心のよりどころとなっているようで、伊織は八雲にとって大切な家族の一員である。	いおりのせわもおもにかのじょのしごとであるが、ほんにんにとってわしごとというよりも、むしろしんのよりどころとなっているよーで、いおりわやくもにとってたいせつなかぞくのいちいんである。	NO_LABEL
さらに、普段は喫茶店「メルカド」でアルバイトをしており、店長の趣味で様々なコスプレをさせられている。	NO_PRONOUNCE	NO_LABEL
しかしその一方で、どこでもすぐ寝てしまう癖があり、さらに一度寝だすとなかなか目を覚ますことができず、時には授業を寝過ごしてしまうことさえある。	しかしそのいっぽーで、どこでもすぐねてしまうくせがあり、さらにいちどねだすとなかなかめをさますことができず、ときにわじゅぎょーをねすごしてしまうことさえある。	NO_LABEL
ただし、寝過ごしてもパニックに陥ることはない。	ただし、ねすごしてもぱにっくにおちいることわない。	NO_LABEL
他に、スキーも苦手である。	たに、すきーもにがてである。	NO_LABEL
ちなみに、通学手段は基本的に徒歩である。	ちなみに、つーがくしゅだんわきほんてきにとほである。	NO_LABEL
容姿端麗、成績優秀、運動神経抜群、スタイルよしとかなりの器量良しなため、入学後約2ヵ月の間に8人に告白されるなど、人気は校内でもトップクラスである。	NO_PRONOUNCE	NO_LABEL
しかし、今までに男子と付き合ったことはない。	しかし、いままでにだんしとつきあったことわない。	NO_LABEL
これは、自分に好意を持つ異性の心が視えるという能力のためである。	これわ、じぶんにこーいをもついせいのこころがみえるとゆうのーりょくのためである。	NO_LABEL
視え始めたのは小学6年生のときからで、その能力の大きさは月齢周期で変化するため、時にはかなり深いところまで視えてしまうこともある。	みえはじめたのわしょーがくろくねんせいのときからで、そののーりょくのおーきさわげつれいしゅーきでへんかするため、ときにわかなりふかいところまでみえてしまうこともある。	NO_LABEL
また、この呪縛からは自分の意思で逃げ出すことができないため、男子に対する苦手意識のもととなり、誰にも言えずに一人で抱え込んでいる。	また、このじゅばくからわじぶんのいしでにげだすことができないため、だんしにたいするにがていしきのもととなり、だれにもいえずにひとりでかかえこんでいる。	NO_LABEL
そのため「付き合うとはどういうことか」など恋愛に関してはよくわからないことが多い。	NO_PRONOUNCE	NO_LABEL
ただ、いずれ克服しなければならないという自覚は持っている。	ただ、いずれこくふくしなければならないとゆうじかくわもっている。	NO_LABEL
他にも幽霊の女の子など常人ではありえないことに遭遇することも多い。	たにもゆーれいのおんなのこなどじょーじんでわありえないことにそーぐーすることもおーい。	NO_LABEL
基本的に感情を表に出したり、人に話しかけたりするのが苦手なため、前述の能力のせいもあって入学後しばらくは独りで過ごしていたが、野良犬から助けてもらったことでサラ・アディエマスと知り合って無二の親友となり、彼女のいる茶道部に入部することにもなる。	きほんてきにかんじょーをひょーにだしたり、ひとにはなしかけたりするのがにがてなため、ぜんじゅつののーりょくのせいもあってにゅーがくごしばらくわひとりですごしていたが、のらいぬからたすけてもらったことでさらあでぃえますとしりあってむにのしんゆーとなり、かのじょのいるさどーぶににゅーぶすることにもなる。	NO_LABEL
また、天満が家を出た後はサラとの共同生活を送っている。	また、てんまがいえをでたのちわさらとのきょーどーせいかつをおくっている。	NO_LABEL
そのほか、さだまさしの歌を通じて東郷榛名、稲葉美樹と仲良くなり、やがて俵屋さつきとも友達となる。	そのほか、さだまさしのうたをつーじてとーごーはるな、いなばみきとなかよくなり、やがてたわらやさつきともともだちとなる。	NO_LABEL
この5人で行動する機会が増えたことにより、当初よりも笑顔などの感情表現が豊かになっていった。	このごにんでこーどーするきかいがふえたことにより、とーしょよりもえがおなどのかんじょーひょーげんがゆたかになっていった。	NO_LABEL
5人でいるときは俵屋や稲葉の暴走を軽く制止する役に回ることが多いが、逆にイジられる事も時々ある。	ごにんでいるときわたわらややいなばのぼーそーをかるくせいしするやくにまわることがおーいが、ぎゃくにいじられることもときどきある。	NO_LABEL
後述の恋愛面に関して時にはからかわれ、時には支えられている関係でもある。	こーじゅつのれんあいめんにかんしてときにわからかわれ、ときにわささえられているかんけいでもある。	NO_LABEL
ノリは良くも悪くもないが、友達の輪の中で一緒になって楽しむには問題ない。	のりわよくもわるくもないが、ともだちのわのなかでいっしょになってたのしむにわもんだいない。	NO_LABEL
ただし、自分でその場を盛り上げるのは得意でない。	ただし、じぶんでそのばをもりあげるのわとくいでない。	NO_LABEL
他に、天満のいる2年C組の生徒と絡むことが非常に多く、そのたびによく騒動に巻き込まれる。	NO_PRONOUNCE	NO_LABEL
そのうち、ストーカーのように付きまとわれている花井春樹にはずいぶん困らされており、一種の恐怖症のようになっているが、時が経つにつれてだいぶ慣れてきている。	そのうち、すとーかーのよーにつきまとわれているはないはるきにわずいぶんこまらされており、いっしゅのきょーふしょーのよーになっているが、ときがたつにつれてだいぶなれてきている。	NO_LABEL
一度話せるようになりさえすれば、どんな相手にでも自分の意見をきちんと言えるだけの芯の強さを持っている。	いちどはなせるよーになりさえすれば、どんなあいてにでもじぶんのいけんをきちんといえるだけのしんのつよさをもっている。	NO_LABEL
会話の語尾には「～だよ」「～だね」「～かな?」などを多用するが、前述の年上との絡みで敬語を使う場面も多い。	NO_PRONOUNCE	NO_LABEL
一人称は「私」である。	NO_PRONOUNCE	NO_LABEL
呼称は天満が「八雲」、沢近・高野・サラ・俵屋・稲葉・東郷榛名が「八雲」、周防・今鳥・結城が「八雲ちゃん」、播磨が「妹さん」、花井が「八雲君」、修治が「八雲姉ちゃん」、ハリーが「ヤクモ」。	NO_PRONOUNCE	NO_LABEL
基本的にクラスの女子は「塚本さん」、男子は「塚本」と呼ぶ。	NO_PRONOUNCE	NO_LABEL
また、2年C組の男子も姉同様「塚本」と呼んだことがあり、それが原因で播磨と花井が喧嘩になったこともある。	NO_PRONOUNCE	NO_LABEL
天満一筋な播磨拳児は心が視えず、男子の中で普通に話せる希少な存在でもある。	てんまひとすじなはりまけんじわこころがみえず、だんしのなかでふつーにはなせるきしょーなそんざいでもある。	NO_LABEL
そもそも播磨と会話を交わすようになったのは夏休みの途中のことである。	そもそもはりまとかいわをかわすよーになったのわなつやすみのとちゅーのことである。	NO_LABEL
その播磨が密かに漫画を描いていることをふとしたことから知り、以後アシスタント兼専属編集者として彼の描く漫画の手伝いをするようになる。	そのはりまがひそかにまんがをえがいていることをふとしたことからしり、いごあしすたんとけんせんぞくへんしゅーしゃとしてかれのえがくまんがのてつだいをするよーになる。	NO_LABEL
その間播磨とは添い寝、キス未遂、手錠で繋がれるなど、そのほとんどが事故や成り行きによるものであるが、とんでもないことになりつつも、八雲が嫌がる素振りも見せずアシスタントを続けたこともあり、その距離は本人たちの意識しないところで徐々に縮まっていくことになり、気が付けば取り返しが付かないくらいに近くなっていた。	そのかんはりまとわそいね、きすみすい、てじょーでつながれるなど、そのほとんどがじこやなりゆきによるものであるが、とんでもないことになりつつも、やくもがいやがるそぶりもみせずあしすたんとをつずけたこともあり、そのきょりわほんにんたちのいしきしないところでじょじょにちじまっていくことになり、きがつけばとりかえしがつかないくらいにちかくなっていた。	NO_LABEL
実際、当時播磨の友人ランク1位といえる立場ではあったが、さらに播磨や沢近が誤解を招く言動を連発してしまったこともあり、一時は周囲からその関係を誤解され、天満公認カップルとなってしまった。	じっさい、とーじはりまのゆーじんらんくいちーといえるたちばでわあったが、さらにはりまやさわちかがごかいをまねくげんどーをれんぱつしてしまったこともあり、いちじわしゅーいからそのかんけいをごかいされ、てんまこーにんかっぷるとなってしまった。	NO_LABEL
とはいえ、八雲自身は好きな人はいないと言い続けてきたため、そのことに戸惑っていた様子で、高校1年も終わりになろうとするまでの半年もの間、他人に対して自分の気持ちや態度をはっきりさせたことはあまりなかった。	とわいえ、やくもじしんわすきなひとわいないといいつずけてきたため、そのことにとまどっていたよーすで、こーこーいちねんもおわりになろうとするまでのはんとしものま、たにんにたいしてじぶんのきもちやたいどをはっきりさせたことわあまりなかった。	NO_LABEL
しかし、播磨に対しては、漫画の中のほぼ播磨と同じ設定な男の子のことを好きだと言う、無茶な注文に赤面しながらも素直に応じてしまう、誕生日やバレンタインデーにプレセントを渡そうとする、播磨のことを好きな沢近に嫉妬をするなどの行動から、恋心かそれに近い感情を抱いている模様。	しかし、はりまにたいしてわ、まんがのなかのほぼはりまとおなじせっていなおとこのこのことをすきだという、むちゃなちゅーもんにせきめんしながらもすなおにおーじてしまう、たんじょーびやばれんたいんでーにぷれせんとをわたそうとする、はりまのことをすきなさわちかにしっとをするなどのこーどーから、こいごころかそれにちかいかんじょーをだいているもよー。	NO_LABEL
ただ、八雲が心の中でどれだけ自覚しているのかはよくわからない。	ただ、やくもがこころのなかでどれだけじかくしているのかわよくわからない。	NO_LABEL
好きな相手に対しては、表立ったアプローチを繰り返すよりもさりげない気配りで尽くすタイプで、自分はいつも相手のそばで微笑んでいたいという理想を持っている。	すきなあいてにたいしてわ、おもてだったあぷろーちをくりかえすよりもさりげないきくばりでつくすたいぷで、じぶんわいつもあいてのそばでほほえんでいたいとゆうりそーをもっている。	NO_LABEL
しかし、播磨が天満をどれだけ大切に想っているかを理解しているため、自分がどんなに播磨の力になろうとも天満にはかなわないと思うなど、元々恋愛音痴であるが、恋愛に対して後ろ向きになることもしばしばで、自分の気持ちよりも播磨達の気持ちを優先させがちである。	しかし、はりまがてんまをどれだけたいせつにおもっているかをりかいしているため、じぶんがどんなにはりまのちからになろうともてんまにわかなわないとおもうなど、もともとれんあいおんちであるが、れんあいにたいしてうしろむきになることもしばしばで、じぶんのきもちよりもはりまいたるのきもちをゆーせんさせがちである。	NO_LABEL
烏丸大路のことが好きな天満とその天満のことが好きな播磨をどちらとも応援している。	からすまおーじのことがすきなてんまとそのてんまのことがすきなはりまをどちらともおーえんしている。	NO_LABEL
八雲自身はそこから一歩引いた状態になったが、播磨のことを意識しなくなったわけではなく、やがて、再び播磨と絡む機会が巡って来て、八雲自身も自分なりに動き始めているようである。	やくもじしんわそこからいちほひいたじょーたいになったが、はりまのことをいしきしなくなったわけでわなく、やがて、ふたたびはりまとからむきかいがめぐってきて、やくもじしんもじぶんなりにうごきはじめているよーである。	NO_LABEL
ただ、天満を押し退けてまで自分の想いを成就させようという気は無いようである。	ただ、てんまをおしのけてまでじぶんのおもいをじょーじゅさせようとゆうきわないよーである。	NO_LABEL
見方によっては、八雲、天満、播磨は三角関係にあるといえるが、三者ともそういった自覚はあまりない。	みかたによってわ、やくも、てんま、はりまわさんかくかんけいにあるといえるが、さんしゃともそういったじかくわあまりない。	NO_LABEL
播磨との件が浮上してからは、不特定多数の男子が言い寄ってくる描写は見られなくなった。	はりまとのけんがふじょーしてからわ、ふとくていたすーのだんしがいーよってくるびょーしゃわみられなくなった。	NO_LABEL
播磨自身からも八雲のことを女子としては珍しくニックネームで呼ぶなど普通ではない感じのものは見受けられるが、本人はあくまで天満一筋なので八雲のことも「さすが妹さんだな」という風に思われている程度である。	NO_PRONOUNCE	NO_LABEL
したがって今までに恋愛的な感情を向けられたことはなく、播磨にとっては八雲の肩に手を置く程度のことは全然平気なようだが、女の子としての認識はある程度されている模様である。	したがっていままでにれんあいてきなかんじょーをむけられたことわなく、はりまにとってわやくものかたにしゅをおくていどのことわぜんぜんへいきなよーだが、おんなのことしてのにんしきわあるていどされているもよーである。	NO_LABEL
逆に播磨が意識していないせいか向こうからすれば気軽さはそれなりにあるようで、八雲自身はこれまでに播磨の友人の中で本人の心の内を最も多く聞かされてきた。	ぎゃくにはりまがいしきしていないせいかむこーからすればきがるさわそれなりにあるよーで、やくもじしんわこれまでにはりまのゆーじんのなかでほんにんのこころのうちをもっともおーくきかされてきた。	NO_LABEL
また、播磨の携帯電話の番号やメールアドレスを知る数少ない人物の一人でもあり、播磨を自分の家に居候させるなど播磨とのつながりは沢近愛理と並んでかなり深いものとなりつつあった。	また、はりまのけいたいでんわのばんごーやめーるあどれすをしるかずすくないじんぶつのひとりでもあり、はりまをじぶんのいえにいそーろーさせるなどはりまとのつながりわさわちかえりとならんでかなりふかいものとなりつつあった。	NO_LABEL
当初はまったく気がねがなかった二人の間に恥じらいのようなものが見られるようにもなった。	とーしょわまったくきがねがなかったふたりのまにはじらいのよーなものがみられるよーにもなった。	NO_LABEL
しかし、播磨が消息を絶ってからは播磨とのつながりが持てない日々が続くことになるが、それでも播磨のことは特別な思いで何かと気にかけている。	しかし、はりまがしょーそくをたってからわはりまとのつながりがもてないひびがつずくことになるが、それでもはりまのことわとくべつなおもいでなにかときにかけている。	NO_LABEL
姉の親友である沢近愛理とは播磨を巡る因縁が絶えず、複雑な関係になっている。	あねのしんゆーであるさわちかえりとわはりまをめぐるいんねんがたえず、ふくざつなかんけいになっている。	NO_LABEL
そのためか、お互いに嫌っているわけではないが、播磨が絡むとどうしても険悪な雰囲気になってしまい、八雲にしてみれば対抗意識のようなものを持っているわけではないにもかかわらず、時には事の成り行きとはいえ真剣勝負をしたこともある。	そのためか、おたがいにきらっているわけでわないが、はりまがからむとどーしてもけんあくなふんいきになってしまい、やくもにしてみればたいこーいしきのよーなものをもっているわけでわないにもかかわらず、ときにわことのなりゆきとわいえしんけんしょーぶをしたこともある。	NO_LABEL
酷い時には、知らないうちに喧嘩のような状態に発展してしまうことも何度かあった。	ひどいときにわ、しらないうちにけんかのよーなじょーたいにはってんしてしまうこともなんどかあった。	NO_LABEL
ただ、八雲の気持ちが固まっていないせいか、播磨を絡めた沢近に対する八雲の態度はやや揺れ動き気味である。	ただ、やくものきもちがかたまっていないせいか、はりまをからめたさわちかにたいするやくものたいどわややゆれうごきぎみである。	NO_LABEL
体育祭後に始まったこの因縁は、文化祭のときに両者が和解するという形で一旦休戦状態に入ったが、数ヶ月の時間を経て、一時は天満をも巻き込んで、再び本格化していくことになる。	たいーくさいごにはじまったこのいんねんわ、ぶんかさいのときにりょーしゃがわかいするとゆうかたちでいったんきゅーせんじょーたいにはいったが、すーかげつのじかんをへて、いちじわてんまをもまきこんで、ふたたびほんかくかしていくことになる。	NO_LABEL
ただし、お互いの人格などを否定するような醜い争いに発展するようなことはなく、むしろ双方とも相手のことをある程度は認めている様子である。	ただし、おたがいのじんかくなどをひていするよーなみにくいあらそいにはってんするよーなことわなく、むしろそーほーともあいてのことをあるていどわみとめているよーすである。	NO_LABEL
また、沢近は八雲が播磨に恋心を抱いていることには気がついており、八雲自身も沢近の気持ちは見抜いているようである。	また、さわちかわやくもがはりまにこいごころをだいていることにわきがついており、やくもじしんもさわちかのきもちわみぬいているよーである。	NO_LABEL
なお、播磨と沢近が二人きりになるのを無意識のうちに避けたがっている模様で、二人の交際疑惑が浮上し、学校中の噂になっていたときには、播磨の真意を知っていたにもかかわらず少々動揺している様子であった。	なお、はりまとさわちかがふたりきりになるのをむいしきのうちにさけたがっているもよーで、ふたりのこーさいぎわくがふじょーし、がっこーちゅーのうわさになっていたときにわ、はりまのしんいをしっていたにもかかわらずしょーしょーどーよーしているよーすであった。	NO_LABEL
もっとも、そのような出来事が起きた直後でも播磨が絡んでいなければ基本的に争いのような状態に陥ることは無い。	もっとも、そのよーなできごとがおきたちょくごでもはりまがからんでいなければきほんてきにあらそいのよーなじょーたいにおちいることわない。	NO_LABEL
また、時が経つにつれて播磨のことでもそれ以前のように二人の間で張り詰めた雰囲気になることはほとんどなくなった。	また、ときがたつにつれてはりまのことでもそれいぜんのよーにふたりのまではりつめたふんいきになることわほとんどなくなった。	NO_LABEL
本編とリンクしている可能性があるもののみを時系列順に紹介する。	ほんぺんとりんくしているかのーせいがあるもののみをじけいれつじゅんにしょーかいする。	NO_LABEL
いずれも『週刊少年マガジン』誌上にて実施された。	NO_PRONOUNCE	NO_LABEL
アニメ『スクールランブル』の放送に先立って発売されたイメージミニアルバムの第2弾『塚本八雲』がこれにあたる。	NO_PRONOUNCE	NO_LABEL
発売元はスターチャイルド。	はつばいもとわすたーちゃいるど。	NO_LABEL
収録時間は約45分。	しゅーろくじかんわやくよんじゅうごふん。	NO_LABEL
CDコードはKICA-654。	NO_PRONOUNCE	NO_LABEL
ジャケットは小林尽書き下ろしによる八雲のイラスト。	じゃけっとわこばやしじんかきおろしによるやくものいらすと。	NO_LABEL
初回盤の特典は紙ジャケット仕様、塚本八雲特製キーメタル封入。	しょかいばんのとくてんわかみじゃけっとしよー、つかもとやくもとくせいきーめたるふーにゅー。	NO_LABEL
このうち「夕顔」のメロディーをアレンジしたサウンドが数種類存在し、アニメの主に八雲が登場している場面でBGMとして使用されている。	NO_PRONOUNCE	NO_LABEL
他に塚本姉妹名義で出している曲や同名義は用いていないが同様のデュエットで歌っている曲がある。	たにつかもとしまいめいぎでだしているきょくやどーめいぎわもちいていないがどーよーのでゅえっとでうたっているきょくがある。	NO_LABEL
