大江 磐代- 文化9年12月9日）は、日本の皇族。	NO_PRONOUNCE	NO_LABEL
閑院宮典仁親王の女房。	かんいんのみやすけひとしんのーのにょーぼー。	NO_LABEL
光格天皇の生母で、明治天皇の高祖母にあたる。	こうかくてんのーのせいぼで、めいじてんのーのこーそぼにあたる。	NO_LABEL
延享元年に伯耆国倉吉で、鳥取藩の家老荒尾氏の家臣だった父・岩室宗賢と、鉄問屋の娘であった母・おりんとの間に生まれる。	NO_PRONOUNCE	NO_LABEL
幼名はおつる。	よーめいわおつる。	NO_LABEL
9歳のときに浪人して町医者となっていた父・宗賢とともに京に上がる。	NO_PRONOUNCE	NO_LABEL
養女となり櫛笥家に仕えるなどの経緯をへて、十代のころには橘姓を名乗り「大江留子」として籌宮成子内親王の侍女となった。	NO_PRONOUNCE	NO_LABEL
その後、成子内親王が閑院宮典仁親王に嫁ぐと磐代も女房として親王の寵愛を受け、三人の皇子をもうけた。	そのご、しげこないしんのーがかんいんのみやすけひとしんのーにとつぐといわしろもにょーぼーとしてしんのーのちょーあいをうけ、さんにんのおーじをもーけた。	NO_LABEL
その長男で閑院宮典仁親王第六王子・師仁親王は、皇子のいなかった後桃園天皇の第一皇女・欣子内親王を中宮に迎え即位した。	NO_PRONOUNCE	NO_LABEL
天皇の生母としては、当時では異例の出自の低さであった。	てんのーのせいぼとしてわ、とーじでわいれいのしゅつじのひくさであった。	NO_LABEL
典仁親王没後は出家して蓮上院となり、次男で聖護院門跡宮家を継いでいた閑院宮典仁親王第七王子・盈仁入道親王のもとで暮らした。	NO_PRONOUNCE	NO_LABEL
父・岩室宗賢もその縁で家臣に取り立てられ法橋の位を与えられていた。	NO_PRONOUNCE	NO_LABEL
文化9年に69歳で没し、盧山寺に葬られた。	ぶんかきゅうねんにろくじゅうきゅうさいでぼっし、ろざんじにほーむられた。	NO_LABEL
1878年に従四位、1902年に従一位を贈られた。	せんはっぴゃくななじゅうはちねんにじゅしー、せんきゅうひゃくにねんにじゅいちーをおくられた。	NO_LABEL
