姜 英勲は、大韓民国の政治家、陸軍軍人。	きょーえいくんわ、だいかんみんこくのせいじか、りくぐんぐんじん。	NO_LABEL
軍人としての最終階級は中将。	ぐんじんとしてのさいしゅーかいきゅーわちゅーじょー。	NO_LABEL
平安北道出身。	へいあんほくどーしゅっしん。	NO_LABEL
満州国の建国大学を卒業。	まんしゅーこくのけんこくだいがくをそつぎょー。	NO_LABEL
学徒出陣して日本陸軍少尉。	がくとしゅつじんしてにっぽんりくぐんしょーい。	NO_LABEL
1946年4月25日付で軍事英語学校を卒業し、少尉に任官する。	せんきゅうひゃくよんじゅうろくねしがつにじゅうごにちずけでぐんじえいごがっこーをそつぎょーし、しょーいににんかんする。	NO_LABEL
同年、第8連隊第2大隊長。	NO_PRONOUNCE	NO_LABEL
1949年5月14日、第12連隊長。	NO_PRONOUNCE	NO_LABEL
同年6月5日、甕津地区戦闘司令部参謀長兼任。	どーねんろくがついつか、うつちくせんとーしれいぶさんぼーちょーけんにん。	NO_LABEL
1950年、陸軍本部人事局長。	せんきゅうひゃくごじゅうねん、りくぐんほんぶじんじきょくちょー。	NO_LABEL
同年7月15日、第2軍団参謀長。	どーねんしちがつじゅうごにち、だいにぐんだんさんぼーちょー。	NO_LABEL
1951年4月27日、第3軍団副軍団長。	せんきゅうひゃくごじゅういちねんしがつにじゅうしちにち、だいさんぐんだんふくぐんだんちょー。	NO_LABEL
同年、国防部経理局長、管理局長を歴任。	どーねん、こくぼーぶけいりきょくちょー、かんりきょくちょーをれきにん。	NO_LABEL
1952年、駐アメリカ大使館付武官。	せんきゅうひゃくごじゅうにねん、ちゅーあめりかたいしかんずけぶかん。	NO_LABEL
1953年11月9日、国防部次官。	せんきゅうひゃくごじゅうさんねんじゅーいちがつここのか、こくぼーぶじかん。	NO_LABEL
同年11月29日、第2師団長。	NO_PRONOUNCE	NO_LABEL
1954年5月、連合参謀本部長。	せんきゅうひゃくごじゅうよねんごがつ、れんごーさんぼーほんぶちょー。	NO_LABEL
1955年、国防部動員次官補。	せんきゅうひゃくごじゅうごねん、こくぼーぶどーいんじかんほ。	NO_LABEL
1956年2月26日、国防部次官。	せんきゅうひゃくごじゅうろくねんにがつにじゅうろくにち、こくぼーぶじかん。	NO_LABEL
同年、陸軍本部管理参謀副長。	どーねん、りくぐんほんぶかんりさんぼーふくちょー。	NO_LABEL
1958年、アメリカ陸軍指揮幕僚大学修了。	せんきゅうひゃくごじゅうはちねん、あめりかりくぐんしきばくりょーだいがくしゅーりょー。	NO_LABEL
1959年、第6軍団長。	NO_PRONOUNCE	NO_LABEL
1960年10月、陸軍士官学校校長。	せんきゅうひゃくろくじゅうねんじゅーがつ、りくぐんしかんがっこーこーちょー。	NO_LABEL
5・16軍事クーデターの参加を拒否したため西大門刑務所に収監。	ごひゃくじゅうろくぐんじくーでたーのさんかをきょひしたためそでむんけいむしょにしゅーかん。	NO_LABEL
1961年9月、釈放され予備役編入。	せんきゅうひゃくろくじゅういちねんくがつ、しゃくほーされよびえきへんにゅー。	NO_LABEL
米国南カリフォルニア大学に留学し、政治学の博士号を1973年に修得する。	べいこくみなみかりふぉるにあだいがくにりゅーがくし、せいじがくのはくしごーをせんきゅうひゃくななじゅうさんねんにしゅーとくする。	NO_LABEL
1970年、在ワシントン韓国問題研究所長。	せんきゅうひゃくななじゅうねん、ざいわしんとんかんこくもんだいけんきゅーじょちょー。	NO_LABEL
同年10月、第25回国連総会代表。	どーねんじゅーがつ、だいにじゅうごかいこくれんそーかいだいひょー。	NO_LABEL
1977年、韓国外国語大学校大学院長。	せんきゅうひゃくななじゅうななねん、かんこくがいこくごだいがっこーだいがくいんちょー。	NO_LABEL
1978年2月、外交部外交安保研究員院長。	せんきゅうひゃくななじゅうはちねんにがつ、がいこーぶがいこーあんぽけんきゅーいんいんちょー。	NO_LABEL
駐イギリス兼アイルランド大使や駐バチカン大使を歴任する。	ちゅーいぎりすけんあいるらんどたいしやちゅーばちかんたいしをれきにんする。	NO_LABEL
1988年4月26日の第13代総選挙で国会議員に当選し、同年12月16日に第21代国務総理に就任、1990年まで務めた。	せんきゅうひゃくはちじゅうはちねんしがつにじゅうろくにちのだいじゅうさんだいそーせんきょでこっかいぎーんにとーせんし、どーねんじゅーにがつじゅうろくにちにだいにじゅういちだいこくむそーりにしゅーにん、せんきゅうひゃくきゅうじゅうねんまでつとめた。	NO_LABEL
1990年9月、南北首相会談を実現。	せんきゅうひゃくきゅうじゅうねんくがつ、なんぼくしゅしょーかいだんをじつげん。	NO_LABEL
1990年11月、韓国政府代表として今上天皇即位の礼に出席。	せんきゅうひゃくきゅうじゅうねんじゅーいちがつ、かんこくせいふだいひょーとしてきんじょーてんのーそくいのれいにしゅっせき。	NO_LABEL
1991年、大韓赤十字社総裁。	せんきゅうひゃくきゅうじゅういちねん、たいかんせきじゅーじしゃそーさい。	NO_LABEL
