『村上海賊の娘』は、和田竜による長編歴史小説。	NO_PRONOUNCE	NO_LABEL
1576年の第一次木津川口の戦いでの村上水軍の当主・村上武吉の娘・景を描いている。	NO_PRONOUNCE	NO_LABEL
『週刊新潮』に2011年から2013年にかけて連載され、2013年10月に新潮社から単行本が刊行された。	NO_PRONOUNCE	NO_LABEL
主人公・景、戦国時代に瀬戸内海を席巻した村上水軍の当主・村上武吉の娘である。	NO_PRONOUNCE	NO_LABEL
景は、軍船に乗り瀬戸内の海で狼藉を働く者を成敗したり、男勝りの活躍をする。	けいわ、ぐんせんにのりせとうちのうみでろーぜきをはたらくものをせいばいしたり、おとこまさりのかつやくをする。	NO_LABEL
ある日、毛利家から信長に追い詰められ窮地に陥った本願寺を救うため、物資を輸送してほしいという依頼が来る。	あるひ、もーりかからのぶながにおいつめられきゅーちにおちいったほんがんじをすくうため、ぶっしをゆそーしてほしいとゆういらいがくる。	NO_LABEL
村上水軍は毛利方に加勢することを決め、景も戦いに身を投じていく。	むらかみすいぐんわもーりかたにかせいすることをきめ、けいもたたかいにみをとーじていく。	NO_LABEL
吉田史朗の作画で漫画化され、『ビッグコミックスピリッツ』にて2015年37・38合併号から連載されている。	NO_PRONOUNCE	NO_LABEL
既刊9巻。	きかんきゅうかん。	NO_LABEL
