パガンダランビーチはインドネシア西ジャワ州チアミス県にあるインド洋に面したビーチリゾートである。	ぱがんだらんびーちわいんどねしあにしじゃわしゅーちあみすけんにあるいんどよーにめんしたびーちりぞーとである。	NO_LABEL
ビーチは細長いパガンダラン半島の両側にあり、先端にはパガンダラン国立公園がある。	びーちわほそながいぱがんだらんはんとーのりょーがわにあり、せんたんにわぱがんだらんこくりつこーえんがある。	NO_LABEL
メインストリートのジャラン・キダン・パナンジュンにはホテルや飲食店が多数立ち並ぶ。	NO_PRONOUNCE	NO_LABEL
東海岸に漁港があるため新鮮な魚介類が食べられる。	ひがしかいがんにぎょこーがあるためしんせんなぎょかいるいがたべられる。	NO_LABEL
西海岸では日の入り、東海岸では日の出が観賞できる。	にしかいがんでわひのいり、ひがしかいがんでわひのでがかんしょーできる。	NO_LABEL
インド洋に面していて波が高いので、遊泳には適さない。	いんどよーにめんしていてなみがたかいので、ゆーえいにわてきさない。	NO_LABEL
キャンプ場があり、レンタル自転車も借りる事ができる。	きゃんぷじょーがあり、れんたるじてんしゃもかりることができる。	NO_LABEL
パガンダラン国立公園には野生の牛バンテン、鹿、猿などが生息する。	ぱがんだらんこくりつこーえんにわやせいのうしばんてん、しか、さるなどがせいそくする。	NO_LABEL
ラフレシアが自生する。	らふれしあがじせいする。	NO_LABEL
保護地区内の探索はガイド付ツアーが必要。	ほごちくないのたんさくわがいどずけつあーがひつよー。	NO_LABEL
2006年7月17日、ジャワ島南西沖地震が発生し、津波で200人以上の死者を出した。	にせんろくねんしちがつじゅうしちにち、じゃわとーなんせいおきじしんがはっせいし、つなみでにひゃくにんいじょーのししゃをだした。	NO_LABEL
ビーチ近辺の観光施設も破壊されたが、現在ではホテルやレストランも通常通り営業している。	びーちきんぺんのかんこーしせつもはかいされたが、げんざいでわほてるやれすとらんもつーじょーどーりえいぎょーしている。	NO_LABEL
パガンダランの周辺	ぱがんだらんのしゅーへん	NO_LABEL
首都ジャカルタから南へ393km、バンドンから南へ236km、ジョグジャカルタから西へ385kmに位置する。	しゅとじゃかるたからみなみえさんびゃくきゅうじゅうさんきろめーとる、ばんどんからみなみえにひゃくさんじゅうろくきろめーとる、じょぐじゃかるたからにしえさんびゃくはちじゅうごきろめーとるにいちする。	NO_LABEL
各都市から高速バスが運行。	かくとしからこーそくばすがうんこー。	NO_LABEL
旅行代理店が運行するミニバンを利用すると便利。	りょこーだいりてんがうんこーするみにばんをりよーするとべんり。	NO_LABEL
鉄道利用の場合はジャカルタとジョグジャカルタの中間にあるバンジャール市で下車。	てつどーりよーのばあいわじゃかるたとじょぐじゃかるたのちゅーかんにあるばんじゃーるしでげしゃ。	NO_LABEL
バンジャールのバースターミナルからミニバスを乗り継ぐ（50 km)。	NO_PRONOUNCE	NO_LABEL
