多体問題は、互いに相互作用する3体以上からなる系を扱う問題である。	NO_PRONOUNCE	NO_LABEL
古典的な多体問題としては、太陽系のような恒星と惑星が、万有引力で相互作用し合う場合の惑星運行の問題が挙げられる。	こてんてきなたたいもんだいとしてわ、たいよーけいのよーなこーせいとわくせいが、ばんゆーいんりょくでそーごさよーしあうばあいのわくせいうんこーのもんだいがあげられる。	NO_LABEL
太陽と地球のような二体問題は厳密に解けるが、例えば月の運動も考える一般の三体問題以上になると解析的に解くことはできないとされるでは解が存在する）。	NO_PRONOUNCE	NO_LABEL
18世紀にはジョゼフ＝ルイ・ラグランジュが研究を深め、19世紀末にアンリ・ポアンカレによって証明された。	じゅうはっせいきにわじょぜふるいらぐらんじゅがけんきゅーをふかめ、じゅうきゅうせいきまつにあんりぽあんかれによってしょーめいされた。	NO_LABEL
ただしポアンカレの証明は積分法の範囲であり、この範囲以外の解法の存在については現在も不明である。	ただしぽあんかれのしょーめいわせきぶんほーのはんいであり、このはんいいがいのかいほーのそんざいについてわげんざいもふめいである。	NO_LABEL
惑星運行に関しては摂動あるいは数値解析を利用して多体問題を計算する。	わくせいうんこーにかんしてわせつどーあるいわすーちかいせきをりよーしてたたいもんだいをけいさんする。	NO_LABEL
カオスが起こるかどうかはその状態により変わり、またカオスの定義が研究者ごとに違うため、この議論は明確でない。	かおすがおこるかどーかわそのじょーたいによりかわり、またかおすのていぎがけんきゅうしゃごとにちがうため、このぎろんわめいかくでない。	NO_LABEL
なおカオスが起こる場合には、質量の小さな星は系からキックされ、最後には質量の重い星が非常に狭い範囲に複雑な軌道を描くとされているが、詳細は決着がついていない。	なおかおすがおこるばあいにわ、しつりょーのちーさなほしわけいからきっくされ、さいごにわしつりょーのおもいほしがひじょーにせまいはんいにふくざつなきどーをえがくとされているが、しょーさいわけっちゃくがついていない。	NO_LABEL
量子力学上の多体問題としては、原子における電子の電子状態を求める問題が挙げられる。	りょーしりきがくじょーのたたいもんだいとしてわ、げんしにおけるでんしのでんしじょーたいをもとめるもんだいがあげられる。	NO_LABEL
このような粒子の数は膨大であるので、様々な近似を使って問題を単純化してから計算する。	このよーなりゅーしのかずわぼーだいであるので、さまざまなきんじをつかってもんだいをたんじゅんかしてからけいさんする。	NO_LABEL
