サファイアまたは蒼玉、青玉は、コランダムの変種で、ダイヤモンドに次ぐ硬度の、赤色以外の色の宝石。	さふぁいあまたわあおいたま、せいぎょくわ、こらんだむのへんしゅで、だいやもんどにつぐこーどの、あかいろいがいのいろのほーせき。	NO_LABEL
9月の誕生石。	くがつのたんじょーせき。	NO_LABEL
語源は「青色」を意味するラテン語の「sapphirus」、ギリシャ語の「sappheiros」に由来する。	NO_PRONOUNCE	NO_LABEL
サファイアはコランダムのうち宝石としての価値があり、かつ色が赤でないものをいう。	さふぁいあわこらんだむのうちほーせきとしてのかちがあり、かついろがあかでないものをいう。	NO_LABEL
不純物の違いで濃赤色を呈するものはルビーとなる。	ふじゅんぶつのちがいでこあかいろをていするものわるびーとなる。	NO_LABEL
「青玉」という和名があるように、一般に濃紺あるいは青紫色をしたものと考えられているが、濃赤色以外のあらゆる色、例えば黄色や茶色、薄紅色などのものもサファイアである。	NO_PRONOUNCE	NO_LABEL
工業的に生産される単結晶コランダムもサファイアと呼ばれる。	こーぎょーてきにせいさんされるたんけっしょーこらんだむもさふぁいあとよばれる。	NO_LABEL
ミッドナイトブルーサファイアと称されて流通しているサファイアがあるが、これは、インクブルーサファイアの色合いを呼び変えたものである。	みっどないとぶるーさふぁいあとしょーされてりゅーつーしているさふぁいあがあるが、これわ、いんくぶるーさふぁいあのいろあいをよびかえたものである。	NO_LABEL
ルビーの濃赤色や、サファイアのメインカラーである濃紺～青紫色以外のものは、ファンシーカラーサファイアと呼ばれる。	NO_PRONOUNCE	NO_LABEL
ファンシーカラーサファイアのなかでも、ピンクがかったオレンジ色をしたものを特に｢パパラチア」と呼ぶ。	NO_PRONOUNCE	NO_LABEL
なかには、光を当てて眺めたときに六条の光を生ずるものがある。	なかにわ、ひかりをあててながめたときにろくじょーのひかりをしょーずるものがある。	NO_LABEL
これはスターサファイアと呼ばれ、珍重される。	これわすたーさふぁいあとよばれ、ちんちょーされる。	NO_LABEL
これはサファイアの中に針状のインクルージョンが含まれ、単一光源の下で6放射の星型の輝きを生じるためである。	NO_PRONOUNCE	NO_LABEL
スターサファイアの価値はカラットだけでなく、地色の美しさや星型の輝きの強さなどにも依る。	すたーさふぁいあのかちわからっとだけでなく、じいろのうつくしさやほしがたのかがやきのつよさなどにもよる。	NO_LABEL
また、アレキサンドライトのように光源によって色が変わるものもあり、カラーチェンジサファイアと呼ばれ、こちらも希少価値がある。	また、あれきさんどらいとのよーにこーげんによっていろがかわるものもあり、からーちぇんじさふぁいあとよばれ、こちらもきしょーかちがある。	NO_LABEL
近年では、スリランカ産のギウダと呼ばれる色や透明度の低いサファイアが加熱処理され、色鮮やかなサファイヤとして販売もされている。	きんねんでわ、すりらんかさんのぎうだとよばれるいろやとーめいどのていーさふぁいあがかねつしょりされ、いろあざやかなさふぁいやとしてはんばいもされている。	NO_LABEL
サファイアは東洋から古代のヨーロッパに伝わった。	さふぁいあわとーよーからこだいのよーろっぱにつたわった。	NO_LABEL
トラヤヌス帝の時代以降にはインドとの交易が盛んになり、サファイアについての信仰も中世にかけて広まった。	とらやぬすみかどのじだいいこーにわいんどとのこーえきがさかんになり、さふぁいあについてのしんこーもちゅーせいにかけてひろまった。	NO_LABEL
インドでは元々、ヒンズー教徒の間でサファイアは不幸をもたらす不吉な石とされていた。	いんどでわもともと、ひんずーきょーとのまでさふぁいあわふこーをもたらすふきつないしとされていた。	NO_LABEL
しかしインドの仏教徒の間では異なり、宝石の中でも特に尊重された。	しかしいんどのぶっきょーとのまでわことなり、ほーせきのなかでもとくにそんちょーされた。	NO_LABEL
キリスト教では、中世から司教の叙任のしるしとしてサファイアなどを付けた指輪が与えられ、人差指にはめるならわしがあった。	きりすときょーでわ、ちゅーせいからしきょーのじょにんのしるしとしてさふぁいあなどをつけたゆびわがあたえられ、ひとさしゆびにはめるならわしがあった。	NO_LABEL
マルボドゥスの「宝石誌」では、サファイアが指輪の宝石にふさわしいとされているのも、この反映だと見られる。	NO_PRONOUNCE	NO_LABEL
主にタイ王国、ミャンマー、カシミール地方、スリランカ、マダガスカル、オーストラリア、中国、カンボジアなどで採掘される。	おもにたいおーこく、みゃんまー、かしみーるちほー、すりらんか、まだがすかる、おーすとらりあ、ちゅーごく、かんぼじあなどでさいくつされる。	NO_LABEL
産地により色の濃淡が異なり、色の良し悪しにより価値が上下する。	さんちによりいろののーたんがことなり、いろのよしわるしによりかちがじょーげする。	NO_LABEL
カシミール産のブルーサファイアはコーンフラワーブルーと呼ばれる。	かしみーるさんのぶるーさふぁいあわこーんふらわーぶるーとよばれる。	NO_LABEL
またミャンマー産の深い青色のサファイアはロイヤルブルーと呼ばれ、どちらの産地も市場での評価が高い。	またみゃんまーさんのふかいあおいろのさふぁいあわろいやるぶるーとよばれ、どちらのさんちもしじょーでのひょーかがたかい。	NO_LABEL
現在日本の鑑別書では、ミャンマー産と確定した上で一定の色でなければサファイアのカラーにロイヤルブルーと記載することが出来ないが、海外での鑑別書では産地を不問とされ、一定以上の深い青であればロイヤルブルーと記載される。	げんざいにっぽんのかんべつしょでわ、みゃんまーさんとかくていしたうえでいっていのいろでなければさふぁいあのからーにろいやるぶるーときさいすることができないが、かいがいでのかんべつしょでわさんちをふもんとされ、いっていいじょーのふかいあおであればろいやるぶるーときさいされる。	NO_LABEL
そのため海外の鑑別書でロイヤルブルーカラーと記載された場合でも、産地はミャンマー産以外のサファイアであることが多々ある。	そのためかいがいのかんべつしょでろいやるぶるーからーときさいされたばあいでも、さんちわみゃんまーさんいがいのさふぁいあであることがたたある。	NO_LABEL
宝飾品として市場に供給されているルビー・サファイア等のコランダムは、その殆どが人為的な加熱処理によって鮮やかな色彩や内部的に汚れの少ない状態に変化させられたものである。	NO_PRONOUNCE	NO_LABEL
非加熱なのか加熱処理されているかの判定方法としては、一般的な拡大検査による内部特徴の観察の他、宝石鉱物表面の粒子を高周波プラズマでイオン化し、質量を分析することによって生成環境を知る方法・細く絞ったレーザー光線を走査し、宝石鉱物内部の構造や欠陥を画像としてとらえる方法、宝石鉱物表面に赤外レーザーを照射した後の蒸発した気体粒子の電気的変化に伴って放出される放射光線の波長を調べ、元素分析を行う方法、ラマン効果を利用して物質の同定や分子構造を解析する方法等々がある。	NO_PRONOUNCE	NO_LABEL
人造の単結晶のコランダムは、高い硬度から腕時計の風防や軸受け、レコード針などに用いられる。	じんぞーのたんけっしょーのこらんだむわ、たかいこーどからうでどけいのふーぼーやじくうけ、れこーどばりなどにもちいられる。	NO_LABEL
また、絶縁性がよく、熱伝導率もよいため、半導体の基板として利用されることもある。	また、ぜつえんせいがよく、ねつでんどーりつもよいため、はんどーたいのきばんとしてりよーされることもある。	NO_LABEL
無色透明なものがサファイアクリスタルやサファイアガラスとして、iPhoneのカメラレンズの保護やiPhone 5s以降のTouch ID保護にも使われている。	むしょくとーめいなものがさふぁいあくりすたるやさふぁいあがらすとして、あいふぉんのかめられんずのほごやあいふぉんふぁいぶえすいこーのたっちあいでぃーほごにもつかわれている。	NO_LABEL
極低温まで冷やすと振動が少なくなる性質を利用して、人工サファイア鏡は重力波望遠鏡「KAGRA」にも使われる。	NO_PRONOUNCE	NO_LABEL
