タパスまたはタパとは、スペイン料理の様々なアペタイザーである。	たぱすまたわたぱとわ、すぺいんりょーりのさまざまなあぺたいざーである。	NO_LABEL
冷製料理または温製料理がある。	ひやせいりょーりまたわゆたかせいりょーりがある。	NO_LABEL
タパスは小皿料理なので、会話をしながら食事をするのに向いている。	たぱすわこざらりょーりなので、かいわをしながらしょくじをするのにむいている。	NO_LABEL
また、タパスを立食とする習慣がある国もある。	また、たぱすをりっしょくとするしゅーかんがあるくにもある。	NO_LABEL
スペインではバルによって無料で出すところもあり、店によって、さまざまなものがある。	すぺいんでわばるによってむりょーでだすところもあり、みせによって、さまざまなものがある。	NO_LABEL
伝説によると、タパの習慣はカスティーリャ王国の賢王アルフォンソ10世の時代に、ワインと小量の料理を食事の間に摂ることで病気から回復したことから始まったと言われている。	でんせつによると、たぱのしゅーかんわかすてぃーりゃおーこくのけんおーあるふぉんそじゅっせいのじだいに、わいんとしょーりょーのりょーりをしょくじのまにとることでびょーきからかいふくしたことからはじまったといわれている。	NO_LABEL
健康を取り戻した王は、居酒屋がワインを客に出す際、必ず軽食または「タパス」を伴うことを命じた。	NO_PRONOUNCE	NO_LABEL
この命令は酒を飲むための法の抜け道となった。	このめいれいわさけをのむためのほーのぬけみちとなった。	NO_LABEL
タパは「蓋をする」を意味する動詞「タパル」に由来する。	NO_PRONOUNCE	NO_LABEL
アメリカ合衆国の著名な料理本『料理の喜び』によると、最初のタパスはアンダルシアの居酒屋で客がシェリーを一口飲む度にグラスに蓋をするパンまたは肉の一切れであった。	NO_PRONOUNCE	NO_LABEL
こうして、甘いシェリーにショウジョウバエがたかることを防いだ。	こーして、あまいしぇりーにしょーじょーばえがたかることをふせいだ。	NO_LABEL
シェリーに蓋をする肉は通常ハムまたはチョリソで、いずれも塩辛くのどが渇く食品である。	しぇりーにふたをするにくわつーじょーはむまたわちょりそで、いずれもしおからくのどがかわくしょくひんである。	NO_LABEL
このため、バーテンダーとレストラン支配人はシェリーと共に供する様々な軽食を作り始め、飲み物の売上げを増やそうとした。	このため、ばーてんだーとれすとらんしはいにんわしぇりーとともにきょーするさまざまなけいしょくをつくりはじめ、のみもののうりあげをふやそうとした。	NO_LABEL
まもなく質素なつまみにすぎなかったタパスはシェリーと同じくらい重要な存在になった。	まもなくしっそなつまみにすぎなかったたぱすわしぇりーとおなじくらいじゅーよーなそんざいになった。	NO_LABEL
タパスは、スペインの歴史を通じ種々の文化および国の影響と食材を取り入れ発展した。	たぱすわ、すぺいんのれきしをつーじしゅじゅのぶんかおよびこくのえいきょーとしょくざいをとりいれはってんした。	NO_LABEL
古代ローマによるイベリア半島の占領はオリーブと灌漑をもたらした。	NO_PRONOUNCE	NO_LABEL
8世紀における北アフリカのムーア人侵略は、アーモンド、柑橘類、香り高い香辛料と、メゼをつまみながら酒を飲む習慣を南部にもたらした。	はちせいきにおけるきたあふりかのむーあじんしんりゃくわ、あーもんど、かんきつるい、かおりたかいこーしんりょーと、めぜをつまみながらさけをのむしゅーかんをなんぶにもたらした。	NO_LABEL
彼らの700年にわたる支配の影響は今日も、特にアンダルシア州に残っている。	かれらのななひゃくねんにわたるしはいのえいきょーわきょーも、とくにあんだるしあしゅーにのこっている。	NO_LABEL
新大陸の発見はトマト、トウガラシ類、トウモロコシ、インゲンマメやライマメおよびジャガイモをもたらした。	しんたいりくのはっけんわとまと、とーがらしるい、とーもろこし、いんげんまめやらいまめおよびじゃがいもをもたらした。	NO_LABEL
これらは直ちに受け入れられ、スペインの風土で容易に栽培された。	これらわただちにうけいれられ、すぺいんのふーどでよーいにさいばいされた。	NO_LABEL
「タパ」は、スペイン語で「蓋」を意味する。	NO_PRONOUNCE	NO_LABEL
「タパ」の語源には諸説ある。	NO_PRONOUNCE	NO_LABEL
スペインでは、夕食は午後9時から11時の間で、夜中の12時を過ぎることもあり、仕事が終わってから夕食までの時間が長い。	すぺいんでわ、ゆーしょくわごごくじからじゅういちじのまで、やちゅーのじゅうにじをすぎることもあり、しごとがおわってからゆーしょくまでのじかんがながい。	NO_LABEL
このため、スペイン人は仕事を終えるとディナーの前まで「バルのはしご」をして、タパスを食べる。	NO_PRONOUNCE	NO_LABEL
他の一般的なタパスの時間帯は週末の正午ごろで、自宅での通常1時から3時の間の正式な昼食前の社交手段となる。	たのいっぱんてきなたぱすのじかんたいわしゅーまつのしょーごごろで、じたくでのつーじょーいちじからさんじのまのせいしきなひるしょくぜんのしゃこーしゅだんとなる。	NO_LABEL
バーや小さなレストランでは、通常ガラスの仕切りで覆われた保温機能のあるトレーに8〜12種類のタパスが用意される。	NO_PRONOUNCE	NO_LABEL
タパスは通常ニンニク、唐辛子やパプリカ、クミン、塩、コショウ、サフランと、ときにたっぷりのオリーブ・オイルで濃く味付けされる。	たぱすわつーじょーにんにく、とーがらしやぱぷりか、くみん、しおこしょー、さふらんと、ときにたっぷりのおりーぶおいるでこくあじつけされる。	NO_LABEL
通常、アンチョビ、サーディンやサバのオリーブ・オイル漬け、しばしば赤または青トウガラシやその他の調味料で味付けされたイカ等のトマトソース煮などから成るマリスコスが1皿以上ある。	NO_PRONOUNCE	NO_LABEL
ほとんどの場合、タパスにはマンサニージャ種やアルベキーナ種など1、2種類のオリーブが含まれる。	NO_PRONOUNCE	NO_LABEL
ソースベースのタパスには通常数種のパンが添えられる。	そーすべーすのたぱすにわつーじょーすーしゅのぱんがそえられる。	NO_LABEL
マドリード、レオン、アストゥリアス州、ガリシア州、エストレマドゥーラ州、およびアンダルシア州の地域では、バルで酒類や飲み物を注文すると、タパがついてくるバルも多い。	まどりーど、れおん、あすとぅりあすしゅー、がりしあしゅー、えすとれまどぅーらしゅー、およびあんだるしあしゅーのちいきでわ、ばるでしゅるいやのみものをちゅーもんすると、たぱがついてくるばるもおーい。	NO_LABEL
スペイン北西の都市レオンでは、バリオ・ウメドとして知られる地域のタパス・バルでコルトやワイン１杯に自家製の料理が供される。	NO_PRONOUNCE	NO_LABEL
特にスペイン北部のナバーラ州、バスク州、カンタブリア州、およびサラマンカ県のような行政区でのタパスの一種は、ピンチョとよばれる串や楊枝が刺さっていることからピンチョスと呼ばれる。	とくにすぺいんほくぶのなばーらしゅー、ばすくしゅー、かんたぶりあしゅー、およびさらまんかけんのよーなぎょーせいくでのたぱすのいっしゅわ、ぴんちょとよばれるくしやよーじがささっていることからぴんちょすとよばれる。	NO_LABEL
楊枝は軽食がパンから落ちないように軽食に刺して留めてあり、客が食べた料理の数を数えるためにも用いる。	よーじわけいしょくがぱんからおちないよーにけいしょくにさしてとめてあり、きゃくがたべたりょーりのかずをかぞえるためにももちいる。	NO_LABEL
ピンチョの値段は1.00から1.50ユーロであり、値段の異なる料理には異なる種類の楊枝が使われる。	NO_PRONOUNCE	NO_LABEL
飾りのついた串が闘牛で使用される色鮮やかな槍を連想させることから、バンデリージャスという別名もある。	かざりのついたくしがとーぎゅーでしよーされるいろあざやかなやりをれんそーさせることから、ばんでりーじゃすとゆうべつめいもある。	NO_LABEL
アンダルシア州では、タパスをメディア・ラシオンやラシオンに「増量」することもできる。	NO_PRONOUNCE	NO_LABEL
タパスを複数人で注文する際には、中皿や大皿で注文した方が経済的である。	たぱすをふくすーにんでちゅーもんするさいにわ、ちゅーさらやおーざらでちゅーもんしたほーがけいざいてきである。	NO_LABEL
客が複数の大皿を取り分ける食事は、中東のメゼや中国の点心と類似している。	きゃくがふくすーのおーざらをとりわけるしょくじわ、ちゅーとーのめぜやちゅーごくのてんしんとるいじしている。	NO_LABEL
アメリカ合衆国、カナダ、およびイギリスでは、高級タパス・レストランとタパス・バーが一般的となった。	NO_PRONOUNCE	NO_LABEL
これらの店舗では、通常メインコースとしてタパスの組合わせが供される。	これらのてんぽでわ、つーじょーめいんこーすとしてたぱすのくみあわせがきょーされる。	NO_LABEL
伝統的なスペインのタパスとはかなり異なった料理も供される。	でんとーてきなすぺいんのたぱすとわかなりことなったりょーりもきょーされる。	NO_LABEL
スペインのタパスの概念「小皿料理をアルコール飲料と共に食べること」は、フィリピンでも古くからの伝統として根付いている。	NO_PRONOUNCE	NO_LABEL
しかし、フィリピンの「タパ」は伝統的なスペインの「タパ」との共通点はほとんどなく、むしろアメリカ式のビーフ・ジャーキーに似た牛肉の塩漬である。	NO_PRONOUNCE	NO_LABEL
フィリピンの「タパ」はほとんどが牛肉だが、時々鹿肉やイノシシ肉で作られることもあり、油で揚げるかグリルしてから、主菜として食べる。	NO_PRONOUNCE	NO_LABEL
通常、朝食にシナンガグ、目玉焼きと一緒に唐辛子と酢のディップを添えて食べることが多く、この献立をタパシログと呼ぶ。	つーじょー、ちょーしょくにしなんがぐ、めだまやきといっしょにとーがらしとすのでぃっぷをそえてたべることがおーく、このこんだてをたぱしろぐとよぶ。	NO_LABEL
フィリピンのバーやレストランでは、正式なスペイン式タパスと共に、カリカリに揚げた牛肉の「タパ」がアルコール飲料と共に供されることもある。	NO_PRONOUNCE	NO_LABEL
仕上げに砂糖を加えて辛味を緩和した甘めの「タパ」もある。	NO_PRONOUNCE	NO_LABEL
牛肉の細切りを水、酢、醤油で煮て、ニンニク、カラマンシーおよび砂糖で味付けした、サルシアード式のタパもある。	ぎゅーにくのこまぎりをみず、す、しょーゆでにて、にんにく、からまんしーおよびさとーであじつけした、さるしあーどしきのたぱもある。	NO_LABEL
は、ヴェネツィアのチッケッティ・バールで供されるタパスに似た料理である。	NO_PRONOUNCE	NO_LABEL
通常、昼食または午後の軽食として昼間に食べる。	つーじょー、ちゅーしょくまたわごごのけいしょくとしてひるまにたべる。	NO_LABEL
