ひめゆりの塔は、沖縄戦末期に沖縄陸軍病院第三外科が置かれた壕の跡に立つ慰霊碑。	ひめゆりのとーわ、おきなわせんまっきにおきなわりくぐんびょーいんだいさんげかがおかれたごーのあとにたついれいひ。	NO_LABEL
現在の沖縄県糸満市にある。	げんざいのおきなわけんいとまんしにある。	NO_LABEL
1946年4月7日除幕。	せんきゅうひゃくよんじゅうろくねしがつなのかじょまく。	NO_LABEL
慰霊碑の名称は、当時第三外科壕に学徒隊として従軍していたひめゆり学徒隊にちなんでいる。	いれいひのめいしょーわ、とーじだいさんげかごーにがくとたいとしてじゅーぐんしていたひめゆりがくとたいにちなんでいる。	NO_LABEL
「ひめゆり」は学徒隊員の母校、沖縄県立第一高等女学校の校誌名「乙姫」と沖縄師範学校女子部の校誌名「白百合」とを組み合わせた言葉で、元来は「姫百合」であったが、戦後ひらがなで記載されるようになった。	NO_PRONOUNCE	NO_LABEL
なお、植物のヒメユリとは関係がない。	なお、しょくぶつのひめゆりとわかんけいがない。	NO_LABEL
「塔」と名はついているが、実物は高さ数十センチメートルでそれほど高くはない。	NO_PRONOUNCE	NO_LABEL
これは、終戦直後の物資難な時代に建立された事と、アメリカ軍統治下に建立されたという事情によるものである。	これわ、しゅーせんちょくごのぶっしなんなじだいにこんりゅーされたことと、あめりかぐんとーちかにこんりゅーされたとゆうじじょーによるものである。	NO_LABEL
また、この種の慰霊碑は、沖縄県には非常に多くあり、ひめゆりの塔はそれらのうちで一番古いものではないであるとされている）。	NO_PRONOUNCE	NO_LABEL
しかし、1949年に石野径一郎によって碑に関する逸話が小説化されると、直後に戯曲化され、さらに同名の映画が作られ有名となった。	しかし、せんきゅうひゃくよんじゅうきゅうねんにいしのけいいちろーによっていしぶみにかんするいつわがしょーせつかされると、ちょくごにぎきょくかされ、さらにどーめいのえいががつくられゆーめいとなった。	NO_LABEL
沖縄戦の過酷さ、悲惨さを象徴するものとして、現在でも参拝する人が絶えない。	おきなわせんのかこくさ、ひさんさをしょーちょーするものとして、げんざいでもさんぱいするひとがたえない。	NO_LABEL
ひめゆりの塔から外科壕跡を挟んだ奥には慰霊碑が建てられており、さらに、その奥には生存者の手記や従軍の様子などを展示した「ひめゆり平和祈念資料館」がある。	NO_PRONOUNCE	NO_LABEL
また、敷地内や隣地には沖縄戦殉職医療人の碑など複数の慰霊碑や塔が建てられている。	また、しきちないやりんちにわおきなわせんじゅんしょくいりょーじんのいしぶみなどふくすーのいれいひやとーがたてられている。	NO_LABEL
1945年3月24日、沖縄師範学校女子部と沖縄県立第一高等女学校の女子生徒及び職員総計240名は、南風原にある沖縄陸軍病院に看護要員として従軍した。	NO_PRONOUNCE	NO_LABEL
しかしその後激しい戦闘が続き、日本軍の防衛戦が前田高地附近に撤退した4月24日頃には山容が変わるほどの激しい砲撃にさらされるようになったため、5月25日には陸軍病院そのものが回復の見込みのない負傷兵・学徒を置き去りにして南部の伊原・山城周辺に撤退し、分散して地下壕に潜んだ。	NO_PRONOUNCE	NO_LABEL
この際患者を収容する壕が確保できなかったために負傷兵は原隊への復帰が命じられ、病院としての機能は失われていたという。	このさいかんじゃをしゅーよーするごーがかくほできなかったためにふしょーへいわげんたいえのふっきがめいじられ、びょーいんとしてのきのーわうしなわれていたという。	NO_LABEL
戦局が絶望的になると、6月18日、学徒隊は解散を命じられる。	せんきょくがぜつぼーてきになると、ろくがつじゅうはちにち、がくとたいわかいさんをめいじられる。	NO_LABEL
しかし、既に沖縄のほぼ全域をアメリカ軍が支配しており、また周辺も既に激しい砲撃にさらされていたため、地下壕から出ることはほとんど死を意味した。	しかし、すでにおきなわのほぼぜんいきをあめりかぐんがしはいしており、またしゅーへんもすでにはげしいほーげきにさらされていたため、ちかごーからでることわほとんどしをいみした。	NO_LABEL
最も被害を受けたのは第三外科壕の学徒隊である。	もっともひがいをうけたのわだいさんげかごーのがくとたいである。	NO_LABEL
第三外科壕は19日朝、黄燐手榴弾などの攻撃を受け、壕にいた96名のうち、87名が死亡した。	NO_PRONOUNCE	NO_LABEL
さらに壕の生存者8名のうち教師1名と生徒2名は壕脱出後に銃撃され死亡したとみられる。	NO_PRONOUNCE	NO_LABEL
従って、第三外科壕にいた人々のうち沖縄戦終結まで生き残ったのはわずかに5名のみである。	NO_PRONOUNCE	NO_LABEL
文学作品などでは、発煙弾である黄燐手榴弾の攻撃を毒ガス弾によるものと誤認しているが、毒ガス手榴弾は米軍では使用していなかった。	ぶんがくさくひんなどでわ、はつえんだんであるおーりんてりゅーだんのこーげきをどくがすだんによるものとごにんしているが、どくがすてりゅーだんわべいぐんでわしよーしていなかった。	NO_LABEL
なお、化学兵器になると現地司令官の裁量で使用出来るものではなく、使用には少なくとも方面軍司令官の命令が必要になる。	なお、かがくへいきになるとげんちしれいかんのさいりょーでしよーできるものでわなく、しよーにわすくなくともほーめんぐんしれいかんのめいれいがひつよーになる。	NO_LABEL
第一外科壕、第二外科壕は、アメリカ軍の攻撃を事前に察知し、19日未明までに地下壕から脱出した。	だいいちげかごー、だいにげかごーわ、あめりかぐんのこーげきをじぜんにさっちし、じゅうくにちみめいまでにちかごーからだっしゅつした。	NO_LABEL
しかしこれらの学徒隊もその後の激しい戦闘で多くが死亡した。	しかしこれらのがくとたいもそのごのはげしいせんとーでおーくがしぼーした。	NO_LABEL
職員を含むひめゆり学徒隊240名中、死亡者は生徒123名、職員13名であるが、このうち解散命令以後に死亡したのは117名で全体の86%にものぼり、さらに判明しているだけでも全体の35%にあたる47名が第三外科壕に攻撃があった6月19日に亡くなっている。	NO_PRONOUNCE	NO_LABEL
戦後、戦死した生徒の親である金城和信らによって壕が発見される。	せんご、せんししたせいとのおやであるきんじょーかずのぶらによってごーがはっけんされる。	NO_LABEL
その後、アメリカ軍によってこの地に住むことを命じられて住んでいた真和志村の人らによって遺骨が集められ、4月に慰霊碑が建てられた。	そのご、あめりかぐんによってこのちにすむことをめいじられてすんでいたましわそんのひとらによっていこつがあつめられ、しがつにいれいひがたてられた。	NO_LABEL
ひめゆり学徒隊という名称は動員当時から存在したが、兵士らにとっては所属校がどこであるかはほとんど問題にならなかったので、実際にはこの呼称はほとんど用いられず、学生さん、学徒、などと呼ばれていたという。	ひめゆりがくとたいとゆうめいしょーわどーいんとーじからそんざいしたが、へいしらにとってわしょぞくこーがどこであるかわほとんどもんだいにならなかったので、じっさいにわこのこしょーわほとんどもちいられず、がくせいさん、がくと、などとよばれていたという。	NO_LABEL
なお、ひめゆり学徒隊以外にも他の学校の生徒を集めて作られた学徒隊は別にあり、それぞれ所属校にちなんだ名称がついていた。	なお、ひめゆりがくとたいいがいにもたのがっこーのせいとをあつめてつくられたがくとたいわべつにあり、それぞれしょぞくこーにちなんだめいしょーがついていた。	NO_LABEL
これらの学徒隊もほぼ同様の運命をたどり、それぞれの名にちなんだ慰霊碑が建てられている。	これらのがくとたいもほぼどーよーのうんめいをたどり、それぞれのなにちなんだいれいひがたてられている。	NO_LABEL
なお、併設されているひめゆり平和祈念資料館開館20周年を記念して2009年6月23日に全面改修され、これまで記載漏れがあった生徒の名前が新たに記された。	なお、へいせつされているひめゆりへいわきねんしりょーかんかいかんにじゅうしゅーねんをきねんしてにせんきゅうねんろくがつにじゅうさんにちにぜんめんかいしゅーされ、これまできさいもれがあったせいとのなまえがあらたにしるされた。	NO_LABEL
1989年、ひめゆりの塔の隣接地に建てられた。	せんきゅうひゃくはちじゅうきゅうねん、ひめゆりのとーのりんせつちにたてられた。	NO_LABEL
ひめゆりの塔をテーマとした作品はいくつかあるが、いずれも一部脚色されており、事実を正確に伝えているものではない。	ひめゆりのとーをてーまとしたさくひんわいくつかあるが、いずれもいちぶきゃくしょくされており、じじつをせいかくにつたえているものでわない。	NO_LABEL
その中でも2007年に公開されたドキュメンタリー映画『ひめゆり』では、生存者の証言映像を基に構成され、また生存者による監修がなされている事から、他の映画作品とは趣を異にしている。	NO_PRONOUNCE	NO_LABEL
また新里堅進作画の『水筒〜ひめゆり学徒隊戦記〜』は登場人物の名前は一部変更しているが、仲宗根政善他関係者からの聞き取り調査を元に構成しており、概ね史実に沿って物語が描かれている。	NO_PRONOUNCE	NO_LABEL
敷地内に複数の慰霊碑などがある他、東側の隣地には「梯梧の塔」が建てられている。	NO_PRONOUNCE	NO_LABEL
また、敷地の前の道路を西に1〜2分歩いたところに第一外科壕跡への入口があり、南西に車で5分ほどのところには山城陸軍病院本部壕跡がある。	NO_PRONOUNCE	NO_LABEL
敷地前の道を西へ車で5〜10分ほど行った糸洲地区には第二外科壕跡が残っている。	NO_PRONOUNCE	NO_LABEL
米須霊域や平和祈念公園へは車で約5〜10分。	NO_PRONOUNCE	NO_LABEL
米須霊域への分岐点附近には、「ずゐせんの塔」や「ひむかいの塔」など複数の慰霊塔がある。	NO_PRONOUNCE	NO_LABEL
この他、周辺には数多くの慰霊塔や慰霊碑が散在している。	このほか、しゅーへんにわかずおーくのいれいとーやいれいひがさんざいしている。	NO_LABEL
本島南端の荒崎海岸には「ひめゆり散華の跡」碑がある。	NO_PRONOUNCE	NO_LABEL
2006年6月に案内標識が設置された。	にせんろくねんろくがつにあんないひょーしきがせっちされた。	NO_LABEL
なお、「ひめゆりの塔」の敷地に入ってすぐ左手にもガマがあるが、これは避難壕の跡ではない。	NO_PRONOUNCE	NO_LABEL
生存者の証言に「附近の掃討戦が落ち着いたあと第三外科壕に行ったら、近くのガマが米兵のゴミ捨て場になっており、食べ残し（half-eaten)や未開封の缶詰、菓子などが捨てられたため、食糧調達にもってこいであった」というようなものがあるが、これがそのガマである。	NO_PRONOUNCE	NO_LABEL
