角谷 正彦2月14日 - ）は、日本の官僚。	NO_PRONOUNCE	NO_LABEL
元国税庁長官。	もとこくぜいちょーちょーかん。	NO_LABEL
三重県四日市市出身。	みえけんよっかいちししゅっしん。	NO_LABEL
　　併せて東大法学部首席卒業・司法試験首席合格。	NO_PRONOUNCE	NO_LABEL
10年に1人といわれる「三冠王」のタイトル保持者である。	NO_PRONOUNCE	NO_LABEL
