STILL20 YOUR RADIO 802は、2009年にFM802で放送されたラジオ番組である。	NO_PRONOUNCE	NO_LABEL
2014年に放送されたYOUR RADIO 802についても詳述する。	NO_PRONOUNCE	NO_LABEL
FM802がアニバーサリイヤーに送る期間限定特別番組である。	えふえむはちまるにがあにばーさりいやーにおくるきかんげんていとくべつばんぐみである。	NO_LABEL
2009年は開局20周年を記念して、2014年は開局25周年を記念して放送された。	にせんきゅうねんわかいきょくにじゅうしゅーねんをきねんして、にせんじゅうよねんわかいきょくにじゅうごしゅーねんをきねんしてほーそーされた。	NO_LABEL
過去にFM802でDJを担当したことのあるアーティストが、1〜2週ごとに交代でDJを担当する。	NO_PRONOUNCE	NO_LABEL
FM802での思い出を語りつつ、リクエストも受け付ける。	えふえむはちまるにでのおもいでをかたりつつ、りくえすともうけつける。	NO_LABEL
アーティストDJが、21時台には洋楽の、22時台には邦楽のおすすめナンバーをOAするコーナーがあった。	あーてぃすとでぃーじぇいが、にじゅういちじだいにわよーがくの、にじゅうにじだいにわほーがくのおすすめなんばーをおんえあするこーなーがあった。	NO_LABEL
毎週金曜日　21:00-23:00	NO_PRONOUNCE	NO_LABEL
第1弾放送から5年が経ち、25th ANNIVERSARYとして2014年に放送される。	NO_PRONOUNCE	NO_LABEL
ただ、放送時間は1時間に短縮される。	ただ、ほーそーじかんわいちじかんにたんしゅくされる。	NO_LABEL
毎週金曜日　21:00-22:00	NO_PRONOUNCE	NO_LABEL
