猪塚の戦いは第二次メッセニア戦争にて紀元前684年にメッセニアとその同盟軍とスパルタとその同盟軍との間で戦われた会戦である。	いのししずかのたたかいわだいにじめっせにあせんそーにてきげんぜんろっぴゃくはちじゅうよんねんにめっせにあとそのどーめいぐんとすぱるたとそのどーめいぐんとのまでたたかわれたかいせんである。	NO_LABEL
この戦いはデレスの戦いの一年後に起こった。	このたたかいわでれすのたたかいのいちねんごにおこった。	NO_LABEL
メッセニア軍にはエリスとアルカディア、アルゴス、シキュオンが援軍として赴いた。	めっせにあぐんにわえりすとあるかでぃあ、あるごす、しきゅおんがえんぐんとしておもむいた。	NO_LABEL
一方、スパルタ軍にはコリントス、レプレオンが援軍として来た。	いっぽー、すぱるたぐんにわこりんとす、れぷれおんがえんぐんとしてきた。	NO_LABEL
メッセニア軍の総大将のアリストメネスは自身の周りを80人の精鋭部隊で固め、彼らはスパルタ王アナクサンドロス率いる親衛隊と戦った。	めっせにあぐんのそーだいしょーのありすとめねすわじしんのまわりをはちじゅうにんのせいえいぶたいでかため、かれらわすぱるたおーあなくさんどろすひきいるしんえいたいとたたかった。	NO_LABEL
アリストメネスの部隊は当初苦戦を強いられたが、死に物狂いの戦いによってアナクサンドロスの部隊を敗走させた。	ありすとめねすのぶたいわとーしょくせんをしいられたが、しにものぐるいのたたかいによってあなくさんどろすのぶたいをはいそーさせた。	NO_LABEL
敵が敗走に移ったのを見たアリストメネスは追撃は別の部隊に任せ、自身は頑強に交戦している敵のもとに赴いてこれを破り、同様に再び別の所にも赴いて戦った。	てきがはいそーにうつったのをみたありすとめねすわついげきわべつのぶたいにまかせ、じしんわがんきょーにこーせんしているてきのもとにおもむいてこれをやぶり、どーよーにふたたびべつのところにもおもむいてたたかった。	NO_LABEL
やがてスパルタとその同盟軍は総崩れになり、アリストメネスはそれを追撃した。	やがてすぱるたとそのどーめいぐんわそーくずれになり、ありすとめねすわそれをついげきした。	NO_LABEL
しかし、山梨樹の茂みでアリストメネスが盾を見失ってそれを見つけるのに手間取ったため、スパルタ軍の一部は無事に退却できた。	しかし、やまなしじゅのしげみでありすとめねすがたてをみうしなってそれをみつけるのにてまどったため、すぱるたぐんのいちぶわぶじにたいきゃくできた。	NO_LABEL
当時、ギリシアでは盾を失うことは不名誉とみなされていた。	とーじ、ぎりしあでわたてをうしなうことわふめいよとみなされていた。	NO_LABEL
この敗北でスパルタは戦意を失ったが、デルフォイの神託によりアテナイから助言者として送られた片足の不自由な読み書き教師のテュルタイオスが軍歌を歌ってスパルタ人たちを元気付け、彼らはヘロットの中から新たに兵士を補充して戦争を続行した。	このはいぼくですぱるたわせんいをうしなったが、でるふぉいのしんたくによりあてないからじょげんしゃとしておくられたかたあしのふじゆーなよみかききょーしのてゅるたいおすがぐんかをうたってすぱるたひとたちをげんきずけ、かれらわへろっとのなかからあらたにへいしをほじゅーしてせんそーをぞっこーした。	NO_LABEL
パウサニアス著、飯尾都人訳、『ギリシア記』、龍渓書舎、1991年	NO_PRONOUNCE	NO_LABEL
