『 ラングレー・パークからの挨拶状』は1988年3月に "" から発売されたプリファブ・スプラウトのサード・アルバム。	NO_PRONOUNCE	NO_LABEL
プロデューサーはトーマス・ドルビー、ジョン・ケリー、アンディ・リチャーズらが担当している。	NO_PRONOUNCE	NO_LABEL
全英アルバム・チャートでは最高位で5位まで記録していて、このアルバムから5枚のシングルが発売された。	NO_PRONOUNCE	NO_LABEL
※「I Remember That」はベスト・アルバム『ア・ライフ・オヴ・サプライジズ』のプロモーション用シングル時に収録された。	NO_PRONOUNCE	NO_LABEL
