株式会社長良川交通公園は、岐阜県岐阜市に所在するレジャー施設運営会社。	かぶしきがいしゃながらがわこーつーこーえんわ、ぎふけんぎふしにしょざいするれじゃーしせつうんえいがいしゃ。	NO_LABEL
岐阜市内で映画館を経営する「岐阜土地興業」の100%子会社である。	NO_PRONOUNCE	NO_LABEL
設立は1959年。	せつりつわせんきゅうひゃくごじゅうきゅうねん。	NO_LABEL
1967年、岐阜市の長良川沿いに屋外流水プール兼スケートリンクを設置。	せんきゅうひゃくろくじゅうななね、ぎふしのながらがわぞいにおくがいりゅーすいぷーるけんすけーとりんくをせっち。	NO_LABEL
構造設計は坂田美郎で、鉄筋コンクリート造の地上2階建てだった。	こーぞーせっけいわさかたよしろーで、てっきんこんくりーとぞーのちじょーにかいだてだった。	NO_LABEL
「ジャンボ滑り台」を備えたプールは「マンモスプール」と呼ばれ、1970年代当時人気を博していたパンダの滑り台を設置した。	NO_PRONOUNCE	NO_LABEL
東海地方で放映されていたテレビCMでは滑り台からの水しぶきがテレビ画面からお茶の間に飛び込んでくるという、派手な演出を行なっていた。	とーかいちほーでほーえいされていたてれびこんぴゅーたみゅーじっくまがじんでわすべりだいからのみずしぶきがてれびがめんからおちゃのまにとびこんでくるとゆう、はでなえんしゅつをおこなっていた。	NO_LABEL
冬季は水路上にリンクを設置して「マンモスリンク」として屋外スケート場として使用されていた。	NO_PRONOUNCE	NO_LABEL
他にも周回タイプのゴーカート、ビックリハウス等が施設内に併設されていた。	たにもしゅーかいたいぷのごーかーと、びっくりはうすとーがしせつないにへいせつされていた。	NO_LABEL
その後プール兼スケート場は閉鎖され、ゴルフ練習場として改装されて現在に至っている。	そのごぷーるけんすけーとじょーわへいさされ、ごるふれんしゅーじょーとしてかいそーされてげんざいにいたっている。	NO_LABEL
またボウリング場「コーエンボウル」が隣接されていたが、耐震性の問題により2017年3月をもって閉鎖された。	NO_PRONOUNCE	NO_LABEL
岐阜市内及び西濃地区に「マンモス」という名称でホームセンターを経営していた。	NO_PRONOUNCE	NO_LABEL
全盛期は岐阜市内に日野店・県庁前店・フォレスタマンモスの3店舗、大垣市内に大垣店・西濃店の2店舗の他、糸貫町、神戸町にも各1店舗出店していたものの漸次規模を縮小、2005年に同業種のバローへ事業を譲渡した。	NO_PRONOUNCE	NO_LABEL
現在はフォレスタマンモスがホームセンターバローの正木店として残っている。	げんざいわふぉれすたまんもすがほーむせんたーばろーのまさきてんとしてのこっている。	NO_LABEL
