ファーズワース・ライトとは、パルプ雑誌『ウィアード・テイルズ』の編集長。	NO_PRONOUNCE	NO_LABEL
パルプ雑誌『ウィアード・テイルズ』の2代目編集長で経営難を跳ね退け、同誌を躍進させた黄金時代を支えた立役者として知られる。	NO_PRONOUNCE	NO_LABEL
幅広いタイプの優秀な作家陣やカバーイラストに魅力的なクリエイターを登用し、敏腕編集者として活躍した。	はばひろいたいぷのゆーしゅーなさっかじんやかばーいらすとにみりょくてきなくりえいたーをとーよーし、びんわんへんしゅーしゃとしてかつやくした。	NO_LABEL
特にジャンルが怪奇小説であったこともあり残虐な描写や宗教的に問題のある題材に苦心したようである。	とくにじゃんるがかいきしょーせつであったこともありざんぎゃくなびょーしゃやしゅーきょーてきにもんだいのあるだいざいにくしんしたよーである。	NO_LABEL
ジャック・ウィリアムスンには、“もっとも偉大なファンタジー編集者”と称され、ロバート・ワインバーグは、作家は、雑誌に作品を載せなければ何も出来ないという意味合いを含め“ファンタジー界に最も影響力のあった編集者”と呼んだ。	NO_PRONOUNCE	NO_LABEL
一方、有名作家たちの作品を掲載拒否したという点で彼らのファンから快く思われておらず、しばしばライトの功罪とまで指摘される。	いっぽー、ゆーめいさっかたちのさくひんをけいさいきょひしたとゆうてんでかれらのふぁんからこころよくおもわれておらず、しばしばらいとのこーざいとまでしてきされる。	NO_LABEL
取り分けロバート・ブロックは、10歳の頃から同誌を読みラヴクラフトのファンで本人も同誌に作品を提出した作家の一人である経歴から“か細い声で話す背の低い男”という酷評を与えている。	NO_PRONOUNCE	NO_LABEL
ただしブロックの指す特徴は、ライトが苦しんだパーキンソン病によるものである。	ただしぶろっくのさすとくちょーわ、らいとがくるしんだぱーきんそんびょーによるものである。	NO_LABEL
ライトは、カリフォルニア州サンタバーバラで生まれ、ネバダ大学リノ校とワシントン大学で教育を受けた。	らいとわ、かりふぉるにあしゅーさんたばーばらでうまれ、ねばだだいがくりのこーとわしんとんだいがくできょーいくをうけた。	NO_LABEL
ここでワシントンジャーナリズムの部員になり3年間活動して編集長を務め、1914年に卒業した。	ここでわしんとんじゃーなりずむのぶいんになりさんねんかんかつどーしてへんしゅーちょーをつとめ、せんきゅうひゃくじゅうよねんにそつぎょーした。	NO_LABEL
在学中、1913年7月27日、ウェストポートでルームメイトのジョン・P・ラウエンと海水浴をしていると渦潮に巻き込まれ、ラウエンが溺死するという経験をしている。	NO_PRONOUNCE	NO_LABEL
卒業後、シアトル・サンの記者として働いていたが1917年に第一次世界大戦により陸軍に招聘された。	NO_PRONOUNCE	NO_LABEL
彼の1年間の任務は、「ローズタウン町事務所の通訳」となっている。	NO_PRONOUNCE	NO_LABEL
ライトの母は、彼に音楽の造詣を与え、彼は、シェイクスピアや音楽に関する評論などを執筆していた。	らいとのははわ、かれにおんがくのぞーけいをあたえ、かれわ、しぇいくすぴあやおんがくにかんするひょーろんなどをしっぴつしていた。	NO_LABEL
1923年にJ・C・ヘナバーガーがパルプ雑誌『ウィアード・テイルズ』を創刊すると自作の詩を提出し、同誌の編集作業に参加するようになった。	NO_PRONOUNCE	NO_LABEL
はじめシカゴ・ヘラルドで音楽評論家をしながらも、やがてウィアード・テイルズのチーフ原稿読者になった。	NO_PRONOUNCE	NO_LABEL
ライト自身も作品をウィアード・テイルズの初期に掲載していたはずだが本人は、忘れてしまったとしている。	らいとじしんもさくひんをうぃあーどているずのしょきにけいさいしていたはずだがほんにんわ、わすれてしまったとしている。	NO_LABEL
またシェイクスピアに関する本を出版したいと考えていたが1925年には、企画しただけでパーキンソン病のために挫折している。	またしぇいくすぴあにかんするほんをしゅっぱんしたいとかんがえていたがせんきゅうひゃくにじゅうごねんにわ、きかくしただけでぱーきんそんびょーのためにざせつしている。	NO_LABEL
ヘナバーガーがウィアード・テイルズを創刊した当初、初代編集長エドウィン・ベアードが編集作業を行っていたが既に4万ドルから6万ドルの負債があり、これらのためにヘナバーガーは、他の雑誌のタイトルを売却したり印刷会社ポピュラー・フィクション・パブリッシングなどと交渉し、隔月にするなどして持ち堪えていた。	NO_PRONOUNCE	NO_LABEL
エドガー・アラン・ポーのファンだったヘナバーガーは、ホラー作品に絞った専門誌を望んでおり、そのためにウィアード・テイルズを何としても守りたい一心でやり繰りしていたがライトは、ヘナバーガーからコントロールを預かると紙面の刷新を図った。	えどがーあらんぽーのふぁんだったへなばーがーわ、ほらーさくひんにしぼったせんもんしをのぞんでおり、そのためにうぃあーどているずをなにとしてもまもりたいいっしんでやりくりしていたがらいとわ、へなばーがーからこんとろーるをあずかるとしめんのさっしんをはかった。	NO_LABEL
ライトは、ウィアード・テイルズの掲げる「ユニークなストーリー」を達成するため幅広い作家陣を集めた。	NO_PRONOUNCE	NO_LABEL
剣と魔法ファンタジー、『英雄コナン』のロバート・E・ハワード、宇宙と科学、呪文を折り合わせた宇宙的恐怖のラヴクラフト、探偵小説のシーベリイ・クイン、E・ホフマン・プライス、オリエンタルファンタジーのフランク・オーウェン、SF作家のエドモンド・ハミルトン、ポール・フレデリック・エルンスト、ニクジン・ウィルストン・ディアルイスなどである。	NO_PRONOUNCE	NO_LABEL
これは、ヘナバーガーがポーやマッケンのような作品に絞ったために売り上げが落ち込んだ、その解決策といえる。	これわ、へなばーがーがぽーやまっけんのよーなさくひんにしぼったためにうりあげがおちこんだ、そのかいけつさくといえる。	NO_LABEL
E・ホフマン・プライスが1925年7月号から6ヶ月『Stranger from Kurdistan』を執筆した時、イエス・キリストとサタンが会う場面がありライトは、読者の反応を心配した。	NO_PRONOUNCE	NO_LABEL
しかし好評を受け、彼は、1929年12月号に再集録した。	しかしこーひょーをうけ、かれわ、せんきゅうひゃくにじゅうきゅうねじゅーにがつごーにさいしゅーろくした。	NO_LABEL
プライスの『The Infidel's Daughter』が出版された時は、クー・クラックス・クランから苦情が来ている。	NO_PRONOUNCE	NO_LABEL
ジョージ・フィールディング・エリオットの『The Copper Bowl』では、人をネズミに食わせる拷問なども登場したがライトは、掲載している。	NO_PRONOUNCE	NO_LABEL
ヘナバーガーは、より目立つようにベッドシーツサイズのパルプ紙に切り替えていたがライトは、これを標準の物に戻した。	へなばーがーわ、よりめだつよーにべっどしーつさいずのぱるぷしにきりかえていたがらいとわ、これをひょーじゅんのものにもどした。	NO_LABEL
また表紙のイラストレーターにマーガレット・ブランダージを起用するなどした。	NO_PRONOUNCE	NO_LABEL
ブランダージは、女性のヌードや怪物を得意としていた。	ぶらんだーじわ、じょせいのぬーどやかいぶつをとくいとしていた。	NO_LABEL
彼女は、シーベリイ・クインの作品をイメージして表紙をデザインしていた。	かのじょわ、しーべりいくいんのさくひんをいめーじしてひょーしをでざいんしていた。	NO_LABEL
ヴァージル・フィンレイは、1935年にはじめて作品をライトに送った。	NO_PRONOUNCE	NO_LABEL
ライトは、彼の作品がパルプ雑誌では、上手く印刷されていないと考え印刷会社と交渉するなどした。	らいとわ、かれのさくひんがぱるぷざっしでわ、うまくいんさつされていないとかんがえいんさつがいしゃとこーしょーするなどした。	NO_LABEL
1939年、ニューヨーク市長フィオレッロ・H・ラ・ガーディアは、性的な発刊物を取り締まるキャンペーンを行い、これは、効果があったらしく表紙は、穏やかなデザインに移行していった。	NO_PRONOUNCE	NO_LABEL
致命的だったのは、1938年にデラニー社がウィアード・テイルズを買収し、カバーイラストの報酬を50ドルに値下げしたことにあった。	ちめいてきだったのわ、せんきゅうひゃくさんじゅうはちねにでらにーしゃがうぃあーどているずをばいしゅーし、かばーいらすとのほーしゅーをごじゅうどるにねさげしたことにあった。	NO_LABEL
当時、平均的に90ドルだった報酬に対し、ライトは、新人のフィンレイにも100ドルを支払っており、これは、明らかに品質の低下を招いた。	とーじ、へいきんてきにきゅうじゅうどるだったほーしゅーにたいし、らいとわ、しんじんのふぃんれいにもひゃくどるをしはらっており、これわ、あきらかにひんしつのていかをまねいた。	NO_LABEL
長年、ウィアード・テイルズは、競合相手がいない状態が続いたが1926年にＳＦ専門誌『アメージング・ストーリーズ』や1939年には、ジョン・W・キャンベルが編集を務める『アンノウン』が登場する。	NO_PRONOUNCE	NO_LABEL
取り分けロバート・E・ハワードのような剣と魔法ファンタジーは、根強い人気があったもののSF人気が高まっていることをライトも承知しており、フリッツ・ライバーの作品は、はじめライトによって断られ、彼がアンノウンに持ち込むとキャンベルからは、「これらは、ウィアード・テイルズに持っていく方が良い。	NO_PRONOUNCE	NO_LABEL
」と返されてしまった。	NO_PRONOUNCE	NO_LABEL
結局、ライバーの作品は、ウィアード・テイルズから発表された。	けっきょく、らいばーのさくひんわ、うぃあーどているずからはっぴょーされた。	NO_LABEL
ウィアード・テイルズにSFとファンタジーがどの程度の比率で掲載されるかは、作家陣も議論していたらしくライトも頭を悩ませていた。	うぃあーどているずにえすえふとふぁんたじーがどのていどのひりつでけいさいされるかわ、さっかじんもぎろんしていたらしくらいともあたまをなやませていた。	NO_LABEL
この時代の多くのファンタジー作品は、ウィアード・テイルズから発表され続けた。	このじだいのおーくのふぁんたじーさくひんわ、うぃあーどているずからはっぴょーされつずけた。	NO_LABEL
しかしファンタジー作品もトールキンのような首尾整った世界観の作品が登場し始め、これまでの西部劇の銃を剣に置き換えたマッチョと美女の路線からは、人気が移っていった。	しかしふぁんたじーさくひんもとーるきんのよーなしゅびととのったせかいかんのさくひんがとーじょーしはじめ、これまでのせいぶげきのじゅーをけんにおきかえたまっちょとびじょのろせんからわ、にんきがうつっていった。	NO_LABEL
1936年にロバート・E・ハワードが自殺、1937年にラヴクラフトが癌による栄養失調で死去、クラーク・アシュトン・スミスは、報酬が低いとして作家を引退してしまう。	NO_PRONOUNCE	NO_LABEL
1938年には、デラニー社がポピュラー・フィクション・パブリッシングからウィアード・テイルズを買収し、利益向上を計り印刷用紙やサイズ変更を行った。	NO_PRONOUNCE	NO_LABEL
低品質で厚い紙と価格調整のためにページ数を増したウィアード・テイルズは、分厚くなったものの売り上げは、目に見えて悪化し、すぐにページ数が減らされ発刊も隔月になってしまう。	ていひんしつであついかみとかかくちょーせいのためにぺーじすーをましたうぃあーどているずわ、ぶあつくなったもののうりあげわ、めにみえてあっかし、すぐにぺーじすーがへらされはっかんもかくげつになってしまう。	NO_LABEL
ライトも1920年から苦しみ続けたパーキンソン病により1940年6月12日、ニューヨークにおいて51歳で死去した。	らいともせんきゅうひゃくにじゅうねんからくるしみつずけたぱーきんそんびょーによりせんきゅうひゃくよんじゅうねんろくがつじゅうににち、にゅーよーくにおいてごじゅういっさいでしきょした。	NO_LABEL
ウィアード・テイルズの1940年11月号にシーベリイ・クインによるライトへの訃報が捧げられた。	うぃあーどているずのせんきゅうひゃくよんじゅうねんじゅーいちがつごーにしーべりいくいんによるらいとえのふほーがささげられた。	NO_LABEL
編集者は、影の存在だがライトの場合、「ウィアード・テイルズの名物編集長」あるいは、「ラヴクラフトの編集者」として広く知られる結果となった。	NO_PRONOUNCE	NO_LABEL
大きな負債を抱え、経営難にあったウィアード・テイルズの前任者ベアードが解雇され、代わりに編集長に就任したライトは、作家たち、特にラヴクラフトの作品の掲載を断るようになったといわれている。	NO_PRONOUNCE	NO_LABEL
しかし実際には、ベアードも掲載拒否を出しており過敏に作家たちと関係が悪かった訳でもなかったといえる。	しかしじっさいにわ、べあーどもけいさいきょひをだしておりかびんにさっかたちとかんけいがわるかったわけでもなかったといえる。	NO_LABEL
しかしロバート・E・ハワードは、『フロスト・ジャイアントの娘』、クラーク・アシュトン・スミスは、『七つの呪い』を拒否された。	NO_PRONOUNCE	NO_LABEL
ラヴクラフトは、自身の作品より手紙の方が多く残っていて彼の作家活動を遡っていくとライトの名前が出てくる。	NO_PRONOUNCE	NO_LABEL
例えば『クトゥルフの呼び声』は、ラヴクラフトの作品でも有名な短編小説だがライトに断られ、親友ロバート・E・ハワードに説得され、再提出して掲載されたという経緯が有名なエピソードとして知られる。	NO_PRONOUNCE	NO_LABEL
ライトに拒否されたのが、短編が中心だったラヴクラフトに珍しい長編の『チャールズ・ウォードの奇怪な事件』、『狂気の山脈にて』は、死後に発表され、特に批判されることが多い。	NO_PRONOUNCE	NO_LABEL
しかしこれもラヴクラフトが一度断られた作品を他の雑誌に提出するのを嫌がったことも原因と言える。	NO_PRONOUNCE	NO_LABEL
ラヴクラフトは、収入のために作家として信条を曲げることを嫌いアマチュア主義を掲げていた。	NO_PRONOUNCE	NO_LABEL
『ダンウィッチの怪』は、ラヴクラフトの代表作だが、他と作風が大きく異なった。	NO_PRONOUNCE	NO_LABEL
しかし評判が良かったこともあってライトは、またこういう作品を書いて欲しいとアドバイスしたが受け入れられなかった。	しかしひょーばんがよかったこともあってらいとわ、またこーゆうさくひんをかいてほしいとあどばいすしたがうけいれられなかった。	NO_LABEL
ライトに対し、ラヴクラフトは、1927年7月5日に有名な手紙を送っている。	NO_PRONOUNCE	NO_LABEL
「さて、わたしの小説のすべては、人間一般の習わし、主張、感情が広大な宇宙全体においては、何の意味も有効性ももたない根本的な前提に基づいています。	NO_PRONOUNCE	NO_LABEL
わたしにとって人間の姿―――そして局所的な人間の感情や様態や規範―――が、他の世界や他の宇宙に本来備わっているものとして描かれている小説は、幼稚以外の何物でもありません。	NO_PRONOUNCE	NO_LABEL
時間であれ、空間であれ、次元であれ、真の外来性の本質に達する為には、有機生命、善と悪、愛と憎、そして人類と呼ばれる取るに足らない儚い種族の限定的な属性が、すべて存在すると忘れ去らねばならぬのです。	じかんであれ、くーかんであれ、じげんであれ、しんのがいらいせいのほんしつにたっするためにわ、ゆーきせいめい、ぜんとあく、あいとにく、そしてじんるいとよばれるとるにたらないはかないしゅぞくのげんていてきなぞくせいが、すべてそんざいするとわすれさらねばならぬのです。	NO_LABEL
人間の性質を帯びるものは、人間が見るものや、人間である登場人物に限定されなければなりません。	にんげんのせいしつをおびるものわ、にんげんがみるものや、にんげんであるとーじょーじんぶつにげんていされなければなりません。	NO_LABEL
これらは、徹底したリアリズムでもって扱う必要がありますが、果てしない慄然たる未知の領域―――影の集う外界―――に乗り出すときには、忘れる事なくその戸口に置いて、人間性というもの―――そして地球中心の考え方―――をふり捨てなければならないのです。	NO_PRONOUNCE	NO_LABEL
」Now all my tales are based on the fundamental premise that common human laws and interests and emotions have no validity or significance in the vast cosmos-at-large. To me there is nothing but puerility in a tale in which the human form—and the local human passions and conditions and standards—are depicted as native to other worlds or other universes. To achieve the essence of real externality, whether of time or space or dimension, one must forget that such things as organic life, good and evil, love and hate, and all such local attributes of a negligible and temporary race called mankind, have any existence at all. Only the human scenes and characters must have human qualities. "These"must be handled with unsparing "realism",but when we cross the line to the boundless and hideous unknown—the shadow-haunted "Outside"—we must remember to leave our humanity and terrestrialism at the threshold.この手紙は、『クトゥルフの呼び声』の掲載までのやり取りで送られたとされ、ラヴクラフトの信条である宇宙的恐怖を表現した文章として取り上げられることが多い。	NO_PRONOUNCE	NO_LABEL
ライトは、ラヴクラフトの死後に1937年10月号に訃報と共に『忌まれた家』を収録した。	NO_PRONOUNCE	NO_LABEL
これも1924年10月に執筆されたもので長い間、掲載される機会がない作品だった。	これもせんきゅうひゃくにじゅうよねんじゅーがつにしっぴつされたものでながいあいだ、けいさいされるきかいがないさくひんだった。	NO_LABEL
ライトは、ラヴクラフトが残したストックを幾らかウィアード・テイルズで発表したが、さらにその残りは、アーカムハウスから出版された。	NO_PRONOUNCE	NO_LABEL
1920年からライトは、パーキンソン病に苦しんでいたといわれている。	せんきゅうひゃくにじゅうねんかららいとわ、ぱーきんそんびょーにくるしんでいたといわれている。	NO_LABEL
その程度は、署名や歩行にも支障が出たほどであり1930年頃には、編集事務所への出社や退社には、部下がサポートしなければならないようになっていた。	そのていどわ、しょめいやほこーにもししょーがでたほどでありせんきゅうひゃくさんじゅうねんごろにわ、へんしゅーじむしょえのしゅっしゃやたいしゃにわ、ぶかがさぽーとしなければならないよーになっていた。	NO_LABEL
1940年3月にライトは、編集長を辞任し、痛みを軽減するために手術も受けたものの6月に死去している。	せんきゅうひゃくよんじゅうねんさんがつにらいとわ、へんしゅーちょーをじにんし、いたみをけいげんするためにしゅじゅつもうけたもののろくがつにしきょしている。	NO_LABEL
ライトは、1929年にマジョリー・J・ジンキーと結婚し、ロバート・ファーズワース・ライトを儲けている。	NO_PRONOUNCE	NO_LABEL
