『ポーラX』は、1999年のフランス・ドイツ・日本・スイス合作のドラマ映画。	NO_PRONOUNCE	NO_LABEL
第52回カンヌ国際映画祭コンペティション部門正式出品。	だいごじゅうにかいかんぬこくさいえいがさいこんぺてぃしょんぶもんせいしきしゅっぴん。	NO_LABEL
ノルマンディーのセーヌ川の畔。	のるまんでぃーのせーぬがわのほとり。	NO_LABEL
ピエールは外交官だった父の亡き後、「姉、弟」と呼び合う仲の美しい母マリーと城館で何不自由なく暮らしていた。	NO_PRONOUNCE	NO_LABEL
そんな彼の前に突然、異母姉と名乗る女性イザベルが現れる。	そんなかれのまえにとつぜん、いぼあねとなのるじょせいいざべるがあらわれる。	NO_LABEL
※括弧内は日本語吹き替え。	NO_PRONOUNCE	NO_LABEL
レオス・カラックスの監督作品としては、『ポンヌフの恋人』以来、8年ぶりとなった。	NO_PRONOUNCE	NO_LABEL
原作は、ハーマン・メルヴィルの『ピエール』。	NO_PRONOUNCE	NO_LABEL
タイトルは、原作の「Pierre ou les ambiguïtés」の頭文字「Pola」に、映画に使われた10番目の草稿を示すローマ数字「X」を加えたもの。	NO_PRONOUNCE	NO_LABEL
本作はビデオ化されている。	もとさくわびでおかされている。	NO_LABEL
Metacriticでは、20件のレヴューで平均値は65点だった。	NO_PRONOUNCE	NO_LABEL
Rotten Tomatoesでは、25件のレヴューで支持率は76%、平均値は6.4点だった。	NO_PRONOUNCE	NO_LABEL
