エウメネス3世は、かつての名前をアリストニコスといい、アッタロス朝の王位詐称者である。	えうめねすさんせいわ、かつてのなまえをありすとにこすといい、あったろすあさのおーいさしょーしゃである。	NO_LABEL
ペルガモン王国のアッタロス3世は紀元前133年に死去すると、王国を共和政ローマに遺贈した。	ぺるがもんおーこくのあったろすさんせいわきげんぜんひゃくさんじゅうさんねんにしきょすると、おーこくをきょーわせいろーまにいぞーした。	NO_LABEL
しかしローマの主張が遅かったため、アリストニコスはアッタロス3世の父である先代の王エウメネス2世の非嫡出子であるとして王位を主張し、エウメネス3世と名乗った。	しかしろーまのしゅちょーがおそかったため、ありすとにこすわあったろすさんせいのちちであるせんだいのおーえうめねすにせいのひちゃくしゅつしであるとしておーいをしゅちょーし、えうめねすさんせいとなのった。	NO_LABEL
当初、彼は自由を約束することでギリシア沿岸の都市から支援を得ようとしたが、これに失敗すると彼は国内の奴隷や農奴に自由を約束して支援を得ようとした。	とーしょ、かれわじゆーをやくそくすることでぎりしあえんがんのとしからしえんをえようとしたが、これにしっぱいするとかれわこくないのどれいやのーどにじゆーをやくそくしてしえんをえようとした。	NO_LABEL
彼がどの程度、社会革命家だったのかまた王朝の王位競争者だったのかは分かっていない。	かれがどのていど、しゃかいかくめいかだったのかまたおーちょーのおーいきょーそーしゃだったのかわわかっていない。	NO_LABEL
彼は、ティベリウス・グラックスの支援者でストア派哲学者のとともに全てが自由のヘリオポリスと呼ばれる状態を見つけることを宣言した。	かれわ、てぃべりうすぐらっくすのしえんしゃですとあはてつがくしゃのとともにすべてがじゆーのへりおぽりすとよばれるじょーたいをみつけることをせんげんした。	NO_LABEL
紀元前131年に執政官の がローマ軍を率いて遠征したが、エウメネス3世はクラッススを討ち取った。	きげんぜんひゃくさんじゅういちねんにしっせいかんのがろーまぐんをひきいてえんせいしたが、えうめねすさんせいわくらっすすをうちとった。	NO_LABEL
紀元前129年、前執政官の軍にエウメネス3世は破れて捕虜となった。	きげんぜんひゃくにじゅうきゅうねん、ぜんしっせいかんのぐんにえうめねすさんせいわわれてほりょとなった。	NO_LABEL
投降後、彼はローマ市内を引き回され、絞殺刑に処せられた。	とーこーご、かれわろーましないをひきまわされ、こーさつけいにしょせられた。	NO_LABEL
