スーダンの大統領一覧では、スーダン共和国における元首の一覧を掲載する。	すーだんのだいとーりょーいちらんでわ、すーだんきょーわこくにおけるげんしゅのいちらんをけいさいする。	NO_LABEL
なお、スーダンではこれまでにたびたびクーデター等の政変が起こっており、大統領以外の役職の者が元首となるケースも少なくないため、ここではそれらも含めて記述した。	なお、すーだんでわこれまでにたびたびくーでたーとーのせいへんがおこっており、だいとーりょーいがいのやくしょくのものがげんしゅとなるけーすもすくなくないため、ここでわそれらもふくめてきじゅつした。	NO_LABEL
斜体の日付は、職務として事実上継続していることを示している。	しゃたいのひずけわ、しょくむとしてじじつじょーけいぞくしていることをしめしている。	NO_LABEL
