門田 博光は、山口県小野田市生まれ、奈良県五條市育ちの元プロ野球選手。	かどたひろみつわ、やまぐちけんおのだしうまれ、ならけんごじょーしそだちのもとぷろやきゅーせんしゅ。	NO_LABEL
現役時代は南海・ダイエー、オリックスで主に右翼手、左翼手、指名打者として活躍した。	NO_PRONOUNCE	NO_LABEL
40歳を超えても活躍した数少ない選手であり、「不惑の大砲」の異名を持つ。	NO_PRONOUNCE	NO_LABEL
通算本塁打数・通算打点数共に歴代3位。	NO_PRONOUNCE	NO_LABEL
山口県小野田市に5人兄弟の三男として生まれた。	やまぐちけんおのだしにごにんきょーだいのさんなんとしてうまれた。	NO_LABEL
父が貿易関係に失敗し、一家で奈良市に移り、つましい家庭で育つ。	ちちがぼーえきかんけいにしっぱいし、いっかでならしにうつり、つましいかていでそだつ。	NO_LABEL
五条中学から天理高校に進む。	ごじょーちゅーがくからてんりこうこーにすすむ。	NO_LABEL
天理高校では、四番打者、中堅手として、外山義明投手を擁し、夏の県予選決勝に進出。	てんりこうこーでわ、よんばんだしゃ、ちゅーけんしゅとして、とやまよしあきとーしゅをよーし、なつのけんよせんけっしょーにしんしゅつ。	NO_LABEL
白滝政孝投手のいた郡山高を2-0で破る。	NO_PRONOUNCE	NO_LABEL
続く紀和大会決勝でも県和歌山商を3-1で降し甲子園に出場。	NO_PRONOUNCE	NO_LABEL
1回戦で小山健二投手を擁する丸子実に9回に逆転され1-3で敗退。	NO_PRONOUNCE	NO_LABEL
卒業後は外山とともに社会人野球チームクラレ岡山に進む。	そつぎょーごわとやまとともにしゃかいじんやきゅーちーむくられおかやまにすすむ。	NO_LABEL
から都市対抗野球大会に4年連続出場。	からとしたいこーやきゅーたいかいによんねんれんぞくしゅつじょー。	NO_LABEL
のドラフトで阪急ブレーブスから12位指名を受けるがこれを拒否。	のどらふとではんきゅーぶれーぶすからじゅうにーしめいをうけるがこれをきょひ。	NO_LABEL
翌のドラフトで南海ホークスからの2位指名を受け、プロ入り。	よくのどらふとでなんかいほーくすからのにーしめいをうけ、ぷろいり。	NO_LABEL
1年目から俊足・強肩・好打の中距離打者として頭角を現し、2年目のにレギュラー定着。	NO_PRONOUNCE	NO_LABEL
打率.300、31本塁打、120打点を記録して打点王。	NO_PRONOUNCE	NO_LABEL
同年に打撃フォームを王貞治を参考にした一本足打法に改造した。	どーねんにだげきふぉーむをおーさだはるをさんこーにしたいっぽんあしだほーにかいぞーした。	NO_LABEL
プロ入り2年目のから野村監督解任の年であるまでの7年のうち5年で打率三割をマーク。	ぷろいりにねんめのからのむらかんとくかいにんのとしであるまでのななねんのうちごねんでだりつさんわりをまーく。	NO_LABEL
には打率.310、18本塁打の成績で南海リーグ優勝に貢献した。	NO_PRONOUNCE	NO_LABEL
野村監督時代は主に三番を打ち、成績的には中距離打者としての性格が濃かったが、野村からは「オレの前にランナーで出てくれさえすればいい。	NO_PRONOUNCE	NO_LABEL
それがお前の仕事。	それがおまえのしごと。	NO_LABEL
ホームランなど狙わなくていい」とはっきり言われ、大振りすると怒られたという。	NO_PRONOUNCE	NO_LABEL
野村解任によりその束縛から解放され、長距離打者としての道を歩み始める。	のむらかいにんによりそのそくばくからかいほーされ、ちょーきょりだしゃとしてのみちをあゆみはじめる。	NO_LABEL
四番に座り、それまで使うことを許されなかった重いバットを使い始めた。	よんばんにすわり、それまでつかうことをゆるされなかったおもいばっとをつかいはじめた。	NO_LABEL
最初の年、のちには振り切れるようになった。	さいしょのとし、のちにわふりきれるよーになった。	NO_LABEL
2月のキャンプで右足のアキレス腱を断裂。	にがつのきゃんぷでみぎあしのあきれすけんをだんれつ。	NO_LABEL
ほぼ1シーズンを棒に振るが、同年9月には代打で復帰。	NO_PRONOUNCE	NO_LABEL
翌以降、「ホームランを打てば足に負担はかからない。	NO_PRONOUNCE	NO_LABEL
これからは全打席ホームランを狙う」と長打狙いのバッティングに徹し、同年41本塁打を放つと、翌には44本塁打で初の本塁打王に輝いた。	NO_PRONOUNCE	NO_LABEL
7月には、月間16本塁打のプロ野球新記録をマークしている。	しちがつにわ、げっかんじゅうろっぽんるいだのぷろやきゅーしんきろくをまーくしている。	NO_LABEL
16本目は満塁本塁打だっただった。	じゅうろっぽんめわまんるいほーむらんだっただった。	NO_LABEL
また、7月はオールスターゲームのある月であり、約1週間の公式戦中断がある中での記録だった。	また、しちがつわおーるすたーげーむのあるつきであり、やくいっしゅーかんのこーしきせんちゅーだんがあるなかでのきろくだった。	NO_LABEL
も40本塁打で本塁打王。	もよんじゅっぽんるいだでほんるいだおー。	NO_LABEL
8月26日の西武ライオンズ戦では史上24人目となる2000本安打を達成。	はちがつにじゅうろくにちのせいぶらいおんずせんでわしじょーにじゅうよにんめとなるにせんぼんあんだをたっせい。	NO_LABEL
は40歳にして打率.311、44本塁打、125打点で本塁打王、打点王、さらにMVPに輝く。	NO_PRONOUNCE	NO_LABEL
40歳で44本塁打は日本初の快挙であり、この年限りで消滅した南海での選手生活に花を添えた。	よんじっさいでよんじゅうよんほんるいだわにっぽんはつのかいきょであり、このとしかぎりでしょーめつしたなんかいでのせんしゅせいかつにはなをそえた。	NO_LABEL
40歳でのMVP選出はプロ野球史上最年長記録であり、40歳を意味する「不惑」という言葉はこの年の流行語にもなった。	NO_PRONOUNCE	NO_LABEL
その後、42歳で31本、44歳で7本と、それぞれ年齢別最多本塁打記録を作った。	そのご、よんじゅうにさいでさんじゅういっぽん、よんじゅうよんさいでななほんと、それぞれねんれいべつさいたほんるいだきろくをつくった。	NO_LABEL
に南海はダイエー本社に買収され福岡に移転することになったが、子供のためにこの時点での単身赴任を避けたく、また平和台球場は内外野とも人工芝であったため足腰の負担を考慮して「福岡は遠い。	NO_PRONOUNCE	NO_LABEL
何とか関西に残れないだろうか?」と球団に打診し、内田強・原田賢治・白井孝幸の3選手とのトレードによりオリックスに移籍。	NO_PRONOUNCE	NO_LABEL
移籍後も変わらぬ活躍で、ブルーサンダー打線の中核を担った。	いせきごもかわらぬかつやくで、ぶるーさんだーだせんのちゅーかくをになった。	NO_LABEL
1990年9月9日・10日の西武戦では2試合連続でサヨナラ本塁打を放っている。	NO_PRONOUNCE	NO_LABEL
オリックスでは、「強いチームというのは勝つときも負けるときも淡白でさらっとしている」と感じたという。	NO_PRONOUNCE	NO_LABEL
南海が低迷した一因として、いつでも全力で闘うため、手の抜きどころを知らず、シーズンの前半戦は善戦するも後半戦は息切れしていたことを挙げている。	なんかいがていめいしたいちいんとして、いつでもぜんりょくでたたかうため、てのぬきどころをしらず、しーずんのぜんはんせんわぜんせんするもこーはんせんわいきぎれしていたことをあげている。	NO_LABEL
これを「マラソンの25km地点で息切れするようなもの」と表現している。	NO_PRONOUNCE	NO_LABEL
、子供の進学で単身赴任が可能となる等の家庭環境の変化と古巣への愛着から、オリックスを自由契約となる形で古巣のホークスに復帰。	NO_PRONOUNCE	NO_LABEL
二桁に乗せる本塁打数を記録するが、年齢による衰えは隠せず、翌年の夏、記者に「オレは老衰」と漏らし、このシーズン限りで現役を引退。	NO_PRONOUNCE	NO_LABEL
引退試合は平和台球場でのプロ野球最終公式戦、3番DHで先発し1回裏近鉄の野茂英雄投手との対戦で、すべて速球をフルスイングで空振りし3球三振だった。	NO_PRONOUNCE	NO_LABEL
引退時に本塁打を奪った投手の数は184人。	いんたいじにほんるいだをうばったとーしゅのかずわひゃくはちじゅうよにん。	NO_LABEL
これは王貞治の183人を抑え、2003年に清原和博に抜かれるまで1位だった。	これわおーさだはるのひゃくはちじゅうさんにんをおさえ、にせんさんねんにきよはらかずひろにぬかれるまでいちーだった。	NO_LABEL
現在もパ・リーグ記録や同一リーグでの日本プロ野球記録である。	げんざいもぱりーぐきろくやどーいちりーぐでのにほんぷろやきゅーきろくである。	NO_LABEL
1993年から2005年まで朝日放送の野球解説者を務めた。	せんきゅうひゃくきゅうじゅうさんねんからにせんごねんまであさひほーそーのやきゅーかいせつしゃをつとめた。	NO_LABEL
1993年、1994年はスポーツニッポン評論家、1995年、1996年は日刊スポーツ評論家も務めた。	せんきゅうひゃくきゅうじゅうさんねん、せんきゅうひゃくきゅうじゅうよねんわすぽーつにっぽんひょーろんか、せんきゅうひゃくきゅうじゅうごねん、せんきゅうひゃくきゅうじゅうろくねんわにっかんすぽーつひょーろんかもつとめた。	NO_LABEL
2006年、野球殿堂入り。	にせんろくねん、やきゅーでんどーいり。	NO_LABEL
7月21日に神宮球場でのオールスターゲーム第1戦で行われた野球殿堂入り表彰式に、病気療養中ながら姿を見せている。	しちがつにじゅういちにちにじんぐーきゅーじょーでのおーるすたーげーむだいいちせんでおこなわれたやきゅーでんどーいりひょーしょーしきに、びょーきりょーよーちゅーながらすがたをみせている。	NO_LABEL
2009年に大阪ホークスドリームを設立し、総監督となる。	にせんきゅうねんにおーさかほーくすどりーむをせつりつし、そーかんとくとなる。	NO_LABEL
2011年6月、田中実監督が解任されたため、新監督に就任。	にせんじゅういちねんろくがつ、たなかみのるかんとくがかいにんされたため、しんかんとくにしゅーにん。	NO_LABEL
同年9月、契約満了に伴い退任。	どーねんくがつ、けいやくまんりょーにともないたいにん。	NO_LABEL
また、日本新薬硬式野球部の臨時コーチも務めている。	また、にっぽんしんやくこーしきやきゅーぶのりんじこーちもつとめている。	NO_LABEL
入団2年目のシーズン前に、当時ヘッドコーチを務めていたブレイザーの「打率3割を打てる理想的な2番打者を育てたい」との希望により、ブレイザーが投手役になって1週間ぶっ続けでバントの練習をさせられた。	NO_PRONOUNCE	NO_LABEL
しかし、野球を始めてからバントの練習などしたこともなかった門田は、一向にうまくできるようにはならず、ついにブレイザーは「オー、ノー、ギブアップ」と降参した。	NO_PRONOUNCE	NO_LABEL
1番は広瀬叔功、2番は失格で、「あいつはヒットならよく打つ。	NO_PRONOUNCE	NO_LABEL
それならオレの前を打たせておけ」ということで3番を打つことになったという。	NO_PRONOUNCE	NO_LABEL
に31本塁打、120打点で打点王になった頃から一発狙いの強振が目立ち始め、見かねた野村克也監督が、王に協力を頼んで「ヒットの延長がホームランなんだ」と2人で説得を図ったとのエピソードが残されている。	NO_PRONOUNCE	NO_LABEL
大阪スタヂアムのオープン戦でのことで、自説を撤回しない門田に二人とも呆れたという。	おーさかすたじあむのおーぷんせんでのことで、じせつをてっかいしないかどたにふたりともあきれたという。	NO_LABEL
また、挙句の果てに門田に「監督はずるい。	NO_PRONOUNCE	NO_LABEL
王さんと口裏を合わせている」と言われ、野村は「勝手にせえ」となってしまったとも言っている。	NO_PRONOUNCE	NO_LABEL
門田はあくまで長打にこだわった打撃を押し通し、「ホームランの当たり損ねがヒット」「ホームラン狙いをやめれば4割打てる」とも語っている。	NO_PRONOUNCE	NO_LABEL
オールスター戦では、当時東映フライヤーズの大杉勝男が説得役に担ぎ出されたという。	おーるすたーせんでわ、とーじとーえいふらいやーずのおーすぎかつおがせっとくやくにかつぎだされたという。	NO_LABEL
当時の南海には門田の手本になるような左打者がおらず、そのことで悩んでいたが、ある日凡退したあとベンチの隅にある鏡の前の水道で手を洗ってふと鏡を見ると、次打者の野村克也が反転して左打者として映っていた。	とーじのなんかいにわかどたのてほんになるよーなひだりだしゃがおらず、そのことでなやんでいたが、あるひぼんたいしたあとべんちのすみにあるかがみのまえのすいどーでてをあらってふとかがみをみると、じだしゃののむらかつやがはんてんしてひだりだしゃとしてうつっていた。	NO_LABEL
それ以来、門田は手を洗う格好をして「鏡の中の左打者」野村の打撃フォームを熱心に観察・研究した。	NO_PRONOUNCE	NO_LABEL
野村に話すと「参考になったやろ」と威張られるに決まっているからという理由で、門田は絶対にそのことは野村には言わなかったという。	NO_PRONOUNCE	NO_LABEL
フルスイングへのこだわりについて、門田は次のように語っている。	ふるすいんぐえのこだわりについて、かどたわつぎのよーにかたっている。	NO_LABEL
「ろくでもない解説者が、あんなに強く振らなくても、軽く打てばホームランになるんですけど、と言うやろ。	NO_PRONOUNCE	NO_LABEL
大間違いや。	だいまちがいや。	NO_LABEL
軽く振って本塁打にするにはどれだけ時間がかかるか知らんやつが言うこと。	かるくふってほんるいだにするにわどれだけじかんがかかるかしらんやつがいうこと。	NO_LABEL
確かに思い切って振ってるうちは30本は超えん。	たしかにおもいきってふってるうちわさんじゅっぽんわこえん。	NO_LABEL
でも、それが軽く振ってるように見えるのは、何万スイング、何十万スイングしているから、そう見えるわけよ。	でも、それがかるくふってるよーにみえるのわ、なんまんすいんぐ、なんじゅーまんすいんぐしているから、そーみえるわけよ。	NO_LABEL
そこを超越せんと軽く打ってるようには見えんのよ」「ワシは朝のコケコッコから、とにかく時間を忘れてバットを振った。	NO_PRONOUNCE	NO_LABEL
普通のやつは出来んから、おれは『変わり者』と言われるんやろな。	NO_PRONOUNCE	NO_LABEL
そこまでやらな、こんな小さな体で500本も打てんじゃろ」	NO_PRONOUNCE	NO_LABEL
2006年に野球殿堂入りした際のインタビューでも、「ネジってネジってバチン！というスイングをする選手が最近は少ない。	NO_PRONOUNCE	NO_LABEL
アウトコースを軽くミートして逆方向に打つホームランではロマンがない」と持論を展開している。	NO_PRONOUNCE	NO_LABEL
その頃のプロ野球の主力選手には珍しく大きな数字の背番号をつけており、しかも次第に大きくなっていった。	そのころのぷろやきゅーのしゅりょくせんしゅにわめずらしくおーきなすーじのせばんごーをつけており、しかもしだいにおーきくなっていった。	NO_LABEL
1980年から使用した44番はハンク・アーロンなどメジャーリーグの強打者に多いことや、44歳で亡くなった母親の供養の意味で44本の本塁打を目標とする意図からつけられた。	せんきゅうひゃくはちじゅうねんからしよーしたよんじゅうよんばんわはんくあーろんなどめじゃーりーぐのきょーだしゃにおーいことや、よんじゅうよんさいでなくなったははおやのくよーのいみでよんじゅうよんほんのほんるいだをもくひょーとするいとからつけられた。	NO_LABEL
1981年に実際に44本塁打を放って本塁打王を獲得すると、次は60本に目標を切り替えて背番号を60とした。	NO_PRONOUNCE	NO_LABEL
本塁打王と打点王を獲得した1988年に、日本テレビ系列で放映された「追跡」の特集では、インタビュアーであった作家の安部譲二に同年ホームラン王を獲得できたことに関して、「ここ7・8年、どこの球場でも場外を打つことがホームランという気力でやれたこと」と語っていた。	NO_PRONOUNCE	NO_LABEL
バットに関しては「速い球を重たいバットで打てるなら、遅い球でも対応できる」という考えを持っていた。	NO_PRONOUNCE	NO_LABEL
実際に門田が使用していたバットは重さ1000gの特大バットであった。	じっさいにかどたがしよーしていたばっとわおもさせんぐらむのとくだいばっとであった。	NO_LABEL
村田兆治は門田から生涯14本の本塁打を打たれているが、門田について次のように語っている。	むらたちょーじわかどたからしょーがいじゅうよんほんのほんるいだをうたれているが、かどたについてつぎのよーにかたっている。	NO_LABEL
「あれは昭和48年だったか、マサカリが完成してすぐだった。	NO_PRONOUNCE	NO_LABEL
絶対に打たれるはずのないひざ元へのスライダーを門田さんに打たれた。	ぜったいにうたれるはずのないひざもとえのすらいだーをかどたさんにうたれた。	NO_LABEL
失投ではなくて、完ぺきな球を本塁打にする打者。	しっとーでわなくて、かんぺきなたまをほんるいだにするだしゃ。	NO_LABEL
投げていて緊張感があった。	なげていてきんちょーかんがあった。	NO_LABEL
あれから、門田さんにスライダーを投げたことはない。	あれから、かどたさんにすらいだーをなげたことわない。	NO_LABEL
それぐらい悔しかった。	それぐらいくやしかった。	NO_LABEL
」	NO_PRONOUNCE	NO_LABEL
門田が「永遠のライバル」と称した山田久志は門田から28本塁打を浴びている。	NO_PRONOUNCE	NO_LABEL
山田は門田について、「本物のプロのバッターだった。	NO_PRONOUNCE	NO_LABEL
真っすぐを狙っているところに、真っすぐを投げた。	まっすぐをねらっているところに、まっすぐをなげた。	NO_LABEL
駆け引きが一切ない。	かけひきがいっさいない。	NO_LABEL
インハイとアウトローにすべて直球を投じた。	いんはいとあうとろーにすべてちょっきゅーをとーじた。	NO_LABEL
いい勝負ができた。	いいしょーぶができた。	NO_LABEL
」と証言している。	NO_PRONOUNCE	NO_LABEL
東尾修は、危ない球をすれすれに投げて、その反対球で打者をかわしていく投手であったが、ある試合の第1打席で、その危ない球が門田に当たった。	ひがしおおさむわ、あぶないたまをすれすれになげて、そのはんたいだまでだしゃをかわしていくとーしゅであったが、あるしあいのだいいちだせきで、そのあぶないたまがかどたにあたった。	NO_LABEL
その報復に、第3打席にピッチャー返しを東尾の太ももにお見舞いしたという。	そのほーふくに、だいさんだせきにぴっちゃーがえしをひがしおのふとももにおみまいしたという。	NO_LABEL
「トンビ、大丈夫か」「何を言うてますか。	NO_PRONOUNCE	NO_LABEL
バットは全部僕の方に向いとるじゃないですか」「わかっとったか」「わかっていましたよ」「お前、1打席目にオレに当てたやないか。	NO_PRONOUNCE	NO_LABEL
これでおあいこや」「そうですね」、とのやり取りがあり、以後、東尾は一切そのような投球をしてこなくなったという。	NO_PRONOUNCE	NO_LABEL
門田がターゲットを定め、燃えたのが新人との対決であった。	かどたがたーげっとをさだめ、もえたのがしんじんとのたいけつであった。	NO_LABEL
秋のドラフトで、野茂英雄が近鉄バファローズに入団することが決まったときには、「野茂からの第1号は俺が打つ」と決め、翌シーズンへ向け、ゴルフ場で走り込むなど準備を進め、4月18日の日生球場での近鉄-オリックス1回戦で、その目標を実現させている。	NO_PRONOUNCE	NO_LABEL
野茂の初登板は4月10日の西武戦であったが、門田は「誰も打つなよ」と念じ続け、願い通じ被本塁打0のまま迎えた18日も、4番に座る門田は「松永、福良、ブーマーホームラン打つなよ…絶対打つなよ…」と念じていたという。	NO_PRONOUNCE	NO_LABEL
小宮山悟に対しては、「『大学もプロも変わらない』みたいなコメントを読んだ瞬間、じゃあプロの打球を見せましょう。	NO_PRONOUNCE	NO_LABEL
で、ピッチャーライナーを一発見舞ったんや」と述べている。	NO_PRONOUNCE	NO_LABEL
アキレス腱断裂後のDHとしてのイメージの強い門田であるが、それ以前は右翼手としての守備も相当なレベルにあった。	あきれすけんだんれつごのでぃふぇんしぶはーふとしてのいめーじのつよいもんでんであるが、それいぜんわうよくしゅとしてのしゅびもそーとーなれべるにあった。	NO_LABEL
門田の守備能力については、中堅手だった広瀬叔功が自身の著書で、「彼は守備範囲も決して狭くなく、右中間寄りのフライもさばき、大声で叫ぶ声を聞いた記憶はほとんどない」「グラブを柔らかく使いこなした捕球も上手かったが、肩が強くてしばしばホームで相手走者を刺した」「打撃と違ってしゃにむに速い球を返すのではなく、無駄な動きを抑えて素早く正確にワンバウンドの送球をしていた」と証言している。	NO_PRONOUNCE	NO_LABEL
シーズン2桁補殺を5度記録している。	しーずんつーけたほさつをごどきろくしている。	NO_LABEL
アキレス腱断裂からの復帰後は、大半がDHでの出場となったが、南海時代末期には加藤英司がDHに入ったり、オリックス時代には石嶺和彦がDHに入ったために門田が守備に就くこともあり、その際は左翼手としての出場が大半であった。	あきれすけんだんれつからのふっきごわ、たいはんがでぃふぇんしぶはーふでのしゅつじょーとなったが、なんかいじだいまっきにわかとーひでじがでぃふぇんしぶはーふにはいったり、おりっくすじだいにわいしみねかずひこがでぃふぇんしぶはーふにはいったためにかどたがしゅびにつくこともあり、そのさいわさよくしゅとしてのしゅつじょーがたいはんであった。	NO_LABEL
1988年の球宴では指名打者部門が設置されておらず秋山幸二・平野謙と共にパ・リーグ外野手部門でファン投票選出され、ナゴヤ球場での第2戦に3番右翼手で先発出場。	NO_PRONOUNCE	NO_LABEL
門田より22歳下のセ・リーグ先発2番であった立浪和義が門田より17歳下のパ・リーグ先発投手阿波野秀幸から打った打球を捕球、ライトフライに仕留めている。	かどたよりにじゅうにさいかのせりーぐせんぱつにばんであったたつなみかずよしがかどたよりじゅうななさいかのぱりーぐせんぱつとーしゅあわのひでゆきからうっただきゅーをほきゅー、らいとふらいにしとめている。	NO_LABEL
南海時代、野村克也とソリが合わなかった。	なんかいじだい、のむらかつやとそりがあわなかった。	NO_LABEL
野村が門田の契約更改の交渉の場に入ってきて、「まだまだ働きが足らん。	NO_PRONOUNCE	NO_LABEL
大きなこと言える立場じゃないよ」などと、門田の年俸アップの足を引っ張ったこともある。	NO_PRONOUNCE	NO_LABEL
生一本な門田の気性を見通したプレイングマネージャーの選手操縦法という見方もできるが、門田はそう取らなかった。	きいっぽんなかどたのきしょーをみとおしたぷれいんぐまねーじゃーのせんしゅそーじゅーほーとゆうみかたもできるが、かどたわそーとらなかった。	NO_LABEL
衝突が決定的になったのは野村の愛人問題。	しょーとつがけっていてきになったのわのむらのあいじんもんだい。	NO_LABEL
「グラウンドにヨメハン連が出てくることはない。	NO_PRONOUNCE	NO_LABEL
野村さんにはとてもついていけない」と咬みついた。	NO_PRONOUNCE	NO_LABEL
野村が解任された1977年には当時の野村の愛人だった伊東芳枝が門田に電話で「あんた野村の言うことを聞かないと起用しない」と言ったと言う。	NO_PRONOUNCE	NO_LABEL
秋季練習のあと、中百舌鳥の合宿で、野村に「君たちの思っていることをオレに話してほしい」といわれ、手が挙げたのが、門田と江本孟紀、それに西岡三四郎であった。	NO_PRONOUNCE	NO_LABEL
そこで、言葉の行き違いがあり、「もう練習にこなくてもいい」と言われたので「ハイ、わかりました」といって練習に参加しなくなり、「門田、野村監督と対立」などとスポーツ紙に書かれて騒がれたという。	NO_PRONOUNCE	NO_LABEL
ただし、門田本人は自著で「そんなに大げさなものではなかった」と述べている。	NO_PRONOUNCE	NO_LABEL
野村は自著で、南海監督時代に手こずった江本、江夏、門田の3人を「南海の三悪人」と呼び、「選手として一流になれても指導者にはなれない」と語っている。	NO_PRONOUNCE	NO_LABEL
野村が解説者時代の「週刊朝日」の連載でも、「最後の野球バカ門田博光」と題し、「何かをいえばそれと反対のことをする男である」と評している。	NO_PRONOUNCE	NO_LABEL
しかし一方で、野村は、門田の実力を大いに認めている。	しかしいっぽーで、のむらわ、かどたのじつりょくをおーいにみとめている。	NO_LABEL
先述の通り門田を見い出し三番に抜擢したのは野村であり、「ものすごい頑張り屋」とも評している。	NO_PRONOUNCE	NO_LABEL
門田も従うべきところでは従っていたといわれ、また、「『二塁の桜井とライトの門田は10年間不動のままでいける』と野村に言ってもらい、信頼が厚くて助かった」とも述べている。	NO_PRONOUNCE	NO_LABEL
野村が3000試合出場の記念の記録を立てた試合で、門田は「こういう時に野村さんに恩返しをしたい」といってきたという。	NO_PRONOUNCE	NO_LABEL
何をしてくれるのかと思っていたら、キャッチャーマスクをかぶった野村の目の前で特大のホームランを2打席連続で放つ。	なにをしてくれるのかとおもっていたら、きゃっちゃーますくをかぶったのむらのめのまえでとくだいのほーむらんをにだせきれんぞくではなつ。	NO_LABEL
その後3打席目に立った門田に「もうわかったから、ええ加減にしとけや」とボヤくと、「二塁打ですませてくれた」のだという。	NO_PRONOUNCE	NO_LABEL
南海の後継球団である福岡ソフトバンクホークスでは、にホークス創設75周年を記念したプロジェクト「LEGEND HAWKS」を展開。	NO_PRONOUNCE	NO_LABEL
8月31日の対楽天戦の試合前に開かれた記念セレモニーには、野村と共に南海時代の復刻ユニフォーム姿で登場した。	はちがつさんじゅういちにちのたいらくてんせんのしあいまえにひらかれたきねんせれもにーにわ、のむらとともになんかいじだいのふっこくゆにふぉーむすがたでとーじょーした。	NO_LABEL
始球式では、球団会長の立場で「見届け人」として参加した王貞治に見守られながら、同ドームの左打席に立った。	NO_PRONOUNCE	NO_LABEL
入団1年目に、二塁走者として出ているとき帰塁の際に右肩を脱臼して以来、持病として脱臼癖を持っていた。	にゅーだんいちねんめに、にるいそーしゃとしてでているとききるいのさいにみぎかたをだっきゅーしていらい、じびょーとしてだっきゅーへきをもっていた。	NO_LABEL
1984年4月14日の日本ハム戦でホームランを打った際のハイタッチでその右肩を脱臼している。	せんきゅうひゃくはちじゅうよねんしがつじゅうよっかのにほんはむせんでほーむらんをうったさいのはいたっちでそのみぎかたをだっきゅーしている。	NO_LABEL
オリックス移籍1年目の1989年9月25日の対ダイエー戦でも、3回裏に本塁打を打ち、ホームで出迎えたブーマーからのハイタッチに応じた際に、再び右腕を脱臼。	おりっくすいせきいちねんめのせんきゅうひゃくはちじゅうきゅうねんくがつにじゅうごにちのたいだいえーせんでも、さんかいうらにほんるいだをうち、ほーむででむかえたぶーまーからのはいたっちにおーじたさいに、ふたたびうわんをだっきゅー。	NO_LABEL
このとき、登録抹消までには至らなかったが、シーズン終盤での貴重な約1週間を棒に振るアクシデントに見舞われている。	このとき、とーろくまっしょーまでにわいたらなかったが、しーずんしゅーばんでのきちょーなやくいっしゅーかんをぼーにふるあくしでんとにみまわれている。	NO_LABEL
この年は近鉄・西武とオリックスが最後まで競り合った末、近鉄が優勝したが、門田が登録抹消してから残り15試合はオリックスにとってダメージとなり、オリックスとしての初優勝は1995年まで持ち越しとなった。	NO_PRONOUNCE	NO_LABEL
1990年の西武戦で打席に立った際、投球を捕手の大宮龍男が落球し、1塁ランナーが進塁を試みるという場面があった。	NO_PRONOUNCE	NO_LABEL
ここで門田は、自らの足元にボールが転がっているのを確認していたにも関わらず、まだ必死でボールを探している大宮に向かって、全く別の方向を指差して撹乱するという珍プレーを披露している。	ここでかどたわ、みずからのあしもとにぼーるがころがっているのをかくにんしていたにもかかわらず、まだひっしでぼーるをさがしているおーみやにむかって、ぜんくべつのほーこーをゆびさしてかくらんするとゆうちんぷれーをひろーしている。	NO_LABEL
大宮は一瞬だがまんまと騙され、結局ランナーの進塁を許してしまい、門田を小突いている。	おーみやわいっしゅんだがまんまとだまされ、けっきょくらんなーのすすむるいをゆるしてしまい、かどたをこずいている。	NO_LABEL
南海・オリックス時代、当時住んでいた奈良市の学園前から近鉄奈良線・近鉄難波線で球場最寄り駅の一つである近鉄難波駅まで鉄道で移動していた。	NO_PRONOUNCE	NO_LABEL
理由は右足のアキレス腱断裂後の足のトレーニングを兼ねていたためである。	りゆーわみぎあしのあきれすけんだんれつごのあしのとれーにんぐをかねていたためである。	NO_LABEL
マイカーも持っていたが、運転で集中力を切らさないためにあえて避けていた。	まいかーももっていたが、うんてんでしゅーちゅーりょくをきらさないためにあえてさけていた。	NO_LABEL
グレープフルーツと共にゆで卵を摂取するデンマーク式ダイエットをオリックス時代に用いた時期があった。	ぐれーぷふるーつとともにゆでたまごをせっしゅするでんまーくしきだいえっとをおりっくすじだいにもちいたじきがあった。	NO_LABEL
その一方で好物はコーラという一面もある。	そのいっぽーでこーぶつわこーらとゆういちめんもある。	NO_LABEL
無理にパワーをつけようとして過度の食事を摂ったことで、現役時代から体調不良に悩まされた。	むりにぱわーをつけようとしてかどのしょくじをとったことで、げんえきじだいからたいちょーふりょーになやまされた。	NO_LABEL
ある日、自宅で休養していたところ、突然脈拍が乱れ、体温が急速に下がっていくのを感じた。	あるひ、じたくできゅーよーしていたところ、とつぜんみゃくはくがみだれ、たいおんがきゅーそくにさがっていくのをかんじた。	NO_LABEL
這いつくばりながら門田は外に出て、太陽を浴びると何とか持ち直した。	はいつくばりながらかどたわそとにでて、たいよーをあびるとなんとかもちなおした。	NO_LABEL
「あの時晴れていなければ、自分は死んでいただろう」と門田は述懐している。	NO_PRONOUNCE	NO_LABEL
2005年に小脳梗塞を発症し30日間入院したが、後遺症が出ることもなく退院した。	にせんごねんにしょーのーこーそくをはっしょーしさんじゅうにちかんにゅーいんしたが、こーいしょーがでることもなくたいいんした。	NO_LABEL
野球用語の使い方に強いこだわりを持つ。	やきゅーよーごのつかいかたにつよいこだわりをもつ。	NO_LABEL
打点は「」、犠打は「サクリファイス 」等々、原語の野球用語を使うことを心がけていた。	NO_PRONOUNCE	NO_LABEL
しかし、ドーム球場に対して屋根の付いていない球場のことを「ナチュラル球場」、「パ・リーグ」を「パアリーグ」と呼ぶなど、長嶋英語に匹敵する単語も解説の際しばしば飛び出した。	NO_PRONOUNCE	NO_LABEL
現役時代はマスコミとの接触をあまり好まなかった。	げんえきじだいわますこみとのせっしょくをあまりこのまなかった。	NO_LABEL
特に、普段は見向きもしないのに記録がかかると大挙して押し寄せて来る東京のマスコミを嫌っていた。	とくに、ふだんわみむきもしないのにきろくがかかるとたいきょしておしよせてくるとーきょーのますこみをきらっていた。	NO_LABEL
またマスコミのみならず、シャイで口下手な性格ゆえに「私は滅多に人を好きになれないようで、今日まで5人くらいしか気の許せる人はいない」ということである。	NO_PRONOUNCE	NO_LABEL
上記の「追跡」のインタビューでは、話す相手に性格が仇となって誤解を招かないかと心配していたこともあったという。	NO_PRONOUNCE	NO_LABEL
オリックス時代に平和台球場での試合で、福岡のファンからオリックスに移籍し福岡に来なかったことに対して、博多弁で「なんばしょっか」と野次られたが、本人は「難波のショッカー」に聞こえ、また「帰れ!」コールには「ホークスに帰ってこい」の意味と思い込み、福岡のファンは自分を応援してくれているのだと感動したという。	NO_PRONOUNCE	NO_LABEL
趣味は陶芸、油絵、写経など。	しゅみわとーげい、あぶらえ、しゃきょーなど。	NO_LABEL
陶芸は、陶器作りの過程に何か野球に通ずるものがあるのではないかと思い、それを追及しようとの気持ちの延長で始めたものだという。	とーげいわ、とーきずくりのかていになにかやきゅーにつーずるものがあるのでわないかとおもい、それをついきゅーしようとのきもちのえんちょーではじめたものだという。	NO_LABEL
引退後は広島市のお好み村に、広島風お好み焼き店を出していたことがある。	いんたいごわひろしましのおこのみむらに、ひろしまふーおこのみやきてんをだしていたことがある。	NO_LABEL
現役引退後の1993年1月26日放送のテレビドラマ「ホテルドクター」の第3話にラーメン屋台の主人役でゲスト出演した。	NO_PRONOUNCE	NO_LABEL
また、ABCのラジオ番組を持っていた時に、「笑ゥせぇるすまん」の喪黒福造の物真似を披露し、コーナーのタイトルを読み上げていた。	NO_PRONOUNCE	NO_LABEL
持ちネタとして他に、山下清の物真似も披露していた。	もちねたとしてほかに、やましたきよしのものまねもひろーしていた。	NO_LABEL
2006年7月21日、神宮球場でのオールスターゲーム第1戦で行われた野球殿堂入り表彰式のお礼の挨拶で、「最高のものを頂きました。	NO_PRONOUNCE	NO_LABEL
人生の“終着駅”に着いたかなという感じです」と発言。	NO_PRONOUNCE	NO_LABEL
終了後にその場にいた名球会の会長である金田正一から「二度とそんなことは言うな!」と叱責され、「これからも後進のために頑張ると約束してくれ」と言われたという。	NO_PRONOUNCE	NO_LABEL
2007年8月24日、8月31日の「小兵」をテーマとした『ナンだ!?』に、舞の海秀平、志村雄彦と共に出演。	NO_PRONOUNCE	NO_LABEL
「高校時代の3年間で1本も本塁打を打てなかった」などのエピソードを明かした。	NO_PRONOUNCE	NO_LABEL
夫人との間に一男一女。	ふじんとのまにいちなんいちじょ。	NO_LABEL
アキレス腱断裂で病院から自宅に戻ったあと、長男から職業を聞かれたことがきっかけで、「今度オールスターゲームに出たら、球場に来るか」と口にする。	NO_PRONOUNCE	NO_LABEL
復帰した1980年に門田はそれを子どもとの約束と考えてプレーに励み、パ・リーグの西本幸雄監督の推薦で出場を実現させた。	ふっきしたせんきゅうひゃくはちじゅうねんにかどたわそれをこどもとのやくそくとかんがえてぷれーにはげみ、ぱりーぐのにしもとゆきおかんとくのすいせんでしゅつじょーをじつげんさせた。	NO_LABEL
西宮球場の第1戦に家族を招き、その前で本塁打を放つことができた。	にしのみやきゅうじょーのだいいちせんにかぞくをまねき、そのまえでほんるいだをはなつことができた。	NO_LABEL
ホークスの福岡移転で門田が関西の他球団への移籍を申し出たことについて、門田を知る球団・球界関係者の多くは「子煩悩なカドさんなら仕方ないか」と納得していた部分もあった。	NO_PRONOUNCE	NO_LABEL
その後、娘の高校進学などでダイエーに移籍した。	そのご、むすめのこーこーしんがくなどでだいえーにいせきした。	NO_LABEL
南海時代の1980年オフに、スポーツニッポンで阪神タイガースの掛布雅之とのトレードが報じられた。	なんかいじだいのせんきゅうひゃくはちじゅうねんおふに、すぽーつにっぽんではんしんたいがーすのかけふまさゆきとのとれーどがほーじられた。	NO_LABEL
球団事務所に抗議が殺到したために流れてしまったが、トレードの話自体は本当にあったと門田本人が後年明かしている。	きゅーだんじむしょにこーぎがさっとーしたためにながれてしまったが、とれーどのはなしじたいわほんとーにあったとかどたほんにんがこーねんあかしている。	NO_LABEL
