あたりとしおのちょー、GENKIは、ミュージックバードで、2003年10月から2007年3月まで放送されていた番組。	NO_PRONOUNCE	NO_LABEL
放送時間は、毎週日曜日の19:00～20:55。	NO_PRONOUNCE	NO_LABEL
また、一部のコミュニティ放送局でもネットされていた。	また、いちぶのこみゅにてぃほーそーきょくでもねっとされていた。	NO_LABEL
通称「あたちょ」「ちょー、GENKI」。	NO_PRONOUNCE	NO_LABEL
あたりとしおをパーソナリティとして、トークを繰り広げていく。	あたりとしおをぱーそなりてぃとして、とーくをくりひろげていく。	NO_LABEL
また、オープニングと中断後には、ネタが放送される。	また、おーぷにんぐとちゅーだんごにわ、ねたがほーそーされる。	NO_LABEL
