トリニタイトはトリニティ実験の際に砂漠の砂が高温にさらされ一度溶けて生成された人工鉱物である。	とりにたいとわとりにてぃじっけんのさいにさばくのすながこーおんにさらされいちどとけてせいせいされたじんこーこーぶつである。	NO_LABEL
本来はトリニティ実験における生成鉱物に対して命名されたものであるが、この呼称は現在では核実験によって生成される同種の鉱物に対しても使われている。	ほんらいわとりにてぃじっけんにおけるせいせいこーぶつにたいしてめいめいされたものであるが、このこしょーわげんざいでわかくじっけんによってせいせいされるどーしゅのこーぶつにたいしてもつかわれている。	NO_LABEL
主成分はケイ素で淡い緑色を帯びたガラス質であるが、他の色のものも存在する。	しゅせいぶんわけいそであわいりょくしょくをおびたがらすしつであるが、たのいろのものもそんざいする。	NO_LABEL
中レベルの放射性があるが、短時間では素手で取り扱うことも可能である。	ちゅーれべるのほーしゃせいがあるが、たんじかんでわすででとりあつかうこともかのーである。	NO_LABEL
1940年代後半から50年代初期にかけて、鉱物マニアの間に新種の鉱石として流通した。	せんきゅうひゃくよんじゅうねんだいこーはんからごじゅうねんだいしょきにかけて、こーぶつまにあのまにしんしゅのこーせきとしてりゅーつーした。	NO_LABEL
今日でも当時のトリニティ実験場において採取することは可能であるが、ほとんどが1952年にアメリカ原子力委員会によって埋め立てられてしまっている。	きょーでもとーじのとりにてぃじっけんじょーにおいてさいしゅすることわかのーであるが、ほとんどがせんきゅうひゃくごじゅうにねんにあめりかげんしりょくいーんかいによってうめたてられてしまっている。	NO_LABEL
今やこの実験場から持ち出すことは違法になっているが、違法になる以前のものは今でもコレクターの手元にあり、インターネット上で売りに出されていることもある。	いまやこのじっけんじょーからもちだすことわいほーになっているが、いほーになるいぜんのものわいまでもこれくたーのてもとにあり、いんたーねっとじょーでうりにだされていることもある。	NO_LABEL
この石の生成過程についてロスアラモス国立研究所の科学者であるRobert HermesとWilliam Strickfadenらが2005年に説明している。	NO_PRONOUNCE	NO_LABEL
簡単に言えば、砂が単に火球に曝されただけで生成されたわけではなく、火球の中に舞いあげられた砂が溶けて液体になって降り積もったというものである。	かんたんにいえば、すながたんにかきゅーにさらされただけでせいせいされたわけでわなく、かきゅーのなかにまいあげられたすながとけてえきたいになってふりつもったとゆうものである。	NO_LABEL
近年の論文 では、トリニタイトに含まれる長寿命の放射性同位体のレベルについて報告されている。	きんねんのろんぶんでわ、とりにたいとにふくまれるちょーじゅいのちのほーしゃせいどーいたいのれべるについてほーこくされている。	NO_LABEL
パキスタンのモヘンジョ・ダロは核爆発によって滅びたとの説があるが、これはトリニタイトのようなものが遺跡から発見されたとされる事に由来する。	ぱきすたんのもへんじょだろわかくばくはつによってほろびたとのせつがあるが、これわとりにたいとのよーなものがいせきからはっけんされたとされることにゆらいする。	NO_LABEL
