泉屋東京店は、東京都千代田区麹町に本社をおく製菓業者である。	いずみやとーきょーてんわ、とーきょーとちよだくこーじまちにほんしゃをおくせいかぎょーしゃである。	NO_LABEL
クッキーの製造・販売で知られる。	NO_PRONOUNCE	NO_LABEL
クッキーは、1970年代には贈答品洋菓子の定番の一つに数えられた商品である。	くっきーわ、せんきゅうひゃくななじゅうねんだいにわぞーとーひんよーがしのていばんのひとつにかぞえられたしょーひんである。	NO_LABEL
創業者の泉伊助は、大阪の船場にあった「泉屋」という鉄や機械を扱う貿易商の3代目だった。	NO_PRONOUNCE	NO_LABEL
伊助と夫人の園子はともにクリスチャンであり、のちに移住した和歌山県で教会に通ううちアメリカ人宣教師のJ・H・ロイドと出会う。	NO_PRONOUNCE	NO_LABEL
園子夫人はロイドの妻からクッキー作りを学び、伊助も夫人とともにクッキー作りを研究するようになった。	そのこふじんわろいどのつまからくっきーずくりをまなび、いすけもふじんとともにくっきーずくりをけんきゅーするよーになった。	NO_LABEL
1923年、泉は京都に移り住み、そこでも焼いていたクッキーが評判となり、1927年に泉屋の看板を掲げてクッキーを売るようになる。	せんきゅうひゃくにじゅうさんねん、いずみわきょーとにうつりすみ、そこでもやいていたくっきーがひょーばんとなり、せんきゅうひゃくにじゅうななねんにいずみやのかんばんをかかげてくっきーをうるよーになる。	NO_LABEL
1937年には店舗を東京・赤坂に移転し、1952年には麹町に本社店舗を建設し法人化した。	NO_PRONOUNCE	NO_LABEL
