クリスティアン・ティーレマンは、ドイツ・ベルリン出身の指揮者である。	NO_PRONOUNCE	NO_LABEL
歌劇場コレペティートアとして経験を積んだのち、1988年から1992年までニュルンベルク州立劇場、1997年から2004年までベルリン・ドイツ・オペラ、2004年から2011年までミュンヘン・フィルハーモニー管弦楽団の音楽総監督をそれぞれ務めた。	NO_PRONOUNCE	NO_LABEL
2012年にシュターツカペレ・ドレスデンの首席指揮者に就任。	にせんじゅうにねんにしゅたーつかぺれどれすでんのしゅせきしきしゃにしゅーにん。	NO_LABEL
その他、ウィーン・フィルハーモニー管弦楽団やベルリン・フィルハーモニー管弦楽団などへ定期的に客演し、またバイロイト音楽祭やウィーン国立歌劇場で活躍するなど、コンサートとオペラ両面にて評価を得ている。	そのた、うぃーんふぃるはーもにーかんげんがくだんやべるりんふぃるはーもにーかんげんなどえていきてきにきゃくえんし、またばいろいとおんがくさいやうぃーんこくりつかげきじょーでかつやくするなど、こんさーととおぺらりょーめんにてひょーかをえている。	NO_LABEL
レパートリーとしては、ベートーヴェン、シューマン、ブラームス、ワーグナー、ブルックナー、リヒャルト・シュトラウス、プフィッツナーの作品を中心として、ドイツ・オーストリア系の古典派、ロマン派から20世紀初頭までの曲を得意としている。	NO_PRONOUNCE	NO_LABEL
音楽好きの両親のもとベルリンで生まれたティーレマンは、幼時より両親に連れられて室内楽やベルリン・フィルハーモニー管弦楽団の演奏会に通い、自らも5歳でピアノ、7歳でヴィオラを始め、後にピアノをベルリン音楽大学学長のヘルムート・ロロフに師事、カラヤン財団のオーケストラ・アカデミーに入った後はベルリン・フィルの当時の首席ヴィオラ奏者ジュスト・カッポーネからヴィオラとヴァイオリンを学び、これらの演奏で数多くの賞を受賞している。	NO_PRONOUNCE	NO_LABEL
また、並行して、かつてブルーノ・ワルターが学んだことでも知られるベルリンのシュテルン音楽院にて指揮や作曲などの個人レッスンも受けていた。	また、へいこーして、かつてぶるーのわるたーがまなんだことでもしられるべるりんのしゅてるんおんがくいんにてしきやさっきょくなどのこじんれっすんもうけていた。	NO_LABEL
そして、ベルリン・ドイツ・オペラの練習指揮者であったハンス・ヒルスドルフからピアノスコアの弾き方を学んだ後、当時、同歌劇場の事実上の常任指揮者であったハインリヒ・ホルライザーに認められ、1978年、19歳でベルリン・ドイツ・オペラのコレペティートアに採用された。	NO_PRONOUNCE	NO_LABEL
ホルライザーのアシスタントとなり、本格的に指揮者としての道を歩み始めたティーレマンであったが、そもそもティーレマンが指揮者となることを決意したのは、前述のような音楽学生時代を過ごす中で、ベルリン・ドイツ・オペラにて上演されたホルライザー指揮、ヴィーラント・ワーグナー演出による、リヒャルト・ワーグナーの『トリスタンとイゾルデ』を見たことであったという。	NO_PRONOUNCE	NO_LABEL
コレペティートアとして働くようになってからは、ヘルベルト・フォン・カラヤンとの交流も深まり、ベルリン・フィルの本拠地であるベルリン・フィルハーモニーとベルリン・ドイツ・オペラを行き来したり、ザルツブルク復活祭音楽祭への参加をはじめとして、彼らの演奏旅行に同行したりしながら、オペラとオーケストラ両面の研鑽を積むこととなる。	これぺてぃーとあとしてはたらくよーになってからわ、へるべるとふぉんからやんとのこーりゅーもふかまり、べるりんふぃるのほんきょちであるべるりんふぃるはーもにーとべるりんどいつおぺらをいききしたり、ざるつぶるくふっかつさいおんがくさいえのさんかをはじめとして、かれらのえんそーりょこーにどーこーしたりしながら、おぺらとおーけすとらりょーめんのけんさんをつむこととなる。	NO_LABEL
1980年には、カラヤンが弾き振りするブランデンブルク協奏曲のチェンバリストとして“ベルリン・フィルデビュー”も飾っている。	NO_PRONOUNCE	NO_LABEL
また、当時ベルリン・ドイツ・オペラに客演していたダニエル・バレンボイムのアシスタントも務め、その縁でパリをはじめとする各地での演奏会やバイロイト音楽祭においても筆頭助手として活躍した。	また、とーじべるりんどいつおぺらにきゃくえんしていただにえるばれんぼいむのあしすたんともつとめ、そのえんでぱりをはじめとするかくちでのえんそーかいやばいろいとおんがくさいにおいてもひっとーじょしゅとしてかつやくした。	NO_LABEL
バイロイト音楽祭への参加をきっかけとして、ホルスト・シュタインからアドバイスを受ける機会も得ているが、後にティーレマンは、ホルライザーとともに自分を一番可愛がってくれたのはシュタインであると語り、シュタインをカラヤンと同列の指揮者として挙げている。	ばいろいとおんがくさいえのさんかをきっかけとして、ほるすとしゅたいんからあどばいすをうけるきかいもえているが、のちにてぃーれまんわ、ほるらいざーとともにじぶんをいちばんかわいがってくれたのわしゅたいんであるとかたり、しゅたいんをからやんとどーれつのしきしゃとしてあげている。	NO_LABEL
その後、1982年よりゲルゼンキルヒェン音楽歌劇場の指揮者兼コレペティートア、カールスルーエ・バーデン州立劇場、ハノーファーのニーダーザクセン州立劇場にて経験を積んだ。	NO_PRONOUNCE	NO_LABEL
そして、1985年にデュッセルドルフのデュッセルドルフ・ライン歌劇場の首席指揮者としてキャリアをスタート、1988年にはニュルンベルク州立劇場の音楽総監督に就任した。	NO_PRONOUNCE	NO_LABEL
これは当時ドイツ国内では最年少の音楽総監督であった。	これわとーじどいつこくないでわさいねんしょーのおんがくそーかんとくであった。	NO_LABEL
この間、1983年にはイタリアの名門フェニーチェ劇場において、ワーグナー没後100年を記念した『パルジファル』を指揮し、好評を得た。	NO_PRONOUNCE	NO_LABEL
1987年には、ウィーン国立歌劇場へモーツァルトの『コジ・ファン・トゥッテ』を指揮してデビューし、続けてモーツァルトの『フィガロの結婚』やヴェルディの『椿姫』などを10回指揮したものの、この時は人気を得るには至らず、以降しばらく遠ざかることになるという苦い経験も有している。	NO_PRONOUNCE	NO_LABEL
1990年代に入ると、ティーレマンの音楽活動は国際的な広がりを見せ始める。	せんきゅうひゃくきゅうじゅうねんだいにはいると、てぃーれまんのおんがくかつどーわこくさいてきなひろがりをみせはじめる。	NO_LABEL
1991年に『ローエングリン』を指揮してベルリン・ドイツ・オペラにデビューした後は、ワーグナーをはじめモーツァルトやプフィッツナーのオペラ、ベートーヴェンやシューマンの交響曲などを指揮し、同歌劇場との関係を深めていく。	NO_PRONOUNCE	NO_LABEL
並行して、1990/1991年にはサンフランシスコ歌劇場で『エレクトラ』を指揮してアメリカ・デビュー、1993年にはボローニャ市立劇場の首席客演指揮者に就任、クラウス・テンシュテットの代役としてシカゴ交響楽団を指揮してアメリカのオーケストラ・デビュー、また、メトロポリタン歌劇場ではカルロス・クライバーの代役として『ばらの騎士』を指揮してデビュー、同劇場から改めて『アラベラ』の依頼が来ることとなった。	NO_PRONOUNCE	NO_LABEL
1995年には名門ドイツ・グラモフォンと専属契約を結び、フィルハーモニア管弦楽団を指揮したベートーヴェンの交響曲第5番・第7番、ベルリン・ドイツ・オペラ管弦楽団を指揮したプフィッツナーとリヒャルト・シュトラウスの管弦楽曲集をリリースしてCDデビューを果たし、現在に到るまで多くのCDやDVDを発表している。	NO_PRONOUNCE	NO_LABEL
1997年には、ついに古巣ベルリン・ドイツ・オペラの音楽総監督に就任した。	せんきゅうひゃくきゅうじゅうななにわ、ついにふるすべるりんどいつおぺらのおんがくそーかんとくにしゅーにんした。	NO_LABEL
このようにティーレマンは、純粋なドイツ人指揮者、しかも音楽学校出身で指揮者コンクールに入賞した指揮者が広く活躍している近年の音楽界の中で、ヴィルヘルム・フルトヴェングラーやハンス・クナッパーツブッシュといった、かつてのドイツ人指揮者と同じく歌劇場でカペルマイスターの修業を積んだ指揮者として、国際的に脚光を浴びるようになっていったのである。	NO_PRONOUNCE	NO_LABEL
ベルリン・ドイツ・オペラでは、有名なものから無名なものに至るまでのリヒャルト・シュトラウスの作品及び『さまよえるオランダ人』から『パルジファル』までのワーグナーの主要作品を上演してスペシャリストとしての名声を確立した他、モーツァルトやプフィッツナーの作品、あるいは現代作品も数多く手がけた。	NO_PRONOUNCE	NO_LABEL
現在のところティーレマンのレパートリーの中心はワーグナーやリヒャルト・シュトラウスを中心としたドイツ・オペラであるが、イタリアの作品やフランスの作品へも積極的に取り組む姿勢を見せている。	NO_PRONOUNCE	NO_LABEL
ベルリン・ドイツ・オペラの総監督として実り多い活動を展開したが、2000年頃より始まったベルリンの三つの歌劇場をめぐる政治改革を経た後、ティーレマンはベルリン・ドイツ・オペラの楽員や上演に当たっての条件改善を訴えるも受け入れられず、「削減された限られた予算で芸術的水準を保つのは不可能」として、2004年のシーズンをもって辞任することとなってしまった。	NO_PRONOUNCE	NO_LABEL
既にジェームズ・レヴァインの後任として、2004年より7年間の契約でミュンヘン・フィルハーモニー管弦楽団の音楽総監督に就任することが決定しており、ティーレマンとしてはベルリンとミュンヘンとを拠点として活動する予定であったが、ベルリン・ドイツ・オペラ辞任によりミュンヘンを中心に活動していくこととなった。	NO_PRONOUNCE	NO_LABEL
2004年10月29日、音楽総監督就任披露演奏会で取り上げたのはブルックナーの交響曲第5番であった。	にせんよねんじゅーがつにじゅうきゅうにち、おんがくそーかんとくしゅーにんひろーえんそーかいでとりあげたのわぶるっくなーのこーきょーきょくだいごばんであった。	NO_LABEL
ブルックナーの作品はティーレマンの得意とするところであるが、ミュンヘン・フィルが本拠地とするガスタイク文化センター内のフィルハーモニー・ホールのこけら落とし公演でも演奏された曲であり、その指揮を執るとともに楽団の黄金時代を築いたセルジュ・チェリビダッケが得意とした曲の一つでもあったことから、ミュンヘン・フィルにおけるブルックナー演奏の歴史を受け継ぐという決意が込められていると言われる。	NO_PRONOUNCE	NO_LABEL
就任演奏会での演奏はCDもリリースされており、ティーレマンとミュンヘン・フィルによる他の録音とともに高く評価され、今後もブルックナーの交響曲全集の完成が計画されている。	NO_PRONOUNCE	NO_LABEL
ティーレマンはベルリン・ドイツ・オペラ辞任以降、オペラに関してはウィーン国立歌劇場、バイロイト音楽祭に絞って指揮しているが、ドイツの温泉保養地バーデン＝バーデンにて開催されるバーデン＝バーデン音楽祭では、シンフォニー・オーケストラであるミュンヘン・フィルをオーケストラ・ピットに入れてオペラ上演を行い、その一部は収録されリリースされている他、ワーグナーの『ニーベルングの指環』などを上演・収録する予定もあった。	NO_PRONOUNCE	NO_LABEL
また、ティーレマンとミュンヘン・フィルは、2005年10月4日バチカンにて行われた新ローマ教皇ベネディクト16世を祝う御前演奏会や、2006年6月7日ドイツワールドカップの開会式が挙行されたミュンヘンでのガラ・コンサートなどにも出演し演奏を披露している。	NO_PRONOUNCE	NO_LABEL
このように、順調に活動を行ったティーレマンとミュンヘン・フィルであるが、俄に亀裂が生じることとなった。	NO_PRONOUNCE	NO_LABEL
2009年の夏、2012年以降の契約の更新に際して、ミュンヘン・フィルを運営するミュンヘン市は客演指揮者とプログラムの選定に関する権限を楽団総裁に与え、結果として音楽総監督の芸術的権利を制限することとした。	NO_PRONOUNCE	NO_LABEL
ティーレマンはこの条項に納得せず、交渉が決裂したのである。	てぃーれまんわこのじょーこーになっとくせず、こーしょーがけつれつしたのである。	NO_LABEL
その後、ティーレマン側はミュンヘンに留まりたい意向を示し、サヴァリッシュやフィッシャー＝ディースカウ、ルネ・コロ、ブレンデルといった往年の巨匠から、ブーレーズやバレンボイム、あるいはクレーメルやグリモー、ドミンゴ、ハンプソン、そして現ウィーン国立歌劇場総監督ドミニク・マイヤーに到るまで総勢30名を越える著名音楽家たちも連名でティーレマンの延長をミュンヘン市に求めたが、結局折り合わず、2011年を最後にミュンヘンを去ることとなってしまった。	NO_PRONOUNCE	NO_LABEL
前述のベルリン・ドイツ・オペラ辞任をめぐる経緯や、当初よりミュンヘン・フィルとの契約に盛り込まれていた「市当局が楽団員の人数及び予算を必要以上に削減しないこと、もし削減が行われた場合は正当に辞任することができる」という旨の条項からも解る通り、芸術的事項に関しては妥協を許していない。	NO_PRONOUNCE	NO_LABEL
今後、ティーレマンは2012年のシーズンより7年間の契約で、チューリヒ歌劇場に転出するファビオ・ルイージの後任として、シュターツカペレ・ドレスデンの首席指揮者に就任した。	こんご、てぃーれまんわにせんじゅうにねんのしーずんよりななねんかんのけいやくで、ちゅーりひかげきじょーにてんしゅつするふぁびおるいーじのこーにんとして、しゅたーつかぺれどれすでんのしゅせきしきしゃにしゅーにんした。	NO_LABEL
2009年9月の定期演奏会をルイージが病気キャンセルした際、ティーレマンがその代役としてブルックナーの交響曲第8番を指揮し、それをきっかけとして、かねてよりルイージの後任を探していたドレスデンとの交渉が急速にまとまったのである。	にせんきゅうねんくがつのていきえんそーかいをるいーじがびょーききゃんせるしたさい、てぃーれまんがそのだいやくとしてぶるっくなーのこーきょーきょくだいはちばんをしきし、それをきっかけとして、かねてよりるいーじのこーにんをさがしていたどれすでんとのこーしょーがきゅーそくにまとまったのである。	NO_LABEL
ただし、ルイージは、同楽団が行う2010年ジルベスター・コンサートの指揮者にティーレマンが指名されたことを理由として、任期満了を待たずに一方的に契約を解除している。	NO_PRONOUNCE	NO_LABEL
もっとも、ルイージの辞任に関しては、この件のみが原因ではなく、もともとのSKDとの関係悪化が原因であるとの意見がある。	もっとも、るいーじのじにんにかんしてわ、このけんのみがげんいんでわなく、もともとのえすけーでぃーとのかんけいあっかがげんいんであるとのいけんがある。	NO_LABEL
ティーレマンは、ルイージが辞任したことによって音楽総監督・首席指揮者が欠けた穴を埋めるべく、首席指揮者就任に先んじて事態の収拾に努めている。	NO_PRONOUNCE	NO_LABEL
SKDのジルベスター・コンサートがZDFによって放送されるのは2010年が初めてのことであるが、その生中継は同日の同じ時間にARDによって生中継されたグスターボ・ドゥダメル指揮ベルリン・フィルによるジルベスター・コンサートの視聴率を上回り、早くもティーレマンとSKDの人気の高さを見せつけることとなった。	NO_PRONOUNCE	NO_LABEL
また、このコンサートの模様を収めたCD・DVDはドイツ・グラモフォンよりスピード・リリースされた。	NO_PRONOUNCE	NO_LABEL
ドレスデンにおけるポストは、まずはザクセン州立ドレスデン歌劇場の専属管弦楽団であるシュターツカペレ・ドレスデンの首席指揮者にとどまるが、発表された活動内容によるとオペラ上演にも多く関わる模様である。	どれすでんにおけるぽすとわ、まずわざくせんしゅーりつどれすでんかげきじょーのせんぞくかんげんがくだんであるしゅたーつかぺれどれすでんのしゅせきしきしゃにとどまるが、はっぴょーされたかつどーないよーによるとおぺらじょーえんにもおーくかかわるもよーである。	NO_LABEL
同楽団には2003年に初登場して以来、これまでも度々客演しており、ほとんどの楽団メンバーとはバイロイト音楽祭でも共演しているため、この組み合わせによる今後の活躍が期待されている。	どーがくだんにわにせんさんねんにはつとーじょーしていらい、これまでもたびたびきゃくえんしており、ほとんどのがくだんめんばーとわばいろいとおんがくさいでもきょーえんしているため、このくみあわせによるこんごのかつやくがきたいされている。	NO_LABEL
加えて、2013年からは、ザルツブルク復活祭音楽祭の芸術監督に就任し、SKDとともに同音楽祭に出演することが決まっている。	くわえて、にせんじゅうさんねんからわ、ざるつぶるくふっかつさいおんがくさいのげいじゅつかんとくにしゅーにんし、えすけーでぃーとともにどーおんがくさいにしゅつえんすることがきまっている。	NO_LABEL
この音楽祭は、カラヤンが故郷ザルツブルクにおいて、ベルリン・フィルを起用しオペラ上演を行うことを目的として創設したものであり、カラヤン死後も基本的にベルリン・フィルとその歴代音楽監督によって引き継がれてきた。	このおんがくさいわ、からやんがこきょーざるつぶるくにおいて、べるりんふぃるをきよーしおぺらじょーえんをおこなうことをもくてきとしてそーせつしたものであり、からやんしごもきほんてきにべるりんふぃるとそのれきだいおんがくかんとくによってひきつがれてきた。	NO_LABEL
しかし、2011年、サイモン・ラトルおよびベルリン・フィルはザルツブルクからの撤退を一方的に通告し、契約を打ち切ったのである。	しかし、にせんじゅういちねん、さいもんらとるおよびべるりんふぃるわざるつぶるくからのてったいをいっぽーてきにつーこくし、けいやくをうちきったのである。	NO_LABEL
その後任として、ティーレマンおよびSKDが選ばれたのであった。	そのこーにんとして、てぃーれまんおよびえすけーでぃーがえらばれたのであった。	NO_LABEL
1999年5月、ベルリン・ドイツ・オペラにおける『ローエングリン』に感銘を受けたバイロイト音楽祭総監督・演出家・舞台美術家ヴォルフガング・ワーグナーは、ただちに音楽祭へのティーレマンの招聘を決定し、翌2000年に『ニュルンベルクのマイスタージンガー』を指揮してデビューを果たした。	NO_PRONOUNCE	NO_LABEL
この時は、「観客のみならず演奏家たちからも絶大な信用と尊敬を勝ち得ていた」と評され、実際にそれ以降毎年客演を重ねている。	NO_PRONOUNCE	NO_LABEL
2001年はバイロイト音楽祭が1951年に再開されてから50年という節目の年であり、その記念として、ワーグナーの作品のみが上演される音楽祭において唯一の例外であるベートーヴェンの交響曲第9番の演奏が行なわれた。	にせんいちねんわばいろいとおんがくさいがせんきゅうひゃくごじゅういちねんにさいかいされてからごじゅうねんとゆうふしめのとしであり、そのきねんとして、わーぐなーのさくひんのみがじょーえんされるおんがくさいにおいてゆいいつのれいがいであるべーとーべんのこーきょーきょくだいきゅうばんのえんそーがおこなわれた。	NO_LABEL
音楽祭としてはワーグナー生誕150年を記念した1963年以来38年ぶり、かつ1872年のバイロイト祝祭劇場定礎式にてワーグナー自身が演奏して以来、音楽祭としては6回目の第九演奏であるが、このコンサートの指揮を委ねられたのは前年に同音楽祭にデビューしたばかりのティーレマンであった。	おんがくさいとしてわわーぐなーせいたんひゃくごじゅうねんをきねんしたせんきゅうひゃくろくじゅうさんねんいらいさんじゅうはちねんぶり、かつせんはっぴゃくななじゅうにねんのばいろいとしゅくさいげきじょーていそしきにてわーぐなーじしんがえんそーしていらい、おんがくさいとしてわろくかいめのだいきゅーえんそーであるが、このこんさーとのしきをゆだねられたのわぜんねんにどーおんがくさいにでびゅーしたばかりのてぃーれまんであった。	NO_LABEL
また、この年の音楽祭では第九だけではなく、前年に引き続き『ニュルンベルクのマイスタージンガー』、そして『パルジファル』の最終年も指揮もしている。	NO_PRONOUNCE	NO_LABEL
1951年にバイロイト音楽祭が再開された際、第九の指揮をしたのがフルトヴェングラーであり、そして『パルジファル』の指揮をしたのがクナッパーツブッシュであり、『ニュルンベルクのマイスタージンガー』の指揮をしたのがクナッパーツブッシュとカラヤンであった。	NO_PRONOUNCE	NO_LABEL
奇しくも、半世紀の時を経て、フルトヴェングラーとクナッパーツブッシュに私淑し、カラヤンに教えを受けたティーレマンが、これらを一手に担ったのである。	NO_PRONOUNCE	NO_LABEL
以上に加え、ティーレマンがバイロイト音楽祭にデビューした『ニュルンベルクのマイスタージンガー』は、音楽祭において1953年以来49年にわたって演出を手がけてきたヴォルフガング・ワーグナー総監督の最後の演出作品であり、早々に2002年からの『タンホイザー』の指揮者に指名され、2006年からの『ニーベルングの指環』の内定を受けるなど、音楽祭デビュー後一貫してヴォルフガングの厚い信頼を得ている。	NO_PRONOUNCE	NO_LABEL
2006年から担当した『ニーベルングの指環』のうち、特に2008年の公演はCDとしてリリースされたが、バイロイト音楽祭における『ニーベルングの指環』のライヴ録音がリリースされるのは1966年・1967年のカール・ベームの指揮によるもの以来のことである。	NO_PRONOUNCE	NO_LABEL
2010年の公演では、四部作のうち2作目に当たる『ワルキューレ』がバイロイトから世界で初めて生中継され、注目を集めた。	NO_PRONOUNCE	NO_LABEL
また、2010年に死去したヴォルフガング・ワーグナーの追悼演奏会でも指揮をとったほか、2011年こそザルツブルク音楽祭出演のため休みであるものの、2012年からは新演出の『さまよえるオランダ人』、2015年からはカタリーナ・ワーグナー新演出による『トリスタンとイゾルデ』の指揮が予定されている。	NO_PRONOUNCE	NO_LABEL
このように、いまや名実ともにバイロイト音楽祭の中心的人物となっているティーレマンだが、ヴォルフガングの二人の実娘カタリーナ・ワーグナーとエーファ・ワーグナー・パスキエ新総監督へと代替わりした体制において、いよいよ音楽祭の音楽監督たる音楽顧問の地位に就くとの意見がある。	NO_PRONOUNCE	NO_LABEL
首席指揮者に就任するシュターツカペレ・ドレスデン以外では、特にウィーン・フィルハーモニー管弦楽団との関係は緊密で、2000年10月に好評をもってデビューして以来、定期演奏会、特別演奏会や音楽祭、演奏旅行を問わず頻繁に客演を重ねている。	しゅせきしきしゃにしゅーにんするしゅたーつかぺれどれすでんいがいでわ、とくにうぃーんふぃるはーもにーかんげんがくだんとのかんけいわきんみつで、にせんねんじゅーがつにこーひょーをもってでびゅーしていらい、ていきえんそーかい、とくべつえんそーかいやおんがくさい、えんそーりょこーをとわずひんぱんにきゃくえんをかさねている。	NO_LABEL
2008年秋からは、同楽団とウィーン楽友協会、オーストリア放送協会、ユニテルの共同プロジェクトとして、ウィーンにおけるベートーヴェンの交響曲全曲演奏会とその録画・録音を行ったのち、パリ及びベルリンにおいても全曲演奏会が開かれた。	NO_PRONOUNCE	NO_LABEL
さらに、今後もシューマンの交響曲全集の録画・録音が計画されている。	NO_PRONOUNCE	NO_LABEL
2010年は、ウィーン・フィルの創設者であるオットー・ニコライの生誕200年にあたる記念年であった。	にせんじゅうねんわ、うぃーんふぃるのそーせつしゃであるおっとーにこらいのせいたんにひゃくねんにあたるきねんねんであった。	NO_LABEL
そのため、ニコライの生誕の地ケーニヒスベルクにおいて、ウィーン・フィルによるガラ・コンサートが催されたが、その指揮を任されたのもティーレマンであった。	そのため、にこらいのせいたんのちけーにひすべるくにおいて、うぃーんふぃるによるがらこんさーとがもよおされたが、そのしきをまかされたのもてぃーれまんであった。	NO_LABEL
このように、楽団からも絶大な信頼が寄せられている。	このよーに、がくだんからもぜつだいなしんらいがよせられている。	NO_LABEL
2003年には、ウィーン国立歌劇場においては1967年以来となるワーグナーの『トリスタンとイゾルデ』の新演出のプレミエを指揮し、15年ぶりに復帰を果たした。	NO_PRONOUNCE	NO_LABEL
その圧倒的な成功によって鮮烈な再デビューを飾った後は定期的に出演し、その一部はライヴ録音としてCDやDVDもリリースされている。	そのあっとーてきなせいこーによってせんれつなさいでびゅーをかざったのちわていきてきにしゅつえんし、そのいちぶわらいぶろくおんとしてきゃっしゅでぃすぺんさーやでぃーぶいでぃーもりりーすされている。	NO_LABEL
2004/2005年シーズンの最後の演目は、同シーズンをもって退任する予定となっていたウィーン国立歌劇場総監督イアン・ホーレンダーが幕引きのために用意したワーグナーの『パルジファル』であり、その指揮を任されたのもティーレマンであった。	NO_PRONOUNCE	NO_LABEL
また、2005年11月5日に行われたウィーン国立歌劇場再建50周年記念ガラ・コンサートにおいては、小澤征爾やズービン・メータといったウィーン縁のベテラン指揮者とともに、その後同歌劇場音楽総監督に就任することとなるフランツ・ウェルザー＝メストと並んで出演している。	また、にせんごねんじゅーいちがついつかにおこなわれたうぃーんこくりつかげきじょーさいけんごじゅうしゅーねんきねんがらこんさーとにおいてわ、おざわせいじやずーびんめーたといったうぃーんえんのべてらんしきしゃとともに、そのごどーかげきじょーおんがくそーかんとくにしゅーにんすることとなるふらんつうぇるざーめすととならんでしゅつえんしている。	NO_LABEL
このように、ティーレマンはウィーンにおいて次代を担うドイツ・オーストリア系指揮者として確固たる地位を築いており、ウェルザー＝メスト新監督もまたティーレマンを積極的に招聘したい意向を示している。	NO_PRONOUNCE	NO_LABEL
これまでにドイツ国内やヨーロッパ各地のオーケストラをはじめ、シカゴ交響楽団、ニューヨーク・フィルハーモニック、クリーヴランド管弦楽団、フィラデルフィア管弦楽団、イスラエル・フィルハーモニー管弦楽団など世界の数多くのオーケストラへ客演し、特にウィーン・フィルハーモニー管弦楽団、ベルリン・フィルハーモニー管弦楽団などへは定期的に客演を行なっている。	NO_PRONOUNCE	NO_LABEL
ベルリン・フィルにおいては、前述のようにティーレマン自身がベルリン出身であり、幼い頃からその演奏会に通い、また、奏者として楽団の中で演奏を学んだり、指揮者としてヘルベルト・フォン・カラヤンのアシスタントを務めるなど縁が深い。	べるりんふぃるにおいてわ、ぜんじゅつのよーにてぃーれまんじしんがべるりんしゅっしんであり、おさないころからそのえんそーかいにかよい、また、そーしゃとしてがくだんのなかでえんそーをまなんだり、しきしゃとしてへるべるとふぉんからやんのあしすたんとをつとめるなどえんがふかい。	NO_LABEL
定期演奏会へデビューしたのは1996年のことであるが、クラウディオ・アバド辞任後の首席指揮者・芸術監督の候補として、サイモン・ラトルやマリス・ヤンソンスらとともに名が挙がった一人であり、その後ラトルが就任してからも定期的に客演している。	NO_PRONOUNCE	NO_LABEL
また、同じ世代の中では定期的に指揮台に招かれているほぼ唯一の指揮者となっており、「ドイツ人指揮者として無視できない大物」と評されているばかりでなく、ラトル後のベルリン・フィルの常任指揮者に最も近いという意見があった。	NO_PRONOUNCE	NO_LABEL
近年は得意とするブルックナーやブラームス、リヒャルト・シュトラウスといったドイツ・オーストリア系レパートリーを披露しており、それらの演奏はベルリン・フィルが運営しているデジタル・コンサートホールのアーカイブでも視聴可能である。	NO_PRONOUNCE	NO_LABEL
2015年、ラトル退任後のベルリン・フィルの首席指揮者・芸術監督の選考が行われ、候補としてティーレマンの名も挙がったが、最終的にキリル・ペトレンコに決定している。	NO_PRONOUNCE	NO_LABEL
ティーレマンが初めて日本の土を踏んだのは、ギムナジウム卒業直後、観光旅行のために訪れたときであったという。	てぃーれまんがはじめてにっぽんのどをふんだのわ、ぎむなじうむそつぎょーちょくご、かんこーりょこーのためにおとずれたときであったという。	NO_LABEL
指揮者としての来日は、レナード・バーンスタインの提唱で始まったパシフィック・ミュージック・フェスティバルにレジデント・オーケストラとして参加するため初来日したローマ聖チェチーリア音楽院管弦楽団に同行したときが初めてである。	NO_PRONOUNCE	NO_LABEL
1993年7月、PMFにおいて同オーケストラを指揮してシューマンの交響曲第4番、モーツァルトの『ドン・ジョヴァンニ』のアリアとベートーヴェンのコンサート・アリアといったプログラム、メンデルスゾーンのヴァイオリン協奏曲及びブラームスの交響曲第1番というプログラムを演奏、東京でも同様のプログラムで演奏会が行われた。	NO_PRONOUNCE	NO_LABEL
同年9月から10月には、ベルリン・ドイツ・オペラの日本公演に、ハインリヒ・ホルライザーや当時の音楽監督ラファエル・フリューベック・デ・ブルゴスらに同行して来日、この時はワーグナーの『ニュルンベルクのマイスタージンガー』 『トリスタンとイゾルデ』 『ローエングリン』とベルリン・ドイツ・オペラ管弦楽団のオーケストラ・コンサートが行われたが、そのうちティーレマンは『ローエングリン』の指揮を担当した。	NO_PRONOUNCE	NO_LABEL
その後1998年1月から2月にかけ、ベルリン・ドイツ・オペラの新たな音楽監督として同劇歌場を率いて日本公演を行い、ワーグナーの『さまよえるオランダ人』 『タンホイザー』、リヒャルト・シュトラウスの『ばらの騎士』の公演のうち、ワーグナーの2つの楽劇を指揮。	NO_PRONOUNCE	NO_LABEL
ベルリン・ドイツ・オペラ管弦楽団のオーケストラ・コンサートでは、リヒャルト・シュトラウスの『日本の皇紀二千六百年に寄せる祝典曲』、ベートーヴェンのヴァイオリン協奏曲、ブラームスの交響曲第1番というプログラムを演奏した。	NO_PRONOUNCE	NO_LABEL
また、ベルント・ヴァイクルらを迎えた「ワーグナー・ガラ」コンサートを行った。	NO_PRONOUNCE	NO_LABEL
2003年11月にはヴォルフガング・サヴァリッシュとともにウィーン・フィルハーモニー管弦楽団を率いて来日し、それぞれが数公演ずつ担当する予定であった。	NO_PRONOUNCE	NO_LABEL
しかし、来日直前にサヴァリッシュが病気キャンセルした結果、プログラムを一部変更の上でティーレマンの指揮により日本演奏旅行が行われることとなった。	NO_PRONOUNCE	NO_LABEL
この時は、リヒャルト・シュトラウスの歌曲、ブラームスの交響曲第1番というプログラム、ベートーヴェンの交響曲第6番、リヒャルト・シュトラウスの『英雄の生涯』というプログラム、ワーグナーの管弦楽曲、ブルックナーの交響曲第7番というプログラムを演奏した。	NO_PRONOUNCE	NO_LABEL
2007年11月にはミュンヘン・フィルハーモニー管弦楽団の音楽総監督に就任後初めての日本演奏旅行を行ない、ブルックナーの交響曲第5番という1曲だけのプログラム、リヒャルト・シュトラウスの『ドン・ファン』 『死と変容』、ブラームスの交響曲第1番というプログラムを演奏した。	NO_PRONOUNCE	NO_LABEL
2度目となる2010年3月の日本演奏旅行ではブルックナーの交響曲第8番という1曲だけのプログラム、ワーグナーの管弦楽曲、ブラームスのヴァイオリン協奏曲、ベートーヴェンの交響曲第5番というプログラムを演奏した。	NO_PRONOUNCE	NO_LABEL
2012年10月に首席指揮者としてシュターツカペレ・ドレスデンを率いての日本演奏旅行をおこなった。	にせんじゅうにねんじゅーがつにしゅせきしきしゃとしてしゅたーつかぺれどれすでんをひきいてのにっぽんえんそーりょこーをおこなった。	NO_LABEL
2013年には再びウィーン・フィルハーモニー管弦楽団を率いて来日した。	にせんじゅうさんねんにわふたたびうぃーんふぃるはーもにーかんげんがくだんをひきいてらいにちした。	NO_LABEL
その他、2003年以降にベルリン・ドイツ・オペラやフィルハーモニア管弦楽団、ウィーン国立歌劇場の日本公演に同行する予定であったが、いずれも実現しなかった。	そのた、にせんさんねんいこーにべるりんどいつおぺらやふぃるはーもにあかんげんがくだん、うぃーんこくりつかげきじょーのにっぽんこーえんにどーこーするよていであったが、いずれもじつげんしなかった。	NO_LABEL
