ドイツ連邦軍は、ドイツ連邦共和国の陸軍、海軍、空軍および戦力基盤軍、救護業務軍の総体を指す。	どいつれんぽーぐんわ、どいつれんぽーきょーわこくのりくぐん、かいぐん、くーぐんおよびせんりょくきばんぐん、きゅーごぎょーむぐんのそーたいをさす。	NO_LABEL
ドイツ連邦共和国基本法により最高指揮権は平時にあっては国防大臣（第65a条)、戦時は首相に移る。	NO_PRONOUNCE	NO_LABEL
ドイツは長年徴兵制度があり、満18歳以上の男子には兵役義務があった。	どいつわながねんちょーへいせいどがあり、まんじゅうはっさいいじょーのだんしにわへいえきぎむがあった。	NO_LABEL
連邦軍発足当初は、志願兵制を導入していたが、第二次大戦の後遺症で国民の反軍感情、反戦意識は根強く、志願制に頼っていては人員を確保できなかったからである。	れんぽーぐんほっそくとーしょわ、しがんへいせいをどーにゅーしていたが、だいにじたいせんのこーいしょーでこくみんのはんぐんかんじょー、はんせんいしきわねずよく、しがんせいにたよっていてわじんいんをかくほできなかったからである。	NO_LABEL
徴兵制の施行にあたっては、第二次世界大戦の歴史的経緯を踏まえて、良心的兵役拒否も申請することが認められた。	ちょーへいせいのしこーにあたってわ、だいにじせかいたいせんのれきしてきけいーをふまえて、りょーしんてきへいえききょひもしんせいすることがみとめられた。	NO_LABEL
この場合には、代替義務 （）として病院、老人介護施設等の社会福祉施設で兵役義務と同じ期間だけ社会貢献することになっていた。	このばあいにわ、だいたいぎむかっことしてびょーいん、ろーじんかいごしせつとーのしゃかいふくししせつでへいえきぎむとおなじきかんだけしゃかいこーけんすることになっていた。	NO_LABEL
2011年7月4日、ドイツは正式に徴兵制の「中止」を発表し、2014年までに職業軍人と志願兵による部隊に再編する予定となっている。	NO_PRONOUNCE	NO_LABEL
今後の安全保障環境の変化によっては復活させる可能性にも含みを残しているが、事実上の廃止と考えられている。	こんごのあんぜんほしょーかんきょーのへんかによってわふっかつさせるかのーせいにもふくみをのこしているが、じじつじょーのはいしとかんがえられている。	NO_LABEL
しかし、徴兵制が廃止されると、徴兵の代替義務も無くなることになり、これまで若者の代替義務によって成り立ってきたドイツの社会福祉政策は大きな転換を迫られることになる可能性がある。	しかし、ちょーへいせいがはいしされると、ちょーへいのだいたいぎむもなくなることになり、これまでわかもののだいたいぎむによってなりたってきたどいつのしゃかいふくしせいさくわおーきなてんかんをせまられることになるかのーせいがある。	NO_LABEL
ドイツ連邦軍の兵力は25万人で、うち5万人は、最低9ヶ月間の兵役に就いている18歳から25歳の徴兵された兵士である。	NO_PRONOUNCE	NO_LABEL
兵士以外の軍属は7万5千人にまで削減される予定になっている。	NO_PRONOUNCE	NO_LABEL
1975年以来ドイツ連邦軍内に女性軍人が配属されているが、当初は医療部隊への配属にとどまっていた。	せんきゅうひゃくななじゅうごねんいらいどいつれんぽーぐんないにじょせいぐんじんがはいぞくされているが、とーしょわいりょーぶたいえのはいぞくにとどまっていた。	NO_LABEL
ある女性軍人はこれを不服として裁判に訴え、欧州司法裁判所は2000年、女性がこれまで以上により幅広い役割を軍隊内で果たすよう認めるべきであるという判決を下した。	あるじょせいぐんじんわこれをふふくとしてさいばんにうったえ、おーしゅーしほーさいばんしょわにせんねん、じょせいがこれまでいじょーによりはばひろいやくわりをぐんたいないではたすよーみとめるべきであるとゆうはんけつをくだした。	NO_LABEL
結果2001年より、女性軍人は連邦軍内のあらゆる任務に制限なく就けるようになったが、徴兵制の対象にはなっていない。	けっかにせんいちねんより、じょせいぐんじんわれんぽーぐんないのあらゆるにんむにせいげんなくつけるよーになったが、ちょーへいせいのたいしょーにわなっていない。	NO_LABEL
連邦軍には1万3千人の女性が平和維持活動や他の作戦行動などあらゆる軍務についており、その他多くの女性が予備役となっている。	NO_PRONOUNCE	NO_LABEL
一方、ある男性が「男性に対してのみ兵役を強制することは男性差別であり、憲法違反だ」として訴訟を起こしたが、憲法裁判所は男性に対してのみの徴兵制は合憲だという判決を出した。	NO_PRONOUNCE	NO_LABEL
また、ある男性が、たまたま運悪く、徴兵の対象者に選ばれて出頭を求められた際に、徴兵制自体を不服として裁判を起こした例では、「現在のドイツではごく一部の男子のみが対象になっており、徴兵制の精神である、あらゆる国民が平等に国防の責任を負担するという機能は失われており、徴兵に服する必要は無い」という判例も出ており、その結果、徴兵の対象者に選ばれても自由に拒否できる状態になっている。	NO_PRONOUNCE	NO_LABEL
ドイツ連邦共和国は1955年に再軍備を開始した。	どいつれんぽーきょーわこくわせんきゅうひゃくごじゅうごねんにさいぐんびをかいしした。	NO_LABEL
第二次世界大戦に敗れたドイツは完全に武装解除され、連合国の命令でいかなる種類の再軍備計画も禁止されていた。	だいにじせかいたいせんにやぶれたどいつわかんぜんにぶそーかいじょされ、れんごーこくのめいれいでいかなるしゅるいのさいぐんびけいかくもきんしされていた。	NO_LABEL
小規模な国境警備隊や機雷の掃海部隊はあったが、国軍は設置されず、占領下ドイツの国防には連合国のうち4カ国、アメリカ合衆国・イギリス・フランス・ソビエト連邦の各軍が責任を持っていた。	NO_PRONOUNCE	NO_LABEL
しかし、朝鮮戦争後の西側諸国と東側諸国の間の緊張の高まりによってドイツ非武装化政策に変化が生じた。	しかし、ちょーせんせんそーごのにしがわしょこくとひがしがわしょこくのまのきんちょーのたかまりによってどいつひぶそーかせいさくにへんかがしょーじた。	NO_LABEL
ソ連の下でドイツ民主共和国がすでに密かに再軍備を行ったことで、米英仏も西ドイツの再軍備の検討を解禁した。	それんのしたでどいつみんしゅきょーわこくがすでにひそかにさいぐんびをおこなったことで、べいえいふつもにしどいつのさいぐんびのけんとーをかいきんした。	NO_LABEL
1950年に新しい西ドイツ軍創設のための基本構想の策定が始まり、コンラート・アデナウアー初代連邦首相はラインラント＝プファルツ州のヒンメロート修道院が固まった。	せんきゅうひゃくごじゅうねんにあたらしいにしどいつぐんそーせつのためのきほんこーそーのさくていがはじまり、こんらーとあでなうあーしょだいれんぽーしゅしょーわらいんらんとぷふぁるつしゅーのひんめろーとしゅーどーいんがかたまった。	NO_LABEL
これに基づき、国会議員テオドール・ブランクが新国軍の設置準備を進めた。	これにもとずき、こっかいぎーんておどーるぶらんくがしんこくぐんのせっちじゅんびをすすめた。	NO_LABEL
これゆえ連邦国防省の前身を「ブランク局」と呼ぶ。	NO_PRONOUNCE	NO_LABEL
しかし、旧軍出身の15名の専門委員に新国軍の設置準備に参画することは求めなかった。	NO_PRONOUNCE	NO_LABEL
またナチスに一方的に「汚された」とされた旧国防軍の伝統との「決別」を明確に示した。	NO_PRONOUNCE	NO_LABEL
そのため西ドイツ時代から現在のドイツ連邦軍にはアメリカ合衆国の影響が強く、軍服や階級についてもプロイセン・帝政ドイツ色はわずかしか残っていない。	NO_PRONOUNCE	NO_LABEL
旧国防軍の装甲兵大将であった自由民主党のリベラル派政治家ハッソ・フォン・マントイフェルが新しい国軍に「Bundeswehr」の名を提案し、ドイツ連邦議会において承認された。	NO_PRONOUNCE	NO_LABEL
ナチス・ドイツ時代は「Wehrmacht」といわれていた。	NO_PRONOUNCE	NO_LABEL
初代連邦軍総監には国防軍時代に陸軍総司令部作戦部長であったホイジンガー将軍が就任した。	しょだいれんぽーぐんそーかんにわこくぼーぐんじだいにりくぐんそーしれいぶさくせんぶちょーであったほいじんがーしょーぐんがしゅーにんした。	NO_LABEL
米英仏の3カ国間にはドイツ再軍備に関して意見の相違もあった。	NO_PRONOUNCE	NO_LABEL
特に、国境を接するフランスは19世紀以降の独仏関係史も鑑み、西ドイツの再武装に対して難色を示す見解が大勢を占めていた。	とくに、こっきょーをせっするふらんすわじゅうきゅうせいきいこーのどくふつかんけいしもかんがみ、にしどいつのさいぶそーにたいしてなんしょくをしめすけんかいがたいせいをしめていた。	NO_LABEL
フランスは、アメリカの進める西ドイツ再武装とNATO加盟案に対し、超国家的な汎ヨーロッパ軍を構成する欧州防衛共同体構想を打ち出し、実際に1952年に西ドイツを含む西欧各国間で調印もされた。	ふらんすわ、あめりかのすすめるにしどいつさいぶそーとなとーかめいあんにたいし、ちょーこっかてきなひろしよーろっぱぐんをこーせいするおーしゅーぼーえいきょーどーたいこーそーをうちだし、じっさいにせんきゅうひゃくごじゅうにねんににしどいつをふくむせいおーかっこくかんでちょーいんもされた。	NO_LABEL
しかし、自身の主権も制限されることをよしとしないド・ゴール主義者たちの反対により、1954年に当のフランス議会で否決され、批准には至らなかった。	しかし、じしんのしゅけんもせいげんされることをよしとしないどごーるしゅぎしゃたちのはんたいにより、せんきゅうひゃくごじゅうよねんにとーのふらんすぎかいでひけつされ、ひじゅんにわいたらなかった。	NO_LABEL
その結果、フランスも西ドイツの単独再軍備とNATO加盟を認めた。	そのけっか、ふらんすもにしどいつのたんどくさいぐんびとなとーかめいをみとめた。	NO_LABEL
連邦軍はゲルハルト・フォン・シャルンホルストの200回目の誕生日に当たる1955年11月12日に正式に誕生した。	れんぽーぐんわげるはるとふぉんしゃるんほるすとのにひゃくかいめのたんじょーびにあたるせんきゅうひゃくごじゅうごねんじゅーいちがつじゅうににちにせいしきにたんじょーした。	NO_LABEL
ドイツ連邦共和国基本法の修正後、西ドイツは1955年にNATOのメンバーとなり、1956年には18歳から45歳までの全男子国民に兵役義務が導入された。	どいつれんぽーきょーわこくきほんのしゅーせいご、にしどいつわせんきゅうひゃくごじゅうごねんになとーのめんばーとなり、せんきゅうひゃくごじゅうろくねんにわじゅうはっさいからよんじゅうごさいまでのぜんだんしこくみんにへいえきぎむがどーにゅーされた。	NO_LABEL
冷戦の間、ドイツ連邦軍はNATOの中央ヨーロッパ防衛の主力となり、三軍あわせて49万5千人の兵力と17万人の文民職員という大戦力を抱えていた。	NO_PRONOUNCE	NO_LABEL
陸軍は12個師団からなる3つの軍団で構成され、戦車と装甲兵員輸送車で重武装していた。	NO_PRONOUNCE	NO_LABEL
空軍は戦術戦闘機多数を所有し、NATOの統合防空軍の一部をなしていた。	くーぐんわせんじゅつせんとーきたすーをしょゆーし、なとーのとーごーぼーくーぐんのいちぶをなしていた。	NO_LABEL
海軍はバルト海防衛を受け持ち、北海の増援軍や補給船の護衛を任され、ソ連のバルト艦隊の封じ込めを行った。	かいぐんわばるとかいぼーえいをうけもち、ほっかいのぞーえんぐんやほきゅーせんのごえいをまかされ、それんのばるとかいのふーじこめをおこなった。	NO_LABEL
1990年のドイツ再統一後、東西ドイツ政府と米英仏ソ連合国との「ドイツに関する最終規定条約」により、ドイツ連邦軍は37万人まで削減された。	NO_PRONOUNCE	NO_LABEL
かつての東ドイツ軍である国家人民軍は解散し、その兵員の一部と軍備のごく一部が連邦軍に引き取られた。	かつてのひがしどいつぐんであるこっかじんみんぐんわかいさんし、そのへいいんのいちぶとぐんびのごくいちぶがれんぽーぐんにひきとられた。	NO_LABEL
約5万人の国家人民軍兵士は1990年10月2日に連邦軍に吸収された。	やくごまんにんのこっかじんみんぐんへいしわせんきゅうひゃくきゅうじゅうねんじゅーがつふつかにれんぽーぐんにきゅーしゅーされた。	NO_LABEL
増えた5万人分は、徴兵されている兵士や短期の志願兵が兵役期間の満了を迎えることで速やかに削減された。	ふえたごまんにんぶんわ、ちょーへいされているへいしやたんきのしがんへいがへいえききかんのまんりょーをむかえることですみやかにさくげんされた。	NO_LABEL
国家人民軍にいた多くの将校は2年以内に限定した雇用契約を交わして日常の任務を続けた。	こっかじんみんぐんにいたおーくのしょーこーわにねんいないにげんていしたこよーけいやくをかわしてにちじょーのにんむをつずけた。	NO_LABEL
連邦軍に移った兵士は個人の適性と経験によって新規の雇用契約と新規の階級を受け取ったが、多くの軍人は国家人民軍時代より低い階級を受け入れている。	れんぽーぐんにうつったへいしわこじんのてきせいとけいけんによってしんきのこよーけいやくとしんきのかいきゅーをうけとったが、おーくのぐんじんわこっかじんみんぐんじだいよりひくいかいきゅーをうけいれている。	NO_LABEL
しかしながら、一般的に「軍隊の統合」のスローガンの下で進められているドイツ国軍の統一過程は大きな成功とされ、ドイツ社会の他の分野における統一の手本と受けとめられている。	NO_PRONOUNCE	NO_LABEL
国境線の消滅と合邦によって不要となった連邦軍や国家人民軍の機材が廃棄された。	こっきょーせんのしょーめつとがっぽーによってふよーとなったれんぽーぐんやこっかじんみんぐんのきざいがはいきされた。	NO_LABEL
装甲車両や戦闘機は国際的な監視の下で解体されている。	そーこーしゃりょーやせんとーきわこくさいてきなかんしのしたでかいたいされている。	NO_LABEL
艦船は船舶解体でスクラップにされるか、バルト三国やインドネシアなどに売却された。	かんせんわせんぱくかいたいですくらっぷにされるか、ばるとさんごくやいんどねしあなどにばいきゃくされた。	NO_LABEL
インドネシア共和国国軍は国家人民軍のさまざまな艦船39隻を受け取っている。	NO_PRONOUNCE	NO_LABEL
また、国家人民軍の装甲兵員輸送車がトルコ軍に売られ、トルコ東南部で運用されていることが議論の的になったこともある。	また、こっかじんみんぐんのそーこーへいーんゆそーしゃがとるこぐんにうられ、とることうなんぶでうんよーされていることがぎろんのまとになったこともある。	NO_LABEL
国連の平和維持活動・人道援助活動やNATOの域外軍事行動へのドイツ連邦軍の参加、ドイツの多国籍軍参加に関連し、ドイツ国外での作戦行動や援助活動が増加したことを受け、2000年には大規模な機構改革が行われた。	NO_PRONOUNCE	NO_LABEL
指揮・兵站・通信・憲兵など、各軍の支援任務および医療任務を軍中央に統合し、戦力基盤軍と救護業務軍が誕生した。	NO_PRONOUNCE	NO_LABEL
特に、多くの国の軍隊では医療活動は各軍が個別に行っているため、医療の統合は前例の少ないものである。	とくに、おーくのくにのぐんたいでわいりょーかつどーわかくぐんがこべつにいっているため、いりょーのとーごーわぜんれいのすくないものである。	NO_LABEL
ドイツ連邦軍は、その国家の人口と経済力を反映し、NATO内のみならず世界でも有数の先進的な技術力や確固たる補給力を誇っているが、冷戦終結後の西側諸国の例に漏れず、統一ドイツの国防予算は削減傾向にある。	どいつれんぽーぐんわ、そのこっかのじんこーとけいざいりょくをはんえいし、なとーないのみならずせかいでもゆーすーのせんしんてきなぎじゅつりょくやかっこたるほきゅーりょくをほこっているが、れいせんしゅーけつごのにしがわしょこくのれいにもれず、とーいつどいつのこくぼーよさんわさくげんけいこーにある。	NO_LABEL
国防費のGDP比は1%台前半で推移しており、日本やスペインおよびカナダよりは高いが、オランダなどと並んでNATOでも低めである。	こくぼーひのじーでぃーぴーひわいちぱーせんとだいぜんはんですいいしており、にっぽんやすぺいんおよびかなだよりわたかいが、おらんだなどとならんでなとーでもひくめである。	NO_LABEL
アメリカ合衆国とニュークリア・シェアリングを行っているため、自国領土が核戦争の舞台になるリスクと引き換えに、核開発に予算をかけることなく核抑止を可能としている。	あめりかがっしゅーこくとにゅーくりあしぇありんぐをおこなっているため、じこくりょーどがかくせんそーのぶたいになるりすくとひきかえに、かくかいはつによさんをかけることなくかくよくしをかのーとしている。	NO_LABEL
ドイツ連邦軍はNATO軍の一員としてヨーロッパ防衛義務を負う。	どいつれんぽーぐんわなとーぐんのいちいんとしてよーろっぱぼーえいぎむをおう。	NO_LABEL
連邦軍の任務は基本法の87条aに規定されており、活動が許されるのは「防衛」のみとされている。	NO_PRONOUNCE	NO_LABEL
しかし1990年以降、国際情勢が東西対立から全体的な不安定状態へと変化しており、ドイツ軍はその対応が問われることになった。	しかしせんきゅうひゃくきゅうじゅうねんいこー、こくさいじょーせいがとーざいたいりつからぜんたいてきなふあんていじょーたいえとへんかしており、どいつぐんわそのたいおーがとわれることになった。	NO_LABEL
特に1991年の湾岸戦争で、多国籍軍に資金面のみで参加し人的参加しなかったことは国外から批判を浴びた。	とくにせんきゅうひゃくきゅうじゅういちねんのわんがんせんそーで、たこくせきぐんにしきんめんのみでさんかしじんてきさんかしなかったことわこくがいからひはんをあびた。	NO_LABEL
1994年の連邦憲法裁判所での判例で、基本法の「防衛」とはドイツの国境を守るだけでなく、危機への対応や紛争防止など、世界中のどこであれ広い意味でのドイツの安全を守るために必要な行動を指すと解釈が拡大され、さらにドイツ連邦議会の事前承認によりNATO域外への派兵が認められた。	NO_PRONOUNCE	NO_LABEL
かつての連邦国防相、ペーター・シュトルックの解釈によれば、ドイツを守るためにはアフガニスタンのヒンドゥークシュ山脈であっても軍を出すことは必要となる。	かつてのれんぽーこくぼーしょー、ぺーたーしゅとるっくのかいしゃくによれば、どいつをまもるためにわあふがにすたんのひんどぅーくしゅさんみゃくであってもぐんをだすことわひつよーとなる。	NO_LABEL
こうしたことから、1990年代以降、ドイツ連邦軍はNATOや欧州連合、国際連合の一員としてドイツ国外でPKOなどの作戦を行うことが増えている。	こーしたことから、せんきゅうひゃくきゅうじゅうねんだいいこー、どいつれんぽーぐんわなとーやおーしゅーれんごー、こくさいれんごーのいちいんとしてどいつこくがいでぴーけーおーなどのさくせんをおこなうことがふえている。	NO_LABEL
例えばカンボジアのUNTAC、ボスニア・ヘルツェゴビナの平和安定化部隊・欧州連合部隊、コソボのKFOR、アフガニスタンの国際治安支援部隊、エチオピア、エリトリア、ソマリア、スーダン、コンゴ民主共和国、レバノンなどの軍事作戦や平和維持活動に派兵している。	NO_PRONOUNCE	NO_LABEL
一方で犠牲者の数も、アフガニスタンのISAFでの55人、ボスニア・ヘルツェゴビナのSFOR/EUFORでの19人、コソボのKFORでの27人などと増大しており、1998年から2014年までの間に海外派遣兵士の自殺も22件に上った。	NO_PRONOUNCE	NO_LABEL
その他、多くの負傷者やPTSDに苦しむ元兵士もいる。	そのた、おーくのふしょーしゃやぴーてぃーえすでぃーにくるしむもとへいしもいる。	NO_LABEL
かつてドイツには、ヴァイマル共和政下のライヒスヴェーアやナチス・ドイツ時代のヴェーアマハトなどの軍隊があった。	NO_PRONOUNCE	NO_LABEL
しかし、ドイツ連邦軍は自らをこれらの後継組織とはみなしておらず、プロイセン軍など以前のあらゆるドイツの軍隊の伝統も引き継いでいない。	しかし、どいつれんぽーぐんわみずからをこれらのこーけいそしきとわみなしておらず、ぷろいせんぐんなどいぜんのあらゆるどいつのぐんたいのでんとーもひきついでいない。	NO_LABEL
現在のドイツ連邦軍の公式な「伝統」は、大きく次の3つに基づいている。	NO_PRONOUNCE	NO_LABEL
ドイツ連邦軍の国籍マークとしては、ナチス時代の旧国防軍が採用していた幅が同じのバルケンクロイツではなく、黒十字の先端が末広がりになっているドイツの伝統的なタッツェンクロイツを採用した。	どいつれんぽーぐんのこくせきまーくとしてわ、なちすじだいのきゅーこくぼーぐんがさいよーしていたはばがおなじのばるけんくろいつでわなく、くろじゅーじのせんたんがすえひろがりになっているどいつのでんとーてきなたっつぇんくろいつをさいよーした。	NO_LABEL
黒十字、鉄十字も参照。	くろじゅーじ、てつじゅーじもさんしょー。	NO_LABEL
第二次大戦で「人道に反する犯罪行為」を拒否しえなかった理由として挙げられた、上官の命令に絶対服従という伝統は否定され、戦後のドイツ基本法及び軍人法には“軍人もまた市民であり基本権を保持する”という規定、「抗命権」及び発動された場合の不利益処分禁止が明文規定されている。	NO_PRONOUNCE	NO_LABEL
また労働組合的性格も持つ職場団体「軍人連盟」、反戦軍人の会「ダルムシュタット・シグナル」が構成されている。	NO_PRONOUNCE	NO_LABEL
ただしドイツ国防軍も各地の軍記念館では「ドイツ軍の英雄」として顕彰されており、ドイツ海軍ではリュッチェンス級駆逐艦などナチス時代の軍人の名を冠した軍艦が存在している。	NO_PRONOUNCE	NO_LABEL
ラーボエ海軍記念館ではビスマルクとブレーメンの模型が共に飾られ、またプリンツ・オイゲンのスクリューやニュルンベルクの鐘が展示されるなど決してナチス時代のドイツ軍を無関係としているわけではない。	らーぼえかいぐんきねんかんでわびすまるくとぶれーめんのもけいがともにかざられ、またぷりんつおいげんのすくりゅーやにゅるんべるくのかねがてんじされるなどけっしてなちすじだいのどいつぐんをむかんけいとしているわけでわない。	NO_LABEL
