内村 祐之は、日本の医学者、精神科医。	うちむらひろゆきわ、にっぽんのいがくしゃ、せいしんかい。	NO_LABEL
専攻は臨床精神医学・神経病理学。	NO_PRONOUNCE	NO_LABEL
東京大学名誉教授、日本学士院会員。	とーきょーだいがくめいよきょーじゅ、にほんがくしいんかいいん。	NO_LABEL
プロ野球コミッショナー。	ぷろやきゅーこみっしょなー。	NO_LABEL
1897年11月に、キリスト教思想家として著名な内村鑑三を父、内村の4度目の妻内村静子を母として、東京府に誕生する。	せんはっぴゃくきゅうじゅうななねじゅーいちがつに、きりすときょーしそーかとしてちょめいなうちむらかんぞーをちち、うちむらのよんどめのつまうちむらしずこをははとして、とーきょーふにたんじょーする。	NO_LABEL
獨逸学協会学校中等部から第一高等学校、東京帝国大学に進む。	NO_PRONOUNCE	NO_LABEL
学生野球界では特に一高時代に、早稲田・慶應義塾を久しぶりに撃破するなど名だたる左腕投手として名を馳せた。	NO_PRONOUNCE	NO_LABEL
1918年には15年ぶりの全国制覇を果たした。	せんきゅうひゃくじゅうはちねんにわじゅうごねんぶりのぜんこくせいはをはたした。	NO_LABEL
1919年4月初めの、一高と三高の試合はマスコミに派手に取り上げられた。	せんきゅうひゃくじゅうきゅうねんしがつはじめの、いちたかとさんだかのしあいわますこみにはでにとりあげられた。	NO_LABEL
1921年4月7日に東京帝国大学3年生の時に東京ステーション・ホテルで久須美美代子と婚約をする。	NO_PRONOUNCE	NO_LABEL
仲人は父鑑三の先輩伊藤一隆だった。	なこーどわちちかんさんのせんぱいいとーかずたかだった。	NO_LABEL
内村はスター選手だったので、マスコミに取り上げられて波紋を呼んだ。	うちむらわすたーせんしゅだったので、ますこみにとりあげられてはもんをよんだ。	NO_LABEL
1923年春に、東京帝国大学を卒業して、精神科を志望して東大医局に入局した。	せんきゅうひゃくにじゅうさんねんはるに、とーきょーていこくだいがくをそつぎょーして、せいしんかをしぼーしてとーだいいきょくににゅーきょくした。	NO_LABEL
しかし、約一ヵ月後に、呉教授に申し出て、東京府立松沢病院の医員になった。	しかし、やくいちかげつごに、ごきょーじゅにもーしでて、とーきょーふりつまつざわびょーいんのいいんになった。	NO_LABEL
父の鑑三は祐之にワルター・スピールマイヤーの『精神系の組織病理学』を卒業記念に贈った。	NO_PRONOUNCE	NO_LABEL
 それと平行して、学生野球の指導も行っていた。	それとへいこーして、がくせいやきゅーのしどーもおこなっていた。	NO_LABEL
1924年11月29日伊藤一隆の媒介と大島正健の司式の元で、東京ステーション・ホテルで久須美美代子と結婚式を挙げる。	NO_PRONOUNCE	NO_LABEL
その後、北海道大学から招聘があったが、北海道大学には精神科講座の準備が整っていなかったので、1925年から文部省の海外研究員として2年間ドイツのミュンヘンに留学する。	そのご、ほっかいどーだいがくからしょーへいがあったが、ほっかいどーだいがくにわせいしんかこーざのじゅんびがととのっていなかったので、せんきゅうひゃくにじゅうごねんからもんぶしょーのかいがいけんきゅーいんとしてにねんかんどいつのみゅんへんにりゅーがくする。	NO_LABEL
カイゼル・ウィルヘルム研究所でスピールマイヤーに師事する。	NO_PRONOUNCE	NO_LABEL
 その際クレペリンやクレッチマーなどとも交流をもった。	そのさいくれぺりんやくれっちまーなどともこーりゅーをもった。	NO_LABEL
内村の留学中の1926年妻美代子は長女正子を出産する。	うちむらのりゅーがくちゅーのせんきゅうひゃくにじゅうろくねんつまみよこわちょーじょまさこをしゅっさんする。	NO_LABEL
1927年にドイツ留学から帰国する。	せんきゅうひゃくにじゅうななねんにどいつりゅーがくからきこくする。	NO_LABEL
同年9月に北海道に渡る。	どーねんくがつにほっかいどーにわたる。	NO_LABEL
1928年に北海道帝国大学教授に就任。	せんきゅうひゃくにじゅうはちねんにほっかいどーていこくだいがくきょーじゅにしゅーにん。	NO_LABEL
1928年7月13日に次女桂子が生まれる。	せんきゅうひゃくにじゅうはちねんしちがつじゅうさんにちにじじょけいこがうまれる。	NO_LABEL
その直後7月27日に内村鑑三夫妻が札幌に来る。	そのちょくごしちがつにじゅうしちにちにうちむらかんぞーふさいがさっぽろにくる。	NO_LABEL
札幌独立教会の牧会を行う。	さっぽろどくりつきょーかいのぼっかいをおこなう。	NO_LABEL
1930年3月には、父の危篤の際一家で上京し、父の臨終についての詳細な記録を記した。	せんきゅうひゃくさんじゅうねんさんがつにわ、ちちのきとくのさいいっかでじょーきょーし、ちちのりんじゅーについてのしょーさいなきろくをしるした。	NO_LABEL
それらは「父の臨終の記」として残されている。	NO_PRONOUNCE	NO_LABEL
 また、3月28日に父内村鑑三が死去すると、内村の希望で東大医学部で偉業を達成した人物の脳の研究のため鑑三の解剖を行う。	また、さんがつにじゅうはちにちにちちうちむらかんぞーがしきょすると、うちむらのきぼーでとーだいいがくぶでいぎょーをたっせいしたじんぶつののーのけんきゅーのためかんさんのかいぼーをおこなう。	NO_LABEL
その後1936年に東京帝国大学医学部教授となる。	そのごせんきゅうひゃくさんじゅうろくねにとーきょーていこくだいがくいがくぶきょーじゅとなる。	NO_LABEL
東大在職中に財団法人神経研究所を設立、晴和病院を開設した。	とーだいざいしょくちゅーにざいだんほーじんしんけいけんきゅーじょをせつりつ、せいわびょーいんをかいせつした。	NO_LABEL
偉業を達成した人物の脳の研究や双生児の研究で多くの業績を残した。	いぎょーをたっせいしたじんぶつののーのけんきゅーやそーせいじのけんきゅーでおーくのぎょーせきをのこした。	NO_LABEL
定年退官後は国立精神衛生研究所長などを務める。	ていねんたいかんごわこくりつせいしんえいせいけんきゅーじょちょーなどをつとめる。	NO_LABEL
戦争中には軍部の要請でソロモン群島に派遣され、戦地の精神医療体制についてアドバイスを与えた。	せんそーちゅーにわぐんぶのよーせいでそろもんぐんとーにはけんされ、せんちのせいしんいりょーたいせいについてあどばいすをあたえた。	NO_LABEL
また、空襲で松沢病院が消失して、患者にも犠牲者を出す。	また、くーしゅーでまつざわびょーいんがしょーしつして、かんじゃにもぎせいしゃをだす。	NO_LABEL
1945年終戦の年に母静子が亡くなる。	せんきゅうひゃくよんじゅうごねんしゅーせんのとしにははしずこがなくなる。	NO_LABEL
その一方1939年から1943年までは東大野球部長、1943年六大学野球連盟理事長として戦時下の学生野球の対応に尽力する。	そのいっぽーせんきゅうひゃくさんじゅうきゅうねんからせんきゅうひゃくよんじゅうさんねまでわとーだいやきゅーぶちょー、せんきゅうひゃくよんじゅうさんねろくだいがくやきゅーれんめいせんしゃどうれんめいのりじちょーとしてせんじかのがくせいやきゅーのたいおーにじんりょくする。	NO_LABEL
戦後は、東京裁判のA級戦犯になった大川周明の精神鑑定と治療を行う。	せんごわ、とーきょーさいばんのえいきゅーせんぱんになったおーかわしゅーめいのせいしんかんていとちりょーをおこなう。	NO_LABEL
内村は大川を梅毒性精神障害と診断した。	うちむらわおーかわをばいどくせいせいしんしょーがいとしんだんした。	NO_LABEL
 また、帝銀事件の平沢貞通や、婦女連続殺人事件の小平義雄などの精神鑑定を行った。	また、ていぎんじけんのひらさわさだみちや、ふじょれんぞくさつじんじけんのこだいらよしおなどのせいしんかんていをおこなった。	NO_LABEL
1949年に法律改正により、東京大学教授と松沢病院院長を兼任できなくなったので、松沢病院を退職した。	せんきゅうひゃくよんじゅうきゅうねんにほーりつかいせいにより、とーきょーだいがくきょーじゅとまつざわびょーいんいんちょーをけんにんできなくなったので、まつざわびょーいんをたいしょくした。	NO_LABEL
さらに、1958年に東京大学教授を退職した後、神経研究所の創設に努力した。	さらに、せんきゅうひゃくごじゅうはちねんにとーきょーだいがくきょーじゅをたいしょくしたのち、しんけいけんきゅーじょのそーせつにどりょくした。	NO_LABEL
一方野球では、混乱の続くプロ野球界で最高委員を務めるなど、野球界にも多大な影響を与え、いわゆるV9の巨人黄金時代の川上哲治監督に大きな影響を与えたといわれるアル・キャンパニスの『ドジャースの戦法』を翻訳したのも内村である。	NO_PRONOUNCE	NO_LABEL
1962年5月、日米の野球に精通した人物として内村は日本野球機構第3代コミッショナーに就任。	せんきゅうひゃくろくじゅうにねんごがつ、にちべいのやきゅーにせいつーしたじんぶつとしてうちむらわにっぽんやきゅーきこーだいさんだいこみっしょなーにしゅーにん。	NO_LABEL
サンフランシスコ・ジャイアンツへ野球留学中にメジャー出場した南海ホークスの村上雅則の保有権を南海・ジャイアンツ両球団が争った際には1965年シーズン終了を以て南海に復帰させるという妥協案を提示して解決された。	NO_PRONOUNCE	NO_LABEL
第1期の任期満了間近の1965年4月、内村は札束競争にまみれてプロ野球界に入ってくる新人選手をうれい、新人研修制度を行おうと提案したが、オーナー陣の激しい抵抗にあい、自らコミッショナーの職を降りた。	だいいっきのにんきまんりょーまじかのせんきゅうひゃくろくじゅうごねんしがつ、うちむらわさつたばきょーそーにまみれてぷろやきゅーかいにはいってくるしんじんせんしゅをうれい、しんじんけんしゅーせいどをおこなおうとていあんしたが、おーなーじんのはげしいていこーにあい、みずからこみっしょなーのしょくをおりた。	NO_LABEL
おおむねコミッショナーはオーナー側寄りであると批判されている中、オーナー側と対立してコミッショナー職を辞したのは内村1人である。	おーむねこみっしょなーわおーなーがわよりであるとひはんされているなか、おーなーがわとたいりつしてこみっしょなーしょくをじしたのわうちむらひとりである。	NO_LABEL
このとき、「どんな医者でも完治の見込みがなければ患者を見放すものだよ」とコメントし、自分を推薦しておきながらその提案を飲まないオーナー陣を痛烈に批判した。	NO_PRONOUNCE	NO_LABEL
後にコミッショナーを務めた下田武三によると、コミッショナーの職を辞した後は一度たりとも球場に足を踏み入れず、存命中は特別表彰による殿堂入りも拒否したという。	ごにこみっしょなーをつとめたしもだたけぞーによると、こみっしょなーのしょくをじしたのちわいちどたりともきゅーじょーにあしをふみいれず、ぞんめいちゅーわとくべつひょーしょーによるでんどーいりもきょひしたという。	NO_LABEL
このように、コミッショナーとしては思うように手腕を発揮できなかったが、日米の野球に精通した知識人として日本の野球の近代化に貢献した点が評価され、没後3年を経過した1983年、特別表彰として野球殿堂入りした。	このよーに、こみっしょなーとしてわおもうよーにしゅわんをはっきできなかったが、にちべいのやきゅーにせいつーしたちしきじんとしてにっぽんのやきゅーのきんだいかにこーけんしたてんがひょーかされ、ぼつごさんねんをけいかしたせんきゅうひゃくはちじゅうさんねん、とくべつひょーしょーとしてやきゅーでんどーいりした。	NO_LABEL
