軍用飛行場は、軍用機の運用のために軍隊が使用する飛行場。	ぐんよーひこうじょーわ、ぐんよーきのうんよーのためにぐんたいがしよーするひこーじょー。	NO_LABEL
典型的な軍用飛行場は、例えば航空交通管制のための管制塔や施設など、民間機の空港と変わらない施設も備えている。	てんけいてきなぐんよーひこうじょーわ、たとえばこーくーこーつーかんせいのためのかんせいとーやしせつなど、みんかんきのくーこーとかわらないしせつもそなえている。	NO_LABEL
一部の軍用飛行場には、旅客用の施設もあり、例えばイングランドにあるブライズ・ノートン空軍基地には、イギリス空軍が運行しているロッキード トライスターによるフォークランド諸島行きの便に乗る旅客のためのターミナルがある。	NO_PRONOUNCE	NO_LABEL
また、多くの軍用飛行場では、民間の旅客機が利用するが設けられており、例えば、中国の北京南苑空港、日本の茨城空港、アメリカ合衆国のバーリントン国際空港などが、こうした形の軍民共用空港となっている。	また、おーくのぐんよーひこうじょーでわ、みんかんのりょかくきがりよーするがもーけられており、たとえば、ちゅーごくのぺきんなんえんくうこー、にっぽんのいばらきくうこー、あめりかがっしゅーこくのばーりんとんこくさいくうこーなどが、こーしたかたちのぐんみんきょうよーくーこーとなっている。	NO_LABEL
一部の軍用飛行場には、敵の攻撃から航空機を護るために、や、さらには、などが設けられている。	いちぶのぐんよーひこうじょーにわ、てきのこーげきからこーくーきをまもるために、や、さらにわ、などがもーけられている。	NO_LABEL
軍用機は、の保管施設が必要になる。	ぐんよーきわ、のほかんしせつがひつよーになる。	NO_LABEL
軍用飛行場には、防空のための対空兵器や部隊防護のための部隊が配置されることもある。	ぐんよーひこうじょーにわ、ぼーくーのためのたいくーへいきやぶたいぼーごのためのぶたいがはいちされることもある。	NO_LABEL
道路を転用する軍用飛行場は、戦時に補助的な軍用飛行場として転用できるように建設した高速道路である。	どーろをてんよーするぐんよーひこうじょーわ、せんじにほじょてきなぐんよーひこうじょーとしててんよーできるよーにけんせつしたこーそくどーろである。	NO_LABEL
こうした戦略を活用している例としては、スウェーデン空軍、フィンランド空軍、パキスタン空軍、ドイツ空軍、、、大韓民国空軍、トルコ空軍、ポーランド空軍などがある。	NO_PRONOUNCE	NO_LABEL
フィンランドの場合、航空機の着陸に必要な走路の距離を圧縮するために一部の航空母艦で用いられるものに似たアレスティング・ワイヤーが装備されている。	ふぃんらんどのばあい、こーくーきのちゃくりくにひつよーなそーろのきょりをあっしゅくするためにいちぶのこーくーぼかんでもちいられるものににたあれすてぃんぐわいやーがそーびされている。	NO_LABEL
航空母艦は軍艦の一種であり、海上の軍用飛行場として機能するが、その発達は現代における空軍力の拡大に大きく貢献してきた。	こーくーぼかんわぐんかんのいちしゅであり、かいじょーのぐんよーひこうじょーとしてきのーするが、そのはったつわげんだいにおけるくーぐんりょくのかくだいにおーきくこーけんしてきた。	NO_LABEL
紛争地域により近い場所まで軍用機を展開させることを可能とする航空母艦は、今や軍事力の要である。	ふんそーちいきによりちかいばしょまでぐんよーきをてんかいさせることをかのーとするこーくーぼかんわ、いまやぐんじりょくのよーである。	NO_LABEL
第二次世界大戦中のアメリカ合衆国にとっても、1982年のフォークランド紛争の際のイギリスにとっても、航空母艦は決定的に重要であった。	だいにじせかいたいせんちゅーのあめりかがっしゅーこくにとっても、せんきゅうひゃくはちじゅうにねんのふぉーくらんどふんそーのさいのいぎりすにとっても、こーくーぼかんわけっていてきにじゅーよーであった。	NO_LABEL
航空母艦は現代的な役割とともに、「国家が自在に動かすことができる、数エーカーの主権の及ぶ場所」として、軍事面のみならず、外交政策上も大きなフレキシビリティを生む。	NO_PRONOUNCE	NO_LABEL
また、航空母艦は、災害救援にも使用される。	また、こーくーぼかんわ、さいがいきゅーえんにもしよーされる。	NO_LABEL
