浜田 貫太郎は、日本の漫画家。	はまだかんたろーわ、にほんのまんがか。	NO_LABEL
東京都出身。	とーきょーとしゅっしん。	NO_LABEL
血液型はA型。	けつえきがたわえーがた。	NO_LABEL
主に幼児向けの釣り漫画や動物漫画で知られ、学習研究社での活動が代表的である。	おもによーじむけのつりまんがやどーぶつまんがでしられ、がくしゅーけんきゅーしゃでのかつどーがだいひょーてきである。	NO_LABEL
かつてはかなりの投稿魔だったらしく、漫画を通信教育で学習しながら、その間さかんに出版社に漫画投稿を試み、批評を受けていたという。	かつてはかなりのとーこーまだったらしく、まんがをつーしんきょーいくでがくしゅーしながら、そのかんさかんにしゅっぱんしゃにまんがとーこーをこころみ、ひひょーをうけていたという。	NO_LABEL
2002年1月6日、肝不全のため死去。	にせんにねんいちがつむいか、かんふぜんのためしきょ。	NO_LABEL
