石田 威彦は、北海道旭川市出身の元プロ野球選手。	いしだたけひこわ、ほっかいどーあさひかわししゅっしんのもとぷろやきゅーせんしゅ。	NO_LABEL
小学校4年時に、旭川中央リトルで野球を始める。	しょーがっこーよんねんじに、あさひかわちゅーおーりとるでやきゅーをはじめる。	NO_LABEL
旭川龍谷高校時代は、2年時のに第63回選抜高等学校野球大会に4番・三塁手として出場。	NO_PRONOUNCE	NO_LABEL
高校卒業後は、北海道教育大学旭川校に進学。	こーこーそつぎょーごわ、ほっかいどーきょーいくだいがくあさひかわこーにしんがく。	NO_LABEL
北海道六大学野球のベストナインにも選ばれた。	ほっかいどーろくだいがくやきゅーのべすとないんにもえらばれた。	NO_LABEL
大学卒業後に渡米し、アメリカ合衆国アリゾナ州で行われる合同入団テストに最終選考まで残り、独立リーグであるプレーリー・リーグのサスカトゥーン・スモーキンガンズに入団。	NO_PRONOUNCE	NO_LABEL
その後、同リーグ内のウェストマニトバ・ラングラーズにした。	NO_PRONOUNCE	NO_LABEL
その後、フィラデルフィア・フィリーズと契約。	そのご、ふぃらでるふぃあふぃりーずとけいやく。	NO_LABEL
からまで、傘下のルーキーリーグ所属のガルフコースト・フィリーズ、1Aのビードモント・ボル・ウィーブリーズでプレーした後、現役を引退した。	NO_PRONOUNCE	NO_LABEL
元プロ野球関係者の大学野球部監督に関する特別審査規定による審査を経て、4月より旭川大学硬式野球部のコーチに就任し、から監督。	もとぷろやきゅーかんけいしゃのだいがくやきゅーぶかんとくにかんするとくべつしんさきていによるしんさをへて、しがつよりあさひかわだいがくこーしきやきゅーぶのこーちにしゅーにんし、からかんとく。	NO_LABEL
2015年限りで旭川大学の監督を退任した。	にせんじゅうごねんかぎりであさひかわだいがくのかんとくをたいにんした。	NO_LABEL
