鹿児島市立伊敷台小学校は、鹿児島県鹿児島市伊敷台四丁目にある市立小学校。	かごしましりついしきだいしょうがっこーわ、かごしまけんかごしましいしきだいよんちょーめにあるしりつしょーがっこー。	NO_LABEL
鹿児島市の中北部にある小学校であり、伊敷台の北部に所在している。	かごしましのなかほくぶにあるしょーがっこーであり、いしきだいのほくぶにしょざいしている。	NO_LABEL
2010年12月1日現在で全校児童数は710名であり、1学年あたり4学級あり、特別支援学級が1学級設置されている。	NO_PRONOUNCE	NO_LABEL
