斎藤 喜は、千葉県出身の元プロ野球選手。	さいとーきわ、ちばけんしゅっしんのもとぷろやきゅーせんしゅ。	NO_LABEL
ポジションは内野手。	ぽじしょんわないやしゅ。	NO_LABEL
習志野高校出身。	ならしのこーこーしゅっしん。	NO_LABEL
千葉県の高校では遊撃手No.1の評判だった。	ちばけんのこーこーでわゆーげきしゅなんばーわんのひょーばんだった。	NO_LABEL
また韓国高校選抜軍対全関東高校の試合に選抜され、関東球界では大型内野手として注目されていた。	またかんこくこーこーせんばつぐんたいぜんかんとーこーこーのしあいにせんばつされ、かんとーきゅーかいでわおーがたないやしゅとしてちゅーもくされていた。	NO_LABEL
高校同期には後に中日ドラゴンズで活躍する谷沢健一がいる。	こーこーどーきにわごにちゅーにちどらごんずでかつやくするやざわけんいちがいる。	NO_LABEL
1965年夏の甲子園県予選準決勝では、銚子商の木樽正明に抑えられ敗退するが、木樽から3安打を放っている。	せんきゅうひゃくろくじゅうごねんなつのこーしえんけんよせんじゅんけっしょーでわ、ちょーししょーのきたるまさーきにおさえられはいたいするが、きたるからさんあんだをはなっている。	NO_LABEL
銚子商は夏の甲子園で準優勝。	ちょーししょーわなつのこーしえんでじゅんゆうしょー。	NO_LABEL
1965年プロ野球ドラフト会議で阪急ブレーブスへ2位指名で入団。	せんきゅうひゃくろくじゅうごねんぷろやきゅーどらふとかいぎではんきゅーぶれーぶすえにーしめいでにゅーだん。	NO_LABEL
当時の青田昇コーチから中西太、長嶋茂雄に匹敵する才能と絶賛されたこともあり、1年目の1966年から一軍を経験し将来を嘱望された。	とーじのあおたのぼるこーちからなかにしふとし、ながしましげおにひってきするさいのーとぜっさんされたこともあり、いちねんめのせんきゅうひゃくろくじゅうろくねんからいちぐんをけいけんししょーらいをしょくぼーされた。	NO_LABEL
同年9月15日には近鉄バファローズを相手に八番打者、遊撃手として先発出場を果たす。	どーねんくがつじゅうごにちにわきんてつばふぁろーずをあいてにはちばんだしゃ、ゆーげきしゅとしてせんぱつしゅつじょーをはたす。	NO_LABEL
しかし体が硬く、故障続きであまり出場機会には恵まれず、1969年には福本豊、加藤秀司ら同年代の選手が社会人から入団したこともあって投手転向を図る。	しかしからだがかたく、こしょーつずきであまりしゅつじょーきかいにわめぐまれず、せんきゅうひゃくろくじゅうきゅうねんにわふくもとゆたか、かとーひでじらどーねんだいのせんしゅがしゃかいじんからにゅーだんしたこともあってとーしゅてんこーをはかる。	NO_LABEL
1970年に退団を決意。	せんきゅうひゃくななじゅうねんにたいだんをけつい。	NO_LABEL
その年のオフに行われた二軍選手を中心にした第1回選抜会議の対象となり中日ドラゴンズに指名されたが、断りを入れ現役を引退。	そのとしのおふにおこなわれたにぐんせんしゅをちゅーしんにしただいいっかいせんばつかいぎのたいしょーとなりちゅーにちどらごんずにしめいされたが、ことわりをいれげんえきをいんたい。	NO_LABEL
引退後は親戚から「警察か消防なら紹介してやる」と言われ、東京消防学校に入り、半年後に採用試験に合格。	NO_PRONOUNCE	NO_LABEL
江戸川消防署に配属されると、消防から救急隊へと配転された。	えどがわしょーぼーしょにはいぞくされると、しょーぼーからきゅーきゅーたいえとはいてんされた。	NO_LABEL
勤務の間を縫って病院実習などをこなし、1992年には救急救命士試験に合格、後に救急隊長も務めた。	きんむのまをぬってびょーいんじっしゅーなどをこなし、せんきゅうひゃくきゅうじゅうにねんにわきゅーきゅーきゅーめいししけんにごーかく、ごにきゅーきゅーたいちょーもつとめた。	NO_LABEL
1995年3月20日に発生した地下鉄サリン事件の際には、救急隊長として出動した。	せんきゅうひゃくきゅうじゅうごねんさんがつはつかにはっせいしたちかてつさりんじけんのさいにわ、きゅーきゅーたいちょーとしてしゅつどーした。	NO_LABEL
後年は公益財団法人東京防災救急協会の救急講習講師を7年間勤め上げ、2008年限りで退官した。	こーねんわこーえきざいだんほーじんとーきょーぼーさいきゅーきゅーきょーかいのきゅーきゅーこーしゅーこーしをななねんかんつとめあげ、にせんはちねんかぎりでたいかんした。	NO_LABEL
