フィトクロモビリン:フェレドキシンオキシドレダクターゼは、ポルフィリンおよびクロロフィル代謝酵素の一つで、次の化学反応を触媒する酸化還元酵素である。	ふぃとくろもびりんふぇれどきしんおきしどれだくたーぜわ、ぽるふぃりんおよびくろろふぃるたいしゃこーそのひとつで、つぎのかがくはんのーをしょくばいするさんかかんげんこーそである。	NO_LABEL
反応式の通り、この酵素の基質は-フィトクロモビリンと酸化型フェレドキシン、生成物はビリベルジンIXαと還元型フェレドキシンである。	NO_PRONOUNCE	NO_LABEL
組織名は-phytochromobilin:ferredoxin oxidoreductaseで、別名にPφB synthasel, phytochromobilin synthaseがある。	NO_PRONOUNCE	NO_LABEL
