セルゲイ・プロコフィエフの《ヴァイオリン協奏曲 第1番 ニ長調》作品19は、1916年から1917年にかけて作曲されたプロコフィエフ最初のヴァイオリン協奏曲。	NO_PRONOUNCE	NO_LABEL
初演は1923年10月18日にパリのオペラ座にてマルセル・ダリウーのヴァイオリン独奏とセルゲイ・クーセヴィツキー指揮パリ・オペラ座管弦楽団による。	NO_PRONOUNCE	NO_LABEL
初演時にこそ成功しなかったものの、今日ではプロコフィエフの協奏的作品の中で最も愛好される作品の一つになっている。	しょえんじにこそせいこーしなかったものの、きょーでわぷろこふぃえふのきょーそーてきさくひんのなかでもっともあいこーされるさくひんのひとつになっている。	NO_LABEL
イーゴリ・ストラヴィンスキーは概してプロコフィエフの作品に好意的でなかったものの、この作品については褒めた。	NO_PRONOUNCE	NO_LABEL
カロル・シマノフスキとアルトゥール・ルービンシュタインはこの作品の上演に接した後、感極まって楽屋に作曲者を訪ねたという。	かろるしまのふすきとあるとぅーるるーびんしゅたいんわこのさくひんのじょーえんにせっしたのち、かんきわまってがくやにさっきょくしゃをたずねたという。	NO_LABEL
独奏ヴァイオリン、フルート2、オーボエ2、クラリネット2、ファゴット2、ホルン4、トランペット2、チューバ、ティンパニ、小太鼓、タンブリン、ハープ、弦五部	NO_PRONOUNCE	NO_LABEL
約22分	やくにじゅうにふん	NO_LABEL
以下の3楽章からなる。	NO_PRONOUNCE	NO_LABEL
第1楽章は霊妙な響きに始まり、躍動感と静止状態の間を行きつ戻りつし、終結部においても、開始のときと同じく平和裏に、楽章を畳んでいく。	NO_PRONOUNCE	NO_LABEL
この特徴は第1楽章に限らず、どの楽章にも当てはまるので、性格的に作品全体が一つに統一されているといえる。	NO_PRONOUNCE	NO_LABEL
独立後のプロコフィエフの作品としては、全般的に瞑想的で白昼夢のような不思議な抒情性に溢れている。	どくりつごのぷろこふぃえふのさくひんとしてわ、ぜんぱんてきにめいそーてきではくちゅーむのよーなふしぎなじょじょーせいにあふれている。	NO_LABEL
