セイント★セイジのうたは、コナミデジタルエンタテインメントより2006年9月28日発売のプレイステーション2用音楽ゲームソフト『pop'n music 13 カーニバル』に収録された楽曲。	NO_PRONOUNCE	NO_LABEL
アーティスト名義は「西本英雄ともうしま児童合唱団」、ゲーム上のジャンル名は「もうしま」。	NO_PRONOUNCE	NO_LABEL
アーケードゲーム版には収録されていない。	あーけーどげーむばんにわしゅーろくされていない。	NO_LABEL
2006年に、漫画家西本英雄が週刊少年マガジンに連載している漫画『もう、しませんから。	NO_PRONOUNCE	NO_LABEL
』と『pop'n music』のコラボレーション企画として作詞・作曲・歌唱を行い、その経緯がゲームの発売に合わせ、同年発売の同誌第43・44号にて前後編2週にわたって『もうしま』の中で描かれた」）。	NO_PRONOUNCE	NO_LABEL
この様子は後に同作コミックスの4巻へ収録されている。	このよーすわごにどーつくりこみっくすのよんかんえしゅーろくされている。	NO_LABEL
本作はいわゆる電波ソングの範疇に入る、完全なるコミックソング。	もとさくわいわゆるでんぱそんぐのはんちゅーにはいる、かんぜんなるこみっくそんぐ。	NO_LABEL
もともとはコナミサイドが「『もうしま。	NO_PRONOUNCE	NO_LABEL
』と『pop'n music』がコラボすれば面白そうだ」という発案から次第に話が進んでいったものである。	NO_PRONOUNCE	NO_LABEL
その後、キャラクターデザインおよび、収録する楽曲の作詞作曲を依頼された西本が自宅で最も音が響きにくいという理由でトイレの中を使い、楽器が弾けないために伴奏を全て口で行うという、ある意味すさまじい楽曲を製作した。	そのご、きゃらくたーでざいんおよび、しゅーろくするがっきょくのさくしさっきょくをいらいされたにしもとがじたくでもっともおとがひびきにくいとゆうりゆーでといれのなかをつかい、がっきがひけないためにばんそーをすべてぐちでおこなうとゆう、あるいみすさまじいがっきょくをせいさくした。	NO_LABEL
しかし、同席した村井聖夜はこの口だけのアレンジを大変気に入り、口楽器も歌詞としてそのまま収録しようということになり、まわりの雑音などを取り除くために改めてボーカル録りを行い、ゲーム内へ収録された。	しかし、どーせきしたむらいせいやわこのくちだけのあれんじをたいへんきにいり、くちがっきもかしとしてそのまましゅーろくしようとゆうことになり、まわりのざつおんなどをとりのぞくためにあらためてぼーかるろくりをおこない、げーむないえしゅーろくされた。	NO_LABEL
村井聖夜のアレンジはデモテープでは「ジャカジャカ……タカタカ……」などと表現されていた部分もヒーローソングのように仕上げた。	NO_PRONOUNCE	NO_LABEL
なお、電波風な曲の雰囲気とは裏腹に、ゲーム中での難易度は9ボタンのノーマル譜面の段階でもレベル21と高めで、EX譜面は『pop'n music』において当時事実上の最高難度とされていたレベル43である。	NO_PRONOUNCE	NO_LABEL
ただし、その難易度は譜面の配置よりも、2曲分のロング曲を除いては当時歴代最高であったポップくんの数の多さと、その影響によるゲージの上昇率の低さによるものが大きい。	ただし、そのなんいどわふめんのはいちよりも、にきょくぶんのろんぐきょくをのぞいてわとーじれきだいさいこーであったぽっぷくんのかずのおーさと、そのえいきょーによるげーじのじょーしょーりつのひくさによるものがおーきい。	NO_LABEL
なお、ノーツの最大数については後に『pop'n music 15 ADVENTURE』にて登場したニエンテEXで更新されている。	NO_PRONOUNCE	NO_LABEL
なお、楽曲の構成としてはイントロは1分以上もあり、本来の歌詞が始まるまで延々と西本の口楽器が披露され、さらには途中で咳き込み、台詞の途中で「あ、間違えた」というところで曲が終わってしまう。	NO_PRONOUNCE	NO_LABEL
ちなみに、PS2版『pop'n music 13 カーニバル』の楽曲が収録されているサウンドトラックでも、口楽器の部分まで含めてすべて歌詞としてブックレットに記載されている。	NO_PRONOUNCE	NO_LABEL
収録後、西本は「ポップンミュージックアーティストによるコンサートに自分を出してくれ」と頼んだが、断られている。	NO_PRONOUNCE	NO_LABEL
「兄のセイント★カズオが志半ばで悪の組織に敗れたため、いやいやながら後を継いで闘う弟」という設定のキャラクター。	NO_PRONOUNCE	NO_LABEL
曲の担当キャラクターとしてゲーム上に登場する。	きょくのたんとーきゃらくたーとしてげーむじょーにとーじょーする。	NO_LABEL
キャラクターデザインは西本本人が行った。	きゃらくたーでざいんわにしもとほんにんがおこなった。	NO_LABEL
しかし、あまりにもゲームの世界観とかけ離れていたために、修正が行われた。	しかし、あまりにもげーむのせかいかんとかけはなれていたために、しゅーせいがおこなわれた。	NO_LABEL
キャラクターデザイン修正はコンシューマー版『pop'n music』のデザイナーのアオニサイが担当。	NO_PRONOUNCE	NO_LABEL
漫画によれば、西本の原画を渡された際「可愛くしにくい…」と酷く困惑していた様子。	NO_PRONOUNCE	NO_LABEL
どの部分を残せばいいか聞かれた際、西本は『全部』と要求。	NO_PRONOUNCE	NO_LABEL
だが最終的に残ったのは胴着風の服と鉢巻だけであった。	だがさいしゅーてきにのこったのわどーぎふーのふくとはちまきだけであった。	NO_LABEL
また、敵キャラを渡された際も「また可愛くしにくいキャラを…」と困っていた。	NO_PRONOUNCE	NO_LABEL
敵キャラ3体のデザインはそのまま流用しており、セイント★セイジの元デザインは漫画内のほか、ゲーム内でも一瞬登場している。	NO_PRONOUNCE	NO_LABEL
なお、『pop'n music』のキャラクターには各自簡単なキャラクター紹介文が用意されているのだが、セイント★セイジの場合は曲最後のセリフ部分がそのまま紹介文となっている。	NO_PRONOUNCE	NO_LABEL
前述の通り、「あ、間違えた」の部分まで込みの紹介文である。	NO_PRONOUNCE	NO_LABEL
また、キャラクターのアクションは判定に応じたアクションを取らない、いわゆるムービー形式で制作されており、セイント★セイジの活躍を描くアクション映画といった趣で進行する。	NO_PRONOUNCE	NO_LABEL
このため、プレイヤーキャラクターとしては使用できない。	このため、ぷれいやーきゃらくたーとしてわしよーできない。	NO_LABEL
同ゲームの特別版に付属の『V-レアサウンドトラック Vol.15』に収録されているその名のとおりの「元歌」である。	NO_PRONOUNCE	NO_LABEL
こちらは『もうしま。	NO_PRONOUNCE	NO_LABEL
』内で披露されていたのと同じ、上記のトイレ録りのデモ音源をそのまま収録しているというのがミソであり、同サウンドトラックのボーナストラックであり、目玉とされている。	NO_PRONOUNCE	NO_LABEL
