フランチェスコ・ザムベッカーリはイタリアの初期の気球開発者である。	ふらんちぇすこざむべっかーりわいたりあのしょきのききゅーかいはつしゃである。	NO_LABEL
ボローニャに生まれた。	ぼろーにゃにうまれた。	NO_LABEL
パルマで学んだ後、スペイン海軍の士官となり艦隊勤務についた。	ぱるまでまなんだのち、すぺいんかいぐんのしかんとなりかんたいきんむについた。	NO_LABEL
宗教的な理由により1783年にパリに逃れ、11月25日に行われたモンゴルフィエ兄弟の熱気球による飛行をみた観衆の一人となった。	しゅーきょーてきなりゆーによりせんななひゃくはちじゅうさんねんにぱりにのがれ、じゅーいちがつにじゅうごにちにおこなわれたもんごるふぃえきょーだいのねつききゅーによるひこーをみたかんしゅーのひとりとなった。	NO_LABEL
その後ロンドンに移り、イタリア出身で水素気球の飛行で有名になるビンチェンツォ・ルナルディと親しくなり、1785年3月22日、ザムベッカーリも3000mを越える飛行を行なった。	NO_PRONOUNCE	NO_LABEL
また、ガス気球と熱気球を組み合わせるロジェ気球の開発者で、ドーバー海峡横断に失敗し死亡したピラートル・ド・ロジェとも親しくなった。	NO_PRONOUNCE	NO_LABEL
1787年ロシアに移り、ロシア海軍に加わるが、乗っていた軍艦が難破し、トルコ軍の捕虜となり2年以上トルコに抑留された。	せんななひゃくはちじゅうななねんろしあにうつり、ろしあかいぐんにくわわるが、のっていたぐんかんがなんぱし、とるこぐんのほりょとなりにねんいじょーとるこによくりゅーされた。	NO_LABEL
開放された後ボローニャに戻り、気球の開発と、航空の技術に関する著述を行った。	かいほーされたのちぼろーにゃにもどり、ききゅーのかいはつと、こーくーのぎじゅつにかんするちょじゅつをおこなった。	NO_LABEL
1803年にロジェ式の気球を開発し、パシュクアーレ・アンドレオーリ、ガエタノ・グラセッティらと何度か飛行を行った。	NO_PRONOUNCE	NO_LABEL
1803年10月7日から8日には、ボーローニャのモンタニョーラからアドリア海を越える飛行を行ない、イストリア の海岸線近くまで飛行した。	せんはっぴゃくさんねんじゅーがつなのかからようかにわ、ぼーろーにゃのもんたにょーらからあどりあかいをこえるひこーをおこない、いすとりあのかいがんせんちかくまでひこーした。	NO_LABEL
1812年に3台目の気球での飛行時に気球が燃え上がりザムベカーリは死亡した。	NO_PRONOUNCE	NO_LABEL
