株式会社星電社は、兵庫県神戸市中央区に本社を置く家電量販店を経営する企業。	かぶしきがいしゃせいでんしゃわ、ひょーごけんこーべしちゅーおーくにほんしゃをおくかでんりょーはんてんをけいえいするきぎょー。	NO_LABEL
ヤマダ電機傘下の家電量販店の一つである。	やまだでんきさんかのかでんりょーはんてんのひとつである。	NO_LABEL
かつては兵庫県内で「せいでん」の店舗ブランドで量販店を営業していたが、ヤマダ電機傘下に入った後はヤマダブランドの量販店をフランチャイズ運営するほか、せいでんブランドで携帯電話店を営業している。	NO_PRONOUNCE	NO_LABEL
1945年11月1日に、闇市が広がっていた神戸市生田区三宮町のバラックで創業者の後藤博雅・英一兄弟が、真空管を専門に扱う卸・小売店として、合資会社 星電社を設立し、創業。	NO_PRONOUNCE	NO_LABEL
1949年1月21日に現法人の株式会社 星電社を設立する。	せんきゅうひゃくよんじゅうきゅうねんいちがつにじゅういちにちにげんほーじんのかぶしきがいしゃせいでんしゃをせつりつする。	NO_LABEL
暗闇に輝く星になぞらえて、店名を星電社と名付けたとされている。	くらやみにかがやくほしになぞらえて、てんめいをせいでんしゃとなずけたとされている。	NO_LABEL
1962年に甲子園店を開業させたのを皮切りに、一時は全国展開を図り、1969年に家電売上高日本一を達成し、全国に70店以上を構えた。	NO_PRONOUNCE	NO_LABEL
1972年に創業者の後藤博雅が「お客さまに密着するため、兵庫県周辺での事業を絞る」との方針を打ち出し、店舗を一気に半減させて兵庫県周辺のみに営業エリアを縮小させリージョナルチェーンへと方向転換をした。	NO_PRONOUNCE	NO_LABEL
この地域密着の方針により、1977年に、家電量販店大手では珍しい御用聞きの専任者が配置され、全盛期では120人ほどに上ったほか、1978年には姫路本店を開業するなど兵庫県を中心に店舗を展開、バブル期にも広い売り場や駐車場を持つ郊外型店舗ではなく、より地域に密着する為の小型店を多数展開する独自の営業戦略を採った。	このちーきみっちゃくのほーしんにより、せんきゅうひゃくななじゅうななねんに、かでんりょーはんてんおーてでわめずらしいごよーききのせんにんしゃがはいちされ、ぜんせいきでわひゃくにじゅうにんほどにのぼったほか、せんきゅうひゃくななじゅうはちねんにわひめじほんてんをかいぎょーするなどひょーごけんをちゅーしんにてんぽをてんかい、ばぶるきにもひろいうりばやちゅーしゃじょーをもつこーがいがたてんぽでわなく、よりちいきにみっちゃくするためのこがたてんをたすーてんかいするどくじのえいぎょーせんりゃくをとった。	NO_LABEL
また、商品価値を丁寧にきちんと説明できる店員により付加価値の高い商品を適正価格で販売して利益を出す方針も採っていた。	また、しょーひんかちをていねいにきちんとせつめいできるてんいんによりふかかちのこういしょーひんをてきせいかかくではんばいしてりえきをだすほーしんもとっていた。	NO_LABEL
バブル期には地域密着の小型店を積極的に出店したほか、1992年に神戸ハーバーランドに開店したハーバーランド店に20億円を投じるなど約30店の新規出店を行った。	NO_PRONOUNCE	NO_LABEL
この大量出店により人手不足となって御用聞きの専任者を引き上げたことから競合他社に顧客が流出する結果となった他、債務の増大や既存店売上の減少など、経営面で負の側面が多く生じる結果となった。	このたいりょーしゅってんによりひとでぶそくとなってごよーききのせんにんしゃをひきあげたことからきょーごーたしゃにこきゃくがりゅーしゅつするけっかとなったほか、さいむのぞーだいやきそんてんうりあげのげんしょーなど、けいえいめんでふのそくめんがおーくしょーじるけっかとなった。	NO_LABEL
大量出店に合せて1991年には高卒と大卒を合せて160人の新卒採用を行った。	たいりょーしゅってんにあわせてせんきゅうひゃくきゅうじゅういちねんにわこーそつとだいそつをあわせてひゃくろくじゅうにんのしんそつさいよーをおこなった。	NO_LABEL
1992年5月期には兵庫県を中心に約60店舗を展開して売上高約694億円を上げ、関西で最大の家電量販店チェーンとなり、従業員数も全盛期には約1500人に達した。	NO_PRONOUNCE	NO_LABEL
1995年1月17日の阪神・淡路大震災により総売上高の42%を稼いでいた三宮本店が全壊したほか、物流拠点や在庫商品など100億円を超える被害を受け業績が悪化し始めた。	せんきゅうひゃくきゅうじゅうごねんいちがつじゅうしちにちのはんしんあわじだいしんさいによりそーうりあげだかのよんじゅうにぱーせんとをかせいでいたさんのみやほんてんがぜんかいしたほか、ぶつりゅーきょてんやざいこしょーひんなどひゃくおくえんをこえるひがいをうけぎょーせきがあっかしはじめた。	NO_LABEL
そこに同じ兵庫県内に本拠地を置いていたライバルの家電量販店チェーンのミドリ電化が阪神・淡路大震災のあった1995年ごろから郊外への大型店を増やし、売上高を2倍以上に伸ばした。	そこにおなじひょーごけんないにほんきょちをおいていたらいばるのかでんりょーはんてんちぇーんのみどりでんかがはんしんあわじだいしんさいのあったせんきゅうひゃくきゅうじゅうごねんごろからこーがいえのおーがたてんをふやし、うりあげだかをにばいいじょーにのばした。	NO_LABEL
またコジマやヤマダ電機などの関東の家電量販店チェーンもその頃から兵庫県内でも大きな駐車場を持つ郊外型店の出店攻勢をかけ始めるなど、安売りを武器にした郊外型量販店との競争が激化し始めた。	またこじまややまだでんきなどのかんとーのかでんりょーはんてんちぇーんもそのころからひょーごけんないでもおーきなちゅーしゃじょーをもつこーがいがたてんのしゅってんこーせいをかけはじめるなど、やすうりをぶきにしたこーがいがたりょーはんてんとのきょーそーがげきかしはじめた。	NO_LABEL
星電社は営業エリアを限定した関係で、売上規模がコジマやヤマダ電機などの低価格を売りにする家電量販店チェーンより大幅に劣ったため、仕入価格が高くなり店頭価格が5-10%ほど高くなったり、完全買取を条件に独自商品をメーカーに通常より数%以上安いコストで製造してもらえないなど価格競争への対応力が弱かった。	NO_PRONOUNCE	NO_LABEL
さらに休日に家族連れが商品を車で持ち帰れる郊外店で買う傾向が強まる中、店舗の半数が駅前など市街地立地の店舗であったため郊外店と差別化した品揃え対応ができない中途半端な商品政策になるなど、家電販売業界の変化への対応も遅れがちとなった。	さらにきゅーじつにかぞくずれがしょーひんをくるまでもちかえれるこーがいてんでかうけいこーがつよまるなか、てんぽのはんすーがえきまえなどしがいちりっちのてんぽであったためこーがいてんとさべつかしたしなそろえたいおーができないちゅーとはんぱなしょーひんせいさくになるなど、かでんはんばいぎょーかいのへんかえのたいおーもおくれがちとなった。	NO_LABEL
1998年3月に三宮本店を当時全国最大の家電店として再建したものの、震災後に若返えりつつ来街者数が回復した三宮の客層変化に対応できず、来店客回復の目論見は大きく外れ、売上は回復できなかった。	せんきゅうひゃくきゅうじゅうはちねんさんがつにさんのみやほんてんをとーじぜんこくさいだいのかでんてんとしてさいけんしたものの、しんさいごにわかがえりえりつつらいまちしゃすーがかいふくしたさんのみやのきゃくそーへんかにたいおーできず、らいてんきゃくかいふくのもくろみわおーきくはずれ、うりあげわかいふくできなかった。	NO_LABEL
これに伴い南館を閉鎖し手工芸用品専門店のユザワヤに貸し出したり、2000年7月にハーバーランド店を閉店するなど集客力の落ちた店舗の閉鎖を進め、2002年1月に28店舗まで集約。	NO_PRONOUNCE	NO_LABEL
その後も店頭の品揃えが粗利益率の高いテレビや洗濯機など一般家電が少ない一方で粗利益率の低いパソコンが多い構成によりマツヤデンキを粗利益率で5-6ポイントも下回るほどの低い収益性であったことなどにより、店舗のうち約3分の1が赤字となり、2001年5月期の売上高も約344億円にまで減少していた。	NO_PRONOUNCE	NO_LABEL
阪神・淡路大震災による被災や郊外型店との競合激化による業績の低迷を受けて負債総額約280億円を抱えて約22億円の債務超過に陥り、2002年1月8日に神戸地方裁判所に民事再生法の適用を申し立てて同日保全命令を受けて事実上破綻した。	はんしんあわじだいしんさいによるひさいやこーがいがたてんとのきょーごーげきかによるぎょーせきのていめいをうけてふさいそーがくやくにひゃくはちじゅうおくえんをかかえてやくにじゅうにおくえんのさいむちょーかにおちいり、にせんにねんいちがつようかにこーべちほーさいばんしょにみんじさいせいほーのてきよーをもーしたててどーじつほぜんめいれいをうけてじじつじょーはたんした。	NO_LABEL
破綻後も全店舗の営業やポイントサービスと補修などのサービスも継続しながら再建の支援企業の交渉を行っていった。	はたんごもぜんてんぽのえいぎょーやぽいんとさーびすとほしゅーなどのさーびすもけいぞくしながらさいけんのしえんきぎょーのこーしょーをおこなっていった。	NO_LABEL
しかし、破綻に伴う信用不安から商品の入荷が少なくなって次々と商品在庫が底を突いて販売が出来なくなるような状況も生じ、社員数も約150人に減少した。	しかし、はたんにともなうしんよーふあんからしょーひんのにゅーかがすくなくなってつぎつぎとしょーひんざいこがそこをついてはんばいができなくなるよーなじょーきょーもしょーじ、しゃいんすーもやくひゃくごじゅうにんにげんしょーした。	NO_LABEL
再建の支援企業探しは難航したものの2002年4月25日にレンタルビデオ店TSUTAYAを展開するカルチュア・コンビニエンス・クラブとの間で包括支援の基本合意を締結して再生への動きが本格化し始めた。	さいけんのしえんきぎょーさがしわなんこーしたもののにせんにねんしがつにじゅうごにちにれんたるびでおてんつたやをてんかいするかるちゅあこんびにえんすくらぶとのまでほーかつしえんのきほんごーいをていけつしてさいせいえのうごきがほんかくかしはじめた。	NO_LABEL
この合意により、三宮、姫路、芦屋、三原、龍野、赤穂、西脇、豊岡の8店を家電販売店「seiden」として引き続き営業し、11店はカルチュア・コンビニエンス・クラブに譲渡してTSUTAYA店舗に転換すると共に、当社の100%減資後の増資をカルチュア・コンビニエンス・クラブが引き受けて同社の子会社となることになった。	NO_PRONOUNCE	NO_LABEL
支援企業のカルチュア・コンビニエンス・クラブは同社が保有していなかった家電販売のノウハウを補うため、家電メーカーに強い影響力を持つ家電量販店のマツヤデンキに支援を依頼し、2002年7月15日にマツヤデンキが社長などの経営陣を派遣するほか、情報システムの共有や商品供給で協力する形で支援に乗り出すことを発表した。	しえんきぎょーのかるちゅあこんびにえんすくらぶわどーしゃがほゆーしていなかったかでんはんばいののーはうをおぎなうため、かでんめーかーにつよいえいきょーりょくをもつかでんりょーはんてんのまつやでんきにしえんをいらいし、にせんにねんしちがつじゅうごにちにまつやでんきがしゃちょーなどのけいえいじんをはけんするほか、じょーほーしすてむのきょーゆーやしょーひんきょーきゅーできょーりょくするかたちでしえんにのりだすことをはっぴょーした。	NO_LABEL
また再建に当たっては、旧経営陣が責任を取って総退陣している。	またさいけんにあたってわ、きゅーけいえいじんがせきにんをとってそーたいじんしている。	NO_LABEL
この両社の支援を受けて、改装費用約1.3億円を投じて2002年10月26日に地下1階と地上1階に映像ソフトの品ぞろえが、当時関西一というレンタルビデオ店「TSUTAYA」を開業させる形で改装してハードとソフトの連携で相乗効果が発揮させる複合型家電店とした三宮本店を新装開店させて、先行して改装した姫路本店と同業態へ転換するなど改装を進めて経営の再建を行っていった。	NO_PRONOUNCE	NO_LABEL
2002年12月25日に神戸市内で債権者集会を開いて銀行借入や家電メーカーなどの売掛債権などの一般債権約238億円の97%カットなどを盛り込んだ再生計画案を可決し、同日神戸地方裁判所から同計画案の認可決定を受けた。	NO_PRONOUNCE	NO_LABEL
この再生計画に関連して三宮本店などを除く保有不動産17物件を売却し、担保権を持つ金融機関からの借入れの返済に充てたため、豊岡や姫路など営業中の店舗と本社事務所などはリースバック方式で賃貸借契約を結んで使用し続けることになった。	NO_PRONOUNCE	NO_LABEL
2003年3月5日までに実施された減増資の際には投資会社のアドバンテッジパートナーズが設立して運用しているファンドが8.5億円を出資して筆頭株主となり、残り1億円を元々の支援企業であるカルチュア・コンビニエンス・クラブが出資して正式に再建がスタートし、2006年3月2日には民事再生手続きを終えた。	NO_PRONOUNCE	NO_LABEL
2003年9月25日に当社の家電販売業務の再生支援をしてきた家電量販店のマツヤデンキも民事再生法の適用を申請し、翌日の26日に産業再生機構の支援決定を受けて再建に乗り出すことになった。	にせんさんねんくがつにじゅうごにちにとーしゃのかでんはんばいぎょーむのさいせいしえんをしてきたかでんりょーはんてんのまつやでんきもみんじさいせいほーのてきよーをしんせいし、よくじつのにじゅうろくにちにさんぎょーさいせいきこーのしえんけっていをうけてさいけんにのりだすことになった。	NO_LABEL
その産業再生機構から2003年にマツヤデンキの営業を譲渡され、2005年にサトームセンの全株式を創業家から買収していた新生銀行系列のファンドが2006年3月3日にアドバンテッジパートナーズが設立して運用しているファンドとカルチュア・コンビニエンス・クラブから株式の90%を取得して2006年10月1日に持ち株会社のぷれっそホールディングスを設立して経営統合することになった。	そのさんぎょーさいせいきこーからにせんさんねんにまつやでんきのえいぎょーをじょーとされ、にせんごねんにさとーむせんのぜんかぶしきをそーぎょーけからばいしゅーしていたしんせいぎんこーけいれつのふぁんどがにせんろくねんさんがつみっかにあどばんてっじぱーとなーずがせつりつしてうんよーしているふぁんどとかるちゅあこんびにえんすくらぶからかぶしきのきゅうじゅうぱーせんとをしゅとくしてにせんろくねんじゅーがつついたちにもちかぶがいしゃのぷれっそほーるでぃんぐすをせつりつしてけいえいとうごーすることになった。	NO_LABEL
2007年5月15日にぷれっそホールディングスの全株式をヤマダ電機が取得して子会社化されることが発表され、同社の傘下に入った。	にせんななねんごがつじゅうごにちにぷれっそほーるでぃんぐすのぜんかぶしきをやまだでんきがしゅとくしてこがいしゃかされることがはっぴょーされ、どーしゃのさんかにはいった。	NO_LABEL
この間の2006年には三宮本店を全面改装して家電製品を中心とした生活空間づくりを提案する売場構成に転換し、2008年末から三宮本店の全フロアで複数の商品を組み合わせたセット販売に取り組むなど提案型の販売戦略の展開を進めた。	このかんのにせんろくねんにわさんのみやほんてんをぜんめんかいそーしてかでんせいひんをちゅーしんとしたせいかつくーかんずくりをていあんするうりばこーせいにてんかんし、にせんはちねんまつからさんのみやほんてんのぜんふろあでふくすーのしょーひんをくみあわせたせっとはんばいにとりくむなどていあんがたのはんばいせんりゃくのてんかいをすすめた。	NO_LABEL
また、2006年6月に7店舗で17人の御用聞きを復活させて各担当者が担当地区をくまなく回る地域密着による営業戦略に再挑戦し、2007年に入ってからは個別の担当者の直接の売上では採算レベルに達していないものの、御用聞きの担当者がいる地域からの売上が前年比でプラスになるなどの成果が出始めた。	NO_PRONOUNCE	NO_LABEL
前述の経営再編の際には、店名は従来通り「せいでん」が使用され続けていたが、兵庫県内に13店を展開しているヤマダ電機とチラシを共通化や仕入れ、物流、店舗運営などを効率化してコストを削減すると共に売上拡大を図ることを目的に、ヤマダ電機のフランチャイズ化をすることになった。	NO_PRONOUNCE	NO_LABEL
2009年7月3日にヤマダ電機のフランチャイズ店に切替えて「せいでん」の三宮本店がLABI三宮になり、本店以外に芦屋や姫路など計7店がテックランドに名称変更し、ヤマダ電機のフランチャイズ店にならなかった西脇店と携帯電話専門店のデュオこうべ店は同月中に閉店し、看板やチラシには引き続き「せいでん」のロゴマークを使うものの、店舗名称としてのせいでんは消滅した。	NO_PRONOUNCE	NO_LABEL
その後約4ヶ月で姫路・三原の2店が閉店している。	NO_PRONOUNCE	NO_LABEL
なお、転換後も既存店舗と区別するため看板・チラシにはせいでんのロゴマークが入る。	NO_PRONOUNCE	NO_LABEL
レシートにはヤマダ電機の下に「株式会社 星電社」と住所が明記されている。	NO_PRONOUNCE	NO_LABEL
また、ヤマダ電機による買収により同社の連結子会社になった後も、ぷれっそホールディングスが当社を含む3社の持ち株会社のままになっていたが、2012年12月に同社が清算されて以降はヤマダ電機の直接傘下となっている。	NO_PRONOUNCE	NO_LABEL
2016年10月現在の店舗は、LABI三宮の他、テックランドが芦屋、New淡路、龍野、赤穂、豊岡の5店の計6店である。	NO_PRONOUNCE	NO_LABEL
かつて三宮本店が全国一の売り上げを誇った家電量販の先駆けとなった店舗である。	かつてさんのみやほんてんがぜんこくいちのうりあげをほこったかでんりょーはんのさきがけとなったてんぽである。	NO_LABEL
1971年に、現本社を置く神戸の三宮に大型店舗を開業させたのを機に、家電量販店に転換している。	せんきゅうひゃくななじゅういちねんに、げんほんしゃをおくこーべのさんのみやにおーがたてんぽをかいぎょーさせたのをきに、かでんりょーはんてんにてんかんしている。	NO_LABEL
阪神・淡路大震災前には総売上高の42%を稼いでいた。	はんしんあわじだいしんさいまえにわそーうりあげだかのよんじゅうにぱーせんとをかせいでいた。	NO_LABEL
1995年1月17日の阪神・淡路大震災により本館が全壊したが、三宮周辺だけで約60億円に上る復興費用を掛けて1998年3月に三宮本店を当時は全国最大の家電店として再建した。	せんきゅうひゃくきゅうじゅうごねんいちがつじゅうしちにちのはんしんあわじだいしんさいによりほんかんがぜんかいしたが、さんのみやしゅーへんだけでやくろくじゅうおくえんにのぼるふっこーひよーをかけてせんきゅうひゃくきゅうじゅうはちねんさんがつにさんのみやほんてんをとーじわぜんこくさいだいのかでんてんとしてさいけんした。	NO_LABEL
しかし、再開業初日にJRと阪神の元町駅まで約500mの入店待ちの行列が出来るとの当社幹部の予想に反してわずか100mに満たない行列しか出来ず、来賓の同業他社の幹部から「こんな寂しい開店日になるとはね」と云われるほどの来店者に留まった。	NO_PRONOUNCE	NO_LABEL
震災後に他店舗を閉鎖したにも拘らず震災前の42%から35%へと当社の総売上高に占める三宮本店の比率が下がり、売上は回復できなかった。	しんさいごにたてんぽをへいさしたにもかかわらずしんさいまえのよんじゅうにぱーせんとからさんじゅうごぱーせんとえととーしゃのそーうりあげだかにしめるさんのみやほんてんのひりつがさがり、うりあげわかいふくできなかった。	NO_LABEL
こうした売上の伸び悩みを受けて南館を閉鎖して手工芸用品専門店のユザワヤに貸し出すなど売場の再編も進められた。	こーしたうりあげののびなやみをうけてみなみかんをへいさしてしゅこーげいよーひんせんもんてんのゆざわやにかしだすなどうりばのさいへんもすすめられた。	NO_LABEL
神戸地方裁判所に民事再生法の適用を申し立てて破綻した後の2002年10月26日には地下1階と地上1階に映像ソフトの品ぞろえが当時関西一という支援企業のカルチュア・コンビニエンス・クラブが運営するレンタルビデオ店「TSUTAYA」を開業させる形で改装してハードとソフトの連携で相乗効果が発揮させる複合型家電店として新装開店した。	NO_PRONOUNCE	NO_LABEL
また、2006年には全面改装して家電製品を中心とした生活空間づくりを提案する売場構成に転換し、2008年末から三宮本店の全フロアで複数の商品を組み合わせたセット販売に取り組むなど提案型の販売戦略の展開を他の店舗に先駆けて進めた。	また、にせんろくねんにわぜんめんかいそーしてかでんせいひんをちゅーしんとしたせいかつくーかんずくりをていあんするうりばこーせいにてんかんし、にせんはちねんまつからさんのみやほんてんのぜんふろあでふくすーのしょーひんをくみあわせたせっとはんばいにとりくむなどていあんがたのはんばいせんりゃくのてんかいをたのてんぽにさきがけてすすめた。	NO_LABEL
2009年7月3日にヤマダ電機のフランチャイズ店に切替えた際には当店のみLABI三宮としてLABIの店名が採用された。	にせんきゅうねんしちがつみっかにやまだでんきのふらんちゃいずてんにきりかえたさいにわとーてんのみらびさんみやとしてらびのてんめいがさいよーされた。	NO_LABEL
