福島県第4区は、日本の衆議院議員総選挙における選挙区。	ふくしまけんだいよんくわ、にっぽんのしゅーぎーんぎーんそーせんきょにおけるせんきょく。	NO_LABEL
1994年の公職選挙法改正で設置。	せんきゅうひゃくきゅうじゅうよねんのこーしょくせんきょほーかいせいでせっち。	NO_LABEL
2017年の区割り変更により、西白河郡西郷村が3区から4区に移動された。	にせんじゅうななねんのくわりへんこーにより、にししからわぐんさいごーそんがさんくからよんくにいどーされた。	NO_LABEL
会津地方全域が選挙区であり、竹下派七奉行の1人だった渡部恒三が小選挙区制導入以来、連戦連勝していた。	あいずちほーぜんいきがせんきょくであり、たけしたはななしちぶぎょーのひとりだったわたなべこうぞーがしょーせんきょくせいどーにゅーいらい、れんせんれんしょーしていた。	NO_LABEL
ただし2005年の第44回衆議院議員総選挙では自由民主党の渡部篤に約7千票差にまで迫られ比例復活を許した。	NO_PRONOUNCE	NO_LABEL
2012年の第46回衆議院議員総選挙では渡部が80歳の高齢もあって引退、民主党内で後任が定まらない中、自民党が擁立した菅家一郎が初当選し、自民初の小選挙区での当選者となった。	にせんじゅうにねんのだいよんじゅうろくかいしゅーぎーんぎーんそーせんきょでわわたなべがはちじゅっさいのこーれいもあっていんたい、みんしゅとーないでこーにんがさだまらないなか、じみんとーがよーりつしたかんけいちろーがはつとーせんし、じみんはつのしょーせんきょくでのとーせんしゃとなった。	NO_LABEL
2014年の第47回衆議院議員総選挙では民主党との選挙協力を行った維新の党の小熊慎司が菅家を416票差で破った。	NO_PRONOUNCE	NO_LABEL
維新としては福島県下ならびに比例東北ブロック内の小選挙区で初めて議席を獲得した。	いしんとしてわふくしまけんかならびにひれいとーほくぶろっくないのしょーせんきょくではじめてぎせきをかくとくした。	NO_LABEL
2017年の第48回衆議院議員総選挙では菅家と希望の党に移籍した小熊との戦いとなったが1209票差で菅家が競り勝ち、小熊は比例復活に回った。	NO_PRONOUNCE	NO_LABEL
