『浪子』は、1932年製作・公開、田中栄三・木村一衛・滝村和男・三上良二・大内秀邦共同監督による日本の長編劇映画である。	NO_PRONOUNCE	NO_LABEL
トーキー初期における3大トーキーシステムのひとつをもつアメリカ合衆国のウェスタン・エレクトリックは、日本に東洋ウェスターンを設立、同社は菊池東陽のオリエンタル写真工業の工場内にトーキー撮影の設備を設けさせ、オリエンタル映画社を設立した。	NO_PRONOUNCE	NO_LABEL
同社の第1作として製作されたのが、徳富蘆花のヒット小説『不如帰』の変奏としての本作『浪子』であった。	NO_PRONOUNCE	NO_LABEL
東洋ウェスターンによるパラマウント映画日本支社との配給提携により、1932年5月19日、東京・内幸町の帝国劇場等で公開された。	NO_PRONOUNCE	NO_LABEL
オリエンタル映画社は、録音技師として派遣されたマッキナニーの人件費がかさみ、スタジオを新設したにもかかわらず本作1作のみで解消した。	NO_PRONOUNCE	NO_LABEL
本作の上映用ポジプリントは、マツダ映画社が54分のヴァージョンを所有している。	NO_PRONOUNCE	NO_LABEL
現在も鑑賞可能な作品である。	げんざいもかんしょーかのーなさくひんである。	NO_LABEL
『日本映画発達史 II 無声からトーキーへ』、日本映画データベース参照。	NO_PRONOUNCE	NO_LABEL
『日本映画発達史 II 無声からトーキーへ』参照。	NO_PRONOUNCE	NO_LABEL
