小河内川は、広島県を流れる太田川水系の一級河川。	おがうちがわわ、ひろしまけんをながれるおーたがわすいけいのいっきゅーかせん。	NO_LABEL
延長約12.5km。	えんちょーやくじゅうにてんごきろめーとる。	NO_LABEL
北広島町今吉田字若林付近の約400m前後のゆるやかな中国山地に発し、今吉田の広い谷を南西流した後、広島市安佐北区安佐町大字小河内に入ると傾斜を強め、安佐町小河内字小浜で太田川左岸に合流する。	きたひろしまちょういまよしだじわかばやしふきんのやくよんひゃくめーとるぜんごのゆるやかなちゅーごくさんちにはっし、いまよしだのひろいたにをなんせいながしたのち、ひろしましあさきたくあさちょーだいじおがわちにはいるとけいしゃをつよめ、あさちょーおがうちじおばまでおーたがわさがんにごーりゅーする。	NO_LABEL
