フォーミダブル級フリゲート ()は、シンガポール海軍が運用するフリゲートの艦級。	ふぉーみだぶるきゅーふりげーとかっこわ、しんがぽーるかいぐんがうんよーするふりげーとのかんきゅー。	NO_LABEL
トライデント級（）とも称される。	とらいでんときゅーかっこともしょーされる。	NO_LABEL
フランス海軍のラファイエット級フリゲートの派生型であり、原型艦譲りの優れたステルス性を備えたステルス艦である。	ふらんすかいぐんのらふぁいえっときゅーふりげーとのはせいがたであり、げんけいかんゆずりのすぐれたすてるすせいをそなえたすてるすかんである。	NO_LABEL
またこれに加えて、新型のヘラクレス多機能レーダーを中核とした防空システム、曳航ソナーとシーホーク哨戒ヘリコプターによる対潜戦システムを備えており、多任務に対応できるようになっている。	またこれにくわえて、しんがたのへらくれすたきのーれーだーをちゅーかくとしたぼーくーしすてむ、えいこーそなーとしーほーくしょーかいへりこぷたーによるたいせんせんしすてむをそなえており、たにんむにたいおーできるよーになっている。	NO_LABEL
計画名はNGVPであり、当初計画では、1997年から1998年にかけて、1,000トン級ミサイル・コルベット8隻が発注されることになっていた。	NO_PRONOUNCE	NO_LABEL
しかし各種の新技術を導入する要請から、まもなく艦はフリゲート級にまで拡大され、これに伴い計画は遅延した。	しかしかくしゅのしんぎじゅつをどーにゅーするよーせいから、まもなくかんわふりげーときゅーにまでかくだいされ、これにともないけいかくわちえんした。	NO_LABEL
2000年3月3日、設計およびネームシップの建造がフランスDCN社に発注され、2002年11月14日より建造が開始された。	NO_PRONOUNCE	NO_LABEL
本級はステルス性を向上させるため、艤装の艦内収容を徹底している。	ほんきゅーわすてるすせいをこーじょーさせるため、ぎそーのかんないしゅーよーをてっていしている。	NO_LABEL
魚雷発射管や搭載艇は勿論のこと、錨や係留装置などもできるだけ艦内に収容し、開口部にもレーダー波を吸収する覆いがかぶせられている。	ぎょらいはっしゃかんやとーさいていわもちろんのこと、いかりやけいりゅーそーちなどもできるだけかんないにしゅーよーし、かいこーぶにもれーだーはをきゅーしゅーするおーいがかぶせられている。	NO_LABEL
船体もV字形の傾斜がかけられ、上構は逆V字形の傾斜がかけられた一体構造でレーダー波を反射しにくいように設計されている。	NO_PRONOUNCE	NO_LABEL
その一方、主機関としては、原型艦と同様にCODAD方式を採用しており、MTU 20V 8000 M90ディーゼルエンジン4基で2軸の推進器を駆動する。	NO_PRONOUNCE	NO_LABEL
ディーゼル推進は、一般的にガスタービン推進よりも煙突を小型化できる一方で、放射雑音が多く、音響ステルス性には劣るとされている。	でぃーぜるすいしんわ、いっぱんてきにがすたーびんすいしんよりもえんとつをこがたかできるいっぽーで、ほーしゃざつおんがおーく、おんきょーすてるすせいにわおとるとされている。	NO_LABEL
本級の戦闘システムの中核となるのが、艦橋構造物上の前檣頂部に設置されたタレス社製ヘラクレス多機能レーダーである。	NO_PRONOUNCE	NO_LABEL
これはSバンドで動作するフェーズド・アレイ・レーダーで、ピラミッド型のレドーム内に1面のレーダー・アンテナを収容して、毎分60回転することで全周360度を捜索する。	NO_PRONOUNCE	NO_LABEL
対空目標の捜索距離は250km、同時に400個以上の目標を追尾することができる。	NO_PRONOUNCE	NO_LABEL
また、アスター艦対空ミサイル・システムと完全に統合されており、その射撃指揮も担当する。	NO_PRONOUNCE	NO_LABEL
本級は、シルヴァーA50型VLSとシルヴァーA43型VLSを16セルずつ搭載しており、ここに合計で32発のアスター艦対空ミサイルを収容する。	NO_PRONOUNCE	NO_LABEL
シルヴァーA43型は、アスター艦対空ミサイルを収容できるものとしてはもっとも小型のモデルであり、短射程のアスター15のみを収容する。	NO_PRONOUNCE	NO_LABEL
これはアメリカのESSMにおおむね相当するもので、個艦防空および僚艦防空に使用できる。	NO_PRONOUNCE	NO_LABEL
一方、シルヴァーA50は底が深く、より大型のブースターを装備して射程が長いアスター30の運用に対応する。	NO_PRONOUNCE	NO_LABEL
原型艦はソナーおよび対潜兵装を持たなかったことから、その設計を踏襲した本型でも、艦体装備ソナーは採用されていない。	げんけいかんわそなーおよびたいせんへいそーをもたなかったことから、そのせっけいをとーしゅーしたほんがたでも、かんたいそーびそなーわさいよーされていない。	NO_LABEL
そのかわりに、EDO社製のモデル980 ALOFTS曳航ソナーが装備されている。	NO_PRONOUNCE	NO_LABEL
これはAN/SQS-35の曳航体を流用したアクティヴ・パッシヴ両用のVDS-TASSで、その名の通り、1.1キロヘルツないし1.7キロヘルツという超低周波帯に対応できる。	NO_PRONOUNCE	NO_LABEL
音源音圧は220デシベルである。	NO_PRONOUNCE	NO_LABEL
曳航ケーブルは基本的には200メートル長で、また曳航体の後方にはさらに100メートルのケーブルによって長さ60メートルの聴音アレイが曳航されている。	NO_PRONOUNCE	NO_LABEL
対潜兵器としては、短魚雷用のB515 3連装魚雷発射管を2基、後檣直前の両舷に搭載しているが、ステルス性保持のため、非使用時はシャッター内に格納されている。	NO_PRONOUNCE	NO_LABEL
またS-70B哨戒ヘリコプターを1機搭載している。	NO_PRONOUNCE	NO_LABEL
1番艦はフランスのDCNロリアン工廠で建造されたが、2番艦以降はシンガポール社によって国産化されている。	NO_PRONOUNCE	NO_LABEL
