大麻帆良祭は、赤松健原作の漫画でアニメにもなった「魔法先生ネギま!」の主人公とクラスメート31人合わせて32人を演じた声優が全員出演したコンサートイベントのタイトル。	NO_PRONOUNCE	NO_LABEL
2005年12月10日に千葉市の幕張メッセ・イベントホールで開催された。	NO_PRONOUNCE	NO_LABEL
MCや曲紹介もなく休憩もなく3時間の長丁場ひたすら曲が続いた。	えむしーやきょくしょーかいもなくきゅーけいもなくさんじかんのながちょーばひたすらきょくがつずいた。	NO_LABEL
アニメ第1期のOP「ハッピー☆マテリアル」では出演者全員メドレー形式で歌った。	NO_PRONOUNCE	NO_LABEL
神田は「いつだってLove&Dream」と「魔法じかけは恋のライバル」の間に早着替えを披露した。	NO_PRONOUNCE	NO_LABEL
また神田の歌った数は13曲で最多。	またかんだのうたったかずわじゅうさんきょくでさいた。	NO_LABEL
このライブを収録したDVD・CDが発売されている。	NO_PRONOUNCE	NO_LABEL
DVDのオリコンチャートは最高位：23位　登場回数：3回 	NO_PRONOUNCE	NO_LABEL
アンコール	あんこーる	NO_LABEL
