アヌーク・テーウヴェ、芸名アヌークはオランダの歌手、ソングライター、プロデューサーである。	NO_PRONOUNCE	NO_LABEL
アヌークはオランダで最も人気の高い女性ロック歌手とみられている。	あぬーくわおらんだでもっともにんきのたかいじょせいろっくかしゅとみられている。	NO_LABEL
1997年にシングル「Nobody's Wife」が発売されたのをきっかけにオランダおよびベルギーで多数のヒット曲を量産し、「R U Kiddin' Me」、「Michel」、「Girl」、「Lost」、「One Word」、「I Don't Wanna Hurt」「Modern World」、「Three Days in a Row」、「Woman」などが代表作として挙げられる。	NO_PRONOUNCE	NO_LABEL
2012年までに7枚のアルバムを発売し、2013年5月には8枚目の『』が発売される。	NO_PRONOUNCE	NO_LABEL
また同じ2013年5月にユーロビジョン・ソング・コンテスト2013のオランダ代表としてスウェーデンのマルメで開催される同大会に出場し、「」を歌う。	NO_PRONOUNCE	NO_LABEL
アヌーク・テーウヴェは1975年4月8日にオランダ、デン・ハーグに生まれる。	NO_PRONOUNCE	NO_LABEL
少女時代にドラッグを経験し、14歳で家を出た後は少年施設を転々とする。	しょーじょじだいにどらっぐをけいけんし、じゅうよんさいでいえをでたのちわしょーねんしせつをてんてんとする。	NO_LABEL
音楽への関心は、ブルース歌手であった母親の影響であった。	おんがくえのかんしんわ、ぶるーすかしゅであったははおやのえいきょーであった。	NO_LABEL
15歳からショットガン・ウェディングというバンドに属し、結婚式やパーティーで歌うようになる。	NO_PRONOUNCE	NO_LABEL
1994年よりに通うが2年後に中退する。	せんきゅうひゃくきゅうじゅうよねんよりにかようがにねんごにちゅーたいする。	NO_LABEL
同じ頃、当時の夫を通じてゴールデン・イヤリングのに出会う。	おなじころ、とーじのおっとをつーじてごーるでんいやりんぐのにであう。	NO_LABEL
ヘイはアヌークの才能を見出して楽曲の提供を申し出る。	へいわあぬーくのさいのーをみいだしてがっきょくのていきょーをもーしでる。	NO_LABEL
こうして、ヘイ、および同じバンドメンバーのによって製作された楽曲のひとつが「Mood Indigo」であった。	NO_PRONOUNCE	NO_LABEL
ソングライターのバルト・ファン・フェーンと出会ってから、2人で複数の楽曲を作る。	NO_PRONOUNCE	NO_LABEL
1997年9月5日、2枚目のシングルである「Nobody's Wife」が発売された。	NO_PRONOUNCE	NO_LABEL
この楽曲は数週間にわたり連続でオランダのヒットチャートの首位を維持し、またノルウェーやスウェーデンでもヒットとなる。	このがっきょくわすーしゅーかんにわたりれんぞくでおらんだのひっとちゃーとのしゅいをいじし、またのるうぇーやすうぇーでんでもひっととなる。	NO_LABEL
デビュー・アルバムの『』も大きな成功を収めた。	NO_PRONOUNCE	NO_LABEL
1998年にアヌークはオランダの音楽チャンネルより2つの賞を受賞、更にも受ける。	せんきゅうひゃくきゅうじゅうはちねんにあぬーくわおらんだのおんがくちゃんねるよりふたつのしょーをじゅしょー、さらにもうける。	NO_LABEL
2枚目のアルバム『』は1999年11月に発売された。	NO_PRONOUNCE	NO_LABEL
収録曲の「R U Kiddin' Me」はオランダのヒットチャートthe Dutch Top 100にランクインした。	NO_PRONOUNCE	NO_LABEL
アヌークは米国人のプロデューサーとともに、アメリカ合衆国でのレコード契約を目指してアメリカ合衆国にわたるが、失敗に終わる。	あぬーくわべいこくじんのぷろでゅーさーとともに、あめりかがっしゅーこくでのれこーどけいやくをめざしてあめりかがっしゅーこくにわたるが、しっぱいにおわる。	NO_LABEL
アヌークはオランダに戻って活動を続け、新曲「Don't」を発表、2011年2月よりオランダ国内をツアーする。	NO_PRONOUNCE	NO_LABEL
2001年3月には新しいアルバム『』が発売される。	NO_PRONOUNCE	NO_LABEL
このアルバムには過去の楽曲のアコースティック・バージョンやB面収録曲、やとのデュエットなどが収録されている。	NO_PRONOUNCE	NO_LABEL
この年、アヌークはPopprijs賞を受賞した。	NO_PRONOUNCE	NO_LABEL
2002年11月、アルバム『』が発売された。	NO_PRONOUNCE	NO_LABEL
このアルバムはアヌークのキャリアの中で最もロック色の強いものであった。	このあるばむわあぬーくのきゃりあのなかでもっともろっくしょくのつよいものであった。	NO_LABEL
2003年には賞を受賞する。	にせんさんねんにわしょーをじゅしょーする。	NO_LABEL
次のアルバムは2004年の『』で、この中から「Girl」、「Lost」、「Jerusalem」、「One Word」の4曲がシングル化された	NO_PRONOUNCE	NO_LABEL
2006年、ラジオ放送局より最優秀女性歌手に選出された。	にせんろくねん、らじおほーそーきょくよりさいゆーしゅーじょせいかしゅにせんしゅつされた。	NO_LABEL
2007年に発売されたアルバム『』では、プロデューサーにを起用した。	NO_PRONOUNCE	NO_LABEL
収録曲から最初のシングル・カットは「」であり、4か月以上にわたってヒットチャートにランクインする成功を収めた。	NO_PRONOUNCE	NO_LABEL
この曲は2008年のビデオゲーム「」にも収められている。	NO_PRONOUNCE	NO_LABEL
2009年のアルバム『』からは「」がオランダのヒットチャートで首位となった。	NO_PRONOUNCE	NO_LABEL
アヌークの次のアルバム『』は2011年5月に発売された。	NO_PRONOUNCE	NO_LABEL
この年の2月28日に収録曲「Killer Bee」がYouTubeにて公開され、また初のシングル・カット曲「Down & Dirty」は4月に発売された。	NO_PRONOUNCE	NO_LABEL
その後更に「I'm a Cliché」、「Save Me」、「What Have You Done」の3曲がシングル化された。	NO_PRONOUNCE	NO_LABEL
2012年10月17日、オランダの放送局の決定に基づき、自身がユーロビジョン・ソング・コンテスト2013のオランダ代表となったことをFacebookを通じて発表した。	NO_PRONOUNCE	NO_LABEL
大会は2013年5月にスウェーデンのマルメで開催され、オランダ代表として「」を歌う。	NO_PRONOUNCE	NO_LABEL
アヌークの音楽性はジョーン・オズボーン、、アラニス・モリセットなどと比較される。	NO_PRONOUNCE	NO_LABEL
「Nobody’s Wife」や「R U Kiddin' Me」といった力強いロックの楽曲が知られる一方、「Lost」や「Michel」といったはかない曲も多い。	NO_PRONOUNCE	NO_LABEL
ロック／ポップスに加えてソウル、ファンク、ヒップホップといった要素を試行することもある。	NO_PRONOUNCE	NO_LABEL
1998年までマネージャーであったEdwin Jansenが夫であった。	NO_PRONOUNCE	NO_LABEL
その後2004年3月16日にレゲエ／ラップ・バンドのリーダー・と結婚する。	NO_PRONOUNCE	NO_LABEL
アヌークはレモン・ストタインとの間に3人の子をもうけるが、2008年5月に2人は「円満に」離別したと発表された。	NO_PRONOUNCE	NO_LABEL
2010年、ラッパーのとの間に4人目の子をもうけるが、アノーソドックスとの関係もその後終わった。	にせんじゅうねん、らっぱーのとのかんによにんめのこをもーけるが、あのーそどっくすとのかんけいもそのごおわった。	NO_LABEL
2006年、オランダの歌手とともに、「毎年同じ顔ぶれでは飽きるだろう」として以降のTMF賞へのノミネートを辞退する旨を発表した。	NO_PRONOUNCE	NO_LABEL
3FMラジオ賞	NO_PRONOUNCE	NO_LABEL
