神奈川税務署員殉職事件とは、1947年6月23日に神奈川県川崎市桜本町で発生した密造酒製造の取締りを発端とする在日朝鮮人による暴動と税務職員への襲撃、そしてそれによる職員の殉職事件である。	かながわぜいむしょいんじゅんしょくじけんとわ、せんきゅうひゃくよんじゅうななねろくがつにじゅうさんにちにかながわけんかわさきしさくらもとまちではっせいしたみつぞーしゅせいぞーのとりしまりをほったんとするざいにちちょーせんじんによるぼーどーとぜいむしょくいんえのしゅーげき、そしてそれによるしょくいんのじゅんしょくじけんである。	NO_LABEL
太平洋戦争終結後、極端な米不足のため、正規の酒の生産量が落ち込んでいた。	たいへいよーせんそーしゅーけつご、きょくたんなべいふそくのため、せいきのさけのせいさんりょーがおちこんでいた。	NO_LABEL
その間隙を縫って「カストリ酒」なる密造酒が横行しはじめた。	NO_PRONOUNCE	NO_LABEL
1947年9月時点の密造酒生産量は50万2000キロリットルで、正規の酒の生産量34万3000キロリットルを大幅に上回っていた。	NO_PRONOUNCE	NO_LABEL
これは従来のように農家の自家消費用としての密造酒ではなく、販売を目的とする大掛かりな密造で在日朝鮮人集落が密造の巣窟であった。	これわじゅーらいのよーにのーかのじかしょーひよーとしてのみつぞーしゅでわなく、はんばいをもくてきとするおーがかりなみつぞーでざいにちちょーせんじんしゅーらくがみつぞーのそーくつであった。	NO_LABEL
終戦後の食糧難という時代背景もあり、単に酒税収入の激減のみならず、米が酒用に転用される分、主食用の米が減ってしまうので、飢餓が起こる可能性が高かった。	しゅーせんごのしょくりょーなんとゆうじだいはいけいもあり、たんにしゅぜいしゅーにゅーのげきげんのみならず、べいがさけよーにてんよーされるぶん、しゅしょくよーのこめがへってしまうので、きががおこるかのーせいがたかかった。	NO_LABEL
またこれらの酒の品質も劣悪で、中には有害なメチルアルコールを薄めたものまであったため、税務当局は健康上の観点からも厳しく取締りを行った。	またこれらのさけのひんしつもれつあくで、なかにわゆーがいなめちるあるこーるをうすめたものまであったため、ぜいむとーきょくわけんこーじょーのかんてんからもきびしくとりしまりをおこなった。	NO_LABEL
当時の在日朝鮮人は、行政府職員への脅迫により米の配給を二重三重に受けることによって密造酒を醸造して闇に流すなどしており、深刻な問題となっていた。	とーじのざいにちちょーせんじんわ、ぎょーせいふしょくいんえのきょーはくによりべいのはいきゅーをふたえみえにうけることによってみつぞーしゅをじょーぞーしてやみにながすなどしており、しんこくなもんだいとなっていた。	NO_LABEL
これらを取り締まろうとする税務署に対しては大勢で押し掛け、取締を行わないよう要求するなど組織的な妨害活動を繰り広げていた。	これらをとりしまろうとするぜいむしょにたいしてわたいせいでおしかけ、とりしまりをおこなわないよーよーきゅーするなどそしきてきなぼーがいかつどーをくりひろげていた。	NO_LABEL
事件の発端となった川崎市桜本町の在日朝鮮人集落では、公然と密造酒を製造していた。	じけんのほったんとなったかわさきしさくらもとちょーのざいにちちょーせんじんしゅーらくでわ、こーぜんとみつぞーしゅをせいぞーしていた。	NO_LABEL
多発していた在日朝鮮人による暴動に治安上の問題や共産主義革命の危険を感じたGHQの指令もあり、税務当局は一斉捜査を実施することになった。	たはつしていたざいにちちょーせんじんによるぼーどーにちあんじょーのもんだいやきょーさんしゅぎかくめいのきけんをかんじたじーえいちきゅーのしれいもあり、ぜいむとーきょくわいっせいそーさをじっしすることになった。	NO_LABEL
1947年6月23日、税務当局は税務署員88名と検事2名、警察官206名、占領軍憲兵の応援を得て、一斉取締りを敢行した。	NO_PRONOUNCE	NO_LABEL
取締りそのものは順調に進み、100名以上を検挙し、密造酒15,000リットル、原料、醸造機材などの証拠物件を押収した。	NO_PRONOUNCE	NO_LABEL
検挙の際には拉致されそうになる職員もあり、税務署が威嚇されることもあった。	けんきょのさいにわらちされそーになるしょくいんもあり、ぜいむしょがいかくされることもあった。	NO_LABEL
当該事件の被害者となる端山豊蔵・神奈川税務署間税課長は、現場の責任者として陣頭指揮を執っていた。	NO_PRONOUNCE	NO_LABEL
端山課長は、この日の取締りの事務処理を済ませて、午後9時に川崎税務署を出た。	はやまかちょーわ、このひのとりしまりのじむしょりをすませて、ごごくじにかわさきぜいむしょをでた。	NO_LABEL
京浜川崎駅に到着しようとした時、賊数名が端山課長を取り囲み、「税務署員か？」と聞いたため、端山課長が「そうだ」と答えると、いきなり殴る蹴るのリンチを加えた。	NO_PRONOUNCE	NO_LABEL
端山課長は直ちに病院に収容されたが、3日後に死亡した。	はやまかちょーわただちにびょーいんにしゅーよーされたが、みっかごにしぼーした。	NO_LABEL
後に犯人は逮捕され、傷害致死罪で懲役7年の実刑判決が下った。	ごにはんにんわたいほされ、しょーがいちしざいでちょーえきななねんのじっけいはんけつがくだった。	NO_LABEL
同年7月4日、片山内閣は端山豊蔵間税課長殺害事件を受けて、閣議に「酒額密造摘発に関する態勢確定の件」を上程し、端山課長が殺された事件は、単なる密造事件としてではなく、日本政府の経済緊急対策の成否にかかる重大問題として扱うべきであるとし、今後は税務署が中心として行う酒税法違反の摘発とするだけでなく、食糧管理法違反等と合わせて関係官庁が協力することとする閣議決定がなされた。	NO_PRONOUNCE	NO_LABEL
同年7月5日、端山課長の葬儀が東京財務局や全国財務労働組合の合同慰霊祭として行われ、栗栖赳夫・大蔵大臣、石橋湛山・前大蔵大臣、池田勇人・大蔵事務次官を始め数百人が参列した。	NO_PRONOUNCE	NO_LABEL
同年12月には特定事務の執行に当り当該財務局又は税務署に在勤する職員の生命又は身体に著しい危険を及ぼす虞があると認められる事例には税務特別手当を支給する「財務局及び税務署に在勤する政府職員に対する税務特別手当の支給に関する法律」が成立した。	NO_PRONOUNCE	NO_LABEL
1951年6月26日、端山課長の命日に合わせて、東京国税局に殉職間税課長顕彰碑が建立された。	せんきゅうひゃくごじゅういちねんろくがつにじゅうろくにち、はやまかちょーのめいにちにあわせて、とーきょーこくぜいきょくにじゅんしょくかんぜいかちょーけんしょーひがこんりゅーされた。	NO_LABEL
顕彰碑の碑表は池田勇人・大蔵大臣の筆、碑誌は坂田泰二・東京国税局局長の筆による。	NO_PRONOUNCE	NO_LABEL
䘏=血へんに阝=「恤」の異体字で、訓は「あわれ・む」	NO_PRONOUNCE	NO_LABEL
1965年6月には、顕彰碑は殉職地の所轄である川崎南税務署に遷された。	せんきゅうひゃくろくじゅうごねんろくがつにわ、けんしょーひわじゅんしょくちのしょかつであるかわさきみなみぜいむしょにうつされた。	NO_LABEL
東京国税局では、毎年の端山課長の命日ごとに、慰霊祭が行われている。	とーきょーこくぜいきょくでわ、まいとしのはやまかちょーのめいにちごとに、いれいさいがおこなわれている。	NO_LABEL
