フレーミング（）とは、相手を激高させたり侮辱したりすることを目的に発信するインターネット上に書き込む文書のこと。	ふれーみんぐかっことわ、あいてをげっこーさせたりぶじょくしたりすることをもくてきにはっしんするいんたーねっとじょーにかきこむぶんしょのこと。	NO_LABEL
論争や喧嘩に発展する様相をフレームと呼ぶ。	ろんそーやけんかにはってんするよーそーをふれーむとよぶ。	NO_LABEL
さらに激化した罵り合いをフレーム戦争と呼び感情が先走り誹謗中傷合戦になり易い。	さらにげきかしたののしりごういをふれーむせんそーとよびかんじょーがさきばしりひぼーちゅうしょーかっせんになりやすい。	NO_LABEL
フレーミングとフレームは同義として取り扱われることもある。	ふれーみんぐとふれーむわどーぎとしてとりあつかわれることもある。	NO_LABEL
電子掲示板におけるフレームは電子掲示板#フレームを参照。	NO_PRONOUNCE	NO_LABEL
敵意を抱いてニュースグループの投稿記事、電子掲示板の書き込み、電子メールのメッセージ、インターネット・リレー・チャットなどへ投稿する失礼なメッセージは討論の目的を逸らし簡単にフレームを招く。	NO_PRONOUNCE	NO_LABEL
インターネットでは実際に対面していないため、非言語コミュニケーションによる重要なメッセージが伝えられない。	いんたーねっとでわじっさいにたいめんしていないため、ひげんごこみゅにけーしょんによるじゅーよーなめっせーじがつたえられない。	NO_LABEL
相手に上手く伝えることができないコミュニケーション不足から、欲求が満たされない不快な心理状態になり、言葉の暴力によって不快を与えた相手を制圧する短絡的なフレーミングが多い。	あいてにうまくつたえることができないこみゅにけーしょんふそくから、よっきゅーがみたされないふかいなしんりじょーたいになり、ことばのぼーりょくによってふかいをあたえたあいてをせいあつするたんらくてきなふれーみんぐがおーい。	NO_LABEL
言葉に表せない暗黙知は、インターネット上で行動を共にするネット仲間で共有したインターネットコミュニティが形成されると、思考・行動が同調し、ネット社会での人格が形成され、繰り返し行動することでより強固になる。	NO_PRONOUNCE	NO_LABEL
凝り固まった強い意志は、中立的な観念を持つことが出来ず、暴言を書き込む事よりも自論が支持される事を優先する。	こりかたまったつよいいしわ、ちゅーりつてきなかんねんをもつことができず、ぼーげんをかきこむことよりもじろんがしじされることをゆーせんする。	NO_LABEL
この時、言葉の暴力を正当化するために「表現の自由」がよく引き合いに出される。	NO_PRONOUNCE	NO_LABEL
故意にフレームを誘発するような書き込みを行なう者をフレーマーと呼ぶ。	こいにふれーむをゆーはつするよーなかきこみをおこなうものをふれーまーとよぶ。	NO_LABEL
他者に対して、教えを示すための暴力を使う者も居るが、その多くは悪意からなされ、捻じ伏せれば自らの暴力を正義化する。	たしゃにたいして、おしえをしめすためのぼーりょくをつかうものもいるが、そのおーくわあくいからなされ、ねじふせればみずからのぼーりょくをせいぎかする。	NO_LABEL
言葉で挑発したり、議論とはまったく関係ない書き込みをして、相手を激高させる事に快感を得る者も存在するなど、フレーマーの論理は倫理の欠如が著しい。	ことばでちょーはつしたり、ぎろんとわまったくかんけいないかきこみをして、あいてをげっこーさせることにかいかんをえるものもそんざいするなど、ふれーまーのろんりわりんりのけつじょがいちじるしい。	NO_LABEL
論争が起こると、吸い寄せられる様に積極的に参加する性質を持つ者が多く、場の周囲に言葉の暴力が感染し易いため、簡単にフレイムに発展する。	ろんそーがおこると、すいよせられるよーにせっきょくてきにさんかするせいしつをもつものがおーく、ばのしゅーいにことばのぼーりょくがかんせんしやすいため、かんたんにふれいむにはってんする。	NO_LABEL
フレーマーは多様な技法を駆使して他者を挑発する行為を行なうので、攻撃的な発言のある議論に参加する時には、挑発的な発言は無視する、相手を怒らせる表現を使っていないか慎重に発言を吟味する必要が生じる。	ふれーまーわたよーなぎほーをくししてたしゃをちょーはつするこーいをおこなうので、こーげきてきなはつげんのあるぎろんにさんかするときにわ、ちょーはつてきなはつげんわむしする、あいてをおこらせるひょーげんをつかっていないかしんちょーにはつげんをぎんみするひつよーがしょーじる。	NO_LABEL
インターネット先進国である韓国では、悪意ある書き込みのことを悪プルと呼び深刻な社会問題になっている。	いんたーねっとせんしんこくであるかんこくでわ、あくいあるかきこみのことをあくぷるとよびしんこくなしゃかいもんだいになっている。	NO_LABEL
インターネット社会は文化の違いから礼儀作法、それぞれ異なった人達で構築され、現実社会でのモラルが身についていない人が多く参加する。	いんたーねっとしゃかいわぶんかのちがいかられいぎさほー、それぞれことなったひとたちでこーちくされ、げんじつしゃかいでのもらるがみについていないじんがおーくさんかする。	NO_LABEL
インターネット上のマナーはIETFによるRFC1855が拠り所にされ、各ソーシャル・ネットワーキング・サービスにおいて通常、コミュニティに向けて示されている。	NO_PRONOUNCE	NO_LABEL
ネチケットには守って欲しい願いが込められている。	ねちけっとにわまもってほしいねがいがこめられている。	NO_LABEL
RFC1855では、フレーム戦争に巻き込まれない様に記述されている。	NO_PRONOUNCE	NO_LABEL
またメッセージに対して、感情的な応答をする時、送信する前に一晩待ってみる。	まためっせーじにたいして、かんじょーてきなおーとーをするとき、そーしんするまえにいちばんまってみる。	NO_LABEL
その問題について本当に強い思いを持つなら、FLAME ON/OFFで囲って表現しようと示している。	NO_PRONOUNCE	NO_LABEL
フレーマーの様に侮辱を書き込む卑屈な者は争いを好み、相手を卑下したり、他人を罵ることで名声を博す勝敗に拘る。	ふれーまーのよーにぶじょくをかきこむひくつなものわあらそいをこのみ、あいてをひげしたり、たにんをののしることでめいせいをはくすしょーはいにかかわる。	NO_LABEL
礼儀正しく接することができる謙虚な心を持つ人なら感情制御は容易にできるため論争には発展しない。	れいぎただしくせっすることができるけんきょなこころをもつひとならかんじょーせいぎょわよーいにできるためろんそーにわはってんしない。	NO_LABEL
