浜六郎は日本の医師であり、内科医である。	はまろくろーわにっぽんのいしであり、ないかいである。	NO_LABEL
専門は治療学、薬剤疫学である。	せんもんわちりょーがく、やくざいえきがくである。	NO_LABEL
副作用モニタリングを行い医療現場での医薬品の安全で適正な使用に取り組む。	ふくさよーもにたりんぐをおこないいりょーげんばでのいやくひんのあんぜんでてきせいなしよーにとりくむ。	NO_LABEL
医師・薬剤師だけでなく、患者・一般人に対しても中立的な医薬品情報誌を発行し続けている。	NO_PRONOUNCE	NO_LABEL
2000年4月には医薬ビジランスセンターを特定非営利活動法人化し、研究調査、医療過誤相談部門についてはEBMビジランス研究所として独立させた。	にせんねんしがつにわいやくびじらんすせんたーをとくていひえいりかつどーほーじんかし、けんきゅーちょーさ、いりょーかごそーだんぶもんについてわいーびーえむびじらんすけんきゅーじょとしてどくりつさせた。	NO_LABEL
コクラン共同計画の特別顧問。	こくらんきょーどーけいかくのとくべつこもん。	NO_LABEL
徳島県鳴門市生まれ。	とくしまけんなるとしうまれ。	NO_LABEL
1969年に大阪大学医学部を卒業し、大阪府衛生部に勤務。	せんきゅうひゃくろくじゅうきゅうねんにおーさかだいがくいがくぶをそつぎょーし、おーさかふえいせいぶにきんむ。	NO_LABEL
すぐ1970年には、スモンによる薬害事件などを知り、自らの処方を正し、得た知識を発信するということを考えてきた。	すぐせんきゅうひゃくななじゅうねんにわ、すもんによるやくがいじけんなどをしり、みずからのしょほーをただし、えたちしきをはっしんするとゆうことをかんがえてきた。	NO_LABEL
1977年より阪南中央病院の内科に勤務する。	せんきゅうひゃくななじゅうななねんよりはんなんちゅーおーびょーいんのないかにきんむする。	NO_LABEL
1986年には、製薬会社から独立した医薬品の情報誌『TIP正しい治療と薬の情報』を、神経内科の別府宏圀とともに創刊し、副編集長となる。	NO_PRONOUNCE	NO_LABEL
1994年には、安い良い薬とほとんど変わらないとか、ほとんど効果がないような新薬が高いため、疑問を持ち価格調査を実施し、その過程で薬害は起こるべくして起きているという洞察を得て、1996年には『薬害はなぜなくならないか』を出版した。	NO_PRONOUNCE	NO_LABEL
こうしたことを通じて薬の良い悪いに関する情報を、それを使用する一般の人々に伝えることを決心し、1997年には阪南中央病院を退職して、医薬ビジランスセンターを設立した。	こーしたことをつーじてくすりのよいわるいにかんするじょーほーを、それをしよーするいっぱんのひとびとにつたえることをけっしんし、せんきゅうひゃくきゅうじゅうななにわはんなんちゅーおーびょーいんをたいしょくして、いやくびじらんすせんたーをせつりつした。	NO_LABEL
2000年には、良い薬の例として世界保健機関による必須医薬品の一覧のように、医薬品の質を見直すことで医薬品にかかる無駄な医療費を抑制し、そのための根拠に基づく医療の考えに注目し、共同翻訳者として『世界のエッセンシャルドラッグ―必須医薬品』『システマティック・レビュー』も翻訳出版した。	NO_PRONOUNCE	NO_LABEL
2000年4月にNPOの法人医薬ビジランスセンターとなり、科学的根拠に基づいた一般のメディアからは得られない情報の調査・情報提供を目的とする、これとEBMビジランス研究所とに分かれて再スタートした。	NO_PRONOUNCE	NO_LABEL
2001年から季刊誌『薬のチェックは命のチェック』を発行、2015年1月から『薬のチェックTIP』と変更し浜が編集代表となった。	NO_PRONOUNCE	NO_LABEL
彼を含めてその周りにも、勇気ある科学者と弁護士のような様々な分野の安全性の擁護者が活躍している。	かれをふくめてそのまわりにも、ゆーきあるかがくしゃとべんごしのよーなさまざまなぶんやのあんぜんせいのよーごしゃがかつやくしている。	NO_LABEL
浜六郎が名を連ねる、2014年のコクラン共同計画によるシステマティック・レビューは、未発表の試験を探索したオセルタミビルに関する臨床試験の完全なデータによるシステマティックレビューであり、「独立した研究者による長期的な調査と努力によるものであり」、WHOが同薬の有効性を格下げする際の証拠となった。	NO_PRONOUNCE	NO_LABEL
"International Journal on Risk and Safety in Medicine "の編集委員。	NO_PRONOUNCE	NO_LABEL
