セネトは、紀元前3500年ころの王朝誕生前のエジプト（）と古代エジプトに存在した、確認されている最古のボードゲーム。	NO_PRONOUNCE	NO_LABEL
正式なエジプト名は "sn.t n.t H'b" で「通過ゲーム」の意。	NO_PRONOUNCE	NO_LABEL
これまで発掘されたあらゆる古代のボードゲームの中で、最も古い遺物がセネトであり、おそらく世界最古のそれである。	これまではっくつされたあらゆるこだいのぼーどげーむのなかで、もっともふるいいぶつがせねとであり、おそらくせかいさいこのそれである。	NO_LABEL
王朝誕生以前のエジプトとエジプト第1王朝の両方の墓で発見されている。	NO_PRONOUNCE	NO_LABEL
また、Merkneraや、エジプト第3王朝の、Rashepesの墓の絵の中にもセネトが描かれている。	NO_PRONOUNCE	NO_LABEL
エジプト新王国の時代には、セネトは死者の旅のための護符になった。	えじぷとしんおーこくのじだいにわ、せねとわししゃのたびのためのごふーになった。	NO_LABEL
ゲームにおける運の要素と、エジプト人の決定論への信頼がその理由で、成功したプレイヤーは、国の神殿の偉大な神々、ラー、トート、しばしばオシリスらによって守られると信じられていた。	げーむにおけるうんのよーそと、えじぷとじんのけっていろんえのしんらいがそのりゆーで、せいこーしたぷれいやーわ、くにのしんでんのいだいなみわ、らー、とーと、しばしばおしりすらによってまもられるとしんじられていた。	NO_LABEL
そのため、来世までの危険な旅のために、セネトは大抵、墓の中で他の実用品と共に置かれ、ゲームは死者の書の第17章で言及された。	NO_PRONOUNCE	NO_LABEL
ゲームはレバント、キプロス、クレタにも広がったが、宗教的な意味は弱まった。	げーむわればんと、きぷろす、くれたにもひろがったが、しゅーきょーてきないみわよわまった。	NO_LABEL
セネトのゲーム盤には、30個の四角のマス目があり、10行が3列ある。	NO_PRONOUNCE	NO_LABEL
2揃いの駒を使う。	NO_PRONOUNCE	NO_LABEL
セネトは2人のプレイヤーによる、レースゲームである。	せねとわふたりのぷれいやーによる、れーすげーむである。	NO_LABEL
駒の移動は投げ棒や、しばしば指関節の骨を放る事によって決定された。	こまのいどーわなげぼーや、しばしばゆびかんせつのほねをほーることによってけっていされた。	NO_LABEL
実際のルールは、歴史学者による学識に基づく推定が行われたが、まだ議論の的になっている。	じっさいのるーるわ、れきしがくしゃによるがくしきにもとずくすいていがおこなわれたが、まだぎろんのまとになっている。	NO_LABEL
ティモシー・ケンダルとR・C・ベルの2人のセネト歴史学者は、それぞれ異なるゲームのルールを提案した。	NO_PRONOUNCE	NO_LABEL
これらのルールはセネトのゲームを販売する別々の会社に採用された。	これらのるーるわせねとのげーむをはんばいするべつべつのかいしゃにさいよーされた。	NO_LABEL
