「愛が止まらない 〜ターン・イット・イントゥ・ラヴ〜」は、オーストラリアのシンガーソングライターのカイリー・ミノーグの楽曲である。	NO_PRONOUNCE	NO_LABEL
デビューアルバム『ラッキー・ラヴ』から日本限定でシングルカットされた。	NO_PRONOUNCE	NO_LABEL
Winkによるカバーの効果もあってか、日本の洋楽シングルチャートにて10週にわたり1位になるという記録的な大ヒットとなった。	うぃんくによるかばーのこーかもあってか、にっぽんのよーがくしんぐるちゃーとにてじゅっしゅーにわたりいちーになるとゆうきろくてきなだいひっととなった。	NO_LABEL
日本でのカイリーの代表曲の一つとして知られている。	にっぽんでのかいりーのだいひょーきょくのひとつとしてしられている。	NO_LABEL
アルバム収録当初の邦題は「愛に走れ」だったが、後に改題されて今に至る。	NO_PRONOUNCE	NO_LABEL
1989年度の日本音楽著作権協会発表による楽曲別の著作権使用料分配額では年間1位にランクインされ、1990年のJASRAC賞を受賞した。	せんきゅうひゃくはちじゅうきゅうねんどのにほんおんがくちょさくけんきょーかいはっぴょーによるがっきょくべつのちょさくけんしよーりょーぶんぱいがくでわねんかんいちーにらんくいんされ、せんきゅうひゃくきゅうじゅうねんのじゃすらっくしょーをじゅしょーした。	NO_LABEL
なお、日本ではヘイゼル・ディーンのヴァージョンが原曲だとされているが誤りである。	NO_PRONOUNCE	NO_LABEL
Winkによるカバーは、「愛が止まらない 〜Turn it into love〜」のタイトルで、3枚目のシングルとして1988年11月16日にポリスターより発売された。	NO_PRONOUNCE	NO_LABEL
1988年にテレビドラマ『追いかけたいの!』の主題歌として用いられ、ドラマの放送期間中である11月16日に発売。	NO_PRONOUNCE	NO_LABEL
この曲により、翌1989年2月13日付のオリコンで、シングルとして初の1位を獲得し、Winkのシングルとしては最大の売上である62.95万枚を記録した。	NO_PRONOUNCE	NO_LABEL
西城秀樹によるカバーは、「愛が止まらない」のタイトルで、72枚目のシングルとして1995年6月7日にリリースされた。	NO_PRONOUNCE	NO_LABEL
オリジナルでなくWink版のカバーである。	おりじなるでなくうぃんくばんのかばーである。	NO_LABEL
