『パジャマな彼女。	NO_PRONOUNCE	NO_LABEL
』は、濱田浩輔による日本の漫画作品。	NO_PRONOUNCE	NO_LABEL
『週刊少年ジャンプ』2012年13号から40号まで連載された。	NO_PRONOUNCE	NO_LABEL
略称は「パジャカノ」。	NO_PRONOUNCE	NO_LABEL
ジャンルは「恋愛ファンタジー」とされており、『眠り姫』を含む童話を題材にしている。	NO_PRONOUNCE	NO_LABEL
話数カウントは「vol.○」。	NO_PRONOUNCE	NO_LABEL
サブタイトルには作中に登場したセリフが使われている。	さぶたいとるにわさくちゅーにとーじょーしたせりふがつかわれている。	NO_LABEL
眠りの森学園高等部1年生の目覚計佑は、家が近くで子供の頃からの付き合いの幼馴染・音巻まくらやクラスの仲間達と、それなりに楽しい学園生活を送っていた。	NO_PRONOUNCE	NO_LABEL
そんなある日、計佑は些細な事でまくらに少しつらくあたってしまう。	そんなあるひ、けいたすくわささいなごとでまくらにすこしつらくあたってしまう。	NO_LABEL
そしてその夜、まくらが行方不明になってしまった。	そしてそのよる、まくらがゆくえふめいになってしまった。	NO_LABEL
計佑も探すことになり、ふと思いついたのは、小さい頃まくらとよく遊びに来ていたひまわり畑。	けいたすくもさがすことになり、ふとおもいついたのわ、ちーさいころまくらとよくあそびにきていたひまわりばたけ。	NO_LABEL
そして見つけたまくらは、幽霊になってしまっていた。	そしてみつけたまくらわ、ゆーれいになってしまっていた。	NO_LABEL
以下は『集英社BOOK NAVI』内のページ。	NO_PRONOUNCE	NO_LABEL
