なおしまは、四国汽船が運航しているフェリー。	なおしまわ、しこくきせんがうんこーしているふぇりー。	NO_LABEL
本項目では、2015年に就航した2代目を取り扱う。	ほんこーもくでわ、にせんじゅうごねんにしゅーこーしたにだいめをとりあつかう。	NO_LABEL
なおしまの代船として藤原造船所で建造され、2015年5月1日に宇野 - 直島 - 高松航路に就航した。	NO_PRONOUNCE	NO_LABEL
船体は3層構造で、上部から操舵室・露天デッキ、船室、車両甲板となっており、船室の窓は展望を考慮して上下寸法が大きくとられている。	NO_PRONOUNCE	NO_LABEL
外観は、本船の発着する宮浦港に設置されており、直島のシンボルとなっている草間彌生の「赤かぼちゃ」をイメージして、白地に赤色のドット模様とされた。	NO_PRONOUNCE	NO_LABEL
船内は髙島屋スペースクリエイツがデザインを担当、リビングルームのような「居心地の良さ」と美術館のような「静かさ」をコンセプトに、白を基調とした配色となっており、瀬戸内出身の作家5名の作品約20点が展示されている。	NO_PRONOUNCE	NO_LABEL
船内はバリアフリー化されており、通常の船内設備に加えて、高齢者や身障者に対応した客室、多機能トイレ、車いす対応エレベーターなどを備える。	せんないわばりあふりーかされており、つーじょーのせんないせつびにくわえて、こーれいしゃやしんしょーしゃにたいおーしたきゃくしつ、たきのーといれ、くるまいすたいおーえれべーたーなどをそなえる。	NO_LABEL
客室はモノクラスで椅子席のほか、一部はソファ席となっている。	きゃくしつわものくらすでいすせきのほか、いちぶわそふぁせきとなっている。	NO_LABEL
自動販売機が設置されているが、売店等はない。	じどーはんばいきがせっちされているが、ばいてんとーわない。	NO_LABEL
