麻疹ワクチンは、麻疹の予防に効果的なワクチンである。	ましんわくちんわ、はしかのよぼーにこーかてきなわくちんである。	NO_LABEL
 初回投与を生後9か月の子供にした場合は85%の効果が診られ、生後12か月の子供にした場合は95%の効果が診られる。	しょかいとーよをせいごきゅうかげつのこどもにしたばあいわはちじゅうごぱーせんとのこーかがみられ、せいごじゅうにかげつのこどもにしたばあいわきゅうじゅうごぱーせんとのこーかがみられる。	NO_LABEL
初回の投与で免疫が得られなかった場合、2度目の投与でほぼ全てのヒトに免疫がつく。	しょかいのとーよでめんえきがえられなかったばあい、にどめのとーよでほぼすべてのひとにめんえきがつく。	NO_LABEL
このワクチンの投与率が人口の93%以上だと一般的に麻疹は発生しないが、予防接種人口が減少すると再発生する。	このわくちんのとーよりつがじんこーのきゅうじゅうさんぱーせんといじょーだといっぱんてきにはしかわはっせいしないが、よぼーせっしゅじんこーがげんしょーするとさいはっせいする。	NO_LABEL
 麻疹ワクチンは何年も有効性が持続し、時間経過による効果減少については不明確である。	ましんわくちんわなんねんもゆーこーせいがじぞくし、じかんけいかによるこーかげんしょーについてわふめいかくである。	NO_LABEL
 麻疹ウイルスと接触した後からでも数日以内にワクチンを投与すれば予防効果はみられる。	はしかういるすとせっしょくしたのちからでもすーにちいないにわくちんをとーよすればよぼーこーかわみられる。	NO_LABEL
麻疹ワクチンは一般的に安全でありHIV感染症のヒトにも投与できる。	ましんわくちんわいっぱんてきにあんぜんでありえいちあいぶいかんせんしょーのひとにもとーよできる。	NO_LABEL
副作用は通常、軽度で短期間であり、穿刺による痛みまたは軽度の発熱である。	ふくさよーわつーじょー、けいどでたんきかんであり、せんしによるいたみまたわけいどのはつねつである。	NO_LABEL
アナフィラキシー を起こしたケースは約1/100,000である。	NO_PRONOUNCE	NO_LABEL
このワクチンの投与によるギラン・バレー症候群、自閉症、炎症性腸疾患になる確率の上昇はみられない。	このわくちんのとーよによるぎらんばれーしょーこーぐん、じへいしょー、えんしょーせいちょーしっかんになるかくりつのじょーしょーわみられない。	NO_LABEL
2016年現在、日本では、MRワクチンの定期接種を行っている。	にせんじゅうろくねんげんざい、にっぽんでわ、えむあーるわくちんのていきせっしゅをおこなっている。	NO_LABEL
麻疹ワクチンは単独または他のワクチンと組み合わさったものがある。	ましんわくちんわたんどくまたわたのわくちんとくみあわさったものがある。	NO_LABEL
混合ワクチンは風疹ワクチンと合わせた麻疹・風疹混合ワクチン、麻疹・風疹・おたふくかぜワクチンを合わせた新三種混合ワクチンがあり、1971年から使われている。	NO_PRONOUNCE	NO_LABEL
日本では、MMRワクチンは1988年から1993年まで実施されていたが、2016年現在未承認である。	にっぽんでわ、えむえむあーるわくちんわせんきゅうひゃくはちじゅうはちねんからせんきゅうひゃくきゅうじゅうさんねんまでじっしされていたが、にせんじゅうろくねんげんざいみしょーにんである。	NO_LABEL
さらに2005年には、水疱瘡の予防に用いる水痘ワクチンと新三種混合ワクチンを合わせたがつくられた。	さらににせんごねんにわ、みずぼーそーのよぼーにもちいるすいとーわくちんとしんさんしゅこんごーわくちんをあわせたがつくられた。	NO_LABEL
日本では、2016年現在未承認である。	にっぽんでわ、にせんじゅうろくねんげんざいみしょーにんである。	NO_LABEL
麻疹ワクチンは単独型、混合型ともに同様の効果がある。	ましんわくちんわたんどくがた、こんごーがたともにどーよーのこーかがある。	NO_LABEL
世界保健機構は麻疹の発症する地域での生後9か月の子供への予防接種を推奨している。	せかいほけんきこーわはしかのはっしょーするちいきでのせいごきゅうかげつのこどもえのよぼーせっしゅをすいしょーしている。	NO_LABEL
麻疹が頻繁に発症しない地域では生後12か月の子供への予防接種が適切とされていて、2016年現在、日本では一般的に1歳で接種されている。	はしかがひんぱんにはっしょーしないちいきでわせいごじゅうにかげつのこどもえのよぼーせっしゅがてきせつとされていて、にせんじゅうろくねんげんざい、にっぽんでわいっぱんてきにいっさいでせっしゅされている。	NO_LABEL
麻疹ワクチンは 麻疹ウイルスを弱めたものから作られる。	ましんわくちんわはしかういるすをよわめたものからつくられる。	NO_LABEL
もともとは乾燥粉末を特定の液体と混ぜ合わせることで皮下注射または筋肉注射で投与できる。	もともとわかんそーふんまつをとくていのえきたいとまぜあわせることでひかちゅーしゃまたわきんにくちゅーしゃでとーよできる。	NO_LABEL
ワクチンの効果は血液検査によって確認できる。	わくちんのこーかわけつえきけんさによってかくにんできる。	NO_LABEL
2013年までに約85%の世界の子どもたちがワクチンの投与を受けている。	にせんじゅうさんねんまでにやくはちじゅうごぱーせんとのせかいのこどもたちがわくちんのとーよをうけている。	NO_LABEL
2008年には少なくとも192カ国に2回の投与が提供された。	NO_PRONOUNCE	NO_LABEL
麻疹ワクチンが最初に導入されたのは1963年である。	ましんわくちんがさいしょにどーにゅーされたのわせんきゅうひゃくろくじゅうさんねんである。	NO_LABEL
麻疹ワクチンはWHO必須医薬品モデル・リストに記載されており、基礎的な医療制度で重要視されている医薬品である。	NO_PRONOUNCE	NO_LABEL
2014年の発展途上国での麻疹ワクチンの価格は一投与につき約＄0.70米ドルである。	NO_PRONOUNCE	NO_LABEL
