第95回日本陸上競技選手権大会兼第13回世界陸上競技選手権大会代表選手選考競技会兼第19回アジア陸上競技選手権兵庫・神戸大会代表選手選考競技会・男子100mは、2011年6月11日に予選、6月12日に準決勝と決勝が埼玉県の熊谷スポーツ文化公園陸上競技場で行われた。	NO_PRONOUNCE	NO_LABEL
大会前の主な記録は次の通り	たいかいまえのおもなきろくわつぎのとーり	NO_LABEL
通過条件：各組上位3着と各組4着の記録上位4名風：　1組:+1.1 m/s , 2組:0.0 m/s , 3組:+0.9 m/s , 4組:+0.8 m/s	NO_PRONOUNCE	NO_LABEL
通過条件：各組上位4着風：　1組:-0.5 m/s , 2組:-1.3 m/s	NO_PRONOUNCE	NO_LABEL
風:-0.5 m/s	NO_PRONOUNCE	NO_LABEL
