イシュタムは、マヤ神話において、自殺を司る女神。	いしゅたむわ、まやしんわにおいて、じさつをつかさどるめがみ。	NO_LABEL
死者を楽園に導く役割を担っていた。	ししゃをらくえんにみちびくやくわりをになっていた。	NO_LABEL
楽園に行くことができるのは、聖職者、生贄、戦死者、お産で死んだ女性、そして首を吊って死んだ者であった。	らくえんにいくことができるのわ、せいしょくしゃ、いけにえ、せんししゃ、おさんでしんだじょせい、そしてくびをつってしんだものであった。	NO_LABEL
ユカテク族の社会では自殺、とくに首吊り自殺は名誉な死に方と考えられていたようである。	ゆかてくぞくのしゃかいでわじさつ、とくにくびつりじさつわめいよなしにかたとかんがえられていたよーである。	NO_LABEL
イシュタムはこの魂たちを楽園へと導き、そこでは死者はすべての欲望から開放され、極上の食べ物と飲み物を賞玩し、マヤの宇宙樹ヤシュチェの木陰に永遠の安息を享受すると考えられていた。	いしゅたむわこのたましーたちをらくえんえとみちびき、そこでわししゃわすべてのよくぼーからかいほーされ、ごくじょーのたべものとのみものをしょーがんし、まやのうちゅーじゅやしゅちぇのこかげにえいえんのあんそくをきょーじゅするとかんがえられていた。	NO_LABEL
イシュタムはドレスデン絵文書には首を吊った女性の姿で描かれている。	いしゅたむわどれすでんえぶんしょにわくびをつったじょせいのすがたでえがかれている。	NO_LABEL
そして日食、月食を扱う項に出てくるため、月食を象徴していた可能性が指摘されている。	そしてにっしょく、げっしょくをあつかうこーにでてくるため、げっしょくをしょーちょーしていたかのーせいがしてきされている。	NO_LABEL
加えてマヤでは月食は胎児に奇形を発現させ、死に至らしめると考えられていたため、イシュタムは女性、特に妊婦の悲劇を象徴したとも考えられている。	くわえてまやでわげっしょくわたいじにきけいをはつげんさせ、しにいたらしめるとかんがえられていたため、いしゅたむわじょせい、とくににんぷのひげきをしょーちょーしたともかんがえられている。	NO_LABEL
ドレスデン絵文書に見られる姿以外に図像は存在していない。	どれすでんえぶんしょにみられるすがたいがいにずぞーわそんざいしていない。	NO_LABEL
ア・プチ	あぷち	NO_LABEL
