G5RVとは、アマチュア無線で用いられるアンテナの一種である。	ぐれーどふぁいぶあーるぶいとわ、あまちゅあむせんでもちいられるあんてなのいちしゅである。	NO_LABEL
もっぱら短波帯において用いられる。	もっぱらたんぱたいにおいてもちいられる。	NO_LABEL
設計者であるイギリスのアマチュア無線家、ルイス・ヴァーニーのコールサインがそのまま名称になっている。	NO_PRONOUNCE	NO_LABEL
ダイポールアンテナなどのアンテナは、エレメントの長さが1/4波長の奇数倍の条件を満たした場合に共振が発生し、電磁波と高周波電流の変換効率が最大になる。	NO_PRONOUNCE	NO_LABEL
短波帯におけるアマチュア無線の周波数帯は3.5MHz帯、7MHz帯、14MHz帯、21MHz帯、28MHz帯と倍数関係になっているため、エレメントの長さを上手に選択すると、1本のアンテナで複数の周波数帯に共振させることができる。	NO_PRONOUNCE	NO_LABEL
この考え方により作られたアンテナがG5RVである。	このかんがえかたによりつくられたあんてながぐれーどふぁいぶあーるぶいである。	NO_LABEL
構造は、全長31mのダイポールアンテナの中央に、長さ9.45mのフィーダー線を接続して給電するものである。	こーぞーわ、ぜんちょーさんじゅういちめーとるのだいぽーるあんてなのちゅーおーに、ながさきゅーよんじゅうごめーとるのふぃーだーせんをせつぞくしてきゅーでんするものである。	NO_LABEL
給電にはマッチングが必要である。	きゅーでんにわまっちんぐがひつよーである。	NO_LABEL
この大きさで最低使用周波数は3.5MHz、半分の大きさで最低周波数は7MHzとなる。	NO_PRONOUNCE	NO_LABEL
なお、性能は劣るものの10MHz帯、18MHz帯、24MHz帯でも使用可能である。	NO_PRONOUNCE	NO_LABEL
