センチネルは主にX-MENに登場するミュータントハンターロボット。	せんちねるわおもにえっくすめんにとーじょーするみゅーたんとはんたーろぼっと。	NO_LABEL
初登場は1965年11月のUncanny X-Men#14。	NO_PRONOUNCE	NO_LABEL
ミュータントを脅威と考える人類学者ボリバー・トラスクによって製造された。	NO_PRONOUNCE	NO_LABEL
ミュータントにとっては種の存続を脅かす存在であるが、人間にとってはミュータントの脅威から守ってくれる存在である。	みゅーたんとにとってわたねのそんぞくをおびやかすそんざいであるが、にんげんにとってわみゅーたんとのきょーいからまもってくれるそんざいである。	NO_LABEL
ミュータント遺伝子の有無を感知することができミュータントのみを攻撃する。	みゅーたんといでんしのうむをかんちすることができみゅーたんとのみをこーげきする。	NO_LABEL
トラスク博士がミュータントの存在を公にしプロフェッサーXとTVで討論。	とらすくはかせがみゅーたんとのそんざいをおーやけにしぷろふぇっさーえっくすとてぃーぶいでとーろん。	NO_LABEL
その場でセンチネルを公開したがセンチネルは『人類を守るためにはセンチネルが人類を支配しなければならない』として暴走し、トラスク博士を捕えセンチネルの増産を強要する。	NO_PRONOUNCE	NO_LABEL
トラスク博士はミュータントの研究過程でビーストの過去を知りミュータントが脅威ばかりではないとの思いに至り、1号機マスターモールドとセンチネルの生産設備を道連れに爆死した。	とらすくはかせわみゅーたんとのけんきゅーかていでびーすとのかこをしりみゅーたんとがきょーいばかりでわないとのおもいにいたり、いちごーきますたーもーるどとせんちねるのせいさんせつびをみちずれにばくしした。	NO_LABEL
しかしセンチネルの設計図は政府関係機関や反ミュータント団体などに流出してしまっておりその後も様々な型のセンチネルが製造された。	しかしせんちねるのせっけいずわせいふかんけいきかんやはんみゅーたんとだんたいなどにりゅーしゅつしてしまっておりそのごもさまざまなかたのせんちねるがせいぞーされた。	NO_LABEL
中にはトニー・スタークのスターク社が製造に関わったセンチネルも存在する。	なかにわとにーすたーくのすたーくしゃがせいぞーにかかわったせんちねるもそんざいする。	NO_LABEL
度々X-MENや後天的に能力得たスパイダーマンなどの超人もミュータントと見做し交戦し、時にはマグニートーやに操られたりする。	NO_PRONOUNCE	NO_LABEL
スカーレット・ウィッチが引き起こしたMデイ以後は絶滅寸前まで激減したミュータントを保護という名目で監視するようになっている。	NO_PRONOUNCE	NO_LABEL
ミスティークがケリー上院議員を暗殺した未来ではセンチネルが人類を支配している。	みすてぃーくがけりーじょーいんぎーんをあんさつしたみらいでわせんちねるがじんるいをしはいしている。	NO_LABEL
エイジ・オブ・アポカリプスのような平行世界では純粋に人類を守るために活動していることもある。	NO_PRONOUNCE	NO_LABEL
