イアン・ハミルトン・グラントは、イギリスの哲学者。	いあんはみるとんぐらんとわ、いぎりすのてつがくしゃ。	NO_LABEL
西イングランド大学ブリストル校の上級講師。	にしいんぐらんどだいがくぶりすとるこーのじょーきゅーこーし。	NO_LABEL
研究分野は次の通り。	けんきゅーぶんやわつぎのとーり。	NO_LABEL
ヨーロッパ哲学、特に哲学的観念論、現代哲学、科学史・科学哲学、技術哲学、身体の哲学、人間の自律化、物理的なものとの関連における社会科学・文化学。	NO_PRONOUNCE	NO_LABEL
彼は近年発生した哲学潮流である思弁的実在論としばしば関連付けられる。	かれわきんねんはっせいしたてつがくちょーりゅーであるしべんてきじつざいろんとしばしばかんれんずけられる。	NO_LABEL
グラントは当初、フランスの哲学者ジャン・ボードリヤールとジャン=フランソワ・リオタールの翻訳者として知られていた。	NO_PRONOUNCE	NO_LABEL
独立した哲学者として評価されるようになったのは、『Philosophies of Nature After Schelling』の出版によってである。	NO_PRONOUNCE	NO_LABEL
この著作にて、グラントは哲学者たちの「プラトニズムを逆転」させようとする試みを強く批判しており、むしろカントを逆転するべきだと主張している。	NO_PRONOUNCE	NO_LABEL
彼は近年大陸哲学において倫理学と生命の哲学がもてはやされていることに批判的であり、人間をますます過剰に特権扱いしてしまうだけだと考える。	かれわきんねんたいりくてつがくにおいてりんりがくとせいめいのてつがくがもてはやされていることにひはんてきであり、にんげんをますますかじょーにとっけんあつかいしてしまうだけだとかんがえる。	NO_LABEL
こうした傾向に抗って、グラントは無機的な領域を新たな仕方で扱うべきだと提唱している。	こーしたけいこーにあらがって、ぐらんとわむきてきなりょーいきをあらたなしかたであつかうべきだとていしょーしている。	NO_LABEL
グラントはプラトンとシェリングを彼の依拠する古典的哲学者として挙げており、アリストテレスとカントについては、両者とも現実を人間にとっての表現可能性に還元してしまう傾向を持つがゆえに一般的に反対している。	ぐらんとわぷらとんとしぇりんぐをかれのいきょするこてんてきてつがくしゃとしてあげており、ありすとてれすとかんとについてわ、りょーしゃともげんじつをにんげんにとってのひょーげんかのーせいにかんげんしてしまうけいこーをもつがゆえにいっぱんてきにはんたいしている。	NO_LABEL
グラントはまた、フランスの哲学者ジル・ドゥルーズの影響も受けている。	ぐらんとわまた、ふらんすのてつがくしゃじるどぅるーずのえいきょーもうけている。	NO_LABEL
