ビルギッタ・ヨンスドッティルは、アイスランドの政治家。	びるぎったよんすどってぃるわ、あいすらんどのせいじか。	NO_LABEL
もともと詩人、パンクロックミュージシャン、政治活動家。	もともとしじん、ぱんくろっくみゅーじしゃん、せいじかつどーか。	NO_LABEL
海賊党の創設メンバーにして党首。	かいぞくとーのそーせつめんばーにしてとーしゅ。	NO_LABEL
母はアイスランドのフォークソング歌手ベルグソラ・アルナドッティル。	ははわあいすらんどのふぉーくそんぐかしゅべるぐそらあるなどってぃる。	NO_LABEL
2009年、市民運動から国会議員に初当選し、2012年の選挙では、海賊党を結成し、ビルギッタの個人的な人気もあり、自らも含め三人の海賊党活動家を国会に送り込むことに成功した。	にせんきゅうねん、しみんうんどーからこっかいぎーんにはつとーせんし、にせんじゅうにねんのせんきょでわ、かいぞくとーをけっせいし、びるぎったのこじんてきなにんきもあり、みずからもふくめさんにんのかいぞくとーかつどーかをこっかいにおくりこむことにせいこーした。	NO_LABEL
アイスランドにおけるウィキリークスは2006年に設立されているが、この当時は、ビルギッタ・ヨンスドッティルはこの活動には加わっていなかった。	あいすらんどにおけるうぃきりーくすわにせんろくねんにせつりつされているが、このとーじわ、びるぎったよんすどってぃるわこのかつどーにわくわわっていなかった。	NO_LABEL
後に広報担当として参加した。	ごにこーほーたんとーとしてさんかした。	NO_LABEL
2011年にはアメリカの捜査当局がTwitterに対しアカウント情報などの開示を要求したと報じられた。	にせんじゅういちねんにわあめりかのそーさとーきょくがついったーにたいしあかうんとじょーほーなどのかいじをよーきゅーしたとほーじられた。	NO_LABEL
