渡邊 孝夫12月24日 - ）は、日本の銀行家。	NO_PRONOUNCE	NO_LABEL
西京銀行相談役。	さいきょーぎんこーそーだんやく。	NO_LABEL
福岡県出身。	ふくおかけんしゅっしん。	NO_LABEL
福岡大学商学部卒業後、当時の山口相銀入行。	ふくおかだいがくしょーがくぶそつぎょーご、とーじのやまぐちそーぎんにゅーこー。	NO_LABEL
頭取、会長在任時は、ライブドアとの提携によるインターネット銀行構想の挫折や明らかになった内部管理体制の問題点などを克服するため、地元回帰と経営改善に取り組んだ。	とーどり、かいちょーざいにんじわ、らいぶどあとのていけいによるいんたーねっとぎんこーこーそーのざせつやあきらかになったないぶかんりたいせいのもんだいてんなどをこくふくするため、じもとかいきとけいえいかいぜんにとりくんだ。	NO_LABEL
