『狐物語』は、12世紀後半にフランスで生まれた物語群。	NO_PRONOUNCE	NO_LABEL
12世紀中期に書かれたラテン語作品『』などを先行作品として、複数の異なる作者によって作られた挿話がまとめられて成立し、現在30ほどの枝篇が知られている。	NO_PRONOUNCE	NO_LABEL
物語は擬人化されて描かれた悪賢い狐ルナールを中心として、ルナールが他の動物を騙そうとする様々な話や、狼のイザングランとの闘争、ライオンの王のノーブルの前で行われる裁判などが風刺的に描かれている。	ものがたりわぎじんかされてえがかれたわるがしこいきつねるなーるをちゅーしんとして、るなーるがたのどーぶつをだまそうとするさまざまなはなしや、おーかみのいざんぐらんとのとーそー、らいおんのおーののーぶるのまえでおこなわれるさいばんなどがふーしてきにえがかれている。	NO_LABEL
写本のかたちでヨーロッパ中で広く親しまれた。	しゃほんのかたちでよーろっぱちゅーでひろくしたしまれた。	NO_LABEL
この物語が流布した結果、フランスではそれまで「狐」を意味していたラテン語由来のフランス語グピにかわり、この物語の主人公の名前にすぎなかったルナールが「狐」を意味する一般名詞として使われるようになった。	NO_PRONOUNCE	NO_LABEL
ゲーテの『ライネケ狐』もこの物語を翻案した作品である。	NO_PRONOUNCE	NO_LABEL
