スタスキー&ハッチ（）は、2004年公開のアメリカ映画。	すたすきーあんどはっちかっこわ、にせんよねんこーかいのあめりかえいが。	NO_LABEL
TVドラマ『刑事スタスキー&ハッチ』のリメイク映画化作品。	NO_PRONOUNCE	NO_LABEL
ベン・スティラー主演となって、コメディ度がドラマ版よりアップ。	べんすてぃらーしゅえんとなって、こめでぃどがどらまばんよりあっぷ。	NO_LABEL
ファッションも1970年代風に統一し、また赤いフォード・グラン・トリノも登場。	NO_PRONOUNCE	NO_LABEL
ラストではドラマ版の主役俳優2人がカメオ出演している。	らすとでわどらまばんのしゅやくはいゆーふたりがかめおしゅつえんしている。	NO_LABEL
日本ではビデオスルーとなった。	にっぽんでわびでおするーとなった。	NO_LABEL
