リアクション芸人は司会者から弄られたり、ドッキリを仕掛けられたり、体を張った仕事をさせられるなどヨゴレ役が芸風のタレント。	りあくしょんげいにんわしかいしゃからいじくられたり、どっきりをしかけられたり、からだをはったしごとをさせられるなどよごれやくがげいふーのたれんと。	NO_LABEL
それに対してリアクションを取ることからリアクション芸人と呼ばれるようになった。	それにたいしてりあくしょんをとることからりあくしょんげいにんとよばれるよーになった。	NO_LABEL
上島竜兵、出川哲朗、月亭方正がアメトーークにリアクション芸人として出演している。	うえしまりゅーへい、でがわてつろー、つきていほーせいがあめとーくにりあくしょんげいにんとしてしゅつえんしている。	NO_LABEL
芸能界におけるジャンル、カテゴリはお笑いタレントに属するが、基本的にトークを売りとせず漫才やコントなどをしてもすべるため、これらをテレビ番組で披露しない芸人が多い。	げいのーかいにおけるじゃんる、かてごりわおわらいたれんとにぞくするが、きほんてきにとーくをうりとせずまんざいやこんとなどをしてもすべるため、これらをてれびばんぐみでひろーしないげいにんがおーい。	NO_LABEL
体を張った仕事から「汚れ役」と言われ、『ヨゴレ』と呼ばれることもある。	NO_PRONOUNCE	NO_LABEL
トーク番組では噛んでしまう事やすべる事が多い。	とーくばんぐみでわかんでしまうことやすべることがおーい。	NO_LABEL
すべり芸を芸風としている者が多く、弄られ役として数多くのバラエティ番組で重宝される。	すべりげいをげいふーとしているものがおーく、いじくられやくとしてすーおーくのばらえてぃばんぐみでちょーほーされる。	NO_LABEL
評価的にはネガティブランキングで上位になることが多い。	ひょーかてきにわねがてぃぶらんきんぐでじょーいになることがおーい。	NO_LABEL
発祥は定かではないが、1970年代後半にチャンバラトリオのハリセン芸、ゆーとぴあのゴムパッチン芸といった、痛みに苦しむ様で笑いをとるコントが一世を風靡した。	はっしょーわさだかでわないが、せんきゅうひゃくななじゅうねんだいこーはんにちゃんばらとりおのはりせんげい、ゆーとぴあのごむぱっちんげいといった、いたみにくるしむよーでわらいをとるこんとがいっせいをふーびした。	NO_LABEL
80年代に入ると『スーパージョッキー』『オレたちひょうきん族』といった主にビートたけしの関わるバラエティ番組で、稲川淳二や片岡鶴太郎、たけし軍団が体を張ったロケやコーナーを頻繁に行うようになった。	NO_PRONOUNCE	NO_LABEL
「アツアツおでん」「熱湯風呂」などリアクション芸のステレオタイプとされる芸はこの時期に完成した。	NO_PRONOUNCE	NO_LABEL
90年代以降、『ビートたけしのお笑いウルトラクイズ』『浅草橋ヤング洋品店』など、テリー伊藤が演出を手がけた番組で出川哲朗やダチョウ倶楽部、が頭角を現し、市民権を得るようになった。	NO_PRONOUNCE	NO_LABEL
しかし近年では放送倫理基準の厳重化や番組予算の縮小、更には芸能事務所側がNGを出すケースも絡んで、若手の台頭が少なくなっている。	しかしきんねんでわほーそーりんりきじゅんのげんじゅーかやばんぐみよさんのしゅくしょー、さらにわげいのーじむしょがわがえぬじーをだすけーすもからんで、わかてのたいとーがすくなくなっている。	NO_LABEL
