マレーシア標準時および協定世界時から8時間進んでいる。	まれーしあひょーじゅんじおよびきょーていせかいじからはちじかんすすんでいる。	NO_LABEL
首都・クアラルンプールの地方時は本来である。	NO_PRONOUNCE	NO_LABEL
マレーシア半島は1880年までこの地方標準時を採用していたが、この年以降シンガポールの標準時であるに移行した。	まれーしあはんとーわせんはっぴゃくはちじゅうねんまでこのちほーひょーじゅんじをさいよーしていたが、このとしいこーしんがぽーるのひょーじゅんじであるにいこーした。	NO_LABEL
第二次世界大戦終戦後からマレーシアの国家が成立する1963年9月16日までの間は、英領マラヤ標準時としてを用いていた。	だいにじせかいたいせんしゅーせんごからまれーしあのこっかがせいりつするせんきゅうひゃくろくじゅうさんねんくがつじゅうろくにちまでのまわ、えいりょーまらやひょーじゅんじとしてをもちいていた。	NO_LABEL
1981年12月31日23時30分、にマレーシア半島では時計を30分早めて1982年1月1日00時00分とし、東マレーシア（）で用いられるUTC+8と同一時刻とした。	NO_PRONOUNCE	NO_LABEL
夏時間は導入されていない。	なつじかんわどーにゅーされていない。	NO_LABEL
1901年1月1日までは、英領マラヤに立地する天文台の地理的位置に基づいた地方標準時を採用していた。	せんきゅうひゃくいちねんいちがつついたちまでわ、えいりょーまらやにりっちするてんもんだいのちりてきいちにもとずいたちほーひょーじゅんじをさいよーしていた。	NO_LABEL
ペナン・マラッカ・シンガポールが当時、天文台を有していたので、3つの海峡植民地がそれぞれの地方標準時を使用した。	NO_PRONOUNCE	NO_LABEL
これら3地域は、分単位の差異があった。	NO_PRONOUNCE	NO_LABEL
1901年1月1日より、シンガポール標準時が海峡植民地と英領マラヤに適用されるようになり、標準時となった。	せんきゅうひゃくいちねんいちがつついたちより、しんがぽーるひょーじゅんじがかいきょーしょくみんちとえいりょーまらやにてきよーされるよーになり、ひょーじゅんじとなった。	NO_LABEL
これは鉄道・郵便・電報が普及し、スケジュール設定上の問題を簡素化するために単一の標準時が求められたことにある。	NO_PRONOUNCE	NO_LABEL
シンガポールが選ばれたのは、海峡植民地・英領マラヤを管轄する組織がシンガポールにあったからである。	NO_PRONOUNCE	NO_LABEL
1905年1月1日からは、東経105度の経線が海峡植民地と英領マラヤの標準時を決める経線として採用された。	せんきゅうひゃくごねんいちがつついたちからわ、とーけいひゃくごどのけいせんがかいきょーしょくみんちとえいりょーまらやのひょーじゅんじをきめるけいせんとしてさいよーされた。	NO_LABEL
この決定は1904年2月に行われた。	このけっていわせんきゅうひゃくよねんにがつにおこなわれた。	NO_LABEL
東経105度は、UTC+7に相当する。	NO_PRONOUNCE	NO_LABEL
この変更によってフォート・カニングの報時球（）が影響を受けたが、同日中に運用を開始した。	このへんこーによってふぉーとかにんぐのほーじだまかっこがえいきょーをうけたが、どーじつちゅーにうんよーをかいしした。	NO_LABEL
1920年になるとイギリス本国と同様に、時間を導入する法案が海峡植民地立法評議会に提出された。	せんきゅうひゃくにじゅうねんになるといぎりすほんごくとどーよーに、じかんをどーにゅーするほーあんがかいきょーしょくみんちりっぽーひょーぎかいにていしゅつされた。	NO_LABEL
この時提案されたのは、東経105度の本来の時刻より30分早める、すなわち、とすることである。	このときていあんされたのわ、とーけいひゃくごどのほんらいのじこくよりさんじゅっぷんはやめる、すなわち、とすることである。	NO_LABEL
その目的は、労働者が仕事の後の余暇時間を拡大することであったが、最初の審議で却下された。	そのもくてきわ、ろーどーしゃがしごとののちのよかじかんをかくだいすることであったが、さいしょのしんぎできゃっかされた。	NO_LABEL
12年後の1932年に再び立法評議会に諮られ、30分では時間が大きく変わりすぎるとして議論となった。	じゅうにねんごのせんきゅうひゃくさんじゅうにねんにふたたびりっぽーひょーぎかいにはかられ、さんじゅっぷんでわじかんがおーきくかわりすぎるとしてぎろんとなった。	NO_LABEL
そこで10分短縮して20分進めることが提案され、2度の審議の後に1932年条例第21号「夏時間条例」として通過した。	NO_PRONOUNCE	NO_LABEL
1933年に施行し、同年1月1日から1年間のみ適用されることになった。	せんきゅうひゃくさんじゅうさんねにしこーし、どーねんいちがつついたちからいちねんかんのみてきよーされることになった。	NO_LABEL
しかし、1934年と1935年には官報による通達でそのまま継続され、1935年に1932年の条例を改正する形で1935年条例第5号が成立し、年限条項が撤廃され、がこの地域の標準時として恒久的に採用されることが決定した。	しかし、せんきゅうひゃくさんじゅうよねんとせんきゅうひゃくさんじゅうごねんにわかんぽーによるつーたつでそのままけいぞくされ、せんきゅうひゃくさんじゅうごねんにせんきゅうひゃくさんじゅうにねんのじょーれいをかいせいするかたちでせんきゅうひゃくさんじゅうごねんじょーれいだいごごーがせいりつし、ねんげんじょーこーがてっぱいされ、がこのちいきのひょーじゅんじとしてこーきゅーてきにさいよーされることがけっていした。	NO_LABEL
1936年には海峡植民地の法律集の第170章に収録された。	NO_PRONOUNCE	NO_LABEL
1941年になると「夏時間条例」が再度改正され、1941年条例第33号となった。	NO_PRONOUNCE	NO_LABEL
これにより、に変更され、1920年に当初提案された標準時が採用されることとなった。	これにより、にへんこーされ、せんきゅうひゃくにじゅうねんにとーしょていあんされたひょーじゅんじがさいよーされることとなった。	NO_LABEL
1942年2月16日、大日本帝国は正式に英領マラヤを占領した。	せんきゅうひゃくよんじゅうにねんにがつじゅうろくにち、だいにっぽんていこくわせいしきにえいりょーまらやをせんりょーした。	NO_LABEL
そこでこの地域の時刻は1時間30分早い日本標準時に移行した。	そこでこのちいきのじこくわいちじかんさんじゅっぷんはやいにほんひょうじゅんじにいこーした。	NO_LABEL
日本は1945年9月12日にシンガポールで正式に降伏を表明し、もとの英領マラヤ標準時に戻った。	にっぽんわせんきゅうひゃくよんじゅうごねんくがつじゅうににちにしんがぽーるでせいしきにこーふくをひょーめいし、もとのえいりょーまらやひょーじゅんじにもどった。	NO_LABEL
しかし、英領マラヤ標準時に戻った正確な日付は不明である。	しかし、えいりょーまらやひょーじゅんじにもどったせいかくなひずけわふめいである。	NO_LABEL
マレーシア政府は、1981年12月31日にマレーシア半島の時刻を30分進めて東マレーシアと時刻を統一し、UTC+8とすることを宣言した。	NO_PRONOUNCE	NO_LABEL
マレーシアの人口の8割がマレーシア半島に住んでいるため、人口の少ない東マレーシアの方に時刻をそろえるこの変更は、厄介なものであった。	まれーしあのじんこーのはちわりがまれーしあはんとーにすんでいるため、じんこーのすくないひがしまれーしあのほーにじこくをそろえるこのへんこーわ、やっかいなものであった。	NO_LABEL
1990年1月1日より、マレーシアでは政府の打診により、同国のSIRIM社傘下の国民度量衡学研究所が標準時を管理している。	NO_PRONOUNCE	NO_LABEL
マレーシア標準時は、SIRIMが5つの原子時計で管理する。	NO_PRONOUNCE	NO_LABEL
IANA time zone databaseは、マレーシアを2つのゾーンに分け、ファイルzone.tabに収録している。	NO_PRONOUNCE	NO_LABEL
