西根インターチェンジは、岩手県八幡平市にある東北自動車道のインターチェンジである。	にしねいんたーちぇんじわ、いわてけんはちまんたいしにあるとーほくじどーしゃどーのいんたーちぇんじである。	NO_LABEL
当ICより松尾八幡平、青森方面は、トンネルや急カーブ、急勾配の坂が連続するため、大鰐弘前ICまで通常の最高速度が80km/hに制限されている。	NO_PRONOUNCE	NO_LABEL
かつて日本道路公団仙台管理局西根管理事務所が併設されていたため、交通量に比して料金所事務室の建物が大きなものとなっている。	かつてにほんどーろこーだんせんだいかんりきょくにしねかんりじむしょがへいせつされていたため、こーつーりょーにひしてりょーきんじょじむしつのたてものがおーきなものとなっている。	NO_LABEL
