大洲南インターチェンジは、愛媛県大洲市にある松山自動車道のインターチェンジ。	おおずみなみいんたーちぇんじわ、えひめけんおおずしにあるまつやまじどーしゃどーのいんたーちぇんじ。	NO_LABEL
松山市方面のみの出入りが可能である。	まつやましほーめんのみのでいりがかのーである。	NO_LABEL
宇和島市方面へは当ICが無料区間最終出口となる。	うわじましほーめんえわとーあいしーがむりょーくかんさいしゅーでぐちとなる。	NO_LABEL
