横須賀鎮守府は、神奈川県横須賀市にあった日本海軍の鎮守府。	よこすかちんじゅふわ、かながわけんよこすかしにあったにっぽんかいぐんのちんじゅふ。	NO_LABEL
通称、横鎮。	つーしょー、よこちん。	NO_LABEL
1871年の「海軍規則」において「附近ノ諸港ヲ統括」する「海軍提督府」の条項が設けられ、翌年にはその職員が発令され、執務場所が海軍省内と定められた。	NO_PRONOUNCE	NO_LABEL
1876年8月には「提督府」を「鎮守府」とし、「東海鎮守府」を横須賀に、「西海鎮守府」を長崎に置くことが決定されたが、同年9月14日に東海鎮守府が横浜に設置されたものの、西海鎮守府は設置されなかった。	NO_PRONOUNCE	NO_LABEL
1884年12月15日、東海鎮守府を横須賀に移転して「横須賀鎮守府」と改称、さらに横須賀海軍造船所・横須賀海軍病院を鎮守府の所管とした。	NO_PRONOUNCE	NO_LABEL
1886年4月22日、「海軍条例」において全国に5つの「海軍区」を定め、横須賀鎮守府は第一海軍区として「陸中陸奥国界ヨリ紀伊国南牟婁東牟婁郡界ニ至ノ海岸海面及小笠原島ノ海岸海面」を所管した。	NO_PRONOUNCE	NO_LABEL
また「鎮守府官制」により、鎮守府の組織として参謀部・軍医部・主計部・造船部・兵器部・建築部・軍法会議・監獄署などが置かれた。	NO_PRONOUNCE	NO_LABEL
大東亜戦争開戦時	だいとーあせんそーかいせんじ	NO_LABEL
ミッドウェー海戦後	みっどーぇーかいせんご	NO_LABEL
戦時編制制度改定後	せんじへんせいせいどかいていご	NO_LABEL
菊水作戦直前	きくすいさくせんちょくぜん	NO_LABEL
