平壌放送は、朝鮮民主主義人民共和国の国営放送局である朝鮮中央放送委員会が製作する国外向けラジオ放送である。	ぴょんやんほーそーわ、ちょーせんみんしゅしゅぎじんみんきょーわこくのこくえいほうそーきょくであるちょーせんちゅーおーほーそーいーがせいさくするこくがいむけらじおほうそーである。	NO_LABEL
同国から発信される国際放送にはいくつかの言語があるが、日本語を始めとする外国語放送については、2001年2月に「朝鮮の声放送」に改称された。	NO_PRONOUNCE	NO_LABEL
2017年7月現在、「平壌放送」と称しているのは朝鮮語のみである。	NO_PRONOUNCE	NO_LABEL
主な周波数は中波で621、657、801、855kHzなど。	NO_PRONOUNCE	NO_LABEL
この他にも短波でも放送されている。	このほかにもたんぱでもほーそーされている。	NO_LABEL
平壌放送局が1945年10月の放送再開時から実施していた対南・対外朝鮮語番組が、1951年1月に開始された海外放送」）の朝鮮語放送として独立し、組織としても1955年10月に国内向け放送とは別系統として分離されたのがその前身である。	NO_PRONOUNCE	NO_LABEL
その後1967年12月に「朝鮮中央第2放送」と改称し、1972年11月、組織改編によって海外向け放送と別組織になった際に、現在の「平壌放送」に改称された。	NO_PRONOUNCE	NO_LABEL
同じように近隣諸国での受信を目的に行う朝鮮語の放送局に韓国放送公社が行うKBS韓民族放送がある。	おなじよーにきんりんしょこくでのじゅしんをもくてきにおこなうちょーせんごのほーそーきょくにかんこくほーそーこーしゃがおこなうけーびーえすかんみんぞくほうそーがある。	NO_LABEL
2013年2月1日に平壌放送の公式ウェブサイト「民族大団結」を開設した。	NO_PRONOUNCE	NO_LABEL
放送内容は朝鮮中央放送とあまり変わらず、プロパガンダ的なニュースや音楽、労働新聞の論評、小説の朗読、ドラマ等を中心に放送しているが、国内向けの朝鮮中央放送とは異なり、聴取の対象としているのは主に韓国在住同胞、もしくは在日朝鮮人等である。	ほーそーないよーわちょーせんちゅーおーほうそーとあまりかわらず、ぷろぱがんだてきなにゅーすやおんがく、ろーどーしんぶんのろんぴょー、しょーせつのろーどく、どらまとーをちゅーしんにほーそーしているが、こくないむけのちょーせんちゅーおーほうそーとわことなり、ちょーしゅのたいしょーとしているのわおもにかんこくざいじゅーどーほー、もしくわざいにちちょーせんじんとーである。	NO_LABEL
平壌時間05:30から06:00までの30分を除いてほぼ終日に渡って放送されている。	NO_PRONOUNCE	NO_LABEL
放送開始前のインターバル・シグナルは「金日成将軍の歌」の冒頭2小節を電子オルガンで演奏したものである。	NO_PRONOUNCE	NO_LABEL
開始時は愛国歌の演奏に続いて「栄えあるわが祖国、朝鮮民主主義人民共和国万歳!」「朝鮮人民のすべての勝利の組織者・嚮導者である朝鮮労働党万歳!」とのスローガンが読み上げられ、次に「金日成将軍の歌」と「金正日将軍の歌」が流れる。	NO_PRONOUNCE	NO_LABEL
かつて金日成放送大学は、1962年に開始されて以来、長い間毎日夜に放送されていた。	かつてきむいるそんほーそーだいがくわ、せんきゅうひゃくろくじゅうにねんにかいしされていらい、ながいあいだまいにちよるにほーそーされていた。	NO_LABEL
しかし2004年10月31日放送分をもって42年間に渡る放送を終え、これに代わるものとして同年11月8日よりインターネットを通じての講義が開始されている。	しかしにせんよねんじゅーがつさんじゅういちにちほーそーぶんをもってよんじゅうにねんかんにわたるほーそーをおえ、これにかわるものとしてどーねんじゅーいちがつようかよりいんたーねっとをつーじてのこーぎがかいしされている。	NO_LABEL
※PYT=UTC+9 日本標準時・韓国標準時に同じ。	NO_PRONOUNCE	NO_LABEL
2015年8月15日から2018年5月4日までは	にせんじゅうごねんはちがつじゅうごにちからにせんじゅうはちねんごがつよっかまでわ	NO_LABEL
621kHzと3250kHzは朝鮮の声放送の日本語放送枠と時間外で共用になっている。	NO_PRONOUNCE	NO_LABEL
また、702kHz 720kHz 810kHz 864kHz 3220kHz 3940kHz 3970kHzは朝鮮中央放送と時間外での共用周波となっている。	NO_PRONOUNCE	NO_LABEL
平壌放送は、対南向け・近隣諸国にいる朝鮮人向け・工作員向けの放送とされている。	NO_PRONOUNCE	NO_LABEL
工作員への指令はかつてこの放送で行われていたとされている。	こーさくいんえのしれいわかつてこのほーそーでおこなわれていたとされている。	NO_LABEL
乱数放送の終了した2000年以降の現在でも、本放送の選曲順が工作員への暗号になっていると言う指摘がある。	らんすーほうそーのしゅーりょーしたにせんねんいこーのげんざいでも、ほんほーそーのせんきょくじゅんがこーさくいんえのあんごーになっているというしてきがある。	NO_LABEL
なお、韓国在住者が平壌放送を聴取できないようにするため、韓国政府当局はジャミングを発信して対処している。	なお、かんこくざいじゅーしゃがぴょんやんほーそーをちょーしゅできないよーにするため、かんこくせいふとーきょくわじゃみんぐをはっしんしてたいしょしている。	NO_LABEL
日本でも平壌放送の電波とこの妨害電波が混信した状態で受信されることがある、佐賀県北部、長崎県の本土部北部と壱岐・対馬・五島列島））、山口県・島根県など）。	NO_PRONOUNCE	NO_LABEL
また近畿地方などの一部地域ではNHK大阪放送局と混信する周波数もある。	またきんきちほーなどのいちぶちーきでわえぬえいちけいおーさかほーそーきょくとこんしんするしゅーはすーもある。	NO_LABEL
電波が比較的強く、また中継局も多いため、日本国内でもAMラジオの621、657、801、855kHz等、様々な周波数で非常に容易に聴取することができる。	NO_PRONOUNCE	NO_LABEL
日本で聞く場合は、日が暮れてから前述の周波数にチューニングをし、ラジオの方向を多少調節するだけで受信できる。	にっぽんできくばあいわ、ひがくれてからぜんじゅつのしゅーはすーにちゅーにんぐをし、らじおのほーこーをたしょーちょーせつするだけでじゅしんできる。	NO_LABEL
特に、AM657kHzは屋外ならば国内放送並みのクリアさで聴取可能。	NO_PRONOUNCE	NO_LABEL
屋内でも受信可能な場合がある。	おくないでもじゅしんかのーなばあいがある。	NO_LABEL
安価の携帯ラジオやカーラジオでも申し分なく内容を聞き取れるだが、NHK大阪放送局と混信しやすい大阪から遠く、対岸に朝鮮半島がある日本海側の兵庫県北部・京都府北部など、場所によってはクリアに聴取できるところもある）。	NO_PRONOUNCE	NO_LABEL
乱数放送と呼ばれる暗号電文を読み上げる放送をしており、これにより拉致を含む様々な指令を工作員に送ってきた経緯がある。	らんすーほうそーとよばれるあんごーでんぶんをよみあげるほーそーをしており、これによりらちをふくむさまざまなしれいをこーさくいんにおくってきたけいいがある。	NO_LABEL
なお、この乱数放送の解読に使う乱数表は水溶紙が使われており機密性が保たれているが、これまで何度も韓国などで発見され押収されている。	なお、このらんすーほうそーのかいどくにつかうらんすーひょーわすいよーしがつかわれておりきみつせいがたもたれているが、これまでなんどもかんこくなどではっけんされおーしゅーされている。	NO_LABEL
乱数放送は2000年に一旦終了したに切り替えたためと言われている）が、2016年6月24日に16年ぶりに放送を再開し、以降、不定期に放送が行われている。	NO_PRONOUNCE	NO_LABEL
かつて、韓国政府が本放送を模したダミーの乱数放送を行ったことがあるとする指摘もあるが、現在はみられない。	かつて、かんこくせいふがほんほーそーをもしただみーのらんすーほうそーをおこなったことがあるとするしてきもあるが、げんざいわみられない。	NO_LABEL
