『僕を救ってくれなかった君へ』は小南泰葉の2枚目のフルアルバム。	NO_PRONOUNCE	NO_LABEL
2015年12月2日にEMI RECORDSからリリースされた。	にせんじゅうごねんじゅーにがつふつかにいーえむあいれこーずからりりーすされた。	NO_LABEL
フルアルバムとしては、2013年5月の『キメラ』以来、約2年半ぶり。	NO_PRONOUNCE	NO_LABEL
その間に、EPリリース、配信EP、ライブツアー、楽曲提供などの活動を挟みリリースされた。	そのかんに、いーぴーりりーす、はいしんいーぴー、らいぶつあー、がっきょくていきょーなどのかつどーをはさみりりーすされた。	NO_LABEL
作品全体のプロデューサーとしてSilky Voiceを迎えて制作された。	NO_PRONOUNCE	NO_LABEL
メッセージを伝えることに重点を置いて制作され、ギター弾き語りから肉付けするなど、従来と異なる制作手法も採用された。	めっせーじをつたえることにじゅーてんをおいてせいさくされ、ぎたーひきがたりからにくずけするなど、じゅーらいとことなるせいさくしゅほーもさいよーされた。	NO_LABEL
本作の制作にあたっては、音楽活動を続ける中から変化を求める心境に至ったことから、小南自身についての固定観念を取り払うことを目標に置いたという。	もとさくのせいさくにあたってわ、おんがくかつどーをつずけるなかからへんかをもとめるしんきょーにいたったことから、こみなみじしんについてのこていかんねんをとりはらうことをもくひょーにおいたという。	NO_LABEL
そのため、苦手としてきた赤裸々なメッセージを伝えることを大幅に取り入れている。	そのため、にがてとしてきたせきららなめっせーじをつたえることをおーはばにとりいれている。	NO_LABEL
また、リスタートの意味も込めて、本作のイメージカラーは従来の小南の印象と異なる白である。	また、りすたーとのいみもこめて、もとさくのいめーじからーわじゅーらいのこみなみのいんしょーとことなるしろである。	NO_LABEL
一方で、アルバム最後の曲「ブリリアントブルー」では、色鮮やかな世界を歌い締めくくっている。	NO_PRONOUNCE	NO_LABEL
音楽による救いを求める気持ちから、アルバムのテーマを救済としている。	おんがくによるすくいをもとめるきもちから、あるばむのてーまをきゅーさいとしている。	NO_LABEL
リード曲は「傷」である。	NO_PRONOUNCE	NO_LABEL
本作のイメージカラーである白を基調としたアートワークで彩られている。	もとさくのいめーじからーであるしろをきちょーとしたあーとわーくでいろどられている。	NO_LABEL
初回盤と通常盤の2エディションでリリースされ、パッケージやジャケット写真が異なるほか、初回盤にはPV・オフショットを収録したDVDが付属している。	NO_PRONOUNCE	NO_LABEL
リリースにあたって全国のタワーレコードで、インストアライブツアー「僕を救ってくれなかった君へ」が開催された。	NO_PRONOUNCE	NO_LABEL
また、ライブツアー「僕を救済するツアー 2016」が2016年3月に開催された。	NO_PRONOUNCE	NO_LABEL
