カストロ通り (カストロ地区、） は、カリフォルニア州サンフランシスコの近郊にある地域の名称。	NO_PRONOUNCE	NO_LABEL
1960年代から70年代にかけては労働者階級の住民が多く住む地域であったが、その後アメリカ屈指のゲイタウンへと変化し、今日ではその最大規模の一つとされる。	せんきゅうひゃくろくじゅうねんだからななじゅうねんだいにかけてわろーどーしゃかいきゅーのじゅーみんがおーくすむちいきであったが、そのごあめりかくっしのげいたうんえとへんかし、きょーでわそのさいだいきぼのひとつとされる。	NO_LABEL
これまでにLGBTに関連した政治運動やイベントなどの舞台ともなり、LGBTコミュニティのシンボル的存在の一つとなっている。	これまでにえるじいびいてぃいにかんれんしたせいじうんどーやいべんとなどのぶたいともなり、えるじいびいてぃいこみゅにてぃのしんぼるてきそんざいのひとつとなっている。	NO_LABEL
カストロ地区のゲイタウンは、カストロ通りとマーケット・ストリートの交差点から19丁目交差点までに至る商業地区を中心に広がっている。	NO_PRONOUNCE	NO_LABEL
近年ではマーケット・ストリートに沿って東方面にチャーチ・ストリートに至るまでのエリアや、カストロ通りと並行して南北に走るチャーチ・ストリートとユーリカ・ストリートに挟まれたエリアにも拡大している。	NO_PRONOUNCE	NO_LABEL
また周囲の、、、 ツインピークス、といったエリアや、やドローレス・ハイツといったエリアもカストロ地区に入ると考える人もいる。	NO_PRONOUNCE	NO_LABEL
カストロ通り自体は、前述のエリアから数ブロック北のディヴィサデロ・ストリートとウォーラー・ストリートの交差点を起点にノー・バレー方面に南下し、マーケット・ストリートや24丁目の商業地区を抜けた先の丘陵地帯に差し掛かった所で蛇行した後に一旦途切れてしまう。	NO_PRONOUNCE	NO_LABEL
その後グレン・パーク南側のサセックス・ストリートとビーミス・ストリートの接続点から再び始まり、チェネリー・ストリートとの交差点で終わっている。	NO_PRONOUNCE	NO_LABEL
通りの名称はの名前を起源としている。	とーりのめいしょーわのなまえをきげんとしている。	NO_LABEL
現在の街区は がユリーカ・バレーとダウンタウンを結ぶ路面電車の線路を敷設した1887年に作られたとされ、1891年には地区の西エリアに が建築された。	NO_PRONOUNCE	NO_LABEL
1910年代から20年代にかけて、カストロ地区には北欧系の住民が多く住み始めたことで「リトル・スカンジナビア」の愛称で知られるようになり、当時カストロ地区の先は "Norse Cove"と呼ばれていた。	NO_PRONOUNCE	NO_LABEL
この時代に営業を始めたが1986年まで営業を行っており、また現在 Swedish American Hall が建っているマーケット・ストリートと15丁目が交差する辺りにはスカンジナビア系船員の組合がかつて存在していた。	NO_PRONOUNCE	NO_LABEL
この時代の名残りとして、カストロ通りとチャーチ・ストリートに挟まれたマーケット・ストリート沿いにはスカンジナビア式の半木骨造建物が今でも見られる。	このじだいのなごりとして、かすとろどーりとちゃーちすとりーとにはさまれたまーけっとすとりーとぞいにわすかんじなびあしきのはんもっこつぞーたてものがいまでもみられる。	NO_LABEL
1930年代にはアイルランド系の労働者階級の住民が住み始め、60年代中盤にかけて多く居住していた。	せんきゅうひゃくさんじゅうねんだいにわあいるらんどけいのろーどーしゃかいきゅーのじゅーみんがすみはじめ、ろくじゅうねんだいちゅーばんにかけておーくきょじゅーしていた。	NO_LABEL
1941年にマーケット・ストリートから29丁目にかけてのカストロ通りを運行していたケーブルカーの線路が取り払われ、バス運行に切り替わった。	NO_PRONOUNCE	NO_LABEL
第二次世界大戦中のアメリカ陸軍は性的指向を理由に除隊させた男性同性愛者の軍人をサンフランシスコで放免し、その数は数千人を数えたとされる。	だいにじせかいたいせんちゅーのあめりかりくぐんわせいてきしこーをりゆーにじょたいさせただんせいどーせいあいしゃのぐんじんをさんふらんしすこでほーめんし、そのかずわすーせんにんをかぞえたとされる。	NO_LABEL
その多くはカストロ地区に定住し、同地区に同性愛者が集まり始めた。	そのおーくわかすとろちくにていじゅーし、どーちくにどーせいあいしゃがあつまりはじめた。	NO_LABEL
1967年に近隣のでの「サマー・オブ・ラブ」現象の盛り上がりを受けて、カストロ地区は同性愛者達の中心的な存在へと成長し、全米から数万人規模で中産階級の若者が集まり始めた。	NO_PRONOUNCE	NO_LABEL
それまで「ユリーカ・バレー」として知られた地区の名前も、通りの名を冠したがオープンした後には「カストロ」として知られるようになる。	NO_PRONOUNCE	NO_LABEL
1970年代には、この地区の中産階級の住民が郊外へ流出し始めたことで住宅相場が下がり、それまでサンフランシスコ市内で同性愛者達が集まる地区として最も栄えていた地区からの住民が流入するようになった。	せんきゅうひゃくななじゅうねんだいにわ、このちくのちゅーさんかいきゅーのじゅーみんがこーがいえりゅーしゅつしはじめたことでじゅーたくそーばがさがり、それまでさんふらんしすこしないでどーせいあいしゃたちがあつまるちくとしてもっともさかえていたちくからのじゅーみんがりゅーにゅーするよーになった。	NO_LABEL
1973年にはハーヴェイ・ミルクがカストロカメラをオープン、また同性愛者の社会活動家として政治的な運動に関わり始めたことで、カストロ地区は同性愛者の集う場所というイメージを広めることとなった。	NO_PRONOUNCE	NO_LABEL
1970年代終わりには、当時の服装や習慣を指す「」という言葉が誕生した。	NO_PRONOUNCE	NO_LABEL
これは当時の同性愛者に人気の高かったスタイルのことを指し、 "Clone Canyon" とも呼ばれていた。	NO_PRONOUNCE	NO_LABEL
この頃にはバーなどナイトライフの有名店がカストロ通りの18丁目からマーケット・ストリートにかけて存在していた。	NO_PRONOUNCE	NO_LABEL
1980年代のAIDS/HIV禍はカストロ地区にも大きな影響を及ぼし、1984年初頭にはAIDSの拡散防止を目的にの取り締まりの厳格化を市当局が発表している。	NO_PRONOUNCE	NO_LABEL
今日でもマーケット・ストリートやカストロ通りのキオスクには広告に混ざってセーファーセックスを呼びかけるポスターが見られる。	きょーでもまーけっとすとりーとやかすとろどーりのきおすくにわこーこくにまざってせーふぁーせっくすをよびかけるぽすたーがみられる。	NO_LABEL
カストロ地区の北側入口に相当。	かすとろちくのきたがわいりぐちにそーとー。	NO_LABEL
17丁目通りの交差点も接続している。	NO_PRONOUNCE	NO_LABEL
18丁目の交差点は、マーチや抗議運動など多くの歴史的なイベントなどが発生した場所の一つ。	NO_PRONOUNCE	NO_LABEL
