エリック・オルティス・アパリシオは、メキシコのプロボクサー。	NO_PRONOUNCE	NO_LABEL
メキシコシティ出身。	めきしこしてぃしゅっしん。	NO_LABEL
元WBC世界ライトフライ級王者。	もとだぶりゅーびーしーせかいらいとふらいきゅーおーじゃ。	NO_LABEL
1996年2月21日、プロデビュー。	せんきゅうひゃくきゅうじゅうろくねんにがつにじゅういちにち、ぷろでびゅー。	NO_LABEL
2004年9月4日、IBF世界ライトフライ級王座挑戦者決定戦でウェンデル・ハニオラと対戦し、5回負傷判定勝ちで王座挑戦権を獲得した。	NO_PRONOUNCE	NO_LABEL
2005年3月11日、30戦目で世界王座初挑戦。	にせんごねんさんがつじゅういちにち、さんじゅうせんめでせかいおーざはつちょーせん。	NO_LABEL
WBC世界ライトフライ級王座決定戦でホセ・アントニオ・アギーレと対戦し、7回TKO勝ちで世界王座を獲得した。	だぶりゅーびーしーせかいらいとふらいきゅーおーざけっていせんでほせあんとにおあぎーれとたいせんし、ななかいてぃーけーおーがちでせかいおーざをかくとくした。	NO_LABEL
2005年9月10日、初防衛戦でブライアン・ビロリアと対戦し、初回TKO負けで王座から陥落した。	にせんごねんくがつとおか、はつぼーえいせんでぶらいあんびろりあとたいせんし、しょかいてぃーけーおーまけでおーざからかんらくした。	NO_LABEL
2006年3月25日、IBF世界ライトフライ級王者ウリセス・ソリスに挑戦し、9回TKO負けで王座獲得ならず。	にせんろくねんさんがつにじゅうごにち、あいびーえふせかいらいとふらいきゅーおーじゃうりせすそりすにちょーせんし、きゅうかいてぃーけーおーまけでおーざかくとくならず。	NO_LABEL
2009年7月11日、IBF世界フライ級王座挑戦者決定戦でフリオ・セサール・ミランダと対戦し、初回KO負け。	にせんきゅうねんしちがつじゅういちにち、あいびーえふせかいふらいきゅーおーざちゃれんじゃーけっていせんでふりおせさーるみらんだとたいせんし、しょかいけいおーまけ。	NO_LABEL
2010年4月22日、WBA世界フライ級暫定王者ルイス・コンセプシオンに挑戦し、4回TKO負けで王座獲得はならなかった。	にせんじゅうねんしがつにじゅうににち、だぶりゅーびーえーせかいふらいきゅーざんていおーじゃるいすこんせぷしおんにちょーせんし、よんかいてぃーけーおーまけでおーざかくとくわならなかった。	NO_LABEL
2010年7月3日、ウリセス・ソリスと4年3か月ぶりに再戦し、10回0-3の判定負けを喫した。	NO_PRONOUNCE	NO_LABEL
