石毛 大蔵は、日本の男性元総合格闘家。	いしげおーくらわ、にっぽんのだんせいもとそーごーかくとーか。	NO_LABEL
千葉県銚子市出身。	ちばけんちょーしししゅっしん。	NO_LABEL
柔道三段。	じゅーどーさんだん。	NO_LABEL
元ウェルター級キング・オブ・パンクラシスト	もとうぇるたーきゅーきんぐおぶぱんくらしすと	NO_LABEL
横芝敬愛高校を経て、大東文化大学を卒業後、アメリカ合衆国へ留学。	よこしばけいあいこーこーをへて、だいとーぶんかだいがくをそつぎょーご、あめりかがっしゅーこくえりゅーがく。	NO_LABEL
2003年、2004年の全日本サンボ選手権74kg級で優勝。	にせんさんねん、にせんよねんのぜんにほんさんぼせんしゅけんななじゅうよんきろぐらむきゅーでゆーしょー。	NO_LABEL
その後、SKアブソリュートに在籍。	そのご、えすけーあぶそりゅーとにざいせき。	NO_LABEL
2004年9月24日、パンクラスでのデビュー戦を迎え、関直喜と対戦したが、0-1の判定で引き分けた。	NO_PRONOUNCE	NO_LABEL
2006年8月26日に横浜文化体育館で行われた第2代ウェルター級王者決定戦において、井上克也を3-0の判定で下し王座獲得に成功した。	NO_PRONOUNCE	NO_LABEL
2007年5月27日、CAGE FORCE初参戦となったCAGE FORCE EX -eastern bound-のウェルター級王座決定トーナメント準々決勝において、ダン・ハーディーに0-3の判定負けを喫したことで、競輪選手への転身を志すようになる。	NO_PRONOUNCE	NO_LABEL
7月27日にパンクラスウェルター級王座防衛戦で井上克也と対戦予定であったが、ハーディー戦でのダメージにより欠場した。	しちがつにじゅうしちにちにぱんくらすうぇるたーきゅーおーざぼーえいせんでいのーえかつやとたいせんよていであったが、はーでぃーせんでのだめーじによりけつじょーした。	NO_LABEL
同年12月に、パンクラスウェルター級王座を返上した。	どーねんじゅーにがつに、ぱんくらすうぇるたーきゅーおーざをへんじょーした。	NO_LABEL
日本競輪学校へは3度目の受験となる第98期に合格し、2009年5月に同校へ入学。	にほんけいりんがっこーえわさんどめのじゅけんとなるだいきゅうじゅうはっきにごーかくし、にせんきゅうねんごがつにどーこーえにゅーがく。	NO_LABEL
しかし卒業への基準となる走行タイムを出すことができなかったため落第を繰り返し、99期、100期にそれぞれ編入されたが、その後同様の理由で途中退学を余儀なくされたことを自ら公表した。	しかしそつぎょーえのきじゅんとなるそーこーたいむをだすことができなかったためらくだいをくりかえし、きゅうじゅうきゅうき、ひゃっきにそれぞれへんにゅーされたが、そのごどーよーのりゆーでとちゅーたいがくをよぎなくされたことをみずからこーひょーした。	NO_LABEL
