日本橋室町一丁目チケットショップ内女性店員殺人事件は、2004年9月に東京都中央区で発生した殺人事件。	にほんばしむろまちいっちょーめちけっとしょっぷないじょせいさつじんじけんわ、にせんよねんくがつにとーきょーとちゅーおーくではっせいしたさつじんじけん。	NO_LABEL
被疑者は逮捕されておらず、現在も未解決となっている。	ひぎしゃわたいほされておらず、げんざいもみかいけつとなっている。	NO_LABEL
2007年6月29日に捜査特別報奨金制度の対象となったが、後に対象から外れた。	にせんななねんろくがつにじゅうきゅうにちにそーさとくべつほーしょーきんせいどのたいしょーとなったが、ごにたいしょーからはずれた。	NO_LABEL
2004年9月27日午後6時50分ごろ、東京都中央区日本橋室町のチケットショップ「ビックチケット日本橋店」内で女性従業員が胸や腹など数か所を刺された状態で倒れているのを警備員に発見され、病院に搬送されたものの間もなく死亡した。	NO_PRONOUNCE	NO_LABEL
店のシャッターは閉まっていた。	みせのしゃったーわしまっていた。	NO_LABEL
警察は防犯ビデオに映っていた男の行方を追っている。	けいさつわぼーはんびでおにうつっていたおとこのゆくえをおっている。	NO_LABEL
男の特徴は以下の通り。	おとこのとくちょーわいかのとーり。	NO_LABEL
