2010年アジア競技大会における野球競技は、2010年11月13日〜19日にかけて中国の広州市で開催された。	NO_PRONOUNCE	NO_LABEL
金泰均、秋信守など海外で活躍するプロ選手を参加させた韓国が、5戦全勝で2大会ぶり3度目の優勝となった。	NO_PRONOUNCE	NO_LABEL
前回ドーハ大会の優勝チームで、同じくプロ選手が参加した台湾は決勝で韓国に敗れ準優勝となった。	ぜんかいどーはたいかいのゆーしょーちーむで、どうじくぷろせんしゅがさんかしたたいわんわけっしょーでかんこくにやぶれじゅんゆうしょーとなった。	NO_LABEL
大学・社会人野球の選手のみ参加した日本は準決勝で台湾に敗れ、3位決定戦で勝利し3位となった。	NO_PRONOUNCE	NO_LABEL
開催国である中国は準決勝で韓国、3位決定戦で日本にそれぞれ敗れメダルを逃した。	かいさいこくであるちゅーごくわじゅんけっしょーでかんこく、さんいけっていせんでにっぽんにそれぞれやぶれめだるをのがした。	NO_LABEL
2010年11月13日 — 12:00	NO_PRONOUNCE	NO_LABEL
2010年11月14日 — 12:00	NO_PRONOUNCE	NO_LABEL
2010年11月15日 — 13:00	NO_PRONOUNCE	NO_LABEL
2010年11月15日 — 18:00	NO_PRONOUNCE	NO_LABEL
2010年11月16日 — 13:00	NO_PRONOUNCE	NO_LABEL
2010年11月16日 — 18:00	NO_PRONOUNCE	NO_LABEL
2010年11月13日 — 13:00	NO_PRONOUNCE	NO_LABEL
2010年11月13日 — 18:00	NO_PRONOUNCE	NO_LABEL
2010年11月14日 — 13:00	NO_PRONOUNCE	NO_LABEL
2010年11月14日 — 18:00	NO_PRONOUNCE	NO_LABEL
2010年11月15日 — 12:00	NO_PRONOUNCE	NO_LABEL
2010年11月16日 — 12:00	NO_PRONOUNCE	NO_LABEL
2010年11月18日 — 12:00	NO_PRONOUNCE	NO_LABEL
2010年11月18日 — 18:00	NO_PRONOUNCE	NO_LABEL
2010年11月19日 — 12:00	NO_PRONOUNCE	NO_LABEL
2010年11月19日 — 18:00	NO_PRONOUNCE	NO_LABEL
