『ジョン・コルトレーン・アンド・ジョニー・ハートマン』は、ジャズ・サックス奏者ジョン・コルトレーンが1963年に発表したアルバム。	NO_PRONOUNCE	NO_LABEL
ジャズ歌手ジョニー・ハートマンをフィーチャーしている。	じゃずかしゅじょにーはーとまんをふぃーちゃーしている。	NO_LABEL
コルトレーンのインパルス時代のアルバムでは『バラード』と並ぶ人気アルバムで、ジャズ初心者にも聴きやすい作品としても知られる。	NO_PRONOUNCE	NO_LABEL
コルトレーンはステージでは激烈なパフォーマンスを繰り広げる一方で、レコーディング・スタジオではレコードの売り上げに関心を抱いており、多くのリスナーに受け入れられる音楽を生み出すことにも力を注いだ。	NO_PRONOUNCE	NO_LABEL
ジョニー・ハートマンはコルトレーンが1950年代初頭のディジー・ガレスピーのバンドに在籍している頃からの知り合いで、ヴォーカリストをフィーチャーするアルバムのアイディアを思いついた際にハートマンの起用が頭の中にあったと言われる。	NO_PRONOUNCE	NO_LABEL
ハートマンのバックはコルトレーンのレギュラー・カルテットが務めている。	NO_PRONOUNCE	NO_LABEL
彼らはコルトレーンとともに前衛的な演奏を得意としていたが、このアルバムで聴かれるような端正な演奏もそつなくこなす実力の持ち主達だった。	かれらわこるとれーんとともにぜんえいてきなえんそーをとくいとしていたが、このあるばむできかれるよーなたんせいなえんそーもそつなくこなすじつりょくのもちぬしたちだった。	NO_LABEL
ハートマンのヴォーカルの合間に聴かれるコルトレーンのフレーズはバップ時代のものとは明らかに異なるもので、日ごろ追究しているモード・ジャズのスペース感覚が遺憾なく発揮されている。	NO_PRONOUNCE	NO_LABEL
