分巻整流子電動機は、電機子巻線と界磁巻線とが並列に接続されている電磁石界磁形整流子電動機である。	NO_PRONOUNCE	NO_LABEL
直巻整流子電動機や複巻整流子電動機と同じく界磁巻線と電機子巻線に流れる電気が1つの電源から供給される為、非常に広く使用される。	NO_PRONOUNCE	NO_LABEL
回転速度制御は界磁巻線に流れる電流を加減する界磁制御を行うことにより制御される。	NO_PRONOUNCE	NO_LABEL
特性としては	とくせいとしてわ	NO_LABEL
交流電動機直結の直流発電機の他励界磁制御により、電機子電圧の可変制御を行うものである。	こーりゅーでんどーきちょっけつのちょくりゅーはつでんきのたはげみかいじせいぎょにより、でんきしでんあつのかへんせいぎょをおこなうものである。	NO_LABEL
電動機の電機子に加える可変電圧を、専用の直流電源を設けて供給するようにしたもの。	でんどーきのでんきしにくわえるかへんでんあつを、せんよーのちょくりゅーでんげんをもーけてきょーきゅーするよーにしたもの。	NO_LABEL
構造が簡易で制御も容易であることから、直流電動機の発明当初から用いられた。	こーぞーがかんいでせいぎょもよーいであることから、ちょくりゅーでんどーきのはつめいとーしょからもちいられた。	NO_LABEL
応用として、交流電動機を内燃機関もしくはタービン機関に置き換えて艦船や電気式気動車・ディーゼル機関車の電気推進にも用いられた。	NO_PRONOUNCE	NO_LABEL
ワードレオナード方式の発電機にはずみ車をつけて、大きなピーク負荷や脈動のある負荷に対応させたものである。	わーどれおなーどほーしきのはつでんきにはずみぐるまをつけて、おーきなぴーくふかやみゃくどーのあるふかにたいおーさせたものである。	NO_LABEL
鋼塊圧延機などに使用されていた。	はがねかたまりあつえんきなどにしよーされていた。	NO_LABEL
用途としては	よーととしてわ	NO_LABEL
ワードレオナード方式の電動発電機部分をサイリスタ位相制御電源回路に置き換えたもの。	わーどれおなーどほーしきのでんどーはつでんきぶぶんをさいりすたいそーせいぎょでんげんかいろにおきかえたもの。	NO_LABEL
サイリスタレオナード方式とも呼ばれる。	さいりすたれおなーどほーしきともよばれる。	NO_LABEL
ただしコンバータにインバータとしての機能を持たせなければ回生制動は使用できない。	ただしこんばーたにいんばーたとしてのきのーをもたせなければかいせいせいどーわしよーできない。	NO_LABEL
ワードレオナード方式に比べて、電動発電機を持たないため軽量で効率が良く、制御の精度が高く、損失が少ない。	わーどれおなーどほーしきにくらべて、でんどーはつでんきをもたないためけいりょーでこーりつがよく、せいぎょのせいどがたかく、そんしつがすくない。	NO_LABEL
しかし、力率が悪く、高調波障害を引き起こすことがある。	しかし、りきりつがわるく、こーちょーはしょーがいをひきおこすことがある。	NO_LABEL
