二階堂 蘭子は、二階堂黎人の推理小説「二階堂蘭子」シリーズに登場する架空の女性探偵。	NO_PRONOUNCE	NO_LABEL
1949年7月19日生まれ。	せんきゅうひゃくよんじゅうきゅうねんしちがつじゅうきゅうにちうまれ。	NO_LABEL
身長約165センチ。	しんちょーやくひゃくろくじゅうごせんち。	NO_LABEL
「ハリウッドの映画女優を思わせる豊かな巻き毛。	NO_PRONOUNCE	NO_LABEL
滑らかな輪郭を持つ顔立ち。	なめらかなりんかくをもつかおだち。	NO_LABEL
猫の目のような黒い瞳」と称される美貌の持ち主。	NO_PRONOUNCE	NO_LABEL
登場作品の時代設定は昭和40年代であるが、ミニスカートを着用することが多い。	とーじょーさくひんのじだいせっていわしょーわよんじゅうねんだいであるが、みにすかーとをちゃくよーすることがおーい。	NO_LABEL
ワトソン役で事件の記述者を務める二階堂黎人は蘭子の義兄にあたる。	わとそんやくでじけんのきじゅつしゃをつとめるにかいどーれいとわらんこのぎけいにあたる。	NO_LABEL
警察官僚を多く輩出する二階堂家の令嬢で実の両親は赤ん坊の頃に亡くしている。	けいさつかんりょーをおーくはいしゅつするにかいどーかのれいじょーでみのりょーしんわあかんぼーのころになくしている。	NO_LABEL
養父の二階堂陵介は警視正。	よーふのにかいどーりょーすけわけいしせい。	NO_LABEL
蘭子の両親の死後、二階堂家に夫婦養子に入った二階堂陵介・鏡子夫妻の養女となり、夫妻の実の息子の黎人とは兄妹として育っている。	NO_PRONOUNCE	NO_LABEL
赤ん坊の頃バスタブで溺死させられかけたことがあるため、水が苦手で水辺に近づけず、船も苦手。	あかんぼーのころばすたぶでできしさせられかけたことがあるため、みずがにがてでみずべにちかずけず、ふねもにがて。	NO_LABEL
また大変な寒がりでもある。	またたいへんなさむがりでもある。	NO_LABEL
時代背景もあり、女性である彼女を軽視する関係者が多いことから、初対面でシャーロック・ホームズのように相手の素性や近況を喝破することが多い。	じだいはいけいもあり、じょせいであるかのじょをけいしするかんけいしゃがおーいことから、しょたいめんでしゃーろっくほーむずのよーにあいてのすじょーやきんきょーをかっぱすることがおーい。	NO_LABEL
また、作者が冒険小説の風味を加えることを掲げていることもあり、頭脳プレイだけではなくアクティブに動き回り、逆に犯人に捕まってしまうこともある。	また、さくしゃがぼーけんしょーせつのふーみをくわえることをかかげていることもあり、ずのーぷれいだけでわなくあくてぃぶにうごきまわり、ぎゃくにはんにんにつかまってしまうこともある。	NO_LABEL
「人狼城の恐怖」事件解決後、行方不明となる。	NO_PRONOUNCE	NO_LABEL
以後、2012年刊行の『覇王の死』までに発表された作品は、いずれも失踪以前の事件を扱っている。	NO_PRONOUNCE	NO_LABEL
失踪から約3年を経た1974年6月2日、1歳になるかならないかの息子・亜蘭を連れて帰国した。	NO_PRONOUNCE	NO_LABEL
宿敵は自らを魔王ラビリンスと名乗る怪人である。	しゅくてきわみずからをまおーらびりんすとなのるかいじんである。	NO_LABEL
