倉橋 惣三12月28日 - 1955年4月21日）は大正時代から昭和時代にかけての日本の教育者。	NO_PRONOUNCE	NO_LABEL
1882年12月28日に父親・政直と母親である「とく」の間に長男として生まれる。	NO_PRONOUNCE	NO_LABEL
場所はとくの実家がある静岡県鷹匠町であった。	ばしょわとくのじっかがあるしずおかけんたかじょーまちであった。	NO_LABEL
1889年に岡山市の内山下小学校に入学する。	せんはっぴゃくはちじゅうきゅうねんにおかやましのうちやましたしょうがっこーににゅーがくする。	NO_LABEL
1892年、惣三が小学4年生の時、父親は息子を東京の学校で勉強させたいと思い、母親と惣三の二人のみを上京させて浅草区の花川戸にある浅草小学校へ転校させる。	せんはっぴゃくきゅうじゅうにねん、そーさんがしょーがくよんねんせいのとき、ちちおやわむすこをとーきょーのがっこーでべんきょーさせたいとおもい、ははおやとそーさんのふたりのみをじょーきょーさせてあさくさくのはなかわどにあるあさくさしょーがっこーえてんこーさせる。	NO_LABEL
しかし、父・政直は静岡の裁判所に努めて仕送りをする生活を送っていた。	NO_PRONOUNCE	NO_LABEL
そのため、決して生活には余裕があるという訳ではなかったという記述も残されている。	そのため、けっしてせいかつにわよゆーがあるとゆうわけでわなかったとゆうきじゅつものこされている。	NO_LABEL
これには、実は父親の「人に劣ることが嫌い」という性格が原因でもあったといわれている。	NO_PRONOUNCE	NO_LABEL
そのため、家庭生活は派手であったようだ。	そのため、かていせいかつわはでであったよーだ。	NO_LABEL
1900年、惣三は東京府尋常中学校を卒業し、第一高等学校に入学して寄宿舎西寮一番室の住人となった。	せんきゅうひゃくねん、そーさんわとーきょーふじんじょーちゅうがっをそつぎょーし、だいいちこーとーがっこーににゅーがくしてきしゅくしゃにしりょーいちばんしつのじゅーにんとなった。	NO_LABEL
惣三は一高寮にいながらも武道や野球をしたりはせず、暇があれば東京女子高等師範学校附属幼稚園に通って子どもたちと遊ぶことをとても楽しみにしている青年であった。	そーさんわいちたかりょーにいながらもぶどーややきゅーをしたりわせず、ひまがあればとーきょーじょしこーとーしはんがっこーふぞくよーちえんにかよってこどもたちとあそぶことをとてもたのしみにしているせいねんであった。	NO_LABEL
彼自身も書籍の中で、	かれじしんもしょせきのなかで、	NO_LABEL
と記している。	としるしている。	NO_LABEL
これらの経緯を経て、1906年、東京帝国大学文科大学哲学科卒業。	これらのけいいをへて、せんきゅうひゃくろくねん、とーきょーていこくだいがくぶんかだいがくてつがくかそつぎょー。	NO_LABEL
帝大大学院児童心理学修了。	ていだいだいがくいんじどーしんりがくしゅーりょー。	NO_LABEL
1909年、上野陽一・大槻快尊・菅原教造らと共に心理学通俗講話会の設立に参画した。	NO_PRONOUNCE	NO_LABEL
1913年、東京女子高等師範学校講師を経て、1917年には教授に就任した。	せんきゅうひゃくじゅうさんねん、とーきょーじょしこーとーしはんがっこーこーしをへて、せんきゅうひゃくじゅうしちねんにわきょーじゅにしゅーにんした。	NO_LABEL
東京女高師附属幼稚園の主事を長年務め、形式化した明治以来のフレーベル主義を改革、幼児教育の発展に尽くした。	とーきょーおんなだかしふぞくよーちえんのしゅじをながねんつとめ、けいしきかしためいじいらいのふれーべるしゅぎをかいかく、よーじきょーいくのはってんにつくした。	NO_LABEL
戦後、教育刷新委員会委員を経て、1948年に日本保育学会を創設した。	せんご、きょーいくさっしんいーんかいいいんをへて、せんきゅうひゃくよんじゅうはちねににっぽんほいくがっかいをそーせつした。	NO_LABEL
＊墓所の句碑にはと刻まれている。	NO_PRONOUNCE	NO_LABEL
