オドルヘユ・セクイエスク（）は、ルーマニアのトランシルヴァニアにある都市。	NO_PRONOUNCE	NO_LABEL
ハルギタ県第二の都である。	はるぎたけんだいにのとである。	NO_LABEL
ハンガリー名はセーケイウドヴァルヘイ、ドイツ名はオドルヘレンだが、省略形としてルーマニア名ではオドルヘイ、ハンガリー名ではウドヴァルヘイが広く通用する。	NO_PRONOUNCE	NO_LABEL
なお、ハンガリー名の「ウドヴァルヘイ」とは「裁判所の土地」という意味である。	NO_PRONOUNCE	NO_LABEL
総人口3万6948人のうち、95.7%にあたる3万5359人がハンガリー人で、この割合は国内の都市のなかで二番目に高い。	NO_PRONOUNCE	NO_LABEL
残りは2.91%がルーマニア人で、1.16%がロマである。	NO_PRONOUNCE	NO_LABEL
"国勢調査ごとの総人口の推移:"	NO_PRONOUNCE	NO_LABEL
人口の約半数にあたる50.05%がローマ・カトリックを信仰している。	NO_PRONOUNCE	NO_LABEL
残り半数はハンガリー改革派教会、トランシルヴァニア・ユニテリアン教会、ルーマニア正教会などに分かれる。	NO_PRONOUNCE	NO_LABEL
町はハンガリー王国時代からウドヴェルヘリ県の県庁所在地として、セーケイ地方の中心であった。	NO_PRONOUNCE	NO_LABEL
1334年の教皇文書に「Oduorhelのsacerdos」というハンガリー人が登場するのが地名の初出である。	NO_PRONOUNCE	NO_LABEL
1613年に時のトランシルヴァニア公ベトレン・ガーボルが町の領有権を主張したが、時を同じくしてセーケイウドヴァルヘイに改称された。	NO_PRONOUNCE	NO_LABEL
1357年にセーケリ地方で初めて議会が置かれ、1451年には砦も築かれた。	せんさんびゃくごじゅうななねんにせーけりちほーではじめてぎかいがおかれ、せんよんひゃくごじゅういちねんにわとりでもきずかれた。	NO_LABEL
砦はヤーノシュ・ジグモンドが1565年に増築したが、1599年にワラキアのミハイ勇敢公がハプスブルク家と組んで破壊した。	とりでわやーのしゅじぐもんどがせんごひゃくろくじゅうごねんにぞーちくしたが、せんごひゃくきゅうじゅうきゅうねんにわらきあのみはいゆーかんおーやけがはぷすぶるくけとくんではかいした。	NO_LABEL
その後再建されたが、それもまた破壊された。	そのごさいけんされたが、それもまたはかいされた。	NO_LABEL
城址はいま「セーケイの襲撃を受けた要塞」として知られている。	NO_PRONOUNCE	NO_LABEL
1920年のトリアノン条約でルーマニア領となり、戦間期はオドルヘイ県に属した。	せんきゅうひゃくにじゅうねんのとりあのんじょーやくでるーまにありょーとなり、せんかんきわおどるへいけんにぞくした。	NO_LABEL
1940年の第二次ウィーン裁定でトランシルヴァニア北部の見做されハンガリー領となったが、ソ連進駐後の1944年にルーマニアの行政区画に組み入れられ、1947年に正式に復帰した。	NO_PRONOUNCE	NO_LABEL
1952年から1960年まではハンガリー人自治区、1960年から1968年まではムレシュ＝ハンガリー人自治区に区分された。	NO_PRONOUNCE	NO_LABEL
1968年の自治区廃止にともない、現在までハルギタ県となっている。	せんきゅうひゃくろくじゅうはちねんのじちくはいしにともない、げんざいまではるぎたけんとなっている。	NO_LABEL
2005年8月には大洪水が一帯を襲った。	にせんごねんはちがつにわだいこーずいがいったいをおそった。	NO_LABEL
2004年5月22日には市内の公園にセーケリ地方の歴史上の偉人像がお目見えしたが、そのなかに第二次世界大戦後の軍事裁判にかけられたワシュ・アルベルトの像があったため物議をかもした。	NO_PRONOUNCE	NO_LABEL
