中村 優作は、日本の男性総合格闘家。	なかむらゆーさくわ、にっぽんのだんせいそーごーかくとーか。	NO_LABEL
大阪府城東区出身。	おーさかふじょーとーくしゅっしん。	NO_LABEL
チーム・アルファメール・ジャパン所属。	NO_PRONOUNCE	NO_LABEL
現WSOF GCフライ級王者。	NO_PRONOUNCE	NO_LABEL
3歳から日本拳法を始め、2008年より総合格闘技のキャリアをスタートさせる。	さんさいからにほんけんぽーをはじめ、にせんはちねんよりそーごーかくとーぎのきゃりあをすたーとさせる。	NO_LABEL
翌年2009年には修斗のアマチュア大会を制するなどの実績を挙げ、2010年に地元大阪で開催されたDEEP 45 IMPACTでプロデビュー。	NO_PRONOUNCE	NO_LABEL
2011年5月には怪我で欠場することになったダレン・ウエノヤマの代替出場としてDREAM JAPAN GPに抜擢され、1回戦で山本篤と対戦。	にせんじゅういちねんごがつにわけがでけつじょーすることになっただれんうえのやまのだいたいしゅつじょーとしてどりーむじゃぱんげーぺーにばってきされ、いちかいせんでやまもとあつしとたいせん。	NO_LABEL
序盤はパンチでダウンを奪うなど優勢に試合を進めるが緊急出場の調整不足もあり、最後はTKO負けを喫した。	じょばんわぱんちでだうんをうばうなどゆーせいにしあいをすすめるがきんきゅーしゅつじょーのちょーせいふそくもあり、さいごわてぃーけーおーまけをきっした。	NO_LABEL
2012年2月18日、DEEP 57 IMPACTでDJ.taikiと対戦し、サイドポジションからのパウンド連打でTKO負けを喫した。	NO_PRONOUNCE	NO_LABEL
2013年4月26日、DEEP 62 IMPACTのフライ級次期挑戦者決定戦で和田竜光と対戦し、右フックでKO負けを喫した。	NO_PRONOUNCE	NO_LABEL
2016年7月30日、WSOF GCフライ級王座決定トーナメント準決勝でティム・ムーアと対戦し、3-0の判定勝ち。	NO_PRONOUNCE	NO_LABEL
2016年12月17日、DEEPで行われたWSOF GCフライ級王座決定トーナメント決勝でローレンス・ディグリオと対戦し、3-0の判定勝ちを収め王座獲得に成功した。	NO_PRONOUNCE	NO_LABEL
2018年5月6日、RIZIN.10で那須川天心とキックボクシングルールで対戦し、KO負けを喫した。	にせんじゅうはちねんごがつむいか、らいじんてんでなすかわてんしんときっくぼくしんぐるーるでたいせんし、けいおーまけをきっした。	NO_LABEL
