「コム・チャット・ルック」は、タイ王国のタイ語日刊新聞。	NO_PRONOUNCE	NO_LABEL
2001年10月16日 に創刊。	にせんいちねんじゅーがつじゅうろくにちにそーかん。	NO_LABEL
ネーション・マルチメディア・グループ傘下のエヌエスティ・ニュース社所有。	NO_PRONOUNCE	NO_LABEL
 50-60万部発行。	NO_PRONOUNCE	NO_LABEL
コム・チャット・ルック紙はネーション・マルチメディア・グループ傘下のエヌエスティ・ニュース社が創刊。	NO_PRONOUNCE	NO_LABEL
創刊時の総編集長はチャリアウ・コントゥク、コラムニストはスッティチャイ・ユン、ソーポン・オンガーン他。	NO_PRONOUNCE	NO_LABEL
2005年にタイで唯一、世界新聞協会賞を世界新聞協会より受賞した。	にせんごねんにたいでゆいいつ、せかいしんぶんきょーかいしょーをせかいしんぶんきょーかいよりじゅしょーした。	NO_LABEL
コム・チャット・ルック紙は、2006年3月24日に反タクシン政権運動を指導していたソンティ・リムトーングンの発言の一部を紙上に掲載したが、その引用内容に国王ラーマ9世に退位を勧めたように取られる誤引用があった。	NO_PRONOUNCE	NO_LABEL
そのため同新聞社に対して抗議運動が行われた。	そのためどーしんぶんしゃにたいしてこーぎうんどーがおこなわれた。	NO_LABEL
新聞社は3月30日の第1面に誤引用を謝罪する文章を掲載し、国王に許しを求めたが、同新聞社に対する抗議運動は続いた。	NO_PRONOUNCE	NO_LABEL
そのため、編集長ゴーケート・ヂャンタルートラックは引責免職、さらに2006年3月31日から4月2日、4月8日から9日の合計5日間の休刊を行った。	NO_PRONOUNCE	NO_LABEL
