中野市営野球場は、長野県中野市にある野球場。	なかのしえいやきゅーじょーわ、ながのけんなかのしにあるやきゅーじょー。	NO_LABEL
BCリーグ信濃グランセローズの公式練習グラウンドで、公式戦も開催されている。	びーしーりーぐしなのぐらんせろーずのこーしきれんしゅーぐらうんどで、こーしきせんもかいさいされている。	NO_LABEL
2006年発足した長野県民球団信濃グランセローズは翌2007年1月23日に中野市営野球場を公式練習グラウンドとすることを発表した。	にせんろくねんほっそくしたながのけんみんきゅーだんしなのぐらんせろーずわよくにせんななねんいちがつにじゅうさんにちになかのしえいやきゅーじょーをこーしきれんしゅーぐらうんどとすることをはっぴょーした。	NO_LABEL
球団の公募に4つの団体が公募し、 新潟、富山、石川へチームが移動するためには一番立地条件が良いこと、選手が練習しやすい施設であり、また、生活・育成の場として環境が整っていること、外野が天然芝であり、野球場の手入れが行き届いていることを理由に当球場に決定された。	NO_PRONOUNCE	NO_LABEL
その後3月には選手が中野市入りし、4月には球場でキャンプが行われた。	そのごさんがつにわせんしゅがなかのしいりし、しがつにわきゅーじょーできゃんぷがおこなわれた。	NO_LABEL
毎年の春季、秋季キャンプをはじめ球団主催の各種イベント、また、年間数試合の公式戦に使用されている。	まいとしのしゅんき、しゅーききゃんぷをはじめきゅーだんしゅさいのかくしゅいべんと、また、ねんかんすーしあいのこーしきせんにしよーされている。	NO_LABEL
 2017年には初めて信濃が出場したリーグチャンピオンシップ第1戦が開催された。	にせんじゅうななねんにわはじめてしなのがしゅつじょーしたりーぐちゃんぴおんしっぷだいいちせんがかいさいされた。	NO_LABEL
長野電鉄長野線が外野のすぐ裏手に通っており、レフトスタンド後方に電車が走っているのが見える。	ながのでんてつながのせんががいやのすぐうらてにかよっており、れふとすたんどこーほーにでんしゃがはしっているのがみえる。	NO_LABEL
