『19901108』は、日本のロックユニットであるCOMPLEXのライブ・アルバム、及びライブ・ビデオ。	NO_PRONOUNCE	NO_LABEL
ライブ・アルバムは1991年1月23日に、ライブ・ビデオは2月14日にVHSで東芝EMIのイーストワールドレーベルよりリリースされた。	NO_PRONOUNCE	NO_LABEL
ライブ・ビデオはその後、2005年9月14日にDVD化され再リリースされている。	NO_PRONOUNCE	NO_LABEL
1990年11月8日に行われた、東京ドームでのライブを収録している。	せんきゅうひゃくきゅうじゅうねんじゅーいちがつようかにおこなわれた、とーきょーどーむでのらいぶをしゅーろくしている。	NO_LABEL
このライブを最後に、COMPLEXは無期限の活動休止に入った。	このらいぶをさいごに、こんぷれっくすわむきげんのかつどーきゅーしにはいった。	NO_LABEL
このライブが行われた経緯は、、東京ドームでの最終公演が実現した。	NO_PRONOUNCE	NO_LABEL
COMPLEXとしては最初で最後のライブ・アルバムとなった作品。	こんぷれっくすとしてわさいしょでさいごのらいぶあるばむとなったさくひん。	NO_LABEL
当日演奏された21曲の内、14曲が選曲されている。	とーじつえんそーされたにじゅういちきょくのうち、じゅうよんきょくがせんきょくされている。	NO_LABEL
未収録となった曲は「CRASH COMPLEXION」、「路地裏のVENUS」、「2人のAnother Twilight」、「そんな君はほしくない」、「Can't Stop The Silence」、「CRY FOR LOVE」、「IMAGINE HEROES」の7曲となっている。	NO_PRONOUNCE	NO_LABEL
COMPLEXとしては2作目となるライブ・ビデオ作品。	NO_PRONOUNCE	NO_LABEL
監督は前嶋輝。	かんとくわまえじまあきら。	NO_LABEL
CD盤の選曲に加え、「2人のAnother Twilight」と「IMAGINE HEROES」の2曲が追加されている。	NO_PRONOUNCE	NO_LABEL
