レンチオニンは、有機硫黄化合物の一つで、シイタケの香り成分である。	れんちおにんわ、ゆーきいおーかごーぶつのひとつで、しーたけのかおりせいぶんである。	NO_LABEL
レンチオニンの形成のメカニズムは不明であるが、おそらくC-Sリアーゼが関わっていると考えられている。	NO_PRONOUNCE	NO_LABEL
シイタケの芳香の他、血小板凝集能を阻害する効果があるため血栓症の治療に有効である。	しーたけのほーこーのほか、けっしょーばんぎょーしゅーのーをそがいするこーかがあるためけっせんしょーのちりょーにゆーこーである。	NO_LABEL
ニンニクに見られる有機硫黄化合物にも同様の効果が認められる。	にんにくにみられるゆーきいおーかごーぶつにもどーよーのこーかがみとめられる。	NO_LABEL
