今泉 淑夫は、日本の歴史学者、東京大学名誉教授。	いまいずみとしおわ、にっぽんのれきしがくしゃ、とーきょーだいがくめいよきょーじゅ。	NO_LABEL
専門分野は中世文化史。	せんもんぶんやわちゅーせいぶんかし。	NO_LABEL
北海道生まれ。	ほっかいどーうまれ。	NO_LABEL
1968年東京大学大学院人文科学研究科修士課程修了。	せんきゅうひゃくろくじゅうはちねんとーきょーだいがくだいがくいんじんぶんかがくけんきゅーかしゅーしかていしゅーりょー。	NO_LABEL
東京大学史料編纂所に入り、1971年講師、79年助教授、85年教授。	とーきょーだいがくしりょーへんさんしょにはいり、せんきゅうひゃくななじゅういちねんこーし、ななじゅうきゅうねんじょきょーじゅ、はちじゅうごねんきょーじゅ。	NO_LABEL
2000年定年退官、名誉教授、図書館情報大学教授、大学統合により筑波大学教授。	にせんねんていねんたいかん、めいよきょーじゅ、としょかんじょーほーだいがくきょーじゅ、だいがくとーごーによりつくばだいがくきょーじゅ。	NO_LABEL
2005年、定年退官。	にせんごねん、ていねんたいかん。	NO_LABEL
