滋賀夕刊は、滋賀県長浜市に拠点を置き、湖北地域を拠点とする地域夕刊新聞である。	しがゆーかんわ、しがけんながはましにきょてんをおき、こほくちいきをきょてんとするちいきゆーかんしんぶんである。	NO_LABEL
滋賀日日新聞出身の押谷盛利が1959年独立して設立。	しがにちにちしんぶんしゅっしんのおすだにもりとしがせんきゅうひゃくごじゅうきゅうねんどくりつしてせつりつ。	NO_LABEL
「言論達意・不偏不党」をモットーにした公正なローカル報道を目指した地域密着型の夕刊紙として設立した。	NO_PRONOUNCE	NO_LABEL
現在は長浜市に日刊で、米原市と伊香郡には週刊で新聞を発行しているほか、彦根市と犬上郡を対象とした「滋賀彦根新聞」を週2回のフリーペーパーとして発行している。	NO_PRONOUNCE	NO_LABEL
