山田 宗有8月23日 - 昭和32年2月13日）は、実業家、茶人。	NO_PRONOUNCE	NO_LABEL
茶道宗徧流の第8世家元であるが、家元継承以前の山田 寅次郎の名で実業界でも活躍した。	NO_PRONOUNCE	NO_LABEL
明治25年にエルトゥールル号遭難事件の義捐金を届けにトルコに渡って以来、日本とトルコの交流に深く関わった人物としても知られる。	めいじにじゅうごねんにえるとぅーるるごーそーなんじけんのぎえんきんをとどけにとるこにわたっていらい、にっぽんととるこのこーりゅーにふかくかかわったじんぶつとしてもしられる。	NO_LABEL
宗有は、幕末の慶応2年に沼田藩用人・中村雄左衛門の次男として沼田藩の江戸上屋敷で生まれた。	NO_PRONOUNCE	NO_LABEL
中村家は曽祖父の代から家老職を務めていた。	なかむらかわそそふのだいからかろーしょくをつとめていた。	NO_LABEL
8歳まで沼田で生活し、維新後に上京した。	はっさいまでぬまたでせいかつし、いしんごにじょーきょーした。	NO_LABEL
明治14年に宗徧流家元山田家に養子入りした。	めいじじゅうよねんにそーへんりゅーいえもとやまだかによーしいりした。	NO_LABEL
宗徧流は、寅次郎が生まれるより以前に6世家元の山田宗学が死去し、その妻が7世を継いで山田宗寿と称していたが、宗学夫妻の間には後を継ぐ子がいなかったため、後継ぎとして寅次郎が迎え入れられたのである。	NO_PRONOUNCE	NO_LABEL
しかし彼は茶道の家元を若くして継ぐ意志に乏しかったらしく、明治16年に家元宗寿が亡くなった後も家元を襲名せず、進んで言論界に入って陸羯南、福地源一郎らと交わった。	しかしかれわさどーのいえもとをわかくしてつぐいしにとぼしかったらしく、めいじじゅうろくねんにいえもとむねとしがなくなったのちもいえもとをしゅーめいせず、すすんでげんろんかいにはいってくがかつなん、ふくちげんいちろーらとまじわった。	NO_LABEL
茶道は高弟の中村宗知に任せていた。	さどーわこーていのなかむらむねかずにまかせていた。	NO_LABEL
東京で書生として暮らしながら政治活動・出版事業に手を広げ、幸田露伴の処女作を出版社の金港堂に売り込んだこともあった。	NO_PRONOUNCE	NO_LABEL
明治23年、訪日から帰国途上のオスマン帝国軍艦エルトゥールル号の遭難事件が日本中に大きな衝撃を呼ぶと、寅次郎は民間から義捐金を集めて犠牲者の遺族に寄付することを思い立った。	めいじにじゅうさんねん、ほーにちからきこくとじょーのおすまんていこくぐんかんえるとぅーるるごーのそーなんじけんがにほんじゅーにおーきなしょーげきをよぶと、とらじろーわみんかんからぎえんきんをあつめてぎせいしゃのいぞくにきふすることをおもいたった。	NO_LABEL
彼は親交のあった日本新聞社の陸羯南に働きかけて募金運動を起こした。	かれわしんこーのあったにっぽんしんぶんしゃのくがかつなんにはたらきかけてぼきんうんどーをおこした。	NO_LABEL
日本中で演説会をして回って、2年をかけて5000円の寄付を集めた。	にほんじゅーでえんぜつかいをしてまわって、にねんをかけてごせんえんのきふをあつめた。	NO_LABEL
当初はトルコへ送金するつもりであったが、その方法について外務大臣の青木周蔵と面談したところ、持参を勧められたという。	とーしょわとるこえそーきんするつもりであったが、そのほーほーについてがいむだいじんのあおきしゅうぞーとめんだんしたところ、じさんをすすめられたという。	NO_LABEL
明治25年4月、寅次郎は義捐金を携えてオスマン帝国の首都イスタンブールに到着し、早速オスマン帝国外相を訪ねて義捐金を届けた。	めいじにじゅうごねんしがつ、とらじろーわぎえんきんをたずさえておすまんていこくのしゅといすたんぶーるにとーちゃくし、さっそくおすまんていこくがいしょーをたずねてぎえんきんをとどけた。	NO_LABEL
これにより彼が遠い日本から民間人でありながら義捐金を持って自らやって来たことが知れわたると、彼はイスタンブールの朝野から熱烈な歓迎を受け、皇帝アブデュルハミト2世に拝謁する機会にすら恵まれた。	これによりかれがとーいにっぽんからみんかんじんでありながらぎえんきんをもってみずからやってきたことがしれわたると、かれわいすたんぶーるのちょーやからねつれつなかんげいをうけ、こーていあぶでゅるはみとにせいにはいえつするきかいにすらめぐまれた。	NO_LABEL
この時に彼が皇帝に献上した生家の中村家伝来の甲冑や大刀は、現在もトプカプ宮殿博物館に保存、展示されている。	このときにかれがこーていにけんじょーしたせいかのなかむらかでんらいのかっちゅーやたちわ、げんざいもとぷかぷきゅーでんはくぶつかんにほぞん、てんじされている。	NO_LABEL
1894年6月30日付けで寅次郎が第百銀行の池田健三に宛てた書簡によると、滞在したのは1892年4月から数か月間で、その際オスマン商工会議所内に自ら持参した日本商品を商売の見本として陳列し、日本品販売所を開設できるよう準備をして帰国。	せんはっぴゃくきゅうじゅうよねんろくがつさんじゅうにちずけでとらじろーがだいひゃくぎんこーのいけだけんさんにあてたしょかんによると、たいざいしたのわせんはっぴゃくきゅうじゅうにねんしがつからすーかげつかんで、そのさいおすまんしょーこーかいぎしょないにみずからじさんしたにっぽんしょーひんをしょーばいのみほんとしてちんれつし、にっぽんひんはんばいしょをかいせつできるよーじゅんびをしてきこく。	NO_LABEL
再来訪した1893年から1894年にかけて販売所を開き、その後、大阪の中村健次郎の出資を得て「中村商店」として開店したと推測される。	NO_PRONOUNCE	NO_LABEL
寅次郎はアブデュルハミト2世から士官学校での日本語の教育や、東洋の美術品の整理を依頼され、イスタンブールにしばらく滞在していた。	とらじろーわあぶでゅるはみとにせいからしかんがっこーでのにほんごのきょーいくや、とーよーのびじゅつひんのせいりをいらいされ、いすたんぶーるにしばらくたいざいしていた。	NO_LABEL
そのうちにトルコに愛着を覚え、イスタンブールに留まって事業を起こすことを決意した、と自伝では述べている。	そのうちにとるこにあいちゃくをおぼえ、いすたんぶーるにとまってじぎょーをおこすことをけついした、とじでんでわのべている。	NO_LABEL
明治29年、一時帰国を経て再びイスタンブールにやって来た寅次郎は、イスタンブールの「中村商店」の現地支配人となり、日本との間での貿易事業を始め、以後、日本とトルコの間を何度か行き来しながら、イスタンブールに滞在した。	NO_PRONOUNCE	NO_LABEL
この頃の中村商店の実態、寅次郎の活動については不明な点が極めて多い。	このころのなかむらしょーてんのじったい、とらじろーのかつどーについてわふめいなてんがきわめておーい。	NO_LABEL
寅次郎はイスタンブールに継続的に留まることはなく、周辺諸国の探訪や日本への一時帰還など活発に活動していたことが確認されているが、その詳細は必ずしも詳らかではない。	とらじろーわいすたんぶーるにけいぞくてきにとまることわなく、しゅーへんしょこくのたんぼーやにっぽんえのいちじきかんなどかっぱつにかつどーしていたことがかくにんされているが、そのしょーさいわかならずしもつまびらかでわない。	NO_LABEL
1899年に一時帰国した時に大阪中村商店の経営者である中村久兵衛の娘・中村たみと結婚し、中村一族と血縁となる。	NO_PRONOUNCE	NO_LABEL
子供も儲けたが、妻子は大阪に置いたままで、日本に落ち着くことはほとんどなかった。	こどもももーけたが、さいしわおーさかにおいたままで、にっぽんにおちつくことわほとんどなかった。	NO_LABEL
寅次郎がイスタンブールに滞在していた当時、日本とオスマン帝国の間では治外法権の問題から国交交渉が進展せず、正式の国交が持たれなかった。	とらじろーがいすたんぶーるにたいざいしていたとーじ、にっぽんとおすまんていこくのまでわちがいほーけんのもんだいからこっこーこーしょーがしんてんせず、せいしきのこっこーがもたれなかった。	NO_LABEL
こうした事情もあり、彼はこの町でほとんど唯一人の日本人長期滞在者であった。	こーしたじじょーもあり、かれわこのまちでほとんどゆいいつじんのにっぽんじんちょーきたいざいしゃであった。	NO_LABEL
そこで、イスタンブールを訪問する日本人たちは官民、公用私用を問わずみな中村商店を訪問し、寅次郎に様々な便宜を図ってもらっていたという。	そこで、いすたんぶーるをほーもんするにっぽんじんたちわかんみん、こーよーしよーをとわずみななかむらしょーてんをほーもんし、とらじろーにさまざまなべんぎをはかってもらっていたという。	NO_LABEL
寅次郎の接遇を受けた人物に、徳富蘇峰、深井英五、田健治郎、松永武吉、朝比奈知泉、望月小太郎、池辺吉太郎、徳川頼倫、鎌田栄吉、寺内正毅、橋本圭三郎、中村直吉、伊東忠太などがいる。	とらじろーのせつぐーをうけたじんぶつに、とくとみそほー、ふかいえいご、でんけんじろー、まつながたけきち、あさひなちせん、もちずきこたろー、いけべよしたろー、とくがわよりゆきりん、かまたえいきち、てらうちまさたけ、はしもとけいざぶろー、なかむらなおきち、いとーちゅーたなどがいる。	NO_LABEL
彼のイスタンブール滞在中に日露戦争が起こった。	かれのいすたんぶーるたいざいちゅーににちろせんそーがおこった。	NO_LABEL
「ロシア黒海艦隊所属の艦艇3隻が商船に偽装してボスポラス海峡を通過した」との情報が、イスタンブールから在ウィーン日本大使館を経て日本に送られ、重要情報として高い評価を受けたことが知られている。	NO_PRONOUNCE	NO_LABEL
寅次郎が晩年語ったところによれば、この監視と打電を行ったのは寅次郎自身であったという。	とらじろーがばんねんかたったところによれば、このかんしとだでんをおこなったのわとらじろーじしんであったという。	NO_LABEL
ただし近年の研究により、寅次郎や中村商店の情報収集は不充分で、戦況を左右するものではなかったことが明らかとなっている。	ただしきんねんのけんきゅーにより、とらじろーやなかむらしょーてんのじょほうしゅうしゅーわふじゅーぶんで、せんきょーをさゆーするものでわなかったことがあきらかとなっている。	NO_LABEL
このように彼はイスタンブールにおいて日土両国の政府関係者と繋がりを持ち、トルコにおける日本の便益を図った。	このよーにかれわいすたんぶーるにおいてひずちりょーこくのせいふかんけいしゃとつながりをもち、とるこにおけるにっぽんのべんえきをはかった。	NO_LABEL
この時期の寅次郎はいわば日本の「民間大使」であったと言われることもある。	NO_PRONOUNCE	NO_LABEL
トルコ滞在中の寅次郎は、アブデュルハミト2世からトルコ人たちの呼びやすいムスリム名をつけられ、トルコ人の友人たちからはムスリム名「アブデュルハリル山田パシャ」と呼ばれていた。	NO_PRONOUNCE	NO_LABEL
彼が正式にイスラム教に改宗する手続きを行ったかどうかは定かではないが、のちに寅次郎は「当時は心情的にはイスラム教徒に近かった」と語っており、そうしたことから彼は日本人ムスリムの草分けの一人に数えられることもある。	NO_PRONOUNCE	NO_LABEL
大正3年、第一次世界大戦が勃発するとドイツら同盟国側に引き入れられつつあったオスマン帝国の対外情勢は緊迫したため、寅次郎はイスタンブールを最終的に退去、帰国した。	たいしょーさんねん、だいいちじせかいたいせんがぼっぱつするとどいつらどーめいこくがわにひきいれられつつあったおすまんていこくのたいがいじょーせいわきんぱくしたため、とらじろーわいすたんぶーるをさいしゅーてきにたいきょ、きこくした。	NO_LABEL
しかし、イスタンブールを訪れた日本人が残した様々な記録を照査した近年の研究によると、寅次郎がイスタンブールを離れたのは1906年頃とされる。	しかし、いすたんぶーるをおとずれたにっぽんじんがのこしたさまざまなきろくをしょーさしたきんねんのけんきゅーによると、とらじろーがいすたんぶーるをはなれたのわせんきゅうひゃくろくねんころとされる。	NO_LABEL
宗有の孫娘である和多利月子の調査によると、第一次世界大戦前、寅次郎は皇帝のために日本から工芸品や大工道具などを取り寄せたり、生きた鳥とその世話をする鳥飼の渡航を手配したりしており、オスマン帝国内を自由に行き来できる証明書を与えられていた。	そーゆーのまごむすめであるわたりげっしのちょーさによると、だいいちじせかいたいせんまえ、とらじろーわこーていのためににっぽんからこーげいひんやだいくどーぐなどをとりよせたり、いきたとりとそのせわをするとりかいのとこーをてはいしたりしており、おすまんていこくないをじゆーにいききできるしょーめいしょをあたえられていた。	NO_LABEL
またトルコで世話した日本人のうち、伊東忠太とは特にこまめに葉書で近況を知らせ合っていた。	またとるこでせわしたにっぽんじんのうち、いとーちゅーたとわとくにこまめにはがきできんきょーをしらせあっていた。	NO_LABEL
日本へ戻り、大阪に居を定めたのは1905年であるという。	にっぽんえもどり、おーさかにきょをさだめたのわせんきゅうひゃくごねんであるという。	NO_LABEL
トルコの地で商売を始めた寅次郎は、これを手がかりに日本の実業界に進出しようと考えたが、彼が当初手がけた日土間の貿易事業は、両国の間で交流がほとんど行われていなかったため、将来的な発展性に乏しかった。	とるこのちでしょーばいをはじめたとらじろーわ、これをてがかりににっぽんのじつぎょーかいにしんしゅつしようとかんがえたが、かれがとーしょてがけたひどまのぼーえきじぎょーわ、りょーこくのまでこーりゅーがほとんどおこなわれていなかったため、しょーらいてきなはってんせいにとぼしかった。	NO_LABEL
そこで寅次郎は当時、輸出のためオスマン帝国の領内で盛んに製造されるようになっていたタバコに目をつけた。	そこでとらじろーわとーじ、ゆしゅつのためおすまんていこくのりょーないでさかんにせいぞーされるよーになっていたたばこにめをつけた。	NO_LABEL
これは1900年に大蔵省の橋本圭三郎と農学博士の佐々木善次郎が煙草調査のためにイスタンブールを訪問した際に寅次郎が接遇したことがきっかけだった。	これわせんきゅうひゃくねんにおーくらしょーのはしもとけいざぶろーとのーがくはかせのささきぜんじろーがたばこちょーさのためにいすたんぶーるをほーもんしたさいにとらじろーがせつぐーしたことがきっかけだった。	NO_LABEL
明治37年、日露戦争の戦費捻出のため日本の大蔵省がタバコの専売制を強化し、材料の買い上げから製造、販売まで一括して独占的に行うようになったのを機に、トルコのタバコ工場から日本に技術を導入して、紙巻きタバコを巻くのに使うライスペーパーの製造を国産化し、大蔵省に納入することを計画した。	めいじさんじゅうななねん、にちろせんそーのせんぴねんしゅつのためにっぽんのおーくらしょーがたばこのせんばいせいをきょーかし、ざいりょーのかいあげからせいぞー、はんばいまでいっかつしてどくせんてきにおこなうよーになったのをきに、とるこのたばここーじょーからにっぽんにぎじゅつをどーにゅーして、かみまきたばこをまくのにつかうらいすぺーぱーのせいぞーをこくさんかし、おーくらしょーにのーにゅーすることをけいかくした。	NO_LABEL
明治38年、実業家の井上保次郎や中村商店の中村久兵衛らが大阪で東洋製紙株式会社を発起し、寅次郎も監査役として加わり、日本最初のライスペーパー製造を開始した。	めいじさんじゅうはちねん、じつぎょーかのいのうえやすじろーやなかむらしょーてんのなかむらきゅーべーらがおーさかでとーよーせいしかぶしきがいしゃをほっきし、とらじろーもかんさやくとしてくわわり、にっぽんさいしょのらいすぺーぱーせいぞーをかいしした。	NO_LABEL
同社の事業は軌道に乗り、一時的には大蔵省専売局で使うライスペーパーを独占的に生産する成功を収めた。	どーしゃのじぎょーわきどーにのり、いちじてきにわおーくらしょーせんばいきょくでつかうらいすぺーぱーをどくせんてきにせいさんするせいこーをおさめた。	NO_LABEL
ただし、寅次郎自身は明治42年に監査役を辞任し、東洋製紙の経営からは離れている。	ただし、とらじろーじしんわめいじよんじゅうにねんにかんさやくをじにんし、とーよーせいしのけいえいからわはなれている。	NO_LABEL
第一次世界大戦の勃発に前後して帰国してからの寅次郎は製紙業に専念し、長く関西実業界で活躍した。	だいいちじせかいたいせんのぼっぱつにぜんごしてきこくしてからのとらじろーわせいしぎょーにせんねんし、ながくかんさいじつぎょーかいでかつやくした。	NO_LABEL
寅次郎が日本国外や実業界で活躍する間、家業の宗徧流は、40年近くにわたって家元不在のままであった。	とらじろーがにほんこくがいやじつぎょーかいでかつやくするま、かぎょーのそーへんりゅーわ、よんじゅうねんちかくにわたっていえもとふざいのままであった。	NO_LABEL
大正12年、57歳の寅次郎は弟子たちの懇請によって家元を襲名し、宗徧流第8世山田宗有となる。	NO_PRONOUNCE	NO_LABEL
家元として宗有は、流派の組織化を進め、機関誌『知音』を創刊するなど、宗徧流の振興に尽力した。	NO_PRONOUNCE	NO_LABEL
また宗徧流が、赤穂浪士の吉良邸討ち入りに間接的にかかわった忠臣蔵ゆかりの流派であることにちなんで東京の墨田区で義士茶会を始めるなど、全国で茶道を広める活動を盛んに行っている。	またそーへんりゅーが、あこーろーしのきらていうちいりにかんせつてきにかかわったちゅーしんぐらゆかりのりゅーはであることにちなんでとーきょーのすみだくでぎしちゃかいをはじめるなど、ぜんこくでさどーをひろめるかつどーをさかんにいっている。	NO_LABEL
一方で、家元襲名後も寅次郎は実業界からは手を引かず、昭和2年には吹田製紙を創業した。	いっぽーで、いえもとしゅーめいごもとらじろーわじつぎょーかいからわてをひかず、しょーわにねんにわすいたせいしをそーぎょーした。	NO_LABEL
同社は昭和11年に三島製紙と合併するが、その後も経営に関わり、三島製紙の社長、会長を歴任している。	どーしゃわしょーわじゅういちねんにみしませいしとがっぺいするが、そのごもけいえいにかかわり、みしませいしのしゃちょー、かいちょーをれきにんしている。	NO_LABEL
また、トルコとの親善交易にも関心に持ちつづけた。	また、とることのしんぜんこーえきにもかんしんにもちつずけた。	NO_LABEL
日本とトルコ共和国が国交を結んで東京にトルコ大使館が開かれると大使と大阪の財界との間を取り持ち、大正14年に大阪財界主導で日土貿易協会を設立、その理事長に就任して日本とトルコの間の貿易を行った。	にっぽんととるこきょーわこくがこっこーをむすんでとーきょーにとるこたいしかんがひらかれるとたいしとおーさかのざいかいとのまをとりもち、たいしょーじゅうよねんにおーさかざいかいしゅどーでひずちぼーえききょーかいをせつりつ、そのせんしゃどうれんめいのりじちょーにしゅーにんしてにっぽんととるこのまのぼーえきをおこなった。	NO_LABEL
第一次世界大戦後に誕生した新生トルコ共和国は、国内産業保護のために諸外国との貿易事業を厳しく制限し、イスタンブールにあった日本商品館も閉鎖された。	だいいちじせかいたいせんごにたんじょーしたしんせいとるこきょーわこくわ、こくないさんぎょーほごのためにしょがいこくとのぼーえきじぎょーをきびしくせいげんし、いすたんぶーるにあったにっぽんしょーひんかんもへいさされた。	NO_LABEL
日土貿易協会は貿易対象国をトルコ周辺のバルカン半島諸国やアラブ諸国などにまで広げ、1937年には名称を「近東貿易協会」と改めた。	NO_PRONOUNCE	NO_LABEL
昭和6年にはトルコを再訪し、イスタンブールに滞在して現地の財界から大歓迎を受けた。	しょーわろくねんにわとるこをさいほーし、いすたんぶーるにたいざいしてげんちのざいかいからだいかんげいをうけた。	NO_LABEL
また、ムスタファ・ケマル大統領に首都アンカラに招かれて面会したが、ケマルは士官学校で寅次郎が日本語を教えていた時、自分もその中の一人として日本語を教わった思い出を語り、大変な友誼を示したという。	また、むすたふぁけまるだいとーりょーにしゅとあんからにまねかれてめんかいしたが、けまるわしかんがっこーでとらじろーがにほんごをおしえていたとき、じぶんもそのなかのひとりとしてにほんごをおそわったおもいでをかたり、たいへんなゆーぎをしめしたという。	NO_LABEL
トルコ訪問に合わせ、貿易の活路を求めてギリシャの商品見本市にも参加し、昭和8年には、ギリシャの大阪駐在名誉領事に就任。	とるこほーもんにあわせ、ぼーえきのかつろをもとめてぎりしゃのしょーひんみほんいちにもさんかし、しょーわはちねんにわ、ぎりしゃのおーさかちゅーざいめいよりょーじにしゅーにん。	NO_LABEL
第二次世界大戦勃発に伴い、1939年には日本とトルコ間の通商関係はなくなった。	だいにじせかいたいせんぼっぱつにともない、せんきゅうひゃくさんじゅうきゅうねんにわにっぽんととるこかんのつーしょーかんけいわなくなった。	NO_LABEL
大戦末期の1945年にはトルコ大国民議会が日本との断交を決議。	たいせんまっきのせんきゅうひゃくよんじゅうごねんにわとるこだいこくみんぎかいがにっぽんとのだんこーをけつぎ。	NO_LABEL
駐トルコ日本大使館は閉鎖され、2月23日にトルコは日本に宣戦布告した。	ちゅーとるこにっぽんたいしかんわへいさされ、にがつにじゅうさんにちにとるこわにっぽんにせんせんふこくした。	NO_LABEL
昭和23年、寅次郎は三島製紙の会長を辞任して実業界から離れ、以後は茶道に専念、90歳で没した。	しょーわにじゅうさんねん、とらじろーわみしませいしのかいちょーをじにんしてじつぎょーかいからはなれ、いごわさどーにせんねん、きゅうじゅっさいでぼっした。	NO_LABEL
寅次郎の息子が1975年に家族連れでトルコを訪問した際には、大歓迎されたという。	とらじろーのむすこがせんきゅうひゃくななじゅうごねんにかぞくずれでとるこをほーもんしたさいにわ、だいかんげいされたという。	NO_LABEL
