千代田インターチェンジは、広島県山県郡北広島町の中国自動車道のインターチェンジである。	ちよだいんたーちぇんじわ、ひろしまけんやまがたぐんきたひろしまちょーのちゅーごくじどーしゃどーのいんたーちぇんじである。	NO_LABEL
西日本高速道路中国支社千代田高速道路事務所、広島県警察高速道路交通警察隊千代田分駐隊、道の駅舞ロードIC千代田が併設されている。	にしにほんこーそくどーろちゅーごくししゃちよだこーそくどーろじむしょ、ひろしまけんけいさつこーそくどーろこーつーけいさつたいちよだぶんちゅーたい、みちのえきまいろーどいんたーちよだがへいせつされている。	NO_LABEL
直接接続	ちょくせつせつぞく	NO_LABEL
間接接続	かんせつせつぞく	NO_LABEL
千代田バスストップは、広島県山県郡北広島町の中国自動車道千代田インターチェンジの出入口の間に挟まれた場所にあるバス停留所。	ちよだばすすとっぷわ、ひろしまけんやまがたぐんきたひろしまちょーのちゅーごくじどーしゃどーちよだいんたーちぇんじのでいりぐちのまにはさまれたばしょにあるばすていりゅーじょ。	NO_LABEL
バス事業者では千代田インターの名称を用いている。	ばすじぎょーしゃでわちよだいんたーのめいしょーをもちいている。	NO_LABEL
料金所出口手前からバス停専用のランプが右に分岐して、右から料金所入口奥へ合流する構造となっており、バス・利用者とも料金所を通過することなく乗降できる構造となっている。	NO_PRONOUNCE	NO_LABEL
