劉 度は、中国の後漢時代末期の政治家、武将。	りゅーどわ、ちゅーごくのこーかんじだいまっきのせいじか、ぶしょー。	NO_LABEL
曹操により任命された荊州零陵郡の太守。	そうそーによりにんめいされたけいしゅーれいりょーぐんのたいしゅ。	NO_LABEL
建安14年、劉備が荊州南部4郡を接収しようと進攻してくると、劉度は他の郡の太守と同様に降伏した。	NO_PRONOUNCE	NO_LABEL
その後は、生死も含めて動向は不明である。	そのごわ、せいしもふくめてどーこーわふめいである。	NO_LABEL
小説『三国志演義』でも零陵太守として登場するが、劉賢という子がいることになっている。	NO_PRONOUNCE	NO_LABEL
劉度自身は劉備軍と戦うことに消極的だったが、抗戦を主張する息子の劉賢に押されて、劉賢と大将の邢道栄を出撃させた。	NO_PRONOUNCE	NO_LABEL
しかし、邢道栄は戦死し、劉賢も生け捕られたため、開城して劉備に降伏する。	NO_PRONOUNCE	NO_LABEL
降伏後、劉備によって改めて零陵太守に任じられた。	こーふくご、りゅーびによってあらためてれいりょーたいしゅににんじられた。	NO_LABEL
