池田公園は、愛知県名古屋市中区栄四丁目にある街区公園である。	いけだこーえんわ、あいちけんなごやしなかくさかえよんちょーめにあるがいくこーえんである。	NO_LABEL
名古屋市の代表的歓楽街の一つ、女子大小路に位置している。	なごやしのだいひょーてきかんらくがいのひとつ、じょしだいこうじにいちしている。	NO_LABEL
栄駅と矢場町駅からはほぼ等距離である。	さかええきとやばちょーえきからわほぼとーきょりである。	NO_LABEL
公園周辺には、ラブホテルや風俗店、外国人パブ、ゲイバーなどが多い。	こーえんしゅーへんにわ、らぶほてるやふーぞくてん、がいこくじんぱぶ、げいばーなどがおーい。	NO_LABEL
公園内には遊具とオブジェが置かれ、中央部に噴水、北東に男女兼用の公衆便所、南西に愛知県警察中警察署池田交番がある。	こーえんないにわゆーぐとおぶじぇがおかれ、ちゅーおーぶにふんすい、ほくとーにだんじょけんよーのこーしゅーべんじょ、なんせいにあいちけんけいさつなかけいさつしょいけだこーばんがある。	NO_LABEL
1969年から毎年7月に「池田公園夏祭り」が開催され、2001年からは毎年11月にクリスマスイルミネーションの点灯が行なわれている。	NO_PRONOUNCE	NO_LABEL
池田公園周辺にはゲイバーが多く、中部日本一のゲイカルチャーの発信地でもある。	いけだこーえんしゅーへんにわげいばーがおーく、ちゅーぶにっぽんいちのげいかるちゃーのはっしんちでもある。	NO_LABEL
2001年に『Nagoya Gay Revolution』として池田公園でイベントが開催され、翌2002年からは毎年6月にレズビアンも加えたフェスティバル『Nagoya Lesbian & Gay Revolution』が行われた。	NO_PRONOUNCE	NO_LABEL
2011年からは『Nagoya Lesbian & Gay Revolution Plus』とタイトルを改め、LGBTコミュニティ・セクシャルマイノリティ全般を対象とするようになった。	NO_PRONOUNCE	NO_LABEL
お祭りとは別に国立病院機構名古屋医療センターや高山厚生病院の院長で血液内科の内海眞医師を中心としてHIVの検査と相談の催しが行われている 。	おまつりとわべつにこくりつびょーいんきこーなごやいりょーせんたーやたかやまあつおびょーいんのいんちょーでけつえきないかのうつみまこといしをちゅーしんとしてえいちあいぶいのけんさとそーだんのもよーしがおこなわれている。	NO_LABEL
