真崎 春望は、日本の女性漫画家。	まさきはるもちわ、にっぽんのじょせいまんがか。	NO_LABEL
東京都下町出身。	とーきょーとしたまちしゅっしん。	NO_LABEL
血液型はO型。	けつえきがたわおーがた。	NO_LABEL
デビュー作は1981年秋田書店発行少女漫画雑誌「ひとみ」に連載された『愛を希望します』。	NO_PRONOUNCE	NO_LABEL
その後、宙出版、集英社、幻冬舎、講談社、ぶんか社など多くの出版社で漫画執筆を行っていた時期がある。	そのご、おーぞらしゅっぱん、しゅーえいしゃ、げんとーしゃ、こーだんしゃ、ぶんかしゃなどおーくのしゅっぱんしゃでまんがしっぴつをおこなっていたじきがある。	NO_LABEL
