北 卓也は、石川県出身の元バスケットボール選手、指導者。	きたたくやわ、いしかわけんしゅっしんのもとばすけっとぼーるせんしゅ、しどーしゃ。	NO_LABEL
ポジションはシューティングガード。	ぽじしょんわしゅーてぃんぐがーど。	NO_LABEL
185cm、80kg。	ひゃくはちじゅうごせんちめーとる、はちじゅうきろぐらむ。	NO_LABEL
川崎ブレイブサンダース所属。	かわさきぶれいぶさんだーすしょぞく。	NO_LABEL
現役時代の背番号は51。	NO_PRONOUNCE	NO_LABEL
羽咋中学校時代に全国中学校大会、羽咋高校でも国体に出場した。	はくいちゅーがっこーじだいにぜんこくちゅーがっこーたいかい、はくいこうこーでもこくたいにしゅつじょーした。	NO_LABEL
拓殖大学に進学し、4年次にインカレ優勝を果たし、最優秀賞選手賞も受賞する。	たくしょくだいがくにしんがくし、よんねんじにいんかれゆーしょーをはたし、さいゆーしゅーしょーせんしゅしょーもじゅしょーする。	NO_LABEL
卒業後の1995年、東芝に入社。	そつぎょーごのせんきゅうひゃくきゅうじゅうごねん、とーしばににゅーしゃ。	NO_LABEL
同年の福岡ユニバーシアードで銀メダル獲得。	どーねんのふくおかゆにばーしあーどでぎんめだるかくとく。	NO_LABEL
全日本のメンバーにも選ばれ、多くの国際大会を経験する。	ぜんにほんのめんばーにもえらばれ、おーくのこくさいたいかいをけいけんする。	NO_LABEL
1999-2000シーズンにはオールジャパンとリーグで2冠達成。	NO_PRONOUNCE	NO_LABEL
JBLではMVP・ベスト5、さらに「オールスターゲーム」でもMVPを獲得する。	NO_PRONOUNCE	NO_LABEL
2000年にはさいたまスーパーアリーナのこけら落としとして開催された「スーパードリームゲーム2000」にて、ドリームチーム相手にこの試合日本最多となる13得点を叩き出す。	NO_PRONOUNCE	NO_LABEL
2006年、タレントの久保恵子と結婚。	にせんろくねん、たれんとのくぼけいことけっこん。	NO_LABEL
2008年、現役引退を表明。	にせんはちねん、げんえきいんたいをひょーめい。	NO_LABEL
アシスタントコーチを務め、2011年からヘッドコーチ。	あしすたんとこーちをつとめ、にせんじゅういちねんからへっどこーち。	NO_LABEL
