大木 利男は、静岡県静岡市出身の元プロ野球選手。	おーきとしおわ、しずおかけんしずおかししゅっしんのもとぷろやきゅーせんしゅ。	NO_LABEL
静岡県静岡市出身。	しずおかけんしずおかししゅっしん。	NO_LABEL
静岡商時代は、1955年春の甲子園に左翼手で出場に初戦敗退）。	NO_PRONOUNCE	NO_LABEL
チームメイトには松浦三千男がいる。	ちーむめいとにわまつーらみちおがいる。	NO_LABEL
に大阪タイガースに入団。	におーさかたいがーすににゅーだん。	NO_LABEL
二軍のウエスタン・リーグでは恵まれた体格を生かして長距離砲として活躍したが、一軍では遂に一度も出場できなかった。	にぐんのうえすたんりーぐでわめぐまれたたいかくをいかしてちょーきょりほーとしてかつやくしたが、いちぐんでわついにいちどもしゅつじょーできなかった。	NO_LABEL
限りで退団。	かぎりでたいだん。	NO_LABEL
翌より社会人野球の東芝富士でプレーしていた。	よくよりしゃかいじんやきゅーのとーしばふじでぷれーしていた。	NO_LABEL
現在は、熱海市で花屋を営んでいる。	げんざいわ、あたみしではなやをいとなんでいる。	NO_LABEL
