松田　大佑は、日本の映画監督、脚本家。	まつだだいすけわ、にっぽんのえいがかんとく、きゃくほんか。	NO_LABEL
2015年2月7日から開催される第2回四万十映画祭において、監督・脚本をてがけた『あらうんど四万十 ―カールニカーラン―』がプレミア先行上映される。	NO_PRONOUNCE	NO_LABEL
2016年、高知県観光特使に就任。	にせんじゅうろくねん、こーちけんかんこーとくしにしゅーにん。	NO_LABEL
