川本 幸民は、幕末・明治維新期の医師および蘭学者。	NO_PRONOUNCE	NO_LABEL
名は裕、号は裕軒。	なわひろし、ごーわひろしのき。	NO_LABEL
父は三田藩侍医の川本周安。	ちちわさんだはんじいのかわもとしゅーやす。	NO_LABEL
その業績から、日本化学の祖とも言われる。	そのぎょーせきから、にっぽんかがくのそともいわれる。	NO_LABEL
幸民は化学新書をはじめとする科学技術分野の多数の書物を執筆した。	ゆきたみわかがくしんしょをはじめとするかがくぎじゅつぶんやのたすーのしょもつをしっぴつした。	NO_LABEL
専門性を基礎として、白砂糖、マッチ、銀板写真の試作をし、日本における技術の発展に貢献した。	せんもんせいをきそとして、しろざとー、まっち、ぎんばんしゃしんのしさくをし、にっぽんにおけるぎじゅつのはってんにこーけんした。	NO_LABEL
幸民は日本で初めてビールを醸造したと推定されている。	ゆきたみわにっぽんではじめてびーるをじょーぞーしたとすいていされている。	NO_LABEL
また当時用いられていた「舎密」の代わりに「化学」という言葉を初めて用いたことでも知られている。	NO_PRONOUNCE	NO_LABEL
川本幸民は摂津国有馬郡三田で1810年に生まれた。	かわもとこうみんわせっつのくにありまぐんみたでせんはっぴゃくじゅうねんにうまれた。	NO_LABEL
数え年で10歳のとき藩校で学び始めた。	かぞえどしでじゅっさいのときはんこーでまなびはじめた。	NO_LABEL
1827年からは木梨村で1年間、漢方医学を学んだ。	せんはっぴゃくにじゅうななねんからわきなしむらでいちねんかん、かんぽーいがくをまなんだ。	NO_LABEL
2年後の1829年、三田藩藩主の九鬼隆国に命ぜられ、西洋医学を学ぶため江戸に留学した。	にねんごのせんはっぴゃくにじゅうきゅうねん、さんだはんはんしゅのくきたかくににめいぜられ、せいよーいがくをまなぶためえどにりゅーがくした。	NO_LABEL
足立長雋、坪井信道らに蘭学を学び、物理や化学に精通した。	あだちちょーしゅん、つぼいしんどーらにらんがくをまなび、ぶつりやかがくにせいつーした。	NO_LABEL
1833年、三田に帰郷し、父と同じ藩医に任じられた。	せんはっぴゃくさんじゅうさんねん、みたにききょーし、ちちとおなじはんいににんじられた。	NO_LABEL
同年、青地林宗の娘、秀子と結婚した。	どーねん、あおちりんそーのむすめ、ひでことけっこんした。	NO_LABEL
しかしながら、その翌年に傷害事件に関係したことで6年間の蟄居を余儀なくされた。	しかしながら、そのよくねんにしょーがいじけんにかんけいしたことでろくねんかんのちっきょをよぎなくされた。	NO_LABEL
蟄居から解放された後も、2度ほど火事にあっており、文字通り幸民にとっては不遇の時代であった。	ちっきょからかいほーされたのちも、にどほどかじにあっており、もじどーりゆきたみにとってわふぐーのじだいであった。	NO_LABEL
対照的に、1840年代後半から科学技術の分野で大きな業績を残し続けた。	たいしょーてきに、せんはっぴゃくよんじゅうねんだいこーはんからかがくぎじゅつのぶんやでおーきなぎょーせきをのこしつずけた。	NO_LABEL
幸民の『裕軒随筆』によれば、1848年に白リンマッチを試作している。	NO_PRONOUNCE	NO_LABEL
また幸民は1851年の『気海観瀾広義』を皮切りに多くの翻訳を含めた著作を出版した。	NO_PRONOUNCE	NO_LABEL
薩摩藩藩主の島津斉彬に見出されると、1854年には薩摩藩籍となった。	さつまはんはんしゅのしまずなりあきらにみいだされると、せんはっぴゃくごじゅうよねんにわさつまはんせきとなった。	NO_LABEL
また薩摩藩校学頭も務めた。	またさつまはんこーがくとーもつとめた。	NO_LABEL
さらに造船所建造の技術指導のため実際に薩摩に赴いたとも伝えられている。	さらにぞーせんじょけんぞーのぎじゅつしどーのためじっさいにさつまにおもむいたともつたえられている。	NO_LABEL
この頃の弟子に、松木弘安、橋本左内等がいる。	このころのでしに、まつきひろやす、はしもとさないとーがいる。	NO_LABEL
1859年に東京大学の前身である蕃書調所の教授となった。	せんはっぴゃくごじゅうきゅうねんにとーきょーだいがくのぜんしんであるしげるしょずしょのきょーじゅとなった。	NO_LABEL
1861年には幸民の有名な著作『化学新書』を出版し、近代化学を日本に移入した。	NO_PRONOUNCE	NO_LABEL
宇田川榕菴の『舎密開宗』と並び江戸時代の重要な化学書の一つとされる。	NO_PRONOUNCE	NO_LABEL
化学新書は蕃書調所において教科書として用いられた。	かがくしんしょわしげるしょずしょにおいてきょーかしょとしてもちいられた。	NO_LABEL
1868年、幸民は三田に帰郷し、私塾の英蘭塾を開校すると、分校が出来るほど盛況となる。	せんはっぴゃくろくじゅうはちねん、ゆきたみわみたにききょーし、しじゅくのえいらんじゅくをかいこーすると、ぶんこーができるほどせいきょーとなる。	NO_LABEL
その後、息子の清二郎が太政官出仕となり、共に再び東京に戻った。	そのご、むすこのきよじろーがだじょーかんしゅっしとなり、ともにふたたびとーきょーにもどった。	NO_LABEL
1871年6月1日、東京にて62歳で亡くなった。	せんはっぴゃくななじゅういちねんろくがつついたち、とーきょーにてろくじゅうにさいでなくなった。	NO_LABEL
1953年、三田市立三田小学校正門前に顕彰碑が建てられた。	せんきゅうひゃくごじゅうさんねん、みたしりつさんだしょうがっこーせいもんまえにけんしょーひがたてられた。	NO_LABEL
2008年にキリンビールは「ビール5000年の旅探究プロジェクト」の一環として幸民が醸造したとされるビールを取り上げ、プロモーションに用いた。	NO_PRONOUNCE	NO_LABEL
2010年には、生誕200周年を記念して、幸民が醸造したとされるビールが小西酒造により復刻された。	にせんじゅうねんにわ、せいたんにひゃくしゅーねんをきねんして、ゆきたみがじょーぞーしたとされるびーるがこにししゅぞーによりふっこくされた。	NO_LABEL
幸民の訳書『化学新書』などを参考に当時の原料や醸造法で醸造された。	NO_PRONOUNCE	NO_LABEL
このビールは「幸民麦酒」として販売されている。	NO_PRONOUNCE	NO_LABEL
日本学士院は『化学新書』を含む多くの関連する資料を所蔵している。	NO_PRONOUNCE	NO_LABEL
これらの資料は2011年に日本化学会により化学遺産に認定された。	これらのしりょーわにせんじゅういちねんににほんかがくかいによりかがくいさんににんていされた。	NO_LABEL
1851年出版。	せんはっぴゃくごじゅういちねんしゅっぱん。	NO_LABEL
日本初の物理書『気海観瀾』を分かりやすくし、増強したもの。	NO_PRONOUNCE	NO_LABEL
全5巻からなる。	ぜんごかんからなる。	NO_LABEL
1854年出版。	せんはっぴゃくごじゅうよねんしゅっぱん。	NO_LABEL
蒸気船、ダゲレオタイプ、電信といった様々な機器について解説をしている。	じょーきせん、だげれおたいぷ、でんしんといったさまざまなききについてかいせつをしている。	NO_LABEL
1861年出版。	せんはっぴゃくろくじゅういちねんしゅっぱん。	NO_LABEL
ドイツの科学者の『"Die Schule der Chemie"』オランダ語版を和訳。	NO_PRONOUNCE	NO_LABEL
当時、使われていた舎密という言葉の代わりに、化学という語を日本で初めて用いた。	とーじ、つかわれていたせいみとゆうことばのかわりに、かがくとゆうかたりをにっぽんではじめてもちいた。	NO_LABEL
