ジアルジア () は、エクスカバータ メタモナス門ディプロモナス目ヘキサミタ科に分類される、原生動物の属である。	じあるじあかっこわ、えくすかばーためたもなすもんでぃぷろもなすめへきさみたかにぶんるいされる、げんせいどーぶつのぞくである。	NO_LABEL
哺乳類、鳥類、爬虫類などの脊椎動物に寄生し、ジアルジア症を引き起こす。	ほにゅーるい、ちょーるい、はちゅーるいなどのせきついどーぶつにきせいし、じあるじあしょーをひきおこす。	NO_LABEL
ジアルジアは、1681年、ファン・レーウェンフックが、自らの下痢便を顕微鏡観察して、初めて記載した。	NO_PRONOUNCE	NO_LABEL
1859年、ランブルにより、齧歯類への寄生虫 が記載された。	せんはっぴゃくごじゅうきゅうねん、らんぶるにより、げっしるいえのきせいちゅーがきさいされた。	NO_LABEL
1882年と1883年、キュンストラー が、おたまじゃくしへの寄生虫を として記載し、これが属名として使われた。	せんはっぴゃくはちじゅうにねんとせんはっぴゃくはちじゅうさんねん、きゅんすとらーが、おたまじゃくしえのきせいちゅーをとしてきさいし、これがぞくめいとしてつかわれた。	NO_LABEL
しかし1888年 は、 として記載した。	しかしせんはっぴゃくはちじゅうはちねんわ、としてきさいした。	NO_LABEL
ジアルジアのシストは、宿主の糞便に混ざって排出される。	じあるじあのしすとわ、しゅくしゅのふんべんにまざってはいしゅつされる。	NO_LABEL
シストは湿った涼しい環境では数ヶ月感染力を維持する。	しすとわしめったすずしいかんきょーでわすーかげつかんせんりょくをいじする。	NO_LABEL
シストは経口摂取されると、十二指腸で有糸分裂しトロフォゾアとなる。	しすとわけいこーせっしゅされると、じゅーにしちょーでゆーしぶんれつしとろふぉぞあとなる。	NO_LABEL
そして、腸の粘液層の下の微絨毛に、腹部の吸盤で付着する。	そして、ちょーのねんえきそーのしたのびじゅうもーに、ふくぶのきゅーばんでふちゃくする。	NO_LABEL
これで新しい宿主への感染が確立される。	これであたらしいしゅくしゅえのかんせんがかくりつされる。	NO_LABEL
いくつかの主要な胆汁酸塩の存在など、腸内環境の変化により、次世代のシストが形成される。	いくつかのしゅよーなたんじゅーさんしおのそんざいなど、ちょーないかんきょーのへんかにより、じせだいのしすとがけいせいされる。	NO_LABEL
シストは糞便と共に排出さえ、汚染された水や食事、肉体の接触により、感染が拡大する。	しすとわふんべんとともにはいしゅつさえ、おせんされたみずやしょくじ、にくたいのせっしょくにより、かんせんがかくだいする。	NO_LABEL
ランブル鞭毛虫が所属するディプロモナス目は、古典的な分類体系では動物性鞭毛虫綱に含めていたが、分子系統解析によればエクスカバータのうちフォルニカータといる系統に属している。	らんぶるべんもうちゅーがしょぞくするでぃぷろもなすめわ、こてんてきなぶんるいたいけいでわどーぶつせいべんもうちゅーつなにふくめていたが、ぶんしけいとーかいせきによればえくすかばーたのうちふぉるにかーたといるけいとーにぞくしている。	NO_LABEL
ジアルジアの種分類はいくつかの理由で困難である。	じあるじあのたねぶんるいわいくつかのりゆーでこんなんである。	NO_LABEL
現在では形態観察や分子系統解析に基づいて、以下のように分類される。	げんざいでわけいたいかんさつやぶんしけいとーかいせきにもとずいて、いかのよーにぶんるいされる。	NO_LABEL
このうち には宿主特異性の異なる複数の遺伝型があることが判明しており、それぞれを独立種と考える場合は以下の通りとなる。	このうちにわしゅくしゅとくいせいのことなるふくすーのいでんがたがあることがはんめいしており、それぞれをどくりつしゅとかんがえるばあいわいかのとーりとなる。	NO_LABEL
ヒトに寄生する とサギ科に寄生する との間の遺伝的距離は、 内部の遺伝的多様性より大きい。	ひとにきせいするとさぎかにきせいするとのまのいでんてききょりわ、ないぶのいでんてきたよーせいよりおーきい。	NO_LABEL
これは、ジアルジアと宿主との間の共進化が起こったことを裏付ける。	これわ、じあるじあとしゅくしゅとのまのきょーしんかがおこったことをうらずける。	NO_LABEL
しかし、齧歯類に寄生する は、共進化が起こった場合に予想される、 に遺伝的に近いという結果にはなっておらず、 と から離れている。	しかし、げっしるいにきせいするわ、きょーしんかがおこったばあいによそーされる、にいでんてきにちかいとゆうけっかにわなっておらず、とからはなれている。	NO_LABEL
