『X-MEN: ファイナル ディシジョン』は、2006年に公開されたアメリカ映画。	NO_PRONOUNCE	NO_LABEL
「マーベル・コミック」のアメリカン・コミック『X-メン』の実写映画化第3作品目。	NO_PRONOUNCE	NO_LABEL
公開当時、同シリーズの最終作となる「完結編」として制作された。	NO_PRONOUNCE	NO_LABEL
前2作を監督したブライアン・シンガーが『スーパーマン リターンズ』の監督に専念する為に製作途中で降板したため、新たにブレット・ラトナーが監督に起用された。	NO_PRONOUNCE	NO_LABEL
アメリカでは2006年5月26日に公開され、週末興行成績で初登場1位になった。	あめりかでわにせんろくねんごがつにじゅうろくにちにこーかいされ、しゅーまつこーぎょーせいせきではつとーじょーいちーになった。	NO_LABEL
日本では同年9月9日に日比谷スカラ座系列ほかで公開され、全国週末興行成績で初登場から2週連続で1位となった。	にっぽんでわどーねんくがつここのかにひびやすからざけいれつほかでこーかいされ、ぜんこくしゅーまつこーぎょーせいせきではつとーじょーからにしゅーれんぞくでいちーとなった。	NO_LABEL
時は20年前。	ときわにじゅうねんまえ。	NO_LABEL
ジーン・グレイは、プロフェッサーXに底知れない能力を見出され、それを操るべく「恵まれし者の学園」に彼女の居場所を与えた。	NO_PRONOUNCE	NO_LABEL
その10年後、とある大企業の社長ワージントンの息子が思春期を迎え、背中に翼が生え始めた。	そのじゅうねんご、とあるだいきぎょーのしゃちょーわーじんとんのむすこがししゅんきをむかえ、せなかにつばさがはえはじめた。	NO_LABEL
ワージントンは、息子を「普通の人間」に戻そうと、ミュータント治療薬「キュア」を作り上げる。	NO_PRONOUNCE	NO_LABEL
そしてキュア開発の源となった、ミュータントの少年、リーチ。	そしてきゅあかいはつのみなもととなった、みゅーたんとのしょーねん、りーち。	NO_LABEL
ミュータントであることは"病気"なのか。	NO_PRONOUNCE	NO_LABEL
ミュータント達の蟠りと、マグニートーの作為が、人類とミュータントの戦争を起こそうとしていた。	みゅーたんとたちのわだかまりと、まぐにーとーのさくいが、じんるいとみゅーたんとのせんそーをおこそうとしていた。	NO_LABEL
前2作の監督ブライアン・シンガーは、監督がなかなか決まらなかった映画『スーパーマン リターンズ』の監督を引き受けた。	NO_PRONOUNCE	NO_LABEL
このため本作を製作途中で降板した。	このためもとさくをせいさくとちゅーでこーばんした。	NO_LABEL
サイクロップス役のジェームズ・マースデンを『スーパーマン リターンズ』に引き連れていく形で出演させたため、スケジュール調整がつかず、X-MENのリーダーであるはずのサイクロップスの登場シーンが大幅に減り、映画のストーリーにも大きな影響を与えた。	NO_PRONOUNCE	NO_LABEL
シガニー・ウィーバーに対して、エマ・フロスト役での出演交渉が行われた。	しがにーうぃーばーにたいして、えまふろすとやくでのしゅつえんこーしょーがおこなわれた。	NO_LABEL
しかしブライアン・シンガーが監督を降り、ストーリーが変更されたため出演は実現しなかった。	しかしぶらいあんしんがーがかんとくをおり、すとーりーがへんこーされたためしゅつえんわじつげんしなかった。	NO_LABEL
またエマ・フロストは今作に登場しなくなった。	またえまふろすとわこんさくにとーじょーしなくなった。	NO_LABEL
冒頭では、20年前のパトリック・スチュワート、イアン・マッケランの出演シーンで、ローラVFXが開発したデジタルで20歳若返るテクノロジーが用いられた。	ぼーとーでわ、にじゅうねんまえのぱとりっくすちゅわーと、いあんまっけらんのしゅつえんしーんで、ろーらぶいえふえっくすがかいはつしたでじたるでにじゅっさいわかがえるてくのろじーがもちいられた。	NO_LABEL
2006年5月22日に第59回カンヌ国際映画祭にて特別招待作品としてプレミア上映された。	にせんろくねんごがつにじゅうににちにだいごじゅうきゅうかいかんぬこくさいえいがさいにてとくべつしょーたいさくひんとしてぷれみあじょーえいされた。	NO_LABEL
その後、5月23日から5月26日にかけて殆どの国で世界同時公開となった。	そのご、ごがつにじゅうさんにちからごがつにじゅうろくにちにかけてほとんどのくにでせかいどーじこーかいとなった。	NO_LABEL
アメリカでは2006年5月26日に3690館で公開され、週末興行成績で初登場1位にランクイン、トップ10内には5週間留まった。	NO_PRONOUNCE	NO_LABEL
アメリカ国内での興行収入は2億3千万ドルを超え、これはアメリカでの2006年公開作品中4位に当たる。	NO_PRONOUNCE	NO_LABEL
日本では2007年1月にDVD・Blu-ray Disc版を発売。	NO_PRONOUNCE	NO_LABEL
Blu-rayは片面1層で本編のみを収録していたが、その後2009年8月に『』の劇場公開に伴い、映像特典の追加や片面2層化などの新仕様でBlu-rayが再発売された。	NO_PRONOUNCE	NO_LABEL
本作公開中に20世紀フォックスが、スピンオフ作品の企画があることを発表された。	もとさくこーかいちゅーににじっせいきふぉっくすが、すぴんおふさくひんのきかくがあることをはっぴょーされた。	NO_LABEL
