柏原陣屋は現在の兵庫県丹波市柏原町にあった柏原藩の藩庁である陣屋である。	かいばらじんやわげんざいのひょーごけんたんばしかしはらちょーにあったかいばらはんのはんちょーであるじんやである。	NO_LABEL
国指定の史跡。	くにしていのしせき。	NO_LABEL
慶長3年織田信長の弟信包が3万6千石で入り、3代続くが慶安3年嗣子なく断絶した。	NO_PRONOUNCE	NO_LABEL
以後45年の長きにわたり天領となった。	いごよんじゅうごねんのちょうきにわたりてんりょーとなった。	NO_LABEL
元禄8年信長の次男信雄の孫の宇陀松山藩主信休がお家騒動の咎により領地を半減され2万石で入る。	NO_PRONOUNCE	NO_LABEL
移封より19年経た正徳3年幕府より陣屋を築く事が許された。	うつりふーよりじゅうきゅうねんへたしょーとくさんねんばくふよりじんやをきずくことがゆるされた。	NO_LABEL
以後10代にわたり織田氏が治め、明治にいたる。	いごじゅうだいにわたりおだしがおさめ、めいじにいたる。	NO_LABEL
長屋門は正徳4年に造られた表門で内部は左側が番所、右側が馬見所と砲庫である。	ながやもんわしょーとくよんねんにつくられたおもてもんでないぶわひだりがわがばんしょ、みぎがわがうまみしょとほーこである。	NO_LABEL
文政元年御殿が焼失した時も延焼を免れた、創建時から残る唯一のものである。	ぶんせいがんねんごてんがしょーしつしたときもえんしょーをまぬかれた、そーけんじからのこるゆいいつのものである。	NO_LABEL
御殿は正徳4年、初代信休により築かれたものであったが、文政元年の火災で焼失し、文政3年に再建されたものである。	ごてんわしょーとくよんねん、しょだいのぶやすによりきずかれたものであったが、ぶんせいがんねんのかさいでしょーしつし、ぶんせいさんねんにさいけんされたものである。	NO_LABEL
再建されたものの明治維新後に解体され、現在では再建時のおよそ5分の1が現存しているにすぎない。	NO_PRONOUNCE	NO_LABEL
国指定の史跡でもある。	くにしていのしせきでもある。	NO_LABEL
なお、正確な建築年代は判明していないが、太鼓櫓は大手門にあり、番所や物見櫓の役割も果たした。	なお、せいかくなけんちくねんだいわはんめいしていないが、たいこやぐらわおーてもんにあり、ばんしょやものみやぐらのやくわりもはたした。	NO_LABEL
明治になってから石田大蔵神社境内に移築された。	めいじになってからいしだおーくらじんじゃけいだいにいちくされた。	NO_LABEL
陣屋敷地は小学校の敷地の一画となっていて、学校の建物との配置が少々アンバランスな一面もある。	じんやしきちわしょーがっこーのしきちのいちかくとなっていて、がっこーのたてものとのはいちがしょーしょーあんばらんすないちめんもある。	NO_LABEL
