1980年・1984年の阪急ブレーブスのユニフォームは1972年～1988年まで使用されていた阪急ブレーブスのニット素材ユニフォームのうち、1980年～1983年までの3次形デザインと1984年～1988年までの最終形デザインで、それぞれ初年度にのみ使用された前デザインとの折衷形デザインの事を指す。	NO_PRONOUNCE	NO_LABEL
ユニフォームはベルトレスからカバー付インナーベルトに変更され、袖のラインが上から黒・白・赤から赤・白・黒に、アンダーシャツとストッキングは赤に変更。	NO_PRONOUNCE	NO_LABEL
ホーム用・白、ビジター用・スカイブルー、胸ロゴと胸・背番号・背ネームが赤で黒の縁取り。	NO_PRONOUNCE	NO_LABEL
ここまでは3次形・最終形共通である。	NO_PRONOUNCE	NO_LABEL
折衷型とは	せっちゅーがたとわ	NO_LABEL
1980年、阪急は1972年以来使用してきたニット素材のプルオーバー式ベルトレスユニフォームから、1971年以来となる前ボタン式に、同時にズボンもベルトレスからインナーベルト式に変更。	せんきゅうひゃくはちじゅうねん、はんきゅーわせんきゅうひゃくななじゅうにねんいらいしよーしてきたにっとそざいのぷるおーばーしきべるとれすゆにふぉーむから、せんきゅうひゃくななじゅういちねんいらいとなるぜんぼたんしきに、どーじにずぼんもべるとれすからいんなーべるとしきにへんこー。	NO_LABEL
さらにアンダーシャツ・ストッキングも黒から赤に変わり、赤色主体のデザインになった。	NO_PRONOUNCE	NO_LABEL
その後、1984年に胸ロゴや帽子等のデザイン変更を経て1988年の球団売却まで使用された為、1980年～1988年までの赤色主体の後期型は1984年を境に前者は3次形、後者は最終形と分類された。	NO_PRONOUNCE	NO_LABEL
ともに初年度は折衷型と言えるデザインであった。	ともにしょねんどわせっちゅーがたといえるでざいんであった。	NO_LABEL
1980年の3次形から袖のラインを黒・白・赤から赤・白・黒に変更したが、初年度の1980年のみ前年までと同じデザインだった。	NO_PRONOUNCE	NO_LABEL
3次形のオリジナルデザインは正式には1981年から採用されたものであるが、実際の所、変更したのはユニフォームの上着だけであり、ズボンのみ不変だった。	さんじがたのおりじなるでざいんわせいしきにわせんきゅうひゃくはちじゅういちねんからさいよーされたものであるが、じっさいのところ、へんこーしたのわゆにふぉーむのうわぎだけであり、ずぼんのみふへんだった。	NO_LABEL
ロゴデザイン等が変更された1984年最終形登場時もまた同様であった。	ろごでざいんとーがへんこーされたせんきゅうひゃくはちじゅうよねんさいしゅーがたとーじょーじもまたどーよーであった。	NO_LABEL
また、1984年は帽子が新デザインに変わり、ホーム用のみVネックプルオーバー式の胸ロゴBraves新デザインユニフォームに変更。	NO_PRONOUNCE	NO_LABEL
しかしビジター用ユニフォームは帽子以外変更されず、3次形のままであった。	しかしびじたーよーゆにふぉーむわぼーしいがいへんこーされず、さんじがたのままであった。	NO_LABEL
最終形のビジター用は1985年に登場し、阪急ブレーブス最終年の1988年まで使用された。	さいしゅーがたのびじたーよーわせんきゅうひゃくはちじゅうごねんにとーじょーし、はんきゅーぶれーぶすさいしゅーねんのせんきゅうひゃくはちじゅうはちねんまでしよーされた。	NO_LABEL
