向島町は、愛知県名古屋市中村区の地名。	むかいしまちょーわ、あいちけんなごやしなかむらくのちめい。	NO_LABEL
1丁目から5丁目がある。	NO_PRONOUNCE	NO_LABEL
郵便番号は453-0838。	NO_PRONOUNCE	NO_LABEL
当地域の人口は1024世帯・2237人。	NO_PRONOUNCE	NO_LABEL
住居表示未実施。	じゅーきょひょーじみじっし。	NO_LABEL
名古屋市中村区西部に位置する。	なごやしなかむらくせいぶにいちする。	NO_LABEL
西は稲葉地町、北は長筬町に接する。	にしわいなばじちょー、きたわながおさちょーにせっする。	NO_LABEL
国勢調査による人口の推移	こくせいちょうさによるじんこーのすいい	NO_LABEL
稲葉地町の字向島に由来する。	いなばじちょーのじむこーじまにゆらいする。	NO_LABEL
