安田 尚憲は、大阪府吹田市出身のプロ野球選手。	やすだしようけんわ、おーさかふすいたししゅっしんのぷろやきゅーせんしゅ。	NO_LABEL
右投左打。	みぎなげひだりうち。	NO_LABEL
千葉ロッテマリーンズ所属。	ちばろってまりーんずしょぞく。	NO_LABEL
6歳の時に兄の影響で野球を始める。	ろっさいのときにあにのえいきょーでやきゅーをはじめる。	NO_LABEL
吹田市立豊津第一小学校時代は軟式チームの豊津東少年野球団に所属。	すいたしりつとよつだいいちしょうがっこーじだいわなんしきちーむのとよつひがししょーねんやきゅーだんにしょぞく。	NO_LABEL
6年生時には阪神タイガースジュニアに選出された。	ろくねんせいじにわはんしんたいがーすじゅにあにせんしゅつされた。	NO_LABEL
吹田市立豊津中学校に進学すると、レッドスターベースボールクラブへ入団。	すいたしりつとよつちゅうがっこーにしんがくすると、れっどすたーべーすぼーるくらぶえにゅーだん。	NO_LABEL
高校は履正社高等学校へ進学。	こーこーわりせいしゃこーとーがっこーえしんがく。	NO_LABEL
履正社高校では、1年秋から「5番・サード」に座り主軸に定着した。	NO_PRONOUNCE	NO_LABEL
2年春に4番に座ると同年夏には大阪予選大会で25打数13安打2本塁打15打点の成績を残し甲子園大会出場に貢献。	NO_PRONOUNCE	NO_LABEL
甲子園では12打数で4安打を放つも本塁打0、打点1に終わり、チームも3回戦で敗退した。	NO_PRONOUNCE	NO_LABEL
いわて国体では広島新庄との決勝戦でホームランを放つなど優勝に貢献。	ゆわてこくたいでわひろしましんじょーとのけっしょーせんでほーむらんをはなつなどゆーしょーにこーけん。	NO_LABEL
寺島成輝ら最上級生が抜けた新チームでは新たに「3番・サード」に座り、秋季大会では50打数21安打4本塁打22打点と好成績を残し近畿大会で優勝、国体後の明治神宮大会でも優勝を果たした。	NO_PRONOUNCE	NO_LABEL
3年春の選抜大会では17打数7安打で準優勝。	さんねんはるのせんばつたいかいでわじゅうななだすーななあんだでじゅんゆうしょー。	NO_LABEL
報徳学園との準決勝第一打席にて甲子園初ホームランを記録した。	ほーとくがくえんとのじゅんけっしょーだいいちだせきにてこーしえんはつほーむらんをきろくした。	NO_LABEL
夏の大阪府予選では19打数12安打3本塁打13打点OPS2.075と驚異的な成績を残すも大阪桐蔭との準決勝で敗れ甲子園出場はならなかった。	NO_PRONOUNCE	NO_LABEL
第28回U-18W杯の代表メンバーに選出される。	NO_PRONOUNCE	NO_LABEL
全9試合に3番でスタメン出場し、34打数11安打5打点の成績を残した。	NO_PRONOUNCE	NO_LABEL
スーパーラウンドのオーストラリア戦では延長11回裏にサヨナラ安打を放っている。	すーぱーらうんどのおーすとらりあせんでわえんちょーじゅういっかいうらにさよならあんだをはなっている。	NO_LABEL
高校通算65本塁打。	こーこーつーさんろくじゅうごほんるいだ。	NO_LABEL
2017年10月26日、2017年プロ野球ドラフト会議にて福岡ソフトバンクホークス、千葉ロッテマリーンズ、阪神タイガースより1巡目再指名を受け、抽選の結果ロッテが交渉権を獲得。	NO_PRONOUNCE	NO_LABEL
契約金1億円、年俸1240万円で仮契約した。	けいやくきんいちおくえん、ねんぽーせんにひゃくよんじゅうまんえんでかりけいやくした。	NO_LABEL
背番号は5。	NO_PRONOUNCE	NO_LABEL
3月23日にイースタンリーグヤクルトスワローズ戦で公式戦初本塁打を放った 。	さんがつにじゅうさんにちにいーすたんりーぐやくるとすわろーずせんでこーしきせんはつほんるいだをはなった。	NO_LABEL
高校通算65本塁打を誇るスラッガー。	こーこーつーさんろくじゅうごほんるいだをほこるすらっがー。	NO_LABEL
高校時代は同じく左打ちの強打者であり同学年の早稲田実業・清宮幸太郎と比較されることが多く、また「東の清宮、西の安田」と並び称された。	NO_PRONOUNCE	NO_LABEL
ライナー性の打球が多く、センターから左方向へは伸びる打球を放つ。	らいなーせいのだきゅーがおーく、せんたーからひだりほーこーえわのびるだきゅーをはなつ。	NO_LABEL
スイングスピードが速く、ボールを体の近くまで呼び込んで打つことができる。	すいんぐすぴーどがはやく、ぼーるをからだのちかくまでよびこんでうつことができる。	NO_LABEL
目標とする選手には松井秀喜を挙げている。	もくひょーとするせんしゅにわまついひできをあげている。	NO_LABEL
