インディラ・ガンディー小児病院は、アフガニスタンの首都カーブル中心部に所在する小児医療病院。	いんでぃらがんでぃーしょーにびょーいんわ、あふがにすたんのしゅとかーぶるちゅーしんぶにしょざいするしょーにいりょーびょーいん。	NO_LABEL
同国初の脳性麻痺を扱う機関として、インド政府の支援を受け2004年に設立された。	どーこくはつののーせいまひをあつかうきかんとして、いんどせいふのしえんをうけにせんよねんにせつりつされた。	NO_LABEL
タリバンによる2010年2月のでは、この病院の医師数名が犠牲になった。	たりばんによるにせんじゅうねんにがつのでは、このびょーいんのいしすーめいがぎせいになった。	NO_LABEL
2013年、日本政府は国際移住機関を通じて52,000ドル相当の医療機材を提供した。	NO_PRONOUNCE	NO_LABEL
