ルイ11世は、フランス・ヴァロワ朝の王。	NO_PRONOUNCE	NO_LABEL
慎重王と呼ばれる。	しんちょーおーとよばれる。	NO_LABEL
シャルル7世とヴァロワ＝アンジュー家のマリー・ダンジューとの子として、ブールジュに生まれる。	NO_PRONOUNCE	NO_LABEL
その敵たちには忌み嫌われて、「遍在する蜘蛛」という奇妙なあだ名を付けられていた。	NO_PRONOUNCE	NO_LABEL
その陰謀は父シャルルへも発揮され、何度も父王の退位を謀ったが失敗した。	そのいんぼーわちちしゃるるえもはっきされ、なんどもちちおーのたいいをはかったがしっぱいした。	NO_LABEL
1436年にスコットランド王ジェームズ1世の娘マーガレットと結婚し、この結婚によりブリテン島の政治に関心を持つ。	せんよんひゃくさんじゅうろくねんにすこっとらんどおーじぇーむずいっせいのむすめまーがれっととけっこんし、このけっこんによりぶりてんとーのせいじにかんしんをもつ。	NO_LABEL
大陸での強敵ブルゴーニュ公国が薔薇戦争ではヨーク家を支持していたため、対抗措置としてランカスター家出身の王ヘンリー6世を復帰させるべく策動した。	NO_PRONOUNCE	NO_LABEL
マーガレットは王に顧みられなかったため、詩作に短い生涯を捧げた。	まーがれっとわおーにかえりみられなかったため、しさくにみじかいしょーがいをささげた。	NO_LABEL
彼女の死後1451年に、ルイは8歳のシャルロット・ド・サヴォワと政略結婚を行う。	NO_PRONOUNCE	NO_LABEL
1461年の即位以来ルイは、近隣の大諸侯の権力を減殺するのに余念がなかった。	せんよんひゃくろくじゅういちねんのそくいいらいるいわ、きんりんのだいしょこーのけんりょくをげんさいするのによねんがなかった。	NO_LABEL
ブルゴーニュ公シャルルを相手に1467年から1477年までの10年間は、権謀術数の限りをつくして戦った。	ぶるごーにゅこーしゃるるをあいてにせんよんひゃくろくじゅうななねんからせんよんひゃくななじゅうななねんまでのじゅうねんかんわ、けんぼーじゅっすーのかぎりをつくしてたたかった。	NO_LABEL
敵地に軍隊を連れずに乗りこみ、ペロンヌ城で勇胆公シャルルと和議を進めながら、公の支配下にあるリエージュに反乱を起こさせようとして失敗し、かえってシャルルの捕虜になったこともある。	てきちにぐんたいをつれずにのりこみ、ぺろんぬじょーでいさむきもおーやけしゃるるとわぎをすすめながら、おーやけのしはいかにあるりえーじゅにはんらんをおこさせようとしてしっぱいし、かえってしゃるるのほりょになったこともある。	NO_LABEL
ブルゴーニュ公の家臣であったが、ルイ11世に敬服し、後に彼の腹心となった年代記作者フィリップ・ド・コミーヌは、この間のルイの行動について冷静で率直な説明を提供している。	NO_PRONOUNCE	NO_LABEL
ブルゴーニュが中心となった〈公益同盟〉とは3度戦闘を行い、そのたびに王軍は圧倒されたにもかかわらず、スイス軍と同盟してグランソンとモラで勝利を収める。	NO_PRONOUNCE	NO_LABEL
1477年にナンシーの戦いで勇胆公シャルルが戦死した後、1482年のアラス条約でブルゴーニュの大半を獲得し、さらにアンジュー、メーヌ、プロヴァンスなどを併せて、フランス王国の支配基盤を定めた。	せんよんひゃくななじゅうななねんになんしーのたたかいでいさむきもおーやけしゃるるがせんししたのち、せんよんひゃくはちじゅうにねんのあらすじょーやくでぶるごーにゅのたいはんをかくとくし、さらにあんじゅー、めーぬ、ぷろばんすなどをあわせて、ふらんすおーこくのしはいきばんをさだめた。	NO_LABEL
1472年に教皇ピウス2世とアンボワーズの協約を締結したことにより、フランス国王に国内の聖職禄授与の権利が認められ、その後のガリカニスム発展のきっかけとなる。	せんよんひゃくななじゅうにねんにきょーこーぴうすにせいとあんぼわーずのきょーやくをていけつしたことにより、ふらんすこくおーにこくないのせいしょくろくじゅよのけんりがみとめられ、そのごのがりかにすむはってんのきっかけとなる。	NO_LABEL
死後、オルレアン近郊のの僧会教会に葬られた。	しご、おるれあんきんこーののそーかいきょーかいにほーむられた。	NO_LABEL
ルイ11世はシャルル7世の中央集権化政策を引き継ぎ、百年戦争後の荒廃したフランスを統一させるに最も成功した王である。	NO_PRONOUNCE	NO_LABEL
その領土併合にあたって、戦争よりも主に外交・政治的な陰謀を用いて国内平和を保ったことは注目に値する。	NO_PRONOUNCE	NO_LABEL
ユーグ・カペー以来のフランス君主の《分割して統治せよ》という伝統政策に結びつけられた王とも言える。	NO_PRONOUNCE	NO_LABEL
ルイ11世は印刷術の始まりを保護し、その寛大さから《きわめてキリスト教的な国王》という称号をローマ教会から勝ち得た。	NO_PRONOUNCE	NO_LABEL
また、養蚕を南フランスで普及させ鉱山を開発するなど、賢明な産業政策を行っている。	また、よーさんをみなみふらんすでふきゅーさせこーざんをかいはつするなど、けんめいなさんぎょーせいさくをおこなっている。	NO_LABEL
ブルゴーニュのシャルルに対するルイ11世は、封建制領主の典型と戦う近代君主と形容されることがある。	NO_PRONOUNCE	NO_LABEL
たしかにルイはシャルルが体現する騎士道精神には、嘲弄と軽蔑しか示さなかった。	たしかにるいわしゃるるがたいげんするきしどーせいしんにわ、ちょーろーとけいべつしかしめさなかった。	NO_LABEL
しかし、厄日の慣習を真面目に守り、「神と聖母マリアの恩寵を他のいかなる君公よりも高い値段で買った」と同時代人に評されるほど聖遺物を崇拝する人物でもあった。	NO_PRONOUNCE	NO_LABEL
裏切りなどものともしなかったのに、聖ロウの十字架にかけて誓ってほしいと願われると「他のものへの誓いならいざ知らず、この十字架への誓いは許されぬ」と拒絶したこともある。	NO_PRONOUNCE	NO_LABEL
トナカイや大鹿などの珍しい動物の蒐集に熱中し、カラブリアの隠者パオラのフランシスコさえ、ルイの蒐集癖の対象になった。	となかいやおーしかなどのめずらしいどーぶつのしゅーしゅーにねっちゅーし、からぶりあのいんじゃぱおらのふらんしすこさえ、るいのしゅーしゅーへきのたいしょーになった。	NO_LABEL
ロレンツォ・デ・メディチと文通し、聖ゼノビウスの指輪のことや「スキティアの仔羊」と呼ばれる不思議な力を持つ植物について話を交わしている。	NO_PRONOUNCE	NO_LABEL
科学に興味を持ち、胆石治療の実験に協力すると約束した死刑囚を許したこともある。	かがくにきょーみをもち、たんせきちりょーのじっけんにきょーりょくするとやくそくしたしけいしゅーをゆるしたこともある。	NO_LABEL
しかし、彼自身は迷信深く占星術師に取り囲まれ、コミーヌのような人物さえ国王が誰からも愛されていなかったということをはっきりと『年代記』に書いている。	NO_PRONOUNCE	NO_LABEL
『遺言詩集』でこの王に讃辞を贈っているフランソワ・ヴィヨン同様、現代人には理解困難な、しかし魅力のある歴史上の人物である。	NO_PRONOUNCE	NO_LABEL
マーガレット・ステュアートとの間に子女はいない。	まーがれっとすてゅあーととのまにしじょわいない。	NO_LABEL
シャルロット・ド・サヴォワとの間には以下の成長した子女がいる。	NO_PRONOUNCE	NO_LABEL
また、以下の庶子がいる。	また、いかのしょしがいる。	NO_LABEL
