ガザは、パレスチナ自治区の飛び地ガザ地区の中心都市である。	がざわ、ぱれすちなじちくのとびちがざちくのちゅーしんとしである。	NO_LABEL
人口はパレスチナ自治区で最大である。	じんこーわぱれすちなじちくでさいだいである。	NO_LABEL
歴史は古く、紀元前15世紀古代エジプトのファラオ・トトメス3世のアジア侵攻でたびたび登場する。	NO_PRONOUNCE	NO_LABEL
紀元前12世紀はじめにこの地方に移住してきたペリシテ人の建設した都市国家として、アシュケロンなど他の4つのペリシテ人都市国家とともに連合体を形成していた。	きげんぜんじゅうにせいきはじめにこのちほーにいじゅーしてきたぺりしてびとのけんせつしたとしこっかとして、あしゅけろんなどたのよっつのぺりしてびととしこっかとともにれんごーたいをけいせいしていた。	NO_LABEL
地理的にはエジプトとシリアの間に位置しており、古くから交通の要衝としての地位を占めていた。	ちりてきにわえじぷととしりあのまにいちしており、ふるくからこーつーのよーしょーとしてのちいをしめていた。	NO_LABEL
第一次中東戦争まではユダヤ教徒社会が繁栄し、相当数のユダヤ教徒人口を抱える一大中心地でもあった。	だいいちじちゅーとーせんそーまでわゆだやきょーとしゃかいがはんえいし、そーとーすーのゆだやきょーとじんこーをかかえるいちだいちゅーしんちでもあった。	NO_LABEL
有名なシナゴーグもある。	ゆーめいなしなごーぐもある。	NO_LABEL
1948年の第一次中東戦争以降エジプトが確保し、ユダヤ人住民は退去させられた。	せんきゅうひゃくよんじゅうはちねのだいいちじちゅーとーせんそーいこーえじぷとがかくほし、ゆだやじんじゅーみんわたいきょさせられた。	NO_LABEL
一方1967年の第三次中東戦争以後はイスラエルが確保した。	いっぽーせんきゅうひゃくろくじゅうななねのだいさんじちゅーとーせんそーいごわいすらえるがかくほした。	NO_LABEL
イスラエルは主権を主張したが、アラブ諸国・パレスチナを含め国際社会は「占領」とみなした。	NO_PRONOUNCE	NO_LABEL
1994年に前年のオスロ合意に基づいてパレスチナ自治区が発足すると、その自治権の範疇に置かれることとなった。	せんきゅうひゃくきゅうじゅうよねんにぜんねんのおすろごーいにもとずいてぱれすちなじちくがほっそくすると、そのじちけんのはんちゅーにおかれることとなった。	NO_LABEL
2000年代に入ると第2次インティファーダが開始され、この地がパレスチナ過激派の拠点となった。	にせんねんだいにはいるとだいにじいんてぃふぁーだがかいしされ、このちがぱれすちなかげきはのきょてんとなった。	NO_LABEL
そのためパレスチナ過激派がイスラエルに自爆攻撃を仕掛けるとその報復にイスラエル軍がガザを占領するという事態が度々起こった。	そのためぱれすちなかげきはがいすらえるにじばくこーげきをしかけるとそのほーふくにいすらえるぐんががざをせんりょーするとゆうじたいがたびたびおこった。	NO_LABEL
さらにイスラエルはガザへのユダヤ人植民を奨励し、当地でのユダヤ人比率の増加を目指していた。	さらにいすらえるわがざえのゆだやじんしょくみんをしょーれいし、とーちでのゆだやじんひりつのぞーかをめざしていた。	NO_LABEL
しかし2005年9月12日までにイスラエル人入植地からユダヤ人はイスラエル軍によって全員撤退させられ、入植地は全廃された。	しかしにせんごねんくがつじゅうににちまでにいすらえるじんにゅーしょくちからゆだやじんわいすらえるぐんによってぜんいんてったいさせられ、にゅーしょくちわぜんぱいされた。	NO_LABEL
