松平 忠周、または松平 忠徳、は、江戸時代中期の大名。	まつだいらただちか、またわまつだいらただのり、わ、えどじだいちゅーきのだいみょー。	NO_LABEL
伊賀守流藤井松平家3代。	いがまもるりゅーふじーまつだいらけさんだい。	NO_LABEL
はじめ丹波亀山藩の第3代藩主、のち武蔵岩槻藩主、但馬出石藩主、信濃上田藩の初代藩主。	はじめたんばかめやまはんのだいさんだいはんしゅ、のちむさしいわつきはんしゅ、たじまいずしはんしゅ、しなのうえだはんのしょだいはんしゅ。	NO_LABEL
幕府では側用人、京都所司代、老中を歴任した。	ばくふでわそばよーにん、きょーとしょしだい、ろーじゅーをれきにんした。	NO_LABEL
万治4年4月19日、丹波亀山藩主で藤井松平家伊賀守流の初代・松平忠晴の庶出の三男として生まれる。	NO_PRONOUNCE	NO_LABEL
異母兄の第2代藩主・忠昭とは歳が離れていた上に、その聡明さを父から愛されたためか、兄の嗣子と定められた。	NO_PRONOUNCE	NO_LABEL
天和3年に忠昭が死去した際、兄の遺児・石松を推す一派が存在したものの、亡父・忠晴の遺命通りに家督を継いだ。	NO_PRONOUNCE	NO_LABEL
上田藩に入封した後、農民に明細帳提出・年貢の籾納から米納への切り替えを求め、複数の村の庄屋を監督する村役人や大庄屋を設置し、農村統制を厳しく行った。	NO_PRONOUNCE	NO_LABEL
第5代将軍・綱吉に近侍し、側用人にまで出世するが、家宣が第6代将軍となると、側用人を免ぜられて幕政から遠ざけられる。	NO_PRONOUNCE	NO_LABEL
その後、吉宗が8代将軍になると京都所司代を経て老中に起用された。	そのご、よしむねがはちだいしょーぐんになるときょーとしょしだいをへてろーじゅーにきよーされた。	NO_LABEL
享保13年5月1日、江戸で死去した。	きょうほじゅうさんねんごがつついたち、えどでしきょした。	NO_LABEL
享年68。	NO_PRONOUNCE	NO_LABEL
跡を三男の忠愛が継いだ。	あとをさんなんのただえがついだ。	NO_LABEL
吉宗もその死を悼み、若年寄大久保常春に銀300枚を持たせ、弔慰に遣わした。	よしむねもそのしをいたみ、わかどしよりおーくぼつねはるにぎんさんびゃくまいをもたせ、ちょーいにつかわした。	NO_LABEL
※日付＝旧暦	NO_PRONOUNCE	NO_LABEL
人品、文武の両道共に優れ、和歌への造詣も深かった。	じんぴん、ぶんぶのりょーどーどもにすぐれ、わかえのぞーけいもふかかった。	NO_LABEL
京都所司代の頃にはたびたび公卿から歌会に招かれていた。	きょーとしょしだいのころにわたびたびくげからかかいにまねかれていた。	NO_LABEL
好感を得られる人柄からか、武家にしては柔和な人物と思われたのだろう。	こーかんをえられるひとがらからか、ぶけにしてわにゅーわなじんぶつとおもわれたのだろう。	NO_LABEL
吉宗は忠周の頻繁な歌会参加を聞き及んでも、特に咎めることも無かった。	よしむねわただちかのひんぱんなかかいさんかをききおよんでも、とくにとがめることもなかった。	NO_LABEL
その歌会仲間の伝で、『伊勢物語』の講にも参加。	NO_PRONOUNCE	NO_LABEL
講が終わって、ある公卿が在原業平を羨む発言をした。	こーがおわって、あるくげがありわらのなりひらをうらやむはつげんをした。	NO_LABEL
その場の公卿は賛同する者がほとんどだったというが、忠周一人が座を正し、「諸卿の言、みな非なり。	NO_PRONOUNCE	NO_LABEL
今もし、不義濫行その如きもの在らば、それがし、苟も東府の目代なり。	NO_PRONOUNCE	NO_LABEL
職に於いて赦さず、速やかに召し捕えて罪を論じ、刑に処さん」と諫言した。	NO_PRONOUNCE	NO_LABEL
この一事がやがて江戸にまで届き、吉宗の聞き及ぶ所となった。	このいちじがやがてえどにまでとどき、よしむねのききおよぶところとなった。	NO_LABEL
吉宗は「余が見る処は、違わざるなり」と満悦。	NO_PRONOUNCE	NO_LABEL
老中抜擢の端緒であったという。	ろーじゅーばってきのたんしょであったという。	NO_LABEL
長男、次男、四男は早世。	ちょーなん、じなん、よんなんわそーせい。	NO_LABEL
三男・忠愛が嫡子となり家督を継いだ。	NO_PRONOUNCE	NO_LABEL
五男・忠容は5000石を与えられ、大身旗本の分家を興した。	NO_PRONOUNCE	NO_LABEL
六男・忠陣、七男・忠弘は藤井姓を称した。	NO_PRONOUNCE	NO_LABEL
このほか、他家に嫁いだ娘が5人いる。	このほか、たけにとついだむすめがごにんいる。	NO_LABEL
