斉藤 浩行は、栃木県宇都宮市出身の元プロ野球選手、監督。	さいとーひろゆきわ、とちぎけんうつのみやししゅっしんのもとぷろやきゅーせんしゅ、かんとく。	NO_LABEL
宇都宮商では、1978年の夏の甲子園栃木県予選で準決勝に進むが小山に敗退。	うつのみやしょーでわ、せんきゅうひゃくななじゅうはちねんのなつのこーしえんとちぎけんよせんでじゅんけっしょーにすすむがこやまにはいたい。	NO_LABEL
卒業後は東京ガスに入社、1980年から都市対抗野球に2年連続出場。	そつぎょーごわとーきょーがすににゅーしゃ、せんきゅうひゃくはちじゅうねんからとしたいこーやきゅーににねんれんぞくしゅつじょー。	NO_LABEL
1981年のドラフト2位で広島へ入団。	せんきゅうひゃくはちじゅういちねんのどらふとにーでひろしまえにゅーだん。	NO_LABEL
そのずば抜けたパワーからポスト山本浩二と評された長距離打者であった。	そのずばぬけたぱわーからぽすとやまもとこーじとひょーされたちょーきょりだしゃであった。	NO_LABEL
1982年7月3日の中日戦で1軍の試合に初出場し、初安打もこの試合に記録した。	せんきゅうひゃくはちじゅうにねんしちがつみっかのちゅーにちせんでいちぐんのしあいにはつしゅつじょーし、はつあんだもこのしあいにきろくした。	NO_LABEL
翌日の中日戦では都裕次郎から初本塁打を打った。	よくじつのちゅーにちせんでわみやこゆうじろーからはつほんるいだをうった。	NO_LABEL
2年目のキャンプで右目に打球を受け、一時視力が低下。	にねんめのきゃんぷでみぎめにだきゅーをうけ、いちじしりょくがていか。	NO_LABEL
デーゲーム中心のファームではホームランを量産し、3度の本塁打王を獲得するなど素晴らしい成績だったが、視力低下の影響でナイター中心となる一軍ではその実力を発揮できず、平凡な成績に終わった。	でーげーむちゅーしんのふぁーむでわほーむらんをりょーさんし、さんどのほんるいだおーをかくとくするなどすばらしいせいせきだったが、しりょくていかのえいきょーでないたーちゅーしんとなるいちぐんでわそのじつりょくをはっきできず、へいぼんなせいせきにおわった。	NO_LABEL
ファーム通算161本塁打は現在も破られていない。	NO_PRONOUNCE	NO_LABEL
1988年オフ、片岡光宏と共に片平哲也・本村信吾との2対2の交換トレードで中日に移籍。	NO_PRONOUNCE	NO_LABEL
1989年の移籍一年目には58試合に出場、レギュラー外野手争いに割って入る。	せんきゅうひゃくはちじゅうきゅうねんのいせきいちねんめにわごじゅうはちしあいにしゅつじょー、れぎゅらーがいやしゅあらそいにわってはいる。	NO_LABEL
しかし翌年は打撃成績が低迷、1991年には、小松崎善久との交換トレードで日本ハムへ移籍となり、1992年に現役引退。	しかしよくねんわだげきせいせきがていめい、せんきゅうひゃくきゅうじゅういちねんにわ、こまつざきよしひさとのこーかんとれーどでにほんはむえいせきとなり、せんきゅうひゃくきゅうじゅうにねんにげんえきいんたい。	NO_LABEL
引退後はプロ野球マスターズリーグの名古屋80D’sersで選手として活動していた。	NO_PRONOUNCE	NO_LABEL
2006年から四国アイランドリーグplusの愛媛マンダリンパイレーツで、打撃コーチを5シーズン務めた。	NO_PRONOUNCE	NO_LABEL
2011年、同リーグの徳島インディゴソックスの監督に就任。	にせんじゅういちねん、どーりーぐのとくしまいんでぃごそっくすのかんとくにしゅーにん。	NO_LABEL
初年度でチームを初の前期優勝、さらには年間総合優勝に導いた。	しょねんどでちーむをはつのぜんきゆーしょー、さらにわねんかんそーごーゆうしょーにみちびいた。	NO_LABEL
過去にリーグで年間総合優勝を達成した監督のうち、NPBでの指導者歴がない人物は斉藤が初めてである。	かこにりーぐでねんかんそーごーゆうしょーをたっせいしたかんとくのうち、えぬぴーびーでのしどーしゃれきがないじんぶつわさいとーがはじめてである。	NO_LABEL
しかしシーズン終了後の11月21日、退団が発表された。	しかししーずんしゅうりょーごのじゅーいちがつにじゅういちにち、たいだんがはっぴょーされた。	NO_LABEL
選手の地域貢献に対する考え方の球団側との相違が原因と報じられている。	せんしゅのちいきこーけんにたいするかんがえかたのきゅーだんがわとのそーいがげんいんとほーじられている。	NO_LABEL
退団後はスポーツDEPO徳島藍住店に勤務している。	NO_PRONOUNCE	NO_LABEL
