元住吉検車区は、神奈川県川崎市中原区に存在する東京急行電鉄の車両基地。	もとすみよしけんしゃくわ、かながわけんかわさきしなかはらくにそんざいするとーきょーきゅーこーでんてつのしゃりょーきち。	NO_LABEL
東急東横線・目黒線元住吉駅の南側にあり、長津田検車区に次ぐ規模を持ち、他社線の車両も多数留置されている。	NO_PRONOUNCE	NO_LABEL
また、東急電鉄の社員研修所が隣接している。	また、とーきゅーでんてつのしゃいんけんしゅーしょがりんせつしている。	NO_LABEL
当区への入・出庫は従来、元住吉駅から行われていたが、2006年9月25日のダイヤ改正で元住吉駅が高架化されたため、地平にある検車区には駅構内から直接入・出庫することができなくなった。	NO_PRONOUNCE	NO_LABEL
現在、入・出庫は渋谷・目黒方面は武蔵小杉駅から、横浜方面は武蔵小杉駅もしくは日吉駅から行われている。	NO_PRONOUNCE	NO_LABEL
なお、当区から武蔵小杉駅への回送列車は2008年6月22日に開業した目黒線の線路を、日吉駅への回送列車は東横線の下り線に接続する下り出庫線をそれぞれ経由して運転される。	なお、とーくからむさしこすぎえきえのかいそーれっしゃわにせんはちねんろくがつにじゅうににちにかいぎょーしためぐろせんのせんろを、ひよしえきえのかいそーれっしゃわとーよこせんのくだりせんにせつぞくするくだりしゅっこせんをそれぞれけいゆしてうんてんされる。	NO_LABEL
また、菊名からの元住吉行だった列車は、現在回送列車として一旦武蔵小杉駅に到着後、方向転換して当区に入庫している。	また、きくなからのもとすみよしゆきだったれっしゃわ、げんざいかいそーれっしゃとしていったんむさしこすぎえきにとーちゃくご、ほーこーてんかんしてあてくににゅーこしている。	NO_LABEL
敷地面積：55,309m　建物面積:4,571m　最大留置車両数：282両	NO_PRONOUNCE	NO_LABEL
なお、沿革には元住吉工場についても記載する。	なお、えんかくにわもとすみよしこーじょーについてもきさいする。	NO_LABEL
一部、西武鉄道が管理している小手指車両基地に入る場合がある。	いちぶ、せいぶてつどーがかんりしているこてさししゃりょーきちにはいるばあいがある。	NO_LABEL
また武蔵丘車両基地に一晩留置することがある。	またむさしがおかしゃりょーきちにひとばんりゅーちすることがある。	NO_LABEL
