マンバは、イギリスのアームストロング・シドレー社が1940年代から1950年代にかけて製造した1,500を発生するターボプロップエンジンである。	NO_PRONOUNCE	NO_LABEL
マンバは、10段軸流式圧縮機、6個の燃焼室と2段タービンを持つ小型エンジンである。	NO_PRONOUNCE	NO_LABEL
プロペラスピナーの中には遊星歯車式減速ギアが内蔵されており、エンジンの始動にはカートリッジが使用された。	ぷろぺらすぴなーのなかにわゆーせいはぐるましきげんそくぎあがないぞーされており、えんじんのしどーにわかーとりっじがしよーされた。	NO_LABEL
社内での呼称はASMといい、ASM.3は1,475 ehp、ASM.6は1,770 ehpを発生した。	NO_PRONOUNCE	NO_LABEL
1948年に500時間のテストが実施され、マンバはダグラス DC-3 ダコタに装着された最初のターボプロップエンジンになった。	せんきゅうひゃくよんじゅうはちねにごひゃくじかんのてすとがじっしされ、まんばわだぐらすでぃーしーまいなすさんだこたにそーちゃくされたさいしょのたーぼぷろっぷえんじんになった。	NO_LABEL
1949年にダコタ機のテストベッドはエンジンを2基共マンバに換装された。	せんきゅうひゃくよんじゅうきゅうねんにだこたきのてすとべっどわえんじんをにきどもまんばにかんそーされた。	NO_LABEL
派生型のダブル・マンバエンジンは英海軍のフェアリー ガネット 対潜哨戒機に搭載された。	NO_PRONOUNCE	NO_LABEL
このエンジンは実質的に2基のマンバを並列に配し、共通のギヤボックスを介して2重反転プロペラを駆動した。	NO_PRONOUNCE	NO_LABEL
減速ギヤボックスを外したマンバのターボジェットエンジン版がアームストロング・シドレー アダーとして開発された。	げんそくぎやぼっくすをはずしたまんばのたーぼじぇっとえんじんばんがあーむすとろんぐしどれーあだーとしてかいはつされた。	NO_LABEL
アームストロング・シドレー マンバは、ウォリックシャーのにあるとに展示されている。	あーむすとろんぐしどれーまんばわ、うぉりっくしゃーのにあるとにてんじされている。	NO_LABEL
"Flight"誌より	NO_PRONOUNCE	NO_LABEL
