関根 聡は、アメリカ在住の日本の情報科学者。	せきねさとしわ、あめりかざいじゅーのにっぽんのじょーほーかがくしゃ。	NO_LABEL
ニューヨーク大学研究准教授。	にゅーよーくだいがくけんきゅーじゅんきょーじゅ。	NO_LABEL
日本で、言語処理に関するコンサルタント会社のランゲージ・クラフト研究所を運営している。	NO_PRONOUNCE	NO_LABEL
2010年6月から楽天技術研究所ニューヨークの所長、2011年4月から楽天技術研究所東京副所長、楽天技術理事も兼任していた。	にせんじゅうねんろくがつかららくてんぎじゅつけんきゅーじょにゅーよーくのしょちょー、にせんじゅういちねんしがつかららくてんぎじゅつけんきゅーじょとーきょーふくしょちょー、らくてんぎじゅつりじもけんにんしていた。	NO_LABEL
2014年10月に楽天を退職。	にせんじゅうよねんじゅーがつにらくてんをたいしょく。	NO_LABEL
東京工業大学を卒業後、松下電器東京研究所にて自然言語処理の研究を開始し、1990年英国のマンチェスター工科大学へ留学、辻井潤一教授の下、1992年修士号を取得した。	とーきょーこーぎょーだいがくをそつぎょーご、まつしたでんきとーきょーけんきゅーじょにてしぜんげんごしょりのけんきゅーをかいしし、せんきゅうひゃくきゅうじゅうねんえいこくのまんちぇすたーこーかだいがくえりゅーがく、つじーじゅんいちきょーじゅのした、せんきゅうひゃくきゅうじゅうにねんしゅーしごーをしゅとくした。	NO_LABEL
1994年に、情報抽出の権威であるニューヨーク大学のグリッシュマン教授に助手として招聘されながら博士号を1998年に取得、その後、研究助教授、研究准教授に就任。	せんきゅうひゃくきゅうじゅうよねんに、じょーほーちゅーしゅつのけんいであるにゅーよーくだいがくのぐりっしゅまんきょーじゅにじょしゅとしてしょーへいされながらはくしごーをせんきゅうひゃくきゅうじゅうはちねんにしゅとく、そのご、けんきゅーじょきょーじゅ、けんきゅーじゅんきょーじゅにしゅーにん。	NO_LABEL
専門は、情報抽出、言語的知識獲得、固有表現抽出、および言語解析、質問応答、要約など。	せんもんわ、じょーほーちゅーしゅつ、げんごてきちしきかくとく、こゆーひょーげんちゅーしゅつ、およびげんごかいせき、しつもんおーとー、よーやくなど。	NO_LABEL
1998年、日本で固有表現抽出・情報検索の評価型ワークショップであるIREXを主催。	NO_PRONOUNCE	NO_LABEL
アメリカ国立科学財団の「オンデマンド情報抽出」プロジェクトのリーダー。	NO_PRONOUNCE	NO_LABEL
「言語処理における知識獲得シンポジウム」を主催するなど、言語処理の幅広い分野で活躍。	NO_PRONOUNCE	NO_LABEL
