デヴィッド・ジェンキンスは、イギリスの文筆家・英語教師・ジャーナリスト。	NO_PRONOUNCE	NO_LABEL
森口靖彦とともに『梁塵秘抄』、『閑吟集』、『方丈記』を英訳・出版した。	NO_PRONOUNCE	NO_LABEL
1943年にウェールズに生まれ、イングランド北東部で育った。	せんきゅうひゃくよんじゅうさんねにうぇーるずにうまれ、いんぐらんどほくとーぶでそだった。	NO_LABEL
1967年からロンドンでジャーナリストとして通信社 Press Association 及び ""London Evening Standard"" 紙に記事を執筆する。	NO_PRONOUNCE	NO_LABEL
その後、女性誌 ""Nova"" の編集者として、ヨーロッパ、中東、北アフリカで取材活動を行った。	NO_PRONOUNCE	NO_LABEL
1975年に、アメリカや西インド諸島の黒人のアフリカへの帰還とその後に関する著作 ""Black Zion""を出版した。	NO_PRONOUNCE	NO_LABEL
その後、アメリカでパトリシア・ハースト事件の取材と事件に関する本の執筆を行ったが、出版に至らなかった。	そのご、あめりかでぱとりしあはーすとじけんのしゅざいとじけんにかんするほんのしっぴつをおこなったが、しゅっぱんにいたらなかった。	NO_LABEL
1980年に来日した。	せんきゅうひゃくはちじゅうねんにらいにちした。	NO_LABEL
京都で英語教師をしながら、森口靖彦とともに日本文学の英訳に取り組み、『梁塵秘抄』、『閑吟集』、『方丈記』を英訳・出版した。	NO_PRONOUNCE	NO_LABEL
英字誌 ""Kyoto Journal"" に日本古典文学の翻訳や評論を寄稿した。	NO_PRONOUNCE	NO_LABEL
また京都で朗読会を開催した。	またきょーとでろーどくかいをかいさいした。	NO_LABEL
朗読会は音楽家プレストン・ハウザーとのコラボレーション形式で行われることが多かった。	NO_PRONOUNCE	NO_LABEL
