福岡県旗は、日本の都道府県の一つ、福岡県の旗。	ふくおかけんきわ、にっぽんのとどーふけんのひとつ、ふくおかけんのはた。	NO_LABEL
本項では、旗に図示されている福岡県章についても併せて解説する。	ほんこーでわ、はたにずしされているふくおかけんしょーについてもあわせてかいせつする。	NO_LABEL
県章は一般公募で寄せられた案を基にデザインされ、1966年5月10日の県告示第342号「福岡県章」により制定された。	NO_PRONOUNCE	NO_LABEL
平仮名の「ふ」と「く」を県花である梅の花を象って図案化し、平和・県勢の発展・県民の融和と躍進を表している。	NO_PRONOUNCE	NO_LABEL
県旗は特に規定されていないが、1966年9月16日に制定された県章の利用拡大を図る一環として福岡県庁前に掲揚された青地に白抜きの県章を中央に配置するデザインの旗が現在まで慣例的に用いられている。	けんきわとくにきていされていないが、せんきゅうひゃくろくじゅうろくねんくがつじゅうろくにちにせいていされたけんあきらのりよーかくだいをはかるいっかんとしてふくおかけんちょーまえにけいよーされたあおじにしろぬきのけんしょーをちゅーおーにはいちするでざいんのはたがげんざいまでかんれいてきにもちいられている。	NO_LABEL
また、配色のバリエーションには白地に県章を黒・白地に県章を赤とするものもあり、用途に応じて使い分けられている。	NO_PRONOUNCE	NO_LABEL
例えば、国民体育大会他の競技会で福岡県選手団が使用する旗はのバリエーションである。	たとえば、こくみんたいーくたいかいたのきょーぎかいでふくおかけんせんしゅだんがしよーするはたわのばりえーしょんである。	NO_LABEL
