峰温泉は、静岡県賀茂郡河津町にある温泉。	みねおんせんわ、しずおかけんかもぐんかわずちょーにあるおんせん。	NO_LABEL
峰温泉は7軒の宿がある小さな温泉。	NO_PRONOUNCE	NO_LABEL
河津川沿いに、日帰り入浴施設「踊り子温泉会館」と「豊泉の足湯処」がある。	NO_PRONOUNCE	NO_LABEL
踊り子温泉会館は、この辺りが川端康成の名作「伊豆の踊子」の舞台となったことから名付けられた。	NO_PRONOUNCE	NO_LABEL
正面玄関の上には踊り子の絵が飾られている。	しょーめんげんかんのうえにわおどりこのえがかざられている。	NO_LABEL
施設にはお風呂の他に持ち込みOKの休憩室やリフレッシュルームなどがある。	しせつにわおふろのほかにもちこみおーけーのきゅーけいしつやりふれっしゅるーむなどがある。	NO_LABEL
豊泉の足湯処は、河津川の土手沿いにあり、9:00～16:00で利用可能。	NO_PRONOUNCE	NO_LABEL
利用料無料。	りよーりょーむりょー。	NO_LABEL
奈良時代、宝亀10年この界隈に湧き出た霊泉があり、菖蒲・カキツバタなどが錦織り成す美しいこの里を「花田の湯」と称し、多くの名僧・武辺が浴したと今に伝えられている。	NO_PRONOUNCE	NO_LABEL
その後、何時とはなしに荒廃したが、伝説と化した「花田の湯」の復興すべく大正11年、この地に住む稲葉時太郎は、峰一帯を“花といで湯の郷”にせんと、当時30歳の情熱を一途に温泉採掘に打ち込んだ。	NO_PRONOUNCE	NO_LABEL
4年後の大正15年11月22日正午。	よんねんごのたいしょーじゅうごねんじゅーいちがつにじゅうににちしょーご。	NO_LABEL
火山噴火のごとく、一大爆音とともに「大噴湯」は誕生した。	NO_PRONOUNCE	NO_LABEL
地響きを立てて噴き出た熱泉は、この時実に50メートルの天空を突き刺したと云われている。	NO_PRONOUNCE	NO_LABEL
また大噴湯の前には、天に向かって合唱をしている時太郎の姿があったと今に伝えられている。	NO_PRONOUNCE	NO_LABEL
現在では周りへの影響を考慮し、噴き上げの時間も量も絞っているが、その勢いは未だ衰えることはない。	げんざいでわまわりえのえいきょーをこーりょし、ふきあげのじかんもりょーもしぼっているが、そのいきおいわいまだおとろえることわない。	NO_LABEL
噴き上げ口を絞らない限りいつでも100℃の温泉が地上約30メートルに達し、依然活発な自噴を続けている。	NO_PRONOUNCE	NO_LABEL
地上約30mまで噴き上げる自噴泉が楽しめる。	ちじょーやくさんじゅうめーとるまでふきあげるじふんせんがたのしめる。	NO_LABEL
2009年2月1日オープン。	にせんきゅうねんにがつついたちおーぷん。	NO_LABEL
入場無料。	にゅーじょーむりょー。	NO_LABEL
駐車場は13台無料。	NO_PRONOUNCE	NO_LABEL
大噴湯のイメージキャラクターには「フントー君」なる、ゆるキャラが使用されている。	NO_PRONOUNCE	NO_LABEL
9：30 10：30 11：30 12：30 13：30 14：30 15：30	NO_PRONOUNCE	NO_LABEL
1日計7回。	ついたちけいななかい。	NO_LABEL
1回の噴き上げは1分間ほど。	いっかいのふきあげわいっぷんかんほど。	NO_LABEL
月、水、木、土、日曜日の週5日。	つき、みず、き、ど、にちよーびのしゅーいつか。	NO_LABEL
