「太陽のKomachi Angel」は、日本の音楽ユニット・B'zの5作目のシングル。	NO_PRONOUNCE	NO_LABEL
前作から3週間程度のインターバルでのリリース。	ぜんさくからさんしゅーかんていどのいんたーばるでのりりーす。	NO_LABEL
2003年3月26日にリマスタリング、12cm化で再発売された。	にせんさんねんさんがつにじゅうろくにちにりますたりんぐ、じゅうにせんちめーとるかでさいはつばいされた。	NO_LABEL
シングル・アルバム通じて初のオリコンチャート1位を獲得した作品で、現在も続いているB'zのシングルオリコン連続1位獲得記録は本作から始まっている。	NO_PRONOUNCE	NO_LABEL
発売からおよそ1年近いチャートインを記録し、ほぼ同時期に発売された前作「BE THERE」や8thシングル「LADY NAVIGATION」に並ぶロングセラーとなった。	NO_PRONOUNCE	NO_LABEL
この曲で、その年の日本有線大賞「最多リクエスト歌手賞」を受賞した。	NO_PRONOUNCE	NO_LABEL
太陽のKomachi Angel	たいよーのこまちえんじぇる	NO_LABEL
太陽のKomachi Angel	たいよーのこまちえんじぇる	NO_LABEL
