笹沢 左保は、日本の小説家。	ささざわさほわ、にっぽんのしょーせつか。	NO_LABEL
本名は笹沢 勝。	ほんみょーわささざわまさる。	NO_LABEL
デビュー当時の筆名は笹沢佐保だが、『招かれざる客』の単行本でデビューした翌年から左保と改めた。	NO_PRONOUNCE	NO_LABEL
詩人笹沢美明の三男として東京府にて出生。	しじんささざわよしあきのさんなんとしてとーきょーふにてしゅっしょー。	NO_LABEL
その後、神奈川県横浜市に移った。	そのご、かながわけんよこはましにうつった。	NO_LABEL
郵政省勤務時、芝居の台本を執筆しながらチャンスを待っていたのは、余り知られていない。	ゆうせいしょーきんむじ、しばいのだいほんをしっぴつしながらちゃんすをまっていたのわ、あまりしられていない。	NO_LABEL
テレビドラマ化されて大ヒットした『木枯し紋次郎』シリーズの原作者として知られ、推理小説、サスペンス小説、恋愛論などのエッセイ他、歴史書等も著し、380冊近くもの著書を残した。	NO_PRONOUNCE	NO_LABEL
筆名の左保は、夫人の名前からとったもの。	ひつめいのさほわ、ふじんのなまえからとったもの。	NO_LABEL
晩年は、喧噪からの逃避と療養を兼ねて、紋次郎の出生地三日月村に似た三日月町が実在し、田澤義鋪や下村湖人を輩出した青年団運動の中心地佐賀県に移り住んだ。	ばんねんわ、けんそーからのとーひとりょーよーをかねて、もんじろーのしゅっしょーちみかずきむらににたみかつきちょーがじつざいし、たざわよしはるやしもむらこじんをはいしゅつしたせいねんだんうんどーのちゅーしんちさがけんにうつりすんだ。	NO_LABEL
以後その地で旺盛な執筆活動を継続し、九州さが大衆文学賞の創設・運営にも携わり後進を育てた。	NO_PRONOUNCE	NO_LABEL
2001年に佐賀を離れ、2002年10月21日、東京都狛江市の病院で逝去した。	にせんいちねんにさがをはなれ、にせんにねんじゅーがつにじゅういちにち、とーきょーとこまえしのびょーいんでせいきょした。	NO_LABEL
父は貿易商だった祖父の遺産を受け継いだが、財産を使い果たして貧困の中で育つ。	ちちわぼーえきしょーだったそふのいさんをうけついだが、ざいさんをつかいはたしてひんこんのなかでそだつ。	NO_LABEL
子供の頃から探偵小説を愛読し、雑誌『ロック』の懸賞小説にも応募した。	NO_PRONOUNCE	NO_LABEL
1948年、関東学院高等部卒業。	せんきゅうひゃくよんじゅうはちね、かんとーがくいんこーとーぶそつぎょー。	NO_LABEL
1952年から郵政省東京地方簡易保険局に勤務、労働組合の執行委員なども務めた。	せんきゅうひゃくごじゅうにねんからゆうせいしょーとーきょーちほーかんいほけんきょくにきんむ、ろーどーくみあいのしっこーいいんなどもつとめた。	NO_LABEL
1958年、全逓信労働組合の機関誌『全逓新聞』の懸賞小説に応募した「ある犠牲」が入選。	NO_PRONOUNCE	NO_LABEL
同年11月に飲酒運転の自動車に撥ねられ、全治8ヶ月の重傷を負い入院。	NO_PRONOUNCE	NO_LABEL
入院前に探偵小説誌『宝石』の懸賞小説に応募していた短編「闇の中の伝言」「九人目の犠牲者」が、1959年2月増刊号に発表。	NO_PRONOUNCE	NO_LABEL
1960年、『週刊朝日』『宝石』共同短編小説コンクールに「勲章」が佳作入選。	NO_PRONOUNCE	NO_LABEL
また退院後の療養中に執筆した初長篇『招かれざる客』が第5回江戸川乱歩賞候補次席となり、改稿版が1960年3月に刊行されて本格的な小説家デビューを果たした。	NO_PRONOUNCE	NO_LABEL
この年には『霧に溶ける』『結婚って何さ』『人喰い』の3長編を矢継ぎ早に発表、また郵政省を退職して作家専業となる。	NO_PRONOUNCE	NO_LABEL
1961年『人喰い』で第14回日本探偵作家クラブ賞を受賞。	NO_PRONOUNCE	NO_LABEL
『空白の起点』『真昼に別れるのはいや』『突然の明日』『暗い傾斜』『盗作の風景』など、ムーディでトリッキーな本格ミステリーの傑作・佳作を次々に発表し、「新本格派の旗手」と謳われる。	NO_PRONOUNCE	NO_LABEL
1962年発表の短編「六本木心中」で、推理小説的な趣向を廃した現代小説に挑戦、直木賞候補にもなった。	NO_PRONOUNCE	NO_LABEL
1970年、『小説現代』の新・股旅小説と銘打たれたシリーズで発表した「見返り峠の落日」で時代小説にも進出。	NO_PRONOUNCE	NO_LABEL
翌年「赦免花は散った」から書き継がれた『木枯し紋次郎』シリーズは中村敦夫主演でテレビドラマ化され、一大ブームを巻き起こすほどの人気作となった。	NO_PRONOUNCE	NO_LABEL
その後も、現代ものでは、誘拐ミステリーの傑作『真夜中の詩人』、アリバイ崩しと歴史推理を融合した『遥かなりわが愛を』、誘拐ものとタイムリミット・サスペンスを融合した『他殺岬』、密室トリックに新機軸を打ち出した『求婚の密室』、1990年以降も2時間サスペンスドラマでお馴染みのタクシー・ドライバー探偵夜明日出夫が活躍するシリーズ『アリバイの唄』などや、『取調室』シリーズ等、数多くの傑作・話題作を発表。	NO_PRONOUNCE	NO_LABEL
またミステリに官能小説の要素を取り入れた、官能サスペンスの分野を切り開いた。	またみすてりにかんのーしょーせつのよーそをとりいれた、かんのーさすぺんすのぶんやをきりひらいた。	NO_LABEL
ミステリー手法を積極的に取り入れた時代小説でも『さすらい街道』『地獄の辰無残捕物控』『半身のお紺シリーズ』『剣鬼啾々』『新大岡政談』『真田十勇士』『宮本武蔵』『夢と承知で』『俳人一茶捕物帖』等、多くの傑作・話題作をものにした。	NO_PRONOUNCE	NO_LABEL
作家活動中の42年間の作品は380作品に達する。	NO_PRONOUNCE	NO_LABEL
森村誠一は自身のウェブサイトで笹沢左保追悼式の様子をレポートし、サイト内で「笹沢左保特集」も公開した。	NO_PRONOUNCE	NO_LABEL
森村は未完となった『海賊船幽霊丸』の最終章を加筆して、一周忌に刊行した。	NO_PRONOUNCE	NO_LABEL
最盛期には月産1,500枚に達することもあったほどの多作でありながら、実験的な試みを多くの作品で行っているのは注目に値する。	NO_PRONOUNCE	NO_LABEL
極端に登場人物を少なくした『三人の登場人物』、官能ミステリーの試み『悪魔の部屋』、会話文のみで書かれたミステリー『どんでん返し』『同行者』、作中の犯人が仕掛けるトリックと作者が読者に仕掛けるトリックを融合した『後ろ姿の聖像』、2人の探偵役が毎回異なる推理をぶつけ合い対決する連作『セブン殺人事件』、著者自身が探偵役となって活躍する『真夜中に涙する太陽』、四重交換殺人に挑んだ『霧の晩餐』等、このような作品は枚挙に暇がない。	NO_PRONOUNCE	NO_LABEL
しかも成功作が多いという点でも、多作型の本格推理作家の中では異彩を放っている。	しかもせいこーさくがおーいとゆうてんでも、たさくがたのほんかくすいりさっかのなかでわいさいをはなっている。	NO_LABEL
推理小説の特殊性に、強いこだわりを持っていた。	すいりしょーせつのとくしゅせいに、つよいこだわりをもっていた。	NO_LABEL
小松左京のSF長編『日本沈没』が日本推理作家協会賞候補になった際、選考委員の中で受賞に最も強く反対したのが笹沢であった。	NO_PRONOUNCE	NO_LABEL
笹沢は江戸川乱歩賞の選考委員を務めていた際も、推理小説の枠が拡がりすぎて、本質が見失われつつある現状を憂いたコメントを繰り返している。	ささざわわえどがわらんぽしょーのせんこーいいんをつとめていたさいも、すいりしょーせつのわくがひろがりすぎて、ほんしつがみうしなわれつつあるげんじょーをうれいたこめんとをくりかえしている。	NO_LABEL
2000年に有栖川有栖、二階堂黎人、綾辻行人ら若手推理作家が中心となって結成された「本格ミステリ作家クラブ」にも、会員として名を連ねた。	NO_PRONOUNCE	NO_LABEL
有栖川は熱心な笹沢ファンで、その心酔ぶりは長編『マジックミラー』中の「アリバイ講義」や、『有栖川有栖の密室探求』などの著書からもよく窺える。	NO_PRONOUNCE	NO_LABEL
笹沢が死去した時には、追悼文も寄稿している。	ささざわがしきょしたときにわ、ついとーぶんもきこーしている。	NO_LABEL
1981年に著作200冊突破記念として書いた日本人論的エッセイ『明日はわが身』の世の中を憂える内容に、大きな共感が寄せられてベストセラーとなり、その主張を実践すべく1982年に「青年塾」を設立した。	NO_PRONOUNCE	NO_LABEL
年内に200回の講演をこなし、各地でそれぞれの青年塾が誕生、総会員数8500人を数え、教育委員会やPTAなどの協力による青少年非行非行化防止の運動が推進された。	ねんないににひゃっかいのこーえんをこなし、かくちでそれぞれのせいねんじゅくがたんじょー、そーかいいんすーはっせんごひゃくにんをかぞえ、きょーいくいーんかいやぴぃーてぃーえーなどのきょーりょくによるせいしょーねんひこーひこーかぼーしのうんどーがすいしんされた。	NO_LABEL
