ジュニパーネットワークスは、通信キャリア、データセンター、企業向けのルーター、スイッチ、次世代ネットワークセキュリティ機能、ネットワーク管理ソフトウェア、SDNソフトウェア等を開発、製造するアメリカ合衆国の企業である。	じゅにぱーねっとわーくすわ、つーしんきゃりあ、でーたせんたー、きぎょーむけのるーたー、すいっち、じせだいねっとわーくせきゅりてぃきのー、ねっとわーくかんりそふとうぇあ、えすでぃーえぬそふとうぇあとーをかいはつ、せいぞーするあめりかがっしゅーこくのきぎょーである。	NO_LABEL
ジュニパーの製品は、複数の機器を光接続または専用ケーブルで接続し、単一のネットワーク機器として管理する技術に下記がある	じゅにぱーのせいひんわ、ふくすーのききをひかりせつぞくまたわせんよーけーぶるでせつぞくし、たんいつのねっとわーくききとしてかんりするぎじゅつにかきがある	NO_LABEL
資格認定はパスした日から3年間有効で、有効期間内に再認定されなければ失効する。	しかくにんていわぱすしたひからさんねんかんゆーこーで、ゆーこーきかんないにさいにんていされなければしっこーする。	NO_LABEL
<br>	NO_PRONOUNCE	NO_LABEL
再認定は同トラックの同試験か上位試験にパスすることで行われるが、JNCIEだけは下位試験のJNCIPにパスすることで行う。	NO_PRONOUNCE	NO_LABEL
<br>	NO_PRONOUNCE	NO_LABEL
再認定後の有効期間は、再認定された日から始まる3年間となる。	さいにんていごのゆーこーきかんわ、さいにんていされたひからはじまるさんねんかんとなる。	NO_LABEL
・トレーニングコースを受講する<br>	NO_PRONOUNCE	NO_LABEL
・トレーニングコースのテキストを読む<br>	NO_PRONOUNCE	NO_LABEL
・オライリー社出版の書籍を読む<br>	NO_PRONOUNCE	NO_LABEL
・Day One Booksを読む<br>	NO_PRONOUNCE	NO_LABEL
・vSRXやvMXの試用版を使う<br>	NO_PRONOUNCE	NO_LABEL
・TechLibraryを読む<br>	NO_PRONOUNCE	NO_LABEL
など	など	NO_LABEL
