『竹林はるか遠く－日本人少女ヨーコの戦争体験記』は、日系米国人作家のヨーコ・カワシマ・ワトキンズによる自伝的小説。	NO_PRONOUNCE	NO_LABEL
1986年にアメリカで出版された。	せんきゅうひゃくはちじゅうろくねんにあめりかでしゅっぱんされた。	NO_LABEL
作者のヨーコ自身が11歳だった第二次世界大戦の終戦時に体験した朝鮮半島北部のから、を経て日本へ帰国する際の、朝鮮半島を縦断する決死の体験や、引揚後の苦労が描かれている。	さくしゃのよーこじしんがじゅういっさいだっただいにじせかいたいせんのしゅーせんじにたいけんしたちょーせんはんとーほくぶのから、をへてにっぽんえきこくするさいの、ちょーせんはんとーをじゅーだんするけっしのたいけんや、ひきあげごのくろーがえがかれている。	NO_LABEL
戦争の悲惨さを訴える資料として、また、中学校用の副教材として多くの学校で使用されている。	せんそーのひさんさをうったえるしりょーとして、また、ちゅーがっこーよーのふくきょーざいとしておーくのがっこーでしよーされている。	NO_LABEL
一方、加害者国家である日本の背景を一切語らずに一部朝鮮人の非道暴行を描写するなどの点で、韓国系アメリカ人による反発・使用禁止運動を受け、また韓国メディアも批判し、史実誤謬の指摘に発して捏造論まで提唱されている。	NO_PRONOUNCE	NO_LABEL
韓国では2005年に『』として訳出され、当初はまずまずの評価だったが、後に「ヨーコ物語論争」が炎上したため版元は発売中止した。	NO_PRONOUNCE	NO_LABEL
遅れて日本語版『竹林はるか遠く──日本人少女ヨーコの戦争体験記』は2013年7月19日にハート出版より発売。	NO_PRONOUNCE	NO_LABEL
続編の、"My Brother, My Sister, and I" は2015年に続・竹林はるか遠く-兄と姉とヨーコの戦後物語という邦題でハート出版から発売された。	NO_PRONOUNCE	NO_LABEL
本書の著者ヨーコ・カワシマ・ワトキンズは、1933年青森で生まれた。	ほんしょのちょしゃよーこかわしまわときんずわ、せんきゅうひゃくさんじゅうさんねあおもりでうまれた。	NO_LABEL
生後六ヶ月で南満州鉄道に勤務する父に連れられ、家族で朝鮮北部の羅南に移住。	せいごろくかげつでみなみまんしゅーてつどーにきんむするちちにつれられ、かぞくでちょーせんほくぶのらみなみにいじゅー。	NO_LABEL
朝鮮・咸鏡北道で11歳まで過ごす。	NO_PRONOUNCE	NO_LABEL
1945年日本の敗戦が濃厚になると、母親と姉とともに避難を開始し、を経由して日本へ逃れる。	せんきゅうひゃくよんじゅうごねんにっぽんのはいせんがのーこーになると、ははおやとあねとともにひなんをかいしし、をけいゆしてにっぽんえのがれる。	NO_LABEL
離れ離れになった兄とも後に再会を果たす。	はなればなれになったあにともごにさいかいをはたす。	NO_LABEL
帰国後、京都市内の女学校に入学。	きこくご、きょーとしないのじょがっこーににゅーがく。	NO_LABEL
働きながら学問に励み卒業すると、京都大学で英文学を学ぶ。	はたらきながらがくもんにはげみそつぎょーすると、きょーとだいがくでえいぶんがくをまなぶ。	NO_LABEL
卒業後、米軍基地で通訳として勤務していたが、結婚し渡米。	そつぎょーご、べいぐんきちでつーやくとしてきんむしていたが、けっこんしとべい。	NO_LABEL
アメリカの子供たちに日本文化を伝える活動をしていた。	あめりかのこどもたちににっぽんぶんかをつたえるかつどーをしていた。	NO_LABEL
1976年になってヨーコは当時の逃避の詳細を兄に問い、その様子を1986年に本書にまとめた。	せんきゅうひゃくななじゅうろくねんになってよーこわとーじのとーひのしょーさいをあににとい、そのよーすをせんきゅうひゃくはちじゅうろくねんにほんしょにまとめた。	NO_LABEL
この物語の続編に"My Brother, My Sister, and I" がある。	NO_PRONOUNCE	NO_LABEL
川嶋一家5人は朝鮮半島東北部の町・で、戦時下ではあるが、それなりに平和に暮らしていた。	NO_PRONOUNCE	NO_LABEL
1945年のある日、とは慰問に訪れた軍病院で、負傷兵伍長と知り合う。	せんきゅうひゃくよんじゅうごねんのあるひ、とわいもんにおとずれたぐんびょーいんで、ふしょーへいごちょーとしりあう。	NO_LABEL
数週間後、松村伍長は川嶋家をお礼に訪れ、その後もたびたび訪れ、川嶋一家と親密となる。	すーしゅーかんご、まつむらごちょーわかわしまかをおれいにおとずれ、そのごもたびたびおとずれ、かわしまかずやとしんみつとなる。	NO_LABEL
この頃、朝鮮半島北部にもB-29が爆撃に時々現れ、また、日本敗北の気配を読み取って、半島内に反日朝鮮人共産主義同盟、朝鮮共産党軍が組織されつつあった。	このころ、ちょーせんはんとーほくぶにもびーにじゅうくがばくげきにときどきあらわれ、また、にっぽんはいぼくのけはいをよみとって、はんとーないにはんにちちょーせんじんきょーさんしゅぎどーめい、ちょーせんきょうさんとーぐんがそしきされつつあった。	NO_LABEL
1945年7月29日深夜、松村伍長がソ連軍が侵攻してくることを一家に伝え、すぐに町を脱出することを勧める。	せんきゅうひゃくよんじゅうごねんしちがつにじゅうきゅうにちしんや、まつむらごちょーがそれんぐんがしんこーしてくることをいっかにつたえ、すぐにまちをだっしゅつすることをすすめる。	NO_LABEL
父とは不在だったが、ソ連軍は既に近くに迫っており、2人に連絡する時間はもはやなく、書置きを残して、母と擁子と好の三人は最低限の荷物と財産を持って、松村伍長の勧めどおり赤十字列車に乗って羅南を脱出した。	ちちとわふざいだったが、それんぐんわすでにちかくにせまっており、ふたりにれんらくするじかんわもはやなく、かきおきをのこして、ははとよーことよしみのさんにんわさいていげんのにもつとざいさんをもって、まつむらごちょーのすすめどーりせきじゅーじれっしゃにのってらみなみをだっしゅつした。	NO_LABEL
列車はその後まで70キロの地点で爆撃に遭い、機関車が破壊されたので、三人は列車を降り、徒歩にて京城を目指す。	れっしゃわそのごまでななじゅうきろのちてんでばくげきにあい、きかんしゃがはかいされたので、さんにんわれっしゃをおり、とほにてけいじょーをめざす。	NO_LABEL
しかし半島内は既に、ソ連軍と呼応した、朝鮮共産党軍の兵士によって、北から南へ逃走中の日本人は片っ端から殺害され、日本人の遺体は金歯を引き抜かれ身ぐるみ剥がされ、日本人の土地家屋財産などが奪われ、日本人の若い女を見つけると草むらや路地裏に引きずってでも強姦されていた。	しかしはんとーないわすでに、それんぐんとこおーした、ちょーせんきょうさんとーぐんのへいしによって、きたからみなみえとーそーちゅーのにっぽんじんわかたっぱしからさつがいされ、にっぽんじんのいたいわきんばをひきぬかれみぐるみへがされ、にっぽんじんのとちかおくざいさんなどがうばわれ、にっぽんじんのわかいおんなをみつけるとくさむらやろじうらにひきずってでもごーかんされていた。	NO_LABEL
しかし、彼らを怒らせたら他の日本人が集まる避難所を攻撃されるとされ、周囲にいた日本人難民は反撃できないで、悲鳴を聞いても黙って耐えるという地獄絵図と化していた。	しかし、かれらをおこらせたらたのにっぽんじんがあつまるひなんじょをこーげきされるとされ、しゅーいにいたにっぽんじんなんみんわはんげきできないで、ひめいをきいてもだまってたえるとゆうじごくえずとかしていた。	NO_LABEL
擁子達三人は、まで列車で移動し、衣食住は極貧であったが、赤十字病院やアメリカ軍の残した残飯を漁ったり、髪を切り男装したりと知恵を絞り、何とか無事に生き残り、秋に連絡船で福岡に帰国する。	よーこたちさんにんわ、までれっしゃでいどーし、いしょくじゅーわごくひんであったが、せきじゅーじびょーいんやあめりかぐんののこしたざんぱんをあさったり、かみをきりだんそーしたりとちえをしぼり、なんとかぶじにいきのこり、あきにれんらくせんでふくおかにきこくする。	NO_LABEL
ところが、帰国後も彼女たちを待ち受けたのは、夢に見た美しい祖国ではなかった。	ところが、きこくごもかのじょたちをまちうけたのわ、ゆめにみたうつくしいそこくでわなかった。	NO_LABEL
唯一、空襲を受けずに済んだ京都へ出向くが、期待していた父母両方の祖父母が、青森で空襲で死亡したことが分かり、京都駅で母が病死する。	ゆいいつ、くーしゅーをうけずにすんだきょーとえでむくが、きたいしていたちちははりょーほーのそふぼが、あおもりでくーしゅーでしぼーしたことがわかり、きょーとえきでははがびょーしする。	NO_LABEL
孤児となった擁子と好は、必死で残飯をあさり、駅で野宿して生き延びる。	こじとなったよーことよしみわ、ひっしでざんぱんをあさり、えきでのじゅくしていきのびる。	NO_LABEL
母の願いで、学校にだけは通いつづけるが、そこでは貧しい擁子に心無い言葉を浴びせる裕福な子供達が待ち受けていた。	ははのねがいで、がっこーにだけわかよいつずけるが、そこでわまずしいよーこにこころないことばをあびせるゆーふくなこどもたちがまちうけていた。	NO_LABEL
しかし、親切な夫妻と、再会した松村伍長の支えで、姉妹で働きながら何とか生活基盤を整えて行った。	しかし、しんせつなふさいと、さいかいしたまつむらごちょーのささえで、しまいではたらきながらなんとかせいかつきばんをととのえていった。	NO_LABEL
父と兄が生きていることだけを信じて、毎週末舞鶴港で、朝鮮からの避難民の中から兄を探した。	ちちとあにがいきていることだけをしんじて、まいしゅーまつまいずるこーで、ちょーせんからのひなんみんのなかからあにをさがした。	NO_LABEL
松村伍長の計らいで、ラジオで探し人として、父と兄の名前が呼ばれた。	まつむらごちょーのはからいで、らじおでさがしひととして、ちちとあにのなまえがよばれた。	NO_LABEL
そんなある春の日、朝鮮風の格好をした男性が、彼女達の家をたずねて来た…。	そんなあるはるのひ、ちょーせんふーのかっこーをしただんせいが、かのじょたちのいえをたずねてきたさいれんす	NO_LABEL
2005年、『ヨーコ・イヤギ』が出版されたとき、「なぜ日本と中国ではこの本の出版が禁止されたのか」というキャッチコピーの効果もあり、好調な売れ行きであり、目立った社会的反動も起こらなかった。	NO_PRONOUNCE	NO_LABEL
この時期の韓国の書評も、作品を肯定的に受けとめ、あるものでは反戦的さらには植民地政策に批判的とまで解釈して紹介している	このじきのかんこくのしょひょーも、さくひんをこーていてきにうけとめ、あるものでわはんせんてきさらにわしょくみんちせいさくにひはんてきとまでかいしゃくしてしょーかいしている	NO_LABEL
しかし2007年にもなると、英語の原作がアメリカの教科で使用されていることに対する韓国系の父兄の反発が顕著化し、この「ヨーコ物語論争」に加わった韓国メディアも、批判的に転じた。	NO_PRONOUNCE	NO_LABEL
作者の「自伝」は捏造と論じられ、事実の歪曲とする点が追求された。	NO_PRONOUNCE	NO_LABEL
果ては作者の父親の戦犯論まで浮上し、訳本の出版社も販売を中止した。	はてわさくしゃのちちおやのせんぱんろんまでふじょーし、やくほんのしゅっぱんしゃもはんばいをちゅーしした。	NO_LABEL
この本には、終戦直後に避難民と化した日本人女性に性的暴行を行った朝鮮人の記述があったため、韓国系アメリカ人の生徒や父兄の反発を買い、2006年9月頃をかわきりに、禁止運動に発展した。	このほんにわ、しゅーせんちょくごにひなんみんとかしたにほんじんじょせいにせいてきぼうこーをおこなったちょーせんじんのきじゅつがあったため、かんこくけいあめりかじんのせいとやふけいのはんぱつをかい、にせんろくねんくがつごろをかわきりに、きんしうんどーにはってんした。	NO_LABEL
作者の地元ボストンの近郊地区では、2006年11月、いったん使用停止処分となっている。	さくしゃのじもとぼすとんのきんこーちくでわ、にせんろくねんじゅーいちがつ、いったんしよーていししょぶんとなっている。	NO_LABEL
ボストンの地元紙では、韓国系アメリカ人の生徒の保護者全体として「人種差別的かつ露骨な性描写」と要約した。	NO_PRONOUNCE	NO_LABEL
同じひとりの父親の発言として、韓国人の男性は女性暴行するものだという先入観が生まれてしまう危惧と、この年齢層にレイプ内容は刺激的すぎるという批判が掲載されている。	おなじひとりのちちおやのはつげんとして、かんこくじんのだんせいわじょせいぼーこーするものだとゆうせんにゅーかんがうまれてしまうきぐと、このねんれいそーにれいぷないよーわしげきてきすぎるとゆうひはんがけいさいされている。	NO_LABEL
他方、作品を非常に評価する韓国系生徒の発言もあった。	たほー、さくひんをひじょーにひょーかするかんこくけいせいとのはつげんもあった。	NO_LABEL
また一般の生徒の母親や教師からは、作品や作者の招請講義を強く支持する意見も出た。	またいっぱんのせいとのははおややきょーしからわ、さくひんやさくしゃのしょーせいこーぎをつよくしじするいけんもでた。	NO_LABEL
委員会は全員一致で教材使用を停止したが、委員長は、作品の発禁処分ではなく、史観の偏りをただす補足説明時間の工面困難という、実践上不可能判断だ、と説明した。	いーんかいわぜんいんいっちできょーざいしよーをていししたが、いーんちょーわ、さくひんのはっきんしょぶんでわなく、しかんのかたよりをただすほそくせつめいじかんのくめんこんなんとゆう、じっせんじょーふかのーはんだんだ、とせつめいした。	NO_LABEL
その後、2007年1月の学校協議会で再検討がされ、この地区では授業を修正したうえで教材としての使用が再開された。	そのご、にせんななねんいちがつのがっこーきょーぎかいでさいけんとーがされ、このちくでわじゅぎょーをしゅーせいしたうえできょーざいとしてのしよーがさいかいされた。	NO_LABEL
韓国系の児童保護者によるこの本の教材使用禁止運動は、同時にニューヨークなどで起こっており、ある学校では、ひとりの生徒が「誤った記述」の本が学習させられていると登校拒否の抗議にでると、2006年9月の時点で即刻、教材を撤回した。	NO_PRONOUNCE	NO_LABEL
また、訴えを受けて韓国領事館も介入し、政界や出版業界に是正要請の接触を図り、米教育当局へ嘆願書を提出するなど、活発なロビー活動が行われた。	また、うったえをうけてかんこくりょーじかんもかいにゅーし、せいかいやしゅっぱんぎょーかいにぜせいよーせいのせっしょくをはかり、べいきょーいくとーきょくえたんがんしょをていしゅつするなど、かっぱつなろびーかつどーがおこなわれた。	NO_LABEL
また、韓国系アメリカ人からは、この小説は終戦間際の本当の体験談ではなく、捏造ではないかと疑問視する声が聞こえ始め、同意見の声も一部の教育者側に表れ始めた。	また、かんこくけいあめりかじんからわ、このしょーせつわしゅーせんまぎわのほんとーのたいけんだんでわなく、ねつぞーでわないかとぎもんしするこえがきこえはじめ、どーいけんのこえもいちぶのきょーいくしゃがわにあらわれはじめた。	NO_LABEL
史実の歪曲を理由に、マサチューセッツ州ボストン近郊カトリック系の学校と私立校の2校がこの本の教材使用を停止している。	NO_PRONOUNCE	NO_LABEL
この私立校の教師はこの教科書問題についての論文を発表しており、"" 誌に掲載されている。	NO_PRONOUNCE	NO_LABEL
しかし韓国国内にも、戦争の悲惨さを訴えている作品であり、あえて朝鮮人のみを悪く言っているわけではない、という意見が新聞で報じられている。	しかしかんこくこくないにも、せんそーのひさんさをうったえているさくひんであり、あえてちょーせんじんのみをわるくいっているわけでわない、とゆういけんがしんぶんでほーじられている。	NO_LABEL
一部の韓国紙や、在米韓国系の学生・保護者は、この体験談は捏造であると示唆・主張し、その根拠として辻褄の合わない歴史的誤謬があるとする。	NO_PRONOUNCE	NO_LABEL
具体的にはヨーコが住んでいた町に竹は生えない、米軍の韓国爆撃は1945年7月・8月時点では開始されていない、朝鮮の共産党兵が突入したのは1945年9月初頭以降、などを挙げている。	NO_PRONOUNCE	NO_LABEL
英語の"bamboo"という語は、実際は「竹」に限らず「笹」も含まれる。	NO_PRONOUNCE	NO_LABEL
そして笹は竹より寒冷地でも自生する。	そしてささわたけよりかんれいちでもじせいする。	NO_LABEL
作者は韓国紙に「どちらかといえば笹」だったと説明したが意思疎通せず、前言を一部翻したように報道された。	NO_PRONOUNCE	NO_LABEL
日本語の書籍には、この期間に朝鮮北部にB-29機が上空飛行し機雷投下など活動をおこなっていたことが記録されている。	にほんごのしょせきにわ、このきかんにちょーせんほくぶにびーにじゅうくきがじょーくーひこーしきらいとーかなどかつどーをおこなっていたことがきろくされている。	NO_LABEL
なので、ヨーコがこれを7月の時点で目撃したという作中の記述は時代錯誤にならない。	なので、よーこがこれをしちがつのじてんでもくげきしたとゆうさくちゅーのきじゅつわじだいさくごにならない。	NO_LABEL
韓国メディアの取材では、これは米国が爆撃開始した時期でないと疑問を投げかけられたが、作者は、見たのは爆撃機の姿であって爆撃ではない、と誤読である旨の反論をしている。	かんこくめでぃあのしゅざいでわ、これわべいこくがばくげきかいししたじきでないとぎもんをなげかけられたが、さくしゃわ、みたのわばくげききのすがたであってばくげきでわない、とごどくであるむねのはんろんをしている。	NO_LABEL
赤十字列車の停車は、空爆によるものだったが、作中では頭上に飛行機が聞こえたとあり米軍機と指定はされない。	せきじゅーじれっしゃのていしゃわ、くーばくによるものだったが、さくちゅーでわずじょーにひこーきがきこえたとありべいぐんきとしていわされない。	NO_LABEL
にも拘わらず、某紙では列車が米軍機の爆撃を受けたというのは時代錯誤と報じている。	にもかかわらず、ぼーしでわれっしゃがべいぐんきのばくげきをうけたとゆうのわじだいさくごとほーじている。	NO_LABEL
この空爆の日付は作中では不詳である。	このくーばくのひずけわさくちゅーでわふしょーである。	NO_LABEL
場所はソウルに到達するまであと45マイルの地点だった。	NO_PRONOUNCE	NO_LABEL
作者は避難中に遭遇した朝鮮人の武装兵のことを「朝鮮人の共産兵」として登場させている。	NO_PRONOUNCE	NO_LABEL
しかし強いて問われれば、それらが絶対に共産兵であるとは断定しきれない事は認めている。	しかししーてとわれれば、それらがぜったいにきょーさんへいであるとわだんていしきれないことわみとめている。	NO_LABEL
後にした区域はすでに共産主義者の掌中にあると周囲からは言われたことと符合して、そのように合点したものだ、と釈明する。	ごにしたくいきわすでにきょーさんしゅぎしゃのしょーちゅーにあるとしゅーいからわいわれたこととふごーして、そのよーにがてんしたものだ、としゃくめいする。	NO_LABEL
また、序章では、筆者は母親から「抗日共産軍」を形成している、と教わっている。	NO_PRONOUNCE	NO_LABEL
この「抗日共産軍」という表現は、じつはソビエト軍やこれと呼応・合流した朝鮮人よりも、他では中国共産党の人民解放軍やそれを援護する現地武装兵力に対して使われる呼称なので、これと特定したひとつの組織を指すとはいえない。	NO_PRONOUNCE	NO_LABEL
しかし英語の原文では"Communist"という記述になっているため固有名詞とされ、これは朝鮮人民軍としか解釈の余地がなく、1945年にはまだ正式に組織されていない目撃談は歴史の歪曲という論調が張られ、そうした報道や作者への尋問がされる。	NO_PRONOUNCE	NO_LABEL
ヨーコが目撃した朝鮮人の戦闘員については、例えばハーバード大学のカーター・エッカート教授も、正式に組織された共産軍はこの頃はないはずだ	よーこがもくげきしたちょーせんじんのせんとーいんについてわ、たとえばはーばーどだいがくのかーたーえっかーときょーじゅも、せいしきにそしきされたきょーさんぐんわこのころわないはずだ	NO_LABEL
とするが、羅南あたりにも地域に分散した共産党分子は活動していたかもしれない、と、完全否定はしていない。	とするが、らみなみあたりにもちいきにぶんさんしたきょーさんとーぶんしわかつどーしていたかもしれない、と、かんぜんひていわしていない。	NO_LABEL
エッカートは、もし「抗日共産軍」がいたとすれば、ソ連傘下で満州に待機していたキム・イルソン率いるゲリラ部隊であるが、これが朝鮮入りしたのは9月初頭であるという認識を示している。	NO_PRONOUNCE	NO_LABEL
しかしこれは日本側資料と食い違うのであって、例えばソ連が8月8日に宣戦布告したその日のうちに、朝鮮兵約80名がソ連の快速艇に乗って到来し、土里で警察署を襲撃した事件が報告されている。	NO_PRONOUNCE	NO_LABEL
ソ連領土から、豆満江わたって土里までほんの"指呼"の距離しかない。	NO_PRONOUNCE	NO_LABEL
「朝鮮共産党軍の兵士」の死体からは軍服がはぎとられ、ヨーコと母・姉は変装に使用しているが、この点についても、韓国メディアは「人民解放軍」以外の解釈はできないとし、組織されていない軍のユニフォームなど当時は存在しないので虚偽である、という報道をしている。	NO_PRONOUNCE	NO_LABEL
この抗議活動の渦中、韓国の聯合ニュース発でヨーコの父親の731部隊の幹部疑惑まで報道された。	このこーぎかつどーのかちゅー、かんこくのれんごーにゅーすはつでよーこのちちおやのななさんいちぶたいのかんぶぎわくまでほーどーされた。	NO_LABEL
ヨーコは、その父親の職業について「満洲で働く高級官僚」といいつつ、続編では「外交官」としており、その仕事内容は不透明なままである。	NO_PRONOUNCE	NO_LABEL
しかしそれはソ連軍に命を狙われるような満州の利権がらみの仕事という松村伍長の言及より、その仕事とは731細菌兵器部隊所属の任務に違いないという憶測する。	NO_PRONOUNCE	NO_LABEL
ヨーコの父親は「カワシマ・ヨシオ」あり、「カワシマ」姓は731部隊にいたから合致し、いずれとも「長期のシベリア抑留を受けていた」経歴があるのは更なる追加証拠である。	NO_PRONOUNCE	NO_LABEL
また、ヨーコはAmazon.comの販売ページに示された略歴で1933年旧満州奉天生まれとされたのが真の生誕地であるが、奉天は731部隊が所在した場所で、小説の続編では日本の青森生まれとした、と論じられる。	また、よーこわあまぞんどっとこむのはんばいぺーじにしめされたりゃくれきでせんきゅうひゃくさんじゅうさんねきゅーまんしゅーほーてんうまれとされたのがしんのせいたんちであるが、ほーてんわななさんいちぶたいがしょざいしたばしょで、しょーせつのぞくへんでわにっぽんのあおもりうまれとした、とろんじられる。	NO_LABEL
作者自身は、これを否定し、父親は満鉄社員であると証言している。	さくしゃじしんわ、これをひていし、ちちおやわまんてつしゃいんであるとしょーげんしている。	NO_LABEL
この著作により作者は1998年、ボストン公共図書館の推奨児童文学者に選定され、アメリカの平和団体「ピース・アビー財団」から「The Courage of Conscience Award」を受賞している。	NO_PRONOUNCE	NO_LABEL
