ドイツ国家人民党は、ヴァイマル共和政期のドイツの保守・右派政党。	NO_PRONOUNCE	NO_LABEL
ドイツ国家国民党、ドイツ国粋人民党とも訳される。	どいつこっかこくみんとー、どいつこくすいじんみんとーともやくされる。	NO_LABEL
第一次世界大戦後、共和政になった直後の1918年12月4日に、帝政時代の政党を改組する形で誕生した。	だいいちじせかいたいせんご、きょーわせいになったちょくごのせんきゅうひゃくじゅうはちねんじゅーにがつよっかに、ていせいじだいのせいとーをかいそするかたちでたんじょーした。	NO_LABEL
大戦中に200万人のメンバーを擁した戦争翼賛大衆組織とも人的一貫性を持つ。	たいせんちゅーににひゃくまんにんのめんばーをよーしたせんそーよくさんたいしゅーそしきともじんてきいっかんせいをもつ。	NO_LABEL
旧保守党員だけではなく、一部の旧自由主義者も結集した。	きゅーほしゅとーいんだけでわなく、いちぶのきゅーじゆーしゅぎしゃもけっしゅーした。	NO_LABEL
彼らは大戦中に領土併合主義を唱えて祖国党と近い立場を取ったために自由主義勢力に帰れなくなっていた者たちだった。	かれらわたいせんちゅーにりょーどへいごーしゅぎをとなえてそこくとーとちかいたちばをとったためにじゆーしゅぎせいりょくにかえれなくなっていたものたちだった。	NO_LABEL
主な支持層はユンカーや実業家などであり、伝統的で保守的な政策を主張し、富裕層の利益を最優先にする「ブルジョワ政党」であった。	NO_PRONOUNCE	NO_LABEL
ドイツ皇室の復活を求める帝政復古派も多く、ヴァイマル憲法およびそれが体現した共和制や議会政治に反対した。	NO_PRONOUNCE	NO_LABEL
また反社会主義・反共主義の立場をとり、社会主義者の裏切りのせいで敗戦したという「背後からの一突き」説を喧伝して左翼政党を非難した。	NO_PRONOUNCE	NO_LABEL
ヴェルサイユ条約にも強い敵愾心を示した。	NO_PRONOUNCE	NO_LABEL
また党の初期の頃にはドイツ民族至上主義者も多数参加していたので、彼らを中心に人種差別的な反ユダヤ主義を声高に唱えた時期もあるが、これは帝政時代からの伝統的保守勢力から不評であり、結局この民族至上主義者の一派は1922年にドイツ民族自由党という別政党を立ち上げて分離している。	またとーのしょきのころにわどいつみんぞくしじょーしゅぎしゃもたすーさんかしていたので、かれらをちゅーしんにじんしゅさべつてきなはんゆだやしゅぎをこわだかにとなえたじきもあるが、これわていせいじだいからのでんとーてきほしゅせいりょくからふひょーであり、けっきょくこのみんぞくしじょーしゅぎしゃのいっぱわせんきゅうひゃくにじゅうにねんにどいつみんぞくじゆーとーとゆうべつせいとーをたちあげてぶんりしている。	NO_LABEL
様々な国粋主義組織を支持団体として傘下に収めていたため、比較的選挙に強い安定した党だった。	さまざまなこくすいしゅぎそしきをしじだんたいとしてさんかにおさめていたため、ひかくてきせんきょにつよいあんていしたとーだった。	NO_LABEL
保守的な政治姿勢に固執したため、社民党、中央党、民主党の穏健左派・リベラルの連立政権「」で構成されることが多いヴァイマル共和国政府に対しては基本的に野党の立場をとった。	NO_PRONOUNCE	NO_LABEL
1924年9月のドーズ案関連法案の国会採決の際にヴィルヘルム・マルクス首相は国家人民党の取り込みを狙って同党を入閣させようと工作したが、結局同党議員団の投票が分裂しただけに終わった。	NO_PRONOUNCE	NO_LABEL
この分裂の責任を取って党首は辞職することになった。	このぶんれつのせきにんをとってとーしゅわじしょくすることになった。	NO_LABEL
だが党はドーズ案に一貫して反対したと誇った。	だがとーわどーずあんにいっかんしてはんたいしたとほこった。	NO_LABEL
1925年から1928年頃にはやや中道化し、ヴァイマル共和国政府に協力することもあった。	NO_PRONOUNCE	NO_LABEL
しかし1928年5月の総選挙でもともとの支持層がやなどに移行したこともあって重大な敗北を喫した。	しかしせんきゅうひゃくにじゅうはちねんごがつのそーせんきょでもともとのしじそーがやなどにいこーしたこともあってじゅーだいなはいぼくをきっした。	NO_LABEL
これがきっかけとなり、1928年秋には対政府強硬派のアルフレート・フーゲンベルクが党首となったため、同党は再度保守野党の立場へと戻った。	これがきっかけとなり、せんきゅうひゃくにじゅうはちねんあきにわたいせいふきょーこーはのあるふれーとふーげんべるくがとーしゅとなったため、どーとーわさいどほしゅやとーのたちばえともどった。	NO_LABEL
一方フーゲンベルクは国家人民党内で国民主義的右派と呼ばれていた反君主制論者であり、帝政復古主義者の前党首クーノ・フォン・ヴェスタープ伯爵とは立場が違った。	NO_PRONOUNCE	NO_LABEL
1929年6月にヤング案が成立するとフーゲンベルク率いる国家人民党は、これに激しく反発し、アドルフ・ヒトラー率いる国家社会主義ドイツ労働者党とフランツ・ゼルテ率いる鉄兜団と反ヤング案で連携をとった。	せんきゅうひゃくにじゅうきゅうねろくがつにやんぐあんがせいりつするとふーげんべるくひきいるこっかじんみんとーわ、これにはげしくはんぱつし、あどるふひとらーひきいるこっかしゃかいしゅぎどいつろーどーしゃとーとふらんつぜるてひきいるてつかぶとだんとはんやんぐあんでれんけいをとった。	NO_LABEL
しかしフーゲンベルクの妥協を知らぬ反政府闘争はヒンデンブルク大統領やその大統領内閣首相ブリューニングの不興を買った。	しかしふーげんべるくのだきょーをしらぬはんせいふとーそーわひんでんぶるくだいとーりょーやそのだいとーりょーないかくしゅしょーぶりゅーにんぐのふきょーをかった。	NO_LABEL
政府はフーゲンベルクを国家人民党内で孤立させようとしたが、数多くのメディアを傘下に収めるフーゲンベルクの影響力は絶大でうまくいかず、結局前党首ウェスタープ伯爵ら親政府派が1930年7月の国会解散後にを結成して離党することになった<ref name="アイクIII346/354">アイク、III巻 p.346/354</ref>。	NO_PRONOUNCE	NO_LABEL
1931年10月にはナチ党や鉄兜団とともに保守・右翼反政府派の共闘体制「」を構築し、ブリューニング内閣攻撃を強化したが、これは国家人民党の党勢を挽回という意図が大きかったため、ヒトラーが反発し、間もなくナチ党はこの共闘関係から離れた。	NO_PRONOUNCE	NO_LABEL
1932年6月ブリューニング内閣崩壊後のフランツ・フォン・パーペン内閣には国家人民党員が入閣しているが、党としては同内閣と一切関係はないという立場を取った。	せんきゅうひゃくさんじゅうにねんろくがつぶりゅーにんぐないかくほーかいごのふらんつふぉんぱーぺんないかくにわこっかじんみんとーいんがにゅーかくしているが、とーとしてわどーないかくといっさいかんけいわないとゆうたちばをとった。	NO_LABEL
パーペン内閣が倒れ、クルト・フォン・シュライヒャー将軍の内閣が成立すると、パーペンの仲介でハルツブルク戦線崩壊以来接触がなくなっていたナチ党と再び提携に動き、1933年1月27日にはフーゲンベルクとヒトラーが会談し、ここでナチ党と国家人民党の連立によるヒトラー内閣を樹立することが大筋で合意された。	ぱーぺんないかくがたおれ、くるとふぉんしゅらいひゃーしょーぐんのないかくがせいりつすると、ぱーぺんのちゅーかいではるつぶるくせんせんほーかいいらいせっしょくがなくなっていたなちとーとふたたびていけいにうごき、せんきゅうひゃくさんじゅうさんねいちがつにじゅうしちにちにわふーげんべるくとひとらーがかいだんし、ここでなちとーとこっかじんみんとーのれんりつによるひとらーないかくをじゅりつすることがおーすじでごーいされた。	NO_LABEL
1933年1月30日ナチス・国家人民党・鉄兜団・貴族層など保守派・右派の連立によりヒトラー内閣が成立した。	NO_PRONOUNCE	NO_LABEL
国家人民党からは党首のフーゲンベルクが経済相兼食糧農業相、フランツ・ギュルトナーが法相として入閣した。	こっかじんみんとーからわとーしゅのふーげんべるくがけいざいしょーけんしょくりょーのーぎょーしょー、ふらんつぎゅるとなーがほーしょーとしてにゅーかくした。	NO_LABEL
当時ナチ党は第一党であったが、連立与党の国家人民党と足しても国会で過半数を得られていなかった。	とーじなちとーわだいいっとーであったが、れんりつよとーのこっかじんみんとーとたしてもこっかいでかはんすーをえられていなかった。	NO_LABEL
したがってヒトラー内閣以前の三代の大統領内閣と同様に国会から内閣不信任案を突き付けられる危険性があった。	したがってひとらーないかくいぜんのみじろのだいとーりょーないかくとどーよーにこっかいからないかくふしんにんあんをつきつけられるきけんせいがあった。	NO_LABEL
その対策は今まで通り国会無視の大統領緊急令による政治を行うか、総選挙で与党過半数を狙うか、中央党を与党に引き込むか、共産党議員の資格を停止するかのいずれかであった。	そのたいさくわいままでとーりこっかいむしのだいとーりょーきんきゅーれいによるせいじをおこなうか、そーせんきょでよとーかはんすーをねらうか、ちゅーおーとーをよとーにひきこむか、きょーさんとーぎいんのしかくをていしするかのいずれかであった。	NO_LABEL
ヒトラーは総選挙を希望したが、フーゲンベルクはナチ党が大勝して自党の政権内での影響力が低下する恐れがあるので総選挙を嫌がり、共産党を禁止してその議席を剥奪することでナチ党と国家人民党で過半数を得るべきと主張した。	ひとらーわそーせんきょをきぼーしたが、ふーげんべるくわなちとーがたいしょーしてじとーのせいけんないでのえいきょーりょくがていかするおそれがあるのでそーせんきょをいやがり、きょーさんとーをきんししてそのぎせきをはくだつすることでなちとーとこっかじんみんとーでかはんすーをえるべきとしゅちょーした。	NO_LABEL
しかし結局ヒトラーが押し切って総選挙が行われることになった。	しかしけっきょくひとらーがおしきってそーせんきょがおこなわれることになった。	NO_LABEL
3月5日の選挙の結果、ナチ党は44%の得票を得る一方、国家人民党は8%の得票しか得られなかった。	さんがついつかのせんきょのけっか、なちとーわよんじゅうよんぱーせんとのとくひょーをえるいっぽー、こっかじんみんとーわはちぱーせんとのとくひょーしかえられなかった。	NO_LABEL
3月9日に共産党の議席が剥奪されることになったが、再選挙を行わず議席ごと抹消されたので総議席数が減り、ナチ党が単独過半数を得た。	さんがつここのかにきょーさんとーのぎせきがはくだつされることになったが、さいせんきょをおこなわずぎせきごとまっしょーされたのでそーぎせきすーがへり、なちとーがたんどくかはんすーをえた。	NO_LABEL
国家人民党は急速に政権内での影響力を弱め、1933年6月27日に党首フーゲンベルクが閣僚職を辞任したのを機にヒトラーから圧力をかけられて党は自主解散させられた。	こっかじんみんとーわきゅーそくにせいけんないでのえいきょーりょくをよわめ、せんきゅうひゃくさんじゅうさんねろくがつにじゅうしちにちにとーしゅふーげんべるくがかくりょーしょくをじにんしたのをきにひとらーからあつりょくをかけられてとーわじしゅかいさんさせられた。	NO_LABEL
1920年代にはドイツ社会民主党に次ぐ第二党の地位を保持し、政界に強い影響力を持っていたが、党分裂の影響で得票を落とし、1930年代には社民、ナチス、共産党、中央党に次ぐ第五党で推移した。	せんきゅうひゃくにじゅうねんだいにわどいつしゃかいみんしゅとーにつぐだいにとーのちいをほじし、せいかいにつよいえいきょーりょくをもっていたが、とーぶんれつのえいきょーでとくひょーをおとし、せんきゅうひゃくさんじゅうねんだいにわしゃみん、なちす、きょーさんとー、ちゅーおーとーにつぐだいごとーですいいした。	NO_LABEL
※1933年3月5日は、鉄兜団および副首相パーペンと結成した政党連合「黒・白・赤」により選挙に参加。	NO_PRONOUNCE	NO_LABEL
