エリカ・モントーヤは、アメリカ合衆国の女性ブラジリアン柔術家、総合格闘家。	えりかもんとーやわ、あめりかがっしゅーこくのじょせいぶらじりあんじゅーじゅつか、そーごーかくとーか。	NO_LABEL
カリフォルニア州ロサンゼルスサンペドロ出身。	かりふぉるにあしゅーろさんぜるすさんぺどろしゅっしん。	NO_LABEL
ネクスト・ジェネレーション・ファイティング・アカデミー所属。	NO_PRONOUNCE	NO_LABEL
クリス・ブレナンの弟子。	くりすぶれなんのでし。	NO_LABEL
12歳でブラジリアン柔術を始める。	じゅうにさいでぶらじりあんじゅーじゅつをはじめる。	NO_LABEL
1999年1月4日、総合格闘技デビュー。	せんきゅうひゃくきゅうじゅうきゅうねんいちがつよっか、そーごーかくとーぎでびゅー。	NO_LABEL
2000年、世界柔術選手権青帯の部で優勝を果たした。	にせんねん、せかいじゅーじゅつせんしゅけんあおたいのぶでゆーしょーをはたした。	NO_LABEL
2002年6月26日、AX Vol.4で初来日し、桜井亜矢と対戦。	にせんにねんろくがつにじゅうろくにち、あっくすぼりゅーむふぉーではつらいにちし、さくらいあやとたいせん。	NO_LABEL
腕ひしぎ十字固めで一本勝ちを収めた。	うでひしぎじゅーじかためでいっぽんがちをおさめた。	NO_LABEL
2003年1月24日、修斗で虎島尚子と対戦し、腕ひしぎ十字固めで一本勝ちを収めた。	にせんさんねんいちがつにじゅうよっか、しゅうとでとらじましょーことたいせんし、うでひしぎじゅーじかためでいっぽんがちをおさめた。	NO_LABEL
試合後には「星野育蒔と戦いたい」とコメントした。	NO_PRONOUNCE	NO_LABEL
2003年5月11日、全日本女子プロレス「創立35周年記念大会 The Future」でプロレスラー藤井巳幸と対戦し、三角絞めで一本勝ちを収めた。	NO_PRONOUNCE	NO_LABEL
2003年9月、カリフォルニア州立アーバイン大学に入学。	にせんさんねんくがつ、かりふぉるにあしゅーりつあーばいんだいがくににゅーがく。	NO_LABEL
2003年11月14日、SHOOTO - Warrior Spirit: Evolutionでジェイミー・リンと対戦予定であったが、リンが控室で負傷し中止となった。	NO_PRONOUNCE	NO_LABEL
2004年8月5日、スマックガールで辻結花とSGS特別ルールで対戦し、腕ひしぎ十字固めで一本負け。	NO_PRONOUNCE	NO_LABEL
2005年5月、アブダビコンバット女子60kg未満級に出場。	にせんごねんごがつ、あぶだびこんばっとじょしろくじゅうきろぐらむみまんきゅーにしゅつじょー。	NO_LABEL
1回戦でキーラ・グレイシーに敗れた。	いちかいせんできーらぐれいしーにやぶれた。	NO_LABEL
2005年6月28日、スマックガール初代ミドル級王座決定トーナメント1回戦で真武和恵と対戦予定であったが、脚の負傷により欠場となった。	にせんごねんろくがつにじゅうはちにち、すまっくがーるしょだいみどるきゅーおーざけっていとーなめんといちかいせんでまたけかずえとたいせんよていであったが、あしのふしょーによりけつじょーとなった。	NO_LABEL
