丸茂 藤平3月25日 - 1956年）は、日本の内務官僚、官選岩手県知事。	NO_PRONOUNCE	NO_LABEL
旧姓・両角。	NO_PRONOUNCE	NO_LABEL
長野県諏訪郡玉川村出身。	ながのけんすわぐんたまがわむらしゅっしん。	NO_LABEL
両角彦五郎の二男として生まれ、丸茂米作の養子となり、のち養父の長女「まつよ」と結婚した。	NO_PRONOUNCE	NO_LABEL
第一高等学校を卒業。	だいいちこーとーがっこーをそつぎょー。	NO_LABEL
1908年7月、京都帝国大学法科大学法律学科を卒業。	せんきゅうひゃくはちねんしちがつ、きょーとていこくだいがくほーかだいがくほーりつがっかをそつぎょー。	NO_LABEL
同年11月、文官高等試験行政科試験に合格。	どーねんじゅーいちがつ、ぶんかんこーとーしけんぎょーせいかしけんにごーかく。	NO_LABEL
1909年1月、内務省に入省し、拓殖制度取調事務嘱託となり大臣官房台湾課及び地方局拓殖事務取扱を嘱託。	せんきゅうひゃくきゅうねんいちがつ、ないむしょーににゅーしょーし、たくしょくせいどとりしらべじむしょくたくとなりだいじんかんぼーたいわんかおよびちほーきょくたくしょくじむとりあつかいをしょくたく。	NO_LABEL
同年5月、内務属となり鹿児島県揖宿郡長に就任。	どーねんごがつ、ないむぞくとなりかごしまけんいぶすきぐんちょーにしゅーにん。	NO_LABEL
以後、鹿児島県事務官・警察部長、愛知県警察部長、京都府警察部長、千葉県内務部長、内務省事務官兼内務監察官、復興局部長などを歴任。	NO_PRONOUNCE	NO_LABEL
1922年9月16日、岐阜市長に就任し、1924年4月11日に辞任。	せんきゅうひゃくにじゅうにねんくがつじゅうろくにち、ぎふしちょーにしゅーにんし、せんきゅうひゃくにじゅうよねんしがつじゅういちにちにじにん。	NO_LABEL
1928年1月10日、岩手県知事に就任。	せんきゅうひゃくにじゅうはちねんいちがつとおか、いわてけんちじにしゅーにん。	NO_LABEL
同年10月の陸軍特別大演習や昭和天皇行幸の準備と実施に忙殺された。	どーねんじゅーがつのりくぐんとくべつだいえんしゅーやしょーわてんのーぎょーこーのじゅんびとじっしにぼーさつされた。	NO_LABEL
同年12月26日、台湾総督府交通局総長に転じ、1929年9月13日に依願免本官となり退官した。	どーねんじゅーにがつにじゅうろくにち、たいわんそーとくふこーつーきょくそーちょーにてんじ、せんきゅうひゃくにじゅうきゅうねくがつじゅうさんにちにいがんめんほんかんとなりたいかんした。	NO_LABEL
1930年、豊橋市長に就任。	せんきゅうひゃくさんじゅうねん、とよはししちょーにしゅーにん。	NO_LABEL
隣接町村との合併、下水道整備、私立豊橋病院や公設消防の設置などに尽力し、1934年に辞任。	りんせつちょーそんとのがっぺい、げすいどーせいび、しりつとよはしびょーいんやこーせつしょーぼーのせっちなどにじんりょくし、せんきゅうひゃくさんじゅうよねんにじにん。	NO_LABEL
その後、1935年11月から1939年4月まで関東州大連市長を務めた。	そのご、せんきゅうひゃくさんじゅうごねんじゅーいちがつからせんきゅうひゃくさんじゅうきゅうねんしがつまでかんとーしゅーだいれんちょーをつとめた。	NO_LABEL
大連市長退任後は天津特別市顧問に就いた。	だいれんちょーたいにんごわてんしんとくべつしこもんについた。	NO_LABEL
