『ムチャな弁護士 あんたの代理人』は、原作:高井研一郎、監修:山崎司平、脚本:浅野拓による日本の漫画作品。	NO_PRONOUNCE	NO_LABEL
『ビックコミックスペリオール』にて、1987年から1990年にかけて連載された。	NO_PRONOUNCE	NO_LABEL
単行本はビッグコミックスより全6巻が刊行。	たんこーぼんわびっぐこみっくすよりぜんろくかんがかんこー。	NO_LABEL
弁護士真野論平はビンボー劇団「天津甘栗」の劇団員。	NO_PRONOUNCE	NO_LABEL
役者だけでは食べていけないので、法律事務所に勤めている。	やくしゃだけでわたべていけないので、ほーりつじむしょにつとめている。	NO_LABEL
渡瀬法律事務所の居候弁護士として、人々の悩みを解決していく。	わたせほーりつじむしょのいそーろーべんごしとして、ひとびとのなやみをかいけつしていく。	NO_LABEL
ここでは複数回登場する人物をまとめる。	ここでわふくすーかいとーじょーするじんぶつをまとめる。	NO_LABEL
小学館コミック あんたの代理人の既刊一覧	しょーがくかんこみっくあんたのだいりにんのきかんいちらん	NO_LABEL
