六文戦士ウェイダーは、長野県上田市を中心に活動するご当地ヒーロー、またその物語。	ろくもんせんしうぇいだーわ、ながのけんうえだしをちゅーしんにかつどーするごとーちひーろー、またそのものがたり。	NO_LABEL
戦国武将・真田幸村を象徴する赤い甲冑がモチーフとなっている。	NO_PRONOUNCE	NO_LABEL
およそ400年前の戦国時代に活躍した戦国武将、真田氏が開発した秘密の道具「機動甲冑」を身にまとったヒーロー。	NO_PRONOUNCE	NO_LABEL
地底世界「ベト」から現れた妖怪一族ゴッタクから市民を守る。	NO_PRONOUNCE	NO_LABEL
決め台詞は「ずねぇゴッタクをべちゃれ！」。	NO_PRONOUNCE	NO_LABEL
これは上田地方の方言で「意地の悪いろくでなしを始末しろ」という意味である。	NO_PRONOUNCE	NO_LABEL
製作・運営は市民の有志である「ウェイダープロジェクト」。	NO_PRONOUNCE	NO_LABEL
2012年にインターネット上でデザインが発表され、以降地元フリーペーパー「うえだNavi」での連載を経て、翌2013年4月に上田城跡公園で実物がデビューした。	NO_PRONOUNCE	NO_LABEL
平成25年度「長野県　地域発元気づくり支援金」補助事業。	NO_PRONOUNCE	NO_LABEL
長野県上田市。	ながのけんうえだし。	NO_LABEL
上田城跡公園内にある真田神社の古井戸から機動甲冑が現れた。	うえだじょーせきこーえんないにあるさなだじんじゃのこいどからきどーかっちゅーがあらわれた。	NO_LABEL
科学オタクの女の子、田々石子が調査した結果、その鎧には人間の力を何十倍にも強化する驚くべきテクノロジーが秘められていた。	かがくおたくのおんなのこ、ただいしこがちょーさしたけっか、そのよろいにわにんげんのちからをなにとべにもきょーかするおどろくべきてくのろじーがひめられていた。	NO_LABEL
と同時に、古い文献からその甲冑が目覚めたのは妖怪一族ゴッタクが復活するためだと予見した。	とどーじに、ふるいぶんけんからそのかっちゅーがめざめたのわよーかいいちぞくごったくがふっかつするためだとよけんした。	NO_LABEL
上田の危機を感じた石子は、機動甲冑を携帯可能なサイズに分解・縮小する技術を開発し、変身アイテム「ヤグライザー」を完成させる。	NO_PRONOUNCE	NO_LABEL
そして幼馴染みで蕎麦店のバイト青年、真上武丸を装着者として、六文戦士ウェイダーを誕生させた。	そしておさななじみでそばてんのばいとせいねん、まうえたけまるをそーちゃくしゃとして、ろくもんせんしうぇいだーをたんじょーさせた。	NO_LABEL
同じ頃、かつてゴッタクたちが封印された上田市の西部から妖怪一族ゴッタクたちが復活し、市民への攻撃を開始した。	おなじころ、かつてごったくたちがふーいんされたうえだしのせいぶからよーかいいちぞくごったくたちがふっかつし、しみんえのこーげきをかいしした。	NO_LABEL
400年の時を経て六文戦士と妖怪一族の戦いが再び始まった。	よんひゃくねんのときをへてろくもんせんしとよーかいいちぞくのたたかいがふたたびはじまった。	NO_LABEL
地底世界「ベト」からやってきた、悪の妖怪一族。	NO_PRONOUNCE	NO_LABEL
人間の「悲しい」「辛い」などのネガティブな感情がエネルギー源となっており、そのため市民に様々な嫌がらせを仕掛ける。	NO_PRONOUNCE	NO_LABEL
キャラクターの名前やセリフには上田地方の方言が多用されている。	きゃらくたーのなまえやせりふにわうえだちほーのほーげんがたよーされている。	NO_LABEL
