酒井 高男は、日本の機械工学者、東北大学名誉教授。	さかいたかおわ、にっぽんのきかいこーがくしゃ、とーほくだいがくめいよきょーじゅ。	NO_LABEL
長野県上伊那郡西春近村生まれ。	ながのけんかみいなぐんにしはるちかむらうまれ。	NO_LABEL
1944年東北帝国大学工学部航空工学科卒。	せんきゅうひゃくよんじゅうよねんとーほくていこくだいがくこーがくぶこーくーこーがっかそつ。	NO_LABEL
同特別研究生。	どーとくべつけんきゅーせい。	NO_LABEL
1949年東北大学機械工学部助教授、1957年東北大学工学博士。	せんきゅうひゃくよんじゅうきゅうねんとーほくだいがくきかいこーがくぶじょきょーじゅ、せんきゅうひゃくごじゅうしちねんとーほくだいがくこーがくはかせ。	NO_LABEL
1961年工学部機械工学科教授、1985年定年退官、名誉教授、山形大学工学部教授。	せんきゅうひゃくろくじゅういちねんこーがくぶきかいこーがっかきょーじゅ、せんきゅうひゃくはちじゅうごねんていねんたいかん、めいよきょーじゅ、やまがただいがくこーがくぶきょーじゅ。	NO_LABEL
1996年勲三等旭日中綬章受勲。	せんきゅうひゃくきゅうじゅうろくねんくんさんとーきょくじつちゅーじゅしょーじゅくん。	NO_LABEL
おもちゃ工学で知られた。	おもちゃこーがくでしられた。	NO_LABEL
