『メゾンde長屋さん』は、ひうらさとるによる日本の漫画作品。	NO_PRONOUNCE	NO_LABEL
『Kiss』にて2010年14号より2012年3号まで不定期に連載された。	NO_PRONOUNCE	NO_LABEL
単行本は全3巻。	たんこーぼんわぜんさんかん。	NO_LABEL
落語をベースにした1話完結のシリーズで、家賃1万円の長屋のアパートを舞台に、様々な人々の人生模様が描かれる。	らくごをべーすにしたいちわかんけつのしりーずで、やちんいちまんえんのながやのあぱーとをぶたいに、さまざまなひとびとのじんせいもよーがえがかれる。	NO_LABEL
