「スカースデイル」は、UNISON SQUARE GARDENの楽曲。	NO_PRONOUNCE	NO_LABEL
同グループ4枚目のシングルとして2010年11月24日にトイズファクトリーから発売された。	どーぐるーぷよんまいめのしんぐるとしてにせんじゅうねんじゅーいちがつにじゅうよっかにといずふぁくとりーからはつばいされた。	NO_LABEL
前作「cody beats」より約9ヶ月ぶりのシングル。	NO_PRONOUNCE	NO_LABEL
アルバム『JET CO.』リリース後1作目のシングルであり、そこから引き続きプロデューサーに佐久間正英を迎えている。	NO_PRONOUNCE	NO_LABEL
3～8トラックには、新代田FEVERで行われたシークレットライヴ「"JET CO." TOUR 2010 ～an extended session～」の音源が収録されている。	NO_PRONOUNCE	NO_LABEL
