ゲデウォンは、エチオピアの画家、詩人。	げでうぉんわ、えちおぴあのがか、しじん。	NO_LABEL
ベゲムデル出身。	べげむでるしゅっしん。	NO_LABEL
アディスアベバにてエチオピア正教会の聖職者になるべく、勉強をする傍らで絵を描き始めた。	あでぃすあべばにてえちおぴあせいきょーかいのせいしょくしゃになるべく、べんきょーをするかたわらでえをえがきはじめた。	NO_LABEL
1980年にはパリへと移住している。	せんきゅうひゃくはちじゅうねんにわぱりえといじゅーしている。	NO_LABEL
