スパークリング☆ポイントはNORTHERN MUSIC、White Dreamに所属していた3人組ボーカルユニット。	すぱーくりんぐぽいんとわのーざんみゅーじっく、ほわいとどりーむにしょぞくしていたさんにんぐみぼーかるゆにっと。	NO_LABEL
3人共鹿児島県奄美大島出身。	さんにんどもかごしまけんあまみおーしましゅっしん。	NO_LABEL
2003年11月に結成。	にせんさんねんじゅーいちがつにけっせい。	NO_LABEL
2009年6月に解散発表。	にせんきゅうねんろくがつにかいさんはっぴょー。	NO_LABEL
通称、スパポイ、スパクリ。	つーしょー、すぱぽい、すぱくり。	NO_LABEL
