2015年の阪神タイガースは2015年の阪神タイガースの動向についてまとめる。	にせんじゅうごねんのはんしんたいがーすわにせんじゅうごねんのはんしんたいがーすのどーこーについてまとめる。	NO_LABEL
2015年の阪神タイガースは和田豊監督の4年目のシーズンである。	にせんじゅうごねんのはんしんたいがーすわわだゆたかかんとくのよんねんめのしーずんである。	NO_LABEL
7月以降、上位に進出し、優勝争いに参加したが、9月上旬に6連敗し、大失速したことから、続投が不透明になっていた和田監督の続投が決定した。	しちがついこー、じょーいにしんしゅつし、ゆーしょーあらそいにさんかしたが、きゅうがつじょーじゅんにろくれんぱいし、だいしっそくしたことから、ぞくとーがふとーめいになっていたわだかんとくのぞくとーがけっていした。	NO_LABEL
戦力面では、新井貴浩が自由契約を申し出て、広島に復帰し、久保田智之が引退、海外FAを宣言していた鳥谷敬の残留が決定した。	せんりょくめんでわ、あらいたかひろがじゆーけいやくをもーしでて、ひろしまにふっきし、くぼたともゆきがいんたい、かいがいいんしぶんせきほーをせんげんしていたとりたにたかしのざんりゅーがけっていした。	NO_LABEL
FA市場で金子千尋、中島裕之、成瀬善久等の獲得を狙ったが、ことごとく失敗し、目立った補強ができなかったことから、不安視されながらシーズンを迎えることになった。	いんしぶんせきほーしじょーでかねこちひろ、なかじまひろゆき、なるせよしひさとーのかくとくをねらったが、ことごとくしっぱいし、めだったほきょーができなかったことから、ふあんしされながらしーずんをむかえることになった。	NO_LABEL
5月終了時点で借金2と開幕ダッシュに失敗した阪神であったが、交流戦に入ると、セ・リーグのチームが苦戦する中、セ・リーグで唯一交流戦を勝ち越し、6月には首位に立った。	NO_PRONOUNCE	NO_LABEL
7月、8月で貯金を着実に重ね、上位争いを続けていたが、9月半ばになると、首位争いをしていたヤクルト・巨人に連敗し、優勝が絶望的になった。	NO_PRONOUNCE	NO_LABEL
優勝が絶望的になった後、広島とのクライマックスシリーズ進出争いでもチームの調子が戻らず、自力でのクライマックスシリーズ進出が消滅した。	ゆーしょーがぜつぼーてきになったのち、ひろしまとのくらいまっくすしりーずしんしゅつあらそいでもちーむのちょーしがもどらず、じりきでのくらいまっくすしりーずしんしゅつがしょーめつした。	NO_LABEL
阪神がレギュラーシーズンを終え、広島が最終戦を勝てば、クライマックスシリーズ進出という状況で、広島が敗れたため、阪神のクライマックスシリーズが決定した。	はんしんがれぎゅらーしーずんをおえ、ひろしまがさいしゅーせんをかてば、くらいまっくすしりーずしんしゅつとゆうじょーきょーで、ひろしまがやぶれたため、はんしんのくらいまっくすしりーずがけっていした。	NO_LABEL
しかし、クライマックスシリーズ第1ステージで巨人に敗れ、シーズンを終えた。	しかし、くらいまっくすしりーずだいいちすてーじできょじんにやぶれ、しーずんをおえた。	NO_LABEL
6月以降、首位争いをしたため、和田監督の続投が一時は有力視されていたが、3年連続で終盤の9月に大失速していることを問題視され、退任に追い込まれた。	ろくがついこー、しゅいあらそいをしたため、わだかんとくのぞくとーがいちじわゆーりょくしされていたが、さんねんれんぞくでしゅーばんのくがつにだいしっそくしていることをもんだいしされ、たいにんにおいこまれた。	NO_LABEL
投手コーチの中西清起・山口高志、打撃コーチの関川浩一・高橋光信、守備走塁コーチの山脇光治・風岡尚幸、2軍バッテリーコーチの吉田康夫、2軍打撃コーチの八木裕の8コーチが解任された。	NO_PRONOUNCE	NO_LABEL
後任監督に、金本知憲が就任した。	こーにんかんとくに、かねもとともあきがしゅーにんした。	NO_LABEL
※年数はNPB所属初年からの年数、年齡は開幕時	NO_PRONOUNCE	NO_LABEL
本節では、前シーズン終了から本シーズン開幕までの入退団について記述する。	ほんぶしでわ、ぜんしーずんしゅうりょーからほんしーずんかいまくまでのにゅーたいだんについてきじゅつする。	NO_LABEL
なお、退団の去就はスポーツ関連及び芸能関係の職業に転身した場合のみを記載し、空欄は前述以外の一般職業に転身したか去就不明を示す。	なお、たいだんのきょしゅーわすぽーつかんれんおよびげいのーかんけいのしょくぎょーにてんしんしたばあいのみをきさいし、くーらんわぜんじゅついがいのいっぱんしょくぎょーにてんしんしたかきょしゅーふめいをしめす。	NO_LABEL
本節では、本シーズン開幕から本シーズン終了までの入退団について記述する。	ほんぶしでわ、ほんしーずんかいまくからほんしーずんしゅうりょーまでのにゅーたいだんについてきじゅつする。	NO_LABEL
