晋陵郡は、中国にかつて存在した郡。	すすむりょーぐんわ、ちゅーごくにかつてそんざいしたぐん。	NO_LABEL
晋代から唐代にかけて、現在の江蘇省南部に設置された。	しんだいからとーだいにかけて、げんざいのこうそしょーなんぶにせっちされた。	NO_LABEL
三国時代の呉が呉郡の無錫県以西の地を屯田として、毗陵典農校尉を置いた。	NO_PRONOUNCE	NO_LABEL
281年、典農校尉を廃止して、毗陵郡が立てられた。	NO_PRONOUNCE	NO_LABEL
毗陵郡は揚州に属し、郡治は丹徒県に置かれた。	NO_PRONOUNCE	NO_LABEL
西晋の毗陵郡は丹徒・曲阿・武進・延陵・毗陵・曁陽・無錫の7県を管轄した。	NO_PRONOUNCE	NO_LABEL
311年、東海王司馬越の嫡子の名が毗といい、東海国が毗陵を食邑としたことから、これを避諱して毗陵郡は晋陵郡と改められ、その下の毗陵県も晋陵県と改められた。	NO_PRONOUNCE	NO_LABEL
431年、晋陵郡は南徐州に転属した。	よんひゃくさんじゅういちねん、すすむりょーぐんわなんじょしゅーにてんぞくした。	NO_LABEL
宋の晋陵郡は晋陵・延陵・無錫・南沙・曲阿・曁陽の6県を管轄した。	NO_PRONOUNCE	NO_LABEL
南朝斉のとき、晋陵郡は晋陵・無錫・延陵・曲阿・曁陽・南沙・海陽の7県を管轄した。	NO_PRONOUNCE	NO_LABEL
589年、隋が南朝陳を滅ぼすと、晋陵郡は廃止されて、常州に編入された。	ごひゃくはちじゅうきゅうねん、ずいがなんちょーちんをほろぼすと、すすむりょーぐんわはいしされて、じょうしゅーにへんにゅーされた。	NO_LABEL
607年に州が廃止されて郡が置かれると、常州が毗陵郡と改称された。	NO_PRONOUNCE	NO_LABEL
毗陵郡は晋陵・江陰・無錫・義興の4県を管轄した。	NO_PRONOUNCE	NO_LABEL
620年、唐が杜伏威を帰順させると、毗陵郡は常州と改められ、晋陵・義興・無錫・武進の4県を管轄した。	NO_PRONOUNCE	NO_LABEL
742年、常州は晋陵郡と改称された。	ななひゃくよんじゅうにねん、じょうしゅーわすすむりょーぐんとかいしょーされた。	NO_LABEL
758年、晋陵郡は常州と改称され、晋陵郡の呼称は姿を消した。	ななひゃくごじゅうはちねん、すすむりょーぐんわじょうしゅーとかいしょーされ、すすむりょーぐんのこしょーわすがたをけした。	NO_LABEL
