フィロマスは、アメリカ合衆国オレゴン州ベントン郡にある市。	ふぃろますわ、あめりかがっしゅーこくおれごんしゅーべんとんぐんにあるし。	NO_LABEL
市名は、かつて市内に存在したフィロマス・カレッジに由来する。	NO_PRONOUNCE	NO_LABEL
2000年の国勢調査での人口は3,838人だった。	NO_PRONOUNCE	NO_LABEL
コーバリス都市圏の一部を形成する。	こーばりすとしけんのいちぶをけいせいする。	NO_LABEL
フィロマス・カレッジは1867年にキリスト同胞教会によって設立された。	NO_PRONOUNCE	NO_LABEL
1882年にフィロマス市が成立した。	せんはっぴゃくはちじゅうにねんにふぃろますしがせいりつした。	NO_LABEL
後の1929年にはフィロマス・カレッジが閉校した。	NO_PRONOUNCE	NO_LABEL
フィロマスはに位置する。	ふぃろますわにいちする。	NO_LABEL
コーバリスから国道20号線に沿って、8 km西方に進んだ位置にある。	NO_PRONOUNCE	NO_LABEL
アメリカ合衆国国勢調査局によれば、市の総面積は3.3 km²で、その全域が陸地である。	NO_PRONOUNCE	NO_LABEL
市内には数軒の製材所がある。	しないにわすーけんのせいざいしょがある。	NO_LABEL
その他、モルフォルノ・アンチセンスオリゴを製造するGene Tools社、海洋測定装置を製造するWet Labs社、高速インターネット回線を提供するAlyrica Networks社、太陽電池パネルや代替エネルギー製品を製造するSolar Summit社がある。	NO_PRONOUNCE	NO_LABEL
フィロマスの公共教育はフィロマス公立学区により管轄され、現在下記の4校が所属している。	NO_PRONOUNCE	NO_LABEL
以下は2000年の国勢調査による人口統計データである。	いかわにせんねんのこくせいちょうさによるじんこーとーけいでーたである。	NO_LABEL
人種別人口構成	じんしゅべつじんこーこーせい	NO_LABEL
年齢別人口構成	ねんれいべつじんこーこーせい	NO_LABEL
世帯と家族	せたいとかぞく	NO_LABEL
収入と家計	しゅーにゅーとかけい	NO_LABEL
