仙台堀川は、東京都江東区を流れる河川。	せんだいぼりかわわ、とーきょーとこーとーくをながれるかせん。	NO_LABEL
旧中川と隅田川を結ぶ運河のひとつである。	きゅーなかがわとすみだがわをむすぶうんがのひとつである。	NO_LABEL
東京都江東区木場付近の大横川から西に分かれる。	とーきょーとこーとーくきばふきんのおーよこがわからにしにわかれる。	NO_LABEL
途中、平久川と大島川西支川を分け、江東区清澄付近で隅田川に合流する。	とちゅー、へいきゅうがわとおーしまかわにしさそーがわをわけ、こーとーくきよすみふきんですみだがわにごーりゅーする。	NO_LABEL
合流する手前には清澄排水機場がある。	ごーりゅーするてまえにわせいちょーはいすいきじょーがある。	NO_LABEL
江戸時代に開削し、運河として利用されてきた。	えどじだいにかいさくし、うんがとしてりよーされてきた。	NO_LABEL
さらに横十間川より上流を明治以降に延長した。	さらによこじっけんがわよりじょーりゅーをめいじいこーにえんちょーした。	NO_LABEL
昭和になり工業地帯として発達すると地下水の汲み上げによる激しい地盤沈下がおこり、水害が頻発するようになった。	しょーわになりこーぎょーちたいとしてはったつするとちかすいのくみあげによるはげしいじばんちんかがおこり、すいがいがひんぱつするよーになった。	NO_LABEL
この治水のため1982年に既に運河としての利用のなかった小名木川から大横川に交差するまでの区間を埋め立て仙台堀川親水公園として整備した。	このちすいのためせんきゅうひゃくはちじゅうにねんにすでにうんがとしてのりよーのなかったおなぎがわからおーよこがわにこーさするまでのくかんをうめたてせんだいぼりがわしんすいこーえんとしてせいびした。	NO_LABEL
北岸にあった仙台藩邸の蔵屋敷に米などの特産物を運び入れたことに由来する。	ほくがんにあったせんだいはんていのくらやしきにべいなどのとくさんぶつをはこびいれたことにゆらいする。	NO_LABEL
「仙台堀」とも呼ばれていた。	NO_PRONOUNCE	NO_LABEL
以前は砂町運河、十間川、仙台堀川と分けられていたが、1965年の河川法改正により一つにまとめられた。	いぜんわすなまちうんが、じっけんがわ、せんだいぼりかわとわけられていたが、せんきゅうひゃくろくじゅうごねんのかせんほーかいせいによりひとつにまとめられた。	NO_LABEL
大横川と交差する地点では三十間川とも呼ばれていた。	おーよこがわとこーさするちてんでわさんじっけんがわともよばれていた。	NO_LABEL
旧桜井橋 - 旧松本橋 - 旧境川橋 - 砂町橋 - 旧福島橋 - 弾正橋 - 松島橋 - 尾高橋 - 豊住橋 - 千田橋 - 石住橋	NO_PRONOUNCE	NO_LABEL
崎川橋 - 木場公園大橋 - 末広橋 - 亀久橋 - 木更木橋 - 海辺橋 - 清澄橋 - 清川橋 - 旧上之橋 - 隅田川テラス	NO_PRONOUNCE	NO_LABEL
