河北 麻友子は、日本のファッションモデル、女優、タレント。	かわきたまゆこわ、にっぽんのふぁっしょんもでる、じょゆー、たれんと。	NO_LABEL
所属事務所はオスカープロモーション。	しょぞくじむしょわおすかーぷろもーしょん。	NO_LABEL
アメリカ合衆国ニューヨーク州ニューヨーク市出身。	あめりかがっしゅーこくにゅーよーくしゅーにゅーよーくししゅっしん。	NO_LABEL
祖父母や両親が純日本人であるが、出生したアメリカ合衆国の国籍を選択した為、所謂外国人タレントに該当する。	そふぼやりょーしんがじゅんにっぽんじんであるが、しゅっしょーしたあめりかがっしゅーこくのこくせきをせんたくしたため、いわゆるがいこくじんたれんとにがいとーする。	NO_LABEL
アメリカ合衆国ニューヨーク州ニューヨーク市にて出生。	あめりかがっしゅーこくにゅーよーくしゅーにゅーよーくしにてしゅっしょー。	NO_LABEL
国籍はアメリカ合衆国。	こくせきわあめりかがっしゅーこく。	NO_LABEL
父はニューヨークで会社を経営している。	ちちわにゅーよーくでかいしゃをけいえいしている。	NO_LABEL
高祖父は吉田松陰の教え子でありサンフランシスコ領事を務めた河北義次郎。	こーそふわよしだしょーいんのおしえごでありさんふらんしすこりょーじをつとめたかわきたよしつぐろー。	NO_LABEL
実家はマンハッタン区にあり、2010年5月時点で隣にビヨンセ・近所にはロバート・デ・ニーロが住んでいる。	NO_PRONOUNCE	NO_LABEL
7歳差の姉・2歳差の兄がいる。	NO_PRONOUNCE	NO_LABEL
堀越高等学校卒業。	ほりこしこーとーがっこーそつぎょー。	NO_LABEL
女優・萬田久子と家族ぐるみの付き合いがある。	NO_PRONOUNCE	NO_LABEL
また桐谷美玲とは公私共に交流があり、「みれまゆ」コンビと呼ばれファンにも親しまれている。	NO_PRONOUNCE	NO_LABEL
2017年9月2日の「第25回 東京ガールズコレクション 2017 AUTUMN／WINTER」では、ランウェイ上で河北と桐谷が抱き合いキスする場面が見られた。	NO_PRONOUNCE	NO_LABEL
趣味はピアノ演奏・器械体操。	NO_PRONOUNCE	NO_LABEL
特技はフラフープ・英語。	NO_PRONOUNCE	NO_LABEL
苦手は漢字。	にがてわかんじ。	NO_LABEL
ゲーム・スポーツ・漫画などの趣味も特になく、『雨上がり決死隊のトーク番組 アメトーーク!』では「知らないゲスト」としてゲスト出演する事が多い。	NO_PRONOUNCE	NO_LABEL
