グンナー・ノルドシュトルムは、フィンランドの理論物理学者。	ぐんなーのるどしゅとるむわ、ふぃんらんどのりろんぶつりがくしゃ。	NO_LABEL
一般相対性理論が提出された時代の物理学者で、重力理論などで知られる。	いっぱんそーたいせいりろんがていしゅつされたじだいのぶつりがくしゃで、じゅーりょくりろんなどでしられる。	NO_LABEL
ハンス・ライスナーが点電荷の場の方程式を解いたのを受けて、球対称の帯電体についての拡張した場の方程式を解いた。	はんすらいすなーがてんでんかのばのほーていしきをといたのをうけて、きゅうたいしょーのたいでんたいについてのかくちょーしたばのほーていしきをといた。	NO_LABEL
一般に「ライスナー＝ノルドシュトルムの解」と呼ばれている。	NO_PRONOUNCE	NO_LABEL
この条件の場によるブラックホールがライスナー・ノルドシュトルム・ブラックホールと呼ばれる。	このじょーけんのばによるぶらっくほーるがらいすなーのるどしゅとるむぶらっくほーるとよばれる。	NO_LABEL
ヘルシンキ大学で学位を取った後、2年ほどオランダのライデン大学で学び、1918年にヘルシンキ大学に戻り教授となった。	へるしんきだいがくでがくいをとったのち、にねんほどおらんだのらいでんだいがくでまなび、せんきゅうひゃくじゅうはちねんにへるしんきだいがくにもどりきょーじゅとなった。	NO_LABEL
1914年に、ノルドシュトルムは場の理論に次元を追加することによって、重力と電磁力を同時に記述した。	せんきゅうひゃくじゅうよねんに、のるどしゅとるむわばのりろんにじげんをついかすることによって、じゅーりょくとでんじりょくをどーじにきじゅつした。	NO_LABEL
これは後のカルツァ＝クライン理論につながる最初の試みであった。	これわごのかるつぁくらいんりろんにつながるさいしょのこころみであった。	NO_LABEL
ライデン大学にいた時、ハンス・ライスナーが点電荷の場の方程式を解いたのを受けて、球対称の帯電体についての拡張した場の方程式を解いた。	らいでんだいがくにいたとき、はんすらいすなーがてんでんかのばのほーていしきをといたのをうけて、きゅうたいしょーのたいでんたいについてのかくちょーしたばのほーていしきをといた。	NO_LABEL
ライスナー＝ノルドシュトルムの解と呼ばれる。	NO_PRONOUNCE	NO_LABEL
