ブランドン・アラン・ビーチーは、アメリカ合衆国・インディアナ州ハワード郡コーコモー出身のプロ野球選手。	NO_PRONOUNCE	NO_LABEL
右投右打。	みぎなげみぎうち。	NO_LABEL
MLB・ロサンゼルス・ドジャース傘下所属。	NO_PRONOUNCE	NO_LABEL
のMLBドラフトでは指名を受けなかったが、アマチュア・フリーエージェントとしてアトランタ・ブレーブスと契約を結んだ。	NO_PRONOUNCE	NO_LABEL
9月20日のフィラデルフィア・フィリーズ戦でメジャーデビューを果たした。	くがつはつかのふぃらでるふぃあふぃりーずせんでめじゃーでびゅーをはたした。	NO_LABEL
は先発ローテーションの5番手として開幕を迎える。	わせんぱつろーてーしょんのごばんてとしてかいまくをむかえる。	NO_LABEL
4月19日、シーズン4試合目となるロサンゼルス・ドジャース戦でメジャー初勝利を挙げる。	しがつじゅうきゅうにち、しーずんふぉーしあいめとなるろさんぜるすどじゃーすせんでめじゃーはつしょーりをあげる。	NO_LABEL
6月22日のトロント・ブルージェイズ戦で自己最多の11個の三振を奪うなど、シーズンを通して投球回を上回る169個の三振を奪った。	NO_PRONOUNCE	NO_LABEL
5月17日のマイアミ・マーリンズ戦でメジャー初完投・初完封を記録するなど、一時防御率がリーグ1位になるも、6月21日にトミー・ジョン手術を受けシーズンを終了した。	NO_PRONOUNCE	NO_LABEL
は約1年ぶりとなる7月19日に復帰し、その後は先発ローテーション入りを果たす。	わやくいちねんぶりとなるしちがつじゅうきゅうにちにふっきし、そのごわせんぱつろーてーしょんいりをはたす。	NO_LABEL
オフの12月16日に1年契約を結んだ。	おふのじゅーにがつじゅうろくにちにいちねんけいやくをむすんだ。	NO_LABEL
3月23日に2度目のトミー・ジョン手術を行うため、15日間の故障者リスト入りした。	さんがつにじゅうさんにちににどめのとみーじょんしゅじゅつをおこなうため、じゅうごにちかんのこしょーしゃりすといりした。	NO_LABEL
3月29日に60日間の故障者リストへ異動し、そのままシーズンを終えた。	さんがつにじゅうきゅうにちにろくじゅうにちかんのこしょーしゃりすとえいどーし、そのまましーずんをおえた。	NO_LABEL
オフの12月2日にノンテンダーFAとなった。	おふのじゅーにがつふつかにのんてんだーえふえいとなった。	NO_LABEL
2月21日にドジャースと翌年のオプション付きの1年契約を結んだ。	にがつにじゅういちにちにどじゃーすとよくねんのおぷしょんつきのいちねんけいやくをむすんだ。	NO_LABEL
開幕は故障者リストで迎え、7月11日に2年ぶりにメジャーへ復帰した。	かいまくわこしょーしゃりすとでむかえ、しちがつじゅういちにちににねんぶりにめじゃーえふっきした。	NO_LABEL
7月30日にDFAとなった。	しちがつさんじゅうにちにでぃーえふえーとなった。	NO_LABEL
8月3日にマイナー契約でAAA級オクラホマシティ・ドジャースに異動した。	はちがつみっかにまいなーけいやくでとりぷれあきゅーおくらほましてぃどじゃーすにいどーした。	NO_LABEL
1月6日、ドジャースと1年150万ドルでメジャー契約を結んだが、1月27日に40人枠から外れAAA級オクラホマシティに降格した。	いちがつむいか、どじゃーすといちねんひゃくごじゅうまんどるでめじゃーけいやくをむすんだが、いちがつにじゅうしちにちによんじゅうにんわくからはずれとりぷるえーきゅーおくらほましてぃにこーかくした。	NO_LABEL
スプリングトレーニングには参加する。	すぷりんぐとれーにんぐにわさんかする。	NO_LABEL
90mphほどのフォーシーム・ファストボールととチェンジアップとカーブとスライダーを武器とする。	NO_PRONOUNCE	NO_LABEL
