はんごろし	はんごろし	NO_LABEL
本項目においては1を説明。	NO_PRONOUNCE	NO_LABEL
はんごろしは、徳島県那賀町でつくられる郷土菓子。	はんごろしわ、とくしまけんなかちょーでつくられるきょーどがし。	NO_LABEL
那賀町と徳島大学が連携して開いている地域再生塾の特産品事業化の第一弾として相生地域の名物おはぎが選ばれ、ユニークな名称から人気となる。	なかちょーととくしまだいがくがれんけいしてひらいているちーきさいせいじゅくのとくさんひんじぎょーかのだいいちだんとしてあいおいちいきのめいぶつおはぎがえらばれ、ゆにーくなめいしょーからにんきとなる。	NO_LABEL
もち米とうるち米のごはんで餡を包み、周りにきな粉がまぶされている。	もちごめとうるちまいのごはんであんをつつみ、まわりにきなこがまぶされている。	NO_LABEL
おはぎを「はんごろし」と呼んでいるのは旧相生町の一部で、もち米を半分ほどしかつぶさないのが由来といわれる。	NO_PRONOUNCE	NO_LABEL
もち米を全部つぶすと「みなごろし」になる。	NO_PRONOUNCE	NO_LABEL
群馬県ではぼたもちを「はんごろし」と称している。	NO_PRONOUNCE	NO_LABEL
『おばんつぁんの炉ばたばなし 東北の昔話』に掲載された逸話「半ごろし」によると、若者が旅の道中で日が暮れて年寄り夫婦の家に宿を求めるが、「あの若者、半殺しか手打ちかどちらがいいかね」「まだ若いから半殺しで良いじゃろう」と言うのを聞いて慌てて逃げ出す、という話がある。	NO_PRONOUNCE	NO_LABEL
実は年寄り夫婦は若者に翌朝振舞う食事の話をしていたのであり、手打ちとは手打ち蕎麦のことである。	じつわとしよりふーふわわかものによくあさふるまうしょくじのはなしをしていたのであり、てうちとわてうちそばのことである。	NO_LABEL
