北海道シチューは、ハウス食品が販売する即席固形シチュールーの商品。	ほっかいどーしちゅーわ、はうすしょくひんがはんばいするそくせきこけいしちゅーるーのしょーひん。	NO_LABEL
1996年販売開始。	せんきゅうひゃくきゅうじゅうろくねんはんばいかいし。	NO_LABEL
北海道の自然の恵みを活かしたクリーミーでコクのあるシチューを届けたいという思いから開発された。	ほっかいどーのしぜんのめぐみをいかしたくりーみーでこくのあるしちゅーをとどけたいとゆうおもいからかいはつされた。	NO_LABEL
北海道生乳100％の生クリームとナチュラルチーズを使用している。	ほっかいどーせいにゅーひゃくぱーせんとのなまくりーむとなちゅらるちーずをしよーしている。	NO_LABEL
