「スワロウテイルシリーズ」は籘真千歳によるSF小説作品の総称である。	NO_PRONOUNCE	NO_LABEL
作者の『θ 11番ホームの妖精』と同一世界であると明言はされていないが、	NO_PRONOUNCE	NO_LABEL
技術流派三宗家、J.R.C.D、世代型人工知能などの用語には合致が見られる。	NO_PRONOUNCE	NO_LABEL
作者のtwitterによればパラレルワールドの関係にあり、設定の矛盾点については『スワロウテイルシリーズ』を優先する、としている。	NO_PRONOUNCE	NO_LABEL
〈種のアポトーシス〉と呼ばれる原因不明の症状が蔓延した世界。	NO_PRONOUNCE	NO_LABEL
感染者はパンデミックを防ぐ為、男女別による隔離生活を関東湾に浮かぶ人工島〈東京自治区〉で送っていた。	NO_PRONOUNCE	NO_LABEL
異性を失った自治区では新たな伴侶として、人を模して創られた人工妖精〈フィギュア〉が人間と共に生活を送り、微細機械〈マイクロマシン〉で構成される高度な文明を有す自治区では、様々な政治的問題を含みながらも理想の安寧社会を実現しているかの様であった。	NO_PRONOUNCE	NO_LABEL
東京自治区創立二十周年を迎えた頃、男性側自治区では連続殺人犯 —通称“傘持ち〈アンブレラ〉”による事件が多発していた。	NO_PRONOUNCE	NO_LABEL
人工妖精〈フィギュア〉の揚羽は、自警団〈イエロー〉の曽田陽平と共に“傘持ち”を追うが、事件は自治区の根幹を揺るがす事態へと進展していく。	NO_PRONOUNCE	NO_LABEL
様々な謀略の先に揚羽は、自身の出生と自治区の命運を担う決断を迫られる。	さまざまなぼーりゃくのせんにあげわわ、じしんのしゅっしょーとじちくのめいうんをになうけつだんをせまられる。	NO_LABEL
