アイダホ州の旗は、アメリカ合衆国アイダホ州の州旗。	あいだほしゅーのはたわ、あめりかがっしゅーこくあいだほしゅーのしゅーき。	NO_LABEL
青地に州章がデザインされている。	あおじにしゅーあきらがでざいんされている。	NO_LABEL
公式の記述によると、州旗の周りに金色で縁取りされているのが正式だが、多くの版で縁取りがないものもある。	こーしきのきじゅつによると、しゅーきのまわりにきんいろでえんとりされているのがせいしきだが、おーくのばんでえんとりがないものもある。	NO_LABEL
州章には、鉱夫及び女性が登場し、平等、自由、正義を象徴している。	しゅーあきらにわ、こーふおよびじょせいがとーじょーし、びょーどー、じゆー、せいぎをしょーちょーしている。	NO_LABEL
またアイダホ州の主要な天然資源である鉱物、森林、田園、野生動物が示されている。	またあいだほしゅーのしゅよーなてんねんしげんであるこーぶつ、しんりん、でんえん、やせいどーぶつがしめされている。	NO_LABEL
この旗は、1899年の米西戦争の際にアイダホ第一連隊によって使用された旗に基づいてデザインされた。	このはたわ、せんはっぴゃくきゅうじゅうきゅうねんのべいせいせんそーのさいにあいだほだいいちれんたいによってしよーされたはたにもとずいてでざいんされた。	NO_LABEL
1907年3月12日に承認され、1957年に少し変更された。	せんきゅうひゃくななねんさんがつじゅうににちにしょーにんされ、せんきゅうひゃくごじゅうしちねんにすこしへんこーされた。	NO_LABEL
