コーチシナはフランス統治時代のベトナム南部に対する呼称。	こーちしなわふらんすとーちじだいのべとなむなんぶにたいするこしょー。	NO_LABEL
ベトナム語のナムキ（）に相当する。	べとなむごのなむきかっこにそーとーする。	NO_LABEL
交趾は元来ベトナム北部の「交趾郡」に由来する古称であったが、フランスが恣意的に使用した名称である。	NO_PRONOUNCE	NO_LABEL
ヨーロッパ各国からはコーチンシナと呼ばれる。	よーろっぱかっこくからわこーちんしなとよばれる。	NO_LABEL
1858年にフランス帝国と阮朝の間でコーチシナ戦争が始まり、1859年にフランス軍がサイゴンを急襲して武力占領。	せんはっぴゃくごじゅうはちねんにふらんすていこくとぐえんちょーのまでこーちしなせんそーがはじまり、せんはっぴゃくごじゅうきゅうねんにふらんすぐんがさいごんをきゅーしゅーしてぶりょくせんりょー。	NO_LABEL
1861年にはベトナム南部のザーディン、、の三省を占領。	NO_PRONOUNCE	NO_LABEL
翌年6月の講和条約である第1次サイゴン条約で元々の所有者だったフエの阮朝宮廷に対し、これらコーチシナ東部三省とプロコンドル島を割譲させた。	よくねんろくがつのこーわじょーやくであるだいいちじさいごんじょーやくでもともとのしょゆーしゃだったふえのぐえんちょーきゅーていにたいし、これらこーちしなとーぶさんしょーとぷろこんどるとーをかつじょーさせた。	NO_LABEL
サイゴンに設置されたコーチシナ総督府が以後、フランスのベトナム侵略の拠点となる。	さいごんにせっちされたこーちしなそーとくふがいご、ふらんすのべとなむしんりゃくのきょてんとなる。	NO_LABEL
フランスは1863年にカンボジアを保護国とする条約を結んでおり、仏領コーチシナをカンボジアと連結させるため、1867年ヴィンロン、チャウドク、ハティエンのコーチシナ西部三省を武力占領してコーチシナ全域を支配下に置いた。	NO_PRONOUNCE	NO_LABEL
ベトナム宮廷は1874年のでコーチシナ六省に対するフランスの完全な主権を承認し、直轄領としてのコーチシナ植民地が正式に成立する。	べとなむきゅーていわせんはっぴゃくななじゅうよねんのでこーちしなろくしょーにたいするふらんすのかんぜんなしゅけんをしょーにんし、ちょっかつりょーとしてのこーちしなしょくみんちがせいしきにせいりつする。	NO_LABEL
また1883年のによってアンナンよりビントゥアン省が割譲され、コーチシナに編入されている。	またせんはっぴゃくはちじゅうさんねんのによってあんなんよりびんとぅあんしょーがかつじょーされ、こーちしなにへんにゅーされている。	NO_LABEL
1887年には新設のインドシナ総督の下で直轄領コーチシナ、保護国アンナン、保護領トンキンを含む仏領インドシナが成立した。	せんはっぴゃくはちじゅうしちねんにわしんせつのいんどしなそーとくのしたでちょっかつりょーこーちしな、ほごこくあんなん、ほごりょーとんきんをふくむふつりょーいんどしながせいりつした。	NO_LABEL
1916年、。	NO_PRONOUNCE	NO_LABEL
