モーリシャスの国章は1906年に制定されている。	もーりしゃすのこくしょーわせんきゅうひゃくろくねんにせいていされている。	NO_LABEL
中央に4分割した盾を配し、それぞれ帆船、3本のヤシの木、鍵、明星を描いている。	ちゅーおーによんぷんわりしたたてをはいし、それぞれはんせん、さんぼんのやしのき、かぎ、みょーじょーをえがいている。	NO_LABEL
盾はモーリシャス固有種であったが絶滅した左のドードーと、右の鹿によって支えられ、盾と動物の間にはモーリシャスの主産業であるサトウキビをあしらっている。	たてわもーりしゃすこゆーしゅであったがぜつめつしたひだりのどーどーと、みぎのしかによってささえられ、たてとどーぶつのまにわもーりしゃすのしゅさんぎょーであるさとーきびをあしらっている。	NO_LABEL
下のリボンにはラテン語で国の標語であるが書かれている。	したのりぼんにわらてんごでくにのひょーごであるがかかれている。	NO_LABEL
