そり舌側面接近音は子音の種類の一つ。	そりじたそくめんせっきんおんわしいんのしゅるいのひとつ。	NO_LABEL
硬口蓋とそらせた舌で中央に閉鎖を作り、舌の両脇から空気を通すことによって生じる音。	かたこーがいとそらせたしたでちゅーおーにへいさをつくり、したのりょーわきからくーきをとーすことによってしょーじるおと。	NO_LABEL
国際音声記号ではと記述される。	こくさいおんせいきごーでわときじゅつされる。	NO_LABEL
比較的多くの言語で使われていると思われる。	ひかくてきおーくのげんごでつかわれているとおもわれる。	NO_LABEL
以下の言語では音素として使われている。	いかのげんごでわおんそとしてつかわれている。	NO_LABEL
以下の言語では、同化によって生じる。	いかのげんごでわ、どーかによってしょーじる。	NO_LABEL
