盛永 宗興は、日本の臨済宗の僧。	もりながむねおきわ、にっぽんのりんざいしゅーのそー。	NO_LABEL
大正14年、富山県に生まれた。	たいしょーじゅうよねん、とやまけんにうまれた。	NO_LABEL
後藤瑞厳について出家し、小田雪窓より印可を受けた。	ごとーみずほげんについてしゅっけし、おだゆきまどよりいんかをうけた。	NO_LABEL
妙心寺・龍安寺の塔頭である大珠院住職を務めた。	NO_PRONOUNCE	NO_LABEL
昭和61年4月から平成6年3月まで、花園大学学長。	しょーわろくじゅういちねんしがつからへいせいろくねんさんがつまで、はなぞのだいがくがくちょー。	NO_LABEL
平成7年6月12日没。	へいせいななねんろくがつじゅうににちぼつ。	NO_LABEL
1925年に富山県魚津市で、姉が三人と弟の五人姉弟の長男として生まれた。	せんきゅうひゃくにじゅうごねんにとやまけんうおずしで、あねがさんにんとおとーとのごにんしていのちょーなんとしてうまれた。	NO_LABEL
家は元来、先祖代々百姓で、祖父の代までは百姓であった。	NO_PRONOUNCE	NO_LABEL
そんななか盛永宗興の父が突然医学の勉強を志して、開業医となった。	そんななかもりながそーこーのちちがとつぜんいがくのべんきょーをこころざして、かいぎょーいとなった。	NO_LABEL
そのため田畑は全て小作に出すこととなったそういった環境で、生まれ幼少時代を過ごした。	そのためたはたわすべてこさくにだすこととなったそういったかんきょーで、うまれよーしょーじだいをすごした。	NO_LABEL
そして学校は医者を目指さず、富山高等学校の文科に進学したが、在学中の1944年10月には、学徒出陣の年齢が20歳以上から19歳以上へと引下げられることとなり、思いがけず1945年には学徒出陣。	そしてがっこーわいしゃをめざさず、とやまこーとーがっこーのぶんかにしんがくしたが、ざいがくちゅーのせんきゅうひゃくよんじゅうよねんじゅーがつにわ、がくとしゅつじんのねんれいがにじゅっさいいじょーからじゅうきゅうさいいじょーえとひきさげられることとなり、おもいがけずせんきゅうひゃくよんじゅうごねんにわがくとしゅつじん。	NO_LABEL
そして運悪いことに、出陣する頃に、父母共に僅か一日違いで病死するという不幸にも見舞われた。	そしてうんわるいことに、しゅつじんするころに、ちちははどもにわずかひといちちがいでびょーしするとゆうふこーにもみまわれた。	NO_LABEL
戦後は富山高等学校の文科に復学し、1947年に卒業後、静岡の臨済寺へ飛び込み初めて禅を始めた。	せんごわとやまこーとーがっこーのぶんかにふくがくし、せんきゅうひゃくよんじゅうななねにそつぎょーご、しずおかのりんさいじえとびこみはじめてぜんをはじめた。	NO_LABEL
その後1949年に、龍安寺の塔頭である大珠院の後藤瑞巌老師について出家得度。	そのごせんきゅうひゃくよんじゅうきゅうねんに、りゅーあんじのたっちゅーであるたいじゅいんのごとーみずほいわおろーしについてしゅっけとくど。	NO_LABEL
そして厳しい内弟子時代の後は、後藤瑞巖の弟子であり法嗣である小田雪窓が僧堂師家を務める大徳僧堂に掛搭した。	NO_PRONOUNCE	NO_LABEL
1963年まで大徳僧堂で修行し、遂に小田雪窓老師の印可を受ける。	せんきゅうひゃくろくじゅうさんねんまでだいとくそーどーでしゅぎょーし、ついにおだゆきまどろーしのいんかをうける。	NO_LABEL
その後妙心寺派龍安寺塔頭の大珠院住職となる。	そのごみょーしんじはりゅーあんじたっちゅーのだいたまいんじゅーしょくとなる。	NO_LABEL
1986年より花園大学学長を8年務めた。	せんきゅうひゃくはちじゅうろくねんよりはなぞのだいがくがくちょーをはちねんつとめた。	NO_LABEL
1995年6月12日遷化。	せんきゅうひゃくきゅうじゅうごねんろくがつじゅうににちせんげ。	NO_LABEL
世寿七十一。	よひさしちじゅーいっ。	NO_LABEL
著書	ちょしょ	NO_LABEL
訳書	やくしょ	NO_LABEL
