キャロライン・ウェルズは、アメリカ合衆国出身の詩人・小説家。	NO_PRONOUNCE	NO_LABEL
「フレミング・ストーン」を主人公にした長編推理小説を70作も書いたことで知られる。	NO_PRONOUNCE	NO_LABEL
1862年6月18日、アメリカのニュージャージー州ローウェイにウイリアムおよびアンナ・ウェルズの娘として生まれ、ローウェイ図書館の司書を務めた。	NO_PRONOUNCE	NO_LABEL
当初は詩人として詩集『スフィンクスのサイン』を処女作として1896年にデビューした。	NO_PRONOUNCE	NO_LABEL
1909年に発表した長編『手がかり』からはじまる私立探偵フレミング・ストーンのの生みの親として知られている。	NO_PRONOUNCE	NO_LABEL
