章 立凡は、中華人民共和国の歴史学者。	NO_PRONOUNCE	NO_LABEL
1950年、北京市に生まれた。	せんきゅうひゃくごじゅうねん、ぺきんしにうまれた。	NO_LABEL
清華大学附属中学卒業。	せいかだいがくふぞくちゅーがくそつぎょー。	NO_LABEL
母は張彩萍。	ははわちょーあやたいら。	NO_LABEL
父章乃器は元中華人民共和国糧食部長。	ちちしょうだいきわもとちゅーかじんみんきょーわこくりょーしょくぶちょー。	NO_LABEL
1957年、、、と並んで中国「四大右派」と併称される。	NO_PRONOUNCE	NO_LABEL
章立凡は父の「四大右派」事件に連座し。	NO_PRONOUNCE	NO_LABEL
1977年6月13日、章乃器は北京で病院地下室に逝世無実の罪を着る。	NO_PRONOUNCE	NO_LABEL
文化大革命が終わった後、彼は中国社会科学院を卒業。	ぶんかだいかくめいがおわったのち、かれわちゅーごくしゃかいかがくいんをそつぎょー。	NO_LABEL
章立凡は民主憲政を鼓吹する。	NO_PRONOUNCE	NO_LABEL
章立凡は毛沢東が中断した中国へ民主憲政のプロセスは、中国を導入した階級闘争、一党独裁の絶路。	NO_PRONOUNCE	NO_LABEL
