馬淵 明彦は、日本の音楽講師。	まぶちあきひこわ、にっぽんのおんがくこーし。	NO_LABEL
元国立音楽大学講師。	もとくにたちおんがくだいがくこーし。	NO_LABEL
リトミックを専門としている。	りとみっくをせんもんとしている。	NO_LABEL
1947年、石川県七尾市生まれ。	せんきゅうひゃくよんじゅうななね、いしかわけんななおしうまれ。	NO_LABEL
高校卒業まで長崎県で過ごす。	こーこーそつぎょーまでながさきけんですごす。	NO_LABEL
国立音楽大学に進み、在学中にリトミックと出会った。	くにたちおんがくだいがくにすすみ、ざいがくちゅーにりとみっくとであった。	NO_LABEL
同大学教育音楽学科Ⅱ類を卒業後、リトミックやピアノの指導に携わった。	NO_PRONOUNCE	NO_LABEL
1978年、ジュネーヴのジャック=ダルクローズ学院に留学し、ダルクローズ国際ライセンスと同ディプロマを取得して1980年に卒業。	NO_PRONOUNCE	NO_LABEL
帰国後は国立音楽大学講師として30年間後進の指導に取り組み、2012年に定年退官。	きこくごわくにたちおんがくだいがくこーしとしてさんじゅうねんかんこーしんのしどーにとりくみ、にせんじゅうにねんにていねんたいかん。	NO_LABEL
この間、日本ジャック=ダルクローズ協会会長や全日本リトミック音楽教育研究会常任理事などを務め、リトミックの普及に努めた。	NO_PRONOUNCE	NO_LABEL
NHKラジオ高校講座の音楽Ⅰも担当している。	NO_PRONOUNCE	NO_LABEL
