加瀬 慎一は、日本の俳優である。	かせしんいちわ、にっぽんのはいゆーである。	NO_LABEL
旧芸名は加勢慎一。	きゅーげいめいわかせしんいち。	NO_LABEL
愛知県出身。	あいちけんしゅっしん。	NO_LABEL
1980年、横浜放送映画専門学院演劇科卒業後、「劇団1980」に所属。	NO_PRONOUNCE	NO_LABEL
以降、舞台を中心に活動し、映画やTVにも出演する。	いこー、ぶたいをちゅーしんにかつどーし、えいがやてれびにもしゅつえんする。	NO_LABEL
