テイラー・ジョゼフ・フェザーストンは、アメリカ合衆国・テキサス州ヒューストン出身のプロ野球選手。	NO_PRONOUNCE	NO_LABEL
右投右打。	みぎなげみぎうち。	NO_LABEL
MLB・ミネソタ・ツインズ傘下所属。	NO_PRONOUNCE	NO_LABEL
のMLBドラフト5巡目でコロラド・ロッキーズから指名され、6月30日に契約。	NO_PRONOUNCE	NO_LABEL
同日に傘下のA-級へ異動した。	NO_PRONOUNCE	NO_LABEL
49試合に出場し、打率.231・2本塁打・20打点・39安打を記録した。	NO_PRONOUNCE	NO_LABEL
4月4日にA級アッシュビル・ツーリスツへ昇格した。	しがつよっかにえーきゅーあっしゅびるつーりすつえしょーかくした。	NO_LABEL
4月8日に故障者リスト入りしたが、最終的に105試合に出場し、打率.299・12本塁打・53打点・113安打を記録した。	NO_PRONOUNCE	NO_LABEL
4月4日にA+級モデスト・ナッツへ昇格した。	NO_PRONOUNCE	NO_LABEL
5月25日に故障者リスト入りし、6月1日に復帰した。	ごがつにじゅうごにちにこしょーしゃりすといりし、ろくがつついたちにふっきした。	NO_LABEL
最終的に116試合に出場し、打率.292・13本塁打・81打点・137安打を記録した。	NO_PRONOUNCE	NO_LABEL
3月29日にAA級タルサ・ドリラーズへ異動した。	さんがつにじゅうきゅうにちにえーえーいこーるきゅーたるさどりらーずえいどーした。	NO_LABEL
同年は127試合に出場し、打率.260・16本塁打・57打点・129安打を記録した。	NO_PRONOUNCE	NO_LABEL
2014年12月11日にルール・ファイブ・ドラフトでシカゴ・カブスへ移籍した。	NO_PRONOUNCE	NO_LABEL
同日中に金銭トレードで、ロサンゼルス・エンゼルスへ移籍した。	どーじつちゅーにきんせんとれーどで、ろさんぜるすえんぜるすえいせきした。	NO_LABEL
4月12日のカンザスシティ・ロイヤルズ戦で、メジャーデビューを果たした。	しがつじゅうににちのかんざすしてぃろいやるずせんで、めじゃーでびゅーをはたした。	NO_LABEL
8月16日に上背の負傷で故障者リスト入りした。	はちがつじゅうろくにちにうわぜいのふしょーでこしょーしゃりすといりした。	NO_LABEL
23日にリハビリのため、傘下のAAA級ソルトレイク・ビーズへ異動した。	にじゅうさんにちにりはびりのため、さんかのとりぷれあきゅーそるとれいくびーずえいどーした。	NO_LABEL
9月1日に復帰した。	くがつついたちにふっきした。	NO_LABEL
この年は内野のスーパーサブとして起用され、メジャー1年目から101試合に出場した。	NO_PRONOUNCE	NO_LABEL
バッティングはまだ実力不足で、打率.162・2本塁打・9打点という成績に終わった。	NO_PRONOUNCE	NO_LABEL
守備では三塁手を39試合、二塁手を33試合、遊撃手を22試合で守り、全ポジションでプラスのDRSを記録して安定感を見せた。	NO_PRONOUNCE	NO_LABEL
2月5日にクリスチャン・フリードリックの加入に伴ってDFAとなった。	にがついつかにくりすちゃんふりーどりっくのかにゅーにともなってでぃーえふえーとなった。	NO_LABEL
2016年2月10日に後日発表選手とのトレードで、フィラデルフィア・フィリーズへ移籍した。	にせんじゅうろくねんにがつとおかにごじつはっぴょーせんしゅとのとれーどで、ふぃらでるふぃあふぃりーずえいせきした。	NO_LABEL
9月10日にDFAとなり、12日に40人枠を外れる形で傘下のAAA級リーハイバレー・アイアンピッグスへ配属された。	くがつとおかにでぃーえふえーとなり、じゅうににちによんじゅうにんわくをはずれるかたちでさんかのとりぷれあきゅーりーはいばれーあいあんぴっぐすえはいぞくされた。	NO_LABEL
6月9日に金銭トレードで、タンパベイ・レイズへ移籍し、即日でアクティブ・ロースター入りした。	NO_PRONOUNCE	NO_LABEL
8月28日にDFAとなり、30日にマイナー契約で傘下のAAA級ダーラム・ブルズへ配属された。	はちがつにじゅうはちにちにでぃーえふえーとなり、さんじゅうにちにまいなーけいやくでさんかのとりぷれあきゅーだーらむぶるずえはいぞくされた。	NO_LABEL
レギュラーシーズン終了後の10月2日にFAとなった。	れぎゅらーしーずんしゅーりょーごのじゅーがつふつかにえふえいとなった。	NO_LABEL
2017年12月15日にミネソタ・ツインズとマイナー契約を結んだ。	にせんじゅうななねんじゅーにがつじゅうごにちにみねそたついんずとまいなーけいやくをむすんだ。	NO_LABEL
