植田 平太郎- 1949年）は、日本の剣道家。	NO_PRONOUNCE	NO_LABEL
流派は天真正伝神道流剣術、無双神伝英信流抜刀術。	りゅーはわてんしんせいでんしんとーりゅーけんじゅつ、むそーしんでんえいしんりゅーばっとーじゅつ。	NO_LABEL
称号は大日本武徳会剣道範士、居合術教士。	しょーごーわだいにっぽんぶとくかいけんどーのりひと、いあいじゅつきょーし。	NO_LABEL
昭和天覧試合3回出場。	しょーわてんらんじあいさんかいしゅつじょー。	NO_LABEL
大日本武徳会香川支部、香川県警察部、高松監獄署、高松高等商業学校、高松商業学校、高松第一中学校の剣道師範を務めた。	だいにっぽんぶとくかいかがわしぶ、かがわけんけいさつぶ、たかまつかんごくしょ、たかまつこーとーしょーぎょーがっこー、たかまつしょーぎょーがっこーきんだいき、たかまつだいいちちゅうがっこーのけんどーしはんをつとめた。	NO_LABEL
愛媛県香川郡池西村生まれ。	えひめけんかがわぐんいけにしむらうまれ。	NO_LABEL
父与佐衛門は天真正伝神道流剣術に堪能で、農業のかたわら自宅に道場を開いていた。	ちちあずかさえもんわてんしんせいでんしんとーりゅーけんじゅつにかんのーで、のーぎょーのかたわらじたくにどーじょーをひらいていた。	NO_LABEL
平太郎は14歳から与佐衛門に天真正伝神道流剣術を学び、30歳のとき皆伝を授かった。	へいたろーわじゅうよんさいからあずかさえもんにてんしんせいでんしんとーりゅーけんじゅつをまなび、さんじゅっさいのときかいでんをさずかった。	NO_LABEL
また、16歳から叔父の酒井親時に宅間当流柔術を学んだ。	また、じゅうろっさいからおじのさかいちかときにたくまとーりゅーじゅーじゅつをまなんだ。	NO_LABEL
1896年から四国一円を武者修行する。	せんはっぴゃくきゅうじゅうろくねからしこくいちえんをむしゃしゅぎょーする。	NO_LABEL
1905年1月、京都の大日本武徳会本部講習生となり、同年5月に帰郷した。	せんきゅうひゃくごねんいちがつ、きょーとのだいにっぽんぶとくかいほんぶこーしゅーせいとなり、どーねんごがつにききょーした。	NO_LABEL
1919年、高知の細川義昌に入門して無双神伝英信流抜刀術を学ぶ。	せんきゅうひゃくじゅうきゅうねん、こーちのほそかわよしまさににゅーもんしてむそーしんでんえいしんりゅーばっとーじゅつをまなぶ。	NO_LABEL
同門には中山博道がいた。	どーもんにわなかやまはくどーがいた。	NO_LABEL
1923年、細川から免許皆伝を授かった。	せんきゅうひゃくにじゅうさんねん、ほそかわからめんきょかいでんをさずかった。	NO_LABEL
1974年2月23日、香川県知事金子正則が祭主となり、「植田平太郎之命」として香川県善通寺市讃岐宮に祀られた。	NO_PRONOUNCE	NO_LABEL
香川県では現在も「植田平太郎範士杯」争奪剣道大会が開かれている。	NO_PRONOUNCE	NO_LABEL
三男の植田一は全日本剣道選手権大会準優勝などの実績を残し、範士九段まで昇段した。	さんなんのうえたはじめわぜんにほんけんどーせんしゅけんたいかいじゅんゆうしょーなどのじっせきをのこし、のりひとくだんまでしょーだんした。	NO_LABEL
