多数決ドラマとは、2015年10月4日の電撃文庫 秋の祭典2015グランドフィナーレにおいて企画発表、同年11月28日より開始した、電撃文庫とniconicoによる新たなメディアミックスである。	NO_PRONOUNCE	NO_LABEL
ニコニコ生放送の機能視聴者アンケートの結果によって、ストーリーが変わるユーザー参加型ラジオドラマ「多数決ドラマ」は、電撃文庫編集長三木一馬がニコニコ動画と何かできないかと考え、ニコニコがニコニコ生放送でのアンケート機能を使い、ゲームブックのように視聴者に選択して分岐させることを提案。	NO_PRONOUNCE	NO_LABEL
これにより、多数決ドラマの企画が始動した。	これにより、たすーけつどらまのきかくがしどーした。	NO_LABEL
ストーリーやイラストは著者、原作イラストレーターの書き下ろしである。	すとーりーやいらすとわちょしゃ、げんさくいらすとれーたーのかきおろしである。	NO_LABEL
番組の前半では、声優または企画者がMCを務め、ゲストと共に作品の紹介や大まかな分岐の説明を行う。	ばんぐみのぜんはんでわ、せいゆーまたわきかくしゃがえむしーをつとめ、げすととともにさくひんのしょーかいやおーまかなぶんきのせつめいをおこなう。	NO_LABEL
その後、実際の多数決ドラマ本編に移り、終了後は再びスタジオに戻り、番組の感想や、視聴者からのメールの紹介をする。	そのご、じっさいのたすーけつどらまほんぺんにうつり、しゅーりょーごわふたたびすたじおにもどり、ばんぐみのかんそーや、しちょーしゃからのめーるのしょーかいをする。	NO_LABEL
本編ではストーリーの進行とともに複数の選択肢が提示され、視聴者が選択。	ほんぺんでわすとーりーのしんこーとともにふくすーのせんたくしがていじされ、しちょーしゃがせんたく。	NO_LABEL
一定時間経過後に結果が百分率で表示され、最も高いルートへ物語は進行する。	いっていじかんけいかごにけっかがひゃっぷんりつでひょーじされ、もっともたかいるーとえものがたりわしんこーする。	NO_LABEL
このとき運営スタッフが手動で動画を選択する。	このときうんえいすたっふがしゅどーでどーがをせんたくする。	NO_LABEL
なお、投票結果については、ニコニコ生放送のアンケート仕様により集計の数値を放送スタッフが操作できないため正確である。	なお、とーひょーけっかについてわ、にこにこなまほうそーのあんけーとしよーによりしゅーけいのすーちをほーそーすたっふがそーさできないためせいかくである。	NO_LABEL
が故に第1弾の第5回配信ではアンケート結果が50%：50%の完全同数となるハプニングが発生した。	NO_PRONOUNCE	NO_LABEL
2016年10月2日の電撃文庫秋の祭典2016のサテライトステージにおいて会場及びニコニコ生放送で配信された出張版「多数決ドラマ」は、ニコ生アンケートによる投票結果だけでなく、会場の参加者の声援の大きさを含めて、スタッフの判断でルートが決定する仕組みになっていた。	NO_PRONOUNCE	NO_LABEL
多数決ドラマ「俺の妹がこんなに可愛いわけがない featuring エロマンガ先生」	NO_PRONOUNCE	NO_LABEL
ストーリーは、イラストレーターであるエロマンガ先生の元に「俺の妹がこんなに可愛いわけがない」のヒロインが訪れ、自分のイラストを描いてもらう展開である。	NO_PRONOUNCE	NO_LABEL
最初の視聴者アンケートによって出演キャラクターを選択し、その後適宜、イラストの修正をするためにアンケートを行う。	さいしょのしちょーしゃあんけーとによってしゅつえんきゃらくたーをせんたくし、そのごてきぎ、いらすとのしゅーせいをするためにあんけーとをおこなう。	NO_LABEL
合言葉は、『レッツ談合！』。	NO_PRONOUNCE	NO_LABEL
これはアンケートの多数決で決められるストーリーの分岐について、ニコニコ生放送のコメントや各種SNSにおいてみんなで話し合ってもらおうという意味である。	これわあんけーとのたすーけつできめられるすとーりーのぶんきについて、にこにこなまほうそーのこめんとやかくしゅえすえぬえすにおいてみんなではなしあってもらおうとゆういみである。	NO_LABEL
多数決ドラマ「青春ブタ野郎はバニーガール先輩の夢を見ない with さくら荘のペットな彼女」	NO_PRONOUNCE	NO_LABEL
青春ブタ野郎シリーズの主人公梓川咲太が学校の文化祭において、視聴者アンケートで選択されたヒロインをミスコンで優勝させるために奔走するストーリーである。	せいしゅんぶたやろーしりーずのしゅじんこーあずさかわさきふとしががっこーのぶんかさいにおいて、しちょーしゃあんけーとでせんたくされたひろいんをみすこんでゆーしょーさせるためにほんそーするすとーりーである。	NO_LABEL
合言葉は、『君の選択が未来を決める！』。	NO_PRONOUNCE	NO_LABEL
2016年7月23日より開始された。	にせんじゅうろくねんしちがつにじゅうさんにちよりかいしされた。	NO_LABEL
第4弾は『ネトゲの嫁は女の子じゃないと思った?』が、第5弾は『いでおろーぐ!』が2017年に配信される予定である。	NO_PRONOUNCE	NO_LABEL
