巻雲は、大日本帝国海軍の駆逐艦で、敷波型駆逐艦の2番艦である。	まきぐもわ、だいにっぽんていこくかいぐんのくちくかんで、しきなみがたくちくかんのにばんかんである。	NO_LABEL
元ロシア水雷巡洋艦カザルスキー級。	もとろしあすいらいじゅんよーかんかざるすきーきゅー。	NO_LABEL
同名艦に夕雲型駆逐艦の「巻雲」があるため、こちらは「巻雲」や「巻雲I」などと表記される。	NO_PRONOUNCE	NO_LABEL
日露戦争に参加。	にちろせんそーにさんか。	NO_LABEL
1905年1月1日、旅順で沈没状態で捕獲され、同年10月23日に引き上げ、整備。	せんきゅうひゃくごねんいちがつついたち、りょじゅんでちんぼつじょーたいでほかくされ、どーねんじゅーがつにじゅうさんにちにひきあげ、せいび。	NO_LABEL
同年10月31日に「巻雲」と命名。	NO_PRONOUNCE	NO_LABEL
1907年に整備完了。	せんきゅうひゃくななねんにせいびかんりょー。	NO_LABEL
1913年4月1日に除籍され、1914年8月23日に雑役船「巻雲丸」となる。	NO_PRONOUNCE	NO_LABEL
同年、青島の戦いに参加。	どーねん、ちんたおのたたかいにさんか。	NO_LABEL
1915年6月28日に廃船となり、同年10月2７日に売却された。	NO_PRONOUNCE	NO_LABEL
