ソーシャルログインは、 ソーシャルサインインとも呼ばる。	そーしゃるろぐいんわ、そーしゃるさいんいんともよばる。	NO_LABEL
Webサービスを利用するにはWebサービス毎にIDを新規に登録するのが常識であったが、最近はソーシャルメディアのアカウントを活用してログインできる機能が一般的になっている。	うぇぶさーびすをりよーするにわうぇぶさーびすごとにあいでぃーをしんきにとーろくするのがじょーしきであったが、さいきんわそーしゃるめでぃあのあかうんとをかつよーしてろぐいんできるきのーがいっぱんてきになっている。	NO_LABEL
ユーザーは毎回毎回、個人情報などを全て登録する必要が無く、既にソーシャルメディアに登録されている情報を使用してログインや会員登録を行うことができる。	ゆーざーわまいかいまいかい、こじんじょうほーなどをすべてとーろくするひつよーがなく、すでにそーしゃるめでぃあにとーろくされているじょーほーをしよーしてろぐいんやかいーんとーろくをおこなうことができる。	NO_LABEL
これらは、「ソーシャル・ログイン」と呼ばれている。	NO_PRONOUNCE	NO_LABEL
Webサービスは「ソーシャル・ログイン」の仕組みを使いユーザーのユーザビリティを高めることで、会員登録率やログイン率を向上させている。	NO_PRONOUNCE	NO_LABEL
日本国内で利用されているソーシャルログインのサービスには、世界中で使用されているFacebookやTwitter、Amazonの他に、Yahoo!IDやLINE、楽天IDなどが利用されている。	にほんこくないでりよーされているそーしゃるろぐいんのさーびすにわ、せかいじゅーでしよーされているふぇいすぶっくやついったー、あまぞんのほかに、やふーあいでぃやらいん、らくてんあいでぃなどがりよーされている。	NO_LABEL
