ザック・バランスキーは、アメリカ合衆国出身のバスケットボール選手である。	ざっくばらんすきーわ、あめりかがっしゅーこくしゅっしんのばすけっとぼーるせんしゅである。	NO_LABEL
193cm、94kg。	ひゃくきゅうじゅうさんせんちめーとる、きゅうじゅうよんきろぐらむ。	NO_LABEL
Bリーグ・アルバルク東京所属。	NO_PRONOUNCE	NO_LABEL
1992年、栃木県で生まれ、4歳の時にアメリカに帰国。	せんきゅうひゃくきゅうじゅうにねん、とちぎけんでうまれ、よんさいのときにあめりかにきこく。	NO_LABEL
10歳の時に来日し、以後日本に在住する。	じゅっさいのときにらいにちし、いごにっぽんにざいじゅーする。	NO_LABEL
長野県長野市の裾花中学校を経て、2008年に東海大学第三高等学校に進学、1年生時より全国大会に出場する。	ながのけんながのしのすそはななかがっこーをへて、にせんはちねんにとーかいだいがくだいさんこーとーがっこーにしんがく、いちねんせいじよりぜんこくたいかいにしゅつじょーする。	NO_LABEL
3年生時の2010年インターハイはベスト4、ウインターカップでベスト8。	さんねんせいじのにせんじゅうねんいんたーはいわべすとふぉー、ういんたーかっぷでべすとえいと。	NO_LABEL
2011年、東海大学に進学する。	にせんじゅういちねん、とーかいだいがくにしんがくする。	NO_LABEL
2012年、2013年のインターカレッジで優勝する。	にせんじゅうにねん、にせんじゅうさんねんのいんたーかれっじでゆーしょーする。	NO_LABEL
2014年は準優勝、また同年に関東大学バスケットボール連盟創立90周年記念試合三菱電機カップに日本学生選抜の一員として出場する。	にせんじゅうよねんわじゅんゆうしょー、またどーねんにかんとーだいがくばすけっとぼーるれんめいそーりつきゅうじゅうしゅーねんきねんしあいみつびしでんきかっぷににっぽんがくせいせんばつのいちいんとしてしゅつじょーする。	NO_LABEL
2015年1月、NBLのアーリーエントリー制度によりトヨタ自動車アルバルク東京に入団。	にせんじゅうごねんいちがつ、えぬびーえるのあーりーえんとりーせいどによりとよたじどーしゃあるばるくとうきょーににゅーだん。	NO_LABEL
日本で出生し、日本の小学校および中学校を卒業して義務教育課程を修了しているため、Bリーグでは外国籍選手扱いはされない。	にっぽんでしゅっしょーし、にっぽんのしょーがっこーおよびちゅーがっこーをそつぎょーしてぎむきょーいくかていをしゅーりょーしているため、あるいはびーりーぐでわがいこくせきせんしゅあつかいわされない。	NO_LABEL
名前が日本語の「ざっくばらん」に通じ、2017年1月26日にあるTwitterユーザーがバランスキーのプロフィール写真に「すごくいい名前の選手がいた」とコメントを添えたツイートを投稿したことで話題となった。	NO_PRONOUNCE	NO_LABEL
本人は「狙って名付けたわけではありません。	NO_PRONOUNCE	NO_LABEL
笑」と説明しつつ、「普通に嬉しい!! 皆さんよかったら名前覚えてね。	NO_PRONOUNCE	NO_LABEL
試合も見に来てくれたら最高に嬉しい」と好意的なコメントをした。	NO_PRONOUNCE	NO_LABEL
