ヒラエオサウルスは、白亜紀前期にイギリスに生息していた曲竜類の草食恐竜の一種。	ひらえおさうるすわ、はくあきぜんきにいぎりすにせいそくしていたきょくりゅーるいのそーしょくきょーりゅーのいっしゅ。	NO_LABEL
名前は「森のトカゲ」という意味。	NO_PRONOUNCE	NO_LABEL
これまで発見されている化石は部分的であり、頭骨や尻尾は未発見。	これまではっけんされているかせきわぶぶんてきであり、ずこつやしっぽわみはっけん。	NO_LABEL
肩甲骨の上に棘状の骨が並ぶことからノドサウルス科に分類されているが、同じ地層からポラカントゥスが見つかっていることから、ポラカントゥス科とする説もある。	けんこーこつのうえにとげじょーのほねがならぶことからのどさうるすかにぶんるいされているが、おなじちそーからぽらかんとぅすがみつかっていることから、ぽらかんとぅすかとするせつもある。	NO_LABEL
恐竜としてはかなり早くから知られた種類であり、右の復元図も19世紀の恐竜学黎明期のものである。	きょーりゅーとしてわかなりはやくからしられたしゅるいであり、みぎのふくげんずもじゅうきゅうせいきのきょーりゅーがくれいめいきのものである。	NO_LABEL
