カーチ・キライは、アメリカ合衆国の男子バレーボール選手。	かーちきらいわ、あめりかがっしゅーこくのだんしばれーぼーるせんしゅ。	NO_LABEL
ミシガン州・ジャクソン出身。	NO_PRONOUNCE	NO_LABEL
バレーボールとビーチバレーの2種目でオリンピックの金メダルを獲得した唯一の選手である。	ばれーぼーるとびーちばれーのにしゅめでおりんぴっくのきんめだるをかくとくしたゆいいつのせんしゅである。	NO_LABEL
2012年からアメリカ女子代表の監督を務めている。	にせんじゅうにねんからあめりかじょしだいひょーのかんとくをつとめている。	NO_LABEL
父親はハンガリー動乱のためにアメリカに逃れてきた移民である。	ちちおやわはんがりーどーらんのためにあめりかにのがれてきたいみんである。	NO_LABEL
6歳のときにビーチバレーを始め、大学に入ってからバレーボールを始める。	ろっさいのときにびーちばれーをはじめ、だいがくにはいってからばれーぼーるをはじめる。	NO_LABEL
1982年世界選手権で国際大会デビュー。	せんきゅうひゃくはちじゅうにねんせかいせんしゅけんでこくさいたいかいでびゅー。	NO_LABEL
1984年ロサンゼルスオリンピックと1988年ソウルオリンピックに出場し、2大会連続金メダルを獲得。	NO_PRONOUNCE	NO_LABEL
1990年から1992年までプレーしたイタリア・セリエAのラヴェンナでは、1991年世界クラブ選手権で優勝し、最優秀選手に選出。	NO_PRONOUNCE	NO_LABEL
1990-1991シーズンのリーグ優勝にも貢献するなどインドアで活躍した後、ビーチバレーに転向する。	NO_PRONOUNCE	NO_LABEL
1996年アトランタオリンピックにケント・ステフェスと組んでビーチバレーで出場し、金メダルを獲得。	NO_PRONOUNCE	NO_LABEL
2001年バレーボール殿堂入り。	にせんいちねんばれーぼーるでんどーいり。	NO_LABEL
国際バレーボール連盟の「20世紀最優秀選手」に選出。	NO_PRONOUNCE	NO_LABEL
2009年、アメリカ女子代表チームのアシスタントコーチに就任、ロンドン五輪後の2012年9月、同監督になることが発表された。	にせんきゅうねん、あめりかじょしだいひょーちーむのあしすたんとこーちにしゅーにん、ろんどんごりんごのにせんじゅうにねんくがつ、どーかんとくになることがはっぴょーされた。	NO_LABEL
