大阪府立勝山高等学校は、大阪府大阪市生野区にある公立高等学校。	おーさかふりつかつやまこうとうがっこーわ、おーさかふおーさかしいくのくにあるこーりつこーとーがっこー。	NO_LABEL
1922年に大阪府立としては12番目となる高等女学校として創立。	せんきゅうひゃくにじゅうにねんにおーさかふりつとしてわじゅうにばんめとなるこーとーじょがっこーとしてそーりつ。	NO_LABEL
かつては定時制課程を併設していたこともあったが、大阪府の高校再編方針により1998年度に閉課程となっている。	NO_PRONOUNCE	NO_LABEL
「嫩葉体操」なる独特の体操を生むなど、創立以来体育教育が盛んである。	NO_PRONOUNCE	NO_LABEL
1年生での35人学級の導入、英語や数学での20人前後の少人数指導などの取り組みを行っている。	いちねんせいでのさんじゅうごにんがっきゅーのどーにゅー、えいごやすーがくでのにじゅうにんぜんごのしょーにんずーしどーなどのとりくみをおこなっている。	NO_LABEL
また、近年は「学びの共同体」として、『コの字形学習』を導入している。	NO_PRONOUNCE	NO_LABEL
机の配置をコの字形にすることで、生徒らが常に向き合う形になり、グループ学習と併用している。	つくえのはいちをこのじけいにすることで、せいとらがつねにむきあうかたちになり、ぐるーぷがくしゅーとへいよーしている。	NO_LABEL
文部省告示第347号により、大阪府立第十二高等女学校の開校が1922年3月17日に告示され、同年4月1日に大阪府立泉尾高等女学校を仮校舎として開校した。	NO_PRONOUNCE	NO_LABEL
当時体育教育は一般的にはあまり重視されていなかったが、初代校長は体力作りや健康を重視し、体操や乾布摩擦を奨励した。	とーじたいいくきょーいくわいっぱんてきにわあまりじゅーしされていなかったが、しょだいこーちょーわたいりょくずくりやけんこーをじゅーしし、たいそーやかんぷまさつをしょーれいした。	NO_LABEL
正課の体操の授業のほか家庭でも体操を奨励し、「家庭体操」なる独特の体操を作った。	NO_PRONOUNCE	NO_LABEL
家庭体操は1936年以降「嫩葉体操」と呼ばれるようになった。	NO_PRONOUNCE	NO_LABEL
開校1年後の1923年4月1日付で大阪府立生野高等女学校と改称し、同年12月に東成郡生野村大字国分に移転している。	かいこーいちねんごのせんきゅうひゃくにじゅうさんねんしがつついたちずけでおーさかふりついくのこーとーじょがっこーとかいしょーし、どーねんじゅーにがつにひがしなりぐんいくのむらだいじこくぶにいてんしている。	NO_LABEL
学校名については、学校側は当初、近隣の史跡・御勝山古墳からとった「御勝山高等女学校」を希望した。	NO_PRONOUNCE	NO_LABEL
しかし大阪府は「局地的な地名を校名につけることは好ましくない」として学校側の案を受け入れなかったため、生野村からとった生野高等女学校となった。	NO_PRONOUNCE	NO_LABEL
戦前は宗教講話も行われ、僧侶で大谷女子専門学校教授の左藤義詮やキリスト教牧師、生国魂神社宮司などが講演を行っている。	せんぜんわしゅーきょーこーわもおこなわれ、そーりょでおーやじょしせんもんがっこーきょーじゅのさとうぎせんやきりすときょーぼくし、いくくにたまじんじゃぐーじなどがこーえんをおこなっている。	NO_LABEL
1934年9月21日の室戸台風では校舎が一部損壊したものの、校内での死傷者はなかった。	せんきゅうひゃくさんじゅうよねんくがつにじゅういちにちのむろとたいふーでわこーしゃがいちぶそんかいしたものの、こーないでのししょーしゃわなかった。	NO_LABEL
近隣のプール女学校で校舎が倒壊したことを受けて、救援活動やプール女学校生徒の避難を受け入れるなどしている。	きんりんのぷーるじょがっこーでこーしゃがとーかいしたことをうけて、きゅーえんかつどーやぷーるじょがっこーせいとのひなんをうけいれるなどしている。	NO_LABEL
太平洋戦争の戦局悪化により1944年には3年生以上の勤労動員が始まり、泉南郡田尻村の大阪機工吉見の里工場、中河内郡加美村の早川電機、大阪市西成区津守の大日本紡績津守工場などへの動員が実施された。	たいへいよーせんそーのせんきょくあっかによりせんきゅうひゃくよんじゅうよねんにわさんねんせいいじょーのきんろーどーいんがはじまり、せんなんぐんたじりむらのおーさかきこーよしみのさとこーじょー、なかかわちぐんかみむらのはやかわでんき、おーさかしにしなりくつもりのだいにっぽんぼーせきつもりこーじょーなどえのどーいんがじっしされた。	NO_LABEL
1945年の大阪大空襲では校舎への被害は免れている。	せんきゅうひゃくよんじゅうごねんのおーさかだいくうしゅーでわこーしゃえのひがいわまぬかれている。	NO_LABEL
学制改革により、1948年に大阪府立勝山高等学校が発足した。	がくせいかいかくにより、せんきゅうひゃくよんじゅうはちねにおーさかふりつかつやまこうとうがっこーがほっそくした。	NO_LABEL
校名については当時の学校所在地周辺の地名からとられている。	こーめいについてわとーじのがっこーしょざいちしゅーへんのちめいからとられている。	NO_LABEL
新制高校の校名には「御勝山」と「勝山」が候補に挙がったが、勝山の名称でまとまった。	NO_PRONOUNCE	NO_LABEL
勝山では同名の学校が岡山県と福井県にあるという指摘もされたが、いずれも遠方で混同などの恐れもなく問題ないとされた。	かつやまでわどーめいのがっこーがおかやまけんとふくいけんにあるとゆうしてきもされたが、いずれもえんぽーでこんどーなどのおそれもなくもんだいないとされた。	NO_LABEL
近隣の生野区東生野町にあった大阪府立生野高等学校と男女生徒および教職員を交流し、男女共学となった。	きんりんのいくのくひがしいかのちょーにあったおーさかふりついくのこーとーがっこーとだんじょせいとおよびきょーしょくいんをこーりゅーし、だんじょきょーがくとなった。	NO_LABEL
交流対象者は生徒の住所で決められた。	こーりゅーたいしょーしゃわせいとのじゅーしょできめられた。	NO_LABEL
直後の同年5月には、GHQの指令により生野高等学校は新制中学校に校舎を転用することになり、勝山高等学校内に移転して2校同居することになった。	NO_PRONOUNCE	NO_LABEL
生野高等学校は1951年3月に元の生野校舎に戻っている。	いくのこーとーがっこーわせんきゅうひゃくごじゅういちねんさんがつにもとのいくのこーしゃにもどっている。	NO_LABEL
また同年3月から9月にかけて、大阪市立生野中学校が勝山高等学校内の8教室を借用して分校としたこともあった。	NO_PRONOUNCE	NO_LABEL
交通量の増加により、1960年代初頭には学校北側を走る勝山通の騒音公害が目立つようになった。	こーつーりょーのぞーかにより、せんきゅうひゃくろくじゅうねんだしょとーにわがっこーきたがわをはしるかつやまどおりのそーおんこーがいがめだつよーになった。	NO_LABEL
また他校と比較して運動場が狭く、当時の全日制普通科府立高校で運動場面積が一番狭かったことも判明した。	またたこーとひかくしてうんどーじょーうんどうばがせまく、とーじのぜんにちせいふつーかふりつこーこーでうんどーじょーうんどうばめんせきがいちばんせまかったこともはんめいした。	NO_LABEL
学校側は隣接地の民家を買収して校地拡張することを検討し、大阪府に陳情した。	がっこーがわわりんせつちのみんかをばいしゅーしてこーちかくちょーすることをけんとーし、おーさかふにちんじょーした。	NO_LABEL
しかし大阪府側は学校移転を打診した。	しかしおーさかふがわわがっこーいてんをだしんした。	NO_LABEL
学校側が地元住民の意見を聴いたところ、「移転する場合は生野区内での移転を希望する」という声が多かったことから、生野区内で移転先を探すことにし、生野区巽矢柄町を移転先として選定した。	NO_PRONOUNCE	NO_LABEL
一方、「勝山通から離れた校地南側に中層の新校舎を建て替えることで騒音の軽減になり、また運動場拡張にもなる」「巽はバスしか交通手段がないから通学が不便になる」として勝山での建て替えを希望する意見もあった。	NO_PRONOUNCE	NO_LABEL
しかし「1965年前後に地下鉄が巽まで延伸する」と当時見込まれていたことなどから、巽への移転が決まった。	NO_PRONOUNCE	NO_LABEL
1962年に巽の新敷地の買収が完了した。	せんきゅうひゃくろくじゅうにねんにたつみのしんしきちのばいしゅーがかんりょーした。	NO_LABEL
この間に大阪府知事選挙があった関係で校舎建設予算は1963年度9月補正予算を待たねばならず、1965年1月より新校舎建設工事が開始された。	このかんにおーさかふちじせんきょがあったかんけいでこーしゃけんせつよさんわせんきゅうひゃくろくじゅうさんねんどくがつほせいよさんをまたねばならず、せんきゅうひゃくろくじゅうごねんいちがつよりしんこーしゃけんせつこーじがかいしされた。	NO_LABEL
1966年2月に第1期工事が完了し、同年3月下旬に移転作業を実施した。	せんきゅうひゃくろくじゅうろくねんにがつにだいいっきこーじがかんりょーし、どーねんさんがつげじゅんにいてんさぎょーをじっしした。	NO_LABEL
同4月より現在地での教育活動を開始した。	どーしがつよりげんざいちでのきょーいくかつどーをかいしした。	NO_LABEL
移転当初、バスが唯一の公共交通手段だったため、満員でバスに乗れずに遅刻する生徒が目立った。	いてんとーしょ、ばすがゆいいつのこーきょーこーつーしゅだんだったため、まんいんでばすにのれずにちこくするせいとがめだった。	NO_LABEL
また通勤困難を理由に他校への転勤希望を出す教職員も増加した。	またつーきんこんなんをりゆーにたこーえのてんきんきぼーをだすきょーしょくいんもぞーかした。	NO_LABEL
学校やPTAは当時、バスの増発を陳情している。	がっこーやぴぃーてぃーえーわとーじ、ばすのぞーはつをちんじょーしている。	NO_LABEL
移転前の旧敷地は、通信制などを設置する大阪府立桃谷高等学校として使用されている。	いてんまえのきゅーしきちわ、つーしんせいなどをせっちするおーさかふりつももだにこーとーがっこーとしてしよーされている。	NO_LABEL
巽の新校舎は1学年8学級規模で設計された。	NO_PRONOUNCE	NO_LABEL
しかし1970年代・1980年代の高校生急増期への対策として、特別教室の普通教室への転用などで1学年12学級の受け入れが可能となるように改造された。	NO_PRONOUNCE	NO_LABEL
従来は文系・理系のクラス分けはせず3年生の選択科目で対応していたが、1983年度より3年生について文系・理系のクラス分けを実施した。	NO_PRONOUNCE	NO_LABEL
さらに1989年には英語科と数学科について習熟度別学習を導入し、1991年にはコース制を導入した。	さらにせんきゅうひゃくはちじゅうきゅうねんにわえいごかとすーがくかについてしゅーじゅくどべつがくしゅーをどーにゅーし、せんきゅうひゃくきゅうじゅういちねんにわこーすせいをどーにゅーした。	NO_LABEL
コース制は導入当時、大阪府立の普通科高校ではきわめて珍しい取り組みだった。	こーすせいわどーにゅーとーじ、おーさかふりつのふつーかこーこーでわきわめてめずらしいとりくみだった。	NO_LABEL
少子高齢化に伴い、生徒人数が減少し、2016年から定員割れが続いている。	しょーしこーれいかにともない、せいとにんずーがげんしょーし、にせんじゅうろくねんからていーんわれがつずいている。	NO_LABEL
愛される学校づくりのため、キャラクターの「勝だるま」を活用したグッズを作成したり、周辺地域の清掃活動や挨拶運動、小学校・幼稚園との交流、ヤギの飼育等を実施している。	NO_PRONOUNCE	NO_LABEL
先述の通り、近年「学びの共同体」として、『コの字型学習』を導入している。	NO_PRONOUNCE	NO_LABEL
生徒の机を黒板に向けるのでなく、コの字型にすることで、生徒同士が向き合う形で学習をする。	せいとのつくえをこくばんにむけるのでなく、このじがたにすることで、せいとどーしがむきあうかたちでがくしゅーをする。	NO_LABEL
グループ学習も併用することで、学習に対して意識させるだけでなく、先生から教えるのでなく、生徒同士で教え合うことで、より理解することを目標としている。	ぐるーぷがくしゅーもへいよーすることで、がくしゅーにたいしていしきさせるだけでなく、せんせいからおしえるのでなく、せいとどーしでおしえあうことで、よりりかいすることをもくひょーとしている。	NO_LABEL
定時制は1952年に開設された。	ていじせいわせんきゅうひゃくごじゅうにねんにかいせつされた。	NO_LABEL
1991年には、通信制高校との併修により3年で卒業できる制度を導入している。	NO_PRONOUNCE	NO_LABEL
しかし大阪府教育委員会は1995年7月12日に突然、「高校改革のための統廃合が必要」などとして、勝山・市岡・今宮・守口・佐野・高津の6府立高校の定時制を廃止する方針を発表した。	NO_PRONOUNCE	NO_LABEL
勝山高校の教職員や生徒・卒業生らは廃止反対運動を起こした。	NO_PRONOUNCE	NO_LABEL
廃校反対運動は、他の対象校となった学校関係者と「定時制存続6校連絡会」を結成するなど、6校の関係者が協力しながら行われた。	NO_PRONOUNCE	NO_LABEL
勝山高校定時制閉課程反対の署名は学校周辺などで行われ、最終的には7万8000人以上の署名が集まった。	NO_PRONOUNCE	NO_LABEL
しかし大阪府教育委員会は1995年11月8日の教育委員会会議で、勝山高校定時制を含む6校定時制について、1996年度以降の募集停止を正式決定した。	NO_PRONOUNCE	NO_LABEL
廃校反対運動の関係者は行政不服審査法に基づき異議申し立てを行ったが、「不当な処分に該当しない」として異議申し立ては却下されている。	NO_PRONOUNCE	NO_LABEL
定時制は1996年度以降募集停止となり、最終学年が卒業した1999年3月をもって閉課程となっている。	NO_PRONOUNCE	NO_LABEL
同時期に新設された大阪府立桃谷高等学校定時制課程が、勝山・高津両校の定時制課程の事実上の後継として位置づけられている。	NO_PRONOUNCE	NO_LABEL
戦前は硬式テニス部が2度全国制覇。	せんぜんわこーしきてにすぶがにどぜんこくせいは。	NO_LABEL
バスケットボール部も全国大会に出場した。	ばすけっとぼーるぶもぜんこくたいかいにしゅつじょーした。	NO_LABEL
戦後はシンクロの藤原成江選手を輩出。	せんごわしんくろのふじわらなりえせんしゅをはいしゅつ。	NO_LABEL
野球部は1980年ごろ強豪私学と互角の戦いをし、「公立の雄」ともてはやされたが、甲子園出場はならなかった。	NO_PRONOUNCE	NO_LABEL
また、高校としては珍しく、相撲部、女子サッカー部があり、校内に府立高等学校で唯一、「土俵」もある。	NO_PRONOUNCE	NO_LABEL
2017年には、大相撲の元関脇若の里の西岩親方が、勝山高校で記者会見し、同校3年で相撲部主将が初の内弟子として田子ノ浦部屋に入門することを発表している。	にせんじゅうななねんにわ、おーずもーのもとせきわけわかのさとのにしいわおやかたが、かつやまこーこーできしゃかいけんし、どーこーさんねんですもーぶしゅしょーがはつのうちでしとしてたごのうらべやににゅーもんすることをはっぴょーしている。	NO_LABEL
また、書道部が「書写検定」で毛筆・硬筆ともに2級を習得するなどの実績があり、書道展覧会に出展するなど活発的である。	NO_PRONOUNCE	NO_LABEL
近年は、部活動をする生徒の減少が目立ち、学校はこれまで無かった「部活体験会」等を実施し、新入生や在校生に部活動に興味をもたせようとしている。	NO_PRONOUNCE	NO_LABEL
特に運動部では、人数不足のために合同チーム体制を取るなどをして対応している。	とくにうんどーぶでわ、にんずーぶそくのためにごーどーちーむたいせいをとるなどをしてたいおーしている。	NO_LABEL
生徒らが利用する教室。	せいとらがりよーするきょーしつ。	NO_LABEL
各クラスごとに設けられ、エアコンを各教室に2台完備している。	NO_PRONOUNCE	NO_LABEL
府立高等学校としては唯一、本格的な「土俵」が設置されている。	NO_PRONOUNCE	NO_LABEL
相撲部の活動場の他、男子1年生のみ体育で武道の授業として、相撲を学習する。	すもーぶのかつどーじょーのほか、だんしいちねんせいのみたいいくでぶどーのじゅぎょーとして、すもーをがくしゅーする。	NO_LABEL
かつては、剣道と柔道のための道場だったが、現在は柔道のみ体育で学習する。	かつてわ、けんどーとじゅーどーのためのどーじょーだったが、げんざいわじゅーどーのみたいいくでがくしゅーする。	NO_LABEL
剣道場では、卓球などができる。	けんどーじょーでわ、たっきゅーなどができる。	NO_LABEL
女子は1年、男子は2年から柔道を学習する。	じょしわいちねん、だんしわにねんからじゅーどーをがくしゅーする。	NO_LABEL
基礎的なものから、試合まで行う。	きそてきなものから、しあいまでおこなう。	NO_LABEL
縦横110メートルのグラウンドには、野球部の練習場に黒土が導入しており、バックネットもある。	NO_PRONOUNCE	NO_LABEL
通常の体育授業で使うほか、運動部も利用する。	つーじょーのたいいくじゅぎょーでつかうほか、うんどーぶもりよーする。	NO_LABEL
毎年5月末に実施される体育祭で利用している。	まいとしごがつまつにじっしされるたいーくさいでりよーしている。	NO_LABEL
また、西側にはテニスコートが4面ある。	NO_PRONOUNCE	NO_LABEL
その南には、「農園」や「芝生」が設備されている。	NO_PRONOUNCE	NO_LABEL
全面改修され、大型スクリーンや音響設備があり、文化祭等も実施できる。	ぜんめんかいしゅーされ、おーがたすくりーんやおんきょーせつびがあり、ぶんかさいとーもじっしできる。	NO_LABEL
3万3千冊を超える書籍があり、本を読むためのスペースやインターネットに接続できるPCを5台を完備している。	NO_PRONOUNCE	NO_LABEL
2016年度の年間利用者数は、1000人を超えている。	にせんじゅうろくねんどのねんかんりよーしゃすーわ、せんにんをこえている。	NO_LABEL
大型スクリーンとプロジェクター、音響設備を完備し、階段状の教室となっている。	おーがたすくりーんとぷろじぇくたー、おんきょーせつびをかんびし、かいだんじょーのきょーしつとなっている。	NO_LABEL
授業や講演会、検定試験等で利用できる。	じゅぎょーやこーえんかい、けんていしけんとーでりよーできる。	NO_LABEL
インターネットに接続されたPCを41台完備している。	NO_PRONOUNCE	NO_LABEL
2年になると、「社会と情報」という教科で利用している。	NO_PRONOUNCE	NO_LABEL
スクリーンとプロジェクターも完備し、発表会をすることも可能である。	すくりーんとぷろじぇくたーもかんびし、はっぴょーかいをすることもかのーである。	NO_LABEL
大容量の駐輪スペースがあり、学年ごとに別けられている。	だいよーりょーのちゅーりんすぺーすがあり、がくねんごとにわけられている。	NO_LABEL
屋根付きであるため、雨でも快適に乗り降りできる。	やねつきであるため、あめでもかいてきにのりおりできる。	NO_LABEL
利用するには、簡単な手続きと指定のステッカーを自転車に貼る必要がある。	りよーするにわ、かんたんなてつずきとしていのすてっかーをじてんしゃにはるひつよーがある。	NO_LABEL
大阪市内にもかかわらず緑地面積が多く、中庭も広く、府立高校には珍しい「石庭」もある。	NO_PRONOUNCE	NO_LABEL
桜、梅、サツキ、あじさいなどの季節の花で彩られ、特に体育館前の桜の大木は圧巻である。	さくら、うめ、さつき、あじさいなどのきせつのはなでいろどられ、とくにたいいくかんまえのさくらのたいぼくわあっかんである。	NO_LABEL
また、グランドの南西部分には農園・芝生があり、リンゴ・みかんなどの果実や、サツマイモなどの作物が採れ、近隣の幼稚園、小学校の子供たちを招いて収穫体験等にも活用されている。	NO_PRONOUNCE	NO_LABEL
なお、2016年秋、2017年春には、大阪府立農芸高等学校の協力により、ヤギを2匹借り、除草、ふれあい体験、地域交流といった試みが農園で行われている。	NO_PRONOUNCE	NO_LABEL
同窓会は「嫩葉会」と称する。	NO_PRONOUNCE	NO_LABEL
