Touch Pressは、人気のあるアプリの開発・出版を行っている西ロンドンの会社である。	NO_PRONOUNCE	NO_LABEL
Touch Pressでは、周期表、ベートーヴェン、太陽系、T・S・エリオット、シェークスピアなどの教育的なトピックについて詳しく説明するアプリの作成を専門に行っている。	NO_PRONOUNCE	NO_LABEL
Touch Pressのアプリ「Barefoot World Atlas」は、アップルよりトップ10のアプリの1つとして選ばれた。	NO_PRONOUNCE	NO_LABEL
 Touch Pressの最新のアプリ「Disney Animated」について、iTunesのアプリ編集者は、完全に魔法にかけられてしまったような気分だと評した。	NO_PRONOUNCE	NO_LABEL
Touch Pressは、iPadの発売発表後すぐに、、マックス・ウィトビー、ジョン・クロミー、スティーブン・ウルフラムによって創設された。	NO_PRONOUNCE	NO_LABEL
 最初に出版されたアプリは、「The Elements」である。	NO_PRONOUNCE	NO_LABEL
これは、原子周期表についての大型の豪華本の出版後、これをさらに発展させる形で作成されたアプリである。	これわ、げんししゅーきひょーについてのおーがたのごーかほんのしゅっぱんご、これをさらにはってんさせるかたちでさくせいされたあぷりである。	NO_LABEL
 なお、この豪華本とアプリは日本語でも「世界で一番美しい元素図鑑」として販売されている。	NO_PRONOUNCE	NO_LABEL
Touch Pressでは、「生きた本」を作成している。	NO_PRONOUNCE	NO_LABEL
 Touch Pressのアプリは、数多くのインタラクティブな要素を含み、読者がそのトピックをより深く理解できることを目標にしている。	NO_PRONOUNCE	NO_LABEL
本というものを再定義し、読書体験を21世紀に見合ったものにしようという運動に関わろうとしている。	ほんとゆうものをさいていぎし、どくしょたいけんをにじゅういっせいきにみあったものにしようとゆううんどーにかかわろうとしている。	NO_LABEL
 Touch Pressは、出版業界の内外両方でさまざまなパートナーシップを組んでいる。	NO_PRONOUNCE	NO_LABEL
これまでにTouch Pressは、ディズニー、ドイツ・グラモフォン、、シェイマス・ヒーニー、ビョーク、フィオナ・ショウ、パトリック・スチュワート、スティーヴン・フライ、、スティーヴン・ハフ、エサ＝ペッカ・サロネンとフィルハーモニア管弦楽団、ナショナルジオグラフィックとのコラボレーションを行ってきている。	NO_PRONOUNCE	NO_LABEL
日本語アプリ	にほんごあぷり	NO_LABEL
