プラネット・エックスは、アメリカ合衆国で結成されたプログレッシブ・メタル・バンド。	NO_PRONOUNCE	NO_LABEL
元ドリーム・シアターのキーボーディスト、デレク・シェリニアンのソロ・アルバム『プラネット・エックス』から発展する形で誕生した。	NO_PRONOUNCE	NO_LABEL
レギュラー・メンバーはシェリニアン、ヴァージル・ドナティ、トニー・マカパインの3人で、ファースト・アルバム『ユニヴァース』にはトム・ケネディがゲスト・ベーシストとして参加した。	NO_PRONOUNCE	NO_LABEL
2001年にはデイヴ・ラルーをゲストに迎えてツアーを行い、6月13日に行われたオーストラリア公演の模様は、2002年にライヴ・アルバム『ライヴ・フロム・オズ』として発表された。	NO_PRONOUNCE	NO_LABEL
続くスタジオ・アルバム『ムーンベイビーズ』には、トム・ケネディに加えてジミー・ジョンソン、ビリー・シーンといったゲスト・ベーシストも参加した。	NO_PRONOUNCE	NO_LABEL
2004年にはギタリストがマカパインからT・J・ヘルメリッヒに交替し、更にルーファス・フィルポットがベーシストとして加入した。	NO_PRONOUNCE	NO_LABEL
2007年のアルバム『クアンタム』は、シェリニアン、ドナティ、フィルポットに加えてジミー・ジョンソン、アラン・ホールズワース、ブレット・ガースドといったゲストを迎えて制作された。	NO_PRONOUNCE	NO_LABEL
