太刀 銘不明は、三重県伊勢市にある宗教法人金剛證寺が所有する太刀。	たちめいふめいわ、みえけんいせしにあるしゅーきょーほーじんこんごーしょうじがしょゆーするたち。	NO_LABEL
古来源義朝の佩用の太刀として知られ、その由緒の特殊性から、1913年4月14日に古社寺保存法第4条第1項の規定により国宝の資格ある物とされ、1929年7月1日に施行された国宝保存法附則第3項の規定により同法指定の国宝となり、1950年8月29日に施行された文化財保護法附則第3条第1項の規定により同法指定の重要文化財に指定されている。	NO_PRONOUNCE	NO_LABEL
古社寺保存法による指定時には太刀銘不明傳吉拵黑漆太刀と表記されていたが、文化財保護法施行後は「太刀 銘不明附 黒漆太刀拵」と表記されるようになっている。	NO_PRONOUNCE	NO_LABEL
また、太刀〈銘不明伝吉包／拵黒漆太刀〉のように記載される場合もある。	NO_PRONOUNCE	NO_LABEL
一般公開はされていない。	いっぱんこーかいわされていない。	NO_LABEL
本太刀は無銘であるため、確実に作者を断定することは困難である。	ほんたちわむめいであるため、かくじつにさくしゃをだんていすることわこんなんである。	NO_LABEL
一方、刀身の特徴から作者を極める作業は行われており、江戸時代では助包の作として極められていたが、古社寺保存法による国宝指定時は伝吉包と極められている。	いっぽー、とーしんのとくちょーからさくしゃをきわめるさぎょーわおこなわれており、えどじだいでわじょつつみのさくとしてきわめられていたが、こしゃじほぞんほーによるこくほーしていじわでんきちつつみときわめられている。	NO_LABEL
いずれも一文字派以前の古備前派の刀工であり、よくその特徴が表れている。	いずれもいちもんじはいぜんのこびぜんはのとーこーであり、よくそのとくちょーがあらわれている。	NO_LABEL
刃長は84.8センチメートル、反りは3.7センチメートル。	NO_PRONOUNCE	NO_LABEL
鎬造、庵棟、腰反り深く、二筋樋が彫られ、踏張りのある太刀姿である。	NO_PRONOUNCE	NO_LABEL
地鉄は板目肌に小板目が交じる。	ちてつわいためはだにしょーいためがまじる。	NO_LABEL
刃文は丁字乱れ。	はもんわていじみだれ。	NO_LABEL
茎は生ぶ、無銘、目釘穴一つ。	くきはせいぶ、むめい、めくぎあなひとつ。	NO_LABEL
長い期間を寺院にて保管されていたこともあり、摺上げられた形跡もなく目釘穴も1つのみで、健全な姿が保たれている。	ながいきかんをじいんにてほかんされていたこともあり、すりあげられたけいせきもなくめくぎあなもひとつのみで、けんぜんなすがたがたもたれている。	NO_LABEL
寺記の「義朝公御太刀修復目録」では元禄10年6月頃の装飾が記録されている。	NO_PRONOUNCE	NO_LABEL
それによれば、甲金は赤銅斜粉丸打金三拍、猿手は金、鵐目は金、目貫は赤銅丸内金三双三拍、柄間は萌黄金入、糸は紺天鵝絨、縁は赤銅斜粉金三拍、切羽は金、大切羽は赤銅、鍔被は赤銅縁金三拍金、大鍔は赤銅縁金、鎺は金、一ノ足は赤銅金三拍、二ノ足は赤銅金三拍、足間は萌黄金入、草先は赤銅斜粉、草ノ紋は赤銅金三拍、裏合子は金無地、帯取は萌黄金入、帯は啄木、茗荷金は赤銅斜粉金三拍、石付は赤銅斜粉金三拍、鞘は金梨子地、袋は花色金入緒真紅、箱は黒漆金三拍紋に緒真紅汎四分一三拍、外箱は桐であったとされる。	NO_PRONOUNCE	NO_LABEL
現在の刀装は黒漆太刀拵であり、刀身の附として重要文化財に指定されている。	げんざいのかたなそーわくろうるしたちこしらえであり、とーしんのつけたりとしてじゅーよーぶんかざいにしていされている。	NO_LABEL
寺伝および『勢陽五鈴遺響』では源義朝が佩用されていたものとして伝えられる。	NO_PRONOUNCE	NO_LABEL
1159年の平治の乱の敗走のすえ尾張国知多郡野間にて義朝が殺害された後は、同地出身で野間萬金丹の発明者である鎌田宗祐が所有していたところ、金剛證寺中興の祖である鎌倉建長寺5世の仏地禅師東岳文昱が明徳3年に同寺の再興に尽力した頃に同寺に寄進されたと伝えられる。	NO_PRONOUNCE	NO_LABEL
『勢陽五鈴遺響』には「右馬頭源義朝太刀一腰、備前国助包作」として記録が残されており、享保年間には、本阿弥氏に命じて真偽を極められた上で、当時の征夷大将軍である徳川吉宗の上覧に供せられている。	NO_PRONOUNCE	NO_LABEL
同寺は、慶長2年、慶長13年、文化元年、1887年に火災に見舞われたものの、本太刀は現在も同寺に保管されている。	どーてらわ、けいちょーにねん、けいちょーじゅうさんねん、ぶんかがんねん、せんはっぴゃくはちじゅうしちねんにかさいにみまわれたものの、ほんたちわげんざいもどーてらにほかんされている。	NO_LABEL
