乃美大方）は、戦国時代から江戸時代の女性。	NO_PRONOUNCE	NO_LABEL
中国地方の戦国大名毛利元就の継室、または側室。	ちゅーごくちほーのせんごくだいみょーもーりもとなりのけいしつ、またわそくしつ。	NO_LABEL
本名は不明。	ほんみょーわふめい。	NO_LABEL
智光院殿蘭渓怡秀大姉。	NO_PRONOUNCE	NO_LABEL
父は小早川氏の一族である乃美弘平。	ちちわこばやかわうじのいちぞくであるのみこうへい。	NO_LABEL
毛利元就の正室妙玖の死後、天文17年頃に乃美氏より元就に嫁いだ。	もーりもとなりのせいしつみょーきゅーのしご、てんもんじゅうななねんごろにのみしよりもとなりにとついだ。	NO_LABEL
継室であったとも、側室であったとも言われる。	けいしつであったとも、そくしつであったともいわれる。	NO_LABEL
元就の四男・少輔四郎、七男・少輔六郎、九男・才菊丸の母である。	NO_PRONOUNCE	NO_LABEL
毛利氏の防長移封に従い、長門国秋根に移住するも、翌慶長6年9月14日に病没する。	もいりしのぼーちょーうつりふーにしたがい、ながとくにあきねにいじゅーするも、よくけいちょーろくねんくがつじゅうよっかにびょーぼつする。	NO_LABEL
墓所は山口県下関市の功山寺。	はかしょわやまぐちけんしものせきしのこーざんじ。	NO_LABEL
