田中 みおは、日本の元モデル、女優。	たなかみおわ、にっぽんのもともでる、じょゆー。	NO_LABEL
東京都豊島区池袋出身。	とーきょーととしまくいけぶくろしゅっしん。	NO_LABEL
1982年9月、通信販売のみの発売で送料込みの1万5千円の豪華写真集『ROMANCE Part2』で少女Mという特異な芸名でヌードモデルとしてデビューした。	NO_PRONOUNCE	NO_LABEL
Mの意味は本人曰く、未成年のMである。	NO_PRONOUNCE	NO_LABEL
この時、少女Mこと田中みおは13歳であった。	このとき、しょーじょめがことたなかみおわじゅうさんさいであった。	NO_LABEL
モデルになったきっかけは、叔母がプロダクションをしており、事務所に遊びに行った時にたまたまいたカメラマンに誘われたからである。	もでるになったきっかけわ、おばがぷろだくしょんをしており、じむしょにあそびにいったときにたまたまいたかめらまんにさそわれたからである。	NO_LABEL
少女Mの名付け親もこの叔母で、新聞で未成年者を示す少女Aからヒントを得たという。	NO_PRONOUNCE	NO_LABEL
この時代に発売された少女ヌード写真集の多くは、まだヘアの生えてない局部はそのまま写し出されていることが多く、この写真集もその例外ではなかった。	このじだいにはつばいされたしょーじょぬーどしゃしんしゅーのおーくわ、まだへあのはえてないきょくぶわそのままうつしだされていることがおーく、このしゃしんしゅーもそのれいがいでわなかった。	NO_LABEL
翌年6月にビデオ『少女M・13歳』が大ヒットする。	NO_PRONOUNCE	NO_LABEL
このビデオは、その後続々と発売されることになる少女ビデオの先鞭をつけた。	このびでおわ、そのごぞくぞくとはつばいされることになるしょーじょびでおのせんべんをつけた。	NO_LABEL
当時の人気は凄まじく、最初の写真集3冊とビデオ2本で4億円近くを稼ぎ出した。	NO_PRONOUNCE	NO_LABEL
そして少女Mは週刊プレイボーイを中心に、写楽、平凡パンチ、GORO、ビデオボーイ、ACTRESS、アクションカメラ等、当時の男性誌に次々と取り上げられ、何度も表紙を飾るなど一気にメジャーとなり、他のアイドルとは違う独特の存在感で注目された。	NO_PRONOUNCE	NO_LABEL
84年には『スクラップ・ストーリー ある愛の物語』で主演、主題歌も歌う。	NO_PRONOUNCE	NO_LABEL
この映画には嵐山光三郎、高田純次、糸井重里、レオナルド熊、安岡力也といった当時の著名人が多数出演しているが、田中みおは実年の14歳のヌードモデル役を演じており、フルヌードの場面や、ベッド・シーンも演じているため今となってはソフト化は不可能とされている。	NO_PRONOUNCE	NO_LABEL
その時代は、それだけ少女の裸に対して寛容だった。	そのじだいわ、それだけしょーじょのはだかにたいしてかんよーだった。	NO_LABEL
ベッド・シーンでは官能の表情ができず、監督の若松孝二が隠れて足をつねったりして、顔を歪ませて感じた演技をさせた。	NO_PRONOUNCE	NO_LABEL
これについては、体験がないから演じられなかったと本人は弁解している。	これについてわ、たいけんがないからえんじられなかったとほんにんわべんかいしている。	NO_LABEL
この映画では報知映画賞で最優秀新人賞にノミネートされた。	このえいがでわほーちえいがしょーでさいゆーしゅーしんじんしょーにのみねーとされた。	NO_LABEL
また、この当時の自らについては「私、人の顔色を伺いながら話すのってニガテなんです。	NO_PRONOUNCE	NO_LABEL
その人にどう思われようと、自分のやりたいようにヤルッ。	そのひとにどーおもわれようと、じぶんのやりたいよーにやるっ。	NO_LABEL
“ガマン”とか“忍耐”とか、そーゆー言葉も一切パス。	NO_PRONOUNCE	NO_LABEL
スキゾ型人間の典型なんですよね。	すきぞがたにんげんのてんけいなんですよね。	NO_LABEL
」と語っていた。	NO_PRONOUNCE	NO_LABEL
その後、二年間のブランクを経て『週刊プレイボーイ』誌上で名前を読者応募で改名することにし、田中みおと命名。	NO_PRONOUNCE	NO_LABEL
女優、歌手として活動することを宣言する。	じょゆー、かしゅとしてかつどーすることをせんげんする。	NO_LABEL
また1984年に写真集『君はキラリ』が10万部を超える大ヒットになった同じロリータアイドルの諏訪野しおりとは同じ事務所で、映画、テレビと何かと共演する機会が多かった。	NO_PRONOUNCE	NO_LABEL
田中みおとして何本かの映画、テレビドラマに出演したが、1990年代に入ってからの活動記録は確認できるもので『週刊プレイボーイ』のグラビアのみである。	NO_PRONOUNCE	NO_LABEL
事務所によると、本人に芸能活動をする気が全くないので仕事は全て断っているとのこと。	じむしょによると、ほんにんにげいのーかつどーをするきがぜんくないのでしごとわすべてことわっているとのこと。	NO_LABEL
姉と弟と妹の四人姉弟であるが、少女Mの妹という触れ込みでデビューした美少女Nは妹ではなくて、従姉妹である。	NO_PRONOUNCE	NO_LABEL
趣味に読書、ビリヤード、特技はスキンダイビング、スポーツは他にテニス、剣道、水泳、ゴルフとスポーツ好きである。	しゅみにどくしょ、びりやーど、とくぎわすきんだいびんぐ、すぽーつわたにてにす、けんどー、すいえい、ごるふとすぽーつすきである。	NO_LABEL
チェッカーズのファン。	ちぇっかーずのふぁん。	NO_LABEL
