ビリー・ホワイト・エイカーは、カナダの映画音楽作曲家、シンガー・ソングライター、ギタリスト、音楽プロデューサー。	NO_PRONOUNCE	NO_LABEL
ロサンゼルスに拠点を持つテレビ・映画・広告向け音楽制作会社「ビッグ・プラネット・ミュージック・インコーポレイテッド」の創設者でクリエイティブ・ディレクター。	NO_PRONOUNCE	NO_LABEL
作曲家である一方、オープン・チューニングによるパーカッシブなギター奏者でもある多才さで知られる。	さっきょくかであるいっぽー、おーぷんちゅーにんぐによるぱーかっしぶなぎたーそーしゃでもあるたさいさでしられる。	NO_LABEL
ビリー・ホワイト・エイカーは地元トロントの少年聖歌隊員であった。	びりーほわいとえいかーわじもととろんとのしょーねんせいかたいいんであった。	NO_LABEL
11-13歳頃はイングランドはウスターシャーにあるセント・マイケルズ大学に声楽の奨学生として通い、クラシック音楽のトレーニングを受けるほか、聖歌隊首席として1日2回の礼拝で歌い、ピアノとチェロの初歩を学んだ。	NO_PRONOUNCE	NO_LABEL
教会音楽に飽きたビリーは14歳の時に変声を偽りトロントへ帰郷。	きょーかいおんがくにあきたびりーわじゅうよんさいのときにへんせいをいつわりとろんとえききょー。	NO_LABEL
ブラック・サバスやレッド・ツェッペリン、ロイ・ブキャナンの影響により、10代後半でギターを始める。	ぶらっくさばすやれっどつぇっぺりん、ろいぶきゃなんのえいきょーにより、じゅうだいこーはんでぎたーをはじめる。	NO_LABEL
その後、カナダのシンガー・ソングライターであるブルース・コバーンの初期の作品に影響を受け、オープン・チューニングのソロ・ギター音楽の道へ転向し、マイケル・ヘッジスやレオ・コッケのほか、ジョニー・マー、エイドリアン・ブリュー、アンディ・サマーズといった80年代のサウンドスケープを指向するようになる。	NO_PRONOUNCE	NO_LABEL
高校を卒業後、ホワイト・エイカーはナロパ大学で音楽を学ぶためコロラド州ボルダーに移る。	NO_PRONOUNCE	NO_LABEL
作曲法はラルフ・タウナー、アフリカン・リズムはコブラ・ラゼクポ、ワールド・ミュージックはビル・ダグラス、音響技術はスティーブ・ティベッツ、ブルースおよびジャズ・インプロビゼーションはロベン・フォードを教材に学んだ。	NO_PRONOUNCE	NO_LABEL
その後、1987年にデンバーの「ベスト・ソロ・パフォーマー」に選出されるほど長らくコロラドに滞在し、ボビー・マクファーリンや、スザンヌ・ヴェガ、アル・ディ・メオラ、ビッグ・ヘッド・トッド・アンド・ザ・モンスターズ、ワシントン・スクエアズ、そしてギター・ヒーローの一人であったロイ・ブキャナンらとステージで共演するまでになった。	NO_PRONOUNCE	NO_LABEL
また、ナロパ大学の教員で「吠える」で知られる詩人のアレン・ギンズバーグと友人になり、1983年にビートに合わせた詩のパフォーマンスをナロパ大学で行った。	NO_PRONOUNCE	NO_LABEL
ホワイト・エイカーはギンズバーグの死を悼んで1997年に『オートマティック・フォレスト』という作品を書いている。	NO_PRONOUNCE	NO_LABEL
その後2作のアルバム『アトランティス・リップルズ』と『9ソングス』を発表したホワイト・エイカーはロッキー山脈を去り、1988年の晩夏にロサンゼルスに移る。	NO_PRONOUNCE	NO_LABEL
ほどなくして『BAM』誌、KLSXラジオ、ウェストLAミュージックがスポンサーだったコンテスト「'89 サウザン・カリフォルニア・ギタリスト・オブ・ザ・イヤー」で優勝。	NO_PRONOUNCE	NO_LABEL
1990年10月、ホワイト・エイカーのアコースティック・ポップのビジョンを具体化したビッグ・プラネットが、ニューヨーク市のザ・リッツ・カールトンで開催された全米バンド・コンテスト「ドン・カーシュナー・タンカレー・ロックス・コンテスト」で優勝。	NO_PRONOUNCE	NO_LABEL
1991年にビッグ・プラネットのミュージシャンの入れ替えをした際には、ホリー・モンゴメリー、スザンヌ・モリセットが加入。	NO_PRONOUNCE	NO_LABEL
エネルギッシュなアコースティック・サウンドにリッチなボーカル・ハーモニーを乗せたスタイルは、ビリーによって「ヘヴィ・ウッド」と名付けられた。	NO_PRONOUNCE	NO_LABEL
このトリオは全米作曲アカデミーの、1991年の最優秀アコースティック・バンド賞を獲得した。	NO_PRONOUNCE	NO_LABEL
トリオが唯一リリースしたアルバム『ビッグ・プラネット』は、グスターボ・ボーナーがミックスを手がけ、ジム・クリーガンがプロデュースを手がけた。	NO_PRONOUNCE	NO_LABEL
1993年、ビッグ・プラネットのロック曲「プッシュ・ザ・バウンダリーズ」が全米ラジオ局で頻繁に流されたシボレー・カマロのCMに使われ、この時に得た資金で自身初のADATデジタル・スタジオを設立した。	NO_PRONOUNCE	NO_LABEL
レコーディング技術を熱心に学び、自身のプロジェクトの傍ら数多の地元アーティストをプロデュースするようになる。	れこーでぃんぐぎじゅつをねっしんにまなび、じしんのぷろじぇくとのかたわらすーたのじもとあーてぃすとをぷろでゅーすするよーになる。	NO_LABEL
そのプロジェクトの一つにロック詩人のダン・バーンとのコラボレーションがあった。	NO_PRONOUNCE	NO_LABEL
1994年6月、『ビルボード』と、クインシー・ジョーンズ、ドゥイージル・ザッパ、デイヴィッド・ベノワ、デイヴィッド・フォスターらが審査員を務める組織が、ホワイト・エイカーの楽曲「13ジェネレーション」をロック部門の最優秀賞に選出した。	NO_PRONOUNCE	NO_LABEL
同じ月、ホワイト・エイカーは『ギター・プレイヤー』誌の表紙関連記事「あなたのプレイを変える10人の開拓者たち」でフィーチャーされた。	NO_PRONOUNCE	NO_LABEL
ジェームズ・ロトンディはその中で「ホワイト・エイカーはその惚れ惚れするような6弦の演奏技術だけでなく、作曲技術や歌唱にも秀でている」としている。	NO_PRONOUNCE	NO_LABEL
1996年にはニューヨークを拠点とするタッチウッド・レコードと契約し、プロデューサーでエンジニアのジョー・チッカレリや、エンジニアのロバート・カランザ、クリストファーJ.ロバーツのアシスタンスのもと『ビリーズ・ノット・ビター』をレコーディング。	NO_PRONOUNCE	NO_LABEL
ベーシストのジャスティン・メルダル・ジョンセンおよび、ドラマーでボーカリストのトム・ディークマイヤーがバンドの核となった。	NO_PRONOUNCE	NO_LABEL
『ビリーズ・ノット・ビター』は『ロサンゼルス・ミュージック・アワード』で1997年のベスト・インディペンデント・アルバム賞を獲得。	NO_PRONOUNCE	NO_LABEL
アルバムは評論家からソニック・ユースやウィーザーに比べ高い評価を受けたが、多くの聴衆の支持を得るには至らなかった。	あるばむわひょーろんかからそにっくゆーすやうぃーざーにくらべたかいひょーかをうけたが、おーくのちょーしゅーのしじをえるにわいたらなかった。	NO_LABEL
1990年代後半にいくつかのテレビCM音楽を手がけたのち、ホワイト・エイカーは演奏者から映画・テレビ音楽の作曲家に移行。	NO_PRONOUNCE	NO_LABEL
2005年には、テレビ・映画・広告向け個人音楽制作会社「ビッグ・プラネット・ミュージック・インコーポレイテッド」を創設した。	NO_PRONOUNCE	NO_LABEL
ホワイト・エイカーの名がクレジットされた作品には『ゾンビ・ストリッパーズ』、『ラブ&セックス』、『クッカーズ』がある。	NO_PRONOUNCE	NO_LABEL
『クッカーズ』では、2001年のミラノ国際映画祭で最優秀映画音楽賞を受賞した。	NO_PRONOUNCE	NO_LABEL
テレビ放送用の音楽では『ディスカバリー』や、『ナショナル・ジオグラフィック』、『ザ・ヒストリー・チャンネル』などの作品でクレジットされている。	NO_PRONOUNCE	NO_LABEL
長い沈黙を破って演奏やプロデュース業を再開させている。	ながいちんもくをやぶってえんそーやぷろでゅーすぎょーをさいかいさせている。	NO_LABEL
2009年にはジョシュ・カノーヴァの2作目となるアルバム『アディオス』をプロデュース。	NO_PRONOUNCE	NO_LABEL
2011年3月には、ダニー・アルトーとホワイト・エイカーの娘エイジアが作曲を手がけるバンド「ミスター・ダウンステアーズ」のデビュー曲「レジェンダリー」をプロデュースした。	NO_PRONOUNCE	NO_LABEL
