成子映画劇場は、かつて存在した日本の映画館である。	なるこえいがげきじょーわ、かつてそんざいしたにっぽんのえいがかんである。	NO_LABEL
1915年に成子不二館として開業、第二次世界大戦中の一時期、成子松竹映画劇場と改称、地下に成子地下映画劇場を併設したが、戦後は地下を閉じ、表題の館名に改称した。	せんきゅうひゃくじゅうごねんにしげこふじかんとしてかいぎょー、だいにじせかいたいせんちゅーのいちじき、しげこしょーちくえいがげきじょーとかいしょー、ちかになるこちかえいがげきじょーをへいせつしたが、せんごわちかをとじ、ひょーだいのかんめいにかいしょーした。	NO_LABEL
1970年ころ閉館。	せんきゅうひゃくななじゅうねんころへいかん。	NO_LABEL
不二館時代の関東大震災直後に、牧野省三のマキノ映画製作所が大手にパージされた際に全国公開の一番手を引き受けてこれを救い、阪東妻三郎の初主演作『鮮血の手型』を全国に先駆けて公開し、同社作品の全国一番館となったこと等で知られる。	NO_PRONOUNCE	NO_LABEL
茨城県出身の人物・南川達次郎が、1915年、25万円の資本を投入し、まだ郡部であったがすでに繁華街となっていた東京府豊多摩郡淀橋町柏木191番地に、成子不二館として開業した。	NO_PRONOUNCE	NO_LABEL
同年発行の『キネマレコード』第4巻第38号に府下新宿の映画館として、新宿館とともにリストアップされた。	NO_PRONOUNCE	NO_LABEL
1923年9月1日、関東大震災に被災するが、急ピッチで復興を進め、新宿武蔵野館が復興した同年10月6日の3日後の同月9日には、開館することができた。	せんきゅうひゃくにじゅうさんねんくがつついたち、かんとーだいしんさいにひさいするが、きゅーぴっちでふっこーをすすめ、しんじゅくむさしのかんがふっこーしたどーねんじゅーがつむいかのみっかごのどーげつくびにわ、かいかんすることができた。	NO_LABEL
そのころ、震災の混乱に乗じた日活の横田永之助が、他社によびかけ、同年6月に日活から独立した牧野省三のマキノ映画製作所を中心とした独立プロダクションを排撃する動きに出たが、そのとき、マキノ作品の新作を全国公開の一番手として引き受けたのが、独立自主興行を行っていた同館であった。	そのころ、しんさいのこんらんにじょーじたにっかつのよこたえいのすけが、たしゃによびかけ、どーねんろくがつににっかつからどくりつしたまきのしょうぞーのまきのえいがせいさくしょをちゅーしんとしたどくりつぷろだくしょんをはいげきするうごきにでたが、そのとき、まきのさくひんのしんさくをぜんこくこーかいのいちばんてとしてひきうけたのが、どくりつじしゅこうぎょーをおこなっていたどーかんであった。	NO_LABEL
同館復興の1週間後の同月17日、『鮮血の手型 前篇』、同月26日にはその後篇を公開、同作は阪東妻三郎の本格的初主演作であり、それを日本で最初に上映することができた。	NO_PRONOUNCE	NO_LABEL
震災前までのマキノ作品の全国公開の一番手は、高松豊次郎が経営する浅草公園六区・大東京であり、1926年1月には一番手は大東京に戻ったが、その後も同館はマキノ上映館として残った。	NO_PRONOUNCE	NO_LABEL
1925年に発行された『日本映画年鑑 大正十三・四年』によれば、同年当時の同館は、東亜キネマ・帝国キネマの邦画の専門館となっていた。	NO_PRONOUNCE	NO_LABEL
『日本映画事業総覧 昭和五年版』によれば、同年当時の同館は、当時の観客定員数は552名、興行系統は日活に変わっており、経営は南川達次郎の個人経営、支配人は石川仁太郎であった。	NO_PRONOUNCE	NO_LABEL
トーキーの時代に入り、1939年、松竹が同館を買収して直営化し、成子松竹映画劇場と改称した。	とーきーのじだいにはいり、せんきゅうひゃくさんじゅうきゅうねん、しょーちくがどーかんをばいしゅーしてちょくえいかし、しげこしょーちくえいがげきじょーとかいしょーした。	NO_LABEL
その後、第二次世界大戦が開始され、1942年には戦時統制が敷かれ、日本におけるすべての映画が同年2月1日に設立された社団法人映画配給社の配給により、すべての映画館が紅系・白系の2系統に組み入れられるが、松竹の経営のもと、白系の配給系統に入った。	NO_PRONOUNCE	NO_LABEL
同年当時の同館は、当時の観客定員数は430名、支配人は甘利福義が務めており、また、同館の地階に観客定員数は209名の成子地下映画劇場を併設した。	NO_PRONOUNCE	NO_LABEL
当時、成子坂とその近辺には、東横成子坂映画劇場、新宿電気館があったが、空襲による焼失後、戦後は復活しなかった。	とーじ、なるこざかとそのきんぺんにわ、ひがしよこなるこざかえいがげきじょー、しんじゅくでんきかんがあったが、くーしゅーによるしょーしつご、せんごわふっかつしなかった。	NO_LABEL
終戦後は、しばらくは成子松竹映画劇場としてあり、当時医学生であり、のちに小説家となる山田風太郎が1946年の日記に同館「成子松竹」をしばしば登場させ、『愛より愛へ』、『うたかたの恋』、『歌麿をめぐる五人の女』を同館で鑑賞した旨の記述が残されている。	NO_PRONOUNCE	NO_LABEL
正確な時期は不明であるが、1950年代には成子映画劇場に改称している。	せいかくなじきわふめいであるが、せんきゅうひゃくごじゅうねんだいにわなるこえいがげきじょーにかいしょーしている。	NO_LABEL
上野昂志によれば、1960年代には『関東無宿』等の日活の新作も公開されたが、基本的には日本映画の二番館として、豊富に観ることができる場所であったという。	NO_PRONOUNCE	NO_LABEL
1970年ころに閉館した。	せんきゅうひゃくななじゅうねんころにへいかんした。	NO_LABEL
『映画年鑑 別冊 映画便覧』には、同年ころまで同館の名が掲載されている。	NO_PRONOUNCE	NO_LABEL
現在でいう東京都道・埼玉県道4号東京所沢線の青梅街道沿いに位置し、同館の正面には丁字路「成子天神下交差点」があり、そこを起点に東京都道新宿副都心十二号線が南へ伸びている。	NO_PRONOUNCE	NO_LABEL
同館の跡地は山口銀行となった後、再開発が行われ、2003年2月に地上9階・地下1階建ての西新宿TKビルが竣工し、現在に至る。	NO_PRONOUNCE	NO_LABEL
日本映画データベースに掲載された作品のうち、同館が全国公開の一番手として位置し、公開館として特筆して記録されている全作品の一覧である。	にほんえいがでーたべーすにけいさいされたさくひんのうち、どーかんがぜんこくこーかいのいちばんてとしていちし、こーかいかんとしてとくひつしてきろくされているぜんさくひんのいちらんである。	NO_LABEL
すべて製作は「マキノ映画製作所等持院撮影所」、配給は「マキノキネマ」であり、すべて1923年 - 1924年の間に「成子不二館」で公開された作品である。	NO_PRONOUNCE	NO_LABEL
「全国公開の一番手」以外の位置づけでの上映作品は、膨大であるため省略した。	NO_PRONOUNCE	NO_LABEL
公開日の右側には、東京国立近代美術館フィルムセンター、マツダ映画社所蔵等の上映用プリントの現存状況についても記す。	こーかいびのみぎがわにわ、とーきょーこくりつきんだいびじゅつかんふぃるむせんたー、まつだえいがしゃしょぞーとーのじょーえいよーぷりんとのげんそんじょーきょーについてもしるす。	NO_LABEL
