常見 陽平は、日本の労働社会学者、働き方評論家。	つねみよーへいわ、にっぽんのろーどーしゃかいがくしゃ、はたらきかたひょーろんか。	NO_LABEL
千葉商科大学国際教養学部専任講師、HR総合調査研究所客員研究員。	ちばしょーかだいがくこくさいきょーよーがくぶせんにんこーし、えいちあーるそーごーちょーさけんきゅーじょきゃくいんけんきゅーいん。	NO_LABEL
北海道札幌市出身。	ほっかいどーさっぽろししゅっしん。	NO_LABEL
両親ともに歴史学者。	りょーしんともにれきしがくしゃ。	NO_LABEL
北海道札幌南高等学校を経て、一橋大学社会学部入学。	ほっかいどーさっぽろみなみこーとーがっこーをへて、ひとつばしだいがくしゃかいがくぶにゅーがく。	NO_LABEL
のち商学部に転部し、竹内弘高ゼミナールに所属。	のちしょーがくぶにてんぶし、たけうちひろたかぜみなーるにしょぞく。	NO_LABEL
1997年一橋大学商学部卒業。	せんきゅうひゃくきゅうじゅうななひとつばしだいがくしょーがくぶそつぎょー。	NO_LABEL
学生時代は一橋大学世界プロレスリング同盟という学生プロレス団体に所属しており、中川淳一郎とは同期であった。	がくせいじだいわひとつばしだいがくせかいぷろれすりんぐどーめいとゆうがくせいぷろれすだんたいにしょぞくしており、なかがわじゅんいちろーとわどーきであった。	NO_LABEL
1997年大学を卒業し、リクルートに入社。	せんきゅうひゃくきゅうじゅうななだいがくをそつぎょーし、りくるーとににゅーしゃ。	NO_LABEL
『とらばーゆ』編集部などを経て退社し、2005年株式会社バンダイに転職。	NO_PRONOUNCE	NO_LABEL
人事部人材開発チームで新卒採用を担当。	じんじぶじんざいかいはつちーむでしんそつさいよーをたんとー。	NO_LABEL
2012年、在職中に一橋大学大学院社会学研究科修士課程入学し、2014年同修了、修士。	にせんじゅうにねん、ざいしょくちゅーにひとつばしだいがくだいがくいんしゃかいがくけんきゅーかしゅーしかていにゅーがくし、にせんじゅうよねんどーしゅーりょー、しゅーし。	NO_LABEL
その後退社し、独立。	そのごたいしゃし、どくりつ。	NO_LABEL
2015年から千葉商科大学国際教養学部専任講師。	にせんじゅうごねんからちばしょーかだいがくこくさいきょーよーがくぶせんにんこーし。	NO_LABEL
専門は労働社会学で、著書やAllAbout NewsDig、BLOGOSなどでノマドワークスタイルブームへの批判などを行なっている。	NO_PRONOUNCE	NO_LABEL
参議院国民生活と経済に関する調査会参考人、参議院経済産業委員会参考人等も務める。	さんぎいんこくみんせいかつとけいざいにかんするちょーさかいさんこーにん、さんぎいんけいざいさんぎょーいーんかいさんこーにんとーもつとめる。	NO_LABEL
