「コンプリケイション」は、ROOKiEZ is PUNK'Dのメジャー・デビューシングル。	NO_PRONOUNCE	NO_LABEL
2010年6月2日にDefSTAR RECORDSからリリースされた。	にせんじゅうねんろくがつふつかにでふすたーれこーずからりりーすされた。	NO_LABEL
収録曲のうち、表題曲「コンプリケイション」はMBS・TBS系アニメ『デュラララ!!』のオープニングテーマに起用された。	NO_PRONOUNCE	NO_LABEL
リリースは初回生産限定盤と期間生産限定盤と通常盤の3形態で行われ、このうち初回生産限定盤には「コンプリケイション」のミュージック・ビデオを収録したDVDが同梱されている。	NO_PRONOUNCE	NO_LABEL
表題曲の「コンプリケイション」は、元メンバーのko-skが脱退したくらいの時期に作られた楽曲で、作詞したSHiNNOSUKEは、「“むかつく”でも“どうにもならない”…。	NO_PRONOUNCE	NO_LABEL
“未来はどうなってんだ?”っていう曲。	NO_PRONOUNCE	NO_LABEL
現状に満足できない、どうしてもぶち当たってしまう壁を感じてしまったときの複雑な感情、もがきを表現した」と語っている。	NO_PRONOUNCE	NO_LABEL
