ドリーミングモンスターとは、主に日本で活動する8人組アイドルグループである。	どりーみんぐもんすたーとわ、おもににっぽんでかつどーするはちにんぐみあいどるぐるーぷである。	NO_LABEL
メンバー全員が20歳以上の大人系アイドルユニットとして、「夢の続きをもう一度」をコンセプトに『何かを始めることはいくつになっても遅くはない』事をグループの活動を通して体現していく、王道系アイドルグループである。	NO_PRONOUNCE	NO_LABEL
2015年1月にTWIN PLANETが発表した、元SKE48加藤智子と共に活動するアイドルグループのメンバーを選ぶ「20歳以上限定　大人アイドルオーディション」により結成されたグループである。	NO_PRONOUNCE	NO_LABEL
総勢600名、上は54歳、元スチュワーデスなどさまざまな経歴の応募者から最終的に6名が合格し、これに加藤智子を加えた7名で2015年7月22日に活動をスタートさせた。	NO_PRONOUNCE	NO_LABEL
　－Sefl Controlは、メンバーの水口奈美・手塚穂奈美も出演する、杉原杏璃の初主演映画『…and LOVE』の主題歌に決定している	NO_PRONOUNCE	NO_LABEL
　－Chainは、2017年1月に発表された吉井渚沙の卒業に合わせて作詞された曲で、プロデューサーである岡村氏自らが作詞した。	NO_PRONOUNCE	NO_LABEL
　－カヴァー曲を含めDREAMING MONSTERとして20曲目の楽曲。	NO_PRONOUNCE	NO_LABEL
3期生が入って初めての新曲として、2017年6月2日にお披露目された。	さんきせいがはいってはじめてのしんきょくとして、にせんじゅうななねんろくがつふつかにおひろめされた。	NO_LABEL
　－2017年度の全国LIVEハウスツアーのツアー曲として発表され、2017年6月20日の第52回定期公演でお披露目。	NO_PRONOUNCE	NO_LABEL
　－2017年7月20日のツアーファイナル公演でお披露目。	NO_PRONOUNCE	NO_LABEL
　－2017年9月14日の定期公演でお披露目。	NO_PRONOUNCE	NO_LABEL
以下の6曲ついては、公式Youtubeチャンネルよりミュージックビデオが公開されている。	NO_PRONOUNCE	NO_LABEL
一部の楽曲が、DAM及びカラオケの鉄人で歌うことができる。	いちぶのがっきょくが、だむおよびからおけのてつじんでうたうことができる。	NO_LABEL
①DAM	NO_PRONOUNCE	NO_LABEL
②カラオケの鉄人	NO_PRONOUNCE	NO_LABEL
　DREAMING MONSTER全メンバーが出演するほか、日ごろから仲の良いアイドルも多数出演。	どりーみんぐもんすたーぜんめんばーがしゅつえんするほか、ひごろからなかのよいあいどるもたすーしゅつえん。	NO_LABEL
　グラビアアイドルとして活躍する杉原杏璃がグラビア界の裏側などを描いた自伝的小説を映画化したもの。	ぐらびああいどるとしてかつやくするすぎはらーんりがぐらびあかいのうらがわなどをえがいたじでんてきしょーせつをえいがかしたもの。	NO_LABEL
DREAMING MONSTERからは、水口奈美と手塚穂奈美の2名が出演している。	NO_PRONOUNCE	NO_LABEL
また、この映画の主題歌として、TM NETWORKの『Self Control』をDREAMING MONSTERがカヴァーしている。	NO_PRONOUNCE	NO_LABEL
　－『musicるTV』エンディングテーマ	NO_PRONOUNCE	NO_LABEL
　－『アキナ・和牛・アインシュタインのバツウケテイナー』エンディングテーマ	NO_PRONOUNCE	NO_LABEL
　－『ミュートマ2』エンディングテーマ	NO_PRONOUNCE	NO_LABEL
　－『東京アイドル戦線』オープニングテーマ	NO_PRONOUNCE	NO_LABEL
