クリス・ドレヤは、イギリスのロック・ミュージシャン。	NO_PRONOUNCE	NO_LABEL
サリー、サービトン出身。	さりー、さーびとんしゅっしん。	NO_LABEL
ヤードバーズのリズムギターおよびベースを担当した。	やーどばーずのりずむぎたーおよびべーすをたんとーした。	NO_LABEL
彼らの通算5枚目にあたるアルバムYARDBIRDSのジャケットの風変わりなイラストは彼の手による。	NO_PRONOUNCE	NO_LABEL
ヤードバーズが解散した後、ジミー・ペイジはドレヤに対して新しいバンドのベースを担当するよう要請したが、彼は写真家になるためその申し出を断った。	やーどばーずがかいさんしたのち、じみーぺいじわどれやにたいしてあたらしいばんどのべーすをたんとーするよーよーせいしたが、かれわしゃしんかになるためそのもーしでをことわった。	NO_LABEL
レッド・ツェッペリンのデビュー・アルバム『レッド・ツェッペリン I』の裏ジャケット写真は彼が撮影した。	NO_PRONOUNCE	NO_LABEL
1969年、ヤードバーズのメンバーだったキース・レルフの要請で新バンド・ルネッサンスの結成に関わるものの、すぐに脱退している。	NO_PRONOUNCE	NO_LABEL
