カザン学派は、1870年代のカザン大学において、ボードゥアン・ド・クルトネとその学生によって形成された言語学の学派。	NO_PRONOUNCE	NO_LABEL
クルトネやクルシェフスキの生前には彼らの仕事が国際的に評価されることはほとんどなかったが、後の構造主義の基本となる考え方に近い点が多かった。	くるとねやくるしぇふすきのせいぜんにわかれらのしごとがこくさいてきにひょーかされることわほとんどなかったが、ごのこーぞーしゅぎのきほんとなるかんがえかたにちかいてんがおーかった。	NO_LABEL
このふたりがカザン学派として後にロマーン・ヤーコブソンによって紹介された。	このふたりがかざんがくはとしてのちにろまーんやーこぶそんによってしょーかいされた。	NO_LABEL
クルトネは言語の静態と動態、およびラングとパロールに相当する区別を行った。	くるとねわげんごのせいたいとどーたい、およびらんぐとぱろーるにそーとーするくべつをおこなった。	NO_LABEL
また音声と意味の関係を追求し、生理学的な音と心理学的な音声を区別した。	またおんせいといみのかんけいをついきゅーし、せいりがくてきなおととしんりがくてきなおんせいをくべつした。	NO_LABEL
クルシェフスキはクルトネの説を発展させ、「音素」という言葉を使用して、この語に心理学的な音声の単位の意味を与えた。	NO_PRONOUNCE	NO_LABEL
この語はフェルディナン・ド・ソシュールの『覚え書き』から借りたものだったが、ソシュールにおいては語源的に同じ音の異なるあらわれを意味していた。	NO_PRONOUNCE	NO_LABEL
1880年代にはクルトネがカザンを去り、またクルシェフスキが早逝したため、カザン学派は長続きしなかった。	NO_PRONOUNCE	NO_LABEL
クルトネは後にサンクトペテルブルクでレフ・シチェルバやエフゲニー・ポリワーノフらに影響を与えた。	くるとねわごにさんくとぺてるぶるくでれふしちぇるばやえふげにーぽりわーのふらにえいきょーをあたえた。	NO_LABEL
ソシュール本人も一般言語学の講義以前にクルトネとクルシェフスキの仕事を知って、高く評価していた。	そしゅーるほんにんもいっぱんげんごがくのこーぎいぜんにくるとねとくるしぇふすきのしごとをしって、たかくひょーかしていた。	NO_LABEL
