GSX400E は、スズキが製造販売していたネイキッドタイプのオートバイの車種。	NO_PRONOUNCE	NO_LABEL
GSX400シリーズは、GS400シリーズの後継として登場した。	NO_PRONOUNCE	NO_LABEL
空冷並列2気筒エンジンを搭載する点は共通ながら、バルブ数が2バルブから4バルブへと進化している。	NO_PRONOUNCE	NO_LABEL
なお、スズキの車種の命名には法則があり、「GS」は4サイクルスーパースポーツ車の称号、「X」は4バルブを示す記号となっている。	NO_PRONOUNCE	NO_LABEL
GSX400シリーズ最初に登場したモデルは1980年発売のGSX400Eであり、同モデルはGS400シリーズの最終型GS400E-2の代替機種に当たる。	NO_PRONOUNCE	NO_LABEL
GSX400Eは1981年にマイナーチェンジを受け、フロントブレーキのダブルディスク化、扁平タイヤの採用などが行われた。	NO_PRONOUNCE	NO_LABEL
1982年には、GSX400Eカタナと名称変更を受け、エンジンやフレームなどの車体構成はそのままに、外装を一新。	NO_PRONOUNCE	NO_LABEL
上位機種のGSX650Gに通じる外観となるとともに、「カタナ」のサブネームが与えられ、カタナシリーズの一角を担った。	NO_PRONOUNCE	NO_LABEL
ほぼ同様のリニューアルは、250ccクラスのGSX250Eと1100ccクラスのGSX1100Eでも同年に行われ、ほぼ共通するデザインにマイナーチェンジを受けるとともに、それぞれカタナの名称が追加された。	NO_PRONOUNCE	NO_LABEL
さらに1983年には、ビキニカウルを装備した派生モデルが登場。	さらにせんきゅうひゃくはちじゅうさんねんにわ、びきにかうるをそーびしたはせいもでるがとーじょー。	NO_LABEL
GSX400Eシリーズとしてはこのモデルイヤーが最終となった。	NO_PRONOUNCE	NO_LABEL
なお、同時期におけるスズキの400ccクラスのスポーツモデルとしては、4気筒エンジン搭載のGSX400Fが並行してラインナップされていた。	NO_PRONOUNCE	NO_LABEL
