青井 透は、日本の環境工学者。	あおいとーるわ、にっぽんのかんきょーこーがくしゃ。	NO_LABEL
専門は環境・衛生工学。	NO_PRONOUNCE	NO_LABEL
1947年に広島県で生まれる。	せんきゅうひゃくよんじゅうななねにひろしまけんでうまれる	NO_LABEL
1971年北海道大学工学部衛生工学科卒業、そして1973年北海道大学大学院工学研究科衛生工学専攻修了後、住友重機械工業に入社し下水・し尿・埋立地浸出水・水産加工・産業廃水・畜産廃棄物処理等を担当、21年間各種廃水浄化施設の設計から試運転までを行い、河川水質の汚濁は生活雑排水を処理すれば防止できると刷り込まれる。	NO_PRONOUNCE	NO_LABEL
1993年東北大学にて博士取得。	せんきゅうひゃくきゅうじゅうさんねんとーほくだいがくにてはかせしゅとく。	NO_LABEL
1994年群馬工業高等専門学校土木工学科教授になる。	せんきゅうひゃくきゅうじゅうよねんぐんまこーぎょーこーとーせんもんがっこーどぼくこうがくかきょーじゅになる。	NO_LABEL
同校着任後、利根川上流部の水質調査を実施して、森林流出水の無機態窒素濃度が予想外に高いことに気付く。	どーこーちゃくにんご、とねがわじょーりゅーぶのすいしつちょーさをじっしして、しんりんりゅーしゅつすいのむきたいちっそのーどがよそーがいにたかいことにきずく。	NO_LABEL
多くの学生や地域住民の協力を得ながら、利根川上流の雨水・河川水を長期にわたり幅広く調査し、首都圏から飛来する大気汚染物質が、渓流の高い窒素濃度の供給源ではないかという作業仮説を立案。	NO_PRONOUNCE	NO_LABEL
また着任した高専内ため池が、降雨出水により砂・ヘドロ及び多種多様な廃棄物で埋没の危機にあることから、特殊なポンプを開発して水を抜かずにスラリー化し、砂・ゴミ及び脱水土として分離回収する生態系保全型底泥資源化工法を考案・実用化した。	NO_PRONOUNCE	NO_LABEL
本工法はNPOを中心とした多くの社会人・学生の協力により実績を重ねて大型化され、2013年には松本市の国宝松本城内堀の浚渫に採用され2014年には福島県内農業用ため池の除染実証事業に採択され、多くの実績を重ねつつある。	NO_PRONOUNCE	NO_LABEL
　このほかにも、排水処理曝気槽混合液を枯草菌優占化し、余剰汚泥として回収された乾燥汚泥を有用種菌として未利用バイオマスと発酵させて土壌改良資材を製造し、連作障害抑止材として安全な有機農業に利活用することに、地域の方々と連携して取り組んでいる。	NO_PRONOUNCE	NO_LABEL
　2013年同校特命教授・株式会社ヤマト非常勤顧問になる。	NO_PRONOUNCE	NO_LABEL
2014年12月底泥資源化工法研究会を設立、会長に就任する。	にせんじゅうよねんじゅーにがつそこどろしげんかこーほーけんきゅーかいをせつりつ、かいちょーにしゅーにんする。	NO_LABEL
独立行政法人　国立高等専門学校機構　群馬工業高等専門学校　教員紹介	どくりつぎょーせいほーじんこくりつこーとーせんもんがっこーきこーぐんまこーぎょーこーとーせんもんがっこーきょーいんしょーかい	NO_LABEL
底泥資源化工法研究会	そこどろしげんかこーほーけんきゅーかい	NO_LABEL
