マックス・ルートヴィヒ・ヘニング・デルブリュックはアメリカ合衆国の生物物理学者。	NO_PRONOUNCE	NO_LABEL
1969年度のノーベル生理学・医学賞受賞者。	せんきゅうひゃくろくじゅうきゅうねんどののーべるせいりがくいがくしょーじゅしょーしゃ。	NO_LABEL
スウェーデン、カロリンスカ研究所関係者。	すうぇーでん、かろりんすかけんきゅーじょかんけいしゃ。	NO_LABEL
ドイツのベルリンで生まれた。	どいつのべるりんでうまれた。	NO_LABEL
父のハンス・デルブリュックはベルリン大学の歴史学者で、母はユストゥス・フォン・リービッヒの孫娘だった。	ちちのはんすでるぶりゅっくわべるりんだいがくのれきしがくしゃで、ははわゆすとぅすふぉんりーびっひのまごむすめだった。	NO_LABEL
デルブリュックは宇宙物理学を勉強していたが、ゲッティンゲン大学で理論物理学に転向した。	でるぶりゅっくわうちゅーぶつりがくをべんきょーしていたが、げってぃんげんだいがくでりろんぶつりがくにてんこーした。	NO_LABEL
1930年に博士号を取得すると、彼はイングランド、デンマーク、スイスなどを旅した。	せんきゅうひゃくさんじゅうねんにはくしごーをしゅとくすると、かれわいんぐらんど、でんまーく、すいすなどをたびした。	NO_LABEL
この途中でヴォルフガング・パウリ、ニールス・ボーアらと出会うことによって彼は生物学に興味を持った。	NO_PRONOUNCE	NO_LABEL
1932年にベルリンに帰国し、リーゼ・マイトナーの助手になった。	せんきゅうひゃくさんじゅうにねんにべるりんにきこくし、りーぜまいとなーのじょしゅになった。	NO_LABEL
彼は生物学を追求するために1937年にアメリカ合衆国へ移住し、カリフォルニア工科大学でショウジョウバエの遺伝学の研究を始めた。	かれわせいぶつがくをついきゅーするためにせんきゅうひゃくさんじゅうななねにあめりかがっしゅーこくえいじゅーし、かりふぉるにあこーかだいがくでしょーじょーばえのいでんがくのけんきゅーをはじめた。	NO_LABEL
また彼は、細菌やウイルスの研究も行った。	またかれわ、さいきんやういるすのけんきゅーもおこなった。	NO_LABEL
1939年、彼はE.L.エリスと共著でバクテリオファージの成長についての論文を書き、その中でウイルスは細胞でできた生物とは違って、｢一段階｣で複製することを示した。	NO_PRONOUNCE	NO_LABEL
彼は1941年にメアリー・ブルースと結婚し、4人の子供をもうけた。	NO_PRONOUNCE	NO_LABEL
第二次世界大戦中、デルブリュックの兄ユストゥス・デルブリュック、姉エミー・ボンヘッファー、その夫クラウス・ボンヘッファー）はナチスに対する抵抗運動に参加し、クラウスとディートリヒはヒトラー政権末期に処刑された。	NO_PRONOUNCE	NO_LABEL
デルブリュック自身は大戦中もアメリカ合衆国に留まり、ナッシュビルのヴァンダービルト大学で物理学を教えながら研究を続けた。	NO_PRONOUNCE	NO_LABEL
1942年、彼はインディアナ大学のサルバドール・エドワード・ルリアとともに、細菌のウイルス抵抗性は適応の結果によるものではなく、突然変異によるものであることを示した。	せんきゅうひゃくよんじゅうにねん、かれわいんでぃあなだいがくのさるばどーるえどわーどるりあとともに、さいきんのういるすていこーせいわてきおーのけっかによるものでわなく、とつぜんへんいによるものであることをしめした。	NO_LABEL
ルリア-デルブリュックの実験と呼ばれるこの研究によって、彼らはアルフレッド・ハーシーとともに1969年度のノーベル生理学・医学賞を受賞した。	NO_PRONOUNCE	NO_LABEL
同年、サルバドール・エドワード・ルリアと共にコロンビア大学よりルイザ・グロス・ホロウィッツ賞を受賞した。	NO_PRONOUNCE	NO_LABEL
1950年代より、彼は生物物理学の手法を使って感覚生理学の研究を始めた。	せんきゅうひゃくごじゅうねんだいより、かれわせいぶつぶつりがくのしゅほーをつかってかんかくせいりがくのけんきゅーをはじめた。	NO_LABEL
また彼はケルン大学に分子遺伝学の研究所を立ち上げた。	またかれわけるんだいがくにぶんしいでんがくのけんきゅーじょをたちあげた。	NO_LABEL
デルブリュックは、20世紀に流行った物理学から生物学へ転向する潮流の中で、最も人々に影響を与えた人物の一人である。	でるぶりゅっくわ、にじっせいきにはやったぶつりがくからせいぶつがくえてんこーするちょーりゅーのなかで、もっともひとびとにえいきょーをあたえたじんぶつのひとりである。	NO_LABEL
物理学をベースとした生物学の考え方は、エルヴィン・シュレーディンガーの著書"What Is Life?"から影響を受けている。	NO_PRONOUNCE	NO_LABEL
この本はフランシス・クリック、ジェームズ・ワトソン、モーリス・ウィルキンスにも大きな影響を与えた。	このほんわふらんしすくりっく、じぇーむずわとそん、もーりすうぃるきんすにもおーきなえいきょーをあたえた。	NO_LABEL
1940年代に彼は、コールド・スプリング・ハーバー研究所にバクテリオファージ遺伝学の研究所を作った。	せんきゅうひゃくよんじゅうねんだにかれわ、こーるどすぷりんぐはーばーけんきゅーじょにばくてりおふぁーじいでんがくのけんきゅーじょをつくった。	NO_LABEL
デルブリュックの推進した｢ファージ・グループ｣は、初期の分子生物学の発展に大きな役割を果たした。	NO_PRONOUNCE	NO_LABEL
1967年には王立協会外国人会員に選出。	せんきゅうひゃくろくじゅうななねにわおーりつきょーかいがいこくじんかいいんにせんしゅつ。	NO_LABEL
またアメリカ物理学会によって「マックス・デルブリュック賞」が設けられている。	NO_PRONOUNCE	NO_LABEL
