六島は、日本の瀬戸内海にある笠岡諸島の有人島のひとつ。	むしまわ、にっぽんのせとないかいにあるかさおかしょとーのゆーじんとーのひとつ。	NO_LABEL
岡山県の最南端になっている。	おかやまけんのさいなんたんになっている。	NO_LABEL
横溝正史の『獄門島』の舞台として知られている。	NO_PRONOUNCE	NO_LABEL
同島を範囲とする笠岡市の大字については六島を参照。	どーとーをはんいとするかさおかしのだいじについてわむしまをさんしょー。	NO_LABEL
瀬戸内海の中央部に位置する笠岡諸島の島の一つで、本州本土の笠岡港からは直線距離で南へ約22km、航路で約33kmの沖合にある。	せとないかいのちゅーおーぶにいちするかさおかしょとーのしまのひとつで、ほんしゅーほんどのかさおかこーからわちょくせんきょりでみなみえやくにじゅうにきろめーとる、こーろでやくさんじゅうさんきろめーとるのおきあいにある。	NO_LABEL
笠岡諸島の最寄りの真鍋島からは南西に約7.5km。	かさおかしょとーのもよりのまなべしまからわなんせいにやくななてんごきろめーとる。	NO_LABEL
四国の荘内半島先端からは約4.5kmの位置にあたる。	しこくのしょうないはんとーせんたんからわやくよんてんごきろめーとるのいちにあたる。	NO_LABEL
六島は岡山県の最南端であり、笠岡諸島にとっても最南端に位置している。	むしまわおかやまけんのさいなんたんであり、かさおかしょとーにとってもさいなんたんにいちしている。	NO_LABEL
六島と荘内半島の間の海域は潮の流れが速い難所として知られ、岡山県内では最初に灯台が設置された。	むしまとしょうないはんとーのまのかいいきわしおのながれがはやいなんしょとしてしられ、おかやまけんないでわさいしょにとーだいがせっちされた。	NO_LABEL
離島振興法での指定をはじめ、多くの資料では六島の面積を1.02kmとしている。	NO_PRONOUNCE	NO_LABEL
国土地理院では毎年「全国都道府県市区町村別面積調」を公表しており、その付録として面積1km以上の島の一覧と面積を発表しているが、少なくとも2013年以降、六島はここに含まれていない。	NO_PRONOUNCE	NO_LABEL
島の周囲長についても資料により多少の誤差があり、4.3km、4.58km、4.6kmなどの数値があげられている。	NO_PRONOUNCE	NO_LABEL
1875年の記録では島民550人を数えたが、1977年には半数以下の209人、2000年にはさらに半分の117人、2015年には77人となっている。	せんはっぴゃくななじゅうごねんのきろくでわとーみんごひゃくごじゅうにんをかぞえたが、せんきゅうひゃくななじゅうななねんにわはんすーいかのにひゃくくにん、にせんねんにわさらにはんぶんのひゃくじゅうしちにん、にせんじゅうごねんにわななじゅうしちにんとなっている。	NO_LABEL
高齢化率は57%で、これは笠岡諸島の中では最も低い。	こーれいかりつわごじゅうななぱーせんとで、これわかさおかしょとーのなかでわもっともひくい。	NO_LABEL
島全体は花崗岩でできていて、風化が進んでいる。	しまぜんたいわかこーがんでできていて、ふーかがすすんでいる。	NO_LABEL
島の中央には大石山と呼ばれる標高185メートルの山があり、三等三角点「武島」が設置されている。	NO_PRONOUNCE	NO_LABEL
島のほぼ全周は大石山の斜面が岩崖としてそのまま海に没しているため、平地は乏しい。	しまのほぼぜんしゅーわだいいしやまのしゃめんがいわがけとしてそのままうみにぼっしているため、ひらちわとぼしい。	NO_LABEL
大石山は「笠岡十名山」の一つになっており、山頂付近には展望台が設けられている。	NO_PRONOUNCE	NO_LABEL
大石山の南西側の緩斜面に「前浦」地区がひらけている。	NO_PRONOUNCE	NO_LABEL
前浦地区には小学校、仏教寺院、診療所や島内で唯一の商店がある。	まえうらちくにわしょーがっこー、ぶっきょーじいん、しんりょーじょやとーないでゆいいつのしょーてんがある。	NO_LABEL
前浦地区の海岸には地方港湾の指定を受けている前浦港がある。	まえうらちくのかいがんにわちほーこーわんのしていをうけているまえうらこーがある。	NO_LABEL
2000年には浮桟橋が新設され、診療船やデイサービス船の寄港が可能になった。	にせんねんにわうきさんばしがしんせつされ、しんりょーせんやでいさーびすせんのきこーがかのーになった。	NO_LABEL
島の東端には標高30メートルほどの丘があり、その北の突端を「角鼻」、南の突端を「大鳥鼻」と呼んでいる。	NO_PRONOUNCE	NO_LABEL
この丘の東側の海岸崖下には「笠松」と呼ばれる小さな砂浜がある。	NO_PRONOUNCE	NO_LABEL
大鳥鼻の西部には「打越」という小さな入り江に面した砂浜があり、大鳥神社への鳥居と参道が通じている。	NO_PRONOUNCE	NO_LABEL
大石山と、この丘の鞍部から北の湾に面して「湛江」地区があり、北岸に第1種漁港の指定を受けている湛江港がある。	NO_PRONOUNCE	NO_LABEL
島の南西部には岡山県最古の六島灯台がある。	しまのなんせいぶにわおかやまけんさいこのむしまとーだいがある。	NO_LABEL
前浦地区から六島灯台へ向かう山道の途中には10万本からなるスイセンの自生地があり、「スイセンロード」という遊歩道として整備されている。	NO_PRONOUNCE	NO_LABEL
1月中旬から下旬にかけて満開となるスイセンは六島の早春の風物詩となっており、その時期には笠岡港からの定期航路に臨時便が出たり、観光ツアーが組まれている。	いちがつちゅーじゅんからげじゅんにかけてまんかいとなるすいせんわむしまのそーしゅんのふーぶつしとなっており、そのじきにわかさおかこーからのていきこーろにりんじびんがでたり、かんこーつあーがくまれている。	NO_LABEL
かつて六島では飲料水は共同の井戸水に依存しており、水の乏しい島だった。	かつてむしまでわいんりょーすいわきょーどーのいどみずにいぞんしており、みずのとぼしいしまだった。	NO_LABEL
1953年に離島振興法が制定されると、1957年に六島と大飛島・小飛島が離島振興法の指定を受けた。	NO_PRONOUNCE	NO_LABEL
これは岡山県内の島では最初のものだった。	これわおかやまけんないのしまでわさいしょのものだった。	NO_LABEL
これにより道路や電気、水道の整備が行われるようになった。	これによりどーろやでんき、すいどーのせいびがおこなわれるよーになった。	NO_LABEL
上水道は笠岡諸島の神島から整備が始まり、海底敷設管によって各島への飲料水の供給が行われるようになった。	じょーすいどーわかさおかしょとーのかみしまからせいびがはじまり、かいていふせつかんによってかくしまえのいんりょーすいのきょーきゅーがおこなわれるよーになった。	NO_LABEL
六島へは1970年代にこの上水道が開通し、水不足は解消された。	むしまえわせんきゅうひゃくななじゅうねんだいにこのじょーすいどーがかいつーし、みずぶそくわかいしょーされた。	NO_LABEL
しかし近年はこの海底管の老朽化の影響が懸念されている。	しかしきんねんわこのかいていかんのろーきゅーかのえいきょーがけねんされている。	NO_LABEL
汚水処理は整備が遅れている。	おすいしょりわせいびがおくれている。	NO_LABEL
電気は中国電力より供給。	でんきわちゅーごくでんりょくよりきょーきゅー。	NO_LABEL
インターネットは無線によって提供されている。	いんたーねっとわむせんによってていきょーされている。	NO_LABEL
大浦地区に診療所があり、真鍋島から医師が来て2週間に1度診療を行っている。	おーうらちくにしんりょーじょがあり、まなべしまからいしがきてにしゅーかんにいちどしんりょーをおこなっている。	NO_LABEL
このほか済生丸という診療船が巡回している。	このほかさいせいまるとゆうしんりょーせんがじゅんかいしている。	NO_LABEL
高齢者介護サービス施設が整備されていなかった笠岡諸島では、1993年に「夢ウエル丸」というデイサービス船が就航した。	NO_PRONOUNCE	NO_LABEL
これは国の地域福祉対策として1億9260万円あまりを投じて建造されたもので、日本初のものだった。	これわくにのちーきふくしたいさくとしていちおくきゅうせんにひゃくろくじゅうまんえんあまりをとーじてけんぞーされたもので、にっぽんはつのものだった。	NO_LABEL
就役当初、六島の港には入港不可能だったが、2000年に前浦港に浮桟橋を建設して夢ウエル丸の寄港が可能となり、毎月2回運航されていた。	しゅーえきとーしょ、むしまのみなとにわにゅーこーふかのーだったが、にせんねんにぜんうらこーにうきさんばしをけんせつしてゆめうえるまるのきこーがかのーとなり、まいつきにかいうんこーされていた。	NO_LABEL
しかし船の老朽化と笠岡市の財政悪化によって、2013年度いっぱいで退役となり、2014年3月末日に前浦港で引退のセレモニーが行なわれた。	しかしふねのろーきゅーかとかさおかしのざいせいあっかによって、にせんじゅうさんねんどいっぱいでたいえきとなり、にせんじゅうよねんさんがつまつじつにぜんうらこーでいんたいのせれもにーがおこなわれた。	NO_LABEL
幼稚園・保育所は設置されていない。	NO_PRONOUNCE	NO_LABEL
島は古くから海辺での手繰網などの小規模な漁と、畜産・畑作によって支えられてきた。	NO_PRONOUNCE	NO_LABEL
農耕は主に山の斜面を開墾して段々畑が築かれており、「耕して天にのぼる」と称されるほどだった。	NO_PRONOUNCE	NO_LABEL
この段々畑はいまでも六島の特徴的な景観とされている。	このだんだんばたけわいまでもむしまのとくちょーてきなけいかんとされている。	NO_LABEL
とはいえ、狭く急峻な島では、強風によって吹き上げられた塩の害によって作物が枯死することも多かった。	とわいえ、せまくきゅーしゅんなしまでわ、きょーふーによってふきあげられたしおのがいによってさくもつがこしすることもおーかった。	NO_LABEL
延享元年には木綿栽培を試したがやはり立ち枯れたという記録が残っている。	えんきょーがんねんにわもめんさいばいをためしたがやはりたちがれたとゆうきろくがのこっている。	NO_LABEL
まもなく島の人口が増えすぎて、宝暦年間には新たな開墾を行う余地も尽き、ウシを飼う土地も不足するようになった。	まもなくしまのじんこーがふえすぎて、ほうれきねんかんにわあらたなかいこんをおこなうよちもつき、うしをかうとちもふそくするよーになった。	NO_LABEL
この結果として海の仕事に従事して出稼ぎを行う島民が増えた。	このけっかとしてうみのしごとにじゅーじしてでかせぎをおこなうとーみんがふえた。	NO_LABEL
江戸時代の六島は真鍋島の属島の扱いだったので、六島の島民はもっぱら真鍋島の網元に従って漁師として雇われていた。	えどじだいのむしまわまなべしまのぞくとーのあつかいだったので、むしまのとーみんわもっぱらまなべしまのあみもとにしたがってりょーしとしてやとわれていた。	NO_LABEL
江戸後期には、上方の資本家が進出して六島での漁業経営を試み、真鍋島の網元と縄張り争いに発展した。	えどこーきにわ、かみがたのしほんかがしんしゅつしてむしまでのぎょぎょーけいえいをこころみ、まなべしまのあみもととなわばりあらそいにはってんした。	NO_LABEL
このほか六島で盛んになったのが「活舟」という活魚輸送の職で、淡路島を上回って日本一の活舟の島となった。	NO_PRONOUNCE	NO_LABEL
太平洋戦争後は船舶の動力化が進んだため、活舟が廃れるとともに、沿岸漁業も低調となった。	たいへいよーせんそーごわせんぱくのどーりょくかがすすんだため、かつふねがすたれるとともに、えんがんぎょぎょーもていちょーとなった。	NO_LABEL
近年はノリやフグの養殖などにシフトしたが、土地不足のために養殖用の漁具の保管用地や水産物の荷揚げ用地の不足が課題となっており、港周辺の埋め立てが行われている。	きんねんわのりやふぐのよーしょくなどにしふとしたが、とちふそくのためによーしょくよーのぎょぐのほかんよーちやすいさんぶつのにあげよーちのふそくがかだいとなっており、みなとしゅーへんのうめたてがおこなわれている。	NO_LABEL
そのほか定置網漁や底曳網漁を行っている。	そのほかていちあみりょーやそこびきあみりょーをおこなっている。	NO_LABEL
本州本土の笠岡港と六島を結ぶ定期航路として、六島航路有限会社による「六島航路」、三洋汽船による航路がある。	NO_PRONOUNCE	NO_LABEL
三洋汽船は六島の2つの港と飛島・真鍋島・高島・神島・笠岡港を結んでおり、六島へは往復各4便が運行されている。	NO_PRONOUNCE	NO_LABEL
六島航路は曜日や学校の休校日によって運行本数が異なっており、1-3便が運行されている。	NO_PRONOUNCE	NO_LABEL
笠岡までの所要時間は40分から85分。	かさおかまでのしょよーじかんわよんじゅっぷんからはちじゅうごふん。	NO_LABEL
海峡を望む南の丘の上に設置されている六島灯台は岡山県で最古の灯台である。	かいきょーをのぞむみなみのおかのうえにせっちされているむしまとーだいわおかやまけんでさいこのとーだいである。	NO_LABEL
六島と荘内半島の間の海峡は古くから瀬戸内海を東西に走る航路の幹線ルートが通っており、大型船舶が頻繁に航行する。	むしまとしょうないはんとーのまのかいきょーわふるくからせとないかいをとーざいにはしるこーろのかんせんるーとがかよっており、おーがたせんぱくがひんぱんにこーこーする。	NO_LABEL
しかしこの海峡は非常に潮の流れが速く、海難事故の多い海域だった。	しかしこのかいきょーわひじょーにしおのながれがはやく、かいなんじこのおーいかいいきだった。	NO_LABEL
そのため1922年に岡山県では初となる灯台が設置され、さらに霧信号所と無線方位信号所も併設された。	そのためせんきゅうひゃくにじゅうにねんにおかやまけんでわはつとなるとーだいがせっちされ、さらにきりしんごーしょとむせんほーいしんごーしょもへいせつされた。	NO_LABEL
この海峡では、1867年に海援隊のいろは丸と紀州藩の軍艦との衝突沈没事故が起きており、乗り合わせていた坂本龍馬らが巨額の賠償を求めて係争となった。	このかいきょーでわ、せんはっぴゃくろくじゅうしちねんにかいえんたいのいろはまるときしゅーはんのぐんかんとのしょーとつちんぼつじこがおきており、のりあわせていたさかもとりょうまらがきょがくのばいしょーをもとめてけいそーとなった。	NO_LABEL
これは日本で最初の海難審判事故とされており、近江屋事件の遠因になったとする者もいる。	これわにっぽんでさいしょのかいなんしんぱんじことされており、おーみやじけんのえんいんになったとするものもいる。	NO_LABEL
周辺海域は第六管区海上保安本部水島海上保安部が受け持っている。	しゅーへんかいーきわだいろくかんくかいじょーほあんほんぶみずしまかいじょーほあんぶがうけもっている。	NO_LABEL
2016年に日本ロマンチスト協会の「恋する灯台」に選ばれ、同年8月3日に笠岡市役所で認定証授与式が行われた。	NO_PRONOUNCE	NO_LABEL
