出羽ノ花 國市は、石川県能美郡出身。	でわのはなくにいちわ、いしかわけんのみぐんしゅっしん。	NO_LABEL
1909年3月1日に東京府南葛飾郡大島町で肥料会社を営む家に生まれ、石川県能美郡で育つ。	せんきゅうひゃくきゅうねんさんがつついたちにとーきょーふみなみかつしかぐんおーしまちょーでひりょーかいしゃをいとなむいえにうまれ、いしかわけんのみぐんでそだつ。	NO_LABEL
既に9歳で体重が60kgに達して怪童と話題になり、実家の得意先の世話で出羽ノ海部屋を紹介された。	すでにきゅうさいでたいじゅーがろくじゅうきろぐらむにたっしてかいどーとわだいになり、じっかのとくいさきのせわででわのうみへやをしょーかいされた。	NO_LABEL
毎週土曜日には地元の巡査の迎えで部屋に行って関取と相撲を取らせてもらったり、出羽海によって遊びに連れて行ってもらったり、部屋に宿泊する時は豪華な文房具をお土産に貰ったりするなど可愛がられた。	まいしゅーどよーびにわじもとのじゅんさのむかえでへやにいってせきとりとすもーをとらせてもらったり、でわのうみによってあそびにつれていってもらったり、へやにしゅくはくするときわごーかなぶんぼーぐをおみやげにもらったりするなどかわいがられた。	NO_LABEL
その後、本格的に相撲に取り組むこととなり、1925年1月場所で「出羽ノ子」という四股名で初土俵を踏む。	NO_PRONOUNCE	NO_LABEL
1930年5月場所に十両昇進を果たすが、1932年1月に勃発した春秋園事件によって、一度幕下へ降格していながら抜擢されて一気に新入幕を果たす。	せんきゅうひゃくさんじゅうねんごがつばしょにじゅーりょーしょーしんをはたすが、せんきゅうひゃくさんじゅうにねんいちがつにぼっぱつしたしゅんじゅーえんじけんによって、いちどまくしたえこーかくしていながらばってきされていっきにしんにゅーまくをはたす。	NO_LABEL
この時に「出羽ノ花」に改名したが、新入幕の直後に腸チフスによって2月場所、3月場所を休場したため、十両に降格となった。	NO_PRONOUNCE	NO_LABEL
チフスを完治させて1934年1月場所に再入幕するが、出羽ノ花の相撲は正攻法過ぎて上位力士にまるで通用せず、出羽海も「あいつに駒ノ里の出足でもあれば大関になれるのに」と嘆いたこともあるという。	NO_PRONOUNCE	NO_LABEL
1940年1月場所3日目の幡瀬川邦七郎戦で内掛けを受けて敗れた際に右膝関節内出血の重傷を負い、同年5月場所を全休したのを最後に現役を引退した。	せんきゅうひゃくよんじゅうねんいちがつばしょみっかのはたせがわくにしちろーせんでうちがけをうけてやぶれたさいにみぎしつかんせつないしゅっけつのじゅーしょーをおい、どーねんごがつばしょをぜんきゅーしたのをさいごにげんえきをいんたいした。	NO_LABEL
通常通り歩けるまでに一年も要し、この怪我の後遺症によって足が曲がってしまい、両足を揃えて立つことが出来なくなった。	つーじょーどーりあるけるまでにいちねんもよーし、このけがのこーいしょーによってあしがまがってしまい、りょーあしをそろえてたつことができなくなった。	NO_LABEL
1936年5月場所では初日に敗れてから勝ち・負けが交互に続く「ヌケヌケ」だったことがある。	NO_PRONOUNCE	NO_LABEL
この当時は一場所11日間興行のため、最終的には5勝6敗で負け越した。	このとーじわいちばしょじゅういちにちかんこーぎょーのため、さいしゅーてきにわごしょーろくはいでまけこした。	NO_LABEL
現役引退後は年寄・武藏川を襲名し、武藏川喜偉と名乗る。	NO_PRONOUNCE	NO_LABEL
戦前の巡業で満州へ遠征した際に、日本相撲協会が勧進元に対して言い値をそのまま支払う様子を見て愕然とし、経済学や簿記・経理、算盤を学んで協会の財政運営に貢献した。	NO_PRONOUNCE	NO_LABEL
現役時代は大きな活躍が無かった出羽ノ花だが、これ以降は協会の金庫番・知恵袋としての大活躍を見せることとなる。	NO_PRONOUNCE	NO_LABEL
1945年8月に終戦を迎えた直後、敗戦によって旧・両国国技館が接収されて使用できず、本場所を天候に左右されやすい野外での興行にせざるを得ない間、武藏川の自宅を担保にするなどの懸命な資金の工面を行い、その中から蔵前仮設国技館建設資金を捻出した。	NO_PRONOUNCE	NO_LABEL
1949年には日本橋浜町公園に仮設の国技館を建設したが、GHQから取り壊し命令を受けた武藏川は、いったん仮設国技館の外壁を剥がして取り壊したように見せかけ、後で新しい外壁で覆って新築と言い張る苦肉の策を思いつき、実行して同年1月場所・5月場所の興行をやり抜いた。	NO_PRONOUNCE	NO_LABEL
蔵前国技館を建設する際には、神奈川県相模原市のアメリカ陸軍相模総合補給廠で眠っていた旧大日本帝国海軍飛行機工場の廃材に着目し、GHQからの払い下げを受けて念願の鉄筋鉄骨での国技館建設を果たした。	くらまえこくぎかんをけんせつするさいにわ、かながわけんさがみはらしのあめりかりくぐんさがみそーごーほきゅーしょーでねむっていたきゅーだいにっぽんていこくかいぐんひこーきこーじょーのはいざいにちゃくもくし、じーえいちきゅーからのはらいさげをうけてねんがんのてっきんてっこつでのこくぎかんけんせつをはたした。	NO_LABEL
この直後に朝鮮戦争による朝鮮特需で鉄の価格が急騰したため、絶妙のタイミングで買い抜けたこととなった。	このちょくごにちょーせんせんそーによるちょーせんとくじゅでてつのかかくがきゅーとーしたため、ぜつみょーのたいみんぐでかいぬけたこととなった。	NO_LABEL
1957年4月に出羽海理事長が国会に呼ばれ、相撲協会のあり方について追及を受けた際に、責任感の強さから割腹自殺未遂を図る騒ぎを起こした。	せんきゅうひゃくごじゅうしちねんしがつにでわのうみせんしゃどうれんめいのりじちょーがこっかいによばれ、すもーきょーかいのありかたについてついきゅーをうけたさいに、せきにんかんのつよさからかっぷくじさつみすいをはかるさわぎをおこした。	NO_LABEL
現役理事長の自殺未遂という前代未聞の大問題に発展したため、病気療養として欠席した際に代理として白羽の矢が立ったのが武藏川である。	げんえきせんしゃどうれんめいのりじちょーのじさつみすいとゆうぜんだいみもんのだいもんだいにはってんしたため、びょーきりょーよーとしてけっせきしたさいにだいりとしてしらはのやがたったのがむさしがわである。	NO_LABEL
武藏川は追及にも堂々と答弁し、他の議員から「正に大臣も務まる、あなたの答弁は実に立派だ。	NO_PRONOUNCE	NO_LABEL
相撲協会は立派に行えるでしょう」と言わしめたほどである。	NO_PRONOUNCE	NO_LABEL
明晰な頭脳と雄弁ぶりから、「角界の代議士」と言われることもあり、また一方では「力士になっていなかったら、大実業家になっていたのではないか」という声もあった。	NO_PRONOUNCE	NO_LABEL
これによって生まれた才覚を勤勉と努力により開花させ、大相撲の為に余すところなく発揮した。	これによってうまれたさいかくをきんべんとどりょくによりかいかさせ、おーずもーのためにあますところなくはっきした。	NO_LABEL
出羽海は1960年11月に急死したことで、年寄名跡を「出羽海」に変更して部屋を継承した。	NO_PRONOUNCE	NO_LABEL
この際、先代は九重に部屋を継承させたかったと言ったようだが、現役時代の最高位が低かった武藏川が部屋を継承したことで、後の問題への火種となった。	このさい、せんだいわきゅーじゅーにへやをけいしょーさせたかったといったよーだが、げんえきじだいのさいこーいがひくかったむさしがわがへやをけいしょーしたことで、ごのもんだいえのひだねとなった。	NO_LABEL
継承直後は佐田の山晋松に次ぐ関取がなかなか出ていない状況のため、幕下の古参力士に対して「うちは下宿屋じゃないんだぞ」と通達して廃業させ、その結果として北の富士勝昭、福の花孝一など数人が十両昇進を果たした。	NO_PRONOUNCE	NO_LABEL
北の富士の著書によると、「稽古中に千円札の山をそばに置いて『勝った方にやるぞ』と言った。	NO_PRONOUNCE	NO_LABEL
これで頑張って稽古に励んだ」「親方から100万円ほどの借金をしたが、九重部屋に移籍する時に返しに行ったら全額帳消しにしてもらった」など、先代より気前の良いところがあり、部屋の食事事情も改善されたという。	NO_PRONOUNCE	NO_LABEL
その一方で、力士がタニマチに食事などを御馳走になることを好ましく思っていなかったという証言も残る。	そのいっぽーで、りきしがたにまちにしょくじなどをごちそーになることをこのましくおもっていなかったとゆうしょーげんものこる。	NO_LABEL
1965年には、日本相撲協会として戦後初の海外公演となるソビエト連邦公演の団長に就任し、モスクワにあるボリショイ劇場とハバロフスクのレーニンスポーツ宮殿での興行を成功させた。	せんきゅうひゃくろくじゅうごねんにわ、にほんすもーきょーかいとしてせんごはつのかいがいこーえんとなるそびえとれんぽーこーえんのだんちょーにしゅーにんし、もすくわにあるぼりしょいげきじょーとはばろふすくのれーにんすぽーつきゅーでんでのこーぎょーをせいこーさせた。	NO_LABEL
ソビエト連邦公演からの帰国後、佐田の山晋松の岳父となって後継者に指名し、土地建物の名義も全て「市川 晋松」に書き換えた。	NO_PRONOUNCE	NO_LABEL
これは周囲の「今度こそ後継者は九重だろう」という予想を完全に覆すものとなった。	NO_PRONOUNCE	NO_LABEL
これに対し、1967年1月場所の直前に、横綱へ昇進していた佐田の山晋松への後継決定を不服として、九重が弟子13名を連れての独立を申し出た。	NO_PRONOUNCE	NO_LABEL
出羽海は悩んだあげく即答を避け、1月場所終了後の回答を約束した。	でわのうみわなやんだあげくそくとーをさけ、いちがつばしょしゅーりょーごのかいとーをやくそくした。	NO_LABEL
1月場所の終了後の1月31日、出羽海一門の全年寄を出羽海部屋大広間に呼び集め、九重部屋の創設は「出羽海一門からの破門」を条件に認めると回答、北の富士勝昭を筆頭に10名の現役力士が高砂一門へ移籍した。	NO_PRONOUNCE	NO_LABEL
破門とする理由は出羽海部屋中興の祖にして、一門の創設者である常陸山谷右衛門の「不許分家独立」の不文律が背景にあることは間違いないが、破門までして独立を許した経緯については諸説あり、「九重の希望は叶えたいが、一門の掟には背けない中での苦渋の決断」「北の富士が移籍することで対佐田の山戦が可能となり、好取組を増やすため」といった好意的な見方があるが、その一方で「先代から『出羽海』を継承した際に『独立したい者はいないか』と言ったのに不服のある者を一門から追い出す狙いがある」といった否定的な見方もあった。	NO_PRONOUNCE	NO_LABEL
さらに、北の富士に対しては「本当にいいのか？残ってもいいんだぞ」と言ったとも伝わり、これが事実なら「対佐田の山戦を可能にして好取組を増やす」という目的は否定されることとなる。	NO_PRONOUNCE	NO_LABEL
先代・出羽海の遺族は九重を支持していたことから、それに影響を受けたのは間違いないと思われる。	NO_PRONOUNCE	NO_LABEL
なお、一門からの破門を条件に独立を許された例としては、立浪一門へ移籍した武隈部屋が存在するが、今回の九重独立騒動との関連は不明である。	なお、いちもんからのはもんをじょーけんにどくりつをゆるされたれいとしてわ、たつなみいちもんえいせきしたたけくまべやがそんざいするが、こんかいのここのえどくりつそーどーとのかんれんわふめいである。	NO_LABEL
1968年3月場所を最後に佐田の山晋松が引退すると、出羽海の名跡を譲って武蔵川に戻した。	せんきゅうひゃくろくじゅうはちねんさんがつばしょをさいごにさだのやましんまつがいんたいすると、でわのうみのみょーせきをゆずってむさしがわにもどした。	NO_LABEL
また、同年12月16日に時津風理事長が死去すると、死去翌日に後任の理事長に就任した。	また、どーねんじゅーにがつじゅうろくにちにときつかぜせんしゃどうれんめいのりじちょーがしきょすると、しきょよくじつにこーにんのりじちょーにしゅーにんした。	NO_LABEL
理事長就任後は日本相撲協会の近代化に尽くし、1969年5月場所から勝負判定の参考としてビデオ映像の導入を決断したほか、1971年には蔵前国技館改装の竣工にこぎ着けた。	せんしゃどうれんめいのりじちょーしゅーにんごわにほんすもーきょーかいのきんだいかにつくし、せんきゅうひゃくろくじゅうきゅうねんごがつばしょからしょーぶはんていのさんこーとしてびでおえいぞーのどーにゅーをけつだんしたほか、せんきゅうひゃくななじゅういちねんにわくらまえこくぎかんかいそーのしゅんこーにこぎつけた。	NO_LABEL
また、文部省から中学生力士の学校欠席問題が指摘されたのを機に中学校卒業前の入門を禁止し、義務教育を終了させることを最優先とした。	また、もんぶしょーからちゅーがくせいりきしのがっこーけっせきもんだいがしてきされたのをきにちゅーがっこーそつぎょーまえのにゅーもんをきんしし、ぎむきょーいくをしゅーりょーさせることをさいゆーせんとした。	NO_LABEL
この時期の日本相撲協会は土俵の内外で大きな動きが相次ぎ、本場所では大鵬幸喜の現役引退、玉の海正洋の横綱昇進と急逝を経て、元弟子・北の富士勝昭、琴櫻傑將の横綱昇進、そして輪島大士・北の湖敏満の台頭を導いたほか、1972年には外国力士である高見山大五郎が幕内最高優勝を果たした。	NO_PRONOUNCE	NO_LABEL
海外公演も、1973年には前年の国交回復を受けて中華人民共和国公演を実現させ、大相撲の国際化を推進した。	かいがいこーえんも、せんきゅうひゃくななじゅうさんねんにわぜんねんのこっこーかいふくをうけてちゅーかじんみんきょーわこくこーえんをじつげんさせ、おーずもーのこくさいかをすいしんした。	NO_LABEL
このような矢継ぎ早の行動による大相撲の活性化が、後の両国国技館建設につながる大相撲人気の隆盛の礎となる。	このよーなやつぎばやのこーどーによるおーずもーのかっせいかが、ごのりょうごくこくぎかんけんせつにつながるおーずもーにんきのりゅーせいのいしずえとなる。	NO_LABEL
一方で、相撲茶屋を経営する市川家と養子縁組を行った関係上、相撲茶屋問題の改革には消極的で、この点では時津風と正反対の方針を取ったと言える。	いっぽーで、すもーじゃやをけいえいするいちかわかとよーしえんぐみをおこなったかんけいじょー、すもーじゃやもんだいのかいかくにわしょーきょくてきで、このてんでわときつかぜとせいはんたいのほーしんをとったといえる。	NO_LABEL
この点に関しては武蔵川理事長の汚点として後年まで伝わり、自身と養子縁組を行った佐田の山晋松も、後に就任する理事長時代に年寄株改革を提言した時は、相撲茶屋による既得権益で退職後の生活が保障されている点を角界内部、マスコミ、好角家などから難詰された。	このてんにかんしてわむさしがわせんしゃどうれんめいのりじちょーのおてんとしてこーねんまでつたわり、じしんとよーしえんぐみをおこなったさだのやましんまつも、ごにしゅーにんするせんしゃどうれんめいのりじちょーじだいにとしよりかぶかいかくをていげんしたときわ、すもーじゃやによるきとくけんえきでたいしょくごのせいかつがほしょーされているてんをかくかいないぶ、ますこみ、こーかくかなどからなんきつされた。	NO_LABEL
1974年に理事長を春日野へ譲り、自身は相談役となった。	せんきゅうひゃくななじゅうよねんにせんしゃどうれんめいのりじちょーをかすがのえゆずり、じしんわそーだんやくとなった。	NO_LABEL
同年2月28日付で停年を迎えた後も引き続き相談役を務め、1976年1月に日本相撲協会を退職した。	どーねんにがつにじゅうはちにちずけでていねんをむかえたのちもひきつずきそーだんやくをつとめ、せんきゅうひゃくななじゅうろくねんいちがつににほんすもーきょーかいをたいしょくした。	NO_LABEL
同年2月からは日本相撲協会嘱託として相撲博物館館長を務め、1987年5月30日に死去、。	NO_PRONOUNCE	NO_LABEL
死去後、日本相撲協会は功績を称えて同年6月2日に協会葬を行い、同年6月9日に正五位勲三等瑞宝章が追贈された。	しきょご、にほんすもーきょーかいわこーせきをとなえてどーねんろくがつふつかにきょーかいそーをおこない、どーねんろくがつここのかにしょうごいくんさんとーずいほーしょーがついぞーされた。	NO_LABEL
色白の人形のような体格で人気があり、生来の器用さとちゃんこ番を散々やらされたので料理が上手く、自宅でフグを捌いて家族や来客に振る舞ったとされる。	いろじろのにんぎょーのよーなたいかくでにんきがあり、せいらいのきよーさとちゃんこばんをさんざんやらされたのでりょーりがうまく、じたくでふぐをさばいてかぞくやらいきゃくにふるまったとされる。	NO_LABEL
また着物に凝り、普段も大島紬を愛用した。	またきものにこり、ふだんもおーしまつむぎをあいよーした。	NO_LABEL
現役時代はあまり活躍できなかったが、その真価は力士引退後に発揮された。	げんえきじだいわあまりかつやくできなかったが、そのしんかわりきしいんたいごにはっきされた。	NO_LABEL
上記で述べたように日本相撲協会の理事として協会運営に尽力し、蔵前国技館の建設の立役者となった。	じょーきでのべたよーににほんすもーきょーかいのりじとしてきょーかいうんえいにじんりょくし、くらまえこくぎかんのけんせつのたてやくしゃとなった。	NO_LABEL
その後、日本相撲協会の理事長に就任し、大相撲と協会の近代化・国際化に手腕を振るい、その功績はいまでも高く評価されている。	NO_PRONOUNCE	NO_LABEL
