『タモリのグッジョブ!胸張ってこの仕事』は、2002年10月8日から2003年3月11日までTBS系列局で放送されていた教養バラエティ番組である。	NO_PRONOUNCE	NO_LABEL
イーストと毎日放送の共同製作。	いーすととまいにちほーそーのきょーどーせいさく。	NO_LABEL
全18回。	ぜんじゅうはっかい。	NO_LABEL
放送時間は毎週火曜 22:00 - 22:54。	NO_PRONOUNCE	NO_LABEL
世界中のさまざまな仕事と職業を映像で紹介していた番組。	せかいじゅーのさまざまなしごととしょくぎょーをえいぞーでしょーかいしていたばんぐみ。	NO_LABEL
特定の仕事の裏事情やパソコンのキーボード早打ち選手権などについても取り上げていた。	とくていのしごとのうらじじょーやぱそこんのきーぼーどはやうちせんしゅけんなどについてもとりあげていた。	NO_LABEL
前番組『ジャングルTV 〜タモリの法則〜』のスタッフとほぼ同じメンバーが手掛けていた番組で、司会も前番組から引き続きタモリが務めていた。	NO_PRONOUNCE	NO_LABEL
ナインティナインの岡村隆史と矢部浩之も引き続き出演していたが、関根勤と小池栄子は降板した。	ないんてぃないんのおかむらたかしとやべひろゆきもひきつずきしゅつえんしていたが、せきねつとむとこいけえいこわこーばんした。	NO_LABEL
2003年1月からは、大竹まことや上原さくらも準レギュラーポジションで出演していた。	にせんさんねんいちがつからわ、おーたけまことやうえはらさくらもじゅんれぎゅらーぽじしょんでしゅつえんしていた。	NO_LABEL
番組は毎回ゲストを2組迎えて行われていた。	NO_PRONOUNCE	NO_LABEL
この番組の最終回をもって、毎日放送が製作する9年間タモリ司会のバラエティ番組シリーズは終了した。	このばんぐみのさいしゅーかいをもって、まいにちほーそーがせいさくするきゅうねんかんたもりしかいのばらえてぃばんぐみしりーずわしゅーりょーした。	NO_LABEL
またこの番組を最後に、ナインティナインがメインＭＣでない、「出演者の一人」として出演するレギュラー番組は全て終了した。	NO_PRONOUNCE	NO_LABEL
