防災基本計画は、災害対策基本法に基づき、中央防災会議が作成する基本指針を示す防災計画で、防災分野の最上位計画である。	ぼーさいきほんけいかくわ、さいがいたいさくきほんほーにもとずき、ちゅーおーぼーさいかいぎがさくせいするきほんししんをしめすぼーさいけいかくで、ぼーさいぶんやのさいじょーいけいかくである。	NO_LABEL
防災に関する総合的かつ長期的な計画、中央防災会議が必要とする防災業務計画および地域防災計画作成基準を示し、防災予防、発生時の対応、復旧等を記してある。	ぼーさいにかんするそーごーてきかつちょーきてきなけいかく、ちゅーおーぼーさいかいぎがひつよーとするぼーさいぎょーむけいかくおよびちーきぼーさいけいかくさくせいきじゅんをしめし、ぼーさいよぼー、はっせいじのたいおー、ふっきゅーとーをしるしてある。	NO_LABEL
行政のみではなく、住民の自治防災についても記述されている。	ぎょーせいのみでわなく、じゅーみんのじちぼーさいについてもきじゅつされている。	NO_LABEL
この計画に基づき、「指定行政機関」および指定公共機関は「防災業務計画」を作成し、地方公共団体は「地域防災計画」を作成する。	NO_PRONOUNCE	NO_LABEL
災害の種類ごとに編で構成されている。	さいがいのしゅるいごとにへんでこーせいされている。	NO_LABEL
それぞれの災害について、災害対策の時間的順序に沿って、災害予防、災害応急対策、災害復旧・復興について記述されている。	NO_PRONOUNCE	NO_LABEL
またそれぞれの災害について、国、地方公共団体、住民等、各主体の責務を明確にするとともに、それぞれが行うべき対策を具体的に記述している。	またそれぞれのさいがいについて、くに、ちほーこーきょーだんたい、じゅーみんとー、かくしゅたいのせきむをめいかくにするとともに、それぞれがおこなうべきたいさくをぐたいてきにきじゅつしている。	NO_LABEL
記述されている災害は以下の通り。	きじゅつされているさいがいわいかのとーり。	NO_LABEL
