ボリス・エマヌイロヴィチ・ゴールドシュタインは、ソビエト連邦のヴァイオリニスト。	NO_PRONOUNCE	NO_LABEL
ゴルトシュタイン、ゴリトシュテインとも表記。	ごるとしゅたいん、ごりとしゅていんともひょーき。	NO_LABEL
オデッサの生まれ。	おでっさのうまれ。	NO_LABEL
兄のミハイル・ゴルトシュタインもヴァイオリニスト。	NO_PRONOUNCE	NO_LABEL
生地の音楽院で、ピョートル・ストリャルスキーに学んだ。	NO_PRONOUNCE	NO_LABEL
少年時代には、もっとも才能ある少年ヴァイオリニストとして、ヤッシャ・ハイフェッツの前で演奏したこともある。	NO_PRONOUNCE	NO_LABEL
1935年にワルシャワで開かれたヴィエニャフスキ国際ヴァイオリン・コンクールで第4位に入賞。	NO_PRONOUNCE	NO_LABEL
1937年にブリュッセルで開かれたイザイ・ヴァイオリン・コンクールで第4位入賞。	NO_PRONOUNCE	NO_LABEL
グネーシン音楽大学のヴァイオリン科の教師として後進の指導にあたり、ザハール・ブロン等を指導している。	ぐねーしんおんがくだいがくのばいおりんかのきょーしとしてこーしんのしどーにあたり、ざはーるぶろんとーをしどーしている。	NO_LABEL
1976年にはドイツに亡命し、ヴュルツブルク音楽大学のヴァイオリン科教授職にあった。	NO_PRONOUNCE	NO_LABEL
ハノーヴァーで死去。	NO_PRONOUNCE	NO_LABEL
