『月刊サンデージェネックス』は小学館が発行している月刊の漫画雑誌。	NO_PRONOUNCE	NO_LABEL
2000年創刊。	にせんねんそーかん。	NO_LABEL
毎月19日発行。	まいつきじゅうくにちはっこー。	NO_LABEL
2000年7月19日に同年8月号として創刊。	にせんねんしちがつじゅうきゅうにちにどーねんはちがつごーとしてそーかん。	NO_LABEL
『ウルトラジャンプ』や『月刊マガジンZ』、『チャンピオンRED』等と同様のメディアミックス系月刊漫画雑誌に分類される。	NO_PRONOUNCE	NO_LABEL
アニメ派生のメディアミックス企画である『ラーゼフォン』や『落語天女おゆい』などの外伝作品が連載されたほか、2006年には『REC』『ブラック・ラグーン』『貧乏姉妹物語』などの連載作品が相次いでテレビアニメ化された。	NO_PRONOUNCE	NO_LABEL
また、2011年には『神様ドォルズ』、2012年には『ヨルムンガンド』がテレビアニメ化された。	NO_PRONOUNCE	NO_LABEL
小学館が発行している他の『サンデー』系列の雑誌と比べて、他誌・他社でデビューし連載経験を持たない作家の起用が多いのが特徴である。	NO_PRONOUNCE	NO_LABEL
9割方漫画作品で占められており、アイドルグラビアや映画・テレビ・アニメなどの趣味一般の記事は非常に少ない。	NO_PRONOUNCE	NO_LABEL
他社のメディアミックス系月刊誌に多く見られる、予告なしの休載や未完成原稿の掲載は、本誌に関してはほとんど見られない。	たしゃのめでぃあみっくすけいげっかんしにおーくみられる、よこくなしのきゅーさいやみかんせいげんこーのけいさいわ、ほんしにかんしてわほとんどみられない。	NO_LABEL
読み物雑誌として漫画誌としてオーソドックスさと堅実さを守って制作されている雑誌と言える。	よみものざっしとしてまんがしとしておーそどっくすさとけんじつさをまもってせいさくされているざっしといえる。	NO_LABEL
「銃撃ち漫画」と称するガンアクションがメインの作品が、掲載作品15本中3本という比較的高比率で連載されていた時期がある。	NO_PRONOUNCE	NO_LABEL
これらはいずれも、同じ編集者が担当している。	これらわいずれも、おなじへんしゅーしゃがたんとーしている。	NO_LABEL
創刊号である2000年8月号の目次ページに掲載された「創刊の挨拶」において、初代編集長の久保田滋夫は「誌名のジェネックスは、GENERATION-XとGENE-Xからとった造語で、『サンデーの遺伝子をもった新しい世代のためのコミック誌』という意味を込めています。	NO_PRONOUNCE	NO_LABEL
」と解説している。	NO_PRONOUNCE	NO_LABEL
※順番は連載開始の早い順とする。	NO_PRONOUNCE	NO_LABEL
『薄花少女』、『魔王の階 Dark King of Kings』は2016年12月号からは紙媒体には掲載されなくなり、電子書籍版およびサンデーうぇぶりにのみ掲載されるようになった。	NO_PRONOUNCE	NO_LABEL
