スランヴァイルプールグウインゲルゴウゲールウクウィールンドロブウリスランダスイハオゴゴゴッはイギリス・ウェールズ北部のアングルシー島にある村で、世界で最も長い一語の地名である。	NO_PRONOUNCE	NO_LABEL
人口は2001年で3,040人で、内76%がウェールズ語話者である。	NO_PRONOUNCE	NO_LABEL
また、10〜14歳に於いては97.1%がウェールズ語を話す事が出来る。	NO_PRONOUNCE	NO_LABEL
また、アングルシー島で五番目に人口が多い。	また、あんぐるしーとーでごばんめにじんこーがおーい。	NO_LABEL
また、メナイ海峡を挟んでバンガーと接しており、ブリタニア橋を通って往来可能である。	また、めないかいきょーをはさんでばんがーとせっしており、ぶりたにあきょーをとーっておーらいかのーである。	NO_LABEL
この場所にスランヴァイルプールグウインゲルゴウゲールウクウィールンドロブウリスランダスイハオゴゴゴッ駅があり、これが世界で最も長い駅名として知られている。	NO_PRONOUNCE	NO_LABEL
同駅の管理と列車の運行はアリーヴァ・トレインズ・ウェールズが行っている。	NO_PRONOUNCE	NO_LABEL
同駅はリクエスト・ストップであり、乗降客が居る場合のみ停車する。	NO_PRONOUNCE	NO_LABEL
同じくこの路線を運行するヴァージン・トレインズの列車は通過する。	NO_PRONOUNCE	NO_LABEL
公式の略称はである。	こーしきのりゃくしょーわである。	NO_LABEL
また、スランヴァイル、スランヴァイル P.G.とも略す。	NO_PRONOUNCE	NO_LABEL
ランヴァイル・プルグウィンギル・ゴゲリフウィルンドロブル・ランティシリオゴゴゴホとも表記されることもある。	NO_PRONOUNCE	NO_LABEL
「赤い洞窟の聖ティシリオ教会のそばの激しい渦巻きの近くの白いハシバミの森の泉のほとりにある聖マリア教会」という意味である。	NO_PRONOUNCE	NO_LABEL
19世紀末に、観光客誘致のために名付けられた。	じゅうきゅうせいきまつに、かんこーきゃくゆーちのためになずけられた。	NO_LABEL
