スパガーラは、愛知県小牧市にあった、スーパー銭湯。	すぱがーらわ、あいちけんこまきしにあった、すーぱーせんとー。	NO_LABEL
アミューズメント事業などを展開するユーコーラッキーグループが運営していた。	あみゅーずめんとじぎょーなどをてんかいするゆーこーらっきーぐるーぷがうんえいしていた。	NO_LABEL
2018年4月30日、19時をもって、「施設老朽化等諸般の事情」により、閉店した。	NO_PRONOUNCE	NO_LABEL
施設内には天然温泉を利用した巨大浴場を中心として、飲食店やエステティックサロン、ゲームセンター、ムービーシアター、更に横になって休むことができるレストルームなどが置かれている。	しせつないにわてんねんおんせんをりよーしたきょだいよくじょーをちゅーしんとして、いんしょくてんやえすててぃっくさろん、げーむせんたー、むーびーしあたー、さらによこになってやすむことができるれすとるーむなどがおかれている。	NO_LABEL
24時間営業。	にじゅうよじかんえいぎょー。	NO_LABEL
かつては「ラッキー健康ランド」という名称で営業を行なっていた。	NO_PRONOUNCE	NO_LABEL
1985年の開業時には「健康ランド」という名称を使用した全国で初めての施設であったが、2003年にリニューアルオープンした際に現在の名称に変更され、業態についても改称以降は「スーパー銭湯」と銘打っている。	NO_PRONOUNCE	NO_LABEL
ただし、前述のとおり浴場以外の施設も充実しており、健康ランド時代の面影を数多く残している。	ただし、ぜんじゅつのとーりよくじょーいがいのしせつもじゅーじつしており、けんこーらんどじだいのおもかげをかずおーくのこしている。	NO_LABEL
詳細は公式サイトを参照。	しょーさいわこーしきさいとをさんしょー。	NO_LABEL
なお、タオル・館内着は無料、シャンプー・リンス・ボディソープは浴場に備え付けがある。	NO_PRONOUNCE	NO_LABEL
浴場以外の施設も利用可能。	よくじょーいがいのしせつもりよーかのー。	NO_LABEL
午前11時を過ぎると追加料金となる。	ごぜんじゅういちじをすぎるとついかりょーきんとなる。	NO_LABEL
一枚のカードにより4人まで割引適用可能。	いちまいのかーどによりよにんまでわりびきてきよーかのー。	NO_LABEL
CLUB SPAGALAは入会金・年会費無料。	NO_PRONOUNCE	NO_LABEL
