荀士遜は、中国の北斉の文学者。	NO_PRONOUNCE	NO_LABEL
本貫は広平郡。	ほんがんわひろへごーり。	NO_LABEL
学問を好み、文章の美しいことで知られた。	がくもんをこのみ、ぶんしょーのうつくしいことでしられた。	NO_LABEL
東魏の武定末年、司州で秀才に挙げられたが、北斉の559年まで仕えなかった。	とうぎのたけさだすえみのる、ししゅーでしゅーさいにあげられたが、ほくせいのごひゃくごじゅうきゅうねんまでつかえなかった。	NO_LABEL
560年、馬敬徳に推薦されて主書となった。	ごひゃくろくじゅうねん、うまたかしとくにすいせんされておもしょとなった。	NO_LABEL
武成帝のとき、中書舎人に転じた。	ぶせいていのとき、ちゅーしょとねりにてんじた。	NO_LABEL
その文辞のために用いられたが、容貌が醜いことでも知られた。	そのぶんじのためにもちいられたが、よーぼーがみにくいことでもしられた。	NO_LABEL
あるとき武成帝に伝奏する者が士遜の姓名を言わず、醜舎人と言ったところ、武成帝は「必ずや士遜だろう」と言い、封題を見たところそのとおりだったので、内廷の人で笑わない者はなかった。	NO_PRONOUNCE	NO_LABEL
後主が即位すると、中書侍郎に累進した。	こーしゅがそくいすると、ちゅーしょじろーにるいしんした。	NO_LABEL
李若らとともに『典言』を撰した。	NO_PRONOUNCE	NO_LABEL
577年、死去した。	ごひゃくななじゅうななねん、しきょした。	NO_LABEL
