種部 儀康は、鳥取県出身の元プロ野球選手。	たねべただしやすしわ、とっとりけんしゅっしんのもとぷろやきゅーせんしゅ。	NO_LABEL
妻は宮田征典の姉・鈴子。	NO_PRONOUNCE	NO_LABEL
倉吉農業高では、同年次に米子東高の義原武敏や境高の米田哲也といった好投手がおり、甲子園には出場できなかった。	くらよしのーぎょーだかでわ、どーねんつぎによなごひがしこーのよしはらたけとしやさかいだかのよねだてつやといったこーとーしゅがおり、こーしえんにわしゅつじょーできなかった。	NO_LABEL
高校卒業後、米子鉄道管理局を経て、1962年に読売ジャイアンツへ入団。	こーこーそつぎょーご、よなごてつどーかんりきょくをへて、せんきゅうひゃくろくじゅうにねんによみうりじゃいあんつえにゅーだん。	NO_LABEL
2年間は一軍登板なしに終わったが、1963年の第1回ジュニアオールスターに出場し、勝利投手となる。	にねんかんわいちぐんとーばんなしにおわったが、せんきゅうひゃくろくじゅうさんねんのだいいっかいじゅにあおーるすたーにしゅつじょーし、しょーりとーしゅとなる。	NO_LABEL
3年目の1964年に一軍に上がり、主に救援として起用される。	さんねんめのせんきゅうひゃくろくじゅうよねんにいちぐんにあがり、おもにきゅーえんとしてきよーされる。	NO_LABEL
1965年には最多となる33試合に登板し、4勝を記録している。	せんきゅうひゃくろくじゅうごねんにわさいたとなるさんじゅうさんしあいにとーばんし、よんしょーをきろくしている。	NO_LABEL
同年と翌1966年の南海ホークスとの日本シリーズでも、それぞれ1試合に登板。	どーねんとよくせんきゅうひゃくろくじゅうろくねんのなんかいほーくすとのにっぽんしりーずでも、それぞれいちしあいにとーばん。	NO_LABEL
1968年に防御率6.00に終わり、1969年には登板がなく、オフに金銭トレードで南海ホークスへ移籍。	NO_PRONOUNCE	NO_LABEL
ここでも主に中継ぎ、抑えとして起用され、1970年は5勝を挙げる。	ここでもおもになかつぎ、おさえとしてきよーされ、せんきゅうひゃくななじゅうねんわごしょーをあげる。	NO_LABEL
1971年も22試合に登板するが、同年限りで引退。	せんきゅうひゃくななじゅういちねんもにじゅうにしあいにとーばんするが、どーねんかぎりでいんたい。	NO_LABEL
変則的なサイドスローからスライダー、シュートやカーブを武器にした。	へんそくてきなさいどすろーからすらいだー、しゅーとやかーぶをぶきにした。	NO_LABEL
1972年、南海で1年間だけ二軍投手コーチを務めた。	せんきゅうひゃくななじゅうにねん、なんかいでいちねんかんだけにぐんとーしゅこーちをつとめた。	NO_LABEL
