中落悪水路は、埼玉県久喜市及び幸手市を流れる準用河川である。	なかおちあくすいろわ、さいたまけんくきしおよびさってしをながれるじゅんよーかせんである。	NO_LABEL
久喜市桜田にある鷲宮産業団地東側付近に端を発し、幸手市大字中川崎の水田地帯を東に向かう。	くきしさくらだにあるわしみやさんぎょーだんちひがしがわふきんにはじをはっし、さってしだいじなかかわさきのすいでんちたいをひがしにむかう。	NO_LABEL
大字下川崎との境界付近で南方に流れを変え、葛西用水路の北側で再び東に向かい、久喜幸手新道を南側へと横断したのち、幸手駅北西にて倉松川に合流する。	だいじさげかわさきとのきょーかいふきんでなんぽーにながれをかえ、かさいよーすいろのきたがわでふたたびひがしにむかい、くきさってしんどーをみなみがわえとおーだんしたのち、さってえきほくせいにてくらまつがわにごーりゅーする。	NO_LABEL
上流域の幸手市大字中川崎や大字下川崎では水田などの農地の中を流下し、主として農業排水路として用いられているが、中5丁目付近より流域周辺は市街地となり、都市排水路の様相を呈してくる。	じょーりゅーいきのさってしだいじなかかわさきやだいじしもかわさきでわすいでんなどののーちのなかをりゅーかし、しゅとしてのーぎょーはいすいろとしてもちいられているが、ちゅーごちょーめふきんよりりゅーいきしゅーへんわしがいちとなり、としはいすいろのよーそーをていしてくる。	NO_LABEL
なお、流路の詳細に関しては下記の流路節を参照されたい。	なお、ながれろのしょーさいにかんしてわかきのりゅーろぶしをさんしょーされたい。	NO_LABEL
