四国同盟、またはロンドン条約は、1718年8月2日に締結された、グレートブリテン王国、フランス王国、ハプスブルク君主国、ネーデルラント連邦共和国の間の条約。	しこくどーめい、またわろんどんじょーやくわ、せんななひゃくじゅうはちねんはちがつふつかにていけつされた、ぐれーとぶりてんおーこく、ふらんすおーこく、はぷすぶるくくんしゅこく、ねーでるらんとれんぽーきょーわこくのまのじょーやく。	NO_LABEL
条約は1713年のユトレヒト条約を再確認するとともに、サヴォイア公国がシチリア王国をハプスブルク家のと交換することを定めた。	NO_PRONOUNCE	NO_LABEL
神聖ローマ皇帝カール6世は両シチリアを統一し、フェリペ5世をスペイン王として承認した。	NO_PRONOUNCE	NO_LABEL
しかし、フェリペ5世のサルデーニャ侵攻とシチリア侵攻により、同年には四国同盟戦争が勃発した。	しかし、ふぇりぺごせいのさるでーにゃしんこーとしちりあしんこーにより、どーねんにわしこくどーめいせんそーがぼっぱつした。	NO_LABEL
