王 憲は、中国北魏の政治家。	おーけんわ、ちゅーごくほくぎのせいじか。	NO_LABEL
字は顕則。	じわあらわそく。	NO_LABEL
本貫は北海郡劇県。	ほんがんわほっかいぐんげきけん。	NO_LABEL
前秦の河東郡太守の王休の子として生まれた。	ぜんしんのかとーぐんたいしゅのおーきゅーのことしてうまれた。	NO_LABEL
幼くして孤児となり、伯父の王永に従って鄴に入った。	NO_PRONOUNCE	NO_LABEL
苻丕が帝位につくと、王永は前秦の丞相となった。	NO_PRONOUNCE	NO_LABEL
王永が慕容永のために殺害されたので、王憲は清河に逃れ、民家に潜伏した。	おーえいがぼようえいのためにさつがいされたので、おーけんわきよかわにのがれ、みんかにせんぷくした。	NO_LABEL
皇始年間、北魏の道武帝が趙郡高邑県にやってくると、王憲は北魏に帰順した。	こうしねんかん、ほくぎのどうぶていがちょーぐんこうゆうけんにやってくると、おーけんわほくぎにきじゅんした。	NO_LABEL
道武帝は王憲に会うと、「これ王猛の孫なり」と言って厚く礼遇し、本州中正に任じ、選曹事・掌門下を兼ねさせた。	NO_PRONOUNCE	NO_LABEL
太武帝が即位すると、廷尉卿を代行した。	たいぶていがそくいすると、ていーきょーをだいこーした。	NO_LABEL
上谷郡太守に任ぜられ、中塁将軍の位を加えられ、高唐子の爵位を受けた。	じょうこくぐんたいしゅににんぜられ、ちゅーるいしょーぐんのくらいをくわえられ、こーからこのしゃくいをうけた。	NO_LABEL
外都大官と中都大官を歴任した。	そととたいかんとなかつたいかんをれきにんした。	NO_LABEL
劇県侯に進み、龍驤将軍の位を加えられた。	げきけんこーにすすみ、りゅーじょーしょーぐんのくらいをくわえられた。	NO_LABEL
并州刺史として出向し、安南将軍の位を加えられ、爵位は北海公に進んだ。	へいしゅーししとしてしゅっこーし、あんなんしょーぐんのくらいをくわえられ、しゃくいわきたみくにすすんだ。	NO_LABEL
平城に帰還すると、元老として重んじられた。	ひらじろにきかんすると、げんろーとしておもんじられた。	NO_LABEL
466年、死去した。	よんひゃくろくじゅうろくねん、しきょした。	NO_LABEL
享年89。	NO_PRONOUNCE	NO_LABEL
鎮南将軍・青州刺史の位を追贈された。	NO_PRONOUNCE	NO_LABEL
諡は康といった。	おくりなわかんといった。	NO_LABEL
