北出来島町は、徳島県徳島市の町名。	きたできじまちょーわ、とくしまけんとくしましのちょーめい。	NO_LABEL
現行行政地名は北出来島町一丁目及び北出来島町二丁目。	げんこーぎょーせいちめいわきたできじまちょーいっちょーめおよびきたできじまちょーにちょーめ。	NO_LABEL
2009年12月現在の人口は143人、世帯数は77世帯。	NO_PRONOUNCE	NO_LABEL
郵便番号は〒770-0821。	NO_PRONOUNCE	NO_LABEL
徳島市の北東部に位置し、内町地区に属する。	とくしましのきたとうべにいちし、うちまちちくにぞくする。	NO_LABEL
北端は助任川に面する。	ほくたんわすけとうがわにめんする。	NO_LABEL
東から一丁目から二丁目と並ぶ。	ひがしからいっちょーめからにちょーめとならぶ。	NO_LABEL
北西端の新町川と助任川の合流点には三ツ合橋が架かり、中前川町五丁目と南田宮二丁目と結ばれる。	ほくせいたんのしんまちがわとすけとうがわのごーりゅーてんにわみつあいばしがかかり、なかまえがわちょーごちょーめとみなみたみやにちょーめとむすばれる。	NO_LABEL
一丁目には四国ガス徳島四所があり、市内に都市ガスを供給している。	いっちょーめにわしこくがすとくしまよんしょがあり、しないにとしがすをきょーきゅーしている。	NO_LABEL
元は出来島町の本町北の大部分で、昭和16年に現在の町名となった。	もとわできじまちょーのほんちょーきたのだいぶぶんで、しょーわじゅうろくねんにげんざいのちょーめいとなった。	NO_LABEL
