神光丸は、かつて神陽汽船が取得し大同海運が運行していた貨物船。	かんみつまるわ、かつてかみよーきせんがしゅとくしだいどーかいうんがうんこーしていたかもつせん。	NO_LABEL
太平洋戦争中、海軍省により徴傭され輸送任務中に撃沈された。	たいへいよーせんそーちゅー、かいぐんしょーによりしるしやといされゆそーにんむちゅーにげきちんされた。	NO_LABEL
船名は、神陽汽船が取得した船としては唯一のもの。	せんめいわ、かみよーきせんがしゅとくしたふねとしてわゆいいつのもの。	NO_LABEL
神陽汽船から播磨造船所に発注され、1939年12月29日、播磨造船所相生工場で建造番号302番船として起工。	NO_PRONOUNCE	NO_LABEL
1940年6月27日、進水。	せんきゅうひゃくよんじゅうねんろくがつにじゅうしちにち、しんすい。	NO_LABEL
9月10日、同所で竣工。	くがつとおか、どーしょでしゅんこー。	NO_LABEL
竣工後は大同海運に傭船され運行。	しゅんこーごわだいどーかいうんによーせんされうんこー。	NO_LABEL
1942年12月30日、大阪在泊中に海軍省により徴傭され用途雑用、呉鎮守府所管となる。	せんきゅうひゃくよんじゅうにねんじゅーにがつさんじゅうにち、おーさかざいはくちゅーにかいぐんしょーによりしるしやといされよーとざつよー、くれちんじゅふしょかんとなる。	NO_LABEL
同日大発動艇を積載し、神戸へ回航。	どーじつだいはつどーていをせきさいし、こーべえかいこー。	NO_LABEL
同日、神戸着。	どーじつ、こーべぎ。	NO_LABEL
31日、横浜へ向け神戸発。	さんじゅういちにち、よこはまえむけこーべはつ。	NO_LABEL
1943年1月2日、横浜着。	せんきゅうひゃくよんじゅうさんねいちがつふつか、よこはまぎ。	NO_LABEL
大発動艇陸揚げ。	だいはつどーていりくあげ。	NO_LABEL
軍需品、重油積載。	ぐんじゅひん、じゅーゆせきさい。	NO_LABEL
6日、1106船団に加入し旗風の護衛を受け石炭積み込みのため室蘭へ向け横浜発。	NO_PRONOUNCE	NO_LABEL
10日、室蘭に到着したが積地が小樽に変更されたため、同日室蘭を出港し函館で待機。	とおか、むろらんにとーちゃくしたがせきちがしょーたるにへんこーされたため、どーじつむろらんをしゅっこーしはこだてでたいき。	NO_LABEL
11日、福島沖で悪天候に遭遇したため、14日まで福島で待機。	じゅういちにち、ふくしまおきであくてんこーにそーぐーしたため、じゅうよっかまでふくしまでたいき。	NO_LABEL
14日函館へ回航し、燃料炭と清水を補給。	じゅうよっかはこだてえかいこーし、ねんりょーすみとしみずをほきゅー。	NO_LABEL
16日、小樽へ向け函館発。	じゅうろくにち、おたるえむけはこだてはつ。	NO_LABEL
17日、小樽着。	じゅうしちにち、おたるぎ。	NO_LABEL
石炭積載。	せきたんせきさい。	NO_LABEL
20日、横浜へ向け小樽発。	はつか、よこはまえむけおたるはつ。	NO_LABEL
25日、横浜着。	にじゅうごにち、よこはまぎ。	NO_LABEL
同日、サイパンへ向け横浜発。	どーじつ、さいぱんえむけよこはまはつ。	NO_LABEL
31日、サイパン着。	さんじゅういちにち、さいぱんぎ。	NO_LABEL
石炭陸揚げ、砂糖需品積載。	せきたんりくあげ、さとーじゅひんせきさい。	NO_LABEL
便乗者163名乗船。	NO_PRONOUNCE	NO_LABEL
2月13日、横浜へ向けサイパン発。	にがつじゅうさんにち、よこはまえむけさいぱんはつ。	NO_LABEL
21日、横浜着。	にじゅういちにち、よこはまぎ。	NO_LABEL
砂糖需品陸揚げ。	さとーじゅひんりくあげ。	NO_LABEL
24日、室蘭へ向け横浜発。	にじゅうよっか、むろらんえむけよこはまはつ。	NO_LABEL
27日、室蘭着。	にじゅうしちにち、むろらんぎ。	NO_LABEL
石炭積載。	せきたんせきさい。	NO_LABEL
3月2日、横須賀へ向け室蘭発。	さんがつふつか、よこすかえむけむろらんはつ。	NO_LABEL
横須賀着後、石炭を陸揚げ。	よこすかぎご、せきたんをりくあげ。	NO_LABEL
7日、四日市へ向け横須賀発。	なのか、よっかいちえむけよこすかはつ。	NO_LABEL
8日、四日市着。	ようか、よっかいちぎ。	NO_LABEL
ドラム缶詰めガソリン7,700本積載。	NO_PRONOUNCE	NO_LABEL
10日、サイパンへ向け四日市発。	とおか、さいぱんえむけよっかいちはつ。	NO_LABEL
16日、サイパン着。	じゅうろくにち、さいぱんぎ。	NO_LABEL
石炭、ガソリン陸揚げ。	せきたん、がそりんりくあげ。	NO_LABEL
リン鉱石1,830トン、空きドラム缶、酒精積載。	NO_PRONOUNCE	NO_LABEL
便乗者52名乗船。	NO_PRONOUNCE	NO_LABEL
17日、部内限りで船名をい號神光丸と改名。	NO_PRONOUNCE	NO_LABEL
30日、横浜へ向けサイパン発。	さんじゅうにち、よこはまえむけさいぱんはつ。	NO_LABEL
4月8日、横浜着。	しがつようか、よこはまぎ。	NO_LABEL
リン鉱石、ドラム缶、酒精陸揚げ。	りんこーせき、どらむかん、しゅせいりくあげ。	NO_LABEL
便乗者退船。	びんじょーしゃしさふね。	NO_LABEL
12日、室蘭へ向け横浜発。	じゅうににち、むろらんえむけよこはまはつ。	NO_LABEL
15日、室蘭着。	じゅうごにち、むろらんぎ。	NO_LABEL
石炭4,200トン積載。	NO_PRONOUNCE	NO_LABEL
16日、横須賀へ向け室蘭発。	じゅうろくにち、よこすかえむけむろらんはつ。	NO_LABEL
19日、横須賀着。	じゅうくにち、よこすかぎ。	NO_LABEL
20日、トラックへ向け横須賀発。	はつか、とらっくえむけよこすかはつ。	NO_LABEL
30日、トラック着。	さんじゅうにち、とらっくぎ。	NO_LABEL
石炭陸揚げ。	せきたんりくあげ。	NO_LABEL
リン鉱石、郵便物積載、便乗者58名乗船。	NO_PRONOUNCE	NO_LABEL
5月16日、内地へ向けトラック発。	ごがつじゅうろくにち、ないちえむけとらっくはつ。	NO_LABEL
20日、サイパンに寄港。	はつか、さいぱんにきこー。	NO_LABEL
秋月の救難に従事。	しゅーげつのきゅーなんにじゅーじ。	NO_LABEL
同艦の部分品を積載。	どーかんのぶぶんひんをせきさい。	NO_LABEL
6月24日、秋月を曳航し長崎へ向けサイパン発。	ろくがつにじゅうよっか、しゅーげつをえいこーしながさきえむけさいぱんはつ。	NO_LABEL
7月5日、長崎着。	しちがついつか、ながさきぎ。	NO_LABEL
秋月の部分品を陸揚げ。	しゅーげつのぶぶんひんをりくあげ。	NO_LABEL
7日、大阪へ向け長崎発。	なのか、おーさかえむけながさきはつ。	NO_LABEL
9日、大阪着。	ここのか、おーさかぎ。	NO_LABEL
リン鉱石陸揚げ。	りんこーせきりくあげ。	NO_LABEL
12日、相生へ向け大阪発。	じゅうににち、あいおいえむけおーさかはつ。	NO_LABEL
13日、相生着。	じゅうさんにち、あいおいぎ。	NO_LABEL
27日まで播磨造船所で入渠修理を実施。	にじゅうしちにちまではりまぞーせんじょでにゅーきょしゅーりをじっし。	NO_LABEL
27日、三池へ向け相生発。	にじゅうしちにち、みいけえむけあいおいはつ。	NO_LABEL
8月1日、三池着。	はちがつついたち、みいけぎ。	NO_LABEL
石炭ほか積載。	せきたんほかせきさい。	NO_LABEL
2日、徳山へ向け三池発。	ふつか、とくやまえむけさんいけはつ。	NO_LABEL
3日、徳山着。	みっか、とくやまぎ。	NO_LABEL
ガソリンほか油類、郵便物積載。	がそりんほかあぶらるい、ゆーびんぶつせきさい。	NO_LABEL
5日、佐伯へ向け徳山発。	いつか、さいきえむけとくやまはつ。	NO_LABEL
同日、佐伯着。	どーじつ、さいきぎ。	NO_LABEL
石炭、ガソリン、郵便物積載。	せきたん、がそりん、ゆーびんぶつせきさい。	NO_LABEL
便乗者4名乗船。	NO_PRONOUNCE	NO_LABEL
6日、オ606船団に加入し第17号掃海艇の護衛を受けパラオへ向け佐伯発。	NO_PRONOUNCE	NO_LABEL
16日、パラオ着。	じゅうろくにち、ぱらおぎ。	NO_LABEL
27日、リン鉱石積載のためアンガウルへ向かうが、悪天候のためパラオへ引き返す。	にじゅうしちにち、りんこーせきせきさいのためあんがうるえむかうが、あくてんこーのためぱらおえひきかえす。	NO_LABEL
便乗者182名乗船。	NO_PRONOUNCE	NO_LABEL
9月7日、フ706船団に加入し壹岐の護衛を受け佐伯へ向けパラオ発。	NO_PRONOUNCE	NO_LABEL
17日、佐伯着。	じゅうしちにち、さいきぎ。	NO_LABEL
18日、門司へ回航。	じゅうはちにち、もじえかいこー。	NO_LABEL
同日、門司着。	どーじつ、もじぎ。	NO_LABEL
便乗者退船。	びんじょーしゃしさふね。	NO_LABEL
ドラム缶詰めガソリン14,000本積載。	NO_PRONOUNCE	NO_LABEL
23日、呉へ回航。	にじゅうさんにち、くれえかいこー。	NO_LABEL
24日、呉着。	にじゅうよっか、くれぎ。	NO_LABEL
運貨船2隻、自動車6両、機雷12ほか積載。	NO_PRONOUNCE	NO_LABEL
便乗者3名乗船。	NO_PRONOUNCE	NO_LABEL
26日、伊予灘で中型運貨船の曳航試験を実施。	にじゅうろくにち、いよなだでちゅーがたうんかせんのえいこーしけんをじっし。	NO_LABEL
同日、安下庄へ回航。	どーじつ、やすしものしょーえかいこー。	NO_LABEL
27日、佐伯へ回航。	にじゅうしちにち、さいきえかいこー。	NO_LABEL
30日、パラオへ向け佐伯発。	さんじゅうにち、ぱらおえむけさいきはつ。	NO_LABEL
10月10日、パラオ着。	じゅーがつとおか、ぱらおぎ。	NO_LABEL
缶詰ほか積載。	かんずめほかせきさい。	NO_LABEL
便乗者2名退船。	NO_PRONOUNCE	NO_LABEL
20日、ラバウルへ向けパラオ発。	はつか、らばうるえむけぱらおはつ。	NO_LABEL
23日と25日、潜水艦の攻撃を受けたが被害なし。	にじゅうさんにちとにじゅうごにち、せんすいかんのこーげきをうけたがひがいなし。	NO_LABEL
27日、ラバウル着。	にじゅうしちにち、らばうるぎ。	NO_LABEL
ガソリン、機雷12ほか陸揚げ。	NO_PRONOUNCE	NO_LABEL
便乗者1名退船。	NO_PRONOUNCE	NO_LABEL
11月2日、ラバウル第四錨地で碇泊中にアメリカ軍機の空襲受けて被爆し、沈没した。	じゅーいちがつふつか、らばうるだいよんびょーちでていはくちゅーにあめりかぐんきのくーしゅーうけてひばくし、ちんぼつした。	NO_LABEL
沈没の際、船員2名が犠牲となった。	NO_PRONOUNCE	NO_LABEL
