ロザムンド・パイクは、イギリスの女優。	ろざむんどぱいくわ、いぎりすのじょゆー。	NO_LABEL
ロンドン生まれ。	ろんどんうまれ。	NO_LABEL
父親はオペラ歌手、母親はヴァイオリニスト。	NO_PRONOUNCE	NO_LABEL
オックスフォード大学で英文学を学び、優秀な成績で卒業した。	おっくすふぉーどだいがくでえいぶんがくをまなび、ゆーしゅーなせいせきでそつぎょーした。	NO_LABEL
両親の仕事の都合で7歳までヨーロッパ各地で育ったためフランス語とドイツ語を流暢に話し、ピアノとチェロもたしなむという。	りょーしんのしごとのつごーでななさいまでよーろっぱかくちでそだったためふらんすごとどいつごをりゅーちょーにはなし、ぴあのとちぇろもたしなむという。	NO_LABEL
大学在学中にアーサー・ミラーやシェイクスピアなどの舞台やテレビで活動、学生時代に来日しており、大阪府吹田市にあるメイシアターで芝居の公演を行った。	だいがくざいがくちゅーにあーさーみらーやしぇいくすぴあなどのぶたいやてれびでかつどー、がくせいじだいにらいにちしており、おーさかふすいたしにあるめいしあたーでしばいのこーえんをおこなった。	NO_LABEL
2002年にはハル・ベリーと共にボンドガールに選ばれた。	にせんにねんにわはるべりーとともにぼんどがーるにえらばれた。	NO_LABEL
2003年に出演したウエスト・エンドでの舞台『Hitchcock Blonde』では、『ブルー・ルーム』のニコール・キッドマンのように裸で登場して話題になった。	NO_PRONOUNCE	NO_LABEL
2009年、ロンドンで上演された三島由紀夫の戯曲『サド侯爵夫人』で主演を務めた。	NO_PRONOUNCE	NO_LABEL
2014年、イギリスのウーメン・イン・TV&フィルム・アワードで最優秀演技賞を受賞した。	NO_PRONOUNCE	NO_LABEL
また、同年に公開された『ゴーン・ガール』で夫を追い詰めていく妻を演じ、非常に高い評価を受け、数々の批評家協会賞を受賞。	NO_PRONOUNCE	NO_LABEL
この演技によって、パイクはゴールデングローブ賞、全米映画俳優組合賞、アカデミー主演女優賞にノミネートされている。	このえんぎによって、ぱいくわごーるでんぐろーぶしょー、ぜんべいえいがはいゆーくみあいしょー、あかでみーしゅえんじょゆーしょーにのみねーとされている。	NO_LABEL
2007年には『プライドと偏見』の監督であるジョー・ライトと婚約したが、2008年5月に行う予定だった結婚式を土壇場でキャンセルした。	NO_PRONOUNCE	NO_LABEL
2012年に男児を出産し、2014年に第2子の男児を出産。	にせんじゅうにねんにだんじをしゅっさんし、にせんじゅうよねんにだいにしのだんじをしゅっさん。	NO_LABEL
父親は2009年より交際している16歳年上のビジネスマンロビー・ウニアック。	NO_PRONOUNCE	NO_LABEL
2015年にゴーン・ガールの宣伝のため中国を訪れた際には、英語名の中国語訳ではなく、ウニアックがつけた中国名「裴淳華」を使用した。	NO_PRONOUNCE	NO_LABEL
