ブラッドフォード・オン・エイヴォンはイングランドのウィルトシャーの西部に位置する町である。	NO_PRONOUNCE	NO_LABEL
人口は約9,326人で、2011年の国勢調査では9,402人に増えた。	NO_PRONOUNCE	NO_LABEL
町は運河や歴史的建造物、店、パブ、レストランによって観光客に人気がある。	まちわうんがやれきしてきけんぞーぶつ、みせ、ぱぶ、れすとらんによってかんこーきゃくににんきがある。	NO_LABEL
町の歴史はローマ時代に端を発する。	まちのれきしわろーまじだいにはじをはっする。	NO_LABEL
町にイングランドが毛織物業で繁栄した17世紀に建てられた建造物がいくつかある。	まちにいんぐらんどがけおりものぎょーではんえいしたじゅうしちせいきにたてられたけんぞーぶつがいくつかある。	NO_LABEL
町の一部分は、エイヴォン渓谷やヴェイルの西縁に区分される丘陵地にまたがっている。	NO_PRONOUNCE	NO_LABEL
バースの南東8マイルに位置し、メンディップ丘陵とソールズベリー平野、コッツウォルズ丘陵に囲まれた丘陵性の田園地帯に位置する。	NO_PRONOUNCE	NO_LABEL
地元の地区からはジュラ紀の石灰石が産出され、古い建造物の建材となっている。	じもとのちくからわじゅらきのせっかいせきがさんしゅつされ、ふるいけんぞーぶつのけんざいとなっている。	NO_LABEL
エイヴォン川が町を貫通している。	NO_PRONOUNCE	NO_LABEL
最も古い居住の証拠は、町で見つかったローマ人が入植した際の残存物である。	もっともふるいきょじゅーのしょーこわ、まちでみつかったろーまじんがにゅーしょくしたさいのざんそんぶつである。	NO_LABEL
特に、セントローレンススクールの校庭での考古学的発掘によって、保存状態の良いモザイク画をもった、大きなローマ人集落の遺跡が見つかった。	とくに、せんとろーれんすすくーるのこーていでのこーこがくてきはっくつによって、ほぞんじょーたいのよいもざいくがをもった、おーきなろーまじんしゅーらくのいせきがみつかった。	NO_LABEL
町の中心部はエイヴォン川を横切る浅瀬を囲むように発達し、これが町の名前の由来となった。	NO_PRONOUNCE	NO_LABEL
この浅瀬はノルマン人の支配下にあった時代に現在も残る石橋によって補強された。	このあさせわのるまんじんのしはいかにあったじだいにげんざいものこるいしばしによってほきょーされた。	NO_LABEL
ノルマン人がいた側は上流であり、橋はアーチ型にとがらせられた。	のるまんじんがいたがわわじょーりゅーであり、はしわあーちがたにとがらせられた。	NO_LABEL
新しい側もアーチが彫られた。	あたらしいがわもあーちがほられた。	NO_LABEL
町の橋と教会はイギリスの一級史跡である。	まちのはしときょーかいわいぎりすのいっきゅーしせきである。	NO_LABEL
橋は当初、荷馬用であったが、17世紀に西側が作り直されたことで拡張された。	はしわとーしょ、にうまよーであったが、じゅうしちせいきににしがわがつくりなおされたことでかくちょーされた。	NO_LABEL
 イングランド内戦のさなかの1643年7月2日、町はランズダウンの戦いへ向かう途中に橋を制圧した王党派間の衝突の舞台となった。	いんぐらんどないせんのさなかのせんろっぴゃくよんじゅうさんねんしちがつふつか、まちわらんずだうんのたたかいえむかうとちゅーにはしをせいあつしたおーとーはかんのしょーとつのぶたいとなった。	NO_LABEL
橋の上には当初は教会として使われ、のちに町の拘留所として使われた小さな建物がある。	はしのうえにわとーしょわきょーかいとしてつかわれ、のちにまちのこーりゅーしょとしてつかわれたちーさなたてものがある。	NO_LABEL
建物の頂点についていた風向計は魚のカマツカの形をしており、それゆえ地元のことわざでは「我々は水の上、魚の下にいる」と言われる。	NO_PRONOUNCE	NO_LABEL
ウィドゥブロック・グレインジは町の縁にあるジョージ王朝期のマナー・ハウスである。	NO_PRONOUNCE	NO_LABEL
荘園は元々はマンヴァーズ伯爵の私有地にモデル農場として作られたが、現在はホテルとして経営されている。	NO_PRONOUNCE	NO_LABEL
河川水を動力源とした毛織物工場が町に富をもたらした。	かせんすいをどーりょくげんとしたけおりものこーじょーがまちにとみをもたらした。	NO_LABEL
町には地元の織物産業が最も栄えた、17世紀の建造物がある。	まちにわじもとのおりものさんぎょーがもっともさかえた、じゅうしちせいきのけんぞーぶつがある。	NO_LABEL
織工の家の最も良い例は、ニュータウンやミドルランク、トーリーテラスにある。	おこーのいえのもっともよいれいわ、にゅーたうんやみどるらんく、とーりーてらすにある。	NO_LABEL
18世紀初め、ダニエル・デフォーはブラッドフォード・オン・エイヴォンを訪れ、「ブラッドフォード・オン・エイヴォンでは1万〜4万ポンドで織物仕上げ工を雇うのは全く普通のことだ、という話を聞いた。	NO_PRONOUNCE	NO_LABEL
」と述べた。	NO_PRONOUNCE	NO_LABEL
産業革命期の織物工業における機械化の進展に伴って、毛織物産業は小さな小屋から、織機の動力として水と蒸気を使えるような、エイヴォン川に近接する場所へ建てられた専用の工場へ中心が移った。	NO_PRONOUNCE	NO_LABEL
ブラッドフォード・オン・エイヴォンにはそのような工場が30ほど建てられ、19世紀後半にイギリス毛織物工業の中心がヨークシャーに移るまで長きにわたって繁栄した。	NO_PRONOUNCE	NO_LABEL
最後の地元の工場が1905年に閉鎖した。	さいごのじもとのこーじょーがせんきゅうひゃくごねんにへいさした。	NO_LABEL
多くの工場はそれ以来持ち主がおらず、廃墟となったものもある。	おーくのこーじょーわそれいらいもちぬしがおらず、はいきょとなったものもある。	NO_LABEL
ブラッドフォード・オン・エイヴォンの特筆すべき特徴は14世紀に建てられた、サクソン・タイズ・バーンとして知られる巨大な二級史跡タイズ・バーンである。	NO_PRONOUNCE	NO_LABEL
長さ180フィート、幅30フィートあり、バートンファーム地方公園の一部である。	NO_PRONOUNCE	NO_LABEL
 その納屋は教会に資金を提供するための税を、品物のかたちで集めておくことに使われていた。	そのなやわきょーかいにしきんをていきょーするためのぜいを、しなもののかたちであつめておくことにつかわれていた。	NO_LABEL
町の中心部や周辺にあるいくつかの建造物は2012年までにリノベーションや再開発の対象に指定された。	まちのちゅーしんぶやしゅーへんにあるいくつかのけんぞーぶつわにせんじゅうにねんまでにりのべーしょんやさいかいはつのたいしょーにしていされた。	NO_LABEL
1998年にはウィルトシャー音楽センターがブラッドフォード・オン・エイヴォンのセントローレンススクールの敷地内にオープンした。	NO_PRONOUNCE	NO_LABEL
2000年にはミリー記念碑がお披露目された。	にせんねんにわみりーきねんひがおひろめされた。	NO_LABEL
2003年8月8日にはブラッドフォード・オン・エイヴォンがフェアトレード・タウンとしての地位を認められた。	NO_PRONOUNCE	NO_LABEL
町には2つの選挙区がある。	まちにわふたつのせんきょくがある。	NO_LABEL
2011年の国勢調査ではそれらを合わせた領域と人口が上記の通りである。	にせんじゅういちねんのこくせいちょうさでわそれらをあわせたりょーいきとじんこーがじょーきのとーりである。	NO_LABEL
有名なのは、705年ごろ聖アルドヘルムによって創設されたサクソン教会である。	ゆーめいなのわ、ななひゃくごねんごろきよしあるどへるむによってそーせつされたさくそんきょーかいである。	NO_LABEL
ここは一時的に殉職者エドワード殉教王の埋葬地にされた。	ここわいちじてきにじゅんしょくしゃえどわーどじゅんきょーおーのまいそーちにされた。	NO_LABEL
教会は1856年主教座聖堂参事会員ウィリアム・フランプトンによって再発見されたが、その前は非宗教的な用途に使われていた。	NO_PRONOUNCE	NO_LABEL
考古学に興味があった主教座聖堂参事会員フランプトンの研究では、マームズベリのウィリアムについての記述でその教会のことが言及されている。	こーこがくにきょーみがあったしゅきょーざせいどーさんじかいいんふらんぷとんのけんきゅーでわ、まーむずべりのうぃりあむについてのきじゅつでそのきょーかいのことがげんきゅーされている。	NO_LABEL
高い位置に隠れた拱廊を含むいくつかの建物はより後の時代に属し、一方で2012年2月に教会で使用可能なリーフレットは、すべての建物は950年〜1050年のもののほうを選んでいる、と主張している。	NO_PRONOUNCE	NO_LABEL
外側の手の込んだ装飾は扶壁柱、つまり二つの装飾のない蛇腹層でできた幅広いフリーズからできており、その間にはアーケード状の装飾があり、その上部は円形で、短く垂直な壁は台形の柱頭と柱礎をもつアーチ状になっている。	そとがわのてのこんだそーしょくわたすくかべばしら、つまりふたつのそーしょくのないじゃばらそーでできたはばひろいふりーずからできており、そのかんにわあーけーどじょーのそーしょくがあり、そのじょーぶわえんけいで、みじかくすいちょくなかべわだいけいのちゅーとーとはしらいしずえをもつあーちじょーになっている。	NO_LABEL
一方で東側の切妻壁と隣接した角には垂直な三つの半円筒型の一連の蛇腹の装飾がある。	いっぽーでひがしがわのきりずまかべとりんせつしたかくにわすいちょくなみっつのはんえんとーがたのいちれんのじゃばらのそーしょくがある。	NO_LABEL
教会の中には内陣と身廊の間の小さなアーチの上の壁の高い位置に飛んでいる天使の彫刻が二つある。	きょーかいのなかにわないじんとしんろーのまのちーさなあーちのうえのかべのたかいいちにとんでいるてんしのちょーこくがふたつある。	NO_LABEL
右側の彫刻は伝えるところによれば「透明な着衣を着ているように意図されている。	NO_PRONOUNCE	NO_LABEL
…脚の膝から下は透明なローブを通して見えているように描かれている。	NO_PRONOUNCE	NO_LABEL
」これは「奇想」だとして言及されている。	NO_PRONOUNCE	NO_LABEL
サクソン教会に加えて、町にはイングランド国教会の教会が四つ、イングランド国教会の礼拝堂が一つ、バプテスト教会が二つ、合同教会が一つ、自由非国教会が一つ、コミュニティ教会<が一つ、クエーカーの集会所が一つ、カトリック教会が一つある。	NO_PRONOUNCE	NO_LABEL
もともとの教区教会は川のそばの町の中心部の近くに位置し、聖三位一体に奉献されていた。	もともとのきょーくきょーかいわかわのそばのまちのちゅーしんぶのちかくにいちし、きよしさんみいったいにほーけんされていた。	NO_LABEL
それはノルマン人に起源をもち、内陣は古い教会の遺跡の上に建てられた可能性がある。	それわのるまんじんにきげんをもち、ないじんわふるいきょーかいのいせきのうえにたてられたかのーせいがある。	NO_LABEL
いくつかの礼拝堂が北側に建てられ、間にあった壁はのちに取り払われ、その礼拝堂が北通路を形成している。	いくつかのれいはいどーがきたがわにたてられ、まにあったかべわのちにとりはらわれ、そのれいはいどーがきたつーろをけいせいしている。	NO_LABEL
祭壇の近くにあるスキント、つまり祭壇遙拝窓はイングランドで最も長いと主張されている。	NO_PRONOUNCE	NO_LABEL
塔と尖塔は1480年ごろ、古いものと入れ替わるように建てられ、南側の壁は大部分が19世紀に再建された。	とーとせんとーわせんよんひゃくはちじゅうねんごろ、ふるいものといれかわるよーにたてられ、みなみがわのかべわだいぶぶんがじゅうきゅうせいきにさいけんされた。	NO_LABEL
教会には8個で一組の鐘があり、そのうちテノールのベルは1.5トンの重さがあり、Ｄフラットにチューニングされている。	NO_PRONOUNCE	NO_LABEL
もう一つのイングランド国教会はクライスト・チャーチとして奉献されており、大部分がヴィクトリア時代につくられたものである。	NO_PRONOUNCE	NO_LABEL
聖トマス・モアに捧げられたカトリック教会が、かつてはタウンホールであった建物の中にある。	ひじりとますもあにささげられたかとりっくきょーかいが、かつてわたうんほーるであったたてもののなかにある。	NO_LABEL
町にはオーカナ・トラストの庇護の下、仏教寺院もある。	NO_PRONOUNCE	NO_LABEL
その中には男女それぞれのための僧院の役割を果たす建物や禅堂があった。	そのなかにわだんじょそれぞれのためのそーいんのやくわりをはたすたてものやぜんどーがあった。	NO_LABEL
町には作業場や庭園、図書館もあり、丘の上からは優美な建物が町を見下ろしている。	まちにわさぎょーばやていえん、としょかんもあり、おかのうえからわゆーびなたてものがまちをみおろしている。	NO_LABEL
仏教寺院は小乗仏教伝統の仏教思想を実践し、一日中住み込みでも、あるいは特定の時間だけでも祈り、学ぶ機会を提供している。	ぶっきょーじいんわしょーじょーぶっきょーでんとーのぶっきょーしそーをじっせんし、いちにちじゅーすみこみでも、あるいわとくていのじかんだけでもいのり、がくぶきかいをていきょーしている。	NO_LABEL
ブラッドフォード・オン・エイヴォンにはエイヴォン・ラバーの本拠地であり、自動車や他の産業向けにゴムを大規模に生産している。	NO_PRONOUNCE	NO_LABEL
今日では、アレックス・モールトンバイシクルズの本拠地でもある。	きょーでわ、あれっくすもーるとんばいしくるずのほんきょちでもある。	NO_LABEL
ほかにもいくつかの小規模な製造業の企業が立地している。	ほかにもいくつかのしょーきぼなせいぞーぎょーのきぎょーがりっちしている。	NO_LABEL
町の主要なビジネスは小売り業や観光業、大部分が家族や通勤者、退職者で構成される町の人口を支える、日々の商業である。	まちのしゅよーなびじねすわこうりぎょーやかんこーぎょー、だいぶぶんがかぞくやつーきんしゃ、たいしょくしゃでこーせいされるまちのじんこーをささえる、ひびのしょーぎょーである。	NO_LABEL
町には中型スーパーのセインズベリーがエルムズクロス産業団地にあり、運河の水門から徒歩二分の位置にある。	まちにわちゅーがたすーぱーのせいんずべりーがえるむずくろすさんぎょーだんちにあり、うんがのすいもんからとほにぶんのいちにある。	NO_LABEL
またコンビニエンスストアが5つある。	またこんびにえんすすとあがいつつある。	NO_LABEL
地元の消費者たちは1861年にブラッドフォード・オン・エイヴォン共同組合を設立し、1960年代にはそれが全国ビジネスと結びつくためのそのあたりの地域の他の消費者協同組合と結びついた。	NO_PRONOUNCE	NO_LABEL
それ以来消費者協同組合はなくなったが、ブリストルの労働者の協同組合であるビショップストン貿易会社はシルヴァー通りにフェアトレードの衣服店を開いており、インドのタミル・ナードゥ州にあるK・V・クッパムの村を支援している。	NO_PRONOUNCE	NO_LABEL
町の中心には独立した店からなる、ウィーバーズウォークという小さな野外型ショッピングセンターがあり、「倫理的な交易センター」と自称している。	NO_PRONOUNCE	NO_LABEL
ブラッドフォード・オン・エイヴォンはトローブリッジからバースへ向かうA363の途中にあり、その道が町を南北に貫いている。	NO_PRONOUNCE	NO_LABEL
Ｂ3109がそれを横切っていて、ブラッドフォード・オン・エイヴォンとメルクシャム、フルームをつないでいる。	NO_PRONOUNCE	NO_LABEL
ほかの道はすべて小さく、地元の居住地への交通路を確保している。	ほかのみちわすべてちーさく、じもとのきょじゅーちえのこーつーろをかくほしている。	NO_LABEL
ブラッドフォード・オン・エイヴォン鉄道駅は、現在のブリストル-ウェイマス鉄道線の途中にある。	NO_PRONOUNCE	NO_LABEL
駅は19世紀中盤にもともとのグレートウェスタン鉄道によって建設された。	えきわじゅうきゅうせいきちゅーばんにもともとのぐれーとうぇすたんてつどーによってけんせつされた。	NO_LABEL
路線の北側はエイヴォンクリフ駅、フレッシュフォード駅を通過し、バースの東側のグレート・ウェスタン鉄道の本線に乗り入れる。	NO_PRONOUNCE	NO_LABEL
鉄道はブリストル・テンプル・ミーズ駅やカーディフに向かって走っている。	NO_PRONOUNCE	NO_LABEL
南側の路線は、トローブリッジのすぐ近くのチップナムから走る小さなメルクシャム支線に乗り入れられている。	みなみがわのろせんわ、とろーぶりっじのすぐちかくのちっぷなむからはしるちーさなめるくしゃむしせんにのりいれられている。	NO_LABEL
路線はウェストベリーでロンドン-プリマス線と交わる。	NO_PRONOUNCE	NO_LABEL
列車はウェストベリーからはサウサンプトンやポーツマス、ウェイマス、さらに時にフルームやキャッスルケリーに向かう。	れっしゃわうぇすとべりーからわさうさんぷとんやぽーつます、うぇいます、さらにときにふるーむやきゃっするけりーにむかう。	NO_LABEL
町中を線路と平行して走っているのが、ケネット-エイヴォン運河とブラッドフォード閘門である。	NO_PRONOUNCE	NO_LABEL
鉄道が発達するにつれ、この運河の使用頻度は少なくなったが、のちに修復され1960、70、80年代に完全に機能するよう修復された。	NO_PRONOUNCE	NO_LABEL
運河は、西はバースにあるエイヴォン川から東はレディングにあるテムズ川までをつなげている。	NO_PRONOUNCE	NO_LABEL
最も重要な自治機能はウィルトシャー議会によって行われている。	もっともじゅーよーなじちきのーわうぃるとしゃーぎかいによっておこなわれている。	NO_LABEL
ブラッドフォード・オン・エイヴォンは、保守党議員2人、自由民主党議員10人の計12人からなる、選挙制の議会をもつ地方行政区である。	NO_PRONOUNCE	NO_LABEL
この議会は諮問的、儀式的な役割をにない、この議会の議長がブラッドフォードの市長の座につく。	このぎかいわしもんてき、ぎしきてきなやくわりをにない、このぎかいのぎちょーがぶらっどふぉーどのしちょーのざにつく。	NO_LABEL
2010年からブラッドフォード・オン・エイヴォンはチップナムの選挙区の一部分となった。	NO_PRONOUNCE	NO_LABEL
町にはアートスクールであるセントローレンススクールという中等学校が一つある。	まちにわあーとすくーるであるせんとろーれんすすくーるとゆうちゅーとーがっこーがひとつある。	NO_LABEL
ブラッドフォード・オン・エイヴォンにはリーグに無所属のブラッドフォードタウンFCというサッカーチームがあり、トローブリッジロードのブラッドフォード・オン・エイヴォン・スポーツ・ソーシャルクラブでプレーしている。	NO_PRONOUNCE	NO_LABEL
またタイズバーンのちかくのパウンドレーンに拠点を置くブラッドフォード・オン・エイヴォン・ローイングクラブもある。	NO_PRONOUNCE	NO_LABEL
クラブはローイングやカヌーイングなどの娯楽を提供している。	くらぶわろーいんぐやかぬーいんぐなどのごらくをていきょーしている。	NO_LABEL
またポップグループのジーザス・ジョーンズとブラックバッドはこの町で結成された。	またぽっぷぐるーぷのじーざすじょーんずとぶらっくばっどわこのまちでけっせいされた。	NO_LABEL
