亀山市立井田川小学校は、三重県亀山市みどり町にある公立小学校。	かめやましりついだがわしょうがっこーわ、みえけんかめやましみどりちょーにあるこーりつしょーがっこー。	NO_LABEL
亀山市内のみどり町、みずほ台と呼ばれる団地の中に立地し、団地に居住する児童を多数抱えるが、学校自体は団地より先に設立されている。	かめやましないのみどりちょー、みずほだいとよばれるだんちのなかにりっちし、だんちにきょじゅーするじどーをたすーかかえるが、がっこーじたいわだんちよりさきにせつりつされている。	NO_LABEL
敷地面積は30,684m。	NO_PRONOUNCE	NO_LABEL
