高野 岩三郎- 1949年4月5日）は、日本の社会統計学者、社会運動家。	NO_PRONOUNCE	NO_LABEL
長崎県西彼杵郡長崎区銀屋町出身。	ながさきけんにしそのきぐんながさきくぎんやまちしゅっしん。	NO_LABEL
兄は高野房太郎。	あにわたかのふさたろー。	NO_LABEL
慶應義塾幼稚舎、共立学校、第一高等学校、東京帝国大学法科大学卒業。	けいおーぎじゅくよーちしゃ、きょーりつがっこー、だいちこーとーがっこー、とーきょーていこくだいがくほーかだいがくそつぎょー。	NO_LABEL
大学は兄のアメリカからの仕送りで何とか卒業できたという。	だいがくわあにのあめりかからのしおくりでなんとかそつぎょーできたという。	NO_LABEL
1904年に法学博士の学位を授与される。	せんきゅうひゃくよねんにほーがくはかせのがくいをじゅよされる。	NO_LABEL
ミュンヘン大学留学で統計学を学び、1903年に東京帝国大学法科大学助教授。	みゅんへんだいがくりゅーがくでとーけいがくをまなび、せんきゅうひゃくさんねんにとーきょーていこくだいがくほーかだいがくじょきょーじゅ。	NO_LABEL
政治学者で後に東大総長となる小野塚喜平次らと社会政策学会を設立、学会内の最左派として活動した。	せいじがくしゃでのちにとーだいそうちょーとなるおのずかきへいじらとしゃかいせいさくがっかいをせつりつ、がっかいないのさいさはとしてかつどーした。	NO_LABEL
また日本文化人連盟を結成。	またにっぽんぶんかじんれんめいをけっせい。	NO_LABEL
東京帝大では法学部からの経済学部独立に尽力した。	とーきょーていだいでわほーがくぶからのけいざいがくぶどくりつにじんりょくした。	NO_LABEL
弟子には森戸辰男、大内兵衛、舞出長五郎など、のちに著名となる多くのマルクス経済学者がいる。	でしにわもりとたつお、おーうちひょーえ、まいでちょうごろーなど、のちにちょめいとなるおーくのまるくすけいざいがくしゃがいる。	NO_LABEL
1919年、東京帝国大学経済学部成立の年に政府の要請により国際労働機関代表に任命されたが、大日本労働総同盟友愛会などは労働界から選出すべきであると非難、同じ意見を持っていた高野は本来無関係のはずであったが筋を通して日本代表とともに東大も辞職した。	せんきゅうひゃくじゅうきゅうねん、とーきょーていこくだいがくけいざいがくぶせいりつのとしにせいふのよーせいによりこくさいろーどーきかんだいひょーににんめいされたが、だいにほんろーどーそーどーめいゆーあいかいなどわろーどーかいからせんしゅつすべきであるとひなん、おなじいけんをもっていたたかのわほんらいむかんけいのはずであったがすじをとーしてにほんだいひょーとともにとーだいもじしょくした。	NO_LABEL
翌1920年、請われて大原社会問題研究所の設立に参加。	よくせんきゅうひゃくにじゅうねん、こわれておーはらしゃかいもんだいけんきゅのせつりつにさんか。	NO_LABEL
設立時から没年まで所長を務める。	せつりつじからぼつねんまでしょちょーをつとめる。	NO_LABEL
大原社研では日本最初の労働者家計調査を実施、労働問題を研究。	おーはらしゃけんでわにっぽんさいしょのろーどーしゃかけいちょーさをじっし、ろーどーもんだいをけんきゅー。	NO_LABEL
28年12月日本大衆党が結成され委員長となるが、翌年同党は分裂。	にじゅうはちねんじゅーにがつにほんたいしゅーとーがけっせいされいーんちょーとなるが、よくねんどーとーわぶんれつ。	NO_LABEL
戦後、鈴木安蔵、森戸辰男、馬場恒吾らと憲法研究会を設立、「憲法草案要綱」発表。	NO_PRONOUNCE	NO_LABEL
高野は最長老として最も過激な意見を述べたと言われる。	たかのわさいちょうろーとしてもっともかげきないけんをのべたといわれる。	NO_LABEL
この憲法草案要綱は、のちに連合国軍最高司令官総司令部で憲法草案をつくる際に参考とされ、日本国憲法との類似点が指摘される。	このけんぽーそーあんようこーわ、のちにれんごーこくぐんさいこーしれいかんそーしれいぶでけんぽーそーあんをつくるさいにさんこーとされ、にほんこくけんぽーとのるいじてんがしてきされる。	NO_LABEL
高野はこれとは別に大統領制・土地国有化などを盛り込む日本共和国憲法私案要綱を発表。	NO_PRONOUNCE	NO_LABEL
自身の所属する憲法研究会を含め、天皇制存続を容認する潮流を「囚われたる民衆」と称して批判、天皇制廃止を主張した。	NO_PRONOUNCE	NO_LABEL
1946年日本放送協会第5代会長。	せんきゅうひゃくよんじゅうろくねにっぽんほーそーきょーかいだいごだいかいちょー。	NO_LABEL
1948年日本統計学会初代会長。	せんきゅうひゃくよんじゅうはちねにっぽんとーけいがっかいしょだいかいちょー。	NO_LABEL
日本社会党の顧問でもあった。	にっぽんしゃかいとーのこもんでもあった。	NO_LABEL
敗戦後、GHQによる厳しい検閲に協力した5100名にも及ぶ日本人グループのリーダー格だったのが高野であり、このことが、高野の戦後初代NHK会長就任につながっている。	NO_PRONOUNCE	NO_LABEL
NHKの会長に就任した高野は1946年4月30日に行われた就任挨拶で「権力に屈せず、大衆とともに歩み、大衆に一歩先んずる」とする放送のあり方を説き、民主的なNHKを目指したが、GHQの占領政策が反共に転換したこと、任期半ばにして高野自身が死去したことで挫折してしまった。	NO_PRONOUNCE	NO_LABEL
妻はミュンヘン留学中に知り合ったドイツ人女性バルバラ・カロリナ。	NO_PRONOUNCE	NO_LABEL
滞在中の1902年に娘のマリアが誕生し、1906年に日本で入籍。	たいざいちゅーのせんきゅうひゃくにねんにむすめのまりあがたんじょーし、せんきゅうひゃくろくねんににっぽんでにゅーせき。	NO_LABEL
マリアはマルクス経済学者の宇野弘蔵と、妹の正子は物理学者の野上茂吉郎と結婚した。	まりあわまるくすけいざいがくしゃのうのこうぞーと、いもーとのまさこわぶつりがくしゃののがみしげよしろーとけっこんした。	NO_LABEL
茂吉郎の両親は野上豊一郎・弥生子夫妻。	NO_PRONOUNCE	NO_LABEL
