アスパラギンtRNAリガーゼは、以下の化学反応を触媒する酵素である。	NO_PRONOUNCE	NO_LABEL
従って、この酵素は、ATPとL-アスパラギンとRNAの3つの基質、AMPと二リン酸とL-アスパラギニルtRNAAsnの3つの生成物を持つ。	NO_PRONOUNCE	NO_LABEL
この酵素はリガーゼに分類され、特にアミノアシルtRNAと関連化合物に炭素-酸素結合を形成する。	NO_PRONOUNCE	NO_LABEL
系統名はL-アスパラギン:tRNAAsnリガーゼ)である。	NO_PRONOUNCE	NO_LABEL
アスパラギニルtRNAシンターゼ、アスパラギントランスラーゼ等とも呼ばれる。	NO_PRONOUNCE	NO_LABEL
この酵素は、アラニンとアスパラギン酸の代謝及びアミノアシルtRNAの生合成に関与している。	NO_PRONOUNCE	NO_LABEL
2007年末時点で、3個の構造が解かれている。	NO_PRONOUNCE	NO_LABEL
蛋白質構造データバンクのコードは、である。	たんぱくしつこーぞーでーたばんくのこーどわ、である。	NO_LABEL
