頌栄女子学院中学校・高等学校は、東京都港区白金台にあるキリスト教系の私立の女子中学校・高等学校。	NO_PRONOUNCE	NO_LABEL
特別クラブ	とくべつくらぶ	NO_LABEL
文化系クラブ	ぶんかけいくらぶ	NO_LABEL
体育系クラブ	たいいくけいくらぶ	NO_LABEL
女優の菅井きんと高橋ひとみは同校の卒業生で先輩・後輩にあたり、共演もしている。	NO_PRONOUNCE	NO_LABEL
母校の話になった時、菅井が女学生時代に習った先生が、高橋が在学していた時も教鞭をとっていた事実が分かり、驚愕したという。	ぼこーのはなしになったとき、すがいがじょがくせいじだいにならったせんせいが、たかはしがざいがくしていたときもきょーべんをとっていたじじつがわかり、きょーがくしたという。	NO_LABEL
