チェロキー郡はアメリカ合衆国ノースカロライナ州に位置する郡である。	ちぇろきーぐんわあめりかがっしゅーこくのーすかろらいなしゅーにいちするぐんである。	NO_LABEL
2000年現在、人口は24,298人である。	NO_PRONOUNCE	NO_LABEL
この郡庁所在地はMurphyである。	NO_PRONOUNCE	NO_LABEL
アメリカ合衆国統計局によると、この郡は総面積1,209 kmである。	NO_PRONOUNCE	NO_LABEL
このうち1,179 kmが陸地で30 kmが水地域である。	NO_PRONOUNCE	NO_LABEL
総面積の2.46%が水地域となっている。	NO_PRONOUNCE	NO_LABEL
ここの郡は6つの郡区に分けられている：Beaverdam、Hothouse、Murphy、Notla、Shoal Creek、及び Valleytown。	NO_PRONOUNCE	NO_LABEL
2000年現在の国勢調査で、この郡は人口24,298人、10,336世帯、及び7,369家族が暮らしている。	NO_PRONOUNCE	NO_LABEL
人口密度は21/kmである。	NO_PRONOUNCE	NO_LABEL
11/kmの平均的な密度に13,499軒の住宅が建っている。	NO_PRONOUNCE	NO_LABEL
この郡の人種的な構成は白人94.82%、アフリカン・アメリカン1.59%、先住民1.63%、アジア0.28%、太平洋諸島系0.01%、その他の人種0.45%、及び混血1.21%である。	NO_PRONOUNCE	NO_LABEL
ここの人口の1.25%はヒスパニックまたはラテン系である。	NO_PRONOUNCE	NO_LABEL
この郡内の住民は20.60%が18歳未満の未成年、18歳以上24歳以下が6.50%、25歳以上44歳以下が24.40%、45歳以上64歳以下が28.80%、及び65歳以上が19.70%にわたっている。	NO_PRONOUNCE	NO_LABEL
中央値年齢は44歳である。	ちゅーおーちねんれいわよんじゅうよんさいである。	NO_LABEL
女性100人ごとに対して男性は94.20人である。	NO_PRONOUNCE	NO_LABEL
18歳以上の女性100人ごとに対して男性は90.70人である。	NO_PRONOUNCE	NO_LABEL
この郡内の世帯ごとの平均的な収入は27,992米ドルであり、家族ごとの平均的な収入は33,768米ドルである。	NO_PRONOUNCE	NO_LABEL
男性は26,127米ドルに対して女性は18,908米ドルの平均的な収入がある。	NO_PRONOUNCE	NO_LABEL
この郡の一人当たりの収入は15,814米ドルである。	NO_PRONOUNCE	NO_LABEL
人口の15.30%及び家族の11.70%は貧困線以下である。	NO_PRONOUNCE	NO_LABEL
全人口のうち18歳未満の19.20%及び65歳以上の18.00%は貧困線以下の生活を送っている。	NO_PRONOUNCE	NO_LABEL
