島根県道253号宍道湖公園線は松江市内を通る一般県道。	しまねけんどーにひゃくごじゅうさんごーしんじここーえんせんわまつえしないをとーるいっぱんけんどー。	NO_LABEL
本路線は1995年4月4日島根県告示第342号で廃止された島根県道262号天神町朝日町線を宍道湖岸まで延長した路線で、同日の島根県告示第341号で認定された路線である。	NO_PRONOUNCE	NO_LABEL
JR山陰本線松江駅と宍道湖畔を結ぶ路線でもあり、現在拡幅工事が進められている。	じぇいあーるさんいんほんせんまつええきとしんじこはんをむすぶろせんでもあり、げんざいかくふくこーじがすすめられている。	NO_LABEL
