松波鵜島バイパスは、石川県の鳳珠郡能登町から珠洲市にわたり、延長の約九割が直線道路で構成された全長約6kmにわたる国道249号のバイパスであった。	まつなみうじまばいぱすわ、いしかわけんのほうすぐんのとちょーからすずしにわたり、えんちょーのやくきゅーわりがちょくせんどーろでこーせいされたぜんちょーやくろくきろめーとるにわたるこくどーにひゃくよんじゅうきゅうごーのばいぱすであった。	NO_LABEL
開通時、起終点双方に大きなパチンコ店が存在した事から、地元民の間では「パチンコ道路」のニックネームで呼称され、道幅が狭い当時の国道249号本線より大幅な所要時間短縮が実現した事は特筆される。	NO_PRONOUNCE	NO_LABEL
なお、2001年に前述のとおり本線へ付け替えられ、それ以降は名称のみが残る。	なお、にせんいちねんにぜんじゅつのとーりほんせんえつけかえられ、それいこーわめいしょーのみがのこる。	NO_LABEL
