全日本ジュニアスピードスケート選手権大会は、日本スケート連盟が主催する、ジュニア世代を対象としたスピードスケートの全国大会である。	ぜんにほんじゅにあすぴーどすけーとせんしゅけんたいかいわ、にほんすけーとれんめいがしゅさいする、じゅにあせだいをたいしょーとしたすぴーどすけーとのぜんこくたいかいである。	NO_LABEL
1978年に第1回開催。	せんきゅうひゃくななじゅうはちねんにだいいっかいかいさい。	NO_LABEL
毎年1月または2月に開かれている。	まいとしいちがつまたわにがつにひらかれている。	NO_LABEL
対象となる年齢は14歳以上19歳以下。	たいしょーとなるねんれいわじゅうよんさいいじょーじゅうきゅうさいいか。	NO_LABEL
総合競技部門とスプリント競技部門に分かれ、男女それぞれ各部門の総合選手権者にJOCジュニアオリンピックカップが贈呈される。	そーごーきょーぎぶもんとすぷりんときょーぎぶもんにわかれ、だんじょそれぞれかくぶもんのそーごーせんしゅけんしゃにじぇいおーしーじゅにあおりんぴっくかっぷがぞーていされる。	NO_LABEL
世界ジュニアスピードスケート選手権大会の日本代表選考会も兼ねて実施される。	せかいじゅにあすぴーどすけーとせんしゅけんたいかいのにほんだいひょーせんこーかいもかねてじっしされる。	NO_LABEL
