さわやかな男は、関西テレビが制作し、フジテレビ系列にて1977年4月3日から1978年3月26日まで毎週日曜21:00～21:54に放送されたテレビドラマ。	NO_PRONOUNCE	NO_LABEL
全49回。	ぜんよんじゅうきゅうかい。	NO_LABEL
3年間続いた花登筺原作及び脚本、西郷輝彦主演の『どてらい男』の後継作品として放送が開始された。	NO_PRONOUNCE	NO_LABEL
「どてらい男」に引き続き、花登が原作・脚本を手がけた。	NO_PRONOUNCE	NO_LABEL
主演は柴俊夫が務めた。	しゅえんわしばとしおがつとめた。	NO_LABEL
途中、7月10日から10月2日までは「太陽編」、10月9日から最終回までは「商人編」と呼ばれる。	NO_PRONOUNCE	NO_LABEL
ドラマの内容は、行商人の息子である一人の男が、大商人を目指していく姿を描いたサクセスストーリー的作品。	どらまのないよーわ、ぎょーしょーにんのむすこであるひとりのおとこが、だいしょーにんをめざしていくすがたをえがいたさくせすすとーりーてきさくひん。	NO_LABEL
なお、柴俊夫と真野響子はこのドラマでの共演が縁で、後に結婚した。	なお、しばとしおとまやきょーこわこのどらまでのきょーえんがえんで、ごにけっこんした。	NO_LABEL
ドラマの撮影は大阪府大阪市北区西天満の関西テレビ旧社屋スタジオで行われた。	どらまのさつえいわおーさかふおーさかしきたくにしてんまのかんさいてれびきゅーしゃおくすたじおでおこなわれた。	NO_LABEL
