コンスタンチン・ラヴロネンコはロシア出身の俳優。	NO_PRONOUNCE	NO_LABEL
ロストフ・ナ・ドヌの大学で学んだ後、1979年から2年間ソビエト軍に従軍。	ろすとふなどぬのだいがくでまなんだのち、せんきゅうひゃくななじゅうきゅうねんからにねんかんそびえとぐんにじゅーぐん。	NO_LABEL
その後、モスクワで演技を学んだ。	そのご、もすくわでえんぎをまなんだ。	NO_LABEL
2007年、映画『Izgnanie』でカンヌ国際映画祭 男優賞を受賞。	NO_PRONOUNCE	NO_LABEL
