セフ・フェルホーセンは、オランダ・リンブルフ州エヒト出身のサッカー指導者。	NO_PRONOUNCE	NO_LABEL
2001年、KRCヘンクで監督を務め、リーグ優勝を成し遂げる。	にせんいちねん、かーあるるしーへんくでかんとくをつとめ、りーぐゆうしょーをなしとげる。	NO_LABEL
2006年に名古屋グランパスエイト監督に就任。	にせんろくねんになごやぐらんぱすえいとかんとくにしゅーにん。	NO_LABEL
鈴木隆行がKRCヘンクに所属していた頃の監督でもある。	すずきたかゆきがかーあるるしーへんくにしょぞくしていたころのかんとくでもある。	NO_LABEL
また、かつては祖母井秀隆に招聘され、ジェフユナイテッド市原で臨時コーチを務めた事もある。	また、かつてわうばがいひでたかにしょーへいされ、じぇふゆないてっどいちはらでりんじこーちをつとめたこともある。	NO_LABEL
2006年夏には名古屋グランパスをオランダへ強化キャンプに連れて行き、オランダやベルギーの強豪チームと練習試合をさせた。	にせんろくねんなつにわなごやぐらんぱすをおらんだえきょーかきゃんぷにつれていき、おらんだやべるぎーのきょーごーちーむとれんしゅーじあいをさせた。	NO_LABEL
それを紹介したTV番組の中で「Talking」の重要性を説いていた。	NO_PRONOUNCE	NO_LABEL
2007年10月、名古屋を退団し、同時にサッカー界からも引退する事を表明した。	にせんななねんじゅーがつ、なごやをたいだんし、どーじにさっかーかいからもいんたいすることをひょーめいした。	NO_LABEL
しかし、翌月にロナルド・クーマンをバレンシアCFに引き抜かれた、PSVアイントホーフェンから監督就任のオファーが届いた。	しかし、よくげつにろなるどくーまんをばれんしあくるぶでふとぼるにひきぬかれた、ぺーえすふぇーあいんとほーふぇんからかんとくしゅーにんのおふぁーがとどいた。	NO_LABEL
PSVは早期の合流を望み、名古屋に対しての違約金の支払いやクラブ間での業務提携などの条件を提示したが、名古屋側は「天皇杯が控えている」等の理由で固辞。	NO_PRONOUNCE	NO_LABEL
フェルホーセン・PSVもそれに了承し、最終的には名古屋との契約満期である天皇杯終了後にPSVの監督として就任する事になった。	NO_PRONOUNCE	NO_LABEL
2008年シーズンのPSVはフェルホーセンが4人目の監督だったが、チームを優勝に導いた。	にせんはちねんしーずんのぺーえすふぇーわふぇるほーせんがよにんめのかんとくだったが、ちーむをゆーしょーにみちびいた。	NO_LABEL
その後、2008年シーズン終了後に改めて監督業から引退した。	そのご、にせんはちねんしーずんしゅうりょーごにあらためてかんとくぎょーからいんたいした。	NO_LABEL
監督業の引退後、以前監督を務めたKRCヘンクでアドバイザーの任に就任。	かんとくぎょーのいんたいご、いぜんかんとくをつとめたかーあるるしーへんくであどばいざーのにんにしゅーにん。	NO_LABEL
その後2011年1月よりVVVフェンローのアドバイザーも兼ねる。	そのごにせんじゅういちねんいちがつよりふぇーふぇーふぇーふぇんろーのあどばいざーもかねる。	NO_LABEL
