野口 元三は京都府出身の元プロ野球選手。	のぐちもとぞーわきょーとふしゅっしんのもとぷろやきゅーせんしゅ。	NO_LABEL
平安高校では、同期のエース藤野隆司らとバッテリーを組み、甲子園に3回出場。	へいあんこうこーでわ、どーきのえーすふじのたかしらとばってりーをくみ、こーしえんにさんかいしゅつじょー。	NO_LABEL
2年生の時には夏の甲子園に出場。	にねんせいのときにわなつのこーしえんにしゅつじょー。	NO_LABEL
準々決勝で高知商の森光正吉に完封を喫する。	じゅんじゅんけっしょーでこーちしょーのもりみつしょーきちにかんぷーをきっする。	NO_LABEL
には春夏連続で甲子園に出場。	にわはなれんぞくでこーしえんにしゅつじょー。	NO_LABEL
春の選抜は2回戦で石黒和弘のいた中京商に敗退。	はるのせんばつわにかいせんでいしぐろかずひろのいたちゅーきょーしょーにはいたい。	NO_LABEL
中京商はこの大会で優勝。	ちゅーきょーしょーわこのたいかいでゆーしょー。	NO_LABEL
この大会では第1号となる本塁打を放った。	このたいかいでわだいいちごーとなるほんるいだをはなった。	NO_LABEL
夏の選手権は準々決勝に進むが、この大会に優勝した西条高の金子哲夫に抑えられ1-2で惜敗。	NO_PRONOUNCE	NO_LABEL
翌に読売ジャイアンツに入団。	よくによみうりじゃいあんつににゅーだん。	NO_LABEL
しかし正捕手の森昌彦との競争では全く歯が立たず、捕手としての出場はの1試合に留まった。	しかしせいほしゅのもりまさひことのきょーそーでわまったくはがたたず、ほしゅとしてのしゅつじょーわのいちしあいにとまった。	NO_LABEL
に大毎オリオンズに移籍し、この年限りで引退した。	にだいまいおりおんずにいせきし、このとしかぎりでいんたいした。	NO_LABEL
巨人で、4番目に背番号55を付けた選手でもあった。	きょじんで、よんばんめにせばんごーごじゅうごをつけたせんしゅでもあった。	NO_LABEL
