佐橋 佳幸は、ギタリスト、音楽プロデューサー。	さはしよしゆきわ、ぎたりすと、おんがくぷろでゅーさー。	NO_LABEL
東京都出身。	とーきょーとしゅっしん。	NO_LABEL
ファー・イースト・クラブ所属。	ふぁーいーすとくらぶしょぞく。	NO_LABEL
既婚者で妻は女優の松たか子。	きこんしゃでつまわじょゆーのまつたかこ。	NO_LABEL
一児の父親。	いちじのちちおや。	NO_LABEL
東京都立松原高等学校卒業。	とーきょーとりつまつばらこーとーがっこーそつぎょー。	NO_LABEL
高校の先輩に清水信之とEPO、後輩に渡辺美里がいる。	こーこーのせんぱいにしみずのぶゆきといーぴーおー、こーはいにわたなべみさとがいる。	NO_LABEL
1983年、当時先鋭的な存在であったバンド「UGUISS｣のメンバーとして、エピック・ソニーからデビューするが、1枚のアルバムをリリースしただけで解散。	NO_PRONOUNCE	NO_LABEL
バンド解散後は、セッション・ギタリストとして、レコーディングやコンサートツアーにも参加。	NO_PRONOUNCE	NO_LABEL
1985年、デビュー期であった渡辺美里の制作ブレーン、清水信之の依頼を受け、渡辺の楽曲制作の手伝いを始める。	せんきゅうひゃくはちじゅうごねん、でびゅーきであったわたなべみさとのせいさくぶれーん、しみずのぶゆきのいらいをうけ、わたなべのがっきょくせいさくのてつだいをはじめる。	NO_LABEL
その後、渡辺のバックバンドのバンマスを10年に渡り務め、長いつきあいとなる。	そのご、わたなべのばっくばんどのばんますをじゅうねんにわたりつとめ、ながいつきあいとなる。	NO_LABEL
1991年に参加した、小田和正の｢ラブ・ストーリーは突然に｣、1993年に参加した、藤井フミヤの「TRUE LOVE」は、共に200万枚を突破し、高く評価される。	NO_PRONOUNCE	NO_LABEL
両作のイントロ部分のギターフレーズも、佐橋の演奏である。	りょーさくのいんとろぶぶんのぎたーふれーずも、さはしのえんそーである。	NO_LABEL
この他にも、桑田佳祐や坂本龍一、佐藤竹善、佐野元春、福山雅治、氷室京介、槇原敬之、山下達郎など、日本の音楽シーンを牽引しているアーティストからの信望が厚く、様々な局面で数多く起用されている。	このほかにも、くわたけいすけやさかもとりゅーいち、さとーちくぜん、さのもとはる、ふくやままさはる、ひむろきょーすけ、まきはらのりゆき、やましたたつろーなど、にっぽんのおんがくしーんをけんいんしているあーてぃすとからのしんぼーがあつく、さまざまなきょくめんでかずおーくきよーされている。	NO_LABEL
また、親友の小倉博和とのギターユニット「山弦」、1998年に山下達郎のライブツアー「Performance '98-'99」のバックバンドとして集まった9人のミュージシャンで結成されたバンド。	NO_PRONOUNCE	NO_LABEL
「ネルソンスーパープロジェクト」でも活躍中。	NO_PRONOUNCE	NO_LABEL
2003年には、エピックレコードジャパン25周年記念イベント「LIVE EPIC 25」に参加。	NO_PRONOUNCE	NO_LABEL
バンドマスターを務め、成功を収めた。	ばんどますたーをつとめ、せいこーをおさめた。	NO_LABEL
キーボーディストのDr.kyOnと「ダージリン」というユニットを組み、読売テレビで、月に1度「共鳴野郎」という番組をもっている。	NO_PRONOUNCE	NO_LABEL
そこでは、様々な一流ミュージシャンとの音楽談義やセッションをしている。	そこでわ、さまざまないちりゅーみゅーじしゃんとのおんがくだんぎやせっしょんをしている。	NO_LABEL
また、2006年4月29日には、ダージリンの呼びかけに集まったアーティスト達と「OSAKA ROCK CITY-共鳴野郎」と題し、会場の大阪城ホールを満員にした。	NO_PRONOUNCE	NO_LABEL
渡辺美里のデビュー25周年となる2010年には、Dr.Kyon、渡辺美里と3人で「三ツ星団」を結成し、三ツ星団としてツアーを催行。	NO_PRONOUNCE	NO_LABEL
2007年12月28日、女優の松たか子との入籍を発表。	にせんななねんじゅーにがつにじゅうはちにち、じょゆーのまつたかことのにゅーせきをはっぴょー。	NO_LABEL
そのため松本幸四郎は義父、藤間紀子は義母、中村吉右衛門は義叔父、松本紀保は義姉、市川染五郎は義兄となる。	そのためまつもとこうしろーわぎふ、ふじまのりこわぎぼ、なかむらきちえもんわぎおじ、まつもときおわぎし、いちかわそめごろーわぎけいとなる。	NO_LABEL
