国際連合法務部は、国際連合における国際法分野の中心的な機関。	こくさいれんごーほーむぶわ、こくさいれんごーにおけるこくさいほーぶんやのちゅーしんてきなきかん。	NO_LABEL
国際連合事務局の一つ。	こくさいれんごーじむきょくのひとつ。	NO_LABEL
略称はOLA。	NO_PRONOUNCE	NO_LABEL
1946年に設立された。	せんきゅうひゃくよんじゅうろくねにせつりつされた。	NO_LABEL
2013年以降は、国際連合事務総長法律顧問のが部長を務めている。	にせんじゅうさんねんいこーわ、こくさいれんごーじむそうちょーほーりつこもんのがぶちょーをつとめている。	NO_LABEL
国際連合憲章第102条においては、国際連合加盟国が締結する全ての条約及び国際協定は、国際連合の事務局に登録し、公表することを求めている。	NO_PRONOUNCE	NO_LABEL
国際連合法務部は、これらの条約・協定の登録・公表を行っており、多国間条約については、受託者としての任も負っている。	NO_PRONOUNCE	NO_LABEL
このほか、国連各機関に対し、国際法的な助言も行っている。	このほか、こくれんかくきかんにたいし、こくさいほーてきなじょげんもおこなっている。	NO_LABEL
OLAは、以下の6つの部局によって構成されている。	NO_PRONOUNCE	NO_LABEL
