豊受山は、愛媛県四国中央市にある山。	とようけやまわ、えひめけんしこくちゅーおーしにあるやま。	NO_LABEL
標高1,247.4m。	NO_PRONOUNCE	NO_LABEL
石鎚山脈の北東部に出た支脈である法皇山脈に属する。	いしずちさんみゃくのきたとうべにでたしみゃくであるほーおーさんみゃくにぞくする。	NO_LABEL
山容は隣の赤星山がゆったりおだやかであるのに比べ、天を突く尖頂が凛とした姿である。	さんよーわとなりのあかぼしやまがゆったりおだやかであるのにくらべ、てんをつくせんちょーがりんとしたすがたである。	NO_LABEL
北側から林道が中腹まで通じていて、約1時間半ほどの登山で山頂に至る。	きたがわからりんどーがちゅーふくまでつーじていて、やくいちじかんはんほどのとざんでさんちょーにいたる。	NO_LABEL
山頂直下には豊受姫命を祀った豊受神社があり、簡素ながら二つの社殿が並び建ち20年ごとの式年遷宮が行われている。	さんちょーちょっかにわとようけひめのみことをまつったとようけじんじゃがあり、かんそながらふたつのしゃでんがならびたちにじゅうねんごとのしきねんせんぐーがおこなわれている。	NO_LABEL
その境内の端には風穴があり、麓一帯を襲う強風が吹くやまじ風がここから発生するとの迷信から風を鎮める神事が行われる。	そのけいだいのはじにわかざあながあり、ふもといったいをおそうきょーふーがふくやまじふーがここからはっせいするとのめいしんからかぜをしずめるしんじがおこなわれる。	NO_LABEL
境内から少し登ったところが頂上であるが、雑木林の中という感じで、三角点は頂上から少し北へ下ったところにある。	けいだいからすこしのぼったところがちょーじょーであるが、ぞーきばやしのなかとゆうかんじで、さんかくてんわちょーじょーからすこしきたえくだったところにある。	NO_LABEL
