ジョー・"フォックス"・スミスは、アメリカ合衆国のジャズ・トランペット奏者。	NO_PRONOUNCE	NO_LABEL
スミスは、1902年6月28日にオハイオ州リプリーに生まれた。	すみすわ、せんきゅうひゃくにねんろくがつにじゅうはちにちにおはいおしゅーりぷりーにうまれた。	NO_LABEL
音楽一家の出であり、父ルーク・スミス・シニアはバンドリーダーであり、ジョーの兄弟のうち、ジョーのほかにも6人が、トランペット奏者となった。	NO_PRONOUNCE	NO_LABEL
すなわち、ルーク、スタンリー、ドゥーニー、チャールズ、カーパシア、ラッセルの6人である。	すなわち、るーく、すたんりー、どぅーにー、ちゃーるず、かーぱしあ、らっせるのろくにんである。	NO_LABEL
このうち3人はプロの音楽家となり、特にラッセルは、フレッチャー・ヘンダーソンの楽団で第1トランペットを務めた。	NO_PRONOUNCE	NO_LABEL
子どものころは、ずっと「トゥーツ」と呼ばれていたスミスは、最初にドラマーを目指したが、の勧めで、トランペット奏者に転進した。	NO_PRONOUNCE	NO_LABEL
1920年にニューヨークに到着したころには、既に自分のスタイルを確立しており、「ヴォカリーズのように歌うサウンド、ブルースのスピリット、スウィングを備えており、説得力のあるジャズの演奏を創り出していた」という。	NO_PRONOUNCE	NO_LABEL
1921年、スミスはシカゴのブラック・スワン・ジャズ・マスターズに加わり、当時その指揮者であったフレッチャー・ヘンダーソンに「私のこれまでの楽団にいたトランペットの誰よりソウルフルなトランペットだ」と言わせた。	NO_PRONOUNCE	NO_LABEL
スミスは、1920年代を通して活動し、ジャズ・ハウンズやブロードウェイ・シンコペイターズを経て、最後はに参加した。	NO_PRONOUNCE	NO_LABEL
スミスは、ベッシー・スミスの伴奏で、30枚以上のレコード制作に参加して有名になった。	NO_PRONOUNCE	NO_LABEL
その他には、ビリー・ペイジ、、ユービー・ブレイク、アリー・ロスなどとも共演した。	NO_PRONOUNCE	NO_LABEL
スミスは、 1937年12月2日に、結核の合併症のために、ニューヨーク州の療養所で死去した。	すみすわ、せんきゅうひゃくさんじゅうななねじゅーにがつふつかに、けっかくのがっぺいしょーのために、にゅーよーくしゅーのりょーよーじょでしきょした。	NO_LABEL
Allmusic.com Biography of Joe "Fox" Smith	NO_PRONOUNCE	NO_LABEL
Obituary of Joe Smith, Ohio Memory Collection	NO_PRONOUNCE	NO_LABEL
