渡辺和則は、日本の経済学者。	わたなべかずのりわ、にほんのけいざいがくしゃ。	NO_LABEL
二松學舍大学国際政治経済学部教授。	にしょうがくしゃだいがくこくさいせいじけいざいがくぶきょーじゅ。	NO_LABEL
第14代二松學舍大学学長・二松学舎常任理事を務める。	NO_PRONOUNCE	NO_LABEL
岐阜県に生まれる。	ぎふけんにうまれる。	NO_LABEL
東京国際大学商学部卒業後、早稲田大学大学院経済学研究科にて修士号。	とーきょーこくさいだいがくしょーがくぶそつぎょーご、わせだだいがくだいがくいんけいざいがくけんきゅーかにてしゅーしごー。	NO_LABEL
千葉大学大学院社会文化科学研究科にて博士号取得。	ちばだいがくだいがくいんしゃかいぶんかかがくけんきゅーかにてはくしごーしゅとく。	NO_LABEL
専門はマクロ経済学	せんもんわまくろけいざいがく	NO_LABEL
