サンテティエンヌ国立高等鉱業学校は、フランスの理科系グランゼコールの一つであり、様々な工学分野の技術者を育成する高等教育機関である。	さんててぃえんぬこくりつこーとーこーぎょーがっこーわ、ふらんすのりかけいぐらんぜこーるのひとつであり、さまざまなこーがくぶんやのぎじゅつしゃをいくせいするこーとーきょーいくきかんである。	NO_LABEL
本部は 158 cours Fauriel 42023 Saint-Etienne に置かれている。	NO_PRONOUNCE	NO_LABEL
略称はEMSEである。	NO_PRONOUNCE	NO_LABEL
総学生数：1720人：Ingénieurs Civils des Mines、マイクロエレクトロニクスとコンピュータ工学専攻、専門技術研修生、修士課程研究生、修士課程専門研究生、博士課程学生	NO_PRONOUNCE	NO_LABEL
「Ingénieurs Civils」は本来の意味は一般の土木工事を技師を指した。	NO_PRONOUNCE	NO_LABEL
これは防衛などの軍関係の土木工事と区別するためであった。	これわぼーえいなどのぐんかんけいのどぼくこーじとくべつするためであった。	NO_LABEL
現在では、「Ingénieurs Civils 」は民間事業のための技師と「Ingénieurs Civils de l'État」の公務員技師を区別する際に使われることもある。	NO_PRONOUNCE	NO_LABEL
サンテティエンヌ鉱業学校はローヌアルプ地方で最も古い高等教育機関で、ルイ16世の命令で1816年に創立された。	さんててぃえんぬこーぎょーがっこーわろーぬあるぷちほーでもっともふるいこーとーきょーいくきかんで、るいじゅうろくせいのめいれいでせんはっぴゃくじゅうろくねんにそーりつされた。	NO_LABEL
この学校の創立当初の目的は王室鉱山の運営にあたる技術者を養成することであった。	このがっこーのそーりつとーしょのもくてきわおーしつこーざんのうんえいにあたるぎじゅつしゃをよーせいすることであった。	NO_LABEL
当時、鉱業はフランスの主要産業であり、鉱山労働者の安全から鉱山経営まで専門の技術が要求される産業であった。	とーじ、こーぎょーわふらんすのしゅよーさんぎょーであり、こーざんろうどーしゃのあんぜんからこーざんけいえいまでせんもんのぎじゅつがよーきゅーされるさんぎょーであった。	NO_LABEL
サンテティエンヌ鉱業学校の最初の学長であるボーミエはフランスで最初の鉄道をサンテティエンヌとロワール河谷間に沿ってアンドレジュ・ブウテオンまで、距離にして21キロに渡って敷設した。	NO_PRONOUNCE	NO_LABEL
この鉄道敷設の目的はサンテティエンヌ周辺から産出される石炭を輸送することだった。	このてつどーふせつのもくてきわさんててぃえんぬしゅーへんからさんしゅつされるせきたんをゆそーすることだった。	NO_LABEL
当時、サンテティエンヌ坑夫学校と呼ばれていたこの学校の学生たちもその計画達成のために協力した。	とーじ、さんててぃえんぬこーふがっこーとよばれていたこのがっこーのがくせいたちもそのけいかくたっせいのためにきょーりょくした。	NO_LABEL
その学生たちの中には発電用水力タービンの発明者であるフルネーロンがいた。	そのがくせいたちのなかにわはつでんよーすいりょくたーびんのはつめいしゃであるふるねーろんがいた。	NO_LABEL
後の卒業生の中には農学の創始者の一人で化学者のブサンゴー、日本の鉱業の近代化と深い関わりを持つコワニエなどの名前が見られる。	ごのそつぎょーせいのなかにわのーがくのそーししゃのひとりでかがくしゃのぶさんごー、にっぽんのこーぎょーのきんだいかとふかいかかわりをもつこわにえなどのなまえがみられる。	NO_LABEL
1882年に学校は鉱山学校となり、2年後には準備クラスを終えた学生を入学試験により選抜して受け入れるようになった。	せんはっぴゃくはちじゅうにねんにがっこーわこーざんがっこーとなり、にねんごにわじゅんびくらすをおえたがくせいをにゅーがくしけんによりせんばつしてうけいれるよーになった。	NO_LABEL
その後、1890年に学位を授与する権利を得た。	そのご、せんはっぴゃくきゅうじゅうねんにがくいをじゅよするけんりをえた。	NO_LABEL
1925年よりサンテティエンヌ国立高等鉱業学校となり、フランス産業省に直属する6つの学校の一つとなり、社会的に評価の高い「Ingenieur Civil des Mines」の技師ディプロマを授与ができるようになった。	NO_PRONOUNCE	NO_LABEL
1927年に学校は158 cours Fauriel 42023 Saint-Etienneに建てられた新校舎に移転した。	NO_PRONOUNCE	NO_LABEL
この建物は現在もサンテティエンヌ鉱業学校の本部になっている。	このたてものわげんざいもさんててぃえんぬこーぎょーがっこーのほんぶになっている。	NO_LABEL
1994年に、Manufranceの旧建物の一部分が改修されて、コンピューターサイエンス部門が置かれている。	NO_PRONOUNCE	NO_LABEL
2002年には、南フランスに、ノーベル賞物理学者ジョルジュ・シャルパクの名をとったジョルジュ・シャルパク・キャンパスが建設された。	NO_PRONOUNCE	NO_LABEL
このキャンパスはマイクロエレクトロニクス研究とその教育を行うことを目的としている。	このきゃんぱすわまいくろえれくとろにくすけんきゅーとそのきょーいくをおこなうことをもくてきとしている。	NO_LABEL
現在、フランスには、高等教育を行う理科系グランゼコールが約150校ある。	NO_PRONOUNCE	NO_LABEL
フランスの経済紙「L'Usine nouvelle」誌によると、サンテティエンヌ鉱業学校はパリ鉱業学校、エコール・ポリテクニーク、エコール・サントラル・パリなどに超名門校に次いで第2グループ中の20位に位置している。	NO_PRONOUNCE	NO_LABEL
サンテティエンヌ鉱業学校は、当初、鉱山技術者の養成校として創立されたが、工業技術の発達や社会の変化とともに、工学分野一般の技術者を養成する学校となり、現在に至っている。	さんててぃえんぬこーぎょーがっこーわ、とーしょ、こーざんぎじゅつしゃのよーせいこーとしてそーりつされたが、こーぎょーぎじゅつのはったつやしゃかいのへんかとともに、こーがくぶんやいっぱんのぎじゅつしゃをよーせいするがっこーとなり、げんざいにいたっている。	NO_LABEL
サンテティエンヌ鉱業学校の入学試験「Concours commun Mines-Ponts」は理科系グランゼコール9校の共通試験である。	NO_PRONOUNCE	NO_LABEL
この共通試験は理科系バカロレア取得し、2年間あるいは3年間の準備クラスを終了した者が受験できる。	このきょーつーしけんわりかけいばかろれあしゅとくし、にねんかんあるいわさんねんかんのじゅんびくらすをしゅーりょーしたものがじゅけんできる。	NO_LABEL
この共通試験に含まれる9校のグランゼコールは以下の通りである。	NO_PRONOUNCE	NO_LABEL
また、2007年度の共通試験の受験者数は3432人で、9校全体の定員は895人であった。	NO_PRONOUNCE	NO_LABEL
École des Ponts et Chausses/ Sup Aéro-Espace/ TELECOM Paris/ Telecom Sophia Antipolis/ Mines de Paris/ Mines de Saint-Etienne/ Mines de Nancy/ TELECOM Bretagne/ Techniques avancées Paris	NO_PRONOUNCE	NO_LABEL
専攻分野：1.数学 2.コンピュータサイエンス 3.物理学 4.社会・経済人文科学	NO_PRONOUNCE	NO_LABEL
専門分野：1.産業と領土の環境 2.生産と物流管理 3.経営と企業財務 4.科学データー 5.コンピューターサイエンス 6.バイオメディカル工学 7.エネルギープロセス 8.マテリアル工学 9.構造工学 10.マイクロエレクトロニクス外国語：第1外国語：英語 / 第2外国語：スペイン語、ドイツ語、日本語、中国語、ロシア語、イタリア語、ポルトガル語から選択 / 第3外国語 自由聴講理系選択科目：5教科必須 経済・人文選択科目：3年間で8教科必須 インターンシップ：在学中3年間に通算1年間	NO_PRONOUNCE	NO_LABEL
サンテティエンヌ鉱業学校は下記の日本の大学と大学間協定あるいは部局間協定を結び、学生及び研究者レベルでの交流を行っている。	さんててぃえんぬこーぎょーがっこーわかきのにっぽんのだいがくとだいがくかんきょーていあるいわぶきょくかんきょーていをむすび、がくせいおよびけんきゅうしゃれべるでのこーりゅーをおこなっている。	NO_LABEL
東北大学/ 九州工業大学/ 熊本大学	NO_PRONOUNCE	NO_LABEL
Centre Ingénierie et Santé/ Centre Microélectronique de Provence/	NO_PRONOUNCE	NO_LABEL
Institut Henri FAYOL材料と構造の科学 / Sciences des Processus Industriels et Naturels	NO_PRONOUNCE	NO_LABEL
リヨンを中心とするローヌアルプ地方と日本との交流は江戸末期まで遡ることができる。	りよんをちゅーしんとするろーぬあるぷちほーとにっぽんとのこーりゅーわえどまっきまでさかのぼることができる。	NO_LABEL
日本とフランスの公式な交流協定が結ばれたのは1858年、黒船来航から数年後の日本がまさに動乱期を迎えようとしていた13代将軍家定の時代である。	にっぽんとふらんすのこーしきなこーりゅーきょーていがむすばれたのわせんはっぴゃくごじゅうはちねん、くろふねらいこーからすーねんごのにっぽんがまさにどーらんきをむかえようとしていたじゅうさんだいしょーぐんけじょーのじだいである。	NO_LABEL
1862年には徳川幕府使節団が訪仏し、ナポレオン3世に謁見を許されている。	せんはっぴゃくろくじゅうにねんにわとくがわばくふしせつだんがほーふつし、なぽれおんさんせいにえっけんをゆるされている。	NO_LABEL
1866年、慶喜が15代将軍になると、当時のフランス公使レオン・ロッシュは幕府改革を支持し、徳川幕府に600万ドルの借款を行った。	せんはっぴゃくろくじゅうろくねん、よしのぶがじゅうごだいしょーぐんになると、とーじのふらんすこーしれおんろっしゅわばくふかいかくをしじし、とくがわばくふにろっぴゃくまんどるのしゃっかんをおこなった。	NO_LABEL
翌年、慶喜は大政奉還をなし、幕末の動乱も終幕を迎えた。	よくねん、よしのぶわたいせいほーかんをなし、ばくまつのどーらんもしゅーまくをむかえた。	NO_LABEL
時代は明治になり、「殖産興業」「富国強兵」を掲げる新政府の日仏交流が始まった。	NO_PRONOUNCE	NO_LABEL
両国の交流は技術と法律の分野で特色をなした。	りょーこくのこーりゅーわぎじゅつとほーりつのぶんやでとくしょくをなした。	NO_LABEL
幕末から明治中期にかけてのフランス人「お雇い外国人」は通算は333人に及んだ。	NO_PRONOUNCE	NO_LABEL
「お雇い外国人」の使命はヨーロッパの近代技術を伝えることだった。	NO_PRONOUNCE	NO_LABEL
日仏間の技術交流は鉱業、鉄鋼、造船、織物の分野だった。	にちふつかんのぎじゅつこーりゅーわこーぎょー、てっこー、ぞーせん、おりもののぶんやだった。	NO_LABEL
偶然にも、これらの分野で訪日したフラン人技師のほとんどがローヌ・アルプ地方出身であった。	NO_PRONOUNCE	NO_LABEL
鉱業の分野での進歩はサンテティエンヌ鉱業学校で学んだフランソワ・コワニエと塩野門之助の努力に寄与することが大きい。	NO_PRONOUNCE	NO_LABEL
この項目では、この二人と明治・大正時代にサンテティエンヌ鉱業学校で学び、フランスで客死した二人の日本人について記す。	NO_PRONOUNCE	NO_LABEL
フランソワ・コワニエは1837年3月10日にサンテティエンヌで生まれた。	NO_PRONOUNCE	NO_LABEL
1855年にサンテティエンヌ坑夫学校を卒業した。	せんはっぴゃくごじゅうごねんにさんててぃえんぬこーふがっこーをそつぎょーした。	NO_LABEL
幕末の動乱も終末を迎えた1867年に夫人とともに来日し、薩摩藩命により1年間、薩摩、大隅、日向の3国の鉱産地を見学した。	NO_PRONOUNCE	NO_LABEL
翌年、1868年に明治維新を迎えた。	よくねん、せんはっぴゃくろくじゅうはちねんにめいじいしんをむかえた。	NO_LABEL
コワニエは明治新政府のお雇い外国人第1号となって、生野銀山に技師長として赴任した。	こわにえわめいじしんせいふのおやといがいこくじんだいいちごーとなって、いくのぎんざんにぎしちょーとしてふにんした。	NO_LABEL
明治新政府とコワニエの間で交わされた雇用契約書が残されている。	めいじしんせいふとこわにえのまでかわされたこよーけいやくしょがのこされている。	NO_LABEL
その頃、生野銀山は衰退していた。	そのころ、いくのぎんざんわすいたいしていた。	NO_LABEL
これは、江戸時代の排水通風の技術では、全ての坑道が作業を中断せざるを得ないところまで堀尽くされたためだった。	これわ、えどじだいのはいすいつーふーのぎじゅつでわ、すべてのこーどーがさぎょーをちゅーだんせざるをえないところまでほりつくされたためだった。	NO_LABEL
コワニエは当初銅鉱石の開発を提案した。	こわにえわとーしょどーこーせきのかいはつをていあんした。	NO_LABEL
しかし、鉱床の調査および各地の鉱石を分析した結果、それまでの金銀の分離技術に問題があることが判明した。	しかし、こーしょーのちょーさおよびかくちのこーせきをぶんせきしたけっか、それまでのきんぎんのぶんりぎじゅつにもんだいがあることがはんめいした。	NO_LABEL
金品位の高い鉱石の発見により、コワニエは採掘計画を銅から金銀に変更した。	きんぴんいのたかいこーせきのはっけんにより、こわにえわさいくつけいかくをどーからきんぎんにへんこーした。	NO_LABEL
コワニエは生野銀山の近代化とともに、生野に鉱山技術者の養成したり、生野から飾磨までの道路を改修して馬車道を新設したり、飾磨港の工事を行ったりした。	こわにえわいくのぎんざんのきんだいかとともに、いくのにこーざんぎじゅつしゃのよーせいしたり、いくのからしかままでのどーろをかいしゅーしてばしゃみちをしんせつしたり、しかまこーのこーじをおこなったりした。	NO_LABEL
彼の生野鉱山での8年間に、フランスから地質家、鉱山技師、坑夫、医師らを呼び寄せた。	かれのいくのこーざんでのはちねんかんに、ふらんすからちしつか、こーざんぎし、こーふ、いしらをよびよせた。	NO_LABEL
その総数は24名に達した。	NO_PRONOUNCE	NO_LABEL
コワニエは日本滞在中各地の鉱山調査も併せて行い、1874年に「日本鉱物資源に関する覚書」を著した。	NO_PRONOUNCE	NO_LABEL
これは日本の地質を大観した最初の記述であろうとされている。	これわにっぽんのちしつをたいかんしたさいしょのきじゅつであろうとされている。	NO_LABEL
この論文は日本の地質構造の概要、日本鉱業の現状、日本古来の採鉱冶金法の概説の3章から構成され、実に多方面にわたり、彼の理論を述べている。	NO_PRONOUNCE	NO_LABEL
鹿児島については、薩摩藩滞在中の観察にもとづく、山ヶ野・芹ヶ野・神殿・鹿篭・錫山などの記載や、野間岬の海百合石灰岩の記載まである。	NO_PRONOUNCE	NO_LABEL
コワニエは教育面も重視し、「仏国の鉱学教師をして生徒を訓導せしめ、生野鉱山を修学実験所となし、人材の輩出を俟たば、事業興隆すべし」と建議した。	NO_PRONOUNCE	NO_LABEL
こうして1869年生野鉱山修学実験所が開設され、コワニエが教授職兼任となった。	こーしてせんはっぴゃくろくじゅうきゅうねんいくのこーざんしゅーがくじっけんしょがかいせつされ、こわにえがきょーじゅしょくけんにんとなった。	NO_LABEL
彼は鉱山地質家としても優れており、伊予の別子銅山や大和の天和銅山など各地の調査にも当たった。	かれわこーざんちしつかとしてもすぐれており、いよのべっしどーざんややまとのてんわどーざんなどかくちのちょーさにもあたった。	NO_LABEL
また、鹿児島付近では穿孔性の貝化石を含む凝灰岩層が海抜40mも高いところにある事実を指摘し、隆起運動を論じた。	また、かごしまふきんでわせんこーせいのかいかせきをふくむぎょーかいがんそーがかいばつよんじゅうめーとるもたかいところにあるじじつをしてきし、りゅーきうんどーをろんじた。	NO_LABEL
その後、1876年夏には工部省鉱山寮の命により、秋田県阿仁鉱山・院内鉱山など東北・北海道の鉱山の調査を行った。	NO_PRONOUNCE	NO_LABEL
日本を去ったコワニエは1877年にフランスに帰ったが、フランスで活躍する機会は与えられなかった。	にっぽんをさったこわにえわせんはっぴゃくななじゅうななねんにふらんすにかえったが、ふらんすでかつやくするきかいわあたえられなかった。	NO_LABEL
晩年、病弱になったコワニエはリヨン、そしてイゼール県と居を移し、サンテティエンヌで1902年6月18日に亡くなった。	ばんねん、びょーじゃくになったこわにえわりよん、そしていぜーるけんときょをうつし、さんててぃえんぬでせんきゅうひゃくにねんろくがつじゅうはちにちになくなった。	NO_LABEL
彼の亡骸はサンテティエンヌに埋葬されたが、後にリヨンに隣接するブロン市にあるマリー・コワニエの実家シスレー家の墓に移された。	NO_PRONOUNCE	NO_LABEL
コワニエの死後、子もなく一人身になったマリー・コワニエは実家のあるリヨンに戻った。	NO_PRONOUNCE	NO_LABEL
マリーは1924年に亡くなるまで、20年以上もリヨンで暮らした。	まりーわせんきゅうひゃくにじゅうよねんになくなるまで、にじゅうねんいじょーもりよんでくらした。	NO_LABEL
彼女は生野での懐かしい日々をシスレー家の幼い子たちに語っていたそうである。	かのじょわいくのでのなつかしいひびをしすれーかのおさないこたちにかたっていたそーである。	NO_LABEL
塩野門之助は1853年7月に島根藩士塩野鉄之丞の長男として生まれた。	しおのもんのすけわせんはっぴゃくごじゅうさんねんしちがつにしまねはんししおのかねのじょーのちょーなんとしてうまれた。	NO_LABEL
門之助は10歳の年に父を亡くした。	もんのすけわじゅっさいのとしにちちをなくした。	NO_LABEL
1870年に藩校修道館で、語学修行を命ぜられた。	せんはっぴゃくななじゅうねんにはんこーしゅーどーかんで、ごがくしゅぎょーをめいぜられた。	NO_LABEL
フランス人ワレットとアレキサンドルについて語学伝習を受けた。	ふらんすじんわれっととあれきさんどるについてごがくでんしゅーをうけた。	NO_LABEL
この語学伝習のあと、塩野は外務省に入った。	このごがくでんしゅーのあと、しおのわがいむしょーにはいった。	NO_LABEL
同じ時期、住友家初代総理人・広瀬宰平は別子銅山の近代化が欠かせないと決断していた。	NO_PRONOUNCE	NO_LABEL
そしてフランス人技師ルイ・ラロックを招聘し、次いでラロックの通訳として、外務省経験のある塩野を雇った。	そしてふらんすじんぎしるいらろっくをしょーへいし、ついでらろっくのつーやくとして、がいむしょーけいけんのあるしおのをやとった。	NO_LABEL
塩野が新居浜にやって来たのは1874年3月、彼が22歳のときであった。	しおのがにいはまにやってきたのわせんはっぴゃくななじゅうよねんさんがつ、かれがにじゅうにさいのときであった。	NO_LABEL
鉱山技術に興味を持った塩野は、ラロックの近代化プランである目論見書を翻訳するには、フランスで技術を学びたいと広瀬に申し出た。	こーざんぎじゅつにきょーみをもったしおのわ、らろっくのきんだいかぷらんであるもくろみしょをほんやくするにわ、ふらんすでぎじゅつをまなびたいとひろせにもーしでた。	NO_LABEL
広瀬も近代化プランの実現には、フランス人の力を借りるのではなく日本人の力でやり遂げたいと考え、塩野門之助と増田好蔵の2人をフランス留学に派遣することを決めた。	ひろせもきんだいかぷらんのじつげんにわ、ふらんすじんのちからをかりるのでわなくにっぽんじんのちからでやりとげたいとかんがえ、しおのもんのすけとますだよしぞーのふたりをふらんすりゅーがくにはけんすることをきめた。	NO_LABEL
1876年4月、フランスに渡った塩野門之助は、ルイ・ラロックのアドバイスを受けて、家庭教師に幾何学や図学を習い、パリ大学のソルボンヌ校へ舎密や物理学の聴講にも出掛けた。	せんはっぴゃくななじゅうろくねんしがつ、ふらんすにわたったしおのもんのすけわ、るいらろっくのあどばいすをうけて、かていきょーしにきかがくやずがくをならい、ぱりだいがくのそるぼんぬこーえせいみやぶつりがくのちょーこーにもでかけた。	NO_LABEL
その後、実学を学ぶために1878年サンテティエンヌ鉱業学校に入学した。	そのご、じつがくをまなぶためにせんはっぴゃくななじゅうはちねんさんててぃえんぬこーぎょーがっこーににゅーがくした。	NO_LABEL
鉱山学を学び学位をとり、卒業後はフランス国内の鉱山で実地研修を重ねた。	こーざんがくをまなびがくいをとり、そつぎょーごわふらんすこくないのこーざんでじっちけんしゅーをかさねた。	NO_LABEL
塩野が帰国したのは1881年、日本を出てから、5年8カ月の歳月が流れていた。	しおのがきこくしたのわせんはっぴゃくはちじゅういちねん、にっぽんをだしてから、ごねんはちかげつのさいげつがながれていた。	NO_LABEL
塩野は日本帰国後の1882年2月に重任局詰の技術長に任ぜられ、新居浜惣開の洋式精錬所建設を任せられた。	しおのわにっぽんきこくごのせんはっぴゃくはちじゅうにねんにがつにじゅーにんきょくつめのぎじゅつちょーににんぜられ、にいはまそーびらきのよーしきせいれんしょけんせつをまかせられた。	NO_LABEL
塩野はフランス留学以来望んでいた洋式精錬所建設が可能になったのである。	しおのわふらんすりゅーがくいらいのぞんでいたよーしきせいれんしょけんせつがかのーになったのである。	NO_LABEL
しかし、この計画は塩野の思っていたようには行かなかった。	しかし、このけいかくわしおののおもっていたよーにわいかなかった。	NO_LABEL
当時の別子銅山責任者である広瀬宰平との意見の食い違いが大きな原因であった。	とーじのべっしどーざんせきにんしゃであるひろせさいへいとのいけんのくいちがいがおーきなげんいんであった。	NO_LABEL
塩野は1887年6月に技術長の職を辞任した。	しおのわせんはっぴゃくはちじゅうしちねんろくがつにぎじゅつちょーのしょくをじにんした。	NO_LABEL
別子銅山を去った塩野は足尾銅山に就職した。	べっしどーざんをさったしおのわあしおどーざんにしゅーしょくした。	NO_LABEL
この頃より塩野の関心は「選鉱」と「ベッセマー製銅」に向けられていた。	NO_PRONOUNCE	NO_LABEL
ベッセマー炉とは、イギリス人ベッセマーが1856年に製鉄用として発明した転炉であるが、1883年にフランス人マンネスが製銅錬の応用に成功した。	べっせまーろとわ、いぎりすじんべっせまーがせんはっぴゃくごじゅうろくねんにせいてつよーとしてはつめいしたてんろであるが、せんはっぴゃくはちじゅうさんねんにふらんすじんまんねすがせいどーねのおーよーにせいこーした。	NO_LABEL
マンネスは塩野のサンテティエンヌ鉱業学校の先輩にあたる。	まんねすわしおののさんててぃえんぬこーぎょーがっこーのせんぱいにあたる。	NO_LABEL
1893年の5月、塩野は日本で最初のベッセマー炉を足尾銅山で完成させた。	せんはっぴゃくきゅうじゅうさんねのごがつ、しおのわにっぽんでさいしょのべっせまーろをあしおどーざんでかんせいさせた。	NO_LABEL
塩野は当初からの念願であった別子銅山でベッセマー炉を実用化したい希望を別子銅山の親会社である住友鉱山に書状を送り、1895年に別子にもどった。	しおのわとーしょからのねんがんであったべっしどーざんでべっせまーろをじつよーかしたいきぼーをべっしどーざんのおやがいしゃであるすみともこーざんにしょじょーをおくり、せんはっぴゃくきゅうじゅうごねんにべつこにもどった。	NO_LABEL
新居浜精錬所の四阪島移転による資金不足のためベッセマー炉の完成には至らなかったが、間吹法とベッセマー法を折衷した穴吹法を開発して、1899年から操業を開始した。	にいはませいれんしょのしさかじまいてんによるしきんふそくのためべっせまーろのかんせいにわいたらなかったが、はざまふきほーとべっせまーほーをせっちゅーしたあなぶきほーをかいはつして、せんはっぴゃくきゅうじゅうきゅうねんからそーぎょーをかいしした。	NO_LABEL
四阪島精錬所が竣工した翌年1905年、塩野は「四阪島精錬所落成ニ付依頼解雇ス」という辞令を受け、別子銅山を去り、東京での生活を始めた。	NO_PRONOUNCE	NO_LABEL
塩野は1933年の7月、81歳で亡くなった。	しおのわせんきゅうひゃくさんじゅうさんねのしちがつ、はちじゅういっさいでなくなった。	NO_LABEL
それから40年余り経った1975年に別子銅山は閉山された。	それからよんじゅうねんあまりたったせんきゅうひゃくななじゅうごねんにべっしどーざんわへいざんされた。	NO_LABEL
別子銅山の開発と経営に一貫してあたった住友金属鉱山は、塩野の母校サンテティエンヌ鉱業学校の学生の実習を長年受け入れている。	べっしどーざんのかいはつとけいえいにいっかんしてあたったすみともきんぞくこーざんわ、しおののぼこーさんててぃえんぬこーぎょーがっこーのがくせいのじっしゅーをながねんうけいれている。	NO_LABEL
住友らしい律儀な社風である。	すみともらしいりちぎなしゃふーである。	NO_LABEL
追記になるが、この塩野が描かれた人物がTBSで2016年1月3日に放送された新春スペシャルドラマ「百年の計、我にあり －知られざる明治産業維新リーダー伝」に出てくる。	NO_PRONOUNCE	NO_LABEL
サンテティエンヌ鉱業学校の建物も映し出された。	さんててぃえんぬこーぎょーがっこーのたてものもうつしだされた。	NO_LABEL
塩野がサンテティエンヌ鉱業学校を去って135年後のことである。	しおのがさんててぃえんぬこーぎょーがっこーをさってひゃくさんじゅうごねんごのことである。	NO_LABEL
京都府知事をしていた槇村正直はレオン・デュリーの「京都から、つぎの日本を背負ってたつ人材を養成しなければ」という進言に基づいて、1878年11月20日、フランスへ8名の留学生を送った。	NO_PRONOUNCE	NO_LABEL
その中の一人が歌原十三朗である。	そのなかのひとりがうたはらじゅーざろーである。	NO_LABEL
歌原はフランス人レオン・デュリーの元でフランス語を習った。	うたはらわふらんすじんれおんでゅりーのもとでふらんすごをならった。	NO_LABEL
フランス語をよく解した。	ふらんすごをよくかいした。	NO_LABEL
フランスへの留学の前年1877年、エミール・ギメが日本を訪れた。	ふらんすえのりゅーがくのぜんねんせんはっぴゃくななじゅうななねん、えみーるぎめがにっぽんをおとずれた。	NO_LABEL
そのとき、ギメの調査通訳を務めたのが歌原であった。	そのとき、ぎめのちょーさつーやくをつとめたのがうたはらであった。	NO_LABEL
デュリーと歌原たちを乗せた船は1878年1月2日にマルセイユに到着した。	でゅりーとうたはらたちをのせたふねわせんはっぴゃくななじゅうはちねんいちがつふつかにまるせいゆにとーちゃくした。	NO_LABEL
歌原たち8名の留学生はマルセイユのサンシャルル校で4カ月間フランス語を学んだ。	NO_PRONOUNCE	NO_LABEL
ときに歌原は18歳であった。	ときにうたはらわじゅうはっさいであった。	NO_LABEL
1879年、歌原十三朗はサンテティエンヌ鉱業学校に入学した。	せんはっぴゃくななじゅうきゅうねん、うたはらじゅーざろーわさんててぃえんぬこーぎょーがっこーににゅーがくした。	NO_LABEL
それは前述の塩野門之助がサンテティエンヌ鉱業学校に入学した1年後であった。	それわぜんじゅつのしおのもんのすけがさんててぃえんぬこーぎょーがっこーににゅーがくしたいちねんごであった。	NO_LABEL
明治初期、フランスの地方都市にある学校に日本人二人が同時に在籍するのは宿命的なものであろうか。	めいじしょき、ふらんすのちほーとしにあるがっこーににっぽんじんふたりがどーじにざいせきするのわしゅくめいてきなものであろうか。	NO_LABEL
歌原は勉学に励んだ。	うたはらわべんがくにはげんだ。	NO_LABEL
当時の成績表によれば、歌原は同学年36人の中で上位にいた。	とーじのせいせきひょーによれば、うたはらわどーがくねんさんじゅうろくにんのなかでじょーいにいた。	NO_LABEL
彼のサンテティエンヌ鉱業学校での生活は成績表でしか推察できない。	かれのさんててぃえんぬこーぎょーがっこーでのせいかつわせいせきひょーでしかすいさつできない。	NO_LABEL
歌原と塩野は友人だったのか。	うたはらとしおのわゆーじんだったのか。	NO_LABEL
1881年、塩野は学業を終え、帰国した。	せんはっぴゃくはちじゅういちねん、しおのわがくぎょーをおえ、きこくした。	NO_LABEL
それからわずか1年後の1882年2月16日、歌原は肺病のため、サンテティエンヌで息を引きとった。	それからわずかいちねんごのせんはっぴゃくはちじゅうにねんにがつじゅうろくにち、うたはらわはいびょーのため、さんててぃえんぬでいきをひきとった。	NO_LABEL
Le Progrès誌のロワール県の追悼記事に歌原の死亡と葬儀日が報道されている。	NO_PRONOUNCE	NO_LABEL
歌原の亡骸はサンテティエンヌの丘の上にある市営墓地に埋葬された。	うたはらのなきがらわさんててぃえんぬのおかのうえにあるしえいぼちにまいそーされた。	NO_LABEL
後に、デュリーは歌原の亡骸を引き取り、南フランスのランベスクに墓地に眠る彼の妻ジョセフィーヌのとなりに眠らせた。	ごに、でゅりーわうたはらのなきがらをひきとり、みなみふらんすのらんべすくにぼちにねむるかれのつまじょせふぃーぬのとなりにねむらせた。	NO_LABEL
小野敏郎は1900年4月19日にリヨンで生まれた。	おのとしおわせんきゅうひゃくねんしがつじゅうきゅうにちにりよんでうまれた。	NO_LABEL
小野政吉の三男である。	おのまさよしのさんなんである。	NO_LABEL
当時、敏郎の父である小野政吉は横浜正金銀行リヨン支店長の職にあった。	とーじ、としおのちちであるおのまさよしわよこはましょーきんぎんこーりよんしてんちょーのしょくにあった。	NO_LABEL
「ふらんす物語」の永井荷風の勤務先がこの銀行であった。	NO_PRONOUNCE	NO_LABEL
また、女優の東山千栄子もリヨン時代に小野家に下宿していた。	また、じょゆーのひがしやまちえこもりよんじだいにおのかにげしゅくしていた。	NO_LABEL
1911年、敏郎は両親に連れられて生まれて初めて日本の土を踏んだ。	せんきゅうひゃくじゅういちねん、としおわりょーしんにつれられてうまれてはじめてにっぽんのどをふんだ。	NO_LABEL
その数年後、父の仕事のため、再度リヨンに赴いた。	そのすーねんご、ちちのしごとのため、さいどりよんにおもむいた。	NO_LABEL
敏郎は1917年にリヨンのアンペール高校でバカロレア取得した。	としおわせんきゅうひゃくじゅうしちねんにりよんのあんぺーるこーこーでばかろれあしゅとくした。	NO_LABEL
アンペール高校はフランス革命前はインペリアル高校と呼ばれ、フランスで最初に男女共学を実施したことで知られている。	あんぺーるこーこーわふらんすかくめいまえわいんぺりあるこーこーとよばれ、ふらんすでさいしょにだんじょきょーがくをじっししたことでしられている。	NO_LABEL
現在の名前であるアンペール高校の名前の由来は、アンペールの法則を発見し、電流の国際単位アンペアで知られている卒業生アンドレ=マリ・アンペールによっている。	NO_PRONOUNCE	NO_LABEL
同じ年の9月、小野敏郎はグランゼコールの受験準備のため、リヨンのパルク高校の理科系準備クラスに入学した。	おなじとしのくがつ、おのとしおわぐらんぜこーるのじゅけんじゅんびのため、りよんのぱるくこーこーのりかけいじゅんびくらすににゅーがくした。	NO_LABEL
その2年後の1919年にサンテティエンヌ鉱業学校に合格した。	そのにねんごのせんきゅうひゃくじゅうきゅうねんにさんててぃえんぬこーぎょーがっこーにごーかくした。	NO_LABEL
17歳でバカロレア取得、2年間の理科系準備クラスという経緯から判断すると、小野敏郎の優秀だったと言える。	じゅうななさいでばかろれあしゅとく、にねんかんのりかけいじゅんびくらすとゆうけいいからはんだんすると、おのとしおのゆーしゅーだったといえる。	NO_LABEL
敏郎が入学した当時のサンテティエンヌ鉱業学校の定員は40名だった。	NO_PRONOUNCE	NO_LABEL
かなりのエリート養成校だった。	かなりのえりーとよーせいこーだった。	NO_LABEL
敏郎は学業成績が優秀だった。	としおわがくぎょーせいせきがゆーしゅーだった。	NO_LABEL
また、敏郎はこの学校の校友会誌の設立グループとして編集と挿絵を担当した。	また、としおわこのがっこーのこーゆーかいしのせつりつぐるーぷとしてへんしゅーとさしえをたんとーした。	NO_LABEL
校友会にはリーダー的な学生が集まった。	こーゆーかいにわりーだーてきながくせいがあつまった。	NO_LABEL
敏郎は彼の母国語がフランス語だということにもよろうが、活発な学生だったと推察できる。	としおわかれのぼこくごがふらんすごだとゆうことにもよろうが、かっぱつながくせいだったとすいさつできる。	NO_LABEL
敏郎が作成した表紙は「Le pic qui chante」とフランス語でデザインされ、第1号は1920年3月に発行された。	NO_PRONOUNCE	NO_LABEL
その後、この表紙は10数年間もサンテティエンヌ鉱業学校の校友会誌を飾ることになった。	NO_PRONOUNCE	NO_LABEL
敏郎は1921年にサンテティエンヌ鉱業学校卒業し,両親と共に帰国した。	NO_PRONOUNCE	NO_LABEL
1923年に三菱鉱業に入社、間もなく三菱商事に転じた。	せんきゅうひゃくにじゅうさんねんにみつびしこうぎょーににゅーしゃ、まもなくみつびししょーじにてんじた。	NO_LABEL
敏郎は日本語も流暢であったが、母国語は教育を受けたフランス語であった。	としおわにほんごもりゅーちょーであったが、ぼこくごわきょーいくをうけたふらんすごであった。	NO_LABEL
英語、スペイン語、ドイツ語、ロシア語もよく解した。	えいご、すぺいんご、どいつご、ろしあごもよくかいした。	NO_LABEL
1930年代の初めに三菱商事パリ支店勤務の辞令が下り、再びフランスでの生活が始まった。	せんきゅうひゃくさんじゅうねんだいのはじめにみつびししょーじぱりしてんきんむのじれいがくだり、ふたたびふらんすでのせいかつがはじまった。	NO_LABEL
優れた語学能力を持った敏郎のパリでの生活は非常に多忙であった。	すぐれたごがくのーりょくをもったとしおのぱりでのせいかつわひじょーにたぼーであった。	NO_LABEL
1940年6月、ドイツ軍がフランスに侵入し、パリは陥落寸前だった。	せんきゅうひゃくよんじゅうねんろくがつ、どいつぐんがふらんすにしんにゅーし、ぱりわかんらくすんぜんだった。	NO_LABEL
事務所はボルドーに疎開した。	じむしょわぼるどーにそかいした。	NO_LABEL
敏郎は仕事の過労と戦争によるストレスで健康をそこねた。	としおわしごとのかろーとせんそーによるすとれすでけんこーをそこねた。	NO_LABEL
そして、1941年1月23日、41歳の短い人生を閉じた。	そして、せんきゅうひゃくよんじゅういちねいちがつにじゅうさんにち、よんじゅういっさいのみじかいじんせいをとじた。	NO_LABEL
小野敏郎は人生の3分の2をフランスで過ごした。	おのとしおわじんせいのさんぶんのにをふらんすですごした。	NO_LABEL
1980年ごろまでは定員60名前後だったが、2015年の定員は160名まで膨らんでいる。	NO_PRONOUNCE	NO_LABEL
