P-7はアメリカ合衆国のロッキード社が開発していた対潜哨戒機。	NO_PRONOUNCE	NO_LABEL
P-3Cの改良型であるが、開発費超過と冷戦の終結により、開発が中止された。	ぴいさんしーのかいりょーがたであるが、かいはつひちょーかとれいせんのしゅーけつにより、かいはつがちゅーしされた。	NO_LABEL
実機は製造されていない。	じっきわせいぞーされていない。	NO_LABEL
1980年代中頃において、アメリカ海軍はソ連の原子力潜水艦の脅威に対応し、P-3Cよりさらに長時間哨戒活動を行える機体を求めるようになった。	せんきゅうひゃくはちじゅうねんだいなかごろにおいて、あめりかかいぐんわそれんのげんしりょくせんすいかんのきょーいにたいおーし、ぴいさんしーよりさらにちょーじかんしょーかいかつどーをおこなえるきたいをもとめるよーになった。	NO_LABEL
ロッキード社は1986年頃には、すでにP-3Cの改良型であるP-3Gの開発を進めていた。	ろっきーどしゃわせんきゅうひゃくはちじゅうろくねんごろにわ、すでにぴいさんしーのかいりょーがたであるぴーまいなすさんぎがのかいはつをすすめていた。	NO_LABEL
1988年にアメリカ海軍は新型長距離対潜哨戒機の提案募集を行った。	せんきゅうひゃくはちじゅうはちねんにあめりかかいぐんわしんがたちょーきょりたいせんしょーかいきのていあんぼしゅーをおこなった。	NO_LABEL
これにはボーイング757改造案、MD-91改造案などが出されたが、P-3G案が採用された。	NO_PRONOUNCE	NO_LABEL
海軍は、これにP-7の名称を与え1989年1月より全規模開発を開始することとなった。	NO_PRONOUNCE	NO_LABEL
P-7はP-3Cの拡大改良型であり、ペイロード量の増大に伴い、主翼も拡大され、全幅も大きくなっている。	NO_PRONOUNCE	NO_LABEL
尾部のMADブームは機外に突き出しておらず、その分、全長は短くなった。	おべのまっどぶーむわきがいにつきだしておらず、そのぶん、ぜんちょーわみじかくなった。	NO_LABEL
アビオニクス機器も近代化される。	あびおにくすききもきんだいかされる。	NO_LABEL
P-7は1992年までに2機の試作機を製造することとなり、量産型は1994年から2001年にかけて125機の製造が計画された。	NO_PRONOUNCE	NO_LABEL
開発費は6億ドルを目標に、最大7.5億ドルとする固定費制とされた。	NO_PRONOUNCE	NO_LABEL
しかし、1989年11月にロッキードは開発が遅延し、試作機の初飛行が2年ほど遅れるのみならず、開発費が3億ドルは超過する見込みであることを発表した。	しかし、せんきゅうひゃくはちじゅうきゅうねんじゅーいちがつにろっきーどわかいはつがちえんし、しさくきのはつひこーがにねんほどおくれるのみならず、かいはつひがさんおくどるわちょーかするみこみであることをはっぴょーした。	NO_LABEL
この開発費超過に加え、冷戦が終結したこともあり、1990年7月に開発は中止された。	このかいはつひちょーかにくわえ、れいせんがしゅーけつしたこともあり、せんきゅうひゃくきゅうじゅうねんしちがつにかいはつわちゅーしされた。	NO_LABEL
開発機器の一部については、P-3Cの近代化改修の参考にされている。	かいはつききのいちぶについてわ、ぴいさんしーのきんだいかかいしゅーのさんこーにされている。	NO_LABEL
イギリスのBAE ニムロッドMR2の後継機とする案もあったが、これも中止された。	NO_PRONOUNCE	NO_LABEL
