キス・アンド・クライは、フィギュアスケート競技会で競技後、選手とコーチが採点結果の発表を待つために、スケートリンク脇に設置された小さなスペース。	きすあんどくらいわ、ふぃぎゅあすけーときょーぎかいできょーぎご、せんしゅとこーちがさいてんけっかのはっぴょーをまつために、すけーとりんくわきにせっちされたちーさなすぺーす。	NO_LABEL
選手とコーチは、しばしば良い演技をした後に、それを祝うために接吻をしたり、失意の涙を流したりするので、その名前が付けられた。	せんしゅとこーちわ、しばしばよいえんぎをしたのちに、それをいわうためにせっぷんをしたり、しついのなみだをながしたりするので、そのなまえがつけられた。	NO_LABEL
この場所は、通常、リンクの角または端に位置し、スケーター及びコーチが競技結果を見る為のモニターが設置されており、ベンチまたは椅子が備えられている。	このばしょわ、つーじょー、りんくのつのまたわはしたにいちし、すけーたーおよびこーちがきょーぎけっかをみるためのもにたーがせっちされており、べんちまたわいすがそなえられている。	NO_LABEL
テレビ中継や報道機関の写真撮影のために、花やその他で装飾されていることが多い。	てれびちゅーけいやほーどーきかんのしゃしんさつえいのために、はなやそのたでそーしょくされていることがおーい。	NO_LABEL
1983年にヘルシンキで開催された世界フィギュアスケート選手権で大会組織委員であったフィンランドのフィギュアスケート役員ジェーン・エルコが、イベントに先立ってテレビ局の技術者とともにアリーナを訪れた際に、その技術者にこの場所を何と呼べばいいのかと言われた。	NO_PRONOUNCE	NO_LABEL
そのときに、エルコが”キス・アンド・クライ”と名付けた。	NO_PRONOUNCE	NO_LABEL
オリンピックでは、1984年のサラエボオリンピックで公式の待機場所が登場した。	おりんぴっくでわ、せんきゅうひゃくはちじゅうよねんのさらえぼおりんぴっくでこーしきのたいきばしょがとーじょーした。	NO_LABEL
「キス・アンド・クライ」という言葉は1990年代初めから広く使われていたが、国際スケート連盟規則でも公式に使用されている。	NO_PRONOUNCE	NO_LABEL
アメリカとその他の各国のスケート連盟は、待機中の振る舞いをスケーターに指導している。	あめりかとそのたのかっこくのすけーとれんめいわ、たいきちゅーのふるまいをすけーたーにしどーしている。	NO_LABEL
いくつかの体操競技でも「キス・アンド・クライ」という言葉が使われている。	NO_PRONOUNCE	NO_LABEL
