「REBORN」は、2017年9月13日に発売された山下達郎通算50作目のシングル。	NO_PRONOUNCE	NO_LABEL
通算50枚目のシングルとなる本作のタイトル・トラックは、東野圭吾の同名ベストセラー小説を廣木隆一監督が実写化した映画『ナミヤ雑貨店の奇蹟』の主題歌として書き下ろされた曲。	NO_PRONOUNCE	NO_LABEL
原作に登場する「再生」と名付けられた楽曲を具現化してほしいという映画スタッフからの依頼を受け制作されたもので、1か月半もの時間をかけて「REBORN」を書いた山下は「映画の主題歌の仕事は、これまで何度も担当させていただきましたが、今回はその中でも一・二を争う難しい注文でした」と明かし、「テーマは“死生観”です。	NO_PRONOUNCE	NO_LABEL
人はどこから来てどこへ行くのかという、根源的な問いに思いをはせていただくことで、映画のストーリーと併走し、盛り立てることができるのではと思っています」とコメントを寄せた。	NO_PRONOUNCE	NO_LABEL
また、廣木は「映画の主題を掬い取った静かで、力強く、そして優しく、見つめてくれた名曲だと思いました」と語っている。	NO_PRONOUNCE	NO_LABEL
また、本作には劇中で門脇麦演じるセリが歌う「REBORN」も併せて収録。	NO_PRONOUNCE	NO_LABEL
こちらは山下のオリジナルとはアレンジが異なり、アコースティック・ギターを基調としたサウンドに、門脇の透明感のある歌声が乗り、シンプルながらも楽曲の良さを心地よく感じられる楽曲となっている。	こちらわやましたのおりじなるとわあれんじがことなり、あこーすてぃっくぎたーをきちょーとしたさうんどに、かどわきのとーめいかんのあるうたごえがのり、しんぷるながらもがっきょくのよさをここちよくかんじられるがっきょくとなっている。	NO_LABEL
なお、山下達郎の作品に竹内まりやをのぞいた他者が歌う音源が収録されるのは本作が初めてとなる。	なお、やましたたつろーのさくひんにたけうちまりやをのぞいたたしゃがうたうおんげんがしゅーろくされるのわもとさくがはじめてとなる。	NO_LABEL
さらに、本作にはハーモニカとアコースティック・ギターによる“Harmonica Version”も収録。	NO_PRONOUNCE	NO_LABEL
アレンジおよび演奏で続木力と共に参加した葉山たけしによれば、山下からではなく映画プロデューサーからのオファーだったとツイートしている。	あれんじおよびえんそーでつずきりきとともにさんかしたはやまたけしによれば、やましたからではなくえいがぷろでゅーさーからのおふぁーだったとついーとしている。	NO_LABEL
各CDショップ、またはEコマースでの購入者に、先着で特典応募券付“CDサイズ”ジャケット絵柄ステッカーがプレゼントされ、ステッカー下部の特典応募券をハガキに貼って応募すると、抽選で更に特典がプレゼントされた。	NO_PRONOUNCE	NO_LABEL
ミュージックビデオは、本作監督である廣木隆一が撮影を手掛け、映画にも出演している門脇麦を起用。	みゅーじっくびでおわ、もとさくかんとくであるひろきりゅーいちがさつえいをてがけ、えいがにもしゅつえんしているかどわきむぎをきよー。	NO_LABEL
亡くなった父親との思い出を噛みしめながら、父親への感謝を胸に前向きに生きようとする一人の女性を主人公に、映画、そして楽曲のテーマである、時代を超えて受け継がれる“想い”が表現された映像作品となっている。	NO_PRONOUNCE	NO_LABEL
MVの撮影は8月上旬に富士山にて行われたが、当日は奇しくも門脇麦の誕生日だったという。	えむぶいのさつえいわはちがつじょーじゅんにふじさんにておこなわれたが、とーじつわくしくもかどわきむぎのたんじょーびだったという。	NO_LABEL
併せて、劇中で門脇が演じるセリが歌う同曲のミュージックビデオも制作、同時公開された。	あわせて、げきちゅーでかどわきがえんじるせりがうたうどーきょくのみゅーじっくびでおもせいさく、どーじこーかいされた。	NO_LABEL
こちらも廣木がメガホンをとった作品で、劇中でも使用されるライブシーンや、海辺でのバレエダンスシーンを中心に再構成されたもの。	こちらもひろきがめがほんをとったさくひんで、げきちゅーでもしよーされるらいぶしーんや、うみべでのばれえだんすしーんをちゅーしんにさいこーせいされたもの。	NO_LABEL
日本を代表するミュージシャンに成長したセリが、恩人への思いを込めて「REBORN」を歌う姿が胸を打つ映像に仕上がっている。	NO_PRONOUNCE	NO_LABEL
Warner Music Japan	NO_PRONOUNCE	NO_LABEL
