クニーンは、チェコ南部南ボヘミア州の村である。	くにーんわ、ちぇこなんぶみなみぼへみあしゅーのむらである。	NO_LABEL
西部に隣接するコチーンなどと共に基礎自治体テメリーンを形成している。	せいぶにりんせつするこちーんなどとともにきそじちたいてめりーんをけいせいしている。	NO_LABEL
村の面積はほど。	むらのめんせきわほど。	NO_LABEL
人口は3人である。	じんこーわさんにんである。	NO_LABEL
歴史上、クニーンの記録は1367年より存在している。	れきしじょー、くにーんのきろくわせんさんびゃくろくじゅうななねんよりそんざいしている。	NO_LABEL
村には14世紀からの歴史を持つがあり、文化財として観光資源になっている。	むらにわじゅうよんせいきからのれきしをもつがあり、ぶんかざいとしてかんこーしげんになっている。	NO_LABEL
