長電建設株式会社は、長野県長野市に本社を置く建設会社。	ながでんけんせつかぶしきがいしゃわ、ながのけんながのしにほんしゃをおくけんせつかいしゃ。	NO_LABEL
ながでんグループの傘下企業であり、長野電鉄の完全子会社である。	ながでんぐるーぷのさんかきぎょーであり、ながのでんてつのかんぜんこがいしゃである。	NO_LABEL
ながでんハウス・BESS長野・セルコホーム長野中央の3ブランドで住宅建設・分譲を取り扱うほか、公共建築・土木・電設工事なども請け負う。	NO_PRONOUNCE	NO_LABEL
鉄道系の建設会社らしく、鉄道の軌道・架線工事なども行う。	NO_PRONOUNCE	NO_LABEL
善光寺下駅前にある本社ビルの上層階は、女性専用マンション「コリーヌ善光寺下」として賃貸されている。	NO_PRONOUNCE	NO_LABEL
