大連科技学院は、中国遼寧省大連市旅順口区に存在する大学である。	だいれんかぎがくいんわ、ちゅーごくりょーねいしょーだいれんりょじゅんこうくにそんざいするだいがくである。	NO_LABEL
2002年7月に遼寧省教育部の認可で大連鉄道学院の情報技術学部として始まり、2003年12月に教育部の認可で大連鉄道学院と大連陽光世紀集団の共同投資の独立学院となった。	にせんにねんしちがつにりょーねいしょーきょーいくぶのにんかでたいれんてつどーがくいんのじょーほーぎじゅつがくぶとしてはじまり、にせんさんねんじゅーにがつにきょーいくぶのにんかでたいれんてつどーがくいんとたいれんよーこーせいきしゅーだんのきょーどーとーしのどくりつがくいんとなった。	NO_LABEL
2011年には完全に独立して大連科技学院と改名している。	にせんじゅういちねんにわかんぜんにどくりつしてだいれんかぎがくいんとかいめいしている。	NO_LABEL
現在、機械工学系、電気工学系、信息科学系、管理工程系、外語系、芸術系、交通運輸系、軟件技術学院などの学部がある。	げんざい、きかいこーがくけい、でんきこーがくけい、しんそくかがくけい、かんりこーていけい、がいごけい、げいじゅつけい、こーつーうんゆけい、なんけんぎじゅつがくいんなどのがくぶがある。	NO_LABEL
中国全土から入学しており、学生数は約7000人。	ちゅーごくぜんどからにゅーがくしており、がくせいすーわやくななせんにん。	NO_LABEL
国際合作・交流学院では、アメリカオハイオ州のライト州立大学などとの交流が盛んである。	NO_PRONOUNCE	NO_LABEL
職員宿舎兼中国語文化センター「大連国際陽光書香院」があり、海外、特に日本で定年退職後に留学し、短・長期滞在する「老人大学」を2005年から2013年にかけて開催していたが、現在は休止している。	NO_PRONOUNCE	NO_LABEL
日本人が滞在していた居住スペースは、現在では学生の寮になっている。	にっぽんじんがたいざいしていたきょじゅーすぺーすわ、げんざいでわがくせいのりょーになっている。	NO_LABEL
住所は、編碼115062 大連市旅順経済開発区濱港路999-26号、電話は0411-8624-5011。	NO_PRONOUNCE	NO_LABEL
軽軌202路延伸線の旅順開発区管理委員会バス停または旅順バスステーションから、大連旅順公共バス18路に乗って、信息学院バス停で下車。	NO_PRONOUNCE	NO_LABEL
