YF-1はNOとUDMHをガス発生器サイクルで燃焼する中華人民共和国の液体燃料ロケットエンジンである。	NO_PRONOUNCE	NO_LABEL
基本的なモジュールとして4基を束ねてYF-2として使用される。	NO_PRONOUNCE	NO_LABEL
それを基本として高高度用に開発された型式はYF-3として知られる。	NO_PRONOUNCE	NO_LABEL
複数の著者はOKB-2のイザエフによって開発されたС.2.1100/С.2.1150 La-350ブースターエンジンの模倣だったと見做す。	NO_PRONOUNCE	NO_LABEL
 エンジン開発で燃焼の安定と長時間の信頼性のある燃焼で大きなトラブルがあり、開発が難航したことが知られる。	えんじんかいはつでねんしょーのあんていとちょーじかんのしんらいせいのあるねんしょーでおーきなとらぶるがあり、かいはつがなんこーしたことがしられる。	NO_LABEL
原型のエンジンは東風3号ロケット以降で使用され、人工衛星打上げ機の長征1号で主推進に使用された。	げんけいのえんじんわこちさんごーろけっといこーでしよーされ、じんこーえいせいうちあげきのちょーせいいちごーでしゅすいしんにしよーされた。	NO_LABEL
原型のエンジンは複数台で使用されるが、ブースターの用途で単体のエンジンのみが使用される。	げんけいのえんじんわふくすーだいでしよーされるが、ぶーすたーのよーとでたんたいのえんじんのみがしよーされる。	NO_LABEL
通常は複数台のエンジンがモジュール内でまとめて使用される。	つーじょーわふくすーだいのえんじんがもじゅーるないでまとめてしよーされる。	NO_LABEL
関連するモジュールが1段目で使用された。	NO_PRONOUNCE	NO_LABEL
:	NO_PRONOUNCE	NO_LABEL
