鎮西 尚一は、日本の映画監督である。	ちんぜいしょーいちわ、にっぽんのえいがかんとくである。	NO_LABEL
1957年、鹿児島県奄美大島に生まれる。	せんきゅうひゃくごじゅうしちねん、かごしまけんあまみおーしまにうまれる。	NO_LABEL
中央大学文学部フランス文学科卒業。	ちゅーおーだいがくぶんがくぶふらんすぶんがくかそつぎょー。	NO_LABEL
1990年に『パンツの穴 キラキラ星みつけた!』を監督し、2009年に『熟女 淫らに乱れて』を監督する。	NO_PRONOUNCE	NO_LABEL
1995年にアテネ・フランセ文化センターで開かれた「鎮西尚一特集」に際して、黒沢清によって、日本で唯一「最初からほとんど本能的に」「奇抜さと親しみやすさ、知性と不良性、商業主義と芸術至上主義」を兼ね備えた作家である、と評された。	NO_PRONOUNCE	NO_LABEL
