Microsoft ASP.NET SignalRはマイクロソフトのDavid Fowlerが中心となり開発が行われている、ASP.NETにリアルタイム・ウェブ機能を追加するためのライブラリである。	NO_PRONOUNCE	NO_LABEL
SignalRはサーバサイドからクライアントのブラウザのJavaScriptによるコードを呼び出しリアルタイム・ウェブを実現するために開発された。	NO_PRONOUNCE	NO_LABEL
これらの機能は以下に示すような複数の通信手段で実装されている。	これらのきのーわいかにしめすよーなふくすーのつーしんしゅだんでじっそーされている。	NO_LABEL
これによりWebSocketがサポートされないブラウザからはWebSocket以外の選択肢を用いてリアルタイム通信を実現できる。	これによりうぇぶそけっとがさぽーとされないぶらうざからわうぇぶそけっといがいのせんたくしをもちいてりあるたいむつーしんをじつげんできる。	NO_LABEL
これらはライブラリにより最適な通信手段が選択されるため、デベロッパが設定を行う必要はない。	これらわらいぶらりによりさいてきなつーしんしゅだんがせんたくされるため、でべろっぱがせっていをおこなうひつよーわない。	NO_LABEL
2012年11月にASP.NETの一部となることが David Fowler のブログにより発表され、これに伴い直前のバージョンからパッケージ構成が変更された。	NO_PRONOUNCE	NO_LABEL
これらは ASP.NET 2012 Fall UpdateからRCとして提供され、マイクロソフトによるオフィシャルサポートが開始されている。	NO_PRONOUNCE	NO_LABEL
なお、ASP.NET and Web Tools 2012.2 により正式製品となる SignalR 1.0.0 がリリースされた。	NO_PRONOUNCE	NO_LABEL
このサンプルは2つのテキスト ボックスに入力された値を全てのクライアントに対して配信している。	このさんぷるわふたつのてきすとぼっくすににゅーりょくされたちをすべてのくらいあんとにたいしてはいしんしている。	NO_LABEL
