『海賊戦隊ゴーカイジャーVSスーパー戦隊』は、2011年4月6日に日本コロムビアから発売されたスーパー戦隊シリーズのミニアルバム。	NO_PRONOUNCE	NO_LABEL
スーパー戦隊シリーズの35作目『海賊戦隊ゴーカイジャー』を記念して、2011年4月6日に日本コロムビアから発売された。	NO_PRONOUNCE	NO_LABEL
30作目『轟轟戦隊ボウケンジャー』から35作目『海賊戦隊ゴーカイジャー』までの6作のオープニングテーマが収録されている。	NO_PRONOUNCE	NO_LABEL
担当歌手はすべてProject.Rのメンバーである。	たんとーかしゅわすべてぷろじぇくとあーるのめんばーである。	NO_LABEL
