昨日過去とは、一部の言語に見られる過去時制のひとつで、発話の時点から見て文化的に昨日とされる時点を表すものである。	きのーかことわ、いちぶのげんごにみられるかこじせいのひとつで、はつわのじてんからみてぶんかてきにきのーとされるじてんをあらわすものである。	NO_LABEL
言語類型論などで使われる。	げんごるいけいろんなどでつかわれる。	NO_LABEL
過去の時制に対して、比較的最近の過去を示す近過去とより前の過去を示す遠過去を区別する言語は多いが、より詳細に区別する言語もある。	かこのじせいにたいして、ひかくてきさいきんのかこをしめすちかかことよりまえのかこをしめすとーかこをくべつするげんごわおーいが、よりしょーさいにくべつするげんごもある。	NO_LABEL
バントゥー語群に属するハヤ語では、過去の時制が明瞭に三つに分けられる。	ばんとぅーごぐんにぞくするはやごでわ、かこのじせいがめいりょーにみっつにわけられる。	NO_LABEL
今日の早い時期の過去を示す今日過去昨日の過去を示す近過去または昨日過去、さらに前の過去を示す遠過去である。	きょーのはやいじきのかこをしめすきょーかこきのーのかこをしめすちかかこまたわきのーかこ、さらにまえのかこをしめすとーかこである。	NO_LABEL
三つより多くの区別を持つ言語もある。	みっつよりおーくのくべつをもつげんごもある。	NO_LABEL
未来の時制についても同様の現象が見られる。	みらいのじせいについてもどーよーのげんしょーがみられる。	NO_LABEL
「昨日過去」を表す英語の hesternal は、ラテン語で「昨日」を意味する hesternus に由来する形容詞である。	NO_PRONOUNCE	NO_LABEL
英語の yesterday の yester も同じ語源を持つ。	NO_PRONOUNCE	NO_LABEL
