4TPとは、第二次世界大戦時のポーランド製軽戦車である。	NO_PRONOUNCE	NO_LABEL
4TPはTK豆戦車シリーズの更新用に開発された軽戦車である。	NO_PRONOUNCE	NO_LABEL
1930年代初頭に開発されたTK豆戦車シリーズには、回転砲塔が無いという欠点があり、より強力な武装を搭載することも求められたことから、1932年9月に、ヴィッカース・カーデン・ロイド4t軽偵察戦車や水陸両用戦車や砲兵トラクターのデモンストレーションがポーランド国内で行われ、1933年5月に、5輌の4t軽偵察戦車と1輌の研究用の水陸両用戦車の購入が提案されたが、予算不足から進展せず、類似の車輌を国産開発することが決定された。	NO_PRONOUNCE	NO_LABEL
TKに砲塔を搭載したTKWの試みが失敗したことから、1935年に、PZInżにて、部品を共用する、4t軽偵察戦車「PZInż 140」と水陸両用戦車「PZInż.130」を、新たに開発することになった。	NO_PRONOUNCE	NO_LABEL
1936年12月16日に「PZInż 140」の設計は完了した。	NO_PRONOUNCE	NO_LABEL
特色として、車体左側に寄せて配置された軽量砲塔があげられ、他にトーションバーサスペンションを採用していた。	とくしょくとして、しゃたいひだりがわによせてはいちされたけいりょーほーとーがあげられ、たにとーしょんばーさすぺんしょんをさいよーしていた。	NO_LABEL
動力は、砲塔の横、車体右側に配置された、このクラスの戦車の中では比較的高性能な、ポーランドで設計された、出力70KwのPZInż.425 V型8気筒エンジンによってもたらされた。	NO_PRONOUNCE	NO_LABEL
「PZInż 140」の製造は1936年に行われた。	NO_PRONOUNCE	NO_LABEL
また140輌が生産に取りかかった。	NO_PRONOUNCE	NO_LABEL
しかしドイツによるポーランドへの急襲を前にして試作車輌だけが製造終了し、おそらく実戦は経験していない。	しかしどいつによるぽーらんどえのきゅーしゅーをまえにしてしさくしゃりょーだけがせいぞーしゅーりょーし、おそらくじっせんわけいけんしていない。	NO_LABEL
4TPの車体を基にして、水陸両用戦車「PZInż.130」が開発されたものの、1939年9月の段階でも開発中であった。	NO_PRONOUNCE	NO_LABEL
両車の製造は、1930年代後期に計画された、ポーランドの野心的な戦車軍備拡張計画の一部であり、第二次世界大戦の勃発によって遮られることとなった。	りょーくるまのせいぞーわ、せんきゅうひゃくさんじゅうねんだいこーきにけいかくされた、ぽーらんどのやしんてきなせんしゃぐんびかくちょーけいかくのいちぶであり、だいにじせかいたいせんのぼっぱつによってさえぎられることとなった。	NO_LABEL
