THE SODOM PROJECTは日本のロックバンド。	NO_PRONOUNCE	NO_LABEL
1982年にボーカルのZAZIEが中心となって結成された。	せんきゅうひゃくはちじゅうにねんにぼーかるのざじがちゅーしんとなってけっせいされた。	NO_LABEL
2009年の復活まではSODOMというバンド表記であった。	NO_PRONOUNCE	NO_LABEL
ボーカルZAZIEを中心に1982年6月に結成。	ぼーかるざじをちゅーしんにせんきゅうひゃくはちじゅうにねんろくがつにけっせい。	NO_LABEL
結成初期はハードコアパンク、その後1985年にインダストリアル、ニューウェイヴと、1986年の6月に活動停止するまで、その音楽性を変え続けた。	NO_PRONOUNCE	NO_LABEL
変則的なリズム・アレンジとZAZIEの重苦しいヴォーカルを中心とした個性的なサウンド・スタイルで人気を集めた。	NO_PRONOUNCE	NO_LABEL
1985年にアルバム『T.V.MURDER』をリリース。	NO_PRONOUNCE	NO_LABEL
1986年に一度活動を休止するが、1987年に活動再開した際には当時珍しいダンスパンクというジャンルをバンドに取り入れ、1988年に福富幸宏をメンバーに迎えハウス・ミュージックバンドとして復活し、アルバム『King Of House』をリリース。	NO_PRONOUNCE	NO_LABEL
1991年にアルバム『Sodom』でアルファレコードからメジャーデビューした。	NO_PRONOUNCE	NO_LABEL
かつてはトランスレコードからもリリースしており、ASYLUM、Z.O.Aと共にトランスレコード御三家と呼ばれた。	かつてわとらんすれこーどからもりりーすしており、あさいらむ、ぞあとともにとらんすれこーどごさんけとよばれた。	NO_LABEL
AUTO-MODのGENET率いるテレグラフ傘下のWECHSELBALGからも数作リリースをしており、同バンドが主催したシリーズギグ『時の葬列』にも参加している。	NO_PRONOUNCE	NO_LABEL
1991年2月18日に新宿LOFTのライブで解散したが、2007年2月18日に新宿LOFTのライブで16年振りに活動を再開した、2009年10月18日の新宿LOFTにおけるイベント『DRIVE TO 2010』において、THE SODOM PROJECTとして再度復活し、De+LAX、MADAME EDWARDA、メトロファルスと共演を果たした。	NO_PRONOUNCE	NO_LABEL
2007年再結成時	にせんななねんさいけっせいとき	NO_LABEL
