篠崎 年子は日本の政治家。	しのざきとしこわにっぽんのせいじか。	NO_LABEL
元参議院議員。	もとさんぎーんぎーん。	NO_LABEL
元長崎県議会議員。	もとながさきけんぎかいぎーん。	NO_LABEL
長崎県佐世保市生まれ。	ながさきけんさせぼしうまれ。	NO_LABEL
1931年、佐世保市立大久保小学校卒業、1935年、佐世保高等女学校卒業後、教職をめざし、長崎県女子師範学校入学。	せんきゅうひゃくさんじゅういちね、させぼしりつおーくぼしょうがっこーそつぎょー、せんきゅうひゃくさんじゅうごねん、させぼこーとーじょがっこーそつぎょーご、きょーしょくをめざし、ながさきけんじょししはんがっこーにゅーがく。	NO_LABEL
1937年に卒業後、佐世保市立吉井南小学校、佐世保市立白南風小学校、佐世保市立光園小学校、佐世保市立大久保小学校などで勤務。	せんきゅうひゃくさんじゅうななねにそつぎょーご、させぼしりつよしーみなみしょうがっこー、させぼしりつしらはえしょうがっこー、させぼしたちこーえんしょーがっこー、させぼしりつおーくぼしょうがっこーなどできんむ。	NO_LABEL
1941年、教師と結婚。	せんきゅうひゃくよんじゅういちね、きょーしとけっこん。	NO_LABEL
夫の校長就任と同時に退職。	おっとのこーちょーしゅーにんとどーじにたいしょく。	NO_LABEL
その後、夫が49歳で死去したため、1963年、復職した。	そのご、おっとがよんじゅうきゅうさいでしきょしたため、せんきゅうひゃくろくじゅうさんねん、ふくしょくした。	NO_LABEL
1971年、佐世保市議会議員選挙に立候補し、初当選。	せんきゅうひゃくななじゅういちねん、させぼしぎかいぎーんせんきょにりっこーほし、はつとーせん。	NO_LABEL
以後、3期連続当選。	いご、さんきれんぞくとーせん。	NO_LABEL
1983年、長崎県議会議員選挙初当選。	せんきゅうひゃくはちじゅうさんねん、ながさきけんぎかいぎーんせんきょはつとーせん。	NO_LABEL
1989年、第15回参議院議員通常選挙で日本社会党公認として長崎県選挙区から立候補し、自由民主党現職の宮島滉を破り、初当選。	せんきゅうひゃくはちじゅうきゅうねん、だいじゅうごかいさんぎーんぎーんつーじょーせんきょでにっぽんしゃかいとーこーにんとしてながさきけんせんきょくからりっこーほし、じゆーみんしゅとーげんしょくのみやじまひろしをやぶり、はつとーせん。	NO_LABEL
1995年、第17回参議院議員通常選挙には立候補せず、政界から引退。	せんきゅうひゃくきゅうじゅうごねん、だいじゅうななかいさんぎーんぎーんつーじょーせんきょにわりっこーほせず、せいかいからいんたい。	NO_LABEL
2017年10月6日、胃がんのため長崎県佐世保市内の病院で死去。	にせんじゅうななねんじゅーがつむいか、いがんのためながさきけんさせぼしないのびょーいんでしきょ。	NO_LABEL
99歳没。	きゅうじゅうきゅうさいぼつ。	NO_LABEL
