加藤 紀子は、日本の女優、タレント。	かとーのりこわ、にっぽんのじょゆー、たれんと。	NO_LABEL
本名:川辺紀子。	NO_PRONOUNCE	NO_LABEL
三重県鈴鹿市出身。	みえけんすずかししゅっしん。	NO_LABEL
ジェイピィールーム所属。	じぇいぴぃーるーむしょぞく。	NO_LABEL
東京都立代々木高等学校卒業。	とーきょーとりつよよぎこーとーがっこーそつぎょー。	NO_LABEL
1991年、アイドルグループ「桜っ子クラブさくら組」の一員としてテレビ朝日系『桜っ子クラブ』に出演。	NO_PRONOUNCE	NO_LABEL
同番組が終了した1994年後半から徐々にテレビやラジオ番組への露出が多くなる。	どーばんぐみがしゅーりょーしたせんきゅうひゃくきゅうじゅうよねんこーはんからじょじょにてれびやらじおばんぐみえのろしゅつがおーくなる。	NO_LABEL
特にテレビ東京系で放送していた任天堂一社提供番組は約5年に渡って渡辺徹と共に司会を務め、当時の子供たちにも人気を博した。	とくにてれびとーきょーけいでほーそーしていたにんてんどーいっしゃていきょーばんぐみわやくごねんにわたってわたなべとーるとともにしかいをつとめ、とーじのこどもたちにもにんきをはくした。	NO_LABEL
1992年7月25日、シングル「今度私どこか連れていって下さいよ」で歌手デビュー。	NO_PRONOUNCE	NO_LABEL
中断していた時期もあったものの、2005年までにアップフロントワークスからシングル9枚、アルバム4枚をリリース。	ちゅーだんしていたじきもあったものの、にせんごねんまでにあっぷふろんとわーくすからしんぐるきゅうまい、あるばむよんまいをりりーす。	NO_LABEL
2000年からフランスへ語学留学したため、芸能活動を休業していたが、1994年から1999年の最終回まで出演していた日本テレビ系クイズ番組『マジカル頭脳パワー!!』の復活スペシャル出演のため、2001年末に途中帰国。	NO_PRONOUNCE	NO_LABEL
2002年春に留学を終え、芸能界へ復帰。	にせんにねんはるにりゅーがくをおえ、げいのーかいえふっき。	NO_LABEL
帰国後は、留学前のようなバラエティ番組への出演は減ったが、ラジオやインターネットに活動の場を置いている。	きこくごわ、りゅーがくまえのよーなばらえてぃばんぐみえのしゅつえんわへったが、らじおやいんたーねっとにかつどーのばをおいている。	NO_LABEL
所属事務所を同じくするハロー!プロジェクト関連の仕事も多い。	しょぞくじむしょをどうじくするはろーぷろじぇくとかんれんのしごともおーい。	NO_LABEL
2005年12月27日、11歳年上のクリエイティブ・ディレクター、若槻善雄との結婚を発表。	にせんごねんじゅーにがつにじゅうしちにち、じゅういっさいとしうえのくりえいてぃぶでぃれくたー、わかつきよしおとのけっこんをはっぴょー。	NO_LABEL
2006年1月1日に婚姻届を提出。	にせんろくねんいちがつついたちにこんいんとどけをていしゅつ。	NO_LABEL
2010年4月15日、若槻と離婚。	にせんじゅうねんしがつじゅうごにち、わかつきとりこん。	NO_LABEL
2013年3月3日、TOKYO No.1 SOUL SETの川辺ヒロシと2度目の結婚。	にせんじゅうさんねんさんがつみっか、とーきょーなんばーわんそうるせっとのかわなべひろしとにどめのけっこん。	NO_LABEL
フレンチポップスに造詣が深く、フランス留学のきっかけになるほど。	ふれんちぽっぷすにぞーけいがふかく、ふらんすりゅーがくのきっかけになるほど。	NO_LABEL
自身も2005年のアルバムで本格的にフレンチポップスの名作をカバーしている。	じしんもにせんごねんのあるばむでほんかくてきにふれんちぽっぷすのめいさくをかばーしている。	NO_LABEL
ライブではギター、パーカッションという少人数編成で、自身もピアニカを演奏することもある。	らいぶでわぎたー、ぱーかっしょんとゆうしょーにんずーへんせいで、じしんもぴあにかをえんそーすることもある。	NO_LABEL
ホフディラン、スチャダラパー、フランスのミュージシャンではマチュー・ボガートなどと交流がある。	NO_PRONOUNCE	NO_LABEL
