李侗は、中国・南宋時代の儒学者。	NO_PRONOUNCE	NO_LABEL
字は愿中、諡は文靖。	じわすなおちゅー、おくりなわぶんやすし。	NO_LABEL
号は延平。	ごーわのぶひら。	NO_LABEL
南剣州剣浦の出身。	みなみつるぎしゅーつるぎうらのしゅっしん。	NO_LABEL
14歳の時に、同じ郡にいた羅従彦が宋学の大家である楊時より程氏の学を承けたと聞いて弟子となり、学問を究めて従彦が賞賛するほどになった。	じゅうよんさいのときに、おなじぐんにいたらじゅうげんがそーがくのおーやであるようじよりほどしのがくをうけたときいてでしとなり、がくもんをきわめてよりひこがしょーさんするほどになった。	NO_LABEL
後に山田に住居を定め、40年間も世間との交わりを絶って一心に学問に精進した。	ごにやまだにじゅーきょをさだめ、よんじゅうねんかんもせけんとのまじわりをたっていっしんにがくもんにしょーじんした。	NO_LABEL
宋学を大成した朱熹は弟子である。	そーがくをたいせいしたしゅきわでしである。	NO_LABEL
世は延平先生と称し、71歳で没する。	よわのぶひらせんせいとしょーし、ななじゅういっさいでぼっする。	NO_LABEL
明代の万暦年間に孔子廟に従祀された。	NO_PRONOUNCE	NO_LABEL
著に『延平問答』と『語録』がある。	NO_PRONOUNCE	NO_LABEL
また清代の張敬菴が編纂した『李延平集』4巻があり、問答の他に詩文を載せている。	NO_PRONOUNCE	NO_LABEL
