洞水寺は、長野県松本市入山辺千手にある寺院である。	とうすいじわ、ながのけんまつもとしいりやまべせんずにあるじいんである。	NO_LABEL
千手観音が祀られ、信州筑摩三十三カ所観音霊場4番や、信濃百番の観音霊場に数えられていた。	せんじゅかんのんがまつられ、しんしゅーちくまさんじゅーさんかしょかんのんれいじょーよんばんや、しなのひゃくばんのかんのんれいじょーにかぞえられていた。	NO_LABEL
明治・大正期にかけて参詣者が多く、当時は2棟の建物があったという。	NO_PRONOUNCE	NO_LABEL
現在は観音堂一宇とみたらしの池が残るのみである。	げんざいわかんのんどーいちうとみたらしのいけがのこるのみである。	NO_LABEL
大イチョウは、長野県指定天然記念物になっているが、現在では樹勢が弱り根元から出た木を生かす保存対策が取られている。	だいいちょーわ、ながのけんしていてんねんきねんぶつになっているが、げんざいでわじゅせいがよわりねもとからでたきをいかすほぞんたいさくがとられている。	NO_LABEL
かつての大樹では、枝の途中から乳房のように気根を垂らしていたので、乳の出の少ない母親も祈願によって乳の出が豊かになると信じられて参拝者が多く、イチョウの周りには石仏が十数体奉納されている。	かつてのたいじゅでわ、えだのとちゅーからちぶさのよーにきこんをたらしていたので、ちちのしゅつのすくないははおやもきがんによってちちのしゅつがゆたかになるとしんじられてさんぱいしゃがおーく、いちょーのまわりにわいしぼとけがじゅーすーたいほーのーされている。	NO_LABEL
この石仏の中には、元禄の年号が刻まれたものもある。	このいしぼとけのなかにわ、げんろくのねんごーがきざまれたものもある。	NO_LABEL
文献によっては、「東水寺」とするものもある。	NO_PRONOUNCE	NO_LABEL
1806年、洞水寺の脇にある千手の池の清泉が突然濁り始め、災いの前触れではないかと村人たちが騒いだ。	せんはっぴゃくろくねん、とうすいじのわきにあるせんずのいけのきよいずみがとつぜんにごりはじめ、わざわいのまえぶれでわないかとむらびとたちがさわいだ。	NO_LABEL
信心深い老婆が参詣し、池に花紙を垂らすと、そこに観音の姿が映った。	しんじんふかいろーばがさんけいし、いけにはなしをたらすと、そこにかんのんのすがたがうつった。	NO_LABEL
千手の池は、体に不自由な所がある人や難病の人の回復に霊験があるという噂が広まり、参詣人が増えた。	せんずのいけわ、からだにふじゆーなところがあるひとやなんびょーのひとのかいふくにれいけんがあるとゆううわさがひろまり、さんけいじんがふえた。	NO_LABEL
夜通しの参篭をする人が500人も出るほどで、参拝者の列が続き、道筋の桐原などには、参詣人を当てこんだ臨時の店が並んだ。	よどーしのさんろーをするひとがごひゃくにんもでるほどで、さんぱいしゃのれつがつずき、みちすじのきりはらなどにわ、さんけいじんをあてこんだりんじのみせがならんだ。	NO_LABEL
千手の池は、北向観音堂の西北にあり、円形で、差渡し約2メートルである。	NO_PRONOUNCE	NO_LABEL
池の水は霊水であると考えられ、味噌の醸造に用いれば腐敗したり仕損たりしないと言われた。	いけのみずわれいすいであるとかんがえられ、みそのじょーぞーにもちいればふはいしたりつかまつそんたりしないといわれた。	NO_LABEL
1965年当時でも、かなり遠隔地からこの水を求めに来る向きがなお存在した。	せんきゅうひゃくろくじゅうごねんとーじでも、かなりえんかくちからこのみずをもとめにくるむきがなおそんざいした。	NO_LABEL
