人吉球磨スマートインターチェンジは、熊本県人吉市に建設中の九州自動車道のスマートインターチェンジである。	ひとよしくますまーといんたーちぇんじわ、くまもとけんひとよししにけんせつちゅーのきゅーしゅーじどーしゃどーのすまーといんたーちぇんじである。	NO_LABEL
1989年から1995年まで仮供用されていた人吉仮出入口の跡地を一部踏襲する形で建設される。	せんきゅうひゃくはちじゅうきゅうねんからせんきゅうひゃくきゅうじゅうごねんまでかりきょーよーされていたひとよしかりでいりぐちのあとちをいちぶとーしゅーするかたちでけんせつされる。	NO_LABEL
供用に合わせ、南側に設置されている人吉南バスストップも移転する見通しになっている。	きょーよーにあわせ、みなみがわにせっちされているひとよしみなみばすすとっぷもいてんするみとーしになっている。	NO_LABEL
