『ハイランダー』は、製作：IMAGI ANIMATION STUDIOS LIMITED、アニメーション制作：マッドハウス、監督：川尻善昭、脚本：デイヴィッド・アブラモウィッツによるアクション・SFアニメ映画。	NO_PRONOUNCE	NO_LABEL
アメリカで"Highlander: The Search for Vengeance"の題により2007年6月5日にDVDがリリースされ、7月30日にSci-Fi Channelでテレビ放送が行われた。	NO_PRONOUNCE	NO_LABEL
日本ではディレクターズ・カット版として、ゴー・シネマより2008年7月5日に「HIGHLANDER ハイランダー 〜ディレクターズカット版〜」の題で劇場公開された。	NO_PRONOUNCE	NO_LABEL
近未来。	きんみらい。	NO_LABEL
マンハッタン島は発生もあって、荒れ果てていた。	まんはったんとーわはっせいもあって、あれはてていた。	NO_LABEL
ケルト族のコリン・マクラウドは、ローマの軍人マルカスによって恋人のモーヤを殺され、首を切り落とされぬ限り生き続けるハイランダーとしてよみがえり、かたき討ちの時をうかがっていた。	NO_PRONOUNCE	NO_LABEL
同じころ、地元住民の一人であるダリアは、少年ジョーとともに、不死身の存在となったマルカス率いるシティ軍から新型ウイルスに対抗しうるワクチン奪取計画を実行に移そうとしていた。	おなじころ、じもとじゅーみんのひとりであるだりあわ、しょーねんじょーとともに、ふじみのそんざいとなったまるかすひきいるしてぃぐんからしんがたういるすにたいこーしうるわくちんだっしゅけいかくをじっこーにうつそうとしていた。	NO_LABEL
出会った3人は、マルカスを倒すべくシティ軍への本拠地へと向かった。	であったさんにんわ、まるかすをたおすべくしてぃぐんえのほんきょちえとむかった。	NO_LABEL
