第十六号掃海艇は、日本海軍の掃海艇。	だいじゅーろくごーそーかいていわ、にっぽんかいぐんのそーかいてい。	NO_LABEL
第十三号型掃海艇の4番艦。	だいじゅーさんごーがたそーかいていのよんばんかん。	NO_LABEL
1933年6月20日、三井物産造船部玉工場で起工。	せんきゅうひゃくさんじゅうさんねろくがつはつか、みついぶっさんぞーせんぶだまこーじょーできこー。	NO_LABEL
1934年3月30日進水。	せんきゅうひゃくさんじゅうよねんさんがつさんじゅうにちしんすい。	NO_LABEL
同年9月29日に竣工。	どーねんくがつにじゅうきゅうにちにしゅんこー。	NO_LABEL
第十六号掃海艇と命名され、掃海艇に類別。	だいじゅーろくごーそーかいていとめいめいされ、そーかいていにるいべつ。	NO_LABEL
1937年から1939年まで日中戦争において華中及び華北の作戦に参加。	せんきゅうひゃくさんじゅうななねからせんきゅうひゃくさんじゅうきゅうねんまでにっちゅーせんそーにおいてかちゅーおよびかほくのさくせんにさんか。	NO_LABEL
太平洋戦争では、南方侵攻作戦、船団護衛に従事。	たいへいよーせんそーでわ、なんぽーしんこーさくせん、せんだんごえいにじゅーじ。	NO_LABEL
1943年9月11日、セレベス島マカッサル港外で触雷して沈没。	せんきゅうひゃくよんじゅうさんねくがつじゅういちにち、せれべすとーまかっさるこーがいでさわかみなりしてちんぼつ。	NO_LABEL
同年11月1日に除籍。	どーねんじゅーいちがつついたちにじょせき。	NO_LABEL
