小林 誠は、長野県出身のサッカー選手。	こばやしまことわ、ながのけんしゅっしんのさっかーせんしゅ。	NO_LABEL
北信越フットボールリーグ・サウルコス福井所属。	NO_PRONOUNCE	NO_LABEL
ポジションは、ミッドフィールダー、ディフェンダー。	ぽじしょんわ、みっどふぃーるだー、でぃふぇんだー。	NO_LABEL
アルビレックス新潟の下部組織出身。	あるびれっくすにーがたのかぶそしきしゅっしん。	NO_LABEL
桐蔭横浜大学を経て、2013年よりザスパ草津チャレンジャーズへ加入した。	とういんよこはまだいがくをへて、にせんじゅうさんねんよりざすぱくさつちゃれんじゃーずえかにゅーした。	NO_LABEL
2015年、トップチームのザスパクサツ群馬へ昇格。	にせんじゅうごねん、とっぷちーむのざすぱくさつぐんまえしょーかく。	NO_LABEL
シーズン終了後、契約満了に伴い1年で退団した。	しーずんしゅうりょーご、けいやくまんりょーにともないいちねんでたいだんした。	NO_LABEL
2016年、サウルコス福井へ加入。	にせんじゅうろくねん、さうるこすふくいえかにゅー。	NO_LABEL
0||0||colspan=2|-||0||0||0||0	NO_PRONOUNCE	NO_LABEL
5||0||colspan=2|-||1||0||6||0	NO_PRONOUNCE	NO_LABEL
11||3||colspan=2|-||colspan=2|-||11||3	NO_PRONOUNCE	NO_LABEL
6||2||colspan=2|-||1||0||7||2	NO_PRONOUNCE	NO_LABEL
22||5||colspan=2|-||2||0||24||5	NO_PRONOUNCE	NO_LABEL
