ヘイメル・キャンデラリオは、アメリカ合衆国・ニューヨーク州ニューヨーク出身のプロ野球選手。	NO_PRONOUNCE	NO_LABEL
右投両打。	みぎとーりょーだ。	NO_LABEL
MLB・デトロイト・タイガース所属。	NO_PRONOUNCE	NO_LABEL
にシカゴ・カブスと契約してプロ入り。	にしかごかぶすとけいやくしてぷろいり。	NO_LABEL
に傘下のルーキー級ドミニカン・サマーリーグ・カブス2でプロデビュー。	NO_PRONOUNCE	NO_LABEL
72試合に出場して打率.337・5本塁打・53打点・4盗塁の成績を残した。	NO_PRONOUNCE	NO_LABEL
はA-級ボイシ・ホークスでプレーし、71試合に出場して打率.281・6本塁打・47打点・2盗塁の成績を残した。	NO_PRONOUNCE	NO_LABEL
はA級ケーンカウンティ・クーガーズでプレーし、130試合に出場して打率.256・11本塁打・57打点・1盗塁の成績を残した。	NO_PRONOUNCE	NO_LABEL
はA級ケーンカウンティとA+級デイトナ・カブスでプレーし、2球団合計で135試合に出場して打率.223・11本塁打・63打点の成績を残した。	NO_PRONOUNCE	NO_LABEL
はA+級マートルビーチ・ペリカンズとAA級テネシー・スモーキーズでプレーし、2球団合計で128試合に出場して打率.277・10本塁打・64打点の成績を残した。	NO_PRONOUNCE	NO_LABEL
オフにはアリゾナ・フォールリーグに参加し、メサ・ソーラーソックスに所属した。	おふにわありぞなふぉーるりーぐにさんかし、めさそーらーそっくすにしょぞくした。	NO_LABEL
11月20日には40人枠入りした。	じゅーいちがつはつかにわよんじゅうにんわくいりした。	NO_LABEL
はAA級テネシーで開幕を迎え、AAA級アイオワ・カブスを経て7月3日にメジャー初昇格を果たした。	わえーえーいこーるきゅーてねしーでかいまくをむかえ、とりぷれあきゅーあいおわかぶすをへてしちがつみっかにめじゃーはつしょーかくをはたした。	NO_LABEL
同日のニューヨーク・メッツ戦でメジャーデビュー。	どーじつのにゅーよーくめっつせんでめじゃーでびゅー。	NO_LABEL
この年メジャーでは5試合に出場して打率.091の成績を残した。	NO_PRONOUNCE	NO_LABEL
7月31日にジャスティン・ウィルソン、アレックス・アビラとのトレードで、、後日発表選手と共にデトロイト・タイガースへ移籍した。	NO_PRONOUNCE	NO_LABEL
