イオンタウン有松は、愛知県名古屋市緑区のウインハート有松の中にあるイオンタウン株式会社が開発・運営を行っているショッピングセンター。	NO_PRONOUNCE	NO_LABEL
マックスバリュ有松駅前店と55の専門店で構成されている。	NO_PRONOUNCE	NO_LABEL
2011年11月21日にSC名がイオン有松ショッピングセンターから現名称に変更された。	にせんじゅういちねんじゅーいちがつにじゅういちにちにえすしぃめいがいおんありまつしょっぴんぐせんたーからげんめいしょーにへんこーされた。	NO_LABEL
名古屋市内にはイオンモールナゴヤドーム前・イオンモール熱田・イオンモール新瑞橋・イオンモール名古屋みなと・イオンモール大高・mozoワンダーシティ・イオンモール名古屋茶屋・イオンタウン千種などがあるが、それらを下回る規模のイオンショッピングセンターである。	NO_PRONOUNCE	NO_LABEL
テナントの撤退が相次いだために、2008年5月頃にフロアガイド上のキャッチコピーが、maxvaluと55の専門店から、maxvaluと50の専門店に変更された。	NO_PRONOUNCE	NO_LABEL
なお、周辺にある看板や、ショッピングセンター外壁の垂れ幕には、現在でもmaxvaluと55の専門店と表記されている。	NO_PRONOUNCE	NO_LABEL
事業計画は名古屋市で駅前再開発事業の一つとして建設された。	じぎょーけいかくわなごやしでえきまえさいかいはつじぎょーのひとつとしてけんせつされた。	NO_LABEL
当初はマイカルがサティを出店する予定だったが、マイカルグループの経営悪化によりイオン株式会社が他の事業と合せて契約を承継する形となった。	とーしょわまいかるがさてぃをしゅってんするよていだったが、まいかるぐるーぷのけいえいあっかによりいおんかぶしきがいしゃがたのじぎょーとあわせてけいやくをしょーけいするかたちとなった。	NO_LABEL
しかし、苦手とする駅前再開発型店舗でもあり、開発自体からの撤退を求めて名古屋市や市街地再開発組合と交渉したが開発分担金の問題をクリアできず、やむを得ず出店した。	しかし、にがてとするえきまえさいかいはつがたてんぽでもあり、かいはつじたいからのてったいをもとめてなごやしやしがいちさいかいはつくみあいとこーしょーしたがかいはつぶんたんきんのもんだいをくりあできず、やむをえずしゅってんした。	NO_LABEL
店舗1階はスーパーマーケットのマックスバリュ有松駅前店と8つの飲食店・50の専門店が出店している。	NO_PRONOUNCE	NO_LABEL
2階には、名古屋鉄道有松駅に直結している連絡通路がある。	にかいにわ、なごやてつどーありまつえきにちょっけつしているれんらくつーろがある。	NO_LABEL
また、大垣共立銀行有松支店にも直結している。	また、おーがききょーりつぎんこーありまつしてんにもちょっけつしている。	NO_LABEL
3階は100円ショップキャンドゥや、アミューズメントユーズランド、総合衣料オンセンドなど、大型な専門店が目立つ。	さんかいわひゃくえんしょっぷきゃんどぅや、あみゅーずめんとゆーずらんど、そーごーいりょーおんせんどなど、おーがたなせんもんてんがめだつ。	NO_LABEL
当初はエイデン、カメラのキタムラなども出店していたが、1年で閉店となった。	とーしょわえいでん、かめらのきたむらなどもしゅってんしていたが、いちねんでへいてんとなった。	NO_LABEL
4・5・6・屋上階は駐車場で880台まで収容可能である。	NO_PRONOUNCE	NO_LABEL
自転車は450台まで収容可。	NO_PRONOUNCE	NO_LABEL
マックスバリュ有松駅前店の運営会社はマックスバリュ中京であったため、名古屋市内の大半のマックスバリュを運営しているマックスバリュ中部が発行しているマックスバリュポイントカード、及び、このポイントカードの特典として発行された「お買物割引券」は利用できなかったが、合併により現在はマックスバリュ中部の店舗になっている。	NO_PRONOUNCE	NO_LABEL
2011年11月21日をもって、当SCの名称がそれまでの「イオン有松ショッピングセンター」から「イオンタウン有松」に変更されるとともに、SCの管理・運営がイオンリテールからイオンタウンに移管されることとなった。	NO_PRONOUNCE	NO_LABEL
