特異なバグ () とは、ソフトウェアバグの中でも特に修正が難しいものを言う。	とくいなばぐかっことわ、そふとうぇあばぐのなかでもとくにしゅーせいがむずかしいものをいう。	NO_LABEL
いくつかの種類があるが、直感的に理解しがたいような理論を発表した科学者に由来して名前が付いているものが多い。	いくつかのしゅるいがあるが、ちょっかんてきにりかいしがたいよーなりろんをはっぴょーしたかがくしゃにゆらいしてなまえがついているものがおーい。	NO_LABEL
ハイゼンバグは、それを調査しようとすると変貌したり消えたりするバグである。	はいぜんばぐわ、それをちょーさしようとするとへんぼーしたりきえたりするばぐである。	NO_LABEL
ハイゼンバグの例：	NO_PRONOUNCE	NO_LABEL
この名前は不確定性原理を提唱したハイゼンベルクのもじり。	このなまえわふかくていせいげんりをていしょーしたはいぜんべるくのもじり。	NO_LABEL
ここでの不確定性原理とは量子力学用語で「観測すること自体が対象に影響を与えるため正確な観測ができないこと」を指す。	NO_PRONOUNCE	NO_LABEL
デバッグモードではプログラムの実行前にメモリがクリーンアップされたり、変数がレジスタではなく特定のスタック位置へ配置されたりすることがある。	でばっぐもーどでわぷろぐらむのじっこーまえにめもりがくりーんあっぷされたり、へんすーがれじすたでわなくとくていのすたっくいちえはいちされたりすることがある。	NO_LABEL
これはハイゼンバグのよくある原因である。	これわはいぜんばぐのよくあるげんいんである。	NO_LABEL
またデバッガは、変数の監視等のために、普段実行されないコードを実行する場合があり、これによってプログラムの状態が変わることも原因となる。	またでばっがわ、へんすーのかんしとーのために、ふだんじっこーされないこーどをじっこーするばあいがあり、これによってぷろぐらむのじょーたいがかわることもげんいんとなる。	NO_LABEL
他にも、 が原因になることもある。	たにも、がげんいんになることもある。	NO_LABEL
その裏には初期化されていない変数が隠れていることが多い。	そのうらにわしょきかされていないへんすーがかくれていることがおーい。	NO_LABEL
この言葉が初めて使われたときに同席したという Bruce Lindsay は、これはハイゼンベルクの「ある物事をよく見れば見るほど、他の物事をよく見ることができなくなる」という言葉に由来するとインタビューで述べている。	NO_PRONOUNCE	NO_LABEL
ボーアバグは特定の状況下で高い再現性を見せるバグである。	ぼーあばぐわとくていのじょーきょーかでたかいさいげんせいをみせるばぐである。	NO_LABEL
ハイゼンバグと違って調査時に変貌したり消えたりすることはない。	はいぜんばぐとちがってちょーさじにへんぼーしたりきえたりすることわない。	NO_LABEL
「特定の状況」が分かっている場合にはもっとも修正しやすいタイプのバグとなるが、これが不明な場合にはもっとも難しいものとなる。	NO_PRONOUNCE	NO_LABEL
マンデルバグは、あまりに複雑なためカオス的に映るバグのことである。	まんでるばぐわ、あまりにふくざつなためかおすてきにうつるばぐのことである。	NO_LABEL
つまりハイゼンバグというよりはボーアバグに近い。	つまりはいぜんばぐというよりわぼーあばぐにちかい。	NO_LABEL
チューリング・テストと同様の原理により、あるバグがカオス的であるかそうでないかは判断できないと言えるため、厳密にはハイゼンバグとの区別がつかないということになる。	ちゅーりんぐてすととどーよーのげんりにより、あるばぐがかおすてきであるかそーでないかわはんだんできないといえるため、げんみつにわはいぜんばぐとのくべつがつかないとゆうことになる。	NO_LABEL
カオス的に見えるかどうかではなく、あまりに複雑なため現実的な解決策がないと思われるバグを指して言う人もいる。	かおすてきにみえるかどーかではなく、あまりにふくざつなためげんじつてきなかいけつさくがないとおもわれるばぐをさしていうひともいる。	NO_LABEL
このようなバグはシステム全体の基本的な欠陥に由来することが多い。	このよーなばぐわしすてむぜんたいのきほんてきなけっかんにゆらいすることがおーい。	NO_LABEL
上記それぞれのバグの定義は整合性を保てていない。	じょーきそれぞれのばぐのていぎわせいごーせいをたもてていない。	NO_LABEL
上の定義によるとマンデルバグはボーアバグであり、ハイゼンバグとボーアバグは反義語であり、さらにハイゼンバグは全てマンデルバグという事になってしまっているのである。	うえのていぎによるとまんでるばぐわぼーあばぐであり、はいぜんばぐとぼーあばぐわはんぎごであり、さらにはいぜんばぐわすべてまんでるばぐとゆうことになってしまっているのである。	NO_LABEL
最近のIEEE Computerでの記事によると、マンデルバグはボーアバグの補完的な反義語であるとしている。	さいきんのあいとりぷるいーこんぴゅーたーでのきじによると、まんでるばぐわぼーあばぐのほかんてきなはんぎごであるとしている。	NO_LABEL
つまり全てのバグはマンデルバグかボーアバグである。	つまりすべてのばぐわまんでるばぐかぼーあばぐである。	NO_LABEL
マンデルバグの複雑さは原因から発生までの大きな時間差やハードウェア、OS、他のソフトウェアによる現象への影響から起こるとされる。	まんでるばぐのふくざつさわげんいんからはっせいまでのおーきなじかんさやはーどうぇあ、おーえす、たのそふとうぇあによるげんしょーえのえいきょーからおこるとされる。	NO_LABEL
よってハイゼンバグはマンデルバグである。	よってはいぜんばぐわまんでるばぐである。	NO_LABEL
シュレーディンバグは、特殊な状況下でバグが発覚してプログラマがソースを読むと、そもそも最初から動くはずがないように見え、それを境にして一切動作しなくなってしまうようなバグである。	しゅれーでぃんばぐわ、とくしゅなじょーきょーかでばぐがはっかくしてぷろぐらまがそーすをよむと、そもそもさいしょからうごくはずがないよーにみえ、それをさかいにしていっさいどーさしなくなってしまうよーなばぐである。	NO_LABEL
FOLDOCでは「そんなことはあり得ないように思えるが、潜在的なシュレーディンバグをかくまっているプログラムというのは実際にあるのだ」と書いている。	NO_PRONOUNCE	NO_LABEL
名前の由来はシュレーディンガーの猫と呼ばれる、量子論に関する思考実験である。	なまえのゆらいわしゅれーでぃんがーのねことよばれる、りょーしろんにかんするしこーじっけんである。	NO_LABEL
しっかり書かれたプログラムは、安定した環境下では決定論や量子論的な可観測性に従った動作をするはずである。	しっかりかかれたぷろぐらむわ、あんていしたかんきょーかでわけっていろんやりょーしろんてきなかかんそくせいにしたがったどーさをするはずである。	NO_LABEL
だが、そもそも最初の時点でどんな不思議な条件がそろって動作したのかや、動作しなくなった正確な理由を探り始めるよりも、目の前にある欠陥品コードを修正するほうがよい。	だが、そもそもさいしょのじてんでどんなふしぎなじょーけんがそろってどーさしたのかや、どーさしなくなったせいかくなりゆーをさぐりはじめるよりも、めのまえにあるけっかんひんこーどをしゅーせいするほーがよい。	NO_LABEL
突然動かなくなるなどという事は迷信なのだ。	とつぜんうごかなくなるなどとゆうことわめいしんなのだ。	NO_LABEL
たとえばデータベースを使ったプログラムで、レコード数が少ないときは正常に動いていたが、あるレコード数を超えると突然動かなくなったとする。	たとえばでーたべーすをつかったぷろぐらむで、れこーどすーがすくないときわせいじょーにうごいていたが、あるれこーどすーをこえるととつぜんうごかなくなったとする。	NO_LABEL
それが原因だと分かっていないプログラマは、レコード数の増加という「普通な」原因を考えず、これはシュレーディンバグだと片付けてしまうかもしれない。	NO_PRONOUNCE	NO_LABEL
ハイゼンバグ同様、これはシュレーディンガーの思考実験を誤解した命名だ。	はいぜんばぐどーよー、これわしゅれーでぃんがーのしこーじっけんをごかいしためいめいだ。	NO_LABEL
猫の実験では蓋を開けたことが猫を殺したというのではなく、その明らかな不自然さを示すことがシュレーディンガーの真意だったからである。	ねこのじっけんでわふたをあけたことがねこをころしたとゆうのでわなく、そのあきらかなふしぜんさをしめすことがしゅれーでぃんがーのしんいだったからである。	NO_LABEL
アリストテレスは、バグのないプログラムからの不正な出力を指す。	ありすとてれすわ、ばぐのないぷろぐらむからのふせいなしゅつりょくをさす。	NO_LABEL
古代ギリシャの哲学者アリストテレスに由来するこのバグは、正しいと思い込んでいる不正な入力によって、そのまま不正な出力が現れることを指している。	こだいぎりしゃのてつがくしゃありすとてれすにゆらいするこのばぐわ、ただしいとおもいこんでいるふせいなにゅーりょくによって、そのままふせいなしゅつりょくがあらわれることをさしている。	NO_LABEL
プログラム自体のバグではないが、コンピュータサイエンスではよくあることだ。	ぷろぐらむじたいのばぐでわないが、こんぴゅーたさいえんすでわよくあることだ。	NO_LABEL
入力をチェックする前に複雑なアルゴリズムに欠陥があるのではと考えてしまうことから、いろいろな矛盾が発覚するまで多くの人に正しいと信じられていたアリストテレスの名が付いた。	にゅーりょくをちぇっくするまえにふくざつなあるごりずむにけっかんがあるのでわとかんがえてしまうことから、いろいろなむじゅんがはっかくするまでおーくのひとにただしいとしんじられていたありすとてれすのながついた。	NO_LABEL
軽い警句として、FIFO・LIFOなどになぞらえて、ごみを入れればごみが出てくる「ガベージインガベージアウト」などとも言われる。	NO_PRONOUNCE	NO_LABEL
月相のような、およそコンピュータの動作に影響するとは考えられないものであることが原因であるバグ。	げっそーのよーな、およそこんぴゅーたのどーさにえいきょーするとわかんがえられないものであることがげんいんであるばぐ。	NO_LABEL
ジャーゴンファイルでは、全く原因不明なランダムな動作によるバグとしている。	じゃーごんふぁいるでわ、ぜんくげんいんふめいならんだむなどーさによるばぐとしている。	NO_LABEL
月相が、一部の狼男の伝承などの超自然的な現象などに影響するとされる伝説に由来する。	げっそーが、いちぶのおーかみおとこのでんしょーなどのちょーしぜんてきなげんしょーなどにえいきょーするとされるでんせつにゆらいする。	NO_LABEL
ジャーゴンファイルは、実際に月の相が原因で起こった珍しい問題をいくつか掲載しており、月の相についての文字列表現がたまたま非常に長いタイミングで実行すると一種のバッファオーバーランを起こし落ちるという例、旧版の書籍版のジャーゴンファイルの「月の相」の項にその例を載せた結果起きた印刷ミスの例、CERNのLEPでの予想外の観測結果の原因が、巨大な加速器が地球と月の潮汐の影響を受けるためであった例、が挙げられている。	NO_PRONOUNCE	NO_LABEL
「月の相」を、時間・時刻や暦のこととすれば、それを取り扱うプログラムは、うるう日・うるう年などや、処理が日や月・年・世紀をまたぐ場合などに問題を抱えていることがしばしばある。	NO_PRONOUNCE	NO_LABEL
