白川町立蘇原小学校は岐阜県加茂郡白川町にある公立の小学校。	しらかわちょーりつそはらしょうがっこーわぎふけんかもぐんしらかわちょーにあるこーりつのしょーがっこー。	NO_LABEL
校区は切井、赤河、三川である。	こーくわきりい、あこー、みかわである。	NO_LABEL
蘇原小学校は1980年に「三川小学校」、「赤河小学校」、「切井小学校」が統合されて開校した小学校である。	NO_PRONOUNCE	NO_LABEL
ここでは前身校について記述する。	ここでわぜんしんこーについてきじゅつする。	NO_LABEL
