集賢県は中華人民共和国黒竜江省双鴨山市に位置する県。	しゅうけんけんわちゅーかじんみんきょーわこくこくりゅーこーしょーそーおうざんししにいちするけん。	NO_LABEL
県人民政府の所在地は福利鎮。	けんじんみんせいふのしょざいちわふくりちん。	NO_LABEL
1946年、富錦県より分割設置され合江省の管轄とされた。	せんきゅうひゃくよんじゅうろくね、とみにしきけんよりぶんかつせっちされごーこうしょーのかんかつとされた。	NO_LABEL
1949年に松江省、1954年に黒竜江省に移管されている。	せんきゅうひゃくよんじゅうきゅうねんにしょーこうしょー、せんきゅうひゃくごじゅうよねんにこくりゅーこーしょーにいかんされている。	NO_LABEL
1960年に一旦廃止されたが、1962年に再設置され現在に至る。	せんきゅうひゃくろくじゅうねんにいったんはいしされたが、せんきゅうひゃくろくじゅうにねんにさいせっちされげんざいにいたる。	NO_LABEL
5鎮、3郷を管轄：	NO_PRONOUNCE	NO_LABEL
