グレッグ・ハンセルは、アメリカ合衆国カリフォルニア州出身の元プロ野球選手。	ぐれっぐはんせるわ、あめりかがっしゅーこくかりふぉるにあしゅーしゅっしんのもとぷろやきゅーせんしゅ。	NO_LABEL
2000年、阪神タイガースに入団。	にせんねん、はんしんたいがーすににゅーだん。	NO_LABEL
1年目に先発投手として20試合に登板し7勝8敗0S。	NO_PRONOUNCE	NO_LABEL
2年目の2001年には27試合に登板するも、打線の援護が無く5勝13敗0Sで、このシーズン最多敗戦を記録してしまうが、防御率は3.49とそれほど悪くはない。	NO_PRONOUNCE	NO_LABEL
3年目の2002年はシーズン開幕間もなくヘルニアが悪化し戦線離脱、帰国し6月に内視鏡手術を受けた。	さんねんめのにせんにねんわしーずんかいまくまもなくへるにあがあっかしせんせんりだつ、きこくしろくがつにないしきょーしゅじゅつをうけた。	NO_LABEL
その後驚異的な回復力でシーズン後半には再来日を果たし阪神残留をアピールしたが、星野仙一監督の戦力構想から外れ退団となった。	そのごきょーいてきなかいふくりょくでしーずんこーはんにわさいらいにちをはたしはんしんざんりゅーをあぴーるしたが、ほしのせんいちかんとくのせんりょくこーそーからはずれたいだんとなった。	NO_LABEL
阪神退団後も日本でのプレーを希望し、実際に日本の複数の球団から獲得のオファーがあった。	はんしんたいだんごもにっぽんでのぷれーをきぼーし、じっさいににっぽんのふくすーのきゅーだんからかくとくのおふぁーがあった。	NO_LABEL
特に中日ドラゴンズが彼に興味を示したと言われている。	とくにちゅーにちどらごんずがかれにきょーみをしめしたといわれている。	NO_LABEL
しかし、その後阪神がストッパーとして活躍したマーク・バルデスを放出したため、中日は獲得対象をハンセルからバルデスに変更した。	しかし、そのごはんしんがすとっぱーとしてかつやくしたまーくばるですをほーしゅつしたため、ちゅーにちわかくとくたいしょーをはんせるからばるですにへんこーした。	NO_LABEL
結局ハンセルは日本でのプレーの希望は叶わず、2003年はニューヨーク・ヤンキースのマイナーに所属。	けっきょくはんせるわにっぽんでのぷれーのきぼーわかなわず、にせんさんねんわにゅーよーくやんきーすのまいなーにしょぞく。	NO_LABEL
その後メキシコ等でプレーしメジャー復帰を目指したが叶わず現役を引退した。	そのごめきしことーでぷれーしめじゃーふっきをめざしたがかなわずげんえきをいんたいした。	NO_LABEL
パソコン、インターネットに造詣があり、来日前の現役時代からattheyard.comというスポーツグッズ販売会社のウェブサイトに定期的にブログを掲載していた。	NO_PRONOUNCE	NO_LABEL
ファンがメールを送れるようにもなっていた。	ふぁんがめーるをおくれるよーにもなっていた。	NO_LABEL
2006年に東北楽天ゴールデンイーグルスの在米スカウトに就任。	にせんろくねんにとーほくらくてんごーるでんいーぐるすのざいべいすかうとにしゅーにん。	NO_LABEL
野村克也監督は、阪神時代に彼を「近鉄のいてまえ打線がバックなら20勝」と高く評価していた。	NO_PRONOUNCE	NO_LABEL
2017年現在横浜DeNAベイスターズの在米スカウトとして活動中。	にせんじゅうななねんげんざいよこはまでぃーえぬえーべいすたーずのざいべいすかうととしてかつどーちゅー。	NO_LABEL
