『歌声は青空高く』は、1966年、ディズニー製作のアメリカ映画。	NO_PRONOUNCE	NO_LABEL
原作はピューリッツァー賞作家・マッキンレー・カンターの小説『God and My Country』。	NO_PRONOUNCE	NO_LABEL
流れ者のサクソフォーン吹きから、少年達の悪戯に悩まされる町のボーイスカウトのリーダーになった男の半生を描く。	ながれしゃのさくそふぉーんふきから、しょーねんたちのあくぎになやまされるまちのぼーいすかうとのりーだーになったおとこのはんせいをえがく。	NO_LABEL
