核戦略とは核兵器の準備、抑止及び使用を計画するための戦略・軍事戦略である。	NO_PRONOUNCE	NO_LABEL
核兵器が発明されるとその破壊力をどのように戦略的に活用すればよいのかという核戦略の議論がされるようになった。	かくへいきがはつめいされるとそのはかいりょくをどのよーにせんりゃくてきにかつよーすればよいのかとゆうかくせんりゃくのぎろんがされるよーになった。	NO_LABEL
バーナード・ブロディは核兵器は僅かな使用であっても都市圏を破壊する上に有効な対抗策がないため「絶対兵器」であると称して核兵器を独特な軍事力として位置づけた。	NO_PRONOUNCE	NO_LABEL
アメリカは1950年代に大量報復戦略を打ち出したが、ベイジル・リデル＝ハートはこの核戦略の議論で、核兵器が従来のように実施されてきた戦争の概念を旧式化したと論じた。	あめりかわせんきゅうひゃくごじゅうねんだいにたいりょーほーふくせんりゃくをうちだしたが、べいじるりでるはーとわこのかくせんりゃくのぎろんで、かくへいきがじゅーらいのよーにじっしされてきたせんそーのがいねんをきゅーしきかしたとろんじた。	NO_LABEL
彼の『抑止か防衛か』では通常軍備の意義を強調しながらも、戦術核兵器について戦場では威力を発揮するが、戦争そのものの規模が拡大して核戦争になると論じる。	NO_PRONOUNCE	NO_LABEL
リデル・ハートに続いてオズグードの『制限戦争』、キッシンジャーの『核兵器と外交政策』、シェリングの『紛争の戦略』などによる理論的進歩があり、核兵器によっていかに核抑止を成り立たせ、また戦争においては制限戦争に留めるための戦略理論が構築された。	NO_PRONOUNCE	NO_LABEL
核兵器は核分裂反応または核融合反応によって得られる核エネルギーを破壊力に利用した大量破壊兵器の一種であり、核戦略とは戦略爆撃機や弾道ミサイルなどの運搬手段を含めたその核兵器の破壊力を活用するための戦略である。	かくへいきわかくぶんれつはんのーまたわかくゆーごーはんのーによってえられるかくえねるぎーをはかいりょくにりよーしたたいりょーはかいへいきのいちしゅであり、かくせんりゃくとわせんりゃくばくげききやだんどーみさいるなどのうんぱんしゅだんをふくめたそのかくへいきのはかいりょくをかつよーするためのせんりゃくである。	NO_LABEL
核兵器には超高温の発熱、爆風や衝撃波などの破壊効果、放射線効果、放射性降下物の散乱、電磁パルスなどの影響を及ぼす兵器であり、従来の火砲などの兵器とは異なる性質を持っている。	かくへいきにわちょーこーおんのはつねつ、ばくふーやしょーげきはなどのはかいこーか、ほーしゃせんこーか、ほーしゃせいこーかぶつのさんらん、でんじぱるすなどのえいきょーをおよぼすへいきであり、じゅーらいのかほーなどのへいきとわことなるせいしつをもっている。	NO_LABEL
核戦略はこのような核兵器の特性に立脚しながら国家の安全保障や国家の目標達成のために決められるものであり、核兵器の開発、核攻撃の目標の選定、発射官制、核攻撃に対する防護や被害管理などの手段を包括している。	かくせんりゃくわこのよーなかくへいきのとくせいにりっきゃくしながらこっかのあんぜんほしょーやこっかのもくひょーたっせいのためにきめられるものであり、かくへいきのかいはつ、かくこーげきのもくひょーのせんてい、はっしゃかんせい、かくこーげきにたいするぼーごやひがいかんりなどのしゅだんをほーかつしている。	NO_LABEL
ただし留意すべき点として核兵器には短期間のうちに社会の機能を停止させるほどの物理的破壊力があり、したがって核攻撃がないとしても核兵器の保有によって相手の軍事行動を強く規定することができる。	ただしりゅーいすべきてんとしてかくへいきにわたんきかんのうちにしゃかいのきのーをていしさせるほどのぶつりてきはかいりょくがあり、したがってかくこーげきがないとしてもかくへいきのほゆーによってあいてのぐんじこうどーをつよくきていすることができる。	NO_LABEL
つまり相手国が攻撃的行動を行えば自国が懲罰的な報復を行うことを核兵器によって威嚇することで、相手国の攻撃的行動を思いとどまらせること、すなわち核抑止が可能となるのである。	つまりあいてこくがこーげきてきこーどーをおこなえばじこくがちょーばつてきなほーふくをおこなうことをかくへいきによっていかくすることで、あいてこくのこーげきてきこーどーをおもいとどまらせること、すなわちかくよくしがかのーとなるのである。	NO_LABEL
ただし一般的な抑止の概念を検討すれば、三つの条件が必要であると考えられている。	ただしいっぱんてきなよくしのがいねんをけんとーすれば、みっつのじょーけんがひつよーであるとかんがえられている。	NO_LABEL
以上の三つはまとめて「抑止の三条件」と呼ばれており、核抑止にも適応して考えることができる。	NO_PRONOUNCE	NO_LABEL
ただし抑止の理論的な説明を逸脱するような自暴的な軍事行動を相手国が選択する可能性を否定することはできない。	ただしよくしのりろんてきなせつめいをいつだつするよーなじぼーてきなぐんじこうどーをあいてこくがせんたくするかのーせいをひていすることわできない。	NO_LABEL
核抑止をより確実に成り立たせるためには核戦力の充実化、政治宣伝または外交交渉を行う努力を行うことが可能であり、核実験やそれに関連する外交声明によって抑止効果を高めることができる。	かくよくしをよりかくじつになりたたせるためにわかくせんりょくのじゅーじつか、せいじせんでんまたわがいこーこうしょーをおこなうどりょくをおこなうことがかのーであり、かくじっけんやそれにかんれんするがいこーせいめいによってよくしこーかをたかめることができる。	NO_LABEL
核戦略の基本的な考え方については、以下のように分類できる。	かくせんりゃくのきほんてきなかんがえかたについてわ、いかのよーにぶんるいできる。	NO_LABEL
1961年の柔軟反応戦略は、ゲリラ戦から核戦争まであらゆる事態に対して、事態のレベルに応じた軍事力によって抑止する戦略。	せんきゅうひゃくろくじゅういちねんのじゅーなんはんのーせんりゃくわ、げりらせんからかくせんそーまであらゆるじたいにたいして、じたいのれべるにおーじたぐんじりょくによってよくしするせんりゃく。	NO_LABEL
アメリカ統合参謀本部議長を務めたマックスウェル・テーラーらが提唱。	NO_PRONOUNCE	NO_LABEL
ジョン・F・ケネディ政権で採用。	じょんえふけねでぃせいけんでさいよー。	NO_LABEL
大量報復戦略。	たいりょーほーふくせんりゃく。	NO_LABEL
1954年のニュールック戦略などを指す。	せんきゅうひゃくごじゅうよねんのにゅーるっくせんりゃくなどをさす。	NO_LABEL
相互確証破壊は最も知られた核抑止理論で、ロバート・マクナマラによる。	そーごかくしょーはかいわもっともしられたかくよくしりろんで、ろばーとまくなまらによる。	NO_LABEL
元は確証破壊戦略に遡る。	もとわかくしょーはかいせんりゃくにさかのぼる。	NO_LABEL
1964年には損害限定理論（Damage Limitation)が提唱された。	NO_PRONOUNCE	NO_LABEL
核兵器は破壊力が甚大であるため、先制攻撃が決定的なものとなる。	かくへいきわはかいりょくがじんだいであるため、せんせいこーげきがけっていてきなものとなる。	NO_LABEL
そのため、先制攻撃を行うのか、いなかという点が、核先制不使用論または核先制使用論として核保有国間で交渉され、思案された。	そのため、せんせいこーげきをおこなうのか、いなかとゆうてんが、かくせんせいふしよーろんまたわかくせんせいしよーろんとしてかくほゆーこくかんでこーしょーされ、しあんされた。	NO_LABEL
参照。	さんしょー。	NO_LABEL
1983年には戦略防衛構想（Strategic Defense Initiative, SDI)が提唱された。	NO_PRONOUNCE	NO_LABEL
核兵器は米国で生まれたため、理論的な先駆者も米国である。	かくへいきわべいこくでうまれたため、りろんてきなせんくしゃもべいこくである。	NO_LABEL
ここでは米の核戦略の変遷に照らして、現在に至るまでの核戦略の流れを記述する。	ここでわべいのかくせんりゃくのへんせんにてらして、げんざいにいたるまでのかくせんりゃくのながれをきじゅつする。	NO_LABEL
核兵器が登場し使用されたのは、第二次世界大戦の終戦間際である。	かくへいきがとーじょーししよーされたのわ、だいにじせかいたいせんのしゅーせんまぎわである。	NO_LABEL
核兵器はこれまでのいかなる兵器よりも巨大な破壊力を持っており、その破壊力の甚大さは関係者に衝撃を与えた。	かくへいきわこれまでのいかなるへいきよりもきょだいなはかいりょくをもっており、そのはかいりょくのじんだいさわかんけいしゃにしょーげきをあたえた。	NO_LABEL
しかしその一方で、核兵器の登場直後は戦略家たちに理論的な革新は意外なほど見られず、核兵器は単なる「威力の巨大な爆弾」とみなされていた。	NO_PRONOUNCE	NO_LABEL
これについては	これについてわ	NO_LABEL
などの信頼性の低さが根底にあったとされる。	などのしんらいせいのひくさがこんていにあったとされる。	NO_LABEL
つまり、この時点ではいわゆる核戦略と呼べるものは存在しなかった。	つまり、このじてんでわいわゆるかくせんりゃくとよべるものわそんざいしなかった。	NO_LABEL
しかし1950年代になると、ソ連もまた核兵器を保有するようになり、また弾道ミサイルが開発され、米本土が核の脅威にさらされるに至った。	しかしせんきゅうひゃくごじゅうねんだいになると、それんもまたかくへいきをほゆーするよーになり、まただんどーみさいるがかいはつされ、べいほんどがかくのきょーいにさらされるにいたった。	NO_LABEL
そしてとうとう核抑止が提唱されるようになった。	そしてとーとーかくよくしがていしょーされるよーになった。	NO_LABEL
核抑止理論の初期段階で中心的な役割を担ったのは、ランド研究所に所属したバーナード・ブロディである。	NO_PRONOUNCE	NO_LABEL
彼らはいかに核兵器の使用を防ぐかについて「核兵器をより確実に使用できるようになれば、敵国にとっては核兵器の先制使用によって生ずる利益が小さくなる。	NO_PRONOUNCE	NO_LABEL
よって核兵器は使用されにくくなり、核抑止を実現できる」と考え、理論を構築していった。	NO_PRONOUNCE	NO_LABEL
ブロディらの考えは次第に力を得て、米英にも導入されることとなった。	ぶろでぃらのかんがえわしだいにちからをえて、べいえいにもどーにゅーされることとなった。	NO_LABEL
これらの理論は依然として荒さが目立ち不完全であり、多くの批判にさらされた。	これらのりろんわいぜんとしてあらさがめだちふかんぜんであり、おーくのひはんにさらされた。	NO_LABEL
おもな批判者としてはブロディ自身やキッシンジャーが挙げられる。	おもなひはんしゃとしてわぶろでぃじしんやきっしんじゃーがあげられる。	NO_LABEL
核兵器の登場は、その威力の大きさから全面戦争を不可能にした。	かくへいきのとーじょーわ、そのいりょくのおーきさからぜんめんせんそーをふかのーにした。	NO_LABEL
というのは、核兵器を使用する目的とその破壊力があまりにもかけ離れていた。	とゆうのわ、かくへいきをしよーするもくてきとそのはかいりょくがあまりにもかけはなれていた。	NO_LABEL
それでは核兵器の時代に通常兵器は不要になるのであろうか? この論争において彼らは、核兵器が存在してもなお朝鮮戦争やインドシナ戦争が発生し、また核兵器の存在がそれに対してなんら抑止効果を持たなかったことに注目した。	NO_PRONOUNCE	NO_LABEL
核兵器はあまりに威力が大きすぎ、キッシンジャーが指摘するところによると、相手国を全面戦争へと巻き込むという脅し以上に使用できないのである。	かくへいきわあまりにいりょくがおーきすぎ、きっしんじゃーがしてきするところによると、あいてこくをぜんめんせんそーえとまきこむとゆうおどしいじょーにしよーできないのである。	NO_LABEL
ここに核兵器によって互いの戦力が制限された戦争、すなわち制限戦争の概念が生まれた。	ここにかくへいきによってたがいのせんりょくがせいげんされたせんそー、すなわちせいげんせんそーのがいねんがうまれた。	NO_LABEL
また、制限戦争下では通常兵器もまた必要であることが示された。	また、せいげんせんそーかでわつーじょーへいきもまたひつよーであることがしめされた。	NO_LABEL
一連の議論によって、核兵器が登場した時代での「通常兵器」「制限戦争」の位置づけが生まれ、核抑止理論も深まりを見せた。	NO_PRONOUNCE	NO_LABEL
制限戦争論は、政治的交渉を重視した。	せいげんせんそーろんわ、せいじてきこーしょーをじゅーしした。	NO_LABEL
ゲーム理論が取り入れられ、戦争中の2国であっても交渉の余地が存在することが示唆された。	NO_PRONOUNCE	NO_LABEL
例えば核兵器を両国が持っていれば、互いの核兵器使用による甚大な破壊を回避することは両国の共通の利益となる。	たとえばかくへいきをりょーこくがもっていれば、たがいのかくへいきしよーによるじんだいなはかいをかいひすることわりょーこくのきょーつーのりえきとなる。	NO_LABEL
したがって、戦争が制限されることと交渉によって制限が生じることには妥当性がある。	したがって、せんそーがせいげんされることとこーしょーによってせいげんがしょーじることにわだとーせいがある。	NO_LABEL
通常兵器と外交的交渉の重要性は見直されることとなったのである。	つーじょーへいきとがいこーてきこーしょーのじゅーよーせいわみなおされることとなったのである。	NO_LABEL
制限戦争論に関する議論はさらに続いた。	せいげんせんそーろんにかんするぎろんわさらにつずいた。	NO_LABEL
戦術核をこの理論にどう組み込むのかという問題が生じてきたのである。	せんじゅつかくをこのりろんにどーくみこむのかとゆうもんだいがしょーじてきたのである。	NO_LABEL
当時は戦略核と戦術核の境界は不確定であった。	とーじわせんりゃくかくとせんじゅつかくのきょーかいわふかくていであった。	NO_LABEL
戦術核の使用をロバート・オスグッドなどは唱えたが、核兵器の戦術的使用は全面核戦争へと発展する可能性があり、戦術核は使用されるべきではないとブロディやリデル・ハートなどは論じた。	NO_PRONOUNCE	NO_LABEL
この論争は完全な決着がつかなかったものの、通常戦力を補強する「ゲタ」としての戦術核の導入もまたNATO諸国で進んだ。	NO_PRONOUNCE	NO_LABEL
通常戦力をそろえるより戦術核は安価であり、またNATO諸国はワルシャワ条約機構の巨大な陸軍と対峙していたためである。	つーじょーせんりょくをそろえるよりせんじゅつかくわあんかであり、またなとーしょこくわわるしゃわじょーやくきこーのきょだいなりくぐんとたいじしていたためである。	NO_LABEL
ケネディ大統領が在職中であったころ、すなわち1960年代は、核理論がもっとも活発に議論された時期であり、多様な分析がなされ、理論が生まれた。	けねでぃだいとーりょーがざいしょくちゅーであったころ、すなわちせんきゅうひゃくろくじゅうねんだわ、かくりろんがもっともかっぱつにぎろんされたじきであり、たよーなぶんせきがなされ、りろんがうまれた。	NO_LABEL
地上に配置されたICBMの脆弱さが核抑止を不安定なものにしているとの指摘がなされ、先制核攻撃からの生存が期待できるSLBMが開発された。	ちじょーにはいちされたあいしーびーえむのぜいじゃくさがかくよくしをふあんていなものにしているとのしてきがなされ、せんせいかくこーげきからのせいぞんがきたいできるえすえるびーえむがかいはつされた。	NO_LABEL
米政権においてはマクナマラ国防長官が制限戦争理論に基づく軍備の整備を進めた。	べいせいけんにおいてわまくなまらこくぼーちょーかんがせいげんせんそーりろんにもとずくぐんびのせいびをすすめた。	NO_LABEL
また抑止理論の心理学的な考察もなされた。	またよくしりろんのしんりがくてきなこーさつもなされた。	NO_LABEL
チャールス・オスグッドなどは、政治的な緊張緩和に軍縮が有効であり、これをきっかけとして互いがさらなる緊張緩和や軍縮に進むことができるとして、段階的相互緊張緩和策を唱えた。	NO_PRONOUNCE	NO_LABEL
これは国際関係において無視されがちな「善意」や「信頼」といったものを平和へとつなげる理論として評価されている。	NO_PRONOUNCE	NO_LABEL
1970年代以後、核理論への関心は急速に薄れていく。	せんきゅうひゃくななじゅうねんだいいご、かくりろんえのかんしんわきゅーそくにうすれていく。	NO_LABEL
およそ核戦略と呼べるものが研究され尽くしてしまったということもあるが、なにより国際関係の決定要因としての軍事力が相対的に弱まったのである。	およそかくせんりゃくとよべるものがけんきゅーされつくしてしまったとゆうこともあるが、なによりこくさいかんけいのけっていよーいんとしてのぐんじりょくがそーたいてきによわまったのである。	NO_LABEL
制限戦争論では国際関係の中核が交渉となったが、軍事力はその交渉の圧力となりにくくなってきたのである。	せいげんせんそーろんでわこくさいかんけいのちゅーかくがこーしょーとなったが、ぐんじりょくわそのこーしょーのあつりょくとなりにくくなってきたのである。	NO_LABEL
軍事力は、かつてはエスカレーション理論のもと、現状より強力な武力を用いると脅しをかけることで他国に圧力をかけることができた。	ぐんじりょくわ、かつてわえすかれーしょんりろんのもと、げんじょーよりきょーりょくなぶりょくをもちいるとおどしをかけることでたこくにあつりょくをかけることができた。	NO_LABEL
しかし本来であれば、両国は戦争の激化を防ぐことにこそ共通の利益を見いだせたはずである。	しかしほんらいであれば、りょーこくわせんそーのげきかをふせぐことにこそきょーつーのりえきをみいだせたはずである。	NO_LABEL
すなわち、戦争の激化を留めることこそが利益となるのに、エスカレートによる脅しをかけるのは論理的に矛盾していることが明らかになったのである。	すなわち、せんそーのげきかをとめることこそがりえきとなるのに、えすかれーとによるおどしをかけるのわろんりてきにむじゅんしていることがあきらかになったのである。	NO_LABEL
ベトナム戦争で実証されたように、米国は北ベトナムよりはるかに巨大な力を持っていたにもかかわらず、北ベトナムを屈服させることはできなかった。	べとなむせんそーでじっしょーされたよーに、べいこくわきたべとなむよりはるかにきょだいなちからをもっていたにもかかわらず、きたべとなむをくっぷくさせることわできなかった。	NO_LABEL
米国は結局、エスカレーションできなかったのである。	べいこくわけっきょく、えすかれーしょんできなかったのである。	NO_LABEL
これ以後は軍事力だけでなく、国家を多面的にとらえた国際関係論が構築されていくこととなる。	これいごわぐんじりょくだけでなく、こっかをためんてきにとらえたこくさいかんけいろんがこーちくされていくこととなる。	NO_LABEL
冷戦の終結によって、米国は唯一の核超大国となった。	れいせんのしゅーけつによって、べいこくわゆいいつのかくちょーたいこくとなった。	NO_LABEL
その一方で、新たに第三世界への核拡散や、テロリストに核兵器がわたる危険性などが生じてきた。	そのいっぽーで、あらたにだいさんせかいえのかくかくさんや、てろりすとにかくへいきがわたるきけんせいなどがしょーじてきた。	NO_LABEL
テロリストなどに対しては、従来型の抑止形態は意味をなさなくなっている。	てろりすとなどにたいしてわ、じゅーらいがたのよくしけいたいわいみをなさなくなっている。	NO_LABEL
そのため新たな核管理の方法が模索されている。	そのためあらたなかくかんりのほーほーがもさくされている。	NO_LABEL
加えて近年では、新たな拒否的抑止の手段としてミサイル防衛が現実味を帯び始めている。	くわえてきんねんでわ、あらたなきょひてきよくしのしゅだんとしてみさいるぼーえいがげんじつみをおびはじめている。	NO_LABEL
MDは従来からあった拒否的抑止理論に一石を投じるものとして注目される。	えむでぃわじゅーらいからあったきょひてきよくしりろんにいっせきをとーじるものとしてちゅーもくされる。	NO_LABEL
日本においては、日米安全保障条約とともに米国から核の傘を提供してもらうことによって核抑止力を得てきた。	にっぽんにおいてわ、にちべいあんぜんほしょーじょーやくとともにべいこくからかくのかさをていきょーしてもらうことによってかくよくしりょくをえてきた。	NO_LABEL
詳細については「核抑止」などの記事を参照されたい。	NO_PRONOUNCE	NO_LABEL
なお一部の論者からは、かねてから日本の核武装論が唱えられてきた。	なおいちぶのろんしゃからわ、かねてからにほんのかくぶそーろんがとなえられてきた。	NO_LABEL
これについては核武装論を参照。	これについてわかくぶそーろんをさんしょー。	NO_LABEL
