智儼は中国華厳宗の第二祖とされる僧。	ちごんわちゅーごくけごんしゅーのだいにそとされるそー。	NO_LABEL
天水生まれ、12歳で華厳宗初祖とされる杜順に見出され、14歳で出家、サンスクリットを学び、学僧となる。	てんすいうまれ、じゅうにさいでけごんしゅーういそとされるとじゅんにみいだされ、じゅうよんさいでしゅっけ、さんすくりっとをまなび、がくそーとなる。	NO_LABEL
華厳経の注釈学と心の問題を扱う唯識学を統合し、華厳教学の事実上の創始者となる。	けごんきょーのちゅーしゃくがくとこころのもんだいをあつかうゆいしきがくをとーごーし、けごんきょーがくのじじつじょーのそーししゃとなる。	NO_LABEL
