ニコラス・レジナルド・エバンスは、アメリカ合衆国・アリゾナ州マリコパ郡グレンデール出身のプロ野球選手。	NO_PRONOUNCE	NO_LABEL
右投右打。	みぎなげみぎうち。	NO_LABEL
、MLBドラフト5巡目でニューヨーク・メッツから指名され、6月16日に契約。	NO_PRONOUNCE	NO_LABEL
ルーキー級ガルフ・コーストリーグ・メッツで50試合に出場し、7本塁打27打点3盗塁、打率.258だった。	NO_PRONOUNCE	NO_LABEL
はルーキー級キングスポート・メッツで15試合に出場後、7月にA-級ブルックリン・サイクロンズへ昇格。	NO_PRONOUNCE	NO_LABEL
57試合に出場し、6本塁打33打点、打率.252だった。	NO_PRONOUNCE	NO_LABEL
はA級ヘイガーズタウン・サンズで137試合に出場し、15本塁打67打点2盗塁、打率.254だった。	NO_PRONOUNCE	NO_LABEL
はA+級セントルーシー・メッツで103試合に出場し、15本塁打54打点3盗塁、打率.286だった。	NO_PRONOUNCE	NO_LABEL
はAA級ビンガムトン・メッツで開幕を迎え、5月24日にメッツとメジャー契約を結んだ。	わえーえーいこーるきゅーびんがむとんめっつでかいまくをむかえ、ごがつにじゅうよっかにめっつとめじゃーけいやくをむすんだ。	NO_LABEL
同日のコロラド・ロッキーズ戦でメジャーデビュー。	どーじつのころらどろっきーずせんでめじゃーでびゅー。	NO_LABEL
8番・左翼で先発起用され、4打数3安打2打点と活躍した。	NO_PRONOUNCE	NO_LABEL
その後も先発起用されていたが、6月8日にAAA級ニューオーリンズ・ゼファーズへ降格。	NO_PRONOUNCE	NO_LABEL
7月8日にメジャーへ再昇格した。	しちがつようかにめじゃーえさいしょーかくした。	NO_LABEL
この年は50試合に出場し、2本塁打9打点、打率.257だった。	NO_PRONOUNCE	NO_LABEL
3月1日にメッツと1年契約に合意。	さんがつついたちにめっつといちねんけいやくにごーい。	NO_LABEL
4月5日にAAA級バッファロー・バイソンズへ異動し、開幕をAAA級で迎えた。	しがついつかにとりぷれあきゅーばっふぁろーばいそんずえいどーし、かいまくをとりぷれあきゅーでむかえた。	NO_LABEL
6月19日にメジャーへ昇格。	ろくがつじゅうきゅうにちにめじゃーえしょーかく。	NO_LABEL
昇格後は一塁手として出場し、7月から左翼手に復帰。	しょーかくごわいちるいしゅとしてしゅつじょーし、しちがつからさよくしゅにふっき。	NO_LABEL
7月11日にAAA級へ降格した。	しちがつじゅういちにちにとりぷれあきゅーえこーかくした。	NO_LABEL
8月25日にメジャーへ再昇格。	はちがつにじゅうごにちにめじゃーえさいしょーかく。	NO_LABEL
昇格後は主に代打として出場した。	しょーかくごわおもにだいだとしてしゅつじょーした。	NO_LABEL
この年は30試合に出場し、1本塁打7打点、打率.231だった。	NO_PRONOUNCE	NO_LABEL
3月10日にメッツと1年契約に合意。	さんがつとおかにめっつといちねんけいやくにごーい。	NO_LABEL
3月23日にAAA級バッファローへ異動し、AAA級で開幕を迎えた。	さんがつにじゅうさんにちにとりぷれあきゅーばっふぁろーえいどーし、とりぷれあきゅーでかいまくをむかえた。	NO_LABEL
7月9日にメジャーへ昇格。	しちがつここのかにめじゃーえしょーかく。	NO_LABEL
昇格後は代打として2試合に出場したが、2打数無安打と結果を残せず、7月16日にAAA級へ降格した。	しょーかくごわだいだとしてにしあいにしゅつじょーしたが、にだすーむあんだとけっかをのこせず、しちがつじゅうろくにちにとりぷれあきゅーえこーかくした。	NO_LABEL
選手枠が拡大した9月5日にメジャーへ再昇格。	せんしゅわくがかくだいしたくがついつかにめじゃーえさいしょーかく。	NO_LABEL
この年は20試合に出場し、1本塁打5打点、打率.324だった。	NO_PRONOUNCE	NO_LABEL
3月3日にメッツと1年契約に合意したが、3月30日に40人枠を外れ、AAA級バッファローへ降格した。	さんがつみっかにめっつといちねんけいやくにごーいしたが、さんがつさんじゅうにちによんじゅうにんわくをはずれ、とりぷれあきゅーばっふぁろーえこーかくした。	NO_LABEL
5月18日に再びメッツとメジャー契約を結び、8試合に出場したが、12打数無安打と結果を残せず、6月10日にDFAとなり、6月14日にAAA級バッファローへ降格。	ごがつじゅうはちにちにふたたびめっつとめじゃーけいやくをむすび、はちしあいにしゅつじょーしたが、じゅうにだすーむあんだとけっかをのこせず、ろくがつとおかにでぃーえふえーとなり、ろくがつじゅうよっかにとりぷれあきゅーばっふぁろーえこーかく。	NO_LABEL
7月7日に再びメッツとメジャー契約を結び、9試合に出場したが、7月22日に再びDFAとなり、7月27日にAAA級バッファローへ降格。	しちがつなのかにふたたびめっつとめじゃーけいやくをむすび、きゅうしあいにしゅつじょーしたが、しちがつにじゅうににちにふたたびでぃーえふえーとなり、しちがつにじゅうしちにちにとりぷれあきゅーばっふぁろーえこーかく。	NO_LABEL
8月6日に再びメッツとメジャー契約を結んだ。	はちがつむいかにふたたびめっつとめじゃーけいやくをむすんだ。	NO_LABEL
この年は59試合に出場し、4本塁打25打点、打率.256だった。	NO_PRONOUNCE	NO_LABEL
オフの11月11日に40人枠を外れ、AAA級バッファローへ降格した。	おふのじゅーいちがつじゅういちにちによんじゅうにんわくをはずれ、とりぷれあきゅーばっふぁろーえこーかくした。	NO_LABEL
11月16日にFAとなった。	じゅーいちがつじゅうろくにちにえふえいとなった。	NO_LABEL
2011年11月30日にピッツバーグ・パイレーツとマイナー契約を結んだ。	にせんじゅういちねんじゅーいちがつさんじゅうにちにぴっつばーぐぱいれーつとまいなーけいやくをむすんだ。	NO_LABEL
はAAA級インディアナポリス・インディアンスで開幕を迎え、19試合に出場していたが、左手首の故障で5月に離脱。	NO_PRONOUNCE	NO_LABEL
8月にルーキー級ガルフ・コーストリーグ・パイレーツで復帰したが、2試合の出場にとどまった。	NO_PRONOUNCE	NO_LABEL
オフの11月3日にFAとなった。	おふのじゅーいちがつみっかにえふえいとなった。	NO_LABEL
2012年11月20日にロサンゼルス・ドジャースとマイナー契約を結んだ。	にせんじゅうにねんじゅーいちがつはつかにろさんぜるすどじゃーすとまいなーけいやくをむすんだ。	NO_LABEL
3月18日に放出され、3月29日にアリゾナ・ダイヤモンドバックスとマイナー契約を結んだ。	さんがつじゅうはちにちにほーしゅつされ、さんがつにじゅうきゅうにちにありぞなだいやもんどばっくすとまいなーけいやくをむすんだ。	NO_LABEL
この年はAA級モービル・ベイベアーズで133試合に出場し、19本塁打81打点2盗塁、打率.267だった。	NO_PRONOUNCE	NO_LABEL
はAAA級リノ・エーシズで開幕を迎え、開幕後は44試合に出場。	わとりぷれあきゅーりのえーしずでかいまくをむかえ、かいまくごわよんじゅうよんしあいにしゅつじょー。	NO_LABEL
11本塁打44打点、打率.335と好成績を残し、5月28日にダイヤモンドバックスとメジャー契約を結んだ。	NO_PRONOUNCE	NO_LABEL
昇格後は18試合に出場し、2本塁打7打点、打率.273だった。	NO_PRONOUNCE	NO_LABEL
7月28日に放出された。	しちがつにじゅうはちにちにほーしゅつされた。	NO_LABEL
2014年7月30日に東北楽天ゴールデンイーグルスと契約に合意した。	にせんじゅうよねんしちがつさんじゅうにちにとーほくらくてんごーるでんいーぐるすとけいやくにごーいした。	NO_LABEL
8月5日の千葉ロッテマリーンズ戦で初出場。	はちがついつかのちばろってまりーんずせんではつしゅつじょー。	NO_LABEL
翌6日には初安打と初打点を挙げるが、その後は全く結果を残せず。	よくむいかにわはつあんだとはつだてんをあげるが、そのごわまったくけっかをのこせず。	NO_LABEL
わずか5試合の出場にとどまり、同年シーズン終了を以って退団。	NO_PRONOUNCE	NO_LABEL
2014年11月20日にダイヤモンドバックスとマイナー契約を結ぶ。	にせんじゅうよねんじゅーいちがつはつかにだいやもんどばっくすとまいなーけいやくをむすぶ。	NO_LABEL
オフに自由契約となり、11月23日にサンディエゴ・パドレスとマイナー契約を結ぶ。	おふにじゆーけいやくとなり、じゅーいちがつにじゅうさんにちにさんでぃえごぱどれすとまいなーけいやくをむすぶ。	NO_LABEL
1月25日、韓国プロ野球・斗山ベアーズと契約。	NO_PRONOUNCE	NO_LABEL
2017年限りで退団した。	にせんじゅうななねんかぎりでたいだんした。	NO_LABEL
