『プリパラ』は、タツノコプロおよびDONGWOO A&E制作による日本のアニメ作品。	NO_PRONOUNCE	NO_LABEL
タカラトミーアーツとシンソフィアが共同開発した同名のトレーディングカードアーケードゲームを原作としている。	たからとみーあーつとしんそふぃあがきょーどーかいはつしたどーめいのとれーでぃんぐかーどあーけーどげーむをげんさくとしている。	NO_LABEL
2014年7月5日から2017年3月28日までテレビ東京および系列局、BSジャパンなどで放送されていた。	にせんじゅうよねんしちがついつかからにせんじゅうななねんさんがつにじゅうはちにちまでてれびとーきょーおよびけいれつきょく、びーえすじゃぱんなどでほーそーされていた。	NO_LABEL
アニメーションは前作『プリティーリズム・レインボーライブ』に引き続きタツノコプロと韓国のDONGWOO A&Eの共同制作だが、監督に森脇真琴が起用されるのを始め大半のスタッフは『プリティーリズム』シリーズから交代する。	NO_PRONOUNCE	NO_LABEL
また、メインキャストと一部を除くオープニングの主題歌にi☆Risが起用されており、後にi☆Risは本作での活動が認められて第十回声優アワードにて歌唱賞を受賞した。	また、めいんきゃすとといちぶをのぞくおーぷにんぐのしゅだいかにあいりすがきよーされており、のちにあいりすわもとさくでのかつどーがみとめられてだいじゅーかいせいゆーあわーどにてかしょーしょーをじゅしょーした。	NO_LABEL
ゲームの後からアニメ化された『プリティーリズム』シリーズとは異なりゲームとアニメの同時展開となっており、タカラトミーアーツとシンソフィアがゲームの大きな世界観やキャラクター原案を作った後、タツノコプロと森脇が中心となってアニメの世界観が構築された。	NO_PRONOUNCE	NO_LABEL
語感を大事にしており、「トモチケをパキる」や「かしこまっ！」などの語感は森脇が積極的にアイデアを出している。	NO_PRONOUNCE	NO_LABEL
『プリティーリズム』ファンにも好まれるように、放送開始に先駆けて3月公開の映画『劇場版 プリティーリズム・オールスターセレクション プリズムショー☆ベストテン』およびテレビアニメ『プリティーリズム・オールスターセレクション』にらぁらを登場させている。	NO_PRONOUNCE	NO_LABEL
プリティーリズムシリーズ同様、基本的に2次元による作画だがダンスシーンのみ3DCGによるトゥーンレンダリング描写となっている。	ぷりてぃーりずむしりーずどーよー、きほんてきににじげんによるさくがだがだんすしーんのみすりーでぃーしーじーによるとぅーんれんだりんぐびょーしゃとなっている。	NO_LABEL
また、プリティーリズムシリーズに存在していた実写パートは廃止され、一部のエンディングを除きアニメパートのみの放送となっている。	また、ぷりてぃーりずむしりーずにそんざいしていたじっしゃぱーとわはいしされ、いちぶのえんでぃんぐをのぞきあにめぱーとのみのほーそーとなっている。	NO_LABEL
なお、2ndシーズンでは全員進級・加齢していたが、3rdシーズンでは全員2ndシーズンの学年・年齢のままで物語が進行された。	NO_PRONOUNCE	NO_LABEL
2017年4月4日より、らぁらと新主人公・夢川ゆいのダブル主人公体制による新シリーズ『アイドルタイムプリパラ』が放送中。	NO_PRONOUNCE	NO_LABEL
私立パプリカ学園に通う小学5年生の女の子・真中らぁらは誰でもアイドルになれるテーマパーク・プリパラタウンへの招待券であるプリチケが届くのを心待ちにしていた。	NO_PRONOUNCE	NO_LABEL
しかし、パプリカ学園では小学部校長の方針で小学生のプリパラは厳禁、プリチケは見つかり次第没収されてしまう。	しかし、ぱぷりかがくえんでわしょーがくぶこーちょーのほーしんでしょーがくせいのぷりぱらわげんきん、ぷりちけわみつかりしだいぼっしゅーされてしまう。	NO_LABEL
そんなある日、らぁらは母に頼まれた買い物の途中で南みれぃが落としたプリチケのファイルバッグを拾い、本人に届けるためプリパラタウンへのゲートが設置されているPrism Stoneを訪れた。	NO_PRONOUNCE	NO_LABEL
すると、らぁらの頭上に待ち望んでいたプリチケが降って来る。	すると、らぁらのずじょーにまちのぞんでいたぷりちけがふってくる。	NO_LABEL
最初は校長の目を気にしてプリパラタウンへ入るのを躊躇していたらぁらであったが、プリパラタウンでみれぃを見つけてプリチケを渡した際にスカウトマスコットのクマが手違いでエントリーしたデュエットオーディションに飛び入りで参加して欲しいと要請される。	さいしょわこーちょーのめをきにしてぷりぱらたうんえはいるのをちゅーちょしていたらぁらであったが、ぷりぱらたうんでみれぃをみつけてぷりちけをわたしたさいにすかうとますこっとのくまがてちがいでえんとりーしたでゅえっとおーでぃしょんにとびいりでさんかしてほしいとよーせいされる。	NO_LABEL
こうして、思わぬ形でプリパラデビューしてしまったらぁらとプリパラを通じて知り合った仲間たちの神アイドルを目指す日々が始まるのであった。	こーして、おもわぬかたちでぷりぱらでびゅーしてしまったらぁらとぷりぱらをつーじてしりあったなかまたちのかみあいどるをめざすひびがはじまるのであった。	NO_LABEL
らぁらとみれぃはチームを結成した後、アイドルグランプリに出場に必要な3人チームを結成するべく北条そふぃを紆余曲折の末勧誘しSoLaMi♡SMILEを結成する。	NO_PRONOUNCE	NO_LABEL
後にSoLaMi♡SMILEを倒すべく東堂シオン、ドロシー・ウェスト、レオナ・ウェストの3人もDressingPaféを結成し、当初両チームは敵視し合うものの次第に良き友達、良きライバルとしての関係が構築され、やがて複合ユニット、SoLaMi Dressingとしてライブを行うまでになった。	NO_PRONOUNCE	NO_LABEL
そんな中、グロリア校長が中等部の校長を兼任することとなり、学園全体のプリパラが禁止されかかる。	そんななか、ぐろりあこーちょーがちゅーとーぶのこーちょーをけんにんすることとなり、がくえんぜんたいのぷりぱらがきんしされかかる。	NO_LABEL
6人はグロリア校長の過去を知り誤解を解くことに成功し、学園のプリパラは解禁された。	ろくにんわぐろりあこーちょーのかこをしりごかいをとくことにせいこーし、がくえんのぷりぱらわかいきんされた。	NO_LABEL
パラダイスコーデをかけたアイドルグランプリにて、らぁら達は突如現れた高い実力を持つボーカルドール・ファルルとの対決に臨むことになる。	NO_PRONOUNCE	NO_LABEL
一度は敗北を喫し全てのパラダイスコーデが取られるも、最終的にはSoLaMi Dressingが僅差でファルルに勝利する。	いちどわはいぼくをきっしすべてのぱらだいすこーでがとられるも、さいしゅーてきにわそらみどれっしんぐがきんさでふぁるるにしょーりする。	NO_LABEL
しかしファルルはその直後プリチケをパキって倒れてしまい、一同は明らかとなったファルルの事実を知ることとなった。	しかしふぁるるわそのちょくごぷりちけをぱきってたおれてしまい、いちどーわあきらかとなったふぁるるのじじつをしることとなった。	NO_LABEL
らぁら達はファルルを復活させるためにパラダイスコーデでライブに臨むことになるが、パラダイスコーデを完全に光らせることに失敗してしまう。	らぁらたちわふぁるるをふっかつさせるためにぱらだいすこーででらいぶにのぞむことになるが、ぱらだいすこーでをかんぜんにひからせることにしっぱいしてしまう。	NO_LABEL
しかし直後に多くのアイドルからの合唱がプリズムボイスとなり、パラダイスコーデを完全に光らせた事によりファルルは新たな姿で復活した。	しかしちょくごにおーくのあいどるからのがっしょーがぷりずむぼいすとなり、ぱらだいすこーでをかんぜんにひからせたことによりふぁるるわあらたなすがたでふっかつした。	NO_LABEL
本来グランプリに優勝しないと手に入らないはずのパラダイスコーデは全員貰えることとなり、ファルルはユニコンと共にプリパリで活動するため旅立っていった。	ほんらいぐらんぷりにゆーしょーしないとてにはいらないはずのぱらだいすこーでわぜんいんもらえることとなり、ふぁるるわゆにこんとともにぷりぱりでかつどーするためたびだっていった。	NO_LABEL
プリパラに新しいエリア「ドリームシアター」が完成し、四季のプリンセスを決めるべく年四回アイドルドリームグランプリを開催することが発表された。	NO_PRONOUNCE	NO_LABEL
グランプリ参加者はチャームを渡されて参加することとなる。	ぐらんぷりさんかしゃわちゃーむをわたされてさんかすることとなる。	NO_LABEL
そこに黒須あろまと白玉みかんの二人からなるユニット・アロマゲドンが現れる。	NO_PRONOUNCE	NO_LABEL
一度リセットされたSoLaMi♡SMILEとDressingPaféを招き入れようとするも不発に終わり、それぞれのチームとして引き続き活動することとなる。	NO_PRONOUNCE	NO_LABEL
間もなくパプリカ学園の学園長代理として、ムービースターとして有名な紫京院ひびきがプリンセス候補の緑風ふわりを連れて来日する。	まもなくぱぷりかがくえんのがくえんちょーだいりとして、むーびーすたーとしてゆーめいなしきょういんひびきがぷりんせすこーほのみどりかぜふわりをつれてらいにちする。	NO_LABEL
ふわりは自らの意思でプリンセス候補を辞退するが、ひびきはプリパラを自らの思惑通りに改造すべく暗躍を始めていた。	ふわりわみずからのいしでぷりんせすこーほをじたいするが、ひびきわぷりぱらをみずからのおもわくどーりにかいぞーすべくあんやくをはじめていた。	NO_LABEL
ひびきは自らが天才と見込んだアイドルを試したり、「怪盗ジーニアス」に扮しグランプリのコーデを一時的に強奪した後に自らプリパラデビュー。	NO_PRONOUNCE	NO_LABEL
らぁら達に正体を明かし、プリパラへの愛がどちらが強いか試すためコーデ返却を引き換えにらぁら達に勝負を挑む。	らぁらたちにしょーたいをあかし、ぷりぱらえのあいがどちらがつよいかためすためこーでへんきゃくをひきかえにらぁらたちにしょーぶをいどむ。	NO_LABEL
その結果ひびき達の天才チームが勝利し、プリパラはひびきによって「セレパラ」に作り変えられることになり、トップアイドル以上のアイドルしかライブのエントリーが不可となった。	NO_PRONOUNCE	NO_LABEL
らぁら達はプリパラの地下にある廃ステージを「地下パラ」に造り変え活動を再開するが、学園に教師として赴任したアイドル・黄木あじみにより一同はひびきの過去を、そして執事の安藤からひびきの最後の目的を知る。	NO_PRONOUNCE	NO_LABEL
らぁら達はひびきの最後の目的を止めるため、最後のアイドルドリームグランプリに挑む。	らぁらたちわひびきのさいごのもくてきをとめるため、さいごのあいどるどりーむぐらんぷりにいどむ。	NO_LABEL
らぁら達の努力チームが勝利してセレパラは消滅するが、その結果システムが崩壊を迎えてしまう。	らぁらたちのどりょくちーむがしょーりしてせれぱらわしょーめつするが、そのけっかしすてむがほーかいをむかえてしまう。	NO_LABEL
らぁら達の尽力でプリパラ自体は復旧するも、バグと判断されたひびきは救助に向かったふわり・あじみ・トリコ・ハム先輩共々消滅の危機に陥ってしまう。	NO_PRONOUNCE	NO_LABEL
ひびきは自分を助けようとしたふわり達の想いを受け入れ、最終的に四季のプリンセスとなったらぁらが努力チームと共にドリームパレードで鐘を鳴らしひびき達は救助された。	ひびきわじぶんをたすけようとしたふわりたちのおもいをうけいれ、さいしゅーてきにしきのぷりんせすとなったらぁらがどりょくちーむとともにどりーむぱれーどでかねをならしひびきたちわきゅーじょされた。	NO_LABEL
ドリームパレードは大成功を収め、ひびき、ふわり、ファルルはプリパリで活動するためにらぁら達に別れを告げ旅立った。	どりーむぱれーどわだいせいこーをおさめ、ひびき、ふわり、ふぁるるわぷりぱりでかつどーするためにらぁらたちにわかれをつげたびだった。	NO_LABEL
パラ宿のプリパラで神アイドルグランプリが開催されることが決定し、らぁら達は神アイドルを目指してこれに参加する決意を固める。	ぱらやどのぷりぱらでかみあいどるぐらんぷりがかいさいされることがけっていし、らぁらたちわかみあいどるをめざしてこれにさんかするけついをかためる。	NO_LABEL
同時にらぁらは突然プリパラタウンに現れた謎の赤ちゃん、ジュルルを拾い、みれぃ達と協力して世話をすることになった。	どーじにらぁらわとつぜんぷりぱらたうんにあらわれたなぞのあかちゃん、じゅるるをひろい、みれぃたちときょーりょくしてせわをすることになった。	NO_LABEL
この赤ちゃんこそ、神アイドル誕生の鍵を握る女神、ジュリィの仮の姿であった。	このあかちゃんこそ、かみあいどるたんじょーのかぎをにぎるめがみ、じゅりぃのかりのすがたであった。	NO_LABEL
らぁら達は、ジュルルを元のジュリィに戻すため奮闘することになる。	らぁらたちわ、じゅるるをもとのじゅりぃにもどすためふんとーすることになる。	NO_LABEL
その一方で、らぁらの妹・真中のんも、姉たちに内緒でTRiANGLEとして神アイドルを目指し始めていた。	NO_PRONOUNCE	NO_LABEL
最初の神アイドルグランプリでらぁら達に敗北したのを機にらぁら達に自らの正体を明かしたのんは、後に月川流華道の家元・月川ちりと、サパンナから来た少女・太陽ペッパーと共にNonSugarを結成し、今度こそ姉に勝利するため努力することとなった。	NO_PRONOUNCE	NO_LABEL
一方のアロマゲドンも、2ndシーズンのラストでパラ宿のプリパラに残留したボーカルドール、ガァルルを正式に加えてGaarmageddonを結成、プリパラ憲章違反に伴う解散の危機を乗り越え第2回の神アイドルグランプリを制した。	NO_PRONOUNCE	NO_LABEL
プリパリにいたファルル、ふわり、ひびきの3人もグランプリに出場するべくTricoloreを結成しようとするが、ひびきが誓いの言葉を言うのに難航したため中々チームを結成出来ずにいた。	ぷりぱりにいたふぁるる、ふわり、ひびきのさんにんもぐらんぷりにしゅつじょーするべくとりころーるをけっせいしようとするが、ひびきがちかいのことばをいうのになんこーしたためなかなかちーむをけっせいできずにいた。	NO_LABEL
紆余曲折の末無事にチームを結成することに成功し、第3回の神アイドルグランプリを制することにも成功した。	うよきょくせつのすえぶじにちーむをけっせいすることにせいこーし、だいさんかいのかみあいどるぐらんぷりをせいすることにもせいこーした。	NO_LABEL
間もなくジュルルがジュリィとして一時的に完全復活を遂げると同時に、ジュリィの妹、ジャニスが現れる。	まもなくじゅるるがじゅりぃとしていちじてきにかんぜんふっかつをとげるとどーじに、じゅりぃのいもーと、じゃにすがあらわれる。	NO_LABEL
ジュリィとジャニスはプリパラやアイドルの考え方ですれ違いが生じており、らぁら達は彼女たちの女神の座をめぐる争いに巻き込まれることになる。	じゅりぃとじゃにすわぷりぱらやあいどるのかんがえかたですれちがいがしょーじており、らぁらたちわかのじょたちのめがみのざをめぐるあらそいにまきこまれることになる。	NO_LABEL
そんな中、ジュリィのライブをきっかけに多くのチームが最後の神アイドルグランプリに出場することになった。	そんななか、じゅりぃのらいぶをきっかけにおーくのちーむがさいごのかみあいどるぐらんぷりにしゅつじょーすることになった。	NO_LABEL
NonSugarはこの大人数出場の状況下で、見事グランプリを制した。	のんしゅがーわこのだいにんずーしゅつじょーのじょーきょーかで、みごとぐらんぷりをせいした。	NO_LABEL
その後敗者復活戦でコスモ、あじみ、ちゃん子の3人で結成されたUCCHARI BIG-BANGSが制し、本選へ出場する全6チームが決定した。	NO_PRONOUNCE	NO_LABEL
その後、ジュリィは完全復活を果たすが、同時にジュリィが女神のルールに逆らった影響でグランプリ終了後に女神をジャニスに代替わりすると同時に消滅するという運命を背負っていることも判明した。	そのご、じゅりぃわかんぜんふっかつをはたすが、どーじにじゅりぃがめがみのるーるにさからったえいきょーでぐらんぷりしゅーりょーごにめがみをじゃにすにだいがわりするとどーじにしょーめつするとゆううんめいをせおっていることもはんめいした。	NO_LABEL
らぁら達はジュリィを救うため、グランプリの本選で優勝して神アイドルになることを誓うのであった。	らぁらたちわじゅりぃをすくうため、ぐらんぷりのほんせんでゆーしょーしてかみあいどるになることをちかうのであった。	NO_LABEL
グランプリの本選は接戦の末SoLaMi♡SMILEが優勝、神アイドルになるための最後の条件であるジュリィとジャニスの女神姉妹との対決も制覇し、SoLaMi♡SMILEはついに神アイドルになった。	NO_PRONOUNCE	NO_LABEL
しかし、これと同時にジュリィも運命の時を迎え、救助に向かったジャニスとともに消滅、女神を失ったプリパラやパラ宿は最大の危機を迎えたが、SoLaMi♡SMILEのライブとアイドルたちの友情の力によって、ジュルル、ジャニス共々復活。	NO_PRONOUNCE	NO_LABEL
危機は回避され、ジュリィはプリチケ配達人となり、女神となったジャニスも職務に専念するためらぁら達と別れた。	ききわかいひされ、じゅりぃわぷりちけはいたつじんとなり、めがみとなったじゃにすもしょくむにせんねんするためらぁらたちとわかれた。	NO_LABEL
程なくしてらぁらは、グロリア校長から新学期から転校するよう告げられ、『アイドルタイムプリパラ』の物語へと繋がる。	NO_PRONOUNCE	NO_LABEL
劇場版にて登場するキャラクターも併せて記載する。	げきじょーばんにてとーじょーするきゃらくたーもあわせてきさいする。	NO_LABEL
アニメに登場するキャラクターは特に注記が無い場合はアニメのストーリーに基づく。	あにめにとーじょーするきゃらくたーわとくにちゅーきがないばあいわあにめのすとーりーにもとずく。	NO_LABEL
声優はゲーム版と共通。	せいゆーわげーむばんときょーつー。	NO_LABEL
ゲーム版では任意でプレイヤーキャラクターを選択して自由にチームを作ることが可能であるが、アニメでは基本的にそれぞれユニットを組んで活動している他、単独でライブをする場合もある。	げーむばんでわにんいでぷれいやーきゃらくたーをせんたくしてじゆーにちーむをつくることがかのーであるが、あにめでわきほんてきにそれぞれゆにっとをくんでかつどーしているほか、たんどくでらいぶをするばあいもある。	NO_LABEL
各アイドルキャラクターの属性は、原則『チャーム』と表記する。	NO_PRONOUNCE	NO_LABEL
なお、一部キャラの本名は『アイドルタイムプリパラ』まで明かされなかったため、ここでは同作で判明した本名も、合わせて記載する。	NO_PRONOUNCE	NO_LABEL
『アイドルタイムプリパラ』での設定については、該当記事の『登場キャラクター』の節を参照。	NO_PRONOUNCE	NO_LABEL
本項では、主にアーケード版でプレイ可能なキャラクターを記載する。	ほんこーでわ、おもにあーけーどばんでぷれいかのーなきゃらくたーをきさいする。	NO_LABEL
1stシーズンまでに登場したメインキャラは名前の1文字目を並べると『ドレミファソラシ』となり、苗字も人間ではないファルル以外全員方角がモチーフとなっている。	NO_PRONOUNCE	NO_LABEL
2ndシーズンから登場したメインキャラの名前は視覚、嗅覚等の五感がモチーフになっており、苗字には全て色の名前が入っている。	せかんどしーずんからとーじょーしためいんきゃらのなまえわしかく、きゅーかくとーのごかんがもちーふになっており、みょーじにわすべてしょくのなまえがはいっている。	NO_LABEL
3rdシーズンから登場したメインキャラの名前は香辛料のチリソース、ペッパーがモチーフになっており、苗字には二大天体の名前が入っている。	さーどしーずんからとーじょーしためいんきゃらのなまえわこーしんりょーのちりそーす、ぺっぱーがもちーふになっており、みょーじにわにだいてんたいのなまえがはいっている。	NO_LABEL
真中らぁら、南みれぃ、北条そふぃの3人のチーム。	まなからぁら、みなみみれぃ、ほーじょーそふぃのさんにんのちーむ。	NO_LABEL
マネージャーはスカウトマスコットのクマ。	まねーじゃーわすかうとますこっとのくま。	NO_LABEL
由来は3人の頭文字から、「空を見て皆で笑う」という意味もある。	NO_PRONOUNCE	NO_LABEL
第12話で結成、第13話でユニット名が決定した。	だいじゅうにわでけっせい、だいじゅうさんわでゆにっとめいがけっていした。	NO_LABEL
アイドルドリームグランプリ開催に伴い強制的に解散させられたが、第43話で再結成を果たす。	あいどるどりーむぐらんぷりかいさいにともないきょーせいてきにかいさんさせられたが、だいよんじゅうさんわでさいけっせいをはたす。	NO_LABEL
第75話 - 第80話でそふぃがセレパラ歌劇団に加入するため、チームを離れていた。	NO_PRONOUNCE	NO_LABEL
第101話の第1回神アイドルグランプリ予選では、優勝を果たした。	だいひゃくいちわのだいいっかいしんあいどるぐらんぷりよせんでわ、ゆーしょーをはたした。	NO_LABEL
本選では第134話の1回戦でNonSugarを破り、準決勝戦に進出、続く第135話の準決勝戦でTricoloreを破り、決勝戦に進出した。	NO_PRONOUNCE	NO_LABEL
決勝戦ではDressingPaféに勝利し優勝、神ドレスと神ヒールを解放した。	NO_PRONOUNCE	NO_LABEL
その後、ジュリィとジャニスの女神姉妹との対決も制し、正式に神アイドルとなった。	そのご、じゅりぃとじゃにすのめがみしまいとのたいけつもせいし、せいしきにかみあいどるとなった。	NO_LABEL
東堂シオン、ドロシー・ウェスト、レオナ・ウェストの3人のチーム。	NO_PRONOUNCE	NO_LABEL
マネージャーはスカウトマスコットのウサギ。	まねーじゃーわすかうとますこっとのうさぎ。	NO_LABEL
第14話でユニット名が決定し、ユニットとしての初ライブを行った。	だいじゅうよんわでゆにっとめいがけっていし、ゆにっととしてのはつらいぶをおこなった。	NO_LABEL
これがユニットデビュー、なおかつシオンのアイドルデビューであるにも関わらず、圧倒的なパワーとパフォーマンスで観客を魅了し、クマに「ものすごい微妙なバランスだけど、とても高いレベルで成り立っている」とまで言わしめた。	NO_PRONOUNCE	NO_LABEL
その後幾多の困難を乗り越え、チームの絆を深め、第25話で正式にチーム結成の儀式を行った。	そのごいくたのこんなんをのりこえ、ちーむのきずなをふかめ、だいにじゅうごわでせいしきにちーむけっせいのぎしきをおこなった。	NO_LABEL
「ドレッシング」は3人の名前の頭文字と「個性が強く水と油のように相容れない者同士のユニット」という意味のダブル・ミーニングであり、フランス語で「完璧」を意味する"parfait"が由来の「パフェ」を後ろに付けている。	NO_PRONOUNCE	NO_LABEL
SoLaMi♡SMILEと同様にアイドルドリームグランプリ開催に伴い強制的に解散させられたが、第44話で再結成を果たす。	NO_PRONOUNCE	NO_LABEL
第75話 - 第80話でシオンがセレパラ歌劇団に加入するため、チームを離れていた。	NO_PRONOUNCE	NO_LABEL
第101話の第1回神アイドルグランプリ予選では、優勝を果たした。	だいひゃくいちわのだいいっかいしんあいどるぐらんぷりよせんでわ、ゆーしょーをはたした。	NO_LABEL
本選では第132話の1回戦でGaarmageddonを破り、決勝戦に進出した。	NO_PRONOUNCE	NO_LABEL
第134話で決勝戦に備えるため、山へ修行の旅に出て、第136話で修業を完了しパラ宿へ帰還した。	だいひゃくさんじゅうよんわでけっしょーせんにそなえるため、やまえしゅぎょーのたびにでて、だいひゃくさんじゅうろくわでしゅーぎょーをかんりょーしぱらやどえきかんした。	NO_LABEL
決勝戦ではSoLaMi♡SMILEに敗れ、準優勝となった。	NO_PRONOUNCE	NO_LABEL
黒須あろまと白玉みかん、ガァルルの3人で構成されているアイドルチーム。	くろすあろまとしらたまみかん、がぁるるのさんにんでこーせいされているあいどるちーむ。	NO_LABEL
2ndシーズン後半まではあろまとみかんで『アロマゲドン』を結成していたが、第82話以降はガァルルを加えたGaarmageddonとして活動している。	NO_PRONOUNCE	NO_LABEL
活動全般は基本的にあろまが取り仕切っており、第40話から第44話まではSoLaMi♡SMILEとDressingPaféの再結成を阻止し、一部メンバーを自らのチームに入れるべく暗躍し、第45話以降はSoLaMi♡SMILEまたはDressingPaféどちらかを自らのチームに入れるために暗躍していたが彼女達の本質を知ったらぁら達から逆に誘われるようになった。	NO_PRONOUNCE	NO_LABEL
第48話でSoLaMi♡SMILEとドリームチーム『そらマゲドン・み』を組んだ後は一応は和解しているが、同話以降に登場した新キャラクターを争奪する場合は対立することがある。	NO_PRONOUNCE	NO_LABEL
マネージャーはスカウトマスコットのネコで、こちらはクマとウサギの動きを押さえるため、あろまのサポート役に回っている。	まねーじゃーわすかうとますこっとのねこで、こちらわくまとうさぎのうごきをおさえるため、あろまのさぽーとやくにまわっている。	NO_LABEL
アイドルデビューしたばかりだが、実力が備わっている上に2人の強烈なキャラクターも相まって急激にアイドルランクを上げている。	あいどるでびゅーしたばかりだが、じつりょくがそなわっているうえにふたりのきょーれつなきゃらくたーもあいまってきゅーげきにあいどるらんくをあげている。	NO_LABEL
一度あろまの誤解でコンビを解散したことがあるが、みかんの努力を知ったことで和解しコンビを再結成した。	いちどあろまのごかいでこんびをかいさんしたことがあるが、みかんのどりょくをしったことでわかいしこんびをさいけっせいした。	NO_LABEL
Gaarmageddonとしてのライブは、第104話までは楽曲をアロマゲドンが担当しメイキングドラマのみ3人で共演する形態をとっていたが、正式なチームとなった第105話以降は他のチームと同様3人でライブを行う形態をとっている。	NO_PRONOUNCE	NO_LABEL
これ以外にも目的達成のために様々な悪戯を行っている。	これいがいにももくてきたっせいのためにさまざまないたずらをおこなっている。	NO_LABEL
第104話より3人ライブにはブランド「LOVE DEVI」を用いている。	NO_PRONOUNCE	NO_LABEL
ガァルルがパキれない関係上チーム結成の儀式は行っていなかったが、3人で神アイドルグランプリに出場するべく第105話で正式にGaarmageddonのチーム結成儀式を行った。	NO_PRONOUNCE	NO_LABEL
第106話ではジュルルをプリパリに預かろうとしたプリパリめが兄ぃを妨害したため彼からプリパラ憲章違反としてチーム解散命令を言い渡されるが、その後ネコを除いて無観客のままチームとして最後のライブを行う。	だいひゃくろくわでわじゅるるをぷりぱりにあずかろうとしたぷりぱりめがあにぃをぼーがいしたためかれからぷりぱらけんしょーいはんとしてちーむかいさんめいれいをいーわたされるが、そのごねこをのぞいてむかんきゃくのままちーむとしてさいごのらいぶをおこなう。	NO_LABEL
その結果ジュリィに認められて第2回の神アイドルグランプリを優勝したことで、チーム解散は回避された。	そのけっかじゅりぃにみとめられてだいにかいのかみあいどるぐらんぷりをゆーしょーしたことで、ちーむかいさんわかいひされた。	NO_LABEL
神アイドルグランプリの本選では第132話の1回戦でDressingPaféに敗れ、ベスト6に終わった。	NO_PRONOUNCE	NO_LABEL
ひびき、ファルル、ふわりの3人によるチーム。	ひびき、ふぁるる、ふわりのさんにんによるちーむ。	NO_LABEL
3rdシーズンよりプリパリで活動している。	さーどしーずんよりぷりぱりでかつどーしている。	NO_LABEL
第108話でパラ宿のプリパラに訪れて正式にチーム名が発表されたが、正式なチーム結成はひびきが誓いの言葉の中にある「友情」を言えなかったため延期されていたが、第114話でようやくチームが結成出来た。	NO_PRONOUNCE	NO_LABEL
続く第115話で第3回の神アイドルグランプリを制した。	つずくだいひゃくじゅうごわでだいさんかいのかみあいどるぐらんぷりをせいした。	NO_LABEL
マネージャーは元々ふわりのマネージャーであったスカウトマスコットのトリコ。	まねーじゃーわもともとふわりのまねーじゃーであったすかうとますこっとのとりこ。	NO_LABEL
なお、ファルルのマネージャーであるスカウトマスコットのユニコンは後述の理由でマネージャーの業務から外れている。	なお、ふぁるるのまねーじゃーであるすかうとますこっとのゆにこんわこーじゅつのりゆーでまねーじゃーのぎょーむからはずれている。	NO_LABEL
神アイドルグランプリ本選では第133話の1回戦でUCCHARI BIG-BANGSを破り、準決勝戦に進出したが、第135話の準決勝戦でSoLaMi♡SMILEに敗れ、3位に終わった。	NO_PRONOUNCE	NO_LABEL
のん、ちり、ペッパーによる3人のチーム。	のん、ちり、ぺっぱーによるさんにんのちーむ。	NO_LABEL
チーム名は「甘くない」という意味である。	NO_PRONOUNCE	NO_LABEL
じゃんけんをモチーフとしており、どんな手を使っても絶対勝てることをイメージしている。	じゃんけんをもちーふとしており、どんなてをつかってもぜったいかてることをいめーじしている。	NO_LABEL
マネージャーはスカウトマスコットのウサチャ。	まねーじゃーわすかうとますこっとのうさちゃ。	NO_LABEL
2016年8月に先行して発表された後、第120話で結成された。	にせんじゅうろくねんはちがつにせんこーしてはっぴょーされたのち、だいひゃくにじゅうわでけっせいされた。	NO_LABEL
当初はちりの高慢な性格やペッパーの身勝手な行動もありチームとしての纏まりは薄かったが、プリパラジム主催の無人島サバイバルを通じて、チームの絆を深めていった。	とーしょわちりのこーまんなせいかくやぺっぱーのみがってなこーどーもありちーむとしてのまとまりわうすかったが、ぷりぱらじむしゅさいのむじんとーさばいばるをつーじて、ちーむのきずなをふかめていった。	NO_LABEL
そして第127話で第4回の神アイドルグランプリを制したものの、本選では第134話の1回戦でSoLaMi♡SMILEに敗れ、ベスト6に終わった。	NO_PRONOUNCE	NO_LABEL
NonSugarののんが第101話まで主に活動していた、じゅのん、ぴのん、かのんによる3人組のアイドルチーム。	のんしゅがーののんがだいひゃくいちわまでおもにかつどーしていた、じゅのん、ぴのん、かのんによるさんにんぐみのあいどるちーむ。	NO_LABEL
マネージャーはスカウトマスコットのウサチャ。	まねーじゃーわすかうとますこっとのうさちゃ。	NO_LABEL
劇場版『み〜んなのあこがれ♪レッツゴー☆プリパリ』のラストで先行して登場した。	NO_PRONOUNCE	NO_LABEL
他のチームと異なりのんが一人三役をこなす形態をとっている。	たのちーむとことなりのんがひとりさんやくをこなすけいたいをとっている。	NO_LABEL
ブランドは全員Rosette Jewelを使用する。	ぶらんどわぜんいんろぜっとじゅえるをしよーする。	NO_LABEL
髪型は全員サイドポニーであり、ポニー部分にはのんの髪の色と同じ薄紫色のメッシュが入っている。	かみがたわぜんいんさいどぽにーであり、ぽにーぶぶんにわのんのかみのいろとおなじうすむらさきしょくのめっしゅがはいっている。	NO_LABEL
前々から各タイプを想定したキャラ設定を考案しており、元はかのんのみだったがジュルルからポップ、クールタイプのジュエルを受けとったことで一人三役を演じるようになる。	まえまえからかくたいぷをそーていしたきゃらせっていをこーあんしており、もとはかのんのみだったがじゅるるからぽっぷ、くーるたいぷのじゅえるをうけとったことでひとりさんやくをえんじるよーになる。	NO_LABEL
第98話以降は基本的にかのんとして活動し、3人でのライブ・同時登場する際はじゅのん、ぴのんは事前収録した映像をめが兄ぃのホログラメーションを応用したホログラムにて登場させている。	NO_PRONOUNCE	NO_LABEL
なお正体が発覚する第101話までは、一人三役であること・正体がのんであることは世間に公表していなかった。	NO_PRONOUNCE	NO_LABEL
コスモ、あじみ、ちゃん子によるユニット。	こすも、あじみ、ちゃんこによるゆにっと。	NO_LABEL
第129話で神アイドルグランプリ敗者復活戦に出場するため結成された。	だいひゃくにじゅうきゅうわでかみあいどるぐらんぷりはいしゃふっかつせんにしゅつじょーするためけっせいされた。	NO_LABEL
元々は第125話で、コスモ、あじみ、ななみと共に『Q・P★COSMIX』を結成していたが、神アイドルグランプリでのライブ中にななみが行方不明になったため、代わりにちゃん子が加入し、敗者復活戦を制した。	NO_PRONOUNCE	NO_LABEL
神アイドルグランプリの本選では第133話の1回戦でTricoloreに敗れ、ベスト6に終わった。	かみあいどるぐらんぷりのほんせんでわだいひゃくさんじゅうさんわのいちかいせんでとりころーるにやぶれ、べすとしっくすにおわった。	NO_LABEL
プリパラにてアイドルたちを見守る他、神アイドルグランプリを取り仕切る女神の姉妹。	ぷりぱらにてあいどるたちをみまもるほか、かみあいどるぐらんぷりをとりしきるめがみのしまい。	NO_LABEL
神アイドルグランプリでは、本選優勝者が神アイドルになるために超えるべき最後の対戦相手として立ちはだかった。	かみあいどるぐらんぷりでわ、ほんせんゆーしょーしゃがかみあいどるになるためにこえるべきさいごのたいせんあいてとしてたちはだかった。	NO_LABEL
本編中は、上記のユニットのメンバーで合同のユニットを組む場合もある。	ほんぺんちゅーわ、じょーきのゆにっとのめんばーでごーどーのゆにっとをくむばあいもある。	NO_LABEL
この他、上記のチームの枠に拘らずに独自のメンバーでチームを組む場合もある。	このほか、じょーきのちーむのわくにかかわらずにどくじのめんばーでちーむをくむばあいもある。	NO_LABEL
SoLaMi Dressing以外は全て2ndシーズンで結成されたドリームチームである。	そらみどれっしんぐいがいわすべてせかんどしーずんでけっせいされたどりーむちーむである。	NO_LABEL
プリパラ内で各アイドルのマネージャーを努めている小動物。	ぷりぱらないでかくあいどるのまねーじゃーをつとめているしょーどーぶつ。	NO_LABEL
下記のレギュラーとして登場するマスコットの他にも、劇中では様々な種類のマスコットが確認されている。	かきのれぎゅらーとしてとーじょーするますこっとのほかにも、げきちゅーでわさまざまなしゅるいのますこっとがかくにんされている。	NO_LABEL
第78話から第86話まではセレパラの方針の影響でマネージャー制度が廃止され、城の下働きのみの業務となっていた。	だいななじゅうはちわからだいはちじゅうろくわまでわせれぱらのほーしんのえいきょーでまねーじゃーせいどがはいしされ、しろのしたばたらきのみのぎょーむとなっていた。	NO_LABEL
基本的にゲストキャラだがライブシーンなどで姿を見せることもある。	きほんてきにげすときゃらだがらいぶしーんなどですがたをみせることもある。	NO_LABEL
ここでは、後述の「私立パプリカ学園」「親族・家族関係者」に該当しないプリパラアイドルを述べる。	NO_PRONOUNCE	NO_LABEL
第125話では、ジュリィのライブに感銘し、神アイドルグランプリ出場のため様々なチームが結成された。	だいひゃくにじゅうごわでわ、じゅりぃのらいぶにかんめいし、かみあいどるぐらんぷりしゅつじょーのためさまざまなちーむがけっせいされた。	NO_LABEL
あろま、みかん、あじみ、ちゃん子の家族およびペッパーの実の親族については、劇中では一人も明かされなかった。	あろま、みかん、あじみ、ちゃんこのかぞくおよびぺっぱーのみのしんぞくについてわ、げきちゅーでわひとりもあかされなかった。	NO_LABEL
シオンは第88話および第132話で父親が姿のみ登場。	しおんわだいはちじゅうはちわおよびだいひゃくさんじゅうにわでちちおやがすがたのみとーじょー。	NO_LABEL
ひびきは前述の通りパプリカ学園会長が祖父にあたる他、後述の通り両親の存在が確認されている。	ひびきわぜんじゅつのとーりぱぷりかがくえんかいちょーがそふにあたるほか、こーじゅつのとーりりょーしんのそんざいがかくにんされている。	NO_LABEL
第118話では、みれぃとシオンには兄弟姉妹が存在しないことが判明した。	だいひゃくじゅうはちわでわ、みれぃとしおんにわけいていしまいがそんざいしないことがはんめいした。	NO_LABEL
アニメ版ではゲーム版と共通する設定もあるが、ここではアニメ版独自の設定について記述する。	あにめばんでわげーむばんときょーつーするせっていもあるが、ここでわあにめばんどくじのせっていについてきじゅつする。	NO_LABEL
基本的にアニメ版のみにて登場するが、ゲーム内の読み込み画面で声のみ登場する事もある。	きほんてきにあにめばんのみにてとーじょーするが、げーむないのよみこみがめんでこえのみとーじょーすることもある。	NO_LABEL
この他アニメ版ではパラ宿以外に『プラジル』『プリフォルニア』『ヨーロッパラ』『パルプス』など『プリパラ』の言語をモチーフとした地名が確認出来る。	NO_PRONOUNCE	NO_LABEL
第130話はオープニングがなく、クレジットはエンディングに集約されている。	だいひゃくさんじゅうわわおーぷにんぐがなく、くれじっとわえんでぃんぐにしゅーやくされている。	NO_LABEL
逆に最終話では本編中で流れた挿入歌がエンディングの代わりとして順々に使用されたため、挿入歌を除くほとんどのスタッフクレジットがオープニングに集約されている。	ぎゃくにさいしゅーわでわほんぺんちゅーでながれたそーにゅーかがえんでぃんぐのかわりとしてじゅんじゅんにしよーされたため、そーにゅーかをのぞくほとんどのすたっふくれじっとがおーぷにんぐにしゅーやくされている。	NO_LABEL
第105話から最終話まで提供クレジットで行っていた、作中で登場した用語によるしりとり。	だいひゃくごわからさいしゅーわまでていきょーくれじっとでおこなっていた、さくちゅーでとーじょーしたよーごによるしりとり。	NO_LABEL
しりとりの文字は実際に提供クレジットにて表示されたものを記載する。	しりとりのもじわじっさいにていきょーくれじっとにてひょーじされたものをきさいする。	NO_LABEL
テレビ東京系列の地上波6局のみ字幕放送対応。	NO_PRONOUNCE	NO_LABEL
同時ネット局も含め特番編成などにより放送時間が変更される場合がある。	どーじねっときょくもふくめとくばんへんせいなどによりほーそーじかんがへんこーされるばあいがある。	NO_LABEL
時間帯は全て現地時間。	じかんたいわすべてげんちじかん。	NO_LABEL
『劇場版プリパラ み〜んなあつまれ！プリズム☆ツアーズ』のタイトルで、2015年3月7日に公開。	NO_PRONOUNCE	NO_LABEL
本編であるプリパラのライブとは別に、『プリティーリズム』シリーズの『プリズムライブ』を紹介するコーナーがあり、このパートが全部で3+1パターン存在している。	NO_PRONOUNCE	NO_LABEL
基本の3パターンは公開期間中1週間で代わり代わりに変更。	NO_PRONOUNCE	NO_LABEL
残り1パターン『胸キュン！プリズムボーイズツアー』はプリティーリズムシリーズで男性たちが行うプリズムライブにスポットを当てた『サプライズパターン』という扱いで、特定の日に公開するレアバージョンになっている。	NO_PRONOUNCE	NO_LABEL
この『プリズムボーイズツアー』が好評を博し、後に独立した作品『KING OF PRISM by PrettyRhythm』へと繋がっていった。	NO_PRONOUNCE	NO_LABEL
『とびだすプリパラ み〜んなでめざせ！アイドル☆グランプリ』のタイトルで、2015年10月24日に2Dと3Dで公開された。	NO_PRONOUNCE	NO_LABEL
2016年8月現在、DVDなどのソフト化はされていない。	にせんじゅうろくねんはちがつげんざい、でぃーぶいでぃーなどのそふとかわされていない。	NO_LABEL
『映画プリパラ み〜んなのあこがれ♪レッツゴー☆プリパリ』のタイトルで、2016年3月12日に公開。	NO_PRONOUNCE	NO_LABEL
前作『とびだすプリパラ み〜んなでめざせ！アイドル☆グランプリ』のエンディングで、本作の公開が明らかになった。	NO_PRONOUNCE	NO_LABEL
本作の完全オリジナルキャラクターとして大神田グロリアの姉・『大神田プロリア』が登場。	NO_PRONOUNCE	NO_LABEL
このほかゲスト声優として川栄李奈が『ミニファルル』の一人を演じる。	NO_PRONOUNCE	NO_LABEL
週替わりのバージョンが3パターン用意され、基本的に再上映も含めて6週かけて上映される。	NO_PRONOUNCE	NO_LABEL
入場者特典は、プリチケ『プリパリトリコロールコーデ』で、3週間かけて3種類のプリチケがプレゼントされる。	NO_PRONOUNCE	NO_LABEL
以下の3パターンを週替わりで上映。	NO_PRONOUNCE	NO_LABEL
いずれも中盤のシーンが差し替えられている。	いずれもちゅーばんのしーんがさしかえられている。	NO_LABEL
主題歌は16週連続でオリコンアニメ週間TOP10入りするロングヒット作となっている。	NO_PRONOUNCE	NO_LABEL
テレビ東京にて、2017年2月27日、3:05 - 4:25にて放送。	NO_PRONOUNCE	NO_LABEL
プリパラおよびプリティーシリーズの劇場版としては、初の地上波テレビ放送となった。	ぷりぱらおよびぷりてぃーしりーずのげきじょーばんとしてわ、はつのちじょーはてれびほーそーとなった。	NO_LABEL
ニコニコチャンネルにて、2017年5月1日に予告編と全3ルートを配信。	NO_PRONOUNCE	NO_LABEL
予告編のみ無料配信。	よこくへんのみむりょーはいしん。	NO_LABEL
『劇場版プリパラ み〜んなでかがやけ!キラリン☆スターライブ!』のタイトルで、2017年3月4日から公開。	NO_PRONOUNCE	NO_LABEL
未知なる新世界『ぷちゅう』の『プリパラ太陽系』を巡るライブツアーが繰り広げられる。	NO_PRONOUNCE	NO_LABEL
本作ではゲストとして岡畑農園のゆるキャラである『梅岡さん』が登場する。	NO_PRONOUNCE	NO_LABEL
週替わりのバージョンが3パターン用意される。	NO_PRONOUNCE	NO_LABEL
入場者特典は、プリチケ『ぷちゅうポップコーデ』で、3週間かけて3種類のプリチケがプレゼントされる。	NO_PRONOUNCE	NO_LABEL
劇中のナレーションは、玄田哲章が担当。	げきちゅーのなれーしょんわ、げんだてっしょーがたんとー。	NO_LABEL
以下の3パターンを週替わりで上映。	NO_PRONOUNCE	NO_LABEL
ニコニコチャンネルにて、2018年2月1日に全3ルートを配信。	NO_PRONOUNCE	NO_LABEL
『劇場版 プリパラ&キラッとプリ☆チャン 〜きらきらメモリアルライブ〜』のタイトルで、2018年5月5日から公開。	NO_PRONOUNCE	NO_LABEL
『キラッとプリ☆チャン』および『プリティーリズム』シリーズとのクロスオーバー作品となる。	NO_PRONOUNCE	NO_LABEL
以下の3パターンを週替わりで上映。	NO_PRONOUNCE	NO_LABEL
Zeppブルーシアター六本木にて以下の2回が公演された。	ぜっぷぶるーしあたーろっぽんぎにていかのにかいがこーえんされた。	NO_LABEL
いずれもアニメ版の主要キャストを務めるi☆Risのメンバーがそのまま各々の担当キャラクターに扮する点や、ライブシーンでは観客のサイリウムの使用が許可されている事などが特徴。	いずれもあにめばんのしゅよーきゃすとをつとめるあいりすのめんばーがそのままおのおののたんとーきゃらくたーにふんするてんや、らいぶしーんでわかんきゃくのさいりうむのしよーがきょかされていることなどがとくちょー。	NO_LABEL
CD+DVD盤のタイトルには「DX」が付く。	NO_PRONOUNCE	NO_LABEL
小学館より発売。	しょーがくかんよりはつばい。	NO_LABEL
いずれも小学館が発行する雑誌で連載。	いずれもしょーがくかんがはっこーするざっしでれんさい。	NO_LABEL
漫画版は基本的にアニメ版の設定に沿っているが、一部違う点も見られる。	まんがばんわきほんてきにあにめばんのせっていにそっているが、いちぶちがうてんもみられる。	NO_LABEL
小学館より発売。	しょーがくかんよりはつばい。	NO_LABEL
原作/タカラトミーアーツ・シンソフィア、監修/タツノコプロ。	NO_PRONOUNCE	NO_LABEL
