群論という現代代数学の分野において、モンスター群とは最大のであり、その位数は	ぐんろんとゆうげんだいだいすーがくのぶんやにおいて、もんすたーぐんとわさいだいのであり、そのいすーわ	NO_LABEL
である。	である。	NO_LABEL
・モンスターあるいは Friendly Giant と呼ばれることもある。	NO_PRONOUNCE	NO_LABEL
有限単純群は完全にされている。	ゆーげんたんじゅんぐんわかんぜんにされている。	NO_LABEL
そのような群は18種類の可算無限族の1つに属するか、あるいはそのような系統的なパターンに従わない26個の散在群の1つである。	NO_PRONOUNCE	NO_LABEL
モンスター群は他の散在群のうち6個を除くすべてをとして含む。	NO_PRONOUNCE	NO_LABEL
はこれら6個の例外を と呼び、他の20個を "happy family" と呼んでいる。	NO_PRONOUNCE	NO_LABEL
モンスターの良い構成的定義をすることはその複雑さのため難しい。	もんすたーのよいこーせいてきていぎをすることわそのふくざつさのためむずかしい。	NO_LABEL
モンスターはと によって，フィッシャーののをある対合の中心化群として含む単純群として予言された．数か月のうちにグライスにより の位数がを用いて計算され，フィシャー，コンウェイ，ノートン，トンプソンは既知の散在群の多くと新しい2つを含む，他の群を部分商として発見した．新しい2つは，とである．モンスターの指標表は，194行194列からなるが，1979年にフィッシャーとドナルド・リヴィングストーンによって，マイケル・ソーンによって書かれたコンピュータプログラムを用いて計算された．1970年代にはモンスターが実際に存在することははっきりしていなかった． は を，次元の可換非結合環であるの自己同型群として構成した．彼は彼の構成を最初に Ann Arbor Jan. 14, 1980 に発表した．彼は1982年の論文でモンスターを Friendly Giant と呼んだが，この名前は一般には受け入れられていない． と は続いてこの構成を単純化した．	NO_PRONOUNCE	NO_LABEL
グリースの構成はモンスターの存在を示した． はその一意性が 次元の忠実表現の存在から従うことを示した．そのような表現の存在の証明は により発表されたが，彼は詳細を出版することはなかった． はモンスターの一意性の初めての完全な出版された証明を与えた．	NO_PRONOUNCE	NO_LABEL
モンスターは散在型単純群の発展の全盛であり，以下の3つの部分商のうちどの2つからも構成できる： , ， .	NO_PRONOUNCE	NO_LABEL
モンスターのとはともに自明群である．	NO_PRONOUNCE	NO_LABEL
忠実な複素表現の最小次数は であり，これは の位数の最も大きい素因数3つの積である．任意の体上の最小忠実線型表現は2元体上 次元であり，最小忠実複素表現の次元より 小さいだけである．	NO_PRONOUNCE	NO_LABEL
モンスターの最小忠実置換表現は 点上のものである．	NO_PRONOUNCE	NO_LABEL
モンスターは有理数体上のガロワ群や，として実現できる．	NO_PRONOUNCE	NO_LABEL
モンスターは単純群の中でもその元を表す易しい方法が知られていないという点で異例である．これは「小さい」表現が存在しないことに関して，その大きさが主な原因というわけではない．例えば，単純群 や ははるかに大きいが，「小さい」置換あるいは線型表現を持つから計算するのは易しい．交代群は群の大きさに比べて「小さい」置換表現を持ち，リー型のすべての有限単純群は群の大きさに比べて「小さい」線型表現を持つ．モンスター以外のすべての散在群もまたコンピュータで容易に計算できる十分小さい線型表現を持つ．	NO_PRONOUNCE	NO_LABEL
はモンスター群を生成する2つの196,882 次行列を明示的に見つけた．これは標数 0 の 196,883 次元表現よりも 1 次元低い．これらの行列で計算を実行することは可能だが，そのような行列はそれぞれ 4.5 ギガバイト以上を占めるので，時間と容量の点であまりにも高くつく．	NO_PRONOUNCE	NO_LABEL
ウィルソンはモンスターの最良の記述は「の自己同型群である」ということだと主張する．しかしこれはそれほど助けにはならない，なぜならば誰も「モンスター頂点代数の本当に単純で自然な構成」を発見していないからである．	NO_PRONOUNCE	NO_LABEL
ウィルソンは共同研究者とともに大幅にはやくモンスターについての計算を実行する手法を発見した． を2元体上の 196,882 次元ベクトル空間とする．モンスターの大きい部分群は計算の実行が容易なように選ばれる．選ばれる部分群 は である，ただし はである．モンスターの元は の元とある余分な生成元 の語として保存される． のベクトルへのこれらの語の1つの作用を計算することはそれなりにはやい．この作用を用いて計算を実行することが可能である．ウィルソンは joint stabilizer が自明群となるベクトル , を見つけた．したがってモンスターの元 の位数を， かつ なる最小の を見つけることによって計算できる．	NO_PRONOUNCE	NO_LABEL
同じ構成や類似の構成がその局所的でない極大部分群のいくつかを見つけるために用いられている．	NO_PRONOUNCE	NO_LABEL
モンスター群はコンウェイとノートンによるモンストラス・ムーンシャイン予想の2つの主要な要素の1つである．予想は離散数学と非離散数学を関係づけるもので，リチャード・ボーチャーズによって1992年に最終的に証明された．	NO_PRONOUNCE	NO_LABEL
この設定において，モンスター群は，という，グリース代数を含む無限次元のの自己同型群として見ることができ，一般カッツ・ムーディ代数に作用する．	NO_PRONOUNCE	NO_LABEL
モンスターと拡張ディンキン図形 formula_1 の間にも関係がある．具体的には図形の頂点とモンスターの共役類との関係であり，"McKay's observation" と呼ばれる．するとこれは拡張図形 formula_2 と群 , , の間の関係に拡張される．ここでこれらの群は，，モンスターのである．これらはモンスターの 1A, 2A, 3A 型の元の中心化群に付随するであり，拡大の次数は図形の対称性と対応している．さらなる関係については， を参照．かなり小さい単純群 との対応やブリングの曲線と呼ばれる種数 の canonic sextic curve の 120 の tritangent plane との対応を含む．	NO_PRONOUNCE	NO_LABEL
モンスターは少なくとも44個の極大部分群の共役類を持つ．約60の同型型の非可換単純群が部分群あるいは部分群の商として見つかる．表される最大の交代群は である．モンスターは26個ののうち20個を部分商として含む．この図は，の本 "Symmetry and the Monster" にあるものに基づいているが，それらが互いにどのように関係するかを示している．線分は下の群が上の群の部分商であることを意味する．丸い記号はより大きい散在群と関わらない群を表す．明瞭にするため冗長な包含は示されていない．	NO_PRONOUNCE	NO_LABEL
モンスターの極大部分群の類のうち44は以下のリストにより与えられる．これは, , あるいは の形の非可換単純 を持つ概単純部分群をありうる例外として完全であると信じられている．しかしながら，極大部分群の表はしばしば微妙な誤りを含んでいることが見つかり，特に以下のリストの部分群のうち少なくとも2つは以前のリストでは誤って除外された．	NO_PRONOUNCE	NO_LABEL
