デビッド・ヘイは、イギリスのプロボクサー。	でびっどへいわ、いぎりすのぷろぼくさー。	NO_LABEL
イングランド・ロンドン出身。	NO_PRONOUNCE	NO_LABEL
元WBA・WBC・WBO世界クルーザー級スーパー王者。	NO_PRONOUNCE	NO_LABEL
WBA世界ヘビー級王者。	だぶりゅーびーえーせかいへびーきゅーおーじゃ。	NO_LABEL
モデルとしても活躍している。	もでるとしてもかつやくしている。	NO_LABEL
見事にビルドアップされた肉体を持つ、スピードとパワーを兼ね備えたオールラウンダー。	みごとにびるどあっぷされたにくたいをもつ、すぴーどとぱわーをかねそなえたおーるらうんだー。	NO_LABEL
「Hayemaker」の異名を持つ。	NO_PRONOUNCE	NO_LABEL
この異名は「ノックアウトパンチ」を意味し、「ストリートファイトの世界で、強烈な一撃で相手をHayのベッドに眠らせる」という語源のアメリカのスラング。	NO_PRONOUNCE	NO_LABEL
対戦相手やライバルを徹底的に罵倒して挑発するビッグマウスでも有名。	たいせんあいてやらいばるをてっていてきにばとーしてちょーはつするびっぐまうすでもゆーめい。	NO_LABEL
ジェームス・ジキックなど総合格闘家の指導をしており、イギリスではBAMMAの解説者をしている。	じぇーむすじきっくなどそーごーかくとーかのしどーをしており、いぎりすでわびーえーえむえむえーのかいせつしゃをしている。	NO_LABEL
プロボクサーのキャリアと並行してヘイメーカー・プロモーションズを主宰している。	NO_PRONOUNCE	NO_LABEL
父親は空手の教官をしていた。	ちちおやわからてのきょーかんをしていた。	NO_LABEL
1999年、テキサス州ヒューストンで開催された1999年世界ボクシング選手権大会にライトヘビー級で出場するが2回戦で敗退した。	せんきゅうひゃくきゅうじゅうきゅうねん、てきさすしゅーひゅーすとんでかいさいされたせんきゅうひゃくきゅうじゅうきゅうねんせかいぼくしんぐせんしゅけんたいかいにらいとへびーきゅーでしゅつじょーするがにかいせんではいたいした。	NO_LABEL
2001年、北アイルランドベルファストで開催された2001年世界ボクシング選手権大会にヘビー級で出場するが、決勝でオドラニエル・ソリスに敗退し銀メダルを獲得した。	にせんいちねん、きたあいるらんどべるふぁすとでかいさいされたにせんいちねんせかいぼくしんぐせんしゅけんたいかいにへびーきゅーでしゅつじょーするが、けっしょーでおどらにえるそりすにはいたいしぎんめだるをかくとくした。	NO_LABEL
2002年12月8日、プロデビューを果たし2回TKO勝利を収めプロ初戦を白星で飾った。	にせんにねんじゅーにがつようか、ぷろでびゅーをはたしにかいてぃーけーおーしょーりをおさめぷろしょせんをしろぼしでかざった。	NO_LABEL
2003年11月14日、トニー・ダウリングを初回TKOで倒しBBBofCイングランドクルーザー級王座を獲得した。	NO_PRONOUNCE	NO_LABEL
2004年9月10日、デビューから10戦連続KOをマークし、勢いそのままに11戦目でWBO世界クルーザー級王者カール・トンプソンと対戦するが、5回TKOで敗れ初黒星を喫する事となった。	にせんよねんくがつとおか、でびゅーからじゅうせんれんぞくけいおーをまーくし、いきおいそのままにじゅういちせんめでだぶりゅーびーおーせかいくるーざーきゅーおーじゃかーるとんぷそんとたいせんするが、ごかいてぃーけーおーでやぶれはつくろぼしをきっすることとなった。	NO_LABEL
2005年12月16日、アレクサンドル・グロフを初回45秒でKOし、EBUヨーロピアンクルーザー級王座を獲得した。	NO_PRONOUNCE	NO_LABEL
2006年3月24日、ラッセ・ヨハンセンを8回TKOで下しEBU王座の初防衛に成功した。	NO_PRONOUNCE	NO_LABEL
2006年7月21日、イスマイル・アブドゥルと対戦し、判定で3-0の完勝を果たしEBU王座の2度目の防衛に成功した。	NO_PRONOUNCE	NO_LABEL
2006年11月17日、後にWBC世界クルーザー級王者となるジャコーベ・フラゴメーニとEBU王座を賭け対戦し、9回TKOで下し3度目の防衛を成功させフラゴメーニに初黒星を与えた。	NO_PRONOUNCE	NO_LABEL
またこの試合はWBC世界クルーザー級王座の挑戦者決定戦を賭けられていたためヘイは挑戦権を獲得した。	またこのしあいわだぶりゅーびーしーせかいくるーざーきゅーおーざのちゃれんじゃーけっていせんをかけられていたためへいわちょーせんけんをかくとくした。	NO_LABEL
2007年4月27日、トーマス・ボニンとヘビー級12回戦でテストマッチを行い計4度のダウンを奪い初回KOで相手をマットに沈めた。	NO_PRONOUNCE	NO_LABEL
2007年11月10日に初の世界メジャータイトル挑戦として、フランス・オー＝ド＝セーヌ県・ルヴァロワ＝ペレのパレ・デ・スポール・マルセル・セルダンでWBA・WBC世界クルーザー級スーパー王者ジャン＝マルク・モルメクに挑戦。	NO_PRONOUNCE	NO_LABEL
4回にダウンを奪われるが7回逆転TKOで勝利してWBA王座獲得、WBC王座獲得に成功した。	よんかいにだうんをうばわれるがななかいぎゃくてんてぃーけーおーでしょーりしてだぶりゅーびーえーおーざかくとく、だぶりゅーびーしーおーざかくとくにせいこーした。	NO_LABEL
2008年3月8日、WBO世界クルーザー級王者のエンゾ・マカリネリと王座統一戦を行い、2回2分4秒TKO勝ちを収めWBA王座は初、WBC王座も初防衛、WBO王座獲得に成功した。	にせんはちねんさんがつようか、だぶりゅーびーおーせかいくるーざーきゅーおーじゃのえんぞまかりねりとおーざとーいっせんをおこない、にかいにふんよんびょーてぃーけーおーがちをおさめだぶりゅーびーえーおーざわはつ、だぶりゅーびーしーおーざもはつぼーえい、だぶりゅーびーおーおーざかくとくにせいこーした。	NO_LABEL
3団体統一に成功した。	NO_PRONOUNCE	NO_LABEL
その後、ヘビー級転向のためWBA王座、WBC王座並びにWBO王座を返上した。	そのご、へびーきゅーてんこーのためだぶりゅーびーえーおーざ、だぶりゅーびーしーおーざならびにだぶりゅーびーおーおーざをへんじょーした。	NO_LABEL
2008年11月15日、正式にヘビー級に転向し、ベテラン選手のモンテ・バレットと対戦5度のダウンを奪い5回TKO勝ちを収めヘビー級でも持ち味であるパワーを発揮した。	NO_PRONOUNCE	NO_LABEL
2009年6月20日、IBF・WBO世界ヘビー級統一王者ウラジミール・クリチコに挑戦する予定だったが、ヘイが背中を負傷したため試合がキャンセルされた。	NO_PRONOUNCE	NO_LABEL
2009年11月7日、ヘビー級随一の巨人王者でWBA世界ヘビー級王者ニコライ・ワルーエフと対戦、ワルーエフはヘビー級史上最長身で最重量といわれており身長では191cmのヘイより22cmも高い213cmで体重では約100kgのヘイに対し145kg～150kgとおよそ50kgの体格差があった。	NO_PRONOUNCE	NO_LABEL
試合はヘイが2-0の際どい判定でワルーエフを下し王座獲得に成功、2階級制覇を達成した。	NO_PRONOUNCE	NO_LABEL
またワルーエフはこの試合を最後にグローブを吊るしボクシングに別れを告げた。	またわるーえふわこのしあいをさいごにぐろーぶをつるしぼくしんぐにわかれをつげた。	NO_LABEL
2010年4月3日、ジョン・ルイスを相手に指名試合を行い、4度のダウンを奪った上で9回タオル投入によるTKO勝ちで初防衛に成功した。	にせんじゅうねんしがつみっか、じょんるいすをあいてにしめいじあいをおこない、よんどのだうんをうばったうえできゅうかいたおるとーにゅーによるてぃーけーおーがちではつぼーえいにせいこーした。	NO_LABEL
2010年11月13日、英国・ランカシャーマンチェスターのマンチェスター・アリーナにてWBA同級14位のオードリー・ハリソン同国人対決を行い、3回TKO勝ちで2度目の防衛に成功した。	NO_PRONOUNCE	NO_LABEL
2011年4月、かつて自身のケガが原因で流れたウラジミール・クリチコ戦が2年越しに試合が行われる事が決定となった。	にせんじゅういちねんしがつ、かつてじしんのけががげんいんでながれたうらじみーるくりちこせんがにねんごしにしあいがおこなわれることがけっていとなった。	NO_LABEL
2011年7月2日、ドイツ・ハンブルクアルトナのアイエムテック･アレーナでIBF・WBO世界ヘビー級統一王者のウラジミール・クリチコと王座統一戦を行い、終始クリチコがプレッシャーを強めていき付け入る隙を与えない展開が続いていくもなんとか現状を打破したいヘイは飛び込みざまからのビックショットを狙うも不発に終わり、結局最初から最後まで相手にペースを渡さなかったクリチコが試合に勝利しポイントでは0-3の大差判定負けを喫し3団体統一に失敗、WBA王座から陥落した。	NO_PRONOUNCE	NO_LABEL
2011年10月13日、31歳の誕生日に現役引退を表明した。	にせんじゅういちねんじゅーがつじゅうさんにち、さんじゅういっさいのたんじょーびにげんえきいんたいをひょーめいした。	NO_LABEL
2012年2月18日、ミュンヘンのオリンピアハレでWBC世界ヘビー級タイトルマッチがビタリ・クリチコとデレック・チゾラの間で行われ、ヘイは解説者として試合を観戦していたが、試合後の記者会見でデレック・チゾラの暴言からヘイとチゾラが乱闘になり止めに入ったヘイのトレーナーを務めるアダム・ブースが負傷するという事態が起きた。	NO_PRONOUNCE	NO_LABEL
2012年3月14日、英国ボクシング管理委員会が事情聴取を行いチゾラのボクシングライセンスを剥奪することを決定した。	にせんじゅうにねんさんがつじゅうよっか、えいこくぼくしんぐかんりいーんかいがじじょーちょーしゅをおこないちぞらのぼくしんぐらいせんすをはくだつすることをけっていした。	NO_LABEL
しかしこの時ヘイは引退しておりボクシングライセンスを所持していなかったことで処分を免れた。	しかしこのじへいわいんたいしておりぼくしんぐらいせんすをしょじしていなかったことでしょぶんをまぬかれた。	NO_LABEL
2012年6月14日、当初は試合開催を認めない方針でいたWBAだったが最終的に承認する決断を下しヘイ対チゾラの因縁はリングの上で決着を付けることとなりそれにともないヘイは引退を撤回してカムバックする事となった。	にせんじゅうにねんろくがつじゅうよっか、とーしょわしあいかいさいをみとめないほーしんでいただぶりゅーびーえーだったがさいしゅーてきにしょーにんするけつだんをくだしへいたいちぞらのいんねんわりんぐのうえでけっちゃくをつけることとなりそれにともないへいわいんたいをてっかいしてかむばっくすることとなった。	NO_LABEL
2012年7月14日、ロンドンのアップトン・パークで行われたWBOインターナショナルヘビー級王座決定戦並びにWBAインターコンチネンタルヘビー級王座決定戦でデレック・チゾラと対戦し、5回2分59秒TKO勝ちでWBOインターナショナル王座とWBAインターコンチネンタル王座の獲得に成功、チゾラとの因縁に終止符を打った。	にせんじゅうにねんしちがつじゅうよっか、ろんどんのあっぷとんぱーくでおこなわれただぶりゅーびーおーいんたーなしょなるへびーきゅーおーざけっていせんならびにだぶりゅーびーえーいんたーこんちねんたるへびーきゅーおーざけっていせんででれっくちぞらとたいせんし、ごかいにふんごじゅうきゅうびょーてぃーけーおーがちでだぶりゅーびーおーいんたーなしょなるおーざとだぶりゅーびーえーいんたーこんちねんたるおーざのかくとくにせいこー、ちぞらとのいんねんにしゅーしふをうった。	NO_LABEL
BBBofCは両選手がイギリスでのボクシングライセンスを所持していないことから試合を行うことを認めなかったが、ルクセンブルグ・ボクシング連盟が両選手にボクシングライセンスを与える形になり「イギリスのボクシング史上最大の非合法試合」と非難される中、イギリス国内で行われる試合にもかかわらず国外のコミッションが選手にライセンスを授与するという前代未聞の異例な形で試合が行われた。	NO_PRONOUNCE	NO_LABEL
2013年6月29日、マヌエル・チャーと対戦予定であったが、ヘイが拳を負傷したためキャンセルとなったが、かわりに若きホープのタイソン・フューリー戦にサインをした。	にせんじゅうさんねんろくがつにじゅうきゅうにち、まぬえるちゃーとたいせんよていであったが、へいがこぶしをふしょーしたためきゃんせるとなったが、かわりにわかきほーぷのたいそんふゅーりーせんにさいんをした。	NO_LABEL
2013年7月11日、3時間で1万枚のチケットを売りあげた注目の一戦はマンチェスター・アリーナにて9月28日に決まり、それにともないデオンテイ・ワイルダーなどとスパーリングなどをして試合の準備をしていたが、試合の1週間前にヘイがスパーリングで目の上をカットして延期となった。	NO_PRONOUNCE	NO_LABEL
2014年2月8日にタイソン・フューリーとの試合が再設定されていたが、ヘイが今度は手術が必要なほどの重傷を右肩に負い、医者から引退勧告を受け試合が中止された。	にせんじゅうよねんにがつようかにたいそんふゅーりーとのしあいがさいせっていされていたが、へいがこんどわしゅじゅつがひつよーなほどのじゅーしょーをみぎかたにおい、いしゃからいんたいかんこくをうけしあいがちゅーしされた。	NO_LABEL
2015年4月27日、ドバイで使用した小切手が不渡りとなり、出国しようとしていたドバイ国際空港で詐欺容疑で逮捕された。	にせんじゅうごねんしがつにじゅうしちにち、どばいでしよーしたこぎってがふわたりとなり、しゅっこくしようとしていたどばいこくさいくうこーでさぎよーぎでたいほされた。	NO_LABEL
2016年1月16日、ロンドンのO2アリーナで3年半ぶりの復帰戦でマーク・デ・モリと対戦し1回TKO勝利を収めた。	NO_PRONOUNCE	NO_LABEL
2017年3月4日、ロンドンのO2アリーナでWBC世界クルーザー級王者のトニー・ベリューとヘビー級12回戦を行い、11回2分16秒TKO負けを喫した。	にせんじゅうななねんさんがつよっか、ろんどんのおーとぅーありーなでだぶりゅーびーしーせかいくるーざーきゅーおーじゃのとにーべりゅーとへびーきゅーじゅうにかいせんをおこない、じゅういっかいにふんじゅうろくびょーてぃーけーおーまけをきっした。	NO_LABEL
この試合で6回以降足を引きずるような仕草を見せていたヘイだったが、試合後にアキレス腱の手術を受けた。	このしあいでろっかいいこーあしをひきずるよーなしぐさをみせていたへいだったが、しあいごにあきれすけんのしゅじゅつをうけた。	NO_LABEL
2017年11月21日、トニー・ベリューと12月17日に再戦が決まっていたがヘイがトレーニング中に階段から転倒して上腕二頭筋を負傷したため試合は延期された。	にせんじゅうななねんじゅーいちがつにじゅういちにち、とにーべりゅーとじゅーにがつじゅうななにちにさいせんがきまっていたがへいがとれーにんぐちゅーにかいだんからてんとーしてじょーわんにとーきんをふしょーしたためしあいわえんきされた。	NO_LABEL
2018年5月5日、延期されていたトニー・ベリューとの試合がロンドンのO2アリーナで開催されることがアナウンスされている。	にせんじゅうはちねんごがついつか、えんきされていたとにーべりゅーとのしあいがろんどんのおーとぅーありーなでかいさいされることがあなうんすされている。	NO_LABEL
