『守銭奴』は、モリエールの戯曲。	NO_PRONOUNCE	NO_LABEL
1668年発表。	せんろっぴゃくろくじゅうはちねんはっぴょー。	NO_LABEL
パレ・ロワイヤルにて同年9月9日初演。	ぱれろわいやるにてどーねんくがつここのかしょえん。	NO_LABEL
初演当時、モリエールがアルパゴンを演じた。	しょえんとーじ、もりえーるがあるぱごんをえんじた。	NO_LABEL
モリエールはこの当時すでに胸部に疾患を抱えており、日常的に咳の発作に襲われていた。	もりえーるわこのとーじすでにきょーぶにしっかんをかかえており、にちじょーてきにせきのほっさにおそわれていた。	NO_LABEL
その発作を生かしたセリフが作中に見える。	そのほっさをいかしたせりふがさくちゅーにみえる。	NO_LABEL
ラ・フレーシュに「足が不自由」という劇の筋に関係のない設定がついているのは、モリエールの劇団にジョセフ・ベジャールという足の不自由な団員がいたためである。	NO_PRONOUNCE	NO_LABEL
この役は彼に割り当てられた。	このやくわかれにわりあてられた。	NO_LABEL
舞台はパリ。	ぶたいわぱり。	NO_LABEL
アルパゴンは金に異常な執着心を示す男で、金のためにクレアントとエリーズに結婚を押し付けようとする。	あるぱごんわきんにいじょーなしゅーちゃくしんをしめすおとこで、きんのためにくれあんととえりーずにけっこんをおしつけようとする。	NO_LABEL
その上クレアントの恋人、マリアーヌと結婚すると言い出した。	そのうえくれあんとのこいびと、まりあーぬとけっこんするといいだした。	NO_LABEL
マリアーヌは母親が病気であり、家が貧しいため、「いやな結婚でも永遠に続くわけではないし、アルパゴンは年寄りだからもう長くはない。	NO_PRONOUNCE	NO_LABEL
アルパゴンが死ねば財産が転がり込んでくるので、そうなれば本当に望む人と結婚すればよい」とフロジーヌに唆され、気の進まない結婚を承知しようとする。	NO_PRONOUNCE	NO_LABEL
アルパゴンはそれぞれの結婚を進めようとするが、反発もあって、うまく進まない。	あるぱごんわそれぞれのけっこんをすすめようとするが、はんぱつもあって、うまくすすまない。	NO_LABEL
そんな折、アルパゴンが庭に埋めておいた大金が盗まれる。	そんなおり、あるぱごんがにわにうめておいたたいきんがぬすまれる。	NO_LABEL
これはラ・フレーシュが発見し掘り出したもので「金をとられるのが身を切られるよりつらい」アルパゴンの性格を巧く突いた、クレアントの策略であった。	NO_PRONOUNCE	NO_LABEL
そのような事情を知らないアルパゴンは、動揺を隠しきれず、喚き散らす。	そのよーなじじょーをしらないあるぱごんわ、どーよーをかくしきれず、わめきちらす。	NO_LABEL
そこへアンセルムがエリーズとの結婚のために登場。	そこえあんせるむがえりーずとのけっこんのためにとーじょー。	NO_LABEL
話をするうちに、ヴァレールとマリアーヌがドン・トーマ・ダルブルチの子供たちであることが露呈する。	NO_PRONOUNCE	NO_LABEL
ナポリの騒動によって、亡命の際にドン・トーマ・ダルブルチは妻子ともども溺死したはずであったが、全員生き残るも、散り散りとなってしまったのである。	NO_PRONOUNCE	NO_LABEL
アンセルムこそ、かつてのドン・トーマ・ダルブルチであり、その時に分かれた子供たちが、ヴァレールとマリアーヌなのであった。	NO_PRONOUNCE	NO_LABEL
アルパゴンは盗まれた金を返すこと、結婚費用はすべてアンセルムが負担すること、の2点で結婚を認め、幕は閉じる。	あるぱごんわぬすまれたきんをかえすこと、けっこんひよーわすべてあんせるむがふたんすること、のにてんでけっこんをみとめ、まくわとじる。	NO_LABEL
モリエールは現在、古典主義の三大作家のうちの1人に数えられているが、ほかの2人、ラシーヌとコルネイユが多くの作品のアイデアを古代ローマやギリシャに求めているのに対し、モリエールはほとんど古代に作品の題材を見つけようとはしなかった。	もりえーるわげんざい、こてんしゅぎのさんだいさっかのうちのひとりにかぞえられているが、ほかのふたり、らしーぬとこるねいゆがおーくのさくひんのあいであをこだいろーまやぎりしゃにもとめているのにたいし、もりえーるわほとんどこだいにさくひんのだいざいをみつけようとわしなかった。	NO_LABEL
本作は珍しくモリエールが、古代ローマに題材を見出した作品でありそれを軸に、フランスやイタリアなどで当時話題になっていた作品から多くの場面を借用し、彼なりの咀嚼を加えて、完成した。	もとさくわめずらしくもりえーるが、こだいろーまにだいざいをみいだしたさくひんでありそれをじくに、ふらんすやいたりあなどでとーじわだいになっていたさくひんからおーくのばめんをしゃくよーし、かれなりのそしゃくをくわえて、かんせいした。	NO_LABEL
現代ならばこれは「盗作」とか「剽窃」とか言われる行為だが、古代の作品の模倣を主としたのが古典作家であり、また17世紀のフランスにおいては同時代の作品からアイデアの借用を行うのは公然と行われていたことで、咎められるべき行為ではなかったし、モリエールの天才のおかげで、借用の基となった作品、ひいては作家が現代において日の目を見ていることも事実である。	NO_PRONOUNCE	NO_LABEL
17世紀中盤までのフランスの観客の趣味は、「ズボンの中に垂れ流した」と聞いて大笑いするような、現代からすれば全く下品なものであった。	NO_PRONOUNCE	NO_LABEL
しかしそれでもモリエールは彼らの鑑賞力を高く評価し「高貴な宮廷人でも、平民でも楽しめるような」作品を書くことを念願としていた。	NO_PRONOUNCE	NO_LABEL
1666年6月4日、モリエールが珍しくたっぷりと時間をかけて書き上げた「人間嫌い」の上映が開始されたが、様々な悪条件があって公演を重ねるごとに客足が鈍ったため、急遽テコ入れ策として「いやいやながら医者にされ」が書き上げられた。	NO_PRONOUNCE	NO_LABEL
本作も「人間嫌い」と似たようなもので、上演からしばらくの間、興行的には芳しい成績を上げることはできなかった。	NO_PRONOUNCE	NO_LABEL
客足は日を追うごとに目に見えて落ちていき、再び何かの策を講じる必要に迫られ、「気の利いた間抜け」という作品と2本立てで何とか上演を続けられることとなった。	NO_PRONOUNCE	NO_LABEL
本作が初演の際、あまり評判が芳しくなかったことは、同時代の批評家たちの記述がそれを示しており、モリエールの「高貴な宮廷人でも、平民でも楽しめるような」作品を書くという念願は裏切られた。	NO_PRONOUNCE	NO_LABEL
当時としては珍しく散文で書き上げられた大作であるということも理由の1つではあるが、モリエールの理想と観客との間に、埋めがたい溝があったことは明らかである。	とーじとしてわめずらしくさんぶんでかきあげられたたいさくであるとゆうこともりゆーのひとつでわあるが、もりえーるのりそーとかんきゃくとのまに、うめがたいみぞがあったことわあきらかである。	NO_LABEL
しかし繰り返し上演し続けるうちに、徐々に観客に理解されるようになり、最終的にはモリエールの生存中に満足のいく興行成績を収めるに至った。	しかしくりかえしじょーえんしつずけるうちに、じょじょにかんきゃくにりかいされるよーになり、さいしゅーてきにわもりえーるのせいぞんちゅーにまんぞくのいくこーぎょーせいせきをおさめるにいたった。	NO_LABEL
現在ではモリエールの四大性格喜劇のうち、最も上演回数の多い作品となっている。	げんざいでわもりえーるのよんだいせいかくきげきのうち、もっともじょーえんかいすーのおーいさくひんとなっている。	NO_LABEL
日本で最も古い翻訳は、1892年に尾崎紅葉による「夏小袖」とされているが、これは歌舞伎の台本として書かれたもので、内容もかなり変えられており、翻訳ではなく翻案である。	NO_PRONOUNCE	NO_LABEL
その後1905年10月より翌年10月まで、草野柴二による「守錢奴」が雑誌「歌舞伎」にて連載され、これは1908年に金尾文淵堂より刊行された『モリエエル全集』にも収められたが、これらはいずれも英語版からの重訳であり、フランス語原典からの翻訳は吉江喬松らによる「モリエール全集」が初めてである。	NO_PRONOUNCE	NO_LABEL
