日本の航空事故は、日本国内で発生した民間航空機やゼネラル・アビエーションの航空事故およびインシデントについての一覧である。	にほんのこーくーじこわ、にほんこくないではっせいしたみんかんこーくーきやぜねらるあびえーしょんのこーくーじこおよびいんしでんとについてのいちらんである。	NO_LABEL
以下ではそれぞれの事故を事故発生日順に並べ、凡例で挙げた項目について記載している。	いかでわそれぞれのじこをじこはっせいびじゅんにならべ、はんれいであげたこーもくについてきさいしている。	NO_LABEL
日本国外で発生した航空事故については以下を参照。	にほんこくがいではっせいしたこーくーじこについてわいかをさんしょー。	NO_LABEL
なお、日本国内の各航空会社の事故については、日航機事故、全日空機事故、日本エアシステム機事故も参照のこと。	なお、にほんこくないのかくこーくーがいしゃのじこについてわ、にっこーきじこ、ぜんにっくーきじこ、にほんえあしすてむきじこもさんしょーのこと。	NO_LABEL
[[Category:日本で発生した航空事故|*]]	NO_PRONOUNCE	NO_LABEL
[[Category:日本の事件|こうくうしこ]]	NO_PRONOUNCE	NO_LABEL
[[Category:航空事故の一覧]]	NO_PRONOUNCE	NO_LABEL
[[Category:各年の航空事故]]	NO_PRONOUNCE	NO_LABEL
[[Category:年表]]	NO_PRONOUNCE	NO_LABEL
[[Category:テーマ史]]	NO_PRONOUNCE	NO_LABEL
