シティタワーズ豊洲は、東京都江東区豊洲にある3棟の超高層マンション。	NO_PRONOUNCE	NO_LABEL
南側のツインタワーザ・ツインと北側のザ・シンボルで構成される。	NO_PRONOUNCE	NO_LABEL
豊洲2・3丁目再開発の一環で建設された。	NO_PRONOUNCE	NO_LABEL
9-2街区のS棟とN棟の2棟からなる『ザ・ツイン』と、江東区立豊洲北小学校を挟んで北側に離れたの8-4街区の『ザ・シンボル』という、合計3棟の超高層マンションによって構成されている。	NO_PRONOUNCE	NO_LABEL
総戸数は『ザ・ツイン』が1,063戸、『ザ・シンボル』が全850戸で、日本では戸数が第3位の大規模マンションである。	NO_PRONOUNCE	NO_LABEL
共用施設は一部が『ザ・ツイン』と『ザ・シンボル』の共有となっており、カラオケルーム2部屋、ゲストルーム6部屋、スカイラウンジなどがある。	NO_PRONOUNCE	NO_LABEL
『ザ・ツイン』は、スーパービバホームと豊洲北小学校に隣接するツインタワーで、それぞれ「N棟」と「S棟」と呼ばれる。	NO_PRONOUNCE	NO_LABEL
建物はいずれも地上48階・地下1階、高さ163メートルである。	NO_PRONOUNCE	NO_LABEL
完成時点では江東区内で3番目に高い建築物であった。	かんせいじてんでわこーとーくないでさんばんめにたかいけんちくぶつであった。	NO_LABEL
設計は日建設計、構造設計は鹿島建設で、鹿島建設の施工によって2006年に着工し、2009年3月に完成した。	せっけいわにっけんせつけい、こーぞーせっけいわかしまけんせつで、かしまけんせつのしこーによってにせんろくねんにちゃっこーし、にせんきゅうねんさんがつにかんせいした。	NO_LABEL
『ザ・シンボル』は、地上44階・地下1階、高さ150メートルのタワーマンションで、芝浦工業大学豊洲キャンパスに隣接している。	NO_PRONOUNCE	NO_LABEL
設計・施工は株式会社竹中工務店で、2008年に着工し、2009年12月に完成した。	NO_PRONOUNCE	NO_LABEL
