ヴァネッサ・ニコール・マラーノは、アメリカ合衆国の女優。	NO_PRONOUNCE	NO_LABEL
カリフォルニア州ロサンゼルスで生まれる。	かりふぉるにあしゅーろさんぜるすでうまれる	NO_LABEL
母親エレンは、アグーラ子ども劇場の所有者。	ははおやえれんわ、あぐーらこどもげきじょーのしょゆーしゃ。	NO_LABEL
妹ローラは、ディズニーチャンネル『オースティン&アリー』の人気役者。	NO_PRONOUNCE	NO_LABEL
父親はイタリア系。	ちちおやわいたりあけい。	NO_LABEL
英語のほかに、流暢なイタリア語を話す。	えいごのほかに、りゅーちょーないたりあごをはなす。	NO_LABEL
コミュニティカレッジに通っている。	こみゅにてぃかれっじにかよっている。	NO_LABEL
7歳の時からプロフェッショナルな演技を始める。	ななさいのときからぷろふぇっしょなるなえんぎをはじめる。	NO_LABEL
それ以来、ステージドア劇場の作品にて働く。	それいらい、すてーじどあげきじょーのさくひんにてはたらく。	NO_LABEL
テレビにおける最初の重要な役柄はテレビシリーズ『"Without a Trace"』のジャック・マローンの上の娘ハンナ・マローン役である。	NO_PRONOUNCE	NO_LABEL
『ザ・カムバック』でヴァレリーの継娘フランチェスカ役、『ギルモア・ガールズ』でエイプリル・ナルディーニ役として出演。	NO_PRONOUNCE	NO_LABEL
映画作品ではリージ・ハリソンの著書を原作とする映画『ガールフレンズ』のレイン・アベレイ役、そして『"Dear Lemon Lima"』のサマンサ・コームズ役としてそれぞれ出演を果たす。	NO_PRONOUNCE	NO_LABEL
マラーノはテレビシリーズ『ゴースト 〜天国からのささやき』のエピソードでジェニファー・ラブ・ヒューイットとともに出演する。	NO_PRONOUNCE	NO_LABEL
マラーノはテレビシリーズ『ザ・ヤング・アンド・ザ・レストレス』のエデン役で総計59話、テレビシリーズ『"Scoundrels"』ではホープ役を総計8話それぞれ出演する。	NO_PRONOUNCE	NO_LABEL
彼女は今もABCファミリー番組『スイッチ 運命のいたずら』にベイ役で主演している。	NO_PRONOUNCE	NO_LABEL
