つかのこし古墳は、埼玉県さいたま市岩槻区にあった古墳。	つかのこしこふんわ、さいたまけんさいたましーわつきくにあったこふん。	NO_LABEL
岩槻台地北部に造営された。	いわつきだいちほくぶにぞーえいされた。	NO_LABEL
現在古墳の所在を示す遺構は全く存在しない。	げんざいこふんのしょざいをしめすいこーわぜんくそんざいしない。	NO_LABEL
大正時代、大学生などにより発掘が行われ、大刀3、小刀1、耳環2、鉄鏃6、須恵器が発見された。	NO_PRONOUNCE	NO_LABEL
遺物は同地の満蔵寺に保管された。	いぶつわどーちのまんぞーじにほかんされた。	NO_LABEL
耳環を除く遺物は現在さいたま市教育委員会に保管されている。	みみわをのぞくいぶつわげんざいさいたましきょーいくいーんかいにほかんされている。	NO_LABEL
