ジャン＝リュック・エトリはフランス・マルセイユ出身の元サッカー選手、サッカー指導者。	NO_PRONOUNCE	NO_LABEL
ポジションはGK。	ぽじしょんわごーるきーぱー。	NO_LABEL
ASモナコ一筋のキャリアを送り、その出場数は750を越える。	NO_PRONOUNCE	NO_LABEL
フランス代表としては1980年にデビュー。	ふらんすだいひょーとしてわせんきゅうひゃくはちじゅうねんにでびゅー。	NO_LABEL
1982年に開催されたスペインW杯に出場、3位決定戦以外の6試合でゴールマウスを守った。	せんきゅうひゃくはちじゅうにねんにかいさいされたすぺいんわーるどかっぷにしゅつじょー、さんいけっていせんいがいのろくしあいでごーるまうすをまもった。	NO_LABEL
PKにおいて左右どちらかにヤマを張って飛ぶ対応が身についておらず、ワールドカップ史上初のPK戦となった準決勝の西ドイツ戦では、西ドイツ3人目ウリ・シュティーリケの力のないシュートを止めたシーン以外は全て棒立ち状態のまま難なくゴールを割られ、結果的にフランスが準決勝で敗退する原因となった。	ぴーけーにおいてさゆーどちらかにやまをはってとぶたいおーがみについておらず、わーるどかっぷしじょーはつのぴーけーせんとなったじゅんけっしょーのにしどいつせんでわ、にしどいつさんにんめうりしゅてぃーりけのちからのないしゅーとをとめたしーんいがいわすべてぼーだちじょーたいのままなんなくごーるをわられ、けっかてきにふらんすがじゅんけっしょーではいたいするげんいんとなった。	NO_LABEL
現役引退後は短期間ではあるが、ASモナコの監督を務めた。	NO_PRONOUNCE	NO_LABEL
