マートルビーチは、アメリカ合衆国サウスカロライナ州北東部、大西洋岸に位置する観光都市。	まーとるびーちわ、あめりかがっしゅーこくさうすかろらいなしゅーきたとうべ、たいせいよーがんにいちするかんこーとし。	NO_LABEL
市域人口は22,759人に過ぎない小都市であるが、都市圏は隣接するノースカロライナ州にもまたがり、346,548人を数える。	NO_PRONOUNCE	NO_LABEL
同市は広い砂浜、ゴルフ場、美味しいシーフードレストラン、アウトレットショッピングに恵まれていることから、年間1400万人を越える観光客を集めている。	どーしわひろいすなはま、ごるふじょー、おいしいしーふーどれすとらん、あうとれっとしょっぴんぐにめぐまれていることから、ねんかんせんよんひゃくまんにんをこえるかんこーきゃくをあつめている。	NO_LABEL
特にウェストバージニア州からの旅行者に人気があり、「56番目の郡」「ウェストバージニア州の最南端」などと呼ばれたりもしている。	NO_PRONOUNCE	NO_LABEL
また、高校・大学のスプリングブレイク期間の行き先としてつとに有名であり、特にその時期は全米からの学生で賑わう。	NO_PRONOUNCE	NO_LABEL
マートルビーチは北緯33度42分15秒、西経78度52分32秒に位置し、日本の福岡市とほぼ同緯度にある。	まーとるびーちわほくいさんじゅうさんどよんじゅうにふんじゅうごびょー、せいけいななじゅうはちどごじゅうにふんさんじゅうにびょーにいちし、にっぽんのふくおかしとほぼどーいどにある。	NO_LABEL
アメリカ合衆国統計局によると、同市は総面積43.5 kmである。	NO_PRONOUNCE	NO_LABEL
このうち43.5 kmが陸地で0.1 kmが水地域である。	NO_PRONOUNCE	NO_LABEL
総面積の0.12%が水地域となっている。	NO_PRONOUNCE	NO_LABEL
2000年現在の国勢調査で、マートルビーチ市の人口は22,759人、世帯数10,413で、5,414家族が暮らしている。	NO_PRONOUNCE	NO_LABEL
人口密度は523.7/km²である。	NO_PRONOUNCE	NO_LABEL
337.3/km²の平均的な密度で14,658軒の住宅が建っている。	NO_PRONOUNCE	NO_LABEL
同市の人種的な構成は白人81.16%、アフリカン・アメリカン12.76%、ネイティブ・アメリカン0.42%、アジア1.28%、太平洋諸島系0.13%、その他の人種2.37%、及び混血1.88%である。	NO_PRONOUNCE	NO_LABEL
ここの人口の4.67%はヒスパニックまたはラテン系である。	NO_PRONOUNCE	NO_LABEL
同市の10,413世帯のうち20.3%は18歳未満の子供を1人以上抱える。	NO_PRONOUNCE	NO_LABEL
36.8%は結婚・同居している夫婦であり、11.1%は未婚女性が世帯主である。	NO_PRONOUNCE	NO_LABEL
また、48.0%は結婚していない。	NO_PRONOUNCE	NO_LABEL
34.1%の世帯には1人以上の独身者がいる。	さんじゅうよんてんいちぱーせんとのせたいにわひとりいじょーのどくしんしゃがいる。	NO_LABEL
また、10.4%は一人暮らしをしている65歳以上の老人である。	また、じゅうてんよんぱーせんとわひとりぐらしをしているろくじゅうごさいいじょーのろーじんである。	NO_LABEL
1世帯の構成人数の平均は2.17、結婚している世帯では2.79である。	NO_PRONOUNCE	NO_LABEL
同市の年齢ごとの人口分布は18歳未満18.0%、18-24歳11.0%、25-44歳33.6%、45-64歳22.5%、65歳以上15.0%となっている。	NO_PRONOUNCE	NO_LABEL
年齢の中央値は37歳である。	ねんれいのちゅーおーちわさんじゅうななさいである。	NO_LABEL
性比は総人口では女性100人あたり男性103.0人、18歳未満では女性100人あたり男性101.0人となっている。	NO_PRONOUNCE	NO_LABEL
同市の世帯ごとの平均収入は35,498米ドルであり、家族ごとの平均収入は43,900米ドルである。	NO_PRONOUNCE	NO_LABEL
男性は26,039米ドルに対して女性は22,473米ドルの平均収入がある。	NO_PRONOUNCE	NO_LABEL
同市の一人当たりの収入は23,214米ドルである。	NO_PRONOUNCE	NO_LABEL
人口の12.0%及び家族の7.6%は貧困線以下である。	NO_PRONOUNCE	NO_LABEL
全人口のうち18歳未満の17.1%及び65歳以上の6.6%は貧困線以下の生活を送っている。	ぜんじんこーのうちじゅうはっさいみまんのじゅうななてんいちぱーせんとおよびろくじゅうごさいいじょーのろくてんろくぱーせんとわひんこんせんいかのせいかつをおくっている。	NO_LABEL
