コンパーノは、日本の自動車メーカー・ダイハツ工業が1963年から1969年まで製造していた乗用車及び商用車である。	NO_PRONOUNCE	NO_LABEL
オート三輪メーカーとして業界トップの座を東洋工業と争っていたダイハツ工業が、今後の成長分野として期待された乗用車市場に進出した第一作で、最初のプロトタイプは1961年秋の第8回全日本自動車ショウで発表された。	おーとさんりんめーかーとしてぎょーかいとっぷのざをとーよーこーぎょーとあらそっていただいはつこーぎょーが、こんごのせいちょーぶんやとしてきたいされたじょーよーしゃしじょーにしんしゅつしただいいちさくで、さいしょのぷろとたいぷわせんきゅうひゃくろくじゅういちねんあきのだいはっかいぜんにほんじどーしゃしょーではっぴょーされた。	NO_LABEL
しかし、このプロトタイプのフロントデザインはイタリアの中型車フィアット・1800/2100に酷似しており、小型大衆車のスタイルとしてはいかにもアンバランスで、一般にも不評であった。	NO_PRONOUNCE	NO_LABEL
この反省を踏まえ、ダイハツは翌年の第9回東京モーターショーに、改良を加えたライトバンのプロトタイプを出品した。	このはんせいをふまえ、だいはつわよくねんのだいきゅうかいとーきょーもーたーしょーに、かいりょーをくわえたらいとばんのぷろとたいぷをしゅっぴんした。	NO_LABEL
イタリアのカロッツェリア・ヴィニャーレに委嘱されたスタイリングは前年のプロトタイプとは全く異なり、一挙に美しいイタリアン・デザインとなった。	NO_PRONOUNCE	NO_LABEL
その生産型として1963年4月に発売されたのが、「ダイハツ・コンパーノ・ライトバン」である。	NO_PRONOUNCE	NO_LABEL
コンパーノの技術上の最大の特色は、このクラスでは日本車でもUP10系パブリカやブルーバード410系など、既にモノコックボディが一般化していたにもかかわらず、あえて同社の既存の軽商用車であるハイゼット用、およびハイゼットの小型商用車版であるニューライン用の梯子型フレームを基本に大幅に拡大した梯子型フレームを採用したことであった。	NO_PRONOUNCE	NO_LABEL
必然の結果として車両重量は755kgと比較的重くなり、当初発売されたバンに搭載されていたOHV800cc41馬力エンジンでは最高速度110km/hに留まった。	NO_PRONOUNCE	NO_LABEL
さすがにハイゼットやニューライン同様、前輪独立懸架こそ採用されていたが、コンパーノの設計はこのフレームに象徴されるように良く言えば手堅く保守的、率直に言えばやや時代遅れなものであった。	さすがにはいぜっとやにゅーらいんどーよー、ぜんりんどくりつけんかこそさいよーされていたが、こんぱーののせっけいわこのふれーむにしょーちょーされるよーによくいえばてがたくほしゅてき、そっちょくにいえばややじだいおくれなものであった。	NO_LABEL
唯一、時流よりやや進んでいたのは、ギアボックスが当初から全車4速フルシンクロで、オプションでフロアシフトも選択可能であった点である。	NO_PRONOUNCE	NO_LABEL
しかし、このフレーム式のシャシは、4人乗りのオープンカーや、ピックアップトラックを生み出すには好都合であった。	しかし、このふれーむしきのしゃしわ、よにんのりのおーぷんかーや、ぴっくあっぷとらっくをうみだすにわこーつごーであった。	NO_LABEL
また、日本で初めて機械式インジェクションを搭載した市販車でもあった。	また、にっぽんではじめてきかいしきいんじぇくしょんをとーさいしたしはんしゃでもあった。	NO_LABEL
「コンパーノ」はイタリア語で「仲間」という意味。	NO_PRONOUNCE	NO_LABEL
「ベルリーナ」は同じくイタリア語で「セダン型自動車」を意味する。	NO_PRONOUNCE	NO_LABEL
