宮下 規久朗は、日本の美術史家、神戸大学大学院人文学研究科教授。	みやしたただしひさおわ、にっぽんのびじゅつしか、こーべだいがくだいがくいんじんぶんかがくけんきゅーかきょーじゅ。	NO_LABEL
専門は、イタリア17世紀バロック美術。	せんもんわ、いたりあじゅうしちせいきばろっくびじゅつ。	NO_LABEL
ただし、イタリアルネサンス美術はもちろん、近現代美術についても造詣が深い。	ただし、いたりあるねさんすびじゅつわもちろん、きんげんだいびじゅつについてもぞーけいがふかい。	NO_LABEL
愛知県名古屋市生まれ。	あいちけんなごやしうまれ。	NO_LABEL
愛知県立旭丘高等学校を経て、東京大学文学部美術史学科卒業、同大学院人文科学研究科修了。	あいちけんりつあさひがおかこーとーがっこーをへて、とーきょーだいがくぶんがくぶびじゅつしがっかそつぎょー、どーだいがくいんじんぶんかがくけんきゅーかしゅーりょー。	NO_LABEL
この間、1988年3月から9月までシエナ大学に留学。	このかん、せんきゅうひゃくはちじゅうはちねんさんがつからくがつまでしえなだいがくにりゅーがく。	NO_LABEL
1989年に兵庫県立近代美術館学芸員、1992年東京都現代美術館学芸員。	せんきゅうひゃくはちじゅうきゅうねんにひょーごけんりつきんだいびじゅつかんがくげいいん、せんきゅうひゃくきゅうじゅうにねんとーきょーとげんだいびじゅつかんがくげいいん。	NO_LABEL
東京都現代美術館時代には、開館展で荒木経惟の担当となり、『アンディ・ウォーホル 1956-86：時代の鏡』展の企画に参加。	NO_PRONOUNCE	NO_LABEL
1995年、神戸大学文学部助教授、2007年から大学院人文科学研究科准教授、2013年から教授。	せんきゅうひゃくきゅうじゅうごねん、こーべだいがくぶんがくぶじょきょーじゅ、にせんななねんからだいがくいんじんぶんかがくけんきゅーかじゅんきょーじゅ、にせんじゅうさんねんからきょーじゅ。	NO_LABEL
この間、1998年3月から翌年1月まで文部省在外研修員としてローマ大学美術史研究所に留学。	このかん、せんきゅうひゃくきゅうじゅうはちねんさんがつからよくねんいちがつまでもんぶしょーざいがいけんしゅーいんとしてろーまだいがくびじゅつしけんきゅーじょにりゅーがく。	NO_LABEL
