フェリーちくしは、九州郵船が運航しているフェリー。	ふぇりーちくしわ、きゅーしゅーゆーせんがうんこーしているふぇりー。	NO_LABEL
フェリーはかたの代船として内海造船瀬戸田工場で建造され、1994年に就航した。	ふぇりーはかたのだいふねとしてないかいぞーせんせとだこーじょーでけんぞーされ、せんきゅうひゃくきゅうじゅうよねんにしゅーこーした。	NO_LABEL
船体は4層構造で、上部から操舵室およびスカイラウンジ、旅客区画および乗組員区画、旅客区画、車両甲板となっている。	NO_PRONOUNCE	NO_LABEL
パブリックスペース	ぱぶりっくすぺーす	NO_LABEL
供食・物販設備	NO_PRONOUNCE	NO_LABEL
娯楽設備	ごらくせつび	NO_LABEL
2013年4月11日、2時17分ごろ、博多港から芦辺港を経由して厳原港へ向かっていた本船は、芦辺港に入港する際、芦辺港南防波堤灯台の西北西約570メートルの地点で浅所に乗り揚げた。	NO_PRONOUNCE	NO_LABEL
乗り揚げた際、衝撃はほとんどなく浸水も確認されなかったことから、自力離礁を試み、3時5分ごろ離礁して着岸した。	のりあげたさい、しょーげきわほとんどなくしんすいもかくにんされなかったことから、じりきりしょーをこころみ、さんじごふんごろりしょーしてちゃくがんした。	NO_LABEL
事後の検査で船体中央部の船底に軽微な擦過傷が確認された。	じごのけんさでせんたいちゅーおーぶのふなそこにけいびなさっかしょーがかくにんされた。	NO_LABEL
事故発生当時の天候は晴で、風速約14メートル毎秒の西の風が吹いていた。	NO_PRONOUNCE	NO_LABEL
事故原因は、本船が風の影響を考慮して通常より西側に針路をとったところ、港内に生じていた海図に記載されていない浅所に乗り揚げたためであった。	じこげんいんわ、ほんせんがかぜのえいきょーをこーりょしてつーじょーよりにしがわにしんろをとったところ、こーないにしょーじていたかいずにきさいされていないあさところにのりあげたためであった。	NO_LABEL
芦辺港は谷江川の河口付近にあり、谷江川により運ばれた泥が堆積して乗揚箇所の水深が-3.5メートルとなっていたことが、海上保安庁の測量により判明した。	NO_PRONOUNCE	NO_LABEL
事故後、芦辺港を管理する長崎県壱岐振興局により港内の浚渫が行われた。	じこご、あしべこーをかんりするながさきけんいきしんこーきょくによりこーないのしゅんせつがおこなわれた。	NO_LABEL
2014年4月1日、15時51分ごろ、博多港から芦辺港へ向かっていた本船は、芦辺港のフェリー岸壁に接岸する際、船首が車両用可動橋東側の岸壁に衝突した。	にせんじゅうよねんしがつついたち、じゅうごじごじゅういっぷんごろ、はかたこーからあしべこーえむかっていたほんせんわ、あしべこーのふぇりーがんぺきにせつがんするさい、せんしゅがしゃりょーよーかどーきょーひがしがわのがんぺきにしょーとつした。	NO_LABEL
衝突により本船は船首外板に凹損を生じ、岸壁は転落防止柵が曲損、縁部に擦過傷を生じた。	NO_PRONOUNCE	NO_LABEL
事故原因は、操船が不適切で、前進の行きあしを停止するため微速力後進をかけたものの、後進推力が弱く行きあしが残ったため、とされた。	じこげんいんわ、そーせんがふてきせつで、ぜんしんのいきあしをていしするためびそくりょくこーしんをかけたものの、こーしんすいりょくがよわくいきあしがのこったため、とされた。	NO_LABEL
