『GO ANd GO』は、古谷野孝雄による日本の野球漫画作品。	NO_PRONOUNCE	NO_LABEL
『月刊少年チャンピオン』にて1995年から2006年まで月刊では長期の11年間連載されていた。	NO_PRONOUNCE	NO_LABEL
単行本は全30巻。	たんこーぼんわぜんさんじゅうかん。	NO_LABEL
タイトル、「GO ANd GO」はdを小文字にしていることでゴーアンド ゴーとは読まずに、ゴーアンゴーと読む。	NO_PRONOUNCE	NO_LABEL
これは岡山県出身である主人公、新田英吾の口癖である岡山弁でバカを意味する「あんごう」に掛けたものである。	NO_PRONOUNCE	NO_LABEL
当時にしては早くから先駆けて野球留学について扱っている。	とーじにしてわはやくからさきがけてやきゅーりゅーがくについてあつかっている。	NO_LABEL
11年間連載されていたが、劇中の時間経過は入学から夏の地区予選の約4ヶ月程度しか描かれていない。	NO_PRONOUNCE	NO_LABEL
しかし、たびたび作者が登場人物などの未来について言及しており、作品のある程度の将来性は決まっている。	しかし、たびたびさくしゃがとーじょーじんぶつなどのみらいについてげんきゅーしており、さくひんのあるていどのしょーらいせいわきまっている。	NO_LABEL
また、巻末には劇中の試合のスコアブックや登場人物についてのコラムなどが載っており、全巻の背表紙には"誰よりも速い球を投げたい"と記されている。	NO_PRONOUNCE	NO_LABEL
岡山から東京の野球名門校、芳陽高校に特待生として入学した新田英吾は、入学早々いきなりチームメイトのプロ注目の打者キャプテン川原に勝負を仕掛け三球三振にしとめる。	おかやまからとーきょーのやきゅーめいもんこー、よしひこーこーにとくたいせいとしてにゅーがくしたにったえいごわ、にゅーがくそーそーいきなりちーむめいとのぷろちゅーもくのだしゃきゃぷてんかわらにしょーぶをしかけさんきゅーさんしんにしとめる。	NO_LABEL
しかし翌日の練習ではまったくストライクが入らない。	しかしよくじつのれんしゅーでわまったくすとらいくがはいらない。	NO_LABEL
実は英吾はストライクが入る日、入らない日があるほど極端なノーコンなのであった…。	じつわえいごわすとらいくがはいるひ、はいらないひがあるほどきょくたんなのーこんなのであったさいれんす	NO_LABEL
東京の野球名門校だが、甲子園出場は20年前に1度出場して以来遠ざかっていた。	とーきょーのやきゅーめいもんこーだが、こーしえんしゅつじょーわにじゅうねんまえにいちどしゅつじょーしていらいとーざかっていた。	NO_LABEL
日本全国からスポーツ特待生を入学させている。	にっぽんぜんこくからすぽーつとくたいせいをにゅーがくさせている。	NO_LABEL
かつては部員数の大半を特待生が占め、先輩による裏でシゴキやイジメが行われていたため、一般部員はほとんどはなく部員数30人程度であったが、柳が入学して以来、その悪しき伝統を改善し、現在では特待生と同じくらいの人数の一般部員が入部して部員数は倍の70人近くとなる。	かつてわぶいんすーのたいはんをとくたいせいがしめ、せんぱいによるうらでしごきやいじめがおこなわれていたため、いっぱんぶいんわほとんどわなくぶいんすーさんじゅうにんていどであったが、やなぎがにゅーがくしていらい、そのあしきでんとーをかいぜんし、げんざいでわとくたいせいとおなじくらいのにんずーのいっぱんぶいんがにゅーぶしてぶいんすーわばいのななじゅうにんちかくとなる。	NO_LABEL
芳陽のライバル校であり、劇中では通称「巣ヶ北」と呼ばれている。	NO_PRONOUNCE	NO_LABEL
甲子園常連校、昨年も甲子園でベスト8に進出した。	こーしえんじょーれんこー、さくねんもこーしえんでべすとえいとにしんしゅつした。	NO_LABEL
モデルは帝京高校。	もでるわていきょーこうこー。	NO_LABEL
関西にある強豪校、モデルはPL学園	かんさいにあるきょーごーこー、もでるわぴーえるがくえん	NO_LABEL
岡山南警察署の少年課が補導歴のある少年たちを更生させる目的に作ったチーム。	おかやまみなみけいさつしょのしょーねんかがほどーれきのあるしょーねんたちをこーせいさせるもくてきにつくったちーむ。	NO_LABEL
英吾が野球を始めるきっかけとなったチームでもある。	えいごがやきゅーをはじめるきっかけとなったちーむでもある。	NO_LABEL
