一宇治城は、薩摩国伊集院に存在していた中世山城。	いちうじじょーわ、さつまのくにいじゅーいんにそんざいしていたちゅーせいやましろ。	NO_LABEL
鎌倉時代に伊集院氏によって築城されたとされる。	かまくらじだいにいじゅーいんしによってちくじょーされたとされる。	NO_LABEL
その後、本家の島津氏を凌ぐと言われた伊集院氏の権力を背景に拡充されたが、1450年3月、島津忠国は伊集院一族を追放、以後、島津氏配下の城となった。	そのご、ほんけのしまずしをしのぐといわれたいじゅーいんしのけんりょくをはいけいにかくじゅーされたが、せんよんひゃくごじゅうねんさんがつ、しまずただくにわいじゅーいんいちぞくをついほー、いご、しまずしはいかのしろとなった。	NO_LABEL
1536年3月、島津家中の統一を目指していた島津忠良・貴久親子は先祖代々の居城であったが薩摩国西部にあり不便であった伊作城から、薩摩国中央部にあるこの城に拠点を移し、鹿児島の制圧を目指す。	NO_PRONOUNCE	NO_LABEL
1545年、北郷氏、樺山氏など島津氏の有力分家の支持を得た貴久は、この城で薩摩国・大隅国・日向国3カ国の太守となり、悲願であった島津家中の統一を果たすのである。	NO_PRONOUNCE	NO_LABEL
1550年12月、名実共に島津氏宗家当主となった貴久は拠点を鹿児島の内城に移し、この城は地頭の管轄下に置かれることになった。	せんごひゃくごじゅうねんじゅーにがつ、めいじつどもにしまずしそーけとーしゅとなったたかひさわきょてんをかごしまのうちじろにうつし、このしろわじとーのかんかつかにおかれることになった。	NO_LABEL
初代地頭は島津右衛門大夫孝久。	しょだいじとーわしまずうえもんたいふたかひさ。	NO_LABEL
永禄年間には町田久倍が地頭を務めている。	えいろくねんかんにわまちだひさますがじとーをつとめている。	NO_LABEL
江戸時代には薩摩藩内でも重要な外城とされた。	えどじだいにわさつまはんないでもじゅーよーなとじょーとされた。	NO_LABEL
ただし、慶長以降には日常的に城を整備・管理していたという史料が無く、実質的には廃城になっていたと考えられている。	NO_PRONOUNCE	NO_LABEL
1549年9月に貴久とフランシスコ・ザビエルが対面し日本で初めてキリスト教の正式な布教の許可がおりた場所として著名である。	せんごひゃくよんじゅうきゅうねんくがつにたかひさとふらんしすこざびえるがたいめんしにっぽんではじめてきりすときょーのせいしきなふきょーのきょかがおりたばしょとしてちょめいである。	NO_LABEL
また、島津義弘が鹿児島城築城を進めていた息子・家久に対して反対し、こちらの城を推薦していたことでも知られている。	NO_PRONOUNCE	NO_LABEL
標高144mの城山という自然の山を利用して築かれている。	ひょーこーひゃくよんじゅうよんめーとるのしろやまとゆうしぜんのやまをりよーしてきずかれている。	NO_LABEL
大小30個あまりの曲輪から構築されている。	NO_PRONOUNCE	NO_LABEL
主な曲輪に「神明城」「伊作城」「中尾曲輪」「釣瓶城」「弓場城」「護摩所」「南之城」「上平城」があり、それぞれの曲輪は独立性が高い点は畿内の近世城郭と異なる点である。	NO_PRONOUNCE	NO_LABEL
しかし、本丸にあたる「神明城」を中心とした曲輪は「神明城」を中心として守るように土塁を再構築した跡がある。	NO_PRONOUNCE	NO_LABEL
現在「城山公園」として整備されており、JR九州鹿児島本線伊集院駅から700m程の所にあり、南九州の中世城郭としては比較的見学しやすい城である。	NO_PRONOUNCE	NO_LABEL
「神明城」跡にフランシスコ・ザビエルとの会見を記念する石碑が建っている。	NO_PRONOUNCE	NO_LABEL
