昭和28年西日本水害は、1953年6月25日から6月29日にかけて九州地方北部を中心に発生した、梅雨前線を原因とする集中豪雨による水害である。	しょーわにじゅうはちねんにしにほんすいがいわ、せんきゅうひゃくごじゅうさんねんろくがつにじゅうごにちからろくがつにじゅうきゅうにちにかけてきゅーしゅーちほーほくぶをちゅーしんにはっせいした、ばいうぜんせんをげんいんとするしゅーちゅーごうーによるすいがいである。	NO_LABEL
阿蘇山・英彦山を中心に総降水量が1,000mmを超える記録的な豪雨により、九州最大の河川である筑後川を始め白川など九州北部を流れる河川がほぼ全て氾濫、流域に戦後最悪となる水害をひき起こし死者・行方不明者1,001名、浸水家屋45万棟、被災者数約100万人という大災害となった。	NO_PRONOUNCE	NO_LABEL
この水害により筑後川など九州北部の河川における治水対策が根本から改められることになり、現在においても基本高水流量の基準となっている。	このすいがいによりちくごがわなどきゅーしゅーほくぶのかせんにおけるちすいたいさくがこんぽんからあらためられることになり、げんざいにおいてもきほんこうすいりゅーりょーのきじゅんとなっている。	NO_LABEL
この九州北部を襲った水害は気象庁による明確な災害名が付けられておらず、熊本県では「白川大水害」または「6.26水害」、北九州市では「北九州大水害」など、地域によって様々な呼称が用いられているほか、諸文献によっても災害名称が異なっている。	NO_PRONOUNCE	NO_LABEL
本記事名は土木学会西部支部の調査報告書に準拠し、「昭和28年西日本水害」と呼称する。	NO_PRONOUNCE	NO_LABEL
なお本文中の自治体名は1953年当時の自治体名を用いる。	なおほんぶんちゅーのじちたいめいわせんきゅうひゃくごじゅうさんねんとーじのじちたいめいをもちいる。	NO_LABEL
昭和28年西日本水害が九州北部地域に甚大な被害をもたらした原因として、集中豪雨が発生し易い梅雨末期の気象要因と阿蘇山の噴火活動による地質的な要因、および九州北部を流れる河川流域の地形的な要因などがあり、それらが複合して被害を大きくしている。	しょーわにじゅうはちねんにしにほんすいがいがきゅーしゅーほくぶちいきにじんだいなひがいをもたらしたげんいんとして、しゅーちゅーごうーがはっせいしやすいつゆまっきのきしょーよーいんとあそさんのふんかかつどーによるちしつてきなよーいん、およびきゅーしゅーほくぶをながれるかせんりゅーいきのちけいてきなよーいんなどがあり、それらがふくごーしてひがいをおーきくしている。	NO_LABEL
1953年6月当時の九州地方の気象概況は、梅雨前線が一旦九州北中部に停滞し上旬には福岡市や長崎県で、中旬には熊本県で大雨を降らせたが、その後奄美大島付近まで一旦南下し、奄美大島と屋久島の間を上下するという状態であった。	せんきゅうひゃくごじゅうさんねんろくがつとーじのきゅーしゅーちほーのきしょーがいきょーわ、ばいうぜんせんがいったんきゅーしゅーほくちゅーぶにていたいしじょーじゅんにわふくおかしやながさきけんで、ちゅーじゅんにわくまもとけんでおーあめをふらせたが、そのごあまみおーしまふきんまでいったんなんかし、あまみおーしまとやくしまのまをじょーげするとゆうじょーたいであった。	NO_LABEL
一方フィリピンのルソン島付近にあった太平洋高気圧が次第に勢力を強くして梅雨前線を押し上げ、6月21日には対馬海峡付近に達した。	いっぽーふぃりぴんのるそんとーふきんにあったたいへいよーこーきあつがしだいにせいりょくをつよくしてばいうぜんせんをおしあげ、ろくがつにじゅういちにちにわつしまかいきょーふきんにたっした。	NO_LABEL
ところが今度は中国大陸より移動性高気圧が九州方面へと張り出し、再度梅雨前線は南下して屋久島まで戻ったものの再度太平洋高気圧に押されて北上した。	ところがこんどわちゅーごくたいりくよりいどーせいこーきあつがきゅーしゅーほーめんえとはりだし、さいどばいうぜんせんわなんかしてやくしままでもどったもののさいどたいへいよーこーきあつにおされてほくじょーした。	NO_LABEL
こうして南北から高気圧によって押された梅雨前線は阿蘇山付近に6月23日頃より停滞、そこに高気圧から吹く湿った暖かい空気が梅雨前線に流れ込むことによって前線が刺激され、さらに例年屋久島付近を通過するはずの低気圧がこの時は朝鮮半島・対馬海峡付近を次々通過。	NO_PRONOUNCE	NO_LABEL
こうした気象条件が重なり九州北部地域に未曾有の大雨をもたらした。	こーしたきしょーじょーけんがかさなりきゅーしゅーほくぶちいきにみぞーのおーあめをもたらした。	NO_LABEL
この梅雨前線は6月から7月に掛けて九州地方北部のほか東は静岡県静岡市から紀伊半島・中国地方・四国地方など広範囲にわたって大雨を降らせており、特に紀伊半島では和歌山県西牟婁郡串本町の潮岬で338.7mmを記録 する豪雨となったが、この後7月17日 - 18日に掛けて再度集中豪雨が発生。	NO_PRONOUNCE	NO_LABEL
死者・行方不明者1,046名を数える集中豪雨として戦後最悪の人的被害をもたらした紀州大水害となった。	NO_PRONOUNCE	NO_LABEL
また白川流域でも7月中旬に再度集中豪雨が発生し新たな災害をひき起こしている。	またしらかわりゅーいきでもなながつちゅーじゅんにさいどしゅーちゅーごうーがはっせいしあらたなさいがいをひきおこしている。	NO_LABEL
1953年の梅雨は5月下旬に入梅し7月20日頃に梅雨明けする例年よりも長い梅雨の期間であり、しかも期間中死者・行方不明者が2,000名を超える大きな被害を西日本各地にもたらしており、特異な気象状況であった。	NO_PRONOUNCE	NO_LABEL
昭和28年西日本水害では阿蘇山麓や英彦山麓、脊振山地などの九州北部山間部で記録的な豪雨をもたらした。	しょーわにじゅうはちねんにしにほんすいがいでわあそさんろくやひこさんふもと、せふりさんちなどのきゅーしゅーほくぶさんかんぶできろくてきなごーうをもたらした。	NO_LABEL
6月25日の降り始めからの総降水量は熊本県鹿本郡山鹿町で1,455.3mmを記録したのを始め、筑後川本流上流域で900-1,000mm、支流玖珠川流域や阿蘇山、大分川上流域、矢部川上流域で800-900mm、北九州や背振山地で500-600mmと猛烈な豪雨を記録している。	NO_PRONOUNCE	NO_LABEL
また一日降水量も山鹿町の528mmを皮切りに福岡市、佐賀市、熊本市などで300-400mmを超え、時間雨量も福岡県小倉市で101mm、熊本県阿蘇郡小国町宮原で90.2mmなどと短時間・長時間問わず記録的な豪雨となった。	NO_PRONOUNCE	NO_LABEL
豪雨のピークは25日-26日頃は福岡県筑後地方・熊本県・大分県などが中心でその後徐々に北へと移動し、28日-29日頃には北九州が豪雨のピークとなっている。	NO_PRONOUNCE	NO_LABEL
また降雨分布も河川の上流・中流・下流を問わず流域の広範囲にわたって豪雨が降り注いでいる。	NO_PRONOUNCE	NO_LABEL
括弧内は記録日。	かっこないわきろくび。	NO_LABEL
太字は各々の最大降雨記録。	ふとじわおのおののさいだいこーうきろく。	NO_LABEL
上記の気象要因に加え、地質や地形、植生といった要因も豪雨被害が拡大する要因となった。	じょーきのきしょーよーいんにくわえ、ちしつやちけい、しょくせいといったよーいんもごーうひがいがかくだいするよーいんとなった。	NO_LABEL
新第三紀から第四紀に掛けて活発だった阿蘇山の火山活動により福岡県南東部・大分県南部と西部・熊本県北西部一帯はおおむね変朽安山岩や阿蘇熔岩を主体とする地質を形成しており、これらの地質は透水性に乏しかった。	NO_PRONOUNCE	NO_LABEL
さらに戦中・戦後に山間部は森林を乱伐していたこともあり森林の保水力は極端に低下しており、降った雨は通常の森林に比べ土壌に浸透せず地表を流下して河川に注ぐ形となった。	NO_PRONOUNCE	NO_LABEL
その上、阿蘇山が同年4月27日に噴火を起こして降灰量516万トンにもおよぶ大量の火山灰が堆積、それが豪雨によって雨水と共に地表を流れ土石流となった。	NO_PRONOUNCE	NO_LABEL
また地形的要因も洪水被害を増幅させた。	またちけいてきよーいんもこーずいひがいをぞーふくさせた。	NO_LABEL
すなわち日本の河川の特徴でもあるが九州北部の河川は概ね河川勾配が急であり、河川は急流を形成して上流から下流へと流下するため下流の水位は急激に上昇し易い。	すなわちにっぽんのかせんのとくちょーでもあるがきゅーしゅーほくぶのかせんわおーむねかせんこーばいがきゅーであり、かせんわきゅーりゅーをけいせいしてじょーりゅーからかりゅーえとりゅーかするためかりゅーのすいいわきゅーげきにじょーしょーしやすい。	NO_LABEL
これに加えて九州北部を流れる河川の幾つかは流域面積が中流・下流域に比べて上流域の面積割合が広大であり、その割合は白川水系で約80パーセント、筑後川水系で70パーセント を占める。	NO_PRONOUNCE	NO_LABEL
こうした地質・地形特性を有する河川の上流地域に広範囲かつ持続的な豪雨が降り注ぎ、大量の降雨が膨大な水量を伴う洪水となって短時間に下流地域へ一挙に押し寄せたこと、また先述したが6月上旬から中旬に掛けて北部九州で豪雨があり地盤が緩んでいたところにそれを上回る記録的な豪雨が追い討ちを掛けたことが、被害を大きくした。	NO_PRONOUNCE	NO_LABEL
この集中豪雨は特に福岡県・佐賀県・熊本県・大分県において被害が甚大で、死者759名・行方不明者242名などの人的被害のほか、全半壊家屋3万5000棟以上、床上・床下浸水は実に45万棟以上に及ぶ過去最悪の被害であり、その被害総額は当時の金額で約2217億円となり、現在の金額に換算すると約1兆5628億円にも達する。	NO_PRONOUNCE	NO_LABEL
当時は1949年のジュディス台風や1950年のジェーン台風による被害がまだ記憶に新しく、台風被害からの復旧に一段落付いた頃再度被害を受けた地域も多かった。	とーじわせんきゅうひゃくよんじゅうきゅうねんのじゅでぃすたいふーやせんきゅうひゃくごじゅうねんのじぇーんたいふーによるひがいがまだきおくにあたらしく、たいふーひがいからのふっきゅーにいちだんらくついたころさいどひがいをうけたちいきもおーかった。	NO_LABEL
当時の国家地方警察福岡警察管区本部が発表した被害内容は下表の通りである。	とーじのこっかちほーけいさつふくおかけいさつかんくほんぶがはっぴょーしたひがいないよーわかひょーのとーりである。	NO_LABEL
特色としては平野部、山間部の別を問わず大きな被害を与えたことであり、福岡市を始め佐賀市、熊本市、大分市といった県庁所在地のほか門司市・小倉市、久留米市など地方の主要都市にも多大な被害を与えている。	NO_PRONOUNCE	NO_LABEL
また九州随一の大河である筑後川水系を始め遠賀川水系、矢部川水系、大分川水系、大野川水系、菊池川水系、白川水系など九州北部の河川は大小問わず全て氾濫し堤防決壊や橋梁・道路流失などを招き、これ以前より営々と行われてきた治水事業を水泡に帰した。	NO_PRONOUNCE	NO_LABEL
以下では、各県における被害状況を詳述する。	いかでわ、かくけんにおけるひがいじょうきょーをしょーじゅつする。	NO_LABEL
最も被害が大きかったのは熊本県である。	もっともひがいがおーきかったのわくまもとけんである。	NO_LABEL
降り始めからの雨量は鹿本郡山鹿町で、この豪雨では最大の1,455.3mmを記録したほか、阿蘇郡小国町宮原で1,002.6mm、阿蘇郡黒川村で888.4mmを記録するなど、過去最悪の豪雨災害となった。	NO_PRONOUNCE	NO_LABEL
この豪雨で熊本市・玉名市・菊池郡・阿蘇郡など県北部を中心に甚大な被害が発生している。	NO_PRONOUNCE	NO_LABEL
県内の被害の特徴としては後述する阿蘇山の火山灰を原因とする土砂災害や、家屋被害において床下浸水を上回る床上浸水の多さが挙げられる。	けんないのひがいのとくちょーとしてわこーじゅつするあそさんのかざんばいをげんいんとするどしゃさいがいや、かおくひがいにおいてゆかしたしんすいをうわまわるゆかうえしんすいのおーさがあげられる。	NO_LABEL
なお、当時の被災状況については後に熊本県が県政ニュースとして映像を残しており、こちらで視聴可能である。	なお、とーじのひさいじょーきょーについてわごにくまもとけんがけんせいにゅーすとしてえいぞーをのこしており、こちらでしちょーかのーである。	NO_LABEL
県都・熊本市では市内を流れる白川が氾濫した。	NO_PRONOUNCE	NO_LABEL
白川上流部では阿蘇郡黒川村で5日間の雨量が888.4mmを記録するなど阿蘇地域一帯で猛烈な豪雨となった。	NO_PRONOUNCE	NO_LABEL
白川水系流域面積の80%を占める阿蘇地域は阿蘇熔岩を主体とする岩盤の上に「ヨナ」と呼ばれる火山灰を多く含む土壌が堆積していた。	NO_PRONOUNCE	NO_LABEL
鹿児島県大隅半島のシラス台地と同様に豪雨が降ると容易に崩壊する土壌であったため、阿蘇地域は1952年に特殊土壌地帯災害防除及び振興臨時措置法の規定する特殊土壌地帯に指定されていた。	かごしまけんおーすみはんとーのしらすだいちとどーよーにごーうがふるとよーいにほーかいするどじょーであったため、あそちーきわせんきゅうひゃくごじゅうにねんにとくしゅどじょーちたいさいがいぼーじょおよびしんこーりんじそちほーのきていするとくしゅどじょーちたいにしていされていた。	NO_LABEL
こうした土壌が堆積していた阿蘇地域で4月27日に阿蘇山が噴火して大量の火山灰が堆積、そこに大量の豪雨が降り注いだことで大量の火山灰や「ヨナ」が土石流となって広大な白川上流域から黒川合流点より下流の河川勾配が急な峡谷を一挙に下り、下流の熊本市内に流入した。	NO_PRONOUNCE	NO_LABEL
さらに熊本市内の白川は天井川となっていて、熊本市役所庁舎をはじめ熊本市中心部は白川の水面よりも低い位置に存在していた。	さらにくまもとしないのしらかわわてんじょーがわとなっていて、くまもとしやくしょちょーしゃをはじめくまもとしちゅーしんぶわしらかわのすいめんよりもひくいいちにそんざいしていた。	NO_LABEL
こうした複合的な要因が熊本市内の被害を増幅させる結果をもたらした。	こーしたふくごーてきなよーいんがくまもとしないのひがいをぞーふくさせるけっかをもたらした。	NO_LABEL
熊本市では京町や健軍といった高台を除く全市の70%が浸水し、熊本市中心部では平均で水深が2.5-3.0mに達した。	NO_PRONOUNCE	NO_LABEL
また白川の橋梁は17箇所市内に架けられていたが、国道3号長六橋と大甲橋を除いて残らず流失し上流・中流部でも七障子橋・代宮橋・赤瀬橋以外はことごとく流失した。	NO_PRONOUNCE	NO_LABEL
特に子飼橋では至近距離にあった避難所で避難していた住民約40名が橋もろとも白川に流され、死亡した。	NO_PRONOUNCE	NO_LABEL
熊本市内は噴火した阿蘇山の火山灰が混ざった大量の泥や「ヨナ」で市街地などが埋まり、その総量は実に600万トンにも及び熊本城の堀の一部を廃土で埋めることになった。	NO_PRONOUNCE	NO_LABEL
また養老院が倒壊して52名が一度に圧死する など、土砂災害による要因が死者を増加させている。	NO_PRONOUNCE	NO_LABEL
熊本市の被害額は約173億円にもおよぶ壊滅的被害となった。	NO_PRONOUNCE	NO_LABEL
また上流の阿蘇郡長陽村などでも土石流によって家屋や道路、鉄道への被害が大きく孤立した村落も発生、白川上流部のいわゆる「南郷谷」と呼ばれる阿蘇山カルデラ南部では土石流によって運ばれた巨大な岩石が一帯を覆い尽くし死者・行方不明者が66名を数えた。	NO_PRONOUNCE	NO_LABEL
熊本県ではこの白川流域で甚大な被害をもたらした今回の水害を特に白川大水害または6.26水害と呼ぶ。	NO_PRONOUNCE	NO_LABEL
なお白川ではこの水害の半月後7月16日から17日にかけても集中豪雨があり、仮橋を架けたばかりの国道266号代継橋や明午橋、白川橋、泰平橋が再び流失したほか床上・床下浸水の被害を受けている。	NO_PRONOUNCE	NO_LABEL
またこの水害を契機に建築された白川沿いの住宅が、その後の白川治水事業を困難にする要因ともなった。	またこのすいがいをけいきにけんちくされたしらかわぞいのじゅーたくが、そのごのしらかわちすいじぎょーをこんなんにするよーいんともなった。	NO_LABEL
菊池川流域では山鹿の1,455.3mmをはじめ菊池郡菊池村立門で830.2mm、菊池郡隈府町で599.4mmなど猛烈な雨が流域を襲った。	NO_PRONOUNCE	NO_LABEL
特に山鹿では6月25日に1日雨量としても最大となる528mmを記録したほか26日には418.5mm、27日には282mmという猛烈な雨となっている。	NO_PRONOUNCE	NO_LABEL
このため菊池川本流や支流の迫間川、合志川などが氾濫、菊池川の水位は最大で9mにも達した。	このためきくちがわほんりゅーやしりゅーのはさまがわ、ごーしがわなどがはんらん、きくちがわのすいいわさいだいできゅうめーとるにもたっした。	NO_LABEL
玉名市、菊池村、隈府町、山鹿町などが浸水被害を受け、菊池川流域では死者7名、全半壊家屋572棟、浸水家屋1万5335棟に上った。	NO_PRONOUNCE	NO_LABEL
筑後川上流部の熊本県流域でも猛烈な豪雨が降ったことにより、筑後川の水位が6月26日10時に九州電力杖立取水堰地点で警戒水位を7m以上上回る12.50mに達した。	NO_PRONOUNCE	NO_LABEL
これにより川沿いにある杖立温泉では全ての連絡手段が不通となり孤立、旅館などが流失・損壊するなど大きな被害となった。	NO_PRONOUNCE	NO_LABEL
熊本県に次いで被害が大きかったのは福岡県である。	くまもとけんについでひがいがおーきかったのわふくおかけんである。	NO_LABEL
特に筑紫平野、北九州、福岡市内の被害が深刻であった。	とくにつくしへいや、きたきゅーしゅー、ふくおかしないのひがいがしんこくであった。	NO_LABEL
福岡県では人的被害もさることながら、家屋への被害が他県に比べて群を抜いている。	ふくおかけんでわじんてきひがいもさることながら、かおくえのひがいがたけんにくらべてぐんをぬいている。	NO_LABEL
筑後川では上流部の大分県日田郡上津江村上野田にある建設省 の観測所で5日間の総降水量が1,148.5mmに達したのを始め熊本県阿蘇郡小国町宮原で1,002.6mm・時間雨量90.2mm、小国町小国で994.6mmなど本流流域で平均900mm、支流の玖珠川流域で平均700-800mmの豪雨が降り注いだ。	NO_PRONOUNCE	NO_LABEL
このため筑後川の水位は6月25日22時に治水基準点である久留米市瀬の下観測所で警戒水位の5.14mを超え、以後一時間毎に60cm上昇。	NO_PRONOUNCE	NO_LABEL
日田市では計画高水位 を6月26日14時の時点で過去最悪の水位を突破した。	ひたしでわけいかくこうすいーをろくがつにじゅうろくにちじゅうよじのじてんでかこさいあくのすいいをとっぱした。	NO_LABEL
6月26日以降筑後川の水位は8mから9mの水位まで上昇し、堤防天端すれすれの状態が6月27日まで続き、警戒水位を下回る平常の水位に戻ったのは7月2日以降になってからであった。	ろくがつにじゅうろくにちいこーちくごがわのすいいわはちめーとるからきゅうめーとるのすいいまでじょーしょーし、ていぼーてんばすれすれのじょーたいがろくがつにじゅうしちにちまでつずき、けいかいすいーをしたまわるへいじょーのすいいにもどったのわしちがつふつかいこーになってからであった。	NO_LABEL
本流および支流・玖珠川の膨大な濁流は日田郡夜明村から浮羽郡浮羽町・朝倉郡杷木町間の夜明峡谷に集まり、一挙に筑紫平野に流入した。	NO_PRONOUNCE	NO_LABEL
この地点には当時九州電力が水力発電専用ダムである夜明ダムを建設中であったが、濁流は夜明ダム堤体に激突。	このちてんにわとーじきゅーしゅーでんりょくがすいりょくはつでんせんよーだむであるよあけだむをけんせつちゅーであったが、だくりゅーわよあけだむていたいにげきとつ。	NO_LABEL
九州電力は水門を全開して濁流からダムを守ろうとしたが濁流はダム両岸をえぐるように流れ、25日夜半から翌26日午前中にダムは左岸の発電所取水口と右岸の国道386号から決壊、ダム本体に据付けられた水門も3門吹き飛んだ。	NO_PRONOUNCE	NO_LABEL
その後濁流は1674年に建設された大石堰に激突し、ここで堤防を決壊させ浮羽町役場を始め町内全てを水没させた。	そのごだくりゅーわせんろっぴゃくななじゅうよんねんにけんせつされたおーいしせきにげきとつし、ここでていぼーをけっかいさせうきはまちやくばをはじめちょーないすべてをすいぼつさせた。	NO_LABEL
堤防を決壊させた濁流は浮羽郡各所に流入、支流の巨瀬川の洪水と合流し巨瀬川の堤防を決壊させ、さらに吉井町・船越村・江南村の筑後川堤防も相次いで決壊した。	NO_PRONOUNCE	NO_LABEL
田主丸町では橋梁がことごとく流失、町内は水深1m以上の浸水となった。	たぬしまるまちでわきょーりょーがことごとくりゅーしつ、ちょーないわすいしんいちめーとるいじょーのしんすいとなった。	NO_LABEL
原鶴温泉街も完全に水没し筑後川南岸は一面が海のようになったと伝えられている。	はらずるおんせんがいもかんぜんにすいぼつしちくごがわなんがんわいちめんがうみのよーになったとつたえられている。	NO_LABEL
筑後川北岸の朝倉郡でも甘木町・蜷城村・朝倉村・大福村で堤防決壊が多発してほぼ全ての地域が浸水。	NO_PRONOUNCE	NO_LABEL
三井郡では小郡町などを除き完全に外部との交通が遮断され、数日間陸の孤島と化した。	みいぐんでわおごーりちょーなどをのぞきかんぜんにがいぶとのこーつーがしゃだんされ、すーにちかんりくのことーとかした。	NO_LABEL
久留米市では東櫛原町など数箇所で堤防が決壊し東・西・北の三方向から一挙に市内に濁流が流れ込んだ。	NO_PRONOUNCE	NO_LABEL
東櫛原町の堤防では決壊の一時間前より堤防上を洪水が越流し始めたが、その様子はあたかも滝のようであった。	ひがしくしはらまちのていぼーでわけっかいのいちじかんまえよりていぼーじょーをこーずいがこしながしはじめたが、そのよーすわあたかもたきのよーであった。	NO_LABEL
決壊した堤防から流出した水は久留米市内に押し寄せ、国鉄久留米駅、久留米大学医学部附属病院など久留米市中心部をことごとく水没させ、市内の80%が浸水した。	けっかいしたていぼーからりゅーしゅつしたみずわくるめしないにおしよせ、こくてつくるめえき、くるめだいがくいがくぶふぞくびょーいんなどくるめしちゅーしんぶをことごとくすいぼつさせ、しないのはちじゅうぱーせんとがしんすいした。	NO_LABEL
水位は市内中心部の明治通りにある旭屋デパート前で約1m、最も深い場所では約3mに達した。	すいいわしないちゅーしんぶのめいじどーりにあるあさひやでぱーとまえでやくいちめーとる、もっともふかいばしょでわやくすりーえむにたっした。	NO_LABEL
道路も国道3号久留米大橋、国道264号豆津橋をはじめ小森野橋、宮ノ陣橋、両筑橋、恵蘇宿橋、原鶴大橋が流失または損壊し、国道3号は佐賀県三養基郡鳥栖町と久留米間が完全に不通となった。	どーろもこくどーさんごーくるめだいきょー、こくどーにひゃくろくじゅうよんごーまめずばしをはじめこもりのきょー、みやのじんきょー、りょーちくきょー、めぐみそやどきょー、はらつるおーはしがりゅーしつまたわそんかいし、こくどーさんごーわさがけんみやきぐんとすまちとくるめかんがかんぜんにふつーとなった。	NO_LABEL
筑後川流域における被害は死者147人を出した のを始め堤防決壊・崩落84箇所、護岸崩壊38箇所、道路損壊1,889箇所、橋梁流失948箇所などに及び、家屋の被害も下表に示す通りとなった。	NO_PRONOUNCE	NO_LABEL
被災者数は54万4060人に及び被害総額は約32億8700万円にも上った。	NO_PRONOUNCE	NO_LABEL
浸水した区域は筑紫平野のほぼ全域であり、東は夜明ダム直下、西は佐賀市の嘉瀬川堤防、南は矢部川堤防、北は筑紫野市の宝満川流域にまで及び、さながら有明海が内陸山沿いまで海域を拡大したかの様相を呈した。	しんすいしたくいきわつくしへいやのほぼぜんいきであり、ひがしわよあけだむちょっか、にしわさがしのかせがわていぼー、みなみわやべがわていぼー、きたわちくしのしのほーまんがわりゅーいきにまでおよび、さながらありあけかいがないりくやまぞいまでかいいきをかくだいしたかのよーそーをていした。	NO_LABEL
1890年の洪水、1921年の洪水と並んでこの水害は「筑後川三大洪水」とも呼ばれている。	NO_PRONOUNCE	NO_LABEL
矢部川流域でも上流部を中心に豪雨が降り、八女郡矢部村で5日間に934.2mmの総降水量を観測したのを始め黒木町で609.5mm、星野村で667.8mm、辺春村で666mm、福島町で613.6mm、柳川市で496.2mmなど流域は降り始めからの平均が700mm近くに達した。	NO_PRONOUNCE	NO_LABEL
このため矢部川本流は国道209号船小屋橋の道路が冠水するほどの水位となったほか、支流の星野川、笠原川、辺春川などが軒並み氾濫し各所でがけ崩れや橋梁、家屋、田畑の流失を招いた。	このためやべがわほんりゅーわこくどーにひゃくきゅうごーせんこやきょーのどーろがかんすいするほどのすいいとなったほか、しりゅーのほしのがわ、かさはらがわ、へばるがわなどがのきなみはんらんしかくしょでがけくずれやきょーりょー、かおく、たはたのりゅーしつをまねいた。	NO_LABEL
特に橋梁については支流の田代川と鹿子生川で全ての橋梁が流失したほか、黒木町で合流する笠原川でも最上流部の大年橋・振々橋・左手上橋以外はことごとく流失している。	NO_PRONOUNCE	NO_LABEL
また矢部川本流についても、特に支流との合流点付近にある橋梁が流失している。	またやべがわほんりゅーについても、とくにしりゅーとのごーりゅーてんふきんにあるきょーりょーがりゅーしつしている。	NO_LABEL
こうした濁流は福島町や羽犬塚町、三潴郡に押し寄せ、甚大な被害を与えた。	こーしただくりゅーわふくしまちょーやはいぬずかまち、みずまぐんにおしよせ、じんだいなひがいをあたえた。	NO_LABEL
特に山門郡瀬高町では全町が水没、三潴郡や柳川市といった下流部では筑後川の支流である花宗川の濁流と矢部川の濁流が合流して大川町や柳川市に流入、被害をさらに拡大させた。	とくにやまとぐんせたかまちでわぜんまちがすいぼつ、みずまぐんややながわしといったかりゅーぶでわちくごがわのしりゅーであるはなむねがわのだくりゅーとやべがわのだくりゅーがごーりゅーしておーかわちょーややながわしにりゅーにゅー、ひがいをさらにかくだいさせた。	NO_LABEL
三潴郡内では筑後川・矢部川の洪水が合流したことで郡内にある家屋の98%が浸水するなど被害は凄まじく、「全郡水没」状態となった。	NO_PRONOUNCE	NO_LABEL
死者は2人であったがほぼ全郡が床上・床下浸水の被害を受け、被災者数は12万4132名にも上った。	NO_PRONOUNCE	NO_LABEL
矢部川流域全体では死者29人、床上浸水10,138棟、床下浸水15,896棟に及んだ。	NO_PRONOUNCE	NO_LABEL
北九州市は当時門司市、小倉市、八幡市などに分かれていたがほぼ全域で豪雨が降り注いだ。	きたきゅーしゅーしわとーじもじし、こくらし、やはたしなどにわかれていたがほぼぜんいきでごーうがふりそそいだ。	NO_LABEL
降り始めからの雨量は門司で646.1mm、小倉で544mm、八幡で501mmなどの記録的な豪雨となった。	NO_PRONOUNCE	NO_LABEL
特に小倉市では本水害において最大となる時間雨量101mmを記録する猛烈な雨を記録した。	とくにこくらしでわほんすいがいにおいてさいだいとなるじかんうりょーひゃくいちめーとるめーとるをきろくするもーれつなあめをきろくした。	NO_LABEL
筑豊地方でも田川郡添田町で687.4mm、英彦山で632.8mm、直方市で571.2mm、飯塚市で534.8mmとなり、この地域を流れる遠賀川水系、紫川水系、今川水系などが氾濫した。	NO_PRONOUNCE	NO_LABEL
特に被害が顕著だったのは門司市街地である。	とくにひがいがけんちょだったのわもんじしがいちである。	NO_LABEL
降水量646.1mmを記録する豪雨は現在新関門トンネルが通過している戸の上山を始めとした風師・戸の上山系へと降り注ぎ、山腹崩壊という形で門司市街や門司港周辺へと土石流やがけ崩れとなって押し寄せた。	NO_PRONOUNCE	NO_LABEL
その崩落箇所は600箇所にも及び、北九州地域における豪雨死者の大半を出す結果になった。	NO_PRONOUNCE	NO_LABEL
隣接する小倉市街地では紫川や板櫃川など中小河川の氾濫によって市内の広範囲が浸水、市内の80%が浸水し井筒屋小倉本店前でも腰まで水に浸かる水位となった。	りんせつするこくらしがいちでわむらさきがわやいたびつがわなどちゅーしょーかせんのはんらんによってしないのこーはんいがしんすい、しないのはちじゅうぱーせんとがしんすいしいずつやこくらほんてんまえでもこしまでみずにつかるすいいとなった。	NO_LABEL
紫川流域は上流部は現在のます渕ダム付近および日田彦山線呼野駅付近から、下流は河口に至るまでほぼ全て浸水した。	むらさきがわりゅーいきわじょーりゅーぶわげんざいのますふちだむふきんおよびひたひこさんせんよぶのえきふきんから、かりゅーわかこーにいたるまでほぼすべてしんすいした。	NO_LABEL
門司・小倉・八幡3市における被害の合計は死者183名、全壊家屋3,812棟、浸水家屋7万9123棟に及び現在に至るまで過去最悪の豪雨被害となった。	NO_PRONOUNCE	NO_LABEL
北九州市では今回の水害を特に北九州大水害と呼んでいる。	きたきゅーしゅーしでわこんかいのすいがいをとくにきたきゅーしゅーだいすいがいとよんでいる。	NO_LABEL
また遠賀川水系でも遠賀川本流や支流の彦山川・福地川・犬鳴川などが氾濫し流域の飯塚市や田川市、田川郡などで浸水被害を及ぼした。	NO_PRONOUNCE	NO_LABEL
遠賀川は遠賀郡植木町で堤防決壊を起こし、下流の農地や人家を水没させた。	おんががわわおんがぐんうえきまちでていぼーけっかいをおこし、かりゅーののーちやじんかをすいぼつさせた。	NO_LABEL
上流部の田川地方では当時多くの炭鉱があり、ボタ山も多数存在したが豪雨によるボタ山崩壊で大量のボタが遠賀川やその支流に流入、河床の上昇を来たして堤防決壊や越流を助長した。	じょーりゅーぶのたがわちほーでわとーじおーくのたんこーがあり、ぼたやまもたすーそんざいしたがごーうによるぼたやまほーかいでたいりょーのぼたがおんががわやそのしりゅーにりゅーにゅー、かしょーのじょーしょーをきたしてていぼーけっかいやえつりゅーをじょちょーした。	NO_LABEL
遠賀川流域では堤防決壊・損壊138か所、橋梁11か所が流失し9か所が損壊している。	NO_PRONOUNCE	NO_LABEL
豊前地域でも河川の氾濫による被害が多く、京都郡では今川や祓川などの氾濫で堤防が決壊。	とよまえちいきでもかせんのはんらんによるひがいがおーく、みやこぐんでわいまがわやはらいがわなどのはんらんでていぼーがけっかい。	NO_LABEL
築上郡では山国川を始め城井川や佐井川の氾濫で死者1名、負傷者274名、全壊家屋2棟、半壊家屋10棟、床上浸水306棟、床下浸水1,810棟という大きな被害を受けている。	NO_PRONOUNCE	NO_LABEL
九州地方最大の都市である福岡市でも豪雨被害は深刻であった。	きゅーしゅーちほーさいだいのとしであるふくおかしでもごーうひがいわしんこくであった。	NO_LABEL
市内では6月4日 - 6月7日に掛けても総雨量300mmを超える豪雨を記録しており、これに追い討ちを掛けるように5日間で621.4mmの猛烈な豪雨が降り注いだ。	NO_PRONOUNCE	NO_LABEL
このため那珂川や御笠川、室見川、樋井川、十郎川、須恵川など市内を流れる中小河川がことごとく氾濫。	このためなかがわやみかさがわ、むろみがわ、ひいかわ、じゅーろーがわ、すえがわなどしないをながれるちゅーしょーかせんがことごとくはんらん。	NO_LABEL
福岡市内の大部分が浸水した。	ふくおかしないのだいぶぶんがしんすいした。	NO_LABEL
浸水範囲は福岡市最大の繁華街である中洲や天神を始め現在の福岡市中央区渡辺通・警固・薬院・大濠、早良区城西町など福岡市中心部のほとんどであり、警固地区ではがけ崩れによる土砂災害も発生した。	NO_PRONOUNCE	NO_LABEL
隣接する糟屋郡でも多々良川水系が全て氾濫、多々良川本流や支流の猪野川、久原川、長谷川などが各所で堤防決壊や堤防がない場所での洪水流入で浸水被害や農地流失が相次いだ。	りんせつするかすやぐんでもたたらがわすいけいがすべてはんらん、たたらがわほんりゅーやしりゅーのいのがわ、くばらがわ、はせがわなどがかくしょでていぼーけっかいやていぼーがないばしょでのこーずいりゅーにゅーでしんすいひがいやのーちりゅーしつがあいついだ。	NO_LABEL
糸島郡前原町でも町内を流れる瑞梅寺川の氾濫で町内の大部分が浸水している。	いとしまぐんまえはらちょーでもちょーないをながれるずいばいじがわのはんらんでちょーないのだいぶぶんがしんすいしている。	NO_LABEL
福岡市内では全壊家屋11棟、半壊家屋59棟、床上浸水5,735棟、床下浸水2万1900棟の大きな被害を受けており、人口密集地を中心に被害が集中していることから被災者数も11万3789名と多数に上った。	NO_PRONOUNCE	NO_LABEL
佐賀県では神埼郡三瀬村で711.4mm、鳥栖町で665.2mm、神埼郡神埼町で633.7mm、佐賀市で587.1mmなどとなった。	NO_PRONOUNCE	NO_LABEL
これにより嘉瀬川・松浦川など背振山地を水源とする河川が軒並み氾濫したほか、筑後川の洪水が支流に逆流することで堤防決壊などの被害が拡大した。	NO_PRONOUNCE	NO_LABEL
逆流した筑後川の洪水は支流の上流から流れ来る洪水と衝突して堤防を越流、6月26日に鳥栖町を流れる大木川の堤防が決壊した。	ぎゃくりゅーしたちくごがわのこーずいわしりゅーのじょーりゅーからながれくるこーずいとしょーとつしてていぼーをえつりゅー、ろくがつにじゅうろくにちにとすまちをながれるおーきがわのていぼーがけっかいした。	NO_LABEL
その後宝満川に逆流した筑後川の濁流が宝満川支流の安良川に逆流、築堤以来300年にわたり流域を水害から守った成富茂安の千栗堤防を決壊させ三養基郡北茂安村を水没させた。	そのごほーまんがわにぎゃくりゅーしたちくごがわのだくりゅーがほーまんがわしりゅーのあらかわにぎゃくりゅー、ちくていいらいさんびゃくねんにわたりりゅーいきをすいがいからまもったなりどみのせんくりていぼーをけっかいさせみやきぐんきたしげやすむらをすいぼつさせた。	NO_LABEL
筑後川の濁流はそのまま南西へと押し寄せ、三養基郡や神埼郡をことごとく呑み込んだ。	ちくごがわのだくりゅーわそのままなんせいえとおしよせ、みやきぐんやかんざきぐんをことごとくのみこんだ。	NO_LABEL
特に被害が甚大だったのは神埼郡三田川村で、筑後川支流の田手川と城原川が決壊したが、上流から流れ来る大量の土砂が流域の家屋や田畑を一挙に押し流した。	とくにひがいがじんだいだったのわかんざきぐんみたがわむらで、ちくごがわしりゅーのたてがわとじょーばるがわがけっかいしたが、じょーりゅーからながれくるたいりょーのどしゃがりゅーいきのかおくやたはたをいっきょにおしながした。	NO_LABEL
この濁流はさらに蓮池町に流れ込み、筑後川の逆流した洪水と合流して西へ押し寄せ、佐賀郡東川副村を経て遂に佐賀市内に流入した。	このだくりゅーわさらにはすいけちょーにながれこみ、ちくごがわのぎゃくりゅーしたこーずいとごーりゅーしてにしえおしよせ、さがぐんひがしがわふくむらをへてついにさがしないにりゅーにゅーした。	NO_LABEL
そして佐賀郡南川副町に達して海岸堤防でせき止められた。	そしてさがぐんみなみかわそえまちにたっしてかいがんていぼーでせきとめられた。	NO_LABEL
また嘉瀬川は天井川で河床が佐賀平野よりも高く、かつ複雑な流路だったことから鍋島村で堤防が決壊、濁流は佐賀市内に流入したが同時に東より筑後川本流や田手川・城原川の濁流が押し寄せ、両者が佐賀市近辺で合流することにより浸水被害を倍化させた。	NO_PRONOUNCE	NO_LABEL
最終的に有明海の海岸堤防を人工的に破壊するなどして濁流を排水することにより浸水は収束したが、水が完全に引くまで1か月以上掛かった地域もあった。	さいしゅーてきにありあけかいのかいがんていぼーをじんこーてきにはかいするなどしてだくりゅーをはいすいすることによりしんすいわしゅーそくしたが、みずがかんぜんにひくまでいっかげついじょーかかったちいきもあった。	NO_LABEL
唐津市を流れる松浦川でも源流部である天山山麓で豪雨となり、特に支流の厳木川が氾濫して浸水被害が多発している。	からつしをながれるまつうらがわでもげんりゅーぶであるあまやまさんろくでごーうとなり、とくにしりゅーのきゅーらぎがわがはんらんしてしんすいひがいがたはつしている。	NO_LABEL
大分県でも降り始めからの総雨量が日田郡上津江村で1,148.5mmという猛烈な豪雨を記録したのをはじめ、玖珠郡森町で835.5mm、由布院町で818mm、長湯温泉で738.4mm、竹田市で718.9mm、大分市で713.3mm、日田市で705.6mm と筑後川上流・大分川上流・大野川上流域で記録的な豪雨をもたらした。	NO_PRONOUNCE	NO_LABEL
このため大分県内においても被害は著しいものになった。	このためおーいたけんないにおいてもひがいわいちじるしいものになった。	NO_LABEL
大分市では市内を流れる大分川が氾濫。	おーいたしでわしないをながれるおーいたがわがはんらん。	NO_LABEL
堤防が各所で決壊し市内に濁流が押し寄せた。	ていぼーがかくしょでけっかいししないにだくりゅーがおしよせた。	NO_LABEL
国道197号の舞鶴橋も流失し市内だけで9,317棟が浸水、大分市街地もほとんど浸水した。	NO_PRONOUNCE	NO_LABEL
特に舞鶴橋右岸の大分市津留地区が橋梁流失による県道の寸断で交通が完全に寸断され、500世帯が孤立した。	NO_PRONOUNCE	NO_LABEL
またこの地区には大分県立大分商業高等学校など高等学校2校、中学校1校があり通学にも影響を与え、仮の橋を大分川に架けることにより大分市内への交通がようやく再開した。	NO_PRONOUNCE	NO_LABEL
大分川流域だけで被害は死者・行方不明者84名、負傷者524名、家屋流失1,008棟、家屋全半壊2,998棟、床上浸水8,165棟、床下浸水30,417棟に上った。	NO_PRONOUNCE	NO_LABEL
大野川流域でも特に竹田市を流れる支流の玉来川と稲葉川、また大野川下流や平井川でも堤防決壊や浸水の被害が続発し、県南部の祖母山や傾山でも山腹の崩落が多発している。	おーのかわながれいきでもとくにたけたしをながれるしりゅーのたまらいがわといなばがわ、またおーのかわかりゅーやひらいがわでもていぼーけっかいやしんすいのひがいがぞくはつし、けんなんぶのそぼさんやかたむきさんでもさんぷくのほーらくがたはつしている。	NO_LABEL
また日田市・日田郡・玖珠郡では筑後川本流と支流の玖珠川が氾濫、濁流は日田市内へ流れ込み市内の通りを激流となって押し寄せ筑後川に架かる銭淵橋が吹き飛ばされたのをはじめ完成したばかりである国道210号三隈大橋以外の全てが流失・破壊された。	NO_PRONOUNCE	NO_LABEL
日田市は日田盆地にあるが、この地は筑後川と玖珠川・花月川が一斉に合流する土地で、かつ下流に夜明峡谷があるため河水の流下能力が乏しく、洪水の際には峡谷がダム化して行き場を失った河水が上流の日田市内へと逆流。	NO_PRONOUNCE	NO_LABEL
このため市内は洪水が「貯水」された格好になり、全市が平均1-2mの深さで浸水した。	NO_PRONOUNCE	NO_LABEL
これに輪をかけて三隈大橋に上流から流れ来る大量の流木がせき止められてダム化し、浸水被害に拍車をかけた。	これにわをかけてみくまおーはしにじょーりゅーからながれくるたいりょーのりゅーぼくがせきとめられてだむかし、しんすいひがいにはくしゃをかけた。	NO_LABEL
玖珠川合流点より上流部の筑後川流域や玖珠川上流部でも水位が軒並み10mを超え、河道が変わるほどの濁流となり農地や家屋の流失が深刻であった。	くすがわごーりゅーてんよりじょーりゅーぶのちくごがわりゅーいきやくすがわじょーりゅーぶでもすいいがのきなみじゅうめーとるをこえ、かわみちがかわるほどのだくりゅーとなりのーちやかおくのりゅーしつがしんこくであった。	NO_LABEL
玖珠川では川に架かる18の橋梁中11橋梁が流失した。	NO_PRONOUNCE	NO_LABEL
これにより国道210号、国道212号、国道386号および久大本線は完全に不通、通信線や送電線も寸断されたことで日田市や玖珠郡は一時完全に孤立した。	これによりこくどーにひゃくじゅうごー、こくどーにひゃくじゅうにごー、こくごーさんびゃくはちじゅうろくごーおよびきゅーだいほんせんわかんぜんにふつー、つーしんせんやそーでんせんもすんだんされたことでひたしやくすぐんわいちじかんぜんにこりつした。	NO_LABEL
日田市では死者17名、被災者数3万7000人に及んだ。	NO_PRONOUNCE	NO_LABEL
この水害では道路や橋梁のほか鉄道・港湾・水力発電所といったインフラストラクチャーへの被害も深刻であった。	NO_PRONOUNCE	NO_LABEL
特に鉄道の被害は甚大であり北部九州の鉄道網は完全に麻痺し、一時は本州との連絡が途絶している。	とくにてつどーのひがいわじんだいでありほくぶきゅーしゅーのてつどーもーわかんぜんにまひし、いちじわほんしゅーとのれんらくがとぜつしている。	NO_LABEL
福岡県内や大分県内では7月上旬から8月上旬、熊本県内では8月上旬までダイヤが大幅に乱れた。	ふくおかけんないやおーいたけんないでわなながつじょーじゅんからはちがつじょーじゅん、くまもとけんないでわはちがつじょーじゅんまでだいやがおーはばにみだれた。	NO_LABEL
また、九州北部および山口県にある港湾施設にも大きな被害が生じている。	また、きゅーしゅーほくぶおよびやまぐちけんにあるこーわんしせつにもおーきなひがいがしょーじている。	NO_LABEL
水力発電所も土石流や浸水によって発電が停止するなど大打撃を受けた。	すいりょくはつでんしょもどせきりゅーやしんすいによってはつでんがていしするなどだいだげきをうけた。	NO_LABEL
道路・橋梁被害は各県の被害状況に先述しているので、以下は鉄道・港湾・発電所といったインフラストラクチャーに対する被害について詳述する。	NO_PRONOUNCE	NO_LABEL
国鉄は北部九州の各路線が甚大な被害を受けている。	こくてつわほくぶきゅうしゅーのかくろせんがじんだいなひがいをうけている。	NO_LABEL
鹿児島本線は遠賀川の堤防決壊によって遠賀川駅周辺が完全に水没したほか、肥前旭駅と鳥栖駅間が筑後川の洪水で1.7m浸水。	かごしまほんせんわおんががわのていぼーけっかいによっておんががわえきしゅーへんがかんぜんにすいぼつしたほか、ひぜんあさひえきととすえきかんがちくごがわのこーずいでいちてんななめーとるしんすい。	NO_LABEL
さらに矢部川橋梁が流失し線路が宙づりになるなど 数か所にわたり不通となった。	さらにやべがわきょーりょーがりゅーしつしせんろがちゅーずりになるなどすーかしょにわたりふつーとなった。	NO_LABEL
さらに関門鉄道トンネルが門司市内の豪雨により氾濫した大川や田畑川の洪水が6月28日午前11時頃よりトンネル内に流入し、完全に水没。	さらにかんもんてつどーとんねるがもんじしないのごーうによりはんらんしたおーかわやたばたがわのこーずいがろくがつにじゅうはちにちごぜんじゅういちじごろよりとんねるないにりゅーにゅーし、かんぜんにすいぼつ。	NO_LABEL
本州・九州間の連絡は完全に途絶し旅客は下関駅で立ち往生したり、海路九州に向かわなければならなかった。	NO_PRONOUNCE	NO_LABEL
復旧作業は矢部川橋梁の復旧に時間を費やしたものの7月4日には福岡県内の路線が復旧するが、関門鉄道トンネルについては備品のポンプが故障するなど難航した。	ふっきゅーさぎょーわやべがわきょーりょーのふっきゅーにじかんをついやしたもののしちがつよっかにわふくおかけんないのろせんがふっきゅーするが、かんもんてつどーとんねるについてわびひんのぽんぷがこしょーするなどなんこーした。	NO_LABEL
このため国鉄は日本各地の支店よりポンプを集めたほか、新潟県の信濃川工事事務所など各地の建設省工事事務所、三井鉱山、宇部興産さらにはアメリカ軍の協力により66台の大型ポンプを使用し、7月14日に下り線で単線開通させたのを皮切りに7月21日までには平常運転に戻すことができた。	NO_PRONOUNCE	NO_LABEL
このほか福岡県内では筑豊本線の筑前垣生駅と筑前植木駅間、および芦屋線が遠賀川の洪水により駅舎・線路が浸水し7月8日まで不通となり、日田彦山線では南小倉駅と城野駅間が紫川の氾濫で水没し小倉駅も浸水した。	NO_PRONOUNCE	NO_LABEL
矢部線では星野川橋梁が流失し不通となった。	やべせんでわほしのがわきょーりょーがりゅーしつしふつーとなった。	NO_LABEL
久大本線はこの水害における被害がもっとも深刻で、全線が壊滅的な打撃を受けた。	きゅーだいほんせんわこのすいがいにおけるひがいがもっともしんこくで、ぜんせんがかいめつてきなだげきをうけた。	NO_LABEL
福岡県内では筑後川の洪水によりほぼ全線が浸水。	ふくおかけんないでわちくごがわのこーずいによりほぼぜんせんがしんすい。	NO_LABEL
大分県内では夜明ダム右岸決壊に伴い線路も同時に流失したほか、玖珠川沿いの豊後三芳駅 - 豊後中川駅間に架かる第1玖珠川橋梁と九酔峡下流に位置する引治駅 - 豊後中村駅間の鳴子川橋梁が完全に流失、天ヶ瀬駅 - 北山田駅間の第8・第9・第10玖珠川橋梁も損壊した。	NO_PRONOUNCE	NO_LABEL
大分川流域では南由布駅 - 湯平駅間の第6由布川橋梁が流失し第4・第5由布川橋梁が損壊。	NO_PRONOUNCE	NO_LABEL
さらに向之原駅 - 賀来駅間でも大分川の増水で線路が冠水し、各所で寸断された。	NO_PRONOUNCE	NO_LABEL
このため復旧に時間を費やし完全に復旧するのは1か月以上経過した8月8日になってからであった。	このためふっきゅーにじかんをついやしかんぜんにふっきゅーするのわいっかげついじょーけいかしたはちがつようかになってからであった。	NO_LABEL
日豊本線も各所で浸水などの被害が生じ、復旧は7月2日まで掛かった。	にっぽーほんせんもかくしょでしんすいなどのひがいがしょーじ、ふっきゅーわしちがつふつかまでかかった。	NO_LABEL
長崎本線では佐賀駅と鍋島駅間で冠水により6月30日まで不通。	ながさきほんせんでわさがえきとなべしまえきかんでかんすいによりろくがつさんじゅうにちまでふつー。	NO_LABEL
佐世保線は大町駅と武雄温泉駅間で六角川の河水が逆流して線路が冠水、34時間にわたって不通となった。	させぼせんわおーまちえきとたけおーんせんえきかんでろっかくがわのこーすいがぎゃくりゅーしてせんろがかんすい、さんじゅうよじかんにわたってふつーとなった。	NO_LABEL
唐津線や筑肥線では松浦川の洪水で山本駅を中心に1.5m浸水し、7月1日まで不通。	からつせんやちくひせんでわまつうらがわのこーずいでやまもとえきをちゅーしんにいちてんごめーとるしんすいし、しちがつついたちまでふつー。	NO_LABEL
そして松浦線では今福駅と調川駅、今福駅と浦ノ崎駅間でそれぞれ大規模な地滑りが発生し、九州各地の被害路線では最も遅い8月9日になってようやく復旧に至った。	そしてまつうらせんでわいまぶくえきとつきのかわえき、いまぶくえきとうらのさきえきかんでそれぞれだいきぼなじすべりがはっせいし、きゅーしゅーかくちのひがいろせんでわもっともおそいはちがつここのかになってよーやくふっきゅーにいたった。	NO_LABEL
熊本県内では豊肥本線の水前寺駅と竜田口駅間 に架かる第2白川橋梁が流失、高森線では立野駅と長陽駅間にある戸下トンネルががけ崩れで埋没し、それぞれ8月6日、8月4日まで復旧がずれ込んだ。	NO_PRONOUNCE	NO_LABEL
この間長陽方面は道路損壊もあって完全に孤立した状態に陥っている。	このまちょーよーほーめんわどーろそんかいもあってかんぜんにこりつしたじょーたいにおちいっている。	NO_LABEL
私鉄では西日本鉄道大牟田線の筑後川橋梁が、上流から流れ来る大量の流木や濁流によって流失までは至らなかったものの大きく蛇行するように曲がり、不通となったほか甘木線が宮の陣橋の損壊により不通となった。	してつでわにしにっぽんてつどーおーむたせんのちくごがわきょーりょーが、じょーりゅーからながれくるたいりょーのりゅーぼくやだくりゅーによってりゅーしつまでわいたらなかったもののおーきくだこーするよーにまがり、ふつーとなったほかあまぎせんがみやのじんきょーのそんかいによりふつーとなった。	NO_LABEL
また熊本市内では熊本市電が白川の氾濫による大量の火山灰を含む濁流で熊本市電春竹線が代継橋もろとも流失するなど全線が被害を受けたほか、熊本電気鉄道では菊池川橋梁が流失するなどの被害を受けている。	またくまもとしないでわくまもとしでんがしらかわのはんらんによるたいりょーのかざんばいをふくむだくりゅーでくまもとしでんはるたけせんがよつぎばしもろともりゅーしつするなどぜんせんがひがいをうけたほか、くまもとでんきてつどーでわきくちがわきょーりょーがりゅーしつするなどのひがいをうけている。	NO_LABEL
なお、この水害の直前に小説家で鉄道旅行が趣味であった内田百は九州を鉄道で旅行中だったが、水害で関門鉄道トンネルが水没する直前に九州を脱出した。	なお、このすいがいのちょくぜんにしょーせつかでてつどーりょこーがしゅみであったうちだひゃくわきゅーしゅーをてつどーでりょこーちゅーだったが、すいがいでかんもんてつどーとんねるがすいぼつするちょくぜんにきゅーしゅーをだっしゅつした。	NO_LABEL
この模様は後に『雷九州阿房列車』として執筆・発刊されたが、本書には友人からの手紙による白川大水害の状況が記されているほか、九州各地の鉄道が水害によって不通になって行く様子も記されている。	NO_PRONOUNCE	NO_LABEL
港湾の被害は、大別すると港湾内に上流からの土砂が堆積する被害と、港湾施設自体の被害があったが、今回の水害では圧倒的に土砂流入による港湾埋没被害が多発した。	こーわんのひがいわ、たいべつするとこーわんないにじょーりゅーからのどしゃがたいせきするひがいと、こーわんしせつじたいのひがいがあったが、こんかいのすいがいでわあっとーてきにどしゃりゅーにゅーによるこーわんまいぼつひがいがたはつした。	NO_LABEL
特に福岡県内では大規模な土砂崩れが多発した旧門司市内の門司港をはじめ、矢部川の洪水による大牟田港、福岡市内の河川の洪水による博多港の被害が深刻であった。	とくにふくおかけんないでわだいきぼなどしゃくずれがたはつしたきゅーもじしないのもじこーをはじめ、やべがわのこーずいによるおーむたこー、ふくおかしないのかせんのこーずいによるはかたこーのひがいがしんこくであった。	NO_LABEL
このほか佐賀県では唐津港や呼子港、長崎県では長崎港、佐世保港および五島列島の各港湾、大分県では大分港や臼杵港、山口県では下関港や宇部港、小野田港といった港湾が被害を受けている。	このほかさがけんでわからつこーやよぶここー、ながさきけんでわながさきこー、させぼこーおよびごとーれっとーのかくこーわん、おーいたけんでわおーいたこーやうすきこー、やまぐちけんでわしものせきこーやうべこー、おのだこーといったこーわんがひがいをうけている。	NO_LABEL
港湾被害額は福岡県が最大であり当時の額として約3億3800万円、佐賀県が約1億675万円、長崎県が約8411万円、大分県が約6447万円、山口県が約5976万円、熊本県が約2208万円などとなっている。	NO_PRONOUNCE	NO_LABEL
この水害では九州北部の主要な河川がことごとく氾濫した。	このすいがいでわきゅーしゅーほくぶのしゅよーなかせんがことごとくはんらんした。	NO_LABEL
特に上流部では大量の降雨によって記録的な豪雨となり、土石流などを含め多大な被害を被っている。	とくにじょーりゅーぶでわたいりょーのこーうによってきろくてきなごーうとなり、どせきりゅーなどをふくめただいなひがいをこーむっている。	NO_LABEL
山間部に建設される水力発電所についても大きな被害を受けた。	さんかんぶにけんせつされるすいりょくはつでんしょについてもおーきなひがいをうけた。	NO_LABEL
発電所を管理していたのは主に九州電力であるが、当時の九州電力は1951年にポツダム政令に基づく電気事業再編成令で日本発送電が9電力会社に分割・民営化され、日本発送電九州支店と九州配電を統合する形で発足したばかりであった。	NO_PRONOUNCE	NO_LABEL
このため経営基盤は脆弱であり、水害に伴う被害は発足したばかりの会社にとって大打撃となった。	このためけいえいきばんわぜいじゃくであり、すいがいにともなうひがいわほっそくしたばかりのかいしゃにとってだいだげきとなった。	NO_LABEL
水力発電施設の被害額は当時の額で約5億3820万円に上る。	すりりょくはつでんしせつのひがいがくわとーじのがくでやくごおくさんぜんはっぴゃくにじゅうまんえんにのぼる。	NO_LABEL
また、1937年から1938年に阪神タイガースの前身である大阪タイガースで外野手として活躍し、当時は九州電力小倉支店変電課社員として勤務していた玉井栄が、この災害において感電死している。	また、せんきゅうひゃくさんじゅうななねからせんきゅうひゃくさんじゅうはちねにはんしんたいがーすのぜんしんであるおーさかたいがーすでがいやしゅとしてかつやくし、とーじわきゅーしゅーでんりょくこくらしてんへんでんかしゃいんとしてきんむしていたたまいさかえが、このさいがいにおいてかんでんししている。	NO_LABEL
最も被害が大きかったのは、一般への被害も顕著であった筑後川水系と白川水系である。	もっともひがいがおーきかったのわ、いっぱんえのひがいもけんちょであったちくごがわすいけいとしらかわすいけいである。	NO_LABEL
筑後川水系では中流部に建設中だった夜明ダムが濁流により両岸より決壊し、発電所施設や放流用ゲートも流失したことは先に述べた通りであるが、支流の玖珠川流域にある水力発電所群も大きな被害を受けている。	ちくごがわすいけいでわちゅーりゅーぶにけんせつちゅーだったよあけだむがだくりゅーによりりょーきしよりけっかいし、はつでんしょしせつやほーりゅーよーげーともりゅーしつしたことわさきにのべたとーりであるが、しりゅーのくすがわりゅーいきにあるすいりょくはつでんしょぐんもおーきなひがいをうけている。	NO_LABEL
最上流部にある町田第一発電所では取水元であるアースダムの地蔵原ダムが堤体より越流し、あわや決壊事故となる状態であったほか沈砂池が濁流に含まれる岩石により破壊された。	さいじょーりゅーぶにあるまちだだいいちはつでんしょでわしゅすいもとであるあーすだむのじぞーばらだむがていたいよりえつりゅーし、あわやけっかいじことなるじょーたいであったほかちんさちがだくりゅーにふくまれるがんせきによりはかいされた。	NO_LABEL
また当時筑後川水系最大の水力発電所であった女子畑発電所では取水堰が損傷したほか沈砂池や導水路が濁流により破壊・流失し、湯山発電所でも取水堰の一部が40mにわたって破損した。	NO_PRONOUNCE	NO_LABEL
これにより玖珠川流域の全水力発電所は6月26日から運転不能に陥り、復旧に日時を要した。	これによりくすがわりゅーいきのぜんすいりょくはつでんしょわろくがつにじゅうろくにちからうんてんふのーにおちいり、ふっきゅーににちじをよーした。	NO_LABEL
白川水系ではさらに発電所施設への損害が大きく、阿蘇山の火山灰を含む大量の土石流により黒川第一・第二・第三および白川第一発電所が甚大な被害を受けた。	NO_PRONOUNCE	NO_LABEL
黒川第一発電所では取水堰の余水吐きが完全に破壊され、発電所建屋内部にまで土石流が侵入し発電用水車などが被害を受けた。	くろかわだいいちはつでんしょでわしゅすいせきのよすいばききがかんぜんにはかいされ、はつでんしょたきのやないぶにまでどせきりゅーがしんにゅーしはつでんよーすいしゃなどがひがいをうけた。	NO_LABEL
黒川第二発電所では取水口が破壊。	くろかわだいにはつでんしょでわしゅすいぐちがはかい。	NO_LABEL
黒川第三発電所では取水堰が半壊し発電所建屋内部も損壊した。	くろかわだいさんはつでんしょでわしゅすいせきがはんかいしはつでんしょたきのやないぶもそんかいした。	NO_LABEL
白川第一発電所も取水堰の一部が損壊している。	しらかわだいいちはつでんしょもしゅすいせきのいちぶがそんかいしている。	NO_LABEL
このほか嘉瀬川水系では川上川第一・第二・第五発電所が沈砂池のごみ流入防止用スクリーンに大量の流木や土砂が閉塞して6月26日以降運転不能となったほか、大分川・大野川水系でも発電所の損害で6月26日以降発電ができない状態に陥った。	NO_PRONOUNCE	NO_LABEL
菊池川水系でも本流にある菊池川第一から第五までの発電所が、やはり取水口や放水口の土砂閉塞による被害を受けている。	きくちがわすいけいでもほんりゅーにあるきくちがわだいいちからだいごまでのはつでんしょが、やはりしゅすいぐちやほーすいぐちのどしゃへいそくによるひがいをうけている。	NO_LABEL
1947年のカスリーン台風や1948年のアイオン台風に匹敵する被害をもたらしたこの水害に対する政府の動きであるが、被災地は電話線が寸断され電話による通話が困難であり、災害状況は無線または電報を通じ建設省九州地方建設局から建設省近畿地方建設局を経由して建設省本省へと現地の情報が送られた。	せんきゅうひゃくよんじゅうななねのかすりーんたいふーやせんきゅうひゃくよんじゅうはちねのあいおんたいふーにひってきするひがいをもたらしたこのすいがいにたいするせいふのうごきであるが、ひさいちわでんわせんがすんだんされでんわによるつーわがこんなんであり、さいがいじょーきょーわむせんまたわでんぽーをつーじけんせつしょーきゅーしゅーちほーけんせつきょくからけんせつしょーきんきちほーけんせつきょくをけいゆしてけんせつしょーほんしょーえとげんちのじょーほーがおくられた。	NO_LABEL
建設省から現地の被害が重大なものであると報告を得た当時の第5次吉田内閣は直ちに大野伴睦国務大臣を本部長とする「西日本水害総合対策本部」を福岡市の福岡県庁に設置、緒方竹虎副総理、戸塚九一郎建設大臣、山県勝見厚生大臣、保利茂農林大臣などの閣僚を現地に派遣したほか、発足したばかりの保安隊に災害派遣を命令、駐留アメリカ軍にも救援を依頼して救助活動や救援活動を行った。	NO_PRONOUNCE	NO_LABEL
この水害の後、政府は福岡・佐賀・熊本の被災者2,000名を対象に7月30日から8月7日までの間、「西日本水害に関する世論調査」を行った。	NO_PRONOUNCE	NO_LABEL
水害における被災者の行動や被害実態、救助活動や支援活動に関する被災者の実態を調査する内容であったが、被災直後における被災者の実態や考えを垣間見ることができる。	すいがいにおけるひさいしゃのこーどーやひがいじったい、きゅーじょかつどーやしえんかつどーにかんするひさいしゃのじったいをちょーさするないよーであったが、ひさいちょくごにおけるひさいしゃのじったいやかんがえをかいまみることができる。	NO_LABEL
まず水害を何で知ったかという質問であるが、回答者の55.4パーセントが「突然やってきた」と答えており、この水害が予測の付かなかったものであると認識していた。	NO_PRONOUNCE	NO_LABEL
「自らの経験で予測できた」と答えた被災者が19.7%と次に多く、ラジオなどで知ったと答えたのは19.1%と少なかった。	NO_PRONOUNCE	NO_LABEL
一方その後の水害情報の入手元についてはラジオが55.7%と最も多く、新聞が38.1%と続いており、予報よりもその後の被災情報にラジオ・新聞といった報道を活用していた。	NO_PRONOUNCE	NO_LABEL
因みにデマが飛ぶということはほとんどなかったようである。	ちなみにでまがとぶとゆうことわほとんどなかったよーである。	NO_LABEL
被災後の食糧・物資に関してであるが、食糧調達については「自分で凌いだ」・「他人の援助を受けた」という答えが最も多く、拮抗していた。	NO_PRONOUNCE	NO_LABEL
被災者は何らかの方法で食糧を確保していたようだが、「食事がなかった」と答える被災者が18%いた一方で「困らなかった」と答える被災者も18.5%おり、被災地によって状況が分かれている。	NO_PRONOUNCE	NO_LABEL
しかし飲料水については食糧に比べ困窮する割合が高く、全体の44%が雨水や他人から水をもらうことで何とか凌いでいた。	しかしいんりょーすいについてわしょくりょーにくらべこんきゅーするわりあいがたかく、ぜんたいのよんじゅうよんぱーせんとがあまみずやたにんからみずをもらうことでなんとかしのいでいた。	NO_LABEL
災害後の物価に関しての質問では野菜類や米、麦の価格が高くなっていると答えた被災者が多く、道路・鉄道といった陸路が洪水による寸断によって発生した交通麻痺や水害による農地流失が影響していることが考えられる。	NO_PRONOUNCE	NO_LABEL
政府の救援対策については「十分」24.9%、「不十分」21.7%、「よくわからない」45.8%と被災者の意識は様々であった。	NO_PRONOUNCE	NO_LABEL
被災者間で最も評価されたのは食糧の無料配給で39.2%が評価している。	ひさいしゃかんでもっともひょーかされたのわしょくりょーのむりょーはいきゅーでさんじゅうきゅうてんにぱーせんとがひょーかしている。	NO_LABEL
食糧配給については1日目 - 2日目に行われたと回答した被災者が50.3%に上り、被災直後より比較的速やかな食糧配給が行われたことも評価につながっている。	NO_PRONOUNCE	NO_LABEL
また救援物資について37.9%の被災者が毛布・寝具、衣料が最も役立ったと答えた。	NO_PRONOUNCE	NO_LABEL
保安隊による災害派遣については65.1%の被災者が「有難かった」・「役立った」と答えており、肯定的な意見が多かった。	NO_PRONOUNCE	NO_LABEL
そして今後政府に求める被災対策としては被災した商工業者に対する融資などの金融支援や税金の減免措置を求める声が多く、生活再建に対する被災者の不安がにじみ出ている。	そしてこんごせいふにもとめるひさいたいさくとしてわひさいしたしょーこーぎょーしゃにたいするゆーしなどのきんゆーしえんやぜいきんのげんめんそちをもとめるこえがおーく、せいかつさいけんにたいするひさいしゃのふあんがにじみでている。	NO_LABEL
なお、この水害は防ぐことができたかという質問に対し、被災者の38.4%が「天災だから防ぎようがない」と答えており、「護岸整備や治水で防ぐことができた」と答えた26.1%を上回っている。	NO_PRONOUNCE	NO_LABEL
この水害は過去営々と積み上げてきた治水事業を根本から覆す災害であった。	このすいがいわかこえいえいとつみあげてきたちすいじぎょーをこんぽんからくつがえすさいがいであった。	NO_LABEL
1953年は水害の当たり年であり、7月には紀州大水害、8月には「集中豪雨」という言葉が初めて使用された南山城豪雨、そして9月には淀川や由良川に過去最悪の洪水をもたらした台風13号が襲い死者・行方不明者478名と毎月のように日本各地で大水害が発生した。	NO_PRONOUNCE	NO_LABEL
このため1953年の水害総被害額は昭和28年度の一般会計予算1兆172億円 に比してほぼ半額に当たる約5941億円となり、2004年時点物価に換算した実質水害被害額に直すとおよそ3兆2401億円に達し水害被害額としては戦前戦後を通じて昭和時代最悪となった。	NO_PRONOUNCE	NO_LABEL
また実質水害被害額を実質国民所得で割った被害率で見ても10.17%と1948年に次ぐ高い数値になった 。	NO_PRONOUNCE	NO_LABEL
戦後の日本は台風や豪雨による甚大な人的被害を伴う水害が毎年頻発していたが、その原因は森林の乱伐と治水対策の不備であった。	せんごのにっぽんわたいふーやごーうによるじんだいなじんてきひがいをともなうすいがいがまいとしひんぱつしていたが、そのげんいんわしんりんのらんばつとちすいたいさくのふびであった。	NO_LABEL
内閣経済安定本部は水害の続発による被害額の増大が日本経済の復興に影響を及ぼすことに懸念を抱いていた。	ないかくけいざいあんていほんぶわすいがいのぞくはつによるひがいがくのぞーだいがにほんけいざいのふっこーにえいきょーをおよぼすことにけねんをだいていた。	NO_LABEL
そこでテネシー川流域開発公社方式で治水を行い、併せて農地灌漑や水力発電を組み合わせることで河川開発を行い、日本経済の復興に資するとした河川総合開発事業を日本各地の河川で企画していた。	NO_PRONOUNCE	NO_LABEL
一方河川行政を司る建設省は北上川、江合川・鳴瀬川、利根川、木曽川、淀川、吉野川と筑後川の主要8河川でダムを中心とした治水計画である「河川改訂改修計画」を1949年に立案しており、同年に「筑後川改訂改修計画」が立案されていたが今回の水害を機に再検討が行われた。	NO_PRONOUNCE	NO_LABEL
そして河川総合開発事業と組み合わせて治水と利水を同時に行える多目的ダムを建設する方針に切り替え、併せて大規模な河川改修を行うこととした。	そしてかせんそーごーかいはつじぎょーとくみあわせてちすいとりすいをどーじにおこなえるたもくてきだむをけんせつするほーしんにきりかえ、あわせてだいきぼなかせんかいしゅーをおこなうこととした。	NO_LABEL
また福岡・大分両県も多目的ダムの建設に乗り出した。	NO_PRONOUNCE	NO_LABEL
筑後川水系では1949年の筑後川改訂改修計画において筑後川支流の玖珠川と津江川に治水ダムを建設する計画を立てていたが、水害を受けて1957年に「筑後川水系治水基本計画」を発表。	NO_PRONOUNCE	NO_LABEL
上流部では筑後川本流、玖珠川、津江川、城原川に多目的ダムを建設し洪水調節を行うほか中流部には堰と放水路、下流では大規模な堤防決壊を起こした久留米市東櫛原の大規模堤防建設、そして流域全体の堤防修繕や支流への洪水逆流を防ぐための水門建設などを柱とした大規模治水事業を計画した。	じょーりゅーぶでわちくごがわほんりゅー、くすがわ、つえがわ、じょーばるがわにたもくてきだむをけんせつしこーずいちょーせつをおこなうほかちゅーりゅーぶにわせきとほーすいろ、かりゅーでわだいきぼなていぼーけっかいをおこしたくるめしひがしくしはらのだいきぼていぼーけんせつ、そしてりゅーいきぜんたいのていぼーしゅーぜんやしりゅーえのこーずいぎゃくりゅーをふせぐためのすいもんけんせつなどをはしらとしただいきぼちすいじぎょーをけいかくした。	NO_LABEL
この結果建設されたのが松原ダムと下筌ダム、島内可動堰、大石・原鶴・千年分水路そして久留米市東櫛原大規模引堤事業である。	NO_PRONOUNCE	NO_LABEL
福岡県も支流の改修を進め、広川防災ダム、山神ダムや藤波ダムを完成させた。	ふくおかけんもしりゅーのかいしゅーをすすめ、ひろかわぼーさいだむ、さんじんだむやふじなみだむをかんせいさせた。	NO_LABEL
さらに水資源需要の増大もあり総合開発計画として筑後大堰や寺内ダム、大山ダムが建設され、小石原川ダムが施工中である。	さらにみずしげんじゅよーのぞーだいもありそーごーかいはつけいかくとしてちくごおおぜきやてらうちだむ、おーやまだむがけんせつされ、こいしわらがわだむがしこーちゅーである。	NO_LABEL
矢部川水系では本流に日向神ダムが福岡県最大級の多目的ダムとして建設され、遠賀川水系では北九州特定地域総合開発計画の一環として力丸ダムが建設されたのを皮切りに陣屋ダムや犬鳴ダムそして遠賀川河口堰が建設されたほか遠賀川本流の堤防整備が強化された。	やべがわすいけいでわほんりゅーにひゅうがみだむがふくおかけんさいだいきゅーのたもくてきだむとしてけんせつされ、おんががわすいけいでわきたきゅーしゅーとくていちいきそーごーかいはつけいかくのいっかんとしてりきまるだむがけんせつされたのをかわきりにじんやだむやいぬなきだむそしておんががわかこーぜきがけんせつされたほかおんががわほんりゅーのていぼーせいびがきょーかされた。	NO_LABEL
大分川水系では支流の芹川に芹川ダムが建設され、七瀬川に大分川ダムが施工中。	おーいたがわすいけいでわしりゅーのせりかわにせりかわだむがけんせつされ、ななせがわにおーいたがわだむがしこーちゅー。	NO_LABEL
菊池川水系では支流の迫間川に竜門ダムが建設された。	きくちがわすいけいでわしりゅーのはさまがわにりゅーもんだむがけんせつされた。	NO_LABEL
熊本市に致命的な被害をもたらした白川では熊本市内を中心とした河川改修を進める傍ら、白川・黒川合流点直下流の白川本流に洪水調節専用の穴あきダムである立野ダム を施工して阿蘇外輪山より来る洪水を貯水するほか、支流黒川に内牧遊水池など8か所の遊水池群の整備を進め2か所が完成している。	NO_PRONOUNCE	NO_LABEL
松浦川水系では最大の被害をもたらした厳木川に厳木ダムが、嘉瀬川では佐賀県最大規模の嘉瀬川ダムが本流にそれぞれ完成している。	まつーらがわすいけいでわさいだいのひがいをもたらしたきゅーらぎがわにきゅーらぎだむが、かせがわでわさがけんさいだいきぼのかせがわだむがほんりゅーにそれぞれかんせいしている。	NO_LABEL
このほか中小河川の改修やダム建設が那珂川水系や多々良川水系、御笠川水系、今川水系などで進められている。	このほかちゅーしょーかせんのかいしゅーやだむけんせつがなかがわすいけいやたたらがわすいけい、みかさがわすいけい、いまがわすいけいなどですすめられている。	NO_LABEL
下の画像は水害を機に建設されたダムの一部である。	したのがぞーわすいがいをきにけんせつされただむのいちぶである。	NO_LABEL
こうした治水事業の整備により、これらの河川では複数県をまたぐ広範囲の浸水被害や、堤防決壊による多数の家屋・橋梁・鉄道流失を伴うような大規模水害は60年近く発生しなかった。	NO_PRONOUNCE	NO_LABEL
河川事業の整備は洪水の危険性を減らしたが、反面ダム事業では松原・下筌ダム建設に端を発する12年にわたる反対運動・蜂の巣城紛争に見られる治水対策の遂行による住民の新たな犠牲というものも生じたほか、公共事業に対する風当たりの強さにより玖珠川の猪牟田ダム、大野川本流の大野川ダムと支流平井川の矢田ダム が中止され、七瀬川の大分川ダムと小石原川の小石原川ダム、城原川の城原川ダム、そして白川の立野ダムは民主党政権の前原誠司国土交通大臣が進めたダム事業継続の再検証により事業が凍結、大分川・小石原川・立野の3ダムはその後事業が再開されたものの城原川ダムは凍結状態が続いている。	NO_PRONOUNCE	NO_LABEL
治水事業が停滞する中、2009年にはこの災害の降水量に匹敵する集中豪雨、平成21年7月中国・九州北部豪雨が発生した。	ちすいじぎょーがていたいするなか、にせんきゅうねんにわこのさいがいのこーすいりょーにひってきするしゅーちゅーごうー、へいせいにじゅういちねんしちがつちゅーごくきゅーしゅーほくぶごうーがはっせいした。	NO_LABEL
昭和28年西日本水害のような大河川での大規模な堤防決壊などは起きなかったが、ダムではカバーし辛い都市・中小河川での水害や土石流やがけ崩れにより多数の死者を出す惨事をもたらした。	NO_PRONOUNCE	NO_LABEL
さらに2012年7月には平成24年7月九州北部豪雨が発生。	さらににせんじゅうにねんしちがつにわへいせいにじゅうよねんしちがつきゅーしゅーほくぶごうーがはっせい。	NO_LABEL
阿蘇市で本水害に匹敵する降水量を記録したほか本水害とほぼ同じ地域で集中豪雨が発生し筑後川流域が広範囲に浸水したのを始め矢部川では堤防が決壊、白川では熊本市内が浸水し山国川では過去最悪の洪水量を記録するなど多くの死者を伴う大きな被害が発生。	あそしでほんすいがいにひってきするこーすいりょーをきろくしたほかほんすいがいとほぼおなじちいきでしゅーちゅーごうーがはっせいしちくごがわりゅーいきがこーはんいにしんすいしたのをはじめやべがわでわていぼーがけっかい、しらかわでわくまもとしないがしんすいしやまぐにがわでわかこさいあくのこーずいりょうをきろくするなどおーくのししゃをともなうおーきなひがいがはっせい。	NO_LABEL
本水害以来となる複数県に跨る広範囲かつ堤防決壊を伴う河川の氾濫を招いた。	ほんすいがいいらいとなるふくすーけんにまたがるこーはんいかつていぼーけっかいをともなうかせんのはんらんをまねいた。	NO_LABEL
九州北部の大河川における治水事業は本水害以降最大の課題を突きつけられている。	きゅーしゅーほくぶのおおこうがわにおけるちすいじぎょーわほんすいがいいこーさいだいのかだいをつきつけられている。	NO_LABEL
