『avantage』は、2005年にリリースされた来生たかおの22枚目のオリジナルアルバムである。	NO_PRONOUNCE	NO_LABEL
コンサートの映像や来生自身の監修によるプライベートショットを収めたDVDとの2枚組で、バックバンド“スタートル”のメンバーがメインとなって編曲・演奏を手掛けている。	NO_PRONOUNCE	NO_LABEL
また、編曲者の“矢倉銀”は、来生のペンネームである。	NO_PRONOUNCE	NO_LABEL
来生は、前アルバム収録の「サラリーマン」のような、10代の頃に作った楽曲を再び紹介しようと考えていたが、来生えつこの、詞があまりにも恥ずかしいとの意見で見送られた。	NO_PRONOUNCE	NO_LABEL
また、後の弁によれば、CDが売れない時勢を考慮すれば本作を最後にもうアルバムは作れないかも知れないと思っていたという。	また、ごのべんによれば、きゃっしゅでぃすぺんさーがうれないじせいをこーりょすればもとさくをさいごにもーあるばむわつくれないかもしれないとおもっていたという。	NO_LABEL
DVDのコンサートの映像は、2曲目、8曲目、10曲目は『クリスマスコンサート2004 égalité』、4曲目、5曲目、7曲目は『ソロライブ Stand Alone 2005』の模様を収録している。	NO_PRONOUNCE	NO_LABEL
前作『égalité』同様、デザインワークには来生自身の意向が多分に反映されており、タイトルの“アヴァンタージュ”は、英語の“アドヴァンテージ”に相当し、『égalité』から一歩進んだ心境を表現している。	NO_PRONOUNCE	NO_LABEL
青空をバックに色取り取りの洗濯物が干されているジャケット写真は、千葉の館山にある来生えつこの別宅で撮影された。	あおぞらをばっくにいろとりとりのせんたくぶつがほされているじゃけっとしゃしんわ、ちばのたてやまにあるきすぎえつこのべったくでさつえいされた。	NO_LABEL
これは、傾倒する小津安二郎の映画に同様のショットが多く使われていることからの発案である。	これわ、けいとーするおずやすじろーのえいがにどーよーのしょっとがおーくつかわれていることからのはつあんである。	NO_LABEL
また、プライベートショットを収録した48ページのブックレットは、東京都新宿区のゴールデン街で撮影した写真を表紙に使用しており、これもまた小津作品に登場するネオン街をイメージしたものである。	NO_PRONOUNCE	NO_LABEL
店舗の看板には“Bar 浅い夢 avantage” “SNACK たかお” “遊歩道” “Etsuko”等、過去のアルバムや姉弟の名が嵌め込まれている。	NO_PRONOUNCE	NO_LABEL
なお、付属の厚紙製ケースは『ホワイト・アルバム』をイメージした真っ白なものになっている。	NO_PRONOUNCE	NO_LABEL
※初出のジャケット表記“avantage”以外のもの	NO_PRONOUNCE	NO_LABEL
“アヴァンタージュ”“avantage”の併用	NO_PRONOUNCE	NO_LABEL
“アヴァンタージュ”	NO_PRONOUNCE	NO_LABEL
なお、各種ディスコグラフィーによっても表記は片仮名やアルファベットになっている。	なお、かくしゅでぃすこぐらふぃーによってもひょーきわかたかなやあるふぁべっとになっている。	NO_LABEL
マルチケースに2つ折りのカードを挿入	まるちけーすにふたつおりのかーどをそーにゅー	NO_LABEL
デビュー30周年記念アルバム。	でびゅーさんじゅうしゅーねんきねんあるばむ。	NO_LABEL
新曲9曲に加え、衝撃の話題作2曲を収録。	しんきょくきゅうきょくにくわえ、しょーげきのわだいさくにきょくをしゅーろく。	NO_LABEL
 最新のライブ映像6曲とプライベートショットも楽しめるファン必携のDVD付	さいしんのらいぶえいぞーろくきょくとぷらいべーとしょっともたのしめるふぁんひっけいのでぃーぶいでぃーずけ	NO_LABEL
-Keyboards：小田木隆明、山崎教昌、松田真人、矢倉銀	NO_PRONOUNCE	NO_LABEL
-Piano & Rhodes：松田真人	NO_PRONOUNCE	NO_LABEL
-Piano “NICHE”Solo & Keyboards：山崎教昌	NO_PRONOUNCE	NO_LABEL
-Guitar：土屋潔、小田木隆明、武沢侑昴	NO_PRONOUNCE	NO_LABEL
-Electric Bass：千葉一樹	NO_PRONOUNCE	NO_LABEL
-Drums：佐藤武美	NO_PRONOUNCE	NO_LABEL
-Drum Architect：小田木隆明	NO_PRONOUNCE	NO_LABEL
-Chorus：小田木隆明	NO_PRONOUNCE	NO_LABEL
-“Splash” on Interlude：板村文	NO_PRONOUNCE	NO_LABEL
-Pad：板村文	NO_PRONOUNCE	NO_LABEL
-All Instruments：Takao All Stars	NO_PRONOUNCE	NO_LABEL
-Sound Architect：小田木隆明、板村文	NO_PRONOUNCE	NO_LABEL
