御所市立葛上中学校は、奈良県御所市佐田にある公立中学校。	ごせしりつかつじょーちゅうがっこーわ、ならけんごせしさだにあるこーりつちゅーがっこー。	NO_LABEL
国定公園に指定された金剛山、葛城山を背に、近年、散策する人が多くなった葛城古道の近くに位置する。	こくていこーえんにしていされたこんごーさん、かつらぎやまをせに、きんねん、さんさくするひとがおーくなったかつらぎこどーのちかくにいちする。	NO_LABEL
平成27年4月1日現在、全校生徒88名の学校である。	NO_PRONOUNCE	NO_LABEL
