『キャットウーマン』は、2004年に公開されたハル・ベリー主演の映画である。	NO_PRONOUNCE	NO_LABEL
DCコミックスから出版されている『バットマン』のキャラクターのひとりキャットウーマンを主人公としているが、本作は映画『バットマン』シリーズとの接点は無い。	NO_PRONOUNCE	NO_LABEL
2004年、ピトフ監督により実写映画化された作品。	にせんよねん、ぴとふかんとくによりじっしゃえいがかされたさくひん。	NO_LABEL
ハル・ベリーがキャットウーマンを演じたが振るわず、作品賞・監督賞・脚本賞・主演女優賞の4部門でラジー賞を受賞した。	NO_PRONOUNCE	NO_LABEL
ベリーはこの授賞式に出席し、「他人の助力なしにアカデミー賞は取れないわ」「最高のスタッフに囲まれたおかげよ」と泣きはらし、アカデミー賞を受賞した時のスピーチを全く同じく再現してみせた 。	NO_PRONOUNCE	NO_LABEL
ベリーの懐の大きさに、観客は拍手喝采を送った。	べりーのふところのおーきさに、かんきゃくわはくしゅかっさいをおくった。	NO_LABEL
ペイシェンス・フィリップスはシャイで感じやすい芸術家タイプのグラフィックデザイナー。	NO_PRONOUNCE	NO_LABEL
ある日、ペイシェンスが働いている巨大な化粧品会社「ヘデア・ビューティー社」が革命的な老化防止商品の発表を控えていた際、彼女はその商品に関する驚くべき秘密を知ってしまい、暗殺される。	NO_PRONOUNCE	NO_LABEL
しかし彼女はエジプトの猫神「マオ・キャット」の力によって蘇り、猫の強さやスピード、俊敏さ、そして超人的な鋭い感覚を持って生まれ変わった。	NO_PRONOUNCE	NO_LABEL
