山口昇は、日本の福音派牧師、神学校教師。	やまぐちのぼるわ、にほんのふくいんはぼくし、しんがっこーきょーし。	NO_LABEL
横浜山手教会の初代牧師。	よこはまやまてきょーかいのしょだいぼくし。	NO_LABEL
玉川神の教会功労主任牧師、アレセイヤ聖書研究所所長。	たまがわしんのきょーかいこーろーしゅにんぼくし、あれせいやせいしょけんきゅーじょしょちょー。	NO_LABEL
共立女子聖書学院院長、日本神の教会連盟連盟委員長、玉川聖学院非常勤講師、戸板女子短期大学非常勤講師、京都クリスチャンフェローシップ・センター顧問牧師などを歴任。	NO_PRONOUNCE	NO_LABEL
青山学院大学在学中にキリストを救い主と信じて、召命を受け、献身を決意する。	NO_PRONOUNCE	NO_LABEL
同校卒業後、東京神学塾、米国フラー神学校で学ぶ。	どーこーそつぎょーご、とーきょーしんがくじゅく、べいこくふらーしんがっこーでまなぶ。	NO_LABEL
