人間便器は人間を便器として用いることを指す概念、あるいはその行為を行う人間のこと。	にんげんべんきわにんげんをべんきとしてもちいることをさすがいねん、あるいわそのこーいをおこなうにんげんのこと。	NO_LABEL
英語ではhuman toiletという。	NO_PRONOUNCE	NO_LABEL
官能小説やSMプレイに登場するかなりハードなSM行為である。	かんのーしょーせつやえすえむぷれいにとーじょーするかなりはーどなえすえむこーいである。	NO_LABEL
基本的にはスカトロジストによる自発的な場合が多いが、SMにおける調教の一環として強制的に行うこともある。	きほんてきにわすかとろじすとによるじはつてきなばあいがおーいが、えすえむにおけるちょーきょーのいっかんとしてきょーせいてきにおこなうこともある。	NO_LABEL
一般的には便器役の人間は床に寝そべり、口を開ける。	いっぱんてきにわべんきやくのにんげんわゆかにねそべり、くちをあける。	NO_LABEL
その口を便器に見た立て排泄することが多い。	そのくちをべんきにみただてはいせつすることがおーい。	NO_LABEL
顔面騎乗の体勢からそのまま排泄することも多い。	がんめんきじょーのたいせいからそのままはいせつすることもおーい。	NO_LABEL
強制的に行う場合は開口具を用いて口を開く、あるいは身体に排泄物をかけて屈辱を与える。	きょーせいてきにおこなうばあいわかいこーぐをもちいてくちをひらく、あるいわしんたいにはいせつぶつをかけてくつじょくをあたえる。	NO_LABEL
漫画や小説では顔に透明の容器をかぶせられ、そこに尿をされることで呼吸が出来なくなり仕方なしに尿を飲み干す、という責めもある。	まんがやしょーせつでわかおにとーめいのよーきをかぶせられ、そこににょーをされることでこきゅーができなくなりしかたなしににょーをのみほす、とゆうせめもある。	NO_LABEL
また、対象となる相手を数日間監禁し、その間、排泄物を与え続けるというプレイもある。	また、たいしょーとなるあいてをすーにちかんかんきんし、そのかん、はいせつぶつをあたえつずけるとゆうぷれいもある。	NO_LABEL
これは健康面でも非常に危険な行為である。	これわけんこーめんでもひじょーにきけんなこーいである。	NO_LABEL
かつて人間便器は、食糞・飲尿行為を行う人間のことだけを意味していた。	NO_PRONOUNCE	NO_LABEL
ところが、肉便器が、排泄行為とは関係なく、不特定多数との性交渉を行う女性を揶揄する言葉として使われるようになってからは、意味が少し曖昧になっている。	ところが、にくべんきが、はいせつこーいとわかんけいなく、ふとくていたすーとのせいこうしょーをおこなうじょせいをやゆすることばとしてつかわれるよーになってからわ、いみがすこしあいまいになっている。	NO_LABEL
「便器」が共通しているため、人間便器が肉便器の意味で使われることもあるからである。	NO_PRONOUNCE	NO_LABEL
飲尿に関しては、健康な人間であれば尿は無菌なので即座に健康に影響することは少ない。	いんにょーにかんしてわ、けんこーなにんげんであればにょーわむきんなのでそくざにけんこーにえいきょーすることわすくない。	NO_LABEL
しかし、大便は腸内細菌を含み、病原性大腸菌などの影響が懸念される。	しかし、だいべんわちょーないさいきんをふくみ、びょーげんせいだいちょーきんなどのえいきょーがけねんされる。	NO_LABEL
