耳川の戦いは、天正6年、九州制覇を狙う豊後国の大友宗麟と薩摩国の島津義久が、日向高城川原を主戦場として激突した合戦。	みみかわのたたかいわ、てんしょーろくねん、きゅーしゅーせいはをねらうぶんごのくにのおーともそーりんとさつまのくにのしまずよしひさが、ひなただかじょーがわらをしゅせんじょーとしてげきとつしたかっせん。	NO_LABEL
「高城川の戦い」、「高城川原の戦い」ともいう。	NO_PRONOUNCE	NO_LABEL
薩隅日の支配者である島津氏と豊筑肥の支配者である大友氏の関係は長い間良好であった。	さつすみびのしはいしゃであるしまつしとゆたかつくこえのしはいしゃであるおーともうじのかんけいわながいあいだりょーこーであった。	NO_LABEL
島津氏と日向の伊東氏との対立においても永正年間以来、大友氏が度々島津氏に有利な条件での仲介に乗り出しており、お互いの勢力圏には干渉しあわない事実上の同盟関係にあった。	しまずしとひなたのいとーしとのたいりつにおいてもながまさねんかんいらい、おーともうじがたびたびしまずしにゆーりなじょーけんでのちゅーかいにのりだしており、おたがいのせいりょくけんにわかんしょーしあわないじじつじょーのどーめいかんけいにあった。	NO_LABEL
国内情勢が不安定な状態が続いた島津氏にとっては自国の安全を保つ上で大友氏との関係は重要であり、明などとの対外交易に関心を有していた大友氏にとっても海上での船舶の安全を図る上で島津氏との関係が重要であったからである。	こくないじょーせいがふあんていなじょーたいがつずいたしまずしにとってわじこくのあんぜんをたもつうえでおーともしとのかんけいわじゅーよーであり、めいなどとのたいがいこーえきにかんしんをゆーしていたおーともうじにとってもかいじょーでのせんぱくのあんぜんをはかるうえでしまつしとのかんけいがじゅーよーであったからである。	NO_LABEL
実際、島津領内に漂着した大友氏の船の扱いを巡って天正元年8月25日付で大友氏の加判衆から島津氏の老中に充てた連署状には両家の関係を「貴家当方代々披得御意候」と表現し、反対に9月に島津側の川上・村田・伊集院忠金から大友氏側に充てられた返書にも両家が「御堅盟」の関係である事が記されており、両家の関係が同盟関係であったことを示している。	NO_PRONOUNCE	NO_LABEL
また、永禄3年に室町幕府将軍・足利義輝が島津氏と伊東氏の対立の仲裁にあたった時も、島津貴久は義輝の使者である伊勢貞孝に対して大友氏を加えた和平であれば受け入れると回答したと、島津氏の家臣の樺山善久が書き残している。	NO_PRONOUNCE	NO_LABEL
この同盟関係の結果、島津氏は薩摩・大隅・日向の統一事業に専念することができ、大友氏も北九州での戦いの最中に島津氏や伊東氏に背後を突かれる不安を解消できたと考えられる。	NO_PRONOUNCE	NO_LABEL
ところが、天正5年、日向の伊東義祐が島津氏に敗北。	ところが、てんしょーごねん、ひなたのいとーよしすけがしまずしにはいぼく。	NO_LABEL
日向を追われ、大友氏に身を寄せた。	ひなたをおわれ、おーともうじにみをよせた。	NO_LABEL
大友宗麟は伊東家主従に300町を与えて庇護した。	NO_PRONOUNCE	NO_LABEL
また伊東家の旧臣であり島津家に降伏した門川城主の米良四郎右衛門、潮見城主の右松四郎左衛門、山陰城主の米良喜内が大友家の重臣佐伯紀伊入道宗天に日向侵攻時の先導役を申し出た。	またいとーけのきゅーしんでありしまずけにこーふくしたかどがわじょーしゅのめらしろーうえもん、しおみじょーしゅのみぎまつしろーさえもん、さんいんじょーしゅのめらきないがおーともかのじゅーしんさいききいにゅーどーそーたかしにひなたしんこーじのせんどーやくをもーしでた。	NO_LABEL
こうした状況の中、天正6年に入ると、大友宗麟・義統は島津氏の北上に対抗して伊東氏を日向に復帰させるために3万とも4万ともいわれる大軍を率いて日向への遠征を決定する。	NO_PRONOUNCE	NO_LABEL
大友軍は肥後口と豊後口の二手に分かれ、志賀道輝、朽網鑑康、一万田鑑実らが肥後口を、大友宗麟親子は豊後口を担当した。	だいゆーぐんわひごぐちとぶんごぐちのにてにわかれ、しがみちてる、くたみあきやす、いちまんだあきらみらがこえあとくちを、おーともそーりんおやこわぶんごぐちをたんとーした。	NO_LABEL
天正6年2月21日大友軍の先鋒は日向国門川城に入った。	てんしょーろくねんにがつにじゅういちにちだいゆーぐんのせんぽーわひゅうがのくにもんがわじょーにはいった。	NO_LABEL
豊後に亡命していた伊東家の家臣団も先鋒に加わり日向の国衆へ調略を行った。	ぶんごにぼーめいしていたいとーけのかしんだんもせんぽーにくわわりひなたのくにしゅーえちょーりゃくをおこなった。	NO_LABEL
伊東家旧臣長倉佑政は耳川を越えて島津家の勢力圏に侵入、石ノ城で兵を挙げた。	いとーけきゅーしんながくらたすくせいわみみがわをこえてしまずけのせいりょくけんにしんにゅー、いしのしろでへいをあげた。	NO_LABEL
それに呼応して内応を約束していた米良四郎右衛門、右松四郎左衛門、米良喜内が挙兵し島津方の縣城主土持親成を攻めた。	それにこおーしてないおーをやくそくしていためらしろーうえもん、みぎまつよんろーさえもん、めらきないがきょへいししまずかたのあがたじょーしゅつちもちちかしげをせめた。	NO_LABEL
3月18日には佐伯入道、田原親賢、田北鎮周らが土持親成攻撃に参加し、大友軍による日向侵攻が本格化した。	さんがつじゅうはちにちにわさえきにゅーどー、たわらたはらちかかた、たきたしげかねらがつちもちちかしげこーげきにさんかし、だいゆーぐんによるひなたしんこーがほんかくかした。	NO_LABEL
土持親成は松尾城に籠城したが、4月15日に陥落し行縢への撤退中に捕らえられ斬殺された。	つちもちちかしげわまつおじょーにかごじょーしたが、しがつじゅうごにちにかんらくしむかばきえのてったいちゅーにとらえられざんさつされた。	NO_LABEL
大友軍は耳川以北の日向制圧に成功し、島津家の勢力は耳川以南に後退した。	だいゆーぐんわみみがわいほくのひなたせいあつにせいこーし、しまずけのせいりょくわみみがわいなんにこーたいした。	NO_LABEL
一方島津義久は6月に島津忠長ら7000の軍を日向へと派遣、長倉佑政ら伊東家の残党が籠る石ノ城攻めを命じた。	NO_PRONOUNCE	NO_LABEL
島津軍は7月8日に総攻撃を開始したが500人以上の死傷者をだして撃退され、日向佐土原へと撤退した。	しまつぐんわしちがつようかにそーこーげきをかいししたがごひゃくにんいじょーのししょーしゃをだしてげきたいされ、ひなたさどわらえとてったいした。	NO_LABEL
大友義統は石ノ城籠城軍に手紙を送り、勝利をねぎらっている。	おーともよしむねわいしのしろかごじょーぐんにてがみをおくり、しょーりをねぎらっている。	NO_LABEL
大友軍は土持領への侵攻時、領内の寺社仏閣を徹底的に破壊している。	だいゆーぐんわつちもちりょーえのしんこーじ、りょーないのじしゃぶっかくをてっていてきにはかいしている。	NO_LABEL
その背景には熱狂的なキリシタンだった宗麟の意向が影響している。	そのはいけいにわねっきょーてきなきりしたんだったそーりんのいこーがえいきょーしている。	NO_LABEL
一説によると宗麟は日向でキリシタン王国の建設をめざしたという。	いっせつによるとそーりんわひなたできりしたんおーこくのけんせつをめざしたという。	NO_LABEL
宗麟の狂信的なキリスト教への傾倒は家臣団との間に不協和を生じさせた。	そーりんのきょーしんてきなきりすときょーえのけいとーわかしんだんとのまにふきょーわをしょーじさせた。	NO_LABEL
宗麟は8月に宣教師とともに日向国に入り、無鹿に本営を置いた。	そーりんわはちがつにせんきょーしとともにひゅうがのくににはいり、むしかにほんえいをおいた。	NO_LABEL
島津義久は大友家との決戦に専念するため伊東家残党の掃討を開始した。	しまずよしひさわおーともかとのけっせんにせんねんするためいとーけざんとーのそーとーをかいしした。	NO_LABEL
島津征久らの諸将が8月に伊東家残党の籠る日向国上野城と隈城を攻撃、9月に両城を攻略している。	しまつただしひさらのしょしょーがはちがつにいとーけざんとーのこもるひゅうがのくにこうのしろとくまじょーをこーげき、くがつにもろきをこーりゃくしている。	NO_LABEL
上野城攻略から4日後、将軍足利義昭の使者が島津家の下を訪れた。	こうのしろこーりゃくからよっかご、しょーぐんあしかがよしあきのししゃがしまずけのしたをおとずれた。	NO_LABEL
大友氏は北九州を巡って毛利氏と攻防を続けていたが、その毛利氏には織田信長によって京都から追放されていた室町幕府将軍・足利義昭が亡命していた。	NO_PRONOUNCE	NO_LABEL
毛利氏が上洛に踏み切らないのは大友氏が背後を脅かしているからだと考えた足利義昭は、9月に島津氏に大友領に侵攻して大友氏の毛利領侵攻を止めさせるように命じる御内書を出した。	もいりしがじょーらくにふみきらないのわおーともうじがはいごをおびやかしているからだとかんがえたあしかがよしあきわ、くがつにしまずしにおーともりょーにしんこーしておーともうじのもーりりょーしんこーをとめさせるよーにめいじるごないしょをだした。	NO_LABEL
これを受けた島津義久も御内書を大義名分として更なる北上を決定する。	これをうけたしまずよしひさもごないしょをたいぎめいぶんとしてさらなるほくじょーをけっていする。	NO_LABEL
義久は島津征久ら1万の大軍を北上させ再び石ノ城を攻撃した。	NO_PRONOUNCE	NO_LABEL
攻城戦は9月19日から開始されたが、29日には島津方の猛攻に屈し籠城軍が講和を申し出た。	こうじょうせんわくがつじゅうきゅうにちからかいしされたが、にじゅうくにちにわしまつかたのもーこーにくっしかごじょーぐんがこーわをもーしでた。	NO_LABEL
島津軍は城兵の生命を保証し、長倉佑政は石ノ城を明け渡すと豊後へと撤退した。	しまつぐんわしろへいのせいめいをほしょーし、ながくらたすくせいわいしのしろをあけわたすとぶんごえとてったいした。	NO_LABEL
10月20日耳川以北に布陣していた大友軍が南下を再開、島津方の要衝高城を包囲した。	じゅーがつはつかみみがわいほくにふじんしていただいゆーぐんがなんかをさいかい、しまつかたのよーしょーだかじょーをほーいした。	NO_LABEL
佐土原城主の島津家久は高城に急行し、高城城主山田有信とともに守りを固めた。	さどわらじょーしゅのしまずいえひさわたかぎにきゅーこーし、たかぎじょーしゅやまだありのぶとともにもりをかためた。	NO_LABEL
大友軍は数千丁の鉄砲と国崩しと呼ばれる大筒を使用して3度にわたって総攻撃を行ったが、島津家久と山田有信は城を守りぬいた。	だいゆーぐんわすーせんちょーのてっぽーとくにくずしとよばれるおーずつをしよーしてさんどにわたってそーこーげきをおこなったが、しまずいえひさとやまだありのぶわしろをまもりぬいた。	NO_LABEL
10月24日島津義久は薩摩・大隅の軍勢を動員、3万の兵を率いて鹿児島を出陣した。	NO_PRONOUNCE	NO_LABEL
島津軍は紙屋城を経由して佐土原城に入ると日向各地の守兵をあわせ4万の大軍にふくれあがった。	NO_PRONOUNCE	NO_LABEL
11月9日島津義弘、島津征久、伊集院忠棟、上井覚兼らの諸将が財部城に入り軍議を開いた。	じゅーいちがつここのかしまずよしひろ、しまつただしひさ、いじゅーいんただむね、うわいかくけんさとかねらのしょしょーがざいべしろにはいりぐんぎをひらいた。	NO_LABEL
松原に布陣する大友軍を撃破するため陽動部隊と3つの伏兵部隊が小丸川を渡河して出立し、島津義弘は小丸川の南岸に布陣し戦況を見守った。	まつばらにふじんするだいゆーぐんをげきはするためよーどーぶたいとみっつのふくへいぶたいがおまるがわをとかしてしゅったつし、しまずよしひろわおまるがわのなんがんにふじんしせんきょーをみまもった。	NO_LABEL
300の陽動部隊がまず松原の大友軍を襲撃、荷駄を破壊し75人を討ち取った。	NO_PRONOUNCE	NO_LABEL
事態に気付いた大友軍が松原の陣に急行すると、陽動部隊は伏兵の埋伏地点に退却した。	じたいにきずいただいゆーぐんがまつばらのじんにきゅーこーすると、よーどーぶたいわふくへいのまいふくちてんにたいきゃくした。	NO_LABEL
また伏兵を支援するため高城の島津家久が出撃、大友軍本隊を牽制した。	またふくへいをしえんするためたかぎのしまずいえひさがしゅつげき、だいゆーぐんほんたいをけんせいした。	NO_LABEL
3つの伏兵部隊は埋伏地点におびきだされた大友軍を殲滅、敗残兵を追って松原の陣に突入し火を放った。	みっつのふくへいぶたいわまいふくちてんにおびきだされただいゆーぐんをせんめつ、はいざんへいをおってまつばらのじんにとつにゅーしひをはなった。	NO_LABEL
島津義弘、島津征久、島津忠長、伊集院忠棟らの主力部隊も混乱に乗じて渡河し、高城川の南岸に布陣した。	しまずよしひろ、しまつただしひさ、しまずただなが、いじゅーいんただむねらのしゅりょくぶたいもこんらんにじょーじてとかし、たきがわのなんがんにふじんした。	NO_LABEL
島津軍は大友軍の陣に火矢を放ち、伏兵によって各陣地を寸断した。	しまつぐんわだいゆーぐんのじんにひやをはなち、ふくへいによってかくじんちをすんだんした。	NO_LABEL
前哨戦の敗北により大友方は田原親賢ら16人の使者を島津の陣へと派遣、講和を申し出た。	ぜんしょーせんのはいぼくによりおーともかたわたわらたはらちかかたらじゅうろくにんのししゃをしまつのじんえとはけん、こーわをもーしでた。	NO_LABEL
一方で大友軍は主戦派と講和派に割れ方針が不明確だった。	いっぽーでだいゆーぐんわしゅせんはとこーわはにわれほーしんがふめいかくだった。	NO_LABEL
軍議では主戦派の田北鎮周は交戦を主張していたが、大将の田原親賢は島津軍との和睦交渉を進めていたためこれに応じなかった。	ぐんぎでわしゅせんはのたきたしげかねわこーせんをしゅちょーしていたが、たいしょーのたわらたはらちかかたわしまつぐんとのわぼくこーしょーをすすめていたためこれにおーじなかった。	NO_LABEL
田北鎮周と佐伯宗天がこれを不服として島津軍に攻撃を仕掛けたため大友軍はこれを放置するわけにもいかず、やむなく島津軍と戦うことになった。	たきたしげかねとさえきたかしてんがこれをふふくとしてしまつぐんにこーげきをしかけたためだいゆーぐんわこれをほーちするわけにもいかず、やむなくしまつぐんとたたかうことになった。	NO_LABEL
また、大友軍の軍師角隈石宗は「血塊の雲が頭上を覆っている時は戦うべきでない」と主張するも結局交戦に至った。	NO_PRONOUNCE	NO_LABEL
佐伯宗天は当初慎重論を唱えていたが、軍議の席で田北に侮辱され、それが原因で田北とともに攻撃を仕掛けた。	さえきたかしてんわとーしょしんちょーろんをとなえていたが、ぐんぎのせきでたきたにぶじょくされ、それがげんいんでたきたとともにこーげきをしかけた。	NO_LABEL
一方大友方の軍議を知った島津義久は決戦に備えて諸将を埋伏させ、自らは1万の兵を率いて根白坂に布陣した。	NO_PRONOUNCE	NO_LABEL
島津征久の馬標が総攻撃の合図となり、馬標がたてられるまで攻撃は禁じられた。	しまつただしひさのうまじるしがそーこーげきのあいずとなり、うまじるしがたてられるまでこーげきわきんじられた。	NO_LABEL
11月12日の朝、田北・佐伯の軍勢が小丸川北岸に布陣する島津軍前衛への攻撃を開始した。	NO_PRONOUNCE	NO_LABEL
大友軍の本隊も二人に続き、島津軍前衛部隊は壊滅、北郷時久、北郷久盛らが戦死した。	だいゆーぐんのほんたいもふたりにつずき、しまつぐんぜんえいぶたいわかいめつ、ほんごうときひさ、きたごーひさもりらがせんしした。	NO_LABEL
勢いにのった大友軍は小丸川を渡ると島津義久本隊へと殺到した。	いきおいにのっただいゆーぐんわおまるがわをわたるとしまずよしひさほんたいえとさっとーした。	NO_LABEL
島津義弘、島津歳久、伊集院忠棟らが大友軍をむかえうち、伏兵部隊を指揮する島津征久が大友軍の陣形が伸びきった段階で馬標を立てた。	しまずよしひろ、しまずとしひさ、いじゅーいんただむねらがだいゆーぐんをむかえうち、ふくへいぶたいをしきするしまつただしひさがだいゆーぐんのじんけいがのびきっただんかいでうまじるしをたてた。	NO_LABEL
前後左右から伏兵が大友軍に襲いかかり、高城の島津家久、根白坂の島津義久も攻撃に参加した。	ぜんごさゆーからふくへいがだいゆーぐんにおそいかかり、たかぎのしまずいえひさ、ねしろざかのしまずよしひさもこーげきにさんかした。	NO_LABEL
包囲された大友軍は総崩れとなって敗走、一部の部隊は竹鳩ヶ淵へと逃走、多くの兵が溺死した。	NO_PRONOUNCE	NO_LABEL
ここで佐伯宗天も戦死している。	ここでさえきたかしてんもせんししている。	NO_LABEL
川原、野久尾の陣が陥落、本陣も制圧されると大友軍は耳川方面へと逃走。	かわはら、のくおのじんがかんらく、ほんじんもせいあつされるとおーともぐんわみみがわほーめんえととーそー。	NO_LABEL
島津軍は敗走する大友軍を猛追し多くの首を挙げた。	しまつぐんわはいそーするだいゆーぐんをもーついしおーくのくびをあげた。	NO_LABEL
大友軍は3000人近い人数が戦死したが、これの大半は敗走後に急流の耳川を渡りきれず溺死した者や、そこを突かれて島津軍の兵士に殺されたものだという。	だいゆーぐんわさんぜんにんちかいにんずーがせんししたが、これのたいはんわはいそーごにきゅーりゅーのみみがわをわたりきれずできししたしゃや、そこをつかれてしまずぐんのへいしにころされたものだという。	NO_LABEL
敗報を知った宗麟は単身豊後へと逃走。	はいほーをしったそーりんわたんしんぶんごえととーそー。	NO_LABEL
耳川の合戦は島津家の圧倒的勝利に終わった。	みみがわのかっせんわしまずけのあっとーてきしょーりにおわった。	NO_LABEL
大友氏はこの戦いにより、直臣の佐伯宗天・田北鎮周や、筑後国人の蒲池鑑盛をはじめとする多くの重臣や幕下の有力武将ならびに兵力を失った。	NO_PRONOUNCE	NO_LABEL
戦死者が多数出たため戦争未亡人となった者も多く、「日向後家」という言葉が生まれるほどであった。	NO_PRONOUNCE	NO_LABEL
さらに足利義昭の御内書は大友支配地内の有力国人たちにも送られ、その結果秋月種実の反抗や龍造寺隆信の謀反などをはじめとする有力国人たちの離反を招き、その勢力・領国を大きく削がれることとなった。	NO_PRONOUNCE	NO_LABEL
また、足利義昭の上洛を妨害する障害「六ヶ国之凶徒」として糾弾の対象になった大友氏は、義昭を奉じる毛利氏及び御内書を受けた島津氏・龍造寺氏・長宗我部氏ら近隣の有力大名全てと対立することになり、京都の織田政権及びその後継政権となった豊臣政権との関係を深めて窮地を脱する外交政策を展開する事になる。	NO_PRONOUNCE	NO_LABEL
なお戦後、立花道雪は軍監を務めていた志賀親守の罪を糾弾している。	NO_PRONOUNCE	NO_LABEL
島津氏は一連の戦いによって九州内に拮抗する敵はなくなり、九州南部の支配を確固たるものとした。	しまずしわいちれんのたたかいによってきゅーしゅーないにきっこーするてきわなくなり、きゅーしゅーなんぶのしはいをかっこたるものとした。	NO_LABEL
島津氏はこの大勝利後、大友氏の後ろ盾を失った球磨の相良氏を降伏させ、肥後の阿蘇氏、また肥前の龍造寺氏を「沖田畷の戦い」で下したため、九州内の国人達は次々と島津方になびき始める。	NO_PRONOUNCE	NO_LABEL
さらに大友氏の本拠地豊後へ侵攻を開始し一時は現在の大分市まで迫る。	さらにおーともうじのほんきょちぶんごえしんこーをかいししいちじわげんざいのおーいたしまでせまる。	NO_LABEL
しかし宗麟の要請をうけた豊臣秀吉の介入によって退却を余儀なくされ、遂に秀吉に恭順することになる。	しかしそーりんのよーせいをうけたとよとみひでよしのかいにゅーによってたいきゃくをよぎなくされ、ついにひでよしにきょーじゅんすることになる。	NO_LABEL
×は戦死	かけるわせんし	NO_LABEL
