余呉駅は、滋賀県長浜市余呉町下余呉にある、西日本旅客鉄道北陸本線の駅である。	よごえきわ、しがけんながはましよごちょうしもよごにある、にしにほんりょかくてつどーほくりくほんせんのえきである。	NO_LABEL
駅番号はJR-A04。	NO_PRONOUNCE	NO_LABEL
島式ホーム1面2線を持つ地上駅。	NO_PRONOUNCE	NO_LABEL
改札と島式ホームの間には跨線橋や地下道ではなく、構内踏切とスロープを利用する。	かいさつとしましきほーむのまにわこせんきょーやちかどーでわなく、こーないふみきりとすろーぷをりよーする。	NO_LABEL
そのため段差がなく楽に行き来できるようになっている。	そのためだんさがなくらくにいききできるよーになっている。	NO_LABEL
かつては下り本線と上り待避線、上り本線の3線構造で、上り本線はホームのない通過線の構造であった。	NO_PRONOUNCE	NO_LABEL
JR化後に上り一番線を使用停止としホームを上り本線までせり出したため、ホームはかなり幅広である。	じぇいあーるかごにのぼりいちばんせんをしよーていしとしほーむをのぼりほんせんまでせりだしたため、ほーむわかなりはばひろである。	NO_LABEL
上りホームは8両分かさ上げされているが、下りホームは4両分のみのかさ上げである。	NO_PRONOUNCE	NO_LABEL
簡易委託駅で、マルス端末・POS端末とも設置されておらず、携帯車発機によるレシート型の乗車券を発券する。	NO_PRONOUNCE	NO_LABEL
なお、米原駅が当駅を管理している。	なお、まいばらえきがとーえきをかんりしている。	NO_LABEL
「滋賀県統計書」によると、1日平均の乗車人員は以下の通りである。	NO_PRONOUNCE	NO_LABEL
近くに駅名の由来である余呉湖があり、釣りやハイキングが楽しめる。	ちかくにえきめいのゆらいであるよごこがあり、つりやはいきんぐがたのしめる。	NO_LABEL
周囲一面を水田に囲まれており広々とした景色が広がる。	しゅーいいちめんをすいでんにかこまれておりひろびろとしたけしきがひろがる。	NO_LABEL
新快速が乗り入れており、日中は隣の近江塩津駅で湖西線経由の京都・大阪方面行き新快速に乗り換え可能なダイヤになっている。	NO_PRONOUNCE	NO_LABEL
しかし、乗客の流れは米原駅経由京都・大阪方面行き新快速を利用するか、朝晩には長浜駅・米原駅で普通列車と新快速に乗り換えている。	NO_PRONOUNCE	NO_LABEL
湖西線経由で京都・大阪方面へ向かう乗客は少ない。	NO_PRONOUNCE	NO_LABEL
大阪駅から米原駅経由当駅までは、新快速では米原駅での増結作業）があるため、4両編成の車両に乗車する必要がある。	NO_PRONOUNCE	NO_LABEL
