ヨハン・ハインリヒ・フォン・チューネンは、ドイツの経済学者・地理学者。	NO_PRONOUNCE	NO_LABEL
代表的著作『孤立国』によって、経済地理学における先駆的な業績を残し、フェルナン・ブローデルに「19世紀の最も偉大な経済学者として、マルクスと並ぶ位置を占める」と評せられた。	NO_PRONOUNCE	NO_LABEL
チューネンは北ドイツのメクレンブルクの地主であり、『孤立国』の第1巻では、経済地理と空間経済に関する最初の本格的な分析を、地代の理論と結びつけることにより行った。	NO_PRONOUNCE	NO_LABEL
こうした分析を行う方法論の開発は、土地利用パターンの予測そのものよりも、より重要な彼の功績である。	こーしたぶんせきをおこなうほーほーろんのかいはつわ、とちりよーぱたーんのよそくそのものよりも、よりじゅーよーなかれのこーせきである。	NO_LABEL
彼の「孤立国」の理論の中で、彼はアダム・スミスの「経済人」、即ち農民は彼の農場から上がる利益を最大化することを期待する、という着想から出発した。	NO_PRONOUNCE	NO_LABEL
チューネンは地主として、そのような収益は土地の表面の最適な利用法と輸送費とに依存することを知っていた。	ちゅーねんわじぬしとして、そのよーなしゅーえきわとちのひょーめんのさいてきなりよーほーとゆそーひとにいぞんすることをしっていた。	NO_LABEL
利益に対するこの2つの変数の影響に専念するとき、他の要因を取り除くことは、均質な--そして孤立した--国、即ち中心にあるただ1つの支配的な市場を持った、国際関係の無い、円形の、全く拡大することの無い平面に帰着する。	NO_PRONOUNCE	NO_LABEL
穀物は、固定した市場価格を持つ唯一の農産物である。	こくもつわ、こていしたしじょーかかくをもつゆいいつののーさんぶつである。	NO_LABEL
周囲の田園地帯の経済は、各産業がそれによって最適な利益をもたらすようなやり方による経済行動に応じて再配置されなければならない。	しゅーいのでんえんちたいのけいざいわ、かくさんぎょーがそれによってさいてきなりえきをもたらすよーなやりかたによるけいざいこーどーにおーじてさいはいちされなければならない。	NO_LABEL
この着想のもとで、工業化の前に作られたチューネンの農地モデルは、以下の単純化の仮定を設けた:	NO_PRONOUNCE	NO_LABEL
このとき、ある土地の利用法は、市場への輸送費と、農民が支払いうる地代との関数によって表現される。	このとき、あるとちのりよーほーわ、しじょーえのゆそーひと、のーみんがしはらいうるじだいとのかんすーによってひょーげんされる。	NO_LABEL
農場から市場への輸送費は市場からの距離および生産物の重量に正比例する。	のーじょーからしじょーえのゆそーひわしじょーからのきょりおよびせいさんぶつのじゅーりょーにせいひれいする。	NO_LABEL
一方で商品を販売した時に農民が支払い得る地代は生産された場所にかかわらず一定であるから、同じ作物を1単位面積の農場から生産したときの利潤は市場からの距離の増加につれて減少するであろう。	NO_PRONOUNCE	NO_LABEL
彼の分析では、こうした仮定のもとで行われる孤立国での農業活動は、都市を中心とした4つの同心円、いわゆるチューネンの輪で表されることを明らかにした。	かれのぶんせきでわ、こーしたかていのもとでおこなわれるこりつこくでののーぎょーかつどーわ、としをちゅーしんとしたよっつのどーしんえん、いわゆるちゅーねんのわであらわされることをあきらかにした。	NO_LABEL
1. 都市に隣接した酪農業および集約農場。	NO_PRONOUNCE	NO_LABEL
野菜、果物、牛乳やその他の乳製品は市場で速やかに取引を行わなければならないため、これらは都市に隣接して生産されるだろう。	やさい、くだもの、ぎゅーにゅーやそのたのにゅーせいひんわしじょーですみやかにとりひきをおこなわなければならないため、これらわとしにりんせつしてせいさんされるだろう。	NO_LABEL
2. 材木や薪は、燃料や建築資材のために、第2の輪の中で生産されるだろう。	NO_PRONOUNCE	NO_LABEL
木材は暖房や調理の燃料のために非常に重要だが、非常に重く、輸送が難しいため、都市に近接したところに位置する。	もくざいわだんぼーやちょーりのねんりょーのためにひじょーにじゅーよーだが、ひじょーにおもく、ゆそーがむずかしいため、としにきんせつしたところにいちする。	NO_LABEL
3. 第3の帯域では、穀物のような広範囲の畑作物から成る。	NO_PRONOUNCE	NO_LABEL
穀物は乳製品より長持ちし、燃料より遥かに軽く、輸送費を減少させるため、都市からより遠い所に位置することができる。	こくもつわにゅーせいひんよりながもちし、ねんりょーよりはるかにかるく、ゆそーひをげんしょーさせるため、としからよりとーいところにいちすることができる。	NO_LABEL
4. 牧場は最後の輪に位置する。	NO_PRONOUNCE	NO_LABEL
動物は自己輸送できるため、都市から遠くても飼育することができる。	どーぶつわじこゆそーできるため、としからとーくてもしいくすることができる。	NO_LABEL
動物は、販売や屠殺のために中央の都市まで歩くことができる。	どーぶつわ、はんばいやとさつのためにちゅーおーのとしまであるくことができる。	NO_LABEL
5. 第4の輪の外には荒地が横たわるが、これは、いかなる種類の農業生産にとっても中央の都市からの距離が大き過ぎる。	NO_PRONOUNCE	NO_LABEL
チューネンの輪は、産業革命が地面の上のパターンを汚す前の欧州の経済史と欧州の植民地主義を明らかにした、フェルナン・ブローデルの『文明と資本主義』のような経済史に対して特に有用であることを示した。	NO_PRONOUNCE	NO_LABEL
チューネンは上記の結論を、都市からの距離と位置地代の推移を分析することにより導き出した。	ちゅーねんわじょーきのけつろんを、としからのきょりといちじだいのすいいをぶんせきすることによりみちびきだした。	NO_LABEL
位置地代とはチューネンによる議論の中で用いられる用語だが、土地の価値と等価であると理解されている。	いちじだいとわちゅーねんによるぎろんのなかでもちいられるよーごだが、とちのかちととーかであるとりかいされている。	NO_LABEL
それは、農民が損失を出すことなく、土地を使用するために支払うことのできる最大額に相当する。	それわ、のーみんがそんしつをだすことなく、とちをしよーするためにしはらうことのできるさいだいがくにそーとーする。	NO_LABEL
それは以下の方程式で定義できる:	NO_PRONOUNCE	NO_LABEL
L = Y－ YDF	NO_PRONOUNCE	NO_LABEL
ここで、	ここで、	NO_LABEL
例えば、1,000t/kmの生産量、市場において100DM/tの固定価格をもつ生産物の位置地代を取り上げよう。	NO_PRONOUNCE	NO_LABEL
生産費と輸送費はそれぞれ、50DM/tと1DM/t/kmとする。	NO_PRONOUNCE	NO_LABEL
このとき、市場の近傍では輸送費は0であり、位置地代は収入から生産費だけを取り除いた額に等しいから、50,000DM/kmである。	NO_PRONOUNCE	NO_LABEL
一方で市場から離れていくと輸送費がかかるようになっていくため、位置地代は市場から10kmで40,000DM/km、市場から30kmでは20,000DM/kmと減少していく。	NO_PRONOUNCE	NO_LABEL
そして各農民が農地に対して支払おうとする金額は縮小し、土地の価格は結果として下落するだろう。	そしてかくのーみんがのーちにたいしてしはらおうとするきんがくわしゅくしょーし、とちのかかくわけっかとしてげらくするだろう。	NO_LABEL
ある作物を生産したときの位置地代はこのようにして求められるが、チューネンはある作物の作付けは、都市からのある距離内においてのみ有益である、つまりその生産が有益であるような市場からの距離が存在すると結論した。	あるさくもつをせいさんしたときのいちじだいわこのよーにしてもとめられるが、ちゅーねんわあるさくもつのさくずけわ、としからのあるきょりないにおいてのみゆーえきである、つまりそのせいさんがゆーえきであるよーなしじょーからのきょりがそんざいするとけつろんした。	NO_LABEL
これは都市からの距離が増していくと、地代を全く支払えなくなるまで輸送費が増加するか、または、他のより低い輸送費を持った生産物があったならば、そちらの作物を生産した時に支払える位置地代が、ある作物を生産した時の位置地代より高くなることで、土地へのコストがその作物を生産するのに対してかかりすぎるようになるからである。	これわとしからのきょりがましていくと、じだいをまったくしはらえなくなるまでゆそーひがぞーかするか、またわ、たのよりひくいゆそーひをもったせいさんぶつがあったならば、そちらのさくもつをせいさんしたときにしはらえるいちじだいが、あるさくもつをせいさんしたときのいちじだいよりたかくなることで、とちえのこすとがそのさくもつをせいさんするのにたいしてかかりすぎるよーになるからである。	NO_LABEL
例えば、上述の作物を作物1として、もう一つの作物として1,000t/kmの生産量、市場において80DM/tの固定価格をもつが、生産費と輸送費がそれぞれ、40DM/tと0.5DM/t/kmである作物2を考えよう。	NO_PRONOUNCE	NO_LABEL
このとき、位置地代は市場の近傍で40,000DM/km、市場から10kmで35,000DM/km、市場から30kmでは25,000DM/kmとなる。	NO_PRONOUNCE	NO_LABEL
このとき作物1と作物2の位置地代を比較すると、市場の近傍、10kmでは作物1の方が位置地代が高いが、30kmまで行くと作物2の位置地代が逆転している。	NO_PRONOUNCE	NO_LABEL
ここで各地点において、最も高い位置地代を支払った農家がその土地で作物を生産できるとすれば、10kmと30kmの間のある地点までは作物1の方が位置地代が高く、それより遠くでは作物2の方が位置地代が高くなるため、都市から20km地点までは作物1、その地点より遠くでは作物2が生産される同心円状の土地利用パターンが実現する。	NO_PRONOUNCE	NO_LABEL
また都市から80kmまで行くと作物2の位置地代は0となり、それより遠くでは、農家はもはや位置地代を支払得ないため、作物2も生産できる距離が決まっていることがわかる。	NO_PRONOUNCE	NO_LABEL
チューネンは輸送費を直接市場に帰したので、孤立国においては環状の土地利用帯--チューネンの輪--が実現する。	NO_PRONOUNCE	NO_LABEL
地理学における他の多くのモデルのように、チューネンのモデルはその限定的性質から頻繁に批評された。	ちりがくにおけるたのおーくのもでるのよーに、ちゅーねんのもでるわそのげんていてきせいしつからひんぱんにひひょーされた。	NO_LABEL
しかし、そのモデルの基礎的条件は、それぞれの場合の現実のわずかな修正により近似させることができた。	しかし、そのもでるのきそてきじょーけんわ、それぞれのばあいのげんじつのわずかなしゅーせいによりきんじさせることができた。	NO_LABEL
円形のパターンはただ1つの市場と中心から走る排他的な輸送費の勾配に帰することができるが、これは多くの考え得る幾何学的な初期状態のただ1例に過ぎない。	NO_PRONOUNCE	NO_LABEL
もし他の自然の風景や輸送ルートが存在したならば、土地利用帯は縞状に形成されるだろう。	もしたのしぜんのふーけいやゆそーるーとがそんざいしたならば、とちりよーたいわしまじょーにけいせいされるだろう。	NO_LABEL
もしいくつかの市場が存在したならば、利用帯のグループが各市場の周囲に形成されるだろう。	もしいくつかのしじょーがそんざいしたならば、りよーたいのぐるーぷがかくしじょーのしゅーいにけいせいされるだろう。	NO_LABEL
この論に対する正当な反論は、	このろんにたいするせいとーなはんろんわ、	NO_LABEL
チューネンの「経済地代」という着想は--他の特性を無視して--専ら経済的に合理的な知覚に支配された、帯域の利用を説明することを試みた。	NO_PRONOUNCE	NO_LABEL
可能な消費者が最終的に、位置の選択について決定的な役割を演ずる。	かのーなしょーひしゃがさいしゅーてきに、いちのせんたくについてけっていてきなやくわりをえんずる。	NO_LABEL
それと同時に、可能な提示の利用域分割に通じる、すべての潜在的位置の評価が解き放たれる。	それとどーじに、かのーなていじのりよーいきぶんかつにつーじる、すべてのせんざいてきいちのひょーかがときはなたれる。	NO_LABEL
しかし、この単純に展開された空間・レストラン・モデルは、費用に打ち勝つ空間の変化に敏感に反応する。	NO_PRONOUNCE	NO_LABEL
しかしそれにもかかわらず、これは地理的な問題や方法論において、その普遍性により高い価値を持っている。	しかしそれにもかかわらず、これわちりてきなもんだいやほーほーろんにおいて、そのふへんせいによりたかいかちをもっている。	NO_LABEL
　	NO_PRONOUNCE	NO_LABEL
また経済学においてはこの業績は長い間忘れ去られていたものの、ウォルター・アイザードやウィリアム・アロンゾ、らによって都市を都市内の住民が通勤する地点に、輸送費を通勤費に置き換えることで、チューネンの地代を用いた理論は都市内立地の分析にたいしても有効な分析手段となることが示された。	またけいざいがくにおいてわこのぎょーせきわながいあいだわすれさられていたものの、うぉるたーあいざーどやうぃりあむあろんぞ、らによってとしをとしないのじゅーみんがつーきんするちてんに、ゆそーひをつーきんひにおきかえることで、ちゅーねんのじだいをもちいたりろんわとしないりっちのぶんせきにたいしてもゆーこーなぶんせきしゅだんとなることがしめされた。	NO_LABEL
こうした分析は都市経済学として経済学の一分野を形成し、1970年代以降多くの研究が行われている。	こーしたぶんせきわとしけいざいがくとしてけいざいがくのいちぶんやをけいせいし、せんきゅうひゃくななじゅうねんだいいこーおーくのけんきゅーがおこなわれている。	NO_LABEL
また彼の地代の議論は古典派経済学の前提に基づいて行われているが、デイヴィッド・リカードの差額地代論を推し進め、現代的な経済学における限界生産力理論に通じる最初の理論の一つであると考えられている。	NO_PRONOUNCE	NO_LABEL
一方で経済学の立場からのチューネンの孤立国理論に対する有力な批判としては、「都市」、即ち市場の存在を自明のものとして取り扱っていることが挙げられる。	NO_PRONOUNCE	NO_LABEL
つまり彼の理論では都市の周辺における農業土地利用パターンがどのようにして発生するかは説明しているものの、そもそも何故そこに農作物を販売出来る都市が存在するかということは説明されないのである。	つまりかれのりろんでわとしのしゅーへんにおけるのーぎょーとちりよーぱたーんがどのよーにしてはっせいするかわせつめいしているものの、そもそもなぜそこにのーさくもつをはんばいできるとしがそんざいするかとゆうことわせつめいされないのである。	NO_LABEL
この点を説明する理論としては、1990年代以降空間経済学あるいは新経済地理学と呼ばれる分野が展開されており、都市の存在と都市周辺での農業立地がいずれも経済システムから内生的に決定されるような理論も開発されている。	このてんをせつめいするりろんとしてわ、せんきゅうひゃくきゅうじゅうねんだいいこーくーかんけいざいがくあるいわしんけいざいちりがくとよばれるぶんやがてんかいされており、としのそんざいととししゅーへんでののーぎょーりっちがいずれもけいざいしすてむからないしょーてきにけっていされるよーなりろんもかいはつされている。	NO_LABEL
