ロイペプチンは、システイン、セリン、スレオニンペプチダーゼを阻害することができる天然のプロテアーゼ阻害剤である。	ろいぺぷちんわ、しすていん、せりん、すれおにんぺぷちだーぜをそがいすることができるてんねんのぷろてあーぜそがいざいである。	NO_LABEL
"N"-acetyl--leucyl--leucyl--argininalとしても知られている。	NO_PRONOUNCE	NO_LABEL
ロイペプチンは、特定の酵素反応を研究する際の"in vitro"実験においてしばしば使用される。	NO_PRONOUNCE	NO_LABEL
これらの研究のために細胞を溶解させた時、プロテアーゼが放出される。	これらのけんきゅーのためにさいぼーをよーかいさせたとき、ぷろてあーぜがほーしゅつされる。	NO_LABEL
これらのプロテアーゼが溶解液中に自由に存在した場合、研究している反応の生成物を破壊してしまい、実験は解釈不能となる。	これらのぷろてあーぜがよーかいえきちゅーにじゆーにそんざいしたばあい、けんきゅーしているはんのーのせいせいぶつをはかいしてしまい、じっけんわかいしゃくふのーとなる。	NO_LABEL
喩えば、ロイペプチンはカルパインの抽出において、カルパインが特定のプロテアーゼによって加水分解されるのを阻害するため使用することができる。	たとえば、ろいぺぷちんわかるぱいんのちゅーしゅつにおいて、かるぱいんがとくていのぷろてあーぜによってかすいぶんかいされるのをそがいするためしよーすることができる。	NO_LABEL
推奨濃度は1-10 µMである。	NO_PRONOUNCE	NO_LABEL
ロイペプチンは放線菌によって生産される有機化合物である。	ろいぺぷちんわほーせんきんによってせいさんされるゆーきかごーぶつである。	NO_LABEL
ロイペプチンはセリンプロテアーゼ、システインプロテアーゼを阻害する。	ろいぺぷちんわせりんぷろてあーぜ、しすていんぷろてあーぜをそがいする。	NO_LABEL
α-キモトリプシンあるいはトロンビンは阻害しない。	NO_PRONOUNCE	NO_LABEL
ロイペプチンは競合的遷移状態阻害剤であり、過剰な基質によってその阻害作用は軽減される。	ろいぺぷちんわきょーごーてきせんいじょーたいそがいざいであり、かじょーなきしつによってそのそがいさよーわけいげんされる。	NO_LABEL
ロイペプチンは水、エタノール、酢酸、DMFに可溶である。	NO_PRONOUNCE	NO_LABEL
ロイペプチンは中耳ならびに内耳感染に対して局所的に投与される。	ろいぺぷちんわちゅーじならびにないじかんせんにたいしてきょくしょてきにとーよされる。	NO_LABEL
