日比谷通りは、国道1号・国道20号・東京都道403号大手町湯島線・東京都道409号日比谷芝浦線の各路線の一部を南北に継ぐ、東京都通称道路名設定公告で告示された道路の通称である。	NO_PRONOUNCE	NO_LABEL
日比谷通りは国道と東京都道の一部を継ぎ、東京都都市計画道路環状1号線・放射10号線・放射20号線として指定されている。	NO_PRONOUNCE	NO_LABEL
毎年1月開催の東京箱根間往復大学駅伝競走のコースともなっている。	まいとしいちがつかいさいのとーきょーはこねかんおーふくだいがくえきでんきょうそーのこーすともなっている。	NO_LABEL
路線は以下のようになっている。	ろせんわいかのよーになっている。	NO_LABEL
