マリアナ海溝は、北西太平洋のマリアナ諸島の東、北緯11度21分、東経142度12分に位置する、世界で最も深い海溝である。	まりあなかいこーわ、ほくせいたいへいよーのまりあなしょとーのひがし、ほくいじゅういちどにじゅういっぷん、とーけいひゃくよんじゅうにどじゅうにふんにいちする、せかいでもっともふかいかいこーである。	NO_LABEL
太平洋プレートはこのマリアナ海溝においてフィリピン海プレートの下にもぐりこんでいる。	たいへいよーぷれーとわこのまりあなかいこーにおいてふぃりぴんかいぷれーとのしたにもぐりこんでいる。	NO_LABEL
北西端は伊豆・小笠原海溝、南西端はヤップ海溝に連なる。	ほくせいたんわいずおがさわらかいこー、なんせいたんわやっぷかいこーにつらなる。	NO_LABEL
マリアナ海溝の最深部はチャレンジャー海淵と呼ばれている。	まりあなかいこーのさいしんぶわちゃれんじゃーかいえんとよばれている。	NO_LABEL
その深さについてはいくつかの計測結果があるが、最新の計測では水面下10,911mとされ、地球上で最も深い海底凹地である。	NO_PRONOUNCE	NO_LABEL
これは海面を基準にエベレストをひっくり返しても山頂が底につかないほどの深さで、地球の中心からは6,366.4km地点にある。	NO_PRONOUNCE	NO_LABEL
マリアナ海溝の測深は、イギリスのチャレンジャー号探検航海の海洋調査によって初めて行われた。	まりあなかいこーのそくしんわ、いぎりすのちゃれんじゃーごーたんけんこーかいのかいよーちょーさによってはじめておこなわれた。	NO_LABEL
1875年、このときの測鉛線による測深記録は、8,184mであった。	NO_PRONOUNCE	NO_LABEL
当時の最深を記録したこの地点は、現在のチャレンジャー海淵であった。	とーじのさいしんをきろくしたこのちてんわ、げんざいのちゃれんじゃーかいえんであった。	NO_LABEL
1899年、調査船USS Neroは、9,636mを記録した。	NO_PRONOUNCE	NO_LABEL
日本によるマリアナ海溝の調査は、20世紀に入って行われた。	にっぽんによるまりあなかいこーのちょーさわ、にじっせいきにはいっておこなわれた。	NO_LABEL
1925年、日本の測量船「満州号」が重りのついたケーブルをおろして測定する方法によりマリアナ海溝の海域において9,814mを測定、この海域が世界でもっとも深い部分であることを世界に知らしめた。	NO_PRONOUNCE	NO_LABEL
その後、マリアナ海溝の本格的な深度調査を行ったのはイギリス海軍の測量船「チャレンジャー8世号」である。	NO_PRONOUNCE	NO_LABEL
1951年にチャレンジャーが測定に成功した最深部分はその名にちなんで「チャレンジャー海淵」と呼ばれることになった。	NO_PRONOUNCE	NO_LABEL
このとき、チャレンジャーは反響した音波を測定する方法で北緯11度19分、東経142度15分において10,900mを計測した。	NO_PRONOUNCE	NO_LABEL
しかし、この方法は手動計測であったため誤差があり、現在ではより厳密な10,863mという値に修正されている。	NO_PRONOUNCE	NO_LABEL
1957年、ソ連海軍艦艇「ヴィチャージ」が深度11,034mの計測に成功したと発表し、「ヴィチャージ海淵」と名づけた。	NO_PRONOUNCE	NO_LABEL
この記録は長らくマリアナ海溝の深度の公式記録とされていたが、その後何度調査を行ってもこれほどの深度は測定されなかったため、現在ではこの記録の正確性に疑問が持たれており、公式記録としては認められていない。	このきろくわながらくまりあなかいこーのしんどのこーしききろくとされていたが、そのごなんどちょーさをおこなってもこれほどのしんどわそくていされなかったため、げんざいでわこのきろくのせいかくせいにぎもんがもたれており、こーしききろくとしてわみとめられていない。	NO_LABEL
1962年には調査船スペンサー・ベアード号が10,915mの測定に成功している。	NO_PRONOUNCE	NO_LABEL
しかしマリアナ海溝の最深部については米ソの測定値をめぐって議論が続いたため、1984年に日本の調査船「拓洋」が最新式のナローマルチビーム測深機を用いて測定を行い、10,924mという値を得た。	NO_PRONOUNCE	NO_LABEL
現在のところ、多くの深度測定値の中で確実に裏づけがとられたものは1995年5月に日本の無人探査機「かいこう」が記録した10,911mが最高であり、それ以上の値はまだ確実とは言いがたい。	NO_PRONOUNCE	NO_LABEL
しかしこれも確実とは言い難い。	しかしこれもかくじつとわいーがたい。	NO_LABEL
2009年5月アメリカのウッズホール海洋研究所の無人探査機Nereusが10,902mに到達した。	NO_PRONOUNCE	NO_LABEL
1960年1月23日、アメリカ海軍の協力のもとにオーギュスト・ピカールが開発した潜水艇「トリエステ号」にドン・ウォルシュ大尉とオーギュストの息子ジャック・ピカールが搭乗してマリアナ海溝深部を目指した。	NO_PRONOUNCE	NO_LABEL
バチスカーフは鋼鉄の重りとガソリンの浮力装置を用いて深度を調整できるよう設計されていた。	ばちすかーふわこーてつのおもりとがそりんのふりょくそーちをもちいてしんどをちょーせいできるよーせっけいされていた。	NO_LABEL
二人は人類の到達した最深記録を達成した。	ふたりわじんるいのとーたつしたさいしんきろくをたっせいした。	NO_LABEL
世界記録であることは間違いないが、その正確な深度については諸説あり、確証が得られていない。	せかいきろくであることわまちがいないが、そのせいかくなしんどについてわしょせつあり、かくしょーがえられていない。	NO_LABEL
二人は海溝の底に到達したといい、その時バチスカーフ内部の水深計が示していたのはだったと主張している。	ふたりわかいこーのそこにとーたつしたといい、そのときばちすかーふないぶのすいしんけいがしめしていたのわだったとしゅちょーしている。	NO_LABEL
さらに二人は海溝の底でヒラメやエビなどの生物が生息しているのを発見して驚いたという。	さらにふたりわかいこーのそこでひらめやえびなどのせいぶつがせいそくしているのをはっけんしておどろいたという。	NO_LABEL
マリアナ海溝の最深部分における水圧は実に108.6MPaにのぼる。	NO_PRONOUNCE	NO_LABEL
この環境に完全に適応した生物もおり、例えば真正細菌のハロモナス・サラリアは102MPa以下、"Moritella yayanosii" は50MPa以下の圧力では増殖できない絶対好圧性細菌である。	NO_PRONOUNCE	NO_LABEL
スイスで設計され、イタリアで建造されたアメリカ海軍のバチスカーフの「トリエステ」はジャック・ピカールとアメリカ海軍のドナルド・ウォルシュ中尉の操船により1960年1月23日、海底に降下した。	NO_PRONOUNCE	NO_LABEL
海底まで4時間48分かかり、20分間滞在して3時間17分かけて浮上した。	かいていまでよじかんよんじゅうはっぷんかかり、にじゅっぷんかんたいざいしてさんじかんじゅうななふんかけてふじょーした。	NO_LABEL
降下を始めてすぐに圧力で窓に亀裂が入った。	こーかをはじめてすぐにあつりょくでまどにきれつがはいった。	NO_LABEL
同様に着底時に泥が舞い上がって視界がゼロになった。	どーよーにきそこじにどろがまいあがってしかいがぜろになった。	NO_LABEL
彼等が測定した深度は10916mだった。	NO_PRONOUNCE	NO_LABEL
1995年、3月24日、日本の遠隔操作無人潜水機である「かいこう」がチャレンジャー海淵の最深部に到達した。	NO_PRONOUNCE	NO_LABEL
日本の海洋開発機構によって開発されたその装置は6000m以上潜水可能な数少ない無人潜水機である。	にっぽんのかいよーかいはつきこーによってかいはつされたそのそーちわろくせんめーとるいじょーせんすいかのーなかずすくないむじんせんすいきである。	NO_LABEL
潜水記録は音響探査によりそれまでチャレンジャー海淵の最も深い場所と信じられていただった。	せんすいきろくわおんきょーたんさによりそれまでちゃれんじゃーかいえんのもっともふかいばしょとしんじられていただった。	NO_LABEL
「かいこう」は同様にマリアナ海溝で1995年から1998年にかけて3回の遠征で多くの潜水を行った。	NO_PRONOUNCE	NO_LABEL
"かいこう"の後継機として製造されたABISMOが2008年6月3日にチャレンジャー海淵で最大潜航深度10,258mを達成した。	NO_PRONOUNCE	NO_LABEL
2009年5月31日、ハイブリッド式遠隔操作無人潜水機であるアメリカウッズホール海洋研究所の「ネーレウス」はチャレンジャー海淵に潜水した。	NO_PRONOUNCE	NO_LABEL
計画主任で開発者のAndy Bowenは成果について「海洋探査の新しい時代が開幕した」と述べた。	NO_PRONOUNCE	NO_LABEL
「ネーレウス」は「かいこう」とは異なり、水上の母船からのケーブルによる電力供給や制御を必要としない。	NO_PRONOUNCE	NO_LABEL
「ネーレウス」は10時間以上チャレンジャー海淵の海底に留まり深度 を測定してその間、母船である""に実時間映像とデータを送り、より詳しい化学分析のために海底でマニピュレータで採取された地質学上と生物学上の試料を海上に持ち帰った<ref name="Daily Reports for R/V KILO MOANA"></ref><ref name="Daily Reports for R/V KILO MOANA April and May 2009"></ref>。	NO_PRONOUNCE	NO_LABEL
2012年3月26日、映画監督のジェームズ・キャメロンは一人乗りの潜水艇「ディープシーチャレンジャー」に搭乗し、約2時間をかけて深さ10,898mへの潜行に成功した	NO_PRONOUNCE	NO_LABEL
有人でのチャレンジャー海淵への潜行は「トリエステ」以来52年ぶりで、単独での潜行は初となる。	NO_PRONOUNCE	NO_LABEL
3月26日05:15頃に降下を開始した。	NO_PRONOUNCE	NO_LABEL
07:52に"チャレンジャー海淵"の海底に到達した。	NO_PRONOUNCE	NO_LABEL
降下時間は2時間36分で記録された水深は"チャレンジャー海淵"に着地した時のだった。	NO_PRONOUNCE	NO_LABEL
キャメロンはおよそ6時間近くを海底付近の調査に費やす予定だったが、わずか2時間34分後に海面への浮上を開始した。	きゃめろんわおよそろくじかんちかくをかいていふきんのちょーさについやすよていだったが、わずかにじかんさんじゅうよんぷんごにかいめんえのふじょーをかいしした。	NO_LABEL
海底での滞在を切り上げた理由はマニピュレータアームを制御する油圧配管から油が漏出した事で観測窓からの視界が遮られたからである。	かいていでのたいざいをきりあげたりゆーわまにぴゅれーたあーむをせいぎょするゆあつはいかんからあぶらがろーしゅつしたことでかんそくまどからのしかいがさえぎられたからである。	NO_LABEL
同様に潜水艇の右の推進器が失われた。	どーよーにせんすいていのみぎのすいしんきがうしなわれた。	NO_LABEL
12:00頃にディープシーチャレンジャーのウェブサイトは90分かけて海面に浮上したと伝えたが、ポール・アレンのツイートによると浮上の所要時間はわずかおよそ67分だったとされる。	NO_PRONOUNCE	NO_LABEL
