前頭葉類似症候群は、SSRIの副作用の一種である。	ぜんとーよーるいじしょーこーぐんわ、えすえすあーるあいのふくさよーのいちしゅである。	NO_LABEL
セロトニンやドパミンなどの相互作用により感情の平坦化、無気力が続く状態を指す。	せろとにんやどぱみんなどのそーごさよーによりかんじょーのへいたんか、むきりょくがつずくじょーたいをさす。	NO_LABEL
SSRIの長期投与により、前頭葉においてドパミンやノルアドレナリンの活性が低下し起こるといわれている。	えすえすあーるあいのちょーきとーよにより、ぜんとーよーにおいてどぱみんやのるあどれなりんのかっせいがていかしおこるといわれている。	NO_LABEL
正常気分であるものの、何事にも無関心で動機付けが起こらず、疲労感や精神的に鈍い感じが残り、感情が平坦化する。	せいじょーきぶんであるものの、なにごとにもむかんしんでどーきずけがおこらず、ひろーかんやせいしんてきににぶいかんじがのこり、かんじょーがへいたんかする。	NO_LABEL
うつ状態が悪化したようにも見える。	うつじょーたいがあっかしたよーにもみえる。	NO_LABEL
SSRIの多剤投与や、双極性障害などに漫然とSSRIを投与し続けるケースなども注意が必要である。	えすえすあーるあいのたざいとーよや、そーきょくせいしょーがいなどにまんぜんとえすえすあーるあいをとーよしつずけるけーすなどもちゅーいがひつよーである。	NO_LABEL
うつ症状の治療中にこのような症状が現れたら、SSRIの減量や、服薬時間を午後に変える、SNRIなどノルアドレナリンやドパミン神経の刺激作用のある薬物への変更などが推奨される。	うつしょーじょーのちりょーちゅーにこのよーなしょーじょーがあらわれたら、えすえすあーるあいのげんりょーや、ふくやくじかんをごごにかえる、えすえぬあーるあいなどのるあどれなりんやどぱみんしんけいのしげきさよーのあるやくぶつえのへんこーなどがすいしょーされる。	NO_LABEL
セルトラリンは軽いドパミン再取り込み阻害作用を伴う為、前頭葉類似症候群は起こりにくいといわれているが、これも個人差がある。	せるとらりんわかるいどぱみんさいとりこみそがいさよーをともなうため、ぜんとーよーるいじしょーこーぐんわおこりにくいといわれているが、これもこじんさがある。	NO_LABEL
