オスラジンは、天然に存在する強い甘みをもつ甘味料で、シダ類のオオエゾデンダ "Polypodium vulgare" の地下茎から単離される。	NO_PRONOUNCE	NO_LABEL
当時のチェコスロヴァキアで1967年に発見され、オオエゾデンダのチェコ語での名称"osladic"にちなみ命名された。	NO_PRONOUNCE	NO_LABEL
平面化学構造は1971年、立体化学はソラソジンからの部分合成を元に1975年に発表されたが1993年に訂正された。	へいめんかがくこうぞーわせんきゅうひゃくななじゅういちねん、りったいかがくわそらそじんからのぶぶんごーせいをもとにせんきゅうひゃくななじゅうごねんにはっぴょーされたがせんきゅうひゃくきゅうじゅうさんねんにていせいされた。	NO_LABEL
この物質はサポニン、サポゲニンステロイドグリコシドで、スクロースの500倍甘い。	このぶっしつわさぽにん、さぽげにんすてろいどぐりこしどで、すくろーすのごひゃくばいあまい。	NO_LABEL
関連化合物のポリポドシドAはオオエゾデンダの近縁種リコリスファーン "P. glycyrrhiza" の地下茎に存在し、6%スクロース水溶液の600倍の甘さがある。	NO_PRONOUNCE	NO_LABEL
発見当初、研究者の私信を基にオスラジンはスクロースの3000倍甘い超甘味配糖体とされていたが、発表された構造式に一部不明な点を残していた。	はっけんとーしょ、けんきゅうしゃのししんをもとにおすらじんわすくろーすのさんぜんばいあまいちょーあまみはいとーたいとされていたが、はっぴょーされたこーぞーしきにいちぶふめいなてんをのこしていた。	NO_LABEL
このことから、1993年に徳島文理大学の西沢麦夫らが初めて全合成を試みたところ、従来オスラジンとされていた構造の物質は甘みを持たなかった。	このことから、せんきゅうひゃくきゅうじゅうさんねんにとくしまぶんりだいがくのにしざわむぎおっとらがはじめてぜんごーせいをこころみたところ、じゅーらいおすらじんとされていたこーぞーのぶっしつわあまみをもたなかった。	NO_LABEL
そのため、オオエゾデンダの地下茎から抽出したものを元に改めてオスラジンの構造を決定したところ、従来のオスラジンの構造式は側鎖の立体配置が間違っていたことが判明。	そのため、おおえぞでんだのちかけいからちゅーしゅつしたものをもとにあらためておすらじんのこーぞーをけっていしたところ、じゅーらいのおすらじんのこーぞーしきわがわくさりのりったいはいちがまちがっていたことがはんめい。	NO_LABEL
結局、合成された「正しい」オスラジンはスクロースの500倍の甘みを持つことが判明した。	NO_PRONOUNCE	NO_LABEL
