イスマエル・ウルサイス・アランダは、スペイン・ナバーラ州・トゥデーラ出身の元サッカー選手。	NO_PRONOUNCE	NO_LABEL
スペイン代表とバスク代表でプレーした。	すぺいんだいひょーとばすくだいひょーでぷれーした。	NO_LABEL
ナバーラ州トゥデーラに生まれ、レアル・マドリードの下部組織で育った。	なばーらしゅーとぅでーらにうまれ、れあるまどりーどのかぶそしきでそだった。	NO_LABEL
1989年、セグンダ・ディビシオンに所属していたレアル・マドリードBからプロデビューし、1990-91シーズンにはUEFAチャンピオンズカップのオーデンセBK戦でトップチームデビューしたが、プリメーラ・ディビシオンでは1試合も出場していない。	NO_PRONOUNCE	NO_LABEL
1991-92シーズンはアルバセテ・バロンピエにレンタル移籍し、1991年10月のアスレティック・ビルバオ戦に途中出場してプリメーラ・ディビシオンデビューした。	NO_PRONOUNCE	NO_LABEL
1993年1月にはセルタ・デ・ビーゴにレンタル移籍し、6試合に出場して1得点を挙げた。	せんきゅうひゃくきゅうじゅうさんねんいちがつにわせるたでびーごにれんたるいせきし、ろくしあいにしゅつじょーしていちとくてんをあげた。	NO_LABEL
1993年夏にはラーヨ・バジェカーノに完全移籍したが、1994年夏にはUDサラマンカに、1995年夏にはRCDエスパニョールにとチームを転々とした。	せんきゅうひゃくきゅうじゅうさんねんなつにわらーよばじぇかーのにかんぜんいせきしたが、せんきゅうひゃくきゅうじゅうよねんなつにわうにおんでぽるてぃーばさらまんかに、せんきゅうひゃくきゅうじゅうごねんなつにわれいあるくるぶでぽるちうえすぱにょーるでばるせろなにとちーむをてんてんとした。	NO_LABEL
セグンダ・ディビシオンに所属していたUDサラマンカではリーグ戦で3得点しか挙げられずにいたが、昇降格プレーオフのアルバセテ・バロンピエ戦では2得点してプリメーラ・ディビシオン昇格に貢献。	せぐんだでぃびしおんにしょぞくしていたうにおんでぽるてぃーばさらまんかでわりーぐせんでさんとくてんしかあげられずにいたが、のぼりこーかくぷれーおふのあるばせてばろんぴえせんでわにとくてんしてぷりめーらでぃびしおんしょーかくにこーけん。	NO_LABEL
RCDエスパニョールでは能力を見せつけ、ラーヨ・バジェカーノ戦でハットトリックを達成するなど13得点を決めてリーグ戦4位に貢献した。	れいあるくるぶでぽるちうえすぱにょーるでばるせろなでわのーりょくをみせつけ、らーよばじぇかーのせんではっととりっくをたっせいするなどじゅうさんとくてんをきめてりーぐせんよんいにこーけんした。	NO_LABEL
1996年夏にアスレティック・ビルバオに移籍し、11シーズンでリーグ戦367試合に出場して115得点を挙げている。	NO_PRONOUNCE	NO_LABEL
1996-97シーズンは自己最高の16得点を奪い、1997-98シーズンはリーグ戦2位に貢献した。	NO_PRONOUNCE	NO_LABEL
その結果1998-99シーズンのUEFAチャンピオンズリーグ出場権を獲得し、同大会では10試合に出場して1得点した。	NO_PRONOUNCE	NO_LABEL
2001-02シーズンは再び16得点を挙げ、2002-03シーズンも14得点を決めた。	NO_PRONOUNCE	NO_LABEL
11シーズンのうち6シーズンで二桁得点を挙げたが、2000年代後半には下部組織出身のフェルナンド・ジョレンテが台頭し、ポジションが重なるウルサイスは2007年夏にチームを離れた。	NO_PRONOUNCE	NO_LABEL
2007年7月19日、ガブリやアルベルト・ルケなどのスペイン人が所属するオランダ・エールディヴィジのアヤックス・アムステルダムと1年契約を結んだ。	NO_PRONOUNCE	NO_LABEL
UEFAチャンピオンズリーグ・グループリーグのスラヴィア・プラハ戦でデビューしたが、わずか3試合に出場しただけで契約満了を迎え、37歳の時に現役引退を発表した。	NO_PRONOUNCE	NO_LABEL
1988年、U-16スペイン代表としてUEFA U-16欧州選手権で優勝した。	NO_PRONOUNCE	NO_LABEL
世代別スペイン代表では通算41試合に出場して21得点と高い得点率を記録している。	せだいべつすぺいんだいひょーでわつーさんよんじゅういちしあいにしゅつじょーしてにじゅういちとくてんとこういとくてんりつをきろくしている。	NO_LABEL
1996年10月9日、チェコ戦でスペイン代表デビューし、2001年までに30試合に出場して8得点した。	せんきゅうひゃくきゅうじゅうろくねんじゅーがつここのか、ちぇこせんですぺいんだいひょーでびゅーし、にせんいちねんまでにさんじゅうしあいにしゅつじょーしてはちとくてんした。	NO_LABEL
1998年にフランスで開催された1998 FIFAワールドカップのメンバーからは漏れたが、2000年にはUEFA欧州選手権2000に出場した。	NO_PRONOUNCE	NO_LABEL
1997年にはバスク代表デビューも果たし、2005年までに7試合に出場して2得点した。	せんきゅうひゃくきゅうじゅうななにわばすくだいひょーでびゅーもはたし、にせんごねんまでにななしあいにしゅつじょーしてにとくてんした。	NO_LABEL
