ヴィクトル・フォン・ラングはオーストリアの物理学者で、結晶学の創始者のひとりである。	NO_PRONOUNCE	NO_LABEL
結晶の面間の角度を測定するゴニオメーターや反射式のガルバノメーターを製作した。	けっしょーのめんかんのかくどをそくていするごにおめーたーやはんしゃしきのがるばのめーたーをせいさくした。	NO_LABEL
ウィーナー・ノイシュタットに生まれた。	うぃーなーのいしゅたっとにうまれた。	NO_LABEL
ウィーン大学で学んだ後、1859年にギーセン大学で結晶の研究で博士号を得るとともに、パリやロンドンの科学者の知己を得た。	うぃーんだいがくでまなんだのち、せんはっぴゃくごじゅうきゅうねんにぎーせんだいがくでけっしょーのけんきゅーではくしごーをえるとともに、ぱりやろんどんのかがくしゃのちきをえた。	NO_LABEL
その後、ハイデルベルクでグスタフ・キルヒホフおよびロベルト・ブンゼンのもとで研究し、パリでアンリ・ヴィクトル・ルニョーのもとで実験物理学を学んだ。	NO_PRONOUNCE	NO_LABEL
1861年にウィーンに戻り、ウィーン大学物理学研究所に入所し、ロンドンのケンジントン博物館、グラーツ大学で働いた後、1866年にウィーン大学物理学研究所の教授となった。	せんはっぴゃくろくじゅういちねんにうぃーんにもどり、うぃーんだいがくぶつりがくけんきゅーじょににゅーしょし、ろんどんのけんじんとんはくぶつかん、ぐらーつだいがくではたらいたのち、せんはっぴゃくろくじゅうろくねんにうぃーんだいがくぶつりがくけんきゅーじょのきょーじゅとなった。	NO_LABEL
1904年にオーストリア度量衡局の所長となり、1915年から1919年の間、オーストリア科学アカデミーの会長を務めた。	せんきゅうひゃくよねんにおーすとりあどりょーこーきょくのしょちょーとなり、せんきゅうひゃくじゅうごねんからせんきゅうひゃくじゅうきゅうねんのま、おーすとりあかがくあかでみーのかいちょーをつとめた。	NO_LABEL
オックスフォード大学の名誉博士号の栄誉を得た。	おっくすふぉーどだいがくのめいよはくしごーのえいよをえた。	NO_LABEL
科学の広い分野を研究したが、生涯を通じて結晶の物理的性質を研究した。	かがくのひろいぶんやをけんきゅーしたが、しょーがいをつーじてけっしょーのぶつりてきせいしつをけんきゅーした。	NO_LABEL
ラングの教えた学生には、フランツ・ゼラフィン・エクスナー、ヨハン・プルイ、エルンスト・レヒャー、アントン・ランパ、フェリックス・エーレンハフト などがいる。	NO_PRONOUNCE	NO_LABEL
鉱物のラング石に命名された。	こーぶつのらんぐせきにめいめいされた。	NO_LABEL
