武蔵野音楽大学附属高等学校は、埼玉県入間市中神の武蔵野音楽大学入間キャンパスにある私立高等学校。	むさしのーんがくだいがくふぞくこーとーがっこーわ、さいたまけんいるましなかがみのむさしのおんがくだいがくいるまきゃんぱすにあるしりつこーとーがっこー。	NO_LABEL
武蔵野音楽大学の附属学校である。	むさしのおんがくだいがくのふぞくがっこーである。	NO_LABEL
設置者は学校法人武蔵野音楽学園。	せっちしゃわがっこーほーじんむさしのーんがくがくえん。	NO_LABEL
