柴山 博5月9日 - 1991年12月29日）は、日本の鉄道・内務官僚、弁護士。	NO_PRONOUNCE	NO_LABEL
官選鹿児島県知事。	かんせんかごしまけんちじ。	NO_LABEL
愛知県出身。	あいちけんしゅっしん。	NO_LABEL
柴山重幸の長男として生まれる。	しばやましげゆきのちょーなんとしてうまれる	NO_LABEL
第八高等学校を卒業。	だいはちこーとーがっこーをそつぎょー。	NO_LABEL
1920年10月、高等試験行政科試験に合格。	せんきゅうひゃくにじゅうねんじゅーがつ、こーとーしけんぎょーせいかしけんにごーかく。	NO_LABEL
1921年、東京帝国大学法学部法律学科を卒業。	せんきゅうひゃくにじゅういちねん、とーきょーていこくだいがくほーがくぶほーりつがっかをそつぎょー。	NO_LABEL
鉄道省に入り鉄道局副参事となる。	てつどーしょーにはいりてつどーきょくふくさんじとなる。	NO_LABEL
1924年、内務省に転じ復興局勤務となる。	せんきゅうひゃくにじゅうよねん、ないむしょーにてんじふっこーきょくきんむとなる。	NO_LABEL
以後、宮崎県事務官、埼玉県事務官、新潟県書記官・学務部長、茨城県書記官・経済部長、徳島県書記官・警察部長、山梨県書記官・総務部長、神奈川県書記官・総務部長、内務省勅任監査官などを歴任。	NO_PRONOUNCE	NO_LABEL
1943年4月、鹿児島県知事に就任。	せんきゅうひゃくよんじゅうさんねしがつ、かごしまけんちじにしゅーにん。	NO_LABEL
戦時下の対応に尽力。	せんじかのたいおーにじんりょく。	NO_LABEL
1945年4月、知事を退任し翌月に退官。	せんきゅうひゃくよんじゅうごねんしがつ、ちじをたいにんしよくげつにたいかん。	NO_LABEL
公職追放となり、その後、弁護士を開業した。	こーしょくついほーとなり、そのご、べんごしをかいぎょーした。	NO_LABEL
