『水たまりに映るセカイ』は、2000年12月21日にリリースされた堀江由衣の1作目のオリジナルアルバム。	NO_PRONOUNCE	NO_LABEL
桜	さくら	NO_LABEL
Insistence	NO_PRONOUNCE	NO_LABEL
おはよう	おはよー	NO_LABEL
ラブリー	らぶりー	NO_LABEL
着心地の悪い恋なんて	きごこちのわるいこいなんて	NO_LABEL
約束〜eternal promise〜	NO_PRONOUNCE	NO_LABEL
洗濯機の中から	せんたくきのなかから	NO_LABEL
愛のカタチ	あいのかたち	NO_LABEL
スコールクロール	すこーるくろーる	NO_LABEL
Happy happy * rice shower -type yui-	NO_PRONOUNCE	NO_LABEL
I wish	あいうぃっしゅ	NO_LABEL
Happy love to you	はっぴーいこーるらぶとぅーゆー	NO_LABEL
