北戸田駅は、埼玉県戸田市大字新曽字芦原にある、東日本旅客鉄道の駅である。	きたとだえきわ、さいたまけんとだしだいじにーぞじあわらにある、ひがしにほんりょかくてつどーのえきである。	NO_LABEL
駅番号はJA 20。	NO_PRONOUNCE	NO_LABEL
当駅に乗り入れている路線は、線路名称上は東北本線であるが、運転系統上は埼京線として案内される。	とーえきにのりいれているろせんわ、せんろめいしょーじょーわとーほくほんせんであるが、うんてんけいとーじょーわさいきょーせんとしてあんないされる。	NO_LABEL
当初の計画では、通勤新線は笹目川の東側に建設され、浦和市の辻小学校東側の辻5丁目付近に新駅が建設される予定だった。	NO_PRONOUNCE	NO_LABEL
しかし、地元住民による反対運動が発生し、通勤新線の線路が計画よりも西側の現在の位置に建設されることになった。	しかし、じもとじゅーみんによるはんたいうんどーがはっせいし、つーきんしんせんのせんろがけいかくよりもにしがわのげんざいのいちにけんせつされることになった。	NO_LABEL
そのため、新駅は当初計画になかった戸田市新曽に設置されることになり、そこに当駅が建設された。	そのため、しんえきわとーしょけいかくになかったとだしにーぞにせっちされることになり、そこにとーえきがけんせつされた。	NO_LABEL
島式ホーム1面2線を持つ高架駅である。	NO_PRONOUNCE	NO_LABEL
戸田公園駅管理の業務委託駅。	とだこーえんえきかんりのぎょーむいたくえき。	NO_LABEL
指定席券売機、自動改札機が設置されている。	していせきけんばいき、じどーかいさつきがせっちされている。	NO_LABEL
なお、みどりの窓口は指定席券売機の設置に伴い2007年10月31日をもって閉鎖された。	なお、みどりのまどぐちわしていせきけんばいきのせっちにともないにせんななねんじゅーがつさんじゅういちにちをもってへいさされた。	NO_LABEL
当駅付近で高架の東京外環自動車道を更に跨ぐため、埼京線では最も地上から高い位置にある駅である。	とーえきふきんでこーかのとーきょーがいかんじどーしゃどーをさらにまたぐため、さいきょーせんでわもっともちじょーからたかいいちにあるえきである。	NO_LABEL
2013年まで、改札からホームまで直接通じている階段が存在しなかったため、踊り場まではエスカレーターのみが通じていた。	にせんじゅうさんねんまで、かいさつからほーむまでちょくせつつーじているかいだんがそんざいしなかったため、おどりばまでわえすかれーたーのみがつーじていた。	NO_LABEL
その他に、改札とホームを結ぶエレベーターが設置されている。	そのたに、かいさつとほーむをむすぶえれべーたーがせっちされている。	NO_LABEL
並行して通る東北新幹線は、この近辺では埼京線より位置が低くなっている。	へいこーしてとーるとーほくしんかんせんわ、このきんぺんでわさいきょーせんよりいちがひくくなっている。	NO_LABEL
1985年9月30日開業の埼京線の各駅には、駅ごとに色が付けられた。	せんきゅうひゃくはちじゅうごねんくがつさんじゅうにちかいぎょーのさいきょーせんのかくえきにわ、えきごとにいろがつけられた。	NO_LABEL
これは現在も引き継がれている。	これわげんざいもひきつがれている。	NO_LABEL
当駅のカラーはオレンジ色である。	とーえきのからーわおれんじいろである。	NO_LABEL
2016年度の1日平均乗車人員は20,560人である。	NO_PRONOUNCE	NO_LABEL
埼京線内快速および通勤快速通過駅の中では浮間舟渡駅に次ぐ利用者数である。	さいきょーせんないかいそくおよびつーきんかいそくつーかえきのなかでわうきまふなどえきにつぐりよーしゃすーである。	NO_LABEL
近くに住宅街や高校、工場があるので、朝夕は特に混雑する。	ちかくにじゅーたくがいやこーこー、こーじょーがあるので、あさゆーわとくにこんざつする。	NO_LABEL
近年の1日平均乗車人員の推移は下表のとおりである。	きんねんのついたちへいきんじょーしゃじんいんのすいいわかひょーのとーりである。	NO_LABEL
年度全体の乗車人員を365で除して1日平均乗車人員を求めており、計算で生じた小数点以下の値は切り捨てているため、定期外と定期の和は必ずしも合計と一致しない。	NO_PRONOUNCE	NO_LABEL
西口に、バス停留所があり、国際興業バスが1系統乗り入れるほか、戸田市のコミュニティバス「toco」も乗り入れている。	NO_PRONOUNCE	NO_LABEL
なお、このほかの系統は、駅東側へ2分ほど歩いたところにある「北戸田駅入口」バス停を通る。	NO_PRONOUNCE	NO_LABEL
北戸田駅	きたとだえき	NO_LABEL
北戸田駅入口	きたとだえきいりぐち	NO_LABEL
