ショタ・ルスタヴェリは、12世紀・13世紀のグルジアの詩人。	NO_PRONOUNCE	NO_LABEL
長編叙事詩『豹皮の騎士』を残した。	NO_PRONOUNCE	NO_LABEL
その生涯について詳しいことは知られていない。	そのしょーがいについてくわしいことわしられていない。	NO_LABEL
タマル女王に仕えた官吏で、『豹皮の騎士』はタマル女王に捧げられたものである。	NO_PRONOUNCE	NO_LABEL
『豹皮の騎士』はトビリシにおいて1712年に初めて印刷され、現在までに日本語を含む数多くの外国語に翻訳されている。	NO_PRONOUNCE	NO_LABEL
グルジアでは、芸術・文学の分野で偉大な功績のあった者に贈られる最高の賞として、ショタ・ルスタヴェリ賞がある。	NO_PRONOUNCE	NO_LABEL
また、グルジアの首都トビリシの中心の大通りはルスタヴェリ通りと呼ばれる。	NO_PRONOUNCE	NO_LABEL
そのほかにも、文学研究所や地下鉄の駅などに彼の名が冠されている。	そのほかにも、ぶんがくけんきゅーじょやちかてつのえきなどにかれのながかんされている。	NO_LABEL
また、現在流通している100ラリ紙幣に肖像が使用されている。	NO_PRONOUNCE	NO_LABEL
