切り髪は日本の女性の髪形。	きりかみわにっぽんのじょせいのかみがた。	NO_LABEL
江戸時代後期の身分の高い武家の後家が結った。	えどじだいこーきのみぶんのたかいぶけのごけがゆった。	NO_LABEL
正面から見ると通常の女髷と大きな違いはないが、後ろ髪を短く切り払っているため髷を結っていない。	しょーめんからみるとつーじょーのじょまげとおーきなちがいわないが、うしろがみをみじかくきりはらっているためまげをゆっていない。	NO_LABEL
垂髪の系統にあたる。	うないのけいとーにあたる。	NO_LABEL
前髪、鬢、つとを取ってはいるものの、肝心の髷がないため、「元結掛け垂髪」が短くなったものと見なされる。	NO_PRONOUNCE	NO_LABEL
短く切った後ろ髪は、髷を結う代わりに組紐で根元を巻いて垂らしておく。	みじかくきったうしろがみわ、まげをゆうかわりにくみひもでねもとをまいてたらしておく。	NO_LABEL
服喪の髪形であるため、髪飾りといえる物は櫛程度しか使わない。	ふくものかみがたであるため、かみかざりといえるものわくしていどしかつかわない。	NO_LABEL
