月嶋 カリンは、日本の女性歌手である。	つきしまかりんわ、にっぽんのじょせいかしゅである。	NO_LABEL
宮城県石巻市出身。	みやぎけんいしのまきししゅっしん。	NO_LABEL
ブラックミュージックを愛するシンガーソングライター。	ぶらっくみゅーじっくをあいするしんがーそんぐらいたー。	NO_LABEL
元Calynとして活動。	もとかりんとしてかつどー。	NO_LABEL
元DGEMのボーカリスト。	もとじぇむのぼーかりすと。	NO_LABEL
現在はマネージメント事務所LAST TRAIN GETTERに所属している。	NO_PRONOUNCE	NO_LABEL
"シングルカットされていないタイアップ曲を表示。	NO_PRONOUNCE	NO_LABEL
"	NO_PRONOUNCE	NO_LABEL
