チェイフ・ハミドゥ・カーン・マティアラは、セネガルのサンルイ州ダガナ出身の政治家、軍人、経済学者。	ちぇいふはみどぅかーんまてぃあらわ、せねがるのさんるいしゅーだがなしゅっしんのせいじか、ぐんじん、けいざいがくしゃ。	NO_LABEL
セネガル社会党、進歩勢力同盟に所属していた。	せねがるしゃかいとー、しんぽせいりょくどーめいにしょぞくしていた。	NO_LABEL
2009年5月15日、ダカール州のダカールにて亡くなっている。	にせんきゅうねんごがつじゅうごにち、だかーるしゅーのだかーるにてなくなっている。	NO_LABEL
69歳だった。	ろくじゅうきゅうさいだった。	NO_LABEL
