内藤 道雄は、ドイツ文学者、京都大学名誉教授。	ないとーみちおわ、どいつぶんがくしゃ、きょーとだいがくめいよきょーじゅ。	NO_LABEL
姫路市生まれ。	ひめじしうまれ。	NO_LABEL
京都大学大学院修士課程独文専攻修了。	きょーとだいがくだいがくいんしゅーしかていどくぶんせんこーしゅーりょー。	NO_LABEL
名古屋大学教養部講師、助教授、74年京大教養部助教授、教授、98年定年退官、名誉教授、京都外国語大学教授、2009年退職。	なごやだいがくきょーよーぶこーし、じょきょーじゅ、ななじゅうよんねんきょーだいきょーよーぶじょきょーじゅ、きょーじゅ、きゅうじゅうはちねんていねんたいかん、めいよきょーじゅ、きょーとがいこくごだいがくきょーじゅ、にせんきゅうねんたいしょく。	NO_LABEL
