Rensaは、宮城県仙台市青葉区一番町のTICビル7階にあるライブハウスである。	NO_PRONOUNCE	NO_LABEL
仙台市都心部のアーケード商店街「一番町四丁目商店街」にあり、仙台市内のライブハウスとしては開業時点でZepp Sendaiに次ぐ規模だったが、2012年7月1日にZepp Sendaiが閉館したため、その後は市内最大となっている。	NO_PRONOUNCE	NO_LABEL
コンサートのほか講演会や映画の上映会、文化行事などを開催している。	こんさーとのほかこーえんかいやえいがのじょーえいかい、ぶんかぎょーじなどをかいさいしている。	NO_LABEL
ビルを所有する東一センタービルとイベント企画会社のジー・アイ・ピーによる共同出資会社である株式会社レンサが運営する。	NO_PRONOUNCE	NO_LABEL
また、仙台市の「広域集客型産業立地促進助成金」の交付対象となっている。	NO_PRONOUNCE	NO_LABEL
『レンサ』の名称の由来はTICビルの再開発前に存在した飲食店街、通称「東一連鎖街」から来ており、集まる人々とアーティストの想いをつなぎ、そこに生まれる「幸せの連鎖」をつなげていきたいという想いが込められている。	NO_PRONOUNCE	NO_LABEL
