中山 明日実は日本のタレント、ラジオパーソナリティ、アナウンサー。	なかやまあすみわにっぽんのたれんと、らじおぱーそなりてぃ、あなうんさー。	NO_LABEL
生島企画室所属。	いくしまきかくしつしょぞく。	NO_LABEL
ハーモニープロモーション業務提携。	はーもにーぷろもーしょんぎょーむていけい。	NO_LABEL
埼玉県さいたま市出身。	さいたまけんさいたまししゅっしん。	NO_LABEL
学生時代はバスケットボールに打ち込み、として児玉町立児玉中学校をキャプテンとして全中優勝に導いた。	がくせいじだいわばすけっとぼーるにうちこみ、としてこだまちょーりつこだまちゅーがっこーをきゃぷてんとしてぜんちゅーゆーしょーにみちびいた。	NO_LABEL
高校は福岡県の中村学園女高に進学。	こーこーわふくおかけんのなかむらがくえんおんなだかにしんがく。	NO_LABEL
1年生からスタートの座を獲得。	いちねんせいからすたーとのざをかくとく。	NO_LABEL
2年時から2年間キャプテンを務め、2年時のインターハイ、ベスト4、国体準優勝、選抜ベスト8。	にねんじからにねんかんきゃぷてんをつとめ、にねんじのいんたーはい、べすとふぉー、こくたいじゅんゆうしょー、せんばつべすとえいと。	NO_LABEL
また3年時はインターハイはベスト8と結果を残せなかったものの、国体で準優勝、最後の大会であるウィンターカップで優勝する。	またさんねんじわいんたーはいわべすとえいととけっかをのこせなかったものの、こくたいでじゅんゆうしょー、さいごのたいかいであるうぃんたーかっぷでゆーしょーする。	NO_LABEL
高校時代のチームメイトに藤吉佐緒里がいる。	こーこーじだいのちーむめいとにふじよしさおりがいる。	NO_LABEL
高校卒業後は奨学金を受けて米国のユタバレー州立大学へバスケットボール留学のため渡米。	こーこーそつぎょーごわしょーがくきんをうけてべいこくのゆたばれーしゅーりつだいがくえばすけっとぼーるりゅーがくのためとべい。	NO_LABEL
入学後、1年生からレギュラーとして出場し、4年生の時にはチームキャプテンを務め、カンファレンストーナメントで優勝しMVPを受賞するなど卒業まで活躍した。	にゅーがくご、いちねんせいかられぎゅらーとしてしゅつじょーし、よんねんせいのときにわちーむきゃぷてんをつとめ、かんふぁれんすとーなめんとでゆーしょーしえむぶいぴーをじゅしょーするなどそつぎょーまでかつやくした。	NO_LABEL
実業団やプロ入りはせずに大学卒業を機に競技から離れる。	じつぎょーだんやぷろいりわせずにだいがくそつぎょーをきにきょーぎからはなれる。	NO_LABEL
帰国後はテレビ局での通訳・翻訳作業のアルバイトを続けながら、スポーツ大会でのアナウンス業務などを経験し、2011年2月16日にJ-WAVE「GROOVE LINE Z」の代打アシスタントとして出演。	NO_PRONOUNCE	NO_LABEL
同月、アナウンサー志望であったこともあり生島企画室に所属、ハーモニープロモーション業務提携が決まり、4月からは代打アシスタントとして出演した「GROOVE LINE Z」のレギュラーアシスタントとして2013年3月まで出演していた。	NO_PRONOUNCE	NO_LABEL
2015年7月、自身のブログや出演番組などで結婚とシンガポールへの移住を発表。	にせんじゅうごねんしちがつ、じしんのぶろぐやしゅつえんばんぐみなどでけっこんとしんがぽーるえのいじゅーをはっぴょー。	NO_LABEL
所属事務所に籍を置いたまま、活動休止。	しょぞくじむしょにせきをおいたまま、かつどーきゅーし。	NO_LABEL
