エル・ペルーは、グアテマラのペテン県北西部にある古代マヤの遺跡。	えるぺるーわ、ぐあてまらのぺてんけんほくせいぶにあるこだいまやのいせき。	NO_LABEL
紋章文字をもとに古代の名前はワカであったと考えられており、ワカまたはエル・ペルー＝ワカの名でも呼ばれる。	NO_PRONOUNCE	NO_LABEL
ティカルの西72キロメートルほどの場所にあり、ティカルおよびカラクムルの二大国と複雑な歴史的関係を持ったことで知られる。	NO_PRONOUNCE	NO_LABEL
エル・ティグレ湖国立公園 の中に位置する。	NO_PRONOUNCE	NO_LABEL
エル・ペルーは高さ100メートルの断崖絶壁の上に作られている。	えるぺるーわたかさひゃくめーとるのだんがいぜっぺきのうえにつくられている。	NO_LABEL
少し南をウスマシンタ川の支流であるサン・ペドロ川が流れており、エル・ペルーはカカオや織物を運ぶ東西交易路の要所に位置していた。	すこしみなみをうすましんたがわのしりゅーであるさんぺどろかわがながれており、えるぺるーわかかおやおりものをはこぶとーざいこーえきろのよーしょにいちしていた。	NO_LABEL
遺物は非常に多く、建造物の数は900を越える。	NO_PRONOUNCE	NO_LABEL
40ほどの石碑と祭壇がある。	NO_PRONOUNCE	NO_LABEL
エル・ペルーはひどい略奪にあっており、1970年代にイアン・グレアムが訪れたとき、ほとんどの遺物はバラバラにされるかひどく破壊されていた。	えるぺるーわひどいりゃくだつにあっており、せんきゅうひゃくななじゅうねんだいにいあんぐれあむがおとずれたとき、ほとんどのいぶつわばらばらにされるかひどくはかいされていた。	NO_LABEL
盗難にあった石碑はアメリカ合衆国、メキシコ、ヨーロッパのあちこちの博物館が所蔵している。	とーなんにあったせきひわあめりかがっしゅーこく、めきしこ、よーろっぱのあちこちのはくぶつかんがしょぞーしている。	NO_LABEL
エル・ペルーは形成期後期に定住がはじまり、古典期前期に急速に発達した。	えるぺるーわけいせいきこーきにていじゅーがはじまりこてんきぜんきにきゅーそくにはったつした。	NO_LABEL
石碑15によれば、378年にテオティワカンの将軍シヤフ・カックがエル・ペルーを征服し、新しい王朝を開いた。	NO_PRONOUNCE	NO_LABEL
その日付はティカルが征服される8日前であり、シヤフ・カックはおそらく西から東に進軍してきたと考えられる。	そのひずけわてぃかるがせいふくされるようかまえであり、しやふかっくわおそらくにしからひがしにしんぐんしてきたとかんがえられる。	NO_LABEL
2013年に解読された石碑44号は564年のもので、ワオーム・ウチャブ・ツィキン王によって、556年に死んだ父王チャック・トック・イチャークを賛美するために建てられた。	NO_PRONOUNCE	NO_LABEL
この時期はティカルに石碑が建てられなかった暗黒時代に属するために重要な発見と考えられている。	このじきわてぃかるにせきひがたてられなかったあんこくじだいにぞくするためにじゅーよーなはっけんとかんがえられている。	NO_LABEL
チャック・トック・イチャークという名の支配者がティカルにも見えることから、この時期のエル・ペルーはティカルに従属していたのではないかと考えられる。	NO_PRONOUNCE	NO_LABEL
古典期後期になると、エル・ペルーはウスマシンタ川の交易路を確保しようとするカラクムルに従属するようになった。	こてんきこーきになると、えるぺるーわうすましんたがわのこーえきろをかくほしようとするからくむるにじゅーぞくするよーになった。	NO_LABEL
7世紀末から8世紀のはじめの支配者であるキニチ・バラムはカラクムルからやってきたカベル女王と結婚した。	NO_PRONOUNCE	NO_LABEL
女王は「将軍」と呼ばれて大きな権勢を振るった。	NO_PRONOUNCE	NO_LABEL
2012年に発見された墓から出土したアラバスターの壺にはカベル女王の名が記されており、カベル女王の墓と推定されている。	にせんじゅうにねんにはっけんされたはかからしゅつどしたあらばすたーのつぼにわかべるじょおーのながしるされており、かべるじょおーのはかとすいていされている。	NO_LABEL
ユクノーム・チェン大王の没後、ティカルが732年ごろにカラクムルを征服し、その10年後にエル・ペルーのキニチ・バラムもティカルの手に落ちた。	NO_PRONOUNCE	NO_LABEL
ティカルによる攻撃の後もしばらく都市は継続した。	てぃかるによるこーげきののちもしばらくとしわけいぞくした。	NO_LABEL
もっとも新しい年代の石碑は801年のものである。	もっともあたらしいねんだいのせきひわはっぴゃくいちねんのものである。	NO_LABEL
その後に他の都市から攻撃されて滅亡したらしい。	そのごにたのとしからこーげきされてめつぼーしたらしい。	NO_LABEL
エル・ペルーは1970年代にイアン・グレアムが訪れて調査を行った。	えるぺるーわせんきゅうひゃくななじゅうねんだいにいあんぐれあむがおとずれてちょーさをおこなった。	NO_LABEL
2003年からセントルイス・ワシントン大学のデイヴィッド・フライデルとグアテマラ・デル・バジェ大学のエクトル・エスコベドらの率いるアメリカ合衆国とグアテマラの共同発掘調査が行われている。	NO_PRONOUNCE	NO_LABEL
