イーゴリー・スルキスは、ソビエト連邦キエフ出身の実業家。	NO_PRONOUNCE	NO_LABEL
ディナモ・キエフの会長。	でぃなもきえふのかいちょー。	NO_LABEL
彼の兄弟であるグリゴリー・スルキスはウクライナサッカー連盟の会長である。	NO_PRONOUNCE	NO_LABEL
軍医の父がいる家庭で生まれる。	ぐんいのちちがいるかていでうまれる	NO_LABEL
彼の姉であるリマ・ヤニナはキエフのサッカー解説者である。	NO_PRONOUNCE	NO_LABEL
彼の家族は中央アジアからキエフに移り住んだ。	かれのかぞくわちゅーおーあじあからきえふにうつりすんだ。	NO_LABEL
2006年のカルパティ・リヴィウとのカップ戦で、反ユダヤ主義のカルパティ・リヴィウサポーター達から侮辱を受けた。	NO_PRONOUNCE	NO_LABEL
その結果を踏まえ、日本円で約55万円の罰金をそのサポーター達に課した。	そのけっかをふまえ、にほんえんでやくごじゅうごまんえんのばっきんをそのさぽーたーたちにかした。	NO_LABEL
