丸山町は、愛知県名古屋市千種区の町名。	まるやまちょーわ、あいちけんなごやしちくさくのちょーめい。	NO_LABEL
1～3丁目が存在する。	NO_PRONOUNCE	NO_LABEL
郵便番号は464-0843。	NO_PRONOUNCE	NO_LABEL
人口は1496人。	NO_PRONOUNCE	NO_LABEL
名古屋市千種区南部に位置し、東は御棚町、西は春岡、南は日進通、北は桐林町に接する。	なごやしちくさくなんぶにいちし、ひがしわおたなちょー、にしわはるおか、みなみわにっしんとーり、きたわきりばやしちょーにせっする。	NO_LABEL
江戸時代、当地周辺は丸山村に属していた。	えどじだい、とーちしゅーへんわまるやまむらにぞくしていた。	NO_LABEL
丸山村は1876年に千種村・田代村の各一部となっている。	NO_PRONOUNCE	NO_LABEL
山の手の状態を指して丸山と呼ぶようになった説や、丸形の地形であることから呼ばれるようになった説がある。	やまのてのじょーたいをさしてまるやまとよぶよーになったせつや、まるがたのちけいであることからよばれるよーになったせつがある。	NO_LABEL
