ヴェストファーレン福音主義教会（）はドイツ福音主義教会に加盟する20の福音主義州教会の一つである。	NO_PRONOUNCE	NO_LABEL
他の州教会と同様に、ヴェストファーレン福音主義教会も公法上の社団である。	NO_PRONOUNCE	NO_LABEL
州教会事務局をノルトライン・ヴェストファーレン州のビーレフェルトに置いている。	NO_PRONOUNCE	NO_LABEL
ヴェストファーレン福音教会には約231万の教会員がおり、28の教会地区と501の教会共同体によって運営されている。	NO_PRONOUNCE	NO_LABEL
501の教会共同体には約800の地域教会と小礼拝堂が属しており、約1300人の牧師と9万人の信徒協力者たちによって礼拝がおこなわれている。	NO_PRONOUNCE	NO_LABEL
ヴェストファーレン福音主義教会はルター派と改革派教会による合同教会であり、福音主義合同教会に加盟している。	NO_PRONOUNCE	NO_LABEL
神学アカデミーと呼ばれる州教会研修所がウナ郡シュヴェルテにあり、州教会が設立した教会音楽専門大学がヘルフォルトにある。	NO_PRONOUNCE	NO_LABEL
かつてのプロイセン王国ヴェストファーレン州だった地域が、ヴェストファーレン福音主義教会の管轄地域である。	NO_PRONOUNCE	NO_LABEL
第2次世界大戦後、ノルトライン・ヴェストファーレン州が設立され、 アルンスベルク行政管区、デトモルト行政管区、ミュンスター行政管区がこの州教会の管轄地域になっている。	NO_PRONOUNCE	NO_LABEL
プロイセン王国ヴェストファーレン州領邦教会時代の管轄地域とは一部異なっている。	NO_PRONOUNCE	NO_LABEL
ニーダーザクセン州の自治体であるディープホルツ郡シュテムスホルンとオスナブリュック郡バート・エッセンのビュッシャーハイデ地区は、今日はヴェストファーレン福音主義教会の管轄地域になっている。	NO_PRONOUNCE	NO_LABEL
ノルトライン・ヴェストファーレン州のホーホザウアーラント郡ハレンベルクの住民はヘッセン＝ナッサウ福音主義教会 ブロムスキルヒェン教会共同体に属している。	NO_PRONOUNCE	NO_LABEL
ラインラント＝プファルツ州のアルテンキルヒェン郡ムダースバッハとブラヒバッハはヴェストファーレン福音主義教会の管轄地域に属している。	NO_PRONOUNCE	NO_LABEL
リッペ郡はヴェストファーレンの飛び地リュクデのような一部を除いてリッペ侯国に属していたため、ヴェストファーレン福音主義教会ではなくリッペ州教会の管轄地になっている。	NO_PRONOUNCE	NO_LABEL
ヴェストファーレン福音主義教会の管轄地は1800年以前において、有力領邦に組み込まれなかったため、複雑な変遷を経ており、宗教改革がかなり早くに導入された地域を含んでいた。	NO_PRONOUNCE	NO_LABEL
歴史的には神聖ローマ帝国ヴェストファーレン・クライスに属し、聖界諸侯ケルン大司教領、ヴェストファーレン公国、ミュンスター大司教領、パーダーボルン司教領、ミンデン司教領、マルク伯領、ラーヴェンスベルク伯領とナッサウ‐ジーゲン伯領に分かれていた。	NO_PRONOUNCE	NO_LABEL
聖界諸侯領ミンデン司教領の大半の住民は宗教改革の影響を受けずローマ・カトリック教会の信仰を守り続けたが、ヴェストファーレンの大半の地域は宗教改革を受容し、ルター派が大きな力をもった。	NO_PRONOUNCE	NO_LABEL
しかし、ジーゲンとその周辺のジーガーラント、ヴィトゲンシュタイン伯領、テックレンブルク伯領は宗教改革導入時に、改革派教会の影響を強く受けた。	NO_PRONOUNCE	NO_LABEL
宗教改革導入に際して、この地域にある諸都市が大きな役割を担った。	しゅーきょーかいかくどーにゅーにさいして、このちいきにあるしょとしがおーきなやくわりをになった。	NO_LABEL
例えば、ミンデン、ヘルフォルト、ゾーストとドルトムントのような都市である。	たとえば、みんでん、へるふぉると、ぞーすととどるとむんとのよーなとしである。	NO_LABEL
マルク伯領、ラーヴェンスベルクとミンデンは17世紀、テックレンブルクは18世紀にブランデンブルク＝プロイセンに併合され、その周辺地域も1803年の帝国代表者会議主要決議以降、もしくはフランス支配が終わった1815年のウィーン会議終了以降プロイセン王国に併合され、ミュンスターを県都とするプロイセン王国ヴェストファーレン県に組み込まれた。	NO_PRONOUNCE	NO_LABEL
この時代において、ヴェストファーレン県の教会組織が形成された。	NO_PRONOUNCE	NO_LABEL
宗務局がミュンスターに置かれた。	しゅーむきょくがみゅんすたーにおかれた。	NO_LABEL
プロイセンにおける福音主義教会の教会統治者はヴェストファーレン県においてもホーエンツォレルン家出身のプロイセン王であった。	NO_PRONOUNCE	NO_LABEL
1817年の宗教改革記念祭に際して、フリードリヒ・ヴィルヘルム3世はルター派と改革派教会を合同したプロイセン福音主義教会の結成を命じた。	NO_PRONOUNCE	NO_LABEL
この合同教会成立によって、プロイセンの福音主義信徒は聖餐を共にすることになった。	このごーどーきょーかいせいりつによって、ぷろいせんのふくいんしゅぎしんとわせいさんをともにすることになった。	NO_LABEL
このプロイセン王の命令はルター派と改革派教会共同体において幅広く支持された結果、合同に関する協定が結ばれ、礼拝だけでなく教会法的にも一緒になった。	このぷろいせんおーのめいれいわるたーはとかいかくはきょーかいきょーどーたいにおいてはばひろくしじされたけっか、ごーどーにかんするきょーていがむすばれ、れいはいだけでなくきょーかいほーてきにもいっしょになった。	NO_LABEL
ナッサウとバーデンでの教会合同時とは違い、プロイセンにおける教会合同に際して、強い批判が起きたため、ルター派と改革派教会の信仰告白を一つにした教憲を制定することが出来なかった。	なっさうとばーでんでのきょーかいごーどーじとわちがい、ぷろいせんにおけるきょーかいごーどーにさいして、つよいひはんがおきたため、るたーはとかいかくはきょーかいのしんこーこくはくをひとつにしたきょーけんをせいていすることができなかった。	NO_LABEL
ルター派と改革派教会共同体は自派固有の信仰告白をそのまま保持しながら、プロイセン王国内において、合同福音主義教会であるプロイセン福音主義教会が成立した。	るたーはとかいかくはきょーかいきょーどーたいわじはこゆーのしんこーこくはくをそのままほじしながら、ぷろいせんおーこくないにおいて、ごーどーふくいんしゅぎきょーかいであるぷろいせんふくいんしゅぎきょーかいがせいりつした。	NO_LABEL
教会名称は何度も変更されるが、1922年になって古プロイセン合同福音主義教会と言う名称に落ち着くことになった。	きょーかいめいしょーわなんどもへんこーされるが、せんきゅうひゃくにじゅうにねんになってこぷろいせんごーどーふくいんしゅぎきょーかいというめいしょーにおちつくことになった。	NO_LABEL
1921年以前の段階で、プロイセン州の福音主義教会はブランデンブルク、東プロイセン、ポンメルン、ポーゼン、ザクセン、シュレージエン、西プロイセン、ヴェストファーレンというキルヘンプロヴィンツごとに分けられていた。	NO_PRONOUNCE	NO_LABEL
キルヘンプロヴィンツごとに役員会が置かれ、教会運営を担っていた。	NO_PRONOUNCE	NO_LABEL
ヴェストファーレンの場合、ミュンスターに宗務局が置かれ運営された。	NO_PRONOUNCE	NO_LABEL
1819年にリップシュタットでヴェストファーレン・キルヘンプロヴィンツ教会総会が開催され、プレゼスと呼ばれる総会議長が選出された。	NO_PRONOUNCE	NO_LABEL
しかしながら、実際の教会運営はミュンスターにいる宗務局が担った。	しかしながら、じっさいのきょーかいうんえいわみゅんすたーにいるしゅーむきょくがになった。	NO_LABEL
当初のヴェストファーレン・キルヘンプロヴィンツ議長職は兼職であったが、その後、常勤職になった。	NO_PRONOUNCE	NO_LABEL
1835年3月、ヴェストファーレン・キルヘンプロヴィンツ教会はラインラント教会と共に教憲を採択した。	NO_PRONOUNCE	NO_LABEL
1855年に教憲に信仰告白条項が導入され、ルター派、改革派教会、合同教会の信仰告白が併存する形で明記されたため、合同教会であっても個々の教会共同体は従来の信仰告白を保持することになった。	せんはっぴゃくごじゅうごねんにきょーけんにしんこーこくはくじょーこーがどーにゅーされ、るたーは、かいかくはきょーかい、ごーどーきょーかいのしんこーこくはくがへいそんするかたちでめいきされたため、ごーどーきょーかいであってもここのきょーかいきょーどーたいわじゅーらいのしんこーこくはくをほじすることになった。	NO_LABEL
キルヘンプロヴィンツ教会宗務局と議長がミュンスターに常置する形で、教会運営が行われていた。	NO_PRONOUNCE	NO_LABEL
当時、牧師のトップとして霊的指導をする総地区長と信徒代表としての総会議長職が置かれた。	とーじ、ぼくしのとっぷとしてれいてきしどーをするそーちくちょーとしんとだいひょーとしてのそーかいぎちょーしょくがおかれた。	NO_LABEL
1850年にプロイセン福音主義教会の最高宗務局がベルリンに置かれた。	せんはっぴゃくごじゅうねんにぷろいせんふくいんしゅぎきょーかいのさいこーしゅーむきょくがべるりんにおかれた。	NO_LABEL
プロイセン王国は1864年にシュレスヴィヒおよびホルシュタイン公国、1866年には、ヘッセン、ナッサウとハノーファーを併合したが、これらの領邦にあった福音主義教会は独立を維持し、プロイセンの合同教会組織には組み込まれなかった。	NO_PRONOUNCE	NO_LABEL
第1次世界大戦後、ドイツ帝国が終焉すると同時に、領主による教会支配も終わった。	だいいちじせかいたいせんご、どいつていこくがしゅーえんするとどーじに、りょーしゅによるきょーかいしはいもおわった。	NO_LABEL
その結果、プロイセンの領邦教会は、教会統治の変更を強いられた。	そのけっか、ぷろいせんのりょーほうきょーかいわ、きょーかいとーちのへんこーをしいられた。	NO_LABEL
古プロイセン領邦教会は1922年に新教憲を制定し、古プロイセン合同福音主義教会の組織は民主化された。	こぷろいせんりょーほうきょーかいわせんきゅうひゃくにじゅうにねんにしんきょーけんをせいていし、こぷろいせんごーどーふくいんしゅぎきょーかいのそしきわみんしゅかされた。	NO_LABEL
1922年以降、9つのそれぞれのキルヘンプロヴィンツは常議員会の下で運営されるようになった。	NO_PRONOUNCE	NO_LABEL
常議員は地区総会で投票によって選出された。	つねぎいんわちくそーかいでとーひょーによってせんしゅつされた。	NO_LABEL
教会宗務局はキルヘンプロヴィンツの運営機関になり、高位聖職者である総地区長と実務家たちによって構成された。	NO_PRONOUNCE	NO_LABEL
総地区長は役員会議長と教会総会議長を兼ねる大きな権限が与えられていた。	そーちくちょーわやくいんかいぎちょーときょーかいそーかいぎちょーをかねるおーきなけんげんがあたえられていた。	NO_LABEL
教会運営変更のための教憲改正が1923年11月6日に可決され、1924年12月1日に施行された。	きょーかいうんえいへんこーのためのきょーけんかいせいがせんきゅうひゃくにじゅうさんねんじゅーいちがつむいかにかけつされ、せんきゅうひゃくにじゅうよねんじゅーにがつついたちにしこーされた。	NO_LABEL
ナチス・ドイツの統治時期において、ヴェストファーレンの福音主義教会は数少ない無傷の教会と見なされていた。	NO_PRONOUNCE	NO_LABEL
教会内の親ナチス勢力のドイツ的キリスト者はこの地域では影響力を長く持たなかったからである。	きょーかいないのしんなちすせいりょくのどいつてききりすとしゃわこのちいきでわえいきょーりょくをながくもたなかったからである。	NO_LABEL
1933年から1936年の3年間だけ、ドイツ的キリスト者でナチ党員ブルーノ・アドラーがヴェストファーレン教会監督として統治した。	NO_PRONOUNCE	NO_LABEL
第2次世界大戦後の1947年におこなわれたプロイセン州の解消後も、古プロイセン合同福音主義教会に属する6州教会はそれぞれの独立を保った。	NO_PRONOUNCE	NO_LABEL
それらは全てドイツ福音主義教会に加盟した。	それらわすべてどいつふくいんしゅぎきょーかいにかめいした。	NO_LABEL
1945年6月13日に、教会名称をヴェストファーレン福音主義教会に変更し、1953年12月1日に新教憲を採択し、翌1954年4月1日に施行した。	NO_PRONOUNCE	NO_LABEL
キルヘンプロヴィンツ時代に3人いた最高責任者は、戦後の再出発後はプレゼス1人にまとめられた。	NO_PRONOUNCE	NO_LABEL
戦後、最初のプレゼスに就任したのはクラウス・コッホであった。	NO_PRONOUNCE	NO_LABEL
彼は1927年から1934年まで総会議長を務めており、ドイツ的キリスト者による議長解職後は1934年から1945年までこの地の告白教会の指導者であった。	かれわせんきゅうひゃくにじゅうななねんからせんきゅうひゃくさんじゅうよねんまでそーかいぎちょーをつとめており、どいつてききりすとしゃによるぎちょーかいしょくごわせんきゅうひゃくさんじゅうよねんからせんきゅうひゃくよんじゅうごねんまでこのちのこくはくきょーかいのしどーしゃであった。	NO_LABEL
事務部門もミュンスターからビーレフェルトに移転し州教会事務局という名称になった。	じむぶもんもみゅんすたーからびーれふぇるとにいてんししゅーきょーかいじむきょくとゆうめいしょーになった。	NO_LABEL
州教会本部事務局はビーレフェルトに新庁舎を建設し、1956年4月26日に献堂式がおこなわれた。	しゅーきょーかいほんぶじむきょくわびーれふぇるとにしんちょーしゃをけんせつし、せんきゅうひゃくごじゅうろくねんしがつにじゅうろくにちにけんどーしきがおこなわれた。	NO_LABEL
1945年8月31日、ヘッセン州トライザで古プロイセン合同主義福音教会に属していた州教会が集まり、加盟教会間の結びつきを緩める協定を結んだ。	せんきゅうひゃくよんじゅうごねんはちがつさんじゅういちにち、へっせんしゅーとらいざでこぷろいせんごーどーしゅぎふくいんきょーかいにぞくしていたしゅーきょーかいがあつまり、かめいきょーかいかんのむすびつきをゆるめるきょーていをむすんだ。	NO_LABEL
1951年に新たな教憲を制定したが、1953年に東ドイツ政府から圧力を受けてその「古プロイセン」という名称を抹消した上で、福音合同教会という名称で、ドイツ福音主義教会に加わることになった。	NO_PRONOUNCE	NO_LABEL
2003年に福音合同教会は他の合同教会州教会と共に新たな州教会連合組織である福音主義合同教会を結成した。	にせんさんねんにふくいんごーどーきょーかいわたのごーどーきょーかいしゅーきょーかいとともにあらたなしゅーきょーかいれんごーそしきであるふくいんしゅぎごーどーきょーかいをけっせいした。	NO_LABEL
その教会事務局は当初ベルリンに置かれたが、2008年にはドイツ福音主義教会事務局に統合された。	そのきょーかいじむきょくわとーしょべるりんにおかれたが、にせんはちねんにわどいつふくいんしゅぎきょーかいじむきょくにとーごーされた。	NO_LABEL
第2次世界大戦中、牧師たちもドイツ国防軍に召集され、従軍牧師として戦地に向かった。	だいにじせかいたいせんちゅー、ぼくしたちもどいつこくぼーぐんにしょーしゅーされ、じゅーぐんぼくしとしてせんちにむかった。	NO_LABEL
1945年以降、彼らは再び地域に住む牧師職に戻った。	せんきゅうひゃくよんじゅうごねんいこー、かれらわふたたびちいきにすむぼくししょくにもどった。	NO_LABEL
ドイツ福音主義教会の他の州教会と同じ様に、ヴェストファーレン福音主義教会においても当初、女性は婦人と子供向けの宣教活動に限定された牧師補にしかなれなかった。	NO_PRONOUNCE	NO_LABEL
1964年、女性が牧師に任職されることが可能になったが、女性牧師は独身であることが義務づけられていた。	せんきゅうひゃくろくじゅうよねん、じょせいがぼくしににんしょくされることがかのーになったが、じょせいぼくしわどくしんであることがぎむずけられていた。	NO_LABEL
女性牧師が男性牧師と同等の地位を得たのは1974年であった。	じょせいぼくしがだんせいぼくしとどーとーのちいをえたのわせんきゅうひゃくななじゅうよねんであった。	NO_LABEL
ヴェストファーレン福音主義教会の最高指導者は州教会総会で選出されるプレゼスである。	NO_PRONOUNCE	NO_LABEL
プレゼスの任期は8年で65歳までである。	ぷれぜすのにんきわはちねんでろくじゅうごさいまでである。	NO_LABEL
通常、この年齢に達するとプレゼス職を退職する。	つーじょー、このねんれいにたっするとぷれぜすしょくをたいしょくする。	NO_LABEL
プレゼスは牧師として任職しており、この州教会の霊的、法的な指導者であり、州教会総会議長も兼ねる。	ぷれぜすわぼくしとしてにんしょくしており、このしゅーきょーかいのれいてき、ほーてきなしどーしゃであり、しゅーきょーかいそーかいぎちょーもかねる。	NO_LABEL
1948年以前は、州教会運営において3人の最高指導者がいた。	せんきゅうひゃくよんじゅうはちねいぜんわ、しゅーきょーかいうんえいにおいてさんにんのさいこーしどーしゃがいた。	NO_LABEL
霊的指導者として総地区長、法務管理部門最高指導者としての宗務局長、州教会総会議長としてのプレゼスの3人であった。	れいてきしどーしゃとしてそーちくちょー、ほーむかんりぶもんさいこーしどーしゃとしてのしゅーむきょくちょー、しゅーきょーかいそーかいぎちょーとしてのぷれぜすのさんにんであった。	NO_LABEL
プロイセンにおける福音主義教会の霊的指導者としての総地区長はプロイセン全土では12人いたこともあった。	ぷろいせんにおけるふくいんしゅぎきょーかいのれいてきしどーしゃとしてのそーちくちょーわぷろいせんぜんどでわじゅうににんいたこともあった。	NO_LABEL
総地区長と呼ばれる霊的指導職は宗教改革後すぐに導入された。	そーちくちょーとよばれるれいてきしどーしょくわしゅーきょーかいかくごすぐにどーにゅーされた。	NO_LABEL
その後、この職名が使われなくなったが、1828年になって再導入された。	そのご、このしょくめいがつかわれなくなったが、せんはっぴゃくにじゅうはちねんになってさいどーにゅーされた。	NO_LABEL
しかしながら、ヴェストファーレンにおいて、霊的指導者としての総地区長が導入されたのは、州教会教憲採択後の1835年だった。	NO_PRONOUNCE	NO_LABEL
プロイセン王による教会統治が終わった1918年以降、ヴェストファーレンでは総地区長、宗務局長、総会議長の３人の最高指導者による教会運営がおこなわれていた。	NO_PRONOUNCE	NO_LABEL
ノルトライン・ヴェストファーレン州設立後の1947年に、3人の最高指導者による教会運営を１人のプレゼスによる形態に移行した上で、ヴェストファーレン福音教会は再出発した。	NO_PRONOUNCE	NO_LABEL
プレゼスは以前の州教会総会議長職と同じ呼称である。	ぷれぜすわいぜんのしゅーきょーかいそーかいぎちょーしょくとおなじこしょーである。	NO_LABEL
しかし、その職務内容は全く異なり、州教会総会議長であると同時に、州教会事務部門、州教会全体の霊的指導に関しての最高責任者であり、牧師としても任職されている。	しかし、そのしょくむないよーわまったくことなり、しゅーきょーかいそーかいぎちょーであるとどーじに、しゅーきょーかいじむぶもん、しゅーきょーかいぜんたいのれいてきしどーにかんしてのさいこーせきにんしゃであり、ぼくしとしてもにんしょくされている。	NO_LABEL
1934年までプレゼスは教会総会議長の職名であった。	せんきゅうひゃくさんじゅうよねんまでぷれぜすわきょーかいそーかいぎちょーのしょくめいであった。	NO_LABEL
戦後になると、プレゼスは州教会総会議長だけではなく、州教会の霊的指導と事務部門の最高責任者も兼ねることになった。	せんごになると、ぷれぜすわしゅーきょーかいそーかいぎちょーだけでわなく、しゅーきょーかいのれいてきしどーとじむぶもんのさいこーせきにんしゃもかねることになった。	NO_LABEL
2012年にこの職に初めて女性牧師が選ばれた。	にせんじゅうにねんにこのしょくにはじめてじょせいぼくしがえらばれた。	NO_LABEL
州教会総会は地区総会で選出された総会議員で構成されている。	しゅーきょーかいそーかいわちくそーかいでせんしゅつされたそーかいぎいんでこーせいされている。	NO_LABEL
総会議員の任期は4年である。	そーかいぎいんのにんきわよんねんである。	NO_LABEL
州教会総会は議会と同様に教会の立法機関としての機能を有している。	しゅーきょーかいそーかいわぎかいとどーよーにきょーかいのりっぽーきかんとしてのきのーをゆーしている。	NO_LABEL
総会の議長がプレゼスであり、1948年以来、州教会の霊的指導者、ビーレフェルトに置かれている事務局の最高責任者でもある。	そーかいのぎちょーがぷれぜすであり、せんきゅうひゃくよんじゅうはちねいらい、しゅーきょーかいのれいてきしどーしゃ、びーれふぇるとにおかれているじむきょくのさいこーせきにんしゃでもある。	NO_LABEL
ヴェストファーレン福音主義教会は合同教会であり、ルター派、改革派、合同派の教会共同体によって構成されている。	NO_PRONOUNCE	NO_LABEL
教憲前文第Ⅱ項において、この州教会の信仰告白が規定されている。	NO_PRONOUNCE	NO_LABEL
ヴェストファーレン福音教会に属する全ての教会共同体はキリスト教会の基本信条である使徒信条、ニカイア信条、アタナシオス信条を共通の信仰告白としている。	NO_PRONOUNCE	NO_LABEL
この州教会内ルター派教会共同体において、アウグスブルク信仰告白、アウグスブルク信仰告白弁証、シュマルカルデン条項、マルティン・ルターの小教理問答、大教理問答が信仰告白として認められている。	このしゅーきょーかいないるたーはきょーかいきょーどーたいにおいて、あうぐすぶるくしんこーこくはく、あうぐすぶるくしんこーこくはくべんしょー、しゅまるかるでんじょーこー、まるてぃんるたーのしょーきょーりもんどー、だいきょーりもんどーがしんこーこくはくとしてみとめられている。	NO_LABEL
改革派教会共同体において、ハイデルベルク信仰問答が信仰告白として認められている。	かいかくはきょーかいきょーどーたいにおいて、はいでるべるくしんこーもんどーがしんこーこくはくとしてみとめられている。	NO_LABEL
合同派教会共同体において、聖書と基本信条、宗教改革によって導入された諸信仰告白が信仰告白として認められている。	ごーどーはきょーかいきょーどーたいにおいて、せいしょときほんしんじょー、しゅーきょーかいかくによってどーにゅーされたしょしんこーこくはくがしんこーこくはくとしてみとめられている。	NO_LABEL
州教会内の全ての教会共同体は、バルメン宣言を福音宣教において信仰告白として一致して見なすことを教憲前文Ⅱに明記している。	しゅーきょーかいないのすべてのきょーかいきょーどーたいわ、ばるめんせんげんをふくいんせんきょーにおいてしんこーこくはくとしていっちしてみなすことをきょーけんぜんぶんににめいきしている。	NO_LABEL
プレゼスは8年の任期で州教会を指導監督していく最高責任者であり、州教会総会議長でもある。	ぷれぜすわはちねんのにんきでしゅーきょーかいをしどーかんとくしていくさいこーせきにんしゃであり、しゅーきょーかいそーかいぎちょーでもある。	NO_LABEL
プレゼスと州教会常議員会はビーレフェルト市内にある教会事務局に常駐している。	ぷれぜすとしゅーきょーかいつねぎいんかいわびーれふぇるとしないにあるきょーかいじむきょくにじょーちゅーしている。	NO_LABEL
州教会常議員会は17人のメンバーで構成されている。	しゅーきょーかいつねぎいんかいわじゅうしちにんのめんばーでこーせいされている。	NO_LABEL
その内の7人が常勤であり、残りの11人の常議員は非常勤であり、普段は教会外の職に就いている。	そのうちのしちにんがじょーきんであり、のこりのじゅういちにんのつねぎいんわひじょーきんであり、ふだんわきょーかいがいのしょくについている。	NO_LABEL
プレゼスは州教会事務局の最高責任者でもある。	ぷれぜすわしゅーきょーかいじむきょくのさいこーせきにんしゃでもある。	NO_LABEL
プレゼスの代理人として、神学担当のアルベルト・ヘンツ副局長と法務と財務担当のアルネ・クプケ副局長が選ばれており、その職務を担っている。	NO_PRONOUNCE	NO_LABEL
州教会事務局はプレゼスの下で6部局に分かれ、260人のスタッフが働いている。	しゅーきょーかいじむきょくわぷれぜすのしたでろくぶきょくにわかれ、にひゃくろくじゅうにんのすたっふがはたらいている。	NO_LABEL
州教会事務局と呼ばれている部局は教会運営における日常業務を担っている。	しゅーきょーかいじむきょくとよばれているぶきょくわきょーかいうんえいにおけるにちじょーぎょーむをになっている。	NO_LABEL
２人の副局長と部局長たちがプレゼスの下で事務局指導部に属している	ふたりのふくきょくちょーとぶきょくちょーたちがぷれぜすのしたでじむきょくしどーぶにぞくしている	NO_LABEL
ヴェストファーレン福音主義教会は次のような組織になっている。	NO_PRONOUNCE	NO_LABEL
基底組織として教会共同体が地域社会の中にある。	きていそしきとしてきょーかいきょーどーたいがちーきしゃかいのなかにある。	NO_LABEL
教会共同体は公法上の社団として存在し、長老会がその指導を担っている。	きょーかいきょーどーたいわこーほーじょーのしゃだんとしてそんざいし、ちょーろーかいがそのしどーをになっている。	NO_LABEL
長老会には男女の信徒長老と牧師が属している。	ちょーろーかいにわだんじょのしんとちょーろーとぼくしがぞくしている。	NO_LABEL
複数の教会共同体がまとまり、教会教区を形成している。	ふくすーのきょーかいきょーどーたいがまとまり、きょーかいきょーくをけいせいしている。	NO_LABEL
教会地区は州教会３層構造の中間にあり、ドイツの地方行政区としては郡に相当する。	きょーかいちくわしゅーきょーかいさんそーこーぞーのちゅーかんにあり、どいつのちほーぎょーせいくとしてわぐんにそーとーする。	NO_LABEL
教会地区の最高責任者は地区長である。	きょーかいちくのさいこーせきにんしゃわちくちょーである。	NO_LABEL
教会地区も同様に公法上の社団であり、意思決定機関として地区総会を持つ。	きょーかいちくもどーよーにこーほーじょーのしゃだんであり、いしけっていきかんとしてちくそーかいをもつ。	NO_LABEL
地区総会を構成するのは教会共同体から選出された長老たちと地区総会議長団である。	ちくそーかいをこーせいするのわきょーかいきょーどーたいからせんしゅつされたちょーろーたちとちくそーかいぎちょーだんである。	NO_LABEL
教会地区が集まって州教会を形成する。	きょーかいちくがあつまってしゅーきょーかいをけいせいする。	NO_LABEL
州教会は行政組織としての州に相当する。	しゅーきょーかいわぎょーせいそしきとしてのしゅーにそーとーする。	NO_LABEL
教会地区と州教会の間に行政管区に相当する教区、管区等を置く州教会もあるが、ヴェストファーレン福音教会はそのような組織を置いていない。	NO_PRONOUNCE	NO_LABEL
28教会地区には501の教会共同体が含まれている。	NO_PRONOUNCE	NO_LABEL
その数はこの州教会設立時から減少し続けている。	そのかずわこのしゅーきょーかいせつりつじからげんしょーしつずけている。	NO_LABEL
州教会設立の翌年、一時的に教会共同体数が620以上になった。	NO_PRONOUNCE	NO_LABEL
ヴェストファーレンの都市群に人口流入があった結果、教会共同体数が増えたのである。	NO_PRONOUNCE	NO_LABEL
この人口流入は旧ドイツ東部領土におけるドイツ人追放による結果であり、宣教活動によるものではなかった。	このじんこーりゅーにゅーわきゅーどいつとーぶりょーどにおけるどいつじんついほーによるけっかであり、せんきょーかつどーによるものでわなかった。	NO_LABEL
最近、教会共同体の統合がおこなわれているため、教会共同体数は減少し続けている。	さいきん、きょーかいきょーどーたいのとーごーがおこなわれているため、きょーかいきょーどーたいすーわげんしょーしつずけている。	NO_LABEL
ドルトムントに州教会会館があり、ヴェストファーレン福音主義教会関係の諸会議が開催され、州教会関連団体の事務局が置かれている。	NO_PRONOUNCE	NO_LABEL
ヴェストファーレン福音主義教会礼拝式文。	NO_PRONOUNCE	NO_LABEL
聖餐式はとりなしの祈り後に以下の式文を用いておこなわれる。	せいさんしきわとりなしのいのりごにいかのしきぶんをもちいておこなわれる。	NO_LABEL
ヴェストファーレンの福音主義教会では数世紀の間、以下の讃美歌集を使用してきた。	NO_PRONOUNCE	NO_LABEL
