オリンピックのマラヤ連邦選手団は、マラヤ連邦のオリンピック選手団。	おりんぴっくのまらやれんぽーせんしゅだんわ、まらやれんぽーのおりんぴっくせんしゅだん。	NO_LABEL
マラヤ連邦は1948年、マレー半島南部・ペナン島・ムラカで構成成立したイギリス保護領で、1957年にはイギリス連邦の一員として独立を果たした。	NO_PRONOUNCE	NO_LABEL
1963年にマラヤ連邦はサバ・サラワク・シンガポールと共に新たにマレーシアを結成し、マラヤ連邦は消滅した。	NO_PRONOUNCE	NO_LABEL
オリンピックには保護領時代の1956年メルボルンオリンピック、独立後の1960年ローマオリンピックの2大会に参加した。	NO_PRONOUNCE	NO_LABEL
1956年メルボルンオリンピックと1960年ローマオリンピックに参加したもののメダル獲得には至らず、冬季オリンピックへの参加はなかった。	せんきゅうひゃくごじゅうろくねんめるぼるんおりんぴっくとせんきゅうひゃくろくじゅうねんろーまおりんぴっくにさんかしたもののめだるかくとくにわいたらず、とーきおりんぴっくえのさんかわなかった。	NO_LABEL
