ジェラルド・B・グリーンバーグは、アメリカ合衆国の編集技師である。	NO_PRONOUNCE	NO_LABEL
ジェリー・グリーンバーグともクレジットされる。	NO_PRONOUNCE	NO_LABEL
アメリカ合衆国・ニューヨーク出身。	NO_PRONOUNCE	NO_LABEL
『フレンチ・コネクション』でアカデミー編集賞と英国アカデミー賞編集賞を受賞した。	NO_PRONOUNCE	NO_LABEL
アメリカ映画編集者協会の会員であった。	あめりかえいがへんしゅーしゃきょーかいのかいいんであった。	NO_LABEL
2017年12月22日、死去した。	にせんじゅうななねんじゅーにがつにじゅうににち、しきょした。	NO_LABEL
