アブデル・ネイダーは、エジプト・アレクサンドリア出身のバスケットボール選手。	NO_PRONOUNCE	NO_LABEL
NBAのボストン・セルティックスに所属している。	えぬびーえーのぼすとんせるてぃっくすにしょぞくしている。	NO_LABEL
ポジションはSF/SG。	NO_PRONOUNCE	NO_LABEL
イリノイ州スポーキーのナイルズ・ノース高校時代は、平均23.8得点 8.6リバウンド 2.8アシストを記録するなど、同州のスター選手として活躍。	NO_PRONOUNCE	NO_LABEL
大学は北イリノイ大学に進学。	だいがくわきたいりのいだいがくにしんがく。	NO_LABEL
2年生時の2012-13シーズンに平均13.1得点 5.6リバウンドを記録した後アイオワ州立大学に転校。	NO_PRONOUNCE	NO_LABEL
NCAAの規定により、2014-15シーズンからの出場となり、 最終学年の2015-16シーズンは平均12.9得点 5リバウンドを記録した。	NO_PRONOUNCE	NO_LABEL
ネイダーは2016年のNBAドラフトでボストン・セルティックスから58位で指名されるも、契約までには至らず、傘下のメイン・レッドクローズに送られプロキャリアを開始。	ねいだーわにせんじゅうろくねんのえぬびーえーどらふとでぼすとんせるてぃっくすからごじゅうはちーでしめいされるも、けいやくまでにわいたらず、さんかのめいんれっどくろーずにおくられぷろきゃりあをかいし。	NO_LABEL
そこでネイダーは40試合の出場で平均21.3得点 6.2リバウンド 3.9アシストを記録し、2016-17シーズンのNBADLのMVPに選出される活躍を見せた。	NO_PRONOUNCE	NO_LABEL
NBADLで実績を残したネイダーは、2017年7月14日にボストン・セルティックスと4年600万ドルの契約を結び、念願のNBA入りを果たした。	えぬびーえーでぃーえるでじっせきをのこしたねいだーわ、にせんじゅうななねんしちがつじゅうよっかにぼすとんせるてぃっくすとよんねんろっぴゃくまんどるのけいやくをむすび、ねんがんのえぬびーえーいりをはたした。	NO_LABEL
