伊藤 久秋は、日本の経済学者。	いとーひさあきわ、にほんのけいざいがくしゃ。	NO_LABEL
長崎県出身。	ながさきけんしゅっしん。	NO_LABEL
長崎高等商業学校卒、1944年「地域の経済理論」で京都帝国大学経済学博士。	NO_PRONOUNCE	NO_LABEL
長崎高等商業学校教授、1926年までドイツ・フライブルクに学び、のち青山学院大学経済学部教授。	NO_PRONOUNCE	NO_LABEL
1968年定年、名誉教授、大東文化大学教授。	せんきゅうひゃくろくじゅうはちねんていねん、めいよきょーじゅ、だいとーぶんかだいがくきょーじゅ。	NO_LABEL
立地論が専門。	りっちろんがせんもん。	NO_LABEL
