フィットネスクラブ（）とは、会員の健康維持や健康づくりのための運動施設と専門指導員を有する民営のスポーツクラブである。	ふぃっとねすくらぶかっことわ、かいいんのけんこーいじやけんこーずくりのためのうんどーしせつとせんもんしどーいんをゆーするみんえいのすぽーつくらぶである。	NO_LABEL
日本の経済産業省の特定サービス産業実態調査におけるフィットネスクラブの定義は、「室内プール、トレーニングジム、スタジオなど室内の運動施設を有し、インストラクター、トレーナーなどの指導員を配置し、会員にスポーツ、体力向上などのトレーニング方法などを教授する事業所」とされ、室内プールの他に室内運動施設を有しない事業所は除外するとされている。	NO_PRONOUNCE	NO_LABEL
大手のスポーツクラブには、アメリカの、ゴールドジム、イギリスのなどがある。	おーてのすぽーつくらぶにわ、あめりかの、ごーるどじむ、いぎりすのなどがある。	NO_LABEL
2008年の市場規模は約2,940億円、会員数の合計は278万人であり、今後さらに成長すると見込まれている。	NO_PRONOUNCE	NO_LABEL
大手のフィットネスクラブにはセントラルスポーツ、コナミスポーツクラブ、ティップネス、ルネサンスなどがある。	おーてのふぃっとねすくらぶにわせんとらるすぽーつ、こなみすぽーつくらぶ、てぃっぷねす、るねさんすなどがある。	NO_LABEL
その他主要なフィットネスクラブについては、日本のフィットネスクラブ一覧を参照。	そのたしゅよーなふぃっとねすくらぶについてわ、にっぽんのふぃっとねすくらぶいちらんをさんしょー。	NO_LABEL
事業化が始まったのは1970年代である。	じぎょーかがはじまったのわせんきゅうひゃくななじゅうねんだいである。	NO_LABEL
日本レスリング協会会長・八田一朗が1970年、新宿に建設した「スポーツ会館」がその草分けといわれる。	NO_PRONOUNCE	NO_LABEL
TAC=東京アスレティッククラブが昭和45年に日本で最初に生まれた会員制総合スポーツクラブと言われる。	NO_PRONOUNCE	NO_LABEL
1980年代になると余暇の多様化やバブル景気と相まって、企業の子会社によるクラブが増加した。	せんきゅうひゃくはちじゅうねんだいになるとよかのたよーかやばぶるけいきとあいまって、きぎょーのこがいしゃによるくらぶがぞーかした。	NO_LABEL
また、既存のスイミングスクールが業容を拡大して参入するケースも見られた。	また、きそんのすいみんぐすくーるがぎょーよーをかくだいしてさんにゅーするけーすもみられた。	NO_LABEL
1990年代になると、バブル崩壊のあおりを受けて多くのクラブが経営不振に陥った。	せんきゅうひゃくきゅうじゅうねんだいになると、ばぶるほーかいのあおりをうけておーくのくらぶがけいえいふしんにおちいった。	NO_LABEL
さらに、事業の再構築の一環として福利厚生の見直しが企業において進められた結果、中小クラブの営業権を大手クラブが買収・譲受する形で整理統合が行われた。	NO_PRONOUNCE	NO_LABEL
株式を公開・上場するクラブや、逆に投資ファンドの標的となるクラブも現れた。	NO_PRONOUNCE	NO_LABEL
2000年以降は、ダイエットやアンチエイジングに代表される健康ブームの広がりに加え、いわゆるメタボリック症候群への関心も高まり、施設は再び増加傾向にある。	にせんねんいこーわ、だいえっとやあんちえいじんぐにだいひょーされるけんこーぶーむのひろがりにくわえ、いわゆるめたぼりっくしょーこーぐんえのかんしんもたかまり、しせつわふたたびぞーかけいこーにある。	NO_LABEL
小型の施設が増加しているほか、鉄道、流通など異業種からの参入もあり、さらには海外企業も進出してきており、競争は激しくなっている。	こがたのしせつがぞーかしているほか、てつどー、りゅーつーなどいぎょーしゅからのさんにゅーもあり、さらにわかいがいきぎょーもしんしゅつしてきており、きょーそーわはげしくなっている。	NO_LABEL
室内プール・トレーニングジム・スタジオの3つが、もっとも基本的な施設である。	NO_PRONOUNCE	NO_LABEL
ゴルフやテニスやダイビングのスクール、フットサルのコート、レストランを併設する店舗もある。	ごるふやてにすやだいびんぐのすくーる、ふっとさるのこーと、れすとらんをへいせつするてんぽもある。	NO_LABEL
また、近年は、スパやサウナ、マッサージ、エステなど、リラクゼーション施設を兼ね備えたスポーツクラブも増えている。	また、きんねんわ、すぱやさうな、まっさーじ、えすてなど、りらくぜーしょんしせつをかねそなえたすぽーつくらぶもふえている。	NO_LABEL
スポーツクラブで必要なウェア、シューズ、バッグ、スイムウェア、飲料、サプリメントなどを販売する売店を併設する店舗もある。	すぽーつくらぶでひつよーなうぇあ、しゅーず、ばっぐ、すいむうぇあ、いんりょー、さぷりめんとなどをはんばいするばいてんをへいせつするてんぽもある。	NO_LABEL
建物は、自前や建て貸しが多い。	たてものわ、じまえやたてかしがおーい。	NO_LABEL
これは、プールや浴室で大量の水を使用するため、テナントとして出店する場合はあらかじめそれを見越して給排水設備やボイラーを設計してもらう必要があるからである。	これわ、ぷーるやよくしつでたいりょーのみずをしよーするため、てなんととしてしゅってんするばあいわあらかじめそれをみこしてきゅーはいすいせつびやぼいらーをせっけいしてもらうひつよーがあるからである。	NO_LABEL
小型店の中には、雑居ビルのワンフロアに施設をまとめ、シャワー室を廃した施設もある。	こがたてんのなかにわ、ざっきょびるのわんふろあにしせつをまとめ、しゃわーしつをはいしたしせつもある。	NO_LABEL
立地条件としては、駅前などの交通至便なところ、大型ショッピングセンターへの併設、雑居ビル内、幹線道路沿い、などがある。	りっちじょーけんとしてわ、えきまえなどのこーつーしべんなところ、おーがたしょっぴんぐせんたーえのへいせつ、ざっきょびるない、かんせんどーろぞい、などがある。	NO_LABEL
主なサービスとして、インストラクターが付き添い会員に個人指導をおこなうパーソナルトレーニング、会員各自の体重や体脂肪率に対するあるいはお腹を引っ込めたい等の目標達成のためのトレーニングメニュー作成とそのフォロー、トレーニングウェア・靴・水着・タオルなどを貸し出す用品レンタル、会員の身長・体重・血圧・体脂肪率・筋肉量などを測定する数値測定サービス、会員の運動や健康に関する履歴をコンピュータで記録・管理するトレーニング管理などがある。	NO_PRONOUNCE	NO_LABEL
エステサービスを導入しているところもある。	えすてさーびすをどーにゅーしているところもある。	NO_LABEL
使用する用品を置いておくための「月契約貸ロッカー」がある店舗もある。	NO_PRONOUNCE	NO_LABEL
多くの場合、入会時に入会金を支払うほか、月単位の会費を払う。	おーくのばあい、にゅーかいじににゅーかいきんをしはらうほか、つきたんいのかいひをはらう。	NO_LABEL
ただし「キャンペーン」と称して、一定の条件付きで、入会金無料や、1か月分の月会費が無料となる場合もある。	NO_PRONOUNCE	NO_LABEL
福利厚生への対応として、企業の社員や健康保険組合の組合員を対象にした「法人会員」制度を設けている場合も少なくない。	NO_PRONOUNCE	NO_LABEL
会員種別は、申し込んだ店舗のみを何時でも利用できる会員種別が基本だが、種々の制約を条件に、基本的な会員種別よりも会費を下げて、会員獲得を行う場合もある。	かいいんしゅべつわ、もーしこんだてんぽのみをいつでもりよーできるかいいんしゅべつがきほんだが、しゅじゅのせいやくをじょーけんに、きほんてきなかいいんしゅべつよりもかいひをさげて、かいいんかくとくをおこなうばあいもある。	NO_LABEL
また、基本的な会員種別よりも高くなる場合が多いが、同一運営企業の他店利用を、無料あるいは追加料金を払うことで認める会員種別も存在する。	また、きほんてきなかいいんしゅべつよりもたかくなるばあいがおーいが、どーいつうんえいきぎょーのたみせりよーを、むりょーあるいわついかりょーきんをはらうことでみとめるかいいんしゅべつもそんざいする。	NO_LABEL
運営企業によっては、「相互利用」と称して、提携している他運営企業のスポーツクラブを、無料あるいは追加料金を払うことで利用できる場合もある。	NO_PRONOUNCE	NO_LABEL
パーソナルトレーニングや、会員個別のフォロー、用品レンタルなどのサービスは、月会費のほか、追加料金が必要な場合が多い。	ぱーそなるとれーにんぐや、かいいんこべつのふぉろー、よーひんれんたるなどのさーびすわ、つきかいひのほか、ついかりょーきんがひつよーなばあいがおーい。	NO_LABEL
店舗や立地条件にもよるが、平日・土曜日は9時頃～22時頃、日曜日は10時頃～18時頃が一般的。	NO_PRONOUNCE	NO_LABEL
大都市圏では出勤前需要を取り込むため、7時頃から営業を開始する店舗がある。	だいとしけんでわしゅっきんぜんじゅよーをとりこむため、しちじごろからえいぎょーをかいしするてんぽがある。	NO_LABEL
また、会社帰りの需要をできるだけ多く取り込むため、24時頃まで営業する店舗もある。	また、かいしゃがえりのじゅよーをできるだけおーくとりこむため、にじゅうよじごろまでえいぎょーするてんぽもある。	NO_LABEL
店舗によっては、24時間営業を行うこともある。	てんぽによってわ、にじゅうよじかんえいぎょーをおこなうこともある。	NO_LABEL
インストラクターの指導の下に行われるプログラムは、グループエクササイズ、レッスンとも呼ばれ、無料で受講できる場合が多い。	いんすとらくたーのしどーのしたにおこなわれるぷろぐらむわ、ぐるーぷえくささいず、れっすんともよばれ、むりょーでじゅこーできるばあいがおーい。	NO_LABEL
時間は30分~60分が中心である。	NO_PRONOUNCE	NO_LABEL
スタジオプログラムは、自社開発のオリジナルプログラム・プログラム開発会社のプログラム・インストラクター独自のプログラムなどがある。	NO_PRONOUNCE	NO_LABEL
スタジオで実施される主なプログラムには、エアロビクス、ステップエクササイズ、格闘技エクササイズ、ヨガ、ピラティス、ダンス、バレエ、チアダンス、体操・新体操などがある。	NO_PRONOUNCE	NO_LABEL
また、プールで実施される主なプログラムには、泳法、アクアビクス、アクアウォーキング、フィンスイミングなどがある。	また、ぷーるでじっしされるおもなぷろぐらむにわ、えいほー、あくあびくす、あくあうぉーきんぐ、ふぃんすいみんぐなどがある。	NO_LABEL
各プログラムは参加者の習熟度に合わせて、初級・中級等に分けられているところもある。	NO_PRONOUNCE	NO_LABEL
従業員のほとんどはインストラクターである。	じゅーぎょーいんのほとんどわいんすとらくたーである。	NO_LABEL
外部契約でレッスン業務に従事するインストラクターもいる。	がいぶけいやくでれっすんぎょーむにじゅーじするいんすとらくたーもいる。	NO_LABEL
