グロ・ハーレム・ブルントラントは、ノルウェー・バールム生まれの医師、政治家。	NO_PRONOUNCE	NO_LABEL
世界保健機関事務局長、同名誉事務局長、ノルウェー首相を歴任。	せかいほけんきかんじむきょくちょー、どーめいよじむきょくちょー、のるうぇーしゅしょーをれきにん。	NO_LABEL
ノルウェー労働党党員。	のるーぇーろうどうとーとーいん。	NO_LABEL
1963年オスロ大学を卒業。	せんきゅうひゃくろくじゅうさんねんおすろだいがくをそつぎょー。	NO_LABEL
1964年ハーバード大学へ留学。	せんきゅうひゃくろくじゅうよねんはーばーどだいがくえりゅーがく。	NO_LABEL
帰国後、医師を勤める傍ら、労働党でも活躍。	きこくご、いしをつとめるかたわら、ろーどーとーでもかつやく。	NO_LABEL
1974年、ブラッテリ内閣の環境相に就任。	せんきゅうひゃくななじゅうよねん、ぶらってりないかくのかんきょーしょーにしゅーにん。	NO_LABEL
1977年9月、総選挙に立候補し初当選。	せんきゅうひゃくななじゅうななねんくがつ、そーせんきょにりっこーほしはつとーせん。	NO_LABEL
1981年2月、女性として初めてノルウェー首相に就任。	せんきゅうひゃくはちじゅういちねんにがつ、じょせいとしてはじめてのるうぇーしゅしょーにしゅーにん。	NO_LABEL
同年10月、総選挙で保守党に敗れ、退任。	どーねんじゅーがつ、そーせんきょでほしゅとーにやぶれ、たいにん。	NO_LABEL
1992年1月、ノルウェー首相として初めて日本に公式実務訪問した。	せんきゅうひゃくきゅうじゅうにねんいちがつ、のるうぇーしゅしょーとしてはじめてにっぽんにこーしきじつむほーもんした。	NO_LABEL
1984年から1987年まで、国際連合に設置された「環境と開発に関する世界委員会」（）は、彼女が委員長を務めたことからブルントラント委員会と呼ばれる。	NO_PRONOUNCE	NO_LABEL
この委員会がまとめた報告書「地球の未来を守るために（）」には、「将来世代のニーズを損なうことなく現在の世代のニーズを満たすこと」という持続可能な開発の概念が打ち出されている。	NO_PRONOUNCE	NO_LABEL
1985年の総選挙で労働党が勝利し、首相に返り咲く。	せんきゅうひゃくはちじゅうごねんのそーせんきょでろーどーとーがしょーりし、しゅしょーにかえりざく。	NO_LABEL
1989年再度、総選挙で敗北し退陣。	せんきゅうひゃくはちじゅうきゅうねんさいど、そーせんきょではいぼくしたいじん。	NO_LABEL
その後、保守内閣の分裂から1990年10月、第三次ブルントラント少数内閣発足。	そのご、ほしゅないかくのぶんれつからせんきゅうひゃくきゅうじゅうねんじゅーがつ、だいさんじぶるんとらんとしょーすーないかくほっそく。	NO_LABEL
1992年11月、三男の自殺を機に労働党党首を辞任。	せんきゅうひゃくきゅうじゅうにねんじゅーいちがつ、さんなんのじさつをきにろーどーとーとーしゅをじにん。	NO_LABEL
1996年10月、首相を辞任。	せんきゅうひゃくきゅうじゅうろくねんじゅーがつ、しゅしょーをじにん。	NO_LABEL
1998年4月、世界保健機関の事務局長に就任。	せんきゅうひゃくきゅうじゅうはちねんしがつ、せかいほけんきかんのじむきょくちょーにしゅーにん。	NO_LABEL
就任演説で『タバコは人殺しである。	NO_PRONOUNCE	NO_LABEL
』との持論を展開し、痛烈な喫煙批判を行い、禁煙政策である『たばこの規制に関する世界保健機関枠組条約』作成と締結を主導した。	NO_PRONOUNCE	NO_LABEL
2003年3月、電磁波過敏症であることを公表。	にせんさんねんさんがつ、でんじはかびんしょーであることをこーひょー。	NO_LABEL
2004年には、旭硝子財団よりブループラネット賞が贈られた。	にせんよねんにわ、あさひがらすざいだんよりぶるーぷらねっとしょーがおくられた。	NO_LABEL
2014年唐奨受賞。	にせんじゅうよねんとーしょーじゅしょー。	NO_LABEL
