グーチランド郡であり、同郡に法人化された町は無い。	ぐーちらんどぐんであり、どーぐんにほーじんかされたまちわない。	NO_LABEL
グーチランド郡はリッチモンド・ピーターズバーグ地域にあり、都市圏としてはリッチモンド大都市圏に属している。	NO_PRONOUNCE	NO_LABEL
グーチランド郡となった地域の水路沿いには、数千年前か先住インディアンが住んでいた。	ぐーちらんどぐんとなったちいきのすいろぞいにわ、すーせんねんまえかせんじゅーいんでぃあんがすんでいた。	NO_LABEL
イングランド人開拓者が遭遇したのはスー語を話す部族だった。	いんぐらんどじんかいたくしゃがそーぐーしたのわすーごをはなすぶぞくだった。	NO_LABEL
彼らは免疫を持たないヨーロッパ由来の疫病のために人口を急激に減らし、社会的混乱が広がった。	かれらわめんえきをもたないよーろっぱゆらいのやくびょーのためにじんこーをきゅーげきにへらし、しゃかいてきこんらんがひろがった。	NO_LABEL
1634年、バージニア植民地政府が、イングランドのシャイアに倣い、バージニアを8つのシャイアに分割組織化した。	せんろっぴゃくさんじゅうよんねん、ばーじにあしょくみんちせいふが、いんぐらんどのしゃいあにならい、ばーじにあをやっつのしゃいあにぶんかつそしきかした。	NO_LABEL
それらのシャイアの1つにヘンライコ・シャイアがあった。	NO_PRONOUNCE	NO_LABEL
グーチランド郡は1728年に、ヘンライコ・シャイアから分かれた最初の郡として設立され、1749年にはチェスターフィールド郡が続いた。	NO_PRONOUNCE	NO_LABEL
グーチランド郡の名前は、1727年から1749年まで植民地副総督を務めた初代准男爵ウィリアム・グーチに因んで名付けられた。	NO_PRONOUNCE	NO_LABEL
当時の総督第2代アルベマール伯爵ウィレム・ヴァン・ケッペルはイングランドに留まったままだった。	NO_PRONOUNCE	NO_LABEL
当初のグーチランド郡にはタッカホー・クリークからジェームズ川の両岸、西はブルーリッジ山脈まで広がっていた。	NO_PRONOUNCE	NO_LABEL
植民地人がリッチモンドの西にあるピードモント台地に入っていくと、海岸地域と同じくまずタバコ・プランテーションを開発した。	NO_PRONOUNCE	NO_LABEL
この魅力的な換金作物を栽培するのは多大な労働力を必要とし、アフリカ人奴隷に依存するようになった。	このみりょくてきなかんきんさくもつをさいばいするのわただいなろーどーりょくをひつよーとし、あふりかじんどれいにいぞんするよーになった。	NO_LABEL
アメリカ独立戦争の後、タバコはそれほど高い利益を生まなくなった。	あめりかどくりつせんそーののち、たばこわそれほどたかいりえきをうまなくなった。	NO_LABEL
グーチランド郡では、州内他地域と同様に多くの農園主が小麦など多種の穀物栽培に転換した。	ぐーちらんどぐんでわ、しゅーないたちいきとどーよーにおーくののーえんぬしがこむぎなどたしゅのこくもつさいばいにてんかんした。	NO_LABEL
プランテーションをフルに維持していくために奴隷労働力への依存を強めていった。	ぷらんてーしょんをふるにいじしていくためにどれいろうどーりょくえのいぞんをつよめていった。	NO_LABEL
1860年国勢調査と奴隷表に拠れば、郡総人口は10,656人だった。	NO_PRONOUNCE	NO_LABEL
そのうち6,139人、57.6%が奴隷化されたアフリカ系アメリカ人だった。	NO_PRONOUNCE	NO_LABEL
南北戦争が終わった後の1870年までに、総人口は10,313人と微減だったが、黒人人口は6,610人、64%と増加していた。	NO_PRONOUNCE	NO_LABEL
その後農業作業が減り、多くの人々がリッチモンド市などの町に移転した。	そのごのーぎょーさぎょーがへり、おーくのひとびとがりっちもんどしなどのまちにいてんした。	NO_LABEL
20世紀初期アフリカ系アメリカ人の大移動の中で多くの黒人がバージニアを離れ、北部の良い職と機会を求めて移住していった。	にじっせいきしょきあふりかけいあめりかじんのだいいどーのなかでおーくのこくじんがばーじにあをはなれ、ほくぶのよいしょくときかいをもとめていじゅーしていった。	NO_LABEL
2000年までにアフリカ系アメリカ人の構成比率は26%にまで減少した。	にせんねんまでにあふりかけいあめりかじんのこーせいひりつわにじゅうろくぱーせんとにまでげんしょーした。	NO_LABEL
初代郡庁舎は1728年5月に建設された。	しょだいぐんちょーしゃわせんななひゃくにじゅうはちねんごがつにけんせつされた。	NO_LABEL
建設されたその正確な場所は不明だが、研究者たちは1730年から1737年の間に建てられたと考えている。	けんせつされたそのせいかくなばしょわふめいだが、けんきゅうしゃたちわせんななひゃくさんじゅうねんからせんななひゃくさんじゅうななねんのまにたてられたとかんがえている。	NO_LABEL
18世紀半ば、郡庁舎の場所が移された。	じゅうはっせいきなかば、ぐんちょーしゃのばしょがうつされた。	NO_LABEL
その後19世紀初期に再度移転され、現在のグーチランド町中心、アメリカ国道522号線沿いの場所となった。	NO_PRONOUNCE	NO_LABEL
1781年初期、イギリス軍チャールズ・コーンウォリス将軍がそのかなりの勢力の軍隊を率いて、グーチランド郡領域を抜けていった。	せんななひゃくはちじゅういちねんしょき、いぎりすぐんちゃーるずこーんうぉりすしょーぐんがそのかなりのせいりょくのぐんたいをひきいて、ぐーちらんどぐんりょーいきをぬけていった。	NO_LABEL
この軍隊はトーマス・ジェファーソンの小さな荘園だったエルクヒルを占領して完全に破壊し、食料のために家畜を殺し、納屋や塀を焼き、最後は家屋を焼き尽くした。	このぐんたいわとーますじぇふぁーそんのちーさなしょーえんだったえるくひるをせんりょーしてかんぜんにはかいし、しょくりょーのためにかちくをころし、なややへいをやき、さいごわかおくをやきつくした。	NO_LABEL
奴隷27人を戦争捕虜として連れて行ったが、その内24人は宿営地で病気のために死んだ。	どれいにじゅうしちにんをせんそーほりょとしてつれていったが、そのうちにじゅうよにんわしゅくえいちでびょーきのためにしんだ。	NO_LABEL
ジェームズ川沿いのある地点が、コーンウォリスヒルと呼ばれるようになった。	じぇーむずかわぞいのあるちてんが、こーんうぉりすひるとよばれるよーになった。	NO_LABEL
このイギリス軍将軍がヨークタウンに向かう途中でここに立ち止り、ジェームズ川の素晴らしい眺めのあるこの場所は家を建てるに理想の場所になると述べたと伝えられている。	このいぎりすぐんしょーぐんがよーくたうんにむかうとちゅーでここにたちどまり、じぇーむずかわのすばらしいながめのあるこのばしょわいえをたてるにりそーのばしょになるとのべたとつたえられている。	NO_LABEL
ラファイエット将軍は、1824年から1825年にアメリカ合衆国を巡遊してバージニア州に戻ってきた。	らふぁいえっとしょーぐんわ、せんはっぴゃくにじゅうよんねんからせんはっぴゃくにじゅうごねんにあめりかがっしゅーこくをじゅんゆーしてばーじにあしゅーにもどってきた。	NO_LABEL
1824年11月2日、ラファイエットは、ジェファーソンを訪問するためにリッチモンドを発ってモンティチェロに向かった。	せんはっぴゃくにじゅうよんねんじゅーいちがつふつか、らふぁいえっとわ、じぇふぁーそんをほーもんするためにりっちもんどをたってもんてぃちぇろにむかった。	NO_LABEL
その途中でグーチランドのパウェルの酒場に立ち寄った。	そのとちゅーでぐーちらんどのぱうぇるのさかばにたちよった。	NO_LABEL
そこに居る間に将軍はアメリカ軍士官や大勢の郡民に会った。	そこにいるまにしょーぐんわあめりかぐんしかんやたいせいのぐんみんにあった。	NO_LABEL
コーンウォリス将軍がその軍隊を率いてグーチランドを通ってからほぼ100年後に、郡内で新たな戦闘が起こった。	こーんうぉりすしょーぐんがそのぐんたいをひきいてぐーちらんどをとーってからほぼひゃくねんごに、ぐんないであらたなせんとーがおこった。	NO_LABEL
1864年、北軍の若い大佐ウルリク・ダールグレンは傑出した士官だった。	NO_PRONOUNCE	NO_LABEL
密かにバージニア州中央部に潜入し、アメリカ連合国首都リッチモンドのベルアイルに拘束されている12,000人の北軍捕虜を解放し、首都を破壊する大胆な作戦を立てた。	NO_PRONOUNCE	NO_LABEL
3月1日、ダールグレンの部隊はグーチランド東部のサボットヒル、ドーバー、イーストウッドに到着した。	さんがつついたち、だーるぐれんのぶたいわぐーちらんどとーぶのさぼっとひる、どーばー、いーすとうっどにとーちゃくした。	NO_LABEL
イーストウッドは当時、プラマー・ホブソンとその妻でヘンリー・A・ワイズ准将の娘が使っていた。	NO_PRONOUNCE	NO_LABEL
その前夜、ワイズ将軍がイーストウッドに到着していた。	そのぜんや、わいずしょーぐんがいーすとうっどにとーちゃくしていた。	NO_LABEL
北軍の特殊任務部隊がイーストウッドに到着してワイズを探すと、その娘はワイズがサウスカロライナ州チャールストンにいると答えた。	ほくぐんのとくしゅにんむぶたいがいーすとうっどにとーちゃくしてわいずをさがすと、そのむすめわわいずがさうすかろらいなしゅーちゃーるすとんにいるとこたえた。	NO_LABEL
実は、ワイズは馬を駆って急遽南東のリッチモンドに行き、北軍襲撃隊が来ていることを伝えた。	じつわ、わいずわうまをかってきゅーきょなんとーのりっちもんどにいき、ほくぐんしゅーげきたいがきていることをつたえた。	NO_LABEL
ダールグレンはジェイムズ・セドンとその妻の家であるサボットヒルに行くと、その妻がドアを開けて中に招じ入れ、ワインなど南部流の歓待をした。	だーるぐれんわじぇいむずせどんとそのつまのいえであるさぼっとひるにいくと、そのつまがどあをあけてなかにまねきじいれ、わいんなどなんぶりゅーのかんたいをした。	NO_LABEL
セドンの妻はワイズがリッチモンドに向かっていることを知っており、ダールグレンに時間を使わせようとした。	せどんのつまわわいずがりっちもんどにむかっていることをしっており、だーるぐれんにじかんをつかわせようとした。	NO_LABEL
グーチランドの家族たちの素早い機転によって、ワイズはリッチモンドの軍隊に急を告げることができ、ダールグレンの襲撃隊を破ることができた。	ぐーちらんどのかぞくたちのすばやいきてんによって、わいずわりっちもんどのぐんたいにきゅーをつげることができ、だーるぐれんのしゅーげきたいをやぶることができた。	NO_LABEL
戦争が始まったとき、郡出身のジェイムズ・プレザンツは、グーチランド軽装竜騎兵隊における叔父の役割に取って代わると主張した。	NO_PRONOUNCE	NO_LABEL
1861年、プレザンツは叔父に代わることを認められた。	せんはっぴゃくろくじゅういちねん、ぷれざんつわおじにかわることをみとめられた。	NO_LABEL
1864年冬、故郷に近づいていた兵士は誰でも、さらに兵士を募るために帰省を認められた。	せんはっぴゃくろくじゅうよねんふゆ、こきょーにちかずいていたへいしわだれでも、さらにへいしをつのるためにきせいをみとめられた。	NO_LABEL
プレザンツが家に戻った最初の夜、ダールグレンの襲撃隊が彼の馬を盗んだが、家屋の中は捜索しなかった。	ぷれざんつがいえにもどったさいしょのよる、だーるぐれんのしゅーげきたいがかれのうまをぬすんだが、かおくのなかわそーさくしなかった。	NO_LABEL
プレザンツは何が起こっているかを理解すると、そのカービン銃を掴み、襲撃隊の後を追って走り始めた。	ぷれざんつわなにがおこっているかをりかいすると、そのかーびんじゅーをつかみ、しゅーげきたいののちをおってはしりはじめた。	NO_LABEL
物音を聞いたプレザンツは木の陰に隠れ、続いて北軍騎兵に降伏するよう命令した。	ものおとをきいたぷれざんつわきのかげにかくれ、つずいてほくぐんきへいにこーふくするよーめいれいした。	NO_LABEL
プレザンツはその兵士の馬に乗り、兵士はその前を歩かせて他の兵士を探させた。	ぷれざんつわそのへいしのうまにのり、へいしわそのまえをあるかせてたのへいしをさがさせた。	NO_LABEL
それから短時間の間にプレザンツは数人の北軍兵を捕虜にして、ボウルの店に連れ帰った。	それからたんじかんのまにぷれざんつわすーにんのきたぐんびょーをほりょにして、ぼーるのみせにつれかえった。	NO_LABEL
プレザンツは総勢15人を捕虜にし、16頭の馬を取り返し、降伏を拒んだ士官1人を撃ち殺した。	NO_PRONOUNCE	NO_LABEL
「南軍の娘たち」の後援で、南軍への記念碑がグーチランド郡庁舎前緑地に建てられた。	NO_PRONOUNCE	NO_LABEL
1918年6月22日に除幕された。	せんきゅうひゃくじゅうはちねんろくがつにじゅうににちにじょまくされた。	NO_LABEL
その時の出席者には、ロバート・E・リー将軍の孫、名前も同じロバート・E・リーがいた。	NO_PRONOUNCE	NO_LABEL
1720年、ヘンライコ郡にセントジェームズとヘンライコという2つの教区があった。	せんななひゃくにじゅうねん、へんらいこぐんにせんとじぇーむずとへんらいことゆうふたつのきょーくがあった。	NO_LABEL
グーチランド郡が設立されたとき、セントジェームズ教区がジェームズ川の両岸と西方の領域に入っていた。	ぐーちらんどぐんがせつりつされたとき、せんとじぇーむずきょーくがじぇーむずかわのりょーきしとせいほーのりょーいきにはいっていた。	NO_LABEL
1744年にグーチランド郡からアルベマール郡が作られると、この教区は3つに分割された。	せんななひゃくよんじゅうよんねんにぐーちらんどぐんからあるべまーるぐんがつくられると、このきょーくわみっつにぶんかつされた。	NO_LABEL
セントアンズ教区がアルベマール郡を、セントジェームズ・サウザム教区がジェームズ川の南岸を、セントジェームズ・ノーザム教区がグーチランド郡の残りを担当した。	NO_PRONOUNCE	NO_LABEL
セントジェームズ・ノーザム教区には、ドーバー・エピスコパル、ビーバーダム・エピスコパル、リッキングホール・エピスコパルという3つの初期教会があった。	NO_PRONOUNCE	NO_LABEL
ドーバーがまず1724年に建てられ、独立戦争後のいずれかの時に閉鎖された。	どーばーがまずせんななひゃくにじゅうよんねんにたてられ、どくりつせんそーごのいずれかのときにへいさされた。	NO_LABEL
その場所と閉鎖された年月は不明である。	そのばしょとへいさされたとしつきわふめいである。	NO_LABEL
ビーバーダムは現在のホワイトホール道路近くにあったが、正確な場所はこれも不明である。	びーばーだむわげんざいのほわいとほーるどーろちかくにあったが、せいかくなばしょわこれもふめいである。	NO_LABEL
著名な教会がバード長老派教会だった。	ちょめいなきょーかいがばーどちょーろーはきょーかいだった。	NO_LABEL
この会派には、神学者で後にプリンストン大学学長となったサミュエル・デイビースによって組織された信徒の子孫が会員であり、1748年にタッカー・ウッドソンの農園に建てられた。	NO_PRONOUNCE	NO_LABEL
1759年にはバード・クリーク沿いに独自の教会を建てた。	NO_PRONOUNCE	NO_LABEL
1838年、当初会派の子孫達が、現在の教会が建てられた時に、ここで礼拝を始めた。	せんはっぴゃくさんじゅうはちねん、とーしょかいはのしそんたちが、げんざいのきょーかいがたてられたときに、ここでれいはいをはじめた。	NO_LABEL
バード長老派教会は19世紀にバージニアで建てられたシンプルなレンガ造り教会の著名な例である。	ばーどちょーろーはきょーかいわじゅうきゅうせいきにばーじにあでたてられたしんぷるなれんがずくりきょーかいのちょめいなれいである。	NO_LABEL
この建物は、スレート葺きの屋根、内窓の飾りカーテン、また墓地など初期の建築的様相を幾らか残している。	このたてものわ、すれーとふきのやね、うちまどのかざりかーてん、またぼちなどしょきのけんちくてきよーそーをいくらかのこしている。	NO_LABEL
今日、エピスコパル、バプテスト、メソジスト、長老派、また無会派のキリスト教教会など多くの教会が立っている。	きょー、えぴすこぱる、ばぷてすと、めそじすと、ちょーろーは、またむかいはのきりすときょーきょーかいなどおーくのきょーかいがたっている。	NO_LABEL
インディアン道である歴史的なスリーチョップト・トレイルの一部が郡のかなりの部分を通っている。	NO_PRONOUNCE	NO_LABEL
この道では方向を示すために樹木に手斧で3つの刻みが入れられている。	このみちでわほーこーをしめすためにじゅもくにておのでみっつのきざみがいれられている。	NO_LABEL
リッチモンドからシャーロッツビルまで、アメリカ国道250号線が大まかにこの道を辿っている。	りっちもんどからしゃーろっつびるまで、あめりかこくどーにひゃくごじゅうごーがおーまかにこのみちをたどっている。	NO_LABEL
1973年、インディアナ州リッチモンドのウェイン・コーポレーションが、ライフガードというスクールバスの安全構造を導入した。	NO_PRONOUNCE	NO_LABEL
それから間もなく、この製造会社は全国的な競技会を開催してスクールバスの安全性を高めるアイディアを求め、優勝者には新しいライフガード・スクールバスを提供することとした。	NO_PRONOUNCE	NO_LABEL
グーチランド郡教育学区では初の黒人委員パール・P・ランドルフが優勝を勝ち取った。	NO_PRONOUNCE	NO_LABEL
その結果としてグーチランド郡教育学区は新しいスクールバスを受け取った。	そのけっかとしてぐーちらんどぐんきょーいくがっくわあたらしいすくーるばすをうけとった。	NO_LABEL
パールのアイディアはスクールバスの屋根に遮音版を据えることで、運転手のイライラを軽減することだった。	ぱーるのあいでぃあわすくーるばすのやねにしゃおんばんをすえることで、うんてんしゅのいらいらをけいげんすることだった。	NO_LABEL
コンパクトな形態のこの装置は、1980年代にウェイン・コーポレーションなどバス製造会社が実用化した。	NO_PRONOUNCE	NO_LABEL
この時代はディーゼル・エンジンとその大きな騒音が当たり前のことになっていた。	NO_PRONOUNCE	NO_LABEL
2000年代初期にグーチランドの成長に貢献したのは、ウェストクリーク企業団地の建設と、リッチモンドの半円状州道288号線の完成だった。	NO_PRONOUNCE	NO_LABEL
この州道は郡と州間高速道路64号線や同95号線という幹線道路とを繋いだ。	NO_PRONOUNCE	NO_LABEL
企業団地にはバージニアのファーム・ビューロとパフォーマンス・フード・グループのための本部、さらにホールマーク・ユースケア、カーマックス、キャピタルワンなど、多くの企業が誘致されてきた。	NO_PRONOUNCE	NO_LABEL
グーチランド郡の2011年包括的財務報告書に拠れば、郡内の主要雇用主は次の通りである。	ぐーちらんどぐんのにせんじゅういちねんほーかつてきざいむほーこくしょによれば、ぐんないのしゅよーこよーぬしわつぎのとーりである。	NO_LABEL
アメリカ合衆国国勢調査局に拠れば、郡域全面積は290平方マイルであり、このうち陸地284平方マイル、水域は6平方マイルで水域率は1.92%である。	NO_PRONOUNCE	NO_LABEL
郡内の水はジェームズ川に排水される。	ぐんないのみずわじぇーむずかわにはいすいされる。	NO_LABEL
以下は2000年の国勢調査による人口統計データである。	いかわにせんねんのこくせいちょうさによるじんこーとーけいでーたである。	NO_LABEL
郡内に法人化された町は無い。	ぐんないにほーじんかされたまちわない。	NO_LABEL
下記リストは未編入の町である。	かきりすとわみへんにゅーのまちである。	NO_LABEL
