『ロミオVSジュリエット』は、QuinRoseより2013年8月22日に発売されたPlayStation Portable用恋愛アドベンチャーゲームで、『ロミオとジュリエット』をモチーフとした乙女ゲーム作品のシリーズ第一作目。	NO_PRONOUNCE	NO_LABEL
本項目では続編の『ロミオ&ジュリエット』についても扱う。	NO_PRONOUNCE	NO_LABEL
ヴァンパイアの跋扈する国―ヴェローナを舞台に、題材となる『ロミオとジュリエット』の登場人物と同じ名前のキャラクター達と主人公が恋愛模様を繰り広げる。	NO_PRONOUNCE	NO_LABEL
『ロミオとジュリエット』を下敷きにしたストーリーだが、メイン2人の死を回避するエンディングも存在。	NO_PRONOUNCE	NO_LABEL
&では『ロミオとジュリエット』そのものが劇中劇として、またVSでも『ロミオとジュリエット』を始めとして同作者―シェイクスピアの代表作―『ハムレット』等から名台詞がしばしば登場する。	NO_PRONOUNCE	NO_LABEL
現在は、PlayStation Vita版の全巻パックが発売されている。	NO_PRONOUNCE	NO_LABEL
小国―ヴェローナの大公―エスカラスにより、かねてからの懸案事項であった脅威―ヴァンパイアとの融和政策が発表された教会。	NO_PRONOUNCE	NO_LABEL
ヴァンパイアハンターの認定試験を間近に控えていた見習いの主人公を始め、多くの関係者が動揺する中、街の一角へのヴァンパイア襲撃の報が入る。	NO_PRONOUNCE	NO_LABEL
先輩ハンター達と共に現場に急行した主人公だったが、予想外に多勢なヴァンパイア達に、ピンチに追い込まれてしまう。	NO_PRONOUNCE	NO_LABEL
そんな主人公を助けたのは、ヴァンパイアの王―ロミオとその従者―マキューシオだった。	NO_PRONOUNCE	NO_LABEL
更に隻眼のヴァンパイア―ベンヴォーリオに看護された事で、主人公は両親を惨殺された過去からこれまで何の疑問もなく歩んで来たハンターへの道、ヴァンパイアという種族についてを、融和政策に揺れるヴェローナを駆け巡りながら見つめ直し始める。	NO_PRONOUNCE	NO_LABEL
数々の苦難を乗り越え、和平協議の成立したヴェローナ。	NO_PRONOUNCE	NO_LABEL
日没後の街中にはポツポツとヴァンパイア達の姿が、そんなヴァンパイア達を歓迎するように深夜営業を始める商店が見られるようになっていた。	NO_PRONOUNCE	NO_LABEL
そんなある日、主人公の元へエスカラスから舞踏会への招待状が届く。	そんなあるひ、しゅじんこーのもとええすからすからぶとーかいえのしょーたいじょーがとどく。	NO_LABEL
違和感を覚えて先に屋敷を訪ねた主人公は、第三国―マンチュアがヴェローナを属国として狙っている事、その為にヴェローナを弱体化させようとヴァンパイアと人間の和平決裂を画策している可能性を教えられる。	NO_PRONOUNCE	NO_LABEL
かつての悲劇を繰り返すまいと、以前手を取り合ったヴァンパイア・人間双方の仲間達と共に、主人公は再び立ち上がる。	NO_PRONOUNCE	NO_LABEL
大公―エスカラスが400年に渡って治める国。	NO_PRONOUNCE	NO_LABEL
建国同様にハッキリしない程昔からヴァンパイアとの攻防を続けており、教会所属のヴァンパイアハンターによって、なんとか襲撃を凌いでいる。	NO_PRONOUNCE	NO_LABEL
その為、他国との交易には手が回らないという鎖国状態で、銃火器以外の文明は周辺国より大きく遅れてしまっている。	そのため、たこくとのこーえきにわてがまわらないとゆうさこくじょーたいで、じゅーかきいがいのぶんめいわしゅーへんこくよりおーきくおくれてしまっている。	NO_LABEL
ヴァンパイアを恐れ、日没後の国内には人の行き交いはほぼ皆無で、一部歓楽街があるのみ。	NO_PRONOUNCE	NO_LABEL
キャピュレット領と狭間の川を挟んで隣接する、日の差し込まない程に木々が生い繁った森に居を構える異種族。	きゃぴゅれっとりょーとはざまのかわをはさんでりんせつする、ひのさしこまないほどにきぎがなまいしげったもりにきょをかまえるいしゅぞく。	NO_LABEL
しかし見た目には人間との差異は殆どなく、見分けは付かない。	しかしみためにわにんげんとのさいわほとんどなく、みわけわつかない。	NO_LABEL
