「赤いハンカチ」は、1962年10月に発売された石原裕次郎のヒット曲。	NO_PRONOUNCE	NO_LABEL
1964年1月に上記を主題歌とする同名の日活制作の映画が公開されている。	せんきゅうひゃくろくじゅうよねんいちがつにじょーきをしゅだいかとするどーめいのにっかつせいさくのえいががこーかいされている。	NO_LABEL
1964年1月に公開された日活映画。	せんきゅうひゃくろくじゅうよねんいちがつにこーかいされたにっかつえいが。	NO_LABEL
石原裕次郎が主演した一連の「日活ムード・アクション映画」の代表作とも言われる作品である。	NO_PRONOUNCE	NO_LABEL
