WARRIORSは、日本のプロレス団体DRAGON GATEに所属するユニット。	NO_PRONOUNCE	NO_LABEL
旧ユニット名のWARRIORS-5についての記述も含む。	NO_PRONOUNCE	NO_LABEL
2008年5月5日を最後に長期欠場していたCIMAは12月28日、福岡国際センター大会で復帰を果たした。	にせんはちねんごがついつかをさいごにちょーきけつじょーしていたしーまわじゅーにがつにじゅうはちにち、ふくおかこくさいせんたーたいかいでふっきをはたした。	NO_LABEL
オープン・ザ・ツインゲート統一タッグ王座戦で新日本プロレスの獣神サンダー・ライガーと組んで挑戦するも当時王者であるYAMATO、サイバー・コング組に敗れる。	おーぷんざついんげーととーいつたっぐおーざせんでしんにほんぷろれすのじゅうしんさんだーらいがーとくんでちょーせんするもとーじおーじゃであるやまと、さいばーこんぐぐみにやぶれる。	NO_LABEL
試合後にCIMAとは犬猿の仲であるはずのGammaがなぜか彼を介抱する。	しあいごにしーまとわけんえんのなかであるはずのがんまがなぜかかれをかいほーする。	NO_LABEL
前の試合でCIMAの所属するユニットTyphoonも解散マッチに敗れて解散となり、CIMAは帰る場所が無くなり再び長期欠場になる。	NO_PRONOUNCE	NO_LABEL
一方、Gammaは2009年1月18日に同じREAL HAZARDで昨年末から度々衝突していた神田裕之との敗者追放マッチに勝利したにもかかわらず、他メンバーと新井健一郎の陰謀でユニットを追放されてしまう。	いっぽー、がんまわにせんきゅうねんいちがつじゅうはちにちにおなじりあるはざーどでさくねんまつからたびたびしょーとつしていたかんだやすしとのはいしゃついほーまっちにしょーりしたにもかかわらず、ためんばーとあらいけんいちろーのいんぼーでゆにっとをついほーされてしまう。	NO_LABEL
2月15日の博多スターレーンにて行われたオープン・ザ・ツインゲート王座戦で斎藤了の裏切りにあって孤立して袋叩きにされていた横須賀享を救出し共闘を呼びかけ、これを横須賀が承諾する。	NO_PRONOUNCE	NO_LABEL
そのままオープン・ザ・ツインゲート王座挑戦を表明するが、Gammaはこの日でDRAGON GATEとの契約が切れることになっていた。	NO_PRONOUNCE	NO_LABEL
そこで契約を3月1日まで延長して王座戦で勝てば更に契約延長、負ければDRAGON GATE永久追放というルールで挑むことになった。	そこでけいやくをさんがつついたちまでえんちょーしておーざせんでかてばさらにけいやくえんちょー、まければどらごんげーとえいきゅーついほーとゆうるーるでいどむことになった。	NO_LABEL
そして3月1日の大阪府立体育会館第2競技場大会での王座戦で勝利。	NO_PRONOUNCE	NO_LABEL
この試合中にKAGETORAがREAL HAZARDを裏切り、Gamma、横須賀に味方する。	このしあいちゅーにかげとらがりあるはざーどをうらぎり、がんま、よこすかにみかたする。	NO_LABEL
2人は第6代王者となりGammaは試合後に「一緒に戦って行く仲間を紹介する」と言い、年始から音信不通だったCIMAを呼び込む。	NO_PRONOUNCE	NO_LABEL
CIMA、Gamma、横須賀、KAGETORAの4人で活動して行くことを表明してユニット名をWARRIORS-5と発表。	NO_PRONOUNCE	NO_LABEL
3月20日の神戸大会で5人目のメンバー藤田洋平改めRYOMAが加入。	さんがつはつかのこーべたいかいでごにんめのめんばーふじたよーへいあらためりょうまがかにゅー。	NO_LABEL
4月15日の後楽園ホール大会にて、CIMA、Gamma、KAGETORAがKAMIKAZEの鷹木、ドラゴン・キッド、岩佐組を破りオープン・ザ・トライアングル・ゲート王座を獲得。	NO_PRONOUNCE	NO_LABEL
7月8日にはWARRIORS-5の自主興行「一丁目ワッショイ!ワッショイ!!」を開催して大成功を収める。	NO_PRONOUNCE	NO_LABEL
10月25日、享が博多スターレーン大会にて土井成樹の持つオープン・ザ・ドリームゲート王座戦に挑戦するも失敗、試合後にはCIMA、Gammaとの間に亀裂が生じて享が不穏な動きを見せるようになる。	じゅーがつにじゅうごにち、とーるがはかたすたーれーんたいかいにてどいなるきのもつおーぷんざどりーむげーとおーざせんにちょーせんするもしっぱい、しあいごにわしーま、がんまとのまにきれつがしょーじてとーるがふおんなうごきをみせるよーになる。	NO_LABEL
12月3日、後楽園大会にて享がWARRIORS-5を離脱してREAL HAZARDに加入。	NO_PRONOUNCE	NO_LABEL
それ以降、KAGETORAがCIMAとGammaに不信感を募らせるようになる。	それいこー、かげとらがしーまとがんまにふしんかんをつのらせるよーになる。	NO_LABEL
12月27日、福岡国際センター大会でCIMAとGammaがオープン・ザ・ツインゲート統一タッグ王座を獲得するがベルト返上。	じゅーにがつにじゅうしちにち、ふくおかこくさいせんたーたいかいでしーまとがんまがおーぷんざついんげーととーいつたっぐおーざをかくとくするがべるとへんじょー。	NO_LABEL
試合後CIMAが「WARRIORS-5は2人でやっているようなもの」とKAGETORAとの関係が悪化していると思われる発言をした。	NO_PRONOUNCE	NO_LABEL
2010年2月27日、REAL HAZARDから追放されたKAGETORAを賭けKAMIKAZEと「KAGETORA・コントラ・KAGETORA」を行うも敗北。	NO_PRONOUNCE	NO_LABEL
しかしながらその時にたまたまセコンドに居た堀口元気をメンバーに勧誘。	しかしながらそのときにたまたませこんどにいたほりぐちげんきをめんばーにかんゆー。	NO_LABEL
堀口は欠場中の斎藤了の加入を条件にメンバー入りをした。	ほりぐちわけつじょーちゅーのさいとーりょーのかにゅーをじょーけんにめんばーいりをした。	NO_LABEL
これに伴いユニット名をWARRIORSに改名。	NO_PRONOUNCE	NO_LABEL
2011年1月14日、大阪府立体育会館第2競技場大会のメインイベント終了後に以前から度々、現れていた鉄仮面集団の正体として土井軍と共に登場して土井軍との合体を発表。	NO_PRONOUNCE	NO_LABEL
