カルステン・クローンは、オランダ、ダレン出身の自転車競技選手。	かるすてんくろーんわ、おらんだ、だれんしゅっしんのじてんしゃきょーぎせんしゅ。	NO_LABEL
1999年、ラボバンクと契約を結んでプロ転向。	せんきゅうひゃくきゅうじゅうきゅうねん、らぼばんくとけいやくをむすんでぷろてんこー。	NO_LABEL
2001年	にせんいちねん	NO_LABEL
2002年	にせんにねん	NO_LABEL
2004年	にせんよねん	NO_LABEL
2006年、チームCSCに移籍。	にせんろくねん、ちーむしーえすしーにいせき。	NO_LABEL
2008年	にせんはちねん	NO_LABEL
2009年	にせんきゅうねん	NO_LABEL
2010年、BMC・レーシングチームに移籍。	NO_PRONOUNCE	NO_LABEL
2012年、チーム・サクソバンクに移籍。	NO_PRONOUNCE	NO_LABEL
