株式会社須原屋は、埼玉県さいたま市浦和区仲町に本店を置く書店チェーン。	かぶしきがいしゃすばるやわ、さいたまけんさいたましうらわくなかちょーにほんてんをおくしょてんちぇーん。	NO_LABEL
江戸時代の版元須原屋茂兵衛の流れをくむ。	えどじだいのはんもとすはらやもへーのながれをくむ。	NO_LABEL
創業約140年が経過し、県都である浦和や埼玉県を代表する老舗書店として知られている。	そーぎょーやくひゃくよんじゅうねんがけいかし、けんとであるうらわやさいたまけんをだいひょーするしにせしょてんとしてしられている。	NO_LABEL
本店は地下1階から3階までのフロアがあり、8つの支店を持つ埼玉県内最大級の書店となっている。	ほんてんわちかいっかいからさんかいまでのふろあがあり、やっつのしてんをもつさいたまけんないさいだいきゅーのしょてんとなっている。	NO_LABEL
