香港民族党は香港において、香港独立を主張する政党である。	ほんこんみんぞくとーわほんこんにおいて、ほんこんどくりつをしゅちょーするせいとーである。	NO_LABEL
香港において初めて独立を主張した政党である。	ほんこんにおいてはじめてどくりつをしゅちょーしたせいとーである。	NO_LABEL
成立したのは2016年3月28日。	せいりつしたのわにせんじゅうろくねんさんがつにじゅうはちにち。	NO_LABEL
香港民族党の召集人は陳浩天、発言者は周浩輝である。	ほんこんみんぞくとーのしょーしゅーじんわちんひろしてん、はつげんしゃわしゅーひろきである。	NO_LABEL
香港民族党は香港が中華人民共和国から独立し主権国家となることを目指している。	ほんこんみんぞくとーわほんこんがちゅーかじんみんきょーわこくからどくりつししゅけんこっかとなることをめざしている。	NO_LABEL
香港民族党は1841年に香港がイギリスの植民地になった後、中国大陸とは違う歴史を歩み、香港は社会、経済、政治、文化に独自性を持ち無意識の中で客観的に一つの民族とみなせる状態になった。	ほんこんみんぞくとーわせんはっぴゃくよんじゅういちねんにほんこんがいぎりすのしょくみんちになったのち、ちゅーごくたいりくとわちがうれきしをあゆみ、ほんこんわしゃかい、けいざい、せいじ、ぶんかにどくじせいをもちむいしきのなかできゃっかんてきにひとつのみんぞくとみなせるじょーたいになった。	NO_LABEL
1997年に香港返還が中華人民共和国になされたのち、香港は中華人民共和国から圧迫を受け、これは香港人にとっては外来者の侵入であった。	せんきゅうひゃくきゅうじゅうななにほんこんへんかんがちゅーかじんみんきょーわこくになされたのち、ほんこんわちゅーかじんみんきょーわこくからあっぱくをうけ、これわほんこんじんにとってわがいらいしゃのしんにゅーであった。	NO_LABEL
その中で「香港民族主義」が生まれ、さらにこれを発展させるものとする。	NO_PRONOUNCE	NO_LABEL
香港民族党は「民族を自ら強くし、香港独立を成し遂げる」ことを目標として	NO_PRONOUNCE	NO_LABEL
香港民族党の設立に対し、中国メディアは「血迷った」「無頼」「政治的白痴」と非難した。	NO_PRONOUNCE	NO_LABEL
陳浩天は「独立国家になるか、それとも中国の一都市になるか。	NO_PRONOUNCE	NO_LABEL
選択肢は2つしかない」、「われわれは中国人ではなく、香港人だ。	NO_PRONOUNCE	NO_LABEL
法の支配を尊重し広東語を話す世界でも唯一の存在だ。	ほーのしはいをそんちょーしかんとんごをはなすせかいでもゆいいつのそんざいだ。	NO_LABEL
こうした認識が広がれば自動的に香港は独立へと向かうだろう」と語った。	NO_PRONOUNCE	NO_LABEL
また、2016年の議会選挙で、香港民族党の主張は香港基本法に反するとして、出馬が認められなかった。	また、にせんじゅうろくねんのぎかいせんきょで、ほんこんみんぞくとーのしゅちょーわほんこんきほんほーにはんするとして、しゅつばがみとめられなかった。	NO_LABEL
その後、6月30日に「香港陥落20周年」追悼集会を行う。	NO_PRONOUNCE	NO_LABEL
台湾独立の父と言われる史明やモンゴル自由連盟党と連携するため日本を訪れるなど、他の独立勢力との交流を行う。	たいわんどくりつのちちといわれるふみあきやもんごるじゆーれんめいとーとれんけいするためにっぽんをおとずれるなど、たのどくりつせいりょくとのこーりゅーをおこなう。	NO_LABEL
アメリカに香港関連法の廃止を求めるなどの活動を行っている。	あめりかにほんこんかんれんほーのはいしをもとめるなどのかつどーをおこなっている。	NO_LABEL
