1972年最高裁判所裁判官国民審査は、1972年12月10日に第33回衆議院議員総選挙と共に執行された最高裁判所裁判官国民審査。	せんきゅうひゃくななじゅうにねんさいこーさいばんしょさいばんかんこくみんしんさわ、せんきゅうひゃくななじゅうにねんじゅーにがつとおかにだいさんじゅうさんかいしゅーぎーんぎーんそーせんきょとともにしっこーされたさいこーさいばんしょさいばんかんこくみんしんさ。	NO_LABEL
7人の最高裁判所裁判官に対して国民審査が行われ、全員罷免しないとされた。	しちにんのさいこーさいばんしょさいばんかんにたいしてこくみんしんさがおこなわれ、ぜんいんひめんしないとされた。	NO_LABEL
投票率は67.61%であった。	NO_PRONOUNCE	NO_LABEL
沖縄返還後に行われた初めての国民審査であり、沖縄県の有権者が初めて国民審査に参加した。	おきなわへんかんごにおこなわれたはじめてのこくみんしんさであり、おきなわけんのゆーけんしゃがはじめてこくみんしんさにさんかした。	NO_LABEL
下田武三に対する最低の罷免を可とする率の15.17%は歴代最高である。	NO_PRONOUNCE	NO_LABEL
なお、下田は駐米大使時代に「沖縄の核兵器付き返還が現実的」旨の発言をしていたため沖縄での反発は強く、沖縄県内54市町村のうち6市町村で最低の罷免を可とする率が過半数を上回った。	NO_PRONOUNCE	NO_LABEL
罷免を可とする率が高かった裁判官と罷免を可とする率が低かった裁判官との差が3.75%となり、歴代最大差となった。	NO_PRONOUNCE	NO_LABEL
