1980年最高裁判所裁判官国民審査は、1980年6月22日に第36回衆議院議員総選挙と共に執行された最高裁判所裁判官国民審査。	せんきゅうひゃくはちじゅうねんさいこーさいばんしょさいばんかんこくみんしんさわ、せんきゅうひゃくはちじゅうねんろくがつにじゅうににちにだいさんじゅうろっかいしゅーぎーんぎーんそーせんきょとともにしっこーされたさいこーさいばんしょさいばんかんこくみんしんさ。	NO_LABEL
4人の最高裁判所裁判官に対して国民審査が行われ、全員罷免しないとされた。	よにんのさいこーさいばんしょさいばんかんにたいしてこくみんしんさがおこなわれ、ぜんいんひめんしないとされた。	NO_LABEL
投票率は72.51%であった。	NO_PRONOUNCE	NO_LABEL
