プンタは、祝典や祝祭の場で歌い踊られる、	ぷんたわ、しゅくてんやしゅくさいのばでうたいおどられる、	NO_LABEL
ガリフナの音楽とダンスの一形式である。	がりふなのおんがくとだんすのいちけいしきである。	NO_LABEL
ダンスは、	だんすわ、	NO_LABEL
現代のセントビンセント島やドミニカ島	げんだいのせんとびんせんととーやどみにかとー	NO_LABEL
に住むガリフナ住民達の生活の中から生まれたものである。	にすむがりふなじゅーみんたちのせいかつのなかからうまれたものである。	NO_LABEL
ホンジュラス、ベリーズ、グアテマラ、及びニカラグアの一部地域において、	ほんじゅらす、べりーず、ぐあてまら、およびにからぐあのいちぶちーきにおいて、	NO_LABEL
最もよく知られた伝統的なダンスはプンタで、	もっともよくしられたでんとーてきなだんすわぷんたで、	NO_LABEL
現地のガリフナの人達は、それをバングイティと呼ぶ。	げんちのがりふなのひとたちわ、それをばんぐいてぃとよぶ。	NO_LABEL
ガリフナ文化において、	がりふなぶんかにおいて、	NO_LABEL
ガリフナの人々は自らをガリナグともガリフナ	がりふなのひとびとわみずからをがりなぐともがりふな	NO_LABEL
とも称するが、ガリフナと言う場合は、	ともしょーするが、がりふなというばあいわ、	NO_LABEL
主に、ガリフナ文化や音楽、そしてダンスのことを指すことが多く、	おもに、がりふなぶんかやおんがく、そしてだんすのことをさすことがおーく、	NO_LABEL
人々を指し示す意味で使われることは相対的に少ない。	ひとびとをさししめすいみでつかわれることわそーたいてきにすくない。	NO_LABEL
ガリフナのダンスや音楽の代表例であるプンタの起源については考えられる説が様々ある。	がりふなのだんすやおんがくのだいひょーれいであるぷんたのきげんについてわかんがえられるせつがさまざまある。	NO_LABEL
プンタという語は、ブンダ	ぷんたとゆうかたりわ、ぶんだ	NO_LABEL
と呼ばれる古代西アフリカのリズムの名称がラテン語化したものである。	とよばれるこだいにしあふりかのりずむのめいしょーがらてんごかしたものである。	NO_LABEL
また、プンタのダンスは、クリアオという呼び名でも知られている。	また、ぷんたのだんすわ、くりあおとゆうよびなでもしられている。	NO_LABEL
この呼び名は、スペイン語の「culeado」	NO_PRONOUNCE	NO_LABEL
に由来する。	にゆらいする。	NO_LABEL
別の説では、「from point to point」	NO_PRONOUNCE	NO_LABEL
を意味するスペイン語に由来する、という説もある。	をいみするすぺいんごにゆらいする、とゆうせつもある。	NO_LABEL
プンタのダンスは、男女のダンサーが観客に囲まれた輪の中で別々に踊る形式で踊られる。	ぷんたのだんすわ、だんじょのだんさーがかんきゃくにかこまれたわのなかでべつべつにおどるけいしきでおどられる。	NO_LABEL
男女のダンサーは向き合って踊り始めるが、踊りの動作は各人が自由な振付で踊るので、	だんじょのだんさーわむきあっておどりはじめるが、おどりのどーさわかくじんがじゆーなふりつけでおどるので、	NO_LABEL
決まった振付の型があるわけではないが、	きまったふりつけのかたがあるわけでわないが、	NO_LABEL
いつも男女の求愛を表すダンスを踊り、まず、男が求愛し、次に女が求愛し、	いつもだんじょのきゅーあいをあらわすだんすをおどり、まず、おとこがきゅーあいし、つぎにおんながきゅーあいし、	NO_LABEL
夫々が踊っている間は片方は、その求愛ダンスを見ている、という形式。	それぞれがおどっているまわかたほーわ、そのきゅーあいだんすをみている、とゆうけいしき。	NO_LABEL
そして、それを延々と繰り返し、男女のどちらかが、	そして、それをえんえんとくりかえし、だんじょのどちらかが、	NO_LABEL
疲労でもやる気の減退でも理由は何であれ根負けを認めて観客に取り囲まれた輪の外に退散し、	ひろーでもやるきのげんたいでもりゆーわなにであれこんまけをみとめてかんきゃくにとりかこまれたわのそとにたいさんし、	NO_LABEL
その後、即座にその抜けた男女どちらかの代わりに、	そのご、そくざにそのぬけただんじょどちらかのかわりに、	NO_LABEL
誰かが輪の中に入ってきて踊り始めれば、また延々と継続され、	だれかがわのなかにはいってきておどりはじめれば、またえんえんとけいぞくされ、	NO_LABEL
誰も踊るものが出なくなるまで、終わることなく男女交互の求愛ダンスは続けられる。	だれもおどるものがでなくなるまで、おわることなくだんじょこーごのきゅーあいだんすわつずけられる。	NO_LABEL
