右近 桜月は、福井県出身の日本の書家。	うこんさくらつきわ、ふくいけんしゅっしんのにっぽんのしょか。	NO_LABEL
「書ドル」を名乗って活動をおこなっている。	NO_PRONOUNCE	NO_LABEL
福井県南越前町出身。	ふくいけんみなみえちぜんちょーしゅっしん。	NO_LABEL
5歳より書道を始める。	ごさいよりしょどーをはじめる。	NO_LABEL
16歳からは垣内楊石に師事。	じゅうろっさいからわかきうちやなぎせきにしじ。	NO_LABEL
2017年現在は兵庫県在住。	にせんじゅうななねんげんざいわひょーごけんざいじゅー。	NO_LABEL
作品には越前和紙を使用している。	さくひんにわえちぜんわしをしよーしている。	NO_LABEL
