十津川 省三は、西村京太郎の推理小説に登場する架空の警察官。	とつかわしょーぞーわ、にしむらきょうたろーのすいりしょーせつにとーじょーするかくーのけいさつかん。	NO_LABEL
十津川警部として知られる、『十津川警部シリーズ』の主人公である。	NO_PRONOUNCE	NO_LABEL
西村作品の代表的キャラクターとして多くの作品に登場している。	にしむらさくひんのだいひょーてききゃらくたーとしておーくのさくひんにとーじょーしている。	NO_LABEL
テレビでの映像化も多い。	てれびでのえいぞーかもおーい。	NO_LABEL
警視庁刑事部捜査一課に所属する警察官で、階級は警部である。	けいしちょーけいじぶそーさいちかにしょぞくするけいさつかんで、かいきゅーわけいぶである。	NO_LABEL
部下の亀井刑事をパートナーとして多くの事件解決に当たっている。	ぶかのかめいけいじをぱーとなーとしておーくのじけんかいけつにあたっている。	NO_LABEL
捜査一課内での立場は作品によって幅があるが、自身を含めて、7-10人程度で構成される「十津川班」のリーダーである。	NO_PRONOUNCE	NO_LABEL
基本的に捜査は「十津川班」のみや現場管轄の所轄署に設けられた捜査本部で行うことが多いが、事件が地方や海外に関係する場合や薬物及び暴力団がらみの事件の場合は現地の警察機関や警視庁刑事部の他の部署と合同で捜査することが多い。	NO_PRONOUNCE	NO_LABEL
そのような合同捜査の際、十津川は警視庁代表として会議などで指揮、発言している。	そのよーなごーどーそーさのさい、とつかわわけいしちょーだいひょーとしてかいぎなどでしき、はつげんしている。	NO_LABEL
東京都内を中心に日本全国、時には世界各国も飛び回り、殺人などの事件を捜査、被疑者を逮捕、発見している。	とーきょーとないをちゅーしんににっぽんぜんこく、ときにわせかいかっこくもとびまわり、さつじんなどのじけんをそーさ、ひぎしゃをたいほ、はっけんしている。	NO_LABEL
捜査の大半は警察官として捜査に当たっているが、一部では一般人として調査することもある。	そーさのたいはんわけいさつかんとしてそーさにあたっているが、いちぶでわいっぱんじんとしてちょーさすることもある。	NO_LABEL
十津川が初めて登場した西村作品は『赤い帆船』である。	NO_PRONOUNCE	NO_LABEL
主にトラベルミステリー、特に鉄道を舞台にした事件での活躍が多いが、初登場時以降しばらくは海を舞台に活躍していた。	おもにとらべるみすてりー、とくにてつどーをぶたいにしたじけんでのかつやくがおーいが、はつとーじょーじいこーしばらくわうみをぶたいにかつやくしていた。	NO_LABEL
「十津川」の名の由来は奈良県十津川村から。	NO_PRONOUNCE	NO_LABEL
西村京太郎が探偵役の名前を考えていた際、たまたま見ていた日本地図で目に留まったためという。	にしむらきょうたろーがたんていやくのなまえをかんがえていたさい、たまたまみていたにほんちずでめにとまったためという。	NO_LABEL
なお、村名は「とつかわ」と濁らないが、十津川省三の姓は「とつがわ」と濁る。	NO_PRONOUNCE	NO_LABEL
