富樫 じゅんは、日本の漫画家。	とかしじゅんわ、にほんのまんがか。	NO_LABEL
奈良県奈良市出身。	ならけんならししゅっしん。	NO_LABEL
京都教育大学卒業。	きょーときょーいくだいがくそつぎょー。	NO_LABEL
1981年、高校2年生の時、「あなた大物よ！」でデビュー、大学在学中は読切作品を手掛けた。	NO_PRONOUNCE	NO_LABEL
1987年、プリンセスに「好派！蘭丸応援団」を連載。	NO_PRONOUNCE	NO_LABEL
1990年には単行本の他、カレンダー、イメージアルバムも発売された。	せんきゅうひゃくきゅうじゅうねんにわたんこーほんのほか、かれんだー、いめーじあるばむもはつばいされた。	NO_LABEL
