『アメリカン・クライム・ストーリー』は、スコット・アレクサンダーとラリー・カラゼウスキーが企画し、両名に加えてライアン・マーフィー、ブラッド・ファルチャック、、ブラッド・シンプソンが製作総指揮を務めるアメリカ合衆国の・テレビシリーズである。	NO_PRONOUNCE	NO_LABEL
2016年2月2日よりアメリカ合衆国のケーブル局FXで放送開始された。	にせんじゅうろくねんにがつふつかよりあめりかがっしゅーこくのけーぶるきょくえふえっくすでほーそーかいしされた。	NO_LABEL
マーフィーとファルチャックの『アメリカン・ホラー・ストーリー』と同様に各シーズンが独立したミニシリーズであり、それぞれ実在の事件を描いている。	NO_PRONOUNCE	NO_LABEL
2018年1月17日より第2シーズン『アメリカン・クライム・ストーリー/ヴェルサーチ暗殺』が始まった。	NO_PRONOUNCE	NO_LABEL
第3シーズンはハリケーン・カトリーナ、さらに企画中の第4シーズンはが主題となる予定である。	NO_PRONOUNCE	NO_LABEL
<onlyinclude></onlyinclude>	NO_PRONOUNCE	NO_LABEL
注釈出典	ちゅーしゃくしゅってん	NO_LABEL
