木﨑 信志は、沖縄県うるま市出身で、木瀬部屋所属の現役大相撲力士。	NO_PRONOUNCE	NO_LABEL
本名同じ。	ほんみょーおなじ。	NO_LABEL
最高位は西幕下3枚目。	さいこーいわにしまくしたさんまいめ。	NO_LABEL
弟は同じ木瀬部屋に所属する木﨑海。	NO_PRONOUNCE	NO_LABEL
1993年、沖縄県に生まれる。	せんきゅうひゃくきゅうじゅうさんねん、おきなわけんにうまれる。	NO_LABEL
小学校の頃から叔父が監督を務めていた中部農林高校に通い、高校生と稽古をしていた。	しょーがっこーのころからおじがかんとくをつとめていたちゅーぶのーりんこーこーにかよい、こーこーせいとけいこをしていた。	NO_LABEL
小学校5年生の時、スポーツで市の文化振興の発展に貢献したとして沖縄市教育委員会から表彰された。	しょーがっこーごねんせいのとき、すぽーつでしのぶんかしんこーのはってんにこーけんしたとしておきなわしきょーいくいーんかいからひょーしょーされた。	NO_LABEL
中学校入学後は目立った活躍がなかったものの、3年時に弟の入学と同時に「自らを厳しい場所に置くため」と鳥取市立西中学校に転校、卒業後は名門・鳥取城北高校へ進学した。	NO_PRONOUNCE	NO_LABEL
高校時代は親元を離れ自分で家事をしながら相撲に打ち込む仲間たちの相撲と向き合う姿勢に触発され、稽古に明け暮れた結果、団体戦で複数の国内大会を制する実績を残した。	こーこーじだいわおやもとをはなれじぶんでかじをしながらすもーにうちこむなかまたちのすもーとむきあうしせいにしょくはつされ、けいこにあけくれたけっか、だんたいせんでふくすーのこくないたいかいをせいするじっせきをのこした。	NO_LABEL
鳥取城北高校卒業後は日本大学へ進学。	とっとりじょーほくこーこーそつぎょーごわにほんだいがくえしんがく。	NO_LABEL
同大学でも着実に成績を残したが、全国学生相撲選手権はベスト4、全日本選手権はベスト16止まりで幕下・三段目付出資格を得られなかった。	NO_PRONOUNCE	NO_LABEL
体もそれほど大きくないため角界入りするかどうか悩み、卒業後は就職の道を選ぼうとしていたという。	からだもそれほどおーきくないためかくかいいりするかどーかなやみ、そつぎょーごわしゅーしょくのみちをえらぼうとしていたという。	NO_LABEL
しかし、木瀬親方にプロ入りを進められ、悩んだ結果、「チームではなく自分のために相撲を取ろう」と、入門を決意した。	NO_PRONOUNCE	NO_LABEL
2016年3月、日本大学を卒業し、3月場所で初土俵を踏んだ。	にせんじゅうろくねんさんがつ、にほんだいがくをそつぎょーし、さんがつばしょではつどひょーをふんだ。	NO_LABEL
同年5月場所に西序ノ口15枚目で初めて番付に名が載り、6勝1敗。	どーねんごがつばしょににしじょのくちじゅうごまいめではじめてばんずけにながのり、ろくしょーいちはい。	NO_LABEL
翌7月場所には東序二段38枚目で7戦全勝し、序二段優勝を果たした。	よくしちがつばしょにわひがしじょにだんさんじゅうはちまいめでななせんぜんしょーし、じょにだんゆーしょーをはたした。	NO_LABEL
さらに、西三段目39枚目で迎えた9月場所でも全勝し、2場所連続の各段優勝を決めた。	NO_PRONOUNCE	NO_LABEL
以降も各段優勝こそなかったものの、コンスタントに勝ち越しを続け、2017年9月場所では西幕下3枚目に昇進。	いこーもかくだんゆーしょーこそなかったものの、こんすたんとにかちこしをつずけ、にせんじゅうななねんくがつばしょでわにしまくしたさんまいめにしょーしん。	NO_LABEL
7日目・北磻磨戦で初めて十両力士との対戦に臨み、叩き込みで勝利したものの、その後3連敗で入門以来初の負け越しを喫してしまった。	NO_PRONOUNCE	NO_LABEL
なお、当場所は千秋楽にも新十両の矢後とも対戦したが押し出しで敗れた。	なお、とーばしょわせんしゅーらくにもしんじゅうりょーのやごともたいせんしたがおしだしでやぶれた。	NO_LABEL
東幕下7枚目からの出直しを余儀なくされた翌11月場所も同様に3勝1敗からの3連敗で負け越してしまったが、2018年1月場所・3月場所を連続で勝ち越し、同年5月場所は再び自己最高位付近に番付を戻した。	NO_PRONOUNCE	NO_LABEL
2018年3月場所終了現在	にせんじゅうはちねんさんがつばしょしゅーりょーげんざい	NO_LABEL
