エドモンド・ケアロハ・“エド”・パーカーは、アメリカ合衆国の武術家。	NO_PRONOUNCE	NO_LABEL
アメリカン・ケンポーの創始者。	NO_PRONOUNCE	NO_LABEL
戦後アメリカで最も成功した武術家の一人である。	せんごあめりかでもっともせいこーしたぶじゅつかのひとりである。	NO_LABEL
エド・パーカーは、1931年、ハワイ州ホノルルに生まれた。	えどぱーかーわ、せんきゅうひゃくさんじゅういちね、はわいしゅーほのるるにうまれた。	NO_LABEL
12歳の時にまず柔道を、後にボクシングを習った。	じゅうにさいのときにまずじゅーどーを、ごにぼくしんぐをならった。	NO_LABEL
1940年代、最初フランク・チョウに、後にウィリアム・チョウに師事して、ケンポーを修めた。	NO_PRONOUNCE	NO_LABEL
その間、アメリカ沿岸警備隊で働き、ブリガムヤング大学に通った。	そのかん、あめりかえんがんけいびたいではたらき、ぶりがむやんぐだいがくにとーった。	NO_LABEL
1953年、黒帯を取得した。	せんきゅうひゃくごじゅうさんねん、くろおびをしゅとくした。	NO_LABEL
1954年、ユタ州プロボに最初の道場を開設。	せんきゅうひゃくごじゅうよねん、ゆたしゅーぷろぼにさいしょのどーじょーをかいせつ。	NO_LABEL
その後1956年までに、カリフォルニア州パサデナにも道場を開いた。	そのごせんきゅうひゃくごじゅうろくねんまでに、かりふぉるにあしゅーぱさでなにもどーじょーをひらいた。	NO_LABEL
パーカーは、商業センスに優れ、多くの武術家と交流をもち、彼らが自分たちの道場を開設できるように手助けした。	ぱーかーわ、しょーぎょーせんすにすぐれ、おーくのぶじゅつかとこーりゅーをもち、かれらがじぶんたちのどーじょーをかいせつできるよーにてだすけした。	NO_LABEL
1960年、著書『ケンポー・カラテ』を出版した。	NO_PRONOUNCE	NO_LABEL
パーカーは、ハリウッドにも多くの知己をもち、エルヴィス・プレスリーをはじめ、多数の著名人やスタントマンを弟子にもった。	NO_PRONOUNCE	NO_LABEL
また、デビュー前のブルース・リーもパーカーの招きで「」に出演し、この時の演武フィルムがTVプロデューサーの目にとまり、その後のデビューのきっかけになった。	NO_PRONOUNCE	NO_LABEL
プレスリーの晩年には、ボディガードをつとめ、いくつかの映画にスタントマン並びに俳優としても出演している。	ぷれすりーのばんねんにわ、ぼでぃがーどをつとめ、いくつかのえいがにすたんとまんならびにはいゆーとしてもしゅつえんしている。	NO_LABEL
パーカーはアメリカン・ケンポーの創始者であり、しばしば「アメリカン・カラテの父」と称されるなど、戦後アメリカで最も成功した武術家の一人と目されている。	NO_PRONOUNCE	NO_LABEL
1990年、ホノルルで心臓病のために死去した。	せんきゅうひゃくきゅうじゅうねん、ほのるるでしんぞーびょーのためにしきょした。	NO_LABEL
エド・パーカーの弟子には、他にジェフ・スピークマン、ダン・イノサント、アル＆ジム・トレイシー兄弟などがいる。	NO_PRONOUNCE	NO_LABEL
