ディープ・キスは、一方の者の舌が他方の舌に触れ、通常、口の中に入る接吻の一形式である。	でぃーぷきすわ、いっぽーのもののしたがたほーのしたにふれ、つーじょー、くちのなかにはいるせっぷんのいちけいしきである。	NO_LABEL
舌を使ったキスは、ロマンスまたは性的な性質を有し、唇、舌、口などの接触に敏感で性感を高める部位を刺激する。	したをつかったきすわ、ろまんすまたわせいてきなせいしつをゆーし、くちびる、した、くちなどのせっしょくにびんかんでせいかんをたかめるぶいをしげきする。	NO_LABEL
この行為は快感を与え、非常に愛撫で、性感を催す。	このこーいわかいかんをあたえ、ひじょーにあいぶで、せいかんをもよおす。	NO_LABEL
挨拶や友情の短いキスのような他の型のキスとは異なり、舌を使ったキスは、長く、激しく、情熱的であることが多い。	あいさつやゆーじょーのみじかいきすのよーなほかのかたのきすとわことなり、したをつかったきすわ、ながく、はげしく、じょーねつてきであることがおーい。	NO_LABEL
本項目ではディープキスと同意語のフレンチ・キスについて詳述する。	ほんこーもくでわでぃーぷきすとどーいごのふれんちきすについてしょーじゅつする。	NO_LABEL
フレンチ・キスという言葉は、第一次世界大戦後にイギリスで誕生した。	ふれんちきすとゆうことばわ、だいいちじせかいたいせんごにいぎりすでたんじょーした。	NO_LABEL
当時のフランスは性に奔放な国として有名であり、当地に行った兵士が帰国後にその実情を皮肉ってこの言葉を作ったと考えられている。	とーじのふらんすわせいにほんぽーなくにとしてゆーめいであり、とーちにいったへいしがきこくごにそのじつじょーをひにくってこのことばをつくったとかんがえられている。	NO_LABEL
現に"french"をその中に持つ英単語には性的な意味を含むものが多い。	NO_PRONOUNCE	NO_LABEL
例えば、第二次世界大戦中に兵士間でよく使われた"french letter"という言葉はコンドームを意味するものであり、"french lemon"は男性同士が陰茎に砂糖を塗りたくり性行為を指す単語として存在している。	NO_PRONOUNCE	NO_LABEL
加えて、フランス語でのキスという単語"baisser"には俗語用法としてセックスの意味があり、こうしたこともフレンチ・キスという言葉をを生み出した要因の一つであろう。	NO_PRONOUNCE	NO_LABEL
また、フランス語でフレンチ・キスにあたる言葉として"Galocher"がある。	NO_PRONOUNCE	NO_LABEL
この語は誕生からしばらくの間俗語として扱われて辞書には登録されなかったが、2014年にフランスの辞書に正式に登録された。	このかたりわたんじょーからしばらくのまぞくごとしてあつかわれてじしょにわとーろくされなかったが、にせんじゅうよねんにふらんすのじしょにせいしきにとーろくされた。	NO_LABEL
日本では、この単語が「唇に軽く触れるキス」、「コミュニケーション程度の軽いキス」といった意味合いで使われることがある。	NO_PRONOUNCE	NO_LABEL
考えられる理由としては、この「フレンチ」という部分がフランス料理やフランスという国のイメージから、あっさりしているものだと思われることがある。	NO_PRONOUNCE	NO_LABEL
また、この語を指して本来の意味から乖離しているとする指摘がなされているが、日本には既により直感的な理解ができる「ディープキス」という語の方が浸透しているため無理な指摘は混同を招く場合がある。	NO_PRONOUNCE	NO_LABEL
主にディープキスが起因となって感染する病気として有名なものに伝染性単核球症がある。	おもにでぃーぷきすがきいんとなってかんせんするびょーきとしてゆーめいなものにでんせんせいたんかくきゅうしょーがある。	NO_LABEL
これは唾液中に含まれるEBウイルスに初めて感染することによって発症するものであり、症状は重めの風邪に似たものとなっている。	これわだえきちゅーにふくまれるいーびーういるすにはじめてかんせんすることによってはっしょーするものであり、しょーじょーわじゅーめのかぜににたものとなっている。	NO_LABEL
ちなみに、これがキス病と言われるのは、主に思春期以降にディープキスをすることによって感染するものであるからなのだが、そうした行為をするようになる思春期以降の日本人は90％以上がEBウィルスに対する抗体を持っていため感染は稀なものであると考えられる。	NO_PRONOUNCE	NO_LABEL
フレンチ・キスを介してHPVに感染する例がある。	NO_PRONOUNCE	NO_LABEL
しかし、HIVは血液感染を主とするため、フレンチ・キスによってそれにかかる可能性はほとんどない。	しかし、えいちあいぶいわけつえきかんせんをおもとするため、ふれんちきすによってそれにかかるかのーせいわほとんどない。	NO_LABEL
また、同じ理由でB型肝炎にかかるともあまり考えられていないが、稀に長いフレンチ・キスによって肺炎に感染する可能性がある。	また、おなじりゆーでびーがたかんえんにかかるともあまりかんがえられていないが、まれにながいふれんちきすによってはいえんにかんせんするかのーせいがある。	NO_LABEL
ただし、これは通常、肺炎菌が活性化している場合に起こることである。	ただし、これわつーじょー、はいえんきんがかっせいかしているばあいにおこることである。	NO_LABEL
フレンチキス―――柏木由紀、高城亜樹、倉持明日香が結成していたAKB48から派生したアイドルグループ	NO_PRONOUNCE	NO_LABEL
キス	きす	NO_LABEL
接吻	せっぷん	NO_LABEL
