茨城県立医療大学付属病院は、茨城県稲敷郡阿見町にある医療機関。	いばらきけんりついりょーだいがくふぞくびょーいんわ、いばらきけんいなしきぐんあみまちにあるいりょーきかん。	NO_LABEL
茨城県立医療大学付属病院の設置及び管理に関する条例に基づき茨城県が開設する茨城県立医療大学附属の病院である。	いばらきけんりついりょーだいがくふぞくびょーいんのせっちおよびかんりにかんするじょーれいにもとずきいばらきけんがかいせつするいばらきけんりついりょーだいがくふぞくのびょーいんである。	NO_LABEL
設置の目的は「茨城県立医療大学における教育研究に資するとともに，リハビリテーションを必要とする県民の健康の維持，回復に必要な医療を提供するため」とされ、リハビリテーションを主な医療とする慢性期型の病院である。	NO_PRONOUNCE	NO_LABEL
