ビクトリア・アブリルはスペイン・マドリード出身の女優、歌手。	NO_PRONOUNCE	NO_LABEL
ダンスを学んでいたが演技に転向し、1974年に映画デビュー。	だんすをまなんでいたがえんぎにてんこーし、せんきゅうひゃくななじゅうよねんにえいがでびゅー。	NO_LABEL
1976年、ビセンテ・アランダ監督の『セックス・チェンジ』で性転換をする主人公を演じて話題となった。	NO_PRONOUNCE	NO_LABEL
その後、TV番組の司会となり、お茶の間で有名となる。	そのご、てれびばんぐみのしかいとなり、おちゃのまでゆーめいとなる。	NO_LABEL
79年にはユーロビジョン・ソング・コンテストに出場した。	ななじゅうきゅうねんにわゆーろびじょんそんぐこんてすとにしゅつじょーした。	NO_LABEL
1980年より、フランスでも活動を展開し、『溝の中の月』、「」で二年連続セザール賞助演女優賞にノミネートされた。	NO_PRONOUNCE	NO_LABEL
一方で、1982年にフランスの撮影監督ジェラール・ド・バティスタとパリで暮らし始め、二人の息子マルタンとフェリックスをもうけた。	NO_PRONOUNCE	NO_LABEL
アランダ監督の『アマンテス／愛人』での熱演でベルリン国際映画祭銀熊賞を受賞。	NO_PRONOUNCE	NO_LABEL
この作品のアメリカでの成功により、ハリウッドからの誘いも舞い込むようになる。	このさくひんのあめりかでのせいこーにより、はりうっどからのさそいもまいこむよーになる。	NO_LABEL
また、『アタメ』や『キカ』といったペドロ・アルモドバル作品で広く知られるようになった。	NO_PRONOUNCE	NO_LABEL
