ブルース・ベレスフォードはオーストラリア・シドニー出身の映画監督・脚本家・映画プロデューサー。	NO_PRONOUNCE	NO_LABEL
シドニー大学で学んだ。	しどにーだいがくでまなんだ。	NO_LABEL
これまで4度パルム・ドールにノミネートされている。	これまでよんどぱるむどーるにのみねーとされている。	NO_LABEL
オペラの演出も手がける。	おぺらのえんしゅつもてがける。	NO_LABEL
監督作のひとつ『ドライビング Miss デイジー』はアカデミー作品賞を受賞したが、ベレスフォードは監督賞にノミネートされなかった。	NO_PRONOUNCE	NO_LABEL
