燕型敷設艇は、日本海軍の敷設艇。	つばめがたふせつていわ、にっぽんかいぐんのふせつてい。	NO_LABEL
同型艦2隻。	NO_PRONOUNCE	NO_LABEL
日本海軍の近代型敷設艇のプロトタイプとなった艇。	にっぽんかいぐんのきんだいがたふせつていのぷろとたいぷとなったてい。	NO_LABEL
第一次世界大戦におけるイギリス海軍対潜作戦の戦訓研究の結果、1921年には防潜網、捕獲網、基準網などが制式兵器に採用され、また防潜網を敷設する小艦艇を建造して実験訓練をすることが至急必要とされた。	だいいちじせかいたいせんにおけるいぎりすかいぐんたいせんさくせんのせんくんけんきゅーのけっか、せんきゅうひゃくにじゅういちねんにわぼーせんもー、ほかくもー、きじゅんもーなどがせいしきへいきにさいよーされ、またぼーせんもーをふせつするしょーかんていをけんぞーしてじっけんくんれんをすることがしきゅーひつよーとされた。	NO_LABEL
これを受けてワシントン海軍軍縮条約後の大正12年度の新補充計画の中には、500噸型捕獲網艇3隻、500噸型基準網艇2隻、5,000噸型急設網艇1隻の建造が含まれた。	NO_PRONOUNCE	NO_LABEL
最終的には補助艦艇製造費から1,345噸型急設網艦の「白鷹」と450噸型捕獲網艇の本型2隻が建造された。	NO_PRONOUNCE	NO_LABEL
捕獲網は水上艦艇が敷設して潜水艦を捕獲するための兵器で、捕獲網艇は港湾防御のために各防備隊に配属され、捕獲網設置を主任務とする艦艇である。	ほかくもーわすいじょーかんていがふせつしてせんすいかんをほかくするためのへいきで、ほかくもーていわこーわんぼーぎょのためにかくぼーびたいにはいぞくされ、ほかくもーせっちをしゅにんむとするかんていである。	NO_LABEL
本型はその他に急設網や機雷の敷設、更に掃海も要求された。	ほんがたわそのたにきゅーせつもーやきらいのふせつ、さらにそーかいもよーきゅーされた。	NO_LABEL
また排水量は予算上なるべく小さくされ、その任務上、運動性は軽快なことが求められた。	またはいすいりょーわよさんじょーなるべくちーさくされ、そのにんむじょー、うんどーせいわけいかいなことがもとめられた。	NO_LABEL
日本海軍がこの時点で保有していた敷設艇の「測天型」が雑役船形式の船だったのに対し、本型は排水量はほぼ同じであるが、タイプシップを第1号型掃海艇として入念な設計がされた。	NO_PRONOUNCE	NO_LABEL
船体は基本的に平甲板型で、船首に約4mの短いシェルターデッキを設けた。	せんたいわきほんてきにひらかんぱんがたで、せんしゅにやくよんめーとるのみじかいしぇるたーでっきをもーけた。	NO_LABEL
船体中央の断面は水線上で最大幅となり上に向かって幅が減少するタンブルホームを有していたが、更にその上にはフレアを付けて上甲板で再び最大幅になる複雑な形状になっていた。	せんたいちゅーおーのだんめんわすいせんじょーでさいだいはばとなりじょーにむかってはばがげんしょーするたんぶるほーむをゆーしていたが、さらにそのうえにわふれあをつけてうえかんぱんでふたたびさいおーはばになるふくざつなけいじょーになっていた。	NO_LABEL
また上甲板舷側には高さ600mmのブルワークを設けた。	またうえかんぱんげんそくにわたかさろっぴゃくめーとるめーとるのぶるわーくをもーけた。	NO_LABEL
これは捕獲網搭載のための配慮と言われている。	これわほかくもーとーさいのためのはいりょといわれている。	NO_LABEL
機関はボイラー2基、レシプロ2基でそれぞれを1室ごとに収め、缶室の前後に石炭庫を、舷側部に重油タンクを設置した。	NO_PRONOUNCE	NO_LABEL
主砲の8cm高角砲は船橋の前に1段高くフラットを設けて設置し、上甲板の作業を妨げないようにした。	NO_PRONOUNCE	NO_LABEL
13mm単装機銃は後部マスト直後の上構上に設置されている。	じゅうさんみりめーとるたんそーきじゅーわこーぶますとちょくごのうえかまいじょーにせっちされている。	NO_LABEL
捕獲網は船体後部下方に網庫を設けて格納し、後甲板には網の設置台があった。	ほかくもーわせんたいこーぶかほーにあみこをもーけてかくのーし、こーかんぱんにわあみのせっちだいがあった。	NO_LABEL
捕獲網を搭載しない場合は上甲板に機雷80個を搭載でき、両舷に機雷運搬軌条を設けていた。	NO_PRONOUNCE	NO_LABEL
また船首シェルターデッキ上にデリックを設け、機雷や網の揚収に使用した。	またせんしゅしぇるたーでっきじょーにでりっくをもーけ、きらいやあみのあげおさむにしよーした。	NO_LABEL
乗員は平時にあっては局地防御用として湾口付近で使用するため、少数の人数で居住区もできるだけ簡素な艤装とし、戦時には前進基地へ進出するため、平時の2倍近くの乗員の居住ができるようにしていた。	じょーいんわへいじにあってわきょくちぼーぎょよーとしてわんこーふきんでしよーするため、しょーすーのにんずーできょじゅーくもできるだけかんそなぎそーとし、せんじにわぜんしんきちえしんしゅつするため、へいじのにばいちかくのじょーいんのきょじゅーができるよーにしていた。	NO_LABEL
問題点もあって、吃水が浅くて重心が高く、その後に復元性能が問題になる日本海軍小艦艇の始まりとなる艇の1隻だった。	NO_PRONOUNCE	NO_LABEL
そのため友鶴事件後には本型も舷側ブルワークの撤去、煙突やマストの短縮、深さ450mmのバラストキールを装着、艦底にバラスト55トンを搭載するなどの復元性能改善工事を施した。	NO_PRONOUNCE	NO_LABEL
また同時にビルジキールを増大させている。	またどーじにびるじきーるをぞーだいさせている。	NO_LABEL
大戦中は兵装増備も実施されたと思われる。	だいせんちゅーわへいそーぞーそなえもじっしされたとおもわれる。	NO_LABEL
1944年11月での「燕」は、13mm単装機銃に代わり25mm連装機銃を装備、その他25mm単装機銃4挺を増備したとされる。	NO_PRONOUNCE	NO_LABEL
建造中に捕獲網艇の類別が廃止となり二等敷設艇として1929年に完成した。	けんぞーちゅーにほかくもーていのるいべつがはいしとなりにとーふせつていとしてせんきゅうひゃくにじゅうきゅうねにかんせいした。	NO_LABEL
1931年に等級の廃止により敷設艇となる。	せんきゅうひゃくさんじゅういちねにとーきゅーのはいしによりふせつていとなる。	NO_LABEL
1938年より支那方面艦隊に属し九江攻略作戦などに従事、太平洋戦争緒戦の南方進攻作戦では掃海、敷設、航路標識設置などで活躍した。	せんきゅうひゃくさんじゅうはちねよりしなほーめんかんたいにぞくしきゅーえこーりゃくさくせんなどにじゅーじ、たいへいよーせんそーしょせんのなんぽーしんこーさくせんでわそーかい、ふせつ、こーろひょーしきせっちなどでかつやくした。	NO_LABEL
大戦中は船団護衛を主な任務とし、大戦後半に2隻とも南西諸島方面で戦没している。	NO_PRONOUNCE	NO_LABEL
