児玉 南柯- 文政13年1月4日）は、江戸時代後期の教育者、儒学者。	NO_PRONOUNCE	NO_LABEL
岩槻藩士。	いわつきはんし。	NO_LABEL
岩槻藩大岡家に仕え、藩内の教学などの発展に尽力した人物である。	いわつきはんおーおかかにつかえ、はんないのきょーがくなどのはってんにじんりょくしたじんぶつである。	NO_LABEL
父は豊島俊暠。	NO_PRONOUNCE	NO_LABEL
児玉親繁の養子。	こだまちかしげのよーし。	NO_LABEL
江島生島事件の中心人物・絵島は、祖父の姉にあたる。	NO_PRONOUNCE	NO_LABEL
南柯は号で、諱は琮。	NO_PRONOUNCE	NO_LABEL
字は玉郷。	じわたまさと。	NO_LABEL
通称は宗吾。	つーしょーわそーご。	NO_LABEL
延享3年、元旗本・豊島俊暠の子として甲斐甲府で生まれた。	NO_PRONOUNCE	NO_LABEL
児玉南柯は桓武平氏の一族秩父氏の後裔豊島氏の一族で三河刈谷藩士であった。	こだまなんかわかんむへいしのいちぞくちちぶしのこーえいとしましのいちぞくでみかわかりやはんしであった。	NO_LABEL
祖父は大奥御年寄の絵島の弟の豊島常慶。	そふわおーおくおとしよりのえじまのおとーとのとしまつねよし。	NO_LABEL
江島生島事件の際に絵島と連座して、祖父の豊島常慶と父の豊島俊暠は甲斐に流刑となった。	NO_PRONOUNCE	NO_LABEL
宝暦7年、11歳のとき、武蔵の岩槻藩士・児玉親繁の養子となり、宝暦12年、16歳で岩槻藩第2代藩主大岡忠喜の中小姓となり、江戸の藩邸に勤める。	NO_PRONOUNCE	NO_LABEL
1772年、26歳のとき、藩主大岡忠喜の薦めで昌平黌で向井一郎太に儒学などを学び、藩主の側用人になる。	NO_PRONOUNCE	NO_LABEL
安永4年、大岡忠喜の嫡男忠要の侍読相手を務める。	やすながよんねん、おーおかただよしのちゃくなんちゅーよーのじどくあいてをつとめる。	NO_LABEL
安永7年、房州夷郡奉行に就任し、岩槻藩の飛地である安房国朝夷郡で清国の商船の漂流を助けて、児玉南柯はその事を『漂客紀事』に書いたという。	NO_PRONOUNCE	NO_LABEL
また岩槻藩が財政難の時、藩命で勝手向取締役に任じられ、財政再建に貢献した。	またいわつきはんがざいせいなんのとき、はんいのちでかってむきとりしまりやくににんじられ、ざいせいさいけんにこーけんした。	NO_LABEL
天明8年、前任者の公金横領事件が発覚し、その責任を負われたため職を辞して隠居した。	てんめいはちねん、ぜんにんしゃのこーきんおーりょーじけんがはっかくし、そのせきにんをおわれたためしょくをじしていんきょした。	NO_LABEL
隠居後は藩主の侍読相手を務め、寛政11年、私塾の遷喬館を創設し、岩槻藩の子弟教育に努めた。	いんきょごわはんしゅのじどくあいてをつとめ、かんせいじゅういちねん、しじゅくのせんたかしかんをそーせつし、いわつきはんのしていきょーいくにつとめた。	NO_LABEL
文化8年、岩槻藩第5代藩主大岡忠正により「勤学所」と改名して藩校となり、武芸稽古場が隣に建てられ、文武両道に長ける人格形成を目指す、児玉南柯の意志が実現された。	NO_PRONOUNCE	NO_LABEL
後世に「岩槻に過ぎたるものが２つある 児玉南珂と時の鐘」と評された。	NO_PRONOUNCE	NO_LABEL
文政13年に死去。	ぶんせいじゅうさんねんにしきょ。	NO_LABEL
享年84。	NO_PRONOUNCE	NO_LABEL
戒名は「南柯斎槐誉一夢居士」	NO_PRONOUNCE	NO_LABEL
武蔵国埼玉郡岩槻にあった児玉南柯の私塾で、後に岩槻藩の藩校となった。	むさしのくにさいたまぐんいわつきにあったこだまなんかのしじゅくで、のちにいわつきはんのはんこーとなった。	NO_LABEL
時の鐘を参照。	ときのかねをさんしょー。	NO_LABEL
児玉南柯とともに「岩槻に過ぎたるもの」と謳われた。	NO_PRONOUNCE	NO_LABEL
埼玉県さいたま市岩槻区本町５丁目の快楽山浄安寺の寺内に児玉南柯は葬られた。	さいたまけんさいたましいわつきくほんちょーごちょーめのかいらくさんじょうあんじのてらうちにこだまなんかわほーむられた。	NO_LABEL
浄安寺は正式には快楽山微妙院浄安寺と言い、永正2年に増上寺天誉・了聞が再興した。	NO_PRONOUNCE	NO_LABEL
