『-ZEROalbum- 歌姫2』は、日本の歌手中森明菜の2枚目のカバー・アルバム。	NO_PRONOUNCE	NO_LABEL
このアルバムは2002年3月20日にキティMMEよりリリースされた。	NO_PRONOUNCE	NO_LABEL
2002年に、中森はメジャー・レーベルキティMMEに復帰した。	NO_PRONOUNCE	NO_LABEL
『-ZEROalbum- 歌姫2』は、その移籍第1弾カバー・アルバムで、この年1枚目のアルバムとなった。	NO_PRONOUNCE	NO_LABEL
このアルバムは、1999年12月発表の前アルバム『will』からおよそ2年4か月ぶりとなる2002年3月20日にCDで発売された。	NO_PRONOUNCE	NO_LABEL
その後の2005年7月1日にはデジタル・ダウンロードでもリリースされた。	NO_PRONOUNCE	NO_LABEL
メジャー・レーベル復帰作には、1994年3月に発売された『歌姫』企画の復活が選択された。	NO_PRONOUNCE	NO_LABEL
これにより、カバー・アルバム『歌姫』がシリーズ化されることとなった。	NO_PRONOUNCE	NO_LABEL
中森本人としては、先にオリジナルのシングルやアルバムを出したかったものの、スタッフから、まずは一呼吸置こうと、本作制作のアドバイスを受けたという。	なかもりほんにんとしてわ、さきにおりじなるのしんぐるやあるばむをだしたかったものの、すたっふから、まずわいちこきゅーおこうと、もとさくせいさくのあどばいすをうけたという。	NO_LABEL
本作のレコーディングは、ユニバーサルレコーディングスタジオ、オンエア麻布スタジオで行われた。	もとさくのれこーでぃんぐわ、ゆにばーさるれこーでぃんぐすたじお、おんえあまふすたじおでおこなわれた。	NO_LABEL
カバーした楽曲について中森は、「色がついているものにあえて明菜流に色をつけるので普段の何十倍もプレッシャーがかかった。	NO_PRONOUNCE	NO_LABEL
いろんな手を尽くした。	いろんなてをつくした。	NO_LABEL
一番苦手だったのは山口百恵さんと竹内まりやさんの歌」と述べ、「瑠璃色の地球」のレコーディングについては、「2回でOKがでました」と明かした。	NO_PRONOUNCE	NO_LABEL
このアルバムの基本コンセプトとして、「静」の美を表現したという。	NO_PRONOUNCE	NO_LABEL
ZEROalbumとは、これまでの自身の経験や実績をも無に帰し、新たなスタートへ進む意味を込めて名付けられている。	NO_PRONOUNCE	NO_LABEL
中森も本作について、「今回はカバーアルバムということで、いろいろな方の歌を私が歌っているんですが、なるべく自分は"無の状態"で歌を歌いたかったんですよ。	NO_PRONOUNCE	NO_LABEL
それで、ジャケットもその無の状態を表現しようと、頭をまるめて、白い服を着て、ふわっと柔らかいイメージの写真にしたんです」と説明している。	NO_PRONOUNCE	NO_LABEL
このアルバムのCG処理によるスキンヘッドのジャケットは、複数のメディアで伝えられた。	このあるばむのしーじーしょりによるすきんへっどのじゃけっとわ、ふくすーのめでぃあでつたえられた。	NO_LABEL
また、この作品をきっかけに、昨今のカバー曲ブームの火付け役とも称された。	また、このさくひんをきっかけに、さっこんのかばーきょくぶーむのひつけやくともしょーされた。	NO_LABEL
『歌姫』の音楽プロデューサー、スーパーヴァイザーの川原伸司は、松田聖子の「瑠璃色の地球」を収録した経緯について、当初1作目の『歌姫』の候補曲に「野ばらのエチュード」があったが、2作目になり収録を検討したところ、歌詞内容が若すぎるからと、「瑠璃色の地球」を中森が選んできたという。	NO_PRONOUNCE	NO_LABEL
また、「黄昏のビギン」を収録した理由は、ちあきなおみのスタジオ・アルバム『すたんだーど・なんばー』へのオマージュであったと川原は明かしている。	NO_PRONOUNCE	NO_LABEL
このアルバムのエグゼクティブ・プロデューサーを務めた寺林晁は『ORICON STYLE』のインタビューで、カバーした楽曲の選曲については、中森との話し合いの末、こちらの意に沿ってもらったと振り返っている。	NO_PRONOUNCE	NO_LABEL
また、本作で積み上げた制作手法が、後の徳永英明の『VOCALIST』シリーズや、『服部良一 〜生誕100周年記念トリビュート・アルバム〜』に影響されたことを明かしている。	NO_PRONOUNCE	NO_LABEL
本作発売後、2002年4月6日放送のフジテレビ系音楽番組『MUSIC FAIR 21』にて、本作から「秋桜」と「瑠璃色の地球」を披露した。	NO_PRONOUNCE	NO_LABEL
また、同年5月27日より行われたデビュー20周年記念コンサート・ツアーMUSICA FIESTA TOUR 2002でも、この2曲を披露した。	NO_PRONOUNCE	NO_LABEL
2003年より本作収録の「瑠璃色の地球」が、auのテレビCMイメージソングに起用された。	NO_PRONOUNCE	NO_LABEL
その後、2003年4月発売のシングル「Days」の3曲目のボーナストラックとして同曲がシングルカットされた。	NO_PRONOUNCE	NO_LABEL
2004年には3作発売となった"歌姫シリーズ"をまとめたCD-BOX盤の『歌姫 Complete Box Empress』が、2007年には"歌姫シリーズ"のベスト・アルバム『歌姫ベスト 〜25th Anniversary Selection〜』が発売された。	NO_PRONOUNCE	NO_LABEL
『CDジャーナル』の後藤幸浩は「洋楽的な要素の中で、日本語をこれだけ多彩に美しく響かせられる歌手はたぶん明菜が最後かも。	NO_PRONOUNCE	NO_LABEL
映画音楽にも通じる千住明の編曲も◎。	NO_PRONOUNCE	NO_LABEL
」と批評した。	NO_PRONOUNCE	NO_LABEL
『-ZEROalbum- 歌姫2』は、オリコン週間アルバムチャートの2002年4月1日付で初登場13位を記録後、2002年4月8日付から4月15日付の2週連続で最高順位10位を記録した。	NO_PRONOUNCE	NO_LABEL
中森にとって、1995年7月発売のスタジオ・アルバム『la alteración』以来およそ7年ぶりに同チャートでトップ10入りを果たした。	NO_PRONOUNCE	NO_LABEL
本作は、同チャートに計15週に渡ってランクインしている。	もとさくわ、どーちゃーとにけいじゅうごしゅーにわたってらんくいんしている。	NO_LABEL
『-ZEROalbum- 歌姫2』のライナー・ノーツより	NO_PRONOUNCE	NO_LABEL
