ボラは、九州の大隅半島北部に見られる軽石からなる土壌。	ぼらわ、きゅーしゅーのおーすみはんとーほくぶにみられるかるいしからなるどじょー。	NO_LABEL
桜島や霧島山などの火山活動による噴出物を起源とする。	さくらじまやきりしまやまなどのかざんかつどーによるふんしゅつぶつをきげんとする。	NO_LABEL
「ボラ」の名称は、地元で「役に立たない」あるいは「腑抜け」を意味する言葉に由来する。	NO_PRONOUNCE	NO_LABEL
二酸化ケイ素と酸化アルミニウムを主成分とした軽石であり、粒の内部に気孔を含んでいる。	にさんかけいそとさんかあるみにうむをしゅせいぶんとしたかるいしであり、つぶのないぶにきこーをふくんでいる。	NO_LABEL
平均粒径は1 - 2センチメートル以下であるが、中には粒径5センチメートル以上の軽石粒も含まれている。	NO_PRONOUNCE	NO_LABEL
保水力が低く肥料を保持しないために農業に適さない反面、水はけが良い性質を活かして盆栽や鉢植えの鉢底石・鉢底土として利用されることがある。	NO_PRONOUNCE	NO_LABEL
広義では九州南部に分布する軽石からなる地層群を指すが、狭義では特に桜島や霧島山などの新期火山活動によって噴出した軽石層群を指す。	こーぎでわきゅーしゅーなんぶにぶんぷするかるいしからなるちそーぐんをさすが、きょーぎでわとくにさくらじまやきりしまやまなどのしんきかざんかつどーによってふんしゅつしたかるいしそーぐんをさす。	NO_LABEL
主な地層として4 - 5層が確認されており、上から大正ボラ、安永ボラ、霧島ボラと呼ばれる。	NO_PRONOUNCE	NO_LABEL
平坦地に多く分布しているが、角度が20度以上になる傾斜地では雨に流されてほとんど残っていない。	へいたんちにおーくぶんぷしているが、かくどがにじゅうどいじょーになるけいしゃちでわあめにながされてほとんどのこっていない。	NO_LABEL
農業の障害となるため、昭和30年代までに多くの農地で「ボラ抜き」と呼ばれる除去事業が行われた。	NO_PRONOUNCE	NO_LABEL
取り除かれたボラを堤状に盛り上げて防風用としている地域もある。	とりのぞかれたぼらをつつみじょーにもりあげてぼーふーよーとしているちいきもある。	NO_LABEL
