流通経済大学の人物一覧は流通経済大学に関係する人物の一覧記事。	りゅーつーけいざいだいがくのじんぶついちらんわりゅーつーけいざいだいがくにかんけいするじんぶつのいちらんきじ。	NO_LABEL
経済学部	けいざいがくぶ	NO_LABEL
社会学部	しゃかいがくぶ	NO_LABEL
流通情報学部	りゅーつーじょーほーがくぶ	NO_LABEL
法学部	ほーがくぶ	NO_LABEL
スポーツ健康科学部	すぽーつけんこーかがくぶ	NO_LABEL
物流科学研究所	ぶつりゅーかがくけんきゅうしょ	NO_LABEL
【日本通運株式会社】	NO_PRONOUNCE	NO_LABEL
【流通・小売】	NO_PRONOUNCE	NO_LABEL
【学術・教育】	NO_PRONOUNCE	NO_LABEL
【経済‐専門職】	NO_PRONOUNCE	NO_LABEL
スポーツ・文化	NO_PRONOUNCE	NO_LABEL
【サッカー】※コーチ等チームスタッフ・地域リーグ・海外チーム所属選手	NO_PRONOUNCE	NO_LABEL
【野球】	NO_PRONOUNCE	NO_LABEL
【陸上】	NO_PRONOUNCE	NO_LABEL
【柔道】	NO_PRONOUNCE	NO_LABEL
【文化・芸能】	NO_PRONOUNCE	NO_LABEL
