プロシードレバンテは、かつてマツダが発売していたSUV。	ぷろしーどればんてわ、かつてまつだがはつばいしていたえすゆーぶい。	NO_LABEL
スズキ・エスクードのOEM版である。	すずきえすくーどのおーいーえむばんである。	NO_LABEL
マツダがスズキに対し、エスクードに搭載するRF型ディーゼルエンジンを供給するにあたり、その見返りとして供給されたものである。	まつだがすずきにたいし、えすくーどにとーさいするあーるえふがたでぃーぜるえんじんをきょーきゅーするにあたり、そのみかえりとしてきょーきゅーされたものである。	NO_LABEL
