大白倉バイパスは、国道403号、国道404号の新潟県長岡市小国町三桶から十日町市岩瀬に至る6.5kmのバイパス道路である。	おおしらくらばいぱすわ、こくどーよんひゃくさんごー、こくどーよんひゃくよんごーのにーがたけんながおかしおぐにまちみおけからとーかまちしいわせにいたるろくてんごきろめーとるのばいぱすどーろである。	NO_LABEL
計画は延長6.5km、2車線のバイパス道路であり、現在はそのうち5.2kmが部分供用している。	NO_PRONOUNCE	NO_LABEL
この区間の地形は急峻を極め、国道403号旧道は幅員狭小、線形不良の隘路が続き土砂崩れ等の危険がある上、冬季は通行止めになるなど地元住民の生活を脅かしている。	NO_PRONOUNCE	NO_LABEL
このバイパス区間には以下の橋やトンネルが含まれている。	このばいぱすくかんにわいかのはしやとんねるがふくまれている。	NO_LABEL
