リュウキュウツバメは、スズメ目ツバメ科ツバメ属に分類される鳥類。	りゅうきゅうつばめわ、すずめめつばめかつばめぞくにぶんるいされるちょーるい。	NO_LABEL
インド南部、インドネシア、オーストラリア、カンボジア、ソロモン諸島、中華人民共和国、トンガ、日本、バヌアツ、パプアニューギニア、フィジー、フィリピン、ブルネイ、ベトナム、マレーシア、ミャンマー	いんどなんぶ、いんどねしあ、おーすとらりあ、かんぼじあ、そろもんしょとー、ちゅーかじんみんきょーわこく、とんが、にっぽん、ばぬあつ、ぱぷあにゅーぎにあ、ふぃじー、ふぃりぴん、ぶるねい、べとなむ、まれーしあ、みゃんまー	NO_LABEL
日本では奄美大島以南に周年生息するが、分布は局地的で生息しない島もある。	にっぽんでわあまみおーしまいなんにしゅーねんせいそくするが、ぶんぷわきょくちてきでせいそくしないとーもある。	NO_LABEL
屋久島での観察記録があるほか、種子島やトカラ列島の中之島では繁殖記録がある。	やくしまでのかんさつきろくがあるほか、たねがしまやとかられっとーのなかのしまでわはんしょくきろくがある。	NO_LABEL
全長13-14cm。	NO_PRONOUNCE	NO_LABEL
尾羽は短い。	おはわみじかい。	NO_LABEL
上面は光沢のある黒、下面は淡褐色や灰褐色の羽毛で覆われる。	うわつらわこーたくのあるくろ、かめんわあわかっしょくやはいかっしょくのうもーでおおわれる。	NO_LABEL
額、喉から上胸はオレンジ色の羽毛で覆われる。	がく、のどからうえむねわおれんじいろのうもーでおおわれる。	NO_LABEL
尾羽基部の下面には黒褐色の鱗状斑が入る。	おばきぶのかめんにわこっかっしょくのりんじょーむらがはいる。	NO_LABEL
尾羽下面には白い斑紋が入る。	おばかめんにわしろいはんもんがはいる。	NO_LABEL
下雨覆は暗灰色。	しもあまおおいわくらはいいろ。	NO_LABEL
嘴の色彩は黒い。	くちばしのしきさいわくろい。	NO_LABEL
幼鳥は全身の色彩が褐色みを帯び、額や喉の色味が淡い。	よーちょーわぜんしんのしきさいがかっしょくみをおび、がくやのどのいろみがあわい。	NO_LABEL
11亜種に分かれるとされる。	NO_PRONOUNCE	NO_LABEL
海岸、河川、農耕地などに生息する。	かいがん、かせん、のーこーちなどにせいそくする。	NO_LABEL
留鳥とされているが、冬季に個体数が増減する地域があるため、一部は小規模な渡りをしていると考えられる。	りゅーちょーとされているが、とーきにこたいすーがぞーげんするちいきがあるため、いちぶわしょーきぼなわたりをしているとかんがえられる。	NO_LABEL
食性は動物食で、主に昆虫を食べる。	しょくせいわどーぶつしょくで、おもにこんちゅーをたべる。	NO_LABEL
飛翔しながら口を大きく開け、獲物を捕食する。	ひしょーしながらくちをおーきくあけ、えものをほしょくする。	NO_LABEL
繁殖形態は卵生。	はんしょくけいたいわらんせい。	NO_LABEL
集団繁殖地を形成する事もある。	しゅーだんはんしょくちをけいせいすることもある。	NO_LABEL
断崖や洞窟、民家の軒下、橋桁などに土と枯れ草を固めた皿状の巣を作り、日本では1回に4-5個の卵を産む。	NO_PRONOUNCE	NO_LABEL
