阿部 正房は、江戸時代の旗本。	あべまさふさわ、えどじだいのはたもと。	NO_LABEL
忍藩主阿部正能の三男。	しのぶはんしゅあべまさよしのさんなん。	NO_LABEL
万治元年阿部正能の三男として生まれる。	まんじがんねんあべまさよしのさんなんとしてうまれる	NO_LABEL
寛文12年12月8日、徳川家綱にはじめて拝謁する。	ひろふみじゅうにねんじゅーにがつようか、とくがわいえつなにはじめてはいえつする。	NO_LABEL
延宝5年7月4日、兄正武の所領から上総国夷隅郡の内3000石を分与され、寄合に列する。	NO_PRONOUNCE	NO_LABEL
貞享4年6月13日、小姓組番頭となり、同年12月25日、従五位下・越中守に叙任された。	NO_PRONOUNCE	NO_LABEL
元禄10年8月28日、書院番頭。	げんろくじゅうねんはちがつにじゅうはちにち、しょいんばんがしら。	NO_LABEL
宝永3年11月26日に江戸城西の丸に勤務し、宝永6年から本丸勤めになった。	ほーえいさんねんじゅーいちがつにじゅうろくにちにえどじょーさいのまるにきんむし、ほーえいろくねんからほんまるつとめになった。	NO_LABEL
享保7年7月1日、辞職。	きょうほななねんしちがつついたち、じしょく。	NO_LABEL
そして同年12月22日に隠居し以信と名乗る。	NO_PRONOUNCE	NO_LABEL
この時、息子の正興から隠居料として600石与えられた。	NO_PRONOUNCE	NO_LABEL
享保13年9月晦日、死去。	きょうほじゅうさんねんくがつみそか、しきょ。	NO_LABEL
享年71。	NO_PRONOUNCE	NO_LABEL
家督は実子の正興が継いだ。	かとくわじっしのせいこーがついだ。	NO_LABEL
