「キス・ア・ガール」は、アメリカ合衆国の歌手ケイティ・ペリーの楽曲。	NO_PRONOUNCE	NO_LABEL
デビュー・アルバム『ワン・オブ・ザ・ボーイズ』からのファースト・シングル。	NO_PRONOUNCE	NO_LABEL
この楽曲は、アメリカ合衆国の総合シングルチャートBillboard Hot 100、全英シングルチャートを始め、ドイツ、フランス、スイス、オーストリア、イタリア、オランダ、ベルギー、オーストラリア、ニュージーランドなど多くの国で1位を獲得した。	NO_PRONOUNCE	NO_LABEL
また2009年のグラミー賞において、にノミネートされた。	またにせんきゅうねんのぐらみーしょーにおいて、にのみねーとされた。	NO_LABEL
