春日井市立東部中学校は、愛知県春日井市篠木町六丁目にある公立中学校。	かすがいしりつとーぶちゅーがっこーわ、あいちけんかすがいししのぎちょーろくちょうのめにあるこーりつちゅーがっこー。	NO_LABEL
篠木小学校、篠原小学校、八幡小学校の児童が入学している。	しのきしょーがっこー、しのはらしょーがっこー、やはたしょうがっこーのじどーがにゅーがくしている。	NO_LABEL
昭和23年の開校当時に制定されたものである。	しょーわにじゅうさんねんのかいこーとーじにせいていされたものである。	NO_LABEL
当時の教官であった伊藤太一先生の作品である。	とーじのきょーかんであったいとーたいちせんせいのさくひんである。	NO_LABEL
ペンは、よく学ぶ生徒を目指し、篠木の丘に生えている篠笹のごとく生き抜く生徒を目指して取り入れた図案である。	ぺんわ、よくまなぶせいとをめざし、しのきのおかにはえているしのささのごとくいきぬくせいとをめざしてとりいれたずあんである。	NO_LABEL
また、純情、潔白を表すために「東中」を白抜きで書いてある。	NO_PRONOUNCE	NO_LABEL
白線を男子の帽子、女子のスカートに取り入れたのは昭和26年度からのことである。	はくせんをだんしのぼーし、じょしのすかーとにとりいれたのわしょーわにじゅうろくねんどからのことである。	NO_LABEL
校舎は4棟ある。	NO_PRONOUNCE	NO_LABEL
4棟とも3階建てである。	NO_PRONOUNCE	NO_LABEL
南から順に1,2,3,4号棟と呼ばれている。	NO_PRONOUNCE	NO_LABEL
校舎で学年が分かれており、年度ごとに入れ替わることは基本的にない。	こーしゃでがくねんがわかれており、ねんどごとにいれかわることわきほんてきにない。	NO_LABEL
1年生が2号棟2・3階と4号棟3階、2年生が4号棟1・2階、3年生が3号棟2・3階を使用している。	NO_PRONOUNCE	NO_LABEL
1号棟は主に校長室、職員室、会議室があり、ほかにコンピュータ室や木工室・金工室などの副教科の教室がある。	NO_PRONOUNCE	NO_LABEL
本校3号棟が春日井市内で最も古い鉄筋校舎である。	ほんこーさんごーとーがかすがいしないでもっともふるいてっきんこーしゃである。	NO_LABEL
ちなみに三号棟の三階の廊下の天井には穴があいている。	ちなみにさんごーとーのさんかいのろーかのてんじょーにわあながあいている。	NO_LABEL
2017年度現在は3号棟のみ正方形タイルではなく床が細長い木が組合わさってで来ている。	にせんじゅうななねんどげんざいわさんごーとーのみせいほーけいたいるでわなくゆかがほそながいきがくみあわさってできている。	NO_LABEL
役員は会長1名、副会長2名、書記2名、会計1名となっている。	NO_PRONOUNCE	NO_LABEL
それぞれ全生徒の無記名投票によって選出され、任期は6ヶ月となっている。	NO_PRONOUNCE	NO_LABEL
文化部	ぶんかぶ	NO_LABEL
運動部	うんどーぶ	NO_LABEL
近藤 一一作詞、田村範一作曲、上岡洋一編曲。	こんどーいちいちさくし、たむらのりかずさっきょく、うえおかよーいちへんきょく。	NO_LABEL
この校歌は、昭和26年10月22日開校4年目に制作された。	このこーかわ、しょーわにじゅうろくねんじゅーがつにじゅうににちかいこーよんねんめにせいさくされた。	NO_LABEL
集会では基本的に1番と3番を歌っている。	しゅーかいでわきほんてきにいちばんとさんばんをうたっている。	NO_LABEL
 次行に歌詞を示す。	じくだりにかしをしめす。	NO_LABEL
1番 東に遠く雲ひかる 猿投の高嶺のぞみつつ 輝くひとみ永遠の 真理の道を求めゆく ああ我等は東中生	いちばんひがしにとーくくもひかるさなげのたかねのぞみつつかがやくひとみえいえんのしんりのみちをもとめゆくあーがとーわあずまちゅーせい	NO_LABEL
2番 篠木の丘の篠笹の 清き緑の葉を描く 校旗をかざし堂々と 理想の道を進みゆく ああ我等は東中生	にばんしのぎのおかのしのささのせいきみどりのはをえがくこーきをかざしどーどーとりそーのみちをすすみゆくあーがとーわあずまちゅーせい	NO_LABEL
3番 希望を胸に建設の 命新たによみがえる ゆくては広し洋々の 文化の道をめざしゆく ああ我等は東中生	さんばんきぼーをむねにけんせつのいのちあらたによみがえるゆくてわひろしよーよーのぶんかのみちをめざしゆくあーがとーわあずまちゅーせい	NO_LABEL
