風間 舜介は、日本の薬学者。	かざましゅんかいわ、にっぽんのやくがくしゃ。	NO_LABEL
学位は薬学博士。	がくいわやくがくはかせ。	NO_LABEL
静岡薬科大学薬学部講師、静岡県立大学薬学部講師などを歴任した。	しずおかやっかだいがくやくがくぶこーし、しずおかけんりつだいがくやくがくぶこーしなどをれきにんした。	NO_LABEL
芳香族ケトンやサーモクロミックエチレンに着目し、それらのコンフォメーションについて研究した。	ほーこーぞくけとんやさーもくろみっくえちれんにちゃくもくし、それらのこんふぉめーしょんについてけんきゅーした。	NO_LABEL
その業績は「芳香族ケトンおよびサーモクロミックエチレンのラジカルのコンホメーションに関する研究」として纏められた。	NO_PRONOUNCE	NO_LABEL
この論文に対し、静岡薬科大学は薬学博士の学位を授与した。	このろんぶんにたいし、しずおかやっかだいがくわやくがくはかせのがくいをじゅよした。	NO_LABEL
論文の題は「芳香族ケトンおよびサーモクロミックエチレンのラジカルのコンホメーションに関する研究」。	NO_PRONOUNCE	NO_LABEL
静岡薬科大学に採用され、薬学部にて講師を務めた。	しずおかやっかだいがくにさいよーされ、やくがくぶにてこーしをつとめた。	NO_LABEL
その後、静岡薬科大学が静岡女子大学や静岡女子短期大学と統合されると、新設された静岡県立大学にて、再び薬学部の講師に就任した。	そのご、しずおかやっかだいがくがしずおかじょしだいがくやしずおかじょしたんきだいがくととーごーされると、しんせつされたしずおかけんりつだいがくにて、ふたたびやくがくぶのこーしにしゅーにんした。	NO_LABEL
以降は、静岡県立大学の薬学部に所属する講師として、製薬学科の薬品物理化学講座を担当した。	いこーわ、しずおかけんりつだいがくのやくがくぶにしょぞくするこーしとして、せいやくがっかのやくひんぶつりかがくこーざをたんとーした。	NO_LABEL
また、静岡県立大学の大学院では、薬学研究科に所属する講師として、藤井敏や片山誠二らとともに製薬学専攻の薬品物理化学講座を担当した。	また、しずおかけんりつだいがくのだいがくいんでわ、やくがくけんきゅーかにしょぞくするこーしとして、ふじいさとしやかたやませいじらとともにせいやくがくせんこーのやくひんぶつりかがくこーざをたんとーした。	NO_LABEL
専門は薬学であり、特に薬品物理化学を中心とする領域に取り組んでいた。	せんもんわやくがくであり、とくにやくひんぶつりかがくをちゅーしんとするりょーいきにとりくんでいた。	NO_LABEL
特に原子の立体配座に関する研究を手がけており、それらの成果は日本薬学会の『藥學雜誌』などに掲載された。	NO_PRONOUNCE	NO_LABEL
なお、英語で「立体配座」を表す単語は「」である。	NO_PRONOUNCE	NO_LABEL
この単語をそのまま片仮名転記する場合、通例は「コンフォメーション」と表記することが多いが、風間は「コンホメーション」との表記を採用している。	NO_PRONOUNCE	NO_LABEL
