ロン・シュミットは、アメリカ合衆国の撮影監督、テレビ監督である。	ろんしゅみっとわ、あめりかがっしゅーこくのさつえいかんとく、てれびかんとくである。	NO_LABEL
映画では『』、『メン・オブ・ウォー』、『ロード・オブ・イリュージョン』、『ミスト』などの撮影を手がけている。	NO_PRONOUNCE	NO_LABEL
テレビシリーズでは『HUFF〜ドクターは中年症候群』、『ウォーキング・デッド』、『ザ・シールド ルール無用の警察バッジ』などの撮影を務めた。	NO_PRONOUNCE	NO_LABEL
また『ザ・シールド』、『女捜査官グレイス 〜 天使の保護観察中』、『スターゲイト ユニバース』では監督も務めた。	NO_PRONOUNCE	NO_LABEL
