オリヴィエ・ダアンは、フランスの映画監督、脚本家。	NO_PRONOUNCE	NO_LABEL
1967年6月26日、フランス・ブーシュ＝デュ＝ローヌ県ラ・シオタに生まれる。	NO_PRONOUNCE	NO_LABEL
レコード会社に勤めたり、ミュージックビデオを制作するなどしていたが、1994年から映画製作に携わるようになる。	れこーどがいしゃにつとめたり、みゅーじっくびでおをせいさくするなどしていたが、せんきゅうひゃくきゅうじゅうよねんからえいがせいさくにたずさわるよーになる。	NO_LABEL
2007年の『エディット・ピアフ〜愛の讃歌〜』で、2008年のセザール賞などにノミネートされた。	NO_PRONOUNCE	NO_LABEL
彼が監督した『グレース・オブ・モナコ 公妃の切り札』が2014年に開催される第67回カンヌ国際映画祭のオープニング作品に選ばれた。	NO_PRONOUNCE	NO_LABEL
