台2線は、新北市淡水区の関渡大橋から宜蘭県蘇澳鎮に至る台湾北部の海岸線沿いに建設された台湾の省道である。	たいにせんわ、しんぼくしたんすいくのせきわたるおーはしからぎらんけんすおうちんにいたるたいわんほくぶのかいがんせんぞいにけんせつされたたいわんのしょーどーである。	NO_LABEL
総延長は169.6km、淡水-金山間は淡金公路、金山至-基隆間は基金公路と称され、古くより台湾北海岸の重要な連絡道路であった。	NO_PRONOUNCE	NO_LABEL
基隆-蘇澳間は北部浜海公路と称され北宜高速公路開通以前は台北と宜蘭を結ぶ唯一の交通路であった。	NO_PRONOUNCE	NO_LABEL
台2路により台湾東北海岸部の開発が進み、1979年に北部浜海公路が開通すると交通部観光局は東北角海岸風景特定区管理処を設置、この地域の観光開発に力を注ぐようになり、東北海岸部の経済発展に寄与している。	NO_PRONOUNCE	NO_LABEL
清朝統治時代、台湾北部には淡水庁が設置され、淡水から台北への連絡路以外に金包里、鶏籠を連絡する小規模な道路が建設された。	しんちょうとーちじだい、たいわんほくぶにわたんすいちょーがせっちされ、たんすいからたいぺいえのれんらくろいがいにきんぽーさと、にわとりかごをれんらくするしょーきぼなどーろがけんせつされた。	NO_LABEL
また金山から魚路古道が陽明山を越え台北に連絡しており、陽金公路の前進となっていた。	またかなやまからうおじふるみちがよーめいさんをこえたいぺいにれんらくしており、ひきむこうじのぜんしんとなっていた。	NO_LABEL
基隆から宜蘭までの交通は草嶺古道により連絡されていた。	きーるんからむべらんまでのこーつーわそーれいふるみちによりれんらくされていた。	NO_LABEL
日本統治時代になると台湾総督府は台北-淡水、淡水-基隆、宜蘭-蘇澳の間に自動車道路を建設、福隆から蘭陽渓北岸までは軍事道路が建設されている。	NO_PRONOUNCE	NO_LABEL
また、淡水～基隆は大屯裏街道と呼ばれていたこともある。	NO_PRONOUNCE	NO_LABEL
1962年に公路法が施行された後、台湾の道路はその等級により番号が付され、台北から淡水沙崙海水浴場に至る北淡公路は台2線に、士林より陽明山を経て北投に至る区間を台2甲線、士林から国立故宮博物院の区間を台2乙線にそれぞれ指定された。	NO_PRONOUNCE	NO_LABEL
当時の台2線は行政院を起点とし、中山北路、北投を経由して淡水に至っていた。	とーじのたいにせんわぎょーせいいんをきてんとし、ちゅうざんほくろ、きたとーをけいゆしてたんすいにいたっていた。	NO_LABEL
台2甲線は仰徳大道と陽投公路に、台2乙は至善路にそれぞれ相当した。	NO_PRONOUNCE	NO_LABEL
後に台2乙線は北淡新路に指定変更され、至善路は台2線より外された。	NO_PRONOUNCE	NO_LABEL
1978年、北部浜海公路が開通すると、それまで県道102線であった沙崙－基隆、福隆－蘭陽渓北岸及び102丙線の澳底－貢寮、102丁線の基隆－瑞浜間が北部浜海公路と共に台2線に編入された。	NO_PRONOUNCE	NO_LABEL
また台北市が直轄市に昇格したことに伴い台2線は台北県と台北市の境界に当る関渡に起点が変更された。	またたいほくしがちょっかつしにしょーかくしたことにともないたいにせんわたいぺいけんとたいほくしのきょーかいにあたるせきわたるにきてんがへんこーされた。	NO_LABEL
これにより台2線は総延長が20Km増加し総延長170余kmとなった。	NO_PRONOUNCE	NO_LABEL
1993年、新規道路建設計画に伴い台2線支線部分に若干の調整が加えられた。	せんきゅうひゃくきゅうじゅうさんねん、しんきどーろけんせつけいかくにともないたいにせんしせんぶぶんにじゃっかんのちょーせいがくわえられた。	NO_LABEL
台2乙線は淡水外環道の開通に伴い台2線に編入され、市街地を通過する旧道が台2乙線に改変され、旧台2乙線の台北市内区間は廃止とされた。	NO_PRONOUNCE	NO_LABEL
また基隆暖暖－宜蘭大渓の道路改善計画路線が台2丙線に指定され、旧台2丙線は台2戊線に指定変更されるとともに、起点も五結郷下清水から五結郷新店に変更されている。	NO_PRONOUNCE	NO_LABEL
1999年、県道190線が台2庚線に昇格、2000年には台2己線が開通するなど支線が増加している。	NO_PRONOUNCE	NO_LABEL
2001年には台2乙線台北市内区間が再度省道に指定され、起点が台北市大同区に変更されると同時に。	NO_PRONOUNCE	NO_LABEL
台2線の起点も北側に約100m移動し関渡大橋が新しい起点に指定されている。	たいにせんのきてんもきたがわにやくひゃくめーとるいどーしせきわたるおーはしがあたらしいきてんにしていされている。	NO_LABEL
