1933年 全仏選手権に関する記事。	せんきゅうひゃくさんじゅうさんねぜんふつせんしゅけんにかんするきじ。	NO_LABEL
フランス・パリにある「スタッド・ローラン・ギャロス」にて開催。	NO_PRONOUNCE	NO_LABEL
佐藤次郎が全仏2年ぶりのベスト4に進出。	さとーじろーがぜんふつにねんぶりのべすとふぉーにしんしゅつ。	NO_LABEL
次に日本人男子が全仏シングルスで準々決勝に進出するのは82年後の2015年のことである。	つぎににっぽんじんだんしがぜんふつしんぐるすでじゅんじゅんけっしょーにしんしゅつするのわはちじゅうにねんごのにせんじゅうごねんのことである。	NO_LABEL
ジャック・クロフォードが全仏初・4大大会5度目の優勝。	NO_PRONOUNCE	NO_LABEL
準々決勝	じゅんじゅんけっしょー	NO_LABEL
準決勝	じゅんけっしょー	NO_LABEL
準々決勝	じゅんじゅんけっしょー	NO_LABEL
準決勝	じゅんけっしょー	NO_LABEL
