DS振動カートリッジとは、任天堂から販売されている、ニンテンドーDSに振動機能を付加する周辺機器。	でぃーえすしんどーかーとりっじとわ、にんてんどーからはんばいされている、にんてんどーでぃーえすにしんどーきのーをふかするしゅーへんきき。	NO_LABEL
DSのゲームボーイアドバンス用スロットに差し込んで使用する。	でぃーえすのげーむぼーいあどばんすよーすろっとにさしこんでしよーする。	NO_LABEL
なお、ニンテンドーDSi、ニンテンドーDSi LL、ニンテンドー3DS、ニンテンドー3DS LL、ニンテンドー2DS、Newニンテンドー3DS、Newニンテンドー3DS LL、Newニンテンドー2DS LLではGBA用スロットが搭載されていないため使用できない。	なお、にんてんどーでぃーえすあい、にんてんどーでぃーえすあいえるえる、にんてんどーすりーでぃーえす、にんてんどーすりーでぃーえすえるえる、にんてんどーつーでぃーえす、にゅーにんてんどーすりーでぃーえす、にゅーにんてんどーすりーでぃーえすえるえる、にゅーにんてんどーつーでぃーえすえるえるでわじーびーえーよーすろっとがとーさいされていないためしよーできない。	NO_LABEL
形状はGBA用カートリッジと同一。	けいじょーわじーびーえーよーかーとりっじとどーいつ。	NO_LABEL
振動デバイスは短振動のアルプス電気製フォースリアクタを用いている。	しんどーでばいすわたんしんどーのあるぷすでんきせいふぉーすりあくたをもちいている。	NO_LABEL
2006年1月19日発売の『メトロイドプライム ピンボール』にDS振動カートリッジが同梱。	NO_PRONOUNCE	NO_LABEL
同年3月より、単品が任天堂公式サイト内でオンライン販売開始。	どーねんさんがつより、たんぴんがにんてんどーこーしきさいとないでおんらいんはんばいかいし。	NO_LABEL
店頭では単品販売はされていない。	てんとーでわたんぴんはんばいわされていない。	NO_LABEL
同年5月29日より、DSLite専用のDS Lite振動カートリッジがオンライン販売開始された。	どーねんごがつにじゅうきゅうにちより、でぃーえすらいとせんよーのでぃーえすらいとしんどーかーとりっじがおんらいんはんばいかいしされた。	NO_LABEL
GBAコネクタカバーやメモリー拡張カートリッジと同様の形状で、本体からはみ出さずに装着できるが、従来のDSでは使用不可。	じーびーえーこねくたかばーやめもりーかくちょーかーとりっじとどーよーのけいじょーで、ほんたいからはみださずにそーちゃくできるが、じゅーらいのでぃーえすでわしよーふか。	NO_LABEL
一部の海外製ソフトにも対応している。	いちぶのかいがいせいそふとにもたいおーしている。	NO_LABEL
