冉魏は、中国の五胡十六国時代に漢族の冉閔によって建てられた国。	ぜんぎわ、ちゅーごくのごこじゅうろっこくじだいにかんぞくのぜんびんによってたてられたくに。	NO_LABEL
国号は単に魏だが、複数の時代に魏を国号とする国があるために、冉閔の魏を冉魏と呼んで区別する。	こくごーわたんにぎだが、ふくすーのじだいにぎをこくごーとするくにがあるために、ぜんびんのぎをぜんぎとよんでくべつする。	NO_LABEL
国都は鄴。	NO_PRONOUNCE	NO_LABEL
後趙の混乱に乗じて建国した。	こーちょーのこんらんにじょーじてけんこくした。	NO_LABEL
しかし、後趙石氏政権が、連年にわたって漢人を虐待したことへの反動として、漢民族至上主義に基づく、漢族のみの国家を目指したため、異民族の勢力圏にあった華北地方においてはその勢力基盤は脆弱で、支配領域は鄴周辺のわずかな地域に限定され、また後趙の残存勢力との争いにも国力を割かれることになり、後趙を滅ぼすことには成功するものの、建国のわずか3年後に前燕の慕容儁らにより滅ぼされた。	NO_PRONOUNCE	NO_LABEL
あまりに早く滅亡したため、「五胡十六国」の一つには含まれない。	NO_PRONOUNCE	NO_LABEL
東晋の永和6年2月、石閔が石鑑を殺すと、司徒の申鍾，司空の郎闓ら48人は石閔に帝位に就くよう迫った。	NO_PRONOUNCE	NO_LABEL
石閔はいったん李農に譲ろうとしたが、李農が固辞したため、南郊で皇帝の位に就き、改元して永興とし、国号を大魏と定め、ふたたび姓を冉氏に戻した。	NO_PRONOUNCE	NO_LABEL
一方、石鑑の死を聞いた石祗は襄国で帝位に就き、周辺の異民族や州郡の兵を招集して冉閔討伐をおこなった。	NO_PRONOUNCE	NO_LABEL
そのため、冉閔は使者を臨江の東晋のもとへ送って援軍の要請をしたが、返事はなかった。	そのため、ぜんびんわししゃをのぞみこーのとうしんのもとえおくってえんぐんのよーせいをしたが、へんじわなかった。	NO_LABEL
4月、石祗が石琨率いる10万を派遣して鄴を攻撃し、進んで邯鄲を占拠した。	NO_PRONOUNCE	NO_LABEL
しかし、冉閔は邯鄲で石琨を大敗させ、続く蒼亭で張賀度らを大敗させる。	NO_PRONOUNCE	NO_LABEL
11月、冉閔は10万を率いて襄国の石祗を攻撃した。	NO_PRONOUNCE	NO_LABEL
永興2年、襄国包囲から100日余りが経つと、石祗が皇帝の号を棄てて趙王と称した。	NO_PRONOUNCE	NO_LABEL
一方で石祗は前燕の慕容儁，羌族の姚弋仲のもとへ使者を送って援軍を要請しており、姚弋仲は息子の姚襄を滆頭から、慕容儁は将軍の悦綰を龍城から、そして相国の石琨が冀州からと、3方向から計10万余の兵が石祗の援軍に駆け付けた。	NO_PRONOUNCE	NO_LABEL
3月、冉閔は車騎将軍の胡睦に長蘆で姚襄と戦わせ、将軍の孫威に黄丘で石琨と戦わせたが、2人とも敗れてしまう。	NO_PRONOUNCE	NO_LABEL
石琨らの軍はさらに進軍してくるので、冉閔自らも出撃したが、姚襄，悦綰，石琨ら3軍の前に大敗し、冉閔はわずか10数騎で鄴に奔走した。	NO_PRONOUNCE	NO_LABEL
この一連の戦乱のせいで、司州，冀州は大飢饉となり、中原の人口は一気に減少し、土地も荒廃した。	NO_PRONOUNCE	NO_LABEL
石祗は劉顕の7万に鄴を攻撃させた。	NO_PRONOUNCE	NO_LABEL
しかし、冉閔は逆に劉顕軍を大敗させ、さらに追撃して陽平に追い詰めると3万余級を斬首した。	NO_PRONOUNCE	NO_LABEL
劉顕は恐れて冉閔に請降し、石祗を殺すことで許しを請うことにした。	NO_PRONOUNCE	NO_LABEL
さっそく劉顕は石祗ら10数人を殺して首を鄴に伝え、人質を送って命を請うた。	NO_PRONOUNCE	NO_LABEL
冉閔は石祗の首を道端で焼かせた。	NO_PRONOUNCE	NO_LABEL
5月、冉閔の兗州刺史である劉啓は鄄城をもって東晋に帰順。	NO_PRONOUNCE	NO_LABEL
7月、劉顕はふたたび衆を率いて鄴を攻撃したが、冉閔はこれを破った。	NO_PRONOUNCE	NO_LABEL
帰還した劉顕は襄国で帝位に就いた。	きかんしたりゅーけんわじょーこくでていいについた。	NO_LABEL
8月、冉閔の徐州刺史の周成，兗州刺史の魏統，豫州牧の冉遇，荊州刺史の楽弘は皆城をもって東晋に帰順した。	NO_PRONOUNCE	NO_LABEL
平南将軍の高崇，征虜将軍の呂護は洛州刺史の鄭系を捕え、三河をもって東晋に帰順した。	NO_PRONOUNCE	NO_LABEL
慕容彪は中山を攻め落とし、冉閔の寧北将軍である白同，幽州刺史の劉準を殺し、前燕の慕容儁に降った。	NO_PRONOUNCE	NO_LABEL
永興3年、劉顕が常山を攻撃したため、太守の蘇亥は冉閔に救援を求めた。	りょーごさんねん、りゅーけんがつねやまをこーげきしたため、たいしゅのそいわぜんびんにきゅーえんをもとめた。	NO_LABEL
冉閔は大将軍の蒋幹らを留めて太子の冉智を補佐して鄴を守らせ、自ら8千騎を率いて常山を救った。	NO_PRONOUNCE	NO_LABEL
ここで劉顕の大司馬・清河王である劉寧が冉閔に降ったので、冉閔はその余衆を収めて劉顕を撃ち、これを敗るとともに襄国まで追撃した。	NO_PRONOUNCE	NO_LABEL
時に劉顕の大将である曹伏駒が内応して開門させたため、冉閔は襄国に入ることができ、劉顕およびその公卿以下100余人を誅殺して襄国の宮室を焼き、その民衆を鄴に遷した。	NO_PRONOUNCE	NO_LABEL
4月、慕容儁率いる前燕軍が幽，薊を降して冀州に至った。	NO_PRONOUNCE	NO_LABEL
冉閔の軍は騎馬で出撃し、慕容恪と魏昌城で遭遇した。	ぜんびんのぐんわきばでしゅつげきし、ぼようかくとぎちゃんそんでそーぐーした。	NO_LABEL
初めのうちは冉閔軍が優勢だったものの、慕容恪の鉄鎖攻撃によって冉閔軍は馬を失い、一気に壊滅。	はじめのうちわぜんびんぐんがゆーせいだったものの、ぼようかくのてっさこーげきによってぜんびんぐんわうまをうしない、いっきにかいめつ。	NO_LABEL
冉閔は前燕軍に捕えられて龍城に送られ、まもなく斬首された。	ぜんびんわぜんえんぐんにとらえられてりゅーじょーにおくられ、まもなくざんしゅされた。	NO_LABEL
慕容儁は慕容評を遣わして鄴を包囲した。	NO_PRONOUNCE	NO_LABEL
鄴の城内は飢餓で人間同士が食い合っている状態であった。	NO_PRONOUNCE	NO_LABEL
冉閔の太子である冉智はまだ幼かったため、蒋幹は侍中の繆嵩，詹事の劉猗を遣わして東晋に帰順すると同時に、東晋に援軍を要請させた。	NO_PRONOUNCE	NO_LABEL
しかし、東晋の濮陽郡太守である戴施が劉猗らを遮り、伝国璽を差し出すよう要求してきた。	NO_PRONOUNCE	NO_LABEL
そこで劉猗らは戴施ら100余人とともに鄴に戻り、伝国璽を差し出した。	NO_PRONOUNCE	NO_LABEL
伝国璽を手に入れた戴施はそれをすぐさま東晋の都に送り、東晋の穆帝に献上した。	でんこくじをてにいれただいしわそれをすぐさまとうしんのとにおくり、とうしんのぼくていにけんじょーした。	NO_LABEL
ここでようやく晋朝に伝国璽が返還される。	ここでよーやくしんちょーにでんこくじがへんかんされる。	NO_LABEL
時に長水校尉の馬願，龍驤将軍の田香は開門して慕容評に降り、前燕軍を鄴の城内に引き入れた。	NO_PRONOUNCE	NO_LABEL
戴施，何融，蒋幹の3人は何とか脱出して倉垣に奔走したが、冉閔の妻である董氏，太子智，太尉の申鍾，司空の條攸，中書監の聶熊，司隸校尉の籍羆，中書令の李垣及び諸王公卿士は慕容評に捕えられて薊に送られてしまう。	NO_PRONOUNCE	NO_LABEL
また、尚書令の王簡，左僕射の張乾，右僕射の郎粛は自殺した。	NO_PRONOUNCE	NO_LABEL
こうして冉魏は完全に滅亡した。	こーしてぜんぎわかんぜんにめつぼーした。	NO_LABEL
冉隆と冉瞻の諡号は冉閔によって追尊されたものなので、実際に帝位に就いたわけではない。	NO_PRONOUNCE	NO_LABEL
