『ブエナ・ビスタ・ソシアル・クラブ』との演奏を中心に、彼らの来歴、キューバの日常を描いたキューバ音楽ドキュメンタリー映画。	NO_PRONOUNCE	NO_LABEL
1999年ドイツ、アメリカ合衆国、フランス、キューバ作品。	せんきゅうひゃくきゅうじゅうきゅうねんどいつ、あめりかがっしゅーこく、ふらんす、きゅーばさくひん。	NO_LABEL
上映時間105分。	じょーえいじかんひゃくごふん。	NO_LABEL
2000年のアカデミー賞にノミネートされた。	にせんねんのあかでみーしょーにのみねーとされた。	NO_LABEL
ライ・クーダーがプロデュースした同名のアルバム『ブエナ・ビスタ・ソシアル・クラブ』が制作の元となった。	NO_PRONOUNCE	NO_LABEL
このアルバムは大ヒットすると同時に、キューバ国外にほとんど知られていなかった、隠れた老ミュージシャンに再びスポットライトを浴びさせた。	このあるばむわだいひっとするとどーじに、きゅーばこくがいにほとんどしられていなかった、かくれたろーみゅーじしゃんにふたたびすぽっとらいとをあびさせた。	NO_LABEL
ライ・クーダーの友人であり、『パリ、テキサス』・『ベルリン・天使の詩』で知られるヴィム・ヴェンダースが監督している。	NO_PRONOUNCE	NO_LABEL
それまで知られていなかったキューバの老ミュージシャン一人一人の来歴、演奏・収録シーン、キューバの光景を織り交ぜたドキュメンタリー映画となっている。	NO_PRONOUNCE	NO_LABEL
ストーリー性はない。	すとーりーせいわない。	NO_LABEL
アムステルダム公演のシーンに始まり、カーネギーホール公演のシーンで終わるが、それ以外はほとんどキューバでの撮影・収録である。	NO_PRONOUNCE	NO_LABEL
