ドリトル () は、教育用に設計されたプログラミング言語の一つ。	どりとるかっこわ、きょーいくよーにせっけいされたぷろぐらみんぐげんごのひとつ。	NO_LABEL
またはその処理系。	またわそのしょりけい。	NO_LABEL
現大阪電気通信大学教授の兼宗進により開発された。	げんおーさかでんきつーしんだいがくきょーじゅのかねむねすすむによりかいはつされた。	NO_LABEL
名前の由来は「少しだけする」という意味の英語「」であり、「やることが少ない」という願いから。	NO_PRONOUNCE	NO_LABEL
また、ヒュー・ロフティングの児童文学作品『ドリトル先生』にも掛けられている。	NO_PRONOUNCE	NO_LABEL
ドリトルは教育用に適した以下の特徴を持つ。	どりとるわきょーいくよーにてきしたいかのとくちょーをもつ。	NO_LABEL
各版ともJavaにより開発されている。	かくばんともじゃばによりかいはつされている。	NO_LABEL
フリーウェアである。	ふりーうぇあである。	NO_LABEL
ただし、雑誌やウェブによる再配布は事前に確認が必要。	ただし、ざっしやうぇぶによるさいはいふわじぜんにかくにんがひつよー。	NO_LABEL
codice_5	NO_PRONOUNCE	NO_LABEL
codice_6	NO_PRONOUNCE	NO_LABEL
