infix 長友仍世のくるナイは、ミュージックバードで2006年10月3日から放送されている番組。	いんふぃくすながともじょうせいのくるないわ、みゅーじっくばーどでにせんろくねんじゅーがつみっかからほーそーされているばんぐみ。	NO_LABEL
放送時間は、毎週日曜日の25:00 - 26:00。	NO_PRONOUNCE	NO_LABEL
また、一部のコミュニティ放送局でもネットされている。	また、いちぶのこみゅにてぃほーそーきょくでもねっとされている。	NO_LABEL
2008年4月からは番組名がinfix 長友仍世のくるナイ2に変更された。	NO_PRONOUNCE	NO_LABEL
長友仍世をパーソナリティとして、トークを繰り広げる。	ながともじょうせいをぱーそなりてぃとして、とーくをくりひろげる。	NO_LABEL
2011年1月からのアシスタントは千晴。	にせんじゅういちねんいちがつからのあしすたんとわちはる。	NO_LABEL
くるナイ2とは、「くるめのめくるめくナイ2」を省略した言葉である。	NO_PRONOUNCE	NO_LABEL
