ゴボウは、キク科の多年草。	ごぼーわ、きくかのたねんそー。	NO_LABEL
ユーラシア大陸原産。	ゆーらしあたいりくげんさん。	NO_LABEL
大阪弁では「ごんぼ」と呼ぶ。	NO_PRONOUNCE	NO_LABEL
日本で自生はしていないが、縄文時代の遺跡からは植物遺存体として確認されており、縄文時代か平安時代に日本に伝わったともいわれる。	にっぽんでじせいわしていないが、じょーもんじだいのいせきからわしょくぶつのこそんたいとしてかくにんされており、じょーもんじだいかへいあんじだいににっぽんにつたわったともいわれる。	NO_LABEL
日本人が食すようになったのは江戸時代から明治にかけてであり、根や葉を食用とする。	にっぽんじんがしょくすよーになったのわえどじだいからめいじにかけてであり、ねやはをしょくよーとする。	NO_LABEL
茎の高さは1mほど、主根の長さは品種にもよるが50cm〜1mほどある。	NO_PRONOUNCE	NO_LABEL
花期は6〜7月。	NO_PRONOUNCE	NO_LABEL
紫色のアザミに似た総苞にトゲのある花を咲かせる。	むらさきいろのあざみににたそーつとにとげのあるはなをさかせる。	NO_LABEL
大別すると長根種と短根種がある。	たいべつするとながねたねとたんねしゅがある。	NO_LABEL
栽培の主流となっているのは長根種の「滝野川ごぼう」とその改良種であり、収穫時には直径3センチ、長さは1メートル前後となる。	NO_PRONOUNCE	NO_LABEL
一般に関東は長根種が多く、関西では短根種が多い。	いっぱんにかんとーわながねたねがおーく、かんさいでわたんねしゅがおーい。	NO_LABEL
ゴボウは連作を嫌うため、同じ畑では2-3年後でないと作れない。	NO_PRONOUNCE	NO_LABEL
日本では根を食用としてきんぴらや天ぷらのかき揚げなどに使われるほか煮物に用い、近年では細切りにした根を湯がいてサラダにもする。	にっぽんでわねをしょくよーとしてきんぴらやてんぷらのかきあげなどにつかわれるほかにものにもちい、きんねんでわこまぎりにしたねをゆがいてさらだにもする。	NO_LABEL
旬は初冬で、新ゴボウは初夏となる。	しゅんわしょとーで、しんごぼーわしょかとなる。	NO_LABEL
柳川鍋には欠かせない食材とされる。	やながわなべにわかかせないしょくざいとされる。	NO_LABEL
根は、日本の他、日本が統治していた朝鮮半島、台湾、中国東北部の一部以外では食材としない。	ねわ、にっぽんのほか、にっぽんがとーちしていたちょーせんはんとー、たいわん、ちゅーごくとーほくぶのいちぶいがいでわしょくざいとしない。	NO_LABEL
太平洋戦争中に英米人捕虜がゴボウを「木の根」だと思い、木の根を食べることを強要し虐待されたとして、戦後、日本人将兵が戦犯として裁かれたこともあった。	NO_PRONOUNCE	NO_LABEL
ゴボウにはポリフェノールであるクロロゲン酸が豊富に含まれている。	ごぼーにわぽりふぇのーるであるくろろげんさんがほーふにふくまれている。	NO_LABEL
クロロゲン酸は、ゴボウを水にさらしたときに出てくる茶褐色の成分であり、コーヒーにも含まれ、抗酸化作用がある。	くろろげんさんわ、ごぼーをみずにさらしたときにでてくるちゃかっしょくのせいぶんであり、こーひーにもふくまれ、こーさんかさよーがある。	NO_LABEL
ゴボウを長く水にさらすとクロロゲン酸が失われてしまうので、「皮はむかない」「水にさらさず、すぐ調理する」「大きめにゴロンと切る」ことがゴボウ調理の三大新常識となっている。	NO_PRONOUNCE	NO_LABEL
ゴボウは、食物繊維、特に水溶性食物繊維が豊富であり、イヌリンが水溶性食物繊維の主体を成している。	ごぼーわ、しょくもつせんい、とくにすいよーせいしょくもつせんいがほーふであり、いぬりんがすいよーせいしょくもつせんいのしゅたいをなしている。	NO_LABEL
また長期冷蔵すると、このイヌリンが分解され糖化することで甘味が出るという。	またちょーきれいぞーすると、このいぬりんがぶんかいされとーかすることであまみがでるという。	NO_LABEL
なお、アザミの根もヤマゴボウ、キクゴボウ、菊ごぼうという名前で食されることがある。	なお、あざみのねもやまごぼー、きくごぼー、きくごぼーとゆうなまえでしょくされることがある。	NO_LABEL
欧米では根を薬用としてハーブとして用いられている。	おーべいではねをやくよーとしてはーぶとしてもちいられている。	NO_LABEL
また、ゴボウは生薬・漢方薬に用いられ、利尿、発汗、血液浄化、皮膚疾患の薬の材料としても使われている。	NO_PRONOUNCE	NO_LABEL
日本には薬草として中国から伝来。	にっぽんにわやくそーとしてちゅーごくからでんらい。	NO_LABEL
薬草としては発汗利尿作用のある牛旁根のほか、浮腫、咽頭痛、解毒に用いる種子、または牛旁子）を用いる。	NO_PRONOUNCE	NO_LABEL
日本では乳腺炎に種をそのまま食べるか、煎じる使用法も有効として民間に口伝で知られる。	にっぽんでわにゅーせんえんにたねをそのままたべるか、せんじるしよーほーもゆーこーとしてみんかんにくでんでしられる。	NO_LABEL
繊維質が多く、便秘予防に効果があるとされる。	せんいしつがおーく、べんぴよぼーにこーかがあるとされる。	NO_LABEL
大腸がん・直腸がん予防に効果があるとするむきもあるが、これは正確ではなく、現在のところでは試験管レベルの実験で酸素状態の悪い成長した大腸がんの細胞に対して選択的に倍加した毒性を発揮する性質があるとされている。	NO_PRONOUNCE	NO_LABEL
ゴボウの根の部分を野菜として利用するのは日本と朝鮮半島だけの特徴であり、先述のように葉の部分を野菜として、根や種の部分を漢方薬として使用されることが多い。	ごぼーのねのぶぶんをやさいとしてりよーするのわにっぽんとちょーせんはんとーだけのとくちょーであり、せんじゅつのよーにはのぶぶんをやさいとして、ねやたねのぶぶんをかんぽーやくとしてしよーされることがおーい。	NO_LABEL
キク科植物に対しアレルギー性を有している場合は、注意が必要である。	きくかしょくぶつにたいしあれるぎーせいをゆーしているばあいわ、ちゅーいがひつよーである。	NO_LABEL
ゴボウにまつわる食文化の違いがもたらした悲劇的な逸話として、「戦時中、外国人捕虜にゴボウを与えたところ、木の根を食べさせられたと誤解され、戦後にBC級戦犯として虐待の罪で処罰された」というものがある。	NO_PRONOUNCE	NO_LABEL
1952年12月10日に行われた第15回国会参議院法務委員会で法務省保護局長齋藤三郎が行った米国派遣報告では	せんきゅうひゃくごじゅうにねんじゅーにがつとおかにおこなわれただいじゅうごかいこっかいさんぎいんほーむいーんかいでほーむしょーほごきょくちょーさいとうさぶろーがおこなったべいこくはけんほーこくでわ	NO_LABEL
と述べている。	とのべている。	NO_LABEL
また、翌1953年7月2日の参議院厚生委員会では日本社会党の藤原道子が「ごぼうを食べさしたものを木の根を食べさせたのだということで二十五年の禁錮を受けておる」と発言している。	NO_PRONOUNCE	NO_LABEL
漫画 『はだしのゲン』でも「捕虜にヤマゴボウを食べさせて25年の重労働を課された」とあり、映画『私は貝になりたい』では「ゴボウを食べさせて5年の懲役を受けた」という話が出てくる。	NO_PRONOUNCE	NO_LABEL
新潟県の直江津町にあった東京俘虜収容所第4分所の所長らが、終戦後、収容されていたオーストラリア人捕虜達から「木の根を食べさせられた」という告発を受け、うち所長を除く8名が横浜裁判で絞首刑となった。	NO_PRONOUNCE	NO_LABEL
また、長野県下伊那郡天龍村にあった東京俘虜収容所第12分所に勤務していた警備員1名が無期懲役の判決となり、その裁判中にゴボウを食べさせたことが虐待として扱われた。	NO_PRONOUNCE	NO_LABEL
相馬暁は1996年の著書の中で「アメリカ人捕虜にゴボウを食べさせたために、昭和21年に、横浜の戦犯裁判で捕虜収容所の関係者が、二人が死刑、三人が終身刑、二人が十後年以上の有期刑の判決を受けた」と述べている。	NO_PRONOUNCE	NO_LABEL
また、村山有が捕虜にゴボウを差し入れたことを理由に戦犯容疑者としてGHQに逮捕された。	また、むらやまたもつがほりょにごぼーをさしいれたことをりゆーにせんぱんよーぎしゃとしてじーえいちきゅーにたいほされた。	NO_LABEL
このほか東京裁判時の弁護団だった清瀬一郎は「ある捕虜収容所」のケースとして「牛蒡をオックス・テイル、豆腐をロツン・ビーンズと誤訳したため、捕虜から不満が出た」と述べている。	NO_PRONOUNCE	NO_LABEL
