東武300系電車は東武鉄道の電車。	とーぶさんびゃくけいでんしゃわとーぶてつどーのでんしゃ。	NO_LABEL
急行列車「きりふり」・「ゆのさと」用として1991年7月21日に営業運転を開始した。	NO_PRONOUNCE	NO_LABEL
その後、「きりふり」・「ゆのさと」の特急列車への格上げにより、実質的に急行用から特急用となった。	NO_PRONOUNCE	NO_LABEL
本項では300系の4両編成車で、おもに特急列車「しもつけ」に運用される350系電車についても記述する。	NO_PRONOUNCE	NO_LABEL
伊勢崎線 - 日光線系統では、優等列車として特急の他に快速急行が存在したが、この快速急行には快速用の6050系が使われており、車両のグレードなどサービス面での向上が求められていた。	NO_PRONOUNCE	NO_LABEL
こうした中、急行「りょうもう」で使用されていた1800系のうち、200系の増備で運用を離脱した1813編成・1816編成・1817編成・1818編成を改造し、6両編成を300系、4両編成を350系とした。	NO_PRONOUNCE	NO_LABEL
350系の改造種車となった1800系は6両編成2本であったことから、352編成のみ中間車を方向転換の上先頭車改造している。	NO_PRONOUNCE	NO_LABEL
このため352編成は客室窓の窓割りや台車の構造が351編成・353編成と異なっている。	NO_PRONOUNCE	NO_LABEL
この300系・350系の登場により「快速急行」は「急行」に変更された。	NO_PRONOUNCE	NO_LABEL
また、これに伴い快速急行運用から6050系が撤退、運用の空きができたために団体用などの臨時列車にも使用されるようになった。	また、これにともないかいそくきゅうこーうんよーからろくせんごじゅうけいがてったい、うんよーのあきができたためにだんたいよーなどのりんじれっしゃにもしよーされるよーになった。	NO_LABEL
そのため、従来これらの臨時列車に充当されていた5700系が営業運転から離脱した。	そのため、じゅーらいこれらのりんじれっしゃにじゅーとーされていたごせんななひゃくけいがえいぎょーうんてんからりだつした。	NO_LABEL
現在では、後述するように特急へと格上げされ、主に伊勢崎線・日光線・宇都宮線内で運用されている。	NO_PRONOUNCE	NO_LABEL
車体塗装は6050系やデビュー時の100系に倣い、ジャスミンホワイトを基調としパープルルビーレッドとサニーコーラルオレンジの帯を巻いた日光線優等列車のイメージカラーを採用している。	しゃたいとそーわろくせんごじゅうけいやでびゅーじのひゃくけいにならい、じゃすみんほわいとをきちょーとしぱーぷるるびーれっどとさにーこーらるおれんじのおびをまいたにっこーせんゆーとーれっしゃのいめーじからーをさいよーしている。	NO_LABEL
前面の灯具類は全て1800系1819編成と同じ角型に交換された。	NO_PRONOUNCE	NO_LABEL
車内座席は全て、種車そのままのリクライニング機能がない回転クロスシートである。	しゃないざせきわすべて、たねしゃそのままのりくらいにんぐきのーがないかいてんくろすしーとである。	NO_LABEL
フットレストを備え、背面に折り畳み式テーブルがあるほか、窓の下に細長いテーブルが折り込まれており、利用者はそれを引き出して使用することができる。	ふっとれすとをそなえ、はいめんにおりたたみしきてーぶるがあるほか、まどのしたにほそながいてーぶるがおりこまれており、りよーしゃわそれをひきだしてしよーすることができる。	NO_LABEL
デッキ内にはトイレ、清涼飲料水の自動販売機がある。	でっきないにわといれ、せいりょーいんりょーすいのじどーはんばいきがある。	NO_LABEL
車内販売サービスは行われていない。	しゃないはんばいさーびすわおこなわれていない。	NO_LABEL
テレホンカード専用車内電話もあったがmova停波のため2012年3月31日で撤去された。	てれほんかーどせんよーしゃないでんわもあったがむーばとまなみのためにせんじゅうにねんさんがつさんじゅういちにちでてっきょされた。	NO_LABEL
のちに300系は自動販売機も撤去された。	のちにさんびゃくけいわじどーはんばいきもてっきょされた。	NO_LABEL
種車の1800系で使われていたものが流用されたが、両系列ともに、日光付近の勾配に対応するため、1800系時代には無かった発電ブレーキ・抑速ブレーキを追加装備している。	NO_PRONOUNCE	NO_LABEL
それに関連して主電動機を375V定格のTM-63に統一のうえ、300系を1800系時代の3M3T編成から4M2T編成としている。	NO_PRONOUNCE	NO_LABEL
2006年3月18日のダイヤ改正で列車種別変更が行われ、従来の座席指定制の急行列車はすべて特急列車に昇格した。	にせんろくねんさんがつじゅうはちにちのだいやかいせいでれっしゃしゅべつへんこーがおこなわれ、じゅーらいのざせきしていせいのきゅーこーれっしゃわすべてとっきゅーれっしゃにしょーかくした。	NO_LABEL
ただし、100系「スペーシア」と車内設備に格差があることから、特急料金は改正前の急行料金並みに抑制される等の措置がとられている。	NO_PRONOUNCE	NO_LABEL
それに伴い、側面種別表示は緑地に白文字から金色地に白文字と変更になった。	それにともない、そくめんしゅべつひょーじわりょくちにしろもじからきんいろちにしろもじとへんこーになった。	NO_LABEL
また、前面種別表示も緑色の「急行」から金色の「特急」へと変更になった。	NO_PRONOUNCE	NO_LABEL
2009年1月現在、種車となった1800系の最終編成が臨時快速や団体専用列車として日光線東武日光駅まで乗り入れており、臨時特急に入った300系・350系と顔を並べることもある。	NO_PRONOUNCE	NO_LABEL
種車の製造から45年前後経過しており、近年は老朽化が顕著である。	たねしゃのせいぞーからよんじゅうごねんぜんごけいかしており、きんねんわろーきゅーかがけんちょである。	NO_LABEL
そのような中、300系が次項の通りダイヤ改正前日の2017年4月20日を最後に運用を終了した。	そのよーななか、さんびゃくけいがじこーのとーりだいやかいせいぜんじつのにせんじゅうななねんしがつはつかをさいごにうんよーをしゅーりょーした。	NO_LABEL
1997年3月までは急行「きりふり」「ゆのさと」で運用されていたが、両列車の定期運用廃止により定期運用を失った時期もあった。	NO_PRONOUNCE	NO_LABEL
その後、2006年3月のダイヤ改正で特急へと格上げされたと同時に設定された浅草発南栗橋行き「きりふり」283号、2013年3月のダイヤ改正からは浅草発春日部行き「きりふり」283号として300系の定期運用が復活した。	NO_PRONOUNCE	NO_LABEL
この列車はJRでいう「ホームライナー」的要素が強い。	NO_PRONOUNCE	NO_LABEL
他に臨時運転の「きりふり」「ゆのさと」および団体専用列車に使用された。	NO_PRONOUNCE	NO_LABEL
車両故障等でやりくりがつかない場合100系「スペーシア」の代走に使われるが、サービス面で大きく劣ることから特急料金不要の措置がとられていた。	NO_PRONOUNCE	NO_LABEL
また、2001年から冬季に運転される臨時夜行列車「スノーパル」と、翌2002年からは毎年6月 - 10月に運転される臨時夜行列車「尾瀬夜行」に従来使用されていた6050系に代わって300系が充当されていた。	NO_PRONOUNCE	NO_LABEL
2015年12月には野田線経由の浅草発運河行き臨時特急「きりふり」267号にも充当された。	NO_PRONOUNCE	NO_LABEL
500系「リバティ」の導入による運行形態の変更に伴い、2017年4月20日のきりふり285号を最後に運用を終了した。	NO_PRONOUNCE	NO_LABEL
また、同年4月16日には引退記念列車としてきりふり275号が浅草駅から東武日光駅まで運行された。	NO_PRONOUNCE	NO_LABEL
浅草駅 - 東武宇都宮駅間の特急「しもつけ」の1往復に使われており、300系と同様に臨時運転の「きりふり」や「ゆのさと」にも使われている。	NO_PRONOUNCE	NO_LABEL
なお、2005年2月28日までは野岩鉄道・会津鉄道に乗り入れる浅草駅 - 会津田島駅間の急行「南会津」の運用もあり、この運用を引き継いだ浅草駅 - 新藤原駅間の急行「ゆのさと」には2006年3月17日まで使用された。	NO_PRONOUNCE	NO_LABEL
2014年6月からは毎週金曜日に浅草発新栃木行き臨時特急「きりふり」269号に充当されている。	NO_PRONOUNCE	NO_LABEL
353編成は2010年4月24日から同年8月まで「スカイツリートレイン」として運行されていた。	NO_PRONOUNCE	NO_LABEL
これは車内に東京スカイツリーの写真等を展示しているものであり、前面や側面にもラッピングがされていた。	これわしゃないにとーきょーすかいつりーのしゃしんとーをてんじしているものであり、ぜんめんやそくめんにもらっぴんぐがされていた。	NO_LABEL
またこの期間、特急「きりふり」275号は「ゆのさと」275号に変更されていた。	NO_PRONOUNCE	NO_LABEL
なお、運行初日の「ゆのさと」275号のみ特別ヘッドマークを取り付けての運行であったが、車両不具合のため浅草発はラッピング無しの351編成で運転され新栃木で353編成と車両交換を行った。	NO_PRONOUNCE	NO_LABEL
なお、「スカイツリートレイン」の名称は2年半後の2012年10月から6050系を改造した展望列車634型の臨時特急の愛称に使われた。	NO_PRONOUNCE	NO_LABEL
前項の通り300系は2017年4月20日を最後に運用を終了したが、本系列は翌日のダイヤ改正以降も引き続き運用される。	ぜんこーのとーりさんびゃくけいわにせんじゅうななねんしがつはつかをさいごにうんよーをしゅーりょーしたが、ほんけいれつわよくじつのだいやかいせいいこーもひきつずきうんよーされる。	NO_LABEL
