吉原 真龍とは、江戸時代の浮世絵師。	よしはらしんりゅーとわ、えどじだいのうきよえし。	NO_LABEL
三畠上龍の門人。	みはたじょーりゅーのもんじん。	NO_LABEL
名は信行、通称は与三郎。	なわのぶゆき、つーしょーわよさぶろー。	NO_LABEL
真龍、玉峰、桃隠、臥雲と号す。	まりゅー、たまみね、ももこも、がうんとごーす。	NO_LABEL
豊後国国東郡真玉村西畑に生まれる。	ぶんごのくにくにさきぐんまたまむらさいばたにうまれる。	NO_LABEL
若い頃に京都に上り三畠上龍に絵を学ぶ。	わかいころにきょーとにのぼりみはたじょーりゅーにえをまなぶ。	NO_LABEL
作画期は天保から弘化にかけての頃で、師の画風を忠実に伝えながら、幕末期の上方浮世絵と四条派風を折衷した美人画を描いている。	さくがきわてんぽーからこうかにかけてのころで、しのがふーをちゅーじつにつたえながら、ばくまつきのかみがたうきよえとしじょーはふーをせっちゅーしたびじんがをえがいている。	NO_LABEL
嘉永2年8月には御所参入の許しを得、法橋の位に叙される。	かながにねんはちがつにわごしょさんにゅーのゆるしをえ、ほっきょーのくらいにじょされる。	NO_LABEL
嘉永6年故郷の豊後国に帰り、3年後同地にて没す。	かながろくねんこきょーのぶんごのくににかえり、さんねんごどーちにてぼっす。	NO_LABEL
享年53。	NO_PRONOUNCE	NO_LABEL
そののち安政5年に法眼の位を贈位された。	そののちあんせいごねんにほーげんのくらいをぞーいされた。	NO_LABEL
多くの門人を育てており、その数は百数十名に上ったという。	おーくのもんじんをそだてており、そのかずわひゃくすーじゅーめいにのぼったという。	NO_LABEL
主な門人として野畑如龍、単龍、春龍、景龍がいる。	NO_PRONOUNCE	NO_LABEL
