スクリプトエディタとは、プログラミング言語のコーディングに特化したテキストエディタ。	すくりぷとえでぃたとわ、ぷろぐらみんぐげんごのこーでぃんぐにとくかしたてきすとえでぃた。	NO_LABEL
統合開発環境に同梱されて配布されることが多い。	とーごーかいはつかんきょーにどーこんされてはいふされることがおーい。	NO_LABEL
一般のテキストエディタにはない特徴的な機能としては、スクリプト内の特殊な意味を持つ単語、コメント、ラベル等を色分け、強調して表示する機能や、コードを読みやすくするため自動的にインデントを行う機能、コンパイラ、インタプリタ、デバッガとの連係機能、複数のソースコードファイルを一元的に管理する機能、等がある。	いっぱんのてきすとえでぃたにわないとくちょーてきなきのーとしてわ、すくりぷとないのとくしゅないみをもつたんご、こめんと、らべるひとしをいろわけ、きょーちょーしてひょーじするきのーや、こーどをよみやすくするためじどーてきにいんでんとをおこなうきのー、こんぱいら、いんたぷりた、でばっがとのれんけいきのー、ふくすーのそーすこーどふぁいるをいちげんてきにかんりするきのー、ひとしがある。	NO_LABEL
その他一般的なエディタの機能として検索、置換、視覚デザインのカスタマイズ、アンドゥ、リドゥ等の機能も充実しており、快適なアプリケーション開発が行えるように設計されている。	そのたいっぱんてきなえでぃたのきのーとしてけんさく、ちかん、しかくでざいんのかすたまいず、あんどぅ、りどぅとーのきのーもじゅーじつしており、かいてきなあぷりけーしょんかいはつがおこなえるよーにせっけいされている。	NO_LABEL
