ボンボ藤井は、熊本県八代市出身のCMサウンドクリエイター	ぼんぼふじーわ、くまもとけんやつしろししゅっしんのこんぴゅーたみゅーじっくまがじんさうんどくりえいたー	NO_LABEL
、ボンボサウンドワークス代表。	NO_PRONOUNCE	NO_LABEL
ウクレレプレーヤー・ウクレレインストラクター・中学校音楽講師・ラジオDJ等の顔も持つ。	NO_PRONOUNCE	NO_LABEL
その他2010年に、九州新幹線全線開通記念行事としてくまモンをキャラクターとするキャンペーンのテーマ曲、「くまもとサプライズ!」の作詞・作曲・編曲を手掛けた。	NO_PRONOUNCE	NO_LABEL
同年にはウクレレプレーヤー、Jake Shimabukuro日本ツアーのウクレレサポートアクトとして抜擢され、同じステージに立っている。	どーねんにわうくれれぷれーやー、じぇいくしまぶくろにほんつあーのうくれれさぽーとあくととしてばってきされ、おなじすてーじにたっている。	NO_LABEL
中学校の文化祭で長渕剛の曲を弾き語りをした事をきっかけに音楽活動に走る。	ちゅーがっこーのぶんかさいでながぶちつよしのきょくをひきがたりをしたことをきっかけにおんがくかつどーにはしる。	NO_LABEL
その一方で自動車整備士の道を志し、27歳まで大手自動車メーカーに勤め、その後独立し、自動車会社を経営。	そのいっぽーでじどーしゃせいびしのみちをこころざし、にじゅうななさいまでおーてじどーしゃめーかーにつとめ、そのごどくりつし、じどーしゃかいしゃをけいえい。	NO_LABEL
30歳の時、左手親指を複雑骨折しギターを断念。	さんじゅっさいのとき、ひだりておやゆびをふくざつこっせつしぎたーをだんねん。	NO_LABEL
しかし弦楽器への情熱を諦めきれず、リハビリで始めたウクレレにすっかりのめり込んでしまい、その2年後にはインストラクター資格を取得。	しかしげんがっきえのじょーねつをあきらめきれず、りはびりではじめたうくれれにすっかりのめりこんでしまい、そのにねんごにわいんすとらくたーしかくをしゅとく。	NO_LABEL
この頃から自動車業と並行して活動していた音楽の仕事のウエイトが次第に大きくなり、37歳にして音楽一本に絞る事を決意。	このころからじどーしゃぎょーとへいこーしてかつどーしていたおんがくのしごとのうえいとがしだいにおーきくなり、さんじゅうななさいにしておんがくいちほんにしぼることをけつい。	NO_LABEL
CM音楽制作の道へと進む。	こんぴゅーたみゅーじっくまがじんおんがくせいさくのみちえとすすむ。	NO_LABEL
同時に県内各地で講演活動や中学校音楽講師、ウクレレプレーヤーやウクレレインストラクターを務める傍ら、エフエムやつしろラジオDJとしても活動。	どーじにけんないかくちでこーえんかつどーやちゅーがっこーおんがくこーし、うくれれぷれーやーやうくれれいんすとらくたーをつとめるかたわら、えふえむやつしろらじおでぃーじぇいとしてもかつどー。	NO_LABEL
2013年、ボンボサウンドワークスを設立。	にせんじゅうさんねん、ぼんぼさうんどわーくすをせつりつ。	NO_LABEL
『ボンボ』の名前の由来は、25歳の時にラジオ番組中、アカペラのBassパートを「ボンボ、ボン！」と歌っていた時に、メインDJの藤本一精によってノリで命名されたもの。	NO_PRONOUNCE	NO_LABEL
ちなみにそれ以前までは「ポンポコ藤井」だった。	NO_PRONOUNCE	NO_LABEL
テーマソング等	てーまそんぐとー	NO_LABEL
CMソング等	しーえむそんぐとー	NO_LABEL
等々…CM 他多数制作	NO_PRONOUNCE	NO_LABEL
