渡辺 英寿は、日本の医学者、脳神経外科医。	わたなべひでとしわ、にっぽんのいがくしゃ、のーしんけいげかい。	NO_LABEL
医学博士。	いがくはくし。	NO_LABEL
自治医科大学元教授。	じちいかだいがくもときょーじゅ。	NO_LABEL
自治医科大学名誉教授。	じちいかだいがくめいよきょーじゅ。	NO_LABEL
専門はてんかん外科、コンピュータ支援外科。	せんもんわてんかんげか、こんぴゅーたしえんげか。	NO_LABEL
元日本脳神経外科学会理事。	もとにっぽんのーしんけいげかがっかいりじ。	NO_LABEL
広島県広島市生まれ。	ひろしまけんひろしましうまれ。	NO_LABEL
広島大学附属高等学校を経て東京大学理科三類に入学。	ひろしまだいがくふぞくこーとーがっこーをへてとーきょーだいがくりかさんるいににゅーがく。	NO_LABEL
1976年に東京大学医学部を卒業。	せんきゅうひゃくななじゅうろくねんにとーきょーだいがくいがくぶをそつぎょー。	NO_LABEL
1976年に脳神経外科に入局。	せんきゅうひゃくななじゅうろくねんにのーしんけいげかににゅーきょく。	NO_LABEL
東京大学、三井記念病院、東京都立墨東病院をへて、東京大学医学部生理学教室で3年間、伊藤正男教授の下で神経生理学を研鑽して医学博士号取得。	とーきょーだいがく、みついきねんびょーいん、とーきょーとりつぼくとーびょーいんをへて、とーきょーだいがくいがくぶせいりがくきょーしつでさんねんかん、いとーまさおきょーじゅのしたでしんけいせいりがくをけんさんしていがくはくしごーしゅとく。	NO_LABEL
その後、西ドイツエルランゲン大学脳神経外科に留学し、脳神経外科術中の神経誘発電位による聴神経機能モニタリング法の開発を行った。	そのご、にしどいつえるらんげんだいがくのーしんけいげかにりゅーがくし、のーしんけいげかじゅっちゅーのしんけいゆーはつでんいによるちょーしんけいきのーもにたりんぐほーのかいはつをおこなった。	NO_LABEL
帰国後は東京警察病院でてんかんをはじめとする機能神経外科を中心に活動。	きこくごわとーきょーけいさつびょーいんでてんかんをはじめとするきのーしんけいげかをちゅーしんにかつどー。	NO_LABEL
1987年には世界で初めてニューロナビゲータを開発した。	せんきゅうひゃくはちじゅうななねにわせかいではじめてにゅーろなびげーたをかいはつした。	NO_LABEL
1999年東京警察病院脳神経外科部長。	せんきゅうひゃくきゅうじゅうきゅうねんとーきょーけいさつびょーいんのーしんけいげかぶちょー。	NO_LABEL
2004年には自治医科大学脳神経外科教授に就任した。	にせんよねんにわじちいかだいがくのーしんけいげかきょーじゅにしゅーにんした。	NO_LABEL
光トポグラフィーの開発や３Dプリンターを用いた手術機器の開発などの数々の斬新な研究を行なう。	NO_PRONOUNCE	NO_LABEL
現在も新しいARナビゲータ（TVN:http://www.worldneurosurgery.org/article/S1878-875001707-6/abstract?cc=y=)の開発を続けている。	NO_PRONOUNCE	NO_LABEL
2015年に退官し厚生労働省労働保険審査会委員に就任した。	にせんじゅうごねんにたいかんしこーせいろうどうしょーろーどーほけんしんさかいいいんにしゅーにんした。	NO_LABEL
