ジュディヴァンは、ブラジルのサッカー選手。	NO_PRONOUNCE	NO_LABEL
ポジションはFW。	ぽじしょんわふぉわーど。	NO_LABEL
クルゼイロECで2014年にトップチームデビュー。	くるぜいろでにせんじゅうよねんにとっぷちーむでびゅー。	NO_LABEL
2018年にアメリカ・ミネイロに期限付き移籍。	にせんじゅうはちねんにあめりかみねいろにきげんつきいせき。	NO_LABEL
