『怪しい彼女』は、2014年に公開された韓国映画。	NO_PRONOUNCE	NO_LABEL
おばあさんが二十歳に若返って青春をもう１度楽しむお話。	おばーさんがはたちにわかがえってせいしゅんをもーいちどたのしむおはなし。	NO_LABEL
〈日本語版〉女手一つで娘を育て上げた73歳の瀬山カツは頑固でおせっかいな性格のため、周りからは敬遠されがち。	NO_PRONOUNCE	NO_LABEL
ある日、ふと入った写真館で写真を撮り店を出ると、20歳のときの若々しい姿のカツになっていた。	あるひ、ふとはいったしゃしんかんでしゃしんをとりてんをでると、にじゅっさいのときのわかわかしいすがたのかつになっていた。	NO_LABEL
カツはヘアスタイルやファッションを一新、名前も節子にし、人生を取り戻そうと決意。	かつわへあすたいるやふぁっしょんをいっしん、なまえもせつこにし、じんせいをとりもどそうとけつい。	NO_LABEL
その後、のど自慢大会で昭和歌謡を歌ったことから……。	NO_PRONOUNCE	NO_LABEL
本作品は中国、ベトナム、日本でリメイク版が製作された。	ほんさくひんわちゅーごく、べとなむ、にっぽんでりめいくばんがせいさくされた。	NO_LABEL
タイ、インドネシア、インド、ドイツでもリメイクが計画されているという。	たい、いんどねしあ、いんど、どいつでもりめいくがけいかくされているという。	NO_LABEL
中国では2014年に映画『20歳よ、もう一度』としてリメイクされた。	NO_PRONOUNCE	NO_LABEL
この映画は中国にて2015年1月8日に公開された。	このえいがわちゅーごくにてにせんじゅうごねんいちがつようかにこーかいされた。	NO_LABEL
また、アメリカでも同年1月16日に13館で公開され、週末興行収入ランキングで初登場43位となった。	NO_PRONOUNCE	NO_LABEL
日本でも同年6月12日にTOHOシネマズ新宿にて劇場公開された後、6月19日から全国22館でも公開される。	NO_PRONOUNCE	NO_LABEL
なお、ハングル字幕と日本語字幕の両方がついた上映も行われる。	なお、はんぐるじまくとにほんごじまくのりょーほーがついたじょーえいもおこなわれる。	NO_LABEL
ベトナムでは原題『Em là bà nội của anh』、邦題『ベトナムの怪しい彼女』としてリメイクされ、2015年12月11日より公開され、17日までの1週間で35万8000人を動員し、260億VNDの興行収入を記録。	NO_PRONOUNCE	NO_LABEL
2016年2月16日までの2か月間で興行収入は1000億VNDに達し、ベトナム映画史上2番目の記録となった。	NO_PRONOUNCE	NO_LABEL
日本では「第11回大阪アジアン映画祭」の特集企画として2016年3月10日と3月17日に公開。	NO_PRONOUNCE	NO_LABEL
日本では2013年公開の映画『謝罪の王様』のスタッフにより『あやしい彼女』のタイトルでリメイク版が製作された。	NO_PRONOUNCE	NO_LABEL
主演は多部未華子、倍賞美津子。	しゅえんわたべみかこ、ばいしょーみつこ。	NO_LABEL
2016年4月1日公開。	にせんじゅうろくねんしがつついたちこーかい。	NO_LABEL
