シルフェイド幻想譚は、RPGツクール2000で作成された、フリーウェアのRPGである。	しるふぇいどげんそーたんわ、あーるぴーじーつくーるにせんでさくせいされた、ふりーうぇあのあーるぴーじーである。	NO_LABEL
作者はSmokingWOLF。	NO_PRONOUNCE	NO_LABEL
SmokingWOLFは主に「幻想譚」という略称を用いる。	NO_PRONOUNCE	NO_LABEL
英語タイトルは「Celestial Silfade Story」。	NO_PRONOUNCE	NO_LABEL
ゲームの大まかな内容は、15日の間に島に起こる災いを防ぐというもの。	げーむのおーまかなないよーわ、じゅうごにちのまにしまにおこるわざわいをふせぐとゆうもの。	NO_LABEL
その間の行動によって善人にも悪人にもなることができ、自由度が大変高い。	そのかんのこーどーによってぜんにんにもあくにんにもなることができ、じゆーどがたいへんたかい。	NO_LABEL
独自のシステムが数多く採用されているが、初心者から上級者まで遊べるように細やかな配慮がされている。	どくじのしすてむがかずおーくさいよーされているが、しょしんしゃからじょーきゅーしゃまであそべるよーにこまやかなはいりょがされている。	NO_LABEL
シナリオはシリアスかつシビアで、特に人の生死に関してかなり厳しい場面が多い。	しなりおわしりあすかつしびあで、とくにひとのせいしにかんしてかなりきびしいばめんがおーい。	NO_LABEL
本来なら向かってこない敵を惨殺することが出来たり、主人公以外の味方キャラは戦闘で全滅すると二度と生き返らなかったりするなど、主人公の行動如何で様々な登場人物の命運が決まる。	ほんらいならむかってこないてきをざんさつすることができたり、しゅじんこーいがいのみかたきゃらわせんとーでぜんめつするとにどといきかえらなかったりするなど、しゅじんこーのこーどーいかでさまざまなとーじょーじんぶつのめいうんがきまる。	NO_LABEL
本作品はテックウィン本誌でのコンテストパーク応募作品として公開され、後に作者のサイトで一般公開された。	ほんさくひんわてっくうぃんほんしでのこんてすとぱーくおーぼさくひんとしてこーかいされ、ごにさくしゃのさいとでいっぱんこーかいされた。	NO_LABEL
テックウィンにおいては、ストレスフリーな作りとシナリオ構成の2点が特に評価され、金賞を受賞したが、審査員の1人は「プラチナでも良かった」と後に語っている。	NO_PRONOUNCE	NO_LABEL
本作品は従来のシルフェイドシリーズファンだけではなく、RPGゲーマーをも引き込んだ。	ほんさくひんわじゅーらいのしるふぇいどしりーずふぁんだけでわなく、あーるぴーじーげーまーをもひきこんだ。	NO_LABEL
そこからシルフェイド見聞録に触れたというファンも少なくはなく、作者の出世作とも言える。	そこからしるふぇいどけんぶんろくにふれたとゆうふぁんもすくなくわなく、さくしゃのしゅっせさくともいえる。	NO_LABEL
開発当初は他のシルフェイドシリーズとの関連はあまりないドラゴンクエストIのオマージュ的な作品が予定されていた。	かいはつとーしょわたのしるふぇいどしりーずとのかんれんわあまりないどらごんくえすとのおまーじゅてきなさくひんがよていされていた。	NO_LABEL
当初のタイトルは「勇者RPG」。	NO_PRONOUNCE	NO_LABEL
開発が進行する中で「シルフェイド伝承録　碧空の獣達」と改められたが、最終的には「伝承録」が「見聞録」と被るという理由で「シルフェイド幻想譚」に決定した。	NO_PRONOUNCE	NO_LABEL
二次創作として、本作の登場人物のアルバートとアーサが主役のRPGツクール2000製ゲーム『白き首長竜の剣』が有志の手により製作された。	NO_PRONOUNCE	NO_LABEL
開発時に作者もテストプレイなどで協力しており、公式ファンサイトからダウンロードが可能。	かいはつじにさくしゃもてすとぷれいなどできょーりょくしており、こーしきふぁんさいとからだうんろーどがかのー。	NO_LABEL
意識の海を漂っていた主人公の魂は、ある日リクレールにより肉体を与えられる。	いしきのうみをただよっていたしゅじんこーのたましーわ、あるひりくれーるによりにくたいをあたえられる。	NO_LABEL
海に覆われた世界に浮かぶ天空島、主人公はそこに15日後訪れるという災いの阻止を、リクレールより頼まれる。	うみにおおわれたせかいにうかぶてんくーとー、しゅじんこーわそこにじゅうごにちごおとずれるとゆうわざわいのそしを、りくれーるよりたのまれる。	NO_LABEL
主人公は世界を救うため、リクレールより与えられたパートナー「トーテム」とともに天空島を巡る旅へと出る。	NO_PRONOUNCE	NO_LABEL
主人公がフィールドやダンジョンを歩くことによって時間が経過していき、これにより世界に何らかの変化が現れ、物語が進行していく。	しゅじんこーがふぃーるどやだんじょんをあるくことによってじかんがけいかしていき、これによりせかいになんらかのへんかがあらわれ、ものがたりがしんこーしていく。	NO_LABEL
時にはプレイヤーのあずかり知らぬ所で大きな事件が起こっている事もある。	ときにわぷれいやーのあずかりしらぬところでおーきなじけんがおこっていることもある。	NO_LABEL
最終的に15日が経過すると世界は滅びてしまい、ゲームはエンディングを迎える。	さいしゅーてきにじゅうごにちがけいかするとせかいわほろびてしまい、げーむわえんでぃんぐをむかえる。	NO_LABEL
その間何もせずに、ただ宿屋で寝て過ごす事さえ可能である。	そのかんなにもせずに、ただやどやでねてすごすことさえかのーである。	NO_LABEL
何かイベントが起きるか、未だ訪れた事のない場所に入るごとに、冒険日誌にその旨が書き込まれていき、主人公がこの世界でどのように過ごしたかをメニュー画面にて確認できるようになっている。	なにかいべんとがおきるか、いまだおとずれたことのないばしょにはいるごとに、ぼーけんにっしにそのむねがかきこまれていき、しゅじんこーがこのせかいでどのよーにすごしたかをめにゅーがめんにてかくにんできるよーになっている。	NO_LABEL
戦闘はターン制を採用している。	せんとーわたーんせいをさいよーしている。	NO_LABEL
敵キャラの一部及び主人公は1ターンに最大4回まで行動可能だが、味方キャラは最大3回まで。	NO_PRONOUNCE	NO_LABEL
戦闘はターン開始時に戦闘・総攻撃・逃走・相談の4つのコマンドが表示され、基本は戦闘を選択し、次に攻撃・集中・道具・最大5つのスキルやフォースのいずれかを行動回数の分だけ選択し、選択した順番に実行することで展開していく。	NO_PRONOUNCE	NO_LABEL
総攻撃は行動回数を全て攻撃で実行し、コマンド入力の手間を省く。	そーこーげきわこーどーかいすーをすべてこーげきでじっこーし、こまんどにゅーりょくのてまをはぶく。	NO_LABEL
相談では敵と自分の強さの差と逃走できる確率をアドバイスしてもらえる。	そーだんでわてきとじぶんのつよさのさととーそーできるかくりつをあどばいすしてもらえる。	NO_LABEL
リクレールにより肉体を与えられた人間。	りくれーるによりにくたいをあたえられたにんげん。	NO_LABEL
ゲーム開始時に性別、名前をプレイヤーが決定する。	げーむかいしじにせいべつ、なまえをぷれいやーがけっていする。	NO_LABEL
主人公と共に行動し、戦闘を助けてくれるキャラクター達。	しゅじんこーとともにこーどーし、せんとーをたすけてくれるきゃらくたーたち。	NO_LABEL
トーテム能力者が多い。	とーてむのーりょくしゃがおーい。	NO_LABEL
ただし、同種のフィールド移動能力を持たないキャラクターを仲間にした場合、その能力が無効化される。	ただし、どーしゅのふぃーるどいどーのーりょくをもたないきゃらくたーをなかまにしたばあい、そののーりょくがむこーかされる。	NO_LABEL
また、既に仲間を1人連れている状態で仲間にしようとすると、各々の理由で断られる。	また、すでになかまをひとりつれているじょーたいでなかまにしよーとすると、おのおののりゆーでことわられる。	NO_LABEL
戦闘にて全滅すると、その時仲間になっていたキャラクターは一部キャラクターを除き死亡してしまい、以後二度と登場する事は無くなってしまう。	せんとーにてぜんめつすると、そのときなかまになっていたきゃらくたーわいちぶきゃらくたーをのぞきしぼーしてしまい、いごにどととーじょーすることわなくなってしまう。	NO_LABEL
