ジロ・デ・イタリアとは毎年5月にイタリア全土を舞台にして行われる自転車プロロードレースである。	じろでいたりあとわまいとしごがつにいたりあぜんどをぶたいにしておこなわれるじてんしゃぷろろーどれーすである。	NO_LABEL
1909年から開催されている。	せんきゅうひゃくきゅうねんからかいさいされている。	NO_LABEL
主催はイタリアのスポーツ紙『ガゼッタ・デロ・スポルト』等を発行するメディアグループ・RCSの関連会社であるRCSスポルト社。	NO_PRONOUNCE	NO_LABEL
Giro d'Italia のイタリア語での発音は「ジーロ・ディターリア」である。	NO_PRONOUNCE	NO_LABEL
「ジロ・デ・イタリア」という表記は日本独特なものだが、最近は日本でもイタリア語が知られるようになったため、イタリア語の発音を基にした「ジーロ・ディターリア」や、「ジロ・ディ・イタリア」という表記も見られるようになってきた。	NO_PRONOUNCE	NO_LABEL
通称は「ジロ」。	NO_PRONOUNCE	NO_LABEL
毎年5月に約3週間かけて行われるステージレースで、コースは毎年新たに設定される。	まいとしごがつにやくさんしゅーかんかけておこなわれるすてーじれーすで、こーすわまいとしあらたにせっていされる。	NO_LABEL
「イタリアを一周する」という表現がされることもあるが各ステージは地理的には連続していないことも多く、サルデーニャ島やシチリア島など島でのステージもある。	NO_PRONOUNCE	NO_LABEL
ステージ数は通常21。	NO_PRONOUNCE	NO_LABEL
平坦ステージ、山岳ステージ、タイムトライアルステージと多彩なステージ設定がされている。	へいたんすてーじ、さんがくすてーじ、たいむとらいあるすてーじとたさいなすてーじせっていがされている。	NO_LABEL
総合成績1位の選手にはピンク色のジャージ「マリア・ローザ」が与えられるほかスプリント賞、山岳賞、新人賞といった各賞の対象者も特別なジャージを着用する。	NO_PRONOUNCE	NO_LABEL
賞金総額は年によって上下するが、2004年の場合で約133万ユーロ。	NO_PRONOUNCE	NO_LABEL
配分は各ステージ25位までの勝者に支払われる金額が合計47万4000ユーロ。	NO_PRONOUNCE	NO_LABEL
総合優勝者15万ユーロやインテルジロ賞13万ユーロなど各賞の合計が62万3000ユーロ。	NO_PRONOUNCE	NO_LABEL
チームへの賞金が合計23万3000ユーロとなっている。	NO_PRONOUNCE	NO_LABEL
ツール・ド・フランスに比べ勾配の厳しい坂を登る山岳ステージが多いため、上りを得意とするクライマーが活躍する機会が多い。	つーるどふらんすにくらべこーばいのきびしいさかをのぼるさんがくすてーじがおーいため、のぼりをとくいとするくらいまーがかつやくするきかいがおーい。	NO_LABEL
1990年のクラウディオ・キアプッチや1995年のトニー・ロミンゲル、1998年のマリアーノ・ピッコリ、2003年のジルベルト・シモーニ、2009年のダニーロ・ディルーカ、2010年のカデル・エヴァンスのように厳しい山岳コースが設定された年は山岳賞はおろかポイント賞すらクライマーやオールラウンダーが獲得してしまうこともあるが、これは2013年まではツール・ド・フランスとは異なり山岳ステージも平坦なステージも同じポイントが設定されていたためでもある。	NO_PRONOUNCE	NO_LABEL
また平坦ステージであってもゴール直前だけ上り坂であったり、ゴールまで1kmを切ったところに急カーブが登場するなど危険かつ癖のあるコースレイアウトがしばしば採用される。	またへいたんすてーじであってもごーるちょくぜんだけのぼりざかであったり、ごーるまでいちきろめーとるをきったところにきゅーかーぶがとーじょーするなどきけんかつくせのあるこーすれいあうとがしばしばさいよーされる。	NO_LABEL
また5月はドロミーティを始めとしたアルプス山脈及びアペニン山脈にはまだ雪の残っている場所もあり、選手は坂だけでなく厳しい寒さや悪天候とも戦うことになる。	またごがつわどろみーてぃをはじめとしたあるぷすさんみゃくおよびあぺにんさんみゃくにわまだゆきののこっているばしょもあり、せんしゅわさかだけでなくきびしいさむさやあくてんこーともたたかうことになる。	NO_LABEL
そのためイタリア人からは「ツール・ド・フランスが世界最大のレースなら、ジロ・デ・イタリアは世界最高のレース」と評される。	NO_PRONOUNCE	NO_LABEL
イタリア人選手の多くがこのレースをシーズン中の最大目標としており、歴代優勝者に占めるイタリア人の割合も圧倒的に多い。	いたりあじんせんしゅのおーくがこのれーすをしーずんちゅーのさいだいもくひょーとしており、れきだいゆーしょーしゃにしめるいたりあじんのわりあいもあっとーてきにおーい。	NO_LABEL
イタリア以外の選手が初めて優勝したのが1950年で、2017年現在31回しかない。	いたりあいがいのせんしゅがはじめてゆーしょーしたのがせんきゅうひゃくごじゅうねんで、にせんじゅうななねんげんざいさんじゅういっかいしかない。	NO_LABEL
近年は1997年以降、2007年までの総合優勝者はすべてイタリア人で、国際化が著しく優勝者の国籍も多様になる傾向があるロードレースの世界において、これは非常に珍しいケースである。	きんねんわせんきゅうひゃくきゅうじゅうなないこー、にせんななねんまでのそーごーゆうしょーしゃわすべていたりあじんで、こくさいかがいちじるしくゆーしょーしゃのこくせきもたよーになるけいこーがあるろーどれーすのせかいにおいて、これわひじょーにめずらしいけーすである。	NO_LABEL
第1回大会は1909年に行われミラノから出発し、合計走行距離は2,408kmだった。	NO_PRONOUNCE	NO_LABEL
8区間で争われ、優勝選手の平均走行時速27.26kmだった。	NO_PRONOUNCE	NO_LABEL
1915年から1918年までは第一次世界大戦により中断されている。	せんきゅうひゃくじゅうごねんからせんきゅうひゃくじゅうはちねんまでわだいいちじせかいたいせんによりちゅーだんされている。	NO_LABEL
1933年は17ステージ・合計3,343kmで行われ、この時はアルフレッド・ビンダが通算5回目となる優勝を飾っている。	NO_PRONOUNCE	NO_LABEL
1941年から1945年までは第二次世界大戦により再び中断。	せんきゅうひゃくよんじゅういちねからせんきゅうひゃくよんじゅうごねんまでわだいにじせかいたいせんによりふたたびちゅーだん。	NO_LABEL
1947年は19ステージ・合計3,843kmで行われ、この時はファウスト・コッピが2回目の優勝を果たした。	NO_PRONOUNCE	NO_LABEL
以後もコッピの活躍は続き、1953年には史上2人めの5回目の優勝を達成している。	いごもこっぴのかつやくわつずき、せんきゅうひゃくごじゅうさんねんにわしじょーふたりめのごかいめのゆーしょーをたっせいしている。	NO_LABEL
1970年代前半はエディ・メルクスの独擅場となり、1972年から1974年には3連覇を達成。	せんきゅうひゃくななじゅうねんだいぜんはんわえでぃめるくすのどくせんじょーとなり、せんきゅうひゃくななじゅうにねんからせんきゅうひゃくななじゅうよねんにわさんれんぱをたっせい。	NO_LABEL
1974年は史上3人目となる5回目の優勝に加えてツール・ド・フランスと世界自転車選手権プロロードレースも制覇しており、史上初のトリプルクラウン達成を遂げた。	せんきゅうひゃくななじゅうよねんわしじょーさんにんめとなるごかいめのゆーしょーにくわえてつーるどふらんすとせかいじてんしゃせんしゅけんぷろろーどれーすもせいはしており、しじょーはつのとりぷるくらうんたっせいをとげた。	NO_LABEL
1980年代前半はベルナール・イノーが3回の優勝を遂げている。	せんきゅうひゃくはちじゅうねんだいぜんはんわべるなーるいのーがさんかいのゆーしょーをとげている。	NO_LABEL
また1987年の優勝者ステファン・ロッシュは史上2人目のトリプルクラウン達成者となった。	NO_PRONOUNCE	NO_LABEL
1990年代に活躍した選手としてはミゲル・インドゥラインとマルコ・パンターニがあげられインドゥラインは1992年と1993年、パンターニは1998年にツール・ド・フランスでも優勝してダブルツールを達成している。	せんきゅうひゃくきゅうじゅうねんだいにかつやくしたせんしゅとしてわみげるいんどぅらいんとまるこぱんたーにがあげられいんどぅらいんわせんきゅうひゃくきゅうじゅうにねんとせんきゅうひゃくきゅうじゅうさんねん、ぱんたーにわせんきゅうひゃくきゅうじゅうはちねんにつーるどふらんすでもゆーしょーしてだぶるつーるをたっせいしている。	NO_LABEL
2004年は合計走行距離3,423.9km、20区間で行われ参加選手169名のうち140名が完走した。	NO_PRONOUNCE	NO_LABEL
総合優勝は22歳の新人ダミアーノ・クネゴ。	そーごーゆうしょーわにじゅうにさいのしんじんだみあーのくねご。	NO_LABEL
ジルベルト・シモーニのアシストとして働く予定だった彼がステージ4勝をあげて総合優勝するとは誰も予想しておらず、大きなニュースとなった。	じるべるとしもーにのあしすととしてはたらくよていだったかれがすてーじふぉーかちをあげてそーごーゆうしょーするとわだれもよそーしておらず、おーきなにゅーすとなった。	NO_LABEL
2005年はパオロ・サヴォルデッリとシモーニの争いとなり、終盤シモーニが猛追するも結局サヴォルデッリが2002年以来2度目の優勝を飾った。	NO_PRONOUNCE	NO_LABEL
2006年はイヴァン・バッソが他を寄せ付けない強さで、2007年はダニーロ・ディルーカが堅実なレース運びで総合優勝を遂げている。	NO_PRONOUNCE	NO_LABEL
2008年は前年度のツール・ド・フランスを制したアルベルト・コンタドールがイタリア人以外では12年ぶりの総合優勝者となった。	にせんはちねんわぜんねんどのつーるどふらんすをせいしたあるべるとこんたどーるがいたりあじんいがいでわじゅうにねんぶりのそーごーゆうしょーしゃとなった。	NO_LABEL
2009年はデニス・メンショフがディルーカとの熾烈な争いを制して優勝した。	にせんきゅうねんわでにすめんしょふがでぃるーかとのしれつなあらそいをせいしてゆーしょーした。	NO_LABEL
2010年は相次ぐ大波乱の展開の末、バッソが2回目の総合優勝を飾った。	にせんじゅうねんわあいつぐだいはらんのてんかいのすえ、ばっそがにかいめのそーごーゆうしょーをかざった。	NO_LABEL
2011年は第3ステージでワウテル・ウェイラントが落車により死亡する事故が発生し、第4ステージがノーコンテストステージとなる波乱があった。	にせんじゅういちねんわだいさんすてーじでわうてるうぇいらんとがらくしゃによりしぼーするじこがはっせいし、だいよんすてーじがのーこんてすとすてーじとなるはらんがあった。	NO_LABEL
総合優勝は当初アルベルト・コンタドールが獲得したが、後にスポーツ仲裁裁判所により2010年のツール・ド・フランスでのクレンブテロール陽性を認定されて2年間の出場停止処分が下され、2011年の大会は出場停止期間中に該当するため成績無効となり、ミケーレ・スカルポーニが繰り上がって総合優勝者に認定された。	そーごーゆうしょーわとーしょあるべるとこんたどーるがかくとくしたが、ごにすぽーつちゅーさいさいばんしょによりにせんじゅうねんのつーるどふらんすでのくれんぶてろーるよーせいをにんていされてにねんかんのしゅつじょーていししょぶんがくだされ、にせんじゅういちねんのたいかいわしゅつじょーていしきかんちゅーにがいとーするためせいせきむこーとなり、みけーれすかるぽーにがくりあがってそーごーゆうしょーしゃににんていされた。	NO_LABEL
2012年は最終日の個人タイムトライアルでの逆転という劇的な形でライダー・ヘシェダルがカナダ人初となるグランツール優勝を成し遂げた。	にせんじゅうにねんわさいしゅーびのこじんたいむとらいあるでのぎゃくてんとゆうげきてきなかたちでらいだーへしぇだるがかなだじんはつとなるぐらんつーるゆーしょーをなしとげた。	NO_LABEL
2013年はヴィンチェンツォ・ニバリが圧勝を収め、2014年はナイロ・キンタナが同胞のリゴベルト・ウランとの激戦を制しコロンビア人選手として初のジロ総合優勝を飾る。	NO_PRONOUNCE	NO_LABEL
2015年は区間優勝がないながらも堅実なレース運びでアルベルト・コンタドールが2度目の総合優勝を果たす。	にせんじゅうごねんわくかんゆーしょーがないながらもけんじつなれーすはこびであるべるとこんたどーるがにどめのそーごーゆうしょーをはたす。	NO_LABEL
2016年はステーフェン・クラウスヴァイクの肋骨骨折による失速で混沌とした総合争いをヴィンチェンツォ・ニバリが制した。	NO_PRONOUNCE	NO_LABEL
2017年は2012年と同様、最終日の個人TTでの再逆転でトム・デュムランがオランダ人初のジロ総合優勝を果たした。	にせんじゅうななねんわにせんじゅうにねんとどーよー、さいしゅーびのこじんてぃーてぃーでのさいぎゃくてんでとむでゅむらんがおらんだじんはつのじろそーごーゆうしょーをはたした。	NO_LABEL
2018年はイスラエルのエルサレムからスタート。	にせんじゅうはちねんわいすらえるのえるされむからすたーと。	NO_LABEL
ヨーロッパ外からのスタートは初となる。	よーろっぱがいからのすたーとわはつとなる。	NO_LABEL
数種の賞が設定されており、リーダージャージと呼ばれる各賞に応じた色別のジャージがある。	すーしゅのしょーがせっていされており、りーだーじゃーじとよばれるかくしょーにおーじたいろべつのじゃーじがある。	NO_LABEL
前日のステージ終了時点で各賞の成績第1位の選手がそのジャージを着用する権利を手にいれる。	ぜんじつのすてーじしゅーりょーじてんでかくしょーのせいせきだいいちーのせんしゅがそのじゃーじをちゃくよーするけんりをてにいれる。	NO_LABEL
ピンク色のジャージ「マリア・ローザ」は総合成績1位の選手に与えられる。	NO_PRONOUNCE	NO_LABEL
各ステージの所要時間を加算し、合計所要時間が最も少ない選手が「マリア・ローザ」着用の権利を得る。	NO_PRONOUNCE	NO_LABEL
最終ステージの終了時点で「マリア・ローザ」着用の権利をもっている選手がジロの総合優勝者となる。	NO_PRONOUNCE	NO_LABEL
色の由来はレース主催者のガゼッタ・デッロ・スポルトの紙面がピンクであるため。	いろのゆらいわれーすしゅさいしゃのがぜったでっろすぽるとのしめんがぴんくであるため。	NO_LABEL
紫色のジャージ「マリア・チクラミーノ」は「ポイント賞」に対して与えられる。	NO_PRONOUNCE	NO_LABEL
各ステージのゴール、およびステージ途中の中間スプリント地点の通過順位に応じてスプリントポイントが加算されスプリントポイント1位の選手が「マリア・チクラミーノ」着用の権利を得る。	NO_PRONOUNCE	NO_LABEL
以前はツール・ド・フランスと異なり平地ステージも山岳ステージもゴール地点で与えられるポイントは同じであった上に前述の通りスプリンターが活躍しづらいコース設定がされることも多く、山岳ステージを上位でゴールする総合成績上位のクライマーやオールラウンダーがこのジャージを獲得してしまうことも珍しくない。	いぜんわつーるどふらんすとことなりひらちすてーじもさんがくすてーじもごーるちてんであたえられるぽいんとわおなじであったうえにぜんじゅつのとーりすぷりんたーがかつやくしずらいこーすせっていがされることもおーく、さんがくすてーじをじょーいでごーるするそーごーせいせきじょーいのくらいまーやおーるらうんだーがこのじゃーじをかくとくしてしまうこともめずらしくない。	NO_LABEL
ただし2014年以降はツール・ド・フランスと同様、平地ステージで高ポイントを与える加点設定が行われている。	ただしにせんじゅうよねんいこーわつーるどふらんすとどーよー、ひらちすてーじでこーぽいんとをあたえるかてんせっていがおこなわれている。	NO_LABEL
1966年に初登場。	せんきゅうひゃくろくじゅうろくねんにはつとーじょー。	NO_LABEL
2010年からは「マリア・ロッソ」と呼ばれる赤色のジャージが使われ、非公式に「情熱の赤」を意味する「マリア・ロッソ・パッショーネ」とも呼ばれていた。	NO_PRONOUNCE	NO_LABEL
2017年よりスポンサーがセガフレード・ザネッティに変わり、元のマリア・チクラミーノに戻った。	NO_PRONOUNCE	NO_LABEL
青色のジャージ「マリア・アッズーラ」は「山岳賞」に対して与えられる。	NO_PRONOUNCE	NO_LABEL
登り坂の勾配と長さに応じて点数が設定された山岳ポイント地点の通過順位に応じて山岳ポイントが加算され、山岳ポイント1位の選手が「マリア・アッズーラ」着用の権利を得る。	NO_PRONOUNCE	NO_LABEL
1933年から2011年までの山岳賞は緑色のジャージ「マリア・ヴェルデ」であったが、2012年から「マリア・アッズーラ」となった。	NO_PRONOUNCE	NO_LABEL
かつて1989年から2005年までは「マリア・アッズーラ」は「インテル・ジロ賞」(後述）のジャージとして用いられていた。	NO_PRONOUNCE	NO_LABEL
2015年のジャージスポンサーは「メディオラヌム銀行」。	NO_PRONOUNCE	NO_LABEL
白のジャージ「マリア・ビアンカ」は「新人賞」に対して与えられる。	NO_PRONOUNCE	NO_LABEL
開催年中に25歳以下になる選手が対象となり各ステージの所要時間を加算し、合計所要時間が最も少なかった選手が「マリア・ビアンカ」着用の権利を得る。	NO_PRONOUNCE	NO_LABEL
2015年のジャージスポンサーはスーパーマーケットの「ユーロスピン」。	NO_PRONOUNCE	NO_LABEL
1976年に初登場。	せんきゅうひゃくななじゅうろくねんにはつとーじょー。	NO_LABEL
1994年以来消滅していたが、2007年に復活した。	せんきゅうひゃくきゅうじゅうよねんいらいしょーめつしていたが、にせんななねんにふっかつした。	NO_LABEL
黒のジャージ「マリア・ネラ」はかつて総合成績最下位の選手に与えられた。	NO_PRONOUNCE	NO_LABEL
1946年に初登場し悪趣味、屈辱的などの理由で1952年には廃止されたが1993年にはレース中盤でダリオ・マリウッツォがジョークで着用して登場、2008年にジャージではなく黒いゼッケン「ヌーメロ・ネロ」という形で復活した。	NO_PRONOUNCE	NO_LABEL
同様のものに、ツール・ド・フランスにおける「ランタンルージュ」がある。	NO_PRONOUNCE	NO_LABEL
ちなみに1951年にマリア・ネラを獲得したジョヴァンニ・ピナレッロの興したバイクメーカーピナレロから、同名の黒いジャージが発売されている。	NO_PRONOUNCE	NO_LABEL
特別なジャージはないが、コース中間に設定された地点の通過順位によるポイントを加算し、合計所要ポイントの最も多い選手には「個人総合中間スプリント賞」が与えられる。	NO_PRONOUNCE	NO_LABEL
長距離をこなした後のスプリントや山岳コースでは勝ち目の無いトラックレース出身のスプリンターが狙ってくることが多い。	ちょーきょりをこなしたのちのすぷりんとやさんがくこーすでわかちめのないとらっくれーすしゅっしんのすぷりんたーがねらってくることがおーい。	NO_LABEL
他にも総合成績・山岳・スプリントなどすべての賞で上位にいる選手に与えられる「敢闘賞」、ファウスト・コッピの名を冠した賞でその年の最大標高の山岳を1位で通過した選手に与えられる「チマ・コッピ賞」などその年ごとにさまざまな賞が設定される。	NO_PRONOUNCE	NO_LABEL
また獲得ポイントの総合トップのチームに与えられる「スーパーチーム賞」、進路妨害や危険行為、ドーピングなどの不正行為がもっとも少ないチームに与えられる「フェアプレー賞」などチームを対象にした賞も設定される。	NO_PRONOUNCE	NO_LABEL
ちなみに中間スプリント賞と同様なものとしてかつては「インテルジロ賞」が存在し、こちらは順位によるポイントではなくその地点の通過時間の合計で争われていた。	NO_PRONOUNCE	NO_LABEL
レース前半の展開を活性化させるために1989年から設けられ、序盤からの逃げを得意とするスピードマンなどが狙ってくることが多かった。	れーすぜんはんのてんかいをかっせいかさせるためにせんきゅうひゃくはちじゅうきゅうねんからもーけられ、じょばんからのにげをとくいとするすぴーどまんなどがねらってくることがおーかった。	NO_LABEL
トップの選手は「マリア・アッズーラ」と呼ばれる青いジャージを着用していたが、2005年を最後に廃止された。	NO_PRONOUNCE	NO_LABEL
スプリント賞としての格はマリア・チクラミーノより上で、両方でトップに立った選手はマリア・アッズーラの着用を優先されていた。	NO_PRONOUNCE	NO_LABEL
2006年は複合賞に「マリア・ブル」という青いジャージが与えられたが、この年のみで姿を消している。	NO_PRONOUNCE	NO_LABEL
