オーガスタス・ド・モルガンは、インド生まれのイギリスの数学者。	おーがすたすどもるがんわ、いんどうまれのいぎりすのすーがくしゃ。	NO_LABEL
 ド・モルガンの法則を発案した。	どもるがんのほーそくをはつあんした。	NO_LABEL
父親がイギリス東インド会社で働いていたため、インドのマドゥライで生まれるが、生後1年もたたないうちにイングランドに戻る。	ちちおやがいぎりすひがしいんどがいしゃではたらいていたため、いんどのまどぅらいでうまれるが、せいごいちねんもたたないうちにいんぐらんどにもどる。	NO_LABEL
16歳でケンブリッジ大学のトリニティ・カレッジに入学、ウィリアム・ヒューウェルやジョージ・ピーコックの元で学ぶ。	NO_PRONOUNCE	NO_LABEL
1828年からユニヴァーシティ・カレッジの教授を務めた。	NO_PRONOUNCE	NO_LABEL
