篠山 紀信は、東京市淀橋区柏木出身の写真家。	しのやまきしんわ、とーきょーしよどばしくかしわぎしゅっしんのしゃしんか。	NO_LABEL
東京都新宿区にある真言宗豊山派円照寺の住職篠山明信の次男。	とーきょーとしんじゅくくにあるしんごんしゅーぶざんはえんしょーじのじゅーしょくしのやまあきのぶのじなん。	NO_LABEL
新宿区立淀橋第四小学校を経て、私立芝中学校・高等学校に入学。	しんじゅくくりつよどばしだいよんしょうがっこーをへて、しりつしばちゅうがくこーとーがっこーににゅーがく。	NO_LABEL
高校時代までそこで過ごす。	こーこーじだいまでそこですごす。	NO_LABEL
特に写真が好きではなかったが、一般大学受験に失敗したため、衝動的に日本大学藝術学部写真学科に出願し入学。	とくにしゃしんがすきでわなかったが、いっぱんだいがくじゅけんにしっぱいしたため、しょーどーてきににほんだいがくげいじゅつがくぶしゃしんがっかにしゅつがんしにゅーがく。	NO_LABEL
日大での同期に写真家沢渡朔がいる。	にちだいでのどーきにしゃしんかさわたりはじめがいる。	NO_LABEL
写真学科に入った以上は写真家になろうと決心し、日大と併行して東京綜合写真専門学校にも通学。	しゃしんがっかにはいったいじょーわしゃしんかになろうとけっしんし、にちだいとへいこーしてとーきょーそーごーしゃしんせんもにもつーがく。	NO_LABEL
在学中より新進写真家として頭角を現す。	ざいがくちゅーよりしんしんしゃしんかとしてとーかくおあらわす。	NO_LABEL
東京綜合写真専門学校を2年で卒業した後、日大在学中の1961年にライトパブリシティに就職、この面接にあたりハッタリをかますため当時非常に高価だったハッセルブラッド500Cとリンホフを両肩に提げて持参したという逸話がある。	NO_PRONOUNCE	NO_LABEL
APA賞等数々の賞を受賞し華々しいデビューを飾る。	NO_PRONOUNCE	NO_LABEL
初期の作品には『Death Valley』『Twins』『Nude』など傑作が多い。	NO_PRONOUNCE	NO_LABEL
ジョン・レノンの生前のラストアルバム『ダブル・ファンタジー』のジャケット撮影は篠山の作品である。	NO_PRONOUNCE	NO_LABEL
その作品数の多さ、ジャンルの多様さはヌードから歌舞伎まで他の写真家を遥かに凌ぐ。	そのさくひんすーのおーさ、じゃんるのたよーさわぬーどからかぶきまでたのしゃしんかをはるかにしのぐ。	NO_LABEL
1973年、デビューからのキャロルを激写し、キャロル売り出しに貢献。	せんきゅうひゃくななじゅうさんねん、でびゅーからのきゃろるをげきしゃし、きゃろるうりだしにこーけん。	NO_LABEL
同年『女形・玉三郎展』で芸術選奨新人賞受賞。	NO_PRONOUNCE	NO_LABEL
1975年に雑誌『GORO』で歌手の山口百恵特集で使い始めた「激写」は流行語になり、その後の松田聖子ら芸能人や素人をモデルにした一連の激写シリーズで知られるようになる。	NO_PRONOUNCE	NO_LABEL
この年発売された大判写真集『家』と『晴れた日』は初期の代表作である。	NO_PRONOUNCE	NO_LABEL
『家』では、北海道から沖縄まで、日本列島約80カ所にのぼる「日本の家」の様々な様相が記録され、北海道、岩手県遠野の古民家をはじめとし、赤坂の迎賓館、台東区上野の古銭湯、横尾忠則がかつて住んでいた家、高輪の郷ひろみ邸、新宿のアパート、北九州の筑豊炭鉱、 沖縄県竹富島、長崎県軍艦島の廃墟や、廃墟となった家などが収められた。	NO_PRONOUNCE	NO_LABEL
また、生家や4歳の時に1年弱疎開した埼玉の秩父にも30年余ぶりに母と連れ立って出掛け、幼少期の記憶の撮影が行われた。	また、せいかやよんさいのときにいちねんじゃくそかいしたさいたまのちちぶにもさんじゅうねんよぶりにははとつれだってでかけ、よーしょーきのきおくのさつえいがおこなわれた。	NO_LABEL
これは、篠山にとって「写真」というメディアを再確認する行為であったようで、懐かしさや個人的思い入れはあったとしても、それらは「写真」にあらわされるものではないし、その思いも見る者に伝わることはない。	NO_PRONOUNCE	NO_LABEL
「私的」なことを表現したければ、「文学」でやればいいのだと篠山は語っている。	NO_PRONOUNCE	NO_LABEL
翌1976年には、評論家多木浩二によってあらわされたテキスト『生きられた家』が単行本として刊行された。	NO_PRONOUNCE	NO_LABEL
1978年に写真集『大激写 135人の女ともだち』がベストセラーになったことを契機として、1980年には篠山をメインにした写真雑誌『写楽』が創刊された。	NO_PRONOUNCE	NO_LABEL
赤塚不二夫の『天才バカボン』では篠山をモデルにしたカメラ小僧「篠山紀信君」として登場し、つむじ風を巻き起こしながらどこにでも現れて、決定的瞬間を撮る人物とされている。	NO_PRONOUNCE	NO_LABEL
また『魔法の妖精ペルシャ』では篠川紀信という常にカメラを持ち歩くキャラクターがいる。	NO_PRONOUNCE	NO_LABEL
1978年から1997年にかけては『週刊朝日』の表紙写真を撮影。	NO_PRONOUNCE	NO_LABEL
1980年に始まった『週刊朝日』表紙の女子大生シリーズからは、何人もの女優や女子アナウンサーを輩出している。	NO_PRONOUNCE	NO_LABEL
その他にも『週刊現代』の表紙写真や、月刊テレビ情報誌『B.L.T.』の表紙、及び巻頭グラビアを毎号担当。	NO_PRONOUNCE	NO_LABEL
『B.L.T.』では被写体のヌードはないが、寝そべって、胸の谷間を見せるポーズなど他の雑誌よりは露出度が高いグラビアを撮影している。	NO_PRONOUNCE	NO_LABEL
デジタルカメラを用いて撮影した場合は、「シノヤマキシン」「しのやまきしん」「digi_KISHIN」と言う別名義を使用する時もある。	NO_PRONOUNCE	NO_LABEL
時代の節目で、いつの時代も最良の時間と場所でカメラを構えている。	じだいのふしめで、いつのじだいもさいりょーのじかんとばしょでかめらをかまえている。	NO_LABEL
女性を被写体とした多数のヌード写真を撮影している。	じょせいをひしゃたいとしたたすーのぬーどしゃしんをさつえいしている。	NO_LABEL
1969年にカメラマンの沢渡朔、林宏樹らと全日本恥毛露出連盟ことゼンチロレンを結成して会長に就任。	せんきゅうひゃくろくじゅうきゅうねんにかめらまんのさわたりはじめ、はやしひろきらとぜんにほんはじけろしゅつれんめいことぜんちろれんをけっせいしてかいちょーにしゅーにん。	NO_LABEL
1991年には女優の樋口可南子をモデルにした写真集「Water Fruit 不測の事態」で事実上、陰毛を解禁させ、続けて同年に出版した当時トップアイドルだった宮沢りえのヌード写真集「Santa Fe」は新聞に出した全面広告が評判を呼び、ヘアヌードブームを巻き起こした。	NO_PRONOUNCE	NO_LABEL
「Santa Fe」はその年のベストセラー7位、「Water Fruit 不測の事態」は10位の記録を残している。	NO_PRONOUNCE	NO_LABEL
撮影したヌード写真については、女性の事務所サイドから写真の使用を止められた場合ネガを持ち帰り、自宅で保管する。	さつえいしたぬーどしゃしんについてわ、じょせいのじむしょさいどからしゃしんのしよーをとめられたばあいねがをもちかえり、じたくでほかんする。	NO_LABEL
後にその女性が、芸能界でいわゆる、「落ち目」になったときに、秘蔵ヌードが見つかったことにして『今のヌード』と『昔のネガ』を持ち出し、その二つを一冊の写真集にして発売することがある。	NO_PRONOUNCE	NO_LABEL
篠山の企画はたいていの場合、スマートであるとともに、ヒットし、絶大な人気を誇るため自体が世の中に受けているという面は否定できない）、同業者や熱心な写真愛好家の中には反感を抱く者もいるようである。	NO_PRONOUNCE	NO_LABEL
傍目には話題性のみを追求しているともとれるその作品制作の姿勢は、写真評論家や写真批評家による評価を気にしないようでもあり、そのことから、日本写真史における篠山の位置づけは固定していないようである。	はためにわわだいせいのみをついきゅーしているともとれるそのさくひんせいさくのしせいわ、しゃしんひょーろんかやしゃしんひひょーかによるひょーかをきにしないよーでもあり、そのことから、にほんしゃしんしにおけるしのやまのいちずけわこていしていないよーである。	NO_LABEL
常に「今」を感じ、時代とともに表現が変わり続けるという自己のスタイルに対する軽妙さの写真家である。	NO_PRONOUNCE	NO_LABEL
定義づけが困難なのは、写真における大衆性がしばしば批判的に捉えられる日本の慣習によるものである。	ていぎずけがこんなんなのわ、しゃしんにおけるたいしゅーせいがしばしばひはんてきにとらえられるにっぽんのかんしゅーによるものである。	NO_LABEL
商業的なイメージのある反面、自身が落語家であるということから6代目三遊亭圓生を長年撮り続けた。	しょーぎょーてきないめーじのあるはんめん、じしんがらくごかであるとゆうことからろくだいめさんゆうていえんしょーをながねんとりつずけた。	NO_LABEL
また歌舞伎にも手を広げ、5代目坂東玉三郎を30年以上撮り続け、文化的側面で非常に貴重な写真も数多く残している。	またかぶきにもてをひろげ、ごだいめばんどーたまさぶろーをさんじゅうねんいじょーとりつずけ、ぶんかてきそくめんでひじょーにきちょーなしゃしんもかずおーくのこしている。	NO_LABEL
近年は彼のみならず、17代目中村勘三郎や歌舞伎界の花形を撮り続けている。	きんねんわかれのみならず、じゅうななだいめなかむらかんざぶろーやかぶきかいのはながたをとりつずけている。	NO_LABEL
なお、自決直前の三島由紀夫を被写体とした写真集は、当初公表される予定であったが、1970年の三島の自決事件の影響に加え、同じく被写体となっていた横尾忠則の反対により、未だ正式な刊行には至っていない。	なお、じけつちょくぜんのみしまゆきおをひしゃたいとしたしゃしんしゅーわ、とーしょこーひょーされるよていであったが、せんきゅうひゃくななじゅうねんのみしまのじけつじけんのえいきょーにくわえ、どうじくひしゃたいとなっていたよこーただのりのはんたいにより、いまだせいしきなかんこーにわいたっていない。	NO_LABEL
また、日芸在学中に知り合った、アート・ディレクターの鶴本正三とは多くの仕事をともにし、1972年の写真集「オレレ・オララ」、1975年から「GORO」ではじまった「激写」、1977年の写真集「カメラ小僧の世界旅行」等のアート・ディレクションは鶴本が担当している。	NO_PRONOUNCE	NO_LABEL
私生活では、モデルと離婚後、アイドル歌手の南沙織と再婚。	しせいかつでわ、もでるとりこんご、あいどるかしゅのみなみさおりとさいこん。	NO_LABEL
俳優の篠山輝信は次男。	はいゆーのしのやまあきのぶわじなん。	NO_LABEL
篠山紀信は1995年からその年のアサヒカメラ１月号の表紙、及び、巻頭グラビアの撮影を担当している。	しのやまきしんわせんきゅうひゃくきゅうじゅうごねんからそのとしのあさひかめらいちがつごーのひょーし、および、かんとーぐらびあのさつえいをたんとーしている。	NO_LABEL
モデル名については該当雑誌内に表記が通り記述。	もでるめいについてわがいとーざっしないにひょーきがとーりきじゅつ。	NO_LABEL
巻頭グラビア・目次・撮影ノートにもモデル名の掲載が無き場合、“記載なし”とした。	NO_PRONOUNCE	NO_LABEL
但し例外的ではあるが1997年はモデル名の記載がなかったが、本文に“アトランタ五輪・ＴＯＴＯ国際スーパー陸上”とあり、モデルを特定する重要な情報としてこれを記載した。	NO_PRONOUNCE	NO_LABEL
又、2018年は“＜人形協力＞4woods、早乙女トトロ、七彩”とあり、人間モデルではないが人形を特定する重要な情報としてこれを記載した。	NO_PRONOUNCE	NO_LABEL
4woodsはラブドール製造メーカー、早乙女トトロはラブドールレンタル店エロエロ天使店主、七彩はマネキン人形製造メーカーである。	NO_PRONOUNCE	NO_LABEL
