土屋浩美は日本の女性シンガーソングライター。	つちやひろみわにっぽんのじょせいしんがーそんぐらいたー。	NO_LABEL
福岡県福岡市出身。	ふくおかけんふくおかししゅっしん。	NO_LABEL
血液型B型の蠍座。	けつえきがたびーがたのさそりざ。	NO_LABEL
3歳からクラシックピアノを始め8歳から作曲を始め絶対音感を持つ。	さんさいからくらしっくぴあのをはじめはっさいからさっきょくをはじめぜったいおんかんをもつ。	NO_LABEL
中学時代はドラムとパーカッションを主に学ぶ。	ちゅーがくじだいわどらむとぱーかっしょんをおもにまなぶ。	NO_LABEL
2000年にキーボーディスト、アレンジャーの安部潤と二人のHIROMIK LADDERでパイオニアLDCからメジャーデビュー。	NO_PRONOUNCE	NO_LABEL
ユニット解散後ソロ活動開始。	ゆにっとかいさんごそろかつどーかいし。	NO_LABEL
2002年にSLYMONGOOSEのアルバム『SLY MONGOOSE』に収録されて話題をよんだカリプソ・チューン”Make Your Mind Up,Little Girl”にヴォーカルで参加。	NO_PRONOUNCE	NO_LABEL
2003年LOCARNO RECORDSよりsingle CD 『SOMEDAY』をリリース。	NO_PRONOUNCE	NO_LABEL
同曲がクボタタケシのMIX CD『NEO CLASSICS』へ収録される。	NO_PRONOUNCE	NO_LABEL
2004年新木場での野外フェス『RAW LIFE』に参加。	NO_PRONOUNCE	NO_LABEL
その他数多くの作品への参加や、NHK音楽番組出演、ラジオDJ等様々な活動を続けるがその後活動休止。	そのたすーおーくのさくひんえのさんかや、えぬえいちけいおんがくばんぐみしゅつえん、らじおでぃーじぇいとーさまざまなかつどーをつずけるがそのごかつどーきゅーし。	NO_LABEL
2010年DJはせはじむに誘われ音楽活動再開。	にせんじゅうねんでぃーじぇいわせはじむにさそわれおんがくかつどーさいかい。	NO_LABEL
