『恐喝有限会社』は、藤子不二雄Ⓐによるブラックユーモア短篇漫画の一つ。	NO_PRONOUNCE	NO_LABEL
初出は『ビッグコミック』1971年11月10日号。	NO_PRONOUNCE	NO_LABEL
中年会社員の山下は会社ではクソマジメなカタブツ課長で通っており、私生活では上品な妻や可愛い娘に尊敬され、絵に描いたような幸せな家庭を営んでいる。	ちゅーねんかいしゃいんのやましたわかいしゃでわくそまじめなかたぶつかちょーでかよっており、しせいかつでわじょーひんなつまやかわいいむすめにそんけいされ、えにえがいたよーなしあわせなかていをいとなんでいる。	NO_LABEL
そんな山下のもとへ、或る日見知らぬ男から電話がかかってくる。	そんなやましたのもとえ、あるるひみしらぬおとこからでんわがかかってくる。	NO_LABEL
山下は先週の土曜の夜、新宿のトルコ風呂で買春していたところをその男に目撃・盗撮されていたのだ。	NO_PRONOUNCE	NO_LABEL
男に呼び出された山下は口止め料として10万円の請求書を突きつけられるが…	NO_PRONOUNCE	NO_LABEL
1990年8月7日にギミア・ぶれいく内で「ユスリ有限会社・満福鶴丸の内職」としてドラマ化された。	NO_PRONOUNCE	NO_LABEL
登場人物名やストーリーはドラマオリジナルのものとなっている。	とーじょーじんぶつめいやすとーりーわどらまおりじなるのものとなっている。	NO_LABEL
