スイーツ男子とは甘い食べ物を好む男性の形態を意味する言葉。	すいーつだんしとわあまいたべものをこのむだんせいのけいたいをいみすることば。	NO_LABEL
スイーツ男子のみが集まった会合となればケーキを食べるというような会合となる場合もあるとのこと。	すいーつだんしのみがあつまったかいごーとなればけーきをたべるとゆうよーなかいごーとなるばあいもあるとのこと。	NO_LABEL
このような男性が増えるようになった背景にはコンビニエンスストアというような商品を気軽に買うことのできる店舗の存在がある。	このよーなだんせいがふえるよーになったはいけいにわこんびにえんすすとあとゆうよーなしょーひんをきがるにかうことのできるてんぽのそんざいがある。	NO_LABEL
従来ならばスイーツなどといった食べ物は男性が買うこととなれば気恥ずかしいなどと思われるという理由から買われていなかったということが多かったものの、コンビニエンスストアを利用するとなれば気兼ねなく買うことができるようになったというわけである。	じゅーらいならばすいーつなどといったたべものわだんせいがかうこととなればきはずかしーなどとおもわれるとゆうりゆーからかわれていなかったとゆうことがおーかったものの、こんびにえんすすとあをりよーするとなればきがねなくかうことができるよーになったとゆうわけである。	NO_LABEL
コンビニエンスストア側にとっては、店舗にスイーツを陳列するというのは女性客の増加を狙った上で実施していたのだが、実際にコンビニエンスストアでスイーツを購入していた客は男性が多かったとのこと。	こんびにえんすすとあがわにとってわ、てんぽにすいーつをちんれつするとゆうのわじょせいきゃくのぞーかをねらったうえでじっししていたのだが、じっさいにこんびにえんすすとあですいーつをこーにゅーしていたきゃくわだんせいがおーかったとのこと。	NO_LABEL
これにあいまってコンビニエンスストアでは男性客をターゲットとしたオリジナルスイーツを販売するまでになっている。	これにあいまってこんびにえんすすとあでわだんせいきゃくをたーげっととしたおりじなるすいーつをはんばいするまでになっている。	NO_LABEL
