青葉 市子は、日本の女性音楽家・シンガーソングライター。	NO_PRONOUNCE	NO_LABEL
京都府出身。	きょーとふしゅっしん。	NO_LABEL
SPEEDSTAR RECORDS所属。	すぴーどすたーれこーずしょぞく。	NO_LABEL
中学時代は吹奏楽部でクラリネットを担当、高校では軽音楽部に所属し、そこではキーボード、ギター、ドラム、ベースと、曲ごとに空いている楽器をいろいろやったが、すべて自己流でコードは今でもわからない。	ちゅーがくじだいわすいそーがくぶでくらりねっとをたんとー、こーこーでわけいおんがくぶにしょぞくし、そこでわきーぼーど、ぎたー、どらむ、べーすと、くせごとにあいているがっきをいろいろやったが、すべてじこりゅーでこーどわいまでもわからない。	NO_LABEL
バンドでは、東京事変やアジアン・カンフー・ジェネレーションなどを耳で聴いてコピーしていたが、エレキ・ギターは性には合わなかった。	NO_PRONOUNCE	NO_LABEL
ある日、自宅に転がっていたガット・ギターを爪弾いてみたらたちまちとりこになり、17歳からクラシックギターを始める。	NO_PRONOUNCE	NO_LABEL
一応教則本は買ったものの結局ほとんど使わず、基本的な指使いもすべて自己流で、遊んでいたら現在のような演奏スタイルになった。	いちおーきょーそくほんわかったもののけっきょくほとんどつかわず、きほんてきなゆびずかいもすべてじこりゅーで、あそんでいたらげんざいのよーなえんそーすたいるになった。	NO_LABEL
山田庵巳を師事。	やまだあんみをしじ。	NO_LABEL
地元京都の大学の文学部に進学し、日本語教師の資格を取れるコースを専攻していたが、19歳の終わりに中退して上京。	じもときょーとのだいがくのぶんがくぶにしんがくし、にほんごきょーしのしかくをとれるこーすをせんこーしていたが、じゅうきゅうさいのおわりにちゅーたいしてじょーきょー。	NO_LABEL
その後間もない2010年1月に、『剃刀乙女』でデビューを果たす。	NO_PRONOUNCE	NO_LABEL
シンガー・ソングライターになろうと思ったことも、自身がシンガー・ソングライターだと意識したことも一度もなく、歌が自然にでき、それが楽しいからやっているだけで、ごはんを食べる、寝るといったことと同じ感覚で、何かを表現しようと思ってやっているわけではないと語る。	NO_PRONOUNCE	NO_LABEL
