パーカー・アデア・ヘンダーソンは第7代および第11代マイアミ市長。	NO_PRONOUNCE	NO_LABEL
 ジョージア州ヘンリー郡ハンプトンで生まれた。	じょーじあしゅーへんりーぐんはんぷとんでうまれた。	NO_LABEL
そこでは父が製材所を所有し、成功を収めていた。	そこでわちちがせいざいしょをしょゆーし、せいこーをおさめていた。	NO_LABEL
16歳の時、製材所の一つを父より任され、15年間経営した。	じゅうろっさいのとき、せいざいしょのひとつをちちよりまかされ、じゅうごねんかんけいえいした。	NO_LABEL
1906年、フロリダ州マイアミに引っ越し、義理の兄弟C. T. McCrimmonとthe McCrimmon Lumber Companyを設立した。	NO_PRONOUNCE	NO_LABEL
1912年、McCrimmonの株式を購入し、P. A. Henderson Lumber Companyに社名を変更した。	NO_PRONOUNCE	NO_LABEL
1915年6月にマイアミ市長に選出され、11月に就任した。	せんきゅうひゃくじゅうごねんろくがつにまいあみしちょーにせんしゅつされ、じゅーいちがつにしゅーにんした。	NO_LABEL
1923年に再選された。	せんきゅうひゃくにじゅうさんねんにさいせんされた。	NO_LABEL
マイノリティーの人口を抑制するために論議を呼ぶ"Prima Nocta"政策を作成しようとしたことで知られている。	NO_PRONOUNCE	NO_LABEL
