花蕊夫人は、後蜀の帝王孟昶の妃。	かずいふじんわ、こーしょくのていおーもうちょーのきさき。	NO_LABEL
後に北宋の皇帝太祖の妃。	ごにほくそーのこーていたいそのきさき。	NO_LABEL
姓は徐氏と費氏の2つの説がある。	せいわじょしとひしのふたつのせつがある。	NO_LABEL
青城）出身。	NO_PRONOUNCE	NO_LABEL
幼少の頃より文学的才能があり、容姿も美しいということで、孟昶の後宮に入り慧妃となった。	よーしょーのころよりぶんがくてきさいのーがあり、よーしもうつくしいとゆうことで、もうちょーのこーきゅーにはいりけいひとなった。	NO_LABEL
その後、花蕊夫人という称号を賜った。	そのご、かずいふじんとゆうしょーごーをたまわった。	NO_LABEL
孟昶を様々な角度から捉え、宮廷生活を綴った宮詩100首余りを残した。	NO_PRONOUNCE	NO_LABEL
965年に北宋の皇帝趙匡胤が後蜀に攻め込んでくると、孟昶と共に捕らえられた。	きゅうひゃくろくじゅうごねんにほくそーのこーていちょーきょういんがこーしょくにせめこんでくると、もうちょーとともにとらえられた。	NO_LABEL
その後、孟昶が殺害されると趙匡胤の後宮に入り、妃となった。	そのご、もうちょーがさつがいされるとちょーきょういんのこーきゅーにはいり、きさきとなった。	NO_LABEL
しかし、後蜀のことを忘れることはなく、いつも孟昶の像を祀っていたという。	しかし、こーしょくのことをわすれることわなく、いつももうちょーのぞーをまつっていたという。	NO_LABEL
