『戦場まんがシリーズ』は、松本零士の代表作の一つで、第二次世界大戦をベースにした短編漫画集。	NO_PRONOUNCE	NO_LABEL
本項では、少年サンデーコミックス『戦場まんが』１〜９集に収録された作品、およびこれらを原作としたOVA作品『ザ・コクピット』を主体に記述する。	NO_PRONOUNCE	NO_LABEL
「戦場まんがシリーズ」と呼ぶ場合、本来は小学館の『週刊少年サンデー』に不定期連載されたものを指す。	NO_PRONOUNCE	NO_LABEL
少年サンデーコミックスには、『ビッグコミックオリジナル』掲載の「ザ・コクピット」シリーズや、過去に『プレイコミック』や『COM』に掲載された短編も収載されているが、それらもまとめて「戦場まんが」と名付けている。	NO_PRONOUNCE	NO_LABEL
実際には「わが青春のアルカディア」以降の単行本の作品は、ほとんどザ・コクピットシリーズである。	NO_PRONOUNCE	NO_LABEL
また、「戦場まんがシリーズ」作品も、後年「ザ・コクピット」のタイトルでまとめられた単行本に収載されたりしており、更には他の雑誌等で発表された第二次大戦ものを含めて、現在では「ザ・コクピットシリーズ」という形でくくられることが多く、初出による厳密な区別はほとんどされていない。	NO_PRONOUNCE	NO_LABEL
「ザ・コクピットシリーズ」として発表された作品は、掲載が青年誌であり、性描写がたびたび登場する。	NO_PRONOUNCE	NO_LABEL
単行本は「少年サンデーコミックス」として出されているため、収載にあたっては当該部分の多くは改稿あるいは修正されており、現在も修正後のままのものが流通している。	NO_PRONOUNCE	NO_LABEL
また、「戦場まんがシリーズ」作品にも理由は不明ながら、「スタンレーの魔女」のようにページごと描き直されているものがある。	NO_PRONOUNCE	NO_LABEL
娯楽性やドラマ性を優先して、兵器の考証面には史実と多くの差異がある。	ごらくせいやどらませいをゆーせんして、へいきのこーしょーめんにわしじつとおーくのさいがある。	NO_LABEL
これは初期作品は日本で入手できる資料が少ないころに執筆され、後期の「ザ･コクピットシリーズ」は作品オリジナルの「試作兵器」が多いためでもある。	NO_PRONOUNCE	NO_LABEL
※タイトルの順序は、『ザ・コクピット』1~5巻の収録順になっています。	NO_PRONOUNCE	NO_LABEL
戦場まんがシリーズは全9巻が刊行されている。	せんじょーまんがしりーずわぜんきゅうかんがかんこーされている。	NO_LABEL
単行本タイトルと短編タイトルは次の通り。	たんこーほんたいとるとたんぺんたいとるわつぎのとーり。	NO_LABEL
第4巻の「わが青春のアルカディア」では宇宙海賊キャプテンハーロックの主人公であるハーロックの先祖が登場。	NO_PRONOUNCE	NO_LABEL
ハーロックの愛機でもあるアルカディア号や、親交のあった台場についても描かれている。	はーろっくのあいきでもあるあるかでぃあごーや、しんこーのあっただいばについてもえがかれている。	NO_LABEL
同名のアニメ映画「わが青春のアルカディア」ではこの話がストーリーに織り込まれているが、ハーロックの相手役が台場ではなく、大山トチローの先祖に変更されている。	NO_PRONOUNCE	NO_LABEL
また第一巻「スタンレーの魔女」でのファントム・F・ハーロック1世のエピソードも織り込まれているが、ハーロック1世の声を演じたのが石原裕次郎であり、当時その高額なギャラが話題となっている。	NO_PRONOUNCE	NO_LABEL
1993年に『ザ・コクピット』として、オムニバス形式のアニメ作品として映像化された。	NO_PRONOUNCE	NO_LABEL
制作はマッドハウス、ジャコム、ビジュアル80。	せいさくわまっどはうす、じゃこむ、びじゅあるなんとか。	NO_LABEL
映像化された作品は「成層圏気流」、「音速雷撃隊」、「鉄の竜騎兵」の3本。	NO_PRONOUNCE	NO_LABEL
原作は第6巻「悪魔伝の七騎士」収録の第4話「成層圏気流」。	NO_PRONOUNCE	NO_LABEL
原子爆弾輸送機の護衛任務を命じられたドイツ空軍パイロットの戦いと葛藤を描く。	げんしばくだんゆそーきのごえいにんむをめいじられたどいつくーぐんぱいろっとのたたかいとかっとーをえがく。	NO_LABEL
原作は第3巻「オーロラの牙」収録の第5話「音速雷撃隊」。	NO_PRONOUNCE	NO_LABEL
太平洋戦争末期における桜花特別攻撃隊の戦いを描く。	たいへいよーせんそーまっきにおけるおーかとくべつこーげきたいのたたかいをえがく。	NO_LABEL
原作は第2巻「鉄の墓標」収録の第4話「鉄の竜騎兵」。	NO_PRONOUNCE	NO_LABEL
フィリピンの戦場で戦う日米のオートバイ兵の戦いを描く。	ふぃりぴんのせんじょーでたたかうにちべいのおーとばいへいのたたかいをえがく。	NO_LABEL
1978年、ニッポン放送により「キリン・ラジオ劇場 ザ・コクピット」が製作され、後にLP化された。	NO_PRONOUNCE	NO_LABEL
LPの収録はラジオドラマ2編、インストゥルメンタル3曲、イメージソング1曲である。	NO_PRONOUNCE	NO_LABEL
