増沢 末夫は、日本中央競馬会に所属した騎手、調教師。	ますざわすえおわ、にっぽんちゅーおーけいばかいにしょぞくしたきしゅ、ちょーきょーし。	NO_LABEL
騎手として全国リーディングジョッキー2回、八大競走7勝。	きしゅとしてぜんこくりーでぃんぐじょっきーにかい、はちだいきょうそーななしょー。	NO_LABEL
通算2016勝は当時の中央競馬史上最多勝。	NO_PRONOUNCE	NO_LABEL
44歳で初のリーディングジョッキー獲得、50代で年間100勝達成など中年期以降に顕著な活躍を示し「鉄人」の異名を取った。	NO_PRONOUNCE	NO_LABEL
愛称は「まっさん」。	NO_PRONOUNCE	NO_LABEL
妻は師匠・鈴木勝太郎の長女。	NO_PRONOUNCE	NO_LABEL
義弟に鈴木康弘がいる。	ぎていにすずきやすひろがいる。	NO_LABEL
北海道亀田郡大野村出身。	ほっかいどーかめだぐんおおのしゅっしん。	NO_LABEL
戸籍上の表記は増澤末夫である。	こせきじょーのひょーきわますざわすえおである。	NO_LABEL
北海道大野村に6人兄妹の末っ子として生まれる。	ほっかいどーおおのにろくにんきょーだいのすえっことしてうまれる	NO_LABEL
幼少期より農耕・ばんえい競走用のペルシュロンの世話をして過ごした。	NO_PRONOUNCE	NO_LABEL
中学校卒業後騎手を志し、同級生の兄で騎手の竹部鈴雄より、函館競馬場を訪れていた調教師・鈴木勝太郎を紹介され、そのまま東京競馬場の鈴木厩舎に入門した。	NO_PRONOUNCE	NO_LABEL
1955年より馬事公苑騎手養成長期課程を受講。	せんきゅうひゃくごじゅうごねんよりばじこうえんきしゅよーせいちょーきかていをじゅこー。	NO_LABEL
同期生には矢野進、森安重勝、古賀一隆らがいる。	どーきせいにわやのすすむ、もりやすしげかつ、こがかずたからがいる。	NO_LABEL
修了後に騎手免許を取得。	しゅーりょーごにきしゅめんきょをしゅとく。	NO_LABEL
1957年3月10日に騎手デビューし、同年7月14日に初勝利を挙げた。	せんきゅうひゃくごじゅうしちねんさんがつとおかにきしゅでびゅーし、どーねんしちがつじゅうよっかにはつしょーりをあげた。	NO_LABEL
翌年には32勝を挙げ全国19位に付ける躍進を見せたが、デビュー以降しばらくは成績が安定せずランキングは昇降を繰り返した。	よくねんにわさんじゅうにしょーをあげぜんこくじゅうきゅういにつけるやくしんをみせたが、でびゅーいこーしばらくわせいせきがあんていせずらんきんぐわしょーこーをくりかえした。	NO_LABEL
しかし1966年の東京優駿でアサデンコウに騎乗し優勝。	しかしせんきゅうひゃくろくじゅうろくねんのとーきょーゆーしゅんであさでんこーにきじょーしゆーしょー。	NO_LABEL
重賞初勝利をダービーで果たすと、以降成績は上位で安定し、名実ともに関東のトップジョッキーのひとりとなった。	じゅーしょーはつしょーりをだーびーではたすと、いこーせいせきわじょーいであんていし、めいじつともにかんとーのとっぷじょっきーのひとりとなった。	NO_LABEL
1973年には公営・大井競馬から中央へ移籍してきたハイセイコーの主戦騎手となり、第一次競馬ブームの担い手となる。	NO_PRONOUNCE	NO_LABEL
同馬の引退に際しては、増沢が歌うレコードシングル『さらばハイセイコー』が発売され、オリコン最高4位のヒットとなった。	NO_PRONOUNCE	NO_LABEL
1977年、40歳を迎えた増沢は74勝を挙げ、初の関東リーディングジョッキーとなる。	せんきゅうひゃくななじゅうななねん、よんじっさいをむかえたますざわわななじゅうよんしょーをあげ、はつのかんとーりーでぃんぐじょっきーとなる。	NO_LABEL
さらに1981年には96勝を挙げ、44歳にして初の全国リーディングを獲得した。	さらにせんきゅうひゃくはちじゅういちねんにわきゅうじゅうろくしょーをあげ、よんじゅうよんさいにしてはつのぜんこくりーでぃんぐをかくとくした。	NO_LABEL
翌年には104勝で自身初の年間100勝を達成し、2年連続の全国リーディングジョッキーとなる。	よくねんにわひゃくよんしょーでじしんはつのねんかんひゃくしょーをたっせいし、にねんれんぞくのぜんこくりーでぃんぐじょっきーとなる。	NO_LABEL
1984年10月14日には通算1340勝を達成し、野平祐二が保持していた中央競馬最多勝記録を更新。	NO_PRONOUNCE	NO_LABEL
以降、増沢は「記録男」とも称されるようになり、1986年にはダイナガリバーに騎乗して2度目の日本ダービー優勝を果たし、史上最年長のダービージョッキーとなると、同年12月21日には中山競馬場で中央競馬史上初の通算1万回騎乗を達成。	NO_PRONOUNCE	NO_LABEL
この日のメイン競走ではダイナガリバーで有馬記念にも優勝した。	このひのめいんきょーそーでわだいながりばーでありまきねんにもゆーしょーした。	NO_LABEL
翌1987年には競馬関係者として初めて皇室主催の園遊会に招待され、昭和天皇および皇太子明仁親王と競馬の景況について言葉を交わした。	よくせんきゅうひゃくはちじゅうななねにわけいばかんけいしゃとしてはじめてこーしつしゅさいのえんゆーかいにしょーたいされ、しょーわてんのーおよびこーたいしあきひとしんのーとけいばのけいきょーについてことばをかわした。	NO_LABEL
増沢はこの経験について、「自分は天皇賞には縁がなかったが、これ以上の栄誉はない」と語っている。	NO_PRONOUNCE	NO_LABEL
1990年には53歳で年間100勝を達成。	せんきゅうひゃくきゅうじゅうねんにわごじゅうさんさいでねんかんひゃくしょーをたっせい。	NO_LABEL
そして翌1991年、自身の誕生日である10月20日に中央競馬史上初の通算2000勝を達成した。	NO_PRONOUNCE	NO_LABEL
以降も増沢は騎手を続けるつもりであったが、1989年に義弟の鈴木俊彦が落馬事故により死去していたこともあり、家族の反対に遭い引退を決断。	いこーもますざわわきしゅをつずけるつもりであったが、せんきゅうひゃくはちじゅうきゅうねんにぎていのすずきとしひこがらくばじこによりしきょしていたこともあり、かぞくのはんたいにあいいんたいをけつだん。	NO_LABEL
この年の調教師試験申請書提出期限であった10月30日に騎手引退を発表し、翌1992年2月23日に引退した。	このとしのちょーきょーししけんしんせいしょていしゅつきげんであったじゅーがつさんじゅうにちにきしゅいんたいをはっぴょーし、よくせんきゅうひゃくきゅうじゅうにねんにがつにじゅうさんにちにいんたいした。	NO_LABEL
引退後は調教師に転身。	いんたいごわちょーきょーしにてんしん。	NO_LABEL
1993年、美浦トレーニングセンターに厩舎を開業した。	せんきゅうひゃくきゅうじゅうさんねん、みほとれーにんぐせんたーにきゅーしゃをかいぎょーした。	NO_LABEL
開業初年度に重賞を制覇するなど、さすがと思わせる一面も見られたが、調教師として中央競馬のGIを勝つことはできなかった。	かいぎょーしょねんどにじゅーしょーをせいはするなど、さすがとおもわせるいちめんもみられたが、ちょーきょーしとしてちゅーおーけいばのじーあいをかつことわできなかった。	NO_LABEL
しかしながら、2005年にストロングブラッドで交流GI競走のかしわ記念を制している。	しかしながら、にせんごねんにすとろんぐぶらっどでこーりゅーじーあいきょーそーのかしわきねんをせいしている。	NO_LABEL
1996年には騎手としての経験を見込まれ、競馬会より中央競馬初の女性騎手のひとり・牧原由貴子を託され厩舎所属騎手とした。	NO_PRONOUNCE	NO_LABEL
牧原はのちに増沢の息子・真樹と結婚し、増沢由貴子となっている。	NO_PRONOUNCE	NO_LABEL
2008年2月29日付けで定年により調教師を引退し、競馬界の一線から退いた。	にせんはちねんにがつにじゅうきゅうにちずけでていねんによりちょーきょーしをいんたいし、けいばかいのいっせんからしりぞいた。	NO_LABEL
調教師成績は3165戦279勝。	NO_PRONOUNCE	NO_LABEL
スタートが抜群に巧く逃げ戦法を得意とし、素早くレースの主導権を握り、道中で巧くペースを落としての逃げ切りは「増沢マジック」とも評された。	NO_PRONOUNCE	NO_LABEL
当時のファンの間では「増沢が4コーナーで後ろを振り向いた時は勝利を確信した時だ」とも言われ、また騎手の間でも「4コーナーで振り向いたら絶対勝つ、3コーナーで振り向いたら負ける」とされていた。	NO_PRONOUNCE	NO_LABEL
自身も「どちらかというと先行馬が好き」としているが、その騎手生活のなかで最強馬として挙げているのは、追い込み馬として鳴らしたイシノヒカルである。	NO_PRONOUNCE	NO_LABEL
またこうした特長から、小回りコースが多く先行策が有利とされるローカル開催での活躍も目立ち、「ローカル男」とも呼ばれ、とくに福島競馬場は「増沢の庭」と呼ばれるほどの圧倒的な強さを誇った。	NO_PRONOUNCE	NO_LABEL
同場では通算勝ち星のほぼ3分の1にあたる671勝を挙げており、増沢が乗るだけで騎乗馬のオッズが下がるという現象も見られた。	NO_PRONOUNCE	NO_LABEL
自身も認める遅咲きの騎手であり、一般に騎手が引退を始める40歳で関東リーディングを獲得し、以降の13年間で通算勝利の過半数にあたる1259勝を挙げた。	NO_PRONOUNCE	NO_LABEL
この時期は引退年以外はすべて関東リーディング3位以内、全国リーディング5位以内を保っていた。	このじきわいんたいねんいがいわすべてかんとーりーでぃんぐさんいいない、ぜんこくりーでぃんぐごいいないをたもっていた。	NO_LABEL
このように第一線で長く続けられた理由として、小柄で比較的減量苦がなかったこと、落馬による大きな怪我がなかったことなどが挙げられる。	このよーにだいいっせんでながくつずけられたりゆーとして、こがらでひかくてきげんりょーくがなかったこと、らくばによるおーきなけががなかったことなどがあげられる。	NO_LABEL
また、増沢はダイナガリバーでのダービー、有馬記念制覇に触れ、前者は「『まだ安心して頼める』という信頼を得た」、後者については「名勝負を残せたことで、増沢健在を内外にアピールできた。	NO_PRONOUNCE	NO_LABEL
この1勝は500勝にも相当する」と語り、年齢で敬遠されることによる騎乗数の減少、騎乗馬のレベル低下を避けられたことも挙げている。	NO_PRONOUNCE	NO_LABEL
括弧内は増沢騎乗による優勝重賞競走。	かっこないわますざわきじょーによるゆーしょーじゅーしょーきょーそー。	NO_LABEL
太字はGI級競走。	ふとじわじーあいきゅーきょーそー。	NO_LABEL
※太字は門下生。	NO_PRONOUNCE	NO_LABEL
括弧内は厩舎所属期間と所属中の職分。	かっこないわきゅーしゃしょぞくきかんとしょぞくちゅーのしょくぶん。	NO_LABEL
