バレーボールワールドカップが主催するバレーボールの世界大会である。	ばれーぼーるわーるどかっぷがしゅさいするばれーぼーるのせかいたいかいである。	NO_LABEL
特に日本においては、世界選手権・オリンピックと併せて「バレーボール3大大会」として位置づけられている。	NO_PRONOUNCE	NO_LABEL
1965年に男子の第1回大会が開催され、1977年以降は4年に1度日本で開催されている。	せんきゅうひゃくろくじゅうごねんにだんしのだいいっかいたいかいがかいさいされ、せんきゅうひゃくななじゅうななねんいこーわよんねんにいちどにっぽんでかいさいされている。	NO_LABEL
大会マスコットはバボちゃん。	たいかいますこっとわばぼちゃん。	NO_LABEL
バレーボールワールドカップは世界選手権、オリンピックに続く3つ目の世界大会として1965年に第1回ワールドカップ男子大会がポーランドで開催された。	ばれーぼーるわーるどかっぷわせかいせんしゅけん、おりんぴっくにつずくみっつめのせかいたいかいとしてせんきゅうひゃくろくじゅうごねんにだいいっかいわーるどかっぷだんしたいかいがぽーらんどでかいさいされた。	NO_LABEL
しかし、オリンピックや世界選手権より格が劣る大会とされて、注目度は今一つであった。	しかし、おりんぴっくやせかいせんしゅけんよりかくがおとるたいかいとされて、ちゅーもくどわいまひとつであった。	NO_LABEL
日本で初めて開催となった1977年大会では、「ワールドカップ77はフジテレビの独占放送です」というフレーズとマスコットの「バボちゃん」「ナナちゃん」を用いての宣伝がなされた。	NO_PRONOUNCE	NO_LABEL
さらに日本は男子が準優勝、女子が優勝という好結果を残したため、「ワールドカップ」はバレーボールの大会というイメージが日本では定着した。	NO_PRONOUNCE	NO_LABEL
またフジテレビがテレビ放送に力を入れたことから、日本において馴染みが深い国際大会となっている。	またふじてれびがてれびほうそーにちからをいれたことから、にっぽんにおいてなじみがふかいこくさいたいかいとなっている。	NO_LABEL
興行的な成功と、前田豊や松平康隆らの尽力もあり、この1977年大会以降は、開催国が毎回日本となった。	こーぎょーてきなせいこーと、まえだゆたかやまつだいらやすたからのじんりょくもあり、このせんきゅうひゃくななじゅうななねんたいかいいこーわ、かいさいこくがまいかいにっぽんとなった。	NO_LABEL
そして、フジテレビ系列の独占中継が現在まで続いている。	そして、ふじてれびけいれつのどくせんちゅーけいがげんざいまでつずいている。	NO_LABEL
近年では、V6・嵐・NEWS・Hey! Say! JUMP・NYC boys・Sexy Zoneと、ジャニーズ事務所が大会に合わせてデビューさせる新人アイドルグループが中継番組のテーマソングを歌うのが慣習になっている。	NO_PRONOUNCE	NO_LABEL
さらに日本の芸能人・タレントが「大会委員長」の肩書で出演し、1995年大会は鹿賀丈史、1999年大会はタモリ、2003年大会は「勝利の女神」として伊東美咲が務めた。	NO_PRONOUNCE	NO_LABEL
2007年大会はフジテレビの豊田皓社長が大会委員長を務め、「メインキャスター」の肩書で嵐の櫻井翔が、「日本代表応援団」団長は同応援団『はねるのトびら』出演者を代表して虻川美穂子が担当した。	NO_PRONOUNCE	NO_LABEL
2015年大会ではトミドコロが扮するバボちゃん2号「バボドコロ」が、公認キャラクターとなった。	NO_PRONOUNCE	NO_LABEL
応援コールの定番である「ニッポン! チャ、チャ、チャ!」は、この大会が日本で開催された直後から言うようになった。	NO_PRONOUNCE	NO_LABEL
1973年に男子大会がチェコスロバキアで開催される予定であったが、諸事情により中止となった。	せんきゅうひゃくななじゅうさんねんにだんしたいかいがちぇこすろばきあでかいさいされるよていであったが、しょじじょーによりちゅーしとなった。	NO_LABEL
2007年大会は代々木第一体育館がアスベスト除去工事中のため、メイン会場を東京体育館に変更して開催した。	にせんななねんたいかいわよよぎだいいちたいーくかんがあすべすとじょきょこーじちゅーのため、めいんかいじょーをとーきょーたいーくかんにへんこーしてかいさいした。	NO_LABEL
テクニカルタイムアウトや休憩時間の長さが日本戦と比べ短いことなどが、イランのベラスコ監督により批判されている。	てくにかるたいむあうとやきゅーけいじかんのながさがにほんせんとくらべみじかいことなどが、いらんのべらすこかんとくによりひはんされている。	NO_LABEL
男子は、2011年大会の米国×イタリア第1セットの39-41。	NO_PRONOUNCE	NO_LABEL
女子は、2003年大会のキューバ×ブラジル第3セットの39-37。	NO_PRONOUNCE	NO_LABEL
ワールドカップに出場できるのは全部で12カ国で、2015年大会は以下のように選出された。	NO_PRONOUNCE	NO_LABEL
大会は12チームによる1回総当たり戦。	NO_PRONOUNCE	NO_LABEL
2011年大会の場合の順位は、「FIVBスポーツレギュレーション8条」で規定された、セットカウントで付与される勝ち点ポイントによって、決定される。	NO_PRONOUNCE	NO_LABEL
これは、ワールドグランプリなどと同様の方式だが、トータルポイントが同じチームが出た場合は若干異なり、「勝利数」「セット率」「得点率」の順で適用される。	NO_PRONOUNCE	NO_LABEL
それでも値が同じ場合は、最新の試合で勝利したチームの方が上位となる。	それでもねがおなじばあいわ、さいしんのしあいでしょーりしたちーむのほーがじょーいとなる。	NO_LABEL
以前は「勝敗数」「得点率」「セット率」の順での評価で、それも同じ場合は一発勝負のプレーオフも想定されていた。	NO_PRONOUNCE	NO_LABEL
かつてはベスト・スコアラー、ベスト・サーバー、ベスト6なども対象だった。	NO_PRONOUNCE	NO_LABEL
2015年大会ではベスト・スパイカー部門1位の朱婷がMVPとなったため、同部門は重複せず、2位と3位の2選手が受賞となった。	NO_PRONOUNCE	NO_LABEL
日本開催以前はTBSで中継を行っていた。	にっぽんかいさいいぜんわてぃーびーえすでちゅーけいをおこなっていた。	NO_LABEL
日本開催となってからは、フジテレビジョンがホスト局となり、会場地をエリアとするフジネットワーク系列局とともに中継・国際映像の制作を担当。	NO_PRONOUNCE	NO_LABEL
全世界に配信している。	ぜんせかいにはいしんしている。	NO_LABEL
地上波のほか、BSフジ、フジテレビONE・TWOでも放送されている。	NO_PRONOUNCE	NO_LABEL
なお、CSでの日本戦の試合の時差放送では中継番組のテーマソングを歌う場面はカットされている。	なお、くれでぃすいすでのにほんせんのしあいのじさほーそーでわちゅーけいばんぐみのてーまそんぐをうたうばめんわかっとされている。	NO_LABEL
また、地上波においてはセットインターバルのところではジャニーズ事務所所属タレントやMC・来賓の芸能人・文化人らによる幕間トークが放送される個所は、CSでは別の映像に差し替えている。	NO_PRONOUNCE	NO_LABEL
フジテレビワンツーネクストで、2011年大会においての関連企画として、1977年以後の大会の中からの日本代表に関係する試合を取り上げてその試合映像をノーカットで振り返る「ワールドカップバレー・黄金伝説」をシリーズで放送している。	NO_PRONOUNCE	NO_LABEL
太字は最終ラウンドの日本戦会場	ふとじわさいしゅーらうんどのにほんせんかいじょー	NO_LABEL
