JWP認定ジュニア王座&POP王座は、JWP女子プロレスとPURE-Jが管理・認定するフラッグシップタイトル。	NO_PRONOUNCE	NO_LABEL
ジャパン女子プロレスでのUWA&JWPジュニア王座に当たる。	NO_PRONOUNCE	NO_LABEL
1995年6月16日、JWP初進出となった両国国技館大会でJWP認定ジュニア王座の初代王者決定巴戦が行われ、キャンディー奥津が菅生裕美、矢樹広弓を連破して初代王者となった。	せんきゅうひゃくきゅうじゅうごねんろくがつじゅうろくにち、じぇいだぶりゅーぴーはつしんしゅつとなったりょうごくこくぎかんたいかいでじぇいだぶりゅーぴーにんていじゅにあおーざのしょだいおーじゃけっていともえせんがおこなわれ、きゃんでぃーおくつがすごーひろみ、やぎひろみをれんぱしてしょだいおーじゃとなった。	NO_LABEL
この王座の対象選手はデビューから4年以内だが、再デビュー後に王座を獲得した倉垣翼や渡辺えりかのような例外も存在する。	このおーざのたいしょーせんしゅわでびゅーからよんねんいないだが、さいでびゅーごにおーざをかくとくしたくらがきつばさやわたなべえりかのよーなれいがいもそんざいする。	NO_LABEL
一方、JDスター女子プロレスは2006年の4月から6月にかけて、キャリア3年以内の若手選手10名によるリーグ戦「LEAGUE PRINCESS」を開催し、優勝した風香に初代プリンセス・オブ・プロレスリング王座が贈られた。	NO_PRONOUNCE	NO_LABEL
しかし、2007年の第2回大会の期間中にJDスターが活動休止を発表し、POP王座はリーグ戦を制し第3代王者となった中島安里紗の所属するJWPが、当時中島が保持していたJWPジュニア王座と共に「ジュニア二冠王座」として管理することになった。	NO_PRONOUNCE	NO_LABEL
両王座で相違があった資格については2009年10月18日の北千住シアター1010大会を以って4年に統一され、2010年6月に「トータルキャリア5年以内」に拡大された。	NO_PRONOUNCE	NO_LABEL
中島の2度目の王座陥落後は、JWPになかなか若手が育たない事情もあり、3年4ヶ月もの間、他団体に二冠王座が流出する事態が続いていたが、2012年4月にラビット美兎が王座を獲得し、JWPの元に王座が戻った。	NO_PRONOUNCE	NO_LABEL
JWP20周年となった2012年に認定タイトルの規定が改正され、「キャリア4年以内」に変更された。	NO_PRONOUNCE	NO_LABEL
2017年4月を以てJWPが活動停止及び新団体「PURE-J」旗揚げに至ったのに伴い、JWP認定ジュニア王座は認定元であるJWPプロデュースが継続して管理するため4月2日の最終興行を以て王座が返上されたが、一方でPOP王座はJWPプロデュースが認定するものではなかったため、新団体が管理権を引き継ぐことになった。	NO_PRONOUNCE	NO_LABEL
