曇鸞は、中国南北朝時代の僧である。	どんらんわ、ちゅーごくなんぼくちょうじだいのそーである。	NO_LABEL
中国浄土教の開祖とされる。	ちゅーごくじょーどきょーのかいそとされる。	NO_LABEL
浄土宗では、「浄土五祖」の第一祖とされる。	NO_PRONOUNCE	NO_LABEL
浄土真宗では、七高僧の第三祖とされ「曇鸞大師」・「曇鸞和尚」と尊称する。	NO_PRONOUNCE	NO_LABEL
五台山の近く雁門の生まれ。	ごだいさんのちかくかりもんのうまれ。	NO_LABEL
生没年は不明だが、おおよそ北魏後半から北斉時代の人と思われる。	なまぼつねんわふめいだが、おーよそほくぎこーはんからほくせいじだいのひととおもわれる。	NO_LABEL
出家して、龍樹系の四論や『涅槃経』の仏性義を学んだ。	NO_PRONOUNCE	NO_LABEL
ところが『大集経』の注釈の最中に病に倒れ、不老長寿の術を茅山の陶弘景について学び「仙経」を得て帰る途中、洛陽で菩提流支に出会い、仏教にこそ不死の教えあると諭され、『観無量寿経』を授けられた。	NO_PRONOUNCE	NO_LABEL
そこで、曇鸞は「仙経」を焼き捨てて、浄土教に入り研鑚に勤め、并州の大巌寺に住し、後に石壁の玄中寺に入り、さらに汾州平遥山の遥山寺に移って没した。	NO_PRONOUNCE	NO_LABEL
勅によって汾州西秦陵の文谷に葬られた。	NO_PRONOUNCE	NO_LABEL
