『グリオットの眠り姫』は、霜月はるかの2枚目のオリジナルアルバム。	NO_PRONOUNCE	NO_LABEL
2009年10月14日にティームエンタテインメントから発売された。	にせんきゅうねんじゅーがつじゅうよっかにてぃーむえんたていんめんとからはつばいされた。	NO_LABEL
前作『ティンダーリアの種』から数千年後、57年前から太陽の力が弱まり恐慌に向かう世界で、双子の歌い手と『グリオット』と呼ばれる歌声を込める事が出来る不思議な石を巡るオリジナルストーリーをベースにしたファンタジーボーカルアルバム。	NO_PRONOUNCE	NO_LABEL
霜月はるかは歌唱担当だけでなく作詞、作編曲、サウンドプロデュース、トータルプロデュースと全てにこだわり、作り込まれている。	しもつきはるかわかしょーたんとーだけでなくさくし、さくへんきょく、さうんどぷろでゅーす、とーたるぷろでゅーすとすべてにこだわり、つくりこまれている。	NO_LABEL
前作『ティンダーリアの種』と繋がる作品であるため『ティンダーリアの種』の旋律が一部楽曲に引用されている。	NO_PRONOUNCE	NO_LABEL
メディアミックス展開も行われており、2010年12月28日よりコミックZERO-SUMで漫画連載が開始された。	めでぃあみっくすてんかいもおこなわれており、にせんじゅうねんじゅーにがつにじゅうはちにちよりこみっくぜろさむでまんがれんさいがかいしされた。	NO_LABEL
コミックZERO-SUMで連載された。	こみっくぜろさむでれんさいされた。	NO_LABEL
作画：藤村あゆみ 原作：霜月はるか&日山尚	NO_PRONOUNCE	NO_LABEL
タイトルは『グリオットの眠り姫 消えない欠片』。	NO_PRONOUNCE	NO_LABEL
著者は原作者の日山尚。	ちょしゃわげんさくしゃのひやまなお。	NO_LABEL
2012年1月25日に一迅社文庫アイリスより発売。	にせんじゅうにねんいちがつにじゅうごにちにいちじんしゃぶんこあいりすよりはつばい。	NO_LABEL
コミックス1・2巻限定版、小説版に付属。	NO_PRONOUNCE	NO_LABEL
また、霜月はるかによる録り下ろし新曲も収録されている。	また、しもつきはるかによるろくりおろししんきょくもしゅーろくされている。	NO_LABEL
2012年4月25日、本作のスピンオフ作品ともいえるオリジナルファンタジーボーカルアルバム『零れる砂のアリア』が発売された。	NO_PRONOUNCE	NO_LABEL
『グリオットの眠り姫』のクリエイター陣が共作し、一つの物語を組曲形式で編成している。	NO_PRONOUNCE	NO_LABEL
