乾湿計は、乾球温度・湿球温度の測定により湿度・温度を同時に測定する湿度計である。	NO_PRONOUNCE	NO_LABEL
一般の温度・湿度環境での測定に適している。	NO_PRONOUNCE	NO_LABEL
極端な高温・低温・低湿度・低気圧での測定では、誤差が大きく実用にならない。	NO_PRONOUNCE	NO_LABEL
2個の温度計からなり、一方は純水で球部を常に湿らせる。	NO_PRONOUNCE	NO_LABEL
湿球は球部で水が蒸発によって蒸発熱を奪うため、通常もう一方の温度計よりも低い温度を示す。	しめたまわたまぶでみずがじょーはつによってじょうきねつをうばうため、つーじょーもういっぽーのおんどけいよりもひくいおんどをしめす。	NO_LABEL
しかし気温が氷点下の場合は湿球が薄い氷の層で覆われるため、乾球よりも高い温度を示すことがある。	しかしきおんがひょーてんかのばあいわしめたまがうすいこーりのそーでおおわれるため、いぬいだまよりもたかいおんどをしめすことがある。	NO_LABEL
精密測定の場合、相対湿度は乾球温度または湿球温度と乾球・湿球間の温度差と気圧とからスプルンクの式で計算する。	NO_PRONOUNCE	NO_LABEL
式の補正値は、各通風方式ごとに用意されている。	しきのほせいちわ、かくつーふーほーしきごとによーいされている。	NO_LABEL
ここで"e"は空気中の水蒸気分圧、 "e"は湿球温度における飽和水蒸気圧、"A"=0.000662Kは乾湿計係数、"p"は気圧、"t"は乾球温度、"t"は湿球温度である。	NO_PRONOUNCE	NO_LABEL
湿球が適切な湿潤状態でないと正確な測定ができない。	しめたまがてきせつなしつじゅんじょーたいでないとせいかくなそくていができない。	NO_LABEL
また、汚れた場合は糊気をなくしたガーゼに取替えが必要である。	また、よごれたばあいわのりきをなくしたがーぜにとりかえがひつよーである。	NO_LABEL
アウグスト乾湿計は、湿球と乾球とを大気中に開放したものである。	あうぐすとかんしつけいわ、しめたまといぬいだまとをたいきちゅーにかいほーしたものである。	NO_LABEL
固定しての測定に用いられる。	こていしてのそくていにもちいられる。	NO_LABEL
1～2%程度の誤差が無視できる場合、気圧測定を行わずに1気圧のときの湿度算出表を用いる。	NO_PRONOUNCE	NO_LABEL
アスマン通風乾湿計は、リヒャルト・アスマンが考案したもので、通風湿球湿度計とも呼ばれる。	あすまんつーふーかんしつけいわ、りひゃるとあすまんがこーあんしたもので、つーふーしめたましつどけいともよばれる。	NO_LABEL
輻射熱を防ぐクロムメッキされた金属中に湿球・乾球を内蔵し、送風機で一定速度で通風するものである。	NO_PRONOUNCE	NO_LABEL
室内を移動しての環境測定・他の湿度計の校正に用いられる。	NO_PRONOUNCE	NO_LABEL
送風機が電動機駆動のものとぜんまいばね式のものとがある。	そーふーきがでんどーきくどーのものとぜんまいばねしきのものとがある。	NO_LABEL
一定の通風が必要なので、電池・ぜんまいの切れに注意が必要である。	NO_PRONOUNCE	NO_LABEL
測定者の体温や呼気の影響に注意しながら、3分以上一定の通風状態を維持した後読み取り、さらに1分後に読みの変化が無いことを確かめる。	そくていしゃのたいおんやこきのえいきょーにちゅーいしながら、さんぷんいじょーいっていのつーふーじょーたいをいじしたのちよみとり、さらにいっぷんごによみのへんかがないことをたしかめる。	NO_LABEL
簡易測定の場合、専用の通風乾湿計の湿度表で湿球温度と乾球・湿球間の温度差とで算出する。	NO_PRONOUNCE	NO_LABEL
また、温湿度計算尺も用意されている。	また、ゆたかしつどけいさんじゃくもよーいされている。	NO_LABEL
温度差式通風乾湿球湿度計は、熱電対で乾球部と湿球部の温度差を測定するものである。	おんどさしきつーふーかんしつだましつどけいわ、ねつでんついでいぬいだまぶとしめたまぶのおんどさをそくていするものである。	NO_LABEL
気象庁形通風乾湿球湿度計は、気象庁標準の百葉箱内蔵用の乾湿計である。	きしょーちょーがたつーふーかんしつだましつどけいわ、きしょーちょーひょーじゅんのひゃくよーばこないぞーよーのかんしつけいである。	NO_LABEL
振り回し式乾湿計は、ハンドルまたは長いひもに取り付けられた温度計を空気中で数分間回転させ使用する。	ふりまわししきかんしつけいわ、はんどるまたわながいひもにとりつけられたおんどけいをくーきちゅーですーふんかんかいてんさせしよーする。	NO_LABEL
屋外で移動しての気象測定に用いられる。	おくがいでいどーしてのきしょーそくていにもちいられる。	NO_LABEL
