中西 智明は、福井県出身の推理作家、小説家。	なかにしともあきわ、ふくいけんしゅっしんのすいりさっか、しょーせつか。	NO_LABEL
同志社大学文学部卒。	どーししゃだいがくぶんがくぶそつ。	NO_LABEL
大学在学中に趣味のカードマジックがきっかけとなり、綾辻行人と知り合って京都大学推理小説研究会に入る。	だいがくざいがくちゅーにしゅみのかーどまじっくがきっかけとなり、あやつじゆきととしりあってきょーとだいがくすいりしょーせつけんきゅーかいにはいる。	NO_LABEL
1990年に『消失!』を講談社ノベルスから発行。	NO_PRONOUNCE	NO_LABEL
現在までに発表された作品はこれ一作のみである。	げんざいまでにはっぴょーされたさくひんわこれいちさくのみである。	NO_LABEL
2007年10月に綾辻・有栖川復刊セレクションのうちの1冊として『消失!』が講談社ノベルスから復刊され、巻末に本人による2007年度版のあとがきが付された。	NO_PRONOUNCE	NO_LABEL
