コビントン郡であり、同郡で人口最大の都市でもある。	こびんとんぐんであり、どーぐんでじんこーさいだいのとしでもある。	NO_LABEL
郡名はアメリカ陸軍の士官でアメリカ合衆国下院議員を務めたレナード・コビントンに因んで名付けられた。	NO_PRONOUNCE	NO_LABEL
コビントン郡は、ミシシッピが州に昇格してから2年も経たない1819年1月5日に設立された。	こびんとんぐんわ、みししっぴがしゅーにしょーかくしてからにねんもたたないせんはっぴゃくじゅうきゅうねんいちがついつかにせつりつされた。	NO_LABEL
州東部にある耕作が行われていない広大な土地の中から最初に創られた郡の1つである。	しゅーとーぶにあるこーさくがおこなわれていないこーだいなとちのなかからさいしょにつくられたぐんのひとつである。	NO_LABEL
当初ローレンス郡とウェイン郡の一部を合わせて作られ、現在では西のジェファーソンデイビス郡や東のジョーンズ郡となっている領域にも広がっていた。	とーしょろーれんすぐんとうぇいんぐんのいちぶをあわせてつくられ、げんざいでわにしのじぇふぁーそんでいびすぐんやひがしのじょーんずぐんとなっているりょーいきにもひろがっていた。	NO_LABEL
1823年、郡の1部がベインブリッジ郡になった。	せんはっぴゃくにじゅうさんねん、ぐんのいちぶがべいんぶりっじぐんになった。	NO_LABEL
これは米英戦争の海軍英雄ウィリアム・ベインブリッジに因んだ可能性が強い。	これわべいえいせんそーのかいぐんえいゆーうぃりあむべいんぶりっじにちなんだかのーせいがつよい。	NO_LABEL
翌1824年、ミシシッピ州議会がベインブリッジ郡を解消し、コビントン郡に戻した。	よくせんはっぴゃくにじゅうよんねん、みししっぴしゅーぎかいがべいんぶりっじぐんをかいしょーし、こびんとんぐんにもどした。	NO_LABEL
アメリカ合衆国国勢調査局に拠れば、郡域全面積は414.94|平方マイルであり、このうち陸地413.79平方マイル、水域は1.15平方マイルで水域率は0.28%である。	NO_PRONOUNCE	NO_LABEL
郡内には南北方向と東西方向の双方に4車線の高規格道路が通っている。	NO_PRONOUNCE	NO_LABEL
アメリカ国道49号線が南北方向の道路であり、郡内3つの町を通り、郡の動脈になっている。	あめりかこくどーよんじゅうきゅうごーせんがなんぼくほーこーのどーろであり、ぐんないみっつのまちをとーり、ぐんのどーみゃくになっている。	NO_LABEL
通常ミシシッピのメインストリートと呼ばれ、ジャクソン、ガルフポート、ハッティズバーグという州内三大都市を結び、他にもウィギンス、マギー、クリントン、ヤズーシティ各市を通っている。	つーじょーみししっぴのめいんすとりーととよばれ、じゃくそん、がるふぽーと、はってぃずばーぐとゆうしゅーないさんだいとしをむすび、たにもうぃぎんす、まぎー、くりんとん、やずーしてぃかくしをとーっている。	NO_LABEL
アメリカ国道84号線は郡内を東西に横切り、コリンズ市を通っている。	NO_PRONOUNCE	NO_LABEL
ローレル、ブルックヘイブン、ナチェズなど中規模都市とコビントン郡を結んでいる。	ろーれる、ぶるっくへいぶん、なちぇずなどちゅーきぼとしとこびんとんぐんをむすんでいる。	NO_LABEL
2車線の地方道の体系がコビントン郡を通り、大都市や小さな町を繋いでいる。	NO_PRONOUNCE	NO_LABEL
コリンズのメインストリートは州道184号線であり、セミナリーのメインストリートは州道590号線である。	NO_PRONOUNCE	NO_LABEL
以下は2000年の国勢調査による人口統計データである。	いかわにせんねんのこくせいちょうさによるじんこーとーけいでーたである。	NO_LABEL
内に2010年国勢調査のデータを示す。	うちににせんじゅうねんこくせいちょうさのでーたをしめす。	NO_LABEL
大統領選挙では、少なくとも最近20年間以上堅い共和党支持の郡である。	だいとーりょーせんきょでわ、すくなくともさいきんにじゅうねんかんいじょーかたいきょーわとーしじのぐんである。	NO_LABEL
民主党候補がコビントン郡を制したのは1976年が最後になっている。	みんしゅとーこーほがこびんとんぐんをせいしたのわせんきゅうひゃくななじゅうろくねんがさいごになっている。	NO_LABEL
この年、南部出身のジミー・カーターが300票足らずの差で共和党現職のジェラルド・フォードを制した。	NO_PRONOUNCE	NO_LABEL
連邦議会下院ではミシシッピ州第3選挙区に入り、共和党議員を送り出している。	NO_PRONOUNCE	NO_LABEL
州のレベルでも堅い共和党の地盤である。	しゅーのれべるでもかたいきょーわとーのじばんである。	NO_LABEL
知事選挙では1995年以来民主党候補が勝っていない。	ちじせんきょでわせんきゅうひゃくきゅうじゅうごねんいらいみんしゅとーこーほがかっていない。	NO_LABEL
最近の2011年の選挙では州役人8人の内7人まで共和党候補に投票した。	さいきんのにせんじゅういちねんのせんきょではしゅーやくにんはちにんのうちしちにんまできょーわとーこーほにとーひょーした。	NO_LABEL
州下院では在任期間が最長クラスである民主党議員ジョセフ・L・"ジョー"・ウォーレンを選んだ。	NO_PRONOUNCE	NO_LABEL
郡の小部分2つも民主党議員を選んでいる。	ぐんのしょーぶぶんふたつもみんしゅとーぎいんをえらんでいる。	NO_LABEL
州上院では、郡南部がジョイ・フィリガン、郡北部がペリー・リーと、どちらも共和党員議員を選んだ。	NO_PRONOUNCE	NO_LABEL
地方レベルでは、連邦や州とは反対に民主党優勢である。	ちほーれべるでわ、れんぽーやしゅーとわはんたいにみんしゅとーゆーせいである。	NO_LABEL
郡全体で選ばれる6人の役人の全てが民主党員である。	ぐんぜんたいでえらばれるろくにんのやくにんのすべてがみんしゅとーいんである。	NO_LABEL
これは郡政委員5人も同様である。	これわこーりまさしいいんごにんもどーよーである。	NO_LABEL
オカトマ川は郡内を北から南に曲がりくねって流れ、3つの町を通り、南郡境の南でブーイ川に注いでいる。	おかとまがわわぐんないをきたからみなみにまがりくねってながれ、みっつのまちをとーり、みなみごうりさかいのみなみでぶーいかわにそそいでいる。	NO_LABEL
アメリカ合衆国東南部から毎年数千人の観光客が訪れ、セミナリーからサンフォードまでカヌーやカヤックを楽しんでいる。	あめりかがっしゅーこくとうなんぶからまいとしすーせんにんのかんこーきゃくがおとずれ、せみなりーからさんふぉーどまでかぬーやかやっくをたのしんでいる。	NO_LABEL
オカトマ川ポストとセミナリー・カヌーレンタルがカヌーとカヤックの貸し出しを行い、川沿いの宿泊施設も運営している。	NO_PRONOUNCE	NO_LABEL
南部では常に最良の川下りの場所に選定されている。	なんぶでわつねにさいりょーのかわくだりのばしょにせんていされている。	NO_LABEL
ミッチェル農園はコリンズの直ぐ東にあり、州南部ではトップクラスの農園観光地である。	みっちぇるのーえんわこりんずのすぐひがしにあり、しゅーなんぶでわとっぷくらすののーえんかんこーちである。	NO_LABEL
家族連れや学校の遠足でこの農園を訪れ、またパンプキンパッチ、鄙びた丸太小屋と農家、トウモロコシの迷路、ヒマワリ畑など家族向けの活動を楽しんでいる。	かぞくずれやがっこーのえんそくでこののーえんをおとずれ、またぱんぷきんぱっち、ひなびたまるたこやとのーか、とーもろこしのめいろ、ひまわりはたけなどかぞくむけのかつどーをたのしんでいる。	NO_LABEL
州のピーナッツ祭は、ハーベスト・キングとクイーンのコンペ、5km競走と競歩、屋台、子供向け活動があり、毎年10月に開催されて、数千人の観衆を呼んでいる。	NO_PRONOUNCE	NO_LABEL
コリンズ市のグランドパラダイスは広さ7エーカー (28,000 m）のウォーターパークであり、州内最大級である。	NO_PRONOUNCE	NO_LABEL
夏には多くの入場者を集めている。	なつにわおーくのにゅーじょーしゃをあつめている。	NO_LABEL
アトラクションにはレイジーリバー、キャノンボール、パイプラインなどがある。	あとらくしょんにわれいじーりばー、きゃのんぼーる、ぱいぷらいんなどがある。	NO_LABEL
食堂、ロッカー、更衣室、土産店が使える。	しょくどー、ろっかー、こーいしつ、みやげてんがつかえる。	NO_LABEL
