三嶋 一輝は、横浜DeNAベイスターズに所属する福岡県福岡市出身のプロ野球選手。	みしまいっきわ、よこはまでぃーえぬえーべいすたーずにしょぞくするふくおかけんふくおかししゅっしんのぷろやきゅーせんしゅ。	NO_LABEL
右投両打。	みぎとーりょーだ。	NO_LABEL
血液型はA型。	けつえきがたわえーがた。	NO_LABEL
福岡市立周船寺小学校6年生の時に少年野球チームで野球を始めるまでは、サッカーチームでボランチを務めていた。	ふくおかしりつすせんじしょうがっこーろくねんせいのときにしょーねんやきゅーちーむでやきゅーをはじめるまでわ、さっかーちーむでぼらんちをつとめていた。	NO_LABEL
福岡市立元岡中学校時代には軟式野球部に所属。	ふくおかしりつもとーかちゅうがっこーじだいにわなんしきやきゅーぶにしょぞく。	NO_LABEL
二塁手・三塁手兼控え投手を務めるが、目立った実績は無し。	NO_PRONOUNCE	NO_LABEL
投手時は、四球を連発していたが、強肩をかわれて捕手に。	とーしゅじわ、しきゅーをれんぱつしていたが、きょーけんをかわれてほしゅに。	NO_LABEL
私学強豪高のプレーを目指したが身長167cm、60kgの体格に自信も持てず、甲子園に出場した父の助言で福岡工業高校へ進学する。	しがくきょーごーだかのぷれーをめざしたがしんちょーひゃくろくじゅうななせんちめーとる、ろくじゅうきろぐらむのたいかくにじしんももてず、こーしえんにしゅつじょーしたちちのじょげんでふくおかこーぎょーこうこーえしんがくする。	NO_LABEL
福岡工業高進学後、1年秋から本格的に投手を始める。	ふくおかこーぎょーだかしんがくご、いちねんあきからほんかくてきにとーしゅをはじめる。	NO_LABEL
2年春にエースとなり、2年生の秋に139km/hだった球速を週1回の加圧式トレーニングと、毎日3時間の砂浜ランニングで下半身を鍛え上げて飛躍的に伸ばし、3年春九州大会準決勝の東福岡高校戦で最速147km/hをマークした。	NO_PRONOUNCE	NO_LABEL
その九州大会では34回50奪三振4失点の快投を演じ、奪三振率13.24を記録、初優勝を達成した。	NO_PRONOUNCE	NO_LABEL
3年夏は県大会5回戦で九国大付高校に延長14回、2-4でサヨナラ負け。	NO_PRONOUNCE	NO_LABEL
3年春の県大会3位、九州大会優勝が最高成績で、甲子園の出場経験は無し。	さんねんはるのけんたいかいさんい、きゅうしゅたいかいゆーしょーがさいこーせいせきで、こーしえんのしゅつじょーけいけんわなし。	NO_LABEL
高校時代は中島卓也が同学年だった。	こーこーじだいわなかしまたくやがどーがくねんだった。	NO_LABEL
法政大学進学後は野球部に所属し、1年春から東京六大学リーグ戦に出場。	ほーせいだいがくしんがくごわやきゅーぶにしょぞくし、いちねんはるからとーきょーろくだいがくりーぐせんにしゅつじょー。	NO_LABEL
開幕カードの立教大学3回戦で9回にリリーフで登板し、最速154km/hを計測、一場靖弘の持つ神宮記録に並び衝撃デビューを飾る。	NO_PRONOUNCE	NO_LABEL
1年春は抑えで起用され5試合7回で3勝をあげ、9奪三振無失点と活躍し法政大学のリーグ完全優勝に大きく貢献した。	NO_PRONOUNCE	NO_LABEL
大学選手権では準々決勝の日本文理大学戦の先発に抜擢されたが、制球に苦しみ1回1/3を2安打3四球2失点でノックアウト。	NO_PRONOUNCE	NO_LABEL
しかし二神一人、三上朋也らの活躍でチームは優勝する。	しかしふたがみかずひと、みかみともやらのかつやくでちーむわゆーしょーする。	NO_LABEL
その後は主にリリーフ起用で、1年秋の東京大学戦、2年春の立大戦で東京六大学最速の155km/hを記録、2年春に8試合で0勝1敗ながらも、規定投球回にギリギリ達し、23回を投げ自責点1で防御率0.39、最優秀防御率を獲得している。	NO_PRONOUNCE	NO_LABEL
2年秋になって先発での登板機会を増やし、加賀美希昇に次ぐ2番手として3勝、防御率2.20をマーク、3年春は主戦として期待されたが防御率2.88と好結果を残せず、終盤はリリーフ、三上朋也に次ぐ先発2番手で起用された。	NO_PRONOUNCE	NO_LABEL
3年秋はリリーフに戻り、防御率2.08。	NO_PRONOUNCE	NO_LABEL
12月には法大監督の金光興二率いる大学日本代表候補に選出され、松山市で行われた世界選手権の強化合宿に参加した。	じゅーにがつにわほーだいかんとくのかねみつこうじひきいるだいがくにほんだいひょーこーほにせんしゅつされ、まつやましでおこなわれたせかいせんしゅけんのきょーかがっしゅくにさんかした。	NO_LABEL
4年春は先発1番手を任され、開幕の慶応大学戦で延長10回12奪三振1失点の好投、立大戦で4安打1失点完投勝利も明治大学戦で6回6安打4四球で敗戦、翌日、翌々日と3連投し、続く中4日で迎えた6試合目の5月12日の早稲田大学戦で、右ヒジに違和感をおぼえ4回1/3で降板、戦線離脱となり1勝に留まった。	NO_PRONOUNCE	NO_LABEL
4年秋は再度フォームを見直し、左足の使い方を変えたことでタメを作れるようになり、ヒジが完治後、秋のオープン戦で149km/hを記録。	NO_PRONOUNCE	NO_LABEL
主戦をつとめ、40回1/3を投げて防御率0.89で最優秀防御率、4勝0敗と最多勝をあげる。	NO_PRONOUNCE	NO_LABEL
特に優勝がかかった明大との最終戦では志願して2戦連投で完投し、18回7安打奪三振18、自責点2と大活躍。	NO_PRONOUNCE	NO_LABEL
リーグ優勝に貢献し、ベストナインに満票で選出され、投手三冠を達成する。	りーぐゆうしょーにこーけんし、べすとないんにまんぴょーでせんしゅつされ、とーしゅさんかんをたっせいする。	NO_LABEL
東京六大学リーグ通算成績は54試合、13勝8敗、202奪三振、防御率1.71。	NO_PRONOUNCE	NO_LABEL
　打撃成績は大学通算で打率.206打点6を記録している。	NO_PRONOUNCE	NO_LABEL
2012年のプロ野球ドラフト会議で横浜DeNAベイスターズから2巡目で指名。	NO_PRONOUNCE	NO_LABEL
契約金8,000万円、年俸1,200万円という条件で入団した。	NO_PRONOUNCE	NO_LABEL
背番号は17。	NO_PRONOUNCE	NO_LABEL
ドラフト指名後の2012年11月に開かれた明治神宮野球大会では、2回戦で三重中京大学相手に16三振を奪って完封勝利を収めた。	NO_PRONOUNCE	NO_LABEL
準決勝の富士大学戦では、8回から救援で登板。	じゅんけっしょーのふじだいがくせんでわ、はっかいからきゅーえんでとーばん。	NO_LABEL
無安打に抑えると、チームも延長10回のタイブレークで勝利した。	むあんだにおさえると、ちーむもえんちょーじゅっかいのたいぶれーくでしょーりした。	NO_LABEL
桐蔭横浜大学との決勝では、6回3安打1失点と好投したが、味方打線が得点できなかったため準優勝に終わった。	とういんよこはまだいがくとのけっしょーでわ、ろっかいさんあんだいちしってんとこーとーしたが、みかただせんがとくてんできなかったためじゅんゆうしょーにおわった。	NO_LABEL
には、開幕から中継ぎ要員として一軍に帯同。	にわ、かいまくからなかつぎよーいんとしていちぐんにたいどー。	NO_LABEL
5月から先発ローテーションに定着すると、6月2日の対北海道日本ハムファイターズ戦でプロ初勝利を挙げた。	ごがつからせんぱつろーてーしょんにていちゃくすると、ろくがつふつかのたいほっかいどーにっぽんはむふぁいたーずせんでぷろはつしょーりをあげた。	NO_LABEL
その後もローテーションを守ったことから、オールスターゲームには、セントラル・リーグの監督推薦選手として初出場を果たした。	そのごもろーてーしょんをまもったことから、おーるすたーげーむにわ、せんとらるりーぐのかんとくすいせんせんしゅとしてはつしゅつじょーをはたした。	NO_LABEL
DeNAの新人選手によるオールスターゲームへの出場は、前身球団を含めても、の山下大輔以来39年振りであった。	でぃーえぬえーのしんじんせんしゅによるおーるすたーげーむえのしゅつじょーわ、ぜんしんきゅーだんをふくめても、のやましただいすけいらいさんじゅうきゅうねんふりであった。	NO_LABEL
レギュラーシーズンでは、二軍生活を一度も経験しないまま、一軍公式戦を6勝9敗で終えた。	れぎゅらーしーずんでわ、にぐんせいかつをいちどもけいけんしないまま、いちぐんこーしきせんをろくしょーきゅうはいでおえた。	NO_LABEL
シーズン通算の奪三振率は8.92で、セ・リーグの規定投球回に達した先発型のピッチャーでは最高に当たる。	NO_PRONOUNCE	NO_LABEL
奪三振数も、同リーグの新人投手では菅野智之の155個に次ぐ145個を記録。	NO_PRONOUNCE	NO_LABEL
7試合に登板した対阪神タイガース戦では、プロ初完投・初完封勝利を含む2勝、防御率0.91と好投した。	NO_PRONOUNCE	NO_LABEL
その一方で、与四球率はリーグ規定投球回到達投手のワースト、被本塁打はワースト2位であった。	そのいっぽーで、よしきゅーりつわりーぐきていとーきゅーかいとーたつとーしゅのわーすと、ひほんるいだわわーすとにーであった。	NO_LABEL
シーズン終了後の11月には、チームメイトの梶谷隆幸・同期入団の井納翔一とともに、台湾で催された「2013 BASEBALL CHALLENGE 日本 VS チャイニーズ・タイペイ」に日本代表として出場。	NO_PRONOUNCE	NO_LABEL
代表での初登板になった同月10日の最終戦では、先発投手として台湾打線を4イニング無失点に抑えた。	NO_PRONOUNCE	NO_LABEL
には、入団2年目にして、一軍公式戦の開幕投手に抜擢。	にわ、にゅーだんにねんめにして、いちぐんこーしきせんのかいまくとーしゅにばってき。	NO_LABEL
東京ヤクルトスワローズとのセ・リーグ開幕戦では、自身と同じ大卒2年目で、前年のリーグ新人王・最多勝利投手の小川泰弘と先発で対戦した。	NO_PRONOUNCE	NO_LABEL
しかし、大学の1年後輩で新人内野手の西浦直亨から本塁打を浴びるなど、1回裏だけで7失点。	しかし、だいがくのいちねんこーはいでしんじんないやしゅのにしうらなおみちからほんるいだをあびるなど、いっかいうらだけでななしってん。	NO_LABEL
結局、2回9失点で敗戦投手になった。	けっきょく、にかいきゅうしってんではいせんとーしゅになった。	NO_LABEL
その後も、4月25日の阪神戦で3回途中までに6点を失ってシーズン2敗目を記録するなど、先発登板で序盤に大量失点を喫することが続いた。	そのごも、しがつにじゅうごにちのはんしんせんでさんかいとちゅーまでにろってんをうしなってしーずんにはいめをきろくするなど、せんぱつとーばんでじょばんにたいりょーしってんをきっすることがつずいた。	NO_LABEL
このため、一軍に帯同したまま中継ぎに配置転換。	このため、いちぐんにたいどーしたままなかつぎにはいちてんかん。	NO_LABEL
しかし、5月8日の読売ジャイアンツ戦で2本塁打を浴びて3失点を喫したため、プロ入り後初めて出場選手登録を抹消された。	しかし、ごがつようかのよみうりじゃいあんつせんでにほんるいだをあびてさんしってんをきっしたため、ぷろいりごはじめてしゅつじょーせんしゅとーろくをまっしょーされた。	NO_LABEL
登録抹消後は、先発要員への復帰を目指して二軍で調整。	とーろくまっしょーごわ、せんぱつよーいんえのふっきをめざしてにぐんでちょーせい。	NO_LABEL
DeNAの公式戦141試合目であった10月3日の対巨人戦で先発投手として一軍に復帰すると、5回3失点ながら、この年のセ・パ両リーグの開幕投手では最も遅いシーズン初勝利を挙げた。	NO_PRONOUNCE	NO_LABEL
結局、一軍公式戦では、8試合の登板で1勝2敗、防御率10.88という成績に終わった。	NO_PRONOUNCE	NO_LABEL
には、2年連続の開幕投手起用はならなかったものの、開幕から一軍の先発ローテーションに定着。	にわ、にねんれんぞくのかいまくとーしゅきよーわならなかったものの、かいまくからいちぐんのせんぱつろーてーしょんにていちゃく。	NO_LABEL
前年から一転して、24歳最後の日であった5月6日の対ヤクルト戦までに3勝を挙げた。	ぜんねんからいってんして、にじゅうよんさいさいごのひであったごがつむいかのたいやくるとせんまでにさんしょーをあげた。	NO_LABEL
しかし、6月中旬からおよそ2ヶ月にわたって二軍で調整。	NO_PRONOUNCE	NO_LABEL
8月中旬から一軍の先発ローテーションへ復帰したものの、一軍公式戦での勝ち星は5勝にとどまった。	はちがつちゅーじゅんからいちぐんのせんぱつろーてーしょんえふっきしたものの、いちぐんこーしきせんでのかちぼしわごしょーにとどまった。	NO_LABEL
には、入団以来初めて、公式戦の開幕を二軍で迎えた。	にわ、にゅーだんいらいはじめて、こーしきせんのかいまくをにぐんでむかえた。	NO_LABEL
イースタン・リーグ公式戦では、18試合の登板でリーグの最終規定投球回へ到達するとともに、リーグ3位の勝利数と防御率をマーク。	いーすたんりーぐこーしきせんでわ、じゅうはちしあいのとーばんでりーぐのさいしゅーきていとーきゅーかいえとーたつするとともに、りーぐさんいのしょーりすーとぼーぎょりつをまーく。	NO_LABEL
8月31日の対広島東洋カープ戦に先発投手としてシーズン初の一軍マウンドを経験すると、9月7日の対ヤクルト戦で一軍でのシーズン唯一の勝利を挙げた。	はちがつさんじゅういちにちのたいひろしまとーよーかーぷせんにせんぱつとーしゅとしてしーずんはつのいちぐんまうんどをけいけんすると、くがつなのかのたいやくるとせんでいちぐんでのしーずんゆいいつのしょーりをあげた。	NO_LABEL
チームがレギュラーシーズン2位で初めて臨んだクライマックスシリーズでは、10月13日に広島とのファイナルステージ第2戦で先発に抜擢されたが、4回2/3を2失点という内容で敗戦投手になった。	NO_PRONOUNCE	NO_LABEL
には、2年連続で公式戦を二軍でスタート。	にわ、にねんれんぞくでこーしきせんをにぐんですたーと。	NO_LABEL
6月8日の対東北楽天ゴールデンイーグルス戦で、先発投手として一軍公式戦でのシーズン初登板を果たした。	ろくがつようかのたいとーほくらくてんごーるでんいーぐるすせんで、せんぱつとーしゅとしていちぐんこーしきせんでのしーずんはつとーばんをはたした。	NO_LABEL
しかし、楽天の1番打者・茂木栄五郎に初回先頭打者本塁打を浴びるなど、5回8失点の乱調で降板。	NO_PRONOUNCE	NO_LABEL
翌9日に出場選手登録を抹消されると、二軍で中継ぎ要員に転向した。	よくここのかにしゅつじょーせんしゅとーろくをまっしょーされると、にぐんでなかつぎよーいんにてんこーした。	NO_LABEL
7月25日の対阪神戦から、一軍公式戦15試合に救援で登板。	しちがつにじゅうごにちのたいはんしんせんから、いちぐんこーしきせんじゅうごしあいにきゅーえんでとーばん。	NO_LABEL
9月9日の同カード12回裏に鳥谷敬から一軍公式戦通算2001安打をサヨナラ安打で記録されるなど、先発でも救援でも精彩を欠いた結果、プロ入り後初めて一軍で勝ち星を挙げられずにレギュラーシーズンを終えた。	NO_PRONOUNCE	NO_LABEL
チームのレギュラーシーズン3位によって2年連続で迎えたポストシーズンには、先発投手が序盤で崩れた局面に限っての起用を前提に、一軍へ引き続き帯同。	ちーむのれぎゅらーしーずんさんいによってにねんれんぞくでむかえたぽすとしーずんにわ、せんぱつとーしゅがじょばんでくずれたきょくめんにかぎってのきよーをぜんていに、いちぐんえひきつずきたいどー。	NO_LABEL
広島とのCSファイナルステージ第5戦には、先発投手の石田健大が1回裏に2点を先制されたことによる2回裏からの救援登板で、2イニングを無失点に抑えた。	NO_PRONOUNCE	NO_LABEL
チームは、三嶋の登板中に逆転すると、9 - 3というスコアで大勝したことによってセ・リーグ優勝の以来19年振りの日本シリーズ進出を決定。	NO_PRONOUNCE	NO_LABEL
三嶋自身も、この年のCS唯一の登板ながら、前年のCSと同じマツダスタジアムのマウンドで広島から2年越しの白星を挙げた。	みしまじしんも、このとしのくれでぃすいすゆいいつのとーばんながら、ぜんねんのくれでぃすいすとおなじまつだすたじあむのまうんどでひろしまからにねんごしのしろぼしをあげた。	NO_LABEL
ノーワインドアップからインステップ気味に踏み込み、スリークォーターから平均球速約144km/h、最速155km/hの切れの良いストレートを投げ込む。	NO_PRONOUNCE	NO_LABEL
変化球は130km/h台の鋭い横のスライダー、120km/h台の落差ある縦のスライダーを軸に、精度は見劣りするがカーブやフォークボールなども持つ。	NO_PRONOUNCE	NO_LABEL
2015年からはチェンジアップを使用し始めた。	にせんじゅうごねんからわちぇんじあっぷをしよーしはじめた。	NO_LABEL
打者としては、小学6年生で野球を始めて以来のスイッチヒッター。	だしゃとしてわ、しょーがくろくねんせいでやきゅーをはじめていらいのすいっちひったー。	NO_LABEL
法政大学時代には、主戦投手として活躍しながら、東京六大学野球のリーグ戦で左・右の両打席から長打を放った経験を持つ。	NO_PRONOUNCE	NO_LABEL
プロ入り後も「右投両打」で登録している。	NO_PRONOUNCE	NO_LABEL
