emは、出版において使用される長さの単位である。	いーえむわ、しゅっぱんにおいてしよーされるながさのたんいである。	NO_LABEL
文字の大きさを表す。	もじのおーきさをあらわす。	NO_LABEL
名称の由来は大文字M。	NO_PRONOUNCE	NO_LABEL
Mの活字が縦横いっぱいの空間を占めることから、文字の大きさの基準となったとされる。	NO_PRONOUNCE	NO_LABEL
現代では文字の高さと同じ幅と定義され、和文組版では全角幅に等しい。	げんだいでわもじのたかさとおなじはばとていぎされ、わぶんくみはんでわぜんかくはばにひとしい。	NO_LABEL
