三島 有紀子は、日本の映画監督、脚本家。	みしまゆきこわ、にっぽんのえいがかんとく、きゃくほんか。	NO_LABEL
大阪府・北新地生まれ。	NO_PRONOUNCE	NO_LABEL
名前は父が付けた本名であり、三島由紀夫に由来する。	なまえわちちがつけたほんみょーであり、みしまゆきおにゆらいする。	NO_LABEL
4歳から近所の名画座に通い、小学生の頃にはすでに映画監督を志していた。	よんさいからきんじょのめいがざにかよい、しょーがくせいのころにわすでにえいがかんとくをこころざしていた。	NO_LABEL
大阪府立豊中高等学校時代に演劇に目覚める。	おーさかふりつとよなかこーとーがっこーじだいにえんげきにめざめる。	NO_LABEL
神戸女学院大学文学部在籍中に、アルバイトで貯めた資金で自主映画『夢を見ようよ』で脚本監督。	NO_PRONOUNCE	NO_LABEL
大学卒業後、1992年にNHKに入局。	だいがくそつぎょーご、せんきゅうひゃくきゅうじゅうにねんにえぬえいちけいににゅーきょく。	NO_LABEL
『NHKスペシャル』『トップランナー』などのドキュメンタリー作品を企画・監督。	NO_PRONOUNCE	NO_LABEL
劇映画を撮るため退局後、東映京都撮影所などで助監督、脚本執筆などを経て『刺青 匂ひ月のごとく』で映画監督デビュー。	NO_PRONOUNCE	NO_LABEL
脚本を担当した『世界がお前を呼ばないなら』が2009年サンダンス・NHK国際映像作家賞の優秀作品に選出される。	NO_PRONOUNCE	NO_LABEL
『しあわせのパン』、『ぶどうのなみだ』と、オリジナル脚本・監督で作品を発表。	NO_PRONOUNCE	NO_LABEL
『ぶどうのなみだ』は第38回モントリオール世界映画祭のワールド・グレイツ部門に招待された。	NO_PRONOUNCE	NO_LABEL
10年越しで自ら企画した『繕い裁つ人』は、第16回全州国際映画祭、第18回上海国際映画祭日本映画週間に招待され、韓国や台湾でも公開された。	NO_PRONOUNCE	NO_LABEL
2016年に公開の『少女』も、香港、台湾で公開され、フィリピンでもリリース予定。	NO_PRONOUNCE	NO_LABEL
桜木紫乃原作のダークミステリー『硝子の葦』など次々と新境地を開拓している。	NO_PRONOUNCE	NO_LABEL
2017年、『幼な子われらに生まれ』が第41回モントリオール世界映画祭で、最高賞のグランプリに次ぐ審査員特別グランプリを受賞。	NO_PRONOUNCE	NO_LABEL
第42回報知映画賞では監督賞を受賞。	だいよんじゅうにかいほーちえいがしょーでわかんとくしょーをじゅしょー。	NO_LABEL
女性監督の受賞は西川美和監督以来2人目。	じょせいかんとくのじゅしょーわにしかわみわかんとくいらいふたりめ。	NO_LABEL
ほか、多数。	ほか、たすー。	NO_LABEL
ほか多数	ほかたすー	NO_LABEL
