広島テレビ放送株式会社は、広島県を放送対象地域としたテレビジョン放送事業を行っている、特定地上基幹放送事業者である。	ひろしまてれびほーそーかぶしきがいしゃわ、ひろしまけんをほーそーたいしょーちーきとしたてれびじょんほうそーじぎょーをおこなっている、とくていちじょーきかんほーそーじぎょーしゃである。	NO_LABEL
通称は広島テレビ、愛称は『広テレ』。	NO_PRONOUNCE	NO_LABEL
広島県第2波局として開局。	NO_PRONOUNCE	NO_LABEL
日本テレビ系列の基幹局で、中四国の系列局の中で最も新しい放送局である。	にほんてれびけいれつのきかんきょくで、ちゅーしこくのけいれつきょくのなかでもっともあたらしいほーそーきょくである。	NO_LABEL
1975年9月までFNN・FNS系列の放送局で、産経新聞・フジテレビ等との資本関係もあった。	NO_PRONOUNCE	NO_LABEL
しかし、1975年10月にテレビ新広島が開局したためFNN・FNSを脱退している。	NO_PRONOUNCE	NO_LABEL
日テレ系なので系列新聞は読売新聞であるが地元の中国新聞とも関係がある。	にってれけいなのでけいれつしんぶんわよみうりしんぶんであるがじもとのちゅーごくしんぶんともかんけいがある。	NO_LABEL
全国各地の系列局が参加している「子育て応援団」事務局の運営を行っている。	NO_PRONOUNCE	NO_LABEL
日本テレビは直接参加していない一方、クロスネット局の福井放送・テレビ大分・テレビ宮崎も参加している。	NO_PRONOUNCE	NO_LABEL
広域圏の地域は読売テレビ・中京テレビが参加。	NO_PRONOUNCE	NO_LABEL
系列局のない佐賀県は福岡放送が福岡県と兼務し、沖縄県は琉球朝日放送が参加している。	けいれつきょくのないさがけんわふくおかほーそーがふくおかけんとけんむし、おきなわけんわりゅーきゅーあさひほーそーがさんかしている。	NO_LABEL
企業・団体の名称、個人の肩書は当時のもの。	NO_PRONOUNCE	NO_LABEL
出典：	NO_PRONOUNCE	NO_LABEL
2011年7月24日停波時点	にせんじゅういちねんしちがつにじゅうよっかとまなみじてん	NO_LABEL
広島県内に本社を置くケーブルテレビ局では、すべてのケーブルテレビ局でテレビが再送信されている。	ひろしまけんないにほんしゃをおくけーぶるてれびきょくでわ、すべてのけーぶるてれびきょくでてれびがさいそーしんされている。	NO_LABEL
県外では以下のケーブルテレビでテレビが再送信されている。	けんがいでわいかのけーぶるてれびでてれびがさいそーしんされている。	NO_LABEL
以前は、以下のケーブルテレビでも区域外再送信が行われていた。	いぜんわ、いかのけーぶるてれびでもくいきがいさいそーしんがおこなわれていた。	NO_LABEL
中国・四国地方NNN系列局にネット	ちゅーごくしこくちほーえぬえぬえぬけいれつきょくにねっと	NO_LABEL
現在はレギュラーでの全国ネット番組の制作は行われていない。	げんざいわれぎゅらーでのぜんこくねっとばんぐみのせいさくわおこなわれていない。	NO_LABEL
ほか	ほか	NO_LABEL
2012年末を持って海外ドラマは韓国制作・米国制作とも放送を行わなかったが、2013年10月27日深夜から台湾ドラマ『結婚って、幸せですか』で再開された。	NO_PRONOUNCE	NO_LABEL
スタジオは一部除いてハイビジョンに対応しており、スタジオ映像をハイビジョンでNNN各局へ配信できるようになっている。	すたじおわいちぶのぞいてはいびじょんにたいおーしており、すたじおえいぞーをはいびじょんでえぬえぬえぬかくきょくえはいしんできるよーになっている。	NO_LABEL
ほか多数	ほかたすー	NO_LABEL
★は、TSSへ移行した番組。	NO_PRONOUNCE	NO_LABEL
☆は本放送終了後、TSSでも再放送された番組。	NO_PRONOUNCE	NO_LABEL
UHTの火曜と木曜のゴールデンタイムは、開局以来日本テレビ系番組を放送していた。	ゆーえいちてぃーのかよーともくよーのごーるでんたいむわ、かいきょくいらいにほんてれびけいばんぐみをほーそーしていた。	NO_LABEL
なお、NET・MBS系の一般番組は、大部分がRCC・UHTで放送されていたため、上記の通り両局の編成から外れたMBS制作分を中心に遅れネットで放送した。	NO_PRONOUNCE	NO_LABEL
また、1969年には当時同じ日本テレビ系列でもあった名古屋テレビ製作のアニメ「六法やぶれクン」が同時ネットされていた。	NO_PRONOUNCE	NO_LABEL
※いずれもHD対応カメラ	NO_PRONOUNCE	NO_LABEL
終夜放送開始前1982年〜1992年の新館使用開始?	NO_PRONOUNCE	NO_LABEL
終夜放送開始前1992年の新館使用開始?〜1999年5月9日	NO_PRONOUNCE	NO_LABEL
現在 1999年5月10日のNNN24ネット開始〜	NO_PRONOUNCE	NO_LABEL
※なお、日テレNEWS24放送前に天気予報を放送している。	NO_PRONOUNCE	NO_LABEL
過去	かこ	NO_LABEL
