数学の集合論における、ジェネリックフィルター	すーがくのしゅーごーろんにおける、じぇねりっくふぃるたー	NO_LABEL
とは、強制法の理論で使われる対象の一種で、	とわ、きょーせいほーのりろんでつかわれるたいしょーのいっしゅで、	NO_LABEL
そのテクニックはいろんな目的に使われるが、特に、何かしらの命題の	そのてくにっくわいろんなもくてきにつかわれるが、とくに、なにかしらのめいだいの	NO_LABEL
ZFCのような形式的な理論からの独立性を示すのに使われる。	NO_PRONOUNCE	NO_LABEL
例えば、ポール・コーエンはZFCが無矛盾であれば	NO_PRONOUNCE	NO_LABEL
連続体仮説	れんぞくたいかせつ	NO_LABEL
を証明することができないということを示すのに使った。	をしょーめいすることができないとゆうことをしめすのにつかった。	NO_LABEL
コーエンの証明は、formula_1 の値を変えることなしに、	NO_PRONOUNCE	NO_LABEL
formula_1 より多くの実数を生成する	NO_PRONOUNCE	NO_LABEL
ジェネリックフィルターを構成することによって為された。	じぇねりっくふぃるたーをこーせいすることによってなされた。	NO_LABEL
形式的には、"P" を半順序として、"F" を "P" 上のフィルターとする。	NO_PRONOUNCE	NO_LABEL
すなわち、"F" は "P" の部分集合で、	NO_PRONOUNCE	NO_LABEL
を満たす。	をみたす。	NO_LABEL
"D" を "P" の稠密部分集合の族とする。	NO_PRONOUNCE	NO_LABEL
フィルター"F" が "D"-ジェネリック であるとは、"F" が "D"の要素の全てと交わりを持つこと、	NO_PRONOUNCE	NO_LABEL
すなわち、	すなわち、	NO_LABEL
となることである。	となることである。	NO_LABEL
同様に、"M" がZFCの推移モデルで、	NO_PRONOUNCE	NO_LABEL
"P" が "M" の要素であるとき、"F" が "M"上ジェネリックであるとは、	NO_PRONOUNCE	NO_LABEL
"D" を "P" の稠密開部分集合とすると、	NO_PRONOUNCE	NO_LABEL
となることである。	となることである。	NO_LABEL
