ニュー全日本女子プロレスは、日本の女子プロレス興行。	にゅーぜんにほんじょしぷろれすわ、にっぽんのじょしぷろれすこーぎょー。	NO_LABEL
運営は田島企画。	うんえいわたじまきかく。	NO_LABEL
全日本女子プロレスが解散した翌年の2006年6月に設立。	ぜんにほんじょしぷろれすがかいさんしたよくねんのにせんろくねんろくがつにせつりつ。	NO_LABEL
7月28日、館林市民体育館で旗揚げ戦を開催。	しちがつにじゅうはちにち、たてばやししみんたいいくかんではたあげせんをかいさい。	NO_LABEL
設立当初は旧全日本女子の会長だった松永高司はニュー全日本女子との関係について否定していたが後に松永家より許可をもらい「ニュー」を外した「全日本女子プロレス」を正式な興行名とする。	NO_PRONOUNCE	NO_LABEL
ただしメディアなどでは従来通り「ニュー全日本女子プロレス」として呼ばれている。	NO_PRONOUNCE	NO_LABEL
興行は不定期で東日本での地方興行として開催している。	こーぎょーわふていきでひがしにっぽんでのちほーこーぎょーとしてかいさいしている。	NO_LABEL
