ドン・ベニート。	どんべにーと。	NO_LABEL
近接するビジャヌエバ・デ・ラ・セレーナとともに都市圏を形成している。	きんせつするびじゃぬえばでらせれーなとともにとしけんをけいせいしている。	NO_LABEL
ローマ時代から定住地があったとされるが、1420年代まで定住地の存在について文献上に記録はない。	ろーまじだいからていじゅーちがあったとされるが、せんよんひゃくにじゅうねんだいまでていじゅーちのそんざいについてぶんけんじょーにきろくわない。	NO_LABEL
町の最古の記録は1494年のものである。	まちのさいこのきろくわせんよんひゃくきゅうじゅうよんねんのものである。	NO_LABEL
15世紀から16世紀にかけて人口が増加した。	じゅうごせいきからじゅうろくせいきにかけてじんこーがぞーかした。	NO_LABEL
この時代の経済活動は農業が中心だったが、メスタ創設後は畜産が主となり、大農場の所有者たちが新たな地主制度を創設した。	このじだいのけいざいかつどーわのーぎょーがちゅーしんだったが、めすたそーせつごわちくさんがおもとなり、だいのーじょーのしょゆーしゃたちがあらたなじぬしせいどをそーせつした。	NO_LABEL
1550年3月7日、カルロス1世がドン・ベニートに初の自治体条例を授け、1591年の王国による調査では人口4,239人を数えた。	NO_PRONOUNCE	NO_LABEL
近代にも急速に人口が増えたが、17世紀には黒死病流行、洪水、イナゴの大発生、旱魃といった災難で多くの人口が失われた。	きんだいにもきゅーそくにじんこーがふえたが、じゅうしちせいきにわこくしびょーりゅーこー、こーずい、いなごのだいはっせい、かんばつといったさいなんでおーくのじんこーがうしなわれた。	NO_LABEL
1856年、イサベル2世によって都市の称号を授けられた。	せんはっぴゃくごじゅうろくねん、いさべるにせいによってとしのしょーごーをさずけられた。	NO_LABEL
