ジョアン・ベルナルド・デ・ミランダは、アンゴラの政治家。	じょあんべるなるどでみらんだわ、あんごらのせいじか。	NO_LABEL
1999年からアンゴラ外務大臣。	せんきゅうひゃくきゅうじゅうきゅうねんからあんごらがいむだいじん。	NO_LABEL
ジャーナリズム、国際関係、法律などを学び、アンゴラ解放人民運動において主にラジオやジャーナリズム、プロパガンダの方面で活躍。	じゃーなりずむ、こくさいかんけい、ほーりつなどをまなび、あんごらかいほーじんみんうんどーにおいておもにらじおやじゃーなりずむ、ぷろぱがんだのほーめんでかつやく。	NO_LABEL
2006年8月3日来日し、町村信孝外務大臣と会談している。	にせんろくねんはちがつみっからいにちし、まちむらのぶたかがいむだいじんとかいだんしている。	NO_LABEL
