金精神社は、栃木県日光市と群馬県利根郡片品村の境にある金精峠に鎮座する神社である。	こんせいじんじゃわ、とちぎけんにっこーしとぐんまけんとねぐんかたしなむらのさかいにあるこんせいとーげにちんざするじんじゃである。	NO_LABEL
標高2024mの金精峠に鎮座する金精神社は、石の男根を御神体とする金精神を祀った神社である。	NO_PRONOUNCE	NO_LABEL
子宝、安産、子孫繁栄に霊験があるとされている。	こだから、あんざん、しそんはんえいにれいけんがあるとされている。	NO_LABEL
金精神社の由来は、「生きた金精様」といわれていた道鏡の巨根にある。	NO_PRONOUNCE	NO_LABEL
奈良時代、女帝の孝謙天皇は巨陰であったため並の男根では満足できなかった。	ならじだい、にょていのこーけんてんのーわきょーかげであったためなみのだんこんでわまんぞくできなかった。	NO_LABEL
そのため、孝謙天皇は巨根の藤原仲麻呂を重用していたが、道鏡の修法により病気が治ると更に巨根である道鏡を寵愛するようになった。	そのため、こーけんてんのーわきょこんのふじわらのなかまろをじゅーよーしていたが、どーきょーのしゅほーによりびょーきがなおるとさらにきょこんであるどーきょーをちょーあいするよーになった。	NO_LABEL
しかし、孝謙天皇の崩御後、道鏡は皇位を窺った罪で下野薬師寺別当に左遷されてしまう。	しかし、こーけんてんのーのほーぎょご、どーきょーわこーいをうかがったつみでげややくしじべっとーにさせんされてしまう。	NO_LABEL
大きく重い男根を持つ道鏡にとって、下野薬師寺までの旅は過酷なものであり、特に上野国より下野国への峠越えはとても厳しいものであった。	おーきくおもいだんこんをもつどーきょーにとって、げややくしじまでのたびわかこくなものであり、とくにこうずけのくによりしもつけのくにえのとーげこえわとてもきびしいものであった。	NO_LABEL
道鏡はあまりにも自分の男根が大きく重かったため峠で自分の男根を切り落としてしまったとも、孝謙天皇に捧げるつもりで峠で自分の男根を切り落としてしまったともいわれている。	どーきょーわあまりにもじぶんのだんこんがおーきくおもかったためとーげでじぶんのだんこんをきりおとしてしまったとも、こーけんてんのーにささげるつもりでとーげでじぶんのだんこんをきりおとしてしまったともいわれている。	NO_LABEL
その切り落とした道鏡の男根を「金精様」として峠に祀ったのが、金精神社の始まりとされる。	NO_PRONOUNCE	NO_LABEL
由来は道鏡の巨根伝説と東北地方から関東地方にかけての地域に多くみられる金精神信仰が結びついたものである。	ゆらいわどーきょーのきょこんでんせつととーほくちほーからかんとーちほーにかけてのちいきにおーくみられるこんせいしんしんこーがむすびついたものである。	NO_LABEL
金精神社が鎮座する金精峠は、標高が2024mあり、標高2244mの金精山と標高2333mの温泉ヶ岳との鞍部にあたる。	NO_PRONOUNCE	NO_LABEL
標高1840mの峠下には国道120号の金精トンネルがあり、トンネルの日光市側入口にある駐車場から峠の金精神社までは登山道を約30分ほど登る。	しるべこーいちはっぴゃくよんじゅうめーとるのたおしたにわこくどーひゃくにじゅうごーのこんせいとんねるがあり、とんねるのにっこーしがわいりぐちにあるちゅーしゃじょーからとーげのこんせいじんじゃまでわとざんどーをやくさんじゅっぷんほどのぼる。	NO_LABEL
なお、トンネル駐車場までの公共交通機関はない。	なお、とんねるちゅーしゃじょーまでのこーきょーこーつーきかんわない。	NO_LABEL
標高2024mの金精峠に鎮座する金精神社は参拝が容易ではないため、栃木県や群馬県を中心として各地に勧請されている。	NO_PRONOUNCE	NO_LABEL
特に群馬県利根郡片品村にある白根魚苑の金精神社は、かつて金精峠に祀られていた石の男根の一つを移して御神体として祀っている。	とくにぐんまけんとねぐんかたしなむらにあるしらねぎょえんのこんせいじんじゃわ、かつてこんせいとーげにまつられていたいしのだんこんのひとつをうつしてごしんたいとしてまつっている。	NO_LABEL
