朝宮 咲は、日本の女性声優。	あさみやさきわ、にっぽんのじょせいせいゆー。	NO_LABEL
主にアダルトゲームに声をあてている。	おもにあだるとげーむにこえをあてている。	NO_LABEL
役柄は正統派のヒロインからロリータ系、おてんば系、お姉さん系、動物など幅広い役の声を演じている。	やくがらわせいとーはのひろいんからろりーたけい、おてんばけい、おねーさんけい、どーぶつなどはばひろいやくのこえをえんじている。	NO_LABEL
※ 太字はメインヒロイン格。	NO_PRONOUNCE	NO_LABEL
