テクニカラーは、フランス・パリに本社を置くマルチメディア・家電企業。	NO_PRONOUNCE	NO_LABEL
旧名はトムソン社、トムソン・マルチメディア。	NO_PRONOUNCE	NO_LABEL
ユーロネクスト・パリに株式を上場しており、またOTCピンクでも株式が取引されている。	ゆーろねくすとぱりにかぶしきをじょーじょーしており、またおーてぃーしーぴんくでもかぶしきがとりひきされている。	NO_LABEL
MP3フォーマットの特許とライセンスを保持している。	えむぴーすりーふぉーまっとのとっきょとらいせんすをほじしている。	NO_LABEL
またDVDフォーラムやBlu-ray Disc Associationの創立メンバーに名を連ね、映像分野において世界的に影響力を持つ企業である。	NO_PRONOUNCE	NO_LABEL
米国ではRCAのブランドで家電事業を行っている。	べいこくでわあーるしーえーのぶらんどでかでんじぎょーをおこなっている。	NO_LABEL
また、放送機器はグラスバレー、映画関連機器はテクニカラーのブランド名で全世界で事業を行っていた。	また、ほーそーききわぐらすばれー、えいがかんれんききわてくにからーのぶらんどめいでぜんせかいでじぎょーをおこなっていた。	NO_LABEL
2010年1月に社名をトムソンからテクニカラーに変更した。	にせんじゅうねんいちがつにしゃめいをとむそんからてくにからーにへんこーした。	NO_LABEL
なお、情報サービス業のトムソンや、ニードルベアリングやメカトロニクスの日本トムソンとの関連性はない。	なお、じょーほーさーびすぎょーのとむそんや、にーどるべありんぐやめかとろにくすのにほんとむそんとのかんれんせいわない。	NO_LABEL
1853年にイングランドのマンチェスターで生まれた発明家エリフ・トムソンは、5歳でアメリカ合衆国フィラデルフィアに家族と共に移住し、その後1880年、エドウィン・J・ヒューストンと共にトムソン・ヒューストン社を創業。	NO_PRONOUNCE	NO_LABEL
1892年、同社がエジソン総合電気社と合併し、ゼネラル・エレクトリック社となった。	せんはっぴゃくきゅうじゅうにねん、どーしゃがえじそんそーごーでんきしゃとがっぺいし、ぜねらるえれくとりっくしゃとなった。	NO_LABEL
1893年、フランス・パリでトムソン・ヒューストン・フランチャイズ社がゼネラル・エレクトリックの関連会社として創業された。	NO_PRONOUNCE	NO_LABEL
1966年にオチキス・ブラントと合併し、トムソン・ヒューストン・オチキス・ブラント社となり、またすぐにトムソン・ブラントと改名した。	NO_PRONOUNCE	NO_LABEL
トムソン・ブラントの電機部門は無線電信公社と合併し、社となった。	NO_PRONOUNCE	NO_LABEL
1982年にトムソン・ブラントとトムソンCSFは共に社会党ミッテラン大統領政権下で国営化された。	NO_PRONOUNCE	NO_LABEL
トムソン・ブラントはトムソンSAと改称され、トムソンCSFと再合併した。	NO_PRONOUNCE	NO_LABEL
1988年、傘下のトムソン・コンスーマーエレクトロニクスはGEからRCAおよびGEブランドのテレビや他の家電製品の製造販売権を獲得し、交換として医療機器事業をGEに譲渡した。	NO_PRONOUNCE	NO_LABEL
関連商品のGEブランドは3年間、RCAブランドは永久使用を条件とした。	かんれんしょーひんのじーいーぶらんどわさんねんかん、あーるしーえーぶらんどわえいきゅーしよーをじょーけんとした。	NO_LABEL
1995年、フランス政府はトムソンの家電部門と防衛産業部門を分離、1999年に民営化をした。	せんきゅうひゃくきゅうじゅうごねん、ふらんすせいふわとむそんのかでんぶもんとぼーえいさんぎょーぶもんをぶんり、せんきゅうひゃくきゅうじゅうきゅうねんにみんえいかをした。	NO_LABEL
トムソンCSF社は2000年にイギリスの防衛機器企業レイカルを買収しタレス・グループに改称。	とむそんしーえすえふしゃわにせんねんにいぎりすのぼーえいきききぎょーれいかるをばいしゅーしたれすぐるーぷにかいしょー。	NO_LABEL
2004年に中華人民共和国のTCLグループと合弁企業「TTE」を設立、RCAブランドとトムソンのテレビ・DVD生産事業を担当させる。	NO_PRONOUNCE	NO_LABEL
TTEはテレビ生産で国際的・飛躍的に成長し、2005年にはトムソンは販売権もTTEに譲渡した。	NO_PRONOUNCE	NO_LABEL
さらにトムソンはインドのにブラウン管生産事業を売却。	さらにとむそんわいんどのにぶらうんかんせいさんじぎょーをばいきゃく。	NO_LABEL
2006年にはTTEのフランス拠点を閉鎖し、欧州市場向けトムソンブランドのテレビ生産を中止した。	にせんろくねんにわてぃーてぃーいーのふらんすきょてんをへいさし、おーしゅーしじょーむけとむそんぶらんどのてれびせいさんをちゅーしした。	NO_LABEL
2000年にトムソン・マルチメディアはイギリスのカールトン・テレビジョンからテクニカラー社を買収、放送管理・施設機器事業に参入した。	NO_PRONOUNCE	NO_LABEL
2002年にはグラスバレー・グループを買収。	NO_PRONOUNCE	NO_LABEL
さらにITVからムービング・ピクチャー・カンパニーを買収。	NO_PRONOUNCE	NO_LABEL
2004年にはPRNも買収。	NO_PRONOUNCE	NO_LABEL
2005年にタレス・グループから放送・マルチメディア機器部門を買い戻した。	NO_PRONOUNCE	NO_LABEL
2009年に財務状況が悪化し、倒産を避けるための合理化案としてグラスバレーとPRNの売却を示唆した。	NO_PRONOUNCE	NO_LABEL
2010年にはテクニカラーに社名を変更。	にせんじゅうねんにわてくにからーにしゃめいをへんこー。	NO_LABEL
多角化した子会社への投資縮小を行ない、グラスバレー及び放送機器は投資ファンドのフランシスコ・パートナーズに売却した	NO_PRONOUNCE	NO_LABEL
PRNを含む放送事業は仏系投資ファンドFCDEに売却した。	NO_PRONOUNCE	NO_LABEL
近年、トムソンブランドでの家電製品の販売を再開。	きんねん、とむそんぶらんどでのかでんせいひんのはんばいをさいかい。	NO_LABEL
2012年、投資集団のベクター・キャピタルがテクニカラーに16.7億-19.1億ユーロの規模で資本注入を受ける。	NO_PRONOUNCE	NO_LABEL
ベクター・キャピタルから取締役を受入れた。	NO_PRONOUNCE	NO_LABEL
