道残は、日本の戦国時代の浄土宗の僧侶。	どうざんわ、にっぽんのせんごくじだいのじょーどしゅーのそーりょ。	NO_LABEL
清浄華院第32代法主のち金戒光明寺の第22代法主。	しょうじょうけいんだいさんじゅうにだいほっしゅのちこんかいこーみょーじのだいにじゅうにだいほっしゅ。	NO_LABEL
道残源立の名でも知られる。	どうざんげんりつのなでもしられる。	NO_LABEL
生年は不明だが、武蔵国の出身であるとされる。	せいねんわふめいだが、むさしのくにのしゅっしんであるとされる。	NO_LABEL
初めは大沢円通寺の良迦に師事して出家し、諸国を歩いて布教していたが、敦賀西福寺の亮叡に招かれ住持となった。	NO_PRONOUNCE	NO_LABEL
天正7年には織田信長の命で浄厳院にて貞安と共に日蓮宗の日珖らを相手に宗論をし、勝利している。	NO_PRONOUNCE	NO_LABEL
天正15年には清浄華院の第32代法主となった。	てんしょーじゅうごねんにわしょうじょうけいんのだいさんじゅうにだいほっしゅとなった。	NO_LABEL
晩年は清浄華院を離れて金戒光明寺の第22代法主となり、発展に尽力した。	ばんねんわしょうじょうけいんをはなれてこんかいこーみょーじのだいにじゅうにだいほっしゅとなり、はってんにじんりょくした。	NO_LABEL
文禄2年9月23日、隠棲先の敦賀西福寺にて死去。	ぶんろくにねんくがつにじゅうさんにち、いんせいさきのつるがさいふくじにてしきょ。	NO_LABEL
