株式会社エル商会は、かつて横浜市に存在した日本の家電量販店である。	かぶしきがいしゃえるしょーかいわ、かつてよこはましにそんざいしたにっぽんのかでんりょーはんてんである。	NO_LABEL
屋号としての表記は「L商会」。	NO_PRONOUNCE	NO_LABEL
1953年創業。	せんきゅうひゃくごじゅうさんねんそーぎょー。	NO_LABEL
1956年4月、株式会社丸栄商会として設立。	せんきゅうひゃくごじゅうろくねんしがつ、かぶしきがいしゃまるえいしょーかいとしてせつりつ。	NO_LABEL
1987年5月、株式会社エル商会へ商号変更。	せんきゅうひゃくはちじゅうななねごがつ、かぶしきがいしゃえるしょーかいえしょーごーへんこー。	NO_LABEL
「県下ナンバーワンの電化店」をキャッチフレーズとして多店舗展開を行い1997年11月に40店舗まで拡大した。	NO_PRONOUNCE	NO_LABEL
店舗面積150坪程度の小型店を中心とした店舗展開で、物流センターとPOSシステムを活用し、横浜市内とその周辺部では即日配達を実現し、ピーク時の1997年3月期に223億円を売り上げた。	NO_PRONOUNCE	NO_LABEL
1992年の大店法改正による規制緩和により、1995年コジマがエル商会の登記本店である「電化のL長者町店」の至近に出店するなど、大手家電量販店が県内に相次いで進出し、競争が激化。	NO_PRONOUNCE	NO_LABEL
加えてパソコンなどの情報機器販売への取り組みに出遅れたのも打撃となった。	くわえてぱそこんなどのじょーほーききはんばいえのとりくみにでおくれたのもだげきとなった。	NO_LABEL
後にパソコンコーナーの「LMO」を導入するが、対応の遅れを挽回することはできなかった。	NO_PRONOUNCE	NO_LABEL
店舗面積や品揃えで大手に劣るエル商会の売上は次第に減少し、年商は1998年3月期が201億4,400万円、1999年3月期が179億2,500万円へ減少した。	NO_PRONOUNCE	NO_LABEL
2000年1月28日からの4日間、現金での支払いに限り店内全品20％引きセールを行った。	NO_PRONOUNCE	NO_LABEL
翌月の自己破産に向けた現金確保と見られる。	よくげつのじこはさんにむけたげんきんかくほとみられる。	NO_LABEL
2月1日、横浜地裁へ自己破産を申請し、2月4日同地裁より破産宣告を受けた。	にがつついたち、よこはまちさいえじこはさんをしんせいし、にがつよっかどーちさいよりはさんせんこくをうけた。	NO_LABEL
負債額は90億6,832万円。	NO_PRONOUNCE	NO_LABEL
FMヨコハマやアール・エフ・ラジオ日本、ニッポン放送を中心にラジオでコマーシャルし、社名「♪エ・ル・商～会」を歌うジングルは県内ではよく知られていた。	NO_PRONOUNCE	NO_LABEL
1990年代はテレビでもコマーシャルし、テレビ神奈川やテレビ東京で放映されていた。	せんきゅうひゃくきゅうじゅうねんだいわてれびでもこまーしゃるし、てれびかながわやてれびとーきょーでほーえいされていた。	NO_LABEL
一時は日本テレビ「ルックルックこんにちは」の時間帯も放映された。	NO_PRONOUNCE	NO_LABEL
朝日新聞神奈川版にゴールデンウィークやボーナスシーズンの土曜日に広告を出していた。	あさひしんぶんかながわばんにごーるでんうぃーくやぼーなすしーずんのどよーびにこーこくをだしていた。	NO_LABEL
京浜急行電鉄、相模鉄道、横浜新都市交通などの列車ドアに貼付される手指の巻き込みを注意するステッカーの下部に、多く出広していた。	けいひんきゅーこーでんてつ、さがみてつどー、よこはましんとしこうつーなどのれっしゃどあにちょーふされるてゆびのまきこみをちゅーいするすてっかーのかぶに、おーくでひろしていた。	NO_LABEL
一時は、釣り具の上州屋に変わったが閉店をし、現在はサンクス多摩一の宮店に変わった。	いちじわ、つりぐのじょうしゅーやにかわったがへいてんをし、げんざいわさんくすたまいちのみやてんにかわった。	NO_LABEL
