フランク・フレデリクスは、ナミビアの元陸上競技者で、短距離が専門。	ふらんくふれでりくすわ、なみびあのもとりくじょーきょーぎしゃで、たんきょりがせんもん。	NO_LABEL
競技中のポーカーフェイスぶりから、“ナミビアの鉄仮面”の異名をとる。	NO_PRONOUNCE	NO_LABEL
夏季オリンピックに3度出場し、銀メダルを計4つ獲得した。	かきおりんぴっくにさんどしゅつじょーし、ぎんめだるをけいよっつかくとくした。	NO_LABEL
1992年バルセロナオリンピックは、母国ナミビアの独立後初めてのオリンピック出場であった。	せんきゅうひゃくきゅうじゅうにねんばるせろなおりんぴっくわ、ぼこくなみびあのどくりつごはじめてのおりんぴっくしゅつじょーであった。	NO_LABEL
開会式においては栄えある初めての旗手を務め、100mと200mで銀メダルを獲得した。	かいかいしきにおいてわさかえあるはじめてのきしゅをつとめ、ひゃくめーとるとにひゃくめーとるでぎんめだるをかくとくした。	NO_LABEL
1993年の世界陸上競技選手権大会では200mで優勝したものの、国際大会では2位を記録することが多く、“シルバーコレクター”と呼ばれることもあった。	NO_PRONOUNCE	NO_LABEL
特に1996年のアトランタオリンピック200mでは、当時の世界記録にあと0.02秒に迫る19秒68を記録するが、同走のマイケル・ジョンソンが19秒32という驚異的な記録をマークしたために、金メダルを逃している。	NO_PRONOUNCE	NO_LABEL
また同じ大会の100mでも銀メダルを獲得したが、同走のドノバン・ベイリーが当時の世界新記録となる9秒84をマークして優勝している。	NO_PRONOUNCE	NO_LABEL
このように世界記録更新という光のあたる表舞台に生じた影のような悲運な名スプリンターでもあった。	このよーにせかいきろくこーしんとゆうひかりのあたるおもてぶたいにしょーじたかげのよーなひうんなめいすぷりんたーでもあった。	NO_LABEL
選手としての活躍もさることながら、彼の温厚な性格や、若手選手の育成のみならず恵まれない人々への援助を惜しまないことなどから、陸上競技関係者の間では人望が厚い。	せんしゅとしてのかつやくもさることながら、かれのおんこーなせいかくや、わかてせんしゅのいくせいのみならずめぐまれないひとびとえのえんじょをおしまないことなどから、りくじょーきょーぎかんけいしゃのまでわじんぼーがあつい。	NO_LABEL
アメリカ合衆国のブリガムヤング大学への留学経験もある。	あめりかがっしゅーこくのぶりがむやんぐだいがくえのりゅーがくけいけんもある。	NO_LABEL
2004年から国際オリンピック委員会の選手委員を務めており、同年に競技生活の引退を表明した。	にせんよねんからこくさいおりんぴっくいーんかいのせんしゅいいんをつとめており、どーねんにきょーぎせいかつのいんたいをひょーめいした。	NO_LABEL
屋外	おくがい	NO_LABEL
室内	しつない	NO_LABEL
なお、屋外200mで19秒台を24回記録しており、これはウサイン・ボルトに次ぐ史上2位の記録である。	なお、おくがいにひゃくめーとるでじゅうきゅうびょーだいをにじゅうよんかいきろくしており、これわうさいんぼるとにつぐしじょーにーのきろくである。	NO_LABEL
また、屋外100mでも9秒台を27回記録している。	また、おくがいひゃくめーとるでもきゅうびょーだいをにじゅうななかいきろくしている。	NO_LABEL
