阿久津 真矢は、ドラマ『女王の教室』に登場する架空の人物である。	NO_PRONOUNCE	NO_LABEL
演じたのは天海祐希。	えんじたのわあまみゆうき。	NO_LABEL
生年月日および年齢は不詳である設定であるが、公式ガイドブックに、1994年度に25歳であったことが書かれているため、初めて6年生の担任を受け持つことになった年齢を25歳とする。	せいねんがっぴおよびねんれいわふしょーであるせっていであるが、こーしきがいどぶっくに、せんきゅうひゃくきゅうじゅうよんねんどににじゅうごさいであったことがかかれているため、はじめてろくねんせいのたんにんをうけもつことになったねんれいをにじゅうごさいとする。	NO_LABEL
阿久津真矢の教師としての人生は大きく3期に分ける事が出来る。	あくつまやのきょーしとしてのじんせいわおーきくさんきにわけることができる。	NO_LABEL
