イオン・ヴォイクは、ルーマニアのヴァイオリン奏者、指揮者。	NO_PRONOUNCE	NO_LABEL
ブカレストの生まれ。	ぶかれすとのうまれ。	NO_LABEL
4歳からヴァイオリンに興味を持ち、ガラベット・アヴァキアンとヴァシリー・フィリップの各氏にヴァイオリンの手ほどきを受けた。	NO_PRONOUNCE	NO_LABEL
14歳の時にはブカレスト音楽院に入学してコンスタンティン・ニクレスクのクラスでヴァイオリンを学び、1940年に卒業した。	NO_PRONOUNCE	NO_LABEL
音楽院を卒業後はしばらくルーマニア放送管弦楽団に団員として籍を置いたが、来演したウィレム・メンゲルベルクにソリストとしての才能を見出される。	おんがくいんをそつぎょーごわしばらくるーまにあほーそーかんげんがくだんにだんいんとしてせきをおいたが、らいえんしたうぃれむめんげるべるくにそりすととしてのさいのーをみいだされる。	NO_LABEL
1946年にはルーマニア国内で開かれた音楽コンクールに優勝し、ジョルジェ・エネスクの薫陶を受けることとなった。	せんきゅうひゃくよんじゅうろくねにわるーまにあこくないでひらかれたおんがくこんくーるにゆーしょーし、じょるじぇえねすくのくんとーをうけることとなった。	NO_LABEL
1954年にはアブラム・ヤンポリスキーの下で更なる研鑽を積んだが、ヤンポリスキーの没後はダヴィッド・オイストラフに師事している。	NO_PRONOUNCE	NO_LABEL
1957年には帰国し、ルーマニアを中心に演奏活動を展開。	せんきゅうひゃくごじゅうしちねんにわきこくし、るーまにあをちゅーしんにえんそーかつどーをてんかい。	NO_LABEL
1964年にはルーマニアの国務院より人民芸術家の称号を贈られた。	せんきゅうひゃくろくじゅうよねんにわるーまにあのこくむいんよりじんみんげいじゅつかのしょーごーをおくられた。	NO_LABEL
1965年にはカーネギー・ホールでアメリカ・デビューを果たしている。	NO_PRONOUNCE	NO_LABEL
1969年にはブカレスト室内管弦楽団を創設して指揮者としても活動し、1973年から10年間にわたってジョルジェ・エネスク・フィルハーモニー管弦楽団の首席指揮者を歴任した。	NO_PRONOUNCE	NO_LABEL
ブカレストにて死去。	ぶかれすとにてしきょ。	NO_LABEL
