鍋茶屋は、新潟県新潟市中央区東堀通8-1420に所在する老舗の料亭である。	NO_PRONOUNCE	NO_LABEL
正式法人名としては、合資会社鍋茶屋。	せいしきほーじんめいとしてわ、ごーしがいしゃなべじゃや。	NO_LABEL
全国芽生会連合会の新潟芽生会に加盟。	ぜんこくめばえかいれんごーかいのにーがためばえかいにかめい。	NO_LABEL
2000年、登録有形文化財に登録された。	にせんねん、とーろくゆーけいぶんかざいにとーろくされた。	NO_LABEL
1846年に創業。	せんはっぴゃくよんじゅうろくねんにそーぎょー。	NO_LABEL
1878年には、明治天皇の新潟への行幸の際に料理を出す。	せんはっぴゃくななじゅうはちねんにわ、めいじてんのーのにーがたえのぎょーこーのさいにりょーりをだす。	NO_LABEL
二度の大火に巻き込まれるなどの困難もあったが、再建し現在に至る。	にどのたいかにまきこまれるなどのこんなんもあったが、さいけんしげんざいにいたる。	NO_LABEL
以前までは一見さんお断りだったが、不況や娯楽の多様化や官々接待の激減により低迷したために近年撤廃し、一般市民の集客に切り替えた。	NO_PRONOUNCE	NO_LABEL
低価格化やセットプランを中心に切り替え、ブライダル部門も立ち上げ、大衆化した。	ていかかくかやせっとぷらんをちゅーしんにきりかえ、ぶらいだるぶもんもたちあげ、たいしゅーかした。	NO_LABEL
