誘電体多層膜とは、屈折率 n1 と屈折率 n2 … n3 … を有する複数の光学薄膜の積層体。	NO_PRONOUNCE	NO_LABEL
ダイクロイックミラーやバンドパスフィルターなどを通常は蒸着を用いて作製する。	だいくろいっくみらーやばんどぱすふぃるたーなどをつーじょーわじょーちゃくをもちいてさくせいする。	NO_LABEL
ある波長を設計の中心波長として、その波長より長波長側だけを通したり、逆に反射したりすることができる。	あるはちょーをせっけいのちゅーしんはちょーとして、そのはちょーよりちょーはちょーがわだけをとーしたり、ぎゃくにはんしゃしたりすることができる。	NO_LABEL
また特定の波長だけ透過させることもできる。	またとくていのはちょーだけとーかさせることもできる。	NO_LABEL
現在では、カメラや望遠鏡等の光学機器には必ずといってもよいほどレンズや反射鏡の表面に蒸着されている。	げんざいでわ、かめらやぼーえんきょーとーのこーがくききにわかならずといってもよいほどれんずやはんしゃきょーのひょーめんにじょーちゃくされている。	NO_LABEL
