菊華高等学校は、愛知県名古屋市守山区にある、学校法人菊武学園が経営する私立の高等学校。	きくかこーとーがっこーわ、あいちけんなごやしもりやまくにある、がっこーほーじんきくたけがくえんがけいえいするしりつのこーとーがっこー。	NO_LABEL
1992年守山女子商業高等学校から菊華高等学校に校名変更。	せんきゅうひゃくきゅうじゅうにねんもりやまじょししょーぎょーこーとーがっこーからきくかこーとーがっこーにこーめいへんこー。	NO_LABEL
本校の制服は、何度か変更されている。	ほんこーのせいふくわ、なんどかへんこーされている。	NO_LABEL
2006年度に変更された制服は、制服ブランドのミッシェル・クラン・スコレールによる、全国初の制服である。	NO_PRONOUNCE	NO_LABEL
ミッシェル・クラン・スコレールは、フランスのファッションブランドミッシェル・クランが日本のカンコー学生服を取り扱うozakiと提携してできたブランドである。	NO_PRONOUNCE	NO_LABEL
男女共、ブレザーとなっており、男子は金ボタン2つのシングル、女子は金ボタン4つのダブルである。	だんじょども、ぶれざーとなっており、だんしわきむぼたんふたつのしんぐる、じょしわきむぼたんよっつのだぶるである。	NO_LABEL
スカートはチェック柄で、夏服は青、冬服はグレーとなっている。	すかーとわちぇっくがらで、なつふくわあお、ふゆふくわぐれーとなっている。	NO_LABEL
2012年度にも変更されている。	にせんじゅうにねんどにもへんこーされている。	NO_LABEL
渡辺麻友が2012年11月21日に発売した3rdシングル『ヒカルものたち』の特典DVDには、全国47都道府県の制服を着たミュージックビデオが収録されており、愛知県代表には本校の制服が選ばれた。	NO_PRONOUNCE	NO_LABEL
この際、渡辺は本校の制服を指して、「リボンやスカートにところどころ入っているピンクが、女の子らしくてかわいい」と評価している。	NO_PRONOUNCE	NO_LABEL
