マクマードドライバレーとは、南極・ロス海のマクマード湾西側のヴィクトリアランドにある一連の氷河谷群。	NO_PRONOUNCE	NO_LABEL
極端に湿度が低く、雪や氷が見られない地域であることから、マクマードオアシス、ドライバレーとも呼称される。	きょくたんにしつどがひくく、ゆきやこーりがみられないちいきであることから、まくまーどおあしす、どらいばれーともこしょーされる。	NO_LABEL
地質学的に興味深いとされるヴィーダ湖や南極最長の河川であるオニキス川などがこの地域に存在する。	NO_PRONOUNCE	NO_LABEL
ロバート・スコット率いるディスカバリー探検隊によって発見された。	ろばーとすこっとひきいるでぃすかばりーたんけんたいによってはっけんされた。	NO_LABEL
マクマードドライバレーはロス島の対岸に位置し、北にデブナム氷河・コットン氷河、南にフェラー氷河、西に南極横断山脈、東にウィルソン山麓氷河で囲まれたおよそ 4,000 平方キロメートルに囲まれた地域一帯を指す。	NO_PRONOUNCE	NO_LABEL
内部にはモレーンに覆われた3つの大きな谷が存在している。	ないぶにわもれーんにおおわれたみっつのおーきなたにがそんざいしている。	NO_LABEL
標高は20メートルから350メートル。	NO_PRONOUNCE	NO_LABEL
