江田島湾は、瀬戸内海の広島湾の江田島市に位置する波の穏やかな湾である。	えたじまわんわ、せとないかいのひろしまわんのえたじましにいちするなみのおだやかなわんである。	NO_LABEL
江田島は西能美島、東能美島と地続きの一つの島で、江田島と西能美島の間に江田島湾がある。	えたじまわにしのーみじま、ひがしのーみじまとじつずきのひとつのしまで、えたじまとにしのーみじまのまにえたじまわんがある。	NO_LABEL
広島県	ひろしまけん	NO_LABEL
