福知山都市圏は、京都府福知山市を中心とする都市圏の総称。	ふくちやまとしけんわ、きょーとふふくちやましをちゅーしんとするとしけんのそーしょー。	NO_LABEL
福知山市全域と綾部市の大半の地域を指す。	ふくちやましぜんいきとあやべしのたいはんのちいきをさす。	NO_LABEL
舞鶴市を除く中丹地区の中心的な都市圏となっている。	まいずるしをのぞくちゅーたんちくのちゅーしんてきなとしけんとなっている。	NO_LABEL
都市圏人口は約11万人、人口集中地区は約5万人となっている。	としけんじんこーわやくじゅういちまんにん、じんこーしゅーちゅーちくわやくごまんにんとなっている。	NO_LABEL
京都府の都市圏はこの他にも丹後地区の舞鶴都市圏、山城地区の京都都市圏があり、府下だけでも3都市圏が存在しているが、同じ京都府山城地区であっても八幡市や京田辺市や木津川市の3市は大阪都市圏であるため、京都府に関係している都市圏は全部で4つとなっている。	NO_PRONOUNCE	NO_LABEL
京都府北部の行政・経済や医療分野においての中心は舞鶴市であるが、教育や交通、工業分野などは福知山都市圏が中心である。	NO_PRONOUNCE	NO_LABEL
そして福知山市では教育機関や工業団地などにより昼間人口が多くなっている。	そしてふくちやましでわきょーいくきかんやこーぎょーだんちなどによりちゅうかんじんこーがおーくなっている。	NO_LABEL
人口は中心市の福知山市、周辺市町ともに減少しており、商圏人口の縮小が進む。	じんこーわちゅーしんしのふくちやまし、しゅーへんしちょーともにげんしょーしており、しょーけんじんこーのしゅくしょーがすすむ。	NO_LABEL
地価としては、福知山市東羽合町が北近畿の中で一番高いが、下落が進んでいる。	ちかとしてわ、ふくちやましひがしはごーまちがきたきんきのなかでいちばんたかいが、げらくがすすんでいる。	NO_LABEL
また福知山市は山陰本線や福知山線、京都丹後鉄道宮福線、また舞鶴若狭自動車道や国道9号などが通り、交通の要衝としての一面を持っている。	またふくちやましわさんいんほんせんやふくちやません、きょーとたんごてつどーみやふくせん、またまいずるわかさじどーしゃどーやこくどーきゅうごーなどがとーり、こーつーのよーしょーとしてのいちめんをもっている。	NO_LABEL
そして、大動脈の一つである国道9号の福知山市内の区間では4車線化・バイパス道路の整備が行われている。	NO_PRONOUNCE	NO_LABEL
綾部市は山陰本線や舞鶴線、また舞鶴若狭自動車道や京都縦貫自動車道が通る。	あやべしわさんいんほんせんやまいずるせん、またまいずるわかさじどーしゃどーやきょーとじゅーかんじどーしゃどーがとーる。	NO_LABEL
福知山市には公立高校が3校、私立高校が3校の合計6校があり、また北近畿唯一の4年制大学、福知山公立大学がある。	NO_PRONOUNCE	NO_LABEL
それに京都府北部では唯一の私立中学校の京都共栄学園中学校・高等学校を有する。	それにきょーとふほくぶでわゆいいつのしりつちゅうがっこーのきょーときょーえいがくえんちゅーがっこーこーとーがっこーをゆーする。	NO_LABEL
綾部市は公立高校1校、大学校1校を有する。	NO_PRONOUNCE	NO_LABEL
多数の工場・事業所が存在する。	NO_PRONOUNCE	NO_LABEL
市内には4,393の事業所がある。	NO_PRONOUNCE	NO_LABEL
また、国内有数の内陸工業団地である長田野工業団地がある。	また、こくないゆーすーのないりくこーぎょーだんちであるおさだのこーぎょーだんちがある。	NO_LABEL
同団地の製造品出荷額は、2016年度に2737億9715万2千円と、過去最多となった。	NO_PRONOUNCE	NO_LABEL
古来から市内を流れる由良川により桑が自生していたため、自然養蚕機織が営まれていたとされている。	こらいからしないをながれるゆらがわによりくわがじせいしていたため、しぜんよーさんはたおりがいとなまれていたとされている。	NO_LABEL
明治時代に最盛期を迎え、福島県梁川町や長野県上田市とともに蚕都と呼ばれた。	めいじじだいにさいせいきをむかえ、ふくしまけんやながわちょーやながのけんうえだしとともにかいこととよばれた。	NO_LABEL
1896年には、地域の養蚕業の復興のためにグンゼが設立された。	せんはっぴゃくきゅうじゅうろくねにわ、ちいきのよーさんぎょーのふっこーのためにぐんぜがせつりつされた。	NO_LABEL
そのほか、現在は綾部市工業団地などにより、企業の積極的誘致がされている。	そのほか、げんざいわあやべしこーぎょーだんちなどにより、きぎょーのせっきょくてきゆーちがされている。	NO_LABEL
市内には1,833の事業所がある。	NO_PRONOUNCE	NO_LABEL
中心市街地は、数個の商店街と都市型大型店福知山ファミリーやさとうなどで栄えていた。	ちゅーしんしがいちわ、すーこのしょーてんがいととしがたおーがたてんふくちやまふぁみりーやさとーなどでさかえていた。	NO_LABEL
近年では郊外にイオン福知山店やPLANT-3福知山店などが出店している。	きんねんでわこーがいにいおんふくちやまてんやぷらんとまいなすさんふくちやまてんなどがしゅってんしている。	NO_LABEL
また、JR・京都丹後鉄道福知山駅高架化に伴う中心市街地活性化を目的として駅前開発が進められており、福知山市が行なっている福知山駅北大規模街区の商業施設にはコーナン福知山店が、駅南にはヤマダ電機やヒマラヤ福知山店が出店をしている。	NO_PRONOUNCE	NO_LABEL
そのほか、2009年には国道9号沿いの旧福知山ガスセンター跡地にフレスポ福知山が開業。	そのほか、にせんきゅうねんにわこくどーきゅうごーぞいのきゅーふくちやまがすせんたーあとちにふれすぽふくちやまがかいぎょー。	NO_LABEL
他にも、駅南の国道9号線沿いには商業施設、外食チェーンなどが並ぶ。	たにも、えきみなみのこくどーきゅうごーせんぞいにわしょーぎょーしせつ、がいしょくちぇーんなどがならぶ。	NO_LABEL
2016年にはドン・キホーテが北近畿初出店を果たした。	にせんじゅうろくねんにわどんきほーてがきたきんきはつしゅってんをはたした。	NO_LABEL
以前は産業の中心が農業であり、福知山都市圏の商業施設の多くが福知山市に位置していたが、近年は家電量販店が進出するなど、新たな店舗の出店が顕著になっている。	いぜんわさんぎょーのちゅーしんがのーぎょーであり、ふくちやまとしけんのしょーぎょーしせつのおーくがふくちやましにいちしていたが、きんねんわかでんりょーはんてんがしんしゅつするなど、あらたなてんぽのしゅってんがけんちょになっている。	NO_LABEL
金本良嗣・徳岡一幸によって提唱された都市圏。	NO_PRONOUNCE	NO_LABEL
2000年現在では福知山市、綾部市を中心市とする。	にせんねんげんざいでわふくちやまし、あやべしをちゅーしんしとする。	NO_LABEL
細かい定義等は都市雇用圏に則する。	こまかいていぎとーわとしこよーけんにそくする。	NO_LABEL
一般的な都市圏の定義については都市圏を参照のこと。	いっぱんてきなとしけんのていぎについてわとしけんをさんしょーのこと。	NO_LABEL
