入生田駅は、神奈川県小田原市入生田にある、箱根登山鉄道鉄道線の駅である。	いりうだえきわ、かながわけんおだわらしいりゅーだにある、はこねとざんてつどーてつどーせんのえきである。	NO_LABEL
駅番号はOH 50。	NO_PRONOUNCE	NO_LABEL
相対式ホーム2面2線を有する地上駅。	NO_PRONOUNCE	NO_LABEL
当駅に隣接して箱根登山鉄道の検車区があるため、当駅 - 箱根湯本駅間は狭軌と標準軌による三線軌条区間となっている。	NO_PRONOUNCE	NO_LABEL
ただし、1番線は検車区と直接繋がっていないため、2番線のみが三線軌条となっている。	ただし、いちばんせんわけんしゃくとちょくせつつながっていないため、にばんせんのみがさんしんきじょーとなっている。	NO_LABEL
なお、箱根登山鉄道の表示看板やパンフレットでは各駅の標高が示されており、かつては66メートルと表記されていたが、2013年の再調査で54メートルに訂正されている。	NO_PRONOUNCE	NO_LABEL
2015年3月14日のダイヤ改正に合わせ当駅に自動接近案内放送が導入され、その際これまでの〇番線の表現が小田急と同じ〇番ホームに変更された。	にせんじゅうごねんさんがつじゅうよっかのだいやかいせいにあわせとーえきにじどーせっきんあんないほーそーがどーにゅーされ、そのさいこれまでのれいばんせんのひょーげんがおだきゅーとおなじれいばんほーむにへんこーされた。	NO_LABEL
近年の1日平均乗車人員推移は下記の通り。	きんねんのついたちへいきんじょーしゃじんいんすいいわかきのとーり。	NO_LABEL
国道上に「入生田」バス停があり、箱根登山バスと伊豆箱根バスが発着している。	NO_PRONOUNCE	NO_LABEL
箱根方面へは、すべてのバスが箱根湯本駅を経由する。	はこねほーめんえわ、すべてのばすがはこねゆもとえきをけいゆする。	NO_LABEL
