久敬社塾は、財団法人久敬社が運営する神奈川県川崎市に位置する男子学生寮。	きゅうけいしゃじゅくわ、ざいだんほーじんひさたかしゃがうんえいするかながわけんかわさきしにいちするだんしがくせいりょー。	NO_LABEL
元々は佐賀県唐津市出身者のための県人寮であったが、定員割れなども考慮し、2010年度からは出身地に関わらず、男子大学生であれば入学時に限り受け入れをしている。	もともとわさがけんからつししゅっしんしゃのためのけんじんりょーであったが、ていーんわれなどもこーりょし、にせんじゅうねんどからわしゅっしんちにかかわらず、だんしだいがくせいであればにゅーがくじにかぎりうけいれをしている。	NO_LABEL
非常にリーズナブルな価格で寮生活を送ることができる。	ひじょーにりーずなぶるなかかくでりょーせいかつをおくることができる。	NO_LABEL
1878年11月3日に旧唐津藩主の小笠原家を中心に久敬社が発足。	せんはっぴゃくななじゅうはちねんじゅーいちがつみっかにきゅーからつはんしゅのおがさわらかをちゅーしんにひさたかしゃがほっそく。	NO_LABEL
また東京市麹町番町の小笠原邸に寄宿舎として久敬社塾が開設された。	またとーきょーしこーじまちばんちょーのおがさわらていにきしゅくしゃとしてきゅうけいしゃじゅくがかいせつされた。	NO_LABEL
1888年4月に小石川表町に移転。	せんはっぴゃくはちじゅうはちねんしがつにこいしかわおもてちょーにいてん。	NO_LABEL
隣接地が徳川家康の生母の菩提寺である伝通院だったため、この期間を「伝通院」時代と呼ぶ。	NO_PRONOUNCE	NO_LABEL
1889年小笠原長生が社長に就任。	せんはっぴゃくはちじゅうきゅうねんおがさわらながなりがしゃちょーにしゅーにん。	NO_LABEL
1910年9月2日に財団法人久敬社となった。	せんきゅうひゃくじゅうねんくがつふつかにざいだんほーじんひさたかしゃとなった。	NO_LABEL
1935年1月に東京市の道路拡張計画に伴い敷地を失ったことで久敬社塾は閉鎖。	せんきゅうひゃくさんじゅうごねんいちがつにとーきょーしのどーろかくちょーけいかくにともないしきちをうしなったことできゅうけいしゃじゅくわへいさ。	NO_LABEL
1941年6月に新宿西大久保にて工事が始まり、翌年4月に再開された。	せんきゅうひゃくよんじゅういちねろくがつにしんじゅくにしおーくぼにてこーじがはじまり、よくねんしがつにさいかいされた。	NO_LABEL
この期間を「西大久保時代」と呼ぶ。	NO_PRONOUNCE	NO_LABEL
1966年3月に川崎市に移転、現在に至る。	せんきゅうひゃくろくじゅうろくねんさんがつにかわさきしにいてん、げんざいにいたる。	NO_LABEL
2010年4月より出身地に関わらず受け入れを始める。	にせんじゅうねんしがつよりしゅっしんちにかかわらずうけいれをはじめる。	NO_LABEL
2018年現在は、4年生２人、3年生８人、２年生７人、１年生３人が在塾している。	にせんじゅうはちねんげんざいわ、よんねんせいににん、さんねんせいはちにん、にねんせいななにん、いちねんせいさんにんがざいじゅくしている。	NO_LABEL
寮内では学生が自治運営を行い、塾長の統轄の下、執行部を置いている。	りょーないでわがくせいがじちうんえいをおこない、じゅくちょーのとーかつのした、しっこーぶをおいている。	NO_LABEL
前期・後期の年２回、寮生全員の参加する塾長選挙が開かれ、立候補した塾長、執行部がそこで承認される。	NO_PRONOUNCE	NO_LABEL
また、毎年10月下旬に地元唐津市の唐津くんちを模した祭りを近隣住民と共催している。	また、まいとしじゅーがつげじゅんにじもとからつしのからつくんちをもしたまつりをきんりんじゅーみんときょーさいしている。	NO_LABEL
