岩佐なをは日本の詩人、画家。	いわさなおわにっぽんのしじん、がか。	NO_LABEL
本名は直人。	ほんみょーわただびと。	NO_LABEL
東京都杉並区荻窪に生まれ、神奈川県横浜市港北区日吉で育つ。	とーきょーとすぎなみくおぎくぼにうまれ、かながわけんよこはましこーほくくひよしでそだつ。	NO_LABEL
神奈川県立港北高等学校を経て、早稲田大学卒業。	かながわけんりつこーほくこーとーがっこーをへて、わせだだいがくそつぎょー。	NO_LABEL
早稲田大学図書館司書として勤務しながら、創作活動を行う。	わせだだいがくとしょかんししょとしてきんむしながら、そーさくかつどーをおこなう。	NO_LABEL
日本書票協会、日本現代詩人会、日本文藝家協会、日本ペンクラブ会員。	にっぽんしょひょーきょーかい、にほんげんだいしじんかい、にほんぶんげいかきょーかい、にほんぺんくらぶかいいん。	NO_LABEL
詩誌「時計店」「生き事」「歴程」同人。	NO_PRONOUNCE	NO_LABEL
銅版画で蔵書票を多数創作。	どーはんがでぞーしょひょーをたすーそーさく。	NO_LABEL
ドローイングや版画で、本や雑誌の挿画・装幀を手がける。	NO_PRONOUNCE	NO_LABEL
季刊「嗜み」の山崎正和の連載エッセイに挿画を掲載した。	NO_PRONOUNCE	NO_LABEL
小川洋子の『完璧な病室』の装幀、装画。	NO_PRONOUNCE	NO_LABEL
紺野美沙子の『M Misojiのひとりごと』の装幀、装画。	NO_PRONOUNCE	NO_LABEL
『中原中也詩集』、詩誌「歴程」「現代詩手帖」の挿画。	NO_PRONOUNCE	NO_LABEL
佐藤一郎の『哲学的冒険』、佐佐木幸綱編集の短歌雑誌「心の花」の表紙画。	NO_PRONOUNCE	NO_LABEL
新藤凉子、河津聖恵、三角みづ紀による連詩集『悪母島の魔術師』の表紙画、扉絵、挿画を描いた。	NO_PRONOUNCE	NO_LABEL
1978年から79年にかけて、雑誌「ユリイカ」投稿欄の常連入選者であった。	NO_PRONOUNCE	NO_LABEL
1995年、詩集『霊岸』で、第45回H氏賞を受賞。	NO_PRONOUNCE	NO_LABEL
2013年、詩集『海町』で、第24回富田砕花賞を受賞。	NO_PRONOUNCE	NO_LABEL
2016年、銅版画家・詩人としての全業績に対して第54回藤村記念歴程賞を授賞される。	NO_PRONOUNCE	NO_LABEL
画業では、1984年、第6回新宿住友ビル版画ミニアチュールコンクールでグランプリを受賞。	がぎょーでわ、せんきゅうひゃくはちじゅうよねん、だいろっかいしんじゅくすみともびるはんがみにあちゅーるこんくーるでぐらんぷりをじゅしょー。	NO_LABEL
海外の蔵書票、小版画のコンクール、展覧会等に多数参加。	かいがいのぞーしょひょー、しょーはんがのこんくーる、てんらんかいとーにたすーさんか。	NO_LABEL
1991年、チェコスロバキア蔵書票コンクールで協会長特別賞を受賞。	せんきゅうひゃくきゅうじゅういちねん、ちぇこすろばきあぞーしょひょーこんくーるできょーかいちょーとくべつしょーをじゅしょー。	NO_LABEL
1980年より2002年まで年1回1月末に、竹川画廊で定期的に個展を開催した。	せんきゅうひゃくはちじゅうねんよりにせんにねんまでとしいっかいいちがつまつに、たけかわがろーでていきてきにこてんをかいさいした。	NO_LABEL
ギャラリーオキュルスギャラリーまぁるアユミギャラリー檜画廊等に於いてもグループ展や企画展示に多く参加している。	ぎゃらりーおきゅるすぎゃらりーまーるあゆみぎゃらりーひのきがろーとーにおいてもぐるーぷてんやきかくてんじにおーくさんかしている。	NO_LABEL
一方ではプロボクシングおよび競艇ファンとしても知られ、詩人仲間の渡邊十絲子と共に競艇同人誌『確定!!』を作っていたこともある。	NO_PRONOUNCE	NO_LABEL
ヨネクラボクシングジムの閉鎖が決定した2017年まで長期にわたって後援会に所属していた。	よねくらぼくしんぐじむのへいさがけっていしたにせんじゅうななねんまでちょーきにわたってこーえんかいにしょぞくしていた。	NO_LABEL
