『BEST PIECES』は、高橋洋子の1枚目のベスト・アルバム。	NO_PRONOUNCE	NO_LABEL
1996年1月25日にキティレコードから発売された。	せんきゅうひゃくきゅうじゅうろくねんいちがつにじゅうごにちにきてぃれこーどからはつばいされた。	NO_LABEL
キャッチコピーは「大切な想い出がつまった宝石箱を、そっと開けるように聴いてください。	NO_PRONOUNCE	NO_LABEL
」と「エメラルド・ボイス 高橋洋子 初のベスト・アルバム」。	NO_PRONOUNCE	NO_LABEL
15曲中11曲がシングル曲である。	じゅうごきょくちゅーじゅういちきょくがしんぐるきょくである。	NO_LABEL
「もう一度逢いたくて」と「眠れぬ夜に」は、1stアルバム『ピチカート』に収録されたアルバムヴァージョンが収録されており、「$1,000,000の恋」は、3rdアルバム『私をみつけて』収録されたアルバムヴァージョンが収録されており、「P.S. I miss you」「Little Bird」はシングルヴァージョンが収録されている。	NO_PRONOUNCE	NO_LABEL
また、この2曲のシングルバージョンはアルバム初収録である。	また、このにきょくのしんぐるばーじょんわあるばむはつしゅーろくである。	NO_LABEL
ベスト・アルバムだが、新曲も収録されている。	べすとあるばむだが、しんきょくもしゅーろくされている。	NO_LABEL
