全日本連珠名人戦とは、公益社団法人日本連珠社が主催する連珠の棋戦の一つ。	ぜんにっぽんれんじゅめいじんせんとわ、こーえきしゃだんほーじんにっぽんれんじゅしゃがしゅさいするれんじゅのきせんのひとつ。	NO_LABEL
1962年創設以来、2016年現在で第54期を数え、日本の連珠棋戦で一番規模が大きい棋戦である。	せんきゅうひゃくろくじゅうにねんそーせついらい、にせんじゅうろくねんげんざいでだいごじゅうよんきをかぞえ、にっぽんのれんじゅきせんでいちばんきぼがおーきいきせんである。	NO_LABEL
名人戦の予選はA級リーグ戦であり、地方の予選を勝ち抜きA級リーグに出場し優勝した者が挑戦者となる。	めいじんせんのよせんわえーきゅーりーぐせんであり、ちほーのよせんをかちぬきえーきゅーりーぐにしゅつじょーしゆーしょーしたものがちゃれんじゃーとなる。	NO_LABEL
A級リーグ戦の優勝者が名人と「名人戦五番勝負」を行い、その勝者が次の名人位のタイトル保持者となる。	NO_PRONOUNCE	NO_LABEL
※連続5期または通算7期で有資格者となる。	NO_PRONOUNCE	NO_LABEL
就位は60歳。	しゅーいわろくじゅっさい。	NO_LABEL
