サン・シティ・ガールズは、1982年、アメリカ合衆国アリゾナ州のフェニックスで結成されたロックグループである。	さんしてぃがーるずわ、せんきゅうひゃくはちじゅうにねん、あめりかがっしゅーこくありぞなしゅーのふぇにっくすでけっせいされたろっくぐるーぷである。	NO_LABEL
メンバーは三人。	めんばーわさんにん。	NO_LABEL
当初はパンクバンドとして活動していたが、サーフロック、世界各地の民族音楽、フリー・インプロヴィゼーション、サイケデリック等を取り入れた独自のサウンドを確立する。	NO_PRONOUNCE	NO_LABEL
これまでに自主レーベルである「Abduction」の他、80作以上に上る膨大な作品群を様々なレーベルから発表している。	NO_PRONOUNCE	NO_LABEL
1984年、デビュー作「Sun City Girls」をリリース。	NO_PRONOUNCE	NO_LABEL
2007年、メンバーのCharles Gocherの死去により活動を停止。	NO_PRONOUNCE	NO_LABEL
2008年より、過去の作品のリイシューを残りのメンバー2人によって開始。	にせんはちねんより、かこのさくひんのりいしゅーをのこりのめんばーふたりによってかいし。	NO_LABEL
メンバーのAlan Bishopは世界各地の民族音楽収集家であり、主にそれらをリリースするために作られたレーベル「Sublime Frequencies」のオーナーも務める。	NO_PRONOUNCE	NO_LABEL
また、Richard Bishopは"Sir Richard Bishop"名義でソロ活動を活発に行っている。	NO_PRONOUNCE	NO_LABEL
