ジャマイカフチアは、フチア科ジャマイカフチア属に分類される齧歯類。	じゃまいかふちあわ、ふちあかじゃまいかふちあぞくにぶんるいされるげっしるい。	NO_LABEL
ジャマイカ固有種	じゃまいかこゆーしゅ	NO_LABEL
体長33-45cm。	たいちょーさんじゅうさんたいよんごせんちめーとる。	NO_LABEL
尾長4-7cm。	NO_PRONOUNCE	NO_LABEL
体重1-2kg。	NO_PRONOUNCE	NO_LABEL
全身は灰褐色や濃褐色の粗い体毛で覆われる。	ぜんしんわはいかっしょくやこかっしょくのあらいたいもーでおおわれる。	NO_LABEL
基底が石灰岩で岩の割れ目が多い雲霧林、低木林、湿原、半砂漠地帯などの様々な環境に生息する。	きていがせっかいがんでいわのわれめがおーいうんむりん、ていぼくりん、しつげん、はんさばくちたいなどのさまざまなかんきょーにせいそくする。	NO_LABEL
夜行性で、昼間は岩の隙間で休む。	やこーせいで、ひるまわいわのすきまでやすむ。	NO_LABEL
地表棲だが、樹上にも登る。	NO_PRONOUNCE	NO_LABEL
食性は植物食で、植物の枝、葉、樹皮などを食べる。	しょくせいわしょくぶつしょくで、しょくぶつのえだ、は、じゅひなどをたべる。	NO_LABEL
妊娠期間は4-5か月。	NO_PRONOUNCE	NO_LABEL
1回に1-3頭の幼獣を年に2回に分けて産む。	NO_PRONOUNCE	NO_LABEL
生息地では食用とされる事もある。	せいそくちでわしょくよーとされることもある。	NO_LABEL
開発による生息地の破壊、食用の乱獲、人為的に移入されたジャワマングースによる捕食などにより生息数は激減している。	かいはつによるせいそくちのはかい、しょくよーのらんかく、じんいてきにいにゅーされたじゃわまんぐーすによるほしょくなどによりせいそくすーわげきげんしている。	NO_LABEL
1945年に法的に狩猟が禁止されているが、密猟されることもある。	せんきゅうひゃくよんじゅうごねんにほーてきにしゅりょーがきんしされているが、みつりょーされることもある。	NO_LABEL
1972年から飼育下での繁殖計画が進められ、飼育下での個体数は増加している。	せんきゅうひゃくななじゅうにねんからしいくかでのはんしょくけいかくがすすめられ、しいくかでのこたいすーわぞーかしている。	NO_LABEL
飼育下繁殖させた個体の再導入が試みられたことがあるが、定住性が強いため再導入しても以前の生息地に定着しない可能性が示唆され計画は難航している。	しいくかはんしょくさせたこたいのさいどーにゅーがこころみられたことがあるが、ていじゅーせいがつよいためさいどーにゅーしてもいぜんのせいそくちにていちゃくしないかのーせいがしさされけいかくわなんこーしている。	NO_LABEL
