『半島を出よ』は、2005年に幻冬舎から刊行された村上龍の長編小説である。	NO_PRONOUNCE	NO_LABEL
2007年に幻冬舎文庫から文庫版が出版された。	にせんななねんにげんとーしゃぶんこからぶんこばんがしゅっぱんされた。	NO_LABEL
三人称で章ごとに日本政府の要人から北朝鮮特殊部隊員まで多彩な人物の視点で進行する。	さんにんしょーでしょーごとににっぽんせいふのよーじんからきたちょーせんとくしゅぶたいいんまでたさいなじんぶつのしてんでしんこーする。	NO_LABEL
執筆にあたっては膨大な参考資料を用い、脱北者へのインタビューも行われている。	しっぴつにあたってわぼーだいなさんこーしりょーをもちい、だっぽくしゃえのいんたびゅーもおこなわれている。	NO_LABEL
第59回毎日出版文化賞及び第58回野間文芸賞を受賞。	だいごじゅうきゅうかいまいにちしゅっぱんぶんかしょーおよびだいごじゅうはっかいのまぶんげいしょーをじゅしょー。	NO_LABEL
単行本の装丁は鈴木成一デザイン室、表紙にはIKONOSによる福岡上空写真に高橋和海撮影の「ヤドクガエル」が重ねられている。	NO_PRONOUNCE	NO_LABEL
2006年4月3日、韓国の『中央日報』はクァク・キョンテク監督が日韓共同で映画化するとの記事を掲載した。	NO_PRONOUNCE	NO_LABEL
章題の下に視点人物名を記す。	あきらだいのしたにしてんじんぶつめいをしるす。	NO_LABEL
高麗遠征軍は統治のための資金を作るため、不正医療行為や人身売買など違法行為により富を得た者を「重犯罪人」として逮捕、その預金を没収する。	NO_PRONOUNCE	NO_LABEL
一方で一般住民に対しては柔和に接し、そのため福岡市民の中には、高麗遠征軍は停滞し続ける社会状況を打破する存在であるとして歓迎する向きさえ起こり始める。	いっぽーでいっぱんじゅーみんにたいしてわにゅーわにせっし、そのためふくおかしみんのなかにわ、こーらいえんせいぐんわていたいしつずけるしゃかいじょーきょーをだはするそんざいであるとしてかんげいするむきさえおこりはじめる。	NO_LABEL
高麗遠征軍がある重犯罪人を大濠公園で逮捕しようとした際、日本政府が密かに送り込んだ大阪府警のSATが逮捕に赴いた高麗遠征軍警察隊員を襲撃。	こうまえんせいぐんがあるじゅーはんざいにんをおーほりこーえんでたいほしようとしたさい、にっぽんせいふがひそかにおくりこんだおーさかふけいのえすえいてぃーがたいほにおもむいたこうまえんせいぐんけいさつたいいんをしゅーげき。	NO_LABEL
警察隊隊長チェ・ヒョイルの殺害に成功するも、その後の戦闘によりSATは全滅、さらに戦闘には公園を訪れていた一般市民が多数巻き込まれてしまう。	NO_PRONOUNCE	NO_LABEL
戦闘終了後、累々たる死体や、吹き飛ばされた子どもの腕の映像が日本全国に放映され、国民に強い衝撃を与える。	せんとーしゅーりょーご、るいるいたるしたいや、ふきとばされたこどものうでのえいぞーがにっぽんぜんこくにほーえいされ、こくみんにつよいしょーげきをあたえる。	NO_LABEL
一方で福岡市民には、高麗遠征軍の統治開始後一切死者が出ていなかったにも関わらず、事前通告もなしに日本政府が起こした戦闘により死者が出たことにより、日本政府に対する憎悪の感情が巻き起こり、逆に高麗遠征軍に対する信頼感が高まる。	いっぽーでふくおかしみんにわ、こーらいえんせいぐんのとーちかいしごいちきりじにしゃがでていなかったにもかかわらず、じぜんつーこくもなしににっぽんせいふがおこしたせんとーによりししゃがでたことにより、にっぽんせいふにたいするぞーおのかんじょーがまきおこり、ぎゃくにこーらいえんせいぐんにたいするしんらいかんがたかまる。	NO_LABEL
高麗遠征軍はNHK福岡放送局に広報番組枠を設け、宣伝教導課のチョ・スリョンが出演することになる。	NO_PRONOUNCE	NO_LABEL
彼の甘いマスクや語り口が人気を博し、高麗遠征軍に対する親近感はより高まっていく。	かれのあまいますくやかたりくちがにんきをはくし、こーらいえんせいぐんにたいするしんきんかんわよりたかまっていく。	NO_LABEL
また、番組でチョ・スリョンと組んだNHKの女子アナウンサーはチョ・スリョンに恋愛感情を抱く。	NO_PRONOUNCE	NO_LABEL
姪浜の倉庫群に、詩人・イシハラと彼を慕う少年たちが暮らしていた。	NO_PRONOUNCE	NO_LABEL
少年たちはいずれも過去に凶悪犯罪を犯すなどの暗い過去を持っていた。	しょーねんたちわいずれもかこにきょーあくはんざいをおかすなどのくらいかこをもっていた。	NO_LABEL
イシハラや少年たちは、初めのうち高麗遠征軍に好感を抱いていたが、やがて高麗遠征軍を打倒するべく動き出す。	いしはらやしょーねんたちわ、はじめのうちこーらいえんせいぐんにこーかんをだいていたが、やがてこーらいえんせいぐんをだとーするべくうごきだす。	NO_LABEL
少年たちはそれぞれ特殊な能力を持っており、更にイシハラのもとには少年の他にタケイという中年男性が居着いていた。	しょーねんたちわそれぞれとくしゅなのーりょくをもっており、さらにいしはらのもとにわしょーねんのほかにたけいとゆうちゅーねんだんせいがいついていた。	NO_LABEL
彼はテロリストに憧れて中東のテロ組織で訓練を受けるも全くついて行けなかったという男だったが、テロ組織とのネットワークを築くことには成功しており、帰国後は会社を経営する傍らで銃や手榴弾などの武器を収集していた。	かれわてろりすとにあこがれてちゅーとーのてろそしきでくんれんをうけるもまったくついていけなかったとゆうおとこだったが、てろそしきとのねっとわーくをきずくことにわせいこーしており、きこくごわかいしゃをけいえいするかたわらでじゅーやてりゅーだんなどのぶきをしゅーしゅーしていた。	NO_LABEL
イシハラグループはそれらの武器を用いて高麗遠征軍を襲撃しようと考えるが、タケイの武器収集は趣味的な部分が多かったため世界中のいろいろな武器が1つずつしかなく、銃弾や使用法に互換性がないため実戦的な使用価値がないと判断される。	いしはらぐるーぷわそれらのぶきをもちいてこーらいえんせいぐんをしゅーげきしようとかんがえるが、たけいのぶきしゅーしゅーわしゅみてきなぶぶんがおーかったためせかいじゅーのいろいろなぶきがひとつずつしかなく、じゅーだんやしよーほーにごかんせいがないためじっせんてきなしよーかちがないとはんだんされる。	NO_LABEL
なお、この際少年の一人が錯乱状態に陥りグループの一人を射殺してしまう。	なお、このさいしょーねんのひとりがさくらんじょーたいにおちいりぐるーぷのひとりをしゃさつしてしまう。	NO_LABEL
代わりの襲撃手段として、少年たちは各々の能力を活かすことを思い立つ。	かわりのしゅーげきしゅだんとして、しょーねんたちわおのおのののーりょくをいかすことをおもいたつ。	NO_LABEL
グループには爆弾を製造できる者と建築の知識が豊富な者がいたため、高麗遠征軍の本部となっているシーホークホテルを、その鉄骨を爆破・破壊することによって倒壊させ、さらには倒壊による瓦礫の落下や衝撃波によって野営地の兵士たちをも全滅させる作戦を練り上げる。	NO_PRONOUNCE	NO_LABEL
少年たちはイシハラを残して出発する。	しょーねんたちわいしはらをのこしてしゅっぱつする。	NO_LABEL
シーホークホテルには、暴走族のバイクに乗って潜入した。	しーほーくほてるにわ、ぼーそーぞくのばいくにのってせんにゅーした。	NO_LABEL
「高麗遠征軍最高！」、「高麗遠征軍に入れて下さい！」などと朝鮮語で喚きながらバイクを乗り回す暴走族を見た高麗遠征軍の兵士たちは、それをただの馬鹿の集まりと思い警戒を解いてしまったのだった。	NO_PRONOUNCE	NO_LABEL
油断に乗じて少年たちはシーホークホテル潜入に成功する。	ゆだんにじょーじてしょーねんたちわしーほーくほてるせんにゅーにせいこーする。	NO_LABEL
少年たちは高麗遠征軍が使用していなかったレストランに侵入、ダクトから毒を持つ生物を高麗遠征軍兵士の集まる大宴会場に向け投入、混乱に陥れることに成功する。	しょーねんたちわこーらいえんせいぐんがしよーしていなかったれすとらんにしんにゅー、だくとからどくをもつせいぶつをこーらいえんせいぐんへいしのあつまるだいえんかいじょーにむけとーにゅー、こんらんにおとしいれることにせいこーする。	NO_LABEL
そして少年たちは上層階に潜入、計画通り鉄骨に爆薬を仕掛けていく。	そしてしょーねんたちわじょーそーかいにせんにゅー、けいかくどーりてっこつにばくやくをしかけていく。	NO_LABEL
作業は順調に進行していくものと思われた。	さぎょーわじゅんちょーにしんこーしていくものとおもわれた。	NO_LABEL
高麗遠征軍の経済活動を補佐するため福岡市役所から出向していた尾上知加子は、子どもの通う幼稚園の母親仲間から、暴走族がシーホークホテルに不審な集団を連れ込んだらしいという情報を聞きつけた。	こうまえんせいぐんのけいざいかつどーをほさするためふくおかしやくしょからしゅっこーしていたおのえちかこわ、こどものかようよーちえんのははおやなかまから、ぼーそーぞくがしーほーくほてるにふしんなしゅーだんをつれこんだらしいとゆうじょーほーをききつけた。	NO_LABEL
知加子はその情報を高麗遠征軍の将校キム・ハッス少佐に漏らし、少佐は直ちに兵士たちにホテル内の捜索を命ずる。	NO_PRONOUNCE	NO_LABEL
捜索は、兵士たちが4機のエレベーターに分乗、最上階から巡回し、1フロアを確認し終えたらまた全員がエレベーターで1つ下の階に降り、そのフロアを巡回し…、という手順で進められる。	NO_PRONOUNCE	NO_LABEL
やがて兵士たちは、イシハラグループの少年たちが作業を進めている階に迫ってきた。	やがてへいしたちわ、いしはらぐるーぷのしょーねんたちがさぎょーをすすめているかいにせまってきた。	NO_LABEL
少年たちは、そのまま作業を進める者と銃を持って兵士の到着を迎撃する者に分かれる。	しょーねんたちわ、そのままさぎょーをすすめるものとじゅーをもってへいしのとーちゃくをげいげきするものにわかれる。	NO_LABEL
さらに、エレベーターの前には遠隔操作型の地雷を設置する。	さらに、えれべーたーのまえにわえんかくそーさがたのじらいをせっちする。	NO_LABEL
兵士たちが少年たちのいるフロアに到着すると地雷が爆発、多数の兵士を殺害することに成功する。	へいしたちがしょーねんたちのいるふろあにとーちゃくするとじらいがばくはつ、たすーのへいしをさつがいすることにせいこーする。	NO_LABEL
しかし生き残った兵士も少なくなく、少年たちとの間で戦闘が開始される。	しかしいきのこったへいしもすくなくなく、しょーねんたちとのまでせんとーがかいしされる。	NO_LABEL
少年たちは死者を出しながらも兵士を全滅させ、地下駐車場からのホテル脱出を図る。	しょーねんたちわししゃをだしながらもへいしをぜんめつさせ、ちかちゅーしゃじょーからのほてるだっしゅつをはかる。	NO_LABEL
ホテル脱出後、野営地の高麗遠征軍から銃撃をうけながらも最終的に3名の少年が生き延びる。	NO_PRONOUNCE	NO_LABEL
そしてシーホークホテルは爆破され、高麗遠征軍も2名を残し全滅する。	NO_PRONOUNCE	NO_LABEL
なお、本作の主要登場人物の一人である詩人のイシハラと本作冒頭で視点人物となるホームレスのノブエは、過去の村上龍作品『昭和歌謡大全集』の主要登場人物である。	NO_PRONOUNCE	NO_LABEL
また、「北朝鮮コマンドが博多を占領する」というアイデアは、『共生虫ドットコム』における嶋田将司との対談で、村上の口から出ている。	NO_PRONOUNCE	NO_LABEL
