出村 直嗣は、福井県あわら市出身のハンドボール選手。	いでむらただつぐわ、ふくいけんあわらししゅっしんのはんどぼーるせんしゅ。	NO_LABEL
日本ハンドボールリーグの豊田合成所属。	にほんはんどぼーるりーぐのとよだごーせいしょぞく。	NO_LABEL
筑波大学時代は2008年の関東学生ハンドボール・春季リーグで優秀新人賞を受賞。	NO_PRONOUNCE	NO_LABEL
大学卒業後はデンマークへ渡り、2012年からデンマーク1部のヴィボーHKへ加入した。	NO_PRONOUNCE	NO_LABEL
2013年に日本ハンドボールリーグの豊田合成へ移籍。	にせんじゅうさんねんににほんはんどぼーるりーぐのとよだごーせいえいせき。	NO_LABEL
2013-14年シーズンはリーグ9位の71得点を挙げた。	NO_PRONOUNCE	NO_LABEL
2016年7月に行われた第21回ヒロシマ国際ハンドボール大会で日本代表に初選出。	にせんじゅうろくねんしちがつにおこなわれただいにじゅういっかいひろしまこくさいはんどぼーるたいかいでにほんだいひょーにはつせんしゅつ。	NO_LABEL
2017-18年シーズンは初のベストセブンを受賞した。	NO_PRONOUNCE	NO_LABEL
