『UVERworld KING'S PARADE 2017 Saitama Super Arena』は、UVERworldの14枚目のライブDVDである。	NO_PRONOUNCE	NO_LABEL
2018年3月14日にgr8!recordsより発売。	NO_PRONOUNCE	NO_LABEL
同時に、Blu-ray Disc版も発売された。	どーじに、ぶるーれいでぃすくばんもはつばいされた。	NO_LABEL
2017年2月11日にさいたまスーパーアリーナで行われたアーティスト史上最多2万3000人の男性限定ライブ「男祭り」が収録されている。	NO_PRONOUNCE	NO_LABEL
初回仕様限定盤にはプレイパスが封入されておりスリーブケース、フォトブックレットが付属している。	しょかいしよーげんていばんにわぷれいぱすがふーにゅーされておりすりーぶけーす、ふぉとぶっくれっとがふぞくしている。	NO_LABEL
