株式会社インターネットテレビジョンは、かつて東京都渋谷区幡ヶ谷に本社を置いた、Webマーケティング・ウェブサイト・モバイル・映像コンテンツ・メディカル・ストリーミング・CMS・運用と研究開発事業・実証実験や製品開発などの業務を行う日本のインターネット関連企業である。	NO_PRONOUNCE	NO_LABEL
略称はiTV。	りゃくしょーわあいてぃーびー。	NO_LABEL
2016年に倒産した。	にせんじゅうろくねんにとーさんした。	NO_LABEL
