フリードリヒ・クリスティアン・フォン・ザクセンは、ザクセン王家家長。	ふりーどりひくりすてぃあんふぉんざくせんわ、ざくせんおーけかちょー。	NO_LABEL
ザクセン王家家長の儀礼称号としてはマイセン辺境伯を称した。	ざくせんおーけかちょーのぎれいしょうごーとしてわまいせんへんきょーはくをしょーした。	NO_LABEL
最後のザクセン王フリードリヒ・アウグスト3世とその妃のエスターライヒ＝トスカーナ大公女ルイーゼの次男として、ドレスデンに生まれた。	NO_PRONOUNCE	NO_LABEL
父王はドイツ革命の煽りを受けて1918年11月に退位し、王政も廃止された。	ちちおーわどいつかくめいのあおりをうけてせんきゅうひゃくじゅうはちねんじゅーいちがつにたいいし、おーせいもはいしされた。	NO_LABEL
1923年に聖職者となった兄ゲオルクが王位継承権を放棄したため、フリードリヒ・クリスティアンはザクセン王家の推定相続人となり、1932年にフリードリヒ・アウグスト3世が死去すると、家長位を継承した。	せんきゅうひゃくにじゅうさんねんにせいしょくしゃとなったあにげおるくがおーいけいしょーけんをほーきしたため、ふりーどりひくりすてぃあんわざくせんおーけのすいていそーぞくにんとなり、せんきゅうひゃくさんじゅうにねんにふりーどりひあうぐすとさんせいがしきょすると、かちょーいをけいしょーした。	NO_LABEL
1933年、かつてザクセン選帝侯領が18世紀にポーランド・リトアニア共和国と同君連合を結んでいた関係で、ポーランド政府がフリードリヒ・クリスティアンにポーランド王となってくれるよう打診した。	せんきゅうひゃくさんじゅうさんね、かつてざくせんせんていこーりょーがじゅうはっせいきにぽーらんどりとあにあきょーわこくとどーくんれんごーをむすんでいたかんけいで、ぽーらんどせいふがふりーどりひくりすてぃあんにぽーらんどおーとなってくれるよーだしんした。	NO_LABEL
しかしアドルフ・ヒトラー率いる国家社会主義ドイツ労働者党の台頭、また第二次世界大戦とその後のポーランド共産化のため、フリードリヒ・クリスティアンを王に迎えてのポーランド王国復活は実現しなかった。	しかしあどるふひとらーひきいるこっかしゃかいしゅぎどいつろーどーしゃとーのたいとー、まただいにじせかいたいせんとそのごのぽーらんどきょーさんかのため、ふりーどりひくりすてぃあんをおーにむかえてのぽーらんどおーこくふっかつわじつげんしなかった。	NO_LABEL
1923年、トゥルン・ウント・タクシス侯アルベルトの長女エリーザベト・ヘレーネと結婚し、2男3女を儲けた。	NO_PRONOUNCE	NO_LABEL
