ニュースフロントは、2004年3月29日から2005年3月25日までTBS系列で平日11:30 - 12:00に放送されていたニュース番組で、リアルタイム字幕放送を実施していた。	NO_PRONOUNCE	NO_LABEL
2004年3月26日をもって、11:30からのJNNニュースを内包した90分番組『ベストタイム』が終了し、前半30分のニュース枠としてこの『ニュースフロント』が、12:00からは『はぴひる!』となった。	NO_PRONOUNCE	NO_LABEL
元々この時間帯は『JNNニュース1130』が放送されており、4年振りに独立した昼枠のニュース番組の復活となった。	NO_PRONOUNCE	NO_LABEL
全系列局が同時ネットする排他協定の適用枠であるにも関わらず、TBSテレビの制作であるため「JNN」の冠が付かなかった。	NO_PRONOUNCE	NO_LABEL
ただしスポンサーの洋菓子舗ウエストのホームページでは、“JNNニュースフロント”の表示があった。	NO_PRONOUNCE	NO_LABEL
そのためTBSの営業サイドでは、JNNの冠を付けていたものと思われる。	そのためてぃーびーえすのえいぎょーさいどでわ、じぇいえぬえぬのかんむりをつけていたものとおもわれる。	NO_LABEL
また、かつての『JNNニュース1130』同様に全国ニュース→ローカルニュース→全国ニュースといった構成でエンディングには気象予報士による全国天気が放送されていた。	NO_PRONOUNCE	NO_LABEL
2005年春の“TBSテレビ平日生ワイド大改編”により終了し、同年3月28日から10:50- 12:55に大型情報生番組『きょう発プラス!』がスタートし、『情報とってもインサイト』と統合され、TBS系列の昼枠ニュースは、『ベストタイム』以来1年ぶりに再度番組内に内包される形となった。	NO_PRONOUNCE	NO_LABEL
