劉 拠は、前漢の武帝の長男で太子。	りゅーよりどころわ、ぜんかんのぶていのちょーなんでたいし。	NO_LABEL
母は武帝の皇后・衛子夫。	NO_PRONOUNCE	NO_LABEL
悼皇考劉進は子、宣帝は孫である。	NO_PRONOUNCE	NO_LABEL
戻太子と呼称されることも多い。	もどたいしとこしょーされることもおーい。	NO_LABEL
「劉据」とも表記される。	NO_PRONOUNCE	NO_LABEL
名の正字は「據」。	NO_PRONOUNCE	NO_LABEL
武帝の長男として生まれ、元狩元年に太子に立てられた。	ぶていのちょーなんとしてうまれ、げんしゅがんねんにたいしにたてられた。	NO_LABEL
母が父の寵愛を失った後も太子としての地位を保っていた。	ははがちちのちょーあいをうしなったのちもたいしとしてのちいをたもっていた。	NO_LABEL
『春秋公羊伝』、『春秋穀梁伝』を学んだ。	NO_PRONOUNCE	NO_LABEL
武帝は晩年に江充という者を信任し、監察官の役目を命じていたが、江充は権勢家や皇族であっても弾劾し、太子のことも弾劾した。	ぶていわばんねんにこーじゅーとゆうものをしんにんし、かんさつかんのやくめをめいじていたが、こーじゅーわけんせいかやこーぞくであってもだんがいし、たいしのこともだんがいした。	NO_LABEL
このことから、劉拠と江充は対立するようになった。	このことから、りゅーきょとこーじゅーわたいりつするよーになった。	NO_LABEL
江充は、巫蠱の獄の取り調べに当たり、皇后や太子の宮殿からも証拠を発見した。	NO_PRONOUNCE	NO_LABEL
このことを知った劉拠は、このままでは誅殺されるしかないと考え、長安で挙兵し、江充を逮捕した。	このことをしったりゅーきょわ、このままでわちゅーさつされるしかないとかんがえ、ながやすできょへいし、こーじゅーをたいほした。	NO_LABEL
この時、劉拠は江充に向かって、「趙の下郎よ! お前の国の国王父子の仲を裂くだけでは足りず、今度はわれら父子の仲まで裂こうというのか」と罵って、目の前で江充を斬殺した。	NO_PRONOUNCE	NO_LABEL
また、取り調べに従事した韓説も殺害した。	また、とりしらべにじゅーじしたかんせつもさつがいした。	NO_LABEL
しかしこのことが、当時長安を離れて甘泉宮に出かけていた父・武帝に伝わると、太子が謀反を起こしたとして、劉拠の従兄弟にあたる丞相劉屈氂に討伐を命じた。	NO_PRONOUNCE	NO_LABEL
劉拠は丞相と交戦し、長安を戦火に巻き込んだものの衆寡敵せず、長安から東方にある湖県の泉鳩里のある靴屋の下に逃れて潜伏した。	りゅーきょわじょーしょーとこーせんし、ながやすをせんかにまきこんだもののしゅーかてきせず、ながやすからとーほーにあるこけんのいずみはとさとのあるくつやのしたにのがれてせんぷくした。	NO_LABEL
しかし、途中で新安県の属吏・李寿・張富昌らの追っ手に取り囲まれて自殺した。	NO_PRONOUNCE	NO_LABEL
劉拠の挙兵と失敗により、嗣子の劉進を初めとした彼の妻子は謀反人の家族として、当時乳飲み子だった劉病已を除いて処刑された。	NO_PRONOUNCE	NO_LABEL
また、生母・衛子夫も皇后の地位を剥奪され、自殺させられ、劉拠を逃がした田叔の末子のが任安とともに腰斬に処され、その一族も処刑された。	NO_PRONOUNCE	NO_LABEL
だが、事件の背景が明らかとなり、江充の悪事の数々が暴露されると、武帝はこれを悔やんで劉拠たちの名誉は回復され、逆に江充の一族が皆殺しにされた。	だが、じけんのはいけいがあきらかとなり、こーじゅーのあくじのかずかずがばくろされると、ぶていわこれをくやんでりゅーきょたちのめいよわかいふくされ、ぎゃくにこーじゅーのいちぞくがみなごろしにされた。	NO_LABEL
また、巫蠱取り調べに同行した宦官・も渭水の橋の上に束縛されて、火あぶりに処された。	NO_PRONOUNCE	NO_LABEL
この一連の事件を、巫蠱の獄という。	NO_PRONOUNCE	NO_LABEL
武帝はわが子が冤罪で死んだことを悼んで涙を流したという。	ぶていわわがこがえんざいでしんだことをいたんでなみだをながしたという。	NO_LABEL
太子が没した湖県に思子宮を建設した。	たいしがぼっしたこけんにおもいしきゅーをけんせつした。	NO_LABEL
孫にあたる宣帝が即位した後、劉拠には「戾」という諡が贈られ、戾太子と呼ばれるようになった。	NO_PRONOUNCE	NO_LABEL
一方、太子生存という巷の噂も根強く残っていたようである。	いっぽー、たいしせいぞんとゆうちまたのうわさもねずよくのこっていたよーである。	NO_LABEL
始元五年に、黄色い牛車に乗った男が長安の未央宮に突然、姿を現した。	しげんごねんに、きいろいぎゅーしゃにのったおとこがながやすのびおうきゅーにとつぜん、すがたをあらわした。	NO_LABEL
その男は「自分こそ、かつての太子劉拠である」と名乗り出た。	NO_PRONOUNCE	NO_LABEL
城内では多くの人々に囲まれていた。	きうちでわおーくのひとびとにかこまれていた。	NO_LABEL
太子と名乗った男を見て、丞相田千秋・御史大夫桑弘羊以下もあまりにもその男が亡き太子に似ているために、何も言い出せなかったという。	NO_PRONOUNCE	NO_LABEL
そこに京兆尹の雋不疑がやって来ると、雋不疑はこの男を見て「太子はかつて先帝に刃を向けて罪を受けた身である。	NO_PRONOUNCE	NO_LABEL
それが今頃になってやって来たところで罪人には変わりない」と述べて、その男を逮捕投獄した。	NO_PRONOUNCE	NO_LABEL
その取り調べの結果、その男は夏陽県出身の姓は成方、名は遂なる者で、亡き太子の家臣の知人で、自分が太子に似ているということで富貴を得たくなり、一芝居を打ってみたということであった。	NO_PRONOUNCE	NO_LABEL
その男は処刑された。	そのおとこわしょけいされた。	NO_LABEL
