吉川 団十郎は、宮城県名取郡増田町出身の日本のシンガーソングライター、陶芸家、パーソナリティである。	よしかわだんじゅうろーわ、みやぎけんなとりぐんましたちょーしゅっしんのにっぽんのしんがーそんぐらいたー、とーげいか、ぱーそなりてぃである。	NO_LABEL
本名：吉川 昇。	NO_PRONOUNCE	NO_LABEL
芸名は市川團十郎から引用したもの。	げいめいわいちかわだんじゅうろーからいんよーしたもの。	NO_LABEL
 代表曲は『ああ宮城県』。	NO_PRONOUNCE	NO_LABEL
