ミケーレ・プラチドはイタリアの俳優・映画監督。	NO_PRONOUNCE	NO_LABEL
女優のヴィオランテ・プラチドは最初の妻で女優のシモネッタ・ステファネッリとの間の娘。	NO_PRONOUNCE	NO_LABEL
プッリャ州フォッジャ県アスコリ・サトリアーノ出身。	ぷっりゃしゅーふぉっじゃけんあすこりさとりあーのしゅっしん。	NO_LABEL
1979年の映画『美しき少年/エルネスト』で主人公の美少年エルネストを愛する同性愛者を演じ、第29回ベルリン国際映画祭で銀熊賞を受賞している。	NO_PRONOUNCE	NO_LABEL
1976年の『""』と1985年の『』でを2回受賞している。	NO_PRONOUNCE	NO_LABEL
2005年の映画『』でナストロ・ダルジェント監督賞を受賞している。	NO_PRONOUNCE	NO_LABEL
最初の妻で女優のシモネッタ・ステファネッリとの間には、女優のヴィオランテ・プラチドを含め、3人の子がいる。	NO_PRONOUNCE	NO_LABEL
シモネッタとの婚姻中に未婚のまま女優のヴィルジニー・アレクサンドルとの間に1子をもうけた他、シモネッタとの離婚後に37歳下の女優との間に1子をもうけ、その後2012年にフェデリカと再婚している。	NO_PRONOUNCE	NO_LABEL
