松永 共広は、静岡県焼津市出身の男子レスリング選手。	まつながともひろわ、しずおかけんやいずししゅっしんのだんしれすりんぐせんしゅ。	NO_LABEL
ALSOK綜合警備保障所属。	あるそっくそーごーけいびほしょーしょぞく。	NO_LABEL
2008年北京オリンピック銀メダリスト。	にせんはちねんぺきんおりんぴっくぎんめだりすと。	NO_LABEL
飛龍高等学校、日本体育大学卒業。	ひりゅーこーとーがっこー、にほんたいいくだいがくそつぎょー。	NO_LABEL
身長163cm。	しんちょーひゃくろくじゅうさんせんちめーとる。	NO_LABEL
実家は常照寺という浄土宗寺院。	じっかわじょーしょーじとゆうじょーどしゅーじいん。	NO_LABEL
北京オリンピックでは決勝でアメリカのヘンリー・セジュードに敗れるも銀メダルを獲得した。	NO_PRONOUNCE	NO_LABEL
なお、準決勝では世界チャンピオンであるロシアのベシク・クドゥホフを破るも、その際にクドゥホフが松永の左頬骨を噛み付いてきたが、審判はそれに気付かなかった。	なお、じゅんけっしょーでわせかいちゃんぴおんであるろしあのべしくくどぅほふをやぶるも、そのさいにくどぅほふがまつながのひだりほーぼねをかみついてきたが、しんぱんわそれにきずかなかった。	NO_LABEL
6歳の時に得度しており、現役の僧侶である。	ろっさいのときにとくどしており、げんえきのそーりょである。	NO_LABEL
北京オリンピックでメダルを獲得した際には、「阿弥陀さまに線香をあげて報告したい」とのコメントを残している。	NO_PRONOUNCE	NO_LABEL
勝っても負けてもそれを表情に出さないクールな性格をみせる。	かってもまけてもそれをひょーじょーにださないくーるなせいかくをみせる。	NO_LABEL
