川田 宏行は、日本の作曲家・編曲家・サウンドクリエイター。	NO_PRONOUNCE	NO_LABEL
東京都出身。	とーきょーとしゅっしん。	NO_LABEL
東京都立日比谷高等学校、法政大学卒。	とーきょーとりつひびやこーとーがっこー、ほーせいだいがくそつ。	NO_LABEL
バンダイナムコスタジオ所属後、2015年に独立。	ばんだいなむこすたじおしょぞくご、にせんじゅうごねんにどくりつ。	NO_LABEL
『スターラスター』『妖怪道中記』『ワルキューレの伝説』『大乱闘スマッシュブラザーズ for Nintendo 3DS / Wii U』『アイドルマスターシリーズ』『ポッ拳 POKKÉN TOURNAMENT』などの音楽を手掛ける。	NO_PRONOUNCE	NO_LABEL
※作曲が一部のみの作品を含む	NO_PRONOUNCE	NO_LABEL
※音楽監督として場内、アトラクションのサウンドディレクション及び制作を行う。	NO_PRONOUNCE	NO_LABEL
