中野町は、横浜市栄区の町名。	なかのまちわ、よこはましさかえくのちょーめい。	NO_LABEL
丁番を持たない単独町名である。	ひのとばんをもたないたんどくちょーめいである。	NO_LABEL
住居表示未実施。	じゅーきょひょーじみじっし。	NO_LABEL
郵便番号は247-0015。	NO_PRONOUNCE	NO_LABEL
栄区の中部に位置し、いたち川と県道原宿六浦線が東西に通る。	さかえくのちゅーぶにいちし、いたちがわとけんどーはらじゅくむつうらせんがとーざいにとーる。	NO_LABEL
県道沿いに本郷小学校があり、いたち川の南側は1966年に本郷富士見ヶ丘団地として開発された。	けんどーぞいにほんごーしょうがっこーがあり、いたちがわのみなみがわわせんきゅうひゃくろくじゅうろくねんにほんごーふじみがおかだんちとしてかいはつされた。	NO_LABEL
町北部の、鍛冶ケ谷にまたがる丘陵地には本郷ふじやま公園があり、古民家が移築・保存されている。	NO_PRONOUNCE	NO_LABEL
町内に鉄道は通っておらず、大船駅・港南台駅・金沢八景駅から路線バスを利用する。	NO_PRONOUNCE	NO_LABEL
住宅地の地価は、2014年1月1日の公示地価によれば、中野町字稲荷1075番38の地点で14万5000円/mとなっている。	NO_PRONOUNCE	NO_LABEL
かつての鎌倉郡中野村で、1889年に鍛冶ケ谷・公田・上野・小菅ケ谷・笠間・桂の各村と合併して本郷村大字中野となった。	NO_PRONOUNCE	NO_LABEL
中野村の村名の由来は、本郷六か村の中心にあったことから中之村と呼ばれ、中野に転訛したといわれる。	なかのむらのむらなのゆらいわ、ほんごーろくかそんのちゅーしんにあったことからなかのむらとよばれ、なかのにてんかしたといわれる。	NO_LABEL
1939年4月1日に横浜市戸塚区に編入され、戸塚区中野町が新設された。	せんきゅうひゃくさんじゅうきゅうねんしがつついたちによこはましとつかくにへんにゅーされ、とつかくなかのちょーがしんせつされた。	NO_LABEL
1973年に元大橋と若竹町が中野町の一部と隣接する鍛冶ケ谷町・上郷町の一部から分離・新設された。	NO_PRONOUNCE	NO_LABEL
1986年に、分区により栄区中野町となる。	せんきゅうひゃくはちじゅうろくねんに、ぶんくによりさかえくなかのちょーとなる。	NO_LABEL
1995年から1998年にかけて小菅ケ谷・鍛冶ケ谷・柏陽・桂台北・桂台西が中野町の一部から分離した。	NO_PRONOUNCE	NO_LABEL
2017年12月31日現在の世帯数と人口は以下の通りである。	にせんじゅうななねんじゅーにがつさんじゅういちにちげんざいのせたいすーとじんこーわいかのとーりである。	NO_LABEL
市立小・中学校に通う場合、学区は以下の通りとなる。	しりつしょーちゅーがっこーにかようばあい、がっくわいかのとーりとなる。	NO_LABEL
