ロッシュコートは、和歌山県岩出市にあるショッピングセンター。	ろっしゅこーとわ、わかやまけんいわでしにあるしょっぴんぐせんたー。	NO_LABEL
和歌山バイパス沿い、備前交差点の北西にある。	わかやまばいぱすぞい、びぜんこーさてんのほくせいにある。	NO_LABEL
1999年にダイエー・ハイパーマート岩出店として開業したが、ハイパーマートの経営不振を受け2000年9月30日に閉鎖された。	NO_PRONOUNCE	NO_LABEL
その後はしばらく建物ごと放置されていたが、2007年4月に現在の『ロッシュコートI』の駐車場の一部を転用してKTVハウジングの『KTVわかやま岩出住宅展示場』がオープン。	NO_PRONOUNCE	NO_LABEL
そして同年9月21日に、「I」の2階にヒマラヤが入居し、『ロッシュコート』として約7年ぶりに再出発を果たした。	NO_PRONOUNCE	NO_LABEL
「I」の1階は空床のままだったが、2008年9月下旬にマナベインテリアハーツが入居している。	NO_PRONOUNCE	NO_LABEL
さらに、2008年5月には西側にも『ロッシュコートII』がオープンした。	NO_PRONOUNCE	NO_LABEL
以降、公道を挟んだ東側を「I」、西側を「II」としている。	NO_PRONOUNCE	NO_LABEL
地上2階建てで、かつてのハイパーマートのようなハイパーマーケットに特有のスロープ式のエスカレーターが現在も供用されている。	ちじょーにかいだてで、かつてのはいぱーまーとのよーなはいぱーまーけっとにとくゆーのすろーぷしきのえすかれーたーがげんざいもきょーよーされている。	NO_LABEL
他方、エレベーターは設けられていない。	たほー、えれべーたーわもーけられていない。	NO_LABEL
なお、トイレは2階にのみある。	なお、といれわにかいにのみある。	NO_LABEL
駐車場を中心として、奥に上新電機、東側に商店街のように平屋建ての店舗が連なっており、各建物ごとに一つの店舗が入居・営業している。	NO_PRONOUNCE	NO_LABEL
