ユージン・ヴィクター・デブス・ロストウは、アメリカ合衆国の法学者。	NO_PRONOUNCE	NO_LABEL
イェール大学ロー・スクール長、リンドン・ジョンソン政権の政治担当国務次官を歴任した。	いぇーるだいがくろーすくーるちょー、りんどんじょんそんせいけんのせいじたんとーこくむじかんをれきにんした。	NO_LABEL
経済学者・国家安全保障問題担当大統領特別補佐官を務めたウォルト・ロストウは弟。	NO_PRONOUNCE	NO_LABEL
ニューヨーク市ブルックリンのユダヤ系移民家庭に長男として生まれる。	にゅーよーくしぶるっくりんのゆだやけいいみんかていにちょーなんとしてうまれる	NO_LABEL
両親は熱心な社会主義運動家で、ロストウの名前は19世紀末から20世紀初頭にかけて活躍した労働運動家、ユージン・ヴィクター・デブスに由来している。	NO_PRONOUNCE	NO_LABEL
ニュー・ヘイヴン高校を経て1929年にイェール大学に進むが、入学試験時の成績が抜群であったことから、「完璧な新入生」とニューヨーク・タイムズ紙に報じられたという。	NO_PRONOUNCE	NO_LABEL
1931年には優秀な学生で構成されるファイ・ベータ・カッパに所属し、1933年に首席で大学を卒業した。	NO_PRONOUNCE	NO_LABEL
1934年までケンブリッジ大学キングス・カレッジに留学した後、イェール大学ロー・スクールに入学、1936年から37年まで『イェール・ロー・ジャーナル』の編集長を務め、首席で修了した。	NO_PRONOUNCE	NO_LABEL
一時ニューヨークの法律事務所に勤務した後、1938年イェール大学のロー・スクールに教員として招聘され、1944年に正教授に昇格する。	いちじにゅーよーくのほーりつじむしょにきんむしたのち、せんきゅうひゃくさんじゅうはちねいぇーるだいがくのろーすくーるにきょーいんとしてしょーへいされ、せんきゅうひゃくよんじゅうよねんにせいきょーじゅにしょーかくする。	NO_LABEL
教員としては反トラスト法などを専門とした。	きょーいんとしてわはんとらすとほーなどをせんもんとした。	NO_LABEL
第二次世界大戦中は武器貸与管理局に勤務し、後に国務省で武器貸与管理局との調整や、ディーン・アチソン経済問題担当国務次官補の補佐官を務めた。	だいにじせかいたいせんちゅーわぶきたいよかんりきょくにきんむし、ごにこくむしょーでぶきたいよかんりきょくとのちょーせいや、でぃーんあちそんけいざいもんだいたんとーこくむじかんほのほさかんをつとめた。	NO_LABEL
また、1945年には民主的な価値観に違反する政策であるとして、日系人の強制収容を批判する論説を発表した。	また、せんきゅうひゃくよんじゅうごねんにわみんしゅてきなかちかんにいはんするせいさくであるとして、にっけいじんのきょーせいしゅうよーをひはんするろんせつをはっぴょーした。	NO_LABEL
1955年、ロストウはイェール大学ロー・スクール長に就任し、1965年までこのポストを務める。	せんきゅうひゃくごじゅうごねん、ろすとーわいぇーるだいがくろーすくーるちょーにしゅーにんし、せんきゅうひゃくろくじゅうごねんまでこのぽすとをつとめる。	NO_LABEL
翌1966年の10月からリンドン・ジョンソン政権の政治担当国務次官に任命された。	よくせんきゅうひゃくろくじゅうろくねんのじゅーがつからりんどんじょんそんせいけんのせいじたんとーこくむじかんににんめいされた。	NO_LABEL
在任中はベトナム戦争の処理と、国連安保理決議242の起草にも関与した。	NO_PRONOUNCE	NO_LABEL
1969年の退任後はイェール大学に戻ったが、1970年代半ばにはソ連の動向を警戒し、ヘンリー・M・ジャクソンとともに反デタント派が結集した「民主的多数派のための連合」や、「現前する危機に対する委員会」の設立に関与する。	NO_PRONOUNCE	NO_LABEL
1981年にはロナルド・レーガン政権で、民主党に在籍したまま軍備管理・軍縮局長官に就任し、1983年まで務める。	NO_PRONOUNCE	NO_LABEL
ロストウは同政権に参画した民主党員の中でも、もっとも高位の役職に就任することとなった。	ろすとーわどーせいけんにさんかくしたみんしゅとーいんのなかでも、もっともこーいのやくしょくにしゅーにんすることとなった。	NO_LABEL
1984年にはイェール大学を退職し、名誉教授に就任する。	せんきゅうひゃくはちじゅうよねんにわいぇーるだいがくをたいしょくし、めいよきょーじゅにしゅーにんする。	NO_LABEL
2002年、ヴァージニア州アレクサンドリアで死去。	NO_PRONOUNCE	NO_LABEL
