フットボール・アソシエーション・ユース・チャレンジカップ略称FAユースカップは、1953年から開催されているイングランドのユースサッカー大会。	NO_PRONOUNCE	NO_LABEL
同大会はフットボール・アソシエーション主催のFAカップのユース版にあたる。	どーたいかいわふっとぼーるあそしえーしょんしゅさいのえふえーかっぷのゆーすばんにあたる。	NO_LABEL
1953年に初開催。	せんきゅうひゃくごじゅうさんねんにはつかいさい。	NO_LABEL
出場資格はFAに加盟されているユースチームに限られており 、準決勝以降はホーム・アンド・アウェイ方式を採用されている。	しゅつじょーしかくわいんしぶんせきほーにかめいされているゆーすちーむにかぎられており、じゅんけっしょーいこーわほーむあんどあうぇいほーしきをさいよーされている。	NO_LABEL
