ハイ・ブリッジ、もともとの名前はアクイダクト・ブリッジは、ニューヨーク市に架かる最古の橋である。	NO_PRONOUNCE	NO_LABEL
もともとは水道橋として1848年に開業し、2015年に遊歩道として再開業した。	もともとわすいどーきょーとしてせんはっぴゃくよんじゅうはちねんにかいぎょーし、にせんじゅうごねんにゆーほどーとしてさいかいぎょーした。	NO_LABEL
再開業以前は40年以上使われずに閉鎖されたままだった。	さいかいぎょーいぜんわよんじゅうねんいじょーつかわれずにへいさされたままだった。	NO_LABEL
全長約40 mの鉄製のアーチ橋で、ハーレム川をまたいで二つの行政区、マンハッタンとブロンクスを結んでいる。	NO_PRONOUNCE	NO_LABEL
橋の東側はブロンクスのハイブリッジであり西174丁目の東端のほぼ延長上である。	NO_PRONOUNCE	NO_LABEL
この橋はもともと1848年に石のアーチ橋として完成したが、ハーレム川のスパンは1928年に鉄製のアーチ橋に改修された。	このはしわもともとせんはっぴゃくよんじゅうはちねんにいしのあーちきょーとしてかんせいしたが、はーれむがわのすぱんわせんきゅうひゃくにじゅうはちねんにてつせいのあーちきょーにかいしゅーされた。	NO_LABEL
この橋は1970年代に全面的に閉鎖され、2009年からの改修を経て、2015年6月9日に歩行者および自転車専用道路として再開業した。	このはしわせんきゅうひゃくななじゅうねんだいにぜんめんてきにへいさされ、にせんきゅうねんからのかいしゅーをへて、にせんじゅうごねんろくがつここのかにほこーしゃおよびじてんしゃせんよーどーろとしてさいかいぎょーした。	NO_LABEL
この橋の運用および維持・管理はニューヨーク市公園および保養局 () によって行われている。	NO_PRONOUNCE	NO_LABEL
石造りのアーチ橋として、ハイ・ブリッジの建設は1837年に始まり1848年に完成した。	NO_PRONOUNCE	NO_LABEL
クロトン川の一部として建設された。	くろとんがわのいちぶとしてけんせつされた。	NO_LABEL
この水道の全長は600 mにも及ぶ。	NO_PRONOUNCE	NO_LABEL
この橋はジョン・ジャービスが率いるクロトン水道の技術者チームによって設計された。	NO_PRONOUNCE	NO_LABEL
ローマ水道と似た形状をしている。	ろーますいどーとにたけいじょーをしている。	NO_LABEL
後にセント・パトリック大聖堂の設計も手がけたジェームズ・レンウィック・ジュニアも設計に携わっている。	ごにせんとぱとりっくだいせいどーのせっけいもてがけたじぇーむずれんうぃっくじゅにあもせっけいにたずさわっている。	NO_LABEL
当時はトンネルの建設技術が発展途上だったため、リスクを避けて、橋によってハーレム川に水道を通すという選択がなされた。	とーじわとんねるのけんせつぎじゅつがはってんとじょーだったため、りすくをさけて、はしによってはーれむがわにすいどーをとーすとゆうせんたくがなされた。	NO_LABEL
水道局と技術者はロウ・ブリッジとハイ・ブリッジの案を検討した。	NO_PRONOUNCE	NO_LABEL
ロウ・ブリッジ案は構造が単純で建設期間、費用は少なく済んだが、ニューヨーク州議会 () はロウ・ブリッジは高さが低いため橋の下の通行を妨げると判断し、ハイ・ブリッジ案が最終的に選ばれた。	NO_PRONOUNCE	NO_LABEL
1928年、ハーレム川の水運を円滑にするため、川に架かっていた五つの石積みアーチは解体され、140 mの単一の鉄製アーチに造り直された。	NO_PRONOUNCE	NO_LABEL
1848年に建設された当初のアーチはマンハッタン側の陸上に一つとブロンクス側の陸上に10が残されている。	NO_PRONOUNCE	NO_LABEL
水道路としての用途は1949年12月15日に終了した。	すいどーろとしてのよーとわせんきゅうひゃくよんじゅうきゅうねんじゅーにがつじゅうごにちにしゅーりょーした。	NO_LABEL
1950年代は人の通行が可能だったが、橋の老朽化が指摘されたことと市の財政や治安に問題があったため、1970年代にこの橋は閉鎖されることとなった。	せんきゅうひゃくごじゅうねんだいわひとのつーこーがかのーだったが、はしのろーきゅーかがしてきされたこととしのざいせいやちあんにもんだいがあったため、せんきゅうひゃくななじゅうねんだいにこのはしわへいさされることとなった。	NO_LABEL
2006年11月に公園および保養局はこの橋を改修し、2009年に再開通させることを発表した。	にせんろくねんじゅーいちがつにこーえんおよびほよーきょくわこのはしをかいしゅーし、にせんきゅうねんにさいかいつーさせることをはっぴょーした。	NO_LABEL
予算の都合などで何度も延期された末に、2009年に基本案が策定され、2010年に橋の設計はLichtenstein Consulting Engineers and Chu & Gassman Consulting Engineersと契約が結ばれた。	NO_PRONOUNCE	NO_LABEL
橋の補強、階段の改修、防犯カメラやボート標識灯の設置などが改修案に盛り込まれた。	はしのほきょー、かいだんのかいしゅー、ぼーはんかめらやぼーとひょーしきとーのせっちなどがかいしゅーあんにもりこまれた。	NO_LABEL
歩道と自転車道を整備し、合計0.5 km以上の広さになるマンハッタン側とブロンクス側の公園を結び、公園周辺の緑道へのアクセスも確保された。	NO_PRONOUNCE	NO_LABEL
何度か完成の延期が発表された後、2015年6月に正式に再開業した。	なんどかかんせいのえんきがはっぴょーされたのち、にせんじゅうごねんろくがつにせいしきにさいかいぎょーした。	NO_LABEL
リボンカットが2015年6月9日午前11:30頃に行われ、正午に一般のアクセスが可能となった。	NO_PRONOUNCE	NO_LABEL
ハイ・ブリッジ給水塔は、マンハッタンのハイブリッジ・パークがあり、この貯水池まで30m汲み上げられた水は、給水塔の180 mのタンクに送られた。	NO_PRONOUNCE	NO_LABEL
現在は、この貯水池は1934-36年に建設されたハイブリッジ・プレイ・センター () として遊戯施設や公共プールとして利用されている。	NO_PRONOUNCE	NO_LABEL
この給水塔の高さの重力を利用して、当時普及し始めた水洗トイレを流す水圧が提供された。	このきゅーすいとーのたかさのじゅーりょくをりよーして、とーじふきゅーしはじめたすいせんといれをながすすいあつがていきょーされた。	NO_LABEL
これらのシステムはクロトン水道の開業により以前ほど使われなくなり、第一次世界大戦中に破壊活動が懸念され完全に閉鎖された。	これらのしすてむわくろとんすいどーのかいぎょーによりいぜんほどつかわれなくなり、だいいちじせかいたいせんちゅーにはかいかつどーがけねんされかんぜんにへいさされた。	NO_LABEL
1949年にこのタワーはサービスを中止し、1958年にはAltman Foundationの寄付によるカリヨンが設置された。	NO_PRONOUNCE	NO_LABEL
タワーのは1984年の放火により損傷したが、再建され、石造りの耐力外壁も1989-90年にWilliam A. Hall Partnershipによって改修された。	NO_PRONOUNCE	NO_LABEL
この外装はもともとロマネスク・リヴァイヴァルおよびの混合様式でジョン・ジャービスが設計したものである。	NO_PRONOUNCE	NO_LABEL
タワーの内部は公共に開放されたことはないが、鉄製の螺旋階段と6つの踊り場と対の窓がある。	たわーのないぶわこーきょーにかいほーされたことわないが、てつせいのらせんかいだんとむっつのおどりばとたいのまどがある。	NO_LABEL
このウォーター・タワーは1967年にニューヨーク市歴史建造物保存委員会によってニューヨーク市歴史建造物に指定された。	NO_PRONOUNCE	NO_LABEL
脚注	きゃくちゅー	NO_LABEL
