PHOENIXは、株式会社エイチ・アイ・シーが販売するダーツマシン。	NO_PRONOUNCE	NO_LABEL
2005年稼働開始。	にせんごねんかどーかいし。	NO_LABEL
DARTSLIVEとは異なり専用機材を用いるタイプのマシンで、DARTSLIVE NETWORK SERVICE同様に専用カードを用いたスコア保存機能やネットワーク対戦機能などを持つ。	NO_PRONOUNCE	NO_LABEL
専用カードは非接触ICカードとなっているのが大きな特徴で、筐体中心部にあるカード読み取り部にカードをかざすことでログインが可能。	せんよーかーどわひせっしょくあいしーかーどとなっているのがおーきなとくちょーで、きょうたいちゅーしんぶにあるかーどよみとりぶにかーどをかざすことでろぐいんがかのー。	NO_LABEL
ダーツマシン上部にある19インチ液晶画面は、マシン非使用時にはネットワーク側から配信した動画等を流すことができる。	だーつましんじょーぶにあるじゅうきゅういんちえきしょーがめんわ、ましんひしよーじにわねっとわーくがわからはいしんしたどーがとーをながすことができる。	NO_LABEL
そのため歌手や映画のプロモーション等にも利用されており、過去に倖田來未、BoA、映画『トランスフォーマー』などのプロモーション動画が配信されている。	NO_PRONOUNCE	NO_LABEL
2008年12月には後継機種の「VSPHOENIX」を発表。	NO_PRONOUNCE	NO_LABEL
VSでは筐体内にカメラを2個内蔵することができ、その場合カメラで撮影された動画が画面内に表示されるだけでなく、ネットワーク対戦で相手もカメラ内蔵の筐体の場合は対戦相手の動画も画面内に映し出されるため、よりネットワーク対戦の臨場感が増す仕様となっている。	NO_PRONOUNCE	NO_LABEL
また液晶画面も26インチワイド液晶に拡大された。	またえきしょーがめんもにじゅうろくいんちわいどえきしょーにかくだいされた。	NO_LABEL
なおVSと旧PHOENIXの間で対戦を行うことも可能である。	NO_PRONOUNCE	NO_LABEL
2011年10月には最新モデル「VSPHOENIX® S」がリリース。	NO_PRONOUNCE	NO_LABEL
『Slim』、『Smart』、『Super』、『Sense』、『Speed』をコンセプトとして設計され、VSより奥行きがマイナス84mm、横幅マイナス40mmを実現。	NO_PRONOUNCE	NO_LABEL
更にターゲット盤面部分のスリム・フラット化に加え、照明とナンバーリングのLED化が行なわれており、最大の特徴となっている。	NO_PRONOUNCE	NO_LABEL
また、モニターもミッドマウント化され見やすくなっている。	また、もにたーもみっどまうんとかされみやすくなっている。	NO_LABEL
導入店舗数はPHOENIX・VS合計で約2100店舗に達しており、DARTSLIVEシリーズと並び日本有数の規模で展開されるダーツマシンとなっている。	NO_PRONOUNCE	NO_LABEL
会員向けWebサイトとしては「DARTSJAPAN」がある。	NO_PRONOUNCE	NO_LABEL
Webでの会員機能の利用は当初無料だったが、2009年4月より有料化されたため、現在は一部機能を除いて月額315円、もしくは300日間3000円を支払い有料会員となる必要がある。	うぇぶでのかいいんきのーのりよーわとーしょむりょーだったが、にせんきゅうねんしがつよりゆーりょーかされたため、げんざいわいちぶきのーをのぞいてげつがくさんびゃくじゅうごえん、もしくわさんびゃくにちかんさんぜんえんをしはらいゆーりょーかいいんとなるひつよーがある。	NO_LABEL
また専用カードを用いてプレイを行うことで「GOLD」と呼ばれるポイントが貯まる。	NO_PRONOUNCE	NO_LABEL
GOLDにはプレイごとに貯まる基本GOLDのほか、アワードによるボーナスGOLD、対戦で勝利した場合に得られる勝利GOLDがある。	ごーるどにわぷれいごとにたまるきほんごーるどのほか、あわーどによるぼーなすごーるど、たいせんでしょーりしたばあいにえられるしょーりごーるどがある。	NO_LABEL
貯まったGOLDを使うことで、ゲーム中の背景やエフェクト、サウンドなどを購入しカスタマイズすることが可能である。	たまったごーるどをつかうことで、げーむちゅーのはいけいやえふぇくと、さうんどなどをこーにゅーしかすたまいずすることがかのーである。	NO_LABEL
