ポンチャートレイン湖は、ルイジアナ州南東部に位置する汽水湖。	ぽんちゃーとれいんこわ、るいじあなしゅーなんとーぶにいちするきすいこ。	NO_LABEL
塩水の湖としては、米国ではユタ州のグレートソルト湖に次いで2番目の面積をもつ。	えんすいのみずうみとしてわ、べいこくでわゆたしゅーのぐれーとそるとこについでにばんめのめんせきをもつ。	NO_LABEL
面積は1,630平方キロメートル、平均水深は約4メートルである。	NO_PRONOUNCE	NO_LABEL
一部は航路を確保するために浚渫によってより深く掘られている。	いちぶわこーろをかくほするためにしゅんせつによってよりふかくほられている。	NO_LABEL
形は楕円形で、東西に64キロメートル、南北に39キロメートルの幅を持つ。	NO_PRONOUNCE	NO_LABEL
湖の南岸は、ニューオーリンズとその郊外の都市、メテリー、ケナーに接しており、また北岸はマンデヴィル、コヴィントン、マディソンヴィルと接する。	NO_PRONOUNCE	NO_LABEL
北東部はスライデルに接している。	きたとうべわすらいでるにせっしている。	NO_LABEL
西にはモールパ湖があり、パス・マンチャックでポンチャートレイン湖と繋がっている。	NO_PRONOUNCE	NO_LABEL
また、リゴレッツ海峡とシェフメントゥー海峡で、メキシコ湾に開けたラグーンであるボーン湖に繋がっている。	また、りごれっつかいきょーとしぇふめんとぅーかいきょーで、めきしこわんにあけたらぐーんであるぼーんみずうみにつながっている。	NO_LABEL
ルイ14世時代のフランスの海運大臣であり財務大臣であったポンシャルトラン伯ルイ・フェリポーに由来している。	NO_PRONOUNCE	NO_LABEL
