この項目では、日本のプロ野球球団読売ジャイアンツの主催試合ならびに、読売ジャイアンツと対戦する球団主催の試合の中継放送について解説する。	このこーもくでわ、にっぽんのぷろやきゅーきゅーだんよみうりじゃいあんつのしゅさいしあいならびに、よみうりじゃいあんつとたいせんするきゅーだんしゅさいのしあいのちゅーけいほうそーについてかいせつする。	NO_LABEL
なお、ラジオによる中継放送についてはラジオ日本ジャイアンツナイターの項目を参照。	なお、らじおによるちゅーけいほうそーについてわらじおにっぽんじゃいあんつないたーのこーもくをさんしょー。	NO_LABEL
日本のプロ野球試合の中継放送については統括組織ではなく、加盟する各球団が権利を有しており、放送局は各球団から放送権を購入して中継を行っている。	にっぽんのぷろやきゅーしあいのちゅーけいほうそーについてわとーかつそしきでわなく、かめいするかくきゅーだんがけんりをゆーしており、ほーそーきょくわかくきゅーだんからほーそーけんをこーにゅーしてちゅーけいをおこなっている。	NO_LABEL
現在は、主に以下の3パターンが存在する。	NO_PRONOUNCE	NO_LABEL
ジャイアンツ戦の場合は、長年、主催試合のテレビ中継は読売系の日本テレビによる独占状態が続き、全国の系列局へネットされていた事から、全国に多数の巨人ファンを獲得した。	じゃいあんつせんのばあいわ、ながねん、しゅさいしあいのてれびちゅーけいわよみうりけいのにほんてれびによるどくせんじょーたいがつずき、ぜんこくのけいれつきょくえねっとされていたことから、ぜんこくにたすーのきょじんふぁんをかくとくした。	NO_LABEL
ビジターとなる対戦球団主催の試合については、上記ルールが適用され、日本テレビで放送される試合数はわずかとなっている。	びじたーとなるたいせんきゅーだんしゅさいのしあいについてわ、じょーきるーるがてきよーされ、にほんてれびでほーそーされるしあいすーわわずかとなっている。	NO_LABEL
特に、中日・DeNA・ヤクルト主催試合については、日本テレビは放映権を持っていないため一切放送されていない。	NO_PRONOUNCE	NO_LABEL
なお、2013年には系列局の読売テレビがヤクルト・DeNA主催の阪神戦を、札幌テレビがDeNA主催の日本ハム戦を放送しているため、該当2球団については日本テレビもフジテレビ・TBSでの地上波放送がない試合については個別での購入が可能になったとみられるが、実施には至っていない。	NO_PRONOUNCE	NO_LABEL
日本テレビ中継試合については、放送時間が編成に左右されることが多く、読売社内では「ゲームセットまで放送されない」ことに対する不満の声が多かった。	NO_PRONOUNCE	NO_LABEL
このため、2001年に読売側がNHKに対して試合の完全放送を提案。	このため、にせんいちねんによみうりがわがえぬえいちけいにたいしてしあいのかんぜんほーそーをていあん。	NO_LABEL
2002年から年間10試合程度を総合テレビで地上波独占放送、また年30試合程度をハイビジョンテレビで中継することを受諾した。	にせんにねんからねんかんじゅうしあいていどをそーごーてれびでちじょーはどくせんほーそー、またとしさんじゅうしあいていどをはいびじょんてれびでちゅーけいすることをじゅだくした。	NO_LABEL
しかし、2004年の球界再編や更なるテレビ視聴率の低下などから、従来の日テレによる民放独占の方針を改め、他局での中継譲渡も検討されるようになり、2005年5月21日開催の東京ドーム・北海道日本ハムファイターズ戦の試合が日テレ以外の民放で初めてテレビ朝日から全国中継された。	NO_PRONOUNCE	NO_LABEL
更に2006年には、日テレのジャイアンツ主催試合中継は63試合に留まり、残り10試合はNHK総合で5試合、テレビ朝日で3試合、更に以前から主催試合中継が懸念されたフルネット系列局が少ないテレビ東京で2試合が割り当てられ、ここに至って日テレ独占状態は遂に完全崩壊となる。	さらににせんろくねんにわ、にってれのじゃいあんつしゅさいしあいちゅーけいわろくじゅうさんしあいにとまり、のこりじゅうしあいわえぬえいちけいそうごーでごしあい、てれびあさひでさんしあい、さらにいぜんからしゅさいしあいちゅーけいがけねんされたふるねっとけいれつきょくがすくないてれびとーきょーでにしあいがわりあてられ、ここにいたってにってれどくせんじょーたいわついにかんぜんほーかいとなる。	NO_LABEL
また、以前からキー局のジャイアンツ戦中継枠のうち一部を地元球団の試合に差し替えて中継する準キー局もあるが、地方都市に本拠を置く球団の試合を地元テレビ局がジャイアンツ戦を差し替えて中継する例も増えている。	また、いぜんからきーきょくのじゃいあんつせんちゅーけいわくのうちいちぶをじもときゅーだんのしあいにさしかえてちゅーけいするじゅんきーきょくもあるが、ちほーとしにほんきょをおくきゅーだんのしあいをじもとてれびきょくがじゃいあんつせんをさしかえてちゅーけいするれいもふえている。	NO_LABEL
東京ドーム開業以降の巨人主催の開幕試合は以下の通り。	とーきょーどーむかいぎょーいこーのきょじんしゅさいのかいまくしあいわいかのとーり。	NO_LABEL
地上波では、基本的に日本テレビが試合前のセレモニーからの完全生中継を行う。	ちじょーはでわ、きほんてきににほんてれびがしあいまえのせれもにーからのかんぜんなまちゅーけいをおこなう。	NO_LABEL
セレモニーでの国歌独唱や始球式は芸能人や有名スポーツ選手、その年話題となった人物などが務める場合が多い。	せれもにーでのこっかどくしょーやしきゅーしきわげいのーじんやゆーめいすぽーつせんしゅ、そのとしわだいとなったじんぶつなどがつとめるばあいがおーい。	NO_LABEL
1984年に、ジャイアンツが絡む試合の大半は最大で30分延長のオプションにすることが恒例とされた。	せんきゅうひゃくはちじゅうよねんに、じゃいあんつがからむしあいのたいはんわさいだいでさんじゅっぷんえんちょーのおぷしょんにすることがこーれいとされた。	NO_LABEL
日本テレビやフジテレビでは60分延長したことがあった。	にほんてれびやふじてれびでわろくじゅっぷんえんちょーしたことがあった。	NO_LABEL
しかし、近年低下傾向であった視聴率が2005年度シーズンに於けるチームの低迷で更に低下したことで各テレビ局は以下の対応を行った。	しかし、きんねんていかけいこーであったしちょーりつがにせんごねんどしーずんにおけるちーむのていめいでさらにていかしたことでかくてれびきょくわいかのたいおーをおこなった。	NO_LABEL
フジテレビは2005年8月4日放映の広島東洋との対戦から最大延長を15分に短縮し、1ヵ月後の9月からは延長の廃止を決定した。	NO_PRONOUNCE	NO_LABEL
それに追随してTBSも2005年8月17日の中日戦からやはり延長オプションを30分から15分に縮小した。	それについずいしててぃーびーえすもにせんごねんはちがつじゅうしちにちのちゅーにちせんからやはりえんちょーおぷしょんをさんじゅっぷんからじゅうごふんにしゅくしょーした。	NO_LABEL
そして読売新聞系のテレビ局である日本テレビもついに8月9日からの横浜ベイスターズ戦から延長時間の見直しを行うことにし、30分延長の短縮は原則しないが、試合の展開で一方的な大差がついた場合は定時、または延長途中での打ち切りも行うことにした。	そしてよみうりしんぶんけいのてれびきょくであるにほんてれびもついにはちがつここのかからのよこはまべいすたーずせんからえんちょーじかんのみなおしをおこなうことにし、さんじゅっぷんえんちょーのたんしゅくわげんそくしないが、しあいのてんかいでいっぽーてきなたいさがついたばあいわていじ、またわえんちょーとちゅーでのうちきりもおこなうことにした。	NO_LABEL
だが延長中止の基準がきちんと確立されているとは言えず、ジャイアンツリードの試合が打ち切られたケースもある。	だがえんちょーちゅーしのきじゅんがきちんとかくりつされているとわいえず、じゃいあんつりーどのしあいがうちきられたけーすもある。	NO_LABEL
また巨人の優勝が完全に消滅した同年9月以後、当初全国放送が予定されていた一部のビジターゲームの試合のゴールデン枠での中継が中止され、広島戦と中日戦はそれぞれのホームタウンでは生中継されたが、関東広域圏では深夜の録画中継に追いやられた。	またきょじんのゆーしょーがかんぜんにしょーめつしたどーねんくがついご、とーしょぜんこくほうそーがよていされていたいちぶのびじたーげーむのしあいのごーるでんわくでのちゅーけいがちゅーしされ、ひろしませんとちゅーにちせんわそれぞれのほーむたうんでわなまちゅーけいされたが、かんとーこーいきけんでわしんやのろくがちゅーけいにおいやられた。	NO_LABEL
2006年には開幕当初から2005年から引き続き延長時間を15分と設定している試合がある。	にせんろくねんにわかいまくとーしょからにせんごねんからひきつずきえんちょーじかんをじゅうごふんとせっていしているしあいがある。	NO_LABEL
同年も視聴率の低迷は続き、4月27日の広島東洋カープ戦を皮切りにオリックス・バファローズ、西武ライオンズ、東北楽天ゴールデンイーグルス戦が放送されなかったが、6月はプライムタイムに中継されていた。	どーねんもしちょーりつのていめいわつずき、しがつにじゅうしちにちのひろしまとーよーかーぷせんをかわきりにおりっくすばふぁろーず、せいぶらいおんず、とーほくらくてんごーるでんいーぐるすせんがほーそーされなかったが、ろくがつわぷらいむたいむにちゅーけいされていた。	NO_LABEL
視聴率低迷を受けてフジテレビは7月の巨人戦の3試合の中継の延長放送の取り止めを表明し、併せて更に8月以後の5試合の地上波での中継放送そのものの取りやめを表明した。	しちょーりつていめいをうけてふじてれびわしちがつのきょじんせんのさんしあいのちゅーけいのえんちょーほーそーのとりやめをひょーめいし、あわせてさらにはちがついごのごしあいのちじょーはでのちゅーけいほうそーそのもののとりやめをひょーめいした。	NO_LABEL
 また、7月6日には日本テレビが「延長の可能性あり」と発表しつつも中日戦の野球中継延長を取りやめ、それ以降の試合中継でも試合内容には関係なく延長は行われなかった。	NO_PRONOUNCE	NO_LABEL
8月1日に日テレは「巨人の優勝の可能性が低いことや、中継後のレギュラー番組を楽しみにしている視聴者への配慮などを総合的に判断した」としてテレビ中継の延長を原則行わないことを決め、日テレG+の完全中継放送に変更となった。	NO_PRONOUNCE	NO_LABEL
同日の阪神戦から実施された。	どーじつのはんしんせんからじっしされた。	NO_LABEL
野球中継の視聴率低下は中継そのものだけではなく、中継がない週のレギュラー番組の視聴率低下、更に中継延長による21時台以後の番組の遅延から視聴者離れが深刻になり、全体の番組編成に多大な影響を与える。	やきゅーちゅーけいのしちょーりつていかわちゅーけいそのものだけでわなく、ちゅーけいがないしゅーのれぎゅらーばんぐみのしちょーりつていか、さらにちゅーけいえんちょーによるにじゅういちじだいいごのばんぐみのちえんからしちょーしゃばなれがしんこくになり、ぜんたいのばんぐみへんせいにただいなえいきょーをあたえる。	NO_LABEL
これ以降、地上波の巨人戦中継は延長のみならず中継自体の中止へと繋がってゆく。	これいこー、ちじょーはのきょじんせんちゅーけいわえんちょーのみならずちゅーけいじたいのちゅーしえとつながってゆく。	NO_LABEL
2005年9月2日にフジテレビ・テレビ新広島で放送の広島戦は「編成上の都合」で広島と東京との、2地区におけるローカル中継に留めた。	NO_PRONOUNCE	NO_LABEL
これは本来7月10日開催予定だった試合が雨で中止になりその予備日としてこの日に組み込まれたものの、スポンサーとの折り合いが付かなかったためである。	これわほんらいしちがつとおかかいさいよていだったしあいがあめでちゅーしになりそのよびびとしてこのひにくみこまれたものの、すぽんさーとのおりあいがつかなかったためである。	NO_LABEL
また、中継後のレギュラー番組が人気番組の『金曜エンタテイメント』で、内容が2夜連続である為中継は避けたいという判断が働いたという見方もある。	NO_PRONOUNCE	NO_LABEL
またテレビ朝日でも同9月8日にゴールデンタイムで放送する予定であったヤクルト戦を急遽深夜枠での放送に切り替えるという初めての事例が発生した。	またてれびあさひでもどーくがつようかにごーるでんたいむでほーそーするよていであったやくるとせんをきゅーきょしんやわくでのほーそーにきりかえるとゆうはじめてのじれいがはっせいした。	NO_LABEL
さらに9月19日からのヤクルト3連戦は試合展開に関係なく延長なし、9月28日の阪神戦も深夜のダイジェスト放送も無し、10月の主催4試合は地上波での生中継は実施せず、BS日テレとCSのG+での中継のみとなった。	NO_PRONOUNCE	NO_LABEL
2006年4月はチームが好調だったにも関わらず視聴率は低迷し、4月27日の対広島戦は地上波・BSでは放送されず、生中継はCSのJ sports plusのみで行われた。	NO_PRONOUNCE	NO_LABEL
また、先述のとおり横浜、中日、広島主催のビジターゲームと、一部交流戦に関しても全国中継を行わない試合が発生した。	また、せんじゅつのとーりよこはま、ちゅーにち、ひろしましゅさいのびじたーげーむと、いちぶこーりゅーせんにかんしてもぜんこくちゅーけいをおこなわないしあいがはっせいした。	NO_LABEL
特に、5月の楽天との交流戦ビジター試合では、第2試合以外では地上波の全国放送は無く、第3戦に至っては宮城県内でのテレビ中継すら行われなかったが、これはこの試合が主催者側の親会社である楽天へのID登録によって視聴可能なインターネットサイト「楽天イーグルスTV」での生放送が行われていることも影響している。	NO_PRONOUNCE	NO_LABEL
最終的にパ・リーグでは楽天だけが球団主催の巨人戦の全てを地上波で中継しなかった。	さいしゅーてきにぱりーぐでわらくてんだけがきゅーだんしゅさいのきょじんせんのすべてをちじょーはでちゅーけいしなかった。	NO_LABEL
7月には低迷を続ける視聴率を受けてフジテレビが同月の延長の取り止めと8月以降の試合は原則として地上波ではなく系列のCS放送にて中継することを表明した。	しちがつにわていめいをつずけるしちょーりつをうけてふじてれびがどーげつのえんちょーのとりやめとはちがついこーのしあいわげんそくとしてちじょーはでわなくけいれつのしーえすほうそーにてちゅーけいすることをひょーめいした。	NO_LABEL
また8月11-13日、及び9月18、19日の広島戦ビジターの全国放送も取りやめ、更に9月30日・10月1日の広島戦、10月3-5日の横浜戦のホームゲームも地上波では録画中継を含め一切中継がないという、日テレはジャイアンツの主力スポンサーでありながら全国中継はおろか、東京でも放映なしという異例の事態も起きた。	NO_PRONOUNCE	NO_LABEL
そして10月10日の東京ドームでの中日優勝決定試合も日テレ系列での地上波中継が一切行われず、日テレならびに地元局の中京テレビに中日ファンから苦情の電話が殺到する事態を招いた。	そしてじゅーがつとおかのとーきょーどーむでのちゅーにちゆーしょーけっていしあいもにってれけいれつでのちじょーはちゅーけいがいっさいおこなわれず、にってれならびにじもときょくのちゅーきょーてれびにちゅーにちふぁんからくじょーのでんわがさっとーするじたいをまねいた。	NO_LABEL
TBSもその後延長放送なしにしたり、放送権を持っていても地上波での全国中継を行わず、BS・CSの衛星放送のみで完全中継の放送を行う形となった。	NO_PRONOUNCE	NO_LABEL
テレビ朝日系列でも延長放送なしになり、BS朝日のみの単独放送になっている。	てれびあさひけいれつでもえんちょーほーそーなしになり、びーえすあさひのみのたんどくほーそーになっている。	NO_LABEL
2007年度はフジテレビ系列が最大15分の調整・テレビ朝日系列が4月の中継のみ最大15分の調整、TBS系列は3月30日の開幕戦のみ試合終了までの調整、日本テレビ系列は4月3日 - 5日の東京ドームでの開幕3連戦のみ21:24まで延長をするが、以降の日本テレビ・TBS・テレビ朝日各系列は基本的に延長しないことになった。	NO_PRONOUNCE	NO_LABEL
また、巨人戦の一部ナイターは自局系BSデジタル放送などに振り替え、地上波では放送されない。	また、きょじんせんのいちぶないたーわじきょくけいびーえすでじたるほうそーなどにふりかえ、ちじょーはでわほーそーされない。	NO_LABEL
また、日テレでのホームゲームの中継を42試合に削減し、残りの試合はBS日テレで20試合、NHK総合や他系列局に総計10試合が割り当てられた。	また、にってれでのほーむげーむのちゅーけいをよんじゅうにしあいにさくげんし、のこりのしあいわびーえすにってれでにじゅうしあい、えぬえいちけいそーごーやたけいれつきょくにそーけいじゅうしあいがわりあてられた。	NO_LABEL
8月24〜26日の広島vs巨人戦は広島県内でのローカル放送を含めた地上波はおろか、25・26日はBSでの放送もなく、J SPORTSでの中継だけとなった。	NO_PRONOUNCE	NO_LABEL
日テレでのホームゲーム中継は毎年削減され、2008年はほぼ前年並みの41試合だったが、2009年以後は放送の主軸を衛星に置くことになり、日テレG+は巨人主催の全72試合を生中継と深夜のディレード方式による録画放送、BS日テレは地上波との同時中継を含めた年間52試合の放送に拡大し、地上波は注目の好カードなど26試合にと前年の半数弱に縮小。	にってれでのほーむげーむちゅーけいわまいとしさくげんされ、にせんはちねんわほぼぜんねんなみのよんじゅういちしあいだったが、にせんきゅうねんいごわほーそーのしゅじくをえいせいにおくことになり、にってれじーたすわきょじんしゅさいのぜんななじゅうにしあいをなまちゅーけいとしんやのでぃれーどほーしきによるろくがほーそー、びーえすにってれわちじょーはとのどーじちゅーけいをふくめたねんかんごじゅうにしあいのほーそーにかくだいし、ちじょーはわちゅーもくのこーかーどなどにじゅうろくしあいにとぜんねんのはんすーじゃくにしゅくしょー。	NO_LABEL
前年まで主催試合を放送していたテレビ朝日とテレビ東京は放送から撤退した。	ぜんねんまでしゅさいしあいをほーそーしていたてれびあさひとてれびとーきょーわほーそーからてったいした。	NO_LABEL
なお、2013年はTBSテレビが巨人主催のオープン戦の生中継をしたが、WBCの強化試合だった。	なお、にせんじゅうさんねんわてぃーびーえすてれびがきょじんしゅさいのおーぷんせんのなまちゅーけいをしたが、だぶりゅーびーしーのきょーかしあいだった。	NO_LABEL
2010年には地上波での平日ナイターの放送を8試合に縮小、比較的家族が視聴しやすい土曜・日曜・祝日のデーゲームの中継に軸足を置き、BSでは地上波同時を含め56試合の放送に拡大している。	NO_PRONOUNCE	NO_LABEL
地上波のデーゲーム中継もナイター同様に全国放送されていたが、2014年はデーゲーム14試合のうち全国ネットは2試合のみ、残る12試合は関東ローカルでの放送になることが発表されている。	ちじょーはのでーげーむちゅーけいもないたーどーよーにぜんこくほーそーされていたが、にせんじゅうよねんわでーげーむじゅうよんしあいのうちぜんこくねっとわにしあいのみ、のこるじゅうにしあいわかんとーろーかるでのほーそーになることがはっぴょーされている。	NO_LABEL
なお、一部の試合は各系列のBSやCSでプロ野球トップ&リレー中継が行われている。	NO_PRONOUNCE	NO_LABEL
交流戦のパ・リーグ各チーム主催試合に関しては完全中継がなされることが多い。	こーりゅーせんのぱりーぐかくちーむしゅさいしあいにかんしてわかんぜんちゅーけいがなされることがおーい。	NO_LABEL
民放各局は巨人の優勝決定試合は通常より時間を大幅に延長する。	みんぽーかくきょくわきょじんのゆーしょーけっていしあいわつーじょーよりじかんをおーはばにえんちょーする。	NO_LABEL
2002年9月24日に巨人がリーグ優勝した際、試合中継を行っていたフジテレビが原監督の胴上げの瞬間を生中継するなどで150分の中継延長を行い、視聴率は平均で29.1％、瞬間最高では42.9％に達したが、翌日以降は巨人の試合を各局とも放送しなかった。	NO_PRONOUNCE	NO_LABEL
当時は松井秀喜に最終戦まで三冠王の可能性があり、最終戦に関しては翌朝ダイジェスト放送という結果となったため巨人ファンがテレビ局に抗議するという問題も起きた。	とーじわまついひできにさいしゅーせんまでさんかんおーのかのーせいがあり、さいしゅーせんにかんしてわよくあさだいじぇすとほーそーとゆうけっかとなったためきょじんふぁんがてれびきょくにこーぎするとゆうもんだいもおきた。	NO_LABEL
ただし、過去にも巨人の優勝の可能性が消えたときには中継が行われなかった年度がある。	ただし、かこにもきょじんのゆーしょーのかのーせいがきえたときにわちゅーけいがおこなわれなかったねんどがある。	NO_LABEL
2004年以降、視聴率低迷により日本テレビでも主催試合の中継を大幅に削減している。	にせんよねんいこー、しちょーりつていめいによりにほんてれびでもしゅさいしあいのちゅーけいをおーはばにさくげんしている。	NO_LABEL
巨人が5年ぶりの優勝が決まった2007年10月2日は秋の改編期と重なり、日本テレビでも特番を編成したため中継枠が取れなくなった。	きょじんがごねんぶりのゆーしょーがきまったにせんななねんじゅーがつふつかわあきのかいへんきとかさなり、にほんてれびでもとくばんをへんせいしたためちゅーけいわくがとれなくなった。	NO_LABEL
NHKBS-1とBS日テレ、日テレG+では完全生中継したものの地上波では踊る!さんま御殿の2時間半スペシャル内で胴上げをワイプ放送し、21時30分より10分間優勝決定シーンと監督インタビューを流した。	NO_PRONOUNCE	NO_LABEL
そのため女検事・霞夕子スペシャル以降の番組は10分繰り下げとなった。	そのためおんなけんじかすみゆーこすぺしゃるいこーのばんぐみわじゅっぷんくりさげとなった。	NO_LABEL
試合がなく他力での優勝だったケースを除いて、巨人の優勝が地上波での実況中継という形で全く放送されなかったのは異例であるが、2006年の中日優勝の試合も巨人のホームで、地上波での放映権のあるはずの日テレはおろか、中日の地元・愛知県の中京テレビでも放映されず、苦情が相次いだ。	NO_PRONOUNCE	NO_LABEL
こうした事を踏まえて、2009年は優勝の可能性がある9月21日～23日の中日戦のデーゲームを3戦共地上波で放送された。	NO_PRONOUNCE	NO_LABEL
2012年9月21日の対ヤクルト戦は当初、BS日テレと日テレG+のみの放送だったが、優勝マジックが1だったため、予定を変更して急遽地上波でも放送した。	NO_PRONOUNCE	NO_LABEL
この日、巨人はヤクルトに6-4で勝利し、3年ぶりのリーグ優勝を決めた。	NO_PRONOUNCE	NO_LABEL
2013年はマジック1で迎えた9月21日の広島戦は当初日本テレビでは中継の予定はなかったものの、予定を変更して急遽放送した。	にせんじゅうさんねんわまじっくいちでむかえたくがつにじゅういちにちのひろしませんわとーしょにほんてれびでわちゅーけいのよていわなかったものの、よていをへんこーしてきゅーきょほーそーした。	NO_LABEL
この日巨人は敗れ、優勝は決まらなかった。	このひきょじんわやぶれ、ゆーしょーわきまらなかった。	NO_LABEL
翌22日は、マジック対象チームの阪神がデーゲームで敗れ、ナイターの巨人は試合中に優勝が決まった。	よくにじゅうににちわ、まじっくたいしょーちーむのはんしんがでーげーむでやぶれ、ないたーのきょじんわしあいちゅーにゆーしょーがきまった。	NO_LABEL
このため、この日は巨人戦の地上波中継は行われず、胴上げも祝勝会も地上波では生中継されなかった。	このため、このひわきょじんせんのちじょーはちゅーけいわおこなわれず、どーあげもしゅくしょーかいもちじょーはでわなまちゅーけいされなかった。	NO_LABEL
2014年は9月26日に敵地・横浜スタジアムで優勝を決めたが、前年同様巨人戦の地上波中継は行われなかった。	NO_PRONOUNCE	NO_LABEL
2007年からはパ・リーグに続いてセ・リーグにもプレーオフ制度が導入され、『クライマックスシリーズ』として統一された制度の下で行われることとなった。	NO_PRONOUNCE	NO_LABEL
レギュラーシーズンの優勝チームと日本選手権シリーズ出場チームが異なるかもしれないという事態となるが、中継権に関しては、統括組織ではなくレギュラーシーズン同様に各球団に優先決定権がある。	れぎゅらーしーずんのゆーしょーちーむとにほんせんしゅけんしりーずしゅつじょーちーむがことなるかもしれないとゆうじたいとなるが、ちゅーけいけんにかんしてわ、とーかつそしきでわなくれぎゅらーしーずんどーよーにかくきゅーだんにゆーせんけっていけんがある。	NO_LABEL
しかし、日本シリーズに直結する試合であるだけに、出場する球団は自社の利益と公益性との狭間で、難しい対応を迫られることとなる。	しかし、にっぽんしりーずにちょっけつするしあいであるだけに、しゅつじょーするきゅーだんわじしゃのりえきとこーえきせいとのはざまで、むずかしいたいおーをせまられることとなる。	NO_LABEL
