チャンネル生回転TV Allザップ!は、2014年10月6日から2016年3月25日までBSスカパー!で放送されていたバラエティ番組。	NO_PRONOUNCE	NO_LABEL
この番組はスカパー!に加入していなくても無料で視聴できた。	このばんぐみわすかぱーにかにゅーしていなくてもむりょーでしちょーできた。	NO_LABEL
番組終了時	ばんぐみしゅーりょーじ	NO_LABEL
過去	かこ	NO_LABEL
番組終了時	ばんぐみしゅーりょーじ	NO_LABEL
過去	かこ	NO_LABEL
番組終了時	ばんぐみしゅーりょーじ	NO_LABEL
過去	かこ	NO_LABEL
