今井 和久は、日本のテレビドラマ演出家・映画監督。	NO_PRONOUNCE	NO_LABEL
石川県金沢市出身。	いしかわけんかなざわししゅっしん。	NO_LABEL
、テレビ朝日『南くんの恋人』『東京大学物語』『イグアナの娘』『ガラスの仮面』『氷点2001』TBS『山田太一ドラマ高原へいらっしゃい』関西テレビ『チームバチスタシリーズ』『美しい隣人』『GTO』等の連続ドラマや、TBS『いのちの島』等のスペシャルドラマを手掛ける一方、映画『ポストマン』松山千春自伝映画『旅立ち〜足寄より〜』も手掛け、MV『松山千春・あの日の僕等』等、幅広く活動中。	NO_PRONOUNCE	NO_LABEL
