北海道聖書学院は、北海道札幌市白石区北郷1条3丁目にある福音派の神学校である。	ほっかいどーせいしょがくいんわ、ほっかいどーさっぽろししろいしくきたごーいちじょーさんちょーめにあるふくいんはのしんがっこーである。	NO_LABEL
日本福音同盟の協力会員である。	にほんふくいんどーめいのきょーりょくかいいんである。	NO_LABEL
1964年に国際福音宣教会により設立された。	せんきゅうひゃくろくじゅうよねんにこくさいふくいんせんきょーかいによりせつりつされた。	NO_LABEL
設立当初より超教派協力による理事会のもとで運営され、1992年に宗教法人北海道福音伝道会北海道聖書学院となった。	せつりつとーしょよりちょーきょーはきょーりょくによるりじかいのもとでうんえいされ、せんきゅうひゃくきゅうじゅうにねんにしゅーきょーほーじんほっかいどーふくいんでんどーかいほっかいどーせいしょがくいんとなった。	NO_LABEL
「超教派・聖書信仰・福音主義」を掲げ、「キリストを知り、教会に、世界に、時代に仕える」をモットーにしている。	NO_PRONOUNCE	NO_LABEL
