ホーマー・エッゼルは、アメリカ合衆国・テキサス州出身の元プロ野球選手である。	NO_PRONOUNCE	NO_LABEL
1920年代に、主に三塁手として3シーズンプレイした。	NO_PRONOUNCE	NO_LABEL
4月22日、セントルイス・ブラウンズ在籍時に対シカゴ・ホワイトソックス戦でメジャーデビューを果たした。	しがつにじゅうににち、せんとるいすぶらうんずざいせきじにたいしかごほわいとそっくすせんでめじゃーでびゅーをはたした。	NO_LABEL
デビュー戦には代走として出場し、打席に入る事はなかった。	でびゅーせんにわだいそーとしてしゅつじょーし、だせきにはいることわなかった。	NO_LABEL
この年はサードを中心に88試合に出場し、打率.244・14打点・4盗塁という成績を残した。	NO_PRONOUNCE	NO_LABEL
サードの守備は、73試合の機会で10失策・守備率.961という成績だった。	NO_PRONOUNCE	NO_LABEL
4月14日、ブラウンズからボストン・レッドソックスにトレード移籍した。	しがつじゅうよっか、ぶらうんずからぼすとんれっどそっくすにとれーどいせきした。	NO_LABEL
同年、レッドソックスでは90試合に出場し、打率・打点・盗塁はいずれも前年を上回る成績を残した。	NO_PRONOUNCE	NO_LABEL
守備面でも、64試合でサードを守って守備率を.984まで上げたほか、21試合でショート、1試合でキャッチャーのポジションも守った。	NO_PRONOUNCE	NO_LABEL
は58試合の出場に終わったものの、打率.285をマークし、メジャーデビューから毎年打率を上昇させた。	NO_PRONOUNCE	NO_LABEL
一方で守備面では、サードを守った試合が47試合と自己最少だったにもかかわらず、自己ワーストとなる13失策を犯し、同じく守備率も自己ワーストだった。	NO_PRONOUNCE	NO_LABEL
同年12月9日にデトロイト・タイガースにトレードされたが、タイガースではメジャーの試合に出場する事はなく、1925年がメジャー最後のシーズンとなった。	どーねんじゅーにがつここのかにでとろいとたいがーすにとれーどされたが、たいがーすでわめじゃーのしあいにしゅつじょーすることわなく、せんきゅうひゃくにじゅうごねんがめじゃーさいごのしーずんとなった。	NO_LABEL
1976年8月3日、自身の生まれ故郷であるテキサス州の都市・サンアントニオで没し、亡骸はミッション・バリアル・パーク南に埋葬された。	NO_PRONOUNCE	NO_LABEL
