トーマス・シェクターは南アフリカ生まれのレーシングドライバー。	とーますしぇくたーわみなみあふりかうまれのれーしんぐどらいばー。	NO_LABEL
父親は1979年のF1ワールドチャンピオンのジョディー・シェクター、伯父は元F1ドライバーのイアン・シェクター。	ちちおやわせんきゅうひゃくななじゅうきゅうねんのえふわんわーるどちゃんぴおんのじょでぃーしぇくたー、おじわもとえふわんどらいばーのいあんしぇくたー。	NO_LABEL
イギリスF3選手権やフォーミュラ・ニッサンなどに参戦し、そこでの実績が認められ2001年にF1のジャガー・レーシングのテストドライバーとなったが、レースに参戦するチャンスは巡って来ず、この年限りでF1の世界から離れる。	NO_PRONOUNCE	NO_LABEL
2002年からはインディカー・シリーズに参戦を開始。	にせんにねんからわいんでぃかーしりーずにさんせんをかいし。	NO_LABEL
2007年までの6年間フル参戦し、2勝を挙げる。	にせんななねんまでのろくねんかんふるさんせんし、にしょーをあげる。	NO_LABEL
シリーズランキングでは2003年にシリーズ7位となったのを始め、2005年の9位、2006年と2007年に10位と4シーズンでトップ10を獲得。	NO_PRONOUNCE	NO_LABEL
2008年はレギュラーシートを獲得することは出来なかったが、インディ500など数レースにスポット参戦した。	にせんはちねんわれぎゅらーしーとをかくとくすることわできなかったが、いんでぃごひゃくなどすーれーすにすぽっとさんせんした。	NO_LABEL
2009年以降はインディ500を含むシリーズ数戦に出場している。	にせんきゅうねんいこーわいんでぃごひゃくをふくむしりーずすーせんにしゅつじょーしている。	NO_LABEL
インディ500には2002年から8年連続で出場しているが、2002年から2008年までの間は7年連続で予選グリッドは全て4列目の10位から12位であった。	いんでぃごひゃくにわにせんにねんからはちねんれんぞくでしゅつじょーしているが、にせんにねんからにせんはちねんまでのまわななねんれんぞくでよせんぐりっどわすべてよんれつめのじゅういからじゅうにーであった。	NO_LABEL
決勝の最高位は2003年の4位。	けっしょーのさいこーいわにせんさんねんのよんい。	NO_LABEL
7回目にして初めてスポット参戦という形で参戦した2008年のレースでは一時3位を走行したが、マシントラブルでリタイアとなった。	ななかいめにしてはじめてすぽっとさんせんとゆうかたちでさんせんしたにせんはちねんのれーすでわいちじさんいをそーこーしたが、ましんとらぶるでりたいあとなった。	NO_LABEL
2009年は22番手までのグリッドが確定する予選第2日目が終わってからの参戦であったため、予選は26位であったが、決勝は12位でフィニッシュした。	にせんきゅうねんわにじゅうにばんしゅまでのぐりっどがかくていするよせんだいふつかがおわってからのさんせんであったため、よせんわにじゅうろくいであったが、けっしょーわじゅうにーでふぃにっしゅした。	NO_LABEL
その後、翌戦のミルウォーキーではカーナンバー23で参戦し、テキサス以降はカーナンバー43で参戦することになった。	NO_PRONOUNCE	NO_LABEL
また、2005年にはA1グランプリの南アフリカ共和国代表として第2戦と第3戦に参加している。	また、にせんごねんにわえいわんぐらんぷりのみなみあふりかきょーわこくだいひょーとしてだいにせんとだいさんせんにさんかしている。	NO_LABEL
第2戦のドイツ、ユーロスピードウェイ・ラウジッツのレースでは入賞できなかったが、第3戦ポルトガルのエストリル・サーキットスプリントレースにて10位に入賞し、南アフリカチームに1ポイントをもたらした。	NO_PRONOUNCE	NO_LABEL
