山瀬村は秋田県北秋田郡にあった村。	やませむらわあきたけんきたーきたぐんにあったむら。	NO_LABEL
現在の大館市北西部、岩瀬川流域にあたる。	げんざいのおーだてしほくせいぶ、いわせがわりゅーいきにあたる。	NO_LABEL
山瀬村は周囲の町村と比較して発展していた。	やませむらわしゅーいのちょーそんとひかくしてはってんしていた。	NO_LABEL
江戸時代は伊多波武助の豪邸が山瀬村にあり、明治時代からは1881年創業で東北有数の企業であった田村鉄工所があったからである。	えどじだいわいたばぶすけのごーていがやませむらにあり、めいじじだいからわせんはっぴゃくはちじゅういちねんそーぎょーでとーほくゆーすーのきぎょーであったたむらてっこーしょがあったからである。	NO_LABEL
昭和初期には鉄工所に隣接して村役場、営林署、登記所などの官庁がひしめいていた。	しょーわしょきにわてっこーじょにりんせつしてむらやくば、えいりんしょ、とーきしょなどのかんちょーがひしめいていた。	NO_LABEL
鉄工所の道路を挟んで向かい側には岩瀬小学校があったが、この地は隣の下川沿村にあって、街が隣村とまたがる形となっていた。	てっこーじょのどーろをはさんでむかいがわにわいわせしょうがっこーがあったが、このちわとなりのしもかわぞいむらにあって、まちがりんそんとまたがるかたちとなっていた。	NO_LABEL
このため1946年には岩瀬村議会で村境変更案が出されたが、実現はしなかった。	このためせんきゅうひゃくよんじゅうろくねにわいわせむらぎかいでむらさかいへんこーあんがだされたが、じつげんわしなかった。	NO_LABEL
村域を日本国有鉄道の奥羽本線が通過していたが、駅は所在しなかった。	そんいきをにほんこくゆーてつどーのおーうほんせんがつーかしていたが、えきわしょざいしなかった。	NO_LABEL
