デスポルチーヴァ・フェロヴィアリアは、ブラジル・エスピリトサント州カリアシカを本拠地とするサッカークラブである。	NO_PRONOUNCE	NO_LABEL
単にデスポルチーヴァ、またはデスポルチーヴァ-ESと表記されることもある。	NO_PRONOUNCE	NO_LABEL
ホームスタジアムのエスタジオ・エンジェニェイロ・アレンカル・アラリペは1966年に開場され、かつては最大22,600人を収容していたが、その後の改修により現在は7,700人に縮小されている。	NO_PRONOUNCE	NO_LABEL
ヴァーレ・ド・リオ・ドセ、フェロヴィアリオ、カウエ、グアラニー、ヴァレリオドセ、クルゼイロの合併により、1963年7月7日にアソアシアソン・デスポルチーヴァ・フェロヴィアリア・ヴァーレ・ド・リオ・ドセとして創設される。	NO_PRONOUNCE	NO_LABEL
これらのクラブはヴァーレ・ド・リオ・ドセの鉄道従業員によって創設されたクラブであり、ヴァーレ・ド・リオ・ドセはこれらのクラブの合併を奨励した。	NO_PRONOUNCE	NO_LABEL
1964年、カンピオナート・カピシャーバに優勝し、最初のプロフェッショナルタイトルを獲得した。	せんきゅうひゃくろくじゅうよねん、かんぴおなーとかぴしゃーばにゆーしょーし、さいしょのぷろふぇっしょなるたいとるをかくとくした。	NO_LABEL
1974年、カンピオナート・ブラジレイロ・セリエAに初参戦し、34位となる。	NO_PRONOUNCE	NO_LABEL
1980年、カンピオナート・ブラジレイロ・セリエAにおいて、デスポルチーヴァにとって同大会史上最高の成績である15位となる。	NO_PRONOUNCE	NO_LABEL
1993年、カンピオナート・ブラジレイロ・セリエAに出場し、29位となる同大会への参加は現在までのところこれが最後になっている。	NO_PRONOUNCE	NO_LABEL
1999年4月19日、クラブは私会社となり、クラブ名をデスポルチーヴァ・カピシャーバに改めた。	NO_PRONOUNCE	NO_LABEL
2011年4月8日、クラブは元の鉄道スポーツチームに帰属することになり、クラブ名も元々のものに改称された。	にせんじゅういちねんしがつようか、くらぶはもとのてつどーすぽーつちーむにきぞくすることになり、くらぶめいももともとのものにかいしょーされた。	NO_LABEL
