伏せ越しは、水路工事における工法・技法、およびそれによる工作物のことである。	NO_PRONOUNCE	NO_LABEL
伏せ越し工法とも呼ばれる。	ふせこしこーほーともよばれる。	NO_LABEL
用水施設や排水施設などの水路において、開渠 となっている部分が、河川法の適用を受ける河川と交差している場合、逆サイフォン構造によって河川の河底を通過させる工法・技法、およびそれによる工作物で、施工方法が開削工法によるもの。	NO_PRONOUNCE	NO_LABEL
用水路・排水路など開水路の場合、河川と交差する部分で、沿岸の双方の高さに高低差が大きい場合、高い側から逆サイホンで河川を自然流下で通過させることが多い。	NO_PRONOUNCE	NO_LABEL
歴史的に古い水路・用水にも見られる工法である。	NO_PRONOUNCE	NO_LABEL
例として武蔵国見沼代用水の柴山伏越など、多数。	れいとしてむさしのくにみぬまだいよーすいのしばやまふくえつなど、たすー。	NO_LABEL
シールド工法および推進工法よるものは、河底横過トンネルと呼び、別物とされる。	しーるどこうほーおよびすいしんこうほーよるものわ、かわそこよこかとんねるとよび、べつものとされる。	NO_LABEL
伏せ越しによる水路の内、鉄道軌道下を横断するものを鉄道用語では「伏樋」と呼ぶ。	NO_PRONOUNCE	NO_LABEL
