『Promise／Star』は、2005年9月7日に発売された倖田來未の18枚目のシングルである。	NO_PRONOUNCE	NO_LABEL
発売元はrhythm zone。	はつばいもとわりずむぞーん。	NO_LABEL
前作「flower」からわずか1ヵ月後に発売された両A面シングルで、ベストアルバム『BEST〜first things〜』の先行シングルである。	NO_PRONOUNCE	NO_LABEL
「CDのみ」、「CD＋DVD」の2形態での発売。	NO_PRONOUNCE	NO_LABEL
ジャケットは、表側が「Promise」・裏側が「Star」仕様になっている。	NO_PRONOUNCE	NO_LABEL
「Promise」は、第20回日本ゴールドディスク大賞の授賞式で大トリとしても歌われた。	NO_PRONOUNCE	NO_LABEL
PVには俳優の内田朝陽が出演し、結婚直前に亡くなってしまう恋人を演じている。	ぴーぶいにわはいゆーのうちだあさひがしゅつえんし、けっこんちょくぜんになくなってしまうこいびとをえんじている。	NO_LABEL
本作以降、次作シングル「you」を皮切りに、12週連続シングルリリースという世界初の試みが成されることになる。	NO_PRONOUNCE	NO_LABEL
「Promise」はのちに2007年発売の企画ベスト『BEST 〜BOUNCE & LOVERS〜』と2016年発売のバラードコレクション『WINTER of LOVE』にも収録されている。	NO_PRONOUNCE	NO_LABEL
