レックス・ウェイン・ティラーソンは、アメリカ合衆国の実業家、政治家。	NO_PRONOUNCE	NO_LABEL
第69代アメリカ合衆国国務長官、アメリカ・石油メジャー最大手のエクソンモービル前会長兼最高経営責任者。	NO_PRONOUNCE	NO_LABEL
姓は「ティラソン」とも書かれる。	NO_PRONOUNCE	NO_LABEL
2018年3月13日にトランプ大統領から、国務長官解任をツイッターにて発表された。	にせんじゅうはちねんさんがつじゅうさんにちにとらんぷだいとうりょーから、こくむちょーかんかいにんをついったーにてはっぴょーされた。	NO_LABEL
1952年にアメリカ・テキサス州ウィチタフォールズでボビー・ジョー・ティラーソンとパティ・スー・パトンの間に生まれた。	NO_PRONOUNCE	NO_LABEL
1970年にを卒業した。	せんきゅうひゃくななじゅうねんにをそつぎょーした。	NO_LABEL
1975年にテキサス大学オースティン校の土木工学科で学士号を得た。	せんきゅうひゃくななじゅうごねんにてきさすだいがくおーすてぃんこーのどぼくこうがくかでがくしごーをえた。	NO_LABEL
大学卒業後の1975年に石油メジャーの旧エクソンに入社し、2006年にエクソンモービルの最高経営責任者に就任した。	だいがくそつぎょーごのせんきゅうひゃくななじゅうごねんにせきゆめじゃーのきゅーえくそんににゅーしゃし、にせんろくねんにえくそんもーびるのさいこーけいえいせきにんしゃにしゅーにんした。	NO_LABEL
2012年にロシア石油最大手の国営ロスネフチのセチン社長と北極海と黒海の共同開発で合意。	にせんじゅうにねんにろしあせきゆさいおおてのこくえいろすねふちのせちんしゃちょーとほっきょくかいとこっかいのきょーどーかいはつでごーい。	NO_LABEL
サハリン1ではタフな交渉を行ったことからロシア大統領のウラジミール・プーチンからも評価された。	NO_PRONOUNCE	NO_LABEL
2014年のウクライナ危機では、取引関係にあるロシアへの経済制裁に反対した。	にせんじゅうよねんのうくらいなききでわ、とりひきかんけいにあるろしあえのけいざいせいさいにはんたいした。	NO_LABEL
ティラーソンのCEO退任後の2018年3月にこの事業提携は解消されることとなった。	てぃらーそんのしーいーおーたいにんごのにせんじゅうはちねんさんがつにこのじぎょーていけいわかいしょーされることとなった。	NO_LABEL
2016年アメリカ合衆国大統領選挙の際はジェブ・ブッシュ候補を支持するも、ジョージ・W・ブッシュ政権関係者の推薦で共和党の予備選挙で勝利したトランプと知己を得る。	にせんじゅーろくねんあめりかがっしゅーこくだいとーりょーせんきょのさいわじぇぶぶっしゅこーほをしじするも、じょーじうぉーかーぶっしゅせいけんかんけいしゃのすいせんできょーわとーのよびせんきょでしょーりしたとらんぷとちきをえる。	NO_LABEL
ティラーソンとともに戦略国際問題研究所で理事を務め、トランプと旧知の仲だったヘンリー・キッシンジャー元国務長官が国務長官への指名を提案したとされる。	てぃらーそんとともにせんりゃくこくさいもんだいけんきゅーじょでりじをつとめ、とらんぷときゅーちのなかだったへんりーきっしんじゃーもとこくむちょーかんがこくむちょーかんえのしめいをていあんしたとされる。	NO_LABEL
2016年12月13日、ドナルド・トランプから国務長官に指名された。	にせんじゅうろくねんじゅーにがつじゅうさんにち、どなるどとらんぷからこくむちょーかんにしめいされた。	NO_LABEL
上院外交委員会の指名承認公聴会ではロシアによるクリミア・セヴァストポリの編入を批判してウクライナへの武器供与と当面の対ロシア制裁維持を主張した。	NO_PRONOUNCE	NO_LABEL
同公聴会ではイランや北朝鮮を「敵」と表現し、中華人民共和国による南シナ海での人工島建設と軍事施設の設置についてはロシアのクリミア編入に類似するとして認めない姿勢を明確にすべきだと発言した。	NO_PRONOUNCE	NO_LABEL
2017年1月3日、エクソンモービルは、ティラーソンの国務長官への指名に伴い、利益相反に関する法律の規定要件を満たすため、ティラーソンと同社との関係をすべて絶つ合意をしたことを明らかにした。	にせんじゅうななねんいちがつみっか、えくそんもーびるわ、てぃらーそんのこくむちょーかんえのしめいにともない、りえきそーはんにかんするほーりつのきていよーけんをみたすため、てぃらーそんとどーしゃとのかんけいをすべてたつごーいをしたことをあきらかにした。	NO_LABEL
2017年2月1日、上院により国務長官への就任が賛成56、反対43で承認された。	NO_PRONOUNCE	NO_LABEL
2月10日の中華人民共和国主席の習近平との電話会談でトランプ大統領が「一つの中国」の見直しから「一つの中国」政策支持に前言を翻した際には大統領上級顧問のジャレッド・クシュナーとともにティラーソンの説得があったとされ、公聴会や質疑でも「一つの中国」政策維持を主張していた。	NO_PRONOUNCE	NO_LABEL
中国の王毅外相との初会談の際も「一つの中国」政策維持を確認している。	NO_PRONOUNCE	NO_LABEL
中国への春節の祝電もトランプ大統領にティラーソンが提案したとされている。	ちゅーごくえのしゅんせつのしゅくでんもとらんぷだいとうりょーにてぃらーそんがていあんしたとされている。	NO_LABEL
2月16日、ロシアのセルゲイ・ラブロフ外相と初会談をG20外相会合が開催されているドイツ・ボンで行い、関係改善する前提としてウクライナ東部での停戦遵守を求めた。	NO_PRONOUNCE	NO_LABEL
ロシアと意見が一致しない分野では「同盟国の価値と利益を守る」とし、シリアの反政府勢力をテロリストと扱う限りロシアとは軍事協力しない意向も表明した。	NO_PRONOUNCE	NO_LABEL
日本・韓国と3か国外相会談も行い、北朝鮮の弾道ミサイル発射を非難し、核を含む「拡大抑止」の提供による日韓両国に対する防衛義務維持に言及した共同声明の作成を主導した。	NO_PRONOUNCE	NO_LABEL
2月28日、訪米した中国の外交担当国務委員の楊潔篪とワシントンの国務省で会談して、高官同士の定期対話が重要であるとの認識で一致し、北朝鮮の核開発の懸念について協議した。	にがつにじゅうはちにち、ほーべいしたちゅーごくのがいこーたんとーこくむいーんのようけっちとわしんとんのこくむしょーでかいだんして、こーかんどーしのていきたいわがじゅーよーであるとのにんしきでいっちし、きたちょーせんのかくかいはつのけねんについてきょーぎした。	NO_LABEL
3月15日から19日の日程で、国務長官就任後初のアジア歴訪として、日本、韓国、中国の順に訪問。	さんがつじゅうごにちからじゅうくにちのにっていで、こくむちょーかんしゅーにんごはつのあじあれきほーとして、にっぽん、かんこく、ちゅーごくのじゅんにほーもん。	NO_LABEL
16日に安倍晋三内閣総理大臣と首相官邸で会談し、対北朝鮮政策の見直しにおいて「あらゆる選択肢がテーブルの上にある」と圧力路線への移行を鮮明にした。	NO_PRONOUNCE	NO_LABEL
これに先立つ岸田文雄外相との会談後の共同記者会見では、「過去20年間努力してきたが、北朝鮮の非核化は失敗した。	NO_PRONOUNCE	NO_LABEL
脅威は増大しており、違うアプローチが必要だ」と発言した。	NO_PRONOUNCE	NO_LABEL
韓国から中国に向かう機上のインタビューでは、状況の展開によっては日韓の「核武装の容認」も考慮しなければならないと表明した。	NO_PRONOUNCE	NO_LABEL
18日の北京での王毅外相との会談では再び「一つの中国」政策の堅持を表明し、会談後の共同記者会見では、朝鮮半島の緊張が非常に高くなっていて「事態はかなり危険なレベルに達している」との認識を米中両国が共有し、北朝鮮の姿勢を転換させるべく「中国との協力を決意した」と述べた。	NO_PRONOUNCE	NO_LABEL
19日には、習近平国家主席と人民大会堂で会談した。	じゅうくにちにわ、しゅうきんぺいこっかしゅせきとじんみんだいかいどーでかいだんした。	NO_LABEL
習近平政権が米国に提案してきた「新型大国関係」に事実上同意して多くの観測筋を驚かせた。	NO_PRONOUNCE	NO_LABEL
4月7日に行われた米中首脳会談の最終調整も行った。	しがつなのかにおこなわれたべいちゅーしゅのーかいだんのさいしゅーちょーせいもおこなった。	NO_LABEL
4月12日、ロシアのモスクワを訪問してプーチン大統領やセルゲイ・ラブロフ外相と会談。	しがつじゅうににち、ろしあのもすくわをほーもんしてぷーちんだいとうりょーやせるげいらぶろふがいしょーとかいだん。	NO_LABEL
ティラーソンは米露関係は低調としつつ追加制裁は準備してないとして対話の維持で合意した。	てぃらーそんわべいろかんけいわていちょーとしつつついかせいさいわじゅんびしてないとしてたいわのいじでごーいした。	NO_LABEL
9月8日、プーチン大統領はティラーソンがロシアの在米公館施設閉鎖などの措置をとってることについて「以前ティラーソン氏に友好勲章を授与したが、彼は間違った仲間とともに今は別方向に進んでる」と批判した。	NO_PRONOUNCE	NO_LABEL
9月30日、訪問先の中国で「対話の意思があるか打診してる。	NO_PRONOUNCE	NO_LABEL
意思疎通できるチャンネルはある」とトランプ政権では初めて米朝の水面下での接触を認めたが、その直後に国務省は「北朝鮮に対話への意思は見られない」と声明し、10月1日にトランプ大統領は「チビのロケットマンとの対話、交渉は時間の無駄である。	NO_PRONOUNCE	NO_LABEL
長官はエネルギーを浪費してはならない」とティラーソンに助言したと述べ、2日にはホワイトハウスは「北朝鮮と交渉すべき時ではない」と発表した。	NO_PRONOUNCE	NO_LABEL
このことについてメディアはトランプとティラーソンの間に軋轢や確執が存在するという報道を行うもトランプ大統領とティラーソンは否定した。	このことについてめでぃあわとらんぷとてぃらーそんのまにあつれきやかくしつがそんざいするとゆうほーどーをおこなうもとらんぷだいとうりょーとてぃらーそんわひていした。	NO_LABEL
12月12日、「北朝鮮との最初の対話を無条件にすることも可能だ」と述べつつ朝鮮半島有事を想定した核の確保と難民対策や38度線を越えた米軍の撤退など具体的対応を中国と協議してることを初めて公表した。	NO_PRONOUNCE	NO_LABEL
7月にティラーソンはキッシンジャーから「米中は北朝鮮の政権崩壊に向けて在韓米軍撤退などを事前調整すべき」との提言を受けていたとされる。	NO_PRONOUNCE	NO_LABEL
ただし、北朝鮮からの核・ミサイル開発の破棄や挑発の中止を前提とする方針の転換とも受け取れるこの発言については国務省とホワイトハウスや国家安全保障問題担当大統領補佐官のハーバート・マクマスターなどが修正し、ティラーソン自身も「挑発の持続的停止が必要」「北朝鮮に有利な前提条件はないという意味だ」と釈明し、北朝鮮の核保有や米国の独自制裁緩和と人道支援再開と米韓合同軍事演習中止は受け入れないと表明した。	NO_PRONOUNCE	NO_LABEL
2018年1月16日、自身の呼びかけにより国連軍派遣国を中心に日本など関係国も加えた外相会合がカナダのバンクーバーで開かれ、「北朝鮮が対話路線で我々の意思や結束を分断することは認めない」と述べて海上阻止行動の強化や国連安保理の枠を超えた独自制裁の検討など完全で検証可能かつ不可逆な非核化まで北朝鮮への圧力を継続するとした共同声明を採択した。	NO_PRONOUNCE	NO_LABEL
ティラーソンは「冷戦時代への回帰」と会合に反発する中国とロシアを名指しして制裁履行を求めた。	NO_PRONOUNCE	NO_LABEL
2月に中国の楊潔篪国務委員が訪米した際に対北圧力の最大化で一致して「あなたと私が失敗すれば、戦争になるだろう」と述べた。	NO_PRONOUNCE	NO_LABEL
3月9日からアフリカ5か国の歴訪へ出発するが、同じ週内にトランプ大統領は会見した韓国の鄭義溶国家安全保障室長を通じて米朝首脳会談の意向を発表し、多忙と体調不良により訪問2か国目のケニアで行事出席をキャンセルしている。	NO_PRONOUNCE	NO_LABEL
3月13日にトランプ大統領は国務長官の解任を発表し、ティラーソンの後任としてマイク・ポンペオを指名した。	さんがつじゅうさんにちにとらんぷだいとうりょーわこくむちょーかんのかいにんをはっぴょーし、てぃらーそんのこーにんとしてまいくぽんぺおをしめいした。	NO_LABEL
ティラーソンは退任会見を開き、北朝鮮核問題と米中の関係改善で一定の成果をおさめたと振り返りつつロシアの行動への警戒感を述べた。	てぃらーそんわたいにんかいけんをひらき、きたちょーせんかくもんだいとよねなかのかんけいかいぜんでいっていのせいかをおさめたとふりかえりつつろしあのこーどーえのけいかいかんをのべた。	NO_LABEL
トランプ大統領は解任理由についてイランの核開発問題などをめぐる意見の不一致と述べた。	とらんぷだいとうりょーわかいにんりゆーについていらんのかくかいはつもんだいなどをめぐるいけんのふいっちとのべた。	NO_LABEL
3月31日をもって退任。	さんがつさんじゅういちにちをもってたいにん。	NO_LABEL
