ふるごおり 雅浩は、静岡県出身の俳優。	ふるごおりまさひろわ、しずおかけんしゅっしんのはいゆー。	NO_LABEL
フォセット・コンシェルジュ所属。	NO_PRONOUNCE	NO_LABEL
身長179cm。	しんちょーひゃくななじゅうきゅうせんちめーとる。	NO_LABEL
体重70kg。	たいじゅーななじゅうきろぐらむ。	NO_LABEL
血液型O型。	けつえきがたおーがた。	NO_LABEL
趣味は読書。	しゅみわどくしょ。	NO_LABEL
特技はスキューバダイビング。	とくぎわすきゅーばだいびんぐ。	NO_LABEL
