ホソカワミクロン株式会社は、大阪府枚方市に本社を置く、粉体処理システムを製造する企業である。	ほそかわみくろんかぶしきがいしゃわ、おーさかふひらかたしにほんしゃをおく、こなたいしょりしすてむをせいぞーするきぎょーである。	NO_LABEL
粉体製造機や混合機他、集塵や除塵などのナノ技術を駆使したシステムの企画製造をおこなう。	こなたいせいぞーきやこんごーきた、あつまりちりやじょちりなどのなのぎじゅつをくししたしすてむのきかくせいぞーをおこなう。	NO_LABEL
特に粉体製造システムで世界トップクラスの技術を持つことで知られ、ヨーロッパでは高い知名度を持つ。	とくにこなたいせいぞーしすてむでせかいとっぷくらすのぎじゅつをもつことでしられ、よーろっぱでわたかいちめいどをもつ。	NO_LABEL
近年はナノテクノロジーを武器に、同社の技術開発部門が化粧品や頭髪育毛剤などの医薬部外品などの開発などにも乗り出している。	きんねんわなのてくのろじーをぶきに、どーしゃのぎじゅつかいはつぶもんがけしょーひんやとーはついくもーざいなどのいやくぶがいひんなどのかいはつなどにものりだしている。	NO_LABEL
代表取締役社長は基本的に創業者の親族が就く同族経営である。	だいひょーとりしまりやくしゃちょーわきほんてきにそーぎょーしゃのしんぞくがつくどーぞくけいえいである。	NO_LABEL
ただし、先代社長の細川益男の死去直後には宮田清巳が社長に就任したため、一時は同族経営ではなくなったが、現在は益男の息子の悦男が社長に就いているため、再び同族経営に戻っている。	ただし、せんだいしゃちょーのほそかわますおのしきょちょくごにわみやたきよみがしゃちょーにしゅーにんしたため、いちじわどーぞくけいえいでわなくなったが、げんざいわますおのむすこのえつおがしゃちょーについているため、ふたたびどーぞくけいえいにもどっている。	NO_LABEL
会長歴任者の細川益男は、中央競馬において「マチカネ」の冠名がついた馬を所有する馬主としても有名であった。	NO_PRONOUNCE	NO_LABEL
ただし一部の競走馬に「ミクロン」と付けていた時期もあった。	NO_PRONOUNCE	NO_LABEL
その息子で現在の社長である細川悦男も馬主資格を取得しており、マチカネモエギなど、数頭を所有していた。	そのむすこでげんざいのしゃちょーであるほそかわえつおもばぬししかくをしゅとくしており、まちかねもえぎなど、すーとーをしょゆーしていた。	NO_LABEL
