『こもれびに揺れる魂のこえ』は、2003年7月11日にユニゾンシフトより発売されたアダルトゲーム。	NO_PRONOUNCE	NO_LABEL
公式ジャンルは「ハートサプリメントAVG」。	NO_PRONOUNCE	NO_LABEL
ある小さな村で牧師として働いていた主人公のもとへ、ある日、一通の手紙が届く。	あるちーさなむらでぼくしとしてはたらいていたしゅじんこーのもとえ、あるひ、いっつーのてがみがとどく。	NO_LABEL
名も知らぬ誰かから送られてきたその手紙には、まるで祈りの言葉のようにこう綴られていた。	なもしらぬだれかからおくられてきたそのてがみにわ、まるでいのりのことばのよーにこーつずられていた。	NO_LABEL
『ただ愛情を彼女たちに注いでやってください』	NO_PRONOUNCE	NO_LABEL
そこは、人里離れた場所にひっそりと立つある施設らしい。	そこわ、ひとざとはなれたばしょにひっそりとたつあるしせつらしい。	NO_LABEL
そこは、俗世間から切り離された、閉じた世界だった。	そこわ、ぞくせけんからきりはなされた、とじたせかいだった。	NO_LABEL
差出人が願うこと全てはかなえられないかもしれない。	さしだしにんがねがうことすべてわかなえられないかもしれない。	NO_LABEL
けれど、運命としかいいようのない何かに導かれて、彼はそこへと向かった。	けれど、うんめいとしかいいよーのないなにかにみちびかれて、かれわそこえとむかった。	NO_LABEL
この物語の正史では後にナツキ、アキノ、トウアを養子として引き取り、麻宮の姓と名前の漢字表紙を三つ子に与えた。	このものがたりのせいしではごになつき、あきの、とうあをよーしとしてひきとり、あさみやのせいとなまえのかんじひょーしをみつごにあたえた。	NO_LABEL
主人公より後に施設にやってくる三つ子の兄妹。	しゅじんこーよりのちにしせつにやってくるみつごのきょーだい。	NO_LABEL
後に主人公に由来する「麻宮」の苗字を名乗る。	NO_PRONOUNCE	NO_LABEL
