姜 東潤は、韓国の囲碁棋士。	きょーひがしじゅんわ、かんこくのいごきし。	NO_LABEL
ソウル市出身、韓国棋院所属、権甲龍八段門下、九段。	そーるししゅっしん、かんこくきいんしょぞく、くぉんかむにょんはったんもんか、くだん。	NO_LABEL
第1回ワールドマインドスポーツゲームズ優勝など世界戦優勝3回、電子ランド杯王中王戦優勝など。	だいいっかいわーるどまいんどすぽーつげーむずゆーしょーなどせかいせんゆーしょーさんかい、でんしらんどはいおーちゅーおーせんゆーしょーなど。	NO_LABEL
2000年世界青少年囲碁選手権大会少年組優勝。	にせんねんせかいせいしょーねんいごせんしゅけんたいかいしょーねんぐみゆーしょー。	NO_LABEL
他に李昌鎬杯、オリオン杯、サムシン生命杯などで優勝。	たにいちゃんほはい、おりおんはい、さむしんせいめいはいなどでゆーしょー。	NO_LABEL
2002年入段。	にせんにねんにゅーだん。	NO_LABEL
2005年、農心辛ラーメン杯で韓国代表として出場、新鋭連勝最強戦、新鋭プロ十傑戦優勝、またこの年は57勝21敗の成績で勝率3位、囲碁大賞新人賞。	にせんごねん、のんしむしんらーめんはいでかんこくだいひょーとしてしゅつじょー、しんえいれんしょーさいきょーせん、しんえいぷろじっけつせんゆーしょー、またこのとしわごじゅうななしょーにじゅういちはいのせいせきでしょーりつさんい、いごたいしょーしんじんしょー。	NO_LABEL
2006年、五段。	にせんろくねん、ごだん。	NO_LABEL
2007年電子ランド杯王中王戦決勝で李昌鎬を2-1で破ってタイトル獲得、これにより二段昇段して七段。	NO_PRONOUNCE	NO_LABEL
2008年、第1回ワールドマインドスポーツゲームズ男子個人戦で金メダル獲得。	にせんはちねん、だいいっかいわーるどまいんどすぽーつげーむずだんしこじんせんできんめだるかくとく。	NO_LABEL
同年名人戦決勝に進出し、九段昇段。	どーねんめいじんせんけっしょーにしんしゅつし、くだんしょーだん。	NO_LABEL
2009年には富士通杯で、決勝で李昌鎬を破り優勝。	にせんきゅうねんにわふじつーはいで、けっしょーでいちゃんほをやぶりゆーしょー。	NO_LABEL
2016年LG杯世界棋王戦優勝。	にせんじゅうろくねんえるじーはいせかいきおーせんゆーしょー。	NO_LABEL
2016年韓国プロ棋士賞金ランキングで3位になった。	にせんじゅうろくねんかんこくぷろきししょーきんらんきんぐでさんいになった。	NO_LABEL
韓国囲碁リーグでは、2004年ハンゲームで初出場。	かんこくいごりーぐでわ、にせんよねんはんげーむではつしゅつじょー。	NO_LABEL
2011年はポスコLEDチームで優勝、MVP、最多勝、指名ランキング1位獲得。	にせんじゅういちねんわぽすこえるいーでぃーちーむでゆーしょー、えむぶいぴー、さいたしょー、しめいらんきんぐいちーかくとく。	NO_LABEL
2008年の農心辛ラーメン杯では5人抜きを達成。	にせんはちねんののんしむしんらーめんはいでわごにんぬきをたっせい。	NO_LABEL
2011年から中国乙級リーグに出場、2014年は杭州チームで1勝10万元、負ければ無しの契約で出場し6勝1敗とした。	にせんじゅういちねんからちゅーごくおつきゅーりーぐにしゅつじょー、にせんじゅうよねんわこーしゅーちーむでいちしょーじゅうまんもと、まければなしのけいやくでしゅつじょーしろくしょーいちはいとした。	NO_LABEL
2015年からは甲級リーグ出場。	にせんじゅうごねんからわかぶときゅーりーぐしゅつじょー。	NO_LABEL
韓国囲碁棋士ランキングでは2008年3位となる。	かんこくいごきしらんきんぐでわにせんはちねんさんいとなる。	NO_LABEL
国際棋戦	こくさいきせん	NO_LABEL
国内棋戦	こくないきせん	NO_LABEL
国際棋戦	こくさいきせん	NO_LABEL
国内棋戦等	こくないきせんとー	NO_LABEL
