「プライマル」は、1996年2月5日に発売されたORIGINAL LOVE通算8作目のシングル。	NO_PRONOUNCE	NO_LABEL
「プライマル」は読売テレビ • 日本テレビ系ドラマ『オンリー・ユー〜愛されて〜』主題歌として制作された。	NO_PRONOUNCE	NO_LABEL
この曲は後にアルバム『Desire』にアルバム・ミックスで収録されたが、そこではテイク自体は同じながら、ストリングスを外し、イントロにコーラスが追加された。	NO_PRONOUNCE	NO_LABEL
シングル・ミックスは後に『変身』と『THE BEST SELECTIONS OF ORIGINAL LOVE』、2枚のベスト・アルバムにも収録された。	NO_PRONOUNCE	NO_LABEL
田島貴男のソロ・ユニットになってからリリースされた最初の楽曲。	NO_PRONOUNCE	NO_LABEL
この曲は1995年冬のツアーで新曲として披露されていた。	このきょくわせんきゅうひゃくきゅうじゅうごねんふゆのつあーでしんきょくとしてひろーされていた。	NO_LABEL
また、塩谷哲プロデュースのコンサートに田島がゲスト出演した時、柴田淳の要望でこの曲をデュエットした。	また、しおのやさとるぷろでゅーすのこんさーとにたじまがげすとしゅつえんしたとき、しばたあつしのよーぼーでこのきょくをでゅえっとした。	NO_LABEL
プロモーション・ヴィデオは東京の渋谷および、八丁堀 • 築地周辺で撮影された。	NO_PRONOUNCE	NO_LABEL
サビ直前のエレキシタールのフレーズについて、コンピレーション・アルバム『FREE SOUL EYES』収載の“Free Talk About Free Soul”にて二見裕志がラモン・ドジャー<Why Can't We Be Lovers>のイントロからの引用を指摘している。	NO_PRONOUNCE	NO_LABEL
「Your Song」はアルバム『RAINBOW RACE』からのシングルカット曲で、アルバム収録曲と同内容。	NO_PRONOUNCE	NO_LABEL
ジャケット裏面には、「プライマル」1番の英訳詞が赤いイタリック体で掲載されている。	NO_PRONOUNCE	NO_LABEL
