児島 由美は、日本のシンガーソングライター、生田流箏奏者である。	こじまゆみわ、にっぽんのしんがーそんぐらいたー、いくたりゅーそーそーしゃである。	NO_LABEL
演奏者としては児島雅月、雅月としても活動している。	えんそーしゃとしてわこじまみやびつき、まさつきとしてもかつどーしている。	NO_LABEL
愛称は「のの」。	NO_PRONOUNCE	NO_LABEL
夫は蟠龍寺スタジオ代表の吉田哲。	おっとわばんりゅーてらすたじおだいひょーのよしだてつ。	NO_LABEL
A型。	えーがた。	NO_LABEL
北海道札幌市生まれ。	ほっかいどーさっぽろしうまれ。	NO_LABEL
後に埼玉県浦和市に移る。	ごにさいたまけんうらわしにうつる。	NO_LABEL
大学卒業後は東京都目黒区在住。	だいがくそつぎょーごわとーきょーとめぐろくざいじゅー。	NO_LABEL
幼少時よりクラシックピアノ、10代から箏を習った。	よーしょーじよりくらしっくぴあの、じゅうだいからそーをならった。	NO_LABEL
中学の時に当時地元で攻勢を極めていたウラワ・ロックンロール・センターに触発され、バンド活動に誘われてオリジナル曲を作り始める。	NO_PRONOUNCE	NO_LABEL
埼玉県立浦和第一女子高等学校在学中には友人がこっそり応募した「告別式」でヤマハポピュラーソングコンテスト関東・甲信越大会に参加。	NO_PRONOUNCE	NO_LABEL
この時知り合ったヤマハの木下純プロデューサーに紹介され、明治学院大学法学部入学後、後の活動拠点となる蟠龍寺を訪問した。	このときしりあったやまはのきのしたじゅんぷろでゅーさーにしょーかいされ、めいじがくいんだいがくほーがくぶにゅーがくご、ごのかうどうきょてんとなるばんりゅーてらをほーもんした。	NO_LABEL
1977年、上記の友人の勧めで作った「夢の旅」にて第13回ポプコンつま恋本選会に出場、入賞を果たす。	NO_PRONOUNCE	NO_LABEL
1979年、「男の子みたいに」にてデビュー。	NO_PRONOUNCE	NO_LABEL
渡辺有三ディレクターの元で三枚のシングルと一枚のアルバム『コム・デ・ギャルソン』を発表した後、1982年からフリーとなった。	NO_PRONOUNCE	NO_LABEL
アルバム『W blossom』発表などのソロ活動に加え「児島由美と三人患者」「ジョネッツ」「コペルニクス」などを結成して演奏活動を広げるほか、谷山浩子の『ネコじゃないもん!』に参加。	NO_PRONOUNCE	NO_LABEL
『ひらけ!ポンキッキ』、『街道てくてく旅』、セイコーからくり時計などに楽曲を提供し、作詞・作曲家としても川上麻衣子、ジューシィ・フルーツ、葉山レイコ、西島三重子らに数多くの作品を提供した。	NO_PRONOUNCE	NO_LABEL
落語家の柳家小ゑんとは、長年に渡ってジョイント活動を続けている。	らくごかのやなぎやしょーえんとわ、ながねんにわたってじょいんとかつどーをつずけている。	NO_LABEL
現在はコペルニクスの一員として、福島邦子や田中景子のプロデュースも行っている。	げんざいわこぺるにくすのいちいんとして、ふくしまくにこやたなかけいこのぷろでゅーすもおこなっている。	NO_LABEL
2007年、大流行した「千の風になって」のサウンドプロデュースを務めた。	NO_PRONOUNCE	NO_LABEL
長く押井守監督作品の音楽スタッフとしてクレジットを連ねている。	ながくおしーまもるかんとくさくひんのおんがくすたっふとしてくれじっとをつらねている。	NO_LABEL
2009年には、押井演出による舞台版『鉄人28号』の全作詞を担当し監督のストーリーのインスパイアとなった。	NO_PRONOUNCE	NO_LABEL
2014年にはアニメ作品「機動警察パトレイバー」の実写版映画「TNGパトレイバー」に参加。	NO_PRONOUNCE	NO_LABEL
2012年より2014年まで元ふきのとうの山木康世のCD制作、コンサートツアー・メンバーとして活動した。	NO_PRONOUNCE	NO_LABEL
ラジオDJとしては、『軽音楽をあなたに』、『ジャパンポップス最前線』、中波各局の『児島由美の一口ジョッキー』、『ケンとノノのフライングマシーン』などに出演。	NO_PRONOUNCE	NO_LABEL
テレビでは『パイオニア・ステレオ音楽館』にて小室等と共演した。	NO_PRONOUNCE	NO_LABEL
NHK教育TV『ホビー百科〜電脳音楽塾』では小泉まさみと共にパソコン講師を務めたことがある。	NO_PRONOUNCE	NO_LABEL
NHK-BS『街道てくてく旅』ではレギュラー出演、『にっぽん木造駅舎の旅』では鉄道の日特集にて出演。	NO_PRONOUNCE	NO_LABEL
NHK『クローズアップ現代』では番組初のピアノ演奏者として生演奏した。	NO_PRONOUNCE	NO_LABEL
また2002年より新井満のピアノ伴奏をつとめており、テレビ朝日『ワイド！スクランブル〜山本晋也監督の人間一滴』TBS『NEWS23〜金曜解放区』NHK『SONGS』に出演している。	NO_PRONOUNCE	NO_LABEL
2013年11月1日には、制作に携わった上智大学記念歌「神様のシンフォニー」にて天皇・皇后両陛下の拝謁に出向いた。	NO_PRONOUNCE	NO_LABEL
2014年6月6日NHK「おはよう日本」では正岡子規の俳句を松山市「ことばのちからの会」と共にピアノ伴奏と合唱で披露した。	NO_PRONOUNCE	NO_LABEL
2015年3月8日よりNHKワールド及びNHK-BS1でオンエア中の鉄道番組『Japan Railway Journal』の音楽制作を担当している。	NO_PRONOUNCE	NO_LABEL
2015年10月10日よりJR北海道・函館本線「大沼公園駅」にて、演奏担当した発着メロディ『千の風になって』が流れている。	NO_PRONOUNCE	NO_LABEL
2016年、蟠龍寺スタジオがTV番組の音楽を担当してきたことがきっかけで、ドナルド・キーン・センターの要請で講演会に参加。	NO_PRONOUNCE	NO_LABEL
また『イランカラプテ』によって内閣府の人権キャンペーンソングの制作に携わった。	NO_PRONOUNCE	NO_LABEL
2017年、奈良県で開催された『なら国民文化祭・障文祭』のテーマ音楽制作に携わりピアノ演奏などを行なった。	NO_PRONOUNCE	NO_LABEL
自身のパフォーマンスとしては練馬区の『ポレポレ塾』にて子供の歌を披露。	NO_PRONOUNCE	NO_LABEL
ヴェンタイン暮フェスに出演。	NO_PRONOUNCE	NO_LABEL
<br>	NO_PRONOUNCE	NO_LABEL
