ナレースワン級フリゲートは、タイと中国が共同で開発し、中国で建造されタイ海軍が運用するフリゲート。	なれーすわんきゅーふりげーとわ、たいとちゅーごくがきょーどーでかいはつし、ちゅーごくでけんぞーされたいかいぐんがうんよーするふりげーと。	NO_LABEL
中国側名称は"F25T型フリゲート"。	NO_PRONOUNCE	NO_LABEL
その設計に当たってはドイツのMEKO型フリゲートなどの技術が導入され、従来の中国製フリゲートよりも格段に近代化された。	そのせっけいにあたってわどいつのえむいーけーおーがたふりげーとなどのぎじゅつがどーにゅーされ、じゅーらいのちゅーごくせいふりげーとよりもかくだんにきんだいかされた。	NO_LABEL
また、西側諸国で標準的な各種装備を搭載しており、十分な多任務対応能力を備えている。	また、にしがわしょこくでひょーじゅんてきなかくしゅそーびをとーさいしており、じゅーぶんなたにんむたいおーのーりょくをそなえている。	NO_LABEL
その一方で、多国籍の装備を搭載したことからシステム統合に非常な困難を経ることとなり、中国を警戒して一部データは提供されず、さらにアジア通貨危機の影響で艦対空ミサイルなど一部装備品は後日装備とされた。	そのいっぽーで、たこくせきのそーびをとーさいしたことからしすてむとーごーにひじょーなこんなんをへることとなり、ちゅーごくをけいかいしていちぶでーたわていきょーされず、さらにあじあつーかききのえいきょーでかんたいくーみさいるなどいちぶそーびひんわごじつそーびとされた。	NO_LABEL
タイ海軍は、1980年代後半より、中国海軍の053H2型フリゲートの輸出型である053HT/HT型フリゲートの導入を進めていた。	NO_PRONOUNCE	NO_LABEL
しかし、これらの建造途中に再検討を行なった結果、これらは中国海軍の基準で建造されていたことから、居住性や耐航性でタイ海軍の基準には適合しない上に、搭載されている装備の大部分は旧式であり、システム統合はまったく不完全で、一線での戦闘に投入できるものではないという結論に達した。	しかし、これらのけんぞーとちゅーにさいけんとーをおこなったけっか、これらわちゅーごくかいぐんのきじゅんでけんぞーされていたことから、きょじゅーせいやつよしこーせいでたいかいぐんのきじゅんにわてきごーしないうえに、とーさいされているそーびのだいぶぶんわきゅーしきであり、しすてむとーごーわまったくふかんぜんで、いっせんでのせんとーにとーにゅーできるものでわないとゆうけつろんにたっした。	NO_LABEL
このことから、後期建造艦2隻は、まったく新しい設計に基づいた新型艦として建造することとなった。	NO_PRONOUNCE	NO_LABEL
これによって建造されたのが本級である。	これによってけんぞーされたのがほんきゅーである。	NO_LABEL
053HT型で中国製装備を搭載したことの反省から、ナレースワン級においては、西側諸国の装備を多く搭載することとした。	NO_PRONOUNCE	NO_LABEL
これにより、本級は、スペック表においては一流の性能を獲得することとなったが、調達元が多国籍となったことにより、そのシステム統合は非常な困難を経ることとなった。	これにより、ほんきゅーわ、すぺっくひょーにおいてわいちりゅーのせいのーをかくとくすることとなったが、ちょーたつもとがたこくせきとなったことにより、そのしすてむとーごーわひじょーなこんなんをへることとなった。	NO_LABEL
また、本級の建造開始の直前に、タイ海軍は053HT型の受領を完了したが、受領した4隻に建造上の不手際があったことから中国の造船技術に疑問を持ち、本級の発注取消しを伝える一幕があった。	NO_PRONOUNCE	NO_LABEL
最終的に、設計にドイツなど西側の企業を積極的に参加させ、またタイ海軍がより厳格に監督するという条件で、本級の建造が開始された。	さいしゅーてきに、せっけいにどいつなどにしがわのきぎょーをせっきょくてきにさんかさせ、またたいかいぐんがよりげんかくにかんとくするとゆうじょーけんで、ほんきゅーのけんぞーがかいしされた。	NO_LABEL
この決定により、本級の設計にはドイツのMEKO型フリゲートのノウハウが大いに反映され、より優れた設計となったが、建造の遅延は避けられなかった。	このけっていにより、ほんきゅーのせっけいにわどいつのえむいーけーおーがたふりげーとののーはうがおーいにはんえいされ、よりすぐれたせっけいとなったが、けんぞーのちえんわさけられなかった。	NO_LABEL
本級においては、Mk 45 5インチ砲、ハープーン艦対艦ミサイル、Mk46短魚雷など、武装の大部分にアメリカ製の機種が採用された。	NO_PRONOUNCE	NO_LABEL
またそれ以外にも、近接防御火器にはイタリア・ブレーダ社製ダルド・システムの中国版として76A式37mm連装機関砲と347G型射撃指揮レーダー、捜索レーダーにはイタリア・セレニア社のRAN-10Sを山寨化した360型、ソナーにはフランス製のDUBA-25を山寨化したSJD-7など、欧米製兵器の山寨版が広く搭載されている。	NO_PRONOUNCE	NO_LABEL
また本級は、中国製の戦術情報処理装置を装備しているとされていたが、その詳細は不明であった。	またほんきゅーわ、ちゅーごくせいのせんじゅつじょーほーしょりそーちをそーびしているとされていたが、そのしょーさいわふめいであった。	NO_LABEL
ただし本級と同時期に建造されていた中国海軍の江衛型フリゲートにおいては、フランス製のVega III戦術情報処理装置の山寨版であるZKJ-4、およびリンク 11戦術データ・リンクの山寨版であるHN-900を装備している。	NO_PRONOUNCE	NO_LABEL
また、本級は、軽空母「チャクリ・ナルエベト」の直衛艦として期待されたことから、ラタナコシン級コルベットに続くタイ海軍軍艦としては2例目の艦対空ミサイル装備として、シースパロー 短SAMを8セルのMk.48 VLSに収容して搭載する予定であった。	NO_PRONOUNCE	NO_LABEL
しかし、タイは1997年のアジア通貨危機の震源として壊滅的な打撃をこうむり、この影響で海軍予算は大幅に縮小されたことから、これは後日装備とされた。	しかし、たいわせんきゅうひゃくきゅうじゅうななのあじあつーかききのしんげんとしてかいめつてきなだげきをこーむり、このえいきょーでかいぐんよさんわおーはばにしゅくしょーされたことから、これわごじつそーびとされた。	NO_LABEL
その後、2012年より近代化改修が計画された。	そのご、にせんじゅうにねんよりきんだいかかいしゅーがけいかくされた。	NO_LABEL
この改修においてMk.41とESSMの導入が決定され、2013年には正式な契約が締結された。	NO_PRONOUNCE	NO_LABEL
また戦術情報処理装置はスウェーデン・SAAB社製の9LV Mk.4に、射撃指揮装置も同社製のCEROS 200に換装される。	NO_PRONOUNCE	NO_LABEL
2015年に行われた"CARAT 2015"で一番艦｢ナレースワン｣がESSMを発射した。	NO_PRONOUNCE	NO_LABEL
本級は、同時期に提示されたMEKO型フリゲートの3分の1の価格での調達に成功しており、コスト面では大きな成功を収めた。	ほんきゅーわ、どーじきにていじされたえむいーけーおーがたふりげーとのさんぶんのいちのかかくでのちょーたつにせいこーしており、こすとめんでわおーきなせいこーをおさめた。	NO_LABEL
その一方、西側の装備を寄せ集めたという印象は拭えず、技術水準としては依然として大きな隔たりがあるとも言われている。	そのいっぽー、にしがわのそーびをよせあつめたとゆういんしょーわぬぐえず、ぎじゅつすいじゅんとしてわいぜんとしておーきなへだたりがあるともいわれている。	NO_LABEL
しかし、タイ海軍は本級のコスト面での有利さを評価しており、近年では、同様の調達手法によって、パターニ級哨戒艦の調達を行なっている。	しかし、たいかいぐんわほんきゅーのこすとめんでのゆーりさをひょーかしており、きんねんでわ、どーよーのちょーたつしゅほーによって、ぱたーにきゅーしょーかいかんのちょーたつをおこなっている。	NO_LABEL
