松平 定休は、伊予今治藩の第6代藩主。	まつだいらていきゅーわ、いよいまばりはんのだいろくだいはんしゅ。	NO_LABEL
定房系久松松平家6代。	さだふさけいひさまつまつへいかろくだい。	NO_LABEL
宝暦2年7月25日、第5代藩主・松平定郷の長男・定温の長男として生まれる。	NO_PRONOUNCE	NO_LABEL
父が宝暦12年4月11日に早世し、祖父も宝暦13年4月19日に死去したため、同年6月14日に嫡孫承祖して藩主となる。	ちちがほうれきじゅうにねんしがつじゅういちにちにそーせいし、そふもほうれきじゅうさんねんしがつじゅうきゅうにちにしきょしたため、どーねんろくがつじゅうよっかにちゃくそんうけたまわそしてはんしゅとなる。	NO_LABEL
明和3年12月に従五位下、内膳正に叙任、後に河内守に遷任した。	めいわさんねんじゅーにがつにじゅうごいのげ、ないぜんせいにじょにん、のちにかわうちまもるにせんまかした。	NO_LABEL
藩政においては明和5年に後堀新田、寛政元年に向掘新田など、新田開発を行なって農業生産の安定化に努めた。	はんせいにおいてわめいわごねんにこーほりしんでん、かんせいがんねんにこーほしんでんなど、にったかいはつをおこなってのーぎょーせいさんのあんていかにつとめた。	NO_LABEL
寛政2年4月5日、長男・定剛に家督を譲って隠居した。	NO_PRONOUNCE	NO_LABEL
文政3年7月7日に死去した。	ぶんせいさんねんしちがつなのかにしきょした。	NO_LABEL
享年69。	NO_PRONOUNCE	NO_LABEL
