キャロル・ベイヤー・セイガーはアメリカ合衆国ニューヨーク市生まれの作詞家、作曲家。	きゃろるべいやーせいがーわあめりかがっしゅーこくにゅーよーくしうまれのさくしか、さっきょくか。	NO_LABEL
キャロルの作曲した最初のヒット曲は、マインドベンダーズの「グルービー・カインド・オブ・ラブ」で、このとき彼女はまだ10代だった。	NO_PRONOUNCE	NO_LABEL
1975年、メリサ・マンチェスターと共作した「ミッドナイト・ブルー」が、マンチェスターの歌唱により全米トップ10ヒットとなった。	NO_PRONOUNCE	NO_LABEL
1977年にはエレクトラ・レコードから初のソロ・アルバムを発表している。	NO_PRONOUNCE	NO_LABEL
映画の主題歌、挿入歌なども多数手掛けており、『007 私を愛したスパイ』のテーマ「Nobody Does It Better」、アカデミー歌曲賞を受賞した『ミスター・アーサー』のテーマ「Best That You Can Do」、『ラブinニューヨーク』のテーマ「That's What Friends Are For」がカバーして大ヒット)、『キャメロット』のテーマ「The Prayer」など多数の曲を作っている。	NO_PRONOUNCE	NO_LABEL
