目白 花子は、日本の女性漫画家、元同人作家である。	めじろはなこわ、にっぽんのじょせいまんがか、もとどーじんさっかである。	NO_LABEL
専門は少女漫画、青年漫画、女性漫画。	せんもんわしょーじょまんが、せいねんまんが、じょせいまんが。	NO_LABEL
千葉県出身。	ちばけんしゅっしん。	NO_LABEL
日本女子大学文学部卒。	にほんじょしだいがくぶんがくぶそつ。	NO_LABEL
大学在学中に同人作家となり、在学中に漫画家デビューすることになる学友であった高橋留美子と漫画研究会「」を結成、会誌 『びびっと』上で作品をした。	NO_PRONOUNCE	NO_LABEL
大学在学中に講談社の少年漫画新雑誌の人にスカウトされ、柴門ふみ、寺島令子などとデビューした。	だいがくざいがくちゅーにこーだんしゃのしょーねんまんがしんざっしのひとにすかうとされ、さいもんふみ、てらしまれいこなどとでびゅーした。	NO_LABEL
その後『mimi』に投稿して、1981年、漫画 『愛しているといってくれ』で漫画家デビューし直した。	NO_PRONOUNCE	NO_LABEL
作品は、講談社、小学館、集英社などの女性誌、青年誌で執筆している。	さくひんわ、こーだんしゃ、しょーがくかん、しゅーえいしゃなどのじょせいし、せいねんしでしっぴつしている。	NO_LABEL
ペンネームの「目白」は、出身大学の所在地に因む。	NO_PRONOUNCE	NO_LABEL
